[
    {
        "P_ACTIVATE_COND_ID": "10111",
        "P_COND_TYPE": "1",
        "P_COND_PARAM": "30000",
        "P_EXT_IMG_PARAM": "",
        "P_CREATEDATE": "2018-01-17 13:25:39",
        "P_UPDATEDATE": "2018-01-17 13:25:39"
    },
    {
        "P_ACTIVATE_COND_ID": "10112",
        "P_COND_TYPE": "4",
        "P_COND_PARAM": "1001310",
        "P_EXT_IMG_PARAM": "\u30d1\u30fc\u30c6\u30a3\u5185\u306b\u300c\u30f4\u30a1\u30eb\u30ac\u30b9\u300d\u304c\u3044\u308b\u6642\u3001",
        "P_CREATEDATE": "2018-01-17 13:25:39",
        "P_UPDATEDATE": "2018-01-17 13:25:39"
    },
    {
        "P_ACTIVATE_COND_ID": "10113",
        "P_COND_TYPE": "2",
        "P_COND_PARAM": "1",
        "P_EXT_IMG_PARAM": "",
        "P_CREATEDATE": "2018-01-17 13:25:39",
        "P_UPDATEDATE": "2018-01-17 13:25:39"
    },
    {
        "P_ACTIVATE_COND_ID": "10114",
        "P_COND_TYPE": "3",
        "P_COND_PARAM": "1001312",
        "P_EXT_IMG_PARAM": "",
        "P_CREATEDATE": "2018-01-17 13:25:39",
        "P_UPDATEDATE": "2018-01-17 13:25:39"
    },
    {
        "P_ACTIVATE_COND_ID": "10115",
        "P_COND_TYPE": "1",
        "P_COND_PARAM": "1100000",
        "P_EXT_IMG_PARAM": "\uff08\u4eee\uff09\u30df\u30d5\u30cd\u306e\u9b54\u5200",
        "P_CREATEDATE": "2018-01-17 13:25:39",
        "P_UPDATEDATE": "2018-01-17 13:25:39"
    },
    {
        "P_ACTIVATE_COND_ID": "10116",
        "P_COND_TYPE": "1",
        "P_COND_PARAM": "1100020",
        "P_EXT_IMG_PARAM": "\uff08\u4eee\uff09\u56db\u8056\u306e\u7d46",
        "P_CREATEDATE": "2018-01-17 13:25:39",
        "P_UPDATEDATE": "2018-01-17 13:25:39"
    },
    {
        "P_ACTIVATE_COND_ID": "10117",
        "P_COND_TYPE": "1",
        "P_COND_PARAM": "1100030",
        "P_EXT_IMG_PARAM": "\uff08\u4eee\uff09\u30a2\u30ea\u30a2\u30c8\u30b9\u306e\u5927\u76fe",
        "P_CREATEDATE": "2018-01-17 13:25:39",
        "P_UPDATEDATE": "2018-01-17 13:25:39"
    },
    {
        "P_ACTIVATE_COND_ID": "10118",
        "P_COND_TYPE": "1",
        "P_COND_PARAM": "1100040",
        "P_EXT_IMG_PARAM": "\uff08\u4eee\uff09\u30df\u30bb\u30eb\u306e\u6fc0\u52b1",
        "P_CREATEDATE": "2018-01-17 13:25:39",
        "P_UPDATEDATE": "2018-01-17 13:25:39"
    },
    {
        "P_ACTIVATE_COND_ID": "10119",
        "P_COND_TYPE": "1",
        "P_COND_PARAM": "1100050",
        "P_EXT_IMG_PARAM": "\uff08\u4eee\uff09\u5fc3\u7cbe\u6676\u30b5\u30f3\u30af\u30aa\u30fc\u30ec",
        "P_CREATEDATE": "2018-01-17 13:25:39",
        "P_UPDATEDATE": "2018-01-17 13:25:39"
    },
    {
        "P_ACTIVATE_COND_ID": "10120",
        "P_COND_TYPE": "1",
        "P_COND_PARAM": "1300000",
        "P_EXT_IMG_PARAM": "\uff08\u4eee\uff09\u30b5\u30fc\u30b7\u30e3\u306e\u5200",
        "P_CREATEDATE": "2018-01-17 13:25:39",
        "P_UPDATEDATE": "2018-01-17 13:25:39"
    },
    {
        "P_ACTIVATE_COND_ID": "10121",
        "P_COND_TYPE": "1",
        "P_COND_PARAM": "1400000",
        "P_EXT_IMG_PARAM": "\uff08\u4eee\uff09\u9577\u8001\u306e\u60f3\u3044",
        "P_CREATEDATE": "2018-01-17 13:25:39",
        "P_UPDATEDATE": "2018-01-17 13:25:39"
    },
    {
        "P_ACTIVATE_COND_ID": "10122",
        "P_COND_TYPE": "1",
        "P_COND_PARAM": "1500000",
        "P_EXT_IMG_PARAM": "\uff08\u4eee\uff09\u601d\u3044\u51fa\u306e\u82b1",
        "P_CREATEDATE": "2018-01-17 13:25:39",
        "P_UPDATEDATE": "2018-01-17 13:25:39"
    },
    {
        "P_ACTIVATE_COND_ID": "10123",
        "P_COND_TYPE": "1",
        "P_COND_PARAM": "1700000",
        "P_EXT_IMG_PARAM": "\uff08\u4eee\uff09\u6b66\u88c5\u30d1\u30fc\u30c4",
        "P_CREATEDATE": "2018-01-17 13:25:39",
        "P_UPDATEDATE": "2018-01-17 13:25:39"
    }
]