[
    {
        "P_ACTIVATE_COND_ID": "10111",
        "P_COND_TYPE": "1",
        "P_COND_PARAM": "30000",
        "P_EXT_IMG_PARAM": "",
        "P_CREATEDATE": "2018-07-10 01:45:46",
        "P_UPDATEDATE": "2018-07-10 01:45:46"
    },
    {
        "P_ACTIVATE_COND_ID": "10112",
        "P_COND_TYPE": "4",
        "P_COND_PARAM": "1001310",
        "P_EXT_IMG_PARAM": "\u30d1\u30fc\u30c6\u30a3\u5185\u306b\u300c\u30f4\u30a1\u30eb\u30ac\u30b9\u300d\u304c\u3044\u308b\u6642\u3001",
        "P_CREATEDATE": "2018-07-10 01:45:46",
        "P_UPDATEDATE": "2018-07-10 01:45:46"
    },
    {
        "P_ACTIVATE_COND_ID": "10113",
        "P_COND_TYPE": "2",
        "P_COND_PARAM": "1",
        "P_EXT_IMG_PARAM": "",
        "P_CREATEDATE": "2018-07-10 01:45:46",
        "P_UPDATEDATE": "2018-07-10 01:45:46"
    },
    {
        "P_ACTIVATE_COND_ID": "10114",
        "P_COND_TYPE": "3",
        "P_COND_PARAM": "1001312",
        "P_EXT_IMG_PARAM": "",
        "P_CREATEDATE": "2018-07-10 01:45:46",
        "P_UPDATEDATE": "2018-07-10 01:45:46"
    },
    {
        "P_ACTIVATE_COND_ID": "10115",
        "P_COND_TYPE": "1",
        "P_COND_PARAM": "1100000",
        "P_EXT_IMG_PARAM": "",
        "P_CREATEDATE": "2018-07-10 01:45:46",
        "P_UPDATEDATE": "2018-07-10 01:45:46"
    },
    {
        "P_ACTIVATE_COND_ID": "10116",
        "P_COND_TYPE": "1",
        "P_COND_PARAM": "1100020",
        "P_EXT_IMG_PARAM": "",
        "P_CREATEDATE": "2018-07-10 01:45:46",
        "P_UPDATEDATE": "2018-07-10 01:45:46"
    },
    {
        "P_ACTIVATE_COND_ID": "10117",
        "P_COND_TYPE": "1",
        "P_COND_PARAM": "1100030",
        "P_EXT_IMG_PARAM": "",
        "P_CREATEDATE": "2018-07-10 01:45:46",
        "P_UPDATEDATE": "2018-07-10 01:45:46"
    },
    {
        "P_ACTIVATE_COND_ID": "10118",
        "P_COND_TYPE": "1",
        "P_COND_PARAM": "1200000",
        "P_EXT_IMG_PARAM": "",
        "P_CREATEDATE": "2018-07-10 01:45:46",
        "P_UPDATEDATE": "2018-07-10 01:45:46"
    },
    {
        "P_ACTIVATE_COND_ID": "10119",
        "P_COND_TYPE": "1",
        "P_COND_PARAM": "1100050",
        "P_EXT_IMG_PARAM": "",
        "P_CREATEDATE": "2018-07-10 01:45:46",
        "P_UPDATEDATE": "2018-07-10 01:45:46"
    },
    {
        "P_ACTIVATE_COND_ID": "10120",
        "P_COND_TYPE": "1",
        "P_COND_PARAM": "1300000",
        "P_EXT_IMG_PARAM": "",
        "P_CREATEDATE": "2018-07-10 01:45:46",
        "P_UPDATEDATE": "2018-07-10 01:45:46"
    },
    {
        "P_ACTIVATE_COND_ID": "10121",
        "P_COND_TYPE": "1",
        "P_COND_PARAM": "1400000",
        "P_EXT_IMG_PARAM": "",
        "P_CREATEDATE": "2018-07-10 01:45:46",
        "P_UPDATEDATE": "2018-07-10 01:45:46"
    },
    {
        "P_ACTIVATE_COND_ID": "10122",
        "P_COND_TYPE": "1",
        "P_COND_PARAM": "1500000",
        "P_EXT_IMG_PARAM": "",
        "P_CREATEDATE": "2018-07-10 01:45:46",
        "P_UPDATEDATE": "2018-07-10 01:45:46"
    },
    {
        "P_ACTIVATE_COND_ID": "10123",
        "P_COND_TYPE": "1",
        "P_COND_PARAM": "1700000",
        "P_EXT_IMG_PARAM": "",
        "P_CREATEDATE": "2018-07-10 01:45:46",
        "P_UPDATEDATE": "2018-07-10 01:45:46"
    },
    {
        "P_ACTIVATE_COND_ID": "10124",
        "P_COND_TYPE": "1",
        "P_COND_PARAM": "1000000",
        "P_EXT_IMG_PARAM": "",
        "P_CREATEDATE": "2018-07-10 01:45:46",
        "P_UPDATEDATE": "2018-07-10 01:45:46"
    },
    {
        "P_ACTIVATE_COND_ID": "10125",
        "P_COND_TYPE": "1",
        "P_COND_PARAM": "1100090",
        "P_EXT_IMG_PARAM": "",
        "P_CREATEDATE": "2018-07-10 01:45:46",
        "P_UPDATEDATE": "2018-07-10 01:45:46"
    },
    {
        "P_ACTIVATE_COND_ID": "10126",
        "P_COND_TYPE": "1",
        "P_COND_PARAM": "1100140",
        "P_EXT_IMG_PARAM": "",
        "P_CREATEDATE": "2018-07-10 01:45:46",
        "P_UPDATEDATE": "2018-07-10 01:45:46"
    },
    {
        "P_ACTIVATE_COND_ID": "10127",
        "P_COND_TYPE": "1",
        "P_COND_PARAM": "1100010",
        "P_EXT_IMG_PARAM": "",
        "P_CREATEDATE": "2018-07-10 01:45:46",
        "P_UPDATEDATE": "2018-07-10 01:45:46"
    },
    {
        "P_ACTIVATE_COND_ID": "10128",
        "P_COND_TYPE": "1",
        "P_COND_PARAM": "1400010",
        "P_EXT_IMG_PARAM": "",
        "P_CREATEDATE": "2018-07-10 01:45:46",
        "P_UPDATEDATE": "2018-07-10 01:45:46"
    },
    {
        "P_ACTIVATE_COND_ID": "10129",
        "P_COND_TYPE": "1",
        "P_COND_PARAM": "1100140",
        "P_EXT_IMG_PARAM": "",
        "P_CREATEDATE": "2018-07-10 01:45:46",
        "P_UPDATEDATE": "2018-07-10 01:45:46"
    },
    {
        "P_ACTIVATE_COND_ID": "10130",
        "P_COND_TYPE": "1",
        "P_COND_PARAM": "1700010",
        "P_EXT_IMG_PARAM": "",
        "P_CREATEDATE": "2018-07-10 01:45:46",
        "P_UPDATEDATE": "2018-07-10 01:45:46"
    },
    {
        "P_ACTIVATE_COND_ID": "10131",
        "P_COND_TYPE": "2",
        "P_COND_PARAM": "7",
        "P_EXT_IMG_PARAM": "",
        "P_CREATEDATE": "2018-07-10 01:45:46",
        "P_UPDATEDATE": "2018-07-10 01:45:46"
    },
    {
        "P_ACTIVATE_COND_ID": "10132",
        "P_COND_TYPE": "2",
        "P_COND_PARAM": "2",
        "P_EXT_IMG_PARAM": "",
        "P_CREATEDATE": "2018-07-10 01:45:46",
        "P_UPDATEDATE": "2018-07-10 01:45:46"
    },
    {
        "P_ACTIVATE_COND_ID": "10133",
        "P_COND_TYPE": "4",
        "P_COND_PARAM": "1003010",
        "P_EXT_IMG_PARAM": "",
        "P_CREATEDATE": "2018-07-10 01:45:46",
        "P_UPDATEDATE": "2018-07-10 01:45:46"
    },
    {
        "P_ACTIVATE_COND_ID": "10134",
        "P_COND_TYPE": "4",
        "P_COND_PARAM": "5003110",
        "P_EXT_IMG_PARAM": "",
        "P_CREATEDATE": "2018-07-10 01:45:46",
        "P_UPDATEDATE": "2018-07-10 01:45:46"
    },
    {
        "P_ACTIVATE_COND_ID": "10135",
        "P_COND_TYPE": "1",
        "P_COND_PARAM": "1900020",
        "P_EXT_IMG_PARAM": "",
        "P_CREATEDATE": "2018-07-10 01:45:46",
        "P_UPDATEDATE": "2018-07-10 01:45:46"
    },
    {
        "P_ACTIVATE_COND_ID": "10136",
        "P_COND_TYPE": "1",
        "P_COND_PARAM": "1800000",
        "P_EXT_IMG_PARAM": "",
        "P_CREATEDATE": "2018-07-10 01:45:46",
        "P_UPDATEDATE": "2018-07-10 01:45:46"
    },
    {
        "P_ACTIVATE_COND_ID": "15000",
        "P_COND_TYPE": "4",
        "P_COND_PARAM": "2003010",
        "P_EXT_IMG_PARAM": "",
        "P_CREATEDATE": "2018-07-10 01:45:46",
        "P_UPDATEDATE": "2018-07-10 01:45:46"
    },
    {
        "P_ACTIVATE_COND_ID": "15001",
        "P_COND_TYPE": "4",
        "P_COND_PARAM": "1003210",
        "P_EXT_IMG_PARAM": "",
        "P_CREATEDATE": "2018-07-10 01:45:46",
        "P_UPDATEDATE": "2018-07-10 01:45:46"
    },
    {
        "P_ACTIVATE_COND_ID": "20000",
        "P_COND_TYPE": "2",
        "P_COND_PARAM": "1",
        "P_EXT_IMG_PARAM": "",
        "P_CREATEDATE": "2018-07-10 01:45:46",
        "P_UPDATEDATE": "2018-07-10 01:45:46"
    },
    {
        "P_ACTIVATE_COND_ID": "20001",
        "P_COND_TYPE": "2",
        "P_COND_PARAM": "3",
        "P_EXT_IMG_PARAM": "",
        "P_CREATEDATE": "2018-07-10 01:45:46",
        "P_UPDATEDATE": "2018-07-10 01:45:46"
    },
    {
        "P_ACTIVATE_COND_ID": "20002",
        "P_COND_TYPE": "2",
        "P_COND_PARAM": "4",
        "P_EXT_IMG_PARAM": "",
        "P_CREATEDATE": "2018-07-10 01:45:46",
        "P_UPDATEDATE": "2018-07-10 01:45:46"
    },
    {
        "P_ACTIVATE_COND_ID": "20003",
        "P_COND_TYPE": "2",
        "P_COND_PARAM": "5",
        "P_EXT_IMG_PARAM": "",
        "P_CREATEDATE": "2018-07-10 01:45:46",
        "P_UPDATEDATE": "2018-07-10 01:45:46"
    },
    {
        "P_ACTIVATE_COND_ID": "20004",
        "P_COND_TYPE": "2",
        "P_COND_PARAM": "6",
        "P_EXT_IMG_PARAM": "",
        "P_CREATEDATE": "2018-07-10 01:45:46",
        "P_UPDATEDATE": "2018-07-10 01:45:46"
    },
    {
        "P_ACTIVATE_COND_ID": "20005",
        "P_COND_TYPE": "2",
        "P_COND_PARAM": "8",
        "P_EXT_IMG_PARAM": "",
        "P_CREATEDATE": "2018-07-10 01:45:46",
        "P_UPDATEDATE": "2018-07-10 01:45:46"
    },
    {
        "P_ACTIVATE_COND_ID": "20006",
        "P_COND_TYPE": "2",
        "P_COND_PARAM": "9",
        "P_EXT_IMG_PARAM": "",
        "P_CREATEDATE": "2018-07-10 01:45:46",
        "P_UPDATEDATE": "2018-07-10 01:45:46"
    },
    {
        "P_ACTIVATE_COND_ID": "20007",
        "P_COND_TYPE": "2",
        "P_COND_PARAM": "10",
        "P_EXT_IMG_PARAM": "",
        "P_CREATEDATE": "2018-07-10 01:45:46",
        "P_UPDATEDATE": "2018-07-10 01:45:46"
    },
    {
        "P_ACTIVATE_COND_ID": "20008",
        "P_COND_TYPE": "2",
        "P_COND_PARAM": "11",
        "P_EXT_IMG_PARAM": "",
        "P_CREATEDATE": "2018-07-10 01:45:46",
        "P_UPDATEDATE": "2018-07-10 01:45:46"
    },
    {
        "P_ACTIVATE_COND_ID": "20009",
        "P_COND_TYPE": "2",
        "P_COND_PARAM": "12",
        "P_EXT_IMG_PARAM": "",
        "P_CREATEDATE": "2018-07-10 01:45:46",
        "P_UPDATEDATE": "2018-07-10 01:45:46"
    },
    {
        "P_ACTIVATE_COND_ID": "20010",
        "P_COND_TYPE": "2",
        "P_COND_PARAM": "13",
        "P_EXT_IMG_PARAM": "",
        "P_CREATEDATE": "2018-07-10 01:45:46",
        "P_UPDATEDATE": "2018-07-10 01:45:46"
    },
    {
        "P_ACTIVATE_COND_ID": "20011",
        "P_COND_TYPE": "2",
        "P_COND_PARAM": "14",
        "P_EXT_IMG_PARAM": "",
        "P_CREATEDATE": "2018-07-10 01:45:46",
        "P_UPDATEDATE": "2018-07-10 01:45:46"
    },
    {
        "P_ACTIVATE_COND_ID": "20012",
        "P_COND_TYPE": "2",
        "P_COND_PARAM": "15",
        "P_EXT_IMG_PARAM": "",
        "P_CREATEDATE": "2018-07-10 01:45:46",
        "P_UPDATEDATE": "2018-07-10 01:45:46"
    },
    {
        "P_ACTIVATE_COND_ID": "20013",
        "P_COND_TYPE": "2",
        "P_COND_PARAM": "16",
        "P_EXT_IMG_PARAM": "",
        "P_CREATEDATE": "2018-07-10 01:45:46",
        "P_UPDATEDATE": "2018-07-10 01:45:46"
    },
    {
        "P_ACTIVATE_COND_ID": "20014",
        "P_COND_TYPE": "2",
        "P_COND_PARAM": "17",
        "P_EXT_IMG_PARAM": "",
        "P_CREATEDATE": "2018-07-10 01:45:46",
        "P_UPDATEDATE": "2018-07-10 01:45:46"
    },
    {
        "P_ACTIVATE_COND_ID": "20015",
        "P_COND_TYPE": "2",
        "P_COND_PARAM": "18",
        "P_EXT_IMG_PARAM": "",
        "P_CREATEDATE": "2018-07-10 01:45:46",
        "P_UPDATEDATE": "2018-07-10 01:45:46"
    }
]