[
    {
        "sX3HQc4a": "1",
        "fZVdw4Y3": "\u3053\u306e\u30af\u30a8\u30b9\u30c8\u3067\u306f\u26053\u672a\u6e80\u306e\u30e6\u30cb\u30c3\u30c8\u3092\u30d1\u30fc\u30c6\u30a3\u306b\u5165\u308c\u308b\u3053\u3068\u306f\u3067\u304d\u307e\u305b\u3093\u3002",
        "U5t2CMBu": "101",
        "9bpFf3Ut": "3",
        "P_EXT_IMG_PARAM": "",
        "P_CREATEDATE": "2018-04-17 01:41:03",
        "P_UPDATEDATE": "2018-04-17 01:41:03"
    },
    {
        "sX3HQc4a": "2",
        "fZVdw4Y3": "\u3053\u306e\u30af\u30a8\u30b9\u30c8\u3067\u306f\u26054\u4ee5\u4e0a\u306e\u30e6\u30cb\u30c3\u30c8\u3092\u30d1\u30fc\u30c6\u30a3\u306b\u5165\u308c\u308b\u3053\u3068\u306f\u3067\u304d\u307e\u305b\u3093\u3002",
        "U5t2CMBu": "102",
        "9bpFf3Ut": "3",
        "P_EXT_IMG_PARAM": "",
        "P_CREATEDATE": "2018-04-17 01:41:03",
        "P_UPDATEDATE": "2018-04-17 01:41:03"
    },
    {
        "sX3HQc4a": "3",
        "fZVdw4Y3": "\u3053\u306e\u30af\u30a8\u30b9\u30c8\u3067\u306f\u26053\u4ee5\u5916\u306e\u30e6\u30cb\u30c3\u30c8\u3092\u30d1\u30fc\u30c6\u30a3\u306b\u5165\u308c\u308b\u3053\u3068\u306f\u3067\u304d\u307e\u305b\u3093\u3002",
        "U5t2CMBu": "103",
        "9bpFf3Ut": "3",
        "P_EXT_IMG_PARAM": "",
        "P_CREATEDATE": "2018-04-17 01:41:03",
        "P_UPDATEDATE": "2018-04-17 01:41:03"
    },
    {
        "sX3HQc4a": "4",
        "fZVdw4Y3": "\u3053\u306e\u30af\u30a8\u30b9\u30c8\u3067\u306f\u708e\u5c5e\u6027\u30e6\u30cb\u30c3\u30c8\u3092\u30d1\u30fc\u30c6\u30a3\u306b\u5165\u308c\u308b\u5fc5\u8981\u304c\u3042\u308a\u307e\u3059\u3002",
        "U5t2CMBu": "104",
        "9bpFf3Ut": "1",
        "P_EXT_IMG_PARAM": "",
        "P_CREATEDATE": "2018-04-17 01:41:03",
        "P_UPDATEDATE": "2018-04-17 01:41:03"
    },
    {
        "sX3HQc4a": "5",
        "fZVdw4Y3": "\u3053\u306e\u30af\u30a8\u30b9\u30c8\u3067\u306f\u6c34\u5c5e\u6027\u30e6\u30cb\u30c3\u30c8\u3092\u30d1\u30fc\u30c6\u30a3\u306b\u5165\u308c\u308b\u3053\u3068\u306f\u3067\u304d\u307e\u305b\u3093\u3002",
        "U5t2CMBu": "105",
        "9bpFf3Ut": "2",
        "P_EXT_IMG_PARAM": "",
        "P_CREATEDATE": "2018-04-17 01:41:03",
        "P_UPDATEDATE": "2018-04-17 01:41:03"
    },
    {
        "sX3HQc4a": "6",
        "fZVdw4Y3": "\u3053\u306e\u30af\u30a8\u30b9\u30c8\u3067\u306f\u6a39\u5c5e\u6027\u4ee5\u5916\u306e\u30e6\u30cb\u30c3\u30c8\u3092\u30d1\u30fc\u30c6\u30a3\u306b\u5165\u308c\u308b\u3053\u3068\u306f\u3067\u304d\u307e\u305b\u3093\u3002",
        "U5t2CMBu": "106",
        "9bpFf3Ut": "3",
        "P_EXT_IMG_PARAM": "",
        "P_CREATEDATE": "2018-04-17 01:41:03",
        "P_UPDATEDATE": "2018-04-17 01:41:03"
    },
    {
        "sX3HQc4a": "7",
        "fZVdw4Y3": "\u3053\u306e\u30af\u30a8\u30b9\u30c8\u3067\u306f\u4e3b\u4eba\u516c\u3092\u30ea\u30fc\u30c0\u30fc\u306b\u3059\u308b\u5fc5\u8981\u304c\u3042\u308a\u307e\u3059\u3002",
        "U5t2CMBu": "107",
        "9bpFf3Ut": "-1",
        "P_EXT_IMG_PARAM": "",
        "P_CREATEDATE": "2018-04-17 01:41:03",
        "P_UPDATEDATE": "2018-04-17 01:41:03"
    },
    {
        "sX3HQc4a": "100",
        "fZVdw4Y3": "\u3053\u306e\u30af\u30a8\u30b9\u30c8\u3067\u306f\u4e3b\u4eba\u516c\u3092\u30d1\u30fc\u30c6\u30a3\u306b\u5165\u308c\u308b\u5fc5\u8981\u304c\u3042\u308a\u307e\u3059\u3002",
        "U5t2CMBu": "100",
        "9bpFf3Ut": "-1",
        "P_EXT_IMG_PARAM": "",
        "P_CREATEDATE": "2018-04-17 01:41:03",
        "P_UPDATEDATE": "2018-04-17 01:41:03"
    },
    {
        "sX3HQc4a": "101",
        "fZVdw4Y3": "\u3053\u306e\u30af\u30a8\u30b9\u30c8\u3067\u306f\u30ea\u30f3\u3092\u30d1\u30fc\u30c6\u30a3\u306b\u5165\u308c\u308b\u5fc5\u8981\u304c\u3042\u308a\u307e\u3059\u3002",
        "U5t2CMBu": "100",
        "9bpFf3Ut": "-2",
        "P_EXT_IMG_PARAM": "",
        "P_CREATEDATE": "2018-04-17 01:41:03",
        "P_UPDATEDATE": "2018-04-17 01:41:03"
    },
    {
        "sX3HQc4a": "102",
        "fZVdw4Y3": "\u3053\u306e\u30af\u30a8\u30b9\u30c8\u3067\u306f\u4e3b\u4eba\u516c\u3092\u30d1\u30fc\u30c6\u30a3\u306b\u5165\u308c\u308b\u3053\u3068\u306f\u3067\u304d\u307e\u305b\u3093\u3002",
        "U5t2CMBu": "113",
        "9bpFf3Ut": "-1",
        "P_EXT_IMG_PARAM": "",
        "P_CREATEDATE": "2018-04-17 01:41:03",
        "P_UPDATEDATE": "2018-04-17 01:41:03"
    },
    {
        "sX3HQc4a": "103",
        "fZVdw4Y3": "\u3053\u306e\u30af\u30a8\u30b9\u30c8\u3067\u306f\u30ea\u30f3\u3092\u30d1\u30fc\u30c6\u30a3\u306b\u5165\u308c\u308b\u3053\u3068\u306f\u3067\u304d\u307e\u305b\u3093\u3002",
        "U5t2CMBu": "113",
        "9bpFf3Ut": "-2",
        "P_EXT_IMG_PARAM": "",
        "P_CREATEDATE": "2018-04-17 01:41:03",
        "P_UPDATEDATE": "2018-04-17 01:41:03"
    },
    {
        "sX3HQc4a": "104",
        "fZVdw4Y3": "\u3053\u306e\u30af\u30a8\u30b9\u30c8\u3067\u306f\u4e3b\u4eba\u516c\u3068\u30ea\u30f3\u3092\u30d1\u30fc\u30c6\u30a3\u306b\u5165\u308c\u308b\u5fc5\u8981\u304c\u3042\u308a\u307e\u3059\u3002",
        "U5t2CMBu": "1",
        "9bpFf3Ut": "100,101",
        "P_EXT_IMG_PARAM": "",
        "P_CREATEDATE": "2018-04-17 01:41:03",
        "P_UPDATEDATE": "2018-04-17 01:41:03"
    },
    {
        "sX3HQc4a": "105",
        "fZVdw4Y3": "\u3053\u306e\u30af\u30a8\u30b9\u30c8\u3067\u306f\u4e3b\u4eba\u516c\u307e\u305f\u306f\u30ea\u30f3\u3092\u30d1\u30fc\u30c6\u30a3\u306b\u5165\u308c\u308b\u3053\u3068\u306f\u3067\u304d\u307e\u305b\u3093\u3002",
        "U5t2CMBu": "1",
        "9bpFf3Ut": "102,103",
        "P_EXT_IMG_PARAM": "",
        "P_CREATEDATE": "2018-04-17 01:41:03",
        "P_UPDATEDATE": "2018-04-17 01:41:03"
    },
    {
        "sX3HQc4a": "201",
        "fZVdw4Y3": "\u3053\u306e\u30af\u30a8\u30b9\u30c8\u3067\u306f\u708e\u5c5e\u6027\u30e6\u30cb\u30c3\u30c8\u3092\u30d1\u30fc\u30c6\u30a3\u306b\u5165\u308c\u308b\u5fc5\u8981\u304c\u3042\u308a\u307e\u3059\u3002",
        "U5t2CMBu": "104",
        "9bpFf3Ut": "1",
        "P_EXT_IMG_PARAM": "",
        "P_CREATEDATE": "2018-04-17 01:41:03",
        "P_UPDATEDATE": "2018-04-17 01:41:03"
    },
    {
        "sX3HQc4a": "202",
        "fZVdw4Y3": "\u3053\u306e\u30af\u30a8\u30b9\u30c8\u3067\u306f\u6c34\u5c5e\u6027\u30e6\u30cb\u30c3\u30c8\u3092\u30d1\u30fc\u30c6\u30a3\u306b\u5165\u308c\u308b\u5fc5\u8981\u304c\u3042\u308a\u307e\u3059\u3002",
        "U5t2CMBu": "104",
        "9bpFf3Ut": "2",
        "P_EXT_IMG_PARAM": "",
        "P_CREATEDATE": "2018-04-17 01:41:03",
        "P_UPDATEDATE": "2018-04-17 01:41:03"
    },
    {
        "sX3HQc4a": "203",
        "fZVdw4Y3": "\u3053\u306e\u30af\u30a8\u30b9\u30c8\u3067\u306f\u6a39\u5c5e\u6027\u30e6\u30cb\u30c3\u30c8\u3092\u30d1\u30fc\u30c6\u30a3\u306b\u5165\u308c\u308b\u5fc5\u8981\u304c\u3042\u308a\u307e\u3059\u3002",
        "U5t2CMBu": "104",
        "9bpFf3Ut": "3",
        "P_EXT_IMG_PARAM": "",
        "P_CREATEDATE": "2018-04-17 01:41:03",
        "P_UPDATEDATE": "2018-04-17 01:41:03"
    },
    {
        "sX3HQc4a": "204",
        "fZVdw4Y3": "\u3053\u306e\u30af\u30a8\u30b9\u30c8\u3067\u306f\u96f7\u5c5e\u6027\u30e6\u30cb\u30c3\u30c8\u3092\u30d1\u30fc\u30c6\u30a3\u306b\u5165\u308c\u308b\u5fc5\u8981\u304c\u3042\u308a\u307e\u3059\u3002",
        "U5t2CMBu": "104",
        "9bpFf3Ut": "4",
        "P_EXT_IMG_PARAM": "",
        "P_CREATEDATE": "2018-04-17 01:41:03",
        "P_UPDATEDATE": "2018-04-17 01:41:03"
    },
    {
        "sX3HQc4a": "205",
        "fZVdw4Y3": "\u3053\u306e\u30af\u30a8\u30b9\u30c8\u3067\u306f\u5149\u5c5e\u6027\u30e6\u30cb\u30c3\u30c8\u3092\u30d1\u30fc\u30c6\u30a3\u306b\u5165\u308c\u308b\u5fc5\u8981\u304c\u3042\u308a\u307e\u3059\u3002",
        "U5t2CMBu": "104",
        "9bpFf3Ut": "5",
        "P_EXT_IMG_PARAM": "",
        "P_CREATEDATE": "2018-04-17 01:41:03",
        "P_UPDATEDATE": "2018-04-17 01:41:03"
    },
    {
        "sX3HQc4a": "206",
        "fZVdw4Y3": "\u3053\u306e\u30af\u30a8\u30b9\u30c8\u3067\u306f\u95c7\u5c5e\u6027\u30e6\u30cb\u30c3\u30c8\u3092\u30d1\u30fc\u30c6\u30a3\u306b\u5165\u308c\u308b\u5fc5\u8981\u304c\u3042\u308a\u307e\u3059\u3002",
        "U5t2CMBu": "104",
        "9bpFf3Ut": "6",
        "P_EXT_IMG_PARAM": "",
        "P_CREATEDATE": "2018-04-17 01:41:03",
        "P_UPDATEDATE": "2018-04-17 01:41:03"
    },
    {
        "sX3HQc4a": "301",
        "fZVdw4Y3": "\u3053\u306e\u30af\u30a8\u30b9\u30c8\u3067\u306f\u708e\u5c5e\u6027\u30e6\u30cb\u30c3\u30c8\u3092\u30d1\u30fc\u30c6\u30a3\u306b\u5165\u308c\u308b\u3053\u3068\u306f\u3067\u304d\u307e\u305b\u3093\u3002",
        "U5t2CMBu": "105",
        "9bpFf3Ut": "1",
        "P_EXT_IMG_PARAM": "",
        "P_CREATEDATE": "2018-04-17 01:41:03",
        "P_UPDATEDATE": "2018-04-17 01:41:03"
    },
    {
        "sX3HQc4a": "302",
        "fZVdw4Y3": "\u3053\u306e\u30af\u30a8\u30b9\u30c8\u3067\u306f\u6c34\u5c5e\u6027\u30e6\u30cb\u30c3\u30c8\u3092\u30d1\u30fc\u30c6\u30a3\u306b\u5165\u308c\u308b\u3053\u3068\u306f\u3067\u304d\u307e\u305b\u3093\u3002",
        "U5t2CMBu": "105",
        "9bpFf3Ut": "2",
        "P_EXT_IMG_PARAM": "",
        "P_CREATEDATE": "2018-04-17 01:41:03",
        "P_UPDATEDATE": "2018-04-17 01:41:03"
    },
    {
        "sX3HQc4a": "303",
        "fZVdw4Y3": "\u3053\u306e\u30af\u30a8\u30b9\u30c8\u3067\u306f\u6a39\u5c5e\u6027\u30e6\u30cb\u30c3\u30c8\u3092\u30d1\u30fc\u30c6\u30a3\u306b\u5165\u308c\u308b\u3053\u3068\u306f\u3067\u304d\u307e\u305b\u3093\u3002",
        "U5t2CMBu": "105",
        "9bpFf3Ut": "3",
        "P_EXT_IMG_PARAM": "",
        "P_CREATEDATE": "2018-04-17 01:41:03",
        "P_UPDATEDATE": "2018-04-17 01:41:03"
    },
    {
        "sX3HQc4a": "304",
        "fZVdw4Y3": "\u3053\u306e\u30af\u30a8\u30b9\u30c8\u3067\u306f\u96f7\u5c5e\u6027\u30e6\u30cb\u30c3\u30c8\u3092\u30d1\u30fc\u30c6\u30a3\u306b\u5165\u308c\u308b\u3053\u3068\u306f\u3067\u304d\u307e\u305b\u3093\u3002",
        "U5t2CMBu": "105",
        "9bpFf3Ut": "4",
        "P_EXT_IMG_PARAM": "",
        "P_CREATEDATE": "2018-04-17 01:41:03",
        "P_UPDATEDATE": "2018-04-17 01:41:03"
    },
    {
        "sX3HQc4a": "305",
        "fZVdw4Y3": "\u3053\u306e\u30af\u30a8\u30b9\u30c8\u3067\u306f\u5149\u5c5e\u6027\u30e6\u30cb\u30c3\u30c8\u3092\u30d1\u30fc\u30c6\u30a3\u306b\u5165\u308c\u308b\u3053\u3068\u306f\u3067\u304d\u307e\u305b\u3093\u3002",
        "U5t2CMBu": "105",
        "9bpFf3Ut": "5",
        "P_EXT_IMG_PARAM": "",
        "P_CREATEDATE": "2018-04-17 01:41:03",
        "P_UPDATEDATE": "2018-04-17 01:41:03"
    },
    {
        "sX3HQc4a": "306",
        "fZVdw4Y3": "\u3053\u306e\u30af\u30a8\u30b9\u30c8\u3067\u306f\u95c7\u5c5e\u6027\u30e6\u30cb\u30c3\u30c8\u3092\u30d1\u30fc\u30c6\u30a3\u306b\u5165\u308c\u308b\u3053\u3068\u306f\u3067\u304d\u307e\u305b\u3093\u3002",
        "U5t2CMBu": "105",
        "9bpFf3Ut": "6",
        "P_EXT_IMG_PARAM": "",
        "P_CREATEDATE": "2018-04-17 01:41:03",
        "P_UPDATEDATE": "2018-04-17 01:41:03"
    },
    {
        "sX3HQc4a": "401",
        "fZVdw4Y3": "\u3053\u306e\u30af\u30a8\u30b9\u30c8\u3067\u306f\u708e\u5c5e\u6027\u4ee5\u5916\u306e\u30e6\u30cb\u30c3\u30c8\u3092\u30d1\u30fc\u30c6\u30a3\u306b\u5165\u308c\u308b\u3053\u3068\u306f\u3067\u304d\u307e\u305b\u3093\u3002",
        "U5t2CMBu": "106",
        "9bpFf3Ut": "1",
        "P_EXT_IMG_PARAM": "",
        "P_CREATEDATE": "2018-04-17 01:41:03",
        "P_UPDATEDATE": "2018-04-17 01:41:03"
    },
    {
        "sX3HQc4a": "402",
        "fZVdw4Y3": "\u3053\u306e\u30af\u30a8\u30b9\u30c8\u3067\u306f\u6c34\u5c5e\u6027\u4ee5\u5916\u306e\u30e6\u30cb\u30c3\u30c8\u3092\u30d1\u30fc\u30c6\u30a3\u306b\u5165\u308c\u308b\u3053\u3068\u306f\u3067\u304d\u307e\u305b\u3093\u3002",
        "U5t2CMBu": "106",
        "9bpFf3Ut": "2",
        "P_EXT_IMG_PARAM": "",
        "P_CREATEDATE": "2018-04-17 01:41:03",
        "P_UPDATEDATE": "2018-04-17 01:41:03"
    },
    {
        "sX3HQc4a": "403",
        "fZVdw4Y3": "\u3053\u306e\u30af\u30a8\u30b9\u30c8\u3067\u306f\u6a39\u5c5e\u6027\u4ee5\u5916\u306e\u30e6\u30cb\u30c3\u30c8\u3092\u30d1\u30fc\u30c6\u30a3\u306b\u5165\u308c\u308b\u3053\u3068\u306f\u3067\u304d\u307e\u305b\u3093\u3002",
        "U5t2CMBu": "106",
        "9bpFf3Ut": "3",
        "P_EXT_IMG_PARAM": "",
        "P_CREATEDATE": "2018-04-17 01:41:03",
        "P_UPDATEDATE": "2018-04-17 01:41:03"
    },
    {
        "sX3HQc4a": "404",
        "fZVdw4Y3": "\u3053\u306e\u30af\u30a8\u30b9\u30c8\u3067\u306f\u96f7\u5c5e\u6027\u4ee5\u5916\u306e\u30e6\u30cb\u30c3\u30c8\u3092\u30d1\u30fc\u30c6\u30a3\u306b\u5165\u308c\u308b\u3053\u3068\u306f\u3067\u304d\u307e\u305b\u3093\u3002",
        "U5t2CMBu": "106",
        "9bpFf3Ut": "4",
        "P_EXT_IMG_PARAM": "",
        "P_CREATEDATE": "2018-04-17 01:41:03",
        "P_UPDATEDATE": "2018-04-17 01:41:03"
    },
    {
        "sX3HQc4a": "405",
        "fZVdw4Y3": "\u3053\u306e\u30af\u30a8\u30b9\u30c8\u3067\u306f\u5149\u5c5e\u6027\u4ee5\u5916\u306e\u30e6\u30cb\u30c3\u30c8\u3092\u30d1\u30fc\u30c6\u30a3\u306b\u5165\u308c\u308b\u3053\u3068\u306f\u3067\u304d\u307e\u305b\u3093\u3002",
        "U5t2CMBu": "106",
        "9bpFf3Ut": "5",
        "P_EXT_IMG_PARAM": "",
        "P_CREATEDATE": "2018-04-17 01:41:03",
        "P_UPDATEDATE": "2018-04-17 01:41:03"
    },
    {
        "sX3HQc4a": "406",
        "fZVdw4Y3": "\u3053\u306e\u30af\u30a8\u30b9\u30c8\u3067\u306f\u95c7\u5c5e\u6027\u4ee5\u5916\u306e\u30e6\u30cb\u30c3\u30c8\u3092\u30d1\u30fc\u30c6\u30a3\u306b\u5165\u308c\u308b\u3053\u3068\u306f\u3067\u304d\u307e\u305b\u3093\u3002",
        "U5t2CMBu": "106",
        "9bpFf3Ut": "6",
        "P_EXT_IMG_PARAM": "",
        "P_CREATEDATE": "2018-04-17 01:41:03",
        "P_UPDATEDATE": "2018-04-17 01:41:03"
    }
]