[
    {
        "P_EXCHANGE_SHOP_ITEM_ID": "10001",
        "P_SUMMONER_ID": "1",
        "P_TARGET_TYPE": "30",
        "P_POINT": "200",
        "P_NAME": "\u56de\u5fa9\u85ac",
        "P_CATEGORY": "0",
        "P_DISPORDER": "1",
        "P_EXCHANGE_INFO": "20:1000:1",
        "P_ICON_ID": "0",
        "P_SCHEDULE_ID": "0",
        "P_COUNTER_ID": "0",
        "P_NEED_SWITCH_INFO": "",
        "P_HIDE_SWITCH_INFO": "",
        "P_OPEN_SWITCH_INFO": "",
        "P_NEW_SWITCH_INFO": "50000000",
        "P_CREATEDATE": "2018-02-17 01:55:06",
        "P_UPDATEDATE": "2018-02-17 01:55:06"
    },
    {
        "P_EXCHANGE_SHOP_ITEM_ID": "10002",
        "P_SUMMONER_ID": "1",
        "P_TARGET_TYPE": "30",
        "P_POINT": "300",
        "P_NAME": "\u6d44\u5316\u85ac",
        "P_CATEGORY": "0",
        "P_DISPORDER": "2",
        "P_EXCHANGE_INFO": "20:1100:1",
        "P_ICON_ID": "0",
        "P_SCHEDULE_ID": "0",
        "P_COUNTER_ID": "0",
        "P_NEED_SWITCH_INFO": "",
        "P_HIDE_SWITCH_INFO": "",
        "P_OPEN_SWITCH_INFO": "",
        "P_NEW_SWITCH_INFO": "50000002",
        "P_CREATEDATE": "2018-02-17 01:55:06",
        "P_UPDATEDATE": "2018-02-17 01:55:06"
    },
    {
        "P_EXCHANGE_SHOP_ITEM_ID": "10003",
        "P_SUMMONER_ID": "1",
        "P_TARGET_TYPE": "30",
        "P_POINT": "300",
        "P_NAME": "\u6d3b\u6027\u85ac",
        "P_CATEGORY": "0",
        "P_DISPORDER": "3",
        "P_EXCHANGE_INFO": "20:1101:1",
        "P_ICON_ID": "0",
        "P_SCHEDULE_ID": "0",
        "P_COUNTER_ID": "0",
        "P_NEED_SWITCH_INFO": "",
        "P_HIDE_SWITCH_INFO": "",
        "P_OPEN_SWITCH_INFO": "",
        "P_NEW_SWITCH_INFO": "50000003",
        "P_CREATEDATE": "2018-02-17 01:55:06",
        "P_UPDATEDATE": "2018-02-17 01:55:06"
    },
    {
        "P_EXCHANGE_SHOP_ITEM_ID": "10004",
        "P_SUMMONER_ID": "1",
        "P_TARGET_TYPE": "30",
        "P_POINT": "300",
        "P_NAME": "\u93ae\u9759\u85ac",
        "P_CATEGORY": "0",
        "P_DISPORDER": "4",
        "P_EXCHANGE_INFO": "20:1102:1",
        "P_ICON_ID": "0",
        "P_SCHEDULE_ID": "0",
        "P_COUNTER_ID": "0",
        "P_NEED_SWITCH_INFO": "",
        "P_HIDE_SWITCH_INFO": "",
        "P_OPEN_SWITCH_INFO": "",
        "P_NEW_SWITCH_INFO": "50000004",
        "P_CREATEDATE": "2018-02-17 01:55:06",
        "P_UPDATEDATE": "2018-02-17 01:55:06"
    },
    {
        "P_EXCHANGE_SHOP_ITEM_ID": "10005",
        "P_SUMMONER_ID": "1",
        "P_TARGET_TYPE": "30",
        "P_POINT": "5000",
        "P_NAME": "\u8607\u751f\u85ac",
        "P_CATEGORY": "0",
        "P_DISPORDER": "5",
        "P_EXCHANGE_INFO": "20:1410:1",
        "P_ICON_ID": "0",
        "P_SCHEDULE_ID": "0",
        "P_COUNTER_ID": "0",
        "P_NEED_SWITCH_INFO": "",
        "P_HIDE_SWITCH_INFO": "",
        "P_OPEN_SWITCH_INFO": "",
        "P_NEW_SWITCH_INFO": "50000001",
        "P_CREATEDATE": "2018-02-17 01:55:06",
        "P_UPDATEDATE": "2018-02-17 01:55:06"
    },
    {
        "P_EXCHANGE_SHOP_ITEM_ID": "20001",
        "P_SUMMONER_ID": "1",
        "P_TARGET_TYPE": "90",
        "P_POINT": "1",
        "P_NAME": "\u795e\u9a13\u306e\u8a3c",
        "P_CATEGORY": "0",
        "P_DISPORDER": "1",
        "P_EXCHANGE_INFO": "20:120000:1",
        "P_ICON_ID": "0",
        "P_SCHEDULE_ID": "0",
        "P_COUNTER_ID": "0",
        "P_NEED_SWITCH_INFO": "",
        "P_HIDE_SWITCH_INFO": "",
        "P_OPEN_SWITCH_INFO": "",
        "P_NEW_SWITCH_INFO": "50100000",
        "P_CREATEDATE": "2018-02-17 01:55:06",
        "P_UPDATEDATE": "2018-02-17 01:55:06"
    },
    {
        "P_EXCHANGE_SHOP_ITEM_ID": "20002",
        "P_SUMMONER_ID": "1",
        "P_TARGET_TYPE": "90",
        "P_POINT": "1",
        "P_NAME": "\u30e1\u30bf\u30eb\u30ad\u30fc",
        "P_CATEGORY": "0",
        "P_DISPORDER": "3",
        "P_EXCHANGE_INFO": "20:200000:1",
        "P_ICON_ID": "0",
        "P_SCHEDULE_ID": "0",
        "P_COUNTER_ID": "0",
        "P_NEED_SWITCH_INFO": "",
        "P_HIDE_SWITCH_INFO": "",
        "P_OPEN_SWITCH_INFO": "",
        "P_NEW_SWITCH_INFO": "50100001",
        "P_CREATEDATE": "2018-02-17 01:55:06",
        "P_UPDATEDATE": "2018-02-17 01:55:06"
    },
    {
        "P_EXCHANGE_SHOP_ITEM_ID": "20003",
        "P_SUMMONER_ID": "1",
        "P_TARGET_TYPE": "90",
        "P_POINT": "1",
        "P_NAME": "\u30b8\u30e5\u30a8\u30eb\u30ad\u30fc",
        "P_CATEGORY": "0",
        "P_DISPORDER": "4",
        "P_EXCHANGE_INFO": "20:200001:1",
        "P_ICON_ID": "0",
        "P_SCHEDULE_ID": "0",
        "P_COUNTER_ID": "0",
        "P_NEED_SWITCH_INFO": "",
        "P_HIDE_SWITCH_INFO": "",
        "P_OPEN_SWITCH_INFO": "",
        "P_NEW_SWITCH_INFO": "50100002",
        "P_CREATEDATE": "2018-02-17 01:55:06",
        "P_UPDATEDATE": "2018-02-17 01:55:06"
    },
    {
        "P_EXCHANGE_SHOP_ITEM_ID": "20004",
        "P_SUMMONER_ID": "1",
        "P_TARGET_TYPE": "90",
        "P_POINT": "1",
        "P_NAME": "\u30d0\u30fc\u30b9\u30c8\u30af\u30c3\u30ad\u30fc",
        "P_CATEGORY": "0",
        "P_DISPORDER": "2",
        "P_EXCHANGE_INFO": "22:30011:1",
        "P_ICON_ID": "0",
        "P_SCHEDULE_ID": "0",
        "P_COUNTER_ID": "0",
        "P_NEED_SWITCH_INFO": "",
        "P_HIDE_SWITCH_INFO": "",
        "P_OPEN_SWITCH_INFO": "",
        "P_NEW_SWITCH_INFO": "50100003",
        "P_CREATEDATE": "2018-02-17 01:55:06",
        "P_UPDATEDATE": "2018-02-17 01:55:06"
    },
    {
        "P_EXCHANGE_SHOP_ITEM_ID": "30001",
        "P_SUMMONER_ID": "1",
        "P_TARGET_TYPE": "33",
        "P_POINT": "100",
        "P_NAME": "\u30e1\u30bf\u30eb\u30b4\u30fc\u30b9\u30c8",
        "P_CATEGORY": "1",
        "P_DISPORDER": "3",
        "P_EXCHANGE_INFO": "10:7000111:1",
        "P_ICON_ID": "0",
        "P_SCHEDULE_ID": "0",
        "P_COUNTER_ID": "101",
        "P_NEED_SWITCH_INFO": "",
        "P_HIDE_SWITCH_INFO": "",
        "P_OPEN_SWITCH_INFO": "",
        "P_NEW_SWITCH_INFO": "53000000",
        "P_CREATEDATE": "2018-02-17 01:55:06",
        "P_UPDATEDATE": "2018-02-17 01:55:06"
    },
    {
        "P_EXCHANGE_SHOP_ITEM_ID": "30002",
        "P_SUMMONER_ID": "1",
        "P_TARGET_TYPE": "33",
        "P_POINT": "400",
        "P_NAME": "\u30e1\u30bf\u30eb\u30ad\u30f3\u30b0",
        "P_CATEGORY": "1",
        "P_DISPORDER": "2",
        "P_EXCHANGE_INFO": "10:7000112:1",
        "P_ICON_ID": "0",
        "P_SCHEDULE_ID": "0",
        "P_COUNTER_ID": "102",
        "P_NEED_SWITCH_INFO": "",
        "P_HIDE_SWITCH_INFO": "",
        "P_OPEN_SWITCH_INFO": "",
        "P_NEW_SWITCH_INFO": "53000001",
        "P_CREATEDATE": "2018-02-17 01:55:06",
        "P_UPDATEDATE": "2018-02-17 01:55:06"
    },
    {
        "P_EXCHANGE_SHOP_ITEM_ID": "30003",
        "P_SUMMONER_ID": "1",
        "P_TARGET_TYPE": "33",
        "P_POINT": "800",
        "P_NAME": "\u30e1\u30bf\u30eb\u30b4\u30c3\u30c9",
        "P_CATEGORY": "1",
        "P_DISPORDER": "1",
        "P_EXCHANGE_INFO": "10:7000113:1",
        "P_ICON_ID": "0",
        "P_SCHEDULE_ID": "0",
        "P_COUNTER_ID": "103",
        "P_NEED_SWITCH_INFO": "",
        "P_HIDE_SWITCH_INFO": "",
        "P_OPEN_SWITCH_INFO": "",
        "P_NEW_SWITCH_INFO": "53000002",
        "P_CREATEDATE": "2018-02-17 01:55:06",
        "P_UPDATEDATE": "2018-02-17 01:55:06"
    },
    {
        "P_EXCHANGE_SHOP_ITEM_ID": "31001",
        "P_SUMMONER_ID": "1",
        "P_TARGET_TYPE": "33",
        "P_POINT": "100",
        "P_NAME": "\u9032\u5316\u306e\u5996\u7cbe",
        "P_CATEGORY": "1",
        "P_DISPORDER": "7",
        "P_EXCHANGE_INFO": "10:7000210:1",
        "P_ICON_ID": "0",
        "P_SCHEDULE_ID": "0",
        "P_COUNTER_ID": "104",
        "P_NEED_SWITCH_INFO": "",
        "P_HIDE_SWITCH_INFO": "",
        "P_OPEN_SWITCH_INFO": "",
        "P_NEW_SWITCH_INFO": "53001000",
        "P_CREATEDATE": "2018-02-17 01:55:06",
        "P_UPDATEDATE": "2018-02-17 01:55:06"
    },
    {
        "P_EXCHANGE_SHOP_ITEM_ID": "31002",
        "P_SUMMONER_ID": "1",
        "P_TARGET_TYPE": "33",
        "P_POINT": "200",
        "P_NAME": "\u9032\u5316\u306e\u7cbe\u970a",
        "P_CATEGORY": "1",
        "P_DISPORDER": "6",
        "P_EXCHANGE_INFO": "10:7000311:1",
        "P_ICON_ID": "0",
        "P_SCHEDULE_ID": "0",
        "P_COUNTER_ID": "105",
        "P_NEED_SWITCH_INFO": "",
        "P_HIDE_SWITCH_INFO": "",
        "P_OPEN_SWITCH_INFO": "",
        "P_NEW_SWITCH_INFO": "53001001",
        "P_CREATEDATE": "2018-02-17 01:55:06",
        "P_UPDATEDATE": "2018-02-17 01:55:06"
    },
    {
        "P_EXCHANGE_SHOP_ITEM_ID": "31003",
        "P_SUMMONER_ID": "1",
        "P_TARGET_TYPE": "33",
        "P_POINT": "300",
        "P_NAME": "\u9032\u5316\u306e\u77f3\u50cf",
        "P_CATEGORY": "1",
        "P_DISPORDER": "5",
        "P_EXCHANGE_INFO": "10:7000412:1",
        "P_ICON_ID": "0",
        "P_SCHEDULE_ID": "0",
        "P_COUNTER_ID": "106",
        "P_NEED_SWITCH_INFO": "",
        "P_HIDE_SWITCH_INFO": "",
        "P_OPEN_SWITCH_INFO": "",
        "P_NEW_SWITCH_INFO": "53001002",
        "P_CREATEDATE": "2018-02-17 01:55:06",
        "P_UPDATEDATE": "2018-02-17 01:55:06"
    },
    {
        "P_EXCHANGE_SHOP_ITEM_ID": "31004",
        "P_SUMMONER_ID": "1",
        "P_TARGET_TYPE": "33",
        "P_POINT": "300",
        "P_NAME": "\u9032\u5316\u306e\u30c4\u30dc",
        "P_CATEGORY": "1",
        "P_DISPORDER": "4",
        "P_EXCHANGE_INFO": "10:7000513:1",
        "P_ICON_ID": "0",
        "P_SCHEDULE_ID": "0",
        "P_COUNTER_ID": "107",
        "P_NEED_SWITCH_INFO": "",
        "P_HIDE_SWITCH_INFO": "",
        "P_OPEN_SWITCH_INFO": "",
        "P_NEW_SWITCH_INFO": "53001003",
        "P_CREATEDATE": "2018-02-17 01:55:06",
        "P_UPDATEDATE": "2018-02-17 01:55:06"
    },
    {
        "P_EXCHANGE_SHOP_ITEM_ID": "32001",
        "P_SUMMONER_ID": "1",
        "P_TARGET_TYPE": "33",
        "P_POINT": "1000",
        "P_NAME": "\u8056\u5263\u30a8\u30d9\u30ea\u30af\u30b9",
        "P_CATEGORY": "2",
        "P_DISPORDER": "5",
        "P_EXCHANGE_INFO": "21:100101:1",
        "P_ICON_ID": "0",
        "P_SCHEDULE_ID": "0",
        "P_COUNTER_ID": "109",
        "P_NEED_SWITCH_INFO": "",
        "P_HIDE_SWITCH_INFO": "",
        "P_OPEN_SWITCH_INFO": "",
        "P_NEW_SWITCH_INFO": "53002000",
        "P_CREATEDATE": "2018-02-17 01:55:06",
        "P_UPDATEDATE": "2018-02-17 01:55:06"
    },
    {
        "P_EXCHANGE_SHOP_ITEM_ID": "32002",
        "P_SUMMONER_ID": "1",
        "P_TARGET_TYPE": "33",
        "P_POINT": "1000",
        "P_NAME": "\u7adc\u9c57\u76fe\u30d0\u30eb\u30b2\u30a4\u30aa\u30b9",
        "P_CATEGORY": "2",
        "P_DISPORDER": "6",
        "P_EXCHANGE_INFO": "21:100201:1",
        "P_ICON_ID": "0",
        "P_SCHEDULE_ID": "0",
        "P_COUNTER_ID": "110",
        "P_NEED_SWITCH_INFO": "",
        "P_HIDE_SWITCH_INFO": "",
        "P_OPEN_SWITCH_INFO": "",
        "P_NEW_SWITCH_INFO": "53002001",
        "P_CREATEDATE": "2018-02-17 01:55:06",
        "P_UPDATEDATE": "2018-02-17 01:55:06"
    },
    {
        "P_EXCHANGE_SHOP_ITEM_ID": "32003",
        "P_SUMMONER_ID": "1",
        "P_TARGET_TYPE": "33",
        "P_POINT": "1000",
        "P_NAME": "\u68ee\u8863\u30d5\u30e9\u30c7\u30ea\u30a2",
        "P_CATEGORY": "2",
        "P_DISPORDER": "7",
        "P_EXCHANGE_INFO": "21:100301:1",
        "P_ICON_ID": "0",
        "P_SCHEDULE_ID": "0",
        "P_COUNTER_ID": "111",
        "P_NEED_SWITCH_INFO": "",
        "P_HIDE_SWITCH_INFO": "",
        "P_OPEN_SWITCH_INFO": "",
        "P_NEW_SWITCH_INFO": "53002002",
        "P_CREATEDATE": "2018-02-17 01:55:06",
        "P_UPDATEDATE": "2018-02-17 01:55:06"
    },
    {
        "P_EXCHANGE_SHOP_ITEM_ID": "32004",
        "P_SUMMONER_ID": "1",
        "P_TARGET_TYPE": "33",
        "P_POINT": "1000",
        "P_NAME": "\u5e7b\u7363\u93a7\u300e\u9e92\u9e9f\u300f",
        "P_CATEGORY": "2",
        "P_DISPORDER": "8",
        "P_EXCHANGE_INFO": "21:100401:1",
        "P_ICON_ID": "0",
        "P_SCHEDULE_ID": "0",
        "P_COUNTER_ID": "112",
        "P_NEED_SWITCH_INFO": "",
        "P_HIDE_SWITCH_INFO": "",
        "P_OPEN_SWITCH_INFO": "",
        "P_NEW_SWITCH_INFO": "53002003",
        "P_CREATEDATE": "2018-02-17 01:55:06",
        "P_UPDATEDATE": "2018-02-17 01:55:06"
    },
    {
        "P_EXCHANGE_SHOP_ITEM_ID": "32005",
        "P_SUMMONER_ID": "1",
        "P_TARGET_TYPE": "33",
        "P_POINT": "3000",
        "P_NAME": "\u6a5f\u5263\u30c7\u30a3\u30d5\u30a7\u30f3\u30c0\u30fc",
        "P_CATEGORY": "2",
        "P_DISPORDER": "1",
        "P_EXCHANGE_INFO": "21:100600:1",
        "P_ICON_ID": "0",
        "P_SCHEDULE_ID": "0",
        "P_COUNTER_ID": "113",
        "P_NEED_SWITCH_INFO": "",
        "P_HIDE_SWITCH_INFO": "",
        "P_OPEN_SWITCH_INFO": "",
        "P_NEW_SWITCH_INFO": "53002004",
        "P_CREATEDATE": "2018-02-17 01:55:06",
        "P_UPDATEDATE": "2018-02-17 01:55:06"
    },
    {
        "P_EXCHANGE_SHOP_ITEM_ID": "32006",
        "P_SUMMONER_ID": "1",
        "P_TARGET_TYPE": "33",
        "P_POINT": "5000",
        "P_NAME": "\u5343\u5b50\u6751\u6b63",
        "P_CATEGORY": "2",
        "P_DISPORDER": "2",
        "P_EXCHANGE_INFO": "21:100500:1",
        "P_ICON_ID": "0",
        "P_SCHEDULE_ID": "0",
        "P_COUNTER_ID": "114",
        "P_NEED_SWITCH_INFO": "",
        "P_HIDE_SWITCH_INFO": "",
        "P_OPEN_SWITCH_INFO": "",
        "P_NEW_SWITCH_INFO": "53002005",
        "P_CREATEDATE": "2018-02-17 01:55:06",
        "P_UPDATEDATE": "2018-02-17 01:55:06"
    },
    {
        "P_EXCHANGE_SHOP_ITEM_ID": "32007",
        "P_SUMMONER_ID": "1",
        "P_TARGET_TYPE": "33",
        "P_POINT": "3000",
        "P_NAME": "\u30d5\u30a7\u30cb\u30c3\u30af\u30b9\u306e\u773c",
        "P_CATEGORY": "2",
        "P_DISPORDER": "3",
        "P_EXCHANGE_INFO": "21:500010:1",
        "P_ICON_ID": "0",
        "P_SCHEDULE_ID": "0",
        "P_COUNTER_ID": "115",
        "P_NEED_SWITCH_INFO": "",
        "P_HIDE_SWITCH_INFO": "",
        "P_OPEN_SWITCH_INFO": "",
        "P_NEW_SWITCH_INFO": "53002006",
        "P_CREATEDATE": "2018-02-17 01:55:06",
        "P_UPDATEDATE": "2018-02-17 01:55:06"
    },
    {
        "P_EXCHANGE_SHOP_ITEM_ID": "32008",
        "P_SUMMONER_ID": "1",
        "P_TARGET_TYPE": "33",
        "P_POINT": "5000",
        "P_NAME": "\u6280\u5b9d\u30d0\u30c8\u30eb\u30d6\u30fc\u30b9\u30bf\u30fc",
        "P_CATEGORY": "2",
        "P_DISPORDER": "4",
        "P_EXCHANGE_INFO": "21:400000:1",
        "P_ICON_ID": "0",
        "P_SCHEDULE_ID": "0",
        "P_COUNTER_ID": "121",
        "P_NEED_SWITCH_INFO": "",
        "P_HIDE_SWITCH_INFO": "",
        "P_OPEN_SWITCH_INFO": "",
        "P_NEW_SWITCH_INFO": "53002007",
        "P_CREATEDATE": "2018-02-17 01:55:06",
        "P_UPDATEDATE": "2018-02-17 01:55:06"
    },
    {
        "P_EXCHANGE_SHOP_ITEM_ID": "33005",
        "P_SUMMONER_ID": "1",
        "P_TARGET_TYPE": "33",
        "P_POINT": "500",
        "P_NAME": "\u8607\u751f\u85ac",
        "P_CATEGORY": "3",
        "P_DISPORDER": "5",
        "P_EXCHANGE_INFO": "20:1410:1",
        "P_ICON_ID": "0",
        "P_SCHEDULE_ID": "0",
        "P_COUNTER_ID": "117",
        "P_NEED_SWITCH_INFO": "",
        "P_HIDE_SWITCH_INFO": "",
        "P_OPEN_SWITCH_INFO": "",
        "P_NEW_SWITCH_INFO": "53003001",
        "P_CREATEDATE": "2018-02-17 01:55:06",
        "P_UPDATEDATE": "2018-02-17 01:55:06"
    },
    {
        "P_EXCHANGE_SHOP_ITEM_ID": "33006",
        "P_SUMMONER_ID": "1",
        "P_TARGET_TYPE": "33",
        "P_POINT": "300",
        "P_NAME": "\u6b66\u795e\u85ac",
        "P_CATEGORY": "3",
        "P_DISPORDER": "6",
        "P_EXCHANGE_INFO": "20:1300:1",
        "P_ICON_ID": "0",
        "P_SCHEDULE_ID": "0",
        "P_COUNTER_ID": "122",
        "P_NEED_SWITCH_INFO": "",
        "P_HIDE_SWITCH_INFO": "",
        "P_OPEN_SWITCH_INFO": "",
        "P_NEW_SWITCH_INFO": "53003005",
        "P_CREATEDATE": "2018-02-17 01:55:07",
        "P_UPDATEDATE": "2018-02-17 01:55:07"
    },
    {
        "P_EXCHANGE_SHOP_ITEM_ID": "33007",
        "P_SUMMONER_ID": "1",
        "P_TARGET_TYPE": "33",
        "P_POINT": "300",
        "P_NAME": "\u795e\u4ed9\u7434",
        "P_CATEGORY": "3",
        "P_DISPORDER": "7",
        "P_EXCHANGE_INFO": "20:1310:1",
        "P_ICON_ID": "0",
        "P_SCHEDULE_ID": "0",
        "P_COUNTER_ID": "123",
        "P_NEED_SWITCH_INFO": "",
        "P_HIDE_SWITCH_INFO": "",
        "P_OPEN_SWITCH_INFO": "",
        "P_NEW_SWITCH_INFO": "53003006",
        "P_CREATEDATE": "2018-02-17 01:55:07",
        "P_UPDATEDATE": "2018-02-17 01:55:07"
    },
    {
        "P_EXCHANGE_SHOP_ITEM_ID": "33008",
        "P_SUMMONER_ID": "1",
        "P_TARGET_TYPE": "33",
        "P_POINT": "1000",
        "P_NAME": "\u6226\u96c4\u7d46\u6676",
        "P_CATEGORY": "3",
        "P_DISPORDER": "8",
        "P_EXCHANGE_INFO": "20:1600:1",
        "P_ICON_ID": "0",
        "P_SCHEDULE_ID": "0",
        "P_COUNTER_ID": "124",
        "P_NEED_SWITCH_INFO": "",
        "P_HIDE_SWITCH_INFO": "",
        "P_OPEN_SWITCH_INFO": "",
        "P_NEW_SWITCH_INFO": "53003007",
        "P_CREATEDATE": "2018-02-17 01:55:07",
        "P_UPDATEDATE": "2018-02-17 01:55:07"
    }
]