[
    {
        "P_DEFINE_KEY": "ACTION_POOL_SIZE",
        "P_NAME": "\u30a2\u30af\u30b7\u30e7\u30f3\u30d7\u30fc\u30eb\u5bb9\u91cf",
        "P_DEFINE_VALUE": "5000"
    },
    {
        "P_DEFINE_KEY": "ADD_EXT_BASE",
        "P_NAME": "\u67a0\u62e1\u5f35\u5358\u4f4d",
        "P_DEFINE_VALUE": "5"
    },
    {
        "P_DEFINE_KEY": "ADD_EXT_DIA",
        "P_NAME": "\u67a0\u62e1\u5f35\u306b\u5fc5\u8981\u306a\u30c0\u30a4\u30e4",
        "P_DEFINE_VALUE": "1"
    },
    {
        "P_DEFINE_KEY": "ARCHIVE_COUNTER_ID_ABP",
        "P_NAME": "\u30a2\u30ea\u30fc\u30ca\u306eABP\u306e\u7d2f\u7a4d\u306e\u6226\u7e3e\u30ab\u30a6\u30f3\u30bf\u30fcID",
        "P_DEFINE_VALUE": "51000"
    },
    {
        "P_DEFINE_KEY": "ARCHIVE_COUNTER_ID_ARENA_BATTLE_CNT",
        "P_NAME": "\u30a2\u30ea\u30fc\u30ca\u306e\u30d0\u30c8\u30eb\u6570\u306e\u7d2f\u7a4d\u306e\u6226\u7e3e\u30ab\u30a6\u30f3\u30bf\u30fcID",
        "P_DEFINE_VALUE": "50000"
    },
    {
        "P_DEFINE_KEY": "ARCHIVE_COUNTER_ID_ARENA_WIN_CNT",
        "P_NAME": "\u30a2\u30ea\u30fc\u30ca\u306e\u52dd\u5229\u6570\u306e\u7d2f\u7a4d\u306e\u6226\u7e3e\u30ab\u30a6\u30f3\u30bf\u30fcID",
        "P_DEFINE_VALUE": "50100"
    },
    {
        "P_DEFINE_KEY": "ARCHIVE_COUNTER_ID_FAME",
        "P_NAME": "\u540d\u58f0\u306e\u6226\u7e3e\u30ab\u30a6\u30f3\u30bf\u30fcID",
        "P_DEFINE_VALUE": "10700"
    },
    {
        "P_DEFINE_KEY": "ARCHIVE_COUNTER_ID_FROHUN_P",
        "P_NAME": "\u30d5\u30ed\u30f3\u30c6\u30a3\u30a2\u30cf\u30f3\u30bf\u30fc\u30dd\u30a4\u30f3\u30c8\u306e\u7d2f\u7a4d\u306e\u6226\u7e3e\u30ab\u30a6\u30f3\u30bf\u30fcID",
        "P_DEFINE_VALUE": "41200"
    },
    {
        "P_DEFINE_KEY": "ARCHIVE_COUNTER_ID_GOGORIN_BD",
        "P_NAME": "GoGo\u30ea\u30f3BDSBD\u767a\u52d5\u56de\u6570",
        "P_DEFINE_VALUE": "15940"
    },
    {
        "P_DEFINE_KEY": "ARCHIVE_COUNTER_ID_GOGORIN_PLAY",
        "P_NAME": "GoGo\u30ea\u30f3\u30d7\u30ec\u30a4\u56de\u6570",
        "P_DEFINE_VALUE": "15910"
    },
    {
        "P_DEFINE_KEY": "ARCHIVE_COUNTER_ID_GOGORIN_RUN",
        "P_NAME": "GoGo\u30ea\u30f3\u6700\u9ad8\u8d70\u7834\u8ddd\u96e2",
        "P_DEFINE_VALUE": "15920"
    },
    {
        "P_DEFINE_KEY": "ARCHIVE_COUNTER_ID_GOGORIN_SCORE",
        "P_NAME": "GoGo\u30ea\u30f3\u6700\u9ad8\u30b9\u30b3\u30a2",
        "P_DEFINE_VALUE": "15930"
    },
    {
        "P_DEFINE_KEY": "ARCHIVE_COUNTER_ID_RAID_ATK_P",
        "P_NAME": "\u653b\u9632\u6226\u8a0e\u4f10pt",
        "P_DEFINE_VALUE": "60400"
    },
    {
        "P_DEFINE_KEY": "ARCHIVE_COUNTER_ID_RAID_DEF_P",
        "P_NAME": "\u653b\u9632\u6226\u9632\u885bpt",
        "P_DEFINE_VALUE": "60500"
    },
    {
        "P_DEFINE_KEY": "ARCHIVE_COUNTER_ID_RAID_EXCHANGE_FRIENDPOINT",
        "P_NAME": "\u653b\u9632\u6226\u88dc\u7d66\u6240\u3067\u7d46pt\u3092\u6e21\u3057\u305f\u500b\u6570",
        "P_DEFINE_VALUE": "61000"
    },
    {
        "P_DEFINE_KEY": "ARCHIVE_COUNTER_ID_RAID_EXCHANGE_ITEM",
        "P_NAME": "\u653b\u9632\u6226\u88dc\u7d66\u6240\u3067\u30a2\u30a4\u30c6\u30e0\u3092\u6e21\u3057\u305f\u500b\u6570",
        "P_DEFINE_VALUE": "61100"
    },
    {
        "P_DEFINE_KEY": "ARCHIVE_COUNTER_ID_RAID_EXCHANGE_RESYOU",
        "P_NAME": "\u653b\u9632\u6226\u88dc\u7d66\u6240\u3067\u970a\u6676\u584a\u3092\u6e21\u3057\u305f\u500b\u6570",
        "P_DEFINE_VALUE": "61200"
    },
    {
        "P_DEFINE_KEY": "ARCHIVE_COUNTER_ID_RAID_EXCHANGE_ZEL",
        "P_NAME": "\u653b\u9632\u6226\u88dc\u7d66\u6240\u3067\u30bc\u30eb\u3092\u6e21\u3057\u305f\u500b\u6570",
        "P_DEFINE_VALUE": "60900"
    },
    {
        "P_DEFINE_KEY": "ARCHIVE_COUNTER_ID_RAID_GET_REPAIR",
        "P_NAME": "\u653b\u9632\u6226\u7372\u5f97\u4fee\u7406\u7d20\u6750\u6570",
        "P_DEFINE_VALUE": "60800"
    },
    {
        "P_DEFINE_KEY": "ARCHIVE_COUNTER_ID_RAID_SUPPLY_P",
        "P_NAME": "\u653b\u9632\u6226\u88dc\u7d66pt",
        "P_DEFINE_VALUE": "60600"
    },
    {
        "P_DEFINE_KEY": "ARCHIVE_COUNTER_ID_RAID_TEAM_P",
        "P_NAME": "\u653b\u9632\u6226\u500b\u4eba\u90e8\u968apt",
        "P_DEFINE_VALUE": "60700"
    },
    {
        "P_DEFINE_KEY": "ARCHIVE_ID_ABP",
        "P_NAME": "\u30a2\u30ea\u30fc\u30ca\u306eABP\u306e\u7d2f\u7a4d\u306e\u6226\u7e3eID",
        "P_DEFINE_VALUE": "51000"
    },
    {
        "P_DEFINE_KEY": "ARCHIVE_ID_ARENA_BATTLE_CNT",
        "P_NAME": "\u30a2\u30ea\u30fc\u30ca\u306e\u30d0\u30c8\u30eb\u6570\u306e\u7d2f\u7a4d\u306e\u6226\u7e3eID",
        "P_DEFINE_VALUE": "50000"
    },
    {
        "P_DEFINE_KEY": "ARCHIVE_ID_ARENA_WIN_CNT",
        "P_NAME": "\u30a2\u30ea\u30fc\u30ca\u306e\u52dd\u5229\u6570\u306e\u7d2f\u7a4d\u306e\u6226\u7e3eID",
        "P_DEFINE_VALUE": "50100"
    },
    {
        "P_DEFINE_KEY": "ARCHIVE_ID_FAME",
        "P_NAME": "\u540d\u58f0\u306e\u6226\u7e3eID",
        "P_DEFINE_VALUE": "10700"
    },
    {
        "P_DEFINE_KEY": "ARCHIVE_ID_FROHUN_P",
        "P_NAME": "\u30d5\u30ed\u30f3\u30c6\u30a3\u30a2\u30cf\u30f3\u30bf\u30fc\u30dd\u30a4\u30f3\u30c8\u306e\u7d2f\u7a4d\u306e\u6226\u7e3eID",
        "P_DEFINE_VALUE": "41200"
    },
    {
        "P_DEFINE_KEY": "ARENA_BASE_DATE",
        "P_NAME": "\u30a2\u30ea\u30fc\u30ca\u306e\u958b\u50ac\u57fa\u6e96\u65e5",
        "P_DEFINE_VALUE": "2017-11-07 11:00:00"
    },
    {
        "P_DEFINE_KEY": "ARENA_BATTLE_CNT",
        "P_NAME": "\u30a2\u30ea\u30fc\u30ca\u306e\u30d0\u30c8\u30eb\u6570",
        "P_DEFINE_VALUE": "5"
    },
    {
        "P_DEFINE_KEY": "ARENA_DURATION_DAYS",
        "P_NAME": "\u30a2\u30ea\u30fc\u30ca\u306e\u958b\u50ac\u65e5\u6570",
        "P_DEFINE_VALUE": "1"
    },
    {
        "P_DEFINE_KEY": "ARENA_MATCHING_BORDER",
        "P_NAME": "\u30a2\u30ea\u30fc\u30ca\u30de\u30c3\u30c1\u30f3\u30b0\u30ed\u30b8\u30c3\u30af\u3092\u5909\u3048\u308bABP",
        "P_DEFINE_VALUE": "10000"
    },
    {
        "P_DEFINE_KEY": "ARENA_OPPOSITION_CHECK",
        "P_NAME": "\u30a2\u30ea\u30fc\u30ca\u306e\u5bfe\u6226\u76f8\u624b\u3092\u30c1\u30a7\u30c3\u30af\u3059\u308b\u6570",
        "P_DEFINE_VALUE": "50"
    },
    {
        "P_DEFINE_KEY": "ARENA_OPPOSITION_RANGE",
        "P_NAME": "\u30a2\u30ea\u30fc\u30ca\u306e\u5bfe\u6226\u76f8\u624b\u62bd\u9078\u306e\u7bc4\u56f2",
        "P_DEFINE_VALUE": "100"
    },
    {
        "P_DEFINE_KEY": "ARENA_OPPOSITION_RANGE2",
        "P_NAME": "\u30a2\u30ea\u30fc\u30ca\u306e\u5bfe\u6226\u76f8\u624b\u62bd\u9078\u306e\u7bc4\u56f22",
        "P_DEFINE_VALUE": "1000"
    },
    {
        "P_DEFINE_KEY": "ARENA_STORM_BORDER",
        "P_NAME": "\u30a2\u30ea\u30fc\u30ca\u4e71\u5165\u95be\u5024",
        "P_DEFINE_VALUE": "1,50"
    },
    {
        "P_DEFINE_KEY": "BC_DROP_PERCENT",
        "P_NAME": "BC\u30c9\u30ed\u30c3\u30d7\u91cf\u306e\u57fa\u790e\u5024",
        "P_DEFINE_VALUE": "30"
    },
    {
        "P_DEFINE_KEY": "CARDARENA_BATTLE_IN_TERM_COMMUNICATING_SECONDS",
        "P_NAME": "\u30ab\u30fc\u30c9\u30a2\u30ea\u30fc\u30ca\u30d0\u30c8\u30eb\u4e2d\u5b9a\u671f\u901a\u4fe1\u79d2\u6570",
        "P_DEFINE_VALUE": "1"
    },
    {
        "P_DEFINE_KEY": "CARDARENA_CARD_SELECT_TIME",
        "P_NAME": "\u30ab\u30fc\u30c9\u9078\u629e\u6642\u9593",
        "P_DEFINE_VALUE": "30"
    },
    {
        "P_DEFINE_KEY": "CARDARENA_COMMUNICATION_OUT_DECISION_TIME",
        "P_NAME": "\u901a\u4fe1\u5207\u308c\u5224\u5b9a\u6642\u9593",
        "P_DEFINE_VALUE": "60"
    },
    {
        "P_DEFINE_KEY": "CARDARENA_DURATION_DAYS",
        "P_NAME": "\u30ab\u30fc\u30c9\u30a2\u30ea\u30fc\u30ca\u306e\u958b\u50ac\u65e5\u6570",
        "P_DEFINE_VALUE": "1"
    },
    {
        "P_DEFINE_KEY": "CARDARENA_FACE_DOWN_CARD_SELECT_TIME",
        "P_NAME": "\u4f0f\u305b\u30ab\u30fc\u30c9\u9078\u629e\u6642\u9593",
        "P_DEFINE_VALUE": "10"
    },
    {
        "P_DEFINE_KEY": "CARDARENA_FRIEND_BATTLE_SEARCH_TIME",
        "P_NAME": "\u30ab\u30fc\u30c9\u30a2\u30ea\u30fc\u30ca\u5f85\u3061\u5408\u308f\u305b\u5bfe\u6226\u691c\u7d22\u6642\u9593",
        "P_DEFINE_VALUE": "60"
    },
    {
        "P_DEFINE_KEY": "CARDARENA_GENERAL_BATTLE_SEARCH_TIME",
        "P_NAME": "\u30ab\u30fc\u30c9\u30a2\u30ea\u30fc\u30ca\u4e00\u822c\u5bfe\u6226\u691c\u7d22\u6642\u9593",
        "P_DEFINE_VALUE": "60"
    },
    {
        "P_DEFINE_KEY": "CARDARENA_MATCHING_AUTO_CANCEL_SECOND",
        "P_NAME": "\u30de\u30c3\u30c1\u30f3\u30b0\u81ea\u52d5\u30ad\u30e3\u30f3\u30bb\u30eb\u79d2\u6570",
        "P_DEFINE_VALUE": "30"
    },
    {
        "P_DEFINE_KEY": "CARDARENA_RANKING_MAX_DISPLAY",
        "P_NAME": "\u30ab\u30fc\u30c9\u30a2\u30ea\u30fc\u30ca\u30e9\u30f3\u30ad\u30f3\u30b0\u6700\u5927\u8868\u793a\u6570",
        "P_DEFINE_VALUE": "10"
    },
    {
        "P_DEFINE_KEY": "CARDARENA_REMATCH_LIMIT",
        "P_NAME": "\u30ab\u30fc\u30c9\u30a2\u30ea\u30fc\u30ca\u9023\u7d9a\u5bfe\u6226\u306e\u4e0a\u9650",
        "P_DEFINE_VALUE": "2"
    },
    {
        "P_DEFINE_KEY": "CARDARENA_TURN_ADDTIME",
        "P_NAME": "\u30bf\u30fc\u30f3\u6bce\u306e\u52a0\u7b97\u6642\u9593",
        "P_DEFINE_VALUE": "15"
    },
    {
        "P_DEFINE_KEY": "CHANGE_SEX_DIA",
        "P_NAME": "\u6027\u5225\u5909\u66f4\u306b\u5fc5\u8981\u306a\u30c0\u30a4\u30e4",
        "P_DEFINE_VALUE": "1"
    },
    {
        "P_DEFINE_KEY": "DEFAULT_ARENA_ORB_CNT",
        "P_NAME": "\u30c7\u30d5\u30a9\u30eb\u30c8\u306e\u30a2\u30ea\u30fc\u30ca\u30aa\u30fc\u30d6\u6570",
        "P_DEFINE_VALUE": "5"
    },
    {
        "P_DEFINE_KEY": "DEFAULT_DUNGEON_KEY_CNT",
        "P_NAME": "\u30c0\u30f3\u30b8\u30e7\u30f3\u30ad\u30fc\u4e0a\u9650\u6570(ID\u3054\u3068\u306e\u6240\u6301\u4e0a\u9650)",
        "P_DEFINE_VALUE": "100000000"
    },
    {
        "P_DEFINE_KEY": "DEFAULT_FRIENDPOINT_CNT",
        "P_NAME": "\u30d5\u30ec\u30f3\u30c9\u30dd\u30a4\u30f3\u30c8\u4e0a\u9650\u6570",
        "P_DEFINE_VALUE": "100000000"
    },
    {
        "P_DEFINE_KEY": "DEFAULT_FROHUN_ORB_CNT",
        "P_NAME": "\u30c7\u30d5\u30a9\u30eb\u30c8\u306e\u30d5\u30ed\u30cf\u30f3\u30aa\u30fc\u30d6\u6570",
        "P_DEFINE_VALUE": "5"
    },
    {
        "P_DEFINE_KEY": "DEFAULT_IMPORTANT_ITEM_CNT",
        "P_NAME": "\u5927\u4e8b\u306a\u3082\u306e\u4e0a\u9650\u6570(ID\u3054\u3068\u306e\u6240\u6301\u4e0a\u9650)",
        "P_DEFINE_VALUE": "100000000"
    },
    {
        "P_DEFINE_KEY": "DEFAULT_ITEM_CNT",
        "P_NAME": "\u5009\u5eab\u67a0\u6570",
        "P_DEFINE_VALUE": "10"
    },
    {
        "P_DEFINE_KEY": "DEFAULT_MISSION_REPEAT_CNT",
        "P_NAME": "\u81ea\u52d5\u5468\u56de\u6570\u30c7\u30d5\u30a9\u30eb\u30c8",
        "P_DEFINE_VALUE": "100"
    },
    {
        "P_DEFINE_KEY": "DEFAULT_RAID_ORB_CNT",
        "P_NAME": "\u30c7\u30d5\u30a9\u30eb\u30c8\u306e\u30ec\u30a4\u30c9\u30aa\u30fc\u30d6\u6570",
        "P_DEFINE_VALUE": "5"
    },
    {
        "P_DEFINE_KEY": "DEFAULT_SCHEDULE",
        "P_NAME": "\u30c7\u30d5\u30a9\u30eb\u30c8\u306e\u30b9\u30b1\u30b8\u30e5\u30fc\u30ebID\u751f\u6210\u7528",
        "P_DEFINE_VALUE": "0024,0512"
    },
    {
        "P_DEFINE_KEY": "DEFAULT_SPHERE_CNT",
        "P_NAME": "\u30b9\u30d5\u30a3\u30a2\u4e0a\u9650\u6570(ID\u3054\u3068\u306e\u6240\u6301\u4e0a\u9650)",
        "P_DEFINE_VALUE": "100000000"
    },
    {
        "P_DEFINE_KEY": "DEFAULT_SP_CNT",
        "P_NAME": "SP\u4e0a\u9650\u6570",
        "P_DEFINE_VALUE": "100000000"
    },
    {
        "P_DEFINE_KEY": "DEFAULT_UNIT_CNT",
        "P_NAME": "\u30e6\u30cb\u30c3\u30c8\u4e0a\u9650\u6570",
        "P_DEFINE_VALUE": "100"
    },
    {
        "P_DEFINE_KEY": "DEFAULT_ZEL_CNT",
        "P_NAME": "\u30bc\u30eb\u4e0a\u9650\u6570",
        "P_DEFINE_VALUE": "100000000"
    },
    {
        "P_DEFINE_KEY": "EXPLORING_ADD_PARTY",
        "P_NAME": "\u63a2\u7d22\u30d1\u30fc\u30c6\u30a3\u8ffd\u52a0\u30b9\u30a4\u30c3\u30c1",
        "P_DEFINE_VALUE": "120000001,120000002"
    },
    {
        "P_DEFINE_KEY": "EXPLORING_HOUR_BASE",
        "P_NAME": "\u63a2\u7d22\u6642\u9593\u5358\u4f4d(\u5206)",
        "P_DEFINE_VALUE": "60"
    },
    {
        "P_DEFINE_KEY": "EXPLORING_OPEN",
        "P_NAME": "\u63a2\u7d22\u958b\u653e\u30b9\u30a4\u30c3\u30c1",
        "P_DEFINE_VALUE": "10000027"
    },
    {
        "P_DEFINE_KEY": "EXPLORING_RATE_INFO",
        "P_NAME": "\u63a2\u7d22\u30ec\u30fc\u30c8\u60c5\u5831",
        "P_DEFINE_VALUE": "1.5,2,50,10,2,1,0.5"
    },
    {
        "P_DEFINE_KEY": "FH_TIMEATTACK_ADJUST",
        "P_NAME": "FH\u30bf\u30a4\u30e0\u30a2\u30bf\u30c3\u30af\u306e\u6700\u7d42\u30bf\u30a4\u30e0\u30de\u30a4\u30ca\u30b9\u8abf\u6574\u5024",
        "P_DEFINE_VALUE": "5"
    },
    {
        "P_DEFINE_KEY": "FOLLOWER_REIN_DISPLAY_COUNT",
        "P_NAME": "\u30d5\u30a9\u30ed\u30fc\u63f4\u8ecd\u8868\u793a\u6570",
        "P_DEFINE_VALUE": "50"
    },
    {
        "P_DEFINE_KEY": "FRIEND_INVITE_FLG",
        "P_NAME": "\u30d5\u30ec\u30f3\u30c9\u62db\u5f85\u6a5f\u80fd\u30d5\u30e9\u30b0",
        "P_DEFINE_VALUE": "1"
    },
    {
        "P_DEFINE_KEY": "FRIEND_NUM_PER_PAGE",
        "P_NAME": "1\u30da\u30fc\u30b8\u306e\u8868\u793a\u4ef6\u6570",
        "P_DEFINE_VALUE": "10"
    },
    {
        "P_DEFINE_KEY": "FRIEND_SUGGEST_COUNT",
        "P_NAME": "\u30ea\u30b9\u30c8\u304b\u3089\u63a2\u3059\u306e\u63a8\u85a6\u6570",
        "P_DEFINE_VALUE": "100"
    },
    {
        "P_DEFINE_KEY": "GATE_SCHE_INTERVAL",
        "P_NAME": "\u72ed\u9593\u753b\u9762\u306e\u30b9\u30b1\u30b8\u30e5\u30fc\u30eb\u5b9a\u671f\u901a\u4fe1\u9593\u9694",
        "P_DEFINE_VALUE": "60"
    },
    {
        "P_DEFINE_KEY": "GT_NEED_ITEM_ID",
        "P_NAME": "\u8d85\u8d8a\u5f37\u5316\u306b\u5fc5\u8981\u306a\u30a2\u30a4\u30c6\u30e0ID",
        "P_DEFINE_VALUE": "40000"
    },
    {
        "P_DEFINE_KEY": "GT_NEED_ZEL",
        "P_NAME": "\u8d85\u8d8a\u5f37\u5316\u306b\u5fc5\u8981\u306a\u30bc\u30eb",
        "P_DEFINE_VALUE": "500000"
    },
    {
        "P_DEFINE_KEY": "HANDLE_CHANGE_INTERVAL",
        "P_NAME": "\u30cf\u30f3\u30c9\u30eb\u30cd\u30fc\u30e0\u5909\u66f4\u53ef\u80fd\u306b\u306a\u308b\u671f\u9593",
        "P_DEFINE_VALUE": "14"
    },
    {
        "P_DEFINE_KEY": "HC_DROP_PERCENT",
        "P_NAME": "HC\u30c9\u30ed\u30c3\u30d7\u91cf\u306e\u57fa\u790e\u5024",
        "P_DEFINE_VALUE": "5"
    },
    {
        "P_DEFINE_KEY": "HC_RECOVERY_AMOUNT",
        "P_NAME": "HC\u56de\u5fa9\u91cf\u5897\u52a0\u306e\u4e0a\u9650\u5024",
        "P_DEFINE_VALUE": "25"
    },
    {
        "P_DEFINE_KEY": "HC_RECOVER_MAX",
        "P_NAME": "\uff28\uff231\u500b\u306e\u56de\u5fa9\u91cf\uff08max\uff09",
        "P_DEFINE_VALUE": "8"
    },
    {
        "P_DEFINE_KEY": "HC_RECOVER_MIN",
        "P_NAME": "\uff28\uff231\u500b\u306e\u56de\u5fa9\u91cf\uff08min\uff09",
        "P_DEFINE_VALUE": "5"
    },
    {
        "P_DEFINE_KEY": "HEROINE_HOME_BG",
        "P_NAME": "\u30ea\u30f3\u30db\u30fc\u30e0\u30c7\u30d5\u30a9\u30eb\u30c8\u80cc\u666f\uff08\u30df\u30c3\u30b7\u30e7\u30f3ID\u3092\u6307\u5b9a\uff09",
        "P_DEFINE_VALUE": "1001"
    },
    {
        "P_DEFINE_KEY": "HEROINE_PET_NAME",
        "P_NAME": "\u30d2\u30ed\u30a4\u30f3\u306e\u30da\u30c3\u30c8\u540d",
        "P_DEFINE_VALUE": "\u30c7\u30e5\u30fc\u30a4"
    },
    {
        "P_DEFINE_KEY": "HERO_HOME_BG",
        "P_NAME": "\u4e3b\u4eba\u516c\u30db\u30fc\u30e0\u30c7\u30d5\u30a9\u30eb\u30c8\u80cc\u666f\uff08\u30df\u30c3\u30b7\u30e7\u30f3ID\u3092\u6307\u5b9a\uff09",
        "P_DEFINE_VALUE": "101"
    },
    {
        "P_DEFINE_KEY": "HOME_NOTICE_INTERVAL",
        "P_NAME": "\u30db\u30fc\u30e0\u753b\u9762\u306e\u304a\u77e5\u3089\u305b\u5b9a\u671f\u901a\u4fe1\u9593\u9694",
        "P_DEFINE_VALUE": "60"
    },
    {
        "P_DEFINE_KEY": "HOME_UPDATE_INTERVAL",
        "P_NAME": "\u30db\u30fc\u30e0\u753b\u9762\u306e\u66f4\u65b0\u60c5\u5831\u5b9a\u671f\u901a\u4fe1\u9593\u9694",
        "P_DEFINE_VALUE": "60"
    },
    {
        "P_DEFINE_KEY": "INITIAL_EQP_ITEM",
        "P_NAME": "\u88c5\u5099\u30a2\u30a4\u30c6\u30e0\u6570",
        "P_DEFINE_VALUE": "5"
    },
    {
        "P_DEFINE_KEY": "INITIAL_SELECT_UNIT",
        "P_NAME": "\u521d\u671f\u9078\u629e\u30e6\u30cb\u30c3\u30c8",
        "P_DEFINE_VALUE": "1000122,2000122,3000122,4000122"
    },
    {
        "P_DEFINE_KEY": "INITIAL_UNIT",
        "P_NAME": "\u30e6\u30cb\u30c3\u30c8\u521d\u671f",
        "P_DEFINE_VALUE": "10"
    },
    {
        "P_DEFINE_KEY": "INIT_PLAYER_TITLE_COLOR_ID",
        "P_NAME": "\u521d\u671f\u53ec\u559a\u5e2b\u79f0\u53f7\u30ab\u30e9\u30fcID",
        "P_DEFINE_VALUE": "1"
    },
    {
        "P_DEFINE_KEY": "INIT_PLAYER_TITLE_ID",
        "P_NAME": "\u521d\u671f\u53ec\u559a\u5e2b\u79f0\u53f7ID",
        "P_DEFINE_VALUE": "1001,1002"
    },
    {
        "P_DEFINE_KEY": "ITEM_ID_JEWEL_KEY",
        "P_NAME": "\u30b8\u30e5\u30a8\u30eb\u30ad\u30fc\u306e\u30a2\u30a4\u30c6\u30e0ID",
        "P_DEFINE_VALUE": "200001"
    },
    {
        "P_DEFINE_KEY": "ITEM_ID_METAL_KEY",
        "P_NAME": "\u30e1\u30bf\u30eb\u30ad\u30fc\u306e\u30a2\u30a4\u30c6\u30e0ID",
        "P_DEFINE_VALUE": "200000"
    },
    {
        "P_DEFINE_KEY": "ITEM_ID_UNIT_TICKET_3",
        "P_NAME": "\u53ec\u559a\u30c1\u30b1\u30c3\u30c8\u30ec\u30a23",
        "P_DEFINE_VALUE": "300000"
    },
    {
        "P_DEFINE_KEY": "ITEM_ID_UNIT_TICKET_4",
        "P_NAME": "\u53ec\u559a\u30c1\u30b1\u30c3\u30c8\u30ec\u30a24",
        "P_DEFINE_VALUE": "300001"
    },
    {
        "P_DEFINE_KEY": "ITEM_ID_UNIT_TICKET_5",
        "P_NAME": "\u53ec\u559a\u30c1\u30b1\u30c3\u30c8\u30ec\u30a25",
        "P_DEFINE_VALUE": "300002"
    },
    {
        "P_DEFINE_KEY": "LEARNING_OPEN",
        "P_NAME": "\u30b9\u30ad\u30eb\u30e9\u30a4\u30ba\u89e3\u653e\u30b9\u30a4\u30c3\u30c1",
        "P_DEFINE_VALUE": "10000027"
    },
    {
        "P_DEFINE_KEY": "LEARN_SKILL_FROM_STOCK_ZEL",
        "P_NAME": "\u4fee\u5f97\u30b9\u30ad\u30eb\u3092\u30b9\u30c8\u30c3\u30af\u304b\u3089\u7fd2\u5f97\u3059\u308b\u3068\u304d\u306e\u30bc\u30eb",
        "P_DEFINE_VALUE": "100000"
    },
    {
        "P_DEFINE_KEY": "LEARN_SKILL_SPHERE_ID",
        "P_NAME": "\u30b9\u30ad\u30eb\u7fd2\u5f97\u30b9\u30d5\u30a3\u30a2ID",
        "P_DEFINE_VALUE": "2000000"
    },
    {
        "P_DEFINE_KEY": "LEARN_SKILL_STOCK_MAX",
        "P_NAME": "\u4fee\u5f97\u30b9\u30ad\u30eb\u306e\u6700\u5927\u30b9\u30c8\u30c3\u30af\u6570",
        "P_DEFINE_VALUE": "99"
    },
    {
        "P_DEFINE_KEY": "LINK_CAMPAIGN_SCHEDULE_1",
        "P_NAME": "\u7d46\u30ad\u30e3\u30f3\u30da\u30fc\u30f31\u306e\u30b9\u30b1\u30b8\u30e5\u30fc\u30ebID",
        "P_DEFINE_VALUE": "50004"
    },
    {
        "P_DEFINE_KEY": "MAX_ACHIEVEMENT_P_CNT",
        "P_NAME": "\u529f\u7e3e\u30dd\u30a4\u30f3\u30c8\u4e0a\u9650\u6570\uff08\u30b7\u30b9\u30c6\u30e0\u7684\u306a\u9650\u754c\u6570\uff09",
        "P_DEFINE_VALUE": "100000"
    },
    {
        "P_DEFINE_KEY": "MAX_ACTION_POINT_CNT",
        "P_NAME": "\u4f53\u529b\u4e0a\u9650\u6570",
        "P_DEFINE_VALUE": "99"
    },
    {
        "P_DEFINE_KEY": "MAX_ACTION_POINT_CNT2",
        "P_NAME": "\u4f53\u529b\u4e0a\u9650\u65702",
        "P_DEFINE_VALUE": "999"
    },
    {
        "P_DEFINE_KEY": "MAX_ARENA_ORB_CNT",
        "P_NAME": "\u30a2\u30ea\u30fc\u30ca\u30aa\u30fc\u30d6\u4e0a\u9650\u6570\uff08\u30b7\u30b9\u30c6\u30e0\u7684\u306a\u9650\u754c\u6570\uff09",
        "P_DEFINE_VALUE": "99"
    },
    {
        "P_DEFINE_KEY": "MAX_DIA_CNT",
        "P_NAME": "\u30c0\u30a4\u30e4\u6570\u4e0a\u9650\u6570\uff08\u30b7\u30b9\u30c6\u30e0\u7684\u306a\u9650\u754c\u6570\uff09",
        "P_DEFINE_VALUE": "9999999"
    },
    {
        "P_DEFINE_KEY": "MAX_DUNGEONKEY_CNT",
        "P_NAME": "\u30c0\u30f3\u30b8\u30e7\u30f3\u30ad\u30fc\u4e0a\u9650\u6570(ID\u3054\u3068\u306e\u6240\u6301\u4e0a\u9650)",
        "P_DEFINE_VALUE": "999999"
    },
    {
        "P_DEFINE_KEY": "MAX_FRIEND_POINT_CNT",
        "P_NAME": "\u7d46\u30dd\u30a4\u30f3\u30c8\u4e0a\u9650\u6570\uff08\u30b7\u30b9\u30c6\u30e0\u7684\u306a\u9650\u754c\u6570\uff09",
        "P_DEFINE_VALUE": "1000000"
    },
    {
        "P_DEFINE_KEY": "MAX_FROHUN_ORB_CNT",
        "P_NAME": "\u30d5\u30ed\u30cf\u30f3\u30aa\u30fc\u30d6\u4e0a\u9650\u6570\uff08\u30b7\u30b9\u30c6\u30e0\u7684\u306a\u9650\u754c\u6570\uff09",
        "P_DEFINE_VALUE": "99"
    },
    {
        "P_DEFINE_KEY": "MAX_IMPORTANT_ITEM_CNT",
        "P_NAME": "\u5927\u4e8b\u306a\u3082\u306e\u4e0a\u9650\u6570(ID\u3054\u3068\u306e\u6240\u6301\u4e0a\u9650)",
        "P_DEFINE_VALUE": "999999"
    },
    {
        "P_DEFINE_KEY": "MAX_ITEM_CNT",
        "P_NAME": "\u30a2\u30a4\u30c6\u30e0\u306e\u4e0a\u9650\u6570(ID\u3054\u3068\u306e\u6240\u6301\u4e0a\u9650)",
        "P_DEFINE_VALUE": "999999"
    },
    {
        "P_DEFINE_KEY": "MAX_MATERIAL_ITEM_CNT",
        "P_NAME": "\u7d20\u6750\u30a2\u30a4\u30c6\u30e0\u306e\u4e0a\u9650\u6570(ID\u3054\u3068\u306e\u6240\u6301\u4e0a\u9650)",
        "P_DEFINE_VALUE": "999999"
    },
    {
        "P_DEFINE_KEY": "MAX_PARTY_DECK_CNT",
        "P_NAME": "\u30c7\u30c3\u30ad\u4e0a\u9650\u6570",
        "P_DEFINE_VALUE": "5"
    },
    {
        "P_DEFINE_KEY": "MAX_RAID_ORB_CNT",
        "P_NAME": "\u30ec\u30a4\u30c9\u30aa\u30fc\u30d6\u4e0a\u9650\u6570\uff08\u30b7\u30b9\u30c6\u30e0\u7684\u306a\u9650\u754c\u6570\uff09",
        "P_DEFINE_VALUE": "99"
    },
    {
        "P_DEFINE_KEY": "MAX_SPHERE_CNT",
        "P_NAME": "\u30b9\u30d5\u30a3\u30a2\u4e0a\u9650\u6570(ID\u3054\u3068\u306e\u6240\u6301\u4e0a\u9650)",
        "P_DEFINE_VALUE": "999999"
    },
    {
        "P_DEFINE_KEY": "MAX_SP_CNT",
        "P_NAME": "SP\u4e0a\u9650\u6570\uff08\u30b7\u30b9\u30c6\u30e0\u7684\u306a\u9650\u754c\u6570\uff09",
        "P_DEFINE_VALUE": "99999"
    },
    {
        "P_DEFINE_KEY": "MAX_TEAM_LV",
        "P_NAME": "\u6700\u5927\u90e8\u968a\u30ec\u30d9\u30eb",
        "P_DEFINE_VALUE": "80"
    },
    {
        "P_DEFINE_KEY": "MAX_ZEL_CNT",
        "P_NAME": "\u30bc\u30eb\u4e0a\u9650\u6570\uff08\u30b7\u30b9\u30c6\u30e0\u7684\u306a\u9650\u754c\u6570\uff09",
        "P_DEFINE_VALUE": "99999999"
    },
    {
        "P_DEFINE_KEY": "MISSION_CONTINUE_DIA",
        "P_NAME": "\u30df\u30c3\u30b7\u30e7\u30f3\u306e\u30b3\u30f3\u30c6\u30a3\u30cb\u30e5\u30fc\u306b\u5fc5\u8981\u306a\u30c0\u30a4\u30e4",
        "P_DEFINE_VALUE": "1"
    },
    {
        "P_DEFINE_KEY": "MIX_SUCCESS_RATE",
        "P_NAME": "\u5927\u6210\u529f\u78ba\u7387\u3001\u8d85\u6210\u529f\u78ba\u7387",
        "P_DEFINE_VALUE": "15,3"
    },
    {
        "P_DEFINE_KEY": "MONSTER_STATUS_BONUS_PARAM",
        "P_NAME": "\u6575\u30d1\u30e9\u30e1\u30fc\u30bf\u306e\u30dc\u30fc\u30ca\u30b9\u306e\u500d\u7387\u57fa\u790e\u5024",
        "P_DEFINE_VALUE": "100,200,200,200"
    },
    {
        "P_DEFINE_KEY": "RAID_ATK_MISSION_TIME_LIMIT_RATE",
        "P_NAME": "\u8a0e\u4f10\u6226\u6642\u9593\u5236\u9650\u30ec\u30fc\u30c8",
        "P_DEFINE_VALUE": "0:20,20:40,40:60,60:80,80:100"
    },
    {
        "P_DEFINE_KEY": "RAID_ATK_TIME_LIMIT_MIN_RATE",
        "P_NAME": "\u8a0e\u4f10\u30af\u30a8\u30b9\u30c8\u5236\u9650\u6642\u9593\u6700\u5c0f\u30ec\u30fc\u30c8",
        "P_DEFINE_VALUE": "10"
    },
    {
        "P_DEFINE_KEY": "RAID_DEAD_BOSS_ESCAPE_TIME",
        "P_NAME": "\u30dc\u30b9\u6483\u7834\u5f8c\u306e\u64a4\u9000\u6642\u9593",
        "P_DEFINE_VALUE": "10"
    },
    {
        "P_DEFINE_KEY": "RAID_DECREASE_TEAM_EXP",
        "P_NAME": "\u90e8\u968a\u7d4c\u9a13\u5024\u81ea\u7136\u6e1b\u5c11\u6570",
        "P_DEFINE_VALUE": "666"
    },
    {
        "P_DEFINE_KEY": "RAID_DUMMY_UNIT_DECK",
        "P_NAME": "\u30ec\u30a4\u30c9\u30dc\u30b9\u7528\u306e\u63f4\u8ecd\u30c7\u30c3\u30ad",
        "P_DEFINE_VALUE": "10"
    },
    {
        "P_DEFINE_KEY": "RAID_ENEMY_MATERIAL_DROP_ADD",
        "P_NAME": "\u4fee\u5fa9\u7d20\u6750:\u6575\u306eLV\u306b\u5bfe\u3057\u3066\u306e\u4e0a\u6607\u7387(\u672a\u8a2d\u5b9a\u306f0.2)",
        "P_DEFINE_VALUE": "0.2"
    },
    {
        "P_DEFINE_KEY": "RAID_ENEMY_MATERIAL_DROP_LOOP",
        "P_NAME": "\u4fee\u5fa9\u7d20\u6750:\u6575\u6b7b\u4ea1\u6642\u30c9\u30ed\u30c3\u30d7\u5224\u5b9a\u56de\u6570(\u672a\u8a2d\u5b9a\u306f10)",
        "P_DEFINE_VALUE": "10"
    },
    {
        "P_DEFINE_KEY": "RAID_ENEMY_MATERIAL_DROP_MIN",
        "P_NAME": "\u4fee\u5fa9\u7d20\u6750:\u6575\u6b7b\u4ea1\u6642\u30c9\u30ed\u30c3\u30d7\u7387(\u672a\u8a2d\u5b9a\u306f5)",
        "P_DEFINE_VALUE": "5"
    },
    {
        "P_DEFINE_KEY": "RAID_EXCHANGE_POINT_RATE",
        "P_NAME": "\u8ca2\u732e\u30dd\u30a4\u30f3\u30c8\u306e\u7372\u5f97\u500d\u7387\uff081/n\uff09\u203b\u5207\u308a\u6368\u3066",
        "P_DEFINE_VALUE": "10"
    },
    {
        "P_DEFINE_KEY": "RAID_INCREASE_TEAM_ATK_P",
        "P_NAME": "\u8a0e\u4f10Pt\u81ea\u7136\u5897\u52a0\u6570",
        "P_DEFINE_VALUE": "10"
    },
    {
        "P_DEFINE_KEY": "RAID_INCREASE_TEAM_DEF_P",
        "P_NAME": "\u8a0e\u4f10\u30af\u30a8\u30b9\u30c8\u5b9f\u884c\u6642\u9632\u5fa1Pt\u6e1b\u5c11\u6570",
        "P_DEFINE_VALUE": "100"
    },
    {
        "P_DEFINE_KEY": "RAID_INFO_INTERVAL",
        "P_NAME": "\u8a0e\u4f10\u6226\u5b9a\u671f\u901a\u4fe1\u9593\u9694",
        "P_DEFINE_VALUE": "300"
    },
    {
        "P_DEFINE_KEY": "RAID_MAX_ACHIEVEMENT_P_CNT",
        "P_NAME": "\u529f\u7e3e\u30dd\u30a4\u30f3\u30c8\u4e0a\u9650\u6570\uff08\u30b7\u30b9\u30c6\u30e0\u7684\u306a\u9650\u754c\u6570\uff09",
        "P_DEFINE_VALUE": "99999999"
    },
    {
        "P_DEFINE_KEY": "RAID_MAX_TEAM_ATK_P",
        "P_NAME": "(\u30dc\u30b9\u51fa\u73fe\u4e2d\u306b\u8caf\u3081\u308b)\u6700\u5927\u8a0e\u4f10Pt",
        "P_DEFINE_VALUE": "9999999999"
    },
    {
        "P_DEFINE_KEY": "RAID_MAX_TEAM_DEF_P",
        "P_NAME": "\u6700\u5927\u9632\u885bPt",
        "P_DEFINE_VALUE": "1000000"
    },
    {
        "P_DEFINE_KEY": "RAID_MAX_TEAM_EXP",
        "P_NAME": "\u90e8\u968a\u7d4c\u9a13\u5024\u6700\u5927\u6570\u5024",
        "P_DEFINE_VALUE": "1000000"
    },
    {
        "P_DEFINE_KEY": "RAID_OPEN_SWITCH",
        "P_NAME": "\u653b\u9632\u6226\u306b\u5165\u308c\u308b\u304b\u306e\u30b9\u30a4\u30c3\u30c1",
        "P_DEFINE_VALUE": "10000152"
    },
    {
        "P_DEFINE_KEY": "RAID_ORB_EXCHANGE_COUNTER",
        "P_NAME": "\u30aa\u30fc\u30d6\u4ea4\u63db\u4e0a\u9650\u30ab\u30a6\u30f3\u30bf",
        "P_DEFINE_VALUE": "213"
    },
    {
        "P_DEFINE_KEY": "RAID_PLAYER_MATERIAL_DROP_MIN",
        "P_NAME": "\u4fee\u5fa9\u7d20\u6750:\u30d7\u30ec\u30a4\u30e4\u30fc\u5074\u30c9\u30ed\u30c3\u30d7\u7387(\u672a\u8a2d\u5b9a\u306f3)",
        "P_DEFINE_VALUE": "3"
    },
    {
        "P_DEFINE_KEY": "RAID_TOP_BGM",
        "P_NAME": "\u653b\u9632\u6226\u30c8\u30c3\u30d7\u306eBGM\u306e\u30b5\u30a6\u30f3\u30c9ID",
        "P_DEFINE_VALUE": "72"
    },
    {
        "P_DEFINE_KEY": "RECOVERTIME_ACTION_POINT",
        "P_NAME": "\u4f53\u529b\u56de\u5fa9\u6642\u9593(\u79d2)",
        "P_DEFINE_VALUE": "300"
    },
    {
        "P_DEFINE_KEY": "RECOVERTIME_ARENA_ORB",
        "P_NAME": "\u30a2\u30ea\u30fc\u30ca\u30aa\u30fc\u30d6\u56de\u5fa9\u6642\u9593(\u79d2)",
        "P_DEFINE_VALUE": "3600"
    },
    {
        "P_DEFINE_KEY": "RECOVERTIME_FROHUN_ORB",
        "P_NAME": "\u30d5\u30ed\u30cf\u30f3\u30aa\u30fc\u30d6\u56de\u5fa9\u6642\u9593(\u79d2)",
        "P_DEFINE_VALUE": "7200"
    },
    {
        "P_DEFINE_KEY": "RECOVERTIME_RAID_ORB",
        "P_NAME": "\u30ec\u30a4\u30c9\u30aa\u30fc\u30d6\u56de\u5fa9\u6642\u9593(\u79d2)",
        "P_DEFINE_VALUE": "3600"
    },
    {
        "P_DEFINE_KEY": "RECOVER_ACTION_POINT_DIA",
        "P_NAME": "\u4f53\u529b\u56de\u5fa9\u306b\u5fc5\u8981\u306a\u30c0\u30a4\u30e4",
        "P_DEFINE_VALUE": "1"
    },
    {
        "P_DEFINE_KEY": "RECOVER_ARENA_ORB_DIA",
        "P_NAME": "\u30a2\u30ea\u30fc\u30ca\u30aa\u30fc\u30d6\u56de\u5fa9\u306b\u5fc5\u8981\u306a\u30c0\u30a4\u30e4",
        "P_DEFINE_VALUE": "1"
    },
    {
        "P_DEFINE_KEY": "RECOVER_FROHUN_ORB_DIA",
        "P_NAME": "\u30d5\u30ed\u30cf\u30f3\u30aa\u30fc\u30d6\u56de\u5fa9\u306b\u5fc5\u8981\u306a\u30c0\u30a4\u30e4",
        "P_DEFINE_VALUE": "1"
    },
    {
        "P_DEFINE_KEY": "RECOVER_RAID_ORB_DIA",
        "P_NAME": "\u30ec\u30a4\u30c9\u30aa\u30fc\u30d6\u56de\u5fa9\u306b\u5fc5\u8981\u306a\u30c0\u30a4\u30e4",
        "P_DEFINE_VALUE": "1"
    },
    {
        "P_DEFINE_KEY": "REINFORCEMENT_REREQUEST_HOUR",
        "P_NAME": "\u63f4\u8ecd\u518d\u4f9d\u983c\u6642\u9593",
        "P_DEFINE_VALUE": "6"
    },
    {
        "P_DEFINE_KEY": "RESET_UNIT_STATUS_DIA",
        "P_NAME": "\u30e6\u30cb\u30c3\u30c8\u306e\u30b9\u30c6\u30fc\u30bf\u30b9\u30ea\u30bb\u30c3\u30c8\u306b\u5fc5\u8981\u306a\u30c0\u30a4\u30e4",
        "P_DEFINE_VALUE": "1"
    },
    {
        "P_DEFINE_KEY": "SCHEDULE_TIME_RANGE",
        "P_NAME": "\u30b9\u30b1\u30b8\u30e5\u30fc\u30eb\u60c5\u5831\u3092\u9001\u308b\u6642\u9593\u306e\u7bc4\u56f2",
        "P_DEFINE_VALUE": "600"
    },
    {
        "P_DEFINE_KEY": "SHOP_SCHE_INTERVAL",
        "P_NAME": "\u30b7\u30e7\u30c3\u30d7\u753b\u9762\u306e\u30b9\u30b1\u30b8\u30e5\u30fc\u30eb\u5b9a\u671f\u901a\u4fe1\u9593\u9694",
        "P_DEFINE_VALUE": "60"
    },
    {
        "P_DEFINE_KEY": "SPARK_DAMGE_RATE_MAX",
        "P_NAME": "\u30b9\u30d1\u30fc\u30af\u30c0\u30e1\u30fc\u30b8\u500d\u7387\u4e0a\u9650",
        "P_DEFINE_VALUE": "4"
    },
    {
        "P_DEFINE_KEY": "SPEEDRUSH_BB_NUM",
        "P_NAME": "BB\u30ab\u30fc\u30c9\u679a\u6570",
        "P_DEFINE_VALUE": "4"
    },
    {
        "P_DEFINE_KEY": "SPEEDRUSH_HIT_BONUS_PER",
        "P_NAME": "\u30ab\u30fc\u30c9\u4e00\u679a\u3042\u305f\u308a\u306e\uff21\uff34\uff2b\u30a2\u30c3\u30d7%",
        "P_DEFINE_VALUE": "5"
    },
    {
        "P_DEFINE_KEY": "SPEEDRUSH_PENALTY_TIME",
        "P_NAME": "\u304a\u624b\u3064\u304d\u6642\u306e\u30da\u30ca\u30eb\u30c6\u30a3(\u79d2\uff09",
        "P_DEFINE_VALUE": "1"
    },
    {
        "P_DEFINE_KEY": "SPEEDRUSH_POINT",
        "P_NAME": "\u30b2\u30fc\u30e0\u30e9\u30b9\u30c8\u306b\u8ffd\u52a0\u3059\u308b\u679a\u6570\u6bce\u306e\u30b9\u30b3\u30a2",
        "P_DEFINE_VALUE": "100"
    },
    {
        "P_DEFINE_KEY": "SPEEDRUSH_SCORE_CONV_RATE",
        "P_NAME": "\u30c0\u30e1\u30fc\u30b8\u304b\u3089\u30b9\u30b3\u30a2\u3078\u306e\u5909\u63db%",
        "P_DEFINE_VALUE": "100"
    },
    {
        "P_DEFINE_KEY": "SPEEDRUSH_TURN_MAX",
        "P_NAME": "\u6700\u5927\u30bf\u30fc\u30f3\u6570",
        "P_DEFINE_VALUE": "4"
    },
    {
        "P_DEFINE_KEY": "SPEEDRUSH_TURN_PLAYTIME",
        "P_NAME": "\uff11\u30bf\u30fc\u30f3\u306e\u30d7\u30ec\u30a4\u6642\u9593(\u79d2\uff09",
        "P_DEFINE_VALUE": "15"
    },
    {
        "P_DEFINE_KEY": "STATUS_P_BASE_ATK",
        "P_NAME": "\u30b9\u30c6\u30fc\u30bf\u30b9P\u30d9\u30fc\u30b9\u5024ATK",
        "P_DEFINE_VALUE": "10"
    },
    {
        "P_DEFINE_KEY": "STATUS_P_BASE_DEF",
        "P_NAME": "\u30b9\u30c6\u30fc\u30bf\u30b9P\u30d9\u30fc\u30b9\u5024DEF",
        "P_DEFINE_VALUE": "10"
    },
    {
        "P_DEFINE_KEY": "STATUS_P_BASE_HP",
        "P_NAME": "\u30b9\u30c6\u30fc\u30bf\u30b9P\u30d9\u30fc\u30b9\u5024HP",
        "P_DEFINE_VALUE": "30"
    },
    {
        "P_DEFINE_KEY": "STATUS_P_BASE_MDEF",
        "P_NAME": "\u30b9\u30c6\u30fc\u30bf\u30b9P\u30d9\u30fc\u30b9\u5024MDEF",
        "P_DEFINE_VALUE": "10"
    },
    {
        "P_DEFINE_KEY": "STRANGER_SUGGEST_COUNT",
        "P_NAME": "\u91ce\u826f\u30d7\u30ec\u30a4\u30e4\u30fc\u63a8\u85a6\u6570",
        "P_DEFINE_VALUE": "5"
    },
    {
        "P_DEFINE_KEY": "SUBSCRIPTION_ACTION_POINT_CNT",
        "P_NAME": "\u30b5\u30d6\u30b9\u30af\u30ea\u30d7\u30b7\u30e7\u30f3\u306e\u4f53\u529b\u4e0a\u9650\u5897\u52a0\u6570",
        "P_DEFINE_VALUE": "30"
    },
    {
        "P_DEFINE_KEY": "SUBSCRIPTION_ARENA_ORB_CNT",
        "P_NAME": "\u30b5\u30d6\u30b9\u30af\u30ea\u30d7\u30b7\u30e7\u30f3\u306e\u30a2\u30ea\u30fc\u30ca\u30aa\u30fc\u30d6\u6570",
        "P_DEFINE_VALUE": "10"
    },
    {
        "P_DEFINE_KEY": "SUBSCRIPTION_DIA",
        "P_NAME": "\u30b5\u30d6\u30b9\u30af\u30ea\u30d7\u30b7\u30e7\u30f3\u306e\u30c0\u30a4\u30e4\u6570",
        "P_DEFINE_VALUE": "5"
    },
    {
        "P_DEFINE_KEY": "SUBSCRIPTION_MISSION_REPEAT_CNT",
        "P_NAME": "\u81ea\u52d5\u5468\u56de\u6570\u30b5\u30d6\u30b9\u30af",
        "P_DEFINE_VALUE": "300"
    },
    {
        "P_DEFINE_KEY": "SUBSCRIPTION_WEEKLY_REWARDS_1",
        "P_NAME": "\u53ec\u559a\u5e2b\u80b2\u6210\u30d7\u30ed\u30b0\u30e9\u30e0\u30d7\u30ec\u30bc\u30f3\u30c81",
        "P_DEFINE_VALUE": "110100001"
    },
    {
        "P_DEFINE_KEY": "SUBSCRIPTION_WEEKLY_REWARDS_2",
        "P_NAME": "\u53ec\u559a\u5e2b\u80b2\u6210\u30d7\u30ed\u30b0\u30e9\u30e0\u30d7\u30ec\u30bc\u30f3\u30c82",
        "P_DEFINE_VALUE": "110100002"
    },
    {
        "P_DEFINE_KEY": "SUBSCRIPTION_WEEKLY_REWARDS_3",
        "P_NAME": "\u53ec\u559a\u5e2b\u80b2\u6210\u30d7\u30ed\u30b0\u30e9\u30e0\u30d7\u30ec\u30bc\u30f3\u30c83",
        "P_DEFINE_VALUE": "110100003"
    },
    {
        "P_DEFINE_KEY": "SUBSCRIPTION_WEEKLY_REWARDS_4",
        "P_NAME": "\u53ec\u559a\u5e2b\u80b2\u6210\u30d7\u30ed\u30b0\u30e9\u30e0\u30d7\u30ec\u30bc\u30f3\u30c84",
        "P_DEFINE_VALUE": "110100004"
    },
    {
        "P_DEFINE_KEY": "SUBSC_STAMINA_SERVICE",
        "P_NAME": "\u5b9a\u671f\u8cfc\u8aad\u306e\u4f53\u529b\u30b5\u30fc\u30d3\u30b9",
        "P_DEFINE_VALUE": "30"
    },
    {
        "P_DEFINE_KEY": "SWITCH_BOOK_LINK_CAMPAIGN_1",
        "P_NAME": "\u30d6\u30c3\u30af\u7528\u7d46\u306e\u66f8\u30d5\u30ec\u30f3\u30c9\u52a9\u3063\u4eba\u8a2d\u5b9a",
        "P_DEFINE_VALUE": "82000005"
    },
    {
        "P_DEFINE_KEY": "SWITCH_BOOK_SUBSCRIPTION",
        "P_NAME": "\u30d6\u30c3\u30af\u7528\u30b5\u30d6\u30b9\u30af\u8cfc\u5165\u6642\u30d5\u30e9\u30b0",
        "P_DEFINE_VALUE": "82000004"
    },
    {
        "P_DEFINE_KEY": "SWITCH_BOOK_TUTORIAL_1",
        "P_NAME": "\u30d6\u30c3\u30af\u7528\u30c1\u30e5\u30fc\u30c8\u30ea\u30a2\u30ebPT\u7de8\u6210\u30b9\u30a4\u30c3\u30c1\u5224\u5b9a",
        "P_DEFINE_VALUE": "82000001"
    },
    {
        "P_DEFINE_KEY": "SWITCH_BOOK_TUTORIAL_2",
        "P_NAME": "\u30d6\u30c3\u30af\u7528\u30c1\u30e5\u30fc\u30c8\u30ea\u30a2\u30eb\u30a2\u30a4\u30c6\u30e0\u7de8\u6210\u30b9\u30a4\u30c3\u30c1\u5224\u5b9a",
        "P_DEFINE_VALUE": "82000002"
    },
    {
        "P_DEFINE_KEY": "SWITCH_BOOK_TUTORIAL_3",
        "P_NAME": "\u30d6\u30c3\u30af\u7528\u30c1\u30e5\u30fc\u30c8\u30ea\u30a2\u30eb\u30d5\u30ec\u30f3\u30c9\u52a9\u3063\u4eba\u8a2d\u5b9a",
        "P_DEFINE_VALUE": "82000003"
    },
    {
        "P_DEFINE_KEY": "SWITCH_ID_BF1BF2LINK_REWARD",
        "P_NAME": "BF1\u3068BF2\u306e\u9023\u643a\u3092\u3057\u3066\u5831\u916c\u3092\u3082\u3089\u3063\u305f\u5224\u5b9a",
        "P_DEFINE_VALUE": "2200000"
    },
    {
        "P_DEFINE_KEY": "SWITCH_ID_BF2LINK_REWARD",
        "P_NAME": "BF2\u3068\u306e\u9023\u643a\u3092\u3057\u3066\u5831\u916c\u3092\u3082\u3089\u3063\u305f\u5224\u5b9a",
        "P_DEFINE_VALUE": "2200001"
    },
    {
        "P_DEFINE_KEY": "SWITCH_ID_HERO_MEET_HEROINE",
        "P_NAME": "\u4e3b\u4eba\u516c\u3068\u30d2\u30ed\u30a4\u30f3\u5408\u6d41",
        "P_DEFINE_VALUE": "2000010"
    },
    {
        "P_DEFINE_KEY": "SWITCH_ID_OPEN_ARENA",
        "P_NAME": "\u30a2\u30ea\u30fc\u30ca\u958b\u653e\u306e\u30b9\u30a4\u30c3\u30c1ID",
        "P_DEFINE_VALUE": "10000027"
    },
    {
        "P_DEFINE_KEY": "SWITCH_ID_OPEN_GATE",
        "P_NAME": "\u30b2\u30fc\u30c8\u306e\u72ed\u9593\u958b\u653e\u306e\u30b9\u30a4\u30c3\u30c1ID",
        "P_DEFINE_VALUE": "10000002"
    },
    {
        "P_DEFINE_KEY": "SWITCH_ID_OPEN_HEROINE_SIDE",
        "P_NAME": "\u30d2\u30ed\u30a4\u30f3\u306e\u7ae0\u30aa\u30fc\u30d7\u30f3",
        "P_DEFINE_VALUE": "2000000"
    },
    {
        "P_DEFINE_KEY": "SWITCH_ID_OPEN_LABO",
        "P_NAME": "\u53ec\u559a\u8853\u7814\u7a76\u6240\u958b\u653e\u306e\u30b9\u30a4\u30c3\u30c1ID",
        "P_DEFINE_VALUE": "10000027"
    },
    {
        "P_DEFINE_KEY": "SWITCH_ID_OPEN_PET_EVO_1",
        "P_NAME": "\u30da\u30c3\u30c8\u9032\u5316\u30b9\u30a4\u30c3\u30c101",
        "P_DEFINE_VALUE": "11000100"
    },
    {
        "P_DEFINE_KEY": "SWITCH_ID_OPEN_PET_EVO_2",
        "P_NAME": "\u30da\u30c3\u30c8\u9032\u5316\u30b9\u30a4\u30c3\u30c102",
        "P_DEFINE_VALUE": "11000200"
    },
    {
        "P_DEFINE_KEY": "SWITCH_ID_OPEN_PET_EVO_3",
        "P_NAME": "\u30da\u30c3\u30c8\u9032\u5316\u30b9\u30a4\u30c3\u30c103",
        "P_DEFINE_VALUE": "11000391"
    },
    {
        "P_DEFINE_KEY": "SWITCH_ID_OPEN_PET_EVO_4",
        "P_NAME": "\u30da\u30c3\u30c8\u9032\u5316\u30b9\u30a4\u30c3\u30c104",
        "P_DEFINE_VALUE": "11000150"
    },
    {
        "P_DEFINE_KEY": "SWITCH_ID_OPEN_PET_EVO_5",
        "P_NAME": "\u30da\u30c3\u30c8\u9032\u5316\u30b9\u30a4\u30c3\u30c105",
        "P_DEFINE_VALUE": "11000279"
    },
    {
        "P_DEFINE_KEY": "SWITCH_ID_OPEN_PET_EVO_6",
        "P_NAME": "\u30da\u30c3\u30c8\u9032\u5316\u30b9\u30a4\u30c3\u30c106",
        "P_DEFINE_VALUE": "999999999"
    },
    {
        "P_DEFINE_KEY": "SWITCH_ID_OPEN_RANDALL",
        "P_NAME": "\u30e9\u30f3\u30c9\u30fc\u30eb\u958b\u653e\u306e\u30b9\u30a4\u30c3\u30c1ID",
        "P_DEFINE_VALUE": "10000027"
    },
    {
        "P_DEFINE_KEY": "SWITCH_ID_TUTORIAL_1_BATTLE_CLEAR",
        "P_NAME": "\u30d0\u30c8\u30eb:\u8972\u308f\u308c\u305f\u738b\u56fd\u30af\u30ea\u30a2",
        "P_DEFINE_VALUE": "1000001"
    },
    {
        "P_DEFINE_KEY": "SWITCH_ID_TUTORIAL_1_EVENT_CLEAR",
        "P_NAME": "\u304a\u8a71:\u8972\u308f\u308c\u305f\u738b\u56fd\u5f8c\u306e\u30a4\u30d9\u30f3\u30c8\u7d42\u4e86",
        "P_DEFINE_VALUE": "1000002"
    },
    {
        "P_DEFINE_KEY": "SWITCH_ID_TUTORIAL_2_BATTLE_CLEAR",
        "P_NAME": "\u30d0\u30c8\u30eb:\u9ed2\u3044\u9a0e\u58eb\u30af\u30ea\u30a2",
        "P_DEFINE_VALUE": "1000003"
    },
    {
        "P_DEFINE_KEY": "SWITCH_ID_TUTORIAL_2_EVENTA_CLEAR",
        "P_NAME": "\u304a\u8a71:\u9ed2\u3044\u9a0e\u58eb\u5f8c\u306e\u30a4\u30d9\u30f3\u30c8\u30b9\u30af\u30ea\u30d7\u30c8A\u7d42\u4e86",
        "P_DEFINE_VALUE": "1000004"
    },
    {
        "P_DEFINE_KEY": "SWITCH_ID_TUTORIAL_2_EVENTB_CLEAR",
        "P_NAME": "\u304a\u8a71:\u9ed2\u3044\u9a0e\u58eb\u5f8c\u306e\u30a4\u30d9\u30f3\u30c8\u30b9\u30af\u30ea\u30d7\u30c8B\u7d42\u4e86",
        "P_DEFINE_VALUE": "1000005"
    },
    {
        "P_DEFINE_KEY": "SWITCH_ID_TUTORIAL_2_EVENTC_CLEAR",
        "P_NAME": "\u304a\u8a71:\u5bb9\u59ff\u3092\u6c7a\u3081\u3066\u30da\u30c3\u30c8\u306e\u540d\u524d\u3092\u6c7a\u3081\u308b\u307e\u3067\u306e\u8a71\u7d42\u4e86",
        "P_DEFINE_VALUE": "1000007"
    },
    {
        "P_DEFINE_KEY": "SWITCH_ID_TUTORIAL_2_EVENTD_CLEAR",
        "P_NAME": "\u304a\u8a71:\u30da\u30c3\u30c8\u306e\u540d\u524d\u3092\u6c7a\u3081\u305f\u3042\u3068\u306e\u8a71\u7d42\u4e86",
        "P_DEFINE_VALUE": "1000009"
    },
    {
        "P_DEFINE_KEY": "SWITCH_ID_TUTORIAL_APPEARANCE_DECISION",
        "P_NAME": "\u5165\u529b:\u5bb9\u59ff\u3092\u6c7a\u3081\u305f",
        "P_DEFINE_VALUE": "1000006"
    },
    {
        "P_DEFINE_KEY": "SWITCH_ID_TUTORIAL_HOME_TAP",
        "P_NAME": "\u30db\u30fc\u30e0\u306e\u30af\u30a8\u30b9\u30c8\u30bf\u30c3\u30d7\u8868\u793a\u304c\u6d88\u3048\u308b\u30b9\u30a4\u30c3\u30c1\u6761\u4ef6",
        "P_DEFINE_VALUE": "1000010"
    },
    {
        "P_DEFINE_KEY": "SWITCH_ID_TUTORIAL_INITIALDATACREATE",
        "P_NAME": "\u30b7\u30b9\u30c6\u30e0:\u521d\u671f\u30c7\u30fc\u30bf\u306e\u4f5c\u6210\u7d42\u4e86",
        "P_DEFINE_VALUE": "1000000"
    },
    {
        "P_DEFINE_KEY": "SWITCH_ID_TUTORIAL_OP2_END",
        "P_NAME": "\u30b7\u30f3\u30dc\u30eb:\u30aa\u30fc\u30d7\u30cb\u30f3\u30b0\u30c1\u30e5\u30fc\u30c8\u30ea\u30a2\u30eb\u7d42\u4e86",
        "P_DEFINE_VALUE": "1000016"
    },
    {
        "P_DEFINE_KEY": "SWITCH_ID_TUTORIAL_PARTNER_DECISION",
        "P_NAME": "\u5165\u529b:\u30da\u30c3\u30c8\u306e\u540d\u524d\u3092\u6c7a\u3081\u305f",
        "P_DEFINE_VALUE": "1000008"
    },
    {
        "P_DEFINE_KEY": "SWITCH_ID_TUTORIAL_RESERVE",
        "P_NAME": "\u672a\u4f7f\u7528:",
        "P_DEFINE_VALUE": "1000015"
    },
    {
        "P_DEFINE_KEY": "SWITCH_ID_TUTORIAL_SUMMON_BATTLE_CLEAR",
        "P_NAME": "\u30d0\u30c8\u30eb:\u30b5\u30fc\u30b7\u30e3\u306e\u53ec\u559a\u30af\u30ea\u30a2",
        "P_DEFINE_VALUE": "1000011"
    },
    {
        "P_DEFINE_KEY": "SWITCH_ID_TUTORIAL_SUMMON_EVENT1_CLEAR",
        "P_NAME": "\u304a\u8a71:\u30b5\u30fc\u30b7\u30e3\u304c\u53ec\u559a\u8853\u3092\u4f7f\u3046\u8a71",
        "P_DEFINE_VALUE": "1000010"
    },
    {
        "P_DEFINE_KEY": "SWITCH_ID_TUTORIAL_SUMMON_EVENT2_CLEAR",
        "P_NAME": "\u304a\u8a71:\u82f1\u96c4\u3092\u601d\u3044\u6d6e\u304b\u3079\u308b\u8a71",
        "P_DEFINE_VALUE": "1000012"
    },
    {
        "P_DEFINE_KEY": "SWITCH_ID_TUTORIAL_SUMMON_EVENT3_CLEAR",
        "P_NAME": "\u304a\u8a71:\u53ec\u559a\u3067\u304d\u3066\u30b5\u30fc\u30b7\u30e3\u304c\u9a5a\u304f\u8a71",
        "P_DEFINE_VALUE": "1000014"
    },
    {
        "P_DEFINE_KEY": "SWITCH_ID_TUTORIAL_SUMMON_UNIT_DECISION",
        "P_NAME": "\u5165\u529b:\u82f1\u96c4\u9078\u629e",
        "P_DEFINE_VALUE": "1000013"
    },
    {
        "P_DEFINE_KEY": "SWITCH_TYPE_DICTIONARY_ARMS",
        "P_NAME": "\u6b66\u5668\u56f3\u9451\u30b9\u30a4\u30c3\u30c1\u30bf\u30a4\u30d7",
        "P_DEFINE_VALUE": "51"
    },
    {
        "P_DEFINE_KEY": "SWITCH_TYPE_DICTIONARY_IMPORTANT",
        "P_NAME": "\u5927\u4e8b\u306a\u3082\u306e\u56f3\u9451\u30b9\u30a4\u30c3\u30c1\u30bf\u30a4\u30d7",
        "P_DEFINE_VALUE": "57"
    },
    {
        "P_DEFINE_KEY": "SWITCH_TYPE_DICTIONARY_ITEM",
        "P_NAME": "\u30a2\u30a4\u30c6\u30e0\u56f3\u9451\u30b9\u30a4\u30c3\u30c1\u30bf\u30a4\u30d7",
        "P_DEFINE_VALUE": "52"
    },
    {
        "P_DEFINE_KEY": "SWITCH_TYPE_DICTIONARY_MATERIAL",
        "P_NAME": "\u7d20\u6750\u56f3\u9451\u30b9\u30a4\u30c3\u30c1\u30bf\u30a4\u30d7",
        "P_DEFINE_VALUE": "56"
    },
    {
        "P_DEFINE_KEY": "SWITCH_TYPE_DICTIONARY_MONSTER",
        "P_NAME": "\u30a8\u30cd\u30df\u30fc\u56f3\u9451\u30b9\u30a4\u30c3\u30c1\u30bf\u30a4\u30d7",
        "P_DEFINE_VALUE": "53"
    },
    {
        "P_DEFINE_KEY": "SWITCH_TYPE_DICTIONARY_SPHERE",
        "P_NAME": "\u30b9\u30d5\u30a3\u30a2\u56f3\u9451\u30b9\u30a4\u30c3\u30c1\u30bf\u30a4\u30d7",
        "P_DEFINE_VALUE": "55"
    },
    {
        "P_DEFINE_KEY": "SWITCH_TYPE_DICTIONARY_UNIT",
        "P_NAME": "\u30e6\u30cb\u30c3\u30c8\u56f3\u9451\u30b9\u30a4\u30c3\u30c1\u30bf\u30a4\u30d7",
        "P_DEFINE_VALUE": "50"
    },
    {
        "P_DEFINE_KEY": "TREASUREBOX_BCHC_RATE",
        "P_NAME": "\u5b9d\u7bb1\u304b\u3089\u306eBCHC\u30ec\u30fc\u30c8",
        "P_DEFINE_VALUE": "75"
    },
    {
        "P_DEFINE_KEY": "TRIAL_FRIEND_UPDATE_TIME",
        "P_NAME": "\u53ec\u559a\u8853\u7814\u7a76\u6240\u306e\u30d5\u30ec\u30f3\u30c9\u30ea\u30b9\u30c8\u306e\u66f4\u65b0\u9593\u9694\uff08\u79d2\uff09",
        "P_DEFINE_VALUE": "300"
    },
    {
        "P_DEFINE_KEY": "TURN_DROP_BC_CNT",
        "P_NAME": "1\u30bf\u30fc\u30f3\u6bce\u306b\u51fa\u73fe\u3059\u308bBC\u306e\u5236\u9650\u4e0a\u9650",
        "P_DEFINE_VALUE": "100"
    },
    {
        "P_DEFINE_KEY": "TURN_DROP_HC_CNT",
        "P_NAME": "1\u30bf\u30fc\u30f3\u6bce\u306b\u51fa\u73fe\u3059\u308bHC\u306e\u5236\u9650\u4e0a\u9650",
        "P_DEFINE_VALUE": "20"
    },
    {
        "P_DEFINE_KEY": "UNIT_LEARN_ALT_SKILL_CNT",
        "P_NAME": "\u30e6\u30cb\u30c3\u30c8\u304c\u4fee\u5f97\u53ef\u80fd\u306aALT\u30b9\u30ad\u30eb\u6570",
        "P_DEFINE_VALUE": "2"
    },
    {
        "P_DEFINE_KEY": "UNIT_LEARN_ALT_SKILL_CNT2",
        "P_NAME": "\u30e6\u30cb\u30c3\u30c8\u304c\u30b9\u30c8\u30c3\u30af\u53ef\u80fd\u306aALT\u30b9\u30ad\u30eb\u6570",
        "P_DEFINE_VALUE": "1"
    },
    {
        "P_DEFINE_KEY": "UNIT_LEARN_EX_SKILL_CNT",
        "P_NAME": "\u30e6\u30cb\u30c3\u30c8\u304c\u4fee\u5f97\u53ef\u80fd\u306aEX\u30b9\u30ad\u30eb\u6570",
        "P_DEFINE_VALUE": "2"
    },
    {
        "P_DEFINE_KEY": "UNIT_LEARN_EX_SKILL_CNT2",
        "P_NAME": "\u30e6\u30cb\u30c3\u30c8\u304c\u30b9\u30c8\u30c3\u30af\u53ef\u80fd\u306aEX\u30b9\u30ad\u30eb\u6570",
        "P_DEFINE_VALUE": "1"
    },
    {
        "P_DEFINE_KEY": "WEAK_DAMGE_RATE_MAX",
        "P_NAME": "\u5f31\u70b9\u5c5e\u6027\u30c0\u30e1\u30fc\u30b8\u500d\u7387\u4e0a\u9650",
        "P_DEFINE_VALUE": "4"
    },
    {
        "P_DEFINE_KEY": "XBB_DECK_OPEN",
        "P_NAME": "XBB\u30c7\u30c3\u30ad\u89e3\u653e\u30b9\u30a4\u30c3\u30c1",
        "P_DEFINE_VALUE": "10000152"
    },
    {
        "P_DEFINE_KEY": "XBB_GAUGE_DOWN_MAX_RATE",
        "P_NAME": "XBB\u6e1b\u5c11\u91cf\u306e\u6700\u5927\u5024",
        "P_DEFINE_VALUE": "0.8"
    },
    {
        "P_DEFINE_KEY": "XBB_GAUGE_DOWN_RATE",
        "P_NAME": "XBB\u30b2\u30fc\u30b8\u6d88\u8cbb1\u6bce\u306e\u6e1b\u5c11\u91cf",
        "P_DEFINE_VALUE": "0.00002"
    },
    {
        "P_DEFINE_KEY": "XBB_GAUGE_UP_BB_RATE",
        "P_NAME": "XBB\u84c4\u7a4d\u5024_BB\u767a\u52d5",
        "P_DEFINE_VALUE": "75"
    },
    {
        "P_DEFINE_KEY": "XBB_GAUGE_UP_GET_BC_MAX_RATE",
        "P_NAME": "XBB\u84c4\u7a4d\u5024_BC\u53d6\u5f97\u6700\u5927\u5024",
        "P_DEFINE_VALUE": "500"
    },
    {
        "P_DEFINE_KEY": "XBB_GAUGE_UP_GET_BC_RATE",
        "P_NAME": "XBB\u84c4\u7a4d\u5024_\u4f59\u3063\u305fBC\u53d6\u5f971\u500b",
        "P_DEFINE_VALUE": "25"
    },
    {
        "P_DEFINE_KEY": "XBB_GAUGE_UP_MEMBER_DEAD_RATE",
        "P_NAME": "XBB\u84c4\u7a4d\u5024_\u4ef2\u9593\u30e6\u30cb\u30c3\u30c8\u6b7b\u4ea1",
        "P_DEFINE_VALUE": "1000"
    },
    {
        "P_DEFINE_KEY": "XBB_GAUGE_UP_NORMAL_ATTACK_RATE",
        "P_NAME": "XBB\u84c4\u7a4d\u5024_\u901a\u5e38\u653b\u6483",
        "P_DEFINE_VALUE": "150"
    },
    {
        "P_DEFINE_KEY": "XBB_GAUGE_UP_SBB_RATE",
        "P_NAME": "XBB\u84c4\u7a4d\u5024_SBB\u767a\u52d5",
        "P_DEFINE_VALUE": "75"
    },
    {
        "P_DEFINE_KEY": "XBB_GAUGE_UP_TURN_RATE",
        "P_NAME": "XBB\u84c4\u7a4d\u5024_\u30bf\u30fc\u30f3\u7d4c\u904e",
        "P_DEFINE_VALUE": "500"
    },
    {
        "P_DEFINE_KEY": "XBB_MAX_GAUGE",
        "P_NAME": "XBB\u30b2\u30fc\u30b8\u6700\u5927\u5024",
        "P_DEFINE_VALUE": "10000"
    },
    {
        "P_DEFINE_KEY": "ZEL_DROP_PERCENT",
        "P_NAME": "\u30bc\u30eb\u30c9\u30ed\u30c3\u30d7\u91cf\u306e\u57fa\u790e\u5024",
        "P_DEFINE_VALUE": "5"
    }
]