[
    {
        "P_UNIT_ID": "1000122",
        "0vzt3dFb": "0",
        "aSJp1i9m": "1",
        "0I4MtuDa": "0,-45,100"
    },
    {
        "P_UNIT_ID": "1000123",
        "0vzt3dFb": "0",
        "aSJp1i9m": "1",
        "0I4MtuDa": "0,-45,100"
    },
    {
        "P_UNIT_ID": "1000124",
        "0vzt3dFb": "0",
        "aSJp1i9m": "1",
        "0I4MtuDa": "0,-45,100"
    },
    {
        "P_UNIT_ID": "1000222",
        "0vzt3dFb": "0",
        "aSJp1i9m": "1",
        "0I4MtuDa": "0,-45,100"
    },
    {
        "P_UNIT_ID": "1000223",
        "0vzt3dFb": "0",
        "aSJp1i9m": "1",
        "0I4MtuDa": "0,-45,100"
    },
    {
        "P_UNIT_ID": "1000224",
        "0vzt3dFb": "0",
        "aSJp1i9m": "1",
        "0I4MtuDa": "0,-45,100"
    },
    {
        "P_UNIT_ID": "1000322",
        "0vzt3dFb": "0",
        "aSJp1i9m": "1",
        "0I4MtuDa": "0,-45,100"
    },
    {
        "P_UNIT_ID": "1000323",
        "0vzt3dFb": "0",
        "aSJp1i9m": "1",
        "0I4MtuDa": "0,-45,100"
    },
    {
        "P_UNIT_ID": "1000324",
        "0vzt3dFb": "0",
        "aSJp1i9m": "1",
        "0I4MtuDa": "0,-45,100"
    },
    {
        "P_UNIT_ID": "1000422",
        "0vzt3dFb": "0",
        "aSJp1i9m": "1",
        "0I4MtuDa": "0,-45,100"
    },
    {
        "P_UNIT_ID": "1000423",
        "0vzt3dFb": "0",
        "aSJp1i9m": "1",
        "0I4MtuDa": "0,-45,100"
    },
    {
        "P_UNIT_ID": "1000424",
        "0vzt3dFb": "0",
        "aSJp1i9m": "1",
        "0I4MtuDa": "0,-45,100"
    },
    {
        "P_UNIT_ID": "1000522",
        "0vzt3dFb": "0",
        "aSJp1i9m": "1",
        "0I4MtuDa": "0,-45,100"
    },
    {
        "P_UNIT_ID": "1000523",
        "0vzt3dFb": "0",
        "aSJp1i9m": "1",
        "0I4MtuDa": "0,-45,100"
    },
    {
        "P_UNIT_ID": "1000524",
        "0vzt3dFb": "0",
        "aSJp1i9m": "1",
        "0I4MtuDa": "0,-45,100"
    },
    {
        "P_UNIT_ID": "1000620",
        "0vzt3dFb": "0",
        "aSJp1i9m": "1",
        "0I4MtuDa": "0,-45,100"
    },
    {
        "P_UNIT_ID": "1000621",
        "0vzt3dFb": "0",
        "aSJp1i9m": "1",
        "0I4MtuDa": "0,-45,100"
    },
    {
        "P_UNIT_ID": "1000721",
        "0vzt3dFb": "0",
        "aSJp1i9m": "1",
        "0I4MtuDa": "0,-45,100"
    },
    {
        "P_UNIT_ID": "1000722",
        "0vzt3dFb": "0",
        "aSJp1i9m": "1",
        "0I4MtuDa": "0,-45,100"
    },
    {
        "P_UNIT_ID": "1000820",
        "0vzt3dFb": "0",
        "aSJp1i9m": "1",
        "0I4MtuDa": "0,-100,100"
    },
    {
        "P_UNIT_ID": "1000821",
        "0vzt3dFb": "0",
        "aSJp1i9m": "1",
        "0I4MtuDa": "0,-100,100"
    },
    {
        "P_UNIT_ID": "1000921",
        "0vzt3dFb": "0",
        "aSJp1i9m": "1",
        "0I4MtuDa": "0,-45,100"
    },
    {
        "P_UNIT_ID": "1000922",
        "0vzt3dFb": "0",
        "aSJp1i9m": "1",
        "0I4MtuDa": "0,-45,100"
    },
    {
        "P_UNIT_ID": "1001020",
        "0vzt3dFb": "0",
        "aSJp1i9m": "1",
        "0I4MtuDa": "0,-80,100"
    },
    {
        "P_UNIT_ID": "1001021",
        "0vzt3dFb": "0",
        "aSJp1i9m": "1",
        "0I4MtuDa": "0,-60,100"
    },
    {
        "P_UNIT_ID": "1001124",
        "0vzt3dFb": "0",
        "aSJp1i9m": "1",
        "0I4MtuDa": "0,-45,100"
    },
    {
        "P_UNIT_ID": "1001222",
        "0vzt3dFb": "0",
        "aSJp1i9m": "1",
        "0I4MtuDa": "0,-45,100"
    },
    {
        "P_UNIT_ID": "1001223",
        "0vzt3dFb": "0",
        "aSJp1i9m": "1",
        "0I4MtuDa": "0,-45,100"
    },
    {
        "P_UNIT_ID": "1001224",
        "0vzt3dFb": "0",
        "aSJp1i9m": "1",
        "0I4MtuDa": "0,-45,100"
    },
    {
        "P_UNIT_ID": "1001312",
        "0vzt3dFb": "0",
        "aSJp1i9m": "1",
        "0I4MtuDa": "0,-45,100"
    },
    {
        "P_UNIT_ID": "1001313",
        "0vzt3dFb": "0",
        "aSJp1i9m": "1",
        "0I4MtuDa": "0,-45,100"
    },
    {
        "P_UNIT_ID": "1001314",
        "0vzt3dFb": "0",
        "aSJp1i9m": "1",
        "0I4MtuDa": "0,-45,100"
    },
    {
        "P_UNIT_ID": "1001322",
        "0vzt3dFb": "0",
        "aSJp1i9m": "1",
        "0I4MtuDa": "0,-45,100"
    },
    {
        "P_UNIT_ID": "1001323",
        "0vzt3dFb": "0",
        "aSJp1i9m": "1",
        "0I4MtuDa": "0,-45,100"
    },
    {
        "P_UNIT_ID": "1001324",
        "0vzt3dFb": "0",
        "aSJp1i9m": "1",
        "0I4MtuDa": "0,-45,100"
    },
    {
        "P_UNIT_ID": "1001412",
        "0vzt3dFb": "0",
        "aSJp1i9m": "1",
        "0I4MtuDa": "0,-45,100"
    },
    {
        "P_UNIT_ID": "1001413",
        "0vzt3dFb": "0",
        "aSJp1i9m": "1",
        "0I4MtuDa": "0,-45,100"
    },
    {
        "P_UNIT_ID": "1001414",
        "0vzt3dFb": "0",
        "aSJp1i9m": "1",
        "0I4MtuDa": "0,-45,100"
    },
    {
        "P_UNIT_ID": "1001424",
        "0vzt3dFb": "0",
        "aSJp1i9m": "1",
        "0I4MtuDa": "0,-45,100"
    },
    {
        "P_UNIT_ID": "1001512",
        "0vzt3dFb": "0",
        "aSJp1i9m": "1",
        "0I4MtuDa": "0,-45,100"
    },
    {
        "P_UNIT_ID": "1001513",
        "0vzt3dFb": "0",
        "aSJp1i9m": "1",
        "0I4MtuDa": "0,-45,100"
    },
    {
        "P_UNIT_ID": "1001514",
        "0vzt3dFb": "0",
        "aSJp1i9m": "1",
        "0I4MtuDa": "0,-45,100"
    },
    {
        "P_UNIT_ID": "1001521",
        "0vzt3dFb": "0",
        "aSJp1i9m": "1",
        "0I4MtuDa": "0,-45,100"
    },
    {
        "P_UNIT_ID": "1001612",
        "0vzt3dFb": "0",
        "aSJp1i9m": "1",
        "0I4MtuDa": "0,-45,100"
    },
    {
        "P_UNIT_ID": "1001613",
        "0vzt3dFb": "0",
        "aSJp1i9m": "1",
        "0I4MtuDa": "0,-45,100"
    },
    {
        "P_UNIT_ID": "1001614",
        "0vzt3dFb": "0",
        "aSJp1i9m": "1",
        "0I4MtuDa": "0,-45,100"
    },
    {
        "P_UNIT_ID": "1001620",
        "0vzt3dFb": "0",
        "aSJp1i9m": "1",
        "0I4MtuDa": "50,-160,100"
    },
    {
        "P_UNIT_ID": "1001621",
        "0vzt3dFb": "0",
        "aSJp1i9m": "1",
        "0I4MtuDa": "100,-120,100"
    },
    {
        "P_UNIT_ID": "1001622",
        "0vzt3dFb": "0",
        "aSJp1i9m": "1",
        "0I4MtuDa": "-80,-10,80"
    },
    {
        "P_UNIT_ID": "1001712",
        "0vzt3dFb": "0",
        "aSJp1i9m": "1",
        "0I4MtuDa": "0,-45,100"
    },
    {
        "P_UNIT_ID": "1001713",
        "0vzt3dFb": "0",
        "aSJp1i9m": "1",
        "0I4MtuDa": "0,-45,100"
    },
    {
        "P_UNIT_ID": "1001714",
        "0vzt3dFb": "0",
        "aSJp1i9m": "1",
        "0I4MtuDa": "0,-45,100"
    },
    {
        "P_UNIT_ID": "1001724",
        "0vzt3dFb": "0",
        "aSJp1i9m": "1",
        "0I4MtuDa": "0,-45,100"
    },
    {
        "P_UNIT_ID": "1001812",
        "0vzt3dFb": "0",
        "aSJp1i9m": "1",
        "0I4MtuDa": "0,-45,100"
    },
    {
        "P_UNIT_ID": "1001813",
        "0vzt3dFb": "0",
        "aSJp1i9m": "1",
        "0I4MtuDa": "0,-45,100"
    },
    {
        "P_UNIT_ID": "1001814",
        "0vzt3dFb": "0",
        "aSJp1i9m": "1",
        "0I4MtuDa": "0,-45,100"
    },
    {
        "P_UNIT_ID": "1001824",
        "0vzt3dFb": "0",
        "aSJp1i9m": "1",
        "0I4MtuDa": "0,-45,100"
    },
    {
        "P_UNIT_ID": "1001912",
        "0vzt3dFb": "0",
        "aSJp1i9m": "1",
        "0I4MtuDa": "0,-45,100"
    },
    {
        "P_UNIT_ID": "1001913",
        "0vzt3dFb": "0",
        "aSJp1i9m": "1",
        "0I4MtuDa": "0,-45,100"
    },
    {
        "P_UNIT_ID": "1001914",
        "0vzt3dFb": "0",
        "aSJp1i9m": "1",
        "0I4MtuDa": "0,-45,100"
    },
    {
        "P_UNIT_ID": "1001922",
        "0vzt3dFb": "0",
        "aSJp1i9m": "1",
        "0I4MtuDa": "0,-45,100"
    },
    {
        "P_UNIT_ID": "1001923",
        "0vzt3dFb": "0",
        "aSJp1i9m": "1",
        "0I4MtuDa": "0,-45,100"
    },
    {
        "P_UNIT_ID": "1001924",
        "0vzt3dFb": "0",
        "aSJp1i9m": "1",
        "0I4MtuDa": "0,-45,100"
    },
    {
        "P_UNIT_ID": "1002012",
        "0vzt3dFb": "0",
        "aSJp1i9m": "1",
        "0I4MtuDa": "0,-45,100"
    },
    {
        "P_UNIT_ID": "1002013",
        "0vzt3dFb": "0",
        "aSJp1i9m": "1",
        "0I4MtuDa": "0,-45,100"
    },
    {
        "P_UNIT_ID": "1002014",
        "0vzt3dFb": "0",
        "aSJp1i9m": "1",
        "0I4MtuDa": "0,-45,100"
    },
    {
        "P_UNIT_ID": "1002024",
        "0vzt3dFb": "0",
        "aSJp1i9m": "1",
        "0I4MtuDa": "0,-45,100"
    },
    {
        "P_UNIT_ID": "1002112",
        "0vzt3dFb": "0",
        "aSJp1i9m": "1",
        "0I4MtuDa": "0,-45,100"
    },
    {
        "P_UNIT_ID": "1002113",
        "0vzt3dFb": "0",
        "aSJp1i9m": "1",
        "0I4MtuDa": "0,-45,100"
    },
    {
        "P_UNIT_ID": "1002114",
        "0vzt3dFb": "0",
        "aSJp1i9m": "1",
        "0I4MtuDa": "0,-45,100"
    },
    {
        "P_UNIT_ID": "1002124",
        "0vzt3dFb": "0",
        "aSJp1i9m": "1",
        "0I4MtuDa": "0,-45,100"
    },
    {
        "P_UNIT_ID": "1002210",
        "0vzt3dFb": "0",
        "aSJp1i9m": "1",
        "0I4MtuDa": "0,-80,100"
    },
    {
        "P_UNIT_ID": "1002211",
        "0vzt3dFb": "0",
        "aSJp1i9m": "1",
        "0I4MtuDa": "0,-45,100"
    },
    {
        "P_UNIT_ID": "1002224",
        "0vzt3dFb": "0",
        "aSJp1i9m": "1",
        "0I4MtuDa": "0,-45,100"
    },
    {
        "P_UNIT_ID": "1002310",
        "0vzt3dFb": "0",
        "aSJp1i9m": "1",
        "0I4MtuDa": "0,-45,100"
    },
    {
        "P_UNIT_ID": "1002311",
        "0vzt3dFb": "0",
        "aSJp1i9m": "1",
        "0I4MtuDa": "0,-45,100"
    },
    {
        "P_UNIT_ID": "1002312",
        "0vzt3dFb": "0",
        "aSJp1i9m": "1",
        "0I4MtuDa": "0,-45,100"
    },
    {
        "P_UNIT_ID": "1002324",
        "0vzt3dFb": "0",
        "aSJp1i9m": "1",
        "0I4MtuDa": "0,-45,100"
    },
    {
        "P_UNIT_ID": "1002410",
        "0vzt3dFb": "0",
        "aSJp1i9m": "1",
        "0I4MtuDa": "0,-45,100"
    },
    {
        "P_UNIT_ID": "1002411",
        "0vzt3dFb": "0",
        "aSJp1i9m": "1",
        "0I4MtuDa": "0,-45,100"
    },
    {
        "P_UNIT_ID": "1002421",
        "0vzt3dFb": "0",
        "aSJp1i9m": "1",
        "0I4MtuDa": "0,-45,100"
    },
    {
        "P_UNIT_ID": "1002511",
        "0vzt3dFb": "0",
        "aSJp1i9m": "1",
        "0I4MtuDa": "0,-100,100"
    },
    {
        "P_UNIT_ID": "1002512",
        "0vzt3dFb": "0",
        "aSJp1i9m": "1",
        "0I4MtuDa": "50,-45,100"
    },
    {
        "P_UNIT_ID": "1002522",
        "0vzt3dFb": "0",
        "aSJp1i9m": "1",
        "0I4MtuDa": "0,-45,100"
    },
    {
        "P_UNIT_ID": "1002523",
        "0vzt3dFb": "0",
        "aSJp1i9m": "1",
        "0I4MtuDa": "0,-45,100"
    },
    {
        "P_UNIT_ID": "1002524",
        "0vzt3dFb": "0",
        "aSJp1i9m": "1",
        "0I4MtuDa": "0,-45,100"
    },
    {
        "P_UNIT_ID": "1002611",
        "0vzt3dFb": "0",
        "aSJp1i9m": "1",
        "0I4MtuDa": "0,-45,100"
    },
    {
        "P_UNIT_ID": "1002612",
        "0vzt3dFb": "0",
        "aSJp1i9m": "1",
        "0I4MtuDa": "0,-45,100"
    },
    {
        "P_UNIT_ID": "1002814",
        "0vzt3dFb": "0",
        "aSJp1i9m": "1",
        "0I4MtuDa": "0,-45,100"
    },
    {
        "P_UNIT_ID": "1002912",
        "0vzt3dFb": "0",
        "aSJp1i9m": "1",
        "0I4MtuDa": "0,-45,100"
    },
    {
        "P_UNIT_ID": "1002913",
        "0vzt3dFb": "0",
        "aSJp1i9m": "1",
        "0I4MtuDa": "0,-45,100"
    },
    {
        "P_UNIT_ID": "1002914",
        "0vzt3dFb": "0",
        "aSJp1i9m": "1",
        "0I4MtuDa": "0,-45,100"
    },
    {
        "P_UNIT_ID": "1003012",
        "0vzt3dFb": "0",
        "aSJp1i9m": "1",
        "0I4MtuDa": "0,-45,100"
    },
    {
        "P_UNIT_ID": "1003013",
        "0vzt3dFb": "0",
        "aSJp1i9m": "1",
        "0I4MtuDa": "0,-45,100"
    },
    {
        "P_UNIT_ID": "1003014",
        "0vzt3dFb": "0",
        "aSJp1i9m": "1",
        "0I4MtuDa": "0,-45,100"
    },
    {
        "P_UNIT_ID": "1003112",
        "0vzt3dFb": "0",
        "aSJp1i9m": "1",
        "0I4MtuDa": "0,-45,100"
    },
    {
        "P_UNIT_ID": "1003113",
        "0vzt3dFb": "0",
        "aSJp1i9m": "1",
        "0I4MtuDa": "0,-45,100"
    },
    {
        "P_UNIT_ID": "1003114",
        "0vzt3dFb": "0",
        "aSJp1i9m": "1",
        "0I4MtuDa": "0,-45,100"
    },
    {
        "P_UNIT_ID": "1003212",
        "0vzt3dFb": "0",
        "aSJp1i9m": "1",
        "0I4MtuDa": "0,-45,100"
    },
    {
        "P_UNIT_ID": "1003213",
        "0vzt3dFb": "0",
        "aSJp1i9m": "1",
        "0I4MtuDa": "0,-45,100"
    },
    {
        "P_UNIT_ID": "1003214",
        "0vzt3dFb": "0",
        "aSJp1i9m": "1",
        "0I4MtuDa": "0,-45,100"
    },
    {
        "P_UNIT_ID": "1101824",
        "0vzt3dFb": "0",
        "aSJp1i9m": "1",
        "0I4MtuDa": "0,-45,100"
    },
    {
        "P_UNIT_ID": "2000122",
        "0vzt3dFb": "0",
        "aSJp1i9m": "1",
        "0I4MtuDa": "0,-45,100"
    },
    {
        "P_UNIT_ID": "2000123",
        "0vzt3dFb": "0",
        "aSJp1i9m": "1",
        "0I4MtuDa": "0,-45,100"
    },
    {
        "P_UNIT_ID": "2000124",
        "0vzt3dFb": "0",
        "aSJp1i9m": "1",
        "0I4MtuDa": "0,-45,100"
    },
    {
        "P_UNIT_ID": "2000222",
        "0vzt3dFb": "0",
        "aSJp1i9m": "1",
        "0I4MtuDa": "30,-45,100"
    },
    {
        "P_UNIT_ID": "2000223",
        "0vzt3dFb": "0",
        "aSJp1i9m": "1",
        "0I4MtuDa": "30,-45,100"
    },
    {
        "P_UNIT_ID": "2000224",
        "0vzt3dFb": "0",
        "aSJp1i9m": "1",
        "0I4MtuDa": "30,-45,100"
    },
    {
        "P_UNIT_ID": "2000322",
        "0vzt3dFb": "0",
        "aSJp1i9m": "1",
        "0I4MtuDa": "0,-45,100"
    },
    {
        "P_UNIT_ID": "2000323",
        "0vzt3dFb": "0",
        "aSJp1i9m": "1",
        "0I4MtuDa": "0,-45,100"
    },
    {
        "P_UNIT_ID": "2000324",
        "0vzt3dFb": "0",
        "aSJp1i9m": "1",
        "0I4MtuDa": "0,-45,100"
    },
    {
        "P_UNIT_ID": "2000422",
        "0vzt3dFb": "0",
        "aSJp1i9m": "1",
        "0I4MtuDa": "0,-45,100"
    },
    {
        "P_UNIT_ID": "2000423",
        "0vzt3dFb": "0",
        "aSJp1i9m": "1",
        "0I4MtuDa": "0,-45,100"
    },
    {
        "P_UNIT_ID": "2000424",
        "0vzt3dFb": "0",
        "aSJp1i9m": "1",
        "0I4MtuDa": "0,-45,100"
    },
    {
        "P_UNIT_ID": "2000522",
        "0vzt3dFb": "0",
        "aSJp1i9m": "1",
        "0I4MtuDa": "0,-45,100"
    },
    {
        "P_UNIT_ID": "2000523",
        "0vzt3dFb": "0",
        "aSJp1i9m": "1",
        "0I4MtuDa": "0,-45,100"
    },
    {
        "P_UNIT_ID": "2000524",
        "0vzt3dFb": "0",
        "aSJp1i9m": "1",
        "0I4MtuDa": "0,-45,100"
    },
    {
        "P_UNIT_ID": "2000620",
        "0vzt3dFb": "0",
        "aSJp1i9m": "1",
        "0I4MtuDa": "0,-45,100"
    },
    {
        "P_UNIT_ID": "2000621",
        "0vzt3dFb": "0",
        "aSJp1i9m": "1",
        "0I4MtuDa": "0,-45,100"
    },
    {
        "P_UNIT_ID": "2000721",
        "0vzt3dFb": "0",
        "aSJp1i9m": "1",
        "0I4MtuDa": "0,-45,100"
    },
    {
        "P_UNIT_ID": "2000722",
        "0vzt3dFb": "0",
        "aSJp1i9m": "1",
        "0I4MtuDa": "0,-45,100"
    },
    {
        "P_UNIT_ID": "2000820",
        "0vzt3dFb": "0",
        "aSJp1i9m": "1",
        "0I4MtuDa": "0,-100,100"
    },
    {
        "P_UNIT_ID": "2000821",
        "0vzt3dFb": "0",
        "aSJp1i9m": "1",
        "0I4MtuDa": "0,-45,100"
    },
    {
        "P_UNIT_ID": "2000921",
        "0vzt3dFb": "0",
        "aSJp1i9m": "1",
        "0I4MtuDa": "0,-45,100"
    },
    {
        "P_UNIT_ID": "2000922",
        "0vzt3dFb": "0",
        "aSJp1i9m": "1",
        "0I4MtuDa": "0,-45,100"
    },
    {
        "P_UNIT_ID": "2001020",
        "0vzt3dFb": "0",
        "aSJp1i9m": "1",
        "0I4MtuDa": "0,-100,100"
    },
    {
        "P_UNIT_ID": "2001021",
        "0vzt3dFb": "0",
        "aSJp1i9m": "1",
        "0I4MtuDa": "0,-45,100"
    },
    {
        "P_UNIT_ID": "2001124",
        "0vzt3dFb": "0",
        "aSJp1i9m": "1",
        "0I4MtuDa": "0,-45,100"
    },
    {
        "P_UNIT_ID": "2001212",
        "0vzt3dFb": "0",
        "aSJp1i9m": "1",
        "0I4MtuDa": "0,-45,100"
    },
    {
        "P_UNIT_ID": "2001213",
        "0vzt3dFb": "0",
        "aSJp1i9m": "1",
        "0I4MtuDa": "0,-45,100"
    },
    {
        "P_UNIT_ID": "2001214",
        "0vzt3dFb": "0",
        "aSJp1i9m": "1",
        "0I4MtuDa": "0,-45,100"
    },
    {
        "P_UNIT_ID": "2001221",
        "0vzt3dFb": "0",
        "aSJp1i9m": "1",
        "0I4MtuDa": "0,-45,100"
    },
    {
        "P_UNIT_ID": "2001312",
        "0vzt3dFb": "0",
        "aSJp1i9m": "1",
        "0I4MtuDa": "0,-45,100"
    },
    {
        "P_UNIT_ID": "2001313",
        "0vzt3dFb": "0",
        "aSJp1i9m": "1",
        "0I4MtuDa": "0,-45,100"
    },
    {
        "P_UNIT_ID": "2001314",
        "0vzt3dFb": "0",
        "aSJp1i9m": "1",
        "0I4MtuDa": "0,-45,100"
    },
    {
        "P_UNIT_ID": "2001321",
        "0vzt3dFb": "0",
        "aSJp1i9m": "1",
        "0I4MtuDa": "0,-45,100"
    },
    {
        "P_UNIT_ID": "2001412",
        "0vzt3dFb": "0",
        "aSJp1i9m": "1",
        "0I4MtuDa": "0,-45,100"
    },
    {
        "P_UNIT_ID": "2001413",
        "0vzt3dFb": "0",
        "aSJp1i9m": "1",
        "0I4MtuDa": "0,-45,100"
    },
    {
        "P_UNIT_ID": "2001414",
        "0vzt3dFb": "0",
        "aSJp1i9m": "1",
        "0I4MtuDa": "0,-45,100"
    },
    {
        "P_UNIT_ID": "2001424",
        "0vzt3dFb": "0",
        "aSJp1i9m": "1",
        "0I4MtuDa": "0,-45,100"
    },
    {
        "P_UNIT_ID": "2001512",
        "0vzt3dFb": "0",
        "aSJp1i9m": "1",
        "0I4MtuDa": "0,-45,100"
    },
    {
        "P_UNIT_ID": "2001513",
        "0vzt3dFb": "0",
        "aSJp1i9m": "1",
        "0I4MtuDa": "0,-45,100"
    },
    {
        "P_UNIT_ID": "2001514",
        "0vzt3dFb": "0",
        "aSJp1i9m": "1",
        "0I4MtuDa": "0,-45,100"
    },
    {
        "P_UNIT_ID": "2001524",
        "0vzt3dFb": "0",
        "aSJp1i9m": "1",
        "0I4MtuDa": "0,-45,100"
    },
    {
        "P_UNIT_ID": "2001612",
        "0vzt3dFb": "0",
        "aSJp1i9m": "1",
        "0I4MtuDa": "0,-45,100"
    },
    {
        "P_UNIT_ID": "2001613",
        "0vzt3dFb": "0",
        "aSJp1i9m": "1",
        "0I4MtuDa": "0,-45,100"
    },
    {
        "P_UNIT_ID": "2001614",
        "0vzt3dFb": "0",
        "aSJp1i9m": "1",
        "0I4MtuDa": "0,-45,100"
    },
    {
        "P_UNIT_ID": "2001624",
        "0vzt3dFb": "0",
        "aSJp1i9m": "1",
        "0I4MtuDa": "0,-45,100"
    },
    {
        "P_UNIT_ID": "2001712",
        "0vzt3dFb": "0",
        "aSJp1i9m": "1",
        "0I4MtuDa": "0,-45,100"
    },
    {
        "P_UNIT_ID": "2001713",
        "0vzt3dFb": "0",
        "aSJp1i9m": "1",
        "0I4MtuDa": "0,-45,100"
    },
    {
        "P_UNIT_ID": "2001714",
        "0vzt3dFb": "0",
        "aSJp1i9m": "1",
        "0I4MtuDa": "0,-45,100"
    },
    {
        "P_UNIT_ID": "2001724",
        "0vzt3dFb": "0",
        "aSJp1i9m": "1",
        "0I4MtuDa": "0,-45,100"
    },
    {
        "P_UNIT_ID": "2001812",
        "0vzt3dFb": "0",
        "aSJp1i9m": "1",
        "0I4MtuDa": "0,-45,100"
    },
    {
        "P_UNIT_ID": "2001813",
        "0vzt3dFb": "0",
        "aSJp1i9m": "1",
        "0I4MtuDa": "0,-45,100"
    },
    {
        "P_UNIT_ID": "2001814",
        "0vzt3dFb": "0",
        "aSJp1i9m": "1",
        "0I4MtuDa": "0,-45,100"
    },
    {
        "P_UNIT_ID": "2001824",
        "0vzt3dFb": "0",
        "aSJp1i9m": "1",
        "0I4MtuDa": "0,-45,100"
    },
    {
        "P_UNIT_ID": "2001912",
        "0vzt3dFb": "0",
        "aSJp1i9m": "1",
        "0I4MtuDa": "0,-80,100"
    },
    {
        "P_UNIT_ID": "2001913",
        "0vzt3dFb": "0",
        "aSJp1i9m": "1",
        "0I4MtuDa": "0,-45,100"
    },
    {
        "P_UNIT_ID": "2001914",
        "0vzt3dFb": "0",
        "aSJp1i9m": "1",
        "0I4MtuDa": "0,-45,100"
    },
    {
        "P_UNIT_ID": "2001922",
        "0vzt3dFb": "0",
        "aSJp1i9m": "1",
        "0I4MtuDa": "0,-45,100"
    },
    {
        "P_UNIT_ID": "2001923",
        "0vzt3dFb": "0",
        "aSJp1i9m": "1",
        "0I4MtuDa": "0,-45,100"
    },
    {
        "P_UNIT_ID": "2001924",
        "0vzt3dFb": "0",
        "aSJp1i9m": "1",
        "0I4MtuDa": "0,-45,100"
    },
    {
        "P_UNIT_ID": "2002012",
        "0vzt3dFb": "0",
        "aSJp1i9m": "1",
        "0I4MtuDa": "0,-45,100"
    },
    {
        "P_UNIT_ID": "2002013",
        "0vzt3dFb": "0",
        "aSJp1i9m": "1",
        "0I4MtuDa": "0,-45,100"
    },
    {
        "P_UNIT_ID": "2002014",
        "0vzt3dFb": "0",
        "aSJp1i9m": "1",
        "0I4MtuDa": "0,-45,100"
    },
    {
        "P_UNIT_ID": "2002024",
        "0vzt3dFb": "0",
        "aSJp1i9m": "1",
        "0I4MtuDa": "0,-45,100"
    },
    {
        "P_UNIT_ID": "2002110",
        "0vzt3dFb": "0",
        "aSJp1i9m": "1",
        "0I4MtuDa": "0,-80,100"
    },
    {
        "P_UNIT_ID": "2002111",
        "0vzt3dFb": "0",
        "aSJp1i9m": "1",
        "0I4MtuDa": "0,-45,100"
    },
    {
        "P_UNIT_ID": "2002124",
        "0vzt3dFb": "0",
        "aSJp1i9m": "1",
        "0I4MtuDa": "0,-45,100"
    },
    {
        "P_UNIT_ID": "2002210",
        "0vzt3dFb": "0",
        "aSJp1i9m": "1",
        "0I4MtuDa": "0,-45,100"
    },
    {
        "P_UNIT_ID": "2002211",
        "0vzt3dFb": "0",
        "aSJp1i9m": "1",
        "0I4MtuDa": "0,-45,100"
    },
    {
        "P_UNIT_ID": "2002212",
        "0vzt3dFb": "0",
        "aSJp1i9m": "1",
        "0I4MtuDa": "0,-45,100"
    },
    {
        "P_UNIT_ID": "2002310",
        "0vzt3dFb": "0",
        "aSJp1i9m": "1",
        "0I4MtuDa": "0,-45,100"
    },
    {
        "P_UNIT_ID": "2002311",
        "0vzt3dFb": "0",
        "aSJp1i9m": "1",
        "0I4MtuDa": "0,-45,100"
    },
    {
        "P_UNIT_ID": "2002411",
        "0vzt3dFb": "0",
        "aSJp1i9m": "1",
        "0I4MtuDa": "0,-80,100"
    },
    {
        "P_UNIT_ID": "2002412",
        "0vzt3dFb": "0",
        "aSJp1i9m": "1",
        "0I4MtuDa": "0,-45,100"
    },
    {
        "P_UNIT_ID": "2002511",
        "0vzt3dFb": "0",
        "aSJp1i9m": "1",
        "0I4MtuDa": "0,-45,100"
    },
    {
        "P_UNIT_ID": "2002512",
        "0vzt3dFb": "0",
        "aSJp1i9m": "1",
        "0I4MtuDa": "0,-45,100"
    },
    {
        "P_UNIT_ID": "2002814",
        "0vzt3dFb": "0",
        "aSJp1i9m": "1",
        "0I4MtuDa": "0,-45,100"
    },
    {
        "P_UNIT_ID": "2002912",
        "0vzt3dFb": "0",
        "aSJp1i9m": "1",
        "0I4MtuDa": "0,-45,100"
    },
    {
        "P_UNIT_ID": "2002913",
        "0vzt3dFb": "0",
        "aSJp1i9m": "1",
        "0I4MtuDa": "0,-45,100"
    },
    {
        "P_UNIT_ID": "2002914",
        "0vzt3dFb": "0",
        "aSJp1i9m": "1",
        "0I4MtuDa": "0,-45,100"
    },
    {
        "P_UNIT_ID": "2003012",
        "0vzt3dFb": "0",
        "aSJp1i9m": "1",
        "0I4MtuDa": "0,-45,100"
    },
    {
        "P_UNIT_ID": "2003013",
        "0vzt3dFb": "0",
        "aSJp1i9m": "1",
        "0I4MtuDa": "0,-45,100"
    },
    {
        "P_UNIT_ID": "2003014",
        "0vzt3dFb": "0",
        "aSJp1i9m": "1",
        "0I4MtuDa": "0,-45,100"
    },
    {
        "P_UNIT_ID": "2101124",
        "0vzt3dFb": "0",
        "aSJp1i9m": "1",
        "0I4MtuDa": "0,-45,100"
    },
    {
        "P_UNIT_ID": "2102124",
        "0vzt3dFb": "0",
        "aSJp1i9m": "1",
        "0I4MtuDa": "0,-45,100"
    },
    {
        "P_UNIT_ID": "3000122",
        "0vzt3dFb": "0",
        "aSJp1i9m": "1",
        "0I4MtuDa": "0,-45,100"
    },
    {
        "P_UNIT_ID": "3000123",
        "0vzt3dFb": "0",
        "aSJp1i9m": "1",
        "0I4MtuDa": "0,-45,100"
    },
    {
        "P_UNIT_ID": "3000124",
        "0vzt3dFb": "0",
        "aSJp1i9m": "1",
        "0I4MtuDa": "0,-45,100"
    },
    {
        "P_UNIT_ID": "3000222",
        "0vzt3dFb": "0",
        "aSJp1i9m": "1",
        "0I4MtuDa": "0,-45,100"
    },
    {
        "P_UNIT_ID": "3000223",
        "0vzt3dFb": "0",
        "aSJp1i9m": "1",
        "0I4MtuDa": "0,-45,100"
    },
    {
        "P_UNIT_ID": "3000224",
        "0vzt3dFb": "0",
        "aSJp1i9m": "1",
        "0I4MtuDa": "0,-45,100"
    },
    {
        "P_UNIT_ID": "3000322",
        "0vzt3dFb": "0",
        "aSJp1i9m": "1",
        "0I4MtuDa": "0,-45,100"
    },
    {
        "P_UNIT_ID": "3000323",
        "0vzt3dFb": "0",
        "aSJp1i9m": "1",
        "0I4MtuDa": "0,-45,100"
    },
    {
        "P_UNIT_ID": "3000324",
        "0vzt3dFb": "0",
        "aSJp1i9m": "1",
        "0I4MtuDa": "0,-45,100"
    },
    {
        "P_UNIT_ID": "3000422",
        "0vzt3dFb": "0",
        "aSJp1i9m": "1",
        "0I4MtuDa": "0,-45,100"
    },
    {
        "P_UNIT_ID": "3000423",
        "0vzt3dFb": "0",
        "aSJp1i9m": "1",
        "0I4MtuDa": "0,-45,100"
    },
    {
        "P_UNIT_ID": "3000424",
        "0vzt3dFb": "0",
        "aSJp1i9m": "1",
        "0I4MtuDa": "0,-45,100"
    },
    {
        "P_UNIT_ID": "3000522",
        "0vzt3dFb": "0",
        "aSJp1i9m": "1",
        "0I4MtuDa": "0,-45,100"
    },
    {
        "P_UNIT_ID": "3000523",
        "0vzt3dFb": "0",
        "aSJp1i9m": "1",
        "0I4MtuDa": "0,-45,100"
    },
    {
        "P_UNIT_ID": "3000524",
        "0vzt3dFb": "0",
        "aSJp1i9m": "1",
        "0I4MtuDa": "0,-45,100"
    },
    {
        "P_UNIT_ID": "3000620",
        "0vzt3dFb": "0",
        "aSJp1i9m": "1",
        "0I4MtuDa": "0,-130,100"
    },
    {
        "P_UNIT_ID": "3000621",
        "0vzt3dFb": "0",
        "aSJp1i9m": "1",
        "0I4MtuDa": "0,-130,100"
    },
    {
        "P_UNIT_ID": "3000721",
        "0vzt3dFb": "0",
        "aSJp1i9m": "1",
        "0I4MtuDa": "0,-45,100"
    },
    {
        "P_UNIT_ID": "3000722",
        "0vzt3dFb": "0",
        "aSJp1i9m": "1",
        "0I4MtuDa": "0,-45,100"
    },
    {
        "P_UNIT_ID": "3000820",
        "0vzt3dFb": "0",
        "aSJp1i9m": "1",
        "0I4MtuDa": "0,-100,100"
    },
    {
        "P_UNIT_ID": "3000821",
        "0vzt3dFb": "0",
        "aSJp1i9m": "1",
        "0I4MtuDa": "50,-30,100"
    },
    {
        "P_UNIT_ID": "3000921",
        "0vzt3dFb": "0",
        "aSJp1i9m": "1",
        "0I4MtuDa": "0,-45,100"
    },
    {
        "P_UNIT_ID": "3000922",
        "0vzt3dFb": "0",
        "aSJp1i9m": "1",
        "0I4MtuDa": "0,-45,100"
    },
    {
        "P_UNIT_ID": "3001020",
        "0vzt3dFb": "0",
        "aSJp1i9m": "1",
        "0I4MtuDa": "0,-160,100"
    },
    {
        "P_UNIT_ID": "3001021",
        "0vzt3dFb": "0",
        "aSJp1i9m": "1",
        "0I4MtuDa": "0,-130,100"
    },
    {
        "P_UNIT_ID": "3001122",
        "0vzt3dFb": "0",
        "aSJp1i9m": "1",
        "0I4MtuDa": "0,-45,100"
    },
    {
        "P_UNIT_ID": "3001123",
        "0vzt3dFb": "0",
        "aSJp1i9m": "1",
        "0I4MtuDa": "0,-45,100"
    },
    {
        "P_UNIT_ID": "3001124",
        "0vzt3dFb": "0",
        "aSJp1i9m": "1",
        "0I4MtuDa": "0,-45,100"
    },
    {
        "P_UNIT_ID": "3001212",
        "0vzt3dFb": "0",
        "aSJp1i9m": "1",
        "0I4MtuDa": "0,-45,100"
    },
    {
        "P_UNIT_ID": "3001213",
        "0vzt3dFb": "0",
        "aSJp1i9m": "1",
        "0I4MtuDa": "0,-45,100"
    },
    {
        "P_UNIT_ID": "3001214",
        "0vzt3dFb": "0",
        "aSJp1i9m": "1",
        "0I4MtuDa": "0,-45,100"
    },
    {
        "P_UNIT_ID": "3001222",
        "0vzt3dFb": "0",
        "aSJp1i9m": "1",
        "0I4MtuDa": "0,-45,100"
    },
    {
        "P_UNIT_ID": "3001223",
        "0vzt3dFb": "0",
        "aSJp1i9m": "1",
        "0I4MtuDa": "0,-45,100"
    },
    {
        "P_UNIT_ID": "3001224",
        "0vzt3dFb": "0",
        "aSJp1i9m": "1",
        "0I4MtuDa": "0,-45,100"
    },
    {
        "P_UNIT_ID": "3001312",
        "0vzt3dFb": "0",
        "aSJp1i9m": "1",
        "0I4MtuDa": "0,-45,100"
    },
    {
        "P_UNIT_ID": "3001313",
        "0vzt3dFb": "0",
        "aSJp1i9m": "1",
        "0I4MtuDa": "0,-45,100"
    },
    {
        "P_UNIT_ID": "3001314",
        "0vzt3dFb": "0",
        "aSJp1i9m": "1",
        "0I4MtuDa": "0,-45,100"
    },
    {
        "P_UNIT_ID": "3001324",
        "0vzt3dFb": "0",
        "aSJp1i9m": "1",
        "0I4MtuDa": "0,-45,100"
    },
    {
        "P_UNIT_ID": "3001412",
        "0vzt3dFb": "0",
        "aSJp1i9m": "1",
        "0I4MtuDa": "0,-45,100"
    },
    {
        "P_UNIT_ID": "3001413",
        "0vzt3dFb": "0",
        "aSJp1i9m": "1",
        "0I4MtuDa": "0,-45,100"
    },
    {
        "P_UNIT_ID": "3001414",
        "0vzt3dFb": "0",
        "aSJp1i9m": "1",
        "0I4MtuDa": "0,-45,100"
    },
    {
        "P_UNIT_ID": "3001421",
        "0vzt3dFb": "0",
        "aSJp1i9m": "1",
        "0I4MtuDa": "0,-45,100"
    },
    {
        "P_UNIT_ID": "3001512",
        "0vzt3dFb": "0",
        "aSJp1i9m": "1",
        "0I4MtuDa": "0,50,100"
    },
    {
        "P_UNIT_ID": "3001513",
        "0vzt3dFb": "0",
        "aSJp1i9m": "1",
        "0I4MtuDa": "80,50,100"
    },
    {
        "P_UNIT_ID": "3001514",
        "0vzt3dFb": "0",
        "aSJp1i9m": "1",
        "0I4MtuDa": "0,-45,100"
    },
    {
        "P_UNIT_ID": "3001524",
        "0vzt3dFb": "0",
        "aSJp1i9m": "1",
        "0I4MtuDa": "0,-45,100"
    },
    {
        "P_UNIT_ID": "3001612",
        "0vzt3dFb": "0",
        "aSJp1i9m": "1",
        "0I4MtuDa": "0,-45,100"
    },
    {
        "P_UNIT_ID": "3001613",
        "0vzt3dFb": "0",
        "aSJp1i9m": "1",
        "0I4MtuDa": "0,-45,100"
    },
    {
        "P_UNIT_ID": "3001614",
        "0vzt3dFb": "0",
        "aSJp1i9m": "1",
        "0I4MtuDa": "0,-45,100"
    },
    {
        "P_UNIT_ID": "3001624",
        "0vzt3dFb": "0",
        "aSJp1i9m": "1",
        "0I4MtuDa": "0,-45,100"
    },
    {
        "P_UNIT_ID": "3001712",
        "0vzt3dFb": "0",
        "aSJp1i9m": "1",
        "0I4MtuDa": "0,-45,100"
    },
    {
        "P_UNIT_ID": "3001713",
        "0vzt3dFb": "0",
        "aSJp1i9m": "1",
        "0I4MtuDa": "0,-45,100"
    },
    {
        "P_UNIT_ID": "3001714",
        "0vzt3dFb": "0",
        "aSJp1i9m": "1",
        "0I4MtuDa": "0,-45,100"
    },
    {
        "P_UNIT_ID": "3001812",
        "0vzt3dFb": "0",
        "aSJp1i9m": "1",
        "0I4MtuDa": "0,-45,100"
    },
    {
        "P_UNIT_ID": "3001813",
        "0vzt3dFb": "0",
        "aSJp1i9m": "1",
        "0I4MtuDa": "0,-45,100"
    },
    {
        "P_UNIT_ID": "3001814",
        "0vzt3dFb": "0",
        "aSJp1i9m": "1",
        "0I4MtuDa": "0,-45,100"
    },
    {
        "P_UNIT_ID": "3001822",
        "0vzt3dFb": "0",
        "aSJp1i9m": "1",
        "0I4MtuDa": "0,-45,100"
    },
    {
        "P_UNIT_ID": "3001823",
        "0vzt3dFb": "0",
        "aSJp1i9m": "1",
        "0I4MtuDa": "0,-45,100"
    },
    {
        "P_UNIT_ID": "3001824",
        "0vzt3dFb": "0",
        "aSJp1i9m": "1",
        "0I4MtuDa": "0,-45,100"
    },
    {
        "P_UNIT_ID": "3001912",
        "0vzt3dFb": "0",
        "aSJp1i9m": "1",
        "0I4MtuDa": "50,-45,100"
    },
    {
        "P_UNIT_ID": "3001913",
        "0vzt3dFb": "0",
        "aSJp1i9m": "1",
        "0I4MtuDa": "50,-45,100"
    },
    {
        "P_UNIT_ID": "3001914",
        "0vzt3dFb": "0",
        "aSJp1i9m": "1",
        "0I4MtuDa": "100,-45,100"
    },
    {
        "P_UNIT_ID": "3001924",
        "0vzt3dFb": "0",
        "aSJp1i9m": "1",
        "0I4MtuDa": "0,-45,100"
    },
    {
        "P_UNIT_ID": "3002012",
        "0vzt3dFb": "0",
        "aSJp1i9m": "1",
        "0I4MtuDa": "0,-45,100"
    },
    {
        "P_UNIT_ID": "3002013",
        "0vzt3dFb": "0",
        "aSJp1i9m": "1",
        "0I4MtuDa": "0,-45,100"
    },
    {
        "P_UNIT_ID": "3002014",
        "0vzt3dFb": "0",
        "aSJp1i9m": "1",
        "0I4MtuDa": "0,-45,100"
    },
    {
        "P_UNIT_ID": "3002021",
        "0vzt3dFb": "0",
        "aSJp1i9m": "1",
        "0I4MtuDa": "0,-45,100"
    },
    {
        "P_UNIT_ID": "3002110",
        "0vzt3dFb": "0",
        "aSJp1i9m": "1",
        "0I4MtuDa": "0,-80,100"
    },
    {
        "P_UNIT_ID": "3002111",
        "0vzt3dFb": "0",
        "aSJp1i9m": "1",
        "0I4MtuDa": "0,-45,100"
    },
    {
        "P_UNIT_ID": "3002122",
        "0vzt3dFb": "0",
        "aSJp1i9m": "1",
        "0I4MtuDa": "0,-45,100"
    },
    {
        "P_UNIT_ID": "3002123",
        "0vzt3dFb": "0",
        "aSJp1i9m": "1",
        "0I4MtuDa": "0,-45,100"
    },
    {
        "P_UNIT_ID": "3002124",
        "0vzt3dFb": "0",
        "aSJp1i9m": "1",
        "0I4MtuDa": "0,-45,100"
    },
    {
        "P_UNIT_ID": "3002210",
        "0vzt3dFb": "0",
        "aSJp1i9m": "1",
        "0I4MtuDa": "0,-45,100"
    },
    {
        "P_UNIT_ID": "3002211",
        "0vzt3dFb": "0",
        "aSJp1i9m": "1",
        "0I4MtuDa": "0,-45,100"
    },
    {
        "P_UNIT_ID": "3002212",
        "0vzt3dFb": "0",
        "aSJp1i9m": "1",
        "0I4MtuDa": "0,-45,100"
    },
    {
        "P_UNIT_ID": "3002224",
        "0vzt3dFb": "0",
        "aSJp1i9m": "1",
        "0I4MtuDa": "0,-45,100"
    },
    {
        "P_UNIT_ID": "3002310",
        "0vzt3dFb": "0",
        "aSJp1i9m": "1",
        "0I4MtuDa": "0,-100,100"
    },
    {
        "P_UNIT_ID": "3002311",
        "0vzt3dFb": "0",
        "aSJp1i9m": "1",
        "0I4MtuDa": "0,-45,100"
    },
    {
        "P_UNIT_ID": "3002411",
        "0vzt3dFb": "0",
        "aSJp1i9m": "1",
        "0I4MtuDa": "0,-45,100"
    },
    {
        "P_UNIT_ID": "3002412",
        "0vzt3dFb": "0",
        "aSJp1i9m": "1",
        "0I4MtuDa": "0,-45,100"
    },
    {
        "P_UNIT_ID": "3002511",
        "0vzt3dFb": "0",
        "aSJp1i9m": "1",
        "0I4MtuDa": "0,-45,100"
    },
    {
        "P_UNIT_ID": "3002512",
        "0vzt3dFb": "0",
        "aSJp1i9m": "1",
        "0I4MtuDa": "0,-45,100"
    },
    {
        "P_UNIT_ID": "3002814",
        "0vzt3dFb": "0",
        "aSJp1i9m": "1",
        "0I4MtuDa": "0,-45,100"
    },
    {
        "P_UNIT_ID": "3002912",
        "0vzt3dFb": "0",
        "aSJp1i9m": "1",
        "0I4MtuDa": "0,-45,100"
    },
    {
        "P_UNIT_ID": "3002913",
        "0vzt3dFb": "0",
        "aSJp1i9m": "1",
        "0I4MtuDa": "0,-45,100"
    },
    {
        "P_UNIT_ID": "3002914",
        "0vzt3dFb": "0",
        "aSJp1i9m": "1",
        "0I4MtuDa": "0,-45,100"
    },
    {
        "P_UNIT_ID": "3003012",
        "0vzt3dFb": "0",
        "aSJp1i9m": "1",
        "0I4MtuDa": "0,-45,100"
    },
    {
        "P_UNIT_ID": "3003013",
        "0vzt3dFb": "0",
        "aSJp1i9m": "1",
        "0I4MtuDa": "0,-45,100"
    },
    {
        "P_UNIT_ID": "3003014",
        "0vzt3dFb": "0",
        "aSJp1i9m": "1",
        "0I4MtuDa": "0,-45,100"
    },
    {
        "P_UNIT_ID": "3003112",
        "0vzt3dFb": "0",
        "aSJp1i9m": "1",
        "0I4MtuDa": "0,-45,100"
    },
    {
        "P_UNIT_ID": "3003113",
        "0vzt3dFb": "0",
        "aSJp1i9m": "1",
        "0I4MtuDa": "0,-45,100"
    },
    {
        "P_UNIT_ID": "3003114",
        "0vzt3dFb": "0",
        "aSJp1i9m": "1",
        "0I4MtuDa": "0,-45,100"
    },
    {
        "P_UNIT_ID": "4000122",
        "0vzt3dFb": "0",
        "aSJp1i9m": "1",
        "0I4MtuDa": "0,-45,100"
    },
    {
        "P_UNIT_ID": "4000123",
        "0vzt3dFb": "0",
        "aSJp1i9m": "1",
        "0I4MtuDa": "0,-45,100"
    },
    {
        "P_UNIT_ID": "4000124",
        "0vzt3dFb": "0",
        "aSJp1i9m": "1",
        "0I4MtuDa": "0,-45,100"
    },
    {
        "P_UNIT_ID": "4000222",
        "0vzt3dFb": "0",
        "aSJp1i9m": "1",
        "0I4MtuDa": "0,-45,100"
    },
    {
        "P_UNIT_ID": "4000223",
        "0vzt3dFb": "0",
        "aSJp1i9m": "1",
        "0I4MtuDa": "0,-45,100"
    },
    {
        "P_UNIT_ID": "4000224",
        "0vzt3dFb": "0",
        "aSJp1i9m": "1",
        "0I4MtuDa": "0,-45,100"
    },
    {
        "P_UNIT_ID": "4000322",
        "0vzt3dFb": "0",
        "aSJp1i9m": "1",
        "0I4MtuDa": "0,-45,100"
    },
    {
        "P_UNIT_ID": "4000323",
        "0vzt3dFb": "0",
        "aSJp1i9m": "1",
        "0I4MtuDa": "0,-45,100"
    },
    {
        "P_UNIT_ID": "4000324",
        "0vzt3dFb": "0",
        "aSJp1i9m": "1",
        "0I4MtuDa": "0,-45,100"
    },
    {
        "P_UNIT_ID": "4000422",
        "0vzt3dFb": "0",
        "aSJp1i9m": "1",
        "0I4MtuDa": "0,-45,100"
    },
    {
        "P_UNIT_ID": "4000423",
        "0vzt3dFb": "0",
        "aSJp1i9m": "1",
        "0I4MtuDa": "0,-45,100"
    },
    {
        "P_UNIT_ID": "4000424",
        "0vzt3dFb": "0",
        "aSJp1i9m": "1",
        "0I4MtuDa": "0,-45,100"
    },
    {
        "P_UNIT_ID": "4000522",
        "0vzt3dFb": "0",
        "aSJp1i9m": "1",
        "0I4MtuDa": "0,-45,100"
    },
    {
        "P_UNIT_ID": "4000523",
        "0vzt3dFb": "0",
        "aSJp1i9m": "1",
        "0I4MtuDa": "0,-45,100"
    },
    {
        "P_UNIT_ID": "4000524",
        "0vzt3dFb": "0",
        "aSJp1i9m": "1",
        "0I4MtuDa": "0,-45,100"
    },
    {
        "P_UNIT_ID": "4000620",
        "0vzt3dFb": "0",
        "aSJp1i9m": "1",
        "0I4MtuDa": "0,-45,100"
    },
    {
        "P_UNIT_ID": "4000621",
        "0vzt3dFb": "0",
        "aSJp1i9m": "1",
        "0I4MtuDa": "0,-45,100"
    },
    {
        "P_UNIT_ID": "4000721",
        "0vzt3dFb": "0",
        "aSJp1i9m": "1",
        "0I4MtuDa": "0,-45,100"
    },
    {
        "P_UNIT_ID": "4000722",
        "0vzt3dFb": "0",
        "aSJp1i9m": "1",
        "0I4MtuDa": "0,-45,100"
    },
    {
        "P_UNIT_ID": "4000820",
        "0vzt3dFb": "0",
        "aSJp1i9m": "1",
        "0I4MtuDa": "0,-45,100"
    },
    {
        "P_UNIT_ID": "4000821",
        "0vzt3dFb": "0",
        "aSJp1i9m": "1",
        "0I4MtuDa": "0,-45,100"
    },
    {
        "P_UNIT_ID": "4000921",
        "0vzt3dFb": "0",
        "aSJp1i9m": "1",
        "0I4MtuDa": "0,-45,100"
    },
    {
        "P_UNIT_ID": "4000922",
        "0vzt3dFb": "0",
        "aSJp1i9m": "1",
        "0I4MtuDa": "0,-45,100"
    },
    {
        "P_UNIT_ID": "4001020",
        "0vzt3dFb": "0",
        "aSJp1i9m": "1",
        "0I4MtuDa": "0,-45,100"
    },
    {
        "P_UNIT_ID": "4001021",
        "0vzt3dFb": "0",
        "aSJp1i9m": "1",
        "0I4MtuDa": "0,-45,100"
    },
    {
        "P_UNIT_ID": "4001124",
        "0vzt3dFb": "0",
        "aSJp1i9m": "1",
        "0I4MtuDa": "0,-45,100"
    },
    {
        "P_UNIT_ID": "4001212",
        "0vzt3dFb": "0",
        "aSJp1i9m": "1",
        "0I4MtuDa": "0,-45,100"
    },
    {
        "P_UNIT_ID": "4001213",
        "0vzt3dFb": "0",
        "aSJp1i9m": "1",
        "0I4MtuDa": "0,-45,100"
    },
    {
        "P_UNIT_ID": "4001214",
        "0vzt3dFb": "0",
        "aSJp1i9m": "1",
        "0I4MtuDa": "0,-45,100"
    },
    {
        "P_UNIT_ID": "4001222",
        "0vzt3dFb": "0",
        "aSJp1i9m": "1",
        "0I4MtuDa": "0,-45,100"
    },
    {
        "P_UNIT_ID": "4001223",
        "0vzt3dFb": "0",
        "aSJp1i9m": "1",
        "0I4MtuDa": "0,-45,100"
    },
    {
        "P_UNIT_ID": "4001224",
        "0vzt3dFb": "0",
        "aSJp1i9m": "1",
        "0I4MtuDa": "0,-45,100"
    },
    {
        "P_UNIT_ID": "4001312",
        "0vzt3dFb": "0",
        "aSJp1i9m": "1",
        "0I4MtuDa": "0,-45,100"
    },
    {
        "P_UNIT_ID": "4001313",
        "0vzt3dFb": "0",
        "aSJp1i9m": "1",
        "0I4MtuDa": "0,-45,100"
    },
    {
        "P_UNIT_ID": "4001314",
        "0vzt3dFb": "0",
        "aSJp1i9m": "1",
        "0I4MtuDa": "0,-45,100"
    },
    {
        "P_UNIT_ID": "4001321",
        "0vzt3dFb": "0",
        "aSJp1i9m": "1",
        "0I4MtuDa": "0,-45,100"
    },
    {
        "P_UNIT_ID": "4001412",
        "0vzt3dFb": "0",
        "aSJp1i9m": "1",
        "0I4MtuDa": "0,-45,100"
    },
    {
        "P_UNIT_ID": "4001413",
        "0vzt3dFb": "0",
        "aSJp1i9m": "1",
        "0I4MtuDa": "0,-45,100"
    },
    {
        "P_UNIT_ID": "4001414",
        "0vzt3dFb": "0",
        "aSJp1i9m": "1",
        "0I4MtuDa": "0,-45,100"
    },
    {
        "P_UNIT_ID": "4001421",
        "0vzt3dFb": "0",
        "aSJp1i9m": "1",
        "0I4MtuDa": "0,-45,100"
    },
    {
        "P_UNIT_ID": "4001512",
        "0vzt3dFb": "0",
        "aSJp1i9m": "1",
        "0I4MtuDa": "0,-45,100"
    },
    {
        "P_UNIT_ID": "4001513",
        "0vzt3dFb": "0",
        "aSJp1i9m": "1",
        "0I4MtuDa": "0,-45,100"
    },
    {
        "P_UNIT_ID": "4001514",
        "0vzt3dFb": "0",
        "aSJp1i9m": "1",
        "0I4MtuDa": "0,-45,100"
    },
    {
        "P_UNIT_ID": "4001522",
        "0vzt3dFb": "0",
        "aSJp1i9m": "1",
        "0I4MtuDa": "0,-45,100"
    },
    {
        "P_UNIT_ID": "4001612",
        "0vzt3dFb": "0",
        "aSJp1i9m": "1",
        "0I4MtuDa": "0,-45,100"
    },
    {
        "P_UNIT_ID": "4001613",
        "0vzt3dFb": "0",
        "aSJp1i9m": "1",
        "0I4MtuDa": "0,-45,100"
    },
    {
        "P_UNIT_ID": "4001614",
        "0vzt3dFb": "0",
        "aSJp1i9m": "1",
        "0I4MtuDa": "0,-45,100"
    },
    {
        "P_UNIT_ID": "4001621",
        "0vzt3dFb": "0",
        "aSJp1i9m": "1",
        "0I4MtuDa": "0,-45,100"
    },
    {
        "P_UNIT_ID": "4001712",
        "0vzt3dFb": "0",
        "aSJp1i9m": "1",
        "0I4MtuDa": "0,-45,100"
    },
    {
        "P_UNIT_ID": "4001713",
        "0vzt3dFb": "0",
        "aSJp1i9m": "1",
        "0I4MtuDa": "0,-45,100"
    },
    {
        "P_UNIT_ID": "4001714",
        "0vzt3dFb": "0",
        "aSJp1i9m": "1",
        "0I4MtuDa": "0,-45,100"
    },
    {
        "P_UNIT_ID": "4001722",
        "0vzt3dFb": "0",
        "aSJp1i9m": "1",
        "0I4MtuDa": "0,-45,100"
    },
    {
        "P_UNIT_ID": "4001723",
        "0vzt3dFb": "0",
        "aSJp1i9m": "1",
        "0I4MtuDa": "0,-45,100"
    },
    {
        "P_UNIT_ID": "4001724",
        "0vzt3dFb": "0",
        "aSJp1i9m": "1",
        "0I4MtuDa": "0,-45,100"
    },
    {
        "P_UNIT_ID": "4001812",
        "0vzt3dFb": "0",
        "aSJp1i9m": "1",
        "0I4MtuDa": "0,-45,100"
    },
    {
        "P_UNIT_ID": "4001813",
        "0vzt3dFb": "0",
        "aSJp1i9m": "1",
        "0I4MtuDa": "0,-45,100"
    },
    {
        "P_UNIT_ID": "4001814",
        "0vzt3dFb": "0",
        "aSJp1i9m": "1",
        "0I4MtuDa": "0,-45,100"
    },
    {
        "P_UNIT_ID": "4001824",
        "0vzt3dFb": "0",
        "aSJp1i9m": "1",
        "0I4MtuDa": "0,-45,100"
    },
    {
        "P_UNIT_ID": "4001912",
        "0vzt3dFb": "0",
        "aSJp1i9m": "1",
        "0I4MtuDa": "0,-45,100"
    },
    {
        "P_UNIT_ID": "4001913",
        "0vzt3dFb": "0",
        "aSJp1i9m": "1",
        "0I4MtuDa": "0,-45,100"
    },
    {
        "P_UNIT_ID": "4001914",
        "0vzt3dFb": "0",
        "aSJp1i9m": "1",
        "0I4MtuDa": "0,-45,100"
    },
    {
        "P_UNIT_ID": "4001922",
        "0vzt3dFb": "0",
        "aSJp1i9m": "1",
        "0I4MtuDa": "0,-45,100"
    },
    {
        "P_UNIT_ID": "4001923",
        "0vzt3dFb": "0",
        "aSJp1i9m": "1",
        "0I4MtuDa": "0,-45,100"
    },
    {
        "P_UNIT_ID": "4001924",
        "0vzt3dFb": "0",
        "aSJp1i9m": "1",
        "0I4MtuDa": "0,-45,100"
    },
    {
        "P_UNIT_ID": "4002012",
        "0vzt3dFb": "0",
        "aSJp1i9m": "1",
        "0I4MtuDa": "0,-45,100"
    },
    {
        "P_UNIT_ID": "4002013",
        "0vzt3dFb": "0",
        "aSJp1i9m": "1",
        "0I4MtuDa": "0,-45,100"
    },
    {
        "P_UNIT_ID": "4002014",
        "0vzt3dFb": "0",
        "aSJp1i9m": "1",
        "0I4MtuDa": "0,-45,100"
    },
    {
        "P_UNIT_ID": "4002024",
        "0vzt3dFb": "0",
        "aSJp1i9m": "1",
        "0I4MtuDa": "0,-45,100"
    },
    {
        "P_UNIT_ID": "4002110",
        "0vzt3dFb": "0",
        "aSJp1i9m": "1",
        "0I4MtuDa": "0,-80,100"
    },
    {
        "P_UNIT_ID": "4002111",
        "0vzt3dFb": "0",
        "aSJp1i9m": "1",
        "0I4MtuDa": "0,-45,100"
    },
    {
        "P_UNIT_ID": "4002121",
        "0vzt3dFb": "0",
        "aSJp1i9m": "1",
        "0I4MtuDa": "0,-45,100"
    },
    {
        "P_UNIT_ID": "4002210",
        "0vzt3dFb": "0",
        "aSJp1i9m": "1",
        "0I4MtuDa": "0,-45,100"
    },
    {
        "P_UNIT_ID": "4002211",
        "0vzt3dFb": "0",
        "aSJp1i9m": "1",
        "0I4MtuDa": "0,-45,100"
    },
    {
        "P_UNIT_ID": "4002212",
        "0vzt3dFb": "0",
        "aSJp1i9m": "1",
        "0I4MtuDa": "0,-45,100"
    },
    {
        "P_UNIT_ID": "4002222",
        "0vzt3dFb": "0",
        "aSJp1i9m": "1",
        "0I4MtuDa": "0,-45,100"
    },
    {
        "P_UNIT_ID": "4002223",
        "0vzt3dFb": "0",
        "aSJp1i9m": "1",
        "0I4MtuDa": "0,-45,100"
    },
    {
        "P_UNIT_ID": "4002224",
        "0vzt3dFb": "0",
        "aSJp1i9m": "1",
        "0I4MtuDa": "0,-45,100"
    },
    {
        "P_UNIT_ID": "4002310",
        "0vzt3dFb": "0",
        "aSJp1i9m": "1",
        "0I4MtuDa": "0,-45,100"
    },
    {
        "P_UNIT_ID": "4002311",
        "0vzt3dFb": "0",
        "aSJp1i9m": "1",
        "0I4MtuDa": "0,-45,100"
    },
    {
        "P_UNIT_ID": "4002324",
        "0vzt3dFb": "0",
        "aSJp1i9m": "1",
        "0I4MtuDa": "0,-70,100"
    },
    {
        "P_UNIT_ID": "4002411",
        "0vzt3dFb": "0",
        "aSJp1i9m": "1",
        "0I4MtuDa": "0,-45,100"
    },
    {
        "P_UNIT_ID": "4002412",
        "0vzt3dFb": "0",
        "aSJp1i9m": "1",
        "0I4MtuDa": "0,-45,100"
    },
    {
        "P_UNIT_ID": "4002714",
        "0vzt3dFb": "0",
        "aSJp1i9m": "1",
        "0I4MtuDa": "0,-45,100"
    },
    {
        "P_UNIT_ID": "4002812",
        "0vzt3dFb": "0",
        "aSJp1i9m": "1",
        "0I4MtuDa": "0,-45,100"
    },
    {
        "P_UNIT_ID": "4002813",
        "0vzt3dFb": "0",
        "aSJp1i9m": "1",
        "0I4MtuDa": "0,-45,100"
    },
    {
        "P_UNIT_ID": "4002814",
        "0vzt3dFb": "0",
        "aSJp1i9m": "1",
        "0I4MtuDa": "0,-45,100"
    },
    {
        "P_UNIT_ID": "4002912",
        "0vzt3dFb": "0",
        "aSJp1i9m": "1",
        "0I4MtuDa": "0,-45,100"
    },
    {
        "P_UNIT_ID": "4002913",
        "0vzt3dFb": "0",
        "aSJp1i9m": "1",
        "0I4MtuDa": "0,-45,100"
    },
    {
        "P_UNIT_ID": "4002914",
        "0vzt3dFb": "0",
        "aSJp1i9m": "1",
        "0I4MtuDa": "0,-45,100"
    },
    {
        "P_UNIT_ID": "4003012",
        "0vzt3dFb": "0",
        "aSJp1i9m": "1",
        "0I4MtuDa": "0,-45,100"
    },
    {
        "P_UNIT_ID": "4003013",
        "0vzt3dFb": "0",
        "aSJp1i9m": "1",
        "0I4MtuDa": "0,-45,100"
    },
    {
        "P_UNIT_ID": "4003014",
        "0vzt3dFb": "0",
        "aSJp1i9m": "1",
        "0I4MtuDa": "0,-45,100"
    },
    {
        "P_UNIT_ID": "4102024",
        "0vzt3dFb": "0",
        "aSJp1i9m": "1",
        "0I4MtuDa": "0,-45,100"
    },
    {
        "P_UNIT_ID": "4103014",
        "0vzt3dFb": "0",
        "aSJp1i9m": "1",
        "0I4MtuDa": "0,-45,100"
    },
    {
        "P_UNIT_ID": "5000122",
        "0vzt3dFb": "0",
        "aSJp1i9m": "1",
        "0I4MtuDa": "0,-45,100"
    },
    {
        "P_UNIT_ID": "5000123",
        "0vzt3dFb": "0",
        "aSJp1i9m": "1",
        "0I4MtuDa": "0,-45,100"
    },
    {
        "P_UNIT_ID": "5000124",
        "0vzt3dFb": "0",
        "aSJp1i9m": "1",
        "0I4MtuDa": "0,-45,100"
    },
    {
        "P_UNIT_ID": "5000222",
        "0vzt3dFb": "0",
        "aSJp1i9m": "1",
        "0I4MtuDa": "0,-45,100"
    },
    {
        "P_UNIT_ID": "5000223",
        "0vzt3dFb": "0",
        "aSJp1i9m": "1",
        "0I4MtuDa": "0,-45,100"
    },
    {
        "P_UNIT_ID": "5000224",
        "0vzt3dFb": "0",
        "aSJp1i9m": "1",
        "0I4MtuDa": "0,-45,100"
    },
    {
        "P_UNIT_ID": "5000322",
        "0vzt3dFb": "0",
        "aSJp1i9m": "1",
        "0I4MtuDa": "0,-80,100"
    },
    {
        "P_UNIT_ID": "5000323",
        "0vzt3dFb": "0",
        "aSJp1i9m": "1",
        "0I4MtuDa": "0,-80,100"
    },
    {
        "P_UNIT_ID": "5000324",
        "0vzt3dFb": "0",
        "aSJp1i9m": "1",
        "0I4MtuDa": "0,-80,100"
    },
    {
        "P_UNIT_ID": "5000422",
        "0vzt3dFb": "0",
        "aSJp1i9m": "1",
        "0I4MtuDa": "0,-45,100"
    },
    {
        "P_UNIT_ID": "5000423",
        "0vzt3dFb": "0",
        "aSJp1i9m": "1",
        "0I4MtuDa": "0,-45,100"
    },
    {
        "P_UNIT_ID": "5000424",
        "0vzt3dFb": "0",
        "aSJp1i9m": "1",
        "0I4MtuDa": "0,-45,100"
    },
    {
        "P_UNIT_ID": "5000522",
        "0vzt3dFb": "0",
        "aSJp1i9m": "1",
        "0I4MtuDa": "0,-45,100"
    },
    {
        "P_UNIT_ID": "5000523",
        "0vzt3dFb": "0",
        "aSJp1i9m": "1",
        "0I4MtuDa": "0,-45,100"
    },
    {
        "P_UNIT_ID": "5000524",
        "0vzt3dFb": "0",
        "aSJp1i9m": "1",
        "0I4MtuDa": "0,-45,100"
    },
    {
        "P_UNIT_ID": "5000620",
        "0vzt3dFb": "0",
        "aSJp1i9m": "1",
        "0I4MtuDa": "0,-45,100"
    },
    {
        "P_UNIT_ID": "5000621",
        "0vzt3dFb": "0",
        "aSJp1i9m": "1",
        "0I4MtuDa": "0,-45,100"
    },
    {
        "P_UNIT_ID": "5000721",
        "0vzt3dFb": "0",
        "aSJp1i9m": "1",
        "0I4MtuDa": "0,-45,100"
    },
    {
        "P_UNIT_ID": "5000722",
        "0vzt3dFb": "0",
        "aSJp1i9m": "1",
        "0I4MtuDa": "0,-45,100"
    },
    {
        "P_UNIT_ID": "5000821",
        "0vzt3dFb": "0",
        "aSJp1i9m": "1",
        "0I4MtuDa": "0,-45,100"
    },
    {
        "P_UNIT_ID": "5000822",
        "0vzt3dFb": "0",
        "aSJp1i9m": "1",
        "0I4MtuDa": "0,-45,100"
    },
    {
        "P_UNIT_ID": "5000920",
        "0vzt3dFb": "0",
        "aSJp1i9m": "1",
        "0I4MtuDa": "0,-45,100"
    },
    {
        "P_UNIT_ID": "5000921",
        "0vzt3dFb": "0",
        "aSJp1i9m": "1",
        "0I4MtuDa": "0,-45,100"
    },
    {
        "P_UNIT_ID": "5001021",
        "0vzt3dFb": "0",
        "aSJp1i9m": "1",
        "0I4MtuDa": "0,-45,100"
    },
    {
        "P_UNIT_ID": "5001022",
        "0vzt3dFb": "0",
        "aSJp1i9m": "1",
        "0I4MtuDa": "0,-45,100"
    },
    {
        "P_UNIT_ID": "5001124",
        "0vzt3dFb": "0",
        "aSJp1i9m": "1",
        "0I4MtuDa": "0,-45,100"
    },
    {
        "P_UNIT_ID": "5001222",
        "0vzt3dFb": "0",
        "aSJp1i9m": "1",
        "0I4MtuDa": "0,-45,100"
    },
    {
        "P_UNIT_ID": "5001223",
        "0vzt3dFb": "0",
        "aSJp1i9m": "1",
        "0I4MtuDa": "0,-45,100"
    },
    {
        "P_UNIT_ID": "5001224",
        "0vzt3dFb": "0",
        "aSJp1i9m": "1",
        "0I4MtuDa": "0,-45,100"
    },
    {
        "P_UNIT_ID": "5001312",
        "0vzt3dFb": "0",
        "aSJp1i9m": "1",
        "0I4MtuDa": "0,-45,100"
    },
    {
        "P_UNIT_ID": "5001313",
        "0vzt3dFb": "0",
        "aSJp1i9m": "1",
        "0I4MtuDa": "0,-45,100"
    },
    {
        "P_UNIT_ID": "5001314",
        "0vzt3dFb": "0",
        "aSJp1i9m": "1",
        "0I4MtuDa": "0,-45,100"
    },
    {
        "P_UNIT_ID": "5001321",
        "0vzt3dFb": "0",
        "aSJp1i9m": "1",
        "0I4MtuDa": "0,-45,100"
    },
    {
        "P_UNIT_ID": "5001412",
        "0vzt3dFb": "0",
        "aSJp1i9m": "1",
        "0I4MtuDa": "0,-45,100"
    },
    {
        "P_UNIT_ID": "5001413",
        "0vzt3dFb": "0",
        "aSJp1i9m": "1",
        "0I4MtuDa": "0,-45,100"
    },
    {
        "P_UNIT_ID": "5001414",
        "0vzt3dFb": "0",
        "aSJp1i9m": "1",
        "0I4MtuDa": "0,-45,100"
    },
    {
        "P_UNIT_ID": "5001420",
        "0vzt3dFb": "0",
        "aSJp1i9m": "1",
        "0I4MtuDa": "60,-120,100"
    },
    {
        "P_UNIT_ID": "5001421",
        "0vzt3dFb": "0",
        "aSJp1i9m": "1",
        "0I4MtuDa": "0,-45,100"
    },
    {
        "P_UNIT_ID": "5001422",
        "0vzt3dFb": "0",
        "aSJp1i9m": "1",
        "0I4MtuDa": "0,-45,100"
    },
    {
        "P_UNIT_ID": "5001512",
        "0vzt3dFb": "0",
        "aSJp1i9m": "1",
        "0I4MtuDa": "0,-45,100"
    },
    {
        "P_UNIT_ID": "5001513",
        "0vzt3dFb": "0",
        "aSJp1i9m": "1",
        "0I4MtuDa": "0,-45,100"
    },
    {
        "P_UNIT_ID": "5001514",
        "0vzt3dFb": "0",
        "aSJp1i9m": "1",
        "0I4MtuDa": "0,-45,100"
    },
    {
        "P_UNIT_ID": "5001522",
        "0vzt3dFb": "0",
        "aSJp1i9m": "1",
        "0I4MtuDa": "0,-45,100"
    },
    {
        "P_UNIT_ID": "5001523",
        "0vzt3dFb": "0",
        "aSJp1i9m": "1",
        "0I4MtuDa": "0,-45,100"
    },
    {
        "P_UNIT_ID": "5001524",
        "0vzt3dFb": "0",
        "aSJp1i9m": "1",
        "0I4MtuDa": "0,-45,100"
    },
    {
        "P_UNIT_ID": "5001612",
        "0vzt3dFb": "0",
        "aSJp1i9m": "1",
        "0I4MtuDa": "0,-45,100"
    },
    {
        "P_UNIT_ID": "5001613",
        "0vzt3dFb": "0",
        "aSJp1i9m": "1",
        "0I4MtuDa": "0,-45,100"
    },
    {
        "P_UNIT_ID": "5001614",
        "0vzt3dFb": "0",
        "aSJp1i9m": "1",
        "0I4MtuDa": "0,-45,100"
    },
    {
        "P_UNIT_ID": "5001624",
        "0vzt3dFb": "0",
        "aSJp1i9m": "1",
        "0I4MtuDa": "0,-45,100"
    },
    {
        "P_UNIT_ID": "5001712",
        "0vzt3dFb": "0",
        "aSJp1i9m": "1",
        "0I4MtuDa": "0,-45,100"
    },
    {
        "P_UNIT_ID": "5001713",
        "0vzt3dFb": "0",
        "aSJp1i9m": "1",
        "0I4MtuDa": "0,-45,100"
    },
    {
        "P_UNIT_ID": "5001714",
        "0vzt3dFb": "0",
        "aSJp1i9m": "1",
        "0I4MtuDa": "0,-45,100"
    },
    {
        "P_UNIT_ID": "5001724",
        "0vzt3dFb": "0",
        "aSJp1i9m": "1",
        "0I4MtuDa": "0,-45,100"
    },
    {
        "P_UNIT_ID": "5001812",
        "0vzt3dFb": "0",
        "aSJp1i9m": "1",
        "0I4MtuDa": "0,-45,100"
    },
    {
        "P_UNIT_ID": "5001813",
        "0vzt3dFb": "0",
        "aSJp1i9m": "1",
        "0I4MtuDa": "0,-45,100"
    },
    {
        "P_UNIT_ID": "5001814",
        "0vzt3dFb": "0",
        "aSJp1i9m": "1",
        "0I4MtuDa": "0,-45,100"
    },
    {
        "P_UNIT_ID": "5001821",
        "0vzt3dFb": "0",
        "aSJp1i9m": "1",
        "0I4MtuDa": "0,-45,100"
    },
    {
        "P_UNIT_ID": "5001912",
        "0vzt3dFb": "0",
        "aSJp1i9m": "1",
        "0I4MtuDa": "0,-45,100"
    },
    {
        "P_UNIT_ID": "5001913",
        "0vzt3dFb": "0",
        "aSJp1i9m": "1",
        "0I4MtuDa": "0,-45,100"
    },
    {
        "P_UNIT_ID": "5001914",
        "0vzt3dFb": "0",
        "aSJp1i9m": "1",
        "0I4MtuDa": "0,-45,100"
    },
    {
        "P_UNIT_ID": "5001922",
        "0vzt3dFb": "0",
        "aSJp1i9m": "1",
        "0I4MtuDa": "0,-45,100"
    },
    {
        "P_UNIT_ID": "5001923",
        "0vzt3dFb": "0",
        "aSJp1i9m": "1",
        "0I4MtuDa": "0,-45,100"
    },
    {
        "P_UNIT_ID": "5001924",
        "0vzt3dFb": "0",
        "aSJp1i9m": "1",
        "0I4MtuDa": "0,-45,100"
    },
    {
        "P_UNIT_ID": "5002012",
        "0vzt3dFb": "0",
        "aSJp1i9m": "1",
        "0I4MtuDa": "0,-45,100"
    },
    {
        "P_UNIT_ID": "5002013",
        "0vzt3dFb": "0",
        "aSJp1i9m": "1",
        "0I4MtuDa": "0,-45,100"
    },
    {
        "P_UNIT_ID": "5002014",
        "0vzt3dFb": "0",
        "aSJp1i9m": "1",
        "0I4MtuDa": "0,-45,100"
    },
    {
        "P_UNIT_ID": "5002020",
        "0vzt3dFb": "0",
        "aSJp1i9m": "1",
        "0I4MtuDa": "0,-45,100"
    },
    {
        "P_UNIT_ID": "5002112",
        "0vzt3dFb": "0",
        "aSJp1i9m": "1",
        "0I4MtuDa": "0,-45,100"
    },
    {
        "P_UNIT_ID": "5002113",
        "0vzt3dFb": "0",
        "aSJp1i9m": "1",
        "0I4MtuDa": "0,-45,100"
    },
    {
        "P_UNIT_ID": "5002114",
        "0vzt3dFb": "0",
        "aSJp1i9m": "1",
        "0I4MtuDa": "0,-45,100"
    },
    {
        "P_UNIT_ID": "5002124",
        "0vzt3dFb": "0",
        "aSJp1i9m": "1",
        "0I4MtuDa": "0,-45,100"
    },
    {
        "P_UNIT_ID": "5002210",
        "0vzt3dFb": "0",
        "aSJp1i9m": "1",
        "0I4MtuDa": "0,-80,100"
    },
    {
        "P_UNIT_ID": "5002211",
        "0vzt3dFb": "0",
        "aSJp1i9m": "1",
        "0I4MtuDa": "0,-45,100"
    },
    {
        "P_UNIT_ID": "5002224",
        "0vzt3dFb": "0",
        "aSJp1i9m": "1",
        "0I4MtuDa": "0,-45,100"
    },
    {
        "P_UNIT_ID": "5002310",
        "0vzt3dFb": "0",
        "aSJp1i9m": "1",
        "0I4MtuDa": "0,-45,100"
    },
    {
        "P_UNIT_ID": "5002311",
        "0vzt3dFb": "0",
        "aSJp1i9m": "1",
        "0I4MtuDa": "0,-45,100"
    },
    {
        "P_UNIT_ID": "5002312",
        "0vzt3dFb": "0",
        "aSJp1i9m": "1",
        "0I4MtuDa": "0,-45,100"
    },
    {
        "P_UNIT_ID": "5002324",
        "0vzt3dFb": "0",
        "aSJp1i9m": "1",
        "0I4MtuDa": "0,-45,100"
    },
    {
        "P_UNIT_ID": "5002410",
        "0vzt3dFb": "0",
        "aSJp1i9m": "1",
        "0I4MtuDa": "0,-45,100"
    },
    {
        "P_UNIT_ID": "5002411",
        "0vzt3dFb": "0",
        "aSJp1i9m": "1",
        "0I4MtuDa": "0,-45,100"
    },
    {
        "P_UNIT_ID": "5002424",
        "0vzt3dFb": "0",
        "aSJp1i9m": "1",
        "0I4MtuDa": "0,-45,100"
    },
    {
        "P_UNIT_ID": "5002511",
        "0vzt3dFb": "0",
        "aSJp1i9m": "1",
        "0I4MtuDa": "0,-45,100"
    },
    {
        "P_UNIT_ID": "5002512",
        "0vzt3dFb": "0",
        "aSJp1i9m": "1",
        "0I4MtuDa": "0,-45,100"
    },
    {
        "P_UNIT_ID": "5002524",
        "0vzt3dFb": "0",
        "aSJp1i9m": "1",
        "0I4MtuDa": "0,-45,100"
    },
    {
        "P_UNIT_ID": "5002624",
        "0vzt3dFb": "0",
        "aSJp1i9m": "1",
        "0I4MtuDa": "0,-95,100"
    },
    {
        "P_UNIT_ID": "5002811",
        "0vzt3dFb": "0",
        "aSJp1i9m": "1",
        "0I4MtuDa": "0,-45,100"
    },
    {
        "P_UNIT_ID": "5002812",
        "0vzt3dFb": "0",
        "aSJp1i9m": "1",
        "0I4MtuDa": "0,-45,100"
    },
    {
        "P_UNIT_ID": "5002813",
        "0vzt3dFb": "0",
        "aSJp1i9m": "1",
        "0I4MtuDa": "0,-45,100"
    },
    {
        "P_UNIT_ID": "5002914",
        "0vzt3dFb": "0",
        "aSJp1i9m": "1",
        "0I4MtuDa": "0,-45,100"
    },
    {
        "P_UNIT_ID": "5003012",
        "0vzt3dFb": "0",
        "aSJp1i9m": "1",
        "0I4MtuDa": "0,-45,100"
    },
    {
        "P_UNIT_ID": "5003013",
        "0vzt3dFb": "0",
        "aSJp1i9m": "1",
        "0I4MtuDa": "0,-45,100"
    },
    {
        "P_UNIT_ID": "5003014",
        "0vzt3dFb": "0",
        "aSJp1i9m": "1",
        "0I4MtuDa": "0,-45,100"
    },
    {
        "P_UNIT_ID": "5003112",
        "0vzt3dFb": "0",
        "aSJp1i9m": "1",
        "0I4MtuDa": "0,-45,100"
    },
    {
        "P_UNIT_ID": "5003113",
        "0vzt3dFb": "0",
        "aSJp1i9m": "1",
        "0I4MtuDa": "0,-45,100"
    },
    {
        "P_UNIT_ID": "5003114",
        "0vzt3dFb": "0",
        "aSJp1i9m": "1",
        "0I4MtuDa": "0,-45,100"
    },
    {
        "P_UNIT_ID": "5003212",
        "0vzt3dFb": "0",
        "aSJp1i9m": "1",
        "0I4MtuDa": "0,-45,100"
    },
    {
        "P_UNIT_ID": "5003213",
        "0vzt3dFb": "0",
        "aSJp1i9m": "1",
        "0I4MtuDa": "0,-45,100"
    },
    {
        "P_UNIT_ID": "5003214",
        "0vzt3dFb": "0",
        "aSJp1i9m": "1",
        "0I4MtuDa": "0,-45,100"
    },
    {
        "P_UNIT_ID": "5003312",
        "0vzt3dFb": "0",
        "aSJp1i9m": "1",
        "0I4MtuDa": "0,-45,100"
    },
    {
        "P_UNIT_ID": "5003313",
        "0vzt3dFb": "0",
        "aSJp1i9m": "1",
        "0I4MtuDa": "0,-45,100"
    },
    {
        "P_UNIT_ID": "5003314",
        "0vzt3dFb": "0",
        "aSJp1i9m": "1",
        "0I4MtuDa": "0,-45,100"
    },
    {
        "P_UNIT_ID": "5003412",
        "0vzt3dFb": "0",
        "aSJp1i9m": "1",
        "0I4MtuDa": "0,-45,100"
    },
    {
        "P_UNIT_ID": "5003413",
        "0vzt3dFb": "0",
        "aSJp1i9m": "1",
        "0I4MtuDa": "0,-45,100"
    },
    {
        "P_UNIT_ID": "5003414",
        "0vzt3dFb": "0",
        "aSJp1i9m": "1",
        "0I4MtuDa": "0,-45,100"
    },
    {
        "P_UNIT_ID": "5003514",
        "0vzt3dFb": "0",
        "aSJp1i9m": "1",
        "0I4MtuDa": "0,-45,100"
    },
    {
        "P_UNIT_ID": "5103014",
        "0vzt3dFb": "0",
        "aSJp1i9m": "1",
        "0I4MtuDa": "0,-45,100"
    },
    {
        "P_UNIT_ID": "6000122",
        "0vzt3dFb": "0",
        "aSJp1i9m": "1",
        "0I4MtuDa": "0,-45,100"
    },
    {
        "P_UNIT_ID": "6000123",
        "0vzt3dFb": "0",
        "aSJp1i9m": "1",
        "0I4MtuDa": "0,-45,100"
    },
    {
        "P_UNIT_ID": "6000124",
        "0vzt3dFb": "0",
        "aSJp1i9m": "1",
        "0I4MtuDa": "0,-45,100"
    },
    {
        "P_UNIT_ID": "6000222",
        "0vzt3dFb": "0",
        "aSJp1i9m": "1",
        "0I4MtuDa": "0,30,100"
    },
    {
        "P_UNIT_ID": "6000223",
        "0vzt3dFb": "0",
        "aSJp1i9m": "1",
        "0I4MtuDa": "0,30,100"
    },
    {
        "P_UNIT_ID": "6000224",
        "0vzt3dFb": "0",
        "aSJp1i9m": "1",
        "0I4MtuDa": "0,-45,100"
    },
    {
        "P_UNIT_ID": "6000322",
        "0vzt3dFb": "0",
        "aSJp1i9m": "1",
        "0I4MtuDa": "0,-80,100"
    },
    {
        "P_UNIT_ID": "6000323",
        "0vzt3dFb": "0",
        "aSJp1i9m": "1",
        "0I4MtuDa": "0,-80,100"
    },
    {
        "P_UNIT_ID": "6000324",
        "0vzt3dFb": "0",
        "aSJp1i9m": "1",
        "0I4MtuDa": "0,-45,100"
    },
    {
        "P_UNIT_ID": "6000422",
        "0vzt3dFb": "0",
        "aSJp1i9m": "1",
        "0I4MtuDa": "0,-45,100"
    },
    {
        "P_UNIT_ID": "6000423",
        "0vzt3dFb": "0",
        "aSJp1i9m": "1",
        "0I4MtuDa": "0,-45,100"
    },
    {
        "P_UNIT_ID": "6000424",
        "0vzt3dFb": "0",
        "aSJp1i9m": "1",
        "0I4MtuDa": "0,-45,100"
    },
    {
        "P_UNIT_ID": "6000522",
        "0vzt3dFb": "0",
        "aSJp1i9m": "1",
        "0I4MtuDa": "0,-45,100"
    },
    {
        "P_UNIT_ID": "6000523",
        "0vzt3dFb": "0",
        "aSJp1i9m": "1",
        "0I4MtuDa": "0,-45,100"
    },
    {
        "P_UNIT_ID": "6000524",
        "0vzt3dFb": "0",
        "aSJp1i9m": "1",
        "0I4MtuDa": "0,-45,100"
    },
    {
        "P_UNIT_ID": "6000620",
        "0vzt3dFb": "0",
        "aSJp1i9m": "1",
        "0I4MtuDa": "0,-45,100"
    },
    {
        "P_UNIT_ID": "6000621",
        "0vzt3dFb": "0",
        "aSJp1i9m": "1",
        "0I4MtuDa": "0,-45,100"
    },
    {
        "P_UNIT_ID": "6000720",
        "0vzt3dFb": "0",
        "aSJp1i9m": "1",
        "0I4MtuDa": "0,-45,100"
    },
    {
        "P_UNIT_ID": "6000721",
        "0vzt3dFb": "0",
        "aSJp1i9m": "1",
        "0I4MtuDa": "0,-45,100"
    },
    {
        "P_UNIT_ID": "6000820",
        "0vzt3dFb": "0",
        "aSJp1i9m": "1",
        "0I4MtuDa": "0,-45,100"
    },
    {
        "P_UNIT_ID": "6000821",
        "0vzt3dFb": "0",
        "aSJp1i9m": "1",
        "0I4MtuDa": "0,-45,100"
    },
    {
        "P_UNIT_ID": "6000921",
        "0vzt3dFb": "0",
        "aSJp1i9m": "1",
        "0I4MtuDa": "0,-45,100"
    },
    {
        "P_UNIT_ID": "6000922",
        "0vzt3dFb": "0",
        "aSJp1i9m": "1",
        "0I4MtuDa": "0,-45,100"
    },
    {
        "P_UNIT_ID": "6001020",
        "0vzt3dFb": "0",
        "aSJp1i9m": "1",
        "0I4MtuDa": "0,-45,100"
    },
    {
        "P_UNIT_ID": "6001021",
        "0vzt3dFb": "0",
        "aSJp1i9m": "1",
        "0I4MtuDa": "0,-45,100"
    },
    {
        "P_UNIT_ID": "6001120",
        "0vzt3dFb": "0",
        "aSJp1i9m": "1",
        "0I4MtuDa": "0,-45,100"
    },
    {
        "P_UNIT_ID": "6001121",
        "0vzt3dFb": "0",
        "aSJp1i9m": "1",
        "0I4MtuDa": "0,-45,100"
    },
    {
        "P_UNIT_ID": "6001221",
        "0vzt3dFb": "0",
        "aSJp1i9m": "1",
        "0I4MtuDa": "0,-45,100"
    },
    {
        "P_UNIT_ID": "6001222",
        "0vzt3dFb": "0",
        "aSJp1i9m": "1",
        "0I4MtuDa": "0,-45,100"
    },
    {
        "P_UNIT_ID": "6001322",
        "0vzt3dFb": "0",
        "aSJp1i9m": "1",
        "0I4MtuDa": "0,-45,100"
    },
    {
        "P_UNIT_ID": "6001323",
        "0vzt3dFb": "0",
        "aSJp1i9m": "1",
        "0I4MtuDa": "0,-45,100"
    },
    {
        "P_UNIT_ID": "6001324",
        "0vzt3dFb": "0",
        "aSJp1i9m": "1",
        "0I4MtuDa": "0,-45,100"
    },
    {
        "P_UNIT_ID": "6001412",
        "0vzt3dFb": "0",
        "aSJp1i9m": "1",
        "0I4MtuDa": "0,-45,100"
    },
    {
        "P_UNIT_ID": "6001413",
        "0vzt3dFb": "0",
        "aSJp1i9m": "1",
        "0I4MtuDa": "0,-45,100"
    },
    {
        "P_UNIT_ID": "6001414",
        "0vzt3dFb": "0",
        "aSJp1i9m": "1",
        "0I4MtuDa": "0,-45,100"
    },
    {
        "P_UNIT_ID": "6001421",
        "0vzt3dFb": "0",
        "aSJp1i9m": "1",
        "0I4MtuDa": "0,-45,100"
    },
    {
        "P_UNIT_ID": "6001512",
        "0vzt3dFb": "0",
        "aSJp1i9m": "1",
        "0I4MtuDa": "0,-45,100"
    },
    {
        "P_UNIT_ID": "6001513",
        "0vzt3dFb": "0",
        "aSJp1i9m": "1",
        "0I4MtuDa": "0,-45,100"
    },
    {
        "P_UNIT_ID": "6001514",
        "0vzt3dFb": "0",
        "aSJp1i9m": "1",
        "0I4MtuDa": "0,-45,100"
    },
    {
        "P_UNIT_ID": "6001522",
        "0vzt3dFb": "0",
        "aSJp1i9m": "1",
        "0I4MtuDa": "0,-45,100"
    },
    {
        "P_UNIT_ID": "6001523",
        "0vzt3dFb": "0",
        "aSJp1i9m": "1",
        "0I4MtuDa": "0,-45,100"
    },
    {
        "P_UNIT_ID": "6001524",
        "0vzt3dFb": "0",
        "aSJp1i9m": "1",
        "0I4MtuDa": "0,-45,100"
    },
    {
        "P_UNIT_ID": "6001612",
        "0vzt3dFb": "0",
        "aSJp1i9m": "1",
        "0I4MtuDa": "0,-45,100"
    },
    {
        "P_UNIT_ID": "6001613",
        "0vzt3dFb": "0",
        "aSJp1i9m": "1",
        "0I4MtuDa": "0,-45,100"
    },
    {
        "P_UNIT_ID": "6001614",
        "0vzt3dFb": "0",
        "aSJp1i9m": "1",
        "0I4MtuDa": "0,-45,100"
    },
    {
        "P_UNIT_ID": "6001624",
        "0vzt3dFb": "0",
        "aSJp1i9m": "1",
        "0I4MtuDa": "0,-45,100"
    },
    {
        "P_UNIT_ID": "6001712",
        "0vzt3dFb": "0",
        "aSJp1i9m": "1",
        "0I4MtuDa": "0,-45,100"
    },
    {
        "P_UNIT_ID": "6001713",
        "0vzt3dFb": "0",
        "aSJp1i9m": "1",
        "0I4MtuDa": "0,-45,100"
    },
    {
        "P_UNIT_ID": "6001714",
        "0vzt3dFb": "0",
        "aSJp1i9m": "1",
        "0I4MtuDa": "0,-45,100"
    },
    {
        "P_UNIT_ID": "6001721",
        "0vzt3dFb": "0",
        "aSJp1i9m": "1",
        "0I4MtuDa": "0,-45,100"
    },
    {
        "P_UNIT_ID": "6001812",
        "0vzt3dFb": "0",
        "aSJp1i9m": "1",
        "0I4MtuDa": "0,-45,100"
    },
    {
        "P_UNIT_ID": "6001813",
        "0vzt3dFb": "0",
        "aSJp1i9m": "1",
        "0I4MtuDa": "0,-45,100"
    },
    {
        "P_UNIT_ID": "6001814",
        "0vzt3dFb": "0",
        "aSJp1i9m": "1",
        "0I4MtuDa": "0,-45,100"
    },
    {
        "P_UNIT_ID": "6001822",
        "0vzt3dFb": "0",
        "aSJp1i9m": "1",
        "0I4MtuDa": "0,-45,100"
    },
    {
        "P_UNIT_ID": "6001823",
        "0vzt3dFb": "0",
        "aSJp1i9m": "1",
        "0I4MtuDa": "0,-45,100"
    },
    {
        "P_UNIT_ID": "6001824",
        "0vzt3dFb": "0",
        "aSJp1i9m": "1",
        "0I4MtuDa": "0,-45,100"
    },
    {
        "P_UNIT_ID": "6001912",
        "0vzt3dFb": "0",
        "aSJp1i9m": "1",
        "0I4MtuDa": "0,-45,100"
    },
    {
        "P_UNIT_ID": "6001913",
        "0vzt3dFb": "0",
        "aSJp1i9m": "1",
        "0I4MtuDa": "0,-45,100"
    },
    {
        "P_UNIT_ID": "6001914",
        "0vzt3dFb": "0",
        "aSJp1i9m": "1",
        "0I4MtuDa": "0,-45,100"
    },
    {
        "P_UNIT_ID": "6001924",
        "0vzt3dFb": "0",
        "aSJp1i9m": "1",
        "0I4MtuDa": "0,-45,100"
    },
    {
        "P_UNIT_ID": "6002012",
        "0vzt3dFb": "0",
        "aSJp1i9m": "1",
        "0I4MtuDa": "0,-45,100"
    },
    {
        "P_UNIT_ID": "6002013",
        "0vzt3dFb": "0",
        "aSJp1i9m": "1",
        "0I4MtuDa": "0,-45,100"
    },
    {
        "P_UNIT_ID": "6002014",
        "0vzt3dFb": "0",
        "aSJp1i9m": "1",
        "0I4MtuDa": "0,-45,100"
    },
    {
        "P_UNIT_ID": "6002022",
        "0vzt3dFb": "0",
        "aSJp1i9m": "1",
        "0I4MtuDa": "0,-45,100"
    },
    {
        "P_UNIT_ID": "6002112",
        "0vzt3dFb": "0",
        "aSJp1i9m": "1",
        "0I4MtuDa": "0,-45,100"
    },
    {
        "P_UNIT_ID": "6002113",
        "0vzt3dFb": "0",
        "aSJp1i9m": "1",
        "0I4MtuDa": "0,-45,100"
    },
    {
        "P_UNIT_ID": "6002114",
        "0vzt3dFb": "0",
        "aSJp1i9m": "1",
        "0I4MtuDa": "0,-45,100"
    },
    {
        "P_UNIT_ID": "6002212",
        "0vzt3dFb": "0",
        "aSJp1i9m": "1",
        "0I4MtuDa": "0,-45,100"
    },
    {
        "P_UNIT_ID": "6002213",
        "0vzt3dFb": "0",
        "aSJp1i9m": "1",
        "0I4MtuDa": "0,-45,100"
    },
    {
        "P_UNIT_ID": "6002214",
        "0vzt3dFb": "0",
        "aSJp1i9m": "1",
        "0I4MtuDa": "0,-45,100"
    },
    {
        "P_UNIT_ID": "6002312",
        "0vzt3dFb": "0",
        "aSJp1i9m": "1",
        "0I4MtuDa": "0,-45,100"
    },
    {
        "P_UNIT_ID": "6002313",
        "0vzt3dFb": "0",
        "aSJp1i9m": "1",
        "0I4MtuDa": "0,-45,100"
    },
    {
        "P_UNIT_ID": "6002314",
        "0vzt3dFb": "0",
        "aSJp1i9m": "1",
        "0I4MtuDa": "0,-60,100"
    },
    {
        "P_UNIT_ID": "6002410",
        "0vzt3dFb": "0",
        "aSJp1i9m": "1",
        "0I4MtuDa": "0,-80,100"
    },
    {
        "P_UNIT_ID": "6002411",
        "0vzt3dFb": "0",
        "aSJp1i9m": "1",
        "0I4MtuDa": "0,-45,100"
    },
    {
        "P_UNIT_ID": "6002510",
        "0vzt3dFb": "0",
        "aSJp1i9m": "1",
        "0I4MtuDa": "0,-45,100"
    },
    {
        "P_UNIT_ID": "6002511",
        "0vzt3dFb": "0",
        "aSJp1i9m": "1",
        "0I4MtuDa": "0,-45,100"
    },
    {
        "P_UNIT_ID": "6002512",
        "0vzt3dFb": "0",
        "aSJp1i9m": "1",
        "0I4MtuDa": "0,-45,100"
    },
    {
        "P_UNIT_ID": "6002610",
        "0vzt3dFb": "0",
        "aSJp1i9m": "1",
        "0I4MtuDa": "0,-45,100"
    },
    {
        "P_UNIT_ID": "6002611",
        "0vzt3dFb": "0",
        "aSJp1i9m": "1",
        "0I4MtuDa": "0,-45,100"
    },
    {
        "P_UNIT_ID": "6002711",
        "0vzt3dFb": "0",
        "aSJp1i9m": "1",
        "0I4MtuDa": "0,-45,100"
    },
    {
        "P_UNIT_ID": "6002712",
        "0vzt3dFb": "0",
        "aSJp1i9m": "1",
        "0I4MtuDa": "0,-45,100"
    },
    {
        "P_UNIT_ID": "6003011",
        "0vzt3dFb": "0",
        "aSJp1i9m": "1",
        "0I4MtuDa": "0,-45,100"
    },
    {
        "P_UNIT_ID": "6003012",
        "0vzt3dFb": "0",
        "aSJp1i9m": "1",
        "0I4MtuDa": "0,-45,100"
    },
    {
        "P_UNIT_ID": "6003013",
        "0vzt3dFb": "0",
        "aSJp1i9m": "1",
        "0I4MtuDa": "0,-45,100"
    },
    {
        "P_UNIT_ID": "6003112",
        "0vzt3dFb": "0",
        "aSJp1i9m": "1",
        "0I4MtuDa": "0,-45,100"
    },
    {
        "P_UNIT_ID": "6003113",
        "0vzt3dFb": "0",
        "aSJp1i9m": "1",
        "0I4MtuDa": "0,-45,100"
    },
    {
        "P_UNIT_ID": "6003114",
        "0vzt3dFb": "0",
        "aSJp1i9m": "1",
        "0I4MtuDa": "0,-45,100"
    },
    {
        "P_UNIT_ID": "6003212",
        "0vzt3dFb": "0",
        "aSJp1i9m": "1",
        "0I4MtuDa": "0,-45,100"
    },
    {
        "P_UNIT_ID": "6003213",
        "0vzt3dFb": "0",
        "aSJp1i9m": "1",
        "0I4MtuDa": "0,-45,100"
    },
    {
        "P_UNIT_ID": "6003214",
        "0vzt3dFb": "0",
        "aSJp1i9m": "1",
        "0I4MtuDa": "0,-45,100"
    },
    {
        "P_UNIT_ID": "6003312",
        "0vzt3dFb": "0",
        "aSJp1i9m": "1",
        "0I4MtuDa": "0,-45,100"
    },
    {
        "P_UNIT_ID": "6003313",
        "0vzt3dFb": "0",
        "aSJp1i9m": "1",
        "0I4MtuDa": "0,-45,100"
    },
    {
        "P_UNIT_ID": "6003314",
        "0vzt3dFb": "0",
        "aSJp1i9m": "1",
        "0I4MtuDa": "0,-45,100"
    },
    {
        "P_UNIT_ID": "6003412",
        "0vzt3dFb": "0",
        "aSJp1i9m": "1",
        "0I4MtuDa": "0,-45,100"
    },
    {
        "P_UNIT_ID": "6003413",
        "0vzt3dFb": "0",
        "aSJp1i9m": "1",
        "0I4MtuDa": "0,-45,100"
    },
    {
        "P_UNIT_ID": "6003414",
        "0vzt3dFb": "0",
        "aSJp1i9m": "1",
        "0I4MtuDa": "0,-45,100"
    },
    {
        "P_UNIT_ID": "6003514",
        "0vzt3dFb": "0",
        "aSJp1i9m": "1",
        "0I4MtuDa": "0,-45,100"
    },
    {
        "P_UNIT_ID": "6003612",
        "0vzt3dFb": "0",
        "aSJp1i9m": "1",
        "0I4MtuDa": "0,-45,100"
    },
    {
        "P_UNIT_ID": "6003613",
        "0vzt3dFb": "0",
        "aSJp1i9m": "1",
        "0I4MtuDa": "0,-45,100"
    },
    {
        "P_UNIT_ID": "6003614",
        "0vzt3dFb": "0",
        "aSJp1i9m": "1",
        "0I4MtuDa": "0,-45,100"
    },
    {
        "P_UNIT_ID": "6003614",
        "0vzt3dFb": "1",
        "aSJp1i9m": "1",
        "0I4MtuDa": "0,-45,100"
    },
    {
        "P_UNIT_ID": "6103214",
        "0vzt3dFb": "0",
        "aSJp1i9m": "1",
        "0I4MtuDa": "0,-45,100"
    },
    {
        "P_UNIT_ID": "7000111",
        "0vzt3dFb": "0",
        "aSJp1i9m": "1",
        "0I4MtuDa": "0,-45,100"
    },
    {
        "P_UNIT_ID": "7000112",
        "0vzt3dFb": "0",
        "aSJp1i9m": "1",
        "0I4MtuDa": "0,-45,100"
    },
    {
        "P_UNIT_ID": "7000113",
        "0vzt3dFb": "0",
        "aSJp1i9m": "1",
        "0I4MtuDa": "0,-45,100"
    },
    {
        "P_UNIT_ID": "7000120",
        "0vzt3dFb": "0",
        "aSJp1i9m": "1",
        "0I4MtuDa": "0,-45,100"
    },
    {
        "P_UNIT_ID": "7000210",
        "0vzt3dFb": "0",
        "aSJp1i9m": "1",
        "0I4MtuDa": "0,-45,100"
    },
    {
        "P_UNIT_ID": "7000311",
        "0vzt3dFb": "0",
        "aSJp1i9m": "1",
        "0I4MtuDa": "0,-45,100"
    },
    {
        "P_UNIT_ID": "7000412",
        "0vzt3dFb": "0",
        "aSJp1i9m": "1",
        "0I4MtuDa": "0,-45,100"
    },
    {
        "P_UNIT_ID": "7000513",
        "0vzt3dFb": "0",
        "aSJp1i9m": "1",
        "0I4MtuDa": "0,-45,100"
    },
    {
        "P_UNIT_ID": "7000614",
        "0vzt3dFb": "0",
        "aSJp1i9m": "1",
        "0I4MtuDa": "0,-45,100"
    }
]