[
    {
        "P_RECIPE_ID": "1",
        "P_SUMMONER_ID": "1",
        "P_DISPORDER": "1",
        "P_TARGET_TYPE": "20",
        "P_TARGET_ID": "1000",
        "P_POSSESSION": "1",
        "P_MATERIAL_INFO": "22:1000:1,22:3000:1",
        "P_COST_INFO": "",
        "P_BYPRODUCT_INFO": "",
        "P_EXTRA_TEXT": "\u56de\u5fa9\u85ac\u3092\u751f\u6210\u3057\u307e\u3059\u304c\u3088\u308d\u3057\u3044\u3067\u3059\u304b",
        "P_SCHEDULE_ID": "0",
        "P_COUNTER_ID": "0",
        "P_NEED_SWITCH_INFO": "61300001",
        "P_HIDE_SWITCH_INFO": "0",
        "P_OPEN_SWITCH_INFO": "0",
        "P_NEW_SWITCH_INFO": "51000000",
        "P_CREATEDATE": "2018-01-25 23:39:23",
        "P_UPDATEDATE": "2018-01-25 23:39:23"
    },
    {
        "P_RECIPE_ID": "2",
        "P_SUMMONER_ID": "1",
        "P_DISPORDER": "2",
        "P_TARGET_TYPE": "20",
        "P_TARGET_ID": "1010",
        "P_POSSESSION": "1",
        "P_MATERIAL_INFO": "20:1000:3,22:3002:1",
        "P_COST_INFO": "",
        "P_BYPRODUCT_INFO": "",
        "P_EXTRA_TEXT": "\u795d\u798f\u306e\u5149\u3092\u751f\u6210\u3057\u307e\u3059\u304c\u3088\u308d\u3057\u3044\u3067\u3059\u304b",
        "P_SCHEDULE_ID": "0",
        "P_COUNTER_ID": "0",
        "P_NEED_SWITCH_INFO": "61300002",
        "P_HIDE_SWITCH_INFO": "0",
        "P_OPEN_SWITCH_INFO": "0",
        "P_NEW_SWITCH_INFO": "51000001",
        "P_CREATEDATE": "2018-01-25 23:39:23",
        "P_UPDATEDATE": "2018-01-25 23:39:23"
    },
    {
        "P_RECIPE_ID": "3",
        "P_SUMMONER_ID": "1",
        "P_DISPORDER": "3",
        "P_TARGET_TYPE": "20",
        "P_TARGET_ID": "1020",
        "P_POSSESSION": "1",
        "P_MATERIAL_INFO": "20:1010:2,22:1001:1,22:3002:1",
        "P_COST_INFO": "",
        "P_BYPRODUCT_INFO": "",
        "P_EXTRA_TEXT": "\u7d99\u5fa9\u5149\u3092\u751f\u6210\u3057\u307e\u3059\u304c\u3088\u308d\u3057\u3044\u3067\u3059\u304b",
        "P_SCHEDULE_ID": "0",
        "P_COUNTER_ID": "0",
        "P_NEED_SWITCH_INFO": "61300003",
        "P_HIDE_SWITCH_INFO": "0",
        "P_OPEN_SWITCH_INFO": "0",
        "P_NEW_SWITCH_INFO": "51000002",
        "P_CREATEDATE": "2018-01-25 23:39:23",
        "P_UPDATEDATE": "2018-01-25 23:39:23"
    },
    {
        "P_RECIPE_ID": "4",
        "P_SUMMONER_ID": "1",
        "P_DISPORDER": "4",
        "P_TARGET_TYPE": "20",
        "P_TARGET_ID": "1100",
        "P_POSSESSION": "1",
        "P_MATERIAL_INFO": "22:3001:1,22:2000:1",
        "P_COST_INFO": "",
        "P_BYPRODUCT_INFO": "",
        "P_EXTRA_TEXT": "\u89e3\u6bd2\u85ac\u3092\u751f\u6210\u3057\u307e\u3059\u304c\u3088\u308d\u3057\u3044\u3067\u3059\u304b",
        "P_SCHEDULE_ID": "0",
        "P_COUNTER_ID": "0",
        "P_NEED_SWITCH_INFO": "61300001",
        "P_HIDE_SWITCH_INFO": "0",
        "P_OPEN_SWITCH_INFO": "0",
        "P_NEW_SWITCH_INFO": "51000003",
        "P_CREATEDATE": "2018-01-25 23:39:23",
        "P_UPDATEDATE": "2018-01-25 23:39:23"
    },
    {
        "P_RECIPE_ID": "5",
        "P_SUMMONER_ID": "1",
        "P_DISPORDER": "5",
        "P_TARGET_TYPE": "20",
        "P_TARGET_ID": "1101",
        "P_POSSESSION": "1",
        "P_MATERIAL_INFO": "22:3001:1,22:2001:1",
        "P_COST_INFO": "",
        "P_BYPRODUCT_INFO": "",
        "P_EXTRA_TEXT": "\u5143\u6c17\u85ac\u3092\u751f\u6210\u3057\u307e\u3059\u304c\u3088\u308d\u3057\u3044\u3067\u3059\u304b",
        "P_SCHEDULE_ID": "0",
        "P_COUNTER_ID": "0",
        "P_NEED_SWITCH_INFO": "61300001",
        "P_HIDE_SWITCH_INFO": "0",
        "P_OPEN_SWITCH_INFO": "0",
        "P_NEW_SWITCH_INFO": "51000004",
        "P_CREATEDATE": "2018-01-25 23:39:23",
        "P_UPDATEDATE": "2018-01-25 23:39:23"
    },
    {
        "P_RECIPE_ID": "6",
        "P_SUMMONER_ID": "1",
        "P_DISPORDER": "6",
        "P_TARGET_TYPE": "20",
        "P_TARGET_ID": "1102",
        "P_POSSESSION": "1",
        "P_MATERIAL_INFO": "22:3001:1,22:2002:1",
        "P_COST_INFO": "",
        "P_BYPRODUCT_INFO": "",
        "P_EXTRA_TEXT": "\u8056\u6c34\u3092\u751f\u6210\u3057\u307e\u3059\u304c\u3088\u308d\u3057\u3044\u3067\u3059\u304b",
        "P_SCHEDULE_ID": "0",
        "P_COUNTER_ID": "0",
        "P_NEED_SWITCH_INFO": "61300001",
        "P_HIDE_SWITCH_INFO": "0",
        "P_OPEN_SWITCH_INFO": "0",
        "P_NEW_SWITCH_INFO": "51000005",
        "P_CREATEDATE": "2018-01-25 23:39:23",
        "P_UPDATEDATE": "2018-01-25 23:39:23"
    },
    {
        "P_RECIPE_ID": "8",
        "P_SUMMONER_ID": "1",
        "P_DISPORDER": "8",
        "P_TARGET_TYPE": "20",
        "P_TARGET_ID": "1200",
        "P_POSSESSION": "1",
        "P_MATERIAL_INFO": "22:16000:1,22:2100:2",
        "P_COST_INFO": "",
        "P_BYPRODUCT_INFO": "",
        "P_EXTRA_TEXT": "\u5f37\u5316\u85ac\u3092\u751f\u6210\u3057\u307e\u3059\u304c\u3088\u308d\u3057\u3044\u3067\u3059\u304b",
        "P_SCHEDULE_ID": "0",
        "P_COUNTER_ID": "0",
        "P_NEED_SWITCH_INFO": "61300001",
        "P_HIDE_SWITCH_INFO": "0",
        "P_OPEN_SWITCH_INFO": "0",
        "P_NEW_SWITCH_INFO": "51000007",
        "P_CREATEDATE": "2018-01-25 23:39:23",
        "P_UPDATEDATE": "2018-01-25 23:39:23"
    },
    {
        "P_RECIPE_ID": "9",
        "P_SUMMONER_ID": "1",
        "P_DISPORDER": "9",
        "P_TARGET_TYPE": "20",
        "P_TARGET_ID": "1201",
        "P_POSSESSION": "1",
        "P_MATERIAL_INFO": "22:16000:1,22:2101:2",
        "P_COST_INFO": "",
        "P_BYPRODUCT_INFO": "",
        "P_EXTRA_TEXT": "\u786c\u5316\u85ac\u3092\u751f\u6210\u3057\u307e\u3059\u304c\u3088\u308d\u3057\u3044\u3067\u3059\u304b",
        "P_SCHEDULE_ID": "0",
        "P_COUNTER_ID": "0",
        "P_NEED_SWITCH_INFO": "61300001",
        "P_HIDE_SWITCH_INFO": "0",
        "P_OPEN_SWITCH_INFO": "0",
        "P_NEW_SWITCH_INFO": "51000008",
        "P_CREATEDATE": "2018-01-25 23:39:23",
        "P_UPDATEDATE": "2018-01-25 23:39:23"
    },
    {
        "P_RECIPE_ID": "10",
        "P_SUMMONER_ID": "1",
        "P_DISPORDER": "10",
        "P_TARGET_TYPE": "20",
        "P_TARGET_ID": "1202",
        "P_POSSESSION": "1",
        "P_MATERIAL_INFO": "20:1200:1,20:1201:1,22:16001:1",
        "P_COST_INFO": "",
        "P_BYPRODUCT_INFO": "",
        "P_EXTRA_TEXT": "\u6226\u795e\u306e\u85ac\u3092\u751f\u6210\u3057\u307e\u3059\u304c\u3088\u308d\u3057\u3044\u3067\u3059\u304b",
        "P_SCHEDULE_ID": "0",
        "P_COUNTER_ID": "0",
        "P_NEED_SWITCH_INFO": "61300004",
        "P_HIDE_SWITCH_INFO": "0",
        "P_OPEN_SWITCH_INFO": "0",
        "P_NEW_SWITCH_INFO": "51000009",
        "P_CREATEDATE": "2018-01-25 23:39:23",
        "P_UPDATEDATE": "2018-01-25 23:39:23"
    },
    {
        "P_RECIPE_ID": "11",
        "P_SUMMONER_ID": "1",
        "P_DISPORDER": "11",
        "P_TARGET_TYPE": "20",
        "P_TARGET_ID": "1300",
        "P_POSSESSION": "1",
        "P_MATERIAL_INFO": "22:4000:1,22:6000:1",
        "P_COST_INFO": "",
        "P_BYPRODUCT_INFO": "",
        "P_EXTRA_TEXT": "\u6b66\u795e\u85ac\u3092\u751f\u6210\u3057\u307e\u3059\u304c\u3088\u308d\u3057\u3044\u3067\u3059\u304b",
        "P_SCHEDULE_ID": "0",
        "P_COUNTER_ID": "0",
        "P_NEED_SWITCH_INFO": "61300005",
        "P_HIDE_SWITCH_INFO": "0",
        "P_OPEN_SWITCH_INFO": "0",
        "P_NEW_SWITCH_INFO": "51000010",
        "P_CREATEDATE": "2018-01-25 23:39:23",
        "P_UPDATEDATE": "2018-01-25 23:39:23"
    },
    {
        "P_RECIPE_ID": "12",
        "P_SUMMONER_ID": "1",
        "P_DISPORDER": "12",
        "P_TARGET_TYPE": "20",
        "P_TARGET_ID": "1310",
        "P_POSSESSION": "1",
        "P_MATERIAL_INFO": "22:4000:1,22:5000:1,22:14000:1",
        "P_COST_INFO": "",
        "P_BYPRODUCT_INFO": "",
        "P_EXTRA_TEXT": "\u795e\u4ed9\u73e0\u7434\u3092\u751f\u6210\u3057\u307e\u3059\u304c\u3088\u308d\u3057\u3044\u3067\u3059\u304b",
        "P_SCHEDULE_ID": "0",
        "P_COUNTER_ID": "0",
        "P_NEED_SWITCH_INFO": "61300006",
        "P_HIDE_SWITCH_INFO": "0",
        "P_OPEN_SWITCH_INFO": "0",
        "P_NEW_SWITCH_INFO": "51000011",
        "P_CREATEDATE": "2018-01-25 23:39:23",
        "P_UPDATEDATE": "2018-01-25 23:39:23"
    },
    {
        "P_RECIPE_ID": "13",
        "P_SUMMONER_ID": "1",
        "P_DISPORDER": "13",
        "P_TARGET_TYPE": "20",
        "P_TARGET_ID": "1410",
        "P_POSSESSION": "1",
        "P_MATERIAL_INFO": "20:1000:5,22:6002:2",
        "P_COST_INFO": "",
        "P_BYPRODUCT_INFO": "",
        "P_EXTRA_TEXT": "\u8607\u751f\u85ac\u3092\u751f\u6210\u3057\u307e\u3059\u304c\u3088\u308d\u3057\u3044\u3067\u3059\u304b",
        "P_SCHEDULE_ID": "0",
        "P_COUNTER_ID": "0",
        "P_NEED_SWITCH_INFO": "61300007",
        "P_HIDE_SWITCH_INFO": "0",
        "P_OPEN_SWITCH_INFO": "0",
        "P_NEW_SWITCH_INFO": "51000012",
        "P_CREATEDATE": "2018-01-25 23:39:23",
        "P_UPDATEDATE": "2018-01-25 23:39:23"
    },
    {
        "P_RECIPE_ID": "14",
        "P_SUMMONER_ID": "1",
        "P_DISPORDER": "14",
        "P_TARGET_TYPE": "20",
        "P_TARGET_ID": "1600",
        "P_POSSESSION": "1",
        "P_MATERIAL_INFO": "20:1300:3,22:5000:2,22:6002:1,22:6001:1",
        "P_COST_INFO": "",
        "P_BYPRODUCT_INFO": "",
        "P_EXTRA_TEXT": "\u6226\u96c4\u7d46\u6676\u3092\u751f\u6210\u3057\u307e\u3059\u304c\u3088\u308d\u3057\u3044\u3067\u3059\u304b",
        "P_SCHEDULE_ID": "0",
        "P_COUNTER_ID": "0",
        "P_NEED_SWITCH_INFO": "61300008",
        "P_HIDE_SWITCH_INFO": "0",
        "P_OPEN_SWITCH_INFO": "0",
        "P_NEW_SWITCH_INFO": "51000013",
        "P_CREATEDATE": "2018-01-25 23:39:23",
        "P_UPDATEDATE": "2018-01-25 23:39:23"
    },
    {
        "P_RECIPE_ID": "15",
        "P_SUMMONER_ID": "2",
        "P_DISPORDER": "1",
        "P_TARGET_TYPE": "20",
        "P_TARGET_ID": "1000",
        "P_POSSESSION": "1",
        "P_MATERIAL_INFO": "22:1000:1,22:3000:1",
        "P_COST_INFO": "",
        "P_BYPRODUCT_INFO": "",
        "P_EXTRA_TEXT": "\u56de\u5fa9\u85ac\u3092\u751f\u6210\u3057\u307e\u3059\u304c\u3088\u308d\u3057\u3044\u3067\u3059\u304b",
        "P_SCHEDULE_ID": "0",
        "P_COUNTER_ID": "0",
        "P_NEED_SWITCH_INFO": "0",
        "P_HIDE_SWITCH_INFO": "2000010",
        "P_OPEN_SWITCH_INFO": "0",
        "P_NEW_SWITCH_INFO": "51000014",
        "P_CREATEDATE": "2018-01-25 23:39:23",
        "P_UPDATEDATE": "2018-01-25 23:39:23"
    },
    {
        "P_RECIPE_ID": "16",
        "P_SUMMONER_ID": "2",
        "P_DISPORDER": "2",
        "P_TARGET_TYPE": "20",
        "P_TARGET_ID": "1100",
        "P_POSSESSION": "1",
        "P_MATERIAL_INFO": "22:3001:1,22:2000:1",
        "P_COST_INFO": "",
        "P_BYPRODUCT_INFO": "",
        "P_EXTRA_TEXT": "\u89e3\u6bd2\u85ac\u3092\u751f\u6210\u3057\u307e\u3059\u304c\u3088\u308d\u3057\u3044\u3067\u3059\u304b",
        "P_SCHEDULE_ID": "0",
        "P_COUNTER_ID": "0",
        "P_NEED_SWITCH_INFO": "0",
        "P_HIDE_SWITCH_INFO": "2000010",
        "P_OPEN_SWITCH_INFO": "0",
        "P_NEW_SWITCH_INFO": "51000015",
        "P_CREATEDATE": "2018-01-25 23:39:23",
        "P_UPDATEDATE": "2018-01-25 23:39:23"
    },
    {
        "P_RECIPE_ID": "17",
        "P_SUMMONER_ID": "2",
        "P_DISPORDER": "3",
        "P_TARGET_TYPE": "20",
        "P_TARGET_ID": "1101",
        "P_POSSESSION": "1",
        "P_MATERIAL_INFO": "22:3001:1,22:2001:1",
        "P_COST_INFO": "",
        "P_BYPRODUCT_INFO": "",
        "P_EXTRA_TEXT": "\u5143\u6c17\u85ac\u3092\u751f\u6210\u3057\u307e\u3059\u304c\u3088\u308d\u3057\u3044\u3067\u3059\u304b",
        "P_SCHEDULE_ID": "0",
        "P_COUNTER_ID": "0",
        "P_NEED_SWITCH_INFO": "0",
        "P_HIDE_SWITCH_INFO": "2000010",
        "P_OPEN_SWITCH_INFO": "0",
        "P_NEW_SWITCH_INFO": "51000016",
        "P_CREATEDATE": "2018-01-25 23:39:23",
        "P_UPDATEDATE": "2018-01-25 23:39:23"
    },
    {
        "P_RECIPE_ID": "18",
        "P_SUMMONER_ID": "2",
        "P_DISPORDER": "4",
        "P_TARGET_TYPE": "20",
        "P_TARGET_ID": "1102",
        "P_POSSESSION": "1",
        "P_MATERIAL_INFO": "22:3001:1,22:2002:1",
        "P_COST_INFO": "",
        "P_BYPRODUCT_INFO": "",
        "P_EXTRA_TEXT": "\u8056\u6c34\u3092\u751f\u6210\u3057\u307e\u3059\u304c\u3088\u308d\u3057\u3044\u3067\u3059\u304b",
        "P_SCHEDULE_ID": "0",
        "P_COUNTER_ID": "0",
        "P_NEED_SWITCH_INFO": "0",
        "P_HIDE_SWITCH_INFO": "2000010",
        "P_OPEN_SWITCH_INFO": "0",
        "P_NEW_SWITCH_INFO": "51000017",
        "P_CREATEDATE": "2018-01-25 23:39:23",
        "P_UPDATEDATE": "2018-01-25 23:39:23"
    },
    {
        "P_RECIPE_ID": "19",
        "P_SUMMONER_ID": "2",
        "P_DISPORDER": "5",
        "P_TARGET_TYPE": "20",
        "P_TARGET_ID": "1200",
        "P_POSSESSION": "1",
        "P_MATERIAL_INFO": "22:16000:1,22:2100:2",
        "P_COST_INFO": "",
        "P_BYPRODUCT_INFO": "",
        "P_EXTRA_TEXT": "\u5f37\u5316\u85ac\u3092\u751f\u6210\u3057\u307e\u3059\u304c\u3088\u308d\u3057\u3044\u3067\u3059\u304b",
        "P_SCHEDULE_ID": "0",
        "P_COUNTER_ID": "0",
        "P_NEED_SWITCH_INFO": "0",
        "P_HIDE_SWITCH_INFO": "2000010",
        "P_OPEN_SWITCH_INFO": "0",
        "P_NEW_SWITCH_INFO": "51000018",
        "P_CREATEDATE": "2018-01-25 23:39:23",
        "P_UPDATEDATE": "2018-01-25 23:39:23"
    },
    {
        "P_RECIPE_ID": "20",
        "P_SUMMONER_ID": "2",
        "P_DISPORDER": "6",
        "P_TARGET_TYPE": "20",
        "P_TARGET_ID": "1201",
        "P_POSSESSION": "1",
        "P_MATERIAL_INFO": "22:16000:1,22:2101:2",
        "P_COST_INFO": "",
        "P_BYPRODUCT_INFO": "",
        "P_EXTRA_TEXT": "\u786c\u5316\u85ac\u3092\u751f\u6210\u3057\u307e\u3059\u304c\u3088\u308d\u3057\u3044\u3067\u3059\u304b",
        "P_SCHEDULE_ID": "0",
        "P_COUNTER_ID": "0",
        "P_NEED_SWITCH_INFO": "0",
        "P_HIDE_SWITCH_INFO": "2000010",
        "P_OPEN_SWITCH_INFO": "0",
        "P_NEW_SWITCH_INFO": "51000019",
        "P_CREATEDATE": "2018-01-25 23:39:23",
        "P_UPDATEDATE": "2018-01-25 23:39:23"
    },
    {
        "P_RECIPE_ID": "10001",
        "P_SUMMONER_ID": "1",
        "P_DISPORDER": "2",
        "P_TARGET_TYPE": "21",
        "P_TARGET_ID": "100100",
        "P_POSSESSION": "1",
        "P_MATERIAL_INFO": "22:7000:6",
        "P_COST_INFO": "30:0:1000",
        "P_BYPRODUCT_INFO": "",
        "P_EXTRA_TEXT": "\u540d\u5263\u30d6\u30ec\u30a4\u30d6\u30e9\u30a4\u30c9\u3092\u751f\u6210\u3057\u307e\u3059\u304c\u3088\u308d\u3057\u3044\u3067\u3059\u304b",
        "P_SCHEDULE_ID": "0",
        "P_COUNTER_ID": "0",
        "P_NEED_SWITCH_INFO": "61300001",
        "P_HIDE_SWITCH_INFO": "0",
        "P_OPEN_SWITCH_INFO": "0",
        "P_NEW_SWITCH_INFO": "51100001",
        "P_CREATEDATE": "2018-01-25 23:39:23",
        "P_UPDATEDATE": "2018-01-25 23:39:23"
    },
    {
        "P_RECIPE_ID": "10002",
        "P_SUMMONER_ID": "1",
        "P_DISPORDER": "3",
        "P_TARGET_TYPE": "21",
        "P_TARGET_ID": "100101",
        "P_POSSESSION": "1",
        "P_MATERIAL_INFO": "21:100100:1,22:7001:4",
        "P_COST_INFO": "30:0:1000",
        "P_BYPRODUCT_INFO": "",
        "P_EXTRA_TEXT": "\u8056\u5263\u30a8\u30d9\u30ea\u30af\u30b9\u3092\u751f\u6210\u3057\u307e\u3059\u304c\u3088\u308d\u3057\u3044\u3067\u3059\u304b",
        "P_SCHEDULE_ID": "0",
        "P_COUNTER_ID": "0",
        "P_NEED_SWITCH_INFO": "61200003",
        "P_HIDE_SWITCH_INFO": "0",
        "P_OPEN_SWITCH_INFO": "0",
        "P_NEW_SWITCH_INFO": "51100002",
        "P_CREATEDATE": "2018-01-25 23:39:23",
        "P_UPDATEDATE": "2018-01-25 23:39:23"
    },
    {
        "P_RECIPE_ID": "10003",
        "P_SUMMONER_ID": "1",
        "P_DISPORDER": "4",
        "P_TARGET_TYPE": "21",
        "P_TARGET_ID": "100102",
        "P_POSSESSION": "1",
        "P_MATERIAL_INFO": "21:100101:1,22:7002:2",
        "P_COST_INFO": "30:0:2000",
        "P_BYPRODUCT_INFO": "",
        "P_EXTRA_TEXT": "\u9b54\u5263\u30a8\u30c7\u30eb\u30fb\u30de\u30bc\u30eb\u3092\u751f\u6210\u3057\u307e\u3059\u304c\u3088\u308d\u3057\u3044\u3067\u3059\u304b",
        "P_SCHEDULE_ID": "0",
        "P_COUNTER_ID": "0",
        "P_NEED_SWITCH_INFO": "61200004",
        "P_HIDE_SWITCH_INFO": "0",
        "P_OPEN_SWITCH_INFO": "0",
        "P_NEW_SWITCH_INFO": "51100003",
        "P_CREATEDATE": "2018-01-25 23:39:23",
        "P_UPDATEDATE": "2018-01-25 23:39:23"
    },
    {
        "P_RECIPE_ID": "10004",
        "P_SUMMONER_ID": "1",
        "P_DISPORDER": "5",
        "P_TARGET_TYPE": "21",
        "P_TARGET_ID": "100103",
        "P_POSSESSION": "1",
        "P_MATERIAL_INFO": "21:100102:1,22:7000:6,22:7001:4,22:7002:2",
        "P_COST_INFO": "30:0:3000",
        "P_BYPRODUCT_INFO": "",
        "P_EXTRA_TEXT": "\u7adc\u304c\u935b\u3048\u3057\u5263\u300e\u30de\u30ac\u300f\u3092\u751f\u6210\u3057\u307e\u3059\u304c\u3088\u308d\u3057\u3044\u3067\u3059\u304b",
        "P_SCHEDULE_ID": "0",
        "P_COUNTER_ID": "0",
        "P_NEED_SWITCH_INFO": "61200005",
        "P_HIDE_SWITCH_INFO": "0",
        "P_OPEN_SWITCH_INFO": "0",
        "P_NEW_SWITCH_INFO": "51100004",
        "P_CREATEDATE": "2018-01-25 23:39:23",
        "P_UPDATEDATE": "2018-01-25 23:39:23"
    },
    {
        "P_RECIPE_ID": "10005",
        "P_SUMMONER_ID": "1",
        "P_DISPORDER": "6",
        "P_TARGET_TYPE": "21",
        "P_TARGET_ID": "100200",
        "P_POSSESSION": "1",
        "P_MATERIAL_INFO": "22:9000:6",
        "P_COST_INFO": "30:0:1000",
        "P_BYPRODUCT_INFO": "",
        "P_EXTRA_TEXT": "\u5de8\u4eba\u76fe\u30a8\u30d3\u30aa\u30dc\u3092\u751f\u6210\u3057\u307e\u3059\u304c\u3088\u308d\u3057\u3044\u3067\u3059\u304b",
        "P_SCHEDULE_ID": "0",
        "P_COUNTER_ID": "0",
        "P_NEED_SWITCH_INFO": "61300001",
        "P_HIDE_SWITCH_INFO": "0",
        "P_OPEN_SWITCH_INFO": "0",
        "P_NEW_SWITCH_INFO": "51100005",
        "P_CREATEDATE": "2018-01-25 23:39:23",
        "P_UPDATEDATE": "2018-01-25 23:39:23"
    },
    {
        "P_RECIPE_ID": "10006",
        "P_SUMMONER_ID": "1",
        "P_DISPORDER": "7",
        "P_TARGET_TYPE": "21",
        "P_TARGET_ID": "100201",
        "P_POSSESSION": "1",
        "P_MATERIAL_INFO": "21:100200:1,22:9001:4",
        "P_COST_INFO": "30:0:1000",
        "P_BYPRODUCT_INFO": "",
        "P_EXTRA_TEXT": "\u7adc\u9c57\u76fe\u30d0\u30eb\u30b2\u30a4\u30aa\u30b9\u3092\u751f\u6210\u3057\u307e\u3059\u304c\u3088\u308d\u3057\u3044\u3067\u3059\u304b",
        "P_SCHEDULE_ID": "0",
        "P_COUNTER_ID": "0",
        "P_NEED_SWITCH_INFO": "61200007",
        "P_HIDE_SWITCH_INFO": "0",
        "P_OPEN_SWITCH_INFO": "0",
        "P_NEW_SWITCH_INFO": "51100006",
        "P_CREATEDATE": "2018-01-25 23:39:23",
        "P_UPDATEDATE": "2018-01-25 23:39:23"
    },
    {
        "P_RECIPE_ID": "10007",
        "P_SUMMONER_ID": "1",
        "P_DISPORDER": "8",
        "P_TARGET_TYPE": "21",
        "P_TARGET_ID": "100202",
        "P_POSSESSION": "1",
        "P_MATERIAL_INFO": "21:100201:1,22:9002:2",
        "P_COST_INFO": "30:0:2000",
        "P_BYPRODUCT_INFO": "",
        "P_EXTRA_TEXT": "\u5973\u795e\u76fe\u30e9\u30a6\u30fb\u30ec\u30a4\u30af\u3092\u751f\u6210\u3057\u307e\u3059\u304c\u3088\u308d\u3057\u3044\u3067\u3059\u304b",
        "P_SCHEDULE_ID": "0",
        "P_COUNTER_ID": "0",
        "P_NEED_SWITCH_INFO": "61200008",
        "P_HIDE_SWITCH_INFO": "0",
        "P_OPEN_SWITCH_INFO": "0",
        "P_NEW_SWITCH_INFO": "51100007",
        "P_CREATEDATE": "2018-01-25 23:39:23",
        "P_UPDATEDATE": "2018-01-25 23:39:23"
    },
    {
        "P_RECIPE_ID": "10008",
        "P_SUMMONER_ID": "1",
        "P_DISPORDER": "9",
        "P_TARGET_TYPE": "21",
        "P_TARGET_ID": "100203",
        "P_POSSESSION": "1",
        "P_MATERIAL_INFO": "21:100202:1,22:9000:6,22:9001:4,22:9002:2",
        "P_COST_INFO": "30:0:3000",
        "P_BYPRODUCT_INFO": "",
        "P_EXTRA_TEXT": "\u592a\u967d\u3068\u6708\u306e\u76fe\u30de\u30ea\u30b9\u3092\u751f\u6210\u3057\u307e\u3059\u304c\u3088\u308d\u3057\u3044\u3067\u3059\u304b",
        "P_SCHEDULE_ID": "0",
        "P_COUNTER_ID": "0",
        "P_NEED_SWITCH_INFO": "61200009",
        "P_HIDE_SWITCH_INFO": "0",
        "P_OPEN_SWITCH_INFO": "0",
        "P_NEW_SWITCH_INFO": "51100008",
        "P_CREATEDATE": "2018-01-25 23:39:23",
        "P_UPDATEDATE": "2018-01-25 23:39:23"
    },
    {
        "P_RECIPE_ID": "10009",
        "P_SUMMONER_ID": "1",
        "P_DISPORDER": "10",
        "P_TARGET_TYPE": "21",
        "P_TARGET_ID": "100300",
        "P_POSSESSION": "1",
        "P_MATERIAL_INFO": "22:11000:6",
        "P_COST_INFO": "30:0:1000",
        "P_BYPRODUCT_INFO": "",
        "P_EXTRA_TEXT": "\u9b54\u9632\u30a2\u30c3\u30d75\uff05\u3092\u751f\u6210\u3057\u307e\u3059\u304c\u3088\u308d\u3057\u3044\u3067\u3059\u304b",
        "P_SCHEDULE_ID": "0",
        "P_COUNTER_ID": "0",
        "P_NEED_SWITCH_INFO": "61300001",
        "P_HIDE_SWITCH_INFO": "0",
        "P_OPEN_SWITCH_INFO": "0",
        "P_NEW_SWITCH_INFO": "51100009",
        "P_CREATEDATE": "2018-01-25 23:39:23",
        "P_UPDATEDATE": "2018-01-25 23:39:23"
    },
    {
        "P_RECIPE_ID": "10010",
        "P_SUMMONER_ID": "1",
        "P_DISPORDER": "11",
        "P_TARGET_TYPE": "21",
        "P_TARGET_ID": "100301",
        "P_POSSESSION": "1",
        "P_MATERIAL_INFO": "21:100300:1,22:11001:4",
        "P_COST_INFO": "30:0:1000",
        "P_BYPRODUCT_INFO": "",
        "P_EXTRA_TEXT": "\u9b54\u9632\u30a2\u30c3\u30d710\uff05\u3092\u751f\u6210\u3057\u307e\u3059\u304c\u3088\u308d\u3057\u3044\u3067\u3059\u304b",
        "P_SCHEDULE_ID": "0",
        "P_COUNTER_ID": "0",
        "P_NEED_SWITCH_INFO": "61200011",
        "P_HIDE_SWITCH_INFO": "0",
        "P_OPEN_SWITCH_INFO": "0",
        "P_NEW_SWITCH_INFO": "51100010",
        "P_CREATEDATE": "2018-01-25 23:39:23",
        "P_UPDATEDATE": "2018-01-25 23:39:23"
    },
    {
        "P_RECIPE_ID": "10011",
        "P_SUMMONER_ID": "1",
        "P_DISPORDER": "12",
        "P_TARGET_TYPE": "21",
        "P_TARGET_ID": "100302",
        "P_POSSESSION": "1",
        "P_MATERIAL_INFO": "21:100301:1,22:11002:2",
        "P_COST_INFO": "30:0:2000",
        "P_BYPRODUCT_INFO": "",
        "P_EXTRA_TEXT": "\u9b54\u9632\u30a2\u30c3\u30d715\uff05\u3092\u751f\u6210\u3057\u307e\u3059\u304c\u3088\u308d\u3057\u3044\u3067\u3059\u304b",
        "P_SCHEDULE_ID": "0",
        "P_COUNTER_ID": "0",
        "P_NEED_SWITCH_INFO": "61200012",
        "P_HIDE_SWITCH_INFO": "0",
        "P_OPEN_SWITCH_INFO": "0",
        "P_NEW_SWITCH_INFO": "51100011",
        "P_CREATEDATE": "2018-01-25 23:39:23",
        "P_UPDATEDATE": "2018-01-25 23:39:23"
    },
    {
        "P_RECIPE_ID": "10012",
        "P_SUMMONER_ID": "1",
        "P_DISPORDER": "13",
        "P_TARGET_TYPE": "21",
        "P_TARGET_ID": "100303",
        "P_POSSESSION": "1",
        "P_MATERIAL_INFO": "21:100302:1,22:11000:6,22:11001:4,22:11002:2",
        "P_COST_INFO": "30:0:3000",
        "P_BYPRODUCT_INFO": "",
        "P_EXTRA_TEXT": "\u9b54\u9632\u30a2\u30c3\u30d720\uff05\u3092\u751f\u6210\u3057\u307e\u3059\u304c\u3088\u308d\u3057\u3044\u3067\u3059\u304b",
        "P_SCHEDULE_ID": "0",
        "P_COUNTER_ID": "0",
        "P_NEED_SWITCH_INFO": "61200013",
        "P_HIDE_SWITCH_INFO": "0",
        "P_OPEN_SWITCH_INFO": "0",
        "P_NEW_SWITCH_INFO": "51100012",
        "P_CREATEDATE": "2018-01-25 23:39:23",
        "P_UPDATEDATE": "2018-01-25 23:39:23"
    },
    {
        "P_RECIPE_ID": "10013",
        "P_SUMMONER_ID": "1",
        "P_DISPORDER": "14",
        "P_TARGET_TYPE": "21",
        "P_TARGET_ID": "100400",
        "P_POSSESSION": "1",
        "P_MATERIAL_INFO": "22:5001:6",
        "P_COST_INFO": "30:0:1000",
        "P_BYPRODUCT_INFO": "",
        "P_EXTRA_TEXT": "\u9b3c\u93a7\u30ac\u30f4\u30a1\u30ea\u30a2\u30f3\u3092\u751f\u6210\u3057\u307e\u3059\u304c\u3088\u308d\u3057\u3044\u3067\u3059\u304b",
        "P_SCHEDULE_ID": "0",
        "P_COUNTER_ID": "0",
        "P_NEED_SWITCH_INFO": "61300001",
        "P_HIDE_SWITCH_INFO": "0",
        "P_OPEN_SWITCH_INFO": "0",
        "P_NEW_SWITCH_INFO": "51100013",
        "P_CREATEDATE": "2018-01-25 23:39:23",
        "P_UPDATEDATE": "2018-01-25 23:39:23"
    },
    {
        "P_RECIPE_ID": "10014",
        "P_SUMMONER_ID": "1",
        "P_DISPORDER": "15",
        "P_TARGET_TYPE": "21",
        "P_TARGET_ID": "100401",
        "P_POSSESSION": "1",
        "P_MATERIAL_INFO": "21:100400:1,22:5002:4",
        "P_COST_INFO": "30:0:1000",
        "P_BYPRODUCT_INFO": "",
        "P_EXTRA_TEXT": "\u5e7b\u7363\u93a7\u300e\u9e92\u9e9f\u300f\u3092\u751f\u6210\u3057\u307e\u3059\u304c\u3088\u308d\u3057\u3044\u3067\u3059\u304b",
        "P_SCHEDULE_ID": "0",
        "P_COUNTER_ID": "0",
        "P_NEED_SWITCH_INFO": "61200015",
        "P_HIDE_SWITCH_INFO": "0",
        "P_OPEN_SWITCH_INFO": "0",
        "P_NEW_SWITCH_INFO": "51100014",
        "P_CREATEDATE": "2018-01-25 23:39:23",
        "P_UPDATEDATE": "2018-01-25 23:39:23"
    },
    {
        "P_RECIPE_ID": "10015",
        "P_SUMMONER_ID": "1",
        "P_DISPORDER": "16",
        "P_TARGET_TYPE": "21",
        "P_TARGET_ID": "100402",
        "P_POSSESSION": "1",
        "P_MATERIAL_INFO": "21:100401:1,22:5003:2",
        "P_COST_INFO": "30:0:2000",
        "P_BYPRODUCT_INFO": "",
        "P_EXTRA_TEXT": "\u8056\u8863\u30a8\u30e1\u30eb\u30c7\u30a3\u30a2\u3092\u751f\u6210\u3057\u307e\u3059\u304c\u3088\u308d\u3057\u3044\u3067\u3059\u304b",
        "P_SCHEDULE_ID": "0",
        "P_COUNTER_ID": "0",
        "P_NEED_SWITCH_INFO": "61200016",
        "P_HIDE_SWITCH_INFO": "0",
        "P_OPEN_SWITCH_INFO": "0",
        "P_NEW_SWITCH_INFO": "51100015",
        "P_CREATEDATE": "2018-01-25 23:39:23",
        "P_UPDATEDATE": "2018-01-25 23:39:23"
    },
    {
        "P_RECIPE_ID": "10016",
        "P_SUMMONER_ID": "1",
        "P_DISPORDER": "17",
        "P_TARGET_TYPE": "21",
        "P_TARGET_ID": "100403",
        "P_POSSESSION": "1",
        "P_MATERIAL_INFO": "21:100402:1,22:5001:6,22:5002:4,22:5003:2",
        "P_COST_INFO": "30:0:3000",
        "P_BYPRODUCT_INFO": "",
        "P_EXTRA_TEXT": "\u8f1d\u93a7\u30eb\u30c7\u30a3\u30d0\u30fb\u30de\u30af\u30b9\u3092\u751f\u6210\u3057\u307e\u3059\u304c\u3088\u308d\u3057\u3044\u3067\u3059\u304b",
        "P_SCHEDULE_ID": "0",
        "P_COUNTER_ID": "0",
        "P_NEED_SWITCH_INFO": "61200017",
        "P_HIDE_SWITCH_INFO": "0",
        "P_OPEN_SWITCH_INFO": "0",
        "P_NEW_SWITCH_INFO": "51100016",
        "P_CREATEDATE": "2018-01-25 23:39:23",
        "P_UPDATEDATE": "2018-01-25 23:39:23"
    },
    {
        "P_RECIPE_ID": "10017",
        "P_SUMMONER_ID": "1",
        "P_DISPORDER": "18",
        "P_TARGET_TYPE": "21",
        "P_TARGET_ID": "100500",
        "P_POSSESSION": "1",
        "P_MATERIAL_INFO": "21:100101:1,22:10000:4,22:7002:2",
        "P_COST_INFO": "30:0:3000",
        "P_BYPRODUCT_INFO": "",
        "P_EXTRA_TEXT": "\u5343\u5b50\u6751\u6b63\u3092\u751f\u6210\u3057\u307e\u3059\u304c\u3088\u308d\u3057\u3044\u3067\u3059\u304b",
        "P_SCHEDULE_ID": "0",
        "P_COUNTER_ID": "0",
        "P_NEED_SWITCH_INFO": "61200018",
        "P_HIDE_SWITCH_INFO": "0",
        "P_OPEN_SWITCH_INFO": "0",
        "P_NEW_SWITCH_INFO": "51100017",
        "P_CREATEDATE": "2018-01-25 23:39:23",
        "P_UPDATEDATE": "2018-01-25 23:39:23"
    },
    {
        "P_RECIPE_ID": "10018",
        "P_SUMMONER_ID": "1",
        "P_DISPORDER": "19",
        "P_TARGET_TYPE": "21",
        "P_TARGET_ID": "100510",
        "P_POSSESSION": "1",
        "P_MATERIAL_INFO": "21:100201:1,22:10000:4,22:9002:2",
        "P_COST_INFO": "30:0:4000",
        "P_BYPRODUCT_INFO": "",
        "P_EXTRA_TEXT": "\u738b\u76fe\u30c0\u30eb\u30d0\u30f3\u30b7\u30a7\u30eb\u3092\u751f\u6210\u3057\u307e\u3059\u304c\u3088\u308d\u3057\u3044\u3067\u3059\u304b",
        "P_SCHEDULE_ID": "0",
        "P_COUNTER_ID": "0",
        "P_NEED_SWITCH_INFO": "61200019",
        "P_HIDE_SWITCH_INFO": "0",
        "P_OPEN_SWITCH_INFO": "0",
        "P_NEW_SWITCH_INFO": "51100018",
        "P_CREATEDATE": "2018-01-25 23:39:23",
        "P_UPDATEDATE": "2018-01-25 23:39:23"
    },
    {
        "P_RECIPE_ID": "10019",
        "P_SUMMONER_ID": "1",
        "P_DISPORDER": "20",
        "P_TARGET_TYPE": "21",
        "P_TARGET_ID": "100520",
        "P_POSSESSION": "1",
        "P_MATERIAL_INFO": "21:100500:1,21:100510:1,22:30000:1",
        "P_COST_INFO": "30:0:5000",
        "P_BYPRODUCT_INFO": "",
        "P_EXTRA_TEXT": "\u6b63\u5b97\u3092\u751f\u6210\u3057\u307e\u3059\u304c\u3088\u308d\u3057\u3044\u3067\u3059\u304b",
        "P_SCHEDULE_ID": "0",
        "P_COUNTER_ID": "0",
        "P_NEED_SWITCH_INFO": "61200020",
        "P_HIDE_SWITCH_INFO": "0",
        "P_OPEN_SWITCH_INFO": "0",
        "P_NEW_SWITCH_INFO": "51100019",
        "P_CREATEDATE": "2018-01-25 23:39:23",
        "P_UPDATEDATE": "2018-01-25 23:39:23"
    },
    {
        "P_RECIPE_ID": "10020",
        "P_SUMMONER_ID": "1",
        "P_DISPORDER": "21",
        "P_TARGET_TYPE": "21",
        "P_TARGET_ID": "100600",
        "P_POSSESSION": "1",
        "P_MATERIAL_INFO": "21:100730:1,21:100720:1,22:12000:10",
        "P_COST_INFO": "30:0:3000",
        "P_BYPRODUCT_INFO": "",
        "P_EXTRA_TEXT": "\u6a5f\u5263\u30c7\u30a3\u30d5\u30a7\u30f3\u30c0\u30fc\u3092\u751f\u6210\u3057\u307e\u3059\u304c\u3088\u308d\u3057\u3044\u3067\u3059\u304b",
        "P_SCHEDULE_ID": "0",
        "P_COUNTER_ID": "0",
        "P_NEED_SWITCH_INFO": "61200021",
        "P_HIDE_SWITCH_INFO": "0",
        "P_OPEN_SWITCH_INFO": "0",
        "P_NEW_SWITCH_INFO": "51100020",
        "P_CREATEDATE": "2018-01-25 23:39:23",
        "P_UPDATEDATE": "2018-01-25 23:39:23"
    },
    {
        "P_RECIPE_ID": "10021",
        "P_SUMMONER_ID": "1",
        "P_DISPORDER": "22",
        "P_TARGET_TYPE": "21",
        "P_TARGET_ID": "100601",
        "P_POSSESSION": "1",
        "P_MATERIAL_INFO": "21:100600:1,21:100731:1,21:100721:1,22:12001:10",
        "P_COST_INFO": "30:0:4000",
        "P_BYPRODUCT_INFO": "",
        "P_EXTRA_TEXT": "\u79d8\u5b9d\u300e\u30de\u30eb\u30ad\u30e5\u30ed\u30c7\u30a3\u30f3\u300f\u3092\u751f\u6210\u3057\u307e\u3059\u304c\u3088\u308d\u3057\u3044\u3067\u3059\u304b",
        "P_SCHEDULE_ID": "0",
        "P_COUNTER_ID": "0",
        "P_NEED_SWITCH_INFO": "61200022",
        "P_HIDE_SWITCH_INFO": "0",
        "P_OPEN_SWITCH_INFO": "0",
        "P_NEW_SWITCH_INFO": "51100021",
        "P_CREATEDATE": "2018-01-25 23:39:23",
        "P_UPDATEDATE": "2018-01-25 23:39:23"
    },
    {
        "P_RECIPE_ID": "10022",
        "P_SUMMONER_ID": "1",
        "P_DISPORDER": "23",
        "P_TARGET_TYPE": "21",
        "P_TARGET_ID": "100602",
        "P_POSSESSION": "1",
        "P_MATERIAL_INFO": "21:100601:1,21:100732:1,21:100722:1,22:15000:10",
        "P_COST_INFO": "30:0:5000",
        "P_BYPRODUCT_INFO": "",
        "P_EXTRA_TEXT": "\u79d8\u5b9d\u300e\u30ec\u30d6\u30fb\u30de\u30c7\u30e5\u30e9\u300f\u3092\u751f\u6210\u3057\u307e\u3059\u304c\u3088\u308d\u3057\u3044\u3067\u3059\u304b",
        "P_SCHEDULE_ID": "0",
        "P_COUNTER_ID": "0",
        "P_NEED_SWITCH_INFO": "61200023",
        "P_HIDE_SWITCH_INFO": "0",
        "P_OPEN_SWITCH_INFO": "0",
        "P_NEW_SWITCH_INFO": "51100022",
        "P_CREATEDATE": "2018-01-25 23:39:23",
        "P_UPDATEDATE": "2018-01-25 23:39:23"
    },
    {
        "P_RECIPE_ID": "10023",
        "P_SUMMONER_ID": "1",
        "P_DISPORDER": "24",
        "P_TARGET_TYPE": "21",
        "P_TARGET_ID": "100720",
        "P_POSSESSION": "1",
        "P_MATERIAL_INFO": "21:100401:1,21:100301:1,22:5001:12,22:11000:12",
        "P_COST_INFO": "30:0:2000",
        "P_BYPRODUCT_INFO": "",
        "P_EXTRA_TEXT": "\u6700\u5927\uff28\uff30\u30fb\u9b54\u9632\u529b10\uff05\u30a2\u30c3\u30d7\u3092\u751f\u6210\u3057\u307e\u3059\u304c\u3088\u308d\u3057\u3044\u3067\u3059\u304b",
        "P_SCHEDULE_ID": "0",
        "P_COUNTER_ID": "0",
        "P_NEED_SWITCH_INFO": "61200024",
        "P_HIDE_SWITCH_INFO": "0",
        "P_OPEN_SWITCH_INFO": "0",
        "P_NEW_SWITCH_INFO": "51100023",
        "P_CREATEDATE": "2018-01-25 23:39:23",
        "P_UPDATEDATE": "2018-01-25 23:39:23"
    },
    {
        "P_RECIPE_ID": "10024",
        "P_SUMMONER_ID": "1",
        "P_DISPORDER": "25",
        "P_TARGET_TYPE": "21",
        "P_TARGET_ID": "100721",
        "P_POSSESSION": "1",
        "P_MATERIAL_INFO": "21:100402:1,21:100302:1,22:5002:8,22:11001:8",
        "P_COST_INFO": "30:0:3000",
        "P_BYPRODUCT_INFO": "",
        "P_EXTRA_TEXT": "\u6700\u5927\uff28\uff30\u30fb\u9b54\u9632\u529b15\uff05\u30a2\u30c3\u30d7\u3092\u751f\u6210\u3057\u307e\u3059\u304c\u3088\u308d\u3057\u3044\u3067\u3059\u304b",
        "P_SCHEDULE_ID": "0",
        "P_COUNTER_ID": "0",
        "P_NEED_SWITCH_INFO": "61200025",
        "P_HIDE_SWITCH_INFO": "0",
        "P_OPEN_SWITCH_INFO": "0",
        "P_NEW_SWITCH_INFO": "51100024",
        "P_CREATEDATE": "2018-01-25 23:39:23",
        "P_UPDATEDATE": "2018-01-25 23:39:23"
    },
    {
        "P_RECIPE_ID": "10025",
        "P_SUMMONER_ID": "1",
        "P_DISPORDER": "26",
        "P_TARGET_TYPE": "21",
        "P_TARGET_ID": "100722",
        "P_POSSESSION": "1",
        "P_MATERIAL_INFO": "21:100403:1,21:100303:1,22:5003:6,22:11002:6",
        "P_COST_INFO": "30:0:4000",
        "P_BYPRODUCT_INFO": "",
        "P_EXTRA_TEXT": "\u6700\u5927\uff28\uff30\u30fb\u9b54\u9632\u529b20\uff05\u30a2\u30c3\u30d7\u3092\u751f\u6210\u3057\u307e\u3059\u304c\u3088\u308d\u3057\u3044\u3067\u3059\u304b",
        "P_SCHEDULE_ID": "0",
        "P_COUNTER_ID": "0",
        "P_NEED_SWITCH_INFO": "61200026",
        "P_HIDE_SWITCH_INFO": "0",
        "P_OPEN_SWITCH_INFO": "0",
        "P_NEW_SWITCH_INFO": "51100025",
        "P_CREATEDATE": "2018-01-25 23:39:23",
        "P_UPDATEDATE": "2018-01-25 23:39:23"
    },
    {
        "P_RECIPE_ID": "10026",
        "P_SUMMONER_ID": "1",
        "P_DISPORDER": "27",
        "P_TARGET_TYPE": "21",
        "P_TARGET_ID": "100730",
        "P_POSSESSION": "1",
        "P_MATERIAL_INFO": "21:100101:1,21:100201:1,22:7000:12,22:9000:12",
        "P_COST_INFO": "30:0:2000",
        "P_BYPRODUCT_INFO": "",
        "P_EXTRA_TEXT": "\u653b\u6483\u30fb\u9632\u5fa110\uff05\u30a2\u30c3\u30d7\u3092\u751f\u6210\u3057\u307e\u3059\u304c\u3088\u308d\u3057\u3044\u3067\u3059\u304b",
        "P_SCHEDULE_ID": "0",
        "P_COUNTER_ID": "0",
        "P_NEED_SWITCH_INFO": "61200027",
        "P_HIDE_SWITCH_INFO": "0",
        "P_OPEN_SWITCH_INFO": "0",
        "P_NEW_SWITCH_INFO": "51100026",
        "P_CREATEDATE": "2018-01-25 23:39:23",
        "P_UPDATEDATE": "2018-01-25 23:39:23"
    },
    {
        "P_RECIPE_ID": "10027",
        "P_SUMMONER_ID": "1",
        "P_DISPORDER": "28",
        "P_TARGET_TYPE": "21",
        "P_TARGET_ID": "100731",
        "P_POSSESSION": "1",
        "P_MATERIAL_INFO": "21:100102:1,21:100202:1,22:7001:8,22:9001:8",
        "P_COST_INFO": "30:0:3000",
        "P_BYPRODUCT_INFO": "",
        "P_EXTRA_TEXT": "\u653b\u6483\u30fb\u9632\u5fa115\uff05\u30a2\u30c3\u30d7\u3092\u751f\u6210\u3057\u307e\u3059\u304c\u3088\u308d\u3057\u3044\u3067\u3059\u304b",
        "P_SCHEDULE_ID": "0",
        "P_COUNTER_ID": "0",
        "P_NEED_SWITCH_INFO": "61200028",
        "P_HIDE_SWITCH_INFO": "0",
        "P_OPEN_SWITCH_INFO": "0",
        "P_NEW_SWITCH_INFO": "51100027",
        "P_CREATEDATE": "2018-01-25 23:39:23",
        "P_UPDATEDATE": "2018-01-25 23:39:23"
    },
    {
        "P_RECIPE_ID": "10028",
        "P_SUMMONER_ID": "1",
        "P_DISPORDER": "29",
        "P_TARGET_TYPE": "21",
        "P_TARGET_ID": "100732",
        "P_POSSESSION": "1",
        "P_MATERIAL_INFO": "21:100103:1,21:100203:1,22:7002:6,22:9002:6",
        "P_COST_INFO": "30:0:4000",
        "P_BYPRODUCT_INFO": "",
        "P_EXTRA_TEXT": "\u653b\u6483\u30fb\u9632\u5fa120\uff05\u30a2\u30c3\u30d7\u3092\u751f\u6210\u3057\u307e\u3059\u304c\u3088\u308d\u3057\u3044\u3067\u3059\u304b",
        "P_SCHEDULE_ID": "0",
        "P_COUNTER_ID": "0",
        "P_NEED_SWITCH_INFO": "61200029",
        "P_HIDE_SWITCH_INFO": "0",
        "P_OPEN_SWITCH_INFO": "0",
        "P_NEW_SWITCH_INFO": "51100028",
        "P_CREATEDATE": "2018-01-25 23:39:23",
        "P_UPDATEDATE": "2018-01-25 23:39:23"
    },
    {
        "P_RECIPE_ID": "10029",
        "P_SUMMONER_ID": "1",
        "P_DISPORDER": "30",
        "P_TARGET_TYPE": "21",
        "P_TARGET_ID": "100800",
        "P_POSSESSION": "1",
        "P_MATERIAL_INFO": "22:5002:6,22:7001:6,22:8001:6",
        "P_COST_INFO": "30:0:3000",
        "P_BYPRODUCT_INFO": "",
        "P_EXTRA_TEXT": "\uff28\uff30\u534a\u5206\u4ee5\u4e0a\u6642\u3001\u653b\u6483\u529b20\uff05\u30a2\u30c3\u30d7\u3092\u751f\u6210\u3057\u307e\u3059\u304c\u3088\u308d\u3057\u3044\u3067\u3059\u304b",
        "P_SCHEDULE_ID": "0",
        "P_COUNTER_ID": "0",
        "P_NEED_SWITCH_INFO": "61200030",
        "P_HIDE_SWITCH_INFO": "0",
        "P_OPEN_SWITCH_INFO": "0",
        "P_NEW_SWITCH_INFO": "51100029",
        "P_CREATEDATE": "2018-01-25 23:39:23",
        "P_UPDATEDATE": "2018-01-25 23:39:23"
    },
    {
        "P_RECIPE_ID": "10030",
        "P_SUMMONER_ID": "1",
        "P_DISPORDER": "31",
        "P_TARGET_TYPE": "21",
        "P_TARGET_ID": "100810",
        "P_POSSESSION": "1",
        "P_MATERIAL_INFO": "22:5002:6,22:9001:6,22:11001:6",
        "P_COST_INFO": "30:0:1000",
        "P_BYPRODUCT_INFO": "",
        "P_EXTRA_TEXT": "\uff28\uff30\u534a\u5206\u4ee5\u4e0b\u6642\u3001\u9632\u5fa1\u529b\u30fb\u9b54\u9632\u529b20\uff05\u30a2\u30c3\u30d7\u3092\u751f\u6210\u3057\u307e\u3059\u304c\u3088\u308d\u3057\u3044\u3067\u3059\u304b",
        "P_SCHEDULE_ID": "0",
        "P_COUNTER_ID": "0",
        "P_NEED_SWITCH_INFO": "61200031",
        "P_HIDE_SWITCH_INFO": "0",
        "P_OPEN_SWITCH_INFO": "0",
        "P_NEW_SWITCH_INFO": "51100030",
        "P_CREATEDATE": "2018-01-25 23:39:23",
        "P_UPDATEDATE": "2018-01-25 23:39:23"
    },
    {
        "P_RECIPE_ID": "10031",
        "P_SUMMONER_ID": "1",
        "P_DISPORDER": "32",
        "P_TARGET_TYPE": "21",
        "P_TARGET_ID": "100820",
        "P_POSSESSION": "1",
        "P_MATERIAL_INFO": "21:100800:1,22:7002:6,22:8002:6,22:10002:6",
        "P_COST_INFO": "30:0:4000",
        "P_BYPRODUCT_INFO": "",
        "P_EXTRA_TEXT": "\uff28\uff30\u6e80\u30bf\u30f3\u6642\u3001\u653b\u6483\u529b25\uff05\u30a2\u30c3\u30d7\u3092\u751f\u6210\u3057\u307e\u3059\u304c\u3088\u308d\u3057\u3044\u3067\u3059\u304b",
        "P_SCHEDULE_ID": "0",
        "P_COUNTER_ID": "0",
        "P_NEED_SWITCH_INFO": "61200032",
        "P_HIDE_SWITCH_INFO": "0",
        "P_OPEN_SWITCH_INFO": "0",
        "P_NEW_SWITCH_INFO": "51100031",
        "P_CREATEDATE": "2018-01-25 23:39:23",
        "P_UPDATEDATE": "2018-01-25 23:39:23"
    },
    {
        "P_RECIPE_ID": "10032",
        "P_SUMMONER_ID": "1",
        "P_DISPORDER": "33",
        "P_TARGET_TYPE": "21",
        "P_TARGET_ID": "100900",
        "P_POSSESSION": "1",
        "P_MATERIAL_INFO": "22:7001:6,22:8000:8,22:8001:6",
        "P_COST_INFO": "30:0:3000",
        "P_BYPRODUCT_INFO": "",
        "P_EXTRA_TEXT": "BB\u30b2\u30fc\u30b8\u534a\u5206\u4ee5\u4e0a\u6642\u3001\u653b\u6483\u529b20\uff05\u30a2\u30c3\u30d7\u3092\u751f\u6210\u3057\u307e\u3059\u304c\u3088\u308d\u3057\u3044\u3067\u3059\u304b",
        "P_SCHEDULE_ID": "0",
        "P_COUNTER_ID": "0",
        "P_NEED_SWITCH_INFO": "61200033",
        "P_HIDE_SWITCH_INFO": "0",
        "P_OPEN_SWITCH_INFO": "0",
        "P_NEW_SWITCH_INFO": "51100032",
        "P_CREATEDATE": "2018-01-25 23:39:23",
        "P_UPDATEDATE": "2018-01-25 23:39:23"
    },
    {
        "P_RECIPE_ID": "10033",
        "P_SUMMONER_ID": "1",
        "P_DISPORDER": "34",
        "P_TARGET_TYPE": "21",
        "P_TARGET_ID": "100910",
        "P_POSSESSION": "1",
        "P_MATERIAL_INFO": "21:100900:1,22:7002:6,22:8002:6,22:10002:6",
        "P_COST_INFO": "30:0:4000",
        "P_BYPRODUCT_INFO": "",
        "P_EXTRA_TEXT": "BB\u30b2\u30fc\u30b8\u6e80\u30bf\u30f3\u6642\u3001\u653b\u6483\u529b25\uff05\u30a2\u30c3\u30d7\u3092\u751f\u6210\u3057\u307e\u3059\u304c\u3088\u308d\u3057\u3044\u3067\u3059\u304b",
        "P_SCHEDULE_ID": "0",
        "P_COUNTER_ID": "0",
        "P_NEED_SWITCH_INFO": "61200034",
        "P_HIDE_SWITCH_INFO": "0",
        "P_OPEN_SWITCH_INFO": "0",
        "P_NEW_SWITCH_INFO": "51100033",
        "P_CREATEDATE": "2018-01-25 23:39:23",
        "P_UPDATEDATE": "2018-01-25 23:39:23"
    },
    {
        "P_RECIPE_ID": "10034",
        "P_SUMMONER_ID": "1",
        "P_DISPORDER": "35",
        "P_TARGET_TYPE": "21",
        "P_TARGET_ID": "200000",
        "P_POSSESSION": "1",
        "P_MATERIAL_INFO": "22:8000:10,22:8001:6",
        "P_COST_INFO": "30:0:1000",
        "P_BYPRODUCT_INFO": "",
        "P_EXTRA_TEXT": "\u8987\u65a7\u30de\u30ea\u30e5\u30c7\u30d5\u30b9\u3092\u751f\u6210\u3057\u307e\u3059\u304c\u3088\u308d\u3057\u3044\u3067\u3059\u304b",
        "P_SCHEDULE_ID": "0",
        "P_COUNTER_ID": "0",
        "P_NEED_SWITCH_INFO": "61200035",
        "P_HIDE_SWITCH_INFO": "0",
        "P_OPEN_SWITCH_INFO": "0",
        "P_NEW_SWITCH_INFO": "51100034",
        "P_CREATEDATE": "2018-01-25 23:39:23",
        "P_UPDATEDATE": "2018-01-25 23:39:23"
    },
    {
        "P_RECIPE_ID": "10035",
        "P_SUMMONER_ID": "1",
        "P_DISPORDER": "36",
        "P_TARGET_TYPE": "21",
        "P_TARGET_ID": "200001",
        "P_POSSESSION": "1",
        "P_MATERIAL_INFO": "21:200000:1,22:8002:4",
        "P_COST_INFO": "30:0:2000",
        "P_BYPRODUCT_INFO": "",
        "P_EXTRA_TEXT": "\u9b54\u795e\u65a7\u30ed\u30fc\u30c9\u30fb\u30de\u30b0\u30ec\u30b9\u3092\u751f\u6210\u3057\u307e\u3059\u304c\u3088\u308d\u3057\u3044\u3067\u3059\u304b",
        "P_SCHEDULE_ID": "0",
        "P_COUNTER_ID": "0",
        "P_NEED_SWITCH_INFO": "61200036",
        "P_HIDE_SWITCH_INFO": "0",
        "P_OPEN_SWITCH_INFO": "0",
        "P_NEW_SWITCH_INFO": "51100035",
        "P_CREATEDATE": "2018-01-25 23:39:23",
        "P_UPDATEDATE": "2018-01-25 23:39:23"
    },
    {
        "P_RECIPE_ID": "10036",
        "P_SUMMONER_ID": "1",
        "P_DISPORDER": "37",
        "P_TARGET_TYPE": "21",
        "P_TARGET_ID": "200100",
        "P_POSSESSION": "1",
        "P_MATERIAL_INFO": "22:8000:10,22:8001:6",
        "P_COST_INFO": "30:0:1000",
        "P_BYPRODUCT_INFO": "",
        "P_EXTRA_TEXT": "\u30af\u30ea\u30c6\u30a3\u30ab\u30eb\u30c0\u30e1\u30fc\u30b85%\u30a2\u30c3\u30d7\u3092\u751f\u6210\u3057\u307e\u3059\u304c\u3088\u308d\u3057\u3044\u3067\u3059\u304b",
        "P_SCHEDULE_ID": "0",
        "P_COUNTER_ID": "0",
        "P_NEED_SWITCH_INFO": "61200037",
        "P_HIDE_SWITCH_INFO": "0",
        "P_OPEN_SWITCH_INFO": "0",
        "P_NEW_SWITCH_INFO": "51100036",
        "P_CREATEDATE": "2018-01-25 23:39:23",
        "P_UPDATEDATE": "2018-01-25 23:39:23"
    },
    {
        "P_RECIPE_ID": "10037",
        "P_SUMMONER_ID": "1",
        "P_DISPORDER": "38",
        "P_TARGET_TYPE": "21",
        "P_TARGET_ID": "200101",
        "P_POSSESSION": "1",
        "P_MATERIAL_INFO": "21:200100:1,22:8002:4",
        "P_COST_INFO": "30:0:1000",
        "P_BYPRODUCT_INFO": "",
        "P_EXTRA_TEXT": "\u30af\u30ea\u30c6\u30a3\u30ab\u30eb\u30c0\u30e1\u30fc\u30b810%\u30a2\u30c3\u30d7\u3092\u751f\u6210\u3057\u307e\u3059\u304c\u3088\u308d\u3057\u3044\u3067\u3059\u304b",
        "P_SCHEDULE_ID": "0",
        "P_COUNTER_ID": "0",
        "P_NEED_SWITCH_INFO": "61200038",
        "P_HIDE_SWITCH_INFO": "0",
        "P_OPEN_SWITCH_INFO": "0",
        "P_NEW_SWITCH_INFO": "51100037",
        "P_CREATEDATE": "2018-01-25 23:39:23",
        "P_UPDATEDATE": "2018-01-25 23:39:23"
    },
    {
        "P_RECIPE_ID": "10038",
        "P_SUMMONER_ID": "1",
        "P_DISPORDER": "39",
        "P_TARGET_TYPE": "21",
        "P_TARGET_ID": "200102",
        "P_POSSESSION": "1",
        "P_MATERIAL_INFO": "21:200101:1,21:100820:1,22:30000:1",
        "P_COST_INFO": "30:0:2000",
        "P_BYPRODUCT_INFO": "",
        "P_EXTRA_TEXT": "\u30af\u30ea\u30c6\u30a3\u30ab\u30eb\u30c0\u30e1\u30fc\u30b815%\u30a2\u30c3\u30d7\u3092\u751f\u6210\u3057\u307e\u3059\u304c\u3088\u308d\u3057\u3044\u3067\u3059\u304b",
        "P_SCHEDULE_ID": "0",
        "P_COUNTER_ID": "0",
        "P_NEED_SWITCH_INFO": "61200039",
        "P_HIDE_SWITCH_INFO": "0",
        "P_OPEN_SWITCH_INFO": "0",
        "P_NEW_SWITCH_INFO": "51100038",
        "P_CREATEDATE": "2018-01-25 23:39:23",
        "P_UPDATEDATE": "2018-01-25 23:39:23"
    },
    {
        "P_RECIPE_ID": "10039",
        "P_SUMMONER_ID": "1",
        "P_DISPORDER": "40",
        "P_TARGET_TYPE": "21",
        "P_TARGET_ID": "300000",
        "P_POSSESSION": "1",
        "P_MATERIAL_INFO": "22:10000:10,22:10001:6,22:20000:4",
        "P_COST_INFO": "30:0:1000",
        "P_BYPRODUCT_INFO": "",
        "P_EXTRA_TEXT": "\u738b\u5149\u306e\u82b1\u3092\u751f\u6210\u3057\u307e\u3059\u304c\u3088\u308d\u3057\u3044\u3067\u3059\u304b",
        "P_SCHEDULE_ID": "0",
        "P_COUNTER_ID": "0",
        "P_NEED_SWITCH_INFO": "61200040",
        "P_HIDE_SWITCH_INFO": "0",
        "P_OPEN_SWITCH_INFO": "0",
        "P_NEW_SWITCH_INFO": "51100039",
        "P_CREATEDATE": "2018-01-25 23:39:23",
        "P_UPDATEDATE": "2018-01-25 23:39:23"
    },
    {
        "P_RECIPE_ID": "10040",
        "P_SUMMONER_ID": "1",
        "P_DISPORDER": "41",
        "P_TARGET_TYPE": "21",
        "P_TARGET_ID": "300001",
        "P_POSSESSION": "1",
        "P_MATERIAL_INFO": "21:300000:1,22:10002:4,22:20000:8",
        "P_COST_INFO": "30:0:1000",
        "P_BYPRODUCT_INFO": "",
        "P_EXTRA_TEXT": "\u795e\u5854\u306e\u82b1\u3092\u751f\u6210\u3057\u307e\u3059\u304c\u3088\u308d\u3057\u3044\u3067\u3059\u304b",
        "P_SCHEDULE_ID": "0",
        "P_COUNTER_ID": "0",
        "P_NEED_SWITCH_INFO": "61200041",
        "P_HIDE_SWITCH_INFO": "0",
        "P_OPEN_SWITCH_INFO": "0",
        "P_NEW_SWITCH_INFO": "51100040",
        "P_CREATEDATE": "2018-01-25 23:39:23",
        "P_UPDATEDATE": "2018-01-25 23:39:23"
    },
    {
        "P_RECIPE_ID": "10041",
        "P_SUMMONER_ID": "1",
        "P_DISPORDER": "42",
        "P_TARGET_TYPE": "21",
        "P_TARGET_ID": "300002",
        "P_POSSESSION": "1",
        "P_MATERIAL_INFO": "21:300001:1,21:100910:1,22:30000:1",
        "P_COST_INFO": "30:0:2000",
        "P_BYPRODUCT_INFO": "",
        "P_EXTRA_TEXT": "\u795e\u81e3\u306e\u82b1\u3092\u751f\u6210\u3057\u307e\u3059\u304c\u3088\u308d\u3057\u3044\u3067\u3059\u304b",
        "P_SCHEDULE_ID": "0",
        "P_COUNTER_ID": "0",
        "P_NEED_SWITCH_INFO": "61200042",
        "P_HIDE_SWITCH_INFO": "0",
        "P_OPEN_SWITCH_INFO": "0",
        "P_NEW_SWITCH_INFO": "51100041",
        "P_CREATEDATE": "2018-01-25 23:39:23",
        "P_UPDATEDATE": "2018-01-25 23:39:23"
    },
    {
        "P_RECIPE_ID": "10042",
        "P_SUMMONER_ID": "1",
        "P_DISPORDER": "43",
        "P_TARGET_TYPE": "21",
        "P_TARGET_ID": "400000",
        "P_POSSESSION": "1",
        "P_MATERIAL_INFO": "21:200000:1,20:1300:5,22:20004:4",
        "P_COST_INFO": "30:0:1000",
        "P_BYPRODUCT_INFO": "",
        "P_EXTRA_TEXT": "\u6280\u5b9d\u30d0\u30c8\u30eb\u30d6\u30fc\u30b9\u30bf\u30fc\u3092\u751f\u6210\u3057\u307e\u3059\u304c\u3088\u308d\u3057\u3044\u3067\u3059\u304b",
        "P_SCHEDULE_ID": "0",
        "P_COUNTER_ID": "0",
        "P_NEED_SWITCH_INFO": "61200043",
        "P_HIDE_SWITCH_INFO": "0",
        "P_OPEN_SWITCH_INFO": "0",
        "P_NEW_SWITCH_INFO": "51100042",
        "P_CREATEDATE": "2018-01-25 23:39:23",
        "P_UPDATEDATE": "2018-01-25 23:39:23"
    },
    {
        "P_RECIPE_ID": "10043",
        "P_SUMMONER_ID": "2",
        "P_DISPORDER": "44",
        "P_TARGET_TYPE": "21",
        "P_TARGET_ID": "400100",
        "P_POSSESSION": "1",
        "P_MATERIAL_INFO": "21:100202:1,20:1020:5,22:20005:4",
        "P_COST_INFO": "30:0:2000",
        "P_BYPRODUCT_INFO": "",
        "P_EXTRA_TEXT": "\u7652\u5b9d\u30cf\u30fc\u30c8\u30d6\u30fc\u30b9\u30bf\u30fc\u3092\u751f\u6210\u3057\u307e\u3059\u304c\u3088\u308d\u3057\u3044\u3067\u3059\u304b",
        "P_SCHEDULE_ID": "0",
        "P_COUNTER_ID": "0",
        "P_NEED_SWITCH_INFO": "61200044",
        "P_HIDE_SWITCH_INFO": "0",
        "P_OPEN_SWITCH_INFO": "0",
        "P_NEW_SWITCH_INFO": "51100043",
        "P_CREATEDATE": "2018-01-25 23:39:23",
        "P_UPDATEDATE": "2018-01-25 23:39:23"
    },
    {
        "P_RECIPE_ID": "10044",
        "P_SUMMONER_ID": "1",
        "P_DISPORDER": "45",
        "P_TARGET_TYPE": "21",
        "P_TARGET_ID": "400200",
        "P_POSSESSION": "1",
        "P_MATERIAL_INFO": "21:400000:1,21:400100:1,22:30000:1",
        "P_COST_INFO": "30:0:1000",
        "P_BYPRODUCT_INFO": "",
        "P_EXTRA_TEXT": "\u8ce2\u5b9d\u30d0\u30c8\u30eb\u30d6\u30fc\u30b9\u30bf\u30fc\u3092\u751f\u6210\u3057\u307e\u3059\u304c\u3088\u308d\u3057\u3044\u3067\u3059\u304b",
        "P_SCHEDULE_ID": "0",
        "P_COUNTER_ID": "0",
        "P_NEED_SWITCH_INFO": "61200045",
        "P_HIDE_SWITCH_INFO": "0",
        "P_OPEN_SWITCH_INFO": "0",
        "P_NEW_SWITCH_INFO": "51100044",
        "P_CREATEDATE": "2018-01-25 23:39:23",
        "P_UPDATEDATE": "2018-01-25 23:39:23"
    },
    {
        "P_RECIPE_ID": "10045",
        "P_SUMMONER_ID": "1",
        "P_DISPORDER": "46",
        "P_TARGET_TYPE": "21",
        "P_TARGET_ID": "500010",
        "P_POSSESSION": "1",
        "P_MATERIAL_INFO": "22:10000:10,22:10001:6,22:20000:4",
        "P_COST_INFO": "30:0:1000",
        "P_BYPRODUCT_INFO": "",
        "P_EXTRA_TEXT": "\u30d5\u30a7\u30cb\u30c3\u30af\u30b9\u306e\u773c\u3092\u751f\u6210\u3057\u307e\u3059\u304c\u3088\u308d\u3057\u3044\u3067\u3059\u304b",
        "P_SCHEDULE_ID": "0",
        "P_COUNTER_ID": "0",
        "P_NEED_SWITCH_INFO": "61200046",
        "P_HIDE_SWITCH_INFO": "0",
        "P_OPEN_SWITCH_INFO": "0",
        "P_NEW_SWITCH_INFO": "51100045",
        "P_CREATEDATE": "2018-01-25 23:39:23",
        "P_UPDATEDATE": "2018-01-25 23:39:23"
    },
    {
        "P_RECIPE_ID": "10046",
        "P_SUMMONER_ID": "1",
        "P_DISPORDER": "47",
        "P_TARGET_TYPE": "21",
        "P_TARGET_ID": "500011",
        "P_POSSESSION": "1",
        "P_MATERIAL_INFO": "21:500010:1,22:10002:4,22:20000:8",
        "P_COST_INFO": "30:0:2000",
        "P_BYPRODUCT_INFO": "",
        "P_EXTRA_TEXT": "\u30d5\u30a7\u30eb\u30b6\u30fc\u306e\u773c\u3092\u751f\u6210\u3057\u307e\u3059\u304c\u3088\u308d\u3057\u3044\u3067\u3059\u304b",
        "P_SCHEDULE_ID": "0",
        "P_COUNTER_ID": "0",
        "P_NEED_SWITCH_INFO": "61200047",
        "P_HIDE_SWITCH_INFO": "0",
        "P_OPEN_SWITCH_INFO": "0",
        "P_NEW_SWITCH_INFO": "51100046",
        "P_CREATEDATE": "2018-01-25 23:39:23",
        "P_UPDATEDATE": "2018-01-25 23:39:23"
    },
    {
        "P_RECIPE_ID": "10047",
        "P_SUMMONER_ID": "2",
        "P_DISPORDER": "48",
        "P_TARGET_TYPE": "21",
        "P_TARGET_ID": "500200",
        "P_POSSESSION": "1",
        "P_MATERIAL_INFO": "21:100402:1,22:5002:6,22:20002:4",
        "P_COST_INFO": "30:0:2000",
        "P_BYPRODUCT_INFO": "",
        "P_EXTRA_TEXT": "\u95c7\u8863\u30c0\u30fc\u30af\u30a8\u30c7\u30e5\u30a2\u3092\u751f\u6210\u3057\u307e\u3059\u304c\u3088\u308d\u3057\u3044\u3067\u3059\u304b",
        "P_SCHEDULE_ID": "0",
        "P_COUNTER_ID": "0",
        "P_NEED_SWITCH_INFO": "61200048",
        "P_HIDE_SWITCH_INFO": "0",
        "P_OPEN_SWITCH_INFO": "0",
        "P_NEW_SWITCH_INFO": "51100047",
        "P_CREATEDATE": "2018-01-25 23:39:23",
        "P_UPDATEDATE": "2018-01-25 23:39:23"
    },
    {
        "P_RECIPE_ID": "10048",
        "P_SUMMONER_ID": "1",
        "P_DISPORDER": "49",
        "P_TARGET_TYPE": "21",
        "P_TARGET_ID": "600000",
        "P_POSSESSION": "1",
        "P_MATERIAL_INFO": "22:5002:6,22:6000:4,22:20006:4",
        "P_COST_INFO": "30:0:2000",
        "P_BYPRODUCT_INFO": "",
        "P_EXTRA_TEXT": "\u9b54\u77f3\u306e\u6b20\u7247\u3092\u751f\u6210\u3057\u307e\u3059\u304c\u3088\u308d\u3057\u3044\u3067\u3059\u304b",
        "P_SCHEDULE_ID": "0",
        "P_COUNTER_ID": "0",
        "P_NEED_SWITCH_INFO": "61200049",
        "P_HIDE_SWITCH_INFO": "0",
        "P_OPEN_SWITCH_INFO": "0",
        "P_NEW_SWITCH_INFO": "51100048",
        "P_CREATEDATE": "2018-01-25 23:39:23",
        "P_UPDATEDATE": "2018-01-25 23:39:23"
    },
    {
        "P_RECIPE_ID": "10049",
        "P_SUMMONER_ID": "1",
        "P_DISPORDER": "50",
        "P_TARGET_TYPE": "21",
        "P_TARGET_ID": "600001",
        "P_POSSESSION": "1",
        "P_MATERIAL_INFO": "21:600000:1,22:5003:4,22:6000:8,22:20006:8",
        "P_COST_INFO": "30:0:1000",
        "P_BYPRODUCT_INFO": "",
        "P_EXTRA_TEXT": "\u9b54\u6676\u77f3\u306e\u6b20\u7247\u3092\u751f\u6210\u3057\u307e\u3059\u304c\u3088\u308d\u3057\u3044\u3067\u3059\u304b",
        "P_SCHEDULE_ID": "0",
        "P_COUNTER_ID": "0",
        "P_NEED_SWITCH_INFO": "61200050",
        "P_HIDE_SWITCH_INFO": "0",
        "P_OPEN_SWITCH_INFO": "0",
        "P_NEW_SWITCH_INFO": "51100049",
        "P_CREATEDATE": "2018-01-25 23:39:23",
        "P_UPDATEDATE": "2018-01-25 23:39:23"
    },
    {
        "P_RECIPE_ID": "10050",
        "P_SUMMONER_ID": "1",
        "P_DISPORDER": "51",
        "P_TARGET_TYPE": "21",
        "P_TARGET_ID": "600100",
        "P_POSSESSION": "1",
        "P_MATERIAL_INFO": "22:6000:4,22:11001:6,22:20001:4",
        "P_COST_INFO": "30:0:2000",
        "P_BYPRODUCT_INFO": "",
        "P_EXTRA_TEXT": "\u30df\u30ed\u30af\u306e\u73e0\u3092\u751f\u6210\u3057\u307e\u3059\u304c\u3088\u308d\u3057\u3044\u3067\u3059\u304b",
        "P_SCHEDULE_ID": "0",
        "P_COUNTER_ID": "0",
        "P_NEED_SWITCH_INFO": "61200051",
        "P_HIDE_SWITCH_INFO": "0",
        "P_OPEN_SWITCH_INFO": "0",
        "P_NEW_SWITCH_INFO": "51100050",
        "P_CREATEDATE": "2018-01-25 23:39:23",
        "P_UPDATEDATE": "2018-01-25 23:39:23"
    },
    {
        "P_RECIPE_ID": "10051",
        "P_SUMMONER_ID": "1",
        "P_DISPORDER": "52",
        "P_TARGET_TYPE": "21",
        "P_TARGET_ID": "600101",
        "P_POSSESSION": "1",
        "P_MATERIAL_INFO": "21:600100:1,22:6000:8,22:11002:4,22:20001:8",
        "P_COST_INFO": "30:0:1000",
        "P_BYPRODUCT_INFO": "",
        "P_EXTRA_TEXT": "\u30a2\u30eb\u30bc\u30aa\u30f3\u306e\u73e0\u3092\u751f\u6210\u3057\u307e\u3059\u304c\u3088\u308d\u3057\u3044\u3067\u3059\u304b",
        "P_SCHEDULE_ID": "0",
        "P_COUNTER_ID": "0",
        "P_NEED_SWITCH_INFO": "61200052",
        "P_HIDE_SWITCH_INFO": "0",
        "P_OPEN_SWITCH_INFO": "0",
        "P_NEW_SWITCH_INFO": "51100051",
        "P_CREATEDATE": "2018-01-25 23:39:23",
        "P_UPDATEDATE": "2018-01-25 23:39:23"
    },
    {
        "P_RECIPE_ID": "10052",
        "P_SUMMONER_ID": "1",
        "P_DISPORDER": "53",
        "P_TARGET_TYPE": "21",
        "P_TARGET_ID": "700000",
        "P_POSSESSION": "1",
        "P_MATERIAL_INFO": "21:100103:1,21:600001:1,22:30000:1",
        "P_COST_INFO": "30:0:3000",
        "P_BYPRODUCT_INFO": "",
        "P_EXTRA_TEXT": "\uff22\uff22\u5a01\u529b\u30a2\u30c3\u30d7\u3092\u751f\u6210\u3057\u307e\u3059\u304c\u3088\u308d\u3057\u3044\u3067\u3059\u304b",
        "P_SCHEDULE_ID": "0",
        "P_COUNTER_ID": "0",
        "P_NEED_SWITCH_INFO": "61200053",
        "P_HIDE_SWITCH_INFO": "0",
        "P_OPEN_SWITCH_INFO": "0",
        "P_NEW_SWITCH_INFO": "51100052",
        "P_CREATEDATE": "2018-01-25 23:39:23",
        "P_UPDATEDATE": "2018-01-25 23:39:23"
    },
    {
        "P_RECIPE_ID": "10053",
        "P_SUMMONER_ID": "1",
        "P_DISPORDER": "54",
        "P_TARGET_TYPE": "21",
        "P_TARGET_ID": "700001",
        "P_POSSESSION": "1",
        "P_MATERIAL_INFO": "21:700000:1,22:15000:10",
        "P_COST_INFO": "30:0:1000",
        "P_BYPRODUCT_INFO": "",
        "P_EXTRA_TEXT": "\uff22\uff22\u5a01\u529b\u30a2\u30c3\u30d7\uff12\u3092\u751f\u6210\u3057\u307e\u3059\u304c\u3088\u308d\u3057\u3044\u3067\u3059\u304b",
        "P_SCHEDULE_ID": "0",
        "P_COUNTER_ID": "0",
        "P_NEED_SWITCH_INFO": "61200054",
        "P_HIDE_SWITCH_INFO": "0",
        "P_OPEN_SWITCH_INFO": "0",
        "P_NEW_SWITCH_INFO": "51100053",
        "P_CREATEDATE": "2018-01-25 23:39:23",
        "P_UPDATEDATE": "2018-01-25 23:39:23"
    },
    {
        "P_RECIPE_ID": "10054",
        "P_SUMMONER_ID": "1",
        "P_DISPORDER": "55",
        "P_TARGET_TYPE": "21",
        "P_TARGET_ID": "800000",
        "P_POSSESSION": "1",
        "P_MATERIAL_INFO": "22:2000:6,22:7000:4,22:8000:4",
        "P_COST_INFO": "30:0:2000",
        "P_BYPRODUCT_INFO": "",
        "P_EXTRA_TEXT": "\u6bd2\u30fb\u546a\u3044\u4ed8\u4e0e\u3092\u751f\u6210\u3057\u307e\u3059\u304c\u3088\u308d\u3057\u3044\u3067\u3059\u304b",
        "P_SCHEDULE_ID": "0",
        "P_COUNTER_ID": "0",
        "P_NEED_SWITCH_INFO": "61200055",
        "P_HIDE_SWITCH_INFO": "0",
        "P_OPEN_SWITCH_INFO": "0",
        "P_NEW_SWITCH_INFO": "51100054",
        "P_CREATEDATE": "2018-01-25 23:39:23",
        "P_UPDATEDATE": "2018-01-25 23:39:23"
    },
    {
        "P_RECIPE_ID": "10055",
        "P_SUMMONER_ID": "1",
        "P_DISPORDER": "56",
        "P_TARGET_TYPE": "21",
        "P_TARGET_ID": "800010",
        "P_POSSESSION": "1",
        "P_MATERIAL_INFO": "22:2001:6,22:7000:4,22:8000:4",
        "P_COST_INFO": "30:0:2000",
        "P_BYPRODUCT_INFO": "",
        "P_EXTRA_TEXT": "\u602a\u6211\u30fb\u5f31\u4f53\u4ed8\u4e0e\u3092\u751f\u6210\u3057\u307e\u3059\u304c\u3088\u308d\u3057\u3044\u3067\u3059\u304b",
        "P_SCHEDULE_ID": "0",
        "P_COUNTER_ID": "0",
        "P_NEED_SWITCH_INFO": "61200056",
        "P_HIDE_SWITCH_INFO": "0",
        "P_OPEN_SWITCH_INFO": "0",
        "P_NEW_SWITCH_INFO": "51100055",
        "P_CREATEDATE": "2018-01-25 23:39:23",
        "P_UPDATEDATE": "2018-01-25 23:39:23"
    },
    {
        "P_RECIPE_ID": "10056",
        "P_SUMMONER_ID": "1",
        "P_DISPORDER": "57",
        "P_TARGET_TYPE": "21",
        "P_TARGET_ID": "800020",
        "P_POSSESSION": "1",
        "P_MATERIAL_INFO": "22:2002:6,22:7000:4,22:8000:4",
        "P_COST_INFO": "30:0:3000",
        "P_BYPRODUCT_INFO": "",
        "P_EXTRA_TEXT": "\u96d1\u5ff5\u30fb\u865a\u8131\u4ed8\u4e0e\u3092\u751f\u6210\u3057\u307e\u3059\u304c\u3088\u308d\u3057\u3044\u3067\u3059\u304b",
        "P_SCHEDULE_ID": "0",
        "P_COUNTER_ID": "0",
        "P_NEED_SWITCH_INFO": "61200057",
        "P_HIDE_SWITCH_INFO": "0",
        "P_OPEN_SWITCH_INFO": "0",
        "P_NEW_SWITCH_INFO": "51100056",
        "P_CREATEDATE": "2018-01-25 23:39:23",
        "P_UPDATEDATE": "2018-01-25 23:39:23"
    },
    {
        "P_RECIPE_ID": "10057",
        "P_SUMMONER_ID": "1",
        "P_DISPORDER": "58",
        "P_TARGET_TYPE": "21",
        "P_TARGET_ID": "800030",
        "P_POSSESSION": "1",
        "P_MATERIAL_INFO": "22:2002:6,22:7000:4,22:8000:4",
        "P_COST_INFO": "30:0:2000",
        "P_BYPRODUCT_INFO": "",
        "P_EXTRA_TEXT": "\u75c5\u6c17\u30fb\u9ebb\u75fa\u4ed8\u4e0e\u3092\u751f\u6210\u3057\u307e\u3059\u304c\u3088\u308d\u3057\u3044\u3067\u3059\u304b",
        "P_SCHEDULE_ID": "0",
        "P_COUNTER_ID": "0",
        "P_NEED_SWITCH_INFO": "61200058",
        "P_HIDE_SWITCH_INFO": "0",
        "P_OPEN_SWITCH_INFO": "0",
        "P_NEW_SWITCH_INFO": "51100057",
        "P_CREATEDATE": "2018-01-25 23:39:23",
        "P_UPDATEDATE": "2018-01-25 23:39:23"
    },
    {
        "P_RECIPE_ID": "10058",
        "P_SUMMONER_ID": "1",
        "P_DISPORDER": "59",
        "P_TARGET_TYPE": "21",
        "P_TARGET_ID": "800040",
        "P_POSSESSION": "1",
        "P_MATERIAL_INFO": "22:2001:6,22:7000:4,22:8000:4",
        "P_COST_INFO": "30:0:2000",
        "P_BYPRODUCT_INFO": "",
        "P_EXTRA_TEXT": "\u5e7b\u899a\u30fb\u6df7\u4e71\u4ed8\u4e0e\u3092\u751f\u6210\u3057\u307e\u3059\u304c\u3088\u308d\u3057\u3044\u3067\u3059\u304b",
        "P_SCHEDULE_ID": "0",
        "P_COUNTER_ID": "0",
        "P_NEED_SWITCH_INFO": "61200059",
        "P_HIDE_SWITCH_INFO": "0",
        "P_OPEN_SWITCH_INFO": "0",
        "P_NEW_SWITCH_INFO": "51100058",
        "P_CREATEDATE": "2018-01-25 23:39:23",
        "P_UPDATEDATE": "2018-01-25 23:39:23"
    },
    {
        "P_RECIPE_ID": "10059",
        "P_SUMMONER_ID": "1",
        "P_DISPORDER": "60",
        "P_TARGET_TYPE": "21",
        "P_TARGET_ID": "900000",
        "P_POSSESSION": "1",
        "P_MATERIAL_INFO": "22:2000:12,22:10000:6,22:5001:6",
        "P_COST_INFO": "30:0:2000",
        "P_BYPRODUCT_INFO": "",
        "P_EXTRA_TEXT": "\u6bd2\u30fb\u546a\u3044\u8010\u602730\u3092\u751f\u6210\u3057\u307e\u3059\u304c\u3088\u308d\u3057\u3044\u3067\u3059\u304b",
        "P_SCHEDULE_ID": "0",
        "P_COUNTER_ID": "0",
        "P_NEED_SWITCH_INFO": "61200060",
        "P_HIDE_SWITCH_INFO": "0",
        "P_OPEN_SWITCH_INFO": "0",
        "P_NEW_SWITCH_INFO": "51100059",
        "P_CREATEDATE": "2018-01-25 23:39:23",
        "P_UPDATEDATE": "2018-01-25 23:39:23"
    },
    {
        "P_RECIPE_ID": "10060",
        "P_SUMMONER_ID": "1",
        "P_DISPORDER": "61",
        "P_TARGET_TYPE": "21",
        "P_TARGET_ID": "900010",
        "P_POSSESSION": "1",
        "P_MATERIAL_INFO": "22:2001:12,22:10000:6,22:5001:6",
        "P_COST_INFO": "30:0:2000",
        "P_BYPRODUCT_INFO": "",
        "P_EXTRA_TEXT": "\u602a\u6211\u30fb\u5f31\u4f53\u30fb\u75c5\u6c17\u30fb\u9ebb\u75fa\u8010\u602730\u3092\u751f\u6210\u3057\u307e\u3059\u304c\u3088\u308d\u3057\u3044\u3067\u3059\u304b",
        "P_SCHEDULE_ID": "0",
        "P_COUNTER_ID": "0",
        "P_NEED_SWITCH_INFO": "61200061",
        "P_HIDE_SWITCH_INFO": "0",
        "P_OPEN_SWITCH_INFO": "0",
        "P_NEW_SWITCH_INFO": "51100060",
        "P_CREATEDATE": "2018-01-25 23:39:23",
        "P_UPDATEDATE": "2018-01-25 23:39:23"
    },
    {
        "P_RECIPE_ID": "10061",
        "P_SUMMONER_ID": "1",
        "P_DISPORDER": "62",
        "P_TARGET_TYPE": "21",
        "P_TARGET_ID": "900020",
        "P_POSSESSION": "1",
        "P_MATERIAL_INFO": "22:2002:12,22:10000:6,22:5001:6",
        "P_COST_INFO": "30:0:2000",
        "P_BYPRODUCT_INFO": "",
        "P_EXTRA_TEXT": "\u96d1\u5ff5\u30fb\u865a\u8131\u30fb\u5e7b\u899a\u30fb\u6df7\u4e71\u8010\u602730\u3092\u751f\u6210\u3057\u307e\u3059\u304c\u3088\u308d\u3057\u3044\u3067\u3059\u304b",
        "P_SCHEDULE_ID": "0",
        "P_COUNTER_ID": "0",
        "P_NEED_SWITCH_INFO": "61200062",
        "P_HIDE_SWITCH_INFO": "0",
        "P_OPEN_SWITCH_INFO": "0",
        "P_NEW_SWITCH_INFO": "51100061",
        "P_CREATEDATE": "2018-01-25 23:39:23",
        "P_UPDATEDATE": "2018-01-25 23:39:23"
    },
    {
        "P_RECIPE_ID": "10062",
        "P_SUMMONER_ID": "2",
        "P_DISPORDER": "1",
        "P_TARGET_TYPE": "21",
        "P_TARGET_ID": "100100",
        "P_POSSESSION": "1",
        "P_MATERIAL_INFO": "22:7000:6",
        "P_COST_INFO": "30:0:1000",
        "P_BYPRODUCT_INFO": "",
        "P_EXTRA_TEXT": "\u540d\u5263\u30d6\u30ec\u30a4\u30d6\u30e9\u30a4\u30c9\u3092\u751f\u6210\u3057\u307e\u3059\u304c\u3088\u308d\u3057\u3044\u3067\u3059\u304b",
        "P_SCHEDULE_ID": "0",
        "P_COUNTER_ID": "0",
        "P_NEED_SWITCH_INFO": "0",
        "P_HIDE_SWITCH_INFO": "2000010",
        "P_OPEN_SWITCH_INFO": "0",
        "P_NEW_SWITCH_INFO": "51100062",
        "P_CREATEDATE": "2018-01-25 23:39:23",
        "P_UPDATEDATE": "2018-01-25 23:39:23"
    },
    {
        "P_RECIPE_ID": "10063",
        "P_SUMMONER_ID": "2",
        "P_DISPORDER": "2",
        "P_TARGET_TYPE": "21",
        "P_TARGET_ID": "100200",
        "P_POSSESSION": "1",
        "P_MATERIAL_INFO": "22:9000:6",
        "P_COST_INFO": "30:0:1000",
        "P_BYPRODUCT_INFO": "",
        "P_EXTRA_TEXT": "\u5de8\u4eba\u76fe\u30a8\u30d3\u30aa\u30dc\u3092\u751f\u6210\u3057\u307e\u3059\u304c\u3088\u308d\u3057\u3044\u3067\u3059\u304b",
        "P_SCHEDULE_ID": "0",
        "P_COUNTER_ID": "0",
        "P_NEED_SWITCH_INFO": "0",
        "P_HIDE_SWITCH_INFO": "2000010",
        "P_OPEN_SWITCH_INFO": "0",
        "P_NEW_SWITCH_INFO": "51100063",
        "P_CREATEDATE": "2018-01-25 23:39:23",
        "P_UPDATEDATE": "2018-01-25 23:39:23"
    },
    {
        "P_RECIPE_ID": "10064",
        "P_SUMMONER_ID": "2",
        "P_DISPORDER": "3",
        "P_TARGET_TYPE": "21",
        "P_TARGET_ID": "100300",
        "P_POSSESSION": "1",
        "P_MATERIAL_INFO": "22:11000:6",
        "P_COST_INFO": "30:0:1000",
        "P_BYPRODUCT_INFO": "",
        "P_EXTRA_TEXT": "\u9b54\u9632\u30a2\u30c3\u30d75\uff05\u3092\u751f\u6210\u3057\u307e\u3059\u304c\u3088\u308d\u3057\u3044\u3067\u3059\u304b",
        "P_SCHEDULE_ID": "0",
        "P_COUNTER_ID": "0",
        "P_NEED_SWITCH_INFO": "0",
        "P_HIDE_SWITCH_INFO": "2000010",
        "P_OPEN_SWITCH_INFO": "0",
        "P_NEW_SWITCH_INFO": "51100064",
        "P_CREATEDATE": "2018-01-25 23:39:23",
        "P_UPDATEDATE": "2018-01-25 23:39:23"
    },
    {
        "P_RECIPE_ID": "10065",
        "P_SUMMONER_ID": "2",
        "P_DISPORDER": "4",
        "P_TARGET_TYPE": "21",
        "P_TARGET_ID": "100400",
        "P_POSSESSION": "1",
        "P_MATERIAL_INFO": "22:5001:6",
        "P_COST_INFO": "30:0:1000",
        "P_BYPRODUCT_INFO": "",
        "P_EXTRA_TEXT": "\u9b3c\u93a7\u30ac\u30f4\u30a1\u30ea\u30a2\u30f3\u3092\u751f\u6210\u3057\u307e\u3059\u304c\u3088\u308d\u3057\u3044\u3067\u3059\u304b",
        "P_SCHEDULE_ID": "0",
        "P_COUNTER_ID": "0",
        "P_NEED_SWITCH_INFO": "0",
        "P_HIDE_SWITCH_INFO": "2000010",
        "P_OPEN_SWITCH_INFO": "0",
        "P_NEW_SWITCH_INFO": "51100065",
        "P_CREATEDATE": "2018-01-25 23:39:24",
        "P_UPDATEDATE": "2018-01-25 23:39:24"
    },
    {
        "P_RECIPE_ID": "100000",
        "P_SUMMONER_ID": "1",
        "P_DISPORDER": "1",
        "P_TARGET_TYPE": "11",
        "P_TARGET_ID": "100102",
        "P_POSSESSION": "1",
        "P_MATERIAL_INFO": "22:12000:3,22:14000:3,22:4001:5",
        "P_COST_INFO": "30:0:10000",
        "P_BYPRODUCT_INFO": "",
        "P_EXTRA_TEXT": "\u708e\u5263\u30e9\u30e0\u30ab\u3092\u751f\u6210\u3057\u307e\u3059\u304c\u3088\u308d\u3057\u3044\u3067\u3059\u304b",
        "P_SCHEDULE_ID": "0",
        "P_COUNTER_ID": "0",
        "P_NEED_SWITCH_INFO": "0",
        "P_HIDE_SWITCH_INFO": "0",
        "P_OPEN_SWITCH_INFO": "0",
        "P_NEW_SWITCH_INFO": "51200000",
        "P_CREATEDATE": "2018-01-25 23:39:24",
        "P_UPDATEDATE": "2018-01-25 23:39:24"
    },
    {
        "P_RECIPE_ID": "100001",
        "P_SUMMONER_ID": "1",
        "P_DISPORDER": "2",
        "P_TARGET_TYPE": "11",
        "P_TARGET_ID": "300142",
        "P_POSSESSION": "1",
        "P_MATERIAL_INFO": "22:12000:5,22:14000:5,22:4003:10",
        "P_COST_INFO": "30:0:10000",
        "P_BYPRODUCT_INFO": "",
        "P_EXTRA_TEXT": "\u8b77\u69cd\u30b0\u30e9\u30b7\u30b9\u3092\u751f\u6210\u3057\u307e\u3059\u304c\u3088\u308d\u3057\u3044\u3067\u3059\u304b",
        "P_SCHEDULE_ID": "0",
        "P_COUNTER_ID": "0",
        "P_NEED_SWITCH_INFO": "0",
        "P_HIDE_SWITCH_INFO": "0",
        "P_OPEN_SWITCH_INFO": "0",
        "P_NEW_SWITCH_INFO": "51200001",
        "P_CREATEDATE": "2018-01-25 23:39:24",
        "P_UPDATEDATE": "2018-01-25 23:39:24"
    },
    {
        "P_RECIPE_ID": "100002",
        "P_SUMMONER_ID": "1",
        "P_DISPORDER": "3",
        "P_TARGET_TYPE": "11",
        "P_TARGET_ID": "200172",
        "P_POSSESSION": "1",
        "P_MATERIAL_INFO": "22:14000:5,22:13000:5,22:4002:10",
        "P_COST_INFO": "30:0:10000",
        "P_BYPRODUCT_INFO": "",
        "P_EXTRA_TEXT": "\u6e05\u6756\u30c8\u30eb\u30af\u30fc\u30ec\u3092\u751f\u6210\u3057\u307e\u3059\u304c\u3088\u308d\u3057\u3044\u3067\u3059\u304b",
        "P_SCHEDULE_ID": "0",
        "P_COUNTER_ID": "0",
        "P_NEED_SWITCH_INFO": "61100002",
        "P_HIDE_SWITCH_INFO": "0",
        "P_OPEN_SWITCH_INFO": "0",
        "P_NEW_SWITCH_INFO": "51200002",
        "P_CREATEDATE": "2018-01-25 23:39:24",
        "P_UPDATEDATE": "2018-01-25 23:39:24"
    },
    {
        "P_RECIPE_ID": "100003",
        "P_SUMMONER_ID": "1",
        "P_DISPORDER": "4",
        "P_TARGET_TYPE": "11",
        "P_TARGET_ID": "600193",
        "P_POSSESSION": "1",
        "P_MATERIAL_INFO": "22:14000:10,22:13000:10,22:12001:5,22:4006:20",
        "P_COST_INFO": "30:0:10000",
        "P_BYPRODUCT_INFO": "",
        "P_EXTRA_TEXT": "\u5875\u65a7\u30d0\u30eb\u30b0\u30e9\u30e0\u3092\u751f\u6210\u3057\u307e\u3059\u304c\u3088\u308d\u3057\u3044\u3067\u3059\u304b",
        "P_SCHEDULE_ID": "0",
        "P_COUNTER_ID": "0",
        "P_NEED_SWITCH_INFO": "61100003",
        "P_HIDE_SWITCH_INFO": "0",
        "P_OPEN_SWITCH_INFO": "0",
        "P_NEW_SWITCH_INFO": "51200003",
        "P_CREATEDATE": "2018-01-25 23:39:24",
        "P_UPDATEDATE": "2018-01-25 23:39:24"
    },
    {
        "P_RECIPE_ID": "100004",
        "P_SUMMONER_ID": "1",
        "P_DISPORDER": "5",
        "P_TARGET_TYPE": "11",
        "P_TARGET_ID": "500223",
        "P_POSSESSION": "1",
        "P_MATERIAL_INFO": "22:12000:10,22:14000:10,22:12001:5,22:4005:20",
        "P_COST_INFO": "30:0:10000",
        "P_BYPRODUCT_INFO": "",
        "P_EXTRA_TEXT": "\u7815\u5149\u5263\u30d7\u30ed\u30ad\u30a2\u3092\u751f\u6210\u3057\u307e\u3059\u304c\u3088\u308d\u3057\u3044\u3067\u3059\u304b",
        "P_SCHEDULE_ID": "0",
        "P_COUNTER_ID": "0",
        "P_NEED_SWITCH_INFO": "61100004",
        "P_HIDE_SWITCH_INFO": "0",
        "P_OPEN_SWITCH_INFO": "0",
        "P_NEW_SWITCH_INFO": "51200004",
        "P_CREATEDATE": "2018-01-25 23:39:24",
        "P_UPDATEDATE": "2018-01-25 23:39:24"
    },
    {
        "P_RECIPE_ID": "100005",
        "P_SUMMONER_ID": "1",
        "P_DISPORDER": "6",
        "P_TARGET_TYPE": "11",
        "P_TARGET_ID": "400243",
        "P_POSSESSION": "1",
        "P_MATERIAL_INFO": "22:12000:10,22:13000:10,22:13001:5,22:4004:20",
        "P_COST_INFO": "30:0:10000",
        "P_BYPRODUCT_INFO": "",
        "P_EXTRA_TEXT": "\u96f7\u7a7f\u9283\u30b9\u30c6\u30e9\u3092\u751f\u6210\u3057\u307e\u3059\u304c\u3088\u308d\u3057\u3044\u3067\u3059\u304b",
        "P_SCHEDULE_ID": "0",
        "P_COUNTER_ID": "0",
        "P_NEED_SWITCH_INFO": "61100005",
        "P_HIDE_SWITCH_INFO": "0",
        "P_OPEN_SWITCH_INFO": "0",
        "P_NEW_SWITCH_INFO": "51200005",
        "P_CREATEDATE": "2018-01-25 23:39:24",
        "P_UPDATEDATE": "2018-01-25 23:39:24"
    },
    {
        "P_RECIPE_ID": "100006",
        "P_SUMMONER_ID": "1",
        "P_DISPORDER": "7",
        "P_TARGET_TYPE": "11",
        "P_TARGET_ID": "500264",
        "P_POSSESSION": "1",
        "P_MATERIAL_INFO": "22:14000:30,22:13000:30,22:12001:15,22:4005:40,22:15001:2",
        "P_COST_INFO": "30:0:10000",
        "P_BYPRODUCT_INFO": "",
        "P_EXTRA_TEXT": "\u5e7b\u714c\u5263\u30ec\u30aa\u30cb\u30af\u30b9\u3092\u751f\u6210\u3057\u307e\u3059\u304c\u3088\u308d\u3057\u3044\u3067\u3059\u304b",
        "P_SCHEDULE_ID": "0",
        "P_COUNTER_ID": "0",
        "P_NEED_SWITCH_INFO": "61100006",
        "P_HIDE_SWITCH_INFO": "0",
        "P_OPEN_SWITCH_INFO": "0",
        "P_NEW_SWITCH_INFO": "51200006",
        "P_CREATEDATE": "2018-01-25 23:39:24",
        "P_UPDATEDATE": "2018-01-25 23:39:24"
    },
    {
        "P_RECIPE_ID": "200000",
        "P_SUMMONER_ID": "2",
        "P_DISPORDER": "100",
        "P_TARGET_TYPE": "11",
        "P_TARGET_ID": "400272",
        "P_POSSESSION": "1",
        "P_MATERIAL_INFO": "22:12000:3,22:13000:3,22:4004:5",
        "P_COST_INFO": "30:0:10000",
        "P_BYPRODUCT_INFO": "",
        "P_EXTRA_TEXT": "\u95d8\u62f3\u30ec\u30af\u30b7\u30d6\u3092\u751f\u6210\u3057\u307e\u3059\u304c\u3088\u308d\u3057\u3044\u3067\u3059\u304b",
        "P_SCHEDULE_ID": "0",
        "P_COUNTER_ID": "0",
        "P_NEED_SWITCH_INFO": "0",
        "P_HIDE_SWITCH_INFO": "0",
        "P_OPEN_SWITCH_INFO": "0",
        "P_NEW_SWITCH_INFO": "51200007",
        "P_CREATEDATE": "2018-01-25 23:39:24",
        "P_UPDATEDATE": "2018-01-25 23:39:24"
    },
    {
        "P_RECIPE_ID": "200001",
        "P_SUMMONER_ID": "2",
        "P_DISPORDER": "101",
        "P_TARGET_TYPE": "11",
        "P_TARGET_ID": "200322",
        "P_POSSESSION": "1",
        "P_MATERIAL_INFO": "22:12000:5,22:13000:5,22:4002:10",
        "P_COST_INFO": "30:0:10000",
        "P_BYPRODUCT_INFO": "",
        "P_EXTRA_TEXT": "\u51cd\u5263\u30a2\u30eb\u30bb\u30ca\u3092\u751f\u6210\u3057\u307e\u3059\u304c\u3088\u308d\u3057\u3044\u3067\u3059\u304b",
        "P_SCHEDULE_ID": "0",
        "P_COUNTER_ID": "0",
        "P_NEED_SWITCH_INFO": "61100007",
        "P_HIDE_SWITCH_INFO": "0",
        "P_OPEN_SWITCH_INFO": "0",
        "P_NEW_SWITCH_INFO": "51200008",
        "P_CREATEDATE": "2018-01-25 23:39:24",
        "P_UPDATEDATE": "2018-01-25 23:39:24"
    },
    {
        "P_RECIPE_ID": "200002",
        "P_SUMMONER_ID": "2",
        "P_DISPORDER": "102",
        "P_TARGET_TYPE": "11",
        "P_TARGET_ID": "500363",
        "P_POSSESSION": "1",
        "P_MATERIAL_INFO": "22:14000:10,22:13000:10,22:13001:5,22:4005:20",
        "P_COST_INFO": "30:0:10000",
        "P_BYPRODUCT_INFO": "",
        "P_EXTRA_TEXT": "\u5149\u5178\u30d5\u30a7\u30ea\u30a8\u30fc\u30eb\u3092\u751f\u6210\u3057\u307e\u3059\u304c\u3088\u308d\u3057\u3044\u3067\u3059\u304b",
        "P_SCHEDULE_ID": "0",
        "P_COUNTER_ID": "0",
        "P_NEED_SWITCH_INFO": "61100008",
        "P_HIDE_SWITCH_INFO": "0",
        "P_OPEN_SWITCH_INFO": "0",
        "P_NEW_SWITCH_INFO": "51200009",
        "P_CREATEDATE": "2018-01-25 23:39:24",
        "P_UPDATEDATE": "2018-01-25 23:39:24"
    },
    {
        "P_RECIPE_ID": "200003",
        "P_SUMMONER_ID": "2",
        "P_DISPORDER": "103",
        "P_TARGET_TYPE": "11",
        "P_TARGET_ID": "300383",
        "P_POSSESSION": "1",
        "P_MATERIAL_INFO": "22:14000:10,22:13000:10,22:14001:5,22:4003:20",
        "P_COST_INFO": "30:0:10000",
        "P_BYPRODUCT_INFO": "",
        "P_EXTRA_TEXT": "\u98db\u68cd\u30c1\u30a7\u30eb\u30c6\u30a3\u3092\u751f\u6210\u3057\u307e\u3059\u304c\u3088\u308d\u3057\u3044\u3067\u3059\u304b",
        "P_SCHEDULE_ID": "0",
        "P_COUNTER_ID": "0",
        "P_NEED_SWITCH_INFO": "61100009",
        "P_HIDE_SWITCH_INFO": "0",
        "P_OPEN_SWITCH_INFO": "0",
        "P_NEW_SWITCH_INFO": "51200010",
        "P_CREATEDATE": "2018-01-25 23:39:24",
        "P_UPDATEDATE": "2018-01-25 23:39:24"
    }
]