[
    {
        "P_ALT_SKILL_ID": "10000",
        "P_EXPLAIN_SHORT": "\u9b54\u795e\u5316\u8aac\u660eshort",
        "P_EXTRA_TEXT": "15:\u79d8\u3081\u3089\u308c\u3057\u9b54\u795e\u306e\u529b\u3092\u958b\u653e\u3059\u308b"
    },
    {
        "P_ALT_SKILL_ID": "10001",
        "P_EXPLAIN_SHORT": "\u30ac\u30d6\u30c6\u30a3\u30e9\u30fb\u30c7\u30fb\u30ab\u30fc\u30cb\u30d0\u30eb\uff01\u8aac\u660eshort",
        "P_EXTRA_TEXT": "19:3\u30bf\u30fc\u30f3\u3001\u30ad\u30e7\u30a6\u30ea\u30e5\u30a6\u30ec\u30c3\u30c9\uff23\u306b\u30d1\u30ef\u30fc\u30a2\u30c3\u30d7\u3059\u308b\uff08HP\u3092\u5168\u56de\u5fa9\uff09"
    },
    {
        "P_ALT_SKILL_ID": "10002",
        "P_EXPLAIN_SHORT": "\u30a2\u30c3\u30d7\u30c7\u30fc\u30c8\uff1a\uff38\uff24\uff2c\u30e2\u30fc\u30c9\u8aac\u660eshort",
        "P_EXTRA_TEXT": "19:2\u30bf\u30fc\u30f3\u3001\u7f85\u6bb2\u93a7\u30b6\u30c9\uff38\uff24\uff2c\u306b\u30a2\u30c3\u30d7\u30c7\u30fc\u30c8\u3059\u308b"
    },
    {
        "P_ALT_SKILL_ID": "10003",
        "P_EXPLAIN_SHORT": "\u552f\u6211\u9ed2\u5929\u8aac\u660eshort",
        "P_EXTRA_TEXT": "19:3\u30bf\u30fc\u30f3\u3001\u8987\u305f\u308b\u95bb\u7ffc\u30ad\u30e9\u306b\u30d1\u30ef\u30fc\u30a2\u30c3\u30d7\u3059\u308b"
    },
    {
        "P_ALT_SKILL_ID": "10004",
        "P_EXPLAIN_SHORT": "\u30d5\u30a3\u30a2\u30fc\u30b9\u30fb\u30a2\u30af\u30c8\u8aac\u660eshort",
        "P_EXTRA_TEXT": "19:3\u30bf\u30fc\u30f3\u3001\u51a5\u304d\u9e97\u7259\u30d5\u30a3\u30fc\u30f4\u30a1\u306b\u30d1\u30ef\u30fc\u30a2\u30c3\u30d7\u3059\u308b"
    },
    {
        "P_ALT_SKILL_ID": "10005",
        "P_EXPLAIN_SHORT": "\u30c7\u30ea\u30ea\u30a2\u30e0\u8aac\u660eshort",
        "P_EXTRA_TEXT": "19:5\u30bf\u30fc\u30f3\u3001\u72c2\u7149\u306e\u70c8\u6c37\u30eb\u30cd\u306b\u30d1\u30ef\u30fc\u30a2\u30c3\u30d7\u3059\u308b"
    },
    {
        "P_ALT_SKILL_ID": "20000",
        "P_EXPLAIN_SHORT": "\u6211\u6d41\u30f4\u30a7\u30fc\u30c0\u83ef\u5263\u300e\u7e5a\u7fe0\u300f\u8aac\u660eshort",
        "P_EXTRA_TEXT": "14:\u6575\u5358\u4f53\u306b\u6a39\u5c5e\u60278\u9023\u306e300%\u30c0\u30e1\u30fc\u30b8"
    },
    {
        "P_ALT_SKILL_ID": "20001",
        "P_EXPLAIN_SHORT": "\u8056\u5149\u306e\u30b5\u30f3\u30af\u30aa\u30fc\u30ec\u8aac\u660eshort",
        "P_EXTRA_TEXT": "7:\u5473\u65b9\u5168\u4f53\u306eHP\u3092800\u301c1000\u56de\u5fa9"
    },
    {
        "P_ALT_SKILL_ID": "20002",
        "P_EXPLAIN_SHORT": "\u30a2\u30f3\u30d6\u30ec\u30a4\u30ab\u30d6\u30eb\u8aac\u660eshort",
        "P_EXTRA_TEXT": "6:\u81ea\u5206\u306eBB\u30b2\u30fc\u30b8\u3092BB\u767a\u52d5\u53ef\u80fd\u307e\u3067\u5897\u52a0"
    },
    {
        "P_ALT_SKILL_ID": "20003",
        "P_EXPLAIN_SHORT": "\u7a7a\u9727\u8fc5\u8aac\u660eshort",
        "P_EXTRA_TEXT": "4:\u6575\u4e00\u5217\u309240%\u306e\u78ba\u7387\u30672\u30bf\u30fc\u30f3\u3001\u5e7b\u899a\u72b6\u614b\u306b\u3059\u308b,\n4:\u6575\u4e00\u5217\u309240%\u306e\u78ba\u7387\u30671\u30bf\u30fc\u30f3\u3001\u6df7\u4e71\u72b6\u614b\u306b\u3059\u308b"
    },
    {
        "P_ALT_SKILL_ID": "20004",
        "P_EXPLAIN_SHORT": "\u30ed\u30b9\u30c8\u30eb\u30df\u30ca\u8aac\u660eshort",
        "P_EXTRA_TEXT": "14:\u6575\u5168\u4f53\u306b\u5149\u5c5e\u602712\u9023\u306e140%\u30c0\u30e1\u30fc\u30b8"
    },
    {
        "P_ALT_SKILL_ID": "20005",
        "P_EXPLAIN_SHORT": "\u672c\u5f53\u306b\u9b54\u5263\u306a\u3089\u3001\u30dc\u30af\u306b\u5fdc\u3048\u3066\uff01\u8aac\u660eshort",
        "P_EXTRA_TEXT": "13:3\u30bf\u30fc\u30f3\u3001\u81ea\u5206\u306e\u653b\u6483BB\u5a01\u529b\u309215%\u30a2\u30c3\u30d7,\n6:3\u30bf\u30fc\u30f3\u3001\u81ea\u5206\u306eBC\u7372\u5f97\u6642\u306e\u5897\u52a0\u91cf\u309210%\u30a2\u30c3\u30d7"
    },
    {
        "P_ALT_SKILL_ID": "20006",
        "P_EXPLAIN_SHORT": "\u8056\u63cf\u306e\u8ecc\u8de1\u8aac\u660eshort",
        "P_EXTRA_TEXT": "6:\u81ea\u5206\u306eBB\u30b2\u30fc\u30b8\u3092200\u5897\u52a0,\n7:2\u30bf\u30fc\u30f3\u3001\u30bf\u30fc\u30f3\u6bce\u306b\u81ea\u5206\u306eHP\u3092200\u301c300\u56de\u5fa9"
    },
    {
        "P_ALT_SKILL_ID": "20007",
        "P_EXPLAIN_SHORT": "\u795e\u93a7\u30d9\u30eb\u30ae\u30eb\u306e\u8f1d\u4fe1\u8aac\u660eshort",
        "P_EXTRA_TEXT": "10:\u5473\u65b9\u5168\u4f53\u306b3\u30bf\u30fc\u30f3\u3001\u9b54\u6cd5\u30c0\u30e1\u30fc\u30b8\u309210%\u8efd\u6e1b"
    },
    {
        "P_ALT_SKILL_ID": "20008",
        "P_EXPLAIN_SHORT": "\u9b3c\u706b\u71fb\u3057\u8aac\u660eshort",
        "P_EXTRA_TEXT": "2:\u5473\u65b9\u5168\u4f53\u306b1\u30bf\u30fc\u30f3\u3001\u30af\u30ea\u30c6\u30a3\u30ab\u30eb\u7387\u30925%\u30a2\u30c3\u30d7,\n2:\u5473\u65b9\u5168\u4f53\u306b1\u30bf\u30fc\u30f3\u3001\u30af\u30ea\u30c6\u30a3\u30ab\u30eb\u30c0\u30e1\u30fc\u30b8\u309210%\u30a2\u30c3\u30d7"
    },
    {
        "P_ALT_SKILL_ID": "20009",
        "P_EXPLAIN_SHORT": "\u56da\u9b42\u306e\u4eee\u9762\u8aac\u660eshort",
        "P_EXTRA_TEXT": "11:3\u30bf\u30fc\u30f3\u3001\u81ea\u5206\u306e\u30b9\u30d1\u30fc\u30af\u30c0\u30e1\u30fc\u30b8\u309230%\u30a2\u30c3\u30d7"
    },
    {
        "P_ALT_SKILL_ID": "20010",
        "P_EXPLAIN_SHORT": "\u84bc\u86c7\u306e\u8840\u6f3f\u8aac\u660eshort",
        "P_EXTRA_TEXT": "1:3\u30bf\u30fc\u30f3\u3001\u6c34\u5c5e\u6027\u30e6\u30cb\u30c3\u30c8\u306e\u653b\u6483\u529b\u30fb\u9632\u5fa1\u529b\u309210%\u30a2\u30c3\u30d7"
    },
    {
        "P_ALT_SKILL_ID": "20011",
        "P_EXPLAIN_SHORT": "\u9ed2\u9d09\u306e\u591c\u557c\u8aac\u660eshort",
        "P_EXTRA_TEXT": "13:\u5473\u65b9\u5168\u4f53\u306b2\u30bf\u30fc\u30f3\u3001\u653b\u6483\u306b\u708e\u30fb\u6c34\u30fb\u6a39\u30fb\u96f7\u5c5e\u6027\u3092\u4ed8\u4e0e"
    },
    {
        "P_ALT_SKILL_ID": "20012",
        "P_EXPLAIN_SHORT": "\u300e\u50d5\u306f\u30b8\u30a7\u30c0\u30a4\u3060\u300f\u8aac\u660eshort",
        "P_EXTRA_TEXT": "1:3\u30bf\u30fc\u30f3\u3001\u81ea\u5206\u306e\u653b\u6483\u529b\u30fb\u9632\u5fa1\u529b\u30fb\u9b54\u9632\u529b\u309210%\u30a2\u30c3\u30d7"
    },
    {
        "P_ALT_SKILL_ID": "20013",
        "P_EXPLAIN_SHORT": "I have you now.\u8aac\u660eshort",
        "P_EXTRA_TEXT": "13:3\u30bf\u30fc\u30f3\u3001\u81ea\u5206\u306e\u653b\u6483BB\u306e\u5a01\u529b\u309215%\u30a2\u30c3\u30d7,\n13:3\u30bf\u30fc\u30f3\u3001\u81ea\u5206\u306e\u5149\u5c5e\u6027\u30e6\u30cb\u30c3\u30c8\u306b\u4e0e\u3048\u308b\u5f31\u70b9\u5c5e\u6027\u30c0\u30e1\u30fc\u30b8\u309215\uff05\u30a2\u30c3\u30d7"
    },
    {
        "P_ALT_SKILL_ID": "20014",
        "P_EXPLAIN_SHORT": "\u52c7\u6562\u306a\u30c9\u30ed\u30a4\u30c9\u8aac\u660eshort",
        "P_EXTRA_TEXT": "7:\u5473\u65b9\u5168\u4f53\u306eHP\u3092300\u301c500\u56de\u5fa9"
    },
    {
        "P_ALT_SKILL_ID": "20015",
        "P_EXPLAIN_SHORT": "\u30c7\u30a3\u30fc\u30eb\uff1a\u30cf\u30fc\u30c8\uff06\u30c0\u30a4\u30e4\u8aac\u660eshort",
        "P_EXTRA_TEXT": "13:\u5473\u65b9\u5168\u4f53\u306b3\u30bf\u30fc\u30f3\u3001\u653b\u6483\u306b\u708e\u30fb\u96f7\u5c5e\u6027\u3092\u4ed8\u4e0e"
    },
    {
        "P_ALT_SKILL_ID": "20016",
        "P_EXPLAIN_SHORT": "\u30c7\u30a3\u30fc\u30eb\uff1a\u30b9\u30da\u30fc\u30c9\uff06\u30af\u30e9\u30d6\u8aac\u660eshort",
        "P_EXTRA_TEXT": "13:\u5473\u65b9\u5168\u4f53\u306b3\u30bf\u30fc\u30f3\u3001\u653b\u6483\u306b\u6c34\u30fb\u6a39\u5c5e\u6027\u3092\u4ed8\u4e0e"
    },
    {
        "P_ALT_SKILL_ID": "20017",
        "P_EXPLAIN_SHORT": "\u30d5\u30a7\u30a4\u30af\u30a2\u30cb\u30de\u8aac\u660eshort",
        "P_EXTRA_TEXT": "7:\u30e9\u30f3\u30c0\u30e0\u3067\u5473\u65b9\u5358\u4f53\u306b20%\u306e\u78ba\u7387\u3067\u6226\u95d8\u4e0d\u80fd\u3092\u4e00\u5ea6\u8010\u3048\u308b\u52b9\u679c\u3092\u4ed8\u4e0e,\n7:\u5473\u65b9\u5168\u4f53\u306b3\u30bf\u30fc\u30f3\u3001\u30bf\u30fc\u30f3\u6bce\u306bHP\u3092200\u301c400\u56de\u5fa9"
    },
    {
        "P_ALT_SKILL_ID": "20018",
        "P_EXPLAIN_SHORT": "\u30b8\u30e3\u30c3\u30af\u30dd\u30c3\u30c8\u8aac\u660eshort",
        "P_EXTRA_TEXT": "13:\u5473\u65b9\u5168\u4f53\u306b3\u30bf\u30fc\u30f3\u3001\u901a\u5e38\u653b\u6483\u306eHIT\u6570\u30921\u5897\u52a0,\n3:\u5473\u65b9\u5168\u4f53\u306b3\u30bf\u30fc\u30f3\u3001BC\u30fbHC\u51fa\u73fe\u7387\u309210%\u30a2\u30c3\u30d7"
    },
    {
        "P_ALT_SKILL_ID": "20019",
        "P_EXPLAIN_SHORT": "\u30ed\u30b0\u30b9\u30c8\u30ea\u30fc\u30e0\u8aac\u660eshort",
        "P_EXTRA_TEXT": "14:\u6575\u4e00\u5217\u306b\u96f7\u5c5e\u602713\u9023\u306e160%\u30c0\u30e1\u30fc\u30b8,\n3:\u5473\u65b9\u5168\u4f53\u306b3\u30bf\u30fc\u30f3\u3001BC\u30fbHC\u51fa\u73fe\u7387\u309210%\u30a2\u30c3\u30d7"
    },
    {
        "P_ALT_SKILL_ID": "20020",
        "P_EXPLAIN_SHORT": "\u6b74\u547d\u306e\u30b9\u30fc\u30f4\u30a7\u30cb\u30a2\u8aac\u660eshort",
        "P_EXTRA_TEXT": "7:\u5473\u65b9\u5168\u4f53\u306eHP\u3092800\u301c1200\u56de\u5fa9"
    },
    {
        "P_ALT_SKILL_ID": "20021",
        "P_EXPLAIN_SHORT": "\u7d14\u611f\u306e\u30b9\u30fc\u30f4\u30a7\u30cb\u30a2\u8aac\u660eshort",
        "P_EXTRA_TEXT": "7:\u5473\u65b9\u5168\u4f53\u306e\u6bd2\u30fb\u9ebb\u75fa\u30fb\u6df7\u4e71\u30fb\u546a\u3044\u3092\u56de\u5fa9,\n5:\u5473\u65b9\u5168\u4f53\u306b3\u30bf\u30fc\u30f3\u3001\u6bd2\u30fb\u9ebb\u75fa\u30fb\u6df7\u4e71\u30fb\u546a\u3044\u8010\u6027\u309250%\u30a2\u30c3\u30d7"
    },
    {
        "P_ALT_SKILL_ID": "20022",
        "P_EXPLAIN_SHORT": "\u9ec4\u660f\u306e\u7f8e\u6280\u8aac\u660eshort",
        "P_EXTRA_TEXT": "19:2\u30bf\u30fc\u30f3\u3001\u9583\u61a7\u306e\u5b9d\u76d7\u30d5\u30a3\u30ba\u306b\u5909\u8eab\u3059\u308b"
    },
    {
        "P_ALT_SKILL_ID": "20023",
        "P_EXPLAIN_SHORT": "\u5fc3\u8853\u30fb\u6771\u8f1d\u773c\u8aac\u660eshort",
        "P_EXTRA_TEXT": "1:3\u30bf\u30fc\u30f3\u3001\u81ea\u5206\u306e\u653b\u6483\u529b\u30fb\u9632\u5fa1\u529b\u30fb\u9b54\u9632\u529b\u309210%\u30a2\u30c3\u30d7,\n5:3\u30bf\u30fc\u30f3\u3001\u81ea\u5206\u3078\u306e\u6bd2\u30fb\u602a\u6211\u30fb\u5f31\u4f53\u30fb\u96d1\u5ff5\u30fb\u865a\u8131\u30fb\u75c5\u6c17\u30fb\u9ebb\u75fa\u30fb\u546a\u3044\u3092\u7121\u52b9,\n13:3\u30bf\u30fc\u30f3\u3001\u81ea\u5206\u306e\u901a\u5e38\u653b\u6483\u306eHIT\u6570\u30922\u5897\u52a0"
    },
    {
        "P_ALT_SKILL_ID": "20024",
        "P_EXPLAIN_SHORT": "\u60a0\u306e\u795e\u9ac4\u8aac\u660eshort",
        "P_EXTRA_TEXT": "14:\u6575\u4e00\u5217\u306b\u708e\u30fb\u6c34\u30fb\u6a39\u30fb\u96f7\u30fb\u5149\u5c5e\u60279\u9023\u306e180%\u30c0\u30e1\u30fc\u30b8"
    },
    {
        "P_ALT_SKILL_ID": "20025",
        "P_EXPLAIN_SHORT": "\u8b90\u306e\u56e0\u679c\u8aac\u660eshort",
        "P_EXTRA_TEXT": "14:\u6575\u5358\u4f53\u306b\u5149\u5c5e\u60279\u9023\u306e200%\u30c0\u30e1\u30fc\u30b8"
    },
    {
        "P_ALT_SKILL_ID": "20026",
        "P_EXPLAIN_SHORT": "\u6e9f\u306e\u30a2\u30af\u30bc\u30ea\u30e5\u30fc\u30b9\u8aac\u660eshort",
        "P_EXTRA_TEXT": "7:\u5473\u65b9\u5168\u4f53\u306eHP\u3092\u5168\u56de\u5fa9\u3059\u308b,\n20:3\u30bf\u30fc\u30f3\u3001\u81ea\u5206\u306e\u653b\u6483\u529b\u30fb\u9632\u5fa1\u529b\u30fb\u9b54\u9632\u529b\u309225%\u30c0\u30a6\u30f3,\n4:3\u30bf\u30fc\u30f3\u3001\u81ea\u5206\u3092\u865a\u8131\u72b6\u614b\u306b\u3059\u308b"
    },
    {
        "P_ALT_SKILL_ID": "20027",
        "P_EXPLAIN_SHORT": "\u7149\u7344\u306b\u6ef2\u3080\u5149\u8aac\u660eshort",
        "P_EXTRA_TEXT": "1:\u5473\u65b9\u5168\u4f53\u306b3\u30bf\u30fc\u30f3\u3001\u653b\u6483\u529b\u30fb\u9632\u5fa1\u529b\u30fb\u9b54\u9632\u529b\u309210%\u30a2\u30c3\u30d7,\n6:\u5473\u65b9\u5168\u4f53\u306b3\u30bf\u30fc\u30f3\u3001BC\u7372\u5f97\u6642\u306e\u5897\u52a0\u91cf\u309215%\u30a2\u30c3\u30d7"
    },
    {
        "P_ALT_SKILL_ID": "20028",
        "P_EXPLAIN_SHORT": "\u30f4\u30a7\u30fc\u30c0\u30fb\u30b9\u30c8\u30ec\u30a4\u30bf\u30e0\u8aac\u660eshort",
        "P_EXTRA_TEXT": "14:\u6575\u5358\u4f53\u306b\u6a39\u5c5e\u60275\u9023\u306e500%\u30c0\u30e1\u30fc\u30b8"
    },
    {
        "P_ALT_SKILL_ID": "20029",
        "P_EXPLAIN_SHORT": "\u30e2\u30fc\u30f4\u30fb\u30de\u30a6\u30f3\u30c8\u8aac\u660eshort",
        "P_EXTRA_TEXT": "11:\u5473\u65b9\u5168\u4f53\u306b3\u30bf\u30fc\u30f3\u3001\u30b9\u30d1\u30fc\u30af\u30c0\u30e1\u30fc\u30b8\u309220%\u30a2\u30c3\u30d7,\n11:\u5473\u65b9\u5168\u4f53\u306b3\u30bf\u30fc\u30f3\u3001\u30b9\u30d1\u30fc\u30af\u6642\u300150%\u306e\u78ba\u7387\u3067BB\u30b2\u30fc\u30b8\u309250\u301c200\u5897\u52a0\uff081\u30bf\u30fc\u30f3\u4e2d5\u56de\u307e\u3067\uff09"
    },
    {
        "P_ALT_SKILL_ID": "20030",
        "P_EXPLAIN_SHORT": "\u7206\u85ac\u8abf\u5408\u8aac\u660eshort",
        "P_EXTRA_TEXT": "21:XBB\u30b2\u30fc\u30b8\u309210%\u5897\u52a0"
    },
    {
        "P_ALT_SKILL_ID": "20031",
        "P_EXPLAIN_SHORT": "\u77ac\u606f\u8599\u304e\u8aac\u660eshort",
        "P_EXTRA_TEXT": "10:\u5473\u65b9\u5168\u4f53\u306b3\u30bf\u30fc\u30f3\u3001\u7269\u7406\u30c0\u30e1\u30fc\u30b8\u309210%\u8efd\u6e1b"
    },
    {
        "P_ALT_SKILL_ID": "20032",
        "P_EXPLAIN_SHORT": "\u54b2\u304d\u8a87\u308b\u9e97\u708e\u8aac\u660eshort",
        "P_EXTRA_TEXT": "13:3\u30bf\u30fc\u30f3\u3001\u81ea\u5206\u306e\u653b\u6483BB\u306e\u5a01\u529b\u309230%\u30a2\u30c3\u30d7,\n7:3\u30bf\u30fc\u30f3\u3001\u30bf\u30fc\u30f3\u6bce\u306b\u81ea\u5206\u306eHP\u30921000\u301c1200\u56de\u5fa9,\n6:3\u30bf\u30fc\u30f3\u3001\u30bf\u30fc\u30f3\u6bce\u306b\u81ea\u5206\u306eBB\u30b2\u30fc\u30b8\u3092600\u301c800\u30a2\u30c3\u30d7"
    },
    {
        "P_ALT_SKILL_ID": "20033",
        "P_EXPLAIN_SHORT": "\u731b\u7345\u306e\u5486\u54ee\u8aac\u660eshort",
        "P_EXTRA_TEXT": "1:3\u30bf\u30fc\u30f3\u3001\u81ea\u5206\u306e\u653b\u6483\u529b\u309225%\u30a2\u30c3\u30d7,\n6:2\u30bf\u30fc\u30f3\u3001\u30bf\u30fc\u30f3\u6bce\u306b\u81ea\u5206\u306eBB\u30b2\u30fc\u30b8\u3092SBB\u767a\u52d5\u53ef\u80fd\u307e\u3067\u5897\u52a0"
    },
    {
        "P_ALT_SKILL_ID": "20034",
        "P_EXPLAIN_SHORT": "\u8056\u52b1\u9663\u8aac\u660eshort",
        "P_EXTRA_TEXT": "10:\u5473\u65b9\u5168\u4f53\u306b2\u30bf\u30fc\u30f3\u3001\u7269\u7406\u30fb\u9b54\u6cd5\u30c0\u30e1\u30fc\u30b8\u309210%\u8efd\u6e1b,\n7:\u5473\u65b9\u5168\u4f53\u306eHP\u3092800\u301c1200\u56de\u5fa9"
    },
    {
        "P_ALT_SKILL_ID": "20035",
        "P_EXPLAIN_SHORT": "\u9a0e\u58eb\u56e3\u9577\u26055\u306eALT\u8aac\u660eshort",
        "P_EXTRA_TEXT": "1:\u5473\u65b9\u5168\u4f53\u306e\u6700\u5927HP\u30928%\u30a2\u30c3\u30d7,\n10:\u5473\u65b9\u5168\u4f53\u306b3\u30bf\u30fc\u30f3\u3001\u30ac\u30fc\u30c9\u6642\u306e\u30c0\u30e1\u30fc\u30b8\u8efd\u6e1b\u7387\u30925%\u30a2\u30c3\u30d7"
    },
    {
        "P_ALT_SKILL_ID": "20036",
        "P_EXPLAIN_SHORT": "\u5973\u738b\u26055\u306eALT\u8aac\u660eshort",
        "P_EXTRA_TEXT": "1:\u5473\u65b9\u5168\u4f53\u306b3\u30bf\u30fc\u30f3\u3001\u653b\u6483\u529b\u30fb\u9632\u5fa1\u529b\u30fb\u9b54\u9632\u529b\u309210%\u30a2\u30c3\u30d7,\n6:\u5473\u65b9\u5168\u4f53\u306b3\u30bf\u30fc\u30f3\u3001\u30bf\u30fc\u30f3\u6bce\u306bBB\u30b2\u30fc\u30b8\u3092400\u30a2\u30c3\u30d7,\n7:\u5473\u65b9\u5168\u4f53\u306b3\u30bf\u30fc\u30f3\u3001\u30bf\u30fc\u30f3\u6bce\u306bHP\u3092400\u301c600\u56de\u5fa9,\n11:\u5473\u65b9\u5168\u4f53\u306b3\u30bf\u30fc\u30f3\u3001\u30b9\u30d1\u30fc\u30af\u30c0\u30e1\u30fc\u30b8\u309215%\u30a2\u30c3\u30d7,\n5:\u5473\u65b9\u5168\u4f53\u306b3\u30bf\u30fc\u30f3\u3001\u6bd2\u30fb\u9ebb\u75fa\u30fb\u546a\u3044\u30fb\u6df7\u4e71\u3092\u7121\u52b9"
    },
    {
        "P_ALT_SKILL_ID": "20037",
        "P_EXPLAIN_SHORT": "\u30b7\u30e5\u30b9\u30a4\u26055\u306eALT\u8aac\u660eshort",
        "P_EXTRA_TEXT": "1:1\u30bf\u30fc\u30f3\u3001\u81ea\u5206\u306e\u653b\u6483\u529b\u309210%\u30a2\u30c3\u30d7,\n11:1\u30bf\u30fc\u30f3\u3001\u81ea\u5206\u306e\u30b9\u30d1\u30fc\u30af\u30c0\u30e1\u30fc\u30b8\u309220%\u30a2\u30c3\u30d7,\n2:1\u30bf\u30fc\u30f3\u3001\u81ea\u5206\u306e\u30af\u30ea\u30c6\u30a3\u30ab\u30eb\u30c0\u30e1\u30fc\u30b8\u309220%\u30a2\u30c3\u30d7"
    },
    {
        "P_ALT_SKILL_ID": "20038",
        "P_EXPLAIN_SHORT": "\u84bc\u304d\u8840\u306e\u899a\u9192\u8aac\u660eshort",
        "P_EXTRA_TEXT": "19:3\u30bf\u30fc\u30f3\u3001\u79d8\u3081\u3089\u308c\u3057\u9b54\u795e\u306e\u529b\u3092\u958b\u653e\u3059\u308b"
    },
    {
        "P_ALT_SKILL_ID": "20039",
        "P_EXPLAIN_SHORT": "\u30a2\u30dd\u30ab\u30ea\u30d7\u30b9\u30fb\u30d5\u30ed\u30a6\u8aac\u660eshort",
        "P_EXTRA_TEXT": "14:\u6575\u5168\u4f53\u306b\u6c34\u30fb\u5149\u30fb\u95c7\u5c5e\u60278\u9023\u306e250%\u30c0\u30e1\u30fc\u30b8,\n11:\u5473\u65b9\u5168\u4f53\u306b3\u30bf\u30fc\u30f3\u3001\u30b9\u30d1\u30fc\u30af\u30c0\u30e1\u30fc\u30b8\u309225%\u30a2\u30c3\u30d7,\n6:\u5473\u65b9\u5168\u4f53\u306b3\u30bf\u30fc\u30f3\u3001\u30bf\u30fc\u30f3\u6bce\u306bBB\u30b2\u30fc\u30b8\u3092400\u30a2\u30c3\u30d7"
    },
    {
        "P_ALT_SKILL_ID": "20043",
        "P_EXPLAIN_SHORT": "\u8056\u52c7\u51f1\u8aac\u660eshort",
        "P_EXTRA_TEXT": "11:\u5473\u65b9\u5168\u4f53\u306b2\u30bf\u30fc\u30f3\u3001\u30b9\u30d1\u30fc\u30af\u6642\u300150%\u306e\u78ba\u7387\u3067BB\u30b2\u30fc\u30b8\u309250\u301c200\u5897\u52a0\uff081\u30bf\u30fc\u30f35\u56de\u307e\u3067\uff09,\n10:\u5473\u65b9\u5168\u4f53\u306b2\u30bf\u30fc\u30f3\u3001\u7269\u7406\u30c0\u30e1\u30fc\u30b8\u309210%\u8efd\u6e1b,\n1:2\u30bf\u30fc\u30f3\u3001\u5149\u5c5e\u6027\u30e6\u30cb\u30c3\u30c8\u306e\u653b\u6483\u529b\u309215%\u30a2\u30c3\u30d7"
    },
    {
        "P_ALT_SKILL_ID": "20044",
        "P_EXPLAIN_SHORT": "\u5f71\u8996\u95d8\u8853\u8aac\u660eshort",
        "P_EXTRA_TEXT": "13:\u5473\u65b9\u5168\u4f53\u306b3\u30bf\u30fc\u30f3\u3001\u9b54\u6cd5\u653b\u6483\u306e\u30c0\u30e1\u30fc\u30b8\u309215%\u30a2\u30c3\u30d7,\n21:\u5473\u65b9\u5168\u4f53\u306b3\u30bf\u30fc\u30f3\u3001XBB\u30b2\u30fc\u30b8\u306e\u5897\u52a0\u91cf\u309215%\u30a2\u30c3\u30d7,\n1:3\u30bf\u30fc\u30f3\u3001\u81ea\u5206\u306e\u653b\u6483\u529b\u30fb\u9632\u5fa1\u529b\u30fb\u9b54\u9632\u529b\u309210%\u30a2\u30c3\u30d7"
    },
    {
        "P_ALT_SKILL_ID": "25000",
        "P_EXPLAIN_SHORT": "\u30d5\u30ed\u30b9\u30c8\u30b3\u30fc\u30c8\u8aac\u660eshort",
        "P_EXTRA_TEXT": "1:\u5473\u65b9\u5168\u4f53\u306b1\u30bf\u30fc\u30f3\u3001\u9632\u5fa1\u529b\u309210%\u30a2\u30c3\u30d7"
    },
    {
        "P_ALT_SKILL_ID": "25001",
        "P_EXPLAIN_SHORT": "\u671d\u9732\u306e\u98a8\u8aac\u660eshort",
        "P_EXTRA_TEXT": "7:\u5473\u65b9\u5168\u4f53\u306eHP\u30922000\u56de\u5fa9\u3059\u308b,\n7:\u5473\u65b9\u5168\u4f53\u306e\u6bd2\u30fb\u602a\u6211\u30fb\u5f31\u4f53\u30fb\u96d1\u5ff5\u30fb\u865a\u8131\u30fb\u75c5\u6c17\u30fb\u9ebb\u75fa\u30fb\u546a\u3044\u30fb\u5e7b\u899a\u30fb\u6df7\u4e71\u3092\u56de\u5fa9"
    },
    {
        "P_ALT_SKILL_ID": "25002",
        "P_EXPLAIN_SHORT": "\u6028\u307f\u306e\u7ffc\u8aac\u660eshort",
        "P_EXTRA_TEXT": "1:2\u30bf\u30fc\u30f3\u3001\u81ea\u5206\u306e\u653b\u6483\u529b\u309215%\u30a2\u30c3\u30d7,\n13:2\u30bf\u30fc\u30f3\u3001\u81ea\u5206\u306e\u72b6\u614b\u7570\u5e38\u306e\u6575\u3078\u306e\u30c0\u30e1\u30fc\u30b8\u309220%\u30a2\u30c3\u30d7"
    },
    {
        "P_ALT_SKILL_ID": "30000",
        "P_EXPLAIN_SHORT": "\u30b9\u30ad\u30eb\u30e9\u30a4\u30ba\u8aac\u660eshort",
        "P_EXTRA_TEXT": "14:\u5bfe\u8c61\u304c\u30d6\u30ec\u30a4\u30af\u4e2d\u306b\u4f7f\u7528\u3059\u308b\u3053\u3068\u3067\u3001\u78ba\u7387\u3067\u30b9\u30ad\u30eb\u53d6\u5f97\u3067\u304d\u308b\uff08\u30d0\u30c8\u30eb\u4e2d\u306b1\u5ea6\u306e\u307f\u4f7f\u7528\u53ef\u80fd\uff09"
    },
    {
        "P_ALT_SKILL_ID": "40000",
        "P_EXPLAIN_SHORT": "\u30c7\u30e5\u30fc\u30a4\u306e\u30d6\u30ec\u30a4\u30af\u30b7\u30e7\u30fc\uff01\u8aac\u660eshort",
        "P_EXTRA_TEXT": "14:\u6575\u4e00\u5217\u306b\u6a39\u5c5e\u60279\u9023\u306e130%\u30c0\u30e1\u30fc\u30b8,\n2:3\u30bf\u30fc\u30f3\u3001\u30ea\u30f3\u306e\u30af\u30ea\u30c6\u30a3\u30ab\u30eb\u7387\u30928%\u30a2\u30c3\u30d7,\n2:3\u30bf\u30fc\u30f3\u3001\u30ea\u30f3\u306e\u30af\u30ea\u30c6\u30a3\u30ab\u30eb\u30c0\u30e1\u30fc\u30b8\u309215%\u30a2\u30c3\u30d7"
    },
    {
        "P_ALT_SKILL_ID": "40001",
        "P_EXPLAIN_SHORT": "\u30c7\u30e5\u30fc\u30a4\u5c02\u7528\u5f57\u8fc5\u5175\u88c5\u8aac\u660eshort",
        "P_EXTRA_TEXT": "14:\u6575\u5168\u4f53\u306b\u96f7\u5c5e\u602712\u9023\u306e100%\u30c0\u30e1\u30fc\u30b8"
    },
    {
        "P_ALT_SKILL_ID": "40002",
        "P_EXPLAIN_SHORT": "\u5929\u3092\u7126\u304c\u3059\u7d46\u8aac\u660eshort",
        "P_EXTRA_TEXT": "19:3\u30bf\u30fc\u30f3\u3001\u71be\u5929\u7adc\u7fd4\u30f4\u30a9\u30eb\u30cf\u30a4\u30f3\u306b\u30d1\u30ef\u30fc\u30a2\u30c3\u30d7\u3059\u308b"
    },
    {
        "P_ALT_SKILL_ID": "50000",
        "P_EXPLAIN_SHORT": "\u52c7\u5531\u59eb\u30ed\u30d3\u30ca_\u5217\u653b\u6483ALT\u8aac\u660eshort",
        "P_EXTRA_TEXT": "14:\u3010\u7279\u6b8a\u30b9\u30ad\u30eb\u3011\u6575\u4e00\u5217\u306b\u5149\u5c5e\u60275\u9023\u306e60%\u30c0\u30e1\u30fc\u30b8"
    },
    {
        "P_ALT_SKILL_ID": "50001",
        "P_EXPLAIN_SHORT": "\u52c7\u5531\u7652\u59eb\u30ed\u30d3\u30ca_\u5217\u653b\u6483ALT\u8aac\u660eshort",
        "P_EXTRA_TEXT": "14:\u3010\u7279\u6b8a\u30b9\u30ad\u30eb\u3011\u6575\u4e00\u5217\u306b\u5149\u5c5e\u60277\u9023\u306e60%\u30c0\u30e1\u30fc\u30b8"
    },
    {
        "P_ALT_SKILL_ID": "50002",
        "P_EXPLAIN_SHORT": "\u52c7\u5531\u59eb\u30eb\u30ce_\u5217\u653b\u6483ALT\u8aac\u660eshort",
        "P_EXTRA_TEXT": "14:\u3010\u7279\u6b8a\u30b9\u30ad\u30eb\u3011\u6575\u4e00\u5217\u306b\u95c7\u5c5e\u60275\u9023\u306e60%\u30c0\u30e1\u30fc\u30b8"
    },
    {
        "P_ALT_SKILL_ID": "50003",
        "P_EXPLAIN_SHORT": "\u52c7\u5531\u52b1\u59eb\u30eb\u30ce_\u5217\u653b\u6483ALT\u8aac\u660eshort",
        "P_EXTRA_TEXT": "14:\u3010\u7279\u6b8a\u30b9\u30ad\u30eb\u3011\u6575\u4e00\u5217\u306b\u95c7\u5c5e\u60277\u9023\u306e60%\u30c0\u30e1\u30fc\u30b8"
    },
    {
        "P_ALT_SKILL_ID": "50004",
        "P_EXPLAIN_SHORT": "\u714c\u967d\u306e\u795e\u83ef\u30bb\u30ea\u30a2_\u5217\u653b\u6483ALT\u8aac\u660eshort",
        "P_EXTRA_TEXT": "14:\u3010\u7279\u6b8a\u30b9\u30ad\u30eb\u3011\u6575\u4e00\u5217\u306b\u708e\u5c5e\u60276\u9023\u306e80%\u30c0\u30e1\u30fc\u30b8"
    },
    {
        "P_ALT_SKILL_ID": "50005",
        "P_EXPLAIN_SHORT": "\u6697\u5f92\u30a2\u30c7\u30a3\u30c3\u30af_\u5217\u653b\u6483ALT\u8aac\u660eshort",
        "P_EXTRA_TEXT": "14:\u3010\u7279\u6b8a\u30b9\u30ad\u30eb\u3011\u6575\u4e00\u5217\u306b\u6a39\u5c5e\u60275\u9023\u306e80%\u30c0\u30e1\u30fc\u30b8"
    },
    {
        "P_ALT_SKILL_ID": "50006",
        "P_EXPLAIN_SHORT": "\u7fe0\u9ed2\u306e\u53db\u5f92\u30a2\u30c7\u30a3\u30c3\u30af_\u5217\u653b\u6483ALT\u8aac\u660eshort",
        "P_EXTRA_TEXT": "14:\u3010\u7279\u6b8a\u30b9\u30ad\u30eb\u3011\u6575\u4e00\u5217\u306b\u6a39\u5c5e\u60278\u9023\u306e80%\u30c0\u30e1\u30fc\u30b8"
    },
    {
        "P_ALT_SKILL_ID": "50007",
        "P_EXPLAIN_SHORT": "\u7fe0\u524b\u70c8\u9a0e\u30a2\u30c7\u30a3\u30c3\u30af_\u5217\u653b\u6483ALT\u8aac\u660eshort",
        "P_EXTRA_TEXT": "14:\u3010\u7279\u6b8a\u30b9\u30ad\u30eb\u3011\u6575\u4e00\u5217\u306b\u6a39\u5c5e\u602710\u9023\u306e80%\u30c0\u30e1\u30fc\u30b8"
    },
    {
        "P_ALT_SKILL_ID": "50008",
        "P_EXPLAIN_SHORT": "\u6cd5\u8f1d\u5b98\u30b8\u30e7\u30a2\u30f3_\u5168\u4f53\u653b\u6483ALT\u8aac\u660eshort",
        "P_EXTRA_TEXT": "14:\u3010\u7279\u6b8a\u30b9\u30ad\u30eb\u3011\u6575\u5168\u4f53\u306b\u5149\u5c5e\u602713\u9023\u306e50%\u30c0\u30e1\u30fc\u30b8"
    },
    {
        "P_ALT_SKILL_ID": "50009",
        "P_EXPLAIN_SHORT": "\u6cd5\u5049\u8f1d\u5b98\u30b8\u30e7\u30a2\u30f3_\u5168\u4f53\u653b\u6483ALT\u8aac\u660eshort",
        "P_EXTRA_TEXT": "14:\u3010\u7279\u6b8a\u30b9\u30ad\u30eb\u3011\u6575\u5168\u4f53\u306b\u5149\u5c5e\u602715\u9023\u306e50%\u30c0\u30e1\u30fc\u30b8"
    },
    {
        "P_ALT_SKILL_ID": "50010",
        "P_EXPLAIN_SHORT": "\u8f1d\u5c0e\u5bae\u5bb0\u30b8\u30e7\u30a2\u30f3_\u5168\u4f53\u653b\u6483ALT\u8aac\u660eshort",
        "P_EXTRA_TEXT": "14:\u3010\u7279\u6b8a\u30b9\u30ad\u30eb\u3011\u6575\u5168\u4f53\u306b\u5149\u5c5e\u602718\u9023\u306e50%\u30c0\u30e1\u30fc\u30b8"
    },
    {
        "P_ALT_SKILL_ID": "50011",
        "P_EXPLAIN_SHORT": "\u6c37\u58ee\u306e\u52c7\u795e\u30ab\u30eb_\u5217\u653b\u6483ALT\u8aac\u660eshort",
        "P_EXTRA_TEXT": "14:\u3010\u7279\u6b8a\u30b9\u30ad\u30eb\u3011\u6575\u4e00\u5217\u306b\u6c34\u5c5e\u60279\u9023\u306e80%\u30c0\u30e1\u30fc\u30b8"
    },
    {
        "P_ALT_SKILL_ID": "50012",
        "P_EXPLAIN_SHORT": "\u6c37\u9b54\u7adc\u795e\u30ab\u30eb_\u5168\u4f53\u653b\u6483ALT\u8aac\u660eshort",
        "P_EXTRA_TEXT": "14:\u3010\u7279\u6b8a\u30b9\u30ad\u30eb\u3011\u6575\u5168\u4f53\u306b\u6c34\u5c5e\u602712\u9023\u306e80%\u30c0\u30e1\u30fc\u30b8"
    },
    {
        "P_ALT_SKILL_ID": "50013",
        "P_EXPLAIN_SHORT": "\u9b54\u8276\u59eb\u30eb\u30ca\u30ea\u30b9_\u5217\u653b\u6483ALT\u8aac\u660eshort",
        "P_EXTRA_TEXT": "14:\u3010\u7279\u6b8a\u30b9\u30ad\u30eb\u3011\u6575\u4e00\u5217\u306b\u95c7\u5c5e\u60276\u9023\u306e70%\u30c0\u30e1\u30fc\u30b8"
    },
    {
        "P_ALT_SKILL_ID": "50014",
        "P_EXPLAIN_SHORT": "\u9b54\u59eb\u795e\u30eb\u30ca\u30ea\u30b9_\u5217\u653b\u6483ALT\u8aac\u660eshort",
        "P_EXTRA_TEXT": "14:\u3010\u7279\u6b8a\u30b9\u30ad\u30eb\u3011\u6575\u4e00\u5217\u306b\u95c7\u5c5e\u60277\u9023\u306e70%\u30c0\u30e1\u30fc\u30b8"
    },
    {
        "P_ALT_SKILL_ID": "50015",
        "P_EXPLAIN_SHORT": "\u9b54\u84ee\u59eb\u795e\u30eb\u30ca\u30ea\u30b9_\u5217\u653b\u6483ALT\u8aac\u660eshort",
        "P_EXTRA_TEXT": "14:\u3010\u7279\u6b8a\u30b9\u30ad\u30eb\u3011\u6575\u4e00\u5217\u306b\u95c7\u5c5e\u60279\u9023\u306e70%\u30c0\u30e1\u30fc\u30b8"
    },
    {
        "P_ALT_SKILL_ID": "100000",
        "P_EXPLAIN_SHORT": "\u30d5\u30a9\u30fc\u30b9\u30b2\u30a4\u30f3\u8aac\u660eshort",
        "P_EXTRA_TEXT": "1:1\u30bf\u30fc\u30f3\u3001\u81ea\u5206\u306e\u653b\u6483\u529b\u30925%\u30a2\u30c3\u30d7"
    },
    {
        "P_ALT_SKILL_ID": "100001",
        "P_EXPLAIN_SHORT": "\u7cbe\u795e\u7d71\u4e00\u8aac\u660eshort",
        "P_EXTRA_TEXT": "1:2\u30bf\u30fc\u30f3\u3001\u81ea\u5206\u306e\u653b\u6483\u529b\u309220%\u30a2\u30c3\u30d7"
    },
    {
        "P_ALT_SKILL_ID": "100002",
        "P_EXPLAIN_SHORT": "\u9ed2\u9244\u306e\u5263\u621f\u8aac\u660eshort",
        "P_EXTRA_TEXT": "1:3\u30bf\u30fc\u30f3\u3001\u81ea\u5206\u306e\u653b\u6483\u529b\u309225%\u30a2\u30c3\u30d7,\n20:3\u30bf\u30fc\u30f3\u3001\u81ea\u5206\u306e\u9632\u5fa1\u529b\u30fb\u9b54\u9632\u529b\u309250%\u30c0\u30a6\u30f3"
    },
    {
        "P_ALT_SKILL_ID": "100100",
        "P_EXPLAIN_SHORT": "\u30b7\u30fc\u30eb\u30c9\u30b2\u30a4\u30f3\u8aac\u660eshort",
        "P_EXTRA_TEXT": "1:2\u30bf\u30fc\u30f3\u3001\u81ea\u5206\u306e\u9632\u5fa1\u529b\u309210%\u30a2\u30c3\u30d7"
    },
    {
        "P_ALT_SKILL_ID": "100200",
        "P_EXPLAIN_SHORT": "\u30a4\u30fc\u30b8\u30b9\u30b2\u30a4\u30f3\u8aac\u660eshort",
        "P_EXTRA_TEXT": "1:2\u30bf\u30fc\u30f3\u3001\u81ea\u5206\u306e\u9b54\u9632\u529b\u309210%\u30a2\u30c3\u30d7"
    },
    {
        "P_ALT_SKILL_ID": "100300",
        "P_EXPLAIN_SHORT": "\u30f4\u30a1\u30a4\u30bf\u30eb\u30b2\u30a4\u30f3\u8aac\u660eshort",
        "P_EXTRA_TEXT": "1:\u5473\u65b9\u5168\u4f53\u306e\u6700\u5927HP\u30923%\u30a2\u30c3\u30d7"
    },
    {
        "P_ALT_SKILL_ID": "100400",
        "P_EXPLAIN_SHORT": "\u30b0\u30e9\u30f3\u30c4\u30b7\u30d5\u30c8\u8aac\u660eshort",
        "P_EXTRA_TEXT": "1:2\u30bf\u30fc\u30f3\u3001\u81ea\u5206\u306e\u653b\u6483\u529b\u30fb\u9632\u5fa1\u529b\u30fb\u9b54\u9632\u529b\u30928%\u30a2\u30c3\u30d7"
    },
    {
        "P_ALT_SKILL_ID": "100500",
        "P_EXPLAIN_SHORT": "\u30c7\u30e5\u30fc\u30af\u30e9\u30a4\u30e0\u8aac\u660eshort",
        "P_EXTRA_TEXT": "1:2\u30bf\u30fc\u30f3\u3001\u81ea\u5206\u306e\u653b\u6483\u529b\u309215%\u30a2\u30c3\u30d7,\n20:2\u30bf\u30fc\u30f3\u3001\u81ea\u5206\u306e\u9632\u5fa1\u529b\u30fb\u9b54\u9632\u529b\u309225%\u30c0\u30a6\u30f3"
    },
    {
        "P_ALT_SKILL_ID": "100600",
        "P_EXPLAIN_SHORT": "\u30d3\u30b6\u30fc\u30fb\u30ec\u30be\u30cd\u30fc\u30bf\u30fc\u8aac\u660eshort",
        "P_EXTRA_TEXT": "1:\u5473\u65b9\u5168\u4f53\u306b2\u30bf\u30fc\u30f3\u3001\u653b\u6483\u529b\u30925%\u30a2\u30c3\u30d7,\n11:\u5473\u65b9\u5168\u4f53\u306b2\u30bf\u30fc\u30f3\u3001\u30b9\u30d1\u30fc\u30af\u30c0\u30e1\u30fc\u30b8\u309210%\u30a2\u30c3\u30d7"
    },
    {
        "P_ALT_SKILL_ID": "100700",
        "P_EXPLAIN_SHORT": "\u30b7\u30e5\u30f4\u30a1\u30ea\u30a8\u30fb\u30b0\u30ed\u30fc\u8aac\u660eshort",
        "P_EXTRA_TEXT": "1:\u5473\u65b9\u5168\u4f53\u306b2\u30bf\u30fc\u30f3\u3001\u653b\u6483\u529b\u30fb\u9632\u5fa1\u529b\u30fb\u9b54\u9632\u529b\u30925%\u30a2\u30c3\u30d7"
    },
    {
        "P_ALT_SKILL_ID": "100800",
        "P_EXPLAIN_SHORT": "\u30f4\u30a1\u30a4\u30bf\u30eb\u30ab\u30b9\u30b1\u30fc\u30c9\u8aac\u660eshort",
        "P_EXTRA_TEXT": "1:2\u30bf\u30fc\u30f3\u3001\u81ea\u5206\u306e\u9632\u5fa1\u529b\u309210%\u30a2\u30c3\u30d7,\n7:2\u30bf\u30fc\u30f3\u3001\u30bf\u30fc\u30f3\u6bce\u306b\u81ea\u5206\u306eHP\u309210%\u56de\u5fa9"
    },
    {
        "P_ALT_SKILL_ID": "100900",
        "P_EXPLAIN_SHORT": "\u6226\u5203\u53f7\u70fd\u8aac\u660eshort",
        "P_EXTRA_TEXT": "1:2\u30bf\u30fc\u30f3\u3001\u81ea\u5206\u306e\u653b\u6483\u529b\u30925%\u30a2\u30c3\u30d7,\n20:\u6575\u5358\u4f53\u306b50%\u306e\u78ba\u7387\u30671\u30bf\u30fc\u30f3\u3001\u9632\u5fa1\u529b\u30925%\u4f4e\u4e0b"
    },
    {
        "P_ALT_SKILL_ID": "101000",
        "P_EXPLAIN_SHORT": "\u30b7\u30ea\u30a3\u30fb\u30ae\u30df\u30c3\u30af\u8aac\u660eshort",
        "P_EXTRA_TEXT": "1:1\u30bf\u30fc\u30f3\u3001\u81ea\u5206\u306e\u653b\u6483\u529b\u309220%\u30a2\u30c3\u30d7,\n4:50%\u306e\u78ba\u7387\u30671\u30bf\u30fc\u30f3\u3001\u81ea\u5206\u3092\u6df7\u4e71\u72b6\u614b\u306b\u3059\u308b"
    },
    {
        "P_ALT_SKILL_ID": "101100",
        "P_EXPLAIN_SHORT": "\u30d5\u30a7\u30f3\u30c9\u30f4\u30a7\u30fc\u30eb\u8aac\u660eshort",
        "P_EXTRA_TEXT": "1:1\u30bf\u30fc\u30f3\u3001\u81ea\u5206\u306e\u9632\u5fa1\u529b\u309210%\u30a2\u30c3\u30d7"
    },
    {
        "P_ALT_SKILL_ID": "101200",
        "P_EXPLAIN_SHORT": "\u30c7\u30a3\u30b7\u30fc\u30c8\u30d5\u30eb\u30d7\u30ec\u30a4\u30e4\u30fc\u8aac\u660eshort",
        "P_EXTRA_TEXT": "1:3\u30bf\u30fc\u30f3\u3001\u81ea\u5206\u306e\u9b54\u9632\u529b\u309210%\u30a2\u30c3\u30d7,\n4:3\u30bf\u30fc\u30f3\u3001\u81ea\u5206\u306b15%\u306e\u78ba\u7387\u30672\u30bf\u30fc\u30f3\u96d1\u5ff5\u30fb\u865a\u8131\u72b6\u614b\u306b\u3059\u308b\u52b9\u679c\u3092\u4ed8\u4e0e,\n20:3\u30bf\u30fc\u30f3\u3001\u81ea\u5206\u306b10%\u306e\u78ba\u7387\u30671\u30bf\u30fc\u30f3\u9b54\u9632\u529b\u309210%\u4f4e\u4e0b\u3059\u308b\u52b9\u679c\u3092\u4ed8\u4e0e,\n3:3\u30bf\u30fc\u30f3\u3001\u81ea\u5206\u306eBC\u51fa\u73fe\u7387\u309210%\u30a2\u30c3\u30d7"
    },
    {
        "P_ALT_SKILL_ID": "101300",
        "P_EXPLAIN_SHORT": "\u30d5\u30a9\u30fc\u30b9\u30af\u30e9\u30a6\u30f3\u8aac\u660eshort",
        "P_EXTRA_TEXT": "1:3\u30bf\u30fc\u30f3\u3001\u81ea\u5206\u306e\u653b\u6483\u529b\u309220%\u30a2\u30c3\u30d7"
    },
    {
        "P_ALT_SKILL_ID": "101400",
        "P_EXPLAIN_SHORT": "\u30d6\u30ec\u30a4\u30b8\u30f3\u30b0\u30d3\u30fc\u30b9\u30c8\u8aac\u660eshort",
        "P_EXTRA_TEXT": "1:3\u30bf\u30fc\u30f3\u3001\u81ea\u5206\u306e\u653b\u6483\u529b\u30925%\u30a2\u30c3\u30d7,\n2:3\u30bf\u30fc\u30f3\u3001\u81ea\u5206\u306e\u30af\u30ea\u30c6\u30a3\u30ab\u30eb\u30c0\u30e1\u30fc\u30b8\u309210%\u30a2\u30c3\u30d7,\n13:3\u30bf\u30fc\u30f3\u3001\u81ea\u5206\u306e\u7269\u7406\u653b\u6483\u306e\u30c0\u30e1\u30fc\u30b8\u309210%\u30a2\u30c3\u30d7"
    },
    {
        "P_ALT_SKILL_ID": "101500",
        "P_EXPLAIN_SHORT": "\u30a4\u30fc\u30b8\u30b9\u30e9\u30a4\u30c8\u8aac\u660eshort",
        "P_EXTRA_TEXT": "1:1\u30bf\u30fc\u30f3\u3001\u81ea\u5206\u306e\u9b54\u9632\u529b\u309210%\u30a2\u30c3\u30d7"
    },
    {
        "P_ALT_SKILL_ID": "101600",
        "P_EXPLAIN_SHORT": "\u7fe0\u898b\u306e\u9593\u5408\u3044\u8aac\u660eshort",
        "P_EXTRA_TEXT": "1:\u5473\u65b9\u5168\u4f53\u306b3\u30bf\u30fc\u30f3\u3001\u9632\u5fa1\u529b\u309230%\u30a2\u30c3\u30d7,\n10:\u5473\u65b9\u5168\u4f53\u306b3\u30bf\u30fc\u30f3\u3001\u7269\u7406\u30c0\u30e1\u30fc\u30b8\u309215%\u8efd\u6e1b,\n6:\u5473\u65b9\u5168\u4f53\u306b3\u30bf\u30fc\u30f3\u3001\u88ab\u30c0\u30e1\u30fc\u30b8\u6642\u300150%\u306e\u78ba\u7387\u3067BB\u30b2\u30fc\u30b8\u3092200\u301c400\u5897\u52a0\uff081\u30bf\u30fc\u30f33\u56de\u307e\u3067\uff09"
    },
    {
        "P_ALT_SKILL_ID": "101700",
        "P_EXPLAIN_SHORT": "\u30b9\u30c8\u30fc\u30e0\u30ad\u30e3\u30d1\u30b7\u30bf\u8aac\u660eshort",
        "P_EXTRA_TEXT": "1:2\u30bf\u30fc\u30f3\u3001\u81ea\u5206\u306e\u653b\u6483\u529b\u309220%\u30a2\u30c3\u30d7,\n13:2\u30bf\u30fc\u30f3\u3001\u81ea\u5206\u306e\u653b\u6483BB\u5a01\u529b\u309230%\u30a2\u30c3\u30d7,\n20:1\u30bf\u30fc\u30f3\u3001\u81ea\u5206\u306e\u9632\u5fa1\u529b\u309250%\u30c0\u30a6\u30f3"
    },
    {
        "P_ALT_SKILL_ID": "101800",
        "P_EXPLAIN_SHORT": "\u5bb5\u95c7\u306e\u5fae\u5149\u8aac\u660eshort",
        "P_EXTRA_TEXT": "1:\u5473\u65b9\u5168\u4f53\u306b1\u30bf\u30fc\u30f3\u3001\u9632\u5fa1\u529b\u309210%\u30a2\u30c3\u30d7,\n10:\u5473\u65b9\u5168\u4f53\u306b1\u30bf\u30fc\u30f3\u3001\u5149\u30fb\u95c7\u5c5e\u6027\u306e\u30c0\u30e1\u30fc\u30b8\u30925%\u8efd\u6e1b"
    },
    {
        "P_ALT_SKILL_ID": "101900",
        "P_EXPLAIN_SHORT": "\u30d5\u30a9\u30fc\u30b9\u30d6\u30fc\u30b9\u30c8\u8aac\u660eshort",
        "P_EXTRA_TEXT": "1:1\u30bf\u30fc\u30f3\u3001\u81ea\u5206\u306e\u653b\u6483\u529b\u309210%\u30a2\u30c3\u30d7"
    },
    {
        "P_ALT_SKILL_ID": "200000",
        "P_EXPLAIN_SHORT": "\u30b9\u30d1\u30fc\u30af\u30d5\u30a9\u30fc\u30b9\u30ec\u30a4\u30ba\u8aac\u660eshort",
        "P_EXTRA_TEXT": "11:2\u30bf\u30fc\u30f3\u3001\u81ea\u5206\u306e\u30b9\u30d1\u30fc\u30af\u30c0\u30e1\u30fc\u30b8\u309220%\u30a2\u30c3\u30d7"
    },
    {
        "P_ALT_SKILL_ID": "200100",
        "P_EXPLAIN_SHORT": "\u30c7\u30c3\u30c9\u30aa\u30f3\u30bf\u30fc\u30b2\u30c3\u30c8\u8aac\u660eshort",
        "P_EXTRA_TEXT": "11:2\u30bf\u30fc\u30f3\u3001\u30b9\u30d1\u30fc\u30af\u6642\u300150%\u306e\u78ba\u7387\u3067\u81ea\u5206\u306eBB\u30b2\u30fc\u30b8\u3092100\u301c200\u5897\u52a0\uff081\u30bf\u30fc\u30f3\u4e2d5\u56de\u307e\u3067\uff09,\n11:2\u30bf\u30fc\u30f3\u3001\u30b9\u30d1\u30fc\u30af\u6642\u300150%\u306e\u78ba\u7387\u3067\u81ea\u5206\u306eHP\u309250\u301c150\u5897\u52a0\uff081\u30bf\u30fc\u30f3\u4e2d5\u56de\u307e\u3067\uff09,\n20:2\u30bf\u30fc\u30f3\u3001\u81ea\u5206\u306e\u653b\u6483\u529b\u309210%\u30c0\u30a6\u30f3"
    },
    {
        "P_ALT_SKILL_ID": "200200",
        "P_EXPLAIN_SHORT": "\u30b7\u30e5\u30f4\u30a1\u30ea\u30a8\u30fb\u30d5\u30e9\u30e0\u8aac\u660eshort",
        "P_EXTRA_TEXT": "11:\u5473\u65b9\u5168\u4f53\u306b2\u30bf\u30fc\u30f3\u3001\u30b9\u30d1\u30fc\u30af\u30c0\u30e1\u30fc\u30b8\u309215%\u30a2\u30c3\u30d7"
    },
    {
        "P_ALT_SKILL_ID": "200300",
        "P_EXPLAIN_SHORT": "\u7363\u6027\u91cd\u7259\u8aac\u660eshort",
        "P_EXTRA_TEXT": "11:2\u30bf\u30fc\u30f3\u3001\u81ea\u5206\u306e\u30b9\u30d1\u30fc\u30af\u30c0\u30e1\u30fc\u30b8\u309225%\u30a2\u30c3\u30d7,\n11:2\u30bf\u30fc\u30f3\u3001\u81ea\u5206\u306e\u30b9\u30d1\u30fc\u30af\u6642\u306eBC\u30fbHC\u51fa\u73fe\u7387\u309215%\u30a2\u30c3\u30d7"
    },
    {
        "P_ALT_SKILL_ID": "200400",
        "P_EXPLAIN_SHORT": "\u30bb\u30eb\u30b9\u30af\u30ea\u30fc\u30e0\u8aac\u660eshort",
        "P_EXTRA_TEXT": "11:2\u30bf\u30fc\u30f3\u3001\u81ea\u5206\u306e\u30b9\u30d1\u30fc\u30af\u30c0\u30e1\u30fc\u30b8\u309230%\u30a2\u30c3\u30d7,\n2:2\u30bf\u30fc\u30f3\u3001\u81ea\u5206\u306e\u30af\u30ea\u30c6\u30a3\u30ab\u30eb\u7387\u309210%\u30a2\u30c3\u30d7"
    },
    {
        "P_ALT_SKILL_ID": "300000",
        "P_EXPLAIN_SHORT": "\u30af\u30ea\u30c6\u30a3\u30ab\u30eb\u30d5\u30a9\u30fc\u30b9\u30ec\u30a4\u30ba\u8aac\u660eshort",
        "P_EXTRA_TEXT": "2:3\u30bf\u30fc\u30f3\u3001\u81ea\u5206\u306e\u30af\u30ea\u30c6\u30a3\u30ab\u30eb\u30c0\u30e1\u30fc\u30b8\u309220%\u30a2\u30c3\u30d7"
    },
    {
        "P_ALT_SKILL_ID": "300100",
        "P_EXPLAIN_SHORT": "\u622f\u5149\u9752\u773c\u8aac\u660eshort",
        "P_EXTRA_TEXT": "2:\u5473\u65b9\u5168\u4f53\u306b1\u30bf\u30fc\u30f3\u3001\u30af\u30ea\u30c6\u30a3\u30ab\u30eb\u7387\u30925%\u30a2\u30c3\u30d7"
    },
    {
        "P_ALT_SKILL_ID": "300200",
        "P_EXPLAIN_SHORT": "\u81ea\u58ca\u306e\u30aa\u30fc\u30c8\u30b0\u30e9\u30d5\u8aac\u660eshort",
        "P_EXTRA_TEXT": "2:2\u30bf\u30fc\u30f3\u3001\u81ea\u5206\u306e\u30af\u30ea\u30c6\u30a3\u30ab\u30eb\u7387\u30925%\u30a2\u30c3\u30d7,\n2:2\u30bf\u30fc\u30f3\u3001\u81ea\u5206\u306e\u30af\u30ea\u30c6\u30a3\u30ab\u30eb\u30c0\u30e1\u30fc\u30b8\u309215%\u30a2\u30c3\u30d7,\n20:2\u30bf\u30fc\u30f3\u3001\u81ea\u5206\u306e\u9632\u5fa1\u529b\u30fb\u9b54\u9632\u529b\u309210%\u30c0\u30a6\u30f3"
    },
    {
        "P_ALT_SKILL_ID": "300300",
        "P_EXPLAIN_SHORT": "\u30a2\u30f3\u30d3\u30f4\u30a1\u30ec\u30f3\u30c8\u8aac\u660eshort",
        "P_EXTRA_TEXT": "2:3\u30bf\u30fc\u30f3\u3001\u81ea\u5206\u306e\u30af\u30ea\u30c6\u30a3\u30ab\u30eb\u7387\u30925%\u30a2\u30c3\u30d7,\n13:3\u30bf\u30fc\u30f3\u3001\u81ea\u5206\u306e\u5149\u95c7\u5c5e\u6027\u30e6\u30cb\u30c3\u30c8\u306b\u4e0e\u3048\u308b\u5f31\u70b9\u5c5e\u6027\u30c0\u30e1\u30fc\u30b8\u309215\uff05\u30a2\u30c3\u30d7"
    },
    {
        "P_ALT_SKILL_ID": "300400",
        "P_EXPLAIN_SHORT": "\u30c7\u30af\u30b9\u30bf\u30e9\u30b9\u8aac\u660eshort",
        "P_EXTRA_TEXT": "2:1\u30bf\u30fc\u30f3\u3001\u81ea\u5206\u306e\u30af\u30ea\u30c6\u30a3\u30ab\u30eb\u7387\u30925%\u30a2\u30c3\u30d7,\n2:1\u30bf\u30fc\u30f3\u3001\u81ea\u5206\u306e\u30af\u30ea\u30c6\u30a3\u30ab\u30eb\u30c0\u30e1\u30fc\u30b8\u309215%\u30a2\u30c3\u30d7,\n20:\u6575\u5358\u4f53\u306b50%\u306e\u78ba\u7387\u30671\u30bf\u30fc\u30f3\u3001\u9632\u5fa1\u529b\u30925%\u4f4e\u4e0b"
    },
    {
        "P_ALT_SKILL_ID": "300500",
        "P_EXPLAIN_SHORT": "\u30d0\u30b9\u30bf\u30fc\u30a6\u30a7\u30a4\u30c8\u8aac\u660eshort",
        "P_EXTRA_TEXT": "2:2\u30bf\u30fc\u30f3\u3001\u81ea\u5206\u306e\u30af\u30ea\u30c6\u30a3\u30ab\u30eb\u30c0\u30e1\u30fc\u30b8\u309225%\u30a2\u30c3\u30d7,\n2:2\u30bf\u30fc\u30f3\u3001\u30af\u30ea\u30c6\u30a3\u30ab\u30eb\u6642\u300150%\u306e\u78ba\u7387\u3067\u81ea\u5206\u306eBB\u30b2\u30fc\u30b8\u309250\u301c200\u5897\u52a0\uff081\u30bf\u30fc\u30f35\u56de\u307e\u3067\uff09"
    },
    {
        "P_ALT_SKILL_ID": "400000",
        "P_EXPLAIN_SHORT": "\u30d0\u30fc\u30b9\u30c8\u30d5\u30a9\u30fc\u30b9\u8aac\u660eshort",
        "P_EXTRA_TEXT": "13:1\u30bf\u30fc\u30f3\u3001\u81ea\u5206\u306e\u653b\u6483BB\u5a01\u529b\u309215%\u30a2\u30c3\u30d7"
    },
    {
        "P_ALT_SKILL_ID": "400100",
        "P_EXPLAIN_SHORT": "\u30d5\u30ec\u30a4\u30e0\u30fb\u30c7\u30a3\u30d5\u30a7\u30af\u30bf\u8aac\u660eshort",
        "P_EXTRA_TEXT": "13:3\u30bf\u30fc\u30f3\u3001\u81ea\u5206\u306e\u708e\u5c5e\u6027\u30e6\u30cb\u30c3\u30c8\u306b\u4e0e\u3048\u308b\u5f31\u70b9\u5c5e\u6027\u30c0\u30e1\u30fc\u30b8\u309210\uff05\u30a2\u30c3\u30d7"
    },
    {
        "P_ALT_SKILL_ID": "400101",
        "P_EXPLAIN_SHORT": "\u30f4\u30a9\u30eb\u30c8\u30fb\u30c7\u30a3\u30d5\u30a7\u30af\u30bf\u8aac\u660eshort",
        "P_EXTRA_TEXT": "13:3\u30bf\u30fc\u30f3\u3001\u81ea\u5206\u306e\u96f7\u5c5e\u6027\u30e6\u30cb\u30c3\u30c8\u306b\u4e0e\u3048\u308b\u5f31\u70b9\u5c5e\u6027\u30c0\u30e1\u30fc\u30b8\u309210\uff05\u30a2\u30c3\u30d7"
    },
    {
        "P_ALT_SKILL_ID": "400102",
        "P_EXPLAIN_SHORT": "\u30a8\u30e1\u30e9\u30eb\u30c9\u30fb\u30c7\u30a3\u30d5\u30a7\u30af\u30bf\u8aac\u660eshort",
        "P_EXTRA_TEXT": "13:3\u30bf\u30fc\u30f3\u3001\u81ea\u5206\u306e\u6a39\u5c5e\u6027\u30e6\u30cb\u30c3\u30c8\u306b\u4e0e\u3048\u308b\u5f31\u70b9\u5c5e\u6027\u30c0\u30e1\u30fc\u30b8\u309210\uff05\u30a2\u30c3\u30d7"
    },
    {
        "P_ALT_SKILL_ID": "400103",
        "P_EXPLAIN_SHORT": "\u30a2\u30af\u30a2\u30fb\u30c7\u30a3\u30d5\u30a7\u30af\u30bf\u8aac\u660eshort",
        "P_EXTRA_TEXT": "13:3\u30bf\u30fc\u30f3\u3001\u81ea\u5206\u306e\u6c34\u5c5e\u6027\u30e6\u30cb\u30c3\u30c8\u306b\u4e0e\u3048\u308b\u5f31\u70b9\u5c5e\u6027\u30c0\u30e1\u30fc\u30b8\u309210\uff05\u30a2\u30c3\u30d7"
    },
    {
        "P_ALT_SKILL_ID": "400104",
        "P_EXPLAIN_SHORT": "\u30b7\u30e3\u30a4\u30f3\u30fb\u30c7\u30a3\u30d5\u30a7\u30af\u30bf\u8aac\u660eshort",
        "P_EXTRA_TEXT": "13:3\u30bf\u30fc\u30f3\u3001\u81ea\u5206\u306e\u5149\u5c5e\u6027\u30e6\u30cb\u30c3\u30c8\u306b\u4e0e\u3048\u308b\u5f31\u70b9\u5c5e\u6027\u30c0\u30e1\u30fc\u30b8\u309210\uff05\u30a2\u30c3\u30d7"
    },
    {
        "P_ALT_SKILL_ID": "400105",
        "P_EXPLAIN_SHORT": "\u30c0\u30fc\u30af\u30fb\u30c7\u30a3\u30d5\u30a7\u30af\u30bf\u8aac\u660eshort",
        "P_EXTRA_TEXT": "13:3\u30bf\u30fc\u30f3\u3001\u81ea\u5206\u306e\u95c7\u5c5e\u6027\u30e6\u30cb\u30c3\u30c8\u306b\u4e0e\u3048\u308b\u5f31\u70b9\u5c5e\u6027\u30c0\u30e1\u30fc\u30b8\u309210\uff05\u30a2\u30c3\u30d7"
    },
    {
        "P_ALT_SKILL_ID": "400200",
        "P_EXPLAIN_SHORT": "\u30f4\u30a7\u30eb\u30bd\u30d5\u30a3\u30ea\u30a2\u8aac\u660eshort",
        "P_EXTRA_TEXT": "13:3\u30bf\u30fc\u30f3\u3001\u81ea\u5206\u306e\u901a\u5e38\u653b\u6483\u306eHIT\u6570\u30921\u5897\u52a0"
    },
    {
        "P_ALT_SKILL_ID": "400300",
        "P_EXPLAIN_SHORT": "\u30c7\u30e2\u30cb\u30c3\u30af\u30b9\u30c6\u30fc\u30c8\u8aac\u660eshort",
        "P_EXTRA_TEXT": "13:3\u30bf\u30fc\u30f3\u3001\u81ea\u5206\u306e\u5f31\u70b9\u5c5e\u6027\u30e6\u30cb\u30c3\u30c8\u306b\u4e0e\u3048\u308b\u30c0\u30e1\u30fc\u30b8\u309225%\u30a2\u30c3\u30d7,\n14:\u73fe\u5728HP\u306e50%\u306e\u30c0\u30e1\u30fc\u30b8\u3092\u53d7\u3051\u308b"
    },
    {
        "P_ALT_SKILL_ID": "400400",
        "P_EXPLAIN_SHORT": "\u84bc\u6602\u9663\u8aac\u660eshort",
        "P_EXTRA_TEXT": "11:3\u30bf\u30fc\u30f3\u3001\u30b9\u30d1\u30fc\u30af\u6642\u300150%\u306e\u78ba\u7387\u3067\u81ea\u5206\u306eBB\u30b2\u30fc\u30b8\u309250\u301c150\u5897\u52a0\uff081\u30bf\u30fc\u30f3\u4e2d5\u56de\u307e\u3067\uff09,\n13:3\u30bf\u30fc\u30f3\u3001\u81ea\u5206\u306e\u653b\u6483BB\u5a01\u529b\u309210%\u30a2\u30c3\u30d7"
    },
    {
        "P_ALT_SKILL_ID": "400500",
        "P_EXPLAIN_SHORT": "\u9032\u5316\u52b1\u8d77\u6cd5\u8aac\u660eshort",
        "P_EXTRA_TEXT": "13:3\u30bf\u30fc\u30f3\u3001\u81ea\u5206\u306e\u653b\u6483BB\u5a01\u529b\u309225%\u30a2\u30c3\u30d7,\n14:\u73fe\u5728HP\u306e50%\u306e\u30c0\u30e1\u30fc\u30b8\u3092\u53d7\u3051\u308b"
    },
    {
        "P_ALT_SKILL_ID": "400600",
        "P_EXPLAIN_SHORT": "\u6c37\u524b\u5de1\u971e\u8aac\u660eshort",
        "P_EXTRA_TEXT": "13:2\u30bf\u30fc\u30f3\u3001\u81ea\u5206\u306e\u653b\u6483BB\u5a01\u529b\u309210%\u30a2\u30c3\u30d7,\n6:2\u30bf\u30fc\u30f3\u3001\u30bf\u30fc\u30f3\u6bce\u306b\u81ea\u5206\u306eBB\u30b2\u30fc\u30b8\u3092200\u30a2\u30c3\u30d7"
    },
    {
        "P_ALT_SKILL_ID": "400700",
        "P_EXPLAIN_SHORT": "\u30b9\u30da\u30eb\u30c9\u30ec\u30b9\u8aac\u660eshort",
        "P_EXTRA_TEXT": "13:2\u30bf\u30fc\u30f3\u3001\u81ea\u5206\u306e\u9b54\u6cd5\u653b\u6483\u306e\u30c0\u30e1\u30fc\u30b8\u309230%\u30a2\u30c3\u30d7,\n20:2\u30bf\u30fc\u30f3\u3001\u81ea\u5206\u306e\u9632\u5fa1\u529b\u30fb\u9b54\u9632\u529b\u309225%\u30c0\u30a6\u30f3"
    },
    {
        "P_ALT_SKILL_ID": "400800",
        "P_EXPLAIN_SHORT": "\u30cb\u30e5\u30fc\u30ed\u30b9\u30d1\u30a4\u30f3\u8aac\u660eshort",
        "P_EXTRA_TEXT": "13:2\u30bf\u30fc\u30f3\u3001\u81ea\u5206\u306e\u901a\u5e38\u653b\u6483\u306eHIT\u6570\u30921\u5897\u52a0"
    },
    {
        "P_ALT_SKILL_ID": "400900",
        "P_EXPLAIN_SHORT": "\u30d0\u30fc\u30b9\u30c8\u30f4\u30a3\u30ac\u30fc\u8aac\u660eshort",
        "P_EXTRA_TEXT": "13:3\u30bf\u30fc\u30f3\u3001\u81ea\u5206\u306e\u653b\u6483BB\u5a01\u529b\u309230%\u30a2\u30c3\u30d7"
    },
    {
        "P_ALT_SKILL_ID": "401200",
        "P_EXPLAIN_SHORT": "\u30de\u30a4\u30af\u30ed\u30fc\u30d6\u8aac\u660eshort",
        "P_EXTRA_TEXT": "13:1\u30bf\u30fc\u30f3\u3001\u81ea\u5206\u306e\u72b6\u614b\u7570\u5e38\u306e\u6575\u3078\u306e\u30c0\u30e1\u30fc\u30b8\u309220%\u30a2\u30c3\u30d7,\n4:\u6575\u5358\u4f53\u309230%\u306e\u78ba\u7387\u30672\u30bf\u30fc\u30f3\u3001\u6bd2\u30fb\u602a\u6211\u30fb\u5f31\u4f53\u72b6\u614b\u306b\u3059\u308b"
    },
    {
        "P_ALT_SKILL_ID": "401300",
        "P_EXPLAIN_SHORT": "\u30df\u30e5\u30fc\u30bf\u30f3\u30c8\u30b9\u30c8\u30ec\u30a4\u30f3\u8aac\u660eshort",
        "P_EXTRA_TEXT": "13:\u5473\u65b9\u5168\u4f53\u306b1\u30bf\u30fc\u30f3\u3001\u72b6\u614b\u7570\u5e38\u306e\u6575\u3078\u306e\u30c0\u30e1\u30fc\u30b8\u309225%\u30a2\u30c3\u30d7,\n2:\u5473\u65b9\u5168\u4f53\u306b1\u30bf\u30fc\u30f3\u3001\u30af\u30ea\u30c6\u30a3\u30ab\u30eb\u7387\u30925%\u30a2\u30c3\u30d7"
    },
    {
        "P_ALT_SKILL_ID": "401400",
        "P_EXPLAIN_SHORT": "\u30d5\u30a3\u30b8\u30ab\u30eb\u30b7\u30d5\u30c8\u8aac\u660eshort",
        "P_EXTRA_TEXT": "13:1\u30bf\u30fc\u30f3\u3001\u81ea\u5206\u306e\u7269\u7406\u30c0\u30e1\u30fc\u30b8\u309220%\u30a2\u30c3\u30d7,\n20:1\u30bf\u30fc\u30f3\u3001\u81ea\u5206\u306e\u9b54\u6cd5\u30c0\u30e1\u30fc\u30b8\u309220%\u30c0\u30a6\u30f3"
    },
    {
        "P_ALT_SKILL_ID": "401500",
        "P_EXPLAIN_SHORT": "\u30b9\u30da\u30eb\u30b7\u30d5\u30c8\u8aac\u660eshort",
        "P_EXTRA_TEXT": "13:1\u30bf\u30fc\u30f3\u3001\u81ea\u5206\u306e\u9b54\u6cd5\u30c0\u30e1\u30fc\u30b8\u309220%\u30a2\u30c3\u30d7,\n20:1\u30bf\u30fc\u30f3\u3001\u81ea\u5206\u306e\u7269\u7406\u30c0\u30e1\u30fc\u30b8\u309220%\u30c0\u30a6\u30f3"
    },
    {
        "P_ALT_SKILL_ID": "500000",
        "P_EXPLAIN_SHORT": "\u30d0\u30fc\u30b9\u30c8\u30ea\u30c6\u30a4\u30f3\u8aac\u660eshort",
        "P_EXTRA_TEXT": "6:2\u30bf\u30fc\u30f3\u3001\u30bf\u30fc\u30f3\u6bce\u306b\u81ea\u5206\u306eBB\u30b2\u30fc\u30b8\u3092200\u30a2\u30c3\u30d7"
    },
    {
        "P_ALT_SKILL_ID": "500100",
        "P_EXPLAIN_SHORT": "\u30d0\u30fc\u30b9\u30c8\u30c1\u30e3\u30fc\u30b8\u8aac\u660eshort",
        "P_EXTRA_TEXT": "6:\u81ea\u5206\u306eBB\u30b2\u30fc\u30b8\u3092500\u5897\u52a0"
    },
    {
        "P_ALT_SKILL_ID": "500200",
        "P_EXPLAIN_SHORT": "\u84bc\u6804\u306e\u30b3\u30f3\u30d5\u30a3\u30c7\u30f3\u30b9\u8aac\u660eshort",
        "P_EXTRA_TEXT": "6:\u5473\u65b9\u5168\u4f53\u306b3\u30bf\u30fc\u30f3\u3001BC\u7372\u5f97\u6642\u306e\u5897\u52a0\u91cf\u309220%\u30a2\u30c3\u30d7"
    },
    {
        "P_ALT_SKILL_ID": "500300",
        "P_EXPLAIN_SHORT": "\u30ac\u30eb\u30f4\u30a1\u30ca\u30a4\u30b6\u30fc\u8aac\u660eshort",
        "P_EXTRA_TEXT": "6:\u5473\u65b9\u306eBB\u30b2\u30fc\u30b8\u3092600\u5897\u52a0"
    },
    {
        "P_ALT_SKILL_ID": "500400",
        "P_EXPLAIN_SHORT": "\u30ec\u30c7\u30a3\u30cd\u30b9\u8aac\u660eshort",
        "P_EXTRA_TEXT": "6:\u81ea\u5206\u306eBB\u30b2\u30fc\u30b8\u30921000\u5897\u52a0,\n20:\u73fe\u5728HP\u306e50%\u306e\u30c0\u30e1\u30fc\u30b8\u3092\u53d7\u3051\u308b,\n20:1\u30bf\u30fc\u30f3\u3001\u81ea\u5206\u306e\u9632\u5fa1\u529b\u309210%\u30c0\u30a6\u30f3"
    },
    {
        "P_ALT_SKILL_ID": "500500",
        "P_EXPLAIN_SHORT": "\u30a4\u30c7\u30a3\u30aa\u30b9\u30c1\u30e3\u30fc\u30b8\u8aac\u660eshort",
        "P_EXTRA_TEXT": "6:\u81ea\u5206\u306eBB\u30b2\u30fc\u30b8\u3092300\u5897\u52a0"
    },
    {
        "P_ALT_SKILL_ID": "500600",
        "P_EXPLAIN_SHORT": "\u30a2\u30ec\u30b9\u30c1\u30e3\u30fc\u30b8\u8aac\u660eshort",
        "P_EXTRA_TEXT": "6:\u5473\u65b9\u306eBB\u30b2\u30fc\u30b8\u3092300\u5897\u52a0"
    },
    {
        "P_ALT_SKILL_ID": "500700",
        "P_EXPLAIN_SHORT": "\u9583\u5c0e\u7d2c\u8aac\u660eshort",
        "P_EXTRA_TEXT": "11:2\u30bf\u30fc\u30f3\u3001\u30b9\u30d1\u30fc\u30af\u6642\u300150%\u306e\u78ba\u7387\u3067\u81ea\u5206\u306eBB\u30b2\u30fc\u30b8\u309250\u301c200\u5897\u52a0\uff081\u30bf\u30fc\u30f3\u4e2d5\u56de\u307e\u3067\uff09"
    },
    {
        "P_ALT_SKILL_ID": "500800",
        "P_EXPLAIN_SHORT": "\u30a2\u30af\u30bb\u30eb\u30d0\u30fc\u30b9\u30c8\u8aac\u660eshort",
        "P_EXTRA_TEXT": "6:2\u30bf\u30fc\u30f3\u3001\u30bf\u30fc\u30f3\u6bce\u306b\u81ea\u5206\u306eBB\u30b2\u30fc\u30b8\u3092300\u30a2\u30c3\u30d7"
    },
    {
        "P_ALT_SKILL_ID": "500900",
        "P_EXPLAIN_SHORT": "\u82f1\u7adc\u306e\u8840\u8aac\u660eshort",
        "P_EXTRA_TEXT": "6:\u81ea\u5206\u306eBB\u30b2\u30fc\u30b8\u3092400\u5897\u52a0,\n6:2\u30bf\u30fc\u30f3\u3001\u30bf\u30fc\u30f3\u6bce\u306b\u81ea\u5206\u306eBB\u30b2\u30fc\u30b8\u3092300\u30a2\u30c3\u30d7,\n11:2\u30bf\u30fc\u30f3\u3001\u81ea\u5206\u306e\u30b9\u30d1\u30fc\u30af\u30c0\u30e1\u30fc\u30b8\u309220%\u30a2\u30c3\u30d7"
    },
    {
        "P_ALT_SKILL_ID": "501000",
        "P_EXPLAIN_SHORT": "\u30df\u30ea\u30a2\u30c9\u30e9\u30a4\u30ba\u8aac\u660eshort",
        "P_EXTRA_TEXT": "6:\u81ea\u5206\u306eBB\u30b2\u30fc\u30b8\u3092SBB\u767a\u52d5\u53ef\u80fd\u307e\u3067\u5897\u52a0,\n1:1\u30bf\u30fc\u30f3\u3001\u81ea\u5206\u306e\u653b\u6483\u529b\u30fb\u9632\u5fa1\u529b\u30fb\u9b54\u9632\u529b\u309220%\u30a2\u30c3\u30d7"
    },
    {
        "P_ALT_SKILL_ID": "600000",
        "P_EXPLAIN_SHORT": "\u30ea\u30ab\u30d0\u30ea\u30fc\u30b3\u30fc\u30c9\u8aac\u660eshort",
        "P_EXTRA_TEXT": "7:\u81ea\u5206\u306eHP\u309215%\u301c20%\u56de\u5fa9"
    },
    {
        "P_ALT_SKILL_ID": "600001",
        "P_EXPLAIN_SHORT": "\u30ec\u30b9\u30c8\u30a2\u30b3\u30fc\u30c9\u8aac\u660eshort",
        "P_EXTRA_TEXT": "7:\u81ea\u5206\u306eHP\u309250%\u56de\u5fa9,\n6:2\u30bf\u30fc\u30f3\u3001\u88ab\u30c0\u30e1\u30fc\u30b8\u6642\u3001\u81ea\u5206\u306eBB\u30b2\u30fc\u30b8\u3092100\u301c200\u5897\u52a0\uff081\u30bf\u30fc\u30f3\u4e2d2\u56de\u307e\u3067\uff09"
    },
    {
        "P_ALT_SKILL_ID": "600100",
        "P_EXPLAIN_SHORT": "\u30d2\u30fc\u30eb\u30ea\u30c6\u30a4\u30f3\u8aac\u660eshort",
        "P_EXTRA_TEXT": "7:3\u30bf\u30fc\u30f3\u3001\u30bf\u30fc\u30f3\u6bce\u306b\u81ea\u5206\u306eHP\u3092200\u301c500\u56de\u5fa9"
    },
    {
        "P_ALT_SKILL_ID": "600200",
        "P_EXPLAIN_SHORT": "\u30b4\u30fc\u30eb\u30c7\u30f3\u30b3\u30d5\u30a3\u30f3\u8aac\u660eshort",
        "P_EXTRA_TEXT": "7:2\u30bf\u30fc\u30f3\u3001\u30bf\u30fc\u30f3\u6bce\u306b\u81ea\u5206\u306eHP\u3092200\u301c300\u56de\u5fa9,\n6:2\u30bf\u30fc\u30f3\u3001\u30bf\u30fc\u30f3\u6bce\u306b\u81ea\u5206\u306eBB\u30b2\u30fc\u30b8\u3092200\u30a2\u30c3\u30d7"
    },
    {
        "P_ALT_SKILL_ID": "600300",
        "P_EXPLAIN_SHORT": "\u30b8\u30e5\u30a8\u30eb\u30c0\u30a4\u30ca\u30fc\u8aac\u660eshort",
        "P_EXTRA_TEXT": "7:\u5473\u65b9\u5168\u4f53\u306eHP\u3092400\u301c600\u56de\u5fa9,\n6:\u5473\u65b9\u5168\u4f53\u306b3\u30bf\u30fc\u30f3\u3001BC\u7372\u5f97\u6642\u306e\u5897\u52a0\u91cf\u309210%\u30a2\u30c3\u30d7"
    },
    {
        "P_ALT_SKILL_ID": "600400",
        "P_EXPLAIN_SHORT": "\u30d2\u30fc\u30ea\u30f3\u30b0\u30b9\u30b1\u30fc\u30eb\u8aac\u660eshort",
        "P_EXTRA_TEXT": "7:\u5473\u65b9\u5168\u4f53\u306eHP\u309230%\u301c35%\u56de\u5fa9"
    },
    {
        "P_ALT_SKILL_ID": "600500",
        "P_EXPLAIN_SHORT": "\u7dcb\u7adc\u9c57\u8aac\u660eshort",
        "P_EXTRA_TEXT": "7:\u81ea\u5206\u306eHP\u309220%\u301c25%\u56de\u5fa9,\n10:1\u30bf\u30fc\u30f3\u3001\u81ea\u5206\u306e\u30ac\u30fc\u30c9\u6642\u306e\u30c0\u30e1\u30fc\u30b8\u8efd\u6e1b\u7387\u309210%\u30a2\u30c3\u30d7"
    },
    {
        "P_ALT_SKILL_ID": "600600",
        "P_EXPLAIN_SHORT": "\u30e9\u30d5\u30a1\u30a8\u30eb\u30fb\u30d6\u30ea\u30fc\u30ba\u8aac\u660eshort",
        "P_EXTRA_TEXT": "7:\u81ea\u5206\u306eHP\u309250%\u56de\u5fa9,\n7:\u5473\u65b9\u5168\u4f53\u306b3\u30bf\u30fc\u30f3\u3001\u30bf\u30fc\u30f3\u6bce\u306b\u81ea\u5206\u306eHP\u3092600\u301c800\u56de\u5fa9,\n7:\u81ea\u5206\u306b20%\u306e\u78ba\u7387\u3067\u6226\u95d8\u4e0d\u80fd\u3092\u4e00\u5ea6\u8010\u3048\u308b\u52b9\u679c\u3092\u4ed8\u4e0e"
    },
    {
        "P_ALT_SKILL_ID": "700100",
        "P_EXPLAIN_SHORT": "\u30cf\u30f3\u30c6\u30a3\u30f3\u30b0\u30e9\u30c3\u30b7\u30e5\u8aac\u660eshort",
        "P_EXTRA_TEXT": "3:\u5473\u65b9\u5168\u4f53\u306b3\u30bf\u30fc\u30f3\u3001BC\u30fbHC\u51fa\u73fe\u7387\u30925%\u30a2\u30c3\u30d7"
    },
    {
        "P_ALT_SKILL_ID": "800000",
        "P_EXPLAIN_SHORT": "\u30ec\u30b8\u30b9\u30c8\u30d1\u30e9\u30e9\u30a4\u30ba\u8aac\u660eshort",
        "P_EXTRA_TEXT": "5:\u5473\u65b9\u5168\u4f53\u306b2\u30bf\u30fc\u30f3\u3001\u9ebb\u75fa\u8010\u6027\u309250%\u30a2\u30c3\u30d7"
    },
    {
        "P_ALT_SKILL_ID": "800100",
        "P_EXPLAIN_SHORT": "\u30ec\u30b8\u30b9\u30c8\u30df\u30e9\u30fc\u30b8\u30e5\u8aac\u660eshort",
        "P_EXTRA_TEXT": "5:\u5473\u65b9\u5168\u4f53\u306b2\u30bf\u30fc\u30f3\u3001\u5e7b\u899a\u8010\u6027\u309250%\u30a2\u30c3\u30d7"
    },
    {
        "P_ALT_SKILL_ID": "800200",
        "P_EXPLAIN_SHORT": "\u30ec\u30b8\u30b9\u30c8\u30ab\u30fc\u30b9\u8aac\u660eshort",
        "P_EXTRA_TEXT": "5:\u5473\u65b9\u5168\u4f53\u306b2\u30bf\u30fc\u30f3\u3001\u546a\u3044\u8010\u6027\u309250%\u30a2\u30c3\u30d7"
    },
    {
        "P_ALT_SKILL_ID": "800300",
        "P_EXPLAIN_SHORT": "\u30a2\u30b9\u30c8\u30e9\u30eb\u30de\u30ca\u30fb\u03a3\u8aac\u660eshort",
        "P_EXTRA_TEXT": "5:\u5473\u65b9\u5168\u4f53\u306b2\u30bf\u30fc\u30f3\u3001\u6bd2\u30fb\u602a\u6211\u30fb\u5f31\u4f53\u30fb\u96d1\u5ff5\u30fb\u865a\u8131\u30fb\u75c5\u6c17\u30fb\u9ebb\u75fa\u30fb\u546a\u3044\u8010\u6027\u309250%\u30a2\u30c3\u30d7"
    },
    {
        "P_ALT_SKILL_ID": "800400",
        "P_EXPLAIN_SHORT": "\u30a8\u30b9\u30c8\u30e9\u30f3\u30b8\u30a7\u8aac\u660eshort",
        "P_EXTRA_TEXT": "5:\u5473\u65b9\u5168\u4f53\u306b2\u30bf\u30fc\u30f3\u3001\u6bd2\u30fb\u602a\u6211\u30fb\u5f31\u4f53\u30fb\u96d1\u5ff5\u30fb\u865a\u8131\u30fb\u75c5\u6c17\u30fb\u9ebb\u75fa\u30fb\u546a\u3044\u8010\u6027\u309230%\u30a2\u30c3\u30d7"
    },
    {
        "P_ALT_SKILL_ID": "800500",
        "P_EXPLAIN_SHORT": "\u30af\u30ea\u30a2\u30ec\u30a4\u30f3\u8aac\u660eshort",
        "P_EXTRA_TEXT": "7:\u81ea\u5206\u306e\u602a\u6211\u30fb\u5f31\u4f53\u30fb\u96d1\u5ff5\u30fb\u865a\u8131\u3092\u56de\u5fa9"
    },
    {
        "P_ALT_SKILL_ID": "800600",
        "P_EXPLAIN_SHORT": "\u30b5\u30bf\u30a4\u30a2\u30c6\u30a3\u8aac\u660eshort",
        "P_EXTRA_TEXT": "5:3\u30bf\u30fc\u30f3\u3001\u81ea\u5206\u306e\u653b\u6483\u529b\u30fb\u9632\u5fa1\u529b\u30fb\u9b54\u9632\u529b\u4f4e\u4e0b\u3078\u306e\u8010\u6027\u309230%\u30a2\u30c3\u30d7"
    },
    {
        "P_ALT_SKILL_ID": "800700",
        "P_EXPLAIN_SHORT": "\u7570\u514d\u5203\u7d0b\u8aac\u660eshort",
        "P_EXTRA_TEXT": "5:\u5473\u65b9\u5168\u4f53\u306b2\u30bf\u30fc\u30f3\u3001\u9ebb\u75fa\u30fb\u546a\u3044\u30fb\u6df7\u4e71\u3092\u7121\u52b9"
    },
    {
        "P_ALT_SKILL_ID": "900100",
        "P_EXPLAIN_SHORT": "\u30c1\u30e3\u30fc\u30e0\u30ec\u30f3\u30c9\u8aac\u660eshort",
        "P_EXTRA_TEXT": "4:\u6575\u5358\u4f53\u309220%\u306e\u78ba\u7387\u30671\u30bf\u30fc\u30f3\u3001\u9b45\u4e86\u72b6\u614b\u306b\u3059\u308b"
    },
    {
        "P_ALT_SKILL_ID": "900200",
        "P_EXPLAIN_SHORT": "\u30df\u30b9\u30c6\u30a3\u30d5\u30a1\u30a4\u8aac\u660eshort",
        "P_EXTRA_TEXT": "4:\u6575\u5358\u4f53\u309230%\u306e\u78ba\u7387\u30672\u30bf\u30fc\u30f3\u3001\u6bd2\u72b6\u614b\u306b\u3059\u308b,\n4:\u6575\u5358\u4f53\u309230%\u306e\u78ba\u7387\u30671\u30bf\u30fc\u30f3\u3001\u9ebb\u75fa\u72b6\u614b\u306b\u3059\u308b"
    },
    {
        "P_ALT_SKILL_ID": "1000100",
        "P_EXPLAIN_SHORT": "\u30c7\u30a6\u30c6\u30ed\u30f3\u30fb\u30d6\u30ec\u30a4\u30b9\u8aac\u660eshort",
        "P_EXTRA_TEXT": "10:\u5473\u65b9\u5168\u4f53\u306b1\u30bf\u30fc\u30f3\u3001\u9b54\u6cd5\u30c0\u30e1\u30fc\u30b8\u30925%\u8efd\u6e1b"
    },
    {
        "P_ALT_SKILL_ID": "1000200",
        "P_EXPLAIN_SHORT": "\u30c7\u30a3\u30b1\u30a4\u30d5\u30a3\u30fc\u30eb\u30c9\u8aac\u660eshort",
        "P_EXTRA_TEXT": "10:\u5473\u65b9\u5168\u4f53\u306b2\u30bf\u30fc\u30f3\u3001\u5168\u5c5e\u6027\u306e\u30c0\u30e1\u30fc\u30b8\u30925%\u8efd\u6e1b"
    },
    {
        "P_ALT_SKILL_ID": "1000300",
        "P_EXPLAIN_SHORT": "\u30bd\u30ea\u30c3\u30c9\u30a2\u30fc\u30de\u30fc\u8aac\u660eshort",
        "P_EXTRA_TEXT": "10:\u5473\u65b9\u5168\u4f53\u306b1\u30bf\u30fc\u30f3\u3001\u7269\u7406\u30c0\u30e1\u30fc\u30b8\u30925%\u8efd\u6e1b"
    },
    {
        "P_ALT_SKILL_ID": "1100000",
        "P_EXPLAIN_SHORT": "\u30f4\u30a9\u30eb\u30c8\u30a8\u30ec\u30e1\u30f3\u30c8\u8aac\u660eshort",
        "P_EXTRA_TEXT": "13:\u5473\u65b9\u5168\u4f53\u306b1\u30bf\u30fc\u30f3\u3001\u96f7\u5c5e\u6027\u3092\u4ed8\u4e0e"
    },
    {
        "P_ALT_SKILL_ID": "1100100",
        "P_EXPLAIN_SHORT": "\u6c37\u524b\u6607\u83ef\u8aac\u660eshort",
        "P_EXTRA_TEXT": "13:5\u30bf\u30fc\u30f3\u3001\u81ea\u5206\u306e\u653b\u6483BB\u306e\u5a01\u529b\u309220%\u30a2\u30c3\u30d7,\n11:5\u30bf\u30fc\u30f3\u3001\u81ea\u5206\u306e\u30b9\u30d1\u30fc\u30af\u30c0\u30e1\u30fc\u30b8\u309220%\u30a2\u30c3\u30d7,\n20:5\u30bf\u30fc\u30f3\u3001\u30bf\u30fc\u30f3\u6bce\u306b\u81ea\u5206\u306eBB\u30b2\u30fc\u30b8\u3092200\u6e1b\u5c11"
    },
    {
        "P_ALT_SKILL_ID": "1100200",
        "P_EXPLAIN_SHORT": "\u518d\u81e8\u30ce\u714c\u30ad\u8aac\u660eshort",
        "P_EXTRA_TEXT": "6:5\u30bf\u30fc\u30f3\u3001\u30bf\u30fc\u30f3\u6bce\u306b\u81ea\u5206\u306eBB\u30b2\u30fc\u30b8\u3092200\u30a2\u30c3\u30d7,\n7:5\u30bf\u30fc\u30f3\u3001\u30bf\u30fc\u30f3\u6bce\u306b\u81ea\u5206\u306eHP\u3092200\u301c300\u56de\u5fa9,\n20:5\u30bf\u30fc\u30f3\u3001\u81ea\u5206\u306e\u653b\u6483\u529b\u309210%\u30c0\u30a6\u30f3"
    },
    {
        "P_ALT_SKILL_ID": "1100300",
        "P_EXPLAIN_SHORT": "\u30a8\u30e1\u30e9\u30eb\u30c9\u30a8\u30ec\u30e1\u30f3\u30c8\u8aac\u660eshort",
        "P_EXTRA_TEXT": "13:\u5473\u65b9\u5168\u4f53\u306b1\u30bf\u30fc\u30f3\u3001\u6a39\u5c5e\u6027\u3092\u4ed8\u4e0e"
    },
    {
        "P_ALT_SKILL_ID": "1100400",
        "P_EXPLAIN_SHORT": "\u30b7\u30e3\u30a4\u30f3\u30a8\u30ec\u30e1\u30f3\u30c8\u8aac\u660eshort",
        "P_EXTRA_TEXT": "13:\u5473\u65b9\u5168\u4f53\u306b1\u30bf\u30fc\u30f3\u3001\u5149\u5c5e\u6027\u3092\u4ed8\u4e0e"
    },
    {
        "P_ALT_SKILL_ID": "1100500",
        "P_EXPLAIN_SHORT": "\u30af\u30ed\u30b9\u30c1\u30e3\u30fc\u30b8\u8aac\u660eshort",
        "P_EXTRA_TEXT": "21:XBB\u30b2\u30fc\u30b8\u30922%\u5897\u52a0"
    },
    {
        "P_ALT_SKILL_ID": "1100600",
        "P_EXPLAIN_SHORT": "\u30d5\u30ec\u30a4\u30e0\u30a8\u30ec\u30e1\u30f3\u30c8\u8aac\u660eshort",
        "P_EXTRA_TEXT": "13:\u5473\u65b9\u5168\u4f53\u306b1\u30bf\u30fc\u30f3\u3001\u708e\u5c5e\u6027\u3092\u4ed8\u4e0e"
    },
    {
        "P_ALT_SKILL_ID": "1100700",
        "P_EXPLAIN_SHORT": "\u30a2\u30af\u30a2\u30a8\u30ec\u30e1\u30f3\u30c8\u8aac\u660eshort",
        "P_EXTRA_TEXT": "13:\u5473\u65b9\u5168\u4f53\u306b1\u30bf\u30fc\u30f3\u3001\u6c34\u5c5e\u6027\u3092\u4ed8\u4e0e"
    },
    {
        "P_ALT_SKILL_ID": "1100800",
        "P_EXPLAIN_SHORT": "\u30c0\u30fc\u30af\u30a8\u30ec\u30e1\u30f3\u30c8\u8aac\u660eshort",
        "P_EXTRA_TEXT": "13:\u5473\u65b9\u5168\u4f53\u306b1\u30bf\u30fc\u30f3\u3001\u95c7\u5c5e\u6027\u3092\u4ed8\u4e0e"
    },
    {
        "P_ALT_SKILL_ID": "1200100",
        "P_EXPLAIN_SHORT": "\u5239\u90a3\u306e\u5204\u30fb\u83ef\u53e2\u8aac\u660eshort",
        "P_EXTRA_TEXT": "14:\u6575\u4e00\u5217\u306b\u6a39\u5c5e\u60278\u9023\u306e200%\u30c0\u30e1\u30fc\u30b8"
    },
    {
        "P_ALT_SKILL_ID": "1300000",
        "P_EXPLAIN_SHORT": "\u30c7\u30d5\u30a9\u30fc\u30b9\u30ec\u30f3\u30c9\u8aac\u660eshort",
        "P_EXTRA_TEXT": "20:\u6575\u5358\u4f53\u306b30%\u306e\u78ba\u7387\u30671\u30bf\u30fc\u30f3\u3001\u653b\u6483\u529b\u30923%\u4f4e\u4e0b"
    },
    {
        "P_ALT_SKILL_ID": "1300100",
        "P_EXPLAIN_SHORT": "\u30f4\u30a1\u30a4\u30eb\u30ae\u30d5\u30c8\u8aac\u660eshort",
        "P_EXTRA_TEXT": "20:\u6575\u5358\u4f53\u306b50%\u306e\u78ba\u7387\u30671\u30bf\u30fc\u30f3\u3001\u9632\u5fa1\u529b\u30925%\u4f4e\u4e0b,\n4:\u6575\u5358\u4f53\u309210%\u306e\u78ba\u7387\u30671\u30bf\u30fc\u30f3\u3001\u6df7\u4e71\u72b6\u614b\u306b\u3059\u308b"
    },
    {
        "P_ALT_SKILL_ID": "1300200",
        "P_EXPLAIN_SHORT": "\u30ed\u30fc\u30ba\u30af\u30a9\u30fc\u30c4\u8aac\u660eshort",
        "P_EXTRA_TEXT": "20:\u6575\u5358\u4f53\u306b50%\u306e\u78ba\u7387\u30671\u30bf\u30fc\u30f3\u3001\u653b\u6483\u529b\u30925%\u4f4e\u4e0b,\n7:2\u30bf\u30fc\u30f3\u3001\u88ab\u30c0\u30e1\u30fc\u30b8\u6642\u300130%\u306e\u78ba\u7387\u3067\u81ea\u5206\u306eHP\u309220%\u56de\u5fa9\uff081\u30bf\u30fc\u30f3\u4e2d3\u56de\u307e\u3067\uff09"
    },
    {
        "P_ALT_SKILL_ID": "1300300",
        "P_EXPLAIN_SHORT": "\u30a2\u30f3\u30c0\u30fc\u30de\u30a4\u30f3\u8aac\u660eshort",
        "P_EXTRA_TEXT": "20:\u6575\u5358\u4f53\u306b50%\u306e\u78ba\u7387\u30671\u30bf\u30fc\u30f3\u3001\u9b54\u9632\u529b\u30925%\u4f4e\u4e0b,\n4:\u6575\u5358\u4f53\u309230%\u306e\u78ba\u7387\u30672\u30bf\u30fc\u30f3\u3001\u6bd2\u72b6\u614b\u306b\u3059\u308b"
    },
    {
        "P_ALT_SKILL_ID": "1300400",
        "P_EXPLAIN_SHORT": "\u30ea\u30f4\u30a9\u30fc\u30ab\u30fc\u8aac\u660eshort",
        "P_EXTRA_TEXT": "20:\u6575\u5168\u4f53\u306b80%\u306e\u78ba\u7387\u30672\u30bf\u30fc\u30f3\u3001\u9632\u5fa1\u529b\u30925%\u4f4e\u4e0b,\n20:\u6575\u5168\u4f53\u306b80%\u306e\u78ba\u7387\u30672\u30bf\u30fc\u30f3\u3001\u9b54\u9632\u529b\u30925%\u4f4e\u4e0b"
    },
    {
        "P_ALT_SKILL_ID": "1300500",
        "P_EXPLAIN_SHORT": "\u30e9\u30d3\u30c3\u30b7\u30e5\u30e1\u30fc\u30ab\u30fc\u8aac\u660eshort",
        "P_EXTRA_TEXT": "20:\u6575\u5358\u4f53\u306b60%\u306e\u78ba\u7387\u30672\u30bf\u30fc\u30f3\u3001\u653b\u6483\u529b\u30925%\u4f4e\u4e0b,\n4:\u6575\u5358\u4f53\u309260%\u306e\u78ba\u7387\u30672\u30bf\u30fc\u30f3\u3001\u602a\u6211\u30fb\u96d1\u5ff5\u72b6\u614b\u306b\u3059\u308b"
    }
]