[
    {
        "P_ALT_SKILL_ID": "10000",
        "P_EXPLAIN_SHORT": "\u9b54\u4eba\u5316\u8aac\u660eshort",
        "P_EXTRA_TEXT": "15:\u79d8\u3081\u3089\u308c\u3057\u9b54\u795e\u306e\u529b\u3092\u958b\u653e\u3059\u308b",
        "P_CREATEDATE": "2018-02-06 18:10:29",
        "P_UPDATEDATE": "2018-02-06 18:10:29"
    },
    {
        "P_ALT_SKILL_ID": "20000",
        "P_EXPLAIN_SHORT": "\u30f4\u30a7\u30fc\u30c0\u6d41\u83ef\u5263\u300e\u7e5a\u7fe0\u300f\u8aac\u660eshort",
        "P_EXTRA_TEXT": "14:\u6575\u5358\u4f53\u306b\u6a39\u5c5e\u60278\u9023\u306e200%\u30c0\u30e1\u30fc\u30b8",
        "P_CREATEDATE": "2018-02-06 18:10:29",
        "P_UPDATEDATE": "2018-02-06 18:10:29"
    },
    {
        "P_ALT_SKILL_ID": "20001",
        "P_EXPLAIN_SHORT": "\u8056\u5149\u306e\u30b5\u30f3\u30af\u30aa\u30fc\u30ec\u8aac\u660eshort",
        "P_EXTRA_TEXT": "7:\u5473\u65b9\u5168\u4f53\u306eHP\u3092800~1000\u56de\u5fa9",
        "P_CREATEDATE": "2018-02-06 18:10:29",
        "P_UPDATEDATE": "2018-02-06 18:10:29"
    },
    {
        "P_ALT_SKILL_ID": "22222",
        "P_EXPLAIN_SHORT": "\u30da\u30c3\u30c8_old\u8aac\u660eshort",
        "P_EXTRA_TEXT": "\u30da\u30c3\u30c8_old\u8aac\u660eshort\u8aac\u660elong",
        "P_CREATEDATE": "2018-02-06 18:10:29",
        "P_UPDATEDATE": "2018-02-06 18:10:29"
    },
    {
        "P_ALT_SKILL_ID": "30000",
        "P_EXPLAIN_SHORT": "\u5f37\u5316\u8aac\u660eshort",
        "P_EXTRA_TEXT": "\u5f37\u5316\u8aac\u660eshort\u8aac\u660elong",
        "P_CREATEDATE": "2018-02-06 18:10:29",
        "P_UPDATEDATE": "2018-02-06 18:10:29"
    },
    {
        "P_ALT_SKILL_ID": "1000001",
        "P_EXPLAIN_SHORT": "\u30ea\u30b6\u30fc\u30c9\u30d6\u30ec\u30b9\u8aac\u660eshort",
        "P_EXTRA_TEXT": "\u30ea\u30b6\u30fc\u30c9\u30d6\u30ec\u30b9\u8aac\u660eshort\u8aac\u660elong",
        "P_CREATEDATE": "2018-02-06 18:10:29",
        "P_UPDATEDATE": "2018-02-06 18:10:29"
    }
]