[
    {
        "P_ALT_SKILL_ID": "10000",
        "P_EXPLAIN_SHORT": "\u9b54\u795e\u5316\u8aac\u660eshort",
        "P_EXTRA_TEXT": "15:\u79d8\u3081\u3089\u308c\u3057\u9b54\u795e\u306e\u529b\u3092\u958b\u653e\u3059\u308b\uff08\u884c\u52d5\u6d88\u8cbb\u306a\u3057\uff09",
        "P_CREATEDATE": "2018-04-25 01:31:46",
        "P_UPDATEDATE": "2018-04-25 01:31:46"
    },
    {
        "P_ALT_SKILL_ID": "10001",
        "P_EXPLAIN_SHORT": "\u30ac\u30d6\u30c6\u30a3\u30e9\u30fb\u30c7\u30fb\u30ab\u30fc\u30cb\u30d0\u30eb\uff01\u8aac\u660eshort",
        "P_EXTRA_TEXT": "19:3\u30bf\u30fc\u30f3\u3001\u30ad\u30e7\u30a6\u30ea\u30e5\u30a6\u30ec\u30c3\u30c9\uff23\u306b\u30d1\u30ef\u30fc\u30a2\u30c3\u30d7\u3059\u308b\uff08\u884c\u52d5\u6d88\u8cbb\u306a\u3057\uff09",
        "P_CREATEDATE": "2018-04-25 01:31:46",
        "P_UPDATEDATE": "2018-04-25 01:31:46"
    },
    {
        "P_ALT_SKILL_ID": "20000",
        "P_EXPLAIN_SHORT": "\u6211\u6d41\u30f4\u30a7\u30fc\u30c0\u83ef\u5263\u300e\u7e5a\u7fe0\u300f\u8aac\u660eshort",
        "P_EXTRA_TEXT": "14:\u6575\u5358\u4f53\u306b\u6a39\u5c5e\u60278\u9023\u306e300%\u30c0\u30e1\u30fc\u30b8\uff08\u884c\u52d5\u6d88\u8cbb\u3042\u308a\uff09",
        "P_CREATEDATE": "2018-04-25 01:31:46",
        "P_UPDATEDATE": "2018-04-25 01:31:46"
    },
    {
        "P_ALT_SKILL_ID": "20001",
        "P_EXPLAIN_SHORT": "\u8056\u5149\u306e\u30b5\u30f3\u30af\u30aa\u30fc\u30ec\u8aac\u660eshort",
        "P_EXTRA_TEXT": "7:\u5473\u65b9\u5168\u4f53\u306eHP\u3092800\u301c1000\u56de\u5fa9\uff08\u884c\u52d5\u6d88\u8cbb\u3042\u308a\uff09",
        "P_CREATEDATE": "2018-04-25 01:31:46",
        "P_UPDATEDATE": "2018-04-25 01:31:46"
    },
    {
        "P_ALT_SKILL_ID": "20002",
        "P_EXPLAIN_SHORT": "\u30a2\u30f3\u30d6\u30ec\u30a4\u30ab\u30d6\u30eb\u8aac\u660eshort",
        "P_EXTRA_TEXT": "6:\u81ea\u5206\u306eBB\u30b2\u30fc\u30b8\u3092BB\u767a\u52d5\u53ef\u80fd\u307e\u3067\u5897\u52a0\uff08\u884c\u52d5\u6d88\u8cbb\u3042\u308a\uff09",
        "P_CREATEDATE": "2018-04-25 01:31:46",
        "P_UPDATEDATE": "2018-04-25 01:31:46"
    },
    {
        "P_ALT_SKILL_ID": "20003",
        "P_EXPLAIN_SHORT": "\u7a7a\u9727\u8fc5\u8aac\u660eshort",
        "P_EXTRA_TEXT": "4:\u6575\u4e00\u5217\u309240%\u306e\u78ba\u7387\u30672\u30bf\u30fc\u30f3\u3001\u5e7b\u899a\u72b6\u614b\u306b\u3059\u308b,\n4:\u6575\u4e00\u5217\u309240%\u306e\u78ba\u7387\u30671\u30bf\u30fc\u30f3\u3001\u6df7\u4e71\u72b6\u614b\u306b\u3059\u308b\uff08\u884c\u52d5\u6d88\u8cbb\u3042\u308a\uff09",
        "P_CREATEDATE": "2018-04-25 01:31:46",
        "P_UPDATEDATE": "2018-04-25 01:31:46"
    },
    {
        "P_ALT_SKILL_ID": "20004",
        "P_EXPLAIN_SHORT": "\u30ed\u30b9\u30c8\u30eb\u30df\u30ca\u8aac\u660eshort",
        "P_EXTRA_TEXT": "14:\u6575\u5168\u4f53\u306b\u5149\u5c5e\u602712\u9023\u306e140%\u30c0\u30e1\u30fc\u30b8\uff08\u884c\u52d5\u6d88\u8cbb\u3042\u308a\uff09",
        "P_CREATEDATE": "2018-04-25 01:31:46",
        "P_UPDATEDATE": "2018-04-25 01:31:46"
    },
    {
        "P_ALT_SKILL_ID": "30000",
        "P_EXPLAIN_SHORT": "\u30b9\u30ad\u30eb\u30e9\u30a4\u30ba\u8aac\u660eshort",
        "P_EXTRA_TEXT": "14:\u5bfe\u8c61\u304c\u30d6\u30ec\u30a4\u30af\u4e2d\u306b\u4f7f\u7528\u3059\u308b\u3053\u3068\u3067\u3001\u78ba\u7387\u3067\u30b9\u30ad\u30eb\u53d6\u5f97\u3067\u304d\u308b\uff08\u30d0\u30c8\u30eb\u4e2d\u306b1\u5ea6\u306e\u307f\u4f7f\u7528\u53ef\u80fd\u3001\u884c\u52d5\u6d88\u8cbb\u3042\u308a\uff09",
        "P_CREATEDATE": "2018-04-25 01:31:46",
        "P_UPDATEDATE": "2018-04-25 01:31:46"
    },
    {
        "P_ALT_SKILL_ID": "100000",
        "P_EXPLAIN_SHORT": "\u30d5\u30a9\u30fc\u30b9\u30b2\u30a4\u30f3\u8aac\u660eshort",
        "P_EXTRA_TEXT": "1:1\u30bf\u30fc\u30f3\u3001\u81ea\u5206\u306e\u653b\u6483\u529b\u30925%\u30a2\u30c3\u30d7\uff08\u884c\u52d5\u6d88\u8cbb\u306a\u3057\uff09",
        "P_CREATEDATE": "2018-04-25 01:31:46",
        "P_UPDATEDATE": "2018-04-25 01:31:46"
    },
    {
        "P_ALT_SKILL_ID": "100001",
        "P_EXPLAIN_SHORT": "\u7cbe\u795e\u7d71\u4e00\u8aac\u660eshort",
        "P_EXTRA_TEXT": "1:2\u30bf\u30fc\u30f3\u3001\u81ea\u5206\u306e\u653b\u6483\u529b\u309220%\u30a2\u30c3\u30d7\uff08\u884c\u52d5\u6d88\u8cbb\u3042\u308a\uff09",
        "P_CREATEDATE": "2018-04-25 01:31:46",
        "P_UPDATEDATE": "2018-04-25 01:31:46"
    },
    {
        "P_ALT_SKILL_ID": "100002",
        "P_EXPLAIN_SHORT": "\u9ed2\u9244\u306e\u5263\u621f\u8aac\u660eshort",
        "P_EXTRA_TEXT": "1:3\u30bf\u30fc\u30f3\u3001\u81ea\u5206\u306e\u653b\u6483\u529b\u309225%\u30a2\u30c3\u30d7,\n20:3\u30bf\u30fc\u30f3\u3001\u81ea\u5206\u306e\u9632\u5fa1\u529b\u30fb\u9b54\u9632\u529b\u309250%\u30c0\u30a6\u30f3\uff08\u884c\u52d5\u6d88\u8cbb\u3042\u308a\uff09",
        "P_CREATEDATE": "2018-04-25 01:31:46",
        "P_UPDATEDATE": "2018-04-25 01:31:46"
    },
    {
        "P_ALT_SKILL_ID": "100100",
        "P_EXPLAIN_SHORT": "\u30b7\u30fc\u30eb\u30c9\u30b2\u30a4\u30f3\u8aac\u660eshort",
        "P_EXTRA_TEXT": "1:2\u30bf\u30fc\u30f3\u3001\u81ea\u5206\u306e\u9632\u5fa1\u529b\u309210%\u30a2\u30c3\u30d7\uff08\u884c\u52d5\u6d88\u8cbb\u306a\u3057\uff09",
        "P_CREATEDATE": "2018-04-25 01:31:46",
        "P_UPDATEDATE": "2018-04-25 01:31:46"
    },
    {
        "P_ALT_SKILL_ID": "100200",
        "P_EXPLAIN_SHORT": "\u30a4\u30fc\u30b8\u30b9\u30b2\u30a4\u30f3\u8aac\u660eshort",
        "P_EXTRA_TEXT": "1:2\u30bf\u30fc\u30f3\u3001\u81ea\u5206\u306e\u9b54\u9632\u529b\u309210%\u30a2\u30c3\u30d7\uff08\u884c\u52d5\u6d88\u8cbb\u306a\u3057\uff09",
        "P_CREATEDATE": "2018-04-25 01:31:46",
        "P_UPDATEDATE": "2018-04-25 01:31:46"
    },
    {
        "P_ALT_SKILL_ID": "100300",
        "P_EXPLAIN_SHORT": "\u30f4\u30a1\u30a4\u30bf\u30eb\u30b2\u30a4\u30f3\u8aac\u660eshort",
        "P_EXTRA_TEXT": "1:\u5473\u65b9\u5168\u4f53\u306e\u6700\u5927HP\u30923%\u30a2\u30c3\u30d7\uff08\u884c\u52d5\u6d88\u8cbb\u3042\u308a\uff09",
        "P_CREATEDATE": "2018-04-25 01:31:46",
        "P_UPDATEDATE": "2018-04-25 01:31:46"
    },
    {
        "P_ALT_SKILL_ID": "100400",
        "P_EXPLAIN_SHORT": "\u30b0\u30e9\u30f3\u30c4\u30b7\u30d5\u30c8\u8aac\u660eshort",
        "P_EXTRA_TEXT": "1:2\u30bf\u30fc\u30f3\u3001\u81ea\u5206\u306e\u653b\u6483\u529b\u30fb\u9632\u5fa1\u529b\u30fb\u9b54\u9632\u529b\u30928%\u30a2\u30c3\u30d7\uff08\u884c\u52d5\u6d88\u8cbb\u306a\u3057\uff09",
        "P_CREATEDATE": "2018-04-25 01:31:46",
        "P_UPDATEDATE": "2018-04-25 01:31:46"
    },
    {
        "P_ALT_SKILL_ID": "100500",
        "P_EXPLAIN_SHORT": "\u30c7\u30e5\u30fc\u30af\u30e9\u30a4\u30e0\u8aac\u660eshort",
        "P_EXTRA_TEXT": "1:2\u30bf\u30fc\u30f3\u3001\u81ea\u5206\u306e\u653b\u6483\u529b\u309215%\u30a2\u30c3\u30d7,\n20:2\u30bf\u30fc\u30f3\u3001\u81ea\u5206\u306e\u9632\u5fa1\u529b\u30fb\u9b54\u9632\u529b\u309225%\u30c0\u30a6\u30f3\uff08\u884c\u52d5\u6d88\u8cbb\u306a\u3057\uff09",
        "P_CREATEDATE": "2018-04-25 01:31:46",
        "P_UPDATEDATE": "2018-04-25 01:31:46"
    },
    {
        "P_ALT_SKILL_ID": "200000",
        "P_EXPLAIN_SHORT": "\u30b9\u30d1\u30fc\u30af\u30d5\u30a9\u30fc\u30b9\u30ec\u30a4\u30ba\u8aac\u660eshort",
        "P_EXTRA_TEXT": "11:2\u30bf\u30fc\u30f3\u3001\u81ea\u5206\u306e\u30b9\u30d1\u30fc\u30af\u30c0\u30e1\u30fc\u30b8\u309220%\u30a2\u30c3\u30d7\uff08\u884c\u52d5\u6d88\u8cbb\u306a\u3057\uff09",
        "P_CREATEDATE": "2018-04-25 01:31:46",
        "P_UPDATEDATE": "2018-04-25 01:31:46"
    },
    {
        "P_ALT_SKILL_ID": "300000",
        "P_EXPLAIN_SHORT": "\u30af\u30ea\u30c6\u30a3\u30ab\u30eb\u30d5\u30a9\u30fc\u30b9\u30ec\u30a4\u30ba\u8aac\u660eshort",
        "P_EXTRA_TEXT": "2:3\u30bf\u30fc\u30f3\u3001\u81ea\u5206\u306e\u30af\u30ea\u30c6\u30a3\u30ab\u30eb\u30c0\u30e1\u30fc\u30b8\u309220%\u30a2\u30c3\u30d7\uff08\u884c\u52d5\u6d88\u8cbb\u306a\u3057\uff09",
        "P_CREATEDATE": "2018-04-25 01:31:46",
        "P_UPDATEDATE": "2018-04-25 01:31:46"
    },
    {
        "P_ALT_SKILL_ID": "400000",
        "P_EXPLAIN_SHORT": "\u30d0\u30fc\u30b9\u30c8\u30d5\u30a9\u30fc\u30b9\u8aac\u660eshort",
        "P_EXTRA_TEXT": "13:1\u30bf\u30fc\u30f3\u3001\u81ea\u5206\u306e\u653b\u6483BB\u5a01\u529b\u309215%\u30a2\u30c3\u30d7\uff08\u884c\u52d5\u6d88\u8cbb\u306a\u3057\uff09",
        "P_CREATEDATE": "2018-04-25 01:31:46",
        "P_UPDATEDATE": "2018-04-25 01:31:46"
    },
    {
        "P_ALT_SKILL_ID": "400100",
        "P_EXPLAIN_SHORT": "\u30d5\u30ec\u30a4\u30e0\u30fb\u30c7\u30a3\u30d5\u30a7\u30af\u30bf\u8aac\u660eshort",
        "P_EXTRA_TEXT": "13:3\u30bf\u30fc\u30f3\u3001\u81ea\u5206\u306e\u6c34\u5c5e\u6027\u5f31\u70b9\u5c5e\u6027\u30c0\u30e1\u30fc\u30b8\u309210\uff05\u30a2\u30c3\u30d7\uff08\u884c\u52d5\u6d88\u8cbb\u306a\u3057\uff09",
        "P_CREATEDATE": "2018-04-25 01:31:46",
        "P_UPDATEDATE": "2018-04-25 01:31:46"
    },
    {
        "P_ALT_SKILL_ID": "400101",
        "P_EXPLAIN_SHORT": "\u30f4\u30a9\u30eb\u30c8\u30fb\u30c7\u30a3\u30d5\u30a7\u30af\u30bf\u8aac\u660eshort",
        "P_EXTRA_TEXT": "13:3\u30bf\u30fc\u30f3\u3001\u81ea\u5206\u306e\u6a39\u5c5e\u6027\u5f31\u70b9\u5c5e\u6027\u30c0\u30e1\u30fc\u30b8\u309210\uff05\u30a2\u30c3\u30d7\uff08\u884c\u52d5\u6d88\u8cbb\u306a\u3057\uff09",
        "P_CREATEDATE": "2018-04-25 01:31:46",
        "P_UPDATEDATE": "2018-04-25 01:31:46"
    },
    {
        "P_ALT_SKILL_ID": "400102",
        "P_EXPLAIN_SHORT": "\u30a8\u30e1\u30e9\u30eb\u30c9\u30fb\u30c7\u30a3\u30d5\u30a7\u30af\u30bf\u8aac\u660eshort",
        "P_EXTRA_TEXT": "13:3\u30bf\u30fc\u30f3\u3001\u81ea\u5206\u306e\u708e\u5c5e\u6027\u5f31\u70b9\u5c5e\u6027\u30c0\u30e1\u30fc\u30b8\u309210\uff05\u30a2\u30c3\u30d7\uff08\u884c\u52d5\u6d88\u8cbb\u306a\u3057\uff09",
        "P_CREATEDATE": "2018-04-25 01:31:46",
        "P_UPDATEDATE": "2018-04-25 01:31:46"
    },
    {
        "P_ALT_SKILL_ID": "400103",
        "P_EXPLAIN_SHORT": "\u30a2\u30af\u30a2\u30fb\u30c7\u30a3\u30d5\u30a7\u30af\u30bf\u8aac\u660eshort",
        "P_EXTRA_TEXT": "13:3\u30bf\u30fc\u30f3\u3001\u81ea\u5206\u306e\u96f7\u5c5e\u6027\u5f31\u70b9\u5c5e\u6027\u30c0\u30e1\u30fc\u30b810\uff05\u30a2\u30c3\u30d7\uff08\u884c\u52d5\u6d88\u8cbb\u306a\u3057\uff09",
        "P_CREATEDATE": "2018-04-25 01:31:46",
        "P_UPDATEDATE": "2018-04-25 01:31:46"
    },
    {
        "P_ALT_SKILL_ID": "400200",
        "P_EXPLAIN_SHORT": "\u30d6\u30eb\u30fc\u30d5\u30a3\u30ea\u30a2\u8aac\u660eshort",
        "P_EXTRA_TEXT": "13:3\u30bf\u30fc\u30f3\u3001\u81ea\u5206\u306e\u901a\u5e38\u653b\u6483\u306eHIT\u6570\u30921\u5897\u52a0\uff08\u884c\u52d5\u6d88\u8cbb\u306a\u3057\uff09",
        "P_CREATEDATE": "2018-04-25 01:31:46",
        "P_UPDATEDATE": "2018-04-25 01:31:46"
    },
    {
        "P_ALT_SKILL_ID": "500000",
        "P_EXPLAIN_SHORT": "\u30d0\u30fc\u30b9\u30c8\u30ea\u30c6\u30a4\u30f3\u8aac\u660eshort",
        "P_EXTRA_TEXT": "6:2\u30bf\u30fc\u30f3\u3001\u30bf\u30fc\u30f3\u6bce\u306b\u81ea\u5206\u306eBB\u30b2\u30fc\u30b8\u3092200\u30a2\u30c3\u30d7\uff08\u884c\u52d5\u6d88\u8cbb\u306a\u3057\uff09",
        "P_CREATEDATE": "2018-04-25 01:31:46",
        "P_UPDATEDATE": "2018-04-25 01:31:46"
    },
    {
        "P_ALT_SKILL_ID": "500100",
        "P_EXPLAIN_SHORT": "\u30d0\u30fc\u30b9\u30c8\u30c1\u30e3\u30fc\u30b8\u8aac\u660eshort",
        "P_EXTRA_TEXT": "6:\u81ea\u5206\u306eBB\u30b2\u30fc\u30b8\u3092500\u5897\u52a0\uff08\u884c\u52d5\u6d88\u8cbb\u306a\u3057\uff09",
        "P_CREATEDATE": "2018-04-25 01:31:46",
        "P_UPDATEDATE": "2018-04-25 01:31:46"
    },
    {
        "P_ALT_SKILL_ID": "600000",
        "P_EXPLAIN_SHORT": "\u30ea\u30ab\u30d0\u30ea\u30fc\u30b3\u30fc\u30c9\u8aac\u660eshort",
        "P_EXTRA_TEXT": "7:\u81ea\u5206\u306eHP\u309215%\u301c20%\u56de\u5fa9\uff08\u884c\u52d5\u6d88\u8cbb\u306a\u3057\uff09",
        "P_CREATEDATE": "2018-04-25 01:31:46",
        "P_UPDATEDATE": "2018-04-25 01:31:46"
    },
    {
        "P_ALT_SKILL_ID": "600100",
        "P_EXPLAIN_SHORT": "\u30d2\u30fc\u30eb\u30ea\u30c6\u30a4\u30f3\u8aac\u660eshort",
        "P_EXTRA_TEXT": "7:3\u30bf\u30fc\u30f3\u3001\u30bf\u30fc\u30f3\u6bce\u306b\u81ea\u5206\u306eHP\u3092200\u301c500\u56de\u5fa9\uff08\u884c\u52d5\u6d88\u8cbb\u306a\u3057\uff09",
        "P_CREATEDATE": "2018-04-25 01:31:46",
        "P_UPDATEDATE": "2018-04-25 01:31:46"
    },
    {
        "P_ALT_SKILL_ID": "800000",
        "P_EXPLAIN_SHORT": "\u30ec\u30b8\u30b9\u30c8\u30d1\u30e9\u30e9\u30a4\u30ba\u8aac\u660eshort",
        "P_EXTRA_TEXT": "5:\u5473\u65b9\u5168\u4f53\u306b2\u30bf\u30fc\u30f3\u3001\u9ebb\u75fa\u8010\u6027\u309250%\u30a2\u30c3\u30d7\uff08\u884c\u52d5\u6d88\u8cbb\u3042\u308a\uff09",
        "P_CREATEDATE": "2018-04-25 01:31:46",
        "P_UPDATEDATE": "2018-04-25 01:31:46"
    },
    {
        "P_ALT_SKILL_ID": "800100",
        "P_EXPLAIN_SHORT": "\u30ec\u30b8\u30b9\u30c8\u30df\u30e9\u30fc\u30b8\u30e5\u8aac\u660eshort",
        "P_EXTRA_TEXT": "5:\u5473\u65b9\u5168\u4f53\u306b2\u30bf\u30fc\u30f3\u3001\u5e7b\u899a\u8010\u6027\u309250%\u30a2\u30c3\u30d7\uff08\u884c\u52d5\u6d88\u8cbb\u3042\u308a\uff09",
        "P_CREATEDATE": "2018-04-25 01:31:46",
        "P_UPDATEDATE": "2018-04-25 01:31:46"
    },
    {
        "P_ALT_SKILL_ID": "800200",
        "P_EXPLAIN_SHORT": "\u30ec\u30b8\u30b9\u30c8\u30ab\u30fc\u30b9\u8aac\u660eshort",
        "P_EXTRA_TEXT": "5:\u5473\u65b9\u5168\u4f53\u306b2\u30bf\u30fc\u30f3\u3001\u546a\u3044\u8010\u6027\u309250%\u30a2\u30c3\u30d7\uff08\u884c\u52d5\u6d88\u8cbb\u3042\u308a\uff09",
        "P_CREATEDATE": "2018-04-25 01:31:46",
        "P_UPDATEDATE": "2018-04-25 01:31:46"
    },
    {
        "P_ALT_SKILL_ID": "800300",
        "P_EXPLAIN_SHORT": "\u30a2\u30b9\u30c8\u30e9\u30eb\u30de\u30ca\u30fb\u03a3\u8aac\u660eshort",
        "P_EXTRA_TEXT": "5:\u5473\u65b9\u5168\u4f53\u306b2\u30bf\u30fc\u30f3\u3001\u6bd2\u30fb\u602a\u6211\u30fb\u5f31\u4f53\u30fb\u96d1\u5ff5\u30fb\u865a\u8131\u30fb\u75c5\u6c17\u30fb\u9ebb\u75fa\u30fb\u546a\u3044\u8010\u6027\u309250%\u30a2\u30c3\u30d7\uff08\u884c\u52d5\u6d88\u8cbb\u3042\u308a\uff09",
        "P_CREATEDATE": "2018-04-25 01:31:46",
        "P_UPDATEDATE": "2018-04-25 01:31:46"
    },
    {
        "P_ALT_SKILL_ID": "1100000",
        "P_EXPLAIN_SHORT": "\u30f4\u30a9\u30eb\u30c8\u30a8\u30ec\u30e1\u30f3\u30c8\u8aac\u660eshort",
        "P_EXTRA_TEXT": "13:\u5473\u65b9\u5168\u4f53\u306b1\u30bf\u30fc\u30f3\u3001\u96f7\u5c5e\u6027\u3092\u4ed8\u4e0e\uff08\u884c\u52d5\u6d88\u8cbb\u306a\u3057\uff09",
        "P_CREATEDATE": "2018-04-25 01:31:46",
        "P_UPDATEDATE": "2018-04-25 01:31:46"
    },
    {
        "P_ALT_SKILL_ID": "1100100",
        "P_EXPLAIN_SHORT": "\u6c37\u524b\u6607\u83ef\u8aac\u660eshort",
        "P_EXTRA_TEXT": "13:5\u30bf\u30fc\u30f3\u3001\u81ea\u5206\u306e\u653b\u6483BB\u306e\u5a01\u529b\u309220%\u30a2\u30c3\u30d7,\n11:5\u30bf\u30fc\u30f3\u3001\u81ea\u5206\u306e\u30b9\u30d1\u30fc\u30af\u30c0\u30e1\u30fc\u30b8\u309220%\u30a2\u30c3\u30d7,\n20:5\u30bf\u30fc\u30f3\u3001\u30bf\u30fc\u30f3\u6bce\u306b\u81ea\u5206\u306eBB\u30b2\u30fc\u30b8\u3092200\u6e1b\u5c11\uff08\u884c\u52d5\u6d88\u8cbb\u306a\u3057\uff09",
        "P_CREATEDATE": "2018-04-25 01:31:46",
        "P_UPDATEDATE": "2018-04-25 01:31:46"
    },
    {
        "P_ALT_SKILL_ID": "1100200",
        "P_EXPLAIN_SHORT": "\u518d\u81e8\u30ce\u714c\u30ad\u8aac\u660eshort",
        "P_EXTRA_TEXT": "6:5\u30bf\u30fc\u30f3\u3001\u30bf\u30fc\u30f3\u6bce\u306b\u81ea\u5206\u306eBB\u30b2\u30fc\u30b8\u3092200\u30a2\u30c3\u30d7,\n7:5\u30bf\u30fc\u30f3\u3001\u30bf\u30fc\u30f3\u6bce\u306b\u81ea\u5206\u306eHP\u3092200\u301c300\u56de\u5fa9,\n20:5\u30bf\u30fc\u30f3\u3001\u81ea\u5206\u306e\u653b\u6483\u529b\u309210%\u30c0\u30a6\u30f3\uff08\u884c\u52d5\u6d88\u8cbb\u306a\u3057\uff09",
        "P_CREATEDATE": "2018-04-25 01:31:46",
        "P_UPDATEDATE": "2018-04-25 01:31:46"
    }
]