[
    {
        "P_PATTERN_ID": "10",
        "P_LV": "10",
        "P_STATUS_P": "1",
        "P_CREATEDATE": "2018-02-12 16:14:52",
        "P_UPDATEDATE": "2018-02-12 16:14:52"
    },
    {
        "P_PATTERN_ID": "10",
        "P_LV": "20",
        "P_STATUS_P": "1",
        "P_CREATEDATE": "2018-02-12 16:14:52",
        "P_UPDATEDATE": "2018-02-12 16:14:52"
    },
    {
        "P_PATTERN_ID": "10",
        "P_LV": "30",
        "P_STATUS_P": "1",
        "P_CREATEDATE": "2018-02-12 16:14:52",
        "P_UPDATEDATE": "2018-02-12 16:14:52"
    },
    {
        "P_PATTERN_ID": "10",
        "P_LV": "40",
        "P_STATUS_P": "1",
        "P_CREATEDATE": "2018-02-12 16:14:52",
        "P_UPDATEDATE": "2018-02-12 16:14:52"
    },
    {
        "P_PATTERN_ID": "10",
        "P_LV": "50",
        "P_STATUS_P": "1",
        "P_CREATEDATE": "2018-02-12 16:14:52",
        "P_UPDATEDATE": "2018-02-12 16:14:52"
    },
    {
        "P_PATTERN_ID": "10",
        "P_LV": "55",
        "P_STATUS_P": "1",
        "P_CREATEDATE": "2018-02-12 16:14:52",
        "P_UPDATEDATE": "2018-02-12 16:14:52"
    },
    {
        "P_PATTERN_ID": "10",
        "P_LV": "60",
        "P_STATUS_P": "1",
        "P_CREATEDATE": "2018-02-12 16:14:52",
        "P_UPDATEDATE": "2018-02-12 16:14:52"
    },
    {
        "P_PATTERN_ID": "10",
        "P_LV": "70",
        "P_STATUS_P": "1",
        "P_CREATEDATE": "2018-02-12 16:14:52",
        "P_UPDATEDATE": "2018-02-12 16:14:52"
    },
    {
        "P_PATTERN_ID": "10",
        "P_LV": "75",
        "P_STATUS_P": "1",
        "P_CREATEDATE": "2018-02-12 16:14:52",
        "P_UPDATEDATE": "2018-02-12 16:14:52"
    },
    {
        "P_PATTERN_ID": "10",
        "P_LV": "80",
        "P_STATUS_P": "1",
        "P_CREATEDATE": "2018-02-12 16:14:52",
        "P_UPDATEDATE": "2018-02-12 16:14:52"
    }
]