0,3,-17,-60,0,0,100,0,128,256,32,32,0,-27,-58,0,0,100,0,0,0,64,64,0,-40,-16,0,0,65,0,432,0,80,32,0,
0,4,-14,-60,0,0,100,0,128,256,32,32,0,-31,-58,0,0,100,0,0,64,64,64,0,-56,-43,0,0,100,0,352,56,72,32,0,-40,-16,0,0,65,0,432,0,80,32,0,
0,6,0,-55,0,0,100,0,352,88,32,32,0,-10,-61,0,0,100,0,160,256,32,32,0,-3,-69,0,0,100,0,416,88,32,32,0,-3,-70,0,0,100,0,256,72,48,48,0,-28,-60,0,0,100,0,64,64,64,64,0,-40,-16,0,0,65,0,432,0,80,32,0,
0,6,-4,-56,0,0,100,0,384,88,32,32,0,-11,-61,0,0,100,0,192,256,32,32,0,-3,-68,0,0,100,0,416,88,32,32,0,-3,-68,0,0,100,0,256,72,48,48,0,-28,-60,0,0,100,0,128,64,64,64,0,-40,-16,0,0,65,0,432,0,80,32,0,
0,7,-101,-46,0,1,100,0,192,448,64,64,0,-112,-53,0,1,100,0,96,384,96,64,0,-32,-45,0,0,100,0,424,64,24,24,0,-47,-56,0,0,100,0,224,256,32,32,0,-53,-58,0,0,100,0,192,64,64,64,0,-81,-33,2,0,100,0,352,56,72,32,0,-62,-16,0,0,65,0,432,0,80,32,0,
0,6,-112,-53,0,1,100,0,192,384,96,64,0,-25,-53,0,0,100,0,424,64,24,24,0,-38,-67,0,0,100,0,128,256,32,32,0,-50,-64,0,0,100,0,0,128,64,64,0,-56,-46,0,0,100,0,256,24,48,48,0,-54,-16,0,0,65,0,432,0,80,32,0,
0,7,-112,-53,0,1,100,0,288,384,96,64,0,-18,-34,0,0,100,0,424,48,24,16,0,2,-43,0,0,100,0,416,8,16,16,0,-18,-59,0,0,100,0,304,72,48,48,0,-19,-59,0,0,100,0,160,256,32,32,0,-35,-57,0,0,100,0,64,128,64,64,0,-40,-16,0,0,65,0,432,0,80,32,0,
0,7,-112,-53,0,1,100,0,0,448,96,64,0,-18,-32,0,0,100,0,424,48,24,16,0,2,-41,0,0,100,0,416,8,16,16,0,-18,-57,0,0,100,0,304,72,48,48,0,-19,-58,0,0,100,0,192,256,32,32,0,-35,-57,0,0,100,0,128,128,64,64,0,-40,-16,0,0,65,0,432,0,80,32,0,
0,7,-112,-53,0,1,100,0,96,448,96,64,0,-18,-33,0,0,100,0,424,48,24,16,0,2,-42,0,0,100,0,416,8,16,16,0,-18,-58,0,0,100,0,304,72,48,48,0,-19,-58,0,0,100,0,224,256,32,32,0,-35,-57,0,0,100,0,192,128,64,64,0,-40,-16,0,0,65,0,432,0,80,32,0,
0,6,-18,-34,0,0,100,0,424,48,24,16,0,2,-43,0,0,100,0,416,8,16,16,0,-18,-59,0,0,100,0,304,72,48,48,0,-19,-59,0,0,100,0,128,256,32,32,0,-35,-57,0,0,100,0,256,128,64,64,0,-40,-16,0,0,65,0,432,0,80,32,0,
0,6,-18,-34,0,0,100,0,424,48,24,16,0,2,-43,0,0,100,0,416,8,16,16,0,-18,-59,0,0,100,0,304,72,48,48,0,-19,-59,0,0,100,0,160,256,32,32,0,-35,-57,0,0,100,0,320,128,64,64,0,-40,-16,0,0,65,0,432,0,80,32,0,
0,3,-33,-58,0,0,100,0,416,128,64,64,0,-43,-51,0,0,100,0,304,24,48,48,0,-40,-16,0,0,65,0,432,0,80,32,0,
0,4,-18,-62,0,0,100,0,128,256,32,32,0,-33,-60,0,0,100,0,0,192,64,64,0,-31,-41,0,0,100,0,352,24,72,32,0,-40,-16,0,0,65,0,432,0,80,32,0,
0,4,-18,-64,0,0,100,0,160,256,32,32,0,-33,-60,0,0,100,0,64,192,64,64,0,-31,-43,0,0,100,0,352,24,72,32,0,-40,-16,0,0,65,0,432,0,80,32,0,
0,4,-18,-61,0,0,100,0,192,256,32,32,0,-33,-60,0,0,100,0,128,192,64,64,0,-31,-40,0,0,100,0,352,24,72,32,0,-40,-16,0,0,65,0,432,0,80,32,0,
0,4,-18,-60,0,0,100,0,224,256,32,32,0,-33,-60,0,0,100,0,192,192,64,64,0,-31,-41,0,0,100,0,352,24,72,32,0,-40,-16,0,0,65,0,432,0,80,32,0,
0,5,-12,-44,0,0,100,0,256,352,32,32,0,-18,-62,0,0,100,0,128,256,32,32,0,-33,-60,0,0,100,0,256,192,64,64,0,-23,-51,0,0,100,0,256,72,48,48,0,-40,-16,0,0,65,0,432,0,80,32,0,
0,5,-12,-42,0,0,100,0,288,352,32,32,0,-17,-59,0,0,100,0,160,256,32,32,0,-32,-60,0,0,100,0,320,192,64,64,0,-24,-51,0,0,100,0,256,24,48,48,0,-40,-16,0,0,65,0,432,0,80,32,0,
0,5,-12,-41,0,0,100,0,320,352,32,32,0,-17,-58,0,0,100,0,192,256,32,32,0,-32,-60,0,0,100,0,384,192,64,64,0,-26,-54,0,0,100,0,304,24,48,48,0,-40,-16,0,0,65,0,432,0,80,32,0,
0,5,-11,-43,0,0,100,0,352,352,32,32,0,-17,-61,0,0,100,0,224,256,32,32,0,-32,-60,0,0,100,0,448,192,64,64,0,-22,-54,0,0,100,0,304,72,48,48,0,-40,-16,0,0,65,0,432,0,80,32,0,
0,5,-12,-45,0,0,100,0,256,352,32,32,0,-18,-62,0,0,100,0,128,256,32,32,0,-33,-60,0,0,100,0,0,256,64,64,0,-40,-46,0,0,100,0,256,24,48,48,0,-40,-16,0,0,65,0,432,0,80,32,0,
0,7,-11,-43,0,0,100,0,288,320,32,32,0,-27,-32,0,0,100,0,64,320,64,32,0,-18,-62,0,0,100,0,160,256,32,32,0,-33,-60,0,0,100,0,64,256,64,64,0,-62,-51,0,0,100,0,352,56,72,32,0,-27,-32,0,0,100,0,64,352,64,32,0,-40,-16,0,0,65,0,432,0,80,32,0,
0,7,-11,-43,0,0,100,0,320,320,32,32,0,-27,-32,0,0,100,0,128,320,64,32,0,-18,-62,0,0,100,0,192,256,32,32,0,-33,-60,0,0,100,0,64,256,64,64,0,-62,-51,0,0,100,0,352,56,72,32,0,-27,-32,0,0,100,0,128,352,64,32,0,-40,-16,0,0,65,0,432,0,80,32,0,
0,7,-11,-43,0,0,100,0,352,320,32,32,0,-27,-32,0,0,100,0,192,320,64,32,0,-18,-62,0,0,100,0,224,256,32,32,0,-33,-60,0,0,100,0,64,256,64,64,0,-62,-51,0,0,100,0,352,56,72,32,0,-27,-32,0,0,100,0,192,352,64,32,0,-40,-16,0,0,65,0,432,0,80,32,0,
0,7,-11,-43,0,0,100,0,256,320,32,32,0,-27,-32,0,0,100,0,0,320,64,32,0,-18,-62,0,0,100,0,128,256,32,32,0,-33,-60,0,0,100,0,64,256,64,64,0,-62,-51,0,0,100,0,352,56,72,32,0,-27,-32,0,0,100,0,0,352,64,32,0,-40,-16,0,0,65,0,432,0,80,32,0,
0,7,-11,-43,0,0,100,0,288,320,32,32,0,-27,-32,0,0,100,0,64,320,64,32,0,-18,-62,0,0,100,0,160,256,32,32,0,-33,-60,0,0,100,0,64,256,64,64,0,-62,-51,0,0,100,0,352,56,72,32,0,-27,-32,0,0,100,0,64,352,64,32,0,-40,-16,0,0,65,0,432,0,80,32,0,
0,7,-11,-43,0,0,100,0,320,320,32,32,0,-27,-32,0,0,100,0,128,320,64,32,0,-18,-62,0,0,100,0,192,256,32,32,0,-33,-60,0,0,100,0,64,256,64,64,0,-62,-51,0,0,100,0,352,56,72,32,0,-27,-32,0,0,100,0,128,352,64,32,0,-40,-16,0,0,65,0,432,0,80,32,0,
0,7,-11,-43,0,0,100,0,352,320,32,32,0,-27,-32,0,0,100,0,192,320,64,32,0,-18,-62,0,0,100,0,224,256,32,32,0,-33,-60,0,0,100,0,64,256,64,64,0,-62,-51,0,0,100,0,352,56,72,32,0,-27,-32,0,0,100,0,192,352,64,32,0,-40,-16,0,0,65,0,432,0,80,32,0,
0,3,-17,-60,0,0,100,0,128,256,32,32,0,-27,-58,0,0,100,0,0,0,64,64,0,-40,-16,0,0,65,0,432,0,80,32,0,
0,3,-17,-59,0,0,100,0,160,256,32,32,0,-27,-58,0,0,100,0,64,0,64,64,0,-40,-16,0,0,65,0,432,0,80,32,0,
0,3,-17,-60,0,0,100,0,192,256,32,32,0,-27,-58,0,0,100,0,128,0,64,64,0,-40,-16,0,0,65,0,432,0,80,32,0,
0,3,-17,-60,0,0,100,0,224,256,32,32,0,-27,-58,0,0,100,0,192,0,64,64,0,-40,-16,0,0,65,0,432,0,80,32,0,
