[
    {
        "P_SPHERE_ITEM_ID": "100100",
        "P_EXPLAIN_SHORT": "\u653b\u6483\u529b\u30925%\u30a2\u30c3\u30d7",
        "P_EXTRA_TEXT": "\u30bf\u30a4\u30d7:\u30b9\u30c6\u30fc\u30bf\u30b9\u5f37\u5316\n\u4eee\u8aac\u660e\u6587test",
        "P_COMMENT_GETTABLE": "",
        "P_CREATEDATE": "2018-02-01 18:10:05",
        "P_UPDATEDATE": "2018-02-01 18:10:05"
    },
    {
        "P_SPHERE_ITEM_ID": "100101",
        "P_EXPLAIN_SHORT": "\u653b\u6483\u529b\u309210%\u30a2\u30c3\u30d7",
        "P_EXTRA_TEXT": "\u30bf\u30a4\u30d7:\u30b9\u30c6\u30fc\u30bf\u30b9\u5f37\u5316\n\u4eee\u8aac\u660e\u6587test",
        "P_COMMENT_GETTABLE": "",
        "P_CREATEDATE": "2018-02-01 18:10:05",
        "P_UPDATEDATE": "2018-02-01 18:10:05"
    },
    {
        "P_SPHERE_ITEM_ID": "100102",
        "P_EXPLAIN_SHORT": "\u653b\u6483\u529b\u309215%\u30a2\u30c3\u30d7",
        "P_EXTRA_TEXT": "\u30bf\u30a4\u30d7:\u30b9\u30c6\u30fc\u30bf\u30b9\u5f37\u5316\n\u4eee\u8aac\u660e\u6587test",
        "P_COMMENT_GETTABLE": "",
        "P_CREATEDATE": "2018-02-01 18:10:05",
        "P_UPDATEDATE": "2018-02-01 18:10:05"
    },
    {
        "P_SPHERE_ITEM_ID": "100103",
        "P_EXPLAIN_SHORT": "\u653b\u6483\u529b\u309220%\u30a2\u30c3\u30d7",
        "P_EXTRA_TEXT": "\u30bf\u30a4\u30d7:\u30b9\u30c6\u30fc\u30bf\u30b9\u5f37\u5316\n\u4eee\u8aac\u660e\u6587test",
        "P_COMMENT_GETTABLE": "",
        "P_CREATEDATE": "2018-02-01 18:10:05",
        "P_UPDATEDATE": "2018-02-01 18:10:05"
    },
    {
        "P_SPHERE_ITEM_ID": "100200",
        "P_EXPLAIN_SHORT": "\u9632\u5fa1\u529b\u30925%\u30a2\u30c3\u30d7",
        "P_EXTRA_TEXT": "\u30bf\u30a4\u30d7:\u30b9\u30c6\u30fc\u30bf\u30b9\u5f37\u5316\n\u4eee\u8aac\u660e\u6587test",
        "P_COMMENT_GETTABLE": "",
        "P_CREATEDATE": "2018-02-01 18:10:05",
        "P_UPDATEDATE": "2018-02-01 18:10:05"
    },
    {
        "P_SPHERE_ITEM_ID": "100201",
        "P_EXPLAIN_SHORT": "\u9632\u5fa1\u529b\u309210%\u30a2\u30c3\u30d7",
        "P_EXTRA_TEXT": "\u30bf\u30a4\u30d7:\u30b9\u30c6\u30fc\u30bf\u30b9\u5f37\u5316\n\u4eee\u8aac\u660e\u6587test",
        "P_COMMENT_GETTABLE": "",
        "P_CREATEDATE": "2018-02-01 18:10:05",
        "P_UPDATEDATE": "2018-02-01 18:10:05"
    },
    {
        "P_SPHERE_ITEM_ID": "100202",
        "P_EXPLAIN_SHORT": "\u9632\u5fa1\u529b\u309215%\u30a2\u30c3\u30d7",
        "P_EXTRA_TEXT": "\u30bf\u30a4\u30d7:\u30b9\u30c6\u30fc\u30bf\u30b9\u5f37\u5316\n\u4eee\u8aac\u660e\u6587test",
        "P_COMMENT_GETTABLE": "",
        "P_CREATEDATE": "2018-02-01 18:10:05",
        "P_UPDATEDATE": "2018-02-01 18:10:05"
    },
    {
        "P_SPHERE_ITEM_ID": "100203",
        "P_EXPLAIN_SHORT": "\u9632\u5fa1\u529b\u309220%\u30a2\u30c3\u30d7",
        "P_EXTRA_TEXT": "\u30bf\u30a4\u30d7:\u30b9\u30c6\u30fc\u30bf\u30b9\u5f37\u5316\n\u4eee\u8aac\u660e\u6587test",
        "P_COMMENT_GETTABLE": "",
        "P_CREATEDATE": "2018-02-01 18:10:05",
        "P_UPDATEDATE": "2018-02-01 18:10:05"
    },
    {
        "P_SPHERE_ITEM_ID": "100300",
        "P_EXPLAIN_SHORT": "\u9b54\u9632\u529b\u30925%\u30a2\u30c3\u30d7",
        "P_EXTRA_TEXT": "\u30bf\u30a4\u30d7:\u30b9\u30c6\u30fc\u30bf\u30b9\u5f37\u5316\n\u4eee\u8aac\u660e\u6587test",
        "P_COMMENT_GETTABLE": "",
        "P_CREATEDATE": "2018-02-01 18:10:05",
        "P_UPDATEDATE": "2018-02-01 18:10:05"
    },
    {
        "P_SPHERE_ITEM_ID": "100301",
        "P_EXPLAIN_SHORT": "\u9b54\u9632\u529b\u309210%\u30a2\u30c3\u30d7",
        "P_EXTRA_TEXT": "\u30bf\u30a4\u30d7:\u30b9\u30c6\u30fc\u30bf\u30b9\u5f37\u5316\n\u4eee\u8aac\u660e\u6587test",
        "P_COMMENT_GETTABLE": "",
        "P_CREATEDATE": "2018-02-01 18:10:05",
        "P_UPDATEDATE": "2018-02-01 18:10:05"
    },
    {
        "P_SPHERE_ITEM_ID": "100302",
        "P_EXPLAIN_SHORT": "\u9b54\u9632\u529b\u309215%\u30a2\u30c3\u30d7",
        "P_EXTRA_TEXT": "\u30bf\u30a4\u30d7:\u30b9\u30c6\u30fc\u30bf\u30b9\u5f37\u5316\n\u4eee\u8aac\u660e\u6587test",
        "P_COMMENT_GETTABLE": "",
        "P_CREATEDATE": "2018-02-01 18:10:05",
        "P_UPDATEDATE": "2018-02-01 18:10:05"
    },
    {
        "P_SPHERE_ITEM_ID": "100303",
        "P_EXPLAIN_SHORT": "\u9b54\u9632\u529b\u309220%\u30a2\u30c3\u30d7",
        "P_EXTRA_TEXT": "\u30bf\u30a4\u30d7:\u30b9\u30c6\u30fc\u30bf\u30b9\u5f37\u5316\n\u4eee\u8aac\u660e\u6587test",
        "P_COMMENT_GETTABLE": "",
        "P_CREATEDATE": "2018-02-01 18:10:05",
        "P_UPDATEDATE": "2018-02-01 18:10:05"
    },
    {
        "P_SPHERE_ITEM_ID": "100400",
        "P_EXPLAIN_SHORT": "\u6700\u5927HP\u30925%\u30a2\u30c3\u30d7",
        "P_EXTRA_TEXT": "\u30bf\u30a4\u30d7:\u30b9\u30c6\u30fc\u30bf\u30b9\u5f37\u5316\n\u4eee\u8aac\u660e\u6587test",
        "P_COMMENT_GETTABLE": "",
        "P_CREATEDATE": "2018-02-01 18:10:05",
        "P_UPDATEDATE": "2018-02-01 18:10:05"
    },
    {
        "P_SPHERE_ITEM_ID": "100401",
        "P_EXPLAIN_SHORT": "\u6700\u5927HP\u309210%\u30a2\u30c3\u30d7",
        "P_EXTRA_TEXT": "\u30bf\u30a4\u30d7:\u30b9\u30c6\u30fc\u30bf\u30b9\u5f37\u5316\n\u4eee\u8aac\u660e\u6587test",
        "P_COMMENT_GETTABLE": "",
        "P_CREATEDATE": "2018-02-01 18:10:05",
        "P_UPDATEDATE": "2018-02-01 18:10:05"
    },
    {
        "P_SPHERE_ITEM_ID": "100402",
        "P_EXPLAIN_SHORT": "\u6700\u5927HP\u309215%\u30a2\u30c3\u30d7",
        "P_EXTRA_TEXT": "\u30bf\u30a4\u30d7:\u30b9\u30c6\u30fc\u30bf\u30b9\u5f37\u5316\n\u4eee\u8aac\u660e\u6587test",
        "P_COMMENT_GETTABLE": "",
        "P_CREATEDATE": "2018-02-01 18:10:05",
        "P_UPDATEDATE": "2018-02-01 18:10:05"
    },
    {
        "P_SPHERE_ITEM_ID": "100403",
        "P_EXPLAIN_SHORT": "\u6700\u5927HP\u309220%\u30a2\u30c3\u30d7",
        "P_EXTRA_TEXT": "\u30bf\u30a4\u30d7:\u30b9\u30c6\u30fc\u30bf\u30b9\u5f37\u5316\n\u4eee\u8aac\u660e\u6587test",
        "P_COMMENT_GETTABLE": "",
        "P_CREATEDATE": "2018-02-01 18:10:05",
        "P_UPDATEDATE": "2018-02-01 18:10:05"
    },
    {
        "P_SPHERE_ITEM_ID": "100500",
        "P_EXPLAIN_SHORT": "\u6226\u95d8\u958b\u59cb\u304b\u30893\u30bf\u30fc\u30f3\u3001\u653b\u6483\u529b\u309220%\u30a2\u30c3\u30d7",
        "P_EXTRA_TEXT": "\u30bf\u30a4\u30d7:\u30b9\u30c6\u30fc\u30bf\u30b9\u5f37\u5316\n\u4eee\u8aac\u660e\u6587test",
        "P_COMMENT_GETTABLE": "",
        "P_CREATEDATE": "2018-02-01 18:10:05",
        "P_UPDATEDATE": "2018-02-01 18:10:05"
    },
    {
        "P_SPHERE_ITEM_ID": "100501",
        "P_EXPLAIN_SHORT": "\u6226\u95d8\u958b\u59cb\u304b\u30893\u30bf\u30fc\u30f3\u3001\u653b\u6483\u529b\u309220%\u30a2\u30c3\u30d7",
        "P_EXTRA_TEXT": "\u30bf\u30a4\u30d7:\u30b9\u30c6\u30fc\u30bf\u30b9\u5f37\u5316\n\u4eee\u8aac\u660e\u6587test",
        "P_COMMENT_GETTABLE": "",
        "P_CREATEDATE": "2018-02-01 18:10:05",
        "P_UPDATEDATE": "2018-02-01 18:10:05"
    },
    {
        "P_SPHERE_ITEM_ID": "100502",
        "P_EXPLAIN_SHORT": "\u6226\u95d8\u958b\u59cb\u304b\u30893\u30bf\u30fc\u30f3\u3001\u653b\u6483\u529b\u309230%\u30a2\u30c3\u30d7",
        "P_EXTRA_TEXT": "\u30bf\u30a4\u30d7:\u30b9\u30c6\u30fc\u30bf\u30b9\u5f37\u5316\n\u4eee\u8aac\u660e\u6587test",
        "P_COMMENT_GETTABLE": "",
        "P_CREATEDATE": "2018-02-01 18:10:05",
        "P_UPDATEDATE": "2018-02-01 18:10:05"
    },
    {
        "P_SPHERE_ITEM_ID": "100510",
        "P_EXPLAIN_SHORT": "\u6226\u95d8\u958b\u59cb\u304b\u30893\u30bf\u30fc\u30f3\u3001\u9632\u5fa1\u529b\u30fb\u9b54\u9632\u529b\u309220%\u30a2\u30c3\u30d7",
        "P_EXTRA_TEXT": "\u30bf\u30a4\u30d7:\u30b9\u30c6\u30fc\u30bf\u30b9\u5f37\u5316\n\u4eee\u8aac\u660e\u6587test",
        "P_COMMENT_GETTABLE": "",
        "P_CREATEDATE": "2018-02-01 18:10:05",
        "P_UPDATEDATE": "2018-02-01 18:10:05"
    },
    {
        "P_SPHERE_ITEM_ID": "100511",
        "P_EXPLAIN_SHORT": "\u6226\u95d8\u958b\u59cb\u304b\u30893\u30bf\u30fc\u30f3\u3001\u9632\u5fa1\u529b\u30fb\u9b54\u9632\u529b\u309230%\u30a2\u30c3\u30d7",
        "P_EXTRA_TEXT": "\u30bf\u30a4\u30d7:\u30b9\u30c6\u30fc\u30bf\u30b9\u5f37\u5316\n\u4eee\u8aac\u660e\u6587test",
        "P_COMMENT_GETTABLE": "",
        "P_CREATEDATE": "2018-02-01 18:10:05",
        "P_UPDATEDATE": "2018-02-01 18:10:05"
    },
    {
        "P_SPHERE_ITEM_ID": "100512",
        "P_EXPLAIN_SHORT": "\u6226\u95d8\u958b\u59cb\u304b\u30893\u30bf\u30fc\u30f3\u3001\u9632\u5fa1\u529b\u30fb\u9b54\u9632\u529b\u309230%\u30a2\u30c3\u30d7",
        "P_EXTRA_TEXT": "\u30bf\u30a4\u30d7:\u30b9\u30c6\u30fc\u30bf\u30b9\u5f37\u5316\n\u4eee\u8aac\u660e\u6587test",
        "P_COMMENT_GETTABLE": "",
        "P_CREATEDATE": "2018-02-01 18:10:05",
        "P_UPDATEDATE": "2018-02-01 18:10:05"
    },
    {
        "P_SPHERE_ITEM_ID": "100520",
        "P_EXPLAIN_SHORT": "\u6226\u95d8\u958b\u59cb\u304b\u30893\u30bf\u30fc\u30f3\u3001\u653b\u6483\u529b\u30fb\u9632\u5fa1\u529b\u30fb\u9b54\u9632\u529b\u309220%\u30a2\u30c3\u30d7",
        "P_EXTRA_TEXT": "\u30bf\u30a4\u30d7:\u30b9\u30c6\u30fc\u30bf\u30b9\u5f37\u5316\n\u4eee\u8aac\u660e\u6587test",
        "P_COMMENT_GETTABLE": "",
        "P_CREATEDATE": "2018-02-01 18:10:05",
        "P_UPDATEDATE": "2018-02-01 18:10:05"
    },
    {
        "P_SPHERE_ITEM_ID": "100521",
        "P_EXPLAIN_SHORT": "\u6226\u95d8\u958b\u59cb\u304b\u30893\u30bf\u30fc\u30f3\u3001\u653b\u6483\u529b\u30fb\u9632\u5fa1\u529b\u30fb\u9b54\u9632\u529b\u309230%\u30a2\u30c3\u30d7",
        "P_EXTRA_TEXT": "\u30bf\u30a4\u30d7:\u30b9\u30c6\u30fc\u30bf\u30b9\u5f37\u5316\n\u4eee\u8aac\u660e\u6587test",
        "P_COMMENT_GETTABLE": "",
        "P_CREATEDATE": "2018-02-01 18:10:05",
        "P_UPDATEDATE": "2018-02-01 18:10:05"
    },
    {
        "P_SPHERE_ITEM_ID": "100522",
        "P_EXPLAIN_SHORT": "\u6226\u95d8\u958b\u59cb\u304b\u30893\u30bf\u30fc\u30f3\u3001\u653b\u6483\u529b\u30fb\u9632\u5fa1\u529b\u30fb\u9b54\u9632\u529b\u309230%\u30a2\u30c3\u30d7",
        "P_EXTRA_TEXT": "\u30bf\u30a4\u30d7:\u30b9\u30c6\u30fc\u30bf\u30b9\u5f37\u5316\n\u4eee\u8aac\u660e\u6587test",
        "P_COMMENT_GETTABLE": "",
        "P_CREATEDATE": "2018-02-01 18:10:05",
        "P_UPDATEDATE": "2018-02-01 18:10:05"
    },
    {
        "P_SPHERE_ITEM_ID": "100600",
        "P_EXPLAIN_SHORT": "\u5168\u80fd\u529b\u30925%\u30a2\u30c3\u30d7",
        "P_EXTRA_TEXT": "\u30bf\u30a4\u30d7:\u30b9\u30c6\u30fc\u30bf\u30b9\u5f37\u5316\n\u4eee\u8aac\u660e\u6587test",
        "P_COMMENT_GETTABLE": "",
        "P_CREATEDATE": "2018-02-01 18:10:05",
        "P_UPDATEDATE": "2018-02-01 18:10:05"
    },
    {
        "P_SPHERE_ITEM_ID": "100601",
        "P_EXPLAIN_SHORT": "\u5168\u80fd\u529b\u309210%\u30a2\u30c3\u30d7",
        "P_EXTRA_TEXT": "\u30bf\u30a4\u30d7:\u30b9\u30c6\u30fc\u30bf\u30b9\u5f37\u5316\n\u4eee\u8aac\u660e\u6587test",
        "P_COMMENT_GETTABLE": "",
        "P_CREATEDATE": "2018-02-01 18:10:05",
        "P_UPDATEDATE": "2018-02-01 18:10:05"
    },
    {
        "P_SPHERE_ITEM_ID": "100602",
        "P_EXPLAIN_SHORT": "\u5168\u80fd\u529b\u309215%\u30a2\u30c3\u30d7",
        "P_EXTRA_TEXT": "\u30bf\u30a4\u30d7:\u30b9\u30c6\u30fc\u30bf\u30b9\u5f37\u5316\n\u4eee\u8aac\u660e\u6587test",
        "P_COMMENT_GETTABLE": "",
        "P_CREATEDATE": "2018-02-01 18:10:05",
        "P_UPDATEDATE": "2018-02-01 18:10:05"
    },
    {
        "P_SPHERE_ITEM_ID": "100700",
        "P_EXPLAIN_SHORT": "\u653b\u6483\u529b\u30fb\u6700\u5927HP\u30925%\u30a2\u30c3\u30d7",
        "P_EXTRA_TEXT": "\u30bf\u30a4\u30d7:\u30b9\u30c6\u30fc\u30bf\u30b9\u5f37\u5316\n\u4eee\u8aac\u660e\u6587test",
        "P_COMMENT_GETTABLE": "",
        "P_CREATEDATE": "2018-02-01 18:10:05",
        "P_UPDATEDATE": "2018-02-01 18:10:05"
    },
    {
        "P_SPHERE_ITEM_ID": "100701",
        "P_EXPLAIN_SHORT": "\u653b\u6483\u529b\u30fb\u6700\u5927HP\u309210%\u30a2\u30c3\u30d7",
        "P_EXTRA_TEXT": "\u30bf\u30a4\u30d7:\u30b9\u30c6\u30fc\u30bf\u30b9\u5f37\u5316\n\u4eee\u8aac\u660e\u6587test",
        "P_COMMENT_GETTABLE": "",
        "P_CREATEDATE": "2018-02-01 18:10:05",
        "P_UPDATEDATE": "2018-02-01 18:10:05"
    },
    {
        "P_SPHERE_ITEM_ID": "100702",
        "P_EXPLAIN_SHORT": "\u653b\u6483\u529b\u30fb\u6700\u5927HP\u309215%\u30a2\u30c3\u30d7",
        "P_EXTRA_TEXT": "\u30bf\u30a4\u30d7:\u30b9\u30c6\u30fc\u30bf\u30b9\u5f37\u5316\n\u4eee\u8aac\u660e\u6587test",
        "P_COMMENT_GETTABLE": "",
        "P_CREATEDATE": "2018-02-01 18:10:05",
        "P_UPDATEDATE": "2018-02-01 18:10:05"
    },
    {
        "P_SPHERE_ITEM_ID": "100710",
        "P_EXPLAIN_SHORT": "\u9632\u5fa1\u529b\u30fb\u6700\u5927HP\u30925%\u30a2\u30c3\u30d7",
        "P_EXTRA_TEXT": "\u30bf\u30a4\u30d7:\u30b9\u30c6\u30fc\u30bf\u30b9\u5f37\u5316\n\u4eee\u8aac\u660e\u6587test",
        "P_COMMENT_GETTABLE": "",
        "P_CREATEDATE": "2018-02-01 18:10:05",
        "P_UPDATEDATE": "2018-02-01 18:10:05"
    },
    {
        "P_SPHERE_ITEM_ID": "100711",
        "P_EXPLAIN_SHORT": "\u9632\u5fa1\u529b\u30fb\u6700\u5927HP\u309210%\u30a2\u30c3\u30d7",
        "P_EXTRA_TEXT": "\u30bf\u30a4\u30d7:\u30b9\u30c6\u30fc\u30bf\u30b9\u5f37\u5316\n\u4eee\u8aac\u660e\u6587test",
        "P_COMMENT_GETTABLE": "",
        "P_CREATEDATE": "2018-02-01 18:10:05",
        "P_UPDATEDATE": "2018-02-01 18:10:05"
    },
    {
        "P_SPHERE_ITEM_ID": "100712",
        "P_EXPLAIN_SHORT": "\u9632\u5fa1\u529b\u30fb\u6700\u5927HP\u309215%\u30a2\u30c3\u30d7",
        "P_EXTRA_TEXT": "\u30bf\u30a4\u30d7:\u30b9\u30c6\u30fc\u30bf\u30b9\u5f37\u5316\n\u4eee\u8aac\u660e\u6587test",
        "P_COMMENT_GETTABLE": "",
        "P_CREATEDATE": "2018-02-01 18:10:05",
        "P_UPDATEDATE": "2018-02-01 18:10:05"
    },
    {
        "P_SPHERE_ITEM_ID": "100720",
        "P_EXPLAIN_SHORT": "\u9b54\u9632\u529b\u30fb\u6700\u5927HP\u309210\uff05\u30a2\u30c3\u30d7",
        "P_EXTRA_TEXT": "\u30bf\u30a4\u30d7:\u30b9\u30c6\u30fc\u30bf\u30b9\u5f37\u5316\n\u4eee\u8aac\u660e\u6587test",
        "P_COMMENT_GETTABLE": "",
        "P_CREATEDATE": "2018-02-01 18:10:05",
        "P_UPDATEDATE": "2018-02-01 18:10:05"
    },
    {
        "P_SPHERE_ITEM_ID": "100721",
        "P_EXPLAIN_SHORT": "\u9b54\u9632\u529b\u30fb\u6700\u5927HP\u309215\uff05\u30a2\u30c3\u30d7",
        "P_EXTRA_TEXT": "\u30bf\u30a4\u30d7:\u30b9\u30c6\u30fc\u30bf\u30b9\u5f37\u5316\n\u4eee\u8aac\u660e\u6587test",
        "P_COMMENT_GETTABLE": "",
        "P_CREATEDATE": "2018-02-01 18:10:05",
        "P_UPDATEDATE": "2018-02-01 18:10:05"
    },
    {
        "P_SPHERE_ITEM_ID": "100722",
        "P_EXPLAIN_SHORT": "\u9b54\u9632\u529b\u30fb\u6700\u5927HP\u309220\uff05\u30a2\u30c3\u30d7",
        "P_EXTRA_TEXT": "\u30bf\u30a4\u30d7:\u30b9\u30c6\u30fc\u30bf\u30b9\u5f37\u5316\n\u4eee\u8aac\u660e\u6587test",
        "P_COMMENT_GETTABLE": "",
        "P_CREATEDATE": "2018-02-01 18:10:05",
        "P_UPDATEDATE": "2018-02-01 18:10:05"
    },
    {
        "P_SPHERE_ITEM_ID": "100730",
        "P_EXPLAIN_SHORT": "\u653b\u6483\u529b\u30fb\u9632\u5fa1\u529b\u309210%\u30a2\u30c3\u30d7",
        "P_EXTRA_TEXT": "\u30bf\u30a4\u30d7:\u30b9\u30c6\u30fc\u30bf\u30b9\u5f37\u5316\n\u4eee\u8aac\u660e\u6587test",
        "P_COMMENT_GETTABLE": "",
        "P_CREATEDATE": "2018-02-01 18:10:05",
        "P_UPDATEDATE": "2018-02-01 18:10:05"
    },
    {
        "P_SPHERE_ITEM_ID": "100731",
        "P_EXPLAIN_SHORT": "\u653b\u6483\u529b\u30fb\u9632\u5fa1\u529b\u309215%\u30a2\u30c3\u30d7",
        "P_EXTRA_TEXT": "\u30bf\u30a4\u30d7:\u30b9\u30c6\u30fc\u30bf\u30b9\u5f37\u5316\n\u4eee\u8aac\u660e\u6587test",
        "P_COMMENT_GETTABLE": "",
        "P_CREATEDATE": "2018-02-01 18:10:05",
        "P_UPDATEDATE": "2018-02-01 18:10:05"
    },
    {
        "P_SPHERE_ITEM_ID": "100732",
        "P_EXPLAIN_SHORT": "\u653b\u6483\u529b\u30fb\u9632\u5fa1\u529b\u309220%\u30a2\u30c3\u30d7",
        "P_EXTRA_TEXT": "\u30bf\u30a4\u30d7:\u30b9\u30c6\u30fc\u30bf\u30b9\u5f37\u5316\n\u4eee\u8aac\u660e\u6587test",
        "P_COMMENT_GETTABLE": "",
        "P_CREATEDATE": "2018-02-01 18:10:05",
        "P_UPDATEDATE": "2018-02-01 18:10:05"
    },
    {
        "P_SPHERE_ITEM_ID": "100733",
        "P_EXPLAIN_SHORT": "\u9632\u5fa1\u529b\u30fb\u9b54\u9632\u529b\u30fb\u6700\u5927HP\u309220%\u30a2\u30c3\u30d7",
        "P_EXTRA_TEXT": "\u30bf\u30a4\u30d7:\u30b9\u30c6\u30fc\u30bf\u30b9\u5f37\u5316\n\u4eee\u8aac\u660e\u6587test",
        "P_COMMENT_GETTABLE": "",
        "P_CREATEDATE": "2018-02-01 18:10:05",
        "P_UPDATEDATE": "2018-02-01 18:10:05"
    },
    {
        "P_SPHERE_ITEM_ID": "100740",
        "P_EXPLAIN_SHORT": "\u653b\u6483\u529b\u30fb\u9b54\u9632\u529b\u30925%\u30a2\u30c3\u30d7",
        "P_EXTRA_TEXT": "\u30bf\u30a4\u30d7:\u30b9\u30c6\u30fc\u30bf\u30b9\u5f37\u5316\n\u4eee\u8aac\u660e\u6587test",
        "P_COMMENT_GETTABLE": "",
        "P_CREATEDATE": "2018-02-01 18:10:05",
        "P_UPDATEDATE": "2018-02-01 18:10:05"
    },
    {
        "P_SPHERE_ITEM_ID": "100741",
        "P_EXPLAIN_SHORT": "\u653b\u6483\u529b\u30fb\u9b54\u9632\u529b\u309210%\u30a2\u30c3\u30d7",
        "P_EXTRA_TEXT": "\u30bf\u30a4\u30d7:\u30b9\u30c6\u30fc\u30bf\u30b9\u5f37\u5316\n\u4eee\u8aac\u660e\u6587test",
        "P_COMMENT_GETTABLE": "",
        "P_CREATEDATE": "2018-02-01 18:10:05",
        "P_UPDATEDATE": "2018-02-01 18:10:05"
    },
    {
        "P_SPHERE_ITEM_ID": "100742",
        "P_EXPLAIN_SHORT": "\u653b\u6483\u529b\u30fb\u9b54\u9632\u529b\u309215%\u30a2\u30c3\u30d7",
        "P_EXTRA_TEXT": "\u30bf\u30a4\u30d7:\u30b9\u30c6\u30fc\u30bf\u30b9\u5f37\u5316\n\u4eee\u8aac\u660e\u6587test",
        "P_COMMENT_GETTABLE": "",
        "P_CREATEDATE": "2018-02-01 18:10:05",
        "P_UPDATEDATE": "2018-02-01 18:10:05"
    },
    {
        "P_SPHERE_ITEM_ID": "100750",
        "P_EXPLAIN_SHORT": "\u9632\u5fa1\u529b\u30fb\u9b54\u9632\u529b\u30925%\u30a2\u30c3\u30d7",
        "P_EXTRA_TEXT": "\u30bf\u30a4\u30d7:\u30b9\u30c6\u30fc\u30bf\u30b9\u5f37\u5316\n\u4eee\u8aac\u660e\u6587test",
        "P_COMMENT_GETTABLE": "",
        "P_CREATEDATE": "2018-02-01 18:10:05",
        "P_UPDATEDATE": "2018-02-01 18:10:05"
    },
    {
        "P_SPHERE_ITEM_ID": "100751",
        "P_EXPLAIN_SHORT": "\u9632\u5fa1\u529b\u30fb\u9b54\u9632\u529b\u309210%\u30a2\u30c3\u30d7",
        "P_EXTRA_TEXT": "\u30bf\u30a4\u30d7:\u30b9\u30c6\u30fc\u30bf\u30b9\u5f37\u5316\n\u4eee\u8aac\u660e\u6587test",
        "P_COMMENT_GETTABLE": "",
        "P_CREATEDATE": "2018-02-01 18:10:05",
        "P_UPDATEDATE": "2018-02-01 18:10:05"
    },
    {
        "P_SPHERE_ITEM_ID": "100752",
        "P_EXPLAIN_SHORT": "\u9632\u5fa1\u529b\u30fb\u9b54\u9632\u529b\u309215%\u30a2\u30c3\u30d7",
        "P_EXTRA_TEXT": "\u30bf\u30a4\u30d7:\u30b9\u30c6\u30fc\u30bf\u30b9\u5f37\u5316\n\u4eee\u8aac\u660e\u6587test",
        "P_COMMENT_GETTABLE": "",
        "P_CREATEDATE": "2018-02-01 18:10:05",
        "P_UPDATEDATE": "2018-02-01 18:10:05"
    },
    {
        "P_SPHERE_ITEM_ID": "100760",
        "P_EXPLAIN_SHORT": "\u653b\u6483\u529b\u30925%\u30a2\u30c3\u30d7",
        "P_EXTRA_TEXT": "\u30bf\u30a4\u30d7:\u30b9\u30c6\u30fc\u30bf\u30b9\u5f37\u5316\n\u4eee\u8aac\u660e\u6587test",
        "P_COMMENT_GETTABLE": "",
        "P_CREATEDATE": "2018-02-01 18:10:05",
        "P_UPDATEDATE": "2018-02-01 18:10:05"
    },
    {
        "P_SPHERE_ITEM_ID": "100761",
        "P_EXPLAIN_SHORT": "\u9632\u5fa1\u529b\u30925%\u30a2\u30c3\u30d7",
        "P_EXTRA_TEXT": "\u30bf\u30a4\u30d7:\u30b9\u30c6\u30fc\u30bf\u30b9\u5f37\u5316\n\u4eee\u8aac\u660e\u6587test",
        "P_COMMENT_GETTABLE": "",
        "P_CREATEDATE": "2018-02-01 18:10:05",
        "P_UPDATEDATE": "2018-02-01 18:10:05"
    },
    {
        "P_SPHERE_ITEM_ID": "100800",
        "P_EXPLAIN_SHORT": "HP\u304c\u534a\u5206\u4ee5\u4e0a\u306e\u6642\u3001\u653b\u6483\u529b\u309220%\u30a2\u30c3\u30d7",
        "P_EXTRA_TEXT": "\u30bf\u30a4\u30d7:\u30b9\u30c6\u30fc\u30bf\u30b9\u5f37\u5316\n\u4eee\u8aac\u660e\u6587test",
        "P_COMMENT_GETTABLE": "",
        "P_CREATEDATE": "2018-02-01 18:10:05",
        "P_UPDATEDATE": "2018-02-01 18:10:05"
    },
    {
        "P_SPHERE_ITEM_ID": "100801",
        "P_EXPLAIN_SHORT": "HP\u304c\u534a\u5206\u4ee5\u4e0a\u306e\u6642\u3001\u653b\u6483\u529b\u309210%\u30a2\u30c3\u30d7",
        "P_EXTRA_TEXT": "\u30bf\u30a4\u30d7:\u30b9\u30c6\u30fc\u30bf\u30b9\u5f37\u5316\n\u4eee\u8aac\u660e\u6587test",
        "P_COMMENT_GETTABLE": "",
        "P_CREATEDATE": "2018-02-01 18:10:05",
        "P_UPDATEDATE": "2018-02-01 18:10:05"
    },
    {
        "P_SPHERE_ITEM_ID": "100802",
        "P_EXPLAIN_SHORT": "HP\u304c\u534a\u5206\u4ee5\u4e0a\u306e\u6642\u3001\u653b\u6483\u529b\u309215%\u30a2\u30c3\u30d7",
        "P_EXTRA_TEXT": "\u30bf\u30a4\u30d7:\u30b9\u30c6\u30fc\u30bf\u30b9\u5f37\u5316\n\u4eee\u8aac\u660e\u6587test",
        "P_COMMENT_GETTABLE": "",
        "P_CREATEDATE": "2018-02-01 18:10:05",
        "P_UPDATEDATE": "2018-02-01 18:10:05"
    },
    {
        "P_SPHERE_ITEM_ID": "100810",
        "P_EXPLAIN_SHORT": "HP\u304c\u534a\u5206\u4ee5\u4e0b\u306e\u6642\u3001\u9632\u5fa1\u529b\u30fb\u9b54\u9632\u529b\u30925%\u30a2\u30c3\u30d7",
        "P_EXTRA_TEXT": "\u30bf\u30a4\u30d7:\u30b9\u30c6\u30fc\u30bf\u30b9\u5f37\u5316\n\u4eee\u8aac\u660e\u6587test",
        "P_COMMENT_GETTABLE": "",
        "P_CREATEDATE": "2018-02-01 18:10:05",
        "P_UPDATEDATE": "2018-02-01 18:10:05"
    },
    {
        "P_SPHERE_ITEM_ID": "100811",
        "P_EXPLAIN_SHORT": "HP\u304c\u534a\u5206\u4ee5\u4e0b\u306e\u6642\u3001\u9632\u5fa1\u529b\u30fb\u9b54\u9632\u529b\u309210%\u30a2\u30c3\u30d7",
        "P_EXTRA_TEXT": "\u30bf\u30a4\u30d7:\u30b9\u30c6\u30fc\u30bf\u30b9\u5f37\u5316\n\u4eee\u8aac\u660e\u6587test",
        "P_COMMENT_GETTABLE": "",
        "P_CREATEDATE": "2018-02-01 18:10:05",
        "P_UPDATEDATE": "2018-02-01 18:10:05"
    },
    {
        "P_SPHERE_ITEM_ID": "100812",
        "P_EXPLAIN_SHORT": "HP\u304c\u534a\u5206\u4ee5\u4e0b\u306e\u6642\u3001\u9632\u5fa1\u529b\u30fb\u9b54\u9632\u529b\u309215%\u30a2\u30c3\u30d7",
        "P_EXTRA_TEXT": "\u30bf\u30a4\u30d7:\u30b9\u30c6\u30fc\u30bf\u30b9\u5f37\u5316\n\u4eee\u8aac\u660e\u6587test",
        "P_COMMENT_GETTABLE": "",
        "P_CREATEDATE": "2018-02-01 18:10:05",
        "P_UPDATEDATE": "2018-02-01 18:10:05"
    },
    {
        "P_SPHERE_ITEM_ID": "100820",
        "P_EXPLAIN_SHORT": "HP\u304c\u6e80\u30bf\u30f3\u6642\u3001\u653b\u6483\u529b\u309225%\u30a2\u30c3\u30d7",
        "P_EXTRA_TEXT": "\u30bf\u30a4\u30d7:\u30b9\u30c6\u30fc\u30bf\u30b9\u5f37\u5316\n\u4eee\u8aac\u660e\u6587test",
        "P_COMMENT_GETTABLE": "",
        "P_CREATEDATE": "2018-02-01 18:10:05",
        "P_UPDATEDATE": "2018-02-01 18:10:05"
    },
    {
        "P_SPHERE_ITEM_ID": "100821",
        "P_EXPLAIN_SHORT": "HP\u304c\u6e80\u30bf\u30f3\u6642\u3001\u653b\u6483\u529b\u309215%\u30a2\u30c3\u30d7",
        "P_EXTRA_TEXT": "\u30bf\u30a4\u30d7:\u30b9\u30c6\u30fc\u30bf\u30b9\u5f37\u5316\n\u4eee\u8aac\u660e\u6587test",
        "P_COMMENT_GETTABLE": "",
        "P_CREATEDATE": "2018-02-01 18:10:05",
        "P_UPDATEDATE": "2018-02-01 18:10:05"
    },
    {
        "P_SPHERE_ITEM_ID": "100822",
        "P_EXPLAIN_SHORT": "HP\u304c\u6e80\u30bf\u30f3\u6642\u3001\u653b\u6483\u529b\u309220%\u30a2\u30c3\u30d7",
        "P_EXTRA_TEXT": "\u30bf\u30a4\u30d7:\u30b9\u30c6\u30fc\u30bf\u30b9\u5f37\u5316\n\u4eee\u8aac\u660e\u6587test",
        "P_COMMENT_GETTABLE": "",
        "P_CREATEDATE": "2018-02-01 18:10:05",
        "P_UPDATEDATE": "2018-02-01 18:10:05"
    },
    {
        "P_SPHERE_ITEM_ID": "100900",
        "P_EXPLAIN_SHORT": "BB\u30b2\u30fc\u30b8\u304c\u534a\u5206\u4ee5\u4e0a\u306e\u6642\u3001\u653b\u6483\u529b\u309220%\u30a2\u30c3\u30d7",
        "P_EXTRA_TEXT": "\u30bf\u30a4\u30d7:\u30b9\u30c6\u30fc\u30bf\u30b9\u5f37\u5316\n\u4eee\u8aac\u660e\u6587test",
        "P_COMMENT_GETTABLE": "",
        "P_CREATEDATE": "2018-02-01 18:10:05",
        "P_UPDATEDATE": "2018-02-01 18:10:05"
    },
    {
        "P_SPHERE_ITEM_ID": "100901",
        "P_EXPLAIN_SHORT": "BB\u30b2\u30fc\u30b8\u304c\u534a\u5206\u4ee5\u4e0a\u306e\u6642\u3001\u653b\u6483\u529b\u309220%\u30a2\u30c3\u30d7",
        "P_EXTRA_TEXT": "\u30bf\u30a4\u30d7:\u30b9\u30c6\u30fc\u30bf\u30b9\u5f37\u5316\n\u4eee\u8aac\u660e\u6587test",
        "P_COMMENT_GETTABLE": "",
        "P_CREATEDATE": "2018-02-01 18:10:05",
        "P_UPDATEDATE": "2018-02-01 18:10:05"
    },
    {
        "P_SPHERE_ITEM_ID": "100902",
        "P_EXPLAIN_SHORT": "BB\u30b2\u30fc\u30b8\u304c\u534a\u5206\u4ee5\u4e0a\u306e\u6642\u3001\u653b\u6483\u529b\u309230%\u30a2\u30c3\u30d7",
        "P_EXTRA_TEXT": "\u30bf\u30a4\u30d7:\u30b9\u30c6\u30fc\u30bf\u30b9\u5f37\u5316\n\u4eee\u8aac\u660e\u6587test",
        "P_COMMENT_GETTABLE": "",
        "P_CREATEDATE": "2018-02-01 18:10:05",
        "P_UPDATEDATE": "2018-02-01 18:10:05"
    },
    {
        "P_SPHERE_ITEM_ID": "100910",
        "P_EXPLAIN_SHORT": "BB\u30b2\u30fc\u30b8\u304c\u6e80\u30bf\u30f3\u6642\u3001\u653b\u6483\u529b\u309225%\u30a2\u30c3\u30d7",
        "P_EXTRA_TEXT": "\u30bf\u30a4\u30d7:\u30b9\u30c6\u30fc\u30bf\u30b9\u5f37\u5316\n\u4eee\u8aac\u660e\u6587test",
        "P_COMMENT_GETTABLE": "",
        "P_CREATEDATE": "2018-02-01 18:10:05",
        "P_UPDATEDATE": "2018-02-01 18:10:05"
    },
    {
        "P_SPHERE_ITEM_ID": "100911",
        "P_EXPLAIN_SHORT": "BB\u30b2\u30fc\u30b8\u304c\u6e80\u30bf\u30f3\u6642\u3001\u653b\u6483\u529b\u309230%\u30a2\u30c3\u30d7",
        "P_EXTRA_TEXT": "\u30bf\u30a4\u30d7:\u30b9\u30c6\u30fc\u30bf\u30b9\u5f37\u5316\n\u4eee\u8aac\u660e\u6587test",
        "P_COMMENT_GETTABLE": "",
        "P_CREATEDATE": "2018-02-01 18:10:05",
        "P_UPDATEDATE": "2018-02-01 18:10:05"
    },
    {
        "P_SPHERE_ITEM_ID": "100912",
        "P_EXPLAIN_SHORT": "BB\u30b2\u30fc\u30b8\u304c\u6e80\u30bf\u30f3\u6642\u3001\u653b\u6483\u529b\u309250%\u30a2\u30c3\u30d7",
        "P_EXTRA_TEXT": "\u30bf\u30a4\u30d7:\u30b9\u30c6\u30fc\u30bf\u30b9\u5f37\u5316\n\u4eee\u8aac\u660e\u6587test",
        "P_COMMENT_GETTABLE": "",
        "P_CREATEDATE": "2018-02-01 18:10:05",
        "P_UPDATEDATE": "2018-02-01 18:10:05"
    },
    {
        "P_SPHERE_ITEM_ID": "200000",
        "P_EXPLAIN_SHORT": "\u30af\u30ea\u30c6\u30a3\u30ab\u30eb\u7387\u30923%\u30a2\u30c3\u30d7",
        "P_EXTRA_TEXT": "\u30bf\u30a4\u30d7:\u30af\u30ea\u30c6\u30a3\u30ab\u30eb\n\u4eee\u8aac\u660e\u6587test",
        "P_COMMENT_GETTABLE": "",
        "P_CREATEDATE": "2018-02-01 18:10:05",
        "P_UPDATEDATE": "2018-02-01 18:10:05"
    },
    {
        "P_SPHERE_ITEM_ID": "200001",
        "P_EXPLAIN_SHORT": "\u30af\u30ea\u30c6\u30a3\u30ab\u30eb\u7387\u30925%\u30a2\u30c3\u30d7",
        "P_EXTRA_TEXT": "\u30bf\u30a4\u30d7:\u30af\u30ea\u30c6\u30a3\u30ab\u30eb\n\u4eee\u8aac\u660e\u6587test",
        "P_COMMENT_GETTABLE": "",
        "P_CREATEDATE": "2018-02-01 18:10:05",
        "P_UPDATEDATE": "2018-02-01 18:10:05"
    },
    {
        "P_SPHERE_ITEM_ID": "200002",
        "P_EXPLAIN_SHORT": "\u30af\u30ea\u30c6\u30a3\u30ab\u30eb\u7387\u309210%\u30a2\u30c3\u30d7",
        "P_EXTRA_TEXT": "\u30bf\u30a4\u30d7:\u30af\u30ea\u30c6\u30a3\u30ab\u30eb\n\u4eee\u8aac\u660e\u6587test",
        "P_COMMENT_GETTABLE": "",
        "P_CREATEDATE": "2018-02-01 18:10:05",
        "P_UPDATEDATE": "2018-02-01 18:10:05"
    },
    {
        "P_SPHERE_ITEM_ID": "200100",
        "P_EXPLAIN_SHORT": "\u30af\u30ea\u30c6\u30a3\u30ab\u30eb\u30c0\u30e1\u30fc\u30b8\u30925%\u30a2\u30c3\u30d7",
        "P_EXTRA_TEXT": "\u30bf\u30a4\u30d7:\u30af\u30ea\u30c6\u30a3\u30ab\u30eb\n\u4eee\u8aac\u660e\u6587test",
        "P_COMMENT_GETTABLE": "",
        "P_CREATEDATE": "2018-02-01 18:10:05",
        "P_UPDATEDATE": "2018-02-01 18:10:05"
    },
    {
        "P_SPHERE_ITEM_ID": "200101",
        "P_EXPLAIN_SHORT": "\u30af\u30ea\u30c6\u30a3\u30ab\u30eb\u30c0\u30e1\u30fc\u30b8\u309210%\u30a2\u30c3\u30d7",
        "P_EXTRA_TEXT": "\u30bf\u30a4\u30d7:\u30af\u30ea\u30c6\u30a3\u30ab\u30eb\n\u4eee\u8aac\u660e\u6587test",
        "P_COMMENT_GETTABLE": "",
        "P_CREATEDATE": "2018-02-01 18:10:05",
        "P_UPDATEDATE": "2018-02-01 18:10:05"
    },
    {
        "P_SPHERE_ITEM_ID": "200102",
        "P_EXPLAIN_SHORT": "\u30af\u30ea\u30c6\u30a3\u30ab\u30eb\u30c0\u30e1\u30fc\u30b8\u309215%\u30a2\u30c3\u30d7",
        "P_EXTRA_TEXT": "\u30bf\u30a4\u30d7:\u30af\u30ea\u30c6\u30a3\u30ab\u30eb\n\u4eee\u8aac\u660e\u6587test",
        "P_COMMENT_GETTABLE": "",
        "P_CREATEDATE": "2018-02-01 18:10:05",
        "P_UPDATEDATE": "2018-02-01 18:10:05"
    },
    {
        "P_SPHERE_ITEM_ID": "200103",
        "P_EXPLAIN_SHORT": "\u30af\u30ea\u30c6\u30a3\u30ab\u30eb\u30c0\u30e1\u30fc\u30b8\u309220%\u30a2\u30c3\u30d7",
        "P_EXTRA_TEXT": "\u30bf\u30a4\u30d7:\u30af\u30ea\u30c6\u30a3\u30ab\u30eb\n\u4eee\u8aac\u660e\u6587test",
        "P_COMMENT_GETTABLE": "",
        "P_CREATEDATE": "2018-02-01 18:10:05",
        "P_UPDATEDATE": "2018-02-01 18:10:05"
    },
    {
        "P_SPHERE_ITEM_ID": "300000",
        "P_EXPLAIN_SHORT": "\u30b9\u30d1\u30fc\u30af\u30c0\u30e1\u30fc\u30b8\u30925%\u30a2\u30c3\u30d7",
        "P_EXTRA_TEXT": "\u30bf\u30a4\u30d7:\u30b9\u30d1\u30fc\u30af\n\u4eee\u8aac\u660e\u6587test",
        "P_COMMENT_GETTABLE": "",
        "P_CREATEDATE": "2018-02-01 18:10:05",
        "P_UPDATEDATE": "2018-02-01 18:10:05"
    },
    {
        "P_SPHERE_ITEM_ID": "300001",
        "P_EXPLAIN_SHORT": "\u30b9\u30d1\u30fc\u30af\u30c0\u30e1\u30fc\u30b8\u309210%\u30a2\u30c3\u30d7",
        "P_EXTRA_TEXT": "\u30bf\u30a4\u30d7:\u30b9\u30d1\u30fc\u30af\n\u4eee\u8aac\u660e\u6587test",
        "P_COMMENT_GETTABLE": "",
        "P_CREATEDATE": "2018-02-01 18:10:05",
        "P_UPDATEDATE": "2018-02-01 18:10:05"
    },
    {
        "P_SPHERE_ITEM_ID": "300002",
        "P_EXPLAIN_SHORT": "\u30b9\u30d1\u30fc\u30af\u30c0\u30e1\u30fc\u30b8\u309215%\u30a2\u30c3\u30d7",
        "P_EXTRA_TEXT": "\u30bf\u30a4\u30d7:\u30b9\u30d1\u30fc\u30af\n\u4eee\u8aac\u660e\u6587test",
        "P_COMMENT_GETTABLE": "",
        "P_CREATEDATE": "2018-02-01 18:10:05",
        "P_UPDATEDATE": "2018-02-01 18:10:05"
    },
    {
        "P_SPHERE_ITEM_ID": "300003",
        "P_EXPLAIN_SHORT": "\u30b9\u30d1\u30fc\u30af\u30c0\u30e1\u30fc\u30b8\u309220%\u30a2\u30c3\u30d7",
        "P_EXTRA_TEXT": "\u30bf\u30a4\u30d7:\u30b9\u30d1\u30fc\u30af\n\u4eee\u8aac\u660e\u6587test",
        "P_COMMENT_GETTABLE": "",
        "P_CREATEDATE": "2018-02-01 18:10:05",
        "P_UPDATEDATE": "2018-02-01 18:10:05"
    },
    {
        "P_SPHERE_ITEM_ID": "400000",
        "P_EXPLAIN_SHORT": "BC\u51fa\u73fe\u7387\u30925%\u30a2\u30c3\u30d7",
        "P_EXTRA_TEXT": "\u30bf\u30a4\u30d7:\u30c9\u30ed\u30c3\u30d7\n\u4eee\u8aac\u660e\u6587test",
        "P_COMMENT_GETTABLE": "",
        "P_CREATEDATE": "2018-02-01 18:10:05",
        "P_UPDATEDATE": "2018-02-01 18:10:05"
    },
    {
        "P_SPHERE_ITEM_ID": "400001",
        "P_EXPLAIN_SHORT": "BC\u51fa\u73fe\u7387\u309210%\u30a2\u30c3\u30d7",
        "P_EXTRA_TEXT": "\u30bf\u30a4\u30d7:\u30c9\u30ed\u30c3\u30d7\n\u4eee\u8aac\u660e\u6587test",
        "P_COMMENT_GETTABLE": "",
        "P_CREATEDATE": "2018-02-01 18:10:05",
        "P_UPDATEDATE": "2018-02-01 18:10:05"
    },
    {
        "P_SPHERE_ITEM_ID": "400002",
        "P_EXPLAIN_SHORT": "BC\u51fa\u73fe\u7387\u309215%\u30a2\u30c3\u30d7",
        "P_EXTRA_TEXT": "\u30bf\u30a4\u30d7:\u30c9\u30ed\u30c3\u30d7\n\u4eee\u8aac\u660e\u6587test",
        "P_COMMENT_GETTABLE": "",
        "P_CREATEDATE": "2018-02-01 18:10:05",
        "P_UPDATEDATE": "2018-02-01 18:10:05"
    },
    {
        "P_SPHERE_ITEM_ID": "400100",
        "P_EXPLAIN_SHORT": "HC\u51fa\u73fe\u7387\u309210%\u30a2\u30c3\u30d7",
        "P_EXTRA_TEXT": "\u30bf\u30a4\u30d7:\u30c9\u30ed\u30c3\u30d7\n\u4eee\u8aac\u660e\u6587test",
        "P_COMMENT_GETTABLE": "",
        "P_CREATEDATE": "2018-02-01 18:10:05",
        "P_UPDATEDATE": "2018-02-01 18:10:05"
    },
    {
        "P_SPHERE_ITEM_ID": "400101",
        "P_EXPLAIN_SHORT": "HC\u51fa\u73fe\u7387\u309215%\u30a2\u30c3\u30d7",
        "P_EXTRA_TEXT": "\u30bf\u30a4\u30d7:\u30c9\u30ed\u30c3\u30d7\n\u4eee\u8aac\u660e\u6587test",
        "P_COMMENT_GETTABLE": "",
        "P_CREATEDATE": "2018-02-01 18:10:05",
        "P_UPDATEDATE": "2018-02-01 18:10:05"
    },
    {
        "P_SPHERE_ITEM_ID": "400102",
        "P_EXPLAIN_SHORT": "HC\u51fa\u73fe\u7387\u309220%\u30a2\u30c3\u30d7",
        "P_EXTRA_TEXT": "\u30bf\u30a4\u30d7:\u30c9\u30ed\u30c3\u30d7\n\u4eee\u8aac\u660e\u6587test",
        "P_COMMENT_GETTABLE": "",
        "P_CREATEDATE": "2018-02-01 18:10:05",
        "P_UPDATEDATE": "2018-02-01 18:10:05"
    },
    {
        "P_SPHERE_ITEM_ID": "400200",
        "P_EXPLAIN_SHORT": "BC\u30fbHC\u51fa\u73fe\u7387\u30925%\u30a2\u30c3\u30d7",
        "P_EXTRA_TEXT": "\u30bf\u30a4\u30d7:\u30c9\u30ed\u30c3\u30d7\n\u4eee\u8aac\u660e\u6587test",
        "P_COMMENT_GETTABLE": "",
        "P_CREATEDATE": "2018-02-01 18:10:05",
        "P_UPDATEDATE": "2018-02-01 18:10:05"
    },
    {
        "P_SPHERE_ITEM_ID": "400201",
        "P_EXPLAIN_SHORT": "BC\u30fbHC\u51fa\u73fe\u7387\u309210%\u30a2\u30c3\u30d7",
        "P_EXTRA_TEXT": "\u30bf\u30a4\u30d7:\u30c9\u30ed\u30c3\u30d7\n\u4eee\u8aac\u660e\u6587test",
        "P_COMMENT_GETTABLE": "",
        "P_CREATEDATE": "2018-02-01 18:10:05",
        "P_UPDATEDATE": "2018-02-01 18:10:05"
    },
    {
        "P_SPHERE_ITEM_ID": "400202",
        "P_EXPLAIN_SHORT": "BC\u30fbHC\u51fa\u73fe\u7387\u309215%\u30a2\u30c3\u30d7",
        "P_EXTRA_TEXT": "\u30bf\u30a4\u30d7:\u30c9\u30ed\u30c3\u30d7\n\u4eee\u8aac\u660e\u6587test",
        "P_COMMENT_GETTABLE": "",
        "P_CREATEDATE": "2018-02-01 18:10:05",
        "P_UPDATEDATE": "2018-02-01 18:10:05"
    },
    {
        "P_SPHERE_ITEM_ID": "500000",
        "P_EXPLAIN_SHORT": "\u30bf\u30fc\u30f3\u6bce\u306bHP\u30925%\u56de\u5fa9",
        "P_EXTRA_TEXT": "\u30bf\u30a4\u30d7:HP\u56de\u5fa9\n\u4eee\u8aac\u660e\u6587test",
        "P_COMMENT_GETTABLE": "",
        "P_CREATEDATE": "2018-02-01 18:10:05",
        "P_UPDATEDATE": "2018-02-01 18:10:05"
    },
    {
        "P_SPHERE_ITEM_ID": "500001",
        "P_EXPLAIN_SHORT": "\u30bf\u30fc\u30f3\u6bce\u306bHP\u309210%\u56de\u5fa9",
        "P_EXTRA_TEXT": "\u30bf\u30a4\u30d7:HP\u56de\u5fa9\n\u4eee\u8aac\u660e\u6587test",
        "P_COMMENT_GETTABLE": "",
        "P_CREATEDATE": "2018-02-01 18:10:05",
        "P_UPDATEDATE": "2018-02-01 18:10:05"
    },
    {
        "P_SPHERE_ITEM_ID": "500002",
        "P_EXPLAIN_SHORT": "\u30bf\u30fc\u30f3\u6bce\u306bHP\u309215%\u56de\u5fa9",
        "P_EXTRA_TEXT": "\u30bf\u30a4\u30d7:HP\u56de\u5fa9\n\u4eee\u8aac\u660e\u6587test",
        "P_COMMENT_GETTABLE": "",
        "P_CREATEDATE": "2018-02-01 18:10:05",
        "P_UPDATEDATE": "2018-02-01 18:10:05"
    },
    {
        "P_SPHERE_ITEM_ID": "500010",
        "P_EXPLAIN_SHORT": "\u30bf\u30fc\u30f3\u6bce\u306bHP\u3092200-300\u56de\u5fa9",
        "P_EXTRA_TEXT": "\u30bf\u30a4\u30d7:HP\u56de\u5fa9\n\u4eee\u8aac\u660e\u6587test",
        "P_COMMENT_GETTABLE": "",
        "P_CREATEDATE": "2018-02-01 18:10:05",
        "P_UPDATEDATE": "2018-02-01 18:10:05"
    },
    {
        "P_SPHERE_ITEM_ID": "500011",
        "P_EXPLAIN_SHORT": "\u30bf\u30fc\u30f3\u6bce\u306bHP\u3092400-600\u56de\u5fa9",
        "P_EXTRA_TEXT": "\u30bf\u30a4\u30d7:HP\u56de\u5fa9\n\u4eee\u8aac\u660e\u6587test",
        "P_COMMENT_GETTABLE": "",
        "P_CREATEDATE": "2018-02-01 18:10:05",
        "P_UPDATEDATE": "2018-02-01 18:10:05"
    },
    {
        "P_SPHERE_ITEM_ID": "500012",
        "P_EXPLAIN_SHORT": "\u30bf\u30fc\u30f3\u6bce\u306bHP\u309215%\u56de\u5fa9",
        "P_EXTRA_TEXT": "\u30bf\u30a4\u30d7:HP\u56de\u5fa9\n\u4eee\u8aac\u660e\u6587test",
        "P_COMMENT_GETTABLE": "",
        "P_CREATEDATE": "2018-02-01 18:10:05",
        "P_UPDATEDATE": "2018-02-01 18:10:05"
    },
    {
        "P_SPHERE_ITEM_ID": "500100",
        "P_EXPLAIN_SHORT": "HC\u7372\u5f97\u6642\u306e\u56de\u5fa9\u91cf\u30925%\u30a2\u30c3\u30d7",
        "P_EXTRA_TEXT": "\u30bf\u30a4\u30d7:HP\u56de\u5fa9\n\u4eee\u8aac\u660e\u6587test",
        "P_COMMENT_GETTABLE": "",
        "P_CREATEDATE": "2018-02-01 18:10:05",
        "P_UPDATEDATE": "2018-02-01 18:10:05"
    },
    {
        "P_SPHERE_ITEM_ID": "500101",
        "P_EXPLAIN_SHORT": "HC\u7372\u5f97\u6642\u306e\u56de\u5fa9\u91cf\u309210%\u30a2\u30c3\u30d7",
        "P_EXTRA_TEXT": "\u30bf\u30a4\u30d7:HP\u56de\u5fa9\n\u4eee\u8aac\u660e\u6587test",
        "P_COMMENT_GETTABLE": "",
        "P_CREATEDATE": "2018-02-01 18:10:05",
        "P_UPDATEDATE": "2018-02-01 18:10:05"
    },
    {
        "P_SPHERE_ITEM_ID": "500102",
        "P_EXPLAIN_SHORT": "HC\u7372\u5f97\u6642\u306e\u56de\u5fa9\u91cf\u309215%\u30a2\u30c3\u30d7",
        "P_EXTRA_TEXT": "\u30bf\u30a4\u30d7:HP\u56de\u5fa9\n\u4eee\u8aac\u660e\u6587test",
        "P_COMMENT_GETTABLE": "",
        "P_CREATEDATE": "2018-02-01 18:10:05",
        "P_UPDATEDATE": "2018-02-01 18:10:05"
    },
    {
        "P_SPHERE_ITEM_ID": "500200",
        "P_EXPLAIN_SHORT": "\u6575\u6483\u7834\u6642\u3001HP\u309220%\u56de\u5fa9",
        "P_EXTRA_TEXT": "\u30bf\u30a4\u30d7:HP\u56de\u5fa9\n\u4eee\u8aac\u660e\u6587test",
        "P_COMMENT_GETTABLE": "",
        "P_CREATEDATE": "2018-02-01 18:10:05",
        "P_UPDATEDATE": "2018-02-01 18:10:05"
    },
    {
        "P_SPHERE_ITEM_ID": "500201",
        "P_EXPLAIN_SHORT": "\u6575\u6483\u7834\u6642\u3001HP\u309215%\u56de\u5fa9",
        "P_EXTRA_TEXT": "\u30bf\u30a4\u30d7:HP\u56de\u5fa9\n\u4eee\u8aac\u660e\u6587test",
        "P_COMMENT_GETTABLE": "",
        "P_CREATEDATE": "2018-02-01 18:10:05",
        "P_UPDATEDATE": "2018-02-01 18:10:05"
    },
    {
        "P_SPHERE_ITEM_ID": "500202",
        "P_EXPLAIN_SHORT": "\u6575\u6483\u7834\u6642\u3001HP\u309220%\u56de\u5fa9",
        "P_EXTRA_TEXT": "\u30bf\u30a4\u30d7:HP\u56de\u5fa9\n\u4eee\u8aac\u660e\u6587test",
        "P_COMMENT_GETTABLE": "",
        "P_CREATEDATE": "2018-02-01 18:10:05",
        "P_UPDATEDATE": "2018-02-01 18:10:05"
    },
    {
        "P_SPHERE_ITEM_ID": "500300",
        "P_EXPLAIN_SHORT": "\u88ab\u30c0\u30e1\u30fc\u30b8\u6642\u300150%\u306e\u78ba\u7387\u3067HP\u30925%\u301c10%\u56de\u5fa9\uff081\u30bf\u30fc\u30f32\u56de\u307e\u3067\uff09",
        "P_EXTRA_TEXT": "\u30bf\u30a4\u30d7:HP\u56de\u5fa9\n\u4eee\u8aac\u660e\u6587test",
        "P_COMMENT_GETTABLE": "",
        "P_CREATEDATE": "2018-02-01 18:10:05",
        "P_UPDATEDATE": "2018-02-01 18:10:05"
    },
    {
        "P_SPHERE_ITEM_ID": "500301",
        "P_EXPLAIN_SHORT": "\u88ab\u30c0\u30e1\u30fc\u30b8\u6642\u300120%\u306e\u78ba\u7387\u3067HP\u309210\u301c15%\u56de\u5fa9",
        "P_EXTRA_TEXT": "\u30bf\u30a4\u30d7:HP\u56de\u5fa9\n\u4eee\u8aac\u660e\u6587test",
        "P_COMMENT_GETTABLE": "",
        "P_CREATEDATE": "2018-02-01 18:10:05",
        "P_UPDATEDATE": "2018-02-01 18:10:05"
    },
    {
        "P_SPHERE_ITEM_ID": "500302",
        "P_EXPLAIN_SHORT": "\u88ab\u30c0\u30e1\u30fc\u30b8\u6642\u300120%\u306e\u78ba\u7387\u3067HP\u309215\u301c20%\u56de\u5fa9",
        "P_EXTRA_TEXT": "\u30bf\u30a4\u30d7:HP\u56de\u5fa9\n\u4eee\u8aac\u660e\u6587test",
        "P_COMMENT_GETTABLE": "",
        "P_CREATEDATE": "2018-02-01 18:10:05",
        "P_UPDATEDATE": "2018-02-01 18:10:05"
    },
    {
        "P_SPHERE_ITEM_ID": "500400",
        "P_EXPLAIN_SHORT": "5\u301c10%\u306e\u78ba\u7387\u3067HP\u3092\u5438\u53ce",
        "P_EXTRA_TEXT": "\u30bf\u30a4\u30d7:HP\u56de\u5fa9\n\u4eee\u8aac\u660e\u6587test",
        "P_COMMENT_GETTABLE": "",
        "P_CREATEDATE": "2018-02-01 18:10:05",
        "P_UPDATEDATE": "2018-02-01 18:10:05"
    },
    {
        "P_SPHERE_ITEM_ID": "500401",
        "P_EXPLAIN_SHORT": "10\u301c15%\u306e\u78ba\u7387\u3067HP\u3092\u5438\u53ce",
        "P_EXTRA_TEXT": "\u30bf\u30a4\u30d7:HP\u56de\u5fa9\n\u4eee\u8aac\u660e\u6587test",
        "P_COMMENT_GETTABLE": "",
        "P_CREATEDATE": "2018-02-01 18:10:05",
        "P_UPDATEDATE": "2018-02-01 18:10:05"
    },
    {
        "P_SPHERE_ITEM_ID": "500402",
        "P_EXPLAIN_SHORT": "15\u301c20%\u306e\u78ba\u7387\u3067HP\u3092\u5438\u53ce",
        "P_EXTRA_TEXT": "\u30bf\u30a4\u30d7:HP\u56de\u5fa9\n\u4eee\u8aac\u660e\u6587test",
        "P_COMMENT_GETTABLE": "",
        "P_CREATEDATE": "2018-02-01 18:10:05",
        "P_UPDATEDATE": "2018-02-01 18:10:05"
    },
    {
        "P_SPHERE_ITEM_ID": "500410",
        "P_EXPLAIN_SHORT": "5\u301c10%\u306e\u78ba\u7387\u3067HP\u3092\u5438\u53ce",
        "P_EXTRA_TEXT": "\u30bf\u30a4\u30d7:HP\u56de\u5fa9\n\u4eee\u8aac\u660e\u6587test",
        "P_COMMENT_GETTABLE": "",
        "P_CREATEDATE": "2018-02-01 18:10:05",
        "P_UPDATEDATE": "2018-02-01 18:10:05"
    },
    {
        "P_SPHERE_ITEM_ID": "500411",
        "P_EXPLAIN_SHORT": "10\u301c15%\u306e\u78ba\u7387\u3067HP\u3092\u5438\u53ce",
        "P_EXTRA_TEXT": "\u30bf\u30a4\u30d7:HP\u56de\u5fa9\n\u4eee\u8aac\u660e\u6587test",
        "P_COMMENT_GETTABLE": "",
        "P_CREATEDATE": "2018-02-01 18:10:05",
        "P_UPDATEDATE": "2018-02-01 18:10:05"
    },
    {
        "P_SPHERE_ITEM_ID": "500412",
        "P_EXPLAIN_SHORT": "15\u301c20%\u306e\u78ba\u7387\u3067HP\u3092\u5438\u53ce",
        "P_EXTRA_TEXT": "\u30bf\u30a4\u30d7:HP\u56de\u5fa9\n\u4eee\u8aac\u660e\u6587test",
        "P_COMMENT_GETTABLE": "",
        "P_CREATEDATE": "2018-02-01 18:10:05",
        "P_UPDATEDATE": "2018-02-01 18:10:05"
    },
    {
        "P_SPHERE_ITEM_ID": "600000",
        "P_EXPLAIN_SHORT": "\u30bf\u30fc\u30f3\u6bce\u306bBB\u30b2\u30fc\u30b8\u3092100\u5897\u52a0",
        "P_EXTRA_TEXT": "\u30bf\u30a4\u30d7:BB\u30b1\u30fc\u30b8\n\u4eee\u8aac\u660e\u6587test",
        "P_COMMENT_GETTABLE": "",
        "P_CREATEDATE": "2018-02-01 18:10:05",
        "P_UPDATEDATE": "2018-02-01 18:10:05"
    },
    {
        "P_SPHERE_ITEM_ID": "600001",
        "P_EXPLAIN_SHORT": "\u30bf\u30fc\u30f3\u6bce\u306bBB\u30b2\u30fc\u30b8\u3092200\u5897\u52a0",
        "P_EXTRA_TEXT": "\u30bf\u30a4\u30d7:BB\u30b1\u30fc\u30b8\n\u4eee\u8aac\u660e\u6587test",
        "P_COMMENT_GETTABLE": "",
        "P_CREATEDATE": "2018-02-01 18:10:05",
        "P_UPDATEDATE": "2018-02-01 18:10:05"
    },
    {
        "P_SPHERE_ITEM_ID": "600002",
        "P_EXPLAIN_SHORT": "\u30bf\u30fc\u30f3\u6bce\u306bBB\u30b2\u30fc\u30b8\u3092300\u5897\u52a0",
        "P_EXTRA_TEXT": "\u30bf\u30a4\u30d7:BB\u30b1\u30fc\u30b8\n\u4eee\u8aac\u660e\u6587test",
        "P_COMMENT_GETTABLE": "",
        "P_CREATEDATE": "2018-02-01 18:10:05",
        "P_UPDATEDATE": "2018-02-01 18:10:05"
    },
    {
        "P_SPHERE_ITEM_ID": "600100",
        "P_EXPLAIN_SHORT": "BC\u7372\u5f97\u6642\u306e\u5897\u52a0\u91cf\u309210%\u30a2\u30c3\u30d7",
        "P_EXTRA_TEXT": "\u30bf\u30a4\u30d7:BB\u30b1\u30fc\u30b8\n\u4eee\u8aac\u660e\u6587test",
        "P_COMMENT_GETTABLE": "",
        "P_CREATEDATE": "2018-02-01 18:10:05",
        "P_UPDATEDATE": "2018-02-01 18:10:05"
    },
    {
        "P_SPHERE_ITEM_ID": "600101",
        "P_EXPLAIN_SHORT": "BC\u7372\u5f97\u6642\u306e\u5897\u52a0\u91cf\u309220%\u30a2\u30c3\u30d7",
        "P_EXTRA_TEXT": "\u30bf\u30a4\u30d7:BB\u30b1\u30fc\u30b8\n\u4eee\u8aac\u660e\u6587test",
        "P_COMMENT_GETTABLE": "",
        "P_CREATEDATE": "2018-02-01 18:10:05",
        "P_UPDATEDATE": "2018-02-01 18:10:05"
    },
    {
        "P_SPHERE_ITEM_ID": "600102",
        "P_EXPLAIN_SHORT": "BC\u7372\u5f97\u6642\u306e\u5897\u52a0\u91cf\u309215%\u30a2\u30c3\u30d7",
        "P_EXTRA_TEXT": "\u30bf\u30a4\u30d7:BB\u30b1\u30fc\u30b8\n\u4eee\u8aac\u660e\u6587test",
        "P_COMMENT_GETTABLE": "",
        "P_CREATEDATE": "2018-02-01 18:10:05",
        "P_UPDATEDATE": "2018-02-01 18:10:05"
    },
    {
        "P_SPHERE_ITEM_ID": "600200",
        "P_EXPLAIN_SHORT": "\u901a\u5e38\u653b\u6483\u6642\u300120%\u306e\u78ba\u7387\u3067BB\u30b2\u30fc\u30b8\u3092100\u5897\u52a0",
        "P_EXTRA_TEXT": "\u30bf\u30a4\u30d7:BB\u30b1\u30fc\u30b8\n\u4eee\u8aac\u660e\u6587test",
        "P_COMMENT_GETTABLE": "",
        "P_CREATEDATE": "2018-02-01 18:10:05",
        "P_UPDATEDATE": "2018-02-01 18:10:05"
    },
    {
        "P_SPHERE_ITEM_ID": "600201",
        "P_EXPLAIN_SHORT": "\u901a\u5e38\u653b\u6483\u6642\u300120%\u306e\u78ba\u7387\u3067BB\u30b2\u30fc\u30b8\u3092200\u5897\u52a0",
        "P_EXTRA_TEXT": "\u30bf\u30a4\u30d7:BB\u30b1\u30fc\u30b8\n\u4eee\u8aac\u660e\u6587test",
        "P_COMMENT_GETTABLE": "",
        "P_CREATEDATE": "2018-02-01 18:10:05",
        "P_UPDATEDATE": "2018-02-01 18:10:05"
    },
    {
        "P_SPHERE_ITEM_ID": "600202",
        "P_EXPLAIN_SHORT": "\u901a\u5e38\u653b\u6483\u6642\u300150%\u306e\u78ba\u7387\u3067BB\u30b2\u30fc\u30b8\u3092100\u5897\u52a0",
        "P_EXTRA_TEXT": "\u30bf\u30a4\u30d7:BB\u30b1\u30fc\u30b8\n\u4eee\u8aac\u660e\u6587test",
        "P_COMMENT_GETTABLE": "",
        "P_CREATEDATE": "2018-02-01 18:10:05",
        "P_UPDATEDATE": "2018-02-01 18:10:05"
    },
    {
        "P_SPHERE_ITEM_ID": "600300",
        "P_EXPLAIN_SHORT": "\u6575\u6483\u7834\u6642\u3001BB\u30b2\u30fc\u30b8\u3092100\u5897\u52a0",
        "P_EXTRA_TEXT": "\u30bf\u30a4\u30d7:BB\u30b1\u30fc\u30b8\n\u4eee\u8aac\u660e\u6587test",
        "P_COMMENT_GETTABLE": "",
        "P_CREATEDATE": "2018-02-01 18:10:05",
        "P_UPDATEDATE": "2018-02-01 18:10:05"
    },
    {
        "P_SPHERE_ITEM_ID": "600301",
        "P_EXPLAIN_SHORT": "\u6575\u6483\u7834\u6642\u3001BB\u30b2\u30fc\u30b8\u3092200\u5897\u52a0",
        "P_EXTRA_TEXT": "\u30bf\u30a4\u30d7:BB\u30b1\u30fc\u30b8\n\u4eee\u8aac\u660e\u6587test",
        "P_COMMENT_GETTABLE": "",
        "P_CREATEDATE": "2018-02-01 18:10:05",
        "P_UPDATEDATE": "2018-02-01 18:10:05"
    },
    {
        "P_SPHERE_ITEM_ID": "600302",
        "P_EXPLAIN_SHORT": "\u6575\u6483\u7834\u6642\u3001BB\u30b2\u30fc\u30b8\u3092500\u5897\u52a0",
        "P_EXTRA_TEXT": "\u30bf\u30a4\u30d7:BB\u30b1\u30fc\u30b8\n\u4eee\u8aac\u660e\u6587test",
        "P_COMMENT_GETTABLE": "",
        "P_CREATEDATE": "2018-02-01 18:10:05",
        "P_UPDATEDATE": "2018-02-01 18:10:05"
    },
    {
        "P_SPHERE_ITEM_ID": "600400",
        "P_EXPLAIN_SHORT": "\u88ab\u30c0\u30e1\u30fc\u30b8\u6642\u300150%\u306e\u78ba\u7387\u3067BB\u30b2\u30fc\u30b8\u3092100\u5897\u52a0\uff081\u30bf\u30fc\u30f32\u56de\u307e\u3067\uff09",
        "P_EXTRA_TEXT": "\u30bf\u30a4\u30d7:BB\u30b1\u30fc\u30b8\n\u4eee\u8aac\u660e\u6587test",
        "P_COMMENT_GETTABLE": "",
        "P_CREATEDATE": "2018-02-01 18:10:05",
        "P_UPDATEDATE": "2018-02-01 18:10:05"
    },
    {
        "P_SPHERE_ITEM_ID": "600401",
        "P_EXPLAIN_SHORT": "\u88ab\u30c0\u30e1\u30fc\u30b8\u6642\u300150%\u306e\u78ba\u7387\u3067BB\u30b2\u30fc\u30b8\u3092200\u5897\u52a0",
        "P_EXTRA_TEXT": "\u30bf\u30a4\u30d7:BB\u30b1\u30fc\u30b8\n\u4eee\u8aac\u660e\u6587test",
        "P_COMMENT_GETTABLE": "",
        "P_CREATEDATE": "2018-02-01 18:10:05",
        "P_UPDATEDATE": "2018-02-01 18:10:05"
    },
    {
        "P_SPHERE_ITEM_ID": "600402",
        "P_EXPLAIN_SHORT": "\u88ab\u30c0\u30e1\u30fc\u30b8\u6642\u3001BB\u30b2\u30fc\u30b8\u3092100\u5897\u52a0",
        "P_EXTRA_TEXT": "\u30bf\u30a4\u30d7:BB\u30b1\u30fc\u30b8\n\u4eee\u8aac\u660e\u6587test",
        "P_COMMENT_GETTABLE": "",
        "P_CREATEDATE": "2018-02-01 18:10:05",
        "P_UPDATEDATE": "2018-02-01 18:10:05"
    },
    {
        "P_SPHERE_ITEM_ID": "700000",
        "P_EXPLAIN_SHORT": "\u653b\u6483BB\u306e\u5a01\u529b\u309210%\u30a2\u30c3\u30d7",
        "P_EXTRA_TEXT": "\u30bf\u30a4\u30d7:\u653b\u6483\u5f37\u5316\n\u4eee\u8aac\u660e\u6587test",
        "P_COMMENT_GETTABLE": "",
        "P_CREATEDATE": "2018-02-01 18:10:05",
        "P_UPDATEDATE": "2018-02-01 18:10:05"
    },
    {
        "P_SPHERE_ITEM_ID": "700001",
        "P_EXPLAIN_SHORT": "\u653b\u6483BB\u306e\u5a01\u529b\u309220%\u30a2\u30c3\u30d7",
        "P_EXTRA_TEXT": "\u30bf\u30a4\u30d7:\u653b\u6483\u5f37\u5316\n\u4eee\u8aac\u660e\u6587test",
        "P_COMMENT_GETTABLE": "",
        "P_CREATEDATE": "2018-02-01 18:10:05",
        "P_UPDATEDATE": "2018-02-01 18:10:05"
    },
    {
        "P_SPHERE_ITEM_ID": "700002",
        "P_EXPLAIN_SHORT": "\u653b\u6483BB\u306e\u5a01\u529b\u309215%\u30a2\u30c3\u30d7",
        "P_EXTRA_TEXT": "\u30bf\u30a4\u30d7:\u653b\u6483\u5f37\u5316\n\u4eee\u8aac\u660e\u6587test",
        "P_COMMENT_GETTABLE": "",
        "P_CREATEDATE": "2018-02-01 18:10:05",
        "P_UPDATEDATE": "2018-02-01 18:10:05"
    },
    {
        "P_SPHERE_ITEM_ID": "800000",
        "P_EXPLAIN_SHORT": "30%\u306e\u78ba\u7387\u3067\u6bd2\u30fb\u546a\u3044\u72b6\u614b\u306b\u3059\u308b",
        "P_EXTRA_TEXT": "\u30bf\u30a4\u30d7:\u7570\u5e38\u4ed8\u4e0e\n\u4eee\u8aac\u660e\u6587test",
        "P_COMMENT_GETTABLE": "",
        "P_CREATEDATE": "2018-02-01 18:10:05",
        "P_UPDATEDATE": "2018-02-01 18:10:05"
    },
    {
        "P_SPHERE_ITEM_ID": "800001",
        "P_EXPLAIN_SHORT": "30%\u306e\u78ba\u7387\u30672\u30bf\u30fc\u30f3\u3001\u6bd2\u30fb\u546a\u3044\u72b6\u614b\u306b\u3059\u308b",
        "P_EXTRA_TEXT": "\u30bf\u30a4\u30d7:\u7570\u5e38\u4ed8\u4e0e\n\u4eee\u8aac\u660e\u6587test",
        "P_COMMENT_GETTABLE": "",
        "P_CREATEDATE": "2018-02-01 18:10:05",
        "P_UPDATEDATE": "2018-02-01 18:10:05"
    },
    {
        "P_SPHERE_ITEM_ID": "800002",
        "P_EXPLAIN_SHORT": "50%\u306e\u78ba\u7387\u30675\u30bf\u30fc\u30f3\u3001\u6bd2\u30fb\u546a\u3044\u72b6\u614b\u306b\u3059\u308b",
        "P_EXTRA_TEXT": "\u30bf\u30a4\u30d7:\u7570\u5e38\u4ed8\u4e0e\n\u4eee\u8aac\u660e\u6587test",
        "P_COMMENT_GETTABLE": "",
        "P_CREATEDATE": "2018-02-01 18:10:06",
        "P_UPDATEDATE": "2018-02-01 18:10:06"
    },
    {
        "P_SPHERE_ITEM_ID": "800010",
        "P_EXPLAIN_SHORT": "30%\u306e\u78ba\u7387\u3067\u602a\u6211\u30fb\u96d1\u5ff5\u72b6\u614b\u306b\u3059\u308b",
        "P_EXTRA_TEXT": "\u30bf\u30a4\u30d7:\u7570\u5e38\u4ed8\u4e0e\n\u4eee\u8aac\u660e\u6587test",
        "P_COMMENT_GETTABLE": "",
        "P_CREATEDATE": "2018-02-01 18:10:06",
        "P_UPDATEDATE": "2018-02-01 18:10:06"
    },
    {
        "P_SPHERE_ITEM_ID": "800011",
        "P_EXPLAIN_SHORT": "30%\u306e\u78ba\u7387\u30672\u30bf\u30fc\u30f3\u3001\u602a\u6211\u30fb\u96d1\u5ff5\u72b6\u614b\u306b\u3059\u308b",
        "P_EXTRA_TEXT": "\u30bf\u30a4\u30d7:\u7570\u5e38\u4ed8\u4e0e\n\u4eee\u8aac\u660e\u6587test",
        "P_COMMENT_GETTABLE": "",
        "P_CREATEDATE": "2018-02-01 18:10:06",
        "P_UPDATEDATE": "2018-02-01 18:10:06"
    },
    {
        "P_SPHERE_ITEM_ID": "800012",
        "P_EXPLAIN_SHORT": "50%\u306e\u78ba\u7387\u30675\u30bf\u30fc\u30f3\u3001\u602a\u6211\u30fb\u96d1\u5ff5\u72b6\u614b\u306b\u3059\u308b",
        "P_EXTRA_TEXT": "\u30bf\u30a4\u30d7:\u7570\u5e38\u4ed8\u4e0e\n\u4eee\u8aac\u660e\u6587test",
        "P_COMMENT_GETTABLE": "",
        "P_CREATEDATE": "2018-02-01 18:10:06",
        "P_UPDATEDATE": "2018-02-01 18:10:06"
    },
    {
        "P_SPHERE_ITEM_ID": "800020",
        "P_EXPLAIN_SHORT": "30%\u306e\u78ba\u7387\u3067\u96d1\u5ff5\u30fb\u865a\u8131\u72b6\u614b\u306b\u3059\u308b",
        "P_EXTRA_TEXT": "\u30bf\u30a4\u30d7:\u7570\u5e38\u4ed8\u4e0e\n\u4eee\u8aac\u660e\u6587test",
        "P_COMMENT_GETTABLE": "",
        "P_CREATEDATE": "2018-02-01 18:10:06",
        "P_UPDATEDATE": "2018-02-01 18:10:06"
    },
    {
        "P_SPHERE_ITEM_ID": "800021",
        "P_EXPLAIN_SHORT": "30%\u306e\u78ba\u7387\u30672\u30bf\u30fc\u30f3\u3001\u5f31\u4f53\u30fb\u611f\u67d3\u72b6\u614b\u306b\u3059\u308b",
        "P_EXTRA_TEXT": "\u30bf\u30a4\u30d7:\u7570\u5e38\u4ed8\u4e0e\n\u4eee\u8aac\u660e\u6587test",
        "P_COMMENT_GETTABLE": "",
        "P_CREATEDATE": "2018-02-01 18:10:06",
        "P_UPDATEDATE": "2018-02-01 18:10:06"
    },
    {
        "P_SPHERE_ITEM_ID": "800022",
        "P_EXPLAIN_SHORT": "50%\u306e\u78ba\u7387\u30675\u30bf\u30fc\u30f3\u3001\u5f31\u4f53\u30fb\u611f\u67d3\u72b6\u614b\u306b\u3059\u308b",
        "P_EXTRA_TEXT": "\u30bf\u30a4\u30d7:\u7570\u5e38\u4ed8\u4e0e\n\u4eee\u8aac\u660e\u6587test",
        "P_COMMENT_GETTABLE": "",
        "P_CREATEDATE": "2018-02-01 18:10:06",
        "P_UPDATEDATE": "2018-02-01 18:10:06"
    },
    {
        "P_SPHERE_ITEM_ID": "800030",
        "P_EXPLAIN_SHORT": "30%\u306e\u78ba\u7387\u3067\u75c5\u6c17\u30fb\u9ebb\u75fa\u72b6\u614b\u306b\u3059\u308b",
        "P_EXTRA_TEXT": "\u30bf\u30a4\u30d7:\u7570\u5e38\u4ed8\u4e0e\n\u4eee\u8aac\u660e\u6587test",
        "P_COMMENT_GETTABLE": "",
        "P_CREATEDATE": "2018-02-01 18:10:06",
        "P_UPDATEDATE": "2018-02-01 18:10:06"
    },
    {
        "P_SPHERE_ITEM_ID": "800031",
        "P_EXPLAIN_SHORT": "30%\u306e\u78ba\u7387\u30672\u30bf\u30fc\u30f3\u3001\u75c5\u6c17\u30fb\u9ebb\u75fa\u72b6\u614b\u306b\u3059\u308b",
        "P_EXTRA_TEXT": "\u30bf\u30a4\u30d7:\u7570\u5e38\u4ed8\u4e0e\n\u4eee\u8aac\u660e\u6587test",
        "P_COMMENT_GETTABLE": "",
        "P_CREATEDATE": "2018-02-01 18:10:06",
        "P_UPDATEDATE": "2018-02-01 18:10:06"
    },
    {
        "P_SPHERE_ITEM_ID": "800032",
        "P_EXPLAIN_SHORT": "50%\u306e\u78ba\u7387\u30675\u30bf\u30fc\u30f3\u3001\u75c5\u6c17\u30fb\u9ebb\u75fa\u72b6\u614b\u306b\u3059\u308b",
        "P_EXTRA_TEXT": "\u30bf\u30a4\u30d7:\u7570\u5e38\u4ed8\u4e0e\n\u4eee\u8aac\u660e\u6587test",
        "P_COMMENT_GETTABLE": "",
        "P_CREATEDATE": "2018-02-01 18:10:06",
        "P_UPDATEDATE": "2018-02-01 18:10:06"
    },
    {
        "P_SPHERE_ITEM_ID": "800040",
        "P_EXPLAIN_SHORT": "30%\u306e\u78ba\u7387\u3067\u5e7b\u899a\u30fb\u6df7\u4e71\u72b6\u614b\u306b\u3059\u308b",
        "P_EXTRA_TEXT": "\u30bf\u30a4\u30d7:\u7570\u5e38\u4ed8\u4e0e\n\u4eee\u8aac\u660e\u6587test",
        "P_COMMENT_GETTABLE": "",
        "P_CREATEDATE": "2018-02-01 18:10:06",
        "P_UPDATEDATE": "2018-02-01 18:10:06"
    },
    {
        "P_SPHERE_ITEM_ID": "800041",
        "P_EXPLAIN_SHORT": "30%\u306e\u78ba\u7387\u30672\u30bf\u30fc\u30f3\u3001\u5e7b\u899a\u30fb\u6df7\u4e71\u72b6\u614b\u306b\u3059\u308b",
        "P_EXTRA_TEXT": "\u30bf\u30a4\u30d7:\u7570\u5e38\u4ed8\u4e0e\n\u4eee\u8aac\u660e\u6587test",
        "P_COMMENT_GETTABLE": "",
        "P_CREATEDATE": "2018-02-01 18:10:06",
        "P_UPDATEDATE": "2018-02-01 18:10:06"
    },
    {
        "P_SPHERE_ITEM_ID": "800042",
        "P_EXPLAIN_SHORT": "50%\u306e\u78ba\u7387\u30675\u30bf\u30fc\u30f3\u3001\u5e7b\u899a\u30fb\u6df7\u4e71\u72b6\u614b\u306b\u3059\u308b",
        "P_EXTRA_TEXT": "\u30bf\u30a4\u30d7:\u7570\u5e38\u4ed8\u4e0e\n\u4eee\u8aac\u660e\u6587test",
        "P_COMMENT_GETTABLE": "",
        "P_CREATEDATE": "2018-02-01 18:10:06",
        "P_UPDATEDATE": "2018-02-01 18:10:06"
    },
    {
        "P_SPHERE_ITEM_ID": "900000",
        "P_EXPLAIN_SHORT": "\u546a\u3044\u30fb\u6bd2\u306b\u304b\u304b\u308a\u306b\u304f\u304f\u306a\u308b",
        "P_EXTRA_TEXT": "\u30bf\u30a4\u30d7:\u7570\u5e38\u8010\u6027\n\u4eee\u8aac\u660e\u6587test",
        "P_COMMENT_GETTABLE": "",
        "P_CREATEDATE": "2018-02-01 18:10:06",
        "P_UPDATEDATE": "2018-02-01 18:10:06"
    },
    {
        "P_SPHERE_ITEM_ID": "900001",
        "P_EXPLAIN_SHORT": "\u546a\u3044\u30fb\u6bd2\u306b\u304b\u304b\u308a\u306b\u304f\u304f\u306a\u308b",
        "P_EXTRA_TEXT": "\u30bf\u30a4\u30d7:\u7570\u5e38\u8010\u6027\n\u4eee\u8aac\u660e\u6587test",
        "P_COMMENT_GETTABLE": "",
        "P_CREATEDATE": "2018-02-01 18:10:06",
        "P_UPDATEDATE": "2018-02-01 18:10:06"
    },
    {
        "P_SPHERE_ITEM_ID": "900002",
        "P_EXPLAIN_SHORT": "\u546a\u3044\u30fb\u6bd2\u3092\u7121\u52b9",
        "P_EXTRA_TEXT": "\u30bf\u30a4\u30d7:\u7570\u5e38\u8010\u6027\n\u4eee\u8aac\u660e\u6587test",
        "P_COMMENT_GETTABLE": "",
        "P_CREATEDATE": "2018-02-01 18:10:06",
        "P_UPDATEDATE": "2018-02-01 18:10:06"
    },
    {
        "P_SPHERE_ITEM_ID": "900010",
        "P_EXPLAIN_SHORT": "\u9ebb\u75fa\u30fb\u75c5\u6c17\u306b\u304b\u304b\u308a\u306b\u304f\u304f\u306a\u308b",
        "P_EXTRA_TEXT": "\u30bf\u30a4\u30d7:\u7570\u5e38\u8010\u6027\n\u4eee\u8aac\u660e\u6587test",
        "P_COMMENT_GETTABLE": "",
        "P_CREATEDATE": "2018-02-01 18:10:06",
        "P_UPDATEDATE": "2018-02-01 18:10:06"
    },
    {
        "P_SPHERE_ITEM_ID": "900011",
        "P_EXPLAIN_SHORT": "\u9ebb\u75fa\u30fb\u75c5\u6c17\u306b\u304b\u304b\u308a\u306b\u304f\u304f\u306a\u308b",
        "P_EXTRA_TEXT": "\u30bf\u30a4\u30d7:\u7570\u5e38\u8010\u6027\n\u4eee\u8aac\u660e\u6587test",
        "P_COMMENT_GETTABLE": "",
        "P_CREATEDATE": "2018-02-01 18:10:06",
        "P_UPDATEDATE": "2018-02-01 18:10:06"
    },
    {
        "P_SPHERE_ITEM_ID": "900012",
        "P_EXPLAIN_SHORT": "\u9ebb\u75fa\u30fb\u75c5\u6c17\u3092\u7121\u52b9",
        "P_EXTRA_TEXT": "\u30bf\u30a4\u30d7:\u7570\u5e38\u8010\u6027\n\u4eee\u8aac\u660e\u6587test",
        "P_COMMENT_GETTABLE": "",
        "P_CREATEDATE": "2018-02-01 18:10:06",
        "P_UPDATEDATE": "2018-02-01 18:10:06"
    },
    {
        "P_SPHERE_ITEM_ID": "900020",
        "P_EXPLAIN_SHORT": "\u5e7b\u899a\u30fb\u602a\u6211\u30fb\u5f31\u4f53\u306b\u304b\u304b\u308a\u306b\u304f\u304f\u306a\u308b",
        "P_EXTRA_TEXT": "\u30bf\u30a4\u30d7:\u7570\u5e38\u8010\u6027\n\u4eee\u8aac\u660e\u6587test",
        "P_COMMENT_GETTABLE": "",
        "P_CREATEDATE": "2018-02-01 18:10:06",
        "P_UPDATEDATE": "2018-02-01 18:10:06"
    },
    {
        "P_SPHERE_ITEM_ID": "900021",
        "P_EXPLAIN_SHORT": "\u5e7b\u899a\u30fb\u602a\u6211\u30fb\u5f31\u4f53\u306b\u304b\u304b\u308a\u306b\u304f\u304f\u306a\u308b",
        "P_EXTRA_TEXT": "\u30bf\u30a4\u30d7:\u7570\u5e38\u8010\u6027\n\u4eee\u8aac\u660e\u6587test",
        "P_COMMENT_GETTABLE": "",
        "P_CREATEDATE": "2018-02-01 18:10:06",
        "P_UPDATEDATE": "2018-02-01 18:10:06"
    },
    {
        "P_SPHERE_ITEM_ID": "900022",
        "P_EXPLAIN_SHORT": "\u5e7b\u899a\u30fb\u602a\u6211\u30fb\u5f31\u4f53\u3092\u7121\u52b9",
        "P_EXTRA_TEXT": "\u30bf\u30a4\u30d7:\u7570\u5e38\u8010\u6027\n\u4eee\u8aac\u660e\u6587test",
        "P_COMMENT_GETTABLE": "",
        "P_CREATEDATE": "2018-02-01 18:10:06",
        "P_UPDATEDATE": "2018-02-01 18:10:06"
    },
    {
        "P_SPHERE_ITEM_ID": "900030",
        "P_EXPLAIN_SHORT": "\u6df7\u4e71\u30fb\u96d1\u5ff5\u30fb\u611f\u67d3\u306b\u304b\u304b\u308a\u306b\u304f\u304f\u306a\u308b",
        "P_EXTRA_TEXT": "\u30bf\u30a4\u30d7:\u7570\u5e38\u8010\u6027\n\u4eee\u8aac\u660e\u6587test",
        "P_COMMENT_GETTABLE": "",
        "P_CREATEDATE": "2018-02-01 18:10:06",
        "P_UPDATEDATE": "2018-02-01 18:10:06"
    },
    {
        "P_SPHERE_ITEM_ID": "900031",
        "P_EXPLAIN_SHORT": "\u6df7\u4e71\u30fb\u96d1\u5ff5\u30fb\u611f\u67d3\u306b\u304b\u304b\u308a\u306b\u304f\u304f\u306a\u308b",
        "P_EXTRA_TEXT": "\u30bf\u30a4\u30d7:\u7570\u5e38\u8010\u6027\n\u4eee\u8aac\u660e\u6587test",
        "P_COMMENT_GETTABLE": "",
        "P_CREATEDATE": "2018-02-01 18:10:06",
        "P_UPDATEDATE": "2018-02-01 18:10:06"
    },
    {
        "P_SPHERE_ITEM_ID": "900032",
        "P_EXPLAIN_SHORT": "\u6df7\u4e71\u30fb\u96d1\u5ff5\u30fb\u611f\u67d3\u3092\u7121\u52b9",
        "P_EXTRA_TEXT": "\u30bf\u30a4\u30d7:\u7570\u5e38\u8010\u6027\n\u4eee\u8aac\u660e\u6587test",
        "P_COMMENT_GETTABLE": "",
        "P_CREATEDATE": "2018-02-01 18:10:06",
        "P_UPDATEDATE": "2018-02-01 18:10:06"
    },
    {
        "P_SPHERE_ITEM_ID": "1100000",
        "P_EXPLAIN_SHORT": "\u6226\u95d8\u958b\u59cb\u304b\u30893\u30bf\u30fc\u30f3\u3001\u653b\u6483\u529b\u30fb\u9632\u5fa1\u529b\u30fb\u9b54\u9632\u529b\u309215%\u30a2\u30c3\u30d7,\n\u30bf\u30fc\u30f3\u6bce\u306bHP\u3092200-300\u56de\u5fa9",
        "P_EXTRA_TEXT": "\u30bf\u30a4\u30d7:\u30b9\u30c6\u30fc\u30bf\u30b9\u5f37\u5316\n\u4eee\u8aac\u660e\u6587test",
        "P_COMMENT_GETTABLE": "",
        "P_CREATEDATE": "2018-02-01 18:10:06",
        "P_UPDATEDATE": "2018-02-01 18:10:06"
    },
    {
        "P_SPHERE_ITEM_ID": "1100010",
        "P_EXPLAIN_SHORT": "\u9632\u5fa1\u529b\u30fb\u9b54\u9632\u529b\u30925%\u30a2\u30c3\u30d7",
        "P_EXTRA_TEXT": "\u30bf\u30a4\u30d7:\u30b9\u30c6\u30fc\u30bf\u30b9\u5f37\u5316\n\u4eee\u8aac\u660e\u6587test",
        "P_COMMENT_GETTABLE": "",
        "P_CREATEDATE": "2018-02-01 18:10:06",
        "P_UPDATEDATE": "2018-02-01 18:10:06"
    },
    {
        "P_SPHERE_ITEM_ID": "1100020",
        "P_EXPLAIN_SHORT": "\u5168\u80fd\u529b\u309210%\u30a2\u30c3\u30d7",
        "P_EXTRA_TEXT": "\u30bf\u30a4\u30d7:\u30b9\u30c6\u30fc\u30bf\u30b9\u5f37\u5316\n\u4eee\u8aac\u660e\u6587test",
        "P_COMMENT_GETTABLE": "",
        "P_CREATEDATE": "2018-02-01 18:10:06",
        "P_UPDATEDATE": "2018-02-01 18:10:06"
    },
    {
        "P_SPHERE_ITEM_ID": "1100030",
        "P_EXPLAIN_SHORT": "\u9632\u5fa1\u529b\u30fb\u9b54\u9632\u529b\u309220%\u30a2\u30c3\u30d7",
        "P_EXTRA_TEXT": "\u30bf\u30a4\u30d7:\u30b9\u30c6\u30fc\u30bf\u30b9\u5f37\u5316\n\u4eee\u8aac\u660e\u6587test",
        "P_COMMENT_GETTABLE": "",
        "P_CREATEDATE": "2018-02-01 18:10:06",
        "P_UPDATEDATE": "2018-02-01 18:10:06"
    },
    {
        "P_SPHERE_ITEM_ID": "1100040",
        "P_EXPLAIN_SHORT": "\u6700\u5927HP\u309210%\u30a2\u30c3\u30d7,\n\u30bf\u30fc\u30f3\u6bce\u306bBB\u30b2\u30fc\u30b8\u3092200\u5897\u52a0",
        "P_EXTRA_TEXT": "\u30bf\u30a4\u30d7:\u30b9\u30c6\u30fc\u30bf\u30b9\u5f37\u5316\n\u4eee\u8aac\u660e\u6587test",
        "P_COMMENT_GETTABLE": "",
        "P_CREATEDATE": "2018-02-01 18:10:06",
        "P_UPDATEDATE": "2018-02-01 18:10:06"
    },
    {
        "P_SPHERE_ITEM_ID": "1100050",
        "P_EXPLAIN_SHORT": "\u6b8b\u308aHP\u304c\u591a\u3044\u307b\u3069\u653b\u6483\u529b\u3092\u30a2\u30c3\u30d7\uff08\u6700\u592725\uff05\uff09,\n\u6b8b\u308aHP\u304c\u5c11\u306a\u3044\u307b\u3069\u9632\u5fa1\u529b\u30fb\u9b54\u9632\u529b\u3092\u30a2\u30c3\u30d7\uff08\u6700\u59275\uff05\uff09",
        "P_EXTRA_TEXT": "\u30bf\u30a4\u30d7:\u30b9\u30c6\u30fc\u30bf\u30b9\u5f37\u5316\n\u4eee\u8aac\u660e\u6587test",
        "P_COMMENT_GETTABLE": "",
        "P_CREATEDATE": "2018-02-01 18:10:06",
        "P_UPDATEDATE": "2018-02-01 18:10:06"
    },
    {
        "P_SPHERE_ITEM_ID": "1100060",
        "P_EXPLAIN_SHORT": "",
        "P_EXTRA_TEXT": "\u30bf\u30a4\u30d7:\u30b9\u30c6\u30fc\u30bf\u30b9\u5f37\u5316\n\u4eee\u8aac\u660e\u6587test",
        "P_COMMENT_GETTABLE": "",
        "P_CREATEDATE": "2018-02-01 18:10:06",
        "P_UPDATEDATE": "2018-02-01 18:10:06"
    },
    {
        "P_SPHERE_ITEM_ID": "1200000",
        "P_EXPLAIN_SHORT": "\u30af\u30ea\u30c6\u30a3\u30ab\u30eb\u7387\u309210%\u30a2\u30c3\u30d7",
        "P_EXTRA_TEXT": "\u30bf\u30a4\u30d7:\u30af\u30ea\u30c6\u30a3\u30ab\u30eb\n\u4eee\u8aac\u660e\u6587test",
        "P_COMMENT_GETTABLE": "",
        "P_CREATEDATE": "2018-02-01 18:10:06",
        "P_UPDATEDATE": "2018-02-01 18:10:06"
    },
    {
        "P_SPHERE_ITEM_ID": "1300000",
        "P_EXPLAIN_SHORT": "\u30b9\u30d1\u30fc\u30af\u30c0\u30e1\u30fc\u30b8\u309215%\u30a2\u30c3\u30d7,\n\u30b9\u30d1\u30fc\u30af\u6642\u3001BC\u51fa\u73fe\u7387\u309210%\u30a2\u30c3\u30d7",
        "P_EXTRA_TEXT": "\u30bf\u30a4\u30d7:\u30b9\u30d1\u30fc\u30af\n\u4eee\u8aac\u660e\u6587test",
        "P_COMMENT_GETTABLE": "",
        "P_CREATEDATE": "2018-02-01 18:10:06",
        "P_UPDATEDATE": "2018-02-01 18:10:06"
    },
    {
        "P_SPHERE_ITEM_ID": "1400000",
        "P_EXPLAIN_SHORT": "BC\u30fbHC\u51fa\u73fe\u7387\u30925%\u30a2\u30c3\u30d7",
        "P_EXTRA_TEXT": "\u30bf\u30a4\u30d7:\u30c9\u30ed\u30c3\u30d7\n\u4eee\u8aac\u660e\u6587test",
        "P_COMMENT_GETTABLE": "",
        "P_CREATEDATE": "2018-02-01 18:10:06",
        "P_UPDATEDATE": "2018-02-01 18:10:06"
    },
    {
        "P_SPHERE_ITEM_ID": "1500000",
        "P_EXPLAIN_SHORT": "\u30bf\u30fc\u30f3\u6bce\u306bHP\u3092400-600\u56de\u5fa9,\n\u88ab\u30c0\u30e1\u30fc\u30b8\u6642\u300130%\u306e\u78ba\u7387\u3067HP\u30925%\u301c10%\u56de\u5fa9\uff081\u30bf\u30fc\u30f32\u56de\u307e\u3067\uff09",
        "P_EXTRA_TEXT": "\u30bf\u30a4\u30d7:HP\u56de\u5fa9\n\u4eee\u8aac\u660e\u6587test",
        "P_COMMENT_GETTABLE": "",
        "P_CREATEDATE": "2018-02-01 18:10:06",
        "P_UPDATEDATE": "2018-02-01 18:10:06"
    },
    {
        "P_SPHERE_ITEM_ID": "1700000",
        "P_EXPLAIN_SHORT": "\u653b\u6483BB\u306e\u5a01\u529b\u309210%\u30a2\u30c3\u30d7,\n\u30b9\u30d1\u30fc\u30af\u30c0\u30e1\u30fc\u30b8\u309210%\u30a2\u30c3\u30d7",
        "P_EXTRA_TEXT": "\u30bf\u30a4\u30d7:\u653b\u6483\u5f37\u5316\n\u4eee\u8aac\u660e\u6587test",
        "P_COMMENT_GETTABLE": "",
        "P_CREATEDATE": "2018-02-01 18:10:06",
        "P_UPDATEDATE": "2018-02-01 18:10:06"
    },
    {
        "P_SPHERE_ITEM_ID": "1900000",
        "P_EXPLAIN_SHORT": "BC\u7372\u5f97\u6642\u306e\u5897\u52a0\u91cf\u309210%\u30a2\u30c3\u30d7,\n30%\u306e\u78ba\u7387\u3067\u96d1\u5ff5\u30fb\u865a\u8131\u72b6\u614b\u306b\u3059\u308b",
        "P_EXTRA_TEXT": "\u30bf\u30a4\u30d7:BB\u30b1\u30fc\u30b8\n\u4eee\u8aac\u660e\u6587test",
        "P_COMMENT_GETTABLE": "",
        "P_CREATEDATE": "2018-02-01 18:10:06",
        "P_UPDATEDATE": "2018-02-01 18:10:06"
    },
    {
        "P_SPHERE_ITEM_ID": "1900010",
        "P_EXPLAIN_SHORT": "\u6bd2\u30fb\u546a\u3044\u30fb\u602a\u6211\u30fb\u5f31\u4f53\u30fb\u75c5\u6c17\u30fb\u9ebb\u75fa\u30fb\u96d1\u5ff5\u30fb\u865a\u8131\u30fb\u5e7b\u899a\u30fb\u6df7\u4e71\u306b\u304b\u304b\u308a\u306b\u304f\u304f\u306a\u308b",
        "P_EXTRA_TEXT": "\u30bf\u30a4\u30d7:\u7570\u5e38\u8010\u6027\n\u4eee\u8aac\u660e\u6587test",
        "P_COMMENT_GETTABLE": "",
        "P_CREATEDATE": "2018-02-01 18:10:06",
        "P_UPDATEDATE": "2018-02-01 18:10:06"
    }
]