[
    {
        "P_XBB_ID": "200014",
        "P_XBB_NAME": "\u8987\u714c\u306e\u7ffc\uff1c\u30a4\u30b0\u30cb\u30b9\u30fb\u30ec\u30a4\u30ba\uff1e",
        "P_XBB_UNIT_IDS": "10:1001314,10:1001714",
        "P_COST_INFO": "3,8000",
        "8NW7zK2A": "2",
        "P_SCRIPT": "-1",
        "P_ICON_ID": "2222",
        "ux6R7ADp": "200014",
        "5jigH1P7": "80",
        "Mz9Lw4Vv": "50100011",
        "u6F9pqnt": ",50100013",
        "s1RXLIA0": "1",
        "yT1o9jUZ": "2,50:0.08",
        "P_DICTIONARY_NO": "1",
        "P_DICTIONARY_BG": "1",
        "P_NEED_SWITCH_INFO": "0",
        "P_HIDE_SWITCH_INFO": "0",
        "P_OPEN_SWITCH_INFO": "0",
        "P_CREATEDATE": "2018-02-15 15:33:40",
        "P_UPDATEDATE": "2018-02-15 15:33:40"
    },
    {
        "P_XBB_ID": "200024",
        "P_XBB_NAME": "\u30f4\u30a7\u30fc\u30c0\u6d41\u8056\u5bfe\u5263\u300e\u30ea\u30ac\u30e6\u30fc\u30b9\u300f",
        "P_XBB_UNIT_IDS": "10:5001314,10:5001814",
        "P_COST_INFO": "3,8000",
        "8NW7zK2A": "3",
        "P_SCRIPT": "-1",
        "P_ICON_ID": "2222",
        "ux6R7ADp": "200024",
        "5jigH1P7": "80",
        "Mz9Lw4Vv": "50100110",
        "u6F9pqnt": "50100111,50100113",
        "s1RXLIA0": "1",
        "yT1o9jUZ": "1,10:0.10",
        "P_DICTIONARY_NO": "1",
        "P_DICTIONARY_BG": "2",
        "P_NEED_SWITCH_INFO": "0",
        "P_HIDE_SWITCH_INFO": "0",
        "P_OPEN_SWITCH_INFO": "0",
        "P_CREATEDATE": "2018-02-15 15:33:40",
        "P_UPDATEDATE": "2018-02-15 15:33:40"
    },
    {
        "P_XBB_ID": "200034",
        "P_XBB_NAME": "\u30b0\u30ea\u30e0\u30ed\u30fc\u30c9\u30fb\u30d0\u30bf\u30d5\u30e9\u30a4",
        "P_XBB_UNIT_IDS": "10:6001614,10:6001714",
        "P_COST_INFO": "3,8000",
        "8NW7zK2A": "2",
        "P_SCRIPT": "-1",
        "P_ICON_ID": "2222",
        "ux6R7ADp": "200034",
        "5jigH1P7": "80",
        "Mz9Lw4Vv": "50100210",
        "u6F9pqnt": "50100211,50100213",
        "s1RXLIA0": "3",
        "yT1o9jUZ": "1:3:2,0:50:30,4.0:4.5:4.0",
        "P_DICTIONARY_NO": "1",
        "P_DICTIONARY_BG": "3",
        "P_NEED_SWITCH_INFO": "0",
        "P_HIDE_SWITCH_INFO": "0",
        "P_OPEN_SWITCH_INFO": "0",
        "P_CREATEDATE": "2018-02-15 15:33:40",
        "P_UPDATEDATE": "2018-02-15 15:33:40"
    },
    {
        "P_XBB_ID": "200044",
        "P_XBB_NAME": "\u30bb\u30a4\u30af\u30ea\u30c3\u30c9\u30b9\u30ec\u30a4\u30f4",
        "P_XBB_UNIT_IDS": "10:5001414,10:6001514",
        "P_COST_INFO": "3,8000",
        "8NW7zK2A": "2",
        "P_SCRIPT": "-1",
        "P_ICON_ID": "2222",
        "ux6R7ADp": "200044",
        "5jigH1P7": "80",
        "Mz9Lw4Vv": "50100310",
        "u6F9pqnt": "50100311,50100313",
        "s1RXLIA0": "1",
        "yT1o9jUZ": "0.3,0:0.12",
        "P_DICTIONARY_NO": "1",
        "P_DICTIONARY_BG": "4",
        "P_NEED_SWITCH_INFO": "0",
        "P_HIDE_SWITCH_INFO": "0",
        "P_OPEN_SWITCH_INFO": "0",
        "P_CREATEDATE": "2018-02-15 15:33:40",
        "P_UPDATEDATE": "2018-02-15 15:33:40"
    },
    {
        "P_XBB_ID": "200054",
        "P_XBB_NAME": "\u30af\u30ea\u30e0\u30be\u30f3\u30fb\u30b9\u30c8\u30e9\u30a4\u30af",
        "P_XBB_UNIT_IDS": "10:1002014,10:6002114",
        "P_COST_INFO": "3,8000",
        "8NW7zK2A": "1",
        "P_SCRIPT": "-1",
        "P_ICON_ID": "2222",
        "ux6R7ADp": "200054",
        "5jigH1P7": "80",
        "Mz9Lw4Vv": "50100410",
        "u6F9pqnt": "50100411,50100413",
        "s1RXLIA0": "2",
        "yT1o9jUZ": "65,5,5:1",
        "P_DICTIONARY_NO": "1",
        "P_DICTIONARY_BG": "5",
        "P_NEED_SWITCH_INFO": "0",
        "P_HIDE_SWITCH_INFO": "0",
        "P_OPEN_SWITCH_INFO": "0",
        "P_CREATEDATE": "2018-02-15 15:33:40",
        "P_UPDATEDATE": "2018-02-15 15:33:40"
    },
    {
        "P_XBB_ID": "200064",
        "P_XBB_NAME": "\u30c0\u30d6\u30eb\u30b9\u30af\u30e9\u30c3\u30c1",
        "P_XBB_UNIT_IDS": "10:4001614,10:4001714",
        "P_COST_INFO": "3,7000",
        "8NW7zK2A": "1",
        "P_SCRIPT": "-1",
        "P_ICON_ID": "2222",
        "ux6R7ADp": "200064",
        "5jigH1P7": "120",
        "Mz9Lw4Vv": "50100510",
        "u6F9pqnt": "50100511,50100513",
        "s1RXLIA0": "1",
        "yT1o9jUZ": "2,30:0.04",
        "P_DICTIONARY_NO": "1",
        "P_DICTIONARY_BG": "6",
        "P_NEED_SWITCH_INFO": "0",
        "P_HIDE_SWITCH_INFO": "0",
        "P_OPEN_SWITCH_INFO": "0",
        "P_CREATEDATE": "2018-02-15 15:33:40",
        "P_UPDATEDATE": "2018-02-15 15:33:40"
    },
    {
        "P_XBB_ID": "200074",
        "P_XBB_NAME": "\u5275\u6a39\u306e\u8056\u89e3",
        "P_XBB_UNIT_IDS": "10:3001214,10:3001514",
        "P_COST_INFO": "3,7000",
        "8NW7zK2A": "2",
        "P_SCRIPT": "-1",
        "P_ICON_ID": "2222",
        "ux6R7ADp": "200074",
        "5jigH1P7": "80",
        "Mz9Lw4Vv": "50100610",
        "u6F9pqnt": "50100611,50100613",
        "s1RXLIA0": "3",
        "yT1o9jUZ": "3:2:1,40:20:0,4.0:4.0:4.0",
        "P_DICTIONARY_NO": "1",
        "P_DICTIONARY_BG": "7",
        "P_NEED_SWITCH_INFO": "0",
        "P_HIDE_SWITCH_INFO": "0",
        "P_OPEN_SWITCH_INFO": "0",
        "P_CREATEDATE": "2018-02-15 15:33:40",
        "P_UPDATEDATE": "2018-02-15 15:33:40"
    },
    {
        "P_XBB_ID": "200084",
        "P_XBB_NAME": "\u30af\u30ea\u30b9\u30bf\u30eb\u30fb\u30b0\u30ec\u30a4\u30b7\u30a2",
        "P_XBB_UNIT_IDS": "10:2001214,10:2001414",
        "P_COST_INFO": "3,8000",
        "8NW7zK2A": "3",
        "P_SCRIPT": "-1",
        "P_ICON_ID": "2222",
        "ux6R7ADp": "200084",
        "5jigH1P7": "80",
        "Mz9Lw4Vv": "50100710",
        "u6F9pqnt": "50100711,50100713",
        "s1RXLIA0": "1",
        "yT1o9jUZ": "1.5,40:0.09",
        "P_DICTIONARY_NO": "1",
        "P_DICTIONARY_BG": "8",
        "P_NEED_SWITCH_INFO": "0",
        "P_HIDE_SWITCH_INFO": "0",
        "P_OPEN_SWITCH_INFO": "0",
        "P_CREATEDATE": "2018-02-15 15:33:40",
        "P_UPDATEDATE": "2018-02-15 15:33:40"
    },
    {
        "P_XBB_ID": "200094",
        "P_XBB_NAME": "\u5929\u5730\u8f5f\u96f7",
        "P_XBB_UNIT_IDS": "10:4001214,10:4001414",
        "P_COST_INFO": "3,8000",
        "8NW7zK2A": "2",
        "P_SCRIPT": "-1",
        "P_ICON_ID": "2222",
        "ux6R7ADp": "200094",
        "5jigH1P7": "80",
        "Mz9Lw4Vv": "50100810",
        "u6F9pqnt": "50100811,50100813",
        "s1RXLIA0": "1",
        "yT1o9jUZ": "1.2,25:0.09",
        "P_DICTIONARY_NO": "1",
        "P_DICTIONARY_BG": "9",
        "P_NEED_SWITCH_INFO": "0",
        "P_HIDE_SWITCH_INFO": "0",
        "P_OPEN_SWITCH_INFO": "0",
        "P_CREATEDATE": "2018-02-15 15:33:40",
        "P_UPDATEDATE": "2018-02-15 15:33:40"
    },
    {
        "P_XBB_ID": "200104",
        "P_XBB_NAME": "\u9ed2\u9a0e\u7149\u67b6\u885d",
        "P_XBB_UNIT_IDS": "10:6001414,10:6001914",
        "P_COST_INFO": "3,8000",
        "8NW7zK2A": "1",
        "P_SCRIPT": "-1",
        "P_ICON_ID": "2222",
        "ux6R7ADp": "200104",
        "5jigH1P7": "80",
        "Mz9Lw4Vv": "50100910",
        "u6F9pqnt": "50100911,50100913",
        "s1RXLIA0": "2",
        "yT1o9jUZ": "50,5,5:1",
        "P_DICTIONARY_NO": "1",
        "P_DICTIONARY_BG": "10",
        "P_NEED_SWITCH_INFO": "0",
        "P_HIDE_SWITCH_INFO": "0",
        "P_OPEN_SWITCH_INFO": "0",
        "P_CREATEDATE": "2018-02-15 15:33:40",
        "P_UPDATEDATE": "2018-02-15 15:33:40"
    },
    {
        "P_XBB_ID": "200114",
        "P_XBB_NAME": "\u30d6\u30ec\u30a4\u30d6\u30c4\u30a4\u30f3\u30ba",
        "P_XBB_UNIT_IDS": "10:5000324,10:6000324",
        "P_COST_INFO": "3,8000",
        "8NW7zK2A": "3",
        "P_SCRIPT": "-1",
        "P_ICON_ID": "2222",
        "ux6R7ADp": "200114",
        "5jigH1P7": "80",
        "Mz9Lw4Vv": "50101010",
        "u6F9pqnt": "50101011,50101013",
        "s1RXLIA0": "2",
        "yT1o9jUZ": "60,4,15:1",
        "P_DICTIONARY_NO": "1",
        "P_DICTIONARY_BG": "11",
        "P_NEED_SWITCH_INFO": "0",
        "P_HIDE_SWITCH_INFO": "0",
        "P_OPEN_SWITCH_INFO": "0",
        "P_CREATEDATE": "2018-02-15 15:33:40",
        "P_UPDATEDATE": "2018-02-15 15:33:40"
    },
    {
        "P_XBB_ID": "200124",
        "P_XBB_NAME": "\u7fa9\u8cca\u30bc\u30eb\u30ca\u30a4\u30c8\u3068\u8cde\u91d1\u7a3c\u304e",
        "P_XBB_UNIT_IDS": "10:3001414,10:4000524",
        "P_COST_INFO": "3,8000",
        "8NW7zK2A": "2",
        "P_SCRIPT": "-1",
        "P_ICON_ID": "2222",
        "ux6R7ADp": "200124",
        "5jigH1P7": "80",
        "Mz9Lw4Vv": "50101110",
        "u6F9pqnt": "50101111,50101113",
        "s1RXLIA0": "2",
        "yT1o9jUZ": "40,3,5:1",
        "P_DICTIONARY_NO": "1",
        "P_DICTIONARY_BG": "12",
        "P_NEED_SWITCH_INFO": "0",
        "P_HIDE_SWITCH_INFO": "0",
        "P_OPEN_SWITCH_INFO": "0",
        "P_CREATEDATE": "2018-02-15 15:33:40",
        "P_UPDATEDATE": "2018-02-15 15:33:40"
    },
    {
        "P_XBB_ID": "200134",
        "P_XBB_NAME": "\u8b00\u7114\u6607\u96f7\u306e\u9663",
        "P_XBB_UNIT_IDS": "10:4001314,10:1000524",
        "P_COST_INFO": "3,7000",
        "8NW7zK2A": "2",
        "P_SCRIPT": "-1",
        "P_ICON_ID": "2222",
        "ux6R7ADp": "200134",
        "5jigH1P7": "80",
        "Mz9Lw4Vv": "50101210",
        "u6F9pqnt": "50101211,50101213",
        "s1RXLIA0": "3",
        "yT1o9jUZ": "3:1:2,40:0:20,5.0:4.0:5.0",
        "P_DICTIONARY_NO": "1",
        "P_DICTIONARY_BG": "13",
        "P_NEED_SWITCH_INFO": "0",
        "P_HIDE_SWITCH_INFO": "0",
        "P_OPEN_SWITCH_INFO": "0",
        "P_CREATEDATE": "2018-02-15 15:33:40",
        "P_UPDATEDATE": "2018-02-15 15:33:40"
    },
    {
        "P_XBB_ID": "200144",
        "P_XBB_NAME": "\u7d76\u76fe\u306e\u6148\u611b",
        "P_XBB_UNIT_IDS": "10:1001414,10:2000524",
        "P_COST_INFO": "3,7000",
        "8NW7zK2A": "2",
        "P_SCRIPT": "-1",
        "P_ICON_ID": "2222",
        "ux6R7ADp": "200144",
        "5jigH1P7": "80",
        "Mz9Lw4Vv": "50101310",
        "u6F9pqnt": "50101311,50101313",
        "s1RXLIA0": "1",
        "yT1o9jUZ": "0.6,20:0.11",
        "P_DICTIONARY_NO": "1",
        "P_DICTIONARY_BG": "14",
        "P_NEED_SWITCH_INFO": "0",
        "P_HIDE_SWITCH_INFO": "0",
        "P_OPEN_SWITCH_INFO": "0",
        "P_CREATEDATE": "2018-02-15 15:33:40",
        "P_UPDATEDATE": "2018-02-15 15:33:40"
    },
    {
        "P_XBB_ID": "200154",
        "P_XBB_NAME": "\u8056\u53e1\u306e\u30a8\u30af\u30b9\u30d7\u30ea\u30b1\u30a4\u30b7\u30e7\u30f3",
        "P_XBB_UNIT_IDS": "10:2001314,10:3000524",
        "P_COST_INFO": "3,7000",
        "8NW7zK2A": "2",
        "P_SCRIPT": "-1",
        "P_ICON_ID": "2222",
        "ux6R7ADp": "200154",
        "5jigH1P7": "80",
        "Mz9Lw4Vv": "50101410",
        "u6F9pqnt": "50101411,50101413",
        "s1RXLIA0": "2",
        "yT1o9jUZ": "40,5,12:1",
        "P_DICTIONARY_NO": "1",
        "P_DICTIONARY_BG": "15",
        "P_NEED_SWITCH_INFO": "0",
        "P_HIDE_SWITCH_INFO": "0",
        "P_OPEN_SWITCH_INFO": "0",
        "P_CREATEDATE": "2018-02-15 15:33:40",
        "P_UPDATEDATE": "2018-02-15 15:33:40"
    },
    {
        "P_XBB_ID": "200164",
        "P_XBB_NAME": "\u30d5\u30a3\u30eb\u30a2\u30fc\u30e0\u30af\u30ed\u30b9",
        "P_XBB_UNIT_IDS": "10:5001124,10:1001124",
        "P_COST_INFO": "3,8000",
        "8NW7zK2A": "1",
        "P_SCRIPT": "-1",
        "P_ICON_ID": "2222",
        "ux6R7ADp": "200164",
        "5jigH1P7": "80",
        "Mz9Lw4Vv": "50101510",
        "u6F9pqnt": "50101511,50101513",
        "s1RXLIA0": "1",
        "yT1o9jUZ": "1,30:0.04",
        "P_DICTIONARY_NO": "1",
        "P_DICTIONARY_BG": "16",
        "P_NEED_SWITCH_INFO": "0",
        "P_HIDE_SWITCH_INFO": "0",
        "P_OPEN_SWITCH_INFO": "0",
        "P_CREATEDATE": "2018-02-15 15:33:40",
        "P_UPDATEDATE": "2018-02-15 15:33:40"
    },
    {
        "P_XBB_ID": "200174",
        "P_XBB_NAME": "\u30b5\u30f3\u30af\u30aa\u30fc\u30ec\u30c1\u30e3\u30fc\u30b8",
        "P_XBB_UNIT_IDS": "10:1001224,10:3001124",
        "P_COST_INFO": "3,8000",
        "8NW7zK2A": "2",
        "P_SCRIPT": "-1",
        "P_ICON_ID": "2222",
        "ux6R7ADp": "200174",
        "5jigH1P7": "80",
        "Mz9Lw4Vv": "50101610",
        "u6F9pqnt": "50101611,50101613",
        "s1RXLIA0": "3",
        "yT1o9jUZ": "2:1:3,20:0:40,4.0:4.0:4.0",
        "P_DICTIONARY_NO": "1",
        "P_DICTIONARY_BG": "17",
        "P_NEED_SWITCH_INFO": "0",
        "P_HIDE_SWITCH_INFO": "0",
        "P_OPEN_SWITCH_INFO": "0",
        "P_CREATEDATE": "2018-02-15 15:33:40",
        "P_UPDATEDATE": "2018-02-15 15:33:40"
    },
    {
        "P_XBB_ID": "200184",
        "P_XBB_NAME": "\u7d76\u54c1\uff01\u4e0d\u6b7b\u9ce5\u6599\u7406\uff01",
        "P_XBB_UNIT_IDS": "10:1001514,10:1001814",
        "P_COST_INFO": "3,7000",
        "8NW7zK2A": "2",
        "P_SCRIPT": "-1",
        "P_ICON_ID": "2222",
        "ux6R7ADp": "200184",
        "5jigH1P7": "70",
        "Mz9Lw4Vv": "50101710",
        "u6F9pqnt": "50101711",
        "s1RXLIA0": "2",
        "yT1o9jUZ": "45,3,10:1",
        "P_DICTIONARY_NO": "1",
        "P_DICTIONARY_BG": "18",
        "P_NEED_SWITCH_INFO": "0",
        "P_HIDE_SWITCH_INFO": "0",
        "P_OPEN_SWITCH_INFO": "0",
        "P_CREATEDATE": "2018-02-15 15:33:40",
        "P_UPDATEDATE": "2018-02-15 15:33:40"
    },
    {
        "P_XBB_ID": "300014",
        "P_XBB_NAME": "\u30a4\u30f3\u30f4\u30a9\u30fc\u30af\u30d6\u30ec\u30a4\u30b6\u30fc",
        "P_XBB_UNIT_IDS": "10:1002114,10:3002014,10:4002014",
        "P_COST_INFO": "3,7000",
        "8NW7zK2A": "3",
        "P_SCRIPT": "-1",
        "P_ICON_ID": "2222",
        "ux6R7ADp": "300014",
        "5jigH1P7": "80",
        "Mz9Lw4Vv": "50101810",
        "u6F9pqnt": "50101811,50101813",
        "s1RXLIA0": "1",
        "yT1o9jUZ": "2,50:0.03",
        "P_DICTIONARY_NO": "1",
        "P_DICTIONARY_BG": "19",
        "P_NEED_SWITCH_INFO": "0",
        "P_HIDE_SWITCH_INFO": "0",
        "P_OPEN_SWITCH_INFO": "0",
        "P_CREATEDATE": "2018-02-15 15:33:40",
        "P_UPDATEDATE": "2018-02-15 15:33:40"
    },
    {
        "P_XBB_ID": "300024",
        "P_XBB_NAME": "\u60a0\u4e45\u306e\u30bb\u30e9\u30d5\u30a3\u30ca\u30a4\u30c8",
        "P_XBB_UNIT_IDS": "10:3000424,10:5000424,10:6000424",
        "P_COST_INFO": "3,8000",
        "8NW7zK2A": "3",
        "P_SCRIPT": "-1",
        "P_ICON_ID": "2222",
        "ux6R7ADp": "300024",
        "5jigH1P7": "80",
        "Mz9Lw4Vv": "50101910",
        "u6F9pqnt": "50101911,50101913",
        "s1RXLIA0": "3",
        "yT1o9jUZ": "2:3:1,20:40:0,4.0:4.0:4.0",
        "P_DICTIONARY_NO": "1",
        "P_DICTIONARY_BG": "20",
        "P_NEED_SWITCH_INFO": "0",
        "P_HIDE_SWITCH_INFO": "0",
        "P_OPEN_SWITCH_INFO": "0",
        "P_CREATEDATE": "2018-02-15 15:33:40",
        "P_UPDATEDATE": "2018-02-15 15:33:40"
    },
    {
        "P_XBB_ID": "300034",
        "P_XBB_NAME": "\u30c7\u30a3\u30b9\u30bf\u30fc\u30d0\u30f3\u30b9",
        "P_XBB_UNIT_IDS": "10:1000424,10:2000424,10:4000424",
        "P_COST_INFO": "3,7000",
        "8NW7zK2A": "2",
        "P_SCRIPT": "-1",
        "P_ICON_ID": "2222",
        "ux6R7ADp": "300034",
        "5jigH1P7": "80",
        "Mz9Lw4Vv": "50102010",
        "u6F9pqnt": "50102011,50102013",
        "s1RXLIA0": "1",
        "yT1o9jUZ": "1.8,40:0.05",
        "P_DICTIONARY_NO": "1",
        "P_DICTIONARY_BG": "21",
        "P_NEED_SWITCH_INFO": "0",
        "P_HIDE_SWITCH_INFO": "0",
        "P_OPEN_SWITCH_INFO": "0",
        "P_CREATEDATE": "2018-02-15 15:33:40",
        "P_UPDATEDATE": "2018-02-15 15:33:40"
    },
    {
        "P_XBB_ID": "300044",
        "P_XBB_NAME": "OPERATION DELTA",
        "P_XBB_UNIT_IDS": "10:5002014,10:5000524,10:6000524",
        "P_COST_INFO": "3,8000",
        "8NW7zK2A": "2",
        "P_SCRIPT": "-1",
        "P_ICON_ID": "2222",
        "ux6R7ADp": "300044",
        "5jigH1P7": "80",
        "Mz9Lw4Vv": "50102110",
        "u6F9pqnt": "50102111,50102113",
        "s1RXLIA0": "3",
        "yT1o9jUZ": "1:2:3,0:20:40,4.0:4.0:4.0",
        "P_DICTIONARY_NO": "1",
        "P_DICTIONARY_BG": "22",
        "P_NEED_SWITCH_INFO": "0",
        "P_HIDE_SWITCH_INFO": "0",
        "P_OPEN_SWITCH_INFO": "0",
        "P_CREATEDATE": "2018-02-15 15:33:40",
        "P_UPDATEDATE": "2018-02-15 15:33:40"
    },
    {
        "P_XBB_ID": "400014",
        "P_XBB_NAME": "\u30d1\u30eb\u30df\u30ca\u306e\u8056\u9583",
        "P_XBB_UNIT_IDS": "10:1001914,10:2001714,10:3001714,10:4001814",
        "P_COST_INFO": "3,10000",
        "8NW7zK2A": "1",
        "P_SCRIPT": "-1",
        "P_ICON_ID": "2222",
        "ux6R7ADp": "400014",
        "5jigH1P7": "80",
        "Mz9Lw4Vv": "50102210",
        "u6F9pqnt": "50102211,50102213",
        "s1RXLIA0": "1",
        "yT1o9jUZ": "1.5,0:0.10",
        "P_DICTIONARY_NO": "1",
        "P_DICTIONARY_BG": "23",
        "P_NEED_SWITCH_INFO": "0",
        "P_HIDE_SWITCH_INFO": "0",
        "P_OPEN_SWITCH_INFO": "0",
        "P_CREATEDATE": "2018-02-15 15:33:40",
        "P_UPDATEDATE": "2018-02-15 15:33:40"
    },
    {
        "P_XBB_ID": "400024",
        "P_XBB_NAME": "\u30d5\u30a9\u30fc\u30b9\u30fb\u30aa\u30d6\u30fb\u30f4\u30a1\u30a4\u30b6\u30fc",
        "P_XBB_UNIT_IDS": "10:1000124,10:2000124,10:3000124,10:4000124",
        "P_COST_INFO": "3,8000",
        "8NW7zK2A": "2",
        "P_SCRIPT": "-1",
        "P_ICON_ID": "2222",
        "ux6R7ADp": "400024",
        "5jigH1P7": "80",
        "Mz9Lw4Vv": "50102310",
        "u6F9pqnt": "50102311,50102313",
        "s1RXLIA0": "2",
        "yT1o9jUZ": "85,6,15:1",
        "P_DICTIONARY_NO": "1",
        "P_DICTIONARY_BG": "24",
        "P_NEED_SWITCH_INFO": "0",
        "P_HIDE_SWITCH_INFO": "0",
        "P_OPEN_SWITCH_INFO": "0",
        "P_CREATEDATE": "2018-02-15 15:33:40",
        "P_UPDATEDATE": "2018-02-15 15:33:40"
    },
    {
        "P_XBB_ID": "500014",
        "P_XBB_NAME": "\u300e\u79c1\u306e\u3042\u3068\u306b\u7d9a\u304d\u306a\u3055\u3044\uff01\uff01\u300f",
        "P_XBB_UNIT_IDS": "10:1002014,10:2001814,10:3001814,10:4001914,10:6002114",
        "P_COST_INFO": "3,10000",
        "8NW7zK2A": "2",
        "P_SCRIPT": "-1",
        "P_ICON_ID": "2222",
        "ux6R7ADp": "200014",
        "5jigH1P7": "80",
        "Mz9Lw4Vv": "50102410",
        "u6F9pqnt": "50102411,50102413",
        "s1RXLIA0": "3",
        "yT1o9jUZ": "2:3:1,20:40:0,4.0:4.0:4.0",
        "P_DICTIONARY_NO": "1",
        "P_DICTIONARY_BG": "25",
        "P_NEED_SWITCH_INFO": "0",
        "P_HIDE_SWITCH_INFO": "0",
        "P_OPEN_SWITCH_INFO": "0",
        "P_CREATEDATE": "2018-02-15 15:33:40",
        "P_UPDATEDATE": "2018-02-15 15:33:40"
    },
    {
        "P_XBB_ID": "500024",
        "P_XBB_NAME": "\u30b0\u30e9\u30c7\u30a3\u30aa\u30b9\u30fb\u30d5\u30a3\u30cb\u30c3\u30b7\u30e5",
        "P_XBB_UNIT_IDS": "10:1002814,10:2002814,10:3002814,10:4002714,10:5002914",
        "P_COST_INFO": "3,10000",
        "8NW7zK2A": "2",
        "P_SCRIPT": "-1",
        "P_ICON_ID": "2222",
        "ux6R7ADp": "500024",
        "5jigH1P7": "80",
        "Mz9Lw4Vv": "50102510",
        "u6F9pqnt": "50102511,50102513",
        "s1RXLIA0": "2",
        "yT1o9jUZ": "85,6,12:1",
        "P_DICTIONARY_NO": "1",
        "P_DICTIONARY_BG": "26",
        "P_NEED_SWITCH_INFO": "0",
        "P_HIDE_SWITCH_INFO": "0",
        "P_OPEN_SWITCH_INFO": "0",
        "P_CREATEDATE": "2018-02-15 15:33:40",
        "P_UPDATEDATE": "2018-02-15 15:33:40"
    },
    {
        "P_XBB_ID": "600014",
        "P_XBB_NAME": "\u516d\u82f1\u5e7b\u661f",
        "P_XBB_UNIT_IDS": "10:1001314,10:2001214,10:3001214,10:4001214,10:5001314,10:6001414",
        "P_COST_INFO": "3,10000",
        "8NW7zK2A": "2",
        "P_SCRIPT": "-1",
        "P_ICON_ID": "2222",
        "ux6R7ADp": "600014",
        "5jigH1P7": "115",
        "Mz9Lw4Vv": "50102610",
        "u6F9pqnt": "50102611,50102613",
        "s1RXLIA0": "2",
        "yT1o9jUZ": "100,7,15:1",
        "P_DICTIONARY_NO": "1",
        "P_DICTIONARY_BG": "27",
        "P_NEED_SWITCH_INFO": "0",
        "P_HIDE_SWITCH_INFO": "0",
        "P_OPEN_SWITCH_INFO": "0",
        "P_CREATEDATE": "2018-02-15 15:33:40",
        "P_UPDATEDATE": "2018-02-15 15:33:40"
    },
    {
        "P_XBB_ID": "600024",
        "P_XBB_NAME": "\u30ed\u30fc\u30c9\u30fb\u30c8\u30a5\u30fb\u30a8\u30eb\u30ac\u30a4\u30a2",
        "P_XBB_UNIT_IDS": "10:1002114,10:2002014,10:3002014,10:4002014,10:5002114,10:6002314",
        "P_COST_INFO": "3,10000",
        "8NW7zK2A": "2",
        "P_SCRIPT": "-1",
        "P_ICON_ID": "2222",
        "ux6R7ADp": "600024",
        "5jigH1P7": "80",
        "Mz9Lw4Vv": "50102710",
        "u6F9pqnt": "50102711,50102713",
        "s1RXLIA0": "3",
        "yT1o9jUZ": "3:2:1,40:20:0,4.0:4.0:4.0",
        "P_DICTIONARY_NO": "1",
        "P_DICTIONARY_BG": "28",
        "P_NEED_SWITCH_INFO": "0",
        "P_HIDE_SWITCH_INFO": "0",
        "P_OPEN_SWITCH_INFO": "0",
        "P_CREATEDATE": "2018-02-15 15:33:40",
        "P_UPDATEDATE": "2018-02-15 15:33:40"
    },
    {
        "P_XBB_ID": "600034",
        "P_XBB_NAME": "\u52c7\u5bb6\u306e\u56e3\u6b12",
        "P_XBB_UNIT_IDS": "10:1000324,10:2000324,10:3000324,10:4000324,10:5000324,10:6000324",
        "P_COST_INFO": "3,10000",
        "8NW7zK2A": "2",
        "P_SCRIPT": "-1",
        "P_ICON_ID": "2222",
        "ux6R7ADp": "600034",
        "5jigH1P7": "80",
        "Mz9Lw4Vv": "50102810",
        "u6F9pqnt": "50102811,50102813",
        "s1RXLIA0": "3",
        "yT1o9jUZ": "1:2:3,0:20:40,4.0:4.0:4.0",
        "P_DICTIONARY_NO": "1",
        "P_DICTIONARY_BG": "29",
        "P_NEED_SWITCH_INFO": "0",
        "P_HIDE_SWITCH_INFO": "0",
        "P_OPEN_SWITCH_INFO": "0",
        "P_CREATEDATE": "2018-02-15 15:33:40",
        "P_UPDATEDATE": "2018-02-15 15:33:40"
    },
    {
        "P_XBB_ID": "600040",
        "P_XBB_NAME": "\u30aa\u30fc\u30eb\u30b9\u30bf\u30fc\u30a2\u30bf\u30c3\u30af",
        "P_XBB_UNIT_IDS": "10:1002210,10:2002110,10:3002110,10:4002110,10:5002210,10:6002410",
        "P_COST_INFO": "3,6000",
        "8NW7zK2A": "2",
        "P_SCRIPT": "-1",
        "P_ICON_ID": "2222",
        "ux6R7ADp": "600040",
        "5jigH1P7": "80",
        "Mz9Lw4Vv": "50102910",
        "u6F9pqnt": "50102911,50102913",
        "s1RXLIA0": "2",
        "yT1o9jUZ": "150,10,10:1",
        "P_DICTIONARY_NO": "1",
        "P_DICTIONARY_BG": "30",
        "P_NEED_SWITCH_INFO": "0",
        "P_HIDE_SWITCH_INFO": "0",
        "P_OPEN_SWITCH_INFO": "0",
        "P_CREATEDATE": "2018-02-15 15:33:40",
        "P_UPDATEDATE": "2018-02-15 15:33:40"
    },
    {
        "P_XBB_ID": "1010101",
        "P_XBB_NAME": "\u30b0\u30a8\u30f3\u30d5\u30a1\u30f3\u30b0",
        "P_XBB_UNIT_IDS": "12:101",
        "P_COST_INFO": "1,1",
        "8NW7zK2A": "1",
        "P_SCRIPT": "-1",
        "P_ICON_ID": "2222",
        "ux6R7ADp": "200014",
        "5jigH1P7": "80",
        "Mz9Lw4Vv": "50100011",
        "u6F9pqnt": ",50100013",
        "s1RXLIA0": "0",
        "yT1o9jUZ": "",
        "P_DICTIONARY_NO": "0",
        "P_DICTIONARY_BG": "6",
        "P_NEED_SWITCH_INFO": "0",
        "P_HIDE_SWITCH_INFO": "0",
        "P_OPEN_SWITCH_INFO": "0",
        "P_CREATEDATE": "2018-02-15 15:33:40",
        "P_UPDATEDATE": "2018-02-15 15:33:40"
    },
    {
        "P_XBB_ID": "1010102",
        "P_XBB_NAME": "\u30b0\u30a8\u30f3\u30d5\u30a1\u30f3\u30b0",
        "P_XBB_UNIT_IDS": "12:101",
        "P_COST_INFO": "1,1",
        "8NW7zK2A": "1",
        "P_SCRIPT": "-1",
        "P_ICON_ID": "2222",
        "ux6R7ADp": "200014",
        "5jigH1P7": "80",
        "Mz9Lw4Vv": "50100011",
        "u6F9pqnt": ",50100013",
        "s1RXLIA0": "0",
        "yT1o9jUZ": "",
        "P_DICTIONARY_NO": "0",
        "P_DICTIONARY_BG": "7",
        "P_NEED_SWITCH_INFO": "0",
        "P_HIDE_SWITCH_INFO": "0",
        "P_OPEN_SWITCH_INFO": "0",
        "P_CREATEDATE": "2018-02-15 15:33:40",
        "P_UPDATEDATE": "2018-02-15 15:33:40"
    },
    {
        "P_XBB_ID": "1010103",
        "P_XBB_NAME": "\u30b0\u30a8\u30f3\u30d5\u30a1\u30f3\u30b0",
        "P_XBB_UNIT_IDS": "12:101",
        "P_COST_INFO": "1,1",
        "8NW7zK2A": "1",
        "P_SCRIPT": "-1",
        "P_ICON_ID": "2222",
        "ux6R7ADp": "200014",
        "5jigH1P7": "80",
        "Mz9Lw4Vv": "50100011",
        "u6F9pqnt": ",50100013",
        "s1RXLIA0": "0",
        "yT1o9jUZ": "",
        "P_DICTIONARY_NO": "0",
        "P_DICTIONARY_BG": "8",
        "P_NEED_SWITCH_INFO": "0",
        "P_HIDE_SWITCH_INFO": "0",
        "P_OPEN_SWITCH_INFO": "0",
        "P_CREATEDATE": "2018-02-15 15:33:40",
        "P_UPDATEDATE": "2018-02-15 15:33:40"
    },
    {
        "P_XBB_ID": "1010104",
        "P_XBB_NAME": "\u30b0\u30a8\u30f3\u30d5\u30a1\u30f3\u30b0",
        "P_XBB_UNIT_IDS": "12:101",
        "P_COST_INFO": "1,1",
        "8NW7zK2A": "1",
        "P_SCRIPT": "-1",
        "P_ICON_ID": "2222",
        "ux6R7ADp": "200014",
        "5jigH1P7": "80",
        "Mz9Lw4Vv": "50100011",
        "u6F9pqnt": ",50100013",
        "s1RXLIA0": "0",
        "yT1o9jUZ": "",
        "P_DICTIONARY_NO": "0",
        "P_DICTIONARY_BG": "8",
        "P_NEED_SWITCH_INFO": "0",
        "P_HIDE_SWITCH_INFO": "0",
        "P_OPEN_SWITCH_INFO": "0",
        "P_CREATEDATE": "2018-02-15 15:33:40",
        "P_UPDATEDATE": "2018-02-15 15:33:40"
    },
    {
        "P_XBB_ID": "1010105",
        "P_XBB_NAME": "\u30b0\u30a8\u30f3\u30d5\u30a1\u30f3\u30b0",
        "P_XBB_UNIT_IDS": "12:101",
        "P_COST_INFO": "1,1",
        "8NW7zK2A": "1",
        "P_SCRIPT": "-1",
        "P_ICON_ID": "2222",
        "ux6R7ADp": "200014",
        "5jigH1P7": "80",
        "Mz9Lw4Vv": "50100011",
        "u6F9pqnt": ",50100013",
        "s1RXLIA0": "0",
        "yT1o9jUZ": "",
        "P_DICTIONARY_NO": "0",
        "P_DICTIONARY_BG": "8",
        "P_NEED_SWITCH_INFO": "0",
        "P_HIDE_SWITCH_INFO": "0",
        "P_OPEN_SWITCH_INFO": "0",
        "P_CREATEDATE": "2018-02-15 15:33:40",
        "P_UPDATEDATE": "2018-02-15 15:33:40"
    },
    {
        "P_XBB_ID": "1010106",
        "P_XBB_NAME": "\u30b0\u30a8\u30f3\u30d5\u30a1\u30f3\u30b0",
        "P_XBB_UNIT_IDS": "12:101",
        "P_COST_INFO": "1,1",
        "8NW7zK2A": "1",
        "P_SCRIPT": "-1",
        "P_ICON_ID": "2222",
        "ux6R7ADp": "200014",
        "5jigH1P7": "80",
        "Mz9Lw4Vv": "50100011",
        "u6F9pqnt": ",50100013",
        "s1RXLIA0": "0",
        "yT1o9jUZ": "",
        "P_DICTIONARY_NO": "0",
        "P_DICTIONARY_BG": "8",
        "P_NEED_SWITCH_INFO": "0",
        "P_HIDE_SWITCH_INFO": "0",
        "P_OPEN_SWITCH_INFO": "0",
        "P_CREATEDATE": "2018-02-15 15:33:40",
        "P_UPDATEDATE": "2018-02-15 15:33:40"
    },
    {
        "P_XBB_ID": "1020101",
        "P_XBB_NAME": "\u30a2\u30b5\u30eb\u30c8\u30d6\u30ec\u30a4\u30ba",
        "P_XBB_UNIT_IDS": "12:102",
        "P_COST_INFO": "1,1",
        "8NW7zK2A": "1",
        "P_SCRIPT": "-1",
        "P_ICON_ID": "2222",
        "ux6R7ADp": "200014",
        "5jigH1P7": "80",
        "Mz9Lw4Vv": "50100011",
        "u6F9pqnt": ",50100013",
        "s1RXLIA0": "0",
        "yT1o9jUZ": "",
        "P_DICTIONARY_NO": "0",
        "P_DICTIONARY_BG": "8",
        "P_NEED_SWITCH_INFO": "0",
        "P_HIDE_SWITCH_INFO": "0",
        "P_OPEN_SWITCH_INFO": "0",
        "P_CREATEDATE": "2018-02-15 15:33:40",
        "P_UPDATEDATE": "2018-02-15 15:33:40"
    },
    {
        "P_XBB_ID": "1020102",
        "P_XBB_NAME": "\u30a2\u30b5\u30eb\u30c8\u30d6\u30ec\u30a4\u30ba",
        "P_XBB_UNIT_IDS": "12:102",
        "P_COST_INFO": "1,1",
        "8NW7zK2A": "1",
        "P_SCRIPT": "-1",
        "P_ICON_ID": "2222",
        "ux6R7ADp": "200014",
        "5jigH1P7": "80",
        "Mz9Lw4Vv": "50100011",
        "u6F9pqnt": ",50100013",
        "s1RXLIA0": "0",
        "yT1o9jUZ": "",
        "P_DICTIONARY_NO": "0",
        "P_DICTIONARY_BG": "8",
        "P_NEED_SWITCH_INFO": "0",
        "P_HIDE_SWITCH_INFO": "0",
        "P_OPEN_SWITCH_INFO": "0",
        "P_CREATEDATE": "2018-02-15 15:33:40",
        "P_UPDATEDATE": "2018-02-15 15:33:40"
    },
    {
        "P_XBB_ID": "1020103",
        "P_XBB_NAME": "\u30a2\u30b5\u30eb\u30c8\u30d6\u30ec\u30a4\u30ba",
        "P_XBB_UNIT_IDS": "12:102",
        "P_COST_INFO": "1,1",
        "8NW7zK2A": "1",
        "P_SCRIPT": "-1",
        "P_ICON_ID": "2222",
        "ux6R7ADp": "200014",
        "5jigH1P7": "80",
        "Mz9Lw4Vv": "50100011",
        "u6F9pqnt": ",50100013",
        "s1RXLIA0": "0",
        "yT1o9jUZ": "",
        "P_DICTIONARY_NO": "0",
        "P_DICTIONARY_BG": "8",
        "P_NEED_SWITCH_INFO": "0",
        "P_HIDE_SWITCH_INFO": "0",
        "P_OPEN_SWITCH_INFO": "0",
        "P_CREATEDATE": "2018-02-15 15:33:40",
        "P_UPDATEDATE": "2018-02-15 15:33:40"
    },
    {
        "P_XBB_ID": "1020104",
        "P_XBB_NAME": "\u30a2\u30b5\u30eb\u30c8\u30d6\u30ec\u30a4\u30ba",
        "P_XBB_UNIT_IDS": "12:102",
        "P_COST_INFO": "1,1",
        "8NW7zK2A": "1",
        "P_SCRIPT": "-1",
        "P_ICON_ID": "2222",
        "ux6R7ADp": "200014",
        "5jigH1P7": "80",
        "Mz9Lw4Vv": "50100011",
        "u6F9pqnt": ",50100013",
        "s1RXLIA0": "0",
        "yT1o9jUZ": "",
        "P_DICTIONARY_NO": "0",
        "P_DICTIONARY_BG": "8",
        "P_NEED_SWITCH_INFO": "0",
        "P_HIDE_SWITCH_INFO": "0",
        "P_OPEN_SWITCH_INFO": "0",
        "P_CREATEDATE": "2018-02-15 15:33:40",
        "P_UPDATEDATE": "2018-02-15 15:33:40"
    },
    {
        "P_XBB_ID": "1020105",
        "P_XBB_NAME": "\u30a2\u30b5\u30eb\u30c8\u30d6\u30ec\u30a4\u30ba",
        "P_XBB_UNIT_IDS": "12:102",
        "P_COST_INFO": "1,1",
        "8NW7zK2A": "1",
        "P_SCRIPT": "-1",
        "P_ICON_ID": "2222",
        "ux6R7ADp": "200014",
        "5jigH1P7": "80",
        "Mz9Lw4Vv": "50100011",
        "u6F9pqnt": ",50100013",
        "s1RXLIA0": "0",
        "yT1o9jUZ": "",
        "P_DICTIONARY_NO": "0",
        "P_DICTIONARY_BG": "8",
        "P_NEED_SWITCH_INFO": "0",
        "P_HIDE_SWITCH_INFO": "0",
        "P_OPEN_SWITCH_INFO": "0",
        "P_CREATEDATE": "2018-02-15 15:33:40",
        "P_UPDATEDATE": "2018-02-15 15:33:40"
    },
    {
        "P_XBB_ID": "1020106",
        "P_XBB_NAME": "\u30a2\u30b5\u30eb\u30c8\u30d6\u30ec\u30a4\u30ba",
        "P_XBB_UNIT_IDS": "12:102",
        "P_COST_INFO": "1,1",
        "8NW7zK2A": "1",
        "P_SCRIPT": "-1",
        "P_ICON_ID": "2222",
        "ux6R7ADp": "200014",
        "5jigH1P7": "80",
        "Mz9Lw4Vv": "50100011",
        "u6F9pqnt": ",50100013",
        "s1RXLIA0": "0",
        "yT1o9jUZ": "",
        "P_DICTIONARY_NO": "0",
        "P_DICTIONARY_BG": "8",
        "P_NEED_SWITCH_INFO": "0",
        "P_HIDE_SWITCH_INFO": "0",
        "P_OPEN_SWITCH_INFO": "0",
        "P_CREATEDATE": "2018-02-15 15:33:40",
        "P_UPDATEDATE": "2018-02-15 15:33:40"
    },
    {
        "P_XBB_ID": "1020201",
        "P_XBB_NAME": "\u30af\u30e9\u30fc\u30b8\u30e5\u30d5\u30e9\u30e0",
        "P_XBB_UNIT_IDS": "12:102",
        "P_COST_INFO": "1,1",
        "8NW7zK2A": "1",
        "P_SCRIPT": "-1",
        "P_ICON_ID": "2222",
        "ux6R7ADp": "200014",
        "5jigH1P7": "80",
        "Mz9Lw4Vv": "50100011",
        "u6F9pqnt": ",50100013",
        "s1RXLIA0": "0",
        "yT1o9jUZ": "",
        "P_DICTIONARY_NO": "0",
        "P_DICTIONARY_BG": "8",
        "P_NEED_SWITCH_INFO": "0",
        "P_HIDE_SWITCH_INFO": "0",
        "P_OPEN_SWITCH_INFO": "0",
        "P_CREATEDATE": "2018-02-15 15:33:40",
        "P_UPDATEDATE": "2018-02-15 15:33:40"
    },
    {
        "P_XBB_ID": "1020202",
        "P_XBB_NAME": "\u30af\u30e9\u30fc\u30b8\u30e5\u30d5\u30e9\u30e0",
        "P_XBB_UNIT_IDS": "12:102",
        "P_COST_INFO": "1,1",
        "8NW7zK2A": "1",
        "P_SCRIPT": "-1",
        "P_ICON_ID": "2222",
        "ux6R7ADp": "200014",
        "5jigH1P7": "80",
        "Mz9Lw4Vv": "50100011",
        "u6F9pqnt": ",50100013",
        "s1RXLIA0": "0",
        "yT1o9jUZ": "",
        "P_DICTIONARY_NO": "0",
        "P_DICTIONARY_BG": "8",
        "P_NEED_SWITCH_INFO": "0",
        "P_HIDE_SWITCH_INFO": "0",
        "P_OPEN_SWITCH_INFO": "0",
        "P_CREATEDATE": "2018-02-15 15:33:40",
        "P_UPDATEDATE": "2018-02-15 15:33:40"
    },
    {
        "P_XBB_ID": "1020203",
        "P_XBB_NAME": "\u30af\u30e9\u30fc\u30b8\u30e5\u30d5\u30e9\u30e0",
        "P_XBB_UNIT_IDS": "12:102",
        "P_COST_INFO": "1,1",
        "8NW7zK2A": "1",
        "P_SCRIPT": "-1",
        "P_ICON_ID": "2222",
        "ux6R7ADp": "200014",
        "5jigH1P7": "80",
        "Mz9Lw4Vv": "50100011",
        "u6F9pqnt": ",50100013",
        "s1RXLIA0": "0",
        "yT1o9jUZ": "",
        "P_DICTIONARY_NO": "0",
        "P_DICTIONARY_BG": "8",
        "P_NEED_SWITCH_INFO": "0",
        "P_HIDE_SWITCH_INFO": "0",
        "P_OPEN_SWITCH_INFO": "0",
        "P_CREATEDATE": "2018-02-15 15:33:40",
        "P_UPDATEDATE": "2018-02-15 15:33:40"
    },
    {
        "P_XBB_ID": "1020204",
        "P_XBB_NAME": "\u30af\u30e9\u30fc\u30b8\u30e5\u30d5\u30e9\u30e0",
        "P_XBB_UNIT_IDS": "12:102",
        "P_COST_INFO": "1,1",
        "8NW7zK2A": "1",
        "P_SCRIPT": "-1",
        "P_ICON_ID": "2222",
        "ux6R7ADp": "200014",
        "5jigH1P7": "80",
        "Mz9Lw4Vv": "50100011",
        "u6F9pqnt": ",50100013",
        "s1RXLIA0": "0",
        "yT1o9jUZ": "",
        "P_DICTIONARY_NO": "0",
        "P_DICTIONARY_BG": "8",
        "P_NEED_SWITCH_INFO": "0",
        "P_HIDE_SWITCH_INFO": "0",
        "P_OPEN_SWITCH_INFO": "0",
        "P_CREATEDATE": "2018-02-15 15:33:40",
        "P_UPDATEDATE": "2018-02-15 15:33:40"
    },
    {
        "P_XBB_ID": "1020205",
        "P_XBB_NAME": "\u30af\u30e9\u30fc\u30b8\u30e5\u30d5\u30e9\u30e0",
        "P_XBB_UNIT_IDS": "12:102",
        "P_COST_INFO": "1,1",
        "8NW7zK2A": "1",
        "P_SCRIPT": "-1",
        "P_ICON_ID": "2222",
        "ux6R7ADp": "200014",
        "5jigH1P7": "80",
        "Mz9Lw4Vv": "50100011",
        "u6F9pqnt": ",50100013",
        "s1RXLIA0": "0",
        "yT1o9jUZ": "",
        "P_DICTIONARY_NO": "0",
        "P_DICTIONARY_BG": "8",
        "P_NEED_SWITCH_INFO": "0",
        "P_HIDE_SWITCH_INFO": "0",
        "P_OPEN_SWITCH_INFO": "0",
        "P_CREATEDATE": "2018-02-15 15:33:40",
        "P_UPDATEDATE": "2018-02-15 15:33:40"
    },
    {
        "P_XBB_ID": "1020206",
        "P_XBB_NAME": "\u30af\u30e9\u30fc\u30b8\u30e5\u30d5\u30e9\u30e0",
        "P_XBB_UNIT_IDS": "12:102",
        "P_COST_INFO": "1,1",
        "8NW7zK2A": "1",
        "P_SCRIPT": "-1",
        "P_ICON_ID": "2222",
        "ux6R7ADp": "200014",
        "5jigH1P7": "80",
        "Mz9Lw4Vv": "50100011",
        "u6F9pqnt": ",50100013",
        "s1RXLIA0": "0",
        "yT1o9jUZ": "",
        "P_DICTIONARY_NO": "0",
        "P_DICTIONARY_BG": "8",
        "P_NEED_SWITCH_INFO": "0",
        "P_HIDE_SWITCH_INFO": "0",
        "P_OPEN_SWITCH_INFO": "0",
        "P_CREATEDATE": "2018-02-15 15:33:40",
        "P_UPDATEDATE": "2018-02-15 15:33:40"
    },
    {
        "P_XBB_ID": "1030101",
        "P_XBB_NAME": "\u30d5\u30e9\u30c3\u30b7\u30e5\u30d6\u30ec\u30a4\u30ba",
        "P_XBB_UNIT_IDS": "12:103",
        "P_COST_INFO": "1,1",
        "8NW7zK2A": "1",
        "P_SCRIPT": "-1",
        "P_ICON_ID": "2222",
        "ux6R7ADp": "200014",
        "5jigH1P7": "80",
        "Mz9Lw4Vv": "50100011",
        "u6F9pqnt": ",50100013",
        "s1RXLIA0": "0",
        "yT1o9jUZ": "",
        "P_DICTIONARY_NO": "0",
        "P_DICTIONARY_BG": "8",
        "P_NEED_SWITCH_INFO": "0",
        "P_HIDE_SWITCH_INFO": "0",
        "P_OPEN_SWITCH_INFO": "0",
        "P_CREATEDATE": "2018-02-15 15:33:40",
        "P_UPDATEDATE": "2018-02-15 15:33:40"
    },
    {
        "P_XBB_ID": "1030102",
        "P_XBB_NAME": "\u30d5\u30e9\u30c3\u30b7\u30e5\u30d6\u30ec\u30a4\u30ba",
        "P_XBB_UNIT_IDS": "12:103",
        "P_COST_INFO": "1,1",
        "8NW7zK2A": "1",
        "P_SCRIPT": "-1",
        "P_ICON_ID": "2222",
        "ux6R7ADp": "200014",
        "5jigH1P7": "80",
        "Mz9Lw4Vv": "50100011",
        "u6F9pqnt": ",50100013",
        "s1RXLIA0": "0",
        "yT1o9jUZ": "",
        "P_DICTIONARY_NO": "0",
        "P_DICTIONARY_BG": "8",
        "P_NEED_SWITCH_INFO": "0",
        "P_HIDE_SWITCH_INFO": "0",
        "P_OPEN_SWITCH_INFO": "0",
        "P_CREATEDATE": "2018-02-15 15:33:40",
        "P_UPDATEDATE": "2018-02-15 15:33:40"
    },
    {
        "P_XBB_ID": "1030103",
        "P_XBB_NAME": "\u30d5\u30e9\u30c3\u30b7\u30e5\u30d6\u30ec\u30a4\u30ba",
        "P_XBB_UNIT_IDS": "12:103",
        "P_COST_INFO": "1,1",
        "8NW7zK2A": "1",
        "P_SCRIPT": "-1",
        "P_ICON_ID": "2222",
        "ux6R7ADp": "200014",
        "5jigH1P7": "80",
        "Mz9Lw4Vv": "50100011",
        "u6F9pqnt": ",50100013",
        "s1RXLIA0": "0",
        "yT1o9jUZ": "",
        "P_DICTIONARY_NO": "0",
        "P_DICTIONARY_BG": "8",
        "P_NEED_SWITCH_INFO": "0",
        "P_HIDE_SWITCH_INFO": "0",
        "P_OPEN_SWITCH_INFO": "0",
        "P_CREATEDATE": "2018-02-15 15:33:40",
        "P_UPDATEDATE": "2018-02-15 15:33:40"
    },
    {
        "P_XBB_ID": "1030104",
        "P_XBB_NAME": "\u30d5\u30e9\u30c3\u30b7\u30e5\u30d6\u30ec\u30a4\u30ba",
        "P_XBB_UNIT_IDS": "12:103",
        "P_COST_INFO": "1,1",
        "8NW7zK2A": "1",
        "P_SCRIPT": "-1",
        "P_ICON_ID": "2222",
        "ux6R7ADp": "200014",
        "5jigH1P7": "80",
        "Mz9Lw4Vv": "50100011",
        "u6F9pqnt": ",50100013",
        "s1RXLIA0": "0",
        "yT1o9jUZ": "",
        "P_DICTIONARY_NO": "0",
        "P_DICTIONARY_BG": "8",
        "P_NEED_SWITCH_INFO": "0",
        "P_HIDE_SWITCH_INFO": "0",
        "P_OPEN_SWITCH_INFO": "0",
        "P_CREATEDATE": "2018-02-15 15:33:40",
        "P_UPDATEDATE": "2018-02-15 15:33:40"
    },
    {
        "P_XBB_ID": "1030105",
        "P_XBB_NAME": "\u30d5\u30e9\u30c3\u30b7\u30e5\u30d6\u30ec\u30a4\u30ba",
        "P_XBB_UNIT_IDS": "12:103",
        "P_COST_INFO": "1,1",
        "8NW7zK2A": "1",
        "P_SCRIPT": "-1",
        "P_ICON_ID": "2222",
        "ux6R7ADp": "200014",
        "5jigH1P7": "80",
        "Mz9Lw4Vv": "50100011",
        "u6F9pqnt": ",50100013",
        "s1RXLIA0": "0",
        "yT1o9jUZ": "",
        "P_DICTIONARY_NO": "0",
        "P_DICTIONARY_BG": "8",
        "P_NEED_SWITCH_INFO": "0",
        "P_HIDE_SWITCH_INFO": "0",
        "P_OPEN_SWITCH_INFO": "0",
        "P_CREATEDATE": "2018-02-15 15:33:40",
        "P_UPDATEDATE": "2018-02-15 15:33:40"
    },
    {
        "P_XBB_ID": "1030106",
        "P_XBB_NAME": "\u30d5\u30e9\u30c3\u30b7\u30e5\u30d6\u30ec\u30a4\u30ba",
        "P_XBB_UNIT_IDS": "12:103",
        "P_COST_INFO": "1,1",
        "8NW7zK2A": "1",
        "P_SCRIPT": "-1",
        "P_ICON_ID": "2222",
        "ux6R7ADp": "200014",
        "5jigH1P7": "80",
        "Mz9Lw4Vv": "50100011",
        "u6F9pqnt": ",50100013",
        "s1RXLIA0": "0",
        "yT1o9jUZ": "",
        "P_DICTIONARY_NO": "0",
        "P_DICTIONARY_BG": "8",
        "P_NEED_SWITCH_INFO": "0",
        "P_HIDE_SWITCH_INFO": "0",
        "P_OPEN_SWITCH_INFO": "0",
        "P_CREATEDATE": "2018-02-15 15:33:40",
        "P_UPDATEDATE": "2018-02-15 15:33:40"
    },
    {
        "P_XBB_ID": "1030201",
        "P_XBB_NAME": "\u30b0\u30ec\u30fc\u30c8\u30d5\u30e9\u30e0",
        "P_XBB_UNIT_IDS": "12:103",
        "P_COST_INFO": "1,1",
        "8NW7zK2A": "1",
        "P_SCRIPT": "-1",
        "P_ICON_ID": "2222",
        "ux6R7ADp": "200014",
        "5jigH1P7": "80",
        "Mz9Lw4Vv": "50100011",
        "u6F9pqnt": ",50100013",
        "s1RXLIA0": "0",
        "yT1o9jUZ": "",
        "P_DICTIONARY_NO": "0",
        "P_DICTIONARY_BG": "8",
        "P_NEED_SWITCH_INFO": "0",
        "P_HIDE_SWITCH_INFO": "0",
        "P_OPEN_SWITCH_INFO": "0",
        "P_CREATEDATE": "2018-02-15 15:33:40",
        "P_UPDATEDATE": "2018-02-15 15:33:40"
    },
    {
        "P_XBB_ID": "1030202",
        "P_XBB_NAME": "\u30b0\u30ec\u30fc\u30c8\u30d5\u30e9\u30e0",
        "P_XBB_UNIT_IDS": "12:103",
        "P_COST_INFO": "1,1",
        "8NW7zK2A": "1",
        "P_SCRIPT": "-1",
        "P_ICON_ID": "2222",
        "ux6R7ADp": "200014",
        "5jigH1P7": "80",
        "Mz9Lw4Vv": "50100011",
        "u6F9pqnt": ",50100013",
        "s1RXLIA0": "0",
        "yT1o9jUZ": "",
        "P_DICTIONARY_NO": "0",
        "P_DICTIONARY_BG": "8",
        "P_NEED_SWITCH_INFO": "0",
        "P_HIDE_SWITCH_INFO": "0",
        "P_OPEN_SWITCH_INFO": "0",
        "P_CREATEDATE": "2018-02-15 15:33:40",
        "P_UPDATEDATE": "2018-02-15 15:33:40"
    },
    {
        "P_XBB_ID": "1030203",
        "P_XBB_NAME": "\u30b0\u30ec\u30fc\u30c8\u30d5\u30e9\u30e0",
        "P_XBB_UNIT_IDS": "12:103",
        "P_COST_INFO": "1,1",
        "8NW7zK2A": "1",
        "P_SCRIPT": "-1",
        "P_ICON_ID": "2222",
        "ux6R7ADp": "200014",
        "5jigH1P7": "80",
        "Mz9Lw4Vv": "50100011",
        "u6F9pqnt": ",50100013",
        "s1RXLIA0": "0",
        "yT1o9jUZ": "",
        "P_DICTIONARY_NO": "0",
        "P_DICTIONARY_BG": "8",
        "P_NEED_SWITCH_INFO": "0",
        "P_HIDE_SWITCH_INFO": "0",
        "P_OPEN_SWITCH_INFO": "0",
        "P_CREATEDATE": "2018-02-15 15:33:40",
        "P_UPDATEDATE": "2018-02-15 15:33:40"
    },
    {
        "P_XBB_ID": "1030204",
        "P_XBB_NAME": "\u30b0\u30ec\u30fc\u30c8\u30d5\u30e9\u30e0",
        "P_XBB_UNIT_IDS": "12:103",
        "P_COST_INFO": "1,1",
        "8NW7zK2A": "1",
        "P_SCRIPT": "-1",
        "P_ICON_ID": "2222",
        "ux6R7ADp": "200014",
        "5jigH1P7": "80",
        "Mz9Lw4Vv": "50100011",
        "u6F9pqnt": ",50100013",
        "s1RXLIA0": "0",
        "yT1o9jUZ": "",
        "P_DICTIONARY_NO": "0",
        "P_DICTIONARY_BG": "8",
        "P_NEED_SWITCH_INFO": "0",
        "P_HIDE_SWITCH_INFO": "0",
        "P_OPEN_SWITCH_INFO": "0",
        "P_CREATEDATE": "2018-02-15 15:33:40",
        "P_UPDATEDATE": "2018-02-15 15:33:40"
    },
    {
        "P_XBB_ID": "1030205",
        "P_XBB_NAME": "\u30b0\u30ec\u30fc\u30c8\u30d5\u30e9\u30e0",
        "P_XBB_UNIT_IDS": "12:103",
        "P_COST_INFO": "1,1",
        "8NW7zK2A": "1",
        "P_SCRIPT": "-1",
        "P_ICON_ID": "2222",
        "ux6R7ADp": "200014",
        "5jigH1P7": "80",
        "Mz9Lw4Vv": "50100011",
        "u6F9pqnt": ",50100013",
        "s1RXLIA0": "0",
        "yT1o9jUZ": "",
        "P_DICTIONARY_NO": "0",
        "P_DICTIONARY_BG": "8",
        "P_NEED_SWITCH_INFO": "0",
        "P_HIDE_SWITCH_INFO": "0",
        "P_OPEN_SWITCH_INFO": "0",
        "P_CREATEDATE": "2018-02-15 15:33:40",
        "P_UPDATEDATE": "2018-02-15 15:33:40"
    },
    {
        "P_XBB_ID": "1030206",
        "P_XBB_NAME": "\u30b0\u30ec\u30fc\u30c8\u30d5\u30e9\u30e0",
        "P_XBB_UNIT_IDS": "12:103",
        "P_COST_INFO": "1,1",
        "8NW7zK2A": "1",
        "P_SCRIPT": "-1",
        "P_ICON_ID": "2222",
        "ux6R7ADp": "200014",
        "5jigH1P7": "80",
        "Mz9Lw4Vv": "50100011",
        "u6F9pqnt": ",50100013",
        "s1RXLIA0": "0",
        "yT1o9jUZ": "",
        "P_DICTIONARY_NO": "0",
        "P_DICTIONARY_BG": "8",
        "P_NEED_SWITCH_INFO": "0",
        "P_HIDE_SWITCH_INFO": "0",
        "P_OPEN_SWITCH_INFO": "0",
        "P_CREATEDATE": "2018-02-15 15:33:40",
        "P_UPDATEDATE": "2018-02-15 15:33:40"
    },
    {
        "P_XBB_ID": "1030301",
        "P_XBB_NAME": "\u30db\u30fc\u30ea\u30fc\u30c9\u30df\u30cb\u30aa\u30f3",
        "P_XBB_UNIT_IDS": "12:103",
        "P_COST_INFO": "1,1",
        "8NW7zK2A": "1",
        "P_SCRIPT": "-1",
        "P_ICON_ID": "2222",
        "ux6R7ADp": "200014",
        "5jigH1P7": "80",
        "Mz9Lw4Vv": "50100011",
        "u6F9pqnt": ",50100013",
        "s1RXLIA0": "0",
        "yT1o9jUZ": "",
        "P_DICTIONARY_NO": "0",
        "P_DICTIONARY_BG": "8",
        "P_NEED_SWITCH_INFO": "0",
        "P_HIDE_SWITCH_INFO": "0",
        "P_OPEN_SWITCH_INFO": "0",
        "P_CREATEDATE": "2018-02-15 15:33:40",
        "P_UPDATEDATE": "2018-02-15 15:33:40"
    },
    {
        "P_XBB_ID": "1030302",
        "P_XBB_NAME": "\u30db\u30fc\u30ea\u30fc\u30c9\u30df\u30cb\u30aa\u30f3",
        "P_XBB_UNIT_IDS": "12:103",
        "P_COST_INFO": "1,1",
        "8NW7zK2A": "1",
        "P_SCRIPT": "-1",
        "P_ICON_ID": "2222",
        "ux6R7ADp": "200014",
        "5jigH1P7": "80",
        "Mz9Lw4Vv": "50100011",
        "u6F9pqnt": ",50100013",
        "s1RXLIA0": "0",
        "yT1o9jUZ": "",
        "P_DICTIONARY_NO": "0",
        "P_DICTIONARY_BG": "8",
        "P_NEED_SWITCH_INFO": "0",
        "P_HIDE_SWITCH_INFO": "0",
        "P_OPEN_SWITCH_INFO": "0",
        "P_CREATEDATE": "2018-02-15 15:33:40",
        "P_UPDATEDATE": "2018-02-15 15:33:40"
    },
    {
        "P_XBB_ID": "1030303",
        "P_XBB_NAME": "\u30db\u30fc\u30ea\u30fc\u30c9\u30df\u30cb\u30aa\u30f3",
        "P_XBB_UNIT_IDS": "12:103",
        "P_COST_INFO": "1,1",
        "8NW7zK2A": "1",
        "P_SCRIPT": "-1",
        "P_ICON_ID": "2222",
        "ux6R7ADp": "200014",
        "5jigH1P7": "80",
        "Mz9Lw4Vv": "50100011",
        "u6F9pqnt": ",50100013",
        "s1RXLIA0": "0",
        "yT1o9jUZ": "",
        "P_DICTIONARY_NO": "0",
        "P_DICTIONARY_BG": "8",
        "P_NEED_SWITCH_INFO": "0",
        "P_HIDE_SWITCH_INFO": "0",
        "P_OPEN_SWITCH_INFO": "0",
        "P_CREATEDATE": "2018-02-15 15:33:40",
        "P_UPDATEDATE": "2018-02-15 15:33:40"
    },
    {
        "P_XBB_ID": "1030304",
        "P_XBB_NAME": "\u30db\u30fc\u30ea\u30fc\u30c9\u30df\u30cb\u30aa\u30f3",
        "P_XBB_UNIT_IDS": "12:103",
        "P_COST_INFO": "1,1",
        "8NW7zK2A": "1",
        "P_SCRIPT": "-1",
        "P_ICON_ID": "2222",
        "ux6R7ADp": "200014",
        "5jigH1P7": "80",
        "Mz9Lw4Vv": "50100011",
        "u6F9pqnt": ",50100013",
        "s1RXLIA0": "0",
        "yT1o9jUZ": "",
        "P_DICTIONARY_NO": "0",
        "P_DICTIONARY_BG": "8",
        "P_NEED_SWITCH_INFO": "0",
        "P_HIDE_SWITCH_INFO": "0",
        "P_OPEN_SWITCH_INFO": "0",
        "P_CREATEDATE": "2018-02-15 15:33:40",
        "P_UPDATEDATE": "2018-02-15 15:33:40"
    },
    {
        "P_XBB_ID": "1030305",
        "P_XBB_NAME": "\u30db\u30fc\u30ea\u30fc\u30c9\u30df\u30cb\u30aa\u30f3",
        "P_XBB_UNIT_IDS": "12:103",
        "P_COST_INFO": "1,1",
        "8NW7zK2A": "1",
        "P_SCRIPT": "-1",
        "P_ICON_ID": "2222",
        "ux6R7ADp": "200014",
        "5jigH1P7": "80",
        "Mz9Lw4Vv": "50100011",
        "u6F9pqnt": ",50100013",
        "s1RXLIA0": "0",
        "yT1o9jUZ": "",
        "P_DICTIONARY_NO": "0",
        "P_DICTIONARY_BG": "8",
        "P_NEED_SWITCH_INFO": "0",
        "P_HIDE_SWITCH_INFO": "0",
        "P_OPEN_SWITCH_INFO": "0",
        "P_CREATEDATE": "2018-02-15 15:33:40",
        "P_UPDATEDATE": "2018-02-15 15:33:40"
    },
    {
        "P_XBB_ID": "1030306",
        "P_XBB_NAME": "\u30db\u30fc\u30ea\u30fc\u30c9\u30df\u30cb\u30aa\u30f3",
        "P_XBB_UNIT_IDS": "12:103",
        "P_COST_INFO": "1,1",
        "8NW7zK2A": "1",
        "P_SCRIPT": "-1",
        "P_ICON_ID": "2222",
        "ux6R7ADp": "200014",
        "5jigH1P7": "80",
        "Mz9Lw4Vv": "50100011",
        "u6F9pqnt": ",50100013",
        "s1RXLIA0": "0",
        "yT1o9jUZ": "",
        "P_DICTIONARY_NO": "0",
        "P_DICTIONARY_BG": "8",
        "P_NEED_SWITCH_INFO": "0",
        "P_HIDE_SWITCH_INFO": "0",
        "P_OPEN_SWITCH_INFO": "0",
        "P_CREATEDATE": "2018-02-15 15:33:40",
        "P_UPDATEDATE": "2018-02-15 15:33:40"
    },
    {
        "P_XBB_ID": "2010101",
        "P_XBB_NAME": "\u30ed\u30fc\u30c8\u30e9\u30c3\u30b7\u30e5",
        "P_XBB_UNIT_IDS": "12:201",
        "P_COST_INFO": "1,1",
        "8NW7zK2A": "1",
        "P_SCRIPT": "-1",
        "P_ICON_ID": "2222",
        "ux6R7ADp": "200014",
        "5jigH1P7": "80",
        "Mz9Lw4Vv": "50100011",
        "u6F9pqnt": ",50100013",
        "s1RXLIA0": "0",
        "yT1o9jUZ": "",
        "P_DICTIONARY_NO": "0",
        "P_DICTIONARY_BG": "8",
        "P_NEED_SWITCH_INFO": "0",
        "P_HIDE_SWITCH_INFO": "0",
        "P_OPEN_SWITCH_INFO": "0",
        "P_CREATEDATE": "2018-02-15 15:33:40",
        "P_UPDATEDATE": "2018-02-15 15:33:40"
    },
    {
        "P_XBB_ID": "2020101",
        "P_XBB_NAME": "\u30a2\u30b5\u30eb\u30c8\u30e9\u30c3\u30b7\u30e5",
        "P_XBB_UNIT_IDS": "12:202",
        "P_COST_INFO": "1,1",
        "8NW7zK2A": "1",
        "P_SCRIPT": "-1",
        "P_ICON_ID": "2222",
        "ux6R7ADp": "200014",
        "5jigH1P7": "80",
        "Mz9Lw4Vv": "50100011",
        "u6F9pqnt": ",50100013",
        "s1RXLIA0": "0",
        "yT1o9jUZ": "",
        "P_DICTIONARY_NO": "0",
        "P_DICTIONARY_BG": "8",
        "P_NEED_SWITCH_INFO": "0",
        "P_HIDE_SWITCH_INFO": "0",
        "P_OPEN_SWITCH_INFO": "0",
        "P_CREATEDATE": "2018-02-15 15:33:40",
        "P_UPDATEDATE": "2018-02-15 15:33:40"
    },
    {
        "P_XBB_ID": "2030101",
        "P_XBB_NAME": "\u30d5\u30ed\u30fc\u30ac\u30e9\u30c3\u30b7\u30e5",
        "P_XBB_UNIT_IDS": "12:203",
        "P_COST_INFO": "1,1",
        "8NW7zK2A": "1",
        "P_SCRIPT": "-1",
        "P_ICON_ID": "2222",
        "ux6R7ADp": "200014",
        "5jigH1P7": "80",
        "Mz9Lw4Vv": "50100011",
        "u6F9pqnt": ",50100013",
        "s1RXLIA0": "0",
        "yT1o9jUZ": "",
        "P_DICTIONARY_NO": "0",
        "P_DICTIONARY_BG": "8",
        "P_NEED_SWITCH_INFO": "0",
        "P_HIDE_SWITCH_INFO": "0",
        "P_OPEN_SWITCH_INFO": "0",
        "P_CREATEDATE": "2018-02-15 15:33:40",
        "P_UPDATEDATE": "2018-02-15 15:33:40"
    },
    {
        "P_XBB_ID": "2030201",
        "P_XBB_NAME": "\u30b0\u30ec\u30a4\u30f4\u30b9\u30c8\u30e9\u30a4\u30af",
        "P_XBB_UNIT_IDS": "12:203",
        "P_COST_INFO": "1,1",
        "8NW7zK2A": "1",
        "P_SCRIPT": "-1",
        "P_ICON_ID": "2222",
        "ux6R7ADp": "200014",
        "5jigH1P7": "80",
        "Mz9Lw4Vv": "50100011",
        "u6F9pqnt": ",50100013",
        "s1RXLIA0": "0",
        "yT1o9jUZ": "",
        "P_DICTIONARY_NO": "0",
        "P_DICTIONARY_BG": "8",
        "P_NEED_SWITCH_INFO": "0",
        "P_HIDE_SWITCH_INFO": "0",
        "P_OPEN_SWITCH_INFO": "0",
        "P_CREATEDATE": "2018-02-15 15:33:40",
        "P_UPDATEDATE": "2018-02-15 15:33:40"
    }
]