[
    {
        "P_BOOK_ID": "10000200",
        "2xiKY8E3": "10000000",
        "P_NAME": "\u30d7\u30ec\u30a4\u30e4\u30fc\n\u30e9\u30f3\u30af\u2160",
        "P_SUMMONER_ID": "1",
        "H1in4zvb": "0",
        "P_DISPORDER": "1",
        "0KY1RXMA": "book_yellow.png",
        "yTPw0BD7": "book_decoration_n_record.png",
        "21VKZo0E": "",
        "P_SCHEDULE_ID": "0",
        "P_NEED_SWITCH_INFO": "0",
        "P_HIDE_SWITCH_INFO": "0",
        "P_OPEN_SWITCH_INFO": "0",
        "P_NEW_SWITCH_INFO": "81000000",
        "P_CREATEDATE": "2018-02-12 16:01:26",
        "P_UPDATEDATE": "2018-02-12 16:01:26"
    },
    {
        "P_BOOK_ID": "10000300",
        "2xiKY8E3": "10000000",
        "P_NAME": "\u30d7\u30ec\u30a4\u30e4\u30fc\n\u30e9\u30f3\u30af\u2161",
        "P_SUMMONER_ID": "1",
        "H1in4zvb": "0",
        "P_DISPORDER": "2",
        "0KY1RXMA": "book_yellow.png",
        "yTPw0BD7": "book_decoration_n_record.png",
        "21VKZo0E": "",
        "P_SCHEDULE_ID": "0",
        "P_NEED_SWITCH_INFO": "4300450",
        "P_HIDE_SWITCH_INFO": "0",
        "P_OPEN_SWITCH_INFO": "0",
        "P_NEW_SWITCH_INFO": "81000001",
        "P_CREATEDATE": "2018-02-12 16:01:26",
        "P_UPDATEDATE": "2018-02-12 16:01:26"
    },
    {
        "P_BOOK_ID": "10000600",
        "2xiKY8E3": "10000000",
        "P_NAME": "\u79f0\u53f7\u2160",
        "P_SUMMONER_ID": "1",
        "H1in4zvb": "0",
        "P_DISPORDER": "5",
        "0KY1RXMA": "book_yellow.png",
        "yTPw0BD7": "book_decoration_n_record.png",
        "21VKZo0E": "",
        "P_SCHEDULE_ID": "0",
        "P_NEED_SWITCH_INFO": "0",
        "P_HIDE_SWITCH_INFO": "0",
        "P_OPEN_SWITCH_INFO": "0",
        "P_NEW_SWITCH_INFO": "81000004",
        "P_CREATEDATE": "2018-02-12 16:01:26",
        "P_UPDATEDATE": "2018-02-12 16:01:26"
    },
    {
        "P_BOOK_ID": "10000700",
        "2xiKY8E3": "10000000",
        "P_NAME": "\u79f0\u53f7\u2161",
        "P_SUMMONER_ID": "1",
        "H1in4zvb": "0",
        "P_DISPORDER": "6",
        "0KY1RXMA": "book_yellow.png",
        "yTPw0BD7": "book_decoration_n_record.png",
        "21VKZo0E": "",
        "P_SCHEDULE_ID": "0",
        "P_NEED_SWITCH_INFO": "4300470",
        "P_HIDE_SWITCH_INFO": "0",
        "P_OPEN_SWITCH_INFO": "0",
        "P_NEW_SWITCH_INFO": "81000005",
        "P_CREATEDATE": "2018-02-12 16:01:26",
        "P_UPDATEDATE": "2018-02-12 16:01:26"
    },
    {
        "P_BOOK_ID": "10000800",
        "2xiKY8E3": "10000000",
        "P_NAME": "\u540d\u58f0\u2160",
        "P_SUMMONER_ID": "1",
        "H1in4zvb": "0",
        "P_DISPORDER": "7",
        "0KY1RXMA": "book_yellow.png",
        "yTPw0BD7": "book_decoration_n_record.png",
        "21VKZo0E": "",
        "P_SCHEDULE_ID": "0",
        "P_NEED_SWITCH_INFO": "0",
        "P_HIDE_SWITCH_INFO": "0",
        "P_OPEN_SWITCH_INFO": "0",
        "P_NEW_SWITCH_INFO": "81000006",
        "P_CREATEDATE": "2018-02-12 16:01:26",
        "P_UPDATEDATE": "2018-02-12 16:01:26"
    },
    {
        "P_BOOK_ID": "10000900",
        "2xiKY8E3": "10000000",
        "P_NAME": "\u540d\u58f0\u2161",
        "P_SUMMONER_ID": "1",
        "H1in4zvb": "0",
        "P_DISPORDER": "8",
        "0KY1RXMA": "book_yellow.png",
        "yTPw0BD7": "book_decoration_n_record.png",
        "21VKZo0E": "",
        "P_SCHEDULE_ID": "0",
        "P_NEED_SWITCH_INFO": "4300480",
        "P_HIDE_SWITCH_INFO": "0",
        "P_OPEN_SWITCH_INFO": "0",
        "P_NEW_SWITCH_INFO": "81000007",
        "P_CREATEDATE": "2018-02-12 16:01:26",
        "P_UPDATEDATE": "2018-02-12 16:01:26"
    },
    {
        "P_BOOK_ID": "10001000",
        "2xiKY8E3": "10000000",
        "P_NAME": "\u30d6\u30c3\u30af\u2160",
        "P_SUMMONER_ID": "1",
        "H1in4zvb": "0",
        "P_DISPORDER": "9",
        "0KY1RXMA": "book_yellow.png",
        "yTPw0BD7": "book_decoration_n_record.png",
        "21VKZo0E": "",
        "P_SCHEDULE_ID": "0",
        "P_NEED_SWITCH_INFO": "0",
        "P_HIDE_SWITCH_INFO": "0",
        "P_OPEN_SWITCH_INFO": "0",
        "P_NEW_SWITCH_INFO": "81000008",
        "P_CREATEDATE": "2018-02-12 16:01:26",
        "P_UPDATEDATE": "2018-02-12 16:01:26"
    },
    {
        "P_BOOK_ID": "10001100",
        "2xiKY8E3": "10000000",
        "P_NAME": "\u30d6\u30c3\u30af\u2161",
        "P_SUMMONER_ID": "1",
        "H1in4zvb": "0",
        "P_DISPORDER": "10",
        "0KY1RXMA": "book_yellow.png",
        "yTPw0BD7": "book_decoration_n_record.png",
        "21VKZo0E": "",
        "P_SCHEDULE_ID": "0",
        "P_NEED_SWITCH_INFO": "4300490",
        "P_HIDE_SWITCH_INFO": "0",
        "P_OPEN_SWITCH_INFO": "0",
        "P_NEW_SWITCH_INFO": "81000009",
        "P_CREATEDATE": "2018-02-12 16:01:26",
        "P_UPDATEDATE": "2018-02-12 16:01:26"
    },
    {
        "P_BOOK_ID": "20000100",
        "2xiKY8E3": "20000000",
        "P_NAME": "\u7dcf\u5408\u2160",
        "P_SUMMONER_ID": "1",
        "H1in4zvb": "0",
        "P_DISPORDER": "1",
        "0KY1RXMA": "book_yellow.png",
        "yTPw0BD7": "book_decoration_n_story.png",
        "21VKZo0E": "",
        "P_SCHEDULE_ID": "0",
        "P_NEED_SWITCH_INFO": "0",
        "P_HIDE_SWITCH_INFO": "0",
        "P_OPEN_SWITCH_INFO": "0",
        "P_NEW_SWITCH_INFO": "81000012",
        "P_CREATEDATE": "2018-02-12 16:01:26",
        "P_UPDATEDATE": "2018-02-12 16:01:26"
    },
    {
        "P_BOOK_ID": "20000200",
        "2xiKY8E3": "20000000",
        "P_NAME": "\u7dcf\u5408\u2161",
        "P_SUMMONER_ID": "1",
        "H1in4zvb": "0",
        "P_DISPORDER": "2",
        "0KY1RXMA": "book_yellow.png",
        "yTPw0BD7": "book_decoration_n_story.png",
        "21VKZo0E": "",
        "P_SCHEDULE_ID": "0",
        "P_NEED_SWITCH_INFO": "4300010",
        "P_HIDE_SWITCH_INFO": "0",
        "P_OPEN_SWITCH_INFO": "0",
        "P_NEW_SWITCH_INFO": "81000013",
        "P_CREATEDATE": "2018-02-12 16:01:26",
        "P_UPDATEDATE": "2018-02-12 16:01:26"
    },
    {
        "P_BOOK_ID": "20000300",
        "2xiKY8E3": "20000000",
        "P_NAME": "\u7dcf\u5408\u2162",
        "P_SUMMONER_ID": "1",
        "H1in4zvb": "0",
        "P_DISPORDER": "3",
        "0KY1RXMA": "book_yellow.png",
        "yTPw0BD7": "book_decoration_n_story.png",
        "21VKZo0E": "",
        "P_SCHEDULE_ID": "0",
        "P_NEED_SWITCH_INFO": "4300510",
        "P_HIDE_SWITCH_INFO": "0",
        "P_OPEN_SWITCH_INFO": "0",
        "P_NEW_SWITCH_INFO": "81000014",
        "P_CREATEDATE": "2018-02-12 16:01:26",
        "P_UPDATEDATE": "2018-02-12 16:01:26"
    },
    {
        "P_BOOK_ID": "20000400",
        "2xiKY8E3": "20000000",
        "P_NAME": "\u30df\u30b9\u30c8\u30e9\u30eb",
        "P_SUMMONER_ID": "1",
        "H1in4zvb": "0",
        "P_DISPORDER": "4",
        "0KY1RXMA": "book_pink.png",
        "yTPw0BD7": "book_decoration_n_story.png",
        "21VKZo0E": "",
        "P_SCHEDULE_ID": "0",
        "P_NEED_SWITCH_INFO": "0",
        "P_HIDE_SWITCH_INFO": "0",
        "P_OPEN_SWITCH_INFO": "0",
        "P_NEW_SWITCH_INFO": "81000015",
        "P_CREATEDATE": "2018-02-12 16:01:26",
        "P_UPDATEDATE": "2018-02-12 16:01:26"
    },
    {
        "P_BOOK_ID": "20000500",
        "2xiKY8E3": "20000000",
        "P_NAME": "\u30e9\u30f3\u30c9\u30fc\u30eb\u5468\u8fba",
        "P_SUMMONER_ID": "1",
        "H1in4zvb": "0",
        "P_DISPORDER": "5",
        "0KY1RXMA": "book_pink.png",
        "yTPw0BD7": "book_decoration_n_story.png",
        "21VKZo0E": "",
        "P_SCHEDULE_ID": "0",
        "P_NEED_SWITCH_INFO": "11000013",
        "P_HIDE_SWITCH_INFO": "0",
        "P_OPEN_SWITCH_INFO": "0",
        "P_NEW_SWITCH_INFO": "81000016",
        "P_CREATEDATE": "2018-02-12 16:01:26",
        "P_UPDATEDATE": "2018-02-12 16:01:26"
    },
    {
        "P_BOOK_ID": "20000600",
        "2xiKY8E3": "20000000",
        "P_NAME": "\u30b5\u30fc\u30de\u738b\u56fd",
        "P_SUMMONER_ID": "1",
        "H1in4zvb": "0",
        "P_DISPORDER": "6",
        "0KY1RXMA": "book_pink.png",
        "yTPw0BD7": "book_decoration_n_story.png",
        "21VKZo0E": "",
        "P_SCHEDULE_ID": "0",
        "P_NEED_SWITCH_INFO": "11000100",
        "P_HIDE_SWITCH_INFO": "0",
        "P_OPEN_SWITCH_INFO": "0",
        "P_NEW_SWITCH_INFO": "81000017",
        "P_CREATEDATE": "2018-02-12 16:01:26",
        "P_UPDATEDATE": "2018-02-12 16:01:26"
    },
    {
        "P_BOOK_ID": "20000700",
        "2xiKY8E3": "20000000",
        "P_NAME": "\u30d0\u30ea\u30a6\u30e9\u5e1d\u56fd",
        "P_SUMMONER_ID": "1",
        "H1in4zvb": "0",
        "P_DISPORDER": "7",
        "0KY1RXMA": "book_pink.png",
        "yTPw0BD7": "book_decoration_n_story.png",
        "21VKZo0E": "",
        "P_SCHEDULE_ID": "0",
        "P_NEED_SWITCH_INFO": "11000114",
        "P_HIDE_SWITCH_INFO": "0",
        "P_OPEN_SWITCH_INFO": "0",
        "P_NEW_SWITCH_INFO": "81000018",
        "P_CREATEDATE": "2018-02-12 16:01:26",
        "P_UPDATEDATE": "2018-02-12 16:01:26"
    },
    {
        "P_BOOK_ID": "20000800",
        "2xiKY8E3": "20000000",
        "P_NAME": "\u8b0e\u306e\u30a2\u30b8\u30c8",
        "P_SUMMONER_ID": "2",
        "H1in4zvb": "0",
        "P_DISPORDER": "8",
        "0KY1RXMA": "book_pink.png",
        "yTPw0BD7": "book_decoration_n_story.png",
        "21VKZo0E": "",
        "P_SCHEDULE_ID": "0",
        "P_NEED_SWITCH_INFO": "11000021",
        "P_HIDE_SWITCH_INFO": "0",
        "P_OPEN_SWITCH_INFO": "0",
        "P_NEW_SWITCH_INFO": "81000019",
        "P_CREATEDATE": "2018-02-12 16:01:26",
        "P_UPDATEDATE": "2018-02-12 16:01:26"
    },
    {
        "P_BOOK_ID": "20000900",
        "2xiKY8E3": "20000000",
        "P_NAME": "\u6280\u8853\u958b\u767a\u5e81",
        "P_SUMMONER_ID": "2",
        "H1in4zvb": "0",
        "P_DISPORDER": "9",
        "0KY1RXMA": "book_pink.png",
        "yTPw0BD7": "book_decoration_n_story.png",
        "21VKZo0E": "",
        "P_SCHEDULE_ID": "0",
        "P_NEED_SWITCH_INFO": "11000164",
        "P_HIDE_SWITCH_INFO": "0",
        "P_OPEN_SWITCH_INFO": "0",
        "P_NEW_SWITCH_INFO": "81000020",
        "P_CREATEDATE": "2018-02-12 16:01:26",
        "P_UPDATEDATE": "2018-02-12 16:01:26"
    },
    {
        "P_BOOK_ID": "20001000",
        "2xiKY8E3": "20000000",
        "P_NAME": "\u9996\u90fd\u30a4\u30af\u30b9\u30bf\u30b9",
        "P_SUMMONER_ID": "2",
        "H1in4zvb": "0",
        "P_DISPORDER": "10",
        "0KY1RXMA": "book_pink.png",
        "yTPw0BD7": "book_decoration_n_story.png",
        "21VKZo0E": "",
        "P_SCHEDULE_ID": "0",
        "P_NEED_SWITCH_INFO": "11000154",
        "P_HIDE_SWITCH_INFO": "0",
        "P_OPEN_SWITCH_INFO": "0",
        "P_NEW_SWITCH_INFO": "81000021",
        "P_CREATEDATE": "2018-02-12 16:01:26",
        "P_UPDATEDATE": "2018-02-12 16:01:26"
    },
    {
        "P_BOOK_ID": "20001100",
        "2xiKY8E3": "20000000",
        "P_NAME": "\u9996\u90fd\u30a4\u30af\u30b9\u30bf\u30b9\n\u90ca\u5916",
        "P_SUMMONER_ID": "2",
        "H1in4zvb": "0",
        "P_DISPORDER": "11",
        "0KY1RXMA": "book_pink.png",
        "yTPw0BD7": "book_decoration_n_story.png",
        "21VKZo0E": "",
        "P_SCHEDULE_ID": "0",
        "P_NEED_SWITCH_INFO": "11000150",
        "P_HIDE_SWITCH_INFO": "0",
        "P_OPEN_SWITCH_INFO": "0",
        "P_NEW_SWITCH_INFO": "81000022",
        "P_CREATEDATE": "2018-02-12 16:01:26",
        "P_UPDATEDATE": "2018-02-12 16:01:26"
    },
    {
        "P_BOOK_ID": "20001200",
        "2xiKY8E3": "20000000",
        "P_NAME": "\u30e2\u30eb\u30c7\u30f3\u30ac\u30f3\u30d7",
        "P_SUMMONER_ID": "1",
        "H1in4zvb": "0",
        "P_DISPORDER": "12",
        "0KY1RXMA": "book_pink.png",
        "yTPw0BD7": "book_decoration_n_story.png",
        "21VKZo0E": "",
        "P_SCHEDULE_ID": "0",
        "P_NEED_SWITCH_INFO": "11000200",
        "P_HIDE_SWITCH_INFO": "0",
        "P_OPEN_SWITCH_INFO": "0",
        "P_NEW_SWITCH_INFO": "81000023",
        "P_CREATEDATE": "2018-02-12 16:01:26",
        "P_UPDATEDATE": "2018-02-12 16:01:26"
    },
    {
        "P_BOOK_ID": "20001300",
        "2xiKY8E3": "20000000",
        "P_NAME": "\u56db\u8056\u3068\u5149\u95c7\u306e\u738b",
        "P_SUMMONER_ID": "1",
        "H1in4zvb": "0",
        "P_DISPORDER": "13",
        "0KY1RXMA": "book_pink.png",
        "yTPw0BD7": "book_decoration_n_story.png",
        "21VKZo0E": "",
        "P_SCHEDULE_ID": "0",
        "P_NEED_SWITCH_INFO": "80061009",
        "P_HIDE_SWITCH_INFO": "0",
        "P_OPEN_SWITCH_INFO": "0",
        "P_NEW_SWITCH_INFO": "81000024",
        "P_CREATEDATE": "2018-02-12 16:01:26",
        "P_UPDATEDATE": "2018-02-12 16:01:26"
    },
    {
        "P_BOOK_ID": "20001400",
        "2xiKY8E3": "20000000",
        "P_NAME": "\u5fcd\u3073\u5bc4\u308b\u60aa\u610f",
        "P_SUMMONER_ID": "1",
        "H1in4zvb": "0",
        "P_DISPORDER": "14",
        "0KY1RXMA": "book_pink.png",
        "yTPw0BD7": "book_decoration_n_story.png",
        "21VKZo0E": "",
        "P_SCHEDULE_ID": "0",
        "P_NEED_SWITCH_INFO": "80061009",
        "P_HIDE_SWITCH_INFO": "0",
        "P_OPEN_SWITCH_INFO": "0",
        "P_NEW_SWITCH_INFO": "81000025",
        "P_CREATEDATE": "2018-02-12 16:01:26",
        "P_UPDATEDATE": "2018-02-12 16:01:26"
    },
    {
        "P_BOOK_ID": "20001500",
        "2xiKY8E3": "20000000",
        "P_NAME": "\u546a\u308f\u308c\u3057\u708e\u93a7",
        "P_SUMMONER_ID": "1",
        "H1in4zvb": "0",
        "P_DISPORDER": "15",
        "0KY1RXMA": "book_pink.png",
        "yTPw0BD7": "book_decoration_n_story.png",
        "21VKZo0E": "",
        "P_SCHEDULE_ID": "0",
        "P_NEED_SWITCH_INFO": "80061009",
        "P_HIDE_SWITCH_INFO": "0",
        "P_OPEN_SWITCH_INFO": "0",
        "P_NEW_SWITCH_INFO": "81000026",
        "P_CREATEDATE": "2018-02-12 16:01:26",
        "P_UPDATEDATE": "2018-02-12 16:01:26"
    },
    {
        "P_BOOK_ID": "20001600",
        "2xiKY8E3": "20000000",
        "P_NAME": "\u5341\u7ffc\u306e\u7834\u58ca\u8005",
        "P_SUMMONER_ID": "1",
        "H1in4zvb": "0",
        "P_DISPORDER": "16",
        "0KY1RXMA": "book_pink.png",
        "yTPw0BD7": "book_decoration_n_story.png",
        "21VKZo0E": "",
        "P_SCHEDULE_ID": "0",
        "P_NEED_SWITCH_INFO": "80061009",
        "P_HIDE_SWITCH_INFO": "0",
        "P_OPEN_SWITCH_INFO": "0",
        "P_NEW_SWITCH_INFO": "81000027",
        "P_CREATEDATE": "2018-02-12 16:01:26",
        "P_UPDATEDATE": "2018-02-12 16:01:26"
    },
    {
        "P_BOOK_ID": "20001700",
        "2xiKY8E3": "20000000",
        "P_NAME": "\u30df\u30d5\u30cd\u306e\u4f8d\u9053",
        "P_SUMMONER_ID": "1",
        "H1in4zvb": "0",
        "P_DISPORDER": "17",
        "0KY1RXMA": "book_pink.png",
        "yTPw0BD7": "book_decoration_n_story.png",
        "21VKZo0E": "",
        "P_SCHEDULE_ID": "0",
        "P_NEED_SWITCH_INFO": "80061009",
        "P_HIDE_SWITCH_INFO": "0",
        "P_OPEN_SWITCH_INFO": "0",
        "P_NEW_SWITCH_INFO": "81000028",
        "P_CREATEDATE": "2018-02-12 16:01:26",
        "P_UPDATEDATE": "2018-02-12 16:01:26"
    },
    {
        "P_BOOK_ID": "30000100",
        "2xiKY8E3": "30000000",
        "P_NAME": "\u7dcf\u5408\u2160",
        "P_SUMMONER_ID": "1",
        "H1in4zvb": "0",
        "P_DISPORDER": "1",
        "0KY1RXMA": "book_yellow.png",
        "yTPw0BD7": "book_decoration_n_unit.png",
        "21VKZo0E": "",
        "P_SCHEDULE_ID": "0",
        "P_NEED_SWITCH_INFO": "0",
        "P_HIDE_SWITCH_INFO": "0",
        "P_OPEN_SWITCH_INFO": "0",
        "P_NEW_SWITCH_INFO": "81000029",
        "P_CREATEDATE": "2018-02-12 16:01:26",
        "P_UPDATEDATE": "2018-02-12 16:01:26"
    },
    {
        "P_BOOK_ID": "30000200",
        "2xiKY8E3": "30000000",
        "P_NAME": "\u7dcf\u5408\u2161",
        "P_SUMMONER_ID": "1",
        "H1in4zvb": "0",
        "P_DISPORDER": "2",
        "0KY1RXMA": "book_yellow.png",
        "yTPw0BD7": "book_decoration_n_unit.png",
        "21VKZo0E": "",
        "P_SCHEDULE_ID": "0",
        "P_NEED_SWITCH_INFO": "4300020",
        "P_HIDE_SWITCH_INFO": "0",
        "P_OPEN_SWITCH_INFO": "0",
        "P_NEW_SWITCH_INFO": "81000030",
        "P_CREATEDATE": "2018-02-12 16:01:26",
        "P_UPDATEDATE": "2018-02-12 16:01:26"
    },
    {
        "P_BOOK_ID": "30000300",
        "2xiKY8E3": "30000000",
        "P_NAME": "\u7dcf\u5408\u2162",
        "P_SUMMONER_ID": "1",
        "H1in4zvb": "0",
        "P_DISPORDER": "3",
        "0KY1RXMA": "book_yellow.png",
        "yTPw0BD7": "book_decoration_n_unit.png",
        "21VKZo0E": "",
        "P_SCHEDULE_ID": "0",
        "P_NEED_SWITCH_INFO": "4300030",
        "P_HIDE_SWITCH_INFO": "0",
        "P_OPEN_SWITCH_INFO": "0",
        "P_NEW_SWITCH_INFO": "81000031",
        "P_CREATEDATE": "2018-02-12 16:01:26",
        "P_UPDATEDATE": "2018-02-12 16:01:26"
    },
    {
        "P_BOOK_ID": "30000400",
        "2xiKY8E3": "30000000",
        "P_NAME": "\u708e\u5263\u8c6a",
        "P_SUMMONER_ID": "1",
        "H1in4zvb": "0",
        "P_DISPORDER": "4",
        "0KY1RXMA": "book_pink.png",
        "yTPw0BD7": "book_decoration_n_unit.png",
        "21VKZo0E": "",
        "P_SCHEDULE_ID": "0",
        "P_NEED_SWITCH_INFO": "0",
        "P_HIDE_SWITCH_INFO": "0",
        "P_OPEN_SWITCH_INFO": "0",
        "P_NEW_SWITCH_INFO": "81000032",
        "P_CREATEDATE": "2018-02-12 16:01:26",
        "P_UPDATEDATE": "2018-02-12 16:01:26"
    },
    {
        "P_BOOK_ID": "30001500",
        "2xiKY8E3": "30000000",
        "P_NAME": "\u30b0\u30e9\u30f3\u30ac\u30a4\u30a2\n\u516d\u82f1\u96c4",
        "P_SUMMONER_ID": "1",
        "H1in4zvb": "0",
        "P_DISPORDER": "15",
        "0KY1RXMA": "book_purple.png",
        "yTPw0BD7": "book_decoration_n_unit.png",
        "21VKZo0E": "",
        "P_SCHEDULE_ID": "0",
        "P_NEED_SWITCH_INFO": "32000001|32000002|32000003|32000004|32000005|32000006",
        "P_HIDE_SWITCH_INFO": "0",
        "P_OPEN_SWITCH_INFO": "0",
        "P_NEW_SWITCH_INFO": "81000043",
        "P_CREATEDATE": "2018-02-12 16:01:26",
        "P_UPDATEDATE": "2018-02-12 16:01:26"
    },
    {
        "P_BOOK_ID": "30001600",
        "2xiKY8E3": "30000000",
        "P_NAME": "\u5263\u59eb\u8840\u98a8",
        "P_SUMMONER_ID": "1",
        "H1in4zvb": "0",
        "P_DISPORDER": "16",
        "0KY1RXMA": "book_purple.png",
        "yTPw0BD7": "book_decoration_n_unit.png",
        "21VKZo0E": "",
        "P_SCHEDULE_ID": "0",
        "P_NEED_SWITCH_INFO": "32000007|32000008",
        "P_HIDE_SWITCH_INFO": "0",
        "P_OPEN_SWITCH_INFO": "0",
        "P_NEW_SWITCH_INFO": "81000044",
        "P_CREATEDATE": "2018-02-12 16:01:26",
        "P_UPDATEDATE": "2018-02-12 16:01:26"
    },
    {
        "P_BOOK_ID": "30001700",
        "2xiKY8E3": "30000000",
        "P_NAME": "\u30d0\u30ea\u30a6\u30e9\u7687\u65cf",
        "P_SUMMONER_ID": "1",
        "H1in4zvb": "0",
        "P_DISPORDER": "17",
        "0KY1RXMA": "book_purple.png",
        "yTPw0BD7": "book_decoration_n_unit.png",
        "21VKZo0E": "",
        "P_SCHEDULE_ID": "0",
        "P_NEED_SWITCH_INFO": "32000009|32000010",
        "P_HIDE_SWITCH_INFO": "0",
        "P_OPEN_SWITCH_INFO": "0",
        "P_NEW_SWITCH_INFO": "81000045",
        "P_CREATEDATE": "2018-02-12 16:01:26",
        "P_UPDATEDATE": "2018-02-12 16:01:26"
    },
    {
        "P_BOOK_ID": "30001800",
        "2xiKY8E3": "30000000",
        "P_NAME": "\u7570\u624d\u306e\u52c7\u8005\u305f\u3061",
        "P_SUMMONER_ID": "1",
        "H1in4zvb": "0",
        "P_DISPORDER": "18",
        "0KY1RXMA": "book_purple.png",
        "yTPw0BD7": "book_decoration_n_unit.png",
        "21VKZo0E": "",
        "P_SCHEDULE_ID": "0",
        "P_NEED_SWITCH_INFO": "32000011|32000012|32000013",
        "P_HIDE_SWITCH_INFO": "0",
        "P_OPEN_SWITCH_INFO": "0",
        "P_NEW_SWITCH_INFO": "81000046",
        "P_CREATEDATE": "2018-02-12 16:01:26",
        "P_UPDATEDATE": "2018-02-12 16:01:26"
    },
    {
        "P_BOOK_ID": "30001900",
        "2xiKY8E3": "30000000",
        "P_NAME": "\u8ecd\u5c5e\u306e\u82f1\u5091",
        "P_SUMMONER_ID": "1",
        "H1in4zvb": "0",
        "P_DISPORDER": "19",
        "0KY1RXMA": "book_purple.png",
        "yTPw0BD7": "book_decoration_n_unit.png",
        "21VKZo0E": "",
        "P_SCHEDULE_ID": "0",
        "P_NEED_SWITCH_INFO": "32000032|32000033|32000034|32000014",
        "P_HIDE_SWITCH_INFO": "0",
        "P_OPEN_SWITCH_INFO": "0",
        "P_NEW_SWITCH_INFO": "81000047",
        "P_CREATEDATE": "2018-02-12 16:01:26",
        "P_UPDATEDATE": "2018-02-12 16:01:26"
    },
    {
        "P_BOOK_ID": "30002000",
        "2xiKY8E3": "30000000",
        "P_NAME": "\u81ea\u7136\u754c\u306b\u606f\u885d\u304f\u529b",
        "P_SUMMONER_ID": "1",
        "H1in4zvb": "0",
        "P_DISPORDER": "20",
        "0KY1RXMA": "book_purple.png",
        "yTPw0BD7": "book_decoration_n_unit.png",
        "21VKZo0E": "",
        "P_SCHEDULE_ID": "0",
        "P_NEED_SWITCH_INFO": "32000017|32000024|32000025",
        "P_HIDE_SWITCH_INFO": "0",
        "P_OPEN_SWITCH_INFO": "0",
        "P_NEW_SWITCH_INFO": "81000048",
        "P_CREATEDATE": "2018-02-12 16:01:26",
        "P_UPDATEDATE": "2018-02-12 16:01:26"
    },
    {
        "P_BOOK_ID": "30002100",
        "2xiKY8E3": "30000000",
        "P_NAME": "\u546a\u308f\u308c\u3057\u708e\u93a7",
        "P_SUMMONER_ID": "1",
        "H1in4zvb": "0",
        "P_DISPORDER": "21",
        "0KY1RXMA": "book_purple.png",
        "yTPw0BD7": "book_decoration_n_unit.png",
        "21VKZo0E": "",
        "P_SCHEDULE_ID": "0",
        "P_NEED_SWITCH_INFO": "32000019|32000049",
        "P_HIDE_SWITCH_INFO": "0",
        "P_OPEN_SWITCH_INFO": "0",
        "P_NEW_SWITCH_INFO": "81000049",
        "P_CREATEDATE": "2018-02-12 16:01:26",
        "P_UPDATEDATE": "2018-02-12 16:01:26"
    },
    {
        "P_BOOK_ID": "30002200",
        "2xiKY8E3": "30000000",
        "P_NAME": "\u7279\u7570\u305f\u308b\u4fca\u82f1\u305f\u3061",
        "P_SUMMONER_ID": "1",
        "H1in4zvb": "0",
        "P_DISPORDER": "22",
        "0KY1RXMA": "book_purple.png",
        "yTPw0BD7": "book_decoration_n_unit.png",
        "21VKZo0E": "",
        "P_SCHEDULE_ID": "0",
        "P_NEED_SWITCH_INFO": "32000022|32000026|32000027|32000028|32000030|32000031",
        "P_HIDE_SWITCH_INFO": "0",
        "P_OPEN_SWITCH_INFO": "0",
        "P_NEW_SWITCH_INFO": "81000050",
        "P_CREATEDATE": "2018-02-12 16:01:26",
        "P_UPDATEDATE": "2018-02-12 16:01:26"
    },
    {
        "P_BOOK_ID": "30002300",
        "2xiKY8E3": "30000000",
        "P_NAME": "\u7fa9\u4fa0\u306e\u8cca\u5f92",
        "P_SUMMONER_ID": "1",
        "H1in4zvb": "0",
        "P_DISPORDER": "23",
        "0KY1RXMA": "book_purple.png",
        "yTPw0BD7": "book_decoration_n_unit.png",
        "21VKZo0E": "",
        "P_SCHEDULE_ID": "0",
        "P_NEED_SWITCH_INFO": "32000080|32000081|32000082|32000029",
        "P_HIDE_SWITCH_INFO": "0",
        "P_OPEN_SWITCH_INFO": "0",
        "P_NEW_SWITCH_INFO": "81000051",
        "P_CREATEDATE": "2018-02-12 16:01:26",
        "P_UPDATEDATE": "2018-02-12 16:01:26"
    },
    {
        "P_BOOK_ID": "30002400",
        "2xiKY8E3": "30000000",
        "P_NAME": "\u30d1\u30eb\u30df\u30ca\u306e\u56db\u6226\u58eb",
        "P_SUMMONER_ID": "1",
        "H1in4zvb": "0",
        "P_DISPORDER": "24",
        "0KY1RXMA": "book_purple.png",
        "yTPw0BD7": "book_decoration_n_unit.png",
        "21VKZo0E": "",
        "P_SCHEDULE_ID": "0",
        "P_NEED_SWITCH_INFO": "32000036|32000037|32000038|32000039",
        "P_HIDE_SWITCH_INFO": "0",
        "P_OPEN_SWITCH_INFO": "0",
        "P_NEW_SWITCH_INFO": "81000052",
        "P_CREATEDATE": "2018-02-12 16:01:26",
        "P_UPDATEDATE": "2018-02-12 16:01:26"
    },
    {
        "P_BOOK_ID": "30002500",
        "2xiKY8E3": "30000000",
        "P_NAME": "\u707d\u5384\u306e\u7114\u7363",
        "P_SUMMONER_ID": "1",
        "H1in4zvb": "0",
        "P_DISPORDER": "25",
        "0KY1RXMA": "book_purple.png",
        "yTPw0BD7": "book_decoration_n_unit.png",
        "21VKZo0E": "",
        "P_SCHEDULE_ID": "0",
        "P_NEED_SWITCH_INFO": "32000046|32000047|32000048",
        "P_HIDE_SWITCH_INFO": "0",
        "P_OPEN_SWITCH_INFO": "0",
        "P_NEW_SWITCH_INFO": "81000053",
        "P_CREATEDATE": "2018-02-12 16:01:26",
        "P_UPDATEDATE": "2018-02-12 16:01:26"
    },
    {
        "P_BOOK_ID": "30002600",
        "2xiKY8E3": "30000000",
        "P_NAME": "\u5c0e\u304d\u3057\u8005\u305f\u3061",
        "P_SUMMONER_ID": "1",
        "H1in4zvb": "0",
        "P_DISPORDER": "26",
        "0KY1RXMA": "book_purple.png",
        "yTPw0BD7": "book_decoration_n_unit.png",
        "21VKZo0E": "",
        "P_SCHEDULE_ID": "0",
        "P_NEED_SWITCH_INFO": "32000050|32000051|32000052|32000053|32000054|32000055",
        "P_HIDE_SWITCH_INFO": "0",
        "P_OPEN_SWITCH_INFO": "0",
        "P_NEW_SWITCH_INFO": "81000054",
        "P_CREATEDATE": "2018-02-12 16:01:26",
        "P_UPDATEDATE": "2018-02-12 16:01:26"
    },
    {
        "P_BOOK_ID": "30002700",
        "2xiKY8E3": "30000000",
        "P_NAME": "\u95d8\u6280\u5834\u306e\u82f1\u96c4\n\u30bc\u30af\u30bf\u30b5",
        "P_SUMMONER_ID": "1",
        "H1in4zvb": "0",
        "P_DISPORDER": "27",
        "0KY1RXMA": "book_purple.png",
        "yTPw0BD7": "book_decoration_n_unit.png",
        "21VKZo0E": "",
        "P_SCHEDULE_ID": "0",
        "P_NEED_SWITCH_INFO": "32000149|32000150|32000151|32000152|32000153",
        "P_HIDE_SWITCH_INFO": "0",
        "P_OPEN_SWITCH_INFO": "0",
        "P_NEW_SWITCH_INFO": "81000055",
        "P_CREATEDATE": "2018-02-12 16:01:26",
        "P_UPDATEDATE": "2018-02-12 16:01:26"
    },
    {
        "P_BOOK_ID": "30002800",
        "2xiKY8E3": "30000000",
        "P_NAME": "\u56db\u8056\u3068\u5149\u95c7\u306e\u738b",
        "P_SUMMONER_ID": "1",
        "H1in4zvb": "0",
        "P_DISPORDER": "28",
        "0KY1RXMA": "book_purple.png",
        "yTPw0BD7": "book_decoration_n_unit.png",
        "21VKZo0E": "",
        "P_SCHEDULE_ID": "0",
        "P_NEED_SWITCH_INFO": "32000087|32000088|32000089|32000090|32000091|32000092",
        "P_HIDE_SWITCH_INFO": "0",
        "P_OPEN_SWITCH_INFO": "0",
        "P_NEW_SWITCH_INFO": "81000056",
        "P_CREATEDATE": "2018-02-12 16:01:26",
        "P_UPDATEDATE": "2018-02-12 16:01:26"
    },
    {
        "P_BOOK_ID": "30002900",
        "2xiKY8E3": "30000000",
        "P_NAME": "\u5947\u7e01\u306e\u516d\u9b54\u5c0e",
        "P_SUMMONER_ID": "1",
        "H1in4zvb": "0",
        "P_DISPORDER": "29",
        "0KY1RXMA": "book_purple.png",
        "yTPw0BD7": "book_decoration_n_unit.png",
        "21VKZo0E": "",
        "P_SCHEDULE_ID": "0",
        "P_NEED_SWITCH_INFO": "32000093|32000094|32000095|32000096|32000097|32000098",
        "P_HIDE_SWITCH_INFO": "0",
        "P_OPEN_SWITCH_INFO": "0",
        "P_NEW_SWITCH_INFO": "81000057",
        "P_CREATEDATE": "2018-02-12 16:01:26",
        "P_UPDATEDATE": "2018-02-12 16:01:26"
    },
    {
        "P_BOOK_ID": "30003000",
        "2xiKY8E3": "30000000",
        "P_NAME": "\u52c7\u8005\u306e\u8840\u7d71",
        "P_SUMMONER_ID": "1",
        "H1in4zvb": "0",
        "P_DISPORDER": "30",
        "0KY1RXMA": "book_purple.png",
        "yTPw0BD7": "book_decoration_n_unit.png",
        "21VKZo0E": "",
        "P_SCHEDULE_ID": "0",
        "P_NEED_SWITCH_INFO": "32000099|32000100|32000101|32000102|32000103|32000104",
        "P_HIDE_SWITCH_INFO": "0",
        "P_OPEN_SWITCH_INFO": "0",
        "P_NEW_SWITCH_INFO": "81000058",
        "P_CREATEDATE": "2018-02-12 16:01:26",
        "P_UPDATEDATE": "2018-02-12 16:01:26"
    },
    {
        "P_BOOK_ID": "30003100",
        "2xiKY8E3": "30000000",
        "P_NAME": "\u904b\u547d\u306a\u308b\u7e01\u6545",
        "P_SUMMONER_ID": "1",
        "H1in4zvb": "0",
        "P_DISPORDER": "31",
        "0KY1RXMA": "book_purple.png",
        "yTPw0BD7": "book_decoration_n_unit.png",
        "21VKZo0E": "",
        "P_SCHEDULE_ID": "0",
        "P_NEED_SWITCH_INFO": "32000111|32000112|32000113|32000114",
        "P_HIDE_SWITCH_INFO": "0",
        "P_OPEN_SWITCH_INFO": "0",
        "P_NEW_SWITCH_INFO": "81000059",
        "P_CREATEDATE": "2018-02-12 16:01:26",
        "P_UPDATEDATE": "2018-02-12 16:01:26"
    },
    {
        "P_BOOK_ID": "30003200",
        "2xiKY8E3": "30000000",
        "P_NAME": "\u30ec\u30fc\u30bc\u306e\u8a66\u4f5c\u6a5f",
        "P_SUMMONER_ID": "1",
        "H1in4zvb": "0",
        "P_DISPORDER": "32",
        "0KY1RXMA": "book_purple.png",
        "yTPw0BD7": "book_decoration_n_unit.png",
        "21VKZo0E": "",
        "P_SCHEDULE_ID": "0",
        "P_NEED_SWITCH_INFO": "32000115|32000116",
        "P_HIDE_SWITCH_INFO": "0",
        "P_OPEN_SWITCH_INFO": "0",
        "P_NEW_SWITCH_INFO": "81000060",
        "P_CREATEDATE": "2018-02-12 16:01:26",
        "P_UPDATEDATE": "2018-02-12 16:01:26"
    },
    {
        "P_BOOK_ID": "30003300",
        "2xiKY8E3": "30000000",
        "P_NAME": "\u30a2\u30af\u30e9\u30b9\u53ec\u559a\u9662\n\u53ec\u559a\u5e2b",
        "P_SUMMONER_ID": "1",
        "H1in4zvb": "0",
        "P_DISPORDER": "33",
        "0KY1RXMA": "book_purple.png",
        "yTPw0BD7": "book_decoration_n_unit.png",
        "21VKZo0E": "",
        "P_SCHEDULE_ID": "0",
        "P_NEED_SWITCH_INFO": "32000155|32000156",
        "P_HIDE_SWITCH_INFO": "0",
        "P_OPEN_SWITCH_INFO": "0",
        "P_NEW_SWITCH_INFO": "81000061",
        "P_CREATEDATE": "2018-02-12 16:01:26",
        "P_UPDATEDATE": "2018-02-12 16:01:26"
    },
    {
        "P_BOOK_ID": "40000010",
        "2xiKY8E3": "40000000",
        "P_NAME": "\u30c1\u30e5\u30fc\u30c8\u30ea\u30a2\u30eb\u2160",
        "P_SUMMONER_ID": "1",
        "H1in4zvb": "0",
        "P_DISPORDER": "1",
        "0KY1RXMA": "book_yellow.png",
        "yTPw0BD7": "book_decoration_n_summoner.png",
        "21VKZo0E": "",
        "P_SCHEDULE_ID": "0",
        "P_NEED_SWITCH_INFO": "0",
        "P_HIDE_SWITCH_INFO": "0",
        "P_OPEN_SWITCH_INFO": "0",
        "P_NEW_SWITCH_INFO": "81000096",
        "P_CREATEDATE": "2018-02-12 16:01:26",
        "P_UPDATEDATE": "2018-02-12 16:01:26"
    },
    {
        "P_BOOK_ID": "40000100",
        "2xiKY8E3": "40000000",
        "P_NAME": "\u6b66\u5668\u2160",
        "P_SUMMONER_ID": "1",
        "H1in4zvb": "0",
        "P_DISPORDER": "2",
        "0KY1RXMA": "book_yellow.png",
        "yTPw0BD7": "book_decoration_n_summoner.png",
        "21VKZo0E": "",
        "P_SCHEDULE_ID": "0",
        "P_NEED_SWITCH_INFO": "0",
        "P_HIDE_SWITCH_INFO": "0",
        "P_OPEN_SWITCH_INFO": "0",
        "P_NEW_SWITCH_INFO": "81000062",
        "P_CREATEDATE": "2018-02-12 16:01:26",
        "P_UPDATEDATE": "2018-02-12 16:01:26"
    },
    {
        "P_BOOK_ID": "40000200",
        "2xiKY8E3": "40000000",
        "P_NAME": "\u4e3b\u4eba\u516c\u2160",
        "P_SUMMONER_ID": "1",
        "H1in4zvb": "0",
        "P_DISPORDER": "3",
        "0KY1RXMA": "book_green.png",
        "yTPw0BD7": "book_decoration_n_summoner.png",
        "21VKZo0E": "book_txt_h.png",
        "P_SCHEDULE_ID": "0",
        "P_NEED_SWITCH_INFO": "0",
        "P_HIDE_SWITCH_INFO": "0",
        "P_OPEN_SWITCH_INFO": "0",
        "P_NEW_SWITCH_INFO": "81000063",
        "P_CREATEDATE": "2018-02-12 16:01:26",
        "P_UPDATEDATE": "2018-02-12 16:01:26"
    },
    {
        "P_BOOK_ID": "40000300",
        "2xiKY8E3": "40000000",
        "P_NAME": "\u4e3b\u4eba\u516c\u2161",
        "P_SUMMONER_ID": "1",
        "H1in4zvb": "0",
        "P_DISPORDER": "4",
        "0KY1RXMA": "book_green.png",
        "yTPw0BD7": "book_decoration_n_summoner.png",
        "21VKZo0E": "book_txt_h.png",
        "P_SCHEDULE_ID": "0",
        "P_NEED_SWITCH_INFO": "4300090",
        "P_HIDE_SWITCH_INFO": "0",
        "P_OPEN_SWITCH_INFO": "0",
        "P_NEW_SWITCH_INFO": "81000064",
        "P_CREATEDATE": "2018-02-12 16:01:26",
        "P_UPDATEDATE": "2018-02-12 16:01:26"
    },
    {
        "P_BOOK_ID": "40000400",
        "2xiKY8E3": "40000000",
        "P_NAME": "\u30ea\u30f3\u2160",
        "P_SUMMONER_ID": "2",
        "H1in4zvb": "0",
        "P_DISPORDER": "5",
        "0KY1RXMA": "book_green.png",
        "yTPw0BD7": "book_decoration_n_summoner.png",
        "21VKZo0E": "book_txt_r.png",
        "P_SCHEDULE_ID": "0",
        "P_NEED_SWITCH_INFO": "2000000",
        "P_HIDE_SWITCH_INFO": "0",
        "P_OPEN_SWITCH_INFO": "0",
        "P_NEW_SWITCH_INFO": "81000065",
        "P_CREATEDATE": "2018-02-12 16:01:26",
        "P_UPDATEDATE": "2018-02-12 16:01:26"
    },
    {
        "P_BOOK_ID": "40000500",
        "2xiKY8E3": "40000000",
        "P_NAME": "\u30ea\u30f3\u2161",
        "P_SUMMONER_ID": "2",
        "H1in4zvb": "0",
        "P_DISPORDER": "6",
        "0KY1RXMA": "book_green.png",
        "yTPw0BD7": "book_decoration_n_summoner.png",
        "21VKZo0E": "book_txt_r.png",
        "P_SCHEDULE_ID": "0",
        "P_NEED_SWITCH_INFO": "4300100",
        "P_HIDE_SWITCH_INFO": "0",
        "P_OPEN_SWITCH_INFO": "0",
        "P_NEW_SWITCH_INFO": "81000066",
        "P_CREATEDATE": "2018-02-12 16:01:26",
        "P_UPDATEDATE": "2018-02-12 16:01:26"
    },
    {
        "P_BOOK_ID": "40000600",
        "2xiKY8E3": "40000000",
        "P_NAME": "\u53ec\u559a\u5e2b\u80b2\u6210",
        "P_SUMMONER_ID": "1",
        "H1in4zvb": "0",
        "P_DISPORDER": "7",
        "0KY1RXMA": "book_gold.png",
        "yTPw0BD7": "book_decoration_n_summoner.png",
        "21VKZo0E": "",
        "P_SCHEDULE_ID": "0",
        "P_NEED_SWITCH_INFO": "80061009",
        "P_HIDE_SWITCH_INFO": "0",
        "P_OPEN_SWITCH_INFO": "0",
        "P_NEW_SWITCH_INFO": "81000097",
        "P_CREATEDATE": "2018-02-12 16:01:26",
        "P_UPDATEDATE": "2018-02-12 16:01:26"
    },
    {
        "P_BOOK_ID": "50000100",
        "2xiKY8E3": "50000000",
        "P_NAME": "\u7d2f\u8a08ABP",
        "P_SUMMONER_ID": "1",
        "H1in4zvb": "0",
        "P_DISPORDER": "1",
        "0KY1RXMA": "book_yellow.png",
        "yTPw0BD7": "book_decoration_n_arena.png",
        "21VKZo0E": "",
        "P_SCHEDULE_ID": "0",
        "P_NEED_SWITCH_INFO": "10000027",
        "P_HIDE_SWITCH_INFO": "0",
        "P_OPEN_SWITCH_INFO": "0",
        "P_NEW_SWITCH_INFO": "81000067",
        "P_CREATEDATE": "2018-02-12 16:01:26",
        "P_UPDATEDATE": "2018-02-12 16:01:26"
    },
    {
        "P_BOOK_ID": "50000200",
        "2xiKY8E3": "50000000",
        "P_NAME": "\u30df\u30c3\u30b7\u30e7\u30f3\u2160",
        "P_SUMMONER_ID": "1",
        "H1in4zvb": "0",
        "P_DISPORDER": "2",
        "0KY1RXMA": "book_pink.png",
        "yTPw0BD7": "book_decoration_n_arena.png",
        "21VKZo0E": "",
        "P_SCHEDULE_ID": "0",
        "P_NEED_SWITCH_INFO": "4300110",
        "P_HIDE_SWITCH_INFO": "0",
        "P_OPEN_SWITCH_INFO": "0",
        "P_NEW_SWITCH_INFO": "81000068",
        "P_CREATEDATE": "2018-02-12 16:01:26",
        "P_UPDATEDATE": "2018-02-12 16:01:26"
    },
    {
        "P_BOOK_ID": "50000300",
        "2xiKY8E3": "50000000",
        "P_NAME": "\u30df\u30c3\u30b7\u30e7\u30f3\u2161",
        "P_SUMMONER_ID": "1",
        "H1in4zvb": "0",
        "P_DISPORDER": "3",
        "0KY1RXMA": "book_pink.png",
        "yTPw0BD7": "book_decoration_n_arena.png",
        "21VKZo0E": "",
        "P_SCHEDULE_ID": "0",
        "P_NEED_SWITCH_INFO": "4300120",
        "P_HIDE_SWITCH_INFO": "0",
        "P_OPEN_SWITCH_INFO": "0",
        "P_NEW_SWITCH_INFO": "81000069",
        "P_CREATEDATE": "2018-02-12 16:01:26",
        "P_UPDATEDATE": "2018-02-12 16:01:26"
    },
    {
        "P_BOOK_ID": "50000400",
        "2xiKY8E3": "50000000",
        "P_NAME": "\u30df\u30c3\u30b7\u30e7\u30f3\u2162",
        "P_SUMMONER_ID": "1",
        "H1in4zvb": "0",
        "P_DISPORDER": "4",
        "0KY1RXMA": "book_pink.png",
        "yTPw0BD7": "book_decoration_n_arena.png",
        "21VKZo0E": "",
        "P_SCHEDULE_ID": "0",
        "P_NEED_SWITCH_INFO": "4300130",
        "P_HIDE_SWITCH_INFO": "0",
        "P_OPEN_SWITCH_INFO": "0",
        "P_NEW_SWITCH_INFO": "81000070",
        "P_CREATEDATE": "2018-02-12 16:01:26",
        "P_UPDATEDATE": "2018-02-12 16:01:26"
    },
    {
        "P_BOOK_ID": "50000500",
        "2xiKY8E3": "50000000",
        "P_NAME": "\u30df\u30c3\u30b7\u30e7\u30f3\u2163",
        "P_SUMMONER_ID": "1",
        "H1in4zvb": "0",
        "P_DISPORDER": "5",
        "0KY1RXMA": "book_pink.png",
        "yTPw0BD7": "book_decoration_n_arena.png",
        "21VKZo0E": "",
        "P_SCHEDULE_ID": "0",
        "P_NEED_SWITCH_INFO": "4300140",
        "P_HIDE_SWITCH_INFO": "0",
        "P_OPEN_SWITCH_INFO": "0",
        "P_NEW_SWITCH_INFO": "81000071",
        "P_CREATEDATE": "2018-02-12 16:01:26",
        "P_UPDATEDATE": "2018-02-12 16:01:26"
    },
    {
        "P_BOOK_ID": "50000600",
        "2xiKY8E3": "50000000",
        "P_NAME": "\u30df\u30c3\u30b7\u30e7\u30f3\u2164",
        "P_SUMMONER_ID": "1",
        "H1in4zvb": "0",
        "P_DISPORDER": "6",
        "0KY1RXMA": "book_pink.png",
        "yTPw0BD7": "book_decoration_n_arena.png",
        "21VKZo0E": "",
        "P_SCHEDULE_ID": "0",
        "P_NEED_SWITCH_INFO": "4300150",
        "P_HIDE_SWITCH_INFO": "0",
        "P_OPEN_SWITCH_INFO": "0",
        "P_NEW_SWITCH_INFO": "81000072",
        "P_CREATEDATE": "2018-02-12 16:01:26",
        "P_UPDATEDATE": "2018-02-12 16:01:26"
    },
    {
        "P_BOOK_ID": "50000700",
        "2xiKY8E3": "50000000",
        "P_NAME": "\u30df\u30c3\u30b7\u30e7\u30f3\u2165",
        "P_SUMMONER_ID": "1",
        "H1in4zvb": "0",
        "P_DISPORDER": "7",
        "0KY1RXMA": "book_pink.png",
        "yTPw0BD7": "book_decoration_n_arena.png",
        "21VKZo0E": "",
        "P_SCHEDULE_ID": "0",
        "P_NEED_SWITCH_INFO": "4300160",
        "P_HIDE_SWITCH_INFO": "0",
        "P_OPEN_SWITCH_INFO": "0",
        "P_NEW_SWITCH_INFO": "81000073",
        "P_CREATEDATE": "2018-02-12 16:01:26",
        "P_UPDATEDATE": "2018-02-12 16:01:26"
    },
    {
        "P_BOOK_ID": "50000800",
        "2xiKY8E3": "50000000",
        "P_NAME": "\u30df\u30c3\u30b7\u30e7\u30f3\u2166",
        "P_SUMMONER_ID": "1",
        "H1in4zvb": "0",
        "P_DISPORDER": "8",
        "0KY1RXMA": "book_pink.png",
        "yTPw0BD7": "book_decoration_n_arena.png",
        "21VKZo0E": "",
        "P_SCHEDULE_ID": "0",
        "P_NEED_SWITCH_INFO": "4300170",
        "P_HIDE_SWITCH_INFO": "0",
        "P_OPEN_SWITCH_INFO": "0",
        "P_NEW_SWITCH_INFO": "81000074",
        "P_CREATEDATE": "2018-02-12 16:01:26",
        "P_UPDATEDATE": "2018-02-12 16:01:26"
    },
    {
        "P_BOOK_ID": "50000900",
        "2xiKY8E3": "50000000",
        "P_NAME": "\u30df\u30c3\u30b7\u30e7\u30f3\u2167",
        "P_SUMMONER_ID": "1",
        "H1in4zvb": "0",
        "P_DISPORDER": "9",
        "0KY1RXMA": "book_pink.png",
        "yTPw0BD7": "book_decoration_n_arena.png",
        "21VKZo0E": "",
        "P_SCHEDULE_ID": "0",
        "P_NEED_SWITCH_INFO": "4300180",
        "P_HIDE_SWITCH_INFO": "0",
        "P_OPEN_SWITCH_INFO": "0",
        "P_NEW_SWITCH_INFO": "81000075",
        "P_CREATEDATE": "2018-02-12 16:01:26",
        "P_UPDATEDATE": "2018-02-12 16:01:26"
    },
    {
        "P_BOOK_ID": "50001000",
        "2xiKY8E3": "50000000",
        "P_NAME": "\u30df\u30c3\u30b7\u30e7\u30f3\u2168",
        "P_SUMMONER_ID": "1",
        "H1in4zvb": "0",
        "P_DISPORDER": "10",
        "0KY1RXMA": "book_pink.png",
        "yTPw0BD7": "book_decoration_n_arena.png",
        "21VKZo0E": "",
        "P_SCHEDULE_ID": "0",
        "P_NEED_SWITCH_INFO": "4300190",
        "P_HIDE_SWITCH_INFO": "0",
        "P_OPEN_SWITCH_INFO": "0",
        "P_NEW_SWITCH_INFO": "81000076",
        "P_CREATEDATE": "2018-02-12 16:01:26",
        "P_UPDATEDATE": "2018-02-12 16:01:26"
    },
    {
        "P_BOOK_ID": "50001100",
        "2xiKY8E3": "50000000",
        "P_NAME": "\u30df\u30c3\u30b7\u30e7\u30f3\u2169",
        "P_SUMMONER_ID": "1",
        "H1in4zvb": "0",
        "P_DISPORDER": "11",
        "0KY1RXMA": "book_pink.png",
        "yTPw0BD7": "book_decoration_n_arena.png",
        "21VKZo0E": "",
        "P_SCHEDULE_ID": "0",
        "P_NEED_SWITCH_INFO": "4300200",
        "P_HIDE_SWITCH_INFO": "0",
        "P_OPEN_SWITCH_INFO": "0",
        "P_NEW_SWITCH_INFO": "81000077",
        "P_CREATEDATE": "2018-02-12 16:01:26",
        "P_UPDATEDATE": "2018-02-12 16:01:26"
    },
    {
        "P_BOOK_ID": "60000100",
        "2xiKY8E3": "60000000",
        "P_NAME": "\u30a2\u30a4\u30c6\u30e0\u2160",
        "P_SUMMONER_ID": "1",
        "H1in4zvb": "0",
        "P_DISPORDER": "1",
        "0KY1RXMA": "book_pink.png",
        "yTPw0BD7": "book_decoration_n_item.png",
        "21VKZo0E": "",
        "P_SCHEDULE_ID": "0",
        "P_NEED_SWITCH_INFO": "10000027",
        "P_HIDE_SWITCH_INFO": "0",
        "P_OPEN_SWITCH_INFO": "0",
        "P_NEW_SWITCH_INFO": "81000078",
        "P_CREATEDATE": "2018-02-12 16:01:26",
        "P_UPDATEDATE": "2018-02-12 16:01:26"
    },
    {
        "P_BOOK_ID": "60000200",
        "2xiKY8E3": "60000000",
        "P_NAME": "\u30a2\u30a4\u30c6\u30e0\u2161",
        "P_SUMMONER_ID": "1",
        "H1in4zvb": "0",
        "P_DISPORDER": "2",
        "0KY1RXMA": "book_pink.png",
        "yTPw0BD7": "book_decoration_n_item.png",
        "21VKZo0E": "",
        "P_SCHEDULE_ID": "0",
        "P_NEED_SWITCH_INFO": "4300210",
        "P_HIDE_SWITCH_INFO": "0",
        "P_OPEN_SWITCH_INFO": "0",
        "P_NEW_SWITCH_INFO": "81000079",
        "P_CREATEDATE": "2018-02-12 16:01:26",
        "P_UPDATEDATE": "2018-02-12 16:01:26"
    },
    {
        "P_BOOK_ID": "60000300",
        "2xiKY8E3": "60000000",
        "P_NAME": "\u85ac\u5e2b\u2160",
        "P_SUMMONER_ID": "1",
        "H1in4zvb": "0",
        "P_DISPORDER": "3",
        "0KY1RXMA": "book_pink.png",
        "yTPw0BD7": "book_decoration_n_item.png",
        "21VKZo0E": "",
        "P_SCHEDULE_ID": "0",
        "P_NEED_SWITCH_INFO": "10000027",
        "P_HIDE_SWITCH_INFO": "0",
        "P_OPEN_SWITCH_INFO": "0",
        "P_NEW_SWITCH_INFO": "81000080",
        "P_CREATEDATE": "2018-02-12 16:01:26",
        "P_UPDATEDATE": "2018-02-12 16:01:26"
    },
    {
        "P_BOOK_ID": "60000400",
        "2xiKY8E3": "60000000",
        "P_NAME": "\u85ac\u5e2b\u2161",
        "P_SUMMONER_ID": "1",
        "H1in4zvb": "0",
        "P_DISPORDER": "4",
        "0KY1RXMA": "book_pink.png",
        "yTPw0BD7": "book_decoration_n_item.png",
        "21VKZo0E": "",
        "P_SCHEDULE_ID": "0",
        "P_NEED_SWITCH_INFO": "4300220",
        "P_HIDE_SWITCH_INFO": "0",
        "P_OPEN_SWITCH_INFO": "0",
        "P_NEW_SWITCH_INFO": "81000081",
        "P_CREATEDATE": "2018-02-12 16:01:26",
        "P_UPDATEDATE": "2018-02-12 16:01:26"
    },
    {
        "P_BOOK_ID": "60000500",
        "2xiKY8E3": "60000000",
        "P_NAME": "\u85ac\u5e2b\u2162",
        "P_SUMMONER_ID": "1",
        "H1in4zvb": "0",
        "P_DISPORDER": "5",
        "0KY1RXMA": "book_pink.png",
        "yTPw0BD7": "book_decoration_n_item.png",
        "21VKZo0E": "",
        "P_SCHEDULE_ID": "0",
        "P_NEED_SWITCH_INFO": "4300230",
        "P_HIDE_SWITCH_INFO": "0",
        "P_OPEN_SWITCH_INFO": "0",
        "P_NEW_SWITCH_INFO": "81000082",
        "P_CREATEDATE": "2018-02-12 16:01:26",
        "P_UPDATEDATE": "2018-02-12 16:01:26"
    },
    {
        "P_BOOK_ID": "60000600",
        "2xiKY8E3": "60000000",
        "P_NAME": "\u30b9\u30d5\u30a3\u30a2\u2160",
        "P_SUMMONER_ID": "1",
        "H1in4zvb": "0",
        "P_DISPORDER": "6",
        "0KY1RXMA": "book_pink.png",
        "yTPw0BD7": "book_decoration_n_item.png",
        "21VKZo0E": "",
        "P_SCHEDULE_ID": "0",
        "P_NEED_SWITCH_INFO": "10000027",
        "P_HIDE_SWITCH_INFO": "0",
        "P_OPEN_SWITCH_INFO": "0",
        "P_NEW_SWITCH_INFO": "81000083",
        "P_CREATEDATE": "2018-02-12 16:01:26",
        "P_UPDATEDATE": "2018-02-12 16:01:26"
    },
    {
        "P_BOOK_ID": "60000700",
        "2xiKY8E3": "60000000",
        "P_NAME": "\u30b9\u30d5\u30a3\u30a2\u2161",
        "P_SUMMONER_ID": "1",
        "H1in4zvb": "0",
        "P_DISPORDER": "7",
        "0KY1RXMA": "book_pink.png",
        "yTPw0BD7": "book_decoration_n_item.png",
        "21VKZo0E": "",
        "P_SCHEDULE_ID": "0",
        "P_NEED_SWITCH_INFO": "4300240",
        "P_HIDE_SWITCH_INFO": "0",
        "P_OPEN_SWITCH_INFO": "0",
        "P_NEW_SWITCH_INFO": "81000084",
        "P_CREATEDATE": "2018-02-12 16:01:26",
        "P_UPDATEDATE": "2018-02-12 16:01:26"
    },
    {
        "P_BOOK_ID": "60000800",
        "2xiKY8E3": "60000000",
        "P_NAME": "\u30b9\u30d5\u30a3\u30a2\u30ec\u30b7\u30d4\u2160",
        "P_SUMMONER_ID": "1",
        "H1in4zvb": "0",
        "P_DISPORDER": "8",
        "0KY1RXMA": "book_pink.png",
        "yTPw0BD7": "book_decoration_n_item.png",
        "21VKZo0E": "",
        "P_SCHEDULE_ID": "0",
        "P_NEED_SWITCH_INFO": "10000027",
        "P_HIDE_SWITCH_INFO": "0",
        "P_OPEN_SWITCH_INFO": "0",
        "P_NEW_SWITCH_INFO": "81000085",
        "P_CREATEDATE": "2018-02-12 16:01:26",
        "P_UPDATEDATE": "2018-02-12 16:01:26"
    },
    {
        "P_BOOK_ID": "60000900",
        "2xiKY8E3": "60000000",
        "P_NAME": "\u30b9\u30d5\u30a3\u30a2\u30ec\u30b7\u30d4\u2161",
        "P_SUMMONER_ID": "1",
        "H1in4zvb": "0",
        "P_DISPORDER": "9",
        "0KY1RXMA": "book_pink.png",
        "yTPw0BD7": "book_decoration_n_item.png",
        "21VKZo0E": "",
        "P_SCHEDULE_ID": "0",
        "P_NEED_SWITCH_INFO": "4300250",
        "P_HIDE_SWITCH_INFO": "0",
        "P_OPEN_SWITCH_INFO": "0",
        "P_NEW_SWITCH_INFO": "81000086",
        "P_CREATEDATE": "2018-02-12 16:01:26",
        "P_UPDATEDATE": "2018-02-12 16:01:26"
    },
    {
        "P_BOOK_ID": "60001000",
        "2xiKY8E3": "60000000",
        "P_NAME": "\u30b9\u30d5\u30a3\u30a2\u30ec\u30b7\u30d4\u2162",
        "P_SUMMONER_ID": "1",
        "H1in4zvb": "0",
        "P_DISPORDER": "10",
        "0KY1RXMA": "book_pink.png",
        "yTPw0BD7": "book_decoration_n_item.png",
        "21VKZo0E": "",
        "P_SCHEDULE_ID": "0",
        "P_NEED_SWITCH_INFO": "4300260",
        "P_HIDE_SWITCH_INFO": "0",
        "P_OPEN_SWITCH_INFO": "0",
        "P_NEW_SWITCH_INFO": "81000087",
        "P_CREATEDATE": "2018-02-12 16:01:26",
        "P_UPDATEDATE": "2018-02-12 16:01:26"
    },
    {
        "P_BOOK_ID": "60001100",
        "2xiKY8E3": "60000000",
        "P_NAME": "\u30b9\u30d5\u30a3\u30a2\u30ec\u30b7\u30d4\u2163",
        "P_SUMMONER_ID": "1",
        "H1in4zvb": "0",
        "P_DISPORDER": "11",
        "0KY1RXMA": "book_pink.png",
        "yTPw0BD7": "book_decoration_n_item.png",
        "21VKZo0E": "",
        "P_SCHEDULE_ID": "0",
        "P_NEED_SWITCH_INFO": "4300270",
        "P_HIDE_SWITCH_INFO": "0",
        "P_OPEN_SWITCH_INFO": "0",
        "P_NEW_SWITCH_INFO": "81000088",
        "P_CREATEDATE": "2018-02-12 16:01:26",
        "P_UPDATEDATE": "2018-02-12 16:01:26"
    },
    {
        "P_BOOK_ID": "60001200",
        "2xiKY8E3": "60000000",
        "P_NAME": "\u30b9\u30d5\u30a3\u30a2\u30ec\u30b7\u30d4\u2164",
        "P_SUMMONER_ID": "1",
        "H1in4zvb": "0",
        "P_DISPORDER": "12",
        "0KY1RXMA": "book_pink.png",
        "yTPw0BD7": "book_decoration_n_item.png",
        "21VKZo0E": "",
        "P_SCHEDULE_ID": "0",
        "P_NEED_SWITCH_INFO": "4300280",
        "P_HIDE_SWITCH_INFO": "0",
        "P_OPEN_SWITCH_INFO": "0",
        "P_NEW_SWITCH_INFO": "81000089",
        "P_CREATEDATE": "2018-02-12 16:01:26",
        "P_UPDATEDATE": "2018-02-12 16:01:26"
    },
    {
        "P_BOOK_ID": "60001300",
        "2xiKY8E3": "60000000",
        "P_NAME": "\u30b9\u30d5\u30a3\u30a2\u30ec\u30b7\u30d4\u2165",
        "P_SUMMONER_ID": "1",
        "H1in4zvb": "0",
        "P_DISPORDER": "13",
        "0KY1RXMA": "book_pink.png",
        "yTPw0BD7": "book_decoration_n_item.png",
        "21VKZo0E": "",
        "P_SCHEDULE_ID": "0",
        "P_NEED_SWITCH_INFO": "4300290",
        "P_HIDE_SWITCH_INFO": "0",
        "P_OPEN_SWITCH_INFO": "0",
        "P_NEW_SWITCH_INFO": "81000090",
        "P_CREATEDATE": "2018-02-12 16:01:26",
        "P_UPDATEDATE": "2018-02-12 16:01:26"
    },
    {
        "P_BOOK_ID": "60001400",
        "2xiKY8E3": "60000000",
        "P_NAME": "\u30b9\u30d5\u30a3\u30a2\u30ec\u30b7\u30d4\u2166",
        "P_SUMMONER_ID": "1",
        "H1in4zvb": "0",
        "P_DISPORDER": "14",
        "0KY1RXMA": "book_pink.png",
        "yTPw0BD7": "book_decoration_n_item.png",
        "21VKZo0E": "",
        "P_SCHEDULE_ID": "0",
        "P_NEED_SWITCH_INFO": "4300300",
        "P_HIDE_SWITCH_INFO": "0",
        "P_OPEN_SWITCH_INFO": "0",
        "P_NEW_SWITCH_INFO": "81000091",
        "P_CREATEDATE": "2018-02-12 16:01:26",
        "P_UPDATEDATE": "2018-02-12 16:01:26"
    },
    {
        "P_BOOK_ID": "60001500",
        "2xiKY8E3": "60000000",
        "P_NAME": "\u30b9\u30d5\u30a3\u30a2\u30ec\u30b7\u30d4\u2167",
        "P_SUMMONER_ID": "1",
        "H1in4zvb": "0",
        "P_DISPORDER": "15",
        "0KY1RXMA": "book_pink.png",
        "yTPw0BD7": "book_decoration_n_item.png",
        "21VKZo0E": "",
        "P_SCHEDULE_ID": "0",
        "P_NEED_SWITCH_INFO": "4300310",
        "P_HIDE_SWITCH_INFO": "0",
        "P_OPEN_SWITCH_INFO": "0",
        "P_NEW_SWITCH_INFO": "81000092",
        "P_CREATEDATE": "2018-02-12 16:01:26",
        "P_UPDATEDATE": "2018-02-12 16:01:26"
    },
    {
        "P_BOOK_ID": "60001600",
        "2xiKY8E3": "60000000",
        "P_NAME": "\u30b9\u30d5\u30a3\u30a2\u30ec\u30b7\u30d4\u2168",
        "P_SUMMONER_ID": "1",
        "H1in4zvb": "0",
        "P_DISPORDER": "16",
        "0KY1RXMA": "book_pink.png",
        "yTPw0BD7": "book_decoration_n_item.png",
        "21VKZo0E": "",
        "P_SCHEDULE_ID": "0",
        "P_NEED_SWITCH_INFO": "4300320",
        "P_HIDE_SWITCH_INFO": "0",
        "P_OPEN_SWITCH_INFO": "0",
        "P_NEW_SWITCH_INFO": "81000093",
        "P_CREATEDATE": "2018-02-12 16:01:26",
        "P_UPDATEDATE": "2018-02-12 16:01:26"
    },
    {
        "P_BOOK_ID": "60001700",
        "2xiKY8E3": "60000000",
        "P_NAME": "\u30b9\u30d5\u30a3\u30a2\u30ec\u30b7\u30d4\u2169",
        "P_SUMMONER_ID": "1",
        "H1in4zvb": "0",
        "P_DISPORDER": "17",
        "0KY1RXMA": "book_pink.png",
        "yTPw0BD7": "book_decoration_n_item.png",
        "21VKZo0E": "",
        "P_SCHEDULE_ID": "0",
        "P_NEED_SWITCH_INFO": "4300330",
        "P_HIDE_SWITCH_INFO": "0",
        "P_OPEN_SWITCH_INFO": "0",
        "P_NEW_SWITCH_INFO": "81000094",
        "P_CREATEDATE": "2018-02-12 16:01:26",
        "P_UPDATEDATE": "2018-02-12 16:01:26"
    },
    {
        "P_BOOK_ID": "70000100",
        "2xiKY8E3": "70000000",
        "P_NAME": "\u30d5\u30ed\u30cf\u30f3\u2160",
        "P_SUMMONER_ID": "1",
        "H1in4zvb": "0",
        "P_DISPORDER": "1",
        "0KY1RXMA": "book_pink.png",
        "yTPw0BD7": "book_decoration_n_labo.png",
        "21VKZo0E": "",
        "P_SCHEDULE_ID": "0",
        "P_NEED_SWITCH_INFO": "4300420",
        "P_HIDE_SWITCH_INFO": "0",
        "P_OPEN_SWITCH_INFO": "0",
        "P_NEW_SWITCH_INFO": "81000126",
        "P_CREATEDATE": "2018-02-12 16:01:26",
        "P_UPDATEDATE": "2018-02-12 16:01:26"
    },
    {
        "P_BOOK_ID": "70000200",
        "2xiKY8E3": "70000000",
        "P_NAME": "\u30d5\u30ed\u30cf\u30f3\u2161",
        "P_SUMMONER_ID": "1",
        "H1in4zvb": "0",
        "P_DISPORDER": "2",
        "0KY1RXMA": "book_pink.png",
        "yTPw0BD7": "book_decoration_n_labo.png",
        "21VKZo0E": "",
        "P_SCHEDULE_ID": "0",
        "P_NEED_SWITCH_INFO": "4300420",
        "P_HIDE_SWITCH_INFO": "0",
        "P_OPEN_SWITCH_INFO": "0",
        "P_NEW_SWITCH_INFO": "81000127",
        "P_CREATEDATE": "2018-02-12 16:01:26",
        "P_UPDATEDATE": "2018-02-12 16:01:26"
    },
    {
        "P_BOOK_ID": "70000300",
        "2xiKY8E3": "70000000",
        "P_NAME": "\u30d5\u30ed\u30cf\u30f3\u2162",
        "P_SUMMONER_ID": "1",
        "H1in4zvb": "0",
        "P_DISPORDER": "3",
        "0KY1RXMA": "book_pink.png",
        "yTPw0BD7": "book_decoration_n_labo.png",
        "21VKZo0E": "",
        "P_SCHEDULE_ID": "0",
        "P_NEED_SWITCH_INFO": "4300430",
        "P_HIDE_SWITCH_INFO": "0",
        "P_OPEN_SWITCH_INFO": "0",
        "P_NEW_SWITCH_INFO": "81000128",
        "P_CREATEDATE": "2018-02-12 16:01:26",
        "P_UPDATEDATE": "2018-02-12 16:01:26"
    },
    {
        "P_BOOK_ID": "70000400",
        "2xiKY8E3": "70000000",
        "P_NAME": "\u30d5\u30ed\u30cf\u30f3\u2163",
        "P_SUMMONER_ID": "1",
        "H1in4zvb": "0",
        "P_DISPORDER": "4",
        "0KY1RXMA": "book_pink.png",
        "yTPw0BD7": "book_decoration_n_labo.png",
        "21VKZo0E": "",
        "P_SCHEDULE_ID": "0",
        "P_NEED_SWITCH_INFO": "4300440",
        "P_HIDE_SWITCH_INFO": "0",
        "P_OPEN_SWITCH_INFO": "0",
        "P_NEW_SWITCH_INFO": "81000129",
        "P_CREATEDATE": "2018-02-12 16:01:26",
        "P_UPDATEDATE": "2018-02-12 16:01:26"
    },
    {
        "P_BOOK_ID": "70000500",
        "2xiKY8E3": "70000000",
        "P_NAME": "\u8a66\u7df4",
        "P_SUMMONER_ID": "1",
        "H1in4zvb": "0",
        "P_DISPORDER": "5",
        "0KY1RXMA": "book_pink.png",
        "yTPw0BD7": "book_decoration_n_labo.png",
        "21VKZo0E": "",
        "P_SCHEDULE_ID": "0",
        "P_NEED_SWITCH_INFO": "10000027",
        "P_HIDE_SWITCH_INFO": "0",
        "P_OPEN_SWITCH_INFO": "0",
        "P_NEW_SWITCH_INFO": "81000130",
        "P_CREATEDATE": "2018-02-12 16:01:26",
        "P_UPDATEDATE": "2018-02-12 16:01:26"
    },
    {
        "P_BOOK_ID": "80000100",
        "2xiKY8E3": "80000000",
        "P_NAME": "\u5929\u5e1d",
        "P_SUMMONER_ID": "1",
        "H1in4zvb": "0",
        "P_DISPORDER": "3",
        "0KY1RXMA": "book_gold.png",
        "yTPw0BD7": "book_decoration_n_battle.png",
        "21VKZo0E": "",
        "P_SCHEDULE_ID": "0",
        "P_NEED_SWITCH_INFO": "71000001|71000010|71000019|71000028",
        "P_HIDE_SWITCH_INFO": "0",
        "P_OPEN_SWITCH_INFO": "0",
        "P_NEW_SWITCH_INFO": "81000095",
        "P_CREATEDATE": "2018-02-12 16:01:26",
        "P_UPDATEDATE": "2018-02-12 16:01:26"
    },
    {
        "P_BOOK_ID": "80000300",
        "2xiKY8E3": "80000000",
        "P_NAME": "\u8987\u65a7",
        "P_SUMMONER_ID": "1",
        "H1in4zvb": "0",
        "P_DISPORDER": "3",
        "0KY1RXMA": "book_gold.png",
        "yTPw0BD7": "book_decoration_n_battle.png",
        "21VKZo0E": "",
        "P_SCHEDULE_ID": "0",
        "P_NEED_SWITCH_INFO": "80061009",
        "P_HIDE_SWITCH_INFO": "0",
        "P_OPEN_SWITCH_INFO": "0",
        "P_NEW_SWITCH_INFO": "81000098",
        "P_CREATEDATE": "2018-02-12 16:01:26",
        "P_UPDATEDATE": "2018-02-12 16:01:26"
    },
    {
        "P_BOOK_ID": "80000400",
        "2xiKY8E3": "80000000",
        "P_NAME": "\u30af\u30ea\u30c0\u30e1+5%",
        "P_SUMMONER_ID": "1",
        "H1in4zvb": "0",
        "P_DISPORDER": "4",
        "0KY1RXMA": "book_gold.png",
        "yTPw0BD7": "book_decoration_n_battle.png",
        "21VKZo0E": "",
        "P_SCHEDULE_ID": "0",
        "P_NEED_SWITCH_INFO": "80061009",
        "P_HIDE_SWITCH_INFO": "0",
        "P_OPEN_SWITCH_INFO": "0",
        "P_NEW_SWITCH_INFO": "81000099",
        "P_CREATEDATE": "2018-02-12 16:01:26",
        "P_UPDATEDATE": "2018-02-12 16:01:26"
    },
    {
        "P_BOOK_ID": "80000500",
        "2xiKY8E3": "80000000",
        "P_NAME": "\u6a5f\u5263",
        "P_SUMMONER_ID": "1",
        "H1in4zvb": "0",
        "P_DISPORDER": "5",
        "0KY1RXMA": "book_gold.png",
        "yTPw0BD7": "book_decoration_n_battle.png",
        "21VKZo0E": "",
        "P_SCHEDULE_ID": "0",
        "P_NEED_SWITCH_INFO": "80061009",
        "P_HIDE_SWITCH_INFO": "0",
        "P_OPEN_SWITCH_INFO": "0",
        "P_NEW_SWITCH_INFO": "81000100",
        "P_CREATEDATE": "2018-02-12 16:01:26",
        "P_UPDATEDATE": "2018-02-12 16:01:26"
    },
    {
        "P_BOOK_ID": "80000600",
        "2xiKY8E3": "80000000",
        "P_NAME": "\u9b54\u795e\u65a7",
        "P_SUMMONER_ID": "1",
        "H1in4zvb": "0",
        "P_DISPORDER": "6",
        "0KY1RXMA": "book_gold.png",
        "yTPw0BD7": "book_decoration_n_battle.png",
        "21VKZo0E": "",
        "P_SCHEDULE_ID": "0",
        "P_NEED_SWITCH_INFO": "80061009",
        "P_HIDE_SWITCH_INFO": "0",
        "P_OPEN_SWITCH_INFO": "0",
        "P_NEW_SWITCH_INFO": "81000101",
        "P_CREATEDATE": "2018-02-12 16:01:26",
        "P_UPDATEDATE": "2018-02-12 16:01:26"
    },
    {
        "P_BOOK_ID": "80000700",
        "2xiKY8E3": "80000000",
        "P_NAME": "\u795e\u5854\u306e\u82b1",
        "P_SUMMONER_ID": "1",
        "H1in4zvb": "0",
        "P_DISPORDER": "7",
        "0KY1RXMA": "book_gold.png",
        "yTPw0BD7": "book_decoration_n_battle.png",
        "21VKZo0E": "",
        "P_SCHEDULE_ID": "0",
        "P_NEED_SWITCH_INFO": "80061009",
        "P_HIDE_SWITCH_INFO": "0",
        "P_OPEN_SWITCH_INFO": "0",
        "P_NEW_SWITCH_INFO": "81000102",
        "P_CREATEDATE": "2018-02-12 16:01:26",
        "P_UPDATEDATE": "2018-02-12 16:01:26"
    },
    {
        "P_BOOK_ID": "80000800",
        "2xiKY8E3": "80000000",
        "P_NAME": "\u79d8\u5b9d",
        "P_SUMMONER_ID": "1",
        "H1in4zvb": "0",
        "P_DISPORDER": "8",
        "0KY1RXMA": "book_gold.png",
        "yTPw0BD7": "book_decoration_n_battle.png",
        "21VKZo0E": "",
        "P_SCHEDULE_ID": "0",
        "P_NEED_SWITCH_INFO": "80061009",
        "P_HIDE_SWITCH_INFO": "0",
        "P_OPEN_SWITCH_INFO": "0",
        "P_NEW_SWITCH_INFO": "81000103",
        "P_CREATEDATE": "2018-02-12 16:01:26",
        "P_UPDATEDATE": "2018-02-12 16:01:26"
    },
    {
        "P_BOOK_ID": "80000900",
        "2xiKY8E3": "80000000",
        "P_NAME": "\u30af\u30ea\u30c0\u30e1+10%",
        "P_SUMMONER_ID": "1",
        "H1in4zvb": "0",
        "P_DISPORDER": "9",
        "0KY1RXMA": "book_gold.png",
        "yTPw0BD7": "book_decoration_n_battle.png",
        "21VKZo0E": "",
        "P_SCHEDULE_ID": "0",
        "P_NEED_SWITCH_INFO": "80061009",
        "P_HIDE_SWITCH_INFO": "0",
        "P_OPEN_SWITCH_INFO": "0",
        "P_NEW_SWITCH_INFO": "81000104",
        "P_CREATEDATE": "2018-02-12 16:01:26",
        "P_UPDATEDATE": "2018-02-12 16:01:26"
    },
    {
        "P_BOOK_ID": "80001000",
        "2xiKY8E3": "80000000",
        "P_NAME": "\u30c0\u30a4\u30e4\u2160",
        "P_SUMMONER_ID": "1",
        "H1in4zvb": "0",
        "P_DISPORDER": "10",
        "0KY1RXMA": "book_gold.png",
        "yTPw0BD7": "book_decoration_n_battle.png",
        "21VKZo0E": "",
        "P_SCHEDULE_ID": "0",
        "P_NEED_SWITCH_INFO": "80061009",
        "P_HIDE_SWITCH_INFO": "0",
        "P_OPEN_SWITCH_INFO": "0",
        "P_NEW_SWITCH_INFO": "81000105",
        "P_CREATEDATE": "2018-02-12 16:01:26",
        "P_UPDATEDATE": "2018-02-12 16:01:26"
    },
    {
        "P_BOOK_ID": "80001100",
        "2xiKY8E3": "80000000",
        "P_NAME": "\u30c0\u30a4\u30e4\u2161",
        "P_SUMMONER_ID": "1",
        "H1in4zvb": "0",
        "P_DISPORDER": "11",
        "0KY1RXMA": "book_gold.png",
        "yTPw0BD7": "book_decoration_n_battle.png",
        "21VKZo0E": "",
        "P_SCHEDULE_ID": "0",
        "P_NEED_SWITCH_INFO": "80061009",
        "P_HIDE_SWITCH_INFO": "0",
        "P_OPEN_SWITCH_INFO": "0",
        "P_NEW_SWITCH_INFO": "81000106",
        "P_CREATEDATE": "2018-02-12 16:01:26",
        "P_UPDATEDATE": "2018-02-12 16:01:26"
    },
    {
        "P_BOOK_ID": "80001200",
        "2xiKY8E3": "80000000",
        "P_NAME": "\u30c0\u30a4\u30e4\u2162",
        "P_SUMMONER_ID": "1",
        "H1in4zvb": "0",
        "P_DISPORDER": "12",
        "0KY1RXMA": "book_gold.png",
        "yTPw0BD7": "book_decoration_n_battle.png",
        "21VKZo0E": "",
        "P_SCHEDULE_ID": "0",
        "P_NEED_SWITCH_INFO": "80061009",
        "P_HIDE_SWITCH_INFO": "0",
        "P_OPEN_SWITCH_INFO": "0",
        "P_NEW_SWITCH_INFO": "81000107",
        "P_CREATEDATE": "2018-02-12 16:01:26",
        "P_UPDATEDATE": "2018-02-12 16:01:26"
    },
    {
        "P_BOOK_ID": "80001300",
        "2xiKY8E3": "80000000",
        "P_NAME": "\u521d\u7d1a\u7d20\u6750\u2160",
        "P_SUMMONER_ID": "1",
        "H1in4zvb": "0",
        "P_DISPORDER": "13",
        "0KY1RXMA": "book_gold.png",
        "yTPw0BD7": "book_decoration_n_battle.png",
        "21VKZo0E": "",
        "P_SCHEDULE_ID": "0",
        "P_NEED_SWITCH_INFO": "80061009",
        "P_HIDE_SWITCH_INFO": "0",
        "P_OPEN_SWITCH_INFO": "0",
        "P_NEW_SWITCH_INFO": "81000108",
        "P_CREATEDATE": "2018-02-12 16:01:26",
        "P_UPDATEDATE": "2018-02-12 16:01:26"
    },
    {
        "P_BOOK_ID": "80001400",
        "2xiKY8E3": "80000000",
        "P_NAME": "\u521d\u7d1a\u7d20\u6750\u2161",
        "P_SUMMONER_ID": "1",
        "H1in4zvb": "0",
        "P_DISPORDER": "14",
        "0KY1RXMA": "book_gold.png",
        "yTPw0BD7": "book_decoration_n_battle.png",
        "21VKZo0E": "",
        "P_SCHEDULE_ID": "0",
        "P_NEED_SWITCH_INFO": "80061009",
        "P_HIDE_SWITCH_INFO": "0",
        "P_OPEN_SWITCH_INFO": "0",
        "P_NEW_SWITCH_INFO": "81000109",
        "P_CREATEDATE": "2018-02-12 16:01:26",
        "P_UPDATEDATE": "2018-02-12 16:01:26"
    },
    {
        "P_BOOK_ID": "80001500",
        "2xiKY8E3": "80000000",
        "P_NAME": "\u4e2d\u7d1a\u7d20\u6750\u2160",
        "P_SUMMONER_ID": "1",
        "H1in4zvb": "0",
        "P_DISPORDER": "15",
        "0KY1RXMA": "book_gold.png",
        "yTPw0BD7": "book_decoration_n_battle.png",
        "21VKZo0E": "",
        "P_SCHEDULE_ID": "0",
        "P_NEED_SWITCH_INFO": "80061009",
        "P_HIDE_SWITCH_INFO": "0",
        "P_OPEN_SWITCH_INFO": "0",
        "P_NEW_SWITCH_INFO": "81000110",
        "P_CREATEDATE": "2018-02-12 16:01:26",
        "P_UPDATEDATE": "2018-02-12 16:01:26"
    },
    {
        "P_BOOK_ID": "80001600",
        "2xiKY8E3": "80000000",
        "P_NAME": "\u4e2d\u7d1a\u7d20\u6750\u2161",
        "P_SUMMONER_ID": "1",
        "H1in4zvb": "0",
        "P_DISPORDER": "16",
        "0KY1RXMA": "book_gold.png",
        "yTPw0BD7": "book_decoration_n_battle.png",
        "21VKZo0E": "",
        "P_SCHEDULE_ID": "0",
        "P_NEED_SWITCH_INFO": "80061009",
        "P_HIDE_SWITCH_INFO": "0",
        "P_OPEN_SWITCH_INFO": "0",
        "P_NEW_SWITCH_INFO": "81000111",
        "P_CREATEDATE": "2018-02-12 16:01:26",
        "P_UPDATEDATE": "2018-02-12 16:01:26"
    },
    {
        "P_BOOK_ID": "80001700",
        "2xiKY8E3": "80000000",
        "P_NAME": "\u4e0a\u7d1a\u7d20\u6750\u2160",
        "P_SUMMONER_ID": "1",
        "H1in4zvb": "0",
        "P_DISPORDER": "17",
        "0KY1RXMA": "book_gold.png",
        "yTPw0BD7": "book_decoration_n_battle.png",
        "21VKZo0E": "",
        "P_SCHEDULE_ID": "0",
        "P_NEED_SWITCH_INFO": "80061009",
        "P_HIDE_SWITCH_INFO": "0",
        "P_OPEN_SWITCH_INFO": "0",
        "P_NEW_SWITCH_INFO": "81000112",
        "P_CREATEDATE": "2018-02-12 16:01:26",
        "P_UPDATEDATE": "2018-02-12 16:01:26"
    },
    {
        "P_BOOK_ID": "80001800",
        "2xiKY8E3": "80000000",
        "P_NAME": "\u4e0a\u7d1a\u7d20\u6750\u2161",
        "P_SUMMONER_ID": "1",
        "H1in4zvb": "0",
        "P_DISPORDER": "18",
        "0KY1RXMA": "book_gold.png",
        "yTPw0BD7": "book_decoration_n_battle.png",
        "21VKZo0E": "",
        "P_SCHEDULE_ID": "0",
        "P_NEED_SWITCH_INFO": "80061009",
        "P_HIDE_SWITCH_INFO": "0",
        "P_OPEN_SWITCH_INFO": "0",
        "P_NEW_SWITCH_INFO": "81000113",
        "P_CREATEDATE": "2018-02-12 16:01:26",
        "P_UPDATEDATE": "2018-02-12 16:01:26"
    },
    {
        "P_BOOK_ID": "80001900",
        "2xiKY8E3": "80000000",
        "P_NAME": "\u6b66\u5668\u7d20\u6750\u2160",
        "P_SUMMONER_ID": "1",
        "H1in4zvb": "0",
        "P_DISPORDER": "19",
        "0KY1RXMA": "book_gold.png",
        "yTPw0BD7": "book_decoration_n_battle.png",
        "21VKZo0E": "",
        "P_SCHEDULE_ID": "0",
        "P_NEED_SWITCH_INFO": "80061009",
        "P_HIDE_SWITCH_INFO": "0",
        "P_OPEN_SWITCH_INFO": "0",
        "P_NEW_SWITCH_INFO": "81000114",
        "P_CREATEDATE": "2018-02-12 16:01:26",
        "P_UPDATEDATE": "2018-02-12 16:01:26"
    },
    {
        "P_BOOK_ID": "80002000",
        "2xiKY8E3": "80000000",
        "P_NAME": "\u6b66\u5668\u7d20\u6750\u2161",
        "P_SUMMONER_ID": "1",
        "H1in4zvb": "0",
        "P_DISPORDER": "20",
        "0KY1RXMA": "book_gold.png",
        "yTPw0BD7": "book_decoration_n_battle.png",
        "21VKZo0E": "",
        "P_SCHEDULE_ID": "0",
        "P_NEED_SWITCH_INFO": "80061009",
        "P_HIDE_SWITCH_INFO": "0",
        "P_OPEN_SWITCH_INFO": "0",
        "P_NEW_SWITCH_INFO": "81000115",
        "P_CREATEDATE": "2018-02-12 16:01:26",
        "P_UPDATEDATE": "2018-02-12 16:01:26"
    },
    {
        "P_BOOK_ID": "80002100",
        "2xiKY8E3": "80000000",
        "P_NAME": "\u6b66\u5668\u7d20\u6750\u2162",
        "P_SUMMONER_ID": "1",
        "H1in4zvb": "0",
        "P_DISPORDER": "21",
        "0KY1RXMA": "book_gold.png",
        "yTPw0BD7": "book_decoration_n_battle.png",
        "21VKZo0E": "",
        "P_SCHEDULE_ID": "0",
        "P_NEED_SWITCH_INFO": "80061009",
        "P_HIDE_SWITCH_INFO": "0",
        "P_OPEN_SWITCH_INFO": "0",
        "P_NEW_SWITCH_INFO": "81000116",
        "P_CREATEDATE": "2018-02-12 16:01:26",
        "P_UPDATEDATE": "2018-02-12 16:01:26"
    },
    {
        "P_BOOK_ID": "80002200",
        "2xiKY8E3": "80000000",
        "P_NAME": "\u30e1\u30bf\u30eb\u2160",
        "P_SUMMONER_ID": "1",
        "H1in4zvb": "0",
        "P_DISPORDER": "22",
        "0KY1RXMA": "book_gold.png",
        "yTPw0BD7": "book_decoration_n_battle.png",
        "21VKZo0E": "",
        "P_SCHEDULE_ID": "0",
        "P_NEED_SWITCH_INFO": "80061009",
        "P_HIDE_SWITCH_INFO": "0",
        "P_OPEN_SWITCH_INFO": "0",
        "P_NEW_SWITCH_INFO": "81000117",
        "P_CREATEDATE": "2018-02-12 16:01:26",
        "P_UPDATEDATE": "2018-02-12 16:01:26"
    },
    {
        "P_BOOK_ID": "80002300",
        "2xiKY8E3": "80000000",
        "P_NAME": "\u30e1\u30bf\u30eb\u2161",
        "P_SUMMONER_ID": "1",
        "H1in4zvb": "0",
        "P_DISPORDER": "23",
        "0KY1RXMA": "book_gold.png",
        "yTPw0BD7": "book_decoration_n_battle.png",
        "21VKZo0E": "",
        "P_SCHEDULE_ID": "0",
        "P_NEED_SWITCH_INFO": "80061009",
        "P_HIDE_SWITCH_INFO": "0",
        "P_OPEN_SWITCH_INFO": "0",
        "P_NEW_SWITCH_INFO": "81000118",
        "P_CREATEDATE": "2018-02-12 16:01:26",
        "P_UPDATEDATE": "2018-02-12 16:01:26"
    },
    {
        "P_BOOK_ID": "80002400",
        "2xiKY8E3": "80000000",
        "P_NAME": "\u30e1\u30bf\u30eb\u2162",
        "P_SUMMONER_ID": "1",
        "H1in4zvb": "0",
        "P_DISPORDER": "24",
        "0KY1RXMA": "book_gold.png",
        "yTPw0BD7": "book_decoration_n_battle.png",
        "21VKZo0E": "",
        "P_SCHEDULE_ID": "0",
        "P_NEED_SWITCH_INFO": "80061009",
        "P_HIDE_SWITCH_INFO": "0",
        "P_OPEN_SWITCH_INFO": "0",
        "P_NEW_SWITCH_INFO": "81000119",
        "P_CREATEDATE": "2018-02-12 16:01:26",
        "P_UPDATEDATE": "2018-02-12 16:01:26"
    },
    {
        "P_BOOK_ID": "80002500",
        "2xiKY8E3": "80000000",
        "P_NAME": "\u30b8\u30e5\u30a8\u30eb\u2160",
        "P_SUMMONER_ID": "1",
        "H1in4zvb": "0",
        "P_DISPORDER": "25",
        "0KY1RXMA": "book_gold.png",
        "yTPw0BD7": "book_decoration_n_battle.png",
        "21VKZo0E": "",
        "P_SCHEDULE_ID": "0",
        "P_NEED_SWITCH_INFO": "80061009",
        "P_HIDE_SWITCH_INFO": "0",
        "P_OPEN_SWITCH_INFO": "0",
        "P_NEW_SWITCH_INFO": "81000120",
        "P_CREATEDATE": "2018-02-12 16:01:26",
        "P_UPDATEDATE": "2018-02-12 16:01:26"
    },
    {
        "P_BOOK_ID": "80002600",
        "2xiKY8E3": "80000000",
        "P_NAME": "\u30b8\u30e5\u30a8\u30eb\u2161",
        "P_SUMMONER_ID": "1",
        "H1in4zvb": "0",
        "P_DISPORDER": "26",
        "0KY1RXMA": "book_gold.png",
        "yTPw0BD7": "book_decoration_n_battle.png",
        "21VKZo0E": "",
        "P_SCHEDULE_ID": "0",
        "P_NEED_SWITCH_INFO": "80061009",
        "P_HIDE_SWITCH_INFO": "0",
        "P_OPEN_SWITCH_INFO": "0",
        "P_NEW_SWITCH_INFO": "81000121",
        "P_CREATEDATE": "2018-02-12 16:01:26",
        "P_UPDATEDATE": "2018-02-12 16:01:26"
    },
    {
        "P_BOOK_ID": "80002700",
        "2xiKY8E3": "80000000",
        "P_NAME": "\u30b8\u30e5\u30a8\u30eb\u2162",
        "P_SUMMONER_ID": "1",
        "H1in4zvb": "0",
        "P_DISPORDER": "27",
        "0KY1RXMA": "book_gold.png",
        "yTPw0BD7": "book_decoration_n_battle.png",
        "21VKZo0E": "",
        "P_SCHEDULE_ID": "0",
        "P_NEED_SWITCH_INFO": "80061009",
        "P_HIDE_SWITCH_INFO": "0",
        "P_OPEN_SWITCH_INFO": "0",
        "P_NEW_SWITCH_INFO": "81000122",
        "P_CREATEDATE": "2018-02-12 16:01:26",
        "P_UPDATEDATE": "2018-02-12 16:01:26"
    },
    {
        "P_BOOK_ID": "80002800",
        "2xiKY8E3": "80000000",
        "P_NAME": "\u30d0\u30fc\u30b9\u30c8\u2160",
        "P_SUMMONER_ID": "1",
        "H1in4zvb": "0",
        "P_DISPORDER": "28",
        "0KY1RXMA": "book_gold.png",
        "yTPw0BD7": "book_decoration_n_battle.png",
        "21VKZo0E": "",
        "P_SCHEDULE_ID": "0",
        "P_NEED_SWITCH_INFO": "80061009",
        "P_HIDE_SWITCH_INFO": "0",
        "P_OPEN_SWITCH_INFO": "0",
        "P_NEW_SWITCH_INFO": "81000123",
        "P_CREATEDATE": "2018-02-12 16:01:26",
        "P_UPDATEDATE": "2018-02-12 16:01:26"
    },
    {
        "P_BOOK_ID": "80002900",
        "2xiKY8E3": "80000000",
        "P_NAME": "\u30d0\u30fc\u30b9\u30c8\u2161",
        "P_SUMMONER_ID": "1",
        "H1in4zvb": "0",
        "P_DISPORDER": "29",
        "0KY1RXMA": "book_gold.png",
        "yTPw0BD7": "book_decoration_n_battle.png",
        "21VKZo0E": "",
        "P_SCHEDULE_ID": "0",
        "P_NEED_SWITCH_INFO": "80061009",
        "P_HIDE_SWITCH_INFO": "0",
        "P_OPEN_SWITCH_INFO": "0",
        "P_NEW_SWITCH_INFO": "81000124",
        "P_CREATEDATE": "2018-02-12 16:01:26",
        "P_UPDATEDATE": "2018-02-12 16:01:26"
    },
    {
        "P_BOOK_ID": "80003000",
        "2xiKY8E3": "80000000",
        "P_NAME": "\u30d0\u30fc\u30b9\u30c8\u2162",
        "P_SUMMONER_ID": "1",
        "H1in4zvb": "0",
        "P_DISPORDER": "30",
        "0KY1RXMA": "book_gold.png",
        "yTPw0BD7": "book_decoration_n_battle.png",
        "21VKZo0E": "",
        "P_SCHEDULE_ID": "0",
        "P_NEED_SWITCH_INFO": "80061009",
        "P_HIDE_SWITCH_INFO": "0",
        "P_OPEN_SWITCH_INFO": "0",
        "P_NEW_SWITCH_INFO": "81000125",
        "P_CREATEDATE": "2018-02-12 16:01:26",
        "P_UPDATEDATE": "2018-02-12 16:01:26"
    }
]