[
    {
        "P_ARMS_ID": "100102",
        "P_DICTIONARY": "\u30d5\u30a3\u30eb\u30a2\u30fc\u30e0\u9a0e\u58eb\u56e3\u3067\u4f7f\u7528\u3055\u308c\u3066\u3044\u308b\u9577\u5263\u3002\n\u30bb\u30eb\u30bf\u30d3\u30a2\u306e\u706b\u5c71\u306b\u68f2\u3080\u708e\u306e\u7cbe\u970a\u306e\u52a0\u8b77\u3092\u53d7\u3051\u3066\u9020\u3089\u308c\u3066\u304a\u308a\u3001\u5200\u8eab\u306b\u7cbe\u970a\u306e\u529b\u3092\u5bbf\u3057\u3066\u3044\u308b\u3002\u632f\u308a\u629c\u304f\u969b\u306b\u5200\u8eab\u304b\u3089\u708e\u3092\u653e\u3064\u6027\u8cea\u304c\u3042\u308a\u3001\u9ad8\u71b1\u306b\u3088\u3063\u3066\u6575\u306e\u8eab\u4f53\u3092\u707c\u304d\u65ac\u308b\u3053\u3068\u3067\u901a\u5e38\u306e\u5263\u3088\u308a\u3082\u624b\u75db\u3044\u50b7\u3092\u4e0e\u3048\u308b\u3053\u3068\u304c\u53ef\u80fd\u3068\u306a\u3063\u3066\u3044\u308b\u3002\u65ac\u308c\u5473\u3068\u6271\u3044\u3084\u3059\u3055\u306b\u91cd\u70b9\u304c\u7f6e\u304b\u308c\u3066\u304a\u308a\u3001\u65b0\u4eba\u306e\u5b9f\u6226\u8a13\u7df4\u3067\u591a\u304f\u4f7f\u7528\u3055\u308c\u3066\u3044\u308b\u3002\u521d\u7d1a\u8005\u7528\u306e\u6b66\u5668\u3067\u306f\u3042\u308b\u304c\u3001\u73fe\u5f79\u306e\u9a0e\u58eb\u306e\u4e2d\u306b\u3082\u611b\u7528\u8005\u306f\u591a\u3044\u3088\u3046\u3060\u3002",
        "P_EXPLAIN_SHORT": "",
        "P_COMMENT_MIX": "",
        "P_COMMENT_EVO": "",
        "P_COMMENT_GETTABLE": "",
        "P_CREATEDATE": "2018-02-02 19:30:14",
        "P_UPDATEDATE": "2018-02-02 19:30:14"
    },
    {
        "P_ARMS_ID": "100113",
        "P_DICTIONARY": "\u30d5\u30a3\u30eb\u30a2\u30fc\u30e0\u9a0e\u58eb\u56e3\u3067\u4f7f\u7528\u3055\u308c\u3066\u3044\u308b\u9577\u5263\u3002\n\u30bb\u30eb\u30bf\u30d3\u30a2\u306e\u706b\u5c71\u306b\u68f2\u3080\u708e\u306e\u7cbe\u970a\u306e\u52a0\u8b77\u3092\u53d7\u3051\u3066\u9020\u3089\u308c\u3066\u304a\u308a\u3001\u5200\u8eab\u306b\u7cbe\u970a\u306e\u529b\u3092\u5bbf\u3057\u3066\u3044\u308b\u3002\u632f\u308a\u629c\u304f\u969b\u306b\u5200\u8eab\u304b\u3089\u708e\u3092\u653e\u3064\u6027\u8cea\u304c\u3042\u308a\u3001\u9ad8\u71b1\u306b\u3088\u3063\u3066\u6575\u306e\u8eab\u4f53\u3092\u707c\u304d\u65ac\u308b\u3053\u3068\u3067\u901a\u5e38\u306e\u5263\u3088\u308a\u3082\u624b\u75db\u3044\u50b7\u3092\u4e0e\u3048\u308b\u3053\u3068\u304c\u53ef\u80fd\u3068\u306a\u3063\u3066\u3044\u308b\u3002\u65ac\u308c\u5473\u3068\u6271\u3044\u3084\u3059\u3055\u306b\u91cd\u70b9\u304c\u7f6e\u304b\u308c\u3066\u304a\u308a\u3001\u65b0\u4eba\u306e\u5b9f\u6226\u8a13\u7df4\u3067\u591a\u304f\u4f7f\u7528\u3055\u308c\u3066\u3044\u308b\u3002\u521d\u7d1a\u8005\u7528\u306e\u6b66\u5668\u3067\u306f\u3042\u308b\u304c\u3001\u73fe\u5f79\u306e\u9a0e\u58eb\u306e\u4e2d\u306b\u3082\u611b\u7528\u8005\u306f\u591a\u3044\u3088\u3046\u3060\u3002",
        "P_EXPLAIN_SHORT": "",
        "P_COMMENT_MIX": "",
        "P_COMMENT_EVO": "",
        "P_COMMENT_GETTABLE": "",
        "P_CREATEDATE": "2018-02-02 19:30:14",
        "P_UPDATEDATE": "2018-02-02 19:30:14"
    },
    {
        "P_ARMS_ID": "100124",
        "P_DICTIONARY": "\u30d5\u30a3\u30eb\u30a2\u30fc\u30e0\u9a0e\u58eb\u56e3\u3067\u4f7f\u7528\u3055\u308c\u3066\u3044\u308b\u9577\u5263\u3002\n\u30bb\u30eb\u30bf\u30d3\u30a2\u306e\u706b\u5c71\u306b\u68f2\u3080\u708e\u306e\u7cbe\u970a\u306e\u52a0\u8b77\u3092\u53d7\u3051\u3066\u9020\u3089\u308c\u3066\u304a\u308a\u3001\u5200\u8eab\u306b\u7cbe\u970a\u306e\u529b\u3092\u5bbf\u3057\u3066\u3044\u308b\u3002\u632f\u308a\u629c\u304f\u969b\u306b\u5200\u8eab\u304b\u3089\u708e\u3092\u653e\u3064\u6027\u8cea\u304c\u3042\u308a\u3001\u9ad8\u71b1\u306b\u3088\u3063\u3066\u6575\u306e\u8eab\u4f53\u3092\u707c\u304d\u65ac\u308b\u3053\u3068\u3067\u901a\u5e38\u306e\u5263\u3088\u308a\u3082\u624b\u75db\u3044\u50b7\u3092\u4e0e\u3048\u308b\u3053\u3068\u304c\u53ef\u80fd\u3068\u306a\u3063\u3066\u3044\u308b\u3002\u65ac\u308c\u5473\u3068\u6271\u3044\u3084\u3059\u3055\u306b\u91cd\u70b9\u304c\u7f6e\u304b\u308c\u3066\u304a\u308a\u3001\u65b0\u4eba\u306e\u5b9f\u6226\u8a13\u7df4\u3067\u591a\u304f\u4f7f\u7528\u3055\u308c\u3066\u3044\u308b\u3002\u521d\u7d1a\u8005\u7528\u306e\u6b66\u5668\u3067\u306f\u3042\u308b\u304c\u3001\u73fe\u5f79\u306e\u9a0e\u58eb\u306e\u4e2d\u306b\u3082\u611b\u7528\u8005\u306f\u591a\u3044\u3088\u3046\u3060\u3002",
        "P_EXPLAIN_SHORT": "",
        "P_COMMENT_MIX": "",
        "P_COMMENT_EVO": "",
        "P_COMMENT_GETTABLE": "",
        "P_CREATEDATE": "2018-02-02 19:30:15",
        "P_UPDATEDATE": "2018-02-02 19:30:15"
    },
    {
        "P_ARMS_ID": "100214",
        "P_DICTIONARY": "\u30d0\u30ea\u30a6\u30e9\u306b\u7720\u3063\u3066\u3044\u305f\u9b54\u529b\u3092\u5e2f\u3073\u305f\u5927\u938c\u3002\n\u7687\u5973\u306e\u89aa\u885b\u9b54\u5c0e\u5e2b\u3089\u306b\u914d\u5099\u3055\u308c\u3066\u3044\u305f\u3068\u3055\u308c\u308b\u3002\u546a\u6cd5\u306b\u3088\u308a\u5203\u3092\u7a81\u304d\u5165\u308c\u305f\u5bfe\u8c61\u3092\u4f53\u306e\u5185\u5074\u304b\u3089\u713c\u304d\u5c3d\u304f\u3059\u529b\u3092\u6301\u3064\u305f\u3081\u3001\u305d\u306e\u5203\u304c\u6575\u3092\u6349\u3048\u308c\u3070\u6700\u5f8c\u3001\u3053\u306e\u30a2\u30eb\u30ac\u30fb\u30de\u30bf\u306e\u524d\u3067\u306f\u3042\u3089\u3086\u308b\u88c5\u7532\u306f\u610f\u5473\u3092\u306a\u3055\u306a\u304f\u306a\u308b\u3068\u3044\u3046\u3002\u3060\u304c\u3001\u305d\u306e\u708e\u306f\u81ea\u8eab\u306e\u751f\u547d\u529b\u3092\u7121\u5236\u9650\u306b\u9b54\u529b\u306b\u8ee2\u63db\u3059\u308b\u3053\u3068\u3067\u5f97\u3089\u308c\u308b\u529b\u3067\u3042\u308a\u3001\u9b54\u529b\u306e\u5236\u5fa1\u3092\u5fc3\u5f97\u306c\u8005\u304c\u6271\u3048\u3070\u3001\u305d\u306e\u708e\u306f\u3001\u6700\u5f8c\u306b\u306f\u81ea\u5206\u81ea\u8eab\u3092\u3082\u713c\u304d\u5c3d\u304f\u3057\u3066\u3057\u307e\u3046\u3002",
        "P_EXPLAIN_SHORT": "",
        "P_COMMENT_MIX": "",
        "P_COMMENT_EVO": "",
        "P_COMMENT_GETTABLE": "",
        "P_CREATEDATE": "2018-02-02 19:30:15",
        "P_UPDATEDATE": "2018-02-02 19:30:15"
    },
    {
        "P_ARMS_ID": "100313",
        "P_DICTIONARY": "\u30a2\u30b0\u30cb\u5e1d\u56fd\u304c\u9060\u304f\u30c8\u30eb\u30c6\u30a3\u30a2\u6b66\u82b8\u9662\u304b\u3089\u4fee\u7df4\u8005\u3092\u62db\u3044\u3066\u4f5c\u3063\u305f\u3068\u3055\u308c\u308b\u68cd\u3002\n\u5909\u5e7b\u81ea\u5728\u306e\u8907\u96d1\u306a\u653b\u6483\u306b\u3088\u3063\u3066\u6575\u3092\u7ffb\u5f04\u3059\u308b\u6b66\u5668\u3067\u3001\u5358\u306a\u308b\u5947\u5999\u306a\u6b66\u5668\u3068\u5632\u7b11\u3063\u305f\u8005\u305f\u3061\u3082\u3001\u305d\u306e\u591a\u304f\u306f\u81ea\u3089\u306e\u6557\u5317\u306b\u3088\u3063\u3066\u81ea\u3089\u306e\u4e0d\u660e\u3092\u6065\u3058\u308b\u3053\u3068\u3068\u306a\u3063\u305f\u3002\u3082\u3063\u3071\u3089\u9a0e\u58eb\u968e\u7d1a\u4ee5\u5916\u3067\u767a\u5c55\u3057\u305f\u3053\u3068\u304b\u3089\u666e\u53ca\u306f\u9650\u5b9a\u7684\u3067\u3042\u3063\u305f\u3088\u3046\u3067\u3001\u540c\u6642\u4ee3\u306e\u8cc7\u6599\u306f\u5c11\u306a\u3044\u3082\u306e\u306e\u3001\u4fee\u7df4\u8005\u3089\u306f\u81ea\u3089\u306e\u751f\u547d\u529b\u3092\u5236\u5fa1\u3059\u308b\u8853\u306b\u9577\u3051\u3066\u3044\u305f\u3053\u3068\u304c\u793a\u5506\u3055\u308c\u3066\u3044\u308b\u3002",
        "P_EXPLAIN_SHORT": "",
        "P_COMMENT_MIX": "",
        "P_COMMENT_EVO": "",
        "P_COMMENT_GETTABLE": "",
        "P_CREATEDATE": "2018-02-02 19:30:15",
        "P_UPDATEDATE": "2018-02-02 19:30:15"
    },
    {
        "P_ARMS_ID": "100314",
        "P_DICTIONARY": "\u30a2\u30b0\u30cb\u5e1d\u56fd\u304c\u9060\u304f\u30c8\u30eb\u30c6\u30a3\u30a2\u6b66\u82b8\u9662\u304b\u3089\u4fee\u7df4\u8005\u3092\u62db\u3044\u3066\u4f5c\u3063\u305f\u3068\u3055\u308c\u308b\u68cd\u3002\n\u5909\u5e7b\u81ea\u5728\u306e\u8907\u96d1\u306a\u653b\u6483\u306b\u3088\u3063\u3066\u6575\u3092\u7ffb\u5f04\u3059\u308b\u6b66\u5668\u3067\u3001\u5358\u306a\u308b\u5947\u5999\u306a\u6b66\u5668\u3068\u5632\u7b11\u3063\u305f\u8005\u305f\u3061\u3082\u3001\u305d\u306e\u591a\u304f\u306f\u81ea\u3089\u306e\u6557\u5317\u306b\u3088\u3063\u3066\u81ea\u3089\u306e\u4e0d\u660e\u3092\u6065\u3058\u308b\u3053\u3068\u3068\u306a\u3063\u305f\u3002\u3082\u3063\u3071\u3089\u9a0e\u58eb\u968e\u7d1a\u4ee5\u5916\u3067\u767a\u5c55\u3057\u305f\u3053\u3068\u304b\u3089\u666e\u53ca\u306f\u9650\u5b9a\u7684\u3067\u3042\u3063\u305f\u3088\u3046\u3067\u3001\u540c\u6642\u4ee3\u306e\u8cc7\u6599\u306f\u5c11\u306a\u3044\u3082\u306e\u306e\u3001\u4fee\u7df4\u8005\u3089\u306f\u81ea\u3089\u306e\u751f\u547d\u529b\u3092\u5236\u5fa1\u3059\u308b\u8853\u306b\u9577\u3051\u3066\u3044\u305f\u3053\u3068\u304c\u793a\u5506\u3055\u308c\u3066\u3044\u308b\u3002",
        "P_EXPLAIN_SHORT": "",
        "P_COMMENT_MIX": "",
        "P_COMMENT_EVO": "",
        "P_COMMENT_GETTABLE": "",
        "P_CREATEDATE": "2018-02-02 19:30:15",
        "P_UPDATEDATE": "2018-02-02 19:30:15"
    },
    {
        "P_ARMS_ID": "200164",
        "P_DICTIONARY": "\u69cd\u3068\u76fe\u3001\u93a7\u307e\u3067\u3082\u63c3\u3048\u305f\u91cd\u9a0e\u58eb\u7528\u306e\u88c5\u5099\u3002\n\u30e9\u30fb\u30f4\u30a7\u30fc\u30c0\u306e\u9a0e\u58eb\u305f\u3061\u304c\u88c5\u5099\u3057\u305f\u3066\u3044\u305f\u3068\u4f1d\u308f\u308b\u4e00\u5f0f\u3067\u3001\u6c34\u7cbe\u970a\u306e\u52a0\u8b77\u304c\u6388\u3051\u3089\u308c\u3066\u3044\u308b\u3002\u88c5\u5099\u8005\u306e\u751f\u547d\u529b\u3092\u9ad8\u3081\u3001\u6c34\u306e\u969c\u58c1\u306b\u3088\u3063\u3066\u9b54\u529b\u3092\u906e\u65ad\u3059\u308b\u529b\u3092\u6301\u3064\u3002\u6e26\u5dfb\u304f\u6575\u306e\u653b\u6483\u3092\u3082\u306e\u3068\u3082\u305b\u305a\u524d\u9032\u3057\u3001\u6700\u524d\u5217\u306b\u9032\u307f\u51fa\u3066\u6c34\u306e\u969c\u58c1\u3092\u5c55\u958b\u3059\u308b\u3053\u3068\u3067\u5473\u65b9\u5168\u4f53\u3092\u6575\u306e\u9b54\u6cd5\u653b\u6483\u304b\u3089\u5b88\u308b\u3053\u3068\u304c\u3067\u304d\u308b\u3002\u305d\u306e\u305f\u3081\u3001\u3053\u306e\u88c5\u5099\u306e\u771f\u4fa1\u3092\u767a\u63ee\u3059\u308b\u305f\u3081\u306b\u306f\u3001\u4f55\u3088\u308a\u3082\u307e\u305a\u88c5\u5099\u8005\u81ea\u8eab\u306e\u52c7\u6c17\u304c\u6c42\u3081\u3089\u308c\u308b\u3068\u3044\u3046\u3002",
        "P_EXPLAIN_SHORT": "",
        "P_COMMENT_MIX": "",
        "P_COMMENT_EVO": "",
        "P_COMMENT_GETTABLE": "",
        "P_CREATEDATE": "2018-02-02 19:30:15",
        "P_UPDATEDATE": "2018-02-02 19:30:15"
    },
    {
        "P_ARMS_ID": "200172",
        "P_DICTIONARY": "\u7fa9\u52c7\u3068\u63a2\u7a76\u5fc3\u3092\u53f8\u308b\u795e\u3092\u8b83\u3048\u305f\u3068\u3055\u308c\u308b\u6756\u3002\n\u304b\u3064\u3066\u306e\u30b5\u30fc\u30de\u738b\u56fd\u3067\u306f\u8239\u56e3\u304c\u91cd\u8981\u306a\u822a\u6d77\u306b\u51fa\u767a\u3059\u308b\u969b\u306a\u3069\u306b\u3001\u795e\u5b98\u304c\u3053\u306e\u6756\u3092\u5929\u306b\u304b\u3056\u3057\u3066\u5b89\u5168\u3092\u7948\u9858\u3059\u308b\u5100\u5f0f\u3092\u884c\u3063\u305f\u3068\u3044\u3046\u3002\u795e\u306e\u795d\u798f\u3092\u53d7\u3051\u305f\u8239\u54e1\u305f\u3061\u306f\u3001\u884c\u304f\u5148\u306b\u3069\u306e\u3088\u3046\u306a\u56f0\u96e3\u304c\u5f85\u3061\u53d7\u3051\u3066\u3044\u3088\u3046\u3068\u3082\u4e0d\u601d\u8b70\u3068\u5fc3\u6298\u308c\u308b\u3053\u3068\u306a\u304f\u3001\u7acb\u3061\u5411\u304b\u3046\u52c7\u6c17\u3092\u62b1\u304d\u7d9a\u3051\u308b\u3053\u3068\u304c\u3067\u304d\u305f\u3068\u3055\u308c\u3066\u3044\u308b\u3002\u305d\u306e\u305f\u3081\u30b5\u30fc\u30de\u8239\u8236\u306e\u8239\u9996\u50cf\u306b\u306f\u3001\u3053\u306e\u6756\u306e\u5f62\u72b6\u3092\u6a21\u3057\u305f\u3082\u306e\u304c\u6570\u591a\u304f\u4f5c\u3089\u308c\u305f\u3068\u3044\u3046\u3002",
        "P_EXPLAIN_SHORT": "",
        "P_COMMENT_MIX": "",
        "P_COMMENT_EVO": "",
        "P_COMMENT_GETTABLE": "",
        "P_CREATEDATE": "2018-02-02 19:30:15",
        "P_UPDATEDATE": "2018-02-02 19:30:15"
    },
    {
        "P_ARMS_ID": "200173",
        "P_DICTIONARY": "\u7fa9\u52c7\u3068\u63a2\u7a76\u5fc3\u3092\u53f8\u308b\u795e\u3092\u8b83\u3048\u305f\u3068\u3055\u308c\u308b\u6756\u3002\n\u304b\u3064\u3066\u306e\u30b5\u30fc\u30de\u738b\u56fd\u3067\u306f\u8239\u56e3\u304c\u91cd\u8981\u306a\u822a\u6d77\u306b\u51fa\u767a\u3059\u308b\u969b\u306a\u3069\u306b\u3001\u795e\u5b98\u304c\u3053\u306e\u6756\u3092\u5929\u306b\u304b\u3056\u3057\u3066\u5b89\u5168\u3092\u7948\u9858\u3059\u308b\u5100\u5f0f\u3092\u884c\u3063\u305f\u3068\u3044\u3046\u3002\u795e\u306e\u795d\u798f\u3092\u53d7\u3051\u305f\u8239\u54e1\u305f\u3061\u306f\u3001\u884c\u304f\u5148\u306b\u3069\u306e\u3088\u3046\u306a\u56f0\u96e3\u304c\u5f85\u3061\u53d7\u3051\u3066\u3044\u3088\u3046\u3068\u3082\u4e0d\u601d\u8b70\u3068\u5fc3\u6298\u308c\u308b\u3053\u3068\u306a\u304f\u3001\u7acb\u3061\u5411\u304b\u3046\u52c7\u6c17\u3092\u62b1\u304d\u7d9a\u3051\u308b\u3053\u3068\u304c\u3067\u304d\u305f\u3068\u3055\u308c\u3066\u3044\u308b\u3002\u305d\u306e\u305f\u3081\u30b5\u30fc\u30de\u8239\u8236\u306e\u8239\u9996\u50cf\u306b\u306f\u3001\u3053\u306e\u6756\u306e\u5f62\u72b6\u3092\u6a21\u3057\u305f\u3082\u306e\u304c\u6570\u591a\u304f\u4f5c\u3089\u308c\u305f\u3068\u3044\u3046\u3002",
        "P_EXPLAIN_SHORT": "",
        "P_COMMENT_MIX": "",
        "P_COMMENT_EVO": "",
        "P_COMMENT_GETTABLE": "",
        "P_CREATEDATE": "2018-02-02 19:30:15",
        "P_UPDATEDATE": "2018-02-02 19:30:15"
    },
    {
        "P_ARMS_ID": "200174",
        "P_DICTIONARY": "\u7fa9\u52c7\u3068\u63a2\u7a76\u5fc3\u3092\u53f8\u308b\u795e\u3092\u8b83\u3048\u305f\u3068\u3055\u308c\u308b\u6756\u3002\n\u304b\u3064\u3066\u306e\u30b5\u30fc\u30de\u738b\u56fd\u3067\u306f\u8239\u56e3\u304c\u91cd\u8981\u306a\u822a\u6d77\u306b\u51fa\u767a\u3059\u308b\u969b\u306a\u3069\u306b\u3001\u795e\u5b98\u304c\u3053\u306e\u6756\u3092\u5929\u306b\u304b\u3056\u3057\u3066\u5b89\u5168\u3092\u7948\u9858\u3059\u308b\u5100\u5f0f\u3092\u884c\u3063\u305f\u3068\u3044\u3046\u3002\u795e\u306e\u795d\u798f\u3092\u53d7\u3051\u305f\u8239\u54e1\u305f\u3061\u306f\u3001\u884c\u304f\u5148\u306b\u3069\u306e\u3088\u3046\u306a\u56f0\u96e3\u304c\u5f85\u3061\u53d7\u3051\u3066\u3044\u3088\u3046\u3068\u3082\u4e0d\u601d\u8b70\u3068\u5fc3\u6298\u308c\u308b\u3053\u3068\u306a\u304f\u3001\u7acb\u3061\u5411\u304b\u3046\u52c7\u6c17\u3092\u62b1\u304d\u7d9a\u3051\u308b\u3053\u3068\u304c\u3067\u304d\u305f\u3068\u3055\u308c\u3066\u3044\u308b\u3002\u305d\u306e\u305f\u3081\u30b5\u30fc\u30de\u8239\u8236\u306e\u8239\u9996\u50cf\u306b\u306f\u3001\u3053\u306e\u6756\u306e\u5f62\u72b6\u3092\u6a21\u3057\u305f\u3082\u306e\u304c\u6570\u591a\u304f\u4f5c\u3089\u308c\u305f\u3068\u3044\u3046\u3002",
        "P_EXPLAIN_SHORT": "",
        "P_COMMENT_MIX": "",
        "P_COMMENT_EVO": "",
        "P_COMMENT_GETTABLE": "",
        "P_CREATEDATE": "2018-02-02 19:30:15",
        "P_UPDATEDATE": "2018-02-02 19:30:15"
    },
    {
        "P_ARMS_ID": "200322",
        "P_DICTIONARY": "\u30a2\u30bf\u30eb\u30f4\u30a1\u5171\u548c\u56fd\u3067\u9020\u3089\u308c\u3066\u3044\u305f\u77ed\u5263\u3002\n\u9996\u90fd\u5468\u8fba\u306e\u8ca7\u6c11\u8857\u306b\u305d\u306e\u30eb\u30fc\u30c4\u3092\u6301\u3061\u3001\u8907\u96d1\u306b\u5165\u308a\u7d44\u3093\u3060\u5730\u5f62\u3067\u306e\u4e71\u6226\u3068\u95c7\u8a0e\u3061\u3092\u524d\u63d0\u3068\u3057\u3066\u4f5c\u3089\u308c\u3066\u3044\u308b\u3002\u4e0d\u8db3\u3059\u308b\u6bba\u50b7\u529b\u3092\u3001\u50b7\u53e3\u304b\u3089\u51b7\u6c17\u3092\u9001\u308a\u8fbc\u3093\u3067\u50b7\u53e3\u306e\u4f53\u7d44\u7e54\u3092\u7834\u58ca\u3059\u308b\u3053\u3068\u306b\u3088\u3063\u3066\u88dc\u3063\u3066\u3044\u308b\u3002\u4e00\u6483\u3067\u81f4\u547d\u50b7\u3092\u4e0e\u3048\u3046\u308b\u6b66\u5668\u3067\u306f\u306a\u3044\u305f\u3081\u3001\u6226\u3044\u3067\u306f\u5e38\u306b\u6575\u306e\u6a5f\u5148\u3092\u5236\u3059\u308b\u5fc5\u8981\u304c\u3042\u308a\u3001\u76f8\u624b\u304c\u614b\u52e2\u3092\u7acb\u3066\u76f4\u3059\u524d\u306b\u9593\u9aea\u5165\u308c\u305a\u7b2c\u4e8c\u6483\u3001\u7b2c\u4e09\u6483\u3092\u7e70\u308a\u51fa\u3055\u306a\u3051\u308c\u3070\u306a\u3089\u306a\u3044\u3068\u3055\u308c\u3066\u3044\u308b\u3002",
        "P_EXPLAIN_SHORT": "",
        "P_COMMENT_MIX": "",
        "P_COMMENT_EVO": "",
        "P_COMMENT_GETTABLE": "",
        "P_CREATEDATE": "2018-02-02 19:30:15",
        "P_UPDATEDATE": "2018-02-02 19:30:15"
    },
    {
        "P_ARMS_ID": "200323",
        "P_DICTIONARY": "\u30a2\u30bf\u30eb\u30f4\u30a1\u5171\u548c\u56fd\u3067\u9020\u3089\u308c\u3066\u3044\u305f\u77ed\u5263\u3002\n\u9996\u90fd\u5468\u8fba\u306e\u8ca7\u6c11\u8857\u306b\u305d\u306e\u30eb\u30fc\u30c4\u3092\u6301\u3061\u3001\u8907\u96d1\u306b\u5165\u308a\u7d44\u3093\u3060\u5730\u5f62\u3067\u306e\u4e71\u6226\u3068\u95c7\u8a0e\u3061\u3092\u524d\u63d0\u3068\u3057\u3066\u4f5c\u3089\u308c\u3066\u3044\u308b\u3002\u4e0d\u8db3\u3059\u308b\u6bba\u50b7\u529b\u3092\u3001\u50b7\u53e3\u304b\u3089\u51b7\u6c17\u3092\u9001\u308a\u8fbc\u3093\u3067\u50b7\u53e3\u306e\u4f53\u7d44\u7e54\u3092\u7834\u58ca\u3059\u308b\u3053\u3068\u306b\u3088\u3063\u3066\u88dc\u3063\u3066\u3044\u308b\u3002\u4e00\u6483\u3067\u81f4\u547d\u50b7\u3092\u4e0e\u3048\u3046\u308b\u6b66\u5668\u3067\u306f\u306a\u3044\u305f\u3081\u3001\u6226\u3044\u3067\u306f\u5e38\u306b\u6575\u306e\u6a5f\u5148\u3092\u5236\u3059\u308b\u5fc5\u8981\u304c\u3042\u308a\u3001\u76f8\u624b\u304c\u614b\u52e2\u3092\u7acb\u3066\u76f4\u3059\u524d\u306b\u9593\u9aea\u5165\u308c\u305a\u7b2c\u4e8c\u6483\u3001\u7b2c\u4e09\u6483\u3092\u7e70\u308a\u51fa\u3055\u306a\u3051\u308c\u3070\u306a\u3089\u306a\u3044\u3068\u3055\u308c\u3066\u3044\u308b\u3002",
        "P_EXPLAIN_SHORT": "",
        "P_COMMENT_MIX": "",
        "P_COMMENT_EVO": "",
        "P_COMMENT_GETTABLE": "",
        "P_CREATEDATE": "2018-02-02 19:30:15",
        "P_UPDATEDATE": "2018-02-02 19:30:15"
    },
    {
        "P_ARMS_ID": "200334",
        "P_DICTIONARY": "\u30a2\u30bf\u30eb\u30f4\u30a1\u5171\u548c\u56fd\u306b\u304a\u3044\u3066\u3001\u3068\u3042\u308b\u4f1d\u8aac\u7684\u306a\u6697\u6bba\u8005\u304c\u643a\u3048\u3066\u3044\u305f\u3068\u3055\u308c\u308b\u77ed\u5263\u3002\n\u4f1d\u627f\u306b\u3088\u308c\u3070\u3001\u6697\u6bba\u8005\u306f\u8e0a\u308a\u5b50\u306b\u626e\u3057\u3001\u77ed\u5263\u3092\u6c34\u3092\u64cd\u308b\u5c0f\u9053\u5177\u3068\u79f0\u3057\u3066\u6301\u3061\u8fbc\u3093\u3060\u3002\u591c\u306e\u6708\u660e\u304b\u308a\u306e\u4e2d\u3001\u5468\u56f2\u306b\u6c34\u3092\u6d6e\u304b\u3073\u4e0a\u304c\u3089\u305b\u3066\u821e\u3044\u8e0a\u308b\u305d\u306e\u59ff\u306b\u8ab0\u3082\u304c\u9b45\u4e86\u3055\u308c\u3001\u547d\u3092\u7d76\u305f\u308c\u3066\u3044\u3063\u305f\u3068\u3044\u3046\u3002\u5f7c\u5973\u306f\u95c7\u304b\u3089\u95c7\u3078\u59ff\u3092\u6d88\u3057\u3001\u4eca\u3068\u306a\u3063\u3066\u306f\u305d\u306e\u5b9f\u5728\u3092\u78ba\u304b\u3081\u308b\u8853\u3082\u306a\u304f\u306a\u308a\u3001\u305d\u306e\u5b58\u5728\u3092\u5f8c\u4e16\u306b\u4f1d\u3048\u308b\u306e\u306f\u3001\u3042\u3084\u3075\u3084\u306a\u4f1d\u627f\u3068\u3053\u306e\u77ed\u5263\u306e\u307f\u3067\u3042\u308b\u3002",
        "P_EXPLAIN_SHORT": "",
        "P_COMMENT_MIX": "",
        "P_COMMENT_EVO": "",
        "P_COMMENT_GETTABLE": "",
        "P_CREATEDATE": "2018-02-02 19:30:15",
        "P_UPDATEDATE": "2018-02-02 19:30:15"
    },
    {
        "P_ARMS_ID": "200404",
        "P_DICTIONARY": "\u30d5\u30a3\u30eb\u30a2\u30fc\u30e0\u306b\u4f1d\u308f\u308b\u4e00\u5bfe\u306e\u53cc\u65a7\u3002\n\u5927\u9678\u5168\u571f\u304c\u6226\u4e71\u306b\u5305\u307e\u308c\u305f\u6642\u4ee3\u3001\u3053\u306e\u53cc\u65a7\u3092\u643a\u3048\u3001\u76f8\u68d2\u3068\u5171\u306b\u6226\u5834\u3092\u99c6\u3051\u305f\u3068\u3042\u308b\u30f4\u30a1\u30a4\u30b6\u30fc\u304c\u3044\u305f\u3002\u84bc\u304d\u53cc\u65a7\u306e\u6b66\u540d\u306f\u5927\u9678\u5168\u571f\u306b\u9cf4\u308a\u97ff\u304d\u3001\u305d\u308c\u3092\u9065\u304b\u306b\u4e0a\u56de\u308b\u6028\u55df\u3092\u80cc\u8ca0\u3046\u3053\u3068\u3068\u306a\u308b\u3002\u3084\u304c\u3066\u30f4\u30a1\u30a4\u30b6\u30fc\u306f\u3001\u304b\u3064\u3066\u81ea\u3089\u304c\u8a0e\u3063\u305f\u6575\u306e\u907a\u5150\u306b\u3088\u3063\u3066\u30d1\u30fc\u30c8\u30ca\u30fc\u3092\u5931\u3044\u3001\u81ea\u3089\u306e\u529b\u3092\u65a7\u306b\u5c01\u3058\u3066\u96a0\u68f2\u3057\u305f\u3002\u53cc\u65a7\u304c\u767a\u898b\u3055\u308c\u305f\u907a\u8de1\u306b\u306f\u305f\u3063\u305f\u4e00\u8a00\u300c\u53cb\u3092\u5fd8\u308c\u308b\u306a\u300d\u3068\u3060\u3051\u8a18\u3055\u308c\u3066\u3044\u305f\u3068\u3044\u3046\u3002",
        "P_EXPLAIN_SHORT": "",
        "P_COMMENT_MIX": "",
        "P_COMMENT_EVO": "",
        "P_COMMENT_GETTABLE": "",
        "P_CREATEDATE": "2018-02-02 19:30:15",
        "P_UPDATEDATE": "2018-02-02 19:30:15"
    },
    {
        "P_ARMS_ID": "300142",
        "P_DICTIONARY": "\u30a2\u30af\u30e9\u30b9\u53ec\u559a\u9662\u306e\u958b\u767a\u5c40\u3067\u88fd\u9020\u3055\u308c\u3066\u3044\u308b\u3001\u9b54\u8853\u5e2b\u306e\u529b\u304c\u8fbc\u3081\u3089\u308c\u305f\u9577\u69cd\u3002\n\u9b54\u529b\u3092\u6301\u305f\u306a\u3044\u8005\u3067\u3082\u624b\u8efd\u306b\u6271\u3046\u3053\u3068\u304c\u3067\u304d\u3001\u53ec\u559a\u9662\u3067\u306f\u65b0\u7c73\u53ec\u559a\u5e2b\u306b\u7121\u511f\u3067\u652f\u7d66\u3055\u308c\u3066\u3044\u308b\u3002\u4e00\u7a81\u304d\u3092\u7e70\u308a\u51fa\u3057\u305f\u77ac\u9593\u3001\u5148\u7aef\u3092\u4e2d\u5fc3\u306b\u3057\u3066\u9b54\u529b\u306e\u9632\u5fa1\u58c1\u304c\u5f35\u3089\u308c\u308b\u4ed5\u7d44\u307f\u306b\u306a\u3063\u3066\u304a\u308a\u3001\u653b\u6483\u3068\u540c\u6642\u306b\u8eab\u3092\u5b88\u308b\u3053\u3068\u304c\u3067\u304d\u308b\u3002\u653b\u5b88\u306b\u512a\u308c\u305f\u6b66\u5668\u3068\u3057\u3066\u4eba\u6c17\u304c\u9ad8\u3044\u304c\u3001\u4ed6\u306e\u6b66\u5668\u3068\u6bd4\u3079\u3066\u5b89\u5168\u6027\u304c\u9ad8\u3044\u5206\u3001\u4f7f\u7528\u8005\u306f\u5e38\u306b\u6700\u524d\u7dda\u3067\u6226\u3046\u3053\u3068\u3092\u8981\u6c42\u3055\u308c\u308b\u3088\u3046\u3060\u3002",
        "P_EXPLAIN_SHORT": "",
        "P_COMMENT_MIX": "",
        "P_COMMENT_EVO": "",
        "P_COMMENT_GETTABLE": "",
        "P_CREATEDATE": "2018-02-02 19:30:15",
        "P_UPDATEDATE": "2018-02-02 19:30:15"
    },
    {
        "P_ARMS_ID": "300143",
        "P_DICTIONARY": "\u30a2\u30af\u30e9\u30b9\u53ec\u559a\u9662\u306e\u958b\u767a\u5c40\u3067\u88fd\u9020\u3055\u308c\u3066\u3044\u308b\u3001\u9b54\u8853\u5e2b\u306e\u529b\u304c\u8fbc\u3081\u3089\u308c\u305f\u9577\u69cd\u3002\n\u9b54\u529b\u3092\u6301\u305f\u306a\u3044\u8005\u3067\u3082\u624b\u8efd\u306b\u6271\u3046\u3053\u3068\u304c\u3067\u304d\u3001\u53ec\u559a\u9662\u3067\u306f\u65b0\u7c73\u53ec\u559a\u5e2b\u306b\u7121\u511f\u3067\u652f\u7d66\u3055\u308c\u3066\u3044\u308b\u3002\u4e00\u7a81\u304d\u3092\u7e70\u308a\u51fa\u3057\u305f\u77ac\u9593\u3001\u5148\u7aef\u3092\u4e2d\u5fc3\u306b\u3057\u3066\u9b54\u529b\u306e\u9632\u5fa1\u58c1\u304c\u5f35\u3089\u308c\u308b\u4ed5\u7d44\u307f\u306b\u306a\u3063\u3066\u304a\u308a\u3001\u653b\u6483\u3068\u540c\u6642\u306b\u8eab\u3092\u5b88\u308b\u3053\u3068\u304c\u3067\u304d\u308b\u3002\u653b\u5b88\u306b\u512a\u308c\u305f\u6b66\u5668\u3068\u3057\u3066\u4eba\u6c17\u304c\u9ad8\u3044\u304c\u3001\u4ed6\u306e\u6b66\u5668\u3068\u6bd4\u3079\u3066\u5b89\u5168\u6027\u304c\u9ad8\u3044\u5206\u3001\u4f7f\u7528\u8005\u306f\u5e38\u306b\u6700\u524d\u7dda\u3067\u6226\u3046\u3053\u3068\u3092\u8981\u6c42\u3055\u308c\u308b\u3088\u3046\u3060\u3002",
        "P_EXPLAIN_SHORT": "",
        "P_COMMENT_MIX": "",
        "P_COMMENT_EVO": "",
        "P_COMMENT_GETTABLE": "",
        "P_CREATEDATE": "2018-02-02 19:30:15",
        "P_UPDATEDATE": "2018-02-02 19:30:15"
    },
    {
        "P_ARMS_ID": "300154",
        "P_DICTIONARY": "\u30a2\u30af\u30e9\u30b9\u53ec\u559a\u9662\u306e\u958b\u767a\u5c40\u3067\u88fd\u9020\u3055\u308c\u3066\u3044\u308b\u3001\u9b54\u8853\u5e2b\u306e\u529b\u304c\u8fbc\u3081\u3089\u308c\u305f\u9577\u69cd\u3002\n\u9b54\u529b\u3092\u6301\u305f\u306a\u3044\u8005\u3067\u3082\u624b\u8efd\u306b\u6271\u3046\u3053\u3068\u304c\u3067\u304d\u3001\u53ec\u559a\u9662\u3067\u306f\u65b0\u7c73\u53ec\u559a\u5e2b\u306b\u7121\u511f\u3067\u652f\u7d66\u3055\u308c\u3066\u3044\u308b\u3002\u4e00\u7a81\u304d\u3092\u7e70\u308a\u51fa\u3057\u305f\u77ac\u9593\u3001\u5148\u7aef\u3092\u4e2d\u5fc3\u306b\u3057\u3066\u9b54\u529b\u306e\u9632\u5fa1\u58c1\u304c\u5f35\u3089\u308c\u308b\u4ed5\u7d44\u307f\u306b\u306a\u3063\u3066\u304a\u308a\u3001\u653b\u6483\u3068\u540c\u6642\u306b\u8eab\u3092\u5b88\u308b\u3053\u3068\u304c\u3067\u304d\u308b\u3002\u653b\u5b88\u306b\u512a\u308c\u305f\u6b66\u5668\u3068\u3057\u3066\u4eba\u6c17\u304c\u9ad8\u3044\u304c\u3001\u4ed6\u306e\u6b66\u5668\u3068\u6bd4\u3079\u3066\u5b89\u5168\u6027\u304c\u9ad8\u3044\u5206\u3001\u4f7f\u7528\u8005\u306f\u5e38\u306b\u6700\u524d\u7dda\u3067\u6226\u3046\u3053\u3068\u3092\u8981\u6c42\u3055\u308c\u308b\u3088\u3046\u3060\u3002",
        "P_EXPLAIN_SHORT": "",
        "P_COMMENT_MIX": "",
        "P_COMMENT_EVO": "",
        "P_COMMENT_GETTABLE": "",
        "P_CREATEDATE": "2018-02-02 19:30:15",
        "P_UPDATEDATE": "2018-02-02 19:30:15"
    },
    {
        "P_ARMS_ID": "300234",
        "P_DICTIONARY": "\u30bc\u30eb\u30d0\u30fc\u30f3\u4f1d\u8aac\u306b\u8a18\u3055\u308c\u3066\u3044\u305f\u9ed2\u304d\u5927\u5263\u3002\n\u30f4\u30a7\u30fc\u30c0\u6d41\u5263\u8853\u304c\u5927\u304d\u306a\u5909\u9769\u671f\u3092\u8fce\u3048\u305f\u6642\u4ee3\u306b\u305d\u306e\u540d\u306e\u73fe\u308c\u308b\u5927\u5263\u3067\u3042\u308a\u3001\u8fd1\u5e74\u767a\u898b\u3055\u308c\u308b\u307e\u3067\u306f\u5358\u306a\u308b\u4f1d\u627f\u306b\u904e\u304e\u306a\u3044\u3068\u8003\u3048\u3089\u308c\u3066\u3044\u305f\u3002\u3053\u306e\u5263\u306f\u88c5\u5099\u8005\u306b\u5fdc\u3058\u3066\u5927\u304d\u304f\u6027\u8cea\u3092\u5909\u5316\u3055\u305b\u308b\u6027\u8cea\u3092\u5099\u3048\u3066\u304a\u308a\u3001\u5358\u306a\u308b\u6280\u8853\u306e\u7d99\u627f\u306b\u7559\u307e\u3089\u306a\u3044\u3001\u30f4\u30a7\u30fc\u30c0\u6d41\u5263\u8853\u81ea\u8eab\u306b\u5927\u304d\u306a\u5909\u9769\u304c\u6c42\u3081\u3089\u308c\u308b\u6642\u4ee3\u3001\u30bc\u30eb\u30d0\u30fc\u30f3\u305f\u3061\u306f\u3053\u306e\u5927\u5263\u3092\u643a\u3048\u3066\u6226\u3046\u4e2d\u3067\u65b0\u305f\u306a\u6280\u3092\u5275\u51fa\u3057\u3001\u6d41\u6d3e\u306e\u66f4\u306a\u308b\u767a\u5c55\u306b\u5c3d\u304f\u3057\u305f\u3068\u3044\u3046\u3002",
        "P_EXPLAIN_SHORT": "",
        "P_COMMENT_MIX": "",
        "P_COMMENT_EVO": "",
        "P_COMMENT_GETTABLE": "",
        "P_CREATEDATE": "2018-02-02 19:30:15",
        "P_UPDATEDATE": "2018-02-02 19:30:15"
    },
    {
        "P_ARMS_ID": "300344",
        "P_DICTIONARY": "\u51f0\u5203\u90a3\u539f\u304b\u3089\u4f1d\u6765\u3057\u305f\u7fe0\u8272\u306e\u5043\u6708\u5200\u3002\n\u6a39\u9f62\u5343\u5e74\u3092\u8d8a\u3048\u308b\u5012\u6728\u304b\u3089\u524a\u308a\u51fa\u3055\u308c\u305f\u67c4\u304c\u7528\u3044\u3089\u308c\u3066\u3044\u308b\u3002\u304b\u3064\u3066\u306e\u6a39\u6728\u81ea\u8eab\u304c\u7cbe\u970a\u3068\u306a\u3063\u3066\u5200\u8eab\u306b\u52a0\u8b77\u3092\u6388\u3051\u3066\u304a\u308a\u3001\u5927\u5730\u306b\u6d41\u308c\u308b\u529b\u3092\u76f4\u63a5\u81ea\u3089\u306e\u3082\u306e\u3068\u3057\u3001\u4e00\u9583\u3059\u308c\u3070\u3042\u3089\u3086\u308b\u6575\u3092\u8599\u304e\u5012\u3059\u3002\u30a8\u30eb\u30ac\u30a4\u30a2\u3078\u6f02\u7740\u3057\u305f\u6765\u6b74\u306f\u5b9a\u304b\u3067\u306f\u306a\u3044\u304c\u3001\u51f0\u5203\u90a3\u539f\u306e\u4f1d\u627f\u3067\u306f\u3001\u5200\u5de5\u306f\u9818\u4e3b\u306b\u732e\u4e0a\u3092\u547d\u305c\u3089\u308c\u305f\u3082\u306e\u306e\u3001\u7f85\u65ac\u304c\u6226\u4e71\u306e\u9053\u5177\u306b\u306a\u308b\u3053\u3068\u3092\u5fcc\u307f\u3001\u4eba\u77e5\u308c\u305a\u6d77\u3078\u6d41\u3057\u305f\u3068\u4f1d\u3048\u3089\u308c\u3066\u3044\u305f\u3002",
        "P_EXPLAIN_SHORT": "",
        "P_COMMENT_MIX": "",
        "P_COMMENT_EVO": "",
        "P_COMMENT_GETTABLE": "",
        "P_CREATEDATE": "2018-02-02 19:30:15",
        "P_UPDATEDATE": "2018-02-02 19:30:15"
    },
    {
        "P_ARMS_ID": "300383",
        "P_DICTIONARY": "\u7570\u754c\u3092\u63a2\u7d22\u3059\u308b\u53ec\u559a\u5e2b\u3089\u304c\u6271\u3046\u98db\u68cd\u3002\n\u6574\u5099\u304c\u5bb9\u6613\u3067\u3042\u308a\u3001\u96e2\u308c\u305f\u6575\u3078\u306e\u727d\u5236\u306b\u5411\u304f\u3053\u3068\u304b\u3089\u3001\u958b\u62d3\u5c40\u306b\u7c4d\u3092\u7f6e\u304f\u3001\u7570\u754c\u306e\u5730\u56f3\u4f5c\u6210\u3092\u4e3b\u4efb\u52d9\u3068\u3059\u308b\u53ec\u559a\u5e2b\u305f\u3061\u306b\u611b\u7528\u3055\u308c\u3066\u3044\u308b\u3002\u958b\u767a\u5c40\u306e\u8a2d\u8a08\u306b\u3088\u308b\u540c\u6b66\u5668\u306f\u3001\u5358\u7d14\u306a\u5916\u898b\u306b\u4f3c\u5408\u308f\u305a\u53ec\u559a\u5e2b\u306e\u9b54\u529b\u306b\u3088\u308b\u6b63\u78ba\u306a\u5236\u5fa1\u304c\u53ef\u80fd\u3068\u306a\u3063\u3066\u3044\u308b\u3002\u3053\u306e\u305f\u3081\u3001\u98db\u884c\u6642\u9593\u3084\u89d2\u5ea6\u306a\u3069\u3092\u5143\u306b\u6b63\u78ba\u306a\u8ddd\u96e2\u3092\u7b97\u51fa\u3059\u308b\u3053\u3068\u304c\u3067\u304d\u3001\u719f\u7df4\u306e\u63a2\u7d22\u8005\u306f\u3053\u308c\u3072\u3068\u3064\u3067\u3042\u3089\u3086\u308b\u88fd\u56f3\u4efb\u52d9\u3092\u3053\u306a\u3059\u3068\u3044\u3046\u3002",
        "P_EXPLAIN_SHORT": "",
        "P_COMMENT_MIX": "",
        "P_COMMENT_EVO": "",
        "P_COMMENT_GETTABLE": "",
        "P_CREATEDATE": "2018-02-02 19:30:15",
        "P_UPDATEDATE": "2018-02-02 19:30:15"
    },
    {
        "P_ARMS_ID": "300394",
        "P_DICTIONARY": "\u7570\u754c\u3092\u63a2\u7d22\u3059\u308b\u53ec\u559a\u5e2b\u3089\u304c\u6271\u3046\u98db\u68cd\u3002\n\u30a2\u30af\u30e9\u30b9\u53ec\u559a\u9662\u306e\u958b\u767a\u5c40\u304c\u65b0\u305f\u306b\u5236\u4f5c\u3057\u305f\u3001\u5f93\u6765\u306e\u98db\u68cd\u306b\u30a4\u30af\u30b9\u30bf\u30b9\u306e\u6280\u8853\u3092\u53d6\u308a\u5165\u308c\u305f\u91ce\u5fc3\u7684\u306a\u6295\u64f2\u6b66\u5668\u3002\u9b54\u529b\u306b\u3088\u308b\u5236\u5fa1\u306f\u6b63\u78ba\u306b\u6575\u3092\u6349\u3048\u3001\u30a4\u30af\u30b9\u30bf\u30b9\u306e\u30d0\u30ea\u30a2\u6280\u8853\u3092\u5fdc\u7528\u3057\u305f\u5203\u306f\u3042\u3089\u3086\u308b\u5bfe\u8c61\u3092\u5207\u308a\u88c2\u304f\u3002\u7834\u58ca\u529b\u306a\u3069\u304c\u5358\u7d14\u306b\u8ffd\u53ca\u3055\u308c\u305f\u6b66\u5668\u3067\u306f\u306a\u3044\u305f\u3081\u3001\u6027\u80fd\u3092\u9650\u754c\u307e\u3067\u5f15\u304d\u51fa\u3059\u306b\u306f\u9ad8\u3044\u6280\u91cf\u3068\u78ba\u304b\u306a\u6226\u8853\u773c\u304c\u8981\u6c42\u3055\u308c\u308b\u3068\u3044\u308f\u308c\u308b\u3002",
        "P_EXPLAIN_SHORT": "",
        "P_COMMENT_MIX": "",
        "P_COMMENT_EVO": "",
        "P_COMMENT_GETTABLE": "",
        "P_CREATEDATE": "2018-02-02 19:30:15",
        "P_UPDATEDATE": "2018-02-02 19:30:15"
    },
    {
        "P_ARMS_ID": "400133",
        "P_DICTIONARY": "\u90fd\u5e02\u306e\u76d7\u8cca\u305f\u3061\u304b\u3089\u5e83\u304f\u597d\u307e\u308c\u3066\u3044\u308b\u53cc\u5263\u3002\n\u8efd\u91cf\u8584\u624b\u3067\u3042\u308a\u306a\u304c\u3089\u8352\u3063\u307d\u3044\u904b\u7528\u306b\u8010\u3048\u308b\u4f5c\u308a\u3092\u3057\u3066\u304a\u308a\u3001\u4e71\u6226\u306b\u99b4\u67d3\u3093\u3060\u3001\u8efd\u88c5\u3092\u597d\u3080\u8857\u306e\u76d7\u8cca\u305f\u3061\u304b\u3089\u5927\u304d\u306a\u4fe1\u983c\u3092\u52dd\u3061\u5f97\u3066\u3044\u308b\u3002\u4e00\u77ac\u306e\u9699\u3092\u7a81\u3044\u3066\u77ac\u304f\u9593\u306b\u6575\u3092\u5207\u308a\u523b\u3080\u3088\u3046\u306a\u9ad8\u901f\u6226\u95d8\u3092\u5f97\u610f\u3068\u3057\u3066\u304a\u308a\u3001\u305d\u306e\u69d8\u306f\u4e71\u6226\u306b\u5439\u304d\u8352\u308c\u308b\u5d50\u306e\u3088\u3046\u3067\u3042\u308b\u3068\u3044\u3046\u3002\u5473\u65b9\u3068\u306e\u9023\u643a\u3067\u3053\u305d\u771f\u4fa1\u3092\u767a\u63ee\u3059\u308b\u3068\u3082\u3044\u308f\u308c\u3066\u304a\u308a\u3001\u7d20\u65e9\u3044\u653b\u6483\u306f\u5473\u65b9\u304c\u4f5c\u3063\u305f\u50c5\u304b\u306a\u9699\u3092\u6c7a\u3057\u3066\u9003\u3059\u3053\u3068\u306f\u306a\u3044\u3002",
        "P_EXPLAIN_SHORT": "",
        "P_COMMENT_MIX": "",
        "P_COMMENT_EVO": "",
        "P_COMMENT_GETTABLE": "",
        "P_CREATEDATE": "2018-02-02 19:30:15",
        "P_UPDATEDATE": "2018-02-02 19:30:15"
    },
    {
        "P_ARMS_ID": "400134",
        "P_DICTIONARY": "\u90fd\u5e02\u306e\u76d7\u8cca\u305f\u3061\u304b\u3089\u5e83\u304f\u597d\u307e\u308c\u3066\u3044\u308b\u53cc\u5263\u3002\n\u8efd\u91cf\u8584\u624b\u3067\u3042\u308a\u306a\u304c\u3089\u8352\u3063\u307d\u3044\u904b\u7528\u306b\u8010\u3048\u308b\u4f5c\u308a\u3092\u3057\u3066\u304a\u308a\u3001\u4e71\u6226\u306b\u99b4\u67d3\u3093\u3060\u3001\u8efd\u88c5\u3092\u597d\u3080\u8857\u306e\u76d7\u8cca\u305f\u3061\u304b\u3089\u5927\u304d\u306a\u4fe1\u983c\u3092\u52dd\u3061\u5f97\u3066\u3044\u308b\u3002\u4e00\u77ac\u306e\u9699\u3092\u7a81\u3044\u3066\u77ac\u304f\u9593\u306b\u6575\u3092\u5207\u308a\u523b\u3080\u3088\u3046\u306a\u9ad8\u901f\u6226\u95d8\u3092\u5f97\u610f\u3068\u3057\u3066\u304a\u308a\u3001\u305d\u306e\u69d8\u306f\u4e71\u6226\u306b\u5439\u304d\u8352\u308c\u308b\u5d50\u306e\u3088\u3046\u3067\u3042\u308b\u3068\u3044\u3046\u3002\u5473\u65b9\u3068\u306e\u9023\u643a\u3067\u3053\u305d\u771f\u4fa1\u3092\u767a\u63ee\u3059\u308b\u3068\u3082\u3044\u308f\u308c\u3066\u304a\u308a\u3001\u7d20\u65e9\u3044\u653b\u6483\u306f\u5473\u65b9\u304c\u4f5c\u3063\u305f\u50c5\u304b\u306a\u9699\u3092\u6c7a\u3057\u3066\u9003\u3059\u3053\u3068\u306f\u306a\u3044\u3002",
        "P_EXPLAIN_SHORT": "",
        "P_COMMENT_MIX": "",
        "P_COMMENT_EVO": "",
        "P_COMMENT_GETTABLE": "",
        "P_CREATEDATE": "2018-02-02 19:30:15",
        "P_UPDATEDATE": "2018-02-02 19:30:15"
    },
    {
        "P_ARMS_ID": "400243",
        "P_DICTIONARY": "\u7570\u754c\u3088\u308a\u6f02\u7740\u3057\u305f\u3068\u601d\u3057\u304d\u3001\u9b54\u529b\u3092\u653e\u3064\u9283\u3002\n\u305d\u306e\u9283\u5f3e\u306f\u307e\u3055\u306b\u96f7\u9583\u305d\u306e\u3082\u306e\u306e\u901f\u5ea6\u3067\u653e\u305f\u308c\u3001\u767a\u5c04\u3068\u540c\u6642\u306b\u5bfe\u8c61\u3092\u7a7f\u3061\u8cab\u304f\u3068\u3044\u3046\u3002\u30a8\u30eb\u30ac\u30a4\u30a2\u9023\u90a6\u3067\u767a\u898b\u3055\u308c\u3001\u512a\u308c\u305f\u6027\u80fd\u3092\u6301\u3064\u3053\u3068\u304b\u3089\u5f53\u521d\u306f\u8a2d\u8a08\u6280\u5e2b\u306e\u635c\u7d22\u304c\u884c\u308f\u308c\u3001\u61f8\u8cde\u91d1\u307e\u3067\u639b\u3051\u3089\u308c\u305f\u3082\u306e\u306e\u3001\u3064\u3044\u306b\u8a2d\u8a08\u8005\u4e0d\u660e\u3068\u3055\u308c\u305f\u8b0e\u591a\u304d\u9283\u3002\u5f8c\u306b\u3001\u7570\u754c\u306e\u5b58\u5728\u304c\u8a8d\u77e5\u3055\u308c\u308b\u306b\u5f93\u3044\u3001\u5148\u9032\u7684\u3067\u4ed6\u306b\u898b\u3089\u308c\u306c\u5185\u90e8\u69cb\u9020\u3084\u523b\u5370\u306a\u3069\u304b\u3089\u3001\u7570\u754c\u3088\u308a\u6f02\u7740\u3057\u305f\u9283\u3067\u3042\u308b\u3068\u8003\u3048\u3089\u308c\u308b\u3088\u3046\u306b\u306a\u3063\u305f\u3002",
        "P_EXPLAIN_SHORT": "",
        "P_COMMENT_MIX": "",
        "P_COMMENT_EVO": "",
        "P_COMMENT_GETTABLE": "",
        "P_CREATEDATE": "2018-02-02 19:30:15",
        "P_UPDATEDATE": "2018-02-02 19:30:15"
    },
    {
        "P_ARMS_ID": "400254",
        "P_DICTIONARY": "\u96f7\u7a7f\u9283\u30b9\u30c6\u30e9\u3092\u767a\u5c55\u3055\u305b\u305f\u5927\u578b\u306e\u9283\u3002\n\u30a2\u30af\u30e9\u30b9\u53ec\u559a\u9662\u3067\u518d\u8a2d\u8a08\u3055\u308c\u305f\u9283\u3067\u3042\u308a\u3001\u57fa\u5e79\u306e\u8a2d\u8a08\u3053\u305d\u30b9\u30c6\u30e9\u3068\u540c\u3058\u304f\u3059\u308b\u3082\u306e\u306e\u3001\u305d\u306e\u5916\u898b\u306f\u3082\u306f\u3084\u7832\u3068\u547c\u3076\u306b\u3075\u3055\u308f\u3057\u3044\u3082\u306e\u3078\u3068\u5909\u8c8c\u3057\u3066\u3044\u308b\u3002\u30b9\u30c6\u30e9\u306e\u901f\u5c04\u80fd\u529b\u304c\u3055\u3089\u306b\u9ad8\u3081\u3089\u308c\u3066\u304a\u308a\u3001\u96f7\u901f\u3055\u306a\u304c\u3089\u306e\u9023\u5c04\u80fd\u529b\u306f\u9283\u58f0\u304c\u3072\u3068\u3064\u306b\u805e\u3053\u3048\u308b\u3068\u3082\u8b33\u308f\u308c\u308b\u3002\u4ef2\u9593\u306e\u653b\u6483\u3092\u80cc\u5f8c\u3088\u308a\u652f\u3048\u3001\u653b\u3081\u5bc4\u305b\u308b\u6575\u3092\u96f7\u6483\u3068\u5171\u306b\u8599\u304e\u6255\u3046\u305d\u306e\u69d8\u306f\u3001\u96f7\u5e1d\u306e\u540d\u3092\u51a0\u3059\u308b\u3075\u3055\u308f\u3057\u3044\u3068\u3044\u3048\u308b\u3060\u308d\u3046\u3002",
        "P_EXPLAIN_SHORT": "",
        "P_COMMENT_MIX": "",
        "P_COMMENT_EVO": "",
        "P_COMMENT_GETTABLE": "",
        "P_CREATEDATE": "2018-02-02 19:30:15",
        "P_UPDATEDATE": "2018-02-02 19:30:15"
    },
    {
        "P_ARMS_ID": "400272",
        "P_DICTIONARY": "\u62f3\u3067\u95d8\u3046\u6226\u58eb\u306e\u305f\u3081\u88fd\u9020\u3055\u308c\u305f\u5c02\u7528\u306e\u624b\u7532\u3002\n\u901a\u5e38\u306e\u93a7\u624b\u7532\u3068\u306f\u9055\u3044\u3001\u62f3\u3092\u50b7\u3081\u305a\u3001\u6253\u6483\u306b\u3088\u308b\u885d\u6483\u3092\u3088\u308a\u76f8\u624b\u306b\u52b9\u679c\u7684\u306b\u4e0e\u3048\u308b\u305f\u3081\u306e\u5de5\u592b\u306a\u3069\u3082\u65bd\u3055\u308c\u3066\u3044\u308b\u3002\u30d5\u30a3\u30eb\u30a2\u30fc\u30e0\u306e\u6b74\u4ee3\u30f4\u30a1\u30a4\u30b6\u30fc\u306e\u4e2d\u306b\u306f\u3001\u6b66\u5668\u3092\u7528\u3044\u305a\u5df1\u306e\u62f3\u306e\u307f\u3092\u983c\u308a\u306b\u6575\u3068\u5bfe\u5cd9\u3059\u308b\u9a0e\u58eb\u3082\u3054\u304f\u5c11\u6570\u306a\u304c\u3089\u5b58\u5728\u3057\u3066\u3044\u308b\u3002\u5263\u3084\u69cd\u3068\u6bd4\u3079\u3066\u6709\u52b9\u306a\u6226\u95d8\u8ddd\u96e2\u304c\u77ed\u3044\u305f\u3081\u3001\u76f8\u624b\u3068\u306e\u9593\u5408\u3044\u3092\u8a70\u3081\u308b\u5fc5\u8981\u306f\u3042\u308b\u304c\u3001\u719f\u7df4\u3057\u305f\u8005\u306e\u62f3\u306e\u5a01\u529b\u306f\u305d\u308c\u3089\u6b66\u5668\u306b\u6c7a\u3057\u3066\u52a3\u308b\u3082\u306e\u3067\u306f\u306a\u3044\u3002",
        "P_EXPLAIN_SHORT": "",
        "P_COMMENT_MIX": "",
        "P_COMMENT_EVO": "",
        "P_COMMENT_GETTABLE": "",
        "P_CREATEDATE": "2018-02-02 19:30:15",
        "P_UPDATEDATE": "2018-02-02 19:30:15"
    },
    {
        "P_ARMS_ID": "400283",
        "P_DICTIONARY": "\u62f3\u3067\u95d8\u3046\u6226\u58eb\u306e\u305f\u3081\u88fd\u9020\u3055\u308c\u305f\u5c02\u7528\u306e\u624b\u7532\u3002\n\u901a\u5e38\u306e\u93a7\u624b\u7532\u3068\u306f\u9055\u3044\u3001\u62f3\u3092\u50b7\u3081\u305a\u3001\u6253\u6483\u306b\u3088\u308b\u885d\u6483\u3092\u3088\u308a\u76f8\u624b\u306b\u52b9\u679c\u7684\u306b\u4e0e\u3048\u308b\u305f\u3081\u306e\u5de5\u592b\u306a\u3069\u3082\u65bd\u3055\u308c\u3066\u3044\u308b\u3002\u30d5\u30a3\u30eb\u30a2\u30fc\u30e0\u306e\u6b74\u4ee3\u30f4\u30a1\u30a4\u30b6\u30fc\u306e\u4e2d\u306b\u306f\u3001\u6b66\u5668\u3092\u7528\u3044\u305a\u5df1\u306e\u62f3\u306e\u307f\u3092\u983c\u308a\u306b\u6575\u3068\u5bfe\u5cd9\u3059\u308b\u9a0e\u58eb\u3082\u3054\u304f\u5c11\u6570\u306a\u304c\u3089\u5b58\u5728\u3057\u3066\u3044\u308b\u3002\u5263\u3084\u69cd\u3068\u6bd4\u3079\u3066\u6709\u52b9\u306a\u6226\u95d8\u8ddd\u96e2\u304c\u77ed\u3044\u305f\u3081\u3001\u76f8\u624b\u3068\u306e\u9593\u5408\u3044\u3092\u8a70\u3081\u308b\u5fc5\u8981\u306f\u3042\u308b\u304c\u3001\u719f\u7df4\u3057\u305f\u8005\u306e\u62f3\u306e\u5a01\u529b\u306f\u305d\u308c\u3089\u6b66\u5668\u306b\u6c7a\u3057\u3066\u52a3\u308b\u3082\u306e\u3067\u306f\u306a\u3044\u3002",
        "P_EXPLAIN_SHORT": "",
        "P_COMMENT_MIX": "",
        "P_COMMENT_EVO": "",
        "P_COMMENT_GETTABLE": "",
        "P_CREATEDATE": "2018-02-02 19:30:15",
        "P_UPDATEDATE": "2018-02-02 19:30:15"
    },
    {
        "P_ARMS_ID": "400294",
        "P_DICTIONARY": "\u62f3\u3067\u95d8\u3046\u6226\u58eb\u306e\u305f\u3081\u88fd\u9020\u3055\u308c\u305f\u5c02\u7528\u306e\u624b\u7532\u3002\n\u901a\u5e38\u306e\u93a7\u624b\u7532\u3068\u306f\u9055\u3044\u3001\u62f3\u3092\u50b7\u3081\u305a\u3001\u6253\u6483\u306b\u3088\u308b\u885d\u6483\u3092\u3088\u308a\u76f8\u624b\u306b\u52b9\u679c\u7684\u306b\u4e0e\u3048\u308b\u305f\u3081\u306e\u5de5\u592b\u306a\u3069\u3082\u65bd\u3055\u308c\u3066\u3044\u308b\u3002\u30d5\u30a3\u30eb\u30a2\u30fc\u30e0\u306e\u6b74\u4ee3\u30f4\u30a1\u30a4\u30b6\u30fc\u306e\u4e2d\u306b\u306f\u3001\u6b66\u5668\u3092\u7528\u3044\u305a\u5df1\u306e\u62f3\u306e\u307f\u3092\u983c\u308a\u306b\u6575\u3068\u5bfe\u5cd9\u3059\u308b\u9a0e\u58eb\u3082\u3054\u304f\u5c11\u6570\u306a\u304c\u3089\u5b58\u5728\u3057\u3066\u3044\u308b\u3002\u5263\u3084\u69cd\u3068\u6bd4\u3079\u3066\u6709\u52b9\u306a\u6226\u95d8\u8ddd\u96e2\u304c\u77ed\u3044\u305f\u3081\u3001\u76f8\u624b\u3068\u306e\u9593\u5408\u3044\u3092\u8a70\u3081\u308b\u5fc5\u8981\u306f\u3042\u308b\u304c\u3001\u719f\u7df4\u3057\u305f\u8005\u306e\u62f3\u306e\u5a01\u529b\u306f\u305d\u308c\u3089\u6b66\u5668\u306b\u6c7a\u3057\u3066\u52a3\u308b\u3082\u306e\u3067\u306f\u306a\u3044\u3002",
        "P_EXPLAIN_SHORT": "",
        "P_COMMENT_MIX": "",
        "P_COMMENT_EVO": "",
        "P_COMMENT_GETTABLE": "",
        "P_CREATEDATE": "2018-02-02 19:30:15",
        "P_UPDATEDATE": "2018-02-02 19:30:15"
    },
    {
        "P_ARMS_ID": "500223",
        "P_DICTIONARY": "\u8056\u5225\u3055\u308c\u9b54\u3092\u7815\u304f\u529b\u3092\u6388\u304b\u3063\u305f\u3068\u3044\u3046\u5927\u5263\u3002\n\u304b\u3064\u3066\u5c01\u795e\u30eb\u30b7\u30a2\u30b9\u304c\u795e\u5f92\u306b\u4e0e\u3048\u305f\u3068\u3082\u4f1d\u308f\u308b\u304c\u3001\u61b6\u6e2c\u3084\u4f1d\u627f\u306e\u57df\u3092\u51fa\u306a\u3044\u3002\u3060\u304c\u6b66\u5668\u3068\u3057\u3066\u306f\u305d\u306e\u4f1d\u627f\u3092\u4fe1\u3058\u3055\u305b\u308b\u306b\u8db3\u308b\u3082\u306e\u3092\u5099\u3048\u3066\u304a\u308a\u3001\u6575\u3092\u8a0e\u3064\u3060\u3051\u3067\u306a\u304f\u3001\u5203\u306b\u89e6\u308c\u305f\u9b54\u529b\u3092\u6d88\u6ec5\u3055\u305b\u308b\u529b\u3092\u5099\u3048\u3066\u3044\u308b\u3002\u305d\u306e\u305f\u3081\u5148\u306e\u4f1d\u627f\u3068\u4f75\u305b\u3001\u3053\u306e\u5263\u306f\u3001\u5263\u81ea\u8eab\u306e\u6575\u2015\u2015\u3059\u306a\u308f\u3061\u5263\u3092\u6388\u3051\u305f\u5c01\u795e\u30eb\u30b7\u30a2\u30b9\u306b\u9006\u3089\u3046\u8005\u306e\u529b\u3092\u596a\u3044\u3001\u4e00\u65b9\u7684\u306b\u65ad\u7f6a\u3059\u308b\u305f\u3081\u306e\u6b66\u5668\u3067\u3042\u308b\u3068\u3082\u3044\u308f\u308c\u3066\u3044\u308b\u3002",
        "P_EXPLAIN_SHORT": "",
        "P_COMMENT_MIX": "",
        "P_COMMENT_EVO": "",
        "P_COMMENT_GETTABLE": "",
        "P_CREATEDATE": "2018-02-02 19:30:15",
        "P_UPDATEDATE": "2018-02-02 19:30:15"
    },
    {
        "P_ARMS_ID": "500224",
        "P_DICTIONARY": "\u8056\u5225\u3055\u308c\u9b54\u3092\u7815\u304f\u529b\u3092\u6388\u304b\u3063\u305f\u3068\u3044\u3046\u5927\u5263\u3002\n\u304b\u3064\u3066\u5c01\u795e\u30eb\u30b7\u30a2\u30b9\u304c\u795e\u5f92\u306b\u4e0e\u3048\u305f\u3068\u3082\u4f1d\u308f\u308b\u304c\u3001\u61b6\u6e2c\u3084\u4f1d\u627f\u306e\u57df\u3092\u51fa\u306a\u3044\u3002\u3060\u304c\u6b66\u5668\u3068\u3057\u3066\u306f\u305d\u306e\u4f1d\u627f\u3092\u4fe1\u3058\u3055\u305b\u308b\u306b\u8db3\u308b\u3082\u306e\u3092\u5099\u3048\u3066\u304a\u308a\u3001\u6575\u3092\u8a0e\u3064\u3060\u3051\u3067\u306a\u304f\u3001\u5203\u306b\u89e6\u308c\u305f\u9b54\u529b\u3092\u6d88\u6ec5\u3055\u305b\u308b\u529b\u3092\u5099\u3048\u3066\u3044\u308b\u3002\u305d\u306e\u305f\u3081\u5148\u306e\u4f1d\u627f\u3068\u4f75\u305b\u3001\u3053\u306e\u5263\u306f\u3001\u5263\u81ea\u8eab\u306e\u6575\u2015\u2015\u3059\u306a\u308f\u3061\u5263\u3092\u6388\u3051\u305f\u5c01\u795e\u30eb\u30b7\u30a2\u30b9\u306b\u9006\u3089\u3046\u8005\u306e\u529b\u3092\u596a\u3044\u3001\u4e00\u65b9\u7684\u306b\u65ad\u7f6a\u3059\u308b\u305f\u3081\u306e\u6b66\u5668\u3067\u3042\u308b\u3068\u3082\u3044\u308f\u308c\u3066\u3044\u308b\u3002",
        "P_EXPLAIN_SHORT": "",
        "P_COMMENT_MIX": "",
        "P_COMMENT_EVO": "",
        "P_COMMENT_GETTABLE": "",
        "P_CREATEDATE": "2018-02-02 19:30:15",
        "P_UPDATEDATE": "2018-02-02 19:30:15"
    },
    {
        "P_ARMS_ID": "500264",
        "P_DICTIONARY": "\u30d0\u30ea\u30a6\u30e9\u5e1d\u56fd\u7b2c\u4e00\u7687\u5b50\u30b7\u30ea\u30a6\u30b9\u304c\u7387\u3044\u308b\u8fd1\u885b\u5175\u56e3\u3067\u643a\u3048\u3089\u308c\u3066\u3044\u305f\u3001\u9b54\u529b\u3092\u5e2f\u3073\u305f\u5263\u3002\n\u88c5\u5099\u3057\u305f\u8005\u306e\u9b54\u529b\u305d\u306e\u3082\u306e\u304b\u3089\u5f62\u6210\u3055\u308c\u308b\u9b54\u6cd5\u306e\u5200\u8eab\u3092\u5099\u3048\u3001\u6226\u6a5f\u3092\u9055\u3048\u305a\u305d\u306e\u51fa\u529b\u3092\u89e3\u653e\u3059\u308c\u3070\u3001\u305d\u306e\u7834\u58ca\u529b\u306f\u6050\u308b\u3079\u304d\u3092\u76f8\u4e57\u52b9\u679c\u3092\u767a\u63ee\u3059\u308b\u3002\u3057\u304b\u3057\u305d\u306e\u4e00\u65b9\u3001\u3053\u306e\u9b54\u529b\u306e\u5236\u5fa1\u306f\u6975\u3081\u3066\u96e3\u3057\u3044\u3002\u3053\u308c\u3092\u6271\u3048\u308b\u306e\u306f\u3001\u307e\u3055\u306b\u30b7\u30ea\u30a6\u30b9\u306e\u8fd1\u885b\u5175\u306b\u9078\u3070\u308c\u308b\u307b\u3069\u306e\u8cc7\u8cea\u3092\u5099\u3048\u308b\u8005\u305f\u3061\u306b\u9650\u3089\u308c\u305f\u3068\u3044\u308f\u308c\u3001\u305d\u306e\u5263\u6280\u306f\u4eca\u306a\u304a\u591a\u304f\u304c\u5931\u4f1d\u3057\u305f\u307e\u307e\u306b\u3042\u308b\u3068\u3044\u3046\u3002",
        "P_EXPLAIN_SHORT": "",
        "P_COMMENT_MIX": "",
        "P_COMMENT_EVO": "",
        "P_COMMENT_GETTABLE": "",
        "P_CREATEDATE": "2018-02-02 19:30:15",
        "P_UPDATEDATE": "2018-02-02 19:30:15"
    },
    {
        "P_ARMS_ID": "500304",
        "P_DICTIONARY": "\u30b0\u30e9\u30f3\u30ac\u30a4\u30a2\u306e\u50fb\u5730\u3067\u767a\u898b\u3055\u308c\u305f\u722a\u9244\u7532\u3002\n\u5468\u8fba\u306e\u9271\u5e8a\u3067\u7523\u51fa\u3059\u308b\u7279\u6b8a\u306a\u91d1\u5c5e\u304c\u7528\u3044\u3089\u308c\u3066\u304a\u308a\u3001\u751f\u547d\u529b\u3092\u653b\u6483\u529b\u3078\u4f1d\u5c0e\u3059\u308b\u3053\u3068\u3067\u9ad8\u3044\u7206\u767a\u529b\u3092\u767a\u63ee\u3059\u308b\u3002\u6b66\u5668\u306e\u767a\u898b\u3055\u308c\u305f\u5de5\u623f\u306e\u907a\u69cb\u306b\u306f\u7363\u4eba\u65cf\u3089\u3057\u304d\u6280\u5e2b\u306e\u624b\u8a18\u3082\u767a\u898b\u3055\u308c\u3066\u304a\u308a\u3001\u5f7c\u3089\u304c\u305d\u306e\u571f\u5730\u3092\u8ffd\u308f\u308c\u305f\u3053\u3068\u304c\u8a18\u3055\u308c\u3066\u3044\u305f\u3002\u672c\u6765\u306f\u7363\u4eba\u306e\u70ba\u306b\u4f5c\u3089\u308c\u305f\u6b66\u5668\u3067\u3042\u308a\u3001\u6fc0\u3057\u3044\u52d5\u304d\u3067\u6575\u3092\u7ffb\u5f04\u3057\u3066\u5f37\u70c8\u306a\u4e00\u6483\u3092\u53e9\u304d\u3053\u3080\u305f\u3081\u306b\u306f\u3001\u7363\u4eba\u3055\u306a\u304c\u3089\u306e\u512a\u308c\u305f\u4f53\u529b\u3068\u77ac\u767a\u529b\u304c\u6c42\u3081\u3089\u308c\u308b\u3002",
        "P_EXPLAIN_SHORT": "",
        "P_COMMENT_MIX": "",
        "P_COMMENT_EVO": "",
        "P_COMMENT_GETTABLE": "",
        "P_CREATEDATE": "2018-02-02 19:30:15",
        "P_UPDATEDATE": "2018-02-02 19:30:15"
    },
    {
        "P_ARMS_ID": "500363",
        "P_DICTIONARY": "\u30d1\u30eb\u30df\u30ca\u738b\u56fd\u3067\u767a\u898b\u3055\u308c\u305f\u795e\u5b66\u66f8\u3002\n\u30a2\u30fc\u30ea\u30f3\u30c9\u795e\u5b66\u6821\u8de1\u5730\u306e\u5730\u4e0b\u306b\u4e01\u5be7\u306b\u4fdd\u7ba1\u3055\u308c\u3066\u304a\u308a\u3001\u795e\u708e\u516c\u30ed\u30fc\u30e9\u30f3\u30c9\u3078\u306e\u732e\u8f9e\u304c\u8a18\u3055\u308c\u3066\u3044\u305f\u3053\u3068\u304b\u3089\u3001\u57f7\u7b46\u8005\u304c\u540c\u738b\u56fd\u306e\u5d29\u58ca\u306b\u3088\u308b\u96e3\u3092\u9003\u308c\u3055\u305b\u308b\u305f\u3081\u306b\u5730\u4e0b\u3078\u96a0\u3057\u305f\u3082\u306e\u3068\u8003\u3048\u3089\u308c\u3066\u3044\u308b\u3002\u96a3\u4eba\u3092\u52a9\u3051\u308b\u3079\u304d\u3053\u3068\u3092\u8aac\u304f\u7d20\u6734\u306a\u4fe1\u4ef0\u544a\u767d\u306e\u66f8\u3067\u3042\u308a\u306a\u304c\u3089\u3001\u4eba\u3005\u3092\u52a9\u3051\u308b\u305f\u3081\u306e\u5b9f\u7528\u66f8\u3068\u3057\u3066\u306e\u5074\u9762\u3092\u6301\u3061\u3001\u50b7\u3064\u3044\u305f\u8005\u306e\u6f5c\u5728\u80fd\u529b\u3092\u5f15\u304d\u51fa\u3059\u3053\u3068\u3067\u77ac\u304f\u9593\u306b\u305d\u306e\u50b7\u3092\u7652\u3059\u79d8\u6cd5\u304c\u8a18\u3055\u308c\u3066\u3044\u308b\u3002",
        "P_EXPLAIN_SHORT": "",
        "P_COMMENT_MIX": "",
        "P_COMMENT_EVO": "",
        "P_COMMENT_GETTABLE": "",
        "P_CREATEDATE": "2018-02-02 19:30:15",
        "P_UPDATEDATE": "2018-02-02 19:30:15"
    },
    {
        "P_ARMS_ID": "500374",
        "P_DICTIONARY": "\u5e1d\u90fd\u56f3\u66f8\u9928\u304b\u3089\u201c\u767a\u6398\u201d\u3055\u308c\u305f\u9b54\u5c0e\u66f8\u3002\n\u56f3\u66f8\u9928\u306b\u53ce\u8535\u8a18\u9332\u304c\u306a\u304f\u3001\u30ea\u30f3\u30c8\u9928\u9577\u306b\u3082\u898b\u899a\u3048\u304c\u306a\u3044\u3068\u3044\u3046\u66f0\u304f\u4ed8\u304d\u306e\u66f8\u3067\u3042\u308a\u3001\u3044\u3064\u3069\u3053\u304b\u3089\u7d1b\u308c\u8fbc\u3093\u3060\u304b\u3055\u3048\u3088\u3046\u3068\u3057\u3066\u77e5\u308c\u306a\u3044\u3002\u5185\u5bb9\u306f\u53e1\u667a\u306e\u8f1d\u304d\u306b\u3064\u3044\u3066\u8a9e\u308b\u54f2\u5b66\u66f8\u3067\u3042\u308b\u304c\u3001\u719f\u8aad\u3057\u305f\u8005\u306e\u76ee\u306b\u306f\u79d8\u533f\u3055\u308c\u305f\u546a\u6587\u304c\u6d6e\u304b\u3073\u4e0a\u304c\u308b\u3068\u3044\u3046\u3002\u305d\u306e\u8005\u304c\u9b54\u5c0e\u66f8\u3092\u7d10\u89e3\u3051\u3070\u3001\u5468\u56f2\u306b\u306f\u6e05\u6d44\u306a\u7d50\u754c\u304c\u5c55\u958b\u3055\u308c\u3066\u4ef2\u9593\u306e\u50b7\u3092\u7652\u3057\u3001\u4e0d\u5229\u306a\u6226\u6cc1\u3092\u4e00\u77ac\u306b\u3057\u3066\u7acb\u3066\u76f4\u3059\u3053\u3068\u3082\u3067\u304d\u308b\u3068\u3044\u3046\u3002",
        "P_EXPLAIN_SHORT": "",
        "P_COMMENT_MIX": "",
        "P_COMMENT_EVO": "",
        "P_COMMENT_GETTABLE": "",
        "P_CREATEDATE": "2018-02-02 19:30:15",
        "P_UPDATEDATE": "2018-02-02 19:30:15"
    },
    {
        "P_ARMS_ID": "600184",
        "P_DICTIONARY": "\u77e2\u306b\u9b54\u7269\u3092\u8755\u3080\u307b\u3069\u306e\u731b\u6bd2\u3092\u4ed8\u4e0e\u3059\u308b\u5f13\u3002\n\u30a4\u30b7\u30e5\u30b0\u30ea\u30a2\u3067\u767a\u898b\u3055\u308c\u305f\u5f13\u3067\u3042\u308a\u3001\u523b\u307e\u308c\u305f\u9298\u304b\u3089\u30d0\u30ea\u30a6\u30e9\u5e1d\u56fd\u51fa\u8eab\u306e\u5f13\u8853\u5e2b\u304c\u5236\u4f5c\u3057\u305f\u3082\u306e\u3068\u8003\u3048\u3089\u308c\u3066\u3044\u308b\u3002\u5fae\u91cf\u306e\u9b54\u529b\u3067\u6700\u5927\u9650\u306e\u52b9\u679c\u3092\u767a\u63ee\u3059\u308b\u3053\u3068\u3092\u4e3b\u773c\u306b\u3001\u7834\u58ca\u529b\u3092\u9ad8\u3081\u308b\u306e\u3067\u306f\u306a\u304f\u3001\u77e2\u306b\u731b\u6bd2\u3092\u4ed8\u4e0e\u3059\u308b\u305f\u3081\u306b\u9b54\u529b\u304c\u7528\u3044\u3089\u308c\u3066\u3044\u308b\u3002\u50c5\u304b\u306a\u9b54\u529b\u3082\u7121\u99c4\u306b\u305b\u305a\u3001\u5947\u8972\u3001\u652a\u4e71\u306b\u9577\u3058\u305f\u3053\u306e\u5f13\u306f\u3001\u3042\u308b\u3044\u306f\u529b\u5f31\u304d\u8005\u304c\u904e\u9177\u306a\u74b0\u5883\u3067\u751f\u304d\u629c\u304f\u305f\u3081\u306e\u6b66\u5668\u306a\u306e\u304b\u3082\u3057\u308c\u306a\u3044\u3002",
        "P_EXPLAIN_SHORT": "",
        "P_COMMENT_MIX": "",
        "P_COMMENT_EVO": "",
        "P_COMMENT_GETTABLE": "",
        "P_CREATEDATE": "2018-02-02 19:30:15",
        "P_UPDATEDATE": "2018-02-02 19:30:15"
    },
    {
        "P_ARMS_ID": "600193",
        "P_DICTIONARY": "\u30d0\u30ea\u30a6\u30e9\u5730\u65b9\u306e\u5c11\u6570\u6c11\u65cf\u304c\u907a\u3057\u305f\u5927\u6226\u65a7\u3002\n\u8089\u539a\u306e\u5203\u3067\u529b\u4efb\u305b\u306b\u6575\u3092\u7c89\u7815\u3059\u308b\u8352\u3005\u3057\u3044\u4f5c\u308a\u306e\u6b66\u5668\u3067\u3042\u308a\u3001\u6fc0\u3057\u3044\u6226\u3044\u306b\u3082\u8010\u3048\u3046\u308b\u3088\u3046\u3001\u7adc\u306e\u9aa8\u304b\u3089\u7d44\u307f\u4e0a\u3052\u3089\u308c\u305f\u5805\u7262\u306a\u67c4\u304c\u5203\u3092\u652f\u3048\u3066\u3044\u308b\u3002\u3053\u306e\u65a7\u3092\u5f97\u7269\u3068\u3057\u3066\u3044\u305f\u305d\u306e\u6c11\u65cf\u3067\u306f\u3001\u7adc\u306e\u9aa8\u306b\u306f\u546a\u8853\u7684\u306a\u529b\u304c\u3042\u308b\u3068\u8003\u3048\u3089\u308c\u3066\u3044\u305f\u3002\u7adc\u306e\u9aa8\u306f\u3001\u305d\u308c\u3092\u8eab\u306b\u7740\u3051\u3066\u3066\u6226\u3063\u305f\u6226\u58eb\u306e\u6b66\u52c7\u3092\u9ad8\u3081\u308b\u3070\u304b\u308a\u3067\u306a\u304f\u3001\u6226\u3044\u306e\u6700\u4e2d\u306b\u679c\u3066\u305f\u6226\u58eb\u306e\u9b42\u306f\u3001\u6b7b\u5f8c\u3001\u7adc\u3068\u306a\u3063\u3066\u8ee2\u751f\u3059\u308b\u3068\u4fe1\u3058\u3089\u308c\u3066\u3044\u305f\u3068\u3044\u3046\u3002",
        "P_EXPLAIN_SHORT": "",
        "P_COMMENT_MIX": "",
        "P_COMMENT_EVO": "",
        "P_COMMENT_GETTABLE": "",
        "P_CREATEDATE": "2018-02-02 19:30:15",
        "P_UPDATEDATE": "2018-02-02 19:30:15"
    },
    {
        "P_ARMS_ID": "600204",
        "P_DICTIONARY": "\u30d0\u30ea\u30a6\u30e9\u5e1d\u56fd\u3067\u88fd\u9020\u3055\u308c\u3066\u3044\u305f\u3068\u3044\u3046\u69cd\u65a7\u3002\n\u4ed8\u4e0e\u3055\u308c\u305f\u5f37\u5316\u9b54\u6cd5\u306b\u3088\u3063\u3066\u5168\u304f\u91cd\u91cf\u3092\u611f\u3058\u3055\u305b\u306a\u3044\u3002\u8cea\u91cf\u3084\u529b\u4efb\u305b\u306b\u983c\u3063\u3066\u6575\u3092\u53e9\u304d\u5207\u308b\u6b66\u5668\u3067\u306f\u306a\u3044\u305f\u3081\u3001\u88c5\u5099\u8005\u306b\u306f\u69cd\u8853\u3084\u65a7\u8853\u3092\u306f\u3058\u3081\u3001\u8cea\u91cf\u3092\u5236\u5fa1\u3059\u308b\u305f\u3081\u306e\u9b54\u8853\u7684\u77e5\u8b58\u306b\u81f3\u308b\u307e\u3067\u591a\u5c90\u306b\u6e21\u308b\u6226\u3044\u306e\u8853\u3092\u7fd2\u5f97\u3057\u3066\u3044\u308b\u3053\u3068\u304c\u6c42\u3081\u3089\u308c\u308b\u3002\u3060\u304c\u305d\u308c\u3089\u5168\u3066\u306b\u7fd2\u719f\u3057\u305f\u512a\u308c\u305f\u6226\u58eb\u3067\u3042\u308c\u3070\u3044\u304b\u306a\u6575\u3068\u3082\u6e21\u308a\u5408\u3048\u308b\u3068\u3044\u308f\u308c\u3001\u795e\u3005\u3068\u306e\u6226\u3044\u306b\u304a\u3044\u3066\u3082\u6570\u591a\u304f\u306e\u5f37\u6575\u3092\u5c60\u3063\u305f\u3068\u4f1d\u3048\u3089\u308c\u3066\u3044\u308b\u3002",
        "P_EXPLAIN_SHORT": "",
        "P_COMMENT_MIX": "",
        "P_COMMENT_EVO": "",
        "P_COMMENT_GETTABLE": "",
        "P_CREATEDATE": "2018-02-02 19:30:15",
        "P_UPDATEDATE": "2018-02-02 19:30:15"
    },
    {
        "P_ARMS_ID": "600354",
        "P_DICTIONARY": "\u88c5\u5099\u8005\u306b\u5fdc\u3058\u3066\u6027\u8cea\u306e\u5909\u5316\u3059\u308b\u8b0e\u306e\u6226\u97ad\u3002\n\u632f\u308b\u3046\u8005\u306e\u601d\u3046\u304c\u307e\u307e\u7e26\u6a2a\u7121\u5c3d\u306b\u6575\u3092\u5f15\u304d\u88c2\u304d\u3001\u305d\u306e\u610f\u8b58\u306b\u5fdc\u3058\u3066\u5e7e\u901a\u308a\u306b\u3082\u305d\u306e\u80fd\u529b\u3092\u5909\u5316\u3055\u305b\u308b\u3068\u3044\u3046\u4e0d\u6c17\u5473\u306a\u80fd\u529b\u3092\u5099\u3048\u308b\u3002\u97ad\u306e\u5185\u90e8\u304c\u795e\u7d4c\u7cfb\u306b\u4f3c\u305f\u69cb\u9020\u3092\u3057\u3066\u304a\u308a\u3001\u88c5\u5099\u8005\u306e\u8eab\u4f53\u3092\u4f1d\u308f\u308b\u50c5\u304b\u306a\u7cbe\u795e\u306e\u5909\u5316\u3092\u6349\u3048\u3066\u81ea\u3089\u3082\u307e\u305f\u5909\u5316\u3057\u3066\u3044\u304f\u3068\u3044\u308f\u308c\u308b\u304c\u3001\u8a73\u7d30\u306f\u4e0d\u660e\u3067\u3042\u308b\u3002\u8b0e\u306e\u591a\u3044\u6b66\u5668\u3067\u3001\u4f5c\u3063\u305f\u8005\u3082\u3088\u304f\u89e3\u3063\u3066\u304a\u3089\u305a\u3001\u4e00\u8aac\u306b\u306f\u9b54\u65cf\u304c\u4f5c\u3063\u305f\u97ad\u3067\u3042\u308b\u3068\u3082\u5642\u3055\u308c\u3066\u3044\u308b\u3002",
        "P_EXPLAIN_SHORT": "",
        "P_COMMENT_MIX": "",
        "P_COMMENT_EVO": "",
        "P_COMMENT_GETTABLE": "",
        "P_CREATEDATE": "2018-02-02 19:30:15",
        "P_UPDATEDATE": "2018-02-02 19:30:15"
    }
]