[
    {
        "P_ARMS_ID": "100102",
        "P_DICTIONARY": "\u30d5\u30a3\u30eb\u30a2\u30fc\u30e0\u9a0e\u58eb\u56e3\u3067\u4f7f\u7528\u3055\u308c\u3066\u3044\u308b\u9577\u5263\u3002\n\u30bb\u30eb\u30bf\u30d3\u30a2\u306e\u706b\u5c71\u306b\u68f2\u3080\u708e\u306e\u7cbe\u970a\u306e\u52a0\u8b77\u3092\u53d7\u3051\u3066\u9020\u3089\u308c\u3066\u304a\u308a\u3001\u5200\u8eab\u306b\u7cbe\u970a\u306e\u529b\u3092\u5bbf\u3057\u3066\u3044\u308b\u3002\u632f\u308a\u629c\u304f\u969b\u306b\u5200\u8eab\u304b\u3089\u708e\u3092\u653e\u3064\u6027\u8cea\u304c\u3042\u308a\u3001\u9ad8\u71b1\u306b\u3088\u3063\u3066\u6575\u306e\u8eab\u4f53\u3092\u707c\u304d\u65ac\u308b\u3053\u3068\u3067\u901a\u5e38\u306e\u5263\u3088\u308a\u3082\u624b\u75db\u3044\u50b7\u3092\u4e0e\u3048\u308b\u3053\u3068\u304c\u53ef\u80fd\u3068\u306a\u3063\u3066\u3044\u308b\u3002\u65ac\u308c\u5473\u3068\u6271\u3044\u3084\u3059\u3055\u306b\u91cd\u70b9\u304c\u7f6e\u304b\u308c\u3066\u304a\u308a\u3001\u65b0\u4eba\u306e\u5b9f\u6226\u8a13\u7df4\u3067\u591a\u304f\u4f7f\u7528\u3055\u308c\u3066\u3044\u308b\u3002\u521d\u7d1a\u8005\u7528\u306e\u6b66\u5668\u3067\u306f\u3042\u308b\u304c\u3001\u73fe\u5f79\u306e\u9a0e\u58eb\u306e\u4e2d\u306b\u3082\u611b\u7528\u8005\u306f\u591a\u3044\u3088\u3046\u3060\u3002",
        "P_EXPLAIN_SHORT": "",
        "P_COMMENT_MIX": "",
        "P_COMMENT_EVO": "",
        "P_COMMENT_GETTABLE": ""
    },
    {
        "P_ARMS_ID": "100113",
        "P_DICTIONARY": "\u30d5\u30a3\u30eb\u30a2\u30fc\u30e0\u9a0e\u58eb\u56e3\u3067\u4f7f\u7528\u3055\u308c\u3066\u3044\u308b\u9577\u5263\u3002\n\u708e\u5263\u30e9\u30e0\u30ab\u3092\u57fa\u3068\u3057\u3066\u6539\u826f\u3055\u308c\u3001\u305d\u306e\u6027\u80fd\u3092\u3055\u3089\u306b\u5f15\u304d\u51fa\u3057\u305f\u696d\u7269\u3002\u5200\u8eab\u304b\u3089\u653e\u305f\u308c\u308b\u708e\u306f\u305d\u306e\u9ad8\u6e29\u3086\u3048\u306b\u3001\u8f1d\u304d\u3055\u3048\u5e2f\u3073\u3066\u898b\u3048\u308b\u3068\u3044\u3046\u3002\u5a01\u529b\u3001\u65ac\u308c\u5473\u3068\u3082\u306b\u5897\u3057\u3064\u3064\u3082\u3001\u6271\u3044\u3084\u3059\u3055\u3092\u640d\u306a\u3046\u3053\u3068\u306f\u306a\u304f\u3001\u5b9f\u969b\u306e\u6226\u95d8\u306b\u304a\u3044\u3066\u91cd\u5b9d\u3055\u308c\u3066\u3044\u308b\u3002\u6226\u3044\u6163\u308c\u305f\u30d9\u30c6\u30e9\u30f3\u3082\u611b\u7528\u3059\u308b\u6b66\u5668\u3067\u3042\u308a\u3001\u3053\u306e\u5263\u3092\u624b\u306b\u3059\u308c\u3070\u9632\u5fa1\u306f\u91cd\u8981\u3067\u306f\u306a\u304f\u306a\u308b\u3068\u3057\u3066\u3001\u751f\u6daf\u306e\u5f97\u7269\u3068\u3059\u308b\u9a0e\u58eb\u3082\u5c11\u306a\u304f\u306a\u3044\u3002",
        "P_EXPLAIN_SHORT": "",
        "P_COMMENT_MIX": "",
        "P_COMMENT_EVO": "",
        "P_COMMENT_GETTABLE": ""
    },
    {
        "P_ARMS_ID": "100124",
        "P_DICTIONARY": "\u30d5\u30a3\u30eb\u30a2\u30fc\u30e0\u3067\u4f1d\u8aac\u3068\u3055\u308c\u308b\u708e\u306e\u9577\u5263\u3002\n\u56db\u8056\u305f\u3061\u306e\u6642\u4ee3\u3088\u308a\u3082\u3055\u3089\u306b\u6614\u3001\u708e\u306e\u970a\u9ce5\u30ed\u30ae\u30a2\u3092\u30d1\u30fc\u30c8\u30ca\u30fc\u3068\u3059\u308b\u30f4\u30a1\u30a4\u30b6\u30fc\u304c\u3044\u305f\u3068\u3044\u3046\u3002\u5f7c\u306f\u3001\u30ed\u30ae\u30a2\u3068\u3068\u3082\u306b\u6570\u3005\u306e\u4f1d\u8aac\u3092\u6b8b\u3057\u3001\u305d\u306e\u529f\u7e3e\u3092\u79f0\u3048\u308b\u4eba\u3005\u306e\u58f0\u306b\u63a8\u3055\u308c\u3066\u5e1d\u4f4d\u3078\u3068\u4e0a\u308a\u8a70\u3081\u308b\u3002\u3068\u3053\u308d\u304c\u3001\u7687\u5e1d\u3068\u306a\u3063\u305f\u5f7c\u304c\u6226\u3044\u306b\u8eab\u3092\u7f6e\u304f\u3053\u3068\u306f\u306a\u304f\u306a\u3063\u305f\u3053\u3068\u304b\u3089\u3001\u30ed\u30ae\u30a2\u306f\u305d\u306e\u5f79\u76ee\u3092\u7d42\u3048\u305f\u304b\u306e\u3088\u3046\u306b\u5ffd\u7136\u3068\u59ff\u3092\u6d88\u3057\u305f\u3002\u5f7c\u306e\u5143\u306b\u305f\u3060\u4e00\u632f\u308a\u306e\u58ee\u9e97\u306a\u9577\u5263\u3092\u6b8b\u3057\u3066\u3002",
        "P_EXPLAIN_SHORT": "",
        "P_COMMENT_MIX": "",
        "P_COMMENT_EVO": "",
        "P_COMMENT_GETTABLE": ""
    },
    {
        "P_ARMS_ID": "100214",
        "P_DICTIONARY": "\u30d0\u30ea\u30a6\u30e9\u306b\u7720\u308b\u9b54\u529b\u3092\u5e2f\u3073\u305f\u5927\u938c\u3002\n\u7687\u5973\u306e\u89aa\u885b\u968a\u3089\u306b\u914d\u5099\u3055\u308c\u3066\u3044\u305f\u3002\u546a\u6cd5\u306b\u3088\u308a\u5203\u3092\u7a81\u304d\u5165\u308c\u305f\u5bfe\u8c61\u3092\u4f53\u306e\u5185\u5074\u304b\u3089\u713c\u304d\u5c3d\u304f\u3059\u529b\u3092\u6301\u3064\u305f\u3081\u3001\u305d\u306e\u5203\u304c\u6575\u3092\u6349\u3048\u305f\u304c\u6700\u5f8c\u3001\u3042\u3089\u3086\u308b\u88c5\u7532\u306f\u610f\u5473\u3092\u306a\u3055\u306a\u304f\u306a\u308b\u3068\u3044\u3046\u3002\u3060\u304c\u3001\u305d\u306e\u708e\u306f\u81ea\u8eab\u306e\u751f\u547d\u529b\u3092\u9b54\u529b\u306b\u8ee2\u63db\u3059\u308b\u3053\u3068\u3067\u5f97\u3089\u308c\u308b\u529b\u3067\u3042\u308a\u3001\u9b54\u529b\u306e\u5236\u5fa1\u3092\u5fc3\u5f97\u306c\u8005\u304c\u6271\u3048\u3070\u3001\u305d\u306e\u708e\u306f\u3001\u7121\u5236\u9650\u306b\u305d\u306e\u8005\u306e\u751f\u547d\u529b\u3092\u5438\u3044\u7d9a\u3051\u3001\u6700\u5f8c\u306b\u306f\u81ea\u5206\u81ea\u8eab\u3092\u3082\u713c\u304d\u5c3d\u304f\u3057\u3066\u3057\u307e\u3046\u3060\u308d\u3046\u3002",
        "P_EXPLAIN_SHORT": "",
        "P_COMMENT_MIX": "",
        "P_COMMENT_EVO": "",
        "P_COMMENT_GETTABLE": ""
    },
    {
        "P_ARMS_ID": "100313",
        "P_DICTIONARY": "\u30a2\u30b0\u30cb\u5e1d\u56fd\u304c\u9060\u304f\u30c8\u30eb\u30c6\u30a3\u30a2\u6b66\u82b8\u9662\u304b\u3089\u4fee\u7df4\u8005\u3092\u62db\u3044\u3066\u4f5c\u3063\u305f\u3068\u3055\u308c\u308b\u68cd\u3002\n\u5909\u5e7b\u81ea\u5728\u306e\u8907\u96d1\u306a\u653b\u6483\u306b\u3088\u3063\u3066\u6575\u3092\u7ffb\u5f04\u3059\u308b\u6b66\u5668\u3067\u3001\u5358\u306a\u308b\u5947\u5999\u306a\u6b66\u5668\u3068\u5632\u7b11\u3063\u305f\u8005\u305f\u3061\u3082\u3001\u305d\u306e\u591a\u304f\u306f\u81ea\u3089\u306e\u6557\u5317\u306b\u3088\u3063\u3066\u81ea\u8eab\u306e\u4e0d\u660e\u3092\u6065\u3058\u308b\u3053\u3068\u3068\u306a\u3063\u305f\u3002\u3082\u3063\u3071\u3089\u9a0e\u58eb\u968e\u7d1a\u4ee5\u5916\u3067\u767a\u5c55\u3057\u305f\u3053\u3068\u304b\u3089\u666e\u53ca\u306f\u9650\u5b9a\u7684\u3067\u3042\u3063\u305f\u3088\u3046\u3067\u3001\u540c\u6642\u4ee3\u306e\u8cc7\u6599\u306f\u5c11\u306a\u3044\u3082\u306e\u306e\u3001\u4fee\u7df4\u8005\u3089\u306f\u81ea\u3089\u306e\u751f\u547d\u529b\u3092\u5236\u5fa1\u3059\u308b\u8853\u306b\u9577\u3051\u3066\u3044\u305f\u3053\u3068\u304c\u793a\u5506\u3055\u308c\u3066\u3044\u308b\u3002",
        "P_EXPLAIN_SHORT": "",
        "P_COMMENT_MIX": "",
        "P_COMMENT_EVO": "",
        "P_COMMENT_GETTABLE": ""
    },
    {
        "P_ARMS_ID": "100314",
        "P_DICTIONARY": "\u30a2\u30b0\u30cb\u5e1d\u56fd\u3067\u958b\u767a\u3055\u308c\u305f\u300c\u7114\u64f2\u300d\u3092\u3001\u4fee\u7df4\u8005\n\u304c\u6545\u90f7\u306e\u30c8\u30eb\u30c6\u30a3\u30a2\u6b66\u82b8\u9662\u306b\u6301\u3061\u5e30\u308a\u3001\u305d\u3053\n\u3067\u3055\u3089\u306b\u9032\u5316\u3001\u767a\u5c55\u3055\u305b\u305f\u708e\u306e\u68cd\u3002\n\u81ea\u3089\u306e\u751f\u547d\u529b\u3092\u529b\u306b\u8ee2\u63db\u3059\u308b\u8853\u3092\u6975\u3081\u305f\u4f7f\u3044\n\u624b\u304c\u3053\u306e\u6b66\u5668\u3092\u6271\u3046\u3053\u3068\u3067\u3001\u81ea\u8eab\u3060\u3051\u3067\u306a\u304f\n\u5171\u306b\u6226\u3046\u8005\u305f\u3061\u306b\u3082\u6d3b\u529b\u3092\u4e0e\u3048\u308b\u3053\u3068\u304c\u3067\u304d\n\u308b\u3002\u307e\u305f\u3001\u653b\u6483\u306b\u8ee2\u305a\u308b\u524d\u304b\u3089\u6f0f\u308c\u51fa\u3059\u708e\u306e\n\u6e26\u304c\u305d\u306e\u5a01\u529b\u3092\u7269\u8a9e\u3063\u3066\u304a\u308a\u3001\u3082\u306f\u3084\u5947\u5999\u306a\n\u6b66\u5668\u3068\u3057\u3066\u305d\u306e\u5f62\u72b6\u3092\u4fae\u308b\u8005\u306f\u4ed6\u56fd\u306b\u3082\u3044\u306a\n\u304f\u306a\u3063\u305f\u3068\u3044\u3046\u3002",
        "P_EXPLAIN_SHORT": "",
        "P_COMMENT_MIX": "",
        "P_COMMENT_EVO": "",
        "P_COMMENT_GETTABLE": ""
    },
    {
        "P_ARMS_ID": "100454",
        "P_DICTIONARY": "\u8db3\u6280\u3067\u306e\u6226\u3044\u3092\u4e3b\u773c\u306b\u8a2d\u8a08\u3055\u308c\u305f\u8db3\u7532\u3002\n\u591a\u5c90\u306b\u6e21\u308b\u4f53\u8853\u306e\u4e2d\u3067\u3082\u8db3\u6280\u3068\u3044\u3046\u3001\u3088\u308a\u9650\u5b9a\u7684\u306a\u4f53\u8853\u3092\u4e3b\u773c\u3068\u3057\u3066\u958b\u767a\u3055\u308c\u305f\u3002\u30a4\u30af\u30b9\u30bf\u30b9\u306e\u4eba\u4f53\u5de5\u5b66\u306b\u57fa\u3065\u3044\u305f\u30c7\u30b6\u30a4\u30f3\u306b\u3088\u308a\u3001\u8907\u96d1\u306a\u5f62\u72b6\u3067\u3042\u308a\u306a\u304c\u3089\u53ef\u52d5\u6027\u3092\u5931\u308f\u305b\u305a\u3001\u8eab\u4f53\u6a5f\u80fd\u3092\u5411\u4e0a\u3055\u305b\u308b\u4e8b\u3067\u5727\u5012\u7684\u306a\u52a0\u901f\u529b\u3068\u53cd\u5fdc\u901f\u5ea6\u3092\u3082\u305f\u3089\u3059\u3002\u7d20\u6750\u306b\u306f\u30d9\u30af\u30bf\u30b9\u6642\u4ee3\u306b\u88fd\u9020\u3055\u308c\u305f\u91d1\u5c5e\u304c\u7528\u3044\u3089\u308c\u3066\u3044\u308b\u304c\u3001\u3053\u306e\u52a0\u5de5\u6280\u8853\u306f\u4e00\u5ea6\u5931\u308f\u308c\u3066\u304a\u308a\u3001\u30a8\u30eb\u30ac\u30a4\u30a2\u306e\u6280\u8853\u306b\u3088\u3063\u3066\u518d\u73fe\u304c\u306a\u3055\u308c\u305f\u3068\u3044\u3046\u3002",
        "P_EXPLAIN_SHORT": "",
        "P_COMMENT_MIX": "",
        "P_COMMENT_EVO": "",
        "P_COMMENT_GETTABLE": ""
    },
    {
        "P_ARMS_ID": "100464",
        "P_DICTIONARY": "\u30a2\u30af\u30e9\u30b9\u53ec\u559a\u9662\u3067\u7814\u7a76\u304c\u9032\u3081\u3089\u308c\u3066\u3044\u305f\u6756\u3002\n\u8056\u5973\u306e\u6756\u304c\u6301\u3064\u7652\u3057\u306e\u529b\u3092\u89e3\u660e\u3059\u308b\u3053\u3068\u3067\u3001\n\u751f\u547d\u529b\u306e\u9006\u6d41\u73fe\u8c61\u3092\u5f15\u304d\u8d77\u3053\u3059\u6280\u6cd5\u304c\u7de8\u307f\u51fa\n\u3055\u308c\u305f\u3002\u73fe\u8c61\u3092\u5fdc\u7528\u3057\u3066\u6575\u5bfe\u8005\u306e\u751f\u547d\u529b\u3092\u71c3\n\u3048\u4e0a\u304c\u3089\u305b\u308b\u3068\u5171\u306b\u3001\u4e00\u90e8\u3092\u6756\u3092\u4ecb\u3057\u3066\u53d6\u308a\n\u8fbc\u3080\u3053\u3068\u306b\u6210\u529f\u3057\u305f\u3068\u3044\u3046\u3002\u3053\u306e\u65b0\u6280\u8853\u3092\u7528\n\u3044\u3066\u65b0\u305f\u306b\u4f5c\u308a\u51fa\u3055\u308c\u305f\u7dcb\u95bb\u932b\u306f\u3001\u6700\u524d\u7dda\u3067\n\u6226\u3046\u53ec\u559a\u5e2b\u3078\u3068\u5c4a\u3051\u3089\u308c\u308b\u4e88\u5b9a\u3060\u3068\u3044\u3046\u3002\u3057\n\u304b\u3057\u3001\u53d6\u308a\u6271\u3044\u306e\u96e3\u3057\u3044\u7d20\u6750\u304c\u4f7f\u308f\u308c\u3066\u3044\u308b\n\u305f\u3081\u3001\u6570\u3092\u63c3\u3048\u308b\u307e\u3067\u306b\u306f\u81f3\u3063\u3066\u3044\u306a\u3044\u3002",
        "P_EXPLAIN_SHORT": "",
        "P_COMMENT_MIX": "",
        "P_COMMENT_EVO": "",
        "P_COMMENT_GETTABLE": ""
    },
    {
        "P_ARMS_ID": "100514",
        "P_DICTIONARY": "\u30d5\u30a3\u30eb\u30a2\u30fc\u30e0\u9a0e\u58eb\u56e3\u306b\u4ee3\u3005\u53d7\u3051\u7d99\u304c\u308c\u3066\u304d\u305f\n\u4e8c\u632f\u306e\u8056\u5263\u306e\u3072\u3068\u3064\u3002\n\u30a2\u30fc\u30ac\u30b9\u306e\u6301\u3064\u5149\u306e\u8056\u5263\u3068\u5bfe\u3092\u306a\u3059\u708e\u306e\u8056\u5263\u3002\n\u5143\u306f\u3072\u3068\u3064\u3067\u3042\u3063\u305f\u3068\u3044\u3046\u4f1d\u8aac\u306e\u901a\u308a\u3001\u53cc\u65b9\n\u3068\u3082\u7247\u5203\u306e\u9577\u5263\u3060\u304c\u3001\u305d\u306e\u5a01\u529b\u306f\u9a0e\u58eb\u56e3\u6700\u5f37\n\u306e\u5263\u58eb\u306e\u540d\u306b\u76f8\u5fdc\u3057\u3044\u3082\u306e\u3067\u3042\u308b\u3002\u9a0e\u58eb\u56e3\u9577\n\u3068\u306a\u3063\u305f\u30a2\u30fc\u30ac\u30b9\u304b\u3089\u3053\u306e\u8056\u306a\u308b\u708e\u5263\u3092\u624b\u6e21\n\u3055\u308c\u305f\u6642\u3001\u30ed\u30fc\u30ea\u306f\u4e00\u77ac\u9a5a\u304d\u306e\u8868\u60c5\u3092\u898b\u305b\u305f\n\u304c\u3001\u3059\u3050\u306b\u305d\u306e\u77b3\u306f\u529b\u3092\u5e2f\u3073\u3001\u30f4\u30a1\u30a4\u30b6\u30fc\u3068\n\u3057\u3066\u547d\u3092\u8ced\u3057\u3066\u5171\u306b\u56fd\u3092\u5b88\u308b\u3053\u3068\u3092\u8a93\u3063\u305f\u3002",
        "P_EXPLAIN_SHORT": "",
        "P_COMMENT_MIX": "",
        "P_COMMENT_EVO": "",
        "P_COMMENT_GETTABLE": ""
    },
    {
        "P_ARMS_ID": "100594",
        "P_DICTIONARY": "\u4eca\u3068\u306a\u3063\u3066\u306f\u4f1d\u627f\u8005\u3082\u307b\u3068\u3093\u3069\u3044\u306a\u304f\u306a\u3063\u305f\u30bb\u30eb\u30bf\u30d3\u30a2\u306e\u53e4\u3044\u795e\u8a71\u306b\u8a9e\u3089\u308c\u308b\u8056\u306a\u308b\u69cd\u3002\u3042\u308b\u82f1\u96c4\u304c\u7adc\u306e\u52a9\u529b\u3092\u5f97\u3066\u60aa\u795e\u3092\u8a0e\u3063\u305f\u969b\u306b\u4f7f\u308f\u308c\u305f\u4f1d\u8aac\u306e\u6b66\u5668\u3060\u304c\u3001\u6700\u5f8c\u306e\u4e00\u6483\u3092\u6295\u64f2\u306b\u3088\u3063\u3066\u679c\u305f\u3057\u305f\u305f\u3081\u3001\u60aa\u795e\u3068\u5171\u306b\u5931\u308f\u308c\u305f\u3068\u4f1d\u3048\u3089\u308c\u3066\u304d\u305f\u3002\u3057\u304b\u3057\u3001\u30cd\u30b0\u30ec\u30b9\u306e\u9b54\u57ce\u306b\u3066\u98a8\u5316\u3057\u305f\u59ff\u3067\u767a\u898b\u3055\u308c\u308b\u3002\u82e5\u304d\u9a0e\u58eb\u306e\u5f37\u3044\u7d46\u306e\u529b\u306b\u611f\u5fdc\u3057\u3001\u69cd\u306f\u672c\u6765\u306e\u59ff\u3078\u3068\u5909\u8c8c\u3002\u7adc\u3068\u4eba\u3092\u4e00\u4f53\u3068\u305b\u3057\u3080\u308b\u8056\u69cd\u306f\u3001\u6570\u5947\u306a\u308b\u904b\u547d\u3092\u7d4c\u3066\u3001\u60aa\u3068\u6226\u3046\u82e5\u304d\u9a0e\u58eb\u306e\u624b\u306b\u7526\u3063\u305f\u3002",
        "P_EXPLAIN_SHORT": "",
        "P_COMMENT_MIX": "",
        "P_COMMENT_EVO": "",
        "P_COMMENT_GETTABLE": ""
    },
    {
        "P_ARMS_ID": "100604",
        "P_DICTIONARY": "\u4f1d\u627f\u306b\u3088\u308b\u3068\u8056\u69cd\u3092\u624b\u306b\u3057\u305f\u82f1\u96c4\u306f\u7adc\u3092\u76f8\u68d2\u3068\u3057\u3001\u305d\u306e\u80cc\u306b\u4e57\u3063\u3066\u60aa\u795e\u3068\u6226\u3063\u305f\u3068\u3044\u3046\u3002\u7a32\u59bb\u306e\u8ff8\u308b\u5d50\u306e\u4e2d\u3001\u5f7c\u3089\u306f\u7d46\u306e\u529b\u3092\u983c\u308a\u306b\u7a7a\u3092\u7fd4\u3051\u305f\u3002\u8056\u69cd\u3092\u7526\u3089\u305b\u305f\u82e5\u304d\u9a0e\u58eb\u306e\u30d1\u30fc\u30c8\u30ca\u30fc\u304c\u98db\u7adc\u3060\u3063\u305f\u3053\u3068\u306f\u5076\u7136\u3067\u306f\u306a\u304b\u3063\u305f\u306e\u304b\u3082\u3057\u308c\u306a\u3044\u3002\u9b54\u57ce\u3067\u306e\u6fc0\u95d8\u306e\u4e2d\u3001\u82e5\u304d\u9a0e\u58eb\u306e\u610f\u601d\u306f\u7d46\u3068\u5171\u306b\u71c3\u3048\u4e0a\u304c\u308a\u3001\u8f1d\u3051\u308b\u98db\u7adc\u306b\u66f4\u306a\u308b\u529b\u3092\u3082\u305f\u3089\u3057\u305f\u3002\u5f37\u304f\u7d50\u3070\u308c\u305f\u4ef2\u9593\u305f\u3061\u3068\u306e\u7d46\u306f\u5fc5\u305a\u3084\u30bb\u30eb\u30bf\u30d3\u30a2\u3092\u6551\u3046\u3060\u308d\u3046\u3002\u304b\u3064\u3066\u306e\u82f1\u96c4\u304c\u60aa\u795e\u3092\u8a0e\u3061\u679c\u305f\u3057\u305f\u3088\u3046\u306b\u3002",
        "P_EXPLAIN_SHORT": "",
        "P_COMMENT_MIX": "",
        "P_COMMENT_EVO": "",
        "P_COMMENT_GETTABLE": ""
    },
    {
        "P_ARMS_ID": "200164",
        "P_DICTIONARY": "\u69cd\u3068\u76fe\u3001\u93a7\u307e\u3067\u3082\u63c3\u3048\u305f\u91cd\u9a0e\u58eb\u7528\u306e\u88c5\u5099\u3002\n\u30e9\u30fb\u30f4\u30a7\u30fc\u30c0\u306e\u9a0e\u58eb\u305f\u3061\u304c\u88c5\u5099\u3057\u3066\u3044\u305f\u3068\u4f1d\u308f\u308b\u4e00\u5f0f\u3067\u3001\u6c34\u7cbe\u970a\u306e\u52a0\u8b77\u304c\u6388\u3051\u3089\u308c\u3066\u3044\u308b\u3002\u88c5\u5099\u8005\u306e\u751f\u547d\u529b\u3092\u9ad8\u3081\u3001\u6c34\u306e\u969c\u58c1\u306b\u3088\u3063\u3066\u9b54\u529b\u3092\u906e\u65ad\u3059\u308b\u529b\u3092\u6301\u3064\u3002\u6e26\u5dfb\u304f\u6575\u306e\u653b\u6483\u3092\u3082\u306e\u3068\u3082\u305b\u305a\u524d\u9032\u3057\u3001\u6700\u524d\u5217\u306b\u9032\u307f\u51fa\u3066\u6c34\u306e\u969c\u58c1\u3092\u5c55\u958b\u3059\u308b\u3053\u3068\u3067\u5473\u65b9\u5168\u4f53\u3092\u6575\u306e\u9b54\u6cd5\u653b\u6483\u304b\u3089\u5b88\u308b\u3053\u3068\u304c\u3067\u304d\u308b\u3002\u305d\u306e\u305f\u3081\u3001\u3053\u306e\u88c5\u5099\u306e\u771f\u4fa1\u3092\u767a\u63ee\u3059\u308b\u305f\u3081\u306b\u306f\u3001\u4f55\u3088\u308a\u3082\u307e\u305a\u88c5\u5099\u8005\u81ea\u8eab\u306e\u52c7\u6c17\u304c\u6c42\u3081\u3089\u308c\u308b\u3068\u3044\u3046\u3002",
        "P_EXPLAIN_SHORT": "",
        "P_COMMENT_MIX": "",
        "P_COMMENT_EVO": "",
        "P_COMMENT_GETTABLE": ""
    },
    {
        "P_ARMS_ID": "200172",
        "P_DICTIONARY": "\u7fa9\u52c7\u3068\u63a2\u7a76\u5fc3\u3092\u53f8\u308b\u795e\u3092\u8b83\u3048\u305f\u3068\u3055\u308c\u308b\u6756\u3002\n\u304b\u3064\u3066\u306e\u30b5\u30fc\u30de\u738b\u56fd\u3067\u306f\u8239\u56e3\u304c\u91cd\u8981\u306a\u822a\u6d77\u306b\u51fa\u767a\u3059\u308b\u969b\u306a\u3069\u306b\u3001\u795e\u5b98\u304c\u3053\u306e\u6756\u3092\u5929\u306b\u304b\u3056\u3057\u3066\u5b89\u5168\u3092\u7948\u9858\u3059\u308b\u5100\u5f0f\u3092\u884c\u3063\u305f\u3068\u3044\u3046\u3002\u795e\u306e\u795d\u798f\u3092\u53d7\u3051\u305f\u8239\u54e1\u305f\u3061\u306f\u3001\u884c\u304f\u5148\u306b\u3069\u306e\u3088\u3046\u306a\u56f0\u96e3\u304c\u5f85\u3061\u53d7\u3051\u3066\u3044\u3088\u3046\u3068\u3082\u4e0d\u601d\u8b70\u3068\u5fc3\u6298\u308c\u308b\u3053\u3068\u306a\u304f\u3001\u7acb\u3061\u5411\u304b\u3046\u52c7\u6c17\u3092\u62b1\u304d\u7d9a\u3051\u308b\u3053\u3068\u304c\u3067\u304d\u305f\u3068\u3055\u308c\u3066\u3044\u308b\u3002\u305d\u306e\u305f\u3081\u30b5\u30fc\u30de\u8239\u8236\u306e\u8239\u9996\u50cf\u306b\u306f\u3001\u3053\u306e\u6756\u306e\u5f62\u72b6\u3092\u6a21\u3057\u305f\u3082\u306e\u304c\u6570\u591a\u304f\u4f5c\u3089\u308c\u305f\u3068\u3044\u3046\u3002",
        "P_EXPLAIN_SHORT": "",
        "P_COMMENT_MIX": "",
        "P_COMMENT_EVO": "",
        "P_COMMENT_GETTABLE": ""
    },
    {
        "P_ARMS_ID": "200173",
        "P_DICTIONARY": "\u751f\u547d\u3068\u6148\u611b\u3092\u53f8\u308b\u795e\u3092\u8b83\u3048\u305f\u3068\u3055\u308c\u308b\u6756\u3002\n\u30b5\u30fc\u30de\u738b\u56fd\u3067\u306f\u53e4\u304f\u304b\u3089\u3001\u738b\u5bb6\u4ee5\u5916\u306b\u3044\u304f\u3064\u3082\u306e\u90e8\u65cf\u304c\u5b58\u5728\u3057\u3001\u5730\u57df\u3054\u3068\u306b\u72ec\u81ea\u306e\u6587\u5316\u3092\u7bc9\u3044\u3066\u66ae\u3089\u3057\u3066\u3044\u305f\u3002\u305d\u308c\u3060\u3051\u306b\u90e8\u65cf\u9593\u306e\u6297\u4e89\u3082\u5c11\u306a\u304b\u3089\u305a\u5b58\u5728\u3057\u3001\u7121\u6570\u306e\u72a0\u7272\u3084\u60b2\u5287\u304c\u751f\u307f\u51fa\u3055\u308c\u3066\u304d\u305f\u3002\u3042\u308b\u6642\u3001\u305d\u308c\u3092\u6182\u3044\u305f\u4e00\u4eba\u306e\u5973\u6027\u304c\u3001\u6148\u611b\u306e\u5fc3\u3092\u65e8\u3068\u3059\u308b\u795e\u306e\u6559\u3048\u3092\u30b5\u30fc\u30de\u5404\u5730\u306b\u8aac\u3044\u3066\u56de\u3063\u305f\u3002\u305d\u308c\u306f\u3086\u3063\u304f\u308a\u3067\u306f\u3042\u3063\u305f\u304c\u3001\u7740\u5b9f\u306b\u6c37\u306e\u5927\u5730\u306b\u884c\u304d\u6e21\u308a\u3001\u3064\u3044\u306b\u306f\u738b\u5bb6\u3082\u305d\u306e\u5b58\u5728\u3092\u8a8d\u3081\u308b\u306b\u81f3\u3063\u305f\u3002",
        "P_EXPLAIN_SHORT": "",
        "P_COMMENT_MIX": "",
        "P_COMMENT_EVO": "",
        "P_COMMENT_GETTABLE": ""
    },
    {
        "P_ARMS_ID": "200174",
        "P_DICTIONARY": "\u8056\u306a\u308b\u884c\u3044\u306b\u4eba\u3005\u3092\u5c0e\u304f\u3068\u3055\u308c\u308b\u795e\u3001\u30ec\u30eb\u30af\u30ec\u30a4\u30f3\u306b\u4ed5\u3048\u3057\u795e\u5b98\u305f\u3061\u306e\u6756\u3002\n\u30ec\u30eb\u30af\u30ec\u30a4\u30f3\u306f\u30b5\u30fc\u30de\u738b\u5bb6\u304c\u4fe1\u5949\u3059\u308b\u795e\u3005\u306e\u4e2d\u3067\u3082\u6700\u3082\u53e4\u304f\u6709\u529b\u306a\u5b58\u5728\u306e\u3072\u3068\u3064\u3067\u3001\u6b74\u4ee3\u306e\u738b\u305f\u3061\u306f\u4ee3\u3005\u305d\u306e\u6559\u3048\u306b\u5f93\u3063\u3066\u56fd\u3092\u6cbb\u3081\u3066\u304d\u305f\u3002\u307e\u305f\u3001\u30ec\u30eb\u30af\u30ec\u30a4\u30f3\u306f\u30b0\u30e9\u30f3\u30ac\u30a4\u30a2\u5927\u6226\u671f\u306b\u738b\u5bb6\u3068\u5404\u90e8\u65cf\u9593\u3092\u8d85\u3048\u3066\u6c11\u8846\u3092\u307e\u3068\u3081\u3042\u3052\u305f\u5b58\u5728\u3068\u3055\u308c\u3001\u30b5\u30fc\u30de\u738b\u56fd\u3092\u5b88\u308b\u305f\u3081\u306b\u795e\u3005\u3068\u6226\u3063\u305f\u7b2c\u4e00\u738b\u5b50\u30ec\u30bb\u30a6\u30b9\u3082\u3001\u305d\u306e\u656c\u8654\u306a\u4fe1\u8005\u3067\u3042\u3063\u305f\u3068\u4f1d\u3048\u3089\u308c\u3066\u3044\u308b\u3002",
        "P_EXPLAIN_SHORT": "",
        "P_COMMENT_MIX": "",
        "P_COMMENT_EVO": "",
        "P_COMMENT_GETTABLE": ""
    },
    {
        "P_ARMS_ID": "200322",
        "P_DICTIONARY": "\u591a\u304f\u306e\u6697\u6bba\u8005\u304c\u611b\u7528\u3057\u305f\u51cd\u308b\u77ed\u5263\u3002\n\u3044\u305a\u3053\u304b\u306e\u7570\u754c\u306e\u8ca7\u6c11\u8857\u306b\u305d\u306e\u30eb\u30fc\u30c4\u3092\u6301\u3061\u3001\u8907\u96d1\u306b\u5165\u308a\u7d44\u3093\u3060\u5730\u5f62\u3067\u306e\u4e71\u6226\u3068\u95c7\u8a0e\u3061\u3092\u524d\u63d0\u3068\u3057\u3066\u4f5c\u3089\u308c\u3066\u3044\u308b\u3002\u4e0d\u8db3\u3059\u308b\u6bba\u50b7\u529b\u3092\u3001\u50b7\u53e3\u304b\u3089\u51b7\u6c17\u3092\u9001\u308a\u8fbc\u3093\u3067\u4f53\u7d44\u7e54\u3092\u7834\u58ca\u3059\u308b\u3053\u3068\u306b\u3088\u3063\u3066\u88dc\u3063\u3066\u3044\u308b\u3002\u4e00\u6483\u3067\u81f4\u547d\u50b7\u3092\u4e0e\u3048\u5f97\u308b\u6b66\u5668\u3067\u306f\u306a\u3044\u305f\u3081\u3001\u6226\u3044\u3067\u306f\u5e38\u306b\u6575\u306e\u6a5f\u5148\u3092\u5236\u3059\u308b\u5fc5\u8981\u304c\u3042\u308a\u3001\u76f8\u624b\u304c\u614b\u52e2\u3092\u7acb\u3066\u76f4\u3059\u524d\u306b\u9593\u9aea\u5165\u308c\u305a\u7b2c\u4e8c\u6483\u3001\u7b2c\u4e09\u6483\u3092\u7e70\u308a\u51fa\u3055\u306a\u3051\u308c\u3070\u306a\u3089\u306a\u3044\u3002",
        "P_EXPLAIN_SHORT": "",
        "P_COMMENT_MIX": "",
        "P_COMMENT_EVO": "",
        "P_COMMENT_GETTABLE": ""
    },
    {
        "P_ARMS_ID": "200323",
        "P_DICTIONARY": "\u30d0\u30c0\u30fb\u30d5\u30a1\u30ca\u306b\u3066\u3001\u30a4\u30af\u30b9\u30bf\u30b9\u51fa\u8eab\u306e\u30b0\u30b9\u30bf\u30d5\u535a\u58eb\u304c\u300c\u30a2\u30eb\u30bb\u30ca\u300d\u3092\u6253\u3061\u76f4\u3057\u3066\u6539\u9020\u3057\u3001\u305d\u306e\u5a01\u529b\u3092\u5897\u3057\u305f\u6697\u6bba\u7528\u306e\u77ed\u5263\u3002\n\u5207\u308c\u5473\u306f\u683c\u6bb5\u306b\u5411\u4e0a\u3057\u3001\u4f53\u7d44\u7e54\u3092\u7834\u58ca\u3059\u308b\u305f\u3081\u306b\u50b7\u53e3\u304b\u3089\u9001\u308a\u8fbc\u3080\u51b7\u6c17\u3082\u51fa\u529b\u304c\u5411\u4e0a\u3057\u3066\u3044\u308b\u3002\u7279\u306b\u30cd\u30b0\u30ec\u30b9\u306e\u5175\u305f\u3061\u304c\u4f7f\u7528\u3057\u3066\u3044\u308b\u69d8\u5b50\u306f\u306a\u3044\u305f\u3081\u3001\u5f97\u4f53\u306e\u77e5\u308c\u306a\u3044\u9b54\u7363\u305f\u3061\u306e\u4e2d\u306b\uff11\u4eba\u98db\u3073\u8fbc\u3093\u3060\u4eba\u9593\u3068\u3057\u3066\u3001\u535a\u58eb\u304c\u81ea\u3089\u306e\u8b77\u8eab\u7528\u306b\u4f5c\u6210\u3057\u305f\u3082\u306e\u3067\u306f\u306a\u3044\u304b\u3068\u63a8\u6e2c\u3055\u308c\u3066\u3044\u308b\u3002",
        "P_EXPLAIN_SHORT": "",
        "P_COMMENT_MIX": "",
        "P_COMMENT_EVO": "",
        "P_COMMENT_GETTABLE": ""
    },
    {
        "P_ARMS_ID": "200334",
        "P_DICTIONARY": "\u30a2\u30bf\u30eb\u30f4\u30a1\u5171\u548c\u56fd\u306e\u3068\u3042\u308b\u4f1d\u8aac\u7684\u306a\u6697\u6bba\u8005\u304c\u643a\u3048\u3066\u3044\u305f\u3068\u3055\u308c\u308b\u77ed\u5263\u3002\n\u4f1d\u627f\u306b\u3088\u308c\u3070\u3001\u6697\u6bba\u8005\u306f\u8e0a\u308a\u5b50\u306b\u626e\u3057\u3001\u77ed\u5263\u3092\u6c34\u3092\u64cd\u308b\u82b8\u306e\u5c0f\u9053\u5177\u3068\u79f0\u3057\u3066\u6301\u3061\u8fbc\u3093\u3060\u3002\u6708\u660e\u304b\u308a\u306e\u4e2d\u3001\u5468\u56f2\u306b\u6c34\u3092\u6d6e\u304b\u3073\u4e0a\u304c\u3089\u305b\u3066\u821e\u3044\u8e0a\u308b\u305d\u306e\u59ff\u306b\u306f\u8ab0\u3082\u304c\u9b45\u4e86\u3055\u308c\u3001\u6b21\u306e\u77ac\u9593\u3001\u6a19\u7684\u306f\u547d\u3092\u7d76\u305f\u308c\u3066\u3044\u3063\u305f\u3068\u3044\u3046\u3002\u5f7c\u5973\n\u306f\u95c7\u304b\u3089\u95c7\u3078\u3068\u59ff\u3092\u6d88\u3057\u3001\u4eca\u3068\u306a\u3063\u3066\u306f\u305d\u306e\u5b9f\u5728\u3092\u78ba\u304b\u3081\u308b\u8853\u3082\u306a\u3044\u3002\u5f8c\u4e16\u306b\u4f1d\u308f\u308b\u306e\u306f\u3042\u3084\u3075\u3084\u306a\u4f1d\u627f\u3068\u3053\u306e\u77ed\u5263\u306e\u307f\u3067\u3042\u308b\u3002",
        "P_EXPLAIN_SHORT": "",
        "P_COMMENT_MIX": "",
        "P_COMMENT_EVO": "",
        "P_COMMENT_GETTABLE": ""
    },
    {
        "P_ARMS_ID": "200404",
        "P_DICTIONARY": "\u30d5\u30a3\u30eb\u30a2\u30fc\u30e0\u306b\u4f1d\u308f\u308b\u4e00\u5bfe\u306e\u53cc\u65a7\u3002\n\u5927\u9678\u5168\u571f\u304c\u6226\u4e71\u306b\u5305\u307e\u308c\u305f\u6642\u4ee3\u3001\u3053\u306e\u53cc\u65a7\u3092\u643a\u3048\u3066\u76f8\u68d2\u3068\u5171\u306b\u6226\u5834\u3092\u99c6\u3051\u305f\u3068\u3042\u308b\u30f4\u30a1\u30a4\u30b6\u30fc\u304c\u3044\u305f\u3002\u84bc\u304d\u53cc\u65a7\u306e\u6b66\u540d\u306f\u5927\u9678\u5168\u571f\u306b\u9cf4\u308a\u97ff\u304d\u3001\u76ae\u8089\u306b\u3082\u305d\u308c\u3092\u9065\u304b\u306b\u4e0a\u56de\u308b\u6028\u55df\u3092\u8ca0\u3046\u3053\u3068\u3068\u306a\u308b\u3002\u3084\u304c\u3066\u30f4\u30a1\u30a4\u30b6\u30fc\u306f\u3001\u304b\u3064\u3066\u81ea\u3089\u304c\u8a0e\u3063\u305f\u6575\u306e\u907a\u5150\u306b\u3088\u3063\u3066\u30d1\u30fc\u30c8\u30ca\u30fc\u3092\u5931\u3044\u3001\u81ea\u3089\u306e\u529b\u3092\u65a7\u306b\u5c01\u3058\u3066\u96a0\u68f2\u3057\u305f\u3002\u53cc\u65a7\u304c\u767a\u898b\u3055\u308c\u305f\u907a\u8de1\u306b\u306f\u305f\u3063\u305f\u4e00\u8a00\u300c\u53cb\u3092\u5fd8\u308c\u308b\u306a\u300d\u3068\u3060\u3051\u8a18\u3055\u308c\u3066\u3044\u305f\u3068\u3044\u3046\u3002",
        "P_EXPLAIN_SHORT": "",
        "P_COMMENT_MIX": "",
        "P_COMMENT_EVO": "",
        "P_COMMENT_GETTABLE": ""
    },
    {
        "P_ARMS_ID": "200434",
        "P_DICTIONARY": "\u30d5\u30a3\u30eb\u30a2\u30fc\u30e0\u738b\u56fd\u3067\u4f5c\u3089\u308c\u305f\u4e00\u632f\u308a\u306e\u5927\u5263\u3002\n\u7a00\u5c11\u306a\u6c37\u7cbe\u306e\u7d50\u6676\u304c\u67c4\u306b\u306f\u3081\u8fbc\u307e\u308c\u3066\u304a\u308a\u3001\u51b7\u6c17\u3092\u307e\u3068\u3063\u3066\u3044\u308b\u3002\u304b\u3064\u3066\u30f4\u30a1\u30a4\u30b6\u30fc\u9a0e\u58eb\u56e3\u306e\u6b21\u671f\u56e3\u9577\u3068\u3082\u5642\u3055\u308c\u305f\u3001\u3068\u3042\u308b\u9a0e\u58eb\u304c\u611b\u7528\u3057\u3066\u3044\u305f\u3068\u4f1d\u308f\u308b\u3002\u5f7c\u306f\u76df\u53cb\u306e\u51f6\u884c\u3092\u6b62\u3081\u308b\u305f\u3081\u5ec3\u57ce\u30c7\u30ab\u30c6\u30cd\u30a4\u30c8\u3078\u5358\u8eab\u8d74\u3044\u305f\u969b\u306b\u3082\u3053\u306e\u5263\u3092\u643a\u3048\u3066\u3044\u305f\u304c\u3001\u6226\u3044\u306e\u5f8c\u3001\u5263\u306f\u9577\u3089\u304f\u884c\u65b9\u77e5\u308c\u305a\u3068\u306a\u3063\u3066\u3044\u305f\u3002\u66c7\u308a\u306a\u304d\u5203\u306f\u4e3b\u306e\u5fc3\u3092\u6620\u3059\u93e1\u3067\u3042\u308b\u3068\u3044\u3046\u3002\u306f\u305f\u3057\u3066\u3053\u306e\u5263\u306f\u305d\u306e\u5203\u306b\u4f55\u3092\u6620\u3057\u3066\u304d\u305f\u306e\u3067\u3042\u308d\u3046\u304b\u3002",
        "P_EXPLAIN_SHORT": "",
        "P_COMMENT_MIX": "",
        "P_COMMENT_EVO": "",
        "P_COMMENT_GETTABLE": ""
    },
    {
        "P_ARMS_ID": "200554",
        "P_DICTIONARY": "\u30a2\u30af\u30e9\u30b9\u53ec\u559a\u9662\u958b\u62d3\u5c40\u7570\u754c\u8abf\u67fb\u5ba4\u304c\u3001\u30a2\u30fc\u30c8\n\u30ea\u30a2\u3088\u308a\u6301\u3061\u5e30\u3063\u305f\u53e4\u4ee3\u907a\u7269\u3002\u9b54\u529b\u3092\u5438\u53ce\u3001\n\u5897\u5e45\u3057\u3001\u5bfe\u8c61\u306b\u8df3\u306d\u8fd4\u3059\u3053\u3068\u304c\u3067\u304d\u308b\u3002\u4f7f\u308f\n\u308c\u3066\u3044\u308b\u9271\u7269\u306f\u30a2\u30fc\u30c8\u30ea\u30a2\u3067\u306f\u7523\u51fa\u3055\u308c\u3066\u3044\n\u306a\u3044\u3053\u3068\u304c\u78ba\u8a8d\u3055\u308c\u3066\u304a\u308a\u3001\u5225\u306e\u7570\u754c\u306e\u5b58\u5728\n\u304c\u88cf\u4ed8\u3051\u3089\u308c\u305f\u3002\u679c\u305f\u3057\u3066\u3069\u3053\u3067\u751f\u307f\u51fa\u3055\u308c\n\u305f\u3082\u306e\u306a\u306e\u304b\u306f\u672a\u3060\u8abf\u67fb\u4e2d\u3067\u3042\u308b\u3002\u6b66\u5668\u3068\u3057\n\u3066\u8ee2\u7528\u3059\u308b\u3053\u3068\u306b\u3064\u3044\u3066\u306f\u3001\u53ec\u559a\u9662\u5185\u90e8\u3067\u3082\n\u8b70\u8ad6\u304c\u3042\u3063\u305f\u304c\u3001\u30ce\u30a8\u30eb\u304c\u7121\u8a31\u53ef\u3067\u72ec\u81ea\u306b\u8ee2\n\u7528\u3057\u3001\u8a66\u9a13\u7684\u306b\u904b\u7528\u3055\u308c\u308b\u904b\u3073\u3068\u306a\u3063\u305f\u3002",
        "P_EXPLAIN_SHORT": "",
        "P_COMMENT_MIX": "",
        "P_COMMENT_EVO": "",
        "P_COMMENT_GETTABLE": ""
    },
    {
        "P_ARMS_ID": "200644",
        "P_DICTIONARY": "\u304b\u3064\u3066\u30bb\u30eb\u30bf\u30d3\u30a2\u304c\u3072\u3068\u3064\u306e\u738b\u56fd\u3060\u3063\u305f\u6642\u4ee3\n\u306b\u6d3b\u8e8d\u3057\u305f\u7121\u540d\u306e\u82f1\u96c4\u304c\u3044\u305f\u3002\u51cd\u9df9\u306e\u7cbe\u970a\u3092\n\u30d1\u30fc\u30c8\u30ca\u30fc\u3068\u3057\u3066\u3044\u305f\u3053\u3068\u4ee5\u5916\u306b\u3001\u305d\u306e\u82f1\u96c4\n\u306e\u8a73\u7d30\u306f\u5f8c\u4e16\u306b\u4f1d\u3048\u3089\u308c\u3066\u3044\u306a\u3044\u3002\u3057\u304b\u3057\u3001\n\u305d\u306e\u4eba\u7269\u304c\u4f7f\u7528\u3057\u305f\u3068\u3044\u3046\u6b66\u5177\u4e00\u5f0f\u304c\u5317\u90e8\u306e\n\u6d77\u6cbf\u3044\u306e\u7960\u306b\u6b8b\u3055\u308c\u3066\u3044\u305f\u3002\u93a7\u3068\u76fe\u3001\u305d\u3057\u3066\n\u6c37\u306e\u5203\u3092\u6301\u3064\u69cd\u4e00\u5f0f\u3092\u8eab\u306b\u307e\u3068\u3048\u3070\u3001\u7cbe\u970a\u529b\n\u306b\u3088\u3063\u3066\u6c37\u7ffc\u304c\u5f62\u6210\u3055\u308c\u3001\u81ea\u5728\u306b\u5b99\u3092\u821e\u3046\u3053\n\u3068\u304c\u3067\u304d\u308b\u3060\u308d\u3046\u3002\u7ffc\u3068\u5203\u306f\u6240\u6709\u8005\u306e\u5fc3\u304c\u6f84\n\u307f\u6e21\u308b\u307b\u3069\u306b\u786c\u5ea6\u3092\u5897\u3059\u3068\u8a00\u308f\u308c\u3066\u3044\u308b\u3002",
        "P_EXPLAIN_SHORT": "",
        "P_COMMENT_MIX": "",
        "P_COMMENT_EVO": "",
        "P_COMMENT_GETTABLE": ""
    },
    {
        "P_ARMS_ID": "300142",
        "P_DICTIONARY": "\u30a2\u30af\u30e9\u30b9\u53ec\u559a\u9662\u3067\u88fd\u9020\u3055\u308c\u3066\u3044\u308b\u3054\u304f\u4e00\u822c\u7684\u306a\u9577\u69cd\u3002\n\u6bd4\u8f03\u7684\u624b\u8efd\u306b\u6271\u3048\u308b\u3053\u3068\u304b\u3089\u3001\u53ec\u559a\u9662\u3067\u306f\u65b0\u7c73\u53ec\u559a\u5e2b\u3092\u4e2d\u5fc3\u306b\u652f\u7d66\u3055\u308c\u3066\u3044\u308b\u3002\u7a81\u304d\u3092\u4e3b\u4f53\u3068\u3057\u305f\u6226\u6cd5\u306b\u52a0\u3048\u3001\u305d\u306e\u9577\u3055\u3068\u5805\u7262\u3055\u3092\u6d3b\u304b\u3057\u3066\u9632\u5fa1\u306b\u3082\u4f7f\u3048\u308b\u6b66\u6280\u304c\u6570\u591a\u304f\u5b58\u5728\u3059\u308b\u305f\u3081\u3001\u653b\u6483\u3068\u540c\u6642\u306b\u8eab\u3092\u5b88\u308b\u3053\u3068\u304c\u3067\u304d\u308b\u6b66\u5668\u3068\u3057\u3066\u4eba\u6c17\u304c\u9ad8\u3044\u3002\u4ed6\u306e\u6b66\u5668\u3068\u6bd4\u3079\u3066\u653b\u6483\u529b\u306f\u3084\u3084\u52a3\u308b\u3082\u306e\u306e\u3001\u30a8\u30eb\u30ac\u30a4\u30a2\u306e\u5b89\u5168\u3092\u5b88\u308b\u53ec\u559a\u5e2b\u306b\u3068\u3063\u3066\u306f\u5341\u5206\u306a\u6b66\u5668\u3067\u3042\u308b\u3002",
        "P_EXPLAIN_SHORT": "",
        "P_COMMENT_MIX": "",
        "P_COMMENT_EVO": "",
        "P_COMMENT_GETTABLE": ""
    },
    {
        "P_ARMS_ID": "300143",
        "P_DICTIONARY": "\u30a2\u30af\u30e9\u30b9\u53ec\u559a\u9662\u3067\u88fd\u9020\u3055\u308c\u3066\u3044\u308b\u9577\u69cd\u3002\n\u8b77\u69cd\u30b0\u30e9\u30b7\u30b9\u306e\u6027\u80fd\u3092\u5411\u4e0a\u3055\u305b\u3066\u3001\u5e1d\u90fd\u30e9\u30f3\u30c9\u30fc\u30eb\u306b\u5b58\u5728\u3059\u308b\u53ec\u559a\u9662\u672c\u90e8\u3092\u5b88\u308b\u8005\u305f\u3061\u304c\u7528\u3044\u308b\u306b\u8db3\u308b\u88c5\u5099\u3078\u3068\u767a\u5c55\u3055\u305b\u305f\u3002\u69cd\u3068\u3057\u3066\u306e\u5f62\u72b6\u306f\u5927\u304d\u304f\u5909\u308f\u3089\u306a\u3044\u305f\u3081\u3001\u53d6\u308a\u6271\u3046\u6b66\u6280\u306f\u305d\u306e\u307e\u307e\u306b\u3001\u5a01\u529b\u3092\u4e0a\u6607\u3055\u305b\u308b\u3053\u3068\u304c\u3067\u304d\u305f\u70b9\u304c\u5927\u304d\u304f\u3001\u4e2d\u4e0a\u7d1a\u8005\u3067\u3082\u5341\u5206\u306b\u5b9f\u6226\u306b\u4f7f\u3048\u308b\u6b66\u5668\u3068\u3057\u3066\u77e5\u3089\u308c\u3066\u3044\u308b\u3002\u53ec\u559a\u9662\u3067\u306f\u4e00\u4eba\u524d\u306b\u6210\u308a\u5207\u308c\u306a\u3044\u53ec\u559a\u5e2b\u306b\u5bfe\u3057\u3066\u300c\u30b0\u30e9\u30b7\u30b9\u304b\u3089\u3084\u308a\u76f4\u305b\u300d\u3068\u8a00\u3046\u3053\u3068\u304c\u3042\u308b\u3068\u304b\u3002",
        "P_EXPLAIN_SHORT": "",
        "P_COMMENT_MIX": "",
        "P_COMMENT_EVO": "",
        "P_COMMENT_GETTABLE": ""
    },
    {
        "P_ARMS_ID": "300154",
        "P_DICTIONARY": "\u30a2\u30af\u30e9\u30b9\u53ec\u559a\u9662\u3067\u88fd\u9020\u3055\u308c\u3066\u3044\u308b\u9577\u69cd\u3002\n\u53ec\u559a\u5e2b\u305f\u3061\u306e\u4e2d\u3067\u3082\u9ad8\u4f4d\u306e\u6226\u95d8\u80fd\u529b\u3092\u6709\u3059\u308b\u8005\u305f\u3061\u306b\u4e0e\u3048\u3089\u308c\u308b\u653b\u9632\u4e00\u4f53\u306e\u4e3b\u6226\u529b\u88c5\u5099\u3067\u3042\u308b\u3002\u5fc3\u6280\u4f53\u3068\u3082\u306b\u534a\u7aef\u306a\u935b\u932c\u306e\u8005\u3067\u306f\u4f7f\u3044\u3053\u306a\u3059\u3053\u3068\u306f\u96e3\u3057\u3044\u305f\u3081\u3001\u719f\u7df4\u8005\u304c\u305d\u306e\u771f\u4fa1\u3092\u767a\u63ee\u3055\u305b\u305f\u6642\u306e\u6027\u80fd\u306b\u306f\u76ee\u3092\u898b\u5f35\u308b\u3082\u306e\u304c\u3042\u308b\u3002\u9b54\u795e\u8a0e\u4f10\u968a\u306e\u968a\u54e1\u305f\u3061\u306b\u3082\u305d\u306e\u611b\u7528\u8005\u306f\u6570\u591a\u304f\u5b58\u5728\u3057\u3001\u7279\u306b\u30c1\u30fc\u30e0\u3067\u6226\u95d8\u884c\u52d5\u3092\u3059\u308b\u3053\u3068\u304c\u591a\u3044\u90e8\u968a\u3067\u306f\u3001\u968a\u306e\u4e2d\u6838\u3068\u306a\u3063\u3066\u6226\u3046\u30d9\u30c6\u30e9\u30f3\u53ec\u559a\u5e2b\u306b\u597d\u3093\u3067\u4f7f\u308f\u308c\u3066\u3044\u308b\u3002",
        "P_EXPLAIN_SHORT": "",
        "P_COMMENT_MIX": "",
        "P_COMMENT_EVO": "",
        "P_COMMENT_GETTABLE": ""
    },
    {
        "P_ARMS_ID": "300234",
        "P_DICTIONARY": "\u30bc\u30eb\u30d0\u30fc\u30f3\u4f1d\u8aac\u306b\u8a18\u3055\u308c\u3066\u3044\u305f\u9ed2\u304d\u5927\u5263\u3002\n\u30f4\u30a7\u30fc\u30c0\u5263\u8853\u304c\u5927\u304d\u306a\u5909\u9769\u671f\u3092\u8fce\u3048\u305f\u6642\u4ee3\u306b\u305d\u306e\u540d\u306e\u73fe\u308c\u308b\u5927\u5263\u3067\u3042\u308a\u3001\u8fd1\u5e74\u767a\u898b\u3055\u308c\u308b\u307e\u3067\u306f\u5358\u306a\u308b\u4f1d\u627f\u306b\u904e\u304e\u306a\u3044\u3068\u8003\u3048\u3089\u308c\u3066\u3044\u305f\u3002\u3053\u306e\u5263\u306f\u88c5\u5099\u8005\u306b\u5fdc\u3058\u3066\u5927\u304d\u304f\u6027\u8cea\u3092\u5909\u5316\u3055\u305b\u308b\u6027\u8cea\u3092\u5099\u3048\u3066\u304a\u308a\u3001\u5358\u306a\u308b\u6280\u8853\u306e\u7d99\u627f\u306b\u7559\u307e\u3089\u306a\u3044\u3001\u30f4\u30a7\u30fc\u30c0\u5263\u8853\u81ea\u4f53\u306b\u5927\u304d\u306a\u5909\u9769\u304c\u6c42\u3081\u3089\u308c\u308b\u6642\u4ee3\u3001\u30bc\u30eb\u30d0\u30fc\u30f3\u305f\u3061\u306f\u3053\u306e\u5927\u5263\u3092\u643a\u3048\u3066\u6226\u3046\u4e2d\u3067\u65b0\u305f\u306a\u6280\u3092\u5275\u51fa\u3057\u3001\u6d41\u6d3e\u306e\u66f4\u306a\u308b\u767a\u5c55\u306b\u5c3d\u304f\u3057\u305f\u3068\u3044\u3046\u3002",
        "P_EXPLAIN_SHORT": "",
        "P_COMMENT_MIX": "",
        "P_COMMENT_EVO": "",
        "P_COMMENT_GETTABLE": ""
    },
    {
        "P_ARMS_ID": "300344",
        "P_DICTIONARY": "\u51f0\u5203\u90a3\u539f\u304b\u3089\u4f1d\u6765\u3057\u305f\u7fe0\u8272\u306e\u8599\u5200\u3002\n\u6a39\u9f62\u5343\u5e74\u3092\u8d8a\u3048\u308b\u795e\u6a39\u304b\u3089\u524a\u308a\u51fa\u3055\u308c\u305f\u67c4\u304c\u7528\u3044\u3089\u308c\u3066\u3044\u308b\u3002\u795e\u6a39\u81ea\u8eab\u304c\u7cbe\u970a\u3068\u306a\u3063\u3066\u5200\u8eab\u306b\u52a0\u8b77\u3092\u6388\u3051\u3066\u304a\u308a\u3001\u5927\u5730\u306b\u6d41\u308c\u308b\u529b\u3092\u76f4\u63a5\u81ea\u3089\u306e\u3082\u306e\u3068\u3057\u3001\u4e00\u9583\u3059\u308c\u3070\u3042\u3089\u3086\u308b\u6575\u3092\u8599\u304e\u5012\u3059\u7834\u58ca\u529b\u3092\u79d8\u3081\u3066\u3044\u308b\u3002\u51f0\u5203\u90a3\u539f\u306e\u4f1d\u627f\u3067\u306f\u3001\u7f85\u65ac\u3092\u4f5c\u3063\u305f\u5200\u5de5\u306f\u9818\u4e3b\u306b\u732e\u4e0a\u3092\u547d\u305c\u3089\u308c\u305f\u3082\u306e\u306e\u3001\u7f85\u65ac\u304c\u6226\u4e71\u306e\u9053\u5177\u306b\u306a\u308b\u3053\u3068\u3092\u5fcc\u3093\u3060\u3053\u3068\u3067\u3001\u3053\u306e\u8599\u5200\u3092\u4eba\u77e5\u308c\u305a\u6d77\u3078\u6d41\u3057\u305f\u3068\u4f1d\u3048\u3089\u308c\u3066\u3044\u308b\u3002",
        "P_EXPLAIN_SHORT": "",
        "P_COMMENT_MIX": "",
        "P_COMMENT_EVO": "",
        "P_COMMENT_GETTABLE": ""
    },
    {
        "P_ARMS_ID": "300383",
        "P_DICTIONARY": "\u7570\u754c\u3092\u63a2\u7d22\u3059\u308b\u53ec\u559a\u5e2b\u3089\u304c\u6271\u3046\u98db\u68cd\u3002\n\u6574\u5099\u304c\u5bb9\u6613\u3067\u3042\u308a\u3001\u96e2\u308c\u305f\u6575\u3078\u306e\u727d\u5236\u306b\u5411\u304f\u3053\u3068\u304b\u3089\u3001\u958b\u62d3\u5c40\u306b\u7c4d\u3092\u7f6e\u304f\u3001\u7570\u754c\u306e\u5730\u56f3\u4f5c\u6210\u3092\u4e3b\u4efb\u52d9\u3068\u3059\u308b\u53ec\u559a\u5e2b\u305f\u3061\u306b\u611b\u7528\u3055\u308c\u3066\u3044\u308b\u3002\u958b\u767a\u5c40\u306e\u8a2d\u8a08\u306b\u3088\u308b\u540c\u6b66\u5668\u306f\u3001\u5358\u7d14\u306a\u5916\u898b\u306b\u4f3c\u5408\u308f\u305a\u53ec\u559a\u5e2b\u306e\u6280\u91cf\u306b\u3088\u308b\u6b63\u78ba\u306a\u5236\u5fa1\u304c\u53ef\u80fd\u3068\u306a\u3063\u3066\u3044\u308b\u3002\u3053\u306e\u305f\u3081\u3001\u98db\u884c\u6642\u9593\u3084\u89d2\u5ea6\u306a\u3069\u3092\u3082\u3068\u306b\u6b63\u78ba\u306a\u8ddd\u96e2\u3092\u7b97\u51fa\u3059\u308b\u3053\u3068\u304c\u3067\u304d\u3001\u719f\u7df4\u306e\u63a2\u7d22\u8005\u306f\u3053\u308c\u3072\u3068\u3064\u3067\u3042\u3089\u3086\u308b\u88fd\u56f3\u4efb\u52d9\u3092\u3053\u306a\u3059\u3068\u3044\u3046\u3002",
        "P_EXPLAIN_SHORT": "",
        "P_COMMENT_MIX": "",
        "P_COMMENT_EVO": "",
        "P_COMMENT_GETTABLE": ""
    },
    {
        "P_ARMS_ID": "300394",
        "P_DICTIONARY": "\u7570\u754c\u3092\u63a2\u7d22\u3059\u308b\u53ec\u559a\u5e2b\u3089\u304c\u6271\u3046\u5186\u5f62\u306e\u5203\u3002\n\u30a2\u30af\u30e9\u30b9\u53ec\u559a\u9662\u306e\u958b\u767a\u5c40\u304c\u3001\u30a4\u30af\u30b9\u30bf\u30b9\u306e\u6280\u8853\u3092\u53d6\u308a\u5165\u308c\u3001\u65b0\u305f\u306b\u5236\u4f5c\u3057\u305f\u91ce\u5fc3\u7684\u306a\u6295\u64f2\u6b66\u5668\u3067\u3042\u308b\u3002\u9b54\u529b\u306b\u3088\u308b\u5236\u5fa1\u6a5f\u69cb\u306b\u3088\u308a\u6b63\u78ba\u306b\u6575\u3092\u6349\u3048\u308b\u3053\u3068\u304c\u53ef\u80fd\u3067\u3042\u308a\u3001\u30a4\u30af\u30b9\u30bf\u30b9\u306e\u6280\u8853\u3092\u5fdc\u7528\u3057\u305f\u7c92\u5b50\u3092\u5e2f\u3073\u305f\u5203\u306f\u3042\u3089\u3086\u308b\u5bfe\u8c61\u3092\u5207\u308a\u88c2\u304f\u3002\u7834\u58ca\u529b\u306a\u3069\u3092\u5358\u7d14\u306b\u8ffd\u6c42\u3057\u305f\u6b66\u5668\u3067\u306f\u306a\u3044\u305f\u3081\u3001\u6027\u80fd\u3092\u9650\u754c\u307e\u3067\u5f15\u304d\u51fa\u3059\u306b\u306f\u9ad8\u3044\u6280\u91cf\u3068\u78ba\u304b\u306a\u6226\u8853\u773c\u304c\u8981\u6c42\u3055\u308c\u308b\u3068\u8a00\u308f\u308c\u3066\u3044\u308b\u3002",
        "P_EXPLAIN_SHORT": "",
        "P_COMMENT_MIX": "",
        "P_COMMENT_EVO": "",
        "P_COMMENT_GETTABLE": ""
    },
    {
        "P_ARMS_ID": "300484",
        "P_DICTIONARY": "\u30a2\u30b0\u30cb\u5e1d\u56fd\u306e\u4e00\u90e8\u306e\u5730\u57df\u3067\u6d41\u884c\u3057\u305f\u3001\u683c\u95d8\u66f2\n\u82b8\u3068\u3044\u3046\u898b\u305b\u7269\u3067\u4f7f\u7528\u3055\u308c\u3066\u3044\u305f\u6b66\u5668\u3002\n\u53e4\u3044\u6642\u4ee3\u306b\u884c\u308f\u308c\u3066\u3044\u305f\u5974\u96b7\u5263\u95d8\u304b\u3089\u6d3e\u751f\u3057\n\u305f\u3068\u8003\u3048\u3089\u308c\u3066\u304a\u308a\u3001\u51fa\u5834\u8005\u306f\u6226\u58eb\u3068\u3057\u3066\u306e\n\u5f37\u3055\u306f\u3082\u3061\u308d\u3093\u3001\u6b66\u82b8\u3068\u3057\u3066\u306e\u6280\u5de7\u3084\u7f8e\u3057\u3055\n\u3082\u6c42\u3081\u3089\u308c\u305f\u3068\u3044\u3046\u3002\u305d\u308c\u3089\u3092\u8ffd\u7a76\u3057\u3066\u4f5c\u3089\n\u308c\u305f\u3053\u306e\u6b66\u5668\u306f\u76ee\u306b\u3082\u6b62\u307e\u3089\u306c\u82b8\u8853\u7684\u306a\u65e9\u696d\n\u3067\u89b3\u5ba2\u3060\u3051\u3067\u306a\u304f\u6575\u3092\u3082\u9b45\u4e86\u3057\u305f\u3002\n\u30e9\u30fb\u30f4\u30a7\u30fc\u30c0\u5171\u548c\u56fd\u3088\u308a\u8a2a\u308c\u305f\u3042\u308b\u8ced\u535a\u5e2b\u3082\u3001\n\u3053\u306e\u683c\u95d8\u66f2\u82b8\u306b\u9b45\u305b\u3089\u308c\u305f\u3068\u8a00\u308f\u308c\u3066\u3044\u308b\u3002",
        "P_EXPLAIN_SHORT": "",
        "P_COMMENT_MIX": "",
        "P_COMMENT_EVO": "",
        "P_COMMENT_GETTABLE": ""
    },
    {
        "P_ARMS_ID": "300564",
        "P_DICTIONARY": "\u30b0\u30e9\u30f3\u30ac\u30a4\u30a2\u95d8\u6280\u5834\u3067\u767a\u9054\u3057\u305f\u653b\u6483\u7684\u306a\u76fe\u3002\n\u305d\u306e\u91cd\u91cf\u3092\u6b66\u5668\u306b\u6295\u64f2\u3057\u3001\u9396\u3067\u624b\u5143\u306b\u5f15\u304d\u5bc4\n\u305b\u308b\u3053\u3068\u304c\u53ef\u80fd\u3002\u95d8\u6280\u5834\u3067\u306e\u6226\u3044\u306f\u3042\u304f\u307e\u3067\n\u3082\u8a66\u5408\u3060\u3063\u305f\u304c\u3001\u8840\u306e\u6c17\u306e\u591a\u3044\u95d8\u58eb\u306b\u3088\u3063\u3066\n\u5ea6\u3005\u6b7b\u8005\u304c\u51fa\u305f\u305f\u3081\u76fe\u3084\u515c\u306e\u6539\u826f\u3068\u767a\u5c55\u304c\u9032\n\u3093\u3060\u3002\u540c\u6642\u306b\u9632\u5177\u3092\u653b\u6483\u306b\u8ee2\u7528\u3059\u308b\u6280\u8853\u3082\u7de8\n\u307f\u51fa\u3055\u308c\u3001\u3053\u3046\u3057\u305f\u653b\u6483\u7684\u306a\u76fe\u304c\u8a95\u751f\u3059\u308b\u3053\n\u3068\u306b\u306a\u308b\u3002\u76fe\u3054\u3068\u4f53\u5f53\u305f\u308a\u3057\u3001\u521d\u6483\u3067\u52dd\u8ca0\u3092\n\u6c7a\u3059\u308b\u6226\u6cd5\u304c\u4e00\u6642\u671f\u6d41\u884c\u3057\u305f\u304c\u3001\u9762\u767d\u307f\u306e\u306a\n\u3044\u8a66\u5408\u3060\u3068\u89b3\u5ba2\u304b\u3089\u8ab9\u3089\u308c\u3059\u3050\u306b\u5ec3\u308c\u305f\u3002",
        "P_EXPLAIN_SHORT": "",
        "P_COMMENT_MIX": "",
        "P_COMMENT_EVO": "",
        "P_COMMENT_GETTABLE": ""
    },
    {
        "P_ARMS_ID": "300574",
        "P_DICTIONARY": "\u30c8\u30eb\u30c6\u30a3\u30a2\u6b66\u82b8\u9662\u3067\u4e00\u90e8\u306e\u4fee\u884c\u8005\u306b\u4f1d\u627f\u3055\u308c\n\u3066\u3044\u305f\u653b\u9632\u4e00\u4f53\u306e\u6b66\u5177\u306e\u767a\u5c55\u5f62\u3002\n\u653b\u6483\u3092\u53d7\u3051\u6b62\u3081\u305f\u5f8c\u3001\u76f4\u3061\u306b\u53cd\u6483\u3059\u308b\u3053\u3068\u304c\n\u53ef\u80fd\u306a\u69cb\u9020\u3067\u3001\u719f\u7df4\u3057\u305f\u6b66\u82b8\u8005\u3067\u3042\u308c\u3070\u6575\u306e\n\u95a2\u7bc0\u3092\u6975\u3081\u308b\u306a\u3069\u69d8\u3005\u306a\u6d3b\u7528\u6cd5\u304c\u5b58\u5728\u3059\u308b\u3002\n\u30a2\u30af\u30e9\u30b9\u53ec\u559a\u9662\u7d4c\u7531\u3067\u30a4\u30af\u30b9\u30bf\u30b9\u306b\u3082\u305f\u3089\u3055\n\u308c\u305f\u3053\u3068\u306b\u3088\u308a\u3001\u8efd\u91cf\u3067\u6271\u3044\u3084\u3059\u3044\u7d20\u6750\u3067\u6539\n\u826f\u3055\u308c\u305f\u3002\u66b4\u6f22\u3092\u6bba\u50b7\u305b\u305a\u5236\u5727\u3059\u308b\u7528\u9014\u306b\u5411\n\u3044\u3066\u304a\u308a\u3001\u30a4\u30af\u30b9\u30bf\u30b9\u306b\u304a\u3044\u3066\u3053\u306e\u6b66\u5668\u3092\u4f7f\n\u7528\u3057\u305f\u6b66\u8853\u304c\u6025\u901f\u306b\u767a\u5c55\u3057\u3066\u3044\u308b\u3002",
        "P_EXPLAIN_SHORT": "",
        "P_COMMENT_MIX": "",
        "P_COMMENT_EVO": "",
        "P_COMMENT_GETTABLE": ""
    },
    {
        "P_ARMS_ID": "400133",
        "P_DICTIONARY": "\u90fd\u5e02\u306e\u76d7\u8cca\u305f\u3061\u304b\u3089\u5e83\u304f\u597d\u307e\u308c\u3066\u3044\u308b\u53cc\u5263\u3002\n\u8efd\u91cf\u8584\u624b\u3067\u3042\u308a\u306a\u304c\u3089\u8352\u3063\u307d\u3044\u904b\u7528\u306b\u8010\u3048\u308b\u4f5c\u308a\u3092\u3057\u3066\u304a\u308a\u3001\u8efd\u88c5\u3092\u597d\u3080\u90fd\u5e02\u90e8\u306e\u76d7\u8cca\u305f\u3061\u304b\u3089\u5927\u304d\u306a\u4fe1\u983c\u3092\u52dd\u3061\u5f97\u3066\u3044\u308b\u3002\u4e00\u77ac\u306e\u9699\u3092\u7a81\u3044\u3066\u77ac\u304f\u9593\u306b\u6575\u3092\u5207\u308a\u523b\u3080\u3088\u3046\u306a\u9ad8\u901f\u6226\u95d8\u3092\u5f97\u610f\u3068\u3057\u3066\u304a\u308a\u3001\u305d\u306e\u69d8\u306f\u6226\u5834\u306b\u5439\u304d\u8352\u308c\u308b\u5d50\u306e\u3088\u3046\u3067\u3042\u308b\u3068\u3044\u3046\u3002\u5473\u65b9\u3068\u306e\u9023\u643a\u3067\u3053\u305d\u771f\u4fa1\u3092\u767a\u63ee\u3059\u308b\u3068\u3082\u8a00\u308f\u308c\u3066\u304a\u308a\u3001\u7d20\u65e9\u3044\u653b\u6483\u306f\u5473\u65b9\u304c\u4f5c\u3063\u305f\u50c5\u304b\u306a\u9699\u3092\u6c7a\u3057\u3066\u9003\u3059\u3053\u3068\u306f\u306a\u3044\u3002",
        "P_EXPLAIN_SHORT": "",
        "P_COMMENT_MIX": "",
        "P_COMMENT_EVO": "",
        "P_COMMENT_GETTABLE": ""
    },
    {
        "P_ARMS_ID": "400134",
        "P_DICTIONARY": "\u6280\u3092\u6975\u3081\u3057\u719f\u7df4\u306e\u5263\u58eb\u306b\u3068\u3063\u3066\u3055\u3048\u3001\u305d\u306e\u4e00\u632f\u308a\u3060\u3051\u3067\u3082\u4fa1\u5024\u304c\u3042\u308b\u3068\u8a00\u308f\u308c\u308b\u53cc\u5263\u3002\n\u96f7\u306e\u529b\u3092\u5bbf\u3057\u3001\u92ed\u3044\u65ac\u6483\u3092\u7e70\u308a\u51fa\u3057\u305f\u969b\u306b\u306f\u7a32\u59bb\u304c\u8ff8\u3063\u3066\u5bfe\u8c61\u306b\u8972\u3044\u639b\u304b\u308b\u3002\u8907\u6570\u306e\u6575\u306b\u524d\u9762\u3092\u963b\u307e\u308c\u305f\u969b\u306a\u3069\u306b\u306f\u771f\u4fa1\u3092\u767a\u63ee\u3059\u308b\u3053\u3068\u3060\u308d\u3046\u3002\u8efd\u91cf\u3067\u3042\u308b\u304c\u3086\u3048\u306b\u3001\u7d20\u65e9\u3044\u653b\u6483\u3092\u6226\u578b\u306e\u4e3b\u4f53\u3068\u3059\u308b\u5263\u58eb\u306b\u597d\u307e\u308c\u308b\u50be\u5411\u304c\u5f37\u3044\u304c\u3001\u3046\u3063\u3059\u3089\u3068\u91d1\u8272\u306b\u8f1d\u304f\u305d\u306e\u5203\u306f\u975e\u5e38\u306b\u8010\u4e45\u6027\u306b\u3082\u512a\u308c\u3066\u304a\u308a\u3001\u5203\u3053\u307c\u308c\u3057\u305f\u3068\u3053\u308d\u3092\u898b\u305f\u3053\u3068\u304c\u3042\u308b\u935b\u51b6\u5e2b\u306f\u3044\u306a\u3044\u3068\u3044\u3046\u3002",
        "P_EXPLAIN_SHORT": "",
        "P_COMMENT_MIX": "",
        "P_COMMENT_EVO": "",
        "P_COMMENT_GETTABLE": ""
    },
    {
        "P_ARMS_ID": "400243",
        "P_DICTIONARY": "\u7570\u754c\u3088\u308a\u6f02\u7740\u3057\u305f\u3068\u601d\u3057\u304d\u3001\u9b54\u529b\u3092\u653e\u3064\u9283\u3002\n\u305d\u306e\u9283\u5f3e\u306f\u307e\u3055\u306b\u96f7\u9583\u305d\u306e\u3082\u306e\u306e\u901f\u5ea6\u3067\u653e\u305f\u308c\u3001\u767a\u5c04\u3068\u540c\u6642\u306b\u5bfe\u8c61\u3092\u7a7f\u3061\u8cab\u304f\u3068\u3044\u3046\u3002\u30a8\u30eb\u30ac\u30a4\u30a2\u9023\u90a6\u3067\u767a\u898b\u3055\u308c\u3001\u512a\u308c\u305f\u6027\u80fd\u3092\u6301\u3064\u3053\u3068\u304b\u3089\u5f53\u521d\u306f\u8a2d\u8a08\u6280\u5e2b\u306e\u635c\u7d22\u304c\u884c\u308f\u308c\u3001\u61f8\u8cde\u91d1\u307e\u3067\u61f8\u3051\u3089\u308c\u305f\u3082\u306e\u306e\u3001\u3064\u3044\u306b\u8a2d\u8a08\u8005\u4e0d\u660e\u306e\u307e\u307e\u8b0e\u591a\u304d\u9283\u3068\u3055\u308c\u305f\u3002\u5f8c\u306b\u3001\u7570\u754c\u306e\u5b58\u5728\u304c\u8a8d\u77e5\u3055\u308c\u308b\u306b\u5f93\u3044\u3001\u5148\u9032\u7684\u3067\u4ed6\u306b\u898b\u3089\u308c\u306c\u5185\u90e8\u69cb\u9020\u3084\u523b\u5370\u306a\u3069\u304b\u3089\u3001\u7570\u754c\u3088\u308a\u6f02\u7740\u3057\u305f\u9283\u3067\u3042\u308b\u3068\u8003\u3048\u3089\u308c\u308b\u3088\u3046\u306b\u306a\u3063\u305f\u3002",
        "P_EXPLAIN_SHORT": "",
        "P_COMMENT_MIX": "",
        "P_COMMENT_EVO": "",
        "P_COMMENT_GETTABLE": ""
    },
    {
        "P_ARMS_ID": "400254",
        "P_DICTIONARY": "\u96f7\u7a7f\u9283\u30b9\u30c6\u30e9\u3092\u57fa\u306b\u6539\u9020\u3057\u305f\u5927\u578b\u306e\u9283\u3002\n\u30a2\u30af\u30e9\u30b9\u53ec\u559a\u9662\u3067\u518d\u8a2d\u8a08\u3055\u308c\u305f\u9283\u3067\u3042\u308a\u3001\u57fa\u5e79\u306e\u8a2d\u8a08\u3053\u305d\u30b9\u30c6\u30e9\u3068\u540c\u3058\u3082\u306e\u306e\u3001\u305d\u306e\u5916\u898b\u306f\u3082\u306f\u3084\u7832\u3068\u547c\u3076\u306b\u3075\u3055\u308f\u3057\u3044\u3082\u306e\u3078\u3068\u5909\u8c8c\u3057\u3066\u3044\u308b\u3002\u30b9\u30c6\u30e9\u306e\u901f\u5c04\u80fd\u529b\u3092\u640d\u306a\u3046\u3053\u3068\u306a\u304f\u3001\u5358\u4f53\u306e\u6a19\u7684\u3092\u78ba\u5b9f\u306b\u4ed5\u7559\u3081\u308b\u5a01\u529b\u3092\u5897\u5927\u3055\u305b\u3066\u3044\u308b\u3002\u4ef2\u9593\u306e\u653b\u6483\u3092\u80cc\u5f8c\u3088\u308a\u652f\u3048\u3001\u653b\u3081\u5bc4\u305b\u308b\u6575\u3092\u96f7\u6483\u3068\u5171\u306b\u8599\u304e\u6255\u3046\u305d\u306e\u69d8\u306f\u3001\u96f7\u5e1d\u306e\u540d\u3092\u51a0\u3059\u308b\u306b\u76f8\u5fdc\u3057\u3044\u3082\u306e\u3068\u8a00\u3048\u308b\u3060\u308d\u3046\u3002",
        "P_EXPLAIN_SHORT": "",
        "P_COMMENT_MIX": "",
        "P_COMMENT_EVO": "",
        "P_COMMENT_GETTABLE": ""
    },
    {
        "P_ARMS_ID": "400272",
        "P_DICTIONARY": "\u62f3\u3067\u95d8\u3046\u6226\u58eb\u306e\u305f\u3081\u88fd\u9020\u3055\u308c\u305f\u5c02\u7528\u306e\u624b\u7532\u3002\n\u901a\u5e38\u306e\u93a7\u624b\u7532\u3068\u306f\u9055\u3044\u3001\u62f3\u3092\u50b7\u3081\u305a\u3001\u6253\u6483\u306b\u3088\u308b\u885d\u6483\u3092\u3088\u308a\u76f8\u624b\u306b\u52b9\u679c\u7684\u306b\u4e0e\u3048\u308b\u305f\u3081\u306e\u5de5\u592b\u306a\u3069\u3082\u65bd\u3055\u308c\u3066\u3044\u308b\u3002\u30d5\u30a3\u30eb\u30a2\u30fc\u30e0\u306e\u6b74\u4ee3\u30f4\u30a1\u30a4\u30b6\u30fc\u306e\u4e2d\u306b\u306f\u3001\u6b66\u5668\u3092\u7528\u3044\u305a\u5df1\u306e\u62f3\u306e\u307f\u3092\u983c\u308a\u306b\u6575\u3068\u5bfe\u5cd9\u3059\u308b\u9a0e\u58eb\u3082\u3054\u304f\u5c11\u6570\u306a\u304c\u3089\u5b58\u5728\u3057\u3066\u3044\u308b\u3002\u5263\u3084\u69cd\u3068\u6bd4\u3079\u3066\u6709\u52b9\u306a\u6226\u95d8\u8ddd\u96e2\u304c\u77ed\u3044\u305f\u3081\u3001\u76f8\u624b\u3068\u306e\u9593\u5408\u3044\u3092\u8a70\u3081\u308b\u5fc5\u8981\u306f\u3042\u308b\u304c\u3001\u719f\u7df4\u3057\u305f\u8005\u306e\u62f3\u306e\u5a01\u529b\u306f\u305d\u308c\u3089\u6b66\u5668\u306b\u6c7a\u3057\u3066\u52a3\u308b\u3082\u306e\u3067\u306f\u306a\u3044\u3002",
        "P_EXPLAIN_SHORT": "",
        "P_COMMENT_MIX": "",
        "P_COMMENT_EVO": "",
        "P_COMMENT_GETTABLE": ""
    },
    {
        "P_ARMS_ID": "400283",
        "P_DICTIONARY": "\u30d5\u30a3\u30eb\u30a2\u30fc\u30e0\u738b\u56fd\u4e2d\u671f\u306e\u62f3\u95d8\u58eb\u30ed\u30a6\u30ea\u30f3\u304c\u611b\u7528\u3057\u305f\u3068\u3055\u308c\u308b\u6226\u95d8\u7528\u306e\u624b\u7532\u3002\n\u624b\u7532\u3068\u547c\u3076\u3088\u308a\u3082\u30b0\u30ed\u30fc\u30d6\u306b\u8fd1\u3044\u5f62\u72b6\u3092\u3057\u3066\u304a\u308a\u3001\u62f3\u95d8\u58eb\u81ea\u8eab\u306e\u62f3\u306e\u529b\u3092\u6700\u5927\u9650\u306b\u767a\u63ee\u3059\u308b\u305f\u3081\u306b\u4f5c\u3089\u308c\u3066\u3044\u308b\u3068\u3044\u3046\u3002\u305d\u306e\u305f\u3081\u3001\u7d20\u624b\u3067\u306e\u6226\u95d8\u306b\u81ea\u4fe1\u306e\u306a\u3044\u8005\u304c\u8eab\u306b\u7740\u3051\u3066\u3082\u5927\u3057\u305f\u6027\u80fd\u306f\u767a\u63ee\u3067\u304d\u306a\u3044\u3002\u3057\u304b\u3057\u3001\u9054\u4eba\u304c\u8eab\u306b\u3064\u3051\u308c\u3070\u3001\u305d\u306e\u6253\u6483\u304b\u3089\u96f7\u304c\u751f\u3058\u308b\u3068\u3082\u8a00\u308f\u308c\u308b\u306a\u3069\u3001\u307e\u3055\u306b\u4f7f\u3044\u624b\u3092\u9078\u3076\u901a\u597d\u307f\u306a\u9038\u54c1\u3067\u3042\u308b\u3002",
        "P_EXPLAIN_SHORT": "",
        "P_COMMENT_MIX": "",
        "P_COMMENT_EVO": "",
        "P_COMMENT_GETTABLE": ""
    },
    {
        "P_ARMS_ID": "400294",
        "P_DICTIONARY": "\u30d5\u30a3\u30eb\u30a2\u30fc\u30e0\u738b\u56fd\u4e2d\u671f\u306e\u62f3\u95d8\u58eb\u30ed\u30a6\u30ea\u30f3\u304c\u305d\u306e\u6700\u76db\u671f\u306b\u611b\u7528\u3057\u305f\u3068\u3055\u308c\u308b\u62f3\u95d8\u7528\u306e\u6b66\u5177\u3002\u62f3\u95d8\u58eb\u81ea\u8eab\u306e\u529b\u306b\u547c\u5fdc\u3057\u3001\u5f37\u70c8\u306a\u96f7\u6483\u3092\u898b\u821e\u3046\u305d\u306e\u6253\u6483\u306f\u3001\u51c4\u307e\u3058\u3044\u885d\u6483\u97f3\u3092\u751f\u3058\u308b\u305f\u3081\u5f7c\u306e\u6226\u3044\u3092\u76ee\u306b\u3057\u305f\u8005\u306e\u4e00\u4eba\u304c\u300c\u307e\u308b\u3067\u5929\u304c\u88c2\u3051\u3066\u53eb\u3073\u58f0\u3092\u3042\u3052\u3066\u3044\u305f\u304b\u306e\u3088\u3046\u3060\u3063\u305f\u300d\u3068\u8a00\u3063\u305f\u3053\u3068\u304b\u3089\u300c\u5929\u9cf4\u300d\u306e\u7570\u540d\u304c\u3064\u3044\u305f\u3068\u3044\u3046\u3002\u73fe\u5728\u3067\u306f\u3001\u305d\u3061\u3089\u306e\u65b9\u304c\u6709\u540d\u306b\u306a\u3063\u3066\u3057\u307e\u3063\u305f\u305f\u3081\u3001\u672c\u6765\u306e\u540d\u79f0\u3092\u77e5\u308b\u8005\u306f\u307b\u3068\u3093\u3069\u3044\u306a\u3044\u3002",
        "P_EXPLAIN_SHORT": "",
        "P_COMMENT_MIX": "",
        "P_COMMENT_EVO": "",
        "P_COMMENT_GETTABLE": ""
    },
    {
        "P_ARMS_ID": "400424",
        "P_DICTIONARY": "\u3068\u3042\u308b\u907a\u8de1\u304b\u3089\u767a\u6398\u3055\u308c\u305f\u6295\u64f2\u6b66\u5668\u3002\n\u6a5f\u68b0\u7684\u306a\u5916\u89b3\u3092\u3057\u3066\u3044\u308b\u3082\u306e\u306e\u3001\u30a4\u30af\u30b9\u30bf\u30b9\u7b49\u3068\u3082\u307e\u305f\u5225\u306e\u6280\u8853\u4f53\u7cfb\u306b\u5c5e\u3059\u308b\u4e0d\u601d\u8b70\u306a\u5185\u90e8\u6a5f\u69cb\u304b\u3089\u3001\u672a\u77e5\u306e\u7570\u754c\u304b\u3089\u306e\u6f02\u6d41\u7269\u3068\u63a8\u6e2c\u3055\u308c\u3066\u3044\u308b\u3002\u7121\u9650\u306b\u84b8\u6c17\u3092\u751f\u307f\u51fa\u3059\u9b54\u77f3\u304c\u5185\u8535\u3055\u308c\u3066\u304a\u308a\u3001\u84b8\u6c17\u306e\u50cd\u304d\u306b\u3088\u3063\u3066\u751f\u6210\u3055\u308c\u305f\u96fb\u529b\u306f\u7206\u5f3e\u306b\u5145\u586b\u3055\u308c\u3001\u5404\u90e8\u4f4d\u306e\u6a5f\u68b0\u3092\u99c6\u52d5\u3055\u305b\u308b\u3002\u3053\u308c\u3089\u306b\u306f\u8eab\u4f53\u80fd\u529b\u3092\u88dc\u52a9\u3059\u308b\u6a5f\u80fd\u304c\u3042\u308a\u3001\u8efd\u5feb\u306a\u52d5\u304d\u3068\u91cd\u3044\u7206\u5f3e\u3092\u9060\u304f\u307e\u3067\u6295\u3052\u308b\u3053\u3068\u3092\u53ef\u80fd\u3068\u3057\u3066\u3044\u308b\u3002",
        "P_EXPLAIN_SHORT": "",
        "P_COMMENT_MIX": "",
        "P_COMMENT_EVO": "",
        "P_COMMENT_GETTABLE": ""
    },
    {
        "P_ARMS_ID": "400494",
        "P_DICTIONARY": "\u30a2\u30af\u30e9\u30b9\u53ec\u559a\u9662\u3068\u30a4\u30af\u30b9\u30bf\u30b9\u6280\u8853\u958b\u767a\u5e81\u306b\u3088\n\u308a\u5171\u540c\u958b\u767a\u3055\u308c\u305f\u5bfe\u9b54\u5c0e\u5175\u88c5\u3002\n\u9ad8\u5ea6\u306b\u79d1\u5b66\u6280\u8853\u304c\u767a\u5c55\u3057\u3066\u3044\u308b\u30a4\u30af\u30b9\u30bf\u30b9\u3060\n\u304c\u3001\u9b54\u8853\u306e\u5206\u91ce\u306f\u307b\u3068\u3093\u3069\u767a\u5c55\u3057\u3066\u3053\u306a\u304b\u3063\n\u305f\u3002\u30cd\u30b0\u30ec\u30b9\u3068\u306e\u6226\u3044\u3067\u9b54\u5c0e\u6280\u8853\u306e\u91cd\u8981\u6027\u3092\n\u75db\u611f\u3057\u305f\u6280\u8853\u958b\u767a\u5e81\u306f\u53ec\u559a\u9662\u306e\u5354\u529b\u3092\u5f97\u3066\u3001\n\u9b54\u529b\u3092\u611f\u77e5\u3057\u7684\u78ba\u306a\u653b\u6483\u3092\u52a0\u3048\u3089\u308c\u308b\u5175\u88c5\u306e\n\u958b\u767a\u3092\u884c\u3046\u3002\u305d\u306e\u7d50\u679c\u3001\u653b\u6483\u306e\u969b\u306b\u751f\u3058\u308b\u4f59\n\u5270\u51fa\u529b\u3092\u8caf\u84c4\u3057\u3001\u7d76\u3048\u9593\u306a\u3044\u653b\u52e2\u3092\u53ef\u80fd\u3068\u3059\n\u308b\u8a66\u4f5c\u54c1\u304c\u5b8c\u6210\u3057\u305f\u3068\u3044\u3046\u3002",
        "P_EXPLAIN_SHORT": "",
        "P_COMMENT_MIX": "",
        "P_COMMENT_EVO": "",
        "P_COMMENT_GETTABLE": ""
    },
    {
        "P_ARMS_ID": "400614",
        "P_DICTIONARY": "\u304b\u3064\u3066\u30b0\u30e9\u30f3\u30ac\u30a4\u30a2\u306b\u5b58\u5728\u3057\u305f\u30c8\u30eb\u30c6\u30a3\u30a2\u6b66\u82b8\u9662\u306e\u958b\u7956\u304c\u81ea\u3089\u306e\u7406\u5ff5\u3068\u6280\u8853\u3092\u7db4\u3063\u305f\u66f8\u3002\u305d\u306e\u5185\u5bb9\u3092\u5b9f\u8df5\u3059\u308b\u306b\u306f\u771f\u306e\u5f37\u6575\u3068\u306e\u6b7b\u95d8\u306e\u7d4c\u9a13\u3068\u3001\u5f37\u304d\u9b42\u304c\u5fc5\u8981\u3060\u3068\u4f1d\u3048\u3089\u308c\u3066\u304d\u305f\u3002\u3082\u3057\u305d\u306e\u8aac\u304f\u3068\u3053\u308d\u3092\u4f53\u5f97\u3057\u305f\u306a\u3089\u3070\u3001\u30c8\u30eb\u30c6\u30a3\u30a2\u306e\u958b\u7956\u3092\u3082\u51cc\u3050\u6b66\u5883\u306b\u81f3\u308b\u3068\u3044\u3046\u304c\u3001\u5fc5\u8981\u306a\u3082\u306e\u306f\u7d4c\u9a13\u3068\u9b42\u3060\u3051\u3067\u306f\u306a\u304b\u3063\u305f\u3088\u3046\u3067\u3001\u9577\u3044\u6b73\u6708\u306e\u4e2d\u3067\u4f1a\u5f97\u8005\u306f\u51fa\u306a\u304b\u3063\u305f\u3002\u3057\u304b\u3057\u3001\u53ec\u559a\u8001\u304b\u3089\u3053\u306e\u66f8\u3092\u9810\u304b\u3063\u3066\u3044\u305f\u30ea\u30f3\u306f\u5f37\u3044\u7d46\u306e\u529b\u306b\u3088\u3063\u3066\u5965\u7fa9\u958b\u773c\u3092\u679c\u305f\u3057\u305f\u3002",
        "P_EXPLAIN_SHORT": "",
        "P_COMMENT_MIX": "",
        "P_COMMENT_EVO": "",
        "P_COMMENT_GETTABLE": ""
    },
    {
        "P_ARMS_ID": "500223",
        "P_DICTIONARY": "\u8056\u5225\u3055\u308c\u9b54\u3092\u7815\u304f\u529b\u3092\u6388\u304b\u3063\u305f\u3068\u3044\u3046\u5927\u5263\u3002\n\u30bb\u30eb\u30bf\u30d3\u30a2\u306b\u4f1d\u308f\u308b\u53e4\u4ee3\u795e\u30d7\u30ed\u30ad\u30a2\u304c\u3068\u3042\u308b\u9a0e\u58eb\u306b\u4e0e\u3048\u305f\u3068\u3082\u4f1d\u308f\u308b\u304c\u3001\u61b6\u6e2c\u3084\u4f1d\u627f\u306e\u57df\u3092\u51fa\u306a\u3044\u3002\u3060\u304c\u305d\u306e\u6027\u80fd\u306f\u6298\u308a\u7d19\u3064\u304d\u3067\u3001\u4f4e\u4f4d\u306e\u95c7\u306e\u5b58\u5728\u306a\u3069\u4e00\u592a\u5200\u3067\u305d\u308c\u3092\u7c89\u7815\u3059\u308b\u3060\u3051\u306e\u529b\u3092\u5099\u3048\u3066\u3044\u308b\u3002\u305d\u306e\u305f\u3081\u3001\u5148\u306e\u4f1d\u627f\u306b\u4f75\u305b\u3066\u3001\u3053\u306e\u5263\u306f\u5263\u81ea\u8eab\u306e\u6575\u2015\u2015\u3059\u306a\u308f\u3061\u5263\u3092\u6388\u3051\u305f\u30d7\u30ed\u30ad\u30a2\u306b\u9006\u3089\u3046\u8005\u306e\u529b\u3092\u596a\u3044\u3001\u4e00\u65b9\u7684\u306b\u65ad\u7f6a\u3059\u308b\u305f\u3081\u306e\u6b66\u5668\u3067\u3042\u308b\u3068\u3044\u3046\u8aac\u3092\u5531\u3048\u308b\u8005\u305f\u3061\u3082\u3044\u308b\u3002",
        "P_EXPLAIN_SHORT": "",
        "P_COMMENT_MIX": "",
        "P_COMMENT_EVO": "",
        "P_COMMENT_GETTABLE": ""
    },
    {
        "P_ARMS_ID": "500224",
        "P_DICTIONARY": "\u95c7\u3092\u65ad\u3064\u3068\u3044\u3046\u610f\u5473\u3068\u8056\u3092\u9a19\u308b\u8005\u3092\u65ad\u3064\u3068\u3044\u3046\u610f\u5473\u306e\uff12\u3064\u3092\u6301\u3064\u3068\u3055\u308c\u308b\u5927\u5263\u3002\u30bb\u30eb\u30bf\u30d3\u30a2\u306e\u53e4\u4ee3\u795e\u30d7\u30ed\u30ad\u30a2\u306f\u81ea\u3089\u3092\u5149\u306e\u795e\u3068\u79f0\u3057\u305f\u304c\u3001\u9006\u3089\u3046\u8005\u306f\u5fb9\u5e95\u7684\u306b\u8feb\u5bb3\u3057\u305f\u3068\u3082\u8a00\u308f\u308c\u3066\u3044\u308b\u3002\u5149\u306e\u7cbe\u970a\u3092\u30d1\u30fc\u30c8\u30ca\u30fc\u306b\u6301\u3064\u3068\u3055\u308c\u308b\u6700\u53e4\u306e\u30f4\u30a1\u30a4\u30b6\u30fc\u306e\uff11\u4eba\u30a2\u30b9\u30ac\u30e9\u30f3\u306f\u3001\u8feb\u5bb3\u3055\u308c\u305f\u4eba\u3005\u3092\u6551\u3046\u305f\u3081\u3001\u30d7\u30ed\u30ad\u30a2\u3068\u6226\u3044\u898b\u4e8b\u306b\u6253\u3061\u7834\u3063\u305f\u3002\u305d\u306e\u6642\u306b\u624b\u306b\u3057\u3066\u3044\u305f\u306e\u304c\u7cbe\u970a\u306e\u5149\u306e\u9b54\u529b\u3092\u5e2f\u3073\u3057\u3001\u3053\u306e\u5927\u5263\u3067\u3042\u308b\u3068\u8a00\u308f\u308c\u3066\u3044\u308b\u3002",
        "P_EXPLAIN_SHORT": "",
        "P_COMMENT_MIX": "",
        "P_COMMENT_EVO": "",
        "P_COMMENT_GETTABLE": ""
    },
    {
        "P_ARMS_ID": "500264",
        "P_DICTIONARY": "\u30d0\u30ea\u30a6\u30e9\u5e1d\u56fd\u7b2c\u4e00\u7687\u5b50\u30b7\u30ea\u30a6\u30b9\u304c\u7387\u3044\u308b\u8fd1\u885b\u5175\u56e3\u3067\u643a\u3048\u3089\u308c\u3066\u3044\u305f\u3001\u9b54\u529b\u3092\u5e2f\u3073\u305f\u5263\u3002\n\u88c5\u5099\u3057\u305f\u8005\u306e\u9b54\u529b\u305d\u306e\u3082\u306e\u304b\u3089\u5f62\u6210\u3055\u308c\u308b\u9b54\u6cd5\u306e\u5200\u8eab\u3092\u5099\u3048\u3001\u6226\u6a5f\u3092\u9055\u3048\u305a\u305d\u306e\u51fa\u529b\u3092\u89e3\u653e\u3059\u308c\u3070\u3001\u305d\u306e\u7834\u58ca\u529b\u306f\u6050\u308b\u3079\u304d\u76f8\u4e57\u52b9\u679c\u3092\u767a\u63ee\u3059\u308b\u3002\u3057\u304b\u3057\u305d\u306e\u4e00\u65b9\u3001\u3053\u306e\u9b54\u529b\u306e\u5236\u5fa1\u306f\u6975\u3081\u3066\u96e3\u3057\u3044\u3002\u3053\u308c\u3092\u6271\u3048\u308b\u306e\u306f\u3001\u307e\u3055\u306b\u30b7\u30ea\u30a6\u30b9\u306e\u8fd1\u885b\u5175\u306b\u9078\u3070\u308c\u308b\u307b\u3069\u306e\u8cc7\u8cea\u3092\u5099\u3048\u308b\u8005\u305f\u3061\u306b\u9650\u3089\u308c\u305f\u3068\u8a00\u308f\u308c\u3001\u305d\u306e\u5263\u6280\u306f\u4eca\u306a\u304a\u591a\u304f\u304c\u5931\u4f1d\u3057\u305f\u307e\u307e\u3067\u3042\u308b\u3068\u3044\u3046\u3002",
        "P_EXPLAIN_SHORT": "",
        "P_COMMENT_MIX": "",
        "P_COMMENT_EVO": "",
        "P_COMMENT_GETTABLE": ""
    },
    {
        "P_ARMS_ID": "500304",
        "P_DICTIONARY": "\u30b0\u30e9\u30f3\u30ac\u30a4\u30a2\u306e\u50fb\u5730\u3067\u767a\u898b\u3055\u308c\u305f\u722a\u9244\u7532\u3002\n\u5468\u8fba\u306e\u9271\u5e8a\u3067\u7523\u51fa\u3059\u308b\u7279\u6b8a\u306a\u91d1\u5c5e\u304c\u7528\u3044\u3089\u308c\u3066\u304a\u308a\u3001\u751f\u547d\u529b\u3092\u653b\u6483\u529b\u3078\u8ee2\u63db\u3059\u308b\u3053\u3068\u3067\u9ad8\u3044\u7206\u767a\u529b\u3092\u767a\u63ee\u3059\u308b\u3002\u6b66\u5668\u304c\u767a\u898b\u3055\u308c\u305f\u5de5\u623f\u306e\u907a\u69cb\u306b\u306f\u7363\u4eba\u65cf\u3089\u3057\u304d\u6280\u5e2b\u306e\u624b\u8a18\u3082\u767a\u898b\u3055\u308c\u3066\u304a\u308a\u3001\u5f7c\u3089\u304c\u305d\u306e\u571f\u5730\u3092\u8ffd\u308f\u308c\u305f\u3053\u3068\u304c\u8a18\u3055\u308c\u3066\u3044\u305f\u3002\u672c\u6765\u306f\u7363\u4eba\u306e\u305f\u3081\u306b\u4f5c\u3089\u308c\u305f\u6b66\u5668\u3067\u3042\u308a\u3001\u6fc0\u3057\u3044\u52d5\u304d\u3067\u6575\u3092\u7ffb\u5f04\u3057\u3066\u5f37\u70c8\u306a\u4e00\u6483\u3092\u53e9\u304d\u3053\u3080\u305f\u3081\u306b\u306f\u3001\u7363\u4eba\u3055\u306a\u304c\u3089\u306e\u512a\u308c\u305f\u4f53\u529b\u3068\u77ac\u767a\u529b\u304c\u6c42\u3081\u3089\u308c\u308b\u3002",
        "P_EXPLAIN_SHORT": "",
        "P_COMMENT_MIX": "",
        "P_COMMENT_EVO": "",
        "P_COMMENT_GETTABLE": ""
    },
    {
        "P_ARMS_ID": "500363",
        "P_DICTIONARY": "\u30d1\u30eb\u30df\u30ca\u738b\u56fd\u3067\u767a\u898b\u3055\u308c\u305f\u795e\u5b66\u66f8\u3002\n\u30a2\u30fc\u30ea\u30f3\u30c9\u795e\u5b66\u6821\u8de1\u5730\u306e\u5730\u4e0b\u306b\u4e01\u5be7\u306b\u4fdd\u7ba1\u3055\u308c\u3066\u304a\u308a\u3001\u795e\u708e\u516c\u30ed\u30fc\u30e9\u30f3\u30c9\u3078\u306e\u732e\u8f9e\u304c\u8a18\u3055\u308c\u3066\u3044\u305f\u3002\u540c\u738b\u56fd\u306e\u5d29\u58ca\u306b\u3088\u308b\u96e3\u3092\u9003\u308c\u3055\u305b\u308b\u305f\u3081\u306b\u4f55\u8005\u304b\u304c\u5730\u4e0b\u3078\u96a0\u3057\u305f\u3082\u306e\u3068\u8003\u3048\u3089\u308c\u3066\u3044\u308b\u3002\u96a3\u4eba\u3092\u52a9\u3051\u308b\u3079\u304d\u3053\u3068\u3092\u8aac\u304f\u7d20\u6734\u306a\u4fe1\u4ef0\u544a\u767d\u306e\u66f8\u3067\u3042\u308a\u306a\u304c\u3089\u3001\u4eba\u3005\u3092\u6551\u3046\u305f\u3081\u306e\u5b9f\u7528\u66f8\u3068\u3057\u3066\u306e\u5074\u9762\u3082\u6301\u3061\u3001\u50b7\u3064\u3044\u305f\u8005\u306e\u6f5c\u5728\u80fd\u529b\u3092\u5f15\u304d\u51fa\u3059\u3053\u3068\u3067\u77ac\u304f\u9593\u306b\u305d\u306e\u50b7\u3092\u7652\u3059\u79d8\u6cd5\u306a\u3069\u304c\u8a18\u3055\u308c\u3066\u3044\u308b\u3002",
        "P_EXPLAIN_SHORT": "",
        "P_COMMENT_MIX": "",
        "P_COMMENT_EVO": "",
        "P_COMMENT_GETTABLE": ""
    },
    {
        "P_ARMS_ID": "500374",
        "P_DICTIONARY": "\u5e1d\u90fd\u56f3\u66f8\u9928\u304b\u3089\u201c\u767a\u6398\u201d\u3055\u308c\u305f\u9b54\u5c0e\u66f8\u3002\n\u56f3\u66f8\u9928\u306b\u53ce\u8535\u8a18\u9332\u304c\u306a\u304f\u3001\u30ea\u30f3\u30c8\u9928\u9577\u306b\u3082\u898b\u899a\u3048\u304c\u306a\u3044\u3068\u3044\u3046\u3044\u308f\u304f\u3064\u304d\u306e\u66f8\u3067\u3042\u308a\u3001\u3044\u3064\u3069\u3053\u304b\u3089\u7d1b\u308c\u8fbc\u3093\u3060\u304b\u3055\u3048\u3001\u3088\u3046\u3068\u3057\u3066\u77e5\u308c\u306a\u3044\u3002\u5185\u5bb9\u306f\u53e1\u667a\u306e\u8f1d\u304d\u306b\u3064\u3044\u3066\u8a9e\u308b\u54f2\u5b66\u66f8\u3067\u3042\u308b\u304c\u3001\u76f8\u5fdc\u3057\u3044\u9b54\u529b\u3092\u6301\u3064\u8005\u306e\u76ee\u306b\u306f\u79d8\u533f\u3055\u308c\u305f\u546a\u6587\u304c\u6d6e\u304b\u3073\u4e0a\u304c\u308b\u3068\u3044\u3046\u3002\u305d\u306e\u8005\u304c\u9b54\u5c0e\u66f8\u3092\u7d10\u89e3\u3051\u3070\u3001\u5468\u56f2\u306b\u306f\u6e05\u6d44\u306a\u7d50\u754c\u304c\u751f\u6210\u3055\u308c\u3066\u4ef2\u9593\u306e\u50b7\u3092\u7652\u3057\u3001\u4e0d\u5229\u306a\u6226\u6cc1\u3092\u4e00\u77ac\u306b\u3057\u3066\u7acb\u3066\u76f4\u3059\u3053\u3068\u3082\u3067\u304d\u308b\u3068\u3044\u3046\u3002",
        "P_EXPLAIN_SHORT": "",
        "P_COMMENT_MIX": "",
        "P_COMMENT_EVO": "",
        "P_COMMENT_GETTABLE": ""
    },
    {
        "P_ARMS_ID": "500413",
        "P_DICTIONARY": "\u30a2\u30af\u30e9\u30b9\u53ec\u559a\u9662\u304c\u958b\u767a\u3057\u305f\u4eba\u9020\u9b54\u6cd5\u7403\u3002\n\u53ec\u559a\u8853\u3092\u5fdc\u7528\u3057\u305f\u9b54\u6cd5\u7403\u306e\u5c55\u958b\u3068\u53ce\u7d0d\u304c\u53ef\u80fd\u3068\u306a\u3063\u3066\u3044\u308b\u3002\u9b54\u6cd5\u7403\u306f\u9b54\u8853\u306e\u5a92\u4ecb\u3068\u306a\u308b\u3053\u3068\u3067\u9b54\u6cd5\u306e\u7834\u58ca\u529b\u3092\u5897\u5927\u3055\u305b\u308b\u3082\u306e\u306e\u3001\u5236\u5fa1\u304c\u96e3\u3057\u304f\u3001\u96c6\u4e2d\u529b\u3092\u9014\u5207\u308c\u3055\u305b\u308b\u3068\u9b54\u529b\u306e\u6f0f\u51fa\u3092\u62db\u3044\u3066\u3057\u307e\u3046\u3002\u307e\u305f\u3001\u672c\u6765\u3067\u3042\u308c\u3070\u9b54\u6cd5\u7403\u306e\u904b\u7528\u306f\u8eab\u4f53\u7684\u8ca0\u62c5\u3082\u76f8\u5f53\u306a\u3082\u306e\u3067\u3042\u3063\u305f\u304c\u3001\u9023\u90a6\u306e\u30db\u30e0\u30f3\u30af\u30eb\u30b9\u7814\u7a76\u306e\u6210\u679c\u304c\u53d6\u308a\u5165\u308c\u3089\u308c\u305f\u4e8b\u3067\u3001\u305d\u306e\u8ca0\u62c5\u306f\u5927\u5e45\u306b\u8efd\u6e1b\u3055\u308c\u305f\u3068\u3044\u3046\u8aac\u3082\u3042\u308b\u3002",
        "P_EXPLAIN_SHORT": "",
        "P_COMMENT_MIX": "",
        "P_COMMENT_EVO": "",
        "P_COMMENT_GETTABLE": ""
    },
    {
        "P_ARMS_ID": "500414",
        "P_DICTIONARY": "\u30a2\u30af\u30e9\u30b9\u53ec\u559a\u9662\u304c\u958b\u767a\u3057\u305f\u9b54\u6cd5\u7403\u306e\u767a\u5c55\u578b\u3002\n\u9b54\u6cd5\u7403\u305d\u308c\u81ea\u4f53\u304c\u9650\u754c\u307e\u3067\u5727\u7e2e\u3055\u308c\u305f\u9ad8\u7d14\u5ea6\u306e\u9b54\u529b\u306e\u584a\u3067\u3042\u308a\u3001\u3053\u308c\u3092\u5a92\u4ecb\u3059\u308b\u3053\u3068\u3067\u9650\u754c\u3092\u8d85\u3048\u305f\u9b54\u529b\u3092\u5f15\u304d\u51fa\u3059\u3053\u3068\u3092\u53ef\u80fd\u3068\u3057\u3001\u9b54\u6cd5\u653b\u6483\u306e\u7834\u58ca\u529b\u3092\u683c\u6bb5\u306b\u5897\u5927\u3055\u305b\u308b\u3002\u4e00\u65b9\u3067\u305d\u306e\u5236\u5fa1\u306b\u306f\u9ad8\u3044\u7cbe\u5bc6\u6027\u304c\u8981\u6c42\u3055\u308c\u3001\u5236\u5fa1\u3092\u8aa4\u308c\u3070\u3001\u5168\u9b54\u529b\u306e\u653e\u51fa\u306b\u3088\u308b\u4e00\u6642\u7684\u306a\u9b54\u529b\u306e\u67af\u6e07\u306b\u9665\u308b\u3053\u3068\u3082\u3042\u308b\u3002\u4e26\u5916\u308c\u305f\u9b54\u529b\u3068\u96c6\u4e2d\u529b\u3092\u5fc5\u8981\u3068\u3059\u308b\u3053\u306e\u9b54\u6cd5\u7403\u3092\u6271\u3048\u308b\u306e\u306f\u3001\u53ec\u559a\u9662\u3067\u3082\u6975\u4e00\u90e8\u306b\u9650\u3089\u308c\u308b\u3068\u3044\u3046\u3002",
        "P_EXPLAIN_SHORT": "",
        "P_COMMENT_MIX": "",
        "P_COMMENT_EVO": "",
        "P_COMMENT_GETTABLE": ""
    },
    {
        "P_ARMS_ID": "500504",
        "P_DICTIONARY": "\u30d5\u30a3\u30eb\u30a2\u30fc\u30e0\u9a0e\u58eb\u56e3\u306b\u4ee3\u3005\u53d7\u3051\u7d99\u304c\u308c\u3066\u304d\u305f\n\u4e8c\u632f\u306e\u8056\u5263\u306e\u3072\u3068\u3064\u3002\n\u9065\u304b\u6614\u306b\u306f\u3001\u8056\u708e\u5263\u30a2\u30b9\u30c6\u30e9\u30fc\u30c0\u3068\u3044\u3046\u4e00\u632f\n\u3067\u3042\u3063\u305f\u3068\u3055\u308c\u3001\u30d5\u30a3\u30eb\u30a2\u30fc\u30e0\u9a0e\u58eb\u56e3\u3067\u306f\u3001\n\u6b74\u4ee3\u306e\u56e3\u9577\u3084\u3001\u6700\u5f37\u683c\u3068\u3055\u308c\u308b\u9a0e\u58eb\u304c\u56fd\u738b\u304b\n\u3089\u6388\u3051\u3089\u308c\u3001\u305d\u306e\u8eab\u306b\u643a\u3048\u305f\u3068\u3044\u3046\u3002\u30a2\u30fc\u30ac\n\u30b9\u306f\u30d5\u30a3\u30eb\u30a2\u30fc\u30e0\u9a0e\u58eb\u56e3\u306e\u56e3\u9577\u3068\u306a\u3063\u305f\u969b\u306b\n\u3053\u306e\u4e00\u5bfe\u306e\u5263\u3092\u8cdc\u308b\u3068\u3001\u4e00\u77ac\u305f\u308a\u3068\u3082\u8ff7\u3046\u3053\n\u3068\u306a\u304f\u3001\u3082\u3046\u4e00\u632f\u3092\u30ed\u30fc\u30ea\u306b\u6e21\u3057\u3001\u3068\u3082\u306b\n\u30f4\u30a1\u30a4\u30b6\u30fc\u3068\u3057\u3066\u56fd\u3092\u5b88\u308b\u3053\u3068\u3092\u8a93\u3044\u5408\u3063\u305f\u3002",
        "P_EXPLAIN_SHORT": "",
        "P_COMMENT_MIX": "",
        "P_COMMENT_EVO": "",
        "P_COMMENT_GETTABLE": ""
    },
    {
        "P_ARMS_ID": "500524",
        "P_DICTIONARY": "\u97f3\u697d\u306e\u5973\u795e\u304c\u4eba\u9593\u306b\u4e0e\u3048\u305f\u81f3\u5b9d\u305f\u308b\u697d\u5668\u3002\u795e\n\u6a39\u304b\u3089\u524a\u308a\u51fa\u3055\u308c\u305f\u80f4\u306b\u6b6a\u307f\u306f\u4e00\u5207\u306a\u304f\u3001\uff14\n\u672c\u306e\u5f26\u306f\u8abf\u548c\u306e\u91d1\u5c5e\u7cf8\u304b\u3089\u306a\u308b\u3002\u96f2\u6d77\u9be8\u306e\u9aed\n\u3092\u7528\u3044\u305f\u5f13\u3067\u97f3\u8272\u3092\u594f\u3067\u308c\u3070\u3001\u5999\u306a\u308b\u8abf\u3079\u304c\n\u8f1d\u304f\u3088\u3046\u306b\u7a7a\u3078\u3068\u9cf4\u308a\u97ff\u304f\u3068\u8a00\u308f\u308c\u3066\u3044\u308b\u3002\n\u6e05\u3089\u304b\u306a\u308b\u5fc3\u3067\u5f13\u3092\u5f15\u3051\u3070\u3001\u305d\u306e\u5149\u306e\u5954\u6d41\u306e\n\u5982\u304d\u97f3\u8272\u306f\u90aa\u5fc3\u3092\u5c04\u629c\u304f\u3068\u3044\u3046\u3002\u307e\u305f\u3001\u6148\u611b\n\u306e\u5fc3\u3067\u5f13\u3092\u5f15\u3051\u3070\u3001\u714c\u3081\u304f\u8056\u306a\u308b\u65cb\u5f8b\u304c\u52c7\u5fc3\n\u3092\u596e\u3044\u7acb\u305f\u305b\u308b\u3068\u3044\u3046\u3002\u306a\u304a\u3001\u88cf\u677f\u306b\u306f\u300c\u79f0\n\u3048\u3088\u3001\u7f8e\u3057\u304d\u4e16\u754c\u3092\u300d\u3068\u5f6b\u3089\u308c\u3066\u3044\u308b\u3002",
        "P_EXPLAIN_SHORT": "",
        "P_COMMENT_MIX": "",
        "P_COMMENT_EVO": "",
        "P_COMMENT_GETTABLE": ""
    },
    {
        "P_ARMS_ID": "500584",
        "P_DICTIONARY": "\u771f\u5b9f\u3092\u7167\u3089\u3059\u5149\u3092\u653e\u51fa\u3057\u90aa\u5fc3\u3092\u6ec5\u3059\u308b\u9b54\u93e1\u3002\n\u305d\u306e\u539f\u578b\u3068\u306a\u3063\u305f\u907a\u7269\u306f\u3001\u30d0\u30ea\u30a6\u30e9\u306b\u304a\u3044\u3066\n\u53e4\u4ee3\u907a\u8de1\u8abf\u67fb\u968a\u306b\u3088\u3063\u3066\u767a\u6398\u3055\u308c\u305f\u3002\u7834\u90aa\u9855\n\u6b63\u306e\u529b\u3092\u6301\u3063\u3066\u90aa\u306a\u5b58\u5728\u3092\u5426\u5b9a\u3059\u308b\u304c\u3001\u4f7f\u7528\n\u3059\u308b\u8853\u8005\u81ea\u8eab\u3082\u93e1\u306b\u6620\u3063\u305f\u81ea\u8eab\u306e\u59ff\u306b\u6b63\u7fa9\u306e\n\u5fc3\u3092\u554f\u308f\u308c\u308b\u3068\u3044\u3046\u3002\u93e1\u306e\u5185\u90e8\u3067\u5bfe\u5cd9\u3057\u305f\u81ea\n\u5206\u81ea\u8eab\u306b\u6b63\u7fa9\u3092\u8a8d\u3081\u3089\u308c\u308c\u3070\u518d\u3073\u5143\u306e\u4e16\u754c\u306b\n\u623b\u308b\u3053\u3068\u304c\u3067\u304d\u308b\u304c\u3001\u60aa\u3057\u304d\u5fc3\u3092\u96a0\u3057\u3066\u3044\u308b\n\u306e\u3092\u898b\u629c\u304b\u308c\u305f\u8005\u306f\u3001\u305d\u306e\u307e\u307e\u6c38\u9060\u306b\u9b54\u93e1\u306e\n\u5185\u306b\u53d6\u308a\u8fbc\u307e\u308c\u3066\u3057\u307e\u3046\u3068\u3055\u308c\u3066\u3044\u308b\u3002",
        "P_EXPLAIN_SHORT": "",
        "P_COMMENT_MIX": "",
        "P_COMMENT_EVO": "",
        "P_COMMENT_GETTABLE": ""
    },
    {
        "P_ARMS_ID": "500624",
        "P_DICTIONARY": "\u30d5\u30a3\u30eb\u30a2\u30fc\u30e0\u9a0e\u58eb\u56e3\u306b\u4ee3\u3005\u53d7\u3051\u7d99\u304c\u308c\u3066\u304d\u305f\n\u4e8c\u632f\u306e\u8056\u5263\u3002\u6069\u5e2b\u305f\u3061\u306e\u5371\u6a5f\u3092\u6551\u3046\u305f\u3081\u82e5\u304d\n\u9a0e\u58eb\u306f\u5f7c\u3089\u306e\u6b66\u5668\u3092\u624b\u306b\u53d6\u3063\u305f\u3002\u30ea\u30f3\u304b\u3089\u708e\n\u5263\u3092\u53d7\u3051\u53d6\u308a\u3001\u5263\u3092\u4e21\u306e\u624b\u306b\u69cb\u3048\u308b\u3068\u3001\u5f7c\u5973\n\u3068\u306e\u7d46\u306f\u3082\u3061\u308d\u3093\u3001\u30a2\u30fc\u30ac\u30b9\u3001\u30ed\u30fc\u30ea\u3001\u30b0\u30e9\n\u30f3\u30c8\u3001\u30d5\u30a3\u30eb\u30a2\u30fc\u30e0\u9a0e\u58eb\u56e3\u5168\u54e1\u306e\u7d46\u306e\u529b\u304c\u6d41\n\u308c\u8fbc\u3093\u3060\u3068\u3044\u3046\u3002\u672c\u6765\u4e00\u632f\u308a\u306e\u5263\u3067\u3042\u3063\u305f\u3053\n\u306e\u8056\u5263\u304c\u5225\u305f\u308c\u305f\u7d4c\u7def\u306f\u4f1d\u3048\u3089\u308c\u3066\u3044\u306a\u3044\u3002\n\u3057\u304b\u3057\u3001\u4e8c\u632f\u3092\u540c\u6642\u306b\u6271\u3063\u305f\u82e5\u304d\u9a0e\u58eb\u306f\u76f4\u611f\n\u3057\u305f\u3002\u7d46\u3068\u306f\u72ec\u308a\u3067\u306f\u751f\u307e\u308c\u306a\u3044\u306e\u3060\u3068\u3002",
        "P_EXPLAIN_SHORT": "",
        "P_COMMENT_MIX": "",
        "P_COMMENT_EVO": "",
        "P_COMMENT_GETTABLE": ""
    },
    {
        "P_ARMS_ID": "600184",
        "P_DICTIONARY": "\u30a4\u30b7\u30e5\u30b0\u30ea\u30a2\u3067\u767a\u898b\u3055\u308c\u305f\u5f13\u3002\n\u5f13\u8eab\u306b\u523b\u307e\u308c\u305f\u9298\u304b\u3089\u30d0\u30ea\u30a6\u30e9\u5e1d\u56fd\u51fa\u8eab\u306e\u5f13\u8853\u5e2b\u304c\u5236\u4f5c\u3057\u305f\u3082\u306e\u3060\u3068\u8003\u3048\u3089\u308c\u3066\u3044\u308b\u3002\u5fae\u91cf\u306e\u9b54\u529b\u3067\u6700\u5927\u9650\u306e\u52b9\u679c\u3092\u767a\u63ee\u3059\u308b\u3053\u3068\u3092\u4e3b\u773c\u306b\u3001\u7834\u58ca\u529b\u3092\u9ad8\u3081\u308b\u3060\u3051\u3067\u306f\u306a\u304f\u3001\u77e2\u5c3b\u306b\u546a\u8a5b\u3092\u4ed8\u4e0e\u3059\u308b\u9b54\u529b\u304c\u8fbc\u3081\u3089\u308c\u3066\u3044\u308b\u3002\u6d88\u8cbb\n\u3059\u308b\u9b54\u529b\u3092\u7121\u99c4\u306b\u305b\u305a\u3001\u5947\u8972\u3084\u652a\u4e71\u306b\u9577\u3058\u305f\u3053\u306e\u5f13\u306f\u3001\u3042\u308b\u3044\u306f\u529b\u5f31\u304d\u8005\u304c\u904e\u9177\u306a\u74b0\u5883\u3067\u751f\u304d\u629c\u304f\u305f\u3081\u306b\u4f5c\u3089\u308c\u305f\u3082\u306e\u3060\u3063\u305f\u306e\u304b\u3082\u3057\u308c\u306a\u3044\u3002",
        "P_EXPLAIN_SHORT": "",
        "P_COMMENT_MIX": "",
        "P_COMMENT_EVO": "",
        "P_COMMENT_GETTABLE": ""
    },
    {
        "P_ARMS_ID": "600193",
        "P_DICTIONARY": "\u30d0\u30ea\u30a6\u30e9\u5730\u65b9\u306e\u5c11\u6570\u6c11\u65cf\u304c\u907a\u3057\u305f\u5927\u6226\u65a7\u3002\n\u8089\u539a\u306e\u5203\u3067\u529b\u4efb\u305b\u306b\u6575\u3092\u7c89\u7815\u3059\u308b\u8352\u3005\u3057\u3044\u4f5c\u308a\u306e\u6b66\u5668\u3067\u3042\u308a\u3001\u6fc0\u3057\u3044\u6226\u3044\u306b\u3082\u8010\u3048\u5f97\u308b\u3088\u3046\u3001\u7adc\u306e\u9aa8\u304b\u3089\u7d44\u307f\u4e0a\u3052\u3089\u308c\u305f\u5805\u7262\u306a\u67c4\u304c\u5203\u3092\u652f\u3048\u3066\u3044\u308b\u3002\u3053\u306e\u65a7\u3092\u5f97\u7269\u3068\u3057\u3066\u3044\u305f\u305d\u306e\u6c11\u65cf\u3067\u306f\u3001\u7adc\u306e\u9aa8\u306b\u306f\u546a\u8853\u7684\u306a\u529b\u304c\u3042\u308b\u3068\u8003\u3048\u3089\u308c\u3066\u3044\u305f\u3002\u7adc\u306e\u9aa8\u306f\u3001\u305d\u308c\u3092\u8eab\u306b\u7740\u3051\u3066\u6226\u3063\u305f\u6226\u58eb\u306e\u6b66\u52c7\u3092\u9ad8\u3081\u308b\u3070\u304b\u308a\u3067\u306a\u304f\u3001\u6226\u3044\u306e\u6700\u4e2d\u306b\u679c\u3066\u305f\u6226\u58eb\u306e\u9b42\u306f\u3001\u6b7b\u5f8c\u3001\u7adc\u3068\u306a\u308a\u8ee2\u751f\u3059\u308b\u3068\u4fe1\u3058\u3089\u308c\u3066\u3044\u305f\u3068\u3044\u3046\u3002",
        "P_EXPLAIN_SHORT": "",
        "P_COMMENT_MIX": "",
        "P_COMMENT_EVO": "",
        "P_COMMENT_GETTABLE": ""
    },
    {
        "P_ARMS_ID": "600204",
        "P_DICTIONARY": "\u30d0\u30ea\u30a6\u30e9\u5e1d\u56fd\u3067\u88fd\u9020\u3055\u308c\u3066\u3044\u305f\u69cd\u65a7\u3002\n\u4ed8\u4e0e\u3055\u308c\u305f\u5f37\u5316\u9b54\u6cd5\u306b\u3088\u3063\u3066\u5168\u304f\u91cd\u91cf\u3092\u611f\u3058\u3055\u305b\u306a\u3044\u3002\u8cea\u91cf\u3084\u529b\u4efb\u305b\u306b\u983c\u3063\u3066\u6575\u3092\u53e9\u304d\u5207\u308b\u6b66\u5668\u3067\u306f\u306a\u3044\u305f\u3081\u3001\u88c5\u5099\u8005\u306b\u306f\u69cd\u8853\u3084\u65a7\u8853\u3092\u306f\u3058\u3081\u3001\u591a\u5c90\u306b\u6e21\u308b\u6226\u3044\u306e\u6280\u8853\u3092\u7fd2\u5f97\u3057\u3066\u3044\u308b\u3053\u3068\u304c\u6c42\u3081\u3089\u308c\u308b\u3002\u3060\u304c\u305d\u308c\u3089\u3092\u8eab\u306b\u4ed8\u3051\u305f\u512a\u308c\u305f\u6226\u58eb\u304c\u3053\u306e\u6b66\u5668\u3092\u624b\u306b\u3059\u308c\u3070\u3001\u3044\u304b\u306a\u308b\u6575\u3068\u3082\u6e21\u308a\u5408\u3048\u308b\u3068\u8a00\u308f\u308c\u3001\u30b0\u30e9\u30f3\u30ac\u30a4\u30a2\u5927\u6226\u3067\u306e\u795e\u3005\u3068\u306e\u6226\u3044\u306b\u304a\u3044\u3066\u3082\u6570\u591a\u304f\u306e\u795e\u8ecd\u306e\u5f37\u6575\u3092\u846c\u3063\u305f\u3068\u4f1d\u3048\u3089\u308c\u3066\u3044\u308b\u3002",
        "P_EXPLAIN_SHORT": "",
        "P_COMMENT_MIX": "",
        "P_COMMENT_EVO": "",
        "P_COMMENT_GETTABLE": ""
    },
    {
        "P_ARMS_ID": "600354",
        "P_DICTIONARY": "\u88c5\u5099\u8005\u306b\u5fdc\u3058\u3066\u6027\u8cea\u304c\u5909\u5316\u3059\u308b\u8b0e\u306e\u6226\u97ad\u3002\n\u632f\u308b\u3046\u8005\u306e\u601d\u3046\u304c\u307e\u307e\u7e26\u6a2a\u7121\u5c3d\u306b\u6575\u3092\u5f15\u304d\u88c2\u304d\u3001\u305d\u306e\u610f\u5fd7\u306b\u5fdc\u3058\u3066\u5e7e\u901a\u308a\u306b\u3082\u305d\u306e\u6027\u8cea\u3092\u5909\u5316\u3055\u305b\u308b\u3068\u3044\u3046\u4e0d\u601d\u8b70\u306a\u80fd\u529b\u3092\u5099\u3048\u308b\u3002\u97ad\u306e\u5185\u90e8\u304c\u795e\u7d4c\u7cfb\u306b\u4f3c\u305f\u69cb\u9020\u3092\u3057\u3066\u304a\u308a\u3001\u88c5\u5099\u8005\u306e\u8eab\u4f53\u3092\u4f1d\u308f\u308b\u50c5\u304b\u306a\u7cbe\u795e\u306e\u5909\u5316\u3092\u6349\u3048\u3066\u81ea\u3089\u3082\u307e\u305f\u5909\u5316\u3057\u3066\u3044\u304f\u3068\u8a00\u308f\u308c\u308b\u304c\u3001\u8a73\u7d30\u306f\u4e0d\u660e\u3067\u3042\u308b\u3002\u8b0e\u306e\u591a\u3044\u6b66\u5668\u3067\u3042\u308b\u305f\u3081\u3001\u4f5c\u3063\u305f\u8005\u3082\u3088\u304f\u89e3\u3063\u3066\u304a\u3089\u305a\u3001\u4e00\u8aac\u306b\u306f\u9b54\u65cf\u304c\u4f5c\u3063\u305f\u97ad\u3067\u3042\u308b\u3068\u3082\u5642\u3055\u308c\u3066\u3044\u308b\u3002",
        "P_EXPLAIN_SHORT": "",
        "P_COMMENT_MIX": "",
        "P_COMMENT_EVO": "",
        "P_COMMENT_GETTABLE": ""
    },
    {
        "P_ARMS_ID": "600443",
        "P_DICTIONARY": "\u51f0\u5203\u90a3\u539f\u306b\u4f1d\u308f\u308b\u546a\u308f\u308c\u3057\u5996\u5200\u3002\n\u5996\u306e\u529b\u3092\u5bbf\u3057\u3066\u304a\u308a\u3001\u305d\u306e\u4e3b\u306b\u70ba\u3059\u3079\u304d\u3092\u70ba\u3055\u3057\u3081\u308b\u3068\u5171\u306b\u3001\u975e\u696d\u306e\u672b\u8def\u3092\u3082\u305f\u3089\u3059\u3068\u8a9e\u3089\u308c\u308b\u3002\u9060\u3044\u6614\u3001\u3068\u3042\u308b\u5263\u5ba2\u304c\u4e16\u3092\u4e71\u3059\u8352\u795e\u3092\u8a0e\u3064\u305f\u3081\u306b\u3053\u306e\u5200\u3092\u624b\u306b\u3057\u305f\u3002\u5f7c\u306f\u8352\u795e\u3092\u8a0e\u3063\u3066\u591a\u304f\u306e\u4eba\u3005\u3092\u6551\u3063\u305f\u304c\u3001\u6642\u3092\u7d4c\u305a\u91cd\u3044\u60aa\u75c5\u306b\u7f79\u308a\u3001\u8ab0\u306b\u770b\u53d6\u3089\u308c\u308b\u3053\u3068\u3082\u306a\u304f\u72ec\u308a\u82e6\u3057\u3093\u3067\u4ea1\u304f\u306a\u3063\u305f\u3002\u9ab8\u3092\u62fe\u3063\u305f\u65c5\u306e\u50e7\u4fb6\u306f\u5f7c\u3092\u6190\u308c\u307f\u3001\u585a\u3092\u7bc9\u3044\u3066\u5200\u3092\u7940\u308a\u3001\u5bfa\u3092\u69cb\u3048\u3066\u5263\u5ba2\u306e\u9b42\u3092\u5b89\u3093\u3058\u305f\u3068\u3044\u3046\u3002",
        "P_EXPLAIN_SHORT": "",
        "P_COMMENT_MIX": "",
        "P_COMMENT_EVO": "",
        "P_COMMENT_GETTABLE": ""
    },
    {
        "P_ARMS_ID": "600444",
        "P_DICTIONARY": "\u51f0\u5203\u90a3\u539f\u304b\u3089\u7570\u754c\u3078\u3068\u6e21\u3063\u305f\u4f1d\u8aac\u306e\u5996\u5200\u3002\n\u50e7\u4fb6\u306e\u6b7b\u5f8c\u3001\u5200\u585a\u306f\u305d\u306e\u66f0\u304f\u304c\u5fcc\u907f\u3055\u308c\u3066\u624b\u5165\u308c\u3092\u3059\u308b\u8005\u3082\u9014\u7d76\u3048\u3001\u3044\u3064\u3057\u304b\u82d4\u751f\u3059\u307e\u307e\u306b\u6368\u3066\u7f6e\u304b\u308c\u3066\u3044\u305f\u3002\u3060\u304c\u3042\u308b\u6642\u3001\u585a\u306f\u7834\u58ca\u3055\u308c\u3001\u5200\u306f\u5ffd\u7136\u3068\u59ff\u3092\u6d88\u3057\u305f\u3068\u3044\u3046\u3002\u59ff\u3092\u6d88\u3057\u305f\u5200\u306f\u3068\u3042\u308b\u7570\u754c\u3078\u6f02\u7740\u3057\u305f\u304c\u3001\u591a\u304f\u306e\u5263\u5ba2\u306e\u624b\u3092\u6e21\u308b\u306a\u304b\u3067\u5f90\u3005\u306b\u546a\u3044\u3092\u65ad\u3061\u5207\u308a\u3001\u305d\u306e\u5f8c\u306b\u306f\u7d14\u7136\u305f\u308b\u5996\u306e\u529b\u3060\u3051\u304c\u6b8b\u3055\u308c\u305f\u3068\u3044\u3046\u3002\u6216\u3044\u306f\u546a\u3044\u3092\u8d85\u514b\u3057\u305f\u3053\u306e\u59ff\u3053\u305d\u304c\u3001\u5200\u306e\u771f\u306e\u59ff\u306a\u306e\u304b\u3082\u3057\u308c\u306a\u3044\u3002",
        "P_EXPLAIN_SHORT": "",
        "P_COMMENT_MIX": "",
        "P_COMMENT_EVO": "",
        "P_COMMENT_GETTABLE": ""
    },
    {
        "P_ARMS_ID": "600474",
        "P_DICTIONARY": "\u661f\u306e\u529b\u3092\u4fe1\u5949\u3059\u308b\u6b66\u88c5\u96c6\u56e3\u304c\u4f7f\u7528\u3057\u305f\u53cc\u69cd\u3002\n\u3042\u308b\u7570\u754c\u306b\u3001\u5929\u304b\u3089\u964d\u3063\u305f\u3068\u3044\u3046\u4f1d\u627f\u3092\u6301\u3064\n\u661f\u77f3\u304c\u5b58\u5728\u3057\u305f\u3002\u6b66\u88c5\u96c6\u56e3\u306f\u305d\u306e\u661f\u77f3\u3092\u52a0\u5de5\n\u3057\u3001\u661f\u306e\u529b\u3092\u5bbf\u3059\u53cc\u69cd\u3092\u4f5c\u308a\u51fa\u3057\u305f\u3002\u661f\u77f3\u306e\n\u6b66\u5668\u306f\u4e92\u3044\u306b\u5171\u9cf4\u3057\u5408\u3044\u3001\u96c6\u56e3\u3067\u306e\u6226\u3044\u306b\u304a\n\u3044\u3066\u3001\u7121\u985e\u306e\u529b\u3092\u767a\u63ee\u3057\u305f\u3068\u3044\u3046\u3002\u3086\u3048\u306b\u3001\n\u5f7c\u3089\u306f\u5168\u54e1\u304c\u540c\u3058\u6b66\u5668\u3092\u643a\u3048\u3066\u3044\u305f\u3068\u4f1d\u3048\u3089\n\u308c\u3066\u3044\u308b\u3002\u53cc\u69cd\u306e\u6b66\u88c5\u96c6\u56e3\u306f\u6751\u3084\u8857\u3092\u3044\u304f\u3064\n\u3082\u6ec5\u307c\u3057\u305f\u3068\u5642\u3055\u308c\u3066\u3044\u308b\u304c\u3001\u305d\u306e\u76ee\u7684\u306f\u661f\n\u77f3\u306e\u72ec\u5360\u306b\u3042\u3063\u305f\u3068\u8003\u3048\u3089\u308c\u3066\u3044\u308b\u3002",
        "P_EXPLAIN_SHORT": "",
        "P_COMMENT_MIX": "",
        "P_COMMENT_EVO": "",
        "P_COMMENT_GETTABLE": ""
    },
    {
        "P_ARMS_ID": "600534",
        "P_DICTIONARY": "\u30a8\u30eb\u30ac\u30a4\u30a2\u306e\u5730\u306b\u306f\u592a\u53e4\u306e\u6614\u3088\u308a\u4e0d\u6b7b\u306e\u9b54\u795e\n\u30b6\u30eb\u30f4\u30a1\u30fc\u30c9\u304c\u7720\u308a\u306b\u3064\u3044\u3066\u3044\u305f\u3002\u3042\u308b\u72c2\u6c17\n\u306e\u6280\u8853\u8005\u304c\u305d\u306e\u9b42\u7247\u3092\u5165\u624b\u3057\u3001\u751f\u304d\u7269\u306e\u9b42\u3092\n\u5438\u3046\u3053\u3068\u304c\u3067\u304d\u308b\u9b54\u5263\u3092\u4f5c\u308a\u4e0a\u3052\u305f\u3002\u3082\u3057\u3082\n\u3053\u306e\u9b54\u5263\u304c\u7121\u304b\u3063\u305f\u306a\u3089\u3070\u3001\u5fa9\u6d3b\u3057\u305f\u9b54\u795e\u3092\n\u8a0e\u3064\u3053\u3068\u306f\u304b\u306a\u308f\u306a\u304b\u3063\u305f\u3060\u308d\u3046\u3002\u9b54\u5263\u306f\u7687\n\u5e1d\u6bba\u3057\u306e\u5927\u60aa\u4eba\u304c\u6240\u6709\u3057\u3066\u3044\u305f\u304c\u3001\u30a4\u30f3\u30da\u30ea\n\u30a2\u30eb\u30ac\u30fc\u30c9\u306b\u3088\u3063\u3066\u56de\u53ce\u3055\u308c\u305f\u3002\u60aa\u7528\u3055\u308c\u308c\n\u3070\u60e8\u4e8b\u3092\u62db\u304d\u304b\u306d\u306a\u3044\u3053\u3068\u304b\u3089\u3001\u73fe\u4ee3\u307e\u3067\u30e9\n\u30f3\u30c9\u30fc\u30eb\u306e\u5730\u4e0b\u306b\u79d8\u533f\u3055\u308c\u3066\u3044\u305f\u3068\u3044\u3046\u3002",
        "P_EXPLAIN_SHORT": "",
        "P_COMMENT_MIX": "",
        "P_COMMENT_EVO": "",
        "P_COMMENT_GETTABLE": ""
    },
    {
        "P_ARMS_ID": "600544",
        "P_DICTIONARY": "\u30d0\u30ea\u30a6\u30e9\u306b\u3066\u767a\u6398\u3055\u308c\u305f\u5996\u938c\u3002\n\u304b\u3064\u3066\u306e\u30d0\u30ea\u30a6\u30e9\u5e1d\u56fd\u304c\u51a5\u754c\u306e\u9b54\u938c\u3092\u7814\u7a76\u4e2d\n\u306b\u3001\u5076\u7136\u751f\u307f\u51fa\u3055\u308c\u305f\u3002\u9b54\u938c\u306f\u751f\u547d\u529b\u3092\u9b54\u529b\n\u306b\u8ee2\u63db\u3059\u308b\u3082\u306e\u3067\u3042\u3063\u305f\u304c\u3001\u3053\u306e\u5996\u938c\u306f\u4f7f\u3044\n\u624b\u304c\u5143\u6765\u6301\u3064\u9b45\u529b\u3092\u5438\u53ce\u3057\u529b\u306e\u6e90\u3068\u3059\u308b\u3002\u5203\n\u304c\u653e\u3064\u5996\u8276\u306a\u5149\u3092\u6d74\u3073\u305f\u6575\u306f\u4f7f\u3044\u624b\u306b\u9b45\u5165\u3089\n\u308c\u3066\u3057\u307e\u3044\u3001\u5bb9\u6613\u304f\u5012\u3059\u4e8b\u304c\u3067\u304d\u305f\u3068\u4f1d\u3048\u3089\n\u308c\u3066\u3044\u308b\u3002\u5996\u938c\u306e\u5f71\u97ff\u306f\u5473\u65b9\u306b\u3082\u53ca\u3073\u4e00\u6642\u7684\n\u306b\u3067\u306f\u3042\u308b\u304c\u6d3b\u529b\u304c\u5927\u3044\u306b\u5897\u3057\u3001\u9b3c\u795e\u306e\u5982\u304d\n\u50cd\u304d\u3092\u307f\u305b\u305f\u3068\u3044\u3046\u3002",
        "P_EXPLAIN_SHORT": "",
        "P_COMMENT_MIX": "",
        "P_COMMENT_EVO": "",
        "P_COMMENT_GETTABLE": ""
    },
    {
        "P_ARMS_ID": "600654",
        "P_DICTIONARY": "\u30b0\u30e9\u30f3\u30ac\u30a4\u30a2\u306e\u9ad8\u4f4d\u795e\u306e\u795e\u6bbf\u3067\u3042\u3063\u305f\u3068\u601d\u308f\n\u308c\u308b\u5ec3\u589f\u304b\u3089\u767a\u898b\u3055\u308c\u305f\u9b54\u529b\u3092\u5e2f\u3073\u305f\u65e5\u5098\u3002\n\u5143\u3005\u6b7b\u8005\u306e\u9b42\u3092\u6271\u3046\u9b54\u6cd5\u306e\u89e6\u5a92\u3068\u3055\u308c\u3066\u3044\u305f\n\u3088\u3046\u3060\u304c\u3001\u9577\u5e74\u9b54\u529b\u3092\u6d74\u3073\u7d9a\u3051\u305f\u7d50\u679c\u3001\u3053\u306e\n\u65e5\u5098\u81ea\u4f53\u306b\u9670\u306e\u9b54\u529b\u304c\u5bbf\u308b\u3053\u3068\u306b\u306a\u3063\u305f\u3088\u3046\n\u3060\u3002\u9b54\u8853\u306e\u7d20\u990a\u304c\u7121\u304f\u3068\u3082\u3001\u5f37\u3044\u5fc3\u306e\u6301\u3061\u4e3b\n\u3067\u3042\u308c\u3070\u3001\u65e5\u5098\u306e\u52a9\u3051\u3092\u501f\u308a\u3066\u9ad8\u5ea6\u306a\u64cd\u5f71\u8853\n\u3092\u6271\u3046\u3053\u3068\u304c\u3067\u304d\u308b\u3060\u308d\u3046\u3002\u5f71\u306f\u5149\u304c\u5f37\u3044\u307b\n\u3069\u6fc3\u3044\u3082\u306e\u3067\u3042\u308b\u3002\u4f7f\u7528\u8005\u306e\u5fc3\u304c\u6e05\u304f\u660e\u308b\u3044\n\u307b\u3069\u3001\u305d\u306e\u64cd\u5f71\u8853\u306f\u5f37\u5316\u3055\u308c\u308b\u3068\u3044\u3046\u3002",
        "P_EXPLAIN_SHORT": "",
        "P_COMMENT_MIX": "",
        "P_COMMENT_EVO": "",
        "P_COMMENT_GETTABLE": ""
    },
    {
        "P_ARMS_ID": "700634",
        "P_DICTIONARY": "\u4eba\u3005\u306e\u5e0c\u671b\u3068\u306a\u3063\u305f\u82f1\u970a\u305f\u3061\u306e\u9b42\u3068\u529b\u304c\u5bbf\u3063\n\u3066\u3044\u308b\u3068\u4f1d\u3048\u3089\u308c\u308b\u30ed\u30fc\u30d6\u3002\u305d\u306e\u529b\u3092\u767a\u73fe\u3055\n\u305b\u308b\u306b\u306f\u5c0b\u5e38\u3067\u306f\u306a\u3044\u529b\u91cf\u304c\u5fc5\u8981\u3068\u3055\u308c\u3001\u4f7f\n\u3044\u3053\u306a\u3059\u3053\u3068\u304c\u3067\u304d\u305f\u306e\u306f\u904e\u53bb\u306b\uff11\u4eba\u3060\u3051\u3060\n\u3068\u4f1d\u3048\u3089\u308c\u3066\u3044\u308b\u3002\u30a2\u30af\u30e9\u30b9\u53ec\u559a\u9662\u306b\u4fdd\u7ba1\u3055\n\u308c\u3066\u3044\u305f\u3053\u306e\u30ed\u30fc\u30d6\u306f\u30cd\u30b0\u30ec\u30b9\u3068\u306e\u6226\u3044\u306e\u4e2d\n\u3067\u53ec\u559a\u5e2b\u3068\u3057\u3066\u5341\u5206\u306a\u529b\u3092\u4ed8\u3051\u305f\u82e5\u304d\u9a0e\u58eb\u3078\n\u3068\u8b72\u3089\u308c\u305f\u3002\u4f1d\u8aac\u306e\u53ec\u559a\u5e2b\u304c\u516d\u82f1\u96c4\u306e\u529b\u3092\u5f15\n\u304d\u51fa\u3057\u305f\u3088\u3046\u306b\u3001\u82e5\u304d\u9a0e\u58eb\u306f\u30bb\u30eb\u30bf\u30d3\u30a2\u306e\u82f1\n\u96c4\u3001\u56db\u8056\u306e\u529b\u3092\u5f15\u304d\u51fa\u3059\u3053\u3068\u306b\u6210\u529f\u3057\u305f\u3002",
        "P_EXPLAIN_SHORT": "",
        "P_COMMENT_MIX": "",
        "P_COMMENT_EVO": "",
        "P_COMMENT_GETTABLE": ""
    }
]