0,6,-52,-17,0,0,100,0,1056,0,80,48,0,-32,-56,0,0,100,0,0,0,64,88,0,-44,-72,0,0,100,0,0,344,72,72,0,-49,-39,0,0,100,0,976,344,80,32,0,-29,-16,0,0,65,0,736,0,48,16,0,-23,7,0,0,65,0,736,0,48,16,0,
0,6,-52,-17,0,0,100,0,1056,0,80,48,0,-32,-56,0,0,100,0,64,0,64,88,0,-44,-72,0,0,100,0,72,344,72,72,0,-49,-39,0,0,100,0,976,344,80,32,0,-29,-16,0,0,65,0,736,0,48,16,0,-23,7,0,0,65,0,736,0,48,16,0,
0,6,-52,-17,0,0,100,0,1056,0,80,48,0,-32,-56,0,0,100,0,128,0,64,88,0,-44,-72,0,0,100,0,144,344,72,72,0,-48,-40,0,0,100,0,976,344,80,32,0,-29,-16,0,0,65,0,736,0,48,16,0,-23,7,0,0,65,0,736,0,48,16,0,
0,6,17,-27,0,0,100,0,1056,48,48,48,0,-24,-56,0,0,100,0,192,0,80,88,0,-84,-66,0,0,100,0,216,344,72,72,0,-44,-67,0,0,100,0,1128,344,72,72,0,-64,-13,0,0,65,0,736,0,48,16,0,-18,7,0,0,65,0,736,16,56,16,0,
0,6,18,-26,0,0,100,0,1056,48,48,48,0,-24,-56,0,0,100,0,272,0,80,88,0,-136,-60,0,0,100,0,288,344,64,72,0,-124,-71,0,0,100,0,1056,416,88,88,0,-130,-8,0,0,65,0,736,0,48,16,0,-17,7,0,0,65,0,736,16,56,16,0,
0,7,-37,-64,0,0,100,0,1056,96,40,64,0,-80,-56,0,0,100,0,352,0,80,88,0,-256,-56,0,1,100,0,344,576,168,80,0,-215,-41,0,0,100,0,1200,344,88,88,0,-184,-56,0,0,100,0,352,344,72,72,0,-60,3,0,0,65,0,736,0,48,16,0,-172,-3,0,0,65,0,736,0,48,16,0,
0,7,-77,-64,0,0,100,0,1056,96,40,64,0,-120,-56,0,0,100,0,352,0,80,88,0,-256,-48,0,1,100,0,344,656,112,72,0,-215,-42,0,0,100,0,1200,344,88,88,0,-184,-56,0,0,100,0,424,344,72,72,0,-100,3,0,0,65,0,736,0,48,16,0,-172,-3,0,0,65,0,736,0,48,16,0,
0,12,-248,-120,0,1,100,0,512,576,152,128,0,-192,-64,0,0,100,0,432,0,88,88,0,-232,-23,0,0,100,0,1056,160,72,32,0,-165,-61,0,0,100,0,496,344,56,72,0,-200,-72,0,0,100,0,1288,344,80,80,0,-168,-60,0,0,50,0,496,344,56,72,0,-204,-61,0,0,50,0,1288,344,80,56,0,-256,-20,0,1,20,0,344,728,104,40,0,-215,-41,0,0,20,0,1200,344,88,88,0,-184,-56,0,0,20,0,424,344,72,72,0,-174,-5,0,0,65,0,736,0,48,16,0,-165,-7,0,0,65,0,736,0,48,16,0,
0,11,-248,-104,0,1,100,0,512,704,80,112,0,-192,-64,0,0,100,0,520,0,88,88,0,-232,-24,0,0,100,0,1056,160,72,32,0,-152,-64,0,0,100,0,552,344,56,72,0,-156,-83,1,0,100,0,1056,344,72,72,0,-169,-65,0,0,50,0,496,344,56,72,0,-191,-91,2,0,50,0,1200,344,88,88,0,-166,-62,0,0,20,0,496,344,56,72,0,-195,-67,0,0,20,0,1288,344,80,56,0,-148,-13,0,0,65,0,736,0,48,16,0,-174,-5,0,0,65,0,736,0,48,16,0,
0,11,-248,-104,0,1,50,0,592,704,72,112,0,-152,-40,0,0,100,0,608,344,64,72,0,-127,-32,0,0,100,0,1520,344,72,72,0,-225,-57,0,0,100,0,1056,192,72,24,0,-180,-59,0,0,100,0,608,0,64,88,0,-140,-48,0,0,50,0,608,344,64,72,0,-131,-62,1,0,50,90,1200,344,88,88,0,-135,-60,0,0,20,0,552,344,56,72,0,-141,-79,1,0,20,0,1056,344,72,72,0,-145,12,0,0,65,0,736,0,48,16,0,-166,-8,0,0,65,0,736,0,48,16,0,
0,10,-173,-32,1,0,100,0,1200,344,88,88,0,-176,-40,0,0,100,0,672,344,64,72,0,-148,3,1,0,50,0,1368,344,88,24,0,-157,-32,0,0,50,0,672,344,64,72,0,-119,-32,0,0,20,0,1520,344,72,72,0,-144,-40,0,0,20,0,608,344,64,72,0,-153,-75,0,0,100,0,1056,216,64,40,0,-147,-70,0,0,100,0,672,0,64,88,0,-165,14,0,0,65,0,736,0,48,16,0,-142,-8,0,0,65,0,736,0,48,16,0,
0,11,-320,-80,0,1,100,0,176,816,216,112,0,-284,-56,0,0,100,0,736,344,72,72,0,-292,-80,1,0,100,0,1056,344,72,72,0,-252,-40,0,0,50,0,736,344,72,72,0,-260,-64,1,0,50,0,1056,344,72,72,0,-205,-32,1,0,20,0,1200,344,88,88,0,-208,-40,0,0,20,0,672,344,64,72,0,-88,-80,0,0,100,0,1056,96,40,64,0,-136,-64,0,0,100,0,0,88,80,80,0,-269,-11,0,0,65,0,736,0,48,16,0,-126,-7,0,0,65,0,736,16,56,16,0,
0,11,-360,-96,0,1,100,0,176,928,120,104,0,-320,-80,0,0,100,0,808,344,64,72,0,-327,-91,1,0,100,0,1056,344,72,72,0,-304,-72,0,0,50,0,808,344,64,72,0,-311,-83,1,0,50,0,1056,344,72,72,0,-284,-52,0,0,20,0,736,344,72,72,0,-291,-76,1,0,20,0,1056,344,72,72,0,-87,-79,0,0,100,0,1056,96,40,64,0,-136,-64,0,0,100,0,80,88,80,80,0,-320,-27,0,0,65,0,736,0,48,16,0,-125,-7,0,0,65,0,736,16,56,16,0,
0,8,-168,-24,0,1,100,0,504,952,112,72,0,-360,-96,0,1,100,0,176,1032,88,72,0,-322,-81,0,0,100,0,872,344,64,72,0,-329,-92,1,0,100,0,1056,344,72,72,0,-173,-24,1,0,100,0,1056,48,48,48,0,-152,-56,0,0,100,0,160,88,72,80,0,-137,-5,0,0,65,0,736,16,56,16,0,-322,-28,0,0,65,0,736,0,48,16,0,
0,11,-192,-184,0,1,100,0,392,816,112,208,0,-148,-136,0,0,100,0,232,88,48,80,0,-128,-168,0,0,100,0,1056,96,40,64,0,-272,-68,0,0,100,0,0,416,64,80,0,-290,-88,2,0,100,0,1200,344,88,88,0,-288,-72,0,0,50,0,0,416,64,80,0,-306,-92,2,0,50,0,1200,344,88,88,0,-304,-76,0,0,20,0,0,416,64,80,0,-322,-96,2,0,20,0,1200,344,88,88,0,-137,-5,0,0,46,0,736,32,32,16,0,-273,-15,0,0,65,0,736,0,48,16,0,
0,12,-191,-188,0,1,100,0,504,816,112,136,0,-312,-72,0,1,100,0,176,1104,176,112,0,-224,-48,0,0,100,0,64,416,64,80,0,-269,-38,0,0,100,0,1288,344,80,80,0,-256,-60,0,0,50,0,0,416,64,80,0,-274,-80,2,0,50,0,1200,344,88,88,0,-280,-64,0,0,20,0,0,416,64,80,0,-298,-84,2,0,20,0,1200,344,88,88,0,-147,-140,0,0,100,0,280,88,48,80,0,-127,-172,0,0,100,0,1056,96,40,64,0,-136,-6,0,0,46,0,736,32,32,16,0,-213,5,0,0,65,0,736,0,48,16,0,
0,13,-168,-192,0,1,50,0,296,928,96,80,0,-280,-72,0,1,100,0,352,1024,176,64,0,-175,-66,0,0,100,0,1144,432,72,72,0,-200,-41,0,0,100,0,128,416,80,80,0,-310,-72,0,1,30,0,176,1104,176,112,0,-208,-48,0,0,50,0,64,416,64,80,0,-253,-38,0,0,50,0,1288,344,80,80,0,-232,-56,0,0,20,0,0,416,64,80,0,-248,-76,2,0,20,0,1200,344,88,88,0,-144,-144,0,0,100,0,328,88,48,80,0,-125,-176,0,0,100,0,1056,96,40,64,0,-135,-7,0,0,46,0,736,32,32,16,0,-185,16,0,0,65,0,736,0,48,16,0,
0,10,-232,-64,0,1,100,0,352,1088,176,64,0,-143,-145,0,0,100,0,328,88,48,80,0,-124,-177,0,0,100,0,1056,96,40,64,0,-168,-32,0,0,100,0,208,416,72,80,0,-141,-57,0,0,100,0,1144,432,72,72,0,-280,-72,0,1,50,0,352,1024,176,64,0,-175,-66,0,0,50,0,1144,432,72,72,0,-200,-41,0,0,50,0,128,416,80,80,0,-134,-8,0,0,46,0,736,32,32,16,0,-159,25,0,0,65,0,736,16,56,16,0,
0,6,-142,-146,0,0,100,0,376,88,56,80,0,-117,-166,0,0,100,0,1056,256,40,48,0,-164,-29,0,0,100,0,280,416,80,80,0,-135,-54,0,0,100,0,1144,432,72,72,0,-133,-8,0,0,46,0,736,32,32,16,0,-154,28,0,0,65,0,736,16,56,16,0,
0,7,-254,-55,0,1,100,0,360,1152,192,104,0,-142,-146,0,0,100,0,792,0,56,80,0,-117,-166,0,0,100,0,1056,256,40,48,0,-222,-9,0,0,100,0,1200,344,88,88,0,-168,-28,0,0,100,0,360,416,80,80,0,-133,-8,0,0,46,0,736,32,32,16,0,-162,28,0,0,65,0,736,16,56,16,0,
0,7,-254,-47,0,1,100,0,360,1256,192,104,0,-156,-146,0,0,100,0,432,88,56,80,0,-147,-152,0,0,100,0,1096,256,72,48,0,-221,-10,0,0,100,0,1200,344,88,88,0,-169,-28,0,0,100,0,440,416,80,80,0,-138,-8,0,0,46,0,736,32,32,16,0,-161,28,0,0,65,0,736,16,56,16,0,
0,9,-248,-64,0,1,100,0,360,1360,176,72,0,-160,-144,0,0,100,0,488,88,56,80,0,-155,-150,0,0,100,0,1096,256,72,48,0,-192,-40,0,0,100,0,520,416,80,80,0,-157,-58,0,0,100,0,1216,432,72,72,0,-219,-15,0,0,40,0,1200,344,88,88,0,-168,-32,0,0,40,0,440,416,80,80,0,-141,-8,0,0,46,0,736,32,32,16,0,-177,24,0,0,65,0,736,0,48,16,0,
0,7,-248,-64,0,1,100,0,360,1432,176,72,0,-169,-142,0,0,100,0,544,88,72,80,0,-159,-146,0,0,100,0,1096,256,72,48,0,-192,-40,0,0,100,0,600,416,80,80,0,-155,-58,0,0,100,0,1216,432,72,72,0,-145,-8,0,0,46,0,736,32,32,16,0,-176,24,0,0,65,0,736,0,48,16,0,
0,11,-248,-64,0,1,100,0,664,576,144,104,0,-144,-25,0,0,100,0,1056,48,48,48,0,-184,-48,0,0,100,0,0,168,72,72,0,-172,-64,0,0,100,0,680,416,56,80,0,-188,-68,0,0,100,0,1288,344,80,80,0,-180,-56,0,0,50,0,680,416,56,80,0,-172,-32,0,0,50,0,1456,344,64,64,0,-168,-36,0,0,20,0,928,496,56,80,0,-148,-49,0,0,20,0,1144,432,72,72,0,-175,3,0,0,65,0,736,16,56,16,0,-167,-11,0,0,65,0,736,0,48,16,0,
0,7,-235,-25,0,1,100,0,664,680,136,64,0,-144,-27,0,0,100,0,1056,48,48,48,0,-184,-49,0,0,100,0,72,168,72,72,0,-127,-64,0,0,100,0,1520,344,72,72,0,-144,-72,0,0,100,0,736,416,56,80,0,-175,3,0,0,65,0,736,16,56,16,0,-142,-12,0,0,65,0,736,0,48,16,0,
0,7,-232,-3,0,1,100,0,664,744,128,40,0,-144,-26,0,0,100,0,1056,48,48,48,0,-182,-48,0,0,100,0,144,168,72,72,0,-119,-75,0,0,100,0,856,416,56,80,0,-156,-64,3,0,100,0,1144,432,72,72,0,-175,3,0,0,65,0,736,16,56,16,0,-122,-13,0,0,65,0,736,0,48,16,0,
0,6,-144,-27,0,0,100,0,1056,48,48,48,0,-182,-49,0,0,100,0,144,168,72,72,0,-119,-75,0,0,100,0,792,496,64,80,0,-160,-81,1,0,100,0,1056,416,88,88,0,-175,3,0,0,65,0,736,16,56,16,0,-117,-15,0,0,65,0,736,0,48,16,0,
0,6,-144,-27,0,0,100,0,1056,48,48,48,0,-182,-49,0,0,100,0,144,168,72,72,0,-120,-72,0,0,100,0,912,416,72,80,0,-128,-73,0,0,100,0,1288,344,80,80,0,-175,3,0,0,65,0,736,16,56,16,0,-110,-16,0,0,65,0,736,16,56,16,0,
0,8,-208,-16,0,1,100,0,504,952,112,72,0,-214,-12,1,0,100,0,1056,48,48,48,0,-192,-46,0,0,100,0,160,88,72,80,0,-160,-71,0,0,100,0,984,416,72,80,0,-208,-58,0,1,100,0,360,1504,176,40,0,-192,-48,0,0,100,0,1368,344,88,24,0,-178,5,0,0,65,0,736,16,56,16,0,-147,-17,0,0,65,0,736,16,56,16,0,
0,8,-224,-176,0,1,100,0,392,816,112,208,0,-176,-128,0,0,100,0,216,168,64,72,0,-159,-160,0,0,100,0,1056,96,40,64,0,-192,-72,0,0,100,0,0,496,72,80,0,-304,-56,0,1,100,0,360,1504,176,40,0,-245,-40,0,0,100,0,1368,344,88,24,0,-166,-1,0,0,46,0,736,32,32,16,0,-184,-18,0,0,65,0,736,16,56,16,0,
0,8,-208,-200,0,1,100,0,504,816,112,136,0,-168,-152,0,0,100,0,280,168,64,72,0,-143,-184,0,0,100,0,1056,96,40,64,0,-194,-72,0,0,100,0,0,496,72,80,0,-333,-56,0,1,60,0,360,1544,176,40,0,-247,-40,0,0,100,0,1368,344,88,24,0,-184,-18,0,0,65,0,736,16,56,16,0,-154,-12,0,0,46,0,736,32,32,16,0,
0,7,-176,-200,0,1,50,0,296,928,96,80,0,-157,-67,0,0,100,0,72,496,72,80,0,-171,-88,2,0,100,0,1200,344,88,88,0,-113,-176,0,0,100,0,1104,48,32,56,0,-160,-152,0,0,100,0,344,168,64,72,0,-141,-6,0,0,46,0,736,32,32,16,0,-149,-14,0,0,46,0,736,32,32,16,0,
0,6,-90,-141,0,0,100,0,1104,48,32,56,0,-136,-120,0,0,100,0,408,168,64,72,0,-132,-44,0,0,100,0,144,496,72,80,0,-148,-64,2,0,100,0,1200,344,88,88,0,-109,18,0,0,46,0,736,32,32,16,0,-125,-22,0,0,46,0,736,32,32,16,0,
0,6,-112,-24,0,0,100,0,216,496,72,80,0,-125,-29,0,0,100,0,1200,344,88,88,0,-70,-59,0,0,100,0,1056,48,48,48,0,-112,-88,0,0,100,0,192,0,80,88,0,-103,32,0,0,65,0,736,16,56,16,0,-106,-25,0,0,65,0,736,16,56,16,0,
0,10,-120,-56,0,1,50,0,88,1128,88,104,0,-112,-24,0,0,100,0,288,496,72,80,0,-123,-28,0,0,100,0,1200,344,88,88,0,-128,-72,0,1,20,0,88,696,120,120,0,-120,-112,0,1,50,0,0,1128,88,104,0,-69,-58,0,0,100,0,1056,48,48,48,0,-112,-88,0,0,100,0,272,0,80,88,0,-136,-128,0,1,20,0,88,576,120,120,0,-102,32,0,0,65,0,736,16,56,16,0,-105,-25,0,0,65,0,736,16,56,16,0,
0,10,-112,-24,0,0,100,0,288,496,72,80,0,-123,-28,0,0,100,0,1200,344,88,88,0,-120,-56,0,1,100,0,88,816,88,104,0,-120,-72,0,1,100,0,0,696,88,120,0,-69,-58,0,0,100,0,1056,48,48,48,0,-112,-88,0,0,100,0,272,0,80,88,0,-120,-112,0,1,100,0,0,816,88,104,0,-120,-128,0,1,100,0,0,576,88,120,0,-102,32,0,0,65,0,736,16,56,16,0,-105,-25,0,0,65,0,736,16,56,16,0,
0,12,-120,-72,0,1,20,0,0,696,88,120,0,-112,-24,0,0,100,0,288,496,72,80,0,-123,-28,0,0,100,0,1200,344,88,88,0,-128,-72,0,1,100,0,88,696,120,120,0,-120,-56,0,1,100,0,88,920,88,104,0,-120,-128,0,1,20,0,0,576,88,120,0,-69,-58,0,0,100,0,1056,48,48,48,0,-112,-88,0,0,100,0,272,0,80,88,0,-128,-128,0,1,100,0,88,576,120,120,0,-120,-112,0,1,100,0,0,920,88,104,0,-102,32,0,0,65,0,736,16,56,16,0,-105,-25,0,0,65,0,736,16,56,16,0,
0,12,-128,-72,0,1,40,0,88,696,120,120,0,-112,-24,0,0,100,0,288,496,72,80,0,-123,-28,0,0,100,0,1200,344,88,88,0,-144,-72,0,1,100,0,208,696,136,120,0,-120,-56,0,1,80,0,88,1024,88,104,0,-128,-128,0,1,40,0,88,576,120,120,0,-69,-58,0,0,100,0,1056,48,48,48,0,-112,-88,0,0,100,0,272,0,80,88,0,-144,-128,0,1,100,0,208,576,136,120,0,-120,-112,0,1,80,0,0,1024,88,104,0,-102,32,0,0,65,0,736,16,56,16,0,-105,-25,0,0,65,0,736,16,56,16,0,
0,10,-112,-24,0,0,100,0,288,496,72,80,0,-123,-28,0,0,100,0,1200,344,88,88,0,-144,-72,0,1,20,0,208,696,136,120,0,-120,-56,0,1,50,0,88,1128,88,104,0,-69,-58,0,0,100,0,1056,48,48,48,0,-112,-88,0,0,100,0,272,0,80,88,0,-144,-128,0,1,20,0,208,576,136,120,0,-120,-112,0,1,50,0,0,1128,88,104,0,-102,32,0,0,65,0,736,16,56,16,0,-105,-25,0,0,65,0,736,16,56,16,0,
0,6,-112,-24,0,0,100,0,288,496,72,80,0,-123,-28,0,0,100,0,1200,344,88,88,0,-69,-58,0,0,100,0,1056,48,48,48,0,-112,-88,0,0,100,0,272,0,80,88,0,-102,32,0,0,65,0,736,16,56,16,0,-105,-25,0,0,65,0,736,16,56,16,0,
0,6,-95,-8,0,0,100,0,1520,344,72,72,0,-120,-16,0,0,100,0,360,496,64,80,0,-120,-80,0,0,100,0,472,168,64,72,0,-96,-64,1,0,100,0,1056,192,72,24,0,-118,34,0,0,65,0,736,0,48,16,0,-118,-25,0,0,65,0,736,0,48,16,0,
0,6,-145,21,0,0,100,0,1456,344,64,64,0,-144,-8,0,0,100,0,424,496,72,80,0,-144,-80,0,0,100,0,536,168,72,72,0,-144,-80,0,0,100,0,1136,48,64,56,0,-133,45,0,0,65,0,736,16,56,16,0,-143,-24,0,0,65,0,736,16,56,16,0,
0,8,-208,-24,0,1,100,0,752,784,104,88,0,-168,-16,0,0,100,0,496,496,80,80,0,-199,-12,0,0,100,0,1288,424,72,72,0,-216,-72,0,1,100,0,664,784,88,80,0,-200,-40,0,0,100,0,1096,104,64,24,0,-168,-72,0,0,100,0,608,168,72,72,0,-153,37,0,0,65,0,736,16,56,16,0,-154,-23,0,0,65,0,736,16,56,16,0,
0,11,-248,-128,0,1,100,0,616,872,128,192,0,-288,-48,3,0,100,0,856,840,120,224,0,-192,-248,0,0,100,0,856,840,120,224,0,-200,-64,3,0,100,0,856,576,120,264,0,-280,-264,0,0,100,0,856,576,120,264,0,-168,-16,0,0,100,0,576,496,56,80,0,-171,-47,0,0,100,0,1448,408,72,72,0,-168,-88,0,0,100,0,1136,0,48,48,0,-180,-80,0,0,100,0,680,168,80,72,0,-165,35,0,0,65,0,736,16,56,16,0,-169,-22,0,0,65,0,736,16,56,16,0,
0,15,-288,-48,3,1,50,0,856,840,120,224,0,-192,-248,0,1,50,0,856,840,120,224,0,-200,-64,3,1,50,0,856,576,120,264,0,-280,-264,0,1,50,0,856,576,120,264,0,-248,-128,0,1,100,0,616,872,128,192,0,-288,-48,3,0,100,0,856,840,120,224,0,-192,-248,0,0,100,0,856,840,120,224,0,-200,-64,3,0,100,0,856,576,120,264,0,-280,-264,0,0,100,0,856,576,120,264,0,-168,-16,0,0,100,0,576,496,56,80,0,-171,-47,0,0,100,0,1448,408,72,72,0,-168,-88,0,0,100,0,1136,0,48,48,0,-180,-80,0,0,100,0,680,168,80,72,0,-165,35,0,0,65,0,736,16,56,16,0,-169,-22,0,0,65,0,736,16,56,16,0,
0,15,-288,-48,3,1,100,0,856,840,120,224,0,-192,-248,0,1,100,0,856,840,120,224,0,-200,-64,3,1,100,0,856,576,120,264,0,-280,-264,0,1,100,0,856,576,120,264,0,-248,-128,0,1,100,0,616,872,128,192,0,-288,-48,3,0,100,0,856,840,120,224,0,-192,-248,0,0,100,0,856,840,120,224,0,-200,-64,3,0,100,0,856,576,120,264,0,-280,-264,0,0,100,0,856,576,120,264,0,-168,-16,0,0,100,0,576,496,56,80,0,-171,-47,0,0,100,0,1448,408,72,72,0,-168,-88,0,0,100,0,1136,0,48,48,0,-180,-80,0,0,100,0,680,168,80,72,0,-165,35,0,0,65,0,736,16,56,16,0,-169,-22,0,0,65,0,736,16,56,16,0,
0,11,-304,-38,3,0,100,0,976,840,120,224,0,-184,-256,0,0,100,0,976,840,120,224,0,-200,-48,3,0,100,0,976,576,120,264,0,-280,-280,0,0,100,0,976,576,120,264,0,-275,-172,0,1,100,0,552,1064,184,280,0,-151,-51,0,0,100,0,1144,432,72,72,0,-182,-30,0,0,100,0,632,496,80,80,0,-190,-78,0,0,100,0,760,168,88,72,0,-153,-80,0,0,100,0,1120,216,64,40,0,-174,28,0,0,65,0,736,16,56,16,0,-183,-19,0,0,65,0,736,16,56,16,0,
0,15,-349,-4,3,0,100,0,1096,840,136,224,0,-158,-284,0,0,100,0,1096,840,136,224,0,-182,-32,3,0,100,0,1096,576,120,264,0,-296,-288,0,0,100,0,1096,576,120,264,0,-304,-38,3,0,60,0,976,840,120,224,0,-184,-256,0,0,60,0,976,840,120,224,0,-200,-48,3,0,60,0,976,576,120,264,0,-280,-280,0,0,60,0,976,576,120,264,0,-292,-204,0,1,100,0,920,1064,224,336,0,-153,-53,0,0,100,0,1144,432,72,72,0,-184,-32,0,0,100,0,632,496,80,80,0,-192,-76,0,0,100,0,760,168,88,72,0,-155,-78,0,0,100,0,1120,216,64,40,0,-176,26,0,0,65,0,736,16,56,16,0,-185,-17,0,0,65,0,736,16,56,16,0,
0,11,-349,-4,3,0,70,0,1096,840,136,224,0,-158,-284,0,0,70,0,1096,840,136,224,0,-182,-32,3,0,70,0,1096,576,120,264,0,-296,-288,0,0,70,0,1096,576,120,264,0,-292,-204,0,1,100,0,920,1064,224,336,0,-153,-53,0,0,100,0,1144,432,72,72,0,-184,-32,0,0,100,0,632,496,80,80,0,-192,-76,0,0,100,0,760,168,88,72,0,-155,-78,0,0,100,0,1120,216,64,40,0,-176,26,0,0,65,0,736,16,56,16,0,-185,-17,0,0,65,0,736,16,56,16,0,
0,11,-349,-4,3,0,40,0,1096,840,136,224,0,-158,-284,0,0,40,0,1096,840,136,224,0,-182,-32,3,0,40,0,1096,576,120,264,0,-296,-288,0,0,40,0,1096,576,120,264,0,-292,-204,0,1,40,0,920,1064,224,336,0,-153,-53,0,0,100,0,1144,432,72,72,0,-184,-32,0,0,100,0,632,496,80,80,0,-192,-76,0,0,100,0,760,168,88,72,0,-155,-78,0,0,100,0,1120,216,64,40,0,-176,26,0,0,65,0,736,16,56,16,0,-185,-17,0,0,65,0,736,16,56,16,0,
0,6,-153,-53,0,0,100,0,1144,432,72,72,0,-184,-32,0,0,100,0,632,496,80,80,0,-192,-76,0,0,100,0,760,168,88,72,0,-155,-78,0,0,100,0,1120,216,64,40,0,-176,26,0,0,65,0,736,16,56,16,0,-185,-17,0,0,65,0,736,16,56,16,0,
0,6,-152,-54,0,0,100,0,1144,432,72,72,0,-184,-32,0,0,100,0,712,496,80,80,0,-192,-76,0,0,100,0,848,168,88,72,0,-154,-79,0,0,100,0,1120,216,64,40,0,-175,26,0,0,65,0,736,16,56,16,0,-184,-17,0,0,65,0,736,16,56,16,0,
0,14,-144,-64,0,0,100,0,792,496,64,80,0,-136,-96,3,0,100,0,1200,344,88,88,0,-160,-48,0,0,50,0,792,496,64,80,0,-152,-80,3,0,50,0,1200,344,88,88,0,-176,-32,0,0,20,0,792,496,64,80,0,-168,-64,3,0,20,0,1200,344,88,88,0,-112,-96,0,0,100,0,1104,48,32,56,0,-144,-96,0,0,100,0,616,88,64,80,0,-128,-88,0,0,50,0,1104,48,32,56,0,-160,-88,0,0,50,0,616,88,64,80,0,-144,-80,0,0,20,0,1104,48,32,56,0,-176,-80,0,0,20,0,616,88,64,80,0,-133,18,0,0,46,0,736,32,32,16,0,-133,-12,0,0,46,0,736,32,32,16,0,
0,14,-112,-80,0,0,100,0,792,496,64,80,0,-106,-102,0,0,100,0,1056,344,72,72,0,-128,-72,0,0,50,0,792,496,64,80,0,-122,-94,0,0,50,0,1056,344,72,72,0,-144,-56,0,0,20,0,792,496,64,80,0,-138,-78,0,0,20,0,1056,344,72,72,0,-37,-87,0,0,100,0,1104,48,32,56,0,-72,-88,0,0,100,0,616,88,64,80,0,-53,-95,0,0,50,0,1104,48,32,56,0,-88,-96,0,0,50,0,616,88,64,80,0,-77,-95,0,0,20,0,1104,48,32,56,0,-112,-96,0,0,20,0,616,88,64,80,0,-101,10,0,0,46,0,736,32,32,16,0,-65,-12,0,0,46,0,736,32,32,16,0,
0,14,11,-71,0,0,100,0,1104,48,32,56,0,-24,-72,0,0,100,0,616,88,64,80,0,3,-75,0,0,50,0,1104,48,32,56,0,-32,-76,0,0,50,0,616,88,64,80,0,-5,-81,0,0,20,0,1104,48,32,56,0,-40,-82,0,0,20,0,616,88,64,80,0,-72,-72,0,0,100,0,856,496,72,80,0,-74,-86,0,0,100,0,1056,344,72,72,0,-82,-75,0,0,50,0,856,496,72,80,0,-84,-89,0,0,50,0,1056,344,72,72,0,-96,-77,0,0,20,0,856,496,72,80,0,-98,-91,0,0,20,0,1056,344,72,72,0,-56,-6,0,0,46,0,736,32,32,16,0,-17,-9,0,0,46,0,736,32,32,16,0,
0,5,-34,-35,0,0,100,0,1056,0,80,48,0,-56,-72,0,0,100,0,0,248,104,88,0,-60,-76,0,0,100,0,1056,344,72,72,0,-12,-8,0,0,65,0,736,16,56,16,0,-54,-10,0,0,65,0,736,16,56,16,0,
0,5,-36,-33,0,0,100,0,1056,0,80,48,0,-56,-72,0,0,100,0,104,248,104,88,0,-59,-77,0,0,100,0,1056,344,72,72,0,-12,-8,0,0,65,0,736,16,56,16,0,-54,-10,0,0,65,0,736,16,56,16,0,
0,5,-34,-33,0,0,100,0,1056,0,80,48,0,-56,-72,0,0,100,0,208,248,104,88,0,-61,-77,0,0,100,0,1056,344,72,72,0,-10,-8,0,0,65,0,736,16,56,16,0,-56,-10,0,0,65,0,736,16,56,16,0,
0,5,-38,-33,0,0,100,0,1056,0,80,48,0,-56,-72,0,0,100,0,312,248,104,88,0,-58,-77,0,0,100,0,1056,344,72,72,0,-12,-8,0,0,65,0,736,16,56,16,0,-54,-10,0,0,65,0,736,16,56,16,0,
0,5,-36,-33,0,0,100,0,1056,0,80,48,0,-56,-72,0,0,100,0,416,248,104,88,0,-61,-77,0,0,100,0,1056,344,72,72,0,-11,-8,0,0,65,0,736,16,56,16,0,-55,-10,0,0,65,0,736,16,56,16,0,
0,5,-36,-33,0,0,100,0,1056,0,80,48,0,-56,-72,0,0,100,0,520,248,104,88,0,-61,-77,0,0,100,0,1056,344,72,72,0,-11,-8,0,0,65,0,736,16,56,16,0,-55,-10,0,0,65,0,736,16,56,16,0,
0,5,-36,-33,0,0,100,0,1056,0,80,48,0,-56,-72,0,0,100,0,624,248,104,88,0,-61,-77,0,0,100,0,1056,344,72,72,0,-11,-8,0,0,65,0,736,16,56,16,0,-55,-10,0,0,65,0,736,16,56,16,0,
0,5,-36,-33,0,0,100,0,1056,0,80,48,0,-56,-72,0,0,100,0,728,248,104,88,0,-61,-77,0,0,100,0,1056,344,72,72,0,-11,-8,0,0,65,0,736,16,56,16,0,-55,-10,0,0,65,0,736,16,56,16,0,
