0,5,-46,-55,0,0,100,0,0,0,72,56,0,-35,-63,0,0,100,0,128,128,56,48,0,-24,-8,0,0,65,0,184,392,48,16,0,-5,-154,0,0,100,0,0,472,112,104,0,-237,-250,0,0,0,0,0,664,360,360,0,
0,5,-46,-55,0,0,100,0,0,56,72,56,0,-35,-64,0,0,100,0,128,128,56,48,0,-24,-8,0,0,65,0,184,392,48,16,0,-5,-154,0,0,100,0,112,472,112,104,0,24,-53,0,0,65,0,184,392,48,16,0,
0,5,-46,-55,0,0,100,0,0,112,72,56,0,-35,-63,0,0,100,0,128,128,56,48,0,-24,-8,0,0,65,0,184,392,48,16,0,-5,-154,0,0,100,0,224,472,112,104,0,24,-53,0,0,65,0,184,392,48,16,0,
0,5,-46,-55,0,0,100,0,0,168,72,56,0,-35,-62,0,0,100,0,128,128,56,48,0,-24,-8,0,0,65,0,184,392,48,16,0,-5,-154,0,0,100,0,0,472,112,104,0,24,-53,0,0,65,0,184,392,48,16,0,
0,5,-30,-87,0,0,100,0,72,0,40,88,0,-46,-63,0,0,100,0,128,128,56,48,0,-32,-8,0,0,65,0,184,392,48,16,0,-5,-154,0,0,100,0,112,472,112,104,0,24,-53,0,0,65,0,184,392,48,16,0,
0,5,-36,-47,0,0,100,0,112,0,56,48,0,-39,-57,0,0,100,0,128,128,56,48,0,-24,-8,0,0,65,0,184,392,48,16,0,-5,-154,0,0,100,0,224,472,112,104,0,24,-53,0,0,65,0,184,392,48,16,0,
0,5,-21,-51,0,0,100,0,168,0,96,56,0,-23,-58,0,0,100,0,128,128,56,48,0,-24,-8,0,0,65,0,184,392,48,16,0,-5,-154,0,0,100,0,0,472,112,104,0,24,-53,0,0,65,0,184,392,48,16,0,
0,9,6,-136,0,1,100,0,0,352,96,96,0,-5,-178,0,1,25,0,224,472,112,104,0,-5,-194,0,1,50,0,224,472,112,104,0,-5,-202,0,1,100,0,224,472,112,104,0,-5,-202,0,0,100,0,224,472,112,104,0,-27,-60,1,0,100,0,128,128,56,48,0,-60,-61,0,0,100,0,264,0,120,64,0,-24,-8,0,0,65,0,184,392,48,16,0,24,-53,0,0,40,0,184,392,48,16,0,
0,7,-31,-58,1,0,100,0,128,128,56,48,0,-55,-55,0,0,100,0,384,0,72,64,0,-24,-8,0,0,65,0,184,392,48,16,0,-5,-229,0,1,25,0,224,472,112,104,0,-5,-278,0,1,50,0,224,472,112,104,0,-5,-305,0,1,100,0,224,472,112,104,0,24,-53,0,0,20,0,184,392,48,16,0,
0,3,-21,-52,0,0,100,0,456,0,48,56,0,-31,-61,0,0,100,0,128,128,56,48,0,-24,-8,0,0,65,0,184,392,48,16,0,
0,3,2,-47,0,0,100,0,456,0,48,56,0,-8,-56,0,0,100,0,128,128,56,48,0,-1,-3,0,0,65,0,184,392,48,16,0,
0,3,40,-36,0,0,100,0,456,0,48,56,0,30,-45,0,0,100,0,128,128,56,48,0,37,8,0,0,65,0,184,392,48,16,0,
0,4,97,-30,1,0,100,0,128,128,56,48,0,81,-20,0,0,100,0,504,0,48,48,0,88,15,0,0,65,0,184,392,48,16,0,69,-30,0,0,100,0,72,184,56,56,0,
0,4,98,-29,1,0,100,0,128,128,56,48,0,81,-20,0,0,100,0,552,0,48,48,0,88,15,0,0,65,0,184,392,48,16,0,69,-30,0,0,100,0,72,184,56,56,0,
0,5,-51,-38,0,0,100,0,128,128,56,48,0,-26,-29,1,0,100,0,552,0,48,48,0,-33,6,1,0,65,0,184,392,48,16,0,-20,-31,1,0,100,0,72,184,56,56,0,69,-30,0,0,100,0,72,184,56,56,0,
0,5,-50,-39,0,0,100,0,128,128,56,48,0,-26,-29,1,0,100,0,504,0,48,48,0,-33,6,1,0,65,0,184,392,48,16,0,-20,-31,1,0,100,0,72,184,56,56,0,69,-30,0,0,100,0,72,184,56,56,0,
0,6,55,-33,1,0,100,0,128,128,56,48,0,38,-24,0,0,100,0,552,0,48,48,0,45,11,0,0,65,0,184,392,48,16,0,69,-30,0,0,100,0,72,184,56,56,0,-20,-31,1,0,100,0,72,184,56,56,0,22,-12,0,0,100,0,128,184,72,24,0,
0,6,54,-34,1,0,100,0,128,128,56,48,0,38,-24,0,0,100,0,504,0,48,48,0,45,11,0,0,65,0,184,392,48,16,0,69,-30,0,0,100,0,72,184,56,56,0,-20,-31,1,0,100,0,72,184,56,56,0,22,-12,0,0,100,0,128,184,72,24,0,
0,8,13,-26,0,1,100,0,128,264,80,32,0,16,-27,0,0,50,0,128,232,80,32,0,87,-33,0,0,100,0,456,0,48,56,0,77,-42,0,0,100,0,128,128,56,48,0,84,11,0,0,65,0,184,392,48,16,0,69,-30,0,0,100,0,72,184,56,56,0,-20,-31,1,0,100,0,72,184,56,56,0,22,-12,0,0,100,0,128,208,72,24,0,
0,5,13,-26,0,1,100,0,128,232,80,32,0,16,-27,0,0,80,0,128,264,80,32,0,69,-30,0,0,100,0,72,184,56,56,0,-20,-31,1,0,100,0,72,184,56,56,0,22,-12,0,0,100,0,128,208,72,24,0,
0,7,75,-247,0,0,100,0,72,240,56,112,0,79,-197,0,0,100,0,232,336,64,136,0,13,-26,0,1,100,0,128,264,80,32,0,16,-27,0,0,80,0,128,232,80,32,0,69,-30,0,0,100,0,72,184,56,56,0,-20,-31,1,0,100,0,72,184,56,56,0,22,-12,0,0,100,0,128,208,72,24,0,
0,7,-27,-92,0,0,100,0,72,240,56,112,0,-6,-96,0,0,100,0,208,240,120,96,0,13,-26,0,1,100,0,128,232,80,32,0,16,-27,0,0,80,0,128,264,80,32,0,69,-30,0,0,100,0,72,184,56,56,0,-20,-31,1,0,100,0,72,184,56,56,0,22,-12,0,0,100,0,128,208,72,24,0,
0,8,-27,-98,0,0,100,0,72,240,56,112,0,5,-94,0,0,100,0,216,153,96,87,0,-3,-101,0,0,100,0,208,128,112,24,0,13,-26,0,1,100,0,128,264,80,32,0,16,-27,0,0,80,0,128,232,80,32,0,69,-30,0,0,100,0,72,184,56,56,0,-20,-31,1,0,100,0,72,184,56,56,0,22,-12,0,0,100,0,128,208,72,24,0,
0,8,-27,-98,0,0,100,0,72,240,56,112,0,5,-94,0,0,100,0,216,153,96,87,0,-3,-101,0,0,100,0,208,128,112,24,0,13,-26,0,1,100,0,128,232,80,32,0,16,-27,0,0,80,0,128,264,80,32,0,69,-30,0,0,100,0,72,184,56,56,0,-20,-31,1,0,100,0,72,184,56,56,0,22,-12,0,0,100,0,128,208,72,24,0,
0,9,65,-144,0,0,100,0,320,128,32,24,0,-27,-98,0,0,100,0,72,240,56,112,0,5,-94,0,0,100,0,216,153,96,87,0,-3,-101,0,0,100,0,208,128,112,24,0,13,-26,0,1,100,0,128,264,80,32,0,16,-27,0,0,80,0,128,232,80,32,0,69,-30,0,0,100,0,72,184,56,56,0,-20,-31,1,0,100,0,72,184,56,56,0,22,-12,0,0,100,0,128,208,72,24,0,
0,9,-27,-98,0,0,100,0,72,240,56,112,0,5,-94,0,0,100,0,216,153,96,87,0,33,-106,0,0,100,0,320,128,32,24,0,-3,-101,0,0,100,0,208,128,112,24,0,13,-26,0,1,100,0,128,232,80,32,0,16,-27,0,0,80,0,128,264,80,32,0,69,-30,0,0,100,0,72,184,56,56,0,-20,-31,1,0,100,0,72,184,56,56,0,22,-12,0,0,100,0,128,208,72,24,0,
0,9,-27,-98,0,0,100,0,72,240,56,112,0,5,-94,0,0,100,0,216,153,96,87,0,-5,-131,0,1,50,0,592,368,104,64,0,-3,-101,0,0,100,0,208,128,112,24,0,13,-26,0,1,100,0,128,264,80,32,0,16,-27,0,0,80,0,128,232,80,32,0,69,-30,0,0,100,0,72,184,56,56,0,-20,-31,1,0,100,0,72,184,56,56,0,22,-12,0,0,100,0,128,208,72,24,0,
0,9,103,-170,0,0,100,0,320,152,16,24,0,-27,-98,0,0,100,0,72,240,56,112,0,5,-94,0,0,100,0,216,153,96,87,0,-3,-101,0,0,100,0,208,128,112,24,0,13,-26,0,1,100,0,128,232,80,32,0,16,-27,0,0,80,0,128,264,80,32,0,69,-30,0,0,100,0,72,184,56,56,0,-20,-31,1,0,100,0,72,184,56,56,0,22,-12,0,0,100,0,128,208,72,24,0,
0,9,60,-155,0,0,100,0,320,152,16,24,0,-27,-98,0,0,100,0,72,240,56,112,0,5,-94,0,0,100,0,216,153,96,87,0,-3,-101,0,0,100,0,208,128,112,24,0,13,-26,0,1,100,0,128,264,80,32,0,16,-27,0,0,80,0,128,232,80,32,0,69,-30,0,0,100,0,72,184,56,56,0,-20,-31,1,0,100,0,72,184,56,56,0,22,-12,0,0,100,0,128,208,72,24,0,
0,9,-27,-98,0,0,100,0,72,240,56,112,0,5,-94,0,0,100,0,216,153,96,87,0,33,-104,0,0,100,0,320,152,16,24,0,-3,-101,0,0,100,0,208,128,112,24,0,13,-26,0,1,100,0,128,232,80,32,0,16,-27,0,0,80,0,128,264,80,32,0,69,-30,0,0,100,0,72,184,56,56,0,-20,-31,1,0,100,0,72,184,56,56,0,22,-12,0,0,100,0,128,208,72,24,0,
0,10,101,-184,0,0,100,0,320,176,24,24,0,-27,-98,0,0,100,0,72,240,56,112,0,5,-94,0,0,100,0,216,153,96,87,0,-15,-129,0,1,50,0,592,368,104,64,0,-3,-101,0,0,100,0,208,128,112,24,0,13,-26,0,1,100,0,128,264,80,32,0,16,-27,0,0,80,0,128,232,80,32,0,69,-30,0,0,100,0,72,184,56,56,0,-20,-31,1,0,100,0,72,184,56,56,0,22,-12,0,0,100,0,128,208,72,24,0,
0,10,-27,-98,0,0,100,0,72,240,56,112,0,5,-94,0,0,100,0,216,153,96,87,0,114,-165,0,0,100,0,352,128,24,24,0,64,-169,0,0,100,0,320,176,24,24,0,-3,-101,0,0,100,0,208,128,112,24,0,13,-26,0,1,100,0,128,232,80,32,0,16,-27,0,0,80,0,128,264,80,32,0,69,-30,0,0,100,0,72,184,56,56,0,-20,-31,1,0,100,0,72,184,56,56,0,22,-12,0,0,100,0,128,208,72,24,0,
0,11,-27,-98,0,0,100,0,72,240,56,112,0,5,-94,0,0,100,0,216,153,96,87,0,114,-147,0,0,100,0,336,152,24,24,0,77,-150,0,0,100,0,352,128,24,24,0,44,-118,0,0,100,0,320,176,24,24,0,-3,-101,0,0,100,0,208,128,112,24,0,13,-26,0,1,100,0,128,264,80,32,0,16,-27,0,0,80,0,128,232,80,32,0,69,-30,0,0,100,0,72,184,56,56,0,-20,-31,1,0,100,0,72,184,56,56,0,22,-12,0,0,100,0,128,208,72,24,0,
0,12,-27,-98,0,0,100,0,72,240,56,112,0,5,-94,0,0,100,0,216,153,96,87,0,117,-154,0,0,100,0,320,200,32,24,0,4,-130,0,1,50,0,592,368,104,64,0,79,-153,0,0,100,0,336,152,24,24,0,48,-117,0,0,100,0,352,128,24,24,0,-3,-101,0,0,100,0,208,128,112,24,0,13,-26,0,1,100,0,128,232,80,32,0,16,-27,0,0,80,0,128,264,80,32,0,69,-30,0,0,100,0,72,184,56,56,0,-20,-31,1,0,100,0,72,184,56,56,0,22,-12,0,0,100,0,128,208,72,24,0,
0,12,-27,-98,0,0,100,0,72,240,56,112,0,5,-94,0,0,100,0,216,153,96,87,0,117,-181,0,0,100,0,320,152,16,24,0,83,-168,0,0,100,0,320,200,32,24,0,49,-146,0,0,100,0,336,152,24,24,0,6,-136,1,1,50,0,592,368,104,64,0,-3,-101,0,0,100,0,208,128,112,24,0,13,-26,0,1,100,0,128,264,80,32,0,16,-27,0,0,80,0,128,232,80,32,0,69,-30,0,0,100,0,72,184,56,56,0,-20,-31,1,0,100,0,72,184,56,56,0,22,-12,0,0,100,0,128,208,72,24,0,
0,11,-27,-98,0,0,100,0,72,240,56,112,0,5,-94,0,0,100,0,216,153,96,87,0,60,-170,0,0,100,0,320,200,32,24,0,87,-152,0,0,100,0,320,152,16,24,0,30,-129,0,0,100,0,336,152,24,24,0,-3,-101,0,0,100,0,208,128,112,24,0,13,-26,0,1,100,0,128,232,80,32,0,16,-27,0,0,80,0,128,264,80,32,0,69,-30,0,0,100,0,72,184,56,56,0,-20,-31,1,0,100,0,72,184,56,56,0,22,-12,0,0,100,0,128,208,72,24,0,
0,12,-27,-98,0,0,100,0,72,240,56,112,0,5,-95,0,0,100,0,216,153,96,87,0,73,-123,0,0,100,0,320,152,16,24,0,22,-146,0,0,100,0,320,200,32,24,0,114,-149,0,0,100,0,352,128,24,24,0,22,-102,0,0,100,0,336,152,24,24,0,-3,-102,0,0,100,0,208,128,112,24,0,13,-26,0,1,100,0,128,264,80,32,0,16,-27,0,0,80,0,128,232,80,32,0,69,-30,0,0,100,0,72,184,56,56,0,-20,-31,1,0,100,0,72,184,56,56,0,22,-12,0,0,100,0,128,208,72,24,0,
0,12,-27,-98,0,0,100,0,72,240,56,112,0,5,-95,0,0,100,0,216,153,96,87,0,-19,-130,0,1,50,0,592,368,104,64,0,55,-93,0,0,100,0,320,152,16,24,0,16,-106,0,0,100,0,320,200,32,24,0,87,-151,0,0,100,0,352,128,24,24,0,-3,-102,0,0,100,0,208,128,112,24,0,13,-26,0,1,100,0,128,232,80,32,0,16,-27,0,0,80,0,128,264,80,32,0,69,-30,0,0,100,0,72,184,56,56,0,-20,-31,1,0,100,0,72,184,56,56,0,22,-12,0,0,100,0,128,208,72,24,0,
0,10,-27,-98,0,0,100,0,72,240,56,112,0,5,-94,0,0,100,0,216,153,96,87,0,-21,-149,0,1,50,0,592,368,104,64,0,59,-145,0,0,100,0,352,128,24,24,0,-3,-101,0,0,100,0,208,128,112,24,0,13,-26,0,1,100,0,128,264,80,32,0,16,-27,0,0,80,0,128,232,80,32,0,69,-30,0,0,100,0,72,184,56,56,0,-20,-31,1,0,100,0,72,184,56,56,0,22,-12,0,0,100,0,128,208,72,24,0,
0,10,-27,-98,0,0,100,0,72,240,56,112,0,5,-94,0,0,100,0,216,153,96,87,0,-25,-119,0,1,50,0,592,368,104,64,0,38,-130,0,0,100,0,352,128,24,24,0,-3,-101,0,0,100,0,208,128,112,24,0,13,-26,0,1,100,0,128,232,80,32,0,16,-27,0,0,80,0,128,264,80,32,0,69,-30,0,0,100,0,72,184,56,56,0,-20,-31,1,0,100,0,72,184,56,56,0,22,-12,0,0,100,0,128,208,72,24,0,
0,9,-27,-98,0,0,100,0,72,240,56,112,0,5,-94,0,0,100,0,216,153,96,87,0,20,-96,0,0,100,0,352,128,24,24,0,-3,-101,0,0,100,0,208,128,112,24,0,13,-26,0,1,100,0,128,264,80,32,0,16,-27,0,0,80,0,128,232,80,32,0,69,-30,0,0,100,0,72,184,56,56,0,-20,-31,1,0,100,0,72,184,56,56,0,22,-12,0,0,100,0,128,208,72,24,0,
0,9,-27,-98,0,0,100,0,72,240,56,112,0,5,-94,0,0,100,0,216,153,96,87,0,-15,-142,0,1,50,0,592,368,104,64,0,-3,-101,0,0,100,0,208,128,112,24,0,13,-26,0,1,100,0,128,232,80,32,0,16,-27,0,0,80,0,128,264,80,32,0,69,-30,0,0,100,0,72,184,56,56,0,-20,-31,1,0,100,0,72,184,56,56,0,22,-12,0,0,100,0,128,208,72,24,0,
0,9,-27,-98,0,0,100,0,72,240,56,112,0,5,-94,0,0,100,0,216,153,96,87,0,-22,-112,0,1,50,0,592,368,104,64,0,-3,-101,0,0,100,0,208,128,112,24,0,13,-26,0,1,100,0,128,264,80,32,0,16,-27,0,0,80,0,128,232,80,32,0,69,-30,0,0,100,0,72,184,56,56,0,-20,-31,1,0,100,0,72,184,56,56,0,22,-12,0,0,100,0,128,208,72,24,0,
0,11,98,-26,0,0,100,0,600,0,40,64,0,83,-36,0,0,100,0,688,216,88,56,0,90,25,0,0,65,0,184,392,48,16,0,-27,-98,0,0,100,0,72,240,56,112,0,5,-94,0,0,100,0,216,153,96,87,0,-3,-101,0,0,100,0,208,128,112,24,0,13,-26,0,1,100,0,128,232,80,32,0,16,-27,0,0,80,0,128,264,80,32,0,69,-30,0,0,100,0,72,184,56,56,0,-20,-31,1,0,100,0,72,184,56,56,0,22,-12,0,0,100,0,128,208,72,24,0,
0,11,57,-26,0,0,100,0,640,0,40,64,0,42,-38,0,0,100,0,688,216,88,56,0,58,25,0,0,65,0,184,392,48,16,0,-27,-98,0,0,100,0,72,240,56,112,0,5,-94,0,0,100,0,216,153,96,87,0,-3,-101,0,0,100,0,208,128,112,24,0,13,-26,0,1,100,0,128,264,80,32,0,16,-27,0,0,80,0,128,232,80,32,0,69,-30,0,0,100,0,72,184,56,56,0,-20,-31,1,0,100,0,72,184,56,56,0,22,-12,0,0,100,0,128,208,72,24,0,
0,12,26,-26,0,0,100,0,680,0,40,64,0,11,-36,0,0,100,0,688,216,88,56,0,21,25,0,0,65,0,184,392,48,16,0,-27,-98,0,0,100,0,72,240,56,112,0,-8,-314,2,0,100,0,0,472,112,104,0,5,-94,0,0,100,0,216,153,96,87,0,-3,-101,0,0,100,0,208,128,112,24,0,13,-26,0,1,100,0,128,232,80,32,0,16,-27,0,0,80,0,128,264,80,32,0,69,-30,0,0,100,0,72,184,56,56,0,-20,-31,1,0,100,0,72,184,56,56,0,22,-12,0,0,100,0,128,208,72,24,0,
0,12,1,-26,0,0,100,0,720,0,40,64,0,-14,-38,0,0,100,0,688,216,88,56,0,-3,25,0,0,65,0,184,392,48,16,0,-27,-98,0,0,100,0,72,240,56,112,0,5,-94,0,0,100,0,216,153,96,87,0,-8,-242,2,0,100,0,112,472,112,104,0,-3,-101,0,0,100,0,208,128,112,24,0,13,-26,0,1,100,0,128,264,80,32,0,16,-27,0,0,80,0,128,232,80,32,0,69,-30,0,0,100,0,72,184,56,56,0,-20,-31,1,0,100,0,72,184,56,56,0,22,-12,0,0,100,0,128,208,72,24,0,
0,12,-20,-32,0,0,100,0,600,0,40,64,0,-35,-42,0,0,100,0,688,216,88,56,0,-25,22,0,0,65,0,184,392,48,16,0,-27,-98,0,0,100,0,72,240,56,112,0,5,-94,0,0,100,0,216,153,96,87,0,11,-188,1,1,100,0,608,368,80,104,0,-3,-101,0,0,100,0,208,128,112,24,0,13,-26,0,1,100,0,128,232,80,32,0,16,-27,0,0,80,0,128,264,80,32,0,69,-30,0,0,100,0,72,184,56,56,0,-20,-31,1,0,100,0,72,184,56,56,0,22,-12,0,0,100,0,128,208,72,24,0,
0,13,-42,-50,1,0,100,0,640,0,40,64,0,-75,-62,1,0,100,0,688,216,88,56,0,-27,-98,0,0,100,0,72,240,56,112,0,-48,0,0,0,65,0,184,392,48,16,0,5,-94,0,0,100,0,216,153,96,87,0,10,-189,1,1,100,0,600,368,88,104,0,-8,-232,0,1,100,0,584,368,120,176,0,-3,-101,0,0,100,0,208,128,112,24,0,13,-26,0,1,100,0,128,264,80,32,0,16,-27,0,0,80,0,128,232,80,32,0,69,-30,0,0,100,0,72,184,56,56,0,-20,-31,1,0,100,0,72,184,56,56,0,22,-12,0,0,100,0,128,208,72,24,0,
0,14,-35,-69,0,0,100,0,112,64,40,64,0,-67,-82,1,0,100,0,688,216,88,56,0,-27,-98,0,0,100,0,72,240,56,112,0,-44,0,0,0,40,0,184,392,48,16,0,5,-94,0,0,100,0,216,153,96,87,0,33,-195,0,1,50,0,608,368,64,112,0,7,-181,1,1,50,0,608,368,64,112,0,5,-142,0,1,50,0,592,368,104,64,0,-3,-101,0,0,100,0,208,128,112,24,0,13,-26,0,1,100,0,128,232,80,32,0,16,-27,0,0,80,0,128,264,80,32,0,69,-30,0,0,100,0,72,184,56,56,0,-20,-31,1,0,100,0,72,184,56,56,0,22,-12,0,0,100,0,128,208,72,24,0,
0,12,-32,-72,0,0,100,0,152,64,40,64,0,-64,-85,1,0,100,0,688,216,88,56,0,-27,-98,0,0,100,0,72,240,56,112,0,-41,0,0,0,30,0,184,392,48,16,0,5,-94,0,0,100,0,216,153,96,87,0,4,-130,0,1,50,0,592,368,104,64,0,-3,-101,0,0,100,0,208,128,112,24,0,13,-26,0,1,100,0,128,264,80,32,0,16,-27,0,0,80,0,128,232,80,32,0,69,-30,0,0,100,0,72,184,56,56,0,-20,-31,1,0,100,0,72,184,56,56,0,22,-12,0,0,100,0,128,208,72,24,0,
0,11,-27,-86,0,0,100,0,192,64,40,64,0,-59,-99,1,0,100,0,688,216,88,56,0,-27,-98,0,0,100,0,72,240,56,112,0,-39,0,0,0,10,0,184,392,48,16,0,5,-94,0,0,100,0,216,153,96,87,0,-3,-101,0,0,100,0,208,128,112,24,0,13,-26,0,1,100,0,128,232,80,32,0,16,-27,0,0,80,0,128,264,80,32,0,69,-30,0,0,100,0,72,184,56,56,0,-20,-31,1,0,100,0,72,184,56,56,0,22,-12,0,0,100,0,128,208,72,24,0,
0,11,-24,-90,0,0,100,0,232,64,40,64,0,-56,-103,1,0,100,0,688,216,88,56,0,-27,-98,0,0,100,0,72,240,56,112,0,-37,0,0,0,10,0,184,392,48,16,0,5,-94,0,0,100,0,216,153,96,87,0,-3,-101,0,0,100,0,208,128,112,24,0,13,-26,0,1,100,0,128,264,80,32,0,16,-27,0,0,80,0,128,232,80,32,0,69,-30,0,0,100,0,72,184,56,56,0,-20,-31,1,0,100,0,72,184,56,56,0,22,-12,0,0,100,0,128,208,72,24,0,
0,10,-23,-96,0,0,100,0,112,64,40,64,0,-55,-109,1,0,100,0,688,216,88,56,0,-27,-98,0,0,100,0,72,240,56,112,0,5,-94,0,0,100,0,216,153,96,87,0,-3,-101,0,0,100,0,208,128,112,24,0,13,-26,0,1,100,0,128,232,80,32,0,16,-27,0,0,80,0,128,264,80,32,0,69,-30,0,0,100,0,72,184,56,56,0,-20,-31,1,0,100,0,72,184,56,56,0,22,-12,0,0,100,0,128,208,72,24,0,
0,10,-23,-99,0,0,100,0,152,64,40,64,0,-55,-112,1,0,100,0,688,216,88,56,0,-27,-98,0,0,100,0,72,240,56,112,0,5,-94,0,0,100,0,216,153,96,87,0,-3,-101,0,0,100,0,208,128,112,24,0,13,-26,0,1,100,0,128,264,80,32,0,16,-27,0,0,80,0,128,232,80,32,0,69,-30,0,0,100,0,72,184,56,56,0,-20,-31,1,0,100,0,72,184,56,56,0,22,-12,0,0,100,0,128,208,72,24,0,
0,11,-17,-112,0,0,100,0,192,64,40,64,0,-49,-125,1,0,100,0,688,216,88,56,0,-27,-98,0,0,100,0,72,240,56,112,0,5,-94,0,0,100,0,216,153,96,87,0,0,-98,0,0,100,0,112,472,96,16,0,-3,-101,0,0,100,0,208,128,112,24,0,13,-26,0,1,100,0,128,232,80,32,0,16,-27,0,0,80,0,128,264,80,32,0,69,-30,0,0,100,0,72,184,56,56,0,-20,-31,1,0,100,0,72,184,56,56,0,22,-12,0,0,100,0,128,208,72,24,0,
0,11,-16,-116,0,0,100,0,232,64,40,64,0,-48,-129,1,0,100,0,688,216,88,56,0,-27,-98,0,0,100,0,72,240,56,112,0,5,-94,0,0,100,0,216,153,96,87,0,0,-106,0,0,100,0,112,472,96,32,0,-3,-101,0,0,100,0,208,128,112,24,0,13,-26,0,1,100,0,128,264,80,32,0,16,-27,0,0,80,0,128,232,80,32,0,69,-30,0,0,100,0,72,184,56,56,0,-20,-31,1,0,100,0,72,184,56,56,0,22,-12,0,0,100,0,128,208,72,24,0,
0,11,-13,-124,0,0,100,0,112,64,40,64,0,-45,-137,1,0,100,0,688,216,88,56,0,-27,-98,0,0,100,0,72,240,56,112,0,5,-94,0,0,100,0,216,153,96,87,0,0,-108,0,0,100,0,112,472,96,32,0,-3,-101,0,0,100,0,208,128,112,24,0,13,-26,0,1,100,0,128,232,80,32,0,16,-27,0,0,80,0,128,264,80,32,0,69,-30,0,0,100,0,72,184,56,56,0,-20,-31,1,0,100,0,72,184,56,56,0,22,-12,0,0,100,0,128,208,72,24,0,
0,11,-13,-129,0,0,100,0,152,64,40,64,0,-45,-142,1,0,100,0,688,216,88,56,0,-27,-98,0,0,100,0,72,240,56,112,0,5,-94,0,0,100,0,216,153,96,87,0,0,-116,0,0,100,0,112,472,96,32,0,-3,-101,0,0,100,0,208,128,112,24,0,13,-26,0,1,100,0,128,264,80,32,0,16,-27,0,0,80,0,128,232,80,32,0,69,-30,0,0,100,0,72,184,56,56,0,-20,-31,1,0,100,0,72,184,56,56,0,22,-12,0,0,100,0,128,208,72,24,0,
0,11,6,-138,0,0,100,0,272,64,32,64,0,-38,-151,1,0,100,0,688,216,88,56,0,-27,-98,0,0,100,0,72,240,56,112,0,5,-94,0,0,100,0,216,153,96,87,0,12,-119,0,0,100,0,128,472,88,40,0,-3,-101,0,0,100,0,208,128,112,24,0,13,-26,0,1,100,0,128,232,80,32,0,16,-27,0,0,80,0,128,264,80,32,0,69,-30,0,0,100,0,72,184,56,56,0,-20,-31,1,0,100,0,72,184,56,56,0,22,-12,0,0,100,0,128,208,72,24,0,
0,11,6,-138,0,0,100,0,304,64,32,64,0,-27,-98,0,0,100,0,72,240,56,112,0,5,-94,0,0,100,0,216,153,96,87,0,-12,-167,0,0,100,0,688,272,56,88,0,13,-122,0,0,100,0,128,472,88,40,0,-3,-101,0,0,100,0,208,128,112,24,0,13,-26,0,1,100,0,128,264,80,32,0,16,-27,0,0,80,0,128,232,80,32,0,69,-30,0,0,100,0,72,184,56,56,0,-20,-31,1,0,100,0,72,184,56,56,0,22,-12,0,0,100,0,128,208,72,24,0,
0,11,6,-138,0,0,100,0,336,64,40,64,0,-27,-98,0,0,100,0,72,240,56,112,0,5,-94,0,0,100,0,216,153,96,87,0,14,-155,0,0,100,0,688,272,56,88,0,10,-120,0,0,100,0,506,256,78,64,0,-3,-101,0,0,100,0,208,128,112,24,0,13,-26,0,1,100,0,128,232,80,32,0,16,-27,0,0,80,0,128,264,80,32,0,69,-30,0,0,100,0,72,184,56,56,0,-20,-31,1,0,100,0,72,184,56,56,0,22,-12,0,0,100,0,128,208,72,24,0,
0,11,6,-138,0,0,100,0,376,64,40,64,0,-27,-98,0,0,100,0,72,240,56,112,0,5,-94,0,0,100,0,216,153,96,87,0,28,-153,0,0,100,0,744,272,32,88,0,10,-117,0,0,100,0,504,256,80,64,0,-3,-101,0,0,100,0,208,128,112,24,0,13,-26,1,1,100,0,128,264,80,32,0,13,-27,1,0,80,0,128,232,80,32,0,69,-30,0,0,100,0,72,184,56,56,0,-20,-31,1,0,100,0,72,184,56,56,0,22,-12,0,0,100,0,128,208,72,24,0,
0,11,6,-138,0,0,100,0,416,64,40,64,0,-27,-98,0,0,100,0,72,240,56,112,0,5,-94,0,0,100,0,216,153,96,87,0,22,-155,0,0,100,0,744,272,32,88,0,10,-116,0,0,100,0,504,256,80,64,0,-3,-101,0,0,100,0,208,128,112,24,0,13,-26,0,1,100,0,128,264,80,32,0,16,-27,0,0,80,0,128,232,80,32,0,69,-30,0,0,100,0,72,184,56,56,0,-20,-31,1,0,100,0,72,184,56,56,0,22,-12,0,0,100,0,128,208,72,24,0,
0,11,6,-138,0,0,100,0,336,64,40,64,0,-27,-98,0,0,100,0,72,240,56,112,0,5,-94,0,0,100,0,216,153,96,87,0,14,-155,0,0,100,0,688,272,56,88,0,12,-114,0,0,100,0,504,256,80,64,0,-3,-101,0,0,100,0,208,128,112,24,0,13,-26,0,1,100,0,128,232,80,32,0,16,-27,0,0,80,0,128,264,80,32,0,69,-30,0,0,100,0,72,184,56,56,0,-20,-31,1,0,100,0,72,184,56,56,0,22,-12,0,0,100,0,128,208,72,24,0,
0,11,6,-138,0,0,100,0,376,64,40,64,0,-27,-98,0,0,100,0,72,240,56,112,0,5,-94,0,0,100,0,216,153,96,87,0,28,-153,0,0,100,0,744,272,32,88,0,14,-104,0,0,100,0,504,256,80,64,0,-3,-101,0,0,100,0,208,128,112,24,0,13,-26,1,1,100,0,128,264,80,32,0,13,-27,1,0,80,0,128,232,80,32,0,69,-30,0,0,100,0,72,184,56,56,0,-20,-31,1,0,100,0,72,184,56,56,0,22,-12,0,0,100,0,128,208,72,24,0,
0,11,6,-138,0,0,100,0,416,64,40,64,0,-27,-98,0,0,100,0,72,240,56,112,0,5,-94,0,0,100,0,216,153,96,87,0,22,-155,0,0,100,0,744,272,32,88,0,9,-94,0,0,100,0,504,256,80,64,0,-3,-101,0,0,100,0,208,128,112,24,0,13,-26,0,1,100,0,128,264,80,32,0,16,-27,0,0,80,0,128,232,80,32,0,69,-30,0,0,100,0,72,184,56,56,0,-20,-31,1,0,100,0,72,184,56,56,0,22,-12,0,0,100,0,128,208,72,24,0,
0,10,4,-125,0,0,100,0,456,64,48,48,0,-27,-98,0,0,100,0,72,240,56,112,0,5,-94,0,0,100,0,216,153,96,87,0,7,-132,0,0,100,0,744,272,32,88,0,-3,-101,0,0,100,0,208,128,112,24,0,13,-26,0,1,100,0,128,264,80,32,0,16,-27,0,0,80,0,128,232,80,32,0,69,-30,0,0,100,0,72,184,56,56,0,-20,-31,1,0,100,0,72,184,56,56,0,22,-12,0,0,100,0,128,208,72,24,0,
0,10,4,-125,0,0,100,0,504,64,48,48,0,-27,-98,0,0,100,0,72,240,56,112,0,5,-94,0,0,100,0,216,153,96,87,0,9,-117,0,0,100,0,744,272,32,88,0,-3,-101,0,0,100,0,208,128,112,24,0,13,-26,0,1,100,0,128,232,80,32,0,16,-27,0,0,80,0,128,264,80,32,0,69,-30,0,0,100,0,72,184,56,56,0,-20,-31,1,0,100,0,72,184,56,56,0,22,-12,0,0,100,0,128,208,72,24,0,
0,12,-36,-200,0,1,100,0,376,256,104,104,0,-18,-160,0,0,100,0,128,296,72,32,0,-7,-140,0,0,100,0,552,64,40,64,0,-27,-98,0,0,100,0,72,240,56,112,0,5,-94,0,0,100,0,216,153,96,87,0,9,-117,0,0,100,0,744,272,32,88,0,-3,-101,0,0,100,0,208,128,112,24,0,13,-26,0,1,100,0,128,264,80,32,0,16,-27,0,0,80,0,128,232,80,32,0,69,-30,0,0,100,0,72,184,56,56,0,-20,-31,1,0,100,0,72,184,56,56,0,22,-12,0,0,100,0,128,208,72,24,0,
0,12,-33,-201,1,1,100,0,704,360,104,104,0,-18,-160,0,0,100,0,128,296,72,32,0,-7,-140,0,0,100,0,552,64,40,64,0,-27,-98,0,0,100,0,72,240,56,112,0,5,-94,0,0,100,0,216,153,96,87,0,9,-117,0,0,100,0,744,272,32,88,0,-3,-101,0,0,100,0,208,128,112,24,0,13,-26,0,1,100,0,128,232,80,32,0,16,-27,0,0,80,0,128,264,80,32,0,69,-30,0,0,100,0,72,184,56,56,0,-20,-31,1,0,100,0,72,184,56,56,0,22,-12,0,0,100,0,128,208,72,24,0,
0,11,-31,-163,0,0,100,0,128,296,72,32,0,-36,-145,0,0,100,0,592,64,48,56,0,-27,-98,0,0,100,0,72,240,56,112,0,5,-94,0,0,100,0,216,153,96,87,0,9,-117,0,0,100,0,744,272,32,88,0,-3,-101,0,0,100,0,208,128,112,24,0,13,-26,0,1,100,0,128,264,80,32,0,16,-27,0,0,80,0,128,232,80,32,0,69,-30,0,0,100,0,72,184,56,56,0,-20,-31,1,0,100,0,72,184,56,56,0,22,-12,0,0,100,0,128,208,72,24,0,
0,11,-43,-160,0,0,100,0,128,296,72,32,0,-48,-142,0,0,100,0,592,64,48,56,0,-27,-98,0,0,100,0,72,240,56,112,0,5,-94,0,0,100,0,216,153,96,87,0,9,-117,0,0,100,0,744,272,32,88,0,-3,-101,0,0,100,0,208,128,112,24,0,13,-26,0,1,100,0,128,232,80,32,0,16,-27,0,0,80,0,128,264,80,32,0,69,-30,0,0,100,0,72,184,56,56,0,-20,-31,1,0,100,0,72,184,56,56,0,22,-12,0,0,100,0,128,208,72,24,0,
0,12,-61,-129,0,0,100,0,128,328,72,48,0,-62,-93,0,0,100,0,592,64,48,56,0,-27,-98,0,0,100,0,72,240,56,112,0,-61,2,0,0,10,0,184,392,48,16,0,5,-94,0,0,100,0,216,153,96,87,0,9,-117,0,0,100,0,744,272,32,88,0,-3,-101,0,0,100,0,208,128,112,24,0,13,-26,0,1,100,0,128,264,80,32,0,16,-27,0,0,80,0,128,232,80,32,0,69,-30,0,0,100,0,72,184,56,56,0,-20,-31,1,0,100,0,72,184,56,56,0,22,-12,0,0,100,0,128,208,72,24,0,
0,12,-65,-88,0,0,100,0,128,328,72,48,0,-66,-50,0,0,100,0,592,64,48,56,0,-64,2,0,0,50,0,184,392,48,16,0,-27,-98,0,0,100,0,72,240,56,112,0,5,-94,0,0,100,0,216,153,96,87,0,9,-117,0,0,100,0,744,272,32,88,0,-3,-101,0,0,100,0,208,128,112,24,0,13,-26,0,1,100,0,128,232,80,32,0,16,-27,0,0,80,0,128,264,80,32,0,69,-30,0,0,100,0,72,184,56,56,0,-20,-31,1,0,100,0,72,184,56,56,0,22,-12,0,0,100,0,128,208,72,24,0,
0,12,-81,-69,0,0,100,0,128,328,72,48,0,-60,-43,0,0,100,0,640,64,32,56,0,-67,2,0,0,65,0,184,392,48,16,0,-27,-98,0,0,100,0,72,240,56,112,0,5,-94,0,0,100,0,216,153,96,87,0,9,-117,0,0,100,0,744,272,32,88,0,-3,-101,0,0,100,0,208,128,112,24,0,13,-26,0,1,100,0,128,264,80,32,0,16,-27,0,0,80,0,128,232,80,32,0,69,-30,0,0,100,0,72,184,56,56,0,-20,-31,1,0,100,0,72,184,56,56,0,22,-12,0,0,100,0,128,208,72,24,0,
0,12,-84,-53,0,0,100,0,128,296,72,32,0,-59,-43,0,0,100,0,672,64,32,56,0,-67,2,0,0,65,0,184,392,48,16,0,-27,-98,0,0,100,0,72,240,56,112,0,5,-94,0,0,100,0,216,153,96,87,0,9,-117,0,0,100,0,744,272,32,88,0,-3,-101,0,0,100,0,208,128,112,24,0,13,-26,0,1,100,0,128,232,80,32,0,16,-27,0,0,80,0,128,264,80,32,0,69,-30,0,0,100,0,72,184,56,56,0,-20,-31,1,0,100,0,72,184,56,56,0,22,-12,0,0,100,0,128,208,72,24,0,
0,12,-82,-67,0,0,100,0,128,296,72,32,0,-63,-41,0,0,100,0,704,64,40,56,0,-70,2,0,0,65,0,184,392,48,16,0,-27,-98,0,0,100,0,72,240,56,112,0,5,-94,0,0,100,0,216,153,96,87,0,9,-117,0,0,100,0,744,272,32,88,0,-3,-101,0,0,100,0,208,128,112,24,0,13,-26,0,1,100,0,128,264,80,32,0,16,-27,0,0,80,0,128,232,80,32,0,69,-30,0,0,100,0,72,184,56,56,0,-20,-31,1,0,100,0,72,184,56,56,0,22,-12,0,0,100,0,128,208,72,24,0,
0,12,-80,-67,0,0,100,0,128,296,72,32,0,-63,-41,0,0,100,0,704,64,40,56,0,-70,2,0,0,65,0,184,392,48,16,0,-27,-98,0,0,100,0,72,240,56,112,0,5,-94,0,0,100,0,216,153,96,87,0,9,-117,0,0,100,0,744,272,32,88,0,-3,-101,0,0,100,0,208,128,112,24,0,13,-26,0,1,100,0,128,232,80,32,0,16,-27,0,0,80,0,128,264,80,32,0,69,-30,0,0,100,0,72,184,56,56,0,-20,-31,1,0,100,0,72,184,56,56,0,22,-12,0,0,100,0,128,208,72,24,0,
0,12,-80,-67,0,0,100,0,128,296,72,32,0,-63,-41,0,0,100,0,704,64,40,56,0,-70,2,0,0,65,0,184,392,48,16,0,-27,-98,0,0,100,0,72,240,56,112,0,5,-94,0,0,100,0,216,153,96,87,0,9,-117,0,0,100,0,744,272,32,88,0,-3,-101,0,0,100,0,208,128,112,24,0,13,-26,0,1,100,0,128,264,80,32,0,16,-27,0,0,80,0,128,232,80,32,0,69,-30,0,0,100,0,72,184,56,56,0,-20,-31,1,0,100,0,72,184,56,56,0,22,-12,0,0,100,0,128,208,72,24,0,
0,14,-80,-67,0,0,100,0,128,296,72,32,0,-63,-41,0,0,100,0,704,64,40,56,0,-70,2,0,0,65,0,184,392,48,16,0,-27,-98,0,0,100,0,72,240,56,112,0,5,-94,0,0,100,0,216,153,96,87,0,-52,-203,0,1,100,0,376,360,208,128,0,-52,-203,0,0,100,0,376,128,208,128,0,9,-117,0,0,100,0,744,272,32,88,0,-3,-101,0,0,100,0,208,128,112,24,0,13,-26,0,1,100,0,128,232,80,32,0,16,-27,0,0,80,0,128,264,80,32,0,69,-30,0,0,100,0,72,184,56,56,0,-20,-31,1,0,100,0,72,184,56,56,0,22,-12,0,0,100,0,128,208,72,24,0,
0,16,-80,-67,0,0,100,0,128,296,72,32,0,-63,-41,0,0,100,0,704,64,40,56,0,-70,2,0,0,65,0,184,392,48,16,0,-27,-98,0,0,100,0,72,240,56,112,0,5,-94,0,0,100,0,216,153,96,87,0,-1,-332,0,1,100,0,584,128,104,72,0,-1,-260,0,1,100,0,584,160,104,208,0,-52,-211,0,1,100,0,376,360,208,128,0,-52,-211,0,0,100,0,376,128,208,128,0,9,-117,0,0,100,0,744,272,32,88,0,-3,-101,0,0,100,0,208,128,112,24,0,13,-26,0,1,100,0,128,264,80,32,0,16,-27,0,0,80,0,128,232,80,32,0,69,-30,0,0,100,0,72,184,56,56,0,-20,-31,1,0,100,0,72,184,56,56,0,22,-12,0,0,100,0,128,208,72,24,0,
0,16,-80,-67,0,0,100,0,128,296,72,32,0,-63,-41,0,0,100,0,704,64,40,56,0,-70,2,0,0,65,0,184,392,48,16,0,-27,-98,0,0,100,0,72,240,56,112,0,5,-94,0,0,100,0,216,153,96,87,0,-1,-372,1,1,100,0,584,128,104,112,0,2,-260,1,1,100,0,584,160,104,208,0,-52,-216,0,1,100,0,376,360,208,128,0,-52,-216,0,0,100,0,376,128,208,128,0,-3,-101,0,0,100,0,208,128,112,24,0,9,-117,0,0,100,0,744,272,32,88,0,13,-26,0,1,100,0,128,232,80,32,0,16,-27,0,0,80,0,128,264,80,32,0,69,-30,0,0,100,0,72,184,56,56,0,-20,-31,1,0,100,0,72,184,56,56,0,22,-12,0,0,100,0,128,208,72,24,0,
0,16,-80,-67,0,0,100,0,128,296,72,32,0,-63,-41,0,0,100,0,704,64,40,56,0,-70,2,0,0,65,0,184,392,48,16,0,-27,-98,0,0,100,0,72,240,56,112,0,5,-94,0,0,100,0,216,153,96,87,0,1,-450,3,1,100,0,584,176,104,192,0,2,-258,3,1,100,0,584,128,104,208,0,-50,-218,0,1,100,0,376,360,208,128,0,-50,-218,0,0,100,0,376,128,208,128,0,9,-117,0,0,100,0,744,272,32,88,0,-3,-101,0,0,100,0,208,128,112,24,0,13,-26,0,1,100,0,128,264,80,32,0,16,-27,0,0,80,0,128,232,80,32,0,69,-30,0,0,100,0,72,184,56,56,0,-20,-31,1,0,100,0,72,184,56,56,0,22,-12,0,0,100,0,128,208,72,24,0,
0,16,-80,-67,0,0,100,0,128,296,72,32,0,-63,-41,0,0,100,0,704,64,40,56,0,-70,2,0,0,65,0,184,392,48,16,0,-27,-98,0,0,100,0,72,240,56,112,0,5,-94,0,0,100,0,216,153,96,87,0,1,-466,2,1,100,0,584,160,104,208,0,1,-258,2,1,100,0,584,128,104,208,0,-50,-219,0,1,80,0,376,360,208,128,0,-50,-219,0,0,100,0,376,128,208,128,0,9,-117,0,0,100,0,744,272,32,88,0,-3,-101,0,0,100,0,208,128,112,24,0,13,-26,0,1,100,0,128,232,80,32,0,16,-27,0,0,80,0,128,264,80,32,0,69,-30,0,0,100,0,72,184,56,56,0,-20,-31,1,0,100,0,72,184,56,56,0,22,-12,0,0,100,0,128,208,72,24,0,
0,16,-80,-67,0,0,100,0,128,296,72,32,0,-63,-41,0,0,100,0,704,64,40,56,0,-70,2,0,0,65,0,184,392,48,16,0,-27,-98,0,0,100,0,72,240,56,112,0,5,-94,0,0,100,0,216,153,96,87,0,1,-468,0,1,50,0,584,128,104,208,0,1,-260,0,1,50,0,584,160,104,208,0,-50,-224,0,1,80,0,376,360,208,128,0,-50,-224,0,0,100,0,376,128,208,128,0,9,-117,0,0,100,0,744,272,32,88,0,-3,-101,0,0,100,0,208,128,112,24,0,13,-26,0,1,100,0,128,264,80,32,0,16,-27,0,0,80,0,128,232,80,32,0,69,-30,0,0,100,0,72,184,56,56,0,-20,-31,1,0,100,0,72,184,56,56,0,22,-12,0,0,100,0,128,208,72,24,0,
0,16,-80,-67,0,0,100,0,128,296,72,32,0,-63,-41,0,0,100,0,704,64,40,56,0,-70,2,0,0,65,0,184,392,48,16,0,-27,-98,0,0,100,0,72,240,56,112,0,5,-94,0,0,100,0,216,153,96,87,0,1,-468,1,1,25,0,584,128,104,208,0,1,-260,1,1,25,0,584,160,104,208,0,-50,-221,0,1,28,0,376,360,208,128,0,-50,-221,0,0,100,0,376,128,208,128,0,9,-117,0,0,100,0,744,272,32,88,0,-3,-101,0,0,100,0,208,128,112,24,0,13,-26,0,1,100,0,128,232,80,32,0,16,-27,0,0,80,0,128,264,80,32,0,69,-30,0,0,100,0,72,184,56,56,0,-20,-31,1,0,100,0,72,184,56,56,0,22,-12,0,0,100,0,128,208,72,24,0,
0,15,-80,-67,0,0,100,0,128,296,72,32,0,-63,-41,0,0,100,0,704,64,40,56,0,-70,2,0,0,65,0,184,392,48,16,0,-27,-98,0,0,100,0,72,240,56,112,0,5,-94,0,0,100,0,216,153,96,87,0,1,-466,3,1,25,0,584,160,104,208,0,1,-258,3,1,25,0,584,128,104,208,0,-50,-218,0,0,100,0,0,576,208,128,0,9,-117,0,0,100,0,744,272,32,88,0,-3,-101,0,0,100,0,208,128,112,24,0,13,-26,0,1,100,0,128,264,80,32,0,16,-27,0,0,80,0,128,232,80,32,0,69,-30,0,0,100,0,72,184,56,56,0,-20,-31,1,0,100,0,72,184,56,56,0,22,-12,0,0,100,0,128,208,72,24,0,
0,15,-80,-67,0,0,100,0,128,296,72,32,0,-63,-41,0,0,100,0,704,64,40,56,0,-70,2,0,0,65,0,184,392,48,16,0,-27,-98,0,0,100,0,72,240,56,112,0,5,-94,0,0,100,0,216,153,96,87,0,1,-466,2,1,25,0,584,160,104,208,0,1,-258,2,1,25,0,584,128,104,208,0,-50,-218,0,0,100,0,376,128,208,128,0,9,-117,0,0,100,0,744,272,32,88,0,-3,-101,0,0,100,0,208,128,112,24,0,13,-26,0,1,100,0,128,232,80,32,0,16,-27,0,0,80,0,128,264,80,32,0,69,-30,0,0,100,0,72,184,56,56,0,-20,-31,1,0,100,0,72,184,56,56,0,22,-12,0,0,100,0,128,208,72,24,0,
0,3,-31,-58,1,0,100,0,128,128,56,48,0,-55,-55,0,0,100,0,384,0,72,64,0,-24,-8,0,0,65,0,184,392,48,16,0,
0,15,-80,-67,0,0,100,0,128,296,72,32,0,-63,-41,0,0,100,0,704,64,40,56,0,-70,2,0,0,65,0,184,392,48,16,0,-27,-98,0,0,100,0,72,240,56,112,0,5,-94,0,0,100,0,216,153,96,87,0,46,-119,0,0,100,0,496,488,72,48,0,-10,-117,1,0,100,0,496,488,72,48,0,8,-110,0,0,100,0,392,488,96,80,0,9,-117,0,0,100,0,744,272,32,88,0,-3,-101,0,0,100,0,208,128,112,24,0,13,-26,0,1,100,0,128,232,80,32,0,16,-27,0,0,80,0,128,264,80,32,0,69,-30,0,0,100,0,72,184,56,56,0,-20,-31,1,0,100,0,72,184,56,56,0,22,-12,0,0,100,0,128,208,72,24,0,
0,15,-80,-67,0,0,100,0,128,296,72,32,0,-63,-41,0,0,100,0,704,64,40,56,0,-70,2,0,0,65,0,184,392,48,16,0,-27,-98,0,0,100,0,72,240,56,112,0,5,-94,0,0,100,0,216,153,96,87,0,31,-165,0,0,100,0,496,488,72,96,0,9,-150,1,0,100,0,496,488,72,96,0,8,-150,0,0,100,0,392,488,96,80,0,9,-117,0,0,100,0,744,272,32,88,0,-3,-101,0,0,100,0,208,128,112,24,0,13,-26,0,1,100,0,128,264,80,32,0,16,-27,0,0,80,0,128,232,80,32,0,69,-30,0,0,100,0,72,184,56,56,0,-20,-31,1,0,100,0,72,184,56,56,0,22,-12,0,0,100,0,128,208,72,24,0,
0,15,-80,-67,0,0,100,0,128,296,72,32,0,-63,-41,0,0,100,0,704,64,40,56,0,-70,2,0,0,65,0,184,392,48,16,0,-27,-98,0,0,100,0,72,240,56,112,0,5,-94,0,0,100,0,216,153,96,87,0,35,-175,0,0,100,0,496,488,72,96,0,2,-171,1,0,100,0,496,488,72,96,0,8,-166,0,0,100,0,392,488,96,80,0,9,-117,0,0,100,0,744,272,32,88,0,-3,-101,0,0,100,0,208,128,112,24,0,13,-26,0,1,100,0,128,232,80,32,0,16,-27,0,0,80,0,128,264,80,32,0,69,-30,0,0,100,0,72,184,56,56,0,-20,-31,1,0,100,0,72,184,56,56,0,22,-12,0,0,100,0,128,208,72,24,0,
0,15,-80,-67,0,0,100,0,128,296,72,32,0,-63,-41,0,0,100,0,704,64,40,56,0,-70,2,0,0,65,0,184,392,48,16,0,-27,-98,0,0,100,0,72,240,56,112,0,5,-94,0,0,100,0,216,153,96,87,0,52,-187,0,0,100,0,496,488,72,96,0,-17,-190,1,0,100,0,496,488,72,96,0,8,-182,0,0,100,0,392,488,96,120,0,9,-117,0,0,100,0,744,272,32,88,0,-3,-101,0,0,100,0,208,128,112,24,0,13,-26,0,1,100,0,128,264,80,32,0,16,-27,0,0,80,0,128,232,80,32,0,69,-30,0,0,100,0,72,184,56,56,0,-20,-31,1,0,100,0,72,184,56,56,0,22,-12,0,0,100,0,128,208,72,24,0,
0,12,-32,-202,1,1,100,0,376,256,104,104,0,-18,-160,0,0,100,0,128,296,72,32,0,-7,-140,0,0,100,0,552,64,40,64,0,-27,-98,0,0,100,0,72,240,56,112,0,5,-94,0,0,100,0,216,153,96,87,0,9,-117,0,0,100,0,744,272,32,88,0,-3,-101,0,0,100,0,208,128,112,24,0,13,-26,0,1,100,0,128,264,80,32,0,16,-27,0,0,80,0,128,232,80,32,0,69,-30,0,0,100,0,72,184,56,56,0,-20,-31,1,0,100,0,72,184,56,56,0,22,-12,0,0,100,0,128,208,72,24,0,
0,12,-33,-201,1,1,100,0,704,464,104,104,0,-18,-160,0,0,100,0,128,296,72,32,0,-7,-140,0,0,100,0,552,64,40,64,0,-27,-98,0,0,100,0,72,240,56,112,0,5,-93,0,0,100,0,216,154,96,87,0,9,-117,0,0,100,0,744,272,32,88,0,-3,-101,0,0,100,0,208,128,112,24,0,13,-26,0,1,100,0,128,232,80,32,0,16,-27,0,0,80,0,128,264,80,32,0,69,-30,0,0,100,0,72,184,56,56,0,-20,-31,1,0,100,0,72,184,56,56,0,22,-12,0,0,100,0,128,208,72,24,0,
0,15,-80,-67,0,0,100,0,128,296,72,32,0,-63,-41,0,0,100,0,704,64,40,56,0,-70,2,0,0,65,0,184,392,48,16,0,-27,-98,0,0,100,0,72,240,56,112,0,5,-94,0,0,100,0,216,153,96,87,0,1,-466,2,1,20,0,584,160,104,208,0,1,-258,2,1,20,0,584,128,104,152,0,-50,-218,0,0,100,0,376,128,208,128,0,9,-117,0,0,100,0,744,272,32,88,0,-3,-101,0,0,100,0,208,128,112,24,0,13,-26,0,1,100,0,128,232,80,32,0,16,-27,0,0,80,0,128,264,80,32,0,69,-30,0,0,100,0,72,184,56,56,0,-20,-31,1,0,100,0,72,184,56,56,0,22,-12,0,0,100,0,128,208,72,24,0,
0,15,-80,-67,0,0,100,0,128,296,72,32,0,-63,-41,0,0,100,0,704,64,40,56,0,-70,2,0,0,65,0,184,392,48,16,0,-27,-98,0,0,100,0,72,240,56,112,0,5,-94,0,0,100,0,216,153,96,87,0,1,-466,3,1,10,0,584,160,104,208,0,1,-258,3,1,10,0,584,128,104,72,0,-50,-218,0,0,100,0,0,576,208,128,0,9,-117,0,0,100,0,744,272,32,88,0,-3,-101,0,0,100,0,208,128,112,24,0,13,-26,0,1,100,0,128,264,80,32,0,16,-27,0,0,80,0,128,232,80,32,0,69,-30,0,0,100,0,72,184,56,56,0,-20,-31,1,0,100,0,72,184,56,56,0,22,-12,0,0,100,0,128,208,72,24,0,
0,13,-80,-67,0,0,100,0,128,296,72,32,0,-63,-41,0,0,100,0,704,64,40,56,0,-70,2,0,0,65,0,184,392,48,16,0,-27,-98,0,0,100,0,72,240,56,112,0,5,-94,0,0,100,0,216,153,96,87,0,-50,-218,0,0,100,0,376,128,208,128,0,9,-117,0,0,100,0,744,272,32,88,0,-3,-101,0,0,100,0,208,128,112,24,0,13,-26,0,1,100,0,128,232,80,32,0,16,-27,0,0,80,0,128,264,80,32,0,69,-30,0,0,100,0,72,184,56,56,0,-20,-31,1,0,100,0,72,184,56,56,0,22,-12,0,0,100,0,128,208,72,24,0,
