0,2,96,-64,1,0,100,0,80,376,80,64,0,99,-20,0,0,65,0,976,0,80,32,0,
0,2,74,-48,1,0,100,0,160,376,80,64,0,67,-20,0,0,65,0,976,0,80,32,0,
0,2,59,-56,1,0,100,0,240,376,80,64,0,53,-20,0,0,65,0,976,0,80,32,0,
0,2,56,-56,1,0,100,0,320,376,80,64,0,50,-20,0,0,65,0,976,0,80,32,0,
0,2,48,-56,1,0,100,0,400,376,80,64,0,40,-20,0,0,65,0,976,0,80,32,0,
0,2,8,-56,1,0,100,0,80,376,80,64,0,8,-20,0,0,65,0,976,0,80,32,0,
0,2,0,-56,1,0,100,0,240,376,80,64,0,-8,-20,0,0,65,0,976,0,80,32,0,
0,2,-8,-56,1,0,100,0,320,376,80,64,0,-14,-20,0,0,65,0,976,0,80,32,0,
0,2,-16,-60,0,0,100,0,480,448,80,72,0,-21,-20,0,0,65,0,976,0,80,32,0,
0,2,-16,-60,0,0,100,0,560,448,80,72,0,-21,-20,0,0,65,0,976,0,80,32,0,
0,4,-27,-81,0,0,100,0,576,0,96,88,0,-21,-20,0,0,65,0,976,0,80,32,0,-16,-78,0,0,100,0,0,0,96,88,0,-12,-20,0,0,40,0,976,0,80,32,0,
0,4,-27,-81,0,0,100,0,672,0,96,88,0,-21,-20,0,0,65,0,976,0,80,32,0,-36,-84,0,0,100,0,96,0,96,88,0,-22,-20,0,0,40,0,976,0,80,32,0,
0,4,-27,-81,0,0,100,0,768,0,96,88,0,-21,-20,0,0,65,0,976,0,80,32,0,-49,-85,0,0,100,0,96,88,96,96,0,-29,-20,0,0,65,0,976,0,80,32,0,
0,4,-27,-81,0,0,100,0,864,0,96,88,0,-21,-20,0,0,65,0,976,0,80,32,0,-53,-85,0,0,100,0,96,88,96,96,0,-33,-20,0,0,65,0,976,0,80,32,0,
0,4,-27,-81,0,0,100,0,576,0,96,88,0,-21,-20,0,0,65,0,976,0,80,32,0,-55,-85,0,0,100,0,96,88,96,88,0,-35,-20,0,0,65,0,976,0,80,32,0,
0,4,-27,-81,0,0,100,0,672,0,96,88,0,-21,-20,0,0,65,0,976,0,80,32,0,-57,-85,0,0,100,0,96,88,96,96,0,-37,-20,0,0,65,0,976,0,80,32,0,
0,4,-27,-81,0,0,100,0,768,0,96,88,0,-21,-20,0,0,65,0,976,0,80,32,0,-59,-85,0,0,100,0,192,0,96,88,0,-39,-20,0,0,65,0,976,0,80,32,0,
0,4,-27,-81,0,0,100,0,864,0,96,88,0,-21,-20,0,0,65,0,976,0,80,32,0,-61,-85,0,0,100,0,288,0,96,88,0,-41,-20,0,0,65,0,976,0,80,32,0,
0,4,-27,-81,0,0,100,0,576,0,96,88,0,-21,-20,0,0,65,0,976,0,80,32,0,-63,-85,0,0,100,0,192,0,96,88,0,-43,-20,0,0,65,0,976,0,80,32,0,
0,4,-27,-81,0,0,100,0,672,0,96,88,0,-21,-20,0,0,65,0,976,0,80,32,0,-64,-85,0,0,100,0,288,0,96,88,0,-44,-20,0,0,65,0,976,0,80,32,0,
0,4,-27,-81,0,0,100,0,768,0,96,88,0,-21,-20,0,0,65,0,976,0,80,32,0,-65,-85,0,0,100,0,192,0,96,88,0,-45,-20,0,0,65,0,976,0,80,32,0,
0,4,-27,-81,0,0,100,0,864,0,96,88,0,-21,-20,0,0,65,0,976,0,80,32,0,-66,-85,0,0,100,0,288,0,96,88,0,-46,-20,0,0,65,0,976,0,80,32,0,
0,4,-27,-81,0,0,100,0,576,0,96,88,0,-21,-20,0,0,65,0,976,0,80,32,0,-67,-85,0,0,100,0,192,0,96,88,0,-47,-20,0,0,65,0,976,0,80,32,0,
0,4,-27,-81,0,0,100,0,672,0,96,88,0,-21,-20,0,0,65,0,976,0,80,32,0,-68,-85,0,0,100,0,288,0,96,88,0,-48,-20,0,0,65,0,976,0,80,32,0,
0,4,-27,-81,0,0,100,0,768,0,96,88,0,-21,-20,0,0,65,0,976,0,80,32,0,-69,-85,0,0,100,0,192,0,96,88,0,-49,-20,0,0,65,0,976,0,80,32,0,
0,5,-27,-66,0,1,100,0,480,520,80,64,0,-16,-60,0,0,100,0,880,520,80,72,0,-21,-20,0,0,65,0,976,0,80,32,0,-70,-85,0,0,100,0,288,0,96,88,0,-50,-20,0,0,65,0,976,0,80,32,0,
0,5,-30,-63,0,1,100,0,480,520,80,64,0,-24,-60,0,0,100,0,896,376,80,72,0,-21,-20,0,0,65,0,976,0,80,32,0,-80,-128,0,0,100,0,0,280,96,96,0,-74,-20,0,0,65,0,976,0,80,32,0,
0,5,-30,-62,0,1,100,0,480,584,80,64,0,-24,-60,0,0,100,0,976,376,80,72,0,-21,-20,0,0,65,0,976,0,80,32,0,-96,-161,0,0,100,0,96,280,96,96,0,-88,-20,0,0,65,0,976,0,80,32,0,
0,5,-30,-63,0,1,100,0,480,520,80,64,0,-24,-60,0,0,100,0,896,376,80,72,0,-21,-20,0,0,65,0,976,0,80,32,0,-96,-171,0,0,100,0,192,280,96,96,0,-88,-20,0,0,65,0,976,0,80,32,0,
0,5,-30,-62,0,1,100,0,480,584,80,64,0,-24,-60,0,0,100,0,976,376,80,72,0,-21,-20,0,0,65,0,976,0,80,32,0,-96,-171,0,0,100,0,288,280,96,96,0,-88,-20,0,0,65,0,976,0,80,32,0,
0,5,-30,-63,0,1,100,0,480,520,80,64,0,-24,-60,0,0,100,0,896,376,80,72,0,-21,-20,0,0,65,0,976,0,80,32,0,-96,-173,0,0,100,0,0,280,96,96,0,-88,-20,0,0,65,0,976,0,80,32,0,
0,5,-30,-62,0,1,100,0,480,584,80,64,0,-24,-60,0,0,100,0,976,376,80,72,0,-21,-20,0,0,65,0,976,0,80,32,0,-96,-173,0,0,100,0,96,280,96,96,0,-96,-20,0,0,65,0,976,0,80,32,0,
0,7,-30,-62,0,1,100,0,480,584,80,64,0,-24,-60,0,0,100,0,976,376,80,72,0,-21,-20,0,0,65,0,976,0,80,32,0,-224,-216,0,0,100,0,960,1104,192,176,0,-246,-192,0,0,100,0,0,448,240,200,0,-247,-130,0,0,100,0,0,88,96,96,0,-232,12,0,0,65,0,976,0,80,32,0,
0,6,-30,-63,0,1,100,0,480,520,80,64,0,-24,-60,0,0,100,0,896,376,80,72,0,-21,-20,0,0,65,0,976,0,80,32,0,-246,-192,0,0,100,0,0,1280,192,248,0,-245,-192,0,0,100,0,240,448,240,200,0,-208,-44,0,0,100,0,0,184,96,96,0,
0,6,-30,-63,0,1,100,0,480,520,80,64,0,-24,-60,0,0,100,0,896,376,80,72,0,-21,-20,0,0,65,0,976,0,80,32,0,-246,-192,0,0,100,0,0,1280,192,248,0,-245,-192,0,0,100,0,240,448,240,200,0,-208,-44,0,0,100,0,0,184,96,96,0,
0,6,-30,-62,0,1,100,0,480,584,80,64,0,-24,-60,0,0,100,0,976,376,80,72,0,-21,-20,0,0,65,0,976,0,80,32,0,-246,-192,0,0,100,0,192,1280,192,248,0,-245,-192,0,0,100,0,0,648,240,248,0,-160,-4,0,0,100,90,0,184,96,96,0,
0,6,-30,-62,0,1,100,0,480,584,80,64,0,-24,-60,0,0,100,0,976,376,80,72,0,-21,-20,0,0,65,0,976,0,80,32,0,-246,-192,0,0,100,0,192,1280,192,248,0,-245,-192,0,0,100,0,0,648,240,248,0,-137,-18,0,0,100,90,0,184,96,96,0,
0,6,-30,-63,0,1,100,0,480,520,80,64,0,-24,-60,0,0,100,0,896,376,80,72,0,-21,-20,0,0,65,0,976,0,80,32,0,-246,-192,0,0,100,0,384,1280,192,248,0,-245,-192,0,0,100,0,0,648,240,248,0,-137,-18,0,0,100,90,0,184,96,96,0,
0,7,-30,-63,0,1,100,0,480,520,80,64,0,-24,-60,0,0,100,0,896,376,80,72,0,-21,-20,0,0,65,0,976,0,80,32,0,-246,-192,0,0,100,0,384,1280,192,248,0,-245,-192,0,0,100,0,0,648,240,248,0,-126,-38,0,0,100,180,0,88,96,96,0,-126,60,0,0,65,0,976,0,80,32,0,
0,7,-30,-62,0,1,100,0,480,584,80,64,0,-24,-60,0,0,100,0,976,376,80,72,0,-21,-20,0,0,65,0,976,0,80,32,0,-246,-192,0,0,100,0,576,1280,192,248,0,-245,-192,0,0,100,0,0,648,240,248,0,-126,-38,0,0,100,180,0,88,96,96,0,-126,60,0,0,65,0,976,0,80,32,0,
0,7,-30,-62,0,1,100,0,480,584,80,64,0,-24,-60,0,0,100,0,976,376,80,72,0,-21,-20,0,0,65,0,976,0,80,32,0,-246,-192,0,0,100,0,576,1280,192,248,0,-245,-192,0,0,100,0,0,648,240,248,0,-124,-60,0,0,100,-90,0,184,96,96,0,-126,52,0,0,65,0,976,0,80,32,0,
0,7,-30,-63,0,1,100,0,480,520,80,64,0,-24,-60,0,0,100,0,896,376,80,72,0,-21,-20,0,0,65,0,976,0,80,32,0,-246,-192,0,0,100,0,768,1280,192,248,0,-245,-192,0,0,100,0,0,648,240,248,0,-124,-60,0,0,100,-90,0,176,96,104,0,-126,52,0,0,65,0,976,0,80,32,0,
0,7,-30,-63,0,1,100,0,480,520,80,64,0,-24,-60,0,0,100,0,896,376,80,72,0,-21,-20,0,0,65,0,976,0,80,32,0,-246,-192,0,0,100,0,768,1280,192,248,0,-245,-192,0,0,100,0,0,648,240,248,0,-140,-76,0,0,100,0,96,184,96,96,0,-130,52,0,0,40,0,976,0,80,32,0,
0,7,-30,-62,0,1,100,0,480,584,80,64,0,-24,-60,0,0,100,0,976,376,80,72,0,-21,-20,0,0,65,0,976,0,80,32,0,-246,-192,0,0,100,0,960,1280,192,248,0,-245,-192,0,0,100,0,0,648,240,248,0,-140,-76,0,0,100,0,96,184,96,96,0,-130,52,0,0,40,0,976,0,80,32,0,
0,6,-60,-65,0,1,100,0,560,584,80,64,0,-48,-60,0,0,100,0,0,376,80,72,0,-45,-20,0,0,65,0,976,0,80,32,0,-245,-192,0,0,100,0,0,648,240,248,0,-140,-76,0,0,100,0,192,184,96,96,0,-136,52,0,0,24,0,976,0,80,32,0,
0,6,-84,-65,0,1,100,0,560,584,80,64,0,-72,-60,0,0,100,0,0,376,80,72,0,-71,-20,0,0,65,0,976,0,80,32,0,-245,-192,0,0,100,0,0,648,240,248,0,-140,-76,0,0,100,0,192,184,96,96,0,-136,52,0,0,24,0,976,0,80,32,0,
0,5,-216,-136,0,1,100,0,0,1104,240,176,0,-112,-53,0,1,100,0,728,520,56,72,0,-104,-60,0,0,100,0,640,448,80,72,0,-101,-20,0,0,65,0,976,0,80,32,0,-245,-192,0,0,100,0,0,648,240,248,0,
0,7,-216,-136,0,1,100,0,240,1104,240,176,0,-245,-192,0,0,100,0,240,648,240,248,0,-102,-54,0,1,100,0,784,520,48,48,0,-104,-60,0,0,100,0,720,448,80,72,0,-101,-20,0,0,65,0,976,0,80,32,0,-196,-200,0,0,100,0,0,0,96,88,0,-187,-98,0,0,25,0,976,0,80,32,0,
0,7,-216,-136,0,1,100,0,480,1104,240,176,0,-245,-192,0,0,100,0,480,648,240,248,0,-65,-45,0,1,100,0,560,520,56,64,0,-104,-60,0,0,100,0,800,448,80,72,0,-101,-20,0,0,65,0,976,0,80,32,0,-214,-208,0,0,100,0,96,0,96,88,0,-195,-98,0,0,40,0,976,0,80,32,0,
0,7,-216,-136,0,1,100,0,720,1104,240,176,0,-245,-192,0,0,100,0,720,648,240,248,0,-112,-60,0,1,100,0,640,592,88,56,0,-104,-60,0,0,100,0,880,448,80,72,0,-101,-20,0,0,65,0,976,0,80,32,0,-213,-208,0,0,100,0,0,280,96,96,0,-207,-98,0,0,65,0,976,0,80,32,0,
0,6,-216,-136,0,1,100,0,0,1104,240,176,0,-112,-53,0,1,100,0,728,520,56,72,0,-104,-60,0,0,100,0,640,448,80,72,0,-101,-20,0,0,65,0,976,0,80,32,0,-214,-208,0,0,100,0,96,280,96,96,0,-208,-98,0,0,65,0,976,0,80,32,0,
0,6,-216,-136,0,1,100,0,240,1104,240,176,0,-102,-54,0,1,100,0,784,520,48,48,0,-104,-60,0,0,100,0,720,448,80,72,0,-101,-20,0,0,65,0,976,0,80,32,0,-216,-208,0,0,100,0,192,280,96,96,0,-209,-98,0,0,65,0,976,0,80,32,0,
0,6,-216,-136,0,1,100,0,480,1104,240,176,0,-65,-45,0,1,100,0,560,520,56,64,0,-104,-60,0,0,100,0,800,448,80,72,0,-101,-20,0,0,65,0,976,0,80,32,0,-216,-208,0,0,100,0,288,280,96,96,0,-209,-98,0,0,65,0,976,0,80,32,0,
0,6,-216,-136,0,1,100,0,720,1104,240,176,0,-112,-60,0,1,100,0,640,592,88,56,0,-104,-60,0,0,100,0,880,448,80,72,0,-101,-20,0,0,65,0,976,0,80,32,0,-216,-208,0,0,100,0,0,280,96,96,0,-209,-98,0,0,65,0,976,0,80,32,0,
0,8,-216,-136,0,1,100,0,0,1104,240,176,0,-112,-53,0,1,100,0,728,520,56,72,0,-104,-60,0,0,100,0,640,448,80,72,0,-101,-20,0,0,65,0,976,0,80,32,0,-64,-304,0,0,100,0,960,280,96,96,0,-55,-98,0,0,25,0,976,0,80,32,0,-216,-208,0,0,100,0,96,280,96,96,0,-209,-98,0,0,65,0,976,0,80,32,0,
0,8,-216,-136,0,1,100,0,240,1104,240,176,0,-65,-45,0,1,100,0,560,520,56,64,0,-104,-60,0,0,100,0,800,448,80,72,0,-101,-20,0,0,65,0,976,0,80,32,0,-96,-256,0,0,100,0,960,280,96,96,0,-95,-98,0,0,40,0,976,0,80,32,0,-216,-208,0,0,100,0,192,280,96,96,0,-209,-98,0,0,65,0,976,0,80,32,0,
0,8,-216,-136,0,1,100,0,240,1104,240,176,0,-65,-45,0,1,100,0,560,520,56,64,0,-104,-60,0,0,100,0,800,448,80,72,0,-101,-20,0,0,65,0,976,0,80,32,0,-112,-160,0,0,100,0,480,184,96,96,0,-111,-98,0,0,65,0,976,0,80,32,0,-216,-208,0,0,100,0,192,280,96,96,0,-209,-98,0,0,65,0,976,0,80,32,0,
0,8,-216,-136,0,1,100,0,480,1104,240,176,0,-112,-53,0,1,100,0,728,520,56,72,0,-104,-60,0,0,100,0,640,448,80,72,0,-101,-20,0,0,65,0,976,0,80,32,0,-112,-160,0,0,100,0,480,184,96,96,0,-111,-98,0,0,65,0,976,0,80,32,0,-216,-208,0,0,100,0,288,280,96,96,0,-209,-98,0,0,65,0,976,0,80,32,0,
0,8,-216,-136,0,1,100,0,720,1104,240,176,0,-65,-45,0,1,100,0,560,520,56,64,0,-104,-60,0,0,100,0,800,448,80,72,0,-101,-20,0,0,65,0,976,0,80,32,0,-112,-160,0,0,100,0,576,184,96,96,0,-111,-98,0,0,65,0,976,0,80,32,0,-216,-208,0,0,100,0,0,280,96,96,0,-209,-98,0,0,65,0,976,0,80,32,0,
0,8,-216,-136,0,1,100,0,720,1104,240,176,0,-65,-45,0,1,100,0,560,520,56,64,0,-104,-60,0,0,100,0,800,448,80,72,0,-101,-20,0,0,65,0,976,0,80,32,0,-112,-160,0,0,100,0,576,184,96,96,0,-111,-98,0,0,65,0,976,0,80,32,0,-216,-208,0,0,100,0,0,280,96,96,0,-209,-98,0,0,65,0,976,0,80,32,0,
0,8,-216,-136,0,1,100,0,0,1104,240,176,0,-112,-53,0,1,100,0,728,520,56,72,0,-104,-60,0,0,100,0,640,448,80,72,0,-101,-20,0,0,65,0,976,0,80,32,0,-112,-160,0,0,100,0,672,88,96,96,0,-111,-98,0,0,65,0,976,0,80,32,0,-216,-208,0,0,100,0,96,280,96,96,0,-209,-98,0,0,65,0,976,0,80,32,0,
0,8,-216,-136,0,1,100,0,240,1104,240,176,0,-65,-45,0,1,100,0,560,520,56,64,0,-104,-60,0,0,100,0,800,448,80,72,0,-101,-20,0,0,65,0,976,0,80,32,0,-112,-160,0,0,100,0,672,88,96,96,0,-111,-98,0,0,65,0,976,0,80,32,0,-216,-208,0,0,100,0,192,280,96,96,0,-209,-98,0,0,65,0,976,0,80,32,0,
0,8,-216,-136,0,1,100,0,240,1104,240,176,0,-65,-45,0,1,100,0,560,520,56,64,0,-104,-60,0,0,100,0,800,448,80,72,0,-101,-20,0,0,65,0,976,0,80,32,0,-120,-160,0,0,100,0,864,88,96,96,0,-111,-98,0,0,65,0,976,0,80,32,0,-216,-208,0,0,100,0,192,280,96,96,0,-209,-98,0,0,65,0,976,0,80,32,0,
0,8,-216,-136,0,1,100,0,480,1104,240,176,0,-112,-53,0,1,100,0,728,520,56,72,0,-104,-60,0,0,100,0,640,448,80,72,0,-101,-20,0,0,65,0,976,0,80,32,0,-120,-160,0,0,100,0,960,88,96,96,0,-111,-98,0,0,65,0,976,0,80,32,0,-232,-208,0,0,100,0,96,88,96,96,0,-209,-98,0,0,65,0,976,0,80,32,0,
0,8,-216,-136,0,1,100,0,720,1104,240,176,0,-65,-45,0,1,100,0,560,520,56,64,0,-104,-60,0,0,100,0,800,448,80,72,0,-101,-20,0,0,65,0,976,0,80,32,0,-120,-160,0,0,100,0,864,88,96,96,0,-111,-98,0,0,65,0,976,0,80,32,0,-232,-208,0,0,100,0,96,88,96,96,0,-209,-98,0,0,65,0,976,0,80,32,0,
0,8,-216,-136,0,1,100,0,0,1104,240,176,0,-112,-53,0,1,100,0,728,520,56,72,0,-104,-60,0,0,100,0,640,448,80,72,0,-101,-20,0,0,65,0,976,0,80,32,0,-120,-160,0,0,100,0,1056,88,96,96,0,-111,-98,0,0,65,0,976,0,80,32,0,-232,-208,0,0,100,0,96,88,96,96,0,-209,-98,0,0,65,0,976,0,80,32,0,
0,9,-216,-136,0,1,100,0,240,1104,240,176,0,-65,-45,0,1,100,0,560,520,56,64,0,-104,-60,0,0,100,0,800,448,80,72,0,-101,-20,0,0,65,0,976,0,80,32,0,-191,-246,0,0,100,0,768,280,96,96,0,-239,-246,0,1,100,0,0,896,256,208,0,-175,-98,0,0,65,0,976,0,80,32,0,-248,-224,0,0,100,0,96,0,96,88,0,-249,-98,0,0,40,0,976,0,80,32,0,
0,9,-216,-136,0,1,100,0,480,1104,240,176,0,-112,-53,0,1,100,0,728,520,56,72,0,-104,-60,0,0,100,0,640,448,80,72,0,-101,-20,0,0,65,0,976,0,80,32,0,-192,-248,0,0,100,0,768,280,96,96,0,-240,-248,0,1,100,0,0,896,256,208,0,-175,-98,0,0,65,0,976,0,80,32,0,-264,-240,0,0,100,0,0,0,96,88,0,-257,-98,0,0,25,0,976,0,80,32,0,
0,7,-216,-136,0,1,100,0,720,1104,240,176,0,-65,-45,0,1,100,0,560,520,56,64,0,-104,-60,0,0,100,0,800,448,80,72,0,-101,-20,0,0,65,0,976,0,80,32,0,-192,-249,0,0,100,0,768,280,96,96,0,-240,-249,0,1,100,0,0,896,256,208,0,-175,-98,0,0,65,0,976,0,80,32,0,
0,7,-216,-136,0,1,100,0,0,1104,240,176,0,-112,-53,0,1,100,0,728,520,56,72,0,-104,-60,0,0,100,0,640,448,80,72,0,-101,-20,0,0,65,0,976,0,80,32,0,-192,-250,0,0,100,0,768,280,96,96,0,-240,-250,0,1,100,0,0,896,256,208,0,-175,-98,0,0,65,0,976,0,80,32,0,
0,7,-216,-136,0,1,100,0,240,1104,240,176,0,-65,-45,0,1,100,0,560,520,56,64,0,-104,-60,0,0,100,0,800,448,80,72,0,-101,-20,0,0,65,0,976,0,80,32,0,-200,-248,0,0,100,0,864,280,96,96,0,-248,-280,0,1,100,0,256,896,184,208,0,-182,-98,0,0,65,0,976,0,80,32,0,
0,7,-216,-136,0,1,100,0,480,1104,240,176,0,-112,-53,0,1,100,0,728,520,56,72,0,-104,-60,0,0,100,0,640,448,80,72,0,-101,-20,0,0,65,0,976,0,80,32,0,-199,-249,0,0,100,0,864,280,96,96,0,-263,-289,0,1,100,0,440,896,184,208,0,-182,-98,0,0,65,0,976,0,80,32,0,
0,9,-216,-136,0,1,100,0,720,1104,240,176,0,-66,-45,0,1,100,0,616,520,56,64,0,-104,-60,0,0,100,0,960,520,80,72,0,-101,-20,0,0,65,0,976,0,80,32,0,-56,-160,1,0,100,0,0,0,96,88,0,-41,-70,0,0,40,0,976,0,80,32,0,-198,-250,0,0,100,0,864,280,96,96,0,-246,-282,0,1,100,0,624,896,168,128,0,-182,-98,0,0,65,0,976,0,80,32,0,
0,7,-66,-45,0,1,100,0,616,520,56,64,0,-104,-60,0,0,100,0,960,520,80,72,0,-101,-20,0,0,65,0,976,0,80,32,0,-32,-160,1,0,100,0,96,0,96,88,0,-33,-70,0,0,40,0,976,0,80,32,0,-192,-232,0,0,100,0,960,280,96,96,0,-182,-98,0,0,65,0,976,0,80,32,0,
0,7,-65,-45,0,1,100,0,560,520,56,64,0,-104,-60,0,0,100,0,800,448,80,72,0,-101,-20,0,0,65,0,976,0,80,32,0,-24,-152,0,0,100,0,192,88,96,96,0,-25,-70,0,0,65,0,976,0,80,32,0,-184,-160,0,0,100,0,480,184,96,96,0,-184,-98,0,0,65,0,976,0,80,32,0,
0,8,-248,-136,0,1,100,0,792,896,192,192,0,-213,-53,0,1,100,0,672,520,56,72,0,-204,-60,0,0,100,0,960,448,80,72,0,-197,-20,0,0,65,0,976,0,80,32,0,-20,-166,0,0,100,0,384,280,96,96,0,-20,-70,0,0,65,0,976,0,80,32,0,-184,-160,0,0,100,0,576,184,96,96,0,-184,-98,0,0,65,0,976,0,80,32,0,
0,9,-248,-136,0,1,30,0,792,896,192,192,0,-248,-136,0,1,100,0,984,896,128,192,0,-215,-53,0,1,100,0,728,520,56,72,0,-207,-60,0,0,100,0,640,448,80,72,0,-205,-20,0,0,65,0,976,0,80,32,0,-18,-170,0,0,100,0,480,280,96,96,0,-18,-70,0,0,65,0,976,0,80,32,0,-184,-160,0,0,100,0,672,88,96,96,0,-184,-98,0,0,65,0,976,0,80,32,0,
0,8,-224,-45,1,1,100,0,560,520,56,64,0,-248,-136,0,1,25,0,984,896,128,192,0,-209,-60,1,0,100,0,800,448,80,72,0,-210,-20,0,0,65,0,976,0,80,32,0,-13,-173,0,0,100,0,576,280,96,96,0,-11,-70,0,0,65,0,976,0,80,32,0,-176,-160,1,0,100,0,384,184,96,96,0,-166,-98,0,0,65,0,976,0,80,32,0,
0,7,-203,-63,1,1,100,0,480,520,80,64,0,-209,-60,1,0,100,0,896,376,80,72,0,-211,-20,0,0,65,0,976,0,80,32,0,-5,-183,0,0,100,0,672,280,96,96,0,-4,-70,0,0,65,0,976,0,80,32,0,-176,-160,1,0,100,0,288,88,96,96,0,-161,-98,0,0,65,0,976,0,80,32,0,
0,7,-203,-63,1,1,100,0,480,520,80,64,0,-209,-60,1,0,100,0,896,376,80,72,0,-211,-20,0,0,65,0,976,0,80,32,0,4,-192,0,0,100,0,384,280,96,96,0,4,-70,0,0,65,0,976,0,80,32,0,-176,-160,1,0,100,0,288,88,96,96,0,-161,-98,0,0,65,0,976,0,80,32,0,
0,7,-203,-63,1,1,100,0,480,520,80,64,0,-209,-60,1,0,100,0,896,376,80,72,0,-211,-20,0,0,65,0,976,0,80,32,0,28,-224,1,0,100,0,96,0,96,88,0,28,-70,0,0,40,0,976,0,80,32,0,-176,-160,1,0,100,0,384,88,96,96,0,-161,-98,0,0,65,0,976,0,80,32,0,
0,7,-203,-62,1,1,100,0,480,584,80,64,0,-209,-60,1,0,100,0,976,376,80,72,0,-211,-20,0,0,65,0,976,0,80,32,0,36,-240,1,0,100,0,0,0,96,88,0,50,-70,0,0,25,0,976,0,80,32,0,-176,-160,1,0,100,0,384,88,96,96,0,-161,-98,0,0,65,0,976,0,80,32,0,
0,5,-203,-63,1,1,100,0,480,520,80,64,0,-209,-60,1,0,100,0,896,376,80,72,0,-211,-20,0,0,65,0,976,0,80,32,0,-176,-160,1,0,100,0,480,88,96,96,0,-161,-98,0,0,65,0,976,0,80,32,0,
0,5,-203,-62,1,1,100,0,480,584,80,64,0,-209,-60,1,0,100,0,976,376,80,72,0,-211,-20,0,0,65,0,976,0,80,32,0,-176,-160,1,0,100,0,480,88,96,96,0,-161,-98,0,0,65,0,976,0,80,32,0,
0,5,-203,-63,1,1,100,0,480,520,80,64,0,-209,-60,1,0,100,0,896,376,80,72,0,-211,-20,0,0,65,0,976,0,80,32,0,-176,-160,1,0,100,0,576,88,96,96,0,-161,-98,0,0,65,0,976,0,80,32,0,
0,5,-203,-62,1,1,100,0,480,584,80,64,0,-209,-60,1,0,100,0,976,376,80,72,0,-211,-20,0,0,65,0,976,0,80,32,0,-176,-160,1,0,100,0,576,88,96,96,0,-161,-98,0,0,65,0,976,0,80,32,0,
0,5,-203,-63,1,1,100,0,480,520,80,64,0,-209,-60,1,0,100,0,896,376,80,72,0,-211,-20,0,0,65,0,976,0,80,32,0,-176,-160,1,0,100,0,288,88,96,96,0,-161,-98,0,0,65,0,976,0,80,32,0,
0,4,-185,-60,0,0,100,0,480,376,80,64,0,-187,-20,0,0,65,0,976,0,80,32,0,-153,-160,1,0,100,0,672,184,96,96,0,-147,-98,0,0,65,0,976,0,80,32,0,
0,4,-161,-60,0,0,100,0,560,376,88,64,0,-155,-20,0,0,65,0,976,0,80,32,0,-136,-160,1,0,100,0,768,184,96,96,0,-129,-98,0,0,65,0,976,0,80,32,0,
0,4,-129,-60,0,0,100,0,648,376,88,64,0,-121,-20,0,0,65,0,976,0,80,32,0,-96,-160,1,0,100,0,864,184,96,96,0,-89,-98,0,0,65,0,976,0,80,32,0,
0,4,-121,-60,0,0,100,0,736,376,80,64,0,-112,-20,0,0,65,0,976,0,80,32,0,-56,-160,1,0,100,0,960,184,96,96,0,-49,-98,0,0,65,0,976,0,80,32,0,
0,4,-113,-60,0,0,100,0,816,376,80,64,0,-96,-20,0,0,65,0,976,0,80,32,0,-32,-160,1,0,100,0,672,184,96,96,0,-25,-98,0,0,65,0,976,0,80,32,0,
0,4,-57,-60,0,0,100,0,480,376,80,64,0,-56,-20,0,0,65,0,976,0,80,32,0,-8,-160,1,0,100,0,768,184,96,96,0,-1,-98,0,0,65,0,976,0,80,32,0,
0,4,-25,-60,0,0,100,0,560,376,88,64,0,-16,-20,0,0,65,0,976,0,80,32,0,24,-160,1,0,100,0,864,184,96,96,0,31,-98,0,0,65,0,976,0,80,32,0,
0,4,15,-60,0,0,100,0,648,376,88,64,0,24,-20,0,0,65,0,976,0,80,32,0,56,-160,1,0,100,0,960,184,96,96,0,63,-98,0,0,65,0,976,0,80,32,0,
0,4,31,-60,0,0,100,0,736,376,80,64,0,40,-20,0,0,65,0,976,0,80,32,0,88,-160,1,0,100,0,672,184,96,96,0,95,-98,0,0,65,0,976,0,80,32,0,
0,4,39,-60,0,0,100,0,816,376,80,64,0,56,-20,0,0,65,0,976,0,80,32,0,120,-160,1,0,100,0,768,184,96,96,0,127,-98,0,0,65,0,976,0,80,32,0,
0,2,95,-60,0,0,100,0,480,376,80,64,0,96,-20,0,0,65,0,976,0,80,32,0,
0,0,
0,2,-16,-60,0,0,100,0,960,592,80,72,0,-21,-20,0,0,65,0,976,0,80,32,0,
0,2,-16,-60,0,0,100,0,960,664,80,72,0,-21,-20,0,0,65,0,976,0,80,32,0,
0,2,-16,-60,0,0,100,0,1040,664,80,72,0,-21,-20,0,0,65,0,976,0,80,32,0,
0,2,-16,-60,0,0,100,0,960,664,80,72,0,-21,-20,0,0,65,0,976,0,80,32,0,
0,2,-16,-60,0,0,100,0,960,592,80,72,0,-21,-20,0,0,65,0,976,0,80,32,0,
0,2,-16,-60,0,0,100,0,1040,592,80,72,0,-21,-20,0,0,65,0,976,0,80,32,0,
0,1,0,0,0,0,100,0,576,0,96,88,0,
0,1,0,0,0,0,100,0,672,0,96,88,0,
0,1,0,0,0,0,100,0,768,0,96,88,0,
0,1,0,0,0,0,100,0,864,0,96,88,0,
