0,28,-1,-18,0,0,100,0,944,48,16,16,0,1,-51,1,0,100,0,960,32,64,64,0,-12,-47,0,0,100,0,576,0,32,32,0,-28,-37,0,0,100,0,512,32,56,48,0,-39,-88,0,1,100,0,512,256,128,128,0,-2,-58,0,0,100,0,888,0,48,72,0,-11,-31,1,0,100,0,640,0,16,16,0,-40,-16,0,0,100,0,944,0,80,32,0,37,-74,0,0,100,0,398,80,11,11,0,70,-66,0,0,100,0,378,69,11,10,0,46,-61,0,0,100,0,398,69,11,10,0,79,-64,0,0,100,0,398,80,11,11,0,65,-98,0,0,100,0,1,34,32,21,0,33,-101,0,0,100,0,1,57,25,20,0,50,-85,0,0,100,0,172,144,12,11,0,47,-99,0,0,100,0,191,79,34,25,0,45,-84,0,0,100,0,45,145,28,34,0,53,-87,0,0,100,0,142,57,18,18,0,46,-76,0,0,100,0,161,31,35,28,0,54,-65,0,0,100,0,138,33,14,17,0,48,-62,0,0,100,0,161,61,33,14,0,29,-75,0,0,100,0,45,1,27,31,0,43,-84,0,0,100,0,165,145,18,34,0,59,-87,0,1,100,0,362,1,27,24,0,59,-87,0,0,100,0,362,1,27,24,0,46,-97,0,0,100,0,310,26,54,48,0,50,-77,0,0,100,0,896,112,64,40,0,48,-54,0,0,100,0,0,0,43,19,0,
0,28,-1,-18,0,0,100,0,944,48,16,16,0,1,-51,1,0,100,0,960,32,64,64,0,-12,-47,0,0,100,0,576,0,32,32,0,-28,-37,0,0,100,0,512,32,56,48,0,-39,-88,0,1,100,0,640,256,128,128,0,-2,-58,0,0,100,0,888,0,48,72,0,-11,-31,1,0,100,0,640,0,16,16,0,-40,-16,0,0,100,0,944,0,80,32,0,37,-79,0,0,100,0,398,70,11,10,0,69,-73,0,0,100,0,377,79,13,13,0,46,-70,0,0,100,0,398,80,11,11,0,79,-69,0,0,100,0,398,70,11,10,0,65,-98,0,0,100,0,35,34,32,21,0,33,-101,0,0,100,0,28,57,25,20,0,50,-85,0,0,100,0,172,144,12,11,0,47,-99,0,0,100,0,227,79,34,25,0,45,-84,0,0,100,0,75,145,28,34,0,53,-87,0,0,100,0,142,57,18,18,0,46,-76,0,0,100,0,198,31,35,28,0,54,-65,0,0,100,0,138,33,14,17,0,48,-62,0,0,100,0,196,61,33,14,0,29,-75,0,0,100,0,74,1,27,31,0,43,-84,0,0,100,0,185,145,18,34,0,59,-87,0,1,60,0,362,1,27,24,0,59,-87,0,0,100,0,362,1,27,24,0,46,-97,0,0,100,0,310,26,54,48,0,50,-77,0,0,100,0,960,112,64,40,0,48,-54,0,0,100,0,0,0,43,19,0,
0,29,2,-19,0,0,100,0,944,48,16,16,0,4,-52,1,0,100,0,960,32,64,64,0,-10,-47,0,0,100,0,544,0,32,32,0,-28,-37,0,0,100,0,568,32,56,48,0,-40,-89,0,1,100,0,768,256,128,128,0,-3,-59,0,0,100,0,888,0,48,72,0,-9,-31,1,0,100,0,656,0,16,16,0,-40,-16,0,0,100,0,944,0,80,32,0,38,-81,0,0,100,0,399,60,10,9,0,75,-80,0,0,100,0,399,61,10,8,0,70,-76,0,0,100,0,378,69,11,11,0,46,-77,0,0,100,0,398,69,11,10,0,80,-71,0,0,100,0,399,60,10,9,0,65,-98,0,0,100,0,69,34,32,21,0,33,-101,0,0,100,0,55,57,25,20,0,50,-85,0,0,100,0,172,144,12,11,0,47,-99,0,0,100,0,263,79,34,25,0,45,-84,0,0,100,0,105,145,28,34,0,53,-87,0,0,100,0,142,57,18,18,0,46,-76,0,0,100,0,235,31,35,28,0,54,-65,0,0,100,0,138,33,14,17,0,48,-62,0,0,100,0,231,61,33,14,0,29,-75,0,0,100,0,103,1,27,31,0,43,-84,0,0,100,0,205,145,18,34,0,59,-87,0,1,30,0,362,1,27,24,0,59,-87,0,0,100,0,362,1,27,24,0,46,-97,0,0,100,0,310,26,54,48,0,50,-77,0,0,100,0,896,152,64,40,0,48,-54,0,0,100,0,0,0,43,19,0,
0,30,2,-19,0,0,100,0,944,48,16,16,0,4,-52,1,0,100,0,960,32,64,64,0,-10,-47,0,0,100,0,544,0,32,32,0,-28,-37,0,0,100,0,568,32,56,48,0,-40,-89,0,1,100,0,896,256,128,128,0,-3,-59,0,0,100,0,888,0,48,72,0,-9,-31,1,0,100,0,656,0,16,16,0,-40,-16,0,0,100,0,944,0,80,32,0,39,-83,0,0,100,0,400,53,8,8,0,74,-87,0,0,100,0,398,69,11,11,0,72,-77,0,0,100,0,380,61,7,8,0,46,-80,0,0,100,0,398,60,11,9,0,81,-73,0,0,100,0,400,53,8,8,0,87,-73,0,0,100,0,378,70,11,10,0,65,-98,0,0,100,0,103,34,32,21,0,33,-101,0,0,100,0,82,57,25,20,0,50,-85,0,0,100,0,172,144,12,11,0,47,-99,0,0,100,0,299,79,34,25,0,45,-84,0,0,100,0,135,145,28,34,0,53,-87,0,0,100,0,142,57,18,18,0,46,-76,0,0,100,0,272,31,35,28,0,54,-65,0,0,100,0,138,33,14,17,0,48,-62,0,0,100,0,266,61,33,14,0,29,-75,0,0,100,0,132,1,27,31,0,43,-84,0,0,100,0,225,145,18,34,0,59,-87,0,1,60,0,362,1,27,24,0,59,-87,0,0,100,0,362,1,27,24,0,46,-97,0,0,100,0,310,26,54,48,0,50,-77,0,0,100,0,960,152,64,40,0,48,-54,0,0,100,0,0,0,43,19,0,
0,29,8,-20,0,0,100,0,944,32,16,16,0,9,-54,1,0,100,0,960,32,64,64,0,-8,-46,0,0,100,0,544,0,32,32,0,-28,-37,0,0,100,0,624,32,56,48,0,-41,-89,0,1,100,0,1024,256,128,128,0,-4,-59,0,0,100,0,888,0,48,72,0,-6,-32,1,0,100,0,672,0,16,16,0,-40,-16,0,0,100,0,944,0,80,32,0,49,-68,0,0,100,0,378,59,13,10,0,75,-89,0,0,100,0,399,61,10,8,0,71,-81,0,0,100,0,379,52,9,9,0,49,-81,0,0,100,0,401,54,7,6,0,87,-81,0,0,100,0,378,79,12,13,0,65,-98,0,0,100,0,1,34,32,21,0,33,-101,0,0,100,0,1,57,25,20,0,50,-85,0,0,100,0,172,144,12,11,0,47,-99,0,0,100,0,191,79,34,25,0,45,-84,0,0,100,0,45,145,28,34,0,53,-87,0,0,100,0,142,57,18,18,0,46,-76,0,0,100,0,161,31,35,28,0,54,-65,0,0,100,0,138,33,14,17,0,48,-62,0,0,100,0,161,61,33,14,0,29,-75,0,0,100,0,45,1,27,31,0,43,-84,0,0,100,0,165,145,18,34,0,59,-87,0,1,100,0,362,1,27,24,0,59,-87,0,0,100,0,362,1,27,24,0,46,-97,0,0,100,0,310,26,54,48,0,50,-77,0,0,100,0,896,112,64,40,0,48,-54,0,0,100,0,0,0,43,19,0,
0,27,8,-20,0,0,100,0,944,32,16,16,0,9,-54,1,0,100,0,960,32,64,64,0,-8,-46,0,0,100,0,576,0,32,32,0,-28,-37,0,0,100,0,624,32,56,48,0,-41,-89,0,1,100,0,1152,256,128,128,0,-4,-59,0,0,100,0,888,0,48,72,0,-6,-32,1,0,100,0,672,0,16,16,0,-40,-16,0,0,100,0,944,0,80,32,0,47,-73,0,0,100,0,376,69,15,12,0,75,-92,0,0,100,0,399,53,10,9,0,87,-84,0,0,100,0,378,69,11,10,0,65,-98,0,0,100,0,35,34,32,21,0,33,-101,0,0,100,0,28,57,25,20,0,50,-85,0,0,100,0,172,144,12,11,0,47,-99,0,0,100,0,227,79,34,25,0,45,-84,0,0,100,0,75,145,28,34,0,53,-87,0,0,100,0,142,57,18,18,0,46,-76,0,0,100,0,198,31,35,28,0,54,-65,0,0,100,0,138,33,14,17,0,48,-62,0,0,100,0,196,61,33,14,0,29,-75,0,0,100,0,74,1,27,31,0,43,-84,0,0,100,0,185,145,18,34,0,59,-87,0,1,60,0,362,1,27,24,0,59,-87,0,0,100,0,362,1,27,24,0,46,-97,0,0,100,0,310,26,54,48,0,50,-77,0,0,100,0,960,112,64,40,0,48,-54,0,0,100,0,0,0,43,19,0,
0,26,8,-20,0,0,100,0,944,32,16,16,0,9,-54,1,0,100,0,960,32,64,64,0,-8,-46,0,0,100,0,608,0,32,32,0,-28,-37,0,0,100,0,624,32,56,48,0,-41,-89,0,1,100,0,1280,256,128,128,0,-4,-59,0,0,100,0,888,0,48,72,0,-6,-32,1,0,100,0,672,0,16,16,0,-40,-16,0,0,100,0,944,0,80,32,0,49,-77,0,0,100,0,378,59,13,10,0,88,-85,0,0,100,0,379,60,9,9,0,65,-98,0,0,100,0,69,34,32,21,0,33,-101,0,0,100,0,55,57,25,20,0,50,-85,0,0,100,0,172,144,12,11,0,47,-99,0,0,100,0,263,79,34,25,0,45,-84,0,0,100,0,105,145,28,34,0,53,-87,0,0,100,0,142,57,18,18,0,46,-76,0,0,100,0,235,31,35,28,0,54,-65,0,0,100,0,138,33,14,17,0,48,-62,0,0,100,0,231,61,33,14,0,29,-75,0,0,100,0,103,1,27,31,0,43,-84,0,0,100,0,205,145,18,34,0,59,-87,0,1,30,0,362,1,27,24,0,59,-87,0,0,100,0,362,1,27,24,0,46,-97,0,0,100,0,310,26,54,48,0,50,-77,0,0,100,0,896,152,64,40,0,48,-54,0,0,100,0,0,0,43,19,0,
0,28,8,-20,0,0,100,0,944,32,16,16,0,9,-54,1,0,100,0,960,32,64,64,0,-8,-46,0,0,100,0,512,0,32,32,0,-28,-37,0,0,100,0,624,32,56,48,0,-41,-89,0,1,100,0,1408,256,128,128,0,-4,-59,0,0,100,0,888,0,48,72,0,-6,-32,1,0,100,0,672,0,16,16,0,-40,-16,0,0,100,0,944,0,80,32,0,37,-66,0,0,100,0,398,60,11,8,0,51,-79,0,0,100,0,380,53,8,8,0,79,-56,0,0,100,0,398,60,11,8,0,65,-98,0,0,100,0,103,34,32,21,0,33,-101,0,0,100,0,82,57,25,20,0,50,-85,0,0,100,0,172,144,12,11,0,47,-99,0,0,100,0,299,79,34,25,0,45,-84,0,0,100,0,135,145,28,34,0,53,-87,0,0,100,0,142,57,18,18,0,46,-76,0,0,100,0,272,31,35,28,0,54,-65,0,0,100,0,138,33,14,17,0,48,-62,0,0,100,0,266,61,33,14,0,29,-75,0,0,100,0,132,1,27,31,0,43,-84,0,0,100,0,225,145,18,34,0,62,-103,0,0,100,0,487,268,7,7,0,59,-87,0,1,60,0,362,1,27,24,0,59,-87,0,0,100,0,362,1,27,24,0,46,-97,0,0,100,0,310,26,54,48,0,50,-77,0,0,100,0,960,152,64,40,0,48,-54,0,0,100,0,0,0,43,19,0,
0,28,8,-20,0,0,100,0,944,32,16,16,0,9,-54,1,0,100,0,960,32,64,64,0,-8,-46,0,0,100,0,544,0,32,32,0,-28,-37,0,0,100,0,624,32,56,48,0,-41,-89,0,1,100,0,1536,256,128,128,0,-4,-59,0,0,100,0,888,0,48,72,0,-6,-32,1,0,100,0,672,0,16,16,0,-40,-16,0,0,100,0,944,0,80,32,0,37,-74,0,0,100,0,398,80,11,11,0,70,-66,0,0,100,0,378,69,11,10,0,46,-61,0,0,100,0,398,69,11,10,0,79,-64,0,0,100,0,398,80,11,11,0,65,-98,0,0,100,0,1,34,32,21,0,33,-101,0,0,100,0,1,57,25,20,0,50,-85,0,0,100,0,172,144,12,11,0,47,-99,0,0,100,0,191,79,34,25,0,45,-84,0,0,100,0,45,145,28,34,0,53,-87,0,0,100,0,142,57,18,18,0,46,-76,0,0,100,0,161,31,35,28,0,54,-65,0,0,100,0,138,33,14,17,0,48,-62,0,0,100,0,161,61,33,14,0,29,-75,0,0,100,0,45,1,27,31,0,43,-84,0,0,100,0,165,145,18,34,0,59,-87,0,1,100,0,362,1,27,24,0,59,-87,0,0,100,0,362,1,27,24,0,46,-97,0,0,100,0,310,26,54,48,0,50,-77,0,0,100,0,896,112,64,40,0,48,-54,0,0,100,0,0,0,43,19,0,
0,28,8,-20,0,0,100,0,944,32,16,16,0,9,-54,1,0,100,0,960,32,64,64,0,-8,-46,0,0,100,0,576,0,32,32,0,-28,-37,0,0,100,0,624,32,56,48,0,-41,-89,0,1,100,0,1664,256,128,128,0,-4,-59,0,0,100,0,888,0,48,72,0,-6,-32,1,0,100,0,672,0,16,16,0,-40,-16,0,0,100,0,944,0,80,32,0,37,-79,0,0,100,0,398,70,11,10,0,69,-73,0,0,100,0,377,79,13,13,0,46,-70,0,0,100,0,398,80,11,11,0,79,-69,0,0,100,0,398,70,11,10,0,65,-98,0,0,100,0,35,34,32,21,0,33,-101,0,0,100,0,28,57,25,20,0,50,-85,0,0,100,0,172,144,12,11,0,47,-99,0,0,100,0,227,79,34,25,0,45,-84,0,0,100,0,75,145,28,34,0,53,-87,0,0,100,0,142,57,18,18,0,46,-76,0,0,100,0,198,31,35,28,0,54,-65,0,0,100,0,138,33,14,17,0,48,-62,0,0,100,0,196,61,33,14,0,29,-75,0,0,100,0,74,1,27,31,0,43,-84,0,0,100,0,185,145,18,34,0,59,-87,0,1,60,0,362,1,27,24,0,59,-87,0,0,100,0,362,1,27,24,0,46,-97,0,0,100,0,310,26,54,48,0,50,-77,0,0,100,0,960,112,64,40,0,48,-54,0,0,100,0,0,0,43,19,0,
0,29,8,-20,0,0,100,0,944,32,16,16,0,9,-54,1,0,100,0,960,32,64,64,0,-8,-46,0,0,100,0,608,0,32,32,0,-28,-37,0,0,100,0,624,32,56,48,0,-41,-89,0,1,100,0,512,384,128,128,0,-4,-59,0,0,100,0,888,0,48,72,0,-6,-32,1,0,100,0,672,0,16,16,0,-40,-16,0,0,100,0,944,0,80,32,0,38,-81,0,0,100,0,399,60,10,9,0,75,-80,0,0,100,0,399,61,10,8,0,70,-76,0,0,100,0,378,69,11,11,0,46,-77,0,0,100,0,398,69,11,10,0,80,-71,0,0,100,0,399,60,10,9,0,65,-98,0,0,100,0,69,34,32,21,0,33,-101,0,0,100,0,55,57,25,20,0,50,-85,0,0,100,0,172,144,12,11,0,47,-99,0,0,100,0,263,79,34,25,0,45,-84,0,0,100,0,105,145,28,34,0,53,-87,0,0,100,0,142,57,18,18,0,46,-76,0,0,100,0,235,31,35,28,0,54,-65,0,0,100,0,138,33,14,17,0,48,-62,0,0,100,0,231,61,33,14,0,29,-75,0,0,100,0,103,1,27,31,0,43,-84,0,0,100,0,205,145,18,34,0,59,-87,0,1,30,0,362,1,27,24,0,59,-87,0,0,100,0,362,1,27,24,0,46,-97,0,0,100,0,310,26,54,48,0,50,-77,0,0,100,0,896,152,64,40,0,48,-54,0,0,100,0,0,0,43,19,0,
0,30,8,-20,0,0,100,0,944,32,16,16,0,9,-54,1,0,100,0,960,32,64,64,0,-8,-46,0,0,100,0,512,0,32,32,0,-28,-37,0,0,100,0,624,32,56,48,0,-41,-89,0,1,100,0,640,384,128,128,0,-4,-59,0,0,100,0,888,0,48,72,0,-6,-32,1,0,100,0,672,0,16,16,0,-40,-16,0,0,100,0,944,0,80,32,0,39,-83,0,0,100,0,400,53,8,8,0,74,-87,0,0,100,0,398,69,11,11,0,72,-77,0,0,100,0,380,61,7,8,0,46,-80,0,0,100,0,398,60,11,9,0,81,-73,0,0,100,0,400,53,8,8,0,87,-73,0,0,100,0,378,70,11,10,0,65,-98,0,0,100,0,103,34,32,21,0,33,-101,0,0,100,0,82,57,25,20,0,50,-85,0,0,100,0,172,144,12,11,0,47,-99,0,0,100,0,299,79,34,25,0,45,-84,0,0,100,0,135,145,28,34,0,53,-87,0,0,100,0,142,57,18,18,0,46,-76,0,0,100,0,272,31,35,28,0,54,-65,0,0,100,0,138,33,14,17,0,48,-62,0,0,100,0,266,61,33,14,0,29,-75,0,0,100,0,132,1,27,31,0,43,-84,0,0,100,0,225,145,18,34,0,59,-87,0,1,60,0,362,1,27,24,0,59,-87,0,0,100,0,362,1,27,24,0,46,-97,0,0,100,0,310,26,54,48,0,50,-77,0,0,100,0,960,152,64,40,0,48,-54,0,0,100,0,0,0,43,19,0,
0,29,8,-20,0,0,100,0,944,32,16,16,0,9,-54,1,0,100,0,960,32,64,64,0,-8,-46,0,0,100,0,544,0,32,32,0,-28,-37,0,0,100,0,624,32,56,48,0,-41,-89,0,1,100,0,768,384,128,128,0,-4,-59,0,0,100,0,888,0,48,72,0,-6,-32,1,0,100,0,672,0,16,16,0,-40,-16,0,0,100,0,944,0,80,32,0,49,-68,0,0,100,0,378,59,13,10,0,75,-89,0,0,100,0,399,61,10,8,0,71,-81,0,0,100,0,379,52,9,9,0,49,-81,0,0,100,0,401,54,7,6,0,87,-81,0,0,100,0,378,79,12,13,0,65,-98,0,0,100,0,1,34,32,21,0,33,-101,0,0,100,0,1,57,25,20,0,50,-85,0,0,100,0,172,144,12,11,0,47,-99,0,0,100,0,191,79,34,25,0,45,-84,0,0,100,0,45,145,28,34,0,53,-87,0,0,100,0,142,57,18,18,0,46,-76,0,0,100,0,161,31,35,28,0,54,-65,0,0,100,0,138,33,14,17,0,48,-62,0,0,100,0,161,61,33,14,0,29,-75,0,0,100,0,45,1,27,31,0,43,-84,0,0,100,0,165,145,18,34,0,59,-87,0,1,100,0,362,1,27,24,0,59,-87,0,0,100,0,362,1,27,24,0,46,-97,0,0,100,0,310,26,54,48,0,50,-77,0,0,100,0,896,112,64,40,0,48,-54,0,0,100,0,0,0,43,19,0,
0,27,8,-20,0,0,100,0,944,32,16,16,0,9,-54,1,0,100,0,960,32,64,64,0,-8,-46,0,0,100,0,576,0,32,32,0,-28,-37,0,0,100,0,624,32,56,48,0,-41,-89,0,1,100,0,896,384,128,128,0,-4,-59,0,0,100,0,888,0,48,72,0,-6,-32,1,0,100,0,672,0,16,16,0,-40,-16,0,0,100,0,944,0,80,32,0,47,-73,0,0,100,0,376,69,15,12,0,75,-92,0,0,100,0,399,53,10,9,0,87,-84,0,0,100,0,378,69,11,10,0,65,-98,0,0,100,0,35,34,32,21,0,33,-101,0,0,100,0,28,57,25,20,0,50,-85,0,0,100,0,172,144,12,11,0,47,-99,0,0,100,0,227,79,34,25,0,45,-84,0,0,100,0,75,145,28,34,0,53,-87,0,0,100,0,142,57,18,18,0,46,-76,0,0,100,0,198,31,35,28,0,54,-65,0,0,100,0,138,33,14,17,0,48,-62,0,0,100,0,196,61,33,14,0,29,-75,0,0,100,0,74,1,27,31,0,43,-84,0,0,100,0,185,145,18,34,0,59,-87,0,1,60,0,362,1,27,24,0,59,-87,0,0,100,0,362,1,27,24,0,46,-97,0,0,100,0,310,26,54,48,0,50,-77,0,0,100,0,960,112,64,40,0,48,-54,0,0,100,0,0,0,43,19,0,
0,26,8,-20,0,0,100,0,944,32,16,16,0,9,-54,1,0,100,0,960,32,64,64,0,-8,-46,0,0,100,0,608,0,32,32,0,-28,-37,0,0,100,0,624,32,56,48,0,-41,-89,0,1,100,0,1024,384,128,128,0,-4,-59,0,0,100,0,888,0,48,72,0,-6,-32,1,0,100,0,672,0,16,16,0,-40,-16,0,0,100,0,944,0,80,32,0,49,-77,0,0,100,0,378,59,13,10,0,88,-85,0,0,100,0,379,60,9,9,0,65,-98,0,0,100,0,69,34,32,21,0,33,-101,0,0,100,0,55,57,25,20,0,50,-85,0,0,100,0,172,144,12,11,0,47,-99,0,0,100,0,263,79,34,25,0,45,-84,0,0,100,0,105,145,28,34,0,53,-87,0,0,100,0,142,57,18,18,0,46,-76,0,0,100,0,235,31,35,28,0,54,-65,0,0,100,0,138,33,14,17,0,48,-62,0,0,100,0,231,61,33,14,0,29,-75,0,0,100,0,103,1,27,31,0,43,-84,0,0,100,0,205,145,18,34,0,59,-87,0,1,30,0,362,1,27,24,0,59,-87,0,0,100,0,362,1,27,24,0,46,-97,0,0,100,0,310,26,54,48,0,50,-77,0,0,100,0,896,152,64,40,0,48,-54,0,0,100,0,0,0,43,19,0,
0,28,8,-20,0,0,100,0,944,32,16,16,0,9,-54,1,0,100,0,960,32,64,64,0,-8,-46,0,0,100,0,512,0,32,32,0,-28,-37,0,0,100,0,624,32,56,48,0,-41,-89,0,1,100,0,1152,384,128,128,0,-4,-59,0,0,100,0,888,0,48,72,0,-6,-32,1,0,100,0,672,0,16,16,0,-40,-16,0,0,100,0,944,0,80,32,0,37,-66,0,0,100,0,398,60,11,8,0,51,-79,0,0,100,0,380,53,8,8,0,79,-56,0,0,100,0,398,60,11,8,0,65,-98,0,0,100,0,103,34,32,21,0,33,-101,0,0,100,0,82,57,25,20,0,50,-85,0,0,100,0,172,144,12,11,0,47,-99,0,0,100,0,299,79,34,25,0,45,-84,0,0,100,0,135,145,28,34,0,53,-87,0,0,100,0,142,57,18,18,0,46,-76,0,0,100,0,272,31,35,28,0,54,-65,0,0,100,0,138,33,14,17,0,48,-62,0,0,100,0,266,61,33,14,0,29,-75,0,0,100,0,132,1,27,31,0,43,-84,0,0,100,0,225,145,18,34,0,62,-103,0,0,100,0,487,268,7,7,0,59,-87,0,1,60,0,362,1,27,24,0,59,-87,0,0,100,0,362,1,27,24,0,46,-97,0,0,100,0,310,26,54,48,0,50,-77,0,0,100,0,960,152,64,40,0,48,-54,0,0,100,0,0,0,43,19,0,
0,28,8,-20,0,0,100,0,944,32,16,16,0,9,-54,1,0,100,0,960,32,64,64,0,-8,-46,0,0,100,0,544,0,32,32,0,-28,-37,0,0,100,0,624,32,56,48,0,-41,-89,0,1,100,0,1280,384,128,128,0,-4,-59,0,0,100,0,888,0,48,72,0,-6,-32,1,0,100,0,672,0,16,16,0,-40,-16,0,0,100,0,944,0,80,32,0,37,-74,0,0,100,0,398,80,11,11,0,70,-66,0,0,100,0,378,69,11,10,0,46,-61,0,0,100,0,398,69,11,10,0,79,-64,0,0,100,0,398,80,11,11,0,65,-98,0,0,100,0,1,34,32,21,0,33,-101,0,0,100,0,1,57,25,20,0,50,-85,0,0,100,0,172,144,12,11,0,47,-99,0,0,100,0,191,79,34,25,0,45,-84,0,0,100,0,45,145,28,34,0,53,-87,0,0,100,0,142,57,18,18,0,46,-76,0,0,100,0,161,31,35,28,0,54,-65,0,0,100,0,138,33,14,17,0,48,-62,0,0,100,0,161,61,33,14,0,29,-75,0,0,100,0,45,1,27,31,0,43,-84,0,0,100,0,165,145,18,34,0,59,-87,0,1,100,0,362,1,27,24,0,59,-87,0,0,100,0,362,1,27,24,0,46,-97,0,0,100,0,310,26,54,48,0,50,-77,0,0,100,0,896,112,64,40,0,48,-54,0,0,100,0,0,0,43,19,0,
0,28,8,-20,0,0,100,0,944,32,16,16,0,9,-54,1,0,100,0,960,32,64,64,0,-8,-46,0,0,100,0,576,0,32,32,0,-28,-37,0,0,100,0,624,32,56,48,0,-41,-89,0,1,100,0,1408,384,128,128,0,-4,-59,0,0,100,0,888,0,48,72,0,-6,-32,1,0,100,0,672,0,16,16,0,-40,-16,0,0,100,0,944,0,80,32,0,37,-79,0,0,100,0,398,70,11,10,0,69,-73,0,0,100,0,377,79,13,13,0,46,-70,0,0,100,0,398,80,11,11,0,79,-69,0,0,100,0,398,70,11,10,0,65,-98,0,0,100,0,35,34,32,21,0,33,-101,0,0,100,0,28,57,25,20,0,50,-85,0,0,100,0,172,144,12,11,0,47,-99,0,0,100,0,227,79,34,25,0,45,-84,0,0,100,0,75,145,28,34,0,53,-87,0,0,100,0,142,57,18,18,0,46,-76,0,0,100,0,198,31,35,28,0,54,-65,0,0,100,0,138,33,14,17,0,48,-62,0,0,100,0,196,61,33,14,0,29,-75,0,0,100,0,74,1,27,31,0,43,-84,0,0,100,0,185,145,18,34,0,59,-87,0,1,60,0,362,1,27,24,0,59,-87,0,0,100,0,362,1,27,24,0,46,-97,0,0,100,0,310,26,54,48,0,50,-77,0,0,100,0,960,112,64,40,0,48,-54,0,0,100,0,0,0,43,19,0,
0,29,8,-20,0,0,100,0,944,32,16,16,0,9,-54,1,0,100,0,960,32,64,64,0,-8,-46,0,0,100,0,608,0,32,32,0,-28,-37,0,0,100,0,624,32,56,48,0,-41,-89,0,1,100,0,1536,384,128,128,0,-4,-59,0,0,100,0,888,0,48,72,0,-6,-32,1,0,100,0,672,0,16,16,0,-40,-16,0,0,100,0,944,0,80,32,0,38,-81,0,0,100,0,399,60,10,9,0,75,-80,0,0,100,0,399,61,10,8,0,70,-76,0,0,100,0,378,69,11,11,0,46,-77,0,0,100,0,398,69,11,10,0,80,-71,0,0,100,0,399,60,10,9,0,65,-98,0,0,100,0,69,34,32,21,0,33,-101,0,0,100,0,55,57,25,20,0,50,-85,0,0,100,0,172,144,12,11,0,47,-99,0,0,100,0,263,79,34,25,0,45,-84,0,0,100,0,105,145,28,34,0,53,-87,0,0,100,0,142,57,18,18,0,46,-76,0,0,100,0,235,31,35,28,0,54,-65,0,0,100,0,138,33,14,17,0,48,-62,0,0,100,0,231,61,33,14,0,29,-75,0,0,100,0,103,1,27,31,0,43,-84,0,0,100,0,205,145,18,34,0,59,-87,0,1,30,0,362,1,27,24,0,59,-87,0,0,100,0,362,1,27,24,0,46,-97,0,0,100,0,310,26,54,48,0,50,-77,0,0,100,0,896,152,64,40,0,48,-54,0,0,100,0,0,0,43,19,0,
0,30,8,-20,0,0,100,0,944,32,16,16,0,9,-54,1,0,100,0,960,32,64,64,0,-8,-46,0,0,100,0,512,0,32,32,0,-28,-37,0,0,100,0,624,32,56,48,0,-41,-89,0,1,100,0,1664,384,128,128,0,-4,-59,0,0,100,0,888,0,48,72,0,-6,-32,1,0,100,0,672,0,16,16,0,-40,-16,0,0,100,0,944,0,80,32,0,39,-83,0,0,100,0,400,53,8,8,0,74,-87,0,0,100,0,398,69,11,11,0,72,-77,0,0,100,0,380,61,7,8,0,46,-80,0,0,100,0,398,60,11,9,0,81,-73,0,0,100,0,400,53,8,8,0,87,-73,0,0,100,0,378,70,11,10,0,65,-98,0,0,100,0,103,34,32,21,0,33,-101,0,0,100,0,82,57,25,20,0,50,-85,0,0,100,0,172,144,12,11,0,47,-99,0,0,100,0,299,79,34,25,0,45,-84,0,0,100,0,135,145,28,34,0,53,-87,0,0,100,0,142,57,18,18,0,46,-76,0,0,100,0,272,31,35,28,0,54,-65,0,0,100,0,138,33,14,17,0,48,-62,0,0,100,0,266,61,33,14,0,29,-75,0,0,100,0,132,1,27,31,0,43,-84,0,0,100,0,225,145,18,34,0,59,-87,0,1,60,0,362,1,27,24,0,59,-87,0,0,100,0,362,1,27,24,0,46,-97,0,0,100,0,310,26,54,48,0,50,-77,0,0,100,0,960,152,64,40,0,48,-54,0,0,100,0,0,0,43,19,0,
0,28,-42,-155,0,1,100,0,1024,0,128,256,0,-26,-48,1,0,100,0,840,0,48,56,0,-35,-48,0,0,100,0,512,0,32,32,0,-39,-38,0,0,100,0,680,32,56,48,0,-58,-56,0,0,100,0,960,32,64,64,0,-14,-35,0,0,100,0,640,0,16,16,0,-49,-16,0,0,100,0,944,0,80,32,0,49,-68,0,0,100,0,378,59,13,10,0,75,-89,0,0,100,0,399,61,10,8,0,71,-81,0,0,100,0,379,52,9,9,0,49,-81,0,0,100,0,401,54,7,6,0,87,-81,0,0,100,0,378,79,12,13,0,65,-98,0,0,100,0,1,34,32,21,0,33,-101,0,0,100,0,1,57,25,20,0,50,-85,0,0,100,0,172,144,12,11,0,47,-99,0,0,100,0,191,79,34,25,0,45,-84,0,0,100,0,45,145,28,34,0,53,-87,0,0,100,0,142,57,18,18,0,46,-76,0,0,100,0,161,31,35,28,0,54,-65,0,0,100,0,138,33,14,17,0,48,-62,0,0,100,0,161,61,33,14,0,29,-75,0,0,100,0,45,1,27,31,0,43,-84,0,0,100,0,165,145,18,34,0,59,-87,0,1,100,0,362,1,27,24,0,59,-87,0,0,100,0,362,1,27,24,0,46,-97,0,0,100,0,310,26,54,48,0,50,-77,0,0,100,0,896,112,64,40,0,48,-54,0,0,100,0,0,0,43,19,0,
0,27,-84,-155,0,1,100,0,1152,0,128,256,0,-67,-54,1,0,100,0,840,0,48,56,0,-40,-50,0,0,100,0,544,0,32,32,0,-42,-38,0,0,100,0,736,32,56,48,0,-23,-40,0,0,100,0,640,16,24,16,0,-27,-36,0,0,100,0,704,0,32,16,0,-39,-71,0,0,100,0,792,0,48,56,0,-52,-16,0,0,100,0,944,0,80,32,0,47,-73,0,0,100,0,376,69,15,12,0,75,-92,0,0,100,0,399,53,10,9,0,87,-84,0,0,100,0,378,69,11,10,0,65,-98,0,0,100,0,35,34,32,21,0,33,-101,0,0,100,0,28,57,25,20,0,50,-85,0,0,100,0,172,144,12,11,0,47,-99,0,0,100,0,227,79,34,25,0,45,-84,0,0,100,0,75,145,28,34,0,53,-87,0,0,100,0,142,57,18,18,0,46,-76,0,0,100,0,198,31,35,28,0,54,-65,0,0,100,0,138,33,14,17,0,48,-62,0,0,100,0,196,61,33,14,0,29,-75,0,0,100,0,74,1,27,31,0,43,-84,0,0,100,0,185,145,18,34,0,59,-87,0,1,60,0,362,1,27,24,0,59,-87,0,0,100,0,362,1,27,24,0,46,-97,0,0,100,0,310,26,54,48,0,50,-77,0,0,100,0,960,112,64,40,0,48,-54,0,0,100,0,0,0,43,19,0,
0,26,-84,-155,0,1,100,0,1280,0,128,256,0,-67,-54,1,0,100,0,840,0,48,56,0,-40,-50,0,0,100,0,576,0,32,32,0,-42,-38,0,0,100,0,736,32,56,48,0,-20,-35,0,0,100,0,672,0,16,16,0,-25,-35,0,0,100,0,704,0,32,16,0,-37,-70,0,0,100,0,792,0,48,56,0,-52,-16,0,0,100,0,944,0,80,32,0,49,-77,0,0,100,0,378,59,13,10,0,88,-85,0,0,100,0,379,60,9,9,0,65,-98,0,0,100,0,69,34,32,21,0,33,-101,0,0,100,0,55,57,25,20,0,50,-85,0,0,100,0,172,144,12,11,0,47,-99,0,0,100,0,263,79,34,25,0,45,-84,0,0,100,0,105,145,28,34,0,53,-87,0,0,100,0,142,57,18,18,0,46,-76,0,0,100,0,235,31,35,28,0,54,-65,0,0,100,0,138,33,14,17,0,48,-62,0,0,100,0,231,61,33,14,0,29,-75,0,0,100,0,103,1,27,31,0,43,-84,0,0,100,0,205,145,18,34,0,59,-87,0,1,30,0,362,1,27,24,0,59,-87,0,0,100,0,362,1,27,24,0,46,-97,0,0,100,0,310,26,54,48,0,50,-77,0,0,100,0,896,152,64,40,0,48,-54,0,0,100,0,0,0,43,19,0,
0,28,-84,-155,0,1,100,0,1408,0,128,256,0,-66,-54,1,0,100,0,840,0,48,56,0,-40,-50,0,0,100,0,608,0,32,32,0,-42,-38,0,0,100,0,736,32,56,48,0,-20,-35,0,0,100,0,688,0,16,16,0,-25,-35,0,0,100,0,704,0,32,16,0,-37,-70,0,0,100,0,792,0,48,56,0,-52,-16,0,0,100,0,944,0,80,32,0,37,-66,0,0,100,0,398,60,11,8,0,51,-79,0,0,100,0,380,53,8,8,0,79,-56,0,0,100,0,398,60,11,8,0,65,-98,0,0,100,0,103,34,32,21,0,33,-101,0,0,100,0,82,57,25,20,0,50,-85,0,0,100,0,172,144,12,11,0,47,-99,0,0,100,0,299,79,34,25,0,45,-84,0,0,100,0,135,145,28,34,0,53,-87,0,0,100,0,142,57,18,18,0,46,-76,0,0,100,0,272,31,35,28,0,54,-65,0,0,100,0,138,33,14,17,0,48,-62,0,0,100,0,266,61,33,14,0,29,-75,0,0,100,0,132,1,27,31,0,43,-84,0,0,100,0,225,145,18,34,0,62,-103,0,0,100,0,487,268,7,7,0,59,-87,0,1,60,0,362,1,27,24,0,59,-87,0,0,100,0,362,1,27,24,0,46,-97,0,0,100,0,310,26,54,48,0,50,-77,0,0,100,0,960,152,64,40,0,48,-54,0,0,100,0,0,0,43,19,0,
0,25,-84,-155,0,1,100,0,1536,0,128,256,0,-66,-54,1,0,100,0,840,0,48,56,0,-40,-50,0,0,100,0,512,0,32,32,0,-42,-38,0,0,100,0,736,32,56,48,0,-20,-35,0,0,100,0,640,0,16,16,0,-25,-35,0,0,100,0,704,0,32,16,0,-37,-70,0,0,100,0,792,0,48,56,0,-52,-16,0,0,100,0,944,0,80,32,0,32,-104,0,0,50,0,451,71,47,40,0,31,-100,0,0,100,0,1,57,25,20,0,61,-102,0,0,100,0,1,34,32,21,0,48,-102,0,0,100,0,1,79,29,26,0,50,-87,0,0,100,0,69,107,32,36,0,53,-89,0,0,100,0,142,57,18,18,0,46,-78,0,0,100,0,161,31,35,28,0,54,-67,0,0,100,0,138,33,14,17,0,48,-64,0,0,100,0,161,61,33,14,0,29,-77,0,0,100,0,45,1,27,31,0,41,-87,0,0,100,0,103,107,31,35,0,44,-90,0,0,100,0,125,79,13,11,0,59,-89,0,1,100,0,362,1,27,24,0,59,-89,0,0,100,0,362,1,27,24,0,46,-99,0,0,100,0,310,26,54,48,0,50,-79,0,0,100,0,896,112,64,40,0,48,-54,0,0,100,0,0,0,43,19,0,
0,27,-84,-155,0,1,100,0,1664,0,128,256,0,-66,-54,1,0,100,0,840,0,48,56,0,-40,-50,0,0,100,0,544,0,32,32,0,-42,-38,0,0,100,0,736,32,56,48,0,-20,-35,0,0,100,0,656,0,16,16,0,-25,-35,0,0,100,0,704,0,32,16,0,-37,-70,0,0,100,0,792,0,48,56,0,-52,-16,0,0,100,0,944,0,80,32,0,30,-108,0,0,100,0,423,100,25,21,0,32,-105,0,0,30,0,451,71,47,40,0,31,-102,0,0,100,0,28,57,25,20,0,61,-104,0,0,100,0,35,34,32,21,0,50,-95,0,0,100,0,124,95,21,9,0,48,-104,0,0,100,0,32,79,29,26,0,49,-88,0,0,100,0,35,107,32,36,0,53,-90,0,0,100,0,142,57,18,18,0,46,-79,0,0,100,0,161,31,35,28,0,54,-68,0,0,100,0,138,33,14,17,0,48,-65,0,0,100,0,161,61,33,14,0,28,-79,0,0,100,0,74,1,27,31,0,40,-88,0,0,100,0,103,107,31,35,0,44,-92,0,0,100,0,125,79,13,11,0,59,-90,0,1,60,0,362,1,27,24,0,59,-90,0,0,100,0,362,1,27,24,0,46,-100,0,0,100,0,310,26,54,48,0,50,-80,0,0,100,0,960,112,64,40,0,48,-54,0,0,100,0,0,0,43,19,0,
0,26,-84,-155,0,1,100,0,1792,0,128,256,0,-66,-54,1,0,100,0,840,0,48,56,0,-40,-50,0,0,100,0,576,0,32,32,0,-42,-38,0,0,100,0,736,32,56,48,0,-20,-35,0,0,100,0,672,0,16,16,0,-25,-35,0,0,100,0,704,0,32,16,0,-37,-70,0,0,100,0,792,0,48,56,0,-52,-16,0,0,100,0,944,0,80,32,0,27,-113,0,0,100,0,420,72,30,28,0,32,-103,0,0,100,0,55,57,25,20,0,62,-105,0,0,100,0,69,34,32,21,0,51,-96,0,0,100,0,124,95,21,9,0,49,-105,0,0,100,0,63,79,29,26,0,49,-90,0,0,100,0,1,107,32,36,0,53,-91,0,0,100,0,142,57,18,18,0,46,-80,0,0,100,0,161,31,35,28,0,54,-69,0,0,100,0,138,33,14,17,0,48,-66,0,0,100,0,231,61,33,14,0,28,-80,0,0,100,0,103,1,27,31,0,40,-90,0,0,100,0,103,107,31,35,0,45,-93,0,0,100,0,125,79,13,11,0,59,-91,0,1,30,0,362,1,27,24,0,59,-91,0,0,100,0,362,1,27,24,0,46,-101,0,0,100,0,310,26,54,48,0,50,-81,0,0,100,0,896,152,64,40,0,48,-54,0,0,100,0,0,0,43,19,0,
0,29,-84,-155,0,1,100,0,1792,256,128,256,0,-66,-54,1,0,100,0,840,0,48,56,0,-40,-50,0,0,100,0,608,0,32,32,0,-42,-38,0,0,100,0,736,32,56,48,0,-20,-35,0,0,100,0,688,0,16,16,0,-25,-35,0,0,100,0,704,0,32,16,0,-37,-70,0,0,100,0,792,0,48,56,0,-52,-16,0,0,100,0,944,0,80,32,0,34,-115,0,0,50,0,289,208,24,23,0,15,-113,0,0,50,0,278,147,34,35,0,23,-129,0,0,100,0,2,199,36,47,0,30,-109,0,0,100,0,423,100,25,21,0,32,-102,0,0,100,0,82,57,25,20,0,62,-104,0,0,100,0,103,34,32,21,0,51,-95,0,0,100,0,124,95,21,9,0,49,-104,0,0,100,0,94,79,29,26,0,49,-89,0,0,100,0,69,107,32,36,0,53,-90,0,0,100,0,142,57,18,18,0,46,-79,0,0,100,0,198,31,35,28,0,54,-68,0,0,100,0,138,33,14,17,0,48,-65,0,0,100,0,196,61,33,14,0,28,-79,0,0,100,0,132,1,27,31,0,40,-89,0,0,100,0,169,107,31,35,0,45,-92,0,0,100,0,140,79,13,10,0,59,-90,0,1,60,0,362,1,27,24,0,59,-90,0,0,100,0,362,1,27,24,0,46,-100,0,0,100,0,310,26,54,48,0,50,-80,0,0,100,0,960,152,64,40,0,48,-54,0,0,100,0,0,0,43,19,0,
0,32,-66,-54,1,0,100,0,840,0,48,56,0,-40,-50,0,0,100,0,512,0,32,32,0,-42,-38,0,0,100,0,736,32,56,48,0,-20,-35,0,0,100,0,640,0,16,16,0,-25,-35,0,0,100,0,704,0,32,16,0,-37,-70,0,0,100,0,792,0,48,56,0,-52,-16,0,0,100,0,944,0,80,32,0,29,-113,0,0,100,0,306,127,10,10,0,23,-119,0,0,100,0,295,124,12,14,0,35,-120,0,0,50,0,297,251,13,14,0,22,-114,0,0,50,0,289,208,24,23,0,38,-118,0,0,100,0,289,208,24,23,0,9,-110,0,0,100,0,278,147,34,35,0,23,-129,0,0,100,0,40,199,36,47,0,27,-113,0,0,100,0,420,72,30,28,0,32,-102,0,0,100,0,1,57,25,20,0,62,-104,0,0,100,0,1,34,32,21,0,51,-95,0,0,100,0,124,95,21,9,0,49,-104,0,0,100,0,1,79,29,26,0,49,-89,0,0,100,0,35,107,32,36,0,53,-90,0,0,100,0,142,57,18,18,0,46,-79,0,0,100,0,235,31,35,28,0,54,-68,0,0,100,0,138,33,14,17,0,48,-65,0,0,100,0,231,61,33,14,0,28,-79,0,0,100,0,45,1,27,31,0,40,-89,0,0,100,0,136,107,31,35,0,45,-92,0,0,100,0,125,79,13,10,0,59,-90,0,1,100,0,362,1,27,24,0,59,-90,0,0,100,0,362,1,27,24,0,46,-100,0,0,100,0,310,26,54,48,0,50,-80,0,0,100,0,896,112,64,40,0,48,-54,0,0,100,0,0,0,43,19,0,
0,35,-66,-54,1,0,100,0,840,0,48,56,0,-40,-50,0,0,100,0,544,0,32,32,0,-42,-38,0,0,100,0,736,32,56,48,0,-20,-35,0,0,100,0,656,0,16,16,0,-25,-35,0,0,100,0,704,0,32,16,0,-37,-70,0,0,100,0,792,0,48,56,0,-52,-16,0,0,100,0,944,0,80,32,0,22,-116,2,0,100,-270,427,0,17,23,0,24,-102,0,0,100,0,295,124,12,14,0,37,-95,0,0,100,0,295,124,12,14,0,25,-120,0,0,100,0,306,127,10,10,0,17,-125,0,0,100,0,295,124,12,14,0,36,-125,0,0,100,0,297,251,13,14,0,17,-117,0,0,100,0,289,208,24,23,0,39,-126,0,0,100,0,319,203,33,33,0,0,-113,0,0,100,0,318,142,47,45,0,23,-129,0,0,100,0,78,199,36,47,0,30,-109,0,0,100,0,423,100,25,21,0,32,-102,0,0,100,0,28,57,25,20,0,62,-104,0,0,100,0,35,34,32,21,0,51,-95,0,0,100,0,124,95,21,9,0,49,-104,0,0,100,0,32,79,29,26,0,49,-89,0,0,100,0,69,107,32,36,0,53,-90,0,0,100,0,142,57,18,18,0,46,-79,0,0,100,0,198,31,35,28,0,54,-68,0,0,100,0,138,33,14,17,0,48,-65,0,0,100,0,196,61,33,14,0,28,-79,0,0,100,0,74,1,27,31,0,40,-89,0,0,100,0,169,107,31,35,0,45,-92,0,0,100,0,140,79,13,10,0,59,-90,0,1,60,0,362,1,27,24,0,59,-90,0,0,100,0,362,1,27,24,0,46,-100,0,0,100,0,310,26,54,48,0,50,-80,0,0,100,0,960,112,64,40,0,48,-54,0,0,100,0,0,0,43,19,0,
0,42,-66,-54,1,0,100,0,840,0,48,56,0,-40,-50,0,0,100,0,576,0,32,32,0,-42,-38,0,0,100,0,736,32,56,48,0,-20,-35,0,0,100,0,672,0,16,16,0,-25,-35,0,0,100,0,704,0,32,16,0,-37,-70,0,0,100,0,792,0,48,56,0,-52,-16,0,0,100,0,944,0,80,32,0,23,-113,0,0,100,0,295,124,12,14,0,53,-115,0,0,100,0,308,128,7,8,0,43,-118,0,0,100,0,295,124,12,14,0,17,-97,0,0,100,0,295,124,12,14,0,28,-99,0,0,100,0,295,124,12,14,0,41,-89,0,0,100,0,295,124,12,14,0,23,-124,0,0,100,0,306,127,10,10,0,15,-127,0,0,100,0,295,124,12,14,0,25,-96,1,0,100,0,432,36,13,17,0,16,-122,2,0,100,-270,444,0,20,26,0,36,-105,0,0,100,0,427,0,17,23,0,32,-105,0,0,100,0,289,208,24,23,0,36,-134,0,0,80,0,310,250,17,17,0,2,-127,0,0,100,0,319,203,33,33,0,37,-131,0,0,60,0,355,199,41,40,0,-6,-114,0,0,60,0,364,138,53,53,0,23,-129,0,0,100,0,116,199,36,47,0,27,-113,0,0,100,0,420,72,30,28,0,32,-102,0,0,100,0,55,57,25,20,0,62,-104,0,0,100,0,69,34,32,21,0,51,-95,0,0,100,0,124,95,21,9,0,49,-104,0,0,100,0,63,79,29,26,0,49,-89,0,0,100,0,35,107,32,36,0,53,-90,0,0,100,0,142,57,18,18,0,46,-79,0,0,100,0,235,31,35,28,0,54,-68,0,0,100,0,138,33,14,17,0,48,-65,0,0,100,0,231,61,33,14,0,28,-79,0,0,100,0,103,1,27,31,0,40,-89,0,0,100,0,136,107,31,35,0,45,-92,0,0,100,0,125,79,13,11,0,59,-90,0,1,30,0,362,1,27,24,0,59,-90,0,0,100,0,362,1,27,24,0,46,-100,0,0,100,0,310,26,54,48,0,50,-80,0,0,100,0,896,152,64,40,0,48,-54,0,0,100,0,0,0,43,19,0,
0,46,-66,-54,1,0,100,0,840,0,48,56,0,-40,-50,0,0,100,0,608,0,32,32,0,-42,-38,0,0,100,0,736,32,56,48,0,-20,-35,0,0,100,0,688,0,16,16,0,-25,-35,0,0,100,0,704,0,32,16,0,-37,-70,0,0,100,0,792,0,48,56,0,-52,-16,0,0,100,0,944,0,80,32,0,14,-115,0,0,100,0,295,124,12,14,0,57,-119,0,0,100,0,308,128,7,8,0,46,-123,0,0,100,0,295,124,12,14,0,12,-93,0,0,100,0,295,124,12,14,0,28,-91,0,0,100,0,308,128,7,8,0,43,-86,0,0,100,0,295,124,12,14,0,22,-126,0,0,50,0,306,127,10,10,0,14,-128,0,0,50,0,295,124,12,14,0,22,-91,1,0,100,0,446,37,17,20,0,4,-133,2,0,100,-270,463,0,28,33,0,40,-101,0,0,100,0,444,0,20,26,0,44,-129,0,0,100,-270,427,0,17,23,0,13,-98,1,0,100,0,427,0,17,23,0,32,-98,0,0,100,0,319,203,33,33,0,21,-103,0,0,100,0,297,251,13,14,0,48,-113,0,0,100,0,297,251,13,14,0,35,-141,0,0,40,0,327,247,21,21,0,-8,-135,0,0,60,0,354,198,42,42,0,36,-135,0,0,30,0,397,195,47,49,0,-10,-117,0,0,30,0,418,133,60,58,0,23,-129,0,0,100,0,2,199,36,47,0,30,-109,0,0,50,0,423,100,25,21,0,32,-102,0,0,100,0,82,57,25,20,0,62,-104,0,0,100,0,103,34,32,21,0,51,-95,0,0,100,0,124,95,21,9,0,49,-104,0,0,100,0,94,79,29,26,0,49,-89,0,0,100,0,69,107,32,36,0,53,-90,0,0,100,0,142,57,18,18,0,46,-79,0,0,100,0,198,31,35,28,0,54,-68,0,0,100,0,138,33,14,17,0,48,-65,0,0,100,0,196,61,33,14,0,28,-79,0,0,100,0,132,1,27,31,0,40,-89,0,0,100,0,169,107,31,35,0,45,-92,0,0,100,0,140,79,13,11,0,59,-90,0,1,60,0,362,1,27,24,0,59,-90,0,0,100,0,362,1,27,24,0,46,-100,0,0,100,0,310,26,54,48,0,50,-80,0,0,100,0,960,152,64,40,0,48,-54,0,0,100,0,0,0,43,19,0,
0,49,-66,-54,1,0,100,0,840,0,48,56,0,-40,-50,0,0,100,0,512,0,32,32,0,-42,-38,0,0,100,0,736,32,56,48,0,-20,-35,0,0,100,0,640,0,16,16,0,-25,-35,0,0,100,0,704,0,32,16,0,-37,-70,0,0,100,0,792,0,48,56,0,-52,-16,0,0,100,0,944,0,80,32,0,51,-110,0,0,100,0,295,124,12,14,0,7,-104,0,0,100,0,295,124,12,14,0,21,-135,0,0,100,0,295,124,12,14,0,34,-129,0,0,100,0,295,124,22,15,0,9,-116,0,0,100,0,295,124,12,14,0,59,-120,0,0,100,0,308,128,7,8,0,49,-125,0,0,100,0,295,124,12,14,0,9,-90,0,0,50,0,295,124,12,14,0,26,-89,0,0,100,0,308,128,7,8,0,45,-84,0,0,50,0,295,124,12,14,0,11,-116,1,0,100,270,431,37,14,16,0,20,-89,1,0,100,0,468,37,19,28,0,-2,-137,2,0,100,-270,490,0,20,28,0,42,-96,0,0,100,0,463,0,28,33,0,48,-136,0,0,100,-270,444,0,20,26,0,7,-94,1,0,100,0,445,0,19,30,0,30,-97,0,0,60,0,354,198,42,42,0,11,-100,1,0,80,90,310,250,17,17,0,54,-117,0,0,80,0,310,250,17,17,0,-14,-141,0,0,30,0,396,194,45,49,0,37,-111,0,0,100,0,289,208,24,23,0,10,-130,0,0,100,0,278,147,34,35,0,23,-129,0,0,100,0,40,199,36,47,0,27,-113,0,0,30,0,420,72,30,28,0,14,-127,0,1,100,0,512,112,96,72,0,32,-102,0,0,100,0,1,57,25,20,0,62,-104,0,0,100,0,1,34,32,21,0,51,-95,0,0,100,0,124,95,21,9,0,49,-104,0,0,100,0,1,79,29,26,0,49,-89,0,0,100,0,35,107,32,36,0,53,-90,0,0,100,0,142,57,18,18,0,46,-79,0,0,100,0,235,31,35,28,0,54,-68,0,0,100,0,138,33,14,17,0,48,-65,0,0,100,0,231,61,33,14,0,28,-79,0,0,100,0,45,1,27,31,0,40,-89,0,0,100,0,136,107,31,35,0,45,-92,0,0,100,0,125,79,13,10,0,59,-90,0,1,100,0,362,1,27,24,0,59,-90,0,0,100,0,362,1,27,24,0,46,-100,0,0,100,0,310,26,54,48,0,50,-80,0,0,100,0,896,112,64,40,0,48,-54,0,0,100,0,0,0,43,19,0,
0,46,-66,-54,1,0,100,0,840,0,48,56,0,-40,-50,0,0,100,0,544,0,32,32,0,-42,-38,0,0,100,0,736,32,56,48,0,-20,-35,0,0,100,0,656,0,16,16,0,-25,-35,0,0,100,0,704,0,32,16,0,-37,-70,0,0,100,0,792,0,48,56,0,-52,-16,0,0,100,0,944,0,80,32,0,62,-112,0,0,100,0,295,124,12,14,0,-3,-99,0,0,100,0,295,124,12,14,0,31,-90,0,0,100,0,295,124,22,15,0,17,-144,0,0,100,0,295,124,12,14,0,35,-138,0,0,100,0,295,124,22,15,0,6,-117,0,0,50,0,295,124,12,14,0,61,-121,0,0,50,0,308,128,7,8,0,51,-126,0,0,50,0,295,124,12,14,0,25,-88,0,0,50,0,308,128,7,8,0,0,-119,1,0,100,270,445,36,18,23,0,22,-81,1,0,100,0,489,35,16,24,0,54,-85,0,0,100,0,490,0,20,28,0,54,-147,0,0,100,-270,463,0,28,33,0,-2,-90,1,0,100,0,463,0,28,33,0,28,-98,0,0,30,0,396,194,45,49,0,7,-99,0,0,40,180,327,247,21,21,0,54,-121,0,0,40,0,327,247,21,21,0,28,-100,0,0,100,0,297,251,13,14,0,42,-115,0,0,100,0,319,203,33,33,0,-3,-142,0,0,100,0,318,142,47,45,0,23,-129,0,0,100,0,78,199,36,47,0,14,-127,0,1,100,0,608,112,96,72,0,32,-102,0,0,100,0,28,57,25,20,0,62,-104,0,0,100,0,35,34,32,21,0,51,-95,0,0,100,0,124,95,21,9,0,49,-104,0,0,100,0,32,79,29,26,0,49,-89,0,0,100,0,69,107,32,36,0,53,-90,0,0,100,0,142,57,18,18,0,46,-79,0,0,100,0,198,31,35,28,0,54,-68,0,0,100,0,138,33,14,17,0,48,-65,0,0,100,0,196,61,33,14,0,28,-79,0,0,100,0,74,1,27,31,0,40,-89,0,0,100,0,169,107,31,35,0,45,-92,0,0,100,0,140,79,13,10,0,59,-90,0,1,60,0,362,1,27,24,0,59,-90,0,0,100,0,362,1,27,24,0,46,-100,0,0,100,0,310,26,54,48,0,50,-80,0,0,100,0,960,112,64,40,0,48,-54,0,0,100,0,0,0,43,19,0,
0,38,-66,-54,1,0,100,0,840,0,48,56,0,-40,-50,0,0,100,0,576,0,32,32,0,-42,-38,0,0,100,0,736,32,56,48,0,-20,-35,0,0,100,0,672,0,16,16,0,-25,-35,0,0,100,0,704,0,32,16,0,-37,-70,0,0,100,0,792,0,48,56,0,-52,-16,0,0,100,0,944,0,80,32,0,69,-113,0,0,100,0,295,124,12,14,0,-8,-96,0,0,100,0,295,124,12,14,0,33,-81,0,0,100,0,295,124,22,15,0,14,-148,0,0,100,0,295,124,12,14,0,38,-144,0,0,100,0,295,124,22,15,0,-6,-122,1,0,100,270,466,36,21,28,0,65,-150,0,0,100,-270,490,0,20,28,0,-7,-78,1,0,100,0,491,0,21,30,0,21,-95,1,0,80,90,310,250,17,17,0,42,-119,0,0,60,0,355,199,41,40,0,-9,-148,0,0,60,0,364,138,53,53,0,23,-129,0,0,100,0,116,199,36,47,0,29,-112,0,0,0,0,169,197,26,24,0,14,-127,0,1,100,0,704,112,96,72,0,32,-102,0,0,100,0,55,57,25,20,0,62,-104,0,0,100,0,69,34,32,21,0,51,-95,0,0,100,0,124,95,21,9,0,49,-104,0,0,100,0,63,79,29,26,0,49,-89,0,0,100,0,35,107,32,36,0,53,-90,0,0,100,0,142,57,18,18,0,46,-79,0,0,100,0,235,31,35,28,0,54,-68,0,0,100,0,138,33,14,17,0,48,-65,0,0,100,0,231,61,33,14,0,28,-79,0,0,100,0,74,1,27,31,0,40,-89,0,0,100,0,136,107,31,35,0,45,-92,0,0,100,0,125,79,13,10,0,59,-90,0,1,30,0,362,1,27,24,0,59,-90,0,0,100,0,362,1,27,24,0,46,-100,0,0,100,0,310,26,54,48,0,50,-80,0,0,100,0,896,152,64,40,0,48,-54,0,0,100,0,0,0,43,19,0,
0,36,-66,-54,1,0,100,0,840,0,48,56,0,-40,-50,0,0,100,0,608,0,32,32,0,-42,-38,0,0,100,0,736,32,56,48,0,-20,-35,0,0,100,0,688,0,16,16,0,-25,-35,0,0,100,0,704,0,32,16,0,-37,-70,0,0,100,0,792,0,48,56,0,-52,-16,0,0,100,0,944,0,80,32,0,73,-114,0,0,50,0,295,124,12,14,0,-11,-94,0,0,50,0,295,124,12,14,0,35,-77,0,0,50,0,295,124,22,15,0,13,-151,0,0,50,0,295,124,12,14,0,40,-146,0,0,50,0,295,124,22,15,0,-9,-122,1,0,100,270,490,35,18,22,0,16,-93,0,0,40,180,327,247,21,21,0,43,-122,0,0,30,0,397,195,47,49,0,-14,-154,0,0,30,0,418,133,60,58,0,23,-130,0,0,50,0,116,199,36,47,0,29,-112,0,0,0,0,169,197,26,24,0,14,-127,0,1,100,0,800,112,96,72,0,32,-102,0,0,100,0,82,57,25,20,0,62,-104,0,0,100,0,103,34,32,21,0,51,-95,0,0,100,0,124,95,21,9,0,49,-104,0,0,100,0,94,79,29,26,0,49,-89,0,0,100,0,69,107,32,36,0,53,-90,0,0,100,0,142,57,18,18,0,46,-79,0,0,100,0,198,31,35,28,0,54,-68,0,0,100,0,138,33,14,17,0,48,-65,0,0,100,0,196,61,33,14,0,28,-79,0,0,100,0,132,1,27,31,0,40,-89,0,0,100,0,169,107,31,35,0,45,-92,0,0,100,0,140,79,13,10,0,59,-90,0,1,60,0,362,1,27,24,0,59,-90,0,0,100,0,362,1,27,24,0,46,-100,0,0,100,0,310,26,54,48,0,50,-80,0,0,100,0,960,152,64,40,0,48,-54,0,0,100,0,0,0,43,19,0,
0,25,-66,-54,1,0,100,0,840,0,48,56,0,-40,-50,0,0,100,0,512,0,32,32,0,-42,-38,0,0,100,0,736,32,56,48,0,-20,-35,0,0,100,0,640,0,16,16,0,-25,-35,0,0,100,0,704,0,32,16,0,-37,-70,0,0,100,0,792,0,48,56,0,-52,-16,0,0,100,0,944,0,80,32,0,14,-127,0,1,100,0,512,184,96,72,0,32,-102,0,0,100,0,1,57,25,20,0,62,-104,0,0,100,0,1,34,32,21,0,51,-95,0,0,100,0,124,95,21,9,0,48,-104,0,0,100,0,1,79,29,26,0,49,-89,0,0,100,0,1,107,32,36,0,53,-90,0,0,100,0,142,57,18,18,0,46,-79,0,0,100,0,161,31,35,28,0,54,-68,0,0,100,0,138,33,14,17,0,48,-65,0,0,100,0,231,61,33,14,0,28,-79,0,0,100,0,103,1,27,31,0,40,-89,0,0,100,0,103,107,31,35,0,45,-92,0,0,100,0,125,79,13,11,0,59,-90,0,1,100,0,362,1,27,24,0,59,-90,0,0,100,0,362,1,27,24,0,46,-100,0,0,100,0,310,26,54,48,0,50,-80,0,0,100,0,896,112,64,40,0,48,-54,0,0,100,0,0,0,43,19,0,
0,25,-66,-54,1,0,100,0,840,0,48,56,0,-40,-50,0,0,100,0,544,0,32,32,0,-42,-38,0,0,100,0,736,32,56,48,0,-20,-35,0,0,100,0,656,0,16,16,0,-25,-35,0,0,100,0,704,0,32,16,0,-37,-70,0,0,100,0,792,0,48,56,0,-52,-16,0,0,100,0,944,0,80,32,0,14,-127,0,1,100,0,608,184,96,72,0,31,-102,0,0,100,0,28,57,25,20,0,61,-104,0,0,100,0,35,34,32,21,0,50,-95,0,0,100,0,124,95,21,9,0,48,-104,0,0,100,0,32,79,29,26,0,49,-88,0,0,100,0,35,107,32,36,0,53,-90,0,0,100,0,142,57,18,18,0,46,-79,0,0,100,0,161,31,35,28,0,54,-68,0,0,100,0,138,33,14,17,0,48,-65,0,0,100,0,161,61,33,14,0,28,-79,0,0,100,0,103,1,27,31,0,40,-88,0,0,100,0,103,107,31,35,0,44,-92,0,0,100,0,125,79,13,11,0,59,-90,0,1,60,0,362,1,27,24,0,59,-90,0,0,100,0,362,1,27,24,0,46,-100,0,0,100,0,310,26,54,48,0,50,-80,0,0,100,0,960,112,64,40,0,48,-54,0,0,100,0,0,0,43,19,0,
0,26,-101,-243,0,1,100,0,128,512,224,336,0,-66,-54,1,0,100,0,840,0,48,56,0,-40,-50,0,0,100,0,576,0,32,32,0,-42,-38,0,0,100,0,736,32,56,48,0,-20,-35,0,0,100,0,672,0,16,16,0,-25,-35,0,0,100,0,704,0,32,16,0,-37,-70,0,0,100,0,792,0,48,56,0,-52,-16,0,0,100,0,944,0,80,32,0,14,-127,0,1,100,0,704,184,96,72,0,31,-102,0,0,100,0,55,57,25,20,0,61,-104,0,0,100,0,69,34,32,21,0,50,-95,0,0,100,0,124,95,21,9,0,48,-104,0,0,100,0,63,79,29,26,0,49,-88,0,0,100,0,35,107,32,36,0,53,-90,0,0,100,0,142,57,18,18,0,46,-79,0,0,100,0,161,31,35,28,0,54,-68,0,0,100,0,138,33,14,17,0,48,-65,0,0,100,0,161,61,33,14,0,28,-79,0,0,100,0,132,1,27,31,0,40,-88,0,0,100,0,103,107,31,35,0,44,-92,0,0,100,0,125,79,13,11,0,59,-90,0,1,30,0,362,1,27,24,0,59,-90,0,0,100,0,362,1,27,24,0,46,-100,0,0,100,0,310,26,54,48,0,50,-80,0,0,100,0,896,152,64,40,0,48,-54,0,0,100,0,0,0,43,19,0,
0,26,-101,-243,0,1,100,0,352,512,224,336,0,-66,-54,1,0,100,0,840,0,48,56,0,-40,-50,0,0,100,0,608,0,32,32,0,-42,-38,0,0,100,0,736,32,56,48,0,-20,-35,0,0,100,0,688,0,16,16,0,-25,-35,0,0,100,0,704,0,32,16,0,-37,-70,0,0,100,0,792,0,48,56,0,-52,-16,0,0,100,0,944,0,80,32,0,14,-127,0,1,100,0,800,184,96,72,0,31,-102,0,0,100,0,82,57,25,20,0,61,-104,0,0,100,0,103,34,32,21,0,50,-95,0,0,100,0,124,95,21,9,0,48,-104,0,0,100,0,94,79,29,26,0,49,-88,0,0,100,0,35,107,32,36,0,53,-90,0,0,100,0,142,57,18,18,0,46,-79,0,0,100,0,161,31,35,28,0,54,-68,0,0,100,0,138,33,14,17,0,48,-65,0,0,100,0,161,61,33,14,0,28,-79,0,0,100,0,132,1,27,31,0,40,-88,0,0,100,0,103,107,31,35,0,44,-92,0,0,100,0,125,79,13,11,0,59,-90,0,1,60,0,362,1,27,24,0,59,-90,0,0,100,0,362,1,27,24,0,46,-100,0,0,100,0,310,26,54,48,0,50,-80,0,0,100,0,960,152,64,40,0,48,-54,0,0,100,0,0,0,43,19,0,
0,26,27,-127,0,1,100,0,64,432,112,80,0,-101,-243,0,1,100,0,576,512,224,336,0,-66,-54,1,0,100,0,840,0,48,56,0,-40,-50,0,0,100,0,512,0,32,32,0,-42,-38,0,0,100,0,736,32,56,48,0,-20,-35,0,0,100,0,640,0,16,16,0,-25,-35,0,0,100,0,704,0,32,16,0,-37,-70,0,0,100,0,792,0,48,56,0,-52,-16,0,0,100,0,944,0,80,32,0,31,-102,0,0,100,0,1,57,25,20,0,61,-104,0,0,100,0,1,34,32,21,0,50,-95,0,0,100,0,124,95,21,9,0,48,-104,0,0,100,0,1,79,29,26,0,49,-88,0,0,100,0,35,107,32,36,0,53,-90,0,0,100,0,142,57,18,18,0,46,-79,0,0,100,0,161,31,35,28,0,54,-68,0,0,100,0,138,33,14,17,0,48,-65,0,0,100,0,161,61,33,14,0,28,-79,0,0,100,0,45,1,27,31,0,40,-88,0,0,100,0,103,107,31,35,0,44,-92,0,0,100,0,125,79,13,11,0,59,-90,0,1,100,0,362,1,27,24,0,59,-90,0,0,100,0,362,1,27,24,0,46,-100,0,0,100,0,310,26,54,48,0,50,-80,0,0,100,0,896,112,64,40,0,48,-54,0,0,100,0,0,0,43,19,0,
0,26,10,-130,0,1,100,0,176,400,128,112,0,-101,-243,0,1,100,0,800,512,224,336,0,-66,-54,1,0,100,0,840,0,48,56,0,-40,-50,0,0,100,0,544,0,32,32,0,-42,-38,0,0,100,0,736,32,56,48,0,-20,-35,0,0,100,0,656,0,16,16,0,-25,-35,0,0,100,0,704,0,32,16,0,-37,-70,0,0,100,0,792,0,48,56,0,-52,-16,0,0,100,0,944,0,80,32,0,31,-102,0,0,100,0,28,57,25,20,0,61,-104,0,0,100,0,35,34,32,21,0,50,-95,0,0,100,0,124,95,21,9,0,48,-104,0,0,100,0,32,79,29,26,0,49,-88,0,0,100,0,35,107,32,36,0,53,-90,0,0,100,0,142,57,18,18,0,46,-79,0,0,100,0,161,31,35,28,0,54,-68,0,0,100,0,138,33,14,17,0,48,-65,0,0,100,0,161,61,33,14,0,28,-79,0,0,100,0,45,1,27,31,0,40,-88,0,0,100,0,103,107,31,35,0,44,-92,0,0,100,0,125,79,13,11,0,59,-90,0,1,60,0,362,1,27,24,0,59,-90,0,0,100,0,362,1,27,24,0,46,-100,0,0,100,0,310,26,54,48,0,50,-80,0,0,100,0,960,112,64,40,0,48,-54,0,0,100,0,0,0,43,19,0,
0,26,-50,-126,0,1,100,0,304,384,208,128,0,-101,-243,0,1,100,0,1024,512,224,336,0,-66,-54,1,0,100,0,840,0,48,56,0,-40,-50,0,0,100,0,576,0,32,32,0,-42,-38,0,0,100,0,736,32,56,48,0,-20,-35,0,0,100,0,672,0,16,16,0,-25,-35,0,0,100,0,704,0,32,16,0,-37,-70,0,0,100,0,792,0,48,56,0,-52,-16,0,0,100,0,944,0,80,32,0,31,-102,0,0,100,0,55,57,25,20,0,61,-104,0,0,100,0,69,34,32,21,0,50,-95,0,0,100,0,124,95,21,9,0,48,-104,0,0,100,0,63,79,29,26,0,49,-88,0,0,100,0,35,107,32,36,0,53,-90,0,0,100,0,142,57,18,18,0,46,-79,0,0,100,0,161,31,35,28,0,54,-68,0,0,100,0,138,33,14,17,0,48,-65,0,0,100,0,161,61,33,14,0,28,-79,0,0,100,0,74,1,27,31,0,40,-88,0,0,100,0,103,107,31,35,0,44,-92,0,0,100,0,125,79,13,11,0,59,-90,0,1,30,0,362,1,27,24,0,59,-90,0,0,100,0,362,1,27,24,0,46,-100,0,0,100,0,310,26,54,48,0,50,-80,0,0,100,0,896,152,64,40,0,48,-54,0,0,100,0,0,0,43,19,0,
0,26,-176,-111,0,1,100,0,1616,1520,304,176,0,-101,-243,0,1,100,0,1248,512,224,336,0,-66,-54,1,0,100,0,840,0,48,56,0,-40,-50,0,0,100,0,608,0,32,32,0,-42,-38,0,0,100,0,736,32,56,48,0,-20,-35,0,0,100,0,688,0,16,16,0,-25,-35,0,0,100,0,704,0,32,16,0,-37,-70,0,0,100,0,792,0,48,56,0,-52,-16,0,0,100,0,944,0,80,32,0,31,-102,0,0,100,0,82,57,25,20,0,61,-104,0,0,100,0,103,34,32,21,0,50,-95,0,0,100,0,124,95,21,9,0,48,-104,0,0,100,0,94,79,29,26,0,49,-88,0,0,100,0,35,107,32,36,0,53,-90,0,0,100,0,142,57,18,18,0,46,-79,0,0,100,0,161,31,35,28,0,54,-68,0,0,100,0,138,33,14,17,0,48,-65,0,0,100,0,161,61,33,14,0,28,-79,0,0,100,0,74,1,27,31,0,40,-88,0,0,100,0,103,107,31,35,0,44,-92,0,0,100,0,125,79,13,11,0,59,-90,0,1,60,0,362,1,27,24,0,59,-90,0,0,100,0,362,1,27,24,0,46,-100,0,0,100,0,310,26,54,48,0,50,-80,0,0,100,0,960,152,64,40,0,48,-54,0,0,100,0,0,0,43,19,0,
0,26,-312,-93,0,1,100,0,1472,1696,448,224,0,-101,-243,0,1,100,0,1472,512,224,336,0,-66,-54,1,0,100,0,840,0,48,56,0,-40,-50,0,0,100,0,512,0,32,32,0,-42,-38,0,0,100,0,736,32,56,48,0,-20,-35,0,0,100,0,640,0,16,16,0,-25,-35,0,0,100,0,704,0,32,16,0,-37,-70,0,0,100,0,792,0,48,56,0,-52,-16,0,0,100,0,944,0,80,32,0,31,-102,0,0,100,0,1,57,25,20,0,61,-104,0,0,100,0,1,34,32,21,0,50,-95,0,0,100,0,124,95,21,9,0,48,-104,0,0,100,0,1,79,29,26,0,49,-88,0,0,100,0,35,107,32,36,0,53,-90,0,0,100,0,142,57,18,18,0,46,-79,0,0,100,0,161,31,35,28,0,54,-68,0,0,100,0,138,33,14,17,0,48,-65,0,0,100,0,161,61,33,14,0,28,-79,0,0,100,0,103,1,27,31,0,40,-88,0,0,100,0,103,107,31,35,0,44,-92,0,0,100,0,125,79,13,11,0,59,-90,0,1,100,0,362,1,27,24,0,59,-90,0,0,100,0,362,1,27,24,0,46,-100,0,0,100,0,310,26,54,48,0,50,-80,0,0,100,0,896,112,64,40,0,48,-54,0,0,100,0,0,0,43,19,0,
0,26,-320,-91,0,1,50,0,1472,1696,448,224,0,-101,-243,0,1,100,0,1696,512,224,336,0,-66,-54,1,0,100,0,840,0,48,56,0,-40,-50,0,0,100,0,544,0,32,32,0,-42,-38,0,0,100,0,736,32,56,48,0,-20,-35,0,0,100,0,656,0,16,16,0,-25,-35,0,0,100,0,704,0,32,16,0,-37,-70,0,0,100,0,792,0,48,56,0,-52,-16,0,0,100,0,944,0,80,32,0,31,-102,0,0,100,0,28,57,25,20,0,61,-104,0,0,100,0,35,34,32,21,0,50,-95,0,0,100,0,124,95,21,9,0,48,-104,0,0,100,0,32,79,29,26,0,49,-88,0,0,100,0,35,107,32,36,0,53,-90,0,0,100,0,142,57,18,18,0,46,-79,0,0,100,0,161,31,35,28,0,54,-68,0,0,100,0,138,33,14,17,0,48,-65,0,0,100,0,161,61,33,14,0,28,-79,0,0,100,0,103,1,27,31,0,40,-88,0,0,100,0,103,107,31,35,0,44,-92,0,0,100,0,125,79,13,11,0,59,-90,0,1,60,0,362,1,27,24,0,59,-90,0,0,100,0,362,1,27,24,0,46,-100,0,0,100,0,310,26,54,48,0,50,-80,0,0,100,0,960,112,64,40,0,48,-54,0,0,100,0,0,0,43,19,0,
0,26,-328,-89,0,1,25,0,1472,1696,448,224,0,-101,-243,0,1,100,0,128,848,224,336,0,-66,-54,1,0,100,0,840,0,48,56,0,-40,-50,0,0,100,0,576,0,32,32,0,-42,-38,0,0,100,0,736,32,56,48,0,-20,-35,0,0,100,0,672,0,16,16,0,-25,-35,0,0,100,0,704,0,32,16,0,-37,-70,0,0,100,0,792,0,48,56,0,-52,-16,0,0,100,0,944,0,80,32,0,31,-102,0,0,100,0,55,57,25,20,0,61,-104,0,0,100,0,69,34,32,21,0,50,-95,0,0,100,0,124,95,21,9,0,48,-104,0,0,100,0,63,79,29,26,0,49,-88,0,0,100,0,35,107,32,36,0,53,-90,0,0,100,0,142,57,18,18,0,46,-79,0,0,100,0,161,31,35,28,0,54,-68,0,0,100,0,138,33,14,17,0,48,-65,0,0,100,0,161,61,33,14,0,28,-79,0,0,100,0,132,1,27,31,0,40,-88,0,0,100,0,103,107,31,35,0,44,-92,0,0,100,0,125,79,13,11,0,59,-90,0,1,30,0,362,1,27,24,0,59,-90,0,0,100,0,362,1,27,24,0,46,-100,0,0,100,0,310,26,54,48,0,50,-80,0,0,100,0,896,152,64,40,0,48,-54,0,0,100,0,0,0,43,19,0,
0,26,-332,-89,0,1,10,0,1472,1696,448,224,0,-101,-243,0,1,100,0,352,848,224,336,0,-66,-54,1,0,100,0,840,0,48,56,0,-40,-50,0,0,100,0,608,0,32,32,0,-42,-38,0,0,100,0,736,32,56,48,0,-20,-35,0,0,100,0,688,0,16,16,0,-25,-35,0,0,100,0,704,0,32,16,0,-37,-70,0,0,100,0,792,0,48,56,0,-52,-16,0,0,100,0,944,0,80,32,0,31,-102,0,0,100,0,82,57,25,20,0,61,-104,0,0,100,0,103,34,32,21,0,50,-95,0,0,100,0,124,95,21,9,0,48,-104,0,0,100,0,94,79,29,26,0,49,-88,0,0,100,0,35,107,32,36,0,53,-90,0,0,100,0,142,57,18,18,0,46,-79,0,0,100,0,161,31,35,28,0,54,-68,0,0,100,0,138,33,14,17,0,48,-65,0,0,100,0,161,61,33,14,0,28,-79,0,0,100,0,132,1,27,31,0,40,-88,0,0,100,0,103,107,31,35,0,44,-92,0,0,100,0,125,79,13,11,0,59,-90,0,1,60,0,362,1,27,24,0,59,-90,0,0,100,0,362,1,27,24,0,46,-100,0,0,100,0,310,26,54,48,0,50,-80,0,0,100,0,960,152,64,40,0,48,-54,0,0,100,0,0,0,43,19,0,
0,25,-101,-243,0,1,100,0,576,848,224,336,0,-66,-54,1,0,100,0,840,0,48,56,0,-40,-50,0,0,100,0,512,0,32,32,0,-42,-38,0,0,100,0,736,32,56,48,0,-20,-35,0,0,100,0,640,0,16,16,0,-25,-35,0,0,100,0,704,0,32,16,0,-37,-70,0,0,100,0,792,0,48,56,0,-52,-16,0,0,100,0,944,0,80,32,0,31,-102,0,0,100,0,1,57,25,20,0,61,-104,0,0,100,0,1,34,32,21,0,50,-95,0,0,100,0,124,95,21,9,0,48,-104,0,0,100,0,1,79,29,26,0,49,-88,0,0,100,0,35,107,32,36,0,53,-90,0,0,100,0,142,57,18,18,0,46,-79,0,0,100,0,161,31,35,28,0,54,-68,0,0,100,0,138,33,14,17,0,48,-65,0,0,100,0,161,61,33,14,0,28,-79,0,0,100,0,45,1,27,31,0,40,-88,0,0,100,0,103,107,31,35,0,44,-92,0,0,100,0,125,79,13,11,0,59,-90,0,1,100,0,362,1,27,24,0,59,-90,0,0,100,0,362,1,27,24,0,46,-100,0,0,100,0,310,26,54,48,0,50,-80,0,0,100,0,896,112,64,40,0,48,-54,0,0,100,0,0,0,43,19,0,
0,25,-101,-243,0,1,100,0,800,848,224,336,0,-66,-54,1,0,100,0,840,0,48,56,0,-40,-50,0,0,100,0,544,0,32,32,0,-42,-38,0,0,100,0,736,32,56,48,0,-20,-35,0,0,100,0,656,0,16,16,0,-25,-35,0,0,100,0,704,0,32,16,0,-37,-70,0,0,100,0,792,0,48,56,0,-52,-16,0,0,100,0,944,0,80,32,0,31,-102,0,0,100,0,28,57,25,20,0,61,-104,0,0,100,0,35,34,32,21,0,50,-95,0,0,100,0,124,95,21,9,0,48,-104,0,0,100,0,32,79,29,26,0,49,-88,0,0,100,0,35,107,32,36,0,53,-90,0,0,100,0,142,57,18,18,0,46,-79,0,0,100,0,161,31,35,28,0,54,-68,0,0,100,0,138,33,14,17,0,48,-65,0,0,100,0,161,61,33,14,0,28,-79,0,0,100,0,45,1,27,31,0,40,-88,0,0,100,0,103,107,31,35,0,44,-92,0,0,100,0,125,79,13,11,0,59,-90,0,1,60,0,362,1,27,24,0,59,-90,0,0,100,0,362,1,27,24,0,46,-100,0,0,100,0,310,26,54,48,0,50,-80,0,0,100,0,960,112,64,40,0,48,-54,0,0,100,0,0,0,43,19,0,
0,25,-101,-243,0,1,100,0,1024,848,224,336,0,-66,-54,1,0,100,0,840,0,48,56,0,-40,-50,0,0,100,0,576,0,32,32,0,-42,-38,0,0,100,0,736,32,56,48,0,-20,-35,0,0,100,0,672,0,16,16,0,-25,-35,0,0,100,0,704,0,32,16,0,-37,-70,0,0,100,0,792,0,48,56,0,-52,-16,0,0,100,0,944,0,80,32,0,31,-102,0,0,100,0,55,57,25,20,0,61,-104,0,0,100,0,69,34,32,21,0,50,-95,0,0,100,0,124,95,21,9,0,48,-104,0,0,100,0,63,79,29,26,0,49,-88,0,0,100,0,35,107,32,36,0,53,-90,0,0,100,0,142,57,18,18,0,46,-79,0,0,100,0,161,31,35,28,0,54,-68,0,0,100,0,138,33,14,17,0,48,-65,0,0,100,0,161,61,33,14,0,28,-79,0,0,100,0,74,1,27,31,0,40,-88,0,0,100,0,103,107,31,35,0,44,-92,0,0,100,0,125,79,13,11,0,59,-90,0,1,30,0,362,1,27,24,0,59,-90,0,0,100,0,362,1,27,24,0,46,-100,0,0,100,0,310,26,54,48,0,50,-80,0,0,100,0,896,152,64,40,0,48,-54,0,0,100,0,0,0,43,19,0,
0,25,-101,-243,0,1,100,0,1248,848,224,336,0,-66,-54,1,0,100,0,840,0,48,56,0,-40,-50,0,0,100,0,608,0,32,32,0,-42,-38,0,0,100,0,736,32,56,48,0,-20,-35,0,0,100,0,688,0,16,16,0,-25,-35,0,0,100,0,704,0,32,16,0,-37,-70,0,0,100,0,792,0,48,56,0,-52,-16,0,0,100,0,944,0,80,32,0,31,-102,0,0,100,0,82,57,25,20,0,61,-104,0,0,100,0,103,34,32,21,0,50,-95,0,0,100,0,124,95,21,9,0,48,-104,0,0,100,0,94,79,29,26,0,49,-88,0,0,100,0,35,107,32,36,0,53,-90,0,0,100,0,142,57,18,18,0,46,-79,0,0,100,0,161,31,35,28,0,54,-68,0,0,100,0,138,33,14,17,0,48,-65,0,0,100,0,161,61,33,14,0,28,-79,0,0,100,0,74,1,27,31,0,40,-88,0,0,100,0,103,107,31,35,0,44,-92,0,0,100,0,125,79,13,11,0,59,-90,0,1,60,0,362,1,27,24,0,59,-90,0,0,100,0,362,1,27,24,0,46,-100,0,0,100,0,310,26,54,48,0,50,-80,0,0,100,0,960,152,64,40,0,48,-54,0,0,100,0,0,0,43,19,0,
0,25,-101,-243,0,1,100,0,1472,848,224,336,0,-66,-54,1,0,100,0,840,0,48,56,0,-40,-50,0,0,100,0,512,0,32,32,0,-42,-38,0,0,100,0,736,32,56,48,0,-20,-35,0,0,100,0,640,0,16,16,0,-25,-35,0,0,100,0,704,0,32,16,0,-37,-70,0,0,100,0,792,0,48,56,0,-52,-16,0,0,100,0,944,0,80,32,0,31,-102,0,0,100,0,1,57,25,20,0,61,-104,0,0,100,0,1,34,32,21,0,50,-95,0,0,100,0,124,95,21,9,0,48,-104,0,0,100,0,1,79,29,26,0,49,-88,0,0,100,0,35,107,32,36,0,53,-90,0,0,100,0,142,57,18,18,0,46,-79,0,0,100,0,161,31,35,28,0,54,-68,0,0,100,0,138,33,14,17,0,48,-65,0,0,100,0,161,61,33,14,0,28,-79,0,0,100,0,103,1,27,31,0,40,-88,0,0,100,0,103,107,31,35,0,44,-92,0,0,100,0,125,79,13,11,0,59,-90,0,1,100,0,362,1,27,24,0,59,-90,0,0,100,0,362,1,27,24,0,46,-100,0,0,100,0,310,26,54,48,0,50,-80,0,0,100,0,896,112,64,40,0,48,-54,0,0,100,0,0,0,43,19,0,
0,25,-101,-243,0,1,100,0,1696,848,224,336,0,-66,-54,1,0,100,0,840,0,48,56,0,-40,-50,0,0,100,0,544,0,32,32,0,-42,-38,0,0,100,0,736,32,56,48,0,-20,-35,0,0,100,0,656,0,16,16,0,-25,-35,0,0,100,0,704,0,32,16,0,-37,-70,0,0,100,0,792,0,48,56,0,-52,-16,0,0,100,0,944,0,80,32,0,31,-102,0,0,100,0,28,57,25,20,0,61,-104,0,0,100,0,35,34,32,21,0,50,-95,0,0,100,0,124,95,21,9,0,48,-104,0,0,100,0,32,79,29,26,0,49,-88,0,0,100,0,35,107,32,36,0,53,-90,0,0,100,0,142,57,18,18,0,46,-79,0,0,100,0,161,31,35,28,0,54,-68,0,0,100,0,138,33,14,17,0,48,-65,0,0,100,0,161,61,33,14,0,28,-79,0,0,100,0,103,1,27,31,0,40,-88,0,0,100,0,103,107,31,35,0,44,-92,0,0,100,0,125,79,13,11,0,59,-90,0,1,60,0,362,1,27,24,0,59,-90,0,0,100,0,362,1,27,24,0,46,-100,0,0,100,0,310,26,54,48,0,50,-80,0,0,100,0,960,112,64,40,0,48,-54,0,0,100,0,0,0,43,19,0,
0,25,-101,-243,0,1,100,0,128,1184,224,336,0,-66,-54,1,0,100,0,840,0,48,56,0,-40,-50,0,0,100,0,576,0,32,32,0,-42,-38,0,0,100,0,736,32,56,48,0,-20,-35,0,0,100,0,672,0,16,16,0,-25,-35,0,0,100,0,704,0,32,16,0,-37,-70,0,0,100,0,792,0,48,56,0,-52,-16,0,0,100,0,944,0,80,32,0,31,-102,0,0,100,0,55,57,25,20,0,61,-104,0,0,100,0,69,34,32,21,0,50,-95,0,0,100,0,124,95,21,9,0,48,-104,0,0,100,0,63,79,29,26,0,49,-88,0,0,100,0,35,107,32,36,0,53,-90,0,0,100,0,142,57,18,18,0,46,-79,0,0,100,0,161,31,35,28,0,54,-68,0,0,100,0,138,33,14,17,0,48,-65,0,0,100,0,161,61,33,14,0,28,-79,0,0,100,0,132,1,27,31,0,40,-88,0,0,100,0,103,107,31,35,0,44,-92,0,0,100,0,125,79,13,11,0,59,-90,0,1,30,0,362,1,27,24,0,59,-90,0,0,100,0,362,1,27,24,0,46,-100,0,0,100,0,310,26,54,48,0,50,-80,0,0,100,0,896,152,64,40,0,48,-54,0,0,100,0,0,0,43,19,0,
0,25,-101,-243,0,1,100,0,352,1184,224,336,0,-66,-54,1,0,100,0,840,0,48,56,0,-40,-50,0,0,100,0,608,0,32,32,0,-42,-38,0,0,100,0,736,32,56,48,0,-20,-35,0,0,100,0,688,0,16,16,0,-25,-35,0,0,100,0,704,0,32,16,0,-37,-70,0,0,100,0,792,0,48,56,0,-52,-16,0,0,100,0,944,0,80,32,0,31,-102,0,0,100,0,82,57,25,20,0,61,-104,0,0,100,0,103,34,32,21,0,50,-95,0,0,100,0,124,95,21,9,0,48,-104,0,0,100,0,94,79,29,26,0,49,-88,0,0,100,0,35,107,32,36,0,53,-90,0,0,100,0,142,57,18,18,0,46,-79,0,0,100,0,161,31,35,28,0,54,-68,0,0,100,0,138,33,14,17,0,48,-65,0,0,100,0,161,61,33,14,0,28,-79,0,0,100,0,132,1,27,31,0,40,-88,0,0,100,0,103,107,31,35,0,44,-92,0,0,100,0,125,79,13,11,0,59,-90,0,1,60,0,362,1,27,24,0,59,-90,0,0,100,0,362,1,27,24,0,46,-100,0,0,100,0,310,26,54,48,0,50,-80,0,0,100,0,960,152,64,40,0,48,-54,0,0,100,0,0,0,43,19,0,
0,25,-101,-243,0,1,100,0,576,1184,224,336,0,-66,-54,1,0,100,0,840,0,48,56,0,-40,-50,0,0,100,0,512,0,32,32,0,-42,-38,0,0,100,0,736,32,56,48,0,-20,-35,0,0,100,0,640,0,16,16,0,-25,-35,0,0,100,0,704,0,32,16,0,-37,-70,0,0,100,0,792,0,48,56,0,-52,-16,0,0,100,0,944,0,80,32,0,31,-102,0,0,100,0,1,57,25,20,0,61,-104,0,0,100,0,1,34,32,21,0,50,-95,0,0,100,0,124,95,21,9,0,48,-104,0,0,100,0,1,79,29,26,0,49,-88,0,0,100,0,35,107,32,36,0,53,-90,0,0,100,0,142,57,18,18,0,46,-79,0,0,100,0,161,31,35,28,0,54,-68,0,0,100,0,138,33,14,17,0,48,-65,0,0,100,0,161,61,33,14,0,28,-79,0,0,100,0,45,1,27,31,0,40,-88,0,0,100,0,103,107,31,35,0,44,-92,0,0,100,0,125,79,13,11,0,59,-90,0,1,100,0,362,1,27,24,0,59,-90,0,0,100,0,362,1,27,24,0,46,-100,0,0,100,0,310,26,54,48,0,50,-80,0,0,100,0,896,112,64,40,0,48,-54,0,0,100,0,0,0,43,19,0,
0,25,-101,-243,0,1,100,0,800,1184,224,336,0,-66,-54,1,0,100,0,840,0,48,56,0,-40,-50,0,0,100,0,544,0,32,32,0,-42,-38,0,0,100,0,736,32,56,48,0,-20,-35,0,0,100,0,656,0,16,16,0,-25,-35,0,0,100,0,704,0,32,16,0,-37,-70,0,0,100,0,792,0,48,56,0,-52,-16,0,0,100,0,944,0,80,32,0,31,-102,0,0,100,0,28,57,25,20,0,61,-104,0,0,100,0,35,34,32,21,0,50,-95,0,0,100,0,124,95,21,9,0,48,-104,0,0,100,0,32,79,29,26,0,49,-88,0,0,100,0,35,107,32,36,0,53,-90,0,0,100,0,142,57,18,18,0,46,-79,0,0,100,0,161,31,35,28,0,54,-68,0,0,100,0,138,33,14,17,0,48,-65,0,0,100,0,161,61,33,14,0,28,-79,0,0,100,0,45,1,27,31,0,40,-88,0,0,100,0,103,107,31,35,0,44,-92,0,0,100,0,125,79,13,11,0,59,-90,0,1,60,0,362,1,27,24,0,59,-90,0,0,100,0,362,1,27,24,0,46,-100,0,0,100,0,310,26,54,48,0,50,-80,0,0,100,0,960,112,64,40,0,48,-54,0,0,100,0,0,0,43,19,0,
0,25,-101,-243,0,1,100,0,1024,1184,224,336,0,-66,-54,1,0,100,0,840,0,48,56,0,-40,-50,0,0,100,0,576,0,32,32,0,-42,-38,0,0,100,0,736,32,56,48,0,-20,-35,0,0,100,0,672,0,16,16,0,-25,-35,0,0,100,0,704,0,32,16,0,-37,-70,0,0,100,0,792,0,48,56,0,-52,-16,0,0,100,0,944,0,80,32,0,31,-102,0,0,100,0,55,57,25,20,0,61,-104,0,0,100,0,69,34,32,21,0,50,-95,0,0,100,0,124,95,21,9,0,48,-104,0,0,100,0,63,79,29,26,0,49,-88,0,0,100,0,35,107,32,36,0,53,-90,0,0,100,0,142,57,18,18,0,46,-79,0,0,100,0,161,31,35,28,0,54,-68,0,0,100,0,138,33,14,17,0,48,-65,0,0,100,0,161,61,33,14,0,28,-79,0,0,100,0,74,1,27,31,0,40,-88,0,0,100,0,103,107,31,35,0,44,-92,0,0,100,0,125,79,13,11,0,59,-90,0,1,30,0,362,1,27,24,0,59,-90,0,0,100,0,362,1,27,24,0,46,-100,0,0,100,0,310,26,54,48,0,50,-80,0,0,100,0,896,152,64,40,0,48,-54,0,0,100,0,0,0,43,19,0,
0,25,-101,-243,0,1,100,0,1248,1184,224,336,0,-66,-54,1,0,100,0,840,0,48,56,0,-40,-50,0,0,100,0,608,0,32,32,0,-42,-38,0,0,100,0,736,32,56,48,0,-20,-35,0,0,100,0,688,0,16,16,0,-25,-35,0,0,100,0,704,0,32,16,0,-37,-70,0,0,100,0,792,0,48,56,0,-52,-16,0,0,100,0,944,0,80,32,0,31,-102,0,0,100,0,82,57,25,20,0,61,-104,0,0,100,0,103,34,32,21,0,50,-95,0,0,100,0,124,95,21,9,0,48,-104,0,0,100,0,94,79,29,26,0,49,-88,0,0,100,0,35,107,32,36,0,53,-90,0,0,100,0,142,57,18,18,0,46,-79,0,0,100,0,161,31,35,28,0,54,-68,0,0,100,0,138,33,14,17,0,48,-65,0,0,100,0,161,61,33,14,0,28,-79,0,0,100,0,74,1,27,31,0,40,-88,0,0,100,0,103,107,31,35,0,44,-92,0,0,100,0,125,79,13,11,0,59,-90,0,1,60,0,362,1,27,24,0,59,-90,0,0,100,0,362,1,27,24,0,46,-100,0,0,100,0,310,26,54,48,0,50,-80,0,0,100,0,960,152,64,40,0,48,-54,0,0,100,0,0,0,43,19,0,
0,25,-101,-243,0,1,100,0,1472,1184,224,336,0,-66,-54,1,0,100,0,840,0,48,56,0,-40,-50,0,0,100,0,512,0,32,32,0,-42,-38,0,0,100,0,736,32,56,48,0,-20,-35,0,0,100,0,640,0,16,16,0,-25,-35,0,0,100,0,704,0,32,16,0,-37,-70,0,0,100,0,792,0,48,56,0,-52,-16,0,0,100,0,944,0,80,32,0,31,-102,0,0,100,0,1,57,25,20,0,61,-104,0,0,100,0,1,34,32,21,0,50,-95,0,0,100,0,124,95,21,9,0,48,-104,0,0,100,0,1,79,29,26,0,49,-88,0,0,100,0,35,107,32,36,0,53,-90,0,0,100,0,142,57,18,18,0,46,-79,0,0,100,0,161,31,35,28,0,54,-68,0,0,100,0,138,33,14,17,0,48,-65,0,0,100,0,161,61,33,14,0,28,-79,0,0,100,0,103,1,27,31,0,40,-88,0,0,100,0,103,107,31,35,0,44,-92,0,0,100,0,125,79,13,11,0,59,-90,0,1,100,0,362,1,27,24,0,59,-90,0,0,100,0,362,1,27,24,0,46,-100,0,0,100,0,310,26,54,48,0,50,-80,0,0,100,0,896,112,64,40,0,48,-54,0,0,100,0,0,0,43,19,0,
0,25,-101,-243,0,1,100,0,1696,1184,224,336,0,-66,-54,1,0,100,0,840,0,48,56,0,-40,-50,0,0,100,0,544,0,32,32,0,-42,-38,0,0,100,0,736,32,56,48,0,-20,-35,0,0,100,0,656,0,16,16,0,-25,-35,0,0,100,0,704,0,32,16,0,-37,-70,0,0,100,0,792,0,48,56,0,-52,-16,0,0,100,0,944,0,80,32,0,31,-102,0,0,100,0,28,57,25,20,0,61,-104,0,0,100,0,35,34,32,21,0,50,-95,0,0,100,0,124,95,21,9,0,48,-104,0,0,100,0,32,79,29,26,0,49,-88,0,0,100,0,35,107,32,36,0,53,-90,0,0,100,0,142,57,18,18,0,46,-79,0,0,100,0,161,31,35,28,0,54,-68,0,0,100,0,138,33,14,17,0,48,-65,0,0,100,0,161,61,33,14,0,28,-79,0,0,100,0,103,1,27,31,0,40,-88,0,0,100,0,103,107,31,35,0,44,-92,0,0,100,0,125,79,13,11,0,59,-90,0,1,60,0,362,1,27,24,0,59,-90,0,0,100,0,362,1,27,24,0,46,-100,0,0,100,0,310,26,54,48,0,50,-80,0,0,100,0,960,112,64,40,0,48,-54,0,0,100,0,0,0,43,19,0,
0,25,-101,-243,0,1,100,0,128,1520,224,336,0,-66,-54,1,0,100,0,840,0,48,56,0,-40,-50,0,0,100,0,576,0,32,32,0,-42,-38,0,0,100,0,736,32,56,48,0,-20,-35,0,0,100,0,672,0,16,16,0,-25,-35,0,0,100,0,704,0,32,16,0,-37,-70,0,0,100,0,792,0,48,56,0,-52,-16,0,0,100,0,944,0,80,32,0,31,-102,0,0,100,0,55,57,25,20,0,61,-104,0,0,100,0,69,34,32,21,0,50,-95,0,0,100,0,124,95,21,9,0,48,-104,0,0,100,0,63,79,29,26,0,49,-88,0,0,100,0,35,107,32,36,0,53,-90,0,0,100,0,142,57,18,18,0,46,-79,0,0,100,0,161,31,35,28,0,54,-68,0,0,100,0,138,33,14,17,0,48,-65,0,0,100,0,161,61,33,14,0,28,-79,0,0,100,0,132,1,27,31,0,40,-88,0,0,100,0,103,107,31,35,0,44,-92,0,0,100,0,125,79,13,11,0,59,-90,0,1,30,0,362,1,27,24,0,59,-90,0,0,100,0,362,1,27,24,0,46,-100,0,0,100,0,310,26,54,48,0,50,-80,0,0,100,0,896,152,64,40,0,48,-54,0,0,100,0,0,0,43,19,0,
0,25,-101,-243,0,1,100,0,352,1520,224,336,0,-66,-54,1,0,100,0,840,0,48,56,0,-40,-50,0,0,100,0,608,0,32,32,0,-42,-38,0,0,100,0,736,32,56,48,0,-20,-35,0,0,100,0,688,0,16,16,0,-25,-35,0,0,100,0,704,0,32,16,0,-37,-70,0,0,100,0,792,0,48,56,0,-52,-16,0,0,100,0,944,0,80,32,0,31,-102,0,0,100,0,82,57,25,20,0,61,-104,0,0,100,0,103,34,32,21,0,50,-95,0,0,100,0,124,95,21,9,0,48,-104,0,0,100,0,94,79,29,26,0,49,-88,0,0,100,0,35,107,32,36,0,53,-90,0,0,100,0,142,57,18,18,0,46,-79,0,0,100,0,161,31,35,28,0,54,-68,0,0,100,0,138,33,14,17,0,48,-65,0,0,100,0,161,61,33,14,0,28,-79,0,0,100,0,132,1,27,31,0,40,-88,0,0,100,0,103,107,31,35,0,44,-92,0,0,100,0,125,79,13,11,0,59,-90,0,1,60,0,362,1,27,24,0,59,-90,0,0,100,0,362,1,27,24,0,46,-100,0,0,100,0,310,26,54,48,0,50,-80,0,0,100,0,960,152,64,40,0,48,-54,0,0,100,0,0,0,43,19,0,
0,25,-101,-243,0,1,100,0,576,1520,224,336,0,-66,-54,1,0,100,0,840,0,48,56,0,-40,-50,0,0,100,0,512,0,32,32,0,-42,-38,0,0,100,0,736,32,56,48,0,-20,-35,0,0,100,0,640,0,16,16,0,-25,-35,0,0,100,0,704,0,32,16,0,-37,-70,0,0,100,0,792,0,48,56,0,-52,-16,0,0,100,0,944,0,80,32,0,31,-102,0,0,100,0,1,57,25,20,0,61,-104,0,0,100,0,1,34,32,21,0,50,-95,0,0,100,0,124,95,21,9,0,48,-104,0,0,100,0,1,79,29,26,0,49,-88,0,0,100,0,35,107,32,36,0,53,-90,0,0,100,0,142,57,18,18,0,46,-79,0,0,100,0,161,31,35,28,0,54,-68,0,0,100,0,138,33,14,17,0,48,-65,0,0,100,0,161,61,33,14,0,28,-79,0,0,100,0,45,1,27,31,0,40,-88,0,0,100,0,103,107,31,35,0,44,-92,0,0,100,0,125,79,13,11,0,59,-90,0,1,100,0,362,1,27,24,0,59,-90,0,0,100,0,362,1,27,24,0,46,-100,0,0,100,0,310,26,54,48,0,50,-80,0,0,100,0,896,112,64,40,0,48,-54,0,0,100,0,0,0,43,19,0,
0,25,-101,-243,0,1,100,0,800,1520,224,336,0,-66,-54,1,0,100,0,840,0,48,56,0,-40,-50,0,0,100,0,544,0,32,32,0,-42,-38,0,0,100,0,736,32,56,48,0,-20,-35,0,0,100,0,656,0,16,16,0,-25,-35,0,0,100,0,704,0,32,16,0,-37,-70,0,0,100,0,792,0,48,56,0,-52,-16,0,0,100,0,944,0,80,32,0,31,-102,0,0,100,0,28,57,25,20,0,61,-104,0,0,100,0,35,34,32,21,0,50,-95,0,0,100,0,124,95,21,9,0,48,-104,0,0,100,0,32,79,29,26,0,49,-88,0,0,100,0,35,107,32,36,0,53,-90,0,0,100,0,142,57,18,18,0,46,-79,0,0,100,0,161,31,35,28,0,54,-68,0,0,100,0,138,33,14,17,0,48,-65,0,0,100,0,161,61,33,14,0,28,-79,0,0,100,0,45,1,27,31,0,40,-88,0,0,100,0,103,107,31,35,0,44,-92,0,0,100,0,125,79,13,11,0,59,-90,0,1,60,0,362,1,27,24,0,59,-90,0,0,100,0,362,1,27,24,0,46,-100,0,0,100,0,310,26,54,48,0,50,-80,0,0,100,0,960,112,64,40,0,48,-54,0,0,100,0,0,0,43,19,0,
0,25,-101,-243,0,1,100,0,1024,1520,224,336,0,-66,-54,1,0,100,0,840,0,48,56,0,-40,-50,0,0,100,0,576,0,32,32,0,-42,-38,0,0,100,0,736,32,56,48,0,-20,-35,0,0,100,0,672,0,16,16,0,-25,-35,0,0,100,0,704,0,32,16,0,-37,-70,0,0,100,0,792,0,48,56,0,-52,-16,0,0,100,0,944,0,80,32,0,31,-102,0,0,100,0,55,57,25,20,0,61,-104,0,0,100,0,69,34,32,21,0,50,-95,0,0,100,0,124,95,21,9,0,48,-104,0,0,100,0,63,79,29,26,0,49,-88,0,0,100,0,35,107,32,36,0,53,-90,0,0,100,0,142,57,18,18,0,46,-79,0,0,100,0,161,31,35,28,0,54,-68,0,0,100,0,138,33,14,17,0,48,-65,0,0,100,0,161,61,33,14,0,28,-79,0,0,100,0,74,1,27,31,0,40,-88,0,0,100,0,103,107,31,35,0,44,-92,0,0,100,0,125,79,13,11,0,59,-90,0,1,30,0,362,1,27,24,0,59,-90,0,0,100,0,362,1,27,24,0,46,-100,0,0,100,0,310,26,54,48,0,50,-80,0,0,100,0,896,152,64,40,0,48,-54,0,0,100,0,0,0,43,19,0,
0,25,-101,-243,0,1,100,0,1248,1520,224,336,0,-66,-54,1,0,100,0,840,0,48,56,0,-40,-50,0,0,100,0,608,0,32,32,0,-42,-38,0,0,100,0,736,32,56,48,0,-20,-35,0,0,100,0,688,0,16,16,0,-25,-35,0,0,100,0,704,0,32,16,0,-37,-70,0,0,100,0,792,0,48,56,0,-52,-16,0,0,100,0,944,0,80,32,0,31,-102,0,0,100,0,82,57,25,20,0,61,-104,0,0,100,0,103,34,32,21,0,50,-95,0,0,100,0,124,95,21,9,0,48,-104,0,0,100,0,94,79,29,26,0,49,-88,0,0,100,0,35,107,32,36,0,53,-90,0,0,100,0,142,57,18,18,0,46,-79,0,0,100,0,161,31,35,28,0,54,-68,0,0,100,0,138,33,14,17,0,48,-65,0,0,100,0,161,61,33,14,0,28,-79,0,0,100,0,74,1,27,31,0,40,-88,0,0,100,0,103,107,31,35,0,44,-92,0,0,100,0,125,79,13,11,0,59,-90,0,1,60,0,362,1,27,24,0,59,-90,0,0,100,0,362,1,27,24,0,46,-100,0,0,100,0,310,26,54,48,0,50,-80,0,0,100,0,960,152,64,40,0,48,-54,0,0,100,0,0,0,43,19,0,
0,25,-101,-243,0,1,90,0,1248,1520,224,336,0,-66,-54,1,0,100,0,840,0,48,56,0,-40,-50,0,0,100,0,512,0,32,32,0,-42,-38,0,0,100,0,736,32,56,48,0,-20,-35,0,0,100,0,640,0,16,16,0,-25,-35,0,0,100,0,704,0,32,16,0,-37,-70,0,0,100,0,792,0,48,56,0,-52,-16,0,0,100,0,944,0,80,32,0,31,-102,0,0,100,0,1,57,25,20,0,61,-104,0,0,100,0,1,34,32,21,0,50,-95,0,0,100,0,124,95,21,9,0,48,-104,0,0,100,0,1,79,29,26,0,49,-88,0,0,100,0,35,107,32,36,0,53,-90,0,0,100,0,142,57,18,18,0,46,-79,0,0,100,0,161,31,35,28,0,54,-68,0,0,100,0,138,33,14,17,0,48,-65,0,0,100,0,161,61,33,14,0,28,-79,0,0,100,0,103,1,27,31,0,40,-88,0,0,100,0,103,107,31,35,0,44,-92,0,0,100,0,125,79,13,11,0,59,-90,0,1,100,0,362,1,27,24,0,59,-90,0,0,100,0,362,1,27,24,0,46,-100,0,0,100,0,310,26,54,48,0,50,-80,0,0,100,0,896,112,64,40,0,48,-54,0,0,100,0,0,0,43,19,0,
0,25,-101,-243,0,1,60,0,1248,1520,224,336,0,-66,-54,1,0,100,0,840,0,48,56,0,-40,-50,0,0,100,0,544,0,32,32,0,-42,-38,0,0,100,0,736,32,56,48,0,-20,-35,0,0,100,0,656,0,16,16,0,-25,-35,0,0,100,0,704,0,32,16,0,-37,-70,0,0,100,0,792,0,48,56,0,-52,-16,0,0,100,0,944,0,80,32,0,31,-102,0,0,100,0,28,57,25,20,0,61,-104,0,0,100,0,35,34,32,21,0,50,-95,0,0,100,0,124,95,21,9,0,48,-104,0,0,100,0,32,79,29,26,0,49,-88,0,0,100,0,35,107,32,36,0,53,-90,0,0,100,0,142,57,18,18,0,46,-79,0,0,100,0,161,31,35,28,0,54,-68,0,0,100,0,138,33,14,17,0,48,-65,0,0,100,0,161,61,33,14,0,28,-79,0,0,100,0,103,1,27,31,0,40,-88,0,0,100,0,103,107,31,35,0,44,-92,0,0,100,0,125,79,13,11,0,59,-90,0,1,60,0,362,1,27,24,0,59,-90,0,0,100,0,362,1,27,24,0,46,-100,0,0,100,0,310,26,54,48,0,50,-80,0,0,100,0,960,112,64,40,0,48,-54,0,0,100,0,0,0,43,19,0,
