0,2,80,-77,0,0,80,0,0,0,104,72,0,100,-27,0,0,65,0,1176,80,48,24,0,
0,2,-20,-77,0,0,100,0,0,0,104,72,0,0,-27,0,0,65,0,1176,80,48,24,0,
0,2,-90,-77,0,0,100,0,0,0,104,72,0,-70,-27,0,0,65,0,1176,80,48,24,0,
0,10,-206,-118,0,1,100,0,0,616,216,128,0,-186,-78,0,1,100,0,0,224,176,96,0,100,-43,0,0,80,0,1240,0,88,96,0,-130,-66,0,0,100,0,104,0,104,72,0,-112,-68,0,0,100,0,448,208,80,40,0,-117,-60,0,0,100,0,448,248,80,40,0,80,-133,0,0,80,0,0,1816,104,72,0,-117,-25,0,0,65,0,1176,80,48,24,0,116,26,0,0,65,0,1176,104,48,24,0,104,-86,0,0,65,0,1176,104,48,24,0,
0,10,-216,-118,0,1,100,0,216,616,256,128,0,-120,-44,0,1,100,0,0,320,104,48,0,80,-43,0,0,100,0,1240,0,88,96,0,-139,-58,0,0,100,0,0,72,104,56,0,-121,-60,0,0,100,0,528,208,80,40,0,-126,-52,0,0,100,0,528,248,80,40,0,60,-133,0,0,100,0,0,1816,104,72,0,-125,-25,0,0,65,0,1176,80,48,24,0,96,26,0,0,65,0,1176,104,48,24,0,84,-86,0,0,65,0,1176,104,48,24,0,
0,9,-220,-118,0,1,100,0,472,616,248,128,0,30,-43,0,0,100,0,1240,0,88,96,0,-142,-58,0,0,100,0,104,72,104,56,0,-124,-60,0,0,100,0,288,208,80,40,0,-129,-52,0,0,100,0,288,248,80,40,0,10,-133,0,0,100,0,0,1816,104,72,0,-127,-25,0,0,65,0,1176,80,48,24,0,46,26,0,0,65,0,1176,104,48,24,0,34,-86,0,0,65,0,1176,104,48,24,0,
0,9,-20,-51,0,0,100,0,1328,0,96,96,0,-143,-58,0,0,100,0,104,72,104,56,0,-125,-60,0,0,100,0,368,208,80,40,0,-130,-52,0,0,100,0,368,248,80,40,0,-20,-133,0,0,100,0,104,1816,104,72,0,-5,-117,0,0,100,0,304,1688,80,40,0,-128,-25,0,0,65,0,1176,80,48,24,0,24,26,0,0,65,0,1176,80,48,24,0,4,-86,0,0,65,0,1176,80,48,24,0,
0,11,-32,-21,0,0,100,0,1424,0,128,72,0,-220,-132,0,1,100,0,0,744,176,184,0,-190,-105,0,1,100,0,0,368,176,136,0,-128,-60,1,0,100,0,448,288,40,80,0,-115,-58,0,0,100,0,288,288,40,80,0,-133,-96,0,0,100,0,208,0,80,96,0,-30,-133,0,0,100,0,0,1744,104,72,0,-18,-116,0,0,100,0,384,1688,80,40,0,-118,-25,0,0,65,0,1176,80,48,24,0,13,26,0,0,65,0,1176,80,48,24,0,-6,-86,0,0,65,0,1176,80,48,24,0,
0,11,-37,-21,0,0,100,0,1552,0,128,72,0,-214,-112,0,1,100,0,176,744,176,184,0,-146,-95,0,1,100,0,104,320,104,48,0,-118,-60,1,0,100,0,488,288,40,80,0,-105,-58,0,0,100,0,328,288,40,80,0,-123,-96,0,0,100,0,0,128,80,96,0,-34,-133,0,0,100,0,0,1744,104,72,0,-22,-114,0,0,100,0,464,1688,80,40,0,-110,-25,0,0,65,0,1176,80,48,24,0,9,26,0,0,65,0,1176,80,48,24,0,-10,-86,0,0,65,0,1176,80,48,24,0,
0,12,-49,-54,0,1,100,0,1104,624,160,120,0,-34,-21,0,0,100,0,1680,0,128,72,0,-208,-102,0,1,100,0,352,744,176,184,0,-117,-60,1,0,100,0,528,288,40,80,0,-104,-58,0,0,100,0,368,288,40,80,0,-121,-96,0,0,100,0,80,128,80,96,0,3,-116,0,1,100,0,1448,1768,80,40,0,-36,-133,0,0,100,0,104,1744,104,72,0,-24,-115,0,0,100,0,224,1688,80,40,0,-108,-25,0,0,65,0,1176,80,48,24,0,2,26,0,0,65,0,1176,80,48,24,0,-13,-86,0,0,65,0,1176,80,48,24,0,
0,12,-51,-54,0,1,100,0,1264,624,160,120,0,-36,-21,0,0,100,0,1424,72,128,72,0,-116,-60,1,0,100,0,568,288,40,80,0,-103,-58,0,0,100,0,408,288,40,80,0,-120,-96,0,0,100,0,80,128,80,96,0,-4,-118,0,1,100,0,1448,1728,80,40,0,3,-116,0,1,100,0,1528,1768,80,40,0,-37,-133,0,0,100,0,104,1744,104,72,0,-24,-113,0,0,100,0,304,1688,80,40,0,-107,-25,0,0,65,0,1176,80,48,24,0,-4,26,0,0,65,0,1176,80,48,24,0,-14,-86,0,0,65,0,1176,80,48,24,0,
0,12,-51,-54,0,1,100,0,1424,624,160,120,0,-37,-21,0,0,100,0,1424,72,128,72,0,-114,-56,0,0,100,0,176,208,56,40,0,-108,-98,0,0,100,0,288,0,96,96,0,13,-106,2,1,100,0,1448,1768,80,40,0,-4,-118,0,1,100,0,1528,1728,80,40,0,3,-116,0,1,100,0,1608,1768,80,40,0,-37,-133,0,0,100,0,104,1744,104,72,0,-27,-111,0,0,100,0,0,1664,80,40,0,-101,-25,0,0,65,0,1176,80,48,24,0,-5,26,0,0,65,0,1176,80,48,24,0,-14,-86,0,0,65,0,1176,80,48,24,0,
0,12,-51,-54,0,1,100,0,1584,624,160,120,0,-38,-21,0,0,100,0,1424,72,128,72,0,-113,-97,0,0,100,0,384,0,80,96,0,-115,-75,0,0,100,0,232,208,56,40,0,13,-106,2,1,100,0,1528,1768,80,40,0,-4,-118,0,1,100,0,1608,1728,80,40,0,3,-116,0,1,100,0,1688,1768,80,40,0,-37,-133,0,0,100,0,104,1744,104,72,0,-24,-110,0,0,100,0,0,1704,80,40,0,-103,-25,0,0,65,0,1176,80,48,24,0,-6,26,0,0,65,0,1176,80,48,24,0,-14,-86,0,0,65,0,1176,80,48,24,0,
0,17,-135,-60,0,1,100,0,1744,624,160,120,0,-32,-37,0,1,100,0,1304,552,104,72,0,-60,-40,0,1,100,0,1304,552,104,72,0,-115,-27,0,0,100,0,1280,96,144,56,0,-148,-70,0,0,100,0,464,0,96,96,0,-103,-64,0,0,100,0,448,208,80,40,0,-110,-70,0,0,100,0,448,248,80,40,0,-4,-101,0,1,100,0,1528,1848,80,40,0,-17,-101,0,1,100,0,1448,1768,80,40,0,-34,-98,0,1,100,0,1448,1728,80,40,0,13,-106,2,1,100,0,1608,1768,80,40,0,-4,-118,0,1,100,0,1688,1728,80,40,0,-17,-164,0,1,100,0,1240,1688,88,120,0,-70,-113,0,0,100,0,0,1816,104,72,0,-109,-25,0,0,65,0,1176,80,48,24,0,-39,9,0,0,65,0,1176,104,48,24,0,-45,-67,0,0,65,0,1176,104,48,24,0,
0,31,-61,-83,0,1,100,0,1528,1728,80,40,0,-90,-55,0,1,100,0,1528,1848,80,40,0,-177,-1,0,1,100,0,1528,1728,80,40,0,-117,-31,0,1,100,0,1528,1768,80,40,0,-137,-11,0,1,100,0,1528,1848,80,40,0,-147,-1,0,1,100,0,1448,1768,80,40,0,-164,2,0,1,100,0,1448,1728,80,40,0,-4,-101,0,1,100,0,1608,1848,80,40,0,-17,-101,0,1,100,0,1528,1768,80,40,0,-34,-98,0,1,100,0,1528,1728,80,40,0,13,-106,2,1,100,0,1688,1768,80,40,0,-190,-24,0,1,100,0,1256,1208,152,88,0,-169,-23,0,0,100,0,304,1688,80,40,0,-200,-33,0,0,100,0,208,1728,104,80,0,-17,-164,0,1,100,0,1328,1688,88,120,0,-85,-98,0,0,50,0,0,1816,104,72,0,-236,-212,0,1,100,0,0,928,136,264,0,-212,-225,0,1,100,0,176,368,136,248,0,-137,-208,0,0,100,0,208,96,80,112,0,-97,-152,0,0,100,0,448,288,40,80,0,-116,-153,0,0,100,0,288,288,40,80,0,-265,-126,0,1,100,0,1744,624,160,120,0,-220,-110,0,1,100,0,1304,552,104,72,0,-140,-90,0,1,100,0,1304,552,104,72,0,-170,-100,0,1,100,0,1304,552,104,72,0,-32,-37,0,1,100,0,1408,552,104,72,0,-100,-50,0,1,100,0,1408,552,104,72,0,-242,-92,0,0,100,0,1280,152,144,56,0,-116,-25,0,0,65,0,1176,104,48,24,0,-165,9,0,0,65,0,1176,80,48,24,0,-166,-53,0,0,65,0,1176,80,48,24,0,
0,34,-284,-21,3,1,100,0,1448,1648,40,80,0,-322,-42,3,1,100,0,1448,1848,80,40,0,-222,28,2,1,100,0,1448,1848,80,40,0,-262,-2,1,1,100,0,1528,1768,80,40,0,-216,9,0,1,100,0,1528,1808,80,40,0,-61,-83,0,1,100,0,1608,1728,80,40,0,-90,-55,0,1,100,0,1608,1848,80,40,0,-177,-1,0,1,100,0,1608,1728,80,40,0,-117,-31,0,1,100,0,1608,1768,80,40,0,-137,-11,0,1,100,0,1608,1848,80,40,0,-147,-1,0,1,100,0,1528,1768,80,40,0,-164,2,0,1,100,0,1528,1728,80,40,0,-4,-101,0,1,100,0,1688,1848,80,40,0,-17,-101,0,1,100,0,1608,1768,80,40,0,-34,-98,0,1,100,0,1608,1728,80,40,0,-290,-48,0,1,100,0,1408,1184,152,112,0,-192,-10,0,0,100,0,384,1688,80,40,0,-224,-39,0,0,100,0,208,1808,104,80,0,-240,-170,0,1,100,0,136,928,136,264,0,-208,-225,0,1,100,0,312,368,136,168,0,-139,-228,0,0,100,0,288,96,80,112,0,-99,-172,0,0,100,0,488,288,40,80,0,-118,-173,0,0,100,0,328,288,40,80,0,-292,-140,0,1,100,0,1744,624,160,120,0,-230,-113,0,1,100,0,1304,552,104,72,0,-220,-110,0,1,100,0,1408,552,104,72,0,-140,-90,0,1,100,0,1408,552,104,72,0,-170,-100,0,1,100,0,1408,552,104,72,0,-32,-37,0,1,100,0,1512,552,104,72,0,-100,-50,0,1,100,0,1512,552,104,72,0,-272,-105,0,0,100,0,1568,96,144,56,0,-118,-25,0,0,65,0,1176,104,48,24,0,-186,22,0,0,65,0,1176,80,48,24,0,-192,-67,0,0,65,0,1176,80,48,24,0,
0,34,-284,-21,3,1,100,0,1488,1648,40,80,0,-322,-42,3,1,100,0,1528,1848,80,40,0,-222,28,2,1,100,0,1528,1848,80,40,0,-262,-2,1,1,100,0,1608,1768,80,40,0,-216,9,0,1,100,0,1608,1808,80,40,0,-61,-83,0,1,100,0,1688,1728,80,40,0,-90,-55,0,1,100,0,1688,1848,80,40,0,-177,-1,0,1,100,0,1688,1728,80,40,0,-117,-31,0,1,100,0,1688,1768,80,40,0,-137,-11,0,1,100,0,1688,1848,80,40,0,-147,-1,0,1,100,0,1608,1768,80,40,0,-164,2,0,1,100,0,1608,1728,80,40,0,-17,-101,0,1,100,0,1688,1768,80,40,0,-34,-98,0,1,100,0,1688,1728,80,40,0,-310,-68,0,1,100,0,1560,1184,152,112,0,-203,-7,0,0,100,0,464,1688,80,40,0,-236,-32,0,0,100,0,312,1728,104,80,0,-234,-170,0,1,100,0,272,928,136,264,0,-168,-237,0,1,100,0,312,536,136,80,0,-141,-230,0,0,100,0,368,96,80,112,0,-101,-174,0,0,100,0,528,288,40,80,0,-120,-175,0,0,100,0,368,288,40,80,0,-290,-145,0,1,100,0,1304,552,104,72,0,-280,-98,2,1,100,0,1304,552,104,72,0,-270,-125,0,1,100,0,1304,552,104,72,0,-256,-118,0,1,100,0,1408,552,104,72,0,-230,-113,0,1,100,0,1408,552,104,72,0,-220,-110,0,1,100,0,1512,552,104,72,0,-140,-90,0,1,100,0,1512,552,104,72,0,-170,-100,0,1,100,0,1512,552,104,72,0,-288,-115,0,0,100,0,1712,96,144,56,0,-120,-25,0,0,65,0,1176,104,48,24,0,-197,29,0,0,65,0,1176,80,48,24,0,-208,-76,0,0,65,0,1176,80,48,24,0,
0,20,-284,-21,3,1,100,0,1528,1648,40,80,0,-322,-42,3,1,100,0,1608,1848,80,40,0,-222,28,2,1,100,0,1608,1848,80,40,0,-262,-2,1,1,100,0,1688,1768,80,40,0,-216,9,0,1,100,0,1688,1808,80,40,0,-147,-1,0,1,100,0,1688,1768,80,40,0,-164,2,0,1,100,0,1688,1728,80,40,0,-230,-23,0,0,100,0,520,1808,104,80,0,-142,-231,0,0,100,0,448,96,80,112,0,-102,-175,0,0,100,0,568,288,40,80,0,-121,-176,0,0,100,0,408,288,40,80,0,-290,-145,0,1,100,0,1408,552,104,72,0,-280,-98,2,1,100,0,1408,552,104,72,0,-270,-125,0,1,100,0,1408,552,104,72,0,-256,-118,0,1,100,0,1512,552,104,72,0,-230,-113,0,1,100,0,1512,552,104,72,0,-292,-117,0,0,100,0,1568,152,144,56,0,-121,-25,0,0,65,0,1176,104,48,24,0,-195,29,0,0,65,0,1176,80,48,24,0,-212,-78,0,0,65,0,1176,80,48,24,0,
0,16,-254,5,1,1,100,0,1448,1768,80,40,0,-284,-21,3,1,100,0,1568,1648,40,80,0,-322,-42,3,1,100,0,1688,1848,80,40,0,-222,28,2,1,100,0,1688,1848,80,40,0,-241,-11,1,0,100,0,104,1816,104,72,0,-232,2,1,0,100,0,224,1688,80,40,0,-143,-231,0,0,100,0,448,96,80,112,0,-103,-175,0,0,100,0,448,288,40,80,0,-122,-176,0,0,100,0,288,288,40,80,0,-290,-145,0,1,100,0,1512,552,104,72,0,-280,-98,2,1,100,0,1512,552,104,72,0,-270,-125,0,1,100,0,1512,552,104,72,0,-294,-118,0,0,100,0,1712,152,144,56,0,-122,-25,0,0,65,0,1176,104,48,24,0,-209,36,0,0,65,0,1176,80,48,24,0,-214,-79,0,0,65,0,1176,80,48,24,0,
0,11,-256,13,1,1,100,0,1448,1728,80,40,0,-254,5,1,1,100,0,1528,1768,80,40,0,-244,-10,1,0,100,0,0,1744,104,72,0,-233,7,1,0,100,0,304,1688,80,40,0,-145,-230,0,0,100,0,528,96,80,112,0,-109,-194,0,0,100,0,488,288,40,80,0,-123,-192,0,0,100,0,328,288,40,80,0,-295,-118,0,0,100,0,1568,96,144,56,0,-124,-25,0,0,65,0,1176,104,48,24,0,-211,37,0,0,65,0,1176,80,48,24,0,-215,-79,0,0,65,0,1176,80,48,24,0,
0,12,-267,3,1,1,100,0,1448,1848,80,40,0,-256,13,1,1,100,0,1528,1728,80,40,0,-254,5,1,1,100,0,1608,1768,80,40,0,-246,-9,1,0,100,0,104,1744,104,72,0,-234,8,1,0,100,0,384,1688,80,40,0,-153,-222,0,0,100,0,528,96,80,112,0,-113,-210,2,0,100,0,528,288,40,80,0,-133,-212,2,0,100,0,368,288,40,80,0,-295,-118,0,0,100,0,1712,96,144,56,0,-131,-25,0,0,65,0,1176,104,48,24,0,-212,38,0,0,65,0,1176,80,48,24,0,-215,-79,0,0,65,0,1176,80,48,24,0,
0,15,-257,16,1,1,100,0,1448,1808,80,40,0,-267,3,1,1,100,0,1528,1848,80,40,0,-256,13,1,1,100,0,1608,1728,80,40,0,-254,5,1,1,100,0,1688,1768,80,40,0,-247,-9,1,0,100,0,104,1744,104,72,0,-235,8,1,0,100,0,464,1688,80,40,0,-264,-246,0,1,100,0,408,928,160,264,0,-242,-217,0,1,100,0,448,368,136,248,0,-192,-54,0,0,100,0,560,0,88,72,0,-141,-90,2,0,100,0,568,288,40,80,0,-161,-92,2,0,100,0,408,288,40,80,0,-295,-118,0,0,100,0,1568,152,144,56,0,-170,-15,0,0,65,0,1224,104,56,24,0,-213,38,0,0,65,0,1176,80,48,24,0,-215,-79,0,0,65,0,1176,80,48,24,0,
0,15,-276,18,3,1,100,0,1448,1768,80,40,0,-257,16,1,1,100,0,1528,1808,80,40,0,-267,3,1,1,100,0,1608,1848,80,40,0,-256,13,1,1,100,0,1688,1728,80,40,0,-248,-9,1,0,100,0,104,1744,104,72,0,-236,9,1,0,100,0,224,1688,80,40,0,-273,-246,0,1,100,0,568,928,216,264,0,-245,-125,0,1,100,0,584,368,136,168,0,-195,-44,0,0,100,0,608,72,88,64,0,-145,-51,0,0,100,0,248,248,40,40,0,-181,-48,0,0,100,0,208,248,40,40,0,-291,-117,0,0,100,0,1424,152,144,56,0,-172,-15,0,0,65,0,1224,104,56,24,0,-214,38,0,0,65,0,1176,80,48,24,0,-217,-79,0,0,65,0,1176,80,48,24,0,
0,15,-261,22,3,1,100,0,1448,1728,80,40,0,-276,18,3,1,100,0,1528,1768,80,40,0,-257,16,1,1,100,0,1608,1808,80,40,0,-267,3,1,1,100,0,1688,1848,80,40,0,-248,-9,1,0,100,0,104,1744,104,72,0,-236,9,1,0,100,0,304,1688,80,40,0,-263,-250,0,1,100,0,528,744,216,184,0,-245,-37,0,1,100,0,584,536,136,80,0,-196,-44,0,0,100,0,608,136,88,64,0,-147,-39,0,0,100,0,248,288,40,40,0,-183,-36,0,0,100,0,208,288,40,40,0,-163,-152,0,0,100,0,1808,0,96,96,0,-173,-15,0,0,65,0,1224,104,56,24,0,-214,38,0,0,65,0,1176,80,48,24,0,-134,-47,0,0,65,0,1176,104,48,24,0,
0,13,-265,8,1,1,100,0,1448,1768,80,40,0,-261,22,3,1,100,0,1528,1728,80,40,0,-276,18,3,1,100,0,1608,1768,80,40,0,-257,16,1,1,100,0,1688,1808,80,40,0,-248,-9,1,0,100,0,104,1744,104,72,0,-235,14,1,0,100,0,0,1664,80,40,0,-197,-44,0,0,100,0,608,136,88,64,0,-149,-39,0,0,100,0,248,328,40,40,0,-184,-36,0,0,100,0,208,328,40,40,0,-109,-159,0,0,100,0,1808,0,96,96,0,-81,-33,0,0,65,0,1176,104,48,24,0,-174,-15,0,0,65,0,1224,104,56,24,0,-214,38,0,0,65,0,1176,80,48,24,0,
0,12,-265,8,1,1,100,0,1528,1768,80,40,0,-261,22,3,1,100,0,1608,1728,80,40,0,-276,18,3,1,100,0,1688,1768,80,40,0,-248,-9,1,0,100,0,104,1744,104,72,0,-237,15,1,0,100,0,0,1704,80,40,0,-197,-44,0,0,100,0,608,136,88,64,0,-148,-39,0,0,100,0,248,328,40,40,0,-185,-36,0,0,100,0,208,328,40,40,0,-58,-127,0,0,100,0,1808,0,96,96,0,-31,-22,0,0,65,0,1176,104,48,24,0,-174,-15,0,0,65,0,1224,104,56,24,0,-214,38,0,0,65,0,1176,80,48,24,0,
0,11,-265,8,1,1,100,0,1608,1768,80,40,0,-261,22,3,1,100,0,1688,1728,80,40,0,-246,-10,1,0,100,0,104,1744,104,72,0,-236,14,1,0,100,0,0,1704,80,40,0,-198,-44,0,0,100,0,608,136,88,64,0,-149,-39,0,0,100,0,248,328,40,40,0,-186,-36,0,0,100,0,208,328,40,40,0,-38,-58,0,0,100,0,1424,0,128,72,0,5,-10,0,0,65,0,1176,80,48,24,0,-175,-15,0,0,65,0,1224,104,56,24,0,-213,37,0,0,65,0,1176,80,48,24,0,
0,21,-46,-87,2,1,100,0,1448,1848,80,40,0,-86,-27,3,1,100,0,1448,1848,80,40,0,-38,-58,3,1,100,0,1448,1648,40,80,0,-148,8,3,1,100,0,1448,1768,80,40,0,-228,-2,3,1,100,0,1448,1808,80,40,0,-108,-18,3,1,100,0,1528,1848,80,40,0,-198,8,3,1,100,0,1528,1848,80,40,0,-231,30,3,1,100,0,1528,1728,80,40,0,-265,8,1,1,100,0,1688,1768,80,40,0,-287,-37,1,1,100,0,1240,1688,88,120,0,-190,-88,0,1,100,0,1320,1296,216,136,0,-233,-9,1,0,50,0,0,1816,104,72,0,-136,-50,1,0,100,0,304,1688,80,40,0,-128,-79,1,0,100,0,208,1808,104,80,0,-198,-44,0,0,100,0,608,136,88,64,0,-149,-39,0,0,100,0,248,328,40,40,0,-186,-36,0,0,100,0,208,328,40,40,0,-30,-49,0,0,100,0,1360,208,136,64,0,27,-10,0,0,65,0,1176,80,48,24,0,-175,-15,0,0,65,0,1224,104,56,24,0,-110,-18,0,0,65,0,1176,80,48,24,0,
0,19,-38,-58,3,1,100,0,1488,1648,40,80,0,-46,-87,2,1,100,0,1528,1848,80,40,0,-86,-27,3,1,100,0,1528,1848,80,40,0,-148,8,3,1,100,0,1528,1768,80,40,0,-228,-2,3,1,100,0,1528,1808,80,40,0,-108,-18,3,1,100,0,1608,1848,80,40,0,-198,8,3,1,100,0,1608,1848,80,40,0,-231,30,3,1,100,0,1608,1728,80,40,0,-287,-37,1,1,100,0,1328,1688,88,120,0,-152,-118,0,1,100,0,1536,1296,176,136,0,-135,-53,1,0,100,0,384,1688,80,40,0,-126,-80,1,0,100,0,312,1728,104,80,0,-198,-44,0,0,100,0,608,136,88,64,0,-149,-39,0,0,100,0,248,328,40,40,0,-186,-36,0,0,100,0,208,328,40,40,0,-16,-49,0,0,100,0,1632,208,136,64,0,32,-10,0,0,65,0,1176,80,48,24,0,-175,-15,0,0,65,0,1224,104,56,24,0,-109,-19,0,0,65,0,1176,80,48,24,0,
0,25,-113,-88,2,1,100,0,1488,1648,40,80,0,-226,-97,2,1,100,0,1528,1848,80,40,0,-191,-78,2,1,100,0,1528,1728,80,40,0,-168,-92,3,1,100,0,1528,1848,80,40,0,-128,-52,1,1,100,0,1528,1848,80,40,0,-38,-58,3,1,100,0,1528,1648,40,80,0,-46,-87,2,1,100,0,1608,1848,80,40,0,-86,-27,3,1,100,0,1608,1848,80,40,0,-148,8,3,1,100,0,1608,1768,80,40,0,-228,-2,3,1,100,0,1608,1808,80,40,0,-108,-18,3,1,100,0,1688,1848,80,40,0,-198,8,3,1,100,0,1688,1848,80,40,0,-231,30,3,1,100,0,1688,1728,80,40,0,-73,-99,0,1,100,0,1240,1688,88,120,0,-204,-100,0,1,100,0,1536,1432,176,96,0,-113,-71,0,0,50,0,0,1816,104,72,0,-185,-122,0,0,100,0,464,1688,80,40,0,-216,-130,0,0,100,0,208,1728,104,80,0,-198,-44,0,0,100,0,608,136,88,64,0,-149,-39,0,0,100,0,248,328,40,40,0,-186,-36,0,0,100,0,208,328,40,40,0,-15,-49,0,0,100,0,1768,208,136,64,0,33,-10,0,0,65,0,1176,80,48,24,0,-175,-15,0,0,65,0,1224,104,56,24,0,-180,-89,0,0,65,0,1176,80,48,24,0,
0,26,-211,-98,0,1,100,0,1448,1728,80,40,0,-277,-148,2,1,100,0,1608,1648,40,80,0,-247,-118,2,1,100,0,1448,1648,40,80,0,-236,-97,2,1,100,0,1448,1848,80,40,0,-113,-88,2,1,100,0,1528,1648,40,80,0,-226,-97,2,1,100,0,1608,1848,80,40,0,-191,-78,2,1,100,0,1608,1728,80,40,0,-168,-92,3,1,100,0,1608,1848,80,40,0,-128,-52,1,1,100,0,1608,1848,80,40,0,-38,-58,3,1,100,0,1568,1648,40,80,0,-46,-87,2,1,100,0,1688,1848,80,40,0,-86,-27,3,1,100,0,1688,1848,80,40,0,-148,8,3,1,100,0,1688,1768,80,40,0,-228,-2,3,1,100,0,1688,1808,80,40,0,-73,-99,0,1,100,0,1328,1688,88,120,0,-282,-168,1,1,100,0,1320,1296,216,136,0,-204,-132,0,0,100,0,224,1688,80,40,0,-236,-160,0,0,100,0,208,1808,104,80,0,-198,-44,0,0,100,0,608,136,88,64,0,-149,-39,0,0,100,0,248,328,40,40,0,-186,-36,0,0,100,0,208,328,40,40,0,-29,-91,0,1,100,0,1104,624,160,120,0,-6,-49,0,0,100,0,1496,272,136,64,0,33,-10,0,0,65,0,1176,80,48,24,0,-175,-15,0,0,65,0,1224,104,56,24,0,-199,-99,0,0,65,0,1176,80,48,24,0,
0,20,-211,-98,0,1,100,0,1528,1728,80,40,0,-277,-148,2,1,100,0,1648,1648,40,80,0,-247,-118,2,1,100,0,1488,1648,40,80,0,-236,-97,2,1,100,0,1528,1848,80,40,0,-113,-88,2,1,100,0,1568,1648,40,80,0,-226,-97,2,1,100,0,1688,1848,80,40,0,-191,-78,2,1,100,0,1688,1728,80,40,0,-168,-92,3,1,100,0,1688,1848,80,40,0,-128,-52,1,1,100,0,1688,1848,80,40,0,-272,-208,1,1,100,0,1536,1296,176,136,0,-205,-134,0,0,100,0,304,1688,80,40,0,-238,-161,0,0,100,0,312,1728,104,80,0,-198,-44,0,0,100,0,608,136,88,64,0,-149,-39,0,0,100,0,248,328,40,40,0,-186,-36,0,0,100,0,208,328,40,40,0,-18,-92,0,1,100,0,1304,552,104,72,0,-6,-49,0,0,100,0,1632,272,136,64,0,33,-10,0,0,65,0,1176,80,48,24,0,-175,-15,0,0,65,0,1224,104,56,24,0,-200,-100,0,0,65,0,1176,80,48,24,0,
0,17,-211,-98,0,1,100,0,1608,1728,80,40,0,-277,-148,2,1,100,0,1688,1648,40,80,0,-247,-118,2,1,100,0,1528,1648,40,80,0,-236,-97,2,1,100,0,1608,1848,80,40,0,-113,-88,2,1,100,0,1568,1648,40,80,0,-256,-171,0,1,100,0,1712,1120,160,64,0,-206,-134,0,0,100,0,384,1688,80,40,0,-239,-161,0,0,100,0,312,1728,104,80,0,-198,-44,0,0,100,0,608,136,88,64,0,-149,-39,0,0,100,0,248,328,40,40,0,-186,-36,0,0,100,0,208,328,40,40,0,2,-32,2,1,100,0,1304,552,104,72,0,-18,-92,0,1,100,0,1408,552,104,72,0,-5,-49,0,0,100,0,1768,272,136,64,0,34,-10,0,0,65,0,1176,80,48,24,0,-175,-15,0,0,65,0,1224,104,56,24,0,-201,-100,0,0,65,0,1176,80,48,24,0,
0,16,-211,-98,0,1,100,0,1688,1728,80,40,0,-277,-148,2,1,100,0,1728,1648,40,80,0,-247,-118,2,1,100,0,1568,1648,40,80,0,-236,-97,2,1,100,0,1688,1848,80,40,0,-207,-135,0,0,100,0,464,1688,80,40,0,-240,-162,0,0,100,0,312,1728,104,80,0,-198,-44,0,0,100,0,608,136,88,64,0,-149,-39,0,0,100,0,248,328,40,40,0,-186,-36,0,0,100,0,208,328,40,40,0,-18,-39,2,1,100,0,1304,552,104,72,0,2,-32,2,1,100,0,1408,552,104,72,0,-18,-92,0,1,100,0,1512,552,104,72,0,-5,-49,0,0,100,0,1360,272,136,64,0,34,-10,0,0,65,0,1176,80,48,24,0,-175,-15,0,0,65,0,1224,104,56,24,0,-202,-101,0,0,65,0,1176,80,48,24,0,
0,12,-208,-135,0,0,100,0,224,1688,80,40,0,-241,-162,0,0,100,0,312,1728,104,80,0,-198,-44,0,0,100,0,608,136,88,64,0,-149,-39,0,0,100,0,248,328,40,40,0,-186,-36,0,0,100,0,208,328,40,40,0,2,-95,0,1,100,0,1304,552,104,72,0,-18,-39,2,1,100,0,1408,552,104,72,0,2,-32,2,1,100,0,1512,552,104,72,0,-5,-49,0,0,100,0,1496,272,136,64,0,34,-10,0,0,65,0,1176,80,48,24,0,-175,-15,0,0,65,0,1224,104,56,24,0,-203,-101,0,0,65,0,1176,80,48,24,0,
0,11,-208,-135,0,0,100,0,304,1688,80,40,0,-241,-162,0,0,100,0,312,1728,104,80,0,-198,-44,0,0,100,0,608,136,88,64,0,-149,-39,0,0,100,0,248,328,40,40,0,-186,-36,0,0,100,0,208,328,40,40,0,2,-95,0,1,100,0,1408,552,104,72,0,-18,-39,2,1,100,0,1512,552,104,72,0,-5,-49,0,0,100,0,1632,272,136,64,0,34,-10,0,0,65,0,1176,80,48,24,0,-175,-15,0,0,65,0,1224,104,56,24,0,-203,-101,0,0,65,0,1176,80,48,24,0,
0,11,-208,-135,0,0,100,0,384,1688,80,40,0,-241,-162,0,0,100,0,312,1728,104,80,0,-198,-44,0,0,100,0,608,136,88,64,0,-149,-39,0,0,100,0,248,328,40,40,0,-186,-36,0,0,100,0,208,328,40,40,0,2,-95,0,1,100,0,1512,552,104,72,0,-68,-79,0,1,100,0,944,904,120,136,0,-5,-49,0,0,100,0,1768,272,136,64,0,34,-10,0,0,65,0,1176,80,48,24,0,-175,-15,0,0,65,0,1224,104,56,24,0,-203,-101,0,0,65,0,1176,80,48,24,0,
0,12,-209,-134,0,0,100,0,464,1688,80,40,0,-241,-162,0,0,100,0,208,1808,104,80,0,-196,-54,0,0,100,0,560,0,88,72,0,-148,-39,0,0,100,0,248,328,40,40,0,-180,-36,0,0,100,0,208,328,40,40,0,-29,-91,0,1,100,0,1104,624,160,120,0,2,-92,0,1,100,0,1304,552,104,72,0,-68,-79,0,1,100,0,1064,904,120,136,0,-5,-49,0,0,100,0,1360,272,136,64,0,34,-10,0,0,65,0,1176,80,48,24,0,-174,-15,0,0,65,0,1224,104,56,24,0,-204,-101,0,0,65,0,1176,80,48,24,0,
0,13,-158,-114,0,0,100,0,696,72,80,64,0,-172,-113,1,0,100,0,528,208,80,40,0,-176,-112,1,0,100,0,528,248,80,40,0,-177,-155,0,0,100,0,312,1808,104,80,0,-29,-91,0,1,100,0,1264,624,160,120,0,-13,-37,2,1,100,0,1304,552,104,72,0,2,-92,0,1,100,0,1408,552,104,72,0,-68,-79,0,1,100,0,1184,904,120,136,0,-50,-77,0,1,100,0,944,904,120,136,0,-5,-49,0,0,100,0,1496,272,136,64,0,34,-10,0,0,65,0,1176,80,48,24,0,-130,-62,0,0,65,0,1176,104,48,24,0,-134,-30,0,0,65,0,1176,104,48,24,0,
0,13,-126,-139,0,0,100,0,312,1808,104,80,0,-134,-144,0,0,100,0,696,72,80,64,0,-148,-143,1,0,100,0,528,208,80,40,0,-152,-142,1,0,100,0,528,248,80,40,0,-29,-91,0,1,100,0,1424,624,160,120,0,-13,-37,2,1,100,0,1408,552,104,72,0,2,-92,0,1,100,0,1512,552,104,72,0,-68,-79,0,1,100,0,1304,904,120,136,0,-50,-77,0,1,100,0,1064,904,120,136,0,-5,-49,0,0,100,0,1632,272,136,64,0,34,-10,0,0,65,0,1176,80,48,24,0,-82,-24,0,0,65,0,1176,104,48,24,0,-109,-48,0,0,65,0,1176,104,48,24,0,
0,12,-104,-122,0,0,100,0,312,1808,104,80,0,-113,-150,0,0,100,0,696,72,80,64,0,-127,-149,1,0,100,0,528,208,80,40,0,-131,-148,1,0,100,0,528,248,80,40,0,-29,-91,0,1,100,0,1584,624,160,120,0,-13,-37,2,1,100,0,1512,552,104,72,0,-6,-90,0,1,100,0,1304,552,104,72,0,-50,-77,0,1,100,0,1184,904,120,136,0,-5,-49,0,0,100,0,1768,272,136,64,0,34,-10,0,0,65,0,1176,80,48,24,0,-60,-3,0,0,65,0,1176,104,48,24,0,-89,-66,0,0,65,0,1176,104,48,24,0,
0,13,-79,-82,0,0,100,0,312,1808,104,80,0,-39,-90,0,1,100,0,1744,624,160,120,0,-6,-90,0,1,100,0,1408,552,104,72,0,-50,-77,0,1,100,0,1304,904,120,136,0,0,-103,0,1,100,0,1016,320,64,136,0,-40,-63,0,1,100,0,1424,904,104,64,0,-34,-49,0,0,100,0,1208,352,152,56,0,-85,-148,0,0,100,0,696,72,80,64,0,-99,-147,1,0,100,0,528,208,80,40,0,-103,-146,1,0,100,0,528,248,80,40,0,30,-10,0,0,65,0,1176,80,48,24,0,-33,16,0,0,65,0,1176,104,48,24,0,-63,-79,0,0,65,0,1176,104,48,24,0,
0,15,-48,-28,0,0,100,0,416,1728,104,80,0,-43,0,1,0,100,0,0,1664,80,40,0,-6,-90,0,1,100,0,1512,552,104,72,0,-140,-87,0,1,100,0,944,744,160,160,0,-70,-25,2,1,100,0,1304,552,104,72,0,-90,-85,0,1,100,0,1304,552,104,72,0,0,-103,0,1,100,0,1080,320,64,136,0,-130,-57,0,1,100,0,1528,904,184,64,0,-76,-62,0,0,100,0,1208,208,152,72,0,-68,-144,0,0,100,0,648,0,104,72,0,-72,-123,3,0,100,0,288,208,80,40,0,-67,-118,3,0,100,0,528,248,80,40,0,7,-10,0,0,65,0,1176,80,48,24,0,-38,-93,0,0,65,0,1224,104,56,24,0,-8,35,0,0,65,0,1176,104,48,24,0,
0,22,-46,-28,0,0,100,0,520,1728,104,80,0,-45,-9,1,0,100,0,0,1704,80,40,0,22,-24,0,0,100,0,104,1664,16,80,0,-164,-118,2,1,100,0,944,744,160,160,0,-180,-117,0,1,100,0,944,744,160,160,0,-140,-87,0,1,100,0,1104,744,160,160,0,-81,-82,0,1,100,0,1304,552,104,72,0,-50,-25,2,1,100,0,1304,552,104,72,0,-188,-80,0,1,100,0,1304,552,104,72,0,-120,-25,2,1,100,0,1304,552,104,72,0,-140,-85,0,1,100,0,1304,552,104,72,0,-70,-25,2,1,100,0,1408,552,104,72,0,-90,-85,0,1,100,0,1408,552,104,72,0,18,-103,0,1,100,0,1144,320,64,136,0,-210,-47,0,1,100,0,1424,968,264,72,0,-78,-61,0,0,100,0,1208,280,152,72,0,-46,-135,0,0,100,0,696,136,80,64,0,-1,-117,0,0,100,0,248,328,40,40,0,-36,-114,0,0,100,0,208,328,40,40,0,3,-10,0,0,65,0,1176,80,48,24,0,-23,-93,0,0,65,0,1224,104,56,24,0,-5,35,0,0,65,0,1176,104,48,24,0,
0,24,-45,-28,0,0,100,0,416,1808,104,80,0,2,-21,0,0,100,0,120,1664,40,80,0,-234,-128,0,1,100,0,944,744,160,160,0,-164,-118,2,1,100,0,1104,744,160,160,0,-180,-117,0,1,100,0,1104,744,160,160,0,-140,-87,0,1,100,0,1264,744,160,160,0,-169,-10,2,1,100,0,1304,552,104,72,0,-141,-102,0,1,100,0,1304,552,104,72,0,-81,-82,0,1,100,0,1408,552,104,72,0,-50,-25,2,1,100,0,1408,552,104,72,0,-247,-28,2,1,100,0,1304,552,104,72,0,-188,-80,0,1,100,0,1408,552,104,72,0,-120,-25,2,1,100,0,1408,552,104,72,0,-140,-85,0,1,100,0,1408,552,104,72,0,-70,-25,2,1,100,0,1512,552,104,72,0,-90,-85,0,1,100,0,1512,552,104,72,0,-260,-51,0,1,100,0,1688,968,216,72,0,-79,-61,0,0,100,0,1360,336,152,72,0,-42,-135,0,0,100,0,776,136,80,64,0,1,-117,0,0,100,0,248,328,40,40,0,-33,-114,0,0,100,0,208,328,40,40,0,2,-10,0,0,65,0,1176,80,48,24,0,-19,-93,0,0,65,0,1224,104,56,24,0,-2,35,0,0,65,0,1176,80,48,24,0,
0,25,-45,-28,0,0,100,0,416,1808,104,80,0,2,-21,0,0,100,0,80,1664,40,80,0,-284,-98,2,1,100,0,944,744,160,160,0,-304,-158,0,1,100,0,944,744,160,160,0,-234,-128,0,1,100,0,1104,744,160,160,0,-164,-118,2,1,100,0,1264,744,160,160,0,-180,-117,0,1,100,0,1264,744,160,160,0,-140,-87,0,1,100,0,1424,744,160,160,0,-267,-81,0,1,100,0,1304,552,104,72,0,-169,-10,2,1,100,0,1408,552,104,72,0,-141,-102,0,1,100,0,1408,552,104,72,0,-81,-82,0,1,100,0,1512,552,104,72,0,-50,-25,2,1,100,0,1512,552,104,72,0,-247,-28,2,1,100,0,1408,552,104,72,0,-188,-80,0,1,100,0,1512,552,104,72,0,-120,-25,2,1,100,0,1512,552,104,72,0,-140,-85,0,1,100,0,1512,552,104,72,0,-290,-41,0,1,100,0,1712,904,192,64,0,-79,-61,0,0,100,0,1512,336,152,72,0,-40,-135,0,0,100,0,776,136,80,64,0,2,-117,0,0,100,0,248,328,40,40,0,-31,-114,0,0,100,0,208,328,40,40,0,2,-10,0,0,65,0,1176,80,48,24,0,-18,-93,0,0,65,0,1224,104,56,24,0,-2,35,0,0,65,0,1176,80,48,24,0,
0,21,-45,-28,0,0,100,0,416,1808,104,80,0,2,-21,0,0,100,0,80,1664,40,80,0,-254,-118,2,1,100,0,944,744,160,160,0,-174,-98,0,1,100,0,944,744,160,160,0,-284,-98,2,1,100,0,1104,744,160,160,0,-304,-158,0,1,100,0,1104,744,160,160,0,-234,-128,0,1,100,0,1264,744,160,160,0,-164,-118,2,1,100,0,1424,744,160,160,0,-180,-117,0,1,100,0,1424,744,160,160,0,-140,-87,0,1,100,0,1584,744,160,160,0,-267,-81,0,1,100,0,1408,552,104,72,0,-169,-10,2,1,100,0,1512,552,104,72,0,-141,-102,0,1,100,0,1512,552,104,72,0,-247,-28,2,1,100,0,1512,552,104,72,0,-79,-61,0,0,100,0,1360,408,152,72,0,-39,-135,0,0,100,0,776,136,80,64,0,3,-117,0,0,100,0,248,328,40,40,0,-30,-114,0,0,100,0,208,328,40,40,0,2,-10,0,0,65,0,1176,80,48,24,0,-17,-93,0,0,65,0,1224,104,56,24,0,-2,35,0,0,65,0,1176,80,48,24,0,
0,21,-45,-28,0,0,100,0,416,1808,104,80,0,2,-21,0,0,100,0,80,1664,40,80,0,-160,-57,0,1,100,0,944,904,120,136,0,-304,-98,2,1,100,0,944,744,160,160,0,-224,-128,0,1,100,0,944,744,160,160,0,-254,-118,2,1,100,0,1104,744,160,160,0,-174,-98,0,1,100,0,1104,744,160,160,0,-284,-98,2,1,100,0,1264,744,160,160,0,-304,-158,0,1,100,0,1264,744,160,160,0,-234,-128,0,1,100,0,1424,744,160,160,0,-164,-118,2,1,100,0,1584,744,160,160,0,-180,-117,0,1,100,0,1584,744,160,160,0,-140,-87,0,1,100,0,1744,744,160,160,0,-267,-81,0,1,100,0,1512,552,104,72,0,-79,-61,0,0,100,0,1512,408,152,72,0,-38,-135,0,0,100,0,776,136,80,64,0,4,-117,0,0,100,0,248,328,40,40,0,-29,-114,0,0,100,0,208,328,40,40,0,2,-10,0,0,65,0,1176,80,48,24,0,-16,-93,0,0,65,0,1224,104,56,24,0,-2,35,0,0,65,0,1176,80,48,24,0,
0,20,-45,-28,0,0,100,0,416,1808,104,80,0,2,-21,0,0,100,0,80,1664,40,80,0,-160,-57,0,1,100,0,1064,904,120,136,0,-274,-148,0,1,100,0,944,744,160,160,0,-304,-98,2,1,100,0,1104,744,160,160,0,-224,-128,0,1,100,0,1104,744,160,160,0,-254,-118,2,1,100,0,1264,744,160,160,0,-174,-98,0,1,100,0,1264,744,160,160,0,-284,-98,2,1,100,0,1424,744,160,160,0,-304,-158,0,1,100,0,1424,744,160,160,0,-234,-128,0,1,100,0,1584,744,160,160,0,-164,-118,2,1,100,0,1744,744,160,160,0,-180,-117,0,1,100,0,1744,744,160,160,0,-79,-61,0,0,100,0,1360,336,152,72,0,-38,-135,0,0,100,0,776,136,80,64,0,4,-117,0,0,100,0,248,328,40,40,0,-29,-114,0,0,100,0,208,328,40,40,0,2,-10,0,0,65,0,1176,80,48,24,0,-16,-93,0,0,65,0,1224,104,56,24,0,-2,35,0,0,65,0,1176,80,48,24,0,
0,20,-45,-28,0,0,100,0,416,1808,104,80,0,2,-21,0,0,100,0,80,1664,40,80,0,-110,-67,0,1,100,0,944,904,120,136,0,-160,-57,0,1,100,0,1184,904,120,136,0,-334,-98,2,1,100,0,944,744,160,160,0,-274,-148,0,1,100,0,1104,744,160,160,0,-304,-98,2,1,100,0,1264,744,160,160,0,-224,-128,0,1,100,0,1264,744,160,160,0,-254,-118,2,1,100,0,1424,744,160,160,0,-174,-98,0,1,100,0,1424,744,160,160,0,-284,-98,2,1,100,0,1584,744,160,160,0,-304,-158,0,1,100,0,1584,744,160,160,0,-234,-128,0,1,100,0,1744,744,160,160,0,-79,-61,0,0,100,0,1512,336,152,72,0,-38,-135,0,0,100,0,776,136,80,64,0,4,-117,0,0,100,0,248,328,40,40,0,-29,-114,0,0,100,0,208,328,40,40,0,2,-10,0,0,65,0,1176,80,48,24,0,-16,-93,0,0,65,0,1224,104,56,24,0,-2,35,0,0,65,0,1176,80,48,24,0,
0,20,-45,-28,0,0,100,0,416,1808,104,80,0,2,-21,0,0,100,0,80,1664,40,80,0,-190,-97,0,1,100,0,944,904,120,136,0,-110,-67,0,1,100,0,1064,904,120,136,0,-160,-57,0,1,100,0,1304,904,120,136,0,-334,-98,2,1,100,0,1104,744,160,160,0,-274,-148,0,1,100,0,1264,744,160,160,0,-304,-98,2,1,100,0,1424,744,160,160,0,-224,-128,0,1,100,0,1424,744,160,160,0,-254,-118,2,1,100,0,1584,744,160,160,0,-174,-98,0,1,100,0,1584,744,160,160,0,-284,-98,2,1,100,0,1744,744,160,160,0,-304,-158,0,1,100,0,1744,744,160,160,0,-79,-61,0,0,100,0,1360,408,152,72,0,-38,-135,0,0,100,0,776,136,80,64,0,4,-117,0,0,100,0,248,328,40,40,0,-29,-114,0,0,100,0,208,328,40,40,0,2,-10,0,0,65,0,1176,80,48,24,0,-16,-93,0,0,65,0,1224,104,56,24,0,-2,35,0,0,65,0,1176,80,48,24,0,
0,20,-45,-28,0,0,100,0,416,1808,104,80,0,2,-21,0,0,100,0,80,1664,40,80,0,-310,-107,2,1,100,0,944,904,120,136,0,-250,-117,0,1,100,0,944,904,120,136,0,-130,-77,0,1,100,0,944,904,120,136,0,-190,-97,0,1,100,0,1064,904,120,136,0,-110,-67,0,1,100,0,1184,904,120,136,0,-334,-98,2,1,100,0,1264,744,160,160,0,-274,-148,0,1,100,0,1424,744,160,160,0,-304,-98,2,1,100,0,1584,744,160,160,0,-224,-128,0,1,100,0,1584,744,160,160,0,-254,-118,2,1,100,0,1744,744,160,160,0,-174,-98,0,1,100,0,1744,744,160,160,0,-79,-61,0,0,100,0,1512,408,152,72,0,-38,-135,0,0,100,0,776,136,80,64,0,4,-117,0,0,100,0,248,328,40,40,0,-29,-114,0,0,100,0,208,328,40,40,0,2,-10,0,0,65,0,1176,80,48,24,0,-16,-93,0,0,65,0,1224,104,56,24,0,-2,35,0,0,65,0,1176,80,48,24,0,
0,20,-45,-28,0,0,100,0,416,1808,104,80,0,2,-21,0,0,100,0,80,1664,40,80,0,-180,-107,2,1,100,0,944,904,120,136,0,-300,-127,0,1,100,0,944,904,120,136,0,-310,-107,2,1,100,0,1064,904,120,136,0,-250,-117,0,1,100,0,1064,904,120,136,0,-130,-77,0,1,100,0,1064,904,120,136,0,-190,-97,0,1,100,0,1184,904,120,136,0,-110,-67,0,1,100,0,1304,904,120,136,0,-334,-98,2,1,100,0,1424,744,160,160,0,-274,-148,0,1,100,0,1584,744,160,160,0,-304,-98,2,1,100,0,1744,744,160,160,0,-224,-128,0,1,100,0,1744,744,160,160,0,-79,-61,0,0,100,0,1360,336,152,72,0,-38,-135,0,0,100,0,776,136,80,64,0,4,-117,0,0,100,0,248,328,40,40,0,-29,-114,0,0,100,0,208,328,40,40,0,2,-10,0,0,65,0,1176,80,48,24,0,-16,-93,0,0,65,0,1224,104,56,24,0,-2,35,0,0,65,0,1176,80,48,24,0,
0,18,-45,-28,0,0,100,0,416,1808,104,80,0,2,-21,0,0,100,0,80,1664,40,80,0,-310,-107,2,1,100,0,944,904,120,136,0,-180,-107,2,1,100,0,1064,904,120,136,0,-300,-127,0,1,100,0,1064,904,120,136,0,-310,-107,2,1,100,0,1184,904,120,136,0,-250,-117,0,1,100,0,1184,904,120,136,0,-130,-77,0,1,100,0,1184,904,120,136,0,-190,-97,0,1,100,0,1304,904,120,136,0,-334,-98,2,1,100,0,1584,744,160,160,0,-274,-148,0,1,100,0,1744,744,160,160,0,-79,-61,0,0,100,0,1512,336,152,72,0,-38,-135,0,0,100,0,776,136,80,64,0,4,-117,0,0,100,0,248,328,40,40,0,-29,-114,0,0,100,0,208,328,40,40,0,2,-10,0,0,65,0,1176,80,48,24,0,-16,-93,0,0,65,0,1224,104,56,24,0,-2,35,0,0,65,0,1176,80,48,24,0,
0,15,-55,-20,0,0,100,0,0,1816,104,72,0,-340,-87,0,1,100,0,944,904,120,136,0,-180,-107,2,1,100,0,1184,904,120,136,0,-300,-127,0,1,100,0,1184,904,120,136,0,-310,-107,2,1,100,0,1304,904,120,136,0,-250,-117,0,1,100,0,1304,904,120,136,0,-130,-77,0,1,100,0,1304,904,120,136,0,-334,-98,2,1,100,0,1744,744,160,160,0,-79,-61,0,0,100,0,1360,408,152,72,0,-61,-134,0,0,100,0,752,0,104,72,0,-32,-123,0,0,100,0,288,208,80,40,0,-32,-127,0,0,100,0,288,248,80,40,0,2,-10,0,0,65,0,1176,80,48,24,0,-21,-86,0,0,65,0,1176,104,48,24,0,-28,27,0,0,65,0,1176,104,48,24,0,
0,12,-85,-35,0,0,100,0,0,1816,104,72,0,-350,-107,2,1,100,0,944,904,120,136,0,-340,-87,0,1,100,0,1064,904,120,136,0,-180,-107,2,1,100,0,1304,904,120,136,0,-300,-127,0,1,100,0,1304,904,120,136,0,-79,-61,0,0,100,0,1664,336,152,72,0,-101,-114,0,0,100,0,752,0,104,72,0,-72,-103,0,0,100,0,288,208,80,40,0,-72,-107,0,0,100,0,288,248,80,40,0,2,-10,0,0,65,0,1176,80,48,24,0,-61,-66,0,0,65,0,1176,104,48,24,0,-58,12,0,0,65,0,1176,104,48,24,0,
0,11,-101,-38,0,0,100,0,304,1688,80,40,0,-130,-48,0,0,100,0,208,1728,104,80,0,-350,-107,2,1,100,0,1064,904,120,136,0,-340,-87,0,1,100,0,1184,904,120,136,0,-77,-59,0,0,100,0,1616,552,144,72,0,-131,-84,0,0,100,0,856,0,80,96,0,-111,-72,0,0,100,0,368,208,80,40,0,-111,-76,0,0,100,0,368,248,80,40,0,2,-10,0,0,65,0,1176,80,48,24,0,-114,-33,0,0,65,0,1176,80,48,24,0,-95,-7,0,0,65,0,1176,80,48,24,0,
0,12,-161,-28,2,1,100,0,1448,1768,80,40,0,-161,-8,2,1,100,0,1448,1848,80,40,0,-155,-68,0,0,100,0,624,1808,104,80,0,-133,-83,0,0,100,0,856,96,80,96,0,-113,-71,0,0,100,0,448,208,80,40,0,-113,-75,0,0,100,0,448,248,80,40,0,-350,-107,2,1,100,0,1184,904,120,136,0,-340,-87,0,1,100,0,1304,904,120,136,0,-79,-60,0,0,100,0,1664,408,152,72,0,3,-10,0,0,65,0,1176,80,48,24,0,-117,-33,0,0,65,0,1176,80,48,24,0,-115,-13,0,0,65,0,1176,80,48,24,0,
0,23,-171,-98,3,1,100,0,1648,1648,40,80,0,-201,-78,3,1,100,0,1488,1648,40,80,0,-189,-86,3,1,100,0,1448,1728,80,40,0,-161,-158,1,1,100,0,1448,1728,80,40,0,-201,-128,3,1,100,0,1448,1768,80,40,0,-241,-98,3,1,100,0,1448,1848,80,40,0,-171,-18,2,1,100,0,1528,1728,80,40,0,-201,-38,2,1,100,0,1528,1848,80,40,0,-151,-18,2,1,100,0,1528,1768,80,40,0,-151,2,2,1,100,0,1528,1848,80,40,0,-269,-174,0,1,100,0,0,1400,136,264,0,-249,-215,0,1,100,0,720,328,144,248,0,-202,-143,0,1,100,0,1256,1040,152,168,0,-208,-66,0,1,100,0,1712,1184,192,72,0,-142,-137,0,0,100,0,624,1688,88,120,0,-152,-164,0,0,100,0,936,0,80,128,0,-150,-104,1,0,100,0,448,288,40,80,0,-134,-101,1,0,100,0,288,288,40,80,0,-350,-107,2,1,100,0,1304,904,120,136,0,-63,-58,0,0,100,0,1760,552,144,72,0,6,-10,0,0,65,0,1176,80,48,24,0,-137,-19,0,0,65,0,1176,104,48,24,0,-124,-15,0,0,65,0,1176,104,48,24,0,
0,24,-158,-46,3,1,100,0,1648,1648,40,80,0,-166,-85,2,1,100,0,1488,1648,40,80,0,-171,-168,3,1,100,0,1648,1648,40,80,0,-201,-148,3,1,100,0,1488,1648,40,80,0,-189,-156,3,1,100,0,1448,1728,80,40,0,-161,-228,1,1,100,0,1448,1728,80,40,0,-201,-198,3,1,100,0,1448,1768,80,40,0,-241,-168,3,1,100,0,1448,1848,80,40,0,-201,-108,2,1,100,0,1528,1848,80,40,0,-151,-18,2,1,100,0,1608,1768,80,40,0,-151,2,2,1,100,0,1608,1848,80,40,0,-269,-244,0,1,100,0,0,1400,136,264,0,-249,-285,0,1,100,0,720,328,144,248,0,-196,-209,0,1,100,0,1256,1040,152,168,0,-208,-112,0,1,100,0,1712,1256,192,128,0,-136,-203,0,0,100,0,624,1688,88,120,0,-124,-164,0,0,100,0,584,1688,40,40,0,-158,-230,0,0,100,0,936,0,80,128,0,-156,-170,1,0,100,0,448,288,40,80,0,-140,-167,1,0,100,0,288,288,40,80,0,-63,-58,0,0,100,0,1760,552,144,72,0,6,-10,0,0,65,0,1176,80,48,24,0,-138,-19,0,0,65,0,1176,128,48,24,0,-118,-15,0,0,65,0,1176,128,48,24,0,
0,28,-91,-238,1,1,100,0,1448,1648,40,80,0,-179,-166,3,1,100,0,1448,1768,80,40,0,-229,-206,3,1,100,0,1448,1848,80,40,0,-139,-226,1,1,100,0,1448,1848,80,40,0,-158,-46,3,1,100,0,1688,1648,40,80,0,-171,-168,3,1,100,0,1688,1648,40,80,0,-166,-85,2,1,100,0,1528,1648,40,80,0,-201,-148,3,1,100,0,1528,1648,40,80,0,-189,-156,3,1,100,0,1528,1728,80,40,0,-161,-228,1,1,100,0,1528,1728,80,40,0,-201,-198,3,1,100,0,1528,1768,80,40,0,-241,-168,3,1,100,0,1528,1848,80,40,0,-201,-108,2,1,100,0,1608,1848,80,40,0,-151,-18,2,1,100,0,1688,1768,80,40,0,-151,2,2,1,100,0,1688,1848,80,40,0,-272,-254,0,1,100,0,136,1400,152,264,0,-244,-276,0,1,100,0,864,328,144,248,0,-200,-203,0,1,100,0,1408,1040,152,144,0,-208,-162,0,1,100,0,1712,1384,192,144,0,-133,-206,0,0,100,0,624,1688,88,120,0,-123,-167,0,0,100,0,544,1688,40,40,0,-159,-234,0,0,100,0,936,0,80,128,0,-157,-174,1,0,100,0,448,288,40,80,0,-141,-171,1,0,100,0,288,288,40,80,0,-63,-53,0,0,100,0,1208,408,152,72,0,7,-10,0,0,65,0,1176,80,48,24,0,-139,-19,0,0,65,0,1176,128,48,24,0,-114,-15,0,0,65,0,1176,128,48,24,0,
0,28,-91,-240,1,1,100,0,1448,1648,40,80,0,-179,-168,3,1,100,0,1448,1768,80,40,0,-229,-208,3,1,100,0,1448,1848,80,40,0,-139,-228,1,1,100,0,1448,1848,80,40,0,-158,-48,3,1,100,0,1688,1648,40,80,0,-171,-170,3,1,100,0,1688,1648,40,80,0,-166,-87,2,1,100,0,1528,1648,40,80,0,-201,-150,3,1,100,0,1528,1648,40,80,0,-189,-158,3,1,100,0,1528,1728,80,40,0,-161,-230,1,1,100,0,1528,1728,80,40,0,-201,-200,3,1,100,0,1528,1768,80,40,0,-241,-170,3,1,100,0,1528,1848,80,40,0,-201,-110,2,1,100,0,1608,1848,80,40,0,-151,-20,2,1,100,0,1688,1768,80,40,0,-151,0,2,1,100,0,1688,1848,80,40,0,-272,-255,0,1,100,0,136,1400,152,264,0,-244,-277,0,1,100,0,864,328,144,248,0,-199,-204,0,1,100,0,1408,1040,152,144,0,-208,-192,0,1,100,0,1712,1528,192,120,0,-132,-207,0,0,100,0,624,1688,88,120,0,-122,-168,0,0,100,0,544,1688,40,40,0,-159,-235,0,0,100,0,936,0,80,128,0,-157,-175,1,0,100,0,448,288,40,80,0,-141,-172,1,0,100,0,288,288,40,80,0,-63,-53,0,0,100,0,1208,408,152,72,0,7,-10,0,0,65,0,1176,80,48,24,0,-139,-19,0,0,65,0,1176,128,48,24,0,-113,-15,0,0,65,0,1176,128,48,24,0,
0,27,-61,-200,0,1,100,0,1448,1648,40,80,0,-129,-178,2,1,100,0,1448,1768,80,40,0,-79,-188,0,1,100,0,1448,1848,80,40,0,-91,-240,1,1,100,0,1488,1648,40,80,0,-179,-168,3,1,100,0,1528,1768,80,40,0,-229,-208,3,1,100,0,1528,1848,80,40,0,-139,-228,1,1,100,0,1528,1848,80,40,0,-158,-48,3,1,100,0,1728,1648,40,80,0,-171,-170,3,1,100,0,1728,1648,40,80,0,-166,-87,2,1,100,0,1568,1648,40,80,0,-201,-150,3,1,100,0,1568,1648,40,80,0,-189,-158,3,1,100,0,1608,1728,80,40,0,-161,-230,1,1,100,0,1608,1728,80,40,0,-201,-200,3,1,100,0,1608,1768,80,40,0,-241,-170,3,1,100,0,1608,1848,80,40,0,-201,-110,2,1,100,0,1688,1848,80,40,0,-280,-253,0,1,100,0,288,1400,152,264,0,-258,-257,0,1,100,0,720,576,176,168,0,-190,-222,0,1,100,0,1560,1040,152,144,0,-130,-208,0,0,100,0,800,1688,88,120,0,-161,-229,0,0,100,0,608,208,80,120,0,-156,-177,1,0,100,0,488,288,40,80,0,-140,-174,1,0,100,0,328,288,40,80,0,-45,-55,0,0,100,0,1136,480,128,72,0,9,-10,0,0,65,0,1176,80,48,24,0,-140,-19,0,0,65,0,1176,128,48,24,0,-111,-15,0,0,65,0,1176,128,48,24,0,
0,27,-61,-201,0,1,100,0,1448,1648,40,80,0,-129,-179,2,1,100,0,1448,1768,80,40,0,-79,-189,0,1,100,0,1448,1848,80,40,0,-91,-241,1,1,100,0,1488,1648,40,80,0,-179,-169,3,1,100,0,1528,1768,80,40,0,-229,-209,3,1,100,0,1528,1848,80,40,0,-139,-229,1,1,100,0,1528,1848,80,40,0,-158,-49,3,1,100,0,1728,1648,40,80,0,-171,-171,3,1,100,0,1728,1648,40,80,0,-166,-88,2,1,100,0,1568,1648,40,80,0,-201,-151,3,1,100,0,1568,1648,40,80,0,-189,-159,3,1,100,0,1608,1728,80,40,0,-161,-231,1,1,100,0,1608,1728,80,40,0,-201,-201,3,1,100,0,1608,1768,80,40,0,-241,-171,3,1,100,0,1608,1848,80,40,0,-201,-111,2,1,100,0,1688,1848,80,40,0,-280,-254,0,1,100,0,288,1400,152,264,0,-258,-258,0,1,100,0,720,576,176,168,0,-190,-223,0,1,100,0,1560,1040,152,144,0,-130,-209,0,0,100,0,800,1688,88,120,0,-161,-230,0,0,100,0,608,208,80,120,0,-156,-178,1,0,100,0,488,288,40,80,0,-140,-175,1,0,100,0,328,288,40,80,0,-45,-55,0,0,100,0,1136,480,128,72,0,9,-10,0,0,65,0,1176,80,48,24,0,-140,-19,0,0,65,0,1176,128,48,24,0,-111,-15,0,0,65,0,1176,128,48,24,0,
0,24,-119,-179,1,1,100,0,1448,1848,80,40,0,-149,-229,1,1,100,0,1448,1728,80,40,0,-61,-201,0,1,100,0,1488,1648,40,80,0,-129,-169,2,1,100,0,1528,1768,80,40,0,-79,-189,0,1,100,0,1528,1848,80,40,0,-91,-241,1,1,100,0,1528,1648,40,80,0,-179,-169,3,1,100,0,1608,1768,80,40,0,-229,-209,3,1,100,0,1608,1848,80,40,0,-139,-229,1,1,100,0,1608,1848,80,40,0,-189,-159,3,1,100,0,1688,1728,80,40,0,-161,-231,1,1,100,0,1688,1728,80,40,0,-201,-201,3,1,100,0,1688,1768,80,40,0,-241,-171,3,1,100,0,1688,1848,80,40,0,-278,-254,0,1,100,0,440,1400,192,288,0,-214,-257,0,1,100,0,896,576,136,88,0,-159,-221,0,1,100,0,1712,1040,120,80,0,-130,-210,0,0,100,0,800,1688,88,120,0,-161,-231,0,0,100,0,608,208,80,120,0,-156,-179,1,0,100,0,488,288,40,80,0,-140,-176,1,0,100,0,328,288,40,80,0,-45,-55,0,0,100,0,1264,480,128,72,0,9,-10,0,0,65,0,1176,80,48,24,0,-140,-19,0,0,65,0,1176,128,48,24,0,-111,-15,0,0,65,0,1176,128,48,24,0,
0,21,-77,-190,0,1,100,0,1448,1768,80,40,0,-119,-179,1,1,100,0,1528,1848,80,40,0,-149,-229,1,1,100,0,1528,1728,80,40,0,-61,-201,0,1,100,0,1528,1648,40,80,0,-129,-179,2,1,100,0,1608,1768,80,40,0,-79,-189,0,1,100,0,1608,1848,80,40,0,-91,-241,1,1,100,0,1568,1648,40,80,0,-179,-169,3,1,100,0,1688,1768,80,40,0,-229,-209,3,1,100,0,1688,1848,80,40,0,-139,-229,1,1,100,0,1688,1848,80,40,0,-286,-254,0,1,100,0,632,1400,192,288,0,-184,-249,0,1,100,0,896,664,136,80,0,-109,-221,0,1,100,0,1832,1040,72,80,0,-130,-211,0,0,100,0,888,1688,88,120,0,-161,-232,0,0,100,0,688,208,80,120,0,-156,-180,1,0,100,0,528,288,40,80,0,-140,-177,1,0,100,0,368,288,40,80,0,-45,-55,0,0,100,0,1392,480,128,72,0,9,-10,0,0,65,0,1176,80,48,24,0,-140,-19,0,0,65,0,1176,128,48,24,0,-111,-15,0,0,65,0,1176,128,48,24,0,
0,15,-77,-190,0,1,100,0,1528,1768,80,40,0,-119,-169,1,1,100,0,1608,1848,80,40,0,-149,-229,1,1,100,0,1608,1728,80,40,0,-61,-201,0,1,100,0,1568,1648,40,80,0,-129,-179,2,1,100,0,1688,1768,80,40,0,-79,-189,0,1,100,0,1688,1848,80,40,0,-306,-274,0,1,100,0,824,1400,192,288,0,-130,-211,0,0,100,0,888,1688,88,120,0,-161,-232,0,0,100,0,688,208,80,120,0,-156,-180,1,0,100,0,528,288,40,80,0,-140,-177,1,0,100,0,368,288,40,80,0,-45,-55,0,0,100,0,1392,480,128,72,0,9,-10,0,0,65,0,1176,80,48,24,0,-140,-19,0,0,65,0,1176,128,48,24,0,-111,-15,0,0,65,0,1176,128,48,24,0,
0,11,-77,-190,0,1,100,0,1608,1768,80,40,0,-119,-169,1,1,100,0,1688,1848,80,40,0,-149,-229,1,1,100,0,1688,1728,80,40,0,-130,-212,0,0,100,0,976,1688,88,120,0,-161,-233,0,0,100,0,768,208,80,120,0,-156,-181,1,0,100,0,568,288,40,80,0,-140,-178,1,0,100,0,408,288,40,80,0,-45,-55,0,0,100,0,1392,480,128,72,0,9,-10,0,0,65,0,1176,80,48,24,0,-140,-19,0,0,65,0,1176,128,48,24,0,-111,-15,0,0,65,0,1176,128,48,24,0,
0,9,-77,-190,0,1,100,0,1688,1768,80,40,0,-130,-212,0,0,100,0,976,1688,88,120,0,-161,-233,0,0,100,0,768,208,80,120,0,-156,-181,1,0,100,0,568,288,40,80,0,-140,-178,1,0,100,0,408,288,40,80,0,-45,-55,0,0,100,0,1392,480,128,72,0,9,-10,0,0,65,0,1176,80,48,24,0,-140,-19,0,0,65,0,1176,128,48,24,0,-111,-15,0,0,65,0,1176,128,48,24,0,
0,8,-130,-212,0,0,100,0,712,1688,88,120,0,-161,-233,0,0,100,0,848,208,80,120,0,-156,-181,1,0,100,0,448,288,40,80,0,-140,-178,1,0,100,0,288,288,40,80,0,-45,-55,0,0,100,0,1392,480,128,72,0,9,-10,0,0,65,0,1176,80,48,24,0,-140,-19,0,0,65,0,1176,128,48,24,0,-111,-15,0,0,65,0,1176,128,48,24,0,
0,8,-130,-212,0,0,100,0,712,1688,88,120,0,-161,-233,0,0,100,0,848,208,80,120,0,-156,-181,1,0,100,0,448,288,40,80,0,-140,-178,1,0,100,0,288,288,40,80,0,-45,-55,0,0,100,0,1520,480,128,72,0,9,-10,0,0,65,0,1176,80,48,24,0,-140,-19,0,0,65,0,1176,128,48,24,0,-111,-15,0,0,65,0,1176,128,48,24,0,
0,8,-130,-212,0,0,100,0,800,1688,88,120,0,-161,-233,0,0,100,0,608,208,80,120,0,-156,-181,1,0,100,0,488,288,40,80,0,-140,-178,1,0,100,0,328,288,40,80,0,-53,-55,0,0,100,0,1648,480,128,72,0,9,-10,0,0,65,0,1176,80,48,24,0,-140,-19,0,0,65,0,1176,128,48,24,0,-111,-15,0,0,65,0,1176,128,48,24,0,
0,8,-130,-211,0,0,100,0,800,1688,88,120,0,-161,-232,0,0,100,0,608,208,80,120,0,-156,-181,1,0,100,0,488,288,40,80,0,-140,-178,1,0,100,0,328,288,40,80,0,-53,-55,0,0,100,0,1776,480,128,72,0,9,-10,0,0,65,0,1176,80,48,24,0,-140,-19,0,0,65,0,1176,128,48,24,0,-111,-15,0,0,65,0,1176,128,48,24,0,
0,8,-130,-211,0,0,100,0,800,1688,88,120,0,-161,-232,0,0,100,0,608,208,80,120,0,-156,-182,1,0,100,0,488,288,40,80,0,-140,-179,1,0,100,0,328,288,40,80,0,-53,-55,0,0,100,0,1776,480,128,72,0,9,-10,0,0,65,0,1176,80,48,24,0,-140,-19,0,0,65,0,1176,128,48,24,0,-111,-15,0,0,65,0,1176,128,48,24,0,
0,8,-130,-211,0,0,100,0,888,1688,88,120,0,-161,-232,0,0,100,0,688,208,80,120,0,-156,-182,1,0,100,0,528,288,40,80,0,-140,-179,1,0,100,0,368,288,40,80,0,-53,-55,0,0,100,0,1776,480,128,72,0,9,-10,0,0,65,0,1176,80,48,24,0,-140,-19,0,0,65,0,1176,128,48,24,0,-111,-15,0,0,65,0,1176,128,48,24,0,
0,8,-130,-210,0,0,100,0,888,1688,88,120,0,-161,-231,0,0,100,0,688,208,80,120,0,-156,-183,1,0,100,0,528,288,40,80,0,-140,-180,1,0,100,0,368,288,40,80,0,-53,-55,0,0,100,0,1776,480,128,72,0,9,-10,0,0,65,0,1176,80,48,24,0,-140,-19,0,0,65,0,1176,128,48,24,0,-111,-15,0,0,65,0,1176,128,48,24,0,
0,9,-127,-210,0,0,100,0,1064,1688,88,120,0,-97,-163,0,0,100,0,384,1688,80,40,0,-158,-188,0,0,100,0,936,128,80,80,0,-165,-181,3,0,100,0,528,208,80,40,0,-174,-188,1,0,100,0,528,248,80,40,0,-53,-55,0,0,100,0,1776,480,128,72,0,9,-10,0,0,65,0,1176,80,48,24,0,-140,-19,0,0,65,0,1176,128,48,24,0,-111,-15,0,0,65,0,1176,128,48,24,0,
0,9,-126,-209,0,0,100,0,1064,1688,88,120,0,-96,-162,0,0,100,0,384,1688,80,40,0,-158,-187,0,0,100,0,936,128,80,80,0,-164,-181,3,0,100,0,528,208,80,40,0,-173,-188,1,0,100,0,528,248,80,40,0,-53,-55,0,0,100,0,1776,480,128,72,0,9,-10,0,0,65,0,1176,80,48,24,0,-140,-19,0,0,65,0,1176,128,48,24,0,-110,-15,0,0,65,0,1176,128,48,24,0,
0,9,-126,-207,0,0,100,0,1064,1688,88,120,0,-97,-163,0,0,100,0,464,1688,80,40,0,-158,-185,0,0,100,0,936,128,80,80,0,-164,-181,3,0,100,0,528,208,80,40,0,-173,-188,1,0,100,0,528,248,80,40,0,7,-79,0,0,100,0,1816,336,88,96,0,28,-10,0,0,65,0,1176,104,48,24,0,-140,-19,0,0,65,0,1176,128,48,24,0,-110,-14,0,0,65,0,1176,128,48,24,0,
0,9,-125,-203,0,0,100,0,1064,1688,88,120,0,-96,-164,0,0,100,0,464,1688,80,40,0,-158,-181,0,0,100,0,936,128,80,80,0,-164,-178,3,0,100,0,528,208,80,40,0,-173,-185,1,0,100,0,528,248,80,40,0,27,-91,0,0,100,0,1816,336,88,96,0,48,-10,0,0,65,0,1176,104,48,24,0,-140,-19,0,0,65,0,1176,128,48,24,0,-109,-13,0,0,65,0,1176,128,48,24,0,
0,9,-124,-197,0,0,100,0,1152,1688,88,120,0,-84,-190,0,0,100,0,160,1664,32,64,0,-159,-174,0,0,100,0,936,208,80,80,0,-140,-202,2,0,100,0,328,288,40,80,0,-126,-202,2,0,100,0,488,288,40,80,0,47,-99,0,0,100,0,1816,336,88,96,0,69,-10,0,0,65,0,1176,104,48,24,0,-140,-19,0,0,65,0,1176,128,48,24,0,-106,-12,0,0,65,0,1176,128,48,24,0,
0,9,-124,-189,0,0,100,0,1152,1688,88,120,0,-84,-182,0,0,100,0,160,1664,32,64,0,-159,-166,0,0,100,0,936,208,80,80,0,-141,-198,2,0,100,0,328,288,40,80,0,-127,-198,2,0,100,0,488,288,40,80,0,67,-104,0,0,80,0,1816,336,88,96,0,89,-10,0,0,65,0,1176,104,48,24,0,-140,-19,0,0,65,0,1176,128,48,24,0,-104,-10,0,0,65,0,1176,128,48,24,0,
0,9,-123,-179,0,0,100,0,1152,1688,88,120,0,-83,-173,0,0,100,0,192,1664,32,64,0,-159,-156,0,0,100,0,936,208,80,80,0,-141,-188,2,0,100,0,328,288,40,80,0,-127,-188,2,0,100,0,488,288,40,80,0,87,-105,0,0,40,0,1816,336,88,96,0,109,-10,0,0,65,0,1176,104,48,24,0,-140,-19,0,0,65,0,1176,128,48,24,0,-102,-7,0,0,65,0,1176,128,48,24,0,
0,9,-122,-154,0,0,100,0,1152,1688,88,120,0,-82,-148,0,0,100,0,192,1664,32,64,0,-159,-131,0,0,100,0,936,208,80,80,0,-141,-163,2,0,100,0,328,288,40,80,0,-127,-163,2,0,100,0,488,288,40,80,0,100,-104,0,0,20,0,1816,336,88,96,0,122,-10,0,0,65,0,1176,104,48,24,0,-140,-19,0,0,65,0,1176,104,48,24,0,-98,-5,0,0,65,0,1176,104,48,24,0,
0,7,-119,-64,0,0,100,0,728,1808,88,80,0,-106,-29,0,0,100,0,0,1664,80,40,0,-166,-78,0,0,100,0,1128,0,112,80,0,-136,-94,2,0,100,0,368,288,40,80,0,-122,-94,2,0,100,0,528,288,40,80,0,-147,-19,0,0,65,0,1224,104,56,24,0,-97,-3,0,0,65,0,1176,80,48,24,0,
0,7,-119,-65,0,0,100,0,816,1808,88,80,0,-101,-30,0,0,100,0,0,1704,80,40,0,-166,-79,0,0,100,0,1016,0,112,80,0,-116,-64,0,0,100,0,248,248,40,40,0,-151,-61,0,0,100,0,208,248,40,40,0,-147,-19,0,0,65,0,1224,104,56,24,0,-97,-3,0,0,65,0,1176,80,48,24,0,
0,7,-119,-64,0,0,100,0,816,1808,88,80,0,-101,-29,0,0,100,0,0,1704,80,40,0,-166,-78,0,0,100,0,1016,0,112,80,0,-119,-51,0,0,100,0,248,288,40,40,0,-154,-48,0,0,100,0,208,288,40,40,0,-148,-19,0,0,65,0,1224,104,56,24,0,-96,-3,0,0,65,0,1176,80,48,24,0,
0,7,-119,-64,0,0,100,0,816,1808,88,80,0,-101,-28,0,0,100,0,0,1704,80,40,0,-166,-78,0,0,100,0,1016,0,112,80,0,-120,-48,0,0,100,0,248,328,40,40,0,-154,-41,0,0,100,0,208,328,40,40,0,-148,-19,0,0,65,0,1224,104,56,24,0,-96,-3,0,0,65,0,1176,80,48,24,0,
0,7,-142,-67,0,0,100,0,416,1808,104,80,0,-94,-59,0,0,100,0,120,1664,40,80,0,-166,-78,0,0,100,0,1016,0,112,80,0,-120,-48,0,0,100,0,248,328,40,40,0,-154,-41,0,0,100,0,208,328,40,40,0,-148,-19,0,0,65,0,1224,104,56,24,0,-99,-3,0,0,65,0,1176,80,48,24,0,
0,7,-144,-67,0,0,100,0,904,1808,104,80,0,-97,-61,1,0,100,0,120,1664,40,80,0,-142,-68,0,0,100,0,1016,80,72,80,0,-121,-48,0,0,100,0,248,328,40,40,0,-153,-41,0,0,100,0,208,328,40,40,0,-147,-19,0,0,65,0,1224,104,56,24,0,-98,-3,0,0,65,0,1176,80,48,24,0,
0,7,-110,-67,0,0,100,0,1008,1808,88,80,0,-92,-61,1,0,100,0,80,1664,40,80,0,-171,-68,0,0,100,0,1088,80,88,80,0,-122,-46,0,0,100,0,248,328,40,40,0,-145,-41,0,0,100,0,208,328,40,40,0,-137,-19,0,0,65,0,1176,80,48,24,0,-97,-3,0,0,65,0,1176,80,48,24,0,
0,7,-107,-67,0,0,100,0,1096,1808,88,80,0,-87,-60,1,0,100,0,80,1664,40,80,0,-171,-68,0,0,100,0,1016,160,88,80,0,-123,-46,0,0,100,0,248,328,40,40,0,-144,-41,0,0,100,0,208,328,40,40,0,-137,-19,0,0,65,0,1176,80,48,24,0,-95,-3,0,0,65,0,1176,80,48,24,0,
0,7,-107,-67,0,0,100,0,1184,1808,88,80,0,-87,-60,1,0,100,0,80,1664,40,80,0,-171,-68,0,0,100,0,1016,160,88,80,0,-123,-46,0,0,100,0,248,328,40,40,0,-144,-41,0,0,100,0,208,328,40,40,0,-137,-19,0,0,65,0,1176,80,48,24,0,-95,-3,0,0,65,0,1176,80,48,24,0,
0,7,-107,-67,0,0,100,0,1096,1808,88,80,0,-87,-60,1,0,100,0,80,1664,40,80,0,-171,-68,0,0,100,0,1016,240,88,80,0,-123,-46,0,0,100,0,248,328,40,40,0,-144,-41,0,0,100,0,208,328,40,40,0,-136,-19,0,0,65,0,1176,80,48,24,0,-95,-3,0,0,65,0,1176,80,48,24,0,
0,7,-107,-67,0,0,100,0,1096,1808,88,80,0,-87,-60,1,0,100,0,80,1664,40,80,0,-171,-68,0,0,100,0,1104,240,88,80,0,-123,-46,0,0,100,0,248,328,40,40,0,-144,-41,0,0,100,0,208,328,40,40,0,-136,-19,0,0,65,0,1176,80,48,24,0,-95,-3,0,0,65,0,1176,80,48,24,0,
0,7,-110,-67,0,0,100,0,1008,1808,88,80,0,-92,-60,1,0,100,0,80,1664,40,80,0,-171,-68,0,0,100,0,1104,240,88,80,0,-123,-46,0,0,100,0,248,328,40,40,0,-144,-41,0,0,100,0,208,328,40,40,0,-136,-19,0,0,65,0,1176,80,48,24,0,-97,-3,0,0,65,0,1176,80,48,24,0,
0,7,-113,-67,0,0,100,0,1272,1808,88,80,0,-96,-60,1,0,100,0,120,1664,40,80,0,-171,-68,0,0,100,0,1104,240,88,80,0,-123,-46,0,0,100,0,248,328,40,40,0,-144,-41,0,0,100,0,208,328,40,40,0,-136,-19,0,0,65,0,1176,80,48,24,0,-100,-3,0,0,65,0,1176,80,48,24,0,
0,7,-113,-67,0,0,100,0,1360,1808,88,80,0,-96,-61,1,0,100,0,120,1664,40,80,0,-171,-68,0,0,100,0,1104,240,88,80,0,-123,-46,0,0,100,0,248,328,40,40,0,-144,-41,0,0,100,0,208,328,40,40,0,-136,-19,0,0,65,0,1176,80,48,24,0,-100,-3,0,0,65,0,1176,80,48,24,0,
