0,0,0,22,
1,0,0,14,
2,0,0,28,
3,0,0,6,
4,0,0,7,
5,0,0,8,
6,0,0,6,
7,0,0,8,
8,0,0,10,
9,0,0,12,
10,0,0,10,
11,0,0,6,
12,0,0,8,
13,0,0,7,
14,0,0,6,
15,0,0,8,
16,0,0,9,
17,0,0,8,
18,0,0,9,
19,0,0,6,
20,0,0,5,
21,0,0,4,
22,0,0,3,
23,0,0,6,
24,0,0,7,
25,0,0,8,
26,0,0,10,
27,0,0,12,
28,0,0,6,
29,0,0,8,
30,0,0,10,
31,0,0,8,
32,0,0,6,
33,0,0,12,
34,0,0,6,
35,0,0,7,
36,0,0,8,
37,0,0,9,
38,0,0,10,
39,0,0,12,
40,0,0,10,
41,0,0,8,
42,0,0,6,
43,0,0,5,
44,0,0,6,
45,0,0,7,
46,0,0,7,
47,0,0,3,
48,0,0,2,
49,0,0,2,
50,0,0,6,
51,0,0,9,
52,0,0,5,
53,0,0,5,
54,0,0,5,
55,0,0,8,
56,0,0,9,
57,0,0,10,
58,0,0,6,
59,0,0,7,
60,0,0,8,
61,0,0,6,
62,0,0,12,
