0,0,0,24,
1,0,0,5,
2,0,0,5,
3,0,0,5,
4,0,0,5,
5,0,0,7,
6,0,0,7,
7,0,0,7,
8,0,0,7,
9,0,0,8,
10,0,0,8,
11,0,0,8,
12,0,0,6,
13,0,0,8,
14,0,0,10,
15,0,0,8,
16,0,0,8,
17,0,0,4,
18,0,0,4,
19,0,0,4,
20,0,0,4,
21,0,0,6,
22,0,0,8,
23,0,0,6,
24,0,0,6,
25,0,0,8,
26,0,0,6,
27,0,0,6,
28,0,0,6,
29,0,0,6,
30,0,0,6,
31,0,0,6,
32,0,0,6,
33,0,0,6,
34,0,0,6,
35,0,0,6,
36,0,0,6,
37,0,0,8,
38,0,0,10,
39,0,0,9,
40,0,0,9,
41,0,0,8,
42,0,0,6,
43,0,0,6,
44,0,0,6,
45,0,0,5,
46,0,0,5,
47,0,0,6,
48,0,0,5,
49,0,0,5,
50,0,0,5,
51,0,0,5,
52,0,0,6,
53,0,0,6,
54,0,0,9,
55,0,0,9,
56,0,0,8,
57,0,0,8,
58,0,0,6,
59,0,0,6,
60,0,0,6,
61,0,0,8,
62,0,0,8,
63,0,0,8,
64,0,0,6,
65,0,0,6,
66,0,0,8,
67,0,0,8,
68,0,0,6,
69,0,0,10,
70,0,0,10,
71,0,0,6,
72,0,0,8,
73,0,0,8,
74,0,0,7,
75,0,0,7,
76,0,0,7,
77,0,0,7,
78,0,0,8,
79,0,0,8,
80,0,0,8,
81,0,0,8,
82,0,0,8,
