[
    {
        "P_MISSION_ID": "1",
        "zsiAn9P1": "1",
        "7Chp6GLX": "0",
        "epbDni51": "1",
        "sX3HQc4a": "0",
        "MXQ4ea8B": "0",
        "3cq1VMRe": "1"
    },
    {
        "P_MISSION_ID": "2",
        "zsiAn9P1": "1",
        "7Chp6GLX": "0",
        "epbDni51": "2",
        "sX3HQc4a": "0",
        "MXQ4ea8B": "0",
        "3cq1VMRe": "1"
    },
    {
        "P_MISSION_ID": "3",
        "zsiAn9P1": "1",
        "7Chp6GLX": "0",
        "epbDni51": "3",
        "sX3HQc4a": "0",
        "MXQ4ea8B": "0",
        "3cq1VMRe": "1"
    },
    {
        "P_MISSION_ID": "101",
        "zsiAn9P1": "1",
        "7Chp6GLX": "9",
        "epbDni51": "101",
        "sX3HQc4a": "100",
        "MXQ4ea8B": "1",
        "3cq1VMRe": "1"
    },
    {
        "P_MISSION_ID": "102",
        "zsiAn9P1": "1",
        "7Chp6GLX": "9",
        "epbDni51": "101",
        "sX3HQc4a": "100",
        "MXQ4ea8B": "1",
        "3cq1VMRe": "1"
    },
    {
        "P_MISSION_ID": "503",
        "zsiAn9P1": "1",
        "7Chp6GLX": "0",
        "epbDni51": "104",
        "sX3HQc4a": "100",
        "MXQ4ea8B": "1",
        "3cq1VMRe": "1"
    },
    {
        "P_MISSION_ID": "610",
        "zsiAn9P1": "1",
        "7Chp6GLX": "0",
        "epbDni51": "110",
        "sX3HQc4a": "0",
        "MXQ4ea8B": "1",
        "3cq1VMRe": "1"
    },
    {
        "P_MISSION_ID": "810",
        "zsiAn9P1": "1",
        "7Chp6GLX": "0",
        "epbDni51": "111",
        "sX3HQc4a": "0",
        "MXQ4ea8B": "1",
        "3cq1VMRe": "1"
    },
    {
        "P_MISSION_ID": "811",
        "zsiAn9P1": "1",
        "7Chp6GLX": "0",
        "epbDni51": "112",
        "sX3HQc4a": "0",
        "MXQ4ea8B": "1",
        "3cq1VMRe": "1"
    },
    {
        "P_MISSION_ID": "904",
        "zsiAn9P1": "1",
        "7Chp6GLX": "0",
        "epbDni51": "103",
        "sX3HQc4a": "100",
        "MXQ4ea8B": "1",
        "3cq1VMRe": "0"
    },
    {
        "P_MISSION_ID": "910",
        "zsiAn9P1": "1",
        "7Chp6GLX": "0",
        "epbDni51": "113",
        "sX3HQc4a": "0",
        "MXQ4ea8B": "1",
        "3cq1VMRe": "1"
    },
    {
        "P_MISSION_ID": "1001",
        "zsiAn9P1": "1",
        "7Chp6GLX": "0",
        "epbDni51": "201",
        "sX3HQc4a": "101",
        "MXQ4ea8B": "1",
        "3cq1VMRe": "1"
    },
    {
        "P_MISSION_ID": "1002",
        "zsiAn9P1": "1",
        "7Chp6GLX": "0",
        "epbDni51": "201",
        "sX3HQc4a": "101",
        "MXQ4ea8B": "1",
        "3cq1VMRe": "1"
    },
    {
        "P_MISSION_ID": "1010",
        "zsiAn9P1": "1",
        "7Chp6GLX": "0",
        "epbDni51": "207",
        "sX3HQc4a": "0",
        "MXQ4ea8B": "1",
        "3cq1VMRe": "1"
    },
    {
        "P_MISSION_ID": "1101",
        "zsiAn9P1": "1",
        "7Chp6GLX": "0",
        "epbDni51": "202",
        "sX3HQc4a": "101",
        "MXQ4ea8B": "1",
        "3cq1VMRe": "1"
    },
    {
        "P_MISSION_ID": "1102",
        "zsiAn9P1": "1",
        "7Chp6GLX": "0",
        "epbDni51": "202",
        "sX3HQc4a": "101",
        "MXQ4ea8B": "1",
        "3cq1VMRe": "1"
    },
    {
        "P_MISSION_ID": "2001",
        "zsiAn9P1": "1",
        "7Chp6GLX": "0",
        "epbDni51": "203",
        "sX3HQc4a": "101",
        "MXQ4ea8B": "1",
        "3cq1VMRe": "1"
    },
    {
        "P_MISSION_ID": "2201",
        "zsiAn9P1": "1",
        "7Chp6GLX": "0",
        "epbDni51": "202",
        "sX3HQc4a": "101",
        "MXQ4ea8B": "1",
        "3cq1VMRe": "1"
    },
    {
        "P_MISSION_ID": "2203",
        "zsiAn9P1": "1",
        "7Chp6GLX": "0",
        "epbDni51": "0",
        "sX3HQc4a": "101",
        "MXQ4ea8B": "1",
        "3cq1VMRe": "0"
    },
    {
        "P_MISSION_ID": "2601",
        "zsiAn9P1": "1",
        "7Chp6GLX": "0",
        "epbDni51": "105",
        "sX3HQc4a": "102",
        "MXQ4ea8B": "1",
        "3cq1VMRe": "0"
    },
    {
        "P_MISSION_ID": "2602",
        "zsiAn9P1": "1",
        "7Chp6GLX": "0",
        "epbDni51": "105",
        "sX3HQc4a": "102",
        "MXQ4ea8B": "1",
        "3cq1VMRe": "0"
    },
    {
        "P_MISSION_ID": "2610",
        "zsiAn9P1": "1",
        "7Chp6GLX": "0",
        "epbDni51": "114",
        "sX3HQc4a": "0",
        "MXQ4ea8B": "0",
        "3cq1VMRe": "1"
    },
    {
        "P_MISSION_ID": "2904",
        "zsiAn9P1": "1",
        "7Chp6GLX": "0",
        "epbDni51": "106",
        "sX3HQc4a": "100",
        "MXQ4ea8B": "1",
        "3cq1VMRe": "0"
    },
    {
        "P_MISSION_ID": "2910",
        "zsiAn9P1": "1",
        "7Chp6GLX": "0",
        "epbDni51": "115",
        "sX3HQc4a": "0",
        "MXQ4ea8B": "0",
        "3cq1VMRe": "1"
    },
    {
        "P_MISSION_ID": "3190",
        "zsiAn9P1": "1",
        "7Chp6GLX": "0",
        "epbDni51": "122",
        "sX3HQc4a": "0",
        "MXQ4ea8B": "1",
        "3cq1VMRe": "0"
    },
    {
        "P_MISSION_ID": "3202",
        "zsiAn9P1": "1",
        "7Chp6GLX": "0",
        "epbDni51": "107",
        "sX3HQc4a": "100",
        "MXQ4ea8B": "1",
        "3cq1VMRe": "1"
    },
    {
        "P_MISSION_ID": "3210",
        "zsiAn9P1": "1",
        "7Chp6GLX": "0",
        "epbDni51": "123",
        "sX3HQc4a": "0",
        "MXQ4ea8B": "0",
        "3cq1VMRe": "1"
    },
    {
        "P_MISSION_ID": "3501",
        "zsiAn9P1": "1",
        "7Chp6GLX": "0",
        "epbDni51": "108",
        "sX3HQc4a": "100",
        "MXQ4ea8B": "1",
        "3cq1VMRe": "1"
    },
    {
        "P_MISSION_ID": "3603",
        "zsiAn9P1": "1",
        "7Chp6GLX": "0",
        "epbDni51": "109",
        "sX3HQc4a": "100",
        "MXQ4ea8B": "1",
        "3cq1VMRe": "1"
    },
    {
        "P_MISSION_ID": "3701",
        "zsiAn9P1": "1",
        "7Chp6GLX": "0",
        "epbDni51": "204",
        "sX3HQc4a": "103",
        "MXQ4ea8B": "1",
        "3cq1VMRe": "1"
    },
    {
        "P_MISSION_ID": "3702",
        "zsiAn9P1": "1",
        "7Chp6GLX": "0",
        "epbDni51": "204",
        "sX3HQc4a": "103",
        "MXQ4ea8B": "1",
        "3cq1VMRe": "1"
    },
    {
        "P_MISSION_ID": "3710",
        "zsiAn9P1": "1",
        "7Chp6GLX": "0",
        "epbDni51": "218",
        "sX3HQc4a": "0",
        "MXQ4ea8B": "0",
        "3cq1VMRe": "1"
    },
    {
        "P_MISSION_ID": "3810",
        "zsiAn9P1": "1",
        "7Chp6GLX": "0",
        "epbDni51": "208",
        "sX3HQc4a": "0",
        "MXQ4ea8B": "0",
        "3cq1VMRe": "1"
    },
    {
        "P_MISSION_ID": "3901",
        "zsiAn9P1": "1",
        "7Chp6GLX": "0",
        "epbDni51": "206",
        "sX3HQc4a": "103",
        "MXQ4ea8B": "1",
        "3cq1VMRe": "1"
    },
    {
        "P_MISSION_ID": "3902",
        "zsiAn9P1": "1",
        "7Chp6GLX": "0",
        "epbDni51": "206",
        "sX3HQc4a": "103",
        "MXQ4ea8B": "1",
        "3cq1VMRe": "1"
    },
    {
        "P_MISSION_ID": "3903",
        "zsiAn9P1": "1",
        "7Chp6GLX": "0",
        "epbDni51": "206",
        "sX3HQc4a": "103",
        "MXQ4ea8B": "1",
        "3cq1VMRe": "1"
    },
    {
        "P_MISSION_ID": "3910",
        "zsiAn9P1": "1",
        "7Chp6GLX": "0",
        "epbDni51": "209",
        "sX3HQc4a": "0",
        "MXQ4ea8B": "0",
        "3cq1VMRe": "1"
    },
    {
        "P_MISSION_ID": "3911",
        "zsiAn9P1": "1",
        "7Chp6GLX": "0",
        "epbDni51": "209",
        "sX3HQc4a": "0",
        "MXQ4ea8B": "0",
        "3cq1VMRe": "1"
    },
    {
        "P_MISSION_ID": "3912",
        "zsiAn9P1": "1",
        "7Chp6GLX": "0",
        "epbDni51": "210",
        "sX3HQc4a": "0",
        "MXQ4ea8B": "0",
        "3cq1VMRe": "1"
    },
    {
        "P_MISSION_ID": "4003",
        "zsiAn9P1": "1",
        "7Chp6GLX": "0",
        "epbDni51": "205",
        "sX3HQc4a": "101",
        "MXQ4ea8B": "1",
        "3cq1VMRe": "1"
    },
    {
        "P_MISSION_ID": "4010",
        "zsiAn9P1": "1",
        "7Chp6GLX": "0",
        "epbDni51": "208",
        "sX3HQc4a": "0",
        "MXQ4ea8B": "0",
        "3cq1VMRe": "1"
    },
    {
        "P_MISSION_ID": "4011",
        "zsiAn9P1": "1",
        "7Chp6GLX": "0",
        "epbDni51": "211",
        "sX3HQc4a": "0",
        "MXQ4ea8B": "0",
        "3cq1VMRe": "1"
    },
    {
        "P_MISSION_ID": "4012",
        "zsiAn9P1": "1",
        "7Chp6GLX": "0",
        "epbDni51": "208",
        "sX3HQc4a": "0",
        "MXQ4ea8B": "0",
        "3cq1VMRe": "1"
    },
    {
        "P_MISSION_ID": "4101",
        "zsiAn9P1": "1",
        "7Chp6GLX": "0",
        "epbDni51": "0",
        "sX3HQc4a": "0",
        "MXQ4ea8B": "1",
        "3cq1VMRe": "1"
    },
    {
        "P_MISSION_ID": "4102",
        "zsiAn9P1": "1",
        "7Chp6GLX": "0",
        "epbDni51": "0",
        "sX3HQc4a": "0",
        "MXQ4ea8B": "1",
        "3cq1VMRe": "1"
    },
    {
        "P_MISSION_ID": "4110",
        "zsiAn9P1": "1",
        "7Chp6GLX": "0",
        "epbDni51": "219",
        "sX3HQc4a": "0",
        "MXQ4ea8B": "0",
        "3cq1VMRe": "1"
    },
    {
        "P_MISSION_ID": "4201",
        "zsiAn9P1": "1",
        "7Chp6GLX": "0",
        "epbDni51": "0",
        "sX3HQc4a": "0",
        "MXQ4ea8B": "1",
        "3cq1VMRe": "1"
    },
    {
        "P_MISSION_ID": "4202",
        "zsiAn9P1": "1",
        "7Chp6GLX": "0",
        "epbDni51": "0",
        "sX3HQc4a": "0",
        "MXQ4ea8B": "1",
        "3cq1VMRe": "1"
    },
    {
        "P_MISSION_ID": "4410",
        "zsiAn9P1": "1",
        "7Chp6GLX": "0",
        "epbDni51": "219",
        "sX3HQc4a": "0",
        "MXQ4ea8B": "0",
        "3cq1VMRe": "1"
    },
    {
        "P_MISSION_ID": "4411",
        "zsiAn9P1": "1",
        "7Chp6GLX": "0",
        "epbDni51": "219",
        "sX3HQc4a": "0",
        "MXQ4ea8B": "0",
        "3cq1VMRe": "1"
    },
    {
        "P_MISSION_ID": "4501",
        "zsiAn9P1": "1",
        "7Chp6GLX": "0",
        "epbDni51": "0",
        "sX3HQc4a": "0",
        "MXQ4ea8B": "1",
        "3cq1VMRe": "1"
    },
    {
        "P_MISSION_ID": "4502",
        "zsiAn9P1": "1",
        "7Chp6GLX": "0",
        "epbDni51": "0",
        "sX3HQc4a": "0",
        "MXQ4ea8B": "1",
        "3cq1VMRe": "1"
    },
    {
        "P_MISSION_ID": "4503",
        "zsiAn9P1": "1",
        "7Chp6GLX": "0",
        "epbDni51": "0",
        "sX3HQc4a": "0",
        "MXQ4ea8B": "1",
        "3cq1VMRe": "1"
    },
    {
        "P_MISSION_ID": "4510",
        "zsiAn9P1": "1",
        "7Chp6GLX": "0",
        "epbDni51": "220",
        "sX3HQc4a": "0",
        "MXQ4ea8B": "0",
        "3cq1VMRe": "1"
    },
    {
        "P_MISSION_ID": "4602",
        "zsiAn9P1": "1",
        "7Chp6GLX": "0",
        "epbDni51": "204",
        "sX3HQc4a": "103",
        "MXQ4ea8B": "1",
        "3cq1VMRe": "1"
    },
    {
        "P_MISSION_ID": "4603",
        "zsiAn9P1": "1",
        "7Chp6GLX": "0",
        "epbDni51": "206",
        "sX3HQc4a": "103",
        "MXQ4ea8B": "1",
        "3cq1VMRe": "1"
    },
    {
        "P_MISSION_ID": "4610",
        "zsiAn9P1": "1",
        "7Chp6GLX": "0",
        "epbDni51": "220",
        "sX3HQc4a": "0",
        "MXQ4ea8B": "0",
        "3cq1VMRe": "1"
    },
    {
        "P_MISSION_ID": "4611",
        "zsiAn9P1": "1",
        "7Chp6GLX": "0",
        "epbDni51": "219",
        "sX3HQc4a": "0",
        "MXQ4ea8B": "0",
        "3cq1VMRe": "1"
    },
    {
        "P_MISSION_ID": "4612",
        "zsiAn9P1": "1",
        "7Chp6GLX": "0",
        "epbDni51": "221",
        "sX3HQc4a": "0",
        "MXQ4ea8B": "0",
        "3cq1VMRe": "1"
    },
    {
        "P_MISSION_ID": "4613",
        "zsiAn9P1": "1",
        "7Chp6GLX": "0",
        "epbDni51": "221",
        "sX3HQc4a": "0",
        "MXQ4ea8B": "0",
        "3cq1VMRe": "1"
    },
    {
        "P_MISSION_ID": "4904",
        "zsiAn9P1": "1",
        "7Chp6GLX": "0",
        "epbDni51": "301",
        "sX3HQc4a": "100",
        "MXQ4ea8B": "1",
        "3cq1VMRe": "1"
    },
    {
        "P_MISSION_ID": "4910",
        "zsiAn9P1": "1",
        "7Chp6GLX": "0",
        "epbDni51": "306",
        "sX3HQc4a": "0",
        "MXQ4ea8B": "0",
        "3cq1VMRe": "1"
    },
    {
        "P_MISSION_ID": "5002",
        "zsiAn9P1": "1",
        "7Chp6GLX": "0",
        "epbDni51": "302",
        "sX3HQc4a": "100",
        "MXQ4ea8B": "1",
        "3cq1VMRe": "1"
    },
    {
        "P_MISSION_ID": "5003",
        "zsiAn9P1": "1",
        "7Chp6GLX": "0",
        "epbDni51": "302",
        "sX3HQc4a": "100",
        "MXQ4ea8B": "1",
        "3cq1VMRe": "1"
    },
    {
        "P_MISSION_ID": "5010",
        "zsiAn9P1": "1",
        "7Chp6GLX": "0",
        "epbDni51": "307",
        "sX3HQc4a": "0",
        "MXQ4ea8B": "0",
        "3cq1VMRe": "1"
    },
    {
        "P_MISSION_ID": "5103",
        "zsiAn9P1": "1",
        "7Chp6GLX": "0",
        "epbDni51": "303",
        "sX3HQc4a": "100",
        "MXQ4ea8B": "1",
        "3cq1VMRe": "1"
    },
    {
        "P_MISSION_ID": "5204",
        "zsiAn9P1": "1",
        "7Chp6GLX": "0",
        "epbDni51": "304",
        "sX3HQc4a": "104",
        "MXQ4ea8B": "1",
        "3cq1VMRe": "1"
    },
    {
        "P_MISSION_ID": "5401",
        "zsiAn9P1": "1",
        "7Chp6GLX": "0",
        "epbDni51": "400",
        "sX3HQc4a": "104",
        "MXQ4ea8B": "1",
        "3cq1VMRe": "1"
    },
    {
        "P_MISSION_ID": "5402",
        "zsiAn9P1": "1",
        "7Chp6GLX": "0",
        "epbDni51": "400",
        "sX3HQc4a": "104",
        "MXQ4ea8B": "1",
        "3cq1VMRe": "1"
    },
    {
        "P_MISSION_ID": "5410",
        "zsiAn9P1": "1",
        "7Chp6GLX": "0",
        "epbDni51": "404",
        "sX3HQc4a": "0",
        "MXQ4ea8B": "0",
        "3cq1VMRe": "0"
    },
    {
        "P_MISSION_ID": "5601",
        "zsiAn9P1": "1",
        "7Chp6GLX": "0",
        "epbDni51": "0",
        "sX3HQc4a": "103",
        "MXQ4ea8B": "1",
        "3cq1VMRe": "0"
    },
    {
        "P_MISSION_ID": "5602",
        "zsiAn9P1": "1",
        "7Chp6GLX": "0",
        "epbDni51": "0",
        "sX3HQc4a": "103",
        "MXQ4ea8B": "1",
        "3cq1VMRe": "0"
    },
    {
        "P_MISSION_ID": "5603",
        "zsiAn9P1": "1",
        "7Chp6GLX": "0",
        "epbDni51": "0",
        "sX3HQc4a": "103",
        "MXQ4ea8B": "1",
        "3cq1VMRe": "0"
    },
    {
        "P_MISSION_ID": "5610",
        "zsiAn9P1": "1",
        "7Chp6GLX": "0",
        "epbDni51": "408",
        "sX3HQc4a": "0",
        "MXQ4ea8B": "0",
        "3cq1VMRe": "0"
    },
    {
        "P_MISSION_ID": "5701",
        "zsiAn9P1": "1",
        "7Chp6GLX": "0",
        "epbDni51": "0",
        "sX3HQc4a": "103",
        "MXQ4ea8B": "1",
        "3cq1VMRe": "0"
    },
    {
        "P_MISSION_ID": "5702",
        "zsiAn9P1": "1",
        "7Chp6GLX": "0",
        "epbDni51": "0",
        "sX3HQc4a": "103",
        "MXQ4ea8B": "1",
        "3cq1VMRe": "0"
    },
    {
        "P_MISSION_ID": "5703",
        "zsiAn9P1": "1",
        "7Chp6GLX": "0",
        "epbDni51": "0",
        "sX3HQc4a": "103",
        "MXQ4ea8B": "1",
        "3cq1VMRe": "0"
    },
    {
        "P_MISSION_ID": "5801",
        "zsiAn9P1": "1",
        "7Chp6GLX": "0",
        "epbDni51": "0",
        "sX3HQc4a": "103",
        "MXQ4ea8B": "1",
        "3cq1VMRe": "0"
    },
    {
        "P_MISSION_ID": "5802",
        "zsiAn9P1": "1",
        "7Chp6GLX": "0",
        "epbDni51": "0",
        "sX3HQc4a": "103",
        "MXQ4ea8B": "1",
        "3cq1VMRe": "0"
    },
    {
        "P_MISSION_ID": "5803",
        "zsiAn9P1": "1",
        "7Chp6GLX": "0",
        "epbDni51": "0",
        "sX3HQc4a": "103",
        "MXQ4ea8B": "1",
        "3cq1VMRe": "0"
    },
    {
        "P_MISSION_ID": "5810",
        "zsiAn9P1": "1",
        "7Chp6GLX": "0",
        "epbDni51": "406",
        "sX3HQc4a": "0",
        "MXQ4ea8B": "0",
        "3cq1VMRe": "0"
    },
    {
        "P_MISSION_ID": "5811",
        "zsiAn9P1": "1",
        "7Chp6GLX": "0",
        "epbDni51": "406",
        "sX3HQc4a": "0",
        "MXQ4ea8B": "0",
        "3cq1VMRe": "0"
    },
    {
        "P_MISSION_ID": "5901",
        "zsiAn9P1": "1",
        "7Chp6GLX": "0",
        "epbDni51": "401",
        "sX3HQc4a": "107",
        "MXQ4ea8B": "1",
        "3cq1VMRe": "1"
    },
    {
        "P_MISSION_ID": "5902",
        "zsiAn9P1": "1",
        "7Chp6GLX": "0",
        "epbDni51": "401",
        "sX3HQc4a": "107",
        "MXQ4ea8B": "1",
        "3cq1VMRe": "1"
    },
    {
        "P_MISSION_ID": "6001",
        "zsiAn9P1": "1",
        "7Chp6GLX": "0",
        "epbDni51": "0",
        "sX3HQc4a": "102",
        "MXQ4ea8B": "1",
        "3cq1VMRe": "0"
    },
    {
        "P_MISSION_ID": "6002",
        "zsiAn9P1": "1",
        "7Chp6GLX": "0",
        "epbDni51": "0",
        "sX3HQc4a": "102",
        "MXQ4ea8B": "1",
        "3cq1VMRe": "0"
    },
    {
        "P_MISSION_ID": "6003",
        "zsiAn9P1": "1",
        "7Chp6GLX": "0",
        "epbDni51": "0",
        "sX3HQc4a": "102",
        "MXQ4ea8B": "1",
        "3cq1VMRe": "0"
    },
    {
        "P_MISSION_ID": "6101",
        "zsiAn9P1": "1",
        "7Chp6GLX": "0",
        "epbDni51": "0",
        "sX3HQc4a": "102",
        "MXQ4ea8B": "1",
        "3cq1VMRe": "0"
    },
    {
        "P_MISSION_ID": "6102",
        "zsiAn9P1": "1",
        "7Chp6GLX": "0",
        "epbDni51": "0",
        "sX3HQc4a": "102",
        "MXQ4ea8B": "1",
        "3cq1VMRe": "0"
    },
    {
        "P_MISSION_ID": "6103",
        "zsiAn9P1": "1",
        "7Chp6GLX": "0",
        "epbDni51": "0",
        "sX3HQc4a": "102",
        "MXQ4ea8B": "1",
        "3cq1VMRe": "0"
    },
    {
        "P_MISSION_ID": "6201",
        "zsiAn9P1": "1",
        "7Chp6GLX": "0",
        "epbDni51": "0",
        "sX3HQc4a": "102",
        "MXQ4ea8B": "1",
        "3cq1VMRe": "0"
    },
    {
        "P_MISSION_ID": "6202",
        "zsiAn9P1": "1",
        "7Chp6GLX": "0",
        "epbDni51": "0",
        "sX3HQc4a": "102",
        "MXQ4ea8B": "1",
        "3cq1VMRe": "0"
    },
    {
        "P_MISSION_ID": "6203",
        "zsiAn9P1": "1",
        "7Chp6GLX": "0",
        "epbDni51": "0",
        "sX3HQc4a": "102",
        "MXQ4ea8B": "1",
        "3cq1VMRe": "0"
    },
    {
        "P_MISSION_ID": "6301",
        "zsiAn9P1": "1",
        "7Chp6GLX": "0",
        "epbDni51": "0",
        "sX3HQc4a": "102",
        "MXQ4ea8B": "1",
        "3cq1VMRe": "0"
    },
    {
        "P_MISSION_ID": "6302",
        "zsiAn9P1": "1",
        "7Chp6GLX": "0",
        "epbDni51": "0",
        "sX3HQc4a": "102",
        "MXQ4ea8B": "1",
        "3cq1VMRe": "0"
    },
    {
        "P_MISSION_ID": "6303",
        "zsiAn9P1": "1",
        "7Chp6GLX": "0",
        "epbDni51": "0",
        "sX3HQc4a": "102",
        "MXQ4ea8B": "1",
        "3cq1VMRe": "0"
    },
    {
        "P_MISSION_ID": "6304",
        "zsiAn9P1": "1",
        "7Chp6GLX": "0",
        "epbDni51": "402",
        "sX3HQc4a": "106",
        "MXQ4ea8B": "1",
        "3cq1VMRe": "1"
    },
    {
        "P_MISSION_ID": "6305",
        "zsiAn9P1": "1",
        "7Chp6GLX": "9",
        "epbDni51": "403",
        "sX3HQc4a": "104",
        "MXQ4ea8B": "0",
        "3cq1VMRe": "1"
    },
    {
        "P_MISSION_ID": "6306",
        "zsiAn9P1": "1",
        "7Chp6GLX": "0",
        "epbDni51": "407",
        "sX3HQc4a": "0",
        "MXQ4ea8B": "0",
        "3cq1VMRe": "0"
    },
    {
        "P_MISSION_ID": "6603",
        "zsiAn9P1": "1",
        "7Chp6GLX": "0",
        "epbDni51": "500",
        "sX3HQc4a": "0",
        "MXQ4ea8B": "0",
        "3cq1VMRe": "0"
    },
    {
        "P_MISSION_ID": "6701",
        "zsiAn9P1": "1",
        "7Chp6GLX": "0",
        "epbDni51": "501",
        "sX3HQc4a": "0",
        "MXQ4ea8B": "0",
        "3cq1VMRe": "0"
    },
    {
        "P_MISSION_ID": "6701",
        "zsiAn9P1": "2",
        "7Chp6GLX": "0",
        "epbDni51": "502",
        "sX3HQc4a": "0",
        "MXQ4ea8B": "0",
        "3cq1VMRe": "0"
    },
    {
        "P_MISSION_ID": "6801",
        "zsiAn9P1": "1",
        "7Chp6GLX": "0",
        "epbDni51": "500",
        "sX3HQc4a": "0",
        "MXQ4ea8B": "0",
        "3cq1VMRe": "0"
    },
    {
        "P_MISSION_ID": "6804",
        "zsiAn9P1": "1",
        "7Chp6GLX": "0",
        "epbDni51": "500",
        "sX3HQc4a": "0",
        "MXQ4ea8B": "0",
        "3cq1VMRe": "0"
    },
    {
        "P_MISSION_ID": "6901",
        "zsiAn9P1": "1",
        "7Chp6GLX": "0",
        "epbDni51": "500",
        "sX3HQc4a": "0",
        "MXQ4ea8B": "0",
        "3cq1VMRe": "0"
    },
    {
        "P_MISSION_ID": "6902",
        "zsiAn9P1": "1",
        "7Chp6GLX": "0",
        "epbDni51": "504",
        "sX3HQc4a": "105",
        "MXQ4ea8B": "0",
        "3cq1VMRe": "0"
    },
    {
        "P_MISSION_ID": "6903",
        "zsiAn9P1": "1",
        "7Chp6GLX": "0",
        "epbDni51": "505",
        "sX3HQc4a": "0",
        "MXQ4ea8B": "0",
        "3cq1VMRe": "0"
    },
    {
        "P_MISSION_ID": "6905",
        "zsiAn9P1": "1",
        "7Chp6GLX": "0",
        "epbDni51": "505",
        "sX3HQc4a": "0",
        "MXQ4ea8B": "0",
        "3cq1VMRe": "0"
    },
    {
        "P_MISSION_ID": "7002",
        "zsiAn9P1": "1",
        "7Chp6GLX": "0",
        "epbDni51": "506",
        "sX3HQc4a": "0",
        "MXQ4ea8B": "0",
        "3cq1VMRe": "0"
    },
    {
        "P_MISSION_ID": "7004",
        "zsiAn9P1": "1",
        "7Chp6GLX": "0",
        "epbDni51": "500",
        "sX3HQc4a": "0",
        "MXQ4ea8B": "0",
        "3cq1VMRe": "0"
    },
    {
        "P_MISSION_ID": "7101",
        "zsiAn9P1": "1",
        "7Chp6GLX": "0",
        "epbDni51": "600",
        "sX3HQc4a": "0",
        "MXQ4ea8B": "0",
        "3cq1VMRe": "0"
    },
    {
        "P_MISSION_ID": "7102",
        "zsiAn9P1": "1",
        "7Chp6GLX": "0",
        "epbDni51": "602",
        "sX3HQc4a": "0",
        "MXQ4ea8B": "0",
        "3cq1VMRe": "0"
    },
    {
        "P_MISSION_ID": "7201",
        "zsiAn9P1": "1",
        "7Chp6GLX": "0",
        "epbDni51": "602",
        "sX3HQc4a": "0",
        "MXQ4ea8B": "0",
        "3cq1VMRe": "0"
    },
    {
        "P_MISSION_ID": "7304",
        "zsiAn9P1": "1",
        "7Chp6GLX": "0",
        "epbDni51": "603",
        "sX3HQc4a": "0",
        "MXQ4ea8B": "0",
        "3cq1VMRe": "0"
    },
    {
        "P_MISSION_ID": "7501",
        "zsiAn9P1": "1",
        "7Chp6GLX": "0",
        "epbDni51": "604",
        "sX3HQc4a": "0",
        "MXQ4ea8B": "0",
        "3cq1VMRe": "0"
    },
    {
        "P_MISSION_ID": "7501",
        "zsiAn9P1": "2",
        "7Chp6GLX": "0",
        "epbDni51": "605",
        "sX3HQc4a": "0",
        "MXQ4ea8B": "0",
        "3cq1VMRe": "0"
    },
    {
        "P_MISSION_ID": "7503",
        "zsiAn9P1": "1",
        "7Chp6GLX": "0",
        "epbDni51": "606",
        "sX3HQc4a": "0",
        "MXQ4ea8B": "0",
        "3cq1VMRe": "0"
    },
    {
        "P_MISSION_ID": "7801",
        "zsiAn9P1": "1",
        "7Chp6GLX": "0",
        "epbDni51": "700",
        "sX3HQc4a": "112",
        "MXQ4ea8B": "0",
        "3cq1VMRe": "0"
    },
    {
        "P_MISSION_ID": "7802",
        "zsiAn9P1": "1",
        "7Chp6GLX": "0",
        "epbDni51": "700",
        "sX3HQc4a": "112",
        "MXQ4ea8B": "0",
        "3cq1VMRe": "0"
    },
    {
        "P_MISSION_ID": "7803",
        "zsiAn9P1": "1",
        "7Chp6GLX": "0",
        "epbDni51": "700",
        "sX3HQc4a": "112",
        "MXQ4ea8B": "0",
        "3cq1VMRe": "0"
    },
    {
        "P_MISSION_ID": "7901",
        "zsiAn9P1": "1",
        "7Chp6GLX": "0",
        "epbDni51": "701",
        "sX3HQc4a": "111",
        "MXQ4ea8B": "0",
        "3cq1VMRe": "0"
    },
    {
        "P_MISSION_ID": "7902",
        "zsiAn9P1": "1",
        "7Chp6GLX": "0",
        "epbDni51": "701",
        "sX3HQc4a": "111",
        "MXQ4ea8B": "0",
        "3cq1VMRe": "0"
    },
    {
        "P_MISSION_ID": "7903",
        "zsiAn9P1": "1",
        "7Chp6GLX": "0",
        "epbDni51": "701",
        "sX3HQc4a": "111",
        "MXQ4ea8B": "0",
        "3cq1VMRe": "0"
    },
    {
        "P_MISSION_ID": "8001",
        "zsiAn9P1": "1",
        "7Chp6GLX": "0",
        "epbDni51": "706",
        "sX3HQc4a": "110",
        "MXQ4ea8B": "0",
        "3cq1VMRe": "0"
    },
    {
        "P_MISSION_ID": "8002",
        "zsiAn9P1": "1",
        "7Chp6GLX": "0",
        "epbDni51": "706",
        "sX3HQc4a": "110",
        "MXQ4ea8B": "0",
        "3cq1VMRe": "0"
    },
    {
        "P_MISSION_ID": "8003",
        "zsiAn9P1": "1",
        "7Chp6GLX": "0",
        "epbDni51": "706",
        "sX3HQc4a": "110",
        "MXQ4ea8B": "0",
        "3cq1VMRe": "0"
    },
    {
        "P_MISSION_ID": "8101",
        "zsiAn9P1": "1",
        "7Chp6GLX": "0",
        "epbDni51": "707",
        "sX3HQc4a": "110",
        "MXQ4ea8B": "0",
        "3cq1VMRe": "0"
    },
    {
        "P_MISSION_ID": "8102",
        "zsiAn9P1": "1",
        "7Chp6GLX": "0",
        "epbDni51": "707",
        "sX3HQc4a": "110",
        "MXQ4ea8B": "0",
        "3cq1VMRe": "0"
    },
    {
        "P_MISSION_ID": "8103",
        "zsiAn9P1": "1",
        "7Chp6GLX": "0",
        "epbDni51": "707",
        "sX3HQc4a": "110",
        "MXQ4ea8B": "0",
        "3cq1VMRe": "0"
    },
    {
        "P_MISSION_ID": "8201",
        "zsiAn9P1": "1",
        "7Chp6GLX": "0",
        "epbDni51": "708",
        "sX3HQc4a": "110",
        "MXQ4ea8B": "0",
        "3cq1VMRe": "0"
    },
    {
        "P_MISSION_ID": "8202",
        "zsiAn9P1": "1",
        "7Chp6GLX": "0",
        "epbDni51": "708",
        "sX3HQc4a": "110",
        "MXQ4ea8B": "0",
        "3cq1VMRe": "0"
    },
    {
        "P_MISSION_ID": "8203",
        "zsiAn9P1": "1",
        "7Chp6GLX": "0",
        "epbDni51": "708",
        "sX3HQc4a": "110",
        "MXQ4ea8B": "0",
        "3cq1VMRe": "0"
    },
    {
        "P_MISSION_ID": "8301",
        "zsiAn9P1": "1",
        "7Chp6GLX": "0",
        "epbDni51": "709",
        "sX3HQc4a": "110",
        "MXQ4ea8B": "0",
        "3cq1VMRe": "0"
    },
    {
        "P_MISSION_ID": "8302",
        "zsiAn9P1": "1",
        "7Chp6GLX": "0",
        "epbDni51": "709",
        "sX3HQc4a": "110",
        "MXQ4ea8B": "0",
        "3cq1VMRe": "0"
    },
    {
        "P_MISSION_ID": "8303",
        "zsiAn9P1": "1",
        "7Chp6GLX": "0",
        "epbDni51": "709",
        "sX3HQc4a": "110",
        "MXQ4ea8B": "0",
        "3cq1VMRe": "0"
    },
    {
        "P_MISSION_ID": "8401",
        "zsiAn9P1": "1",
        "7Chp6GLX": "0",
        "epbDni51": "710",
        "sX3HQc4a": "110",
        "MXQ4ea8B": "0",
        "3cq1VMRe": "0"
    },
    {
        "P_MISSION_ID": "8402",
        "zsiAn9P1": "1",
        "7Chp6GLX": "0",
        "epbDni51": "710",
        "sX3HQc4a": "110",
        "MXQ4ea8B": "0",
        "3cq1VMRe": "0"
    },
    {
        "P_MISSION_ID": "8403",
        "zsiAn9P1": "1",
        "7Chp6GLX": "0",
        "epbDni51": "710",
        "sX3HQc4a": "110",
        "MXQ4ea8B": "0",
        "3cq1VMRe": "0"
    },
    {
        "P_MISSION_ID": "8801",
        "zsiAn9P1": "1",
        "7Chp6GLX": "0",
        "epbDni51": "0",
        "sX3HQc4a": "110",
        "MXQ4ea8B": "0",
        "3cq1VMRe": "0"
    },
    {
        "P_MISSION_ID": "8802",
        "zsiAn9P1": "1",
        "7Chp6GLX": "0",
        "epbDni51": "0",
        "sX3HQc4a": "110",
        "MXQ4ea8B": "0",
        "3cq1VMRe": "0"
    },
    {
        "P_MISSION_ID": "8803",
        "zsiAn9P1": "1",
        "7Chp6GLX": "0",
        "epbDni51": "0",
        "sX3HQc4a": "110",
        "MXQ4ea8B": "0",
        "3cq1VMRe": "0"
    },
    {
        "P_MISSION_ID": "8904",
        "zsiAn9P1": "1",
        "7Chp6GLX": "0",
        "epbDni51": "0",
        "sX3HQc4a": "110",
        "MXQ4ea8B": "0",
        "3cq1VMRe": "0"
    },
    {
        "P_MISSION_ID": "9001",
        "zsiAn9P1": "1",
        "7Chp6GLX": "0",
        "epbDni51": "0",
        "sX3HQc4a": "110",
        "MXQ4ea8B": "0",
        "3cq1VMRe": "0"
    },
    {
        "P_MISSION_ID": "9002",
        "zsiAn9P1": "1",
        "7Chp6GLX": "0",
        "epbDni51": "0",
        "sX3HQc4a": "110",
        "MXQ4ea8B": "0",
        "3cq1VMRe": "0"
    },
    {
        "P_MISSION_ID": "9003",
        "zsiAn9P1": "1",
        "7Chp6GLX": "0",
        "epbDni51": "0",
        "sX3HQc4a": "0",
        "MXQ4ea8B": "0",
        "3cq1VMRe": "0"
    },
    {
        "P_MISSION_ID": "9003",
        "zsiAn9P1": "2",
        "7Chp6GLX": "0",
        "epbDni51": "0",
        "sX3HQc4a": "0",
        "MXQ4ea8B": "0",
        "3cq1VMRe": "0"
    },
    {
        "P_MISSION_ID": "3010203",
        "zsiAn9P1": "1",
        "7Chp6GLX": "0",
        "epbDni51": "0",
        "sX3HQc4a": "306",
        "MXQ4ea8B": "0",
        "3cq1VMRe": "0"
    },
    {
        "P_MISSION_ID": "3020103",
        "zsiAn9P1": "1",
        "7Chp6GLX": "0",
        "epbDni51": "0",
        "sX3HQc4a": "0",
        "MXQ4ea8B": "0",
        "3cq1VMRe": "0"
    },
    {
        "P_MISSION_ID": "3020103",
        "zsiAn9P1": "2",
        "7Chp6GLX": "0",
        "epbDni51": "0",
        "sX3HQc4a": "0",
        "MXQ4ea8B": "0",
        "3cq1VMRe": "0"
    },
    {
        "P_MISSION_ID": "3020104",
        "zsiAn9P1": "1",
        "7Chp6GLX": "0",
        "epbDni51": "0",
        "sX3HQc4a": "0",
        "MXQ4ea8B": "0",
        "3cq1VMRe": "0"
    },
    {
        "P_MISSION_ID": "3020104",
        "zsiAn9P1": "2",
        "7Chp6GLX": "0",
        "epbDni51": "0",
        "sX3HQc4a": "0",
        "MXQ4ea8B": "0",
        "3cq1VMRe": "0"
    },
    {
        "P_MISSION_ID": "3020106",
        "zsiAn9P1": "1",
        "7Chp6GLX": "0",
        "epbDni51": "0",
        "sX3HQc4a": "0",
        "MXQ4ea8B": "0",
        "3cq1VMRe": "0"
    },
    {
        "P_MISSION_ID": "3020106",
        "zsiAn9P1": "2",
        "7Chp6GLX": "0",
        "epbDni51": "0",
        "sX3HQc4a": "0",
        "MXQ4ea8B": "0",
        "3cq1VMRe": "0"
    },
    {
        "P_MISSION_ID": "3020107",
        "zsiAn9P1": "1",
        "7Chp6GLX": "0",
        "epbDni51": "0",
        "sX3HQc4a": "0",
        "MXQ4ea8B": "0",
        "3cq1VMRe": "0"
    },
    {
        "P_MISSION_ID": "3020107",
        "zsiAn9P1": "2",
        "7Chp6GLX": "0",
        "epbDni51": "0",
        "sX3HQc4a": "0",
        "MXQ4ea8B": "0",
        "3cq1VMRe": "0"
    }
]