[
    {
        "P_MISSION_ID": "1",
        "zsiAn9P1": "1",
        "7Chp6GLX": "0",
        "epbDni51": "1",
        "sX3HQc4a": "0",
        "MXQ4ea8B": "0",
        "3cq1VMRe": "1"
    },
    {
        "P_MISSION_ID": "2",
        "zsiAn9P1": "1",
        "7Chp6GLX": "0",
        "epbDni51": "2",
        "sX3HQc4a": "0",
        "MXQ4ea8B": "0",
        "3cq1VMRe": "1"
    },
    {
        "P_MISSION_ID": "3",
        "zsiAn9P1": "1",
        "7Chp6GLX": "0",
        "epbDni51": "3",
        "sX3HQc4a": "0",
        "MXQ4ea8B": "0",
        "3cq1VMRe": "1"
    },
    {
        "P_MISSION_ID": "101",
        "zsiAn9P1": "1",
        "7Chp6GLX": "9",
        "epbDni51": "101",
        "sX3HQc4a": "100",
        "MXQ4ea8B": "1",
        "3cq1VMRe": "1"
    },
    {
        "P_MISSION_ID": "102",
        "zsiAn9P1": "1",
        "7Chp6GLX": "9",
        "epbDni51": "101",
        "sX3HQc4a": "100",
        "MXQ4ea8B": "1",
        "3cq1VMRe": "1"
    },
    {
        "P_MISSION_ID": "503",
        "zsiAn9P1": "1",
        "7Chp6GLX": "0",
        "epbDni51": "104",
        "sX3HQc4a": "100",
        "MXQ4ea8B": "1",
        "3cq1VMRe": "1"
    },
    {
        "P_MISSION_ID": "610",
        "zsiAn9P1": "1",
        "7Chp6GLX": "0",
        "epbDni51": "110",
        "sX3HQc4a": "0",
        "MXQ4ea8B": "1",
        "3cq1VMRe": "1"
    },
    {
        "P_MISSION_ID": "810",
        "zsiAn9P1": "1",
        "7Chp6GLX": "0",
        "epbDni51": "111",
        "sX3HQc4a": "0",
        "MXQ4ea8B": "1",
        "3cq1VMRe": "1"
    },
    {
        "P_MISSION_ID": "811",
        "zsiAn9P1": "1",
        "7Chp6GLX": "0",
        "epbDni51": "112",
        "sX3HQc4a": "0",
        "MXQ4ea8B": "1",
        "3cq1VMRe": "1"
    },
    {
        "P_MISSION_ID": "904",
        "zsiAn9P1": "1",
        "7Chp6GLX": "0",
        "epbDni51": "103",
        "sX3HQc4a": "100",
        "MXQ4ea8B": "1",
        "3cq1VMRe": "0"
    },
    {
        "P_MISSION_ID": "910",
        "zsiAn9P1": "1",
        "7Chp6GLX": "0",
        "epbDni51": "113",
        "sX3HQc4a": "0",
        "MXQ4ea8B": "1",
        "3cq1VMRe": "1"
    },
    {
        "P_MISSION_ID": "1001",
        "zsiAn9P1": "1",
        "7Chp6GLX": "0",
        "epbDni51": "201",
        "sX3HQc4a": "101",
        "MXQ4ea8B": "1",
        "3cq1VMRe": "1"
    },
    {
        "P_MISSION_ID": "1002",
        "zsiAn9P1": "1",
        "7Chp6GLX": "0",
        "epbDni51": "201",
        "sX3HQc4a": "101",
        "MXQ4ea8B": "1",
        "3cq1VMRe": "1"
    },
    {
        "P_MISSION_ID": "1010",
        "zsiAn9P1": "1",
        "7Chp6GLX": "0",
        "epbDni51": "207",
        "sX3HQc4a": "0",
        "MXQ4ea8B": "1",
        "3cq1VMRe": "1"
    },
    {
        "P_MISSION_ID": "1101",
        "zsiAn9P1": "1",
        "7Chp6GLX": "0",
        "epbDni51": "202",
        "sX3HQc4a": "101",
        "MXQ4ea8B": "1",
        "3cq1VMRe": "1"
    },
    {
        "P_MISSION_ID": "1102",
        "zsiAn9P1": "1",
        "7Chp6GLX": "0",
        "epbDni51": "202",
        "sX3HQc4a": "101",
        "MXQ4ea8B": "1",
        "3cq1VMRe": "1"
    },
    {
        "P_MISSION_ID": "2001",
        "zsiAn9P1": "1",
        "7Chp6GLX": "0",
        "epbDni51": "203",
        "sX3HQc4a": "101",
        "MXQ4ea8B": "1",
        "3cq1VMRe": "1"
    },
    {
        "P_MISSION_ID": "2201",
        "zsiAn9P1": "1",
        "7Chp6GLX": "0",
        "epbDni51": "202",
        "sX3HQc4a": "101",
        "MXQ4ea8B": "1",
        "3cq1VMRe": "1"
    },
    {
        "P_MISSION_ID": "2203",
        "zsiAn9P1": "1",
        "7Chp6GLX": "0",
        "epbDni51": "0",
        "sX3HQc4a": "101",
        "MXQ4ea8B": "1",
        "3cq1VMRe": "0"
    },
    {
        "P_MISSION_ID": "2601",
        "zsiAn9P1": "1",
        "7Chp6GLX": "0",
        "epbDni51": "105",
        "sX3HQc4a": "102",
        "MXQ4ea8B": "1",
        "3cq1VMRe": "0"
    },
    {
        "P_MISSION_ID": "2602",
        "zsiAn9P1": "1",
        "7Chp6GLX": "0",
        "epbDni51": "105",
        "sX3HQc4a": "102",
        "MXQ4ea8B": "1",
        "3cq1VMRe": "0"
    },
    {
        "P_MISSION_ID": "2610",
        "zsiAn9P1": "1",
        "7Chp6GLX": "0",
        "epbDni51": "114",
        "sX3HQc4a": "0",
        "MXQ4ea8B": "0",
        "3cq1VMRe": "1"
    },
    {
        "P_MISSION_ID": "2904",
        "zsiAn9P1": "1",
        "7Chp6GLX": "0",
        "epbDni51": "106",
        "sX3HQc4a": "100",
        "MXQ4ea8B": "1",
        "3cq1VMRe": "0"
    },
    {
        "P_MISSION_ID": "2910",
        "zsiAn9P1": "1",
        "7Chp6GLX": "0",
        "epbDni51": "115",
        "sX3HQc4a": "0",
        "MXQ4ea8B": "0",
        "3cq1VMRe": "1"
    },
    {
        "P_MISSION_ID": "3190",
        "zsiAn9P1": "1",
        "7Chp6GLX": "0",
        "epbDni51": "118",
        "sX3HQc4a": "0",
        "MXQ4ea8B": "1",
        "3cq1VMRe": "0"
    },
    {
        "P_MISSION_ID": "3202",
        "zsiAn9P1": "1",
        "7Chp6GLX": "0",
        "epbDni51": "107",
        "sX3HQc4a": "100",
        "MXQ4ea8B": "1",
        "3cq1VMRe": "1"
    },
    {
        "P_MISSION_ID": "3210",
        "zsiAn9P1": "1",
        "7Chp6GLX": "0",
        "epbDni51": "116",
        "sX3HQc4a": "0",
        "MXQ4ea8B": "0",
        "3cq1VMRe": "1"
    },
    {
        "P_MISSION_ID": "3501",
        "zsiAn9P1": "1",
        "7Chp6GLX": "0",
        "epbDni51": "108",
        "sX3HQc4a": "100",
        "MXQ4ea8B": "1",
        "3cq1VMRe": "1"
    },
    {
        "P_MISSION_ID": "3603",
        "zsiAn9P1": "1",
        "7Chp6GLX": "0",
        "epbDni51": "109",
        "sX3HQc4a": "100",
        "MXQ4ea8B": "1",
        "3cq1VMRe": "1"
    },
    {
        "P_MISSION_ID": "3701",
        "zsiAn9P1": "1",
        "7Chp6GLX": "0",
        "epbDni51": "204",
        "sX3HQc4a": "103",
        "MXQ4ea8B": "1",
        "3cq1VMRe": "1"
    },
    {
        "P_MISSION_ID": "3702",
        "zsiAn9P1": "1",
        "7Chp6GLX": "0",
        "epbDni51": "204",
        "sX3HQc4a": "103",
        "MXQ4ea8B": "1",
        "3cq1VMRe": "1"
    },
    {
        "P_MISSION_ID": "3710",
        "zsiAn9P1": "1",
        "7Chp6GLX": "0",
        "epbDni51": "218",
        "sX3HQc4a": "0",
        "MXQ4ea8B": "0",
        "3cq1VMRe": "1"
    },
    {
        "P_MISSION_ID": "3810",
        "zsiAn9P1": "1",
        "7Chp6GLX": "0",
        "epbDni51": "208",
        "sX3HQc4a": "0",
        "MXQ4ea8B": "0",
        "3cq1VMRe": "1"
    },
    {
        "P_MISSION_ID": "3901",
        "zsiAn9P1": "1",
        "7Chp6GLX": "0",
        "epbDni51": "206",
        "sX3HQc4a": "103",
        "MXQ4ea8B": "1",
        "3cq1VMRe": "1"
    },
    {
        "P_MISSION_ID": "3902",
        "zsiAn9P1": "1",
        "7Chp6GLX": "0",
        "epbDni51": "206",
        "sX3HQc4a": "103",
        "MXQ4ea8B": "1",
        "3cq1VMRe": "1"
    },
    {
        "P_MISSION_ID": "3903",
        "zsiAn9P1": "1",
        "7Chp6GLX": "0",
        "epbDni51": "206",
        "sX3HQc4a": "103",
        "MXQ4ea8B": "1",
        "3cq1VMRe": "1"
    },
    {
        "P_MISSION_ID": "3910",
        "zsiAn9P1": "1",
        "7Chp6GLX": "0",
        "epbDni51": "209",
        "sX3HQc4a": "0",
        "MXQ4ea8B": "0",
        "3cq1VMRe": "1"
    },
    {
        "P_MISSION_ID": "3911",
        "zsiAn9P1": "1",
        "7Chp6GLX": "0",
        "epbDni51": "209",
        "sX3HQc4a": "0",
        "MXQ4ea8B": "0",
        "3cq1VMRe": "1"
    },
    {
        "P_MISSION_ID": "3912",
        "zsiAn9P1": "1",
        "7Chp6GLX": "0",
        "epbDni51": "210",
        "sX3HQc4a": "0",
        "MXQ4ea8B": "0",
        "3cq1VMRe": "1"
    },
    {
        "P_MISSION_ID": "4003",
        "zsiAn9P1": "1",
        "7Chp6GLX": "0",
        "epbDni51": "205",
        "sX3HQc4a": "101",
        "MXQ4ea8B": "1",
        "3cq1VMRe": "1"
    },
    {
        "P_MISSION_ID": "4010",
        "zsiAn9P1": "1",
        "7Chp6GLX": "0",
        "epbDni51": "208",
        "sX3HQc4a": "0",
        "MXQ4ea8B": "0",
        "3cq1VMRe": "1"
    },
    {
        "P_MISSION_ID": "4011",
        "zsiAn9P1": "1",
        "7Chp6GLX": "0",
        "epbDni51": "211",
        "sX3HQc4a": "0",
        "MXQ4ea8B": "0",
        "3cq1VMRe": "1"
    },
    {
        "P_MISSION_ID": "4012",
        "zsiAn9P1": "1",
        "7Chp6GLX": "0",
        "epbDni51": "208",
        "sX3HQc4a": "0",
        "MXQ4ea8B": "0",
        "3cq1VMRe": "1"
    },
    {
        "P_MISSION_ID": "4101",
        "zsiAn9P1": "1",
        "7Chp6GLX": "0",
        "epbDni51": "0",
        "sX3HQc4a": "0",
        "MXQ4ea8B": "1",
        "3cq1VMRe": "1"
    },
    {
        "P_MISSION_ID": "4102",
        "zsiAn9P1": "1",
        "7Chp6GLX": "0",
        "epbDni51": "0",
        "sX3HQc4a": "0",
        "MXQ4ea8B": "1",
        "3cq1VMRe": "1"
    },
    {
        "P_MISSION_ID": "4110",
        "zsiAn9P1": "1",
        "7Chp6GLX": "0",
        "epbDni51": "219",
        "sX3HQc4a": "0",
        "MXQ4ea8B": "0",
        "3cq1VMRe": "1"
    },
    {
        "P_MISSION_ID": "4201",
        "zsiAn9P1": "1",
        "7Chp6GLX": "0",
        "epbDni51": "0",
        "sX3HQc4a": "0",
        "MXQ4ea8B": "1",
        "3cq1VMRe": "1"
    },
    {
        "P_MISSION_ID": "4202",
        "zsiAn9P1": "1",
        "7Chp6GLX": "0",
        "epbDni51": "0",
        "sX3HQc4a": "0",
        "MXQ4ea8B": "1",
        "3cq1VMRe": "1"
    },
    {
        "P_MISSION_ID": "4410",
        "zsiAn9P1": "1",
        "7Chp6GLX": "0",
        "epbDni51": "219",
        "sX3HQc4a": "0",
        "MXQ4ea8B": "0",
        "3cq1VMRe": "1"
    },
    {
        "P_MISSION_ID": "4411",
        "zsiAn9P1": "1",
        "7Chp6GLX": "0",
        "epbDni51": "219",
        "sX3HQc4a": "0",
        "MXQ4ea8B": "0",
        "3cq1VMRe": "1"
    },
    {
        "P_MISSION_ID": "4501",
        "zsiAn9P1": "1",
        "7Chp6GLX": "0",
        "epbDni51": "0",
        "sX3HQc4a": "0",
        "MXQ4ea8B": "1",
        "3cq1VMRe": "1"
    },
    {
        "P_MISSION_ID": "4502",
        "zsiAn9P1": "1",
        "7Chp6GLX": "0",
        "epbDni51": "0",
        "sX3HQc4a": "0",
        "MXQ4ea8B": "1",
        "3cq1VMRe": "1"
    },
    {
        "P_MISSION_ID": "4503",
        "zsiAn9P1": "1",
        "7Chp6GLX": "0",
        "epbDni51": "0",
        "sX3HQc4a": "0",
        "MXQ4ea8B": "1",
        "3cq1VMRe": "1"
    },
    {
        "P_MISSION_ID": "4510",
        "zsiAn9P1": "1",
        "7Chp6GLX": "0",
        "epbDni51": "220",
        "sX3HQc4a": "0",
        "MXQ4ea8B": "0",
        "3cq1VMRe": "1"
    },
    {
        "P_MISSION_ID": "4602",
        "zsiAn9P1": "1",
        "7Chp6GLX": "0",
        "epbDni51": "204",
        "sX3HQc4a": "103",
        "MXQ4ea8B": "1",
        "3cq1VMRe": "1"
    },
    {
        "P_MISSION_ID": "4603",
        "zsiAn9P1": "1",
        "7Chp6GLX": "0",
        "epbDni51": "206",
        "sX3HQc4a": "103",
        "MXQ4ea8B": "1",
        "3cq1VMRe": "1"
    },
    {
        "P_MISSION_ID": "4610",
        "zsiAn9P1": "1",
        "7Chp6GLX": "0",
        "epbDni51": "220",
        "sX3HQc4a": "0",
        "MXQ4ea8B": "0",
        "3cq1VMRe": "1"
    },
    {
        "P_MISSION_ID": "4611",
        "zsiAn9P1": "1",
        "7Chp6GLX": "0",
        "epbDni51": "219",
        "sX3HQc4a": "0",
        "MXQ4ea8B": "0",
        "3cq1VMRe": "1"
    },
    {
        "P_MISSION_ID": "4612",
        "zsiAn9P1": "1",
        "7Chp6GLX": "0",
        "epbDni51": "112",
        "sX3HQc4a": "0",
        "MXQ4ea8B": "0",
        "3cq1VMRe": "1"
    },
    {
        "P_MISSION_ID": "4613",
        "zsiAn9P1": "1",
        "7Chp6GLX": "0",
        "epbDni51": "221",
        "sX3HQc4a": "0",
        "MXQ4ea8B": "0",
        "3cq1VMRe": "1"
    },
    {
        "P_MISSION_ID": "4904",
        "zsiAn9P1": "1",
        "7Chp6GLX": "0",
        "epbDni51": "301",
        "sX3HQc4a": "100",
        "MXQ4ea8B": "1",
        "3cq1VMRe": "1"
    },
    {
        "P_MISSION_ID": "4910",
        "zsiAn9P1": "1",
        "7Chp6GLX": "0",
        "epbDni51": "306",
        "sX3HQc4a": "0",
        "MXQ4ea8B": "0",
        "3cq1VMRe": "1"
    },
    {
        "P_MISSION_ID": "5002",
        "zsiAn9P1": "1",
        "7Chp6GLX": "0",
        "epbDni51": "302",
        "sX3HQc4a": "100",
        "MXQ4ea8B": "1",
        "3cq1VMRe": "1"
    },
    {
        "P_MISSION_ID": "5003",
        "zsiAn9P1": "1",
        "7Chp6GLX": "0",
        "epbDni51": "302",
        "sX3HQc4a": "100",
        "MXQ4ea8B": "1",
        "3cq1VMRe": "1"
    },
    {
        "P_MISSION_ID": "5010",
        "zsiAn9P1": "1",
        "7Chp6GLX": "0",
        "epbDni51": "307",
        "sX3HQc4a": "0",
        "MXQ4ea8B": "0",
        "3cq1VMRe": "1"
    },
    {
        "P_MISSION_ID": "5103",
        "zsiAn9P1": "1",
        "7Chp6GLX": "0",
        "epbDni51": "303",
        "sX3HQc4a": "100",
        "MXQ4ea8B": "1",
        "3cq1VMRe": "1"
    },
    {
        "P_MISSION_ID": "5204",
        "zsiAn9P1": "1",
        "7Chp6GLX": "0",
        "epbDni51": "304",
        "sX3HQc4a": "104",
        "MXQ4ea8B": "1",
        "3cq1VMRe": "1"
    },
    {
        "P_MISSION_ID": "2000900",
        "zsiAn9P1": "1",
        "7Chp6GLX": "0",
        "epbDni51": "9102",
        "sX3HQc4a": "0",
        "MXQ4ea8B": "0",
        "3cq1VMRe": "1"
    },
    {
        "P_MISSION_ID": "2000901",
        "zsiAn9P1": "1",
        "7Chp6GLX": "0",
        "epbDni51": "9103",
        "sX3HQc4a": "0",
        "MXQ4ea8B": "0",
        "3cq1VMRe": "1"
    },
    {
        "P_MISSION_ID": "2000902",
        "zsiAn9P1": "1",
        "7Chp6GLX": "0",
        "epbDni51": "9104",
        "sX3HQc4a": "0",
        "MXQ4ea8B": "0",
        "3cq1VMRe": "1"
    },
    {
        "P_MISSION_ID": "3010101",
        "zsiAn9P1": "1",
        "7Chp6GLX": "0",
        "epbDni51": "0",
        "sX3HQc4a": "100",
        "MXQ4ea8B": "0",
        "3cq1VMRe": "0"
    },
    {
        "P_MISSION_ID": "3010102",
        "zsiAn9P1": "1",
        "7Chp6GLX": "0",
        "epbDni51": "0",
        "sX3HQc4a": "102",
        "MXQ4ea8B": "0",
        "3cq1VMRe": "0"
    },
    {
        "P_MISSION_ID": "3010103",
        "zsiAn9P1": "1",
        "7Chp6GLX": "0",
        "epbDni51": "0",
        "sX3HQc4a": "6",
        "MXQ4ea8B": "0",
        "3cq1VMRe": "0"
    },
    {
        "P_MISSION_ID": "3010104",
        "zsiAn9P1": "1",
        "7Chp6GLX": "0",
        "epbDni51": "0",
        "sX3HQc4a": "5",
        "MXQ4ea8B": "0",
        "3cq1VMRe": "0"
    },
    {
        "P_MISSION_ID": "3020102",
        "zsiAn9P1": "1",
        "7Chp6GLX": "0",
        "epbDni51": "0",
        "sX3HQc4a": "0",
        "MXQ4ea8B": "0",
        "3cq1VMRe": "1"
    },
    {
        "P_MISSION_ID": "3020102",
        "zsiAn9P1": "2",
        "7Chp6GLX": "0",
        "epbDni51": "0",
        "sX3HQc4a": "0",
        "MXQ4ea8B": "0",
        "3cq1VMRe": "1"
    },
    {
        "P_MISSION_ID": "3020104",
        "zsiAn9P1": "1",
        "7Chp6GLX": "0",
        "epbDni51": "0",
        "sX3HQc4a": "0",
        "MXQ4ea8B": "0",
        "3cq1VMRe": "1"
    },
    {
        "P_MISSION_ID": "3020104",
        "zsiAn9P1": "2",
        "7Chp6GLX": "0",
        "epbDni51": "0",
        "sX3HQc4a": "0",
        "MXQ4ea8B": "0",
        "3cq1VMRe": "1"
    },
    {
        "P_MISSION_ID": "9000003",
        "zsiAn9P1": "1",
        "7Chp6GLX": "0",
        "epbDni51": "9001",
        "sX3HQc4a": "0",
        "MXQ4ea8B": "0",
        "3cq1VMRe": "1"
    },
    {
        "P_MISSION_ID": "9000004",
        "zsiAn9P1": "1",
        "7Chp6GLX": "0",
        "epbDni51": "9002",
        "sX3HQc4a": "0",
        "MXQ4ea8B": "0",
        "3cq1VMRe": "1"
    },
    {
        "P_MISSION_ID": "9000005",
        "zsiAn9P1": "1",
        "7Chp6GLX": "0",
        "epbDni51": "9100",
        "sX3HQc4a": "0",
        "MXQ4ea8B": "0",
        "3cq1VMRe": "1"
    },
    {
        "P_MISSION_ID": "9000006",
        "zsiAn9P1": "1",
        "7Chp6GLX": "0",
        "epbDni51": "9101",
        "sX3HQc4a": "0",
        "MXQ4ea8B": "0",
        "3cq1VMRe": "1"
    },
    {
        "P_MISSION_ID": "9000015",
        "zsiAn9P1": "1",
        "7Chp6GLX": "0",
        "epbDni51": "0",
        "sX3HQc4a": "0",
        "MXQ4ea8B": "0",
        "3cq1VMRe": "1"
    },
    {
        "P_MISSION_ID": "9000015",
        "zsiAn9P1": "2",
        "7Chp6GLX": "0",
        "epbDni51": "0",
        "sX3HQc4a": "0",
        "MXQ4ea8B": "0",
        "3cq1VMRe": "1"
    },
    {
        "P_MISSION_ID": "9000113",
        "zsiAn9P1": "1",
        "7Chp6GLX": "0",
        "epbDni51": "1",
        "sX3HQc4a": "0",
        "MXQ4ea8B": "0",
        "3cq1VMRe": "1"
    },
    {
        "P_MISSION_ID": "9000114",
        "zsiAn9P1": "1",
        "7Chp6GLX": "0",
        "epbDni51": "2",
        "sX3HQc4a": "0",
        "MXQ4ea8B": "0",
        "3cq1VMRe": "1"
    },
    {
        "P_MISSION_ID": "9000147",
        "zsiAn9P1": "1",
        "7Chp6GLX": "0",
        "epbDni51": "110",
        "sX3HQc4a": "0",
        "MXQ4ea8B": "0",
        "3cq1VMRe": "1"
    }
]