50,0,0,12,
51,0,0,10,
52,0,0,10,
53,0,0,10,
54,0,0,10,
55,0,0,12,
56,0,0,20,
57,0,0,17,
58,0,0,17,
59,0,0,13,
60,0,0,13,
61,0,0,13,
62,0,0,13,
63,0,0,13,
64,0,0,13,
59,0,0,13,
60,0,0,13,
61,0,0,13,
62,0,0,13,
63,0,0,13,
66,0,0,13,
67,0,0,13,
68,0,0,20,
69,0,0,15,
70,0,0,20,
71,0,0,18,
72,0,0,12,
73,0,0,15,
74,0,0,12,
75,0,0,12,
76,0,0,12,
77,0,0,12,
