116,0,0,3,
117,0,0,3,
118,0,0,3,
119,0,0,3,
120,0,0,3,
121,0,0,3,
122,0,0,3,
123,0,0,3,
124,0,0,0,
125,0,0,3,
126,0,0,3,
127,0,0,3,
128,0,0,3,
129,0,0,3,
130,0,0,3,
131,0,0,3,
132,0,0,3,
133,0,0,3,
134,0,0,3,
135,0,0,3,
136,0,0,3,
137,0,0,0,
138,0,0,7,
139,0,0,7,
140,0,0,3,
141,0,0,3,
142,0,0,3,
143,0,0,3,
144,0,0,3,
145,0,0,3,
146,0,0,3,
147,0,0,3,
148,0,0,0,
149,0,0,3,
150,0,0,3,
151,0,0,3,
152,0,0,3,
153,0,0,3,
154,0,0,3,
155,0,0,3,
156,0,0,3,
157,0,0,3,
158,0,0,3,
159,0,0,3,
160,0,0,3,
161,0,0,0,
162,0,0,7,
163,0,0,7,
