4,0,0,9,
5,0,0,7,
6,0,0,9,
7,0,0,15,
8,0,0,19,
9,0,0,3,
10,0,0,1,
11,0,0,1,
12,0,0,1,
13,0,0,1,
14,0,0,1,
11,0,0,1,
12,0,0,1,
13,0,0,1,
14,0,0,1,
11,0,0,1,
12,0,0,1,
13,0,0,1,
14,0,0,1,
11,0,0,1,
12,0,0,1,
13,0,0,1,
14,0,0,1,
11,0,0,1,
12,0,0,1,
13,0,0,1,
14,0,0,1,
15,0,0,7,
16,0,0,9,
17,0,0,12,
18,0,0,9,
19,0,0,7,
20,0,0,7,
21,0,0,7,
22,0,0,7,
23,0,0,7,
24,0,0,12,
25,0,0,12,
26,0,0,9,
27,0,0,3,
28,0,0,6,
29,0,0,7,
30,0,0,9,
