37,0,0,12,
38,0,0,10,
39,0,0,9,
40,0,0,8,
41,0,0,7,
42,0,0,6,
43,0,0,6,
44,0,0,6,
45,0,0,6,
46,0,0,7,
47,0,0,8,
48,0,0,8,
49,0,0,7,
50,0,0,6,
51,0,0,5,
52,0,0,5,
53,0,0,6,
54,0,0,7,
55,0,0,8,
56,0,0,9,
57,0,0,10,
58,0,0,12,
59,0,0,14,
60,0,0,16,
57,0,0,16,
58,0,0,16,
59,0,0,16,
60,0,0,16,
