43,0,0,5,
44,0,0,6,
45,0,0,6,
46,0,0,6,
47,0,0,5,
48,0,0,5,
49,0,0,5,
50,0,0,4,
51,0,0,5,
52,0,0,5,
53,0,0,4,
54,0,0,4,
55,0,0,4,
56,0,0,4,
57,0,0,4,
58,0,0,4,
59,0,0,2,
74,0,0,2,
60,0,0,3,
61,0,0,3,
62,0,0,3,
63,0,0,3,
64,0,0,5,
65,0,0,5,
66,0,0,5,
67,0,0,5,
68,0,0,5,
