18,0,0,4,
19,0,0,6,
20,0,0,10,
21,0,0,12,
22,0,0,10,
23,0,0,5,
24,0,0,20,
25,0,0,8,
26,0,0,10,
27,0,0,12,
25,0,0,6,
28,0,0,4,
29,0,0,8,
30,0,0,6,
31,0,0,8,
32,0,0,8,
31,0,0,8,
30,0,0,8,
31,0,0,8,
32,0,0,8,
33,0,0,8,
34,0,0,8,
