22,0,0,12,
23,0,0,12,
24,0,0,12,
25,0,0,12,
26,0,0,4,
27,0,0,5,
28,0,0,6,
29,0,0,7,
30,0,0,8,
31,0,0,5,
32,0,0,3,
33,0,0,3,
34,0,0,3,
35,0,0,4,
36,0,0,5,
37,0,0,8,
38,0,0,9,
39,0,0,10,
40,0,0,12,
41,0,0,12,
42,0,0,12,
43,0,0,12,
40,0,0,12,
41,0,0,12,
42,0,0,12,
43,0,0,12,
