68,0,0,3,
69,0,0,3,
70,0,0,3,
71,0,0,3,
72,0,0,3,
73,0,0,3,
74,0,0,3,
75,0,0,14,
76,0,0,12,
77,0,0,9,
78,0,0,6,
79,0,0,6,
80,0,0,6,
81,0,0,7,
82,0,0,9,
83,0,0,28,
84,0,0,6,
85,0,0,7,
86,0,0,9,
87,0,0,9,
88,0,0,50,
89,0,0,9,
90,0,0,9,
91,0,0,9,
92,0,0,9,
