12,0,0,10,
13,0,0,10,
14,0,0,10,
15,0,0,10,
16,0,0,8,
17,0,0,8,
18,0,0,8,
19,0,0,5,
20,0,0,3,
21,0,0,5,
22,0,0,5,
23,0,0,5,
24,0,0,8,
25,0,0,8,
26,0,0,8,
27,0,0,8,
24,0,0,8,
25,0,0,8,
26,0,0,8,
27,0,0,8,
24,0,0,8,
25,0,0,8,
26,0,0,8,
27,0,0,8,
