10,0,0,3,
9,0,0,6,
8,0,0,7,
9,0,0,6,
10,0,0,3,
11,0,0,7,
10,0,0,3,
9,0,0,6,
8,0,0,7,
9,0,0,6,
10,0,0,3,
11,0,0,30,
10,0,0,3,
9,0,0,6,
8,0,0,7,
9,0,0,6,
10,0,0,3,
11,0,0,7,
10,0,0,3,
9,0,0,6,
8,0,0,7,
9,0,0,6,
10,0,0,3,
11,0,0,30,
