31,0,0,10,
32,0,0,7,
33,0,0,9,
34,0,0,33,
35,0,0,9,
36,0,0,7,
37,0,0,9,
38,0,0,7,
39,0,0,6,
40,0,0,7,
41,0,0,21,
42,0,0,6,
43,0,0,3,
44,0,0,3,
45,0,0,6,
46,0,0,7,
47,0,0,7,
48,0,0,6,
49,0,0,9,
50,0,0,9,
51,0,0,7,
52,0,0,7,
53,0,0,9,
54,0,0,7,
