0,0,0,6,
1,0,0,6,
2,0,0,6,
3,0,0,6,
26,0,0,6,
27,0,0,6,
28,0,0,6,
29,0,0,6,
30,0,0,6,
31,0,0,6,
32,0,0,6,
33,0,0,6,
34,0,0,6,
35,0,0,6,
36,0,0,6,
37,0,0,6,
38,0,0,6,
39,0,0,6,
40,0,0,8,
41,0,0,8,
4,0,0,4,
5,0,0,4,
