[
    {
        "c5yLq1fS": "10001",
        "P_NAME": "\u8ffd\u8972\u306e\u7d46",
        "5uL4cVA2": "10,20,0",
        "6MoGu9FS": "0,0",
        "6PKCr8N2": "0",
        "a4k0mvUD": "0",
        "P_EXT_IMG_PARAM": "14:10\uff05\u306e\u78ba\u7387\u3067\u653b\u6483\u306b\u53c2\u52a0\u3059\u308b"
    },
    {
        "c5yLq1fS": "10002",
        "P_NAME": "\u8ffd\u8972\u306e\u7d46Lv2",
        "5uL4cVA2": "12,20,0",
        "6MoGu9FS": "0,0",
        "6PKCr8N2": "0",
        "a4k0mvUD": "0",
        "P_EXT_IMG_PARAM": "14:12\uff05\u306e\u78ba\u7387\u3067\u653b\u6483\u306b\u53c2\u52a0\u3059\u308b"
    },
    {
        "c5yLq1fS": "10003",
        "P_NAME": "\u8ffd\u8972\u306e\u7d46Lv3",
        "5uL4cVA2": "12,21,0",
        "6MoGu9FS": "0,0",
        "6PKCr8N2": "0",
        "a4k0mvUD": "0",
        "P_EXT_IMG_PARAM": "14:12\uff05\u306e\u78ba\u7387\u3067\u653b\u6483\u306b\u53c2\u52a0\u3059\u308b,\n1:\u653b\u6483\u53c2\u52a0\u6642\u306e\u653b\u6483\u529b\u304c1\uff05\u30a2\u30c3\u30d7"
    },
    {
        "c5yLq1fS": "10004",
        "P_NAME": "\u8ffd\u8972\u306e\u7d46Lv4",
        "5uL4cVA2": "16,21,0",
        "6MoGu9FS": "0,0",
        "6PKCr8N2": "0",
        "a4k0mvUD": "0",
        "P_EXT_IMG_PARAM": "14:16\uff05\u306e\u78ba\u7387\u3067\u653b\u6483\u306b\u53c2\u52a0\u3059\u308b,\n1:\u653b\u6483\u53c2\u52a0\u6642\u306e\u653b\u6483\u529b\u304c1\uff05\u30a2\u30c3\u30d7"
    },
    {
        "c5yLq1fS": "10005",
        "P_NAME": "\u8ffd\u8972\u306e\u7d46Lv5",
        "5uL4cVA2": "16,22,0",
        "6MoGu9FS": "0,0",
        "6PKCr8N2": "0",
        "a4k0mvUD": "0",
        "P_EXT_IMG_PARAM": "14:16\uff05\u306e\u78ba\u7387\u3067\u653b\u6483\u306b\u53c2\u52a0\u3059\u308b,\n1:\u653b\u6483\u53c2\u52a0\u6642\u306e\u653b\u6483\u529b\u304c2\uff05\u30a2\u30c3\u30d7"
    },
    {
        "c5yLq1fS": "10006",
        "P_NAME": "\u8ffd\u8972\u306e\u7d46Lv6",
        "5uL4cVA2": "20,22,0",
        "6MoGu9FS": "0,0",
        "6PKCr8N2": "0",
        "a4k0mvUD": "0",
        "P_EXT_IMG_PARAM": "14:20\uff05\u306e\u78ba\u7387\u3067\u653b\u6483\u306b\u53c2\u52a0\u3059\u308b,\n1:\u653b\u6483\u53c2\u52a0\u6642\u306e\u653b\u6483\u529b\u304c2\uff05\u30a2\u30c3\u30d7"
    },
    {
        "c5yLq1fS": "10007",
        "P_NAME": "\u8ffd\u8972\u306e\u7d46Lv7",
        "5uL4cVA2": "20,24,0",
        "6MoGu9FS": "0,0",
        "6PKCr8N2": "0",
        "a4k0mvUD": "0",
        "P_EXT_IMG_PARAM": "14:20\uff05\u306e\u78ba\u7387\u3067\u653b\u6483\u306b\u53c2\u52a0\u3059\u308b,\n1:\u653b\u6483\u53c2\u52a0\u6642\u306e\u653b\u6483\u529b\u304c4\uff05\u30a2\u30c3\u30d7"
    },
    {
        "c5yLq1fS": "10008",
        "P_NAME": "\u8ffd\u8972\u306e\u7d46Lv8",
        "5uL4cVA2": "24,24,0",
        "6MoGu9FS": "0,0",
        "6PKCr8N2": "0",
        "a4k0mvUD": "0",
        "P_EXT_IMG_PARAM": "14:24\uff05\u306e\u78ba\u7387\u3067\u653b\u6483\u306b\u53c2\u52a0\u3059\u308b,\n1:\u653b\u6483\u53c2\u52a0\u6642\u306e\u653b\u6483\u529b\u304c4\uff05\u30a2\u30c3\u30d7"
    },
    {
        "c5yLq1fS": "10009",
        "P_NAME": "\u8ffd\u8972\u306e\u7d46Lv9",
        "5uL4cVA2": "24,26,0",
        "6MoGu9FS": "0,0",
        "6PKCr8N2": "0",
        "a4k0mvUD": "0",
        "P_EXT_IMG_PARAM": "14:24\uff05\u306e\u78ba\u7387\u3067\u653b\u6483\u306b\u53c2\u52a0\u3059\u308b,\n1:\u653b\u6483\u53c2\u52a0\u6642\u306e\u653b\u6483\u529b\u304c6\uff05\u30a2\u30c3\u30d7"
    },
    {
        "c5yLq1fS": "10010",
        "P_NAME": "\u8ffd\u8972\u306e\u7d46Lv10",
        "5uL4cVA2": "28,26,0",
        "6MoGu9FS": "0,0",
        "6PKCr8N2": "0",
        "a4k0mvUD": "0",
        "P_EXT_IMG_PARAM": "14:28\uff05\u306e\u78ba\u7387\u3067\u653b\u6483\u306b\u53c2\u52a0\u3059\u308b,\n1:\u653b\u6483\u53c2\u52a0\u6642\u306e\u653b\u6483\u529b\u304c6\uff05\u30a2\u30c3\u30d7"
    },
    {
        "c5yLq1fS": "10011",
        "P_NAME": "\u8ffd\u8972\u306e\u7d46Lv11",
        "5uL4cVA2": "28,28,0",
        "6MoGu9FS": "0,0",
        "6PKCr8N2": "0",
        "a4k0mvUD": "0",
        "P_EXT_IMG_PARAM": "14:28\uff05\u306e\u78ba\u7387\u3067\u653b\u6483\u306b\u53c2\u52a0\u3059\u308b,\n1:\u653b\u6483\u53c2\u52a0\u6642\u306e\u653b\u6483\u529b\u304c8\uff05\u30a2\u30c3\u30d7"
    },
    {
        "c5yLq1fS": "10012",
        "P_NAME": "\u8ffd\u8972\u306e\u7d46Lv12",
        "5uL4cVA2": "32,28,0",
        "6MoGu9FS": "0,0",
        "6PKCr8N2": "0",
        "a4k0mvUD": "0",
        "P_EXT_IMG_PARAM": "14:32\uff05\u306e\u78ba\u7387\u3067\u653b\u6483\u306b\u53c2\u52a0\u3059\u308b,\n1:\u653b\u6483\u53c2\u52a0\u6642\u306e\u653b\u6483\u529b\u304c8\uff05\u30a2\u30c3\u30d7"
    },
    {
        "c5yLq1fS": "10013",
        "P_NAME": "\u8ffd\u8972\u306e\u7d46Lv13",
        "5uL4cVA2": "32,30,0",
        "6MoGu9FS": "0,0",
        "6PKCr8N2": "0",
        "a4k0mvUD": "0",
        "P_EXT_IMG_PARAM": "14:32\uff05\u306e\u78ba\u7387\u3067\u653b\u6483\u306b\u53c2\u52a0\u3059\u308b,\n1:\u653b\u6483\u53c2\u52a0\u6642\u306e\u653b\u6483\u529b\u304c10\uff05\u30a2\u30c3\u30d7"
    },
    {
        "c5yLq1fS": "10014",
        "P_NAME": "\u8ffd\u8972\u306e\u7d46Lv14",
        "5uL4cVA2": "36,30,0",
        "6MoGu9FS": "0,0",
        "6PKCr8N2": "0",
        "a4k0mvUD": "0",
        "P_EXT_IMG_PARAM": "14:36\uff05\u306e\u78ba\u7387\u3067\u653b\u6483\u306b\u53c2\u52a0\u3059\u308b,\n1:\u653b\u6483\u53c2\u52a0\u6642\u306e\u653b\u6483\u529b\u304c10\uff05\u30a2\u30c3\u30d7"
    },
    {
        "c5yLq1fS": "10015",
        "P_NAME": "\u8ffd\u8972\u306e\u7d46Lv15",
        "5uL4cVA2": "36,32,0",
        "6MoGu9FS": "0,0",
        "6PKCr8N2": "0",
        "a4k0mvUD": "0",
        "P_EXT_IMG_PARAM": "14:36\uff05\u306e\u78ba\u7387\u3067\u653b\u6483\u306b\u53c2\u52a0\u3059\u308b,\n1:\u653b\u6483\u53c2\u52a0\u6642\u306e\u653b\u6483\u529b\u304c12\uff05\u30a2\u30c3\u30d7"
    },
    {
        "c5yLq1fS": "10016",
        "P_NAME": "\u8ffd\u8972\u306e\u7d46Lv16",
        "5uL4cVA2": "40,32,0",
        "6MoGu9FS": "0,0",
        "6PKCr8N2": "0",
        "a4k0mvUD": "0",
        "P_EXT_IMG_PARAM": "14:40\uff05\u306e\u78ba\u7387\u3067\u653b\u6483\u306b\u53c2\u52a0\u3059\u308b,\n1:\u653b\u6483\u53c2\u52a0\u6642\u306e\u653b\u6483\u529b\u304c12\uff05\u30a2\u30c3\u30d7"
    },
    {
        "c5yLq1fS": "10017",
        "P_NAME": "\u8ffd\u8972\u306e\u7d46Lv17",
        "5uL4cVA2": "40,34,0",
        "6MoGu9FS": "0,0",
        "6PKCr8N2": "0",
        "a4k0mvUD": "0",
        "P_EXT_IMG_PARAM": "14:40\uff05\u306e\u78ba\u7387\u3067\u653b\u6483\u306b\u53c2\u52a0\u3059\u308b,\n1:\u653b\u6483\u53c2\u52a0\u6642\u306e\u653b\u6483\u529b\u304c14\uff05\u30a2\u30c3\u30d7"
    },
    {
        "c5yLq1fS": "10018",
        "P_NAME": "\u8ffd\u8972\u306e\u7d46Lv18",
        "5uL4cVA2": "40,36,0",
        "6MoGu9FS": "0,0",
        "6PKCr8N2": "0",
        "a4k0mvUD": "0",
        "P_EXT_IMG_PARAM": "14:40\uff05\u306e\u78ba\u7387\u3067\u653b\u6483\u306b\u53c2\u52a0\u3059\u308b,\n1:\u653b\u6483\u53c2\u52a0\u6642\u306e\u653b\u6483\u529b\u304c16\uff05\u30a2\u30c3\u30d7"
    },
    {
        "c5yLq1fS": "10019",
        "P_NAME": "\u8ffd\u8972\u306e\u7d46Lv19",
        "5uL4cVA2": "40,38,0",
        "6MoGu9FS": "0,0",
        "6PKCr8N2": "0",
        "a4k0mvUD": "0",
        "P_EXT_IMG_PARAM": "14:40\uff05\u306e\u78ba\u7387\u3067\u653b\u6483\u306b\u53c2\u52a0\u3059\u308b,\n1:\u653b\u6483\u53c2\u52a0\u6642\u306e\u653b\u6483\u529b\u304c18\uff05\u30a2\u30c3\u30d7"
    },
    {
        "c5yLq1fS": "10020",
        "P_NAME": "\u8ffd\u8972\u306e\u7d46Lv20",
        "5uL4cVA2": "40,40,0",
        "6MoGu9FS": "0,0",
        "6PKCr8N2": "0",
        "a4k0mvUD": "0",
        "P_EXT_IMG_PARAM": "14:40\uff05\u306e\u78ba\u7387\u3067\u653b\u6483\u306b\u53c2\u52a0\u3059\u308b,\n1:\u653b\u6483\u53c2\u52a0\u6642\u306e\u653b\u6483\u529b\u304c20\uff05\u30a2\u30c3\u30d7"
    },
    {
        "c5yLq1fS": "10101",
        "P_NAME": "\u7363\u9b42\u306e\u9583\u304d",
        "5uL4cVA2": "0,0,2",
        "6MoGu9FS": "0,0",
        "6PKCr8N2": "0",
        "a4k0mvUD": "0",
        "P_EXT_IMG_PARAM": "2:\u653b\u6483\u53c2\u52a0\u6642\u306e\u30af\u30ea\u30c6\u30a3\u30ab\u30eb\u7387\u304c2\uff05\u30a2\u30c3\u30d7"
    },
    {
        "c5yLq1fS": "10102",
        "P_NAME": "\u7363\u9b42\u306e\u9583\u304dLv2",
        "5uL4cVA2": "0,0,4",
        "6MoGu9FS": "0,0",
        "6PKCr8N2": "0",
        "a4k0mvUD": "0",
        "P_EXT_IMG_PARAM": "2:\u653b\u6483\u53c2\u52a0\u6642\u306e\u30af\u30ea\u30c6\u30a3\u30ab\u30eb\u7387\u304c4\uff05\u30a2\u30c3\u30d7"
    },
    {
        "c5yLq1fS": "10103",
        "P_NAME": "\u7363\u9b42\u306e\u9583\u304dLv3",
        "5uL4cVA2": "0,0,6",
        "6MoGu9FS": "0,0",
        "6PKCr8N2": "0",
        "a4k0mvUD": "0",
        "P_EXT_IMG_PARAM": "2:\u653b\u6483\u53c2\u52a0\u6642\u306e\u30af\u30ea\u30c6\u30a3\u30ab\u30eb\u7387\u304c6\uff05\u30a2\u30c3\u30d7"
    },
    {
        "c5yLq1fS": "10104",
        "P_NAME": "\u7363\u9b42\u306e\u9583\u304dLv4",
        "5uL4cVA2": "0,0,8",
        "6MoGu9FS": "0,0",
        "6PKCr8N2": "0",
        "a4k0mvUD": "0",
        "P_EXT_IMG_PARAM": "2:\u653b\u6483\u53c2\u52a0\u6642\u306e\u30af\u30ea\u30c6\u30a3\u30ab\u30eb\u7387\u304c8\uff05\u30a2\u30c3\u30d7"
    },
    {
        "c5yLq1fS": "20001",
        "P_NAME": "\u596a\u7372\u306e\u7d46",
        "5uL4cVA2": "0,0,0",
        "6MoGu9FS": "1,0",
        "6PKCr8N2": "0",
        "a4k0mvUD": "0",
        "P_EXT_IMG_PARAM": "3:\u30a2\u30a4\u30c6\u30e0\u30c9\u30ed\u30c3\u30d7\u7387\u304c1\uff05\u30a2\u30c3\u30d7"
    },
    {
        "c5yLq1fS": "20002",
        "P_NAME": "\u596a\u7372\u306e\u7d46Lv2",
        "5uL4cVA2": "0,0,0",
        "6MoGu9FS": "2,0",
        "6PKCr8N2": "0",
        "a4k0mvUD": "0",
        "P_EXT_IMG_PARAM": "3:\u30a2\u30a4\u30c6\u30e0\u30c9\u30ed\u30c3\u30d7\u7387\u304c2\uff05\u30a2\u30c3\u30d7"
    },
    {
        "c5yLq1fS": "20003",
        "P_NAME": "\u596a\u7372\u306e\u7d46Lv3",
        "5uL4cVA2": "0,0,0",
        "6MoGu9FS": "3,0",
        "6PKCr8N2": "0",
        "a4k0mvUD": "0",
        "P_EXT_IMG_PARAM": "3:\u30a2\u30a4\u30c6\u30e0\u30c9\u30ed\u30c3\u30d7\u7387\u304c3\uff05\u30a2\u30c3\u30d7"
    },
    {
        "c5yLq1fS": "20004",
        "P_NAME": "\u596a\u7372\u306e\u7d46Lv4",
        "5uL4cVA2": "0,0,0",
        "6MoGu9FS": "4,0",
        "6PKCr8N2": "0",
        "a4k0mvUD": "0",
        "P_EXT_IMG_PARAM": "3:\u30a2\u30a4\u30c6\u30e0\u30c9\u30ed\u30c3\u30d7\u7387\u304c4\uff05\u30a2\u30c3\u30d7"
    },
    {
        "c5yLq1fS": "20005",
        "P_NAME": "\u596a\u7372\u306e\u7d46Lv5",
        "5uL4cVA2": "0,0,0",
        "6MoGu9FS": "5,0",
        "6PKCr8N2": "0",
        "a4k0mvUD": "0",
        "P_EXT_IMG_PARAM": "3:\u30a2\u30a4\u30c6\u30e0\u30c9\u30ed\u30c3\u30d7\u7387\u304c5\uff05\u30a2\u30c3\u30d7"
    },
    {
        "c5yLq1fS": "20006",
        "P_NAME": "\u596a\u7372\u306e\u7d46Lv6",
        "5uL4cVA2": "0,0,0",
        "6MoGu9FS": "6,0",
        "6PKCr8N2": "0",
        "a4k0mvUD": "0",
        "P_EXT_IMG_PARAM": "3:\u30a2\u30a4\u30c6\u30e0\u30c9\u30ed\u30c3\u30d7\u7387\u304c6\uff05\u30a2\u30c3\u30d7"
    },
    {
        "c5yLq1fS": "20007",
        "P_NAME": "\u596a\u7372\u306e\u7d46Lv7",
        "5uL4cVA2": "0,0,0",
        "6MoGu9FS": "7,0",
        "6PKCr8N2": "0",
        "a4k0mvUD": "0",
        "P_EXT_IMG_PARAM": "3:\u30a2\u30a4\u30c6\u30e0\u30c9\u30ed\u30c3\u30d7\u7387\u304c7\uff05\u30a2\u30c3\u30d7"
    },
    {
        "c5yLq1fS": "20008",
        "P_NAME": "\u596a\u7372\u306e\u7d46Lv8",
        "5uL4cVA2": "0,0,0",
        "6MoGu9FS": "8,0",
        "6PKCr8N2": "0",
        "a4k0mvUD": "0",
        "P_EXT_IMG_PARAM": "3:\u30a2\u30a4\u30c6\u30e0\u30c9\u30ed\u30c3\u30d7\u7387\u304c8\uff05\u30a2\u30c3\u30d7"
    },
    {
        "c5yLq1fS": "20009",
        "P_NAME": "\u596a\u7372\u306e\u7d46Lv9",
        "5uL4cVA2": "0,0,0",
        "6MoGu9FS": "9,0",
        "6PKCr8N2": "0",
        "a4k0mvUD": "0",
        "P_EXT_IMG_PARAM": "3:\u30a2\u30a4\u30c6\u30e0\u30c9\u30ed\u30c3\u30d7\u7387\u304c9\uff05\u30a2\u30c3\u30d7"
    },
    {
        "c5yLq1fS": "20010",
        "P_NAME": "\u596a\u7372\u306e\u7d46Lv10",
        "5uL4cVA2": "0,0,0",
        "6MoGu9FS": "10,0",
        "6PKCr8N2": "0",
        "a4k0mvUD": "0",
        "P_EXT_IMG_PARAM": "3:\u30a2\u30a4\u30c6\u30e0\u30c9\u30ed\u30c3\u30d7\u7387\u304c10\uff05\u30a2\u30c3\u30d7"
    },
    {
        "c5yLq1fS": "20011",
        "P_NAME": "\u596a\u7372\u306e\u7d46Lv11",
        "5uL4cVA2": "0,0,0",
        "6MoGu9FS": "11,0",
        "6PKCr8N2": "0",
        "a4k0mvUD": "0",
        "P_EXT_IMG_PARAM": "3:\u30a2\u30a4\u30c6\u30e0\u30c9\u30ed\u30c3\u30d7\u7387\u304c11\uff05\u30a2\u30c3\u30d7"
    },
    {
        "c5yLq1fS": "20012",
        "P_NAME": "\u596a\u7372\u306e\u7d46Lv12",
        "5uL4cVA2": "0,0,0",
        "6MoGu9FS": "12,0",
        "6PKCr8N2": "0",
        "a4k0mvUD": "0",
        "P_EXT_IMG_PARAM": "3:\u30a2\u30a4\u30c6\u30e0\u30c9\u30ed\u30c3\u30d7\u7387\u304c12\uff05\u30a2\u30c3\u30d7"
    },
    {
        "c5yLq1fS": "20013",
        "P_NAME": "\u596a\u7372\u306e\u7d46Lv13",
        "5uL4cVA2": "0,0,0",
        "6MoGu9FS": "13,0",
        "6PKCr8N2": "0",
        "a4k0mvUD": "0",
        "P_EXT_IMG_PARAM": "3:\u30a2\u30a4\u30c6\u30e0\u30c9\u30ed\u30c3\u30d7\u7387\u304c13\uff05\u30a2\u30c3\u30d7"
    },
    {
        "c5yLq1fS": "20014",
        "P_NAME": "\u596a\u7372\u306e\u7d46Lv14",
        "5uL4cVA2": "0,0,0",
        "6MoGu9FS": "14,0",
        "6PKCr8N2": "0",
        "a4k0mvUD": "0",
        "P_EXT_IMG_PARAM": "3:\u30a2\u30a4\u30c6\u30e0\u30c9\u30ed\u30c3\u30d7\u7387\u304c14\uff05\u30a2\u30c3\u30d7"
    },
    {
        "c5yLq1fS": "30001",
        "P_NAME": "\u30d5\u30a3\u30eb\u30ea\u30f3\u30b1\u30fc\u30b8",
        "5uL4cVA2": "0,0,0",
        "6MoGu9FS": "0,0",
        "6PKCr8N2": "2",
        "a4k0mvUD": "0",
        "P_EXT_IMG_PARAM": "3:BC\u306e\u30c9\u30ed\u30c3\u30d7\u7387\u304c2\uff05\u30a2\u30c3\u30d7"
    },
    {
        "c5yLq1fS": "30002",
        "P_NAME": "\u30d5\u30a3\u30eb\u30ea\u30f3\u30b1\u30fc\u30b8",
        "5uL4cVA2": "0,0,0",
        "6MoGu9FS": "0,0",
        "6PKCr8N2": "2",
        "a4k0mvUD": "2",
        "P_EXT_IMG_PARAM": "3:BC\u306e\u30c9\u30ed\u30c3\u30d7\u7387\u304c2\uff05\u30a2\u30c3\u30d7,\n3:HC\u306e\u30c9\u30ed\u30c3\u30d7\u7387\u304c2\uff05\u30a2\u30c3\u30d7"
    },
    {
        "c5yLq1fS": "30003",
        "P_NAME": "\u30d5\u30a3\u30eb\u30ea\u30f3\u30b1\u30fc\u30b8",
        "5uL4cVA2": "0,0,0",
        "6MoGu9FS": "0,0",
        "6PKCr8N2": "4",
        "a4k0mvUD": "2",
        "P_EXT_IMG_PARAM": "3:BC\u306e\u30c9\u30ed\u30c3\u30d7\u7387\u304c4\uff05\u30a2\u30c3\u30d7,\n3:HC\u306e\u30c9\u30ed\u30c3\u30d7\u7387\u304c2\uff05\u30a2\u30c3\u30d7"
    },
    {
        "c5yLq1fS": "30004",
        "P_NAME": "\u30d5\u30a3\u30eb\u30ea\u30f3\u30b1\u30fc\u30b8",
        "5uL4cVA2": "0,0,0",
        "6MoGu9FS": "0,0",
        "6PKCr8N2": "4",
        "a4k0mvUD": "4",
        "P_EXT_IMG_PARAM": "3:BC\u306e\u30c9\u30ed\u30c3\u30d7\u7387\u304c4\uff05\u30a2\u30c3\u30d7,\n3:HC\u306e\u30c9\u30ed\u30c3\u30d7\u7387\u304c4\uff05\u30a2\u30c3\u30d7"
    },
    {
        "c5yLq1fS": "30005",
        "P_NAME": "\u30d5\u30a3\u30eb\u30ea\u30f3\u30b1\u30fc\u30b8",
        "5uL4cVA2": "0,0,0",
        "6MoGu9FS": "0,0",
        "6PKCr8N2": "6",
        "a4k0mvUD": "4",
        "P_EXT_IMG_PARAM": "3:BC\u306e\u30c9\u30ed\u30c3\u30d7\u7387\u304c6\uff05\u30a2\u30c3\u30d7,\n3:HC\u306e\u30c9\u30ed\u30c3\u30d7\u7387\u304c4\uff05\u30a2\u30c3\u30d7"
    },
    {
        "c5yLq1fS": "30006",
        "P_NAME": "\u30d5\u30a3\u30eb\u30ea\u30f3\u30b1\u30fc\u30b8",
        "5uL4cVA2": "0,0,0",
        "6MoGu9FS": "0,0",
        "6PKCr8N2": "6",
        "a4k0mvUD": "6",
        "P_EXT_IMG_PARAM": "3:BC\u306e\u30c9\u30ed\u30c3\u30d7\u7387\u304c6\uff05\u30a2\u30c3\u30d7,\n3:HC\u306e\u30c9\u30ed\u30c3\u30d7\u7387\u304c6\uff05\u30a2\u30c3\u30d7"
    },
    {
        "c5yLq1fS": "30007",
        "P_NAME": "\u30d5\u30a3\u30eb\u30ea\u30f3\u30b1\u30fc\u30b8",
        "5uL4cVA2": "0,0,0",
        "6MoGu9FS": "0,0",
        "6PKCr8N2": "8",
        "a4k0mvUD": "6",
        "P_EXT_IMG_PARAM": "3:BC\u306e\u30c9\u30ed\u30c3\u30d7\u7387\u304c8\uff05\u30a2\u30c3\u30d7,\n3:HC\u306e\u30c9\u30ed\u30c3\u30d7\u7387\u304c6\uff05\u30a2\u30c3\u30d7"
    },
    {
        "c5yLq1fS": "30008",
        "P_NAME": "\u30d5\u30a3\u30eb\u30ea\u30f3\u30b1\u30fc\u30b8",
        "5uL4cVA2": "0,0,0",
        "6MoGu9FS": "0,0",
        "6PKCr8N2": "8",
        "a4k0mvUD": "8",
        "P_EXT_IMG_PARAM": "3:BC\u306e\u30c9\u30ed\u30c3\u30d7\u7387\u304c8\uff05\u30a2\u30c3\u30d7,\n3:HC\u306e\u30c9\u30ed\u30c3\u30d7\u7387\u304c8\uff05\u30a2\u30c3\u30d7"
    },
    {
        "c5yLq1fS": "30009",
        "P_NAME": "\u30d5\u30a3\u30eb\u30ea\u30f3\u30b1\u30fc\u30b8",
        "5uL4cVA2": "0,0,0",
        "6MoGu9FS": "0,0",
        "6PKCr8N2": "10",
        "a4k0mvUD": "8",
        "P_EXT_IMG_PARAM": "3:BC\u306e\u30c9\u30ed\u30c3\u30d7\u7387\u304c10\uff05\u30a2\u30c3\u30d7,\n3:HC\u306e\u30c9\u30ed\u30c3\u30d7\u7387\u304c8\uff05\u30a2\u30c3\u30d7"
    },
    {
        "c5yLq1fS": "30010",
        "P_NAME": "\u30d5\u30a3\u30eb\u30ea\u30f3\u30b1\u30fc\u30b8",
        "5uL4cVA2": "0,0,0",
        "6MoGu9FS": "0,0",
        "6PKCr8N2": "10",
        "a4k0mvUD": "10",
        "P_EXT_IMG_PARAM": "3:BC\u306e\u30c9\u30ed\u30c3\u30d7\u7387\u304c10\uff05\u30a2\u30c3\u30d7,\n3:HC\u306e\u30c9\u30ed\u30c3\u30d7\u7387\u304c10\uff05\u30a2\u30c3\u30d7"
    },
    {
        "c5yLq1fS": "30011",
        "P_NAME": "\u30d5\u30a3\u30eb\u30ea\u30f3\u30b1\u30fc\u30b8",
        "5uL4cVA2": "0,0,0",
        "6MoGu9FS": "0,0",
        "6PKCr8N2": "12",
        "a4k0mvUD": "10",
        "P_EXT_IMG_PARAM": "3:BC\u306e\u30c9\u30ed\u30c3\u30d7\u7387\u304c12\uff05\u30a2\u30c3\u30d7,\n3:HC\u306e\u30c9\u30ed\u30c3\u30d7\u7387\u304c10\uff05\u30a2\u30c3\u30d7"
    },
    {
        "c5yLq1fS": "30012",
        "P_NAME": "\u30d5\u30a3\u30eb\u30ea\u30f3\u30b1\u30fc\u30b8",
        "5uL4cVA2": "0,0,0",
        "6MoGu9FS": "0,0",
        "6PKCr8N2": "12",
        "a4k0mvUD": "12",
        "P_EXT_IMG_PARAM": "3:BC\u306e\u30c9\u30ed\u30c3\u30d7\u7387\u304c12\uff05\u30a2\u30c3\u30d7,\n3:HC\u306e\u30c9\u30ed\u30c3\u30d7\u7387\u304c12\uff05\u30a2\u30c3\u30d7"
    },
    {
        "c5yLq1fS": "40001",
        "P_NAME": "\u30d1\u30fc\u30f4\u30a7\u30a4\u30c9\u30d5\u30a9\u30fc\u30b9",
        "5uL4cVA2": "0,0,0",
        "6MoGu9FS": "0,0",
        "6PKCr8N2": "0",
        "a4k0mvUD": "0",
        "P_EXT_IMG_PARAM": "1:\u653b\u6483\u529b\u304c1%\u30a2\u30c3\u30d7"
    },
    {
        "c5yLq1fS": "40002",
        "P_NAME": "\u30d1\u30fc\u30f4\u30a7\u30a4\u30c9\u30d5\u30a9\u30fc\u30b9",
        "5uL4cVA2": "0,0,0",
        "6MoGu9FS": "0,0",
        "6PKCr8N2": "0",
        "a4k0mvUD": "0",
        "P_EXT_IMG_PARAM": "1:\u653b\u6483\u529b\u304c2%\u30a2\u30c3\u30d7"
    },
    {
        "c5yLq1fS": "40003",
        "P_NAME": "\u30d1\u30fc\u30f4\u30a7\u30a4\u30c9\u30d5\u30a9\u30fc\u30b9",
        "5uL4cVA2": "0,0,0",
        "6MoGu9FS": "0,0",
        "6PKCr8N2": "0",
        "a4k0mvUD": "0",
        "P_EXT_IMG_PARAM": "1:\u653b\u6483\u529b\u304c3%\u30a2\u30c3\u30d7"
    },
    {
        "c5yLq1fS": "40004",
        "P_NAME": "\u30d1\u30fc\u30f4\u30a7\u30a4\u30c9\u30d5\u30a9\u30fc\u30b9",
        "5uL4cVA2": "0,0,0",
        "6MoGu9FS": "0,0",
        "6PKCr8N2": "0",
        "a4k0mvUD": "0",
        "P_EXT_IMG_PARAM": "1:\u653b\u6483\u529b\u304c4%\u30a2\u30c3\u30d7"
    },
    {
        "c5yLq1fS": "40005",
        "P_NAME": "\u30d1\u30fc\u30f4\u30a7\u30a4\u30c9\u30d5\u30a9\u30fc\u30b9",
        "5uL4cVA2": "0,0,0",
        "6MoGu9FS": "0,0",
        "6PKCr8N2": "0",
        "a4k0mvUD": "0",
        "P_EXT_IMG_PARAM": "1:\u653b\u6483\u529b\u304c5%\u30a2\u30c3\u30d7"
    },
    {
        "c5yLq1fS": "40006",
        "P_NAME": "\u30d1\u30fc\u30f4\u30a7\u30a4\u30c9\u30d5\u30a9\u30fc\u30b9",
        "5uL4cVA2": "0,0,0",
        "6MoGu9FS": "0,0",
        "6PKCr8N2": "0",
        "a4k0mvUD": "0",
        "P_EXT_IMG_PARAM": "1:\u653b\u6483\u529b\u304c6%\u30a2\u30c3\u30d7"
    },
    {
        "c5yLq1fS": "40007",
        "P_NAME": "\u30d1\u30fc\u30f4\u30a7\u30a4\u30c9\u30d5\u30a9\u30fc\u30b9",
        "5uL4cVA2": "0,0,0",
        "6MoGu9FS": "0,0",
        "6PKCr8N2": "0",
        "a4k0mvUD": "0",
        "P_EXT_IMG_PARAM": "1:\u653b\u6483\u529b\u304c7%\u30a2\u30c3\u30d7"
    },
    {
        "c5yLq1fS": "40008",
        "P_NAME": "\u30d1\u30fc\u30f4\u30a7\u30a4\u30c9\u30d5\u30a9\u30fc\u30b9",
        "5uL4cVA2": "0,0,0",
        "6MoGu9FS": "0,0",
        "6PKCr8N2": "0",
        "a4k0mvUD": "0",
        "P_EXT_IMG_PARAM": "1:\u653b\u6483\u529b\u304c8%\u30a2\u30c3\u30d7"
    },
    {
        "c5yLq1fS": "40009",
        "P_NAME": "\u30d1\u30fc\u30f4\u30a7\u30a4\u30c9\u30d5\u30a9\u30fc\u30b9",
        "5uL4cVA2": "0,0,0",
        "6MoGu9FS": "0,0",
        "6PKCr8N2": "0",
        "a4k0mvUD": "0",
        "P_EXT_IMG_PARAM": "1:\u653b\u6483\u529b\u304c9%\u30a2\u30c3\u30d7"
    },
    {
        "c5yLq1fS": "40010",
        "P_NAME": "\u30d1\u30fc\u30f4\u30a7\u30a4\u30c9\u30d5\u30a9\u30fc\u30b9",
        "5uL4cVA2": "0,0,0",
        "6MoGu9FS": "0,0",
        "6PKCr8N2": "0",
        "a4k0mvUD": "0",
        "P_EXT_IMG_PARAM": "1:\u653b\u6483\u529b\u304c10%\u30a2\u30c3\u30d7"
    },
    {
        "c5yLq1fS": "40011",
        "P_NAME": "\u30d1\u30fc\u30f4\u30a7\u30a4\u30c9\u30d5\u30a9\u30fc\u30b9",
        "5uL4cVA2": "0,0,0",
        "6MoGu9FS": "0,0",
        "6PKCr8N2": "0",
        "a4k0mvUD": "0",
        "P_EXT_IMG_PARAM": "1:\u653b\u6483\u529b\u304c11%\u30a2\u30c3\u30d7"
    },
    {
        "c5yLq1fS": "40012",
        "P_NAME": "\u30d1\u30fc\u30f4\u30a7\u30a4\u30c9\u30d5\u30a9\u30fc\u30b9",
        "5uL4cVA2": "0,0,0",
        "6MoGu9FS": "0,0",
        "6PKCr8N2": "0",
        "a4k0mvUD": "0",
        "P_EXT_IMG_PARAM": "1:\u653b\u6483\u529b\u304c12%\u30a2\u30c3\u30d7"
    }
]