0,15,-58,-77,0,0,100,0,249,288,64,69,0,-17,-61,0,0,100,0,185,155,34,30,0,-21,-32,0,0,100,0,87,24,10,11,0,-63,-83,0,0,100,0,0,39,74,92,0,8,-37,0,0,100,0,116,22,12,15,0,4,-35,0,0,100,0,1,255,24,26,0,-13,-25,0,0,100,0,52,21,32,17,0,-17,-40,0,0,100,0,48,0,37,21,0,-16,-36,0,0,100,0,103,23,13,13,0,-20,-20,0,0,100,0,85,0,45,24,0,-23,-21,0,0,100,0,1,283,51,18,0,-16,-37,0,0,100,0,133,1,54,30,0,-10,-38,0,0,100,0,357,23,9,7,0,4,-51,0,0,100,0,357,1,28,20,0,-24,-9,0,0,65,0,0,0,48,18,0,
0,15,-58,-77,0,0,100,0,315,288,64,69,0,-17,-61,0,0,100,0,185,155,34,30,0,-21,-32,0,0,100,0,87,24,10,11,0,-63,-83,0,0,100,0,0,39,74,92,0,8,-37,0,0,100,0,116,22,12,15,0,4,-35,0,0,100,0,1,255,24,26,0,-13,-25,0,0,100,0,52,21,32,17,0,-17,-40,0,0,100,0,48,0,37,21,0,-16,-36,0,0,100,0,103,23,13,13,0,-20,-20,0,0,100,0,85,0,45,24,0,-23,-21,0,0,100,0,1,283,51,18,0,-16,-37,0,0,100,0,133,1,54,30,0,-10,-38,0,0,100,0,357,23,9,7,0,4,-51,0,0,100,0,357,1,28,20,0,-24,-9,0,0,65,0,0,0,48,18,0,
0,15,-58,-76,0,0,100,0,381,288,64,69,0,-17,-60,0,0,100,0,185,155,34,30,0,-21,-31,0,0,100,0,87,24,10,11,0,-63,-82,0,0,100,0,0,39,74,92,0,8,-36,0,0,100,0,116,22,12,15,0,4,-34,0,0,100,0,27,255,24,26,0,-13,-24,0,0,100,0,52,21,32,17,0,-17,-39,0,0,100,0,48,0,37,21,0,-16,-35,0,0,100,0,103,23,13,13,0,-20,-20,0,0,100,0,85,0,45,24,0,-23,-20,0,0,100,0,54,283,51,18,0,-16,-36,0,0,100,0,189,1,54,30,0,-9,-37,0,0,100,0,357,23,9,7,0,4,-50,0,0,100,0,387,1,28,20,0,-24,-9,0,0,65,0,0,0,48,18,0,
0,15,-58,-76,0,0,100,0,447,288,64,69,0,-17,-60,0,0,100,0,185,155,34,30,0,-21,-31,0,0,100,0,87,24,10,11,0,-63,-82,0,0,100,0,0,39,74,92,0,8,-36,0,0,100,0,116,22,12,15,0,4,-34,0,0,100,0,27,255,24,26,0,-13,-24,0,0,100,0,52,21,32,17,0,-17,-39,0,0,100,0,48,0,37,21,0,-16,-35,0,0,100,0,103,23,13,13,0,-20,-20,0,0,100,0,85,0,45,24,0,-23,-20,0,0,100,0,54,283,51,18,0,-16,-36,0,0,100,0,189,1,54,30,0,-9,-37,0,0,100,0,357,23,9,7,0,4,-50,0,0,100,0,387,1,28,20,0,-24,-9,0,0,65,0,0,0,48,18,0,
0,15,-58,-76,0,0,100,0,249,288,64,69,0,-17,-61,0,0,100,0,185,155,34,30,0,-21,-31,0,0,100,0,87,24,10,11,0,-63,-82,0,0,100,0,0,39,74,92,0,8,-36,0,0,100,0,116,22,12,15,0,4,-35,0,0,100,0,53,255,24,26,0,-13,-25,0,0,100,0,52,21,32,17,0,-17,-40,0,0,100,0,48,0,37,21,0,-16,-35,0,0,100,0,103,23,13,13,0,-20,-20,0,0,100,0,85,0,45,24,0,-23,-21,0,0,100,0,107,283,51,18,0,-16,-37,0,0,100,0,245,1,54,30,0,-8,-38,0,0,100,0,357,23,9,7,0,4,-51,0,0,100,0,417,1,28,20,0,-24,-9,0,0,65,0,0,0,48,18,0,
0,15,-58,-76,0,0,100,0,315,288,64,69,0,-17,-61,0,0,100,0,185,155,34,30,0,-21,-31,0,0,100,0,87,24,10,11,0,-63,-82,0,0,100,0,0,39,74,92,0,8,-36,0,0,100,0,116,22,12,15,0,4,-35,0,0,100,0,53,255,24,26,0,-13,-25,0,0,100,0,52,21,32,17,0,-17,-40,0,0,100,0,48,0,37,21,0,-16,-35,0,0,100,0,103,23,13,13,0,-20,-20,0,0,100,0,85,0,45,24,0,-23,-21,0,0,100,0,107,283,51,18,0,-16,-37,0,0,100,0,245,1,54,30,0,-8,-38,0,0,100,0,357,23,9,7,0,4,-51,0,0,100,0,417,1,28,20,0,-24,-9,0,0,65,0,0,0,48,18,0,
0,15,-58,-77,0,0,100,0,381,288,64,69,0,-17,-62,0,0,100,0,185,155,34,30,0,-21,-32,0,0,100,0,87,24,10,11,0,-63,-83,0,0,100,0,0,39,74,92,0,8,-37,0,0,100,0,116,22,12,15,0,4,-36,0,0,100,0,79,255,24,26,0,-13,-26,0,0,100,0,52,21,32,17,0,-17,-41,0,0,100,0,48,0,37,21,0,-16,-36,0,0,100,0,103,23,13,13,0,-20,-20,0,0,100,0,85,0,45,23,0,-23,-22,0,0,100,0,160,283,51,18,0,-16,-38,0,0,100,0,301,1,54,30,0,-9,-39,0,0,100,0,357,23,9,7,0,4,-52,0,0,100,0,447,1,28,20,0,-24,-9,0,0,65,0,0,0,48,18,0,
0,15,-58,-77,0,0,100,0,447,288,64,69,0,-17,-62,0,0,100,0,185,155,34,30,0,-21,-32,0,0,100,0,87,24,10,11,0,-63,-83,0,0,100,0,0,39,74,92,0,8,-37,0,0,100,0,116,22,12,15,0,4,-36,0,0,100,0,79,255,24,26,0,-13,-26,0,0,100,0,52,21,32,17,0,-17,-41,0,0,100,0,48,0,37,21,0,-16,-36,0,0,100,0,103,23,13,13,0,-20,-20,0,0,100,0,85,0,45,23,0,-23,-22,0,0,100,0,160,283,51,18,0,-16,-38,0,0,100,0,301,1,54,30,0,-9,-39,0,0,100,0,357,23,9,7,0,4,-52,0,0,100,0,447,1,28,20,0,-24,-9,0,0,65,0,0,0,48,18,0,
0,15,-51,-74,0,0,100,0,381,288,64,69,0,-19,-59,0,0,100,0,185,155,34,30,0,-14,-29,0,0,100,0,133,33,11,11,0,-56,-80,0,0,100,0,0,39,74,92,0,8,-36,0,0,100,0,116,22,12,15,0,2,-33,0,0,100,0,1,255,24,26,0,-14,-23,0,0,100,0,52,21,32,17,0,-19,-38,0,0,100,0,48,0,37,21,0,-17,-35,0,0,100,0,133,46,14,15,0,-20,-20,0,0,100,0,85,0,45,24,0,-24,-19,0,0,100,0,107,283,51,18,0,-16,-37,0,0,100,0,133,1,54,30,0,-11,-36,0,0,100,0,357,23,9,7,0,2,-48,0,0,100,0,357,1,28,20,0,-24,-9,0,0,65,0,0,0,48,18,0,
0,16,3,-92,0,1,100,0,360,448,56,48,0,-11,-83,1,0,100,0,447,359,64,51,0,-16,-60,0,0,100,0,185,155,34,30,0,-11,-38,0,0,100,0,159,33,28,18,0,-16,-89,1,0,100,0,0,39,74,92,0,4,-37,0,0,100,0,187,32,17,18,0,5,-35,0,0,100,0,1,255,24,26,0,-11,-24,0,0,100,0,52,21,32,17,0,-16,-39,0,0,100,0,48,0,37,21,0,5,-20,0,0,100,0,110,0,17,22,0,-18,-19,0,0,100,0,86,1,21,24,0,-7,-35,0,0,100,0,357,23,9,7,0,5,-50,0,0,100,0,357,1,28,20,0,-21,-20,0,0,100,0,107,283,51,18,0,-31,-49,0,0,100,0,217,33,72,33,0,-24,-9,0,0,65,0,0,0,48,18,0,
0,15,-8,-107,0,1,100,0,272,432,80,80,0,-16,-60,0,0,100,0,185,155,34,30,0,-10,-38,0,0,100,0,159,33,28,18,0,-15,-89,1,0,100,0,0,39,74,92,0,5,-36,0,0,100,0,187,32,17,18,0,5,-35,0,0,100,0,27,255,24,26,0,-11,-24,0,0,100,0,52,21,32,17,0,-16,-39,0,0,100,0,48,0,37,21,0,5,-20,0,0,100,0,110,0,17,22,0,-18,-19,0,0,100,0,86,1,21,24,0,-7,-35,0,0,100,0,357,23,9,7,0,5,-50,0,0,100,0,387,1,28,20,0,-21,-20,0,0,100,0,54,283,51,18,0,-31,-49,0,0,100,0,291,33,72,33,0,-24,-9,0,0,65,0,0,0,48,18,0,
0,15,-7,-107,1,1,100,0,272,432,80,80,0,-16,-60,0,0,100,0,185,155,34,30,0,-10,-38,0,0,100,0,159,33,28,18,0,-15,-89,1,0,100,0,0,39,74,92,0,5,-36,0,0,100,0,187,32,17,18,0,5,-35,0,0,100,0,53,255,24,26,0,-11,-24,0,0,100,0,52,21,32,17,0,-16,-39,0,0,100,0,48,0,37,21,0,5,-20,0,0,100,0,110,0,17,22,0,-18,-19,0,0,100,0,86,1,21,24,0,-7,-35,0,0,100,0,357,23,9,7,0,5,-50,0,0,100,0,417,1,28,20,0,-21,-20,0,0,100,0,107,283,51,18,0,-31,-49,0,0,100,0,365,33,72,33,0,-24,-9,0,0,65,0,0,0,48,18,0,
0,15,-8,-105,0,1,100,90,272,432,80,80,0,-16,-60,0,0,100,0,185,155,34,30,0,-10,-38,0,0,100,0,159,33,28,18,0,-15,-89,1,0,100,0,0,39,74,92,0,5,-36,0,0,100,0,187,32,17,18,0,5,-35,0,0,100,0,79,255,24,26,0,-11,-24,0,0,100,0,52,21,32,17,0,-16,-39,0,0,100,0,48,0,37,21,0,5,-20,0,0,100,0,110,0,17,22,0,-18,-19,0,0,100,0,86,1,21,24,0,-7,-35,0,0,100,0,357,23,9,7,0,5,-50,0,0,100,0,447,1,28,20,0,-21,-20,0,0,100,0,160,283,51,18,0,-31,-49,0,0,100,0,439,33,72,33,0,-24,-9,0,0,65,0,0,0,48,18,0,
0,15,-6,-104,3,1,100,0,272,432,80,80,0,-16,-60,0,0,100,0,185,155,34,30,0,-10,-38,0,0,100,0,159,33,28,18,0,-15,-89,1,0,100,0,0,39,74,92,0,5,-36,0,0,100,0,187,32,17,18,0,5,-35,0,0,100,0,1,255,24,26,0,-11,-24,0,0,100,0,52,21,32,17,0,-16,-39,0,0,100,0,48,0,37,21,0,5,-20,0,0,100,0,110,0,17,22,0,-18,-19,0,0,100,0,86,1,21,24,0,-7,-35,0,0,100,0,357,23,9,7,0,5,-50,0,0,100,0,357,1,28,20,0,-21,-20,0,0,100,0,1,283,51,18,0,-31,-49,0,0,100,0,217,33,72,33,0,-24,-9,0,0,65,0,0,0,48,18,0,
0,16,-8,-107,0,1,50,0,272,432,80,80,0,-16,-60,0,0,100,0,185,155,34,30,0,-10,-38,0,0,100,0,159,33,28,18,0,24,-74,1,1,100,0,204,70,16,15,0,-15,-89,1,0,100,0,0,39,74,92,0,5,-36,0,0,100,0,187,32,17,18,0,5,-35,0,0,100,0,27,255,24,26,0,-11,-24,0,0,100,0,52,21,32,17,0,-16,-39,0,0,100,0,48,0,37,21,0,5,-20,0,0,100,0,110,0,17,22,0,-18,-19,0,0,100,0,86,1,21,24,0,-7,-35,0,0,100,0,357,23,9,7,0,5,-50,0,0,100,0,387,1,28,20,0,-21,-20,0,0,100,0,54,283,51,18,0,-31,-49,0,0,100,0,291,33,72,33,0,-24,-9,0,0,65,0,0,0,48,18,0,
0,15,-16,-60,0,0,100,0,185,155,34,30,0,-10,-38,0,0,100,0,159,33,28,18,0,24,-74,1,1,100,0,204,70,16,15,0,-15,-89,1,0,100,0,0,39,74,92,0,5,-36,0,0,100,0,187,32,17,18,0,5,-35,0,0,100,0,53,255,24,26,0,-11,-24,0,0,100,0,52,21,32,17,0,-16,-39,0,0,100,0,48,0,37,21,0,5,-20,0,0,100,0,110,0,17,22,0,-18,-19,0,0,100,0,86,1,21,24,0,-7,-35,0,0,100,0,357,23,9,7,0,5,-50,0,0,100,0,417,1,28,20,0,-21,-20,0,0,100,0,107,283,51,18,0,-31,-49,0,0,100,0,365,33,72,33,0,-24,-9,0,0,65,0,0,0,48,18,0,
0,15,-14,-41,0,0,100,0,187,50,25,18,0,18,-78,1,1,100,0,204,70,16,15,0,-21,-93,1,0,100,0,0,39,74,92,0,-16,-61,0,0,100,0,221,155,34,30,0,5,-35,0,0,100,0,187,32,17,18,0,4,-35,0,0,100,0,1,255,24,26,0,-12,-24,0,0,100,0,52,21,32,17,0,-17,-39,0,0,100,0,48,0,37,21,0,5,-20,0,0,100,0,110,0,17,22,0,-18,-19,0,0,100,0,86,1,21,24,0,-8,-38,0,0,100,0,357,23,9,7,0,5,-51,0,0,100,0,447,1,28,20,0,-22,-20,0,0,100,0,107,283,51,18,0,-28,-49,0,0,100,0,217,33,72,33,0,-24,-9,0,0,65,0,0,0,48,18,0,
0,12,-26,-99,0,1,100,0,223,69,16,17,0,-24,-52,0,0,100,0,146,32,10,11,0,-43,-103,0,0,100,0,84,51,49,90,0,-15,-64,0,0,100,0,293,155,34,30,0,2,-36,0,0,100,0,183,255,24,26,0,-24,-64,0,0,100,0,142,70,48,56,0,-21,-19,0,0,100,0,145,124,42,25,0,6,-53,0,0,100,0,447,1,28,20,0,-8,-42,0,0,100,0,357,23,9,7,0,-21,-21,0,0,100,0,148,235,47,18,0,2,-46,0,0,100,0,472,68,39,37,0,-24,-9,0,0,65,0,0,0,48,18,0,
0,12,-35,-108,0,1,100,0,8,368,32,32,0,-24,-53,0,0,100,0,146,32,10,11,0,-43,-104,0,0,100,0,84,51,49,90,0,-15,-65,0,0,100,0,293,155,34,30,0,2,-37,0,0,100,0,105,255,24,26,0,-24,-65,0,0,100,0,142,70,48,56,0,-21,-19,0,0,100,0,145,124,42,25,0,6,-53,0,0,100,0,357,1,28,20,0,-8,-43,0,0,100,0,357,23,9,7,0,-21,-21,0,0,100,0,1,235,47,18,0,2,-46,0,0,100,0,349,68,39,37,0,-24,-9,0,0,65,0,0,0,48,18,0,
0,12,-38,-130,0,1,100,0,48,344,40,72,0,-24,-53,0,0,100,0,146,32,10,11,0,-43,-104,0,0,100,0,84,51,49,90,0,-15,-65,0,0,100,0,293,155,34,30,0,2,-37,0,0,100,0,131,255,24,26,0,-24,-65,0,0,100,0,142,70,48,56,0,-21,-19,0,0,100,0,145,124,42,25,0,6,-53,0,0,100,0,387,1,28,20,0,-7,-43,0,0,100,0,357,23,9,7,0,-21,-21,0,0,100,0,50,235,47,18,0,2,-46,0,0,100,0,390,68,39,37,0,-24,-9,0,0,65,0,0,0,48,18,0,
0,12,-48,-147,0,1,100,0,88,328,56,112,0,-24,-53,0,0,100,0,146,32,10,11,0,-43,-104,0,0,100,0,84,51,49,90,0,-15,-65,0,0,100,0,293,155,34,30,0,2,-37,0,0,100,0,157,255,24,26,0,-24,-65,0,0,100,0,142,70,48,56,0,-21,-19,0,0,100,0,145,124,42,25,0,6,-53,0,0,100,0,417,1,28,20,0,-7,-43,0,0,100,0,357,23,9,7,0,-21,-21,0,0,100,0,99,235,47,18,0,2,-46,0,0,100,0,431,68,39,37,0,-24,-9,0,0,65,0,0,0,48,18,0,
0,12,-39,-154,0,1,100,0,144,320,40,128,0,-24,-53,0,0,100,0,146,32,10,11,0,-43,-104,0,0,100,0,84,51,49,90,0,-15,-65,0,0,100,0,293,155,34,30,0,2,-37,0,0,100,0,183,255,24,26,0,-24,-65,0,0,100,0,142,70,48,56,0,-21,-19,0,0,100,0,145,124,42,25,0,6,-53,0,0,100,0,447,1,28,20,0,-8,-43,0,0,100,0,357,23,9,7,0,-21,-21,0,0,100,0,148,235,47,18,0,2,-46,0,0,100,0,472,68,39,37,0,-24,-9,0,0,65,0,0,0,48,18,0,
0,12,-39,-154,0,1,50,0,144,320,40,128,0,-24,-53,0,0,100,0,146,32,10,11,0,-43,-104,0,0,100,0,84,51,49,90,0,-15,-65,0,0,100,0,293,155,34,30,0,2,-37,0,0,100,0,105,255,24,26,0,-24,-65,0,0,100,0,142,70,48,56,0,-21,-19,0,0,100,0,145,124,42,25,0,6,-53,0,0,100,0,357,1,28,20,0,-8,-43,0,0,100,0,357,23,9,7,0,-21,-21,0,0,100,0,1,235,47,18,0,2,-46,0,0,100,0,349,68,39,37,0,-24,-9,0,0,65,0,0,0,48,18,0,
0,12,-39,-154,0,1,20,0,144,320,40,128,0,-24,-53,0,0,100,0,146,32,10,11,0,-43,-104,0,0,100,0,84,51,49,90,0,-15,-65,0,0,100,0,293,155,34,30,0,2,-37,0,0,100,0,131,255,24,26,0,-24,-65,0,0,100,0,142,70,48,56,0,-21,-19,0,0,100,0,145,124,42,25,0,6,-53,0,0,100,0,387,1,28,20,0,-7,-43,0,0,100,0,357,23,9,7,0,-21,-21,0,0,100,0,50,235,47,18,0,2,-46,0,0,100,0,390,68,39,37,0,-24,-9,0,0,65,0,0,0,48,18,0,
0,11,-24,-53,0,0,100,0,146,32,10,11,0,-43,-104,0,0,100,0,84,51,49,90,0,-15,-65,0,0,100,0,293,155,34,30,0,2,-37,0,0,100,0,157,255,24,26,0,-24,-65,0,0,100,0,142,70,48,56,0,-21,-19,0,0,100,0,145,124,42,25,0,6,-53,0,0,100,0,417,1,28,20,0,-7,-43,0,0,100,0,357,23,9,7,0,-21,-21,0,0,100,0,99,235,47,18,0,2,-46,0,0,100,0,431,68,39,37,0,-24,-9,0,0,65,0,0,0,48,18,0,
0,11,-24,-53,0,0,100,0,146,32,10,11,0,-43,-104,0,0,100,0,84,51,49,90,0,-15,-65,0,0,100,0,293,155,34,30,0,2,-37,0,0,100,0,183,255,24,26,0,-24,-65,0,0,100,0,142,70,48,56,0,-21,-19,0,0,100,0,145,124,42,25,0,6,-53,0,0,100,0,447,1,28,20,0,-8,-43,0,0,100,0,357,23,9,7,0,-21,-21,0,0,100,0,148,235,47,18,0,2,-46,0,0,100,0,472,68,39,37,0,-24,-9,0,0,65,0,0,0,48,18,0,
0,13,-57,-84,0,0,100,0,315,288,64,69,0,-18,-36,0,0,100,0,133,33,11,11,0,-62,-90,0,0,100,0,0,39,74,92,0,-16,-65,0,0,100,0,221,155,34,30,0,2,-37,0,0,100,0,105,255,24,26,0,-18,-48,0,0,100,0,201,86,39,40,0,-17,-39,0,0,100,0,289,75,15,12,0,-21,-21,0,0,100,0,198,125,22,26,0,2,-21,0,0,100,0,220,125,19,26,0,-22,-19,0,0,100,0,1,235,47,18,0,-18,-42,0,0,100,0,273,107,58,46,0,-9,-55,0,0,100,0,329,155,44,34,0,-24,-9,0,0,65,0,0,0,48,18,0,
0,14,-47,-82,0,0,100,0,381,359,64,51,0,-40,-92,0,0,100,0,80,41,55,101,0,-52,-79,0,0,50,0,237,190,95,88,0,-21,-39,0,0,100,0,243,75,18,14,0,-15,-66,0,0,100,0,221,155,34,30,0,3,-38,0,0,100,0,105,255,24,26,0,-17,-49,0,0,100,0,201,86,39,40,0,-16,-40,0,0,100,0,289,75,15,12,0,-21,-21,0,0,100,0,198,125,22,26,0,2,-21,0,0,100,0,220,125,19,26,0,-21,-20,0,0,100,0,1,235,47,18,0,-17,-43,0,0,100,0,273,107,58,46,0,-8,-56,0,0,100,0,329,155,44,34,0,-24,-9,0,0,65,0,0,0,48,18,0,
0,13,-38,-72,1,0,100,0,65,153,63,74,0,-52,-79,0,0,80,0,237,190,95,88,0,-21,-39,0,0,100,0,243,75,18,14,0,-15,-66,0,0,100,0,221,155,34,30,0,3,-38,0,0,100,0,131,255,24,26,0,-17,-49,0,0,100,0,201,86,39,40,0,-16,-40,0,0,100,0,289,75,15,12,0,-21,-21,0,0,100,0,198,125,22,26,0,2,-21,0,0,100,0,220,125,19,26,0,-21,-20,0,0,100,0,50,235,47,18,0,-17,-43,0,0,100,0,333,107,58,46,0,-8,-56,0,0,100,0,375,155,44,34,0,-24,-9,0,0,65,0,0,0,48,18,0,
0,13,-38,-54,1,0,100,-90,126,152,52,68,0,-51,-79,0,0,80,0,326,190,92,86,0,-21,-39,0,0,100,0,243,75,18,14,0,-15,-66,0,0,100,0,221,155,34,30,0,3,-38,0,0,100,0,157,255,24,26,0,-17,-49,0,0,100,0,201,86,39,40,0,-16,-40,0,0,100,0,289,75,15,12,0,-21,-21,0,0,100,0,198,125,22,26,0,2,-21,0,0,100,0,220,125,19,26,0,-21,-20,0,0,100,0,99,235,47,18,0,-17,-43,0,0,100,0,393,107,58,46,0,-8,-56,0,0,100,0,421,155,44,34,0,-24,-9,0,0,65,0,0,0,48,18,0,
0,13,-33,-42,0,0,100,90,28,142,30,35,0,-54,-79,0,0,30,0,420,190,92,86,0,-21,-39,0,0,100,0,243,75,18,14,0,-15,-66,0,0,100,0,221,155,34,30,0,3,-38,0,0,100,0,183,255,24,26,0,-17,-49,0,0,100,0,201,86,39,40,0,-16,-40,0,0,100,0,289,75,15,12,0,-21,-21,0,0,100,0,198,125,22,26,0,2,-21,0,0,100,0,220,125,19,26,0,-21,-20,0,0,100,0,148,235,47,18,0,-17,-43,0,0,100,0,453,107,58,46,0,-8,-56,0,0,100,0,467,155,44,34,0,-24,-9,0,0,65,0,0,0,48,18,0,
0,12,-16,-65,0,0,100,0,221,155,34,30,0,2,-37,0,0,100,0,183,255,24,26,0,-18,-48,0,0,100,0,201,86,39,40,0,-20,-35,0,0,100,0,260,75,13,13,0,-26,-44,0,0,100,0,1,149,23,21,0,-16,-38,0,0,100,0,304,71,16,16,0,-21,-21,0,0,100,0,198,125,22,26,0,2,-21,0,0,100,0,220,125,19,26,0,-22,-19,0,0,100,0,148,235,47,18,0,-18,-42,0,0,100,0,453,107,58,46,0,-9,-55,0,0,100,0,467,155,44,34,0,-24,-9,0,0,65,0,0,0,48,18,0,
0,13,-16,-65,0,0,100,0,221,155,34,30,0,2,-37,0,0,100,0,183,255,24,26,0,-18,-48,0,0,100,0,201,86,39,40,0,-20,-34,0,0,100,0,260,75,13,13,0,-26,-43,0,0,100,0,1,149,23,21,0,-23,-40,0,0,100,0,161,53,18,17,0,-16,-37,0,0,100,0,304,71,16,16,0,-21,-21,0,0,100,0,198,125,22,26,0,2,-21,0,0,100,0,220,125,19,26,0,-22,-19,0,0,100,0,148,235,47,18,0,-18,-42,0,0,100,0,453,107,58,46,0,-9,-55,0,0,100,0,467,155,44,34,0,-24,-9,0,0,65,0,0,0,48,18,0,
0,12,-25,-85,0,0,100,0,1,149,23,21,0,-22,-84,0,0,100,0,161,53,18,17,0,-14,-67,0,0,100,0,293,155,34,30,0,-19,-54,0,0,100,0,273,68,17,23,0,3,-38,0,0,100,0,157,255,24,26,0,-17,-49,0,0,100,0,201,86,39,40,0,-21,-21,0,0,100,0,198,125,22,26,0,2,-21,0,0,100,0,220,125,19,26,0,-21,-20,0,0,100,0,1,235,47,18,0,-17,-43,0,0,100,0,393,107,58,46,0,-7,-55,0,0,100,0,467,155,44,34,0,-24,-9,0,0,65,0,0,0,48,18,0,
0,11,-22,-88,0,0,100,0,161,53,18,17,0,-14,-67,0,0,100,0,293,155,34,30,0,-19,-55,0,0,100,0,273,68,17,23,0,3,-38,0,0,100,0,157,255,24,26,0,-17,-49,0,0,100,0,201,86,39,40,0,-21,-21,0,0,100,0,198,125,22,26,0,2,-21,0,0,100,0,220,125,19,26,0,-21,-20,0,0,100,0,50,235,47,18,0,-17,-43,0,0,100,0,393,107,58,46,0,-7,-55,0,0,100,0,467,155,44,34,0,-24,-9,0,0,65,0,0,0,48,18,0,
0,11,-22,-81,0,0,100,0,161,53,18,17,0,-14,-67,0,0,100,0,293,155,34,30,0,3,-38,0,0,100,0,157,255,24,26,0,-17,-49,0,0,100,0,201,86,39,40,0,-25,-44,0,0,100,0,280,91,25,15,0,-21,-21,0,0,100,0,198,125,22,26,0,2,-21,0,0,100,0,220,125,19,26,0,-21,-20,0,0,100,0,50,235,47,18,0,-17,-43,0,0,100,0,393,107,58,46,0,-7,-55,0,0,100,0,467,155,44,34,0,-24,-9,0,0,65,0,0,0,48,18,0,
0,12,-23,-39,0,0,100,0,307,88,23,18,0,-16,-65,0,0,100,0,221,155,34,30,0,2,-37,0,0,100,0,183,255,24,26,0,-18,-48,0,0,100,0,201,86,39,40,0,-22,-40,0,0,100,0,161,53,18,17,0,-16,-37,0,0,100,0,304,71,16,16,0,-21,-21,0,0,100,0,198,125,22,26,0,2,-21,0,0,100,0,220,125,19,26,0,-22,-19,0,0,100,0,148,235,47,18,0,-18,-42,0,0,100,0,453,107,58,46,0,-9,-55,0,0,100,0,467,155,44,34,0,-24,-9,0,0,65,0,0,0,48,18,0,
0,9,-15,-66,0,0,100,0,257,155,34,30,0,-7,-45,0,0,100,0,319,69,29,19,0,4,-38,0,0,100,0,131,255,24,26,0,-16,-49,0,0,100,0,201,86,39,40,0,-20,-21,0,0,100,0,198,125,41,26,0,-20,-20,0,0,100,0,50,235,47,18,0,-16,-43,0,0,100,0,333,107,58,46,0,-8,-56,0,0,100,0,375,155,44,34,0,-24,-9,0,0,65,0,0,0,48,18,0,
0,9,-15,-66,0,0,100,0,257,155,34,30,0,-9,-44,0,0,100,0,319,69,29,19,0,4,-38,0,0,100,0,157,255,24,26,0,-16,-49,0,0,100,0,201,86,39,40,0,-20,-21,0,0,100,0,198,125,41,26,0,-20,-20,0,0,100,0,99,235,47,18,0,-16,-43,0,0,100,0,393,107,58,46,0,-8,-56,0,0,100,0,421,155,44,34,0,-24,-9,0,0,65,0,0,0,48,18,0,
0,9,-15,-66,0,0,100,0,257,155,34,30,0,-9,-44,0,0,100,0,319,69,29,19,0,4,-38,0,0,100,0,183,255,24,26,0,-16,-49,0,0,100,0,201,86,39,40,0,-20,-21,0,0,100,0,198,125,41,26,0,-20,-20,0,0,100,0,148,235,47,18,0,-16,-43,0,0,100,0,453,107,58,46,0,-8,-56,0,0,100,0,467,155,44,34,0,-24,-9,0,0,65,0,0,0,48,18,0,
0,9,-15,-66,0,0,100,0,257,155,34,30,0,-9,-44,0,0,100,0,319,69,29,19,0,4,-38,0,0,100,0,105,255,24,26,0,-16,-49,0,0,100,0,201,86,39,40,0,-20,-21,0,0,100,0,198,125,41,26,0,-20,-20,0,0,100,0,1,235,47,18,0,-16,-43,0,0,100,0,273,107,58,46,0,-8,-56,0,0,100,0,329,155,44,34,0,-24,-9,0,0,65,0,0,0,48,18,0,
0,9,-15,-66,0,0,100,0,257,155,34,30,0,-9,-44,0,0,100,0,319,69,29,19,0,4,-38,0,0,100,0,131,255,24,26,0,-16,-49,0,0,100,0,201,86,39,40,0,-20,-21,0,0,100,0,198,125,41,26,0,-20,-20,0,0,100,0,50,235,47,18,0,-16,-43,0,0,100,0,333,107,58,46,0,-8,-56,0,0,100,0,375,155,44,34,0,-24,-9,0,0,65,0,0,0,48,18,0,
0,14,-24,-59,0,0,100,0,185,155,34,30,0,-19,-29,0,0,100,0,133,33,11,11,0,-61,-80,0,0,100,0,0,39,74,92,0,3,-36,0,0,100,0,116,22,12,15,0,-4,-35,0,0,100,0,27,255,24,26,0,-19,-23,0,0,100,0,185,207,33,18,0,-17,-38,0,0,100,0,189,186,30,22,0,-22,-35,0,0,100,0,133,46,14,15,0,-23,-20,1,0,100,0,85,0,45,24,0,-23,-19,0,0,100,0,50,235,47,18,0,-2,-45,0,0,100,0,390,68,39,37,0,-16,-36,0,0,100,0,357,23,9,7,0,-3,-48,0,0,100,0,357,1,28,20,0,-24,-9,0,0,65,0,0,0,48,18,0,
