0,2,-40,-73,0,0,100,0,5,0,72,72,0,-30,-37,0,0,100,0,25,413,65,46,0,
0,2,-40,-73,0,0,100,0,77,0,72,72,0,-30,-37,0,0,100,0,25,413,65,46,0,
0,2,-40,-73,0,0,100,0,149,0,72,72,0,-30,-37,0,0,100,0,25,413,65,46,0,
0,2,-40,-73,0,0,100,0,221,0,72,72,0,-30,-37,0,0,100,0,25,413,65,46,0,
0,2,-32,-48,0,0,100,0,5,97,76,48,0,-30,-37,0,0,100,0,25,413,65,46,0,
0,2,-28,-81,0,0,100,0,97,80,62,80,0,-30,-37,0,0,100,0,25,413,65,46,0,
0,2,-28,-81,0,0,100,0,161,80,63,80,0,-30,-37,0,0,100,0,25,413,65,46,0,
0,3,-1,-87,0,0,100,0,256,262,48,20,0,-26,-89,0,0,100,0,227,72,69,96,0,-30,-37,0,0,100,0,25,413,65,46,0,
0,4,-76,-4,0,0,100,0,13,357,35,13,0,-71,-87,0,0,100,0,14,258,106,96,0,-73,-49,0,0,100,0,12,200,100,56,0,-30,-37,0,0,100,0,25,413,65,46,0,
0,4,-79,-9,0,0,100,0,136,320,40,18,0,-85,-41,0,0,100,0,128,264,40,49,0,-77,-40,0,0,100,0,112,209,96,46,0,-30,-37,0,0,100,0,25,413,65,46,0,
0,4,-83,-7,0,0,100,0,259,344,48,18,0,-72,-22,0,0,100,0,270,303,24,33,0,-79,-49,0,0,100,0,214,200,106,59,0,-30,-37,0,0,100,0,25,413,65,46,0,
0,2,-79,-49,0,0,100,0,214,200,106,59,0,-30,-37,0,0,100,0,25,413,65,46,0,
0,2,-32,-81,0,0,100,0,309,0,61,80,0,-30,-37,0,0,100,0,25,413,65,46,0,
0,2,-40,-73,0,0,100,0,373,8,67,72,0,-30,-37,0,0,100,0,25,413,65,46,0,
0,2,-40,-68,0,0,100,0,445,13,67,72,0,-30,-37,0,0,100,0,25,413,65,46,0,
0,2,-40,-68,0,0,100,0,445,93,67,72,0,-30,-37,0,0,100,0,25,413,65,46,0,
0,2,-40,-65,0,0,100,0,141,368,67,69,0,-30,-37,0,0,100,0,25,413,65,46,0,
0,2,-40,-65,0,0,100,0,213,368,67,69,0,-30,-37,0,0,100,0,25,413,65,46,0,
0,2,-40,-65,0,0,100,0,285,368,67,69,0,-30,-37,0,0,100,0,25,413,65,46,0,
0,2,-40,-65,0,0,100,0,357,368,67,69,0,-30,-37,0,0,100,0,25,413,65,46,0,
0,2,-40,-65,0,0,100,0,141,440,67,69,0,-30,-37,0,0,100,0,25,413,65,46,0,
0,2,-40,-65,0,0,100,0,213,440,67,69,0,-30,-37,0,0,100,0,25,413,65,46,0,
0,2,-40,-65,0,0,100,0,285,440,67,69,0,-30,-37,0,0,100,0,25,413,65,46,0,
0,2,-40,-65,0,0,100,0,357,440,67,69,0,-30,-37,0,0,100,0,25,413,65,46,0,
