0,2,-99,-91,0,0,100,0,0,0,176,112,0,-51,-23,0,0,65,0,880,0,96,48,0,
0,2,-99,-91,0,0,100,0,176,0,176,112,0,-51,-23,0,0,65,0,880,0,96,48,0,
0,2,-99,-91,0,0,100,0,352,0,176,112,0,-51,-23,0,0,65,0,880,0,96,48,0,
0,2,-99,-91,0,0,100,0,528,0,176,112,0,-51,-23,0,0,65,0,880,0,96,48,0,
0,2,-99,-91,0,0,100,0,704,0,176,112,0,-51,-23,0,0,65,0,880,0,96,48,0,
0,2,-99,-91,0,0,100,0,0,112,176,112,0,-51,-23,0,0,65,0,880,0,96,48,0,
0,2,-99,-91,0,0,100,0,176,112,176,112,0,-51,-23,0,0,65,0,880,0,96,48,0,
0,3,-99,-110,0,0,100,0,0,336,176,112,0,-99,-91,0,0,100,0,352,112,176,112,0,-51,-23,0,0,65,0,880,0,96,48,0,
0,3,-99,-110,0,0,100,0,176,336,176,112,0,-99,-91,0,0,100,0,528,112,176,112,0,-51,-23,0,0,65,0,880,0,96,48,0,
0,3,-99,-110,0,0,100,0,352,336,176,112,0,-99,-91,0,0,100,0,704,112,176,112,0,-51,-23,0,0,65,0,880,0,96,48,0,
0,4,-137,-82,0,0,100,0,0,560,176,112,0,-99,-91,0,0,100,0,0,224,176,112,0,-99,-75,0,0,100,0,0,448,176,112,0,-51,-23,0,0,65,0,880,0,96,48,0,
0,4,-168,-80,0,0,100,0,176,560,176,112,0,-99,-91,0,0,100,0,176,224,176,112,0,-98,-74,0,0,100,0,176,448,176,112,0,-51,-23,0,0,65,0,880,0,96,48,0,
0,3,-99,-91,0,0,100,0,352,224,176,112,0,-98,-74,0,0,100,0,352,448,176,112,0,-51,-23,0,0,65,0,880,0,96,48,0,
0,2,-99,-91,0,0,100,0,528,224,176,112,0,-51,-23,0,0,65,0,880,0,96,48,0,
0,3,-28,-53,0,1,100,0,880,48,48,32,0,-99,-91,0,0,100,0,704,224,176,112,0,-51,-23,0,0,65,0,880,0,96,48,0,
0,4,-28,-53,0,1,50,0,880,48,48,32,0,-28,-53,0,1,100,0,928,48,48,32,0,-99,-91,0,0,100,0,880,224,176,112,0,-51,-23,0,0,65,0,880,0,96,48,0,
0,3,-29,-53,0,1,80,0,928,48,48,32,0,-99,-91,0,0,100,0,528,336,176,112,0,-51,-23,0,0,65,0,880,0,96,48,0,
0,2,-99,-91,0,0,100,0,704,336,176,112,0,-51,-23,0,0,65,0,880,0,96,48,0,
0,2,-99,-101,0,0,100,0,880,336,176,112,0,-51,-23,0,0,65,0,880,0,96,48,0,
0,2,-99,-107,0,0,100,0,528,448,176,112,0,-51,-23,0,0,65,0,880,0,96,48,0,
0,2,-99,-109,0,0,100,0,704,448,176,112,0,-51,-23,0,0,65,0,880,0,96,48,0,
0,2,-99,-107,0,0,100,0,880,448,176,112,0,-51,-23,0,0,65,0,880,0,96,48,0,
0,2,-99,-105,0,0,100,0,528,560,176,112,0,-51,-23,0,0,65,0,880,0,96,48,0,
0,3,-28,-53,0,1,40,0,928,48,48,32,0,-99,-91,0,0,100,0,880,112,176,112,0,-51,-23,0,0,65,0,880,0,96,48,0,
