0,2,-57,-96,0,0,100,0,0,0,112,112,0,-48,-24,0,0,65,0,480,0,96,48,0,
0,2,-57,-95,0,0,100,0,112,0,112,112,0,-48,-24,0,0,65,0,480,0,96,48,0,
0,2,-57,-95,0,0,100,0,224,0,112,112,0,-48,-24,0,0,65,0,480,0,96,48,0,
0,2,-57,-96,0,0,100,0,336,0,112,112,0,-48,-24,0,0,65,0,480,0,96,48,0,
0,2,-57,-96,0,0,100,0,0,0,112,112,0,-48,-24,0,0,65,0,480,0,96,48,0,
0,2,-57,-95,0,0,100,0,112,0,112,112,0,-48,-24,0,0,65,0,480,0,96,48,0,
0,2,-57,-95,0,0,100,0,224,0,112,112,0,-48,-24,0,0,65,0,480,0,96,48,0,
0,2,-57,-96,0,0,100,0,336,0,112,112,0,-48,-24,0,0,65,0,480,0,96,48,0,
0,4,-51,-79,0,0,100,0,864,592,112,96,0,-56,-40,0,1,100,0,1088,96,32,32,0,-75,-65,1,0,100,0,112,720,112,80,0,-48,-24,0,0,65,0,480,0,96,48,0,
0,6,23,-59,0,0,100,0,64,688,32,32,0,15,-65,0,1,100,0,960,976,64,64,0,-88,-96,0,0,100,0,0,896,160,112,0,-51,-81,0,0,100,0,0,112,96,96,0,-41,-75,0,0,100,0,0,720,112,80,0,-48,-24,0,0,65,0,480,0,96,48,0,
0,6,26,-45,0,0,100,0,176,688,32,32,0,7,-55,0,1,100,0,1024,976,64,64,0,-88,-96,0,0,100,0,160,896,160,112,0,-51,-81,0,0,100,0,192,112,96,96,0,-38,-69,0,0,100,0,112,720,112,80,0,-48,-24,0,0,65,0,480,0,96,48,0,
0,6,-67,-81,0,0,100,0,288,112,112,96,0,11,-31,0,0,100,0,296,688,32,32,0,-2,-37,0,1,100,0,1088,976,64,64,0,-88,-96,0,0,100,0,320,896,160,112,0,-61,-63,0,0,100,0,224,720,112,80,0,-56,-24,0,0,65,0,480,0,96,48,0,
0,6,-38,-44,0,0,100,0,624,128,48,32,0,-85,-78,1,0,100,0,112,720,112,80,0,-67,-81,0,0,100,0,400,112,112,96,0,-80,-56,0,1,100,0,1152,976,64,64,0,-88,-96,0,0,100,0,480,896,160,112,0,-56,-24,0,0,65,0,480,0,96,48,0,
0,7,16,-53,0,0,100,0,400,688,32,32,0,-15,-62,0,1,100,0,1216,976,64,64,0,-88,-96,0,0,100,0,640,896,160,112,0,-67,-81,0,0,100,0,512,112,112,96,0,-48,-77,0,0,100,0,336,720,112,80,0,-16,-58,0,0,100,0,672,128,48,32,0,-56,-24,0,0,65,0,480,0,96,48,0,
0,6,22,-54,0,0,100,0,176,688,32,32,0,-8,-71,0,1,100,0,1280,976,64,64,0,-88,-96,0,0,100,0,800,896,160,112,0,-67,-81,0,0,100,0,0,208,112,96,0,-42,-78,0,0,100,0,112,720,112,80,0,-56,-24,0,0,65,0,480,0,96,48,0,
0,6,12,-54,0,0,100,0,512,688,32,32,0,8,-63,0,1,100,0,960,1072,64,64,0,-88,-96,0,0,100,0,0,1008,160,112,0,-65,-81,0,0,100,0,112,208,112,96,0,-52,-70,0,0,100,0,448,720,96,80,0,-56,-24,0,0,65,0,480,0,96,48,0,
0,6,-67,-81,0,0,100,0,224,208,112,96,0,-5,-56,0,0,100,0,584,688,32,32,0,-16,-66,0,1,100,0,1024,1072,64,64,0,-88,-96,0,0,100,0,160,1008,160,112,0,-45,-72,0,0,100,0,544,720,80,80,0,-56,-24,0,0,65,0,480,0,96,48,0,
0,6,-33,-44,0,0,100,0,624,160,48,32,0,-78,-83,1,0,100,0,0,720,112,80,0,-71,-72,0,1,100,0,1088,1072,64,64,0,-67,-81,0,0,100,0,336,208,112,96,0,-88,-96,0,0,100,0,320,1008,160,112,0,-56,-24,0,0,65,0,480,0,96,48,0,
0,7,9,-65,0,0,100,0,672,688,32,32,0,-15,-86,0,1,100,0,1152,1072,64,64,0,-88,-96,0,0,100,0,480,1008,160,112,0,-67,-81,0,0,100,0,448,208,112,96,0,-39,-81,0,0,100,0,624,720,96,80,0,-16,-58,0,0,100,0,672,128,48,32,0,-56,-24,0,0,65,0,480,0,96,48,0,
0,6,17,-65,0,0,100,0,64,688,32,32,0,0,-87,0,1,100,0,1216,1072,64,64,0,-88,-96,0,0,100,0,640,1008,160,112,0,-67,-81,0,0,100,0,560,208,112,96,0,-47,-81,0,0,100,0,0,720,112,80,0,-56,-24,0,0,65,0,480,0,96,48,0,
0,6,20,-57,0,0,100,0,176,688,32,32,0,7,-78,0,1,100,0,1280,1072,64,64,0,-88,-96,0,0,100,0,800,1008,160,112,0,-66,-81,0,0,100,0,672,208,112,96,0,-44,-81,0,0,100,0,112,720,112,80,0,-55,-24,0,0,65,0,480,0,96,48,0,
0,6,-67,-81,0,0,100,0,0,304,112,96,0,0,-53,0,0,100,0,512,688,32,32,0,-16,-72,0,1,100,0,960,1168,64,64,0,-88,-96,0,0,100,0,0,1120,160,112,0,-64,-69,0,0,100,0,448,720,96,80,0,-58,-24,0,0,65,0,480,0,96,48,0,
0,6,-38,-35,0,0,100,0,672,160,16,16,0,-89,-78,1,0,100,0,112,720,112,80,0,-67,-81,0,0,100,0,112,304,112,96,0,-80,-71,0,1,100,0,1024,1168,64,64,0,-88,-96,0,0,100,0,160,1120,160,112,0,-59,-24,0,0,65,0,480,0,96,48,0,
0,7,-66,-66,0,0,100,0,432,880,16,16,0,-88,-87,0,1,100,0,1088,1168,64,64,0,-88,-96,0,0,100,0,320,1120,160,112,0,-44,-43,0,0,100,0,688,160,16,16,0,-89,-94,0,0,100,0,448,800,96,96,0,-67,-81,0,0,100,0,224,304,112,96,0,-63,-24,0,0,65,0,480,0,96,48,0,
0,7,11,-74,0,0,100,0,64,880,16,16,0,-15,-103,0,1,100,0,1152,1168,64,64,0,-88,-96,0,0,100,0,480,1120,160,112,0,-24,-55,0,0,100,0,704,160,16,16,0,-55,-96,0,0,100,0,0,800,112,80,0,-67,-81,0,0,100,0,336,304,112,96,0,-60,-24,0,0,65,0,480,0,96,48,0,
0,11,12,-75,0,0,100,0,64,880,16,16,0,-16,-104,0,1,100,0,1216,1168,64,64,0,-88,-96,0,0,100,0,640,1120,160,112,0,-23,-56,0,0,100,0,704,160,16,16,0,-54,-97,0,0,100,0,0,800,112,80,0,-20,-61,0,0,100,0,768,128,48,48,0,-67,-81,0,0,100,0,448,304,112,96,0,-67,-33,0,0,100,0,816,176,96,32,0,-46,-50,0,0,100,0,768,176,48,32,0,-35,-49,0,0,100,0,816,128,48,48,0,-60,-24,0,0,65,0,480,0,96,48,0,
0,11,12,-75,0,0,100,0,64,880,16,16,0,-8,-104,0,1,100,0,1280,1168,64,64,0,-88,-96,0,0,100,0,800,1120,160,112,0,-23,-56,0,0,100,0,704,160,16,16,0,-54,-97,0,0,100,0,0,800,112,80,0,-20,-61,0,0,100,0,768,128,48,48,0,-67,-81,0,0,100,0,448,304,112,96,0,-67,-33,0,0,100,0,816,176,96,32,0,-46,-50,0,0,100,0,768,176,48,32,0,-35,-49,0,0,100,0,816,128,48,48,0,-60,-24,0,0,65,0,480,0,96,48,0,
0,8,-160,-104,0,0,100,0,720,720,128,128,0,-43,-79,1,0,100,-90,176,688,32,32,0,-65,-95,0,1,100,0,960,1264,64,64,0,-90,-96,0,0,100,0,0,1232,160,112,0,-49,-33,0,0,100,0,672,176,16,16,0,-70,-89,1,0,100,-90,112,720,112,80,0,-83,-81,0,0,100,0,560,304,112,96,0,-68,-24,0,0,65,0,480,0,96,48,0,
0,8,-160,-104,0,0,100,0,976,720,128,128,0,-43,-80,1,0,100,-90,176,688,32,32,0,-64,-96,0,1,100,0,1024,1264,64,64,0,-90,-96,0,0,100,0,160,1232,160,112,0,-49,-34,0,0,100,0,672,176,16,16,0,-70,-90,1,0,100,-90,112,720,112,80,0,-83,-81,0,0,100,0,672,304,112,96,0,-68,-24,0,0,65,0,480,0,96,48,0,
0,12,-160,-104,0,0,100,0,848,720,128,128,0,-43,-82,1,0,100,-90,176,688,32,32,0,-66,-96,0,1,100,0,1088,1264,64,64,0,-90,-96,0,0,100,0,320,1232,160,112,0,-49,-36,0,0,100,0,672,176,16,16,0,-70,-92,1,0,100,-90,112,720,112,80,0,-17,-51,0,0,100,0,784,240,32,32,0,-83,-81,0,0,100,0,960,424,112,96,0,-52,-52,0,0,100,0,784,272,32,32,0,-59,-41,0,0,100,0,1008,304,80,40,0,-51,-49,0,0,100,0,960,256,64,48,0,-68,-24,0,0,65,0,480,0,96,48,0,
0,10,-160,-104,0,0,100,0,720,720,128,128,0,-90,-96,0,0,100,0,480,1232,160,112,0,-49,-36,0,0,100,0,672,176,16,16,0,-70,-92,1,0,100,-90,112,720,112,80,0,-17,-51,0,0,100,0,816,240,32,32,0,-83,-81,0,0,100,0,784,304,112,96,0,-52,-52,0,0,100,0,816,272,32,32,0,-59,-41,0,0,100,0,1008,344,80,40,0,-51,-49,0,0,100,0,1024,256,64,48,0,-68,-24,0,0,65,0,480,0,96,48,0,
0,10,-160,-104,0,0,100,0,976,720,128,128,0,-90,-96,0,0,85,0,640,1232,160,112,0,-49,-36,0,0,100,0,672,176,16,16,0,-70,-92,1,0,100,-90,112,720,112,80,0,-17,-51,0,0,100,0,848,240,32,32,0,-83,-81,0,0,100,0,784,304,112,96,0,-52,-52,0,0,100,0,848,272,32,32,0,-59,-41,0,0,100,0,1008,384,80,40,0,-51,-49,0,0,100,0,1024,256,64,48,0,-68,-24,0,0,65,0,480,0,96,48,0,
0,10,-160,-104,0,0,100,0,848,720,128,128,0,-90,-96,0,0,60,0,800,1232,160,112,0,-49,-36,0,0,100,0,672,176,16,16,0,-70,-92,1,0,100,-90,112,720,112,80,0,-17,-51,0,0,100,0,848,240,32,32,0,-83,-81,0,0,100,0,784,304,112,96,0,-52,-52,0,0,100,0,848,272,32,32,0,-59,-41,0,0,100,0,1008,384,80,40,0,-51,-49,0,0,100,0,1024,256,64,48,0,-68,-24,0,0,65,0,480,0,96,48,0,
0,10,-141,-83,0,0,100,0,960,848,80,80,0,-90,-96,0,0,25,0,1120,416,160,112,0,-49,-36,0,0,100,0,672,176,16,16,0,-70,-92,1,0,100,-90,112,720,112,80,0,-17,-51,0,0,100,0,848,240,32,32,0,-83,-81,0,0,100,0,784,304,112,96,0,-52,-52,0,0,100,0,848,272,32,32,0,-59,-41,0,0,100,0,1008,384,80,40,0,-51,-49,0,0,100,0,1024,256,64,48,0,-68,-24,0,0,65,0,480,0,96,48,0,
0,7,-33,-40,0,0,100,0,688,160,16,16,0,-67,-81,0,0,100,0,896,304,112,96,0,-78,-90,0,0,100,0,448,800,96,96,0,-37,-46,0,0,100,0,688,176,32,32,0,-42,-54,0,0,100,0,912,256,48,48,0,-46,-52,0,0,100,0,880,240,32,32,0,-61,-24,0,0,65,0,480,0,96,48,0,
0,7,-52,-80,0,0,100,0,0,400,96,96,0,-23,-35,0,0,100,0,672,160,16,16,0,-72,-75,1,0,100,0,0,720,112,80,0,-27,-42,0,0,100,0,912,128,32,32,0,-35,-47,0,0,100,0,864,528,48,48,0,-25,-56,0,0,100,0,992,528,64,64,0,-48,-24,0,0,65,0,480,0,96,48,0,
0,7,-52,-80,0,0,100,0,96,400,96,96,0,-23,-34,0,0,100,0,672,160,16,16,0,-72,-74,1,0,100,0,0,720,112,80,0,-27,-42,0,0,100,0,912,128,32,32,0,-34,-47,0,0,100,0,912,528,48,48,0,-25,-55,0,0,100,0,992,528,64,64,0,-48,-24,0,0,65,0,480,0,96,48,0,
0,7,-52,-80,0,0,100,0,192,400,96,96,0,-23,-34,0,0,100,0,672,160,16,16,0,-72,-74,1,0,100,0,0,720,112,80,0,-27,-42,0,0,100,0,912,128,32,32,0,-34,-47,0,0,100,0,912,528,48,48,0,-25,-55,0,0,100,0,992,528,64,64,0,-48,-24,0,0,65,0,480,0,96,48,0,
0,7,-52,-80,0,0,100,0,288,400,96,96,0,-24,-34,0,0,100,0,672,160,16,16,0,-73,-74,1,0,100,0,0,720,112,80,0,-28,-42,0,0,100,0,912,128,32,32,0,-35,-47,0,0,100,0,976,592,48,48,0,-27,-55,0,0,100,0,1056,528,64,64,0,-48,-24,0,0,65,0,480,0,96,48,0,
0,7,-52,-80,0,0,100,0,384,400,96,96,0,-25,-33,0,0,100,0,672,160,16,16,0,-74,-73,1,0,100,0,0,720,112,80,0,-29,-41,0,0,100,0,912,128,32,32,0,-37,-46,0,0,100,0,1024,592,48,48,0,-28,-54,0,0,100,0,1040,640,64,64,0,-48,-24,0,0,65,0,480,0,96,48,0,
0,7,-52,-80,0,0,100,0,480,400,96,96,0,-25,-33,0,0,100,0,672,160,16,16,0,-74,-73,1,0,100,0,0,720,112,80,0,-29,-41,0,0,100,0,912,128,32,32,0,-37,-46,0,0,100,0,1072,592,48,48,0,-28,-54,0,0,100,0,1104,640,64,64,0,-48,-24,0,0,65,0,480,0,96,48,0,
0,7,-52,-80,0,0,100,0,576,400,96,96,0,-25,-33,0,0,100,0,672,160,16,16,0,-74,-73,1,0,100,0,0,720,112,80,0,-29,-41,0,0,100,0,912,128,32,32,0,-37,-46,0,0,100,0,1120,592,48,48,0,-28,-54,0,0,100,0,1168,640,64,64,0,-48,-24,0,0,65,0,480,0,96,48,0,
0,7,-52,-80,0,0,100,0,672,400,96,96,0,-25,-33,0,0,100,0,672,160,16,16,0,-74,-73,1,0,100,0,0,720,112,80,0,-29,-41,0,0,100,0,912,128,32,32,0,-37,-46,0,0,100,0,1168,592,48,48,0,-28,-54,0,0,100,0,1232,640,64,64,0,-48,-24,0,0,65,0,480,0,96,48,0,
0,7,-52,-80,0,0,100,0,768,400,96,96,0,-25,-33,0,0,100,0,672,160,16,16,0,-74,-73,1,0,100,0,0,720,112,80,0,-29,-41,0,0,100,0,912,128,32,32,0,-37,-46,0,0,100,0,912,528,48,48,0,-28,-54,0,0,100,0,992,528,64,64,0,-48,-24,0,0,65,0,480,0,96,48,0,
0,7,-52,-80,0,0,100,0,864,400,96,96,0,-25,-32,0,0,100,0,672,160,16,16,0,-74,-72,1,0,100,0,0,720,112,80,0,-29,-41,0,0,100,0,912,128,32,32,0,-37,-46,0,0,100,0,912,528,48,48,0,-28,-54,0,0,100,0,992,528,64,64,0,-48,-24,0,0,65,0,480,0,96,48,0,
0,4,-52,-80,0,0,100,0,0,496,96,96,0,-75,-73,1,0,100,0,112,720,112,80,0,-26,-53,0,0,100,0,992,528,64,64,0,-48,-24,0,0,65,0,480,0,96,48,0,
0,3,-52,-80,0,0,100,0,96,496,96,96,0,-49,-61,1,0,100,0,448,720,96,80,0,-47,-24,0,0,65,0,480,0,96,48,0,
0,3,-52,-80,0,0,100,0,192,496,96,96,0,-36,-61,1,0,100,0,544,720,80,80,0,-46,-24,0,0,65,0,480,0,96,48,0,
0,5,-21,-56,0,0,100,0,1104,704,48,48,0,-10,-43,0,0,100,0,1152,704,48,48,0,-39,-63,0,0,100,0,448,720,96,80,0,-37,-80,0,0,100,0,288,496,96,96,0,-42,-24,0,0,65,0,480,0,96,48,0,
0,5,-21,-56,0,0,100,0,1104,752,48,48,0,-10,-44,0,0,100,0,1200,704,48,48,0,-34,-71,0,0,100,0,112,720,112,80,0,-37,-80,0,0,100,0,384,496,96,96,0,-39,-24,0,0,65,0,480,0,96,48,0,
0,5,-21,-56,0,0,100,0,1104,800,48,48,0,-7,-44,0,0,100,0,1152,752,48,48,0,-33,-70,0,0,100,0,112,720,112,80,0,-37,-80,0,0,100,0,480,496,96,96,0,-38,-24,0,0,65,0,480,0,96,48,0,
0,5,-21,-56,0,0,100,0,1104,848,48,48,0,-5,-49,0,0,100,0,1152,800,48,48,0,-32,-69,0,0,100,0,112,720,112,80,0,-37,-80,0,0,100,0,576,496,96,96,0,-38,-24,0,0,65,0,480,0,96,48,0,
0,5,-7,-52,0,0,100,0,1232,896,40,40,0,-5,-47,0,0,100,0,1280,848,64,48,0,-42,-62,0,0,100,0,224,800,112,80,0,-37,-80,0,0,100,0,672,496,96,96,0,-38,-24,0,0,65,0,480,0,96,48,0,
0,5,-6,-52,0,0,100,0,1152,936,40,40,0,-5,-48,0,0,100,0,1280,896,64,48,0,-42,-62,0,0,100,0,224,800,112,80,0,-37,-80,0,0,100,0,768,496,96,96,0,-38,-24,0,0,65,0,480,0,96,48,0,
0,5,-5,-52,0,0,100,0,1152,896,40,40,0,-5,-48,0,0,100,0,1152,848,64,48,0,-42,-63,0,0,100,0,224,800,112,80,0,-37,-80,0,0,100,0,0,592,96,96,0,-38,-24,0,0,65,0,480,0,96,48,0,
0,5,-6,-53,0,0,100,0,1192,896,40,40,0,-5,-48,0,0,100,0,1216,848,64,48,0,-42,-63,0,0,100,0,224,800,112,80,0,-37,-80,0,0,100,0,96,592,96,96,0,-38,-24,0,0,65,0,480,0,96,48,0,
0,5,-7,-53,0,0,100,0,1232,896,40,40,0,-5,-48,0,0,100,0,1280,848,64,48,0,-42,-63,0,0,100,0,224,800,112,80,0,-37,-80,0,0,100,0,192,592,96,96,0,-38,-24,0,0,65,0,480,0,96,48,0,
0,5,-6,-52,0,0,100,0,1152,936,40,40,0,-5,-48,0,0,100,0,1280,896,64,48,0,-42,-63,0,0,100,0,224,800,112,80,0,-37,-80,0,0,100,0,288,592,96,96,0,-38,-24,0,0,65,0,480,0,96,48,0,
0,5,-5,-52,0,0,100,0,1152,896,40,40,0,-5,-48,0,0,100,0,1152,848,64,48,0,-42,-63,0,0,100,0,224,800,112,80,0,-37,-80,0,0,100,0,384,592,96,96,0,-38,-24,0,0,65,0,480,0,96,48,0,
0,5,-6,-53,0,0,100,0,1192,896,40,40,0,-5,-48,0,0,100,0,1216,848,64,48,0,-42,-63,0,0,100,0,224,800,112,80,0,-37,-80,0,0,100,0,480,592,96,96,0,-38,-24,0,0,65,0,480,0,96,48,0,
0,5,-7,-53,0,0,100,0,1232,896,40,40,0,-5,-48,0,0,100,0,1280,848,64,48,0,-42,-63,0,0,100,0,224,800,112,80,0,-37,-80,0,0,100,0,576,592,96,96,0,-38,-24,0,0,65,0,480,0,96,48,0,
0,5,-6,-52,0,0,100,0,1152,936,40,40,0,-5,-48,0,0,100,0,1280,896,64,48,0,-42,-63,0,0,100,0,224,800,112,80,0,-37,-80,0,0,100,0,672,592,96,96,0,-38,-24,0,0,65,0,480,0,96,48,0,
0,8,-160,-104,0,0,100,0,848,720,128,128,0,-43,-79,1,0,100,-90,176,688,32,32,0,-65,-95,0,1,100,0,960,1264,64,64,0,-90,-96,0,0,100,0,0,1232,160,112,0,-49,-33,0,0,100,0,672,176,16,16,0,-70,-89,1,0,100,-90,112,720,112,80,0,-83,-81,0,0,100,0,560,304,112,96,0,-68,-24,0,0,65,0,480,0,96,48,0,
0,8,-160,-104,0,0,100,0,720,720,128,128,0,-43,-80,1,0,100,-90,176,688,32,32,0,-64,-96,0,1,100,0,1024,1264,64,64,0,-90,-96,0,0,100,0,160,1232,160,112,0,-49,-34,0,0,100,0,672,176,16,16,0,-70,-90,1,0,100,-90,112,720,112,80,0,-83,-81,0,0,100,0,672,304,112,96,0,-68,-24,0,0,65,0,480,0,96,48,0,
0,12,-160,-104,0,0,100,0,976,720,128,128,0,-43,-82,1,0,100,-90,176,688,32,32,0,-66,-96,0,1,100,0,1088,1264,64,64,0,-90,-96,0,0,100,0,320,1232,160,112,0,-49,-36,0,0,100,0,672,176,16,16,0,-70,-92,1,0,100,-90,112,720,112,80,0,-17,-51,0,0,100,0,784,240,32,32,0,-83,-81,0,0,100,0,960,424,112,96,0,-52,-52,0,0,100,0,784,272,32,32,0,-59,-41,0,0,100,0,1008,304,80,40,0,-51,-49,0,0,100,0,960,256,64,48,0,-68,-24,0,0,65,0,480,0,96,48,0,
0,10,-160,-104,0,0,100,0,848,720,128,128,0,-90,-96,0,0,100,0,480,1232,160,112,0,-49,-36,0,0,100,0,672,176,16,16,0,-70,-92,1,0,100,-90,112,720,112,80,0,-17,-51,0,0,100,0,816,240,32,32,0,-83,-81,0,0,100,0,784,304,112,96,0,-52,-52,0,0,100,0,816,272,32,32,0,-59,-41,0,0,100,0,1008,344,80,40,0,-51,-49,0,0,100,0,1024,256,64,48,0,-68,-24,0,0,65,0,480,0,96,48,0,
0,10,-160,-104,0,0,100,0,720,720,128,128,0,-90,-96,0,0,85,0,640,1232,160,112,0,-49,-36,0,0,100,0,672,176,16,16,0,-70,-92,1,0,100,-90,112,720,112,80,0,-17,-51,0,0,100,0,848,240,32,32,0,-83,-81,0,0,100,0,784,304,112,96,0,-52,-52,0,0,100,0,848,272,32,32,0,-59,-41,0,0,100,0,1008,384,80,40,0,-51,-49,0,0,100,0,1024,256,64,48,0,-68,-24,0,0,65,0,480,0,96,48,0,
0,10,-160,-104,0,0,100,0,976,720,128,128,0,-90,-96,0,0,60,0,800,1232,160,112,0,-49,-36,0,0,100,0,672,176,16,16,0,-70,-92,1,0,100,-90,112,720,112,80,0,-17,-51,0,0,100,0,848,240,32,32,0,-83,-81,0,0,100,0,784,304,112,96,0,-52,-52,0,0,100,0,848,272,32,32,0,-59,-41,0,0,100,0,1008,384,80,40,0,-51,-49,0,0,100,0,1024,256,64,48,0,-68,-24,0,0,65,0,480,0,96,48,0,
0,10,-141,-83,0,0,100,0,1040,896,80,80,0,-90,-96,0,0,25,0,1120,416,160,112,0,-49,-36,0,0,100,0,672,176,16,16,0,-70,-92,1,0,100,-90,112,720,112,80,0,-17,-51,0,0,100,0,848,240,32,32,0,-83,-81,0,0,100,0,784,304,112,96,0,-52,-52,0,0,100,0,848,272,32,32,0,-59,-41,0,0,100,0,1008,384,80,40,0,-51,-49,0,0,100,0,1024,256,64,48,0,-68,-24,0,0,65,0,480,0,96,48,0,
0,9,-124,-62,0,0,50,0,1040,848,48,48,0,-49,-36,0,0,100,0,672,176,16,16,0,-70,-92,1,0,100,-90,112,720,112,80,0,-17,-51,0,0,100,0,848,240,32,32,0,-83,-81,0,0,100,0,784,304,112,96,0,-52,-52,0,0,100,0,848,272,32,32,0,-59,-41,0,0,100,0,1008,384,80,40,0,-51,-49,0,0,100,0,1024,256,64,48,0,-68,-24,0,0,65,0,480,0,96,48,0,
0,8,-49,-36,0,0,100,0,672,176,16,16,0,-70,-92,1,0,100,-90,112,720,112,80,0,-17,-51,0,0,100,0,848,240,32,32,0,-83,-81,0,0,100,0,784,304,112,96,0,-52,-52,0,0,100,0,848,272,32,32,0,-59,-41,0,0,100,0,1008,384,80,40,0,-51,-49,0,0,100,0,1024,256,64,48,0,-68,-24,0,0,65,0,480,0,96,48,0,
