0,24,10,-25,0,0,100,0,360,280,40,40,0,0,-65,0,0,100,0,320,280,40,40,0,-70,-35,0,0,100,0,400,240,40,40,0,-70,-65,0,0,100,0,360,240,40,40,0,-60,-75,0,0,100,0,320,240,40,40,0,-60,-45,0,1,100,0,480,80,120,64,0,-10,-45,0,0,100,0,0,200,40,40,0,-10,-55,0,0,100,0,0,160,40,40,0,-50,-55,0,0,100,0,160,0,80,40,0,-70,-85,0,1,100,0,320,0,80,80,0,-20,-55,0,0,100,0,0,40,40,40,0,-20,-45,0,0,100,0,0,120,40,40,0,-20,-55,0,0,100,0,0,80,40,40,0,-20,-65,0,0,100,0,0,0,40,40,0,-30,-35,0,0,100,0,0,240,40,40,0,-30,-35,0,0,100,0,0,280,40,40,0,-20,-55,0,0,100,0,160,40,40,40,0,-30,-45,0,0,100,0,160,80,40,40,0,-40,-65,0,0,100,0,160,120,40,40,0,-20,-55,0,0,100,0,160,240,40,80,0,-60,-45,0,0,100,0,160,160,80,40,0,-50,-55,0,0,100,0,320,80,80,80,0,-70,-51,0,1,100,0,480,144,120,64,0,-26,-12,0,0,65,0,0,368,56,24,0,
0,24,11,-26,0,0,100,0,360,280,40,40,0,0,-64,0,0,100,0,320,280,40,40,0,-69,-34,0,0,100,0,400,240,40,40,0,-70,-65,0,0,100,0,360,240,40,40,0,-59,-75,0,0,100,0,320,240,40,40,0,-60,-45,0,1,100,0,600,80,120,64,0,-10,-45,0,0,100,0,40,200,40,40,0,-10,-55,0,0,100,0,0,160,40,40,0,-50,-56,0,0,100,0,160,0,80,40,0,-70,-86,0,1,100,0,400,0,80,80,0,-20,-55,0,0,100,0,40,40,40,40,0,-20,-45,0,0,100,0,0,120,40,40,0,-20,-55,0,0,100,0,0,80,40,40,0,-20,-65,0,0,100,0,40,0,40,40,0,-30,-34,0,0,100,0,0,240,40,40,0,-30,-34,0,0,100,0,0,280,40,40,0,-20,-55,0,0,100,0,160,40,40,40,0,-31,-46,0,0,100,0,160,80,40,40,0,-40,-66,0,0,100,0,200,120,40,40,0,-20,-55,0,0,100,0,200,240,40,80,0,-60,-45,0,0,100,0,240,160,80,40,0,-50,-55,0,0,100,0,400,80,80,80,0,-70,-51,0,1,100,0,600,144,120,64,0,-26,-12,0,0,65,0,0,368,56,24,0,
0,24,11,-27,0,0,100,0,360,280,40,40,0,0,-64,0,0,100,0,320,280,40,40,0,-70,-34,0,0,100,0,400,240,40,40,0,-70,-64,0,0,100,0,360,240,40,40,0,-59,-76,0,0,100,0,320,240,40,40,0,-60,-46,0,1,100,0,720,80,120,64,0,-10,-46,0,0,100,0,40,200,40,40,0,-10,-56,0,0,100,0,0,160,40,40,0,-50,-57,0,0,100,0,160,0,80,40,0,-70,-87,0,1,100,0,480,0,80,80,0,-20,-56,0,0,100,0,80,40,40,40,0,-20,-46,0,0,100,0,0,120,40,40,0,-20,-56,0,0,100,0,0,80,40,40,0,-20,-66,0,0,100,0,80,0,40,40,0,-30,-35,0,0,100,0,0,240,40,40,0,-30,-35,0,0,100,0,40,280,40,40,0,-20,-56,0,0,100,0,160,40,40,40,0,-31,-47,0,0,100,0,160,80,40,40,0,-40,-67,0,0,100,0,240,120,40,40,0,-20,-56,0,0,100,0,240,240,40,80,0,-60,-46,0,0,100,0,160,200,80,40,0,-50,-56,0,0,100,0,320,160,80,80,0,-70,-52,0,1,100,0,720,144,120,64,0,-26,-12,0,0,65,0,0,368,56,24,0,
0,24,10,-26,0,0,100,0,360,280,40,40,0,0,-65,0,0,100,0,320,280,40,40,0,-71,-35,0,0,100,0,400,240,40,40,0,-70,-64,0,0,100,0,360,240,40,40,0,-60,-76,0,0,100,0,320,240,40,40,0,-60,-46,0,1,100,0,840,80,120,64,0,-10,-46,0,0,100,0,0,200,40,40,0,-10,-56,0,0,100,0,0,160,40,40,0,-50,-56,0,0,100,0,160,0,80,40,0,-70,-86,0,1,100,0,560,0,80,80,0,-20,-56,0,0,100,0,120,40,40,40,0,-20,-46,0,0,100,0,0,120,40,40,0,-20,-56,0,0,100,0,0,80,40,40,0,-20,-66,0,0,100,0,120,0,40,40,0,-30,-36,0,0,100,0,0,240,40,40,0,-30,-36,0,0,100,0,40,280,40,40,0,-20,-56,0,0,100,0,160,40,40,40,0,-30,-46,0,0,100,0,160,80,40,40,0,-40,-67,0,0,100,0,280,120,40,40,0,-20,-56,0,0,100,0,280,240,40,80,0,-60,-46,0,0,100,0,240,200,80,40,0,-50,-56,0,0,100,0,400,160,80,80,0,-70,-52,0,1,100,0,840,144,120,64,0,-26,-12,0,0,65,0,0,368,56,24,0,
0,18,-16,-50,0,0,100,0,0,160,40,40,0,-20,-40,0,0,100,0,0,200,40,40,0,-17,-39,0,0,100,0,280,480,40,40,0,-59,-51,0,0,100,0,160,0,80,40,0,-28,-39,0,0,100,0,240,480,40,40,0,-29,-47,0,0,100,0,0,40,40,40,0,-23,-38,0,0,100,0,80,120,40,40,0,-25,-34,0,0,100,0,160,320,40,40,0,-25,-47,0,0,100,0,80,80,40,40,0,-29,-57,0,0,100,0,0,0,40,40,0,-15,-30,0,0,100,0,200,480,40,40,0,-27,-27,0,0,100,0,160,480,40,40,0,-25,-47,0,0,100,0,160,40,40,40,0,-26,-56,1,0,100,0,240,240,40,80,0,-32,-42,1,0,100,0,160,200,80,40,0,-10,-56,0,0,100,0,0,480,40,40,0,-33,-59,1,0,100,0,320,160,80,80,0,-26,-12,0,0,65,0,0,344,56,24,0,
0,19,-30,-40,0,0,100,0,200,80,40,40,0,-30,-80,0,0,100,0,280,0,40,80,0,-29,-51,0,0,100,0,240,80,40,40,0,-19,-50,0,0,100,0,0,40,40,40,0,-10,-48,0,0,100,0,40,160,40,40,0,-12,-40,0,0,100,0,40,200,40,40,0,-30,-46,0,0,100,0,80,160,40,40,0,-20,-40,0,0,100,0,40,120,40,40,0,-20,-50,0,0,100,0,40,80,40,40,0,-20,-60,0,0,100,0,0,0,40,40,0,-12,-34,1,0,100,0,160,320,40,40,0,-25,-34,0,0,100,0,160,320,40,40,0,-9,-31,0,0,100,0,80,240,40,40,0,-31,-31,0,0,100,0,80,280,40,40,0,-31,-56,0,0,100,0,320,320,40,80,0,-10,-54,0,0,100,0,400,320,40,80,0,-40,-48,0,0,100,0,480,208,80,80,0,-12,-43,0,0,100,0,40,440,40,40,0,-26,-12,0,0,65,0,0,344,56,24,0,
0,20,-124,-176,0,1,50,0,0,520,240,200,0,-30,-38,0,0,100,0,200,80,40,40,0,-30,-78,0,0,100,0,280,0,40,80,0,-29,-50,0,0,100,0,240,80,40,40,0,-19,-49,0,0,100,0,0,40,40,40,0,-11,-47,0,0,100,0,40,160,40,40,0,-13,-39,0,0,100,0,40,200,40,40,0,-30,-45,0,0,100,0,80,160,40,40,0,-20,-39,0,0,100,0,40,120,40,40,0,-20,-49,0,0,100,0,40,80,40,40,0,-20,-59,0,0,100,0,0,0,40,40,0,-12,-33,1,0,100,0,160,320,40,40,0,-25,-33,0,0,100,0,160,320,40,40,0,-9,-31,0,0,100,0,80,240,40,40,0,-31,-31,0,0,100,0,80,280,40,40,0,-31,-56,0,0,100,0,320,320,40,80,0,-10,-54,0,0,100,0,400,320,40,80,0,-40,-48,0,0,100,0,480,208,80,80,0,-12,-42,0,0,100,0,40,440,40,40,0,-26,-12,0,0,65,0,0,344,56,24,0,
0,20,-124,-176,0,1,100,0,0,520,240,200,0,-26,-64,0,0,100,0,200,80,40,40,0,-26,-104,0,0,100,0,280,0,40,80,0,-17,-53,0,0,100,0,0,40,40,40,0,-26,-64,0,0,100,0,240,80,40,40,0,-7,-51,0,0,100,0,40,160,40,40,0,-28,-53,0,0,100,0,80,160,40,40,0,-18,-43,0,0,100,0,40,120,40,40,0,-18,-53,0,0,100,0,40,80,40,40,0,-10,-51,0,0,100,0,80,200,40,40,0,-18,-63,0,0,100,0,160,360,40,40,0,-10,-37,1,0,100,0,160,320,40,40,0,-23,-37,0,0,100,0,160,320,40,40,0,-10,-31,0,0,100,0,120,240,40,40,0,-28,-31,0,0,100,0,120,280,40,40,0,-31,-61,0,0,100,0,360,320,40,80,0,-9,-61,0,0,100,0,440,320,40,80,0,-40,-52,0,0,100,0,560,208,80,80,0,-12,-43,0,0,100,0,40,440,40,40,0,-25,-12,0,0,65,0,0,344,56,24,0,
0,21,-84,-176,0,1,100,0,240,520,160,200,0,-26,-67,0,0,100,0,200,80,40,40,0,-26,-107,0,0,100,0,280,0,40,80,0,-26,-67,0,0,100,0,240,80,40,40,0,-17,-55,0,0,100,0,0,40,40,40,0,-7,-53,0,0,100,0,40,160,40,40,0,-8,-53,0,0,100,0,120,200,40,40,0,-28,-56,0,0,100,0,80,160,40,40,0,-18,-44,0,0,100,0,40,120,40,40,0,-18,-55,0,0,100,0,40,80,40,40,0,-18,-65,0,0,100,0,160,360,40,40,0,-10,-38,1,0,100,0,160,320,40,40,0,-23,-38,0,0,100,0,160,320,40,40,0,-10,-31,0,0,100,0,120,240,40,40,0,-27,-31,0,0,100,0,120,280,40,40,0,-30,-61,0,0,100,0,360,320,40,80,0,-10,-61,0,0,100,0,440,320,40,80,0,-40,-52,0,0,100,0,640,208,80,80,0,-14,-43,0,0,100,0,40,440,40,40,0,-46,-136,0,1,100,0,0,800,88,120,0,-25,-12,0,0,65,0,0,344,56,24,0,
0,21,-64,-176,0,1,100,0,400,520,120,200,0,-26,-68,0,0,100,0,200,80,40,40,0,-26,-108,0,0,100,0,280,0,40,80,0,-26,-68,0,0,100,0,240,80,40,40,0,-17,-55,0,0,100,0,0,40,40,40,0,-7,-52,0,0,100,0,40,160,40,40,0,-8,-52,0,0,100,0,120,200,40,40,0,-28,-57,0,0,100,0,80,160,40,40,0,-18,-44,0,0,100,0,40,120,40,40,0,-18,-55,0,0,100,0,40,80,40,40,0,-18,-65,0,0,100,0,160,360,40,40,0,-10,-38,1,0,100,0,160,320,40,40,0,-23,-38,0,0,100,0,160,320,40,40,0,-10,-31,0,0,100,0,120,240,40,40,0,-27,-31,0,0,100,0,120,280,40,40,0,-30,-61,0,0,100,0,360,320,40,80,0,-10,-61,0,0,100,0,440,320,40,80,0,-40,-52,0,0,100,0,640,208,80,80,0,-14,-43,0,0,100,0,40,440,40,40,0,-38,-136,0,1,100,0,88,800,64,120,0,-25,-12,0,0,65,0,0,344,56,24,0,
0,21,-26,-116,0,1,100,0,0,720,40,80,0,-26,-68,0,0,100,0,200,80,40,40,0,-26,-108,0,0,100,0,280,0,40,80,0,-26,-68,0,0,100,0,240,80,40,40,0,-17,-55,0,0,100,0,0,40,40,40,0,-7,-52,0,0,100,0,40,160,40,40,0,-8,-52,0,0,100,0,120,200,40,40,0,-28,-57,0,0,100,0,80,160,40,40,0,-18,-44,0,0,100,0,40,120,40,40,0,-18,-55,0,0,100,0,40,80,40,40,0,-18,-65,0,0,100,0,160,360,40,40,0,-10,-38,1,0,100,0,160,320,40,40,0,-23,-38,0,0,100,0,160,320,40,40,0,-10,-31,0,0,100,0,120,240,40,40,0,-27,-31,0,0,100,0,120,280,40,40,0,-30,-61,0,0,100,0,360,320,40,80,0,-10,-61,0,0,100,0,440,320,40,80,0,-40,-52,0,0,100,0,640,208,80,80,0,-14,-43,0,0,100,0,40,440,40,40,0,-34,-136,0,1,100,0,152,800,64,120,0,-25,-12,0,0,65,0,0,344,56,24,0,
0,21,-41,-116,0,1,100,0,40,720,40,80,0,-34,-62,0,0,100,0,200,80,40,40,0,-41,-102,0,0,100,0,240,0,40,80,0,-32,-64,0,0,100,0,240,80,40,40,0,-20,-52,0,0,100,0,0,40,40,40,0,-10,-49,0,0,100,0,40,160,40,40,0,-10,-49,0,0,100,0,80,200,40,40,0,-32,-53,0,0,100,0,80,160,40,40,0,-21,-42,0,0,100,0,40,120,40,40,0,-21,-52,0,0,100,0,40,80,40,40,0,-21,-62,0,0,100,0,0,0,40,40,0,-13,-36,1,0,100,0,160,320,40,40,0,-26,-36,0,0,100,0,160,320,40,40,0,-10,-31,0,0,100,0,80,240,40,40,0,-30,-31,0,0,100,0,80,280,40,40,0,-29,-57,0,0,100,0,320,320,40,80,0,-8,-55,0,0,100,0,400,320,40,80,0,-38,-49,0,0,100,0,480,208,80,80,0,-7,-49,0,0,100,0,120,440,40,40,0,-50,-136,0,1,100,0,216,800,64,120,0,-26,-12,0,0,65,0,0,344,56,24,0,
0,17,-56,-66,0,1,100,0,80,720,80,40,0,-16,-40,0,0,100,0,0,200,40,40,0,-14,-49,0,0,100,0,120,160,40,40,0,-25,-49,0,0,100,0,0,40,40,40,0,-17,-40,0,0,100,0,80,120,40,40,0,-19,-50,0,0,100,0,80,80,40,40,0,-23,-60,0,0,100,0,200,360,40,40,0,-20,-35,0,0,100,0,160,320,40,40,0,-12,-29,0,0,100,0,160,400,40,40,0,-23,-29,0,0,100,0,160,440,40,40,0,-60,-65,0,0,100,0,160,0,80,40,0,-4,-50,0,0,100,0,0,440,40,40,0,-25,-57,0,0,100,0,320,320,40,80,0,-10,-56,0,0,100,0,400,320,40,80,0,-31,-54,0,0,100,0,720,208,80,80,0,-66,-76,0,1,100,0,280,800,96,64,0,-25,-12,0,0,65,0,0,344,56,24,0,
0,17,-46,-40,0,1,100,0,80,760,80,40,0,-9,-39,0,0,100,0,40,440,40,40,0,2,-50,0,0,100,0,528,288,32,80,0,-16,-37,0,0,100,0,0,200,40,40,0,-12,-46,0,0,100,0,120,160,40,40,0,-20,-45,0,0,100,0,0,40,40,40,0,-13,-37,0,0,100,0,80,120,40,40,0,-13,-46,0,0,100,0,80,80,40,40,0,-18,-56,0,0,100,0,200,360,40,40,0,-16,-32,0,0,100,0,160,320,40,40,0,-47,-53,2,0,100,0,160,0,80,40,0,-3,-29,0,0,100,0,200,400,40,40,0,-22,-29,0,0,100,0,200,440,40,40,0,-13,-58,1,0,100,0,400,320,40,80,0,-15,-48,0,0,100,0,480,288,48,80,0,-56,-52,0,1,100,0,280,864,96,56,0,-21,-12,0,0,65,0,0,344,56,24,0,
0,17,-36,-66,0,1,100,0,160,720,80,80,0,-8,-38,0,0,100,0,80,440,40,40,0,2,-49,0,0,100,0,608,288,32,80,0,-19,-44,0,0,100,0,120,120,40,40,0,-12,-45,0,0,100,0,120,160,40,40,0,-18,-44,0,0,100,0,0,40,40,40,0,-11,-36,0,0,100,0,80,120,40,40,0,-11,-45,0,0,100,0,80,80,40,40,0,-16,-55,0,0,100,0,200,360,40,40,0,-14,-31,0,0,100,0,160,320,40,40,0,-41,-52,2,0,100,0,160,0,80,40,0,-1,-29,0,0,100,0,200,400,40,40,0,-21,-29,0,0,100,0,240,440,40,40,0,-11,-58,1,0,100,0,400,320,40,80,0,-15,-48,0,0,100,0,560,288,48,80,0,-40,-56,0,1,100,0,376,800,96,64,0,-20,-12,0,0,65,0,0,344,56,24,0,
0,17,-36,-66,0,1,100,0,240,720,80,80,0,-7,-38,0,0,100,0,80,440,40,40,0,3,-49,0,0,100,0,608,288,32,80,0,-19,-45,0,0,100,0,120,120,40,40,0,-11,-45,0,0,100,0,120,160,40,40,0,-17,-44,0,0,100,0,0,40,40,40,0,-10,-36,0,0,100,0,80,120,40,40,0,-10,-45,0,0,100,0,80,80,40,40,0,-15,-55,0,0,100,0,200,360,40,40,0,-13,-31,0,0,100,0,160,320,40,40,0,-38,-52,2,0,100,0,160,0,80,40,0,1,-29,0,0,100,0,200,400,40,40,0,-21,-29,0,0,100,0,240,440,40,40,0,-10,-58,1,0,100,0,400,320,40,80,0,-14,-48,0,0,100,0,560,288,48,80,0,-40,-52,0,1,100,0,376,864,96,56,0,-19,-12,0,0,65,0,0,344,56,24,0,
0,19,-42,-96,0,1,100,0,320,400,48,120,0,-56,-66,0,1,100,0,320,720,80,80,0,-17,-45,0,0,100,0,120,120,40,40,0,-12,-46,0,0,100,0,120,160,40,40,0,-20,-45,0,0,100,0,0,40,40,40,0,-15,-37,0,0,100,0,80,120,40,40,0,-15,-46,0,0,100,0,80,80,40,40,0,-20,-56,0,0,100,0,0,0,40,40,0,-18,-32,0,0,100,0,160,320,40,40,0,-51,-56,2,0,100,0,80,320,80,40,0,-8,-29,0,0,100,0,240,400,40,40,0,-21,-29,0,0,100,0,160,440,40,40,0,-24,-57,0,0,100,0,320,320,40,80,0,-9,-56,0,0,100,0,400,320,40,80,0,-2,-50,0,0,100,0,120,440,40,40,0,-30,-54,0,0,100,0,720,208,80,80,0,-54,-66,0,1,100,0,472,800,96,64,0,-56,-76,0,1,100,0,520,520,120,96,0,-21,-12,0,0,65,0,0,344,56,24,0,
0,22,-166,-96,0,1,100,0,0,1080,160,120,0,-16,-96,0,1,100,0,368,400,48,120,0,-86,-66,0,1,100,0,400,720,120,80,0,-45,-49,0,0,100,0,240,360,40,40,0,-90,-48,2,0,100,0,80,320,80,40,0,-36,-49,0,0,100,0,280,360,40,40,0,-28,-45,0,0,100,0,40,40,40,40,0,-17,-45,0,0,100,0,40,160,40,40,0,-17,-45,0,0,100,0,120,200,40,40,0,-38,-44,0,0,100,0,80,160,40,40,0,-25,-36,0,0,100,0,40,120,40,40,0,-27,-46,0,0,100,0,40,80,40,40,0,-28,-56,0,0,100,0,40,400,40,40,0,-17,-31,1,0,100,0,280,320,40,40,0,-30,-31,0,0,100,0,200,320,40,40,0,-17,-29,0,0,100,0,280,400,40,40,0,-35,-29,0,0,100,0,280,440,40,40,0,-29,-45,1,0,100,0,160,160,80,40,0,-9,-55,0,0,100,0,0,480,40,40,0,-25,-58,0,0,100,0,480,368,80,80,0,-126,-76,0,1,100,0,640,520,248,96,0,-29,-12,0,0,65,0,0,344,56,24,0,
0,25,-81,-58,0,1,100,0,464,448,160,72,0,-216,-117,0,1,100,0,0,920,160,160,0,-216,-92,0,1,100,0,0,1080,160,120,0,-166,-96,0,1,100,0,160,1080,160,120,0,-6,-96,0,1,100,0,416,400,48,120,0,-96,-66,0,1,100,0,520,720,120,80,0,-48,-47,0,0,100,0,240,360,40,40,0,-93,-46,2,0,100,0,80,320,80,40,0,-38,-47,0,0,100,0,280,360,40,40,0,-29,-44,0,0,100,0,80,40,40,40,0,-18,-44,0,0,100,0,40,160,40,40,0,-16,-45,0,0,100,0,120,200,40,40,0,-39,-43,0,0,100,0,80,160,40,40,0,-26,-35,0,0,100,0,40,120,40,40,0,-28,-45,0,0,100,0,40,80,40,40,0,-29,-55,0,0,100,0,80,400,40,40,0,-18,-30,1,0,100,0,240,320,40,40,0,-31,-30,0,0,100,0,240,320,40,40,0,-18,-29,0,0,100,0,280,400,40,40,0,-37,-29,0,0,100,0,280,440,40,40,0,-30,-44,1,0,100,0,240,160,80,40,0,-10,-54,0,0,100,0,40,480,40,40,0,-26,-57,0,0,100,0,560,368,80,80,0,-226,-60,0,1,100,0,520,616,328,64,0,-31,-12,0,0,65,0,0,344,56,24,0,
0,27,-118,-54,0,1,100,0,464,448,160,72,0,-81,-58,0,1,100,0,624,448,160,72,0,-284,-113,0,1,100,0,0,920,160,160,0,-216,-117,0,1,100,0,160,920,160,160,0,-256,-102,0,1,100,0,0,1080,160,120,0,-216,-92,0,1,100,0,160,1080,160,120,0,-166,-96,0,1,100,0,320,1080,160,120,0,-96,-66,0,1,100,0,640,720,120,80,0,-49,-47,0,0,100,0,240,360,40,40,0,-94,-46,2,0,100,0,80,320,80,40,0,-39,-47,0,0,100,0,280,360,40,40,0,-29,-44,0,0,100,0,120,40,40,40,0,-18,-44,0,0,100,0,40,160,40,40,0,-16,-46,0,0,100,0,120,200,40,40,0,-39,-43,0,0,100,0,80,160,40,40,0,-26,-35,0,0,100,0,40,120,40,40,0,-28,-45,0,0,100,0,40,80,40,40,0,-29,-55,0,0,100,0,120,400,40,40,0,-18,-30,1,0,100,0,200,320,40,40,0,-31,-30,0,0,100,0,280,320,40,40,0,-18,-29,0,0,100,0,280,400,40,40,0,-37,-29,0,0,100,0,280,440,40,40,0,-30,-44,1,0,100,0,160,200,80,40,0,-10,-54,0,0,100,0,80,480,40,40,0,-26,-57,0,0,100,0,640,368,80,80,0,-286,-46,0,1,100,0,520,680,256,40,0,-31,-12,0,0,65,0,0,344,56,24,0,
0,28,-144,-53,0,1,100,0,464,448,160,72,0,-118,-54,0,1,100,0,624,448,160,72,0,-81,-58,0,1,100,0,784,448,160,72,0,-284,-113,0,1,100,0,160,920,160,160,0,-216,-117,0,1,100,0,320,920,160,160,0,-296,-93,0,1,100,0,0,1080,160,120,0,-256,-102,0,1,100,0,160,1080,160,120,0,-216,-92,0,1,100,0,320,1080,160,120,0,-166,-96,0,1,100,0,480,1080,160,120,0,-49,-47,0,0,100,0,240,360,40,40,0,-94,-46,2,0,100,0,80,320,80,40,0,-39,-47,0,0,100,0,280,360,40,40,0,-29,-44,0,0,100,0,0,40,40,40,0,-18,-44,0,0,100,0,40,160,40,40,0,-16,-46,0,0,100,0,120,200,40,40,0,-39,-43,0,0,100,0,80,160,40,40,0,-26,-35,0,0,100,0,40,120,40,40,0,-28,-45,0,0,100,0,40,80,40,40,0,-29,-55,0,0,100,0,0,400,40,40,0,-18,-30,1,0,100,0,160,320,40,40,0,-31,-30,0,0,100,0,160,320,40,40,0,-18,-29,0,0,100,0,280,400,40,40,0,-37,-29,0,0,100,0,280,440,40,40,0,-30,-44,1,0,100,0,240,200,80,40,0,-10,-54,0,0,100,0,120,480,40,40,0,-26,-57,0,0,100,0,720,368,80,80,0,-296,-46,0,1,100,0,776,680,168,40,0,-31,-12,0,0,65,0,0,344,56,24,0,
0,26,-170,-54,0,1,100,0,464,448,160,72,0,-144,-53,0,1,100,0,624,448,160,72,0,-118,-54,0,1,100,0,784,448,160,72,0,-284,-113,0,1,100,0,320,920,160,160,0,-216,-117,0,1,100,0,480,920,160,160,0,-296,-93,0,1,100,0,160,1080,160,120,0,-256,-102,0,1,100,0,320,1080,160,120,0,-216,-92,0,1,100,0,480,1080,160,120,0,-49,-47,0,0,100,0,240,360,40,40,0,-94,-46,2,0,100,0,80,320,80,40,0,-39,-47,0,0,100,0,280,360,40,40,0,-29,-44,0,0,100,0,40,40,40,40,0,-18,-44,0,0,100,0,40,160,40,40,0,-16,-46,0,0,100,0,120,200,40,40,0,-39,-43,0,0,100,0,80,160,40,40,0,-26,-35,0,0,100,0,40,120,40,40,0,-28,-45,0,0,100,0,40,80,40,40,0,-29,-55,0,0,100,0,40,400,40,40,0,-18,-30,1,0,100,0,280,320,40,40,0,-31,-30,0,0,100,0,200,320,40,40,0,-18,-29,0,0,100,0,280,400,40,40,0,-37,-29,0,0,100,0,280,440,40,40,0,-30,-44,1,0,100,0,160,160,80,40,0,-10,-54,0,0,100,0,0,480,40,40,0,-26,-57,0,0,100,0,480,368,80,80,0,-31,-12,0,0,65,0,0,344,56,24,0,
0,25,-237,-49,0,1,100,0,464,448,160,72,0,-170,-54,0,1,100,0,624,448,160,72,0,-144,-53,0,1,100,0,784,448,160,72,0,-284,-113,0,1,100,0,480,920,160,160,0,-216,-117,0,1,100,0,640,920,160,160,0,-296,-93,0,1,100,0,320,1080,160,120,0,-256,-102,0,1,100,0,480,1080,160,120,0,-49,-47,0,0,100,0,240,360,40,40,0,-94,-46,2,0,100,0,80,320,80,40,0,-39,-47,0,0,100,0,280,360,40,40,0,-29,-44,0,0,100,0,80,40,40,40,0,-18,-44,0,0,100,0,40,160,40,40,0,-16,-46,0,0,100,0,120,200,40,40,0,-39,-43,0,0,100,0,80,160,40,40,0,-26,-35,0,0,100,0,40,120,40,40,0,-28,-45,0,0,100,0,40,80,40,40,0,-29,-55,0,0,100,0,80,400,40,40,0,-18,-30,1,0,100,0,240,320,40,40,0,-31,-30,0,0,100,0,240,320,40,40,0,-18,-29,0,0,100,0,280,400,40,40,0,-37,-29,0,0,100,0,280,440,40,40,0,-30,-44,1,0,100,0,240,160,80,40,0,-10,-54,0,0,100,0,40,480,40,40,0,-26,-57,0,0,100,0,560,368,80,80,0,-31,-12,0,0,65,0,0,344,56,24,0,
0,23,-237,-49,0,1,100,0,624,448,160,72,0,-170,-54,0,1,100,0,784,448,160,72,0,-284,-113,0,1,100,0,640,920,160,160,0,-216,-117,0,1,100,0,800,920,160,160,0,-296,-93,0,1,100,0,480,1080,160,120,0,-49,-47,0,0,100,0,240,360,40,40,0,-94,-46,2,0,100,0,80,320,80,40,0,-39,-47,0,0,100,0,280,360,40,40,0,-29,-44,0,0,100,0,120,40,40,40,0,-18,-44,0,0,100,0,40,160,40,40,0,-16,-46,0,0,100,0,120,200,40,40,0,-39,-43,0,0,100,0,80,160,40,40,0,-26,-35,0,0,100,0,40,120,40,40,0,-28,-45,0,0,100,0,40,80,40,40,0,-29,-55,0,0,100,0,120,400,40,40,0,-18,-30,1,0,100,0,200,320,40,40,0,-31,-30,0,0,100,0,280,320,40,40,0,-18,-29,0,0,100,0,280,400,40,40,0,-37,-29,0,0,100,0,280,440,40,40,0,-30,-44,1,0,100,0,160,200,80,40,0,-10,-54,0,0,100,0,80,480,40,40,0,-26,-57,0,0,100,0,640,368,80,80,0,-31,-12,0,0,65,0,0,344,56,24,0,
0,20,-237,-49,0,1,100,0,784,448,160,72,0,-284,-113,0,1,100,0,800,920,160,160,0,-49,-47,0,0,100,0,240,360,40,40,0,-94,-46,2,0,100,0,80,320,80,40,0,-39,-47,0,0,100,0,280,360,40,40,0,-29,-44,0,0,100,0,0,40,40,40,0,-18,-44,0,0,100,0,40,160,40,40,0,-16,-46,0,0,100,0,120,200,40,40,0,-39,-43,0,0,100,0,80,160,40,40,0,-26,-35,0,0,100,0,40,120,40,40,0,-28,-45,0,0,100,0,40,80,40,40,0,-29,-55,0,0,100,0,0,400,40,40,0,-18,-30,1,0,100,0,160,320,40,40,0,-31,-30,0,0,100,0,160,320,40,40,0,-18,-29,0,0,100,0,280,400,40,40,0,-37,-29,0,0,100,0,280,440,40,40,0,-30,-44,1,0,100,0,240,200,80,40,0,-10,-54,0,0,100,0,120,480,40,40,0,-26,-57,0,0,100,0,720,368,80,80,0,-31,-12,0,0,65,0,0,344,56,24,0,
0,18,-49,-47,0,0,100,0,240,360,40,40,0,-94,-46,2,0,100,0,80,320,80,40,0,-39,-47,0,0,100,0,280,360,40,40,0,-29,-44,0,0,100,0,40,40,40,40,0,-18,-44,0,0,100,0,40,160,40,40,0,-16,-46,0,0,100,0,120,200,40,40,0,-39,-43,0,0,100,0,80,160,40,40,0,-26,-35,0,0,100,0,40,120,40,40,0,-28,-45,0,0,100,0,40,80,40,40,0,-29,-55,0,0,100,0,40,400,40,40,0,-18,-30,1,0,100,0,280,320,40,40,0,-31,-30,0,0,100,0,200,320,40,40,0,-18,-29,0,0,100,0,280,400,40,40,0,-37,-29,0,0,100,0,280,440,40,40,0,-30,-44,1,0,100,0,160,160,80,40,0,-10,-54,0,0,100,0,0,480,40,40,0,-26,-57,0,0,100,0,480,368,80,80,0,-31,-12,0,0,65,0,0,344,56,24,0,
0,19,-48,-46,0,0,100,0,240,360,40,40,0,-93,-45,2,0,100,0,80,320,80,40,0,-38,-46,0,0,100,0,280,360,40,40,0,-29,-44,0,0,100,0,80,40,40,40,0,-18,-44,0,0,100,0,40,160,40,40,0,-17,-45,0,0,100,0,120,200,40,40,0,-39,-43,0,0,100,0,80,160,40,40,0,-26,-35,0,0,100,0,40,120,40,40,0,-28,-45,0,0,100,0,40,80,40,40,0,-29,-55,0,0,100,0,80,400,40,40,0,-18,-30,1,0,100,0,240,320,40,40,0,-31,-30,0,0,100,0,240,320,40,40,0,-18,-29,0,0,100,0,280,400,40,40,0,-37,-29,0,0,100,0,280,440,40,40,0,-32,-58,0,0,100,0,400,320,40,80,0,-13,-61,1,0,100,0,320,320,40,80,0,-10,-54,0,0,100,0,40,480,40,40,0,-26,-57,0,0,100,0,560,368,80,80,0,-31,-12,0,0,65,0,0,344,56,24,0,
0,19,-43,-46,0,0,100,0,240,360,40,40,0,-88,-45,2,0,100,0,80,320,80,40,0,-35,-46,0,0,100,0,280,360,40,40,0,-28,-46,0,0,100,0,120,40,40,40,0,-18,-45,0,0,100,0,40,160,40,40,0,-18,-46,0,0,100,0,80,200,40,40,0,-38,-44,0,0,100,0,80,160,40,40,0,-26,-36,0,0,100,0,40,120,40,40,0,-28,-46,0,0,100,0,40,80,40,40,0,-28,-57,0,0,100,0,120,400,40,40,0,-18,-31,1,0,100,0,200,320,40,40,0,-31,-31,0,0,100,0,280,320,40,40,0,-19,-29,0,0,100,0,280,400,40,40,0,-36,-29,0,0,100,0,280,440,40,40,0,-10,-48,0,0,100,0,0,440,40,40,0,-40,-56,0,0,100,0,320,320,40,80,0,-17,-55,0,0,100,0,400,320,40,80,0,-34,-54,1,0,100,0,320,160,80,80,0,-30,-12,0,0,65,0,0,344,56,24,0,
0,24,10,-26,0,0,50,0,360,280,40,40,0,0,-65,0,0,50,0,320,280,40,40,0,-71,-35,0,0,50,0,400,240,40,40,0,-70,-64,0,0,50,0,360,240,40,40,0,-60,-76,0,0,50,0,320,240,40,40,0,-60,-46,0,1,30,0,840,80,120,64,0,-15,-43,0,0,100,0,0,200,40,40,0,-14,-53,0,0,100,0,0,160,40,40,0,-55,-53,0,0,100,0,160,0,80,40,0,-72,-81,0,1,30,0,560,0,80,80,0,-22,-53,0,0,100,0,120,40,40,40,0,-22,-43,0,0,100,0,0,120,40,40,0,-22,-53,0,0,100,0,0,80,40,40,0,-22,-63,0,0,100,0,120,0,40,40,0,-30,-33,0,0,100,0,0,240,40,40,0,-32,-33,0,0,100,0,40,280,40,40,0,-22,-53,0,0,100,0,160,40,40,40,0,-30,-43,0,0,100,0,160,80,40,40,0,-22,-53,0,0,100,0,280,240,40,80,0,-62,-43,0,0,100,0,240,200,80,40,0,-52,-53,0,0,100,0,400,160,80,80,0,-40,-54,2,0,100,0,280,120,40,40,0,-70,-52,0,1,30,0,840,144,120,64,0,-29,-12,0,0,65,0,0,368,56,24,0,
0,15,-21,-63,0,0,100,0,0,0,40,40,0,-10,-52,0,0,100,0,40,160,40,40,0,-9,-51,0,0,100,0,80,200,40,40,0,-29,-52,1,0,100,0,40,160,40,40,0,-20,-42,0,0,100,0,40,120,40,40,0,-24,-36,0,0,100,0,160,320,40,40,0,-13,-36,1,0,100,0,160,320,40,40,0,-21,-52,0,0,100,0,40,80,40,40,0,-10,-31,0,0,100,0,80,240,40,40,0,-30,-31,0,0,100,0,80,280,40,40,0,-61,-36,0,0,100,0,891,382,69,40,0,-7,-49,0,0,100,0,120,440,40,40,0,-49,-51,0,0,100,0,169,197,57,40,0,-58,-63,1,0,100,0,560,368,80,80,0,-26,-12,0,0,65,0,0,344,56,24,0,
0,16,-26,-59,0,0,100,0,210,80,21,25,0,-30,-69,0,0,100,180,287,0,33,81,0,-21,-63,0,0,100,0,0,0,40,40,0,-10,-52,0,0,100,0,40,160,40,40,0,-9,-51,0,0,100,0,80,200,40,40,0,-29,-52,1,0,100,0,40,160,40,40,0,-20,-42,0,0,100,0,40,120,40,40,0,-24,-36,0,0,100,0,160,320,40,40,0,-13,-36,1,0,100,0,160,320,40,40,0,-21,-52,0,0,100,0,40,80,40,40,0,-10,-31,0,0,100,0,80,240,40,40,0,-30,-31,0,0,100,0,80,280,40,40,0,-7,-49,0,0,100,0,120,440,40,40,0,-49,-51,0,0,100,0,169,197,57,40,0,-58,-63,1,0,100,0,560,368,80,80,0,-26,-12,0,0,65,0,0,344,56,24,0,
0,18,-19,-61,0,0,100,90,131,212,31,23,0,-18,-65,0,0,100,90,92,328,73,18,0,-19,-45,0,0,100,-90,130,164,18,30,0,-18,-43,0,0,100,0,40,120,40,40,0,-23,-39,0,0,100,0,160,320,40,40,0,-12,-40,1,0,100,0,160,320,40,40,0,-19,-53,0,0,100,0,40,80,40,40,0,-10,-66,0,0,100,0,871,4,26,36,0,-14,-30,0,0,100,0,654,37,25,39,0,-3,-25,0,0,100,0,682,43,24,34,0,-3,-27,1,0,100,0,4,213,33,16,0,-7,-46,0,0,100,0,46,166,30,25,0,-6,-39,0,0,100,-90,704,55,17,24,0,-8,-55,1,0,100,0,172,157,54,40,0,-37,-53,1,0,100,0,410,326,38,60,0,-32,-59,1,0,100,0,400,160,80,80,0,-31,-58,1,0,100,0,45,482,35,30,0,-26,-12,0,0,65,0,0,344,56,24,0,
0,20,-19,-65,0,0,100,90,131,212,31,23,0,-18,-69,0,0,100,90,92,328,73,18,0,-19,-46,0,0,100,-90,130,164,18,30,0,-16,-70,0,0,100,0,827,0,38,46,0,-18,-44,0,0,100,0,40,120,40,40,0,-23,-37,0,0,100,0,160,320,40,40,0,-12,-38,1,0,100,0,160,320,40,40,0,-19,-54,0,0,100,0,40,80,40,40,0,-3,-28,1,0,100,0,4,213,33,16,0,-7,-47,0,0,100,0,46,166,30,25,0,-6,-40,0,0,100,-90,704,55,17,24,0,-14,-2,0,0,100,0,654,65,18,6,0,7,-3,0,0,100,0,692,65,13,6,0,-14,-31,0,0,100,0,654,37,25,39,0,-3,-26,0,0,100,0,682,43,24,34,0,-4,-44,1,0,100,0,245,156,54,40,0,-33,-51,1,0,100,0,408,327,38,60,0,-37,-54,1,0,100,0,321,85,80,80,0,-29,-45,1,0,100,0,120,452,37,22,0,-26,-12,0,0,65,0,0,344,56,24,0,
0,18,-19,-59,0,0,100,90,131,212,31,23,0,-18,-59,0,0,100,90,101,328,64,18,0,-19,-44,0,0,100,-90,130,164,18,30,0,-10,-65,0,0,100,0,871,4,26,36,0,-18,-42,0,0,100,0,40,120,40,40,0,-23,-35,0,0,100,0,160,320,40,40,0,-12,-36,1,0,100,0,160,320,40,40,0,-19,-52,0,0,100,0,40,80,40,40,0,-3,-26,1,0,100,0,4,213,33,16,0,-7,-45,0,0,100,0,46,166,30,25,0,-6,-38,0,0,100,-90,704,55,17,24,0,-14,-30,0,0,100,0,654,37,25,39,0,-3,-25,0,0,100,0,682,43,24,34,0,-11,-48,0,0,100,0,402,331,46,54,0,-29,-57,1,0,100,0,438,325,39,67,0,-34,-45,1,0,100,0,480,214,80,80,0,-31,-56,1,0,100,0,45,482,35,30,0,-26,-12,0,0,65,0,0,344,56,24,0,
0,18,-19,-59,0,0,100,90,131,212,31,23,0,-18,-59,0,0,100,90,101,328,64,18,0,-19,-45,0,0,100,-90,130,164,18,30,0,-16,-69,0,0,100,0,827,0,38,46,0,-18,-43,0,0,100,0,40,120,40,40,0,-23,-36,0,0,100,0,160,320,40,40,0,-12,-37,1,0,100,0,160,320,40,40,0,-19,-53,0,0,100,0,40,80,40,40,0,-3,-27,1,0,100,0,4,213,33,16,0,-7,-46,0,0,100,0,46,166,30,25,0,-6,-39,0,0,100,-90,704,55,17,24,0,-14,-30,0,0,100,0,654,37,25,39,0,-3,-25,0,0,100,0,682,43,24,34,0,-2,-49,1,0,100,0,311,329,46,54,0,-27,-57,1,0,100,0,438,325,39,67,0,-38,-58,1,0,100,0,561,203,80,80,0,-31,-57,1,0,100,0,45,482,35,30,0,-26,-12,0,0,65,0,0,344,56,24,0,
0,18,1,-47,0,0,100,0,723,33,21,25,0,-19,-59,0,0,100,90,131,212,31,23,0,-18,-59,0,0,100,90,101,328,64,18,0,-19,-45,0,0,100,-90,130,164,18,30,0,-16,-69,0,0,100,0,827,0,38,46,0,-18,-43,0,0,100,0,40,120,40,40,0,-23,-36,0,0,100,0,160,320,40,40,0,-12,-37,1,0,100,0,160,320,40,40,0,-19,-53,0,0,100,0,40,80,40,40,0,-7,-46,0,0,100,0,46,166,30,25,0,-6,-39,0,0,100,-90,704,55,17,24,0,-14,-30,0,0,100,0,654,37,25,39,0,-3,-25,0,0,100,0,682,43,24,34,0,-2,-49,1,0,100,0,311,329,46,54,0,-27,-57,1,0,100,0,438,325,39,67,0,-38,-58,1,0,100,0,561,203,80,80,0,-31,-57,1,0,100,0,45,482,35,30,0,-26,-12,0,0,65,0,0,344,56,24,0,
0,21,-19,-60,0,0,100,90,131,212,31,23,0,-18,-60,0,0,100,90,101,328,64,18,0,-19,-46,0,0,100,-90,130,164,18,30,0,-22,-69,0,0,100,0,784,0,42,44,0,-18,-44,0,0,100,0,40,120,40,40,0,-23,-37,0,0,100,0,160,320,40,40,0,-12,-38,1,0,100,0,160,320,40,40,0,7,-58,0,0,100,0,705,37,18,19,0,-19,-54,0,0,100,0,40,80,40,40,0,-6,-57,0,0,100,90,44,163,34,28,0,-14,-2,0,0,100,0,654,65,18,6,0,7,-3,0,0,100,0,692,65,13,6,0,-14,-31,0,0,100,0,654,37,25,39,0,4,-52,0,0,100,0,704,55,17,24,0,-3,-26,0,0,100,0,682,43,24,34,0,-3,-49,1,0,100,0,311,329,46,54,0,-26,-57,1,0,100,0,438,325,39,67,0,-3,-58,1,0,100,0,561,203,45,80,0,-37,-58,1,0,100,0,604,203,37,80,0,-29,-45,1,0,100,0,120,452,37,22,0,-26,-12,0,0,65,0,0,344,56,24,0,
0,18,-19,-59,0,0,100,90,131,212,31,23,0,-18,-59,0,0,100,90,101,328,64,18,0,-19,-45,0,0,100,-90,130,164,18,30,0,-22,-68,0,0,100,0,784,0,42,44,0,-18,-43,0,0,100,0,40,120,40,40,0,-23,-36,0,0,100,0,160,320,40,40,0,-12,-37,1,0,100,0,160,320,40,40,0,5,-44,0,0,100,0,705,37,18,19,0,-19,-53,0,0,100,0,40,80,40,40,0,-14,-30,0,0,100,0,654,37,25,39,0,-7,-46,0,0,100,0,46,166,30,25,0,-4,-40,0,0,100,-90,704,55,17,24,0,-3,-25,0,0,100,0,682,43,24,34,0,-2,-49,1,0,100,0,311,329,46,54,0,-27,-57,1,0,100,0,438,325,39,67,0,-38,-58,1,0,100,0,561,203,80,80,0,-29,-44,1,0,100,0,120,452,37,22,0,-26,-12,0,0,65,0,0,344,56,24,0,
0,18,-19,-59,0,0,100,90,131,212,31,23,0,1,-41,0,0,100,0,723,39,20,18,0,-18,-59,0,0,100,90,101,328,64,18,0,-19,-45,0,0,100,-90,130,164,18,30,0,-10,-66,0,0,100,0,871,4,26,36,0,-18,-43,0,0,100,0,40,120,40,40,0,-23,-36,0,0,100,0,160,320,40,40,0,-12,-37,1,0,100,0,160,320,40,40,0,-19,-53,0,0,100,0,40,80,40,40,0,-14,-30,0,0,100,0,654,37,25,39,0,-3,-25,0,0,100,0,682,43,24,34,0,-3,-53,0,0,100,0,129,164,41,35,0,-4,-40,0,0,100,-90,704,55,17,24,0,-2,-49,1,0,100,0,311,329,46,54,0,-27,-57,1,0,100,0,438,325,39,67,0,-38,-58,1,0,100,0,561,203,80,80,0,-31,-58,1,0,100,0,45,482,35,30,0,-26,-12,0,0,65,0,0,344,56,24,0,
0,18,-19,-59,0,0,100,90,131,212,31,23,0,1,-41,0,0,100,0,723,39,20,18,0,-18,-59,0,0,100,90,101,328,64,18,0,-19,-45,0,0,100,-90,130,164,18,30,0,-16,-69,0,0,100,0,827,0,38,46,0,-18,-43,0,0,100,0,40,120,40,40,0,-23,-36,0,0,100,0,160,320,40,40,0,-12,-37,1,0,100,0,160,320,40,40,0,-19,-53,0,0,100,0,40,80,40,40,0,-14,-30,0,0,100,0,654,37,25,39,0,-3,-25,0,0,100,0,682,43,24,34,0,-3,-53,0,0,100,0,129,164,41,35,0,-4,-40,0,0,100,-90,704,55,17,24,0,-2,-49,1,0,100,0,311,329,46,54,0,-27,-57,1,0,100,0,438,325,39,67,0,-38,-58,1,0,100,0,561,203,80,80,0,-28,-46,1,0,100,0,120,452,37,22,0,-26,-12,0,0,65,0,0,344,56,24,0,
0,19,11,-27,0,0,100,0,836,42,34,30,0,-19,-59,0,0,100,90,131,212,31,23,0,-18,-59,0,0,100,90,101,328,64,18,0,-19,-45,0,0,100,-90,130,164,18,30,0,1,-41,0,0,100,0,723,39,20,18,0,-16,-69,0,0,100,0,827,0,38,46,0,-18,-43,0,0,100,0,40,120,40,40,0,-23,-36,0,0,100,0,160,320,40,40,0,-12,-37,1,0,100,0,160,320,40,40,0,-19,-53,0,0,100,0,40,80,40,40,0,-14,-30,0,0,100,0,654,37,25,39,0,-3,-53,0,0,100,0,129,164,41,35,0,-4,-40,0,0,100,-90,704,55,17,24,0,-3,-25,0,0,100,0,682,43,24,34,0,-2,-49,1,0,100,0,311,329,46,54,0,-27,-57,1,0,100,0,438,325,39,67,0,-38,-58,1,0,100,0,561,203,80,80,0,-28,-46,1,0,100,0,120,452,37,22,0,-26,-12,0,0,65,0,0,344,56,24,0,
0,20,4,-21,0,0,100,0,699,4,34,35,0,-41,-44,0,0,100,180,236,20,48,49,0,-17,-43,1,0,100,90,8,213,23,14,0,-21,-43,0,0,100,-90,130,164,18,30,0,-23,-42,1,0,100,90,702,52,25,21,0,-19,-70,0,0,100,0,865,0,38,46,0,1,-41,0,0,100,0,723,39,20,18,0,-20,-43,0,0,100,0,40,120,40,40,0,-25,-37,0,0,100,0,160,320,40,40,0,-13,-37,1,0,100,0,160,320,40,40,0,-21,-53,0,0,100,0,40,80,40,40,0,-18,-30,0,0,100,0,654,37,25,39,0,-8,-46,0,0,100,0,46,166,30,25,0,-4,-40,0,0,100,-90,704,55,17,24,0,-6,-25,1,0,100,0,86,286,28,33,0,-37,-63,1,0,100,0,42,479,40,35,0,-4,-55,0,0,100,0,407,326,37,62,0,-35,-43,1,0,100,0,403,335,41,52,0,-39,-50,1,0,100,0,482,208,78,80,0,-26,-12,0,0,65,0,0,344,56,24,0,
0,20,3,-24,0,0,100,0,748,0,39,44,0,-65,-34,3,0,100,0,171,1,61,42,0,-18,-43,1,0,100,90,8,213,23,14,0,-22,-43,0,0,100,-90,130,164,18,30,0,-24,-42,1,0,100,90,702,52,25,21,0,-20,-70,0,0,100,0,865,0,38,46,0,3,-42,0,0,100,0,723,39,20,18,0,-21,-43,0,0,100,0,40,120,40,40,0,-27,-37,0,0,100,0,160,320,40,40,0,-13,-37,1,0,100,0,160,320,40,40,0,-23,-53,0,0,100,0,40,80,40,40,0,-20,-30,0,0,100,0,654,37,25,39,0,-6,-46,0,0,100,0,46,166,30,25,0,-4,-40,0,0,100,-90,704,55,17,24,0,-6,-25,1,0,100,0,86,286,28,33,0,-5,-55,0,0,100,0,407,326,37,62,0,-37,-43,1,0,100,0,403,335,41,52,0,-41,-50,1,0,100,0,482,208,78,80,0,-31,-55,1,0,100,0,0,483,35,30,0,-27,-12,0,0,65,0,0,344,56,24,0,
0,20,3,-24,0,0,100,0,748,0,39,44,0,-81,-4,1,0,100,0,90,330,73,16,0,-18,-43,1,0,100,90,8,213,23,14,0,-22,-43,0,0,100,-90,130,164,18,30,0,-24,-42,1,0,100,90,702,52,25,21,0,3,-42,0,0,100,0,723,39,20,18,0,-20,-69,0,0,100,0,827,0,38,46,0,-21,-43,0,0,100,0,40,120,40,40,0,-27,-37,0,0,100,0,160,320,40,40,0,-13,-37,1,0,100,0,160,320,40,40,0,-23,-53,0,0,100,0,40,80,40,40,0,-20,-30,0,0,100,0,654,37,25,39,0,-6,-46,0,0,100,0,46,166,30,25,0,-4,-40,0,0,100,-90,704,55,17,24,0,-6,-25,1,0,100,0,86,286,28,33,0,-5,-55,0,0,100,0,407,326,37,62,0,-37,-43,1,0,100,0,403,335,41,52,0,-41,-50,1,0,100,0,482,208,78,80,0,-32,-46,1,0,100,0,120,452,37,22,0,-27,-12,0,0,65,0,0,344,56,24,0,
0,20,3,-24,0,0,100,0,748,0,39,44,0,-83,-6,1,0,100,0,90,330,73,16,0,-18,-43,1,0,100,90,8,213,23,14,0,-22,-43,0,0,100,-90,130,164,18,30,0,-24,-42,1,0,100,90,702,52,25,21,0,3,-42,0,0,100,0,723,39,20,18,0,-20,-69,0,0,100,0,827,0,38,46,0,-21,-43,0,0,100,0,40,120,40,40,0,-27,-37,0,0,100,0,160,320,40,40,0,-13,-37,1,0,100,0,160,320,40,40,0,-23,-53,0,0,100,0,40,80,40,40,0,-20,-30,0,0,100,0,654,37,25,39,0,-6,-46,0,0,100,0,46,166,30,25,0,-4,-40,0,0,100,-90,704,55,17,24,0,-6,-25,1,0,100,0,86,286,28,33,0,-5,-55,0,0,100,0,407,326,37,62,0,-37,-43,1,0,100,0,403,335,41,52,0,-41,-50,1,0,100,0,482,208,78,80,0,-32,-46,1,0,100,0,120,452,37,22,0,-27,-12,0,0,65,0,0,344,56,24,0,
0,20,3,-24,0,0,100,0,748,0,39,44,0,-87,-4,1,0,100,0,90,330,73,16,0,-18,-43,1,0,100,90,8,213,23,14,0,-22,-43,0,0,100,-90,130,164,18,30,0,-24,-42,1,0,100,90,702,52,25,21,0,3,-42,0,0,100,0,723,39,20,18,0,-21,-43,0,0,100,0,40,120,40,40,0,-27,-37,0,0,100,0,160,320,40,40,0,-13,-37,1,0,100,0,160,320,40,40,0,-23,-53,0,0,100,0,40,80,40,40,0,-20,-69,0,0,100,0,827,0,38,46,0,-20,-30,0,0,100,0,654,37,25,39,0,-6,-46,0,0,100,0,46,166,30,25,0,-4,-40,0,0,100,-90,704,55,17,24,0,-6,-25,1,0,100,0,86,286,28,33,0,-32,-46,1,0,100,0,120,452,37,22,0,-5,-55,0,0,100,0,407,326,37,62,0,-37,-43,1,0,100,0,403,335,41,52,0,-41,-50,1,0,100,0,482,208,78,80,0,-27,-12,0,0,65,0,0,344,56,24,0,
0,21,-19,-60,0,0,100,90,131,212,31,23,0,-18,-60,0,0,100,90,101,328,64,18,0,-19,-46,0,0,100,-90,130,164,18,30,0,-22,-69,0,0,100,0,784,0,42,44,0,-18,-44,0,0,100,0,40,120,40,40,0,-23,-37,0,0,100,0,160,320,40,40,0,-12,-38,1,0,100,0,160,320,40,40,0,8,-59,0,0,100,0,705,37,18,19,0,-19,-54,0,0,100,0,40,80,40,40,0,-5,-58,0,0,100,90,44,163,34,28,0,-14,-2,0,0,100,0,654,65,18,6,0,7,-3,0,0,100,0,692,65,13,6,0,-14,-31,0,0,100,0,654,37,25,39,0,5,-53,0,0,100,0,704,55,17,24,0,-3,-26,0,0,100,0,682,43,24,34,0,-3,-49,1,0,100,0,311,329,46,54,0,-26,-57,1,0,100,0,438,325,39,67,0,-3,-58,1,0,100,0,561,203,45,80,0,-37,-58,1,0,100,0,604,203,37,80,0,-29,-45,1,0,100,0,120,452,37,22,0,-26,-12,0,0,65,0,0,344,56,24,0,
0,18,-19,-59,0,0,100,90,131,212,31,23,0,-18,-59,0,0,100,90,101,328,64,18,0,-19,-45,0,0,100,-90,130,164,18,30,0,-22,-68,0,0,100,0,784,0,42,44,0,-18,-43,0,0,100,0,40,120,40,40,0,-23,-36,0,0,100,0,160,320,40,40,0,-12,-37,1,0,100,0,160,320,40,40,0,5,-43,0,0,100,0,705,37,18,19,0,-19,-53,0,0,100,0,40,80,40,40,0,-14,-30,0,0,100,0,654,37,25,39,0,-7,-46,0,0,100,0,46,166,30,25,0,-4,-39,0,0,100,-90,704,55,17,24,0,-3,-25,0,0,100,0,682,43,24,34,0,-2,-49,1,0,100,0,311,329,46,54,0,-27,-57,1,0,100,0,438,325,39,67,0,-38,-58,1,0,100,0,561,203,80,80,0,-29,-44,1,0,100,0,120,452,37,22,0,-26,-12,0,0,65,0,0,344,56,24,0,
0,19,24,-29,0,0,50,0,652,10,34,30,0,-19,-59,0,0,100,90,131,212,31,23,0,1,-41,0,0,100,0,723,39,20,18,0,-18,-59,0,0,100,90,101,328,64,18,0,-19,-45,0,0,100,-90,130,164,18,30,0,-16,-69,0,0,100,0,827,0,38,46,0,-18,-43,0,0,100,0,40,120,40,40,0,-23,-36,0,0,100,0,160,320,40,40,0,-12,-37,1,0,100,0,160,320,40,40,0,-19,-53,0,0,100,0,40,80,40,40,0,-14,-30,0,0,100,0,654,37,25,39,0,-3,-25,0,0,100,0,682,43,24,34,0,-3,-53,0,0,100,0,129,164,41,35,0,-4,-40,0,0,100,-90,704,55,17,24,0,-2,-49,1,0,100,0,311,329,46,54,0,-27,-57,1,0,100,0,438,325,39,67,0,-38,-58,1,0,100,0,561,203,80,80,0,-28,-46,1,0,100,0,120,452,37,22,0,-26,-12,0,0,65,0,0,344,56,24,0,
0,19,18,-33,0,0,100,0,652,10,34,30,0,-19,-59,0,0,100,90,131,212,31,23,0,1,-41,0,0,100,0,723,39,20,18,0,-18,-59,0,0,100,90,101,328,64,18,0,-19,-45,0,0,100,-90,130,164,18,30,0,-16,-69,0,0,100,0,827,0,38,46,0,-18,-43,0,0,100,0,40,120,40,40,0,-23,-36,0,0,100,0,160,320,40,40,0,-12,-37,1,0,100,0,160,320,40,40,0,-19,-53,0,0,100,0,40,80,40,40,0,-14,-30,0,0,100,0,654,37,25,39,0,-3,-25,0,0,100,0,682,43,24,34,0,-3,-53,0,0,100,0,129,164,41,35,0,-4,-40,0,0,100,-90,704,55,17,24,0,-2,-49,1,0,100,0,311,329,46,54,0,-27,-57,1,0,100,0,438,325,39,67,0,-38,-58,1,0,100,0,561,203,80,80,0,-28,-46,1,0,100,0,120,452,37,22,0,-26,-12,0,0,65,0,0,344,56,24,0,
0,20,3,-16,0,0,100,0,876,40,28,32,0,-87,-4,1,0,100,0,90,330,73,16,0,-18,-43,1,0,100,90,8,213,23,14,0,-22,-43,0,0,100,-90,130,164,18,30,0,-24,-42,1,0,100,90,702,52,25,21,0,3,-42,0,0,100,0,723,39,20,18,0,-21,-43,0,0,100,0,40,120,40,40,0,-27,-37,0,0,100,0,160,320,40,40,0,-13,-37,1,0,100,0,160,320,40,40,0,-23,-53,0,0,100,0,40,80,40,40,0,-20,-69,0,0,100,0,827,0,38,46,0,-20,-30,0,0,100,0,654,37,25,39,0,-6,-46,0,0,100,0,46,166,30,25,0,-4,-40,0,0,100,-90,704,55,17,24,0,-6,-25,1,0,100,0,86,286,28,33,0,-32,-46,1,0,100,0,120,452,37,22,0,-5,-55,0,0,100,0,407,326,37,62,0,-37,-43,1,0,100,0,403,335,41,52,0,-41,-50,1,0,100,0,482,208,78,80,0,-27,-12,0,0,65,0,0,344,56,24,0,
0,20,3,-24,0,0,100,0,748,0,39,44,0,-87,-4,1,0,100,0,90,330,73,16,0,-18,-43,1,0,100,90,8,213,23,14,0,-22,-43,0,0,100,-90,130,164,18,30,0,-24,-42,1,0,100,90,702,52,25,21,0,3,-42,0,0,100,0,723,39,20,18,0,-21,-43,0,0,100,0,40,120,40,40,0,-27,-37,0,0,100,0,160,320,40,40,0,-13,-37,1,0,100,0,160,320,40,40,0,-23,-53,0,0,100,0,40,80,40,40,0,-20,-69,0,0,100,0,827,0,38,46,0,-20,-30,0,0,100,0,654,37,25,39,0,-6,-46,0,0,100,0,46,166,30,25,0,-4,-40,0,0,100,-90,704,55,17,24,0,-6,-25,1,0,100,0,86,286,28,33,0,-32,-46,1,0,100,0,120,452,37,22,0,-5,-55,0,0,100,0,407,326,37,62,0,-37,-43,1,0,100,0,403,335,41,52,0,-41,-50,1,0,100,0,482,208,78,80,0,-27,-12,0,0,65,0,0,344,56,24,0,
