0,5,-52,-53,0,1,100,0,800,384,120,72,0,-18,-41,0,0,100,0,0,240,40,32,0,-61,-52,0,0,100,0,0,176,120,64,0,-37,-73,0,0,100,0,0,0,80,88,0,-27,-8,0,0,65,0,0,379,58,18,0,
0,6,-52,-53,0,1,100,0,920,384,120,72,0,-58,-40,0,1,50,0,328,0,56,56,0,-18,-40,0,0,100,0,40,240,40,32,0,-61,-52,0,0,100,0,0,176,120,64,0,-37,-73,0,0,100,0,80,0,80,88,0,-27,-8,0,0,65,0,0,379,58,18,0,
0,6,-52,-53,0,1,100,0,800,456,120,72,0,-57,-39,0,1,100,0,328,0,56,56,0,-17,-40,0,0,100,0,0,240,40,32,0,-60,-51,0,0,100,0,0,176,120,64,0,-37,-73,0,0,100,0,0,88,80,88,0,-27,-8,0,0,65,0,0,379,58,18,0,
0,6,-52,-53,0,1,100,0,920,456,120,72,0,-57,-40,0,1,50,0,328,0,56,56,0,-17,-41,0,0,100,0,0,240,40,32,0,-60,-52,0,0,100,0,0,176,120,64,0,-37,-73,0,0,100,0,80,88,80,88,0,-27,-8,0,0,65,0,0,379,58,18,0,
0,9,-40,-75,0,0,100,0,369,95,95,72,0,-41,-71,0,0,100,0,1,587,103,88,0,-11,-45,0,0,100,0,344,512,32,24,0,-24,-63,0,0,100,0,312,200,48,40,0,-33,-94,0,0,100,0,260,240,74,92,0,-27,-52,0,0,100,0,312,624,56,56,0,-10,-52,0,0,100,0,345,592,31,32,0,-32,-40,1,0,100,0,0,675,37,34,0,-29,-9,0,0,65,0,0,379,58,18,0,
0,9,-36,-85,0,0,100,0,592,0,96,80,0,-40,-71,0,0,100,0,104,587,103,88,0,-11,-45,0,0,100,0,376,512,32,24,0,-22,-63,0,0,100,0,312,200,48,40,0,-31,-95,0,0,100,0,260,240,74,92,0,-27,-52,0,0,100,0,368,624,56,56,0,-11,-54,0,0,100,0,345,592,31,32,0,-30,-35,1,0,100,0,106,675,32,31,0,-29,-9,0,0,65,0,0,379,58,18,0,
0,9,-33,-83,0,0,100,0,688,0,56,40,0,-40,-77,0,0,100,0,208,587,103,88,0,-21,-55,0,0,100,0,408,512,32,32,0,-28,-75,1,0,100,-90,260,240,74,92,0,-27,-69,0,0,100,0,1120,88,48,48,0,-27,-52,0,0,100,0,424,624,56,56,0,-10,-52,0,0,100,0,345,592,31,32,0,-22,-49,0,0,100,0,152,752,40,40,0,-29,-9,0,0,65,0,0,379,58,18,0,
0,7,-7,-86,0,0,100,0,688,40,72,64,0,-20,-61,0,0,100,0,440,512,24,40,0,-61,-105,1,0,100,0,207,0,115,95,0,-27,-70,0,0,100,0,1120,88,48,48,0,-27,-52,0,0,100,0,480,624,56,56,0,-9,-50,1,0,100,0,112,712,40,40,0,-29,-9,0,0,65,0,0,379,58,18,0,
0,9,-105,-76,0,0,100,0,272,96,96,80,0,-86,-86,0,0,100,0,464,88,144,96,0,-21,-46,0,0,100,0,464,512,24,40,0,-76,-59,1,0,100,180,207,0,115,95,0,-28,-62,0,0,100,0,312,200,48,40,0,-28,-54,0,0,100,0,536,624,56,56,0,-11,-53,0,0,100,0,408,592,32,24,0,-10,-48,0,0,100,0,0,675,37,34,0,-29,-9,0,0,65,0,0,379,58,18,0,
0,9,-106,-74,0,0,100,0,536,392,120,88,0,-85,-97,0,0,100,0,608,104,112,120,0,-21,-45,0,0,100,0,488,512,32,40,0,-61,-58,2,0,100,0,0,712,112,88,0,-30,-62,0,0,100,0,312,200,48,40,0,-28,-54,0,0,100,0,592,624,56,56,0,-13,-54,0,0,100,0,408,592,32,24,0,-7,-40,0,0,100,0,106,675,32,32,0,-29,-9,0,0,65,0,0,379,58,18,0,
0,10,-89,-79,0,0,100,0,536,480,120,88,0,-106,-73,0,0,30,0,536,392,120,88,0,-52,-89,0,0,100,0,480,184,128,104,0,-39,-46,0,0,100,0,112,712,40,40,0,-28,-51,0,0,100,0,648,639,56,56,0,-28,-59,0,0,100,0,264,176,48,32,0,-28,-52,0,0,100,0,344,552,32,40,0,-12,-58,0,0,100,0,440,592,32,32,0,-50,-98,2,0,100,180,0,712,112,88,0,-29,-9,0,0,65,0,0,379,58,18,0,
0,8,-50,-103,0,0,100,0,608,224,120,104,0,-38,-46,0,0,100,0,152,712,40,40,0,-28,-50,0,0,100,0,704,639,56,56,0,-28,-58,0,0,100,0,312,176,48,32,0,-28,-51,0,0,100,0,344,552,32,40,0,-18,-57,0,0,100,0,472,592,32,32,0,-47,-113,0,0,100,-90,207,0,115,95,0,-29,-9,0,0,65,0,0,379,58,18,0,
0,9,-105,-75,0,0,100,0,272,96,96,80,0,-86,-85,0,0,100,0,464,88,144,96,0,-18,-44,0,0,100,0,464,512,24,40,0,-73,-58,1,0,100,180,207,0,115,95,0,-27,-62,0,0,100,0,312,200,48,40,0,-28,-51,0,0,100,0,256,695,56,56,0,-9,-52,0,0,100,0,408,592,32,24,0,-8,-44,0,0,100,0,0,675,37,34,0,-29,-9,0,0,65,0,0,379,58,18,0,
0,9,-106,-73,0,0,100,0,536,392,120,88,0,-85,-96,0,0,100,0,608,104,112,120,0,-18,-44,0,0,100,0,488,512,32,40,0,-58,-58,2,0,100,0,0,712,112,88,0,-26,-61,0,0,100,0,312,200,48,40,0,-28,-51,0,0,100,0,312,695,56,56,0,-11,-52,0,0,100,0,408,592,32,24,0,-9,-39,0,0,100,0,74,676,32,31,0,-29,-9,0,0,65,0,0,379,58,18,0,
0,10,-89,-79,0,0,100,0,536,480,120,88,0,-106,-73,0,0,30,0,536,392,120,88,0,-52,-97,0,0,100,0,480,184,128,104,0,-38,-53,0,0,100,0,112,712,40,40,0,-28,-58,0,0,100,0,648,639,56,56,0,-27,-66,0,0,100,0,264,176,48,32,0,-28,-59,0,0,100,0,344,552,32,40,0,-12,-65,0,0,100,0,440,592,32,32,0,-51,-105,2,0,100,180,0,712,112,88,0,-29,-9,0,0,65,0,0,379,58,18,0,
0,10,-93,-81,0,0,15,0,536,480,120,88,0,-56,-101,0,0,15,0,480,184,128,104,0,-35,-56,0,0,100,0,152,712,40,40,0,-30,-60,0,0,100,0,200,695,56,56,0,-9,-40,0,0,100,0,0,307,10,9,0,-26,-69,0,0,100,0,312,176,48,32,0,-28,-59,0,0,100,0,344,552,32,40,0,-17,-66,0,0,100,0,472,592,32,32,0,-46,-117,0,0,100,-90,207,0,115,95,0,-29,-9,0,0,65,0,0,379,58,18,0,
0,8,-71,-111,0,0,100,0,720,104,80,72,0,-9,-55,1,0,100,0,112,712,40,40,0,-29,-68,0,0,100,0,376,552,32,32,0,-31,-59,1,0,100,0,200,695,56,56,0,-27,-67,1,0,100,0,312,176,48,32,0,-21,-61,1,0,100,0,344,592,32,32,0,-76,-107,0,0,100,0,207,0,115,95,0,-29,-9,0,0,65,0,0,379,58,18,0,
0,8,-71,-89,0,0,100,0,728,176,72,96,0,-18,-56,1,0,100,0,344,552,32,39,0,-63,-78,1,0,100,0,207,0,115,95,0,-27,-62,1,0,100,0,264,176,48,32,0,-31,-57,1,0,100,0,368,695,56,56,0,-9,-54,0,0,100,0,408,593,32,23,0,-21,-56,1,0,100,0,112,752,40,40,0,-29,-9,0,0,65,0,0,379,58,18,0,
0,8,-33,-87,0,0,100,0,368,95,96,72,0,-12,-46,0,0,100,0,344,512,32,24,0,-30,-98,0,0,100,-90,207,0,115,95,0,-24,-63,0,0,100,0,312,200,48,40,0,-30,-52,0,0,100,0,424,695,56,56,0,-21,-62,0,0,100,0,536,592,32,32,0,-29,-43,1,0,100,0,0,675,37,34,0,-29,-9,0,0,65,0,0,379,58,18,0,
0,9,-80,-66,0,0,100,0,360,184,120,96,0,-37,-73,0,0,15,0,368,95,96,72,0,-27,-57,1,0,100,0,264,176,48,32,0,-33,-44,0,0,100,0,408,552,32,24,0,-30,-52,0,0,100,0,480,695,56,56,0,-13,-42,0,0,100,0,408,592,32,24,0,-87,-66,2,0,100,0,207,0,115,95,0,-17,-48,0,0,100,0,152,752,40,40,0,-29,-9,0,0,65,0,0,379,58,18,0,
0,10,-98,-27,0,0,100,0,588,953,101,47,0,-168,-96,0,0,100,0,328,392,208,118,0,-26,-50,0,0,100,0,440,552,32,24,0,-10,-45,0,0,100,0,0,675,37,34,0,-26,-51,0,0,100,0,536,695,56,56,0,-26,-57,0,0,100,0,264,208,48,32,0,-7,-42,0,0,100,0,568,592,32,32,0,-73,-94,0,0,100,0,340,280,140,112,0,-50,-66,0,0,100,-180,207,0,115,95,0,-29,-9,0,0,65,0,0,379,58,18,0,
0,11,-88,-37,0,0,100,0,689,953,111,47,0,-128,-27,0,0,100,0,588,953,101,47,0,-189,-115,0,0,100,0,592,751,208,127,0,-26,-50,0,0,100,0,440,552,32,24,0,-10,-45,0,0,100,0,37,675,37,34,0,-26,-51,0,0,100,0,592,695,56,56,0,-26,-57,0,0,100,0,264,208,48,32,0,-7,-42,0,0,100,0,568,592,32,32,0,-73,-94,0,0,100,0,340,280,140,112,0,-50,-66,0,0,100,-180,207,0,115,95,0,-29,-9,0,0,65,0,0,379,58,18,0,
0,12,-112,-73,0,0,100,0,576,878,84,75,0,-213,-126,0,0,100,0,800,528,240,160,0,-160,-43,0,0,100,0,689,953,111,47,0,-26,-50,0,0,100,0,440,552,32,24,0,-10,-45,0,0,100,0,0,675,37,34,0,-26,-51,0,0,100,0,536,695,56,56,0,-26,-57,0,0,100,0,264,208,48,32,0,-7,-42,0,0,100,0,568,592,32,32,0,-76,-91,0,0,100,0,656,328,144,104,0,-73,-94,0,0,15,0,340,280,140,112,0,-50,-66,0,0,100,-180,207,0,115,95,0,-29,-9,0,0,65,0,0,379,58,18,0,
0,12,-118,-81,0,0,50,0,576,878,84,75,0,-140,-87,0,0,100,0,473,5,106,73,0,-180,-98,0,0,100,0,396,751,196,105,0,-173,-60,0,0,100,0,576,878,84,75,0,-26,-50,0,0,100,0,440,552,32,24,0,-10,-45,0,0,100,0,37,675,37,34,0,-26,-51,0,0,100,0,592,695,56,56,0,-26,-57,0,0,100,0,264,208,48,32,0,-7,-42,0,0,100,0,568,592,32,32,0,-76,-91,0,0,100,0,656,328,144,104,0,-50,-66,0,0,100,-180,207,0,115,95,0,-29,-9,0,0,65,0,0,379,58,18,0,
0,11,-188,-69,0,0,50,0,576,878,84,75,0,-148,-91,0,0,50,0,473,5,106,73,0,-26,-50,0,0,100,0,440,552,32,24,0,-6,-37,0,0,100,0,74,675,32,32,0,-26,-51,0,0,100,0,648,695,56,56,0,-26,-57,0,0,100,0,264,208,48,32,0,-7,-42,0,0,100,0,568,592,32,32,0,-86,-90,0,0,50,0,656,432,144,104,0,-76,-91,0,0,15,0,656,328,144,104,0,-50,-66,0,0,100,-180,207,0,115,95,0,-29,-9,0,0,65,0,0,379,58,18,0,
0,9,-26,-50,0,0,100,0,440,552,32,24,0,-5,-37,0,0,100,0,106,675,32,32,0,-26,-51,0,0,100,0,704,695,56,56,0,-26,-57,0,0,100,0,264,208,48,32,0,-7,-42,0,0,100,0,568,592,32,32,0,-81,-89,0,0,60,0,656,535,144,104,0,-86,-90,0,0,15,0,656,432,144,104,0,-50,-66,0,0,100,-180,207,0,115,95,0,-29,-9,0,0,65,0,0,379,58,18,0,
0,8,-26,-50,0,0,100,0,440,552,32,24,0,-5,-37,0,0,100,0,106,675,32,32,0,-26,-51,0,0,100,0,704,695,56,56,0,-26,-57,0,0,100,0,264,208,48,32,0,-7,-42,0,0,100,0,568,592,32,32,0,-81,-89,0,0,30,0,656,535,144,104,0,-50,-66,0,0,100,-180,207,0,115,95,0,-29,-9,0,0,65,0,0,379,58,18,0,
0,7,-26,-50,0,0,100,0,440,552,32,24,0,-13,-28,0,0,100,0,138,675,32,32,0,-26,-51,0,0,100,0,704,695,56,56,0,-26,-57,0,0,100,0,264,208,48,32,0,-7,-42,0,0,100,0,568,592,32,32,0,-50,-66,0,0,100,-180,207,0,115,95,0,-29,-9,0,0,65,0,0,379,58,18,0,
0,8,-15,-41,0,0,100,0,472,552,32,24,0,-8,-80,1,0,100,0,0,510,84,77,0,-45,-84,1,0,100,0,207,0,115,95,0,-28,-60,0,0,100,0,312,200,48,40,0,-28,-51,0,0,100,0,200,750,56,56,0,-12,-48,0,0,100,0,408,592,32,24,0,-11,-41,0,0,100,0,106,675,32,32,0,-29,-9,0,0,65,0,0,379,58,18,0,
0,4,-18,-41,0,0,100,0,0,240,40,32,0,-61,-52,0,0,50,0,0,176,120,64,0,-37,-73,0,0,100,0,0,0,80,88,0,-27,-8,0,0,65,0,0,379,58,18,0,
0,4,-20,-50,0,0,100,0,1088,176,40,40,0,-38,-74,0,0,100,0,800,0,80,88,0,-37,-73,0,0,50,0,0,0,80,88,0,-27,-8,0,0,65,0,0,379,58,18,0,
0,3,-20,-47,0,0,100,0,1088,176,40,40,0,-38,-74,0,0,100,0,880,0,80,88,0,-27,-8,0,0,65,0,0,379,58,18,0,
0,3,-20,-48,0,0,100,0,1088,176,40,40,0,-38,-74,0,0,100,0,880,0,80,88,0,-27,-8,0,0,65,0,0,379,58,18,0,
0,5,-4,-91,0,0,100,0,800,264,56,56,0,-21,-51,0,0,100,0,1128,176,40,40,0,-34,-75,0,0,100,0,960,0,80,88,0,0,-70,0,0,100,0,1168,176,32,40,0,-27,-8,0,0,65,0,0,379,58,18,0,
0,5,-4,-91,0,0,100,0,856,264,56,56,0,-21,-50,0,0,100,0,1128,176,40,40,0,-34,-74,0,0,100,0,1040,0,80,88,0,1,-70,0,0,100,0,1168,176,32,40,0,-27,-8,0,0,65,0,0,379,58,18,0,
0,5,-4,-91,0,0,50,0,912,264,56,56,0,-21,-50,0,0,100,0,1128,176,40,40,0,-34,-74,0,0,100,0,1040,0,80,88,0,1,-69,0,0,100,0,1168,176,32,40,0,-27,-8,0,0,65,0,0,379,58,18,0,
0,4,-21,-50,0,0,100,0,1128,176,40,40,0,-34,-74,0,0,100,0,1040,0,80,88,0,1,-69,0,0,100,0,1168,176,32,40,0,-27,-8,0,0,65,0,0,379,58,18,0,
0,5,-19,-55,0,0,100,0,1128,216,32,40,0,-1,-57,0,0,100,0,1160,216,32,40,0,-20,-69,0,0,100,0,1120,88,48,48,0,-34,-74,0,0,100,0,1120,0,80,88,0,-27,-8,0,0,65,0,0,379,58,18,0,
0,6,-45,-82,0,1,50,0,800,320,88,64,0,-34,-40,0,0,50,0,976,312,32,32,0,-11,-77,0,0,50,0,976,312,32,32,0,-21,-49,0,0,100,0,1088,216,40,40,0,-37,-74,0,0,100,0,1040,88,80,88,0,-27,-8,0,0,65,0,0,379,58,18,0,
0,8,-45,-81,0,1,100,0,800,320,88,64,0,-34,-40,0,0,100,0,976,312,32,32,0,-29,-72,0,0,100,0,976,312,32,32,0,-11,-77,0,0,100,0,976,312,32,32,0,-40,-53,0,0,100,0,1008,312,32,32,0,-21,-50,0,0,100,0,1088,216,40,40,0,-37,-74,0,0,100,0,800,88,80,88,0,-27,-8,0,0,65,0,0,379,58,18,0,
0,8,-45,-80,0,1,100,0,800,320,88,64,0,-45,-80,0,1,100,0,800,320,88,64,0,-45,-80,0,1,100,0,800,320,88,64,0,-29,-72,0,0,100,0,1040,312,32,32,0,-40,-53,0,0,100,0,1040,312,32,32,0,-21,-50,0,0,100,0,1088,216,40,40,0,-37,-74,0,0,100,0,880,88,80,88,0,-27,-8,0,0,65,0,0,379,58,18,0,
0,7,-45,-79,0,1,100,0,800,320,88,64,0,-29,-72,0,0,100,0,1008,312,32,32,0,1,-70,0,0,100,0,1008,312,32,32,0,-40,-53,0,0,100,0,976,312,32,32,0,-21,-50,0,0,100,0,1088,216,40,40,0,-37,-74,0,0,100,0,960,88,80,88,0,-27,-8,0,0,65,0,0,379,58,18,0,
0,6,-45,-78,0,1,100,0,800,320,88,64,0,-29,-72,0,0,100,0,976,312,32,32,0,1,-70,0,0,100,0,1040,312,32,32,0,-21,-50,0,0,100,0,1088,216,40,40,0,-37,-74,0,0,100,0,1040,88,80,88,0,-27,-8,0,0,65,0,0,379,58,18,0,
0,6,-45,-77,0,1,100,0,800,320,88,64,0,-20,-74,0,0,100,0,1008,312,32,32,0,1,-70,0,0,100,0,976,312,32,32,0,-21,-50,0,0,100,0,1088,216,40,40,0,-37,-74,0,0,100,0,800,88,80,88,0,-27,-8,0,0,65,0,0,379,58,18,0,
0,7,-43,-83,0,1,60,0,888,320,88,64,0,-45,-76,0,1,70,0,800,320,88,64,0,5,-38,0,0,100,0,976,312,32,32,0,-20,-74,0,0,100,0,1040,312,32,32,0,-21,-50,0,0,100,0,1088,216,40,40,0,-37,-74,0,0,100,0,880,88,80,88,0,-27,-8,0,0,65,0,0,379,58,18,0,
0,9,-43,-82,0,1,100,0,888,320,88,64,0,-43,-82,0,1,100,0,888,320,88,64,0,-45,-75,0,1,40,0,800,320,88,64,0,5,-38,0,0,100,0,1040,312,32,32,0,-34,-40,0,0,100,0,1008,312,32,32,0,-20,-74,0,0,100,0,976,312,32,32,0,-21,-50,0,0,100,0,1088,216,40,40,0,-37,-74,0,0,100,0,960,88,80,88,0,-27,-8,0,0,65,0,0,379,58,18,0,
0,9,-43,-81,0,1,100,0,888,320,88,64,0,-43,-81,0,1,100,0,888,320,88,64,0,-43,-81,0,1,100,0,888,320,88,64,0,-45,-74,0,1,20,0,800,320,88,64,0,5,-38,0,0,100,0,1008,312,32,32,0,-34,-40,0,0,100,0,1040,312,32,32,0,-21,-50,0,0,100,0,1088,216,40,40,0,-37,-74,0,0,100,0,1040,88,80,88,0,-27,-8,0,0,65,0,0,379,58,18,0,
0,7,-43,-80,0,1,100,0,888,320,88,64,0,5,-38,0,0,100,0,976,312,32,32,0,5,-54,0,0,100,0,1008,312,32,32,0,-34,-40,0,0,100,0,976,312,32,32,0,-21,-50,0,0,100,0,1088,216,40,40,0,-37,-74,0,0,100,0,800,88,80,88,0,-27,-8,0,0,65,0,0,379,58,18,0,
0,6,-43,-79,0,1,70,0,888,320,88,64,0,-34,-40,0,0,100,0,976,312,32,32,0,5,-54,0,0,100,0,1040,312,32,32,0,-21,-50,0,0,100,0,1088,216,40,40,0,-37,-74,0,0,100,0,880,88,80,88,0,-27,-8,0,0,65,0,0,379,58,18,0,
0,7,-43,-78,0,1,50,0,888,320,88,64,0,-34,-40,0,0,100,0,1040,312,32,32,0,-11,-77,0,0,100,0,1008,312,32,32,0,5,-54,0,0,100,0,976,312,32,32,0,-21,-50,0,0,100,0,1088,216,40,40,0,-37,-74,0,0,100,0,960,88,80,88,0,-27,-8,0,0,65,0,0,379,58,18,0,
0,7,-43,-78,0,1,20,0,888,320,88,64,0,-45,-82,0,1,50,0,800,320,88,64,0,-34,-40,0,0,100,0,1008,312,32,32,0,-11,-77,0,0,100,0,1040,312,32,32,0,-21,-50,0,0,100,0,1088,216,40,40,0,-37,-74,0,0,100,0,1040,88,80,88,0,-27,-8,0,0,65,0,0,379,58,18,0,
