30,0,0,3,
31,0,0,3,
32,0,0,3,
33,0,0,3,
34,0,0,3,
35,0,0,3,
36,0,0,4,
37,0,0,6,
40,0,0,6,
41,0,0,6,
42,0,0,6,
43,0,0,6,
44,0,0,6,
45,0,0,4,
46,0,0,4,
47,0,0,4,
48,0,0,4,
49,0,0,8,
50,0,0,5,
51,0,0,5,
52,0,0,5,
53,0,0,5,
54,0,0,5,
55,0,0,5,
56,0,0,4,
57,0,0,4,
58,0,0,4,
59,0,0,4,
60,0,0,4,
61,0,0,4,
