0,3,-18,-76,0,0,100,0,432,544,64,56,0,-25,-60,0,0,100,0,0,0,56,64,0,-20,-8,0,0,65,0,280,0,40,16,0,
0,3,-18,-76,0,0,100,0,496,544,64,56,0,-25,-60,0,0,100,0,56,0,56,64,0,-20,-8,0,0,65,0,280,0,40,16,0,
0,3,-18,-76,0,0,100,0,560,544,64,56,0,-25,-60,0,0,100,0,112,0,56,64,0,-20,-8,0,0,65,0,280,0,40,16,0,
0,3,-18,-76,0,0,100,0,624,544,64,56,0,-25,-60,0,0,100,0,168,0,56,64,0,-20,-8,0,0,65,0,280,0,40,16,0,
0,3,4,-38,0,1,100,0,296,80,40,32,0,-27,-50,0,0,100,0,224,0,56,56,0,-20,-8,0,0,65,0,280,0,40,16,0,
0,4,-25,-22,0,1,100,0,296,56,56,24,0,-28,-25,0,1,100,0,280,16,56,24,0,-28,-49,0,0,100,0,176,248,64,56,0,-21,-8,0,0,65,0,280,0,40,16,0,
0,5,-35,-51,0,0,100,0,48,64,56,56,0,-155,-47,0,1,80,0,624,0,128,56,0,-123,-35,0,1,100,0,480,0,128,40,0,-123,-35,0,1,100,0,352,0,128,40,0,-24,-8,0,0,65,0,280,0,40,16,0,
0,5,-174,-46,0,1,60,0,624,56,136,56,0,-44,-42,0,0,100,0,104,64,64,48,0,-125,-36,0,1,80,0,488,40,136,40,0,-125,-36,0,1,80,0,352,40,136,40,0,-27,-8,0,0,65,0,280,0,40,16,0,
0,5,-187,-46,0,1,40,0,624,112,152,56,0,-45,-42,0,0,100,0,168,64,64,48,0,-126,-39,0,1,40,0,488,80,136,40,0,-126,-39,0,1,50,0,352,80,136,40,0,-27,-8,0,0,65,0,280,0,40,16,0,
0,2,-42,-42,0,0,100,0,232,64,64,48,0,-25,-8,0,0,65,0,280,0,40,16,0,
0,3,-46,-45,0,0,100,0,0,120,64,48,0,-52,-14,0,1,100,0,280,40,72,16,0,-31,-8,0,0,65,0,280,0,40,16,0,
0,5,-86,-104,0,1,100,0,384,120,80,112,0,-77,-66,0,1,100,0,280,112,72,72,0,-43,-59,0,0,100,0,64,120,72,64,0,-46,-45,0,0,20,0,0,120,64,48,0,-26,-8,0,0,65,0,280,0,40,16,0,
0,7,-120,-118,0,1,100,0,248,184,136,120,0,-65,-71,0,1,100,0,464,120,120,56,0,-29,-60,0,0,100,0,136,120,80,64,0,-86,-104,0,1,40,0,384,120,80,112,0,-77,-66,0,1,40,0,280,112,72,72,0,-43,-59,0,0,20,0,64,120,72,64,0,-19,-8,0,0,65,0,280,0,40,16,0,
0,9,-131,-138,0,1,100,0,464,176,216,128,0,-35,-68,0,1,100,0,680,168,96,64,0,-15,-57,0,0,100,0,216,120,64,64,0,-120,-118,0,1,40,0,248,184,136,120,0,-65,-71,0,1,40,0,464,120,120,56,0,-28,-59,0,0,20,0,136,120,80,64,0,-86,-104,0,1,20,0,384,120,80,112,0,-77,-66,0,1,20,0,280,112,72,72,0,-7,-8,0,0,65,0,280,0,40,16,0,
0,7,-132,-139,0,1,40,0,464,176,216,128,0,-33,-67,0,1,40,0,680,168,96,64,0,4,-58,0,0,100,0,0,168,64,64,0,-14,-56,0,0,20,0,216,120,64,64,0,-120,-118,0,1,20,0,248,184,136,120,0,-65,-71,0,1,20,0,464,120,120,56,0,11,-8,0,0,65,0,280,0,40,16,0,
0,5,-133,-140,0,1,20,0,464,176,216,128,0,-31,-66,0,1,20,0,680,168,96,64,0,9,-61,0,0,100,0,64,184,64,64,0,5,-58,0,0,20,0,0,168,64,64,0,11,-8,0,0,65,0,280,0,40,16,0,
0,3,9,-60,0,0,100,0,128,184,56,64,0,10,-61,0,0,20,0,64,184,64,64,0,9,-8,0,0,65,0,280,0,40,16,0,
0,6,-146,-56,0,1,60,0,640,328,136,72,0,-128,-60,0,1,100,0,496,336,144,64,0,-28,-55,0,0,100,0,184,184,64,64,0,-127,-60,0,1,100,0,352,336,144,64,0,8,-59,0,0,20,0,128,184,56,64,0,-21,-8,0,0,65,0,280,0,40,16,0,
0,5,-152,-61,0,1,40,0,640,400,160,72,0,-128,-61,0,1,80,0,520,400,120,72,0,-31,-49,0,0,100,0,0,248,56,56,0,-128,-61,0,1,100,0,400,400,120,72,0,-26,-8,0,0,65,0,280,0,40,16,0,
0,5,-157,-60,0,1,20,0,640,472,160,72,0,-134,-61,0,1,40,0,512,472,128,72,0,-134,-61,0,1,100,0,384,472,128,72,0,-41,-49,0,0,100,0,56,248,56,56,0,-28,-8,0,0,65,0,280,0,40,16,0,
0,2,-50,-49,0,0,100,0,112,248,64,56,0,-29,-8,0,0,65,0,280,0,40,16,0,
0,3,-11,-53,0,0,60,0,288,304,56,48,0,-32,-92,0,0,100,0,0,304,72,96,0,-16,-8,0,0,65,0,280,0,40,16,0,
0,3,-39,-65,3,0,30,0,496,544,64,56,0,-32,-92,0,0,100,0,72,304,72,96,0,-12,-8,0,0,65,0,280,0,40,16,0,
0,3,-41,-70,3,0,10,0,624,544,64,56,0,-32,-92,0,0,100,0,144,304,72,96,0,-12,-8,0,0,65,0,280,0,40,16,0,
0,2,-32,-92,0,0,100,0,216,304,72,96,0,-12,-8,0,0,65,0,280,0,40,16,0,
0,3,-37,-45,0,0,100,0,288,352,56,32,0,-32,-92,0,0,100,0,0,400,72,96,0,-17,-8,0,0,65,0,280,0,40,16,0,
0,3,-37,-35,0,0,100,0,288,384,24,16,0,-32,-92,0,0,100,0,72,400,72,96,0,-17,-8,0,0,65,0,280,0,40,16,0,
0,2,-32,-92,0,0,100,0,144,400,72,96,0,-17,-8,0,0,65,0,280,0,40,16,0,
0,2,-32,-92,0,0,100,0,216,400,72,96,0,-10,-8,0,0,46,0,320,0,32,16,0,
0,2,-32,-92,0,0,100,0,288,400,72,96,0,-10,-8,0,0,46,0,320,0,32,16,0,
0,2,-32,-92,0,0,100,0,0,496,72,96,0,-11,-8,0,0,46,0,320,0,32,16,0,
0,2,-32,-92,0,0,100,0,72,496,72,96,0,-11,-8,0,0,46,0,320,0,32,16,0,
0,2,-32,-92,0,0,100,0,144,496,72,96,0,-14,-8,0,0,46,0,320,0,32,16,0,
0,2,-32,-92,0,0,100,0,216,496,72,96,0,-14,-8,0,0,46,0,320,0,32,16,0,
0,2,-32,-92,0,0,100,0,288,496,72,96,0,-14,-8,0,0,46,0,320,0,32,16,0,
0,2,-32,-92,0,0,100,0,0,592,72,96,0,-20,-8,0,0,65,0,280,0,40,16,0,
0,2,-32,-92,0,0,100,0,72,592,72,96,0,-20,-8,0,0,65,0,280,0,40,16,0,
0,2,-32,-92,0,0,100,0,144,592,72,96,0,-20,-8,0,0,65,0,280,0,40,16,0,
0,2,-32,-92,0,0,100,0,216,592,72,96,0,-20,-8,0,0,65,0,280,0,40,16,0,
0,2,-32,-92,0,0,100,0,288,592,72,96,0,-20,-8,0,0,65,0,280,0,40,16,0,
0,2,-32,-92,0,0,100,0,360,592,72,96,0,-20,-8,0,0,65,0,280,0,40,16,0,
