0,2,-21,-34,0,0,100,0,0,0,40,40,0,-26,-16,0,0,65,0,208,232,48,24,0,
0,2,-21,-34,0,0,100,0,40,0,40,40,0,-26,-16,0,0,65,0,208,232,48,24,0,
0,2,-21,-34,0,0,100,0,80,0,40,40,0,-26,-16,0,0,65,0,208,232,48,24,0,
0,2,-21,-34,0,0,100,0,120,0,40,40,0,-26,-16,0,0,65,0,208,232,48,24,0,
0,2,-21,-35,0,0,100,0,160,0,40,40,0,-26,-16,0,0,65,0,208,232,48,24,0,
0,3,-23,-34,0,0,100,0,0,40,40,40,0,0,-18,0,0,100,0,0,80,16,24,0,-26,-16,0,0,65,0,208,232,48,24,0,
0,3,-23,-34,0,0,100,0,40,40,40,40,0,1,-17,0,0,100,0,16,80,16,24,0,-26,-16,0,0,65,0,208,232,48,24,0,
0,3,-23,-34,0,0,100,0,80,40,40,40,0,1,-18,0,0,100,0,32,80,16,24,0,-26,-16,0,0,65,0,208,232,48,24,0,
0,3,-23,-34,0,0,100,0,80,40,40,40,0,1,-18,0,0,100,0,32,80,16,24,0,-26,-16,0,0,65,0,208,232,48,24,0,
0,3,-23,-34,0,0,100,0,80,40,40,40,0,1,-18,0,0,100,0,48,80,16,24,0,-26,-16,0,0,65,0,208,232,48,24,0,
0,4,-45,-21,0,1,100,0,32,216,32,32,0,-26,-34,0,0,100,0,120,40,40,40,0,-2,-18,0,0,100,0,64,80,16,24,0,-27,-16,0,0,65,0,208,232,48,24,0,
0,4,-45,-21,0,1,100,0,64,216,32,32,0,-26,-34,0,0,100,0,160,40,40,40,0,-3,-17,0,0,100,0,80,80,16,24,0,-27,-16,0,0,65,0,208,232,48,24,0,
0,3,-26,-34,0,0,100,0,160,40,40,40,0,-3,-17,0,0,100,0,80,80,16,24,0,-27,-16,0,0,65,0,208,232,48,24,0,
0,3,-23,-34,0,0,100,0,80,120,40,40,0,1,-18,0,0,100,0,152,80,16,24,0,-26,-16,0,0,65,0,208,232,48,24,0,
0,3,-23,-34,0,0,100,0,120,120,40,40,0,1,-18,0,0,100,0,168,80,16,24,0,-26,-16,0,0,65,0,208,232,48,24,0,
0,3,-20,-38,0,0,100,0,0,120,40,40,0,2,-22,0,0,100,0,104,80,16,24,0,-26,-16,0,0,65,0,208,232,48,24,0,
0,3,-20,-42,0,0,100,0,0,120,40,40,0,2,-26,0,0,100,0,120,80,16,24,0,-26,-16,0,0,65,0,208,232,48,24,0,
0,3,-20,-44,0,0,100,0,0,120,40,40,0,2,-28,0,0,100,0,104,80,16,24,0,-26,-16,0,0,65,0,208,232,48,24,0,
0,3,-20,-43,0,0,100,0,40,120,40,40,0,4,-27,0,0,100,0,136,80,16,24,0,-26,-16,0,0,65,0,208,232,48,24,0,
0,3,-20,-40,0,0,100,0,40,120,40,40,0,4,-24,0,0,100,0,136,80,16,24,0,-26,-16,0,0,65,0,208,232,48,24,0,
0,3,-20,-35,0,0,100,0,40,120,40,40,0,4,-19,0,0,100,0,136,80,16,24,0,-26,-16,0,0,65,0,208,232,48,24,0,
