0,8,-1,-50,0,0,100,0,184,0,40,56,0,-69,-34,0,0,100,0,32,32,56,40,0,-30,-54,0,0,100,0,88,32,56,40,0,-17,-66,0,0,100,0,0,0,32,56,0,-19,-22,0,0,100,0,88,200,32,24,0,-20,-28,0,0,100,0,32,0,40,32,0,-25,-43,0,0,100,0,144,32,40,32,0,-24,-9,0,0,65,0,360,0,48,16,0,
0,8,-1,-51,0,0,100,0,184,0,40,56,0,-69,-35,0,0,100,0,32,32,56,40,0,-30,-55,0,0,100,0,88,32,56,40,0,-17,-66,0,0,100,0,0,0,32,56,0,-19,-22,0,0,100,0,88,224,32,24,0,-20,-28,0,0,100,0,72,0,40,32,0,-25,-44,0,0,100,0,144,32,40,32,0,-24,-9,0,0,65,0,360,0,48,16,0,
0,8,-1,-51,0,0,100,0,184,0,40,56,0,-69,-35,0,0,100,0,32,32,56,40,0,-30,-55,0,0,100,0,88,32,56,40,0,-17,-67,0,0,100,0,0,0,32,56,0,-19,-23,0,0,100,0,88,248,32,24,0,-20,-28,0,0,100,0,72,0,40,32,0,-25,-44,0,0,100,0,144,32,40,32,0,-24,-9,0,0,65,0,360,0,48,16,0,
0,8,-1,-50,0,0,100,0,184,0,40,56,0,-69,-33,0,0,100,0,32,32,56,40,0,-30,-53,0,0,100,0,88,32,56,40,0,-17,-65,0,0,100,0,0,0,32,56,0,-18,-24,0,0,100,0,88,224,32,24,0,-20,-28,0,0,100,0,32,0,40,32,0,-25,-42,0,0,100,0,144,32,40,32,0,-24,-9,0,0,65,0,360,0,48,16,0,
0,8,-1,-49,0,0,100,0,184,0,40,56,0,-69,-32,0,0,100,0,32,32,56,40,0,-30,-52,0,0,100,0,88,32,56,40,0,-17,-65,0,0,100,0,0,0,32,56,0,-20,-21,0,0,100,0,88,248,32,24,0,-20,-28,0,0,100,0,32,0,40,32,0,-25,-42,0,0,100,0,144,32,40,32,0,-24,-9,0,0,65,0,360,0,48,16,0,
0,8,-1,-49,0,0,100,0,184,0,40,56,0,-69,-32,0,0,100,0,32,32,56,40,0,-30,-52,0,0,100,0,88,32,56,40,0,-17,-65,0,0,100,0,0,0,32,56,0,-20,-20,0,0,100,0,88,272,32,24,0,-20,-28,0,0,100,0,32,0,40,32,0,-25,-42,0,0,100,0,144,32,40,32,0,-24,-9,0,0,65,0,360,0,48,16,0,
0,10,-3,-53,0,0,100,0,224,0,40,56,0,-67,-33,0,0,100,0,32,32,56,40,0,2,-53,0,0,100,0,120,32,24,40,0,-17,-66,0,0,100,0,0,56,32,56,0,-15,-24,0,0,100,0,152,224,24,24,0,-14,-27,0,0,100,0,80,72,24,32,0,-7,-28,0,0,100,0,104,72,24,32,0,-28,-52,0,0,100,0,88,32,32,40,0,-23,-43,0,0,100,0,144,32,40,32,0,-24,-9,0,0,65,0,360,0,48,16,0,
0,10,-3,-55,0,0,100,0,224,0,40,56,0,-66,-36,0,0,100,0,32,32,56,40,0,2,-55,0,0,100,0,120,32,24,40,0,-17,-68,0,0,100,0,0,112,32,56,0,-15,-26,0,0,100,0,152,248,24,24,0,-13,-27,0,0,100,0,32,72,24,32,0,-10,-31,0,0,100,0,128,72,24,32,0,-27,-55,0,0,100,0,88,32,32,40,0,-22,-45,0,0,100,0,144,32,40,32,0,-24,-9,0,0,65,0,360,0,48,16,0,
0,10,-4,-57,0,0,100,0,224,0,40,56,0,-65,-38,0,0,100,0,32,32,56,40,0,2,-56,0,0,100,0,120,32,24,40,0,-17,-69,0,0,100,0,0,112,32,56,0,-15,-27,0,0,100,0,152,272,24,24,0,-8,-28,0,0,100,0,56,72,24,32,0,-18,-32,0,0,100,0,152,72,24,32,0,-26,-57,0,0,100,0,88,32,32,40,0,-21,-47,0,0,100,0,144,32,40,32,0,-24,-9,0,0,65,0,360,0,48,16,0,
0,10,-4,-52,0,0,100,0,224,0,40,56,0,-65,-33,0,0,100,0,32,32,56,40,0,2,-53,0,0,100,0,120,32,24,40,0,-17,-66,0,0,100,0,32,112,32,56,0,-15,-24,0,0,100,0,176,224,24,24,0,-5,-28,0,0,100,0,56,72,24,32,0,-19,-26,0,0,100,0,152,72,24,32,0,-26,-52,0,0,100,0,88,32,32,40,0,-21,-43,0,0,100,0,144,32,40,32,0,-24,-9,0,0,65,0,360,0,48,16,0,
0,10,-4,-55,0,0,100,0,224,0,40,56,0,-66,-36,0,0,100,0,32,32,56,40,0,2,-55,0,0,100,0,120,32,24,40,0,-17,-68,0,0,100,0,0,112,32,56,0,-15,-26,0,0,100,0,152,248,24,24,0,-7,-32,0,0,100,0,56,72,24,32,0,-17,-26,0,0,100,0,104,72,24,32,0,-27,-55,0,0,100,0,88,32,32,40,0,-22,-45,0,0,100,0,144,32,40,32,0,-24,-9,0,0,65,0,360,0,48,16,0,
0,10,-3,-57,0,0,100,0,224,0,40,56,0,-66,-37,0,0,100,0,32,32,56,40,0,2,-56,0,0,100,0,120,32,24,40,0,-17,-69,0,0,100,0,0,56,32,56,0,-15,-27,0,0,100,0,152,272,24,24,0,-13,-31,0,0,100,0,80,72,24,32,0,-11,-26,0,0,100,0,104,72,24,32,0,-27,-56,0,0,100,0,88,32,32,40,0,-22,-46,0,0,100,0,144,32,40,32,0,-24,-9,0,0,65,0,360,0,48,16,0,
0,10,-39,-57,0,0,100,0,224,0,40,56,0,-26,-53,0,0,100,0,176,72,32,32,0,-12,-50,0,0,100,0,64,128,40,40,0,-6,-65,0,0,100,0,56,104,24,8,0,-6,-62,0,0,100,0,80,104,24,24,0,-5,-108,0,0,100,0,160,104,40,56,0,8,-59,0,0,100,0,208,72,32,32,0,16,-64,0,0,100,0,200,104,32,40,0,-20,-28,0,0,100,0,104,104,48,32,0,-19,-9,0,0,65,0,360,0,48,16,0,
0,10,-37,-55,0,0,100,0,224,0,40,56,0,-23,-51,0,0,100,0,176,72,32,32,0,-9,-48,0,0,100,0,64,128,40,40,0,-3,-62,0,0,100,0,56,104,24,8,0,-3,-59,0,0,100,0,80,104,24,24,0,2,-105,0,0,100,0,160,104,40,56,0,14,-57,0,0,100,0,208,72,32,32,0,23,-61,0,0,100,0,200,104,32,40,0,-20,-28,0,0,100,0,104,136,56,32,0,-18,-9,0,0,65,0,360,0,48,16,0,
0,11,-100,-35,0,0,100,0,296,256,31,16,0,-103,-26,2,0,100,0,296,232,24,24,0,-103,-51,0,0,100,0,296,232,24,24,0,-101,-43,0,0,100,0,296,0,24,32,0,-114,-45,0,0,100,0,280,304,48,32,0,-103,-40,0,0,100,0,206,312,74,24,0,-94,-43,0,0,100,0,160,192,64,32,0,-41,-59,0,0,100,0,0,200,88,64,0,-42,-39,0,0,100,0,224,192,48,24,0,-9,-82,0,0,100,0,0,360,64,64,0,-30,-9,0,0,65,0,360,0,48,16,0,
0,17,-121,-97,0,1,100,0,360,16,80,136,0,-85,-36,0,0,100,0,296,272,40,16,0,-96,-16,2,0,100,0,328,224,32,32,0,-96,-72,0,0,100,0,328,224,32,32,0,-105,-56,0,0,100,0,320,0,40,56,0,-160,-41,2,0,100,0,280,304,48,32,0,-148,-38,2,0,100,0,206,312,74,24,0,-130,-43,0,0,100,0,160,192,72,32,0,-34,-57,0,0,100,0,184,0,40,56,0,-37,-57,0,0,100,0,208,72,16,32,0,-59,-62,0,0,100,0,232,104,40,56,0,-53,-19,0,0,100,0,120,200,32,24,0,-72,-53,0,0,100,0,176,72,32,32,0,-78,-39,0,0,100,0,232,192,56,24,0,-66,-27,0,0,100,0,104,168,56,32,0,-49,-84,0,0,100,0,0,296,64,64,0,-64,-9,0,0,65,0,360,0,48,16,0,
0,17,-107,-94,0,1,100,0,360,152,104,136,0,-64,-35,0,0,100,0,296,256,31,16,0,-80,8,2,0,100,0,296,232,24,24,0,-80,-83,0,0,100,0,296,232,24,24,0,-106,-63,0,0,100,0,296,56,48,79,0,-162,-45,0,0,100,0,280,304,48,32,0,-151,-40,0,0,100,0,206,312,74,24,0,-133,-43,0,0,100,0,160,192,72,32,0,-37,-57,0,0,100,0,184,0,40,56,0,-40,-57,0,0,100,0,208,72,16,32,0,-62,-62,0,0,100,0,232,104,40,56,0,-55,-20,0,0,100,0,120,272,32,24,0,-75,-53,0,0,100,0,176,72,32,32,0,-81,-39,0,0,100,0,232,192,56,24,0,-69,-27,0,0,100,0,104,168,56,32,0,-52,-89,0,0,100,0,64,296,64,64,0,-67,-9,0,0,65,0,360,0,48,16,0,
0,15,-54,-35,0,0,50,0,296,256,31,16,0,-72,16,2,0,50,0,296,232,24,24,0,-72,-91,0,0,50,0,296,232,24,24,0,-106,-71,0,0,100,0,296,136,57,88,0,-152,-40,0,0,50,0,206,312,74,24,0,-136,-43,0,0,100,0,160,160,64,32,0,-40,-57,0,0,100,0,184,0,40,56,0,-43,-57,0,0,100,0,208,72,16,32,0,-65,-62,0,0,100,0,232,104,40,56,0,-59,-19,0,0,100,0,120,200,32,24,0,-78,-53,0,0,100,0,176,72,32,32,0,-84,-39,0,0,100,0,224,160,48,24,0,-72,-27,0,0,100,0,104,168,56,32,0,-61,-97,0,0,100,0,64,360,64,64,0,-70,-9,0,0,65,0,360,0,48,16,0,
0,11,-152,-40,0,0,20,0,206,312,74,24,0,-136,-43,0,0,100,0,160,160,64,32,0,-40,-57,0,0,100,0,184,0,40,56,0,-43,-57,0,0,100,0,208,72,16,32,0,-65,-62,0,0,100,0,232,104,40,56,0,-59,-19,0,0,100,0,120,224,32,24,0,-78,-53,0,0,100,0,176,72,32,32,0,-84,-39,0,0,100,0,224,160,48,24,0,-72,-27,0,0,100,0,104,168,56,32,0,-63,-100,0,0,100,0,0,360,64,64,0,-70,-9,0,0,65,0,360,0,48,16,0,
0,10,-136,-43,0,0,100,0,160,160,64,32,0,-40,-57,0,0,100,0,184,0,40,56,0,-43,-57,0,0,100,0,208,72,16,32,0,-65,-62,0,0,100,0,232,104,40,56,0,-58,-19,0,0,100,0,120,248,32,24,0,-78,-53,0,0,100,0,176,72,32,32,0,-84,-39,0,0,100,0,224,160,48,24,0,-72,-27,0,0,100,0,104,168,56,32,0,-65,-103,0,0,80,0,0,296,64,64,0,-70,-9,0,0,65,0,360,0,48,16,0,
0,10,-136,-43,0,0,100,0,160,160,64,32,0,-40,-57,0,0,100,0,184,0,40,56,0,-43,-57,0,0,100,0,208,72,16,32,0,-65,-62,0,0,100,0,232,104,40,56,0,-58,-19,0,0,100,0,120,272,32,24,0,-78,-53,0,0,100,0,176,72,32,32,0,-84,-39,0,0,100,0,224,160,48,24,0,-72,-27,0,0,100,0,104,168,56,32,0,-65,-104,0,0,50,0,64,296,64,64,0,-70,-9,0,0,65,0,360,0,48,16,0,
0,2,-84,-90,0,0,100,0,0,440,136,104,0,-24,-9,0,0,65,0,360,0,48,16,0,
0,2,-84,-90,0,0,100,0,136,440,136,104,0,-24,-9,0,0,65,0,360,0,48,16,0,
0,2,-84,-90,0,0,100,0,272,440,136,104,0,-24,-9,0,0,65,0,360,0,48,16,0,
0,3,-84,-90,0,0,100,0,408,440,136,104,0,-20,-57,0,0,80,0,528,35,40,32,0,-24,-9,0,0,65,0,360,0,48,16,0,
0,3,-84,-90,0,0,100,0,544,440,136,104,0,-21,-57,0,0,80,0,632,35,40,32,0,-24,-9,0,0,65,0,360,0,48,16,0,
0,3,-84,-90,0,0,100,0,680,440,136,104,0,-24,-57,0,0,80,0,736,35,48,32,0,-24,-9,0,0,65,0,360,0,48,16,0,
0,3,-84,-90,0,0,100,0,816,440,136,104,0,-23,-61,0,0,80,0,840,35,48,32,0,-24,-9,0,0,65,0,360,0,48,16,0,
0,3,-72,-90,0,0,100,0,832,336,120,104,0,-28,-61,0,0,80,0,936,35,56,13,0,-24,-9,0,0,65,0,360,0,48,16,0,
0,3,-67,-95,0,0,100,0,272,752,128,104,0,-68,-90,0,0,100,0,8,544,128,104,0,-24,-9,0,0,65,0,360,0,48,16,0,
0,3,-11,-95,0,0,100,0,408,752,72,104,0,-28,-90,0,0,100,0,152,544,96,104,0,-24,-9,0,0,65,0,360,0,48,16,0,
0,3,26,-91,0,0,100,0,488,756,40,64,0,-34,-90,0,0,100,0,258,544,96,104,0,-24,-9,0,0,65,0,360,0,48,16,0,
0,2,-34,-90,0,0,100,0,370,544,96,104,0,-24,-9,0,0,65,0,360,0,48,16,0,
0,3,-38,-90,0,0,100,0,478,544,96,104,0,-37,-72,0,0,80,0,512,125,72,53,0,-24,-9,0,0,65,0,360,0,48,16,0,
0,4,-84,-95,0,0,100,0,528,752,152,104,0,-74,-90,0,0,100,0,584,544,128,104,0,-35,-80,0,0,80,0,619,117,72,53,0,-24,-9,0,0,65,0,360,0,48,16,0,
0,4,-102,-83,0,0,100,0,704,752,168,104,0,-73,-90,0,0,100,0,736,544,120,104,0,-38,-86,0,0,80,0,718,114,72,53,0,-24,-9,0,0,65,0,360,0,48,16,0,
0,4,-106,-35,0,0,100,0,888,800,120,56,0,-73,-90,0,0,100,0,904,544,120,104,0,-35,-86,0,0,80,0,822,114,72,53,0,-24,-9,0,0,65,0,360,0,48,16,0,
0,3,-81,-90,0,0,100,0,0,648,136,104,0,-35,-74,0,0,80,0,523,246,72,53,0,-24,-9,0,0,65,0,360,0,48,16,0,
0,3,-81,-90,0,0,100,0,136,648,136,104,0,-35,-74,0,0,80,0,624,246,72,58,0,-24,-9,0,0,65,0,360,0,48,16,0,
0,3,-81,-90,0,0,100,0,272,648,136,104,0,-44,-74,0,0,80,0,712,246,88,58,0,-24,-9,0,0,65,0,360,0,48,16,0,
0,3,-81,-90,0,0,100,0,408,648,136,104,0,-43,-74,0,0,80,0,804,246,88,58,0,-24,-9,0,0,65,0,360,0,48,16,0,
0,3,-81,-90,0,0,100,0,544,648,136,104,0,-44,-77,0,0,80,0,908,243,88,58,0,-24,-9,0,0,65,0,360,0,48,16,0,
0,3,-81,-90,0,0,100,0,680,648,136,104,0,-41,-80,0,0,80,0,908,163,88,58,0,-24,-9,0,0,65,0,360,0,48,16,0,
0,3,-81,-90,0,0,100,0,816,648,136,104,0,-42,-77,0,0,80,0,516,363,88,58,0,-24,-9,0,0,65,0,360,0,48,16,0,
0,3,-81,-90,0,0,100,0,0,752,136,104,0,-39,-77,0,0,80,0,620,363,88,58,0,-24,-9,0,0,65,0,360,0,48,16,0,
0,3,-81,-90,0,0,100,0,136,752,136,104,0,-40,-79,0,0,80,0,716,361,88,58,0,-24,-9,0,0,65,0,360,0,48,16,0,
