0,17,-25,-63,0,0,100,0,0,288,48,32,0,-4,-34,0,0,100,0,16,320,16,16,0,-4,-37,0,0,100,0,48,336,24,24,0,-5,-41,0,0,100,0,72,336,24,24,0,-23,-50,0,0,100,0,0,488,48,48,0,-24,-57,0,0,100,0,0,80,56,48,1,-17,-57,0,0,100,0,0,0,32,32,1,-16,-42,0,0,100,0,0,360,32,32,0,-15,-33,0,0,100,0,0,392,40,40,0,-27,-34,0,0,100,0,0,320,16,16,0,-25,-38,0,0,100,0,0,336,24,24,0,-20,-39,0,0,100,0,24,336,24,24,0,-32,-41,0,0,100,0,0,432,64,56,0,-49,-92,0,0,100,0,0,176,64,112,0,-17,-48,0,0,100,0,0,32,56,48,1,-24,-56,0,0,100,0,0,128,56,48,1,-32,-20,0,0,65,0,960,0,64,32,0,
0,17,-25,-63,0,0,100,0,0,288,48,32,0,-24,-57,0,0,100,0,56,80,56,48,1,-4,-34,0,0,100,0,16,320,16,16,0,-4,-37,0,0,100,0,48,336,24,24,0,-5,-41,0,0,100,0,72,336,24,24,0,-23,-50,0,0,100,0,0,488,48,48,0,-17,-57,0,0,100,0,64,0,32,32,1,-16,-42,0,0,100,0,0,360,32,32,0,-15,-33,0,0,100,0,40,392,40,40,0,-27,-34,0,0,100,0,0,320,16,16,0,-25,-38,0,0,100,0,0,336,24,24,0,-20,-39,0,0,100,0,24,336,24,24,0,-32,-41,0,0,100,0,0,432,64,56,0,-49,-92,0,0,100,0,0,176,64,112,0,-17,-48,0,0,100,0,56,32,56,48,1,-24,-56,0,0,100,0,56,128,56,48,1,-32,-20,0,0,65,0,960,0,64,32,0,
0,17,-25,-63,0,0,100,0,0,288,48,32,0,-4,-34,0,0,100,0,16,320,16,16,0,-4,-37,0,0,100,0,48,336,24,24,0,-5,-41,0,0,100,0,72,336,24,24,0,-23,-50,0,0,100,0,0,488,48,48,0,-24,-57,0,0,100,0,112,80,56,48,1,-17,-57,0,0,100,0,96,0,32,32,1,-16,-42,0,0,100,0,0,360,32,32,0,-15,-33,0,0,100,0,80,392,40,40,0,-27,-34,0,0,100,0,0,320,16,16,0,-25,-38,0,0,100,0,0,336,24,24,0,-20,-39,0,0,100,0,24,336,24,24,0,-32,-41,0,0,100,0,0,432,64,56,0,-49,-92,0,0,100,0,0,176,64,112,0,-17,-48,0,0,100,0,112,32,56,48,1,-24,-56,0,0,100,0,112,128,56,48,1,-32,-20,0,0,65,0,960,0,64,32,0,
0,17,-25,-63,0,0,100,0,0,288,48,32,0,-4,-34,0,0,100,0,16,320,16,16,0,-4,-37,0,0,100,0,48,336,24,24,0,-5,-41,0,0,100,0,72,336,24,24,0,-23,-50,0,0,100,0,0,488,48,48,0,-24,-57,0,0,100,0,168,80,56,48,1,-17,-57,0,0,100,0,128,0,32,32,1,-16,-42,0,0,100,0,0,360,32,32,0,-15,-33,0,0,100,0,120,392,40,40,0,-27,-34,0,0,100,0,0,320,16,16,0,-25,-38,0,0,100,0,0,336,24,24,0,-20,-39,0,0,100,0,24,336,24,24,0,-32,-41,0,0,100,0,0,432,64,56,0,-49,-92,0,0,100,0,0,176,64,112,0,-17,-48,0,0,100,0,168,32,56,48,1,-26,-55,0,0,100,0,168,128,56,48,1,-32,-20,0,0,65,0,960,0,64,32,0,
0,17,-20,-27,0,0,100,0,64,320,16,16,0,-21,-35,0,0,100,0,48,320,16,16,0,-19,-32,0,0,100,0,216,336,24,24,0,-12,-38,0,0,100,0,192,336,24,24,0,-43,-92,0,0,100,0,0,176,64,112,0,-25,-63,0,0,100,0,0,288,48,32,0,-24,-57,0,0,100,0,0,80,56,48,1,-17,-57,0,0,100,0,0,0,32,32,1,-27,-50,1,0,100,0,0,488,48,48,0,-18,-42,1,0,100,0,0,360,32,32,0,-27,-33,1,0,100,0,0,392,40,40,0,-34,-41,1,0,100,0,0,432,64,56,0,-24,-39,0,0,100,0,312,336,24,24,0,-20,-39,0,0,100,0,336,336,24,24,0,-17,-48,0,0,100,0,0,32,56,48,1,-24,-56,0,0,100,0,0,128,56,48,1,-33,-20,0,0,65,0,960,0,64,32,0,
0,17,-19,-41,0,0,100,0,48,320,16,16,0,-20,-33,0,0,100,0,64,320,16,16,0,-18,-36,0,0,100,0,264,336,24,24,0,-11,-38,0,0,100,0,288,336,24,24,0,-40,-98,0,0,100,0,64,176,64,112,0,-25,-63,0,0,100,0,0,288,48,32,0,-24,-57,0,0,100,0,0,80,56,48,1,-17,-57,0,0,100,0,0,0,32,32,1,-27,-50,1,0,100,0,0,488,48,48,0,-18,-42,1,0,100,0,0,360,32,32,0,-27,-33,1,0,100,0,0,392,40,40,0,-34,-41,1,0,100,0,0,432,64,56,0,-24,-44,1,0,100,0,312,336,24,24,0,-20,-40,0,0,100,0,336,336,24,24,0,-17,-48,0,0,100,0,0,32,56,48,1,-24,-56,0,0,100,0,0,128,56,48,1,-33,-20,0,0,65,0,960,0,64,32,0,
0,17,-19,-44,0,0,100,0,64,320,16,16,0,-18,-51,0,0,100,0,48,320,16,16,0,-18,-44,2,0,100,0,264,336,24,24,0,-10,-41,2,0,100,0,288,336,24,24,0,-39,-107,0,0,100,0,64,176,64,112,0,-23,-62,0,0,100,0,0,288,48,32,0,-22,-56,0,0,100,0,0,80,56,48,1,-15,-56,0,0,100,0,0,0,32,32,1,-27,-34,1,0,100,0,0,392,40,40,0,-27,-50,1,0,100,0,48,488,48,48,0,-17,-43,1,0,100,0,32,360,32,32,0,-33,-41,1,0,100,0,64,432,64,56,0,-22,-53,0,0,100,0,312,336,24,24,0,-18,-48,2,0,100,0,336,336,24,24,0,-17,-49,0,0,100,0,0,32,56,48,1,-22,-55,0,0,100,0,0,128,56,48,1,-33,-20,0,0,65,0,960,0,64,32,0,
0,19,-55,-46,0,1,100,0,816,304,96,56,0,-56,-45,0,1,100,0,920,304,104,64,0,-20,-26,0,0,100,0,64,320,16,16,0,-19,-31,0,0,100,0,216,336,24,24,0,-12,-38,0,0,100,0,192,336,24,24,0,-21,-34,0,0,100,0,48,320,16,16,0,-43,-91,0,0,100,0,0,176,64,112,0,-25,-63,0,0,100,0,0,288,48,32,0,-24,-57,0,0,100,0,0,80,56,48,1,-17,-57,0,0,100,0,0,0,32,32,1,-27,-50,1,0,100,0,0,488,48,48,0,-18,-42,1,0,100,0,0,360,32,32,0,-27,-33,1,0,100,0,0,392,40,40,0,-34,-41,1,0,100,0,0,432,64,56,0,-24,-38,0,0,100,0,312,336,24,24,0,-21,-39,0,0,100,0,336,336,24,24,0,-17,-48,0,0,100,0,0,32,56,48,1,-24,-56,0,0,100,0,0,128,56,48,1,-33,-20,0,0,65,0,960,0,64,32,0,
0,19,-55,-46,0,1,100,0,712,304,104,64,0,-56,-45,0,1,100,0,920,304,104,64,0,-20,-27,0,0,100,0,64,320,16,16,0,-19,-32,0,0,100,0,216,336,24,24,0,-12,-38,0,0,100,0,192,336,24,24,0,-21,-35,0,0,100,0,48,320,16,16,0,-43,-92,0,0,100,0,0,176,64,112,0,-25,-63,0,0,100,0,0,288,48,32,0,-24,-57,0,0,100,0,0,80,56,48,1,-17,-57,0,0,100,0,0,0,32,32,1,-27,-50,1,0,100,0,0,488,48,48,0,-18,-42,1,0,100,0,0,360,32,32,0,-27,-33,1,0,100,0,0,392,40,40,0,-34,-41,1,0,100,0,0,432,64,56,0,-24,-39,0,0,100,0,312,336,24,24,0,-21,-40,0,0,100,0,336,336,24,24,0,-17,-48,0,0,100,0,0,32,56,48,1,-24,-56,0,0,100,0,0,128,56,48,1,-33,-20,0,0,65,0,960,0,64,32,0,
0,19,-56,-46,0,1,100,0,608,304,104,64,0,-56,-45,0,1,100,0,920,304,104,64,0,-20,-27,0,0,100,0,64,320,16,16,0,-19,-32,0,0,100,0,216,336,24,24,0,-12,-38,0,0,100,0,192,336,24,24,0,-21,-35,0,0,100,0,48,320,16,16,0,-43,-92,0,0,100,0,0,176,64,112,0,-25,-63,0,0,100,0,0,288,48,32,0,-24,-57,0,0,100,0,0,80,56,48,1,-17,-57,0,0,100,0,0,0,32,32,1,-27,-50,1,0,100,0,0,488,48,48,0,-18,-42,1,0,100,0,0,360,32,32,0,-27,-33,1,0,100,0,0,392,40,40,0,-34,-41,1,0,100,0,0,432,64,56,0,-24,-39,0,0,100,0,312,336,24,24,0,-21,-40,0,0,100,0,336,336,24,24,0,-17,-48,0,0,100,0,0,32,56,48,1,-24,-56,0,0,100,0,0,128,56,48,1,-33,-20,0,0,65,0,960,0,64,32,0,
0,19,-55,-45,0,1,40,0,504,304,104,64,0,-56,-45,0,1,100,0,920,304,104,64,0,-20,-27,0,0,100,0,64,320,16,16,0,-19,-32,0,0,100,0,216,336,24,24,0,-12,-38,0,0,100,0,192,336,24,24,0,-21,-35,0,0,100,0,48,320,16,16,0,-43,-92,0,0,100,0,0,176,64,112,0,-25,-63,0,0,100,0,0,288,48,32,0,-24,-57,0,0,100,0,0,80,56,48,1,-17,-57,0,0,100,0,0,0,32,32,1,-27,-50,1,0,100,0,0,488,48,48,0,-18,-42,1,0,100,0,0,360,32,32,0,-27,-33,1,0,100,0,0,392,40,40,0,-34,-41,1,0,100,0,0,432,64,56,0,-24,-39,0,0,100,0,312,336,24,24,0,-21,-40,0,0,100,0,336,336,24,24,0,-17,-48,0,0,100,0,0,32,56,48,1,-24,-56,0,0,100,0,0,128,56,48,1,-33,-20,0,0,65,0,960,0,64,32,0,
0,18,-56,-45,0,1,100,0,920,304,104,64,0,-20,-27,0,0,100,0,64,320,16,16,0,-19,-32,0,0,100,0,216,336,24,24,0,-12,-38,0,0,100,0,192,336,24,24,0,-21,-35,0,0,100,0,48,320,16,16,0,-43,-92,0,0,100,0,0,176,64,112,0,-25,-63,0,0,100,0,0,288,48,32,0,-24,-57,0,0,100,0,0,80,56,48,1,-17,-57,0,0,100,0,0,0,32,32,1,-27,-50,1,0,100,0,0,488,48,48,0,-18,-42,1,0,100,0,0,360,32,32,0,-27,-33,1,0,100,0,0,392,40,40,0,-34,-41,1,0,100,0,0,432,64,56,0,-24,-39,0,0,100,0,312,336,24,24,0,-21,-40,0,0,100,0,336,336,24,24,0,-17,-48,0,0,100,0,0,32,56,48,1,-24,-56,0,0,100,0,0,128,56,48,1,-33,-20,0,0,65,0,960,0,64,32,0,
0,18,-56,-45,0,1,100,0,920,304,104,64,0,-20,-42,0,0,100,-90,48,320,16,16,0,-16,-36,0,0,100,0,64,320,16,16,0,-18,-40,0,0,100,0,120,336,24,24,0,-12,-38,0,0,100,0,192,336,24,24,0,-35,-98,0,0,100,0,128,176,64,112,0,-25,-63,0,0,100,0,0,288,48,32,0,-24,-57,0,0,100,0,0,80,56,48,1,-17,-57,0,0,100,0,0,0,32,32,1,-27,-50,1,0,100,0,0,488,48,48,0,-18,-42,1,0,100,0,0,360,32,32,0,-27,-33,1,0,100,0,0,392,40,40,0,-34,-41,1,0,100,0,0,432,64,56,0,-24,-41,0,0,100,270,264,336,24,24,0,-21,-36,0,0,100,0,336,336,24,24,0,-17,-48,0,0,100,0,0,32,56,48,1,-24,-56,0,0,100,0,0,128,56,48,1,-33,-20,0,0,65,0,960,0,64,32,0,
0,18,-55,-45,0,1,100,0,504,304,104,64,0,-27,-32,1,0,100,-270,48,320,16,16,0,-13,-28,0,0,100,90,64,320,16,16,0,-14,-35,0,0,100,0,240,336,24,24,0,-11,-39,0,0,100,0,192,336,24,24,0,-25,-63,0,0,100,0,0,288,48,32,0,-24,-57,0,0,100,0,0,80,56,48,1,-17,-57,0,0,100,0,32,0,32,32,1,-56,-50,0,0,100,-90,64,176,64,112,0,-27,-50,1,0,100,0,0,488,48,48,0,-18,-42,1,0,100,0,0,360,32,32,0,-27,-33,1,0,100,0,0,392,40,40,0,-34,-41,1,0,100,0,0,432,64,56,0,-29,-37,0,0,100,0,360,336,24,24,0,-20,-39,0,0,100,0,336,336,24,24,0,-17,-48,0,0,100,0,0,32,56,48,1,-24,-56,0,0,100,0,0,128,56,48,1,-33,-20,0,0,65,0,960,0,64,32,0,
0,18,-81,-104,0,1,100,0,880,368,144,144,0,-27,-32,1,0,100,-270,48,320,16,16,0,-13,-28,0,0,100,90,64,320,16,16,0,-14,-35,0,0,100,0,240,336,24,24,0,-11,-39,0,0,100,0,192,336,24,24,0,-25,-63,0,0,100,0,0,288,48,32,0,-24,-57,0,0,100,0,0,80,56,48,1,-17,-57,0,0,100,0,32,0,32,32,1,-56,-50,0,0,100,-90,64,176,64,112,0,-27,-50,1,0,100,0,0,488,48,48,0,-18,-42,1,0,100,0,0,360,32,32,0,-27,-33,1,0,100,0,0,392,40,40,0,-34,-41,1,0,100,0,0,432,64,56,0,-29,-37,0,0,100,0,360,336,24,24,0,-20,-39,0,0,100,0,336,336,24,24,0,-17,-48,0,0,100,0,0,32,56,48,1,-24,-56,0,0,100,0,0,128,56,48,1,-33,-20,0,0,65,0,960,0,64,32,0,
0,18,-82,-105,0,1,100,0,736,368,144,144,0,-27,-32,1,0,100,-270,48,320,16,16,0,-13,-28,0,0,100,90,64,320,16,16,0,-14,-35,0,0,100,0,240,336,24,24,0,-11,-39,0,0,100,0,192,336,24,24,0,-25,-63,0,0,100,0,0,288,48,32,0,-24,-57,0,0,100,0,0,80,56,48,1,-56,-50,0,0,100,-90,64,176,64,112,0,-17,-57,0,0,100,0,32,0,32,32,1,-27,-50,1,0,100,0,0,488,48,48,0,-18,-42,1,0,100,0,0,360,32,32,0,-27,-33,1,0,100,0,0,392,40,40,0,-34,-41,1,0,100,0,0,432,64,56,0,-29,-37,0,0,100,0,360,336,24,24,0,-20,-39,0,0,100,0,336,336,24,24,0,-17,-48,0,0,100,0,0,32,56,48,1,-24,-56,0,0,100,0,0,128,56,48,1,-33,-20,0,0,65,0,960,0,64,32,0,
0,18,-82,-104,0,1,100,0,592,368,144,144,0,-27,-32,1,0,100,-270,48,320,16,16,0,-13,-28,0,0,100,90,64,320,16,16,0,-14,-35,0,0,100,0,240,336,24,24,0,-11,-39,0,0,100,0,192,336,24,24,0,-25,-63,0,0,100,0,0,288,48,32,0,-24,-57,0,0,100,0,168,80,56,48,1,-56,-50,0,0,100,-90,64,176,64,112,0,-17,-57,0,0,100,0,32,0,32,32,1,-27,-50,1,0,100,0,0,488,48,48,0,-18,-42,1,0,100,0,0,360,32,32,0,-27,-33,1,0,100,0,120,392,40,40,0,-34,-41,1,0,100,0,0,432,64,56,0,-29,-37,0,0,100,0,360,336,24,24,0,-20,-39,0,0,100,0,336,336,24,24,0,-17,-48,0,0,100,0,0,32,56,48,1,-25,-56,0,0,100,0,168,128,56,48,1,-33,-20,0,0,65,0,960,0,64,32,0,
0,18,-79,-103,0,1,100,0,448,368,144,144,0,-27,-32,1,0,100,-270,48,320,16,16,0,-13,-28,0,0,100,90,64,320,16,16,0,-14,-35,0,0,100,0,240,336,24,24,0,-11,-39,0,0,100,0,192,336,24,24,0,-25,-63,0,0,100,0,0,288,48,32,0,-24,-57,0,0,100,0,112,80,56,48,1,-56,-50,0,0,100,-90,64,176,64,112,0,-17,-57,0,0,100,0,32,0,32,32,1,-27,-50,1,0,100,0,0,488,48,48,0,-18,-42,1,0,100,0,0,360,32,32,0,-27,-33,1,0,100,0,80,392,40,40,0,-34,-41,1,0,100,0,0,432,64,56,0,-29,-37,0,0,100,0,360,336,24,24,0,-20,-39,0,0,100,0,336,336,24,24,0,-17,-48,0,0,100,0,56,32,56,48,1,-24,-56,0,0,100,0,112,128,56,48,1,-33,-20,0,0,65,0,960,0,64,32,0,
0,18,-79,-103,0,1,100,0,880,512,144,144,0,-27,-32,1,0,100,-270,48,320,16,16,0,-13,-28,0,0,100,90,64,320,16,16,0,-14,-35,0,0,100,0,240,336,24,24,0,-11,-39,0,0,100,0,192,336,24,24,0,-25,-63,0,0,100,0,0,288,48,32,0,-24,-57,0,0,100,0,56,80,56,48,1,-56,-50,0,0,100,-90,64,176,64,112,0,-17,-57,0,0,100,0,32,0,32,32,1,-27,-50,1,0,100,0,0,488,48,48,0,-18,-42,1,0,100,0,0,360,32,32,0,-27,-33,1,0,100,0,40,392,40,40,0,-34,-41,1,0,100,0,0,432,64,56,0,-29,-37,0,0,100,0,360,336,24,24,0,-20,-39,0,0,100,0,336,336,24,24,0,-17,-48,0,0,100,0,112,32,56,48,1,-24,-56,0,0,100,0,56,128,56,48,1,-33,-20,0,0,65,0,960,0,64,32,0,
0,18,-79,-103,0,1,100,0,736,512,144,144,0,-27,-32,1,0,100,-270,48,320,16,16,0,-13,-28,0,0,100,90,64,320,16,16,0,-14,-35,0,0,100,0,240,336,24,24,0,-11,-39,0,0,100,0,192,336,24,24,0,-25,-63,0,0,100,0,0,288,48,32,0,-24,-57,0,0,100,0,0,80,56,48,1,-17,-57,0,0,100,0,32,0,32,32,1,-56,-50,0,0,100,-90,64,176,64,112,0,-27,-50,1,0,100,0,0,488,48,48,0,-18,-42,1,0,100,0,0,360,32,32,0,-27,-33,1,0,100,0,0,392,40,40,0,-34,-41,1,0,100,0,0,432,64,56,0,-29,-37,0,0,100,0,360,336,24,24,0,-20,-39,0,0,100,0,336,336,24,24,0,-17,-48,0,0,100,0,168,32,56,48,1,-24,-56,0,0,100,0,0,128,56,48,1,-33,-20,0,0,65,0,960,0,64,32,0,
0,18,-79,-103,0,1,100,0,592,512,144,144,0,-27,-32,1,0,100,-270,48,320,16,16,0,-13,-28,0,0,100,90,64,320,16,16,0,-14,-35,0,0,100,0,240,336,24,24,0,-11,-39,0,0,100,0,192,336,24,24,0,-25,-63,0,0,100,0,0,288,48,32,0,-24,-57,0,0,100,0,168,80,56,48,1,-17,-57,0,0,100,0,32,0,32,32,1,-56,-50,0,0,100,-90,64,176,64,112,0,-27,-50,1,0,100,0,0,488,48,48,0,-18,-42,1,0,100,0,0,360,32,32,0,-27,-33,1,0,100,0,120,392,40,40,0,-34,-41,1,0,100,0,0,432,64,56,0,-29,-37,0,0,100,0,360,336,24,24,0,-20,-39,0,0,100,0,336,336,24,24,0,-17,-48,0,0,100,0,0,32,56,48,1,-25,-56,0,0,100,0,168,128,56,48,1,-33,-20,0,0,65,0,960,0,64,32,0,
0,18,-79,-103,0,1,100,0,448,512,144,144,0,-27,-32,1,0,100,-270,48,320,16,16,0,-13,-28,0,0,100,90,64,320,16,16,0,-14,-35,0,0,100,0,240,336,24,24,0,-11,-39,0,0,100,0,192,336,24,24,0,-25,-63,0,0,100,0,0,288,48,32,0,-24,-57,0,0,100,0,112,80,56,48,1,-17,-57,0,0,100,0,32,0,32,32,1,-56,-50,0,0,100,-90,64,176,64,112,0,-27,-50,1,0,100,0,0,488,48,48,0,-18,-42,1,0,100,0,0,360,32,32,0,-27,-33,1,0,100,0,80,392,40,40,0,-34,-41,1,0,100,0,0,432,64,56,0,-29,-37,0,0,100,0,360,336,24,24,0,-20,-39,0,0,100,0,336,336,24,24,0,-17,-48,0,0,100,0,56,32,56,48,1,-24,-56,0,0,100,0,112,128,56,48,1,-33,-20,0,0,65,0,960,0,64,32,0,
0,18,-79,-103,0,1,100,0,880,656,144,144,0,-27,-32,1,0,100,-270,48,320,16,16,0,-13,-28,0,0,100,90,64,320,16,16,0,-14,-35,0,0,100,0,240,336,24,24,0,-11,-39,0,0,100,0,192,336,24,24,0,-25,-63,0,0,100,0,0,288,48,32,0,-24,-57,0,0,100,0,56,80,56,48,1,-17,-57,0,0,100,0,32,0,32,32,1,-56,-50,0,0,100,-90,64,176,64,112,0,-27,-50,1,0,100,0,0,488,48,48,0,-18,-42,1,0,100,0,0,360,32,32,0,-27,-33,1,0,100,0,40,392,40,40,0,-34,-41,1,0,100,0,0,432,64,56,0,-29,-37,0,0,100,0,360,336,24,24,0,-20,-39,0,0,100,0,336,336,24,24,0,-17,-48,0,0,100,0,112,32,56,48,1,-24,-56,0,0,100,0,56,128,56,48,1,-33,-20,0,0,65,0,960,0,64,32,0,
0,18,-79,-103,0,1,100,0,736,656,144,144,0,-27,-32,1,0,100,-270,48,320,16,16,0,-13,-28,0,0,100,90,64,320,16,16,0,-14,-35,0,0,100,0,240,336,24,24,0,-11,-39,0,0,100,0,192,336,24,24,0,-25,-63,0,0,100,0,0,288,48,32,0,-24,-57,0,0,100,0,0,80,56,48,1,-17,-57,0,0,100,0,32,0,32,32,1,-56,-50,0,0,100,-90,64,176,64,112,0,-27,-50,1,0,100,0,0,488,48,48,0,-18,-42,1,0,100,0,0,360,32,32,0,-27,-33,1,0,100,0,0,392,40,40,0,-34,-41,1,0,100,0,0,432,64,56,0,-29,-37,0,0,100,0,360,336,24,24,0,-20,-39,0,0,100,0,336,336,24,24,0,-17,-48,0,0,100,0,168,32,56,48,1,-24,-56,0,0,100,0,0,128,56,48,1,-33,-20,0,0,65,0,960,0,64,32,0,
0,18,-79,-105,0,1,100,0,592,656,144,144,0,-27,-32,1,0,100,-270,48,320,16,16,0,-13,-28,0,0,100,90,64,320,16,16,0,-14,-35,0,0,100,0,240,336,24,24,0,-11,-39,0,0,100,0,192,336,24,24,0,-25,-63,0,0,100,0,0,288,48,32,0,-56,-50,0,0,100,-90,64,176,64,112,0,-24,-57,0,0,100,0,112,80,56,48,1,-17,-57,0,0,100,0,32,0,32,32,1,-27,-50,1,0,100,0,0,488,48,48,0,-18,-42,1,0,100,0,0,360,32,32,0,-27,-33,1,0,100,0,80,392,40,40,0,-34,-41,1,0,100,0,0,432,64,56,0,-29,-37,0,0,100,0,360,336,24,24,0,-20,-39,0,0,100,0,336,336,24,24,0,-17,-48,0,0,100,0,0,32,56,48,1,-24,-56,0,0,100,0,112,128,56,48,1,-33,-20,0,0,65,0,960,0,64,32,0,
0,18,-78,-105,0,1,50,0,448,656,136,144,0,-27,-32,1,0,100,-270,48,320,16,16,0,-13,-28,0,0,100,90,64,320,16,16,0,-14,-35,0,0,100,0,240,336,24,24,0,-11,-39,0,0,100,0,192,336,24,24,0,-25,-63,0,0,100,0,0,288,48,32,0,-24,-57,0,0,100,0,168,80,56,48,1,-17,-57,0,0,100,0,32,0,32,32,1,-56,-50,0,0,100,-90,64,176,64,112,0,-27,-50,1,0,100,0,0,488,48,48,0,-18,-42,1,0,100,0,0,360,32,32,0,-27,-33,1,0,100,0,120,392,40,40,0,-34,-41,1,0,100,0,0,432,64,56,0,-29,-37,0,0,100,0,360,336,24,24,0,-20,-39,0,0,100,0,336,336,24,24,0,-17,-48,0,0,100,0,56,32,56,48,1,-26,-55,0,0,100,0,168,128,56,48,1,-33,-20,0,0,65,0,960,0,64,32,0,
0,18,-80,-105,0,1,30,0,880,800,144,144,0,-27,-32,1,0,100,-270,48,320,16,16,0,-13,-28,0,0,100,90,64,320,16,16,0,-14,-35,0,0,100,0,240,336,24,24,0,-11,-39,0,0,100,0,192,336,24,24,0,-25,-63,0,0,100,0,0,288,48,32,0,-24,-57,0,0,100,0,0,80,56,48,1,-17,-57,0,0,100,0,32,0,32,32,1,-56,-50,0,0,100,-90,64,176,64,112,0,-27,-50,1,0,100,0,0,488,48,48,0,-18,-42,1,0,100,0,0,360,32,32,0,-27,-33,1,0,100,0,0,392,40,40,0,-34,-41,1,0,100,0,0,432,64,56,0,-29,-37,0,0,100,0,360,336,24,24,0,-20,-39,0,0,100,0,336,336,24,24,0,-17,-48,0,0,100,0,112,32,56,48,1,-24,-56,0,0,100,0,0,128,56,48,1,-33,-20,0,0,65,0,960,0,64,32,0,
0,18,-80,-105,0,1,10,0,880,800,144,144,0,-27,-32,1,0,100,-270,48,320,16,16,0,-13,-28,0,0,100,90,64,320,16,16,0,-14,-35,0,0,100,0,240,336,24,24,0,-11,-39,0,0,100,0,192,336,24,24,0,-25,-63,0,0,100,0,0,288,48,32,0,-24,-57,0,0,100,0,0,80,56,48,1,-17,-57,0,0,100,0,32,0,32,32,1,-56,-50,0,0,100,-90,64,176,64,112,0,-27,-50,1,0,100,0,0,488,48,48,0,-18,-42,1,0,100,0,0,360,32,32,0,-27,-33,1,0,100,0,0,392,40,40,0,-34,-41,1,0,100,0,0,432,64,56,0,-29,-37,0,0,100,0,360,336,24,24,0,-20,-39,0,0,100,0,336,336,24,24,0,-17,-48,0,0,100,0,168,32,56,48,1,-24,-56,0,0,100,0,0,128,56,48,1,-33,-20,0,0,65,0,960,0,64,32,0,
0,17,-27,-32,1,0,100,-270,48,320,16,16,0,-13,-28,0,0,100,90,64,320,16,16,0,-14,-35,0,0,100,0,240,336,24,24,0,-11,-39,0,0,100,0,192,336,24,24,0,-25,-63,0,0,100,0,0,288,48,32,0,-24,-57,0,0,100,0,0,80,56,48,1,-17,-57,0,0,100,0,32,0,32,32,1,-56,-50,0,0,100,-90,64,176,64,112,0,-27,-50,1,0,100,0,0,488,48,48,0,-18,-42,1,0,100,0,0,360,32,32,0,-27,-33,1,0,100,0,0,392,40,40,0,-34,-41,1,0,100,0,0,432,64,56,0,-29,-37,0,0,100,0,360,336,24,24,0,-20,-39,0,0,100,0,336,336,24,24,0,-17,-48,0,0,100,0,0,32,56,48,1,-24,-56,0,0,100,0,0,128,56,48,1,-33,-20,0,0,65,0,960,0,64,32,0,
0,17,-25,-63,0,0,100,0,0,288,48,32,0,-24,-57,0,0,100,0,0,80,56,48,1,-17,-57,0,0,100,0,32,0,32,32,1,-23,-50,0,0,100,0,0,488,48,48,0,-27,-34,0,0,100,0,0,320,16,16,0,-25,-38,0,0,100,0,0,336,24,24,0,-20,-39,0,0,100,0,24,336,24,24,0,-49,-92,0,0,100,0,0,176,64,112,0,-15,-33,0,0,100,0,0,392,40,40,0,-16,-42,0,0,100,0,0,360,32,32,0,-32,-41,0,0,100,0,0,432,64,56,0,4,-37,0,0,100,0,16,320,16,16,0,-1,-42,1,0,100,0,120,336,24,24,0,-6,-39,1,0,100,0,192,336,24,24,0,-17,-48,0,0,100,0,0,32,56,48,1,-24,-56,0,0,100,0,0,128,56,48,1,-32,-20,0,0,65,0,960,0,64,32,0,
0,17,-25,-63,0,0,100,0,0,288,48,32,0,-24,-57,0,0,100,0,56,80,56,48,1,-17,-57,0,0,100,0,32,0,32,32,1,-23,-50,0,0,100,0,0,488,48,48,0,-27,-34,0,0,100,0,0,320,16,16,0,-25,-38,0,0,100,0,0,336,24,24,0,-20,-39,0,0,100,0,24,336,24,24,0,-49,-92,0,0,100,0,0,176,64,112,0,-15,-33,0,0,100,0,40,392,40,40,0,-16,-42,0,0,100,0,0,360,32,32,0,-32,-41,0,0,100,0,0,432,64,56,0,6,-40,1,0,100,0,32,320,16,16,0,0,-44,1,0,100,0,120,336,24,24,0,-8,-41,1,0,100,0,24,336,24,24,0,-17,-48,0,0,100,0,0,32,56,48,1,-24,-56,0,0,100,0,56,128,56,48,1,-32,-20,0,0,65,0,960,0,64,32,0,
0,17,-25,-63,0,0,100,0,0,288,48,32,0,-24,-57,0,0,100,0,112,80,56,48,1,-17,-57,0,0,100,0,32,0,32,32,1,-23,-50,0,0,100,0,0,488,48,48,0,-15,-33,0,0,100,0,80,392,40,40,0,-16,-42,0,0,100,0,0,360,32,32,0,-32,-41,0,0,100,0,0,432,64,56,0,10,-35,1,0,100,0,32,320,16,16,0,0,-39,1,0,100,0,168,336,24,24,0,-6,-41,1,0,100,0,144,336,24,24,0,-27,-34,0,0,100,0,0,320,16,16,0,-25,-38,0,0,100,0,0,336,24,24,0,-20,-39,0,0,100,0,24,336,24,24,0,-49,-92,0,0,100,0,0,176,64,112,0,-17,-48,0,0,100,0,0,32,56,48,1,-24,-56,0,0,100,0,112,128,56,48,1,-32,-20,0,0,65,0,960,0,64,32,0,
0,17,-25,-63,0,0,100,0,0,288,48,32,0,-24,-57,0,0,100,0,168,80,56,48,1,-17,-57,0,0,100,0,32,0,32,32,1,-23,-50,0,0,100,0,0,488,48,48,0,-27,-34,0,0,100,0,0,320,16,16,0,-25,-38,0,0,100,0,0,336,24,24,0,-20,-39,0,0,100,0,24,336,24,24,0,-49,-92,0,0,100,0,0,176,64,112,0,-15,-33,0,0,100,0,120,392,40,40,0,-16,-42,0,0,100,0,0,360,32,32,0,-32,-41,0,0,100,0,0,432,64,56,0,11,-32,1,0,100,0,32,320,16,16,0,1,-37,1,0,100,0,168,336,24,24,0,-7,-41,1,0,100,0,144,336,24,24,0,-17,-48,0,0,100,0,0,32,56,48,1,-26,-55,0,0,100,0,168,128,56,48,1,-32,-20,0,0,65,0,960,0,64,32,0,
0,16,-26,-63,0,0,100,0,0,288,48,32,0,-25,-57,0,0,100,0,0,80,56,48,1,-18,-57,0,0,100,0,32,0,32,32,1,-22,-50,0,0,100,0,48,488,48,48,0,-26,-34,0,0,100,0,0,320,16,16,0,-22,-38,0,0,100,0,168,336,24,24,0,-48,-92,0,0,100,0,0,176,64,112,0,-14,-33,0,0,100,0,40,392,40,40,0,-16,-42,0,0,100,0,32,360,32,32,0,-32,-41,0,0,100,0,64,432,64,56,0,10,-31,1,0,100,0,32,320,16,16,0,0,-36,1,0,100,0,168,336,24,24,0,-6,-40,1,0,100,0,192,336,24,24,0,-18,-48,0,0,100,0,0,32,56,48,1,-25,-56,0,0,100,0,0,128,56,48,1,-32,-20,0,0,65,0,960,0,64,32,0,
0,16,-26,-63,0,0,100,0,0,288,48,32,0,-25,-57,0,0,100,0,56,80,56,48,1,-18,-57,0,0,100,0,0,0,32,32,1,-22,-50,0,0,100,0,48,488,48,48,0,-26,-34,0,0,100,0,0,320,16,16,0,-22,-38,0,0,100,0,168,336,24,24,0,-48,-92,0,0,100,0,0,176,64,112,0,-14,-33,0,0,100,0,80,392,40,40,0,-16,-42,0,0,100,0,32,360,32,32,0,-32,-41,0,0,100,0,64,432,64,56,0,10,-31,1,0,100,0,32,320,16,16,0,0,-36,1,0,100,0,168,336,24,24,0,-6,-40,1,0,100,0,192,336,24,24,0,-18,-48,0,0,100,0,0,32,56,48,1,-25,-56,0,0,100,0,56,128,56,48,1,-32,-20,0,0,65,0,960,0,64,32,0,
0,16,-26,-63,0,0,100,0,0,288,48,32,0,-25,-57,0,0,100,0,112,80,56,48,1,-18,-57,0,0,100,0,64,0,32,32,1,-22,-50,0,0,100,0,48,488,48,48,0,-26,-34,0,0,100,0,0,320,16,16,0,-22,-38,0,0,100,0,168,336,24,24,0,-48,-92,0,0,100,0,0,176,64,112,0,-14,-33,0,0,100,0,120,392,40,40,0,-16,-42,0,0,100,0,32,360,32,32,0,-32,-41,0,0,100,0,64,432,64,56,0,10,-31,1,0,100,0,32,320,16,16,0,0,-36,1,0,100,0,168,336,24,24,0,-6,-40,1,0,100,0,192,336,24,24,0,-18,-48,0,0,100,0,56,32,56,48,1,-25,-56,0,0,100,0,112,128,56,48,1,-32,-20,0,0,65,0,960,0,64,32,0,
0,16,-26,-63,0,0,100,0,0,288,48,32,0,-25,-57,0,0,100,0,168,80,56,48,1,-18,-57,0,0,100,0,96,0,32,32,1,-22,-50,0,0,100,0,48,488,48,48,0,-26,-34,0,0,100,0,0,320,16,16,0,-22,-38,0,0,100,0,168,336,24,24,0,-48,-92,0,0,100,0,0,176,64,112,0,-14,-33,0,0,100,0,0,392,40,40,0,-16,-42,0,0,100,0,32,360,32,32,0,-32,-41,0,0,100,0,64,432,64,56,0,10,-31,1,0,100,0,32,320,16,16,0,0,-36,1,0,100,0,168,336,24,24,0,-6,-40,1,0,100,0,192,336,24,24,0,-18,-48,0,0,100,0,112,32,56,48,1,-27,-55,0,0,100,0,168,128,56,48,1,-32,-20,0,0,65,0,960,0,64,32,0,
0,16,-26,-63,0,0,100,0,0,288,48,32,0,-25,-57,0,0,100,0,0,80,56,48,1,-22,-50,0,0,100,0,48,488,48,48,0,-18,-57,0,0,100,0,128,0,32,32,1,-26,-34,0,0,100,0,0,320,16,16,0,-22,-38,0,0,100,0,168,336,24,24,0,-48,-92,0,0,100,0,0,176,64,112,0,-14,-33,0,0,100,0,40,392,40,40,0,-16,-42,0,0,100,0,32,360,32,32,0,-32,-41,0,0,100,0,64,432,64,56,0,10,-31,1,0,100,0,32,320,16,16,0,0,-36,1,0,100,0,168,336,24,24,0,-6,-40,1,0,100,0,192,336,24,24,0,-18,-48,0,0,100,0,168,32,56,48,1,-25,-56,0,0,100,0,0,128,56,48,1,-32,-20,0,0,65,0,960,0,64,32,0,
0,17,-27,-57,0,0,100,0,0,288,48,32,0,-26,-52,0,0,100,0,224,80,56,48,1,-19,-51,0,0,100,0,96,0,32,32,1,-22,-31,0,0,100,0,0,320,16,16,0,-49,-92,1,0,100,0,64,176,64,112,0,-26,-43,0,0,100,0,96,488,48,48,0,-16,-36,0,0,100,0,64,360,32,32,0,-23,-33,0,0,100,0,312,336,24,24,0,-19,-33,0,0,100,0,336,336,24,24,0,10,-29,0,0,100,0,80,320,16,16,0,0,-32,1,0,100,0,264,336,24,24,0,-7,-37,1,0,100,0,144,336,24,24,0,-13,-29,0,0,100,0,80,392,40,40,0,-26,-41,0,0,100,0,128,432,64,56,0,-19,-44,0,0,100,0,112,32,56,48,1,-25,-52,0,0,100,0,224,128,56,48,1,-24,-20,0,0,65,0,960,0,64,32,0,
