4,0,0,5,
5,0,0,4,
6,0,0,3,
7,0,0,4,
8,0,0,4,
9,0,0,3,
10,0,0,4,
11,0,0,5,
12,0,0,5,
5,0,0,4,
6,0,0,3,
7,0,0,4,
8,0,0,4,
9,0,0,3,
10,0,0,4,
11,0,0,10,
12,0,0,8,
32,0,0,4,
33,0,0,4,
34,0,0,4,
35,0,0,8,
13,0,0,8,
