0,2,-34,-61,0,0,100,0,0,0,80,64,0,-20,-10,0,0,65,0,320,0,40,16,0,
0,2,-34,-61,0,0,100,0,80,0,80,64,0,-20,-10,0,0,65,0,320,0,40,16,0,
0,2,-34,-61,0,0,100,0,160,0,80,64,0,-20,-10,0,0,65,0,320,0,40,16,0,
0,2,-34,-61,0,0,100,0,240,0,80,64,0,-20,-10,0,0,65,0,320,0,40,16,0,
0,3,10,-36,0,1,50,0,344,176,40,24,0,-34,-61,0,0,100,0,0,64,80,64,0,-20,-10,0,0,65,0,320,0,40,16,0,
0,3,11,-36,0,1,70,0,344,176,40,24,0,-34,-61,0,0,100,0,80,64,80,64,0,-20,-10,0,0,65,0,320,0,40,16,0,
0,3,11,-36,0,1,100,0,344,176,40,24,0,-32,-61,0,0,100,0,162,64,80,64,0,-20,-10,0,0,65,0,320,0,40,16,0,
0,2,-32,-61,0,0,100,0,242,64,80,64,0,-24,-10,0,0,65,0,320,0,40,16,0,
0,3,-162,-50,0,0,100,0,80,192,176,64,0,-45,-61,0,0,100,0,0,128,80,64,0,-24,-10,0,0,65,0,320,0,40,16,0,
0,3,-168,-56,0,0,100,0,80,256,152,56,0,-45,-61,0,0,100,0,80,128,80,64,0,-24,-10,0,0,65,0,320,0,40,16,0,
0,3,-135,-57,0,0,100,0,80,312,112,40,0,-45,-61,0,0,100,0,160,128,80,64,0,-24,-10,0,0,65,0,320,0,40,16,0,
0,2,-45,-61,0,0,100,0,240,128,80,64,0,-24,-10,0,0,65,0,320,0,40,16,0,
0,2,-34,-61,0,0,100,0,0,192,80,64,0,-20,-10,0,0,65,0,320,0,40,16,0,
0,2,-34,-62,0,0,100,0,0,384,80,64,0,-20,-10,0,0,65,0,320,0,40,16,0,
0,2,-34,-62,0,0,100,0,80,384,80,64,0,-19,-10,0,0,65,0,320,0,40,16,0,
0,2,-36,-62,0,0,100,0,160,384,80,64,0,-18,-10,0,0,65,0,320,0,40,16,0,
0,2,-36,-62,0,0,100,0,240,384,80,64,0,-18,-10,0,0,65,0,320,0,40,16,0,
0,2,-36,-62,0,0,100,0,320,384,80,64,0,-20,-10,0,0,65,0,320,0,40,16,0,
0,2,-36,-62,0,0,100,0,0,448,80,64,0,-20,-10,0,0,65,0,320,0,40,16,0,
0,2,-36,-62,0,0,100,0,80,448,80,64,0,-20,-10,0,0,65,0,320,0,40,16,0,
0,2,-36,-62,0,0,100,0,160,448,80,64,0,-20,-10,0,0,65,0,320,0,40,16,0,
0,2,-36,-62,0,0,100,0,240,448,80,64,0,-20,-10,0,0,65,0,320,0,40,16,0,
