0,5,10,-12,0,1,60,0,544,0,16,16,0,-33,-15,0,1,20,0,512,0,16,16,0,-17,-6,0,1,30,0,512,0,16,16,0,-78,-86,0,0,100,0,0,0,128,96,0,-24,-8,0,0,65,0,592,0,48,16,0,
0,4,9,-14,0,1,50,0,544,0,16,16,0,-19,-7,0,1,40,0,528,0,16,16,0,-78,-86,0,0,100,0,128,0,128,96,0,-24,-8,0,0,65,0,592,0,48,16,0,
0,5,8,-15,0,1,40,0,560,0,16,16,0,-22,-9,0,1,50,0,544,0,16,16,0,-78,-86,0,0,100,0,256,0,128,96,0,-17,-20,0,1,20,0,512,0,16,16,0,-24,-8,0,0,65,0,592,0,48,16,0,
0,6,7,-16,0,1,60,0,512,0,16,16,0,-29,-6,0,1,30,0,512,0,16,16,0,-24,-10,0,1,60,0,528,0,16,16,0,-78,-86,0,0,100,0,384,0,128,96,0,-17,-21,0,1,30,0,560,0,16,16,0,-24,-8,0,0,65,0,592,0,48,16,0,
0,6,6,-18,0,1,50,0,528,0,16,16,0,-30,-8,0,1,40,0,528,0,16,16,0,-26,-12,0,1,50,0,560,0,16,16,0,-78,-86,0,0,100,0,0,0,128,96,0,-17,-23,0,1,50,0,544,0,16,16,0,-24,-8,0,0,65,0,592,0,48,16,0,
0,7,7,-20,0,1,40,0,544,0,16,16,0,7,-7,0,1,30,0,512,0,16,16,0,-31,-10,0,1,50,0,544,0,16,16,0,-27,-13,0,1,30,0,512,0,16,16,0,-78,-86,0,0,100,0,128,0,128,96,0,-19,-24,0,1,80,0,528,0,16,16,0,-24,-8,0,0,65,0,592,0,48,16,0,
0,6,8,-22,0,1,30,0,560,0,16,16,0,8,-9,0,1,40,0,560,0,16,16,0,-32,-12,0,1,40,0,528,0,16,16,0,-78,-86,0,0,100,0,256,0,128,96,0,-18,-25,0,1,50,0,560,0,16,16,0,-24,-8,0,0,65,0,592,0,48,16,0,
0,6,9,-23,0,1,20,0,512,0,16,16,0,9,-10,0,1,50,0,528,0,16,16,0,-33,-14,0,1,30,0,560,0,16,16,0,-78,-86,0,0,100,0,384,0,128,96,0,-17,-25,0,1,30,0,512,0,16,16,0,-24,-8,0,0,65,0,592,0,48,16,0,
0,2,-78,-86,0,0,100,0,0,96,128,96,0,-14,-8,0,0,65,0,592,0,48,16,0,
0,2,-78,-86,0,0,100,0,128,96,128,96,0,-14,-8,0,0,65,0,592,0,48,16,0,
0,2,-78,-86,0,0,100,0,256,96,128,96,0,-14,-8,0,0,65,0,592,0,48,16,0,
0,2,-78,-86,0,0,100,0,384,96,128,96,0,-14,-8,0,0,65,0,592,0,48,16,0,
0,4,8,-15,0,1,40,0,560,0,16,16,0,-22,-9,0,1,50,0,544,0,16,16,0,-78,-86,0,0,100,0,0,192,128,96,0,-14,-8,0,0,65,0,592,0,48,16,0,
0,11,-110,-25,0,1,100,0,576,32,32,32,0,-114,-47,0,1,100,0,512,32,32,32,0,7,-53,0,0,100,0,560,0,16,16,0,-41,-58,0,0,100,0,512,0,16,16,0,-136,-16,0,0,100,0,528,0,16,16,0,-85,-47,0,0,100,0,544,0,16,16,0,-88,-86,0,1,80,0,128,192,128,96,0,-88,-86,0,0,100,0,128,192,128,96,0,-166,-59,0,0,100,0,0,672,224,80,0,-95,-55,0,1,100,0,544,32,32,32,0,-33,-8,0,0,65,0,592,0,48,16,0,
0,11,-104,-19,0,1,80,0,576,32,32,32,0,-104,-57,0,1,80,0,512,32,32,32,0,-87,-86,0,1,40,0,128,192,128,96,0,-87,-86,0,0,100,0,128,192,128,96,0,9,-53,0,0,50,0,560,0,16,16,0,-134,-15,0,0,100,0,528,0,16,16,0,-82,-47,0,0,100,0,528,0,16,16,0,-155,-36,0,0,100,0,224,672,192,32,0,-164,-59,0,1,80,0,0,672,224,80,0,-91,-56,0,1,60,0,544,32,32,32,0,-32,-8,0,0,65,0,592,0,48,16,0,
0,9,-100,-15,0,1,30,0,576,32,32,32,0,-98,-63,0,1,60,0,576,32,32,32,0,-87,-86,0,0,100,0,256,192,128,96,0,11,-53,0,0,30,0,512,0,16,16,0,-132,-14,0,0,100,0,512,0,16,16,0,-80,-47,0,0,100,0,560,0,16,16,0,-151,-36,0,1,50,0,224,672,192,32,0,-89,-57,0,1,30,0,544,32,32,32,0,-32,-8,0,0,65,0,592,0,48,16,0,
0,8,-98,-13,0,1,10,0,576,32,32,32,0,-94,-67,0,1,30,0,576,32,32,32,0,-87,-86,0,0,100,0,384,192,128,96,0,-131,-14,0,0,50,0,512,0,16,16,0,-78,-47,0,0,100,0,512,0,16,16,0,-148,-36,0,1,30,0,224,672,192,32,0,-87,-58,0,1,10,0,544,32,32,32,0,-28,-8,0,0,65,0,592,0,48,16,0,
0,4,-92,-68,0,1,10,0,576,32,32,32,0,-77,-47,0,0,40,0,512,0,16,16,0,-87,-86,0,0,100,0,0,288,128,96,0,-27,-8,0,0,65,0,592,0,48,16,0,
0,2,-87,-86,0,0,100,0,128,288,128,96,0,-27,-8,0,0,65,0,592,0,48,16,0,
0,6,-96,-66,0,1,100,0,512,32,32,32,0,-158,-69,0,1,100,0,224,704,208,96,0,-87,-86,0,1,60,0,256,288,128,96,0,-87,-86,0,0,100,0,256,288,128,96,0,-158,-69,0,0,100,0,224,704,208,96,0,-35,-8,0,0,65,0,592,0,48,16,0,
0,4,-93,-68,0,1,100,0,544,32,32,32,0,-87,-86,0,0,100,0,384,288,128,96,0,-158,-69,0,0,100,0,432,704,208,96,0,-34,-8,0,0,65,0,592,0,48,16,0,
0,4,-89,-70,0,1,100,0,576,32,32,32,0,-153,-71,0,0,100,0,512,576,128,96,0,-87,-86,0,0,100,0,0,384,128,96,0,-33,-8,0,0,65,0,592,0,48,16,0,
0,7,-114,-24,0,1,100,0,512,32,32,32,0,-85,-72,0,1,60,0,576,32,32,32,0,-144,-75,2,1,100,0,224,704,208,96,0,-144,-75,2,0,100,0,224,704,208,96,0,-87,-86,0,1,80,0,128,384,128,96,0,-87,-86,0,0,100,0,128,384,128,96,0,-33,-8,0,0,65,0,592,0,48,16,0,
0,5,-121,-26,0,1,100,0,544,32,32,32,0,-83,-73,0,1,30,0,576,32,32,32,0,-144,-75,2,0,100,0,432,704,208,96,0,-87,-86,0,0,100,0,128,384,128,96,0,-33,-8,0,0,65,0,592,0,48,16,0,
0,5,-128,-28,0,1,100,0,576,32,32,32,0,-81,-74,0,1,10,0,576,32,32,32,0,-143,-73,2,0,100,0,512,576,128,96,0,-87,-86,0,0,100,0,256,384,128,96,0,-33,-8,0,0,65,0,592,0,48,16,0,
0,3,-130,-30,0,1,60,0,576,32,32,32,0,-87,-86,0,0,100,0,384,384,128,96,0,-33,-8,0,0,65,0,592,0,48,16,0,
0,3,-132,-31,0,1,30,0,576,32,32,32,0,-87,-86,0,0,100,0,0,480,128,96,0,-35,-8,0,0,65,0,592,0,48,16,0,
0,3,-137,-34,0,1,10,0,576,32,32,32,0,-87,-86,0,0,100,0,128,480,128,96,0,-35,-8,0,0,65,0,592,0,48,16,0,
0,3,-87,-86,0,1,60,0,256,480,128,96,0,-87,-86,0,0,100,0,256,480,128,96,0,-35,-8,0,0,65,0,592,0,48,16,0,
0,10,-192,-303,0,1,100,0,0,800,176,352,0,-192,-303,0,0,100,0,0,800,176,352,0,-87,-86,0,1,80,0,384,480,128,96,0,-87,-87,0,1,30,0,384,480,128,96,0,-1,-23,0,1,20,0,512,0,16,16,0,-1,-10,0,1,50,0,528,0,16,16,0,-43,-14,0,1,30,0,560,0,16,16,0,-87,-86,0,0,100,0,384,480,128,96,0,-38,-137,0,1,50,-90,224,672,192,32,0,-35,-8,0,0,65,0,592,0,48,16,0,
0,8,-192,-303,0,1,80,0,176,800,176,352,0,-192,-303,0,0,100,0,176,800,176,352,0,0,-12,0,1,100,0,544,0,16,16,0,-43,-15,0,1,20,0,512,0,16,16,0,-27,-6,0,1,30,0,512,0,16,16,0,-87,-86,0,1,80,0,0,576,128,96,0,-87,-86,0,0,100,0,0,576,128,96,0,-35,-8,0,0,65,0,592,0,48,16,0,
0,7,-192,-303,0,1,50,0,352,800,176,352,0,-192,-303,0,0,100,0,352,800,176,352,0,-1,-14,0,1,100,0,544,0,16,16,0,-29,-7,0,1,40,0,528,0,16,16,0,-87,-86,0,1,40,0,128,576,128,96,0,-87,-86,0,0,100,0,128,576,128,96,0,-35,-8,0,0,65,0,592,0,48,16,0,
0,6,-192,-303,0,0,100,0,528,800,176,352,0,-2,-15,0,1,80,0,560,0,16,16,0,-32,-9,0,1,50,0,544,0,16,16,0,-87,-86,0,1,30,0,256,576,128,96,0,-87,-86,0,0,100,0,256,576,128,96,0,-35,-8,0,0,65,0,592,0,48,16,0,
0,6,-192,-303,0,0,100,0,0,1152,176,288,0,-3,-16,0,1,60,0,512,0,16,16,0,-39,-6,0,1,30,0,512,0,16,16,0,-34,-10,0,1,60,0,528,0,16,16,0,-87,-86,0,0,100,0,384,576,128,96,0,-35,-8,0,0,65,0,592,0,48,16,0,
0,6,-192,-303,0,0,100,0,176,1152,176,288,0,-4,-18,0,1,80,0,528,0,16,16,0,-40,-8,0,1,40,0,528,0,16,16,0,-36,-12,0,1,50,0,560,0,16,16,0,-87,-86,0,0,100,0,0,576,128,96,0,-35,-8,0,0,65,0,592,0,48,16,0,
0,7,-192,-303,0,0,100,0,352,1152,176,288,0,-3,-20,0,1,50,0,544,0,16,16,0,-3,-7,0,1,30,0,512,0,16,16,0,-41,-10,0,1,50,0,544,0,16,16,0,-37,-13,0,1,30,0,512,0,16,16,0,-87,-86,0,0,100,0,128,576,128,96,0,-35,-8,0,0,0,0,592,0,48,16,0,
0,5,-2,-22,0,1,30,0,560,0,16,16,0,-2,-9,0,1,40,0,560,0,16,16,0,-42,-12,0,1,40,0,528,0,16,16,0,-87,-86,0,0,100,0,256,576,128,96,0,-35,-8,0,0,65,0,592,0,48,16,0,
0,5,-1,-23,0,1,20,0,512,0,16,16,0,-1,-10,0,1,50,0,528,0,16,16,0,-43,-14,0,1,30,0,560,0,16,16,0,-87,-86,0,0,100,0,384,576,128,96,0,-35,-8,0,0,65,0,592,0,48,16,0,
0,2,-78,-86,0,0,100,0,512,480,128,96,0,-24,-8,0,0,65,0,592,0,48,16,0,
0,2,-78,-86,0,0,100,0,0,1440,128,96,0,-24,-8,0,0,65,0,592,0,48,16,0,
0,2,-78,-86,0,0,100,0,128,1440,128,96,0,-24,-8,0,0,65,0,592,0,48,16,0,
0,2,-78,-86,0,0,100,0,256,1440,128,96,0,-24,-8,0,0,65,0,592,0,48,16,0,
0,4,-78,-86,0,0,100,0,384,1440,128,96,0,-6,-63,0,0,100,0,512,1728,32,32,0,-14,-86,0,0,100,0,256,1728,64,96,0,-24,-8,0,0,65,0,592,0,48,16,0,
0,4,-78,-86,0,0,100,0,384,1440,128,96,0,-6,-63,0,0,100,0,544,1728,32,32,0,-14,-86,0,0,100,0,320,1728,64,96,0,-24,-8,0,0,65,0,592,0,48,16,0,
0,4,-78,-86,0,0,100,0,384,1440,128,96,0,-6,-63,0,0,100,0,576,1728,32,32,0,-14,-86,0,0,100,0,128,1728,64,96,0,-24,-8,0,0,65,0,592,0,48,16,0,
0,4,-78,-86,0,0,100,0,384,1440,128,96,0,-6,-63,0,0,100,0,608,1728,32,32,0,-14,-86,0,0,100,0,192,1728,64,96,0,-24,-8,0,0,65,0,592,0,48,16,0,
0,2,-78,-86,0,0,100,0,512,1440,128,96,0,-24,-8,0,0,65,0,592,0,48,16,0,
0,2,-78,-86,0,0,100,0,0,1536,128,96,0,-24,-8,0,0,65,0,592,0,48,16,0,
0,2,-78,-86,0,0,100,0,128,1536,128,96,0,-24,-8,0,0,65,0,592,0,48,16,0,
0,2,-78,-86,0,0,100,0,256,1536,128,96,0,-24,-8,0,0,65,0,592,0,48,16,0,
0,2,-78,-86,0,0,100,0,384,1536,128,96,0,-24,-8,0,0,65,0,592,0,48,16,0,
0,2,-78,-86,0,0,100,0,512,1536,128,96,0,-24,-8,0,0,65,0,592,0,48,16,0,
0,2,-78,-86,0,0,100,0,0,1632,128,96,0,-24,-8,0,0,65,0,592,0,48,16,0,
0,2,-78,-86,0,0,100,0,128,1632,128,96,0,-24,-8,0,0,65,0,592,0,48,16,0,
0,5,10,-12,0,1,60,0,544,0,16,16,0,-33,-15,0,1,20,0,512,0,16,16,0,-17,-6,0,1,30,0,512,0,16,16,0,-78,-86,0,0,100,0,256,1632,128,96,0,-24,-8,0,0,65,0,592,0,48,16,0,
0,4,9,-14,0,1,50,0,544,0,16,16,0,-19,-7,0,1,40,0,528,0,16,16,0,-78,-86,0,0,100,0,384,1632,128,96,0,-24,-8,0,0,65,0,592,0,48,16,0,
0,5,8,-15,0,1,40,0,560,0,16,16,0,-22,-9,0,1,50,0,544,0,16,16,0,-78,-86,0,0,100,0,512,1632,128,96,0,-17,-20,0,1,20,0,512,0,16,16,0,-24,-8,0,0,65,0,592,0,48,16,0,
0,6,7,-16,0,1,60,0,512,0,16,16,0,-29,-6,0,1,30,0,512,0,16,16,0,-24,-10,0,1,60,0,528,0,16,16,0,-78,-86,0,0,100,0,0,1728,128,96,0,-17,-21,0,1,30,0,560,0,16,16,0,-24,-8,0,0,65,0,592,0,48,16,0,
0,6,6,-18,0,1,50,0,528,0,16,16,0,-30,-8,0,1,40,0,528,0,16,16,0,-26,-12,0,1,50,0,560,0,16,16,0,-78,-86,0,0,100,0,256,1632,128,96,0,-17,-23,0,1,50,0,544,0,16,16,0,-24,-8,0,0,65,0,592,0,48,16,0,
0,7,7,-20,0,1,40,0,544,0,16,16,0,7,-7,0,1,30,0,512,0,16,16,0,-31,-10,0,1,50,0,544,0,16,16,0,-27,-13,0,1,30,0,512,0,16,16,0,-78,-86,0,0,100,0,384,1632,128,96,0,-19,-24,0,1,80,0,528,0,16,16,0,-24,-8,0,0,65,0,592,0,48,16,0,
0,6,8,-22,0,1,30,0,560,0,16,16,0,8,-9,0,1,40,0,560,0,16,16,0,-32,-12,0,1,40,0,528,0,16,16,0,-78,-86,0,0,100,0,512,1632,128,96,0,-18,-25,0,1,50,0,560,0,16,16,0,-24,-8,0,0,65,0,592,0,48,16,0,
0,6,9,-23,0,1,20,0,512,0,16,16,0,9,-10,0,1,50,0,528,0,16,16,0,-33,-14,0,1,30,0,560,0,16,16,0,-78,-86,0,0,100,0,0,1728,128,96,0,-17,-25,0,1,30,0,512,0,16,16,0,-24,-8,0,0,65,0,592,0,48,16,0,
0,4,1,-62,0,0,100,0,576,1728,32,32,0,-18,-88,0,0,100,0,192,1728,64,96,0,-78,-86,0,0,100,0,384,1728,128,96,0,-24,-8,0,0,65,0,592,0,48,16,0,
0,4,1,-62,0,0,100,0,608,1728,32,32,0,-18,-88,0,0,100,0,256,1728,64,96,0,-78,-86,0,0,100,0,384,1728,128,96,0,-24,-8,0,0,65,0,592,0,48,16,0,
0,4,1,-62,0,0,100,0,512,1728,32,32,0,-18,-88,0,0,100,0,320,1728,64,96,0,-78,-86,0,0,100,0,384,1728,128,96,0,-24,-8,0,0,65,0,592,0,48,16,0,
0,2,-78,-86,0,0,100,0,0,1824,128,96,0,-24,-8,0,0,65,0,592,0,48,16,0,
