5,0,0,3,
6,0,0,4,
7,0,0,7,
8,0,0,3,
9,0,0,4,
10,0,0,6,
11,0,0,10,
12,0,0,4,
13,0,0,3,
14,0,0,1,
15,0,0,1,
16,0,0,1,
17,0,0,1,
18,0,0,1,
15,0,0,1,
16,0,0,1,
17,0,0,1,
18,0,0,1,
15,0,0,1,
16,0,0,1,
17,0,0,1,
18,0,0,1,
19,0,0,4,
20,0,0,4,
21,0,0,6,
22,0,0,6,
23,0,0,9,
24,0,0,3,
25,0,0,3,
26,0,0,3,
27,0,0,6,
28,0,0,10,
29,0,0,4,
30,0,0,3,
31,0,0,3,
32,0,0,4,
33,0,0,6,
34,0,0,8,
35,0,0,1,
36,0,0,3,
37,0,0,4,
38,0,0,6,
39,0,0,10,
40,0,0,3,
