0,1,-32,-64,0,0,100,0,0,0,72,72,0,
0,4,-28,-55,0,0,100,0,136,0,32,32,1,-24,-64,0,0,100,0,0,72,72,72,0,-17,-48,0,0,100,0,328,104,32,32,1,-40,-16,0,0,65,0,840,0,80,32,0,
0,4,-29,-54,0,0,100,0,72,0,32,32,1,-32,-64,0,0,100,0,0,144,88,72,0,-21,-42,0,0,100,0,264,104,32,32,1,-41,-16,0,0,65,0,840,0,80,32,0,
0,4,-30,-53,0,0,100,0,104,0,32,32,1,-32,-64,0,0,100,0,88,144,88,72,0,-22,-41,0,0,100,0,296,104,32,32,1,-42,-16,0,0,65,0,840,0,80,32,0,
0,5,-24,-45,0,0,100,0,360,104,32,32,1,-40,-48,0,0,100,0,200,0,32,32,1,-48,-64,0,0,100,0,176,144,88,72,0,-104,-56,0,1,100,0,0,632,160,80,0,-44,-16,0,0,65,0,840,0,80,32,0,
0,5,-26,-45,0,0,100,0,392,80,32,32,1,-41,-47,0,0,100,0,200,0,32,32,1,-48,-64,0,0,100,0,264,144,88,72,0,-104,-56,0,1,100,0,0,712,160,80,0,-45,-16,0,0,65,0,840,0,80,32,0,
0,5,-26,-37,0,0,100,0,424,80,32,32,1,-41,-47,0,0,100,0,200,0,32,32,1,-48,-64,0,0,100,0,352,144,88,72,0,-88,-48,0,1,100,0,0,792,160,80,0,-45,-16,0,0,65,0,840,0,80,32,0,
0,5,-27,-46,0,0,100,0,456,80,32,32,1,-42,-48,0,0,100,0,200,0,32,32,1,8,-24,0,1,100,0,320,632,32,24,0,-48,-64,0,0,100,0,440,144,88,72,0,-45,-16,0,0,65,0,840,0,80,32,0,
0,6,-104,-88,0,1,100,0,160,632,144,112,0,-46,-48,0,0,100,0,168,0,32,32,1,-40,-48,0,0,100,0,488,80,32,32,1,-96,-72,0,0,100,0,304,928,40,72,0,-80,-64,0,0,100,0,528,144,88,72,0,-63,-16,0,0,65,0,840,0,80,32,0,
0,6,-104,-88,0,1,100,0,160,744,144,112,0,-47,-47,0,0,100,0,72,0,32,32,1,-41,-47,0,0,100,0,520,80,32,32,1,-80,-64,0,0,100,0,616,144,88,72,0,-128,-72,0,0,100,0,344,928,88,80,0,-63,-16,0,0,65,0,840,0,80,32,0,
0,6,-104,-88,0,1,100,0,160,856,144,112,0,-47,-47,0,0,100,0,72,0,32,32,1,-41,-47,0,0,100,0,552,80,32,32,1,-80,-64,0,0,100,0,704,144,88,72,0,-136,-88,0,0,100,0,432,928,96,96,0,-63,-16,0,0,65,0,840,0,80,32,0,
0,5,-47,-47,0,0,100,0,72,0,32,32,1,-41,-47,0,0,100,0,392,112,32,32,1,-80,-64,0,0,100,0,792,144,88,72,0,-139,-95,0,0,100,0,528,920,96,104,0,-63,-16,0,0,65,0,840,0,80,32,0,
0,5,-47,-47,0,0,100,0,72,0,32,32,1,-41,-47,0,0,100,0,424,112,32,32,1,-80,-64,0,0,100,0,880,144,88,72,0,-140,-95,0,0,100,0,624,920,96,104,0,-63,-16,0,0,65,0,840,0,80,32,0,
0,5,-47,-46,0,0,100,0,72,0,32,32,1,-41,-46,0,0,100,0,424,112,32,32,1,-80,-56,0,0,100,0,0,216,88,72,0,-140,-95,0,0,100,0,624,920,96,104,0,-63,-16,0,0,65,0,840,0,80,32,0,
0,5,-48,-47,0,0,100,0,104,0,32,32,1,-42,-48,0,0,100,0,424,112,32,32,1,-80,-56,0,0,100,0,88,216,88,72,0,-140,-95,0,0,100,0,624,920,96,104,0,-63,-16,0,0,65,0,840,0,80,32,0,
0,5,-47,-49,0,0,100,0,136,0,32,32,1,-41,-49,0,0,100,0,424,112,32,32,1,-80,-56,0,0,100,0,176,216,88,72,0,-140,-95,0,0,100,0,624,920,96,104,0,-63,-16,0,0,65,0,840,0,80,32,0,
0,5,-46,-50,0,0,100,0,136,0,32,32,1,-41,-48,0,0,100,0,424,112,32,32,1,-80,-56,0,0,100,0,264,216,88,72,0,-140,-95,0,0,100,0,624,920,96,104,0,-63,-16,0,0,65,0,840,0,80,32,0,
0,8,-104,-104,0,1,100,0,968,0,32,112,0,-104,-112,0,1,100,0,304,656,152,136,0,-16,-48,0,0,100,0,72,64,32,32,1,-28,-56,1,0,100,0,488,80,32,32,1,-48,-80,0,0,100,0,352,216,88,88,0,-140,-95,0,1,100,0,624,920,96,104,0,-140,-95,0,0,100,0,624,920,96,104,0,-53,-16,0,0,65,0,840,0,80,32,0,
0,8,-109,-153,0,1,100,0,968,112,48,184,0,-96,-112,0,1,100,0,304,792,152,136,0,-16,-48,0,0,100,0,104,64,32,32,1,-27,-55,1,0,100,0,520,80,32,32,1,-48,-80,0,0,100,0,440,216,104,88,0,-140,-95,0,1,50,0,624,920,96,104,0,-140,-95,0,0,100,0,624,920,96,104,0,-52,-16,0,0,65,0,840,0,80,32,0,
0,7,-92,-155,0,1,50,0,968,0,32,112,0,-96,-112,0,1,100,0,456,656,152,112,0,-16,-48,0,0,100,0,136,64,32,32,1,-27,-55,1,0,100,0,552,80,32,32,1,-48,-80,0,0,100,0,544,216,104,88,0,-140,-95,0,0,100,0,624,920,96,104,0,-52,-16,0,0,65,0,840,0,80,32,0,
0,6,-96,-112,0,1,100,0,456,768,152,112,0,-16,-48,0,0,100,0,168,64,32,32,1,-27,-50,0,0,100,0,456,112,32,32,1,-48,-80,0,0,100,0,648,216,104,88,0,-139,-88,0,0,100,0,720,920,96,104,0,-52,-16,0,0,65,0,840,0,80,32,0,
0,7,-152,-96,0,0,100,0,672,432,120,104,0,-16,-48,0,0,100,0,136,64,32,32,1,-32,-40,0,0,100,0,488,112,32,32,1,-48,-80,0,0,100,0,752,216,104,88,0,-139,-88,0,1,100,0,720,920,96,104,0,-139,-88,0,0,100,0,720,920,96,104,0,-52,-16,0,0,65,0,840,0,80,32,0,
0,7,-192,-152,0,0,100,0,792,432,208,152,0,-16,-48,0,0,100,0,104,64,32,32,1,-32,-40,0,0,100,0,488,112,32,32,1,-48,-80,0,0,100,0,856,216,104,88,0,-139,-88,0,1,50,0,720,920,96,104,0,-139,-88,0,1,50,0,720,920,96,104,0,-52,-16,0,0,65,0,840,0,80,32,0,
0,7,-16,-48,0,0,100,0,104,64,32,32,1,-32,-40,0,0,100,0,488,112,32,32,1,-48,-80,0,0,100,0,856,216,104,88,0,-139,-88,0,1,20,0,720,920,96,104,0,-216,-168,0,0,100,0,608,584,256,160,0,-139,-88,0,1,20,0,720,920,96,104,0,-52,-16,0,0,65,0,840,0,80,32,0,
0,6,-16,-48,0,0,100,0,104,64,32,32,1,-32,-40,0,0,100,0,488,112,32,32,1,-48,-80,0,0,100,0,856,216,104,88,0,-224,-160,0,0,100,0,608,744,288,168,0,-139,-88,0,1,10,0,720,920,96,104,0,-52,-16,0,0,65,0,840,0,80,32,0,
0,5,-16,-48,0,0,100,0,104,64,32,32,1,-32,-40,0,0,100,0,488,112,32,32,1,-224,-152,0,0,50,0,608,744,288,168,0,-48,-80,0,0,100,0,856,216,104,88,0,-52,-16,0,0,65,0,840,0,80,32,0,
0,4,-16,-48,0,0,100,0,104,64,32,32,1,-32,-40,0,0,100,0,488,112,32,32,1,-48,-80,0,0,100,0,856,216,104,88,0,-52,-16,0,0,65,0,840,0,80,32,0,
0,4,-16,-48,0,0,100,0,104,64,32,32,1,-32,-40,0,0,100,0,488,112,32,32,1,-48,-80,0,0,100,0,856,216,104,88,0,-52,-16,0,0,65,0,840,0,80,32,0,
0,4,-16,-48,0,0,100,0,104,64,32,32,1,-32,-40,0,0,100,0,488,112,32,32,1,-48,-80,0,0,100,0,856,216,104,88,0,-52,-16,0,0,65,0,840,0,80,32,0,
0,4,-16,-48,0,0,100,0,104,64,32,32,1,-32,-40,0,0,100,0,488,112,32,32,1,-48,-80,0,0,100,0,856,216,104,88,0,-52,-16,0,0,65,0,840,0,80,32,0,
0,5,-32,-8,0,0,100,0,864,728,32,16,0,-16,-64,0,0,100,0,72,0,32,32,1,-32,-64,0,0,100,0,864,584,72,72,0,-8,-48,0,0,100,0,200,104,32,32,1,-40,-16,0,0,65,0,840,0,80,32,0,
0,5,-32,-8,0,0,100,0,896,728,32,16,0,-16,-64,0,0,100,0,104,0,32,32,1,-32,-64,0,0,100,0,936,584,72,72,0,-8,-48,0,0,100,0,232,104,32,32,1,-40,-16,0,0,65,0,840,0,80,32,0,
0,5,-32,-8,0,0,100,0,928,728,32,16,0,-16,-64,0,0,100,0,136,0,32,32,1,-32,-64,0,0,100,0,864,656,72,72,0,-8,-48,0,0,100,0,264,104,32,32,1,-40,-16,0,0,65,0,840,0,80,32,0,
0,5,-32,-8,0,0,100,0,960,728,32,16,0,-16,-64,0,0,100,0,168,0,32,32,1,-32,-64,0,0,100,0,936,656,72,72,0,-8,-48,0,0,100,0,296,104,32,32,1,-40,-16,0,0,65,0,840,0,80,32,0,
0,5,-32,-8,0,0,100,0,864,728,32,16,0,-16,-64,0,0,100,0,72,0,32,32,1,-32,-64,0,0,100,0,864,584,72,72,0,-8,-48,0,0,100,0,200,104,32,32,1,-40,-16,0,0,65,0,840,0,80,32,0,
0,5,-32,-8,0,0,100,0,864,728,32,16,0,-16,-64,0,0,100,0,104,0,32,32,1,-32,-64,0,0,100,0,936,584,72,72,0,-8,-48,0,0,100,0,232,104,32,32,1,-40,-16,0,0,65,0,840,0,80,32,0,
0,5,-32,-8,0,0,100,0,864,728,32,16,0,-16,-64,0,0,100,0,136,0,32,32,1,-32,-64,0,0,100,0,864,656,72,72,0,-8,-48,0,0,100,0,264,104,32,32,1,-40,-16,0,0,65,0,840,0,80,32,0,
0,5,-32,-8,0,0,100,0,864,728,32,16,0,-16,-64,0,0,100,0,168,0,32,32,1,-32,-64,0,0,100,0,936,656,72,72,0,-8,-48,0,0,100,0,296,104,32,32,1,-40,-16,0,0,65,0,840,0,80,32,0,
0,6,-61,-93,0,1,100,0,280,0,64,96,0,-63,-57,0,0,100,0,536,0,48,48,0,-44,-92,0,0,100,0,0,432,88,96,0,-12,-60,0,0,100,0,72,96,32,32,1,-21,-48,1,0,100,0,296,104,32,32,1,-38,-16,0,0,65,0,840,0,80,32,0,
0,6,-52,-102,0,1,100,0,344,0,48,48,0,-75,-69,0,0,100,0,584,0,64,64,0,-52,-92,0,0,100,0,88,432,88,96,0,-11,-60,0,0,100,0,72,96,32,32,1,-23,-56,1,0,100,0,360,104,32,32,1,-37,-16,0,0,65,0,840,0,80,32,0,
0,6,-75,-75,0,1,100,0,648,64,64,64,0,-75,-75,0,0,100,0,584,0,64,64,0,-44,-92,0,0,100,0,176,432,88,96,0,-11,-60,0,0,100,0,72,96,32,32,1,-24,-53,1,0,100,0,392,80,32,32,1,-37,-16,0,0,65,0,840,0,80,32,0,
0,6,-75,-76,0,1,100,0,776,0,64,64,0,-75,-76,0,0,100,0,584,0,64,64,0,-52,-92,0,0,100,0,264,432,88,96,0,-11,-60,0,0,100,0,72,96,32,32,1,-19,-49,1,0,100,0,264,104,32,32,1,-37,-16,0,0,65,0,840,0,80,32,0,
0,6,-75,-76,0,1,100,0,712,0,64,64,0,-75,-76,0,0,100,0,584,0,64,64,0,-44,-92,0,0,100,0,352,432,88,96,0,-11,-60,0,0,100,0,72,96,32,32,1,-20,-47,1,0,100,0,296,104,32,32,1,-37,-16,0,0,65,0,840,0,80,32,0,
0,5,-75,-76,0,0,100,0,584,0,64,64,0,-52,-92,0,0,100,0,440,432,96,96,0,-11,-60,0,0,100,0,72,96,32,32,1,-20,-47,1,0,100,0,200,104,32,32,1,-37,-16,0,0,65,0,840,0,80,32,0,
0,6,-75,-76,0,0,100,0,584,0,64,64,0,6,-87,0,1,100,0,392,0,48,48,0,-14,-58,0,0,100,0,72,96,32,32,1,-33,-83,0,0,100,0,536,432,88,88,0,-23,-48,1,0,100,0,232,104,32,32,1,-38,-16,0,0,65,0,840,0,80,32,0,
0,7,-93,-89,0,1,100,0,0,288,96,104,0,-93,-89,0,0,100,0,0,288,96,104,0,-75,-72,0,1,100,0,440,0,96,80,0,-25,-56,0,0,100,0,72,0,32,32,1,-24,-62,3,0,100,0,264,104,32,32,1,-50,-81,0,0,100,0,0,528,88,88,0,-44,-16,0,0,65,0,840,0,80,32,0,
0,8,-57,-77,0,1,100,0,344,48,48,48,0,-111,-106,0,1,100,0,352,304,128,128,0,-111,-106,0,0,100,0,352,304,128,128,0,-93,-89,0,0,25,0,0,288,96,104,0,-26,-55,0,0,100,0,72,0,32,32,1,-15,-58,0,0,100,0,520,112,32,32,1,-51,-81,0,0,100,0,88,528,88,88,0,-45,-16,0,0,65,0,840,0,80,32,0,
0,7,-120,-116,0,1,100,0,96,288,128,144,0,-120,-116,0,0,100,0,96,288,128,144,0,-111,-106,0,0,25,0,352,304,128,128,0,-26,-55,0,0,100,0,72,0,32,32,1,-17,-55,0,0,100,0,552,112,32,32,1,-50,-81,0,0,100,0,176,528,88,88,0,-45,-16,0,0,65,0,840,0,80,32,0,
0,7,-122,-118,0,1,100,0,224,288,128,144,0,-122,-118,0,0,100,0,224,288,128,144,0,-120,-116,0,0,25,0,96,288,128,144,0,-26,-55,0,0,100,0,72,0,32,32,1,-20,-55,0,0,100,0,392,112,32,32,1,-51,-81,0,0,100,0,264,528,88,88,0,-45,-16,0,0,65,0,840,0,80,32,0,
0,6,-122,-118,0,1,15,0,224,288,128,144,0,-122,-118,0,0,15,0,224,288,128,144,0,-21,-64,0,0,100,0,72,0,32,32,1,-49,-81,0,0,100,0,352,528,88,88,0,-13,-49,0,0,100,0,296,104,32,32,1,-44,-16,0,0,65,0,840,0,80,32,0,
0,4,-13,-65,0,0,100,0,72,0,32,32,1,-48,-71,0,0,100,0,616,344,88,88,0,-24,-48,1,0,100,0,200,104,32,32,1,-40,-16,0,0,65,0,840,0,80,32,0,
0,4,-13,-65,0,0,100,0,104,0,32,32,1,-48,-71,0,0,100,0,704,344,88,88,0,-24,-50,1,0,100,0,232,104,32,32,1,-40,-16,0,0,65,0,840,0,80,32,0,
0,4,-13,-65,0,0,100,0,136,0,32,32,1,-48,-71,0,0,100,0,792,344,88,88,0,-23,-50,1,0,100,0,264,104,32,32,1,-40,-16,0,0,65,0,840,0,80,32,0,
0,4,-13,-65,0,0,100,0,168,0,32,32,1,-48,-71,0,0,100,0,880,344,88,88,0,-24,-48,1,0,100,0,296,104,32,32,1,-40,-16,0,0,65,0,840,0,80,32,0,
