0,5,-79,-43,0,1,80,0,672,0,96,48,0,-8,-64,0,1,80,0,384,0,48,48,0,-8,-64,0,1,20,0,432,48,48,48,0,-48,-80,0,0,100,0,0,0,96,96,0,-47,-16,0,0,100,0,576,64,96,32,0,
0,5,-79,-43,0,1,80,0,672,48,96,48,0,-8,-64,0,1,80,0,432,0,48,48,0,-8,-64,0,1,20,0,384,0,48,48,0,-48,-80,0,0,100,0,96,0,96,96,0,-47,-16,0,0,100,0,576,64,96,32,0,
0,5,-79,-42,0,1,80,0,672,96,96,48,0,-8,-64,0,1,80,0,384,48,48,48,0,-8,-64,0,1,20,0,432,0,48,48,0,-48,-80,0,0,100,0,192,0,96,96,0,-47,-16,0,0,100,0,576,64,96,32,0,
0,5,-79,-42,0,1,80,0,672,144,96,48,0,-8,-64,0,1,80,0,432,48,48,48,0,-8,-64,0,1,20,0,384,48,48,48,0,-48,-80,0,0,100,0,288,0,96,96,0,-47,-16,0,0,100,0,576,64,96,32,0,
0,0,
0,0,
0,0,
0,0,
0,2,-48,-80,0,0,100,0,480,0,96,48,0,-44,-16,0,0,50,0,576,96,96,32,0,
0,3,-6,-70,0,1,100,0,384,0,48,48,0,-48,-80,0,0,100,0,0,96,96,96,0,-44,-16,0,0,100,0,576,96,96,32,0,
0,3,-6,-65,0,1,100,0,432,0,48,48,0,-48,-80,0,0,100,0,96,96,96,96,0,-44,-16,0,0,100,0,576,96,96,32,0,
0,4,-48,-48,0,0,70,0,576,128,96,64,0,0,-56,0,1,100,0,480,48,48,48,0,-48,-80,0,0,100,0,192,96,96,96,0,-44,-16,0,0,100,0,576,96,96,32,0,
0,0,
0,4,-49,-47,0,0,20,0,576,128,96,64,0,-1,-56,0,1,100,0,528,48,48,48,0,-32,-80,0,0,100,0,288,96,96,96,0,-44,-16,0,0,100,0,576,64,96,32,0,
0,3,0,-64,0,1,100,0,576,0,48,48,0,-32,-80,0,0,100,0,384,96,96,96,0,-48,-16,0,0,100,0,576,64,96,32,0,
0,4,-48,-80,0,0,100,0,0,192,96,96,0,-144,-144,0,0,100,0,0,480,192,192,0,-48,-80,0,0,100,0,480,96,96,96,0,-55,-16,0,0,100,0,576,64,96,32,0,
0,4,-48,-80,0,0,100,0,96,192,96,96,0,-104,-112,0,0,90,0,192,480,192,96,0,-48,-77,0,0,100,0,480,96,96,96,0,-55,-16,0,0,100,0,576,64,96,32,0,
0,4,-48,-80,0,0,100,0,192,192,96,96,0,-48,-112,0,0,80,0,192,576,96,96,0,-47,-77,0,0,100,0,480,96,96,96,0,-55,-16,0,0,100,0,576,64,96,32,0,
0,4,-48,-80,0,0,100,0,288,192,96,96,0,-48,-112,0,0,80,0,288,576,96,96,0,-47,-77,0,0,100,0,480,96,96,96,0,-55,-16,0,0,100,0,576,64,96,32,0,
0,3,-48,-80,0,0,100,0,288,192,96,96,0,-47,-77,0,0,100,0,480,96,96,96,0,-55,-16,0,0,100,0,576,64,96,32,0,
0,0,
0,2,-48,-80,0,0,100,0,0,0,96,96,0,-48,-16,0,0,100,0,576,64,96,32,0,
0,3,-48,-80,0,1,100,0,384,192,96,96,0,-48,-80,0,0,100,0,0,288,96,96,0,-48,-16,0,0,100,0,576,64,96,32,0,
0,3,-48,-80,0,1,100,0,480,192,96,96,0,-48,-80,0,0,100,0,96,288,96,96,0,-48,-16,0,0,100,0,576,64,96,32,0,
0,3,-48,-80,0,1,100,0,576,192,96,96,0,-48,-80,0,0,100,0,192,288,96,96,0,-48,-16,0,0,100,0,576,64,96,32,0,
0,3,-48,-80,0,1,60,0,480,288,96,96,0,-48,-80,0,0,100,0,288,288,96,96,0,-48,-16,0,0,100,0,576,64,96,32,0,
0,2,-48,-80,0,0,100,0,384,288,96,96,0,-48,-16,0,0,100,0,576,64,96,32,0,
0,2,-48,-80,0,0,100,0,0,384,96,96,0,-48,-16,0,0,100,0,576,64,96,32,0,
0,2,-48,-80,0,0,100,0,96,384,96,96,0,-47,-16,0,0,100,0,576,64,96,32,0,
0,2,-48,-80,0,0,100,0,192,384,96,96,0,-47,-16,0,0,100,0,576,64,96,32,0,
0,0,
0,2,-48,-80,0,0,100,0,288,384,96,96,0,-47,-16,0,0,100,0,576,64,96,32,0,
0,2,-48,-80,0,0,100,0,384,384,96,96,0,-47,-16,0,0,100,0,576,64,96,32,0,
0,2,-48,-80,0,0,100,0,576,384,96,96,0,-47,-16,0,0,100,0,576,64,96,32,0,
0,2,-48,-80,0,0,100,0,480,384,96,96,0,-47,-16,0,0,100,0,576,64,96,32,0,
0,0,
0,3,-11,-59,0,1,100,0,384,0,48,48,0,-48,-80,0,0,100,0,384,480,96,96,0,-47,-16,0,0,100,0,576,64,96,32,0,
0,3,-14,-55,0,1,100,0,432,0,48,48,0,-48,-80,0,0,100,0,480,480,96,96,0,-47,-16,0,0,100,0,576,64,96,32,0,
0,3,-14,-55,0,1,100,0,384,48,48,48,0,-48,-80,0,0,100,0,576,480,96,96,0,-47,-16,0,0,100,0,576,64,96,32,0,
0,2,-48,-80,0,0,100,0,384,576,96,96,0,-47,-16,0,0,80,0,576,64,96,32,0,
0,2,-48,-80,0,0,50,0,480,576,96,96,0,-47,-16,0,0,20,0,576,64,96,32,0,
0,1,-47,-81,0,0,20,0,480,576,96,96,0,
0,1,-47,-81,0,0,0,0,576,576,96,96,0,
