0,20,-61,-54,0,0,100,0,280,0,120,80,0,-31,-54,0,0,100,0,0,40,40,40,0,-21,-44,0,0,100,0,0,120,40,40,0,-1,-64,0,0,100,0,160,200,40,40,0,9,-64,0,0,100,0,320,80,40,40,0,-61,-84,0,0,100,0,160,0,120,120,0,-21,-54,0,0,100,0,0,80,40,40,0,-11,-64,0,0,100,0,480,80,40,40,0,-41,-44,0,0,100,0,0,240,80,40,0,-11,-44,0,0,100,0,320,160,40,40,0,-21,-54,0,0,100,0,320,120,40,40,0,-21,-64,0,0,100,0,0,0,40,40,0,-21,-34,0,0,100,0,320,200,40,40,0,-21,-34,0,0,100,0,320,240,40,40,0,-21,-44,0,0,100,0,320,280,40,40,0,-31,-44,0,0,100,0,160,240,80,40,0,-11,-64,0,0,100,0,160,120,40,40,0,-11,-64,0,0,100,0,160,160,40,40,0,-41,-84,0,0,100,0,0,160,80,40,0,-25,-12,0,0,65,0,0,368,56,24,0,
0,20,-61,-55,0,0,100,0,400,0,120,80,0,-31,-54,0,0,100,0,0,40,40,40,0,-21,-45,0,0,100,0,0,120,40,40,0,-1,-65,0,0,100,0,160,200,40,40,0,9,-65,0,0,100,0,360,80,40,40,0,-61,-85,0,0,100,0,160,0,120,120,0,-21,-54,0,0,100,0,40,80,40,40,0,-11,-64,0,0,100,0,520,80,40,40,0,-41,-44,0,0,100,0,80,240,80,40,0,-11,-44,0,0,100,0,360,160,40,40,0,-21,-54,0,0,100,0,320,120,40,40,0,-21,-64,0,0,100,0,40,0,40,40,0,-21,-33,0,0,100,0,320,200,40,40,0,-21,-33,0,0,100,0,320,240,40,40,0,-21,-44,0,0,100,0,360,280,40,40,0,-31,-44,0,0,100,0,240,240,80,40,0,-11,-64,0,0,100,0,160,120,40,40,0,-11,-65,0,0,100,0,160,160,40,40,0,-41,-84,0,0,100,0,80,160,80,40,0,-25,-12,0,0,65,0,0,368,56,24,0,
0,20,-61,-56,0,0,100,0,520,0,120,80,0,-31,-55,0,0,100,0,0,40,40,40,0,-21,-46,0,0,100,0,0,120,40,40,0,-1,-66,0,0,100,0,160,200,40,40,0,9,-66,0,0,100,0,400,80,40,40,0,-61,-86,0,0,100,0,160,0,120,120,0,-21,-55,0,0,100,0,40,80,40,40,0,-11,-65,0,0,100,0,560,80,40,40,0,-41,-45,0,0,100,0,0,280,80,40,0,-11,-45,0,0,100,0,400,160,40,40,0,-21,-55,0,0,100,0,320,120,40,40,0,-21,-65,0,0,100,0,80,0,40,40,0,-21,-34,0,0,100,0,360,200,40,40,0,-21,-34,0,0,100,0,320,240,40,40,0,-21,-45,0,0,100,0,400,280,40,40,0,-31,-45,0,0,100,0,160,280,80,40,0,-11,-65,0,0,100,0,160,120,40,40,0,-11,-66,0,0,100,0,160,160,40,40,0,-41,-85,0,0,100,0,0,200,80,40,0,-25,-12,0,0,65,0,0,368,56,24,0,
0,20,-61,-55,0,0,100,0,640,0,120,80,0,-31,-55,0,0,100,0,0,40,40,40,0,-21,-45,0,0,100,0,0,120,40,40,0,-1,-65,0,0,100,0,160,200,40,40,0,9,-65,0,0,100,0,440,80,40,40,0,-61,-85,0,0,100,0,160,0,120,120,0,-21,-55,0,0,100,0,0,80,40,40,0,-11,-65,0,0,100,0,600,80,40,40,0,-41,-45,0,0,100,0,80,280,80,40,0,-11,-45,0,0,100,0,440,160,40,40,0,-21,-55,0,0,100,0,320,120,40,40,0,-21,-65,0,0,100,0,120,0,40,40,0,-21,-35,0,0,100,0,360,200,40,40,0,-21,-35,0,0,100,0,320,240,40,40,0,-21,-45,0,0,100,0,440,280,40,40,0,-31,-45,0,0,100,0,240,280,80,40,0,-11,-65,0,0,100,0,160,120,40,40,0,-11,-65,0,0,100,0,160,160,40,40,0,-41,-85,0,0,100,0,80,200,80,40,0,-25,-12,0,0,65,0,0,368,56,24,0,
0,18,-26,-48,0,0,100,0,200,160,40,40,0,-34,-20,0,0,100,0,320,80,40,40,0,-50,-102,3,0,100,0,160,0,120,120,0,-35,-49,0,0,100,0,0,40,40,40,0,-25,-49,0,0,100,0,0,80,40,40,0,-15,-59,0,0,100,0,480,80,40,40,0,-45,-39,0,0,100,0,0,240,80,40,0,-15,-39,0,0,100,0,320,160,40,40,0,-25,-49,0,0,100,0,320,120,40,40,0,-25,-59,0,0,100,0,0,0,40,40,0,-25,-28,0,0,100,0,320,200,40,40,0,-15,-36,0,0,100,0,360,240,40,40,0,-25,-39,0,0,100,0,320,280,40,40,0,-35,-39,0,0,100,0,160,240,80,40,0,-15,-59,0,0,100,0,160,120,40,40,0,-16,-51,0,0,100,0,200,200,40,40,0,-24,-61,0,0,100,0,320,400,80,40,0,-25,-12,0,0,65,0,0,368,56,24,0,
0,17,-18,-51,0,0,100,0,120,120,40,40,0,-20,-51,0,0,100,0,40,120,40,40,0,-21,-15,0,0,100,0,600,120,40,40,0,-26,-126,0,0,100,0,640,80,40,160,0,-24,-50,0,0,100,0,240,120,40,40,0,-20,-62,0,0,100,0,80,320,40,40,0,-37,-34,0,0,100,0,160,320,80,40,0,-14,-39,0,0,100,0,320,160,40,40,0,-33,-54,0,0,100,0,0,40,40,40,0,-23,-50,0,0,100,0,360,120,40,40,0,-6,-33,0,0,100,0,400,240,40,40,0,-27,-34,0,0,100,0,400,200,40,40,0,-23,-39,0,0,100,0,320,280,40,40,0,-37,-34,0,0,100,0,240,320,80,40,0,-13,-59,0,0,100,0,160,120,40,40,0,-3,-66,0,0,100,0,440,320,40,80,0,-25,-12,0,0,65,0,0,344,56,24,0,
0,18,-98,-158,0,1,25,0,0,480,200,160,0,-17,-49,0,0,100,0,120,120,40,40,0,-20,-47,0,0,100,0,40,120,40,40,0,-21,-11,0,0,100,0,560,120,40,40,0,-26,-122,0,0,100,0,640,80,40,160,0,-24,-47,0,0,100,0,240,120,40,40,0,-20,-61,0,0,100,0,80,320,40,40,0,-37,-34,0,0,100,0,160,320,80,40,0,-14,-38,0,0,100,0,320,160,40,40,0,-33,-53,0,0,100,0,0,40,40,40,0,-23,-49,0,0,100,0,360,120,40,40,0,-6,-33,0,0,100,0,400,240,40,40,0,-27,-34,0,0,100,0,400,200,40,40,0,-23,-39,0,0,100,0,320,280,40,40,0,-37,-34,0,0,100,0,240,320,80,40,0,-13,-59,0,0,100,0,160,120,40,40,0,-8,-65,0,0,100,0,320,320,40,80,0,-25,-12,0,0,65,0,0,344,56,24,0,
0,19,-100,-158,0,1,100,0,952,0,184,144,0,-100,-158,0,1,50,0,0,480,200,160,0,-21,-56,0,0,100,0,40,120,40,40,0,-22,-20,0,0,100,0,520,120,40,40,0,-27,-131,0,0,100,0,640,80,40,160,0,-24,-54,0,0,100,0,240,120,40,40,0,-29,-55,0,0,100,0,0,40,40,40,0,-16,-63,0,0,100,0,80,320,40,40,0,-35,-35,0,0,100,0,160,360,80,40,0,-12,-40,0,0,100,0,320,160,40,40,0,-20,-51,0,0,100,0,360,120,40,40,0,-5,-33,0,0,100,0,440,240,40,40,0,-25,-34,0,0,100,0,440,200,40,40,0,-22,-40,0,0,100,0,320,280,40,40,0,-35,-35,0,0,100,0,240,360,80,40,0,-10,-60,0,0,100,0,160,120,40,40,0,-4,-54,0,0,100,0,80,120,40,40,0,-4,-67,0,0,100,0,360,320,40,80,0,-24,-12,0,0,65,0,0,344,56,24,0,
0,19,-36,-136,0,1,100,0,864,400,64,96,0,-60,-138,0,1,100,0,680,136,104,104,0,-84,-158,0,1,50,0,200,480,160,160,0,-22,-69,0,0,100,0,40,120,40,40,0,-23,-33,0,0,100,0,480,120,40,40,0,-28,-144,0,0,100,0,640,80,40,160,0,-23,-67,0,0,100,0,80,80,40,40,0,-15,-65,0,0,100,0,80,320,40,40,0,-35,-36,0,0,100,0,160,360,80,40,0,-12,-41,0,0,100,0,320,160,40,40,0,-19,-53,0,0,100,0,360,120,40,40,0,-5,-33,0,0,100,0,440,240,40,40,0,-24,-34,0,0,100,0,440,200,40,40,0,-22,-41,0,0,100,0,320,280,40,40,0,-35,-36,0,0,100,0,240,360,80,40,0,-10,-61,0,0,100,0,160,120,40,40,0,-3,-55,0,0,100,0,80,120,40,40,0,-3,-69,0,0,100,0,400,320,40,80,0,-24,-12,0,0,65,0,0,344,56,24,0,
0,20,-42,-146,0,1,100,0,928,400,64,96,0,-36,-140,0,1,100,0,784,136,64,104,0,-64,-178,0,1,50,0,360,480,120,160,0,-21,-70,0,0,100,0,40,120,40,40,0,-22,-34,0,0,100,0,480,120,40,40,0,-27,-145,0,0,100,0,640,80,40,160,0,-23,-68,0,0,100,0,120,80,40,40,0,-15,-65,0,0,100,0,80,320,40,40,0,-35,-36,0,0,100,0,160,360,80,40,0,-12,-41,0,0,100,0,320,160,40,40,0,-19,-53,0,0,100,0,360,120,40,40,0,-5,-33,0,0,100,0,440,240,40,40,0,-24,-34,0,0,100,0,440,200,40,40,0,-22,-41,0,0,100,0,320,280,40,40,0,-35,-36,0,0,100,0,240,360,80,40,0,-10,-61,0,0,100,0,160,120,40,40,0,-3,-54,0,0,100,0,80,120,40,40,0,-3,-69,0,0,100,0,400,320,40,80,0,-40,-136,0,1,100,0,560,400,64,96,0,-24,-12,0,0,65,0,0,344,56,24,0,
0,18,-49,-167,0,1,100,0,480,480,80,112,0,-21,-70,0,0,100,0,40,120,40,40,0,-22,-34,0,0,100,0,520,120,40,40,0,-27,-145,0,0,100,0,640,80,40,160,0,-23,-68,0,0,100,0,120,80,40,40,0,-15,-65,0,0,100,0,80,320,40,40,0,-35,-36,0,0,100,0,160,360,80,40,0,-12,-41,0,0,100,0,320,160,40,40,0,-19,-53,0,0,100,0,360,120,40,40,0,-5,-33,0,0,100,0,440,240,40,40,0,-24,-34,0,0,100,0,440,200,40,40,0,-22,-41,0,0,100,0,320,280,40,40,0,-35,-36,0,0,100,0,240,360,80,40,0,-10,-61,0,0,100,0,160,120,40,40,0,-3,-54,0,0,100,0,80,120,40,40,0,-3,-69,0,0,100,0,360,320,40,80,0,-36,-136,0,1,100,0,624,400,64,96,0,-24,-12,0,0,65,0,0,344,56,24,0,
0,17,-81,-90,0,1,100,0,560,496,104,72,0,-10,-57,0,0,100,0,80,40,40,40,0,-12,-57,0,0,100,0,40,40,40,40,0,-19,-62,0,0,100,0,80,320,40,40,0,-36,-34,0,0,100,0,160,320,80,40,0,-21,-39,1,0,100,0,320,160,40,40,0,-15,-50,1,0,100,0,360,120,40,40,0,-6,-33,0,0,100,0,440,240,40,40,0,-27,-34,0,0,100,0,400,200,40,40,0,-13,-39,1,0,100,0,320,280,40,40,0,-36,-34,0,0,100,0,240,320,80,40,0,-7,-66,0,0,100,0,320,320,40,80,0,-22,-58,0,0,100,0,160,120,40,40,0,-34,-58,0,0,100,0,200,120,40,40,0,-81,-105,2,0,100,0,160,0,120,120,0,-72,-106,0,1,100,0,688,400,80,96,0,-25,-12,0,0,65,0,0,344,56,24,0,
0,17,-66,-80,0,1,100,0,664,496,104,72,0,-16,-53,0,0,100,0,80,40,40,40,0,-13,-54,0,0,100,0,40,40,40,40,0,-19,-59,0,0,100,0,80,320,40,40,0,-35,-31,0,0,100,0,0,400,80,40,0,-20,-36,1,0,100,0,320,160,40,40,0,-14,-47,1,0,100,0,360,120,40,40,0,-12,-32,0,0,100,0,520,240,40,40,0,-29,-34,0,0,100,0,520,200,40,40,0,-11,-36,1,0,100,0,320,280,40,40,0,-35,-31,0,0,100,0,80,400,80,40,0,-2,-63,0,0,100,0,480,400,40,80,0,-20,-55,0,0,100,0,160,120,40,40,0,8,-46,1,0,100,0,440,80,40,40,0,-87,-56,0,0,100,0,480,280,160,40,0,-78,-70,0,1,100,0,832,336,96,64,0,-25,-12,0,0,65,0,0,344,56,24,0,
0,17,-72,-70,0,1,100,0,768,496,104,72,0,-14,-51,0,0,100,0,80,40,40,40,0,-10,-51,0,0,100,0,40,40,40,40,0,-15,-57,0,0,100,0,120,320,40,40,0,-32,-30,0,0,100,0,0,440,80,40,0,-18,-34,1,0,100,0,320,160,40,40,0,-15,-38,0,0,100,0,400,128,40,40,0,-10,-32,0,0,100,0,520,240,40,40,0,-26,-34,0,0,100,0,520,200,40,40,0,-8,-34,1,0,100,0,320,280,40,40,0,-32,-30,0,0,100,0,80,440,80,40,0,3,-61,0,0,100,0,520,400,40,80,0,-21,-55,0,0,100,0,160,120,40,40,0,17,-43,1,0,100,0,600,120,40,40,0,-78,-53,0,0,100,0,480,280,160,40,0,-72,-60,0,1,100,0,928,336,96,64,0,-23,-12,0,0,65,0,0,344,56,24,0,
0,17,-69,-59,0,1,100,0,872,496,72,72,0,-14,-50,0,0,100,0,120,40,40,40,0,-9,-49,0,0,100,0,40,40,40,40,0,-12,-55,0,0,100,0,120,320,40,40,0,-29,-30,0,0,100,0,0,440,80,40,0,-15,-33,1,0,100,0,320,160,40,40,0,-12,-36,0,0,100,0,400,128,40,40,0,-8,-32,0,0,100,0,560,240,40,40,0,-25,-34,0,0,100,0,560,200,40,40,0,-5,-32,1,0,100,0,320,280,40,40,0,-29,-30,0,0,100,0,80,440,80,40,0,2,-59,0,0,100,0,320,320,40,80,0,-18,-53,0,0,100,0,160,120,40,40,0,26,-39,1,0,100,0,560,120,40,40,0,-69,-49,0,0,100,0,480,280,160,40,0,-66,-60,0,1,100,0,1024,336,96,64,0,-22,-12,0,0,65,0,0,344,56,24,0,
0,17,-68,-60,0,1,100,0,944,496,72,72,0,-14,-51,0,0,100,0,120,40,40,40,0,-8,-49,0,0,100,0,40,40,40,40,0,-11,-55,0,0,100,0,120,320,40,40,0,-28,-30,0,0,100,0,0,440,80,40,0,-14,-33,1,0,100,0,320,160,40,40,0,-11,-36,0,0,100,0,400,128,40,40,0,-6,-32,0,0,100,0,560,240,40,40,0,-25,-34,0,0,100,0,560,200,40,40,0,-4,-32,1,0,100,0,320,280,40,40,0,-28,-30,0,0,100,0,80,440,80,40,0,3,-59,0,0,100,0,360,320,40,80,0,-17,-53,0,0,100,0,160,120,40,40,0,28,-39,1,0,100,0,520,120,40,40,0,-67,-49,0,0,100,0,480,280,160,40,0,-62,-66,0,1,100,0,768,400,96,96,0,-21,-12,0,0,65,0,0,344,56,24,0,
0,17,-41,-106,0,1,100,0,760,0,64,136,0,-82,-82,0,1,100,0,848,144,104,96,0,-16,-54,0,0,100,0,80,40,40,40,0,-15,-54,0,0,100,0,40,40,40,40,0,-21,-58,0,0,100,0,80,320,40,40,0,-38,-31,0,0,100,0,160,320,80,40,0,-23,-36,1,0,100,0,320,160,40,40,0,-17,-46,1,0,100,0,360,120,40,40,0,-8,-33,0,0,100,0,440,240,40,40,0,-27,-34,0,0,100,0,400,200,40,40,0,-15,-36,1,0,100,0,320,280,40,40,0,-38,-31,0,0,100,0,240,320,80,40,0,-20,-57,0,0,100,0,400,400,80,40,0,-24,-55,0,0,100,0,160,120,40,40,0,26,-39,0,0,100,0,600,120,40,40,0,-74,-49,0,0,100,0,480,280,160,40,0,-27,-12,0,0,65,0,0,344,56,24,0,
0,23,-129,-87,0,1,100,0,0,800,120,120,0,-89,-33,2,1,100,0,560,568,104,72,0,-111,-96,0,1,100,0,560,568,104,72,0,-27,-106,0,1,100,0,824,0,64,136,0,-158,-82,0,1,100,0,952,144,184,96,0,-27,-55,0,0,100,0,480,80,40,40,0,-37,-55,0,0,100,0,0,0,40,40,0,-49,-34,0,0,100,0,160,440,80,40,0,-25,-36,0,0,100,0,320,160,40,40,0,-44,-46,0,0,100,0,280,120,40,40,0,-36,-45,0,0,100,0,320,120,40,40,0,-24,-33,0,0,100,0,360,240,40,40,0,-37,-34,0,0,100,0,440,200,40,40,0,-25,-36,1,0,100,0,320,280,40,40,0,-49,-34,0,0,100,0,240,440,80,40,0,-27,-56,0,0,100,0,160,120,40,40,0,-25,-46,0,0,100,0,280,80,40,40,0,-51,-45,0,0,100,0,240,160,40,40,0,-14,-47,0,0,100,0,480,160,40,40,0,-122,-46,0,0,100,0,480,280,160,40,0,-46,-45,0,0,100,0,280,160,40,40,0,-28,-70,0,0,100,0,480,320,80,40,0,-34,-12,0,0,65,0,0,344,56,24,0,
0,30,-225,-129,0,1,100,0,0,640,160,160,0,-182,-95,0,1,100,0,0,800,120,120,0,-169,-67,0,1,100,0,0,800,120,120,0,-129,-87,0,1,100,0,120,800,120,120,0,-153,-37,2,1,100,0,560,568,104,72,0,-186,-98,0,1,100,0,560,568,104,72,0,-95,-36,2,1,100,0,560,568,104,72,0,-116,-100,0,1,100,0,560,568,104,72,0,-89,-33,2,1,100,0,664,568,104,72,0,-111,-96,0,1,100,0,664,568,104,72,0,-1,-106,0,1,100,0,888,0,64,136,0,-229,-76,0,1,100,0,640,240,264,96,0,-31,-53,0,0,100,0,520,80,40,40,0,-41,-53,0,0,100,0,40,0,40,40,0,-60,-36,0,0,100,0,80,280,80,40,0,-29,-34,0,0,100,0,360,160,40,40,0,-48,-45,0,0,100,0,280,120,40,40,0,-40,-43,0,0,100,0,320,120,40,40,0,-25,-33,0,0,100,0,600,240,40,40,0,-40,-34,0,0,100,0,480,200,40,40,0,-29,-34,1,0,100,0,320,280,40,40,0,-50,-37,0,0,100,0,240,280,80,40,0,-31,-54,0,0,100,0,160,120,40,40,0,-25,-47,0,0,100,0,280,80,40,40,0,-57,-45,0,0,100,0,240,160,40,40,0,-20,-47,0,0,100,0,520,160,40,40,0,-128,-46,0,0,100,0,480,280,160,40,0,-52,-45,0,0,100,0,280,160,40,40,0,-32,-68,0,0,100,0,560,320,80,40,0,-37,-12,0,0,65,0,0,344,56,24,0,
0,34,-295,-139,0,1,100,0,0,640,160,160,0,-259,-113,0,1,100,0,0,640,160,160,0,-225,-129,0,1,100,0,160,640,160,160,0,-193,-98,0,1,100,0,0,800,120,120,0,-212,-85,0,1,100,0,0,800,120,120,0,-182,-95,0,1,100,0,120,800,120,120,0,-169,-67,0,1,100,0,120,800,120,120,0,-129,-87,0,1,100,0,240,800,120,120,0,-278,-90,0,1,100,0,560,568,104,72,0,-153,-37,2,1,100,0,664,568,104,72,0,-186,-98,0,1,100,0,664,568,104,72,0,-95,-36,2,1,100,0,664,568,104,72,0,-116,-100,0,1,100,0,664,568,104,72,0,-89,-33,2,1,100,0,768,568,104,72,0,-111,-96,0,1,100,0,768,568,104,72,0,-297,-76,0,1,100,0,904,240,232,96,0,-31,-53,0,0,100,0,480,80,40,40,0,-41,-53,0,0,100,0,0,0,40,40,0,-60,-36,0,0,100,0,0,240,80,40,0,-29,-34,0,0,100,0,400,160,40,40,0,-48,-45,0,0,100,0,280,120,40,40,0,-40,-43,0,0,100,0,320,120,40,40,0,-25,-33,0,0,100,0,600,240,40,40,0,-40,-34,0,0,100,0,480,200,40,40,0,-29,-34,1,0,100,0,320,280,40,40,0,-50,-37,0,0,100,0,160,240,80,40,0,-31,-54,0,0,100,0,160,120,40,40,0,-25,-48,0,0,100,0,280,80,40,40,0,-58,-45,0,0,100,0,240,160,40,40,0,-21,-47,0,0,100,0,560,160,40,40,0,-129,-46,0,0,100,0,480,280,160,40,0,-53,-45,0,0,100,0,280,160,40,40,0,-32,-68,0,0,100,0,480,360,80,40,0,-37,-12,0,0,65,0,0,344,56,24,0,
0,33,-295,-139,0,1,100,0,160,640,160,160,0,-259,-113,0,1,100,0,160,640,160,160,0,-225,-129,0,1,100,0,320,640,160,160,0,-251,-109,0,1,100,0,0,800,120,120,0,-193,-98,0,1,100,0,120,800,120,120,0,-212,-85,0,1,100,0,120,800,120,120,0,-182,-95,0,1,100,0,240,800,120,120,0,-169,-67,0,1,100,0,240,800,120,120,0,-129,-87,0,1,100,0,360,800,120,120,0,-278,-90,0,1,100,0,664,568,104,72,0,-153,-37,2,1,100,0,768,568,104,72,0,-186,-98,0,1,100,0,768,568,104,72,0,-95,-36,2,1,100,0,768,568,104,72,0,-116,-100,0,1,100,0,768,568,104,72,0,-327,-56,0,1,100,0,640,336,192,64,0,-31,-53,0,0,100,0,520,80,40,40,0,-41,-53,0,0,100,0,40,0,40,40,0,-60,-36,0,0,100,0,80,240,80,40,0,-29,-34,0,0,100,0,440,160,40,40,0,-48,-45,0,0,100,0,280,120,40,40,0,-40,-43,0,0,100,0,320,120,40,40,0,-25,-33,0,0,100,0,600,240,40,40,0,-40,-34,0,0,100,0,480,200,40,40,0,-29,-34,1,0,100,0,320,280,40,40,0,-50,-37,0,0,100,0,240,240,80,40,0,-31,-54,0,0,100,0,160,120,40,40,0,-25,-48,0,0,100,0,280,80,40,40,0,-58,-45,0,0,100,0,240,160,40,40,0,-21,-47,0,0,100,0,600,160,40,40,0,-129,-46,0,0,100,0,480,280,160,40,0,-53,-45,0,0,100,0,280,160,40,40,0,-32,-68,0,0,100,0,560,360,80,40,0,-37,-12,0,0,65,0,0,344,56,24,0,
0,27,-295,-139,0,1,100,0,320,640,160,160,0,-259,-113,0,1,100,0,320,640,160,160,0,-225,-129,0,1,100,0,480,640,160,160,0,-251,-109,0,1,100,0,120,800,120,120,0,-193,-98,0,1,100,0,240,800,120,120,0,-212,-85,0,1,100,0,240,800,120,120,0,-182,-95,0,1,100,0,360,800,120,120,0,-169,-67,0,1,100,0,360,800,120,120,0,-278,-90,0,1,100,0,768,568,104,72,0,-31,-53,0,0,100,0,560,80,40,40,0,-41,-53,0,0,100,0,80,0,40,40,0,-60,-36,0,0,100,0,0,280,80,40,0,-29,-34,0,0,100,0,320,160,40,40,0,-48,-45,0,0,100,0,280,120,40,40,0,-40,-43,0,0,100,0,320,120,40,40,0,-25,-33,0,0,100,0,600,240,40,40,0,-40,-34,0,0,100,0,480,200,40,40,0,-29,-34,1,0,100,0,320,280,40,40,0,-50,-37,0,0,100,0,160,280,80,40,0,-31,-54,0,0,100,0,160,120,40,40,0,-25,-48,0,0,100,0,280,80,40,40,0,-58,-45,0,0,100,0,240,160,40,40,0,-21,-47,0,0,100,0,480,160,40,40,0,-129,-46,0,0,100,0,480,280,160,40,0,-53,-45,0,0,100,0,280,160,40,40,0,-32,-68,0,0,100,0,480,320,80,40,0,-37,-12,0,0,65,0,0,344,56,24,0,
0,24,-295,-139,0,1,100,0,480,640,160,160,0,-259,-113,0,1,100,0,480,640,160,160,0,-225,-129,0,1,100,0,640,640,160,160,0,-251,-109,0,1,100,0,240,800,120,120,0,-193,-98,0,1,100,0,360,800,120,120,0,-212,-85,0,1,100,0,360,800,120,120,0,-31,-53,0,0,100,0,600,80,40,40,0,-41,-53,0,0,100,0,120,0,40,40,0,-60,-36,0,0,100,0,80,280,80,40,0,-29,-34,0,0,100,0,360,160,40,40,0,-48,-45,0,0,100,0,280,120,40,40,0,-40,-43,0,0,100,0,320,120,40,40,0,-25,-33,0,0,100,0,600,240,40,40,0,-40,-34,0,0,100,0,480,200,40,40,0,-29,-34,1,0,100,0,320,280,40,40,0,-50,-37,0,0,100,0,240,280,80,40,0,-31,-54,0,0,100,0,160,120,40,40,0,-25,-48,0,0,100,0,280,80,40,40,0,-58,-45,0,0,100,0,240,160,40,40,0,-21,-47,0,0,100,0,520,160,40,40,0,-129,-46,0,0,100,0,480,280,160,40,0,-53,-45,0,0,100,0,280,160,40,40,0,-32,-68,0,0,100,0,560,320,80,40,0,-37,-12,0,0,65,0,0,344,56,24,0,
0,22,-295,-139,0,1,100,0,640,640,160,160,0,-259,-113,0,1,100,0,640,640,160,160,0,-225,-129,0,1,100,0,800,640,160,160,0,-251,-109,0,1,100,0,360,800,120,120,0,-31,-53,0,0,100,0,480,80,40,40,0,-41,-53,0,0,100,0,0,0,40,40,0,-60,-36,0,0,100,0,0,240,80,40,0,-29,-34,0,0,100,0,400,160,40,40,0,-48,-45,0,0,100,0,280,120,40,40,0,-40,-43,0,0,100,0,320,120,40,40,0,-25,-33,0,0,100,0,600,240,40,40,0,-40,-34,0,0,100,0,480,200,40,40,0,-29,-34,1,0,100,0,320,280,40,40,0,-50,-37,0,0,100,0,160,240,80,40,0,-31,-54,0,0,100,0,160,120,40,40,0,-25,-48,0,0,100,0,280,80,40,40,0,-58,-45,0,0,100,0,240,160,40,40,0,-21,-47,0,0,100,0,560,160,40,40,0,-129,-46,0,0,100,0,480,280,160,40,0,-53,-45,0,0,100,0,280,160,40,40,0,-32,-68,0,0,100,0,480,360,80,40,0,-37,-12,0,0,65,0,0,344,56,24,0,
0,20,-295,-139,0,1,100,0,800,640,160,160,0,-259,-113,0,1,100,0,800,640,160,160,0,-31,-53,0,0,100,0,520,80,40,40,0,-41,-53,0,0,100,0,40,0,40,40,0,-60,-36,0,0,100,0,80,240,80,40,0,-29,-34,0,0,100,0,440,160,40,40,0,-48,-45,0,0,100,0,280,120,40,40,0,-40,-43,0,0,100,0,320,120,40,40,0,-25,-33,0,0,100,0,600,240,40,40,0,-40,-34,0,0,100,0,480,200,40,40,0,-29,-34,1,0,100,0,320,280,40,40,0,-50,-37,0,0,100,0,240,240,80,40,0,-31,-54,0,0,100,0,160,120,40,40,0,-25,-48,0,0,100,0,280,80,40,40,0,-58,-45,0,0,100,0,240,160,40,40,0,-21,-47,0,0,100,0,600,160,40,40,0,-129,-46,0,0,100,0,480,280,160,40,0,-53,-45,0,0,100,0,280,160,40,40,0,-32,-68,0,0,100,0,560,360,80,40,0,-37,-12,0,0,65,0,0,344,56,24,0,
0,18,-31,-53,0,0,100,0,560,80,40,40,0,-41,-53,0,0,100,0,80,0,40,40,0,-60,-36,0,0,100,0,0,280,80,40,0,-29,-34,0,0,100,0,320,160,40,40,0,-48,-45,0,0,100,0,280,120,40,40,0,-40,-43,0,0,100,0,320,120,40,40,0,-25,-33,0,0,100,0,600,240,40,40,0,-40,-34,0,0,100,0,480,200,40,40,0,-29,-34,1,0,100,0,320,280,40,40,0,-50,-37,0,0,100,0,160,280,80,40,0,-31,-54,0,0,100,0,160,120,40,40,0,-25,-48,0,0,100,0,280,80,40,40,0,-58,-45,0,0,100,0,240,160,40,40,0,-21,-47,0,0,100,0,480,160,40,40,0,-129,-46,0,0,100,0,480,280,160,40,0,-53,-45,0,0,100,0,280,160,40,40,0,-32,-68,0,0,100,0,480,320,80,40,0,-37,-12,0,0,65,0,0,344,56,24,0,
0,18,-31,-53,0,0,100,0,600,80,40,40,0,-41,-53,0,0,100,0,120,0,40,40,0,-60,-36,0,0,100,0,80,280,80,40,0,-29,-34,0,0,100,0,360,160,40,40,0,-48,-45,0,0,100,0,280,120,40,40,0,-40,-43,0,0,100,0,320,120,40,40,0,-25,-33,0,0,100,0,600,240,40,40,0,-40,-34,0,0,100,0,480,200,40,40,0,-29,-34,1,0,100,0,320,280,40,40,0,-50,-37,0,0,100,0,240,280,80,40,0,-31,-54,0,0,100,0,160,120,40,40,0,-25,-47,0,0,100,0,280,80,40,40,0,-57,-43,0,0,100,0,240,160,40,40,0,-20,-45,0,0,100,0,520,160,40,40,0,-128,-44,0,0,100,0,480,280,160,40,0,-52,-44,0,0,100,0,280,160,40,40,0,-32,-68,0,0,100,0,560,320,80,40,0,-37,-12,0,0,65,0,0,344,56,24,0,
0,18,-27,-55,0,0,100,0,480,80,40,40,0,-37,-55,0,0,100,0,0,0,40,40,0,-56,-38,0,0,100,0,0,240,80,40,0,-25,-36,0,0,100,0,320,160,40,40,0,-46,-48,0,0,100,0,0,40,40,40,0,-36,-41,0,0,100,0,40,88,40,40,0,-36,-45,0,0,100,0,320,120,40,40,0,-24,-33,0,0,100,0,360,240,40,40,0,-37,-34,0,0,100,0,440,200,40,40,0,-25,-36,1,0,100,0,320,280,40,40,0,-46,-39,0,0,100,0,160,240,80,40,0,-27,-56,0,0,100,0,160,120,40,40,0,-19,-51,0,0,100,0,80,120,40,40,0,-41,-37,0,0,100,0,240,160,40,40,0,-12,-28,0,0,100,0,600,120,40,40,0,-112,-38,0,0,100,0,480,280,160,40,0,-40,-56,0,0,100,0,320,400,80,40,0,-34,-12,0,0,65,0,0,344,56,24,0,
0,20,-61,-55,0,0,50,0,640,0,120,80,0,-31,-50,0,0,100,0,0,40,40,40,0,-23,-38,0,0,100,0,0,120,40,40,0,-3,-58,0,0,100,0,160,200,40,40,0,7,-58,0,0,100,0,440,80,40,40,0,-63,-78,0,0,100,0,160,0,120,120,0,-22,-50,0,0,100,0,0,80,40,40,0,-11,-60,0,0,100,0,600,80,40,40,0,-41,-40,0,0,100,0,80,280,80,40,0,-11,-40,0,0,100,0,440,160,40,40,0,-21,-50,0,0,100,0,320,120,40,40,0,-21,-60,0,0,100,0,120,0,40,40,0,-21,-30,0,0,100,0,360,200,40,40,0,-21,-30,0,0,100,0,320,240,40,40,0,-21,-40,0,0,100,0,440,280,40,40,0,-31,-40,0,0,100,0,240,280,80,40,0,-11,-60,0,0,100,0,160,120,40,40,0,-12,-59,0,0,100,0,160,160,40,40,0,-41,-60,2,0,100,0,80,200,80,40,0,-26,-12,0,0,65,0,0,368,56,24,0,
0,3,-75,-39,0,0,100,0,400,1000,80,48,0,-40,-72,0,0,100,0,0,920,80,80,0,-25,-12,0,0,65,0,0,344,56,24,0,
0,2,-40,-72,0,0,100,0,80,920,80,80,0,-25,-12,0,0,65,0,0,344,56,24,0,
0,3,51,-57,0,0,50,0,480,1000,32,32,0,-42,-72,1,0,100,0,80,920,80,80,0,-25,-12,0,0,65,0,0,344,56,24,0,
0,3,35,-44,0,0,100,0,480,1000,32,32,0,-40,-72,0,0,100,0,160,920,80,80,0,-25,-12,0,0,65,0,0,344,56,24,0,
0,3,22,-34,0,0,100,0,480,1000,32,32,0,-40,-72,0,0,100,0,160,920,80,80,0,-25,-12,0,0,65,0,0,344,56,24,0,
0,3,13,-28,0,0,100,0,512,1000,32,32,0,-40,-72,0,0,100,0,160,920,80,80,0,-25,-12,0,0,65,0,0,344,56,24,0,
0,3,3,-31,0,0,100,0,544,1000,32,32,0,-40,-72,0,0,100,0,160,920,80,80,0,-25,-12,0,0,65,0,0,344,56,24,0,
0,3,-3,-27,0,0,100,0,576,1000,32,32,0,-40,-72,0,0,100,0,240,920,80,80,0,-25,-12,0,0,65,0,0,344,56,24,0,
0,3,-7,-30,0,0,100,0,608,1000,32,32,0,-40,-72,0,0,100,0,320,920,80,80,0,-25,-12,0,0,65,0,0,344,56,24,0,
0,2,-40,-72,0,0,100,0,400,920,80,80,0,-25,-12,0,0,65,0,0,344,56,24,0,
0,2,-40,-72,0,0,100,0,480,920,80,80,0,-25,-12,0,0,65,0,0,344,56,24,0,
0,2,-40,-72,0,0,100,0,560,920,80,80,0,-25,-12,0,0,65,0,0,344,56,24,0,
0,2,-40,-72,0,0,100,0,640,920,80,80,0,-25,-12,0,0,65,0,0,344,56,24,0,
0,2,-40,-72,0,0,100,0,720,920,80,80,0,-25,-12,0,0,65,0,0,344,56,24,0,
0,2,-40,-72,0,0,100,0,800,920,80,80,0,-25,-12,0,0,65,0,0,344,56,24,0,
0,2,-40,-72,0,0,100,0,880,920,80,80,0,-25,-12,0,0,65,0,0,344,56,24,0,
0,3,-63,-29,0,0,100,0,640,1000,32,32,0,-40,-72,0,0,100,0,0,1000,80,80,0,-25,-12,0,0,65,0,0,344,56,24,0,
0,3,-70,-28,0,0,100,0,672,1000,32,32,0,-40,-72,0,0,100,0,80,1000,80,80,0,-25,-12,0,0,65,0,0,344,56,24,0,
0,3,-82,-30,0,0,100,0,704,1000,32,32,0,-40,-72,0,0,100,0,240,1000,80,80,0,-25,-12,0,0,65,0,0,344,56,24,0,
0,3,-85,-33,0,0,50,0,704,1000,32,32,0,-40,-72,0,0,100,0,320,1000,80,80,0,-25,-12,0,0,65,0,0,344,56,24,0,
0,2,-40,-72,0,0,100,0,320,1000,80,80,0,-25,-12,0,0,65,0,0,344,56,24,0,
0,3,-70,-28,0,0,100,0,736,1000,32,32,0,-40,-72,0,0,100,0,160,1000,80,80,0,-25,-12,0,0,65,0,0,344,56,24,0,
0,2,-40,-72,0,0,100,0,960,920,80,80,0,-25,-12,0,0,65,0,0,344,56,24,0,
0,2,-40,-72,0,0,100,0,1040,920,80,80,0,-25,-12,0,0,65,0,0,344,56,24,0,
