0,3,-80,-126,0,0,100,0,848,0,96,96,0,-64,-113,0,0,100,0,0,0,144,128,0,-48,-28,0,0,45,0,1040,0,96,48,0,
0,3,-79,-128,0,0,100,0,944,0,96,96,0,-64,-113,0,0,100,0,144,0,144,128,0,-48,-28,0,0,45,0,1040,0,96,48,0,
0,3,-83,-125,0,0,100,0,848,96,96,96,0,-64,-113,0,0,100,0,288,0,144,128,0,-48,-28,0,0,45,0,1040,0,96,48,0,
0,3,-84,-124,0,0,100,0,944,96,96,96,0,-64,-113,0,0,100,0,432,0,144,128,0,-48,-28,0,0,45,0,1040,0,96,48,0,
0,2,-80,-113,0,0,100,0,576,0,144,128,0,-48,-28,0,0,45,0,1040,0,96,48,0,
0,3,-30,-50,0,1,100,0,352,144,96,48,0,-64,-97,0,0,100,0,0,128,144,112,0,-47,-28,0,0,45,0,1040,0,96,48,0,
0,3,9,-55,0,1,100,0,448,144,48,48,0,-64,-97,0,0,100,0,144,128,144,112,0,-46,-28,0,0,45,0,1040,0,96,48,0,
0,3,15,-70,0,1,100,0,496,144,64,64,0,-64,-97,0,0,100,0,0,240,144,112,0,-45,-28,0,0,45,0,1040,0,96,48,0,
0,3,15,-66,0,1,100,0,560,144,64,64,0,-64,-97,0,0,100,0,144,240,144,112,0,-45,-28,0,0,45,0,1040,0,96,48,0,
0,3,18,-65,0,1,100,0,624,144,64,64,0,-64,-97,0,0,100,0,288,240,144,112,0,-45,-28,0,0,45,0,1040,0,96,48,0,
0,3,15,-66,0,1,100,0,688,144,64,64,0,-64,-97,0,0,100,0,432,240,144,112,0,-45,-28,0,0,45,0,1040,0,96,48,0,
0,3,12,-59,0,1,100,0,752,144,48,48,0,-64,-97,0,0,100,0,576,240,144,112,0,-47,-28,0,0,45,0,1040,0,96,48,0,
0,7,-23,-84,0,1,50,0,832,208,128,96,0,-67,-97,0,1,100,0,720,304,80,96,0,-80,-100,0,1,100,0,720,208,112,96,0,-100,-112,0,0,100,0,720,560,128,128,0,-93,-66,0,1,50,0,1040,96,96,80,0,-64,-113,0,0,100,0,0,352,128,128,0,-52,-28,0,0,45,0,1040,0,96,48,0,
0,6,-23,-85,0,1,100,0,960,208,128,96,0,-79,-109,0,1,100,0,800,304,128,112,0,-104,-115,0,0,100,0,848,560,128,128,0,-89,-65,0,1,100,0,1136,96,96,80,0,-64,-113,0,0,100,0,128,352,128,128,0,-53,-28,0,0,45,0,1040,0,96,48,0,
0,6,-35,-51,0,1,100,0,1088,240,128,64,0,-86,-110,0,1,100,0,928,304,128,128,0,-123,-110,0,0,100,0,720,688,144,128,0,-75,-41,0,1,100,0,1088,176,80,48,0,-64,-113,0,0,100,0,256,352,128,128,0,-53,-28,0,0,45,0,1040,0,96,48,0,
0,6,-35,-51,0,1,100,0,1088,240,128,64,0,-92,-108,0,1,100,0,1056,304,128,128,0,-130,-112,0,0,100,0,864,688,144,128,0,-75,-41,0,1,100,0,1088,176,80,48,0,-64,-113,0,0,100,0,384,352,128,128,0,-53,-28,0,0,45,0,1040,0,96,48,0,
0,6,-35,-51,0,1,100,0,1088,240,128,64,0,-94,-112,0,1,100,0,720,432,128,128,0,-125,-115,0,0,100,0,1008,688,128,128,0,-75,-41,0,1,100,0,1088,176,80,48,0,-64,-113,0,0,100,0,512,352,128,128,0,-53,-28,0,0,45,0,1040,0,96,48,0,
0,6,-35,-51,0,1,100,0,1088,240,128,64,0,-98,-113,0,1,100,0,848,432,128,128,0,-129,-112,0,0,100,0,1136,688,128,128,0,-75,-41,0,1,100,0,1088,176,80,48,0,-64,-113,0,0,100,0,0,480,128,128,0,-53,-28,0,0,45,0,1040,0,96,48,0,
0,6,-35,-51,0,1,100,0,1088,240,128,64,0,-95,-112,0,1,100,0,976,432,128,128,0,-135,-115,0,0,100,0,720,816,128,128,0,-75,-41,0,1,100,0,1088,176,80,48,0,-64,-113,0,0,100,0,128,480,128,128,0,-53,-28,0,0,45,0,1040,0,96,48,0,
0,6,-35,-51,0,1,100,0,1088,240,128,64,0,-156,-104,0,1,100,0,1104,432,176,112,0,-146,-124,0,0,100,0,848,816,128,144,0,-75,-41,0,1,100,0,1088,176,80,48,0,-64,-113,0,0,100,0,256,480,144,128,0,-48,-28,0,0,45,0,1040,0,96,48,0,
0,6,-35,-51,0,1,75,0,1088,240,128,64,0,-164,-108,0,1,100,0,1104,544,176,112,0,-143,-123,0,0,100,0,976,816,128,144,0,-75,-41,0,1,75,0,1088,176,80,48,0,-64,-113,0,0,100,0,400,480,144,128,0,-47,-28,0,0,45,0,1040,0,96,48,0,
0,6,-35,-51,0,1,50,0,1088,240,128,64,0,-68,-95,0,1,75,0,1024,560,80,96,0,-151,-125,0,0,100,0,1104,816,128,144,0,-75,-41,0,1,50,0,1088,176,80,48,0,-64,-113,0,0,100,0,544,480,144,128,0,-46,-28,0,0,45,0,1040,0,96,48,0,
0,3,-68,-95,0,1,50,0,1024,560,80,96,0,-64,-113,0,0,100,0,0,608,144,128,0,-46,-28,0,0,45,0,1040,0,96,48,0,
0,2,-64,-97,0,0,100,0,144,608,128,112,0,-48,-28,0,0,45,0,1040,0,96,48,0,
0,2,-64,-97,0,0,100,0,272,608,128,112,0,-48,-28,0,0,45,0,1040,0,96,48,0,
0,3,-70,-98,0,1,100,0,480,736,112,112,0,-48,-81,0,0,100,0,496,608,96,96,0,-48,-28,0,0,45,0,1040,0,96,48,0,
0,3,-66,-97,0,1,100,0,592,736,112,112,0,-48,-81,0,0,100,0,496,608,96,96,0,-48,-28,0,0,45,0,1040,0,96,48,0,
0,3,-69,-98,0,1,100,0,480,848,112,112,0,-48,-81,0,0,100,0,592,608,96,96,0,-48,-28,0,0,45,0,1040,0,96,48,0,
0,3,-71,-103,0,1,75,0,592,848,112,112,0,-48,-81,0,0,100,0,0,736,96,96,0,-48,-28,0,0,45,0,1040,0,96,48,0,
0,3,-91,-98,0,1,60,0,480,960,112,112,0,-48,-81,0,0,100,0,96,736,96,96,0,-48,-28,0,0,45,0,1040,0,96,48,0,
0,2,-48,-81,0,0,100,0,192,736,96,96,0,-48,-28,0,0,45,0,1040,0,96,48,0,
0,2,-48,-81,0,0,100,0,288,736,96,96,0,-48,-28,0,0,45,0,1040,0,96,48,0,
0,3,-17,-70,0,1,100,0,0,1024,80,80,0,-48,-81,0,0,100,0,384,736,96,96,0,-48,-28,0,0,45,0,1040,0,96,48,0,
0,3,-39,-80,0,1,100,0,80,1024,80,80,0,-48,-81,0,0,100,0,0,832,112,96,0,-48,-28,0,0,45,0,1040,0,96,48,0,
0,3,-50,-89,0,1,100,0,0,928,96,96,0,-48,-81,0,0,100,0,112,832,112,96,0,-48,-28,0,0,45,0,1040,0,96,48,0,
0,3,-45,-94,0,1,100,0,96,928,96,96,0,-48,-81,0,0,100,0,224,832,112,96,0,-48,-28,0,0,45,0,1040,0,96,48,0,
0,3,-51,-95,0,1,100,0,192,928,96,96,0,-48,-81,0,0,100,0,336,832,112,96,0,-48,-28,0,0,45,0,1040,0,96,48,0,
0,3,-41,-95,0,1,100,0,288,928,96,96,0,-48,-81,0,0,100,0,0,832,112,96,0,-48,-28,0,0,45,0,1040,0,96,48,0,
