0,18,-85,-79,2,1,100,90,616,672,88,88,0,-86,-80,0,1,100,0,616,760,88,88,0,-48,-77,0,1,100,-180,168,272,56,56,0,-81,-73,0,1,100,-90,112,272,56,56,0,-75,-39,0,1,100,0,0,272,56,56,0,-25,-55,0,0,60,0,832,176,48,32,0,-35,-61,0,0,100,0,0,56,72,56,0,-13,-27,0,0,100,0,496,160,16,16,0,-84,-96,0,0,100,0,0,432,120,120,0,-22,-38,0,0,100,0,278,167,28,33,0,-26,-44,0,0,100,0,101,163,39,38,0,-8,-32,0,0,100,0,314,172,17,20,0,-41,-31,0,0,100,0,0,112,72,48,0,-33,-56,0,0,100,0,0,0,72,56,0,-10,-21,0,0,100,0,186,196,23,29,0,-19,-24,0,0,100,0,181,166,26,32,0,-34,-34,0,0,100,0,0,232,56,40,0,-33,-11,0,0,100,0,277,201,63,21,0,
0,18,-85,-78,2,1,100,90,704,672,88,88,0,-86,-79,0,1,100,0,704,760,88,88,0,-48,-76,0,1,100,-180,0,272,56,56,0,-81,-72,0,1,100,-90,168,272,56,56,0,-75,-38,0,1,100,0,56,272,56,56,0,-25,-54,0,0,60,0,832,176,48,32,0,-35,-60,0,0,100,0,72,56,72,56,0,-13,-26,0,0,100,0,496,160,16,16,0,-84,-95,0,0,100,0,0,432,120,120,0,-22,-37,0,0,100,0,278,167,28,33,0,-26,-43,0,0,100,0,101,163,39,38,0,-8,-31,0,0,100,0,314,172,17,20,0,-41,-31,0,0,100,0,72,112,72,48,0,-33,-55,0,0,100,0,72,0,72,56,0,-10,-21,0,0,100,0,186,196,23,29,0,-19,-24,0,0,100,0,181,166,26,32,0,-34,-34,0,0,100,0,56,232,56,40,0,-33,-11,0,0,100,0,277,201,63,21,0,
0,18,-85,-78,2,1,100,90,616,760,88,88,0,-86,-79,0,1,100,0,616,672,88,88,0,-48,-76,0,1,100,-180,56,272,56,56,0,-81,-72,0,1,100,-90,0,272,56,56,0,-75,-38,0,1,100,0,112,272,56,56,0,-25,-54,0,0,60,0,832,176,48,32,0,-35,-60,0,0,100,0,144,56,72,56,0,-13,-26,0,0,100,0,496,160,16,16,0,-84,-95,0,0,100,0,0,432,120,120,0,-22,-37,0,0,100,0,278,167,28,33,0,-26,-43,0,0,100,0,101,163,39,38,0,-8,-31,0,0,100,0,314,172,17,20,0,-41,-31,0,0,100,0,144,112,72,48,0,-33,-55,0,0,100,0,144,0,72,56,0,-10,-21,0,0,100,0,186,196,23,29,0,-19,-24,0,0,100,0,181,166,26,32,0,-34,-34,0,0,100,0,0,232,56,40,0,-33,-11,0,0,100,0,277,201,63,21,0,
0,18,-85,-79,2,1,100,90,704,760,88,88,0,-86,-80,0,1,100,0,704,672,88,88,0,-48,-77,0,1,100,-180,112,272,56,56,0,-81,-73,0,1,100,-90,56,272,56,56,0,-75,-39,0,1,100,0,168,272,56,56,0,-25,-55,0,0,60,0,832,176,48,32,0,-35,-61,0,0,100,0,216,56,72,56,0,-13,-27,0,0,100,0,496,160,16,16,0,-84,-96,0,0,100,0,0,432,120,120,0,-22,-38,0,0,100,0,278,167,28,33,0,-26,-44,0,0,100,0,101,163,39,38,0,-8,-32,0,0,100,0,314,172,17,20,0,-41,-31,0,0,100,0,216,112,72,48,0,-33,-56,0,0,100,0,216,0,72,56,0,-10,-21,0,0,100,0,186,196,23,29,0,-19,-24,0,0,100,0,181,166,26,32,0,-34,-34,0,0,100,0,56,232,56,40,0,-33,-11,0,0,100,0,277,201,63,21,0,
0,17,-46,-75,0,1,100,-180,168,272,56,56,0,-79,-73,0,1,100,-90,112,272,56,56,0,-73,-39,0,1,100,0,0,272,56,56,0,-24,-55,0,0,60,0,832,176,48,32,0,-34,-61,0,0,100,0,144,56,72,56,0,-11,-28,0,0,100,0,496,160,16,16,0,-6,-32,0,0,100,0,368,170,17,20,0,-81,-97,0,0,100,0,0,432,120,120,0,-16,-34,0,0,100,0,343,190,25,26,0,-24,-44,0,0,100,0,101,163,39,38,0,-6,-32,0,0,100,0,314,172,17,20,0,-37,-31,0,0,100,0,288,112,72,48,0,-32,-56,0,0,100,0,288,0,72,56,0,-8,-21,0,0,100,0,186,196,23,29,0,-14,-24,0,0,100,0,205,166,18,32,0,-32,-34,0,0,100,0,0,232,56,40,0,-33,-11,0,0,100,0,277,201,63,21,0,
0,18,-106,-100,0,1,100,0,224,256,112,112,0,-48,-76,0,1,100,-180,0,272,56,56,0,-81,-72,0,1,100,-90,168,272,56,56,0,-75,-38,0,1,100,0,56,272,56,56,0,-23,-55,0,0,60,0,832,176,48,32,0,-33,-61,0,0,100,0,360,56,72,56,0,-10,-28,0,0,100,0,496,160,16,16,0,-80,-97,0,0,100,0,0,432,120,120,0,-15,-34,0,0,100,0,343,190,25,26,0,-5,-32,0,0,100,0,368,170,17,20,0,-23,-44,0,0,100,0,101,163,39,38,0,-5,-32,0,0,100,0,314,172,17,20,0,-36,-31,0,0,100,0,360,112,72,48,0,-31,-56,0,0,100,0,360,0,72,56,0,-7,-21,0,0,100,0,186,196,23,29,0,-12,-24,0,0,100,0,223,166,18,32,0,-32,-34,0,0,100,0,0,232,56,40,0,-33,-11,0,0,100,0,277,201,63,21,0,
0,15,-115,-116,0,1,100,0,248,680,184,128,0,-115,-115,0,0,80,0,336,256,184,128,0,-22,-55,0,0,60,0,832,176,48,32,0,-8,-41,0,0,100,0,368,192,24,24,0,-32,-61,0,0,100,0,432,56,72,56,0,4,-37,0,0,100,-90,341,175,21,16,0,-31,-110,0,0,100,-90,0,432,120,120,0,-22,-44,0,0,100,0,101,163,39,38,0,-1,-35,0,0,100,0,391,162,20,23,0,-35,-31,0,0,100,0,288,112,72,48,0,-30,-56,0,0,100,0,432,0,72,56,0,-6,-21,0,0,100,0,186,196,23,29,0,-11,-27,0,0,100,0,240,163,18,32,0,-32,-34,0,0,100,0,0,232,56,40,0,-33,-11,0,0,100,0,277,201,63,21,0,
0,16,-73,-120,0,1,100,0,520,248,144,112,0,-115,-116,0,1,30,0,248,680,184,128,0,-20,-55,0,0,60,0,832,176,48,32,0,-7,-41,0,0,100,0,368,192,24,24,0,-30,-61,0,0,100,0,504,56,72,56,0,5,-37,0,0,100,-90,341,175,21,16,0,-30,-110,0,0,100,-90,0,432,120,120,0,-115,-115,0,0,30,0,336,256,184,128,0,-20,-44,0,0,100,0,101,163,39,38,0,0,-35,0,0,100,0,391,162,20,23,0,-34,-31,0,0,100,0,360,112,72,48,0,-28,-56,0,0,100,0,504,0,72,56,0,-5,-21,0,0,100,0,186,196,23,29,0,-11,-27,0,0,100,0,255,163,18,32,0,-32,-34,0,0,100,0,0,232,56,40,0,-33,-11,0,0,100,0,277,201,63,21,0,
0,14,-32,-123,0,1,100,0,680,248,112,112,0,-20,-55,0,0,60,0,832,176,48,32,0,-8,-41,0,0,100,0,368,192,24,24,0,-30,-61,0,0,100,0,576,56,72,56,0,3,-36,0,0,100,-90,341,175,21,16,0,-31,-110,0,0,100,-90,0,432,120,120,0,-21,-44,0,0,100,0,101,163,39,38,0,-1,-35,0,0,100,0,391,162,20,23,0,-35,-31,0,0,100,0,432,112,72,48,0,-28,-56,0,0,100,0,576,0,72,56,0,-6,-21,0,0,100,0,186,196,23,29,0,-11,-27,0,0,100,0,240,163,18,32,0,-32,-34,0,0,100,0,0,232,56,40,0,-33,-11,0,0,100,0,277,201,63,21,0,
0,14,-30,-121,0,1,100,180,680,248,112,112,0,-21,-55,0,0,60,0,832,176,48,32,0,-9,-41,0,0,100,0,368,192,24,24,0,-31,-61,0,0,100,0,648,56,72,56,0,3,-36,0,0,100,-90,341,175,21,15,0,-32,-110,0,0,100,-90,0,432,120,120,0,-22,-44,0,0,100,0,101,163,39,38,0,-1,-35,0,0,100,0,391,162,20,23,0,-35,-31,0,0,100,0,360,112,72,48,0,-29,-56,0,0,100,0,648,0,72,56,0,-6,-21,0,0,100,0,186,196,23,29,0,-11,-27,0,0,100,0,240,163,18,32,0,-32,-34,0,0,100,0,0,232,56,40,0,-33,-11,0,0,100,0,277,201,63,21,0,
0,15,-108,-107,0,1,100,0,432,672,184,112,0,-24,-47,0,0,60,0,828,235,51,42,0,-36,-59,0,0,100,0,288,56,72,56,0,-16,-27,0,0,100,0,341,175,21,15,0,-11,-29,0,0,100,0,447,165,19,20,0,-90,-97,0,0,100,0,0,432,120,120,0,-108,-107,0,0,80,0,352,384,184,112,0,-23,-32,0,0,100,0,418,164,23,24,0,-24,-41,0,0,100,0,101,163,39,38,0,-37,-28,0,0,100,0,504,112,72,48,0,-34,-54,0,0,100,0,720,0,72,56,0,-8,-16,0,0,100,0,225,200,19,19,0,-20,-15,0,0,100,0,226,220,22,17,0,-32,-33,0,0,100,0,0,232,56,40,0,-33,-11,0,0,100,0,277,201,63,21,0,
0,14,-118,-103,0,1,100,180,560,368,136,136,0,-22,-45,0,0,60,0,828,235,51,42,0,-34,-57,0,0,100,0,792,56,72,56,0,-16,-26,0,0,100,0,341,175,21,15,0,-11,-28,0,0,100,0,447,194,19,20,0,-90,-96,0,0,100,0,696,128,120,120,0,-23,-31,0,0,100,0,418,193,23,24,0,-23,-40,0,0,100,0,138,163,39,38,0,-37,-27,0,0,100,0,576,112,72,48,0,-32,-52,0,0,100,0,792,0,72,56,0,-8,-16,0,0,100,0,225,200,19,19,0,-21,-15,0,0,100,0,226,220,22,17,0,-32,-33,0,0,100,0,0,232,56,40,0,-33,-11,0,0,100,0,277,201,63,21,0,
0,21,-104,-93,0,1,80,0,248,384,104,104,0,-146,-85,0,1,60,0,104,328,112,104,0,-242,-85,0,1,60,0,104,328,112,104,0,-434,-85,0,1,60,0,104,328,112,104,0,-338,-85,0,1,60,0,104,328,112,104,0,-530,-85,0,1,60,0,104,328,112,104,0,-626,-85,0,1,60,0,104,328,112,104,0,-111,-107,0,1,100,0,560,368,136,136,0,-22,-45,0,0,60,0,828,235,51,42,0,-34,-57,0,0,100,0,720,56,72,56,0,-16,-26,0,0,100,0,341,175,21,15,0,-11,-28,0,0,100,0,447,165,19,20,0,-90,-96,0,0,100,0,0,432,120,120,0,-23,-31,0,0,100,0,418,164,23,24,0,-24,-40,0,0,100,0,101,163,39,38,0,-37,-27,0,0,100,0,504,112,72,48,0,-32,-52,0,0,100,0,720,0,72,56,0,-8,-16,0,0,100,0,225,200,19,19,0,-21,-15,0,0,100,0,226,220,22,17,0,-32,-33,0,0,100,0,0,232,56,40,0,-33,-11,0,0,100,0,277,201,63,21,0,
0,21,-104,-93,0,1,100,0,248,384,104,104,0,-142,-85,0,1,100,0,0,328,104,104,0,-238,-85,0,1,100,0,0,328,104,104,0,-334,-85,0,1,100,0,0,328,104,104,0,-430,-85,0,1,100,0,0,328,104,104,0,-526,-85,0,1,100,0,0,328,104,104,0,-622,-85,0,1,100,0,0,328,104,104,0,-114,-99,0,1,100,180,560,368,136,136,0,-19,-44,0,0,60,0,828,235,51,42,0,-31,-56,0,0,100,0,792,56,72,56,0,-14,-26,0,0,100,0,341,175,21,15,0,-9,-28,0,0,100,0,447,194,19,20,0,-88,-96,0,0,100,0,696,128,120,120,0,-21,-31,0,0,100,0,418,193,23,24,0,-21,-40,0,0,100,0,138,163,39,38,0,-35,-27,0,0,100,0,576,112,72,48,0,-29,-51,0,0,100,0,792,0,72,56,0,-8,-16,0,0,100,0,225,200,19,19,0,-21,-15,0,0,100,0,226,220,22,17,0,-32,-33,0,0,100,0,0,232,56,40,0,-33,-11,0,0,100,0,277,201,63,21,0,
0,21,-104,-93,0,1,100,0,248,384,104,104,0,-150,-85,1,1,100,0,0,328,104,104,0,-246,-85,1,1,100,0,0,328,104,104,0,-342,-85,1,1,100,0,0,328,104,104,0,-438,-85,1,1,100,0,0,328,104,104,0,-534,-85,1,1,100,0,0,328,104,104,0,-630,-85,1,1,100,0,0,328,104,104,0,-114,-99,0,1,100,180,560,368,136,136,0,-19,-44,0,0,60,0,828,235,51,42,0,-31,-56,0,0,100,0,792,56,72,56,0,-14,-26,0,0,100,0,341,175,21,15,0,-9,-28,0,0,100,0,447,194,19,20,0,-88,-96,0,0,100,0,696,128,120,120,0,-21,-31,0,0,100,0,418,193,23,24,0,-21,-40,0,0,100,0,138,163,39,38,0,-35,-27,0,0,100,0,576,112,72,48,0,-29,-51,0,0,100,0,792,0,72,56,0,-8,-16,0,0,100,0,225,200,19,19,0,-21,-15,0,0,100,0,226,220,22,17,0,-32,-33,0,0,100,0,0,232,56,40,0,-33,-11,0,0,100,0,277,201,63,21,0,
0,21,-104,-93,0,1,80,0,248,384,104,104,0,-146,-85,1,1,100,0,104,328,112,104,0,-242,-85,1,1,100,0,104,328,112,104,0,-338,-85,1,1,100,0,104,328,112,104,0,-434,-85,1,1,100,0,104,328,112,104,0,-530,-85,1,1,100,0,104,328,112,104,0,-626,-85,1,1,100,0,104,328,112,104,0,-111,-107,0,1,100,0,560,368,136,136,0,-22,-45,0,0,60,0,828,235,51,42,0,-34,-57,0,0,100,0,720,56,72,56,0,-16,-26,0,0,100,0,341,175,21,15,0,-11,-28,0,0,100,0,447,165,19,20,0,-90,-96,0,0,100,0,0,432,120,120,0,-23,-31,0,0,100,0,418,164,23,24,0,-24,-40,0,0,100,0,101,163,39,38,0,-37,-27,0,0,100,0,504,112,72,48,0,-32,-52,0,0,100,0,720,0,72,56,0,-8,-16,0,0,100,0,225,200,19,19,0,-21,-15,0,0,100,0,226,220,22,17,0,-32,-33,0,0,100,0,0,232,56,40,0,-33,-11,0,0,100,0,277,201,63,21,0,
0,15,-45,-102,0,0,100,-180,168,272,56,56,0,-87,-99,0,0,100,-90,112,272,56,56,0,-71,-62,0,0,100,0,0,272,56,56,0,-26,-53,0,0,60,0,832,176,48,32,0,-10,-24,0,0,100,0,341,175,21,16,0,-70,-80,0,0,100,0,758,377,89,84,0,-36,-58,0,0,100,0,0,56,72,56,0,-8,-30,0,0,100,0,314,172,17,20,0,-26,-42,0,0,100,0,101,163,39,38,0,-41,-29,0,0,100,0,0,112,72,48,0,-34,-53,0,0,100,0,0,0,72,56,0,-10,-21,0,0,100,0,186,196,23,29,0,-19,-24,0,0,100,0,181,166,26,32,0,-34,-32,0,0,100,0,0,232,56,40,0,-33,-11,0,0,100,0,277,201,63,21,0,
0,15,-45,-102,0,0,100,-180,0,272,56,56,0,-87,-99,0,0,100,-90,168,272,56,56,0,-71,-62,0,0,100,0,56,272,56,56,0,-26,-52,0,0,60,0,832,176,48,32,0,-10,-23,0,0,100,0,341,175,21,15,0,-70,-79,0,0,100,0,758,377,89,84,0,-36,-57,0,0,100,0,72,56,72,56,0,-8,-29,0,0,100,0,314,172,17,20,0,-26,-41,0,0,100,0,101,163,39,38,0,-41,-29,0,0,100,0,72,112,72,48,0,-34,-52,0,0,100,0,72,0,72,56,0,-10,-21,0,0,100,0,186,196,23,29,0,-19,-24,0,0,100,0,181,166,26,32,0,-34,-32,0,0,100,0,56,232,56,40,0,-33,-11,0,0,100,0,277,201,63,21,0,
0,15,-45,-102,0,0,100,-180,56,272,56,56,0,-87,-99,0,0,100,-90,0,272,56,56,0,-71,-62,0,0,100,0,112,272,56,56,0,-26,-52,0,0,60,0,832,176,48,32,0,-11,-23,0,0,100,0,341,175,21,17,0,-71,-79,0,0,100,0,758,377,89,84,0,-36,-57,0,0,100,0,144,56,72,56,0,-9,-29,0,0,100,0,314,172,17,20,0,-26,-41,0,0,100,0,101,163,39,38,0,-41,-29,0,0,100,0,144,112,72,48,0,-34,-52,0,0,100,0,144,0,72,56,0,-10,-21,0,0,100,0,186,196,23,29,0,-19,-24,0,0,100,0,181,166,26,32,0,-34,-32,0,0,100,0,0,232,56,40,0,-33,-11,0,0,100,0,277,201,63,21,0,
0,15,-45,-102,0,0,100,-180,112,272,56,56,0,-87,-99,0,0,100,-90,56,272,56,56,0,-71,-62,0,0,100,0,168,272,56,56,0,-26,-53,0,0,60,0,832,176,48,32,0,-10,-24,0,0,100,0,341,175,21,16,0,-70,-80,0,0,100,0,758,377,89,84,0,-36,-58,0,0,100,0,216,56,72,56,0,-8,-30,0,0,100,0,314,172,17,20,0,-26,-42,0,0,100,0,101,163,39,38,0,-41,-29,0,0,100,0,216,112,72,48,0,-34,-53,0,0,100,0,216,0,72,56,0,-10,-21,0,0,100,0,186,196,23,29,0,-19,-24,0,0,100,0,181,166,26,32,0,-34,-32,0,0,100,0,56,232,56,40,0,-33,-11,0,0,100,0,277,201,63,21,0,
0,14,-26,-55,0,0,60,0,832,176,48,32,0,-36,-61,0,0,100,0,72,56,72,56,0,-13,-27,0,0,100,0,496,160,16,16,0,-8,-44,0,0,100,0,496,176,24,24,0,-24,-44,1,0,100,0,101,163,39,38,0,-41,-31,0,0,100,0,504,112,72,48,0,-16,-25,0,0,100,0,144,200,24,24,0,-19,-24,0,0,100,0,181,166,26,32,0,-25,-29,0,0,100,0,496,240,16,16,0,-92,-98,0,0,100,0,0,432,120,120,0,-23,-35,0,0,100,0,498,212,22,20,0,-32,-56,0,0,100,0,0,0,72,56,0,-34,-34,0,0,100,0,0,232,56,40,0,-33,-11,0,0,100,0,277,201,63,21,0,
0,14,-100,-97,1,1,100,0,680,248,112,112,0,-23,-46,0,0,60,0,828,235,51,42,0,-35,-58,0,0,100,0,720,56,72,56,0,-17,-27,0,0,100,0,341,175,21,15,0,-12,-29,0,0,100,0,447,165,19,20,0,-91,-97,0,0,100,0,0,432,120,120,0,-24,-32,0,0,100,0,418,164,23,24,0,-25,-41,0,0,100,0,101,163,39,38,0,-38,-28,0,0,100,0,504,112,72,48,0,-33,-53,0,0,100,0,720,0,72,56,0,-6,-17,0,0,100,0,209,200,19,19,0,-9,-18,0,0,100,0,226,172,13,22,0,-33,-34,0,0,100,0,0,232,56,40,0,-31,-11,0,0,100,0,277,201,63,21,0,
0,14,-111,-107,0,1,100,0,560,368,136,136,0,-22,-45,0,0,60,0,828,235,51,42,0,-34,-57,0,0,100,0,792,56,72,56,0,-16,-26,0,0,100,0,341,175,21,15,0,-11,-28,0,0,100,0,447,194,19,20,0,-90,-96,0,0,100,0,696,128,120,120,0,-23,-31,0,0,100,0,418,193,23,24,0,-24,-40,0,0,100,0,101,163,39,38,0,-38,-26,0,0,100,0,576,112,72,48,0,-32,-52,0,0,100,0,792,0,72,56,0,-5,-16,0,0,100,0,209,200,19,19,0,-9,-18,0,0,100,0,242,172,13,22,0,-32,-33,0,0,100,0,0,232,56,40,0,-30,-11,0,0,100,0,277,201,63,21,0,
0,15,-75,-70,0,1,100,0,792,288,40,40,0,-111,-107,0,1,40,0,560,368,136,136,0,-22,-45,0,0,60,0,828,235,51,42,0,-34,-57,0,0,100,0,720,56,72,56,0,-16,-26,0,0,100,0,341,175,21,15,0,-11,-28,0,0,100,0,447,165,19,20,0,-90,-96,0,0,100,0,0,432,120,120,0,-23,-31,0,0,100,0,418,164,23,24,0,-24,-40,0,0,100,0,101,163,39,38,0,-37,-27,0,0,100,0,504,112,72,48,0,-32,-52,0,0,100,0,720,0,72,56,0,-5,-16,0,0,100,0,209,200,19,19,0,-9,-18,0,0,100,0,242,172,13,22,0,-32,-33,0,0,100,0,0,232,56,40,0,-30,-11,0,0,100,0,277,201,63,21,0,
0,15,-54,-49,0,1,100,90,792,288,40,40,0,-75,-70,0,1,100,0,832,288,40,40,0,-22,-45,0,0,60,0,828,235,51,42,0,-34,-57,0,0,100,0,720,56,72,56,0,-16,-26,0,0,100,0,341,175,21,15,0,-11,-28,0,0,100,0,447,165,19,20,0,-90,-96,0,0,100,0,0,432,120,120,0,-23,-31,0,0,100,0,418,164,23,24,0,-24,-40,0,0,100,0,101,163,39,38,0,-37,-27,0,0,100,0,504,112,72,48,0,-31,-51,0,0,100,0,864,0,72,56,0,-5,-16,0,0,100,0,209,200,19,19,0,-9,-18,0,0,100,0,242,172,13,22,0,-32,-33,0,0,100,0,0,232,56,40,0,-30,-11,0,0,100,0,277,201,63,21,0,
0,15,-55,-57,1,1,100,0,792,288,40,40,0,-54,-49,0,1,100,90,832,288,40,40,0,-22,-45,0,0,60,0,828,235,51,42,0,-34,-57,0,0,100,0,720,56,72,56,0,-16,-26,0,0,100,0,341,175,21,15,0,-11,-28,0,0,100,0,447,165,19,20,0,-90,-96,0,0,100,0,0,432,120,120,0,-23,-31,0,0,100,0,418,164,23,24,0,-24,-40,0,0,100,0,101,163,39,38,0,-37,-27,0,0,100,0,504,112,72,48,0,-32,-52,0,0,100,0,216,0,72,56,0,-5,-16,0,0,100,0,209,200,19,19,0,-9,-18,0,0,100,0,242,172,13,22,0,-32,-33,0,0,100,0,0,232,56,40,0,-30,-11,0,0,100,0,277,201,63,21,0,
0,16,-43,-37,3,1,100,0,792,288,40,40,0,-55,-57,1,1,100,0,832,288,40,40,0,-23,-45,0,0,60,0,828,235,51,42,0,-18,-49,0,0,100,0,536,160,40,40,0,-1,-46,0,0,100,0,656,160,40,40,0,-16,-26,0,0,100,0,341,175,21,15,0,-11,-28,0,0,100,0,447,165,19,20,0,-90,-96,0,0,100,0,0,432,120,120,0,-23,-31,0,0,100,0,418,164,23,24,0,-24,-40,0,0,100,0,101,163,39,38,0,-37,-27,0,0,100,0,504,112,72,48,0,-32,-52,0,0,100,0,0,0,72,56,0,-5,-16,0,0,100,0,209,200,19,19,0,-9,-18,0,0,100,0,242,172,13,22,0,-32,-33,0,0,100,0,0,232,56,40,0,-30,-11,0,0,100,0,277,201,63,21,0,
0,15,-43,-37,3,1,100,0,832,288,40,40,0,-27,-46,0,0,60,0,828,235,51,42,0,-22,-50,0,0,100,0,536,160,40,40,0,-16,-50,0,0,100,0,616,160,40,40,0,-13,-22,0,0,100,0,341,175,21,15,0,-12,-29,0,0,100,0,447,165,19,20,0,-87,-92,0,0,100,0,0,432,120,120,0,-24,-32,0,0,100,0,418,164,23,24,0,-25,-41,0,0,100,0,101,163,39,38,0,-38,-28,0,0,100,0,504,112,72,48,0,-33,-53,0,0,100,0,72,0,72,56,0,-6,-17,0,0,100,0,209,200,19,19,0,-9,-18,0,0,100,0,242,172,13,22,0,-33,-34,0,0,100,0,0,232,56,40,0,-31,-11,0,0,100,0,277,201,63,21,0,
0,14,-11,-27,0,0,100,0,512,160,16,16,0,-83,-61,2,0,100,0,0,432,120,120,0,-13,-37,1,0,100,0,288,168,16,24,0,-25,-55,0,0,60,0,832,176,48,32,0,-35,-61,0,0,100,0,72,56,72,56,0,-23,-44,1,0,100,0,101,163,39,38,0,-40,-31,0,0,100,0,504,112,72,48,0,-16,-25,0,0,100,0,144,200,24,24,0,-19,-24,0,0,100,0,181,166,26,32,0,-24,-29,0,0,100,0,496,240,16,16,0,-22,-35,0,0,100,0,498,212,22,20,0,-33,-56,0,0,100,0,144,0,72,56,0,-33,-34,0,0,100,0,0,232,56,40,0,-33,-11,0,0,100,0,277,201,63,21,0,
0,14,-22,-36,0,0,100,0,480,224,16,16,0,-12,-26,0,0,100,0,512,160,16,16,0,-84,-60,2,0,100,0,0,432,120,120,0,-14,-37,1,0,100,0,288,168,16,24,0,-26,-55,0,0,60,0,832,176,48,32,0,-36,-61,0,0,100,0,144,56,72,56,0,-24,-44,1,0,100,0,101,163,39,38,0,-41,-31,0,0,100,0,504,112,72,48,0,-14,-17,0,0,100,0,184,200,24,24,0,-19,-24,0,0,100,0,181,166,26,32,0,-17,-39,0,0,100,0,480,208,16,16,0,-34,-56,0,0,100,0,216,0,72,56,0,-34,-34,0,0,100,0,0,232,56,40,0,-33,-11,0,0,100,0,277,201,63,21,0,
0,14,-20,-35,0,0,100,0,480,224,16,16,0,-12,-26,0,0,100,0,512,160,16,16,0,-84,-60,2,0,100,0,0,432,120,120,0,-14,-37,1,0,100,0,288,168,16,24,0,-26,-55,0,0,60,0,832,176,48,32,0,-36,-61,0,0,100,0,216,56,72,56,0,-24,-44,1,0,100,0,101,163,39,38,0,-41,-31,0,0,100,0,504,112,72,48,0,-13,-16,0,0,100,0,184,200,24,24,0,-19,-24,0,0,100,0,181,166,26,32,0,-17,-39,0,0,100,0,480,208,16,16,0,-34,-56,0,0,100,0,0,0,72,56,0,-34,-34,0,0,100,0,0,232,56,40,0,-33,-11,0,0,100,0,277,201,63,21,0,
0,14,-20,-35,0,0,100,0,480,224,16,16,0,-12,-26,0,0,100,0,512,160,16,16,0,-84,-60,2,0,100,0,0,432,120,120,0,-14,-37,1,0,100,0,288,168,16,24,0,-26,-55,0,0,60,0,832,176,48,32,0,-28,-61,0,0,100,0,120,432,64,56,0,-24,-44,1,0,100,0,101,163,39,38,0,-41,-31,0,0,100,0,504,112,72,48,0,-13,-16,0,0,100,0,184,200,24,24,0,-19,-24,0,0,100,0,181,166,26,32,0,-17,-39,0,0,100,0,480,208,16,16,0,-34,-56,0,0,100,0,72,0,72,56,0,-34,-34,0,0,100,0,0,232,56,40,0,-33,-11,0,0,100,0,277,201,63,21,0,
0,15,-31,-44,0,0,70,0,704,368,32,32,0,-20,-35,0,0,100,0,480,224,16,16,0,-12,-26,0,0,100,0,512,160,16,16,0,-84,-60,2,0,100,0,0,432,120,120,0,-14,-37,1,0,100,0,288,168,16,24,0,-27,-55,0,0,60,0,832,176,48,32,0,-29,-61,0,0,100,0,184,432,64,56,0,-24,-44,1,0,100,0,101,163,39,38,0,-41,-31,0,0,100,0,504,112,72,48,0,-13,-16,0,0,100,0,184,200,24,24,0,-19,-24,0,0,100,0,181,166,26,32,0,-17,-39,0,0,100,0,480,208,16,16,0,-34,-57,0,0,100,0,144,0,72,56,0,-34,-34,0,0,100,0,0,232,56,40,0,-33,-11,0,0,100,0,277,201,63,21,0,
0,15,-33,-42,0,0,50,0,704,368,32,32,0,-20,-35,0,0,100,0,480,224,16,16,0,-12,-26,0,0,100,0,512,160,16,16,0,-84,-60,2,0,100,0,0,432,120,120,0,-14,-37,1,0,100,0,288,168,16,24,0,-27,-55,0,0,60,0,832,176,48,32,0,-29,-61,0,0,100,0,184,432,64,56,0,-24,-44,1,0,100,0,101,163,39,38,0,-41,-31,0,0,100,0,504,112,72,48,0,-13,-16,0,0,100,0,184,200,24,24,0,-19,-24,0,0,100,0,181,166,26,32,0,-17,-39,0,0,100,0,480,208,16,16,0,-34,-57,0,0,100,0,216,0,72,56,0,-34,-34,0,0,100,0,0,232,56,40,0,-33,-11,0,0,100,0,277,201,63,21,0,
0,15,-34,-41,0,0,40,0,704,368,32,32,0,-20,-35,0,0,100,0,480,224,16,16,0,-12,-26,0,0,100,0,512,160,16,16,0,-84,-60,2,0,100,0,0,432,120,120,0,-14,-37,1,0,100,0,288,168,16,24,0,-27,-55,0,0,60,0,832,176,48,32,0,-29,-61,0,0,100,0,184,432,64,56,0,-24,-44,1,0,100,0,101,163,39,38,0,-41,-31,0,0,100,0,504,112,72,48,0,-13,-16,0,0,100,0,184,200,24,24,0,-19,-24,0,0,100,0,181,166,26,32,0,-17,-39,0,0,100,0,480,208,16,16,0,-34,-57,0,0,100,0,0,0,72,56,0,-34,-34,0,0,100,0,0,232,56,40,0,-33,-11,0,0,100,0,277,201,63,21,0,
0,15,-34,-41,0,0,20,0,704,368,32,32,0,-20,-35,0,0,100,0,480,224,16,16,0,-12,-26,0,0,100,0,512,160,16,16,0,-84,-60,2,0,100,0,0,432,120,120,0,-14,-37,1,0,100,0,288,168,16,24,0,-26,-55,0,0,60,0,832,176,48,32,0,-28,-61,0,0,100,0,120,432,64,56,0,-24,-44,1,0,100,0,101,163,39,38,0,-41,-31,0,0,100,0,504,112,72,48,0,-13,-16,0,0,100,0,184,200,24,24,0,-19,-24,0,0,100,0,181,166,26,32,0,-17,-39,0,0,100,0,480,208,16,16,0,-34,-56,0,0,100,0,72,0,72,56,0,-34,-34,0,0,100,0,0,232,56,40,0,-33,-11,0,0,100,0,277,201,63,21,0,
0,14,-20,-35,0,0,100,0,480,224,16,16,0,-12,-26,0,0,100,0,512,160,16,16,0,-84,-60,2,0,100,0,0,432,120,120,0,-14,-37,1,0,100,0,288,168,16,24,0,-26,-55,0,0,60,0,832,176,48,32,0,-36,-61,0,0,100,0,72,56,72,56,0,-24,-44,1,0,100,0,101,163,39,38,0,-41,-31,0,0,100,0,504,112,72,48,0,-13,-16,0,0,100,0,184,200,24,24,0,-19,-24,0,0,100,0,181,166,26,32,0,-17,-39,0,0,100,0,480,208,16,16,0,-34,-56,0,0,100,0,144,0,72,56,0,-34,-34,0,0,100,0,0,232,56,40,0,-33,-11,0,0,100,0,277,201,63,21,0,
0,14,-20,-35,0,0,100,0,480,224,16,16,0,-12,-26,0,0,100,0,512,160,16,16,0,-84,-60,2,0,100,0,0,432,120,120,0,-14,-37,1,0,100,0,288,168,16,24,0,-26,-55,0,0,60,0,832,176,48,32,0,-36,-61,0,0,100,0,144,56,72,56,0,-24,-44,1,0,100,0,101,163,39,38,0,-41,-31,0,0,100,0,504,112,72,48,0,-13,-16,0,0,100,0,184,200,24,24,0,-19,-24,0,0,100,0,181,166,26,32,0,-17,-39,0,0,100,0,480,208,16,16,0,-34,-56,0,0,100,0,216,0,72,56,0,-34,-34,0,0,100,0,0,232,56,40,0,-33,-11,0,0,100,0,277,201,63,21,0,
0,14,-20,-35,0,0,100,0,480,224,16,16,0,-12,-26,0,0,100,0,512,160,16,16,0,-84,-60,2,0,100,0,0,432,120,120,0,-14,-37,1,0,100,0,288,168,16,24,0,-26,-55,0,0,60,0,832,176,48,32,0,-36,-61,0,0,100,0,216,56,72,56,0,-24,-44,1,0,100,0,101,163,39,38,0,-41,-31,0,0,100,0,504,112,72,48,0,-13,-16,0,0,100,0,184,200,24,24,0,-19,-24,0,0,100,0,181,166,26,32,0,-17,-39,0,0,100,0,480,208,16,16,0,-34,-56,0,0,100,0,0,0,72,56,0,-34,-34,0,0,100,0,0,232,56,40,0,-33,-11,0,0,100,0,277,201,63,21,0,
0,14,-20,-35,0,0,100,0,480,224,16,16,0,-12,-26,0,0,100,0,512,160,16,16,0,-84,-60,2,0,100,0,0,432,120,120,0,-14,-37,1,0,100,0,288,168,16,24,0,-26,-55,0,0,60,0,832,176,48,32,0,-36,-61,0,0,100,0,0,56,72,56,0,-24,-44,1,0,100,0,101,163,39,38,0,-41,-31,0,0,100,0,504,112,72,48,0,-13,-16,0,0,100,0,184,200,24,24,0,-19,-24,0,0,100,0,181,166,26,32,0,-17,-39,0,0,100,0,480,208,16,16,0,-34,-56,0,0,100,0,72,0,72,56,0,-34,-34,0,0,100,0,0,232,56,40,0,-33,-11,0,0,100,0,277,201,63,21,0,
