0,4,-49,-73,0,1,70,0,570,838,95,73,0,-48,-71,0,0,70,0,6,746,92,71,0,-45,-66,0,0,100,0,0,649,89,71,0,-33,-14,0,0,65,0,222,43,63,27,0,
0,4,-47,-70,0,1,70,0,682,838,95,73,0,-43,-70,0,0,70,0,121,744,92,71,0,-44,-66,0,0,100,0,105,649,89,71,0,-33,-14,0,0,65,0,222,43,63,27,0,
0,4,-44,-70,0,1,70,0,782,838,92,73,0,-43,-68,0,0,70,0,218,746,92,71,0,-41,-66,0,0,100,0,201,649,89,71,0,-33,-14,0,0,65,0,222,43,63,27,0,
0,4,-44,-66,0,1,70,0,874,838,92,73,0,-43,-67,0,0,70,0,310,743,94,71,0,-43,-67,0,0,100,0,298,649,89,71,0,-33,-14,0,0,65,0,222,43,63,27,0,
0,14,-1,-60,0,1,70,0,400,735,33,58,0,-6,-60,0,0,70,0,9,928,41,55,0,-20,-41,0,0,100,0,46,30,39,33,0,2,-68,0,0,100,90,335,44,55,55,0,-18,-53,0,0,100,0,77,177,34,29,0,-13,-38,0,0,100,0,119,5,28,26,0,-44,-36,0,0,100,0,384,104,96,48,0,-17,-34,0,1,50,0,588,973,60,51,0,-17,-39,0,0,50,0,12,829,60,51,0,4,-36,0,0,100,0,483,149,43,46,0,-6,-38,0,0,100,0,7,71,36,26,0,-24,-24,0,0,100,0,357,3,51,28,0,-7,-45,0,0,100,0,565,668,53,38,0,-33,-14,0,0,65,0,222,43,63,27,0,
0,15,8,-62,0,0,50,0,15,329,42,31,0,5,-66,0,1,70,0,436,732,33,63,0,0,-66,0,0,70,0,53,925,41,62,0,-14,-42,0,0,100,0,46,30,39,33,0,8,-71,0,0,100,90,335,44,55,55,0,-16,-56,0,0,100,0,5,176,31,31,0,-9,-39,0,0,100,0,119,5,28,26,0,-40,-37,0,0,100,0,480,104,96,48,0,-16,-33,0,1,50,0,654,969,62,51,0,-16,-37,0,0,50,0,78,826,60,51,0,7,-36,0,0,100,0,483,149,43,46,0,-3,-39,0,0,100,0,7,71,36,26,0,-25,-23,0,0,100,0,410,1,51,28,0,-4,-50,0,0,100,0,626,663,53,42,0,-33,-14,0,0,65,0,222,43,63,27,0,
0,16,8,-62,0,1,60,0,15,329,42,31,0,8,-62,0,0,100,0,15,329,42,31,0,1,-64,0,1,70,0,469,734,41,55,0,-1,-64,0,0,70,0,96,925,41,55,0,-14,-42,0,0,100,0,46,30,39,33,0,8,-71,0,0,100,90,335,44,55,55,0,-9,-54,0,0,100,0,47,178,28,29,0,-9,-39,0,0,100,0,119,5,28,26,0,-41,-37,0,0,100,0,480,104,96,48,0,-9,-36,0,1,50,0,720,963,60,51,0,-12,-37,0,0,50,0,141,823,60,51,0,7,-36,0,0,100,0,483,149,43,46,0,-3,-39,0,0,100,0,7,71,36,26,0,-25,-23,0,0,100,0,410,1,51,28,0,-4,-46,0,0,100,0,680,667,53,42,0,-33,-14,0,0,65,0,222,43,63,27,0,
0,16,6,-101,0,1,100,0,12,368,46,71,0,6,-101,0,0,100,0,12,368,46,71,0,3,-63,0,1,70,0,507,731,33,59,0,2,-63,0,0,70,0,138,920,33,59,0,-14,-42,0,0,100,0,46,30,39,33,0,8,-71,0,0,100,90,335,44,55,55,0,-10,-55,0,0,100,0,81,177,30,28,0,-9,-39,0,0,100,0,119,5,28,26,0,-41,-37,0,0,100,0,384,104,96,48,0,-13,-36,0,1,50,0,786,967,60,51,0,-14,-41,0,0,50,0,209,823,60,51,0,7,-36,0,0,100,0,483,149,43,46,0,-3,-39,0,0,100,0,7,71,36,26,0,-25,-23,0,0,100,0,410,1,51,28,0,-2,-43,0,0,100,0,736,665,53,42,0,-33,-14,0,0,65,0,222,43,63,27,0,
0,16,-33,-107,0,1,100,0,1,438,84,78,0,-33,-107,0,0,100,0,1,438,84,78,0,5,-63,0,1,70,0,400,735,35,59,0,0,-63,0,0,70,0,9,928,41,59,0,-14,-42,0,0,100,0,46,30,39,33,0,8,-71,0,0,100,90,335,44,55,55,0,-12,-54,0,0,100,0,9,0,32,27,0,-9,-39,0,0,100,0,119,5,28,26,0,-15,-37,0,1,50,0,588,972,60,51,0,-15,-41,0,0,50,0,12,828,60,51,0,7,-36,0,0,100,0,483,149,43,46,0,-3,-39,0,0,100,0,7,71,36,26,0,-41,-37,0,0,100,0,480,104,96,48,0,-25,-23,0,0,100,0,410,1,51,28,0,-4,-47,0,0,100,0,565,668,53,38,0,-33,-14,0,0,65,0,222,43,63,27,0,
0,14,-92,-83,0,1,100,0,66,328,135,88,0,-41,-41,0,0,100,0,46,0,32,27,0,-27,-41,0,0,100,0,90,31,38,27,0,-31,-42,0,1,80,0,654,967,61,51,0,-32,-44,0,0,80,0,78,826,60,51,0,-11,-37,0,0,100,0,394,42,49,42,0,-92,-83,0,0,100,0,66,328,135,88,0,-29,-36,0,0,100,0,174,4,31,30,0,-22,-48,0,0,100,0,626,663,53,42,0,-29,-68,0,0,100,0,386,148,33,38,0,-20,-52,0,0,100,0,52,65,18,33,0,-57,-32,0,0,100,0,576,104,96,48,0,-28,-23,0,0,100,0,473,0,51,28,0,-33,-14,0,0,65,0,222,43,63,27,0,
0,14,-92,-76,0,1,100,0,199,325,120,92,0,-40,-43,0,0,100,0,128,178,35,29,0,-21,-43,0,0,100,0,800,657,53,42,0,-24,-32,0,0,100,0,105,64,26,27,0,-38,-28,0,1,80,0,655,967,60,51,0,-39,-30,0,0,80,0,78,826,60,51,0,-19,-23,0,0,100,0,394,42,49,42,0,-92,-76,0,0,100,0,199,325,120,92,0,-26,-65,0,0,100,0,386,148,33,38,0,-29,-36,0,0,100,0,174,4,31,30,0,-57,-32,0,0,100,0,672,104,96,48,0,-19,-48,0,0,100,0,76,66,18,33,0,-28,-23,0,0,100,0,473,0,51,28,0,-33,-14,0,0,65,0,222,43,63,27,0,
0,17,-65,-64,0,1,100,0,339,353,57,56,0,-65,-64,0,0,100,0,339,353,57,56,0,-33,-46,0,0,100,0,171,179,32,30,0,-18,-35,0,0,100,0,865,657,57,42,0,-45,-44,0,1,70,0,409,667,27,59,0,-46,-45,0,0,70,0,283,876,29,59,0,-46,-50,0,0,100,0,446,44,27,42,0,-42,-32,0,0,100,0,140,63,37,34,0,-15,-36,0,0,100,0,142,40,22,18,0,-27,-54,1,0,80,0,179,937,62,42,0,-13,-57,1,1,50,0,418,874,36,58,0,-12,-56,1,0,50,0,429,934,41,55,0,-23,-62,0,0,100,0,380,146,40,39,0,-29,-36,0,0,100,0,174,4,31,30,0,-57,-32,0,0,100,0,768,104,96,48,0,-29,-22,0,0,100,0,528,0,51,28,0,-33,-14,0,0,65,0,222,43,63,27,0,
0,13,-59,-148,0,1,100,0,412,320,83,132,0,-59,-148,0,0,100,0,412,320,83,132,0,-23,-85,0,0,100,0,179,62,32,36,0,-11,-67,0,0,100,0,924,654,40,57,0,-13,-87,0,0,100,0,85,0,28,27,0,-44,-69,0,0,100,0,672,56,96,48,0,-14,-75,0,0,100,0,228,5,31,30,0,-28,-111,0,1,50,0,437,665,27,59,0,-29,-110,0,0,50,0,311,876,29,59,0,-29,-114,0,0,100,0,446,44,27,42,0,-9,-94,0,0,100,0,892,240,56,72,0,-20,-53,0,0,100,0,583,3,37,43,0,-33,-14,0,0,65,0,222,43,63,27,0,
0,15,-59,-148,0,1,100,0,412,320,83,132,0,-59,-148,0,0,100,0,412,320,83,132,0,-23,-85,0,0,100,0,179,62,32,36,0,-9,-66,0,0,100,0,970,655,46,59,0,-13,-87,0,0,100,0,85,0,28,27,0,-44,-69,0,0,100,0,672,56,96,48,0,-14,-75,0,0,100,0,228,5,31,30,0,-28,-111,0,1,70,0,465,665,29,59,0,-27,-110,0,0,70,0,341,876,29,59,0,-29,-114,0,0,100,0,446,44,27,42,0,-17,-72,0,1,50,0,596,918,65,47,0,-14,-70,0,0,50,0,7,877,62,47,0,-6,-77,0,0,100,0,895,154,52,60,0,-20,-53,0,0,100,0,583,3,37,43,0,-33,-14,0,0,65,0,222,43,63,27,0,
0,15,-47,-126,0,1,50,0,502,358,72,99,0,-47,-126,0,0,100,0,502,358,72,99,0,-23,-86,0,0,100,0,179,62,32,36,0,-11,-70,0,0,100,0,924,716,40,68,0,-15,-89,0,0,100,0,78,207,36,30,0,-44,-70,0,0,100,0,768,56,96,48,0,-14,-76,0,0,100,0,228,5,31,30,0,-28,-113,0,1,70,0,500,667,29,59,0,-27,-114,0,0,70,0,376,876,29,59,0,-29,-115,0,0,100,0,446,44,27,42,0,-15,-70,0,1,50,0,665,917,62,47,0,-15,-70,0,0,50,0,74,875,62,47,0,-6,-78,0,0,100,0,895,154,52,60,0,-20,-54,0,0,100,0,583,3,37,43,0,-33,-14,0,0,65,0,222,43,63,27,0,
0,14,-41,-125,0,0,50,0,508,359,61,97,0,-23,-86,0,0,100,0,179,62,32,36,0,-11,-68,0,0,100,0,967,718,46,69,0,-14,-91,0,0,100,0,9,205,29,29,0,-44,-70,0,0,100,0,768,56,96,48,0,-14,-76,0,0,100,0,228,5,31,30,0,-29,-109,0,1,70,0,408,667,29,59,0,-29,-110,0,0,70,0,283,876,29,59,0,-29,-115,0,0,100,0,446,44,27,42,0,-14,-66,0,1,50,0,730,923,62,37,0,-14,-68,0,0,50,0,140,877,62,47,0,-6,-78,0,0,100,0,895,154,52,60,0,-20,-54,0,0,100,0,583,3,37,43,0,-33,-14,0,0,65,0,222,43,63,27,0,
0,13,-23,-87,0,0,100,0,179,62,32,36,0,-11,-68,0,0,100,0,924,654,40,57,0,-14,-91,0,0,100,0,9,205,29,29,0,-44,-71,0,0,100,0,672,56,96,48,0,-14,-77,0,0,100,0,228,5,31,30,0,-28,-111,0,1,70,0,409,666,29,59,0,-29,-111,0,0,70,0,283,876,29,59,0,-29,-116,0,0,100,0,446,44,27,42,0,-15,-78,0,1,80,0,800,918,62,47,0,-16,-75,0,0,80,0,208,878,62,47,0,-6,-79,0,0,100,0,895,154,52,60,0,-20,-55,0,0,100,0,583,3,37,43,0,-33,-14,0,0,65,0,222,43,63,27,0,
0,14,-80,-157,0,1,100,0,661,324,103,171,0,-16,-43,0,0,100,0,867,734,50,42,0,-43,-38,0,0,100,0,46,0,32,27,0,-80,-157,0,0,100,0,661,324,103,171,0,-26,-18,2,0,100,0,301,34,34,35,0,-26,-29,0,0,100,0,105,64,26,27,0,-21,-45,0,0,100,0,76,66,18,33,0,-26,-56,1,1,50,0,415,876,41,56,0,-23,-57,1,0,50,0,429,934,41,55,0,-24,-59,0,0,100,0,390,151,28,34,0,-31,-33,0,0,100,0,174,4,31,30,0,-59,-45,0,0,100,0,864,88,96,64,0,-30,-22,0,0,100,0,527,0,51,28,0,-33,-14,0,0,65,0,222,43,63,27,0,
0,14,-76,-116,0,1,100,0,763,369,111,136,0,-76,-116,0,0,100,0,763,369,111,136,0,-17,-41,0,0,100,0,803,658,53,38,0,-41,-41,0,0,100,0,129,177,32,33,0,-21,-45,0,0,100,0,76,66,18,33,0,-26,-18,2,0,100,0,301,34,34,35,0,-25,-57,1,1,70,0,456,875,34,55,0,-28,-57,1,0,70,0,471,934,41,55,0,-24,-59,0,0,100,0,390,151,28,34,0,-26,-29,0,0,100,0,105,64,26,27,0,-31,-33,0,0,100,0,174,4,31,30,0,-59,-29,0,0,100,0,576,56,96,48,0,-30,-22,0,0,100,0,527,0,51,28,0,-33,-14,0,0,65,0,222,43,63,27,0,
0,15,-89,-77,0,0,40,0,51,525,106,99,0,-17,-39,0,0,100,0,804,698,53,35,0,-21,-45,0,0,100,0,76,66,18,33,0,-41,-42,0,0,100,0,170,176,30,32,0,-23,-62,1,1,70,0,491,874,35,55,0,-27,-62,1,0,70,0,507,933,41,55,0,-24,-59,0,0,100,0,390,151,28,34,0,-26,-19,3,1,70,0,416,874,41,33,0,-22,-20,3,0,70,0,429,934,41,33,0,-26,-18,2,0,100,0,301,34,34,35,0,-26,-29,0,0,100,0,105,64,26,27,0,-31,-33,0,0,100,0,174,4,31,30,0,-59,-29,0,0,100,0,480,56,96,48,0,-30,-22,0,0,100,0,527,0,51,28,0,-33,-14,0,0,65,0,222,43,63,27,0,
0,15,-74,-120,0,1,30,0,765,365,112,141,0,-74,-120,0,0,60,0,765,365,112,141,0,-16,-39,0,0,100,0,805,734,52,38,0,-43,-38,0,0,100,0,46,0,32,27,0,-21,-45,0,0,100,0,76,66,18,33,0,-23,-62,1,1,70,0,530,875,31,55,0,-27,-64,1,0,70,0,546,933,41,55,0,-24,-59,0,0,100,0,390,151,28,34,0,-28,-20,3,1,70,0,471,934,41,34,0,-26,-18,2,0,100,0,301,34,34,35,0,-26,-29,0,0,100,0,105,64,26,27,0,-31,-33,0,0,100,0,174,4,31,30,0,-59,-29,0,0,100,0,576,56,96,48,0,-30,-22,0,0,100,0,527,0,51,28,0,-33,-14,0,0,65,0,222,43,63,27,0,
0,15,-36,-23,0,0,20,0,8,585,40,44,0,-16,-43,0,0,100,0,867,733,53,42,0,-21,-45,0,0,100,0,76,66,18,33,0,-23,-58,1,1,70,0,420,875,34,58,0,-26,-59,1,0,70,0,432,933,41,58,0,-24,-59,0,0,100,0,390,151,28,34,0,-41,-42,0,0,100,0,170,176,30,32,0,-30,-17,3,1,70,0,491,876,41,34,0,-28,-19,3,0,70,0,509,934,41,34,0,-26,-18,2,0,100,0,301,34,34,35,0,-26,-29,0,0,100,0,105,64,26,27,0,-31,-33,0,0,100,0,174,4,31,30,0,-59,-29,0,0,100,0,480,56,96,48,0,-30,-22,0,0,100,0,527,0,51,28,0,-33,-14,0,0,65,0,222,43,63,27,0,
0,14,-16,-41,0,0,100,0,804,695,62,36,0,-43,-38,0,0,100,0,46,0,32,27,0,-29,-19,3,1,70,0,491,876,41,34,0,-28,-19,3,0,70,0,509,934,41,34,0,-26,-18,2,0,100,0,301,34,34,35,0,-26,-29,0,0,100,0,105,64,26,27,0,-21,-45,0,0,100,0,76,66,18,33,0,-26,-57,1,1,70,0,456,875,35,55,0,-28,-57,1,0,70,0,471,934,41,55,0,-24,-59,0,0,100,0,390,151,28,34,0,-31,-33,0,0,100,0,174,4,31,30,0,-48,-42,0,0,100,0,299,91,83,63,0,-30,-22,0,0,100,0,527,0,51,28,0,-33,-14,0,0,65,0,222,43,63,27,0,
0,15,-21,-44,0,0,100,0,804,730,63,42,0,-43,-43,0,0,100,0,130,178,34,29,0,-29,-32,0,0,100,0,105,64,26,27,0,-23,-24,0,1,70,0,607,977,42,47,0,-23,-35,0,0,70,0,32,828,42,47,0,-24,-23,0,0,100,0,394,42,49,42,0,-24,-48,0,0,100,0,76,66,18,33,0,-46,-59,1,0,80,0,292,938,62,42,0,-28,-65,1,1,70,0,490,875,36,55,0,-30,-65,1,0,70,0,507,933,41,55,0,-27,-62,0,0,100,0,390,151,28,34,0,-34,-36,0,0,100,0,174,4,31,30,0,-62,-32,0,0,100,0,672,104,96,48,0,-33,-23,0,0,100,0,473,0,51,28,0,-33,-14,0,0,65,0,222,43,63,27,0,
0,3,-42,-58,0,0,70,0,69,252,68,66,0,-34,-58,0,0,30,0,69,252,68,66,0,-33,-14,0,0,65,0,222,43,63,27,0,
0,3,-42,-58,0,0,40,0,69,252,68,66,0,-11,-58,0,0,20,0,69,252,68,66,0,-33,-14,0,0,65,0,222,43,63,27,0,
0,3,-43,-76,0,0,100,0,719,153,76,93,0,-13,-48,0,0,100,0,560,668,58,39,0,-33,-14,0,0,65,0,222,43,63,27,0,
0,3,-43,-74,0,0,100,0,805,153,76,84,0,-8,-52,0,0,100,0,627,663,50,43,0,-33,-14,0,0,65,0,222,43,63,27,0,
0,3,-47,-69,0,0,100,0,725,252,78,78,0,-8,-49,0,0,100,0,681,664,50,43,0,-33,-14,0,0,65,0,222,43,63,27,0,
0,3,-49,-72,0,0,100,0,813,249,80,82,0,-9,-47,0,0,100,0,736,663,52,43,0,-33,-14,0,0,65,0,222,43,63,27,0,
0,5,-24,-61,0,1,20,0,601,179,36,24,0,-42,-67,0,1,20,0,681,152,23,36,0,-43,-76,0,0,100,0,719,153,76,93,0,-13,-48,0,0,100,0,560,668,58,39,0,-33,-14,0,0,65,0,222,43,63,27,0,
0,4,-24,-61,0,1,100,0,601,179,36,24,0,-42,-67,0,1,100,0,681,152,23,36,0,-43,-74,0,0,100,0,805,153,76,84,0,-33,-14,0,0,65,0,222,43,63,27,0,
0,4,-24,-61,0,1,50,0,601,179,36,24,0,-42,-67,0,1,50,0,681,152,23,36,0,-47,-69,0,0,100,0,725,252,78,78,0,-33,-14,0,0,65,0,222,43,63,27,0,
0,4,-24,-61,0,1,20,0,601,179,36,24,0,-42,-67,0,1,20,0,681,152,23,36,0,-49,-72,0,0,100,0,813,249,80,82,0,-33,-14,0,0,65,0,222,43,63,27,0,
0,3,-30,-88,0,0,100,0,340,237,58,90,0,-15,-51,0,0,100,0,560,668,58,39,0,-33,-14,0,0,65,0,222,43,63,27,0,
0,3,-29,-72,0,0,100,0,416,243,58,77,0,-6,-54,0,0,100,0,681,662,50,45,0,-33,-14,0,0,65,0,222,43,63,27,0,
0,3,-41,-69,0,0,100,0,490,247,66,73,0,-12,-51,0,0,100,0,737,660,51,45,0,-33,-14,0,0,65,0,222,43,63,27,0,
0,3,-52,-66,0,0,100,0,566,251,80,70,0,-18,-64,0,0,100,0,631,707,51,45,0,-33,-14,0,0,65,0,222,43,63,27,0,
0,3,-39,-62,0,0,100,0,266,549,64,70,0,-20,-66,0,0,100,0,566,707,54,45,0,-33,-14,0,0,65,0,222,43,63,27,0,
0,5,-51,-36,1,0,100,0,467,576,56,58,0,-25,-32,0,0,100,0,472,580,45,50,0,-43,-69,0,0,100,0,825,538,74,82,0,-22,-55,0,0,100,0,566,754,56,43,0,-33,-14,0,0,65,0,222,43,63,27,0,
0,5,-51,-36,1,0,100,0,467,576,56,58,0,-25,-32,0,0,100,0,472,580,45,50,0,-38,-65,0,0,100,0,270,249,64,70,0,-16,-52,0,0,100,0,627,661,50,43,0,-33,-14,0,0,65,0,222,43,63,27,0,
0,5,-51,-36,1,0,100,0,467,576,56,58,0,-25,-32,0,0,100,0,472,580,45,50,0,-46,-59,0,0,100,0,222,187,73,68,0,-15,-44,0,0,100,0,736,663,52,43,0,-33,-14,0,0,65,0,222,43,63,27,0,
0,5,-51,-36,1,0,100,0,467,576,56,58,0,-25,-32,0,0,100,0,472,580,45,50,0,-46,-59,0,0,100,0,222,187,73,68,0,-16,-49,0,0,100,0,681,664,50,43,0,-33,-14,0,0,65,0,222,43,63,27,0,
0,3,-41,-65,0,0,100,0,163,249,87,70,0,-10,-52,0,0,100,0,681,664,50,43,0,-33,-14,0,0,65,0,222,43,63,27,0,
0,3,-36,-71,0,0,100,0,160,540,75,75,0,-8,-49,0,0,100,0,681,664,50,43,0,-33,-14,0,0,65,0,222,43,63,27,0,
0,5,-9,-47,0,0,100,0,401,453,53,53,0,-62,-52,1,0,100,0,404,509,53,46,0,-30,-67,0,0,100,0,166,446,53,70,0,-8,-52,0,0,100,0,627,663,50,43,0,-33,-14,0,0,65,0,222,43,63,27,0,
0,5,5,-49,0,0,100,0,405,507,53,53,0,-62,-70,1,0,100,0,407,569,53,46,0,-30,-67,0,0,100,0,166,446,53,70,0,-13,-48,0,0,100,0,560,668,58,39,0,-33,-14,0,0,65,0,222,43,63,27,0,
0,4,3,-68,0,0,100,0,407,566,53,53,0,-55,-76,1,0,100,0,467,458,53,46,0,-30,-61,0,0,100,0,529,457,73,70,0,-33,-14,0,0,65,0,222,43,63,27,0,
0,4,-3,-74,0,0,100,0,468,455,53,53,0,-45,-76,1,0,100,0,468,523,53,51,0,-32,-59,0,0,100,0,540,555,67,66,0,-33,-14,0,0,65,0,222,43,63,27,0,
0,4,-13,-72,0,0,100,0,469,521,53,53,0,-36,-72,1,0,100,0,332,452,53,51,0,-35,-62,0,0,100,0,614,550,62,69,0,-33,-14,0,0,65,0,222,43,63,27,0,
0,4,-25,-67,0,0,100,0,330,451,53,53,0,-38,-61,1,0,100,0,334,503,53,51,0,-33,-65,0,0,100,0,685,547,62,72,0,-33,-14,0,0,65,0,222,43,63,27,0,
0,4,-22,-55,0,0,100,0,333,504,53,53,0,-43,-52,1,0,100,0,340,563,53,51,0,-34,-65,0,0,100,0,750,547,69,74,0,-33,-14,0,0,65,0,222,43,63,27,0,
0,4,-16,-50,0,0,100,0,339,562,53,53,0,-53,-51,1,0,100,0,404,454,53,51,0,-30,-67,0,0,100,0,166,446,53,70,0,-33,-14,0,0,65,0,222,43,63,27,0,
0,4,-53,-50,1,0,100,0,406,566,56,58,0,-24,-47,0,0,100,0,408,570,49,50,0,-38,-65,0,0,100,0,270,249,64,70,0,-33,-14,0,0,65,0,222,43,63,27,0,
0,5,-9,-47,0,0,100,0,401,453,53,53,0,-62,-52,1,0,100,0,404,509,53,46,0,-32,-59,0,0,100,0,540,555,67,66,0,-13,-48,0,0,100,0,560,668,58,39,0,-33,-14,0,0,65,0,222,43,63,27,0,
0,5,5,-49,0,0,100,0,405,507,53,53,0,-62,-70,1,0,100,0,407,569,53,46,0,-32,-59,0,0,100,0,540,555,67,66,0,-9,-47,0,0,100,0,736,663,52,43,0,-33,-14,0,0,65,0,222,43,63,27,0,
0,5,3,-68,0,0,100,0,407,566,53,53,0,-55,-76,1,0,100,0,467,458,53,46,0,-35,-62,0,0,100,0,614,550,62,69,0,-8,-49,0,0,100,0,681,664,50,43,0,-33,-14,0,0,65,0,222,43,63,27,0,
0,5,-3,-74,0,0,100,0,468,455,53,53,0,-45,-76,1,0,100,0,468,523,53,51,0,-35,-62,0,0,100,0,614,550,62,69,0,-8,-52,0,0,100,0,627,663,50,43,0,-33,-14,0,0,65,0,222,43,63,27,0,
0,5,-13,-72,0,0,100,0,469,521,53,53,0,-36,-72,1,0,100,0,332,452,53,51,0,-33,-65,0,0,100,0,685,547,62,72,0,-13,-48,0,0,100,0,560,668,58,39,0,-33,-14,0,0,65,0,222,43,63,27,0,
0,5,-25,-67,0,0,100,0,330,451,53,53,0,-38,-61,1,0,100,0,334,503,53,51,0,-33,-65,0,0,100,0,685,547,62,72,0,-9,-47,0,0,100,0,736,663,52,43,0,-33,-14,0,0,65,0,222,43,63,27,0,
0,5,-22,-55,0,0,100,0,333,504,53,53,0,-43,-52,1,0,100,0,340,563,53,51,0,-34,-65,0,0,100,0,750,547,69,74,0,-8,-49,0,0,100,0,681,664,50,43,0,-33,-14,0,0,65,0,222,43,63,27,0,
0,5,-16,-50,0,0,100,0,339,562,53,53,0,-53,-51,1,0,100,0,404,454,53,51,0,-34,-65,0,0,100,0,750,547,69,74,0,-8,-52,0,0,100,0,627,663,50,43,0,-33,-14,0,0,65,0,222,43,63,27,0,
0,5,-25,-64,0,1,100,0,600,153,41,22,0,-42,-73,0,1,100,0,651,146,26,47,0,-44,-68,0,0,100,0,240,445,70,72,0,-13,-48,0,0,100,0,560,668,58,39,0,-33,-14,0,0,65,0,222,43,63,27,0,
0,5,-24,-61,0,1,100,0,601,179,36,24,0,-42,-67,0,1,100,0,681,152,23,36,0,-44,-68,0,0,100,0,240,445,70,72,0,-9,-47,0,0,100,0,736,663,52,43,0,-33,-14,0,0,65,0,222,43,63,27,0,
0,5,-24,-61,0,1,60,0,601,179,36,24,0,-42,-67,0,1,60,0,681,152,23,36,0,-44,-68,0,0,100,0,240,445,70,72,0,-8,-49,0,0,100,0,681,664,50,43,0,-33,-14,0,0,65,0,222,43,63,27,0,
0,5,-24,-61,0,1,40,0,601,179,36,24,0,-42,-67,0,1,40,0,681,152,23,36,0,-44,-68,0,0,100,0,240,445,70,72,0,-8,-52,0,0,100,0,627,663,50,43,0,-33,-14,0,0,65,0,222,43,63,27,0,
0,3,-39,-62,0,0,100,0,266,549,64,70,0,-19,-41,0,0,100,0,689,715,54,45,0,-33,-14,0,0,65,0,222,43,63,27,0,
