5,0,0,8,
6,0,0,4,
7,0,0,3,
8,0,0,2,
9,0,0,15,
10,0,0,8,
11,0,0,4,
12,0,0,4,
13,0,0,10,
14,0,0,4,
15,0,0,10,
16,0,0,4,
17,0,0,10,
18,0,0,8,
19,0,0,7,
20,0,0,6,
21,0,0,4,
22,0,0,6,
23,0,0,8,
24,0,0,15,
