0,2,-56,-88,0,0,100,0,0,0,96,96,0,-48,-16,0,0,100,0,576,0,96,32,0,
0,2,-56,-88,0,0,100,0,96,0,96,96,0,-48,-16,0,0,100,0,576,0,96,32,0,
0,2,-56,-88,0,0,100,0,192,0,96,96,0,-48,-16,0,0,100,0,576,0,96,32,0,
0,2,-56,-88,0,0,100,0,288,0,96,96,0,-48,-16,0,0,100,0,576,0,96,32,0,
0,0,
0,2,-56,-88,0,0,100,0,384,0,96,96,0,-48,-16,0,0,100,0,576,0,96,32,0,
0,0,
0,2,-24,-88,0,0,100,0,0,96,96,96,0,-48,-16,0,0,100,0,576,0,96,32,0,
0,2,-24,-88,0,0,100,0,96,96,96,96,0,-48,-16,0,0,100,0,576,0,96,32,0,
0,2,-56,-88,0,0,100,0,192,96,96,96,0,-50,-16,0,0,100,0,576,0,96,32,0,
0,3,-116,-74,0,1,100,0,480,0,96,96,0,-88,-88,0,0,100,0,288,96,128,96,0,-51,-16,0,0,100,0,576,0,96,32,0,
0,2,-56,-88,0,0,100,0,416,96,128,96,0,-47,-16,0,0,100,0,576,0,96,32,0,
0,2,-24,-88,0,0,100,0,544,96,128,96,0,-45,-16,0,0,100,0,576,0,96,32,0,
0,2,-24,-88,0,0,100,0,0,192,96,96,0,-45,-16,0,0,100,0,576,0,96,32,0,
0,2,-24,-88,0,0,100,0,96,192,96,96,0,-48,-16,0,0,100,0,576,0,96,32,0,
0,2,-56,-88,0,0,100,0,192,192,96,96,0,-49,-16,0,0,100,0,576,0,96,32,0,
0,3,-116,-74,0,1,100,0,480,0,96,96,0,-88,-88,0,0,100,0,288,192,128,96,0,-52,-16,0,0,100,0,576,0,96,32,0,
0,2,-56,-88,0,0,100,0,416,192,128,96,0,-49,-16,0,0,100,0,576,0,96,32,0,
0,2,-24,-88,0,0,100,0,544,192,96,96,0,-48,-16,0,0,100,0,576,0,96,32,0,
0,2,-24,-88,0,0,100,0,640,192,96,96,0,-48,-16,0,0,100,0,576,0,96,32,0,
0,0,
0,0,
0,0,
0,0,
0,2,-24,-88,0,0,100,0,64,288,64,96,0,-47,-16,0,0,100,0,576,0,96,32,0,
0,2,-24,-88,0,0,100,0,128,288,64,96,0,-47,-16,0,0,100,0,576,0,96,32,0,
0,3,-80,-88,0,0,100,0,192,288,96,96,0,-77,-83,0,0,100,0,0,352,32,32,0,-50,-16,0,0,100,0,576,0,96,32,0,
0,3,-72,-128,0,0,100,0,0,320,32,32,0,-80,-88,0,0,100,0,288,288,96,96,0,-50,-16,0,0,100,0,576,0,96,32,0,
0,3,-54,-137,0,0,100,0,0,288,32,32,0,-80,-88,0,0,100,0,288,288,96,96,0,-50,-16,0,0,100,0,576,0,96,32,0,
0,3,-50,-135,0,0,100,0,32,288,32,32,0,-56,-88,0,0,100,0,384,288,96,96,0,-50,-16,0,0,100,0,576,0,96,32,0,
0,3,-35,-112,0,0,100,0,32,320,32,32,0,-56,-88,0,0,100,0,480,288,96,96,0,-50,-16,0,0,100,0,576,0,96,32,0,
0,3,-36,-65,0,0,100,0,32,352,32,32,0,-56,-88,0,0,100,0,576,288,96,96,0,-50,-16,0,0,100,0,576,0,96,32,0,
0,2,-56,-88,0,0,100,0,0,384,96,96,0,-49,-16,0,0,100,0,576,0,96,32,0,
0,2,-56,-88,0,0,100,0,96,384,96,96,0,-48,-16,0,0,100,0,576,0,96,32,0,
0,0,
0,2,-56,-88,0,0,100,0,288,384,96,96,0,-48,-16,0,0,100,0,576,0,96,32,0,
0,2,-56,-88,0,0,100,0,384,384,96,96,0,-48,-16,0,0,100,0,576,0,96,32,0,
0,2,-56,-88,0,0,100,0,480,384,96,96,0,-48,-16,0,0,100,0,576,0,96,32,0,
0,2,-56,-88,0,0,100,0,576,384,96,96,0,-48,-16,0,0,100,0,576,0,96,32,0,
