0,3,-29,-61,0,0,100,0,0,0,64,64,0,8,-50,0,0,75,0,80,128,32,32,0,-27,-9,0,0,65,0,0,136,56,16,0,
0,3,-29,-61,0,0,100,0,64,0,64,64,0,8,-55,0,0,75,0,80,128,32,32,0,-27,-9,0,0,65,0,0,136,56,16,0,
0,3,-29,-61,0,0,100,0,128,0,64,64,0,6,-58,0,0,75,0,80,128,32,32,0,-27,-9,0,0,65,0,0,136,56,16,0,
0,3,-29,-61,0,0,100,0,192,0,64,64,0,7,-54,0,0,75,0,80,128,32,32,0,-27,-9,0,0,65,0,0,136,56,16,0,
0,3,-29,-61,0,0,100,0,0,64,64,64,0,6,-54,0,0,75,0,80,128,32,32,0,-27,-9,0,0,65,0,0,136,56,16,0,
0,4,-36,-75,0,1,100,0,0,272,80,80,0,-29,-61,0,0,100,0,64,64,64,64,0,7,-50,0,0,75,0,80,128,32,32,0,-27,-9,0,0,65,0,0,136,56,16,0,
0,4,-36,-75,0,1,100,0,80,272,80,80,0,-29,-62,0,0,100,0,64,64,64,64,0,7,-51,0,0,75,0,80,128,32,32,0,-27,-9,0,0,65,0,0,136,56,16,0,
0,4,-36,-75,0,1,100,0,160,272,80,80,0,-29,-61,0,0,100,0,64,64,64,64,0,7,-50,0,0,75,0,80,128,32,32,0,-27,-9,0,0,65,0,0,136,56,16,0,
0,4,-36,-75,0,1,100,0,240,272,80,80,0,-29,-62,0,0,100,0,64,64,64,64,0,7,-51,0,0,75,0,80,128,32,32,0,-27,-9,0,0,65,0,0,136,56,16,0,
0,4,-36,-75,0,1,100,0,320,272,80,80,0,-29,-61,0,0,100,0,64,64,64,64,0,7,-50,0,0,75,0,80,128,32,32,0,-27,-9,0,0,65,0,0,136,56,16,0,
0,4,-36,-75,0,1,100,0,400,272,80,80,0,-29,-62,0,0,100,0,64,64,64,64,0,7,-51,0,0,75,0,80,128,32,32,0,-27,-9,0,0,65,0,0,136,56,16,0,
0,4,-36,-75,0,1,100,0,0,352,80,80,0,-29,-61,0,0,100,0,128,64,64,64,0,7,-55,0,0,75,0,80,128,32,32,0,-27,-9,0,0,65,0,0,136,56,16,0,
0,4,-36,-75,0,1,100,0,80,352,80,80,0,-29,-60,0,0,100,0,192,64,64,64,0,7,-54,0,0,75,0,80,128,32,32,0,-27,-9,0,0,65,0,0,136,56,16,0,
0,4,-36,-75,0,1,100,0,160,352,80,80,0,-29,-61,0,0,100,0,128,64,64,64,0,7,-55,0,0,75,0,80,128,32,32,0,-27,-9,0,0,65,0,0,136,56,16,0,
0,4,-36,-75,0,1,100,0,240,352,80,80,0,-29,-60,0,0,100,0,192,64,64,64,0,7,-54,0,0,75,0,80,128,32,32,0,-27,-9,0,0,65,0,0,136,56,16,0,
0,4,-36,-75,0,1,100,0,0,272,80,80,0,-29,-61,0,0,100,0,128,64,64,64,0,7,-55,0,0,75,0,80,128,32,32,0,-27,-9,0,0,65,0,0,136,56,16,0,
0,4,-36,-75,0,1,100,0,80,272,80,80,0,-29,-60,0,0,100,0,192,64,64,64,0,7,-54,0,0,75,0,80,128,32,32,0,-27,-9,0,0,65,0,0,136,56,16,0,
0,4,-36,-75,0,1,70,0,0,352,80,80,0,-29,-61,0,0,100,0,128,64,64,64,0,7,-55,0,0,75,0,80,128,32,32,0,-27,-9,0,0,65,0,0,136,56,16,0,
0,4,-36,-75,0,1,50,0,80,352,80,80,0,-29,-60,0,0,100,0,192,64,64,64,0,7,-54,0,0,75,0,80,128,32,32,0,-27,-9,0,0,65,0,0,136,56,16,0,
0,4,-36,-75,0,1,40,0,160,352,80,80,0,-29,-61,0,0,100,0,128,64,64,64,0,7,-55,0,0,75,0,80,128,32,32,0,-27,-9,0,0,65,0,0,136,56,16,0,
0,4,-36,-75,0,1,30,0,240,352,80,80,0,-29,-60,0,0,100,0,192,64,64,64,0,7,-54,0,0,75,0,80,128,32,32,0,-27,-9,0,0,65,0,0,136,56,16,0,
0,4,-36,-75,0,1,20,0,0,272,80,80,0,-29,-61,0,0,100,0,128,64,64,64,0,7,-55,0,0,75,0,80,128,32,32,0,-27,-9,0,0,65,0,0,136,56,16,0,
0,4,-36,-75,0,1,10,0,80,272,80,80,0,-29,-60,0,0,100,0,192,64,64,64,0,7,-54,0,0,75,0,80,128,32,32,0,-27,-9,0,0,65,0,0,136,56,16,0,
0,3,-38,-67,0,0,100,0,272,80,80,64,0,10,-48,0,0,75,0,80,128,32,32,0,-27,-9,0,0,65,0,0,136,56,16,0,
0,3,-38,-69,0,0,100,0,352,16,80,64,0,8,-51,0,0,75,0,80,128,32,32,0,-27,-9,0,0,65,0,0,136,56,16,0,
0,3,-38,-72,0,0,100,0,272,16,80,64,0,6,-57,0,0,75,0,80,128,32,32,0,-27,-9,0,0,65,0,0,136,56,16,0,
0,3,-37,-64,0,0,100,0,352,80,80,64,0,8,-54,0,0,75,0,80,128,32,32,0,-27,-9,0,0,65,0,0,136,56,16,0,
