0,11,-55,-72,0,1,100,0,160,0,80,80,0,-25,-72,0,0,100,0,160,80,80,40,0,-5,-52,0,0,100,0,120,40,40,40,0,-25,-52,0,0,100,0,80,40,40,40,0,-15,-42,0,0,100,0,0,40,40,40,0,-15,-52,0,0,100,0,0,80,40,40,0,-5,-32,0,0,100,0,0,120,40,40,0,-25,-62,0,0,100,0,0,160,40,80,0,-25,-42,0,0,100,0,0,240,40,40,0,-35,-52,0,0,100,0,0,280,40,40,0,-27,-12,0,0,65,0,0,368,56,24,0,
0,11,-55,-72,0,1,100,0,240,0,80,80,0,-25,-72,0,0,100,0,240,80,80,40,0,-5,-52,0,0,100,0,120,40,40,40,0,-25,-52,0,0,100,0,80,40,40,40,0,-15,-42,0,0,100,0,40,40,40,40,0,-15,-52,0,0,100,0,40,80,40,40,0,-5,-32,0,0,100,0,40,120,40,40,0,-25,-62,0,0,100,0,40,160,40,80,0,-25,-42,0,0,100,0,40,240,40,40,0,-35,-52,0,0,100,0,40,280,40,40,0,-27,-12,0,0,65,0,0,368,56,24,0,
0,11,-55,-72,0,1,100,0,320,0,80,80,0,-25,-71,0,0,100,0,320,80,80,40,0,-5,-51,0,0,100,0,120,40,40,40,0,-25,-51,0,0,100,0,80,40,40,40,0,-15,-41,0,0,100,0,40,40,40,40,0,-15,-51,0,0,100,0,80,80,40,40,0,-5,-32,0,0,100,0,80,120,40,40,0,-25,-62,0,0,100,0,80,160,40,80,0,-25,-42,0,0,100,0,80,240,40,40,0,-35,-51,0,0,100,0,40,280,40,40,0,-27,-12,0,0,65,0,0,368,56,24,0,
0,11,-55,-72,0,1,100,0,400,0,80,80,0,-25,-71,0,0,100,0,400,80,80,40,0,-5,-51,0,0,100,0,120,40,40,40,0,-25,-51,0,0,100,0,80,40,40,40,0,-15,-41,0,0,100,0,0,40,40,40,0,-15,-51,0,0,100,0,120,80,40,40,0,-5,-32,0,0,100,0,120,120,40,40,0,-25,-62,0,0,100,0,120,160,40,80,0,-25,-42,0,0,100,0,120,240,40,40,0,-35,-51,0,0,100,0,0,280,40,40,0,-27,-12,0,0,65,0,0,368,56,24,0,
0,10,-21,-62,0,0,100,0,0,0,40,40,0,-31,-73,0,0,100,0,160,80,80,40,0,-12,-54,0,0,100,0,120,40,40,40,0,-32,-54,0,0,100,0,80,40,40,40,0,-21,-53,0,0,100,0,160,120,40,40,0,-4,-34,0,0,100,0,120,120,40,40,0,-44,-38,0,0,100,0,160,160,80,40,0,-20,-41,0,0,100,0,0,240,40,40,0,-29,-46,0,0,100,0,0,280,24,40,0,-29,-12,0,0,65,0,0,392,56,24,0,
0,11,-20,-53,1,0,100,0,120,0,40,40,0,-34,-50,1,0,100,0,120,40,40,40,0,-22,-49,0,0,100,0,200,120,40,40,0,-46,-68,0,0,100,0,480,0,80,40,0,-17,-48,0,0,100,0,120,280,40,40,0,-27,-39,0,0,100,0,80,280,40,40,0,-12,-39,0,0,100,0,160,200,40,40,0,-22,-29,0,0,100,0,240,160,40,40,0,-31,-29,0,0,100,0,280,160,40,40,0,-27,-38,0,0,100,0,160,240,40,40,0,-32,-12,0,0,65,0,0,368,56,24,0,
0,12,-2,-84,1,1,100,0,320,440,40,80,0,8,-44,0,1,100,0,80,320,40,40,0,-12,-54,0,0,100,0,120,40,40,40,0,-33,-53,0,0,100,0,80,40,40,40,0,-12,-44,0,0,100,0,160,280,40,40,0,-22,-54,0,0,100,0,240,120,40,40,0,-19,-43,0,0,100,0,200,200,40,40,0,-50,-74,1,0,100,0,480,40,80,40,0,-28,-52,1,0,100,0,120,280,40,40,0,-23,-34,0,0,100,0,240,200,40,40,0,-6,-44,0,0,100,0,280,200,40,40,0,-27,-12,0,0,65,0,0,368,56,24,0,
0,16,-2,-84,1,1,100,0,360,440,40,80,0,-13,-88,0,1,100,0,240,320,40,40,0,-13,-108,1,1,100,0,360,360,40,80,0,-3,-98,1,1,100,0,320,440,40,80,0,8,-43,0,1,100,0,120,320,40,40,0,-28,-82,0,1,100,0,600,120,40,40,0,-30,-84,0,0,100,0,360,160,40,40,0,-52,-85,1,0,100,0,120,40,40,40,0,-56,-74,0,0,100,0,200,280,40,40,0,-74,-103,0,0,100,0,480,80,80,40,0,-31,-86,1,0,100,0,80,40,40,40,0,-41,-83,0,0,100,0,280,120,40,40,0,-35,-83,0,0,100,0,120,280,40,40,0,-37,-64,0,0,100,0,320,160,40,40,0,-30,-67,1,0,100,0,200,240,40,40,0,-45,-12,0,0,65,0,0,392,56,24,0,
0,20,-72,-154,1,1,100,0,80,440,80,80,0,-27,-117,0,1,100,0,80,400,80,40,0,-2,-84,1,1,100,0,400,440,40,80,0,-35,-110,0,1,100,0,200,320,40,40,0,-25,-110,0,1,100,0,80,320,40,40,0,-13,-88,0,1,100,0,280,320,40,40,0,-13,-108,1,1,100,0,400,360,40,80,0,-3,-98,1,1,100,0,360,440,40,80,0,8,-43,0,1,100,0,160,320,40,40,0,-43,-94,0,1,100,0,640,120,40,40,0,-42,-94,0,0,100,0,400,160,40,40,0,-36,-93,0,0,100,0,120,40,40,40,0,-55,-86,0,0,100,0,80,40,40,40,0,-78,-110,0,0,100,0,560,0,80,40,0,-45,-91,1,0,100,0,40,80,40,40,0,-59,-80,0,0,100,0,200,280,40,40,0,-35,-84,1,0,100,0,200,280,40,40,0,-41,-71,0,0,100,0,320,160,40,40,0,-62,-85,0,0,100,0,320,120,80,40,0,-50,-12,0,0,65,0,0,392,56,24,0,
0,20,-32,-114,0,1,100,0,80,320,40,40,0,-72,-154,1,1,100,0,160,440,80,80,0,-27,-117,0,1,100,0,160,400,80,40,0,-55,-120,2,1,100,0,200,320,40,40,0,-35,-110,0,1,100,0,240,320,40,40,0,-25,-110,0,1,100,0,120,320,40,40,0,-13,-88,0,1,100,0,320,320,40,40,0,-3,-98,1,1,100,0,400,440,40,80,0,8,-43,0,1,100,0,200,320,40,40,0,-43,-97,0,1,100,0,680,120,40,40,0,-44,-96,0,0,100,0,360,200,40,40,0,-37,-95,0,0,100,0,120,40,40,40,0,-56,-88,0,0,100,0,80,40,40,40,0,-79,-112,0,0,100,0,560,0,80,40,0,-47,-93,1,0,100,0,120,80,40,40,0,-60,-82,0,0,100,0,200,280,40,40,0,-36,-86,1,0,100,0,200,280,40,40,0,-43,-73,0,0,100,0,320,160,40,40,0,-63,-87,0,0,100,0,400,120,80,40,0,-52,-12,0,0,65,0,0,392,56,24,0,
0,19,-42,-124,0,1,100,0,240,320,40,40,0,-32,-114,0,1,100,0,120,320,40,40,0,-67,-157,0,1,100,0,80,440,80,80,0,-72,-154,1,1,100,0,240,440,80,80,0,-27,-117,0,1,100,0,240,400,80,40,0,-69,-120,0,1,100,0,0,520,120,80,0,-65,-110,1,1,100,0,80,320,40,40,0,-55,-120,2,1,100,0,240,320,40,40,0,-35,-110,0,1,100,0,280,320,40,40,0,-25,-110,0,1,100,0,160,320,40,40,0,-13,-88,0,1,100,0,360,320,40,40,0,-37,-91,0,0,100,0,120,40,40,40,0,-47,-83,0,0,100,0,0,40,40,40,0,-51,-111,0,0,100,0,440,160,40,80,0,-59,-110,0,0,100,0,160,80,80,40,0,-48,-92,0,0,100,0,0,80,40,40,0,-56,-85,0,0,100,0,0,280,40,40,0,-44,-90,0,0,100,0,480,120,40,40,0,-55,-12,0,0,65,0,0,392,56,24,0,
0,22,-42,-124,0,1,100,0,280,320,40,40,0,-32,-114,0,1,100,0,160,320,40,40,0,-97,-137,1,1,100,0,320,440,40,80,0,-67,-157,0,1,100,0,160,440,80,80,0,-108,-133,0,1,100,0,120,520,160,160,0,-69,-128,0,1,100,0,320,440,40,80,0,-79,-118,0,1,100,0,320,360,40,80,0,-93,-108,0,1,100,0,160,440,80,80,0,-65,-110,1,1,100,0,120,320,40,40,0,-55,-120,2,1,100,0,280,320,40,40,0,-35,-110,0,1,100,0,320,320,40,40,0,-25,-110,0,1,100,0,200,320,40,40,0,-50,-62,0,0,100,0,120,40,40,40,0,-71,-83,0,0,100,0,240,80,80,40,0,-61,-54,0,0,100,0,40,40,40,40,0,-78,-67,0,0,100,0,400,200,48,40,0,-63,-42,0,0,100,0,240,240,40,40,0,-64,-66,0,0,100,0,120,0,40,40,0,-60,-63,0,0,100,0,160,120,40,40,0,-70,-59,0,0,100,0,40,280,40,40,0,-57,-65,0,0,100,0,480,120,40,40,0,-69,-12,0,0,65,0,0,392,56,24,0,
0,30,-42,-124,0,1,100,0,320,320,40,40,0,-77,-37,0,1,100,0,80,360,80,40,0,-97,-107,1,1,100,0,320,360,40,80,0,-97,-137,1,1,100,0,360,440,40,80,0,-157,-87,1,1,100,0,80,440,80,80,0,-87,-107,0,1,100,0,80,440,80,80,0,-67,-157,0,1,100,0,240,440,80,80,0,-118,-133,0,1,100,0,280,520,160,160,0,-115,-22,3,1,100,0,80,320,40,40,0,-85,-32,2,1,100,0,240,320,40,40,0,-92,-36,0,1,100,0,80,400,80,48,0,-114,-73,1,1,100,0,320,440,40,80,0,-79,-110,0,1,100,0,320,440,40,80,0,-99,-60,0,1,100,0,360,360,40,80,0,-69,-130,0,1,100,0,360,440,40,80,0,-79,-120,0,1,100,0,360,360,40,80,0,-103,-100,0,1,100,0,160,440,80,80,0,-65,-112,1,1,100,0,160,320,40,40,0,-55,-122,2,1,100,0,320,320,40,40,0,-35,-112,0,1,100,0,360,320,40,40,0,-54,-48,0,0,100,0,120,40,40,40,0,-77,-68,0,0,100,0,320,80,80,40,0,-64,-41,0,0,100,0,0,40,40,40,0,-65,-30,0,0,100,0,280,240,40,40,0,-73,-29,0,0,100,0,320,240,40,40,0,-69,-49,0,0,100,0,120,0,40,40,0,-64,-49,0,0,100,0,160,120,40,40,0,-74,-38,0,0,100,0,40,280,40,40,0,-83,-45,0,0,100,0,320,120,80,40,0,-74,-12,0,0,65,0,0,368,56,24,0,
0,29,-42,-124,0,1,100,0,360,320,40,40,0,-77,-37,0,1,100,0,160,360,80,40,0,-97,-107,1,1,100,0,360,360,40,80,0,-107,-87,1,1,100,0,320,440,40,80,0,-97,-137,1,1,100,0,400,440,40,80,0,-157,-87,1,1,100,0,160,440,80,80,0,-87,-107,0,1,100,0,160,440,80,80,0,-138,-103,0,1,100,0,440,520,160,160,0,-115,-22,3,1,100,0,120,320,40,40,0,-85,-32,2,1,100,0,280,320,40,40,0,-92,-36,0,1,100,0,160,400,80,48,0,-114,-73,1,1,100,0,360,440,40,80,0,-79,-110,0,1,100,0,360,440,40,80,0,-99,-60,0,1,100,0,400,360,40,80,0,-69,-130,0,1,100,0,400,440,40,80,0,-79,-120,0,1,100,0,400,360,40,80,0,-103,-100,0,1,100,0,240,440,80,80,0,-65,-112,1,1,100,0,200,320,40,40,0,-55,-122,2,1,100,0,360,320,40,40,0,-56,-47,0,0,100,0,120,40,40,40,0,-80,-66,0,0,100,0,160,80,80,40,0,-66,-40,0,0,100,0,0,40,40,40,0,-65,-30,0,0,100,0,240,280,40,40,0,-73,-27,0,0,100,0,320,240,40,40,0,-71,-48,0,0,100,0,120,0,40,40,0,-66,-48,0,0,100,0,160,120,40,40,0,-77,-36,0,0,100,0,40,280,40,40,0,-60,-34,1,0,100,0,200,240,40,40,0,-75,-12,0,0,65,0,0,368,56,24,0,
0,23,-77,-37,0,1,100,0,240,360,80,40,0,-97,-107,1,1,100,0,400,360,40,80,0,-107,-87,1,1,100,0,360,440,40,80,0,-157,-87,1,1,100,0,240,440,80,80,0,-87,-107,0,1,100,0,240,440,80,80,0,-98,-33,0,1,100,0,0,600,120,80,0,-115,-22,3,1,100,0,160,320,40,40,0,-85,-32,2,1,100,0,320,320,40,40,0,-92,-36,0,1,100,0,240,400,80,48,0,-114,-73,1,1,100,0,400,440,40,80,0,-79,-110,0,1,100,0,400,440,40,80,0,-65,-112,1,1,100,0,280,320,40,40,0,-56,-46,0,0,100,0,120,40,40,40,0,-81,-65,0,0,100,0,240,80,80,40,0,-67,-38,0,0,100,0,0,40,40,40,0,-65,-30,0,0,100,0,280,280,40,40,0,-73,-26,0,0,100,0,320,240,40,40,0,-71,-47,0,0,100,0,120,0,40,40,0,-66,-47,0,0,100,0,160,120,40,40,0,-78,-35,0,0,100,0,40,280,40,40,0,-59,-33,0,0,100,0,160,200,40,40,0,-74,-32,0,0,100,0,160,240,40,40,0,-75,-12,0,0,65,0,0,368,56,24,0,
0,15,-107,-87,1,1,100,0,400,440,40,80,0,-115,-22,3,1,100,0,200,320,40,40,0,-85,-32,2,1,100,0,360,320,40,40,0,-65,-112,1,1,100,0,320,320,40,40,0,-57,-46,0,0,100,0,120,40,40,40,0,-82,-65,0,0,100,0,320,80,80,40,0,-68,-38,0,0,100,0,0,40,40,40,0,-65,-30,0,0,100,0,280,280,40,40,0,-73,-26,0,0,100,0,320,240,40,40,0,-72,-47,0,0,100,0,120,0,40,40,0,-67,-47,0,0,100,0,160,120,40,40,0,-79,-35,0,0,100,0,40,280,40,40,0,-60,-32,0,0,100,0,160,200,40,40,0,-75,-31,0,0,100,0,160,240,40,40,0,-76,-12,0,0,65,0,0,368,56,24,0,
0,11,-60,-68,0,0,100,0,400,80,80,40,0,-52,-51,0,0,100,0,120,0,40,40,0,-40,-47,0,0,100,0,120,40,40,40,0,-50,-38,0,0,100,0,0,40,40,40,0,-65,-42,0,0,100,0,200,280,40,40,0,-50,-48,0,0,100,0,0,80,40,40,0,-74,-31,1,0,100,0,0,120,40,40,0,-74,-34,1,0,100,0,200,160,40,40,0,-50,-28,1,0,100,0,320,240,40,40,0,-58,-34,1,0,100,0,0,240,40,40,0,-60,-12,0,0,65,0,0,368,56,24,0,
0,11,-41,-71,0,0,100,0,400,80,80,40,0,-33,-54,0,0,100,0,120,0,40,40,0,-21,-50,0,0,100,0,120,40,40,40,0,-31,-41,0,0,100,0,0,40,40,40,0,-46,-45,0,0,100,0,200,280,40,40,0,-31,-51,0,0,100,0,0,80,40,40,0,-55,-34,1,0,100,0,0,120,40,40,0,-55,-37,1,0,100,0,200,160,40,40,0,-31,-31,1,0,100,0,320,240,40,40,0,-39,-37,1,0,100,0,0,240,40,40,0,-41,-12,0,0,65,0,0,368,56,24,0,
0,11,-26,-73,0,0,100,0,160,80,80,40,0,-6,-53,0,0,100,0,120,40,40,40,0,-26,-53,0,0,100,0,80,40,40,40,0,-16,-43,0,0,100,0,0,40,40,40,0,-16,-53,0,0,100,0,0,80,40,40,0,-6,-33,0,0,100,0,40,120,40,40,0,-18,-34,0,0,100,0,240,280,40,40,0,-28,-35,0,0,100,0,320,280,40,40,0,-25,-43,0,0,100,0,40,240,40,40,0,-31,-47,0,0,100,0,200,280,40,40,0,-27,-12,0,0,65,0,0,392,56,24,0,
0,12,-19,-47,0,0,100,0,40,40,40,40,0,-21,-42,0,0,100,0,360,280,40,40,0,-10,-56,0,0,100,0,120,40,40,40,0,-30,-75,0,0,100,0,240,80,80,40,0,-29,-56,0,0,100,0,80,40,40,40,0,-19,-55,0,0,100,0,160,120,40,40,0,-8,-40,0,0,100,0,80,120,40,40,0,-22,-40,0,0,100,0,280,280,40,16,0,-24,-31,0,0,100,0,320,280,40,40,0,-34,-58,0,0,100,0,440,360,40,40,0,-29,-45,0,0,100,0,160,240,40,40,0,-28,-12,0,0,65,0,0,392,56,24,0,
0,8,-18,-54,0,0,100,0,120,40,40,40,0,-30,-72,0,0,100,0,560,40,80,40,0,-19,-43,0,0,100,0,440,320,40,40,0,-18,-43,0,0,100,0,360,240,40,40,0,-36,-71,0,0,100,0,480,160,40,80,0,-50,-47,1,0,100,0,320,120,80,40,0,-38,-53,0,0,100,0,440,360,40,40,0,-35,-12,0,0,65,0,0,368,56,24,0,
0,9,-33,-53,1,0,100,0,120,40,40,40,0,-34,-43,1,0,100,0,160,280,40,40,0,-13,-53,1,0,100,0,80,40,40,40,0,-24,-53,1,0,100,0,240,120,40,40,0,-26,-40,0,0,100,0,200,200,40,40,0,-34,-72,0,0,100,0,480,40,80,40,0,-17,-52,0,0,100,0,120,280,40,40,0,-39,-71,0,0,100,0,600,240,40,80,0,-32,-12,0,0,65,0,0,368,56,24,0,
0,10,-24,-53,0,0,100,0,120,0,40,40,0,-10,-50,0,0,100,0,120,40,40,40,0,-22,-50,1,0,100,0,200,120,40,40,0,-32,-40,0,0,100,0,520,120,40,40,0,-36,-69,1,0,100,0,480,0,80,40,0,-27,-49,1,0,100,0,120,280,40,40,0,-16,-40,1,0,100,0,80,280,40,40,0,-23,-33,0,0,100,0,400,280,40,40,0,-15,-30,1,0,100,0,280,160,40,40,0,-25,-12,0,0,65,0,0,368,56,24,0,
0,10,-10,-28,0,0,100,0,440,280,40,40,0,-16,-55,1,0,100,0,120,40,40,40,0,-20,-46,0,0,100,0,200,280,40,40,0,-35,-71,0,0,100,0,480,80,80,40,0,6,-50,1,0,100,0,80,40,40,40,0,-5,-52,0,0,100,0,0,80,40,40,0,-4,-45,0,0,100,0,120,280,40,40,0,-12,-30,1,0,100,0,240,240,40,40,0,2,-35,1,0,100,0,200,240,40,40,0,-15,-12,0,0,65,0,0,368,56,24,0,
0,9,-1,-69,0,0,100,0,560,40,80,40,0,11,-50,0,0,100,0,120,40,40,40,0,-35,-70,0,0,100,0,520,160,80,80,0,13,-40,1,0,100,0,200,280,40,40,0,-1,-46,0,0,100,0,400,240,40,40,0,-25,-47,0,0,100,0,320,120,80,40,0,-2,-54,0,0,100,0,120,0,40,40,0,-1,-63,1,0,100,0,0,0,40,40,0,-13,-12,0,0,65,0,0,368,56,24,0,
0,9,0,-70,0,0,100,0,560,40,80,40,0,13,-51,0,0,100,0,120,40,40,40,0,-34,-70,0,0,100,0,600,160,80,80,0,15,-41,1,0,100,0,200,280,40,40,0,1,-47,0,0,100,0,400,240,40,40,0,-23,-48,0,0,100,0,400,120,80,40,0,-1,-54,0,0,100,0,120,0,40,40,0,0,-62,1,0,100,0,0,0,40,40,0,-12,-12,0,0,65,0,0,368,56,24,0,
0,9,-3,-71,0,0,100,0,560,40,80,40,0,10,-52,0,0,100,0,120,40,40,40,0,-34,-70,0,0,100,0,680,160,80,80,0,12,-41,1,0,100,0,200,280,40,40,0,-1,-47,0,0,100,0,440,240,40,40,0,-25,-46,0,0,100,0,560,80,80,40,0,-4,-54,0,0,100,0,120,0,40,40,0,-17,-54,0,0,100,0,440,360,40,40,0,-15,-12,0,0,65,0,0,368,56,24,0,
0,10,-7,-71,0,0,100,0,560,40,80,40,0,7,-52,0,0,100,0,120,40,40,40,0,-4,-30,0,0,100,0,240,240,40,40,0,-14,-30,0,0,100,0,320,280,40,40,0,-3,-52,0,0,100,0,160,120,40,40,0,9,-42,1,0,100,0,200,280,40,40,0,-8,-53,0,0,100,0,120,0,40,40,0,-19,-51,0,0,100,0,440,360,40,40,0,-3,-40,0,0,100,0,560,120,40,40,0,-16,-12,0,0,65,0,0,368,56,24,0,
0,10,-27,-73,0,0,100,0,240,80,80,40,0,-5,-54,0,0,100,0,120,40,40,40,0,-16,-54,0,0,100,0,440,440,40,40,0,-19,-53,0,0,100,0,120,0,40,40,0,-10,-53,0,0,100,0,480,360,40,40,0,-29,-54,0,0,100,0,480,320,40,40,0,3,-34,0,0,100,0,40,120,40,40,0,-19,-34,0,0,100,0,480,280,40,40,0,-14,-43,0,0,100,0,40,240,40,40,0,-24,-12,0,0,65,0,0,368,56,24,0,
0,10,-30,-73,0,0,100,0,320,80,80,40,0,-8,-54,0,0,100,0,120,40,40,40,0,-19,-54,0,0,100,0,480,440,40,40,0,-22,-53,0,0,100,0,120,0,40,40,0,-12,-54,0,0,100,0,480,360,40,40,0,-33,-55,0,0,100,0,480,320,40,40,0,1,-34,0,0,100,0,80,120,40,40,0,-19,-34,0,0,100,0,520,280,40,40,0,-16,-43,0,0,100,0,80,240,40,40,0,-25,-12,0,0,65,0,0,368,56,24,0,
0,10,-30,-73,0,0,100,0,320,80,80,40,0,-8,-54,0,0,100,0,120,40,40,40,0,-19,-54,0,0,100,0,480,440,40,40,0,-22,-53,0,0,100,0,120,0,40,40,0,-12,-54,0,0,100,0,520,360,40,40,0,-33,-55,0,0,100,0,520,320,40,40,0,1,-34,0,0,100,0,80,120,40,40,0,-19,-34,0,0,100,0,520,280,40,40,0,-16,-43,0,0,100,0,80,240,40,40,0,-25,-12,0,0,65,0,0,368,56,24,0,
0,10,-28,-72,0,1,100,0,600,320,40,80,0,-9,-52,0,0,100,0,80,0,40,40,0,-21,-52,0,0,100,0,560,320,40,40,0,-31,-70,0,0,100,0,680,400,80,40,0,-22,-51,0,0,100,0,120,0,40,40,0,-20,-52,0,0,100,0,520,440,40,40,0,0,-32,0,0,100,0,120,120,40,40,0,-19,-34,0,0,100,0,480,480,40,40,0,-17,-41,0,0,100,0,120,240,40,40,0,-26,-12,0,0,65,0,0,368,56,24,0,
0,9,-9,-53,0,0,100,0,80,0,40,40,0,-21,-53,0,0,100,0,560,360,40,40,0,-31,-71,0,0,100,0,440,400,80,40,0,-22,-52,0,0,100,0,120,0,40,40,0,-20,-53,0,0,100,0,560,440,40,40,0,0,-33,0,0,100,0,0,120,40,40,0,-19,-34,0,0,100,0,440,480,40,40,0,-17,-42,0,0,100,0,0,240,40,40,0,-26,-12,0,0,65,0,0,368,56,24,0,
0,9,-9,-53,0,0,100,0,80,0,40,40,0,-21,-53,0,0,100,0,560,360,40,40,0,-31,-71,0,0,100,0,520,400,80,40,0,-22,-52,0,0,100,0,120,0,40,40,0,-20,-53,0,0,100,0,440,440,40,40,0,0,-33,0,0,100,0,40,120,40,40,0,-19,-34,0,0,100,0,440,480,40,40,0,-17,-42,0,0,100,0,40,240,40,40,0,-26,-12,0,0,65,0,0,368,56,24,0,
0,9,-9,-53,0,0,100,0,80,0,40,40,0,-21,-53,0,0,100,0,560,360,40,40,0,-31,-71,0,0,100,0,600,400,80,40,0,-22,-52,0,0,100,0,120,0,40,40,0,-20,-53,0,0,100,0,480,440,40,40,0,0,-33,0,0,100,0,80,120,40,40,0,-19,-34,0,0,100,0,440,480,40,40,0,-17,-42,0,0,100,0,80,240,40,40,0,-26,-12,0,0,65,0,0,368,56,24,0,
0,9,-9,-53,0,0,100,0,80,0,40,40,0,-21,-53,0,0,100,0,560,360,40,40,0,-31,-71,0,0,100,0,680,400,80,40,0,-22,-52,0,0,100,0,120,0,40,40,0,-20,-53,0,0,100,0,520,440,40,40,0,0,-33,0,0,100,0,120,120,40,40,0,-19,-34,0,0,100,0,440,480,40,40,0,-17,-42,0,0,100,0,120,240,40,40,0,-26,-12,0,0,65,0,0,368,56,24,0,
