0,16,5,-23,0,0,100,0,320,208,16,16,0,-8,-26,0,0,100,0,320,48,64,40,0,0,-11,0,0,100,0,88,96,40,16,0,0,-47,0,0,100,0,88,48,40,16,0,0,-38,0,0,100,0,88,64,40,32,0,0,-86,0,0,100,0,88,0,40,48,0,-28,-83,0,0,100,0,40,0,48,48,0,-28,-59,0,0,100,0,40,48,48,24,0,-28,-49,0,0,100,0,40,72,48,40,0,-30,-28,0,0,100,0,304,208,16,16,0,-51,-34,0,0,100,0,256,48,64,40,0,-47,-15,0,0,100,0,0,96,40,16,0,-47,-46,0,0,100,0,0,40,40,16,0,-47,-43,0,0,100,0,0,56,40,40,0,-47,-74,0,0,100,0,0,0,40,40,0,-72,-24,0,0,65,0,368,0,144,48,0,
0,16,5,-23,0,0,100,0,320,208,16,16,0,-8,-26,0,0,100,0,320,48,64,40,0,0,-11,0,0,100,0,88,96,40,16,0,0,-47,0,0,100,0,88,48,40,16,0,0,-38,0,0,100,0,88,64,40,32,0,0,-86,0,0,100,0,88,0,40,48,0,-28,-83,0,0,100,0,40,0,48,48,0,-28,-59,0,0,100,0,40,48,48,24,0,-28,-49,0,0,100,0,40,72,48,40,0,-30,-28,0,0,100,0,304,208,16,16,0,-51,-34,0,0,100,0,256,48,64,40,0,-47,-15,0,0,100,0,0,96,40,16,0,-47,-46,0,0,100,0,0,40,40,16,0,-47,-43,0,0,100,0,0,56,40,40,0,-47,-74,0,0,100,0,0,0,40,40,0,-72,-24,0,0,65,0,368,0,144,48,0,
0,16,5,-23,0,0,100,0,320,208,16,16,0,-8,-26,0,0,100,0,320,48,64,40,0,0,-11,0,0,100,0,88,96,40,16,0,0,-47,0,0,100,0,88,48,40,16,0,0,-38,0,0,100,0,88,64,40,32,0,0,-86,0,0,100,0,88,0,40,48,0,-28,-83,0,0,100,0,40,0,48,48,0,-28,-59,0,0,100,0,40,48,48,24,0,-28,-49,0,0,100,0,40,72,48,40,0,-30,-28,0,0,100,0,304,208,16,16,0,-51,-34,0,0,100,0,256,48,64,40,0,-47,-15,0,0,100,0,0,96,40,16,0,-47,-46,0,0,100,0,0,40,40,16,0,-47,-43,0,0,100,0,0,56,40,40,0,-47,-74,0,0,100,0,0,0,40,40,0,-72,-24,0,0,65,0,368,0,144,48,0,
0,16,5,-23,0,0,100,0,320,208,16,16,0,-8,-26,0,0,100,0,320,48,64,40,0,0,-11,0,0,100,0,88,96,40,16,0,0,-47,0,0,100,0,88,48,40,16,0,0,-38,0,0,100,0,88,64,40,32,0,0,-86,0,0,100,0,88,0,40,48,0,-28,-83,0,0,100,0,40,0,48,48,0,-28,-59,0,0,100,0,40,48,48,24,0,-28,-49,0,0,100,0,40,72,48,40,0,-30,-28,0,0,100,0,304,208,16,16,0,-51,-34,0,0,100,0,256,48,64,40,0,-47,-15,0,0,100,0,0,96,40,16,0,-47,-46,0,0,100,0,0,40,40,16,0,-47,-43,0,0,100,0,0,56,40,40,0,-47,-74,0,0,100,0,0,0,40,40,0,-72,-24,0,0,65,0,368,0,144,48,0,
0,16,5,-23,0,0,100,0,320,208,16,16,0,-8,-26,0,0,100,0,320,48,64,40,0,0,-11,0,0,100,0,88,96,40,16,0,0,-47,0,0,100,0,88,48,40,16,0,0,-38,0,0,100,0,88,64,40,32,0,0,-86,0,0,100,0,88,0,40,48,0,-28,-83,0,0,100,0,40,0,48,48,0,-28,-59,0,0,100,0,40,48,48,24,0,-28,-49,0,0,100,0,40,72,48,40,0,-30,-28,0,0,100,0,304,208,16,16,0,-51,-34,0,0,100,0,256,48,64,40,0,-47,-15,0,0,100,0,0,96,40,16,0,-47,-46,0,0,100,0,0,40,40,16,0,-47,-43,0,0,100,0,0,56,40,40,0,-47,-74,0,0,100,0,0,0,40,40,0,-72,-24,0,0,65,0,368,0,144,48,0,
0,18,0,-23,0,0,100,0,40,112,40,16,0,-43,-28,0,0,100,0,0,112,40,16,0,5,-23,0,0,100,0,320,208,16,16,0,-8,-26,0,0,100,0,320,48,64,40,0,0,-11,0,0,100,0,88,96,40,16,0,0,-47,0,0,100,0,88,48,40,16,0,0,-38,0,0,100,0,88,64,40,32,0,0,-85,0,0,100,0,88,0,40,48,0,-28,-82,0,0,100,0,40,0,48,48,0,-28,-58,0,0,100,0,40,48,48,24,0,-28,-48,0,0,100,0,40,72,48,40,0,-30,-28,0,0,100,0,304,208,16,16,0,-51,-34,0,0,100,0,256,48,64,40,0,-47,-15,0,0,100,0,0,96,40,16,0,-47,-46,0,0,100,0,0,40,40,16,0,-47,-43,0,0,100,0,0,56,40,40,0,-47,-73,0,0,100,0,0,0,40,40,0,-72,-24,0,0,65,0,368,0,144,48,0,
0,18,-6,-16,0,0,100,0,40,128,56,16,0,-43,-21,0,0,100,0,0,128,40,16,0,5,-22,0,0,100,0,320,208,16,16,0,-8,-26,0,0,100,0,320,48,64,40,0,0,-11,0,0,100,0,88,96,40,16,0,0,-46,0,0,100,0,88,48,40,16,0,0,-37,0,0,100,0,88,64,40,32,0,0,-84,0,0,100,0,88,0,40,48,0,-28,-81,0,0,100,0,40,0,48,48,0,-28,-57,0,0,100,0,40,48,48,24,0,-28,-47,0,0,100,0,40,72,48,40,0,-30,-27,0,0,100,0,304,208,16,16,0,-51,-34,0,0,100,0,256,48,64,40,0,-47,-15,0,0,100,0,0,96,40,16,0,-47,-45,0,0,100,0,0,40,40,16,0,-47,-42,0,0,100,0,0,56,40,40,0,-47,-72,0,0,100,0,0,0,40,40,0,-72,-24,0,0,65,0,368,0,144,48,0,
0,18,-7,-9,0,0,100,0,48,144,64,16,0,-46,-17,0,0,100,0,0,144,48,16,0,5,-22,0,0,100,0,320,208,16,16,0,-8,-26,0,0,100,0,320,48,64,40,0,0,-11,0,0,100,0,88,96,40,16,0,0,-46,0,0,100,0,88,48,40,16,0,0,-37,0,0,100,0,88,64,40,32,0,0,-84,0,0,100,0,88,0,40,48,0,-28,-81,0,0,100,0,40,0,48,48,0,-28,-57,0,0,100,0,40,48,48,24,0,-28,-47,0,0,100,0,40,72,48,40,0,-30,-27,0,0,100,0,304,208,16,16,0,-51,-34,0,0,100,0,256,48,64,40,0,-47,-15,0,0,100,0,0,96,40,16,0,-47,-45,0,0,100,0,0,40,40,16,0,-47,-42,0,0,100,0,0,56,40,40,0,-47,-72,0,0,100,0,0,0,40,40,0,-72,-24,0,0,65,0,368,0,144,48,0,
0,16,5,-22,0,0,100,0,320,208,16,16,0,-8,-26,0,0,100,0,320,48,64,40,0,0,-11,0,0,100,0,88,96,40,16,0,0,-46,0,0,100,0,88,48,40,16,0,0,-37,0,0,100,0,88,64,40,32,0,0,-84,0,0,100,0,88,0,40,48,0,-28,-81,0,0,100,0,40,0,48,48,0,-28,-57,0,0,100,0,40,48,48,24,0,-28,-47,0,0,100,0,40,72,48,40,0,-30,-27,0,0,100,0,304,208,16,16,0,-51,-34,0,0,100,0,256,48,64,40,0,-47,-15,0,0,100,0,0,96,40,16,0,-47,-45,0,0,100,0,0,40,40,16,0,-47,-42,0,0,100,0,0,56,40,40,0,-47,-72,0,0,100,0,0,0,40,40,0,-72,-24,0,0,65,0,368,0,144,48,0,
0,16,5,-22,0,0,100,0,320,208,16,16,0,-8,-26,0,0,100,0,320,48,64,40,0,0,-11,0,0,100,0,88,96,40,16,0,0,-46,0,0,100,0,88,48,40,16,0,0,-37,0,0,100,0,88,64,40,32,0,0,-84,0,0,100,0,88,0,40,48,0,-28,-81,0,0,100,0,40,0,48,48,0,-28,-57,0,0,100,0,40,48,48,24,0,-28,-47,0,0,100,0,40,72,48,40,0,-30,-27,0,0,100,0,304,208,16,16,0,-51,-34,0,0,100,0,256,48,64,40,0,-47,-15,0,0,100,0,0,96,40,16,0,-47,-45,0,0,100,0,0,40,40,16,0,-47,-42,0,0,100,0,0,56,40,40,0,-47,-72,0,0,100,0,0,0,40,40,0,-72,-24,0,0,65,0,368,0,144,48,0,
0,18,-6,-16,0,0,100,0,40,128,56,16,0,-43,-21,0,0,100,0,0,128,40,16,0,5,-23,0,0,100,0,320,208,16,16,0,-8,-26,0,0,100,0,320,48,64,40,0,0,-11,0,0,100,0,88,96,40,16,0,0,-47,0,0,100,0,88,48,40,16,0,0,-38,0,0,100,0,88,64,40,32,0,0,-85,0,0,100,0,88,0,40,48,0,-28,-82,0,0,100,0,40,0,48,48,0,-28,-58,0,0,100,0,40,48,48,24,0,-28,-48,0,0,100,0,40,72,48,40,0,-30,-28,0,0,100,0,304,208,16,16,0,-51,-34,0,0,100,0,256,48,64,40,0,-47,-15,0,0,100,0,0,96,40,16,0,-47,-46,0,0,100,0,0,40,40,16,0,-47,-43,0,0,100,0,0,56,40,40,0,-47,-73,0,0,100,0,0,0,40,40,0,-72,-24,0,0,65,0,368,0,144,48,0,
0,16,5,-23,0,0,100,0,320,208,16,16,0,-8,-26,0,0,100,0,320,48,64,40,0,0,-11,0,0,100,0,88,96,40,16,0,0,-47,0,0,100,0,88,48,40,16,0,0,-38,0,0,100,0,88,64,40,32,0,0,-86,0,0,100,0,88,0,40,48,0,-28,-83,0,0,100,0,40,0,48,48,0,-28,-59,0,0,100,0,40,48,48,24,0,-28,-49,0,0,100,0,40,72,48,40,0,-30,-28,0,0,100,0,304,208,16,16,0,-51,-34,0,0,100,0,256,48,64,40,0,-47,-15,0,0,100,0,0,96,40,16,0,-47,-46,0,0,100,0,0,40,40,16,0,-47,-43,0,0,100,0,0,56,40,40,0,-47,-74,0,0,100,0,0,0,40,40,0,-72,-24,0,0,65,0,368,0,144,48,0,
0,16,5,-23,0,0,100,0,320,208,16,16,0,-8,-26,0,0,100,0,320,48,64,40,0,0,-11,0,0,100,0,88,96,40,16,0,0,-47,0,0,100,0,88,48,40,16,0,0,-38,0,0,100,0,88,64,40,32,0,0,-85,0,0,100,0,88,0,40,48,0,-28,-84,0,0,100,0,40,0,48,48,0,-28,-60,0,0,100,0,40,48,48,24,0,-28,-49,0,0,100,0,40,72,48,40,0,-30,-28,0,0,100,0,304,208,16,16,0,-51,-34,0,0,100,0,256,48,64,40,0,-47,-15,0,0,100,0,0,96,40,16,0,-47,-46,0,0,100,0,0,40,40,16,0,-47,-43,0,0,100,0,0,56,40,40,0,-47,-74,0,0,100,0,0,0,40,40,0,-72,-24,0,0,65,0,368,0,144,48,0,
0,16,5,-23,0,0,100,0,320,208,16,16,0,-8,-26,0,0,100,0,320,48,64,40,0,0,-11,0,0,100,0,88,96,40,16,0,0,-48,0,0,100,0,88,48,40,16,0,0,-39,0,0,100,0,88,64,40,32,0,0,-86,0,0,100,0,88,0,40,48,0,-28,-85,0,0,100,0,40,0,48,48,0,-28,-60,0,0,100,0,40,48,48,24,0,-28,-49,0,0,100,0,40,72,48,40,0,-30,-28,0,0,100,0,304,208,16,16,0,-51,-34,0,0,100,0,256,48,64,40,0,-47,-15,0,0,100,0,0,96,40,16,0,-47,-47,0,0,100,0,0,40,40,16,0,-47,-44,0,0,100,0,0,56,40,40,0,-47,-75,0,0,100,0,0,0,40,40,0,-72,-24,0,0,65,0,368,0,144,48,0,
0,16,5,-23,0,0,100,0,320,208,16,16,0,-8,-26,0,0,100,0,320,48,64,40,0,0,-11,0,0,100,0,88,96,40,16,0,0,-49,0,0,100,0,88,48,40,16,0,0,-39,0,0,100,0,88,64,40,32,0,0,-87,0,0,100,0,88,0,40,48,0,-28,-86,0,0,100,0,40,0,48,48,0,-28,-61,0,0,100,0,40,48,48,24,0,-28,-49,0,0,100,0,40,72,48,40,0,-30,-28,0,0,100,0,304,208,16,16,0,-51,-34,0,0,100,0,256,48,64,40,0,-47,-15,0,0,100,0,0,96,40,16,0,-47,-48,0,0,100,0,0,40,40,16,0,-47,-44,0,0,100,0,0,56,40,40,0,-47,-76,0,0,100,0,0,0,40,40,0,-72,-24,0,0,65,0,368,0,144,48,0,
0,16,5,-23,0,0,100,0,320,208,16,16,0,-8,-26,0,0,100,0,320,48,64,40,0,0,-11,0,0,100,0,88,96,40,16,0,0,-49,0,0,100,0,88,48,40,16,0,0,-39,0,0,100,0,88,64,40,32,0,0,-88,0,0,100,0,88,0,40,48,0,-28,-87,0,0,100,0,40,0,48,48,0,-28,-62,0,0,100,0,40,48,48,24,0,-28,-49,0,0,100,0,40,72,48,40,0,-30,-28,0,0,100,0,304,208,16,16,0,-51,-34,0,0,100,0,256,48,64,40,0,-47,-15,0,0,100,0,0,96,40,16,0,-47,-48,0,0,100,0,0,40,40,16,0,-47,-44,0,0,100,0,0,56,40,40,0,-47,-77,0,0,100,0,0,0,40,40,0,-72,-24,0,0,65,0,368,0,144,48,0,
0,16,5,-23,0,0,100,0,320,208,16,16,0,-8,-26,0,0,100,0,320,48,64,40,0,0,-11,0,0,100,0,88,96,40,16,0,0,-49,0,0,100,0,88,48,40,16,0,0,-39,0,0,100,0,88,64,40,32,0,0,-89,0,0,100,0,88,0,40,48,0,-28,-88,0,0,100,0,40,0,48,48,0,-28,-63,0,0,100,0,40,48,48,24,0,-28,-49,0,0,100,0,40,72,48,40,0,-30,-28,0,0,100,0,304,208,16,16,0,-51,-34,0,0,100,0,256,48,64,40,0,-47,-15,0,0,100,0,0,96,40,16,0,-47,-48,0,0,100,0,0,40,40,16,0,-47,-44,0,0,100,0,0,56,40,40,0,-47,-78,0,0,100,0,0,0,40,40,0,-72,-24,0,0,65,0,368,0,144,48,0,
0,16,5,-23,0,0,100,0,320,208,16,16,0,-8,-26,0,0,100,0,320,48,64,40,0,0,-11,0,0,100,0,88,96,40,16,0,0,-49,0,0,100,0,88,48,40,16,0,0,-39,0,0,100,0,88,64,40,32,0,0,-90,0,0,100,0,88,0,40,48,0,-28,-89,0,0,100,0,40,0,48,48,0,-28,-63,0,0,100,0,40,48,48,24,0,-28,-49,0,0,100,0,40,72,48,40,0,-30,-28,0,0,100,0,304,208,16,16,0,-51,-34,0,0,100,0,256,48,64,40,0,-47,-15,0,0,100,0,0,96,40,16,0,-47,-48,0,0,100,0,0,40,40,16,0,-47,-44,0,0,100,0,0,56,40,40,0,-47,-79,0,0,100,0,0,0,40,40,0,-72,-24,0,0,65,0,368,0,144,48,0,
0,16,5,-23,0,0,100,0,320,208,16,16,0,-8,-26,0,0,100,0,320,48,64,40,0,0,-11,0,0,100,0,88,96,40,16,0,0,-49,0,0,100,0,88,48,40,16,0,0,-39,0,0,100,0,88,64,40,32,0,0,-91,0,0,100,0,88,0,40,48,0,-28,-90,0,0,100,0,40,0,48,48,0,-28,-63,0,0,100,0,40,48,48,24,0,-28,-49,0,0,100,0,40,72,48,40,0,-30,-28,0,0,100,0,304,208,16,16,0,-51,-34,0,0,100,0,256,48,64,40,0,-47,-15,0,0,100,0,0,96,40,16,0,-47,-48,0,0,100,0,0,40,40,16,0,-47,-44,0,0,100,0,0,56,40,40,0,-47,-80,0,0,100,0,0,0,40,40,0,-72,-24,0,0,65,0,368,0,144,48,0,
0,17,-22,-79,0,1,50,0,320,88,32,24,0,5,-23,0,0,100,0,320,208,16,16,0,-8,-26,0,0,100,0,320,48,64,40,0,0,-11,0,0,100,0,88,96,40,16,0,0,-49,0,0,100,0,88,48,40,16,0,0,-39,0,0,100,0,88,64,40,32,0,0,-92,0,0,100,0,88,0,40,48,0,-28,-91,0,0,100,0,40,0,48,48,0,-28,-63,0,0,100,0,40,48,48,24,0,-28,-49,0,0,100,0,40,72,48,40,0,-30,-28,0,0,100,0,304,208,16,16,0,-51,-34,0,0,100,0,256,48,64,40,0,-47,-15,0,0,100,0,0,96,40,16,0,-47,-48,0,0,100,0,0,40,40,16,0,-47,-44,0,0,100,0,0,56,40,40,0,-47,-81,0,0,100,0,0,0,40,40,0,-72,-24,0,0,65,0,368,0,144,48,0,
0,17,-22,-80,0,1,100,0,320,88,32,24,0,5,-23,0,0,100,0,320,208,16,16,0,-8,-26,0,0,100,0,320,48,64,40,0,0,-11,0,0,100,0,88,96,40,16,0,0,-49,0,0,100,0,88,48,40,16,0,0,-39,0,0,100,0,88,64,40,32,0,0,-93,0,0,100,0,88,0,40,48,0,-28,-92,0,0,100,0,40,0,48,48,0,-28,-63,0,0,100,0,40,48,48,24,0,-28,-49,0,0,100,0,40,72,48,40,0,-30,-28,0,0,100,0,304,208,16,16,0,-51,-34,0,0,100,0,256,48,64,40,0,-47,-15,0,0,100,0,0,96,40,16,0,-47,-48,0,0,100,0,0,40,40,16,0,-47,-44,0,0,100,0,0,56,40,40,0,-47,-82,0,0,100,0,0,0,40,40,0,-72,-24,0,0,65,0,368,0,144,48,0,
0,17,-22,-80,0,1,100,0,320,88,32,24,0,5,-23,0,0,100,0,320,208,16,16,0,-8,-26,0,0,100,0,320,48,64,40,0,0,-11,0,0,100,0,88,96,40,16,0,0,-49,0,0,100,0,88,48,40,16,0,0,-39,0,0,100,0,88,64,40,32,0,0,-93,0,0,100,0,88,0,40,48,0,-28,-92,0,0,100,0,40,0,48,48,0,-28,-63,0,0,100,0,40,48,48,24,0,-28,-49,0,0,100,0,40,72,48,40,0,-30,-28,0,0,100,0,304,208,16,16,0,-51,-34,0,0,100,0,256,48,64,40,0,-47,-15,0,0,100,0,0,96,40,16,0,-47,-48,0,0,100,0,0,40,40,16,0,-47,-44,0,0,100,0,0,56,40,40,0,-47,-82,0,0,100,0,0,0,40,40,0,-72,-24,0,0,65,0,368,0,144,48,0,
0,17,-22,-80,0,1,100,0,320,88,32,24,0,5,-23,0,0,100,0,320,208,16,16,0,-8,-26,0,0,100,0,320,48,64,40,0,0,-11,0,0,100,0,88,96,40,16,0,0,-49,0,0,100,0,88,48,40,16,0,0,-39,0,0,100,0,88,64,40,32,0,0,-93,0,0,100,0,88,0,40,48,0,-28,-92,0,0,100,0,40,0,48,48,0,-28,-63,0,0,100,0,40,48,48,24,0,-28,-49,0,0,100,0,40,72,48,40,0,-30,-28,0,0,100,0,304,208,16,16,0,-51,-34,0,0,100,0,256,48,64,40,0,-47,-15,0,0,100,0,0,96,40,16,0,-47,-48,0,0,100,0,0,40,40,16,0,-47,-44,0,0,100,0,0,56,40,40,0,-47,-82,0,0,100,0,0,0,40,40,0,-72,-24,0,0,65,0,368,0,144,48,0,
0,17,-22,-80,0,1,100,0,320,88,32,24,0,5,-23,0,0,100,0,320,208,16,16,0,-8,-26,0,0,100,0,320,48,64,40,0,0,-11,0,0,100,0,88,96,40,16,0,0,-49,0,0,100,0,88,48,40,16,0,0,-39,0,0,100,0,88,64,40,32,0,0,-93,0,0,100,0,88,0,40,48,0,-28,-92,0,0,100,0,40,0,48,48,0,-28,-63,0,0,100,0,40,48,48,24,0,-28,-49,0,0,100,0,40,72,48,40,0,-30,-28,0,0,100,0,304,208,16,16,0,-51,-34,0,0,100,0,256,48,64,40,0,-47,-15,0,0,100,0,0,96,40,16,0,-47,-48,0,0,100,0,0,40,40,16,0,-47,-44,0,0,100,0,0,56,40,40,0,-47,-82,0,0,100,0,0,0,40,40,0,-72,-24,0,0,65,0,368,0,144,48,0,
0,19,-2,-33,0,0,100,0,48,416,48,24,0,-50,-36,0,0,100,0,0,416,48,24,0,-85,-43,0,1,100,0,512,0,176,80,0,-8,-26,0,0,100,0,320,48,64,40,0,5,-21,0,0,100,0,320,208,16,16,0,0,-11,0,0,100,0,88,96,40,16,0,0,-45,0,0,100,0,88,48,40,16,0,0,-35,0,0,100,0,88,64,40,32,0,0,-80,0,0,100,0,88,0,40,48,0,-28,-74,0,0,100,0,40,0,48,48,0,-28,-51,0,0,100,0,40,48,48,24,0,-28,-40,0,0,100,0,40,72,48,40,0,-51,-34,0,0,100,0,256,48,64,40,0,-30,-26,0,0,100,0,304,208,16,16,0,-47,-15,0,0,100,0,0,96,40,16,0,-47,-44,0,0,100,0,0,40,40,16,0,-47,-40,0,0,100,0,0,56,40,40,0,-47,-69,0,0,100,0,0,0,40,40,0,-72,-24,0,0,65,0,368,0,144,48,0,
0,19,-8,-23,0,0,100,0,48,440,64,16,0,-48,-26,0,0,100,0,0,440,48,16,0,-85,-43,0,1,100,0,688,0,176,80,0,5,-21,0,0,100,0,320,208,16,16,0,-8,-26,0,0,100,0,320,48,64,40,0,0,-11,0,0,100,0,88,96,40,16,0,0,-45,0,0,100,0,88,48,40,16,0,0,-35,0,0,100,0,88,64,40,32,0,0,-81,0,0,100,0,88,0,40,48,0,-28,-76,0,0,100,0,40,0,48,48,0,-28,-52,0,0,100,0,40,48,48,24,0,-28,-41,0,0,100,0,40,72,48,40,0,-51,-34,0,0,100,0,256,48,64,40,0,-30,-26,0,0,100,0,304,208,16,16,0,-47,-15,0,0,100,0,0,96,40,16,0,-47,-44,0,0,100,0,0,40,40,16,0,-47,-40,0,0,100,0,0,56,40,40,0,-47,-70,0,0,100,0,0,0,40,40,0,-72,-24,0,0,65,0,368,0,144,48,0,
0,19,-12,-18,0,0,100,0,56,456,72,16,0,-52,-24,0,0,100,0,0,456,56,16,0,-85,-43,0,1,100,0,864,0,176,80,0,-8,-26,0,0,100,0,320,48,64,40,0,5,-21,0,0,100,0,320,208,16,16,0,0,-11,0,0,100,0,88,96,40,16,0,0,-45,0,0,100,0,88,48,40,16,0,0,-35,0,0,100,0,88,64,40,32,0,0,-80,0,0,100,0,88,0,40,48,0,-28,-76,0,0,100,0,40,0,48,48,0,-28,-51,0,0,100,0,40,48,48,24,0,-28,-40,0,0,100,0,40,72,48,40,0,-51,-34,0,0,100,0,256,48,64,40,0,-30,-26,0,0,100,0,304,208,16,16,0,-47,-15,0,0,100,0,0,96,40,16,0,-47,-44,0,0,100,0,0,40,40,16,0,-47,-40,0,0,100,0,0,56,40,40,0,-47,-69,0,0,100,0,0,0,40,40,0,-72,-24,0,0,65,0,368,0,144,48,0,
0,19,-12,-14,0,0,100,0,56,472,72,16,0,-53,-22,0,0,100,0,0,472,56,16,0,-85,-43,0,1,100,0,512,80,176,80,0,-8,-26,0,0,100,0,320,48,64,40,0,5,-21,0,0,100,0,320,208,16,16,0,0,-11,0,0,100,0,88,96,40,16,0,0,-45,0,0,100,0,88,48,40,16,0,0,-35,0,0,100,0,88,64,40,32,0,0,-80,0,0,100,0,88,0,40,48,0,-28,-76,0,0,100,0,40,0,48,48,0,-28,-51,0,0,100,0,40,48,48,24,0,-28,-40,0,0,100,0,40,72,48,40,0,-51,-34,0,0,100,0,256,48,64,40,0,-30,-26,0,0,100,0,304,208,16,16,0,-47,-15,0,0,100,0,0,96,40,16,0,-47,-44,0,0,100,0,0,40,40,16,0,-47,-40,0,0,100,0,0,56,40,40,0,-47,-69,0,0,100,0,0,0,40,40,0,-72,-24,0,0,65,0,368,0,144,48,0,
0,19,-13,-12,0,0,100,0,56,488,72,16,0,-54,-20,0,0,100,0,0,488,56,16,0,-85,-43,0,1,100,0,688,80,176,80,0,-8,-26,0,0,100,0,320,48,64,40,0,5,-21,0,0,100,0,320,208,16,16,0,0,-11,0,0,100,0,88,96,40,16,0,0,-45,0,0,100,0,88,48,40,16,0,0,-35,0,0,100,0,88,64,40,32,0,0,-80,0,0,100,0,88,0,40,48,0,-28,-76,0,0,100,0,40,0,48,48,0,-28,-51,0,0,100,0,40,48,48,24,0,-28,-40,0,0,100,0,40,72,48,40,0,-51,-34,0,0,100,0,256,48,64,40,0,-30,-26,0,0,100,0,304,208,16,16,0,-47,-15,0,0,100,0,0,96,40,16,0,-47,-44,0,0,100,0,0,40,40,16,0,-47,-40,0,0,100,0,0,56,40,40,0,-47,-69,0,0,100,0,0,0,40,40,0,-72,-24,0,0,65,0,368,0,144,48,0,
0,17,-85,-43,0,1,100,0,864,80,176,80,0,-8,-26,0,0,100,0,320,48,64,40,0,5,-21,0,0,100,0,320,208,16,16,0,0,-11,0,0,100,0,88,96,40,16,0,0,-45,0,0,100,0,88,48,40,16,0,0,-35,0,0,100,0,88,64,40,32,0,0,-80,0,0,100,0,88,0,40,48,0,-28,-76,0,0,100,0,40,0,48,48,0,-28,-51,0,0,100,0,40,48,48,24,0,-28,-40,0,0,100,0,40,72,48,40,0,-51,-34,0,0,100,0,256,48,64,40,0,-30,-26,0,0,100,0,304,208,16,16,0,-47,-15,0,0,100,0,0,96,40,16,0,-47,-44,0,0,100,0,0,40,40,16,0,-47,-40,0,0,100,0,0,56,40,40,0,-47,-69,0,0,100,0,0,0,40,40,0,-72,-24,0,0,65,0,368,0,144,48,0,
0,17,-85,-43,0,1,100,0,512,160,176,80,0,-8,-26,0,0,100,0,320,48,64,40,0,5,-21,0,0,100,0,320,208,16,16,0,0,-11,0,0,100,0,88,96,40,16,0,0,-45,0,0,100,0,88,48,40,16,0,0,-35,0,0,100,0,88,64,40,32,0,0,-80,0,0,100,0,88,0,40,48,0,-28,-76,0,0,100,0,40,0,48,48,0,-28,-51,0,0,100,0,40,48,48,24,0,-28,-40,0,0,100,0,40,72,48,40,0,-51,-34,0,0,100,0,256,48,64,40,0,-30,-26,0,0,100,0,304,208,16,16,0,-47,-15,0,0,100,0,0,96,40,16,0,-47,-44,0,0,100,0,0,40,40,16,0,-47,-40,0,0,100,0,0,56,40,40,0,-47,-69,0,0,100,0,0,0,40,40,0,-72,-24,0,0,65,0,368,0,144,48,0,
0,17,-85,-43,0,1,100,0,688,160,176,80,0,-8,-26,0,0,100,0,320,48,64,40,0,5,-21,0,0,100,0,320,208,16,16,0,0,-11,0,0,100,0,88,96,40,16,0,0,-45,0,0,100,0,88,48,40,16,0,0,-35,0,0,100,0,88,64,40,32,0,0,-80,0,0,100,0,88,0,40,48,0,-28,-76,0,0,100,0,40,0,48,48,0,-28,-51,0,0,100,0,40,48,48,24,0,-28,-40,0,0,100,0,40,72,48,40,0,-51,-34,0,0,100,0,256,48,64,40,0,-30,-26,0,0,100,0,304,208,16,16,0,-47,-15,0,0,100,0,0,96,40,16,0,-47,-44,0,0,100,0,0,40,40,16,0,-47,-40,0,0,100,0,0,56,40,40,0,-47,-69,0,0,100,0,0,0,40,40,0,-72,-24,0,0,65,0,368,0,144,48,0,
0,18,-85,-43,0,1,100,0,864,160,176,80,0,-22,-66,0,0,20,0,352,88,32,24,0,-8,-26,0,0,100,0,320,48,64,40,0,5,-21,0,0,100,0,320,208,16,16,0,0,-11,0,0,100,0,88,96,40,16,0,0,-46,0,0,100,0,88,48,40,16,0,0,-36,0,0,100,0,88,64,40,32,0,0,-81,0,0,100,0,88,0,40,48,0,-28,-77,0,0,100,0,40,0,48,48,0,-28,-52,0,0,100,0,40,48,48,24,0,-28,-41,0,0,100,0,40,72,48,40,0,-51,-34,0,0,100,0,256,48,64,40,0,-30,-26,0,0,100,0,304,208,16,16,0,-47,-15,0,0,100,0,0,96,40,16,0,-47,-45,0,0,100,0,0,40,40,16,0,-47,-41,0,0,100,0,0,56,40,40,0,-47,-70,0,0,100,0,0,0,40,40,0,-72,-24,0,0,65,0,368,0,144,48,0,
0,18,-85,-43,0,1,100,0,512,240,176,80,0,-22,-67,0,0,30,0,352,88,32,24,0,-8,-26,0,0,100,0,320,48,64,40,0,5,-22,0,0,100,0,320,208,16,16,0,0,-11,0,0,100,0,88,96,40,16,0,0,-47,0,0,100,0,88,48,40,16,0,0,-37,0,0,100,0,88,64,40,32,0,0,-82,0,0,100,0,88,0,40,48,0,-28,-78,0,0,100,0,40,0,48,48,0,-28,-53,0,0,100,0,40,48,48,24,0,-28,-42,0,0,100,0,40,72,48,40,0,-51,-34,0,0,100,0,256,48,64,40,0,-30,-27,0,0,100,0,304,208,16,16,0,-47,-15,0,0,100,0,0,96,40,16,0,-47,-46,0,0,100,0,0,40,40,16,0,-47,-42,0,0,100,0,0,56,40,40,0,-47,-71,0,0,100,0,0,0,40,40,0,-72,-24,0,0,65,0,368,0,144,48,0,
0,18,-85,-43,0,1,100,0,688,240,176,80,0,-22,-68,0,0,40,0,352,88,32,24,0,-8,-26,0,0,100,0,320,48,64,40,0,5,-23,0,0,100,0,320,208,16,16,0,0,-11,0,0,100,0,88,96,40,16,0,0,-47,0,0,100,0,88,48,40,16,0,0,-38,0,0,100,0,88,64,40,32,0,0,-83,0,0,100,0,88,0,40,48,0,-28,-79,0,0,100,0,40,0,48,48,0,-28,-54,0,0,100,0,40,48,48,24,0,-28,-43,0,0,100,0,40,72,48,40,0,-51,-34,0,0,100,0,256,48,64,40,0,-30,-28,0,0,100,0,304,208,16,16,0,-47,-15,0,0,100,0,0,96,40,16,0,-47,-46,0,0,100,0,0,40,40,16,0,-47,-43,0,0,100,0,0,56,40,40,0,-47,-72,0,0,100,0,0,0,40,40,0,-72,-24,0,0,65,0,368,0,144,48,0,
0,18,-85,-43,0,1,100,0,864,240,176,80,0,-22,-69,0,0,50,0,352,88,32,24,0,-8,-26,0,0,100,0,320,48,64,40,0,5,-23,0,0,100,0,320,208,16,16,0,0,-11,0,0,100,0,88,96,40,16,0,0,-47,0,0,100,0,88,48,40,16,0,0,-38,0,0,100,0,88,64,40,32,0,0,-84,0,0,100,0,88,0,40,48,0,-28,-80,0,0,100,0,40,0,48,48,0,-28,-55,0,0,100,0,40,48,48,24,0,-28,-44,0,0,100,0,40,72,48,40,0,-51,-34,0,0,100,0,256,48,64,40,0,-30,-28,0,0,100,0,304,208,16,16,0,-47,-15,0,0,100,0,0,96,40,16,0,-47,-46,0,0,100,0,0,40,40,16,0,-47,-43,0,0,100,0,0,56,40,40,0,-47,-73,0,0,100,0,0,0,40,40,0,-72,-24,0,0,65,0,368,0,144,48,0,
0,17,-22,-70,0,0,60,0,352,88,32,24,0,-8,-26,0,0,100,0,320,48,64,40,0,5,-23,0,0,100,0,320,208,16,16,0,0,-11,0,0,100,0,88,96,40,16,0,0,-47,0,0,100,0,88,48,40,16,0,0,-38,0,0,100,0,88,64,40,32,0,0,-85,0,0,100,0,88,0,40,48,0,-28,-81,0,0,100,0,40,0,48,48,0,-28,-56,0,0,100,0,40,48,48,24,0,-28,-45,0,0,100,0,40,72,48,40,0,-51,-34,0,0,100,0,256,48,64,40,0,-30,-28,0,0,100,0,304,208,16,16,0,-47,-15,0,0,100,0,0,96,40,16,0,-47,-46,0,0,100,0,0,40,40,16,0,-47,-43,0,0,100,0,0,56,40,40,0,-47,-74,0,0,100,0,0,0,40,40,0,-72,-24,0,0,65,0,368,0,144,48,0,
0,17,-22,-71,0,0,70,0,352,88,32,24,0,-8,-26,0,0,100,0,320,48,64,40,0,5,-23,0,0,100,0,320,208,16,16,0,0,-11,0,0,100,0,88,96,40,16,0,0,-47,0,0,100,0,88,48,40,16,0,0,-38,0,0,100,0,88,64,40,32,0,0,-85,0,0,100,0,88,0,40,48,0,-28,-82,0,0,100,0,40,0,48,48,0,-28,-57,0,0,100,0,40,48,48,24,0,-28,-46,0,0,100,0,40,72,48,40,0,-51,-34,0,0,100,0,256,48,64,40,0,-30,-28,0,0,100,0,304,208,16,16,0,-47,-15,0,0,100,0,0,96,40,16,0,-47,-46,0,0,100,0,0,40,40,16,0,-47,-43,0,0,100,0,0,56,40,40,0,-47,-74,0,0,100,0,0,0,40,40,0,-72,-24,0,0,65,0,368,0,144,48,0,
0,17,-22,-72,0,0,80,0,352,88,32,24,0,-8,-26,0,0,100,0,320,48,64,40,0,5,-23,0,0,100,0,320,208,16,16,0,0,-11,0,0,100,0,88,96,40,16,0,0,-47,0,0,100,0,88,48,40,16,0,0,-38,0,0,100,0,88,64,40,32,0,0,-85,0,0,100,0,88,0,40,48,0,-28,-83,0,0,100,0,40,0,48,48,0,-28,-58,0,0,100,0,40,48,48,24,0,-28,-47,0,0,100,0,40,72,48,40,0,-51,-34,0,0,100,0,256,48,64,40,0,-30,-28,0,0,100,0,304,208,16,16,0,-47,-15,0,0,100,0,0,96,40,16,0,-47,-46,0,0,100,0,0,40,40,16,0,-47,-43,0,0,100,0,0,56,40,40,0,-47,-74,0,0,100,0,0,0,40,40,0,-72,-24,0,0,65,0,368,0,144,48,0,
0,17,-22,-72,0,0,90,0,352,88,32,24,0,-8,-26,0,0,100,0,320,48,64,40,0,5,-23,0,0,100,0,320,208,16,16,0,0,-11,0,0,100,0,88,96,40,16,0,0,-47,0,0,100,0,88,48,40,16,0,0,-38,0,0,100,0,88,64,40,32,0,0,-85,0,0,100,0,88,0,40,48,0,-28,-83,0,0,100,0,40,0,48,48,0,-28,-59,0,0,100,0,40,48,48,24,0,-28,-48,0,0,100,0,40,72,48,40,0,-51,-34,0,0,100,0,256,48,64,40,0,-30,-28,0,0,100,0,304,208,16,16,0,-47,-15,0,0,100,0,0,96,40,16,0,-47,-46,0,0,100,0,0,40,40,16,0,-47,-43,0,0,100,0,0,56,40,40,0,-47,-74,0,0,100,0,0,0,40,40,0,-72,-24,0,0,65,0,368,0,144,48,0,
0,17,-22,-72,0,0,100,0,352,88,32,24,0,-8,-26,0,0,100,0,320,48,64,40,0,5,-23,0,0,100,0,320,208,16,16,0,0,-11,0,0,100,0,88,96,40,16,0,0,-47,0,0,100,0,88,48,40,16,0,0,-38,0,0,100,0,88,64,40,32,0,0,-85,0,0,100,0,88,0,40,48,0,-28,-83,0,0,100,0,40,0,48,48,0,-28,-59,0,0,100,0,40,48,48,24,0,-28,-49,0,0,100,0,40,72,48,40,0,-51,-34,0,0,100,0,256,48,64,40,0,-30,-28,0,0,100,0,304,208,16,16,0,-47,-15,0,0,100,0,0,96,40,16,0,-47,-46,0,0,100,0,0,40,40,16,0,-47,-43,0,0,100,0,0,56,40,40,0,-47,-74,0,0,100,0,0,0,40,40,0,-72,-24,0,0,65,0,368,0,144,48,0,
0,17,-22,-72,0,0,100,0,352,88,32,24,0,-8,-26,0,0,100,0,320,48,64,40,0,5,-23,0,0,100,0,320,208,16,16,0,0,-11,0,0,100,0,88,96,40,16,0,0,-47,0,0,100,0,88,48,40,16,0,0,-38,0,0,100,0,88,64,40,32,0,0,-85,0,0,100,0,88,0,40,48,0,-28,-83,0,0,100,0,40,0,48,48,0,-28,-59,0,0,100,0,40,48,48,24,0,-28,-49,0,0,100,0,40,72,48,40,0,-51,-34,0,0,100,0,256,48,64,40,0,-30,-28,0,0,100,0,304,208,16,16,0,-47,-15,0,0,100,0,0,96,40,16,0,-47,-46,0,0,100,0,0,40,40,16,0,-47,-43,0,0,100,0,0,56,40,40,0,-47,-74,0,0,100,0,0,0,40,40,0,-72,-24,0,0,65,0,368,0,144,48,0,
0,16,-8,-26,0,0,100,0,320,48,64,40,0,5,-23,0,0,100,0,320,208,16,16,0,0,-11,0,0,100,0,88,96,40,16,0,0,-47,0,0,100,0,88,48,40,16,0,0,-38,0,0,100,0,88,64,40,32,0,0,-86,0,0,100,0,88,0,40,48,0,-28,-83,0,0,100,0,40,0,48,48,0,-28,-59,0,0,100,0,40,48,48,24,0,-28,-49,0,0,100,0,40,72,48,40,0,-51,-34,0,0,100,0,256,48,64,40,0,-30,-28,0,0,100,0,304,208,16,16,0,-47,-15,0,0,100,0,0,96,40,16,0,-47,-46,0,0,100,0,0,40,40,16,0,-47,-43,0,0,100,0,0,56,40,40,0,-47,-74,0,0,100,0,0,0,40,40,0,-72,-24,0,0,65,0,368,0,144,48,0,
0,18,0,-23,0,0,100,0,40,112,40,16,0,-43,-28,0,0,100,0,0,112,40,16,0,-8,-26,0,0,100,0,320,48,64,40,0,4,-22,0,0,100,0,320,208,16,16,0,0,-11,0,0,100,0,88,96,40,16,0,-2,-45,0,0,100,0,88,48,40,16,0,-2,-36,0,0,100,0,88,64,40,32,0,-2,-83,0,0,100,0,88,0,40,48,0,-30,-81,0,0,100,0,40,0,48,48,0,-30,-57,0,0,100,0,40,48,48,24,0,-30,-47,0,0,100,0,40,72,48,40,0,-51,-34,0,0,100,0,256,48,64,40,0,-31,-27,0,0,100,0,304,208,16,16,0,-47,-15,0,0,100,0,0,96,40,16,0,-49,-44,0,0,100,0,0,40,40,16,0,-49,-41,0,0,100,0,0,56,40,40,0,-49,-71,0,0,100,0,0,0,40,40,0,-72,-24,0,0,65,0,368,0,144,48,0,
0,18,-6,-16,0,0,100,0,40,128,56,16,0,-43,-21,0,0,100,0,0,128,40,16,0,-8,-26,0,0,100,0,320,48,64,40,0,4,-22,0,0,100,0,320,208,16,16,0,0,-11,0,0,100,0,88,96,40,16,0,-2,-44,0,0,100,0,88,48,40,16,0,-2,-35,0,0,100,0,88,64,40,32,0,-2,-81,0,0,100,0,88,0,40,48,0,-30,-79,0,0,100,0,40,0,48,48,0,-30,-55,0,0,100,0,40,48,48,24,0,-30,-45,0,0,100,0,40,72,48,40,0,-51,-34,0,0,100,0,256,48,64,40,0,-31,-27,0,0,100,0,304,208,16,16,0,-47,-15,0,0,100,0,0,96,40,16,0,-49,-43,0,0,100,0,0,40,40,16,0,-49,-40,0,0,100,0,0,56,40,40,0,-49,-69,0,0,100,0,0,0,40,40,0,-72,-24,0,0,65,0,368,0,144,48,0,
0,18,-7,-9,0,0,100,0,48,144,64,16,0,-46,-17,0,0,100,0,0,144,48,16,0,-8,-26,0,0,100,0,320,48,64,40,0,4,-22,0,0,100,0,320,208,16,16,0,0,-11,0,0,100,0,88,96,40,16,0,-2,-45,0,0,100,0,88,48,40,16,0,-2,-36,0,0,100,0,88,64,40,32,0,-2,-83,0,0,100,0,88,0,40,48,0,-30,-81,0,0,100,0,40,0,48,48,0,-30,-57,0,0,100,0,40,48,48,24,0,-30,-47,0,0,100,0,40,72,48,40,0,-51,-34,0,0,100,0,256,48,64,40,0,-31,-27,0,0,100,0,304,208,16,16,0,-47,-15,0,0,100,0,0,96,40,16,0,-49,-44,0,0,100,0,0,40,40,16,0,-49,-41,0,0,100,0,0,56,40,40,0,-49,-71,0,0,100,0,0,0,40,40,0,-72,-24,0,0,65,0,368,0,144,48,0,
0,16,-8,-26,0,0,100,0,320,48,64,40,0,4,-22,0,0,100,0,320,208,16,16,0,0,-11,0,0,100,0,88,96,40,16,0,-2,-46,0,0,100,0,88,48,40,16,0,-2,-37,0,0,100,0,88,64,40,32,0,-2,-84,0,0,100,0,88,0,40,48,0,-30,-81,0,0,100,0,40,0,48,48,0,-30,-57,0,0,100,0,40,48,48,24,0,-30,-47,0,0,100,0,40,72,48,40,0,-51,-34,0,0,100,0,256,48,64,40,0,-31,-27,0,0,100,0,304,208,16,16,0,-47,-15,0,0,100,0,0,96,40,16,0,-49,-45,0,0,100,0,0,40,40,16,0,-49,-42,0,0,100,0,0,56,40,40,0,-49,-72,0,0,100,0,0,0,40,40,0,-72,-24,0,0,65,0,368,0,144,48,0,
0,16,-8,-26,0,0,100,0,320,48,64,40,0,4,-22,0,0,100,0,320,208,16,16,0,0,-11,0,0,100,0,88,96,40,16,0,-2,-46,0,0,100,0,88,48,40,16,0,-2,-37,0,0,100,0,88,64,40,32,0,-2,-84,0,0,100,0,88,0,40,48,0,-30,-81,0,0,100,0,40,0,48,48,0,-30,-57,0,0,100,0,40,48,48,24,0,-30,-47,0,0,100,0,40,72,48,40,0,-51,-34,0,0,100,0,256,48,64,40,0,-31,-27,0,0,100,0,304,208,16,16,0,-47,-15,0,0,100,0,0,96,40,16,0,-49,-45,0,0,100,0,0,40,40,16,0,-49,-42,0,0,100,0,0,56,40,40,0,-49,-72,0,0,100,0,0,0,40,40,0,-72,-24,0,0,65,0,368,0,144,48,0,
0,17,-81,-125,0,1,50,0,400,320,128,128,0,-8,-26,0,0,100,0,320,48,64,40,0,4,-22,0,0,100,0,320,208,16,16,0,0,-11,0,0,100,0,88,96,40,16,0,-2,-46,0,0,100,0,88,48,40,16,0,-2,-37,0,0,100,0,88,64,40,32,0,-2,-84,0,0,100,0,88,0,40,48,0,-30,-81,0,0,100,0,40,0,48,48,0,-30,-57,0,0,100,0,40,48,48,24,0,-30,-47,0,0,100,0,40,72,48,40,0,-51,-34,0,0,100,0,256,48,64,40,0,-31,-27,0,0,100,0,304,208,16,16,0,-47,-15,0,0,100,0,0,96,40,16,0,-49,-45,0,0,100,0,0,40,40,16,0,-49,-42,0,0,100,0,0,56,40,40,0,-49,-72,0,0,100,0,0,0,40,40,0,-72,-24,0,0,65,0,368,0,144,48,0,
0,17,-81,-125,0,1,80,0,528,320,128,128,0,-8,-26,0,0,100,0,320,48,64,40,0,4,-22,0,0,100,0,320,208,16,16,0,0,-11,0,0,100,0,88,96,40,16,0,-2,-46,0,0,100,0,88,48,40,16,0,-2,-37,0,0,100,0,88,64,40,32,0,-2,-84,0,0,100,0,88,0,40,48,0,-30,-81,0,0,100,0,40,0,48,48,0,-30,-57,0,0,100,0,40,48,48,24,0,-30,-47,0,0,100,0,40,72,48,40,0,-51,-34,0,0,100,0,256,48,64,40,0,-31,-27,0,0,100,0,304,208,16,16,0,-47,-15,0,0,100,0,0,96,40,16,0,-49,-45,0,0,100,0,0,40,40,16,0,-49,-42,0,0,100,0,0,56,40,40,0,-49,-72,0,0,100,0,0,0,40,40,0,-72,-24,0,0,65,0,368,0,144,48,0,
0,17,-81,-125,0,1,100,0,656,320,128,128,0,-8,-26,0,0,100,0,320,48,64,40,0,4,-22,0,0,100,0,320,208,16,16,0,0,-11,0,0,100,0,88,96,40,16,0,-2,-46,0,0,100,0,88,48,40,16,0,-2,-37,0,0,100,0,88,64,40,32,0,-2,-84,0,0,100,0,88,0,40,48,0,-30,-81,0,0,100,0,40,0,48,48,0,-30,-57,0,0,100,0,40,48,48,24,0,-30,-47,0,0,100,0,40,72,48,40,0,-51,-34,0,0,100,0,256,48,64,40,0,-31,-27,0,0,100,0,304,208,16,16,0,-47,-15,0,0,100,0,0,96,40,16,0,-49,-45,0,0,100,0,0,40,40,16,0,-49,-42,0,0,100,0,0,56,40,40,0,-49,-72,0,0,100,0,0,0,40,40,0,-72,-24,0,0,65,0,368,0,144,48,0,
0,17,-81,-125,0,1,100,0,784,320,128,128,0,-8,-26,0,0,100,0,320,48,64,40,0,4,-22,0,0,100,0,320,208,16,16,0,0,-11,0,0,100,0,88,96,40,16,0,-2,-46,0,0,100,0,88,48,40,16,0,-2,-37,0,0,100,0,88,64,40,32,0,-2,-84,0,0,100,0,88,0,40,48,0,-30,-81,0,0,100,0,40,0,48,48,0,-30,-57,0,0,100,0,40,48,48,24,0,-30,-47,0,0,100,0,40,72,48,40,0,-51,-34,0,0,100,0,256,48,64,40,0,-31,-27,0,0,100,0,304,208,16,16,0,-47,-15,0,0,100,0,0,96,40,16,0,-49,-45,0,0,100,0,0,40,40,16,0,-49,-42,0,0,100,0,0,56,40,40,0,-49,-72,0,0,100,0,0,0,40,40,0,-72,-24,0,0,65,0,368,0,144,48,0,
0,17,-81,-125,0,1,100,0,912,320,128,128,0,-8,-26,0,0,100,0,320,48,64,40,0,4,-22,0,0,100,0,320,208,16,16,0,0,-11,0,0,100,0,88,96,40,16,0,-2,-46,0,0,100,0,88,48,40,16,0,-2,-37,0,0,100,0,88,64,40,32,0,-2,-84,0,0,100,0,88,0,40,48,0,-30,-81,0,0,100,0,40,0,48,48,0,-30,-57,0,0,100,0,40,48,48,24,0,-30,-47,0,0,100,0,40,72,48,40,0,-51,-34,0,0,100,0,256,48,64,40,0,-31,-27,0,0,100,0,304,208,16,16,0,-47,-15,0,0,100,0,0,96,40,16,0,-49,-45,0,0,100,0,0,40,40,16,0,-49,-42,0,0,100,0,0,56,40,40,0,-49,-72,0,0,100,0,0,0,40,40,0,-72,-24,0,0,65,0,368,0,144,48,0,
0,17,-81,-125,0,1,100,0,400,448,128,128,0,-8,-26,0,0,100,0,320,48,64,40,0,4,-22,0,0,100,0,320,208,16,16,0,0,-11,0,0,100,0,88,96,40,16,0,-2,-46,0,0,100,0,88,48,40,16,0,-2,-37,0,0,100,0,88,64,40,32,0,-2,-84,0,0,100,0,88,0,40,48,0,-30,-81,0,0,100,0,40,0,48,48,0,-30,-57,0,0,100,0,40,48,48,24,0,-30,-47,0,0,100,0,40,72,48,40,0,-51,-34,0,0,100,0,256,48,64,40,0,-31,-27,0,0,100,0,304,208,16,16,0,-47,-15,0,0,100,0,0,96,40,16,0,-49,-45,0,0,100,0,0,40,40,16,0,-49,-42,0,0,100,0,0,56,40,40,0,-49,-72,0,0,100,0,0,0,40,40,0,-72,-24,0,0,65,0,368,0,144,48,0,
0,17,-81,-125,0,1,100,0,528,448,128,128,0,-8,-26,0,0,100,0,320,48,64,40,0,4,-22,0,0,100,0,320,208,16,16,0,0,-11,0,0,100,0,88,96,40,16,0,-2,-46,0,0,100,0,88,48,40,16,0,-2,-37,0,0,100,0,88,64,40,32,0,-2,-84,0,0,100,0,88,0,40,48,0,-30,-81,0,0,100,0,40,0,48,48,0,-30,-57,0,0,100,0,40,48,48,24,0,-30,-47,0,0,100,0,40,72,48,40,0,-51,-34,0,0,100,0,256,48,64,40,0,-31,-27,0,0,100,0,304,208,16,16,0,-47,-15,0,0,100,0,0,96,40,16,0,-49,-45,0,0,100,0,0,40,40,16,0,-49,-42,0,0,100,0,0,56,40,40,0,-49,-72,0,0,100,0,0,0,40,40,0,-72,-24,0,0,65,0,368,0,144,48,0,
0,17,-81,-125,0,1,100,0,656,448,128,128,0,-8,-26,0,0,100,0,320,48,64,40,0,4,-22,0,0,100,0,320,208,16,16,0,0,-11,0,0,100,0,88,96,40,16,0,-2,-46,0,0,100,0,88,48,40,16,0,-2,-37,0,0,100,0,88,64,40,32,0,-2,-84,0,0,100,0,88,0,40,48,0,-30,-81,0,0,100,0,40,0,48,48,0,-30,-57,0,0,100,0,40,48,48,24,0,-30,-47,0,0,100,0,40,72,48,40,0,-51,-34,0,0,100,0,256,48,64,40,0,-31,-27,0,0,100,0,304,208,16,16,0,-47,-15,0,0,100,0,0,96,40,16,0,-49,-45,0,0,100,0,0,40,40,16,0,-49,-42,0,0,100,0,0,56,40,40,0,-49,-72,0,0,100,0,0,0,40,40,0,-72,-24,0,0,65,0,368,0,144,48,0,
0,17,-81,-125,0,1,100,0,784,448,128,128,0,-8,-26,0,0,100,0,320,48,64,40,0,4,-22,0,0,100,0,320,208,16,16,0,0,-11,0,0,100,0,88,96,40,16,0,-2,-46,0,0,100,0,88,48,40,16,0,-2,-37,0,0,100,0,88,64,40,32,0,-2,-84,0,0,100,0,88,0,40,48,0,-30,-81,0,0,100,0,40,0,48,48,0,-30,-57,0,0,100,0,40,48,48,24,0,-30,-47,0,0,100,0,40,72,48,40,0,-51,-34,0,0,100,0,256,48,64,40,0,-31,-27,0,0,100,0,304,208,16,16,0,-47,-15,0,0,100,0,0,96,40,16,0,-49,-45,0,0,100,0,0,40,40,16,0,-49,-42,0,0,100,0,0,56,40,40,0,-49,-72,0,0,100,0,0,0,40,40,0,-72,-24,0,0,65,0,368,0,144,48,0,
0,19,-272,-189,0,1,100,0,0,768,272,256,0,-81,-125,0,1,100,0,912,448,128,128,0,-8,-26,0,0,100,0,320,48,64,40,0,4,-22,0,0,100,0,320,208,16,16,0,0,-11,0,0,100,0,88,96,40,16,0,-2,-46,0,0,100,0,88,48,40,16,0,-2,-37,0,0,100,0,88,64,40,32,0,-2,-84,0,0,100,0,88,0,40,48,0,-37,-88,0,1,100,0,0,352,64,64,0,-30,-81,0,0,100,0,40,0,48,48,0,-30,-57,0,0,100,0,40,48,48,24,0,-30,-47,0,0,100,0,40,72,48,40,0,-51,-34,0,0,100,0,256,48,64,40,0,-31,-27,0,0,100,0,304,208,16,16,0,-47,-15,0,0,100,0,0,96,40,16,0,-49,-45,0,0,100,0,0,40,40,16,0,-49,-42,0,0,100,0,0,56,40,40,0,-49,-72,0,0,100,0,0,0,40,40,0,-72,-24,0,0,65,0,368,0,144,48,0,
0,18,-300,-157,0,1,100,0,272,768,304,192,0,-8,-26,0,0,100,0,320,48,64,40,0,4,-22,0,0,100,0,320,208,16,16,0,0,-11,0,0,100,0,88,96,40,16,0,-2,-46,0,0,100,0,88,48,40,16,0,-2,-37,0,0,100,0,88,64,40,32,0,-2,-84,0,0,100,0,88,0,40,48,0,-37,-88,0,1,100,0,64,352,64,64,0,-30,-81,0,0,100,0,40,0,48,48,0,-30,-57,0,0,100,0,40,48,48,24,0,-30,-47,0,0,100,0,40,72,48,40,0,-51,-34,0,0,100,0,256,48,64,40,0,-31,-27,0,0,100,0,304,208,16,16,0,-47,-15,0,0,100,0,0,96,40,16,0,-49,-45,0,0,100,0,0,40,40,16,0,-49,-42,0,0,100,0,0,56,40,40,0,-49,-72,0,0,100,0,0,0,40,40,0,-72,-24,0,0,65,0,368,0,144,48,0,
0,18,-388,-125,0,1,100,0,576,768,384,128,0,-8,-26,0,0,100,0,320,48,64,40,0,4,-22,0,0,100,0,320,208,16,16,0,0,-11,0,0,100,0,88,96,40,16,0,-2,-46,0,0,100,0,88,48,40,16,0,-2,-37,0,0,100,0,88,64,40,32,0,-2,-84,0,0,100,0,88,0,40,48,0,-37,-88,0,1,100,0,128,352,64,64,0,-30,-81,0,0,100,0,40,0,48,48,0,-30,-57,0,0,100,0,40,48,48,24,0,-30,-47,0,0,100,0,40,72,48,40,0,-51,-34,0,0,100,0,256,48,64,40,0,-31,-27,0,0,100,0,304,208,16,16,0,-47,-15,0,0,100,0,0,96,40,16,0,-49,-45,0,0,100,0,0,40,40,16,0,-49,-42,0,0,100,0,0,56,40,40,0,-49,-72,0,0,100,0,0,0,40,40,0,-72,-24,0,0,65,0,368,0,144,48,0,
0,18,-390,-101,0,1,100,0,576,896,384,80,0,-8,-26,0,0,100,0,320,48,64,40,0,4,-22,0,0,100,0,320,208,16,16,0,0,-11,0,0,100,0,88,96,40,16,0,-2,-46,0,0,100,0,88,48,40,16,0,-2,-37,0,0,100,0,88,64,40,32,0,-2,-84,0,0,100,0,88,0,40,48,0,-37,-88,0,1,100,0,192,352,64,64,0,-30,-81,0,0,100,0,40,0,48,48,0,-30,-57,0,0,100,0,40,48,48,24,0,-30,-47,0,0,100,0,40,72,48,40,0,-51,-34,0,0,100,0,256,48,64,40,0,-31,-27,0,0,100,0,304,208,16,16,0,-47,-15,0,0,100,0,0,96,40,16,0,-49,-45,0,0,100,0,0,40,40,16,0,-49,-42,0,0,100,0,0,56,40,40,0,-49,-72,0,0,100,0,0,0,40,40,0,-72,-24,0,0,65,0,368,0,144,48,0,
0,18,-370,-77,0,1,100,0,576,976,384,32,0,-8,-26,0,0,100,0,320,48,64,40,0,4,-22,0,0,100,0,320,208,16,16,0,0,-11,0,0,100,0,88,96,40,16,0,-2,-46,0,0,100,0,88,48,40,16,0,-2,-37,0,0,100,0,88,64,40,32,0,-2,-84,0,0,100,0,88,0,40,48,0,-37,-88,0,1,100,0,256,352,64,64,0,-30,-81,0,0,100,0,40,0,48,48,0,-30,-57,0,0,100,0,40,48,48,24,0,-30,-47,0,0,100,0,40,72,48,40,0,-51,-34,0,0,100,0,256,48,64,40,0,-31,-27,0,0,100,0,304,208,16,16,0,-47,-15,0,0,100,0,0,96,40,16,0,-49,-45,0,0,100,0,0,40,40,16,0,-49,-42,0,0,100,0,0,56,40,40,0,-49,-72,0,0,100,0,0,0,40,40,0,-72,-24,0,0,65,0,368,0,144,48,0,
0,16,-8,-26,0,0,100,0,320,48,64,40,0,4,-22,0,0,100,0,320,208,16,16,0,0,-11,0,0,100,0,88,96,40,16,0,-2,-46,0,0,100,0,88,48,40,16,0,-2,-37,0,0,100,0,88,64,40,32,0,-2,-84,0,0,100,0,88,0,40,48,0,-30,-81,0,0,100,0,40,0,48,48,0,-30,-57,0,0,100,0,40,48,48,24,0,-30,-47,0,0,100,0,40,72,48,40,0,-51,-34,0,0,100,0,256,48,64,40,0,-31,-27,0,0,100,0,304,208,16,16,0,-47,-15,0,0,100,0,0,96,40,16,0,-49,-45,0,0,100,0,0,40,40,16,0,-49,-42,0,0,100,0,0,56,40,40,0,-49,-72,0,0,100,0,0,0,40,40,0,-72,-24,0,0,65,0,368,0,144,48,0,
0,16,-8,-26,0,0,100,0,320,48,64,40,0,4,-22,0,0,100,0,320,208,16,16,0,0,-11,0,0,100,0,88,96,40,16,0,-2,-46,0,0,100,0,88,48,40,16,0,-2,-37,0,0,100,0,88,64,40,32,0,-2,-84,0,0,100,0,88,0,40,48,0,-30,-81,0,0,100,0,40,0,48,48,0,-30,-57,0,0,100,0,40,48,48,24,0,-30,-47,0,0,100,0,40,72,48,40,0,-51,-34,0,0,100,0,256,48,64,40,0,-31,-27,0,0,100,0,304,208,16,16,0,-47,-15,0,0,100,0,0,96,40,16,0,-49,-45,0,0,100,0,0,40,40,16,0,-49,-42,0,0,100,0,0,56,40,40,0,-49,-72,0,0,100,0,0,0,40,40,0,-72,-24,0,0,65,0,368,0,144,48,0,
0,16,-8,-26,0,0,100,0,320,48,64,40,0,4,-22,0,0,100,0,320,208,16,16,0,0,-11,0,0,100,0,88,96,40,16,0,-2,-46,0,0,100,0,88,48,40,16,0,-2,-37,0,0,100,0,88,64,40,32,0,-2,-84,0,0,100,0,88,0,40,48,0,-30,-81,0,0,100,0,40,0,48,48,0,-30,-57,0,0,100,0,40,48,48,24,0,-30,-47,0,0,100,0,40,72,48,40,0,-51,-34,0,0,100,0,256,48,64,40,0,-31,-27,0,0,100,0,304,208,16,16,0,-47,-15,0,0,100,0,0,96,40,16,0,-49,-45,0,0,100,0,0,40,40,16,0,-49,-42,0,0,100,0,0,56,40,40,0,-49,-72,0,0,100,0,0,0,40,40,0,-72,-24,0,0,65,0,368,0,144,48,0,
0,16,-8,-26,0,0,100,0,320,48,64,40,0,4,-22,0,0,100,0,320,208,16,16,0,0,-11,0,0,100,0,88,96,40,16,0,-2,-46,0,0,100,0,88,48,40,16,0,-2,-37,0,0,100,0,88,64,40,32,0,-2,-84,0,0,100,0,88,0,40,48,0,-30,-81,0,0,100,0,40,0,48,48,0,-30,-57,0,0,100,0,40,48,48,24,0,-30,-47,0,0,100,0,40,72,48,40,0,-51,-34,0,0,100,0,256,48,64,40,0,-31,-27,0,0,100,0,304,208,16,16,0,-47,-15,0,0,100,0,0,96,40,16,0,-49,-45,0,0,100,0,0,40,40,16,0,-49,-42,0,0,100,0,0,56,40,40,0,-49,-72,0,0,100,0,0,0,40,40,0,-72,-24,0,0,65,0,368,0,144,48,0,
0,16,-8,-26,0,0,100,0,320,48,64,40,0,4,-22,0,0,100,0,320,208,16,16,0,0,-11,0,0,100,0,88,96,40,16,0,-2,-46,0,0,100,0,88,48,40,16,0,-2,-37,0,0,100,0,88,64,40,32,0,-2,-84,0,0,100,0,88,0,40,48,0,-30,-81,0,0,100,0,40,0,48,48,0,-30,-57,0,0,100,0,40,48,48,24,0,-30,-47,0,0,100,0,40,72,48,40,0,-51,-34,0,0,100,0,256,48,64,40,0,-31,-27,0,0,100,0,304,208,16,16,0,-47,-15,0,0,100,0,0,96,40,16,0,-49,-45,0,0,100,0,0,40,40,16,0,-49,-42,0,0,100,0,0,56,40,40,0,-49,-72,0,0,100,0,0,0,40,40,0,-72,-24,0,0,65,0,368,0,144,48,0,
0,16,-8,-26,0,0,100,0,320,48,64,40,0,4,-22,0,0,100,0,320,208,16,16,0,0,-11,0,0,100,0,88,96,40,16,0,-2,-46,0,0,100,0,88,48,40,16,0,-2,-37,0,0,100,0,88,64,40,32,0,-2,-84,0,0,100,0,88,0,40,48,0,-30,-81,0,0,100,0,40,0,48,48,0,-30,-57,0,0,100,0,40,48,48,24,0,-30,-47,0,0,100,0,40,72,48,40,0,-51,-34,0,0,100,0,256,48,64,40,0,-31,-27,0,0,100,0,304,208,16,16,0,-47,-15,0,0,100,0,0,96,40,16,0,-49,-45,0,0,100,0,0,40,40,16,0,-49,-42,0,0,100,0,0,56,40,40,0,-49,-72,0,0,100,0,0,0,40,40,0,-72,-24,0,0,65,0,368,0,144,48,0,
0,16,-8,-26,0,0,100,0,320,48,64,40,0,4,-22,0,0,100,0,320,208,16,16,0,0,-11,0,0,100,0,88,96,40,16,0,-2,-46,0,0,100,0,88,48,40,16,0,-2,-37,0,0,100,0,88,64,40,32,0,-2,-84,0,0,100,0,88,0,40,48,0,-30,-81,0,0,100,0,40,0,48,48,0,-30,-57,0,0,100,0,40,48,48,24,0,-30,-47,0,0,100,0,40,72,48,40,0,-51,-34,0,0,100,0,256,48,64,40,0,-31,-27,0,0,100,0,304,208,16,16,0,-47,-15,0,0,100,0,0,96,40,16,0,-49,-45,0,0,100,0,0,40,40,16,0,-49,-42,0,0,100,0,0,56,40,40,0,-49,-72,0,0,100,0,0,0,40,40,0,-72,-24,0,0,65,0,368,0,144,48,0,
0,16,-8,-26,0,0,100,0,320,48,64,40,0,4,-22,0,0,100,0,320,208,16,16,0,0,-11,0,0,100,0,88,96,40,16,0,-2,-46,0,0,100,0,88,48,40,16,0,-2,-37,0,0,100,0,88,64,40,32,0,-2,-84,0,0,100,0,88,0,40,48,0,-30,-81,0,0,100,0,40,0,48,48,0,-30,-57,0,0,100,0,40,48,48,24,0,-30,-47,0,0,100,0,40,72,48,40,0,-51,-34,0,0,100,0,256,48,64,40,0,-31,-27,0,0,100,0,304,208,16,16,0,-47,-15,0,0,100,0,0,96,40,16,0,-49,-45,0,0,100,0,0,40,40,16,0,-49,-42,0,0,100,0,0,56,40,40,0,-49,-72,0,0,100,0,0,0,40,40,0,-72,-24,0,0,65,0,368,0,144,48,0,
0,16,-8,-26,0,0,100,0,320,48,64,40,0,4,-22,0,0,100,0,320,208,16,16,0,0,-11,0,0,100,0,88,96,40,16,0,-2,-46,0,0,100,0,88,48,40,16,0,-2,-37,0,0,100,0,88,64,40,32,0,-2,-84,0,0,100,0,88,0,40,48,0,-30,-81,0,0,100,0,40,0,48,48,0,-30,-57,0,0,100,0,40,48,48,24,0,-30,-47,0,0,100,0,40,72,48,40,0,-51,-34,0,0,100,0,256,48,64,40,0,-31,-27,0,0,100,0,304,208,16,16,0,-47,-15,0,0,100,0,0,96,40,16,0,-49,-45,0,0,100,0,0,40,40,16,0,-49,-42,0,0,100,0,0,56,40,40,0,-49,-72,0,0,100,0,0,0,40,40,0,-72,-24,0,0,65,0,368,0,144,48,0,
0,16,-8,-26,0,0,100,0,320,48,64,40,0,4,-22,0,0,100,0,320,208,16,16,0,0,-11,0,0,100,0,88,96,40,16,0,-2,-46,0,0,100,0,88,48,40,16,0,-2,-37,0,0,100,0,88,64,40,32,0,-2,-84,0,0,100,0,88,0,40,48,0,-30,-81,0,0,100,0,40,0,48,48,0,-30,-57,0,0,100,0,40,48,48,24,0,-30,-47,0,0,100,0,40,72,48,40,0,-51,-34,0,0,100,0,256,48,64,40,0,-31,-27,0,0,100,0,304,208,16,16,0,-47,-15,0,0,100,0,0,96,40,16,0,-49,-45,0,0,100,0,0,40,40,16,0,-49,-42,0,0,100,0,0,56,40,40,0,-49,-72,0,0,100,0,0,0,40,40,0,-72,-24,0,0,65,0,368,0,144,48,0,
0,16,-8,-26,0,0,100,0,320,48,64,40,0,4,-22,0,0,100,0,320,208,16,16,0,0,-11,0,0,100,0,88,96,40,16,0,-2,-46,0,0,100,0,88,48,40,16,0,-2,-37,0,0,100,0,88,64,40,32,0,-2,-84,0,0,100,0,88,0,40,48,0,-30,-81,0,0,100,0,40,0,48,48,0,-30,-57,0,0,100,0,40,48,48,24,0,-30,-47,0,0,100,0,40,72,48,40,0,-51,-34,0,0,100,0,256,48,64,40,0,-31,-27,0,0,100,0,304,208,16,16,0,-47,-15,0,0,100,0,0,96,40,16,0,-49,-45,0,0,100,0,0,40,40,16,0,-49,-42,0,0,100,0,0,56,40,40,0,-49,-72,0,0,100,0,0,0,40,40,0,-72,-24,0,0,65,0,368,0,144,48,0,
0,16,-8,-26,0,0,100,0,320,48,64,40,0,5,-23,0,0,100,0,320,208,16,16,0,0,-11,0,0,100,0,88,96,40,16,0,-1,-47,0,0,100,0,88,48,40,16,0,-1,-38,0,0,100,0,88,64,40,32,0,-1,-84,0,0,100,0,88,0,40,48,0,-29,-82,0,0,100,0,40,0,48,48,0,-29,-58,0,0,100,0,40,48,48,24,0,-29,-48,0,0,100,0,40,72,48,40,0,-51,-34,0,0,100,0,256,48,64,40,0,-30,-28,0,0,100,0,304,208,16,16,0,-47,-15,0,0,100,0,0,96,40,16,0,-48,-46,0,0,100,0,0,40,40,16,0,-48,-43,0,0,100,0,0,56,40,40,0,-48,-72,0,0,100,0,0,0,40,40,0,-72,-24,0,0,65,0,368,0,144,48,0,
0,66,163,-86,0,0,100,0,128,248,32,24,0,147,-112,0,0,100,0,88,208,40,64,0,148,-68,0,0,100,0,0,208,48,64,0,123,-34,0,0,100,0,400,112,64,48,0,134,-11,0,0,100,0,216,96,40,16,0,134,-47,0,0,100,0,192,192,40,16,0,142,-90,0,0,100,0,232,224,24,24,0,140,-106,0,0,100,0,184,208,48,40,0,131,-102,0,0,100,0,464,88,48,40,0,131,-101,0,0,100,0,48,208,40,64,0,134,-38,0,0,100,0,216,64,40,32,0,93,-85,0,0,100,0,96,160,64,48,0,83,-103,0,0,100,0,128,208,56,40,0,100,-68,0,0,100,0,192,160,32,32,0,101,-49,0,0,100,0,224,160,32,32,0,118,-53,0,0,100,0,160,160,32,48,0,83,-42,0,0,100,0,304,112,56,48,0,95,-15,0,0,100,0,128,96,40,16,0,95,-46,0,0,100,0,128,40,40,16,0,95,-74,0,0,100,0,128,0,40,40,0,95,-43,0,0,100,0,128,56,40,40,0,67,-101,0,0,100,0,0,160,64,48,0,80,-81,0,0,100,0,232,208,24,16,0,89,-94,0,0,100,0,232,192,24,16,0,77,-119,0,0,100,0,0,272,80,48,0,84,-68,0,0,100,0,0,208,48,64,0,111,-38,0,0,100,0,256,0,32,32,0,167,-42,0,0,100,0,360,112,40,48,0,163,-67,0,0,100,0,64,160,32,48,0,169,-29,0,0,100,0,320,0,32,24,0,72,-24,0,0,65,0,368,0,144,48,0,-8,-26,0,0,100,0,448,48,64,40,0,0,-11,0,0,100,0,216,96,40,16,0,0,-47,0,0,100,0,216,48,40,16,0,0,-38,0,0,100,0,216,64,40,32,0,0,-86,0,0,100,0,216,0,40,48,0,-28,-83,0,0,100,0,168,0,48,48,0,-28,-97,0,0,100,0,256,88,48,24,0,-14,-98,0,0,100,0,304,88,16,24,0,-28,-59,0,0,100,0,168,48,48,24,0,-28,-49,0,0,100,0,168,72,48,40,0,-51,-34,0,0,100,0,384,48,64,40,0,-47,-15,0,0,100,0,128,96,40,16,0,-47,-46,0,0,100,0,128,40,40,16,0,-47,-43,0,0,100,0,128,56,40,40,0,-47,-74,0,0,100,0,128,0,40,40,0,-17,-30,0,0,100,0,320,24,24,24,0,-31,-38,0,0,100,0,256,0,32,32,0,27,-25,0,0,100,0,344,24,24,24,0,19,-53,0,0,100,0,288,0,32,32,0,19,-29,0,0,100,0,320,0,32,24,0,-72,-24,0,0,65,0,368,0,144,48,0,-152,-26,0,0,100,0,320,48,64,40,0,-144,-11,0,0,100,0,88,96,40,16,0,-144,-47,0,0,100,0,88,48,40,16,0,-144,-38,0,0,100,0,88,64,40,32,0,-144,-86,0,0,100,0,88,0,40,48,0,-172,-83,0,0,100,0,40,0,48,48,0,-172,-59,0,0,100,0,40,48,48,24,0,-172,-49,0,0,100,0,40,72,48,40,0,-195,-34,0,0,100,0,256,48,64,40,0,-191,-15,0,0,100,0,0,96,40,16,0,-191,-46,0,0,100,0,0,40,40,16,0,-191,-43,0,0,100,0,0,56,40,40,0,-191,-74,0,0,100,0,0,0,40,40,0,-216,-24,0,0,65,0,368,0,144,48,0,
