0,2,-33,-69,0,0,100,0,0,0,58,69,0,-23,-14,0,0,100,0,232,45,48,24,0,
0,2,-33,-69,0,0,100,0,58,0,58,69,0,-23,-14,0,0,100,0,232,45,48,24,0,
0,2,-33,-69,0,0,100,0,116,0,58,69,0,-23,-14,0,0,100,0,232,45,48,24,0,
0,2,-33,-69,0,0,100,0,174,0,58,69,0,-23,-14,0,0,100,0,232,45,48,24,0,
0,2,-46,-87,0,0,100,0,0,69,78,87,0,-23,-14,0,0,100,0,232,45,48,24,0,
0,2,-46,-87,0,0,100,0,78,69,78,87,0,-23,-14,0,0,100,0,232,45,48,24,0,
0,2,-46,-87,0,0,100,0,156,69,78,87,0,-23,-14,0,0,100,0,232,45,48,24,0,
0,2,-46,-87,0,0,100,0,234,69,78,87,0,-23,-14,0,0,100,0,232,45,48,24,0,
0,2,-46,-87,0,0,100,0,312,69,78,87,0,-23,-14,0,0,100,0,232,45,48,24,0,
0,2,-46,-87,0,0,100,0,0,156,78,87,0,-23,-14,0,0,100,0,232,45,48,24,0,
0,2,-46,-87,0,0,100,0,78,156,78,87,0,-23,-14,0,0,100,0,232,45,48,24,0,
0,4,-19,-70,0,0,100,0,157,157,22,35,0,-38,-104,0,0,100,0,57,243,62,90,0,-25,-67,0,0,100,0,177,176,50,67,0,-23,-14,0,0,100,0,232,45,48,24,0,
0,4,-19,-68,0,0,100,0,235,157,22,36,0,-58,-101,0,0,100,0,119,243,95,91,0,-24,-67,0,0,100,0,256,176,48,67,0,-23,-14,0,0,100,0,232,45,48,24,0,
0,4,-19,-69,0,0,100,0,313,157,22,35,0,-55,-105,0,0,100,0,214,243,94,94,0,-21,-67,0,0,100,0,337,176,42,67,0,-23,-14,0,0,100,0,232,45,48,24,0,
0,3,-64,-107,0,0,100,0,308,243,113,104,0,-20,-69,0,0,100,0,9,264,40,68,0,-23,-14,0,0,100,0,232,45,48,24,0,
0,2,-33,-69,0,0,100,0,0,337,58,69,0,-23,-14,0,0,100,0,232,45,48,24,0,
0,2,-33,-69,0,0,100,0,58,337,58,69,0,-23,-14,0,0,100,0,232,45,48,24,0,
0,2,-33,-69,0,0,100,0,116,337,58,69,0,-23,-14,0,0,100,0,232,45,48,24,0,
0,2,-29,-69,0,0,100,0,178,337,58,69,0,-23,-14,0,0,100,0,232,45,48,24,0,
0,2,-29,-69,0,0,100,0,4,406,58,69,0,-23,-14,0,0,100,0,232,45,48,24,0,
0,2,-29,-69,0,0,100,0,62,406,58,69,0,-23,-14,0,0,100,0,232,45,48,24,0,
0,2,-29,-69,0,0,100,0,120,406,58,69,0,-23,-14,0,0,100,0,232,45,48,24,0,
0,2,-29,-69,0,0,100,0,178,406,58,69,0,-23,-14,0,0,100,0,232,45,48,24,0,
