0,14,-20,-61,0,0,100,0,0,0,40,40,0,-30,-51,0,0,100,0,0,40,40,40,0,-36,-53,0,0,100,0,0,80,40,40,0,-12,-53,0,0,100,0,0,120,40,40,0,-20,-37,0,0,100,0,0,160,40,40,0,-12,-53,0,0,100,0,0,200,40,40,0,-20,-45,0,0,100,0,0,240,40,40,0,-28,-29,0,0,100,0,160,0,40,40,0,-12,-29,0,0,100,0,160,40,40,40,0,-4,-53,0,0,100,0,0,280,40,40,0,-32,-35,0,0,100,0,323,121,73,37,0,-36,-69,0,0,100,0,320,0,80,80,0,-36,-53,0,0,100,0,160,80,80,40,0,-27,-12,0,0,65,0,480,272,56,24,0,
0,14,-20,-61,0,0,100,0,40,0,40,40,0,-30,-50,0,0,100,0,0,40,40,40,0,-36,-52,0,0,100,0,0,80,40,40,0,-12,-53,0,0,100,0,40,120,40,40,0,-20,-37,0,0,100,0,0,160,40,40,0,-12,-52,0,0,100,0,0,200,40,40,0,-20,-45,0,0,100,0,0,240,40,40,0,-28,-29,0,0,100,0,160,0,40,40,0,-12,-29,0,0,100,0,160,40,40,40,0,-4,-52,0,0,100,0,40,280,40,40,0,-28,-34,0,0,100,0,401,123,72,33,0,-36,-68,0,0,100,0,320,0,80,80,0,-36,-53,0,0,100,0,240,80,80,40,0,-27,-12,0,0,65,0,480,272,56,24,0,
0,14,-20,-60,0,0,100,0,80,0,40,40,0,-30,-49,0,0,100,0,0,40,40,40,0,-36,-51,0,0,100,0,0,80,40,40,0,-12,-52,0,0,100,0,80,120,40,40,0,-20,-36,0,0,100,0,0,160,40,40,0,-12,-51,0,0,100,0,0,200,40,40,0,-20,-44,0,0,100,0,0,240,40,40,0,-28,-29,0,0,100,0,200,0,40,40,0,-12,-29,0,0,100,0,200,40,40,40,0,-4,-51,0,0,100,0,40,280,40,40,0,-32,-37,0,0,100,0,320,159,77,44,0,-36,-67,0,0,100,0,320,0,80,80,0,-36,-52,0,0,100,0,160,120,80,40,0,-27,-12,0,0,65,0,480,272,56,24,0,
0,14,-20,-60,0,0,100,0,120,0,40,40,0,-30,-50,0,0,100,0,0,40,40,40,0,-36,-52,0,0,100,0,0,80,40,40,0,-12,-52,0,0,100,0,120,120,40,40,0,-20,-36,0,0,100,0,0,160,40,40,0,-12,-52,0,0,100,0,0,200,40,40,0,-20,-44,0,0,100,0,0,240,40,40,0,-28,-29,0,0,100,0,160,0,40,40,0,-12,-29,0,0,100,0,160,40,40,40,0,-4,-52,0,0,100,0,0,280,40,40,0,-27,-38,0,0,100,0,405,157,74,43,0,-36,-68,0,0,100,0,320,0,80,80,0,-36,-52,0,0,100,0,240,120,80,40,0,-27,-12,0,0,65,0,480,272,56,24,0,
0,17,-21,-49,0,0,100,0,40,200,40,40,0,-28,-51,0,0,100,0,40,240,40,40,0,-28,-57,0,0,100,0,0,0,40,40,0,-35,-49,0,0,100,0,0,40,40,40,0,-43,-48,0,0,100,0,40,80,40,40,0,-34,-48,0,0,100,0,80,80,40,40,0,-22,-52,0,0,100,0,160,160,40,40,0,-19,-36,1,0,100,0,40,160,40,40,0,-20,-50,0,0,100,0,0,200,40,40,0,-19,-52,0,0,100,0,80,80,40,40,0,-24,-42,1,0,100,0,0,240,40,40,0,-32,-31,0,0,100,0,240,0,40,40,0,-11,-30,0,0,100,0,240,40,40,40,0,-41,-67,0,0,100,0,400,0,80,80,0,-41,-52,0,0,100,0,160,80,80,40,0,-5,-45,0,0,100,0,338,206,54,26,0,-26,-12,0,0,65,0,480,272,56,24,0,
0,18,-12,-51,0,0,100,0,40,200,40,40,0,-19,-53,0,0,100,0,40,240,40,40,0,-18,-60,0,0,100,0,40,0,40,40,0,-27,-51,0,0,100,0,0,40,40,40,0,-36,-52,0,0,100,0,40,80,40,40,0,-27,-51,0,0,100,0,80,80,40,40,0,-11,-52,0,0,100,0,40,120,40,40,0,-19,-36,0,0,100,0,0,160,40,40,0,-10,-55,0,0,100,0,0,200,40,40,0,-10,-52,0,0,100,0,80,80,40,40,0,-18,-44,0,0,100,0,0,240,40,40,0,-27,-29,0,0,100,0,160,0,40,40,0,-10,-29,0,0,100,0,160,40,40,40,0,-31,-38,0,0,100,0,320,159,77,44,0,0,-68,0,0,100,0,432,0,48,80,0,-34,-71,0,0,100,0,400,0,40,80,0,-35,-52,0,0,100,0,240,80,80,40,0,-25,-12,0,0,65,0,480,272,56,24,0,
0,18,-14,-46,0,0,100,0,80,200,40,40,0,-14,-49,0,0,100,0,80,240,40,40,0,-8,-54,0,0,100,0,80,0,40,40,0,-19,-47,0,0,100,0,0,40,40,40,0,-29,-50,0,0,100,0,40,80,40,40,0,-18,-49,0,0,100,0,80,80,40,40,0,-2,-51,0,0,100,0,80,120,40,40,0,-13,-33,0,0,100,0,40,160,40,40,0,-2,-49,0,0,100,0,0,200,40,40,0,2,-46,1,0,100,0,80,80,40,40,0,-11,-38,0,0,100,0,0,240,40,40,0,-22,-29,0,0,100,0,280,0,40,40,0,-3,-28,0,0,100,0,200,40,40,40,0,-35,-34,1,0,100,0,401,123,72,33,0,7,-67,0,0,100,0,432,0,48,80,0,-27,-69,0,0,100,0,400,0,40,80,0,-30,-47,1,0,100,0,160,120,80,40,0,-20,-12,0,0,65,0,480,272,56,24,0,
0,18,-14,-45,0,0,100,0,80,200,40,40,0,-15,-47,0,0,100,0,80,240,40,40,0,-8,-53,0,0,100,0,120,0,40,40,0,-19,-46,0,0,100,0,0,40,40,40,0,-31,-50,0,0,100,0,40,80,40,40,0,-20,-48,0,0,100,0,80,80,40,40,0,-2,-50,0,0,100,0,120,120,40,40,0,-13,-32,0,0,100,0,40,160,40,40,0,-2,-48,0,0,100,0,0,200,40,40,0,0,-46,1,0,100,0,80,80,40,40,0,-11,-37,0,0,100,0,0,240,40,40,0,-22,-29,0,0,100,0,280,0,40,40,0,-3,-28,0,0,100,0,200,40,40,40,0,-35,-37,1,0,100,0,320,159,77,44,0,7,-66,0,0,100,0,432,0,48,80,0,-29,-69,0,0,100,0,400,0,40,80,0,-28,-46,1,0,100,0,240,120,80,40,0,-20,-12,0,0,65,0,480,272,56,24,0,
0,16,-28,-44,0,0,100,0,40,200,40,40,0,-35,-46,0,0,100,0,40,240,40,40,0,-25,-47,0,0,100,0,0,200,40,40,0,-25,-50,0,0,100,0,80,120,40,40,0,-32,-52,0,0,100,0,0,0,40,40,0,-39,-49,0,0,100,0,0,40,40,40,0,-22,-32,1,0,100,0,40,160,40,40,0,-27,-38,1,0,100,0,0,240,40,40,0,-12,-28,0,0,100,0,240,40,40,40,0,-33,-29,0,0,100,0,240,0,40,40,0,-12,-66,0,0,100,0,432,0,48,80,0,-60,-111,0,1,100,0,0,320,120,120,0,-24,-60,0,0,100,0,480,40,40,40,0,-46,-48,0,0,100,0,160,80,80,40,0,-8,-44,0,0,100,0,338,206,54,26,0,-26,-12,0,0,65,0,480,272,56,24,0,
0,19,-120,-101,0,1,100,0,120,320,184,120,0,-35,-42,0,0,100,0,40,200,40,40,0,-42,-44,0,0,100,0,40,240,40,40,0,-59,-44,0,0,100,0,160,280,40,40,0,-91,-48,2,0,100,0,480,0,80,40,0,-37,-43,0,0,100,0,200,160,40,40,0,-30,-45,1,0,100,0,0,40,40,40,0,-43,-49,0,0,100,0,40,40,40,40,0,-46,-45,1,0,100,0,0,200,40,40,0,-31,-31,1,0,100,0,40,160,40,40,0,-37,-35,1,0,100,0,0,240,40,40,0,-22,-29,1,0,100,0,280,0,40,40,0,-42,-28,1,0,100,0,280,40,40,40,0,-59,-44,0,0,100,0,80,200,40,40,0,-45,-43,1,0,100,0,80,80,40,40,0,-22,-64,0,0,100,0,432,0,48,80,0,-27,-48,0,0,100,0,320,80,40,40,0,-19,-43,0,0,100,0,338,206,54,26,0,-37,-12,0,0,65,0,480,272,56,24,0,
0,16,-143,-78,0,1,100,0,304,320,184,120,0,-37,-30,1,0,100,0,520,40,40,40,0,-47,-38,0,0,100,0,120,240,40,40,0,-34,-45,1,0,100,0,0,40,40,40,0,-41,-40,0,0,100,0,160,240,40,40,0,-41,-42,0,0,100,0,200,160,40,40,0,-48,-47,0,0,100,0,40,40,40,40,0,-49,-41,1,0,100,0,0,200,40,40,0,-35,-30,1,0,100,0,40,160,40,40,0,-41,-33,1,0,100,0,0,240,40,40,0,-23,-29,1,0,100,0,160,200,40,40,0,-45,-28,1,0,100,0,200,200,40,40,0,-51,-35,0,0,100,0,320,159,77,44,0,-26,-63,0,0,100,0,432,0,48,80,0,-32,-49,0,0,100,0,360,80,40,40,0,-38,-12,0,0,65,0,480,272,56,24,0,
0,19,-139,-51,0,1,100,0,488,320,184,80,0,-36,-34,3,0,100,0,80,200,40,40,0,-41,-33,2,0,100,0,120,280,40,40,0,-36,-33,2,0,100,0,80,280,40,40,0,-45,-30,1,0,100,0,480,0,80,40,0,-35,-44,1,0,100,0,0,40,40,40,0,-41,-39,0,0,100,0,160,240,40,40,0,-42,-42,0,0,100,0,240,160,40,40,0,-49,-46,0,0,100,0,40,40,40,40,0,-50,-40,1,0,100,0,0,200,40,40,0,-47,-39,1,0,100,0,80,80,40,40,0,-36,-29,1,0,100,0,40,160,40,40,0,-42,-32,1,0,100,0,0,240,40,40,0,-24,-29,1,0,100,0,160,200,40,40,0,-46,-28,1,0,100,0,200,200,40,40,0,-70,-35,1,0,100,0,320,159,77,44,0,-27,-61,0,0,100,0,432,0,48,80,0,-32,-48,0,0,100,0,400,80,40,40,0,-39,-12,0,0,65,0,480,272,56,24,0,
0,18,-89,-21,0,1,100,0,488,400,184,40,0,-35,-34,3,0,100,0,80,200,40,40,0,-40,-34,2,0,100,0,120,280,40,40,0,-35,-34,2,0,100,0,80,280,40,40,0,-44,-31,1,0,100,0,480,0,80,40,0,-35,-43,1,0,100,0,0,40,40,40,0,-40,-39,0,0,100,0,160,240,40,40,0,-41,-44,0,0,100,0,120,120,40,40,0,-49,-45,0,0,100,0,40,40,40,40,0,-50,-39,1,0,100,0,0,200,40,40,0,-36,-28,1,0,100,0,40,160,40,40,0,-42,-31,1,0,100,0,0,240,40,40,0,-24,-29,1,0,100,0,160,200,40,40,0,-46,-28,1,0,100,0,200,200,40,40,0,-68,-35,1,0,100,0,434,157,45,43,0,-27,-59,0,0,100,0,432,0,48,80,0,-37,-47,0,0,100,0,400,80,40,40,0,-40,-12,0,0,65,0,480,272,56,24,0,
0,17,-35,-34,3,0,100,0,80,200,40,40,0,-40,-34,2,0,100,0,120,280,40,40,0,-35,-34,2,0,100,0,80,280,40,40,0,-44,-31,1,0,100,0,480,0,80,40,0,-35,-43,1,0,100,0,0,40,40,40,0,-40,-39,0,0,100,0,160,240,40,40,0,-41,-44,0,0,100,0,120,120,40,40,0,-49,-45,0,0,100,0,40,40,40,40,0,-50,-39,1,0,100,0,0,200,40,40,0,-36,-28,1,0,100,0,40,160,40,40,0,-42,-31,1,0,100,0,0,240,40,40,0,-24,-29,1,0,100,0,160,200,40,40,0,-46,-28,1,0,100,0,200,200,40,40,0,-54,-32,0,0,100,0,323,121,73,37,0,-27,-59,0,0,100,0,432,0,48,80,0,-38,-46,0,0,100,0,400,80,40,40,0,-40,-12,0,0,65,0,480,272,56,24,0,
0,18,-37,-34,1,0,100,0,40,200,40,40,0,-37,-34,2,0,100,0,120,280,40,40,0,-32,-34,2,0,100,0,80,280,40,40,0,-31,-44,1,0,100,0,0,40,40,40,0,-37,-39,0,0,100,0,160,240,40,40,0,-41,-31,1,0,100,0,480,0,80,40,0,-37,-45,0,0,100,0,120,120,40,40,0,-45,-46,0,0,100,0,40,0,40,40,0,-47,-40,1,0,100,0,0,200,40,40,0,-42,-37,1,0,100,0,80,80,40,40,0,-34,-29,1,0,100,0,40,160,40,40,0,-40,-32,1,0,100,0,0,240,40,40,0,-24,-29,1,0,100,0,280,0,40,40,0,-44,-27,1,0,100,0,160,40,40,40,0,-47,-29,0,0,100,0,400,122,73,37,0,-24,-60,0,0,100,0,352,0,48,80,0,-59,-39,0,0,100,0,160,80,80,40,0,-40,-12,0,0,65,0,480,272,56,24,0,
0,18,-9,-39,0,0,100,0,120,280,40,40,0,-3,-41,2,0,100,0,80,280,40,40,0,-40,-35,0,0,100,0,480,0,80,40,0,-20,-46,0,0,100,0,0,40,40,40,0,-11,-43,1,0,100,0,160,240,40,40,0,-9,-52,0,0,100,0,80,0,40,40,0,-5,-49,0,0,100,0,0,120,40,40,0,-13,-31,0,0,100,0,40,160,40,40,0,-4,-49,0,0,100,0,0,200,40,40,0,-11,-38,0,0,100,0,0,240,40,40,0,-22,-29,0,0,100,0,280,0,40,40,0,-5,-28,0,0,100,0,280,40,40,40,0,0,-41,2,0,100,0,88,200,40,40,0,2,-47,1,0,100,0,80,80,40,40,0,-35,-34,1,0,100,0,401,123,72,33,0,5,-65,0,0,100,0,352,0,48,80,0,-32,-47,1,0,100,0,160,80,80,40,0,-23,-12,0,0,65,0,480,272,56,24,0,
0,18,1,-41,0,0,100,0,120,280,40,40,0,-2,-41,0,0,100,0,80,280,40,40,0,-36,-39,0,0,100,0,560,0,80,40,0,-8,-41,3,0,100,0,88,200,40,40,0,-6,-41,1,0,100,0,80,80,40,40,0,-15,-43,0,0,100,0,0,40,40,40,0,-5,-51,0,0,100,0,80,0,40,40,0,-1,-43,3,0,100,0,88,200,40,40,0,-1,-48,0,0,100,0,0,120,40,40,0,-10,-30,0,0,100,0,80,160,40,40,0,1,-49,0,0,100,0,0,200,40,40,0,-7,-37,0,0,100,0,0,240,40,40,0,-20,-29,0,0,100,0,280,0,40,40,0,-2,-28,0,0,100,0,280,40,40,40,0,-35,-40,1,0,100,0,405,157,74,43,0,9,-63,0,0,100,0,352,0,48,80,0,-29,-46,1,0,100,0,240,80,80,40,0,-20,-12,0,0,65,0,480,272,56,24,0,
0,18,9,-41,0,0,100,0,120,280,40,40,0,6,-41,0,0,100,0,80,280,40,40,0,-28,-39,0,0,100,0,560,0,80,40,0,-2,-39,1,0,100,0,88,200,40,40,0,-6,-41,1,0,100,0,80,80,40,40,0,-13,-42,0,0,100,0,0,40,40,40,0,-3,-50,0,0,100,0,120,0,40,40,0,5,-41,3,0,100,0,88,200,40,40,0,1,-47,0,0,100,0,0,120,40,40,0,-8,-29,0,0,100,0,80,160,40,40,0,3,-48,0,0,100,0,0,200,40,40,0,-5,-36,0,0,100,0,0,240,40,40,0,-19,-29,0,0,100,0,160,200,40,40,0,0,-28,0,0,100,0,200,200,40,40,0,-30,-34,1,0,100,0,401,123,72,33,0,12,-61,0,0,100,0,352,0,48,80,0,-27,-45,1,0,100,0,160,120,80,40,0,-19,-12,0,0,65,0,480,272,56,24,0,
0,18,11,-42,0,0,100,0,120,280,40,40,0,8,-42,0,0,100,0,80,280,40,40,0,-26,-40,0,0,100,0,560,0,80,40,0,0,-39,1,0,100,0,88,200,40,40,0,-5,-42,1,0,100,0,80,80,40,40,0,-13,-41,0,0,100,0,0,40,40,40,0,-3,-49,0,0,100,0,120,0,40,40,0,7,-43,3,0,100,0,88,200,40,40,0,1,-46,0,0,100,0,0,120,40,40,0,-8,-28,0,0,100,0,80,160,40,40,0,3,-47,0,0,100,0,0,200,40,40,0,-5,-35,0,0,100,0,0,240,40,40,0,-18,-29,0,0,100,0,160,200,40,40,0,0,-28,0,0,100,0,200,200,40,40,0,-29,-34,1,0,100,0,401,123,72,33,0,13,-60,0,0,100,0,352,0,48,80,0,-25,-44,1,0,100,0,160,120,80,40,0,-18,-12,0,0,65,0,480,272,56,24,0,
0,18,12,-42,0,0,100,0,120,280,40,40,0,9,-42,0,0,100,0,80,280,40,40,0,-25,-40,0,0,100,0,560,0,80,40,0,1,-39,1,0,100,0,88,200,40,40,0,-4,-42,1,0,100,0,80,80,40,40,0,-14,-41,0,0,100,0,0,40,40,40,0,-4,-49,0,0,100,0,0,0,40,40,0,8,-43,3,0,100,0,88,200,40,40,0,0,-46,0,0,100,0,0,120,40,40,0,-9,-28,0,0,100,0,80,160,40,40,0,2,-47,0,0,100,0,0,200,40,40,0,-6,-35,0,0,100,0,0,240,40,40,0,-18,-29,0,0,100,0,160,200,40,40,0,0,-28,0,0,100,0,280,40,40,40,0,-28,-38,1,0,100,0,320,159,77,44,0,13,-59,0,0,100,0,352,0,48,80,0,-23,-42,1,0,100,0,240,120,80,40,0,-19,-12,0,0,65,0,480,272,56,24,0,
0,19,-190,-91,0,1,100,0,0,440,304,136,0,-38,-42,1,0,100,0,0,40,40,40,0,-50,-40,0,0,100,0,40,200,40,40,0,-57,-42,0,0,100,0,40,240,40,40,0,-60,-41,0,0,100,0,160,280,40,40,0,-95,-39,0,0,100,0,560,0,80,40,0,-45,-45,0,0,100,0,80,80,40,40,0,-42,-47,0,0,100,0,120,120,40,40,0,-51,-47,0,0,100,0,80,0,40,40,0,-52,-41,1,0,100,0,0,200,40,40,0,-38,-30,1,0,100,0,40,160,40,40,0,-44,-33,1,0,100,0,0,240,40,40,0,-27,-29,1,0,100,0,280,0,40,40,0,-47,-28,1,0,100,0,280,40,40,40,0,-57,-41,0,0,100,0,40,200,40,40,0,-29,-62,0,0,100,0,432,0,48,80,0,-33,-49,0,0,100,0,320,80,40,40,0,-26,-41,0,0,100,0,338,206,54,26,0,-41,-12,0,0,65,0,480,272,56,24,0,
0,19,-240,-91,0,1,100,0,304,440,368,136,0,-52,-40,0,0,100,0,40,200,40,40,0,-59,-42,0,0,100,0,40,240,40,40,0,-67,-41,0,0,100,0,160,280,40,40,0,-102,-39,0,0,100,0,560,0,80,40,0,-40,-41,1,0,100,0,0,40,40,40,0,-45,-46,0,0,100,0,120,120,40,40,0,-54,-46,0,0,100,0,80,0,40,40,0,-55,-40,1,0,100,0,0,200,40,40,0,-42,-44,1,0,100,0,80,80,40,40,0,-41,-29,1,0,100,0,80,160,40,40,0,-47,-32,1,0,100,0,0,240,40,40,0,-29,-29,1,0,100,0,160,200,40,40,0,-51,-28,1,0,100,0,200,200,40,40,0,-64,-41,0,0,100,0,40,200,40,40,0,-31,-62,0,0,100,0,432,0,48,80,0,-36,-49,0,0,100,0,320,80,40,40,0,-31,-41,0,0,100,0,338,206,54,26,0,-44,-12,0,0,65,0,480,272,56,24,0,
0,20,-260,-85,0,1,100,0,0,576,440,120,0,-45,-39,0,0,100,0,40,200,40,40,0,-52,-41,0,0,100,0,40,240,40,40,0,-69,-41,0,0,100,0,160,280,40,40,0,-104,-39,0,0,100,0,560,0,80,40,0,-40,-42,1,0,100,0,0,40,40,40,0,-46,-45,0,0,100,0,120,120,40,40,0,-56,-44,0,0,100,0,120,0,40,40,0,-56,-39,1,0,100,0,0,200,40,40,0,-41,-44,1,0,100,0,80,80,40,40,0,-42,-28,1,0,100,0,80,160,40,40,0,-48,-31,1,0,100,0,0,240,40,40,0,-30,-29,1,0,100,0,160,200,40,40,0,-52,-28,1,0,100,0,200,200,40,40,0,-66,-41,0,0,100,0,40,200,40,40,0,-60,-42,0,0,100,0,80,80,40,40,0,-58,-34,0,0,100,0,401,123,72,33,0,-32,-60,0,0,100,0,432,0,48,80,0,-38,-47,0,0,100,0,360,80,40,40,0,-45,-12,0,0,65,0,480,272,56,24,0,
0,20,-310,-85,0,1,100,0,440,576,232,120,0,-44,-40,0,0,100,0,40,200,40,40,0,-51,-42,0,0,100,0,40,240,40,40,0,-71,-41,0,0,100,0,160,280,40,40,0,-106,-39,0,0,100,0,560,0,80,40,0,-40,-43,1,0,100,0,0,40,40,40,0,-47,-45,0,0,100,0,120,120,40,40,0,-57,-44,0,0,100,0,120,0,40,40,0,-57,-39,1,0,100,0,0,200,40,40,0,-41,-44,1,0,100,0,80,80,40,40,0,-43,-28,1,0,100,0,80,160,40,40,0,-49,-31,1,0,100,0,0,240,40,40,0,-31,-29,1,0,100,0,160,200,40,40,0,-53,-28,1,0,100,0,200,200,40,40,0,-68,-41,0,0,100,0,40,200,40,40,0,-61,-42,0,0,100,0,80,80,40,40,0,-63,-37,0,0,100,0,320,159,77,44,0,-33,-60,0,0,100,0,352,0,48,80,0,-41,-45,0,0,100,0,400,80,40,40,0,-45,-12,0,0,65,0,480,272,56,24,0,
0,19,-43,-40,0,0,100,0,40,200,40,40,0,-50,-42,0,0,100,0,40,240,40,40,0,-71,-41,0,0,100,0,160,280,40,40,0,-106,-39,0,0,100,0,560,0,80,40,0,-40,-43,1,0,100,0,0,40,40,40,0,-39,-44,1,0,100,0,80,80,40,40,0,-47,-45,0,0,100,0,120,120,40,40,0,-57,-44,0,0,100,0,0,0,40,40,0,-57,-39,1,0,100,0,0,200,40,40,0,-43,-28,1,0,100,0,80,160,40,40,0,-49,-31,1,0,100,0,0,240,40,40,0,-31,-29,1,0,100,0,160,200,40,40,0,-53,-28,1,0,100,0,200,200,40,40,0,-68,-41,0,0,100,0,40,200,40,40,0,-61,-42,0,0,100,0,80,80,40,40,0,-61,-37,0,0,100,0,401,119,74,43,0,-34,-59,0,0,100,0,352,0,48,80,0,-45,-43,0,0,100,0,400,80,40,40,0,-45,-12,0,0,65,0,480,272,56,24,0,
0,19,-45,-39,0,0,100,0,40,200,40,40,0,-52,-41,0,0,100,0,40,240,40,40,0,-70,-41,0,0,100,0,160,280,40,40,0,-105,-39,0,0,100,0,560,0,80,40,0,-40,-42,1,0,100,0,0,40,40,40,0,-41,-43,1,0,100,0,80,80,40,40,0,-46,-46,0,0,100,0,120,120,40,40,0,-56,-45,0,0,100,0,0,0,40,40,0,-56,-40,1,0,100,0,0,200,40,40,0,-42,-29,1,0,100,0,40,160,40,40,0,-48,-32,1,0,100,0,0,240,40,40,0,-31,-29,1,0,100,0,280,0,40,40,0,-53,-28,1,0,100,0,280,40,40,40,0,-67,-41,0,0,100,0,40,200,40,40,0,-60,-42,0,0,100,0,80,80,40,40,0,-64,-30,0,0,100,0,323,126,72,32,0,-34,-60,0,0,100,0,352,0,48,80,0,-69,-39,0,0,100,0,240,80,80,40,0,-45,-12,0,0,65,0,480,272,56,24,0,
0,18,-44,-40,2,0,100,0,80,200,40,40,0,-45,-41,0,0,100,0,40,240,40,40,0,-59,-32,0,0,100,0,160,280,40,40,0,-90,-28,0,0,100,0,480,0,80,40,0,-37,-45,1,0,100,0,0,40,40,40,0,-36,-46,1,0,100,0,80,80,40,40,0,-42,-47,0,0,100,0,120,120,40,40,0,-51,-47,0,0,100,0,80,0,40,40,0,-52,-41,1,0,100,0,0,200,40,40,0,-56,-37,0,0,100,0,160,240,40,40,0,-38,-30,1,0,100,0,40,160,40,40,0,-44,-33,1,0,100,0,0,240,40,40,0,-27,-29,1,0,100,0,280,0,40,40,0,-47,-28,1,0,100,0,280,40,40,40,0,-27,-60,0,0,100,0,352,0,48,80,0,-68,-33,1,0,100,0,323,121,73,37,0,-71,-44,1,0,100,0,240,80,80,40,0,-41,-12,0,0,65,0,480,272,56,24,0,
0,2,-31,-63,0,0,100,0,0,696,64,72,0,-27,-12,0,0,65,0,480,272,56,24,0,
0,2,-31,-63,0,0,100,0,64,696,64,72,0,-27,-12,0,0,65,0,480,272,56,24,0,
0,2,-31,-63,0,0,100,0,128,696,64,72,0,-27,-12,0,0,65,0,480,272,56,24,0,
0,2,-31,-63,0,0,100,0,192,696,64,72,0,-27,-12,0,0,65,0,480,272,56,24,0,
0,2,-31,-63,0,0,100,0,256,696,64,72,0,-27,-12,0,0,65,0,480,272,56,24,0,
0,2,-31,-63,0,0,100,0,320,696,64,72,0,-27,-12,0,0,65,0,480,272,56,24,0,
0,2,-31,-63,0,0,100,0,384,696,64,72,0,-27,-12,0,0,65,0,480,272,56,24,0,
0,2,-31,-63,0,0,100,0,448,696,64,72,0,-27,-12,0,0,65,0,480,272,56,24,0,
0,2,-31,-63,0,0,100,0,0,768,64,72,0,-27,-12,0,0,65,0,480,272,56,24,0,
0,2,-31,-63,0,0,100,0,64,768,64,72,0,-27,-12,0,0,65,0,480,272,56,24,0,
0,2,-31,-63,0,0,100,0,128,768,64,72,0,-27,-12,0,0,65,0,480,272,56,24,0,
0,3,-15,-44,0,0,100,0,208,840,32,24,0,-31,-63,0,0,100,0,192,768,64,72,0,-27,-12,0,0,65,0,480,272,56,24,0,
0,3,-15,-44,0,0,50,0,272,840,32,24,0,-39,-63,0,0,100,0,256,768,72,72,0,-27,-12,0,0,65,0,480,272,56,24,0,
0,3,-15,-44,0,0,60,0,336,840,32,24,0,-31,-63,0,0,100,0,328,768,64,72,0,-27,-12,0,0,65,0,480,272,56,24,0,
0,3,-15,-44,0,0,60,0,400,840,32,24,0,-31,-63,0,0,100,0,392,768,64,72,0,-27,-12,0,0,65,0,480,272,56,24,0,
0,3,-15,-44,0,0,30,0,464,840,32,24,0,-31,-63,0,0,100,0,456,768,64,72,0,-27,-12,0,0,65,0,480,272,56,24,0,
0,2,-31,-63,0,0,100,0,520,768,64,72,0,-27,-12,0,0,65,0,480,272,56,24,0,
