0,2,-56,-72,0,0,100,0,0,0,96,80,0,-24,-17,0,0,65,0,200,0,48,32,0,
0,2,-56,-72,0,0,100,0,96,0,96,80,0,-24,-17,0,0,65,0,200,0,48,32,0,
0,2,-56,-72,0,0,100,0,0,80,96,80,0,-24,-17,0,0,65,0,200,0,48,32,0,
0,2,-56,-72,0,0,100,0,96,80,96,80,0,-24,-17,0,0,65,0,200,0,48,32,0,
0,2,-56,-72,0,0,100,0,0,160,96,80,0,-24,-17,0,0,65,0,200,0,48,32,0,
0,2,-56,-72,0,0,100,0,96,160,96,80,0,-24,-17,0,0,65,0,200,0,48,32,0,
0,2,-63,-71,0,0,100,0,192,40,96,88,0,-24,-17,0,0,65,0,200,0,48,32,0,
0,2,-70,-79,0,0,100,0,128,256,128,96,0,-24,-17,0,0,65,0,200,0,48,32,0,
0,2,-68,-79,0,0,100,0,256,256,152,88,0,-24,-17,0,0,65,0,200,0,48,32,0,
0,3,-67,-128,0,0,100,0,256,344,128,136,0,-59,-80,0,1,100,0,392,0,56,72,0,-24,-17,0,0,65,0,200,0,48,32,0,
0,3,-56,-120,0,0,100,0,392,352,120,136,0,-46,-83,0,1,100,0,456,8,56,56,0,-24,-17,0,0,65,0,200,0,48,32,0,
0,2,-66,-124,0,0,100,0,256,480,128,128,0,-24,-17,0,0,65,0,200,0,48,32,0,
0,2,-68,-123,0,0,100,0,384,480,128,128,0,-24,-17,0,0,65,0,200,0,48,32,0,
0,2,-61,-114,0,0,100,0,264,616,120,120,0,-24,-17,0,0,65,0,200,0,48,32,0,
0,3,-99,-112,0,0,100,0,256,744,160,120,0,-97,-102,0,1,100,0,384,72,128,96,0,-24,-17,0,0,65,0,200,0,48,32,0,
0,9,-132,-118,0,0,100,0,512,240,192,176,0,-657,-54,0,1,100,0,400,608,72,64,0,-590,-54,0,1,100,0,400,608,72,64,0,-523,-54,0,1,100,0,400,608,72,64,0,-456,-54,0,1,100,0,400,608,72,64,0,-389,-54,0,1,100,0,400,608,72,64,0,-322,-54,0,1,100,0,400,608,72,64,0,-256,-93,0,1,100,0,512,0,256,128,0,-24,-17,0,0,65,0,200,0,48,32,0,
0,9,-134,-108,0,0,100,0,704,248,184,176,0,-657,-44,0,1,100,0,400,672,72,40,0,-590,-44,0,1,100,0,400,672,72,40,0,-523,-44,0,1,100,0,400,672,72,40,0,-456,-44,0,1,100,0,400,672,72,40,0,-389,-44,0,1,100,0,400,672,72,40,0,-322,-44,0,1,100,0,400,672,72,40,0,-259,-92,0,1,100,0,792,0,248,128,0,-24,-17,0,0,65,0,200,0,48,32,0,
0,9,-121,-111,0,0,100,0,888,240,168,176,0,-656,-29,0,1,100,0,400,712,72,16,0,-589,-29,0,1,100,0,400,712,72,16,0,-522,-29,0,1,100,0,400,712,72,16,0,-455,-29,0,1,100,0,400,712,72,16,0,-388,-29,0,1,100,0,400,712,72,16,0,-321,-29,0,1,100,0,400,712,72,16,0,-255,-81,0,1,100,0,544,128,232,112,0,-24,-17,0,0,65,0,200,0,48,32,0,
0,4,-151,-114,0,0,100,0,584,424,232,168,0,-689,-51,0,0,100,0,592,784,440,56,0,-275,-79,0,0,100,0,792,128,256,112,0,-24,-17,0,0,65,0,200,0,48,32,0,
0,2,-150,-117,0,0,100,0,808,408,232,168,0,-24,-17,0,0,65,0,200,0,48,32,0,
0,3,0,0,0,0,100,0,552,848,8,8,0,-86,-111,0,0,100,0,504,592,128,152,0,-24,-17,0,0,65,0,200,0,48,32,0,
0,2,-58,-85,0,0,100,0,192,152,104,96,0,-24,-17,0,0,65,0,200,0,48,32,0,
0,2,-63,-104,0,0,100,0,0,240,128,120,0,-24,-17,0,0,65,0,200,0,48,32,0,
0,2,-49,-110,0,0,100,0,8,352,120,128,0,-24,-17,0,0,65,0,200,0,48,32,0,
0,2,-49,-102,0,0,100,0,136,360,120,120,0,-24,-17,0,0,65,0,200,0,48,32,0,
0,2,-41,-110,0,0,100,0,16,480,112,128,0,-24,-17,0,0,65,0,200,0,48,32,0,
0,2,-41,-110,0,0,100,0,144,480,120,120,0,-24,-17,0,0,65,0,200,0,48,32,0,
0,2,-41,-110,0,0,100,0,16,608,112,120,0,-24,-17,0,0,65,0,200,0,48,32,0,
0,2,-49,-110,0,0,100,0,136,608,128,120,0,-24,-17,0,0,65,0,200,0,48,32,0,
0,2,-41,-110,0,0,100,0,16,736,128,120,0,-24,-17,0,0,65,0,200,0,48,32,0,
0,2,-41,-110,0,0,100,0,144,736,120,120,0,-24,-17,0,0,65,0,200,0,48,32,0,
