0,12,-22,-52,0,0,100,0,0,40,40,40,0,-12,-52,0,0,100,0,0,80,40,40,0,-12,-102,0,0,100,0,160,120,40,80,0,-2,-32,0,0,100,0,160,200,40,40,0,-12,-92,0,0,100,0,160,0,40,80,0,-22,-62,0,0,100,0,0,0,40,40,0,-22,-52,0,0,100,0,0,120,40,40,0,-42,-32,0,0,100,0,0,160,80,40,0,-12,-52,0,0,100,0,0,240,40,40,0,-42,-42,0,0,100,0,0,280,40,40,0,-62,-22,0,0,100,0,160,80,120,40,0,-25,-12,0,0,65,0,0,344,56,24,0,
0,12,-22,-53,0,0,100,0,0,40,40,40,0,-12,-53,0,0,100,0,0,80,40,40,0,-12,-103,0,0,100,0,200,120,40,80,0,-2,-33,0,0,100,0,200,200,40,40,0,-12,-93,0,0,100,0,160,0,40,80,0,-22,-62,0,0,100,0,40,0,40,40,0,-22,-52,0,0,100,0,40,120,40,40,0,-42,-32,0,0,100,0,80,160,80,40,0,-12,-53,0,0,100,0,0,240,40,40,0,-42,-42,0,0,100,0,40,280,40,40,0,-62,-22,0,0,100,0,280,80,120,40,0,-25,-12,0,0,65,0,0,344,56,24,0,
0,12,-22,-52,0,0,100,0,0,40,40,40,0,-12,-52,0,0,100,0,0,80,40,40,0,-12,-102,0,0,100,0,240,120,40,80,0,-2,-32,0,0,100,0,240,200,40,40,0,-12,-92,0,0,100,0,160,0,40,80,0,-22,-61,0,0,100,0,80,0,40,40,0,-22,-51,0,0,100,0,80,120,40,40,0,-42,-32,0,0,100,0,0,200,80,40,0,-12,-51,0,0,100,0,0,240,40,40,0,-42,-42,0,0,100,0,80,280,40,40,0,-62,-22,0,0,100,0,400,80,120,40,0,-25,-12,0,0,65,0,0,344,56,24,0,
0,12,-22,-51,0,0,100,0,0,40,40,40,0,-12,-51,0,0,100,0,0,80,40,40,0,-12,-101,0,0,100,0,280,120,40,80,0,-2,-31,0,0,100,0,280,200,40,40,0,-12,-91,0,0,100,0,160,0,40,80,0,-22,-61,0,0,100,0,120,0,40,40,0,-22,-51,0,0,100,0,120,120,40,40,0,-42,-32,0,0,100,0,80,200,80,40,0,-12,-50,0,0,100,0,0,240,40,40,0,-42,-42,0,0,100,0,120,280,40,40,0,-62,-22,0,0,100,0,520,80,120,40,0,-25,-12,0,0,65,0,0,344,56,24,0,
0,10,-26,-46,0,0,100,0,80,320,80,40,0,-38,-44,0,0,100,0,320,280,40,40,0,-27,-41,0,0,100,0,160,240,40,40,0,-34,-53,0,0,100,0,80,40,40,40,0,-16,-26,0,0,100,0,160,280,40,40,0,-27,-28,0,0,100,0,160,320,40,40,0,-16,-41,0,0,100,0,320,320,40,40,0,-13,-44,0,0,100,0,200,0,80,40,0,-11,-57,0,1,100,0,0,680,120,56,0,-27,-12,0,0,65,0,0,344,56,24,0,
0,11,-29,-48,0,0,100,0,80,360,80,40,0,-37,-48,0,0,100,0,320,280,40,40,0,-25,-46,0,0,100,0,200,240,40,40,0,-33,-57,0,0,100,0,120,40,40,40,0,-18,-26,0,0,100,0,200,280,40,40,0,-39,-28,0,0,100,0,200,320,40,40,0,-20,-46,0,0,100,0,360,320,40,40,0,-17,-42,0,0,100,0,160,200,40,40,0,-14,-89,0,0,100,0,280,0,80,80,0,-21,-87,0,1,100,0,120,680,120,56,0,-30,-12,0,0,65,0,0,344,56,24,0,
0,11,-36,-46,0,0,100,0,0,400,80,40,0,-46,-40,0,0,100,0,320,280,40,40,0,-29,-37,0,0,100,0,240,240,40,40,0,-44,-48,0,0,100,0,120,40,40,40,0,-20,-26,0,0,100,0,240,280,40,40,0,-41,-28,0,0,100,0,240,320,40,40,0,-26,-40,0,0,100,0,360,320,40,40,0,-23,-36,0,0,100,0,200,200,40,40,0,-20,-83,0,0,100,0,280,0,80,80,0,-11,-87,0,1,100,0,240,680,120,56,0,-34,-12,0,0,65,0,0,344,56,24,0,
0,11,-37,-47,0,0,100,0,80,400,80,40,0,-45,-41,0,0,100,0,320,280,40,40,0,-28,-38,0,0,100,0,280,240,40,40,0,-43,-49,0,0,100,0,120,40,40,40,0,-20,-26,0,0,100,0,280,280,40,40,0,-41,-28,0,0,100,0,280,320,40,40,0,-26,-41,0,0,100,0,400,320,40,40,0,-24,-38,0,0,100,0,240,200,40,40,0,-21,-85,0,0,100,0,280,0,80,80,0,-11,-87,0,1,100,0,360,680,120,56,0,-34,-12,0,0,65,0,0,344,56,24,0,
0,11,-37,-46,0,0,100,0,0,440,80,40,0,-45,-43,0,0,100,0,320,280,40,40,0,-28,-39,0,0,100,0,320,240,40,40,0,-43,-50,0,0,100,0,120,40,40,40,0,-20,-26,0,0,100,0,160,360,40,40,0,-41,-28,0,0,100,0,160,400,40,40,0,-27,-42,0,0,100,0,400,320,40,40,0,-25,-39,0,0,100,0,280,200,40,40,0,-22,-86,0,0,100,0,280,0,80,80,0,-11,-87,0,1,100,0,480,680,120,56,0,-34,-12,0,0,65,0,0,344,56,24,0,
0,12,-25,-46,0,0,100,0,80,440,80,40,0,-44,-42,0,0,100,0,360,280,40,40,0,-27,-45,0,0,100,0,200,240,40,40,0,-35,-55,0,0,100,0,80,40,40,40,0,-20,-26,0,0,100,0,200,360,40,40,0,-41,-28,0,0,100,0,200,400,40,40,0,-41,-43,0,0,100,0,400,280,40,40,0,-36,-39,0,0,100,0,280,200,40,40,0,-131,-47,0,1,100,0,600,680,120,56,0,-86,-36,3,0,100,0,200,0,80,40,0,-139,-113,0,1,100,0,872,544,248,120,0,-33,-12,0,0,65,0,0,344,56,24,0,
0,13,-130,-65,0,1,100,0,240,928,120,56,0,-70,-90,0,1,100,0,720,872,120,56,0,-100,-100,0,1,100,0,480,872,120,56,0,-141,-111,0,1,100,0,0,736,208,136,0,-15,-52,0,0,100,0,120,80,40,40,0,-23,-47,0,0,100,0,320,360,40,40,0,-28,-41,0,0,100,0,320,200,40,40,0,-32,-56,0,0,100,0,320,120,40,40,0,-28,-46,0,0,100,0,320,160,40,40,0,-49,-26,0,0,100,0,160,440,80,40,0,-25,-44,0,0,100,0,360,400,40,40,0,-34,-29,0,0,100,0,0,480,80,40,0,-32,-12,0,0,65,0,0,344,56,24,0,
0,16,-130,-65,0,1,100,0,360,928,120,56,0,-70,-90,0,1,100,0,840,872,120,56,0,-140,-85,0,1,100,0,0,928,120,56,0,-140,-25,0,1,100,0,0,872,120,56,0,-190,-40,0,1,100,0,0,872,120,56,0,-100,-100,0,1,100,0,600,872,120,56,0,-133,-91,0,1,100,0,208,736,208,136,0,-21,-37,1,0,100,0,160,200,40,40,0,-18,-45,0,0,100,0,440,360,40,40,0,-13,-59,0,0,100,0,200,40,80,48,0,-25,-55,0,0,100,0,360,120,40,40,0,-23,-45,0,0,100,0,320,160,40,40,0,-45,-26,0,0,100,0,240,440,80,40,0,-16,-45,0,0,100,0,360,400,40,40,0,-54,-33,0,0,100,0,80,480,80,40,0,-30,-12,0,0,65,0,0,344,56,24,0,
0,16,-91,-23,0,1,100,0,480,928,120,56,0,-140,-85,0,1,100,0,120,928,120,56,0,-140,-25,0,1,100,0,120,872,120,56,0,-190,-40,0,1,100,0,120,872,120,56,0,-100,-100,0,1,100,0,720,872,120,56,0,-135,-101,0,1,100,0,416,736,208,136,0,-22,-46,0,0,100,0,480,360,40,40,0,-31,-55,0,0,100,0,400,120,40,40,0,-26,-46,0,0,100,0,360,160,40,40,0,-45,-26,0,0,100,0,320,440,80,40,0,-5,-45,0,0,100,0,360,200,40,40,0,-15,-47,0,0,100,0,440,400,40,40,0,-47,-95,0,0,100,0,360,0,80,80,0,-68,-44,0,0,100,0,0,520,80,40,0,-26,-36,0,0,100,0,360,240,40,40,0,-31,-12,0,0,65,0,0,344,56,24,0,
0,17,-91,-23,0,1,100,0,600,928,120,56,0,-140,-85,0,1,100,0,240,928,120,56,0,-140,-25,0,1,100,0,240,872,120,56,0,-190,-40,0,1,100,0,240,872,120,56,0,-100,-100,0,1,100,0,840,872,120,56,0,-127,-111,0,1,100,0,624,736,208,136,0,-23,-47,0,0,100,0,400,360,40,40,0,-32,-56,0,0,100,0,440,120,40,40,0,-27,-47,0,0,100,0,400,160,40,40,0,-45,-26,0,0,100,0,400,440,80,40,0,-15,-50,0,0,100,0,480,400,40,40,0,-9,-52,0,0,100,0,160,200,40,40,0,-58,-72,0,0,100,0,440,0,80,40,0,-21,-48,0,0,100,0,400,400,40,40,0,-70,-46,0,0,100,0,80,520,80,40,0,-27,-38,0,0,100,0,400,240,40,40,0,-32,-12,0,0,65,0,0,344,56,24,0,
0,15,-91,-23,0,1,100,0,720,928,120,56,0,-140,-85,0,1,100,0,360,928,120,56,0,-140,-25,0,1,100,0,360,872,120,56,0,-190,-40,0,1,100,0,360,872,120,56,0,-109,-111,0,1,100,0,832,736,208,136,0,-23,-48,0,0,100,0,520,360,40,40,0,-32,-57,0,0,100,0,480,120,40,40,0,-27,-48,0,0,100,0,440,160,40,40,0,-45,-26,0,0,100,0,480,440,80,40,0,-16,-51,0,0,100,0,480,400,40,40,0,-10,-53,0,0,100,0,200,200,40,40,0,-60,-65,0,0,100,0,440,40,80,40,0,-70,-48,0,0,100,0,0,560,80,40,0,-26,-40,0,0,100,0,400,240,40,40,0,-32,-12,0,0,65,0,0,344,56,24,0,
0,11,-91,-23,0,1,100,0,840,928,120,56,0,-22,-45,0,0,100,0,560,360,40,40,0,-30,-56,0,0,100,0,360,120,40,40,0,-26,-46,0,0,100,0,480,160,40,40,0,-45,-26,0,0,100,0,320,440,80,40,0,-12,-49,0,0,100,0,480,400,40,40,0,-6,-51,0,0,100,0,240,200,40,40,0,-56,-63,0,0,100,0,440,40,80,40,0,-68,-46,0,0,100,0,80,560,80,40,0,-26,-37,0,0,100,0,440,240,40,40,0,-32,-12,0,0,65,0,0,344,56,24,0,
0,9,-20,-40,1,0,100,0,360,200,40,40,0,-19,-44,0,0,100,0,400,360,40,40,0,-14,-58,0,0,100,0,200,40,80,48,0,-26,-55,0,0,100,0,360,120,40,40,0,-24,-45,0,0,100,0,320,160,40,40,0,-45,-26,0,0,100,0,240,440,80,40,0,-17,-44,0,0,100,0,360,400,40,40,0,-65,-44,0,0,100,0,0,600,80,40,0,-29,-12,0,0,65,0,0,344,56,24,0,
0,15,-21,-49,0,0,100,0,640,280,40,40,0,-90,-34,0,1,100,0,160,640,120,40,0,-10,-25,0,0,100,0,360,600,40,40,0,-90,-34,0,0,100,0,160,560,120,40,0,-85,-27,0,0,100,0,240,520,80,40,0,-85,-27,0,0,100,0,160,520,80,40,0,-29,-57,0,0,100,0,40,40,40,40,0,-22,-46,0,0,100,0,600,160,40,40,0,-42,-32,0,0,100,0,480,480,80,40,0,-23,-39,1,0,100,0,360,240,40,40,0,-35,-47,0,0,100,0,520,320,40,40,0,-44,-43,1,0,100,0,520,200,40,40,0,-26,-37,0,0,100,0,0,640,40,40,0,-27,-12,0,0,65,0,0,344,56,24,0,-87,-18,0,0,65,0,320,520,80,40,0,
0,15,-21,-49,0,0,100,0,600,280,40,40,0,-90,-34,0,1,100,0,160,640,120,40,0,-10,-25,0,0,100,0,360,600,40,40,0,-90,-34,0,0,100,0,160,560,120,40,0,-85,-27,0,0,100,0,240,520,80,40,0,-85,-27,0,0,100,0,160,520,80,40,0,-28,-58,0,0,100,0,40,40,40,40,0,-21,-47,0,0,100,0,600,160,40,40,0,-42,-32,0,0,100,0,400,480,80,40,0,-22,-40,1,0,100,0,360,240,40,40,0,-40,-50,0,0,100,0,640,320,40,40,0,-47,-56,1,0,100,0,560,200,40,40,0,-25,-38,0,0,100,0,0,640,40,40,0,-27,-12,0,0,65,0,0,344,56,24,0,-87,-18,0,0,65,0,320,520,80,40,0,
0,14,-21,-49,0,0,100,0,480,280,40,40,0,-90,-34,0,1,100,0,160,640,120,40,0,-10,-25,0,0,100,0,360,600,40,40,0,-90,-34,0,0,100,0,160,560,120,40,0,-85,-27,0,0,100,0,240,520,80,40,0,-85,-27,0,0,100,0,160,520,80,40,0,-27,-59,0,0,100,0,40,40,40,40,0,-20,-48,0,0,100,0,520,160,40,40,0,-42,-32,0,0,100,0,160,480,80,40,0,-30,-57,0,0,100,0,480,320,40,40,0,-20,-68,0,0,100,0,520,200,40,40,0,-23,-40,0,0,100,0,40,640,40,40,0,-27,-12,0,0,65,0,0,344,56,24,0,-87,-18,0,0,65,0,320,520,80,40,0,
0,14,-21,-49,0,0,100,0,520,280,40,40,0,-90,-34,0,1,100,0,160,640,120,40,0,-10,-25,0,0,100,0,360,600,40,40,0,-90,-34,0,0,100,0,160,560,120,40,0,-85,-27,0,0,100,0,240,520,80,40,0,-85,-27,0,0,100,0,160,520,80,40,0,-23,-59,0,0,100,0,40,40,40,40,0,-18,-48,0,0,100,0,560,160,40,40,0,-42,-32,0,0,100,0,240,480,80,40,0,-25,-56,0,0,100,0,480,320,40,40,0,-15,-65,0,0,100,0,520,240,40,40,0,-14,-40,0,0,100,0,40,640,40,40,0,-26,-12,0,0,65,0,0,344,56,24,0,-87,-18,0,0,65,0,320,520,80,40,0,
0,14,-21,-49,0,0,100,0,560,280,40,40,0,-90,-34,0,1,100,0,160,640,120,40,0,-10,-25,0,0,100,0,360,600,40,40,0,-90,-34,0,0,100,0,160,560,120,40,0,-85,-27,0,0,100,0,240,520,80,40,0,-85,-27,0,0,100,0,160,520,80,40,0,-22,-59,0,0,100,0,40,40,40,40,0,-17,-48,0,0,100,0,560,160,40,40,0,-42,-32,0,0,100,0,320,480,80,40,0,-23,-55,0,0,100,0,480,320,40,40,0,-13,-64,0,0,100,0,520,240,40,40,0,-12,-39,0,0,100,0,80,640,40,40,0,-25,-12,0,0,65,0,0,344,56,24,0,-87,-18,0,0,65,0,320,520,80,40,0,
0,14,-21,-49,0,0,100,0,560,280,40,40,0,-90,-34,0,1,100,0,160,640,120,40,0,-10,-25,0,0,100,0,360,600,40,40,0,-90,-34,0,0,100,0,160,560,120,40,0,-85,-27,0,0,100,0,240,520,80,40,0,-85,-27,0,0,100,0,160,520,80,40,0,-22,-59,0,0,100,0,40,40,40,40,0,-17,-48,0,0,100,0,560,160,40,40,0,-42,-32,0,0,100,0,320,480,80,40,0,-22,-54,0,0,100,0,480,320,40,40,0,-12,-63,0,0,100,0,520,240,40,40,0,-13,-39,0,0,100,0,0,640,40,40,0,-25,-12,0,0,65,0,0,344,56,24,0,-87,-18,0,0,65,0,320,520,80,40,0,
0,14,-21,-49,0,0,100,0,520,280,40,40,0,-90,-34,0,1,100,0,160,640,120,40,0,-10,-25,0,0,100,0,360,600,40,40,0,-90,-34,0,0,100,0,160,560,120,40,0,-85,-27,0,0,100,0,240,520,80,40,0,-85,-27,0,0,100,0,160,520,80,40,0,-23,-59,0,0,100,0,40,40,40,40,0,-18,-48,0,0,100,0,560,160,40,40,0,-42,-32,0,0,100,0,240,480,80,40,0,-24,-57,0,0,100,0,480,320,40,40,0,-18,-70,0,0,100,0,560,200,40,40,0,-14,-39,0,0,100,0,0,640,40,40,0,-26,-12,0,0,65,0,0,344,56,24,0,-87,-18,0,0,65,0,320,520,80,40,0,
0,20,-110,-120,0,1,100,0,680,0,136,120,0,-21,-49,0,0,100,0,600,280,40,40,0,-41,-49,0,0,100,0,520,320,24,40,0,-50,-45,1,1,100,0,560,240,40,40,0,-50,-45,1,1,100,0,560,240,40,40,0,-50,-45,1,0,100,0,520,200,40,40,0,-90,-34,0,1,100,0,160,600,120,40,0,-90,-34,0,1,100,0,160,640,120,40,0,-10,-25,0,0,100,0,360,640,40,40,0,-90,-34,0,0,100,0,160,560,120,40,0,-85,-27,0,0,100,0,240,520,80,40,0,-85,-27,0,0,100,0,160,520,80,40,0,-28,-58,0,0,100,0,40,40,40,40,0,-21,-47,0,0,100,0,600,160,40,40,0,-42,-32,0,0,100,0,400,480,80,40,0,-22,-40,1,0,100,0,360,240,40,40,0,-41,-49,0,0,100,0,520,320,40,40,0,-30,-39,1,0,100,0,80,480,80,40,0,-28,-12,0,0,65,0,0,344,56,24,0,-87,-18,0,0,65,0,320,520,80,40,0,
0,21,-140,-120,0,1,100,0,720,120,192,152,0,-134,-120,0,1,100,0,816,0,176,120,0,-21,-49,0,0,100,0,640,280,40,40,0,-41,-49,0,0,100,0,560,320,24,40,0,-50,-45,1,1,100,0,560,240,40,40,0,-50,-45,1,1,100,0,560,240,40,40,0,-50,-45,1,0,100,0,520,200,40,40,0,-90,-34,0,1,95,0,160,600,120,40,0,-90,-34,0,1,100,0,160,640,120,40,0,-10,-25,0,0,100,0,400,640,40,40,0,-90,-34,0,0,100,0,160,560,120,40,0,-85,-27,0,0,100,0,240,520,80,40,0,-85,-27,0,0,100,0,160,520,80,40,0,-29,-57,0,0,100,0,40,40,40,40,0,-22,-46,0,0,100,0,600,160,40,40,0,-42,-32,0,0,100,0,480,480,80,40,0,-23,-39,1,0,100,0,360,240,40,40,0,-41,-49,0,0,100,0,560,320,40,40,0,-21,-48,1,0,100,0,0,520,80,40,0,-29,-12,0,0,65,0,0,344,56,24,0,-87,-18,0,0,65,0,320,520,80,40,0,
0,20,-168,-120,0,1,100,0,912,120,232,152,0,-108,-58,0,1,100,0,992,0,136,64,0,-21,-49,0,0,100,0,680,280,40,40,0,-41,-49,0,0,100,0,600,320,24,40,0,-50,-45,1,1,100,0,560,240,40,40,0,-50,-45,1,0,100,0,520,200,40,40,0,-90,-34,0,1,85,0,160,600,120,40,0,-90,-34,0,1,100,0,160,640,120,40,0,-10,-25,0,0,100,0,440,640,40,40,0,-90,-34,0,0,100,0,160,560,120,40,0,-85,-27,0,0,100,0,240,520,80,40,0,-85,-27,0,0,100,0,160,520,80,40,0,-29,-56,0,0,100,0,40,40,40,40,0,-22,-45,0,0,100,0,600,160,40,40,0,-42,-32,0,0,100,0,560,480,80,40,0,-23,-39,1,0,100,0,360,240,40,40,0,-41,-49,0,0,100,0,600,320,40,40,0,-26,-44,1,0,100,0,0,560,80,40,0,-29,-12,0,0,65,0,0,344,56,24,0,-87,-18,0,0,65,0,320,520,80,40,0,
0,20,-169,-116,0,1,100,0,720,272,248,152,0,-109,-63,0,1,100,0,992,64,136,56,0,-21,-49,0,0,100,0,680,280,40,40,0,-41,-49,0,0,100,0,600,320,24,40,0,-50,-45,1,1,100,0,560,240,40,40,0,-50,-45,1,0,100,0,520,200,40,40,0,-90,-34,0,1,60,0,160,600,120,40,0,-90,-34,0,1,100,0,160,640,120,40,0,-10,-25,0,0,100,0,480,640,40,40,0,-90,-34,0,0,100,0,160,560,120,40,0,-85,-27,0,0,100,0,240,520,80,40,0,-85,-27,0,0,100,0,160,520,80,40,0,-29,-56,0,0,100,0,40,40,40,40,0,-22,-45,0,0,100,0,600,160,40,40,0,-42,-32,0,0,100,0,560,480,80,40,0,-23,-39,1,0,100,0,360,240,40,40,0,-41,-49,0,0,100,0,600,320,40,40,0,-29,-42,1,0,100,0,80,560,80,40,0,-29,-12,0,0,65,0,0,344,56,24,0,-87,-18,0,0,65,0,320,520,80,40,0,
0,19,-219,-83,0,1,100,0,640,424,328,120,0,-21,-49,0,0,100,0,680,280,40,40,0,-41,-49,0,0,100,0,600,320,24,40,0,-50,-45,1,1,100,0,560,240,40,40,0,-50,-45,1,0,100,0,520,200,40,40,0,-90,-34,0,1,30,0,160,600,120,40,0,-90,-34,0,1,100,0,160,640,120,40,0,-10,-25,0,0,100,0,640,600,40,40,0,-90,-34,0,0,100,0,160,560,120,40,0,-85,-27,0,0,100,0,240,520,80,40,0,-85,-27,0,0,100,0,160,520,80,40,0,-29,-56,0,0,100,0,40,40,40,40,0,-22,-45,0,0,100,0,600,160,40,40,0,-42,-32,0,0,100,0,560,480,80,40,0,-23,-39,1,0,100,0,360,240,40,40,0,-41,-49,0,0,100,0,600,320,40,40,0,-25,-36,0,0,100,0,80,640,40,40,0,-29,-12,0,0,65,0,0,344,56,24,0,-87,-18,0,0,65,0,320,520,80,40,0,
0,17,-21,-49,0,0,100,0,680,280,40,40,0,-41,-49,0,0,100,0,600,320,24,40,0,-50,-45,1,1,100,0,560,240,40,40,0,-50,-45,1,0,100,0,520,200,40,40,0,-90,-34,0,1,100,0,160,640,120,40,0,-10,-25,0,0,100,0,360,600,40,40,0,-90,-34,0,0,100,0,160,560,120,40,0,-85,-27,0,0,100,0,240,520,80,40,0,-85,-27,0,0,100,0,160,520,80,40,0,-29,-56,0,0,100,0,40,40,40,40,0,-22,-45,0,0,100,0,600,160,40,40,0,-42,-32,0,0,100,0,560,480,80,40,0,-23,-39,1,0,100,0,360,240,40,40,0,-41,-49,0,0,100,0,600,320,40,40,0,-25,-36,0,0,100,0,40,640,40,40,0,-29,-12,0,0,65,0,0,344,56,24,0,-87,-18,0,0,65,0,320,520,80,40,0,
0,17,-21,-49,0,0,100,0,640,280,40,40,0,-41,-49,0,0,100,0,560,320,24,40,0,-50,-45,1,1,100,0,560,240,40,40,0,-50,-45,1,0,100,0,520,200,40,40,0,-90,-34,0,1,100,0,160,640,120,40,0,-10,-25,0,0,100,0,360,600,40,40,0,-90,-34,0,0,100,0,160,560,120,40,0,-85,-27,0,0,100,0,240,520,80,40,0,-85,-27,0,0,100,0,160,520,80,40,0,-29,-57,0,0,100,0,40,40,40,40,0,-22,-46,0,0,100,0,600,160,40,40,0,-42,-32,0,0,100,0,480,480,80,40,0,-23,-39,1,0,100,0,360,240,40,40,0,-41,-49,0,0,100,0,560,320,40,40,0,-25,-36,0,0,100,0,0,640,40,40,0,-29,-12,0,0,65,0,0,344,56,24,0,-87,-18,0,0,65,0,320,520,80,40,0,
0,17,-21,-49,0,0,100,0,600,280,40,40,0,-40,-49,0,0,100,0,560,320,24,40,0,-49,-45,1,1,100,0,560,240,40,40,0,-49,-45,1,0,100,0,520,200,40,40,0,-90,-34,0,1,100,0,160,640,120,40,0,-10,-25,0,0,100,0,360,600,40,40,0,-90,-34,0,0,100,0,160,560,120,40,0,-85,-27,0,0,100,0,240,520,80,40,0,-85,-27,0,0,100,0,160,520,80,40,0,-28,-58,0,0,100,0,40,40,40,40,0,-21,-47,0,0,100,0,600,160,40,40,0,-42,-32,0,0,100,0,400,480,80,40,0,-20,-40,1,0,100,0,360,240,40,40,0,-40,-49,0,0,100,0,560,320,40,40,0,-26,-39,0,0,100,0,0,640,40,40,0,-28,-12,0,0,65,0,0,344,56,24,0,-87,-18,0,0,65,0,320,520,80,40,0,
0,15,-21,-49,0,0,100,0,520,280,40,40,0,-90,-34,0,1,100,0,160,640,120,40,0,-10,-25,0,0,100,0,360,600,40,40,0,-90,-34,0,0,100,0,160,560,120,40,0,-85,-27,0,0,100,0,240,520,80,40,0,-85,-27,0,0,100,0,160,520,80,40,0,-25,-59,0,0,100,0,40,40,40,40,0,-18,-48,0,0,100,0,600,160,40,40,0,-42,-32,0,0,100,0,240,480,80,40,0,-18,-42,1,0,100,0,360,240,40,40,0,-35,-48,0,0,100,0,560,320,40,40,0,-44,-44,1,0,100,0,520,200,40,40,0,-24,-40,0,0,100,0,40,640,40,40,0,-26,-12,0,0,65,0,0,344,56,24,0,-87,-18,0,0,65,0,320,520,80,40,0,
0,14,-15,-54,0,0,100,0,680,280,40,40,0,-91,-46,0,1,100,0,560,544,120,56,0,-5,-33,1,0,100,0,360,640,40,40,0,-85,-38,0,0,100,0,280,560,120,40,0,-85,-27,0,0,60,0,240,520,80,40,0,-85,-27,0,0,100,0,160,520,80,40,0,-23,-59,0,0,100,0,40,40,40,40,0,-17,-48,0,0,100,0,600,160,40,40,0,-42,-32,0,0,100,0,320,480,80,40,0,-18,-42,1,0,100,0,360,240,40,40,0,-26,-48,0,0,100,0,680,320,40,40,0,-22,-41,0,0,100,0,80,640,40,40,0,-25,-12,0,0,65,0,0,344,56,24,0,-87,-18,0,0,65,0,320,520,80,40,0,
0,14,-28,-114,0,1,100,0,560,0,40,80,0,-16,-44,0,0,100,0,560,400,40,40,0,-13,-28,1,0,100,0,360,640,40,40,0,-31,-116,0,1,100,0,680,544,64,120,0,-16,-97,0,0,100,0,320,600,40,80,0,-16,-58,0,0,100,0,600,400,40,40,0,-24,-61,0,0,100,0,520,120,40,40,0,-14,-51,0,0,100,0,400,520,40,40,0,-40,-32,0,0,100,0,0,160,80,40,0,-34,-52,0,0,100,0,600,360,40,40,0,2,-39,1,0,100,0,0,280,40,40,0,-85,-27,0,0,100,0,160,520,80,40,0,-24,-12,0,0,65,0,0,344,56,24,0,-87,-18,0,0,65,0,320,520,80,40,0,
0,17,-28,-114,0,1,100,0,600,0,40,80,0,-7,-156,1,1,100,0,520,0,40,80,0,-4,-138,1,1,100,0,520,0,40,80,0,-27,-128,0,1,100,0,520,0,40,80,0,-15,-60,0,0,100,0,560,400,40,40,0,-14,-44,1,0,100,0,400,640,40,40,0,-27,-136,0,1,100,0,744,544,64,120,0,-15,-113,0,0,100,0,280,600,40,80,0,-15,-62,0,0,100,0,600,400,40,40,0,-24,-62,0,0,100,0,560,120,40,40,0,-14,-52,0,0,100,0,440,520,40,40,0,-40,-32,0,0,100,0,560,440,80,40,0,-34,-52,0,0,100,0,640,360,40,40,0,2,-39,1,0,100,0,40,280,40,40,0,-85,-27,0,0,100,0,160,520,80,40,0,-24,-12,0,0,65,0,0,344,56,24,0,-87,-18,0,0,65,0,320,520,80,40,0,
0,20,-28,-114,0,1,100,0,640,0,40,80,0,0,-137,1,1,100,0,520,0,40,80,0,-25,-167,0,1,100,0,520,0,40,80,0,-7,-156,1,1,100,0,560,0,40,80,0,-4,-138,1,1,100,0,560,0,40,80,0,-27,-128,0,1,100,0,560,0,40,80,0,-14,-62,0,0,100,0,560,400,40,40,0,-13,-46,1,0,100,0,440,640,40,40,0,-22,-138,0,1,100,0,808,544,64,120,0,-26,-138,0,1,100,0,744,544,64,120,0,-14,-115,0,0,100,0,280,600,40,80,0,-14,-63,0,0,100,0,600,400,40,40,0,-24,-63,0,0,100,0,600,120,40,40,0,-14,-53,0,0,100,0,480,520,40,40,0,-40,-32,0,0,100,0,560,440,80,40,0,-34,-53,0,0,100,0,680,360,40,40,0,2,-39,1,0,100,0,80,280,40,40,0,-85,-27,0,0,100,0,160,520,80,40,0,-24,-12,0,0,65,0,0,344,56,24,0,-87,-18,0,0,65,0,320,520,80,40,0,
0,20,-2,-165,1,1,100,0,520,0,40,80,0,0,-137,1,1,100,0,560,0,40,80,0,-25,-167,0,1,100,0,560,0,40,80,0,-7,-156,1,1,100,0,600,0,40,80,0,-4,-138,1,1,100,0,600,0,40,80,0,-27,-128,0,1,100,0,600,0,40,80,0,-14,-62,0,0,100,0,560,400,40,40,0,-13,-46,1,0,100,0,480,640,40,40,0,-22,-138,0,1,80,0,808,544,64,120,0,-26,-138,0,1,100,0,744,544,64,120,0,-14,-115,0,0,100,0,280,600,40,80,0,-14,-63,0,0,100,0,600,400,40,40,0,-24,-63,0,0,100,0,640,120,40,40,0,-14,-53,0,0,100,0,520,520,40,40,0,-40,-32,0,0,100,0,560,440,80,40,0,-34,-53,0,0,100,0,680,360,40,40,0,2,-39,1,0,100,0,120,280,40,40,0,-85,-27,0,0,100,0,160,520,80,40,0,-24,-12,0,0,65,0,0,344,56,24,0,-87,-18,0,0,65,0,320,520,80,40,0,
0,20,-2,-165,1,1,100,0,560,0,40,80,0,0,-137,1,1,100,0,600,0,40,80,0,-25,-167,0,1,100,0,600,0,40,80,0,-7,-156,1,1,100,0,640,0,40,80,0,-4,-138,1,1,100,0,640,0,40,80,0,-27,-128,0,1,100,0,640,0,40,80,0,-14,-62,0,0,100,0,560,400,40,40,0,-13,-46,1,0,100,0,360,640,40,40,0,-22,-138,0,1,40,0,808,544,64,120,0,-26,-138,0,1,80,0,744,544,64,120,0,-14,-115,0,0,100,0,280,600,40,80,0,-14,-63,0,0,100,0,600,400,40,40,0,-24,-63,0,0,100,0,520,120,40,40,0,-14,-53,0,0,100,0,400,520,40,40,0,-40,-32,0,0,100,0,560,440,80,40,0,-34,-53,0,0,100,0,680,360,40,40,0,2,-39,1,0,100,0,0,280,40,40,0,-85,-27,0,0,100,0,160,520,80,40,0,-24,-12,0,0,65,0,0,344,56,24,0,-87,-18,0,0,65,0,320,520,80,40,0,
0,17,-2,-165,1,1,100,0,600,0,40,80,0,0,-137,1,1,100,0,640,0,40,80,0,-25,-167,0,1,100,0,640,0,40,80,0,-14,-62,0,0,100,0,560,400,40,40,0,-13,-46,1,0,100,0,400,640,40,40,0,-22,-138,0,1,10,0,808,544,64,120,0,-26,-138,0,1,60,0,744,544,64,120,0,-14,-115,0,0,100,0,280,600,40,80,0,-14,-63,0,0,100,0,600,400,40,40,0,-24,-63,0,0,100,0,560,120,40,40,0,-14,-53,0,0,100,0,440,520,40,40,0,-40,-32,0,0,100,0,560,440,80,40,0,-34,-53,0,0,100,0,680,360,40,40,0,2,-39,1,0,100,0,40,280,40,40,0,-85,-27,0,0,100,0,160,520,80,40,0,-24,-12,0,0,65,0,0,344,56,24,0,-87,-18,0,0,65,0,320,520,80,40,0,
0,14,-2,-165,1,1,100,0,640,0,40,80,0,-14,-62,0,0,100,0,560,400,40,40,0,-13,-46,1,0,100,0,440,640,40,40,0,-26,-138,0,1,40,0,744,544,64,120,0,-14,-115,0,0,100,0,280,600,40,80,0,-14,-63,0,0,100,0,600,400,40,40,0,-24,-63,0,0,100,0,600,120,40,40,0,-14,-53,0,0,100,0,480,520,40,40,0,-40,-32,0,0,100,0,560,440,80,40,0,-34,-53,0,0,100,0,680,360,40,40,0,2,-39,1,0,100,0,80,280,40,40,0,-85,-27,0,0,100,0,160,520,80,40,0,-24,-12,0,0,65,0,0,344,56,24,0,-87,-18,0,0,65,0,320,520,80,40,0,
0,13,-14,-62,0,0,100,0,560,400,40,40,0,-13,-46,1,0,100,0,480,640,40,40,0,-26,-138,0,1,20,0,744,544,64,120,0,-14,-115,0,0,100,0,280,600,40,80,0,-14,-63,0,0,100,0,600,400,40,40,0,-24,-63,0,0,100,0,640,120,40,40,0,-14,-53,0,0,100,0,520,520,40,40,0,-40,-32,0,0,100,0,560,440,80,40,0,-34,-53,0,0,100,0,680,360,40,40,0,2,-39,1,0,100,0,120,280,40,40,0,-85,-27,0,0,100,0,160,520,80,40,0,-24,-12,0,0,65,0,0,344,56,24,0,-87,-18,0,0,65,0,320,520,80,40,0,
0,12,-14,-62,0,0,100,0,560,400,40,40,0,-13,-46,1,0,100,0,360,640,40,40,0,-14,-115,0,0,100,0,280,600,40,80,0,-14,-63,0,0,100,0,600,400,40,40,0,-24,-63,0,0,100,0,520,120,40,40,0,-14,-53,0,0,100,0,400,520,40,40,0,-40,-32,0,0,100,0,560,440,80,40,0,-34,-53,0,0,100,0,680,360,40,40,0,2,-39,1,0,100,0,0,280,40,40,0,-85,-27,0,0,100,0,160,520,80,40,0,-24,-12,0,0,65,0,0,344,56,24,0,-87,-18,0,0,65,0,320,520,80,40,0,
0,12,-14,-62,0,0,100,0,560,400,40,40,0,-13,-46,1,0,100,0,400,640,40,40,0,-14,-115,0,0,100,0,280,600,40,80,0,-14,-63,0,0,100,0,600,400,40,40,0,-24,-63,0,0,100,0,560,120,40,40,0,-14,-53,0,0,100,0,440,520,40,40,0,-40,-32,0,0,100,0,560,440,80,40,0,-34,-53,0,0,100,0,680,360,40,40,0,2,-39,1,0,100,0,40,280,40,40,0,-85,-27,0,0,100,0,160,520,80,40,0,-24,-12,0,0,65,0,0,344,56,24,0,-87,-18,0,0,65,0,320,520,80,40,0,
0,12,-14,-62,0,0,100,0,560,400,40,40,0,-13,-46,1,0,100,0,440,640,40,40,0,-14,-115,0,0,100,0,280,600,40,80,0,-14,-63,0,0,100,0,600,400,40,40,0,-24,-63,0,0,100,0,600,120,40,40,0,-14,-53,0,0,100,0,480,520,40,40,0,-40,-32,0,0,100,0,560,440,80,40,0,-34,-53,0,0,100,0,680,360,40,40,0,2,-39,1,0,100,0,80,280,40,40,0,-85,-27,0,0,100,0,160,520,80,40,0,-24,-12,0,0,65,0,0,344,56,24,0,-87,-18,0,0,65,0,320,520,80,40,0,
0,12,-14,-62,0,0,100,0,560,400,40,40,0,-13,-46,1,0,100,0,480,640,40,40,0,-14,-115,0,0,100,0,280,600,40,80,0,-14,-63,0,0,100,0,600,400,40,40,0,-24,-63,0,0,100,0,640,120,40,40,0,-14,-53,0,0,100,0,520,520,40,40,0,-40,-32,0,0,100,0,560,440,80,40,0,-34,-53,0,0,100,0,680,360,40,40,0,2,-39,1,0,100,0,120,280,40,40,0,-85,-27,0,0,100,0,160,520,80,40,0,-24,-12,0,0,65,0,0,344,56,24,0,-87,-18,0,0,65,0,320,520,80,40,0,
