0,2,-39,-62,0,0,100,0,0,0,80,72,0,-44,-23,0,0,65,0,480,184,88,48,0,
0,2,-39,-62,0,0,100,0,80,0,80,72,0,-44,-23,0,0,65,0,480,184,88,48,0,
0,2,-39,-62,0,0,100,0,160,0,80,72,0,-44,-23,0,0,65,0,480,184,88,48,0,
0,2,-39,-62,0,0,100,0,240,0,80,72,0,-44,-23,0,0,65,0,480,184,88,48,0,
0,2,-47,-58,0,0,100,0,320,0,96,72,0,-52,-23,0,0,65,0,480,184,88,48,0,
0,2,-47,-70,0,0,100,0,0,72,96,80,0,-44,-23,0,0,65,0,480,184,88,48,0,
0,2,-47,-70,0,0,100,0,96,72,96,80,0,-44,-23,0,0,65,0,480,184,88,48,0,
0,2,-47,-70,0,0,100,0,192,72,96,80,0,-44,-23,0,0,65,0,480,184,88,48,0,
0,5,-35,-57,0,1,100,0,352,304,64,72,0,-99,-62,0,1,100,0,0,232,88,64,0,-47,-70,0,0,100,0,288,72,96,80,0,-55,-62,0,1,80,0,352,232,64,72,0,-44,-23,0,0,65,0,480,184,88,48,0,
0,5,-35,-57,0,1,100,0,416,304,64,72,0,-99,-62,0,1,100,0,88,232,88,64,0,-47,-70,0,0,100,0,384,72,96,80,0,-55,-62,0,1,80,0,416,232,64,72,0,-44,-23,0,0,65,0,480,184,88,48,0,
0,5,-35,-57,0,1,100,0,480,304,64,72,0,-99,-62,0,1,100,0,176,232,88,64,0,-47,-70,0,0,100,0,480,72,96,80,0,-55,-62,0,1,80,0,480,232,64,72,0,-44,-23,0,0,65,0,480,184,88,48,0,
0,5,-35,-57,0,1,100,0,544,304,64,72,0,-99,-62,0,1,100,0,264,232,88,64,0,-47,-70,0,0,100,0,0,152,96,80,0,-55,-62,0,1,80,0,544,232,64,72,0,-44,-23,0,0,65,0,480,184,88,48,0,
0,5,-35,-57,0,1,100,0,608,304,64,72,0,-99,-62,0,1,100,0,0,296,88,64,0,-47,-70,0,0,100,0,96,152,96,80,0,-55,-62,0,1,80,0,608,232,64,72,0,-44,-23,0,0,65,0,480,184,88,48,0,
0,5,-35,-57,0,1,100,0,416,304,64,72,0,-99,-62,0,1,100,0,88,296,88,64,0,-47,-70,0,0,100,0,192,152,96,80,0,-55,-62,0,1,80,0,416,232,64,72,0,-44,-23,0,0,65,0,480,184,88,48,0,
0,5,-35,-57,0,1,85,0,352,304,64,72,0,-99,-62,0,1,85,0,176,296,88,64,0,-47,-70,0,0,100,0,288,152,96,80,0,-55,-62,0,1,80,0,352,232,64,72,0,-44,-23,0,0,65,0,480,184,88,48,0,
0,3,-99,-62,0,1,75,0,264,296,88,64,0,-47,-70,0,0,100,0,384,152,96,80,0,-44,-23,0,0,65,0,480,184,88,48,0,
0,2,-47,-70,0,0,100,0,0,560,104,80,0,-44,-23,0,0,65,0,480,184,88,48,0,
0,2,-47,-70,0,0,100,0,104,560,104,80,0,-44,-23,0,0,65,0,480,184,88,48,0,
0,2,-47,-70,0,0,100,0,208,560,104,80,0,-44,-23,0,0,65,0,480,184,88,48,0,
0,2,-47,-70,0,0,100,0,312,560,104,80,0,-44,-23,0,0,65,0,480,184,88,48,0,
0,3,-95,-113,0,0,80,0,0,456,104,104,0,-47,-70,0,0,100,0,416,560,104,80,0,-44,-23,0,0,65,0,480,184,88,48,0,
0,3,-95,-113,0,0,80,0,104,456,104,104,0,-47,-70,0,0,100,0,0,640,104,80,0,-44,-23,0,0,65,0,480,184,88,48,0,
0,3,-95,-113,0,0,80,0,208,456,104,104,0,-47,-70,0,0,100,0,104,640,104,80,0,-44,-23,0,0,65,0,480,184,88,48,0,
0,3,-95,-113,0,0,80,0,312,456,104,104,0,-47,-70,0,0,100,0,208,640,104,80,0,-44,-23,0,0,65,0,480,184,88,48,0,
0,3,-95,-113,0,0,80,0,416,456,104,104,0,-47,-70,0,0,100,0,312,640,104,80,0,-44,-23,0,0,65,0,480,184,88,48,0,
0,3,-95,-113,0,0,80,0,104,456,104,104,0,-47,-70,0,0,100,0,416,640,104,80,0,-44,-23,0,0,65,0,480,184,88,48,0,
0,3,-95,-113,0,0,80,0,208,456,104,104,0,-47,-70,0,0,100,0,0,720,104,80,0,-44,-23,0,0,65,0,480,184,88,48,0,
0,3,-95,-113,0,0,60,0,520,456,104,104,0,-47,-70,0,0,100,0,104,720,104,80,0,-44,-23,0,0,65,0,480,184,88,48,0,
0,3,-95,-113,0,0,40,0,624,456,104,104,0,-47,-70,0,0,100,0,208,720,104,80,0,-44,-23,0,0,65,0,480,184,88,48,0,
0,2,-47,-70,0,0,100,0,312,720,104,80,0,-44,-23,0,0,65,0,480,184,88,48,0,
0,3,-95,-113,0,0,80,0,0,456,104,104,0,-47,-70,0,0,100,0,416,720,104,80,0,-44,-23,0,0,65,0,480,184,88,48,0,
