0,7,-15,-62,0,0,100,0,576,64,32,32,0,-56,-80,0,0,100,0,0,0,112,96,0,-40,-24,0,0,100,0,0,688,32,32,0,8,-24,0,0,100,0,0,720,32,32,0,0,-40,0,1,100,0,576,32,32,32,0,-32,-40,0,1,100,0,576,0,32,32,0,-23,-8,0,0,65,0,512,96,48,16,0,
0,7,-15,-62,0,0,100,0,576,64,32,32,0,-56,-80,0,0,100,0,112,0,112,96,0,-40,-25,0,0,100,0,32,688,32,32,0,8,-25,0,0,100,0,32,720,32,32,0,0,-40,0,1,100,0,608,32,32,32,0,-32,-40,0,1,100,0,608,0,32,32,0,-23,-8,0,0,65,0,512,96,48,16,0,
0,7,-15,-63,0,0,100,0,576,64,32,32,0,-56,-80,0,0,100,0,224,0,112,96,0,-40,-26,0,0,100,0,64,688,32,32,0,8,-26,0,0,100,0,64,720,32,32,0,0,-41,0,1,100,0,640,32,32,32,0,-32,-41,0,1,100,0,640,0,32,32,0,-23,-8,0,0,65,0,512,96,48,16,0,
0,7,-15,-63,0,0,100,0,576,64,32,32,0,-56,-80,0,0,100,0,336,0,112,96,0,-40,-25,0,0,100,0,96,688,32,32,0,8,-25,0,0,100,0,96,720,32,32,0,0,-41,0,1,100,0,672,32,32,32,0,-32,-41,0,1,100,0,672,0,32,32,0,-23,-8,0,0,65,0,512,96,48,16,0,
0,11,-16,-60,0,0,100,0,608,64,32,32,0,-64,-80,0,0,100,0,0,96,128,96,0,0,-64,0,0,100,0,0,752,64,48,0,0,-64,0,1,25,0,0,848,64,48,0,-64,-40,0,0,100,0,0,800,64,48,0,-64,-40,0,1,25,0,0,896,64,48,0,0,-51,0,0,100,0,800,32,32,32,0,4,-50,1,1,100,0,832,0,32,32,0,-25,-50,0,0,100,0,800,0,32,32,0,-30,-50,0,1,100,0,832,0,32,32,0,-23,-8,0,0,65,0,512,96,48,16,0,
0,11,-16,-61,0,0,100,0,608,64,32,32,0,-64,-80,0,0,100,0,128,96,128,96,0,1,-65,0,0,100,0,64,752,64,48,0,1,-65,0,1,50,0,64,848,64,48,0,-65,-41,0,0,100,0,64,800,64,48,0,-65,-41,0,1,50,0,64,896,64,48,0,1,-52,0,0,100,0,800,32,32,32,0,5,-51,1,1,100,0,864,0,32,32,0,-26,-51,0,0,100,0,800,0,32,32,0,-31,-51,0,1,100,0,864,0,32,32,0,-23,-8,0,0,65,0,512,96,48,16,0,
0,11,-16,-61,0,0,100,0,608,64,32,32,0,-64,-81,0,0,100,0,256,96,128,96,0,0,-65,0,0,100,0,128,752,64,48,0,0,-65,0,1,75,0,128,848,64,48,0,-64,-41,0,0,100,0,128,800,64,48,0,-64,-41,0,1,75,0,128,896,64,48,0,0,-53,0,0,100,0,800,32,32,32,0,4,-52,1,1,100,0,832,32,32,32,0,-25,-52,0,0,100,0,800,0,32,32,0,-30,-52,0,1,100,0,832,32,32,32,0,-23,-8,0,0,65,0,512,96,48,16,0,
0,11,-16,-60,0,0,100,0,608,64,32,32,0,-64,-81,0,0,100,0,384,96,128,96,0,-1,-64,0,0,100,0,192,752,64,48,0,-1,-64,0,1,50,0,192,848,64,48,0,-63,-40,0,0,100,0,192,800,64,48,0,-63,-40,0,1,50,0,192,896,64,48,0,-1,-52,0,0,100,0,800,32,32,32,0,3,-51,1,1,100,0,864,32,32,32,0,-24,-51,0,0,100,0,800,0,32,32,0,-29,-51,0,1,100,0,864,32,32,32,0,-23,-8,0,0,65,0,512,96,48,16,0,
0,7,-7,-58,0,0,100,0,704,0,32,32,0,-7,-58,0,1,100,0,736,0,32,32,0,-30,-52,0,0,100,0,608,64,32,32,0,-64,-80,0,0,100,0,448,0,128,96,0,-13,-56,0,0,100,0,704,32,32,32,0,-13,-56,0,1,100,0,736,0,32,32,0,-24,-8,0,0,65,0,512,96,48,16,0,
0,8,-35,-64,1,0,100,0,704,0,32,32,0,-35,-64,1,1,100,0,736,0,32,32,0,-13,-58,1,0,100,0,608,64,32,32,0,-64,-80,0,0,100,0,0,192,128,96,0,-26,-68,1,0,100,0,704,32,32,32,0,-26,-68,1,1,100,0,736,0,32,32,0,-88,-96,0,1,100,0,256,688,176,112,0,-23,-8,0,0,65,0,512,96,48,16,0,
0,8,4,-62,0,0,100,0,704,0,32,32,0,4,-62,0,1,100,0,768,0,32,32,0,-18,-62,0,0,100,0,608,64,32,32,0,-64,-80,0,0,100,0,128,192,128,96,0,-6,-67,0,0,100,0,704,32,32,32,0,-6,-67,0,1,100,0,768,0,32,32,0,-88,-96,0,1,100,0,432,688,176,112,0,-22,-8,0,0,65,0,512,96,48,16,0,
0,8,-88,-96,0,1,100,0,608,688,176,112,0,-3,-61,0,0,100,0,704,0,32,32,0,-3,-61,0,1,100,0,736,32,32,32,0,2,-61,0,0,100,0,704,32,32,32,0,2,-61,0,1,100,0,736,32,32,32,0,-64,-80,0,0,100,0,256,192,128,96,0,-16,-67,0,0,100,0,672,64,32,32,0,-23,-8,0,0,65,0,512,96,48,16,0,
0,8,-14,-62,0,0,100,0,608,64,32,32,0,-64,-80,0,0,100,0,384,192,128,96,0,-32,-64,1,0,100,0,704,0,32,32,0,-32,-64,1,1,100,0,768,32,32,32,0,4,-65,0,0,100,0,704,32,32,32,0,4,-65,0,1,100,0,768,32,32,32,0,-88,-96,0,1,100,0,784,688,176,112,0,-24,-8,0,0,65,0,512,96,48,16,0,
0,7,-6,-72,0,0,100,-90,704,0,32,32,0,-6,-72,0,1,100,-90,736,0,32,32,0,-23,-95,0,0,100,0,608,64,32,32,0,-48,-120,0,0,100,0,0,288,128,96,0,-13,-72,0,0,100,-90,704,32,32,32,0,-13,-72,0,1,100,-90,736,0,32,32,0,-31,-8,0,0,46,0,512,96,48,16,0,
0,7,-6,-80,0,0,100,-90,704,0,32,32,0,-6,-80,0,1,100,-90,768,0,32,32,0,-23,-104,0,0,100,0,608,64,32,32,0,-48,-120,0,0,100,0,128,288,128,96,0,-13,-81,0,0,100,-90,704,32,32,32,0,-13,-81,0,1,100,-90,768,0,32,32,0,-32,-8,0,0,46,0,512,96,48,16,0,
0,7,-7,-81,0,0,100,-90,704,0,32,32,0,-7,-81,0,1,100,-90,736,32,32,32,0,-23,-105,0,0,100,0,608,64,32,32,0,-48,-120,0,0,100,0,256,288,128,96,0,-14,-83,0,0,100,-90,704,32,32,32,0,-14,-83,0,1,100,-90,736,32,32,32,0,-33,-8,0,0,46,0,512,96,48,16,0,
0,7,-8,-82,0,0,100,-90,704,0,32,32,0,-8,-82,0,1,100,-90,768,32,32,32,0,-24,-106,0,0,100,0,608,64,32,32,0,-48,-120,0,0,100,0,384,288,128,96,0,-15,-84,0,0,100,-90,704,32,32,32,0,-15,-84,0,1,100,-90,768,32,32,32,0,-34,-8,0,0,46,0,512,96,48,16,0,
0,12,-13,-41,0,0,100,0,704,0,32,32,0,-13,-41,0,1,100,0,736,0,32,32,0,-33,-34,0,0,100,0,608,64,32,32,0,-112,-56,0,1,100,0,256,800,128,96,0,-96,-64,0,0,100,0,0,384,128,96,0,-112,-56,0,1,100,0,512,192,128,96,0,-22,-38,0,0,100,0,704,32,32,32,0,-22,-38,0,1,100,0,736,0,32,32,0,-101,-167,0,1,75,0,512,288,128,192,0,-104,-168,0,1,100,0,512,288,128,192,0,-96,-64,0,0,75,0,512,112,128,80,0,-26,0,0,0,65,0,512,96,48,16,0,
0,14,-13,-41,0,0,100,0,704,0,32,32,0,-13,-41,0,1,100,0,768,0,32,32,0,-33,-34,0,0,100,0,608,64,32,32,0,-111,-52,0,1,100,0,384,800,128,96,0,-96,-64,0,0,100,0,0,384,128,96,0,-112,-52,0,1,100,0,640,192,128,96,0,-22,-38,0,0,100,0,704,32,32,32,0,-22,-38,0,1,100,0,768,0,32,32,0,-101,-167,0,1,50,0,512,288,128,192,0,-104,-168,0,1,75,0,512,288,128,192,0,-101,-167,0,1,25,0,640,288,128,192,0,-104,-168,0,1,50,0,640,288,128,192,0,-96,-64,0,0,75,0,512,112,128,80,0,-26,0,0,0,65,0,512,96,48,16,0,
0,12,-13,-44,0,0,100,0,704,0,32,32,0,-13,-44,0,1,100,0,736,32,32,32,0,-33,-37,0,0,100,0,608,64,32,32,0,-113,-57,0,1,100,0,512,800,128,96,0,-96,-64,0,0,100,0,128,384,128,96,0,-112,-56,0,1,100,0,768,192,128,96,0,-22,-41,0,0,100,0,704,32,32,32,0,-22,-41,0,1,100,0,736,32,32,32,0,-101,-167,0,1,75,0,640,288,128,192,0,-104,-168,0,1,100,0,640,288,128,192,0,-98,-64,0,0,50,0,638,112,128,80,0,-26,-2,0,0,65,0,512,96,48,16,0,
0,14,-13,-44,0,0,100,0,704,0,32,32,0,-13,-44,0,1,100,0,768,32,32,32,0,-33,-37,0,0,100,0,608,64,32,32,0,-113,-57,0,1,100,0,640,800,128,96,0,-96,-64,0,0,100,0,128,384,128,96,0,-112,-56,0,1,100,0,896,192,128,96,0,-22,-41,0,0,100,0,704,32,32,32,0,-22,-41,0,1,100,0,768,32,32,32,0,-101,-167,0,1,25,0,640,288,128,192,0,-104,-168,0,1,50,0,640,288,128,192,0,-101,-167,0,1,75,0,768,288,128,192,0,-104,-168,0,1,100,0,768,288,128,192,0,-98,-64,0,0,50,0,638,112,128,80,0,-26,-2,0,0,65,0,512,96,48,16,0,
0,14,-13,-44,0,0,100,0,704,0,32,32,0,-13,-44,0,1,100,0,736,0,32,32,0,-33,-37,0,0,100,0,608,64,32,32,0,-112,-59,0,1,100,0,256,800,128,96,0,-96,-64,0,0,100,0,256,384,128,96,0,-112,-60,0,1,100,0,512,192,128,96,0,-22,-41,0,0,100,0,704,32,32,32,0,-22,-41,0,1,100,0,736,0,32,32,0,-101,-167,0,1,15,0,640,288,128,192,0,-104,-168,0,1,25,0,640,288,128,192,0,-101,-167,0,1,75,0,768,288,128,192,0,-104,-168,0,1,100,0,768,288,128,192,0,-96,-64,0,0,25,0,768,112,128,80,0,-26,-2,0,0,65,0,512,96,48,16,0,
0,14,-13,-43,0,0,100,0,704,0,32,32,0,-13,-43,0,1,100,0,768,0,32,32,0,-33,-37,0,0,100,0,608,64,32,32,0,-111,-55,0,1,100,0,384,800,128,96,0,-96,-64,0,0,100,0,256,384,128,96,0,-112,-56,0,1,100,0,640,192,128,96,0,-22,-40,0,0,100,0,704,32,32,32,0,-22,-40,0,1,100,0,768,0,32,32,0,-101,-167,0,1,50,0,768,288,128,192,0,-104,-168,0,1,75,0,768,288,128,192,0,-101,-167,0,1,75,0,896,288,128,192,0,-104,-168,0,1,100,0,896,288,128,192,0,-96,-64,0,0,25,0,768,112,128,80,0,-26,-2,0,0,65,0,512,96,48,16,0,
0,12,-13,-42,0,0,100,0,704,0,32,32,0,-13,-42,0,1,100,0,736,32,32,32,0,-33,-37,0,0,100,0,608,64,32,32,0,-112,-56,0,1,100,0,512,800,128,96,0,-96,-64,0,0,100,0,384,384,128,96,0,-112,-56,0,1,75,0,768,192,128,96,0,-22,-39,0,0,100,0,704,32,32,32,0,-22,-39,0,1,100,0,736,32,32,32,0,-101,-167,0,1,75,0,896,288,128,192,0,-104,-168,0,1,100,0,896,288,128,192,0,-96,-64,0,0,15,0,896,112,128,80,0,-26,-2,0,0,65,0,512,96,48,16,0,
0,12,-13,-42,0,0,100,0,704,0,32,32,0,-13,-42,0,1,100,0,768,32,32,32,0,-33,-37,0,0,100,0,608,64,32,32,0,-112,-56,0,1,75,0,640,800,128,96,0,-96,-64,0,0,100,0,384,384,128,96,0,-112,-56,0,1,50,0,896,192,128,96,0,-22,-39,0,0,100,0,704,32,32,32,0,-22,-39,0,1,100,0,768,32,32,32,0,-101,-167,0,1,25,0,896,288,128,192,0,-104,-168,0,1,50,0,896,288,128,192,0,-96,-64,0,0,15,0,896,112,128,80,0,-26,-2,0,0,65,0,512,96,48,16,0,
0,7,-16,-63,0,0,100,0,704,64,32,32,0,-56,-64,0,0,100,0,0,480,112,88,0,7,-51,1,1,50,0,832,32,32,32,0,-32,-50,0,1,50,0,832,32,32,32,0,0,-41,0,1,50,0,640,32,32,32,0,-28,-41,0,1,50,0,640,0,32,32,0,-23,-8,0,0,65,0,512,96,48,16,0,
0,9,-14,-64,0,0,100,0,736,64,32,32,0,-71,-35,0,1,25,0,448,568,72,72,0,0,-35,0,1,25,0,520,568,72,72,0,-56,-64,0,0,100,0,112,480,112,88,0,7,-52,1,1,75,0,864,32,32,32,0,-32,-51,0,1,75,0,864,32,32,32,0,0,-42,0,1,75,0,672,32,32,32,0,-28,-42,0,1,75,0,672,0,32,32,0,-23,-8,0,0,65,0,512,96,48,16,0,
0,15,-59,-40,1,1,100,0,672,480,72,72,0,-8,-41,0,1,100,0,672,480,72,72,0,-72,-31,0,1,15,0,448,568,72,72,0,0,-31,0,1,15,0,520,568,72,72,0,-16,-32,0,1,100,0,592,568,32,32,0,-11,-62,0,0,100,0,768,64,32,32,0,-16,-63,0,0,100,0,96,640,48,48,0,-56,-64,0,1,35,0,224,480,112,88,0,-56,-64,0,0,100,0,224,480,112,88,0,7,-52,1,1,100,0,832,0,32,32,0,-32,-51,0,1,100,0,832,0,32,32,0,-16,-61,0,0,100,0,240,640,48,48,0,0,-42,0,1,100,0,576,32,32,32,0,-28,-42,0,1,100,0,576,0,32,32,0,-23,-8,0,0,65,0,512,96,48,16,0,
0,12,-59,-40,1,1,100,0,744,480,72,72,0,-8,-40,0,1,100,0,744,480,72,72,0,-16,-32,0,1,100,0,624,568,32,32,0,-11,-63,0,0,100,0,768,64,32,32,0,-16,-64,0,0,100,0,144,640,48,48,0,-56,-64,0,0,100,0,336,480,112,88,0,7,-51,1,1,100,0,864,0,32,32,0,-32,-50,0,1,100,0,864,0,32,32,0,-16,-64,0,0,100,0,192,640,48,48,0,0,-41,0,1,100,0,608,32,32,32,0,-28,-41,0,1,100,0,608,0,32,32,0,-23,-8,0,0,65,0,512,96,48,16,0,
0,13,-59,-40,1,1,100,0,816,480,72,72,0,-8,-40,0,1,100,0,816,480,72,72,0,-16,-48,1,1,100,0,592,568,32,32,0,-8,-32,0,1,100,0,592,600,32,32,0,-11,-63,0,0,100,0,768,64,32,32,0,-16,-64,0,0,100,0,0,640,48,48,0,-56,-64,0,0,100,0,336,480,112,88,0,7,-51,1,1,100,0,832,32,32,32,0,-32,-50,0,1,100,0,832,32,32,32,0,-16,-64,0,0,100,0,384,640,48,48,0,0,-41,0,1,100,0,640,32,32,32,0,-28,-41,0,1,100,0,640,0,32,32,0,-23,-8,0,0,65,0,512,96,48,16,0,
0,13,-59,-40,1,1,100,0,672,552,72,72,0,-8,-40,0,1,100,0,672,552,72,72,0,-8,-48,1,1,100,0,624,568,32,32,0,-16,-32,0,1,100,0,624,600,32,32,0,-11,-63,0,0,100,0,768,64,32,32,0,-16,-64,0,0,100,0,48,640,48,48,0,-56,-64,0,0,100,0,336,480,112,88,0,7,-51,1,1,100,0,864,32,32,32,0,-32,-50,0,1,100,0,864,32,32,32,0,-16,-64,0,0,100,0,192,640,48,48,0,0,-41,0,1,100,0,672,32,32,32,0,-28,-41,0,1,100,0,672,0,32,32,0,-23,-8,0,0,65,0,512,96,48,16,0,
0,12,-59,-40,1,1,100,0,744,552,72,72,0,-8,-40,0,1,100,0,744,552,72,72,0,-16,-56,1,1,100,0,592,600,32,32,0,-11,-63,0,0,100,0,768,64,32,32,0,-16,-64,0,0,100,0,96,640,48,48,0,-56,-64,0,0,100,0,336,480,112,88,0,7,-51,1,1,100,0,832,0,32,32,0,-32,-50,0,1,100,0,832,0,32,32,0,-16,-64,0,0,100,0,240,640,48,48,0,0,-41,0,1,100,0,576,32,32,32,0,-28,-41,0,1,100,0,576,0,32,32,0,-23,-8,0,0,65,0,512,96,48,16,0,
0,12,-59,-40,1,1,100,0,816,552,72,72,0,-8,-40,0,1,100,0,816,552,72,72,0,-16,-48,1,1,100,0,624,600,32,32,0,-11,-63,0,0,100,0,768,64,32,32,0,-16,-64,0,0,100,0,144,640,48,48,0,-56,-64,0,0,100,0,336,480,112,88,0,7,-51,1,1,100,0,864,0,32,32,0,-32,-50,0,1,100,0,864,0,32,32,0,-16,-64,0,0,100,0,432,640,48,48,0,0,-41,0,1,100,0,608,32,32,32,0,-28,-41,0,1,100,0,608,0,32,32,0,-23,-8,0,0,65,0,512,96,48,16,0,
0,7,-11,-63,0,0,100,0,768,64,32,32,0,-56,-64,0,0,100,0,448,480,112,88,0,7,-51,1,1,100,0,832,32,32,32,0,-32,-50,0,1,100,0,832,32,32,32,0,0,-41,0,1,100,0,640,32,32,32,0,-28,-41,0,1,100,0,640,0,32,32,0,-23,-8,0,0,65,0,512,96,48,16,0,
0,7,-11,-63,0,0,100,0,768,64,32,32,0,-56,-64,0,0,100,0,560,480,112,88,0,7,-51,1,1,100,0,864,32,32,32,0,-32,-50,0,1,100,0,864,32,32,32,0,0,-41,0,1,100,0,672,32,32,32,0,-28,-41,0,1,100,0,672,0,32,32,0,-23,-8,0,0,65,0,512,96,48,16,0,
0,7,-11,-63,0,0,100,0,768,64,32,32,0,-56,-64,0,0,100,0,0,568,112,72,0,7,-51,1,1,100,0,832,0,32,32,0,-32,-50,0,1,100,0,832,0,32,32,0,0,-41,0,1,100,0,576,32,32,32,0,-28,-41,0,1,100,0,576,0,32,32,0,-23,-8,0,0,65,0,512,96,48,16,0,
0,7,-11,-63,0,0,100,0,768,64,32,32,0,-56,-64,0,0,100,0,112,568,112,72,0,7,-51,1,1,100,0,864,0,32,32,0,-32,-50,0,1,100,0,864,0,32,32,0,0,-41,0,1,100,0,608,32,32,32,0,-28,-41,0,1,100,0,608,0,32,32,0,-23,-8,0,0,65,0,512,96,48,16,0,
0,7,-11,-63,0,0,100,0,768,64,32,32,0,-56,-64,0,0,100,0,224,568,112,72,0,7,-51,1,1,100,0,832,32,32,32,0,-32,-50,0,1,100,0,832,32,32,32,0,0,-41,0,1,100,0,640,32,32,32,0,-28,-41,0,1,100,0,640,0,32,32,0,-23,-8,0,0,65,0,512,96,48,16,0,
0,7,-11,-63,0,0,100,0,768,64,32,32,0,-56,-64,0,0,100,0,336,568,112,72,0,7,-51,1,1,100,0,864,32,32,32,0,-32,-50,0,1,100,0,864,32,32,32,0,0,-41,0,1,100,0,672,32,32,32,0,-28,-41,0,1,100,0,672,0,32,32,0,-23,-8,0,0,65,0,512,96,48,16,0,
