0,2,-33,-42,0,0,100,0,48,3,61,49,0,-21,-9,0,0,65,0,0,0,43,18,0,
0,2,-33,-42,0,0,100,0,111,3,61,49,0,-21,-9,0,0,65,0,0,0,43,18,0,
0,2,-33,-42,0,0,100,0,174,3,61,49,0,-21,-9,0,0,65,0,0,0,43,18,0,
0,2,-33,-42,0,0,100,0,237,3,61,49,0,-21,-9,0,0,65,0,0,0,43,18,0,
0,2,-26,-51,0,0,100,0,48,56,73,55,0,-14,-9,0,0,65,0,0,0,43,18,0,
0,2,-25,-46,0,0,100,0,123,56,77,55,0,-12,-9,0,0,65,0,0,0,43,18,0,
0,3,-55,-52,0,0,100,0,455,0,57,47,0,-67,-42,0,0,100,0,296,56,92,55,0,-20,-9,0,0,65,0,0,0,43,18,0,
0,3,-60,-41,0,0,50,0,463,49,49,34,0,-70,-42,0,0,100,0,296,56,92,55,0,-26,-9,0,0,65,0,0,0,43,18,0,
0,2,-66,-42,0,0,100,0,296,56,92,55,0,-22,-9,0,0,65,0,0,0,43,18,0,
0,2,-67,-42,0,0,100,0,202,56,92,55,0,-20,-9,0,0,65,0,0,0,43,18,0,
0,2,-33,-50,0,0,100,0,48,115,61,57,0,-21,-9,0,0,65,0,0,0,43,18,0,
0,2,-33,-50,0,0,100,0,111,115,61,57,0,-21,-9,0,0,65,0,0,0,43,18,0,
0,2,-33,-50,0,0,100,0,174,115,61,57,0,-21,-9,0,0,65,0,0,0,43,18,0,
0,2,-35,-50,0,0,100,0,237,115,61,57,0,-21,-9,0,0,65,0,0,0,43,18,0,
0,2,-33,-42,0,0,100,0,308,3,61,49,0,-21,-9,0,0,65,0,0,0,43,18,0,
