0,2,-45,-105,0,0,100,0,224,0,112,104,0,-19,-8,0,0,65,0,0,496,40,16,0,
0,2,-45,-106,0,0,100,0,224,0,112,104,0,-19,-8,0,0,65,0,0,496,40,16,0,
0,2,-45,-108,0,0,100,0,112,0,112,104,0,-19,-8,0,0,65,0,0,496,40,16,0,
0,2,-45,-109,0,0,100,0,0,0,112,104,0,-19,-8,0,0,65,0,0,496,40,16,0,
0,2,-45,-110,0,0,100,0,0,0,112,104,0,-19,-8,0,0,65,0,0,496,40,16,0,
0,0,
0,11,-24,2,0,0,100,0,112,200,40,24,0,15,-62,0,0,100,0,112,152,48,24,0,-25,-111,0,0,60,0,112,104,48,24,0,-64,-118,0,0,80,0,16,224,160,136,0,-25,-111,0,0,100,0,112,104,48,24,0,-46,-94,0,0,100,0,0,104,112,96,0,-40,-94,0,0,60,0,208,104,112,96,0,-36,-94,0,0,40,0,208,104,112,96,0,-68,-62,0,0,100,0,160,152,48,24,0,38,-91,0,0,100,0,336,0,48,88,0,-19,-8,0,0,65,0,0,496,40,16,0,
0,10,-20,1,0,0,100,0,112,200,48,24,0,15,-74,0,0,100,0,112,152,48,24,0,-64,-118,0,0,80,0,176,224,168,136,0,-29,-110,0,0,100,0,112,104,48,24,0,-46,-93,0,0,100,0,0,104,112,96,0,-38,-93,0,0,60,0,208,104,112,96,0,-32,-93,0,0,40,0,208,104,112,96,0,-68,-56,0,0,100,0,160,152,48,24,0,33,-99,0,0,100,0,384,0,64,104,0,-19,-8,0,0,65,0,0,496,40,16,0,
0,11,-13,-15,0,0,60,0,112,176,48,24,0,14,-84,0,0,100,0,112,152,48,24,0,-62,-119,0,0,80,0,344,224,168,144,0,-46,-94,0,0,100,0,0,104,112,96,0,-40,-94,0,0,60,0,208,104,112,96,0,-36,-94,0,0,40,0,208,104,112,96,0,-13,-15,0,0,100,0,112,176,48,24,0,-41,-110,0,0,100,0,160,128,48,24,0,-67,-48,0,0,100,0,160,152,48,24,0,36,-103,0,0,100,0,8,360,72,112,0,-19,-8,0,0,65,0,0,496,40,16,0,
0,10,-6,-19,0,0,100,0,112,176,48,24,0,6,-94,0,0,100,0,112,128,48,24,0,-61,-120,0,0,80,0,168,368,176,144,0,-46,-93,0,0,100,0,0,104,112,96,0,-38,-93,0,0,60,0,208,104,112,96,0,-32,-93,0,0,40,0,208,104,112,96,0,-48,-107,0,0,100,0,160,128,48,24,0,-57,-29,0,0,100,0,160,152,48,24,0,41,-111,0,0,100,0,80,360,80,128,0,-19,-8,0,0,65,0,0,496,40,16,0,
0,9,4,-23,0,0,100,0,112,176,48,24,0,4,-102,0,0,100,0,112,128,48,24,0,-62,-121,0,0,80,0,344,368,168,144,0,-46,-94,0,0,100,0,0,104,112,96,0,-40,-94,0,0,60,0,208,104,112,96,0,-36,-94,0,0,40,0,208,104,112,96,0,-55,-102,0,0,100,0,160,128,48,24,0,-55,-23,0,0,100,0,160,176,48,24,0,-19,-8,0,0,65,0,0,496,40,16,0,
0,10,-24,2,0,0,100,0,112,200,48,24,0,15,-62,0,0,100,0,112,152,48,24,0,-64,-122,2,0,80,0,16,224,160,136,0,-25,-111,0,0,100,0,112,104,48,24,0,-46,-94,0,0,100,0,0,104,112,96,0,-40,-94,0,0,60,0,208,104,112,96,0,-36,-94,0,0,40,0,208,104,112,96,0,-68,-62,0,0,100,0,160,152,48,24,0,38,-91,0,0,100,0,336,0,48,88,0,-19,-8,0,0,65,0,0,496,40,16,0,
0,10,-20,1,0,0,100,0,112,200,48,24,0,15,-74,0,0,100,0,112,152,48,24,0,-64,-120,2,0,80,0,176,224,168,136,0,-29,-110,0,0,100,0,112,104,48,24,0,-46,-93,0,0,100,0,0,104,112,96,0,-38,-93,0,0,60,0,208,104,112,96,0,-32,-93,0,0,40,0,208,104,112,96,0,-68,-56,0,0,100,0,160,152,48,24,0,33,-99,0,0,100,0,384,0,64,104,0,-19,-8,0,0,65,0,0,496,40,16,0,
0,10,-13,-15,0,0,100,0,112,176,48,24,0,14,-84,0,0,100,0,112,152,48,24,0,-62,-126,2,0,80,0,344,224,168,144,0,-46,-94,0,0,100,0,0,104,112,96,0,-40,-94,0,0,60,0,208,104,112,96,0,-36,-94,0,0,40,0,208,104,112,96,0,-41,-110,0,0,100,0,160,128,48,24,0,-67,-48,0,0,100,0,160,152,48,24,0,36,-103,0,0,100,0,8,360,72,112,0,-19,-8,0,0,65,0,0,496,40,16,0,
0,10,-6,-19,0,0,100,0,112,176,48,24,0,6,-94,0,0,100,0,112,128,48,24,0,-61,-124,2,0,80,0,168,368,176,144,0,-46,-93,0,0,100,0,0,104,112,96,0,-38,-93,0,0,60,0,208,104,112,96,0,-32,-93,0,0,40,0,208,104,112,96,0,-48,-107,0,0,100,0,160,128,48,24,0,-57,-29,0,0,100,0,160,176,48,24,0,41,-111,0,0,100,0,80,360,80,128,0,-19,-8,0,0,65,0,0,496,40,16,0,
0,9,4,-23,0,0,100,0,112,176,48,24,0,4,-102,0,0,100,0,112,128,48,24,0,-62,-124,2,0,80,0,344,368,168,144,0,-46,-94,0,0,100,0,0,104,112,96,0,-40,-94,0,0,60,0,208,104,112,96,0,-36,-94,0,0,40,0,208,104,112,96,0,-55,-102,0,0,100,0,160,128,48,24,0,-55,-23,0,0,100,0,160,176,48,24,0,-19,-8,0,0,65,0,0,496,40,16,0,
0,0,
0,8,12,-74,0,0,100,0,448,0,24,48,0,29,-81,0,0,100,0,448,0,24,48,0,-46,-94,0,0,100,0,0,104,112,96,0,-40,-94,0,0,60,0,208,104,112,96,0,-36,-94,0,0,40,0,208,104,112,96,0,-45,-74,0,0,100,0,472,0,24,48,0,-25,-81,0,0,100,0,472,0,24,48,0,-19,-8,0,0,65,0,0,496,40,16,0,
0,8,13,-73,0,0,100,0,448,0,24,48,0,30,-80,0,0,100,0,448,0,24,48,0,-46,-93,0,0,100,0,0,104,112,96,0,-38,-93,0,0,60,0,208,104,112,96,0,-32,-93,0,0,40,0,208,104,112,96,0,-44,-73,0,0,100,0,472,0,24,48,0,-24,-80,0,0,100,0,472,0,24,48,0,-19,-8,0,0,65,0,0,496,40,16,0,
0,0,
0,2,-45,-105,0,0,100,0,224,0,112,104,0,-19,-8,0,0,65,0,0,496,40,16,0,
0,2,-44,-108,0,0,100,0,112,0,112,104,0,-19,-8,0,0,65,0,0,496,40,16,0,
0,2,-42,-109,0,0,100,0,0,0,112,104,0,-19,-8,0,0,65,0,0,496,40,16,0,
0,6,14,-71,0,0,100,0,320,104,24,48,0,26,-80,0,0,100,0,320,104,24,48,0,-44,-95,0,0,100,0,0,104,112,96,0,-37,-73,0,0,100,0,344,104,24,48,0,-19,-83,0,0,100,0,344,104,24,48,0,-19,-8,0,0,65,0,0,496,40,16,0,
0,6,8,-100,0,0,100,0,112,128,48,24,0,14,-54,0,0,100,0,112,152,48,24,0,-46,-94,0,0,100,0,0,104,112,96,0,-70,-66,0,0,100,0,160,152,48,24,0,-62,-28,0,0,100,0,160,176,48,24,0,-19,-8,0,0,65,0,0,496,40,16,0,
0,6,1,-109,0,0,100,0,112,128,48,24,0,13,-61,0,0,100,0,112,152,48,24,0,-46,-94,0,0,100,0,0,104,112,96,0,-70,-62,0,0,100,0,160,152,48,24,0,-58,-23,0,0,100,0,160,176,48,24,0,-19,-8,0,0,65,0,0,496,40,16,0,
0,0,
0,2,-45,-108,0,0,100,0,224,0,112,104,0,-19,-8,0,0,65,0,0,496,40,16,0,
0,2,-45,-109,0,0,100,0,112,0,112,104,0,-19,-8,0,0,65,0,0,496,40,16,0,
0,2,-45,-110,0,0,100,0,0,0,112,104,0,-19,-8,0,0,65,0,0,496,40,16,0,
0,0,
0,12,-24,2,0,0,100,0,112,200,48,24,0,4,-23,0,0,100,0,112,176,48,24,0,15,-62,0,0,100,0,112,152,48,24,0,4,-102,0,0,100,0,112,128,48,24,0,-25,-111,0,0,100,0,112,104,48,24,0,-46,-94,0,0,100,0,0,104,112,96,0,-40,-94,0,0,60,0,208,104,112,96,0,-36,-94,0,0,40,0,208,104,112,96,0,-55,-102,0,0,100,0,160,128,48,24,0,-68,-62,0,0,100,0,160,152,48,24,0,-55,-23,0,0,100,0,160,176,48,24,0,-19,-8,0,0,65,0,0,496,40,16,0,
0,0,
0,3,-81,-147,0,1,30,0,192,512,192,176,0,-81,-147,0,0,100,0,0,512,192,176,0,-19,-8,0,0,65,0,0,496,40,16,0,
0,3,-81,-147,0,1,100,0,192,688,192,176,0,-81,-147,0,0,100,0,0,688,192,176,0,-19,-8,0,0,65,0,0,496,40,16,0,
0,4,-81,-147,0,1,100,0,0,1040,192,176,0,-81,-147,0,1,100,0,192,864,192,176,0,-81,-147,0,0,100,0,0,864,192,176,0,-19,-8,0,0,65,0,0,496,40,16,0,
0,3,-81,-147,0,1,100,0,704,0,192,176,0,-81,-147,0,0,100,0,512,0,192,176,0,-19,-8,0,0,65,0,0,496,40,16,0,
0,3,-81,-147,0,1,100,0,1088,0,192,176,0,-81,-147,0,0,100,0,896,0,192,176,0,-19,-8,0,0,65,0,0,496,40,16,0,
0,3,-81,-147,0,1,100,0,704,176,192,176,0,-81,-147,0,0,100,0,512,176,192,176,0,-19,-8,0,0,65,0,0,496,40,16,0,
0,3,-81,-147,0,1,100,0,1088,176,192,176,0,-81,-147,0,0,100,0,896,176,192,176,0,-19,-8,0,0,65,0,0,496,40,16,0,
0,3,-81,-147,0,1,100,0,704,360,192,176,0,-81,-155,0,0,100,0,512,352,192,184,0,-19,-8,0,0,65,0,0,496,40,16,0,
0,3,-81,-147,0,1,100,0,1088,360,192,176,0,-81,-147,0,0,100,0,896,360,192,176,0,-19,-8,0,0,65,0,0,496,40,16,0,
0,3,-81,-147,0,1,100,0,704,536,192,176,0,-81,-147,0,0,100,0,512,536,192,176,0,-19,-8,0,0,65,0,0,496,40,16,0,
0,3,-81,-147,0,1,100,0,1088,536,192,176,0,-81,-147,0,0,100,0,896,536,192,176,0,-19,-8,0,0,65,0,0,496,40,16,0,
