0,6,7,-97,0,1,100,0,24,304,56,64,0,15,-68,0,0,100,0,0,280,24,32,0,-34,-69,0,0,100,0,0,0,96,72,0,-36,-81,0,1,100,0,24,256,40,48,0,-31,-62,0,0,100,0,0,256,24,24,0,-17,-9,0,0,65,0,0,240,40,16,0,
0,6,8,-98,0,1,100,0,80,304,56,64,0,16,-69,0,0,100,0,0,280,24,32,0,-34,-69,0,0,100,0,96,0,96,72,0,-37,-82,0,1,100,0,64,256,40,48,0,-32,-63,0,0,100,0,0,256,24,24,0,-17,-9,0,0,65,0,0,240,40,16,0,
0,6,8,-99,0,1,100,0,136,304,56,64,0,16,-70,0,0,100,0,0,280,24,32,0,-34,-69,0,0,100,0,192,0,96,72,0,-37,-83,0,1,100,0,104,256,40,48,0,-32,-64,0,0,100,0,0,256,24,24,0,-17,-9,0,0,65,0,0,240,40,16,0,
0,6,8,-100,0,1,100,0,24,304,56,64,0,16,-71,0,0,100,0,0,280,24,32,0,-34,-69,0,0,100,0,288,0,96,72,0,-37,-84,0,1,100,0,24,256,40,48,0,-32,-65,0,0,100,0,0,256,24,24,0,-17,-9,0,0,65,0,0,240,40,16,0,
0,10,5,-97,0,1,100,0,24,304,56,64,0,13,-68,0,0,100,0,0,280,24,32,0,-21,-37,0,0,100,0,64,128,16,16,0,-30,-69,0,0,100,0,0,72,64,72,0,-38,-81,0,1,100,0,24,256,40,48,0,-33,-62,0,0,100,0,0,256,24,24,0,-8,-90,0,0,100,0,256,104,32,48,0,-8,-81,0,0,100,0,64,72,32,56,0,15,-39,0,0,100,0,288,104,16,24,0,-17,-9,0,0,65,0,0,240,40,16,0,
0,10,6,-98,0,1,100,0,80,304,56,64,0,14,-69,0,0,100,0,0,280,24,32,0,-18,-37,0,0,100,0,64,128,16,16,0,-30,-69,0,0,100,0,0,72,64,72,0,-39,-82,0,1,100,0,64,256,40,48,0,-34,-63,0,0,100,0,0,256,24,24,0,-12,-90,0,0,100,0,256,104,32,48,0,11,-39,0,0,100,0,288,104,16,24,0,-12,-81,0,0,100,0,64,72,32,56,0,-17,-9,0,0,65,0,0,240,40,16,0,
0,11,6,-99,0,1,100,0,136,304,56,64,0,14,-70,0,0,100,0,0,280,24,32,0,-26,-96,0,0,90,0,96,144,48,48,0,-18,-37,0,0,100,0,64,128,16,16,0,-30,-69,0,0,100,0,0,72,64,72,0,-39,-83,0,1,100,0,104,256,40,48,0,-34,-64,0,0,100,0,0,256,24,24,0,-12,-90,0,0,100,0,256,104,32,48,0,11,-39,0,0,100,0,288,104,16,24,0,-12,-81,0,0,100,0,64,72,32,56,0,-17,-9,0,0,65,0,0,240,40,16,0,
0,11,5,-97,0,1,100,0,24,304,56,64,0,13,-68,0,0,100,0,0,280,24,32,0,-26,-96,0,0,90,0,48,144,48,48,0,-18,-37,0,0,100,0,64,128,16,16,0,-30,-69,0,0,100,0,0,72,64,72,0,-38,-81,0,1,100,0,24,256,40,48,0,-33,-62,0,0,100,0,0,256,24,24,0,-12,-90,0,0,100,0,256,104,32,48,0,11,-39,0,0,100,0,288,104,16,24,0,-12,-81,0,0,100,0,64,72,32,56,0,-17,-9,0,0,65,0,0,240,40,16,0,
0,11,6,-98,0,1,100,0,80,304,56,64,0,14,-69,0,0,100,0,0,280,24,32,0,-26,-96,0,0,90,0,0,144,48,48,0,-18,-37,0,0,100,0,64,128,16,16,0,-30,-69,0,0,100,0,0,72,64,72,0,-39,-82,0,1,100,0,64,256,40,48,0,-34,-63,0,0,100,0,0,256,24,24,0,-12,-90,0,0,100,0,256,104,32,48,0,11,-39,0,0,100,0,288,104,16,24,0,-12,-81,0,0,100,0,64,72,32,56,0,-17,-9,0,0,65,0,0,240,40,16,0,
0,11,6,-99,0,1,100,0,136,304,56,64,0,14,-70,0,0,100,0,0,280,24,32,0,-27,-97,0,0,90,0,0,144,48,48,0,-17,-37,0,0,100,0,64,128,16,16,0,-30,-69,0,0,100,0,0,72,64,72,0,-39,-83,0,1,100,0,104,256,40,48,0,-34,-64,0,0,100,0,0,256,24,24,0,-13,-91,0,0,100,0,256,104,32,48,0,10,-40,0,0,100,0,288,104,16,24,0,-13,-82,0,0,100,0,64,72,32,56,0,-17,-9,0,0,65,0,0,240,40,16,0,
0,13,-1,-89,0,1,100,0,24,304,56,64,0,7,-60,0,0,100,0,0,280,24,32,0,-79,-23,0,0,90,0,0,144,48,48,0,-54,-35,0,0,80,0,48,144,48,48,0,-31,-55,0,0,70,0,48,144,48,48,0,-20,-77,0,0,60,0,96,144,48,48,0,-21,-97,0,0,50,0,96,144,48,48,0,-21,-17,0,0,100,0,304,72,40,32,0,-35,-53,0,0,100,0,96,72,80,56,0,-44,-73,0,1,100,0,24,256,40,48,0,-39,-54,0,0,100,0,0,256,24,24,0,-69,-17,0,0,100,0,256,72,88,32,0,-17,-9,0,0,65,0,0,240,40,16,0,
0,14,0,-90,0,1,100,0,80,304,56,64,0,8,-61,0,0,100,0,0,280,24,32,0,-25,-46,0,0,100,0,0,192,32,32,0,-80,-22,0,0,90,0,0,144,48,48,0,-57,-32,0,0,80,0,48,144,48,48,0,-38,-45,0,0,70,0,48,144,48,48,0,-24,-64,0,0,60,0,96,144,48,48,0,-23,-83,0,0,50,0,96,144,48,48,0,-22,-16,0,0,100,0,304,72,40,32,0,-35,-53,0,0,100,0,176,72,80,56,0,-45,-74,0,1,100,0,64,256,40,48,0,-40,-55,0,0,100,0,0,256,24,24,0,-70,-16,0,0,100,0,256,72,88,32,0,-17,-9,0,0,65,0,0,240,40,16,0,
0,15,0,-91,0,1,100,0,136,304,56,64,0,8,-62,0,0,100,0,0,280,24,32,0,-41,-30,0,0,100,0,0,192,32,32,0,-27,-44,2,0,100,0,32,192,32,32,0,-80,-22,0,0,80,0,0,144,48,48,0,-60,-30,0,0,70,0,48,144,48,48,0,-42,-40,0,0,60,0,48,144,48,48,0,-29,-55,0,0,50,0,96,144,48,48,0,-23,-71,0,0,40,0,96,144,48,48,0,-22,-16,0,0,100,0,304,72,40,32,0,-35,-53,0,0,100,0,176,72,80,56,0,-45,-75,0,1,100,0,104,256,40,48,0,-40,-56,0,0,100,0,0,256,24,24,0,-70,-16,0,0,100,0,256,72,88,32,0,-17,-9,0,0,65,0,0,240,40,16,0,
0,16,-1,-89,0,1,100,0,24,304,56,64,0,7,-60,0,0,100,0,0,280,24,32,0,-57,-22,0,0,100,0,0,192,32,32,0,-43,-30,2,0,100,0,32,192,32,32,0,-29,-46,3,0,50,0,32,192,32,32,0,-80,-22,0,0,70,0,0,144,48,48,0,-63,-28,0,0,60,0,48,144,48,48,0,-47,-37,0,0,50,0,48,144,48,48,0,-35,-47,0,0,40,0,96,144,48,48,0,-27,-56,0,0,30,0,96,144,48,48,0,-22,-16,0,0,100,0,304,72,40,32,0,-35,-53,0,0,100,0,176,72,80,56,0,-44,-73,0,1,100,0,24,256,40,48,0,-39,-54,0,0,100,0,0,256,24,24,0,-70,-16,0,0,100,0,256,72,88,32,0,-17,-9,0,0,65,0,0,240,40,16,0,
0,17,0,-90,0,1,100,0,80,304,56,64,0,8,-61,0,0,100,0,0,280,24,32,0,-73,-14,0,0,100,0,0,192,32,32,0,-59,-22,2,0,100,0,32,192,32,32,0,-45,-30,3,0,50,0,32,192,32,32,0,-31,-46,2,0,20,0,32,192,32,32,0,-80,-22,0,0,70,0,0,144,48,48,0,-65,-27,0,0,50,0,48,144,48,48,0,-52,-33,0,0,40,0,48,144,48,48,0,-41,-41,0,0,30,0,96,144,48,48,0,-34,-48,0,0,20,0,96,144,48,48,0,-22,-16,0,0,100,0,304,72,40,32,0,-35,-53,0,0,100,0,176,72,80,56,0,-45,-74,0,1,100,0,64,256,40,48,0,-40,-55,0,0,100,0,0,256,24,24,0,-70,-16,0,0,100,0,256,72,88,32,0,-17,-9,0,0,65,0,0,240,40,16,0,
0,16,0,-91,0,1,100,0,136,304,56,64,0,8,-62,0,0,100,0,0,280,24,32,0,-75,-14,2,0,100,0,32,192,32,32,0,-61,-22,3,0,50,0,32,192,32,32,0,-48,-30,2,0,20,0,32,192,32,32,0,-80,-22,0,0,70,0,0,144,48,48,0,-68,-26,0,0,50,0,48,144,48,48,0,-57,-30,0,0,40,0,48,144,48,48,0,-47,-34,0,0,30,0,96,144,48,48,0,-40,-39,0,0,20,0,96,144,48,48,0,-22,-16,0,0,100,0,304,72,40,32,0,-35,-53,0,0,100,0,176,72,80,56,0,-45,-75,0,1,100,0,104,256,40,48,0,-40,-56,0,0,100,0,0,256,24,24,0,-70,-16,0,0,100,0,256,72,88,32,0,-17,-9,0,0,65,0,0,240,40,16,0,
0,15,-1,-89,0,1,100,0,24,304,56,64,0,7,-60,0,0,100,0,0,280,24,32,0,-77,-14,3,0,50,0,32,192,32,32,0,-64,-22,2,0,20,0,32,192,32,32,0,-80,-22,0,0,60,0,48,144,48,48,0,-71,-25,0,0,50,0,96,144,48,48,0,-65,-27,0,0,40,0,96,144,48,48,0,-59,-30,0,0,30,0,96,144,48,48,0,-55,-31,0,0,20,0,96,144,48,48,0,-22,-16,0,0,100,0,304,72,40,32,0,-35,-53,0,0,100,0,176,72,80,56,0,-44,-73,0,1,100,0,24,256,40,48,0,-39,-54,0,0,100,0,0,256,24,24,0,-70,-16,0,0,100,0,256,72,88,32,0,-17,-9,0,0,65,0,0,240,40,16,0,
0,12,0,-90,0,1,100,0,80,304,56,64,0,8,-61,0,0,100,0,0,280,24,32,0,-80,-14,2,0,20,0,32,192,32,32,0,-80,-22,0,0,60,0,48,144,48,48,0,-71,-25,0,0,30,0,96,144,48,48,0,-65,-27,0,0,20,0,96,144,48,48,0,-22,-16,0,0,100,0,304,72,40,32,0,-35,-53,0,0,100,0,176,72,80,56,0,-45,-74,0,1,100,0,64,256,40,48,0,-40,-55,0,0,100,0,0,256,24,24,0,-70,-16,0,0,100,0,256,72,88,32,0,-17,-9,0,0,65,0,0,240,40,16,0,
0,9,0,-91,0,1,100,0,136,304,56,64,0,8,-62,0,0,100,0,0,280,24,32,0,-80,-22,0,0,50,0,48,144,48,48,0,-22,-16,0,0,100,0,304,72,40,32,0,-35,-53,0,0,100,0,176,72,80,56,0,-45,-75,0,1,100,0,104,256,40,48,0,-40,-56,0,0,100,0,0,256,24,24,0,-70,-16,0,0,100,0,256,72,88,32,0,-17,-9,0,0,65,0,0,240,40,16,0,
0,8,-1,-89,0,1,100,0,24,304,56,64,0,7,-60,0,0,100,0,0,280,24,32,0,-22,-16,0,0,100,0,304,72,40,32,0,-35,-53,0,0,100,0,176,72,80,56,0,-44,-73,0,1,100,0,24,256,40,48,0,-39,-54,0,0,100,0,0,256,24,24,0,-70,-16,0,0,100,0,256,72,88,32,0,-17,-9,0,0,65,0,0,240,40,16,0,
0,8,0,-90,0,1,100,0,80,304,56,64,0,8,-61,0,0,100,0,0,280,24,32,0,-22,-16,0,0,100,0,304,72,40,32,0,-35,-53,0,0,100,0,176,72,80,56,0,-45,-74,0,1,100,0,64,256,40,48,0,-40,-55,0,0,100,0,0,256,24,24,0,-70,-16,0,0,100,0,256,72,88,32,0,-17,-9,0,0,65,0,0,240,40,16,0,
0,6,-8,-90,0,1,100,0,24,304,56,64,0,0,-61,0,0,100,0,0,280,24,32,0,-37,-69,0,0,100,0,144,128,80,72,0,-51,-74,0,1,100,0,24,256,40,48,0,-46,-55,0,0,100,0,0,256,24,24,0,-17,-9,0,0,65,0,0,240,40,16,0,
0,6,-9,-90,0,1,100,0,80,304,56,64,0,-1,-61,0,0,100,0,0,280,24,32,0,-37,-69,0,0,100,0,144,128,80,72,0,-52,-74,0,1,100,0,64,256,40,48,0,-47,-55,0,0,100,0,0,256,24,24,0,-17,-9,0,0,65,0,0,240,40,16,0,
0,7,7,-97,0,1,100,0,24,304,56,64,0,15,-68,0,0,100,0,0,280,24,32,0,-31,-74,0,0,100,0,440,112,72,80,0,-36,-81,0,1,100,0,24,256,40,48,0,-31,-62,0,0,100,0,0,256,24,24,0,-43,-90,0,1,80,0,152,528,120,112,0,-18,-9,0,0,65,0,0,240,40,16,0,
0,7,7,-97,0,1,100,0,24,304,56,64,0,15,-68,0,0,100,0,0,280,24,32,0,-31,-74,0,0,100,0,440,112,72,80,0,-36,-81,0,1,100,0,24,256,40,48,0,-31,-62,0,0,100,0,0,256,24,24,0,-46,-88,0,1,60,0,16,528,136,112,0,-18,-9,0,0,65,0,0,240,40,16,0,
0,7,8,-98,0,1,100,0,80,304,56,64,0,16,-69,0,0,100,0,0,280,24,32,0,-31,-74,0,0,100,0,224,192,72,80,0,-37,-82,0,1,100,0,64,256,40,48,0,-32,-63,0,0,100,0,0,256,24,24,0,-35,-83,0,0,40,0,0,424,96,96,0,-18,-9,0,0,65,0,0,240,40,16,0,
0,7,8,-98,0,1,100,0,80,304,56,64,0,16,-69,0,0,100,0,0,280,24,32,0,-31,-74,0,0,100,0,224,192,72,80,0,-37,-82,0,1,100,0,64,256,40,48,0,-32,-63,0,0,100,0,0,256,24,24,0,-27,-83,0,0,30,0,104,424,104,96,0,-18,-9,0,0,65,0,0,240,40,16,0,
0,6,8,-99,0,1,100,0,136,304,56,64,0,16,-70,0,0,100,0,0,280,24,32,0,-31,-74,0,0,100,0,296,192,72,80,0,-37,-83,0,1,100,0,104,256,40,48,0,-32,-64,0,0,100,0,0,256,24,24,0,-18,-9,0,0,65,0,0,240,40,16,0,
0,6,8,-100,0,1,100,0,24,304,56,64,0,16,-71,0,0,100,0,0,280,24,32,0,-31,-74,0,0,100,0,368,192,72,80,0,-37,-84,0,1,100,0,24,256,40,48,0,-32,-65,0,0,100,0,0,256,24,24,0,-18,-9,0,0,65,0,0,240,40,16,0,
0,6,8,-100,0,1,100,0,24,304,56,64,0,16,-71,0,0,100,0,0,280,24,32,0,-31,-74,0,0,100,0,440,192,72,80,0,-37,-84,0,1,100,0,24,256,40,48,0,-32,-65,0,0,100,0,0,256,24,24,0,-18,-9,0,0,65,0,0,240,40,16,0,
0,6,8,-99,0,1,100,0,136,304,56,64,0,16,-70,0,0,100,0,0,280,24,32,0,-31,-74,0,0,100,0,224,272,72,80,0,-37,-83,0,1,100,0,104,256,40,48,0,-32,-64,0,0,100,0,0,256,24,24,0,-18,-9,0,0,65,0,0,240,40,16,0,
0,6,8,-100,0,1,100,0,24,304,56,64,0,16,-71,0,0,100,0,0,280,24,32,0,-31,-74,0,0,100,0,296,272,72,80,0,-37,-84,0,1,100,0,24,256,40,48,0,-32,-65,0,0,100,0,0,256,24,24,0,-18,-9,0,0,65,0,0,240,40,16,0,
0,6,8,-99,0,1,100,0,136,304,56,64,0,16,-70,0,0,100,0,0,280,24,32,0,-31,-74,0,0,100,0,368,272,72,80,0,-37,-83,0,1,100,0,104,256,40,48,0,-32,-64,0,0,100,0,0,256,24,24,0,-18,-9,0,0,65,0,0,240,40,16,0,
0,6,8,-98,0,1,100,0,80,304,56,64,0,16,-69,0,0,100,0,0,280,24,32,0,-31,-74,0,0,100,0,440,272,72,80,0,-37,-82,0,1,100,0,64,256,40,48,0,-32,-63,0,0,100,0,0,256,24,24,0,-18,-9,0,0,65,0,0,240,40,16,0,
0,6,8,-97,0,1,100,0,24,304,56,64,0,16,-68,0,0,100,0,0,280,24,32,0,-31,-74,0,0,100,0,224,352,72,80,0,-37,-81,0,1,100,0,24,256,40,48,0,-32,-62,0,0,100,0,0,256,24,24,0,-18,-9,0,0,65,0,0,240,40,16,0,
0,6,8,-97,0,1,100,0,136,304,56,64,0,16,-68,0,0,100,0,0,280,24,32,0,-31,-74,0,0,100,0,296,352,72,80,0,-37,-81,0,1,100,0,104,256,40,48,0,-32,-62,0,0,100,0,0,256,24,24,0,-18,-9,0,0,65,0,0,240,40,16,0,
0,6,8,-98,0,1,100,0,80,304,56,64,0,16,-69,0,0,100,0,0,280,24,32,0,-31,-74,0,0,100,0,368,352,72,80,0,-37,-82,0,1,100,0,64,256,40,48,0,-32,-63,0,0,100,0,0,256,24,24,0,-18,-9,0,0,65,0,0,240,40,16,0,
0,6,8,-99,0,1,100,0,136,304,56,64,0,16,-70,0,0,100,0,0,280,24,32,0,-31,-74,0,0,100,0,440,352,72,80,0,-37,-83,0,1,100,0,104,256,40,48,0,-32,-64,0,0,100,0,0,256,24,24,0,-18,-9,0,0,65,0,0,240,40,16,0,
0,6,8,-100,0,1,100,0,24,304,56,64,0,16,-71,0,0,100,0,0,280,24,32,0,-31,-74,0,0,100,0,224,432,72,80,0,-37,-84,0,1,100,0,24,256,40,48,0,-32,-65,0,0,100,0,0,256,24,24,0,-18,-9,0,0,65,0,0,240,40,16,0,
0,6,8,-99,0,1,100,0,136,304,56,64,0,16,-70,0,0,100,0,0,280,24,32,0,-31,-74,0,0,100,0,296,432,72,80,0,-37,-83,0,1,100,0,104,256,40,48,0,-32,-64,0,0,100,0,0,256,24,24,0,-18,-9,0,0,65,0,0,240,40,16,0,
0,6,8,-99,0,1,100,0,24,304,56,64,0,16,-70,0,0,100,0,0,280,24,32,0,-31,-74,0,0,100,0,368,432,72,80,0,-37,-83,0,1,100,0,24,256,40,48,0,-32,-64,0,0,100,0,0,256,24,24,0,-18,-9,0,0,65,0,0,240,40,16,0,
0,6,8,-99,0,1,100,0,80,304,56,64,0,16,-70,0,0,100,0,0,280,24,32,0,-31,-74,0,0,100,0,440,432,72,80,0,-37,-83,0,1,100,0,64,256,40,48,0,-32,-64,0,0,100,0,0,256,24,24,0,-18,-9,0,0,65,0,0,240,40,16,0,
