2,0,0,6,
3,0,0,6,
4,0,0,4,
5,0,0,6,
6,0,0,8,
7,0,0,4,
8,0,0,4,
9,0,0,6,
10,0,0,4,
11,0,0,4,
12,0,0,4,
13,0,0,5,
14,0,0,6,
15,0,0,6,
16,0,0,6,
17,0,0,4,
18,0,0,4,
19,0,0,4,
20,0,0,8,
21,0,0,10,
22,0,0,6,
23,0,0,6,
24,0,0,6,
25,0,0,6,
26,0,0,5,
27,0,0,5,
28,0,0,5,
