0,4,-62,-35,0,0,100,0,608,464,56,48,0,-40,-70,0,0,100,0,0,432,96,72,0,-56,-85,0,0,100,0,904,96,112,96,0,-22,-8,0,0,65,0,8,8,48,16,0,
0,4,-63,-34,0,0,100,0,608,464,56,48,0,-40,-62,0,0,100,0,96,440,96,64,0,-56,-85,0,0,100,0,904,192,112,96,0,-22,-8,0,0,65,0,8,8,48,16,0,
0,4,-62,-35,0,0,100,0,608,464,56,48,0,-40,-62,0,0,100,0,192,440,96,64,0,-56,-85,0,0,100,0,904,288,112,96,0,-22,-8,0,0,65,0,8,8,48,16,0,
0,4,-61,-36,0,0,100,0,608,464,56,48,0,-40,-62,0,0,100,0,288,440,96,64,0,-56,-85,0,0,100,0,904,384,112,96,0,-22,-8,0,0,65,0,8,8,48,16,0,
0,3,-38,-49,0,0,100,0,520,456,80,48,0,-29,-50,0,0,100,0,8,32,75,57,0,-22,-8,0,0,65,0,8,8,48,16,0,
0,2,-22,-46,0,0,100,0,344,16,86,48,0,-22,-8,0,0,65,0,8,8,48,16,0,
0,2,-21,-68,0,0,100,0,432,8,74,64,0,-23,-8,0,0,46,0,8,8,48,16,0,
0,2,-22,-72,0,0,100,0,432,8,74,64,0,-24,-8,0,0,46,0,8,8,48,16,0,
0,2,-22,-81,0,0,100,0,8,93,81,67,0,-24,-8,0,0,46,0,8,8,48,16,0,
0,3,-80,-103,0,0,100,0,524,104,100,120,0,-72,-62,0,0,100,0,91,91,97,71,0,-25,-8,0,0,65,0,8,8,48,16,0,
0,3,-80,-104,0,0,100,0,640,104,56,120,0,-71,-49,0,0,100,0,188,104,92,56,0,-25,-8,0,0,65,0,8,8,48,16,0,
0,3,-84,-79,0,0,100,0,704,120,40,88,0,-71,-41,0,0,100,0,284,112,92,48,0,-25,-8,0,0,65,0,8,8,48,16,0,
0,2,-39,-64,0,0,100,0,378,85,64,67,0,-23,-8,0,0,65,0,8,8,48,16,0,
0,2,-34,-67,0,0,100,0,447,82,65,70,0,-23,-8,0,0,65,0,8,8,48,16,0,
0,3,-94,-73,0,0,100,0,520,240,152,80,0,-29,-68,0,0,100,0,8,161,81,71,0,-24,-8,0,0,65,0,8,8,48,16,0,
0,3,-87,-69,0,0,100,0,520,336,144,72,0,-29,-66,0,0,100,0,96,163,82,69,0,-24,-8,0,0,65,0,8,8,48,16,0,
0,3,-41,-75,0,0,100,0,528,416,112,32,0,-29,-66,0,0,100,0,184,162,83,70,0,-24,-8,0,0,65,0,8,8,48,16,0,
0,2,-17,-46,0,0,100,0,280,175,71,49,0,-24,-8,0,0,65,0,8,8,48,16,0,
0,2,-25,-53,0,0,100,0,356,168,74,56,0,-23,-8,0,0,65,0,8,8,48,16,0,
0,3,-71,-103,0,0,100,0,768,104,128,120,0,-34,-92,0,0,100,0,1,237,87,99,0,-22,-8,0,0,65,0,8,8,48,16,0,
0,3,-68,-105,0,0,100,0,768,232,128,120,0,-41,-90,0,0,100,0,86,239,93,97,0,-22,-8,0,0,65,0,8,8,48,16,0,
0,3,-53,-110,0,0,100,0,784,368,112,128,0,-30,-90,0,0,100,0,182,239,83,97,0,-22,-8,0,0,65,0,8,8,48,16,0,
0,2,-23,-89,0,0,100,0,264,240,73,96,0,-22,-8,0,0,65,0,8,8,48,16,0,
0,2,-40,-60,0,0,100,0,432,162,87,69,0,-22,-8,0,0,65,0,8,8,48,16,0,
0,2,-25,-65,0,0,100,0,347,264,83,72,0,-22,-8,0,0,65,0,8,8,48,16,0,
0,2,-27,-96,0,0,100,0,440,234,58,102,0,-21,-8,0,0,65,0,8,8,48,16,0,
0,2,-34,-88,0,0,100,0,2,341,62,91,0,-21,-8,0,0,65,0,8,8,48,16,0,
0,2,-31,-90,0,0,100,0,73,339,60,93,0,-21,-8,0,0,65,0,8,8,48,16,0,
0,2,-32,-89,0,0,100,0,140,340,63,92,0,-21,-8,0,0,65,0,8,8,48,16,0,
0,2,-28,-89,0,0,100,0,211,340,55,92,0,-21,-8,0,0,65,0,8,8,48,16,0,
0,2,-21,-89,0,0,100,0,280,340,48,92,0,-21,-8,0,0,65,0,8,8,48,16,0,
0,2,-30,-70,0,0,100,0,339,360,88,72,0,-21,-8,0,0,65,0,8,8,48,16,0,
0,2,-23,-61,0,0,100,0,432,352,80,64,0,-21,-8,0,0,65,0,8,8,48,16,0,
0,2,-54,-61,0,0,100,0,425,426,85,82,0,-22,-8,0,0,65,0,8,8,48,16,0,
0,2,-41,-79,0,0,100,0,518,8,81,82,0,-22,-8,0,0,65,0,8,8,48,16,0,
0,2,-39,-79,0,0,100,0,599,8,69,82,0,-22,-8,0,0,65,0,8,8,48,16,0,
0,2,-41,-77,0,0,100,0,676,10,68,81,0,-22,-8,0,0,65,0,8,8,48,16,0,
0,2,-40,-77,0,0,100,0,757,10,67,82,0,-22,-8,0,0,65,0,8,8,48,16,0,
0,2,-40,-76,0,0,100,0,829,11,64,80,0,-22,-8,0,0,65,0,8,8,48,16,0,
0,2,-40,-75,0,0,100,0,901,12,67,79,0,-22,-8,0,0,65,0,8,8,48,16,0,
