0,4,-53,-72,0,1,100,0,488,0,112,88,0,-37,-64,0,0,100,0,0,0,80,72,0,-7,-89,0,0,100,0,416,0,72,80,0,-30,-35,0,0,65,0,25,413,65,46,0,
0,4,-53,-74,0,1,100,0,600,0,112,88,0,-37,-66,0,0,100,0,80,0,80,72,0,-7,-91,0,0,100,0,416,80,72,80,0,-30,-35,0,0,65,0,25,413,65,46,0,
0,4,-53,-75,0,1,100,0,488,88,112,88,0,-37,-67,0,0,100,0,160,0,80,72,0,-7,-92,0,0,100,0,416,160,72,80,0,-30,-35,0,0,65,0,25,413,65,46,0,
0,4,-53,-74,0,1,100,0,600,88,112,88,0,-37,-66,0,0,100,0,240,0,80,72,0,-7,-91,0,0,100,0,416,240,72,80,0,-30,-35,0,0,65,0,25,413,65,46,0,
0,6,0,-68,0,1,100,0,704,320,64,56,0,-7,-68,0,1,100,0,640,320,64,64,0,-26,-61,0,0,100,0,0,72,80,64,0,-2,-40,0,0,100,0,432,198,55,32,0,-55,-77,0,0,100,0,361,0,56,66,0,-20,-37,0,0,65,0,25,413,65,46,0,
0,5,-68,-53,0,1,100,0,560,184,80,72,0,-64,-56,0,0,100,0,80,72,88,72,0,-3,-40,0,0,100,0,176,232,48,32,0,-7,-82,1,0,100,0,361,241,56,71,0,-28,-37,0,0,65,0,25,413,65,46,0,
0,5,-69,-53,0,1,100,0,560,184,80,72,0,-65,-56,0,0,100,0,80,72,88,72,0,-4,-40,0,0,100,0,176,232,48,32,0,-7,-81,1,0,100,0,361,241,56,71,0,-29,-37,0,0,65,0,25,413,65,46,0,
0,7,-87,-85,0,1,100,0,800,0,40,88,0,-58,-82,0,1,100,0,768,0,32,64,0,-70,-113,0,1,100,0,768,0,32,64,0,-66,-115,0,1,100,0,448,320,64,96,0,-57,-114,0,0,100,0,168,72,72,104,0,-17,-54,1,0,100,0,296,209,65,55,0,-35,-9,0,0,65,0,33,461,47,19,0,
0,7,-93,-66,0,1,100,0,840,0,40,72,0,-72,-78,0,1,100,0,800,0,40,88,0,-83,-108,0,1,100,0,800,0,40,88,0,-66,-116,0,1,100,0,512,320,64,96,0,-57,-114,0,0,100,0,240,72,72,104,0,-16,-61,1,0,100,0,1088,624,64,72,0,-35,-9,0,0,65,0,33,461,47,19,0,
0,8,-96,-59,0,1,100,0,880,0,48,72,0,-78,-63,0,1,100,0,840,0,40,72,0,-88,-93,0,1,100,0,840,0,40,72,0,-65,-114,0,1,100,0,768,0,32,64,0,-64,-118,0,1,100,0,576,320,64,96,0,-55,-116,0,0,100,0,240,72,72,104,0,-15,-54,1,0,100,0,296,209,65,55,0,-33,-9,0,0,65,0,33,461,47,19,0,
0,7,-81,-54,0,1,100,0,880,0,48,72,0,-91,-84,0,1,100,0,880,0,48,72,0,-77,-111,0,1,100,0,800,0,40,88,0,-62,-120,0,1,100,0,512,320,64,96,0,-53,-118,0,0,100,0,240,72,72,104,0,-12,-65,1,0,100,0,1088,624,64,72,0,-31,-9,0,0,65,0,33,461,47,19,0,
0,9,-61,-29,0,1,100,0,760,64,40,24,0,-105,-112,0,1,100,0,928,0,48,72,0,-74,-150,0,1,100,0,760,88,80,32,0,-83,-95,0,1,100,0,840,0,40,72,0,-98,-155,0,1,100,0,105,348,120,157,0,-34,-141,0,1,100,0,640,184,56,96,0,-30,-140,0,0,100,0,312,72,48,136,0,-3,-64,1,0,100,0,296,209,48,55,0,-31,-9,0,0,65,0,33,461,47,19,0,
0,8,-108,-151,0,1,100,0,840,72,90,152,0,-86,-86,0,1,100,0,880,0,48,72,0,-33,-165,0,1,100,0,235,345,103,78,0,-26,-111,0,1,100,0,488,264,80,56,0,-22,-104,0,0,100,0,0,136,80,88,0,-60,-118,0,0,100,0,224,176,56,80,0,-49,-89,0,0,100,0,0,224,48,40,0,-25,-9,0,0,65,0,33,461,62,35,0,
0,7,-114,-153,0,1,100,0,930,72,94,160,0,-27,-167,0,1,100,0,243,423,100,69,0,-25,-110,0,1,100,0,488,264,80,56,0,-21,-103,0,0,100,0,0,136,80,88,0,-59,-117,0,0,100,0,224,176,56,80,0,-48,-88,0,0,100,0,0,224,48,40,0,-24,-9,0,0,65,0,33,461,62,35,0,
0,7,20,-79,0,1,100,0,760,120,40,64,0,-3,-133,0,0,100,0,349,346,92,77,0,2,-48,0,1,100,0,568,280,56,40,0,-18,-46,0,0,100,0,80,144,72,48,0,-32,-55,0,0,100,0,48,240,40,32,0,-47,-101,0,0,100,0,224,176,56,80,0,-30,-38,0,0,65,0,25,413,65,46,0,
0,7,19,-82,0,1,100,0,800,120,40,64,0,0,-136,0,0,100,0,351,424,81,79,0,10,-49,0,1,100,0,624,280,48,40,0,-18,-46,0,0,100,0,80,192,72,48,0,-48,-95,0,0,100,0,224,176,56,80,0,-37,-45,0,0,100,0,88,240,48,32,0,-30,-37,0,0,65,0,25,413,65,46,0,
0,6,25,-96,0,1,100,0,728,240,32,80,0,10,-49,0,1,100,0,624,280,48,40,0,-18,-46,0,0,100,0,80,192,72,48,0,-54,-70,0,0,100,0,696,176,64,64,0,-37,-45,0,0,100,0,88,240,48,32,0,-30,-37,0,0,65,0,25,413,65,46,0,
0,5,5,-57,0,1,100,0,672,280,56,40,0,-19,-54,0,0,100,0,152,176,72,56,0,-44,-75,0,0,100,0,360,80,56,72,0,-27,-30,0,0,100,0,136,240,40,24,0,-21,-37,0,0,65,0,25,413,65,46,0,
0,6,-5,-42,1,0,100,0,0,504,8,8,0,-13,-58,1,0,100,0,0,776,32,32,0,-50,-58,0,0,100,0,0,520,80,64,0,-44,-52,0,0,100,0,0,584,40,56,0,-5,-42,0,0,100,0,0,808,56,40,0,-30,-35,0,0,65,0,25,413,65,46,0,
0,6,-5,-41,1,0,100,0,0,504,8,8,0,-13,-58,1,0,100,0,32,776,32,32,0,-50,-58,0,0,100,0,80,520,80,64,0,-43,-51,0,0,100,0,40,584,40,56,0,-3,-43,0,0,100,0,56,808,56,40,0,-30,-35,0,0,65,0,25,413,65,46,0,
0,6,-5,-40,1,0,100,0,0,504,8,8,0,-13,-58,1,0,100,0,64,776,32,32,0,-50,-58,0,0,100,0,160,520,80,64,0,-43,-50,0,0,100,0,80,584,40,56,0,-4,-37,0,0,100,0,112,808,56,40,0,-30,-35,0,0,65,0,25,413,65,46,0,
0,8,-23,-8,0,1,100,0,304,584,16,16,0,-5,-41,1,0,100,0,0,504,8,8,0,-13,-58,1,0,100,0,96,776,32,32,0,-50,-58,0,0,100,0,240,520,80,64,0,-47,-67,0,1,100,0,320,512,32,72,0,-45,-52,0,0,100,0,120,584,40,56,0,-8,-35,0,0,100,0,168,808,56,40,0,-30,-35,0,0,65,0,25,413,65,46,0,
0,7,-28,-17,0,1,100,0,352,592,64,24,0,-18,-58,0,0,100,0,0,776,32,32,0,-50,-58,0,0,100,0,0,520,80,64,0,-70,-78,0,1,100,0,352,512,64,80,0,-69,-57,0,0,100,0,248,680,72,56,0,3,-46,0,0,100,0,176,232,48,32,0,-30,-35,0,0,65,0,25,413,65,46,0,
0,7,-7,-55,0,1,100,0,304,616,64,64,0,-18,-58,0,0,100,0,0,776,32,32,0,-50,-58,0,0,100,0,0,520,80,64,0,-82,-85,0,1,100,0,416,512,72,104,0,-69,-61,0,0,100,0,248,680,72,56,0,3,-61,1,0,100,0,0,224,48,40,0,-30,-35,0,0,65,0,25,413,65,46,0,
0,8,-3,-60,0,1,100,0,368,616,72,64,0,-49,-59,0,1,100,0,312,599,40,17,0,-18,-58,0,0,100,0,0,776,32,32,0,-50,-58,0,0,100,0,0,520,80,64,0,-101,-119,0,1,100,0,0,848,128,144,0,-33,-98,0,0,100,-90,288,264,72,56,0,3,-62,1,0,100,0,0,224,48,40,0,-30,-35,0,0,65,0,25,413,65,46,0,
0,8,22,-67,0,1,100,0,328,680,56,72,0,-49,-65,0,1,100,0,488,512,40,32,0,-18,-58,0,0,100,0,32,776,32,32,0,-50,-58,0,0,100,0,80,520,80,64,0,-105,-122,0,1,100,0,128,848,136,144,0,-31,-101,0,0,100,-90,288,264,72,56,0,8,-58,1,0,100,0,48,240,40,32,0,-30,-35,0,0,65,0,25,413,65,46,0,
0,7,20,-67,0,1,100,0,384,680,56,72,0,-53,-72,0,1,100,0,488,0,112,88,0,-37,-64,0,0,100,0,0,0,80,72,0,-114,-124,0,1,100,0,0,992,144,144,0,-64,-81,0,0,100,0,696,176,64,64,0,-5,-38,0,0,100,0,112,808,56,40,0,-17,-2,0,0,65,0,40,464,32,11,0,
0,5,-54,-90,0,1,100,0,600,0,112,88,0,-33,-83,0,0,100,0,0,0,80,72,0,-80,-110,0,1,100,0,264,848,112,112,0,-41,-66,0,0,100,0,712,0,56,64,0,-2,-53,0,0,100,0,0,712,32,48,0,
0,5,-51,-116,0,1,100,0,488,88,112,88,0,-31,-108,0,0,100,0,0,0,80,72,0,-85,-114,0,1,100,0,144,992,96,128,0,-33,-85,0,0,100,0,712,64,48,72,0,-2,-73,0,0,100,0,0,712,32,48,0,
0,6,-44,-87,0,1,100,0,768,0,32,64,0,-46,-155,0,1,100,0,600,88,112,88,0,-31,-148,0,0,100,0,80,0,80,72,0,-79,-99,0,1,100,0,440,616,88,104,0,-33,-122,0,0,100,0,712,64,48,72,0,-2,-113,0,0,100,0,0,712,32,48,0,
0,8,-54,-167,0,1,100,0,768,0,32,64,0,-44,-147,0,1,100,0,768,0,32,64,0,-56,-84,0,1,100,0,800,0,40,88,0,-47,-190,0,1,100,0,488,0,112,88,0,-31,-182,0,0,100,0,0,0,80,72,0,-45,-165,0,1,100,0,264,960,56,168,0,-38,-171,0,0,100,0,32,712,40,56,0,2,-151,0,0,100,0,0,712,32,48,0,
0,9,-66,-202,0,1,100,0,768,0,32,64,0,-66,-164,0,1,100,0,800,0,40,88,0,-56,-144,0,1,100,0,800,0,40,88,0,-62,-68,0,1,100,0,840,0,40,72,0,-48,-209,0,1,100,0,600,0,112,88,0,-31,-203,0,0,100,0,160,0,80,72,0,-65,-230,0,1,100,0,464,720,64,232,0,-54,-228,0,0,100,0,360,160,56,80,0,2,-178,0,0,100,0,168,808,56,40,0,
0,9,-78,-199,0,1,100,0,800,0,40,88,0,-72,-148,0,1,100,0,840,0,40,72,0,-62,-128,0,1,100,0,840,0,40,72,0,-65,-59,0,1,100,0,880,0,48,72,0,-50,-220,0,1,100,0,488,88,112,88,0,-31,-212,0,0,100,0,240,0,80,72,0,-80,-242,0,1,100,0,376,936,88,224,0,-52,-238,0,0,100,0,362,240,56,80,0,17,-217,1,0,100,0,0,224,48,40,0,
0,8,-84,-183,0,1,100,0,840,0,40,72,0,-75,-139,0,1,100,0,880,0,48,72,0,-65,-119,0,1,100,0,880,0,48,72,0,-48,-221,0,1,100,0,600,88,112,88,0,-30,-213,0,0,100,0,0,0,80,72,0,-87,-254,0,1,100,0,400,768,64,168,0,-51,-238,0,0,100,0,362,0,56,80,0,0,-228,0,0,100,-90,0,224,48,40,0,
0,7,-87,-174,0,1,100,0,880,0,48,72,0,-47,-218,0,1,100,0,488,0,112,88,0,-31,-210,0,0,100,0,0,0,80,72,0,-77,-140,0,1,100,0,384,848,16,16,0,-87,-256,0,1,100,0,344,776,56,72,0,-47,-236,0,0,100,0,363,240,56,80,0,-3,-230,0,0,100,-90,0,224,48,40,0,
0,5,-28,-250,0,1,100,0,224,736,88,112,0,-4,-242,0,0,100,0,240,584,64,96,0,2,-274,0,1,100,0,464,952,64,72,0,16,-205,0,0,100,0,436,40,52,40,0,18,-256,1,0,100,0,224,176,56,80,0,
0,7,-24,-259,0,1,100,0,600,512,96,48,0,-33,-217,0,1,100,0,488,584,40,32,0,-28,-174,0,1,100,0,488,544,40,40,0,-2,-243,0,0,100,0,240,584,64,96,0,9,-268,0,1,100,0,528,512,72,72,0,8,-206,0,0,100,0,416,119,68,40,0,15,-260,1,0,100,0,224,176,56,80,0,
0,6,21,-278,0,1,100,0,672,560,56,64,0,-42,-225,0,1,100,0,696,512,32,48,0,-1,-244,0,0,100,0,240,584,64,96,0,28,-287,0,1,100,0,464,1024,64,88,0,11,-205,0,0,100,0,416,199,68,40,0,16,-261,1,0,100,0,224,176,56,80,0,
0,5,-31,-282,0,1,100,0,0,1280,120,80,0,-50,-237,0,0,100,0,0,640,64,72,0,-36,-202,0,0,100,0,416,120,72,40,0,-72,-280,0,0,100,0,72,656,152,104,0,-74,-308,0,1,100,0,0,1136,192,144,0,
0,6,-279,-310,0,1,100,0,528,624,232,240,0,-169,-165,0,0,100,0,160,584,80,40,0,-155,-161,0,0,100,0,416,120,72,40,0,-191,-236,0,0,100,0,72,656,152,104,0,-192,-265,0,1,100,0,0,1136,192,144,0,-161,-275,0,1,50,0,0,1136,192,144,0,
0,6,-370,-309,0,1,100,0,528,864,232,280,0,-283,-116,0,0,100,0,160,584,80,40,0,-269,-112,0,0,100,0,416,120,72,40,0,-305,-187,0,0,100,0,72,656,152,104,0,-306,-215,0,1,100,0,0,1136,192,144,0,-251,-245,0,1,30,0,0,1136,192,144,0,
0,6,-351,-297,0,1,100,0,528,1144,232,160,0,-281,-167,0,1,100,0,392,1168,136,136,0,-355,-79,0,0,100,0,160,584,80,40,0,-341,-75,0,0,100,0,416,120,72,40,0,-363,-172,0,1,100,0,208,1200,184,112,0,-377,-150,0,0,100,0,72,656,152,104,0,
0,4,-447,-31,0,0,100,0,160,584,80,40,0,-433,-27,0,0,100,0,416,120,72,40,0,-423,-171,0,1,100,0,120,1312,208,128,0,-469,-102,0,0,100,0,72,656,152,104,0,
0,1,-28,-109,3,0,100,0,712,0,56,64,0,
0,1,-65,-92,0,0,100,0,696,176,64,64,0,
0,1,-49,-60,0,0,100,0,712,0,56,64,0,
0,1,-40,-59,0,0,100,0,712,64,48,72,0,
0,1,-58,-69,0,0,100,0,264,688,56,72,0,
0,1,-28,-117,3,0,100,0,712,64,48,72,0,
0,2,-59,-82,0,0,100,0,640,384,120,88,0,-30,-35,0,0,65,0,25,413,65,46,0,
0,3,8,-65,0,1,100,0,1024,0,56,88,0,-65,-80,0,0,100,0,768,240,128,92,0,-30,-35,0,0,65,0,25,413,65,46,0,
0,5,-42,-118,0,1,100,0,1024,88,104,144,0,-9,-23,0,1,100,0,1128,88,32,32,0,-13,-112,0,0,100,0,760,184,32,54,0,-59,-94,0,0,100,0,903,232,120,100,0,-30,-35,0,0,65,0,25,413,65,46,0,
0,5,-38,-118,0,1,100,0,1024,232,64,112,0,-35,-34,0,1,100,0,1096,312,64,40,0,-12,-112,0,0,100,0,760,184,32,54,0,-58,-90,0,0,100,0,775,332,120,94,0,-30,-35,0,0,65,0,25,413,65,46,0,
0,4,-79,-81,0,1,100,0,1024,354,120,86,0,-12,-112,0,0,100,0,760,184,32,54,0,-66,-90,0,0,100,0,896,332,127,94,0,-30,-35,0,0,65,0,25,413,65,46,0,
0,4,-76,-111,0,1,100,0,1024,440,128,96,0,-12,-112,0,0,100,0,760,184,32,54,0,-57,-88,0,0,100,0,776,430,119,91,0,-30,-35,0,0,65,0,25,413,65,46,0,
0,4,-56,-113,0,1,100,0,1034,537,112,78,0,-11,-112,0,0,100,0,760,184,32,54,0,-58,-88,0,0,100,0,904,430,119,91,0,-30,-35,0,0,65,0,25,413,65,46,0,
0,5,-17,-107,0,1,100,0,1080,0,64,56,0,0,-92,0,0,100,0,728,512,32,48,0,-58,-79,0,0,100,0,775,525,119,81,0,-18,-89,0,0,100,0,1024,616,49,48,0,-30,-35,0,0,65,0,25,413,65,46,0,
0,3,-59,-82,0,0,100,0,903,522,120,84,0,-12,-86,0,0,100,0,1024,616,49,48,0,-30,-35,0,0,65,0,25,413,65,46,0,
0,2,-58,-82,0,0,100,0,775,611,120,84,0,-30,-35,0,0,65,0,25,413,65,46,0,
0,2,-59,-86,0,0,100,0,903,607,120,88,0,-30,-35,0,0,65,0,25,413,65,46,0,
0,2,-63,-82,0,0,100,0,772,696,123,89,0,-30,-35,0,0,65,0,25,413,65,46,0,
0,2,-61,-82,0,0,100,0,903,696,120,88,0,-30,-35,0,0,65,0,25,413,65,46,0,
0,2,-61,-80,0,0,100,0,772,787,123,85,0,-30,-35,0,0,65,0,25,413,65,46,0,
0,3,-31,-8,0,1,100,0,1032,800,16,16,0,-59,-80,0,0,100,0,903,787,120,85,0,-30,-35,0,0,65,0,25,413,65,46,0,
0,3,-33,-16,0,1,100,0,1080,792,56,24,0,-61,-78,0,0,100,0,772,875,123,85,0,-30,-35,0,0,65,0,25,413,65,46,0,
0,3,-23,-54,0,1,100,0,1040,816,80,64,0,-59,-78,0,0,100,0,903,875,120,85,0,-30,-35,0,0,65,0,25,413,65,46,0,
0,3,-15,-63,0,1,100,0,1048,880,80,72,0,-61,-77,0,0,100,0,772,962,123,85,0,-30,-35,0,0,65,0,25,413,65,46,0,
0,3,-39,-66,0,1,100,0,1024,952,112,72,0,-59,-77,0,0,100,0,903,962,120,85,0,-30,-35,0,0,65,0,25,413,65,46,0,
0,3,-40,-72,0,1,100,0,904,1048,120,80,0,-58,-78,0,0,100,0,775,1048,120,85,0,-30,-35,0,0,65,0,25,413,65,46,0,
0,5,-53,-72,0,1,40,0,488,0,112,88,0,-37,-64,0,0,100,0,0,0,80,72,0,-52,-55,0,0,100,0,248,680,72,56,0,-7,-89,0,0,100,0,416,0,72,80,0,-30,-35,0,0,65,0,25,413,65,46,0,
