0,6,0,-51,0,1,100,0,0,680,80,72,0,-53,-80,0,0,100,0,0,0,112,96,0,-59,-80,0,1,100,0,112,600,64,72,0,-63,-45,0,0,100,0,0,400,80,56,0,-28,-12,0,0,65,0,616,256,56,24,0,-55,-15,0,0,65,0,616,256,56,24,0,
0,6,0,-51,0,1,100,0,80,680,80,72,0,-53,-80,0,0,100,0,112,0,112,96,0,-59,-80,0,1,100,0,176,600,64,72,0,-63,-45,0,0,100,0,80,400,80,56,0,-28,-12,0,0,65,0,616,256,56,24,0,-55,-15,0,0,65,0,616,256,56,24,0,
0,6,0,-51,0,1,100,0,160,680,80,72,0,-53,-80,0,0,100,0,224,0,112,96,0,-59,-80,0,1,100,0,240,600,64,72,0,-63,-45,0,0,100,0,160,400,80,56,0,-28,-12,0,0,65,0,616,256,56,24,0,-55,-15,0,0,65,0,616,256,56,24,0,
0,6,0,-51,0,1,100,0,240,680,80,72,0,-53,-80,0,0,100,0,336,0,112,96,0,-59,-80,0,1,100,0,304,600,64,72,0,-63,-45,0,0,100,0,240,400,80,56,0,-28,-12,0,0,65,0,616,256,56,24,0,-55,-15,0,0,65,0,616,256,56,24,0,
0,4,-63,-81,0,0,100,0,448,0,112,96,0,-73,-49,0,0,100,0,320,400,80,56,0,-28,-12,0,0,65,0,616,256,56,24,0,-62,-15,0,0,65,0,616,256,56,24,0,
0,4,-79,-80,0,0,100,0,560,0,120,96,0,-73,-49,0,0,100,0,320,400,80,56,0,-28,-12,0,0,65,0,616,256,56,24,0,-62,-15,0,0,65,0,616,256,56,24,0,
0,6,-37,-72,0,1,100,0,480,536,40,40,0,-54,-88,0,1,50,0,952,576,72,72,0,-79,-80,0,0,100,0,680,0,120,96,0,-75,-45,0,0,100,0,480,400,80,56,0,-28,-12,0,0,65,0,616,256,56,24,0,-63,-15,0,0,65,0,616,256,56,24,0,
0,6,-34,-69,0,1,100,0,520,536,40,40,0,-54,-88,0,1,100,0,952,576,72,72,0,-79,-80,0,0,100,0,800,0,120,96,0,-78,-45,0,0,100,0,720,400,80,56,0,-28,-12,0,0,65,0,616,256,56,24,0,-63,-15,0,0,65,0,616,256,56,24,0,
0,6,-38,-70,0,1,100,0,560,536,40,40,0,-54,-88,0,1,30,0,952,576,72,72,0,-79,-80,0,0,100,0,0,96,120,96,0,-78,-45,0,0,100,0,800,400,80,56,0,-28,-12,0,0,65,0,616,256,56,24,0,-63,-15,0,0,65,0,616,256,56,24,0,
0,10,-37,-72,0,1,100,0,480,536,40,40,0,-54,-88,0,1,50,0,952,576,72,72,0,-79,-80,0,0,100,0,680,0,120,96,0,-99,-65,0,0,100,0,808,576,144,96,0,-105,-47,0,1,100,0,560,400,80,56,0,-60,-79,0,1,100,0,656,456,40,120,0,-105,-47,0,0,50,0,560,400,80,56,0,-109,-56,0,1,100,0,448,456,152,80,0,-28,-12,0,0,65,0,616,256,56,24,0,-92,-15,0,0,65,0,616,256,56,24,0,
0,11,-34,-69,0,1,100,0,520,536,40,40,0,-54,-88,0,1,100,0,952,576,72,72,0,-79,-80,0,0,100,0,800,0,120,96,0,-62,-92,0,1,60,0,600,456,56,144,0,-91,-79,0,1,100,0,656,456,40,120,0,-127,-65,0,0,80,0,808,576,144,96,0,-133,-47,0,1,100,0,560,400,80,56,0,-133,-47,0,0,50,0,560,400,80,56,0,-137,-56,0,1,100,0,448,456,152,80,0,-28,-12,0,0,65,0,616,256,56,24,0,-119,-15,0,0,65,0,616,256,56,24,0,
0,11,-77,-82,0,1,100,0,368,600,96,64,0,-86,-80,0,1,80,0,952,576,72,72,0,-32,-53,0,0,100,0,920,0,88,40,0,-81,-85,0,0,100,0,120,96,112,96,0,-93,-92,0,1,60,0,600,456,56,144,0,-130,-65,0,0,40,0,808,576,144,96,0,-135,-47,0,1,100,0,560,400,80,56,0,-135,-47,0,0,50,0,560,400,80,56,0,-139,-56,0,1,50,0,448,456,152,80,0,-41,-12,0,0,65,0,616,256,56,24,0,-121,-15,0,0,65,0,616,256,56,24,0,
0,7,-93,-90,0,1,100,0,464,600,96,64,0,-106,-85,0,1,80,0,952,576,72,72,0,-53,-58,0,0,100,0,920,0,88,40,0,-102,-90,0,0,100,0,0,584,112,96,0,-131,-77,0,0,100,180,640,400,80,56,0,-61,-12,0,0,65,0,616,256,56,24,0,-119,-15,0,0,65,0,616,256,56,24,0,
0,9,-173,-93,0,0,100,0,696,456,128,120,0,-166,-87,0,1,100,0,672,280,112,112,0,-164,-105,0,0,100,0,0,752,128,120,0,-136,-22,0,0,100,0,944,96,72,40,0,-84,-62,0,0,100,0,920,40,80,56,0,-130,-80,0,0,100,0,232,96,112,96,0,-96,-120,0,0,100,90,640,400,80,56,0,-98,-12,0,0,65,0,616,256,56,24,0,-89,-15,0,0,65,0,616,256,56,24,0,
0,9,-173,-90,0,0,100,0,824,456,112,120,0,-169,-86,0,1,100,0,784,280,112,112,0,-177,-104,0,0,100,0,128,752,128,120,0,-138,-21,0,0,100,0,944,96,72,40,0,-85,-61,0,0,100,0,920,40,80,56,0,-130,-80,0,0,100,0,344,96,112,96,0,-76,-85,0,0,100,0,640,400,80,56,0,-98,-12,0,0,65,0,616,256,56,24,0,-63,-15,0,0,65,0,616,256,56,24,0,
0,9,-167,-89,0,0,100,0,936,456,88,120,0,-169,-86,0,1,100,0,896,280,112,112,0,-178,-101,0,0,100,0,256,752,104,120,0,-138,-21,0,0,100,0,944,96,72,40,0,-85,-61,0,0,100,0,920,40,80,56,0,-130,-80,0,0,100,0,456,96,112,96,0,-68,-54,0,0,100,0,480,400,80,56,0,-98,-12,0,0,65,0,616,256,56,24,0,-55,-15,0,0,65,0,616,256,56,24,0,
0,6,-85,-61,0,0,100,0,920,40,80,56,0,-138,-21,0,0,100,0,944,96,72,40,0,-130,-80,0,0,100,0,456,96,112,96,0,-69,-45,0,0,100,0,720,400,80,56,0,-98,-12,0,0,65,0,616,256,56,24,0,-52,-14,0,0,65,0,616,256,56,24,0,
0,10,-154,-80,0,1,100,0,712,576,96,96,0,-122,-63,0,1,100,0,344,512,56,56,0,-101,-84,0,0,100,0,544,192,96,64,0,-69,-111,0,0,100,0,568,96,64,96,0,-87,-89,0,0,100,0,944,136,64,48,0,-46,-92,0,0,100,0,280,192,72,64,0,-33,-83,0,0,100,0,280,256,40,48,0,-69,-45,0,0,100,0,880,400,80,56,0,-61,-12,0,0,65,0,616,256,56,24,0,-52,-14,0,0,65,0,616,256,56,24,0,
0,10,-210,-80,0,1,100,0,560,600,152,120,0,-141,-75,0,1,100,0,264,512,80,88,0,-102,-99,0,0,100,0,520,256,96,48,0,-68,-112,0,0,100,0,568,96,64,96,0,-86,-90,0,0,100,0,944,136,64,48,0,-44,-93,0,0,100,0,352,192,72,64,0,-31,-84,0,0,100,0,320,256,40,48,0,-69,-45,0,0,100,0,720,400,80,56,0,-59,-12,0,0,65,0,616,256,56,24,0,-52,-14,0,0,65,0,616,256,56,24,0,
0,9,-142,-69,0,1,70,0,400,536,80,64,0,-107,-83,0,0,100,0,640,192,104,32,0,-68,-112,0,0,100,0,568,96,64,96,0,-86,-90,0,0,100,0,944,136,64,48,0,-44,-93,0,0,100,0,424,192,72,64,0,-31,-84,0,0,100,0,360,256,40,48,0,-69,-45,0,0,100,0,800,400,80,56,0,-59,-12,0,0,65,0,616,256,56,24,0,-52,-14,0,0,65,0,616,256,56,24,0,
0,10,-152,-81,0,1,100,0,712,576,96,96,0,-120,-65,0,1,100,0,344,512,56,56,0,-99,-86,0,0,100,0,544,192,96,64,0,-67,-113,0,0,100,0,568,96,64,96,0,-85,-91,0,0,100,0,944,136,64,48,0,-44,-95,0,0,100,0,280,192,72,64,0,-31,-86,0,0,100,0,280,256,40,48,0,-69,-45,0,0,100,0,880,400,80,56,0,-57,-12,0,0,65,0,616,256,56,24,0,-52,-14,0,0,65,0,616,256,56,24,0,
0,10,-208,-81,0,1,100,0,560,600,152,120,0,-139,-77,0,1,100,0,264,512,80,88,0,-100,-101,0,0,100,0,520,256,96,48,0,-66,-114,0,0,100,0,568,96,64,96,0,-84,-92,0,0,100,0,944,136,64,48,0,-45,-95,0,0,100,0,352,192,72,64,0,-32,-86,0,0,100,0,320,256,40,48,0,-69,-45,0,0,100,0,720,400,80,56,0,-57,-12,0,0,65,0,616,256,56,24,0,-52,-14,0,0,65,0,616,256,56,24,0,
0,8,-142,-69,0,1,50,0,400,536,80,64,0,-105,-85,0,0,100,0,640,192,104,32,0,-66,-114,0,0,100,0,568,96,64,96,0,-84,-92,0,0,100,0,944,136,64,48,0,-45,-95,0,0,100,0,424,192,72,64,0,-69,-45,0,0,100,0,800,400,80,56,0,-57,-12,0,0,65,0,616,256,56,24,0,-52,-14,0,0,65,0,616,256,56,24,0,
0,4,-58,-140,0,0,100,180,0,192,80,112,0,-69,-45,0,0,100,0,880,400,80,56,0,-50,-12,0,0,65,0,616,256,56,24,0,-52,-14,0,0,65,0,616,256,56,24,0,
0,4,-51,-94,0,0,100,0,0,192,80,112,0,-69,-45,0,0,100,0,720,400,80,56,0,-35,-12,0,0,65,0,616,256,56,24,0,-52,-14,0,0,65,0,616,256,56,24,0,
0,6,-49,-39,0,0,100,0,944,184,72,40,0,-19,-95,0,0,100,0,896,192,40,96,0,-51,-81,0,0,100,0,632,96,88,96,0,-69,-45,0,0,100,0,800,400,80,56,0,-33,-12,0,0,65,0,616,256,56,24,0,-52,-14,0,0,65,0,616,256,56,24,0,
0,6,-50,-41,0,0,100,0,944,184,72,40,0,-20,-94,0,0,100,0,896,192,40,96,0,-51,-81,0,0,100,0,192,192,88,96,0,-69,-45,0,0,100,0,880,400,80,56,0,-33,-12,0,0,65,0,616,256,56,24,0,-52,-14,0,0,65,0,616,256,56,24,0,
0,8,-48,-48,0,1,100,0,320,672,88,80,0,-48,-36,0,1,60,0,816,192,80,56,0,-45,-42,0,0,100,0,496,192,48,64,0,-31,-38,0,0,100,0,456,256,32,32,0,-53,-80,0,0,100,0,720,96,112,96,0,-69,-45,0,0,100,0,720,400,80,56,0,-30,-12,0,0,65,0,616,256,56,24,0,-52,-14,0,0,65,0,616,256,56,24,0,
0,8,-71,-51,0,1,100,0,408,672,96,80,0,-69,-61,0,1,60,0,744,192,72,88,0,-64,-61,0,0,100,0,400,256,56,48,0,-33,-46,0,0,100,0,488,256,32,32,0,-53,-80,0,0,100,0,720,96,112,96,0,-69,-45,0,0,100,0,800,400,80,56,0,-28,-12,0,0,65,0,616,256,56,24,0,-52,-14,0,0,65,0,616,256,56,24,0,
0,4,-53,-80,0,0,100,0,832,96,112,96,0,-69,-45,0,0,100,0,880,400,80,56,0,-28,-12,0,0,65,0,616,256,56,24,0,-52,-14,0,0,65,0,616,256,56,24,0,
0,4,-53,-80,0,0,100,0,80,192,112,96,0,-69,-45,0,0,100,0,720,400,80,56,0,-28,-12,0,0,65,0,616,256,56,24,0,-52,-14,0,0,65,0,616,256,56,24,0,
0,7,-121,-63,0,0,100,0,544,192,96,64,0,-89,-90,0,0,100,0,568,96,64,96,0,-107,-68,0,0,100,0,944,136,64,48,0,-86,-63,0,0,100,0,280,192,72,64,0,-69,-45,0,0,100,0,800,400,80,56,0,-81,-12,0,0,65,0,616,256,56,24,0,-52,-14,0,0,65,0,616,256,56,24,0,
0,4,-53,-80,0,0,100,0,0,0,112,96,0,-72,-45,0,0,100,0,800,400,80,56,0,-28,-12,0,0,65,0,616,256,56,24,0,-57,-15,0,0,65,0,616,256,56,24,0,
0,4,-53,-80,0,0,100,0,0,304,112,96,0,-62,-45,0,0,100,0,0,456,56,56,0,-28,-12,0,0,65,0,616,256,56,24,0,-61,-15,0,0,65,0,616,256,56,24,0,
0,4,-53,-80,0,0,100,0,112,304,112,96,0,-62,-45,0,0,100,0,56,456,56,56,0,-28,-12,0,0,65,0,616,256,56,24,0,-61,-15,0,0,65,0,616,256,56,24,0,
0,4,-53,-80,0,0,100,0,0,304,112,96,0,-62,-45,0,0,100,0,112,456,56,56,0,-28,-12,0,0,65,0,616,256,56,24,0,-61,-15,0,0,65,0,616,256,56,24,0,
0,4,-53,-80,0,0,100,0,112,304,112,96,0,-62,-45,0,0,100,0,56,456,56,56,0,-28,-12,0,0,65,0,616,256,56,24,0,-61,-15,0,0,65,0,616,256,56,24,0,
0,4,-53,-80,0,0,100,0,0,304,112,96,0,-62,-45,0,0,100,0,168,456,56,56,0,-28,-12,0,0,65,0,616,256,56,24,0,-61,-15,0,0,65,0,616,256,56,24,0,
0,4,-53,-80,0,0,100,0,112,304,112,96,0,-62,-45,0,0,100,0,224,456,56,56,0,-28,-12,0,0,65,0,616,256,56,24,0,-61,-15,0,0,65,0,616,256,56,24,0,
0,4,-53,-80,0,0,100,0,0,304,112,96,0,-62,-45,0,0,100,0,280,456,56,56,0,-28,-12,0,0,65,0,616,256,56,24,0,-61,-15,0,0,65,0,616,256,56,24,0,
0,4,-53,-80,0,0,100,0,0,304,112,96,0,-62,-45,0,0,100,0,336,456,56,48,0,-28,-12,0,0,65,0,616,256,56,24,0,-61,-15,0,0,65,0,616,256,56,24,0,
0,5,-41,-82,0,0,100,0,224,560,40,24,0,-53,-80,0,0,100,0,224,304,112,96,0,-62,-45,0,0,100,0,392,456,56,56,0,-28,-12,0,0,65,0,616,256,56,24,0,-61,-15,0,0,65,0,616,256,56,24,0,
0,5,-40,-115,0,0,100,0,192,544,32,32,0,-53,-80,0,0,100,0,336,304,112,96,0,-60,-89,0,0,100,0,0,512,56,72,0,-28,-12,0,0,65,0,616,256,56,24,0,-61,-15,0,0,65,0,616,256,56,24,0,
0,4,-53,-80,0,0,100,0,336,304,112,96,0,-54,-121,0,0,100,0,56,512,56,72,0,-28,-12,0,0,65,0,616,256,56,24,0,-59,-15,0,0,65,0,616,256,56,24,0,
0,4,-53,-80,0,0,100,0,336,304,112,96,0,-55,-121,0,0,100,0,112,512,56,72,0,-28,-12,0,0,65,0,616,256,56,24,0,-57,-15,0,0,65,0,616,256,56,24,0,
0,4,-53,-80,0,0,100,0,0,304,112,96,0,-55,-87,0,0,100,0,112,512,56,72,0,-28,-12,0,0,65,0,616,256,56,24,0,-54,-15,0,0,65,0,616,256,56,24,0,
0,5,-56,-80,0,0,100,0,448,304,112,96,0,-48,-25,0,0,100,0,216,512,48,32,0,-40,-42,0,0,100,0,192,512,24,32,0,-27,-12,0,0,65,0,616,256,56,24,0,-52,-15,0,0,65,0,616,256,56,24,0,
0,6,-56,-80,0,0,100,0,560,304,112,96,0,-34,-35,0,0,100,0,672,224,32,32,0,-48,-26,0,0,100,0,216,512,48,32,0,-40,-43,0,0,100,0,168,512,24,32,0,-26,-12,0,0,65,0,616,256,56,24,0,-52,-15,0,0,65,0,616,256,56,24,0,
0,6,-56,-80,0,0,100,0,560,304,112,96,0,-34,-35,0,0,100,0,640,224,32,32,0,-48,-26,0,0,100,0,216,512,48,32,0,-39,-42,0,0,100,0,168,544,24,32,0,-26,-12,0,0,65,0,616,256,56,24,0,-52,-15,0,0,65,0,616,256,56,24,0,
0,6,-56,-80,0,0,100,0,560,304,112,96,0,-34,-35,0,0,100,0,672,224,32,32,0,-48,-26,0,0,100,0,216,512,48,32,0,-40,-43,0,0,100,0,168,512,24,32,0,-26,-12,0,0,65,0,616,256,56,24,0,-52,-15,0,0,65,0,616,256,56,24,0,
0,6,-56,-80,0,0,100,0,560,304,112,96,0,-34,-35,0,0,100,0,704,224,32,32,0,-48,-26,0,0,100,0,216,512,48,32,0,-40,-43,0,0,100,0,192,512,24,32,0,-26,-12,0,0,65,0,616,256,56,24,0,-52,-15,0,0,65,0,616,256,56,24,0,
0,6,-33,-76,0,1,100,0,480,536,40,40,0,-50,-92,0,1,20,0,952,576,72,72,0,-53,-80,0,0,100,0,80,192,112,96,0,-69,-45,0,0,100,0,720,400,80,56,0,-28,-12,0,0,65,0,616,256,56,24,0,-52,-14,0,0,65,0,616,256,56,24,0,
0,6,-32,-75,0,1,100,0,520,536,40,40,0,-50,-92,0,1,50,0,952,576,72,72,0,-53,-80,0,0,100,0,80,192,112,96,0,-69,-45,0,0,100,0,720,400,80,56,0,-28,-12,0,0,65,0,616,256,56,24,0,-52,-14,0,0,65,0,616,256,56,24,0,
0,6,-37,-76,0,1,100,0,560,536,40,40,0,-50,-92,0,1,20,0,952,576,72,72,0,-53,-80,0,0,100,0,80,192,112,96,0,-69,-45,0,0,100,0,720,400,80,56,0,-28,-12,0,0,65,0,616,256,56,24,0,-52,-14,0,0,65,0,616,256,56,24,0,
