4,0,0,8,
5,0,0,8,
6,0,0,12,
7,0,0,12,
8,0,0,12,
9,0,0,8,
10,0,0,6,
11,0,0,3,
12,0,0,3,
13,0,0,4,
45,0,0,4,
46,0,0,5,
14,0,0,5,
15,0,0,6,
16,0,0,6,
17,0,0,7,
18,0,0,6,
19,0,0,6,
20,0,0,6,
21,0,0,6,
22,0,0,6,
23,0,0,6,
