0,4,-15,-58,0,0,100,0,176,0,32,32,0,-53,-40,0,0,100,0,128,0,48,48,0,-31,-57,0,0,100,0,0,192,64,64,0,-40,-16,0,0,65,0,432,0,80,32,0,
0,4,-15,-57,0,0,100,0,208,0,32,32,0,-53,-39,0,0,100,0,128,0,48,48,0,-31,-57,0,0,100,0,64,192,64,64,0,-40,-16,0,0,65,0,432,0,80,32,0,
0,4,-15,-58,0,0,100,0,240,0,32,32,0,-53,-40,0,0,100,0,128,0,48,48,0,-31,-57,0,0,100,0,128,192,64,64,0,-40,-16,0,0,65,0,432,0,80,32,0,
0,4,-15,-58,0,0,100,0,272,0,32,32,0,-53,-42,0,0,100,0,128,0,48,48,0,-31,-57,0,0,100,0,192,192,64,64,0,-40,-16,0,0,65,0,432,0,80,32,0,
0,6,-19,-39,0,0,100,0,160,64,16,16,0,-33,-45,0,0,100,0,176,32,32,32,0,-31,-52,0,0,100,0,176,0,32,32,0,-36,-57,0,0,100,0,64,0,64,64,0,-46,-39,0,0,100,0,128,0,48,48,0,-40,-16,0,0,65,0,432,0,80,32,0,
0,6,0,-40,0,0,100,0,128,64,16,16,0,-11,-43,0,0,100,0,0,0,32,32,0,-15,-56,0,0,100,0,176,0,32,32,0,-53,-47,0,0,100,0,128,0,48,48,0,-31,-57,0,0,100,0,0,64,64,64,0,-40,-16,0,0,65,0,432,0,80,32,0,
0,6,2,-39,0,0,100,0,144,64,16,16,0,-54,-43,0,0,100,0,272,32,48,32,0,-11,-43,0,0,100,0,32,0,32,32,0,-12,-55,0,0,100,0,208,0,32,32,0,-31,-57,0,0,100,0,64,64,64,64,0,-40,-16,0,0,65,0,432,0,80,32,0,
0,6,-1,-39,0,0,100,0,160,64,16,16,0,-12,-54,0,0,100,0,240,0,32,32,0,-31,-41,0,0,100,0,128,80,64,48,0,-49,-42,0,0,100,0,208,32,64,32,0,-12,-35,0,0,100,0,128,48,32,16,0,-40,-16,0,0,65,0,432,0,80,32,0,
0,6,-114,-55,0,1,100,0,0,320,160,64,0,-34,-49,0,0,100,0,272,0,32,32,0,-15,-42,0,0,100,0,176,64,16,16,0,-86,-39,0,0,100,0,208,32,64,32,0,-45,-41,0,0,100,0,192,80,64,48,0,-44,-16,0,0,65,0,432,0,80,32,0,
0,6,-159,-55,0,1,100,0,0,384,160,64,0,-35,-48,0,0,100,0,176,0,32,32,0,-15,-41,0,0,100,0,176,64,16,16,0,-87,-39,0,0,100,0,208,32,64,32,0,-45,-41,0,0,100,0,256,80,64,48,0,-44,-16,0,0,65,0,432,0,80,32,0,
0,6,-218,-31,0,1,100,0,0,448,224,16,0,-33,-50,0,0,100,0,208,0,32,32,0,-15,-42,0,0,100,0,176,64,16,16,0,-83,-39,0,0,100,0,208,32,64,32,0,-45,-41,0,0,100,0,320,80,64,48,0,-44,-16,0,0,65,0,432,0,80,32,0,
0,6,-21,-64,0,0,100,0,320,16,24,48,0,2,-39,0,0,100,0,128,64,16,16,0,0,-38,0,0,100,0,440,40,24,24,0,-15,-53,0,0,100,0,240,0,32,32,0,-30,-57,0,0,100,0,384,64,64,64,0,-38,-16,0,0,65,0,432,0,80,32,0,
0,6,-21,-64,0,0,100,0,320,16,24,48,0,3,-39,0,0,100,0,128,64,16,16,0,1,-38,0,0,100,0,440,40,24,24,0,-14,-53,0,0,100,0,272,0,32,32,0,-29,-57,0,0,100,0,448,64,64,64,0,-37,-16,0,0,65,0,432,0,80,32,0,
0,6,-12,-39,0,0,100,0,160,64,16,16,0,2,-34,1,0,100,0,272,32,48,32,0,-11,-41,0,0,100,0,0,32,32,32,0,-14,-57,0,0,100,0,176,0,32,32,0,-35,-57,0,0,100,0,0,128,64,64,0,-40,-16,0,0,65,0,432,0,80,32,0,
0,6,-11,-39,0,0,100,0,160,64,16,16,0,3,-35,1,0,100,0,272,32,48,32,0,-11,-41,0,0,100,0,32,32,32,32,0,-13,-57,0,0,100,0,208,0,32,32,0,-35,-57,0,0,100,0,64,128,64,64,0,-40,-16,0,0,65,0,432,0,80,32,0,
0,5,-3,-41,0,0,100,0,128,64,16,16,0,-17,-58,0,0,100,0,240,0,32,32,0,-35,-57,0,0,100,0,128,128,64,64,0,-25,-85,0,0,100,0,400,0,24,40,0,-40,-16,0,0,65,0,432,0,80,32,0,
0,5,-2,-41,0,0,100,0,128,64,16,16,0,-16,-58,0,0,100,0,176,0,32,32,0,-35,-57,0,0,100,0,192,128,64,64,0,-23,-84,0,0,100,0,400,0,24,40,0,-40,-16,0,0,65,0,432,0,80,32,0,
0,6,-11,-39,0,0,100,0,160,64,16,16,0,3,-35,1,0,100,0,272,32,48,32,0,-11,-41,0,0,100,0,32,32,32,32,0,-14,-57,0,0,100,0,272,0,32,32,0,-35,-57,0,0,100,0,256,128,64,64,0,-40,-16,0,0,65,0,432,0,80,32,0,
0,7,-18,-41,0,0,100,0,344,0,56,24,0,-24,-36,0,0,100,0,480,160,32,16,0,0,-42,0,0,100,0,128,64,16,16,0,-7,-41,0,0,100,0,448,128,32,32,0,-16,-58,0,0,100,0,176,0,32,32,0,-35,-57,0,0,100,0,320,128,64,64,0,-40,-16,0,0,65,0,432,0,80,32,0,
0,7,-12,-56,0,0,100,0,344,24,40,40,0,-21,-37,0,0,100,0,480,176,32,16,0,0,-42,0,0,100,0,128,64,16,16,0,-7,-41,0,0,100,0,480,128,32,32,0,-15,-58,0,0,100,0,208,0,32,32,0,-35,-57,0,0,100,0,384,128,64,64,0,-40,-16,0,0,65,0,432,0,80,32,0,
0,6,-14,-58,0,0,100,0,176,0,32,32,0,1,-42,0,0,100,0,128,64,16,16,0,-8,-43,0,0,100,0,448,160,32,32,0,-31,-57,0,0,100,0,256,192,64,64,0,-52,-33,0,0,100,0,384,40,56,24,0,-40,-16,0,0,65,0,432,0,80,32,0,
0,6,-14,-58,0,0,100,0,208,0,32,32,0,1,-42,0,0,100,0,128,64,16,16,0,-8,-43,0,0,100,0,448,160,32,32,0,-31,-57,0,0,100,0,320,192,64,64,0,-52,-33,0,0,100,0,384,40,56,24,0,-40,-16,0,0,65,0,432,0,80,32,0,
0,6,-14,-58,0,0,100,0,240,0,32,32,0,1,-42,0,0,100,0,128,64,16,16,0,-8,-43,0,0,100,0,448,160,32,32,0,-31,-57,0,0,100,0,384,192,64,64,0,-52,-33,0,0,100,0,384,40,56,24,0,-40,-16,0,0,65,0,432,0,80,32,0,
0,6,-14,-58,0,0,100,0,272,0,32,32,0,1,-42,0,0,100,0,128,64,16,16,0,-8,-43,0,0,100,0,448,160,32,32,0,-31,-57,0,0,100,0,448,192,64,64,0,-52,-33,0,0,100,0,384,40,56,24,0,-40,-16,0,0,65,0,432,0,80,32,0,
0,5,-2,-41,0,0,100,0,128,64,16,16,0,-16,-58,0,0,100,0,240,0,32,32,0,-35,-57,0,0,100,0,0,256,64,64,0,-23,-84,0,0,100,0,400,0,24,40,0,-40,-16,0,0,65,0,432,0,80,32,0,
0,6,-43,-126,0,1,100,0,160,320,48,96,0,-2,-41,0,0,100,0,128,64,16,16,0,-16,-58,0,0,100,0,272,0,32,32,0,-35,-57,0,0,100,0,64,256,64,64,0,-23,-84,0,0,100,0,400,0,24,40,0,-40,-16,0,0,65,0,432,0,80,32,0,
0,6,-43,-126,0,1,100,0,208,320,48,96,0,-2,-41,0,0,100,0,128,64,16,16,0,-16,-58,0,0,100,0,176,0,32,32,0,-35,-57,0,0,100,0,128,256,64,64,0,-23,-84,0,0,100,0,400,0,24,40,0,-40,-16,0,0,65,0,432,0,80,32,0,
0,5,-2,-41,0,0,100,0,128,64,16,16,0,-16,-58,0,0,100,0,208,0,32,32,0,-35,-57,0,0,100,0,192,256,64,64,0,-23,-84,0,0,100,0,400,0,24,40,0,-40,-16,0,0,65,0,432,0,80,32,0,
