0,5,-53,-46,0,1,50,0,0,536,48,48,0,-66,-73,0,1,100,0,0,792,120,88,0,-60,-57,0,0,100,0,0,88,72,72,0,-41,-73,0,0,100,0,0,0,80,88,0,-28,-15,0,0,65,0,264,240,56,32,0,
0,5,-52,-46,0,1,80,0,0,536,48,48,0,-66,-73,0,1,100,0,120,792,120,88,0,-59,-57,0,0,100,0,0,88,72,72,0,-41,-73,0,0,100,0,80,0,80,88,0,-28,-15,0,0,65,0,264,240,56,32,0,
0,5,-52,-45,0,1,100,0,0,536,48,48,0,-66,-73,0,1,100,0,240,792,120,88,0,-59,-56,0,0,100,0,0,88,72,72,0,-41,-73,0,0,100,0,160,0,80,88,0,-28,-15,0,0,65,0,264,240,56,32,0,
0,5,-53,-45,0,1,80,0,0,536,48,48,0,-66,-73,0,1,100,0,360,792,120,88,0,-60,-56,0,0,100,0,0,88,72,72,0,-41,-73,0,0,100,0,240,0,80,88,0,-28,-15,0,0,65,0,264,240,56,32,0,
0,5,-63,-45,0,1,100,0,0,536,48,48,0,-64,-49,0,1,100,0,0,880,56,56,0,-70,-56,0,0,100,0,0,88,72,72,0,-55,-74,0,0,100,0,320,0,88,88,0,-28,-15,0,0,65,0,264,240,56,32,0,
0,6,-48,-44,0,0,100,0,40,160,40,40,0,-52,-73,0,0,100,0,408,0,88,88,0,-24,-51,0,0,100,0,80,160,40,40,0,-40,-70,0,0,100,0,144,88,72,72,0,-41,-80,0,0,50,0,0,280,88,88,0,-28,-15,0,0,65,0,264,240,56,32,0,
0,6,-49,-43,0,0,100,0,40,160,40,40,0,-52,-73,0,0,100,0,496,0,88,88,0,-28,-51,0,0,100,0,80,160,40,40,0,-44,-70,0,0,100,0,144,88,72,72,0,-45,-80,0,0,100,0,0,280,88,88,0,-29,-15,0,0,65,0,264,240,56,32,0,
0,14,-132,-108,0,1,100,0,600,696,168,168,0,-50,-80,0,0,90,0,0,584,144,112,0,-81,-61,0,1,100,0,72,88,72,72,0,-34,-60,2,1,100,0,680,384,120,80,0,-81,-61,0,0,100,0,72,88,72,72,0,-22,-45,0,0,100,0,160,160,40,40,0,-54,-73,0,0,100,0,584,0,88,88,0,-57,-50,0,0,100,0,120,160,40,40,0,-17,-44,0,0,100,0,40,240,48,24,0,-81,-74,0,0,100,0,0,368,136,96,0,-58,-81,0,1,100,0,680,384,120,80,0,-65,-115,0,0,100,0,304,464,152,120,0,-48,-114,0,0,70,0,304,464,152,120,0,-31,-15,0,0,65,0,264,240,56,32,0,
0,15,-132,-108,0,1,30,0,600,696,168,168,0,-95,-82,0,0,100,0,432,584,120,112,0,-53,-80,0,0,90,0,144,584,144,112,0,-83,-60,0,1,100,0,72,88,72,72,0,-41,-60,2,1,40,0,680,384,120,80,0,-83,-60,0,0,100,0,72,88,72,72,0,-22,-44,0,0,100,0,160,160,40,40,0,-54,-73,0,0,100,0,672,0,88,88,0,-58,-49,0,0,100,0,120,160,40,40,0,-20,-44,0,0,100,0,136,240,48,24,0,-83,-73,0,0,100,0,136,368,136,96,0,-62,-81,0,1,60,0,680,384,120,80,0,-65,-115,0,0,100,0,456,464,152,120,0,-43,-115,0,0,60,0,456,464,152,120,0,-31,-15,0,0,65,0,264,240,56,32,0,
0,13,-97,-82,0,0,100,0,552,584,120,112,0,-51,-80,0,0,70,0,288,584,144,112,0,-82,-60,0,1,20,0,72,88,72,72,0,-82,-60,0,0,100,0,72,88,72,72,0,-22,-44,0,0,100,0,160,160,40,40,0,-54,-73,0,0,100,0,672,0,88,88,0,-57,-49,0,0,100,0,120,160,40,40,0,-20,-42,0,0,100,0,88,264,48,24,0,-83,-73,0,0,70,0,272,368,136,96,0,-64,-81,0,1,40,0,680,384,120,80,0,-65,-115,0,0,70,0,608,464,152,120,0,-44,-116,0,0,30,0,608,464,152,120,0,-31,-15,0,0,65,0,264,240,56,32,0,
0,6,-82,-60,0,0,100,0,72,88,72,72,0,-22,-44,0,0,100,0,160,160,40,40,0,-54,-73,0,0,100,0,672,0,88,88,0,-57,-49,0,0,100,0,120,160,40,40,0,-20,-42,0,0,100,0,88,264,48,24,0,-31,-15,0,0,65,0,264,240,56,32,0,
0,6,-62,-73,0,0,100,0,320,88,88,88,0,-49,-51,0,0,100,0,200,160,40,40,0,-20,-46,0,0,100,0,128,304,48,32,0,-43,-34,0,0,100,0,288,88,32,40,0,-70,-63,0,0,100,0,144,88,72,72,0,-48,-15,0,0,65,0,264,240,56,32,0,
0,5,-69,-73,0,0,100,0,232,272,88,88,0,-18,-46,0,0,100,0,40,240,48,24,0,-29,-33,0,0,100,0,288,88,32,40,0,-56,-62,0,0,100,0,144,88,72,72,0,-48,-15,0,0,65,0,264,240,56,32,0,
0,11,-24,-74,0,1,100,0,384,696,72,96,0,-55,-74,0,1,100,0,384,696,72,96,0,-75,-63,0,1,100,0,568,384,56,80,0,-75,-60,0,0,100,0,0,696,128,72,0,-71,-73,0,0,100,0,408,88,88,88,0,-21,-45,0,0,100,0,88,240,48,24,0,-71,-59,0,1,100,0,0,464,80,72,0,-29,-32,0,0,100,0,288,88,32,40,0,-56,-61,0,0,100,0,144,88,72,72,0,-54,-62,0,1,100,0,680,384,120,80,0,-49,-15,0,0,65,0,264,240,56,32,0,
0,12,-24,-73,0,1,100,0,456,696,72,96,0,-54,-74,0,1,100,0,384,696,72,96,0,-74,-68,0,1,100,0,624,384,56,80,0,-75,-63,0,1,70,0,568,384,56,80,0,-75,-60,0,0,100,0,0,696,128,72,0,-71,-73,0,0,100,0,496,88,88,88,0,-22,-45,0,0,100,0,136,240,48,24,0,-72,-63,0,1,100,0,208,464,96,72,0,-27,-31,0,0,100,0,288,88,32,40,0,-54,-60,0,0,100,0,144,88,72,72,0,-61,-62,0,1,70,0,680,384,120,80,0,-49,-15,0,0,65,0,264,240,56,32,0,
0,10,-22,-73,0,1,50,0,528,696,72,96,0,-54,-73,0,1,100,0,456,696,72,96,0,-74,-68,0,1,40,0,624,384,56,80,0,-75,-60,0,0,100,0,128,696,128,72,0,-71,-73,0,0,100,0,496,88,88,88,0,-23,-45,0,0,100,0,88,264,48,24,0,-72,-59,0,1,50,0,0,464,80,72,0,-27,-31,0,0,100,0,288,88,32,40,0,-54,-60,0,0,100,0,144,88,72,72,0,-49,-15,0,0,65,0,264,240,56,32,0,
0,7,-30,-46,0,0,100,0,0,200,40,40,0,-64,-73,0,0,100,0,584,88,88,88,0,-41,-47,0,0,100,0,200,160,40,40,0,-18,-43,0,0,100,0,136,264,40,40,0,-36,-29,0,0,100,0,288,88,32,40,0,-63,-58,0,0,100,0,144,88,72,72,0,-49,-15,0,0,65,0,264,240,56,32,0,
0,7,-31,-46,0,0,100,0,0,200,40,40,0,-64,-73,0,0,100,0,672,88,88,88,0,-44,-45,0,0,100,0,200,160,40,40,0,-19,-43,0,0,100,0,176,264,40,40,0,-38,-28,0,0,100,0,288,88,32,40,0,-65,-57,0,0,100,0,144,88,72,72,0,-49,-15,0,0,65,0,264,240,56,32,0,
0,3,-59,-58,0,0,100,0,0,88,72,72,0,-41,-73,0,0,100,0,0,0,80,88,0,-28,-15,0,0,65,0,264,240,56,32,0,
0,9,-16,-48,0,0,100,0,240,200,40,40,0,-12,-47,0,0,100,0,280,200,40,40,0,-20,-63,0,0,100,0,760,0,40,40,0,-16,-42,0,0,100,0,672,304,32,48,0,-43,-73,0,0,100,0,320,176,88,88,0,-32,-48,0,0,100,0,280,160,40,40,0,0,-42,0,0,100,0,136,264,40,40,0,-54,-57,0,0,100,0,144,88,72,72,0,-28,-15,0,0,65,0,264,240,56,32,0,
0,9,-17,-47,0,0,100,0,240,200,40,40,0,-13,-47,0,0,100,0,280,200,40,40,0,-20,-63,0,0,100,0,760,0,40,40,0,-16,-42,0,0,100,0,672,304,32,48,0,-43,-73,0,0,100,0,320,176,88,88,0,-31,-47,0,0,100,0,280,160,40,40,0,0,-41,0,0,100,0,176,264,40,40,0,-53,-56,0,0,100,0,144,88,72,72,0,-28,-15,0,0,65,0,264,240,56,32,0,
0,9,-16,-47,0,0,100,0,240,200,40,40,0,-13,-47,0,0,100,0,280,200,40,40,0,-20,-63,0,0,100,0,760,0,40,40,0,-16,-42,0,0,100,0,672,304,32,48,0,-43,-73,0,0,100,0,320,176,88,88,0,-31,-47,0,0,100,0,280,160,40,40,0,0,-41,0,0,100,0,176,264,40,40,0,-53,-56,0,0,100,0,144,88,72,72,0,-28,-15,0,0,65,0,264,240,56,32,0,
0,9,-17,-46,0,0,100,0,240,200,40,40,0,-13,-47,0,0,100,0,280,200,40,40,0,-20,-63,0,0,100,0,760,0,40,40,0,-16,-42,0,0,100,0,672,304,32,48,0,-43,-73,0,0,100,0,320,176,88,88,0,-31,-47,0,0,100,0,280,160,40,40,0,0,-41,0,0,100,0,176,264,40,40,0,-53,-56,0,0,100,0,144,88,72,72,0,-28,-15,0,0,65,0,264,240,56,32,0,
0,10,5,-46,0,0,100,0,200,224,24,16,0,-23,-62,0,0,100,0,760,80,40,40,0,-14,-44,0,0,100,0,200,240,32,24,0,-21,-51,0,0,100,0,736,280,64,32,0,-7,-44,0,0,100,0,200,200,40,24,0,-43,-73,0,0,100,0,320,176,88,88,0,-34,-46,0,0,100,0,280,160,40,40,0,0,-42,0,0,100,0,136,264,40,40,0,-56,-55,0,0,100,0,144,88,72,72,0,-28,-15,0,0,65,0,264,240,56,32,0,
0,10,6,-46,0,0,100,0,200,224,24,16,0,-24,-62,0,0,100,0,760,40,40,40,0,-14,-44,0,0,100,0,200,240,32,24,0,-20,-51,0,0,100,0,736,280,64,32,0,-7,-44,0,0,100,0,200,200,40,24,0,-43,-73,0,0,100,0,320,176,88,88,0,-34,-46,0,0,100,0,280,160,40,40,0,1,-42,0,0,100,0,176,264,40,40,0,-56,-55,0,0,100,0,144,88,72,72,0,-28,-15,0,0,65,0,264,240,56,32,0,
0,6,-5,-50,0,0,100,0,0,240,40,40,0,-43,-73,0,0,100,0,408,176,88,88,0,-31,-47,0,0,100,0,280,160,40,40,0,0,-41,0,0,100,0,176,264,40,40,0,-53,-56,0,0,100,0,144,88,72,72,0,-28,-15,0,0,65,0,264,240,56,32,0,
0,6,-3,-49,0,0,100,0,0,240,40,40,0,-43,-73,0,0,100,0,496,176,88,88,0,-29,-46,0,0,100,0,280,160,40,40,0,0,-40,0,0,100,0,176,264,40,40,0,-51,-55,0,0,100,0,144,88,72,72,0,-28,-15,0,0,65,0,264,240,56,32,0,
0,6,-3,-48,0,0,100,0,0,240,40,40,0,-43,-73,0,0,100,0,584,176,88,88,0,-29,-46,0,0,100,0,280,160,40,40,0,0,-40,0,0,100,0,176,264,40,40,0,-51,-55,0,0,100,0,144,88,72,72,0,-28,-15,0,0,65,0,264,240,56,32,0,
0,9,-56,-55,0,0,100,0,216,88,72,72,0,-7,-55,0,0,100,0,80,200,40,40,0,-20,-62,0,0,100,0,760,160,40,40,0,-35,-47,0,0,100,0,40,200,40,40,0,-15,-43,0,0,100,0,232,240,32,24,0,-13,-48,0,0,100,0,704,304,32,48,0,-45,-72,0,0,100,0,672,176,88,88,0,-3,-39,0,0,100,0,88,288,40,40,0,-28,-15,0,0,65,0,264,240,56,32,0,
0,9,-56,-52,0,0,100,0,216,88,72,72,0,-8,-56,0,0,100,0,80,200,40,40,0,-20,-62,0,0,100,0,760,160,40,40,0,-35,-47,0,0,100,0,40,200,40,40,0,-15,-43,0,0,100,0,232,240,32,24,0,-13,-48,0,0,100,0,704,304,32,48,0,-45,-72,0,0,100,0,672,176,88,88,0,-3,-39,0,0,100,0,88,288,40,40,0,-28,-15,0,0,65,0,264,240,56,32,0,
0,9,-56,-53,0,0,100,0,216,88,72,72,0,-8,-56,0,0,100,0,80,200,40,40,0,-20,-62,0,0,100,0,760,160,40,40,0,-35,-47,0,0,100,0,40,200,40,40,0,-15,-43,0,0,100,0,232,240,32,24,0,-13,-48,0,0,100,0,704,304,32,48,0,-45,-72,0,0,100,0,672,176,88,88,0,-3,-39,0,0,100,0,88,288,40,40,0,-28,-15,0,0,65,0,264,240,56,32,0,
0,9,-56,-53,0,0,100,0,216,88,72,72,0,-8,-56,0,0,100,0,80,200,40,40,0,-19,-62,0,0,100,0,760,200,40,40,0,-35,-47,0,0,100,0,40,200,40,40,0,-15,-43,0,0,100,0,232,240,32,24,0,-13,-48,0,0,100,0,704,304,32,48,0,-45,-72,0,0,100,0,672,176,88,88,0,-3,-39,0,0,100,0,88,288,40,40,0,-28,-15,0,0,65,0,264,240,56,32,0,
0,9,-56,-53,0,0,100,0,216,88,72,72,0,-8,-56,0,0,100,0,80,200,40,40,0,-19,-62,0,0,100,0,760,240,40,40,0,-35,-47,0,0,100,0,40,200,40,40,0,-15,-43,0,0,100,0,232,240,32,24,0,-13,-48,0,0,100,0,704,304,32,48,0,-45,-72,0,0,100,0,672,176,88,88,0,-3,-39,0,0,100,0,88,288,40,40,0,-28,-15,0,0,65,0,264,240,56,32,0,
0,9,-56,-53,0,0,100,0,216,88,72,72,0,-6,-51,0,0,100,0,120,200,40,40,0,-19,-62,0,0,100,0,760,200,40,40,0,-35,-47,0,0,100,0,40,200,40,40,0,-15,-43,0,0,100,0,232,240,32,24,0,-12,-48,0,0,100,0,704,304,32,48,0,-45,-72,0,0,100,0,672,176,88,88,0,-3,-39,0,0,100,0,88,288,40,40,0,-28,-15,0,0,65,0,264,240,56,32,0,
0,9,-56,-53,0,0,100,0,216,88,72,72,0,-19,-61,0,0,100,0,760,120,40,40,0,-35,-47,0,0,100,0,40,200,40,40,0,-15,-43,0,0,100,0,232,240,32,24,0,-17,-46,0,0,100,0,736,312,56,40,0,-45,-72,0,0,100,0,672,176,88,88,0,-11,-43,0,0,100,0,160,200,40,40,0,-2,-38,0,0,100,0,88,288,40,40,0,-28,-15,0,0,65,0,264,240,56,32,0,
0,9,-56,-53,0,0,100,0,216,88,72,72,0,-19,-61,0,0,100,0,760,120,40,40,0,-15,-43,0,0,100,0,232,240,32,24,0,-12,-48,0,0,100,0,624,352,56,32,0,-35,-47,0,0,100,0,40,200,40,40,0,-45,-72,0,0,100,0,320,264,88,88,0,-11,-43,0,0,100,0,160,200,40,40,0,-1,-45,0,0,100,0,128,304,48,32,0,-28,-15,0,0,65,0,264,240,56,32,0,
0,9,-56,-53,0,0,100,0,216,88,72,72,0,-19,-61,0,0,100,0,760,120,40,40,0,-15,-43,0,0,100,0,232,240,32,24,0,-12,-48,0,0,100,0,680,352,56,32,0,-35,-47,0,0,100,0,40,200,40,40,0,-45,-72,0,0,100,0,408,264,88,88,0,-11,-43,0,0,100,0,160,200,40,40,0,-1,-45,0,0,100,0,176,304,48,32,0,-28,-15,0,0,65,0,264,240,56,32,0,
0,9,-56,-53,0,0,100,0,216,88,72,72,0,-19,-61,0,0,100,0,760,120,40,40,0,-15,-43,0,0,100,0,232,240,32,24,0,-12,-48,0,0,100,0,736,352,56,32,0,-35,-47,0,0,100,0,40,200,40,40,0,-45,-72,0,0,100,0,496,264,88,88,0,-11,-43,0,0,100,0,160,200,40,40,0,-1,-45,0,0,100,0,128,336,48,32,0,-28,-15,0,0,65,0,264,240,56,32,0,
0,9,-56,-53,0,0,100,0,216,88,72,72,0,-19,-61,0,0,100,0,760,120,40,40,0,-15,-43,0,0,100,0,232,240,32,24,0,-12,-48,0,0,100,0,568,352,56,32,0,-35,-47,0,0,100,0,40,200,40,40,0,-45,-72,0,0,100,0,584,264,88,88,0,-11,-43,0,0,100,0,160,200,40,40,0,-1,-45,0,0,100,0,176,336,48,32,0,-28,-15,0,0,65,0,264,240,56,32,0,
0,7,-53,-73,0,1,100,0,528,696,72,96,0,-75,-60,0,0,50,0,256,696,128,72,0,-71,-73,0,0,100,0,496,88,88,88,0,-23,-45,0,0,100,0,88,264,48,24,0,-27,-31,0,0,100,0,288,88,32,40,0,-54,-60,0,0,100,0,144,88,72,72,0,-49,-15,0,0,65,0,264,240,56,32,0,
0,9,-50,-80,0,0,30,0,288,584,144,112,0,-93,-83,0,0,50,0,672,584,120,112,0,-82,-60,0,0,100,0,72,88,72,72,0,-22,-44,0,0,100,0,160,160,40,40,0,-54,-73,0,0,100,0,672,0,88,88,0,-57,-49,0,0,100,0,120,160,40,40,0,-20,-42,0,0,100,0,88,264,48,24,0,-65,-115,0,0,40,0,608,464,152,120,0,-31,-15,0,0,65,0,264,240,56,32,0,
0,5,-71,-73,0,0,100,0,496,88,88,88,0,-23,-45,0,0,100,0,136,240,48,24,0,-27,-31,0,0,100,0,288,88,32,40,0,-54,-60,0,0,100,0,144,88,72,72,0,-49,-15,0,0,65,0,264,240,56,32,0,
