0,11,-38,-51,0,1,80,0,1096,376,32,32,0,-58,-35,0,1,80,0,1040,376,56,48,0,-32,-57,0,0,100,0,728,312,24,24,0,-58,-74,0,0,100,0,912,312,64,96,0,-58,-74,0,0,70,0,624,456,64,96,0,-76,-62,0,0,80,0,912,520,144,80,0,-77,-87,0,0,100,0,0,0,144,104,0,-69,-61,0,0,100,0,0,456,160,72,0,-69,-61,0,0,70,0,0,544,160,72,0,-58,-30,0,0,80,0,920,424,120,48,0,-31,-16,0,0,65,0,1128,376,64,32,0,
0,11,-38,-51,0,1,60,0,1096,376,32,32,0,-58,-35,0,1,100,0,1040,376,56,48,0,-32,-57,0,0,100,0,728,312,24,24,0,-58,-74,0,0,100,0,912,312,64,96,0,-58,-74,0,0,70,0,688,456,64,96,0,-76,-62,0,0,80,0,1056,520,144,80,0,-77,-87,0,0,100,0,144,0,144,104,0,-69,-61,0,0,100,0,0,456,160,72,0,-69,-61,0,0,70,0,160,544,160,72,0,-58,-30,0,0,80,0,1040,424,120,48,0,-31,-16,0,0,65,0,1128,376,64,32,0,
0,11,-38,-50,0,1,40,0,1096,376,32,32,0,-58,-34,0,1,80,0,1040,376,56,48,0,-32,-56,0,0,100,0,728,312,24,24,0,-58,-73,0,0,100,0,912,312,64,96,0,-58,-73,0,0,70,0,624,552,64,96,0,-76,-62,0,0,80,0,912,600,144,80,0,-77,-87,0,0,100,0,288,0,144,104,0,-69,-60,0,0,100,0,0,456,160,72,0,-69,-60,0,0,70,0,0,616,160,72,0,-58,-30,0,0,80,0,920,472,120,48,0,-31,-16,0,0,65,0,1128,376,64,32,0,
0,11,-38,-51,0,1,60,0,1096,376,32,32,0,-58,-35,0,1,60,0,1040,376,56,48,0,-32,-57,0,0,100,0,728,312,24,24,0,-58,-74,0,0,100,0,912,312,64,96,0,-58,-74,0,0,70,0,688,552,64,96,0,-76,-62,0,0,80,0,1056,600,144,80,0,-77,-87,0,0,100,0,432,0,144,104,0,-69,-61,0,0,100,0,0,456,160,72,0,-69,-61,0,0,70,0,160,616,160,72,0,-58,-30,0,0,80,0,1040,472,120,48,0,-31,-16,0,0,65,0,1128,376,64,32,0,
0,9,-38,-35,0,0,100,0,728,408,24,24,0,-47,-60,0,0,100,0,1120,312,80,64,0,-50,-60,0,0,60,0,832,456,88,64,0,-74,-88,0,0,100,0,576,0,144,104,0,-90,-76,0,0,100,0,248,312,80,72,0,-31,-97,0,0,100,0,248,384,80,72,0,-61,-79,0,0,100,0,0,456,160,72,0,-61,-79,0,0,70,0,0,544,160,72,0,-31,-16,0,0,65,0,1128,376,64,32,0,
0,9,-12,-54,0,0,100,0,792,392,40,40,0,-74,-80,0,0,100,0,248,312,80,72,0,-72,-90,0,0,100,0,864,208,144,104,0,-51,-90,0,0,100,0,328,312,80,72,0,-29,-102,0,0,100,0,976,312,64,96,0,-38,-91,0,0,70,0,832,520,80,80,0,-72,-65,0,0,100,0,0,456,160,72,0,-72,-65,0,0,70,0,0,544,160,72,0,-31,-16,0,0,65,0,1128,376,64,32,0,
0,9,-10,-54,0,0,100,0,792,392,40,40,0,-71,-80,0,0,100,0,248,312,80,72,0,-71,-90,0,0,100,0,1008,208,144,104,0,-51,-91,0,0,100,0,328,312,80,72,0,-27,-102,0,0,100,0,976,312,64,96,0,-36,-91,0,0,70,0,832,600,80,80,0,-73,-66,0,0,100,0,0,456,160,72,0,-73,-66,0,0,70,0,160,544,160,72,0,-31,-16,0,0,65,0,1128,376,64,32,0,
0,9,-9,-55,0,0,100,0,792,392,40,40,0,-70,-80,0,0,100,0,248,312,80,72,0,-71,-90,0,0,100,0,1008,208,144,104,0,-52,-91,0,0,100,0,328,312,80,72,0,-27,-103,0,0,100,0,976,312,64,96,0,-36,-92,0,0,70,0,832,520,80,80,0,-74,-66,0,0,100,0,0,456,160,72,0,-74,-66,0,0,70,0,0,544,160,72,0,-31,-16,0,0,65,0,1128,376,64,32,0,
0,14,-29,-32,0,0,100,0,728,336,24,24,0,-179,-30,0,0,100,0,0,760,176,64,0,-109,-61,0,0,100,0,160,456,160,88,0,-108,-57,0,0,70,0,320,544,160,72,0,-39,-44,0,0,100,0,752,312,40,40,0,-34,-73,1,0,100,0,248,312,80,72,0,-91,-60,0,0,100,0,720,0,144,64,0,-87,-33,0,0,100,0,720,64,144,40,0,-58,-85,1,0,100,0,328,312,80,72,0,-44,-57,0,0,100,0,832,352,40,40,0,-179,-102,0,0,100,0,0,688,176,72,0,-76,-88,0,0,100,0,1040,312,80,64,0,-76,-88,0,0,70,0,752,456,80,64,0,-41,-16,0,0,65,0,1128,376,64,32,0,
0,16,-183,-134,0,1,100,0,600,1064,136,184,0,-185,-136,0,1,100,0,600,1064,136,184,0,-206,-127,0,0,100,0,0,824,168,152,0,-29,-32,0,0,100,0,728,336,24,24,0,-111,-61,0,0,100,0,160,456,160,88,0,-110,-57,0,0,70,0,320,616,160,72,0,-41,-44,0,0,100,0,752,312,40,40,0,-36,-72,1,0,100,0,248,312,80,72,0,-92,-60,0,0,100,0,864,0,144,64,0,-87,-33,0,0,100,0,864,64,144,40,0,-59,-86,1,0,100,0,328,312,80,72,0,-43,-57,0,0,100,0,832,352,40,40,0,-179,-102,0,0,100,0,176,688,176,136,0,-75,-88,0,0,100,0,1040,312,80,64,0,-75,-88,0,0,70,0,752,520,80,64,0,-41,-16,0,0,65,0,1128,376,64,32,0,
0,17,-182,-136,0,1,100,0,736,1064,136,184,0,-184,-138,0,1,100,0,736,1064,136,184,0,-206,-130,0,0,100,0,168,824,168,152,0,-236,-138,0,0,100,0,0,824,168,152,0,-29,-32,0,0,100,0,728,336,24,24,0,-111,-61,0,0,100,0,160,456,160,88,0,-110,-57,0,0,70,0,320,544,160,72,0,-41,-44,0,0,100,0,752,312,40,40,0,-35,-72,1,0,100,0,248,312,80,72,0,-92,-60,0,0,100,0,720,0,144,64,0,-87,-33,0,0,100,0,864,64,144,40,0,-60,-86,1,0,100,0,328,312,80,72,0,-43,-57,0,0,100,0,832,352,40,40,0,-179,-102,0,0,100,0,352,688,176,136,0,-75,-88,0,0,100,0,1040,312,80,64,0,-75,-88,0,0,70,0,752,456,80,64,0,-41,-16,0,0,65,0,1128,376,64,32,0,
0,19,-184,-138,0,1,100,0,872,1072,136,184,0,-231,-141,0,1,100,0,600,1064,136,184,0,-230,-140,0,1,100,0,600,1064,136,184,0,-209,-125,0,0,100,0,336,824,168,152,0,-236,-141,0,0,100,0,168,824,168,152,0,-29,-32,0,0,100,0,728,336,24,24,0,-111,-61,0,0,100,0,160,456,160,88,0,-111,-57,0,0,70,0,320,616,160,72,0,-41,-44,0,0,100,0,752,312,40,40,0,-36,-72,1,0,100,0,248,312,80,72,0,-92,-60,0,0,100,0,864,0,144,64,0,-87,-33,0,0,100,0,864,64,144,40,0,-59,-86,1,0,100,0,328,312,80,72,0,-43,-57,0,0,100,0,832,352,40,40,0,-179,-102,0,0,50,0,352,688,176,136,0,-75,-88,0,0,100,0,1040,312,80,64,0,-75,-88,0,0,70,0,752,520,80,64,0,-200,-145,0,0,100,0,0,824,168,152,0,-41,-16,0,0,65,0,1128,376,64,32,0,
0,18,-223,-172,2,1,100,270,600,1064,136,184,0,-221,-171,2,1,100,270,600,1064,136,184,0,-230,-143,0,1,100,0,736,1064,136,184,0,-210,-125,0,0,50,0,336,824,168,152,0,-239,-136,0,0,100,0,336,824,168,152,0,-29,-32,0,0,100,0,728,336,24,24,0,-111,-61,0,0,100,0,160,456,160,88,0,-110,-57,0,0,70,0,320,544,160,72,0,-41,-44,0,0,100,0,752,312,40,40,0,-35,-72,1,0,100,0,248,312,80,72,0,-92,-60,0,0,100,0,720,0,144,64,0,-87,-33,0,0,100,0,864,64,144,40,0,-60,-86,1,0,100,0,328,312,80,72,0,-43,-57,0,0,100,0,832,352,40,40,0,-75,-88,0,0,100,0,1040,312,80,64,0,-75,-88,0,0,70,0,752,456,80,64,0,-200,-148,0,0,100,0,168,824,168,152,0,-41,-16,0,0,65,0,1128,376,64,32,0,
0,16,-222,-174,2,1,100,270,736,1064,136,184,0,-230,-143,0,1,100,0,872,1072,136,184,0,-240,-136,0,0,50,0,336,824,168,152,0,-29,-32,0,0,100,0,728,336,24,24,0,-111,-61,0,0,100,0,160,456,160,88,0,-111,-57,0,0,70,0,320,616,160,72,0,-41,-44,0,0,100,0,752,312,40,40,0,-36,-72,1,0,100,0,248,312,80,72,0,-92,-60,0,0,100,0,864,0,144,64,0,-87,-33,0,0,100,0,864,64,144,40,0,-59,-86,1,0,100,0,328,312,80,72,0,-43,-57,0,0,100,0,832,352,40,40,0,-75,-88,0,0,100,0,1040,312,80,64,0,-75,-88,0,0,70,0,752,520,80,64,0,-203,-143,0,0,100,0,336,824,168,152,0,-41,-16,0,0,65,0,1128,376,64,32,0,
0,14,-222,-174,2,1,100,270,872,1072,136,184,0,-29,-32,0,0,100,0,728,336,24,24,0,-111,-61,0,0,100,0,160,456,160,88,0,-110,-57,0,0,70,0,320,544,160,72,0,-41,-44,0,0,100,0,752,312,40,40,0,-35,-72,1,0,100,0,248,312,80,72,0,-92,-60,0,0,100,0,720,0,144,64,0,-87,-33,0,0,100,0,864,64,144,40,0,-60,-86,1,0,100,0,328,312,80,72,0,-43,-57,0,0,100,0,832,352,40,40,0,-75,-88,0,0,100,0,1040,312,80,64,0,-75,-88,0,0,70,0,752,456,80,64,0,-204,-143,0,0,50,0,336,824,168,152,0,-41,-16,0,0,65,0,1128,376,64,32,0,
0,12,-29,-32,0,0,100,0,728,336,24,24,0,-111,-61,0,0,100,0,160,456,160,88,0,-111,-57,0,0,70,0,320,616,160,72,0,-41,-44,0,0,100,0,752,312,40,40,0,-36,-72,1,0,100,0,248,312,80,72,0,-92,-60,0,0,100,0,864,0,144,64,0,-87,-33,0,0,100,0,864,64,144,40,0,-59,-86,1,0,100,0,328,312,80,72,0,-43,-57,0,0,100,0,832,352,40,40,0,-75,-88,0,0,100,0,1040,312,80,64,0,-75,-88,0,0,70,0,752,520,80,64,0,-41,-16,0,0,65,0,1128,376,64,32,0,
0,11,-15,-64,0,0,100,0,728,384,24,24,0,-46,-117,0,0,100,0,976,312,64,96,0,-55,-106,0,0,70,0,832,520,80,80,0,-19,-73,0,0,100,0,752,392,40,40,0,-52,-107,0,0,100,0,1008,0,144,104,0,5,-81,0,0,100,0,792,352,40,40,0,-60,-102,0,0,100,0,248,312,80,72,0,-29,-118,0,0,100,0,328,312,80,72,0,-42,-111,0,0,100,0,320,456,160,88,0,-36,-117,0,0,70,0,480,456,144,104,0,-17,-16,0,0,65,0,1128,376,64,32,0,
0,14,50,-218,0,1,100,0,0,976,144,184,0,26,-94,0,0,100,0,728,384,24,24,0,-5,-147,0,0,100,0,976,312,64,96,0,-15,-137,0,0,70,0,832,600,80,80,0,22,-103,0,0,100,0,752,392,40,40,0,-11,-137,0,0,100,0,1008,0,144,104,0,46,-111,0,0,100,0,792,352,40,40,0,-19,-132,0,0,100,0,248,312,80,72,0,12,-148,0,0,100,0,328,312,80,72,0,-7,-166,3,1,100,0,528,680,176,144,0,-7,-166,3,1,100,0,528,680,176,144,0,-1,-141,0,0,100,0,320,456,160,88,0,6,-149,0,0,70,0,480,560,144,104,0,26,-16,0,0,65,0,1128,376,64,32,0,
0,13,48,-218,0,1,100,0,288,976,144,184,0,30,-97,0,0,100,0,728,384,24,24,0,-1,-150,0,0,100,0,976,312,64,96,0,-10,-139,0,0,70,0,832,520,80,80,0,26,-106,0,0,100,0,752,392,40,40,0,-8,-139,0,0,100,0,1008,0,144,104,0,47,-112,0,0,100,0,792,352,40,40,0,-16,-134,0,0,100,0,248,312,80,72,0,15,-150,0,0,100,0,328,312,80,72,0,-7,-166,3,1,100,0,704,680,176,144,0,0,-142,0,0,100,0,320,456,160,88,0,6,-147,0,0,70,0,480,456,144,104,0,28,-16,0,0,65,0,1128,376,64,32,0,
0,16,-180,-99,0,0,100,0,432,1064,168,168,0,-174,-121,0,0,100,270,0,976,144,184,0,-150,-120,0,0,30,0,528,680,176,144,0,-57,-127,0,0,80,0,504,1248,120,96,0,-59,-53,0,0,100,0,728,360,24,24,0,-137,-82,0,0,100,0,160,456,160,88,0,-136,-78,0,0,70,0,320,544,160,72,0,-58,-107,0,0,100,0,328,384,80,72,0,-61,-66,0,0,100,0,752,352,40,40,0,-50,-70,0,0,100,0,288,168,72,40,0,-78,-60,0,0,100,0,144,168,144,40,0,-86,-88,0,0,100,0,144,104,144,64,0,-51,-119,0,0,100,0,624,1248,80,72,0,-66,-105,0,0,100,0,1040,312,80,64,0,-66,-105,0,0,70,0,752,456,80,64,0,-39,-16,0,0,65,0,1128,376,64,32,0,
0,17,-158,-135,0,1,100,0,1056,680,112,208,0,-174,-121,0,0,100,270,144,976,144,184,0,-150,-120,0,0,100,0,704,680,176,144,0,-197,-111,0,0,90,0,1008,1072,192,184,0,-57,-127,0,0,20,0,504,1248,120,96,0,-62,-51,0,0,100,0,728,360,24,24,0,-140,-80,0,0,100,0,160,456,160,88,0,-139,-76,0,0,70,0,320,616,160,72,0,-61,-106,0,0,100,0,328,384,80,72,0,-64,-64,0,0,100,0,752,352,40,40,0,-52,-70,0,0,100,0,360,168,72,40,0,-79,-60,0,0,100,0,144,168,144,40,0,-88,-87,0,0,100,0,288,104,144,64,0,-52,-117,0,0,100,0,624,1248,80,72,0,-67,-104,0,0,100,0,1040,312,80,64,0,-67,-104,0,0,70,0,752,520,80,64,0,-39,-16,0,0,65,0,1128,376,64,32,0,
0,18,-155,-105,1,1,100,0,504,824,112,240,0,-155,-191,1,1,100,0,504,824,112,240,0,-155,-151,0,1,100,0,504,824,112,240,0,-176,-121,0,0,100,270,288,976,144,184,0,-150,-120,0,0,100,0,880,680,176,144,0,-197,-111,0,0,80,0,1008,1072,192,184,0,-62,-51,0,0,100,0,728,360,24,24,0,-140,-80,0,0,100,0,160,456,160,88,0,-139,-76,0,0,70,0,320,544,160,72,0,-62,-106,0,0,100,0,328,384,80,72,0,-64,-64,0,0,100,0,752,352,40,40,0,-52,-69,0,0,100,0,288,168,72,40,0,-79,-60,0,0,100,0,144,168,144,40,0,-88,-87,0,0,100,0,144,104,144,64,0,-51,-117,0,0,100,0,624,1248,80,72,0,-67,-104,0,0,100,0,1040,312,80,64,0,-67,-104,0,0,70,0,752,456,80,64,0,-39,-16,0,0,65,0,1128,376,64,32,0,
0,21,-121,51,3,1,100,0,856,824,40,88,0,-120,-203,1,1,100,0,856,824,40,88,0,-182,-151,0,1,100,0,616,824,168,240,0,-199,-80,3,1,100,90,1056,680,112,208,0,-174,-121,0,0,100,0,0,976,144,184,0,-178,-119,0,0,100,270,984,888,144,184,0,-150,-120,0,0,100,0,528,680,176,144,0,-197,-111,0,0,60,90,1008,1072,192,184,0,-57,-127,0,0,100,0,504,1248,120,96,0,-62,-51,0,0,100,0,728,360,24,24,0,-140,-80,0,0,100,0,160,456,160,88,0,-139,-76,0,0,70,0,320,616,160,72,0,-61,-106,0,0,100,0,328,384,80,72,0,-64,-64,0,0,100,0,752,352,40,40,0,-52,-70,0,0,100,0,360,168,72,40,0,-79,-60,0,0,100,0,144,168,144,40,0,-88,-87,0,0,100,0,288,104,144,64,0,-52,-117,0,0,100,0,624,1248,80,72,0,-67,-104,0,0,100,0,1040,312,80,64,0,-67,-104,0,0,70,0,752,520,80,64,0,-39,-16,0,0,65,0,1128,376,64,32,0,
0,20,-118,-205,3,1,100,90,800,936,56,32,0,-118,83,3,1,100,270,800,936,56,32,0,-198,-151,0,1,100,0,784,824,200,240,0,-215,-82,3,1,100,90,504,824,112,240,0,-174,-121,0,0,100,0,144,976,144,184,0,-150,-120,0,0,100,0,704,680,176,144,0,-197,-118,2,0,70,0,1008,1072,192,184,0,-57,-127,0,0,40,0,504,1248,120,96,0,-62,-51,0,0,100,0,728,360,24,24,0,-140,-80,0,0,100,0,160,456,160,88,0,-139,-76,0,0,70,0,320,544,160,72,0,-62,-106,0,0,100,0,328,384,80,72,0,-64,-64,0,0,100,0,752,352,40,40,0,-52,-69,0,0,100,0,288,168,72,40,0,-79,-60,0,0,100,0,144,168,144,40,0,-88,-87,0,0,100,0,144,104,144,64,0,-51,-117,0,0,100,0,624,1248,80,72,0,-67,-104,0,0,100,0,1040,312,80,64,0,-67,-104,0,0,70,0,752,456,80,64,0,-39,-16,0,0,65,0,1128,376,64,32,0,
0,19,-151,-76,1,1,100,90,1056,680,112,208,0,-270,-75,0,1,100,90,1056,680,112,208,0,-214,-102,3,1,100,90,616,824,168,240,0,-176,-121,0,0,100,0,288,976,144,184,0,-150,-120,0,0,100,0,880,680,176,144,0,-193,-117,0,0,80,180,1008,1072,192,184,0,-57,-127,0,0,60,0,504,1248,120,96,0,-62,-51,0,0,100,0,728,360,24,24,0,-140,-80,0,0,100,0,160,456,160,88,0,-139,-76,0,0,70,0,320,616,160,72,0,-61,-106,0,0,100,0,328,384,80,72,0,-64,-64,0,0,100,0,752,352,40,40,0,-52,-70,0,0,100,0,360,168,72,40,0,-79,-60,0,0,100,0,144,168,144,40,0,-88,-87,0,0,100,0,288,104,144,64,0,-52,-117,0,0,100,0,624,1248,80,72,0,-67,-104,0,0,100,0,1040,312,80,64,0,-67,-104,0,0,70,0,752,520,80,64,0,-39,-16,0,0,65,0,1128,376,64,32,0,
0,19,-122,-76,0,1,100,0,400,1232,104,104,0,-7,-40,3,1,100,270,856,824,40,88,0,-275,-45,1,1,100,90,856,824,40,88,0,-213,-119,3,1,100,90,784,824,200,240,0,-178,-119,0,0,100,0,984,888,144,184,0,-150,-120,0,0,100,0,528,680,176,144,0,-193,-117,0,0,90,180,1008,1072,192,184,0,-62,-51,0,0,100,0,728,360,24,24,0,-140,-80,0,0,100,0,160,456,160,88,0,-139,-76,0,0,70,0,320,544,160,72,0,-62,-106,0,0,100,0,328,384,80,72,0,-64,-64,0,0,100,0,752,352,40,40,0,-52,-69,0,0,100,0,288,168,72,40,0,-79,-60,0,0,100,0,144,168,144,40,0,-88,-87,0,0,100,0,144,104,144,64,0,-51,-117,0,0,100,0,624,1248,80,72,0,-67,-104,0,0,100,0,1040,312,80,64,0,-67,-104,0,0,70,0,752,456,80,64,0,-39,-16,0,0,65,0,1128,376,64,32,0,
0,17,-122,-76,0,1,50,0,400,1232,104,104,0,-147,-98,0,1,100,0,400,1232,104,104,0,-178,-119,0,0,50,0,984,888,144,184,0,-150,-120,0,0,100,0,704,680,176,144,0,-193,-117,0,0,70,180,1008,1072,192,184,0,-62,-51,0,0,100,0,728,360,24,24,0,-140,-80,0,0,100,0,160,456,160,88,0,-139,-76,0,0,70,0,320,616,160,72,0,-61,-106,0,0,100,0,328,384,80,72,0,-64,-64,0,0,100,0,752,352,40,40,0,-52,-70,0,0,100,0,360,168,72,40,0,-79,-60,0,0,100,0,144,168,144,40,0,-88,-87,0,0,100,0,288,104,144,64,0,-52,-117,0,0,100,0,624,1248,80,72,0,-67,-104,0,0,100,0,1040,312,80,64,0,-67,-104,0,0,70,0,752,520,80,64,0,-39,-16,0,0,65,0,1128,376,64,32,0,
0,16,-147,-98,0,1,50,0,400,1232,104,104,0,-141,-77,0,1,100,0,400,1232,104,104,0,-150,-120,0,0,50,0,880,680,176,144,0,-193,-117,0,0,40,-90,1008,1072,192,184,0,-62,-51,0,0,100,0,728,360,24,24,0,-140,-80,0,0,100,0,160,456,160,88,0,-139,-76,0,0,70,0,320,544,160,72,0,-62,-106,0,0,100,0,328,384,80,72,0,-64,-64,0,0,100,0,752,352,40,40,0,-52,-69,0,0,100,0,288,168,72,40,0,-79,-60,0,0,100,0,144,168,144,40,0,-88,-87,0,0,100,0,144,104,144,64,0,-51,-117,0,0,100,0,624,1248,80,72,0,-67,-104,0,0,100,0,1040,312,80,64,0,-67,-104,0,0,70,0,752,456,80,64,0,-39,-16,0,0,65,0,1128,376,64,32,0,
0,14,-141,-77,0,1,45,0,400,1232,104,104,0,-193,-117,0,0,30,180,1008,1072,192,184,0,-62,-51,0,0,100,0,728,360,24,24,0,-140,-80,0,0,100,0,160,456,160,88,0,-139,-76,0,0,70,0,320,616,160,72,0,-61,-106,0,0,100,0,328,384,80,72,0,-64,-64,0,0,100,0,752,352,40,40,0,-52,-70,0,0,100,0,360,168,72,40,0,-79,-60,0,0,100,0,144,168,144,40,0,-88,-87,0,0,100,0,288,104,144,64,0,-52,-117,0,0,100,0,624,1248,80,72,0,-67,-104,0,0,100,0,1040,312,80,64,0,-67,-104,0,0,70,0,752,520,80,64,0,-39,-16,0,0,65,0,1128,376,64,32,0,
0,14,-141,-77,0,1,40,0,400,1232,104,104,0,-193,-117,0,0,15,180,1008,1072,192,184,0,-62,-51,0,0,100,0,728,360,24,24,0,-140,-80,0,0,100,0,160,456,160,88,0,-139,-76,0,0,70,0,320,616,160,72,0,-61,-106,0,0,100,0,328,384,80,72,0,-64,-64,0,0,100,0,752,352,40,40,0,-52,-70,0,0,100,0,360,168,72,40,0,-79,-60,0,0,100,0,144,168,144,40,0,-88,-87,0,0,100,0,288,104,144,64,0,-52,-117,0,0,100,0,624,1248,80,72,0,-67,-104,0,0,100,0,1040,312,80,64,0,-67,-104,0,0,70,0,752,520,80,64,0,-39,-16,0,0,65,0,1128,376,64,32,0,
0,9,-32,-57,0,0,100,0,728,312,24,24,0,-58,-74,0,0,50,0,912,312,64,96,0,-58,-74,0,0,30,0,624,456,64,96,0,-76,-62,0,0,30,0,912,520,144,80,0,-77,-87,0,0,100,0,0,0,144,104,0,-69,-61,0,0,50,0,0,456,160,72,0,-69,-61,0,0,30,0,0,544,160,72,0,-58,-30,0,0,50,0,920,424,120,48,0,-31,-16,0,0,65,0,1128,376,64,32,0,
0,6,-48,-128,0,0,50,0,304,1160,96,152,0,-73,-87,0,0,100,0,720,104,144,104,0,-12,-81,0,0,100,0,488,384,80,72,0,-71,-79,0,0,100,0,408,384,80,72,0,-43,-86,0,0,100,0,160,384,88,72,0,-31,-16,0,0,65,0,1128,376,64,32,0,
0,6,-48,-128,0,0,100,0,304,1160,96,152,0,-73,-87,0,0,100,0,576,104,144,104,0,-6,-83,0,0,100,0,488,312,80,72,0,-71,-82,0,0,100,0,408,312,80,72,0,-43,-86,0,0,100,0,160,312,88,72,0,-31,-16,0,0,65,0,1128,376,64,32,0,
0,7,-52,-147,0,0,100,0,200,1160,104,176,0,-35,-92,0,0,100,0,0,312,72,72,0,-73,-87,0,0,100,0,432,104,144,104,0,-6,-84,0,0,100,0,488,312,80,72,0,-71,-83,0,0,100,0,408,312,80,72,0,-43,-86,0,0,100,0,72,312,88,72,0,-31,-16,0,0,65,0,1128,376,64,32,0,
0,7,-52,-147,0,0,100,0,200,1160,104,176,0,-35,-92,0,0,100,0,0,384,72,72,0,-73,-87,0,0,100,0,432,104,144,104,0,-71,-83,0,0,100,0,568,312,80,72,0,-6,-84,0,0,100,0,648,312,80,72,0,-43,-86,0,0,100,0,72,384,88,72,0,-31,-16,0,0,65,0,1128,376,64,32,0,
0,7,-58,-148,0,0,80,0,88,1160,112,176,0,-35,-92,0,0,100,0,0,312,72,72,0,-73,-87,0,0,100,0,432,104,144,104,0,-6,-84,0,0,100,0,488,312,80,72,0,-71,-83,0,0,100,0,408,312,80,72,0,-43,-86,0,0,100,0,72,312,88,72,0,-31,-16,0,0,65,0,1128,376,64,32,0,
0,7,-58,-148,0,0,50,0,88,1160,112,176,0,-35,-92,0,0,100,0,0,384,72,72,0,-73,-87,0,0,100,0,432,104,144,104,0,-71,-83,0,0,100,0,568,312,80,72,0,-6,-84,0,0,100,0,648,312,80,72,0,-43,-86,0,0,100,0,72,384,88,72,0,-31,-16,0,0,65,0,1128,376,64,32,0,
0,6,-44,-154,0,0,50,0,0,1160,88,136,0,-73,-87,0,0,100,0,576,104,144,104,0,-6,-83,0,0,100,0,488,312,80,72,0,-71,-82,0,0,100,0,408,312,80,72,0,-43,-86,0,0,100,0,160,312,88,72,0,-31,-16,0,0,65,0,1128,376,64,32,0,
0,6,-44,-154,0,0,30,0,0,1160,88,136,0,-73,-87,0,0,100,0,720,104,144,104,0,-12,-81,0,0,100,0,488,384,80,72,0,-71,-79,0,0,100,0,408,384,80,72,0,-43,-86,0,0,100,0,160,384,88,72,0,-31,-16,0,0,65,0,1128,376,64,32,0,
0,4,-73,-87,0,0,100,0,864,104,144,104,0,-10,-70,0,0,100,0,648,384,80,72,0,-69,-73,0,0,100,0,568,384,80,72,0,-31,-16,0,0,65,0,1128,376,64,32,0,
0,4,-73,-87,0,0,100,0,1008,104,144,104,0,-4,-79,1,0,100,0,248,312,80,72,0,-24,-91,1,0,100,0,328,312,80,72,0,-31,-16,0,0,65,0,1128,376,64,32,0,
0,4,-6,-79,1,0,100,0,248,312,80,72,0,-73,-87,0,0,100,0,0,208,144,104,0,-23,-91,1,0,100,0,328,312,80,72,0,-31,-16,0,0,65,0,1128,376,64,32,0,
0,4,-7,-80,1,0,100,0,248,312,80,72,0,-73,-87,0,0,100,0,144,208,144,104,0,-22,-92,1,0,100,0,328,312,80,72,0,-31,-16,0,0,65,0,1128,376,64,32,0,
0,5,-74,-87,0,0,100,0,720,208,144,104,0,-8,-63,0,0,100,0,872,312,40,40,0,-64,-82,1,0,100,0,488,384,80,72,0,-9,-85,1,0,100,0,408,384,80,72,0,-31,-16,0,0,65,0,1128,376,64,32,0,
0,5,-74,-87,0,0,100,0,288,208,144,104,0,-15,-87,1,0,100,0,408,312,80,72,0,-74,-78,0,0,100,0,248,312,80,72,0,-25,-75,0,0,100,0,832,312,40,40,0,-31,-16,0,0,65,0,1128,376,64,32,0,
0,5,-74,-87,0,0,100,0,432,208,144,104,0,-15,-87,1,0,100,0,408,312,80,72,0,-74,-78,0,0,100,0,248,312,80,72,0,-25,-75,0,0,100,0,832,312,40,40,0,-31,-16,0,0,65,0,1128,376,64,32,0,
0,5,-74,-87,0,0,100,0,576,208,144,104,0,-15,-87,1,0,100,0,408,312,80,72,0,-74,-78,0,0,100,0,248,312,80,72,0,-25,-75,0,0,100,0,832,312,40,40,0,-31,-16,0,0,65,0,1128,376,64,32,0,
0,5,-74,-87,0,0,100,0,720,208,144,104,0,-15,-87,1,0,100,0,408,312,80,72,0,-74,-78,0,0,100,0,248,312,80,72,0,-25,-75,0,0,100,0,832,312,40,40,0,-31,-16,0,0,65,0,1128,376,64,32,0,
0,11,-27,-54,0,0,100,0,728,384,24,24,0,-58,-107,0,0,100,0,976,312,64,96,0,-67,-96,0,0,70,0,832,520,80,80,0,-31,-63,0,0,100,0,752,392,40,40,0,-65,-96,0,0,100,0,1008,0,144,104,0,-10,-69,0,0,100,0,792,352,40,40,0,-73,-91,0,0,100,0,248,312,80,72,0,-42,-107,0,0,100,0,328,312,80,72,0,-57,-99,0,0,100,0,320,456,160,88,0,-51,-104,0,0,70,0,480,456,144,104,0,-33,-16,0,0,65,0,1128,376,64,32,0,
0,7,-32,-57,0,0,100,0,728,312,24,24,0,-58,-74,0,0,100,0,912,312,64,96,0,-58,-74,0,0,70,0,624,456,64,96,0,-77,-87,0,0,100,0,0,0,144,104,0,-69,-61,0,0,100,0,0,456,160,72,0,-69,-61,0,0,70,0,0,544,160,72,0,-31,-16,0,0,65,0,1128,376,64,32,0,
0,13,46,-216,0,1,100,0,984,888,144,184,0,30,-97,0,0,100,0,728,384,24,24,0,-1,-150,0,0,100,0,976,312,64,96,0,-10,-139,0,0,70,0,832,520,80,80,0,26,-106,0,0,100,0,752,392,40,40,0,-8,-139,0,0,100,0,1008,0,144,104,0,47,-112,0,0,100,0,792,352,40,40,0,-16,-134,0,0,100,0,248,312,80,72,0,15,-150,0,0,100,0,328,312,80,72,0,-7,-166,3,1,50,0,880,680,176,144,0,0,-142,0,0,100,0,320,456,160,88,0,7,-150,0,0,70,0,480,560,144,104,0,28,-16,0,0,65,0,1128,376,64,32,0,
0,11,30,-97,0,0,100,0,728,384,24,24,0,-1,-150,0,0,100,0,976,312,64,96,0,-10,-139,0,0,70,0,832,520,80,80,0,26,-106,0,0,100,0,752,392,40,40,0,-8,-139,0,0,100,0,1008,0,144,104,0,47,-112,0,0,100,0,792,352,40,40,0,-16,-134,0,0,100,0,248,312,80,72,0,15,-150,0,0,100,0,328,312,80,72,0,0,-142,0,0,100,0,320,456,160,88,0,6,-147,0,0,70,0,480,456,144,104,0,28,-16,0,0,65,0,1128,376,64,32,0,
