4,0,0,8,
5,0,0,5,
6,0,0,6,
7,0,0,6,
8,0,0,3,
9,0,0,5,
10,0,0,4,
11,0,0,3,
5,0,0,3,
6,0,0,3,
7,0,0,2,
8,0,0,3,
9,0,0,4,
10,0,0,8,
11,0,0,3,
5,0,0,10,
6,0,0,12,
7,0,0,6,
8,0,0,3,
9,0,0,5,
10,0,0,7,
11,0,0,6,
5,0,0,5,
4,0,0,10,
