7,0,0,4,
8,0,0,5,
9,0,0,5,
10,0,0,5,
11,0,0,5,
12,0,0,6,
13,0,0,3,
14,0,0,7,
15,0,0,3,
16,0,0,1,
17,0,0,6,
18,0,0,3,
19,0,0,7,
20,0,0,6,
21,0,0,3,
22,0,0,6,
23,0,0,5,
24,0,0,3,
25,0,0,5,
26,0,0,3,
27,0,0,5,
28,0,0,9,
29,0,0,6,
30,0,0,6,
31,0,0,3,
32,0,0,12,
33,0,0,1,
34,0,0,6,
35,0,0,3,
36,0,0,6,
37,0,0,6,
38,0,0,4,
39,0,0,4,
40,0,0,1,
41,0,0,6,
42,0,0,6,
43,0,0,5,
44,0,0,1,
45,0,0,14,
46,0,0,1,
47,0,0,7,
48,0,0,6,
49,0,0,6,
50,0,0,3,
51,0,0,3,
