0,9,-35,-58,0,1,100,0,0,624,32,32,0,-25,-15,0,1,100,0,0,656,16,16,0,-55,-62,0,1,100,0,16,656,16,16,0,-49,-41,0,1,100,0,16,656,16,16,0,-24,-73,0,1,100,0,0,656,16,16,0,-60,-77,0,0,100,0,32,624,88,48,0,-76,-51,0,0,100,0,32,672,88,48,0,-50,-65,0,0,100,0,0,0,104,72,0,-33,-18,0,0,65,0,672,0,64,32,0,
0,9,-35,-57,0,1,100,0,0,624,32,32,0,-18,-23,0,1,100,0,0,656,16,16,0,-52,-54,0,1,100,0,0,656,16,16,0,-29,-69,0,1,100,0,0,656,16,16,0,-39,-39,0,1,100,0,16,656,16,16,0,-60,-76,0,0,100,0,120,624,88,48,0,-76,-50,0,0,100,0,120,672,88,48,0,-50,-65,0,0,100,0,104,0,104,72,0,-33,-18,0,0,65,0,672,0,64,32,0,
0,9,-35,-56,0,1,100,0,0,624,32,32,0,-14,-32,0,1,100,0,16,656,16,16,0,-37,-62,0,1,100,0,16,656,16,16,0,-44,-48,0,1,100,0,16,656,16,16,0,-69,-54,0,1,100,0,16,656,16,16,0,-60,-75,0,0,100,0,208,624,88,48,0,-76,-49,0,0,100,0,209,672,88,48,0,-50,-65,0,0,100,0,208,0,104,72,0,-33,-18,0,0,65,0,672,0,64,32,0,
0,8,-35,-57,0,1,100,0,0,624,32,32,0,-14,-32,0,1,100,0,16,656,16,16,0,-15,-77,0,1,100,0,16,656,16,16,0,-63,-47,0,1,100,0,16,656,16,16,0,-60,-76,0,0,100,0,296,624,88,48,0,-76,-50,0,0,100,0,296,672,88,48,0,-50,-65,0,0,100,0,312,0,104,72,0,-33,-18,0,0,65,0,672,0,64,32,0,
0,15,-71,-92,0,1,100,0,0,176,105,104,0,-64,-79,0,1,80,0,128,280,112,104,0,-14,-33,0,0,100,0,224,72,16,16,0,-56,-62,0,0,100,0,0,384,104,72,0,-32,-35,0,0,100,0,192,72,16,16,0,-16,-54,0,0,100,0,128,72,32,32,0,-30,-42,0,0,100,0,416,96,64,48,0,-30,-42,0,0,100,0,0,504,64,48,0,-28,-33,0,0,100,0,240,456,48,48,0,-28,-33,0,0,100,0,0,456,48,48,0,-28,-44,0,0,100,0,0,104,48,48,0,-28,-33,0,0,100,0,352,336,48,48,0,-23,-24,0,0,100,0,0,152,48,24,0,-36,-42,0,0,100,0,416,144,64,32,0,-36,-20,0,0,65,0,672,0,64,32,0,
0,15,-13,-98,0,1,80,0,0,176,105,104,0,-54,-103,0,1,100,0,240,280,112,104,0,-31,-36,0,0,100,0,192,72,16,16,0,-13,-56,0,0,100,0,128,72,32,32,0,-29,-43,0,0,100,0,480,96,64,48,0,-30,-42,0,0,100,0,64,504,64,48,0,-28,-33,0,0,100,0,240,456,48,48,0,-28,-33,0,0,100,0,0,456,48,48,0,-26,-45,0,0,100,0,48,104,48,48,0,-28,-33,0,0,100,0,352,336,48,48,0,-23,-24,0,0,100,0,0,152,48,24,0,-31,-38,0,0,100,0,480,144,64,32,0,8,-42,0,0,100,0,240,72,16,16,0,-36,-69,0,0,100,0,104,384,104,72,0,-36,-20,0,0,65,0,672,0,64,32,0,
0,14,-126,-72,0,1,100,0,264,176,104,104,0,-103,-84,0,1,100,0,104,176,160,104,0,-32,-107,0,1,80,0,0,176,105,104,0,-46,-59,0,0,100,0,352,72,64,48,0,-27,-65,0,0,100,0,160,72,32,32,0,-11,-29,0,0,100,0,256,72,16,16,0,-42,-34,0,0,100,0,288,456,48,48,0,-42,-34,0,0,100,0,48,456,48,48,0,-38,-54,0,0,100,0,96,104,48,48,0,-42,-34,0,0,100,0,400,336,48,48,0,-44,-47,0,0,100,0,352,120,64,48,0,-13,-61,0,0,100,0,208,72,16,16,0,-62,-87,0,0,100,0,208,384,104,72,0,-52,-18,0,0,65,0,672,0,64,32,0,
0,16,-126,-72,0,1,100,0,368,176,104,104,0,-19,-101,0,1,80,0,0,176,105,104,0,-18,-62,1,0,100,0,128,72,32,32,0,8,-41,0,0,100,0,272,72,16,16,0,-34,-66,0,0,100,0,312,384,104,72,0,-30,-34,0,0,100,0,192,72,16,16,0,-40,-50,0,0,100,0,288,72,64,48,0,-31,-36,0,0,100,0,336,456,48,48,0,-31,-36,0,0,100,0,96,456,48,48,0,-27,-49,0,0,100,0,144,104,48,48,0,-31,-36,0,0,100,0,448,336,48,48,0,-40,-50,0,0,100,0,192,504,64,48,0,-17,-26,0,0,100,0,48,152,24,24,0,-45,-57,0,0,100,0,288,120,64,48,0,-49,-70,0,1,100,0,496,280,80,40,0,-43,-18,0,0,65,0,672,0,64,32,0,
0,15,-126,-72,0,1,40,0,472,176,104,104,0,-13,-98,0,1,80,0,0,176,105,104,0,-31,-36,0,0,100,0,192,72,16,16,0,-13,-56,0,0,100,0,128,72,32,32,0,-29,-43,0,0,100,0,480,96,64,48,0,-30,-42,0,0,100,0,64,504,64,48,0,-28,-33,0,0,100,0,240,456,48,48,0,-28,-33,0,0,100,0,0,456,48,48,0,-26,-45,0,0,100,0,48,104,48,48,0,-28,-33,0,0,100,0,352,336,48,48,0,-23,-24,0,0,100,0,0,152,48,24,0,-31,-38,0,0,100,0,480,144,64,32,0,8,-42,0,0,100,0,240,72,16,16,0,-36,-69,0,0,100,0,104,384,104,72,0,-37,-19,0,0,65,0,672,0,64,32,0,
0,17,-130,-65,0,1,100,0,264,176,104,104,0,-81,-88,0,1,80,0,576,176,128,104,0,-49,-44,0,0,100,0,416,0,64,48,0,-43,-34,0,0,100,0,96,152,24,24,0,-31,-34,0,0,100,0,144,456,48,48,0,-49,-44,0,0,100,0,256,504,64,48,0,-31,-34,0,0,100,0,384,456,48,48,0,-38,-40,0,0,100,0,192,104,48,48,0,-31,-34,0,0,100,0,496,336,48,48,0,-26,-19,0,0,100,0,144,152,24,24,0,-25,-37,0,0,100,0,120,152,24,24,0,-46,-47,0,0,100,0,128,72,32,32,0,-13,-28,0,0,100,0,192,88,16,16,0,-41,-81,0,1,100,0,0,176,105,104,0,-73,-63,0,0,100,0,208,384,104,72,0,-36,-50,0,1,100,0,656,280,48,40,0,-39,-17,0,0,65,0,672,0,64,32,0,
0,16,-130,-65,0,1,100,0,368,176,104,104,0,-49,-44,0,0,100,0,480,0,64,48,0,-42,-34,0,0,100,0,96,152,24,24,0,-31,-34,0,0,100,0,144,456,48,48,0,-49,-44,0,0,100,0,320,504,64,48,0,-31,-34,0,0,100,0,384,456,48,48,0,-38,-40,0,0,100,0,192,104,48,48,0,-31,-34,0,0,100,0,496,336,48,48,0,-26,-19,0,0,100,0,144,152,24,24,0,-25,-37,0,0,100,0,120,152,24,24,0,-46,-47,0,0,100,0,128,72,32,32,0,-13,-28,0,0,100,0,192,88,16,16,0,-47,-83,0,1,80,-90,0,176,105,104,0,-72,-63,0,0,100,0,208,384,104,72,0,-48,-51,0,1,100,0,576,280,80,40,0,-39,-17,0,0,65,0,672,0,64,32,0,
0,15,-130,-65,0,1,40,0,472,176,104,104,0,-49,-44,0,0,100,0,544,0,64,48,0,-42,-34,0,0,100,0,96,152,24,24,0,-31,-34,0,0,100,0,144,456,48,48,0,-49,-44,0,0,100,0,384,504,64,48,0,-31,-34,0,0,100,0,384,456,48,48,0,-38,-40,0,0,100,0,192,104,48,48,0,-31,-34,0,0,100,0,496,336,48,48,0,-26,-19,0,0,100,0,144,152,24,24,0,-25,-37,0,0,100,0,120,152,24,24,0,-46,-47,0,0,100,0,128,72,32,32,0,-13,-28,0,0,100,0,192,88,16,16,0,-46,-91,0,1,80,180,0,176,105,104,0,-72,-63,0,0,100,0,208,384,104,72,0,-39,-17,0,0,65,0,672,0,64,32,0,
0,14,-49,-44,0,0,100,0,608,0,64,48,0,-43,-34,0,0,100,0,96,152,24,24,0,-31,-34,0,0,100,0,144,456,48,48,0,-49,-44,0,0,100,0,448,504,64,48,0,-31,-34,0,0,100,0,384,456,48,48,0,-38,-40,0,0,100,0,192,104,48,48,0,-31,-34,0,0,100,0,496,336,48,48,0,-26,-19,0,0,100,0,144,152,24,24,0,-25,-37,0,0,100,0,120,152,24,24,0,-47,-46,0,0,100,0,128,72,32,32,0,-13,-28,0,0,100,0,192,88,16,16,0,-47,-83,0,1,80,-90,0,176,105,104,0,-73,-63,0,0,100,0,208,384,104,72,0,-39,-17,0,0,65,0,672,0,64,32,0,
0,18,-124,-86,0,1,100,0,264,176,104,104,0,-78,-93,0,1,100,0,0,280,128,104,0,-28,-100,0,1,80,0,0,176,105,104,0,-40,-33,0,0,100,0,192,72,16,16,0,1,-39,0,0,100,0,272,72,16,16,0,4,-69,0,0,100,0,416,384,32,24,0,-41,-64,0,0,100,0,312,384,104,72,0,-27,-54,0,0,100,0,128,72,32,32,0,-47,-39,0,0,100,0,416,48,64,48,0,-31,-34,0,0,100,0,192,456,48,48,0,-47,-39,0,0,100,0,0,552,64,48,0,-31,-34,0,0,100,0,432,456,48,48,0,-31,-34,0,0,100,0,480,456,48,48,0,-33,-42,0,0,100,0,240,104,48,48,0,-31,-34,0,0,100,0,544,336,48,48,0,-19,-19,0,0,100,0,168,152,24,24,0,-41,-49,0,0,100,0,608,96,32,32,0,-39,-17,0,0,65,0,672,0,64,32,0,
0,20,-160,-57,0,1,100,0,264,176,104,104,0,-124,-86,0,1,100,0,368,176,104,104,0,-10,-60,0,1,60,0,448,280,48,40,0,-34,-101,1,1,60,0,0,176,105,104,0,-40,-33,0,0,100,0,192,72,16,16,0,1,-39,0,0,100,0,272,72,16,16,0,4,-69,0,0,100,0,416,384,32,24,0,-41,-64,0,0,100,0,312,384,104,72,0,-27,-54,0,0,100,0,128,72,32,32,0,-47,-39,0,0,100,0,480,48,64,48,0,-31,-34,0,0,100,0,192,456,48,48,0,-47,-39,0,0,100,0,64,552,64,48,0,-31,-34,0,0,100,0,432,456,48,48,0,-31,-34,0,0,100,0,480,456,48,48,0,-33,-42,0,0,100,0,240,104,48,48,0,-31,-34,0,0,100,0,544,336,48,48,0,-19,-19,0,0,100,0,168,152,24,24,0,-21,-41,0,0,100,0,640,96,32,32,0,-52,-48,0,0,100,0,288,120,64,48,0,-39,-17,0,0,65,0,672,0,64,32,0,
0,19,-105,-30,0,1,100,0,264,176,104,104,0,-160,-57,0,1,100,0,368,176,104,104,0,-124,-86,0,1,40,0,472,176,104,104,0,-27,-98,0,1,30,0,0,176,105,104,0,-40,-33,0,0,100,0,192,72,16,16,0,1,-39,0,0,100,0,272,72,16,16,0,4,-69,0,0,100,0,416,384,32,24,0,-41,-64,0,0,100,0,312,384,104,72,0,-27,-54,0,0,100,0,128,72,32,32,0,-47,-39,0,0,100,0,544,48,64,48,0,-31,-34,0,0,100,0,192,456,48,48,0,-47,-39,0,0,100,0,128,552,64,48,0,-31,-34,0,0,100,0,432,456,48,48,0,-31,-34,0,0,100,0,480,456,48,48,0,-33,-42,0,0,100,0,240,104,48,48,0,-31,-34,0,0,100,0,544,336,48,48,0,-19,-19,0,0,100,0,168,152,24,24,0,-15,-43,0,0,100,0,672,96,32,32,0,-39,-17,0,0,65,0,672,0,64,32,0,
0,17,-105,-30,0,1,100,0,367,176,104,104,0,-160,-57,0,1,40,0,472,176,104,104,0,-40,-33,0,0,100,0,192,72,16,16,0,1,-39,0,0,100,0,272,72,16,16,0,4,-69,0,0,100,0,416,384,32,24,0,-41,-64,0,0,100,0,312,384,104,72,0,-27,-54,0,0,100,0,128,72,32,32,0,-47,-39,0,0,100,0,608,48,64,48,0,-31,-34,0,0,100,0,192,456,48,48,0,-47,-39,0,0,100,0,192,552,64,48,0,-31,-34,0,0,100,0,432,456,48,48,0,-31,-34,0,0,100,0,480,456,48,48,0,-33,-42,0,0,100,0,240,104,48,48,0,-31,-34,0,0,100,0,544,336,48,48,0,-19,-19,0,0,100,0,168,152,24,24,0,-18,-45,0,0,100,0,704,96,32,32,0,-39,-17,0,0,65,0,672,0,64,32,0,
0,16,-105,-30,0,1,40,0,472,176,104,104,0,-40,-33,0,0,100,0,192,72,16,16,0,1,-39,0,0,100,0,272,72,16,16,0,4,-69,0,0,100,0,416,384,32,24,0,-41,-64,0,0,100,0,312,384,104,72,0,-27,-54,0,0,100,0,128,72,32,32,0,-47,-39,0,0,100,0,608,48,64,48,0,-31,-34,0,0,100,0,192,456,48,48,0,-47,-39,0,0,100,0,192,552,64,48,0,-31,-34,0,0,100,0,432,456,48,48,0,-31,-34,0,0,100,0,480,456,48,48,0,-33,-42,0,0,100,0,240,104,48,48,0,-31,-34,0,0,100,0,544,336,48,48,0,-19,-19,0,0,100,0,168,152,24,24,0,-18,-45,0,0,100,0,704,96,32,32,0,-39,-17,0,0,65,0,672,0,64,32,0,
0,15,-40,-33,0,0,100,0,192,72,16,16,0,1,-39,0,0,100,0,272,72,16,16,0,4,-69,0,0,100,0,416,384,32,24,0,-41,-64,0,0,100,0,312,384,104,72,0,-27,-54,0,0,100,0,128,72,32,32,0,-47,-39,0,0,100,0,608,48,64,48,0,-31,-34,0,0,100,0,192,456,48,48,0,-47,-39,0,0,100,0,192,552,64,48,0,-31,-34,0,0,100,0,432,456,48,48,0,-31,-34,0,0,100,0,480,456,48,48,0,-33,-42,0,0,100,0,240,104,48,48,0,-31,-34,0,0,100,0,544,336,48,48,0,-19,-19,0,0,100,0,168,152,24,24,0,-18,-45,0,0,100,0,704,96,32,32,0,-39,-17,0,0,65,0,672,0,64,32,0,
0,2,-50,-65,0,0,100,0,0,720,104,72,0,-33,-18,0,0,65,0,672,0,64,32,0,
0,2,-50,-65,0,0,100,0,104,720,104,72,0,-33,-18,0,0,65,0,672,0,64,32,0,
0,2,-50,-65,0,0,100,0,208,720,104,72,0,-33,-18,0,0,65,0,672,0,64,32,0,
0,2,-50,-63,0,0,100,0,312,722,104,72,0,-33,-18,0,0,65,0,672,0,64,32,0,
0,2,-50,-65,0,0,100,0,416,720,104,72,0,-33,-18,0,0,65,0,672,0,64,32,0,
0,2,-50,-65,0,0,100,0,520,720,104,72,0,-33,-18,0,0,65,0,672,0,64,32,0,
0,2,-50,-65,0,0,100,0,624,720,104,72,0,-33,-18,0,0,65,0,672,0,64,32,0,
0,2,-50,-65,0,0,100,0,0,792,104,72,0,-33,-18,0,0,65,0,672,0,64,32,0,
0,2,-50,-65,0,0,100,0,104,792,104,72,0,-33,-18,0,0,65,0,672,0,64,32,0,
0,2,-50,-65,0,0,100,0,208,792,104,72,0,-33,-18,0,0,65,0,672,0,64,32,0,
0,2,-50,-65,0,0,100,0,312,792,104,72,0,-33,-18,0,0,65,0,672,0,64,32,0,
0,2,-50,-65,0,0,100,0,416,792,104,72,0,-33,-18,0,0,65,0,672,0,64,32,0,
0,2,-50,-65,0,0,100,0,520,792,104,72,0,-33,-18,0,0,65,0,672,0,64,32,0,
0,12,-41,-32,0,0,100,0,208,88,16,16,0,-27,-54,0,0,100,0,128,72,32,32,0,-47,-39,0,0,100,0,632,128,64,48,0,-31,-34,0,0,100,0,576,456,48,48,0,-20,-21,0,0,100,0,592,144,40,16,0,-31,-34,0,0,100,0,528,456,48,48,0,-21,-41,0,0,100,0,592,128,40,16,0,-33,-42,0,0,100,0,544,128,48,48,0,0,-36,0,0,100,0,208,72,16,16,0,-31,-34,0,0,100,0,592,336,48,48,0,-49,-62,0,0,100,0,208,384,104,72,0,-37,-16,0,0,65,0,672,0,64,32,0,
