0,9,-16,-53,0,0,100,0,44,44,34,25,0,-32,-64,0,0,100,0,188,38,21,30,0,1,-38,0,0,100,0,19,42,13,14,0,-15,-39,0,0,100,0,3,41,16,14,0,-33,-36,0,0,100,0,300,1,30,34,0,-15,-40,0,0,100,0,44,1,30,41,0,1,-33,0,0,100,0,172,1,30,35,0,-8,-9,0,0,100,0,4,58,18,13,0,-21,-9,0,0,100,0,0,0,43,19,0,
0,9,-16,-52,0,0,100,0,80,44,34,25,0,-32,-64,0,0,100,0,211,38,21,30,0,1,-37,0,0,100,0,19,42,13,14,0,-15,-38,0,0,100,0,3,41,16,14,0,-33,-35,0,0,100,0,332,1,30,34,0,-15,-39,0,0,100,0,76,1,30,41,0,1,-32,0,0,100,0,204,1,30,35,0,-8,-9,0,0,100,0,4,58,18,13,0,-21,-9,0,0,100,0,0,0,43,19,0,
0,9,-16,-53,0,0,100,0,116,44,34,25,0,-32,-63,0,0,100,0,234,38,21,30,0,1,-38,0,0,100,0,19,42,13,14,0,-15,-39,0,0,100,0,3,41,16,14,0,-33,-35,0,0,100,0,364,1,30,34,0,-15,-40,0,0,100,0,108,1,30,41,0,1,-32,0,0,100,0,236,1,30,35,0,-8,-9,0,0,100,0,4,58,18,13,0,-21,-9,0,0,100,0,0,0,43,19,0,
0,9,-16,-54,0,0,100,0,152,44,34,25,0,-32,-63,0,0,100,0,257,38,21,30,0,1,-39,0,0,100,0,19,42,13,14,0,-15,-40,0,0,100,0,3,41,16,14,0,-33,-36,0,0,100,0,396,1,30,34,0,-15,-41,0,0,100,0,140,1,30,41,0,1,-33,0,0,100,0,268,1,30,35,0,-8,-9,0,0,100,0,4,58,18,13,0,-21,-9,0,0,100,0,0,0,43,19,0,
0,8,-32,-66,0,1,30,0,188,38,21,30,0,-32,-66,0,0,100,0,188,38,21,30,0,-13,-36,0,0,100,0,43,82,32,36,0,-18,-52,0,0,100,0,44,44,34,25,0,-18,-39,0,0,100,0,119,78,30,44,0,-24,-37,0,0,100,0,44,123,31,35,0,-12,-9,0,0,100,0,22,58,18,12,0,-23,-9,0,0,100,0,0,0,43,19,0,
0,10,-32,-69,0,1,100,0,188,38,21,30,0,-32,-69,0,0,100,0,188,38,21,30,0,-40,-80,0,1,50,0,427,1,38,53,0,-15,-37,0,0,100,0,9,82,32,36,0,-17,-54,0,0,100,0,308,36,24,19,0,-18,-53,0,0,100,0,152,44,34,25,0,-18,-40,0,0,100,0,119,78,30,44,0,-25,-38,0,0,100,0,11,123,31,35,0,-12,-9,0,0,100,0,22,58,18,12,0,-23,-9,0,0,100,0,0,0,43,19,0,
0,10,-31,-72,0,1,100,0,188,38,21,30,0,-31,-72,0,0,100,0,188,38,21,30,0,-39,-83,0,1,80,0,427,1,38,53,0,-15,-38,0,0,100,0,9,82,32,36,0,-16,-54,0,0,100,0,308,36,26,19,0,-17,-53,0,0,100,0,152,44,34,25,0,-18,-40,0,0,100,0,119,78,30,44,0,-25,-39,0,0,100,0,11,123,31,35,0,-12,-9,0,0,100,0,22,58,18,12,0,-23,-9,0,0,100,0,0,0,43,19,0,
0,12,-27,-70,0,0,50,0,289,208,24,23,0,-46,-68,0,0,50,0,278,147,34,35,0,-31,-72,0,1,100,0,188,38,21,30,0,-31,-72,0,0,100,0,188,38,21,30,0,-39,-83,0,1,80,0,427,1,38,53,0,-15,-38,0,0,100,0,9,82,32,36,0,-16,-54,0,0,100,0,308,36,26,19,0,-17,-53,0,0,100,0,152,44,34,25,0,-18,-40,0,0,100,0,119,78,30,44,0,-25,-39,0,0,100,0,11,123,31,35,0,-12,-9,0,0,100,0,22,58,18,12,0,-23,-9,0,0,100,0,0,0,43,19,0,
0,16,-32,-68,0,0,100,0,306,127,10,10,0,-38,-74,0,0,100,0,295,124,12,14,0,-26,-75,0,0,50,0,297,251,13,14,0,-39,-69,0,0,50,0,289,208,24,23,0,-23,-73,0,0,100,0,289,208,24,23,0,-52,-65,0,0,100,0,278,147,34,35,0,-31,-72,0,1,100,0,188,38,21,30,0,-31,-72,0,0,100,0,188,38,21,30,0,-39,-83,0,1,100,0,427,1,38,53,0,-15,-38,0,0,100,0,77,82,32,36,0,-16,-54,0,0,100,0,308,36,26,19,0,-17,-53,0,0,100,0,80,44,34,25,0,-18,-40,0,0,100,0,183,78,30,44,0,-25,-39,0,0,100,0,77,123,31,35,0,-12,-9,0,0,100,0,22,58,18,12,0,-23,-9,0,0,100,0,0,0,43,19,0,
0,18,-37,-57,0,0,100,0,295,124,12,14,0,-24,-50,0,0,100,0,295,124,12,14,0,-36,-75,0,0,100,0,306,127,10,10,0,-44,-80,0,0,100,0,295,124,12,14,0,-25,-80,0,0,100,0,297,251,13,14,0,-44,-72,0,0,100,0,289,208,24,23,0,-22,-81,0,0,100,0,319,203,33,33,0,-61,-68,0,0,100,0,318,142,47,45,0,-31,-72,0,1,100,0,188,38,21,30,0,-31,-72,0,0,100,0,188,38,21,30,0,-39,-83,0,1,100,0,427,1,38,53,0,-15,-38,0,0,100,0,43,82,32,36,0,-16,-54,0,0,100,0,308,36,26,19,0,-17,-53,0,0,100,0,116,44,34,25,0,-18,-40,0,0,100,0,151,78,30,44,0,-25,-39,0,0,100,0,44,123,31,35,0,-12,-9,0,0,100,0,22,58,18,12,0,-23,-9,0,0,100,0,0,0,43,19,0,
0,23,-38,-68,0,0,100,0,295,124,12,14,0,-8,-70,0,0,100,0,308,128,7,8,0,-18,-73,0,0,100,0,295,124,12,14,0,-44,-52,0,0,100,0,295,124,12,14,0,-33,-54,0,0,100,0,295,124,12,14,0,-20,-44,0,0,100,0,295,124,12,14,0,-38,-79,0,0,100,0,306,127,10,10,0,-46,-82,0,0,100,0,295,124,12,14,0,-29,-60,0,0,100,0,289,208,24,23,0,-25,-89,0,0,80,0,310,250,17,17,0,-59,-82,0,0,100,0,319,203,33,33,0,-24,-86,0,0,60,0,355,199,41,40,0,-67,-69,0,0,60,0,364,138,53,53,0,-31,-72,0,1,100,0,188,38,21,30,0,-31,-72,0,0,100,0,188,38,21,30,0,-39,-83,0,1,100,0,427,1,38,53,0,-15,-38,0,0,100,0,77,82,32,36,0,-16,-54,0,0,100,0,308,36,26,19,0,-17,-53,0,0,100,0,80,44,34,25,0,-18,-40,0,0,100,0,183,78,30,44,0,-25,-39,0,0,100,0,77,123,31,35,0,-12,-9,0,0,100,0,22,58,18,12,0,-23,-9,0,0,100,0,0,0,43,19,0,
0,25,-47,-70,0,0,100,0,295,124,12,14,0,-4,-74,0,0,100,0,308,128,7,8,0,-15,-78,0,0,100,0,295,124,12,14,0,-49,-48,0,0,100,0,295,124,12,14,0,-33,-46,0,0,100,0,308,128,7,8,0,-18,-41,0,0,100,0,295,124,12,14,0,-39,-81,0,0,50,0,306,127,10,10,0,-47,-83,0,0,50,0,295,124,12,14,0,-29,-53,0,0,100,0,319,203,33,33,0,-40,-58,0,0,100,0,297,251,13,14,0,-13,-68,0,0,100,0,297,251,13,14,0,-26,-96,0,0,40,0,327,247,21,21,0,-69,-90,0,0,60,0,354,198,42,42,0,-25,-90,0,0,30,0,397,195,47,49,0,-71,-72,0,0,30,0,418,133,60,58,0,-31,-72,0,1,100,0,188,38,21,30,0,-31,-72,0,0,100,0,188,38,21,30,0,-39,-83,0,1,100,0,427,1,38,53,0,-15,-38,0,0,100,0,43,82,32,36,0,-16,-54,0,0,100,0,308,36,26,19,0,-17,-53,0,0,100,0,116,44,34,25,0,-18,-40,0,0,100,0,151,78,30,44,0,-25,-39,0,0,100,0,44,123,31,35,0,-12,-9,0,0,100,0,22,58,18,12,0,-23,-9,0,0,100,0,0,0,43,19,0,
0,22,-52,-71,0,0,100,0,295,124,12,14,0,-2,-75,0,0,100,0,308,128,7,8,0,-12,-80,0,0,100,0,295,124,12,14,0,-52,-45,0,0,50,0,295,124,12,14,0,-35,-44,0,0,100,0,308,128,7,8,0,-16,-39,0,0,50,0,295,124,12,14,0,-31,-52,0,0,60,0,354,198,42,42,0,-50,-55,1,0,80,90,310,250,17,17,0,-7,-72,0,0,80,0,310,250,17,17,0,-75,-96,0,0,30,0,396,194,45,49,0,-24,-66,0,0,100,0,289,208,24,23,0,-51,-85,0,0,100,0,278,147,34,35,0,-31,-72,0,1,100,0,188,38,21,30,0,-31,-72,0,0,100,0,188,38,21,30,0,-39,-83,0,1,100,0,427,1,38,53,0,-15,-38,0,0,100,0,77,82,32,36,0,-16,-54,0,0,100,0,308,36,26,19,0,-17,-53,0,0,100,0,80,44,34,25,0,-18,-40,0,0,100,0,183,78,30,44,0,-25,-39,0,0,100,0,77,123,31,35,0,-12,-9,0,0,100,0,22,58,18,12,0,-23,-9,0,0,100,0,0,0,43,19,0,
0,20,-55,-72,0,0,50,0,295,124,12,14,0,0,-76,0,0,50,0,308,128,7,8,0,-10,-81,0,0,50,0,295,124,12,14,0,-36,-43,0,0,50,0,308,128,7,8,0,-33,-53,0,0,30,0,396,194,45,49,0,-54,-54,0,0,40,180,327,247,21,21,0,-7,-76,0,0,40,0,327,247,21,21,0,-33,-55,0,0,100,0,297,251,13,14,0,-19,-70,0,0,100,0,319,203,33,33,0,-64,-97,0,0,100,0,318,142,47,45,0,-31,-72,0,1,100,0,188,38,21,30,0,-31,-72,0,0,100,0,188,38,21,30,0,-39,-83,0,1,100,0,427,1,38,53,0,-15,-38,0,0,100,0,43,82,32,36,0,-16,-54,0,0,100,0,308,36,26,19,0,-17,-53,0,0,100,0,116,44,34,25,0,-18,-40,0,0,100,0,151,78,30,44,0,-25,-39,0,0,100,0,44,123,31,35,0,-12,-9,0,0,100,0,22,58,18,12,0,-23,-9,0,0,100,0,0,0,43,19,0,
0,13,-40,-50,1,0,80,90,310,250,17,17,0,-19,-74,0,0,60,0,355,199,41,40,0,-70,-103,0,0,60,0,364,138,53,53,0,-31,-72,0,1,100,0,188,38,21,30,0,-31,-72,0,0,100,0,188,38,21,30,0,-39,-83,0,1,100,0,427,1,38,53,0,-15,-38,0,0,100,0,77,82,32,36,0,-16,-54,0,0,100,0,308,36,26,19,0,-17,-53,0,0,100,0,116,44,34,25,0,-18,-40,0,0,100,0,151,78,30,44,0,-25,-39,0,0,100,0,77,123,31,35,0,-12,-9,0,0,100,0,22,58,18,12,0,-23,-9,0,0,100,0,0,0,43,19,0,
0,13,-45,-48,0,0,40,180,327,247,21,21,0,-18,-77,0,0,30,0,397,195,47,49,0,-75,-109,0,0,30,0,418,133,60,58,0,-31,-72,0,1,100,0,188,38,21,30,0,-31,-72,0,0,100,0,188,38,21,30,0,-39,-83,0,1,100,0,427,1,38,53,0,-15,-38,0,0,100,0,43,82,32,36,0,-16,-54,0,0,100,0,308,36,26,19,0,-17,-53,0,0,100,0,116,44,34,25,0,-18,-40,0,0,100,0,151,78,30,44,0,-25,-39,0,0,100,0,44,123,31,35,0,-12,-9,0,0,100,0,22,58,18,12,0,-23,-9,0,0,100,0,0,0,43,19,0,
0,9,-32,-58,0,1,30,0,188,38,21,30,0,-32,-58,0,0,100,0,188,38,21,30,0,-52,-88,0,0,30,0,368,257,44,54,0,-19,-52,0,0,100,0,215,70,34,25,0,-10,-35,0,0,100,0,125,126,20,33,0,-18,-39,0,0,100,0,119,78,30,44,0,-19,-36,0,0,100,0,110,125,15,34,0,-12,-9,0,0,100,0,22,58,18,12,0,-23,-9,0,0,100,0,0,0,43,19,0,
0,10,-32,-55,0,1,100,0,188,38,21,30,0,-32,-55,0,0,100,0,188,38,21,30,0,-40,-66,0,1,50,0,427,1,38,53,0,-52,-85,0,0,80,0,368,257,44,54,0,-18,-52,0,0,100,0,215,70,34,25,0,-11,-36,0,0,100,0,125,126,20,33,0,-18,-39,0,0,100,0,119,78,30,44,0,-19,-37,0,0,100,0,110,125,15,34,0,-12,-9,0,0,100,0,22,58,18,12,0,-23,-9,0,0,100,0,0,0,43,19,0,
0,16,-32,-54,0,1,100,0,188,38,21,30,0,-32,-54,0,0,100,0,188,38,21,30,0,-40,-65,0,1,100,0,427,1,38,53,0,-25,-61,0,0,100,0,487,268,7,7,0,-42,-67,0,0,100,0,493,279,7,7,0,-32,-79,0,0,100,0,499,267,11,10,0,-38,-62,0,0,80,0,487,288,7,7,0,-28,-70,0,0,80,0,487,288,7,7,0,-33,-85,0,0,80,0,487,288,7,7,0,-64,-99,0,0,80,0,426,242,57,68,0,-18,-52,0,0,100,0,215,70,34,25,0,-11,-36,0,0,100,0,125,126,20,33,0,-18,-39,0,0,100,0,119,78,30,44,0,-19,-37,0,0,100,0,110,125,15,34,0,-12,-9,0,0,100,0,22,58,18,12,0,-23,-9,0,0,100,0,0,0,43,19,0,
0,17,-32,-54,0,1,100,0,188,38,21,30,0,-32,-54,0,0,100,0,188,38,21,30,0,-40,-65,0,1,100,0,427,1,38,53,0,-25,-61,0,0,100,0,487,268,7,7,0,-43,-68,0,0,30,0,500,278,9,9,0,-42,-67,0,0,100,0,493,279,7,7,0,-32,-79,0,0,100,0,499,267,11,10,0,-38,-62,0,0,80,0,487,288,7,7,0,-28,-70,0,0,80,0,487,288,7,7,0,-33,-85,0,0,80,0,487,288,7,7,0,-64,-99,0,0,80,0,426,242,57,68,0,-11,-37,0,0,100,0,315,55,10,11,0,-17,-52,0,0,100,0,251,70,34,25,0,-18,-37,0,0,100,0,151,124,28,34,0,-18,-39,0,0,100,0,119,78,30,44,0,-12,-9,0,0,100,0,22,58,18,12,0,-23,-9,0,0,100,0,0,0,43,19,0,
0,14,-32,-54,0,1,60,0,188,38,21,30,0,-32,-54,0,0,100,0,188,38,21,30,0,-40,-65,0,1,100,0,427,1,38,53,0,-43,-68,0,0,100,0,500,278,9,9,0,-31,-79,0,0,100,0,492,267,9,10,0,-28,-70,0,0,80,0,487,288,7,7,0,-33,-85,0,0,80,0,487,288,7,7,0,-64,-99,0,0,80,0,426,242,57,68,0,-11,-37,0,0,100,0,315,55,10,11,0,-17,-52,0,0,100,0,287,70,34,25,0,-18,-37,0,0,100,0,181,124,28,34,0,-18,-39,0,0,100,0,119,78,30,44,0,-12,-9,0,0,100,0,22,58,18,12,0,-23,-9,0,0,100,0,0,0,43,19,0,
0,14,-32,-54,0,1,30,0,188,38,21,30,0,-32,-54,0,0,100,0,188,38,21,30,0,-40,-65,0,1,100,0,427,1,38,53,0,-30,-78,0,0,100,0,487,268,7,7,0,-25,-61,0,0,50,0,487,268,7,7,0,-42,-67,0,0,100,0,493,279,7,7,0,-38,-62,0,0,80,0,487,288,7,7,0,-64,-99,0,0,80,0,426,242,57,68,0,-11,-37,0,0,100,0,315,55,10,11,0,-17,-52,0,0,100,0,323,70,34,25,0,-18,-37,0,0,100,0,211,124,28,34,0,-18,-39,0,0,100,0,119,78,30,44,0,-12,-9,0,0,100,0,22,58,18,12,0,-23,-9,0,0,100,0,0,0,43,19,0,
0,16,-32,-54,0,1,60,0,188,38,21,30,0,-32,-54,0,0,100,0,188,38,21,30,0,-40,-65,0,1,100,0,427,1,38,53,0,-25,-61,0,0,100,0,487,268,7,7,0,-31,-79,0,0,100,0,492,267,9,10,0,-42,-67,0,0,30,0,493,279,7,7,0,-38,-62,0,0,80,0,487,288,7,7,0,-28,-70,0,0,80,0,487,288,7,7,0,-33,-85,0,0,80,0,487,288,7,7,0,-64,-99,0,0,80,0,426,242,57,68,0,-11,-37,0,0,100,0,315,55,10,11,0,-17,-52,0,0,100,0,359,70,34,25,0,-18,-37,0,0,100,0,241,124,28,34,0,-18,-39,0,0,100,0,119,78,30,44,0,-12,-9,0,0,100,0,22,58,18,12,0,-23,-9,0,0,100,0,0,0,43,19,0,
0,13,-45,-59,0,0,100,0,2,161,40,36,0,-36,-58,0,1,30,0,188,38,21,30,0,-36,-49,0,0,100,0,280,38,7,7,0,-36,-58,0,0,100,0,188,38,21,30,0,0,-48,0,0,100,0,376,97,27,28,0,-18,-52,0,0,100,0,80,44,34,25,0,-6,-37,0,0,100,0,334,43,17,15,0,-4,-34,0,0,100,0,203,1,30,35,0,-18,-39,0,0,100,0,119,78,30,44,0,-19,-36,0,0,100,0,110,125,15,34,0,-8,-36,1,0,100,0,248,97,31,25,0,-12,-9,0,0,100,0,22,58,18,12,0,-23,-9,0,0,100,0,0,0,43,19,0,
