0,8,-21,-41,0,0,100,0,81,6,22,29,0,-19,-41,0,0,100,0,115,0,37,35,0,-15,-26,0,0,100,0,156,1,33,31,0,2,-38,0,0,100,0,102,8,12,21,0,-17,-67,0,0,100,0,342,1,40,37,0,0,-44,0,0,100,0,226,1,27,23,0,-48,-58,0,0,100,0,387,39,121,70,0,-23,-9,0,0,65,0,0,17,46,18,0,
0,8,-21,-41,0,0,100,0,81,6,22,29,0,-19,-41,0,0,100,0,115,0,37,35,0,-15,-26,0,0,100,0,156,1,33,31,0,2,-38,0,0,100,0,102,8,12,21,0,-17,-67,0,0,100,0,384,1,40,37,0,0,-44,0,0,100,0,255,1,27,23,0,-48,-58,0,0,100,0,387,39,121,70,0,-23,-9,0,0,65,0,0,17,46,18,0,
0,8,-21,-41,0,0,100,0,81,6,22,29,0,-19,-41,0,0,100,0,115,0,37,35,0,-15,-26,0,0,100,0,156,1,33,31,0,2,-38,0,0,100,0,102,8,12,21,0,-17,-67,0,0,100,0,342,1,40,37,0,0,-44,0,0,100,0,284,1,27,23,0,-48,-58,0,0,100,0,387,39,121,70,0,-23,-9,0,0,65,0,0,17,46,18,0,
0,8,-21,-41,0,0,100,0,81,6,22,29,0,-19,-41,0,0,100,0,115,0,37,35,0,-15,-26,0,0,100,0,156,1,33,31,0,2,-38,0,0,100,0,102,8,12,21,0,-17,-67,0,0,100,0,426,1,40,37,0,0,-44,0,0,100,0,313,1,27,23,0,-48,-58,0,0,100,0,387,39,121,70,0,-23,-9,0,0,65,0,0,17,46,18,0,
0,6,-17,-25,0,0,100,0,203,7,13,10,0,-95,-48,1,0,100,0,387,39,121,70,0,-30,-40,0,0,100,0,0,51,48,47,0,-22,-65,0,0,100,0,342,1,40,37,0,-6,-40,0,0,100,0,283,27,29,20,0,-23,-9,0,0,65,0,0,17,46,18,0,
0,7,7,-35,0,0,100,0,191,7,11,9,0,-79,-53,0,0,100,0,370,121,132,41,0,-19,-16,0,0,100,0,56,83,38,21,0,-25,-42,0,0,100,0,50,50,48,34,0,-15,-66,0,0,100,0,342,1,40,37,0,-6,-41,0,0,100,0,317,25,23,23,0,-23,-9,0,0,65,0,0,17,46,18,0,
0,7,9,-35,0,0,100,0,191,7,11,9,0,-77,-53,0,0,100,0,370,121,132,41,0,-19,-16,0,0,100,0,56,83,38,21,0,-24,-42,0,0,100,0,50,50,48,33,0,-14,-66,0,0,100,0,342,1,40,37,0,-5,-41,0,0,100,0,317,25,23,23,0,-23,-9,0,0,65,0,0,17,46,18,0,
0,5,-123,-45,0,1,100,0,2,381,121,49,0,-40,-29,0,0,100,0,191,7,11,9,0,-107,-42,0,0,100,0,393,178,111,34,0,-42,-59,0,0,100,0,101,34,61,62,0,-30,-9,0,0,65,0,0,17,46,18,0,
0,8,-137,-41,0,1,100,0,2,430,128,48,0,9,-35,0,0,100,0,191,7,11,9,0,-77,-53,0,0,100,0,370,121,132,41,0,-19,-16,0,0,100,0,56,83,38,21,0,-24,-42,0,0,100,0,50,50,48,32,0,-14,-66,0,0,100,0,342,1,40,37,0,-5,-41,0,0,100,0,317,25,23,23,0,-23,-9,0,0,65,0,0,17,46,18,0,
0,6,-157,-33,0,1,100,0,2,477,130,33,0,-116,-44,0,1,100,0,158,392,121,38,0,-42,-30,0,0,100,0,191,7,11,9,0,-128,-49,0,0,100,0,370,121,132,41,0,-42,-59,0,0,100,0,101,34,61,62,0,-30,-9,0,0,65,0,0,17,46,18,0,
0,9,-132,-39,0,1,100,0,156,447,130,30,0,-27,-27,0,0,100,0,191,18,11,10,0,-6,-26,0,0,100,0,191,7,11,9,0,-94,-44,0,0,100,0,370,121,132,41,0,-28,-37,0,0,100,0,91,183,42,29,0,-28,-15,0,0,100,0,91,212,42,18,0,-27,-64,0,0,100,0,342,1,40,37,0,-15,-42,0,0,100,0,282,26,29,19,0,-29,-9,0,0,65,0,0,17,46,18,0,
0,9,-155,-37,0,1,50,0,153,488,132,24,0,-20,-27,0,0,100,0,191,18,11,10,0,1,-26,0,0,100,0,191,7,11,9,0,-87,-44,0,0,100,0,370,121,132,41,0,-25,-37,0,0,100,0,209,47,42,30,0,-25,-18,0,0,100,0,252,49,38,22,0,-18,-64,0,0,100,0,342,1,40,37,0,-21,-39,0,0,100,0,213,26,31,20,0,-29,-9,0,0,65,0,0,17,46,18,0,
0,8,-19,-27,0,0,100,0,191,18,11,10,0,2,-26,0,0,100,0,191,7,11,9,0,-86,-44,0,0,100,0,370,121,132,41,0,-24,-37,0,0,100,0,209,47,42,30,0,-25,-18,0,0,100,0,252,49,38,22,0,-17,-64,0,0,100,0,342,1,40,37,0,-20,-39,0,0,100,0,213,26,31,20,0,-29,-9,0,0,65,0,0,17,46,18,0,
0,7,-149,-34,0,0,100,0,435,424,75,26,0,-93,-28,0,0,100,0,191,18,11,10,0,-80,-27,0,0,100,0,191,7,11,9,0,-167,-45,0,0,100,0,370,121,132,41,0,-91,-56,0,0,100,0,52,110,60,61,0,-71,-60,0,0,50,0,439,395,73,69,0,-76,-9,0,0,65,0,0,17,46,18,0,
0,7,-158,-38,0,0,30,0,435,396,58,28,0,-95,-28,0,0,100,0,191,18,11,10,0,-82,-27,0,0,100,0,191,7,11,9,0,-169,-45,0,0,100,0,370,121,132,41,0,-93,-56,0,0,100,0,52,110,59,61,0,-77,-60,0,0,10,0,439,395,73,69,0,-78,-9,0,0,65,0,0,17,46,18,0,
0,6,-125,-149,0,0,100,0,341,227,153,111,0,-43,-82,0,0,100,0,293,48,28,22,0,-53,-105,0,0,100,0,0,101,47,77,0,-45,-108,0,0,100,0,342,1,40,37,0,-76,-124,0,0,100,0,259,74,124,56,0,-53,-9,0,0,65,0,0,17,46,18,0,
0,8,-85,-140,0,0,100,0,129,290,128,51,0,-98,-131,0,0,100,0,349,340,157,54,0,-108,-142,0,0,30,0,341,231,153,108,0,-26,-79,0,0,100,0,293,48,28,22,0,-36,-102,0,0,100,0,0,101,47,77,0,-28,-105,0,0,100,0,342,1,40,37,0,-59,-121,0,0,100,0,259,74,124,56,0,-37,-9,0,0,65,0,0,17,46,18,0,
0,7,-83,-136,0,0,100,0,129,290,128,51,0,-96,-127,0,0,30,0,349,340,157,57,0,-24,-75,0,0,100,0,293,48,28,22,0,-34,-98,0,0,100,0,0,101,47,77,0,-26,-101,0,0,100,0,342,1,40,37,0,-57,-117,0,0,100,0,259,74,124,56,0,-34,-9,0,0,65,0,0,17,46,18,0,
0,7,-71,-130,0,0,100,0,130,344,126,48,0,-11,-40,0,0,100,0,245,26,33,19,0,-28,-57,0,0,100,0,160,35,50,53,0,-24,-62,0,0,100,0,342,1,40,37,0,-18,-13,0,0,100,0,170,89,34,16,0,-42,-110,0,0,100,90,387,39,121,70,0,-24,-9,0,0,65,0,0,17,46,18,0,
0,6,-10,-38,0,0,100,0,282,26,32,21,0,-28,-58,0,0,100,0,160,35,50,54,0,-24,-63,0,0,100,0,342,1,40,37,0,-18,-13,0,0,100,0,170,89,34,16,0,-42,-111,0,0,100,90,387,39,121,70,0,-24,-9,0,0,65,0,0,17,46,18,0,
0,6,-12,-36,0,0,100,0,319,26,21,22,0,-28,-58,0,0,100,0,160,35,50,53,0,-24,-63,0,0,100,0,342,1,40,37,0,-18,-13,0,0,100,0,170,89,34,16,0,-42,-111,0,0,100,90,387,39,121,70,0,-24,-9,0,0,65,0,0,17,46,18,0,
0,7,-17,-24,0,0,80,0,203,7,13,10,0,-75,-21,0,0,100,90,250,266,74,108,0,-95,-47,1,0,100,0,387,39,121,70,0,-30,-39,0,0,100,0,0,51,48,47,0,-22,-64,0,0,100,0,342,1,40,37,0,-6,-39,0,0,100,0,283,27,29,20,0,-23,-9,0,0,65,0,0,17,46,18,0,
0,9,-80,-88,0,0,80,0,256,266,68,108,0,-21,-32,0,0,100,-90,203,7,13,10,0,-57,-107,1,0,100,-90,387,39,121,70,0,-18,-14,0,0,100,0,57,84,15,17,0,-2,-13,0,0,100,0,76,85,19,19,0,-22,-38,0,0,100,0,112,96,36,31,0,-20,-65,0,0,100,0,342,1,40,37,0,-5,-40,0,0,100,0,283,27,29,20,0,-23,-9,0,0,65,0,0,17,46,18,0,
0,8,-5,-63,0,0,100,0,130,131,16,36,0,-18,-40,1,0,100,0,119,0,32,33,0,-18,-26,1,0,100,0,155,0,34,32,0,-18,-66,0,0,100,0,342,1,40,37,0,-6,-43,0,0,100,0,318,26,21,22,0,-52,-85,0,0,100,0,260,79,113,52,0,-17,-63,0,0,100,0,114,131,17,35,0,-23,-9,0,0,65,0,0,17,46,18,0,
0,8,-4,-64,0,0,100,0,130,131,16,36,0,-17,-41,1,0,100,0,119,0,32,33,0,-18,-26,1,0,100,0,155,0,34,32,0,-16,-67,0,0,100,0,342,1,40,37,0,-5,-43,0,0,100,0,318,26,21,22,0,-16,-64,0,0,100,0,114,131,17,35,0,-59,-96,0,0,100,180,5,285,123,72,0,-23,-9,0,0,65,0,0,17,46,18,0,
0,8,-4,-64,0,0,100,0,130,131,16,36,0,-17,-41,1,0,100,0,119,0,32,33,0,-18,-26,1,0,100,0,155,0,34,32,0,-16,-67,0,0,100,0,342,1,40,37,0,-5,-43,0,0,100,0,318,26,21,22,0,-16,-64,0,0,100,0,114,131,17,35,0,-57,-97,0,0,100,0,5,285,123,72,0,-23,-9,0,0,65,0,0,17,46,18,0,
0,9,-5,-63,0,0,100,0,130,131,16,36,0,-18,-40,1,0,100,0,119,0,32,33,0,-18,-26,1,0,100,0,172,0,17,32,0,-4,-26,1,0,100,0,155,0,17,32,0,-18,-66,0,0,100,0,342,1,40,37,0,-42,-115,1,0,100,-90,392,43,107,73,0,-6,-42,0,0,100,0,318,26,21,22,0,-17,-63,0,0,100,0,114,131,17,35,0,-24,-9,0,0,65,0,0,17,46,18,0,
0,5,-5,-41,0,0,100,0,283,26,29,20,0,-18,-65,0,0,100,0,1,231,40,37,0,-27,-38,0,0,100,0,45,181,40,48,0,-84,-61,1,0,100,0,392,43,107,73,0,-24,-9,0,0,65,0,0,17,46,18,0,
0,8,-15,-39,1,0,100,0,319,26,19,22,0,-38,-22,0,0,100,0,147,169,87,37,0,-15,-12,0,0,100,0,187,116,18,15,0,-19,-36,0,0,100,0,208,91,37,41,0,-24,-66,1,0,100,0,468,1,40,37,0,-73,-51,1,0,100,0,392,43,107,73,0,-26,-18,0,0,50,0,258,164,55,24,0,-24,-9,0,0,65,0,0,17,46,18,0,
0,9,-51,-21,0,0,100,0,137,207,107,38,0,-28,-43,1,0,100,0,196,133,35,24,0,-15,-12,0,0,100,0,187,116,18,15,0,-18,-36,0,0,100,0,208,91,37,41,0,-23,-66,1,0,100,0,468,1,40,37,0,-72,-51,1,0,100,0,392,43,107,73,0,-13,-14,0,0,50,0,313,162,59,29,0,-26,-18,0,0,80,0,258,164,55,24,0,-23,-9,0,0,65,0,0,17,46,18,0,
0,10,-49,-20,0,0,50,0,139,246,106,41,0,-28,-43,1,0,100,0,196,133,35,24,0,-15,-12,0,0,100,0,187,116,18,15,0,-18,-36,0,0,100,0,208,91,37,41,0,-23,-66,1,0,100,0,468,1,40,37,0,-72,-51,1,0,100,0,392,43,107,73,0,-42,-10,0,0,50,0,258,187,56,29,0,-13,-14,0,0,80,0,313,162,59,29,0,-26,-18,0,0,100,0,258,164,55,24,0,-23,-9,0,0,65,0,0,17,46,18,0,
0,9,-28,-43,1,0,100,0,233,133,35,24,0,-15,-12,0,0,100,0,187,116,18,15,0,-18,-36,0,0,100,0,208,91,37,41,0,-23,-66,1,0,100,0,468,1,40,37,0,-72,-51,1,0,100,0,392,43,107,73,0,-42,-10,0,0,80,0,258,187,56,29,0,-13,-14,0,0,100,0,313,162,59,29,0,-26,-18,0,0,100,0,258,164,55,24,0,-23,-9,0,0,65,0,0,17,46,18,0,
0,10,-28,-43,1,0,100,0,233,133,35,24,0,-15,-12,0,0,100,0,187,116,18,15,0,-18,-36,0,0,100,0,208,91,37,41,0,-23,-66,1,0,100,0,468,1,40,37,0,-72,-51,1,0,100,0,392,43,107,73,0,-42,-19,0,1,100,0,252,218,89,37,0,-42,-10,0,0,100,0,258,187,56,29,0,-13,-14,0,0,100,0,313,162,59,29,0,-26,-18,0,0,100,0,258,164,55,24,0,-23,-9,0,0,65,0,0,17,46,18,0,
0,10,-28,-43,1,0,100,0,270,133,35,24,0,-15,-12,0,0,100,0,187,116,18,15,0,-18,-36,0,0,100,0,208,91,37,41,0,-23,-66,1,0,100,0,468,1,40,37,0,-72,-51,1,0,100,0,392,43,107,73,0,-42,-19,0,1,50,0,252,218,89,37,0,-42,-10,0,0,100,0,258,187,56,29,0,-13,-14,0,0,100,0,313,162,59,29,0,-26,-18,0,0,100,0,258,164,55,24,0,-23,-9,0,0,65,0,0,17,46,18,0,
0,9,-28,-43,1,0,100,0,270,133,35,24,0,-15,-12,0,0,100,0,187,116,18,15,0,-18,-36,0,0,100,0,208,91,37,41,0,-23,-66,1,0,100,0,468,1,40,37,0,-72,-51,1,0,100,0,392,43,107,73,0,-42,-10,0,0,100,0,258,187,56,29,0,-13,-14,0,0,100,0,313,162,59,29,0,-26,-18,0,0,100,0,258,164,55,24,0,-23,-9,0,0,65,0,0,17,46,18,0,
0,9,-28,-43,1,0,100,0,196,133,35,24,0,-15,-12,0,0,100,0,187,116,18,15,0,-18,-36,0,0,100,0,208,91,37,41,0,-23,-66,1,0,100,0,468,1,40,37,0,-72,-51,1,0,100,0,392,43,107,73,0,-42,-10,0,0,100,0,258,187,56,29,0,-13,-14,0,0,100,0,313,162,59,29,0,-26,-18,0,0,100,0,258,164,55,24,0,-23,-9,0,0,65,0,0,17,46,18,0,
0,9,-28,-43,1,0,100,0,233,133,35,24,0,-15,-12,0,0,100,0,187,116,18,15,0,-18,-36,0,0,100,0,208,91,37,41,0,-23,-66,1,0,100,0,468,1,40,37,0,-72,-51,1,0,100,0,392,43,107,73,0,-42,-10,0,0,100,0,258,187,56,29,0,-13,-14,0,0,100,0,313,162,59,29,0,-26,-18,0,0,100,0,258,164,55,24,0,-23,-9,0,0,65,0,0,17,46,18,0,
0,9,-28,-43,1,0,100,0,270,133,35,24,0,-15,-12,0,0,100,0,187,116,18,15,0,-18,-36,0,0,100,0,208,91,37,41,0,-23,-66,1,0,100,0,468,1,40,37,0,-72,-51,1,0,100,0,392,43,107,73,0,-42,-10,0,0,100,0,258,187,56,29,0,-13,-14,0,0,100,0,313,162,59,29,0,-26,-18,0,0,100,0,258,164,55,24,0,-23,-9,0,0,65,0,0,17,46,18,0,
0,9,-28,-43,1,0,100,0,307,133,35,24,0,-15,-12,0,0,100,0,187,116,18,15,0,-18,-36,0,0,100,0,208,91,37,41,0,-23,-66,1,0,100,0,468,1,40,37,0,-72,-51,1,0,100,0,392,43,107,73,0,-42,-10,0,0,100,0,258,187,56,29,0,-13,-14,0,0,100,0,313,162,59,29,0,-26,-18,0,0,100,0,258,164,55,24,0,-23,-9,0,0,65,0,0,17,46,18,0,
0,8,-21,-27,0,0,100,0,191,18,11,10,0,0,-26,0,0,100,0,191,7,11,9,0,-88,-44,0,0,100,0,370,121,132,41,0,-22,-37,0,0,100,0,91,183,42,29,0,-22,-15,0,0,100,0,91,212,42,18,0,-21,-64,0,0,100,0,342,1,40,37,0,-5,-46,0,0,100,0,246,26,29,19,0,-23,-9,0,0,65,0,0,17,46,18,0,
