0,2,-33,-57,0,0,100,0,0,0,64,64,0,-16,-8,0,0,65,0,448,0,32,16,0,
0,2,-33,-57,0,0,100,0,64,0,64,64,0,-16,-8,0,0,65,0,448,0,32,16,0,
0,2,-33,-57,0,0,100,0,128,0,64,64,0,-16,-8,0,0,65,0,448,0,32,16,0,
0,2,-33,-57,0,0,100,0,192,0,64,64,0,-16,-8,0,0,65,0,448,0,32,16,0,
0,2,-33,-57,0,0,100,0,0,64,64,64,0,-16,-8,0,0,65,0,448,0,32,16,0,
0,3,-34,-42,0,0,100,0,256,16,64,48,0,-33,-57,0,0,100,0,64,64,64,64,0,-16,-8,0,0,65,0,448,0,32,16,0,
0,3,-38,-76,0,0,100,0,320,0,64,64,0,-38,-57,0,0,100,0,128,64,64,64,0,-16,-8,0,0,65,0,448,0,32,16,0,
0,3,-38,-72,0,0,100,0,384,0,64,64,0,-38,-57,0,0,100,0,192,64,64,64,0,-16,-8,0,0,65,0,448,0,32,16,0,
0,2,-37,-57,0,0,100,0,0,128,64,64,0,-16,-8,0,0,65,0,448,0,32,16,0,
0,2,-37,-57,0,0,100,0,64,128,64,64,0,-16,-8,0,0,65,0,448,0,32,16,0,
0,2,-33,-57,0,0,100,0,128,128,64,64,0,-16,-8,0,0,65,0,448,0,32,16,0,
0,2,-33,-57,0,0,100,0,192,128,64,64,0,-16,-8,0,0,65,0,448,0,32,16,0,
0,2,-33,-57,0,0,100,0,0,192,64,64,0,-16,-8,0,0,65,0,448,0,32,16,0,
0,2,-33,-57,0,0,100,0,64,192,64,64,0,-16,-8,0,0,65,0,448,0,32,16,0,
0,2,-33,-57,0,0,100,0,128,192,64,64,0,-16,-8,0,0,65,0,448,0,32,16,0,
0,2,-33,-57,0,0,100,0,192,192,64,64,0,-16,-8,0,0,65,0,448,0,32,16,0,
0,2,-33,-57,0,0,100,0,256,192,64,64,0,-16,-8,0,0,65,0,448,0,32,16,0,
0,2,-43,-57,0,0,100,0,256,64,64,64,0,-16,-8,0,0,65,0,448,0,32,16,0,
