0,9,-54,-61,0,0,100,0,122,76,33,27,0,-5,-60,0,0,100,0,124,138,42,49,0,-21,-58,0,0,100,0,165,138,49,49,0,-38,-61,0,0,100,0,124,107,42,32,0,-41,-49,0,0,100,0,213,107,74,32,0,-32,-46,0,0,100,0,213,138,70,49,0,-4,-32,0,0,100,0,165,107,49,32,0,-47,-89,0,0,100,0,283,107,88,80,0,-27,-13,0,0,65,0,17,38,54,26,0,
0,9,-54,-60,0,0,100,0,167,76,33,27,0,-5,-59,0,0,100,0,124,138,42,49,0,-21,-57,0,0,100,0,165,138,49,49,0,-38,-60,0,0,100,0,124,107,42,32,0,-41,-48,0,0,100,0,213,107,74,32,0,-32,-46,0,0,100,0,73,202,74,49,0,-4,-31,0,0,100,0,0,251,49,32,0,-47,-88,0,0,100,0,283,107,87,80,0,-27,-13,0,0,65,0,17,38,54,26,0,
0,9,-54,-61,0,0,100,0,209,76,33,27,0,-5,-59,0,0,100,0,124,138,42,49,0,-21,-58,0,0,100,0,165,138,49,49,0,-38,-61,0,0,100,0,124,107,42,32,0,-41,-49,0,0,100,0,213,107,74,32,0,-32,-46,0,0,100,0,213,138,70,49,0,-4,-32,0,0,100,0,48,251,49,32,0,-47,-89,0,0,100,0,283,107,87,80,0,-27,-13,0,0,65,0,17,38,54,26,0,
0,9,-54,-62,0,0,100,0,252,76,33,27,0,-5,-60,0,0,100,0,124,138,42,49,0,-21,-59,0,0,100,0,165,138,49,49,0,-38,-62,0,0,100,0,124,107,42,32,0,-41,-50,0,0,100,0,213,107,74,32,0,-32,-46,0,0,100,0,0,202,74,49,0,-4,-33,0,0,100,0,96,251,49,32,0,-47,-90,0,0,100,0,283,107,87,80,0,-27,-13,0,0,65,0,17,38,54,26,0,
0,9,-57,-58,0,0,100,0,167,76,33,27,0,-21,-53,0,0,100,0,0,315,42,49,0,-45,-56,0,0,100,0,0,412,42,32,0,-79,-60,0,0,100,90,314,189,83,100,0,-29,-54,0,0,100,0,0,363,49,49,0,-44,-42,0,0,100,0,0,283,36,32,0,-34,-46,0,0,100,0,145,202,74,49,0,-6,-32,0,0,100,0,0,251,49,32,0,-27,-13,0,0,65,0,17,38,54,26,0,
0,9,-45,-85,0,0,100,0,167,76,33,27,0,-58,-72,0,0,100,-90,124,315,42,49,0,-11,-40,0,0,100,0,144,250,49,32,0,-35,-62,0,0,100,0,192,363,49,49,0,-40,-76,0,0,100,0,123,412,42,32,0,-7,-65,1,0,100,0,105,282,36,32,0,-43,-46,0,0,100,0,218,251,73,49,0,-21,-85,0,0,100,-90,374,290,50,107,0,-27,-13,0,0,65,0,17,38,54,26,0,
0,9,-44,-86,0,0,100,0,252,76,33,27,0,-57,-73,0,0,100,-90,124,315,42,49,0,-10,-41,0,0,100,0,144,250,49,32,0,-34,-63,0,0,100,0,192,363,49,49,0,-39,-77,0,0,100,0,123,412,42,32,0,-5,-66,1,0,100,0,105,282,36,32,0,-43,-46,0,0,100,0,218,251,73,49,0,-19,-86,0,0,100,-90,374,290,50,107,0,-27,-13,0,0,65,0,17,38,54,26,0,
0,10,-61,-81,0,0,80,0,164,445,40,48,0,-119,-83,0,0,80,0,268,399,78,101,0,-33,-59,0,0,100,90,83,315,42,49,0,-46,-52,0,0,100,0,96,363,49,49,0,-63,-50,0,0,100,0,124,107,42,32,0,-65,-33,0,0,100,0,35,283,36,32,0,-50,-46,0,0,100,0,218,202,73,49,0,-25,-35,0,0,100,0,0,251,49,32,0,-113,-32,0,0,100,90,375,291,49,106,0,-44,-13,0,0,65,0,17,38,54,26,0,
0,10,-63,-79,0,0,50,0,212,445,48,48,0,-120,-84,0,0,50,0,345,398,78,102,0,-33,-59,0,0,100,90,83,315,42,49,0,-46,-52,0,0,100,0,96,363,49,49,0,-63,-50,0,0,100,0,124,107,42,32,0,-65,-33,0,0,100,0,35,283,36,32,0,-50,-46,0,0,100,0,218,202,73,49,0,-25,-35,0,0,100,0,0,251,49,32,0,-113,-32,0,0,100,90,375,291,49,106,0,-44,-13,0,0,65,0,17,38,54,26,0,
0,8,-33,-59,0,0,100,90,83,315,42,49,0,-46,-52,0,0,100,0,96,363,49,49,0,-63,-50,0,0,100,0,124,107,42,32,0,-65,-33,0,0,100,0,35,283,36,32,0,-50,-46,0,0,100,0,218,202,73,49,0,-25,-35,0,0,100,0,0,251,49,32,0,-113,-32,0,0,100,90,375,291,49,106,0,-44,-13,0,0,65,0,17,38,54,26,0,
0,8,-33,-58,0,0,100,90,83,315,42,49,0,-46,-51,0,0,100,0,96,363,49,49,0,-63,-49,0,0,100,0,124,107,42,32,0,-64,-33,0,0,100,0,35,283,36,32,0,-50,-46,0,0,100,0,218,202,73,49,0,-26,-34,0,0,100,0,48,251,49,32,0,-112,-32,0,0,100,90,375,291,49,106,0,-44,-13,0,0,65,0,17,38,54,26,0,
0,9,-57,-58,0,0,100,0,121,76,33,27,0,-21,-53,0,0,100,0,0,315,42,49,0,-45,-56,0,0,100,0,0,412,42,32,0,-44,-42,0,0,100,0,0,283,36,32,0,-79,-60,0,0,100,90,314,189,83,100,0,-29,-54,0,0,100,0,0,363,49,49,0,-34,-46,0,0,100,0,145,202,74,49,0,-6,-32,0,0,100,0,0,251,49,32,0,-28,-13,0,0,65,0,17,38,54,26,0,
0,9,-56,-58,0,0,100,0,167,76,33,27,0,-6,-56,0,0,100,0,124,138,42,49,0,-39,-58,0,0,100,0,83,412,41,32,0,-23,-55,0,0,100,0,0,363,49,49,0,-41,-46,0,0,100,0,213,107,74,32,0,-32,-46,0,0,100,0,73,202,73,49,0,-4,-31,0,0,100,0,96,251,49,32,0,-50,-86,0,0,100,0,283,107,88,80,0,-27,-13,0,0,65,0,17,38,54,26,0,
0,9,-30,-89,0,0,100,0,209,76,33,27,0,4,-61,0,0,100,0,165,315,42,49,0,-20,-61,0,0,100,0,144,363,49,49,0,-23,-75,0,0,100,0,42,411,41,32,0,-36,-83,0,0,100,-90,140,283,36,32,0,-32,-46,0,0,100,0,0,202,73,49,0,-2,-31,0,0,100,0,0,251,49,32,0,-56,-121,0,0,100,0,283,107,88,80,0,-27,-13,0,0,65,0,17,38,54,26,0,
0,9,-30,-88,0,0,100,0,252,76,33,27,0,3,-60,0,0,100,0,165,315,42,49,0,-20,-60,0,0,100,0,144,363,49,49,0,-23,-74,0,0,100,0,42,411,41,32,0,-36,-81,0,0,100,-90,140,283,36,32,0,-32,-46,0,0,100,0,0,202,73,49,0,-2,-32,0,0,100,0,165,107,49,32,0,-56,-119,0,0,100,0,283,107,88,80,0,-27,-13,0,0,65,0,17,38,54,26,0,
0,9,-30,-89,0,0,100,0,122,76,33,27,0,4,-61,0,0,100,0,165,315,42,49,0,-20,-61,0,0,100,0,144,363,49,49,0,-23,-75,0,0,100,0,42,411,41,32,0,-36,-83,0,0,100,-90,140,283,36,32,0,-32,-46,0,0,100,0,0,202,73,49,0,-2,-31,0,0,100,0,0,251,49,32,0,-56,-121,0,0,100,0,283,107,88,80,0,-27,-13,0,0,65,0,17,38,54,26,0,
0,9,-30,-88,0,0,100,0,167,76,33,27,0,3,-60,0,0,100,0,165,315,42,49,0,-20,-60,0,0,100,0,144,363,49,49,0,-23,-74,0,0,100,0,42,411,41,32,0,-36,-81,0,0,100,-90,140,283,36,32,0,-32,-46,0,0,100,0,0,202,73,49,0,-2,-32,0,0,100,0,165,107,49,32,0,-56,-119,0,0,100,0,283,107,88,80,0,-27,-13,0,0,65,0,17,38,54,26,0,
