0,2,-64,-95,0,0,100,0,0,0,128,112,0,-33,-17,0,0,65,0,752,368,64,32,0,
0,2,-64,-95,0,0,100,0,128,0,128,112,0,-33,-17,0,0,65,0,752,368,64,32,0,
0,2,-64,-95,0,0,100,0,256,0,128,112,0,-33,-17,0,0,65,0,752,368,64,32,0,
0,2,-64,-95,0,0,100,0,384,0,128,112,0,-33,-17,0,0,65,0,752,368,64,32,0,
0,2,-56,-78,0,0,100,0,416,112,96,96,0,-33,-17,0,0,65,0,752,368,64,32,0,
0,2,-47,-79,0,0,100,0,0,112,96,96,0,-33,-17,0,0,65,0,752,368,64,32,0,
0,2,-47,-79,0,0,100,0,96,112,96,96,0,-33,-17,0,0,65,0,752,368,64,32,0,
0,2,-47,-79,0,0,100,0,192,112,96,96,0,-33,-17,0,0,65,0,752,368,64,32,0,
0,3,1,-79,0,0,90,0,512,352,64,64,0,-47,-79,0,0,100,0,288,112,96,96,0,-39,-17,0,0,65,0,752,368,64,32,0,
0,3,-111,-111,0,0,90,0,576,352,144,128,0,-95,-79,0,0,100,0,0,208,128,96,0,-47,-17,0,0,65,0,752,368,64,32,0,
0,2,-95,-79,0,0,100,0,128,208,128,96,0,-47,-17,0,0,65,0,752,368,64,32,0,
0,2,-95,-79,0,0,100,0,256,208,128,96,0,-47,-17,0,0,65,0,752,368,64,32,0,
0,2,-95,-79,0,0,100,0,384,208,112,96,0,-47,-17,0,0,65,0,752,368,64,32,0,
0,2,-95,-79,0,0,100,0,0,304,128,96,0,-47,-17,0,0,65,0,752,368,64,32,0,
0,2,-95,-79,0,0,100,0,384,304,128,96,0,-40,-17,0,0,65,0,752,368,64,32,0,
0,2,-80,-128,0,0,100,0,0,400,128,144,0,-33,-17,0,0,65,0,752,368,64,32,0,
0,2,-80,-128,0,0,100,0,128,400,128,144,0,-33,-17,0,0,65,0,752,368,64,32,0,
0,2,-80,-128,0,0,100,0,256,400,128,144,0,-33,-17,0,0,65,0,752,368,64,32,0,
0,2,-80,-128,0,0,100,0,384,400,128,144,0,-33,-17,0,0,65,0,752,368,64,32,0,
0,2,-80,-128,0,0,100,0,0,544,128,144,0,-33,-17,0,0,65,0,752,368,64,32,0,
0,2,-80,-128,0,0,100,0,128,544,128,144,0,-33,-17,0,0,65,0,752,368,64,32,0,
0,2,-80,-128,0,0,100,0,256,544,128,144,0,-33,-17,0,0,65,0,752,368,64,32,0,
0,3,-63,-122,0,1,65,0,0,832,144,128,0,-80,-128,0,0,100,0,384,544,128,144,0,-33,-17,0,0,65,0,752,368,64,32,0,
0,3,-74,-117,0,1,80,0,144,832,144,128,0,-80,-128,0,0,100,0,0,688,128,144,0,-33,-17,0,0,65,0,752,368,64,32,0,
0,3,-83,-115,0,1,80,0,288,832,144,128,0,-80,-128,0,0,100,0,128,688,128,144,0,-33,-17,0,0,65,0,752,368,64,32,0,
0,3,-92,-104,0,1,80,0,432,832,144,128,0,-80,-128,0,0,100,0,256,688,128,144,0,-33,-17,0,0,65,0,752,368,64,32,0,
0,3,-81,-113,0,1,80,0,576,832,144,128,0,-80,-128,0,0,100,0,384,688,128,144,0,-33,-17,0,0,65,0,752,368,64,32,0,
