0,6,-33,-44,0,0,100,0,116,145,47,47,0,-32,-26,0,0,100,0,162,159,48,33,0,-17,-28,0,0,100,0,209,159,48,33,0,-8,-35,0,0,100,0,162,136,34,24,0,-2,-50,0,0,100,0,195,119,34,41,0,-36,-24,0,0,65,0,8,27,72,43,0,
0,6,-33,-45,0,0,100,0,0,203,47,47,0,-32,-26,0,0,100,0,0,250,48,33,0,-8,-35,0,0,100,0,0,282,34,24,0,-17,-28,0,0,100,0,0,305,48,33,0,-1,-54,0,0,100,0,0,337,34,41,0,-36,-24,0,0,65,0,8,27,72,43,0,
0,6,-33,-44,0,0,100,0,116,145,47,47,0,-32,-26,0,0,100,0,162,159,48,33,0,-17,-28,0,0,100,0,209,159,48,33,0,-8,-35,0,0,100,0,162,136,34,24,0,-2,-50,0,0,100,0,165,337,34,41,0,-36,-24,0,0,65,0,8,27,72,43,0,
0,6,-33,-43,0,0,100,0,47,203,47,47,0,-32,-26,0,0,100,0,47,250,48,33,0,-17,-28,0,0,100,0,47,305,48,33,0,-8,-34,0,0,100,0,33,282,34,24,0,-4,-51,0,0,100,0,33,337,34,41,0,-36,-24,0,0,65,0,8,27,72,43,0,
0,6,-32,-41,0,0,100,0,47,203,47,47,0,-33,-26,0,0,100,0,47,250,48,33,0,-7,-32,0,0,100,0,33,282,34,24,0,-17,-28,0,0,100,0,47,305,48,33,0,-2,-48,0,0,100,0,33,337,34,41,0,-36,-24,0,0,65,0,8,27,72,43,0,
0,6,-43,-66,0,0,100,0,94,203,47,47,0,-37,-47,0,0,100,0,141,249,48,33,0,-21,-58,0,0,100,0,66,282,34,24,0,-27,-50,0,0,100,0,94,305,48,33,0,-2,-59,0,0,100,-90,0,337,34,41,0,-37,-24,0,0,65,0,8,27,72,43,0,
0,7,-49,-89,0,0,40,0,0,404,93,80,0,-33,-67,0,0,100,180,198,337,33,48,0,-50,-56,0,0,100,90,141,203,47,47,0,-29,-57,0,0,100,90,141,250,48,33,0,-41,-59,0,0,100,90,66,282,34,24,0,-29,-72,0,0,100,-90,66,337,34,41,0,-57,-24,0,0,65,0,8,27,72,43,0,
0,7,-76,-104,0,0,40,-270,0,404,93,80,0,-54,-60,0,0,100,-90,198,337,33,48,0,-41,-59,0,0,100,-180,141,203,47,47,0,-44,-64,0,0,100,-180,141,250,48,33,0,-46,-43,0,0,100,-180,66,282,34,24,0,-59,-72,0,0,100,0,66,337,34,41,0,-60,-24,0,0,65,0,8,27,72,43,0,
0,7,-101,-88,0,0,40,-180,0,404,93,80,0,-57,-78,0,0,100,0,198,337,33,48,0,-56,-90,0,0,100,-90,141,203,47,47,0,-61,-88,0,0,100,-90,141,250,48,33,0,-40,-72,0,0,100,-90,66,282,34,24,0,-69,-59,0,0,100,90,66,337,34,41,0,-73,-24,0,0,65,0,8,27,72,43,0,
0,7,-82,-83,0,0,30,0,92,404,93,80,0,-88,-83,0,0,100,0,94,203,47,47,0,-82,-63,0,0,100,0,141,250,48,33,0,-66,-75,0,0,100,0,66,282,34,24,0,-72,-67,0,0,100,0,94,305,48,33,0,-48,-77,0,0,100,270,66,337,34,41,0,-88,-24,0,0,65,0,8,27,72,43,0,
0,6,-109,-59,0,0,100,0,141,203,47,47,0,-100,-36,0,0,100,0,94,250,48,33,0,-92,-51,0,0,100,0,99,282,34,24,0,-82,-54,0,0,100,0,141,305,48,33,0,-68,-67,0,0,100,-90,132,337,34,41,0,-108,-24,0,0,65,0,8,27,72,43,0,
0,6,-108,-60,0,0,100,0,141,203,47,47,0,-99,-37,0,0,100,0,94,250,48,33,0,-91,-52,0,0,100,0,99,282,34,24,0,-81,-55,0,0,100,0,141,305,48,33,0,-67,-68,0,0,100,-90,132,337,34,41,0,-107,-24,0,0,65,0,8,27,72,43,0,
0,6,-88,-43,0,0,100,0,188,203,47,47,0,-89,-26,0,0,100,0,162,159,48,33,0,-74,-28,0,0,100,0,209,159,48,33,0,-65,-33,0,0,100,0,162,136,34,24,0,-59,-48,0,0,100,0,195,119,34,41,0,-93,-24,0,0,65,0,8,27,72,43,0,
0,6,-91,-48,0,0,100,0,0,203,47,47,0,-89,-26,0,0,100,0,188,250,48,33,0,-65,-35,0,0,100,0,0,282,34,24,0,-74,-28,0,0,100,0,0,305,48,33,0,-58,-53,0,0,100,0,0,337,34,41,0,-93,-24,0,0,65,0,8,27,72,43,0,
0,6,-60,-53,0,0,100,0,116,145,47,47,0,-62,-33,0,0,100,0,188,250,48,33,0,-40,-44,0,0,100,0,66,282,34,24,0,-27,-37,0,0,100,0,232,159,25,33,0,-35,-57,0,0,100,0,195,119,34,41,0,-69,-24,0,0,65,0,8,27,72,43,0,
0,6,-32,-41,0,0,100,0,47,203,47,47,0,-33,-26,0,0,100,0,47,250,48,33,0,-7,-32,0,0,100,0,33,282,34,24,0,-17,-28,0,0,100,0,47,305,48,33,0,-2,-48,0,0,100,0,33,337,34,41,0,-36,-24,0,0,65,0,8,27,72,43,0,
0,6,-36,-51,0,0,100,0,0,203,47,47,0,-35,-28,0,0,100,0,329,250,48,33,0,-13,-37,0,0,100,0,162,136,34,24,0,-8,-33,0,0,100,0,282,305,48,33,0,7,-45,0,0,100,-90,132,337,34,41,0,-36,-24,0,0,65,0,8,27,72,43,0,
0,6,-22,-29,0,0,100,0,235,305,48,33,0,-35,-50,0,0,100,0,94,203,47,47,0,-31,-25,0,0,100,0,282,250,48,33,0,-16,-28,0,0,100,0,132,282,34,24,0,-3,-41,0,0,100,0,99,337,34,41,0,-36,-24,0,0,65,0,8,27,72,43,0,
0,7,-21,-29,0,0,100,0,235,305,48,33,0,-32,-55,0,0,100,0,235,203,47,47,0,-29,-25,0,0,100,0,235,250,48,33,0,-20,-33,0,0,100,0,132,282,34,24,0,-5,-39,0,0,100,0,0,337,34,41,0,-27,-27,0,0,100,0,330,305,40,37,0,-36,-24,0,0,65,0,8,27,72,43,0,
0,7,-21,-29,0,0,100,0,188,305,48,33,0,-32,-54,0,0,100,0,282,203,47,47,0,-29,-25,0,0,100,0,282,250,48,33,0,-20,-30,0,0,100,0,132,282,34,24,0,-5,-39,0,0,100,0,99,337,34,41,0,-27,-27,0,0,100,0,330,305,40,37,0,-36,-24,0,0,65,0,8,27,72,43,0,
