0,3,-36,-65,0,1,100,0,560,0,112,80,0,-64,-81,0,0,100,0,0,0,128,96,0,-48,-16,0,0,65,0,1200,64,96,32,0,
0,3,-36,-65,0,1,100,0,672,0,112,80,0,-64,-81,0,0,100,0,128,0,128,96,0,-48,-16,0,0,65,0,1200,64,96,32,0,
0,3,-36,-65,0,1,100,0,784,0,112,80,0,-64,-81,0,0,100,0,256,0,128,96,0,-48,-16,0,0,65,0,1200,64,96,32,0,
0,3,-36,-65,0,1,100,0,896,0,112,80,0,-64,-81,0,0,100,0,384,0,128,96,0,-48,-16,0,0,65,0,1200,64,96,32,0,
0,5,64,-179,0,0,40,0,288,96,144,112,0,-36,-65,0,1,60,0,896,0,112,80,0,-59,-110,0,0,100,0,0,96,128,96,0,88,-16,0,0,46,0,1200,64,96,32,0,-48,-16,0,0,46,0,1200,64,96,32,0,
0,5,-36,-65,0,1,30,0,896,0,112,80,0,28,-153,0,0,100,0,288,96,144,112,0,-59,-116,0,0,100,0,0,96,128,96,0,52,-16,0,0,46,0,1200,64,96,32,0,-48,-16,0,0,46,0,1200,64,96,32,0,
0,4,-9,-124,0,0,100,0,288,96,144,112,0,-59,-119,0,0,100,0,0,96,128,96,0,15,-16,0,0,46,0,1200,64,96,32,0,-48,-16,0,0,46,0,1200,64,96,32,0,
0,4,-33,-109,0,0,100,0,288,96,144,112,0,-59,-117,0,0,100,0,0,96,128,96,0,-9,-16,0,0,46,0,1200,64,96,32,0,-48,-16,0,0,46,0,1200,64,96,32,0,
0,2,-69,-115,0,0,100,0,128,96,160,112,0,-48,-16,0,0,46,0,1200,64,96,32,0,
0,2,-117,-139,0,0,100,0,128,96,160,112,0,-96,-16,0,0,46,0,1200,64,96,32,0,
0,2,-157,-187,0,0,100,0,128,96,160,112,0,-136,-16,0,0,46,0,1200,64,96,32,0,
0,2,-181,-219,0,0,70,0,128,96,160,112,0,-160,-16,0,0,30,0,1200,64,96,32,0,
0,2,-205,-251,0,0,35,0,128,96,160,112,0,-184,-16,0,0,15,0,1200,64,96,32,0,
0,1,0,0,0,0,100,0,1008,0,32,32,0,
0,2,-347,-188,0,0,100,0,0,544,144,112,0,-328,-16,0,0,46,0,1200,64,96,32,0,
0,2,-281,-143,0,0,100,0,0,544,144,112,0,-262,-16,0,0,46,0,1200,64,96,32,0,
0,3,-256,-149,0,1,100,0,0,1216,208,160,0,-229,-118,0,0,100,0,144,544,144,112,0,-209,-16,0,0,46,0,1200,64,96,32,0,
0,3,-216,-176,0,1,100,0,208,1216,224,160,0,-160,-132,0,0,100,0,288,544,144,112,0,-127,-16,0,0,46,0,1200,64,96,32,0,
0,3,-91,-198,0,1,100,0,432,1216,176,160,0,-127,-158,0,0,100,0,432,544,144,112,0,-95,-16,0,0,46,0,1200,64,96,32,0,
0,3,-86,-206,0,1,75,0,432,1216,176,160,0,-102,-174,0,0,100,0,0,656,144,112,0,-71,-16,0,0,46,0,1200,64,96,32,0,
0,2,-81,-187,0,0,100,0,144,656,144,112,0,-50,-16,0,0,46,0,1200,64,96,32,0,
0,2,-51,-196,0,0,100,0,288,656,144,112,0,-26,-16,0,0,46,0,1200,64,96,32,0,
0,2,-25,-207,0,0,100,0,432,656,144,112,0,1,-16,0,0,46,0,1200,64,96,32,0,
0,2,-35,-194,0,0,100,0,0,768,144,112,0,-9,-16,0,0,46,0,1200,64,96,32,0,
0,2,-74,-152,0,0,100,0,144,768,160,112,0,-57,-16,0,0,46,0,1200,64,96,32,0,
0,5,-146,-107,0,1,100,0,608,1216,160,144,0,-138,-133,1,1,100,0,0,1216,208,160,0,-118,-110,0,0,100,0,304,768,144,112,0,-157,-91,0,0,100,0,432,96,128,112,0,-89,-16,0,0,46,0,1200,64,96,32,0,
0,4,-150,-96,0,1,100,0,768,1216,240,160,0,-218,-155,1,1,100,0,208,1216,224,160,0,-221,-126,0,0,100,0,448,768,160,112,0,-182,-16,0,0,46,0,1200,64,96,32,0,
0,4,-272,-192,1,1,100,0,432,1216,176,160,0,-140,-105,0,1,100,0,1008,1216,224,176,0,-244,-172,0,0,100,0,608,768,160,112,0,-206,-16,0,0,46,0,1200,64,96,32,0,
0,4,-274,-198,1,1,65,0,432,1216,176,160,0,-137,-105,0,1,30,0,1008,1216,224,176,0,-268,-220,0,0,100,0,768,768,160,112,0,-230,-16,0,0,46,0,1200,64,96,32,0,
0,2,-259,-231,0,0,100,0,0,880,144,112,0,-234,-16,0,0,46,0,1200,64,96,32,0,
0,2,-278,-237,0,0,100,0,144,880,160,112,0,-239,-16,0,0,46,0,1200,64,96,32,0,
0,2,-272,-234,0,0,100,0,304,880,144,112,0,-247,-16,0,0,46,0,1200,64,96,32,0,
0,2,-275,-233,0,0,100,0,448,880,144,112,0,-250,-16,0,0,46,0,1200,64,96,32,0,
0,2,-279,-237,0,0,100,0,592,880,144,112,0,-254,-16,0,0,46,0,1200,64,96,32,0,
0,2,-275,-241,0,0,100,0,736,880,128,112,0,-258,-16,0,0,46,0,1200,64,96,32,0,
0,2,-277,-243,0,0,100,0,864,880,128,112,0,-260,-16,0,0,46,0,1200,64,96,32,0,
0,2,-278,-245,0,0,100,0,0,992,128,112,0,-261,-16,0,0,46,0,1200,64,96,32,0,
0,2,-292,-254,0,0,100,0,128,992,144,112,0,-266,-16,0,0,46,0,1200,64,96,32,0,
0,2,-292,-254,0,0,100,0,128,992,144,112,0,-266,-16,0,0,46,0,1200,64,96,32,0,
0,2,-293,-256,0,0,100,0,272,992,144,112,0,-267,-16,0,0,46,0,1200,64,96,32,0,
0,2,-294,-257,0,0,100,0,416,992,144,112,0,-268,-16,0,0,46,0,1200,64,96,32,0,
0,2,-295,-258,0,0,100,0,560,992,144,112,0,-269,-16,0,0,46,0,1200,64,96,32,0,
0,3,-328,-296,0,1,100,0,0,1376,256,224,0,-268,-216,0,0,100,0,704,992,144,112,0,-237,-16,0,0,46,0,1200,64,96,32,0,
0,3,-280,-256,0,1,100,0,0,1376,256,224,0,-220,-176,0,0,100,0,704,992,144,112,0,-197,-16,0,0,46,0,1200,64,96,32,0,
0,4,-232,-216,0,1,100,0,256,1376,256,224,0,-216,-192,0,1,100,0,0,1376,256,224,0,-156,-112,0,0,100,0,704,992,144,112,0,-133,-16,0,0,46,0,1200,64,96,32,0,
0,4,-320,-240,0,1,100,0,512,1376,288,224,0,-85,-96,0,0,100,0,768,432,144,112,0,-116,-100,0,0,100,0,0,1104,160,112,0,-105,-16,0,0,65,0,1184,96,128,32,0,
0,4,-336,-264,0,1,100,0,1232,976,320,256,0,-51,-96,0,0,100,0,912,432,144,112,0,-87,-100,0,0,100,0,160,1104,160,112,0,-76,-16,0,0,65,0,1184,96,128,32,0,
0,4,-339,-266,0,1,50,0,1232,976,320,256,0,-26,-96,0,0,100,0,1056,432,144,112,0,-65,-100,0,0,100,0,320,1104,160,112,0,-54,-16,0,0,65,0,1184,96,128,32,0,
0,3,-11,-95,0,0,100,0,1200,432,144,112,0,-51,-100,0,0,100,0,480,1104,160,112,0,-40,-16,0,0,65,0,1184,96,128,32,0,
0,3,-15,-94,0,0,100,0,1344,432,144,112,0,-55,-100,0,0,100,0,0,1104,160,112,0,-44,-16,0,0,65,0,1184,96,128,32,0,
0,3,-8,-94,0,0,100,0,1488,432,144,112,0,-48,-100,0,0,100,0,160,1104,160,112,0,-37,-16,0,0,65,0,1184,96,128,32,0,
0,2,-50,-100,0,0,100,0,320,1104,160,112,0,-39,-16,0,0,65,0,1184,96,128,32,0,
0,2,-44,-100,0,0,100,0,480,1104,160,112,0,-33,-16,0,0,65,0,1184,96,128,32,0,
0,2,-42,-100,0,0,100,0,640,1104,160,112,0,-31,-16,0,0,65,0,1184,96,128,32,0,
0,4,-45,-110,0,0,100,0,0,96,128,96,0,-42,-100,0,0,100,0,800,1104,160,112,0,-35,-16,0,0,46,0,1200,64,96,32,0,-31,-16,0,0,65,0,1184,96,128,32,0,
0,4,-49,-116,0,0,100,0,0,96,128,96,0,-16,-104,1,0,100,0,288,96,144,112,0,11,-16,0,0,46,0,1200,64,96,32,0,-38,-16,0,0,46,0,1200,64,96,32,0,
0,4,-52,-119,0,0,100,0,0,96,128,96,0,16,-128,1,0,80,0,288,96,144,112,0,43,-16,0,0,46,0,1200,64,96,32,0,-40,-16,0,0,46,0,1200,64,96,32,0,
0,4,-56,-109,0,0,100,0,0,96,128,96,0,48,-152,1,0,65,0,288,96,144,112,0,75,-16,0,0,25,0,1200,64,96,32,0,-41,-16,0,0,46,0,1200,64,96,32,0,
0,4,-58,-93,0,0,100,0,0,96,128,96,0,88,-184,1,0,35,0,288,96,144,112,0,123,-16,0,0,10,0,1200,64,96,32,0,-43,-16,0,0,46,0,1200,64,96,32,0,
0,4,-36,-65,0,1,60,0,560,0,112,80,0,-47,-96,0,0,100,0,0,208,128,112,0,-55,-48,0,0,65,0,1152,208,64,64,0,-47,-16,0,0,65,0,1200,64,96,32,0,
0,4,-36,-65,0,1,30,0,672,0,112,80,0,-47,-96,0,0,100,0,128,208,128,112,0,-53,-48,0,0,25,0,1152,208,64,64,0,-45,-16,0,0,65,0,1200,64,96,32,0,
0,2,-47,-96,0,0,100,0,256,208,128,112,0,-44,-16,0,0,65,0,1200,64,96,32,0,
0,4,-277,-264,0,0,40,0,576,544,160,144,0,-47,-96,0,0,100,0,384,208,128,112,0,-254,-18,0,0,20,0,1200,64,96,32,0,-44,-16,0,0,65,0,1200,64,96,32,0,
0,4,-245,-216,0,0,75,0,576,544,160,144,0,-47,-96,0,0,100,0,512,208,128,112,0,-214,-18,0,0,20,0,1200,64,96,32,0,-44,-16,0,0,65,0,1200,64,96,32,0,
0,4,-205,-176,0,0,100,0,576,544,160,144,0,-47,-96,0,0,100,0,640,208,128,112,0,-174,-18,0,0,46,0,1200,64,96,32,0,-44,-16,0,0,65,0,1200,64,96,32,0,
0,4,-47,-96,0,0,100,0,768,208,128,112,0,-157,-128,0,0,100,0,576,544,160,144,0,-126,-18,0,0,46,0,1200,64,96,32,0,-44,-16,0,0,65,0,1200,64,96,32,0,
0,4,-47,-96,0,0,100,0,896,208,128,112,0,-138,-132,0,0,100,0,736,544,160,144,0,-118,-18,0,0,46,0,1200,64,96,32,0,-44,-16,0,0,65,0,1200,64,96,32,0,
0,4,-47,-96,0,0,100,0,1024,208,128,112,0,-130,-129,0,0,100,0,896,544,160,144,0,-96,-18,0,0,46,0,1200,64,96,32,0,-44,-16,0,0,65,0,1200,64,96,32,0,
0,4,-47,-96,0,0,100,0,640,208,128,112,0,-126,-136,0,0,100,0,1056,544,160,144,0,-91,-18,0,0,46,0,1200,64,96,32,0,-44,-16,0,0,65,0,1200,64,96,32,0,
0,4,-47,-96,0,0,100,0,0,320,128,112,0,-121,-139,0,0,100,0,1216,544,160,144,0,-87,-18,0,0,46,0,1200,64,96,32,0,-44,-16,0,0,65,0,1200,64,96,32,0,
0,4,-47,-96,0,0,100,0,128,320,128,112,0,-123,-145,0,0,100,0,1376,544,160,144,0,-89,-18,0,0,46,0,1200,64,96,32,0,-44,-16,0,0,65,0,1200,64,96,32,0,
0,4,-47,-96,0,0,100,0,256,320,128,112,0,-124,-148,0,0,100,0,1536,544,160,144,0,-90,-18,0,0,46,0,1200,64,96,32,0,-44,-16,0,0,65,0,1200,64,96,32,0,
0,4,-47,-96,0,0,100,0,384,320,128,112,0,-124,-144,0,0,100,0,1056,688,160,144,0,-90,-18,0,0,46,0,1200,64,96,32,0,-44,-16,0,0,65,0,1200,64,96,32,0,
0,4,-47,-96,0,0,100,0,512,320,128,112,0,-124,-136,0,0,100,0,1216,688,160,144,0,-90,-18,0,0,46,0,1200,64,96,32,0,-44,-16,0,0,65,0,1200,64,96,32,0,
0,4,-47,-96,0,0,100,0,640,320,128,112,0,-124,-117,0,0,100,0,1216,688,160,144,0,-107,-18,0,0,65,0,1184,96,128,32,0,-44,-16,0,0,65,0,1200,64,96,32,0,
0,4,-47,-96,0,0,100,0,768,320,128,112,0,-118,-114,0,0,100,0,1376,688,160,144,0,-106,-18,0,0,65,0,1184,96,128,32,0,-44,-16,0,0,65,0,1200,64,96,32,0,
0,4,-47,-96,0,0,100,0,896,320,128,112,0,-118,-114,0,0,100,0,1536,688,160,144,0,-106,-18,0,0,65,0,1184,96,128,32,0,-44,-16,0,0,65,0,1200,64,96,32,0,
0,4,-47,-96,0,0,100,0,1024,320,128,112,0,-118,-114,0,0,100,0,1536,688,160,144,0,-106,-18,0,0,65,0,1184,96,128,32,0,-44,-16,0,0,65,0,1200,64,96,32,0,
0,4,-47,-96,0,0,100,0,0,432,128,112,0,-117,-113,0,0,100,0,1056,832,160,144,0,-104,-18,0,0,65,0,1184,96,128,32,0,-44,-16,0,0,65,0,1200,64,96,32,0,
0,4,-47,-96,0,0,100,0,128,432,128,112,0,-107,-90,0,0,100,0,432,96,128,112,0,-104,-18,0,0,65,0,1184,96,128,32,0,-44,-16,0,0,65,0,1200,64,96,32,0,
0,4,-47,-96,0,0,100,0,256,432,128,112,0,-107,-90,0,0,100,0,560,96,128,112,0,-104,-18,0,0,65,0,1184,96,128,32,0,-44,-16,0,0,65,0,1200,64,96,32,0,
0,4,-47,-96,0,0,100,0,384,432,128,112,0,-107,-90,0,0,100,0,688,96,128,112,0,-104,-18,0,0,65,0,1184,96,128,32,0,-44,-16,0,0,65,0,1200,64,96,32,0,
0,4,-47,-96,0,0,100,0,512,432,128,112,0,-107,-90,0,0,100,0,816,96,128,112,0,-104,-18,0,0,65,0,1184,96,128,32,0,-44,-16,0,0,65,0,1200,64,96,32,0,
0,4,-47,-96,0,0,100,0,640,432,128,112,0,-107,-90,0,0,100,0,944,96,128,112,0,-104,-18,0,0,65,0,1184,96,128,32,0,-44,-16,0,0,65,0,1200,64,96,32,0,
0,3,-36,-65,0,1,60,0,560,0,112,80,0,-64,-81,0,0,100,0,0,0,128,96,0,-48,-16,0,0,65,0,1200,64,96,32,0,
0,2,23,-255,0,0,50,0,432,656,144,112,0,49,-16,0,0,46,0,1200,64,96,32,0,
0,2,-9,-207,0,0,100,0,432,656,144,112,0,17,-16,0,0,46,0,1200,64,96,32,0,
0,2,-43,-178,0,0,100,0,0,768,144,112,0,-17,-16,0,0,46,0,1200,64,96,32,0,
0,2,-74,-152,0,0,100,0,144,768,160,112,0,-57,-16,0,0,46,0,1200,64,96,32,0,
0,4,-146,-107,0,1,100,0,608,1216,160,144,0,-138,-133,1,1,100,0,0,1216,208,160,0,-118,-110,0,0,100,0,304,768,144,112,0,-89,-16,0,0,46,0,1200,64,96,32,0,
0,4,-150,-96,0,1,100,0,768,1216,240,160,0,-218,-155,1,1,100,0,208,1216,224,160,0,-221,-126,0,0,100,0,448,768,160,112,0,-182,-16,0,0,46,0,1200,64,96,32,0,
0,4,-272,-192,1,1,100,0,432,1216,176,160,0,-140,-105,0,1,100,0,1008,1216,224,176,0,-244,-172,0,0,100,0,608,768,160,112,0,-206,-16,0,0,46,0,1200,64,96,32,0,
0,4,-274,-198,1,1,65,0,432,1216,176,160,0,-137,-105,0,1,30,0,1008,1216,224,176,0,-268,-220,0,0,100,0,768,768,160,112,0,-230,-16,0,0,46,0,1200,64,96,32,0,
0,2,-264,-231,0,0,100,0,0,880,144,112,0,-239,-16,0,0,46,0,1200,64,96,32,0,
0,2,-286,-221,0,0,100,0,144,880,160,112,0,-247,-16,0,0,46,0,1200,64,96,32,0,
0,2,-267,-188,0,0,100,0,0,544,144,112,0,-248,-16,0,0,46,0,1200,64,96,32,0,
0,2,-249,-159,0,0,100,0,0,544,144,112,0,-230,-16,0,0,46,0,1200,64,96,32,0,
0,3,-240,-149,0,1,100,0,0,1216,208,160,0,-213,-118,0,0,100,0,144,544,144,112,0,-193,-16,0,0,46,0,1200,64,96,32,0,
0,3,-200,-176,0,1,100,0,208,1216,224,160,0,-144,-132,0,0,100,0,288,544,144,112,0,-111,-16,0,0,46,0,1200,64,96,32,0,
0,3,-75,-198,0,1,100,0,432,1216,176,160,0,-103,-166,0,0,100,0,432,544,144,112,0,-71,-16,0,0,46,0,1200,64,96,32,0,
0,3,-54,-222,0,1,75,0,432,1216,176,160,0,-70,-190,0,0,100,0,0,656,144,112,0,-39,-16,0,0,46,0,1200,64,96,32,0,
0,2,-35,-212,0,0,100,0,288,656,144,112,0,-10,-16,0,0,46,0,1200,64,96,32,0,
0,2,-17,-223,0,0,100,0,432,656,144,112,0,9,-16,0,0,46,0,1200,64,96,32,0,
0,2,-4,-218,1,0,100,0,1104,1392,144,112,0,15,-16,1,0,46,0,1200,64,96,32,0,
0,2,-9,-217,1,0,100,0,1248,1392,144,112,0,18,-16,1,0,46,0,1200,64,96,32,0,
0,2,3,-220,1,0,100,0,1392,1392,144,112,0,22,-16,1,0,46,0,1200,64,96,32,0,
0,2,15,-221,1,0,100,0,1536,1392,128,112,0,26,-16,1,0,46,0,1200,64,96,32,0,
0,2,13,-223,1,0,100,0,1664,1392,128,112,0,28,-16,1,0,46,0,1200,64,96,32,0,
0,2,13,-225,1,0,100,0,800,1504,128,112,0,29,-16,1,0,46,0,1200,64,96,32,0,
0,2,14,-234,1,0,100,0,928,1504,144,112,0,40,-16,1,0,46,0,1200,64,96,32,0,
0,2,18,-235,1,0,100,0,1072,1504,144,112,0,44,-16,1,0,46,0,1200,64,96,32,0,
0,2,19,-237,1,0,100,0,1216,1504,144,112,0,45,-16,1,0,46,0,1200,64,96,32,0,
0,2,20,-238,1,0,100,0,1360,1504,144,112,0,46,-16,1,0,46,0,1200,64,96,32,0,
0,3,-88,-280,1,1,100,0,0,1376,256,224,0,-28,-200,1,0,100,0,1504,1504,144,112,0,3,-16,0,0,46,0,1200,64,96,32,0,
0,3,-128,-240,1,1,100,0,0,1376,256,224,0,-68,-160,1,0,100,0,1504,1504,144,112,0,-37,-16,0,0,46,0,1200,64,96,32,0,
0,4,-192,-216,1,1,100,0,256,1376,256,224,0,-176,-192,1,1,100,0,0,1376,256,224,0,-116,-112,1,0,100,0,704,992,144,112,0,-93,-16,0,0,46,0,1200,64,96,32,0,
0,5,-160,-240,1,1,100,0,512,1376,288,224,0,-168,-240,1,1,60,0,256,1376,256,224,0,-213,-96,1,0,100,0,768,432,144,112,0,-198,-100,1,0,100,0,720,1616,176,112,0,-174,-16,0,0,65,0,1184,96,128,32,0,
0,5,-154,-272,1,1,100,0,1232,976,320,256,0,-152,-248,1,1,50,0,512,1376,288,224,0,-243,-96,1,0,100,0,912,432,144,112,0,-227,-100,1,0,100,0,896,1616,176,112,0,-203,-16,0,0,65,0,1184,96,128,32,0,
0,4,-152,-274,1,1,50,0,1232,976,320,256,0,-267,-96,1,0,100,0,1056,432,144,112,0,-249,-100,1,0,100,0,1072,1616,176,112,0,-225,-16,0,0,65,0,1184,96,128,32,0,
0,3,-283,-95,1,0,100,0,1200,432,144,112,0,-263,-100,1,0,100,0,1248,1616,176,112,0,-239,-16,0,0,65,0,1184,96,128,32,0,
0,3,-282,-94,1,0,100,0,1344,432,144,112,0,-259,-100,1,0,100,0,720,1616,176,112,0,-235,-16,0,0,65,0,1184,96,128,32,0,
0,3,-295,-94,1,0,100,0,1488,432,144,112,0,-267,-100,1,0,100,0,896,1616,176,112,0,-243,-16,0,0,65,0,1184,96,128,32,0,
0,2,-265,-100,1,0,100,0,1072,1616,176,112,0,-241,-16,0,0,65,0,1184,96,128,32,0,
0,2,-267,-100,1,0,100,0,1248,1616,176,112,0,-243,-16,0,0,65,0,1184,96,128,32,0,
0,2,-267,-100,1,0,100,0,720,1616,176,112,0,-243,-16,0,0,65,0,1184,96,128,32,0,
0,2,-248,-128,0,0,100,0,1424,1616,176,112,0,-205,-16,0,0,46,0,1200,64,96,32,0,
0,2,-208,-160,0,0,100,0,1424,1616,176,112,0,-165,-16,0,0,46,0,1200,64,96,32,0,
0,4,-136,-160,0,0,100,0,1152,320,128,112,0,-152,-164,1,0,100,0,288,96,144,112,0,-118,-16,0,0,46,0,1200,64,96,32,0,-125,-16,0,0,46,0,1200,64,96,32,0,
0,4,-120,-152,0,0,100,0,1152,320,128,112,0,-88,-204,1,0,80,0,288,96,144,112,0,-110,-16,0,0,46,0,1200,64,96,32,0,-61,-16,0,0,36,0,1200,64,96,32,0,
0,4,-80,-128,0,0,100,0,1152,320,128,112,0,-32,-236,1,0,55,0,288,96,144,112,0,-70,-16,0,0,46,0,1200,64,96,32,0,-5,-16,0,0,25,0,1200,64,96,32,0,
0,4,-64,-104,0,0,100,0,1152,320,128,112,0,24,-276,1,0,30,0,288,96,144,112,0,-54,-16,0,0,46,0,1200,64,96,32,0,51,-16,0,0,10,0,1200,64,96,32,0,
0,5,-200,-227,1,0,40,0,288,96,144,112,0,-36,-65,0,1,60,0,896,0,112,80,0,-59,-110,0,0,100,0,0,96,128,96,0,-176,-16,0,0,20,0,1200,64,96,32,0,-48,-16,0,0,46,0,1200,64,96,32,0,
0,5,-36,-65,0,1,30,0,896,0,112,80,0,-156,-161,1,0,100,0,288,96,144,112,0,-59,-116,0,0,100,0,0,96,128,96,0,-132,-16,0,0,46,0,1200,64,96,32,0,-48,-16,0,0,46,0,1200,64,96,32,0,
0,4,-129,-132,1,0,100,0,288,96,144,112,0,-59,-119,0,0,100,0,0,96,128,96,0,-105,-16,0,0,46,0,1200,64,96,32,0,-48,-16,0,0,46,0,1200,64,96,32,0,
0,4,-89,-109,1,0,100,0,288,96,144,112,0,-59,-117,0,0,100,0,0,96,128,96,0,-65,-16,0,0,46,0,1200,64,96,32,0,-48,-16,0,0,46,0,1200,64,96,32,0,
0,2,-91,-110,0,0,100,0,1424,1616,176,112,0,-48,-16,0,0,46,0,1200,64,96,32,0,
0,2,-67,-134,0,0,100,0,1424,1616,176,112,0,-24,-16,0,0,46,0,1200,64,96,32,0,
0,2,-3,-182,0,0,100,0,1424,1616,176,112,0,40,-16,0,0,46,0,1200,64,96,32,0,
0,2,21,-214,0,0,70,0,1424,1616,176,112,0,64,-16,0,0,30,0,1200,64,96,32,0,
0,2,45,-246,0,0,35,0,1424,1616,176,112,0,88,-16,0,0,15,0,1200,64,96,32,0,
