0,13,-17,-45,0,0,100,0,0,80,40,40,0,-17,-44,0,0,100,0,320,80,80,80,0,-17,-45,0,0,100,0,0,120,40,40,0,3,-55,0,0,100,0,0,160,40,40,0,-17,-35,0,0,100,0,0,200,40,40,0,-37,-45,0,0,100,0,0,240,40,40,0,-17,-35,0,0,100,0,0,280,40,40,0,-17,-24,0,0,100,0,0,320,40,40,0,-17,-35,0,0,100,0,0,360,40,40,0,-37,-85,0,0,100,0,0,0,80,80,0,-7,-64,0,0,100,0,320,0,80,80,0,-77,-54,0,0,100,0,320,160,80,80,0,-24,-12,0,0,65,0,744,400,56,24,0,
0,13,-17,-45,0,0,100,0,0,80,40,40,0,-17,-44,0,0,100,0,400,80,80,80,0,-17,-45,0,0,100,0,0,120,40,40,0,3,-55,0,0,100,0,40,160,40,40,0,-17,-35,0,0,100,0,40,200,40,40,0,-37,-45,0,0,100,0,40,240,40,40,0,-17,-35,0,0,100,0,40,280,40,40,0,-17,-24,0,0,100,0,40,320,40,40,0,-17,-35,0,0,100,0,40,360,40,40,0,-37,-85,0,0,100,0,80,0,80,80,0,-7,-65,0,0,100,0,400,0,80,80,0,-77,-54,0,0,100,0,400,160,80,80,0,-24,-12,0,0,65,0,744,400,56,24,0,
0,13,-17,-44,0,0,100,0,0,80,40,40,0,-17,-43,0,0,100,0,480,80,80,80,0,-17,-44,0,0,100,0,0,120,40,40,0,3,-54,0,0,100,0,80,160,40,40,0,-17,-34,0,0,100,0,80,200,40,40,0,-37,-44,0,0,100,0,80,240,40,40,0,-17,-34,0,0,100,0,80,280,40,40,0,-17,-24,0,0,100,0,80,320,40,40,0,-17,-34,0,0,100,0,80,360,40,40,0,-37,-84,0,0,100,0,160,0,80,80,0,-7,-63,0,0,100,0,480,0,80,80,0,-77,-53,0,0,100,0,480,160,80,80,0,-24,-12,0,0,65,0,744,400,56,24,0,
0,13,-17,-44,0,0,100,0,0,80,40,40,0,-17,-43,0,0,100,0,560,80,80,80,0,-17,-44,0,0,100,0,0,120,40,40,0,3,-54,0,0,100,0,120,160,40,40,0,-17,-34,0,0,100,0,120,200,40,40,0,-37,-44,0,0,100,0,120,240,40,40,0,-17,-34,0,0,100,0,120,280,40,40,0,-17,-24,0,0,100,0,120,320,40,40,0,-17,-34,0,0,100,0,120,360,40,40,0,-37,-84,0,0,100,0,240,0,80,80,0,-7,-63,0,0,100,0,560,0,80,80,0,-77,-53,0,0,100,0,560,160,80,80,0,-24,-12,0,0,65,0,744,400,56,24,0,
0,13,-21,-44,0,0,100,0,0,80,40,40,0,-38,-35,0,0,100,0,160,240,80,40,0,-21,-44,0,0,100,0,0,120,40,40,0,-30,-44,0,0,100,0,160,280,80,40,0,-21,-34,0,0,100,0,0,200,40,40,0,-18,-38,1,0,100,0,160,360,40,40,0,-20,-25,0,0,100,0,400,320,40,40,0,-21,-34,1,0,100,0,0,360,40,40,0,-41,-84,0,0,100,0,0,0,80,80,0,-11,-63,0,0,100,0,320,0,80,80,0,-3,-79,3,0,100,0,480,160,56,80,0,-5,-55,1,0,100,0,560,160,80,80,0,-24,-12,0,0,65,0,744,400,56,24,0,
0,14,-47,-11,0,0,100,0,720,112,80,48,0,-40,-71,0,0,100,0,0,400,80,80,0,-40,-31,0,0,100,0,160,240,80,40,0,-32,-41,0,0,100,0,160,280,80,40,0,-30,-60,0,0,100,0,640,0,80,80,0,-20,-41,0,0,100,0,0,80,40,40,0,-20,-41,0,0,100,0,0,120,40,40,0,-20,-31,0,0,100,0,0,200,40,40,0,-20,-31,0,0,100,0,0,280,40,40,0,-27,-22,0,0,100,0,160,320,40,40,0,-20,-31,0,0,100,0,0,360,40,40,0,-47,-43,0,0,100,0,720,80,80,80,0,-14,-43,0,0,100,0,720,160,80,80,0,-28,-12,0,0,65,0,680,400,64,24,0,
0,13,-41,-70,0,0,100,0,0,400,80,80,0,-42,-30,0,0,100,0,160,240,80,40,0,-34,-41,0,0,100,0,160,280,80,40,0,-30,-59,0,0,100,0,640,0,80,80,0,-19,-41,0,0,100,0,0,80,40,40,0,-19,-41,0,0,100,0,0,120,40,40,0,-19,-31,0,0,100,0,0,200,40,40,0,-19,-30,0,0,100,0,0,280,40,40,0,-24,-22,0,0,100,0,200,320,40,40,0,-19,-31,0,0,100,0,0,360,40,40,0,-49,-42,0,0,100,0,640,80,80,80,0,-16,-42,0,0,100,0,640,160,80,80,0,-29,-12,0,0,65,0,680,400,64,24,0,
0,13,-42,-70,0,0,100,0,0,400,80,80,0,-43,-31,0,0,100,0,160,240,80,40,0,-33,-41,0,0,100,0,160,280,80,40,0,-30,-59,0,0,100,0,640,0,80,80,0,-19,-41,0,0,100,0,0,80,40,40,0,-19,-41,0,0,100,0,0,120,40,40,0,-19,-31,0,0,100,0,0,200,40,40,0,-19,-30,0,0,100,0,0,280,40,40,0,-24,-22,0,0,100,0,200,320,40,40,0,-19,-31,0,0,100,0,0,360,40,40,0,-49,-42,0,0,100,0,640,80,80,80,0,-16,-42,0,0,100,0,640,160,80,80,0,-29,-12,0,0,65,0,680,400,64,24,0,
0,14,-52,-50,0,0,100,0,240,280,80,40,0,-20,-41,0,0,100,0,0,80,40,40,0,-30,-40,0,0,100,0,240,240,40,40,0,-40,-40,0,0,100,0,320,240,40,40,0,-21,-41,0,0,100,0,0,120,40,40,0,-22,-31,0,0,100,0,0,200,40,40,0,-22,-31,0,0,100,0,0,280,40,40,0,-23,-22,0,0,100,0,240,320,40,40,0,-22,-31,0,0,100,0,0,360,40,40,0,-42,-80,0,0,100,0,0,0,80,80,0,-12,-62,0,0,100,0,320,0,80,80,0,-49,-42,0,0,100,0,640,80,80,80,0,-16,-42,0,0,100,0,640,160,80,80,0,-27,-12,0,0,65,0,744,400,56,24,0,
0,14,-48,-43,0,0,100,0,240,280,80,40,0,-19,-40,0,0,100,0,0,80,40,40,0,-26,-33,0,0,100,0,240,240,40,40,0,-36,-33,0,0,100,0,320,240,40,40,0,-20,-40,0,0,100,0,0,120,40,40,0,-21,-30,0,0,100,0,0,200,40,40,0,-21,-30,0,0,100,0,0,280,40,40,0,-23,-22,0,0,100,0,240,320,40,40,0,-21,-30,0,0,100,0,0,360,40,40,0,-41,-79,0,0,100,0,0,0,80,80,0,-11,-61,0,0,100,0,320,0,80,80,0,-49,-42,0,0,100,0,640,80,80,80,0,-16,-42,0,0,100,0,640,160,80,80,0,-26,-12,0,0,65,0,744,400,56,24,0,
0,14,-48,-41,0,0,100,0,240,280,80,40,0,-19,-39,0,0,100,0,0,80,40,40,0,-26,-31,0,0,100,0,240,240,40,40,0,-36,-31,0,0,100,0,320,240,40,40,0,-20,-39,0,0,100,0,0,120,40,40,0,-21,-29,0,0,100,0,0,200,40,40,0,-21,-29,0,0,100,0,0,280,40,40,0,-23,-22,0,0,100,0,240,320,40,40,0,-21,-29,0,0,100,0,0,360,40,40,0,-41,-78,0,0,100,0,0,0,80,80,0,-11,-61,0,0,100,0,320,0,80,80,0,-49,-42,0,0,100,0,640,80,80,80,0,-16,-42,0,0,100,0,640,160,80,80,0,-26,-12,0,0,65,0,744,400,56,24,0,
0,39,-62,-83,1,1,100,0,480,520,40,40,0,-59,-76,1,0,100,0,120,520,40,40,0,-37,-62,0,1,100,0,600,520,40,40,0,-44,-57,1,0,100,0,0,520,40,40,0,-78,-86,1,1,100,0,600,520,40,40,0,-71,-79,0,0,100,0,0,520,40,40,0,-72,-134,1,1,100,0,480,480,40,40,0,-71,-118,1,0,100,0,0,480,40,40,0,-59,-84,0,1,100,0,560,520,40,40,0,-51,-75,0,0,100,0,240,480,40,40,0,-31,-80,0,1,100,0,480,520,40,40,0,-33,-73,0,0,100,0,120,520,40,40,0,-45,-47,2,1,100,0,440,520,40,40,0,-43,-57,1,0,100,0,120,480,40,40,0,-29,-60,1,1,100,0,480,480,40,40,0,-42,-64,0,0,100,0,240,520,40,40,0,-38,-77,3,1,100,0,440,520,40,40,0,-39,-87,0,0,100,0,120,480,40,40,0,-70,-55,0,1,100,0,480,480,40,40,0,-58,-59,1,0,100,0,240,520,40,40,0,-50,-61,1,1,100,0,560,520,40,40,0,-58,-50,1,0,100,0,240,480,40,40,0,-67,-52,2,1,100,0,560,520,40,40,0,-59,-61,2,0,100,0,240,480,40,40,0,-54,-115,0,1,100,0,400,480,40,40,0,-56,-99,0,0,100,0,0,480,40,40,0,-16,-59,0,0,100,0,0,80,40,40,0,-18,-63,0,0,100,0,320,80,80,80,0,-17,-59,0,0,100,0,0,120,40,40,0,3,-69,0,0,100,0,40,160,40,40,0,-18,-49,0,0,100,0,0,200,40,40,0,-37,-59,0,0,100,0,40,240,40,40,0,-17,-49,0,0,100,0,0,280,40,40,0,-26,-40,0,0,100,0,280,320,40,40,0,-17,-49,0,0,100,0,0,360,40,40,0,-36,-97,0,0,100,0,80,400,80,80,0,-8,-77,0,0,100,0,320,0,80,80,0,-74,-82,0,0,100,0,320,160,80,80,0,-25,-12,0,0,65,0,744,424,56,24,0,
0,39,-72,-103,1,1,100,0,520,520,40,40,0,-69,-96,1,0,100,0,120,520,40,40,0,-67,-82,0,1,100,0,640,520,40,40,0,-74,-77,1,0,100,0,0,520,40,40,0,-72,-77,2,1,100,0,480,520,40,40,0,-70,-87,1,0,100,0,120,480,40,40,0,-108,-116,1,1,100,0,640,520,40,40,0,-101,-109,0,0,100,0,0,520,40,40,0,-113,-178,1,1,100,0,520,480,40,40,0,-112,-162,1,0,100,0,0,480,40,40,0,-92,-126,0,1,100,0,600,520,40,40,0,-84,-117,0,0,100,0,240,480,40,40,0,-56,-130,0,1,100,0,520,520,40,40,0,-58,-123,0,0,100,0,120,520,40,40,0,-51,-113,1,1,100,0,520,480,40,40,0,-64,-117,0,0,100,0,240,520,40,40,0,-52,-117,3,1,100,0,480,520,40,40,0,-53,-127,0,0,100,0,120,480,40,40,0,-100,-67,0,1,100,0,520,480,40,40,0,-88,-71,1,0,100,0,240,520,40,40,0,-85,-53,1,1,100,0,600,520,40,40,0,-93,-42,1,0,100,0,240,480,40,40,0,-87,-72,2,1,100,0,600,520,40,40,0,-79,-81,2,0,100,0,240,480,40,40,0,-94,-155,0,1,100,0,440,480,40,40,0,-96,-139,0,0,100,0,0,480,40,40,0,-15,-61,0,0,100,0,0,80,40,40,0,-17,-65,0,0,100,0,320,80,80,80,0,-16,-61,0,0,100,0,0,120,40,40,0,4,-72,0,0,100,0,40,160,40,40,0,-17,-51,0,0,100,0,0,200,40,40,0,-36,-62,0,0,100,0,40,240,40,40,0,-16,-51,0,0,100,0,0,280,40,40,0,-25,-42,0,0,100,0,280,320,40,40,0,-16,-51,0,0,100,0,0,360,40,40,0,-35,-99,0,0,100,0,80,400,80,80,0,-7,-80,0,0,100,0,320,0,80,80,0,-73,-85,0,0,100,0,320,160,80,80,0,-24,-12,0,0,65,0,744,424,56,24,0,
0,39,-85,-115,1,1,100,0,400,520,40,40,0,-82,-109,1,0,100,0,120,520,40,40,0,-97,-92,0,1,100,0,680,520,40,40,0,-104,-87,1,0,100,0,0,520,40,40,0,-95,-88,2,1,100,0,520,520,40,40,0,-92,-97,1,0,100,0,160,480,40,40,0,-142,-141,1,1,100,0,680,520,40,40,0,-135,-134,0,0,100,0,0,520,40,40,0,-123,-184,1,1,100,0,400,480,40,40,0,-122,-168,1,0,100,0,0,480,40,40,0,-116,-139,0,1,100,0,640,520,40,40,0,-108,-130,0,0,100,0,280,480,40,40,0,-71,-150,0,1,100,0,400,520,40,40,0,-73,-143,0,0,100,0,120,520,40,40,0,-62,-133,1,1,100,0,400,480,40,40,0,-75,-137,0,0,100,0,240,520,40,40,0,-63,-134,3,1,100,0,520,520,40,40,0,-64,-144,0,0,100,0,120,480,40,40,0,-120,-70,0,1,100,0,400,480,40,40,0,-108,-74,1,0,100,0,240,520,40,40,0,-116,-25,1,1,100,0,640,520,40,40,0,-124,-14,1,0,100,0,240,480,40,40,0,-117,-92,2,1,100,0,640,520,40,40,0,-109,-101,2,0,100,0,240,480,40,40,0,-99,-158,0,1,100,0,480,480,40,40,0,-101,-142,0,0,100,0,0,480,40,40,0,-14,-62,0,0,100,0,40,80,40,40,0,-16,-66,0,0,100,0,400,80,80,80,0,-15,-62,0,0,100,0,40,120,40,40,0,5,-73,0,0,100,0,120,160,40,40,0,-16,-52,0,0,100,0,40,200,40,40,0,-35,-63,0,0,100,0,120,240,40,40,0,-15,-52,0,0,100,0,40,280,40,40,0,-24,-43,0,0,100,0,320,320,40,40,0,-15,-52,0,0,100,0,40,360,40,40,0,-33,-100,0,0,100,0,80,400,80,80,0,-5,-82,0,0,100,0,400,0,80,80,0,-71,-87,0,0,100,0,400,160,80,80,0,-23,-12,0,0,65,0,744,424,56,24,0,
0,39,-95,-125,1,1,100,0,440,520,40,40,0,-92,-119,1,0,100,0,120,520,40,40,0,-117,-99,0,1,100,0,560,520,40,40,0,-124,-94,1,0,100,0,0,520,40,40,0,-99,-88,2,1,100,0,400,520,40,40,0,-96,-97,1,0,100,0,160,480,40,40,0,-162,-149,1,1,100,0,560,520,40,40,0,-155,-144,0,0,100,0,0,520,40,40,0,-133,-186,1,1,100,0,440,480,40,40,0,-132,-170,1,0,100,0,0,480,40,40,0,-128,-143,0,1,100,0,680,520,40,40,0,-120,-134,0,0,100,0,280,480,40,40,0,-85,-159,0,1,100,0,440,520,40,40,0,-89,-154,0,0,100,0,160,520,40,40,0,-79,-156,1,1,100,0,440,480,40,40,0,-92,-160,0,0,100,0,240,520,40,40,0,-66,-136,3,1,100,0,400,520,40,40,0,-67,-146,0,0,100,0,120,480,40,40,0,-140,-71,0,1,100,0,440,480,40,40,0,-128,-75,1,0,100,0,280,520,40,40,0,-153,-30,2,1,100,0,680,520,40,40,0,-145,-39,2,0,100,0,240,480,40,40,0,-147,-107,2,1,100,0,680,520,40,40,0,-139,-116,2,0,100,0,240,480,40,40,0,-101,-160,0,1,100,0,520,480,40,40,0,-105,-144,0,0,100,0,40,480,40,40,0,-13,-62,0,0,100,0,40,80,40,40,0,-15,-66,0,0,100,0,400,80,80,80,0,-14,-62,0,0,100,0,40,120,40,40,0,6,-73,0,0,100,0,0,160,40,40,0,-15,-52,0,0,100,0,40,200,40,40,0,-34,-63,0,0,100,0,0,240,40,40,0,-14,-52,0,0,100,0,40,280,40,40,0,-23,-43,0,0,100,0,320,320,40,40,0,-14,-52,0,0,100,0,40,360,40,40,0,-32,-100,0,0,100,0,80,400,80,80,0,-4,-83,0,0,100,0,400,0,80,80,0,-70,-88,0,0,100,0,400,160,80,80,0,-22,-12,0,0,65,0,744,424,56,24,0,
0,39,-105,-127,1,1,100,0,480,520,40,40,0,-102,-122,1,0,100,0,160,520,40,40,0,-128,-100,0,1,100,0,440,520,40,40,0,-139,-96,1,0,100,0,40,520,40,40,0,-106,-90,2,1,100,0,600,520,40,40,0,-99,-97,1,0,100,0,200,480,40,40,0,-170,-151,1,1,100,0,600,520,40,40,0,-161,-146,0,0,100,0,40,520,40,40,0,-145,-186,1,1,100,0,480,480,40,40,0,-140,-170,1,0,100,0,40,480,40,40,0,-136,-143,0,1,100,0,560,520,40,40,0,-128,-134,0,0,100,0,280,480,40,40,0,-91,-162,0,1,100,0,480,520,40,40,0,-95,-157,0,0,100,0,160,520,40,40,0,-97,-172,1,1,100,0,480,480,40,40,0,-110,-176,0,0,100,0,280,520,40,40,0,-67,-137,3,1,100,0,440,520,40,40,0,-69,-147,0,0,100,0,160,480,40,40,0,-150,-70,0,1,100,0,480,480,40,40,0,-138,-75,1,0,100,0,280,520,40,40,0,-179,-47,2,1,100,0,560,520,40,40,0,-171,-56,2,0,100,0,280,480,40,40,0,-167,-114,2,1,100,0,560,520,40,40,0,-159,-123,2,0,100,0,240,480,40,40,0,-103,-161,0,1,100,0,400,480,40,40,0,-107,-145,0,0,100,0,40,480,40,40,0,-12,-61,0,0,100,0,80,80,40,40,0,-13,-65,0,0,100,0,480,80,80,80,0,-13,-61,0,0,100,0,80,120,40,40,0,7,-72,0,0,100,0,0,160,40,40,0,-14,-52,0,0,100,0,80,200,40,40,0,-33,-62,0,0,100,0,0,240,40,40,0,-13,-51,0,0,100,0,80,280,40,40,0,-22,-42,0,0,100,0,320,320,40,40,0,-13,-51,0,0,100,0,80,360,40,40,0,-31,-99,0,0,100,0,80,400,80,80,0,-2,-82,0,0,100,0,480,0,80,80,0,-68,-88,0,0,100,0,480,160,80,80,0,-21,-12,0,0,65,0,744,424,56,24,0,
0,39,-108,-128,1,1,100,0,520,520,40,40,0,-105,-123,1,0,100,0,160,520,40,40,0,-139,-100,0,1,100,0,480,520,40,40,0,-149,-97,1,0,100,0,40,520,40,40,0,-108,-90,2,1,100,0,640,520,40,40,0,-101,-97,1,0,100,0,200,480,40,40,0,-174,-151,1,1,100,0,640,520,40,40,0,-165,-146,0,0,100,0,40,520,40,40,0,-154,-184,1,1,100,0,520,480,40,40,0,-149,-168,1,0,100,0,40,480,40,40,0,-140,-143,0,1,100,0,600,520,40,40,0,-132,-134,0,0,100,0,320,480,40,40,0,-94,-162,0,1,100,0,520,520,40,40,0,-98,-157,0,0,100,0,160,520,40,40,0,-107,-177,1,1,100,0,520,480,40,40,0,-120,-181,0,0,100,0,280,520,40,40,0,-68,-139,3,1,100,0,480,520,40,40,0,-71,-148,0,0,100,0,160,480,40,40,0,-160,-70,0,1,100,0,520,480,40,40,0,-148,-75,1,0,100,0,280,520,40,40,0,-197,-54,2,1,100,0,600,520,40,40,0,-189,-63,2,0,100,0,280,480,40,40,0,-182,-116,2,1,100,0,600,520,40,40,0,-174,-125,2,0,100,0,280,480,40,40,0,-105,-161,0,1,100,0,440,480,40,40,0,-109,-145,0,0,100,0,40,480,40,40,0,-10,-58,0,0,100,0,80,80,40,40,0,-11,-62,0,0,100,0,480,80,80,80,0,-11,-58,0,0,100,0,80,120,40,40,0,9,-69,0,0,100,0,0,160,40,40,0,-12,-49,0,0,100,0,80,200,40,40,0,-31,-59,0,0,100,0,0,240,40,40,0,-11,-48,0,0,100,0,80,280,40,40,0,-20,-39,0,0,100,0,320,320,40,40,0,-11,-48,0,0,100,0,80,360,40,40,0,-29,-96,0,0,100,0,80,400,80,80,0,0,-80,0,0,100,0,480,0,80,80,0,-66,-86,0,0,100,0,480,160,80,80,0,-19,-12,0,0,65,0,744,424,56,24,0,
0,39,-112,-127,1,1,100,0,400,520,40,40,0,-109,-123,1,0,100,0,160,520,40,40,0,-144,-98,0,1,100,0,520,520,40,40,0,-155,-98,1,0,100,0,80,520,40,40,0,-111,-90,2,1,100,0,680,520,40,40,0,-104,-97,1,0,100,0,200,480,40,40,0,-180,-151,1,1,100,0,680,520,40,40,0,-171,-146,0,0,100,0,40,520,40,40,0,-164,-180,1,1,100,0,400,480,40,40,0,-159,-164,1,0,100,0,40,480,40,40,0,-149,-140,0,1,100,0,640,520,40,40,0,-140,-132,0,0,100,0,320,480,40,40,0,-96,-162,0,1,100,0,400,520,40,40,0,-100,-157,0,0,100,0,160,520,40,40,0,-111,-179,1,1,100,0,400,480,40,40,0,-124,-183,0,0,100,0,280,520,40,40,0,-69,-139,3,1,100,0,520,520,40,40,0,-72,-148,0,0,100,0,160,480,40,40,0,-170,-66,0,1,100,0,400,480,40,40,0,-158,-72,1,0,100,0,320,520,40,40,0,-209,-60,3,1,100,0,480,520,40,40,0,-201,-66,2,0,100,0,320,480,40,40,0,-193,-116,2,1,100,0,640,520,40,40,0,-185,-125,2,0,100,0,280,480,40,40,0,-101,-158,1,1,100,0,480,520,40,40,0,-114,-144,0,0,100,0,80,480,40,40,0,-10,-43,1,0,100,0,0,80,40,40,0,-10,-43,1,0,100,0,0,120,40,40,0,-26,-61,0,0,100,0,400,240,40,40,0,-48,-87,3,0,100,0,480,80,80,80,0,-3,-35,0,0,100,0,160,200,40,40,0,-11,-33,1,0,100,0,40,280,40,40,0,-9,-22,1,0,100,0,240,320,40,40,0,-11,-33,1,0,100,0,40,360,40,40,0,-29,-83,1,0,100,0,0,0,80,80,0,-53,-64,1,0,100,0,480,0,80,80,0,3,-58,0,0,100,0,400,280,40,40,0,-26,-90,2,0,100,0,480,104,80,56,0,-19,-12,0,0,65,0,744,400,56,24,0,
0,39,-119,-124,1,1,100,0,440,520,40,40,0,-114,-122,1,0,100,0,200,520,40,40,0,-149,-97,0,1,100,0,400,520,40,40,0,-159,-98,1,0,100,0,80,520,40,40,0,-120,-86,2,1,100,0,560,520,40,40,0,-113,-93,1,0,100,0,200,480,40,40,0,-192,-158,0,1,100,0,440,520,40,40,0,-179,-145,1,0,100,0,80,480,40,40,0,-184,-150,1,1,100,0,560,520,40,40,0,-175,-145,0,0,100,0,40,520,40,40,0,-161,-132,1,1,100,0,400,520,40,40,0,-152,-127,0,0,100,0,360,480,40,40,0,-98,-162,0,1,100,0,440,520,40,40,0,-102,-157,0,0,100,0,160,520,40,40,0,-115,-180,1,1,100,0,440,480,40,40,0,-128,-184,0,0,100,0,280,520,40,40,0,-72,-138,3,1,100,0,400,520,40,40,0,-75,-147,0,0,100,0,160,480,40,40,0,-192,-60,0,1,100,0,440,480,40,40,0,-180,-66,1,0,100,0,320,520,40,40,0,-217,-62,3,1,100,0,520,520,40,40,0,-210,-67,2,0,100,0,320,480,40,40,0,-198,-118,2,1,100,0,680,520,40,40,0,-189,-125,2,0,100,0,320,480,40,40,0,-105,-156,1,1,100,0,480,520,40,40,0,-118,-142,0,0,100,0,80,480,40,40,0,-13,-38,0,0,100,0,440,240,40,40,0,-30,-56,0,0,100,0,640,240,80,80,0,-5,-38,1,0,100,0,0,80,40,40,0,-5,-38,1,0,100,0,0,120,40,40,0,1,-30,0,0,100,0,160,200,40,40,0,-10,-32,0,0,100,0,160,360,40,40,0,-9,-22,1,0,100,0,360,320,40,40,0,-11,-33,1,0,100,0,40,360,40,40,0,-24,-78,1,0,100,0,160,400,80,80,0,6,-38,0,0,100,0,440,280,40,40,0,-53,-62,1,0,100,0,560,0,80,80,0,4,-62,0,0,100,0,640,320,80,80,0,-17,-12,0,0,65,0,744,400,56,24,0,
0,39,-124,-121,1,1,100,0,480,520,40,40,0,-120,-120,1,0,100,0,200,520,40,40,0,-154,-97,0,1,100,0,440,520,40,40,0,-164,-98,1,0,100,0,80,520,40,40,0,-139,-76,2,1,100,0,600,520,40,40,0,-132,-83,1,0,100,0,200,480,40,40,0,-214,-114,0,1,100,0,480,520,40,40,0,-200,-101,1,0,100,0,80,480,40,40,0,-196,-144,1,1,100,0,480,520,40,40,0,-184,-144,0,0,100,0,80,520,40,40,0,-179,-117,1,1,100,0,440,520,40,40,0,-170,-113,0,0,100,0,360,480,40,40,0,-102,-161,0,1,100,0,480,520,40,40,0,-106,-156,0,0,100,0,160,520,40,40,0,-123,-178,1,1,100,0,480,480,40,40,0,-134,-184,0,0,100,0,320,520,40,40,0,-73,-139,2,1,100,0,440,520,40,40,0,-79,-145,0,0,100,0,200,480,40,40,0,-216,-45,0,1,100,0,640,480,40,40,0,-208,-51,1,0,100,0,360,520,40,40,0,-224,-64,3,1,100,0,400,520,40,40,0,-216,-67,2,0,100,0,360,480,40,40,0,-202,-117,2,1,100,0,560,520,40,40,0,-193,-124,2,0,100,0,320,480,40,40,0,-117,-141,1,1,100,0,520,520,40,40,0,-130,-127,0,0,100,0,80,480,40,40,0,-30,-57,0,0,100,0,720,240,80,80,0,-12,-36,0,0,100,0,440,240,40,40,0,-4,-36,1,0,100,0,0,80,40,40,0,-4,-36,1,0,100,0,0,120,40,40,0,1,-29,0,0,100,0,160,200,40,40,0,-10,-31,0,0,100,0,160,360,40,40,0,-9,-22,1,0,100,0,360,320,40,40,0,-11,-33,1,0,100,0,40,360,40,40,0,-23,-76,1,0,100,0,240,400,80,80,0,7,-36,0,0,100,0,440,280,40,40,0,-53,-61,1,0,100,0,320,0,80,80,0,4,-63,0,0,100,0,720,320,80,80,0,-16,-12,0,0,65,0,744,400,56,24,0,
0,39,-141,-111,1,1,100,0,520,520,40,40,0,-137,-110,1,0,100,0,200,520,40,40,0,-163,-96,0,1,100,0,480,520,40,40,0,-174,-97,1,0,100,0,80,520,40,40,0,-160,-57,2,1,100,0,640,520,40,40,0,-153,-64,1,0,100,0,200,480,40,40,0,-227,-47,0,1,100,0,520,520,40,40,0,-214,-36,1,0,100,0,80,480,40,40,0,-206,-141,1,1,100,0,520,520,40,40,0,-195,-141,0,0,100,0,80,520,40,40,0,-203,-75,1,1,100,0,480,520,40,40,0,-194,-71,0,0,100,0,360,480,40,40,0,-109,-156,0,1,100,0,520,520,40,40,0,-114,-154,0,0,100,0,200,520,40,40,0,-133,-174,1,1,100,0,520,480,40,40,0,-144,-180,0,0,100,0,320,520,40,40,0,-88,-126,2,1,100,0,480,520,40,40,0,-93,-131,0,0,100,0,200,480,40,40,0,-129,-111,1,1,100,0,400,520,40,40,0,-142,-97,0,0,100,0,80,480,40,40,0,-246,-20,0,1,100,0,680,480,40,40,0,-237,-26,1,0,100,0,360,520,40,40,0,-230,-62,3,1,100,0,440,520,40,40,0,-222,-65,2,0,100,0,360,480,40,40,0,-209,-119,3,1,100,0,440,520,40,40,0,-201,-122,2,0,100,0,360,480,40,40,0,-12,-36,0,0,100,0,440,240,40,40,0,-30,-40,0,0,100,0,720,80,80,80,0,-4,-36,1,0,100,0,0,80,40,40,0,-4,-36,1,0,100,0,0,120,40,40,0,1,-29,0,0,100,0,160,200,40,40,0,-10,-31,0,0,100,0,160,360,40,40,0,-9,-22,1,0,100,0,360,320,40,40,0,-11,-33,1,0,100,0,40,360,40,40,0,-23,-76,1,0,100,0,240,400,80,80,0,7,-36,0,0,100,0,440,280,40,40,0,-53,-61,1,0,100,0,320,0,80,80,0,-6,-43,0,0,100,0,720,160,80,80,0,-16,-12,0,0,65,0,744,400,56,24,0,
0,38,-123,-147,0,1,100,0,400,520,40,40,0,-128,-145,0,0,100,0,200,520,40,40,0,-249,-82,0,1,100,0,0,560,80,88,0,-230,-71,0,1,100,0,0,560,80,88,0,-230,-91,0,1,100,0,0,560,80,88,0,-217,-84,0,1,100,0,0,560,80,88,0,-143,-90,0,1,100,0,0,560,80,80,0,-206,-111,0,1,100,0,0,560,80,80,0,-216,-131,0,1,100,0,0,640,160,160,0,-152,-160,1,1,100,0,400,480,40,40,0,-183,-96,0,1,100,0,480,520,40,40,0,-188,-93,1,0,100,0,80,520,40,40,0,-150,-87,1,1,100,0,480,520,40,40,0,-147,-80,1,0,100,0,120,520,40,40,0,-164,-166,0,0,100,0,320,520,40,40,0,-228,-61,3,1,100,0,400,480,40,40,0,-224,-76,3,0,100,0,0,480,40,40,0,-226,-128,1,1,100,0,400,520,40,40,0,-215,-129,0,0,100,0,80,520,40,40,0,-270,-53,2,1,100,0,400,480,40,40,0,-258,-49,3,0,100,0,240,520,40,40,0,-103,-96,2,1,100,0,520,520,40,40,0,-108,-101,0,0,100,0,200,480,40,40,0,-221,-114,3,1,100,0,480,520,40,40,0,-213,-117,2,0,100,0,360,480,40,40,0,-12,-35,0,0,100,0,440,240,40,40,0,-30,-40,0,0,100,0,640,80,80,80,0,-4,-35,1,0,100,0,0,80,40,40,0,-4,-35,1,0,100,0,0,120,40,40,0,1,-28,0,0,100,0,160,200,40,40,0,-10,-30,0,0,100,0,160,360,40,40,0,-9,-22,1,0,100,0,360,320,40,40,0,-11,-32,1,0,100,0,40,360,40,40,0,-23,-75,1,0,100,0,240,400,80,80,0,7,-35,0,0,100,0,440,280,40,40,0,-53,-62,1,0,100,0,320,0,80,80,0,-6,-43,0,0,100,0,640,160,80,80,0,-16,-12,0,0,65,0,744,400,56,24,0,
0,40,-138,-126,0,1,100,0,400,520,40,40,0,-143,-123,0,0,100,0,200,520,40,40,0,-249,-82,0,1,100,0,80,560,80,88,0,-239,-81,0,1,100,0,400,600,40,40,0,-218,-49,0,1,100,0,400,600,40,40,0,-228,-79,0,1,100,0,400,600,40,40,0,-230,-71,0,1,100,0,80,560,80,88,0,-230,-91,0,1,100,0,80,560,80,88,0,-217,-84,0,1,100,0,80,560,80,88,0,-195,-65,0,1,100,0,400,600,40,40,0,-110,-69,0,1,100,0,400,600,40,40,0,-226,-121,0,1,100,0,0,560,80,80,0,-143,-90,0,1,100,0,80,560,80,80,0,-206,-111,0,1,100,0,80,560,80,80,0,-216,-131,0,1,100,0,160,640,160,160,0,-175,-133,1,1,100,0,600,480,40,40,0,-184,-140,0,0,100,0,360,520,40,40,0,-238,-81,3,1,100,0,400,480,40,40,0,-234,-96,3,0,100,0,40,480,40,40,0,-260,-96,1,1,100,0,440,520,40,40,0,-249,-97,0,0,100,0,80,520,40,40,0,-285,-64,2,1,100,0,440,480,40,40,0,-273,-59,3,0,100,0,280,520,40,40,0,-117,-36,2,1,100,0,400,520,40,40,0,-122,-41,0,0,100,0,200,480,40,40,0,-235,-100,2,1,100,0,560,520,40,40,0,-227,-109,2,0,100,0,360,480,40,40,0,-12,-35,0,0,100,0,440,240,40,40,0,-30,-39,0,0,100,0,640,80,80,80,0,-4,-35,1,0,100,0,0,80,40,40,0,-4,-35,1,0,100,0,0,120,40,40,0,1,-28,0,0,100,0,160,200,40,40,0,-10,-30,0,0,100,0,160,360,40,40,0,-9,-22,1,0,100,0,360,320,40,40,0,-11,-32,1,0,100,0,40,360,40,40,0,-23,-75,1,0,100,0,240,400,80,80,0,7,-35,0,0,100,0,440,280,40,40,0,-53,-62,1,0,100,0,320,0,80,80,0,-6,-42,0,0,100,0,640,160,80,80,0,-16,-12,0,0,65,0,744,400,56,24,0,
0,47,-161,-66,0,1,100,0,400,520,40,40,0,-166,-64,0,0,100,0,200,520,40,40,0,-249,-82,0,1,100,0,160,560,80,88,0,-291,-164,0,1,100,0,0,640,160,160,0,-234,-58,0,1,100,0,400,560,40,40,0,-259,-91,0,1,100,0,400,560,40,40,0,-248,-74,0,1,100,0,400,560,40,40,0,-252,-90,0,1,100,0,400,560,40,40,0,-239,-81,0,1,100,0,440,600,40,40,0,-218,-49,0,1,100,0,440,600,40,40,0,-228,-79,0,1,100,0,440,600,40,40,0,-230,-71,0,1,100,0,160,560,80,88,0,-230,-91,0,1,100,0,160,560,80,88,0,-217,-84,0,1,100,0,160,560,80,88,0,-146,-61,0,1,100,0,0,560,80,80,0,-99,-57,0,1,100,0,400,560,40,40,0,-104,-63,0,1,100,0,400,560,40,40,0,-203,-55,0,1,100,0,400,560,40,40,0,-215,-63,0,1,100,0,400,560,40,40,0,-209,-66,0,1,100,0,400,560,40,40,0,-239,-112,0,1,100,0,400,600,40,40,0,-224,-110,0,1,100,0,400,600,40,40,0,-195,-65,0,1,100,0,440,600,40,40,0,-110,-69,0,1,100,0,440,600,40,40,0,-226,-121,0,1,100,0,80,560,80,80,0,-143,-90,0,1,100,0,160,560,80,80,0,-206,-111,0,1,100,0,160,560,80,80,0,-216,-131,0,1,100,0,320,640,160,160,0,-293,-69,2,1,100,0,640,480,40,40,0,-283,-63,3,0,100,0,320,520,40,40,0,-202,-84,1,1,100,0,640,480,40,40,0,-214,-90,0,0,100,0,360,520,40,40,0,-273,-64,1,1,100,0,480,520,40,40,0,-263,-65,0,0,100,0,80,520,40,40,0,-12,-35,0,0,100,0,440,240,40,40,0,-30,-39,0,0,100,0,640,80,80,80,0,-4,-35,1,0,100,0,0,80,40,40,0,-4,-35,1,0,100,0,0,120,40,40,0,1,-28,0,0,100,0,160,200,40,40,0,-10,-30,0,0,100,0,160,360,40,40,0,-9,-22,1,0,100,0,360,320,40,40,0,-11,-32,1,0,100,0,40,360,40,40,0,-23,-75,1,0,100,0,240,400,80,80,0,7,-35,0,0,100,0,440,280,40,40,0,-53,-62,1,0,100,0,320,0,80,80,0,-6,-42,0,0,100,0,640,160,80,80,0,-16,-12,0,0,65,0,744,400,56,24,0,
0,58,-249,-82,0,1,100,0,240,560,80,88,0,-321,-124,0,1,100,0,0,640,160,160,0,-206,-179,0,1,100,0,0,560,80,80,0,-221,-174,0,1,100,0,0,560,80,80,0,-281,-104,0,1,100,0,0,560,80,80,0,-291,-164,0,1,100,0,0,560,80,80,0,-291,-164,0,1,100,0,160,640,160,160,0,-234,-58,0,1,100,0,440,560,40,40,0,-259,-91,0,1,100,0,440,560,40,40,0,-248,-74,0,1,100,0,440,560,40,40,0,-252,-90,0,1,100,0,440,560,40,40,0,-239,-81,0,1,100,0,480,600,40,40,0,-218,-49,0,1,100,0,480,600,40,40,0,-228,-79,0,1,100,0,480,600,40,40,0,-230,-71,0,1,100,0,240,560,80,88,0,-230,-91,0,1,100,0,240,560,80,88,0,-217,-84,0,1,100,0,240,560,80,88,0,-198,-84,0,1,100,0,0,560,80,80,0,-183,-77,0,1,100,0,0,560,80,80,0,-203,-67,0,1,100,0,0,560,80,80,0,-107,-35,0,1,100,0,400,560,40,40,0,-141,-51,0,1,100,0,400,600,40,40,0,-146,-61,0,1,100,0,80,560,80,80,0,-97,-49,0,1,100,0,400,560,40,40,0,-202,-46,0,1,100,0,400,560,40,40,0,-223,-55,0,1,100,0,400,560,40,40,0,-263,-106,0,1,100,0,400,560,40,40,0,-254,-110,0,1,100,0,400,560,40,40,0,-99,-57,0,1,100,0,440,560,40,40,0,-104,-63,0,1,100,0,440,560,40,40,0,-203,-55,0,1,100,0,440,560,40,40,0,-215,-63,0,1,100,0,440,560,40,40,0,-209,-66,0,1,100,0,440,560,40,40,0,-239,-112,0,1,100,0,440,600,40,40,0,-224,-110,0,1,100,0,440,600,40,40,0,-195,-65,0,1,100,0,480,600,40,40,0,-110,-69,0,1,100,0,480,600,40,40,0,-226,-121,0,1,100,0,160,560,80,80,0,-143,-90,0,1,100,0,240,560,80,80,0,-206,-111,0,1,100,0,240,560,80,80,0,-216,-131,0,1,100,0,480,640,160,160,0,-224,-11,1,1,100,0,680,480,40,40,0,-234,-18,0,0,100,0,360,520,40,40,0,-295,-69,2,1,100,0,680,480,40,40,0,-287,-64,3,0,100,0,360,520,40,40,0,-12,-35,0,0,100,0,440,240,40,40,0,-30,-39,0,0,100,0,640,80,80,80,0,-4,-35,1,0,100,0,0,80,40,40,0,-4,-35,1,0,100,0,0,120,40,40,0,1,-28,0,0,100,0,160,200,40,40,0,-10,-30,0,0,100,0,160,360,40,40,0,-9,-22,1,0,100,0,360,320,40,40,0,-11,-32,1,0,100,0,40,360,40,40,0,-23,-75,1,0,100,0,240,400,80,80,0,7,-35,0,0,100,0,440,280,40,40,0,-53,-62,1,0,100,0,320,0,80,80,0,-6,-42,0,0,100,0,640,160,80,80,0,-16,-12,0,0,65,0,744,400,56,24,0,
0,68,-249,-82,0,1,100,0,320,560,80,88,0,-316,-68,0,1,100,0,0,560,80,80,0,-234,-126,0,1,100,0,0,560,80,80,0,-249,-119,0,1,100,0,0,560,80,80,0,-321,-124,0,1,100,0,160,640,160,160,0,-268,-71,0,1,100,0,400,600,40,40,0,-186,-179,0,1,100,0,0,560,80,80,0,-309,-177,0,1,100,0,0,560,80,80,0,-206,-179,0,1,100,0,80,560,80,80,0,-221,-174,0,1,100,0,80,560,80,80,0,-281,-104,0,1,100,0,80,560,80,80,0,-291,-164,0,1,100,0,80,560,80,80,0,-291,-164,0,1,100,0,320,640,160,160,0,-234,-58,0,1,100,0,480,560,40,40,0,-259,-91,0,1,100,0,480,560,40,40,0,-248,-74,0,1,100,0,480,560,40,40,0,-252,-90,0,1,100,0,480,560,40,40,0,-239,-81,0,1,100,0,520,600,40,40,0,-218,-49,0,1,100,0,520,600,40,40,0,-228,-79,0,1,100,0,520,600,40,40,0,-230,-71,0,1,100,0,320,560,80,88,0,-230,-91,0,1,100,0,320,560,80,88,0,-217,-84,0,1,100,0,320,560,80,88,0,-193,-45,0,1,100,0,400,600,40,40,0,-173,-85,0,1,100,0,400,600,40,40,0,-198,-84,0,1,100,0,80,560,80,80,0,-183,-77,0,1,100,0,80,560,80,80,0,-203,-67,0,1,100,0,80,560,80,80,0,-155,-54,0,1,100,0,400,560,40,40,0,-99,-30,0,1,100,0,400,560,40,40,0,-107,-35,0,1,100,0,440,560,40,40,0,-141,-51,0,1,100,0,440,600,40,40,0,-146,-61,0,1,100,0,160,560,80,80,0,-97,-49,0,1,100,0,440,560,40,40,0,-202,-46,0,1,100,0,440,560,40,40,0,-223,-55,0,1,100,0,440,560,40,40,0,-263,-106,0,1,100,0,440,560,40,40,0,-254,-110,0,1,100,0,440,560,40,40,0,-99,-57,0,1,100,0,480,560,40,40,0,-104,-63,0,1,100,0,480,560,40,40,0,-203,-55,0,1,100,0,480,560,40,40,0,-215,-63,0,1,100,0,480,560,40,40,0,-209,-66,0,1,100,0,480,560,40,40,0,-239,-112,0,1,100,0,480,600,40,40,0,-224,-110,0,1,100,0,480,600,40,40,0,-195,-65,0,1,100,0,520,600,40,40,0,-110,-69,0,1,100,0,520,600,40,40,0,-226,-121,0,1,100,0,240,560,80,80,0,-143,-90,0,1,100,0,320,560,80,80,0,-206,-111,0,1,100,0,320,560,80,80,0,-216,-131,0,1,100,0,640,640,160,160,0,-241,-52,3,1,100,0,440,480,40,40,0,-254,-48,2,0,100,0,240,520,40,40,0,-301,-69,2,1,100,0,480,480,40,40,0,-289,-65,3,0,100,0,240,520,40,40,0,-12,-35,0,0,100,0,440,240,40,40,0,-30,-39,0,0,100,0,640,80,80,80,0,-4,-35,1,0,100,0,0,80,40,40,0,-4,-35,1,0,100,0,0,120,40,40,0,1,-28,0,0,100,0,160,200,40,40,0,-10,-30,0,0,100,0,160,360,40,40,0,-9,-22,1,0,100,0,360,320,40,40,0,-11,-32,1,0,100,0,40,360,40,40,0,-23,-75,1,0,100,0,240,400,80,80,0,7,-35,0,0,100,0,440,280,40,40,0,-53,-62,1,0,100,0,320,0,80,80,0,-6,-42,0,0,100,0,640,160,80,80,0,-16,-12,0,0,65,0,744,400,56,24,0,
0,73,-328,-84,0,1,100,0,0,560,80,80,0,-210,-119,0,1,100,0,400,600,40,40,0,-204,-103,0,1,100,0,400,600,40,40,0,-322,-38,0,1,100,0,400,600,40,40,0,-328,-54,0,1,100,0,0,560,80,80,0,-316,-68,0,1,100,0,80,560,80,80,0,-234,-126,0,1,100,0,80,560,80,80,0,-249,-119,0,1,100,0,80,560,80,80,0,-321,-124,0,1,100,0,320,640,160,160,0,-274,-61,0,1,100,0,400,560,40,40,0,-146,-165,0,1,100,0,400,600,40,40,0,-306,-153,0,1,100,0,400,600,40,40,0,-154,-143,0,1,100,0,400,600,40,40,0,-268,-71,0,1,100,0,440,600,40,40,0,-186,-179,0,1,100,0,80,560,80,80,0,-309,-177,0,1,100,0,80,560,80,80,0,-206,-179,0,1,100,0,160,560,80,80,0,-221,-174,0,1,100,0,160,560,80,80,0,-281,-104,0,1,100,0,160,560,80,80,0,-291,-164,0,1,100,0,160,560,80,80,0,-291,-164,0,1,100,0,480,640,160,160,0,-234,-58,0,1,100,0,520,560,40,40,0,-259,-91,0,1,100,0,520,560,40,40,0,-248,-74,0,1,100,0,520,560,40,40,0,-252,-90,0,1,100,0,520,560,40,40,0,-239,-81,0,1,100,0,560,600,40,40,0,-218,-49,0,1,100,0,560,600,40,40,0,-228,-79,0,1,100,0,560,600,40,40,0,-207,-40,0,1,100,0,400,560,40,40,0,-166,-106,0,1,100,0,400,560,40,40,0,-171,-100,0,1,100,0,400,560,40,40,0,-193,-45,0,1,100,0,440,600,40,40,0,-173,-85,0,1,100,0,440,600,40,40,0,-198,-84,0,1,100,0,160,560,80,80,0,-183,-77,0,1,100,0,160,560,80,80,0,-203,-67,0,1,100,0,160,560,80,80,0,-168,-48,0,1,100,0,400,560,40,40,0,-164,-52,0,1,100,0,400,560,40,40,0,-155,-54,0,1,100,0,440,560,40,40,0,-99,-30,0,1,100,0,440,560,40,40,0,-107,-35,0,1,100,0,480,560,40,40,0,-141,-51,0,1,100,0,480,600,40,40,0,-146,-61,0,1,100,0,240,560,80,80,0,-97,-49,0,1,100,0,480,560,40,40,0,-202,-46,0,1,100,0,480,560,40,40,0,-223,-55,0,1,100,0,480,560,40,40,0,-263,-106,0,1,100,0,480,560,40,40,0,-254,-110,0,1,100,0,480,560,40,40,0,-99,-57,0,1,100,0,520,560,40,40,0,-104,-63,0,1,100,0,520,560,40,40,0,-203,-55,0,1,100,0,520,560,40,40,0,-215,-63,0,1,100,0,520,560,40,40,0,-209,-66,0,1,100,0,520,560,40,40,0,-239,-112,0,1,100,0,520,600,40,40,0,-224,-110,0,1,100,0,520,600,40,40,0,-195,-65,0,1,100,0,560,600,40,40,0,-110,-69,0,1,100,0,560,600,40,40,0,-226,-121,0,1,100,0,320,560,80,80,0,-272,-62,3,1,100,0,480,480,40,40,0,-284,-58,2,0,100,0,280,520,40,40,0,-12,-35,0,0,100,0,440,240,40,40,0,-30,-39,0,0,100,0,640,80,80,80,0,-4,-35,1,0,100,0,0,80,40,40,0,-4,-35,1,0,100,0,0,120,40,40,0,1,-28,0,0,100,0,160,200,40,40,0,-10,-30,0,0,100,0,160,360,40,40,0,-9,-22,1,0,100,0,360,320,40,40,0,-11,-32,1,0,100,0,40,360,40,40,0,-23,-75,1,0,100,0,240,400,80,80,0,7,-35,0,0,100,0,440,280,40,40,0,-53,-62,1,0,100,0,320,0,80,80,0,-6,-42,0,0,100,0,640,160,80,80,0,-16,-12,0,0,65,0,744,400,56,24,0,
0,87,-328,-84,0,1,100,0,80,560,80,80,0,-199,-124,0,1,100,0,400,560,40,40,0,-198,-92,0,1,100,0,400,560,40,40,0,-200,-97,0,1,100,0,400,560,40,40,0,-342,-40,0,1,100,0,400,560,40,40,0,-336,-42,0,1,100,0,400,560,40,40,0,-210,-119,0,1,100,0,440,600,40,40,0,-204,-103,0,1,100,0,440,600,40,40,0,-322,-38,0,1,100,0,440,600,40,40,0,-328,-54,0,1,100,0,80,560,80,80,0,-316,-68,0,1,100,0,160,560,80,80,0,-234,-126,0,1,100,0,160,560,80,80,0,-249,-119,0,1,100,0,160,560,80,80,0,-321,-124,0,1,100,0,480,640,160,160,0,-331,-88,0,1,100,0,0,560,80,80,0,-322,-96,0,1,100,0,0,560,80,80,0,-310,-86,0,1,100,0,0,560,80,80,0,-139,-137,0,1,100,0,400,560,40,40,0,-142,-143,0,1,100,0,400,560,40,40,0,-160,-135,0,1,100,0,400,560,40,40,0,-134,-165,0,1,100,0,400,560,40,40,0,-320,-141,0,1,100,0,400,560,40,40,0,-317,-147,0,1,100,0,400,560,40,40,0,-274,-61,0,1,100,0,440,560,40,40,0,-146,-165,0,1,100,0,440,600,40,40,0,-306,-153,0,1,100,0,440,600,40,40,0,-154,-143,0,1,100,0,440,600,40,40,0,-268,-71,0,1,100,0,480,600,40,40,0,-186,-179,0,1,100,0,160,560,80,80,0,-309,-177,0,1,100,0,160,560,80,80,0,-206,-179,0,1,100,0,240,560,80,80,0,-221,-174,0,1,100,0,240,560,80,80,0,-281,-104,0,1,100,0,240,560,80,80,0,-291,-164,0,1,100,0,240,560,80,80,0,-291,-164,0,1,100,0,640,640,160,160,0,-234,-58,0,1,100,0,560,560,40,40,0,-259,-91,0,1,100,0,560,560,40,40,0,-248,-74,0,1,100,0,560,560,40,40,0,-252,-90,0,1,100,0,560,560,40,40,0,-239,-81,0,1,100,0,600,600,40,40,0,-218,-49,0,1,100,0,600,600,40,40,0,-228,-79,0,1,100,0,600,600,40,40,0,-152,-108,0,1,100,0,400,560,40,40,0,-159,-111,0,1,100,0,400,560,40,40,0,-215,-35,0,1,100,0,400,560,40,40,0,-207,-40,0,1,100,0,440,560,40,40,0,-166,-106,0,1,100,0,440,560,40,40,0,-171,-100,0,1,100,0,440,560,40,40,0,-193,-45,0,1,100,0,480,600,40,40,0,-173,-85,0,1,100,0,480,600,40,40,0,-198,-84,0,1,100,0,240,560,80,80,0,-183,-77,0,1,100,0,240,560,80,80,0,-203,-67,0,1,100,0,240,560,80,80,0,-168,-48,0,1,100,0,440,560,40,40,0,-164,-52,0,1,100,0,440,560,40,40,0,-155,-54,0,1,100,0,480,560,40,40,0,-99,-30,0,1,100,0,480,560,40,40,0,-107,-35,0,1,100,0,520,560,40,40,0,-141,-51,0,1,100,0,520,600,40,40,0,-146,-61,0,1,100,0,320,560,80,80,0,-97,-49,0,1,100,0,520,560,40,40,0,-202,-46,0,1,100,0,520,560,40,40,0,-223,-55,0,1,100,0,520,560,40,40,0,-263,-106,0,1,100,0,520,560,40,40,0,-254,-110,0,1,100,0,520,560,40,40,0,-99,-57,0,1,100,0,560,560,40,40,0,-104,-63,0,1,100,0,560,560,40,40,0,-203,-55,0,1,100,0,560,560,40,40,0,-215,-63,0,1,100,0,560,560,40,40,0,-209,-66,0,1,100,0,560,560,40,40,0,-239,-112,0,1,100,0,560,600,40,40,0,-224,-110,0,1,100,0,560,600,40,40,0,-195,-65,0,1,100,0,600,600,40,40,0,-110,-69,0,1,100,0,600,600,40,40,0,-12,-35,0,0,100,0,440,240,40,40,0,-30,-39,0,0,100,0,640,80,80,80,0,-4,-35,1,0,100,0,0,80,40,40,0,-4,-35,1,0,100,0,0,120,40,40,0,1,-28,0,0,100,0,160,200,40,40,0,-10,-30,0,0,100,0,160,360,40,40,0,-9,-22,1,0,100,0,360,320,40,40,0,-11,-32,1,0,100,0,40,360,40,40,0,-23,-75,1,0,100,0,240,400,80,80,0,7,-35,0,0,100,0,440,280,40,40,0,-53,-62,1,0,100,0,320,0,80,80,0,-6,-42,0,0,100,0,640,160,80,80,0,-16,-12,0,0,65,0,744,400,56,24,0,
0,85,-328,-84,0,1,100,0,160,560,80,80,0,-198,-86,0,1,100,0,400,560,40,40,0,-347,-35,0,1,100,0,400,560,40,40,0,-199,-124,0,1,100,0,440,560,40,40,0,-198,-92,0,1,100,0,440,560,40,40,0,-200,-97,0,1,100,0,440,560,40,40,0,-342,-40,0,1,100,0,440,560,40,40,0,-336,-42,0,1,100,0,440,560,40,40,0,-210,-119,0,1,100,0,480,600,40,40,0,-204,-103,0,1,100,0,480,600,40,40,0,-322,-38,0,1,100,0,480,600,40,40,0,-328,-54,0,1,100,0,160,560,80,80,0,-316,-68,0,1,100,0,240,560,80,80,0,-234,-126,0,1,100,0,240,560,80,80,0,-249,-119,0,1,100,0,240,560,80,80,0,-321,-124,0,1,100,0,640,640,160,160,0,-336,-70,0,1,100,0,400,600,40,40,0,-326,-74,0,1,100,0,400,600,40,40,0,-312,-91,0,1,100,0,400,600,40,40,0,-331,-88,0,1,100,0,80,560,80,80,0,-322,-96,0,1,100,0,80,560,80,80,0,-310,-86,0,1,100,0,80,560,80,80,0,-139,-137,0,1,100,0,440,560,40,40,0,-142,-143,0,1,100,0,440,560,40,40,0,-160,-135,0,1,100,0,440,560,40,40,0,-134,-165,0,1,100,0,440,560,40,40,0,-320,-141,0,1,100,0,440,560,40,40,0,-317,-147,0,1,100,0,440,560,40,40,0,-274,-61,0,1,100,0,480,560,40,40,0,-146,-165,0,1,100,0,480,600,40,40,0,-306,-153,0,1,100,0,480,600,40,40,0,-154,-143,0,1,100,0,480,600,40,40,0,-268,-71,0,1,100,0,520,600,40,40,0,-186,-179,0,1,100,0,240,560,80,80,0,-309,-177,0,1,100,0,240,560,80,80,0,-206,-179,0,1,100,0,320,560,80,80,0,-221,-174,0,1,100,0,320,560,80,80,0,-281,-104,0,1,100,0,320,560,80,80,0,-291,-164,0,1,100,0,320,560,80,80,0,-234,-58,0,1,100,0,600,560,40,40,0,-259,-91,0,1,100,0,600,560,40,40,0,-248,-74,0,1,100,0,600,560,40,40,0,-252,-90,0,1,100,0,600,560,40,40,0,-152,-108,0,1,100,0,440,560,40,40,0,-159,-111,0,1,100,0,440,560,40,40,0,-215,-35,0,1,100,0,440,560,40,40,0,-207,-40,0,1,100,0,480,560,40,40,0,-166,-106,0,1,100,0,480,560,40,40,0,-171,-100,0,1,100,0,480,560,40,40,0,-193,-45,0,1,100,0,520,600,40,40,0,-173,-85,0,1,100,0,520,600,40,40,0,-198,-84,0,1,100,0,320,560,80,80,0,-183,-77,0,1,100,0,320,560,80,80,0,-203,-67,0,1,100,0,320,560,80,80,0,-168,-48,0,1,100,0,480,560,40,40,0,-164,-52,0,1,100,0,480,560,40,40,0,-155,-54,0,1,100,0,520,560,40,40,0,-99,-30,0,1,100,0,520,560,40,40,0,-107,-35,0,1,100,0,560,560,40,40,0,-141,-51,0,1,100,0,560,600,40,40,0,-97,-49,0,1,100,0,560,560,40,40,0,-202,-46,0,1,100,0,560,560,40,40,0,-223,-55,0,1,100,0,560,560,40,40,0,-263,-106,0,1,100,0,560,560,40,40,0,-254,-110,0,1,100,0,560,560,40,40,0,-99,-57,0,1,100,0,600,560,40,40,0,-104,-63,0,1,100,0,600,560,40,40,0,-203,-55,0,1,100,0,600,560,40,40,0,-215,-63,0,1,100,0,600,560,40,40,0,-209,-66,0,1,100,0,600,560,40,40,0,-239,-112,0,1,100,0,600,600,40,40,0,-224,-110,0,1,100,0,600,600,40,40,0,-12,-35,0,0,100,0,440,240,40,40,0,-30,-39,0,0,100,0,640,80,80,80,0,-4,-35,1,0,100,0,0,80,40,40,0,-4,-35,1,0,100,0,0,120,40,40,0,1,-28,0,0,100,0,160,200,40,40,0,-10,-30,0,0,100,0,160,360,40,40,0,-9,-22,1,0,100,0,360,320,40,40,0,-11,-32,1,0,100,0,40,360,40,40,0,-23,-75,1,0,100,0,240,400,80,80,0,7,-35,0,0,100,0,440,280,40,40,0,-53,-62,1,0,100,0,320,0,80,80,0,-6,-42,0,0,100,0,640,160,80,80,0,-16,-12,0,0,65,0,744,400,56,24,0,
0,70,-328,-84,0,1,100,0,240,560,80,80,0,-198,-86,0,1,100,0,440,560,40,40,0,-347,-35,0,1,100,0,440,560,40,40,0,-199,-124,0,1,100,0,480,560,40,40,0,-198,-92,0,1,100,0,480,560,40,40,0,-200,-97,0,1,100,0,480,560,40,40,0,-342,-40,0,1,100,0,480,560,40,40,0,-336,-42,0,1,100,0,480,560,40,40,0,-210,-119,0,1,100,0,520,600,40,40,0,-204,-103,0,1,100,0,520,600,40,40,0,-322,-38,0,1,100,0,520,600,40,40,0,-328,-54,0,1,100,0,240,560,80,80,0,-316,-68,0,1,100,0,320,560,80,80,0,-234,-126,0,1,100,0,320,560,80,80,0,-249,-119,0,1,100,0,320,560,80,80,0,-350,-59,0,1,100,0,400,560,40,40,0,-347,-65,0,1,100,0,400,560,40,40,0,-326,-105,0,1,100,0,400,560,40,40,0,-321,-103,0,1,100,0,400,560,40,40,0,-336,-70,0,1,100,0,440,600,40,40,0,-326,-74,0,1,100,0,440,600,40,40,0,-312,-91,0,1,100,0,440,600,40,40,0,-331,-88,0,1,100,0,160,560,80,80,0,-322,-96,0,1,100,0,160,560,80,80,0,-310,-86,0,1,100,0,160,560,80,80,0,-139,-137,0,1,100,0,480,560,40,40,0,-142,-143,0,1,100,0,480,560,40,40,0,-160,-135,0,1,100,0,480,560,40,40,0,-134,-165,0,1,100,0,480,560,40,40,0,-320,-141,0,1,100,0,480,560,40,40,0,-317,-147,0,1,100,0,480,560,40,40,0,-274,-61,0,1,100,0,520,560,40,40,0,-146,-165,0,1,100,0,520,600,40,40,0,-306,-153,0,1,100,0,520,600,40,40,0,-154,-143,0,1,100,0,520,600,40,40,0,-268,-71,0,1,100,0,560,600,40,40,0,-186,-179,0,1,100,0,320,560,80,80,0,-309,-177,0,1,100,0,320,560,80,80,0,-152,-108,0,1,100,0,480,560,40,40,0,-159,-111,0,1,100,0,480,560,40,40,0,-215,-35,0,1,100,0,480,560,40,40,0,-207,-40,0,1,100,0,520,560,40,40,0,-166,-106,0,1,100,0,520,560,40,40,0,-171,-100,0,1,100,0,520,560,40,40,0,-193,-45,0,1,100,0,560,600,40,40,0,-173,-85,0,1,100,0,560,600,40,40,0,-168,-48,0,1,100,0,520,560,40,40,0,-164,-52,0,1,100,0,520,560,40,40,0,-155,-54,0,1,100,0,560,560,40,40,0,-99,-30,0,1,100,0,560,560,40,40,0,-107,-35,0,1,100,0,600,560,40,40,0,-141,-51,0,1,100,0,600,600,40,40,0,-97,-49,0,1,100,0,600,560,40,40,0,-202,-46,0,1,100,0,600,560,40,40,0,-223,-55,0,1,100,0,600,560,40,40,0,-263,-106,0,1,100,0,600,560,40,40,0,-254,-110,0,1,100,0,600,560,40,40,0,-12,-35,0,0,100,0,440,240,40,40,0,-30,-39,0,0,100,0,640,80,80,80,0,-4,-35,1,0,100,0,0,80,40,40,0,-4,-35,1,0,100,0,0,120,40,40,0,1,-28,0,0,100,0,160,200,40,40,0,-10,-30,0,0,100,0,160,360,40,40,0,-9,-22,1,0,100,0,360,320,40,40,0,-11,-32,1,0,100,0,40,360,40,40,0,-23,-75,1,0,100,0,240,400,80,80,0,7,-35,0,0,100,0,440,280,40,40,0,-53,-62,1,0,100,0,320,0,80,80,0,-6,-42,0,0,100,0,640,160,80,80,0,-16,-12,0,0,65,0,744,400,56,24,0,
0,58,-328,-84,0,1,100,0,320,560,80,80,0,-198,-86,0,1,100,0,480,560,40,40,0,-347,-35,0,1,100,0,480,560,40,40,0,-199,-124,0,1,100,0,520,560,40,40,0,-198,-92,0,1,100,0,520,560,40,40,0,-200,-97,0,1,100,0,520,560,40,40,0,-342,-40,0,1,100,0,520,560,40,40,0,-336,-42,0,1,100,0,520,560,40,40,0,-210,-119,0,1,100,0,560,600,40,40,0,-204,-103,0,1,100,0,560,600,40,40,0,-322,-38,0,1,100,0,560,600,40,40,0,-328,-54,0,1,100,0,320,560,80,80,0,-350,-59,0,1,100,0,440,560,40,40,0,-347,-65,0,1,100,0,440,560,40,40,0,-326,-105,0,1,100,0,440,560,40,40,0,-321,-103,0,1,100,0,440,560,40,40,0,-336,-70,0,1,100,0,480,600,40,40,0,-326,-74,0,1,100,0,480,600,40,40,0,-312,-91,0,1,100,0,480,600,40,40,0,-331,-88,0,1,100,0,240,560,80,80,0,-322,-96,0,1,100,0,240,560,80,80,0,-310,-86,0,1,100,0,240,560,80,80,0,-139,-137,0,1,100,0,520,560,40,40,0,-142,-143,0,1,100,0,520,560,40,40,0,-160,-135,0,1,100,0,520,560,40,40,0,-134,-165,0,1,100,0,520,560,40,40,0,-320,-141,0,1,100,0,520,560,40,40,0,-317,-147,0,1,100,0,520,560,40,40,0,-274,-61,0,1,100,0,560,560,40,40,0,-146,-165,0,1,100,0,560,600,40,40,0,-306,-153,0,1,100,0,560,600,40,40,0,-154,-143,0,1,100,0,560,600,40,40,0,-268,-71,0,1,100,0,600,600,40,40,0,-152,-108,0,1,100,0,520,560,40,40,0,-159,-111,0,1,100,0,520,560,40,40,0,-215,-35,0,1,100,0,520,560,40,40,0,-207,-40,0,1,100,0,560,560,40,40,0,-166,-106,0,1,100,0,560,560,40,40,0,-171,-100,0,1,100,0,560,560,40,40,0,-193,-45,0,1,100,0,600,600,40,40,0,-173,-85,0,1,100,0,600,600,40,40,0,-168,-48,0,1,100,0,560,560,40,40,0,-164,-52,0,1,100,0,560,560,40,40,0,-155,-54,0,1,100,0,600,560,40,40,0,-99,-30,0,1,100,0,600,560,40,40,0,-12,-35,0,0,100,0,440,240,40,40,0,-30,-39,0,0,100,0,640,80,80,80,0,-4,-35,1,0,100,0,0,80,40,40,0,-4,-35,1,0,100,0,0,120,40,40,0,1,-28,0,0,100,0,160,200,40,40,0,-10,-30,0,0,100,0,160,360,40,40,0,-9,-22,1,0,100,0,360,320,40,40,0,-11,-32,1,0,100,0,40,360,40,40,0,-23,-75,1,0,100,0,240,400,80,80,0,7,-35,0,0,100,0,440,280,40,40,0,-53,-62,1,0,100,0,320,0,80,80,0,-6,-42,0,0,100,0,640,160,80,80,0,-16,-12,0,0,65,0,744,400,56,24,0,
0,51,-198,-86,0,1,100,0,520,560,40,40,0,-347,-35,0,1,100,0,520,560,40,40,0,-199,-124,0,1,100,0,560,560,40,40,0,-198,-92,0,1,100,0,560,560,40,40,0,-200,-97,0,1,100,0,560,560,40,40,0,-342,-40,0,1,100,0,560,560,40,40,0,-336,-42,0,1,100,0,560,560,40,40,0,-210,-119,0,1,100,0,600,600,40,40,0,-204,-103,0,1,100,0,600,600,40,40,0,-322,-38,0,1,100,0,600,600,40,40,0,-350,-59,0,1,100,0,480,560,40,40,0,-347,-65,0,1,100,0,480,560,40,40,0,-326,-105,0,1,100,0,480,560,40,40,0,-321,-103,0,1,100,0,480,560,40,40,0,-336,-70,0,1,100,0,520,600,40,40,0,-326,-74,0,1,100,0,520,600,40,40,0,-312,-91,0,1,100,0,520,600,40,40,0,-331,-88,0,1,100,0,320,560,80,80,0,-322,-96,0,1,100,0,320,560,80,80,0,-310,-86,0,1,100,0,320,560,80,80,0,-139,-137,0,1,100,0,560,560,40,40,0,-142,-143,0,1,100,0,560,560,40,40,0,-160,-135,0,1,100,0,560,560,40,40,0,-134,-165,0,1,100,0,560,560,40,40,0,-320,-141,0,1,100,0,560,560,40,40,0,-317,-147,0,1,100,0,560,560,40,40,0,-274,-61,0,1,100,0,600,560,40,40,0,-146,-165,0,1,100,0,600,600,40,40,0,-306,-153,0,1,100,0,600,600,40,40,0,-154,-143,0,1,100,0,600,600,40,40,0,-152,-108,0,1,100,0,560,560,40,40,0,-159,-111,0,1,100,0,560,560,40,40,0,-215,-35,0,1,100,0,560,560,40,40,0,-207,-40,0,1,100,0,600,560,40,40,0,-166,-106,0,1,100,0,600,560,40,40,0,-171,-100,0,1,100,0,600,560,40,40,0,-168,-48,0,1,100,0,600,560,40,40,0,-164,-52,0,1,100,0,600,560,40,40,0,-12,-35,0,0,100,0,440,240,40,40,0,-30,-39,0,0,100,0,640,80,80,80,0,-4,-35,1,0,100,0,0,80,40,40,0,-4,-35,1,0,100,0,0,120,40,40,0,1,-28,0,0,100,0,160,200,40,40,0,-10,-30,0,0,100,0,160,360,40,40,0,-9,-22,1,0,100,0,360,320,40,40,0,-11,-32,1,0,100,0,40,360,40,40,0,-23,-75,1,0,100,0,240,400,80,80,0,7,-35,0,0,100,0,440,280,40,40,0,-53,-62,1,0,100,0,320,0,80,80,0,-6,-42,0,0,100,0,640,160,80,80,0,-16,-12,0,0,65,0,744,400,56,24,0,
0,36,-198,-86,0,1,100,0,560,560,40,40,0,-347,-35,0,1,100,0,560,560,40,40,0,-199,-124,0,1,100,0,600,560,40,40,0,-198,-92,0,1,100,0,600,560,40,40,0,-200,-97,0,1,100,0,600,560,40,40,0,-342,-40,0,1,100,0,600,560,40,40,0,-336,-42,0,1,100,0,600,560,40,40,0,-350,-59,0,1,100,0,520,560,40,40,0,-347,-65,0,1,100,0,520,560,40,40,0,-326,-105,0,1,100,0,520,560,40,40,0,-321,-103,0,1,100,0,520,560,40,40,0,-336,-70,0,1,100,0,560,600,40,40,0,-326,-74,0,1,100,0,560,600,40,40,0,-312,-91,0,1,100,0,560,600,40,40,0,-139,-137,0,1,100,0,600,560,40,40,0,-142,-143,0,1,100,0,600,560,40,40,0,-160,-135,0,1,100,0,600,560,40,40,0,-134,-165,0,1,100,0,600,560,40,40,0,-320,-141,0,1,100,0,600,560,40,40,0,-317,-147,0,1,100,0,600,560,40,40,0,-152,-108,0,1,100,0,600,560,40,40,0,-159,-111,0,1,100,0,600,560,40,40,0,-215,-35,0,1,100,0,600,560,40,40,0,-12,-35,0,0,100,0,440,240,40,40,0,-30,-39,0,0,100,0,640,80,80,80,0,-4,-35,1,0,100,0,0,80,40,40,0,-4,-35,1,0,100,0,0,120,40,40,0,1,-28,0,0,100,0,160,200,40,40,0,-10,-30,0,0,100,0,160,360,40,40,0,-9,-22,1,0,100,0,360,320,40,40,0,-11,-32,1,0,100,0,40,360,40,40,0,-23,-75,1,0,100,0,240,400,80,80,0,7,-35,0,0,100,0,440,280,40,40,0,-53,-62,1,0,100,0,320,0,80,80,0,-6,-42,0,0,100,0,640,160,80,80,0,-16,-12,0,0,65,0,744,400,56,24,0,
0,22,-198,-86,0,1,100,0,600,560,40,40,0,-347,-35,0,1,100,0,600,560,40,40,0,-350,-59,0,1,100,0,560,560,40,40,0,-347,-65,0,1,100,0,560,560,40,40,0,-326,-105,0,1,100,0,560,560,40,40,0,-321,-103,0,1,100,0,560,560,40,40,0,-336,-70,0,1,100,0,600,600,40,40,0,-326,-74,0,1,100,0,600,600,40,40,0,-312,-91,0,1,100,0,600,600,40,40,0,-12,-35,0,0,100,0,440,240,40,40,0,-30,-39,0,0,100,0,640,80,80,80,0,-4,-35,1,0,100,0,0,80,40,40,0,-4,-35,1,0,100,0,0,120,40,40,0,1,-28,0,0,100,0,160,200,40,40,0,-10,-30,0,0,100,0,160,360,40,40,0,-9,-22,1,0,100,0,360,320,40,40,0,-11,-32,1,0,100,0,40,360,40,40,0,-23,-75,1,0,100,0,240,400,80,80,0,7,-35,0,0,100,0,440,280,40,40,0,-53,-62,1,0,100,0,320,0,80,80,0,-6,-42,0,0,100,0,640,160,80,80,0,-16,-12,0,0,65,0,744,400,56,24,0,
0,17,-350,-59,0,1,100,0,600,560,40,40,0,-347,-65,0,1,100,0,600,560,40,40,0,-326,-105,0,1,100,0,600,560,40,40,0,-321,-103,0,1,100,0,600,560,40,40,0,-12,-35,0,0,100,0,440,240,40,40,0,-30,-39,0,0,100,0,640,80,80,80,0,-4,-35,1,0,100,0,0,80,40,40,0,-4,-35,1,0,100,0,0,120,40,40,0,1,-28,0,0,100,0,160,200,40,40,0,-10,-30,0,0,100,0,160,360,40,40,0,-9,-22,1,0,100,0,360,320,40,40,0,-11,-32,1,0,100,0,40,360,40,40,0,-23,-75,1,0,100,0,240,400,80,80,0,7,-35,0,0,100,0,440,280,40,40,0,-53,-62,1,0,100,0,320,0,80,80,0,-6,-42,0,0,100,0,640,160,80,80,0,-16,-12,0,0,65,0,744,400,56,24,0,
0,13,-12,-35,0,0,100,0,440,240,40,40,0,-30,-39,0,0,100,0,640,80,80,80,0,-4,-35,1,0,100,0,0,80,40,40,0,-4,-35,1,0,100,0,0,120,40,40,0,1,-28,0,0,100,0,160,200,40,40,0,-10,-30,0,0,100,0,160,360,40,40,0,-9,-22,1,0,100,0,360,320,40,40,0,-11,-32,1,0,100,0,40,360,40,40,0,-23,-75,1,0,100,0,240,400,80,80,0,7,-35,0,0,100,0,440,280,40,40,0,-53,-62,1,0,100,0,320,0,80,80,0,-6,-42,0,0,100,0,640,160,80,80,0,-16,-12,0,0,65,0,744,400,56,24,0,
0,13,-12,-36,0,0,100,0,440,240,40,40,0,-30,-39,0,0,100,0,640,80,80,80,0,-4,-36,1,0,100,0,0,80,40,40,0,-4,-36,1,0,100,0,0,120,40,40,0,1,-29,0,0,100,0,160,200,40,40,0,-10,-31,0,0,100,0,160,360,40,40,0,-9,-22,1,0,100,0,360,320,40,40,0,-11,-33,1,0,100,0,40,360,40,40,0,-23,-76,1,0,100,0,160,400,80,80,0,7,-36,0,0,100,0,440,280,40,40,0,-53,-62,1,0,100,0,320,0,80,80,0,-6,-42,0,0,100,0,640,160,80,80,0,-16,-12,0,0,65,0,744,400,56,24,0,
0,13,-13,-38,0,0,100,0,440,240,40,40,0,-30,-39,0,0,100,0,640,80,80,80,0,-4,-39,1,0,100,0,0,80,40,40,0,-4,-39,1,0,100,0,0,120,40,40,0,1,-32,0,0,100,0,160,200,40,40,0,-10,-32,0,0,100,0,160,360,40,40,0,-9,-22,1,0,100,0,360,320,40,40,0,-11,-36,1,0,100,0,40,360,40,40,0,-23,-79,1,0,100,0,160,400,80,80,0,8,-37,0,0,100,0,440,280,40,40,0,-53,-63,1,0,100,0,400,0,80,80,0,-6,-42,0,0,100,0,640,160,80,80,0,-16,-12,0,0,65,0,744,400,56,24,0,
0,14,-38,-1,0,0,100,0,720,120,80,40,0,-24,-40,0,0,100,0,440,240,40,40,0,-38,-41,0,0,100,0,720,80,80,80,0,-11,-42,0,0,100,0,0,80,40,40,0,-11,-42,0,0,100,0,0,120,40,40,0,-15,-36,0,0,100,0,0,200,40,40,0,-12,-33,0,0,100,0,0,280,40,40,0,-15,-21,1,0,100,0,200,320,40,40,0,-13,-33,0,0,100,0,40,360,40,40,0,-31,-83,0,0,100,0,0,0,80,80,0,-1,-43,0,0,100,0,440,280,40,40,0,-8,-64,0,0,100,0,480,0,80,80,0,-10,-44,0,0,100,0,720,160,80,80,0,-19,-12,0,0,65,0,744,400,56,24,0,
0,13,-20,-42,0,0,100,0,0,80,40,40,0,-27,-36,0,0,100,0,160,240,80,40,0,-37,-45,1,0,100,0,720,80,80,80,0,-20,-42,0,0,100,0,0,120,40,40,0,-18,-33,0,0,100,0,0,200,40,40,0,-17,-33,0,0,100,0,0,280,40,40,0,-23,-22,0,0,100,0,160,320,40,40,0,-17,-33,0,0,100,0,0,360,40,40,0,-40,-82,0,0,100,0,0,0,80,80,0,-10,-62,0,0,100,0,320,0,80,80,0,-54,-37,1,0,100,0,160,280,80,40,0,-59,-42,1,0,100,0,720,160,80,80,0,-26,-12,0,0,65,0,744,400,56,24,0,
0,13,-47,-70,1,0,100,0,0,400,80,80,0,-21,-40,0,0,100,0,0,80,40,40,0,-25,-32,0,0,100,0,560,240,40,40,0,-23,-41,0,0,100,0,0,120,40,40,0,-8,-34,1,0,100,0,320,240,40,40,0,-39,-44,1,0,100,0,640,80,80,80,0,-20,-33,0,0,100,0,0,200,40,40,0,-19,-33,0,0,100,0,0,280,40,40,0,-23,-22,0,0,100,0,200,320,40,40,0,-19,-33,0,0,100,0,0,360,40,40,0,-12,-62,0,0,100,0,400,0,80,80,0,-62,-42,1,0,100,0,640,160,80,80,0,-27,-12,0,0,65,0,744,400,56,24,0,
0,13,-47,-69,1,0,100,0,0,400,80,80,0,-21,-39,0,0,100,0,0,80,40,40,0,-23,-32,0,0,100,0,560,240,40,40,0,-23,-41,0,0,100,0,0,120,40,40,0,-9,-33,1,0,100,0,320,240,40,40,0,-39,-44,1,0,100,0,640,80,80,80,0,-20,-33,0,0,100,0,0,200,40,40,0,-19,-33,0,0,100,0,0,280,40,40,0,-23,-22,0,0,100,0,200,320,40,40,0,-19,-33,0,0,100,0,0,360,40,40,0,-12,-62,0,0,100,0,400,0,80,80,0,-62,-42,1,0,100,0,640,160,80,80,0,-27,-12,0,0,65,0,744,400,56,24,0,
0,13,-47,-69,1,0,100,0,0,400,80,80,0,-21,-39,0,0,100,0,0,80,40,40,0,-24,-31,0,0,100,0,560,240,40,40,0,-23,-41,0,0,100,0,0,120,40,40,0,-9,-33,1,0,100,0,320,240,40,40,0,-39,-44,1,0,100,0,640,80,80,80,0,-20,-33,0,0,100,0,0,200,40,40,0,-19,-33,0,0,100,0,0,280,40,40,0,-23,-22,0,0,100,0,200,320,40,40,0,-19,-33,0,0,100,0,0,360,40,40,0,-12,-62,0,0,100,0,400,0,80,80,0,-62,-42,1,0,100,0,640,160,80,80,0,-27,-12,0,0,65,0,744,400,56,24,0,
0,14,-47,-70,1,0,100,0,0,400,80,80,0,-25,-32,0,0,100,0,560,240,40,40,0,-22,-42,0,0,100,0,600,240,40,40,0,-21,-41,0,0,100,0,0,80,40,40,0,-23,-41,0,0,100,0,0,120,40,40,0,-9,-36,1,0,100,0,320,240,40,40,0,-39,-44,1,0,100,0,640,80,80,80,0,-20,-33,0,0,100,0,0,200,40,40,0,-19,-34,0,0,100,0,0,280,40,40,0,-23,-22,0,0,100,0,200,320,40,40,0,-19,-34,0,0,100,0,0,360,40,40,0,-12,-62,0,0,100,0,400,0,80,80,0,-62,-42,1,0,100,0,640,160,80,80,0,-27,-12,0,0,65,0,744,400,56,24,0,
0,17,-29,-34,0,0,100,0,520,320,40,40,0,-33,-44,0,0,100,0,600,240,40,40,0,-21,-33,0,0,100,0,600,360,40,40,0,-24,-41,0,0,100,0,600,280,40,40,0,-22,-41,0,0,100,0,0,80,40,40,0,-39,-44,1,0,100,0,640,80,80,80,0,-22,-42,0,0,100,0,0,120,40,40,0,-32,-37,0,0,100,0,480,320,40,40,0,-23,-36,0,0,100,0,560,320,40,40,0,-20,-33,0,0,100,0,0,200,40,40,0,-19,-33,0,0,100,0,0,280,40,40,0,-23,-22,0,0,100,0,440,320,40,40,0,-19,-33,0,0,100,0,0,360,40,40,0,-42,-81,0,0,100,0,0,0,80,80,0,-13,-62,0,0,100,0,320,0,80,80,0,-62,-42,1,0,100,0,640,160,80,80,0,-27,-12,0,0,65,0,744,400,56,24,0,
0,17,-23,-34,0,0,100,0,600,320,40,40,0,-25,-44,0,0,100,0,600,280,40,40,0,-34,-37,0,0,100,0,520,320,40,40,0,-38,-47,0,0,100,0,600,240,40,40,0,-23,-42,0,0,100,0,0,80,40,40,0,-39,-44,1,0,100,0,640,80,80,80,0,-23,-42,0,0,100,0,0,120,40,40,0,-33,-37,0,0,100,0,480,320,40,40,0,-24,-36,0,0,100,0,560,320,40,40,0,-21,-33,0,0,100,0,0,200,40,40,0,-20,-33,0,0,100,0,0,280,40,40,0,-23,-22,0,0,100,0,440,320,40,40,0,-20,-33,0,0,100,0,0,360,40,40,0,-43,-82,0,0,100,0,0,0,80,80,0,-14,-62,0,0,100,0,320,0,80,80,0,-62,-42,1,0,100,0,640,160,80,80,0,-28,-12,0,0,65,0,744,400,56,24,0,
0,17,-23,-35,0,0,100,0,600,320,40,40,0,-25,-45,0,0,100,0,600,280,40,40,0,-36,-38,0,0,100,0,520,320,40,40,0,-40,-48,0,0,100,0,600,240,40,40,0,-23,-42,0,0,100,0,0,80,40,40,0,-39,-44,1,0,100,0,640,80,80,80,0,-23,-42,0,0,100,0,0,120,40,40,0,-32,-38,0,0,100,0,480,320,40,40,0,-24,-36,0,0,100,0,560,320,40,40,0,-21,-33,0,0,100,0,0,200,40,40,0,-20,-33,0,0,100,0,0,280,40,40,0,-23,-22,0,0,100,0,440,320,40,40,0,-20,-33,0,0,100,0,0,360,40,40,0,-43,-82,0,0,100,0,0,0,80,80,0,-14,-62,0,0,100,0,320,0,80,80,0,-62,-42,1,0,100,0,640,160,80,80,0,-29,-12,0,0,65,0,744,400,56,24,0,
0,17,-23,-35,0,0,100,0,600,320,40,40,0,-25,-45,0,0,100,0,600,280,40,40,0,-36,-39,0,0,100,0,520,320,40,40,0,-40,-49,0,0,100,0,600,240,40,40,0,-23,-42,0,0,100,0,0,80,40,40,0,-39,-44,1,0,100,0,640,80,80,80,0,-23,-42,0,0,100,0,0,120,40,40,0,-32,-38,0,0,100,0,480,320,40,40,0,-24,-36,0,0,100,0,560,320,40,40,0,-21,-33,0,0,100,0,0,200,40,40,0,-20,-33,0,0,100,0,0,280,40,40,0,-23,-22,0,0,100,0,440,320,40,40,0,-20,-33,0,0,100,0,0,360,40,40,0,-43,-82,0,0,100,0,0,0,80,80,0,-14,-62,0,0,100,0,320,0,80,80,0,-62,-42,1,0,100,0,640,160,80,80,0,-29,-12,0,0,65,0,744,400,56,24,0,
0,17,-23,-35,0,0,100,0,600,320,40,40,0,-25,-45,0,0,100,0,600,280,40,40,0,-36,-40,0,0,100,0,520,320,40,40,0,-40,-50,0,0,100,0,600,240,40,40,0,-23,-42,0,0,100,0,0,80,40,40,0,-39,-44,1,0,100,0,640,80,80,80,0,-23,-42,0,0,100,0,0,120,40,40,0,-32,-38,0,0,100,0,480,320,40,40,0,-24,-36,0,0,100,0,560,320,40,40,0,-21,-33,0,0,100,0,0,200,40,40,0,-20,-33,0,0,100,0,0,280,40,40,0,-23,-22,0,0,100,0,440,320,40,40,0,-20,-33,0,0,100,0,0,360,40,40,0,-43,-82,0,0,100,0,0,0,80,80,0,-14,-62,0,0,100,0,320,0,80,80,0,-62,-42,1,0,100,0,640,160,80,80,0,-29,-12,0,0,65,0,744,400,56,24,0,
0,17,-35,-40,0,0,100,0,520,320,40,40,0,-39,-50,0,0,100,0,600,240,40,40,0,-24,-35,0,0,100,0,600,320,40,40,0,-26,-45,0,0,100,0,600,280,40,40,0,-23,-42,0,0,100,0,0,80,40,40,0,-39,-44,1,0,100,0,640,80,80,80,0,-23,-42,0,0,100,0,0,120,40,40,0,-32,-38,0,0,100,0,480,320,40,40,0,-24,-36,0,0,100,0,560,320,40,40,0,-21,-33,0,0,100,0,0,200,40,40,0,-20,-33,0,0,100,0,0,280,40,40,0,-23,-22,0,0,100,0,440,320,40,40,0,-20,-33,0,0,100,0,0,360,40,40,0,-43,-82,0,0,100,0,0,0,80,80,0,-14,-62,0,0,100,0,320,0,80,80,0,-62,-42,1,0,100,0,640,160,80,80,0,-29,-12,0,0,65,0,744,400,56,24,0,
0,17,-32,-45,0,0,100,0,520,320,40,40,0,-36,-55,0,0,100,0,600,240,40,40,0,-23,-38,0,0,100,0,600,320,40,40,0,-25,-48,0,0,100,0,600,280,40,40,0,-20,-42,0,0,100,0,0,80,40,40,0,-39,-44,1,0,100,0,640,80,80,80,0,-22,-42,0,0,100,0,0,120,40,40,0,-30,-40,0,0,100,0,480,320,40,40,0,-23,-37,0,0,100,0,560,320,40,40,0,-20,-33,0,0,100,0,0,200,40,40,0,-19,-33,0,0,100,0,0,280,40,40,0,-23,-22,0,0,100,0,440,320,40,40,0,-19,-33,0,0,100,0,0,360,40,40,0,-40,-82,0,0,100,0,80,400,80,80,0,-13,-62,0,0,100,0,320,0,80,80,0,-62,-42,1,0,100,0,640,160,80,80,0,-28,-12,0,0,65,0,744,400,56,24,0,
0,17,-30,-46,0,0,100,0,520,320,40,40,0,-34,-56,0,0,100,0,600,240,40,40,0,-23,-39,0,0,100,0,600,320,40,40,0,-25,-49,0,0,100,0,600,280,40,40,0,-19,-42,0,0,100,0,0,80,40,40,0,-39,-44,1,0,100,0,640,80,80,80,0,-22,-42,0,0,100,0,0,120,40,40,0,-30,-41,0,0,100,0,480,320,40,40,0,-23,-37,0,0,100,0,560,320,40,40,0,-20,-33,0,0,100,0,0,200,40,40,0,-19,-33,0,0,100,0,0,280,40,40,0,-23,-22,0,0,100,0,440,320,40,40,0,-19,-33,0,0,100,0,0,360,40,40,0,-39,-82,0,0,100,0,80,400,80,80,0,-13,-62,0,0,100,0,320,0,80,80,0,-62,-42,1,0,100,0,640,160,80,80,0,-27,-12,0,0,65,0,744,400,56,24,0,
0,17,-29,-46,0,0,100,0,520,320,40,40,0,-33,-56,0,0,100,0,600,240,40,40,0,-23,-39,0,0,100,0,600,320,40,40,0,-25,-49,0,0,100,0,600,280,40,40,0,-19,-42,0,0,100,0,0,80,40,40,0,-39,-44,1,0,100,0,640,80,80,80,0,-22,-42,0,0,100,0,0,120,40,40,0,-31,-39,0,0,100,0,480,320,40,40,0,-23,-37,0,0,100,0,560,320,40,40,0,-20,-33,0,0,100,0,0,200,40,40,0,-19,-33,0,0,100,0,0,280,40,40,0,-23,-22,0,0,100,0,440,320,40,40,0,-19,-33,0,0,100,0,0,360,40,40,0,-39,-82,0,0,100,0,80,400,80,80,0,-13,-62,0,0,100,0,320,0,80,80,0,-62,-42,1,0,100,0,640,160,80,80,0,-27,-12,0,0,65,0,744,400,56,24,0,
0,17,-37,-38,0,0,100,0,520,320,40,40,0,-41,-48,0,0,100,0,600,240,40,40,0,-25,-35,0,0,100,0,600,320,40,40,0,-27,-45,0,0,100,0,600,280,40,40,0,-25,-41,0,0,100,0,0,80,40,40,0,-39,-44,1,0,100,0,640,80,80,80,0,-24,-42,0,0,100,0,0,120,40,40,0,-33,-38,0,0,100,0,480,320,40,40,0,-25,-36,0,0,100,0,560,320,40,40,0,-22,-33,0,0,100,0,0,200,40,40,0,-21,-33,0,0,100,0,0,280,40,40,0,-23,-22,0,0,100,0,440,360,40,40,0,-21,-33,0,0,100,0,0,360,40,40,0,-45,-81,0,0,100,0,0,0,80,80,0,-15,-62,0,0,100,0,320,0,80,80,0,-62,-42,1,0,100,0,640,160,80,80,0,-31,-12,0,0,65,0,744,400,56,24,0,
0,17,-36,-38,0,0,100,0,520,320,40,40,0,-40,-48,0,0,100,0,600,240,40,40,0,-26,-34,0,0,100,0,600,320,40,40,0,-28,-44,0,0,100,0,600,280,40,40,0,-25,-40,0,0,100,0,0,80,40,40,0,-39,-44,1,0,100,0,640,80,80,80,0,-24,-42,0,0,100,0,0,120,40,40,0,-33,-38,0,0,100,0,480,320,40,40,0,-25,-36,0,0,100,0,560,320,40,40,0,-22,-33,0,0,100,0,0,200,40,40,0,-21,-33,0,0,100,0,0,280,40,40,0,-23,-22,0,0,100,0,440,360,40,40,0,-21,-33,0,0,100,0,0,360,40,40,0,-46,-80,0,0,100,0,0,0,80,80,0,-15,-62,0,0,100,0,320,0,80,80,0,-62,-42,1,0,100,0,640,160,80,80,0,-32,-12,0,0,65,0,744,400,56,24,0,
0,17,-35,-38,0,0,100,0,520,320,40,40,0,-39,-48,0,0,100,0,600,240,40,40,0,-26,-34,0,0,100,0,600,320,40,40,0,-28,-44,0,0,100,0,600,280,40,40,0,-25,-40,0,0,100,0,0,80,40,40,0,-39,-44,1,0,100,0,640,80,80,80,0,-24,-42,0,0,100,0,0,120,40,40,0,-33,-38,0,0,100,0,480,320,40,40,0,-25,-36,0,0,100,0,560,320,40,40,0,-22,-33,0,0,100,0,0,200,40,40,0,-21,-33,0,0,100,0,0,280,40,40,0,-23,-22,0,0,100,0,440,360,40,40,0,-21,-33,0,0,100,0,0,360,40,40,0,-46,-80,0,0,100,0,0,0,80,80,0,-15,-62,0,0,100,0,320,0,80,80,0,-62,-42,1,0,100,0,640,160,80,80,0,-32,-12,0,0,65,0,744,400,56,24,0,
0,17,-35,-39,0,0,100,0,520,320,40,40,0,-39,-49,0,0,100,0,600,240,40,40,0,-26,-34,0,0,100,0,600,320,40,40,0,-28,-44,0,0,100,0,600,280,40,40,0,-25,-40,0,0,100,0,0,80,40,40,0,-39,-44,1,0,100,0,640,80,80,80,0,-24,-42,0,0,100,0,0,120,40,40,0,-33,-38,0,0,100,0,480,320,40,40,0,-25,-36,0,0,100,0,560,320,40,40,0,-22,-33,0,0,100,0,0,200,40,40,0,-21,-33,0,0,100,0,0,280,40,40,0,-23,-22,0,0,100,0,440,360,40,40,0,-21,-33,0,0,100,0,0,360,40,40,0,-46,-80,0,0,100,0,0,0,80,80,0,-15,-62,0,0,100,0,320,0,80,80,0,-62,-42,1,0,100,0,640,160,80,80,0,-32,-12,0,0,65,0,744,400,56,24,0,
0,17,-35,-40,0,0,100,0,520,320,40,40,0,-39,-50,0,0,100,0,600,240,40,40,0,-26,-34,0,0,100,0,600,320,40,40,0,-28,-44,0,0,100,0,600,280,40,40,0,-25,-40,0,0,100,0,0,80,40,40,0,-39,-44,1,0,100,0,640,80,80,80,0,-24,-42,0,0,100,0,0,120,40,40,0,-33,-38,0,0,100,0,480,320,40,40,0,-25,-36,0,0,100,0,560,320,40,40,0,-22,-33,0,0,100,0,0,200,40,40,0,-21,-33,0,0,100,0,0,280,40,40,0,-23,-22,0,0,100,0,440,360,40,40,0,-21,-33,0,0,100,0,0,360,40,40,0,-46,-80,0,0,100,0,0,0,80,80,0,-15,-62,0,0,100,0,320,0,80,80,0,-62,-42,1,0,100,0,640,160,80,80,0,-32,-12,0,0,65,0,744,400,56,24,0,
0,17,-22,-34,0,0,100,0,600,360,40,40,0,-25,-42,0,0,100,0,600,280,40,40,0,-34,-38,0,0,100,0,520,320,40,40,0,-38,-48,0,0,100,0,600,240,40,40,0,-22,-42,0,0,100,0,0,80,40,40,0,-39,-44,1,0,100,0,640,80,80,80,0,-22,-42,0,0,100,0,0,120,40,40,0,-31,-38,0,0,100,0,480,320,40,40,0,-23,-36,0,0,100,0,560,320,40,40,0,-20,-33,0,0,100,0,0,200,40,40,0,-19,-33,0,0,100,0,0,280,40,40,0,-23,-22,0,0,100,0,440,320,40,40,0,-19,-33,0,0,100,0,0,360,40,40,0,-42,-82,0,0,100,0,0,0,80,80,0,-13,-62,0,0,100,0,320,0,80,80,0,-62,-42,1,0,100,0,640,160,80,80,0,-28,-12,0,0,65,0,744,400,56,24,0,
0,17,-22,-32,0,0,100,0,560,360,40,40,0,-25,-39,0,0,100,0,600,280,40,40,0,-33,-38,0,0,100,0,520,320,40,40,0,-37,-48,0,0,100,0,600,240,40,40,0,-21,-42,0,0,100,0,0,80,40,40,0,-39,-44,1,0,100,0,640,80,80,80,0,-22,-42,0,0,100,0,0,120,40,40,0,-31,-38,0,0,100,0,480,320,40,40,0,-23,-36,0,0,100,0,560,320,40,40,0,-20,-33,0,0,100,0,0,200,40,40,0,-19,-33,0,0,100,0,0,280,40,40,0,-23,-22,0,0,100,0,440,320,40,40,0,-19,-33,0,0,100,0,0,360,40,40,0,-41,-82,0,0,100,0,0,0,80,80,0,-13,-62,0,0,100,0,320,0,80,80,0,-62,-42,1,0,100,0,640,160,80,80,0,-27,-12,0,0,65,0,744,400,56,24,0,
0,17,-21,-31,0,0,100,0,560,360,40,40,0,-24,-38,0,0,100,0,600,280,40,40,0,-31,-39,0,0,100,0,520,320,40,40,0,-35,-49,0,0,100,0,600,240,40,40,0,-21,-42,0,0,100,0,0,80,40,40,0,-39,-44,1,0,100,0,640,80,80,80,0,-22,-42,0,0,100,0,0,120,40,40,0,-31,-38,0,0,100,0,480,320,40,40,0,-23,-35,0,0,100,0,560,320,40,40,0,-20,-33,0,0,100,0,0,200,40,40,0,-19,-33,0,0,100,0,0,280,40,40,0,-23,-22,0,0,100,0,440,320,40,40,0,-19,-33,0,0,100,0,0,360,40,40,0,-41,-82,0,0,100,0,0,0,80,80,0,-13,-62,0,0,100,0,320,0,80,80,0,-62,-42,1,0,100,0,640,160,80,80,0,-27,-12,0,0,65,0,744,400,56,24,0,
0,17,-20,-31,0,0,100,0,560,360,40,40,0,-23,-38,0,0,100,0,600,280,40,40,0,-30,-40,0,0,100,0,520,320,40,40,0,-34,-50,0,0,100,0,600,240,40,40,0,-21,-42,0,0,100,0,0,80,40,40,0,-39,-44,1,0,100,0,640,80,80,80,0,-22,-42,0,0,100,0,0,120,40,40,0,-31,-38,0,0,100,0,480,320,40,40,0,-23,-35,0,0,100,0,560,320,40,40,0,-20,-33,0,0,100,0,0,200,40,40,0,-19,-33,0,0,100,0,0,280,40,40,0,-23,-22,0,0,100,0,440,320,40,40,0,-19,-33,0,0,100,0,0,360,40,40,0,-41,-82,0,0,100,0,0,0,80,80,0,-13,-62,0,0,100,0,320,0,80,80,0,-62,-42,1,0,100,0,640,160,80,80,0,-27,-12,0,0,65,0,744,400,56,24,0,
0,17,-20,-31,0,0,100,0,560,360,40,40,0,-23,-38,0,0,100,0,600,280,40,40,0,-30,-40,0,0,100,0,520,320,40,40,0,-34,-50,0,0,100,0,600,240,40,40,0,-21,-42,0,0,100,0,0,80,40,40,0,-39,-44,1,0,100,0,640,80,80,80,0,-22,-42,0,0,100,0,0,120,40,40,0,-31,-38,0,0,100,0,480,320,40,40,0,-23,-35,0,0,100,0,560,320,40,40,0,-20,-33,0,0,100,0,0,200,40,40,0,-19,-33,0,0,100,0,0,280,40,40,0,-23,-22,0,0,100,0,440,320,40,40,0,-19,-33,0,0,100,0,0,360,40,40,0,-41,-82,0,0,100,0,160,400,80,80,0,-13,-62,0,0,100,0,320,0,80,80,0,-62,-42,1,0,100,0,640,160,80,80,0,-27,-12,0,0,65,0,744,400,56,24,0,
0,17,-20,-31,0,0,100,0,560,360,40,40,0,-23,-38,0,0,100,0,600,280,40,40,0,-30,-40,0,0,100,0,520,320,40,40,0,-34,-50,0,0,100,0,600,240,40,40,0,-21,-42,0,0,100,0,0,80,40,40,0,-39,-44,1,0,100,0,640,80,80,80,0,-22,-42,0,0,100,0,0,120,40,40,0,-31,-38,0,0,100,0,480,320,40,40,0,-23,-35,0,0,100,0,560,320,40,40,0,-20,-33,0,0,100,0,0,200,40,40,0,-19,-33,0,0,100,0,0,280,40,40,0,-23,-22,0,0,100,0,440,320,40,40,0,-19,-33,0,0,100,0,0,360,40,40,0,-41,-82,0,0,100,0,560,400,80,80,0,-13,-62,0,0,100,0,320,0,80,80,0,-62,-42,1,0,100,0,640,160,80,80,0,-27,-12,0,0,65,0,744,400,56,24,0,
