0,7,-10,-55,0,0,100,0,4,19,24,24,0,-25,-38,0,0,100,0,107,29,26,26,0,-11,-38,0,0,100,0,36,19,28,29,0,-17,-21,0,0,100,0,73,1,36,26,0,5,-39,0,0,100,0,84,31,21,23,0,-55,-41,0,0,100,0,0,51,78,50,0,-24,-8,0,0,100,0,0,0,48,16,0,
0,7,-10,-54,0,0,100,0,4,19,24,24,0,-25,-37,0,0,100,0,107,29,26,26,0,-11,-37,0,0,100,0,36,19,28,29,0,-17,-21,0,0,100,0,111,1,36,26,0,5,-38,0,0,100,0,84,31,21,23,0,-55,-40,0,0,100,0,0,51,78,50,0,-24,-8,0,0,100,0,0,0,48,16,0,
0,7,-10,-55,0,0,100,0,4,19,24,24,0,-25,-37,0,0,100,0,107,29,26,26,0,-11,-38,0,0,100,0,36,19,28,29,0,-17,-21,0,0,100,0,111,1,36,26,0,5,-38,0,0,100,0,84,31,21,23,0,-55,-40,0,0,100,0,0,51,78,50,0,-24,-8,0,0,100,0,0,0,48,16,0,
0,7,-10,-56,0,0,100,0,4,19,24,24,0,-25,-38,0,0,100,0,107,29,26,26,0,-11,-39,0,0,100,0,36,19,28,29,0,-17,-21,0,0,100,0,149,1,36,26,0,5,-39,0,0,100,0,84,31,21,23,0,-55,-41,0,0,100,0,0,51,78,50,0,-24,-8,0,0,100,0,0,0,48,16,0,
0,8,1,-45,0,0,100,0,218,423,28,24,0,-15,-47,0,0,100,0,136,64,22,26,0,-12,-42,0,0,100,0,384,23,33,27,0,-15,-68,0,0,100,0,0,143,81,61,0,2,-37,0,0,100,0,389,50,22,16,0,-21,-48,0,0,100,0,346,24,36,41,0,-25,-21,0,0,100,0,342,64,47,28,0,-24,-8,0,0,100,0,0,0,48,16,0,
0,9,10,-67,0,0,100,0,253,410,45,38,0,-11,-43,0,0,100,0,384,23,33,27,0,-14,-69,0,1,50,0,0,143,81,61,0,-14,-69,0,0,100,0,0,143,81,61,0,-14,-48,0,0,100,0,136,64,22,26,0,3,-38,0,0,100,0,389,50,22,16,0,-20,-49,0,0,100,0,346,24,36,41,0,-25,-21,0,0,100,0,342,64,47,28,0,-24,-8,0,0,100,0,0,0,48,16,0,
0,9,3,-67,0,0,100,0,377,106,60,40,0,-10,-44,0,0,100,0,384,23,33,27,0,-13,-70,0,1,80,0,0,143,81,61,0,-13,-70,0,0,100,0,0,143,81,61,0,-13,-48,0,0,100,0,136,64,22,26,0,4,-39,0,0,100,0,389,50,22,16,0,-19,-49,0,0,100,0,346,24,36,41,0,-25,-21,0,0,100,0,342,64,47,28,0,-24,-8,0,0,100,0,0,0,48,16,0,
0,9,5,-67,0,0,100,0,441,101,67,45,0,-10,-44,0,0,100,0,384,23,33,27,0,-13,-70,0,1,100,0,0,143,81,61,0,-13,-70,0,0,100,0,0,143,81,61,0,-13,-48,0,0,100,0,136,64,22,26,0,4,-39,0,0,100,0,389,50,22,16,0,-19,-49,0,0,100,0,346,24,36,41,0,-25,-21,0,0,100,0,342,64,47,28,0,-24,-8,0,0,100,0,0,0,48,16,0,
0,8,-78,-66,0,0,100,0,256,120,126,93,0,-36,-27,0,0,100,0,217,32,29,22,0,-26,-45,0,0,100,0,86,64,23,25,0,-38,-45,0,0,100,0,0,299,47,45,0,-11,-30,0,0,100,0,278,8,16,15,0,-33,-18,0,0,100,0,0,348,52,24,0,-80,-32,0,0,100,0,0,98,90,52,0,-24,-8,0,0,100,0,0,0,48,16,0,
0,8,-86,-34,0,0,100,0,383,151,128,59,0,-37,-26,0,0,100,0,217,32,29,22,0,-27,-44,0,0,100,0,86,64,23,25,0,-39,-44,0,0,100,0,0,299,47,45,0,-12,-29,0,0,100,0,278,8,16,15,0,-33,-18,0,0,100,0,0,348,52,24,0,-81,-31,0,0,100,0,0,98,90,52,0,-24,-8,0,0,100,0,0,0,48,16,0,
0,8,-86,-34,0,0,30,0,383,151,128,59,0,-37,-26,0,0,100,0,217,32,29,22,0,-27,-44,0,0,100,0,86,64,23,25,0,-39,-44,0,0,100,0,0,299,47,45,0,-12,-29,0,0,100,0,278,8,16,15,0,-33,-18,0,0,100,0,0,348,52,24,0,-81,-31,0,0,100,0,0,98,90,52,0,-24,-8,0,0,100,0,0,0,48,16,0,
0,2,-33,-82,0,0,100,0,424,7,68,91,0,-24,-8,0,0,100,0,0,0,48,16,0,
0,4,-87,-80,0,0,100,0,245,217,131,123,0,-26,-25,0,0,100,0,57,205,48,33,0,-27,-56,0,0,100,0,2,201,43,86,0,-24,-8,0,0,100,0,0,0,48,16,0,
0,4,-88,-81,0,0,100,0,378,216,115,123,0,-26,-25,0,0,100,0,57,205,48,33,0,-27,-55,0,0,100,0,2,201,43,86,0,-24,-8,0,0,100,0,0,0,48,16,0,
0,4,-88,-81,0,0,30,0,378,216,115,123,0,-26,-25,0,0,100,0,57,205,48,33,0,-27,-55,0,0,100,0,2,201,43,86,0,-24,-8,0,0,100,0,0,0,48,16,0,
0,7,-11,-44,0,0,100,0,384,23,33,27,0,-14,-70,0,0,100,0,0,143,81,61,0,-13,-49,0,0,100,0,136,64,22,26,0,-20,-49,0,0,100,0,346,24,36,41,0,3,-39,0,0,100,0,389,50,22,16,0,-25,-21,0,0,100,0,342,64,47,28,0,-24,-8,0,0,100,0,0,0,48,16,0,
0,4,-30,-56,0,0,100,0,54,308,40,49,0,-72,-42,0,0,100,0,0,98,90,52,0,-24,-21,0,0,100,0,59,274,44,26,0,-24,-8,0,0,100,0,0,0,48,16,0,
0,3,-76,-48,0,0,100,0,325,344,110,43,0,-50,-62,0,0,100,0,256,52,79,66,0,-28,-8,0,0,100,0,0,0,48,16,0,
0,4,-18,-60,0,0,100,0,3,18,27,27,0,-90,-67,0,0,100,0,325,385,158,76,0,-36,-60,0,0,100,0,184,55,74,64,0,-28,-8,0,0,100,0,0,0,48,16,0,
0,9,-101,-64,0,0,100,0,306,467,134,34,0,-90,-67,0,0,30,0,325,385,160,78,0,-45,-34,0,0,100,0,250,27,28,21,0,-37,-49,0,0,100,0,86,64,23,25,0,-39,-49,0,0,100,0,10,299,38,46,0,-29,-41,0,0,100,0,194,34,23,20,0,-48,-67,0,0,100,0,0,143,81,61,0,-39,-21,0,0,100,0,59,240,48,27,0,-37,-8,0,0,100,0,0,0,48,16,0,
0,8,-97,-64,0,0,50,0,306,467,134,34,0,-46,-33,0,0,100,0,250,27,28,21,0,-38,-48,0,0,100,0,86,64,23,25,0,-40,-48,0,0,100,0,10,299,38,46,0,-25,-41,0,0,100,0,194,34,23,20,0,-44,-67,0,0,100,0,0,143,81,61,0,-39,-21,0,0,100,0,59,240,48,27,0,-37,-8,0,0,100,0,0,0,48,16,0,
0,7,-47,-33,0,0,100,0,250,27,28,21,0,-38,-48,0,0,100,0,86,64,23,25,0,-40,-48,0,0,100,0,10,299,38,46,0,-24,-41,0,0,100,0,194,34,23,20,0,-43,-67,0,0,100,0,0,143,81,61,0,-39,-21,0,0,100,0,59,240,48,27,0,-37,-8,0,0,100,0,0,0,48,16,0,
0,7,-15,-56,0,0,100,0,86,63,24,25,0,-2,-38,0,0,100,0,298,7,20,22,0,-18,-37,1,0,100,0,35,20,31,28,0,-23,-39,0,0,100,0,199,3,23,21,0,-37,-86,0,0,100,0,0,385,40,83,0,-18,-21,1,0,100,0,73,1,36,26,0,-24,-8,0,0,100,0,0,0,48,16,0,
0,7,-16,-55,0,0,100,0,86,63,24,25,0,-3,-37,0,0,100,0,298,7,20,22,0,-19,-36,1,0,100,0,35,20,31,28,0,-24,-38,0,0,100,0,199,3,23,21,0,-38,-85,0,0,100,0,0,385,40,83,0,-18,-21,1,0,100,0,111,1,36,26,0,-24,-8,0,0,100,0,0,0,48,16,0,
0,8,-13,-57,0,0,100,0,111,63,25,27,0,-2,-38,0,0,100,0,298,7,20,22,0,-18,-37,1,0,100,0,35,20,31,28,0,-22,-54,0,0,100,0,188,5,10,11,0,-36,-103,0,0,100,0,0,385,40,83,0,-23,-50,0,0,100,0,224,8,21,24,0,-18,-21,1,0,100,0,73,1,36,26,0,-24,-8,0,0,100,0,0,0,48,16,0,
0,10,-30,-162,0,0,100,0,169,145,29,177,0,-13,-57,0,0,100,0,111,63,25,27,0,-2,-38,0,0,100,0,298,7,20,22,0,-18,-37,1,0,100,0,35,20,31,28,0,-22,-54,0,0,100,0,188,5,10,11,0,-36,-103,0,1,100,0,0,385,40,83,0,-36,-103,0,0,100,0,0,385,40,83,0,-23,-50,0,0,100,0,224,8,21,24,0,-18,-21,1,0,100,0,73,1,36,26,0,-24,-8,0,0,100,0,0,0,48,16,0,
0,10,-27,-178,0,0,100,0,197,136,23,205,0,-13,-58,0,0,100,0,111,63,25,27,0,-2,-39,0,0,100,0,298,7,20,22,0,-18,-38,1,0,100,0,35,20,31,28,0,-22,-56,0,0,100,0,188,5,10,11,0,-36,-105,0,1,80,0,0,385,40,83,0,-36,-105,0,0,100,0,0,385,40,83,0,-23,-52,0,0,100,0,224,8,21,24,0,-18,-21,1,0,100,0,149,1,36,26,0,-24,-8,0,0,100,0,0,0,48,16,0,
0,10,-26,-183,0,0,100,0,227,130,22,216,0,-13,-58,0,0,100,0,111,63,25,27,0,-2,-39,0,0,100,0,298,7,20,22,0,-18,-38,1,0,100,0,35,20,31,28,0,-22,-56,0,0,100,0,188,5,10,11,0,-36,-105,0,1,40,0,0,385,40,83,0,-36,-105,0,0,100,0,0,385,40,83,0,-23,-52,0,0,100,0,224,8,21,24,0,-18,-21,1,0,100,0,149,1,36,26,0,-24,-8,0,0,100,0,0,0,48,16,0,
0,8,-13,-58,0,0,100,0,111,63,25,27,0,-2,-39,0,0,100,0,298,7,20,22,0,-18,-38,1,0,100,0,35,20,31,28,0,-22,-56,0,0,100,0,188,5,10,11,0,-36,-105,0,0,100,0,0,385,40,83,0,-23,-52,0,0,100,0,224,8,21,24,0,-18,-21,1,0,100,0,149,1,36,26,0,-24,-8,0,0,100,0,0,0,48,16,0,
0,7,-13,-36,0,0,100,0,386,33,26,16,0,-23,-68,0,0,100,0,0,143,81,61,0,-18,-52,0,0,100,0,86,63,23,25,0,-22,-42,0,0,100,0,347,33,35,31,0,-1,-37,0,0,100,0,390,65,20,21,0,-18,-21,1,0,100,0,111,1,36,26,0,-24,-8,0,0,100,0,0,0,48,16,0,
0,9,-63,-44,0,0,100,0,213,471,85,36,0,-15,-55,0,0,100,0,85,64,25,26,0,-3,-38,0,0,100,0,319,5,21,26,0,-18,-36,1,0,100,0,35,20,31,28,0,-33,-36,0,0,100,0,279,31,13,12,0,-27,-38,0,0,100,0,290,30,25,16,0,-74,-50,0,0,100,90,0,385,40,83,0,-18,-21,1,0,100,0,111,1,36,26,0,-24,-8,0,0,100,0,0,0,48,16,0,
0,9,-63,-44,0,0,30,0,213,471,85,36,0,-16,-56,0,0,100,0,85,64,25,26,0,-4,-39,0,0,100,0,319,5,21,26,0,-19,-37,1,0,100,0,35,20,31,28,0,-34,-38,0,0,100,0,279,31,13,12,0,-28,-40,0,0,100,0,290,30,25,16,0,-75,-52,0,0,100,90,0,385,40,83,0,-18,-21,1,0,100,0,73,1,36,26,0,-24,-8,0,0,100,0,0,0,48,16,0,
0,8,-16,-56,0,0,100,0,85,64,25,26,0,-4,-39,0,0,100,0,319,5,21,26,0,-19,-37,1,0,100,0,35,20,31,28,0,-34,-38,0,0,100,0,279,31,13,12,0,-28,-40,0,0,100,0,290,30,25,16,0,-75,-52,0,0,100,90,0,385,40,83,0,-18,-21,1,0,100,0,73,1,36,26,0,-24,-8,0,0,100,0,0,0,48,16,0,
0,8,-16,-56,0,0,100,0,85,64,25,26,0,-4,-39,0,0,100,0,319,5,21,26,0,-19,-37,1,0,100,0,35,20,31,28,0,-34,-38,0,0,100,0,279,31,13,12,0,-28,-40,0,0,100,0,290,30,25,16,0,-75,-52,0,0,100,90,0,385,40,83,0,-18,-21,1,0,100,0,73,1,36,26,0,-24,-8,0,0,100,0,0,0,48,16,0,
0,8,-16,-55,0,0,100,0,85,64,25,26,0,-4,-38,0,0,100,0,319,5,21,26,0,-19,-36,1,0,100,0,35,20,31,28,0,-34,-37,0,0,100,0,279,31,13,12,0,-28,-39,0,0,100,0,290,30,25,16,0,-75,-51,0,0,100,90,0,385,40,83,0,-18,-21,1,0,100,0,111,1,36,26,0,-24,-8,0,0,100,0,0,0,48,16,0,
0,8,-16,-56,0,0,100,0,85,64,25,26,0,-4,-39,0,0,100,0,319,5,21,26,0,-19,-37,1,0,100,0,35,20,31,28,0,-34,-37,0,0,100,0,279,31,13,12,0,-28,-39,0,0,100,0,290,30,25,16,0,-75,-51,0,0,100,90,0,385,40,83,0,-18,-21,1,0,100,0,73,1,36,26,0,-24,-8,0,0,100,0,0,0,48,16,0,
0,8,-16,-57,0,0,100,0,85,64,25,26,0,-4,-40,0,0,100,0,319,5,21,26,0,-19,-38,1,0,100,0,35,20,31,28,0,-34,-38,0,0,100,0,279,31,13,12,0,-28,-40,0,0,100,0,290,30,25,16,0,-75,-52,0,0,100,90,0,385,40,83,0,-18,-21,1,0,100,0,149,1,36,26,0,-24,-8,0,0,100,0,0,0,48,16,0,
0,7,-48,-35,0,0,100,0,249,26,29,22,0,-39,-48,0,0,100,0,161,65,22,24,0,-41,-49,0,0,100,0,10,299,38,46,0,-37,-21,0,0,100,0,59,274,44,26,0,-24,-36,0,0,100,0,254,5,18,21,0,-70,-47,0,0,100,90,0,388,44,80,0,-37,-8,0,0,100,0,0,0,48,16,0,
