0,2,-45,-81,0,0,100,0,16,112,96,96,0,-30,-19,0,0,65,0,272,64,64,32,0,
0,2,-45,-81,0,0,100,0,112,112,96,96,0,-30,-19,0,0,65,0,272,64,64,32,0,
0,2,-45,-81,0,0,100,0,208,112,96,96,0,-30,-19,0,0,65,0,272,64,64,32,0,
0,2,-45,-81,0,0,100,0,304,112,96,96,0,-30,-19,0,0,65,0,272,64,64,32,0,
0,2,-45,-81,0,0,100,0,112,208,96,96,0,-30,-19,0,0,65,0,272,64,64,32,0,
0,2,-45,-81,0,0,100,0,16,208,96,96,0,-30,-19,0,0,65,0,272,64,64,32,0,
0,3,2,-58,0,1,100,0,416,112,32,32,0,-45,-80,0,0,100,0,208,208,96,96,0,-30,-19,0,0,65,0,272,64,64,32,0,
0,3,2,-59,0,1,100,0,448,112,32,32,0,-45,-81,0,0,100,0,304,208,96,96,0,-30,-19,0,0,65,0,272,64,64,32,0,
0,3,2,-59,0,1,100,0,480,112,32,32,0,-45,-81,0,0,100,0,304,208,96,96,0,-30,-19,0,0,65,0,272,64,64,32,0,
0,3,2,-59,0,1,50,0,480,112,32,32,0,-45,-81,0,0,100,0,304,208,96,96,0,-30,-19,0,0,65,0,272,64,64,32,0,
0,3,2,-59,0,1,20,0,480,112,32,32,0,-45,-81,0,0,100,0,304,208,96,96,0,-30,-19,0,0,65,0,272,64,64,32,0,
0,2,-45,-81,0,0,100,0,304,208,96,96,0,-30,-19,0,0,65,0,272,64,64,32,0,
0,2,10,-79,0,0,100,0,208,304,96,96,0,25,-19,0,0,65,0,272,64,64,32,0,
0,5,-328,-73,0,0,100,0,16,304,96,96,0,-242,-77,0,1,30,0,416,240,72,80,0,-268,-77,0,1,30,0,416,240,72,80,0,-281,-43,0,1,100,0,416,144,240,48,0,-306,-19,0,0,65,0,272,64,64,32,0,
0,5,-363,-73,0,0,100,0,16,304,96,96,0,-308,-70,0,1,30,0,488,240,72,80,0,-273,-70,0,1,20,0,488,240,72,80,0,-316,-43,0,1,60,0,416,192,128,48,0,-341,-19,0,0,65,0,272,64,64,32,0,
0,5,-369,-73,0,0,100,0,16,304,96,96,0,-305,-62,0,1,15,0,560,240,72,80,0,-269,-62,0,1,10,0,560,240,72,80,0,-322,-43,0,1,20,0,416,192,128,48,0,-347,-19,0,0,65,0,272,64,64,32,0,
0,2,-365,-73,1,0,100,0,16,304,96,96,0,-355,-19,1,0,65,0,272,64,64,32,0,
0,2,-373,-78,1,0,100,0,304,304,96,96,0,-359,-19,1,0,65,0,272,64,64,32,0,
0,5,-70,-73,1,0,100,0,16,304,96,96,0,-129,-77,1,1,30,0,416,240,72,80,0,-103,-77,1,1,30,0,416,240,72,80,0,-246,-43,1,1,100,0,416,144,240,48,0,-60,-19,1,0,65,0,272,64,64,32,0,
0,5,-30,-73,1,0,100,0,16,304,96,96,0,-54,-70,1,1,30,0,488,240,72,80,0,-89,-70,1,1,20,0,488,240,72,80,0,-100,-43,1,1,60,0,416,192,128,48,0,-20,-19,1,0,65,0,272,64,64,32,0,
0,5,-13,-73,1,0,100,0,16,304,96,96,0,-40,-62,1,1,20,0,560,240,72,80,0,-76,-62,1,1,10,0,560,240,72,80,0,-83,-43,1,1,20,0,416,192,128,48,0,-3,-19,1,0,65,0,272,64,64,32,0,
0,2,-12,-73,0,0,100,0,16,304,96,96,0,12,-19,0,0,65,0,272,64,64,32,0,
0,2,-373,-78,1,0,100,0,208,304,96,96,0,-359,-19,1,0,65,0,272,64,64,32,0,
0,2,-45,-81,0,0,100,0,112,304,96,96,0,-30,-19,0,0,65,0,272,64,64,32,0,
0,2,10,-79,0,0,100,0,304,304,96,96,0,25,-19,0,0,65,0,272,64,64,32,0,
0,4,-374,-73,0,0,100,0,16,304,96,96,0,-295,-63,0,1,10,0,560,240,72,80,0,-335,-43,0,1,20,0,416,192,128,48,0,-352,-19,0,0,65,0,272,64,64,32,0,
0,2,-7,-73,1,0,100,0,16,304,96,96,0,3,-19,1,0,65,0,272,64,64,32,0,
0,2,-45,-73,0,0,100,0,16,304,96,96,0,-22,-19,0,0,65,0,272,64,64,32,0,
0,2,-16,-73,0,0,100,0,16,304,96,96,0,5,-19,0,0,65,0,272,64,64,32,0,
