0,6,-70,-23,0,0,100,0,466,52,20,20,0,-65,-36,0,0,100,0,282,2,88,31,0,-72,-42,0,0,100,0,290,345,72,46,0,-34,-67,0,0,100,0,2,2,70,68,0,4,-41,0,0,100,0,370,2,46,30,0,-24,-12,0,0,65,0,464,2,46,19,0,
0,6,-51,-38,0,0,100,0,282,34,45,36,0,-65,-35,0,0,100,0,282,2,88,31,0,-72,-41,0,0,100,0,362,345,72,46,0,-34,-67,0,0,100,0,72,2,70,68,0,4,-39,0,0,100,0,416,2,46,30,0,-24,-12,0,0,65,0,464,2,46,19,0,
0,6,-43,-40,0,0,100,0,328,34,42,36,0,-65,-34,0,0,100,0,282,2,88,31,0,-74,-39,0,0,100,0,434,345,72,46,0,-34,-67,0,0,100,0,142,2,70,68,0,4,-42,0,0,100,0,370,32,46,30,0,-24,-12,0,0,65,0,464,2,46,19,0,
0,5,-65,-35,0,0,100,0,282,2,88,31,0,-72,-41,0,0,100,0,362,345,72,46,0,-34,-67,0,0,100,0,212,2,70,68,0,4,-42,0,0,100,0,416,32,46,30,0,-24,-12,0,0,65,0,464,2,46,19,0,
0,2,-68,-70,0,0,100,0,403,437,106,72,0,-24,-9,0,0,65,0,464,2,46,19,0,
0,4,-68,-56,0,0,100,0,282,72,108,40,0,-32,-67,0,0,100,0,2,72,70,68,0,-10,-44,0,0,100,0,390,72,54,40,0,-20,-9,0,0,65,0,464,2,46,19,0,
0,4,-75,-48,0,0,100,0,159,449,77,43,0,-62,-56,0,0,100,0,282,112,108,40,0,-32,-67,0,0,100,0,72,72,70,68,0,-20,-9,0,0,65,0,464,2,46,19,0,
0,8,-91,-55,0,0,100,0,81,445,77,59,0,-90,-48,0,0,100,0,159,449,77,43,0,-32,-67,0,0,100,0,142,72,70,68,0,-10,-63,0,0,100,0,192,296,27,32,0,-89,-48,0,0,100,0,282,152,108,40,0,-10,-44,0,0,100,0,444,72,54,40,0,-94,-39,0,0,100,0,212,142,70,33,0,-20,-9,0,0,65,0,464,2,46,19,0,
0,7,-87,-60,2,0,100,0,2,366,59,74,0,-32,-67,0,0,100,0,142,72,70,68,0,-10,-63,0,0,100,0,192,296,27,32,0,-89,-48,0,0,100,0,282,152,108,40,0,-91,-40,0,0,100,0,212,176,70,33,0,-10,-44,0,0,100,0,444,72,54,40,0,-20,-9,0,0,65,0,464,2,46,19,0,
0,6,-35,-67,0,0,100,0,142,72,70,68,0,-13,-62,0,0,100,0,164,296,27,32,0,-93,-48,0,0,100,0,282,152,108,40,0,-17,-44,0,0,100,0,390,112,54,40,0,-95,-39,0,0,100,0,212,142,70,33,0,-23,-9,0,0,65,0,464,2,46,19,0,
0,9,-86,-33,0,0,100,0,92,427,27,16,0,-76,-24,2,0,100,0,64,427,27,16,0,-63,-42,0,0,100,0,64,427,27,16,0,-35,-67,0,0,100,0,142,72,70,68,0,-13,-62,0,0,100,0,164,296,27,32,0,-93,-48,0,0,100,0,282,152,108,40,0,-17,-44,0,0,100,0,390,112,54,40,0,-98,-40,0,0,100,0,212,176,70,33,0,-23,-9,0,0,65,0,464,2,46,19,0,
0,7,-95,-48,0,0,100,0,3,445,77,47,0,-35,-67,0,0,100,0,142,72,70,68,0,-13,-62,0,0,100,0,164,296,27,32,0,-93,-48,0,0,100,0,282,152,108,40,0,-17,-44,0,0,100,0,390,112,54,40,0,-97,-39,0,0,100,0,212,142,70,33,0,-23,-9,0,0,65,0,464,2,46,19,0,
0,8,-98,-51,2,0,100,0,81,445,77,59,0,-90,-48,0,0,100,0,159,449,77,43,0,-35,-67,0,0,100,0,142,72,70,68,0,-13,-63,0,0,100,0,192,296,27,32,0,-93,-48,0,0,100,0,282,152,108,40,0,-13,-44,0,0,100,0,444,72,54,40,0,-98,-40,0,0,100,0,212,176,70,33,0,-23,-9,0,0,65,0,464,2,46,19,0,
0,6,-38,-67,0,0,100,0,142,72,70,68,0,-16,-62,0,0,100,0,164,296,27,32,0,-96,-48,0,0,100,0,282,152,108,40,0,-17,-44,0,0,100,0,390,112,54,40,0,-100,-39,0,0,100,0,212,142,70,33,0,-26,-9,0,0,65,0,464,2,46,19,0,
0,9,-97,-32,2,0,100,0,92,427,27,16,0,-86,-24,2,0,100,0,64,427,27,16,0,-75,-42,0,0,100,0,64,427,27,16,0,-38,-67,0,0,100,0,142,72,70,68,0,-16,-62,0,0,100,0,164,296,27,32,0,-96,-48,0,0,100,0,282,152,108,40,0,-17,-44,0,0,100,0,390,112,54,40,0,-101,-40,0,0,100,0,212,176,70,33,0,-26,-9,0,0,65,0,464,2,46,19,0,
0,7,-105,-48,2,0,100,0,3,445,77,47,0,-38,-67,0,0,100,0,142,72,70,68,0,-16,-62,0,0,100,0,164,296,27,32,0,-96,-48,0,0,100,0,282,152,108,40,0,-17,-44,0,0,100,0,390,112,54,40,0,-101,-39,0,0,100,0,212,142,70,33,0,-26,-9,0,0,65,0,464,2,46,19,0,
0,7,-111,-52,0,0,100,0,81,445,77,59,0,-38,-67,0,0,100,0,142,72,70,68,0,-16,-63,0,0,100,0,192,296,27,32,0,-96,-48,0,0,100,0,282,152,108,40,0,-16,-44,0,0,100,0,444,72,54,40,0,-99,-40,0,0,100,0,212,176,70,33,0,-26,-9,0,0,65,0,464,2,46,19,0,
0,7,-105,-60,0,0,100,0,2,366,59,74,0,-38,-67,0,0,100,0,212,72,70,68,0,-94,-48,0,0,100,0,282,152,108,40,0,-15,-62,0,0,100,0,164,296,27,32,0,-17,-44,0,0,100,0,390,112,54,40,0,-98,-39,0,0,100,0,212,142,70,33,0,-26,-9,0,0,65,0,464,2,46,19,0,
0,11,-79,-15,0,0,100,0,200,333,20,15,0,-104,-27,2,0,100,0,64,427,27,16,0,-104,-35,0,0,100,0,64,427,27,16,0,-85,-15,2,0,100,0,52,333,45,32,0,-86,-64,0,0,100,0,52,333,45,32,0,-38,-67,0,0,100,0,212,72,70,68,0,-15,-62,0,0,100,0,164,296,27,32,0,-94,-48,0,0,100,0,282,152,108,40,0,-17,-44,0,0,100,0,444,112,54,40,0,-98,-40,0,0,100,0,212,176,70,33,0,-26,-9,0,0,65,0,464,2,46,19,0,
0,10,-54,-59,0,0,50,0,200,333,20,15,0,-54,3,0,0,50,0,200,349,22,16,0,-75,14,0,0,50,0,200,333,20,15,0,-71,-14,0,0,50,0,200,333,20,15,0,-73,-70,0,0,50,0,200,349,23,16,0,-38,-67,0,0,100,0,212,72,70,68,0,-15,-62,0,0,100,0,164,296,27,32,0,-94,-48,0,0,100,0,282,152,108,40,0,-17,-44,0,0,100,0,390,152,54,40,0,-26,-9,0,0,65,0,464,2,46,19,0,
0,10,-54,-59,0,0,100,0,200,333,20,15,0,-54,3,0,0,100,0,200,349,22,16,0,-75,14,0,0,100,0,200,333,20,15,0,-71,-14,0,0,100,0,200,333,20,15,0,-73,-70,0,0,100,0,200,349,23,16,0,-38,-67,0,0,100,0,212,72,70,68,0,-15,-62,0,0,100,0,164,296,27,32,0,-94,-48,0,0,100,0,282,152,108,40,0,-17,-44,0,0,100,0,390,152,54,40,0,-26,-9,0,0,65,0,464,2,46,19,0,
0,10,-56,-58,0,0,100,0,200,333,20,15,0,-54,3,0,0,100,0,200,349,22,16,0,-77,12,0,0,100,0,200,333,20,15,0,-88,-57,0,0,100,0,2,333,20,15,0,-83,-16,0,0,100,0,2,350,20,15,0,-38,-67,0,0,100,0,212,72,70,68,0,-16,-54,0,0,100,0,29,296,27,32,0,-94,-48,0,0,100,0,282,152,108,40,0,-17,-44,0,0,100,0,444,152,54,40,0,-26,-9,0,0,65,0,464,2,46,19,0,
0,11,-108,-42,0,0,100,0,200,349,22,16,0,-71,-48,0,0,100,0,2,333,20,15,0,-98,-20,2,0,100,0,2,350,20,15,0,-86,5,0,0,100,0,200,349,22,16,0,-66,-4,0,0,100,0,2,350,20,15,0,-88,-54,0,0,100,0,24,354,26,11,0,-38,-67,0,0,100,0,212,72,70,68,0,-15,-62,0,0,100,0,164,296,27,32,0,-94,-48,0,0,100,0,282,152,108,40,0,-17,-44,0,0,100,0,390,152,54,40,0,-26,-9,0,0,65,0,464,2,46,19,0,
0,11,-119,-41,0,0,100,0,98,333,33,32,0,-92,-41,0,0,100,0,200,349,22,16,0,-109,-26,0,0,100,0,200,333,20,15,0,-95,-2,2,0,100,0,2,350,20,15,0,-98,-16,2,0,100,0,24,354,26,11,0,-79,-45,0,0,100,0,24,354,26,11,0,-38,-67,0,0,100,0,212,72,70,68,0,-15,-62,0,0,100,0,164,296,27,32,0,-94,-48,0,0,100,0,282,152,108,40,0,-17,-44,0,0,100,0,444,152,54,40,0,-26,-9,0,0,65,0,464,2,46,19,0,
0,8,-120,-40,0,0,100,0,166,333,33,32,0,-116,-18,0,0,100,0,200,349,22,16,0,-108,-15,2,0,100,0,24,333,26,20,0,-38,-67,0,0,100,0,212,72,70,68,0,-15,-62,0,0,100,0,164,296,27,32,0,-94,-48,0,0,100,0,282,152,108,40,0,-17,-44,0,0,100,0,390,152,54,40,0,-26,-9,0,0,65,0,464,2,46,19,0,
0,9,-119,-37,3,0,100,0,166,333,33,32,0,-105,-30,0,0,100,0,200,349,22,16,0,-114,-43,0,0,100,0,166,333,33,32,0,-119,-35,0,0,100,0,200,333,20,15,0,-38,-67,0,0,100,0,212,72,70,68,0,-15,-62,0,0,100,0,164,296,27,32,0,-94,-48,0,0,100,0,282,152,108,40,0,-17,-44,0,0,100,0,390,152,54,40,0,-26,-9,0,0,65,0,464,2,46,19,0,
0,6,-119,-40,0,0,100,0,132,333,33,32,0,-38,-67,0,0,100,0,212,72,70,68,0,-15,-63,0,0,100,0,192,296,27,32,0,-94,-48,0,0,100,0,282,152,108,40,0,-17,-44,0,0,100,0,444,72,54,40,0,-26,-9,0,0,65,0,464,2,46,19,0,
0,6,-129,-58,0,0,100,0,64,366,53,59,0,-38,-67,0,0,100,0,212,72,70,68,0,-94,-48,0,0,100,0,282,152,108,40,0,-15,-63,0,0,100,0,192,296,27,32,0,-17,-44,0,0,100,0,390,112,54,40,0,-26,-9,0,0,65,0,464,2,46,19,0,
0,6,-129,-58,0,0,100,0,118,366,53,59,0,-38,-67,0,0,100,0,212,72,70,68,0,-15,-63,0,0,100,0,192,296,27,32,0,-94,-48,0,0,100,0,282,152,108,40,0,-17,-44,0,0,100,0,444,112,54,40,0,-26,-9,0,0,65,0,464,2,46,19,0,
0,7,-130,-49,0,0,20,-180,118,366,53,59,0,-141,-69,0,0,60,0,172,366,76,82,0,-38,-67,0,0,100,0,212,72,70,68,0,-15,-62,0,0,100,0,137,296,27,32,0,-94,-48,0,0,100,0,282,152,108,40,0,-17,-44,0,0,100,0,390,152,54,40,0,-26,-9,0,0,65,0,464,2,46,19,0,
0,5,-38,-67,0,0,100,0,212,72,70,68,0,-15,-63,0,0,100,0,164,296,27,32,0,-94,-48,0,0,100,0,282,152,108,40,0,-17,-44,0,0,100,0,390,152,54,40,0,-26,-9,0,0,65,0,464,2,46,19,0,
0,5,-54,-74,0,0,100,0,2,210,72,86,0,-34,-67,0,0,100,0,2,142,70,68,0,-1,-69,0,0,100,0,2,296,27,32,0,-10,-76,0,0,100,0,290,210,54,67,0,-24,-12,0,0,65,0,464,2,46,19,0,
0,5,-54,-74,0,0,100,0,74,210,72,86,0,-34,-67,0,0,100,0,72,142,70,68,0,-1,-68,0,0,100,0,29,296,27,32,0,-10,-76,0,0,100,0,344,210,54,67,0,-24,-12,0,0,65,0,464,2,46,19,0,
0,5,-54,-74,0,0,100,0,146,210,72,86,0,-34,-67,0,0,100,0,142,142,70,68,0,-2,-68,0,0,100,0,2,296,27,32,0,-10,-76,0,0,100,0,290,210,54,67,0,-24,-12,0,0,65,0,464,2,46,19,0,
0,7,-54,-74,0,0,100,0,218,210,72,86,0,-32,-32,0,0,100,0,250,297,28,36,0,-34,-67,0,0,100,0,142,142,70,68,0,-2,-81,0,0,100,0,56,296,27,32,0,-10,-76,0,0,100,0,344,277,54,67,0,-47,-27,0,0,100,0,404,395,60,41,0,-24,-12,0,0,65,0,464,2,46,19,0,
0,10,-18,-37,0,0,50,0,200,333,20,15,0,-19,-19,0,0,50,0,221,333,20,15,0,-39,-30,0,0,50,0,221,333,20,15,0,-54,-74,0,0,100,0,218,210,72,86,0,-32,-32,0,0,100,0,250,334,28,36,0,-34,-67,0,0,100,0,142,142,70,68,0,-1,-73,0,0,100,0,136,296,27,32,0,-10,-76,0,0,100,0,344,210,54,67,0,-67,-31,0,0,100,0,302,465,99,47,0,-24,-12,0,0,65,0,464,2,46,19,0,
0,8,-19,-10,0,0,100,0,221,333,20,15,0,-54,-74,0,0,100,0,218,210,72,86,0,-32,-32,0,0,100,0,250,371,28,36,0,-34,-67,0,0,100,0,142,142,70,68,0,-1,-68,0,0,100,0,2,296,27,32,0,-7,-53,0,0,100,0,390,72,54,40,0,-75,-48,0,0,25,0,284,393,117,71,0,-24,-12,0,0,65,0,464,2,46,19,0,
0,9,-25,-26,0,0,100,-90,91,426,30,17,0,-17,-15,0,0,50,0,221,333,20,15,0,-54,-74,0,0,100,0,218,210,72,86,0,-32,-32,0,0,100,0,250,297,28,36,0,-34,-67,0,0,100,0,142,142,70,68,0,-1,-66,0,0,100,0,29,296,27,32,0,-4,-52,0,0,100,0,444,72,54,40,0,-47,-27,0,0,100,0,404,395,60,41,0,-24,-12,0,0,65,0,464,2,46,19,0,
0,10,-15,-30,0,0,25,0,221,333,20,15,0,-39,-10,0,0,100,0,221,333,20,15,0,-25,-37,0,0,50,-90,91,426,30,17,0,-54,-74,0,0,100,0,218,210,72,86,0,-32,-32,0,0,100,0,250,334,28,36,0,-34,-67,0,0,100,0,142,142,70,68,0,-1,-74,0,0,100,0,192,296,27,32,0,-1,-50,0,0,100,0,390,112,54,40,0,-67,-31,0,0,100,0,302,465,99,47,0,-24,-12,0,0,65,0,464,2,46,19,0,
0,10,-24,-46,0,0,25,0,200,333,20,15,0,-40,-18,0,0,50,0,221,333,20,15,0,-25,-62,0,0,25,-90,91,426,30,17,0,-54,-74,0,0,100,0,218,210,72,86,0,-32,-32,0,0,100,0,250,297,28,36,0,-34,-67,0,0,100,0,142,142,70,68,0,0,-74,0,0,100,0,219,296,27,32,0,-1,-51,0,0,100,0,444,112,54,40,0,-75,-48,0,0,100,0,284,393,117,71,0,-24,-12,0,0,65,0,464,2,46,19,0,
