0,4,-44,-56,0,0,60,0,544,480,96,64,0,-44,-56,0,0,10,0,544,672,96,64,0,-60,-88,0,0,100,0,0,0,96,96,0,-48,-16,0,0,65,0,384,0,96,32,0,
0,4,-44,-56,0,0,60,0,544,544,96,64,0,-44,-56,0,0,10,0,544,480,96,64,0,-60,-88,0,0,100,0,96,0,96,96,0,-48,-16,0,0,65,0,384,0,96,32,0,
0,4,-44,-56,0,0,60,0,544,608,96,64,0,-44,-56,0,0,10,0,544,544,96,64,0,-60,-88,0,0,100,0,192,0,96,96,0,-48,-16,0,0,65,0,384,0,96,32,0,
0,4,-44,-56,0,0,60,0,544,672,96,64,0,-44,-56,0,0,10,0,544,608,96,64,0,-60,-88,0,0,100,0,288,0,96,96,0,-48,-16,0,0,65,0,384,0,96,32,0,
0,0,
0,2,-84,-88,0,0,100,0,480,0,128,96,0,-49,-16,0,0,65,0,384,0,96,32,0,
0,0,
0,2,-52,-88,0,0,100,0,0,96,96,96,0,-54,-16,0,0,65,0,384,0,96,32,0,
0,0,
0,3,-100,-64,0,0,100,0,0,480,160,96,0,-68,-88,0,0,100,0,96,96,96,96,0,-64,-16,0,0,50,0,384,0,96,32,0,
0,0,
0,5,-132,-176,0,0,100,0,224,480,160,256,0,-68,-160,0,0,100,0,192,96,96,96,0,-68,-112,0,0,20,0,192,192,96,96,0,-68,-136,0,0,100,0,192,192,96,96,0,-72,-16,0,0,46,0,384,0,96,32,0,
0,5,-58,-173,0,0,100,0,288,96,96,96,0,-132,-200,0,0,100,0,0,576,192,128,0,-58,-173,0,0,100,0,0,192,96,96,0,-68,-168,1,0,100,0,192,192,96,96,0,-64,-16,0,0,46,0,384,0,96,32,0,
0,3,-92,-136,0,0,100,0,384,480,160,96,0,-68,-174,0,0,100,0,384,96,96,128,0,-57,-16,0,0,46,0,384,0,96,32,0,
0,3,-132,-152,0,0,100,0,384,576,128,128,0,-68,-168,0,0,100,0,480,96,96,96,0,-53,-16,0,0,46,0,384,0,96,32,0,
0,2,-68,-168,0,0,100,0,480,96,96,96,0,-53,-16,0,0,46,0,384,0,96,32,0,
0,3,-68,-152,0,0,100,0,576,96,96,96,0,-68,-154,0,0,100,0,576,192,96,96,0,-53,-16,0,0,46,0,384,0,96,32,0,
0,4,-68,-120,0,0,100,0,576,96,96,96,0,-68,-152,0,0,20,0,576,192,96,96,0,-68,-136,0,0,100,0,576,192,96,96,0,-53,-16,0,0,46,0,384,0,96,32,0,
0,4,-68,-112,0,0,100,0,576,96,96,96,0,-68,-160,0,0,20,0,576,192,96,96,0,-68,-128,0,0,100,0,576,192,96,96,0,-53,-16,0,0,46,0,384,0,96,32,0,
0,4,-68,-88,0,0,100,0,576,96,96,96,0,-68,-136,0,0,20,0,576,192,96,96,0,-68,-104,0,0,100,0,576,192,96,96,0,-53,-16,0,0,50,0,384,0,96,32,0,
0,2,-68,-88,0,0,100,0,672,96,96,96,0,-51,-16,0,0,65,0,384,0,96,32,0,
0,0,
0,0,
0,0,
0,0,
0,3,-60,-56,0,0,20,0,544,480,96,64,0,-60,-88,0,0,100,0,96,288,96,96,0,-48,-16,0,0,65,0,384,0,96,32,0,
0,3,-60,-88,0,0,100,0,192,288,96,96,0,-54,-81,0,0,100,0,576,288,96,96,0,-46,-16,0,0,65,0,384,0,96,32,0,
0,3,-60,-88,0,0,100,0,288,288,96,96,0,-54,-82,0,0,100,0,576,288,96,96,0,-45,-16,0,0,65,0,384,0,96,32,0,
0,3,-60,-88,0,0,100,0,0,384,96,96,0,-54,-82,0,0,100,0,576,288,96,96,0,-45,-16,0,0,65,0,384,0,96,32,0,
0,3,-60,-88,0,0,100,0,96,384,96,96,0,-54,-82,0,0,100,0,576,288,96,96,0,-45,-16,0,0,65,0,384,0,96,32,0,
0,3,-60,-88,0,0,100,0,192,384,96,96,0,-54,-82,0,0,100,0,576,288,96,96,0,-45,-16,0,0,65,0,384,0,96,32,0,
0,3,-60,-88,0,0,100,0,288,384,96,96,0,-54,-82,0,0,100,0,576,288,96,96,0,-45,-16,0,0,65,0,384,0,96,32,0,
0,3,-52,-88,0,0,100,0,384,288,96,96,0,-52,-80,0,0,100,0,576,288,96,96,0,-45,-16,0,0,65,0,384,0,96,32,0,
0,3,-52,-88,0,0,100,0,480,288,96,96,0,-45,-87,0,0,100,0,672,288,96,96,0,-45,-16,0,0,65,0,384,0,96,32,0,
0,3,-52,-88,0,0,100,0,384,384,96,96,0,-44,-88,0,0,100,0,672,288,96,96,0,-45,-16,0,0,65,0,384,0,96,32,0,
0,3,-52,-88,0,0,100,0,480,384,96,96,0,-44,-88,0,0,100,0,672,288,96,96,0,-45,-16,0,0,65,0,384,0,96,32,0,
0,3,-52,-88,0,0,100,0,576,384,96,96,0,-44,-88,0,0,100,0,672,288,96,96,0,-45,-16,0,0,65,0,384,0,96,32,0,
0,3,-52,-88,0,0,100,0,672,384,96,96,0,-44,-88,0,0,100,0,672,288,96,96,0,-45,-16,0,0,65,0,384,0,96,32,0,
