0,2,-45,-73,0,0,100,0,0,0,72,72,0,-30,-37,0,0,100,0,25,413,65,46,0,
0,2,-45,-73,0,0,100,0,72,0,72,72,0,-30,-37,0,0,100,0,25,413,65,46,0,
0,2,-45,-73,0,0,100,0,144,0,72,72,0,-30,-37,0,0,100,0,25,413,65,46,0,
0,2,-45,-73,0,0,100,0,216,0,72,72,0,-30,-37,0,0,100,0,25,413,65,46,0,
0,2,-33,-41,0,0,100,0,4,104,72,40,0,-30,-37,0,0,100,0,25,413,65,46,0,
0,2,-27,-81,0,0,100,0,98,80,56,80,0,-30,-37,0,0,100,0,25,413,65,46,0,
0,2,-28,-81,0,0,100,0,161,80,56,80,0,-30,-37,0,0,100,0,25,413,65,46,0,
0,2,-25,-89,0,0,100,0,228,72,72,88,0,-30,-37,0,0,100,0,25,413,65,46,0,
0,4,-68,-2,0,0,100,0,17,359,28,9,0,-73,-89,0,0,100,0,12,256,108,100,0,-73,-49,0,0,100,0,12,200,100,56,0,-30,-37,0,0,100,0,25,413,65,46,0,
0,4,-76,-7,0,0,100,0,137,322,39,16,0,-85,-41,0,0,100,0,128,264,40,49,0,-73,-41,0,0,100,0,116,208,100,46,0,-30,-37,0,0,100,0,25,413,65,46,0,
0,2,-73,-41,0,0,100,0,220,208,100,46,0,-30,-37,0,0,100,0,25,413,65,46,0,
0,2,-37,-81,0,0,100,0,304,0,64,80,0,-30,-37,0,0,100,0,25,413,65,46,0,
0,2,-42,-81,0,0,100,0,371,0,69,80,0,-30,-37,0,0,100,0,25,413,65,46,0,
0,2,-42,-81,0,0,100,0,443,0,69,88,0,-30,-37,0,0,100,0,25,413,65,46,0,
0,2,-42,-65,0,0,100,0,139,352,69,68,0,-30,-37,0,0,100,0,25,413,65,46,0,
0,2,-42,-65,0,0,100,0,211,352,69,68,0,-30,-37,0,0,100,0,25,413,65,46,0,
0,2,-42,-65,0,0,100,0,283,352,69,68,0,-30,-37,0,0,100,0,25,413,65,46,0,
0,2,-42,-65,0,0,100,0,355,352,69,68,0,-30,-37,0,0,100,0,25,413,65,46,0,
0,2,-42,-65,0,0,100,0,139,424,69,68,0,-30,-37,0,0,100,0,25,413,65,46,0,
0,2,-42,-65,0,0,100,0,211,424,69,68,0,-30,-37,0,0,100,0,25,413,65,46,0,
0,2,-42,-65,0,0,100,0,283,424,69,68,0,-30,-37,0,0,100,0,25,413,65,46,0,
0,2,-42,-65,0,0,100,0,355,424,69,68,0,-30,-37,0,0,100,0,25,413,65,46,0,
