0,4,-62,-45,0,0,100,0,384,0,64,64,0,-51,-81,0,0,100,0,0,0,96,96,0,-78,-22,0,0,65,0,672,128,96,48,0,-48,-24,0,0,65,0,576,128,96,48,0,
0,4,-62,-45,0,0,100,0,448,0,64,64,0,-51,-81,0,0,100,0,96,0,96,96,0,-78,-22,0,0,65,0,672,128,96,48,0,-48,-24,0,0,65,0,576,128,96,48,0,
0,4,-62,-45,0,0,100,0,512,0,64,64,0,-51,-81,0,0,100,0,192,0,96,96,0,-78,-22,0,0,65,0,672,128,96,48,0,-48,-24,0,0,65,0,576,128,96,48,0,
0,4,-62,-45,0,0,100,0,576,0,64,64,0,-51,-81,0,0,100,0,288,0,96,96,0,-78,-22,0,0,65,0,672,128,96,48,0,-48,-24,0,0,65,0,576,128,96,48,0,
0,4,-51,-34,0,0,100,0,576,224,48,48,0,-52,-80,0,0,100,0,0,384,96,96,0,-75,-22,0,0,65,0,672,128,96,48,0,-48,-24,0,0,65,0,576,128,96,48,0,
0,4,-51,-34,0,0,100,0,624,224,48,48,0,-52,-80,0,0,100,0,96,384,96,96,0,-75,-22,0,0,65,0,672,128,96,48,0,-48,-24,0,0,65,0,576,128,96,48,0,
0,4,-51,-39,0,0,100,0,672,224,48,48,0,-53,-84,0,0,100,0,192,384,96,96,0,-79,-22,0,0,46,0,672,128,96,48,0,-52,-24,0,0,46,0,576,128,96,48,0,
0,4,-74,-60,0,0,100,0,768,272,64,64,0,-55,-92,0,0,100,0,288,384,96,96,0,-92,-22,0,0,46,0,672,128,96,48,0,-54,-24,0,0,46,0,576,128,96,48,0,
0,4,-76,-61,0,0,100,0,768,272,64,64,0,-56,-94,0,0,100,0,384,384,96,96,0,-94,-22,0,0,46,0,672,128,96,48,0,-55,-24,0,0,46,0,576,128,96,48,0,
0,4,-78,-60,0,0,100,0,768,272,64,64,0,-57,-92,0,0,100,0,480,384,96,96,0,-96,-22,0,0,46,0,672,128,96,48,0,-56,-24,0,0,46,0,576,128,96,48,0,
0,4,-73,-38,0,0,100,0,720,224,48,48,0,-58,-80,0,0,100,0,0,480,96,96,0,-102,-22,0,0,65,0,672,128,96,48,0,-58,-24,0,0,65,0,576,128,96,48,0,
0,4,-76,-37,0,0,100,0,768,224,48,48,0,-58,-80,0,0,100,0,96,480,96,96,0,-103,-22,0,0,65,0,672,128,96,48,0,-58,-24,0,0,65,0,576,128,96,48,0,
0,4,-75,-37,0,0,100,0,816,224,48,48,0,-58,-80,0,0,100,0,192,480,96,96,0,-103,-22,0,0,65,0,672,128,96,48,0,-58,-24,0,0,65,0,576,128,96,48,0,
0,4,-81,-38,0,0,100,0,576,272,48,48,0,-56,-80,0,0,100,0,288,480,96,96,0,-106,-22,0,0,65,0,672,128,96,48,0,-57,-24,0,0,65,0,576,128,96,48,0,
0,4,-84,-38,1,0,100,0,672,224,48,48,0,-55,-83,0,0,100,0,384,480,96,96,0,-102,-22,0,0,46,0,672,128,96,48,0,-51,-24,0,0,46,0,576,128,96,48,0,
0,4,-76,-59,1,0,100,0,768,272,64,64,0,-50,-89,0,0,100,0,480,480,96,96,0,-89,-22,0,0,46,0,672,128,96,48,0,-47,-24,0,0,46,0,576,128,96,48,0,
0,4,-74,-60,1,0,100,0,768,272,64,64,0,-47,-91,0,0,100,0,0,576,96,96,0,-87,-22,0,0,46,0,672,128,96,48,0,-44,-24,0,0,46,0,576,128,96,48,0,
0,4,-72,-61,1,0,100,0,768,272,64,64,0,-46,-92,0,0,100,0,0,576,96,96,0,-85,-22,0,0,46,0,672,128,96,48,0,-43,-24,0,0,46,0,576,128,96,48,0,
0,4,-70,-58,1,0,100,0,768,272,64,64,0,-43,-87,0,0,100,0,96,576,96,96,0,-83,-22,0,0,46,0,672,128,96,48,0,-40,-24,0,0,46,0,576,128,96,48,0,
0,4,-51,-38,1,0,100,0,720,224,48,48,0,-41,-80,0,0,100,0,192,576,96,96,0,-72,-22,0,0,65,0,672,128,96,48,0,-37,-24,0,0,65,0,576,128,96,48,0,
0,4,-48,-37,1,0,100,0,768,224,48,48,0,-41,-80,0,0,100,0,288,576,96,96,0,-71,-22,0,0,65,0,672,128,96,48,0,-37,-24,0,0,65,0,576,128,96,48,0,
0,4,-47,-37,1,0,100,0,816,224,48,48,0,-41,-80,0,0,100,0,384,576,96,96,0,-70,-22,0,0,65,0,672,128,96,48,0,-37,-24,0,0,65,0,576,128,96,48,0,
0,4,-44,-38,0,0,100,0,832,272,48,48,0,-32,-80,0,0,100,0,480,576,96,96,0,-67,-22,0,0,65,0,672,128,96,48,0,-35,-24,0,0,65,0,576,128,96,48,0,
0,4,-46,-36,0,0,100,0,880,272,48,48,0,-32,-80,0,0,100,0,0,672,96,96,0,-68,-22,0,0,65,0,672,128,96,48,0,-35,-24,0,0,65,0,576,128,96,48,0,
0,4,-47,-32,0,0,100,0,832,320,48,48,0,-32,-80,0,0,100,0,96,672,96,96,0,-69,-22,0,0,65,0,672,128,96,48,0,-35,-24,0,0,65,0,576,128,96,48,0,
0,5,-56,-48,0,0,100,0,832,144,64,64,0,-31,-80,0,0,100,0,192,672,96,96,0,-54,-103,0,1,100,0,192,768,128,128,0,-69,-22,0,0,65,0,672,128,96,48,0,-38,-24,0,0,65,0,576,128,96,48,0,
0,5,-56,-48,0,0,100,0,768,80,64,64,0,-31,-80,0,0,100,0,288,672,96,96,0,-54,-103,0,1,100,0,320,768,128,128,0,-69,-22,0,0,65,0,672,128,96,48,0,-38,-24,0,0,65,0,576,128,96,48,0,
0,5,-56,-48,0,0,100,0,768,80,64,64,0,-31,-80,0,0,100,0,384,672,96,96,0,-54,-103,0,1,100,0,448,768,128,128,0,-69,-22,0,0,65,0,672,128,96,48,0,-38,-24,0,0,65,0,576,128,96,48,0,
0,5,-56,-48,0,0,100,0,768,80,64,64,0,-31,-80,0,0,100,0,384,672,96,96,0,-54,-103,0,1,50,0,448,768,128,128,0,-69,-22,0,0,65,0,672,128,96,48,0,-38,-24,0,0,65,0,576,128,96,48,0,
0,4,-56,-48,0,0,100,0,832,80,64,64,0,-31,-80,0,0,100,0,384,672,96,96,0,-69,-22,0,0,65,0,672,128,96,48,0,-38,-24,0,0,65,0,576,128,96,48,0,
0,4,-56,-48,0,0,100,0,768,144,64,64,0,-31,-80,0,0,100,0,480,672,96,96,0,-69,-22,0,0,65,0,672,128,96,48,0,-38,-24,0,0,65,0,576,128,96,48,0,
0,4,-56,-48,0,0,100,0,832,144,64,64,0,-31,-80,0,0,100,0,576,672,96,96,0,-69,-22,0,0,65,0,672,128,96,48,0,-38,-24,0,0,65,0,576,128,96,48,0,
0,4,-56,-48,0,0,100,0,768,80,64,64,0,-31,-80,0,0,100,0,672,672,96,96,0,-69,-22,0,0,65,0,672,128,96,48,0,-38,-24,0,0,65,0,576,128,96,48,0,
0,4,16,-105,0,0,100,0,576,992,48,48,0,1,-109,0,1,100,0,576,368,80,80,0,-51,-82,0,0,100,0,0,96,96,96,0,-45,-24,0,0,46,0,576,128,96,48,0,
0,4,20,-101,0,0,100,0,576,992,48,48,0,5,-105,0,1,100,0,576,368,80,80,0,-50,-83,0,0,100,0,0,96,96,96,0,-44,-24,0,0,46,0,576,128,96,48,0,
0,9,28,-66,1,0,100,0,576,992,48,48,0,13,-70,1,1,100,0,576,368,80,80,0,34,-72,0,1,100,0,656,368,56,56,0,42,-76,0,1,100,0,608,912,32,32,0,46,-69,0,1,100,0,608,912,32,32,0,51,-63,0,1,100,0,608,880,32,32,0,50,-55,0,1,100,0,608,880,32,32,0,-51,-84,0,0,100,0,96,96,96,96,0,-43,-24,0,0,46,0,576,128,96,48,0,
0,14,-18,-48,0,0,100,0,624,992,48,48,0,-27,-56,0,1,100,0,576,528,80,80,0,33,-69,0,1,100,0,712,368,56,56,0,48,-39,0,1,100,0,576,912,16,16,0,7,-24,0,1,100,0,576,880,32,32,0,16,-32,0,1,100,0,608,912,32,32,0,23,-26,0,1,100,0,640,912,32,32,0,37,-35,0,1,100,0,640,880,32,32,0,43,-75,0,1,75,0,608,912,32,32,0,47,-67,0,1,75,0,608,912,32,32,0,52,-59,0,1,75,0,608,880,32,32,0,48,-48,0,1,75,0,608,880,32,32,0,-44,-87,0,0,100,0,192,96,96,96,0,-40,-24,0,0,46,0,576,128,96,48,0,
0,22,-57,-59,0,0,100,0,672,992,48,48,0,-73,-68,0,1,100,0,576,448,80,80,0,-57,-43,0,1,100,0,656,368,56,56,0,-27,-40,0,1,100,0,656,368,56,56,0,30,-66,0,1,100,0,768,368,56,56,0,-42,-19,0,1,100,0,608,912,32,32,0,-50,-26,0,1,100,0,608,880,32,32,0,-32,-28,0,1,100,0,576,880,32,32,0,-8,-16,0,1,100,0,640,912,32,32,0,-22,-16,0,1,100,0,640,880,32,32,0,-36,-23,0,1,100,0,608,880,32,32,0,47,-37,0,1,75,0,576,912,16,16,0,5,-23,0,1,75,0,576,880,32,32,0,15,-31,0,1,75,0,608,912,32,32,0,21,-25,0,1,75,0,640,912,32,32,0,35,-32,0,1,75,0,640,880,32,32,0,43,-74,0,1,35,0,608,912,32,32,0,47,-66,0,1,35,0,608,912,32,32,0,52,-58,0,1,35,0,608,880,32,32,0,48,-47,0,1,35,0,608,880,32,32,0,-36,-88,0,0,100,0,288,96,96,96,0,-39,-24,0,0,46,0,576,128,96,48,0,
0,24,-63,-69,0,1,100,0,656,368,56,56,0,-60,-48,0,1,100,0,656,368,56,56,0,-34,-41,0,1,100,0,712,368,56,56,0,29,-65,0,1,100,0,824,368,56,56,0,-58,-52,0,1,100,0,608,912,32,32,0,-40,-56,0,1,100,0,640,912,32,32,0,-53,-60,0,1,100,0,608,880,32,32,0,-46,-50,0,1,100,0,608,880,32,32,0,-55,-42,0,1,100,0,640,880,32,32,0,-43,-21,0,1,75,0,608,912,32,32,0,-51,-29,0,1,75,0,608,880,32,32,0,-34,-28,0,1,75,0,576,880,32,32,0,-10,-16,0,1,75,0,640,912,32,32,0,-23,-16,0,1,75,0,640,880,32,32,0,-36,-23,0,1,75,0,608,880,32,32,0,46,-36,0,1,35,0,576,912,16,16,0,4,-22,0,1,35,0,576,880,32,32,0,14,-30,0,1,35,0,608,912,32,32,0,20,-24,0,1,35,0,640,912,32,32,0,34,-31,0,1,35,0,640,880,32,32,0,-35,-88,0,0,100,0,384,96,96,96,0,-51,-89,1,0,100,0,672,992,48,48,0,-67,-98,1,1,100,0,576,448,80,80,0,-38,-24,0,0,46,0,576,128,96,48,0,
0,22,-38,-41,0,1,100,0,768,368,56,56,0,28,-64,0,1,100,0,768,368,56,56,0,-61,-72,0,1,100,0,712,368,56,56,0,-44,-22,0,1,35,0,608,912,32,32,0,-57,-53,0,1,75,0,608,912,32,32,0,-39,-57,0,1,75,0,640,912,32,32,0,-52,-61,0,1,75,0,608,880,32,32,0,-45,-51,0,1,75,0,608,880,32,32,0,-54,-43,0,1,75,0,640,880,32,32,0,-52,-30,0,1,35,0,608,880,32,32,0,-35,-29,0,1,35,0,576,880,32,32,0,-11,-17,0,1,35,0,640,912,32,32,0,-24,-17,0,1,35,0,640,880,32,32,0,-37,-24,0,1,35,0,608,880,32,32,0,-35,-90,0,0,100,0,480,96,96,96,0,-8,-100,1,0,100,0,624,992,48,48,0,-31,-108,1,1,100,0,576,528,80,80,0,-35,-67,0,1,100,0,608,880,32,32,0,-40,-71,0,1,100,0,640,912,32,32,0,-25,-74,0,1,100,0,608,880,32,32,0,-13,-75,0,1,100,0,640,880,32,32,0,-37,-24,0,0,46,0,576,128,96,48,0,
0,21,-40,-41,0,1,100,0,824,368,56,56,0,27,-63,0,1,100,0,824,368,56,56,0,-56,-54,0,1,35,0,608,912,32,32,0,-38,-58,0,1,35,0,640,912,32,32,0,-51,-62,0,1,35,0,608,880,32,32,0,-44,-52,0,1,35,0,608,880,32,32,0,-53,-44,0,1,35,0,640,880,32,32,0,-42,-92,0,0,100,0,0,192,96,96,0,15,-100,0,0,100,0,576,992,48,48,0,0,-104,0,1,100,0,576,368,80,80,0,-62,-72,0,1,100,0,824,368,56,56,0,-7,-93,0,1,100,0,656,368,56,56,0,-19,-80,0,1,100,0,640,912,32,32,0,-11,-80,0,1,100,0,640,880,32,32,0,0,-85,0,1,100,0,576,880,32,32,0,9,-75,0,1,100,0,608,880,32,32,0,-33,-67,0,1,75,0,608,880,32,32,0,-38,-71,0,1,75,0,640,912,32,32,0,-23,-74,0,1,75,0,608,880,32,32,0,-11,-75,0,1,75,0,640,880,32,32,0,-36,-24,0,0,46,0,576,128,96,48,0,
0,19,-41,-41,0,1,100,0,768,368,56,56,0,26,-62,0,1,100,0,768,368,56,56,0,27,-93,1,0,100,0,720,992,48,48,0,8,-99,0,1,100,0,576,368,80,80,0,-43,-93,0,0,100,0,96,192,96,96,0,14,-83,0,1,100,0,640,912,32,32,0,16,-72,0,1,100,0,608,912,32,32,0,21,-80,0,1,100,0,608,880,32,32,0,-18,-80,0,1,75,0,640,912,32,32,0,-10,-80,0,1,75,0,640,880,32,32,0,1,-85,0,1,75,0,576,880,32,32,0,10,-75,0,1,75,0,608,880,32,32,0,-32,-67,0,1,35,0,608,880,32,32,0,-37,-71,0,1,35,0,640,912,32,32,0,-22,-74,0,1,35,0,608,880,32,32,0,-10,-75,0,1,35,0,640,880,32,32,0,-5,-93,0,1,100,0,712,368,56,56,0,-61,-73,0,1,100,0,768,368,56,56,0,-35,-24,0,0,46,0,576,128,96,48,0,
0,11,-42,-41,0,1,100,0,824,368,56,56,0,25,-61,0,1,100,0,824,368,56,56,0,29,-90,1,0,100,0,720,992,48,48,0,10,-97,0,1,100,0,576,368,80,80,0,-44,-94,0,0,100,0,192,192,96,96,0,-60,-74,0,1,100,0,824,368,56,56,0,-2,-93,0,1,100,0,824,368,56,56,0,15,-82,0,1,75,0,640,912,32,32,0,17,-71,0,1,75,0,608,912,32,32,0,22,-79,0,1,75,0,608,880,32,32,0,-34,-24,0,0,46,0,576,128,96,48,0,
0,11,-43,-41,0,1,100,0,768,368,56,56,0,24,-60,0,1,100,0,768,368,56,56,0,30,-91,1,0,100,0,720,992,48,48,0,11,-98,0,1,100,0,576,368,80,80,0,-44,-94,0,0,100,0,288,192,96,96,0,-59,-75,0,1,100,0,768,368,56,56,0,-1,-93,0,1,100,0,768,368,56,56,0,15,-82,0,1,35,0,640,912,32,32,0,17,-71,0,1,35,0,608,912,32,32,0,22,-79,0,1,35,0,608,880,32,32,0,-34,-24,0,0,46,0,576,128,96,48,0,
0,8,-43,-49,0,1,100,0,768,368,56,56,0,24,-68,0,1,100,0,768,368,56,56,0,27,-99,1,0,100,0,768,992,48,48,0,11,-103,0,1,100,0,576,368,80,80,0,-42,-94,0,0,100,0,384,192,96,96,0,-59,-85,0,1,100,0,768,368,56,56,0,-1,-101,0,1,100,0,768,368,56,56,0,-32,-24,0,0,46,0,576,128,96,48,0,
0,13,-43,-113,0,1,100,0,768,368,56,56,0,24,-132,0,1,100,0,768,368,56,56,0,-59,-149,0,1,100,0,768,368,56,56,0,-1,-165,0,1,100,0,768,368,56,56,0,-31,-93,0,1,100,0,688,424,32,144,0,37,-112,0,1,100,0,656,424,32,144,0,31,-165,1,0,100,0,768,992,48,48,0,15,-169,0,1,100,0,576,368,80,80,0,-41,-95,0,0,100,0,480,192,96,96,0,42,-135,0,1,100,0,720,424,32,144,0,12,-144,0,1,100,0,656,424,32,144,0,-46,-129,0,1,100,0,656,424,32,144,0,-31,-24,0,0,46,0,576,128,96,48,0,
0,21,-43,-193,0,1,35,0,768,368,56,56,0,24,-212,0,1,35,0,768,368,56,56,0,-59,-229,0,1,35,0,768,368,56,56,0,-1,-245,0,1,35,0,768,368,56,56,0,31,-244,1,0,35,0,768,992,48,48,0,15,-248,0,1,35,0,576,368,80,80,0,-31,-173,0,1,100,0,752,424,32,144,0,37,-192,0,1,100,0,688,424,32,144,0,42,-215,0,1,100,0,720,424,32,144,0,12,-224,0,1,100,0,688,424,32,144,0,-46,-209,0,1,100,0,688,424,32,144,0,-55,-113,0,1,50,0,688,424,32,144,0,-31,-101,0,1,50,0,752,424,32,144,0,7,-103,0,1,50,0,752,424,32,144,0,37,-120,0,1,50,0,688,424,32,144,0,42,-143,0,1,50,0,752,424,32,144,0,12,-152,0,1,50,0,688,424,32,144,0,-20,-148,0,1,50,0,752,424,32,144,0,-46,-137,0,1,50,0,688,424,32,144,0,-40,-96,0,0,100,0,0,288,96,96,0,-31,-24,0,0,46,0,576,128,96,48,0,
0,2,-40,-96,0,0,100,0,0,288,96,96,0,-31,-24,0,0,46,0,576,128,96,48,0,
0,4,-28,-202,0,1,65,0,784,424,72,72,0,-5,-257,0,1,65,0,856,424,72,96,0,-36,-97,0,0,100,0,96,288,96,96,0,-30,-24,0,0,46,0,576,128,96,48,0,
0,6,0,-320,0,1,45,0,856,424,72,96,0,-24,-264,0,1,45,0,784,424,72,72,0,-75,-117,0,1,100,0,784,424,72,72,0,-52,-172,0,1,100,0,856,424,72,96,0,-31,-105,0,0,100,0,192,288,96,96,0,-22,-24,0,0,46,0,576,128,96,48,0,
0,6,-84,-165,0,1,100,0,784,424,72,72,0,-60,-221,0,1,100,0,856,424,72,96,0,-147,-74,0,1,100,0,576,768,112,112,0,-92,-104,0,1,100,0,856,520,72,96,0,-29,-106,0,0,100,0,288,288,96,96,0,-21,-24,0,0,46,0,576,128,96,48,0,
0,7,-26,-303,0,1,35,0,856,424,72,96,0,-50,-239,0,1,35,0,784,496,72,72,0,-117,-107,0,1,100,0,784,424,72,72,0,-93,-163,0,1,100,0,856,424,72,96,0,-147,-83,0,1,100,0,688,768,128,112,0,-28,-107,0,0,100,0,192,288,96,96,0,-20,-24,0,0,46,0,576,128,96,48,0,
0,9,32,-293,0,1,35,0,856,424,72,96,0,8,-232,0,1,35,0,784,424,72,72,0,-75,-237,0,1,100,0,856,424,72,96,0,-99,-173,0,1,100,0,784,496,72,72,0,-123,-116,0,1,100,0,856,520,72,96,0,-178,-84,0,1,100,0,576,768,112,112,0,-147,-83,0,1,100,0,816,768,128,112,0,-28,-107,0,0,100,0,288,288,96,96,0,-20,-24,0,0,46,0,576,128,96,48,0,
0,10,-4,-262,0,0,45,0,720,992,48,48,0,-16,-264,0,1,45,0,856,616,72,72,0,11,-321,0,1,45,0,856,424,72,96,0,-14,-205,0,1,100,0,856,424,72,96,0,-38,-144,0,1,100,0,784,424,72,72,0,-137,-142,0,1,100,0,856,424,72,96,0,-161,-78,0,1,100,0,784,496,72,72,0,-178,-89,0,1,100,0,688,768,128,112,0,-28,-107,0,0,100,0,192,288,96,96,0,-20,-24,0,0,46,0,576,128,96,48,0,
0,10,-32,-210,0,0,100,0,720,992,48,48,0,-44,-212,0,1,100,0,856,616,72,72,0,-17,-269,0,1,100,0,856,424,72,96,0,-46,-149,0,1,100,0,856,424,72,96,0,-70,-88,0,1,100,0,784,424,72,72,0,-209,-56,0,1,100,0,576,768,112,112,0,-140,-82,0,1,100,0,856,520,72,96,0,-178,-89,0,1,100,0,816,768,128,112,0,-28,-107,0,0,100,0,288,288,96,96,0,-20,-24,0,0,46,0,576,128,96,48,0,
0,8,-89,-113,0,0,100,0,720,992,48,48,0,-101,-115,0,1,100,0,856,616,72,72,0,-74,-172,0,1,100,0,856,424,72,96,0,-128,-61,0,1,100,0,576,768,112,112,0,-78,-87,0,1,100,0,856,520,72,96,0,-212,-63,0,1,100,0,688,768,128,112,0,-28,-107,0,0,100,0,192,288,96,96,0,-20,-24,0,0,46,0,576,128,96,48,0,
0,9,-122,-41,0,0,100,0,720,992,48,48,0,-164,-71,0,1,100,0,576,768,112,112,0,-142,-78,0,1,100,0,576,768,112,112,0,-177,-77,0,1,100,0,576,768,112,112,0,-107,-105,0,1,100,0,856,520,72,96,0,-128,-68,0,1,100,0,688,768,128,112,0,-212,-63,0,1,100,0,816,768,128,112,0,-28,-107,0,0,100,0,288,288,96,96,0,-20,-24,0,0,46,0,576,128,96,48,0,
0,7,-106,-72,1,0,100,0,768,1040,64,64,0,-164,-80,0,1,100,0,688,768,128,112,0,-139,-88,0,1,100,0,688,768,128,112,0,-183,-86,0,1,100,0,688,768,128,112,0,-128,-68,0,1,100,0,816,768,128,112,0,-28,-107,0,0,100,0,192,288,96,96,0,-20,-24,0,0,46,0,576,128,96,48,0,
0,6,-100,-77,1,0,100,0,768,1040,64,64,0,-164,-80,0,1,100,0,816,768,128,112,0,-139,-88,0,1,100,0,816,768,128,112,0,-183,-86,0,1,100,0,816,768,128,112,0,-28,-107,0,0,100,0,288,288,96,96,0,-20,-24,0,0,46,0,576,128,96,48,0,
0,6,-91,-80,1,0,100,0,768,1040,64,64,0,-164,-80,0,1,25,0,816,768,128,112,0,-139,-88,0,1,25,0,816,768,128,112,0,-183,-86,0,1,25,0,816,768,128,112,0,-28,-107,0,0,100,0,192,288,96,96,0,-20,-24,0,0,46,0,576,128,96,48,0,
0,3,-91,-82,1,0,100,0,768,272,64,64,0,-28,-107,0,0,100,0,288,288,96,96,0,-20,-24,0,0,46,0,576,128,96,48,0,
0,4,-75,-66,1,0,100,0,768,272,64,64,0,-26,-93,0,0,100,0,480,288,96,96,0,-87,-22,0,0,25,0,672,128,96,48,0,-29,-24,0,0,46,0,576,128,96,48,0,
0,8,-44,-79,0,0,100,0,480,288,96,96,0,0,-101,0,0,100,0,624,992,48,48,0,-8,-109,0,1,100,0,576,528,80,80,0,24,-80,0,1,100,0,736,64,32,32,0,51,-82,0,1,100,0,736,0,32,32,0,44,-79,0,1,100,0,736,0,32,32,0,35,-84,0,1,100,0,704,0,32,32,0,-48,-24,0,0,46,0,576,128,96,48,0,
0,5,-60,-37,1,0,100,0,720,224,48,48,0,1,-44,2,0,100,0,576,608,32,32,0,-45,-80,0,0,100,0,96,480,96,96,0,-80,-22,0,0,46,0,672,128,96,48,0,-47,-24,0,0,65,0,576,128,96,48,0,
0,5,-57,-37,1,0,100,0,768,224,48,48,0,1,-46,2,0,100,0,576,608,32,32,0,-45,-80,0,0,100,0,0,480,96,96,0,-79,-22,0,0,65,0,672,128,96,48,0,-47,-24,0,0,65,0,576,128,96,48,0,
