0,11,-16,-39,0,0,100,0,172,135,24,16,0,-59,-49,0,0,100,0,401,206,107,47,0,-44,-56,0,0,50,0,1,454,103,67,0,-20,-46,0,0,100,0,1,187,29,13,0,-23,-42,0,0,100,0,1,135,40,18,0,-2,-27,0,0,80,0,203,142,15,11,0,-14,-31,0,0,100,0,161,187,49,30,0,-14,-31,0,0,100,0,161,155,49,30,0,-14,-31,0,0,100,0,161,219,49,30,0,-9,-59,0,0,100,0,1,155,38,30,0,-20,-8,0,0,65,0,0,0,42,20,0,
0,11,-16,-38,0,0,100,0,172,135,24,16,0,-59,-48,0,0,100,0,401,206,107,47,0,-44,-56,0,0,50,0,106,454,103,67,0,-20,-45,0,0,100,0,32,187,29,13,0,-23,-41,0,0,100,0,43,135,40,18,0,-2,-26,0,0,80,0,220,142,15,11,0,-14,-30,0,0,100,0,212,187,49,30,0,-14,-30,0,0,100,0,212,155,49,30,0,-14,-30,0,0,100,0,212,219,49,30,0,-9,-58,0,0,100,0,41,155,38,30,0,-20,-8,0,0,65,0,0,0,42,20,0,
0,11,-16,-38,0,0,100,0,172,135,24,16,0,-59,-48,0,0,100,0,401,206,107,47,0,-44,-56,0,0,50,0,211,454,103,67,0,-20,-46,0,0,100,0,63,187,29,13,0,-23,-42,0,0,100,0,85,135,40,18,0,-2,-27,0,0,80,0,237,142,15,11,0,-14,-31,0,0,100,0,263,187,49,30,0,-14,-31,0,0,100,0,263,155,49,30,0,-14,-31,0,0,100,0,263,219,49,30,0,-9,-59,0,0,100,0,81,155,38,30,0,-20,-8,0,0,65,0,0,0,42,20,0,
0,11,-16,-39,0,0,100,0,172,135,24,16,0,-59,-49,0,0,100,0,401,206,107,47,0,-44,-56,0,0,50,0,316,454,103,67,0,-20,-47,0,0,100,0,94,187,29,13,0,-23,-43,0,0,100,0,127,135,40,18,0,-2,-28,0,0,80,0,254,142,15,11,0,-14,-32,0,0,100,0,314,187,49,30,0,-14,-32,0,0,100,0,314,155,49,30,0,-14,-32,0,0,100,0,314,219,49,30,0,-9,-60,0,0,100,0,121,155,38,30,0,-20,-8,0,0,65,0,0,0,42,20,0,
0,12,-46,-41,0,0,50,0,0,217,93,48,0,-7,-44,0,0,100,0,116,110,23,14,0,-12,-27,0,0,80,0,368,523,27,12,0,-34,-29,0,0,100,0,211,523,68,30,0,-25,-42,0,0,100,0,0,57,32,21,0,-7,-40,0,0,100,0,0,38,21,19,0,4,-39,0,0,100,0,253,54,28,23,0,-8,-30,0,0,100,0,284,45,19,29,0,-34,-29,0,0,100,0,1,555,68,30,0,-12,-55,0,0,100,0,314,79,37,28,0,-66,-77,0,0,100,0,398,6,87,72,0,-20,-8,0,0,65,0,0,0,42,20,0,
0,12,-52,-40,0,0,10,0,213,395,104,57,0,-7,-47,0,0,100,0,41,110,23,14,0,-12,-31,0,0,80,0,281,523,27,12,0,-34,-33,0,0,100,0,1,523,68,30,0,-26,-49,0,0,100,0,34,54,30,27,0,-7,-43,0,0,100,0,0,38,21,19,0,3,-42,0,0,100,0,163,54,28,23,0,-8,-33,0,0,100,0,305,45,19,29,0,-34,-33,0,0,100,0,1,555,68,30,0,-12,-58,0,0,100,0,314,79,37,28,0,-45,-98,0,0,100,0,449,92,49,105,0,-20,-8,0,0,65,0,0,0,42,20,0,
0,18,-14,-66,0,0,30,0,14,365,12,11,0,-42,-66,0,0,30,0,14,365,12,11,0,-40,-74,0,0,30,0,14,365,12,11,0,-18,-89,0,0,30,0,14,353,10,10,0,-46,-105,0,1,10,0,35,347,36,35,0,12,-34,0,1,30,0,311,370,20,17,0,-52,-40,0,0,20,0,213,395,104,57,0,-7,-49,0,0,100,0,41,110,23,14,0,-12,-33,0,0,80,0,281,523,27,12,0,-34,-35,0,0,100,0,1,523,68,30,0,-26,-51,0,0,100,0,34,54,30,27,0,-7,-45,0,0,100,0,0,38,21,19,0,3,-44,0,0,100,0,163,54,28,23,0,-8,-35,0,0,100,0,305,45,19,29,0,-34,-35,0,0,100,0,1,555,68,30,0,-12,-60,0,0,100,0,197,79,37,28,0,-45,-100,0,0,100,0,449,92,49,105,0,-20,-8,0,0,65,0,0,0,42,20,0,
0,18,-45,-78,0,0,100,0,12,376,12,12,0,-15,-73,0,0,100,0,12,376,12,12,0,-40,-87,0,0,100,0,12,376,12,12,0,-22,-94,0,0,100,0,13,365,13,11,0,16,-35,0,1,50,0,311,370,20,17,0,-46,-105,0,1,40,0,35,347,36,35,0,-7,-50,0,0,100,0,66,110,23,14,0,-52,-40,0,0,40,0,319,395,104,57,0,-12,-34,0,0,80,0,310,523,27,12,0,-34,-36,0,0,100,0,71,523,68,30,0,-26,-53,0,0,100,0,66,54,30,27,0,-7,-46,0,0,100,0,0,38,21,19,0,4,-45,0,0,100,0,193,54,28,23,0,-8,-36,0,0,100,0,305,45,19,29,0,-34,-36,0,0,100,0,71,555,68,30,0,-12,-61,0,0,100,0,236,79,37,28,0,-45,-102,0,0,100,0,449,92,49,105,0,-20,-8,0,0,65,0,0,0,42,20,0,
0,18,-50,-65,0,1,100,0,313,357,13,12,0,-39,-99,0,1,100,0,313,357,13,12,0,-53,-103,0,1,100,0,311,368,20,20,0,19,-37,0,1,100,0,311,370,20,17,0,-32,-9,0,1,30,0,313,358,13,11,0,-72,-104,0,0,100,0,4,276,54,66,0,-52,-40,0,0,50,0,1,395,104,57,0,-7,-50,0,0,100,0,91,110,23,14,0,-12,-34,0,0,80,0,339,523,27,12,0,-34,-36,0,0,100,0,141,523,68,30,0,-26,-53,0,0,100,0,98,54,30,27,0,-7,-46,0,0,100,0,0,38,21,19,0,4,-45,0,0,100,0,223,54,28,23,0,-8,-36,0,0,100,0,323,537,19,29,0,-34,-36,0,0,100,0,141,555,68,30,0,-12,-61,0,0,100,0,275,79,37,28,0,-45,-102,0,0,100,0,449,92,49,105,0,-20,-8,0,0,65,0,0,0,42,20,0,
0,21,-52,-92,0,1,100,0,313,357,13,12,0,-21,-7,0,1,100,0,313,357,13,12,0,-57,-49,0,1,100,0,313,357,13,12,0,-47,-42,0,1,100,0,311,368,20,20,0,-92,-113,0,0,100,0,72,265,116,129,0,16,-27,0,1,30,0,313,358,13,11,0,23,-39,0,1,100,0,311,370,20,17,0,-31,-7,0,1,50,0,313,358,13,11,0,-6,1,0,1,30,0,311,370,20,17,0,-52,-40,0,0,50,0,1,395,104,57,0,-7,-50,0,0,100,0,116,110,23,14,0,-12,-34,0,0,80,0,368,523,27,12,0,-34,-36,0,0,100,0,211,523,68,30,0,-26,-53,0,0,100,0,130,54,30,27,0,-7,-46,0,0,100,0,0,38,21,19,0,4,-45,0,0,100,0,253,54,28,23,0,-8,-36,0,0,100,0,344,537,19,29,0,-34,-36,0,0,100,0,211,555,68,30,0,-12,-61,0,0,100,0,314,79,37,28,0,-45,-102,0,0,100,0,449,92,49,105,0,-20,-8,0,0,65,0,0,0,42,20,0,
0,22,-37,-27,0,1,100,0,305,303,22,23,0,-40,-57,0,1,100,0,305,303,22,23,0,-2,-6,0,1,100,0,305,303,22,23,0,-27,-22,0,1,100,0,305,327,31,29,0,-57,-91,0,0,30,0,191,275,90,114,0,18,-28,0,1,50,0,313,358,13,11,0,-47,-43,0,1,30,0,311,370,20,17,0,26,-40,0,1,100,0,311,370,20,17,0,-29,-6,0,1,100,0,313,358,13,11,0,-3,1,0,1,50,0,311,370,20,17,0,-52,-40,0,0,50,0,107,395,104,57,0,-7,-50,0,0,100,0,41,110,23,14,0,-12,-34,0,0,80,0,281,523,27,12,0,-34,-36,0,0,100,0,1,523,68,30,0,-26,-53,0,0,100,0,34,54,30,27,0,-7,-46,0,0,100,0,0,38,21,19,0,4,-45,0,0,100,0,163,54,28,23,0,-8,-36,0,0,100,0,281,537,19,29,0,-34,-36,0,0,100,0,1,555,68,30,0,-12,-61,0,0,100,0,197,79,37,28,0,-45,-102,0,0,100,0,449,92,49,105,0,-20,-8,0,0,65,0,0,0,42,20,0,
0,22,19,-70,0,1,100,0,313,357,13,12,0,38,-93,0,1,100,0,313,357,13,12,0,24,-97,0,1,100,0,311,368,20,20,0,7,-100,1,0,100,0,4,276,54,66,0,-46,-81,0,0,10,0,191,275,90,114,0,28,-42,0,1,100,0,311,370,20,17,0,20,-30,0,1,100,0,313,358,13,11,0,-48,-40,0,1,50,0,311,370,20,17,0,-27,-6,0,1,100,0,313,358,13,11,0,0,1,0,1,100,0,311,370,20,17,0,-52,-40,0,0,50,0,107,395,104,57,0,-7,-50,0,0,100,0,66,110,23,14,0,-12,-34,0,0,80,0,310,523,27,12,0,-34,-36,0,0,100,0,71,523,68,30,0,-26,-53,0,0,100,0,66,54,30,27,0,-7,-46,0,0,100,0,0,38,21,19,0,4,-45,0,0,100,0,193,54,28,23,0,-8,-36,0,0,100,0,302,537,19,29,0,-34,-36,0,0,100,0,71,555,68,30,0,-12,-61,0,0,100,0,236,79,37,28,0,-45,-102,0,0,100,0,449,92,49,105,0,-20,-8,0,0,65,0,0,0,42,20,0,
0,22,17,-82,0,1,100,0,313,357,13,12,0,-13,-7,0,1,100,0,313,357,13,12,0,35,-47,0,1,100,0,313,357,13,12,0,16,-42,0,1,100,0,311,368,20,20,0,-46,-102,1,0,100,0,72,265,116,129,0,29,-44,0,1,50,0,311,370,20,17,0,21,-32,0,1,100,0,313,358,13,11,0,-47,-37,0,1,100,0,311,370,20,17,0,-25,-5,0,1,100,0,313,358,13,11,0,2,0,0,1,100,0,311,370,20,17,0,-52,-40,0,0,50,0,213,395,104,57,0,-7,-50,0,0,100,0,91,110,23,14,0,-12,-34,0,0,80,0,339,523,27,12,0,-34,-36,0,0,100,0,141,523,68,30,0,-26,-53,0,0,100,0,98,54,30,27,0,-7,-46,0,0,100,0,0,38,21,19,0,4,-45,0,0,100,0,223,54,28,23,0,-8,-36,0,0,100,0,323,537,19,29,0,-34,-36,0,0,100,0,141,555,68,30,0,-12,-61,0,0,100,0,275,79,37,28,0,-45,-102,0,0,100,0,449,92,49,105,0,-20,-8,0,0,65,0,0,0,42,20,0,
0,22,6,-22,1,1,100,0,305,303,22,23,0,4,-58,1,1,100,0,305,303,22,23,0,-33,3,1,1,100,0,305,303,22,23,0,-15,-18,1,1,100,0,305,327,31,29,0,-57,-80,1,0,30,0,191,275,90,114,0,27,-47,0,1,30,0,311,370,20,17,0,22,-34,0,1,50,0,313,358,13,11,0,-46,-34,0,1,100,0,311,370,20,17,0,-23,-5,0,1,50,0,313,358,13,11,0,5,0,0,1,100,0,311,370,20,17,0,-52,-40,0,0,40,0,213,395,104,57,0,-7,-50,0,0,100,0,116,110,23,14,0,-12,-34,0,0,80,0,368,523,27,12,0,-34,-36,0,0,100,0,211,523,68,30,0,-26,-53,0,0,100,0,130,54,30,27,0,-7,-46,0,0,100,0,0,38,21,19,0,4,-45,0,0,100,0,253,54,28,23,0,-8,-36,0,0,100,0,344,537,19,29,0,-34,-36,0,0,100,0,211,555,68,30,0,-12,-61,0,0,100,0,314,79,37,28,0,-45,-102,0,0,100,0,449,92,49,105,0,-20,-8,0,0,65,0,0,0,42,20,0,
0,16,24,-36,0,1,30,0,313,358,13,11,0,-44,-31,0,1,50,0,311,370,20,17,0,-21,-5,0,1,30,0,313,358,13,11,0,8,-1,0,1,100,0,311,370,20,17,0,-52,-40,0,0,20,0,319,395,104,57,0,-7,-50,0,0,100,0,41,110,23,14,0,-12,-34,0,0,80,0,310,523,27,12,0,-34,-36,0,0,100,0,71,523,68,30,0,-26,-53,0,0,100,0,34,54,30,27,0,-7,-46,0,0,100,0,0,38,21,19,0,4,-45,0,0,100,0,163,54,28,23,0,-8,-36,0,0,100,0,302,537,19,29,0,-34,-36,0,0,100,0,71,555,68,30,0,-45,-102,0,0,100,0,449,92,49,105,0,-12,-61,0,0,100,0,197,79,37,28,0,-20,-8,0,0,65,0,0,0,42,20,0,
0,13,-43,-29,0,1,30,0,311,370,20,17,0,11,-2,0,1,50,0,311,370,20,17,0,-7,-49,0,0,100,0,41,110,23,14,0,-12,-33,0,0,80,0,339,523,27,12,0,-34,-35,0,0,100,0,141,523,68,30,0,-26,-52,0,0,100,0,130,54,30,27,0,-7,-45,0,0,100,0,0,38,21,19,0,4,-44,0,0,100,0,223,54,28,23,0,-8,-35,0,0,100,0,323,537,19,29,0,-34,-35,0,0,100,0,141,555,68,30,0,-12,-60,0,0,100,0,236,79,37,28,0,-45,-101,0,0,100,0,449,92,49,105,0,-20,-8,0,0,65,0,0,0,42,20,0,
0,12,13,-2,0,1,30,0,311,370,20,17,0,-7,-45,0,0,100,0,116,110,23,14,0,-12,-29,0,0,80,0,339,523,27,12,0,-34,-31,0,0,100,0,141,523,68,30,0,-25,-43,0,0,100,0,0,57,32,21,0,-7,-41,0,0,100,0,0,38,21,19,0,4,-40,0,0,100,0,163,54,28,23,0,-8,-31,0,0,100,0,284,45,19,29,0,-34,-31,0,0,100,0,141,555,68,30,0,-12,-56,0,0,100,0,236,79,37,28,0,-66,-78,0,0,100,0,398,6,87,72,0,-20,-8,0,0,65,0,0,0,42,20,0,
0,13,-13,-42,0,0,100,0,66,110,23,14,0,-1,-38,0,0,100,0,326,45,20,26,0,-2,-26,0,0,100,0,21,19,8,8,0,-3,-25,0,0,80,0,220,142,15,11,0,-15,-29,0,0,100,0,212,187,49,30,0,-11,-39,1,0,100,0,3,19,16,19,0,-11,-24,0,0,100,0,320,16,19,25,0,-14,-26,0,0,80,0,384,45,10,10,0,-17,-29,0,0,100,0,212,219,49,30,0,-24,-37,0,0,100,0,215,1,21,21,0,-68,-68,0,0,100,0,398,6,87,72,0,-18,-53,0,0,100,0,236,79,37,28,0,-20,-8,0,0,65,0,0,0,42,20,0,
0,14,21,-5,0,0,100,0,323,121,19,7,0,21,-8,0,0,100,0,323,108,19,8,0,-8,-41,0,0,100,0,284,1,16,13,0,-7,-24,1,0,100,0,20,19,9,9,0,-13,-23,1,0,80,0,203,142,15,11,0,-35,-27,1,0,100,0,161,187,49,30,0,-8,-38,0,0,100,0,3,19,16,19,0,-6,-24,0,0,100,0,284,16,16,27,0,-35,-28,1,0,100,0,161,219,49,30,0,-22,-36,0,0,100,0,192,1,21,21,0,2,-37,0,0,100,0,196,23,20,26,0,-66,-67,0,0,100,0,398,6,87,72,0,-18,-53,0,0,100,0,44,1,35,25,0,-20,-8,0,0,65,0,0,0,42,20,0,
0,14,17,-6,0,0,100,0,319,129,27,7,0,16,-18,0,0,100,0,279,127,20,17,0,-8,-41,0,0,100,0,284,1,16,13,0,-7,-24,1,0,100,0,20,19,9,9,0,-13,-23,1,0,80,0,203,142,15,11,0,-35,-27,1,0,100,0,161,187,49,30,0,-8,-38,0,0,100,0,3,19,16,19,0,-6,-24,0,0,100,0,284,16,16,27,0,-35,-28,1,0,100,0,161,219,49,30,0,-22,-36,0,0,100,0,192,1,21,21,0,2,-37,0,0,100,0,196,23,20,26,0,-66,-67,0,0,100,0,398,6,87,72,0,-18,-53,0,0,100,0,44,1,35,25,0,-20,-8,0,0,65,0,0,0,42,20,0,
0,14,10,-18,0,0,100,0,353,88,17,19,0,18,-5,0,0,100,0,320,137,26,8,0,-8,-41,0,0,100,0,284,1,16,13,0,-7,-24,1,0,100,0,20,19,9,9,0,-13,-23,1,0,80,0,203,142,15,11,0,-35,-27,1,0,100,0,161,187,49,30,0,-8,-38,0,0,100,0,3,19,16,19,0,-6,-24,0,0,100,0,284,16,16,27,0,-35,-28,1,0,100,0,161,219,49,30,0,-22,-36,0,0,100,0,192,1,21,21,0,2,-37,0,0,100,0,196,23,20,26,0,-66,-67,0,0,100,0,398,6,87,72,0,-18,-53,0,0,100,0,44,1,35,25,0,-20,-8,0,0,65,0,0,0,42,20,0,
0,13,11,-13,0,0,100,0,302,110,17,15,0,-8,-41,0,0,100,0,338,1,16,13,0,-7,-24,1,0,100,0,20,19,9,9,0,-13,-23,1,0,80,0,203,142,15,11,0,-35,-27,1,0,100,0,161,187,49,30,0,-8,-38,0,0,100,0,3,19,16,19,0,-6,-24,0,0,100,0,284,16,16,27,0,-35,-28,1,0,100,0,161,219,49,30,0,-22,-36,0,0,100,0,192,1,21,21,0,2,-37,0,0,100,0,196,23,20,26,0,-66,-67,0,0,100,0,398,6,87,72,0,-18,-53,0,0,100,0,81,1,35,25,0,-20,-8,0,0,65,0,0,0,42,20,0,
0,15,-34,-3,0,0,100,0,323,121,19,8,0,-34,-9,0,0,100,0,322,108,20,11,0,-2,-19,0,0,100,0,279,109,18,18,0,-10,-41,0,0,100,0,116,110,23,14,0,-7,-24,1,0,100,0,20,19,9,9,0,-13,-23,1,0,80,0,203,142,15,11,0,-35,-27,1,0,100,0,161,187,49,30,0,-8,-38,0,0,100,0,3,19,16,19,0,-6,-24,0,0,100,0,284,16,16,27,0,-35,-28,1,0,100,0,161,219,49,30,0,-22,-35,0,0,100,0,192,1,21,21,0,2,-37,0,0,100,0,262,23,20,26,0,-66,-66,0,0,100,0,398,6,87,72,0,-15,-52,0,0,100,0,237,109,37,28,0,-20,-8,0,0,65,0,0,0,42,20,0,
0,15,-38,-5,0,0,100,0,318,128,30,9,0,-26,-18,1,0,100,0,279,126,20,18,0,-8,-24,0,0,100,0,279,109,18,18,0,-10,-41,0,0,100,0,116,110,23,14,0,-7,-24,1,0,100,0,20,19,9,9,0,-13,-23,1,0,80,0,220,142,15,11,0,-35,-27,1,0,100,0,212,187,49,30,0,-8,-38,0,0,100,0,3,19,16,19,0,-6,-24,0,0,100,0,284,16,16,27,0,-35,-28,1,0,100,0,212,219,49,30,0,-22,-35,0,0,100,0,192,1,21,21,0,2,-37,0,0,100,0,262,23,20,26,0,-66,-66,0,0,100,0,398,6,87,72,0,-15,-52,0,0,100,0,237,109,37,28,0,-20,-8,0,0,65,0,0,0,42,20,0,
0,17,10,-1,0,0,100,0,323,121,19,8,0,10,-7,0,0,100,0,322,108,20,11,0,-18,-12,1,0,100,0,301,109,18,16,0,-39,-4,0,0,100,0,318,136,30,9,0,-13,-32,0,0,100,0,279,109,18,18,0,-10,-41,0,0,100,0,116,110,23,14,0,-7,-24,1,0,100,0,20,19,9,9,0,-13,-23,1,0,80,0,220,142,15,11,0,-35,-27,1,0,100,0,212,187,49,30,0,-8,-38,0,0,100,0,3,19,16,19,0,-6,-24,0,0,100,0,284,16,16,27,0,-35,-28,1,0,100,0,212,219,49,30,0,-22,-35,0,0,100,0,215,1,21,21,0,2,-37,0,0,100,0,262,23,20,26,0,-66,-66,0,0,100,0,398,6,87,72,0,-15,-52,0,0,100,0,237,109,37,28,0,-20,-8,0,0,65,0,0,0,42,20,0,
0,16,3,-15,0,0,100,0,279,126,20,18,0,5,-3,0,0,100,0,318,128,30,9,0,-18,-12,1,0,100,0,301,109,18,16,0,-10,-41,0,0,100,0,116,110,23,14,0,-7,-24,1,0,100,0,20,19,9,9,0,-13,-23,1,0,80,0,237,142,15,11,0,-35,-27,1,0,100,0,263,187,49,30,0,-8,-38,0,0,100,0,3,19,16,19,0,-6,-24,0,0,100,0,284,16,16,27,0,-35,-28,1,0,100,0,263,219,49,30,0,-10,-35,1,0,100,0,279,109,18,18,0,-22,-35,0,0,100,0,215,1,21,21,0,2,-37,0,0,100,0,196,23,20,26,0,-66,-66,0,0,100,0,398,6,87,72,0,-15,-52,0,0,100,0,237,109,37,28,0,-20,-8,0,0,65,0,0,0,42,20,0,
0,16,9,-41,0,0,100,0,301,109,18,17,0,2,-8,0,0,100,0,301,109,18,16,0,6,-2,0,0,100,0,318,136,30,9,0,-17,-15,1,0,100,0,353,88,17,19,0,-10,-41,0,0,100,0,116,110,23,14,0,-7,-24,1,0,100,0,20,19,9,9,0,-13,-23,1,0,80,0,254,142,15,11,0,-35,-27,1,0,100,0,314,187,49,30,0,-8,-38,0,0,100,0,3,19,16,19,0,-6,-24,0,0,100,0,284,16,16,27,0,-35,-28,1,0,100,0,314,219,49,30,0,-22,-35,0,0,100,0,238,1,21,21,0,2,-37,0,0,100,0,218,23,20,26,0,-66,-66,0,0,100,0,398,6,87,72,0,-15,-52,0,0,100,0,237,109,37,28,0,-20,-8,0,0,65,0,0,0,42,20,0,
0,18,2,-11,0,0,100,0,353,88,17,19,0,-17,-15,1,0,100,0,353,88,17,19,0,5,-43,0,0,100,0,301,109,18,17,0,-8,-41,1,0,100,0,338,1,16,13,0,3,-37,0,0,100,0,141,110,22,23,0,2,-24,0,0,100,0,20,19,9,9,0,1,-23,0,0,80,0,254,142,15,11,0,-11,-27,0,0,100,0,314,187,49,30,0,-8,-24,0,0,100,0,31,19,7,7,0,-12,-22,0,0,80,0,384,45,10,10,0,-6,-38,1,0,100,0,3,19,16,19,0,-8,-26,0,0,100,0,342,15,19,29,0,-14,-28,0,0,100,0,314,219,33,30,0,21,-28,0,0,100,0,346,219,17,30,0,-19,-36,0,0,100,0,261,1,21,21,0,-16,-53,1,0,100,0,155,1,35,25,0,-63,-67,0,0,100,0,398,6,87,72,0,-20,-8,0,0,65,0,0,0,42,20,0,
0,19,2,-11,0,0,100,0,353,132,17,20,0,-16,-14,1,0,100,0,395,110,19,19,0,3,-46,0,0,100,0,374,110,19,19,0,-8,-41,1,0,100,0,284,1,16,13,0,3,-38,0,0,100,0,141,110,22,23,0,2,-24,0,0,100,0,20,19,9,9,0,1,-23,0,0,80,0,203,142,15,11,0,-11,-27,0,0,100,0,161,187,49,30,0,-8,-24,0,0,100,0,31,19,7,7,0,-12,-22,0,0,80,0,348,45,10,10,0,-6,-38,1,0,100,0,3,19,16,19,0,-2,-44,0,0,100,0,128,126,10,6,0,-8,-26,0,0,100,0,342,15,19,29,0,-14,-28,0,0,100,0,161,219,33,30,0,21,-28,0,0,100,0,193,219,17,30,0,-19,-36,0,0,100,0,192,1,21,21,0,-63,-67,0,0,100,0,398,6,87,72,0,-16,-53,1,0,100,0,44,1,35,25,0,-20,-8,0,0,65,0,0,0,42,20,0,
0,19,1,-11,0,0,100,0,372,132,17,20,0,-16,-14,1,0,100,0,416,110,19,19,0,3,-46,0,0,100,0,395,110,19,19,0,-8,-41,1,0,100,0,302,1,16,13,0,3,-38,0,0,100,0,165,110,22,23,0,2,-24,0,0,100,0,20,19,9,9,0,1,-23,0,0,80,0,220,142,15,11,0,-11,-27,0,0,100,0,212,187,49,30,0,-8,-24,0,0,100,0,31,19,7,7,0,-12,-22,0,0,80,0,360,45,10,10,0,-6,-38,1,0,100,0,3,19,16,19,0,-2,-44,0,0,100,0,128,126,10,6,0,-8,-26,0,0,100,0,342,15,19,29,0,-14,-28,0,0,100,0,212,219,33,30,0,21,-28,0,0,100,0,244,219,17,30,0,-19,-36,0,0,100,0,215,1,21,21,0,-63,-67,0,0,100,0,398,6,87,72,0,-16,-53,1,0,100,0,81,1,35,25,0,-20,-8,0,0,65,0,0,0,42,20,0,
0,18,2,-11,0,0,100,0,391,132,17,20,0,-16,-14,1,0,100,0,353,110,19,19,0,3,-46,0,0,100,0,416,110,19,19,0,-8,-41,1,0,100,0,320,1,16,13,0,3,-38,0,0,100,0,189,110,22,23,0,2,-24,0,0,100,0,20,19,9,9,0,1,-23,0,0,80,0,237,142,15,11,0,-11,-27,0,0,100,0,263,187,49,30,0,-8,-24,0,0,100,0,31,19,7,7,0,-12,-22,0,0,80,0,372,45,10,10,0,-6,-38,1,0,100,0,3,19,16,19,0,-2,-44,0,0,100,0,128,126,10,6,0,-8,-26,0,0,100,0,342,15,19,29,0,-14,-28,0,0,100,0,263,219,33,30,0,-19,-36,0,0,100,0,238,1,21,21,0,-63,-67,0,0,100,0,398,6,87,72,0,-16,-53,1,0,100,0,118,1,35,25,0,-20,-8,0,0,65,0,0,0,42,20,0,
0,19,4,-11,0,0,100,0,410,132,17,20,0,-16,-14,1,0,100,0,374,110,19,19,0,3,-46,0,0,100,0,353,110,19,19,0,-8,-41,1,0,100,0,338,1,16,13,0,3,-38,0,0,100,0,213,110,22,23,0,2,-24,0,0,100,0,20,19,9,9,0,1,-23,0,0,80,0,254,142,15,11,0,-11,-27,0,0,100,0,314,187,49,30,0,-8,-24,0,0,100,0,31,19,7,7,0,-12,-22,0,0,80,0,384,45,10,10,0,-6,-38,1,0,100,0,3,19,16,19,0,-2,-44,0,0,100,0,128,126,10,6,0,-8,-26,0,0,100,0,342,15,19,29,0,-14,-28,0,0,100,0,314,219,33,30,0,21,-28,0,0,100,0,346,219,17,30,0,-19,-36,0,0,100,0,261,1,21,21,0,-16,-53,1,0,100,0,155,1,35,25,0,-63,-67,0,0,100,0,398,6,87,72,0,-20,-8,0,0,65,0,0,0,42,20,0,
