0,4,-38,-82,0,0,100,0,0,0,80,80,0,4,-112,0,0,100,0,280,0,56,64,0,-40,-112,0,0,100,0,240,0,40,64,0,-19,-7,0,0,65,0,0,496,40,16,0,
0,4,-38,-83,0,0,100,0,80,0,80,79,0,4,-113,0,0,100,0,280,0,56,64,0,-40,-113,0,0,100,0,240,0,40,64,0,-19,-7,0,0,65,0,0,496,40,16,0,
0,4,-38,-85,0,0,100,0,160,0,80,79,0,5,-115,0,0,100,0,280,0,56,64,0,-41,-115,0,0,100,0,240,0,40,64,0,-19,-7,0,0,65,0,0,496,40,16,0,
0,4,-38,-86,0,0,100,0,160,0,80,79,0,5,-116,0,0,100,0,280,0,56,64,0,-41,-116,0,0,100,0,240,0,40,64,0,-19,-7,0,0,65,0,0,496,40,16,0,
0,10,-48,-103,0,0,100,0,0,86,48,32,0,0,-103,0,0,100,0,48,86,56,32,0,-40,-81,0,0,100,0,104,86,96,80,0,-40,-107,0,0,80,0,0,120,48,31,0,8,-107,0,0,80,0,48,120,56,31,0,-32,-87,0,0,80,0,200,80,96,80,0,-32,-107,0,0,60,0,0,120,48,31,0,15,-107,0,0,60,0,48,120,56,31,0,-25,-87,0,0,60,0,200,80,96,80,0,-19,-7,0,0,65,0,0,496,40,16,0,
0,10,-48,-104,0,0,100,0,0,86,48,32,0,0,-104,0,0,100,0,48,86,56,32,0,-40,-82,0,0,100,0,104,86,96,80,0,-37,-108,0,0,80,0,0,120,48,31,0,11,-108,0,0,80,0,48,120,56,31,0,-29,-82,0,0,80,0,200,86,96,80,0,-27,-108,0,0,60,0,0,120,48,31,0,20,-108,0,0,60,0,48,120,56,31,0,-20,-88,0,0,60,0,200,80,96,80,0,-19,-7,0,0,65,0,0,496,40,16,0,
0,4,-31,-79,0,0,100,0,0,0,80,80,0,11,-109,0,0,100,0,280,0,56,64,0,-33,-109,0,0,100,0,240,0,40,64,0,-19,-7,0,0,65,0,0,496,40,16,0,
0,4,-29,-81,0,0,100,0,0,0,80,80,0,13,-111,0,0,100,0,280,0,56,64,0,-31,-111,0,0,100,0,240,0,40,64,0,-19,-7,0,0,65,0,0,496,40,16,0,
0,4,-41,-108,0,0,100,0,0,120,48,31,0,6,-108,0,0,100,0,48,120,56,31,0,-34,-84,0,0,100,0,200,84,96,80,0,-18,-7,0,0,65,0,0,496,40,16,0,
0,4,-37,-110,0,0,100,0,0,120,48,31,0,10,-110,0,0,100,0,48,120,56,31,0,-30,-86,0,0,100,0,200,84,96,80,0,-17,-7,0,0,65,0,0,496,40,16,0,
0,4,-35,-111,0,0,100,0,0,120,48,31,0,12,-111,0,0,100,0,48,120,56,31,0,-28,-87,0,0,100,0,200,84,96,80,0,-15,-7,0,0,65,0,0,496,40,16,0,
0,8,-71,-128,0,0,80,0,331,62,176,144,0,-47,-102,0,0,70,0,0,120,48,31,0,0,-102,0,0,70,0,48,120,56,31,0,-40,-78,0,0,70,0,200,84,96,80,0,-39,-102,0,0,60,0,0,120,48,31,0,8,-102,0,0,60,0,48,120,56,31,0,-32,-84,0,0,60,0,200,78,96,80,0,32,-109,0,0,40,0,0,155,80,127,0,
0,8,-72,-129,0,0,75,0,138,200,192,152,0,-47,-103,0,0,70,0,0,120,48,31,0,0,-103,0,0,70,0,48,120,56,31,0,-40,-79,0,0,70,0,200,84,96,80,0,-35,-103,0,0,60,0,0,120,48,31,0,12,-103,0,0,60,0,48,120,56,31,0,-28,-79,0,0,60,0,200,84,96,80,0,32,-84,0,0,50,0,0,394,48,80,0,
0,8,-64,-121,0,0,70,0,336,208,176,144,0,-47,-102,0,0,70,0,0,120,48,31,0,0,-102,0,0,70,0,48,120,56,31,0,-40,-78,0,0,70,0,200,84,96,80,0,-39,-102,0,0,60,0,0,120,48,31,0,8,-102,0,0,60,0,48,120,56,31,0,-32,-78,0,0,60,0,200,84,96,80,0,37,-84,0,0,70,0,0,394,48,80,0,
0,8,-69,-127,0,0,60,0,141,352,192,152,0,-47,-103,0,0,70,0,0,120,48,31,0,0,-103,0,0,70,0,48,120,56,31,0,-40,-79,0,0,70,0,200,84,96,80,0,-35,-103,0,0,60,0,0,120,48,31,0,12,-103,0,0,60,0,48,120,56,31,0,-28,-79,0,0,60,0,200,84,96,80,0,35,-96,0,0,60,0,72,290,64,104,0,
0,8,-67,-127,0,0,50,0,333,352,173,152,0,-47,-102,0,0,70,0,0,120,48,31,0,0,-102,0,0,70,0,48,120,56,31,0,-40,-78,0,0,70,0,200,84,96,80,0,-39,-102,0,0,60,0,0,120,48,31,0,8,-102,0,0,60,0,48,120,56,31,0,-32,-78,0,0,60,0,200,84,96,80,0,33,-100,0,0,50,0,0,282,71,111,0,
0,8,-71,-129,2,0,80,0,331,61,176,144,0,-47,-102,0,0,70,0,0,120,48,31,0,0,-102,0,0,70,0,48,120,56,31,0,-40,-78,0,0,70,0,200,84,96,80,0,-39,-102,0,0,60,0,0,120,48,31,0,8,-102,0,0,60,0,48,120,56,31,0,-32,-78,0,0,60,0,200,84,96,80,0,32,-109,0,0,40,0,0,155,80,127,0,
0,8,-73,-136,2,0,75,0,137,200,192,152,0,-47,-103,0,0,70,0,0,120,48,31,0,0,-103,0,0,70,0,48,120,56,31,0,-40,-79,0,0,70,0,200,84,96,80,0,-35,-103,0,0,60,0,0,120,48,31,0,12,-103,0,0,60,0,48,120,56,31,0,-28,-79,0,0,60,0,200,84,96,80,0,32,-84,0,0,50,0,0,394,48,80,0,
0,8,-63,-135,2,0,70,0,336,208,176,144,0,-47,-102,0,0,70,0,0,120,48,31,0,0,-102,0,0,70,0,48,120,56,31,0,-40,-78,0,0,70,0,200,84,96,80,0,-39,-102,0,0,60,0,0,120,48,31,0,8,-102,0,0,60,0,48,120,56,31,0,-32,-78,0,0,60,0,200,84,96,80,0,37,-84,0,0,70,0,0,394,48,80,0,
0,8,-68,-137,2,0,60,0,140,352,192,152,0,-47,-103,0,0,70,0,0,120,48,31,0,0,-103,0,0,70,0,48,120,56,31,0,-40,-79,0,0,70,0,200,84,96,80,0,-35,-103,0,0,60,0,0,120,48,31,0,12,-103,0,0,60,0,48,120,56,31,0,-28,-79,0,0,60,0,200,84,96,80,0,35,-96,0,0,60,0,72,290,64,104,0,
0,8,-64,-136,2,0,50,0,334,352,173,152,0,-47,-102,0,0,70,0,0,120,48,31,0,0,-102,0,0,70,0,48,120,56,31,0,-40,-78,0,0,70,0,200,84,96,80,0,-39,-102,0,0,60,0,0,120,48,31,0,8,-102,0,0,60,0,48,120,56,31,0,-32,-78,0,0,60,0,200,84,96,80,0,33,-100,0,0,50,0,0,282,71,111,0,
0,5,-70,-128,0,0,60,0,332,62,176,144,0,-47,-101,0,0,100,0,0,120,48,31,0,-1,-101,0,0,100,0,48,120,56,31,0,-40,-77,0,0,100,0,200,84,96,80,0,-19,-7,0,0,20,0,0,496,40,16,0,
0,8,-65,-129,0,0,40,0,137,200,192,152,0,-47,-101,0,0,60,0,0,120,48,31,0,0,-101,0,0,60,0,48,120,56,31,0,-40,-77,0,0,60,0,200,84,96,80,0,-47,-101,0,0,100,0,0,82,48,32,0,0,-101,0,0,100,0,48,82,56,32,0,-40,-77,0,0,100,0,104,84,96,80,0,-19,-7,0,0,40,0,0,496,40,16,0,
0,7,-47,-101,0,0,40,0,0,120,48,31,0,0,-101,0,0,40,0,48,120,56,31,0,-40,-77,0,0,40,0,200,84,96,80,0,-47,-101,0,0,100,0,0,82,48,32,0,0,-101,0,0,100,0,48,82,56,32,0,-40,-77,0,0,100,0,104,84,96,80,0,-19,-7,0,0,60,0,0,496,40,16,0,
0,4,-32,-83,0,0,100,0,0,0,80,80,0,10,-113,0,0,100,0,280,0,56,64,0,-34,-113,0,0,100,0,240,0,40,64,0,-19,-7,0,0,65,0,0,496,40,16,0,
0,3,-81,-149,0,1,30,0,0,680,168,168,0,-81,-149,0,0,100,0,0,512,168,168,0,-19,-7,0,0,65,0,0,496,40,16,0,
0,3,-81,-149,0,1,100,0,168,680,168,168,0,-81,-149,0,0,100,0,168,512,168,168,0,-19,-7,0,0,65,0,0,496,40,16,0,
0,4,-81,-149,0,1,100,0,336,848,168,168,0,-81,-149,0,1,100,0,336,680,168,168,0,-81,-149,0,0,100,0,336,512,168,168,0,-19,-7,0,0,65,0,0,496,40,16,0,
0,3,-81,-149,0,1,100,0,680,0,168,168,0,-81,-149,0,0,100,0,512,0,168,168,0,-19,-7,0,0,65,0,0,496,40,16,0,
0,3,-81,-149,0,1,100,0,1032,8,168,168,0,-89,-157,0,0,100,0,848,0,184,184,0,-19,-7,0,0,65,0,0,496,40,16,0,
0,3,-81,-149,0,1,100,0,696,192,168,168,0,-89,-157,0,0,100,0,512,184,184,184,0,-19,-7,0,0,65,0,0,496,40,16,0,
0,3,-81,-149,0,1,100,0,1048,192,168,168,0,-89,-157,0,0,100,0,864,184,184,184,0,-19,-7,0,0,65,0,0,496,40,16,0,
0,3,-81,-149,0,1,100,0,696,384,168,168,0,-89,-165,0,0,100,0,512,368,184,192,0,-19,-7,0,0,65,0,0,496,40,16,0,
0,3,-81,-149,0,1,100,0,1048,384,168,168,0,-89,-165,0,0,100,0,864,368,184,192,0,-19,-7,0,0,65,0,0,496,40,16,0,
0,3,-81,-149,0,1,100,0,696,568,168,168,0,-89,-157,0,0,100,0,512,560,184,184,0,-19,-7,0,0,65,0,0,496,40,16,0,
0,3,-81,-149,0,1,100,0,1048,568,168,168,0,-89,-157,0,0,100,0,864,560,184,184,0,-19,-7,0,0,65,0,0,496,40,16,0,
