0,4,-45,-38,0,0,100,0,0,97,25,29,0,6,-54,0,0,100,0,0,60,31,36,0,-30,-75,0,0,100,0,1,5,51,52,0,-20,-12,0,0,65,0,470,0,42,19,0,
0,4,-48,-36,0,0,100,0,0,97,25,29,0,14,-54,0,0,100,0,0,60,31,36,0,-29,-73,0,0,100,0,57,5,51,52,0,-20,-12,0,0,65,0,470,0,42,19,0,
0,4,-52,-40,0,0,100,0,0,97,25,29,0,17,-59,0,0,100,0,0,60,31,36,0,-29,-71,0,0,100,0,113,5,51,52,0,-20,-12,0,0,65,0,470,0,42,19,0,
0,4,-46,-38,0,0,100,0,0,97,25,29,0,11,-54,0,0,100,0,0,60,31,36,0,-29,-73,0,0,100,0,169,5,51,52,0,-20,-12,0,0,65,0,470,0,42,19,0,
0,11,-2,-60,0,0,100,0,0,60,31,36,0,-39,-73,0,1,100,0,67,65,19,17,0,-20,-72,0,0,30,0,67,65,19,17,0,-26,-73,0,0,50,0,67,65,19,17,0,-33,-73,0,0,80,0,67,65,19,17,0,-41,-80,0,0,100,0,1,5,51,52,0,-45,-42,0,0,100,0,0,97,25,29,0,-45,-39,0,0,50,0,0,97,25,29,0,-30,-75,0,0,50,0,1,5,51,52,0,6,-55,0,0,50,0,0,60,31,36,0,-34,-12,0,0,65,0,470,0,42,19,0,
0,14,-28,-61,0,0,100,0,0,60,31,36,0,-59,-74,0,1,100,0,67,65,19,17,0,-40,-75,0,0,30,0,67,65,19,17,0,-46,-75,0,0,50,0,67,65,19,17,0,-52,-75,0,0,80,0,67,65,19,17,0,-61,-81,0,0,100,0,1,5,51,52,0,-58,-40,0,0,100,0,0,97,25,29,0,-2,-60,0,0,50,0,0,60,31,36,0,-41,-80,0,0,50,0,1,5,51,52,0,-45,-42,0,0,50,0,0,97,25,29,0,-45,-39,0,0,30,0,0,97,25,29,0,-30,-75,0,0,30,0,1,5,51,52,0,6,-55,0,0,30,0,0,60,31,36,0,-53,-12,0,0,65,0,470,0,42,19,0,
0,14,-47,-56,0,0,100,0,0,60,31,36,0,-81,-63,0,1,100,0,67,65,19,17,0,-61,-77,0,0,30,0,67,65,19,17,0,-69,-73,0,0,50,0,67,65,19,17,0,-75,-69,0,0,80,0,67,65,19,17,0,-83,-70,0,0,100,0,1,5,51,52,0,-80,-38,0,0,100,0,0,97,25,29,0,-28,-61,0,0,50,0,0,60,31,36,0,-61,-81,0,0,50,0,1,5,51,52,0,-58,-40,0,0,50,0,0,97,25,29,0,-2,-60,0,0,30,0,0,60,31,36,0,-41,-80,0,0,30,0,1,5,51,52,0,-45,-42,0,0,30,0,0,97,25,29,0,-79,-12,0,0,65,0,470,0,42,19,0,
0,14,-39,-48,0,0,100,0,0,60,31,36,0,-69,-49,0,1,100,0,67,65,19,17,0,-75,-67,0,0,30,0,67,65,19,17,0,-75,-60,0,0,50,0,67,65,19,17,0,-73,-54,0,0,80,0,67,65,19,17,0,-71,-56,0,0,100,0,1,5,51,52,0,-85,-29,0,0,100,0,0,97,25,29,0,-47,-56,0,0,50,0,0,60,31,36,0,-83,-70,0,0,50,0,1,5,51,52,0,-80,-38,0,0,50,0,0,97,25,29,0,-28,-61,0,0,30,0,0,60,31,36,0,-61,-81,0,0,30,0,1,5,51,52,0,-58,-40,0,0,30,0,0,97,25,29,0,-68,-12,0,0,65,0,470,0,42,19,0,
0,14,-27,-38,0,0,100,0,0,60,31,36,0,-45,-49,0,1,100,0,67,65,19,17,0,-63,-40,0,0,30,0,67,65,19,17,0,-56,-42,0,0,50,0,67,65,19,17,0,-50,-45,0,0,80,0,67,65,19,17,0,-47,-56,0,0,100,0,1,5,51,52,0,-65,-23,0,0,100,0,0,97,25,29,0,-39,-48,0,0,50,0,0,60,31,36,0,-71,-56,0,0,50,0,1,5,51,52,0,-85,-29,0,0,50,0,0,97,25,29,0,-47,-56,0,0,30,0,0,60,31,36,0,-83,-70,0,0,30,0,1,5,51,52,0,-80,-38,0,0,30,0,0,97,25,29,0,-40,-12,0,0,65,0,470,0,42,19,0,
0,14,-10,-44,0,0,100,0,0,60,31,36,0,-28,-58,0,1,100,0,67,65,19,17,0,-46,-36,0,0,30,0,67,65,19,17,0,-39,-42,0,0,50,0,67,65,19,17,0,-33,-51,0,0,80,0,67,65,19,17,0,-30,-65,0,0,100,0,1,5,51,52,0,-43,-29,0,0,100,0,0,97,25,29,0,-27,-38,0,0,50,0,0,60,31,36,0,-47,-56,0,0,50,0,1,5,51,52,0,-65,-23,0,0,50,0,0,97,25,29,0,-39,-48,0,0,30,0,0,60,31,36,0,-71,-56,0,0,30,0,1,5,51,52,0,-85,-29,0,0,30,0,0,97,25,29,0,-18,-12,0,0,65,0,470,0,42,19,0,
0,14,-9,-72,0,1,100,0,67,65,19,17,0,-28,-54,0,0,30,0,67,65,19,17,0,-22,-61,0,0,50,0,67,65,19,17,0,-16,-68,0,0,80,0,67,65,19,17,0,12,-54,0,0,100,0,0,60,31,36,0,-10,-79,0,0,100,0,1,5,51,52,0,-15,-40,0,0,100,0,0,97,25,29,0,-10,-44,0,0,50,0,0,60,31,36,0,-30,-65,0,0,50,0,1,5,51,52,0,-43,-29,0,0,50,0,0,97,25,29,0,-27,-38,0,0,30,0,0,60,31,36,0,-47,-56,0,0,30,0,1,5,51,52,0,-65,-23,0,0,30,0,0,97,25,29,0,2,-12,0,0,65,0,470,0,42,19,0,
0,14,24,-49,0,0,100,0,0,60,31,36,0,12,-63,0,1,100,0,67,65,19,17,0,-8,-66,0,0,30,0,67,65,19,17,0,-1,-67,0,0,50,0,67,65,19,17,0,6,-66,0,0,80,0,67,65,19,17,0,10,-70,0,0,100,0,1,5,51,52,0,-11,-39,0,0,100,0,0,97,25,29,0,12,-54,0,0,50,0,0,60,31,36,0,-10,-79,0,0,50,0,1,5,51,52,0,-15,-40,0,0,50,0,0,97,25,29,0,-10,-44,0,0,30,0,0,60,31,36,0,-30,-65,0,0,30,0,1,5,51,52,0,-43,-29,0,0,30,0,0,97,25,29,0,19,-12,0,0,65,0,470,0,42,19,0,
0,14,36,-49,0,0,100,0,0,60,31,36,0,12,-52,0,1,100,0,67,65,19,17,0,8,-71,0,0,30,0,67,65,19,17,0,12,-65,0,0,50,0,67,65,19,17,0,13,-59,0,0,80,0,67,65,19,17,0,10,-59,0,0,100,0,1,5,51,52,0,8,-32,0,0,100,0,0,97,25,29,0,24,-49,0,0,50,0,0,60,31,36,0,10,-70,0,0,50,0,1,5,51,52,0,-11,-39,0,0,50,0,0,97,25,29,0,12,-54,0,0,30,0,0,60,31,36,0,-10,-79,0,0,30,0,1,5,51,52,0,-15,-40,0,0,30,0,0,97,25,29,0,17,-12,0,0,65,0,470,0,42,19,0,
0,14,25,-37,0,0,100,0,0,60,31,36,0,-4,-49,0,1,100,0,67,65,19,17,0,18,-59,0,0,30,0,67,65,19,17,0,10,-54,0,0,50,0,67,65,19,17,0,3,-51,0,0,80,0,67,65,19,17,0,-6,-56,0,0,100,0,1,5,51,52,0,-1,-23,0,0,100,0,0,97,25,29,0,36,-49,0,0,50,0,0,60,31,36,0,10,-59,0,0,50,0,1,5,51,52,0,8,-32,0,0,50,0,0,97,25,29,0,24,-49,0,0,30,0,0,60,31,36,0,10,-70,0,0,30,0,1,5,51,52,0,-11,-39,0,0,30,0,0,97,25,29,0,4,-12,0,0,65,0,470,0,42,19,0,
0,14,-16,-57,0,1,100,0,67,65,19,17,0,8,-49,0,0,30,0,67,65,19,17,0,-1,-52,0,0,50,0,67,65,19,17,0,-9,-54,0,0,80,0,67,65,19,17,0,12,-44,0,0,100,0,0,60,31,36,0,-18,-64,0,0,100,0,1,5,51,52,0,-17,-30,0,0,100,0,0,97,25,29,0,25,-37,0,0,50,0,0,60,31,36,0,-6,-56,0,0,50,0,1,5,51,52,0,-1,-23,0,0,50,0,0,97,25,29,0,36,-49,0,0,30,0,0,60,31,36,0,10,-59,0,0,30,0,1,5,51,52,0,8,-32,0,0,30,0,0,97,25,29,0,-5,-12,0,0,65,0,470,0,42,19,0,
0,14,-28,-68,0,1,100,0,67,65,19,17,0,-6,-55,0,0,30,0,67,65,19,17,0,-14,-59,0,0,50,0,67,65,19,17,0,-21,-64,0,0,80,0,67,65,19,17,0,6,-55,0,0,100,0,0,60,31,36,0,-30,-75,0,0,100,0,1,5,51,52,0,-45,-39,0,0,100,0,0,97,25,29,0,12,-44,0,0,50,0,0,60,31,36,0,-18,-64,0,0,50,0,1,5,51,52,0,-17,-30,0,0,50,0,0,97,25,29,0,25,-37,0,0,30,0,0,60,31,36,0,-6,-56,0,0,30,0,1,5,51,52,0,-1,-23,0,0,30,0,0,97,25,29,0,-20,-12,0,0,65,0,470,0,42,19,0,
0,13,-28,-68,0,1,100,0,67,65,19,17,0,-14,-59,0,0,30,0,67,65,19,17,0,-21,-64,0,0,50,0,67,65,19,17,0,6,-55,0,0,100,0,0,60,31,36,0,-30,-75,0,0,100,0,1,5,51,52,0,-45,-39,0,0,100,0,0,97,25,29,0,6,-55,0,0,50,0,0,60,31,36,0,-30,-75,0,0,50,0,1,5,51,52,0,-45,-39,0,0,50,0,0,97,25,29,0,12,-44,0,0,30,0,0,60,31,36,0,-18,-64,0,0,30,0,1,5,51,52,0,-17,-30,0,0,30,0,0,97,25,29,0,-20,-12,0,0,65,0,470,0,42,19,0,
0,6,-28,-68,0,1,100,0,67,65,19,17,0,-21,-64,0,0,30,0,67,65,19,17,0,6,-55,0,0,100,0,0,60,31,36,0,-30,-75,0,0,100,0,1,5,51,52,0,-45,-39,0,0,100,0,0,97,25,29,0,-20,-12,0,0,65,0,470,0,42,19,0,
0,5,-28,-68,0,1,100,0,67,65,19,17,0,6,-55,0,0,100,0,0,60,31,36,0,-30,-75,0,0,100,0,1,5,51,52,0,-45,-39,0,0,100,0,0,97,25,29,0,-20,-12,0,0,65,0,470,0,42,19,0,
0,8,-164,-61,0,1,100,0,0,392,124,120,0,-130,-55,0,1,100,0,0,270,114,58,0,-110,-64,0,1,100,0,0,129,138,69,0,8,-76,0,0,100,0,155,59,35,36,0,-27,-79,0,1,100,0,67,65,19,17,0,-29,-87,0,0,100,0,225,5,51,52,0,-46,-62,0,0,100,0,147,97,28,29,0,-20,-12,0,0,65,0,470,0,42,19,0,
0,9,-164,-61,0,1,100,0,121,392,124,120,0,-130,-55,0,1,100,0,106,270,114,58,0,-110,-64,0,1,100,0,140,129,138,69,0,8,-76,0,0,100,0,195,59,35,36,0,-27,-79,0,1,100,0,67,65,19,17,0,-27,-79,0,1,100,0,67,65,19,17,0,-29,-87,0,0,100,0,281,5,51,52,0,-46,-62,0,0,100,0,179,97,28,29,0,-20,-12,0,0,65,0,470,0,42,19,0,
0,8,-164,-61,0,1,100,0,243,392,124,120,0,-130,-55,0,1,100,0,211,270,114,58,0,-110,-64,0,1,100,0,282,129,138,69,0,8,-76,0,0,100,0,155,59,35,36,0,-27,-79,0,1,100,0,67,65,19,17,0,-29,-87,0,0,100,0,281,5,51,52,0,-46,-62,0,0,100,0,147,97,28,29,0,-20,-12,0,0,65,0,470,0,42,19,0,
0,8,-164,-61,0,1,100,0,362,392,118,120,0,-138,-55,0,1,100,0,303,270,114,58,0,-110,-64,0,1,100,0,0,196,138,69,0,8,-76,0,0,100,0,195,59,35,36,0,-27,-79,0,1,100,0,67,65,19,17,0,-29,-87,0,0,100,0,393,5,51,52,0,-46,-62,0,0,100,0,179,97,28,29,0,-20,-12,0,0,65,0,470,0,42,19,0,
0,5,-45,-40,0,0,100,0,0,97,25,29,0,-28,-69,0,0,80,0,67,65,19,17,0,-30,-76,0,0,100,0,169,5,51,52,0,6,-56,0,0,100,0,0,60,31,36,0,-20,-12,0,0,65,0,470,0,42,19,0,
0,6,-28,-71,0,1,100,0,67,65,19,17,0,-28,-65,0,0,80,0,67,65,19,17,0,-30,-78,0,0,100,0,169,5,51,52,0,-45,-41,0,0,100,0,0,97,25,29,0,6,-57,0,0,100,0,0,60,31,36,0,-20,-12,0,0,65,0,470,0,42,19,0,
0,7,7,-61,0,0,100,0,115,59,35,36,0,-28,-76,0,1,100,0,67,65,19,17,0,-28,-62,0,0,50,0,67,65,19,17,0,-28,-70,0,0,80,0,67,65,19,17,0,-30,-83,0,0,100,0,169,5,51,52,0,-47,-47,0,0,100,0,113,97,28,29,0,-20,-12,0,0,65,0,470,0,42,19,0,
0,8,7,-64,0,0,100,0,115,59,35,36,0,-28,-77,0,1,100,0,67,65,19,17,0,-28,-60,0,0,30,0,67,65,19,17,0,-28,-66,0,0,50,0,67,65,19,17,0,-28,-72,0,0,80,0,67,65,19,17,0,-30,-84,0,0,100,0,169,5,51,52,0,-47,-50,0,0,100,0,113,97,28,29,0,-20,-12,0,0,65,0,470,0,42,19,0,
0,8,7,-70,0,0,100,0,115,59,35,36,0,-28,-80,0,1,100,0,67,65,19,17,0,-28,-71,0,0,30,0,67,65,19,17,0,-28,-74,0,0,50,0,67,65,19,17,0,-28,-77,0,0,80,0,67,65,19,17,0,-30,-87,0,0,100,0,169,5,51,52,0,-47,-56,0,0,100,0,113,97,28,29,0,-20,-12,0,0,65,0,470,0,42,19,0,
0,8,-27,-75,0,1,100,0,67,65,19,17,0,-5,-62,0,0,30,0,67,65,19,17,0,-13,-66,0,0,50,0,67,65,19,17,0,-20,-71,0,0,80,0,67,65,19,17,0,8,-71,0,0,100,0,115,59,35,36,0,-29,-82,0,0,100,0,169,5,51,52,0,-46,-57,0,0,100,0,113,97,28,29,0,-20,-12,0,0,65,0,470,0,42,19,0,
0,4,10,-54,0,0,100,0,0,60,31,36,0,-30,-75,0,0,100,0,1,5,51,52,0,-36,-40,0,0,100,0,0,97,25,29,0,-20,-12,0,0,65,0,470,0,42,19,0,
0,4,8,-71,0,0,100,0,115,59,35,36,0,-29,-82,0,0,100,0,169,5,51,52,0,-46,-57,0,0,100,0,113,97,28,29,0,-20,-12,0,0,65,0,470,0,42,19,0,
0,4,6,-55,0,0,100,0,0,60,31,36,0,-30,-75,0,0,100,0,225,5,51,52,0,-45,-39,0,0,100,0,0,97,25,29,0,-20,-12,0,0,65,0,470,0,42,19,0,
0,4,6,-55,0,0,100,0,0,60,31,36,0,-30,-75,0,0,100,0,225,5,51,52,0,-45,-39,0,0,100,0,0,97,25,29,0,-20,-12,0,0,65,0,470,0,42,19,0,
0,4,6,-55,0,0,100,0,0,60,31,36,0,-30,-75,0,0,100,0,225,5,51,52,0,-45,-39,0,0,100,0,0,97,25,29,0,-20,-12,0,0,65,0,470,0,42,19,0,
