0,2,-49,-77,0,0,100,0,0,0,96,96,0,-48,-16,0,0,65,0,480,0,96,32,0,
0,2,-49,-77,0,0,100,0,96,0,96,96,0,-48,-16,0,0,65,0,480,0,96,32,0,
0,2,-49,-77,0,0,100,0,192,0,96,96,0,-48,-16,0,0,65,0,480,0,96,32,0,
0,2,-49,-77,0,0,100,0,288,0,96,96,0,-48,-16,0,0,65,0,480,0,96,32,0,
0,2,-49,-77,0,0,100,0,384,0,96,96,0,-48,-16,0,0,65,0,480,0,96,32,0,
0,2,-49,-77,0,0,100,0,0,96,96,96,0,-48,-16,0,0,65,0,480,0,96,32,0,
0,2,-49,-77,0,0,100,0,96,96,96,96,0,-48,-16,0,0,65,0,480,0,96,32,0,
0,4,-57,-69,0,1,100,0,384,192,96,96,0,-73,-69,0,1,100,0,672,192,128,96,0,-57,-85,0,0,100,0,192,96,96,96,0,-51,-16,0,0,65,0,480,0,96,32,0,
0,4,-73,-118,0,1,100,0,480,192,96,96,0,-73,-86,0,1,100,0,800,192,128,96,0,-49,-93,0,0,100,0,288,96,96,96,0,-45,-16,0,0,65,0,480,0,96,32,0,
0,4,-34,-83,0,1,100,0,576,192,96,96,0,-58,-99,0,1,100,0,928,192,128,96,0,-50,-91,0,0,100,0,384,96,96,96,0,-44,-16,0,0,65,0,480,0,96,32,0,
0,4,-66,-100,0,1,100,0,576,416,96,64,0,-81,-93,0,1,100,0,576,288,128,128,0,-49,-93,0,0,100,0,480,96,96,96,0,-43,-16,0,0,65,0,480,0,96,32,0,
0,5,-49,-93,0,0,100,0,576,96,96,96,0,-25,-85,0,1,100,0,672,416,96,64,0,-81,-125,0,1,100,0,704,288,128,128,0,-49,-93,0,0,100,0,576,0,96,96,0,-43,-16,0,0,65,0,480,0,96,32,0,
0,5,-47,-93,0,0,100,0,0,192,96,96,0,-65,-102,0,1,100,90,768,416,96,64,0,-47,-125,0,1,100,0,832,288,96,128,0,-47,-93,0,0,100,0,384,384,96,96,0,-42,-16,0,0,65,0,480,0,96,32,0,
0,5,-36,-93,0,0,100,0,96,192,96,96,0,-35,-60,0,1,100,0,864,416,96,64,0,-35,-124,0,1,100,0,928,288,128,128,0,-36,-93,0,0,100,0,480,384,96,96,0,-39,-16,0,0,65,0,480,0,96,32,0,
0,4,23,-93,0,1,100,0,992,608,64,128,0,-1,-93,0,1,100,0,896,608,96,128,0,-25,-85,0,0,100,0,192,192,96,96,0,-24,-16,0,0,65,0,480,0,96,32,0,
0,4,-22,-137,0,1,50,0,672,0,128,160,0,-21,-102,0,1,100,0,896,736,96,128,0,-37,-77,0,0,100,0,288,192,96,96,0,-40,-16,0,0,65,0,480,0,96,32,0,
0,6,-80,-128,0,1,80,0,864,0,192,192,0,-80,-152,3,1,100,0,736,480,160,192,0,-80,-152,3,0,30,0,736,480,160,192,0,-64,-93,0,0,100,0,384,480,96,96,0,-64,-93,0,0,100,0,0,288,96,96,0,-64,-16,0,0,65,0,480,0,96,32,0,
0,5,-121,-111,3,1,100,0,672,0,128,160,0,-89,-127,0,1,100,0,480,480,128,192,0,-89,-127,0,0,30,0,480,480,128,192,0,-73,-95,0,0,100,0,96,288,96,96,0,-64,-16,0,0,65,0,480,0,96,32,0,
0,5,-125,-163,0,1,100,-180,864,0,192,192,0,-89,-133,0,1,100,0,480,480,128,192,0,-89,-133,0,0,30,0,480,480,128,192,0,-73,-101,0,0,100,0,96,288,96,96,0,-64,-16,0,0,65,0,480,0,96,32,0,
0,5,-185,-139,0,1,100,0,256,864,256,192,0,-89,-134,0,1,100,0,608,480,128,192,0,-89,-134,0,0,30,0,608,480,128,192,0,-73,-102,0,0,100,0,192,288,96,96,0,-64,-16,0,0,65,0,480,0,96,32,0,
0,5,-153,-134,0,1,100,0,0,864,256,192,0,-89,-141,0,1,100,0,608,480,128,192,0,-89,-141,0,0,20,0,608,480,128,192,0,-73,-109,0,0,100,0,192,288,96,96,0,-64,-16,0,0,65,0,480,0,96,32,0,
0,5,-145,-158,0,1,100,0,512,864,256,192,0,-89,-142,0,1,100,0,608,480,128,192,0,-89,-142,0,0,20,0,608,480,128,192,0,-73,-110,0,0,100,0,192,288,96,96,0,-64,-16,0,0,65,0,480,0,96,32,0,
0,5,-137,-150,0,1,100,0,768,864,256,192,0,-89,-157,0,1,70,0,736,480,160,192,0,-89,-157,0,0,5,0,736,480,160,192,0,-65,-125,0,0,100,0,288,288,96,96,0,-60,-16,0,0,65,0,480,0,96,32,0,
0,4,-33,-154,0,1,60,0,896,480,96,128,0,-33,-154,0,0,5,0,896,480,96,128,0,-49,-117,0,0,100,0,384,288,96,96,0,-53,-16,0,0,65,0,480,0,96,32,0,
0,2,-49,-93,0,0,100,0,480,288,96,96,0,-50,-16,0,0,65,0,480,0,96,32,0,
0,2,-49,-77,0,0,100,0,0,384,96,96,0,-48,-16,0,0,65,0,480,0,96,32,0,
0,2,-49,-77,0,0,100,0,96,384,96,96,0,-48,-16,0,0,65,0,480,0,96,32,0,
0,2,-49,-77,0,0,100,0,192,384,96,96,0,-48,-16,0,0,65,0,480,0,96,32,0,
0,2,-49,-77,0,0,100,0,288,384,96,96,0,-48,-16,0,0,65,0,480,0,96,32,0,
0,2,-49,-77,0,0,100,0,0,480,96,96,0,-48,-16,0,0,65,0,480,0,96,32,0,
0,3,-49,-69,0,1,50,0,640,768,64,64,0,-49,-77,0,0,100,0,96,480,96,96,0,-48,-16,0,0,65,0,480,0,96,32,0,
0,4,-36,-58,0,1,100,0,416,832,32,32,0,-47,-77,0,1,70,0,512,768,64,64,0,-49,-77,0,0,100,0,96,480,96,96,0,-48,-16,0,0,65,0,480,0,96,32,0,
0,5,-39,-64,0,1,100,0,416,832,32,32,0,-36,-58,0,1,100,0,384,832,32,32,0,-45,-82,0,1,100,0,448,768,64,64,0,-49,-77,0,0,100,0,192,480,96,96,0,-48,-16,0,0,65,0,480,0,96,32,0,
0,7,-43,-74,0,1,100,0,448,832,32,32,0,-32,-73,0,1,100,0,416,832,32,32,0,-39,-64,0,1,100,0,384,832,32,32,0,-36,-58,0,1,100,0,448,832,32,32,0,-40,-88,0,1,100,0,512,768,64,64,0,-49,-77,0,0,100,0,192,480,96,96,0,-48,-16,0,0,65,0,480,0,96,32,0,
0,8,-43,-74,0,1,100,0,416,832,32,32,0,-27,-85,0,1,100,0,416,832,32,32,0,-32,-73,0,1,100,0,384,832,32,32,0,-39,-64,0,1,100,0,416,832,32,32,0,-36,-58,0,1,100,0,480,832,32,32,0,-33,-93,0,1,100,0,448,768,64,64,0,-41,-77,0,0,100,0,288,480,96,96,0,-48,-16,0,0,65,0,480,0,96,32,0,
0,8,-11,-78,0,1,100,0,416,832,32,32,0,-43,-74,0,1,100,0,384,832,32,32,0,-27,-85,0,1,100,0,384,832,32,32,0,-32,-73,0,1,100,0,416,832,32,32,0,-39,-64,0,1,100,0,448,832,32,32,0,-26,-96,0,1,70,0,512,768,64,64,0,-41,-77,0,0,100,0,288,480,96,96,0,-48,-16,0,0,65,0,480,0,96,32,0,
0,9,-43,-74,0,1,100,0,416,832,32,32,0,-3,-80,0,1,100,0,416,832,32,32,0,-11,-78,0,1,100,0,384,832,32,32,0,-27,-85,0,1,100,0,416,832,32,32,0,-32,-73,0,1,100,0,448,832,32,32,0,-39,-64,0,1,100,0,480,832,32,32,0,-18,-100,0,1,20,0,384,768,64,64,0,-41,-77,0,0,100,0,0,576,96,96,0,-48,-16,0,0,65,0,480,0,96,32,0,
0,8,8,-86,0,1,100,0,448,832,32,32,0,-3,-80,0,1,100,0,384,832,32,32,0,-11,-78,0,1,100,0,416,832,32,32,0,-27,-85,0,1,100,0,448,832,32,32,0,-32,-73,0,1,100,0,480,832,32,32,0,-13,-104,0,1,5,0,512,768,64,64,0,-41,-77,0,0,100,0,0,576,96,96,0,-48,-16,0,0,65,0,480,0,96,32,0,
0,6,8,-86,0,1,100,0,416,832,32,32,0,-3,-80,0,1,100,0,416,832,32,32,0,-11,-78,0,1,100,0,448,832,32,32,0,-27,-85,0,1,100,0,480,832,32,32,0,-41,-77,0,0,100,0,96,576,96,96,0,-48,-16,0,0,65,0,480,0,96,32,0,
0,5,8,-86,0,1,100,0,448,832,32,32,0,-3,-80,0,1,100,0,448,832,32,32,0,-11,-78,0,1,100,0,480,832,32,32,0,-41,-77,0,0,100,0,96,576,96,96,0,-48,-16,0,0,65,0,480,0,96,32,0,
0,4,8,-86,0,1,100,0,480,832,32,32,0,-3,-80,0,1,100,0,480,832,32,32,0,-41,-77,0,0,100,0,192,576,96,96,0,-48,-16,0,0,65,0,480,0,96,32,0,
0,2,-41,-77,0,0,100,0,192,576,96,96,0,-48,-16,0,0,65,0,480,0,96,32,0,
0,2,-41,-77,0,0,100,0,288,576,96,96,0,-48,-16,0,0,65,0,480,0,96,32,0,
0,2,-41,-77,0,0,100,0,288,576,96,96,0,-48,-16,0,0,65,0,480,0,96,32,0,
0,2,-41,-77,0,0,100,0,0,672,96,96,0,-48,-16,0,0,65,0,480,0,96,32,0,
0,2,-41,-77,0,0,100,0,0,672,96,96,0,-48,-16,0,0,65,0,480,0,96,32,0,
0,2,-41,-77,0,0,100,0,96,672,96,96,0,-48,-16,0,0,65,0,480,0,96,32,0,
0,5,-36,-78,0,1,20,0,416,672,32,32,0,-66,-53,0,1,20,0,512,704,64,64,0,-5,-84,1,1,20,0,512,768,64,64,0,-41,-77,0,0,100,0,192,672,96,96,0,-48,-16,0,0,65,0,480,0,96,32,0,
0,9,18,-51,0,1,30,0,384,832,32,32,0,-1,-66,0,1,30,0,480,832,32,32,0,-41,-33,0,1,30,0,448,832,32,32,0,-39,-67,0,1,30,0,416,832,32,32,0,-36,-78,0,1,60,0,384,672,32,32,0,-66,-55,0,1,60,0,448,704,64,64,0,-5,-82,1,1,60,0,576,768,64,64,0,-41,-77,0,0,100,0,288,672,96,96,0,-48,-16,0,0,65,0,480,0,96,32,0,
0,8,18,-51,0,1,100,0,416,832,32,32,0,-41,-33,0,1,100,0,480,832,32,32,0,-39,-67,0,1,100,0,384,832,32,32,0,-36,-78,0,1,100,0,448,672,32,32,0,-66,-55,0,1,100,0,384,704,64,64,0,-5,-80,1,1,100,0,384,768,64,64,0,-41,-77,0,0,100,0,0,768,96,96,0,-48,-16,0,0,65,0,480,0,96,32,0,
0,7,18,-51,0,1,100,0,448,832,32,32,0,-39,-67,0,1,100,0,416,832,32,32,0,-36,-76,0,1,100,0,480,672,32,32,0,-66,-55,0,1,100,0,448,704,64,64,0,-5,-82,1,1,100,0,448,768,64,64,0,-41,-77,0,0,100,0,96,768,96,96,0,-48,-16,0,0,65,0,480,0,96,32,0,
0,7,18,-51,0,1,100,0,480,832,32,32,0,-39,-67,0,1,100,0,448,832,32,32,0,-36,-78,0,1,100,0,416,672,32,32,0,-66,-53,0,1,100,0,512,704,64,64,0,-5,-84,1,1,100,0,512,768,64,64,0,-41,-77,0,0,100,0,192,768,96,96,0,-48,-16,0,0,65,0,480,0,96,32,0,
0,7,-1,-66,0,1,100,0,416,832,32,32,0,-39,-67,0,1,100,0,480,832,32,32,0,-36,-78,0,1,100,0,384,672,32,32,0,-66,-55,0,1,100,0,448,704,64,64,0,-5,-82,1,1,100,0,576,768,64,64,0,-41,-77,0,0,100,0,288,768,96,96,0,-48,-16,0,0,65,0,480,0,96,32,0,
0,7,-1,-66,0,1,100,0,384,832,32,32,0,-41,-33,0,1,100,0,416,832,32,32,0,-36,-78,0,1,100,0,448,672,32,32,0,-66,-55,0,1,100,0,384,704,64,64,0,-5,-80,1,1,100,0,384,768,64,64,0,-41,-77,0,0,100,0,0,768,96,96,0,-48,-16,0,0,65,0,480,0,96,32,0,
0,7,-1,-66,0,1,100,0,416,832,32,32,0,-41,-33,0,1,100,0,384,832,32,32,0,-36,-76,0,1,100,0,480,672,32,32,0,-66,-55,0,1,100,0,448,704,64,64,0,-5,-82,1,1,100,0,448,768,64,64,0,-41,-77,0,0,100,0,96,768,96,96,0,-48,-16,0,0,65,0,480,0,96,32,0,
0,8,18,-51,0,1,100,0,416,832,32,32,0,-1,-66,0,1,100,0,448,832,32,32,0,-41,-33,0,1,100,0,416,832,32,32,0,-36,-78,0,1,100,0,416,672,32,32,0,-66,-53,0,1,100,0,512,704,64,64,0,-5,-84,1,1,100,0,512,768,64,64,0,-41,-77,0,0,100,0,192,768,96,96,0,-48,-16,0,0,65,0,480,0,96,32,0,
0,9,18,-51,0,1,100,0,384,832,32,32,0,-1,-66,0,1,100,0,480,832,32,32,0,-41,-33,0,1,100,0,448,832,32,32,0,-39,-67,0,1,100,0,416,832,32,32,0,-36,-78,0,1,100,0,384,672,32,32,0,-66,-55,0,1,100,0,448,704,64,64,0,-5,-82,1,1,100,0,576,768,64,64,0,-41,-77,0,0,100,0,288,768,96,96,0,-48,-16,0,0,65,0,480,0,96,32,0,
