0,4,-57,-74,0,0,100,0,0,0,112,80,0,-56,-61,0,0,100,0,224,24,96,64,0,-62,-54,0,0,100,0,224,96,128,64,0,-31,-17,0,0,65,0,224,0,64,32,0,
0,4,-58,-74,0,0,100,0,112,0,112,80,0,-56,-61,0,0,100,0,224,24,96,64,0,-62,-54,0,0,100,0,224,96,128,64,0,-31,-17,0,0,65,0,224,0,64,32,0,
0,4,-58,-74,0,0,100,0,0,80,112,80,0,-56,-61,0,0,100,0,224,24,96,64,0,-62,-54,0,0,100,0,224,96,128,64,0,-31,-17,0,0,65,0,224,0,64,32,0,
0,4,-58,-74,0,0,100,0,112,80,112,80,0,-56,-61,0,0,100,0,224,24,96,64,0,-62,-54,0,0,100,0,224,96,128,64,0,-31,-17,0,0,65,0,224,0,64,32,0,
0,4,-64,-83,0,0,100,0,256,160,120,96,0,-56,-61,0,0,100,0,224,24,96,64,0,-62,-54,0,0,100,0,224,96,128,64,0,-31,-17,0,0,65,0,224,0,64,32,0,
0,4,-34,-67,0,0,100,0,384,152,64,80,0,-56,-61,0,0,100,0,224,24,96,64,0,-62,-54,0,0,100,0,224,96,128,64,0,-31,-17,0,0,65,0,224,0,64,32,0,
0,4,-34,-67,0,0,100,0,448,152,64,72,0,-56,-61,0,0,100,0,224,24,96,64,0,-62,-54,0,0,100,0,224,96,128,64,0,-31,-17,0,0,65,0,224,0,64,32,0,
0,4,-34,-58,0,0,100,0,512,160,64,64,0,-56,-61,0,0,100,0,224,24,96,64,0,-62,-54,0,0,100,0,224,96,128,64,0,-31,-17,0,0,65,0,224,0,64,32,0,
0,4,-24,-68,0,0,100,0,576,152,64,72,0,-56,-61,0,0,100,0,224,24,96,64,0,-62,-54,0,0,100,0,224,96,128,64,0,-31,-17,0,0,65,0,224,0,64,32,0,
0,4,-24,-68,0,0,100,0,640,152,64,80,0,-56,-61,0,0,100,0,224,24,96,64,0,-62,-54,0,0,100,0,224,96,128,64,0,-31,-17,0,0,65,0,224,0,64,32,0,
0,4,-24,-65,0,0,100,0,256,248,64,72,0,-56,-61,0,0,100,0,224,24,96,64,0,-62,-54,0,0,100,0,224,96,128,64,0,-31,-17,0,0,65,0,224,0,64,32,0,
0,4,-23,-59,0,0,100,0,320,256,64,64,0,-56,-61,0,0,100,0,224,24,96,64,0,-62,-54,0,0,100,0,224,96,128,64,0,-31,-17,0,0,65,0,224,0,64,32,0,
0,4,-23,-66,0,0,100,0,384,248,64,80,0,-56,-61,0,0,100,0,224,24,96,64,0,-62,-54,0,0,100,0,224,96,128,64,0,-31,-17,0,0,65,0,224,0,64,32,0,
0,4,-23,-64,0,0,100,0,448,248,64,72,0,-56,-61,0,0,100,0,224,24,96,64,0,-62,-54,0,0,100,0,224,96,128,64,0,-31,-17,0,0,65,0,224,0,64,32,0,
0,4,-21,-57,0,0,100,0,512,256,64,72,0,-47,-58,0,0,100,0,328,0,88,72,0,-62,-54,0,0,100,0,224,96,128,64,0,-31,-17,0,0,65,0,224,0,64,32,0,
0,4,-23,-58,0,0,100,0,576,256,64,64,0,-50,-57,0,0,100,0,512,0,96,64,0,-62,-54,0,0,100,0,224,96,128,64,0,-31,-17,0,0,65,0,224,0,64,32,0,
0,4,-23,-56,0,0,100,0,640,256,64,72,0,-51,-56,0,0,100,0,608,0,96,64,0,-62,-54,0,0,100,0,224,96,128,64,0,-31,-17,0,0,65,0,224,0,64,32,0,
0,4,-26,-65,0,0,100,0,512,336,64,72,0,-56,-61,0,0,100,0,224,24,96,64,0,-62,-54,0,0,100,0,224,96,128,64,0,-31,-17,0,0,65,0,224,0,64,32,0,
0,4,-24,-68,0,0,100,0,576,336,64,72,0,-56,-61,0,0,100,0,224,24,96,64,0,-62,-54,0,0,100,0,224,96,128,64,0,-31,-17,0,0,65,0,224,0,64,32,0,
0,4,-24,-67,0,0,100,0,640,336,64,72,0,-56,-61,0,0,100,0,224,24,96,64,0,-62,-54,0,0,100,0,224,96,128,64,0,-31,-17,0,0,65,0,224,0,64,32,0,
0,4,-24,-56,0,0,100,0,512,416,64,64,0,-56,-61,0,0,100,0,224,24,96,64,0,-62,-54,0,0,100,0,224,96,128,64,0,-31,-17,0,0,65,0,224,0,64,32,0,
0,2,-78,-54,0,0,100,0,0,160,136,72,0,-31,-17,0,0,65,0,224,0,64,32,0,
0,2,-71,-58,0,0,100,0,136,160,128,72,0,-31,-17,0,0,65,0,224,0,64,32,0,
0,2,-77,-71,0,0,100,0,0,232,128,88,0,-31,-17,0,0,65,0,224,0,64,32,0,
0,2,-81,-73,0,0,100,0,128,232,128,88,0,-31,-17,0,0,65,0,224,0,64,32,0,
0,2,-159,-87,0,0,100,0,0,320,240,136,0,-31,-17,0,0,65,0,224,0,64,32,0,
0,2,-207,-107,0,0,100,0,0,456,256,160,0,-31,-17,0,0,65,0,224,0,64,32,0,
0,2,-182,-118,0,0,100,0,0,608,256,160,0,-31,-17,0,0,65,0,224,0,64,32,0,
0,2,-54,-62,0,0,100,0,0,768,128,80,0,-31,-17,0,0,65,0,224,0,64,32,0,
0,2,-67,-65,0,0,100,0,128,768,128,104,0,-31,-17,0,0,65,0,224,0,64,32,0,
0,2,-230,-82,0,0,100,0,0,864,256,128,0,-31,-17,0,0,65,0,224,0,64,32,0,
0,2,-247,-97,0,0,100,0,232,320,280,136,0,-31,-17,0,0,65,0,224,0,64,32,0,
0,2,-238,-129,0,0,100,0,248,440,264,160,0,-31,-17,0,0,65,0,224,0,64,32,0,
0,2,-224,-133,0,0,100,0,256,592,256,176,0,-31,-17,0,0,65,0,224,0,64,32,0,
0,2,-217,-137,0,0,100,0,256,752,256,176,0,-31,-17,0,0,65,0,224,0,64,32,0,
0,2,-116,-124,0,0,100,0,544,776,160,152,0,-31,-17,0,0,65,0,224,0,64,32,0,
0,2,-52,-104,0,0,100,0,576,408,128,128,0,-31,-17,0,0,65,0,224,0,64,32,0,
0,2,-82,-68,0,0,100,0,552,536,152,88,0,-31,-17,0,0,65,0,224,0,64,32,0,
0,2,-76,-81,0,0,100,0,560,616,144,88,0,-31,-17,0,0,65,0,224,0,64,32,0,
0,2,-69,-57,0,0,100,0,568,704,136,72,0,-31,-17,0,0,65,0,224,0,64,32,0,
0,4,-57,-74,0,0,100,0,0,0,112,80,0,-47,-58,0,0,100,0,328,0,88,72,0,-62,-54,0,0,100,0,224,96,128,64,0,-31,-17,0,0,65,0,224,0,64,32,0,
0,4,-58,-74,0,0,100,0,112,0,112,80,0,-51,-56,0,0,100,0,416,0,88,64,0,-62,-54,0,0,100,0,224,96,128,64,0,-31,-17,0,0,65,0,224,0,64,32,0,
0,4,-58,-74,0,0,100,0,0,80,112,80,0,-50,-57,0,0,100,0,512,0,96,64,0,-62,-54,0,0,100,0,224,96,128,64,0,-31,-17,0,0,65,0,224,0,64,32,0,
0,4,-58,-74,0,0,100,0,112,80,112,80,0,-51,-56,0,0,100,0,608,0,96,64,0,-62,-54,0,0,100,0,224,96,128,64,0,-31,-17,0,0,65,0,224,0,64,32,0,
