0,3,-34,-62,0,1,100,0,336,104,72,64,0,-26,-62,0,0,100,0,0,0,64,64,0,-20,-8,0,0,65,0,472,496,40,16,0,
0,3,-34,-62,0,1,100,0,336,168,72,64,0,-26,-62,0,0,100,0,64,0,64,64,0,-20,-8,0,0,65,0,472,496,40,16,0,
0,3,-34,-62,0,1,100,0,336,232,72,64,0,-26,-62,0,0,100,0,128,0,64,64,0,-20,-8,0,0,65,0,472,496,40,16,0,
0,3,-34,-62,0,1,100,0,336,296,72,64,0,-26,-62,0,0,100,0,192,0,64,64,0,-20,-8,0,0,65,0,472,496,40,16,0,
0,4,-7,-47,1,1,100,0,264,144,32,48,0,-35,-63,0,0,100,0,64,64,64,64,0,7,-57,0,1,100,0,296,48,40,48,0,-20,-8,0,0,65,0,472,496,40,16,0,
0,3,-34,-46,0,1,100,0,264,0,72,48,0,-26,-62,0,0,100,0,0,64,64,64,0,-20,-8,0,0,65,0,472,496,40,16,0,
0,4,-22,-74,0,1,100,0,232,200,72,72,0,-42,-46,0,1,100,0,264,48,72,48,0,-35,-63,0,0,100,0,64,64,64,64,0,-20,-8,0,0,65,0,472,496,40,16,0,
0,4,-69,-69,0,1,100,0,0,200,104,56,0,-46,-41,0,1,100,0,264,96,72,48,0,-59,-61,0,0,100,0,128,64,72,64,0,-25,-8,0,0,65,0,472,496,40,16,0,
0,4,-68,-77,0,1,100,0,0,256,56,96,0,-49,-41,0,1,100,0,264,144,72,48,0,-59,-61,0,0,100,0,128,64,72,64,0,-25,-8,0,0,65,0,472,496,40,16,0,
0,4,-58,-79,0,1,50,0,56,256,48,96,0,-48,-42,0,1,100,0,264,0,72,48,0,-51,-61,0,0,100,0,200,64,64,64,0,-25,-8,0,0,65,0,472,496,40,16,0,
0,4,-59,-54,0,1,100,0,232,200,72,72,0,-48,-42,0,1,100,0,264,48,72,48,0,-40,-63,0,0,100,0,64,64,64,64,0,-25,-8,0,0,65,0,472,496,40,16,0,
0,4,-59,-90,0,1,100,0,104,200,64,96,0,-44,-50,0,1,100,0,264,96,72,48,0,-33,-81,0,0,100,0,64,128,64,72,0,-25,-8,0,0,65,0,472,496,40,16,0,
0,4,-57,-91,0,1,100,0,168,200,64,96,0,-36,-50,1,1,100,0,264,144,72,48,0,-28,-78,0,0,100,0,64,128,64,72,0,-23,-8,0,0,65,0,472,496,40,16,0,
0,4,-56,-90,0,1,50,0,168,200,64,96,0,-32,-47,1,1,100,0,264,96,72,48,0,-27,-68,0,0,100,0,128,128,64,72,0,-20,-8,0,0,65,0,472,496,40,16,0,
0,3,-34,-46,1,1,100,0,264,0,72,48,0,-26,-62,0,0,100,0,0,0,64,64,0,-20,-8,0,0,65,0,472,496,40,16,0,
0,3,-34,-46,1,1,100,0,264,48,72,48,0,-26,-62,0,0,100,0,64,0,64,64,0,-20,-8,0,0,65,0,472,496,40,16,0,
0,3,-34,-46,1,1,100,0,264,96,72,48,0,-26,-62,0,0,100,0,128,0,64,64,0,-20,-8,0,0,65,0,472,496,40,16,0,
0,3,-34,-46,1,1,100,0,264,144,72,48,0,-26,-62,0,0,100,0,192,0,64,64,0,-20,-8,0,0,65,0,472,496,40,16,0,
0,3,-45,-49,1,1,100,0,264,48,72,48,0,-35,-63,0,0,100,0,64,64,64,64,0,-20,-8,0,0,65,0,472,496,40,16,0,
0,3,-7,-41,0,0,70,0,440,624,24,24,0,-33,-66,0,0,100,0,0,512,64,72,0,-16,-8,0,0,65,0,472,496,40,16,0,
0,3,-7,-44,0,0,65,0,464,624,24,24,0,-33,-66,0,0,100,0,64,512,64,72,0,-16,-8,0,0,65,0,472,496,40,16,0,
0,3,-7,-41,0,0,70,0,440,624,24,24,0,-33,-66,0,0,100,0,128,512,64,72,0,-16,-8,0,0,65,0,472,496,40,16,0,
0,3,-7,-44,0,0,65,0,464,624,24,24,0,-33,-66,0,0,100,0,192,512,64,72,0,-16,-8,0,0,65,0,472,496,40,16,0,
0,2,-33,-66,0,0,100,0,256,512,64,72,0,-16,-8,0,0,65,0,472,496,40,16,0,
0,2,-33,-66,0,0,100,0,320,512,64,72,0,-16,-8,0,0,65,0,472,496,40,16,0,
0,2,-33,-66,0,0,100,0,384,512,64,72,0,-16,-8,0,0,65,0,472,496,40,16,0,
0,3,-25,-46,0,0,100,0,0,584,24,24,0,-33,-42,0,0,100,0,0,608,64,48,0,-23,-8,0,0,65,0,472,496,40,16,0,
0,4,-25,-46,0,0,100,0,0,584,24,24,0,-33,-42,0,0,100,0,0,608,64,48,0,-42,-15,0,0,100,0,128,584,40,24,0,-23,-8,0,0,65,0,472,496,40,16,0,
0,4,-25,-46,0,0,100,0,40,584,24,24,0,-33,-42,0,0,100,0,0,608,64,48,0,-68,-33,0,0,100,0,128,608,64,48,0,-23,-8,0,0,65,0,472,496,40,16,0,
0,5,-25,-46,0,0,100,0,40,584,24,24,0,-32,-16,0,0,80,0,168,584,24,24,0,-33,-42,0,0,100,0,0,608,64,48,0,-81,-47,0,0,100,0,192,584,72,72,0,-23,-8,0,0,65,0,472,496,40,16,0,
0,5,-55,-23,0,0,60,0,440,584,40,40,0,-25,-45,0,0,100,0,64,584,24,24,0,-33,-42,0,0,100,0,64,608,64,48,0,-97,-49,0,0,80,0,264,584,88,72,0,-23,-8,0,0,65,0,472,496,40,16,0,
0,5,-55,-23,0,0,30,0,440,584,40,40,0,-25,-45,0,0,100,0,64,584,24,24,0,-33,-42,0,0,100,0,64,608,64,48,0,-97,-49,0,0,40,0,264,584,88,72,0,-23,-8,0,0,65,0,472,496,40,16,0,
0,3,-25,-45,0,0,100,0,104,584,24,24,0,-33,-42,0,0,100,0,64,608,64,48,0,-23,-8,0,0,65,0,472,496,40,16,0,
0,3,-25,-45,0,0,100,0,64,584,24,24,0,-33,-42,0,0,100,0,64,608,64,48,0,-23,-8,0,0,65,0,472,496,40,16,0,
0,3,-25,-45,0,0,100,0,0,584,24,24,0,-33,-42,0,0,100,0,64,608,64,48,0,-23,-8,0,0,65,0,472,496,40,16,0,
