0,18,-79,-75,0,0,80,0,0,408,152,104,0,-67,-36,0,0,100,0,768,0,88,64,0,-40,-51,0,0,100,0,840,264,40,40,0,-43,-53,0,0,100,0,64,136,64,64,0,-20,-41,0,0,100,0,856,0,56,48,0,-48,-59,0,0,100,0,0,136,64,64,0,-44,-78,0,0,100,0,0,0,64,64,0,-43,-70,0,0,100,0,0,64,72,72,0,-23,-70,0,0,100,0,840,304,40,40,0,-14,-82,0,0,100,0,64,200,64,64,0,-29,-80,0,0,100,0,0,200,64,64,0,-10,-50,0,0,100,0,144,264,56,72,0,-52,-50,0,0,100,0,88,264,56,72,0,-47,-53,0,0,100,0,0,264,88,72,0,-36,-51,0,0,100,0,1008,0,96,56,0,-15,-57,0,0,100,0,688,344,56,48,0,-77,-66,0,0,70,0,608,408,72,88,0,-47,-24,0,0,65,0,912,344,96,48,0,
0,18,-79,-75,0,0,80,0,152,408,152,104,0,-68,-36,0,0,100,0,768,0,88,64,0,-41,-51,0,0,100,0,840,264,40,40,0,-44,-53,0,0,100,0,64,136,64,64,0,-21,-41,0,0,100,0,856,0,56,48,0,-49,-59,0,0,100,0,0,136,64,64,0,-43,-78,0,0,100,0,64,0,64,64,0,-42,-70,0,0,100,0,0,64,72,72,0,-23,-71,0,0,100,0,840,304,40,40,0,-15,-84,0,0,100,0,64,200,64,64,0,-30,-81,0,0,100,0,0,200,64,64,0,-10,-50,0,0,100,0,144,264,56,72,0,-52,-50,0,0,100,0,88,264,56,72,0,-47,-53,0,0,100,0,0,264,88,72,0,-36,-51,0,0,100,0,1008,0,96,56,0,-15,-57,0,0,100,0,744,344,56,48,0,-77,-66,0,0,70,0,680,408,72,88,0,-47,-24,0,0,65,0,912,344,96,48,0,
0,18,-79,-75,0,0,80,0,304,408,152,104,0,-69,-35,0,0,100,0,768,0,88,64,0,-41,-50,0,0,100,0,840,264,40,40,0,-45,-52,0,0,100,0,64,136,64,64,0,-22,-40,0,0,100,0,856,0,56,48,0,-49,-59,0,0,100,0,0,136,64,64,0,-42,-77,0,0,100,0,128,0,64,64,0,-42,-69,0,0,100,0,0,64,72,72,0,-24,-71,0,0,100,0,840,304,40,40,0,-16,-84,0,0,100,0,64,200,64,64,0,-30,-81,0,0,100,0,0,200,64,64,0,-10,-50,0,0,100,0,256,264,56,72,0,-52,-50,0,0,100,0,200,264,56,72,0,-46,-52,0,0,100,0,0,264,88,72,0,-36,-50,0,0,100,0,1008,0,96,56,0,-15,-57,0,0,100,0,800,344,56,48,0,-77,-66,0,0,70,0,752,408,72,88,0,-47,-24,0,0,65,0,912,344,96,48,0,
0,18,-79,-75,0,0,80,0,456,408,152,104,0,-68,-35,0,0,100,0,768,0,88,64,0,-40,-50,0,0,100,0,840,264,40,40,0,-44,-52,0,0,100,0,64,136,64,64,0,-21,-40,0,0,100,0,856,0,56,48,0,-48,-58,0,0,100,0,0,136,64,64,0,-44,-77,0,0,100,0,192,0,64,64,0,-43,-69,0,0,100,0,0,64,72,72,0,-24,-70,0,0,100,0,840,304,40,40,0,-16,-82,0,0,100,0,64,200,64,64,0,-30,-80,0,0,100,0,0,200,64,64,0,-10,-50,0,0,100,0,256,264,56,72,0,-52,-50,0,0,100,0,200,264,56,72,0,-47,-52,0,0,100,0,0,264,88,72,0,-37,-50,0,0,100,0,1008,0,96,56,0,-15,-57,0,0,100,0,856,344,56,48,0,-77,-66,0,0,70,0,824,408,72,88,0,-47,-24,0,0,65,0,912,344,96,48,0,
0,14,-81,-69,0,0,100,0,792,64,96,56,0,-22,-71,0,0,100,0,960,264,40,40,0,-33,-71,0,0,100,0,192,136,64,64,0,-28,-76,0,0,100,0,128,136,64,64,0,-48,-83,0,0,100,0,512,0,64,64,0,-45,-79,0,0,100,0,432,64,72,72,0,-43,-75,0,0,100,0,1080,304,40,40,0,-78,-82,0,0,100,0,1088,200,64,64,0,-60,-84,0,0,100,0,1024,200,64,64,0,-86,-75,0,0,100,0,888,56,48,40,0,-46,-59,0,0,100,0,512,336,88,72,0,-40,-59,0,0,100,0,1008,0,96,56,0,-12,-54,0,0,100,0,712,296,64,32,0,-47,-24,0,0,65,0,912,344,96,48,0,
0,10,-26,-79,0,0,100,0,960,264,40,40,0,-38,-78,0,0,100,0,192,136,64,64,0,-33,-83,0,0,100,0,128,136,64,64,0,-48,-100,0,0,100,0,256,0,64,64,0,-54,-83,0,0,100,0,288,64,72,72,0,-61,-58,0,0,100,0,600,336,88,72,0,-52,-62,0,0,100,0,1008,0,96,56,0,-23,-55,0,0,100,0,712,264,64,32,0,-81,-87,3,0,100,0,912,0,96,56,0,-60,-24,0,0,65,0,912,344,96,48,0,
0,10,-80,-79,0,0,100,0,960,264,40,40,0,-91,-79,0,0,100,0,192,136,64,64,0,-87,-83,0,0,100,0,128,136,64,64,0,-103,-100,0,0,100,0,256,0,64,64,0,-109,-83,0,0,100,0,288,64,72,72,0,-116,-58,0,0,100,0,600,336,88,72,0,-107,-62,0,0,100,0,1008,0,96,56,0,-78,-55,0,0,100,0,712,264,64,32,0,-132,-89,3,0,100,0,912,0,96,56,0,-115,-24,0,0,65,0,912,344,96,48,0,
0,17,-122,-67,0,0,100,0,960,264,40,40,0,-135,-67,0,0,100,0,192,136,64,64,0,-130,-72,0,0,100,0,128,136,64,64,0,-147,-82,0,0,100,0,256,0,64,64,0,-138,-75,0,0,100,0,72,64,72,72,0,-105,-47,0,0,100,0,144,336,56,72,0,-95,-41,0,0,100,0,256,336,56,72,0,-143,-46,0,0,100,0,88,336,56,72,0,-143,-39,0,0,100,0,200,336,56,72,0,-142,-57,0,0,100,0,0,336,88,72,0,-124,-74,0,0,100,0,840,304,40,40,0,-120,-94,0,0,100,0,192,200,64,64,0,-128,-86,0,0,100,0,128,200,64,64,0,-123,-115,0,0,100,0,936,56,104,80,0,-131,-53,0,0,100,0,1008,0,96,56,0,-102,-46,0,0,100,0,776,264,64,32,0,-138,-24,0,0,65,0,912,344,96,48,0,
0,17,-124,-68,0,0,100,0,960,264,40,40,0,-137,-67,0,0,100,0,192,136,64,64,0,-131,-73,0,0,100,0,128,136,64,64,0,-152,-81,0,0,100,0,256,0,64,64,0,-142,-75,0,0,100,0,72,64,72,72,0,-109,-46,0,0,100,0,144,336,56,72,0,-98,-41,0,0,100,0,256,336,56,72,0,-147,-46,0,0,100,0,88,336,56,72,0,-147,-39,0,0,100,0,200,336,56,72,0,-146,-56,0,0,100,0,0,336,88,72,0,-130,-74,0,0,100,0,840,304,40,40,0,-129,-96,0,0,100,0,192,200,64,64,0,-136,-87,0,0,100,0,128,200,64,64,0,-132,-117,0,0,100,0,936,56,104,80,0,-133,-54,0,0,100,0,1008,0,96,56,0,-105,-46,0,0,100,0,712,296,64,32,0,-142,-24,0,0,65,0,912,344,96,48,0,
0,16,-246,-158,0,1,100,0,0,512,256,208,0,-108,-39,0,0,100,0,912,0,96,56,0,-133,-51,0,0,100,0,880,264,40,40,0,-122,-54,0,0,100,0,1088,136,64,64,0,-135,-58,0,0,100,0,1024,136,64,64,0,-142,-79,0,0,100,0,0,0,64,64,0,-139,-70,0,0,100,0,0,64,72,72,0,-120,-70,0,0,100,0,840,304,40,40,0,-111,-81,0,0,100,0,64,200,64,64,0,-126,-80,0,0,100,0,0,200,64,64,0,-106,-50,0,0,100,0,144,264,56,72,0,-148,-50,0,0,100,0,88,264,56,72,0,-143,-53,0,0,100,0,0,264,88,72,0,-132,-51,0,0,100,0,1008,0,96,56,0,-113,-59,0,0,100,0,688,344,56,48,0,-143,-24,0,0,65,0,912,344,96,48,0,
0,16,-254,-158,0,1,100,0,0,720,256,208,0,-107,-39,0,0,100,0,912,0,96,56,0,-133,-50,0,0,100,0,880,264,40,40,0,-121,-54,0,0,100,0,1088,136,64,64,0,-134,-57,0,0,100,0,1024,136,64,64,0,-142,-78,0,0,100,0,0,0,64,64,0,-140,-69,0,0,100,0,0,64,72,72,0,-122,-70,0,0,100,0,840,304,40,40,0,-113,-83,0,0,100,0,64,200,64,64,0,-127,-81,0,0,100,0,0,200,64,64,0,-106,-50,0,0,100,0,144,264,56,72,0,-149,-50,0,0,100,0,88,264,56,72,0,-144,-53,0,0,100,0,0,264,88,72,0,-133,-51,0,0,100,0,1008,0,96,56,0,-113,-59,0,0,100,0,744,344,56,48,0,-143,-24,0,0,65,0,912,344,96,48,0,
0,16,-254,-158,0,1,100,0,0,928,256,208,0,-106,-40,0,0,100,0,912,0,96,56,0,-132,-50,0,0,100,0,880,264,40,40,0,-120,-55,0,0,100,0,1088,136,64,64,0,-133,-57,0,0,100,0,1024,136,64,64,0,-141,-77,0,0,100,0,0,0,64,64,0,-140,-68,0,0,100,0,0,64,72,72,0,-123,-70,0,0,100,0,840,304,40,40,0,-114,-83,0,0,100,0,64,200,64,64,0,-127,-81,0,0,100,0,0,200,64,64,0,-106,-50,0,0,100,0,256,264,56,72,0,-149,-50,0,0,100,0,200,264,56,72,0,-145,-52,0,0,100,0,0,264,88,72,0,-133,-50,0,0,100,0,1008,0,96,56,0,-113,-59,0,0,100,0,800,344,56,48,0,-143,-24,0,0,65,0,912,344,96,48,0,
0,15,-107,-40,0,0,100,0,912,0,96,56,0,-133,-51,0,0,100,0,880,264,40,40,0,-121,-55,0,0,100,0,1088,136,64,64,0,-134,-58,0,0,100,0,1024,136,64,64,0,-141,-78,0,0,100,0,0,0,64,64,0,-140,-69,0,0,100,0,0,64,72,72,0,-122,-70,0,0,100,0,840,304,40,40,0,-113,-81,0,0,100,0,64,200,64,64,0,-126,-80,0,0,100,0,0,200,64,64,0,-106,-50,0,0,100,0,256,264,56,72,0,-149,-50,0,0,100,0,200,264,56,72,0,-145,-52,0,0,100,0,0,264,88,72,0,-133,-50,0,0,100,0,1008,0,96,56,0,-113,-59,0,0,100,0,856,344,56,48,0,-143,-24,0,0,65,0,912,344,96,48,0,
0,15,-116,-41,0,0,100,0,912,0,96,56,0,-140,-54,0,0,100,0,880,264,40,40,0,-130,-57,0,0,100,0,1088,136,64,64,0,-143,-60,0,0,100,0,1024,136,64,64,0,-144,-80,0,0,100,0,0,0,64,64,0,-140,-71,0,0,100,0,0,64,72,72,0,-121,-68,0,0,100,0,840,304,40,40,0,-111,-76,0,0,100,0,64,200,64,64,0,-126,-75,0,0,100,0,0,200,64,64,0,-106,-50,0,0,100,0,144,264,56,72,0,-149,-50,0,0,100,0,88,264,56,72,0,-144,-53,0,0,100,0,0,264,88,72,0,-135,-51,0,0,100,0,1008,0,96,56,0,-113,-59,0,0,100,0,744,344,56,48,0,-143,-24,0,0,65,0,912,344,96,48,0,
0,21,-208,-152,0,1,100,0,256,512,232,208,0,-236,-156,0,1,100,0,256,512,232,208,0,-264,-159,0,1,100,0,256,512,232,208,0,-137,-60,0,0,100,0,920,264,40,40,0,-166,-91,0,0,100,0,320,136,64,64,0,-156,-78,0,0,100,0,256,136,64,64,0,-143,-81,0,0,100,0,320,0,64,64,0,-141,-73,0,0,100,0,144,64,72,72,0,-109,-46,0,0,100,0,144,336,56,72,0,-100,-41,0,0,100,0,256,336,56,72,0,-148,-46,0,0,100,0,88,336,56,72,0,-148,-39,0,0,100,0,200,336,56,72,0,-147,-57,0,0,100,0,0,336,88,72,0,-116,-67,0,0,100,0,920,304,40,40,0,-136,-53,0,0,100,0,1008,0,96,56,0,-107,-46,0,0,100,0,712,264,64,32,0,-108,-66,0,0,100,0,320,200,64,64,0,-121,-74,0,0,100,0,256,200,64,64,0,-138,-48,0,0,100,0,768,0,88,64,0,-91,-53,0,0,100,0,856,0,56,48,0,-143,-24,0,0,65,0,912,344,96,48,0,
0,21,-208,-152,0,1,100,0,488,512,232,208,0,-236,-156,0,1,100,0,488,512,232,208,0,-264,-159,0,1,100,0,488,512,232,208,0,-140,-63,0,0,100,0,920,264,40,40,0,-170,-95,0,0,100,0,320,136,64,64,0,-159,-81,0,0,100,0,256,136,64,64,0,-146,-83,0,0,100,0,320,0,64,64,0,-144,-75,0,0,100,0,144,64,72,72,0,-110,-47,0,0,100,0,144,336,56,72,0,-100,-41,0,0,100,0,256,336,56,72,0,-149,-46,0,0,100,0,88,336,56,72,0,-149,-39,0,0,100,0,200,336,56,72,0,-148,-58,0,0,100,0,0,336,88,72,0,-137,-54,0,0,100,0,1008,0,96,56,0,-108,-47,0,0,100,0,776,264,64,32,0,-118,-68,0,0,100,0,920,304,40,40,0,-109,-68,0,0,100,0,320,200,64,64,0,-122,-76,0,0,100,0,256,200,64,64,0,-139,-51,0,0,100,0,768,0,88,64,0,-92,-56,0,0,100,0,856,0,56,48,0,-144,-24,0,0,65,0,912,344,96,48,0,
0,21,-208,-152,0,1,100,0,720,512,232,208,0,-236,-156,0,1,100,0,720,512,232,208,0,-264,-159,0,1,100,0,720,512,232,208,0,-139,-65,0,0,100,0,920,264,40,40,0,-169,-97,0,0,100,0,320,136,64,64,0,-159,-83,0,0,100,0,256,136,64,64,0,-146,-84,0,0,100,0,320,0,64,64,0,-144,-76,0,0,100,0,144,64,72,72,0,-111,-47,0,0,100,0,144,336,56,72,0,-100,-41,0,0,100,0,256,336,56,72,0,-149,-47,0,0,100,0,88,336,56,72,0,-149,-39,0,0,100,0,200,336,56,72,0,-148,-58,0,0,100,0,0,336,88,72,0,-137,-54,0,0,100,0,1008,0,96,56,0,-108,-47,0,0,100,0,712,296,64,32,0,-118,-67,0,0,100,0,920,304,40,40,0,-110,-68,0,0,100,0,320,200,64,64,0,-122,-75,0,0,100,0,256,200,64,64,0,-140,-51,0,0,100,0,768,0,88,64,0,-93,-56,0,0,100,0,856,0,56,48,0,-144,-24,0,0,65,0,912,344,96,48,0,
0,18,-139,-64,0,0,100,0,920,264,40,40,0,-168,-96,0,0,100,0,320,136,64,64,0,-159,-82,0,0,100,0,256,136,64,64,0,-146,-83,0,0,100,0,320,0,64,64,0,-145,-75,0,0,100,0,144,64,72,72,0,-111,-47,0,0,100,0,144,336,56,72,0,-100,-41,0,0,100,0,256,336,56,72,0,-149,-47,0,0,100,0,88,336,56,72,0,-149,-39,0,0,100,0,200,336,56,72,0,-148,-57,0,0,100,0,0,336,88,72,0,-136,-53,0,0,100,0,1008,0,96,56,0,-107,-46,0,0,100,0,776,296,64,32,0,-119,-67,0,0,100,0,920,304,40,40,0,-111,-67,0,0,100,0,320,200,64,64,0,-123,-75,0,0,100,0,256,200,64,64,0,-141,-50,0,0,100,0,768,0,88,64,0,-94,-55,0,0,100,0,856,0,56,48,0,-144,-24,0,0,65,0,912,344,96,48,0,
0,18,-134,-65,0,0,100,0,920,264,40,40,0,-162,-91,0,0,100,0,320,136,64,64,0,-154,-80,0,0,100,0,256,136,64,64,0,-141,-86,0,0,100,0,320,0,64,64,0,-140,-78,0,0,100,0,144,64,72,72,0,-109,-48,0,0,100,0,144,336,56,72,0,-99,-41,0,0,100,0,256,336,56,72,0,-147,-48,0,0,100,0,88,336,56,72,0,-148,-39,0,0,100,0,200,336,56,72,0,-146,-58,0,0,100,0,0,336,88,72,0,-134,-54,0,0,100,0,1008,0,96,56,0,-105,-47,0,0,100,0,712,264,64,32,0,-132,-69,0,0,100,0,920,304,40,40,0,-127,-71,0,0,100,0,320,200,64,64,0,-136,-77,0,0,100,0,256,200,64,64,0,-157,-54,0,0,100,0,768,0,88,64,0,-110,-59,0,0,100,0,856,0,56,48,0,-144,-24,0,0,65,0,912,344,96,48,0,
0,17,-139,-161,0,0,100,0,936,56,104,80,0,-106,-64,0,0,100,0,960,264,40,40,0,-118,-63,0,0,100,0,192,136,64,64,0,-113,-68,0,0,100,0,128,136,64,64,0,-127,-86,0,0,100,0,448,0,64,64,0,-130,-76,0,0,100,0,216,64,72,72,0,-96,-43,0,0,100,0,568,264,56,72,0,-104,-46,0,0,100,0,456,264,56,72,0,-142,-49,0,0,100,0,400,264,56,72,0,-144,-43,0,0,100,0,512,264,56,72,0,-140,-58,0,0,100,0,312,264,88,72,0,-127,-52,0,0,100,0,1008,0,96,56,0,-105,-48,0,0,100,0,776,264,64,32,0,-134,-108,0,0,100,0,1216,136,64,64,0,-136,-91,0,0,100,0,1152,136,64,64,0,-127,-75,0,0,100,0,1120,264,40,40,0,-140,-24,0,0,65,0,912,344,96,48,0,
0,17,-124,-198,0,0,100,-90,936,56,104,80,0,-103,-66,0,0,100,0,960,264,40,40,0,-114,-66,0,0,100,0,192,136,64,64,0,-110,-70,0,0,100,0,128,136,64,64,0,-125,-88,0,0,100,0,448,0,64,64,0,-129,-78,0,0,100,0,216,64,72,72,0,-96,-43,0,0,100,0,568,264,56,72,0,-103,-47,0,0,100,0,456,264,56,72,0,-141,-49,0,0,100,0,400,264,56,72,0,-144,-43,0,0,100,0,512,264,56,72,0,-139,-60,0,0,100,0,312,264,88,72,0,-126,-54,0,0,100,0,1008,0,96,56,0,-104,-50,0,0,100,0,712,296,64,32,0,-130,-111,0,0,100,0,1216,136,64,64,0,-134,-94,0,0,100,0,1152,136,64,64,0,-125,-78,0,0,100,0,1120,264,40,40,0,-140,-24,0,0,65,0,912,344,96,48,0,
0,17,-118,-201,0,0,100,-180,936,56,104,80,0,-103,-66,0,0,100,0,960,264,40,40,0,-114,-66,0,0,100,0,192,136,64,64,0,-110,-70,0,0,100,0,128,136,64,64,0,-125,-88,0,0,100,0,448,0,64,64,0,-129,-78,0,0,100,0,216,64,72,72,0,-96,-43,0,0,100,0,568,264,56,72,0,-103,-47,0,0,100,0,456,264,56,72,0,-141,-49,0,0,100,0,400,264,56,72,0,-144,-43,0,0,100,0,512,264,56,72,0,-139,-60,0,0,100,0,312,264,88,72,0,-126,-54,0,0,100,0,1008,0,96,56,0,-104,-50,0,0,100,0,712,296,64,32,0,-130,-111,0,0,100,0,1216,136,64,64,0,-134,-94,0,0,100,0,1152,136,64,64,0,-125,-78,0,0,100,0,1120,264,40,40,0,-140,-24,0,0,65,0,912,344,96,48,0,
0,17,-86,-215,0,0,100,-270,936,56,104,80,0,-103,-66,0,0,100,0,960,264,40,40,0,-114,-66,0,0,100,0,192,136,64,64,0,-110,-70,0,0,100,0,128,136,64,64,0,-125,-88,0,0,100,0,448,0,64,64,0,-129,-78,0,0,100,0,216,64,72,72,0,-96,-43,0,0,100,0,568,264,56,72,0,-103,-47,0,0,100,0,456,264,56,72,0,-141,-49,0,0,100,0,400,264,56,72,0,-144,-43,0,0,100,0,512,264,56,72,0,-139,-60,0,0,100,0,312,264,88,72,0,-126,-54,0,0,100,0,1008,0,96,56,0,-104,-50,0,0,100,0,712,296,64,32,0,-130,-111,0,0,100,0,1216,136,64,64,0,-134,-94,0,0,100,0,1152,136,64,64,0,-125,-78,0,0,100,0,1120,264,40,40,0,-140,-24,0,0,65,0,912,344,96,48,0,
0,17,-86,-170,0,0,100,0,936,56,104,80,0,-103,-66,0,0,100,0,960,264,40,40,0,-114,-66,0,0,100,0,192,136,64,64,0,-110,-70,0,0,100,0,128,136,64,64,0,-125,-88,0,0,100,0,448,0,64,64,0,-129,-78,0,0,100,0,216,64,72,72,0,-96,-43,0,0,100,0,568,264,56,72,0,-103,-47,0,0,100,0,456,264,56,72,0,-141,-49,0,0,100,0,400,264,56,72,0,-144,-43,0,0,100,0,512,264,56,72,0,-139,-60,0,0,100,0,312,264,88,72,0,-126,-54,0,0,100,0,1008,0,96,56,0,-104,-50,0,0,100,0,712,296,64,32,0,-130,-111,0,0,100,0,1216,136,64,64,0,-134,-94,0,0,100,0,1152,136,64,64,0,-125,-78,0,0,100,0,1120,264,40,40,0,-140,-24,0,0,65,0,912,344,96,48,0,
0,17,-75,-131,0,0,100,-90,936,56,104,80,0,-101,-66,0,0,100,0,960,264,40,40,0,-110,-68,0,0,100,0,192,136,64,64,0,-108,-70,0,0,100,0,128,136,64,64,0,-127,-86,0,0,100,0,448,0,64,64,0,-129,-76,0,0,100,0,216,64,72,72,0,-96,-43,0,0,100,0,568,264,56,72,0,-103,-47,0,0,100,0,456,264,56,72,0,-141,-49,0,0,100,0,400,264,56,72,0,-144,-43,0,0,100,0,512,264,56,72,0,-139,-58,0,0,100,0,312,264,88,72,0,-126,-53,0,0,100,0,1008,0,96,56,0,-104,-48,0,0,100,0,712,264,64,32,0,-134,-105,0,0,100,0,1216,136,64,64,0,-136,-88,0,0,100,0,1152,136,64,64,0,-127,-72,0,0,100,0,1120,264,40,40,0,-140,-24,0,0,65,0,912,344,96,48,0,
0,17,-107,-63,0,0,100,0,1000,264,40,40,0,-103,-67,0,0,100,0,960,136,64,64,0,-117,-71,0,0,100,0,896,136,64,64,0,-139,-79,0,0,100,0,512,0,64,64,0,-136,-75,0,0,100,0,432,64,72,72,0,-96,-43,0,0,100,0,568,264,56,72,0,-104,-46,0,0,100,0,456,264,56,72,0,-142,-49,0,0,100,0,400,264,56,72,0,-144,-43,0,0,100,0,512,264,56,72,0,-140,-58,0,0,100,0,312,264,88,72,0,-127,-52,0,0,100,0,1008,0,96,56,0,-105,-48,0,0,100,0,712,264,64,32,0,-136,-63,0,0,100,0,1000,304,40,40,0,-160,-69,0,0,100,0,960,200,64,64,0,-144,-69,0,0,100,0,896,200,64,64,0,-140,-24,0,0,65,0,912,344,96,48,0,-59,-74,0,0,100,0,1104,0,56,72,0,
0,17,-108,-61,0,0,100,0,1000,264,40,40,0,-103,-65,0,0,100,0,960,136,64,64,0,-118,-69,0,0,100,0,896,136,64,64,0,-140,-77,0,0,100,0,512,0,64,64,0,-137,-73,0,0,100,0,432,64,72,72,0,-96,-43,0,0,100,0,568,264,56,72,0,-104,-45,0,0,100,0,456,264,56,72,0,-142,-48,0,0,100,0,400,264,56,72,0,-144,-43,0,0,100,0,512,264,56,72,0,-140,-57,0,0,100,0,312,264,88,72,0,-128,-51,0,0,100,0,1008,0,96,56,0,-106,-47,0,0,100,0,776,264,64,32,0,-137,-61,0,0,100,0,1000,304,40,40,0,-162,-67,0,0,100,0,960,200,64,64,0,-145,-67,0,0,100,0,896,200,64,64,0,-140,-24,0,0,65,0,912,344,96,48,0,-59,-74,0,0,100,0,1104,0,56,72,0,
0,12,-111,-109,0,0,100,0,1040,264,40,40,0,-128,-142,0,0,100,0,448,136,64,64,0,-128,-126,0,0,100,0,384,136,64,64,0,-127,-132,0,0,100,0,384,0,64,64,0,-137,-119,0,0,100,0,288,64,72,72,0,-146,-94,0,0,100,0,600,336,88,72,0,-132,-142,0,0,100,0,448,200,64,64,0,-137,-128,0,0,100,0,384,200,64,64,0,-137,-98,0,0,100,0,1008,0,96,56,0,-108,-91,0,0,100,0,712,296,64,32,0,-142,-24,0,0,65,0,912,344,96,48,0,-59,-74,0,0,100,0,1104,0,56,72,0,
0,12,-115,-122,0,0,100,0,1040,264,40,40,0,-131,-155,0,0,100,0,448,136,64,64,0,-131,-139,0,0,100,0,384,136,64,64,0,-131,-145,0,0,100,0,384,0,64,64,0,-141,-132,0,0,100,0,288,64,72,72,0,-150,-107,0,0,100,0,600,336,88,72,0,-135,-155,0,0,100,0,448,200,64,64,0,-140,-141,0,0,100,0,384,200,64,64,0,-141,-111,0,0,100,0,1008,0,96,56,0,-112,-104,0,0,100,0,776,296,64,32,0,-144,-24,0,0,65,0,912,344,96,48,0,-59,-74,0,0,100,0,1104,0,56,72,0,
0,12,-118,-124,0,0,100,0,1040,264,40,40,0,-132,-157,0,0,100,0,448,136,64,64,0,-133,-141,0,0,100,0,384,136,64,64,0,-133,-147,0,0,100,0,384,0,64,64,0,-144,-134,0,0,100,0,288,64,72,72,0,-154,-109,0,0,100,0,600,336,88,72,0,-136,-157,0,0,100,0,448,200,64,64,0,-141,-143,0,0,100,0,384,200,64,64,0,-145,-113,0,0,100,0,1008,0,96,56,0,-116,-106,0,0,100,0,776,264,64,32,0,-148,-24,0,0,65,0,912,344,96,48,0,-59,-74,0,0,100,0,1104,0,56,72,0,
0,12,-122,-100,0,0,100,0,1040,264,40,40,0,-136,-133,0,0,100,0,448,136,64,64,0,-137,-117,0,0,100,0,384,136,64,64,0,-137,-123,0,0,100,0,384,0,64,64,0,-148,-110,0,0,100,0,288,64,72,72,0,-158,-85,0,0,100,0,600,336,88,72,0,-140,-133,0,0,100,0,448,200,64,64,0,-145,-119,0,0,100,0,384,200,64,64,0,-149,-89,0,0,100,0,1008,0,96,56,0,-120,-82,0,0,100,0,776,264,64,32,0,-155,-24,0,0,65,0,912,344,96,48,0,-59,-74,0,0,100,0,1104,0,56,72,0,
0,20,-294,-245,0,1,100,0,952,392,256,328,0,-294,-245,0,1,100,0,952,392,256,328,0,-208,-147,1,0,100,0,0,1352,144,176,0,-270,-147,0,0,100,0,0,1352,144,176,0,-273,-314,0,1,100,0,600,1104,208,344,0,-263,-227,0,0,100,0,1208,264,192,248,0,-158,-41,0,0,100,0,1040,304,48,40,0,-189,-43,0,0,100,0,576,136,64,64,0,-171,-48,0,0,100,0,512,136,64,64,0,-175,-54,0,0,100,90,256,0,64,64,0,-163,-62,0,0,100,0,360,64,72,72,0,-118,-47,0,0,100,0,456,336,56,72,0,-162,-48,0,0,100,0,400,336,56,72,0,-158,-55,0,0,100,0,312,336,88,72,0,-152,-55,0,0,100,0,1008,0,96,56,0,-125,-66,0,0,100,0,1008,344,64,48,0,-193,-46,0,0,100,0,576,200,64,64,0,-177,-52,0,0,100,0,512,200,64,64,0,-155,-24,0,0,65,0,912,344,96,48,0,-59,-74,0,0,100,0,1104,0,56,72,0,
0,21,-294,-245,0,1,100,0,952,392,256,328,0,-181,-147,1,0,100,0,144,1352,144,176,0,-293,-147,0,0,100,0,144,1352,144,176,0,-302,-480,0,1,100,0,808,720,264,512,0,-267,-236,0,0,100,0,1208,512,192,256,0,-258,-314,0,1,100,0,600,1104,208,344,0,-248,-227,0,0,100,0,1208,264,192,248,0,-160,-35,0,0,100,0,1040,304,48,40,0,-191,-35,0,0,100,0,576,136,64,64,0,-173,-42,0,0,100,0,512,136,64,64,0,-177,-50,0,0,100,90,256,0,64,64,0,-165,-58,0,0,100,0,360,64,72,72,0,-118,-47,0,0,100,0,456,336,56,72,0,-162,-48,0,0,100,0,400,336,56,72,0,-159,-53,0,0,100,0,312,336,88,72,0,-153,-53,0,0,100,0,1008,0,96,56,0,-125,-66,0,0,100,0,1008,344,64,48,0,-194,-39,0,0,100,0,576,200,64,64,0,-178,-45,0,0,100,0,512,200,64,64,0,-155,-24,0,0,65,0,912,344,96,48,0,-59,-74,0,0,100,0,1104,0,56,72,0,
0,23,-294,-245,0,1,100,0,952,392,256,328,0,-178,-147,1,0,100,0,288,1352,144,176,0,-300,-147,0,0,100,0,288,1352,144,176,0,-234,-480,0,1,100,0,1072,720,136,512,0,-265,-241,0,0,100,0,1208,768,192,264,0,-288,-314,0,1,100,0,600,1104,208,344,0,-278,-227,0,0,100,0,1208,264,192,248,0,-287,-480,0,1,100,0,808,720,264,512,0,-252,-236,0,0,100,0,1208,512,192,256,0,-161,-36,0,0,100,0,1040,304,48,40,0,-191,-36,0,0,100,0,576,136,64,64,0,-173,-42,0,0,100,0,512,136,64,64,0,-177,-51,0,0,100,90,256,0,64,64,0,-165,-59,0,0,100,0,360,64,72,72,0,-118,-47,0,0,100,0,456,336,56,72,0,-162,-48,0,0,100,0,400,336,56,72,0,-159,-53,0,0,100,0,312,336,88,72,0,-153,-53,0,0,100,0,1008,0,96,56,0,-125,-66,0,0,100,0,1072,344,64,48,0,-194,-40,0,0,100,0,576,200,64,64,0,-178,-45,0,0,100,0,512,200,64,64,0,-155,-24,0,0,65,0,912,344,96,48,0,-59,-74,0,0,100,0,1104,0,56,72,0,
0,23,-294,-245,0,1,100,0,952,392,256,328,0,-229,-263,1,1,100,0,0,1136,200,216,0,-176,-147,1,0,100,0,432,1352,144,176,0,-297,-147,0,0,100,0,432,1352,144,176,0,-266,-266,0,0,100,0,1208,1032,192,264,0,-317,-480,0,1,100,0,808,720,264,512,0,-282,-236,0,0,100,0,1208,512,192,256,0,-219,-480,0,1,100,0,1072,720,136,512,0,-250,-241,0,0,100,0,1208,768,192,264,0,-161,-36,0,0,100,0,1040,304,48,40,0,-191,-36,0,0,100,0,576,136,64,64,0,-173,-42,0,0,100,0,512,136,64,64,0,-177,-51,0,0,100,90,256,0,64,64,0,-165,-59,0,0,100,0,360,64,72,72,0,-118,-47,0,0,100,0,456,336,56,72,0,-162,-48,0,0,100,0,400,336,56,72,0,-159,-53,0,0,100,0,312,336,88,72,0,-153,-53,0,0,100,0,1008,0,96,56,0,-125,-66,0,0,100,0,1072,344,64,48,0,-194,-40,0,0,100,0,576,200,64,64,0,-178,-45,0,0,100,0,512,200,64,64,0,-155,-24,0,0,65,0,912,344,96,48,0,-59,-74,0,0,100,0,1104,0,56,72,0,
0,24,-294,-245,0,1,100,0,952,392,256,328,0,-227,-265,1,1,100,0,200,1136,200,216,0,-315,-269,0,1,100,0,0,1136,200,216,0,-308,-242,0,1,100,0,952,392,256,328,0,-176,-147,1,0,50,0,432,1352,144,176,0,-297,-147,0,0,50,0,432,1352,144,176,0,-265,-268,0,0,100,0,808,1232,192,232,0,-249,-480,0,1,100,0,1072,720,136,512,0,-280,-241,0,0,100,0,1208,768,192,264,0,-251,-266,0,0,100,0,1208,1032,192,264,0,-161,-36,0,0,100,0,1040,304,48,40,0,-191,-36,0,0,100,0,576,136,64,64,0,-173,-42,0,0,100,0,512,136,64,64,0,-177,-51,0,0,100,90,256,0,64,64,0,-165,-59,0,0,100,0,360,64,72,72,0,-118,-47,0,0,100,0,456,336,56,72,0,-162,-48,0,0,100,0,400,336,56,72,0,-159,-53,0,0,100,0,312,336,88,72,0,-153,-53,0,0,100,0,1008,0,96,56,0,-128,-47,0,0,100,0,776,296,64,32,0,-194,-40,0,0,100,0,576,200,64,64,0,-178,-45,0,0,100,0,512,200,64,64,0,-155,-24,0,0,65,0,912,344,96,48,0,-59,-74,0,0,100,0,1104,0,56,72,0,
0,20,-294,-245,0,1,70,0,952,392,256,328,0,-226,-266,1,1,100,0,400,1136,200,216,0,-317,-271,0,1,100,0,200,1136,200,216,0,-265,-270,0,0,50,0,808,1232,192,232,0,-281,-266,0,0,100,0,1208,1032,192,264,0,-250,-268,0,0,100,0,808,1232,192,232,0,-161,-36,0,0,100,0,1040,304,48,40,0,-191,-36,0,0,100,0,576,136,64,64,0,-173,-42,0,0,100,0,512,136,64,64,0,-177,-51,0,0,100,90,256,0,64,64,0,-165,-59,0,0,100,0,360,64,72,72,0,-118,-47,0,0,100,0,456,336,56,72,0,-162,-48,0,0,100,0,400,336,56,72,0,-159,-53,0,0,100,0,312,336,88,72,0,-153,-53,0,0,100,0,1008,0,96,56,0,-128,-47,0,0,100,0,776,296,64,32,0,-194,-40,0,0,100,0,576,200,64,64,0,-178,-45,0,0,100,0,512,200,64,64,0,-155,-24,0,0,65,0,912,344,96,48,0,-59,-74,0,0,100,0,1104,0,56,72,0,
0,19,-294,-245,0,1,50,0,952,392,256,328,0,-225,-267,1,1,50,0,400,1136,200,216,0,-318,-272,0,1,100,0,400,1136,200,216,0,-280,-268,0,0,100,0,808,1232,192,232,0,-250,-270,0,0,50,0,808,1232,192,232,0,-161,-36,0,0,100,0,1040,304,48,40,0,-191,-36,0,0,100,0,576,136,64,64,0,-173,-42,0,0,100,0,512,136,64,64,0,-177,-51,0,0,100,90,256,0,64,64,0,-165,-59,0,0,100,0,360,64,72,72,0,-118,-47,0,0,100,0,456,336,56,72,0,-162,-48,0,0,100,0,400,336,56,72,0,-159,-53,0,0,100,0,312,336,88,72,0,-153,-53,0,0,100,0,1008,0,96,56,0,-124,-49,0,0,100,0,1136,344,64,48,0,-194,-40,0,0,100,0,576,200,64,64,0,-178,-45,0,0,100,0,512,200,64,64,0,-155,-24,0,0,65,0,912,344,96,48,0,-59,-74,0,0,100,0,1104,0,56,72,0,
0,17,-294,-245,0,1,30,0,952,392,256,328,0,-318,-272,0,1,50,0,400,1136,200,216,0,-280,-271,0,0,50,0,808,1232,192,232,0,-161,-36,0,0,100,0,1040,304,48,40,0,-191,-36,0,0,100,0,576,136,64,64,0,-173,-42,0,0,100,0,512,136,64,64,0,-177,-51,0,0,100,90,256,0,64,64,0,-165,-59,0,0,100,0,360,64,72,72,0,-118,-47,0,0,100,0,456,336,56,72,0,-162,-48,0,0,100,0,400,336,56,72,0,-159,-53,0,0,100,0,312,336,88,72,0,-153,-53,0,0,100,0,1008,0,96,56,0,-124,-49,0,0,100,0,1136,344,64,48,0,-194,-40,0,0,100,0,576,200,64,64,0,-178,-45,0,0,100,0,512,200,64,64,0,-155,-24,0,0,65,0,912,344,96,48,0,-59,-74,0,0,100,0,1104,0,56,72,0,
0,14,-161,-36,0,0,100,0,1040,304,48,40,0,-191,-36,0,0,100,0,576,136,64,64,0,-173,-42,0,0,100,0,512,136,64,64,0,-177,-51,0,0,100,90,256,0,64,64,0,-165,-59,0,0,100,0,360,64,72,72,0,-118,-47,0,0,100,0,456,336,56,72,0,-162,-48,0,0,100,0,400,336,56,72,0,-159,-53,0,0,100,0,312,336,88,72,0,-153,-53,0,0,100,0,1008,0,96,56,0,-124,-49,0,0,100,0,1136,344,64,48,0,-194,-40,0,0,100,0,576,200,64,64,0,-178,-45,0,0,100,0,512,200,64,64,0,-155,-24,0,0,65,0,912,344,96,48,0,-59,-74,0,0,100,0,1104,0,56,72,0,
0,14,-154,-43,0,0,100,0,1040,304,48,40,0,-180,-43,0,0,100,0,576,136,64,64,0,-166,-49,0,0,100,0,512,136,64,64,0,-173,-55,0,0,100,90,256,0,64,64,0,-161,-61,0,0,100,0,360,64,72,72,0,-118,-47,0,0,100,0,456,336,56,72,0,-160,-48,0,0,100,0,400,336,56,72,0,-157,-56,0,0,100,0,312,336,88,72,0,-150,-57,0,0,100,0,1008,0,96,56,0,-122,-52,0,0,100,0,1136,344,64,48,0,-186,-44,0,0,100,0,576,200,64,64,0,-170,-49,0,0,100,0,512,200,64,64,0,-154,-24,0,0,65,0,912,344,96,48,0,-59,-74,0,0,100,0,1104,0,56,72,0,
0,11,-45,-75,0,0,100,0,960,264,40,40,0,-57,-74,0,0,100,0,192,136,64,64,0,-52,-79,0,0,100,0,128,136,64,64,0,-68,-94,0,0,100,0,256,0,64,64,0,-69,-81,0,0,100,0,288,64,72,72,0,-94,-59,0,0,100,0,624,264,88,72,0,-82,-77,0,0,100,0,960,200,64,64,0,-79,-60,0,0,100,0,1008,0,96,56,0,-89,-49,1,0,100,0,712,296,64,32,0,-59,-74,0,0,100,0,1104,0,56,72,0,-90,-24,0,0,65,0,912,344,96,48,0,
0,15,-14,-64,0,0,100,0,960,264,40,40,0,-26,-63,0,0,100,0,192,136,64,64,0,-21,-68,0,0,100,0,128,136,64,64,0,-41,-79,0,0,100,0,512,0,64,64,0,-38,-76,0,0,100,0,216,64,72,72,0,-4,-43,0,0,100,0,568,264,56,72,0,-12,-46,0,0,100,0,456,264,56,72,0,-50,-49,0,0,100,0,400,264,56,72,0,-52,-43,0,0,100,0,512,264,56,72,0,-48,-58,0,0,100,0,312,264,88,72,0,-58,-78,0,0,100,0,576,200,64,64,0,-35,-52,0,0,100,0,1008,0,96,56,0,-13,-48,0,0,100,0,712,264,64,32,0,-59,-74,0,0,100,0,1104,0,56,72,0,-47,-24,0,0,65,0,912,344,96,48,0,
0,15,-13,-64,0,0,100,0,960,264,40,40,0,-25,-63,0,0,100,0,192,136,64,64,0,-20,-68,0,0,100,0,128,136,64,64,0,-42,-78,0,0,100,0,512,0,64,64,0,-39,-75,0,0,100,0,216,64,72,72,0,-4,-43,0,0,100,0,568,264,56,72,0,-12,-46,0,0,100,0,456,264,56,72,0,-50,-49,0,0,100,0,400,264,56,72,0,-52,-43,0,0,100,0,512,264,56,72,0,-48,-57,0,0,100,0,312,264,88,72,0,-57,-78,0,0,100,0,576,200,64,64,0,-35,-51,0,0,100,0,1008,0,96,56,0,-13,-48,0,0,100,0,776,264,64,32,0,-59,-74,0,0,100,0,1104,0,56,72,0,-47,-24,0,0,65,0,912,344,96,48,0,
0,18,-12,-65,0,0,100,0,960,264,40,40,0,-24,-64,0,0,100,0,192,136,64,64,0,-19,-69,0,0,100,0,128,136,64,64,0,-35,-86,0,0,100,0,448,0,64,64,0,-38,-76,0,0,100,0,216,64,72,72,0,-4,-43,0,0,100,0,568,264,56,72,0,-12,-46,0,0,100,0,456,264,56,72,0,-50,-49,0,0,100,0,400,264,56,72,0,-52,-43,0,0,100,0,512,264,56,72,0,-48,-58,0,0,100,0,312,264,88,72,0,-35,-52,0,0,100,0,1008,0,96,56,0,-13,-48,0,0,100,0,712,296,64,32,0,-68,-122,2,0,100,0,768,0,88,64,0,-41,-101,0,0,100,0,448,200,64,64,0,-23,-103,2,0,100,0,856,0,56,48,0,-44,-91,0,0,100,0,1152,136,64,64,0,-35,-75,0,0,100,0,1120,264,40,40,0,-47,-24,0,0,65,0,912,344,96,48,0,
0,18,-11,-67,0,0,100,0,960,264,40,40,0,-21,-67,0,0,100,0,192,136,64,64,0,-17,-72,0,0,100,0,128,136,64,64,0,-34,-88,0,0,100,0,448,0,64,64,0,-37,-78,0,0,100,0,216,64,72,72,0,-4,-43,0,0,100,0,568,264,56,72,0,-11,-47,0,0,100,0,456,264,56,72,0,-49,-50,0,0,100,0,400,264,56,72,0,-52,-43,0,0,100,0,512,264,56,72,0,-47,-60,0,0,100,0,312,264,88,72,0,-35,-52,0,0,100,0,1008,0,96,56,0,-13,-48,0,0,100,0,776,296,64,32,0,-64,-124,2,0,100,0,768,0,88,64,0,-37,-103,0,0,100,0,448,200,64,64,0,-21,-105,2,0,100,0,856,0,56,48,0,-41,-93,0,0,100,0,1152,136,64,64,0,-33,-77,0,0,100,0,1120,264,40,40,0,-47,-24,0,0,65,0,912,344,96,48,0,
0,16,-67,-36,0,0,100,0,768,0,88,64,0,-40,-51,0,0,100,0,840,264,40,40,0,-43,-53,0,0,100,0,64,136,64,64,0,-20,-41,0,0,100,0,856,0,56,48,0,-48,-59,0,0,100,0,0,136,64,64,0,-44,-78,0,0,100,0,0,0,64,64,0,-43,-70,0,0,100,0,0,64,72,72,0,-23,-70,0,0,100,0,840,304,40,40,0,-14,-82,0,0,100,0,64,200,64,64,0,-29,-80,0,0,100,0,0,200,64,64,0,-10,-50,0,0,100,0,144,264,56,72,0,-52,-50,0,0,100,0,88,264,56,72,0,-47,-53,0,0,100,0,0,264,88,72,0,-36,-51,0,0,100,0,1008,0,96,56,0,-15,-57,0,0,100,0,688,344,56,48,0,-47,-24,0,0,65,0,912,344,96,48,0,
0,14,-19,-62,0,0,100,0,1080,264,40,40,0,-53,-75,0,0,100,0,704,136,64,64,0,-41,-71,0,0,100,0,640,136,64,64,0,-47,-75,0,0,100,0,704,200,64,64,0,-45,-76,0,0,100,0,512,0,64,64,0,-42,-72,0,0,100,0,432,64,72,72,0,-4,-43,0,0,100,0,568,264,56,72,0,-11,-45,0,0,100,0,456,264,56,72,0,-49,-48,0,0,100,0,400,264,56,72,0,-52,-43,0,0,100,0,512,264,56,72,0,-47,-57,0,0,100,0,312,264,88,72,0,-34,-51,0,0,100,0,1008,0,96,56,0,-12,-47,0,0,100,0,712,264,64,32,0,-47,-24,0,0,65,0,912,344,96,48,0,
0,14,-20,-65,0,0,100,0,1080,264,40,40,0,-55,-78,0,0,100,0,704,136,64,64,0,-42,-74,0,0,100,0,640,136,64,64,0,-47,-78,0,0,100,0,704,200,64,64,0,-46,-78,0,0,100,0,512,0,64,64,0,-43,-74,0,0,100,0,432,64,72,72,0,-4,-43,0,0,100,0,568,264,56,72,0,-12,-46,0,0,100,0,456,264,56,72,0,-50,-49,0,0,100,0,400,264,56,72,0,-52,-43,0,0,100,0,512,264,56,72,0,-48,-58,0,0,100,0,312,264,88,72,0,-35,-52,0,0,100,0,1008,0,96,56,0,-13,-48,0,0,100,0,776,264,64,32,0,-47,-24,0,0,65,0,912,344,96,48,0,
0,16,-10,-69,3,0,100,0,840,264,40,40,0,-40,-99,0,0,100,0,832,136,64,64,0,-26,-89,0,0,100,0,768,136,64,64,0,-41,-100,0,0,100,0,832,200,64,64,0,-33,-89,0,0,100,0,576,0,64,64,0,-37,-76,0,0,100,0,504,64,72,72,0,-4,-43,0,0,100,0,568,264,56,72,0,-12,-46,0,0,100,0,456,264,56,72,0,-50,-49,0,0,100,0,400,264,56,72,0,-52,-43,0,0,100,0,512,264,56,72,0,-49,-58,0,0,100,0,312,264,88,72,0,-37,-52,0,0,100,0,1008,0,96,56,0,-13,-49,0,0,100,0,712,296,64,32,0,-45,-86,0,0,100,0,768,200,64,64,0,-35,-68,0,0,100,0,1120,264,40,40,0,-47,-24,0,0,65,0,912,344,96,48,0,
0,16,-7,-71,3,0,100,0,840,264,40,40,0,-36,-102,0,0,100,0,832,136,64,64,0,-23,-91,0,0,100,0,768,136,64,64,0,-40,-103,0,0,100,0,832,200,64,64,0,-31,-91,0,0,100,0,576,0,64,64,0,-35,-78,0,0,100,0,504,64,72,72,0,-4,-43,0,0,100,0,568,264,56,72,0,-12,-47,0,0,100,0,456,264,56,72,0,-50,-50,0,0,100,0,400,264,56,72,0,-52,-43,0,0,100,0,512,264,56,72,0,-49,-60,0,0,100,0,312,264,88,72,0,-36,-53,0,0,100,0,1008,0,96,56,0,-11,-49,0,0,100,0,776,296,64,32,0,-43,-88,0,0,100,0,768,200,64,64,0,-34,-70,0,0,100,0,1120,264,40,40,0,-47,-24,0,0,65,0,912,344,96,48,0,
0,16,-7,-69,3,0,100,0,840,264,40,40,0,-34,-101,0,0,100,0,832,136,64,64,0,-22,-90,0,0,100,0,768,136,64,64,0,-42,-102,0,0,100,0,832,200,64,64,0,-31,-90,0,0,100,0,576,0,64,64,0,-35,-77,0,0,100,0,504,64,72,72,0,-4,-43,0,0,100,0,568,264,56,72,0,-12,-47,0,0,100,0,456,264,56,72,0,-50,-50,0,0,100,0,400,264,56,72,0,-52,-43,0,0,100,0,512,264,56,72,0,-49,-60,0,0,100,0,312,264,88,72,0,-36,-53,0,0,100,0,1008,0,96,56,0,-10,-63,0,0,100,0,688,344,56,48,0,-44,-87,0,0,100,0,768,200,64,64,0,-34,-68,0,0,100,0,1120,264,40,40,0,-47,-24,0,0,65,0,912,344,96,48,0,
0,19,-84,-49,0,1,80,0,256,888,176,80,0,-86,-111,0,1,100,0,624,968,184,136,0,-3,-68,0,0,100,0,1000,264,40,40,0,2,-72,0,0,100,0,960,136,64,64,0,-12,-76,0,0,100,0,896,136,64,64,0,-29,-88,0,0,100,0,576,0,64,64,0,-34,-76,0,0,100,0,504,64,72,72,0,-4,-43,0,0,100,0,568,264,56,72,0,-12,-46,0,0,100,0,456,264,56,72,0,-50,-49,0,0,100,0,400,264,56,72,0,-52,-43,0,0,100,0,512,264,56,72,0,-48,-58,0,0,100,0,312,264,88,72,0,-36,-49,0,0,100,0,1008,0,96,56,0,-12,-44,0,0,100,0,712,264,64,32,0,-30,-67,0,0,100,0,1000,304,40,40,0,-60,-72,0,0,100,0,960,200,64,64,0,-44,-72,0,0,100,0,896,200,64,64,0,-85,-144,0,1,50,0,256,720,168,168,0,-47,-24,0,0,65,0,912,344,96,48,0,
0,19,-90,-49,0,1,80,0,432,888,176,80,0,-86,-111,0,1,100,0,256,968,184,136,0,-3,-67,0,0,100,0,1000,264,40,40,0,1,-71,0,0,100,0,960,136,64,64,0,-12,-75,0,0,100,0,896,136,64,64,0,-29,-87,0,0,100,0,576,0,64,64,0,-34,-75,0,0,100,0,504,64,72,72,0,-4,-43,0,0,100,0,568,264,56,72,0,-12,-46,0,0,100,0,456,264,56,72,0,-50,-49,0,0,100,0,400,264,56,72,0,-52,-43,0,0,100,0,512,264,56,72,0,-48,-57,0,0,100,0,312,264,88,72,0,-36,-48,0,0,100,0,1008,0,96,56,0,-12,-45,0,0,100,0,776,264,64,32,0,-30,-66,0,0,100,0,1000,304,40,40,0,-59,-71,0,0,100,0,960,200,64,64,0,-44,-71,0,0,100,0,896,200,64,64,0,-85,-144,0,1,50,0,424,720,168,168,0,-47,-24,0,0,65,0,912,344,96,48,0,
0,19,-90,-51,0,1,80,0,608,888,176,80,0,-86,-111,0,1,100,0,440,968,184,136,0,-2,-69,0,0,100,0,1000,264,40,40,0,3,-73,0,0,100,0,960,136,64,64,0,-11,-77,0,0,100,0,896,136,64,64,0,-28,-89,0,0,100,0,576,0,64,64,0,-33,-77,0,0,100,0,504,64,72,72,0,-4,-43,0,0,100,0,568,264,56,72,0,-12,-47,0,0,100,0,456,264,56,72,0,-50,-50,0,0,100,0,400,264,56,72,0,-52,-43,0,0,100,0,512,264,56,72,0,-48,-59,0,0,100,0,312,264,88,72,0,-36,-50,0,0,100,0,1008,0,96,56,0,-12,-46,0,0,100,0,712,296,64,32,0,-29,-68,0,0,100,0,1000,304,40,40,0,-59,-73,0,0,100,0,960,200,64,64,0,-43,-73,0,0,100,0,896,200,64,64,0,-85,-144,0,1,50,0,592,720,168,168,0,-47,-24,0,0,65,0,912,344,96,48,0,
0,19,-84,-49,0,1,80,0,256,888,176,80,0,-86,-113,0,1,50,0,440,968,184,136,0,-3,-68,0,0,100,0,1000,264,40,40,0,2,-72,0,0,100,0,960,136,64,64,0,-12,-76,0,0,100,0,896,136,64,64,0,-29,-88,0,0,100,0,576,0,64,64,0,-34,-76,0,0,100,0,504,64,72,72,0,-4,-43,0,0,100,0,568,264,56,72,0,-12,-46,0,0,100,0,456,264,56,72,0,-50,-49,0,0,100,0,400,264,56,72,0,-52,-43,0,0,100,0,512,264,56,72,0,-48,-58,0,0,100,0,312,264,88,72,0,-36,-49,0,0,100,0,1008,0,96,56,0,-12,-44,0,0,100,0,712,264,64,32,0,-30,-67,0,0,100,0,1000,304,40,40,0,-60,-72,0,0,100,0,960,200,64,64,0,-44,-72,0,0,100,0,896,200,64,64,0,-85,-144,0,1,50,0,256,720,168,168,0,-47,-24,0,0,65,0,912,344,96,48,0,
0,18,-90,-49,0,1,80,0,432,888,176,80,0,-3,-67,0,0,100,0,1000,264,40,40,0,1,-71,0,0,100,0,960,136,64,64,0,-12,-75,0,0,100,0,896,136,64,64,0,-29,-87,0,0,100,0,576,0,64,64,0,-34,-75,0,0,100,0,504,64,72,72,0,-4,-43,0,0,100,0,568,264,56,72,0,-12,-46,0,0,100,0,456,264,56,72,0,-50,-49,0,0,100,0,400,264,56,72,0,-52,-43,0,0,100,0,512,264,56,72,0,-48,-57,0,0,100,0,312,264,88,72,0,-36,-48,0,0,100,0,1008,0,96,56,0,-12,-45,0,0,100,0,776,264,64,32,0,-30,-66,0,0,100,0,1000,304,40,40,0,-59,-71,0,0,100,0,960,200,64,64,0,-44,-71,0,0,100,0,896,200,64,64,0,-85,-144,0,1,50,0,424,720,168,168,0,-47,-24,0,0,65,0,912,344,96,48,0,
0,18,-90,-51,0,1,80,0,608,888,176,80,0,-2,-69,0,0,100,0,1000,264,40,40,0,3,-73,0,0,100,0,960,136,64,64,0,-11,-77,0,0,100,0,896,136,64,64,0,-28,-89,0,0,100,0,576,0,64,64,0,-33,-77,0,0,100,0,504,64,72,72,0,-4,-43,0,0,100,0,568,264,56,72,0,-12,-47,0,0,100,0,456,264,56,72,0,-50,-50,0,0,100,0,400,264,56,72,0,-52,-43,0,0,100,0,512,264,56,72,0,-48,-59,0,0,100,0,312,264,88,72,0,-36,-50,0,0,100,0,1008,0,96,56,0,-12,-46,0,0,100,0,712,296,64,32,0,-29,-68,0,0,100,0,1000,304,40,40,0,-59,-73,0,0,100,0,960,200,64,64,0,-43,-73,0,0,100,0,896,200,64,64,0,-85,-144,0,1,50,0,592,720,168,168,0,-47,-24,0,0,65,0,912,344,96,48,0,
0,18,-84,-49,0,1,80,0,256,888,176,80,0,-3,-68,0,0,100,0,1000,264,40,40,0,2,-72,0,0,100,0,960,136,64,64,0,-12,-76,0,0,100,0,896,136,64,64,0,-29,-88,0,0,100,0,576,0,64,64,0,-34,-76,0,0,100,0,504,64,72,72,0,-4,-43,0,0,100,0,568,264,56,72,0,-12,-46,0,0,100,0,456,264,56,72,0,-50,-49,0,0,100,0,400,264,56,72,0,-52,-43,0,0,100,0,512,264,56,72,0,-48,-58,0,0,100,0,312,264,88,72,0,-36,-49,0,0,100,0,1008,0,96,56,0,-12,-44,0,0,100,0,712,264,64,32,0,-30,-67,0,0,100,0,1000,304,40,40,0,-60,-72,0,0,100,0,960,200,64,64,0,-44,-72,0,0,100,0,896,200,64,64,0,-85,-144,0,1,50,0,256,720,168,168,0,-47,-24,0,0,65,0,912,344,96,48,0,
0,18,-90,-49,0,1,80,0,432,888,176,80,0,-3,-67,0,0,100,0,1000,264,40,40,0,1,-71,0,0,100,0,960,136,64,64,0,-12,-75,0,0,100,0,896,136,64,64,0,-29,-87,0,0,100,0,576,0,64,64,0,-34,-75,0,0,100,0,504,64,72,72,0,-4,-43,0,0,100,0,568,264,56,72,0,-12,-46,0,0,100,0,456,264,56,72,0,-50,-49,0,0,100,0,400,264,56,72,0,-52,-43,0,0,100,0,512,264,56,72,0,-48,-57,0,0,100,0,312,264,88,72,0,-36,-48,0,0,100,0,1008,0,96,56,0,-12,-45,0,0,100,0,776,264,64,32,0,-30,-66,0,0,100,0,1000,304,40,40,0,-59,-71,0,0,100,0,960,200,64,64,0,-44,-71,0,0,100,0,896,200,64,64,0,-85,-144,0,1,50,0,424,720,168,168,0,-47,-24,0,0,65,0,912,344,96,48,0,
0,19,-90,-51,0,1,80,0,608,888,176,80,0,-86,-110,0,1,80,0,624,968,184,136,0,-2,-69,0,0,100,0,1000,264,40,40,0,3,-73,0,0,100,0,960,136,64,64,0,-11,-77,0,0,100,0,896,136,64,64,0,-28,-89,0,0,100,0,576,0,64,64,0,-33,-77,0,0,100,0,504,64,72,72,0,-4,-43,0,0,100,0,568,264,56,72,0,-12,-47,0,0,100,0,456,264,56,72,0,-50,-50,0,0,100,0,400,264,56,72,0,-52,-43,0,0,100,0,512,264,56,72,0,-48,-59,0,0,100,0,312,264,88,72,0,-36,-50,0,0,100,0,1008,0,96,56,0,-12,-46,0,0,100,0,712,296,64,32,0,-29,-68,0,0,100,0,1000,304,40,40,0,-59,-73,0,0,100,0,960,200,64,64,0,-43,-73,0,0,100,0,896,200,64,64,0,-85,-144,0,1,50,0,592,720,168,168,0,-47,-24,0,0,65,0,912,344,96,48,0,
