0,11,-22,-30,0,0,100,0,0,0,8,8,0,33,-54,0,0,100,0,0,16,8,8,0,4,-63,0,0,100,0,328,16,40,64,0,2,-68,0,0,100,0,200,72,32,24,0,0,-42,0,0,100,0,168,32,32,48,0,-14,-76,0,0,100,0,136,80,32,40,0,-14,-52,0,0,100,0,168,80,32,40,0,-29,-44,0,0,100,0,137,32,32,48,0,-52,-65,0,0,100,0,272,32,56,40,0,-13,-79,0,0,100,0,88,104,40,40,0,-35,-17,0,0,100,0,136,0,72,30,0,
0,12,32,-33,0,0,100,0,0,16,8,8,0,39,-24,0,0,100,0,0,16,8,8,0,40,-42,0,0,100,0,0,8,8,8,0,4,-61,0,0,100,0,328,16,40,64,0,2,-66,0,0,100,0,200,72,32,24,0,0,-42,0,0,100,0,168,32,32,48,0,-14,-75,0,0,100,0,136,80,32,40,0,-14,-51,0,0,100,0,168,80,32,40,0,-29,-44,0,0,100,0,137,32,32,48,0,-52,-63,0,0,100,0,272,72,56,40,0,-13,-78,0,0,100,0,88,104,40,40,0,-35,-17,0,0,100,0,136,0,72,30,0,
0,13,31,-24,0,0,100,0,0,8,8,8,0,22,-39,0,0,100,0,0,8,8,8,0,41,-15,0,0,100,0,0,8,8,8,0,47,-33,0,0,100,0,0,0,8,8,0,4,-60,0,0,100,0,328,16,40,64,0,2,-65,0,0,100,0,200,72,32,24,0,0,-42,0,0,100,0,168,32,32,48,0,-14,-74,0,0,100,0,136,80,32,40,0,-14,-50,0,0,100,0,168,80,32,40,0,-29,-44,0,0,100,0,137,32,32,48,0,-52,-62,0,0,100,0,272,72,56,40,0,-13,-77,0,0,100,0,88,104,40,40,0,-35,-17,0,0,100,0,136,0,72,30,0,
0,12,32,-18,0,0,100,0,0,0,8,8,0,23,-34,0,0,100,0,0,0,8,8,0,42,-8,0,0,100,0,0,0,8,8,0,4,-61,0,0,100,0,328,16,40,64,0,2,-66,0,0,100,0,200,72,32,24,0,0,-42,0,0,100,0,168,32,32,48,0,-14,-75,0,0,100,0,136,80,32,40,0,-14,-51,0,0,100,0,168,80,32,40,0,-29,-44,0,0,100,0,137,32,32,48,0,-52,-63,0,0,100,0,272,72,56,40,0,-13,-78,0,0,100,0,88,104,40,40,0,-35,-17,0,0,100,0,136,0,72,30,0,
0,11,-48,-33,0,0,100,0,0,16,8,8,0,34,-30,0,0,100,0,0,0,8,8,0,4,-63,0,0,100,0,328,16,40,64,0,2,-68,0,0,100,0,200,72,32,24,0,0,-42,0,0,100,0,168,32,32,48,0,-14,-76,0,0,100,0,136,80,32,40,0,-14,-52,0,0,100,0,168,80,32,40,0,-29,-44,0,0,100,0,137,32,32,48,0,-52,-65,0,0,100,0,272,32,56,40,0,-13,-79,0,0,100,0,88,104,40,40,0,-35,-17,0,0,100,0,136,0,72,30,0,
0,12,-31,-30,0,0,100,0,0,16,8,8,0,-40,-41,0,0,100,0,0,16,8,8,0,-52,-25,0,0,100,0,0,8,8,8,0,4,-61,0,0,100,0,328,16,40,64,0,2,-66,0,0,100,0,200,72,32,24,0,0,-42,0,0,100,0,168,32,32,48,0,-14,-75,0,0,100,0,136,80,32,40,0,-14,-51,0,0,100,0,168,80,32,40,0,-29,-44,0,0,100,0,137,32,32,48,0,-52,-63,0,0,100,0,272,72,56,40,0,-13,-78,0,0,100,0,88,104,40,40,0,-35,-17,0,0,100,0,136,0,72,30,0,
0,13,-18,-39,0,0,100,0,0,8,8,8,0,-31,-23,0,0,100,0,0,8,8,8,0,-41,-32,0,0,100,0,0,8,8,8,0,-53,-14,0,0,100,0,0,0,8,8,0,4,-60,0,0,100,0,328,16,40,64,0,2,-65,0,0,100,0,200,72,32,24,0,0,-42,0,0,100,0,168,32,32,48,0,-14,-74,0,0,100,0,136,80,32,40,0,-14,-50,0,0,100,0,168,80,32,40,0,-29,-44,0,0,100,0,137,32,32,48,0,-52,-62,0,0,100,0,272,72,56,40,0,-13,-77,0,0,100,0,88,104,40,40,0,-35,-17,0,0,100,0,136,0,72,30,0,
0,12,-17,-34,0,0,100,0,0,0,8,8,0,-30,-16,0,0,100,0,0,0,8,8,0,-40,-26,0,0,100,0,0,0,8,8,0,4,-61,0,0,100,0,328,16,40,64,0,2,-66,0,0,100,0,200,72,32,24,0,0,-42,0,0,100,0,168,32,32,48,0,-14,-75,0,0,100,0,136,80,32,40,0,-14,-51,0,0,100,0,168,80,32,40,0,-29,-44,0,0,100,0,137,32,32,48,0,-52,-63,0,0,100,0,272,72,56,40,0,-13,-78,0,0,100,0,88,104,40,40,0,-35,-17,0,0,100,0,136,0,72,30,0,
0,11,-22,-30,0,0,100,0,0,0,8,8,0,35,-58,0,0,100,0,0,16,8,8,0,5,-63,0,0,100,0,328,16,40,64,0,2,-67,0,0,100,0,200,72,32,24,0,-2,-45,0,0,100,0,168,32,32,48,0,-16,-76,0,0,100,0,136,120,32,40,0,-15,-52,0,0,100,0,168,80,32,40,0,-31,-44,0,0,100,0,137,32,32,48,0,-53,-66,0,0,100,0,272,72,56,40,0,-16,-78,0,0,100,0,88,104,40,40,0,-35,-17,0,0,100,0,136,0,72,30,0,
0,12,32,-33,0,0,100,0,0,16,8,8,0,39,-24,0,0,100,0,0,16,8,8,0,44,-42,0,0,100,0,0,8,8,8,0,6,-61,0,0,100,0,328,16,40,64,0,2,-64,0,0,100,0,200,72,32,24,0,-2,-42,0,0,100,0,168,32,32,48,0,-16,-74,0,0,100,0,136,120,32,40,0,-15,-50,0,0,100,0,168,80,32,40,0,-27,-44,0,0,100,0,137,32,32,48,0,-54,-63,0,0,100,0,272,72,56,40,0,-16,-76,0,0,100,0,88,104,40,40,0,-35,-17,0,0,100,0,136,0,72,30,0,
0,14,31,-24,0,0,100,0,0,8,8,8,0,22,-39,0,0,100,0,0,8,8,8,0,41,-15,0,0,100,0,0,8,8,8,0,47,-33,0,0,100,0,0,0,8,8,0,5,-62,0,0,100,0,328,16,40,64,0,2,-66,0,0,100,0,200,72,32,24,0,-1,-42,0,0,100,0,168,32,32,48,0,-15,-75,0,0,100,0,136,120,32,40,0,-14,-51,0,0,100,0,168,80,32,40,0,-26,-44,0,0,100,0,137,32,32,48,0,-27,-44,0,0,100,0,136,32,32,48,0,-53,-65,0,0,100,0,272,72,56,40,0,-14,-77,0,0,100,0,88,104,40,40,0,-35,-17,0,0,100,0,136,0,72,30,0,
0,12,32,-18,0,0,100,0,0,0,8,8,0,23,-34,0,0,100,0,0,0,8,8,0,42,-8,0,0,100,0,0,0,8,8,0,5,-62,0,0,100,0,328,16,40,64,0,2,-66,0,0,100,0,200,72,32,24,0,-1,-42,0,0,100,0,168,32,32,48,0,-15,-75,0,0,100,0,136,120,32,40,0,-14,-51,0,0,100,0,168,80,32,40,0,-26,-44,0,0,100,0,137,32,32,48,0,-53,-65,0,0,100,0,272,72,56,40,0,-14,-77,0,0,100,0,88,104,40,40,0,-35,-17,0,0,100,0,136,0,72,30,0,
0,11,-48,-33,0,0,100,0,0,16,8,8,0,34,-30,0,0,100,0,0,0,8,8,0,1,-60,0,0,100,0,328,16,40,64,0,0,-65,0,0,100,0,200,72,32,24,0,0,-42,0,0,100,0,168,32,32,48,0,-16,-76,0,0,100,0,136,120,32,40,0,-15,-52,0,0,100,0,168,80,32,40,0,-28,-46,0,0,100,0,137,32,32,48,0,-50,-66,0,0,100,0,272,72,56,40,0,-14,-78,0,0,100,0,88,104,40,40,0,-35,-17,0,0,100,0,136,0,72,30,0,
0,12,-31,-30,0,0,100,0,0,16,8,8,0,-40,-41,0,0,100,0,0,16,8,8,0,-52,-25,0,0,100,0,0,8,8,8,0,0,-57,0,0,100,0,328,16,40,64,0,-1,-62,0,0,100,0,200,72,32,24,0,2,-42,0,0,100,0,168,32,32,48,0,-16,-73,0,0,100,0,136,120,32,40,0,-15,-49,0,0,100,0,168,80,32,40,0,-31,-44,0,0,100,0,137,32,32,48,0,-50,-63,0,0,100,0,272,72,56,40,0,-14,-75,0,0,100,0,88,104,40,40,0,-35,-17,0,0,100,0,136,0,72,30,0,
0,13,-18,-39,0,0,100,0,0,8,8,8,0,-31,-23,0,0,100,0,0,8,8,8,0,-41,-32,0,0,100,0,0,8,8,8,0,-53,-14,0,0,100,0,0,0,8,8,0,3,-60,0,0,100,0,328,16,40,64,0,1,-65,0,0,100,0,200,72,32,24,0,3,-42,0,0,100,0,168,32,32,48,0,-15,-75,0,0,100,0,136,120,32,40,0,-14,-51,0,0,100,0,168,80,32,40,0,-30,-44,0,0,100,0,137,32,32,48,0,-50,-65,0,0,100,0,272,72,56,40,0,-14,-77,0,0,100,0,88,104,40,40,0,-35,-17,0,0,100,0,136,0,72,30,0,
0,12,-17,-34,0,0,100,0,0,0,8,8,0,-30,-16,0,0,100,0,0,0,8,8,0,-40,-26,0,0,100,0,0,0,8,8,0,3,-60,0,0,100,0,328,16,40,64,0,1,-65,0,0,100,0,200,72,32,24,0,3,-42,0,0,100,0,168,32,32,48,0,-15,-75,0,0,100,0,136,120,32,40,0,-14,-51,0,0,100,0,168,80,32,40,0,-30,-44,0,0,100,0,137,32,32,48,0,-50,-65,0,0,100,0,272,72,56,40,0,-14,-77,0,0,100,0,88,104,40,40,0,-35,-17,0,0,100,0,136,0,72,30,0,
0,9,4,-62,0,0,100,0,328,16,40,64,0,2,-67,0,0,100,0,200,72,32,24,0,0,-42,0,0,100,0,168,32,32,48,0,-14,-76,0,0,100,0,136,80,32,40,0,-14,-52,0,0,100,0,168,80,32,40,0,-29,-44,0,0,100,0,137,32,32,48,0,-52,-64,0,0,100,0,272,32,56,40,0,-13,-79,0,0,100,0,88,104,40,40,0,-35,-17,0,0,100,0,136,0,72,30,0,
0,9,6,-65,0,0,100,0,328,16,40,64,0,6,-70,0,0,100,0,200,72,32,24,0,0,-42,0,0,100,0,168,32,32,48,0,-12,-78,0,0,100,0,136,80,32,40,0,-13,-54,0,0,100,0,168,80,32,40,0,-28,-47,0,0,100,0,137,32,32,48,0,-50,-66,0,0,100,0,272,32,56,40,0,-11,-81,0,0,100,0,88,104,40,40,0,-35,-17,0,0,100,0,136,0,72,30,0,
0,9,8,-66,0,0,100,0,328,16,40,64,0,8,-70,0,0,100,0,200,72,32,24,0,0,-42,0,0,100,0,168,32,32,48,0,-11,-78,0,0,100,0,136,80,32,40,0,-13,-55,0,0,100,0,168,80,32,40,0,-28,-49,0,0,100,0,137,32,32,48,0,-48,-71,0,0,100,0,272,32,56,40,0,-10,-81,0,0,100,0,88,104,40,40,0,-35,-17,0,0,100,0,136,0,72,30,0,
0,9,8,-66,0,0,100,0,328,16,40,64,0,9,-70,0,0,100,0,200,72,32,24,0,0,-42,0,0,100,0,168,32,32,48,0,-10,-78,0,0,100,0,136,80,32,40,0,-13,-55,0,0,100,0,168,80,32,40,0,-28,-50,0,0,100,0,137,32,32,48,0,-47,-72,0,0,100,0,272,32,56,40,0,-9,-81,0,0,100,0,88,104,40,40,0,-35,-17,0,0,100,0,136,0,72,30,0,
0,9,-50,-73,0,0,100,0,240,128,40,64,0,-32,-66,1,0,100,0,200,72,32,24,0,0,-42,0,0,100,0,168,32,32,48,0,-16,-70,0,0,100,0,200,96,32,32,0,-14,-52,0,0,100,0,168,80,32,40,0,-31,-48,0,0,100,0,136,32,32,48,0,0,-65,1,0,100,0,272,32,56,40,0,-22,-77,1,0,100,0,88,104,40,40,0,-35,-17,0,0,100,0,136,0,72,30,0,
0,24,-48,-25,0,0,100,0,96,48,16,24,0,-70,-23,1,0,100,0,96,48,16,24,0,-53,-33,1,0,100,0,113,56,16,16,0,-85,-33,1,0,100,0,113,56,16,24,0,-37,-40,0,0,100,0,96,48,16,24,0,-69,-54,1,0,100,0,113,56,16,16,0,-37,-13,0,0,100,0,96,48,16,24,0,-56,-13,1,0,100,0,96,48,16,24,0,-63,-34,1,0,100,0,113,56,16,16,0,-65,-20,1,0,100,0,113,56,16,24,0,-30,-16,0,0,100,0,96,48,16,24,0,-85,-129,0,0,100,0,8,352,96,144,0,-56,-40,1,0,100,0,113,56,16,16,0,-80,-14,0,0,100,0,6,160,85,32,0,-57,-56,0,0,100,0,240,128,40,64,0,-41,-55,1,0,100,0,200,72,32,24,0,-1,-42,0,0,100,0,168,32,32,48,0,-23,-66,0,0,100,0,200,96,32,32,0,-17,-49,0,0,100,0,168,80,32,40,0,-34,-45,0,0,100,0,136,32,32,48,0,-8,-61,1,0,100,0,272,32,56,40,0,-28,-71,1,0,100,0,88,104,40,40,0,-155,-78,0,0,100,0,13,244,234,100,0,-35,-17,0,0,100,0,136,0,72,30,0,
0,23,-38,-45,0,0,100,0,96,48,16,24,0,-85,-37,1,0,100,0,113,48,16,24,0,-61,-51,1,0,100,0,113,56,16,16,0,-96,-45,1,0,100,0,128,56,8,16,0,-30,-60,0,0,100,0,113,56,16,16,0,-78,-70,1,0,100,0,128,56,8,16,0,-18,-30,0,0,100,0,113,56,16,16,0,-61,-14,1,0,100,0,113,56,16,16,0,-75,-48,1,0,100,0,113,56,16,16,0,-24,-23,0,0,100,0,96,48,16,24,0,-69,-26,1,0,100,0,96,48,16,24,0,-86,-130,0,0,100,0,104,352,88,144,0,-57,-55,0,0,100,0,240,128,40,64,0,-41,-54,1,0,100,0,200,72,32,24,0,-1,-42,0,0,100,0,168,32,32,48,0,-23,-65,0,0,100,0,200,96,32,32,0,-17,-49,0,0,100,0,168,80,32,40,0,-34,-44,0,0,100,0,136,32,32,48,0,-9,-60,1,0,100,0,272,32,56,40,0,-28,-70,1,0,100,0,88,104,40,40,0,-92,-16,0,0,100,0,6,192,108,40,0,-156,-78,1,0,80,0,13,244,234,100,0,-35,-17,0,0,100,0,136,0,72,30,0,
0,20,-34,-61,0,0,100,0,113,56,16,16,0,-90,-42,1,0,100,0,128,56,8,16,0,-28,-76,0,0,100,0,128,56,8,16,0,-66,-65,1,0,100,0,128,56,8,16,0,-25,-19,0,0,100,0,128,56,8,16,0,-58,-19,1,0,100,0,128,56,8,16,0,-7,-46,0,0,100,0,113,56,16,16,0,-81,-36,1,0,100,0,113,56,16,16,0,-82,-139,0,0,100,0,200,352,80,144,0,-57,-56,0,0,100,0,240,128,40,64,0,-41,-55,1,0,100,0,200,72,32,24,0,-1,-42,0,0,100,0,168,32,32,48,0,-23,-66,0,0,100,0,200,96,32,32,0,-17,-49,0,0,100,0,168,80,32,40,0,-34,-44,0,0,100,0,136,32,32,48,0,-8,-61,1,0,100,0,272,32,56,40,0,-28,-71,1,0,100,0,88,104,40,40,0,-98,-18,0,0,100,0,119,190,119,44,0,-155,-78,0,0,50,0,13,244,234,100,0,-35,-17,0,0,100,0,136,0,72,30,0,
0,12,6,-58,0,0,100,0,128,56,8,16,0,-80,-48,1,0,100,0,128,56,8,16,0,-57,-57,0,0,100,0,240,128,40,64,0,-41,-56,1,0,100,0,200,72,32,24,0,-1,-42,0,0,100,0,168,32,32,48,0,-23,-66,0,0,100,0,200,96,32,32,0,-17,-49,0,0,100,0,168,80,32,40,0,-34,-44,0,0,100,0,136,32,32,48,0,-8,-61,1,0,100,0,272,32,56,40,0,-28,-71,1,0,100,0,88,104,40,40,0,-156,-78,1,0,30,0,13,244,234,100,0,-35,-17,0,0,100,0,136,0,72,30,0,
0,9,-57,-57,0,0,100,0,240,128,40,64,0,-41,-56,1,0,100,0,200,72,32,24,0,-1,-42,0,0,100,0,168,32,32,48,0,-23,-66,0,0,100,0,200,96,32,32,0,-17,-49,0,0,100,0,168,80,32,40,0,-34,-44,0,0,100,0,136,32,32,48,0,-8,-61,1,0,100,0,272,32,56,40,0,-28,-71,1,0,100,0,88,104,40,40,0,-35,-17,0,0,100,0,136,0,72,30,0,
0,2,-33,-85,0,0,100,0,420,8,79,92,0,-35,-17,0,0,100,0,136,0,72,30,0,
0,2,-33,-85,0,0,100,0,560,8,79,92,0,-35,-17,0,0,100,0,136,0,72,30,0,
0,2,-53,-85,0,0,100,0,400,108,95,92,0,-35,-17,0,0,100,0,136,0,72,30,0,
0,2,-65,-85,0,0,100,0,528,108,107,92,0,-35,-17,0,0,100,0,136,0,72,30,0,
0,2,-65,-85,0,0,100,0,388,208,107,92,0,-35,-17,0,0,100,0,136,0,72,30,0,
0,2,-65,-85,0,0,100,0,528,208,107,92,0,-35,-17,0,0,100,0,136,0,72,30,0,
0,2,-65,-85,0,0,100,0,388,308,107,92,0,-35,-17,0,0,100,0,136,0,72,30,0,
0,2,-65,-85,0,0,100,0,528,308,107,92,0,-35,-17,0,0,100,0,136,0,72,30,0,
