0,3,-33,-89,0,0,100,0,88,85,82,93,0,-27,-97,0,0,100,0,936,105,82,93,0,-25,-8,0,0,65,0,856,95,62,13,0,
0,3,-33,-89,0,0,100,0,188,85,82,93,0,-27,-97,0,0,100,0,936,105,82,93,0,-25,-8,0,0,65,0,856,95,62,13,0,
0,3,-33,-89,0,0,100,0,286,85,82,93,0,-27,-98,0,0,100,0,936,105,82,93,0,-25,-8,0,0,65,0,856,95,62,13,0,
0,3,-33,-89,0,0,100,0,389,85,82,93,0,-27,-98,0,0,100,0,936,105,82,93,0,-25,-8,0,0,65,0,856,95,62,13,0,
0,3,-33,-89,0,0,100,0,512,85,82,93,0,-42,-95,0,0,100,0,936,105,82,93,0,-25,-8,0,0,65,0,856,95,62,13,0,
0,4,-48,-102,0,0,100,0,742,82,85,95,0,-34,-108,0,0,100,0,618,66,82,112,0,-30,-94,0,0,100,0,936,105,82,93,0,-25,-8,0,0,65,0,856,95,62,13,0,
0,3,-34,-108,0,0,100,0,618,66,82,112,0,-30,-94,0,0,100,0,936,105,82,93,0,-25,-8,0,0,65,0,856,95,62,13,0,
0,3,-57,-90,0,0,100,0,64,202,104,93,0,-27,-97,0,0,100,0,936,105,82,93,0,-25,-8,0,0,65,0,856,95,62,13,0,
0,3,-61,-90,0,0,100,0,184,202,109,93,0,-26,-97,0,0,100,0,936,105,82,93,0,-25,-8,0,0,65,0,856,95,62,13,0,
0,3,-35,-89,0,0,100,0,320,203,85,93,0,-25,-97,0,0,100,0,936,105,82,93,0,-25,-8,0,0,65,0,856,95,62,13,0,
0,3,-36,-90,0,0,100,0,549,202,85,93,0,-25,-98,0,0,100,0,936,105,82,93,0,-25,-8,0,0,65,0,856,95,62,13,0,
0,3,-37,-90,0,0,100,0,663,202,85,93,0,-25,-98,0,0,100,0,936,105,82,93,0,-25,-8,0,0,65,0,856,95,62,13,0,
0,5,-56,-158,0,1,100,0,22,329,105,112,0,-52,-153,0,0,80,0,398,637,105,112,0,-34,-108,0,0,100,0,618,66,82,112,0,-30,-94,0,0,100,0,936,105,82,93,0,-25,-8,0,0,65,0,856,95,62,13,0,
0,5,-60,-158,0,1,100,0,141,329,118,112,0,-52,-153,0,0,80,0,398,637,105,112,0,-34,-108,0,0,100,0,618,66,82,112,0,-30,-94,0,0,100,0,936,105,82,93,0,-25,-8,0,0,65,0,856,95,62,13,0,
0,5,-60,-158,0,1,100,0,267,329,118,112,0,-52,-153,0,0,80,0,398,637,105,112,0,-34,-108,0,0,100,0,618,66,82,112,0,-30,-94,0,0,100,0,936,105,82,93,0,-25,-8,0,0,65,0,856,95,62,13,0,
0,5,-62,-158,0,1,100,0,390,329,118,112,0,-52,-153,0,0,80,0,398,637,105,112,0,-34,-108,0,0,100,0,618,66,82,112,0,-30,-94,0,0,100,0,936,105,82,93,0,-25,-8,0,0,65,0,856,95,62,13,0,
0,5,-59,-158,0,1,100,0,519,329,118,112,0,-52,-153,0,0,80,0,398,637,105,112,0,-34,-108,0,0,100,0,618,66,82,112,0,-30,-94,0,0,100,0,936,105,82,93,0,-25,-8,0,0,65,0,856,95,62,13,0,
0,5,-58,-158,0,1,100,0,649,329,118,112,0,-52,-153,0,0,80,0,398,637,105,112,0,-34,-108,0,0,100,0,618,66,82,112,0,-30,-94,0,0,100,0,936,105,82,93,0,-25,-8,0,0,65,0,856,95,62,13,0,
0,5,-58,-158,0,1,100,0,765,329,118,112,0,-52,-153,0,0,80,0,398,637,105,112,0,-34,-108,0,0,100,0,618,66,82,112,0,-30,-94,0,0,100,0,936,105,82,93,0,-25,-8,0,0,65,0,856,95,62,13,0,
0,5,-57,-158,0,1,100,0,892,329,118,112,0,-52,-153,0,0,80,0,398,637,105,112,0,-34,-108,0,0,100,0,618,66,82,112,0,-30,-94,0,0,100,0,936,105,82,93,0,-25,-8,0,0,65,0,856,95,62,13,0,
0,5,-60,-152,0,1,100,0,17,476,118,112,0,-52,-153,0,0,80,0,398,637,105,112,0,-34,-108,0,0,100,0,618,66,82,112,0,-30,-94,0,0,100,0,936,105,82,93,0,-25,-8,0,0,65,0,856,95,62,13,0,
0,5,-59,-152,0,1,100,0,142,476,118,112,0,-52,-153,0,0,80,0,398,637,105,112,0,-34,-108,0,0,100,0,618,66,82,112,0,-30,-94,0,0,100,0,936,105,82,93,0,-25,-8,0,0,65,0,856,95,62,13,0,
0,5,-61,-152,0,1,100,0,267,476,118,112,0,-52,-153,0,0,80,0,398,637,105,112,0,-34,-108,0,0,100,0,618,66,82,112,0,-30,-94,0,0,100,0,936,105,82,93,0,-25,-8,0,0,65,0,856,95,62,13,0,
0,5,-58,-152,0,1,100,0,396,476,118,112,0,-52,-153,0,0,80,0,398,637,105,112,0,-34,-108,0,0,100,0,618,66,82,112,0,-30,-94,0,0,100,0,936,105,82,93,0,-25,-8,0,0,65,0,856,95,62,13,0,
0,5,-58,-152,0,1,100,0,520,476,118,112,0,-52,-153,0,0,80,0,398,637,105,112,0,-34,-108,0,0,100,0,618,66,82,112,0,-30,-94,0,0,100,0,936,105,82,93,0,-25,-8,0,0,65,0,856,95,62,13,0,
0,5,-59,-152,0,1,100,0,648,476,118,112,0,-52,-153,0,0,80,0,398,637,105,112,0,-34,-108,0,0,100,0,618,66,82,112,0,-30,-94,0,0,100,0,936,105,82,93,0,-25,-8,0,0,65,0,856,95,62,13,0,
0,5,-60,-152,0,1,100,0,768,476,118,112,0,-52,-153,0,0,80,0,398,637,105,112,0,-34,-108,0,0,100,0,618,66,82,112,0,-30,-94,0,0,100,0,936,105,82,93,0,-25,-8,0,0,65,0,856,95,62,13,0,
0,5,-61,-152,0,1,100,0,887,476,118,112,0,-52,-153,0,0,80,0,398,637,105,112,0,-34,-108,0,0,100,0,618,66,82,112,0,-30,-94,0,0,100,0,936,105,82,93,0,-25,-8,0,0,65,0,856,95,62,13,0,
0,5,-56,-157,0,1,100,0,21,625,118,112,0,-52,-153,0,0,80,0,398,637,105,112,0,-34,-108,0,0,100,0,618,66,82,112,0,-30,-94,0,0,100,0,936,105,82,93,0,-25,-8,0,0,65,0,856,95,62,13,0,
0,5,-57,-157,0,1,100,0,145,625,118,112,0,-52,-153,0,0,80,0,398,637,105,112,0,-34,-108,0,0,100,0,618,66,82,112,0,-30,-94,0,0,100,0,936,105,82,93,0,-25,-8,0,0,65,0,856,95,62,13,0,
0,5,-63,-157,0,1,100,0,265,625,118,112,0,-52,-153,0,0,80,0,398,637,105,112,0,-34,-108,0,0,100,0,618,66,82,112,0,-30,-94,0,0,100,0,936,105,82,93,0,-25,-8,0,0,65,0,856,95,62,13,0,
0,3,-36,-90,0,0,100,0,757,202,85,93,0,-25,-97,0,0,100,0,936,105,82,93,0,-25,-8,0,0,65,0,856,95,62,13,0,
0,3,-36,-90,0,0,100,0,844,202,85,95,0,-25,-96,0,0,100,0,936,105,82,93,0,-25,-8,0,0,65,0,856,95,62,13,0,
0,3,-36,-90,0,0,100,0,933,202,85,95,0,-25,-97,0,0,100,0,936,105,82,93,0,-25,-8,0,0,65,0,856,95,62,13,0,
0,4,-48,-102,0,0,50,0,742,82,85,95,0,-34,-108,0,0,100,0,618,66,82,112,0,-30,-94,0,0,100,0,936,105,82,93,0,-25,-8,0,0,65,0,856,95,62,13,0,
