0,3,-88,-80,0,0,100,0,0,0,144,88,0,-33,-94,0,0,80,0,0,88,80,72,0,-24,-9,0,0,100,0,720,0,48,16,0,
0,3,-88,-80,0,0,100,0,0,0,144,88,0,-33,-94,0,0,80,0,80,88,80,72,0,-24,-9,0,0,100,0,720,0,48,16,0,
0,3,-89,-80,0,0,100,0,144,0,144,88,0,-33,-94,0,0,80,0,160,88,80,72,0,-24,-9,0,0,100,0,720,0,48,16,0,
0,3,-89,-80,0,0,100,0,144,0,144,88,0,-33,-94,0,0,80,0,240,88,80,72,0,-24,-9,0,0,100,0,720,0,48,16,0,
0,3,-90,-80,0,0,100,0,288,0,144,88,0,-33,-94,0,0,80,0,320,88,80,72,0,-24,-9,0,0,100,0,720,0,48,16,0,
0,3,-90,-80,0,0,100,0,288,0,144,88,0,-33,-94,0,0,80,0,400,88,80,72,0,-24,-9,0,0,100,0,720,0,48,16,0,
0,3,-91,-80,0,0,100,0,432,0,144,88,0,-33,-94,0,0,80,0,480,88,80,72,0,-24,-9,0,0,100,0,720,0,48,16,0,
0,3,-92,-80,0,0,100,0,576,0,144,88,0,-33,-94,0,0,80,0,560,88,80,72,0,-24,-9,0,0,100,0,720,0,48,16,0,
0,3,-92,-80,0,0,100,0,576,0,144,88,0,-33,-94,0,0,80,0,640,88,80,72,0,-24,-9,0,0,100,0,720,0,48,16,0,
0,3,-92,-80,0,0,100,0,576,0,144,88,0,-33,-94,0,0,80,0,720,88,80,72,0,-24,-9,0,0,100,0,720,0,48,16,0,
0,3,-92,-80,0,0,100,0,576,0,144,88,0,-33,-94,0,0,80,0,800,88,80,72,0,-24,-9,0,0,100,0,720,0,48,16,0,
0,3,-92,-80,0,0,100,0,576,0,144,88,0,-33,-94,0,0,80,0,880,88,80,72,0,-24,-9,0,0,100,0,720,0,48,16,0,
0,5,-2,-67,0,0,100,0,720,16,48,72,0,-89,-51,0,0,100,0,768,0,72,48,0,-43,-76,0,0,100,0,0,160,80,80,0,-33,-94,0,0,80,0,0,88,80,72,0,-24,-9,0,0,100,0,720,0,48,16,0,
0,5,-2,-67,0,0,100,0,720,16,48,72,0,-89,-51,0,0,100,0,768,0,72,48,0,-43,-76,0,0,100,0,0,160,80,80,0,-33,-94,0,0,80,0,80,88,80,72,0,-24,-9,0,0,100,0,720,0,48,16,0,
0,5,-2,-67,0,0,100,0,720,16,48,72,0,-89,-51,0,0,100,0,768,0,72,48,0,-44,-76,0,0,100,0,80,160,80,80,0,-33,-94,0,0,80,0,160,88,80,72,0,-24,-9,0,0,100,0,720,0,48,16,0,
0,5,-2,-69,0,0,100,0,720,16,48,72,0,-89,-54,0,0,100,0,768,0,72,48,0,-45,-76,0,0,100,0,160,160,80,80,0,-33,-94,0,0,80,0,240,88,80,72,0,-24,-9,0,0,100,0,720,0,48,16,0,
0,5,-3,-71,0,0,100,0,720,16,48,72,0,-87,-56,0,0,100,0,768,0,72,48,0,-44,-76,0,0,100,0,240,160,80,80,0,-33,-94,0,0,80,0,320,88,80,72,0,-24,-9,0,0,100,0,720,0,48,16,0,
0,5,-3,-66,0,0,100,0,720,16,48,72,0,-87,-51,0,0,100,0,768,0,72,48,0,-44,-76,0,0,100,0,320,160,80,80,0,-33,-94,0,0,80,0,400,88,80,72,0,-24,-9,0,0,100,0,720,0,48,16,0,
0,5,-3,-66,0,0,100,0,720,16,48,72,0,-87,-51,0,0,100,0,768,0,72,48,0,-44,-76,0,0,100,0,400,160,80,80,0,-33,-94,0,0,80,0,480,88,80,72,0,-24,-9,0,0,100,0,720,0,48,16,0,
0,5,-3,-66,0,0,100,0,720,16,48,72,0,-87,-51,0,0,100,0,768,0,72,48,0,-43,-76,0,0,100,0,480,160,80,80,0,-33,-94,0,0,80,0,640,88,80,72,0,-24,-9,0,0,100,0,720,0,48,16,0,
0,5,-3,-69,0,0,100,0,720,16,48,72,0,-88,-54,0,0,100,0,768,0,72,48,0,-44,-76,0,0,100,0,560,160,80,80,0,-33,-94,0,0,80,0,800,168,80,72,0,-24,-9,0,0,100,0,720,0,48,16,0,
0,5,-2,-71,0,0,100,0,720,16,48,72,0,-88,-55,0,0,100,0,768,0,72,48,0,-45,-76,0,0,100,0,640,160,80,80,0,-33,-94,0,0,80,0,880,88,80,72,0,-24,-9,0,0,100,0,720,0,48,16,0,
0,5,-41,-71,0,0,80,0,0,504,80,64,0,-28,-113,0,0,80,0,0,432,80,72,0,-51,-67,0,0,100,0,720,16,48,72,0,-34,-117,0,0,100,0,0,312,80,120,0,-24,-9,0,0,100,0,720,0,48,16,0,
0,5,-38,-70,0,0,80,0,80,504,80,64,0,-23,-107,0,0,80,0,80,432,80,72,0,-49,-65,0,0,100,0,720,16,48,72,0,-29,-117,0,0,100,0,80,312,80,120,0,-24,-9,0,0,100,0,720,0,48,16,0,
0,5,-39,-80,0,0,80,0,160,504,80,64,0,-16,-118,0,0,80,0,160,432,80,72,0,-49,-65,0,0,100,0,720,16,48,72,0,-29,-117,0,0,100,0,80,312,80,120,0,-24,-9,0,0,100,0,720,0,48,16,0,
0,5,-35,-82,0,0,80,0,240,504,88,64,0,-14,-124,0,0,80,0,240,432,80,72,0,-49,-65,0,0,100,0,720,16,48,72,0,-29,-117,0,0,100,0,240,312,80,120,0,-24,-9,0,0,100,0,720,0,48,16,0,
0,5,-38,-97,0,0,80,0,328,504,72,64,0,-15,-123,0,0,80,0,320,432,80,72,0,-49,-65,0,0,100,0,720,16,48,72,0,-29,-117,0,0,100,0,320,312,80,120,0,-24,-9,0,0,100,0,720,0,48,16,0,
0,7,-131,-67,0,0,80,0,0,568,80,64,0,-150,-70,0,0,100,0,88,616,96,72,0,-118,-48,0,0,100,0,720,240,88,40,0,-12,-68,0,0,100,0,896,16,64,72,0,-53,-117,0,0,100,0,400,312,80,120,0,-38,-96,0,0,80,0,400,432,80,72,0,-35,-9,0,0,100,0,720,0,48,16,0,
0,7,-103,-81,0,0,80,0,0,632,80,104,0,-192,-118,0,0,100,0,296,568,176,176,0,-153,-48,0,0,100,0,720,240,88,40,0,-42,-68,0,0,100,0,848,16,48,72,0,-89,-117,0,0,100,0,480,312,80,120,0,-74,-96,0,0,80,0,480,432,80,72,0,-66,-9,0,0,100,0,720,0,48,16,0,
0,6,-194,-126,0,0,100,0,544,560,184,200,0,-156,-48,0,0,100,0,720,240,88,40,0,-45,-68,0,0,100,0,848,16,48,72,0,-92,-117,0,0,100,0,480,312,80,120,0,-77,-96,0,0,80,0,560,432,80,72,0,-71,-9,0,0,100,0,720,0,48,16,0,
0,6,-188,-126,0,0,100,0,800,560,160,200,0,-158,-47,0,0,100,0,768,48,80,40,0,-48,-68,0,0,100,0,848,16,48,72,0,-95,-117,0,0,100,0,640,312,80,120,0,-80,-96,0,0,80,0,640,432,80,72,0,-73,-9,0,0,100,0,720,0,48,16,0,
0,6,-176,-46,0,0,40,0,720,280,80,32,0,-158,-47,0,0,100,0,768,48,80,40,0,-48,-68,0,0,100,0,848,16,48,72,0,-95,-117,0,0,100,0,720,312,80,120,0,-80,-96,0,0,80,0,720,432,80,72,0,-73,-9,0,0,100,0,720,0,48,16,0,
0,5,-158,-47,0,0,100,0,768,48,80,40,0,-48,-68,0,0,100,0,848,16,48,72,0,-95,-117,0,0,100,0,800,312,80,120,0,-80,-96,0,0,80,0,800,432,80,72,0,-73,-9,0,0,100,0,720,0,48,16,0,
0,5,-158,-47,0,0,100,0,768,48,80,40,0,-48,-68,0,0,100,0,848,16,48,72,0,-95,-117,0,0,100,0,880,312,80,120,0,-80,-96,0,0,80,0,880,432,80,72,0,-73,-9,0,0,100,0,720,0,48,16,0,
0,3,-119,-108,0,0,100,0,200,780,200,120,0,-119,-108,0,0,80,0,200,1140,200,120,0,-24,-9,0,0,100,0,720,0,48,16,0,
0,3,-119,-108,0,0,100,0,200,780,200,120,0,-119,-108,0,0,80,0,400,1140,200,120,0,-24,-9,0,0,100,0,720,0,48,16,0,
0,3,-119,-108,0,0,100,0,600,780,200,120,0,-119,-108,0,0,80,0,600,1140,200,120,0,-24,-9,0,0,100,0,720,0,48,16,0,
0,3,-119,-108,0,0,100,0,800,780,200,120,0,-119,-108,0,0,80,0,800,1140,200,120,0,-24,-9,0,0,100,0,720,0,48,16,0,
0,3,-119,-108,0,0,100,0,1000,780,200,120,0,-119,-108,0,0,80,0,1000,1140,200,120,0,-24,-9,0,0,100,0,720,0,48,16,0,
0,3,-119,-108,0,0,100,0,1200,780,200,120,0,-119,-108,0,0,80,0,1200,1140,200,120,0,-24,-9,0,0,100,0,720,0,48,16,0,
0,3,-119,-108,0,0,100,0,0,900,200,120,0,-119,-108,0,0,80,0,0,1260,200,120,0,-24,-9,0,0,100,0,720,0,48,16,0,
0,3,-119,-108,0,0,100,0,200,900,200,120,0,-119,-108,0,0,80,0,200,1260,200,120,0,-24,-9,0,0,100,0,720,0,48,16,0,
0,3,-119,-108,0,0,100,0,1016,0,200,120,0,-119,-108,0,0,80,0,1416,0,200,120,0,-24,-9,0,0,100,0,720,0,48,16,0,
0,3,-119,-108,0,0,100,0,1216,0,200,120,0,-119,-108,0,0,80,0,1616,0,200,120,0,-24,-9,0,0,100,0,720,0,48,16,0,
0,3,-119,-108,0,0,100,0,1016,120,200,120,0,-119,-108,0,0,80,0,1416,120,200,120,0,-24,-9,0,0,100,0,720,0,48,16,0,
0,3,-119,-108,0,0,100,0,1216,120,200,120,0,-119,-108,0,0,80,0,1616,120,200,120,0,-24,-9,0,0,100,0,720,0,48,16,0,
0,3,-119,-108,0,0,100,0,1016,240,200,120,0,-119,-108,0,0,80,0,1416,240,200,120,0,-24,-9,0,0,100,0,720,0,48,16,0,
0,3,-119,-108,0,0,100,0,1216,240,200,120,0,-119,-108,0,0,80,0,1616,240,200,120,0,-24,-9,0,0,100,0,720,0,48,16,0,
0,3,-119,-108,0,0,100,0,1016,360,200,120,0,-119,-108,0,0,80,0,1416,360,200,120,0,-24,-9,0,0,100,0,720,0,48,16,0,
0,3,-119,-108,0,0,100,0,1216,360,200,120,0,-119,-108,0,0,80,0,1616,360,200,120,0,-24,-9,0,0,100,0,720,0,48,16,0,
0,3,-119,-108,0,0,100,0,600,900,200,120,0,-119,-108,0,0,80,0,600,1260,200,120,0,-24,-9,0,0,100,0,720,0,48,16,0,
0,3,-119,-108,0,0,100,0,800,900,200,120,0,-119,-108,0,0,80,0,800,1260,200,120,0,-24,-9,0,0,100,0,720,0,48,16,0,
0,3,-119,-108,0,0,100,0,1000,900,200,120,0,-119,-108,0,0,80,0,1000,1260,200,120,0,-24,-9,0,0,100,0,720,0,48,16,0,
0,3,-119,-108,0,0,100,0,1200,900,200,120,0,-119,-108,0,0,80,0,1200,1260,200,120,0,-24,-9,0,0,100,0,720,0,48,16,0,
0,3,-119,-108,0,0,100,0,400,1020,200,120,0,-119,-108,0,0,80,0,400,1380,200,120,0,-24,-9,0,0,100,0,720,0,48,16,0,
0,3,-119,-108,0,0,100,0,600,1020,200,120,0,-119,-108,0,0,80,0,600,1380,200,120,0,-24,-9,0,0,100,0,720,0,48,16,0,
0,3,-119,-108,0,0,100,0,800,1020,200,120,0,-119,-108,0,0,80,0,800,1380,200,120,0,-24,-9,0,0,100,0,720,0,48,16,0,
0,3,-119,-108,0,0,100,0,1000,1020,200,120,0,-119,-108,0,0,80,0,1000,1380,200,120,0,-24,-9,0,0,100,0,720,0,48,16,0,
0,3,-119,-108,0,0,100,0,1200,1020,200,120,0,-119,-108,0,0,80,0,1200,1380,200,120,0,-24,-9,0,0,100,0,720,0,48,16,0,
