0,11,-38,-72,0,0,100,0,0,0,80,80,0,-47,-41,0,0,100,0,592,376,56,40,0,-52,-29,0,0,100,0,592,336,56,40,0,-63,-34,0,0,100,0,592,336,56,40,0,-42,-37,0,0,100,0,648,336,48,40,0,-42,-41,0,0,100,0,0,160,56,40,0,-26,-42,0,0,100,0,192,80,32,32,0,-52,-34,0,0,100,0,64,112,56,40,0,-29,-49,0,0,100,0,0,112,64,48,0,-27,-53,0,0,100,0,0,200,64,40,0,-48,-16,0,0,65,0,0,80,96,32,0,
0,11,-38,-72,0,0,100,0,80,0,80,80,0,-46,-41,0,0,100,0,592,376,56,40,0,-51,-29,0,0,100,0,592,336,56,40,0,-62,-34,0,0,100,0,592,336,56,40,0,-41,-37,0,0,100,0,648,336,48,40,0,-41,-41,0,0,100,0,0,160,56,40,0,-25,-42,0,0,100,0,192,80,32,32,0,-51,-34,0,0,100,0,64,112,56,40,0,-28,-49,0,0,100,0,0,112,64,48,0,-26,-53,0,0,100,0,64,200,64,40,0,-48,-16,0,0,65,0,0,80,96,32,0,
0,11,-38,-72,0,0,100,0,160,0,80,80,0,-45,-41,0,0,100,0,592,376,56,40,0,-50,-29,0,0,100,0,592,336,56,40,0,-61,-34,0,0,100,0,592,336,56,40,0,-40,-37,0,0,100,0,648,336,48,40,0,-40,-41,0,0,100,0,0,160,56,40,0,-24,-42,0,0,100,0,192,80,32,32,0,-50,-34,0,0,100,0,64,112,56,40,0,-27,-49,0,0,100,0,0,112,64,48,0,-27,-53,0,0,100,0,0,240,64,40,0,-48,-16,0,0,65,0,0,80,96,32,0,
0,11,-38,-72,0,0,100,0,240,0,80,80,0,-46,-41,0,0,100,0,592,376,56,40,0,-51,-29,0,0,100,0,592,336,56,40,0,-62,-34,0,0,100,0,592,336,56,40,0,-41,-37,0,0,100,0,648,336,48,40,0,-41,-41,0,0,100,0,0,160,56,40,0,-25,-42,0,0,100,0,192,80,32,32,0,-51,-34,0,0,100,0,64,112,56,40,0,-28,-49,0,0,100,0,0,112,64,48,0,-27,-53,0,0,100,0,64,240,64,40,0,-48,-16,0,0,65,0,0,80,96,32,0,
0,19,-14,-49,0,0,100,0,128,232,40,24,0,-23,-49,0,0,100,0,160,200,32,32,0,-34,-46,0,0,100,0,264,280,24,24,0,-41,-72,0,0,100,0,880,0,80,80,0,-41,-45,1,0,100,0,120,112,40,40,0,-58,-34,1,0,100,0,360,304,48,32,0,-52,-21,1,0,100,0,360,304,48,32,0,-64,-24,1,0,100,0,408,304,48,32,0,-53,-37,0,0,100,0,64,152,56,48,0,-52,-39,0,0,100,0,592,376,56,40,0,-57,-27,0,0,100,0,592,336,56,40,0,-68,-32,0,0,100,0,592,336,56,40,0,-47,-35,0,0,100,0,648,336,48,40,0,-47,-39,0,0,100,0,0,160,56,40,0,-30,-36,0,0,100,0,192,80,32,32,0,-57,-32,0,0,100,0,64,112,56,40,0,-33,-41,0,0,100,0,0,200,64,40,0,-34,-47,0,0,100,0,0,112,64,48,0,-48,-16,0,0,65,0,0,80,96,32,0,
0,21,-26,-27,1,0,100,0,592,376,56,40,0,-21,-15,1,0,100,0,592,336,56,40,0,-10,-20,1,0,100,0,592,336,56,40,0,-23,-23,1,0,100,0,648,336,48,40,0,-18,-34,0,0,100,0,120,112,40,40,0,-9,-23,0,0,100,0,360,304,48,32,0,-15,-10,0,0,100,0,360,304,48,32,0,-3,-13,0,0,100,0,408,304,48,32,0,-22,-26,1,0,100,0,64,152,56,48,0,-28,-28,1,0,100,0,0,160,56,40,0,-18,-42,0,0,100,0,128,232,40,24,0,-27,-42,0,0,100,0,128,200,32,32,0,-38,-39,0,0,100,0,264,280,24,24,0,-22,-31,0,0,100,0,224,80,32,32,0,-9,-38,0,0,100,0,256,80,32,32,0,-18,-21,1,0,100,0,64,112,56,40,0,-47,-35,1,0,100,0,0,112,64,48,0,-41,-72,0,0,100,0,320,0,80,80,0,-33,-40,0,0,100,0,0,200,64,40,0,-48,-70,0,1,100,0,568,496,120,88,0,-48,-16,0,0,65,0,0,80,96,32,0,
0,21,-28,-29,1,0,100,0,592,376,56,40,0,-23,-17,1,0,100,0,592,336,56,40,0,-12,-22,1,0,100,0,592,336,56,40,0,-25,-25,1,0,100,0,648,336,48,40,0,-20,-35,0,0,100,0,120,112,40,40,0,-11,-24,0,0,100,0,360,304,48,32,0,-17,-11,0,0,100,0,360,304,48,32,0,-5,-14,0,0,100,0,408,304,48,32,0,-24,-27,1,0,100,0,64,152,56,48,0,-30,-30,1,0,100,0,0,160,56,40,0,-18,-36,0,0,100,0,168,232,40,24,0,-27,-40,0,0,100,0,128,200,32,32,0,-44,-36,0,0,100,0,208,256,40,24,0,-24,-30,0,0,100,0,224,80,32,32,0,-10,-37,0,0,100,0,256,80,32,32,0,-20,-23,1,0,100,0,64,112,56,40,0,-49,-37,1,0,100,0,0,112,64,48,0,-41,-72,0,0,100,0,400,0,80,80,0,-31,-39,0,0,100,0,0,200,64,40,0,-48,-70,0,1,100,0,688,496,120,88,0,-48,-16,0,0,65,0,0,80,96,32,0,
0,20,-15,-13,0,1,100,0,488,552,16,16,0,0,0,0,1,100,0,520,552,16,16,0,-5,-50,0,0,100,0,208,232,40,24,0,-14,-54,0,0,100,0,160,200,32,32,0,-31,-49,0,0,100,0,208,256,40,24,0,-27,-47,0,0,100,0,688,376,40,40,0,-60,-47,0,0,100,0,536,336,56,40,0,-64,-53,0,0,100,0,536,336,56,40,0,-37,-44,0,0,100,0,744,336,40,40,0,-31,-55,0,0,100,0,200,112,40,40,0,-64,-44,0,0,100,0,264,152,56,40,0,-64,-57,0,0,100,0,264,192,56,40,0,-70,-47,0,0,100,0,264,192,56,40,0,-37,-47,0,0,100,0,232,288,32,40,0,-61,-47,0,0,100,0,264,112,56,40,0,-38,-72,0,0,100,0,480,0,80,80,0,-33,-46,0,0,100,0,120,152,56,48,0,-25,-47,0,0,100,0,0,200,64,40,0,-48,-70,0,1,100,0,568,584,120,88,0,-48,-16,0,0,65,0,0,80,96,32,0,
0,19,-5,-17,0,1,100,0,504,552,16,16,0,-6,-51,0,0,100,0,248,232,40,24,0,-15,-55,0,0,100,0,192,200,32,32,0,-32,-50,0,0,100,0,248,256,40,24,0,-28,-50,0,0,100,0,688,376,40,40,0,-62,-50,0,0,100,0,536,336,56,40,0,-66,-56,0,0,100,0,536,336,56,40,0,-38,-47,0,0,100,0,744,336,40,40,0,-33,-58,0,0,100,0,200,112,40,40,0,-65,-47,0,0,100,0,264,152,56,40,0,-65,-60,0,0,100,0,264,192,56,40,0,-71,-50,0,0,100,0,264,192,56,40,0,-38,-50,0,0,100,0,232,288,32,40,0,-62,-50,0,0,100,0,264,112,56,40,0,-38,-72,0,0,100,0,560,0,80,80,0,-34,-49,0,0,100,0,120,152,56,48,0,-25,-47,0,0,100,0,64,200,64,40,0,-48,-70,0,1,100,0,688,584,120,88,0,-48,-16,0,0,65,0,0,80,96,32,0,
0,19,10,-27,0,1,100,0,520,552,16,16,0,-7,-51,0,0,100,0,248,232,40,24,0,-16,-55,0,0,100,0,192,200,32,32,0,-33,-50,0,0,100,0,248,256,40,24,0,-30,-50,0,0,100,0,688,376,40,40,0,-64,-50,0,0,100,0,536,336,56,40,0,-68,-56,0,0,100,0,536,336,56,40,0,-40,-47,0,0,100,0,744,336,40,40,0,-34,-58,0,0,100,0,200,112,40,40,0,-66,-47,0,0,100,0,264,152,56,40,0,-66,-60,0,0,100,0,264,192,56,40,0,-72,-50,0,0,100,0,264,192,56,40,0,-39,-50,0,0,100,0,232,288,32,40,0,-63,-50,0,0,100,0,264,112,56,40,0,-38,-72,0,0,100,0,320,80,80,80,0,-35,-49,0,0,100,0,120,152,56,48,0,-26,-47,0,0,100,0,0,240,64,40,0,-48,-70,0,1,100,0,568,496,120,88,0,-48,-16,0,0,65,0,0,80,96,32,0,
0,19,26,-36,0,1,100,0,536,552,16,16,0,-7,-51,0,0,100,0,208,232,40,24,0,-16,-55,0,0,100,0,192,200,32,32,0,-33,-50,0,0,100,0,208,256,40,24,0,-30,-49,0,0,100,0,688,376,40,40,0,-64,-49,0,0,100,0,536,336,56,40,0,-68,-55,0,0,100,0,536,336,56,40,0,-40,-46,0,0,100,0,744,336,40,40,0,-35,-57,0,0,100,0,200,112,40,40,0,-66,-46,0,0,100,0,264,152,56,40,0,-66,-59,0,0,100,0,264,192,56,40,0,-72,-49,0,0,100,0,264,192,56,40,0,-39,-49,0,0,100,0,232,288,32,40,0,-63,-49,0,0,100,0,264,112,56,40,0,-38,-72,0,0,100,0,400,80,80,80,0,-35,-48,0,0,100,0,120,152,56,48,0,-26,-47,0,0,100,0,64,240,64,40,0,-48,-70,0,1,100,0,688,496,120,88,0,-48,-16,0,0,65,0,0,80,96,32,0,
0,19,35,-40,0,1,30,0,536,552,16,16,0,-8,-51,0,0,100,0,168,232,40,24,0,-17,-55,0,0,100,0,192,200,32,32,0,-28,-51,0,0,100,0,264,280,24,24,0,-31,-47,0,0,100,0,688,376,40,40,0,-65,-47,0,0,100,0,536,336,56,40,0,-69,-53,0,0,100,0,536,336,56,40,0,-41,-44,0,0,100,0,744,336,40,40,0,-36,-56,0,0,100,0,200,112,40,40,0,-66,-44,0,0,100,0,264,152,56,40,0,-66,-57,0,0,100,0,264,192,56,40,0,-72,-47,0,0,100,0,264,192,56,40,0,-63,-47,0,0,100,0,264,112,56,40,0,-39,-47,0,0,100,0,232,288,32,40,0,-38,-72,0,0,100,0,480,80,80,80,0,-35,-46,0,0,100,0,120,152,56,48,0,-27,-47,0,0,100,0,0,200,64,40,0,-48,-70,0,1,100,0,568,584,120,88,0,-48,-16,0,0,65,0,0,80,96,32,0,
0,19,-9,-53,0,0,100,0,128,232,40,24,0,-18,-54,0,0,100,0,192,200,32,32,0,-29,-50,0,0,100,0,264,280,24,24,0,-34,-41,0,0,100,0,648,376,40,40,0,-62,-34,0,0,100,0,0,280,56,32,0,-59,-32,0,0,100,0,0,312,56,32,0,-65,-36,0,0,100,0,0,312,56,32,0,-40,-38,0,0,100,0,696,336,48,40,0,-43,-53,0,0,100,0,160,112,40,40,0,-42,-54,0,0,100,0,160,112,40,40,0,-66,-29,0,0,100,0,544,240,56,32,0,-69,-43,0,0,100,0,544,240,56,32,0,-72,-31,0,0,100,0,544,272,56,32,0,-39,-41,0,0,100,0,232,328,32,40,0,-38,-72,0,0,100,0,560,80,80,80,0,-38,-42,0,0,100,0,176,152,64,48,0,-29,-47,0,0,100,0,0,240,64,40,0,-48,-70,0,1,100,0,688,584,120,88,0,-48,-16,0,0,65,0,0,80,96,32,0,
0,19,-9,-52,0,0,100,0,128,232,40,24,0,-18,-54,0,0,100,0,192,200,32,32,0,-35,-48,0,0,100,0,208,256,40,24,0,-34,-38,0,0,100,0,648,376,40,40,0,-62,-31,0,0,100,0,0,280,56,32,0,-59,-29,0,0,100,0,0,312,56,32,0,-65,-33,0,0,100,0,0,312,56,32,0,-40,-35,0,0,100,0,696,336,48,40,0,-43,-50,0,0,100,0,160,112,40,40,0,-43,-50,0,0,100,0,160,112,40,40,0,-66,-26,0,0,100,0,544,240,56,32,0,-69,-40,0,0,100,0,544,240,56,32,0,-72,-28,0,0,100,0,544,272,56,32,0,-39,-38,0,0,100,0,232,328,32,40,0,-38,-72,0,0,100,0,320,160,80,80,0,-38,-39,0,0,100,0,176,152,64,48,0,-29,-46,0,0,100,0,64,240,64,40,0,-48,-70,0,1,100,0,568,496,120,88,0,-48,-16,0,0,65,0,0,80,96,32,0,
0,18,-8,-50,0,0,100,0,168,232,40,24,0,-17,-55,0,0,100,0,192,200,32,32,0,-34,-49,0,0,100,0,248,256,40,24,0,-34,-39,0,0,100,0,648,376,40,40,0,-62,-32,0,0,100,0,0,280,56,32,0,-59,-30,0,0,100,0,0,312,56,32,0,-65,-34,0,0,100,0,0,312,56,32,0,-40,-36,0,0,100,0,696,336,48,40,0,-43,-51,0,0,100,0,160,112,40,40,0,-66,-27,0,0,100,0,544,240,56,32,0,-69,-41,0,0,100,0,544,240,56,32,0,-72,-29,0,0,100,0,544,272,56,32,0,-39,-39,0,0,100,0,232,328,32,40,0,-38,-72,0,0,100,0,400,160,80,80,0,-38,-40,0,0,100,0,176,152,64,48,0,-28,-45,0,0,100,0,64,240,64,40,0,-48,-70,0,1,100,0,688,496,120,88,0,-48,-16,0,0,65,0,0,80,96,32,0,
0,18,-8,-51,0,0,100,0,208,232,40,24,0,-17,-55,0,0,100,0,224,200,32,32,0,-34,-50,0,0,100,0,248,256,40,24,0,-34,-41,0,0,100,0,648,376,40,40,0,-62,-34,0,0,100,0,0,280,56,32,0,-59,-32,0,0,100,0,0,312,56,32,0,-65,-36,0,0,100,0,0,312,56,32,0,-40,-38,0,0,100,0,696,336,48,40,0,-42,-53,0,0,100,0,160,112,40,40,0,-66,-29,0,0,100,0,544,240,56,32,0,-69,-43,0,0,100,0,544,240,56,32,0,-72,-31,0,0,100,0,544,272,56,32,0,-39,-41,0,0,100,0,232,328,32,40,0,-38,-72,0,0,100,0,480,160,80,80,0,-38,-42,0,0,100,0,176,152,64,48,0,-28,-46,0,0,100,0,0,200,64,40,0,-48,-70,0,1,100,0,568,584,120,88,0,-48,-16,0,0,65,0,0,80,96,32,0,
0,19,-31,-45,0,1,100,0,488,552,16,16,0,-8,-51,0,0,100,0,168,232,40,24,0,-17,-55,0,0,100,0,160,200,32,32,0,-26,-50,0,0,100,0,216,256,24,24,0,-34,-41,0,0,100,0,648,376,40,40,0,-59,-32,0,0,100,0,0,312,56,32,0,-65,-36,0,0,100,0,0,312,56,32,0,-40,-38,0,0,100,0,696,336,48,40,0,-42,-53,0,0,100,0,160,112,40,40,0,-66,-29,0,0,100,0,544,240,56,32,0,-69,-43,0,0,100,0,544,240,56,32,0,-72,-31,0,0,100,0,544,272,56,32,0,-39,-41,0,0,100,0,232,328,32,40,0,-62,-34,0,0,100,0,0,280,56,32,0,-38,-72,0,0,100,0,480,160,80,80,0,-38,-42,0,0,100,0,176,152,64,48,0,-28,-46,0,0,100,0,0,200,64,40,0,-48,-70,0,1,100,0,688,584,120,88,0,-48,-16,0,0,65,0,0,80,96,32,0,
0,19,-21,-49,0,1,100,0,504,552,16,16,0,-8,-51,0,0,100,0,168,232,40,24,0,-17,-55,0,0,100,0,160,200,32,32,0,-26,-50,0,0,100,0,216,256,24,24,0,-34,-41,0,0,100,0,648,376,40,40,0,-59,-32,0,0,100,0,56,312,56,32,0,-65,-36,0,0,100,0,56,312,56,32,0,-40,-38,0,0,100,0,696,336,48,40,0,-42,-53,0,0,100,0,160,112,40,40,0,-67,-29,0,0,100,0,600,240,56,32,0,-68,-43,0,0,100,0,600,240,56,32,0,-72,-33,0,0,100,0,600,272,56,32,0,-39,-41,0,0,100,0,264,328,32,40,0,-62,-34,0,0,100,0,56,280,56,32,0,-38,-72,0,0,100,0,480,160,80,80,0,-38,-42,0,0,100,0,176,152,64,48,0,-28,-46,0,0,100,0,0,200,64,40,0,-48,-70,0,1,100,0,688,584,120,88,0,-48,-16,0,0,65,0,0,80,96,32,0,
0,19,-14,-59,0,1,100,0,520,552,16,16,0,-8,-51,0,0,100,0,168,232,40,24,0,-17,-55,0,0,100,0,160,200,32,32,0,-26,-50,0,0,100,0,216,256,24,24,0,-34,-41,0,0,100,0,648,376,40,40,0,-59,-32,0,0,100,0,112,312,56,32,0,-65,-36,0,0,100,0,112,312,56,32,0,-40,-38,0,0,100,0,696,336,48,40,0,-42,-53,0,0,100,0,160,112,40,40,0,-67,-42,0,0,100,0,656,240,56,32,0,-68,-29,0,0,100,0,656,240,56,32,0,-72,-36,0,0,100,0,656,272,56,32,0,-39,-41,0,0,100,0,296,328,32,40,0,-62,-34,0,0,100,0,112,280,56,32,0,-38,-72,0,0,100,0,480,160,80,80,0,-38,-42,0,0,100,0,176,152,64,48,0,-28,-46,0,0,100,0,0,200,64,40,0,-48,-70,0,1,100,0,568,496,120,88,0,-48,-16,0,0,65,0,0,80,96,32,0,
0,19,-6,-60,0,1,100,0,536,552,16,16,0,-8,-51,0,0,100,0,168,232,40,24,0,-17,-55,0,0,100,0,160,200,32,32,0,-26,-50,0,0,100,0,216,256,24,24,0,-34,-41,0,0,100,0,648,376,40,40,0,-59,-32,0,0,100,0,168,312,56,32,0,-65,-36,0,0,100,0,168,312,56,32,0,-40,-38,0,0,100,0,696,336,48,40,0,-42,-53,0,0,100,0,160,112,40,40,0,-66,-41,0,0,100,0,712,240,56,32,0,-69,-29,0,0,100,0,712,240,56,32,0,-72,-37,0,0,100,0,712,272,56,32,0,-39,-41,0,0,100,0,328,328,32,40,0,-62,-34,0,0,100,0,168,280,56,32,0,-38,-72,0,0,100,0,480,160,80,80,0,-38,-42,0,0,100,0,176,152,64,48,0,-28,-46,0,0,100,0,0,200,64,40,0,-48,-70,0,1,100,0,568,496,120,88,0,-48,-16,0,0,65,0,0,80,96,32,0,
0,20,3,-64,0,1,30,0,536,552,16,16,0,-8,-51,0,0,100,0,168,232,40,24,0,-17,-55,0,0,100,0,160,200,32,32,0,-26,-50,0,0,100,0,216,256,24,24,0,-34,-41,0,0,100,0,648,376,40,40,0,-59,-32,0,0,100,0,0,312,56,32,0,-65,-36,0,0,100,0,0,312,56,32,0,-40,-38,0,0,100,0,696,336,48,40,0,-42,-53,0,0,100,0,160,112,40,40,0,-65,-40,0,0,100,0,544,240,56,32,0,-70,-29,0,0,50,0,544,272,56,32,0,-70,-29,0,0,100,0,544,240,56,32,0,-72,-39,0,0,100,0,544,272,56,32,0,-39,-41,0,0,100,0,232,328,32,40,0,-62,-34,0,0,100,0,0,280,56,32,0,-38,-72,0,0,100,0,480,160,80,80,0,-38,-42,0,0,100,0,176,152,64,48,0,-28,-46,0,0,100,0,0,200,64,40,0,-48,-70,0,1,100,0,688,496,120,88,0,-48,-16,0,0,65,0,0,80,96,32,0,
0,18,-8,-51,0,0,100,0,168,232,40,24,0,-17,-55,0,0,100,0,160,200,32,32,0,-26,-50,0,0,100,0,216,256,24,24,0,-34,-41,0,0,100,0,648,376,40,40,0,-59,-32,0,0,100,0,56,312,56,32,0,-65,-36,0,0,100,0,56,312,56,32,0,-40,-38,0,0,100,0,696,336,48,40,0,-42,-53,0,0,100,0,160,112,40,40,0,-65,-36,0,0,100,0,600,240,56,32,0,-71,-29,0,0,100,0,600,272,56,32,0,-72,-41,0,0,100,0,600,272,56,32,0,-39,-41,0,0,100,0,264,328,32,40,0,-62,-34,0,0,100,0,56,280,56,32,0,-38,-72,0,0,100,0,480,160,80,80,0,-38,-42,0,0,100,0,176,152,64,48,0,-28,-46,0,0,100,0,0,200,64,40,0,-48,-70,0,1,100,0,688,496,120,88,0,-48,-16,0,0,65,0,0,80,96,32,0,
0,19,-8,-51,0,0,100,0,168,232,40,24,0,-17,-55,0,0,100,0,160,200,32,32,0,-26,-50,0,0,100,0,216,256,24,24,0,-34,-41,0,0,100,0,648,376,40,40,0,-59,-32,0,0,100,0,112,312,56,32,0,-65,-36,0,0,100,0,112,312,56,32,0,-40,-38,0,0,100,0,696,336,48,40,0,-42,-53,0,0,100,0,160,112,40,40,0,-66,-34,0,0,100,0,656,240,56,32,0,-72,-29,0,0,100,0,656,272,56,32,0,-71,-42,0,0,50,0,656,240,56,32,0,-71,-42,0,0,100,0,656,272,56,32,0,-39,-41,0,0,100,0,296,328,32,40,0,-62,-34,0,0,100,0,112,280,56,32,0,-38,-72,0,0,100,0,480,160,80,80,0,-38,-42,0,0,100,0,176,152,64,48,0,-28,-46,0,0,100,0,0,200,64,40,0,-48,-70,0,1,100,0,568,584,120,88,0,-48,-16,0,0,65,0,0,80,96,32,0,
0,19,-43,-42,0,1,50,0,488,552,16,16,0,-8,-51,0,0,100,0,168,232,40,24,0,-17,-55,0,0,100,0,160,200,32,32,0,-26,-50,0,0,100,0,216,256,24,24,0,-34,-41,0,0,100,0,648,376,40,40,0,-59,-32,0,0,100,0,168,312,56,32,0,-65,-36,0,0,100,0,168,312,56,32,0,-40,-38,0,0,100,0,696,336,48,40,0,-42,-53,0,0,100,0,160,112,40,40,0,-66,-32,0,0,100,0,712,240,56,32,0,-72,-30,0,0,100,0,712,272,56,32,0,-70,-43,0,0,100,0,712,240,56,32,0,-39,-41,0,0,100,0,328,328,32,40,0,-62,-34,0,0,100,0,168,280,56,32,0,-38,-72,0,0,100,0,480,160,80,80,0,-38,-42,0,0,100,0,176,152,64,48,0,-28,-46,0,0,100,0,0,200,64,40,0,-48,-70,0,1,100,0,568,584,120,88,0,-48,-16,0,0,65,0,0,80,96,32,0,
0,25,-38,-45,0,1,100,0,488,552,16,16,0,-308,-28,0,1,100,0,784,352,112,24,0,-140,-47,0,1,100,0,784,320,112,32,0,-140,-42,0,1,100,0,768,240,112,32,0,-380,7,0,1,50,0,365,431,66,30,0,-132,-38,0,1,100,0,0,344,112,32,0,-7,-53,0,0,100,0,128,232,40,24,0,-16,-54,0,0,100,0,160,200,32,32,0,-27,-50,0,0,100,0,264,280,24,24,0,-30,-41,0,0,100,0,648,376,40,40,0,-58,-34,0,0,100,0,0,280,56,32,0,-59,-32,0,0,100,0,0,312,56,32,0,-65,-36,0,0,100,0,0,312,56,32,0,-40,-38,0,0,100,0,696,336,48,40,0,-39,-52,0,0,100,0,160,112,40,40,0,-64,-28,0,0,100,0,544,240,56,32,0,-67,-43,0,0,100,0,544,240,56,32,0,-70,-31,0,0,100,0,544,272,56,32,0,-37,-41,0,0,100,0,232,328,32,40,0,-38,-72,0,0,100,0,560,160,80,80,0,-34,-42,0,0,100,0,176,152,64,48,0,-16,-72,0,0,100,0,0,608,112,88,0,-27,-46,0,0,100,0,0,240,64,40,0,-48,-70,0,1,100,0,688,584,120,88,0,-48,-16,0,0,65,0,0,80,96,32,0,
0,30,-24,-49,0,1,100,0,504,552,16,16,0,-347,-32,0,1,100,0,784,320,64,32,0,-218,-43,0,1,100,0,784,352,112,24,0,-163,-40,0,1,100,0,784,320,64,32,0,-83,-40,0,1,100,0,847,320,49,32,0,-81,-40,0,1,100,0,936,240,32,32,0,-165,-40,0,1,100,0,880,240,56,32,0,-260,-67,0,1,100,0,448,336,88,88,0,-74,-39,0,1,100,0,168,344,32,32,0,-330,-79,0,1,100,0,88,424,128,72,0,-184,-39,0,1,100,0,112,344,56,32,0,-8,-51,0,0,100,0,168,232,40,24,0,-17,-55,0,0,100,0,160,200,32,32,0,-26,-50,0,0,100,0,216,256,24,24,0,-33,-42,0,0,100,0,648,376,40,40,0,-61,-34,0,0,100,0,112,280,56,32,0,-60,-33,0,0,100,0,56,312,56,32,0,-66,-37,0,0,100,0,56,312,56,32,0,-41,-39,0,0,100,0,696,336,48,40,0,-42,-53,0,0,100,0,160,112,40,40,0,-67,-42,0,0,100,0,656,240,56,32,0,-68,-29,0,0,100,0,656,240,56,32,0,-72,-36,0,0,100,0,656,272,56,32,0,-39,-41,0,0,100,0,296,328,32,40,0,-38,-72,0,0,100,0,480,160,80,80,0,-37,-42,0,0,100,0,176,152,64,48,0,-16,-72,0,0,100,0,112,608,112,88,0,-28,-46,0,0,100,0,0,200,64,40,0,-48,-70,0,1,100,0,688,584,120,88,0,-48,-16,0,0,65,0,0,80,96,32,0,
0,30,-10,-54,0,1,100,0,520,552,16,16,0,-217,-36,0,1,100,0,784,352,112,24,0,-268,-43,0,1,100,0,784,376,72,24,0,-128,-34,0,1,100,0,784,320,64,32,0,-75,-34,0,1,100,0,847,320,49,32,0,-260,-67,0,1,100,0,360,336,88,88,0,-77,-48,0,1,100,0,112,376,48,48,0,-318,-36,0,1,100,0,0,376,112,24,0,-322,-29,0,1,100,0,216,424,136,72,0,-342,-94,0,1,100,0,0,424,88,64,0,-5,-53,0,0,100,0,128,232,40,24,0,-14,-54,0,0,100,0,160,200,32,32,0,-25,-50,0,0,100,0,264,280,24,24,0,-29,-41,0,0,100,0,648,376,40,40,0,-56,-34,0,0,100,0,0,280,56,32,0,-57,-32,0,0,100,0,112,312,56,32,0,-63,-36,0,0,100,0,112,312,56,32,0,-38,-38,0,0,100,0,696,336,48,40,0,-39,-52,0,0,100,0,160,112,40,40,0,-60,-40,0,0,100,0,544,240,56,32,0,-65,-29,0,0,50,0,544,272,56,32,0,-65,-29,0,0,100,0,544,240,56,32,0,-67,-39,0,0,100,0,544,272,56,32,0,-34,-41,0,0,100,0,232,328,32,40,0,-36,-72,0,0,100,0,560,160,80,80,0,-32,-42,0,0,100,0,176,152,64,48,0,-16,-72,0,0,100,0,224,608,112,88,0,-25,-46,0,0,100,0,0,240,64,40,0,-48,-70,0,1,100,0,568,496,120,88,0,-46,-16,0,0,65,0,0,80,96,32,0,
0,31,9,-58,0,1,100,0,536,552,16,16,0,-290,-40,0,1,100,0,784,320,64,32,0,-323,-38,0,1,100,0,896,328,56,16,0,-188,-30,0,1,100,0,784,376,72,24,0,-333,-35,0,1,100,0,768,296,72,24,0,-69,-36,0,1,100,0,936,240,32,32,0,-146,-36,0,1,100,0,880,240,56,32,0,-74,-36,0,1,100,0,72,400,40,24,0,-168,-36,0,1,100,0,0,400,72,24,0,-344,-54,0,1,100,0,160,376,112,48,0,-342,-7,0,1,100,0,352,424,136,72,0,-61,-34,0,0,100,0,112,280,56,32,0,-8,-51,0,0,100,0,168,232,40,24,0,-17,-55,0,0,100,0,160,200,32,32,0,-26,-50,0,0,100,0,216,256,24,24,0,-33,-42,0,0,100,0,648,376,40,40,0,-60,-33,0,0,100,0,168,312,56,32,0,-66,-37,0,0,100,0,168,312,56,32,0,-41,-39,0,0,100,0,696,336,48,40,0,-42,-53,0,0,100,0,160,112,40,40,0,-66,-34,0,0,100,0,656,240,56,32,0,-72,-29,0,0,100,0,656,272,56,32,0,-71,-42,0,0,50,0,656,240,56,32,0,-71,-42,0,0,100,0,656,272,56,32,0,-39,-41,0,0,100,0,296,328,32,40,0,-38,-72,0,0,100,0,480,160,80,80,0,-37,-42,0,0,100,0,176,152,64,48,0,-16,-72,0,0,100,0,336,608,112,88,0,-28,-46,0,0,100,0,0,200,64,40,0,-48,-70,0,1,100,0,568,496,120,88,0,-48,-16,0,0,65,0,0,80,96,32,0,
0,29,36,-69,0,1,50,0,536,552,16,16,0,-260,-30,0,1,100,0,784,376,72,24,0,-140,-47,0,1,100,0,784,320,112,32,0,-145,-40,0,1,100,0,768,296,72,24,0,-88,-49,0,1,100,0,880,272,48,48,0,-244,-33,0,1,100,0,768,272,112,24,0,-382,-74,0,1,100,0,272,368,88,56,0,-132,-39,0,1,100,0,0,344,112,32,0,-245,-36,0,1,100,0,0,400,72,24,0,-276,14,0,1,100,0,488,424,56,72,0,-6,-53,0,0,100,0,128,232,40,24,0,-15,-54,0,0,100,0,160,200,32,32,0,-26,-50,0,0,100,0,264,280,24,24,0,-31,-41,0,0,100,0,648,376,40,40,0,-57,-34,0,0,100,0,0,280,56,32,0,-59,-32,0,0,100,0,0,312,56,32,0,-65,-36,0,0,100,0,0,312,56,32,0,-40,-38,0,0,100,0,696,336,48,40,0,-39,-52,0,0,100,0,160,112,40,40,0,-63,-29,0,0,100,0,544,240,56,32,0,-66,-43,0,0,100,0,544,240,56,32,0,-69,-31,0,0,100,0,544,272,56,32,0,-36,-41,0,0,100,0,232,328,32,40,0,-37,-72,0,0,100,0,560,160,80,80,0,-33,-42,0,0,100,0,176,152,64,48,0,-16,-72,0,0,100,0,0,608,112,88,0,-26,-46,0,0,100,0,0,240,64,40,0,-48,-70,0,1,100,0,688,496,120,88,0,-47,-16,0,0,65,0,0,80,96,32,0,
0,30,-290,-43,0,1,100,0,784,352,112,24,0,-139,-40,0,1,100,0,784,320,64,32,0,-83,-40,0,1,100,0,847,320,49,32,0,-76,-37,0,1,100,0,936,240,32,32,0,-248,-40,0,1,100,0,768,296,72,24,0,-276,-33,0,1,100,0,768,296,72,24,0,-268,-59,0,1,100,0,448,336,88,88,0,-412,-54,0,1,50,0,272,391,52,17,0,-74,-39,0,1,100,0,168,344,32,32,0,-280,-111,0,1,100,0,0,488,88,120,0,-182,-39,0,1,100,0,112,344,56,32,0,-8,-51,0,0,100,0,168,232,40,24,0,-17,-55,0,0,100,0,160,200,32,32,0,-26,-50,0,0,100,0,216,256,24,24,0,-33,-42,0,0,100,0,648,376,40,40,0,-61,-34,0,0,100,0,112,280,56,32,0,-60,-33,0,0,100,0,56,312,56,32,0,-66,-37,0,0,100,0,56,312,56,32,0,-41,-39,0,0,100,0,696,336,48,40,0,-42,-53,0,0,100,0,160,112,40,40,0,-67,-42,0,0,100,0,656,240,56,32,0,-68,-29,0,0,100,0,656,240,56,32,0,-72,-36,0,0,100,0,656,272,56,32,0,-39,-41,0,0,100,0,296,328,32,40,0,-38,-72,0,0,100,0,480,160,80,80,0,-37,-42,0,0,100,0,176,152,64,48,0,-16,-72,0,0,100,0,112,608,112,88,0,-28,-46,0,0,100,0,0,200,64,40,0,-48,-70,0,1,100,0,688,496,120,88,0,-48,-16,0,0,65,0,0,80,96,32,0,
0,34,-193,-36,0,1,100,0,784,352,112,24,0,-268,-43,0,1,100,0,784,376,72,24,0,-242,-40,0,1,100,0,784,320,64,32,0,-128,-34,0,1,100,0,784,320,64,32,0,-75,-34,0,1,100,0,847,320,49,32,0,-185,-31,0,1,100,0,768,296,72,24,0,-126,-43,0,1,100,0,776,240,58,32,0,-67,-36,0,1,100,0,833,240,47,32,0,-293,-42,0,1,100,0,880,240,56,32,0,-268,-59,0,1,100,0,360,336,88,88,0,-327,-142,0,1,100,0,88,496,120,104,0,-77,-46,2,1,100,0,112,376,48,48,0,-160,-36,0,1,100,0,0,376,112,24,0,-278,-29,0,1,100,0,208,496,80,80,0,-7,-53,0,0,100,0,128,232,40,24,0,-16,-54,0,0,100,0,160,200,32,32,0,-27,-50,0,0,100,0,264,280,24,24,0,-31,-41,0,0,100,0,648,376,40,40,0,-58,-34,0,0,100,0,0,280,56,32,0,-59,-32,0,0,100,0,112,312,56,32,0,-65,-36,0,0,100,0,112,312,56,32,0,-40,-38,0,0,100,0,696,336,48,40,0,-39,-52,0,0,100,0,160,112,40,40,0,-62,-40,0,0,100,0,544,240,56,32,0,-67,-29,0,0,50,0,544,272,56,32,0,-67,-29,0,0,100,0,544,240,56,32,0,-69,-39,0,0,100,0,544,272,56,32,0,-36,-41,0,0,100,0,232,328,32,40,0,-38,-72,0,0,100,0,560,160,80,80,0,-34,-42,0,0,100,0,176,152,64,48,0,-16,-72,0,0,100,0,224,608,112,88,0,-27,-46,0,0,100,0,0,240,64,40,0,-48,-70,0,1,100,0,568,584,120,88,0,-48,-16,0,0,65,0,0,80,96,32,0,
0,29,-50,-40,0,1,50,0,536,552,16,16,0,-335,-134,3,1,100,270,504,448,40,48,0,-323,-38,0,1,100,0,896,328,56,16,0,-188,-30,0,1,100,0,784,376,72,24,0,-319,-31,0,1,100,0,768,296,72,24,0,-224,-35,0,1,100,0,768,272,112,24,0,-350,-12,0,1,100,0,288,496,120,48,0,-82,-36,0,1,100,0,72,400,40,24,0,-207,-36,0,1,100,0,0,400,72,24,0,-8,-51,0,0,100,0,168,232,40,24,0,-17,-55,0,0,100,0,160,200,32,32,0,-26,-50,0,0,100,0,216,256,24,24,0,-33,-42,0,0,100,0,648,376,40,40,0,-61,-34,0,0,100,0,112,280,56,32,0,-60,-33,0,0,100,0,168,312,56,32,0,-66,-37,0,0,100,0,168,312,56,32,0,-41,-39,0,0,100,0,696,336,48,40,0,-42,-53,0,0,100,0,160,112,40,40,0,-66,-34,0,0,100,0,656,240,56,32,0,-72,-29,0,0,100,0,656,272,56,32,0,-71,-42,0,0,50,0,656,240,56,32,0,-71,-42,0,0,100,0,656,272,56,32,0,-39,-41,0,0,100,0,296,328,32,40,0,-38,-72,0,0,100,0,480,160,80,80,0,-37,-42,0,0,100,0,176,152,64,48,0,-16,-72,0,0,100,0,224,608,112,88,0,-28,-46,0,0,100,0,0,200,64,40,0,-48,-70,0,1,100,0,568,584,120,88,0,-48,-16,0,0,65,0,0,80,96,32,0,
0,23,-227,-30,0,1,100,0,784,352,112,24,0,-298,-35,0,1,100,0,766,296,76,24,0,-184,-39,0,1,100,0,112,344,56,32,0,-380,7,0,1,50,0,365,431,66,30,0,-7,-50,0,0,100,0,168,232,40,24,0,-16,-54,0,0,100,0,160,200,32,32,0,-27,-50,0,0,100,0,264,280,24,24,0,-31,-41,0,0,100,0,648,376,40,40,0,-59,-33,0,0,100,0,0,280,56,32,0,-59,-32,0,0,100,0,0,312,56,32,0,-65,-36,0,0,100,0,0,312,56,32,0,-40,-38,0,0,100,0,696,336,48,40,0,-39,-52,0,0,100,0,160,112,40,40,0,-64,-28,0,0,100,0,544,240,56,32,0,-67,-42,0,0,100,0,544,240,56,32,0,-70,-30,0,0,100,0,544,272,56,32,0,-37,-40,0,0,100,0,232,328,32,40,0,-38,-72,0,0,100,0,560,160,80,80,0,-35,-41,0,0,100,0,176,152,64,48,0,-16,-72,0,0,100,0,0,608,112,88,0,-27,-46,0,0,100,0,0,240,64,40,0,-48,-70,0,1,100,0,688,584,120,88,0,-48,-16,0,0,65,0,0,80,96,32,0,
0,21,-266,-30,0,1,100,0,784,376,72,24,0,-330,-34,0,1,100,0,878,244,61,24,0,66,-61,0,0,100,0,288,592,16,16,0,-7,-53,0,0,100,0,128,232,40,24,0,-16,-54,0,0,100,0,160,200,32,32,0,-25,-49,0,0,100,0,176,256,24,24,0,-31,-41,0,0,100,0,648,376,40,40,0,-59,-33,0,0,100,0,56,280,56,32,0,-59,-32,0,0,100,0,56,312,56,32,0,-65,-36,0,0,100,0,56,312,56,32,0,-40,-38,0,0,100,0,696,336,48,40,0,-39,-52,0,0,100,0,160,112,40,40,0,-65,-28,0,0,100,0,600,240,56,32,0,-66,-42,0,0,100,0,600,240,56,32,0,-70,-32,0,0,100,0,600,272,56,32,0,-37,-40,0,0,100,0,264,328,32,40,0,-38,-72,0,0,100,0,560,160,80,80,0,-35,-41,0,0,100,0,176,152,64,48,0,-27,-46,0,0,100,0,0,240,64,40,0,-48,-70,0,1,100,0,688,584,120,88,0,-48,-16,0,0,65,0,0,80,96,32,0,
0,20,-326,-25,0,1,100,0,896,328,56,16,0,68,-62,0,0,100,0,288,592,16,16,0,-7,-53,0,0,100,0,128,232,40,24,0,-16,-54,0,0,100,0,160,200,32,32,0,-25,-49,0,0,100,0,176,256,24,24,0,-31,-41,0,0,100,0,648,376,40,40,0,-59,-33,0,0,100,0,112,280,56,32,0,-59,-32,0,0,100,0,112,312,56,32,0,-65,-36,0,0,100,0,112,312,56,32,0,-40,-38,0,0,100,0,696,336,48,40,0,-39,-52,0,0,100,0,160,112,40,40,0,-65,-41,0,0,100,0,656,240,56,32,0,-66,-28,0,0,100,0,656,240,56,32,0,-70,-35,0,0,100,0,656,272,56,32,0,-37,-40,0,0,100,0,296,328,32,40,0,-38,-72,0,0,100,0,560,160,80,80,0,-35,-41,0,0,100,0,176,152,64,48,0,-27,-46,0,0,100,0,0,240,64,40,0,-48,-70,0,1,100,0,568,496,120,88,0,-48,-16,0,0,65,0,0,80,96,32,0,
0,19,77,-57,0,0,100,0,304,592,16,16,0,-7,-53,0,0,100,0,128,232,40,24,0,-16,-54,0,0,100,0,160,200,32,32,0,-25,-49,0,0,100,0,176,256,24,24,0,-31,-41,0,0,100,0,648,376,40,40,0,-59,-33,0,0,100,0,168,280,56,32,0,-59,-32,0,0,100,0,168,312,56,32,0,-65,-36,0,0,100,0,168,312,56,32,0,-40,-38,0,0,100,0,696,336,48,40,0,-39,-52,0,0,100,0,160,112,40,40,0,-64,-40,0,0,100,0,712,240,56,32,0,-67,-28,0,0,100,0,712,240,56,32,0,-70,-36,0,0,100,0,712,272,56,32,0,-37,-40,0,0,100,0,328,328,32,40,0,-38,-72,0,0,100,0,560,160,80,80,0,-35,-41,0,0,100,0,176,152,64,48,0,-27,-46,0,0,100,0,0,240,64,40,0,-48,-70,0,1,100,0,568,496,120,88,0,-48,-16,0,0,65,0,0,80,96,32,0,
0,20,79,-53,0,0,100,0,304,592,16,16,0,-7,-53,0,0,100,0,128,232,40,24,0,-16,-54,0,0,100,0,160,200,32,32,0,-25,-49,0,0,100,0,176,256,24,24,0,-31,-41,0,0,100,0,648,376,40,40,0,-59,-33,0,0,100,0,0,280,56,32,0,-59,-32,0,0,100,0,0,312,56,32,0,-65,-36,0,0,100,0,0,312,56,32,0,-40,-38,0,0,100,0,696,336,48,40,0,-39,-52,0,0,100,0,160,112,40,40,0,-63,-39,0,0,100,0,544,240,56,32,0,-68,-28,0,0,50,0,544,272,56,32,0,-68,-28,0,0,100,0,544,240,56,32,0,-70,-38,0,0,100,0,544,272,56,32,0,-37,-40,0,0,100,0,232,328,32,40,0,-38,-72,0,0,100,0,560,160,80,80,0,-35,-41,0,0,100,0,176,152,64,48,0,-27,-46,0,0,100,0,0,240,64,40,0,-48,-70,0,1,100,0,688,496,120,88,0,-48,-16,0,0,65,0,0,80,96,32,0,
0,19,83,-40,0,0,100,0,304,592,16,16,0,-7,-53,0,0,100,0,128,232,40,24,0,-16,-54,0,0,100,0,160,200,32,32,0,-25,-49,0,0,100,0,176,256,24,24,0,-31,-41,0,0,100,0,648,376,40,40,0,-59,-33,0,0,100,0,56,280,56,32,0,-59,-32,0,0,100,0,56,312,56,32,0,-65,-36,0,0,100,0,56,312,56,32,0,-40,-38,0,0,100,0,696,336,48,40,0,-39,-52,0,0,100,0,160,112,40,40,0,-63,-35,0,0,100,0,600,240,56,32,0,-69,-28,0,0,100,0,600,272,56,32,0,-70,-40,0,0,100,0,600,272,56,32,0,-37,-40,0,0,100,0,264,328,32,40,0,-38,-72,0,0,100,0,560,160,80,80,0,-35,-41,0,0,100,0,176,152,64,48,0,-27,-46,0,0,100,0,0,240,64,40,0,-48,-70,0,1,100,0,688,496,120,88,0,-48,-16,0,0,65,0,0,80,96,32,0,
0,20,85,-11,0,0,100,0,304,592,16,16,0,-7,-53,0,0,100,0,128,232,40,24,0,-16,-54,0,0,100,0,160,200,32,32,0,-25,-49,0,0,100,0,176,256,24,24,0,-31,-41,0,0,100,0,648,376,40,40,0,-59,-33,0,0,100,0,112,280,56,32,0,-59,-32,0,0,100,0,112,312,56,32,0,-65,-36,0,0,100,0,112,312,56,32,0,-40,-38,0,0,100,0,696,336,48,40,0,-39,-52,0,0,100,0,160,112,40,40,0,-64,-33,0,0,100,0,656,240,56,32,0,-70,-28,0,0,100,0,656,272,56,32,0,-69,-41,0,0,50,0,656,240,56,32,0,-69,-41,0,0,100,0,656,272,56,32,0,-37,-40,0,0,100,0,296,328,32,40,0,-38,-72,0,0,100,0,560,160,80,80,0,-35,-41,0,0,100,0,176,152,64,48,0,-27,-46,0,0,100,0,0,240,64,40,0,-48,-70,0,1,100,0,568,584,120,88,0,-48,-16,0,0,65,0,0,80,96,32,0,
0,19,85,-11,0,0,100,0,304,592,16,16,0,-7,-53,0,0,100,0,128,232,40,24,0,-16,-54,0,0,100,0,160,200,32,32,0,-25,-49,0,0,100,0,176,256,24,24,0,-31,-41,0,0,100,0,648,376,40,40,0,-59,-33,0,0,100,0,168,280,56,32,0,-59,-32,0,0,100,0,168,312,56,32,0,-65,-36,0,0,100,0,168,312,56,32,0,-40,-38,0,0,100,0,696,336,48,40,0,-39,-52,0,0,100,0,160,112,40,40,0,-64,-31,0,0,100,0,712,240,56,32,0,-70,-29,0,0,100,0,712,272,56,32,0,-68,-42,0,0,100,0,712,240,56,32,0,-37,-40,0,0,100,0,328,328,32,40,0,-38,-72,0,0,100,0,560,160,80,80,0,-35,-41,0,0,100,0,176,152,64,48,0,-27,-46,0,0,100,0,0,240,64,40,0,-48,-70,0,1,100,0,568,584,120,88,0,-48,-16,0,0,65,0,0,80,96,32,0,
0,19,90,-17,0,0,100,-90,288,592,16,16,0,-7,-53,0,0,100,0,128,232,40,24,0,-16,-54,0,0,100,0,160,200,32,32,0,-25,-49,0,0,100,0,176,256,24,24,0,-31,-41,0,0,100,0,648,376,40,40,0,-59,-33,0,0,100,0,0,280,56,32,0,-59,-32,0,0,100,0,0,312,56,32,0,-65,-36,0,0,100,0,0,312,56,32,0,-40,-38,0,0,100,0,696,336,48,40,0,-39,-52,0,0,100,0,160,112,40,40,0,-64,-28,0,0,100,0,544,240,56,32,0,-67,-42,0,0,100,0,544,240,56,32,0,-70,-30,0,0,100,0,544,272,56,32,0,-37,-40,0,0,100,0,232,328,32,40,0,-38,-72,0,0,100,0,560,160,80,80,0,-35,-41,0,0,100,0,176,152,64,48,0,-27,-46,0,0,100,0,0,240,64,40,0,-48,-70,0,1,90,0,688,584,120,88,0,-48,-16,0,0,65,0,0,80,96,32,0,
0,19,90,-17,1,0,100,0,304,592,16,16,0,-7,-53,0,0,100,0,128,232,40,24,0,-16,-54,0,0,100,0,160,200,32,32,0,-25,-49,0,0,100,0,176,256,24,24,0,-31,-41,0,0,100,0,648,376,40,40,0,-59,-33,0,0,100,0,56,280,56,32,0,-59,-32,0,0,100,0,56,312,56,32,0,-65,-36,0,0,100,0,56,312,56,32,0,-40,-38,0,0,100,0,696,336,48,40,0,-39,-52,0,0,100,0,160,112,40,40,0,-64,-28,0,0,100,0,600,240,56,32,0,-67,-42,0,0,100,0,600,240,56,32,0,-70,-30,0,0,100,0,600,272,56,32,0,-37,-40,0,0,100,0,232,328,32,40,0,-38,-72,0,0,100,0,560,160,80,80,0,-35,-41,0,0,100,0,176,152,64,48,0,-27,-46,0,0,100,0,0,240,64,40,0,-48,-70,0,1,80,0,688,584,120,88,0,-48,-16,0,0,65,0,0,80,96,32,0,
0,18,-7,-53,0,0,100,0,128,232,40,24,0,-16,-54,0,0,100,0,160,200,32,32,0,-25,-49,0,0,100,0,176,256,24,24,0,-31,-41,0,0,100,0,648,376,40,40,0,-59,-33,0,0,100,0,112,280,56,32,0,-59,-32,0,0,100,0,112,312,56,32,0,-65,-36,0,0,100,0,112,312,56,32,0,-40,-38,0,0,100,0,696,336,48,40,0,-39,-52,0,0,100,0,160,112,40,40,0,-64,-28,0,0,100,0,656,240,56,32,0,-67,-42,0,0,100,0,656,240,56,32,0,-70,-30,0,0,100,0,656,272,56,32,0,-37,-40,0,0,100,0,232,328,32,40,0,-38,-72,0,0,100,0,560,160,80,80,0,-35,-41,0,0,100,0,176,152,64,48,0,-27,-46,0,0,100,0,0,240,64,40,0,-48,-70,0,1,70,0,568,496,120,88,0,-48,-16,0,0,65,0,0,80,96,32,0,
0,18,-7,-53,0,0,100,0,128,232,40,24,0,-16,-54,0,0,100,0,160,200,32,32,0,-25,-49,0,0,100,0,176,256,24,24,0,-31,-41,0,0,100,0,648,376,40,40,0,-59,-33,0,0,100,0,168,280,56,32,0,-59,-32,0,0,100,0,168,312,56,32,0,-65,-36,0,0,100,0,168,312,56,32,0,-40,-38,0,0,100,0,696,336,48,40,0,-39,-52,0,0,100,0,160,112,40,40,0,-64,-28,0,0,100,0,712,240,56,32,0,-67,-42,0,0,100,0,712,240,56,32,0,-70,-30,0,0,100,0,712,272,56,32,0,-37,-40,0,0,100,0,232,328,32,40,0,-38,-72,0,0,100,0,560,160,80,80,0,-35,-41,0,0,100,0,176,152,64,48,0,-27,-46,0,0,100,0,0,240,64,40,0,-48,-70,0,1,60,0,568,496,120,88,0,-48,-16,0,0,65,0,0,80,96,32,0,
0,18,-7,-53,0,0,100,0,128,232,40,24,0,-16,-54,0,0,100,0,160,200,32,32,0,-25,-49,0,0,100,0,176,256,24,24,0,-31,-41,0,0,100,0,648,376,40,40,0,-59,-33,0,0,100,0,0,280,56,32,0,-59,-32,0,0,100,0,0,312,56,32,0,-65,-36,0,0,100,0,0,312,56,32,0,-40,-38,0,0,100,0,696,336,48,40,0,-39,-52,0,0,100,0,160,112,40,40,0,-64,-28,0,0,100,0,544,240,56,32,0,-67,-42,0,0,100,0,544,240,56,32,0,-70,-30,0,0,100,0,544,272,56,32,0,-37,-40,0,0,100,0,232,328,32,40,0,-38,-72,0,0,100,0,560,160,80,80,0,-35,-41,0,0,100,0,176,152,64,48,0,-27,-46,0,0,100,0,0,240,64,40,0,-48,-70,0,1,40,0,688,496,120,88,0,-48,-16,0,0,65,0,0,80,96,32,0,
0,18,-7,-53,0,0,100,0,128,232,40,24,0,-16,-54,0,0,100,0,160,200,32,32,0,-25,-49,0,0,100,0,176,256,24,24,0,-31,-41,0,0,100,0,648,376,40,40,0,-59,-33,0,0,100,0,56,280,56,32,0,-59,-32,0,0,100,0,56,312,56,32,0,-65,-36,0,0,100,0,56,312,56,32,0,-40,-38,0,0,100,0,696,336,48,40,0,-39,-52,0,0,100,0,160,112,40,40,0,-64,-28,0,0,100,0,600,240,56,32,0,-67,-42,0,0,100,0,600,240,56,32,0,-70,-30,0,0,100,0,600,272,56,32,0,-37,-40,0,0,100,0,232,328,32,40,0,-38,-72,0,0,100,0,560,160,80,80,0,-35,-41,0,0,100,0,176,152,64,48,0,-27,-46,0,0,100,0,0,240,64,40,0,-48,-70,0,1,25,0,688,496,120,88,0,-48,-16,0,0,65,0,0,80,96,32,0,
0,18,-7,-53,0,0,100,0,128,232,40,24,0,-16,-54,0,0,100,0,160,200,32,32,0,-25,-49,0,0,100,0,176,256,24,24,0,-31,-41,0,0,100,0,648,376,40,40,0,-59,-33,0,0,100,0,112,280,56,32,0,-59,-32,0,0,100,0,112,312,56,32,0,-65,-36,0,0,100,0,112,312,56,32,0,-40,-38,0,0,100,0,696,336,48,40,0,-39,-52,0,0,100,0,160,112,40,40,0,-64,-28,0,0,100,0,656,240,56,32,0,-67,-42,0,0,100,0,656,240,56,32,0,-70,-30,0,0,100,0,656,272,56,32,0,-37,-40,0,0,100,0,232,328,32,40,0,-38,-72,0,0,100,0,560,160,80,80,0,-35,-41,0,0,100,0,176,152,64,48,0,-27,-46,0,0,100,0,0,240,64,40,0,-48,-70,0,1,10,0,568,584,120,88,0,-48,-16,0,0,65,0,0,80,96,32,0,
0,17,-7,-53,0,0,100,0,128,232,40,24,0,-16,-54,0,0,100,0,160,200,32,32,0,-25,-49,0,0,100,0,176,256,24,24,0,-31,-41,0,0,100,0,648,376,40,40,0,-59,-33,0,0,100,0,168,280,56,32,0,-59,-32,0,0,100,0,168,312,56,32,0,-65,-36,0,0,100,0,168,312,56,32,0,-40,-38,0,0,100,0,696,336,48,40,0,-39,-52,0,0,100,0,160,112,40,40,0,-64,-28,0,0,100,0,712,240,56,32,0,-67,-42,0,0,100,0,712,240,56,32,0,-70,-30,0,0,100,0,712,272,56,32,0,-37,-40,0,0,100,0,232,328,32,40,0,-38,-72,0,0,100,0,560,160,80,80,0,-35,-41,0,0,100,0,176,152,64,48,0,-27,-46,0,0,100,0,0,240,64,40,0,-48,-16,0,0,65,0,0,80,96,32,0,
0,11,-17,-34,0,0,100,0,288,272,32,32,0,-10,-42,0,0,100,0,208,232,40,24,0,-19,-45,0,0,100,0,288,240,32,32,0,-36,-41,0,0,100,0,208,256,40,24,0,-40,-72,0,0,100,0,640,0,80,80,0,-25,-41,0,0,100,0,0,200,64,40,0,-52,-56,1,1,100,0,320,552,56,56,0,-50,-48,1,1,100,0,408,496,80,56,0,-42,-41,0,0,50,0,0,160,56,40,0,-52,-34,0,0,50,0,64,112,56,40,0,-48,-16,0,0,65,0,0,80,96,32,0,
0,9,-17,-33,0,0,100,0,288,272,32,32,0,-10,-40,0,0,100,0,168,232,40,24,0,-19,-43,0,0,100,0,288,240,32,32,0,-30,-40,0,0,100,0,264,280,24,24,0,-40,-72,0,0,100,0,720,0,80,80,0,-25,-42,0,0,100,0,0,200,64,40,0,-46,-62,1,1,75,0,376,552,56,56,0,-50,-48,1,1,100,0,488,496,80,56,0,-48,-16,0,0,65,0,0,80,96,32,0,
0,9,-17,-34,0,0,100,0,288,272,32,32,0,-10,-45,0,0,100,0,128,232,40,24,0,-19,-45,0,0,100,0,288,240,32,32,0,-36,-41,0,0,100,0,208,256,40,24,0,-40,-72,0,0,100,0,800,0,80,80,0,-26,-41,0,0,100,0,0,200,64,40,0,-42,-65,1,1,50,0,432,552,56,56,0,-50,-48,1,1,50,0,488,496,80,56,0,-48,-16,0,0,65,0,0,80,96,32,0,
0,7,-16,-49,0,0,100,0,320,272,32,32,0,-40,-78,0,0,100,0,880,80,80,80,0,-5,-52,0,0,100,0,208,232,40,24,0,-15,-56,0,0,100,0,320,240,32,32,0,-32,-51,0,0,100,0,168,256,40,24,0,-26,-45,0,0,100,0,0,200,64,40,0,-48,-16,0,0,65,0,0,80,96,32,0,
0,6,-39,-84,0,0,100,0,640,80,80,80,0,-4,-62,0,0,100,0,168,232,40,24,0,-13,-65,0,0,100,0,352,240,32,32,0,-24,-61,0,0,100,0,264,280,24,24,0,-25,-55,0,0,100,0,0,200,64,40,0,-48,-16,0,0,65,0,0,80,96,32,0,
0,6,-39,-86,0,0,100,0,720,80,80,80,0,-3,-68,0,0,100,0,128,232,40,24,0,-12,-69,0,0,100,0,384,240,32,32,0,-29,-66,0,0,100,0,128,256,40,24,0,-24,-59,0,0,100,0,0,200,64,40,0,-48,-16,0,0,65,0,0,80,96,32,0,
0,6,-39,-86,0,0,100,0,800,80,80,80,0,-4,-66,0,0,100,0,128,232,40,24,0,-13,-67,0,0,100,0,384,240,32,32,0,-30,-64,0,0,100,0,128,256,40,24,0,-24,-56,0,0,100,0,0,200,64,40,0,-48,-16,0,0,65,0,0,80,96,32,0,
0,7,-16,-55,0,0,100,0,320,272,32,32,0,-40,-84,0,0,100,0,880,80,80,80,0,-5,-57,0,0,100,0,168,232,40,24,0,-15,-61,0,0,100,0,384,240,32,32,0,-26,-57,0,0,100,0,264,280,24,24,0,-26,-50,0,0,100,0,0,200,64,40,0,-48,-16,0,0,65,0,0,80,96,32,0,
0,7,-17,-34,0,0,100,0,288,272,32,32,0,-10,-45,0,0,100,0,128,232,40,24,0,-19,-45,0,0,100,0,288,240,32,32,0,-36,-43,0,0,100,0,128,256,40,24,0,-40,-72,0,0,100,0,640,0,80,80,0,-25,-41,0,0,100,0,0,200,64,40,0,-48,-16,0,0,65,0,0,80,96,32,0,
0,7,-17,-33,0,0,100,0,288,272,32,32,0,-10,-41,0,0,100,0,208,232,40,24,0,-19,-43,0,0,100,0,288,240,32,32,0,-36,-39,0,0,100,0,208,256,40,24,0,-40,-72,0,0,100,0,720,0,80,80,0,-25,-42,0,0,100,0,0,200,64,40,0,-48,-16,0,0,65,0,0,80,96,32,0,
0,7,-17,-35,0,0,100,0,288,272,32,32,0,-10,-44,0,0,100,0,248,232,40,24,0,-19,-46,0,0,100,0,288,240,32,32,0,-36,-42,0,0,100,0,248,256,40,24,0,-40,-72,0,0,100,0,800,0,80,80,0,-26,-41,0,0,100,0,0,200,64,40,0,-48,-16,0,0,65,0,0,80,96,32,0,
0,6,-9,-47,0,0,100,0,248,232,40,24,0,-18,-50,0,0,100,0,288,240,32,32,0,-35,-46,0,0,100,0,248,256,40,24,0,-38,-72,0,0,100,0,640,160,80,80,0,-25,-42,0,0,100,0,64,200,64,40,0,-48,-16,0,0,65,0,0,80,96,32,0,
0,7,-28,-60,0,1,100,0,288,544,24,24,0,-7,-52,0,0,100,0,248,232,40,24,0,-16,-56,0,0,100,0,416,240,32,32,0,-33,-51,0,0,100,0,208,256,40,24,0,-40,-72,0,0,100,0,720,160,80,80,0,-28,-45,0,0,100,0,64,200,64,40,0,-48,-16,0,0,65,0,0,80,96,32,0,
0,8,-28,-56,0,1,100,0,288,568,24,24,0,-32,-62,0,1,100,0,288,544,24,24,0,-6,-52,0,0,100,0,208,232,40,24,0,-15,-56,0,0,100,0,416,240,32,32,0,-32,-51,0,0,100,0,168,256,40,24,0,-40,-72,0,0,100,0,800,160,80,80,0,-28,-46,0,0,100,0,64,240,64,40,0,-47,-16,0,0,65,0,0,80,96,32,0,
0,8,-27,-58,0,1,100,0,288,568,24,24,0,-35,-66,0,1,100,0,288,544,24,24,0,-5,-52,0,0,100,0,168,232,40,24,0,-14,-56,0,0,100,0,416,240,32,32,0,-28,-53,0,0,100,0,264,304,32,24,0,-40,-72,0,0,100,0,880,160,80,80,0,-27,-46,0,0,100,0,64,240,64,40,0,-46,-16,0,0,65,0,0,80,96,32,0,
0,8,-26,-60,0,1,100,0,288,568,24,24,0,-36,-68,0,1,50,0,288,544,24,24,0,-5,-55,0,0,100,0,128,232,40,24,0,-14,-56,0,0,100,0,416,240,32,32,0,-31,-53,0,0,100,0,128,256,40,24,0,-40,-72,0,0,100,0,880,160,80,80,0,-26,-46,0,0,100,0,0,240,64,40,0,-46,-16,0,0,65,0,0,80,96,32,0,
0,7,-27,-61,0,1,100,0,288,568,24,24,0,-5,-55,0,0,100,0,128,232,40,24,0,-14,-56,0,0,100,0,416,240,32,32,0,-31,-53,0,0,100,0,128,256,40,24,0,-40,-72,0,0,100,0,880,160,80,80,0,-25,-46,0,0,100,0,0,240,64,40,0,-46,-16,0,0,65,0,0,80,96,32,0,
0,7,-28,-62,0,1,50,0,288,568,24,24,0,-5,-55,0,0,100,0,128,232,40,24,0,-14,-56,0,0,100,0,416,240,32,32,0,-31,-53,0,0,100,0,128,256,40,24,0,-40,-72,0,0,100,0,880,160,80,80,0,-25,-46,0,0,100,0,0,240,64,40,0,-46,-16,0,0,65,0,0,80,96,32,0,
0,7,-29,-63,0,1,25,0,288,568,24,24,0,-6,-52,0,0,100,0,208,232,40,24,0,-15,-56,0,0,100,0,416,240,32,32,0,-32,-51,0,0,100,0,168,256,40,24,0,-40,-72,0,0,100,0,800,160,80,80,0,-26,-46,0,0,100,0,64,240,64,40,0,-46,-16,0,0,65,0,0,80,96,32,0,
0,6,-7,-52,0,0,100,0,248,232,40,24,0,-16,-56,0,0,100,0,416,240,32,32,0,-33,-51,0,0,100,0,208,256,40,24,0,-40,-72,0,0,100,0,720,160,80,80,0,-26,-45,0,0,100,0,64,200,64,40,0,-46,-16,0,0,65,0,0,80,96,32,0,
0,6,-9,-47,0,0,100,0,248,232,40,24,0,-18,-50,0,0,100,0,288,240,32,32,0,-35,-46,0,0,100,0,248,256,40,24,0,-38,-72,0,0,100,0,640,160,80,80,0,-26,-44,0,0,100,0,64,200,64,40,0,-46,-16,0,0,65,0,0,80,96,32,0,
0,8,3,-48,0,0,100,0,120,112,40,40,0,12,-37,0,0,100,0,360,304,48,32,0,6,-24,0,0,100,0,360,304,48,32,0,18,-27,0,0,100,0,408,304,48,32,0,-1,-40,1,0,100,0,64,152,56,48,0,-40,-72,0,0,100,0,544,416,80,80,0,-18,-46,1,0,100,0,0,112,64,48,0,-48,-16,0,0,65,0,0,80,96,32,0,
0,8,3,-49,0,0,100,0,120,112,40,40,0,12,-38,0,0,100,0,360,304,48,32,0,6,-25,0,0,100,0,360,304,48,32,0,18,-28,0,0,100,0,408,304,48,32,0,-1,-41,1,0,100,0,64,152,56,48,0,-40,-72,0,0,100,0,624,416,80,80,0,-18,-47,1,0,100,0,0,112,64,48,0,-48,-16,0,0,65,0,0,80,96,32,0,
0,8,3,-48,0,0,100,0,120,112,40,40,0,12,-37,0,0,100,0,360,304,48,32,0,6,-24,0,0,100,0,360,304,48,32,0,18,-27,0,0,100,0,408,304,48,32,0,-1,-40,1,0,100,0,64,152,56,48,0,-40,-72,0,0,100,0,704,416,80,80,0,-18,-46,1,0,100,0,0,112,64,48,0,-48,-16,0,0,65,0,0,80,96,32,0,
0,8,3,-47,0,0,100,0,120,112,40,40,0,12,-36,0,0,100,0,360,304,48,32,0,6,-23,0,0,100,0,360,304,48,32,0,18,-26,0,0,100,0,408,304,48,32,0,-1,-39,1,0,100,0,64,152,56,48,0,-40,-72,0,0,100,0,784,416,80,80,0,-18,-45,1,0,100,0,0,112,64,48,0,-48,-16,0,0,65,0,0,80,96,32,0,
0,7,-16,-57,0,0,100,0,320,272,32,32,0,-40,-86,0,0,100,0,880,80,80,80,0,-5,-60,0,0,100,0,208,232,40,24,0,-15,-64,0,0,100,0,320,240,32,32,0,-32,-59,0,0,100,0,168,256,40,24,0,-26,-53,0,0,100,0,0,200,64,40,0,-48,-16,0,0,65,0,0,80,96,32,0,
0,6,-39,-89,0,0,100,0,640,80,80,80,0,-4,-67,0,0,100,0,168,232,40,24,0,-13,-70,0,0,100,0,352,240,32,32,0,-24,-66,0,0,100,0,264,280,24,24,0,-25,-60,0,0,100,0,0,200,64,40,0,-48,-16,0,0,65,0,0,80,96,32,0,
0,6,-39,-93,0,0,100,0,720,80,80,80,0,-3,-75,0,0,100,0,128,232,40,24,0,-12,-76,0,0,100,0,384,240,32,32,0,-29,-73,0,0,100,0,128,256,40,24,0,-24,-66,0,0,100,0,0,200,64,40,0,-48,-16,0,0,65,0,0,80,96,32,0,
0,6,-39,-93,0,0,100,0,800,80,80,80,0,-4,-73,0,0,100,0,128,232,40,24,0,-13,-74,0,0,100,0,384,240,32,32,0,-30,-71,0,0,100,0,128,256,40,24,0,-24,-63,0,0,100,0,0,200,64,40,0,-48,-16,0,0,65,0,0,80,96,32,0,
0,7,-16,-60,0,0,100,0,320,272,32,32,0,-40,-89,0,0,100,0,880,80,80,80,0,-5,-62,0,0,100,0,168,232,40,24,0,-15,-66,0,0,100,0,384,240,32,32,0,-26,-62,0,0,100,0,264,280,24,24,0,-26,-55,0,0,100,0,0,200,64,40,0,-48,-16,0,0,65,0,0,80,96,32,0,
