0,12,-21,-68,0,0,100,0,48,3,37,36,0,-8,-58,0,0,100,0,212,49,47,69,0,-6,-60,0,0,100,0,126,3,37,36,0,-21,-37,0,0,100,0,126,79,37,36,0,-21,-53,0,0,100,0,5,40,37,43,0,-37,-53,0,0,100,0,87,3,37,36,0,-52,-74,0,0,100,0,165,49,45,85,0,-35,-60,0,0,100,0,126,41,37,36,0,-9,-31,0,0,100,0,87,41,37,36,0,-29,-32,0,0,100,0,48,41,37,36,0,-40,-44,0,0,100,0,165,3,68,44,0,-21,-9,0,0,65,0,0,0,42,18,0,
0,12,-21,-67,0,0,100,0,48,3,37,36,0,-8,-57,0,0,100,0,212,49,47,69,0,-6,-59,0,0,100,0,126,3,37,36,0,-21,-36,0,0,100,0,126,79,37,36,0,-21,-52,0,0,100,0,5,40,37,43,0,-37,-53,0,0,100,0,5,131,37,36,0,-52,-74,0,0,100,0,165,49,45,85,0,-35,-59,0,0,100,0,126,41,37,36,0,-9,-31,0,0,100,0,87,79,37,36,0,-29,-32,0,0,100,0,48,79,37,36,0,-40,-42,0,0,100,0,235,3,68,44,0,-21,-9,0,0,65,0,0,0,42,18,0,
0,12,-21,-68,0,0,100,0,48,3,37,36,0,-9,-57,0,0,100,0,212,49,47,69,0,-6,-59,0,0,100,0,126,3,37,36,0,-21,-36,0,0,100,0,126,79,37,36,0,-21,-53,0,0,100,0,5,40,37,43,0,-37,-53,0,0,100,0,5,131,37,36,0,-52,-74,0,0,100,0,165,49,45,85,0,-35,-59,0,0,100,0,126,41,37,36,0,-9,-31,0,0,100,0,87,79,37,36,0,-29,-32,0,0,100,0,48,79,37,36,0,-40,-44,0,0,100,0,305,3,68,44,0,-21,-9,0,0,65,0,0,0,42,18,0,
0,12,-21,-69,0,0,100,0,48,3,37,36,0,-9,-58,0,0,100,0,212,49,47,69,0,-6,-60,0,0,100,0,126,3,37,36,0,-21,-37,0,0,100,0,126,79,37,36,0,-21,-54,0,0,100,0,5,40,37,43,0,-37,-53,0,0,100,0,87,3,37,36,0,-52,-74,0,0,100,0,165,49,45,85,0,-35,-60,0,0,100,0,126,41,37,36,0,-9,-31,0,0,100,0,87,41,37,36,0,-29,-32,0,0,100,0,48,41,37,36,0,-40,-45,0,0,100,0,375,3,68,44,0,-21,-9,0,0,65,0,0,0,42,18,0,
0,12,-21,-68,0,0,100,0,5,211,37,36,0,-11,-56,0,0,100,0,212,49,47,69,0,-8,-59,0,0,100,0,126,3,37,36,0,-22,-37,0,0,100,0,126,79,37,36,0,-20,-52,0,0,100,0,173,226,37,43,0,-35,-54,0,0,100,0,87,3,37,36,0,-50,-75,0,0,100,0,165,49,45,85,0,-29,-62,0,0,100,0,5,89,37,36,0,-12,-32,0,0,100,0,5,291,37,36,0,-30,-32,0,0,100,0,48,41,37,36,0,-33,-44,0,0,100,0,165,3,68,44,0,-21,-9,0,0,65,0,0,0,42,18,0,
0,12,-21,-66,0,0,100,0,5,211,37,36,0,-11,-55,0,0,100,0,212,49,47,69,0,-7,-57,0,0,100,0,126,3,37,36,0,-19,-37,0,0,100,0,126,79,37,36,0,-18,-50,0,0,100,0,173,226,37,43,0,-27,-61,0,0,100,0,5,89,37,36,0,-25,-48,0,0,100,0,5,333,37,36,0,-58,-43,0,0,100,0,49,122,85,45,0,-12,-32,0,0,100,0,5,291,37,36,0,-27,-32,0,0,100,0,48,41,37,36,0,-29,-44,0,0,100,0,235,3,68,44,0,-21,-9,0,0,65,0,0,0,42,18,0,
0,12,-20,-66,0,0,100,0,5,211,37,36,0,-11,-54,0,0,100,0,212,49,47,69,0,-7,-56,0,0,100,0,126,3,37,36,0,-17,-37,0,0,100,0,126,79,37,36,0,-17,-50,0,0,100,0,173,226,37,43,0,-25,-61,0,0,100,0,5,89,37,36,0,-23,-48,0,0,100,0,5,333,37,36,0,-56,-43,0,0,100,0,49,122,85,45,0,-12,-32,0,0,100,0,5,291,37,36,0,-25,-32,0,0,100,0,48,41,37,36,0,-22,-57,0,0,100,0,331,168,64,62,0,-21,-9,0,0,65,0,0,0,42,18,0,
0,14,-35,-67,0,0,100,0,5,249,37,36,0,-142,-64,0,0,100,0,381,267,131,52,0,-14,-64,0,0,100,0,215,194,52,69,0,-18,-60,0,0,100,0,126,3,37,36,0,-35,-33,0,0,100,0,91,375,22,26,0,-15,-29,0,0,100,0,115,375,22,26,0,-30,-52,0,0,100,0,173,226,37,43,0,-41,-61,0,0,100,0,126,41,37,36,0,-55,-56,0,0,100,0,44,333,37,36,0,-97,-55,0,0,100,0,49,122,85,45,0,-12,-31,0,0,100,0,83,291,37,36,0,-40,-32,0,0,100,0,48,375,37,36,0,-15,-68,0,0,100,0,339,53,68,44,0,-27,-9,0,0,65,0,0,0,42,18,0,
0,14,-36,-67,0,0,100,0,5,249,37,36,0,-168,-59,0,0,100,0,344,321,168,40,0,-15,-64,0,0,100,0,215,194,52,69,0,-19,-60,0,0,100,0,126,3,37,36,0,-36,-33,0,0,100,0,91,375,22,26,0,-15,-29,0,0,100,0,115,375,22,26,0,-31,-52,0,0,100,0,173,226,37,43,0,-42,-61,0,0,100,0,126,41,37,36,0,-56,-56,0,0,100,0,44,333,37,36,0,-98,-55,0,0,100,0,49,122,85,45,0,-12,-31,0,0,100,0,83,291,37,36,0,-41,-32,0,0,100,0,48,375,37,36,0,-18,-63,0,0,100,0,409,53,68,44,0,-27,-9,0,0,65,0,0,0,42,18,0,
0,13,-35,-67,0,0,100,0,5,249,37,36,0,-14,-64,0,0,100,0,215,194,52,69,0,-18,-60,0,0,100,0,126,3,37,36,0,-35,-33,0,0,100,0,91,375,22,26,0,-15,-29,0,0,100,0,115,375,22,26,0,-30,-52,0,0,100,0,173,226,37,43,0,-41,-61,0,0,100,0,126,41,37,36,0,-55,-56,0,0,100,0,44,333,37,36,0,-97,-55,0,0,100,0,49,122,85,45,0,-12,-31,0,0,100,0,83,291,37,36,0,-40,-32,0,0,100,0,48,375,37,36,0,-30,-56,0,0,100,0,331,104,50,62,0,-27,-9,0,0,65,0,0,0,42,18,0,
0,13,-32,-66,0,0,100,0,5,249,37,36,0,-12,-61,0,0,100,0,215,194,52,69,0,-16,-59,0,0,100,0,126,3,37,36,0,-30,-31,0,0,100,0,91,375,22,26,0,-11,-29,0,0,100,0,115,375,22,26,0,-28,-51,0,0,100,0,173,226,37,43,0,-38,-59,0,0,100,0,5,89,37,36,0,-36,-46,0,0,100,0,5,333,37,36,0,-72,-41,0,0,100,0,49,122,85,45,0,-12,-32,0,0,100,0,5,291,37,36,0,-36,-32,0,0,100,0,48,79,37,36,0,-32,-56,0,0,100,0,331,168,64,62,0,-24,-9,0,0,65,0,0,0,42,18,0,
0,13,-23,-55,0,0,100,0,83,333,37,36,0,-16,-85,0,0,100,0,265,104,59,85,0,-22,-68,0,0,100,0,5,249,37,36,0,-3,-64,0,0,100,0,215,194,52,69,0,-7,-61,0,0,100,0,126,3,37,36,0,-20,-30,0,0,100,0,143,375,22,26,0,-2,-32,0,0,100,0,167,375,22,26,0,-19,-52,0,0,100,0,204,333,37,43,0,-29,-58,0,0,100,0,126,41,37,36,0,-7,-32,0,0,100,0,44,291,37,36,0,-26,-34,0,0,100,0,126,291,37,36,0,-34,-46,0,0,100,0,165,3,68,44,0,-21,-9,0,0,65,0,0,0,42,18,0,
0,13,-21,-56,0,0,100,0,83,333,37,36,0,-14,-86,0,0,100,0,265,104,59,85,0,-21,-68,0,0,100,0,5,249,37,36,0,-2,-64,0,0,100,0,215,194,52,69,0,-6,-61,0,0,100,0,126,3,37,36,0,-18,-30,0,0,100,0,143,375,22,26,0,-2,-32,0,0,100,0,167,375,22,26,0,-18,-52,0,0,100,0,204,333,37,43,0,-28,-59,0,0,100,0,126,41,37,36,0,-7,-32,0,0,100,0,44,291,37,36,0,-24,-34,0,0,100,0,126,291,37,36,0,-31,-46,0,0,100,0,375,3,68,44,0,-21,-9,0,0,65,0,0,0,42,18,0,
0,13,-39,-66,0,0,100,0,5,249,37,36,0,-85,-65,0,0,100,0,401,104,111,86,0,-28,-61,0,0,100,0,269,194,52,69,0,-23,-59,0,0,100,0,169,291,37,36,0,-37,-36,0,0,100,0,126,79,37,36,0,-36,-51,0,0,100,0,5,40,37,43,0,-48,-60,0,0,100,0,126,41,37,36,0,-54,-49,0,0,100,0,161,333,37,36,0,-92,-46,0,0,100,0,49,169,85,50,0,-16,-31,0,0,100,0,83,291,37,36,0,-44,-32,0,0,100,0,48,375,37,36,0,-22,-66,0,0,100,0,339,53,68,44,0,-30,-9,0,0,65,0,0,0,42,18,0,
0,13,-39,-68,0,0,100,0,5,211,37,36,0,-102,-56,0,0,100,0,398,189,114,75,0,-31,-60,0,0,100,0,269,194,52,69,0,-26,-59,0,0,100,0,169,291,37,36,0,-38,-37,0,0,100,0,126,79,37,36,0,-35,-52,0,0,100,0,173,226,37,43,0,-47,-62,0,0,100,0,5,89,37,36,0,-59,-56,0,0,100,0,122,333,37,36,0,-104,-65,0,0,100,0,49,221,85,45,0,-16,-31,0,0,100,0,83,291,37,36,0,-44,-32,0,0,100,0,48,375,37,36,0,-25,-62,0,0,100,0,409,53,68,44,0,-30,-9,0,0,65,0,0,0,42,18,0,
0,12,-39,-68,0,0,100,0,5,211,37,36,0,-31,-60,0,0,100,0,269,194,52,69,0,-26,-59,0,0,100,0,169,291,37,36,0,-38,-37,0,0,100,0,126,79,37,36,0,-35,-52,0,0,100,0,173,226,37,43,0,-46,-63,0,0,100,0,5,89,37,36,0,-58,-57,0,0,100,0,122,333,37,36,0,-103,-66,0,0,100,0,49,221,85,45,0,-16,-31,0,0,100,0,83,291,37,36,0,-44,-32,0,0,100,0,48,375,37,36,0,-22,-54,0,0,100,0,332,104,49,62,0,-30,-9,0,0,65,0,0,0,42,18,0,
0,13,-32,-66,0,0,100,0,5,249,37,36,0,-13,-61,0,0,100,0,215,194,52,69,0,-17,-59,0,0,100,0,126,3,37,36,0,-31,-31,0,0,100,0,91,375,22,26,0,-10,-29,0,0,100,0,115,375,22,26,0,-29,-51,0,0,100,0,5,40,37,43,0,-45,-51,0,0,100,0,87,3,37,36,0,-69,-71,1,0,100,0,265,104,59,85,0,-41,-59,0,0,100,0,5,89,37,36,0,-12,-32,0,0,100,0,5,291,37,36,0,-36,-32,0,0,100,0,48,79,37,36,0,-33,-57,0,0,100,0,331,168,64,62,0,-24,-9,0,0,65,0,0,0,42,18,0,
0,12,-21,-69,0,0,100,0,48,3,37,36,0,-8,-61,0,0,100,0,212,49,47,69,0,-6,-61,0,0,100,0,126,3,37,36,0,-21,-37,0,0,100,0,126,79,37,36,0,-21,-54,0,0,100,0,5,40,37,43,0,-37,-53,0,0,100,0,87,3,37,36,0,-52,-74,0,0,100,0,165,49,45,85,0,-35,-60,0,0,100,0,126,41,37,36,0,-9,-31,0,0,100,0,87,41,37,36,0,-29,-32,0,0,100,0,48,41,37,36,0,-40,-45,0,0,100,0,235,3,68,44,0,-21,-9,0,0,65,0,0,0,42,18,0,
0,12,-21,-69,0,0,100,0,48,3,37,36,0,-8,-62,0,0,100,0,212,49,47,69,0,-6,-61,0,0,100,0,126,3,37,36,0,-21,-37,0,0,100,0,126,79,37,36,0,-21,-54,0,0,100,0,5,40,37,43,0,-37,-53,0,0,100,0,87,3,37,36,0,-52,-74,0,0,100,0,165,49,45,85,0,-35,-60,0,0,100,0,126,41,37,36,0,-9,-31,0,0,100,0,87,41,37,36,0,-29,-32,0,0,100,0,48,41,37,36,0,-40,-46,0,0,100,0,305,3,68,44,0,-21,-9,0,0,65,0,0,0,42,18,0,
0,12,-21,-67,0,0,100,0,48,3,37,36,0,-7,-53,0,0,100,0,212,120,47,69,0,-6,-59,0,0,100,0,126,3,37,36,0,-21,-36,0,0,100,0,126,79,37,36,0,-21,-52,0,0,100,0,5,40,37,43,0,-37,-53,0,0,100,0,87,3,37,36,0,-52,-74,0,0,100,0,165,49,45,85,0,-35,-58,0,0,100,0,126,41,37,36,0,-9,-31,0,0,100,0,87,41,37,36,0,-29,-32,0,0,100,0,48,79,37,36,0,-40,-42,0,0,100,0,265,53,68,44,0,-21,-9,0,0,65,0,0,0,42,18,0,
0,13,-21,-68,0,0,100,0,48,3,37,36,0,-7,-54,0,0,100,0,212,120,47,69,0,9,-55,0,0,100,0,450,3,27,30,0,-6,-60,0,0,100,0,126,3,37,36,0,-21,-37,0,0,100,0,126,79,37,36,0,-21,-53,0,0,100,0,5,40,37,43,0,-37,-54,0,0,100,0,87,3,37,36,0,-52,-75,0,0,100,0,165,49,45,85,0,-35,-60,0,0,100,0,126,41,37,36,0,-9,-31,0,0,100,0,87,41,37,36,0,-29,-32,0,0,100,0,48,41,37,36,0,-40,-44,0,0,100,0,235,3,68,44,0,-21,-9,0,0,65,0,0,0,42,18,0,
0,13,-21,-69,0,0,100,0,48,3,37,36,0,-7,-54,0,0,100,0,212,120,47,69,0,9,-56,0,0,100,0,450,3,27,30,0,-6,-60,0,0,100,0,126,3,37,36,0,-21,-37,0,0,100,0,126,79,37,36,0,-21,-54,0,0,100,0,5,40,37,43,0,-37,-57,0,0,100,0,5,131,37,36,0,-52,-78,0,0,100,0,165,49,45,85,0,-35,-61,0,0,100,0,126,41,37,36,0,-9,-31,0,0,100,0,87,41,37,36,0,-29,-32,0,0,100,0,48,41,37,36,0,-40,-45,0,0,100,0,165,3,68,44,0,-21,-9,0,0,65,0,0,0,42,18,0,
0,13,-21,-67,0,0,100,0,48,3,37,36,0,10,-51,0,0,100,0,479,3,27,25,0,-7,-54,0,0,100,0,212,120,47,69,0,-6,-59,0,0,100,0,126,3,37,36,0,-21,-36,0,0,100,0,126,79,37,36,0,-21,-52,0,0,100,0,5,40,37,43,0,-37,-53,0,0,100,0,5,375,37,36,0,-53,-72,0,0,100,0,165,136,45,85,0,-35,-58,0,0,100,0,126,41,37,36,0,-9,-31,0,0,100,0,87,41,37,36,0,-29,-32,0,0,100,0,48,79,37,36,0,-40,-43,0,0,100,0,265,53,68,44,0,-21,-9,0,0,65,0,0,0,42,18,0,
0,13,-21,-68,0,0,100,0,48,3,37,36,0,10,-51,0,0,100,0,479,3,27,25,0,-7,-54,0,0,100,0,212,120,47,69,0,-6,-60,0,0,100,0,126,3,37,36,0,-21,-37,0,0,100,0,126,79,37,36,0,-21,-53,0,0,100,0,5,40,37,43,0,-37,-54,0,0,100,0,5,375,37,36,0,-53,-73,0,0,100,0,165,136,45,85,0,-35,-59,0,0,100,0,126,41,37,36,0,-9,-31,0,0,100,0,87,41,37,36,0,-29,-32,0,0,100,0,48,41,37,36,0,-40,-44,0,0,100,0,235,3,68,44,0,-21,-9,0,0,65,0,0,0,42,18,0,
0,13,-21,-68,0,0,100,0,48,3,37,36,0,10,-51,0,0,100,0,479,3,27,25,0,-7,-54,0,0,100,0,212,120,47,69,0,-6,-60,0,0,100,0,126,3,37,36,0,-21,-37,0,0,100,0,126,79,37,36,0,-21,-53,0,0,100,0,5,40,37,43,0,-37,-54,0,0,100,0,5,375,37,36,0,-53,-73,0,0,100,0,165,136,45,85,0,-35,-59,0,0,100,0,126,41,37,36,0,-9,-31,0,0,100,0,87,41,37,36,0,-29,-32,0,0,100,0,48,41,37,36,0,-38,-44,0,0,100,0,165,3,68,44,0,-21,-9,0,0,65,0,0,0,42,18,0,
0,13,-21,-68,0,0,100,0,48,3,37,36,0,10,-51,0,0,100,0,479,3,27,25,0,-7,-54,0,0,100,0,212,120,47,69,0,-6,-60,0,0,100,0,126,3,37,36,0,-21,-37,0,0,100,0,126,79,37,36,0,-21,-53,0,0,100,0,5,40,37,43,0,-37,-54,0,0,100,0,5,375,37,36,0,-53,-73,0,0,100,0,165,136,45,85,0,-35,-59,0,0,100,0,126,41,37,36,0,-9,-31,0,0,100,0,87,41,37,36,0,-29,-32,0,0,100,0,48,41,37,36,0,-38,-43,0,0,100,0,235,3,68,44,0,-21,-9,0,0,65,0,0,0,42,18,0,
0,13,-21,-68,0,0,100,0,48,3,37,36,0,10,-51,0,0,100,0,479,3,27,25,0,-7,-54,0,0,100,0,212,120,47,69,0,-6,-60,0,0,100,0,126,3,37,36,0,-21,-37,0,0,100,0,126,79,37,36,0,-21,-53,0,0,100,0,5,40,37,43,0,-37,-54,0,0,100,0,5,375,37,36,0,-53,-73,0,0,100,0,165,136,45,85,0,-35,-59,0,0,100,0,126,41,37,36,0,-9,-31,0,0,100,0,87,41,37,36,0,-29,-32,0,0,100,0,48,41,37,36,0,-38,-44,0,0,100,0,305,3,68,44,0,-21,-9,0,0,65,0,0,0,42,18,0,
0,13,-21,-68,0,0,100,0,48,3,37,36,0,10,-51,0,0,100,0,479,3,27,25,0,-7,-54,0,0,100,0,212,120,47,69,0,-6,-60,0,0,100,0,126,3,37,36,0,-21,-37,0,0,100,0,126,79,37,36,0,-21,-53,0,0,100,0,5,40,37,43,0,-37,-54,0,0,100,0,5,375,37,36,0,-53,-73,0,0,100,0,165,136,45,85,0,-35,-59,0,0,100,0,126,41,37,36,0,-9,-31,0,0,100,0,87,41,37,36,0,-29,-32,0,0,100,0,48,41,37,36,0,-38,-44,0,0,100,0,375,3,68,44,0,-21,-9,0,0,65,0,0,0,42,18,0,
0,13,-16,-66,0,0,100,0,215,194,52,69,0,-31,-65,0,0,100,0,5,249,37,36,0,-17,-59,0,0,100,0,126,3,37,36,0,-31,-31,0,0,100,0,91,375,22,26,0,-9,-30,0,0,100,0,167,375,22,26,0,-29,-51,0,0,100,0,5,40,37,43,0,-40,-59,0,0,100,0,126,41,37,36,0,-46,-48,0,0,100,0,87,3,37,36,0,-70,-67,1,0,100,0,265,104,59,85,0,-12,-32,0,0,100,0,5,291,37,36,0,-36,-32,0,0,100,0,48,79,37,36,0,-21,-61,0,0,100,0,339,53,68,44,0,-24,-9,0,0,65,0,0,0,42,18,0,
