0,2,-40,-73,0,0,100,0,0,0,72,72,0,-30,-37,0,0,100,0,25,413,65,46,0,
0,2,-40,-73,0,0,100,0,72,0,72,72,0,-30,-37,0,0,100,0,25,413,65,46,0,
0,2,-40,-73,0,0,100,0,144,0,72,72,0,-30,-37,0,0,100,0,25,413,65,46,0,
0,2,-40,-73,0,0,100,0,216,0,72,72,0,-30,-37,0,0,100,0,25,413,65,46,0,
0,2,-31,-55,0,0,100,0,9,90,72,56,0,-30,-37,0,0,100,0,25,413,65,46,0,
0,2,-26,-56,0,0,100,0,86,89,64,57,0,-30,-37,0,0,100,0,25,413,65,46,0,
0,3,-62,-64,0,0,100,0,0,217,62,64,0,-52,-59,0,0,100,0,152,86,48,58,0,-56,-37,0,0,100,0,25,413,65,46,0,
0,3,-59,-64,0,0,100,0,67,217,59,39,0,-60,-64,0,0,100,0,208,81,59,64,0,-56,-37,0,0,100,0,25,413,65,46,0,
0,3,-53,-67,0,0,100,0,12,286,36,16,0,-52,-65,0,0,100,0,272,80,48,64,0,-56,-37,0,0,100,0,25,413,65,46,0,
0,2,-52,-61,0,0,100,0,328,84,48,60,0,-56,-37,0,0,100,0,25,413,65,46,0,
0,2,-55,-65,0,0,100,0,5,152,56,64,0,-56,-37,0,0,100,0,25,413,65,46,0,
0,2,-53,-57,0,0,100,0,63,160,56,56,0,-56,-37,0,0,100,0,25,413,65,46,0,
0,3,-79,-55,0,0,100,0,125,218,75,56,0,-73,-56,0,0,100,0,131,161,71,56,0,-67,-37,0,0,100,0,25,413,65,46,0,
0,3,-88,-33,0,0,100,0,204,240,76,34,0,-80,-55,0,0,100,0,204,162,76,56,0,-68,-37,0,0,100,0,25,413,65,46,0,
0,3,-89,-45,0,0,100,0,203,276,37,44,0,-81,-56,0,0,100,0,283,161,77,56,0,-68,-37,0,0,100,0,25,413,65,46,0,
0,2,-81,-50,0,0,100,0,291,223,77,50,0,-68,-37,0,0,100,0,25,413,65,46,0,
0,2,-42,-71,0,0,100,0,164,342,86,84,0,-31,-37,0,0,100,0,25,413,65,46,0,
0,2,-42,-71,0,0,100,0,250,342,86,84,0,-32,-37,0,0,100,0,25,413,65,46,0,
0,2,-42,-71,0,0,100,0,336,342,86,84,0,-32,-37,0,0,100,0,25,413,65,46,0,
0,2,-42,-71,0,0,100,0,422,342,86,84,0,-32,-37,0,0,100,0,25,413,65,46,0,
0,2,-42,-71,0,0,100,0,164,426,86,84,0,-32,-37,0,0,100,0,25,413,65,46,0,
0,2,-42,-71,0,0,100,0,250,426,86,84,0,-32,-37,0,0,100,0,25,413,65,46,0,
0,2,-42,-71,0,0,100,0,336,426,86,84,0,-32,-37,0,0,100,0,25,413,65,46,0,
