0,11,-4,-40,0,0,100,0,842,271,17,18,0,-8,-35,0,0,100,0,821,278,16,16,0,-16,-38,0,0,100,0,799,275,20,18,0,-12,-52,0,0,100,0,804,244,28,24,0,0,-47,0,0,100,0,802,226,32,17,0,-13,-26,0,0,100,0,803,301,24,15,0,-15,-42,0,0,100,0,861,267,30,34,0,-24,-30,0,0,100,0,750,37,42,41,0,-53,-30,0,0,100,0,896,381,61,41,0,0,-38,0,0,100,0,62,345,39,24,0,-26,-12,0,0,65,0,0,344,56,24,0,
0,11,-4,-39,0,0,100,0,842,271,17,18,0,-8,-35,0,0,100,0,821,278,16,16,0,-18,-53,0,0,100,0,838,243,36,27,0,-2,-46,0,0,100,0,839,227,32,17,0,-16,-38,0,0,100,0,799,275,20,18,0,-13,-25,0,0,100,0,803,301,24,15,0,-15,-41,0,0,100,0,861,267,30,34,0,-21,-29,0,0,100,0,793,38,44,35,0,-53,-29,0,0,100,0,896,381,61,41,0,2,-38,0,0,100,0,64,373,33,22,0,-26,-12,0,0,65,0,0,344,56,24,0,
0,11,-4,-39,0,0,100,0,842,271,17,18,0,-8,-34,0,0,100,0,821,278,16,16,0,-12,-51,0,0,100,0,884,245,26,26,0,-1,-45,0,0,100,0,880,225,33,16,0,-16,-37,0,0,100,0,799,275,20,18,0,-13,-25,0,0,100,0,803,301,24,15,0,-15,-41,0,0,100,0,861,267,30,34,0,-21,-29,0,0,100,0,793,38,44,35,0,-53,-29,0,0,100,0,896,381,61,41,0,2,-38,0,0,100,0,104,347,35,24,0,-26,-12,0,0,65,0,0,344,56,24,0,
0,11,-4,-40,0,0,100,0,842,271,17,18,0,-8,-35,0,0,100,0,821,278,16,16,0,-17,-38,0,0,100,0,893,275,26,21,0,-18,-57,0,0,100,0,918,239,36,31,0,0,-45,0,0,100,0,919,225,37,15,0,-13,-26,0,0,100,0,803,301,24,15,0,-15,-42,0,0,100,0,861,267,30,34,0,-24,-30,0,0,100,0,750,37,42,41,0,-53,-30,0,0,100,0,896,381,61,41,0,3,-40,0,0,100,0,104,370,36,26,0,-26,-12,0,0,65,0,0,344,56,24,0,
0,14,-16,-50,0,0,100,0,0,160,40,40,0,-20,-40,0,0,100,0,0,200,40,40,0,-17,-39,0,0,100,0,280,480,40,40,0,-59,-51,0,0,100,0,160,0,80,40,0,-28,-39,0,0,100,0,240,480,40,40,0,-23,-38,0,0,100,0,80,120,40,40,0,-29,-57,0,0,100,0,0,0,40,40,0,-25,-47,0,0,100,0,80,80,40,40,0,-15,-30,0,0,100,0,200,480,40,40,0,-27,-28,0,0,100,0,160,480,40,40,0,-25,-47,0,0,100,0,160,40,40,40,0,-10,-56,0,0,100,0,0,480,40,40,0,-5,-50,0,0,100,0,61,322,37,21,0,-26,-12,0,0,65,0,0,344,56,24,0,
0,14,-30,-40,0,0,100,0,200,80,40,40,0,-30,-80,0,0,100,0,280,0,40,80,0,-29,-50,0,0,100,0,240,80,40,40,0,-10,-48,0,0,100,0,40,160,40,40,0,-12,-40,0,0,100,0,40,200,40,40,0,-32,-46,0,0,100,0,80,160,40,40,0,-20,-60,0,0,100,0,0,0,40,40,0,-20,-39,0,0,100,0,40,120,40,40,0,-20,-49,0,0,100,0,40,80,40,40,0,-9,-31,0,0,100,0,80,240,40,40,0,-31,-31,0,0,100,0,80,280,40,40,0,4,-40,0,0,100,0,64,344,30,17,0,-12,-43,0,0,100,0,40,440,40,40,0,-26,-12,0,0,65,0,0,344,56,24,0,
0,15,-124,-176,0,1,50,0,0,520,240,200,0,-30,-38,0,0,100,0,200,80,40,40,0,-30,-78,0,0,100,0,280,0,40,80,0,-29,-50,0,0,100,0,240,80,40,40,0,-13,-37,0,0,100,0,40,200,40,40,0,-10,-47,0,0,100,0,40,160,40,40,0,-32,-45,0,0,100,0,80,160,40,40,0,-20,-59,0,0,100,0,0,0,40,40,0,-20,-38,0,0,100,0,40,120,40,40,0,-20,-48,0,0,100,0,40,80,40,40,0,-9,-31,0,0,100,0,80,240,40,40,0,-31,-31,0,0,100,0,80,280,40,40,0,5,-41,0,0,100,0,64,372,30,17,0,-12,-42,0,0,100,0,40,440,40,40,0,-26,-12,0,0,65,0,0,344,56,24,0,
0,17,-124,-176,0,1,100,0,0,520,240,200,0,-26,-64,0,0,100,0,200,80,40,40,0,-26,-104,0,0,100,0,280,0,40,80,0,-18,-52,0,0,100,180,127,162,27,33,0,-27,-63,0,0,100,0,240,80,40,40,0,-10,-51,0,0,100,0,80,200,40,40,0,-7,-51,0,0,100,0,40,160,40,40,0,-18,-63,0,0,100,0,160,360,40,40,0,-28,-53,0,0,100,0,80,160,40,40,0,-18,-41,0,0,100,0,40,120,40,40,0,-18,-52,0,0,100,0,40,80,40,40,0,-10,-31,0,0,100,0,120,240,40,40,0,-28,-31,0,0,100,0,120,280,40,40,0,-11,-42,0,0,100,0,868,377,18,28,0,5,-43,0,0,100,0,878,376,20,32,0,-12,-43,0,0,100,0,40,440,40,40,0,-25,-12,0,0,65,0,0,344,56,24,0,
0,17,-84,-176,0,1,100,0,240,520,160,200,0,-26,-67,0,0,100,0,200,80,40,40,0,-26,-107,0,0,100,0,280,0,40,80,0,-18,-55,0,0,100,180,127,162,27,33,0,-27,-67,0,0,100,0,240,80,40,40,0,-7,-53,0,0,100,0,120,200,40,40,0,-7,-53,0,0,100,0,40,160,40,40,0,-18,-65,0,0,100,0,160,360,40,40,0,-18,-42,0,0,100,0,40,120,40,40,0,-18,-53,0,0,100,0,40,80,40,40,0,-10,-31,0,0,100,0,120,240,40,40,0,-27,-31,0,0,100,0,120,280,40,40,0,-12,-43,0,0,100,0,868,377,18,28,0,5,-44,0,0,100,0,878,376,20,32,0,-14,-43,0,0,100,0,40,440,40,40,0,-45,-135,0,1,100,0,0,800,88,120,0,-25,-12,0,0,65,0,0,344,56,24,0,
0,17,-64,-176,0,1,100,0,400,520,120,200,0,-26,-68,0,0,100,0,200,80,40,40,0,-26,-108,0,0,100,0,280,0,40,80,0,-8,-52,0,0,100,0,120,200,40,40,0,-18,-56,0,0,100,180,127,162,27,33,0,-27,-69,0,0,100,0,240,80,40,40,0,-7,-52,0,0,100,0,40,160,40,40,0,-18,-42,0,0,100,0,40,120,40,40,0,-18,-65,0,0,100,0,160,360,40,40,0,-18,-53,0,0,100,0,40,80,40,40,0,-10,-31,0,0,100,0,120,240,40,40,0,-27,-31,0,0,100,0,120,280,40,40,0,-12,-43,0,0,100,0,868,377,18,28,0,5,-44,0,0,100,0,878,376,20,32,0,-14,-43,0,0,100,0,40,440,40,40,0,-36,-134,0,1,100,0,88,800,64,120,0,-25,-12,0,0,65,0,0,344,56,24,0,
0,17,-24,-117,0,1,100,0,0,720,40,80,0,-26,-68,0,0,100,0,200,80,40,40,0,-8,-52,0,0,100,0,120,200,40,40,0,-26,-108,0,0,100,0,280,0,40,80,0,-7,-52,0,0,100,0,40,160,40,40,0,-18,-56,0,0,100,180,127,162,27,33,0,-27,-69,0,0,100,0,240,80,40,40,0,-18,-42,0,0,100,0,40,120,40,40,0,-18,-65,0,0,100,0,160,360,40,40,0,-18,-53,0,0,100,0,40,80,40,40,0,-10,-31,0,0,100,0,120,240,40,40,0,-27,-31,0,0,100,0,120,280,40,40,0,-12,-43,0,0,100,0,868,377,18,28,0,5,-44,0,0,100,0,878,376,20,32,0,-14,-43,0,0,100,0,40,440,40,40,0,-32,-137,0,1,100,0,152,800,64,120,0,-25,-12,0,0,65,0,0,344,56,24,0,
0,16,-41,-117,0,1,100,0,40,720,40,80,0,-21,-62,0,0,100,0,0,0,40,40,0,-34,-62,0,0,100,0,200,80,40,40,0,-41,-102,0,0,100,0,240,0,40,80,0,-10,-49,0,0,100,0,80,200,40,40,0,-10,-49,0,0,100,0,40,160,40,40,0,-33,-67,0,0,100,0,240,80,40,40,0,-21,-41,0,0,100,0,40,120,40,40,0,-27,-54,0,0,100,-180,149,157,40,40,0,-21,-51,0,0,100,0,40,80,40,40,0,-10,-31,0,0,100,0,80,240,40,40,0,-30,-31,0,0,100,0,80,280,40,40,0,-2,-45,0,0,100,0,61,342,39,31,0,-7,-49,0,0,100,0,120,440,40,40,0,-43,-128,0,1,100,0,216,800,64,120,0,-26,-12,0,0,65,0,0,344,56,24,0,
0,13,-45,-62,0,1,100,0,80,720,57,40,0,-16,-40,0,0,100,0,0,200,40,40,0,-14,-49,0,0,100,0,120,160,40,40,0,-17,-39,0,0,100,0,80,120,40,40,0,-23,-60,0,0,100,0,200,360,40,40,0,-12,-29,0,0,100,0,160,400,40,40,0,-23,-29,0,0,100,0,160,440,40,40,0,-14,-47,1,0,100,0,114,79,40,40,0,-60,-65,0,0,100,0,160,0,80,40,0,-4,-50,0,0,100,0,0,440,40,40,0,-2,-44,0,0,100,0,58,326,43,15,0,-42,-59,0,1,100,0,305,819,54,35,0,-25,-12,0,0,65,0,0,344,56,24,0,
0,13,-32,-46,0,1,100,0,80,760,74,40,0,-16,-37,0,0,100,0,0,200,40,40,0,-11,-40,0,0,100,0,40,440,40,40,0,-12,-46,0,0,100,0,120,160,40,40,0,-13,-36,0,0,100,0,80,120,40,40,0,-13,-46,0,0,100,0,80,80,40,40,0,-18,-56,0,0,100,0,200,360,40,40,0,-47,-53,2,0,100,0,160,0,80,40,0,-3,-29,0,0,100,0,200,400,40,40,0,-22,-29,0,0,100,0,200,440,40,40,0,1,-33,0,0,100,0,100,351,38,22,0,-50,-54,0,1,100,0,280,864,96,56,0,-21,-12,0,0,65,0,0,344,56,24,0,
0,13,-32,-66,0,1,100,0,138,716,80,80,0,-8,-38,0,0,100,0,80,440,40,40,0,-19,-44,0,0,100,0,120,120,40,40,0,-12,-45,0,0,100,0,120,160,40,40,0,7,-37,0,0,100,0,878,376,20,32,0,-11,-35,0,0,100,0,80,120,40,40,0,-11,-45,0,0,100,0,80,80,40,40,0,-16,-55,0,0,100,0,200,360,40,40,0,-41,-52,2,0,100,0,160,0,80,40,0,-1,-29,0,0,100,0,200,400,40,40,0,-21,-29,0,0,100,0,240,440,40,40,0,-30,-49,0,1,100,0,376,811,53,39,0,-20,-12,0,0,65,0,0,344,56,24,0,
0,13,-33,-56,0,1,100,0,217,726,63,69,0,-7,-38,0,0,100,0,80,440,40,40,0,-19,-44,0,0,100,0,120,120,40,40,0,-11,-46,0,0,100,0,120,160,40,40,0,9,-36,0,0,100,0,878,376,20,32,0,-10,-35,0,0,100,0,80,120,40,40,0,-10,-45,0,0,100,0,80,80,40,40,0,-15,-55,0,0,100,0,200,360,40,40,0,-38,-52,2,0,100,0,160,0,80,40,0,1,-29,0,0,100,0,200,400,40,40,0,-21,-29,0,0,100,0,240,440,40,40,0,-29,-55,0,1,100,0,376,864,96,56,0,-19,-12,0,0,65,0,0,344,56,24,0,
0,15,-42,-96,0,1,100,0,320,400,48,120,0,-34,-59,0,1,100,0,312,722,64,67,0,-17,-45,0,0,100,0,120,120,40,40,0,-12,-46,0,0,100,0,120,160,40,40,0,-14,-35,0,0,100,0,80,120,40,40,0,-15,-46,0,0,100,0,80,80,40,40,0,-20,-56,0,0,100,0,0,0,40,40,0,-24,-44,2,0,100,0,107,323,53,25,0,-8,-29,0,0,100,0,240,400,40,40,0,-21,-29,0,0,100,0,160,440,40,40,0,3,-38,0,0,100,0,61,344,37,26,0,-2,-50,0,0,100,0,120,440,40,40,0,-54,-66,0,1,100,0,472,809,82,55,0,-56,-76,0,1,100,0,520,520,120,96,0,-21,-12,0,0,65,0,0,344,56,24,0,
0,18,-166,-96,0,1,100,0,0,1080,160,120,0,-16,-96,0,1,100,0,368,400,48,120,0,-79,-68,0,1,100,0,396,714,120,80,0,-45,-49,0,0,100,0,240,360,40,40,0,-66,-35,2,0,100,0,104,325,54,22,0,-35,-50,0,0,100,0,280,360,40,40,0,-17,-45,0,0,100,0,120,200,40,40,0,-17,-45,0,0,100,0,40,160,40,40,0,-26,-36,0,0,100,0,40,120,40,40,0,-28,-56,0,0,100,0,40,400,40,40,0,-27,-46,0,0,100,0,40,80,40,40,0,-38,-44,0,0,100,0,80,160,40,40,0,-17,-29,0,0,100,0,280,400,40,40,0,-35,-29,0,0,100,0,280,440,40,40,0,-9,-55,0,0,100,0,0,480,40,40,0,-8,-36,0,0,100,0,100,349,39,22,0,-126,-76,0,1,100,0,640,520,248,96,0,-29,-12,0,0,65,0,0,344,56,24,0,
0,20,-81,-58,0,1,100,0,464,448,160,72,0,-216,-92,0,1,100,0,0,1080,160,120,0,-166,-96,0,1,100,0,160,1080,160,120,0,-6,-96,0,1,100,0,416,400,48,120,0,-82,-64,0,1,100,0,509,718,106,80,0,-48,-47,0,0,100,0,240,360,40,40,0,-69,-33,2,0,100,0,104,325,54,22,0,-36,-48,0,0,100,0,280,360,40,40,0,-16,-45,0,0,100,0,120,200,40,40,0,-18,-44,0,0,100,0,40,160,40,40,0,-27,-35,0,0,100,0,40,120,40,40,0,-29,-55,0,0,100,0,80,400,40,40,0,-39,-43,0,0,100,0,80,160,40,40,0,-28,-45,0,0,100,0,40,80,40,40,0,-18,-29,0,0,100,0,280,400,40,40,0,-37,-29,0,0,100,0,280,440,40,40,0,-13,-35,0,0,100,0,56,375,42,22,0,-10,-54,0,0,100,0,40,480,40,40,0,-226,-60,0,1,100,0,520,616,328,64,0,-31,-12,0,0,65,0,0,344,56,24,0,
0,21,-118,-54,0,1,100,0,464,448,160,72,0,-81,-58,0,1,100,0,624,448,160,72,0,-256,-102,0,1,100,0,0,1080,160,120,0,-216,-92,0,1,100,0,160,1080,160,120,0,-166,-96,0,1,100,0,320,1080,160,120,0,-70,-62,0,1,100,0,640,720,120,80,0,-49,-47,0,0,100,0,240,360,40,40,0,-70,-33,2,0,100,0,104,325,54,22,0,-29,-55,0,0,100,0,120,400,40,40,0,-16,-46,0,0,100,0,120,200,40,40,0,-18,-44,0,0,100,0,40,160,40,40,0,-27,-35,0,0,100,0,40,120,40,40,0,-36,-48,0,0,100,0,280,360,40,40,0,-39,-43,0,0,100,0,80,160,40,40,0,-28,-45,0,0,100,0,40,80,40,40,0,-18,-29,0,0,100,0,280,400,40,40,0,-37,-29,0,0,100,0,280,440,40,40,0,-10,-54,0,0,100,0,80,480,40,40,0,-12,-43,0,0,100,0,55,323,41,22,0,-286,-46,0,1,100,0,520,680,256,40,0,-31,-12,0,0,65,0,0,344,56,24,0,
0,23,-144,-53,0,1,100,0,464,448,160,72,0,-118,-54,0,1,100,0,624,448,160,72,0,-81,-58,0,1,100,0,784,448,160,72,0,-216,-117,0,1,100,0,320,920,160,160,0,-296,-93,0,1,100,0,0,1080,160,120,0,-256,-102,0,1,100,0,160,1080,160,120,0,-216,-92,0,1,100,0,320,1080,160,120,0,-166,-96,0,1,100,0,480,1080,160,120,0,-49,-47,0,0,100,0,240,360,40,40,0,-70,-33,2,0,100,0,104,325,54,22,0,-16,-46,0,0,100,0,120,200,40,40,0,-18,-44,0,0,100,0,40,160,40,40,0,-29,-55,0,0,100,0,0,400,40,40,0,-36,-48,0,0,100,0,280,360,40,40,0,-39,-43,0,0,100,0,80,160,40,40,0,-27,-35,0,0,100,0,40,120,40,40,0,-28,-45,0,0,100,0,40,80,40,40,0,-18,-29,0,0,100,0,280,400,40,40,0,-37,-29,0,0,100,0,280,440,40,40,0,-10,-54,0,0,100,0,120,480,40,40,0,-11,-38,0,0,100,0,58,374,40,22,0,-296,-46,0,1,100,0,776,680,168,40,0,-31,-12,0,0,65,0,0,344,56,24,0,
0,21,-170,-54,0,1,100,0,464,448,160,72,0,-144,-53,0,1,100,0,624,448,160,72,0,-118,-54,0,1,100,0,784,448,160,72,0,-284,-113,0,1,100,0,320,920,160,160,0,-296,-93,0,1,100,0,160,1080,160,120,0,-256,-102,0,1,100,0,320,1080,160,120,0,-216,-92,0,1,100,0,480,1080,160,120,0,-49,-47,0,0,100,0,240,360,40,40,0,-70,-33,2,0,100,0,104,325,54,22,0,-16,-46,0,0,100,0,120,200,40,40,0,-18,-44,0,0,100,0,40,160,40,40,0,-29,-55,0,0,100,0,40,400,40,40,0,-27,-35,0,0,100,0,40,120,40,40,0,-36,-48,0,0,100,0,280,360,40,40,0,-39,-43,0,0,100,0,80,160,40,40,0,-28,-45,0,0,100,0,40,80,40,40,0,-18,-29,0,0,100,0,280,400,40,40,0,-37,-29,0,0,100,0,280,440,40,40,0,-11,-35,0,0,100,0,99,350,37,20,0,-10,-54,0,0,100,0,0,480,40,40,0,-31,-12,0,0,65,0,0,344,56,24,0,
0,20,-237,-49,0,1,100,0,464,448,160,72,0,-170,-54,0,1,100,0,624,448,160,72,0,-144,-53,0,1,100,0,784,448,160,72,0,-216,-117,0,1,100,0,640,920,160,160,0,-296,-93,0,1,100,0,320,1080,160,120,0,-256,-102,0,1,100,0,480,1080,160,120,0,-49,-47,0,0,100,0,240,360,40,40,0,-70,-33,2,0,100,0,104,325,54,22,0,-16,-46,0,0,100,0,120,200,40,40,0,-18,-44,0,0,100,0,40,160,40,40,0,-27,-35,0,0,100,0,40,120,40,40,0,-29,-55,0,0,100,0,80,400,40,40,0,-36,-48,0,0,100,0,280,360,40,40,0,-39,-43,0,0,100,0,80,160,40,40,0,-28,-45,0,0,100,0,40,80,40,40,0,-18,-29,0,0,100,0,280,400,40,40,0,-37,-29,0,0,100,0,280,440,40,40,0,-10,-54,0,0,100,0,40,480,40,40,0,-11,-34,0,0,100,0,98,378,41,18,0,-31,-12,0,0,65,0,0,344,56,24,0,
0,19,-237,-49,0,1,100,0,624,448,160,72,0,-170,-54,0,1,100,0,784,448,160,72,0,-284,-113,0,1,100,0,640,920,160,160,0,-216,-117,0,1,100,0,800,920,160,160,0,-296,-93,0,1,100,0,480,1080,160,120,0,-49,-47,0,0,100,0,240,360,40,40,0,-70,-33,2,0,100,0,104,325,54,22,0,-16,-46,0,0,100,0,120,200,40,40,0,-18,-44,0,0,100,0,40,160,40,40,0,-27,-35,0,0,100,0,40,120,40,40,0,-29,-55,0,0,100,0,120,400,40,40,0,-36,-48,0,0,100,0,280,360,40,40,0,-39,-43,0,0,100,0,80,160,40,40,0,-28,-45,0,0,100,0,40,80,40,40,0,-18,-29,0,0,100,0,280,400,40,40,0,-37,-29,0,0,100,0,280,440,40,40,0,-10,-54,0,0,100,0,80,480,40,40,0,-11,-35,0,0,100,0,58,346,39,24,0,-31,-12,0,0,65,0,0,344,56,24,0,
0,16,-237,-49,0,1,100,0,784,448,160,72,0,-284,-113,0,1,100,0,800,920,160,160,0,-49,-47,0,0,100,0,240,360,40,40,0,-70,-33,2,0,100,0,104,325,54,22,0,-16,-46,0,0,100,0,120,200,40,40,0,-18,-44,0,0,100,0,40,160,40,40,0,-29,-55,0,0,100,0,0,400,40,40,0,-36,-48,0,0,100,0,280,360,40,40,0,-39,-43,0,0,100,0,80,160,40,40,0,-27,-35,0,0,100,0,40,120,40,40,0,-28,-45,0,0,100,0,40,80,40,40,0,-18,-29,0,0,100,0,280,400,40,40,0,-37,-29,0,0,100,0,280,440,40,40,0,-10,-54,0,0,100,0,120,480,40,40,0,-12,-43,0,0,100,0,55,323,41,22,0,-31,-12,0,0,65,0,0,344,56,24,0,
0,14,-49,-47,0,0,100,0,240,360,40,40,0,-70,-33,2,0,100,0,104,325,54,22,0,-16,-46,0,0,100,0,120,200,40,40,0,-18,-44,0,0,100,0,40,160,40,40,0,-29,-55,0,0,100,0,40,400,40,40,0,-36,-48,0,0,100,0,280,360,40,40,0,-39,-43,0,0,100,0,80,160,40,40,0,-27,-35,0,0,100,0,40,120,40,40,0,-28,-45,0,0,100,0,40,80,40,40,0,-18,-29,0,0,100,0,280,400,40,40,0,-37,-29,0,0,100,0,280,440,40,40,0,-10,-54,0,0,100,0,0,480,40,40,0,-13,-35,0,0,100,0,56,375,42,22,0,-31,-12,0,0,65,0,0,344,56,24,0,
0,14,-48,-46,0,0,100,0,240,360,40,40,0,-69,-32,2,0,100,0,104,325,54,22,0,-17,-45,0,0,100,0,120,200,40,40,0,-18,-44,0,0,100,0,40,160,40,40,0,-29,-55,0,0,100,0,80,400,40,40,0,-27,-35,0,0,100,0,40,120,40,40,0,-35,-47,0,0,100,0,280,360,40,40,0,-39,-43,0,0,100,0,80,160,40,40,0,-28,-45,0,0,100,0,40,80,40,40,0,-18,-29,0,0,100,0,280,400,40,40,0,-37,-29,0,0,100,0,280,440,40,40,0,-11,-32,0,0,100,0,98,378,41,18,0,-10,-54,0,0,100,0,40,480,40,40,0,-31,-12,0,0,65,0,0,344,56,24,0,
0,14,-43,-46,0,0,100,0,240,360,40,40,0,-64,-32,2,0,100,0,104,325,54,22,0,-18,-46,0,0,100,0,80,200,40,40,0,-18,-45,0,0,100,0,40,160,40,40,0,-27,-35,0,0,100,0,40,120,40,40,0,-28,-57,0,0,100,0,120,400,40,40,0,-34,-47,0,0,100,0,280,360,40,40,0,-28,-46,0,0,100,0,40,80,40,40,0,-38,-44,0,0,100,0,80,160,40,40,0,-19,-29,0,0,100,0,280,400,40,40,0,-36,-29,0,0,100,0,280,440,40,40,0,-8,-39,0,0,100,0,61,344,37,26,0,-10,-48,0,0,100,0,0,440,40,40,0,-30,-12,0,0,65,0,0,344,56,24,0,
0,12,-15,-43,0,0,100,0,0,200,40,40,0,-10,-53,0,0,100,0,43,157,40,40,0,-55,-53,0,0,100,0,160,0,80,40,0,-23,-41,0,0,100,0,0,120,40,40,0,-22,-63,0,0,100,0,120,0,40,40,0,-22,-51,0,0,100,0,0,80,40,40,0,-30,-33,0,0,100,0,0,240,40,40,0,-32,-33,0,0,100,0,40,280,40,40,0,-22,-53,0,0,100,0,160,40,40,40,0,-30,-43,0,0,100,0,160,80,40,40,0,1,-46,0,0,100,0,878,376,20,32,0,-29,-12,0,0,65,0,0,368,56,24,0,
0,12,-9,-51,0,0,100,0,80,200,40,40,0,-28,-51,1,0,100,0,40,160,40,40,0,-11,-51,0,0,100,0,40,160,40,40,0,-20,-41,0,0,100,0,40,120,40,40,0,-21,-63,0,0,100,0,0,0,40,40,0,-21,-52,0,0,100,0,40,80,40,40,0,-10,-31,0,0,100,0,80,240,40,40,0,-29,-31,0,0,100,0,80,280,40,40,0,-7,-49,0,0,100,0,120,440,40,40,0,-47,-36,0,0,100,0,905,382,55,33,0,-20,-37,1,0,100,0,878,376,20,32,0,-26,-12,0,0,65,0,0,344,56,24,0,
0,13,-24,-49,0,0,100,0,210,80,21,25,0,-29,-60,0,0,100,180,287,0,33,81,0,-11,-51,0,0,100,0,40,160,40,40,0,-9,-51,0,0,100,0,80,200,40,40,0,-28,-51,1,0,100,0,40,160,40,40,0,-20,-41,0,0,100,0,40,120,40,40,0,-21,-63,0,0,100,0,0,0,40,40,0,-21,-52,0,0,100,0,40,80,40,40,0,-10,-31,0,0,100,0,80,240,40,40,0,-30,-31,0,0,100,0,80,280,40,40,0,-7,-49,0,0,100,0,120,440,40,40,0,-19,-37,1,0,100,0,878,376,20,32,0,-26,-12,0,0,65,0,0,344,56,24,0,
0,14,-19,-51,0,0,100,90,131,212,31,23,0,-18,-55,0,0,100,90,101,328,64,18,0,-17,-48,1,0,100,0,5,164,26,28,0,-10,-66,0,0,100,0,871,4,26,36,0,-18,-42,0,0,100,0,40,120,40,40,0,-19,-53,0,0,100,0,40,80,40,40,0,-14,-30,0,0,100,0,654,37,25,39,0,-3,-25,0,0,100,0,682,43,24,34,0,-9,-51,0,0,100,0,41,160,32,31,0,-3,-40,1,0,100,0,4,200,33,29,0,-3,-36,0,0,100,-90,704,55,17,24,0,-31,-58,1,0,100,0,45,482,35,30,0,-20,-37,1,0,100,0,878,376,20,32,0,-26,-12,0,0,65,0,0,344,56,24,0,
0,16,-19,-61,0,0,100,90,131,212,31,23,0,-18,-65,0,0,100,90,101,328,64,18,0,-18,-50,1,0,100,0,5,164,26,28,0,-16,-70,0,0,100,0,827,0,38,46,0,-18,-43,0,0,100,0,40,120,40,40,0,-19,-54,0,0,100,0,40,80,40,40,0,-14,-2,0,0,100,0,654,65,18,6,0,7,-3,0,0,100,0,692,65,13,6,0,-14,-31,0,0,100,0,654,37,25,39,0,-3,-26,0,0,100,0,682,43,24,34,0,-9,-52,0,0,100,0,41,160,32,31,0,-3,-41,1,0,100,0,4,200,33,29,0,-3,-37,0,0,100,-90,704,55,17,24,0,-31,-59,1,0,100,0,45,482,35,30,0,-19,-40,1,0,100,0,878,376,20,32,0,-26,-12,0,0,65,0,0,344,56,24,0,
0,14,-19,-46,0,0,100,90,131,212,31,23,0,-18,-49,0,0,100,90,113,328,52,18,0,-18,-47,1,0,100,0,5,164,26,28,0,-10,-65,0,0,100,0,871,4,26,36,0,-18,-41,0,0,100,0,40,120,40,40,0,-19,-52,0,0,100,0,40,80,40,40,0,-14,-30,0,0,100,0,654,37,25,39,0,-3,-25,0,0,100,0,682,43,24,34,0,-9,-50,0,0,100,0,41,160,32,31,0,-3,-39,1,0,100,0,4,200,33,29,0,-3,-35,0,0,100,-90,704,55,17,24,0,-31,-57,1,0,100,0,45,482,35,30,0,-20,-38,1,0,100,0,878,376,20,32,0,-26,-12,0,0,65,0,0,344,56,24,0,
0,14,-19,-45,0,0,100,90,131,212,31,23,0,-18,-48,0,0,100,90,113,328,52,18,0,-18,-48,1,0,100,0,5,164,26,28,0,-16,-69,0,0,100,0,827,0,38,46,0,-18,-42,0,0,100,0,40,120,40,40,0,-19,-53,0,0,100,0,40,80,40,40,0,-14,-30,0,0,100,0,654,37,25,39,0,-3,-25,0,0,100,0,682,43,24,34,0,-9,-51,0,0,100,0,41,160,32,31,0,-3,-40,1,0,100,0,4,200,33,29,0,-3,-36,0,0,100,-90,704,55,17,24,0,-17,-36,1,0,100,0,878,376,20,32,0,-31,-58,1,0,100,0,45,482,35,30,0,-26,-12,0,0,65,0,0,344,56,24,0,
0,13,1,-47,0,0,100,0,723,33,21,25,0,-19,-45,0,0,100,90,131,212,31,23,0,-18,-48,0,0,100,90,113,328,52,18,0,-18,-48,1,0,100,0,5,164,26,28,0,-16,-69,0,0,100,0,827,0,38,46,0,-18,-42,0,0,100,0,40,120,40,40,0,-19,-53,0,0,100,0,40,80,40,40,0,-14,-30,0,0,100,0,654,37,25,39,0,-3,-25,0,0,100,0,682,43,24,34,0,-9,-51,0,0,100,0,41,160,32,31,0,-17,-36,1,0,100,0,878,376,20,32,0,-31,-58,1,0,100,0,45,482,35,30,0,-26,-12,0,0,65,0,0,344,56,24,0,
0,16,-19,-45,0,0,100,90,131,212,31,23,0,-18,-48,0,0,100,90,113,328,52,18,0,-18,-49,1,0,100,0,5,164,26,28,0,-22,-69,0,0,100,0,784,0,42,44,0,-18,-43,0,0,100,0,40,120,40,40,0,10,-59,0,0,100,0,705,37,18,19,0,-19,-54,0,0,100,0,40,80,40,40,0,-6,-51,0,0,100,90,5,164,26,28,0,5,-52,0,0,100,0,704,55,17,24,0,-14,-2,0,0,100,0,654,65,18,6,0,7,-3,0,0,100,0,692,65,13,6,0,-14,-31,0,0,100,0,654,37,25,39,0,-3,-26,0,0,100,0,682,43,24,34,0,-17,-39,1,0,100,0,878,376,20,32,0,-29,-45,1,0,100,0,120,452,37,22,0,-26,-12,0,0,65,0,0,344,56,24,0,
0,14,-19,-45,0,0,100,90,131,212,31,23,0,-18,-48,0,0,100,90,113,328,52,18,0,-18,-48,1,0,100,0,5,164,26,28,0,-22,-68,0,0,100,0,784,0,42,44,0,-18,-42,0,0,100,0,40,120,40,40,0,6,-45,0,0,100,0,705,37,18,19,0,-19,-53,0,0,100,0,40,80,40,40,0,-14,-30,0,0,100,0,654,37,25,39,0,-7,-46,0,0,100,0,46,166,30,25,0,-4,-41,0,0,100,-90,704,55,17,24,0,-3,-25,0,0,100,0,682,43,24,34,0,-17,-36,1,0,100,0,878,376,20,32,0,-29,-44,1,0,100,0,120,452,37,22,0,-26,-12,0,0,65,0,0,344,56,24,0,
0,14,-19,-45,0,0,100,90,131,212,31,23,0,-18,-48,0,0,100,90,113,328,52,18,0,-18,-48,1,0,100,0,5,164,26,28,0,1,-41,0,0,100,0,723,39,20,18,0,-10,-66,0,0,100,0,871,4,26,36,0,-18,-42,0,0,100,0,40,120,40,40,0,-19,-53,0,0,100,0,40,80,40,40,0,-14,-30,0,0,100,0,654,37,25,39,0,-3,-25,0,0,100,0,682,43,24,34,0,-3,-53,0,0,100,0,129,164,23,35,0,-4,-40,0,0,100,-90,704,55,17,24,0,-17,-36,1,0,100,0,878,376,20,32,0,-31,-58,1,0,100,0,45,482,35,30,0,-26,-12,0,0,65,0,0,344,56,24,0,
0,14,-19,-45,0,0,100,90,131,212,31,23,0,-18,-48,0,0,100,90,113,328,52,18,0,-18,-48,1,0,100,0,5,164,26,28,0,1,-41,0,0,100,0,723,39,20,18,0,-16,-69,0,0,100,0,827,0,38,46,0,-18,-42,0,0,100,0,40,120,40,40,0,-19,-53,0,0,100,0,40,80,40,40,0,-14,-30,0,0,100,0,654,37,25,39,0,-3,-53,0,0,100,0,129,164,25,35,0,-4,-40,0,0,100,-90,704,55,17,24,0,-3,-25,0,0,100,0,682,43,24,34,0,-17,-36,1,0,100,0,878,376,20,32,0,-28,-46,1,0,100,0,120,452,37,22,0,-26,-12,0,0,65,0,0,344,56,24,0,
0,19,11,-27,0,0,100,0,836,42,34,30,0,1,-41,0,0,100,0,723,39,20,18,0,-19,-45,0,0,100,90,131,212,31,23,0,-18,-48,0,0,100,90,113,328,52,18,0,-18,-48,1,0,100,0,5,164,26,28,0,-16,-69,0,0,100,0,827,0,38,46,0,-18,-42,0,0,100,0,40,120,40,40,0,-23,-39,0,0,100,0,160,320,40,40,0,-12,-40,1,0,100,0,160,320,40,40,0,-19,-53,0,0,100,0,40,80,40,40,0,-14,-30,0,0,100,0,654,37,25,39,0,-3,-53,0,0,100,0,129,164,25,35,0,-4,-40,0,0,100,-90,704,55,17,24,0,-3,-25,0,0,100,0,682,43,24,34,0,-17,-36,1,0,100,0,878,376,20,32,0,-4,-31,1,0,100,0,182,208,26,39,0,-17,-28,1,0,100,0,217,164,24,31,0,-28,-46,1,0,100,0,120,452,37,22,0,-26,-12,0,0,65,0,0,344,56,24,0,
0,16,4,-21,0,0,100,0,699,4,34,35,0,-38,-38,0,0,100,180,236,20,48,49,0,-27,-43,1,0,100,90,8,203,23,24,0,-20,-48,1,0,100,0,5,164,26,28,0,-19,-40,1,0,100,90,704,57,23,16,0,-19,-70,0,0,100,0,865,0,38,46,0,1,-41,0,0,100,0,723,39,20,18,0,-20,-42,0,0,100,0,40,120,40,40,0,-21,-53,0,0,100,0,40,80,40,40,0,-18,-30,0,0,100,0,654,37,25,39,0,-8,-46,0,0,100,0,46,166,30,25,0,-4,-40,0,0,100,-90,704,55,17,24,0,-6,-25,1,0,100,0,86,286,28,33,0,-37,-63,1,0,100,0,42,479,40,35,0,-22,-36,1,0,100,0,878,376,20,32,0,-26,-12,0,0,65,0,0,344,56,24,0,
0,16,3,-24,0,0,100,0,748,0,39,44,0,-23,-39,1,0,100,-90,698,36,25,20,0,-51,-28,3,0,100,0,171,1,61,42,0,-22,-48,1,0,100,0,5,164,26,28,0,-22,-41,1,0,100,90,704,57,23,16,0,-20,-70,0,0,100,0,865,0,38,46,0,3,-42,0,0,100,0,723,39,20,18,0,-22,-42,0,0,100,0,40,120,40,40,0,-23,-53,0,0,100,0,40,80,40,40,0,-20,-30,0,0,100,0,654,37,25,39,0,-8,-46,0,0,100,0,46,166,30,25,0,-5,-41,0,0,100,-90,704,55,17,24,0,-6,-25,1,0,100,0,86,286,28,33,0,-31,-55,1,0,100,0,0,483,35,30,0,-23,-36,1,0,100,0,878,376,20,32,0,-27,-12,0,0,65,0,0,344,56,24,0,
0,16,3,-24,0,0,100,0,748,0,39,44,0,-81,-4,1,0,100,0,90,330,73,16,0,-23,-39,1,0,100,-90,698,36,25,20,0,-22,-48,1,0,100,0,5,164,26,28,0,-22,-41,1,0,100,90,704,57,23,16,0,3,-42,0,0,100,0,723,39,20,18,0,-20,-69,0,0,100,0,827,0,38,46,0,-22,-42,0,0,100,0,40,120,40,40,0,-23,-53,0,0,100,0,40,80,40,40,0,-20,-30,0,0,100,0,654,37,25,39,0,-8,-46,0,0,100,0,46,166,30,25,0,-5,-41,0,0,100,-90,704,55,17,24,0,-6,-25,1,0,100,0,86,286,28,33,0,-32,-46,1,0,100,0,120,452,37,22,0,-23,-36,1,0,100,0,878,376,20,32,0,-27,-12,0,0,65,0,0,344,56,24,0,
0,16,3,-24,0,0,100,0,748,0,39,44,0,-83,-6,1,0,100,0,90,330,73,16,0,-23,-39,1,0,100,-90,698,36,25,20,0,-22,-48,1,0,100,0,5,164,26,28,0,-22,-41,1,0,100,90,704,57,23,16,0,3,-42,0,0,100,0,723,39,20,18,0,-20,-69,0,0,100,0,827,0,38,46,0,-22,-42,0,0,100,0,40,120,40,40,0,-23,-53,0,0,100,0,40,80,40,40,0,-20,-30,0,0,100,0,654,37,25,39,0,-8,-46,0,0,100,0,46,166,30,25,0,-5,-41,0,0,100,-90,704,55,17,24,0,-6,-25,1,0,100,0,86,286,28,33,0,-32,-46,1,0,100,0,120,452,37,22,0,-23,-36,1,0,100,0,878,376,20,32,0,-27,-12,0,0,65,0,0,344,56,24,0,
0,16,3,-24,0,0,100,0,748,0,39,44,0,-87,-4,1,0,100,0,90,330,73,16,0,-23,-39,1,0,100,-90,698,36,25,20,0,-22,-48,1,0,100,0,5,164,26,28,0,-22,-41,1,0,100,90,704,57,23,16,0,3,-42,0,0,100,0,723,39,20,18,0,-20,-69,0,0,100,0,827,0,38,46,0,-22,-42,0,0,100,0,40,120,40,40,0,-23,-53,0,0,100,0,40,80,40,40,0,-20,-30,0,0,100,0,654,37,25,39,0,-8,-46,0,0,100,0,46,166,30,25,0,-5,-41,0,0,100,-90,704,55,17,24,0,-6,-25,1,0,100,0,86,286,28,33,0,-32,-46,1,0,100,0,120,452,37,22,0,-23,-36,1,0,100,0,878,376,20,32,0,-27,-12,0,0,65,0,0,344,56,24,0,
0,16,-19,-45,0,0,100,90,131,212,31,23,0,-18,-48,0,0,100,90,113,328,52,18,0,-18,-49,1,0,100,0,5,164,26,28,0,-22,-69,0,0,100,0,784,0,42,44,0,-18,-43,0,0,100,0,40,120,40,40,0,11,-60,0,0,100,0,705,37,18,19,0,-19,-54,0,0,100,0,40,80,40,40,0,-5,-52,0,0,100,90,5,164,26,28,0,6,-53,0,0,100,0,704,55,17,24,0,-14,-2,0,0,100,0,654,65,18,6,0,7,-3,0,0,100,0,692,65,13,6,0,-14,-31,0,0,100,0,654,37,25,39,0,-3,-26,0,0,100,0,682,43,24,34,0,-17,-39,1,0,100,0,878,376,20,32,0,-29,-45,1,0,100,0,120,452,37,22,0,-26,-12,0,0,65,0,0,344,56,24,0,
0,14,-19,-45,0,0,100,90,131,212,31,23,0,-18,-48,0,0,100,90,113,328,52,18,0,-18,-48,1,0,100,0,5,164,26,28,0,-22,-68,0,0,100,0,784,0,42,44,0,-18,-42,0,0,100,0,40,120,40,40,0,5,-44,0,0,100,0,705,37,18,19,0,-19,-53,0,0,100,0,40,80,40,40,0,-14,-30,0,0,100,0,654,37,25,39,0,-7,-46,0,0,100,0,46,166,30,25,0,-4,-40,0,0,100,-90,704,55,17,24,0,-3,-25,0,0,100,0,682,43,24,34,0,-17,-36,1,0,100,0,878,376,20,32,0,-29,-44,1,0,100,0,120,452,37,22,0,-26,-12,0,0,65,0,0,344,56,24,0,
0,15,24,-29,0,0,50,0,652,10,34,30,0,-19,-45,0,0,100,90,131,212,31,23,0,-18,-48,0,0,100,90,113,328,52,18,0,-18,-48,1,0,100,0,5,164,26,28,0,1,-41,0,0,100,0,723,39,20,18,0,-16,-69,0,0,100,0,827,0,38,46,0,-18,-42,0,0,100,0,40,120,40,40,0,-19,-53,0,0,100,0,40,80,40,40,0,-14,-30,0,0,100,0,654,37,25,39,0,-3,-53,0,0,100,0,129,164,25,35,0,-4,-40,0,0,100,-90,704,55,17,24,0,-3,-25,0,0,100,0,682,43,24,34,0,-17,-36,1,0,100,0,878,376,20,32,0,-28,-46,1,0,100,0,120,452,37,22,0,-26,-12,0,0,65,0,0,344,56,24,0,
0,15,18,-33,0,0,100,0,652,10,34,30,0,-19,-45,0,0,100,90,131,212,31,23,0,-18,-48,0,0,100,90,113,328,52,18,0,-18,-48,1,0,100,0,5,164,26,28,0,1,-41,0,0,100,0,723,39,20,18,0,-16,-69,0,0,100,0,827,0,38,46,0,-18,-42,0,0,100,0,40,120,40,40,0,-19,-53,0,0,100,0,40,80,40,40,0,-14,-30,0,0,100,0,654,37,25,39,0,-3,-53,0,0,100,0,129,164,25,35,0,-4,-40,0,0,100,-90,704,55,17,24,0,-3,-25,0,0,100,0,682,43,24,34,0,-17,-36,1,0,100,0,878,376,20,32,0,-28,-46,1,0,100,0,120,452,37,22,0,-26,-12,0,0,65,0,0,344,56,24,0,
0,16,3,-16,0,0,100,0,876,40,28,32,0,-87,-4,1,0,100,0,90,330,73,16,0,-23,-39,1,0,100,-90,698,36,25,20,0,-22,-48,1,0,100,0,5,164,26,28,0,-22,-41,1,0,100,90,704,57,23,16,0,3,-42,0,0,100,0,723,39,20,18,0,-20,-69,0,0,100,0,827,0,38,46,0,-22,-42,0,0,100,0,40,120,40,40,0,-23,-53,0,0,100,0,40,80,40,40,0,-20,-30,0,0,100,0,654,37,25,39,0,-8,-46,0,0,100,0,46,166,30,25,0,-5,-41,0,0,100,-90,704,55,17,24,0,-6,-25,1,0,100,0,86,286,28,33,0,-32,-46,1,0,100,0,120,452,37,22,0,-23,-36,1,0,100,0,878,376,20,32,0,-27,-12,0,0,65,0,0,344,56,24,0,
0,16,3,-24,0,0,100,0,748,0,39,44,0,-87,-4,1,0,100,0,90,330,73,16,0,-23,-39,1,0,100,-90,698,36,25,20,0,-22,-48,1,0,100,0,5,164,26,28,0,-22,-41,1,0,100,90,704,57,23,16,0,3,-42,0,0,100,0,723,39,20,18,0,-20,-69,0,0,100,0,827,0,38,46,0,-22,-42,0,0,100,0,40,120,40,40,0,-23,-53,0,0,100,0,40,80,40,40,0,-20,-30,0,0,100,0,654,37,25,39,0,-8,-46,0,0,100,0,46,166,30,25,0,-5,-41,0,0,100,-90,704,55,17,24,0,-6,-25,1,0,100,0,86,286,28,33,0,-32,-46,1,0,100,0,120,452,37,22,0,-23,-36,1,0,100,0,878,376,20,32,0,-27,-12,0,0,65,0,0,344,56,24,0,
