0,2,-56,-80,0,0,100,0,0,0,96,96,0,-48,-16,0,0,65,0,480,0,96,32,0,
0,2,-56,-80,0,0,100,0,96,0,96,96,0,-48,-16,0,0,65,0,480,0,96,32,0,
0,2,-56,-80,0,0,100,0,192,0,96,96,0,-48,-16,0,0,65,0,480,0,96,32,0,
0,2,-56,-80,0,0,100,0,288,0,96,96,0,-48,-16,0,0,65,0,480,0,96,32,0,
0,0,
0,3,-56,-80,0,0,100,0,384,0,96,96,0,-72,-80,0,0,100,0,672,384,96,96,0,-48,-16,0,0,65,0,480,0,96,32,0,
0,0,
0,3,-48,-87,0,0,100,0,864,576,96,96,0,-56,-80,0,0,100,0,0,96,96,96,0,-46,-16,0,0,65,0,480,0,96,32,0,
0,4,-56,-80,0,0,100,0,192,288,48,96,0,-70,-77,0,0,100,0,672,384,96,96,0,-56,-80,0,0,100,0,96,96,96,96,0,-47,-16,0,0,65,0,480,0,96,32,0,
0,4,-48,-80,0,0,80,0,240,288,48,96,0,-70,-77,0,0,100,0,768,384,96,96,0,-56,-80,0,0,100,0,192,96,96,96,0,-47,-16,0,0,65,0,480,0,96,32,0,
0,4,-48,-80,0,0,20,0,240,288,48,96,0,-67,-76,0,0,100,0,864,384,96,96,0,-56,-80,0,0,100,0,288,96,96,96,0,-47,-16,0,0,65,0,480,0,96,32,0,
0,4,-48,-80,0,0,20,0,240,288,48,96,0,-67,-75,0,0,100,0,960,384,96,96,0,-56,-80,0,0,100,0,288,96,96,96,0,-47,-16,0,0,65,0,480,0,96,32,0,
0,3,-69,-74,0,0,100,0,960,384,96,96,0,-56,-80,0,0,100,0,384,96,96,96,0,-47,-16,0,0,65,0,480,0,96,32,0,
0,4,-56,-88,0,0,100,0,480,96,48,96,0,-51,-72,0,0,100,0,576,576,96,96,0,-56,-80,0,0,100,0,0,192,96,96,0,-46,-16,0,0,65,0,480,0,96,32,0,
0,4,-48,-88,0,0,80,0,528,96,48,96,0,-51,-72,0,0,100,0,672,576,96,96,0,-56,-80,0,0,100,0,96,192,96,96,0,-46,-16,0,0,65,0,480,0,96,32,0,
0,4,-48,-88,0,0,20,0,528,96,48,96,0,-48,-80,0,0,100,0,192,192,96,96,0,-24,-74,1,0,100,0,769,480,96,96,0,-54,-16,0,0,65,0,480,0,96,32,0,
0,3,-48,-78,0,0,100,0,768,576,96,96,0,-48,-85,0,0,100,0,288,192,96,96,0,-62,-16,0,0,65,0,480,32,96,32,0,
0,4,-72,-101,0,0,100,0,288,288,96,96,0,-48,-91,1,0,100,0,960,384,96,96,0,-56,-85,0,0,100,0,384,192,96,96,0,-54,-16,0,0,65,0,480,32,96,32,0,
0,4,-96,-109,0,0,70,0,384,288,192,96,0,-56,-85,0,0,100,0,480,192,96,96,0,-75,-117,0,0,100,-90,576,480,96,96,0,-46,-16,0,0,65,0,480,32,96,32,0,
0,3,-56,-80,0,0,100,0,0,288,96,96,0,-37,-88,0,0,100,-180,672,480,96,96,0,-46,-16,0,0,65,0,480,0,96,32,0,
0,3,-56,-80,0,0,100,0,96,288,96,96,0,-52,-81,0,0,100,90,768,576,96,96,0,-46,-16,0,0,65,0,480,0,96,32,0,
0,3,-56,-80,0,0,100,0,96,288,96,96,0,-63,-80,0,0,100,0,960,384,96,96,0,-46,-16,0,0,65,0,480,0,96,32,0,
0,0,
0,3,-56,-80,0,0,100,0,576,384,96,96,0,-56,-80,0,0,100,0,0,384,96,96,0,-46,-16,0,0,65,0,480,0,96,32,0,
0,3,-56,-80,0,0,100,0,672,384,96,96,0,-56,-80,0,0,100,0,96,384,96,96,0,-46,-16,0,0,65,0,480,0,96,32,0,
0,3,-56,-80,0,0,100,0,768,384,96,96,0,-56,-80,0,0,100,0,96,384,96,96,0,-46,-16,0,0,65,0,480,0,96,32,0,
0,3,-56,-80,0,0,100,0,864,384,96,96,0,-56,-80,0,0,100,0,96,384,96,96,0,-46,-16,0,0,65,0,480,0,96,32,0,
0,3,-56,-80,0,0,100,0,960,384,96,96,0,-56,-80,0,0,100,0,96,384,96,96,0,-46,-16,0,0,65,0,480,0,96,32,0,
0,2,-56,-80,0,0,100,0,192,384,96,96,0,-45,-16,0,0,65,0,480,0,96,32,0,
0,2,-56,-80,0,0,100,0,288,384,96,96,0,-47,-16,0,0,65,0,480,0,96,32,0,
0,3,-56,-80,0,0,100,0,384,384,96,96,0,-56,-80,0,0,100,0,576,480,96,96,0,-47,-16,0,0,65,0,480,0,96,32,0,
0,3,-56,-80,0,0,100,0,384,384,96,96,0,-56,-80,0,0,100,0,672,480,96,96,0,-47,-16,0,0,65,0,480,0,96,32,0,
0,3,-56,-80,0,0,100,0,384,384,96,96,0,-56,-80,0,0,100,0,768,480,96,96,0,-47,-16,0,0,65,0,480,0,96,32,0,
0,3,-56,-80,0,0,100,0,480,384,96,96,0,-56,-80,0,0,100,0,864,480,96,96,0,-46,-16,0,0,65,0,480,0,96,32,0,
0,3,-56,-80,0,0,100,0,0,480,96,96,0,-56,-80,0,0,100,0,576,576,96,96,0,-46,-16,0,0,65,0,480,0,96,32,0,
0,3,-56,-80,0,0,100,0,0,480,96,96,0,-56,-80,0,0,100,0,672,576,96,96,0,-46,-16,0,0,65,0,480,0,96,32,0,
0,2,-56,-80,0,0,100,0,96,480,96,96,0,-46,-16,0,0,65,0,480,0,96,32,0,
0,2,-56,-80,0,0,100,0,192,480,96,96,0,-46,-16,0,0,65,0,480,0,96,32,0,
0,2,-56,-80,0,0,100,0,288,480,96,96,0,-46,-16,0,0,65,0,480,0,96,32,0,
0,2,-56,-80,0,0,100,0,384,480,96,96,0,-46,-16,0,0,65,0,480,0,96,32,0,
0,2,-56,-80,0,0,100,0,480,480,96,96,0,-46,-16,0,0,65,0,480,0,96,32,0,
