0,4,-58,-68,0,1,25,0,710,732,83,73,0,-58,-68,0,1,75,0,458,732,83,73,0,-59,-69,0,0,100,0,0,0,104,72,0,-27,-11,0,0,65,0,416,3,53,18,0,
0,4,-58,-68,0,1,25,0,458,732,83,73,0,-58,-68,0,1,75,0,542,732,83,73,0,-59,-69,0,0,100,0,104,0,104,72,0,-27,-11,0,0,65,0,416,3,53,18,0,
0,4,-58,-68,0,1,25,0,542,732,83,73,0,-58,-68,0,1,75,0,626,732,83,73,0,-59,-69,0,0,100,0,208,0,104,72,0,-27,-11,0,0,65,0,416,3,53,18,0,
0,4,-58,-68,0,1,25,0,626,732,83,73,0,-58,-68,0,1,75,0,710,732,83,73,0,-59,-69,0,0,100,0,312,0,104,72,0,-27,-11,0,0,65,0,416,3,53,18,0,
0,2,-72,-77,0,0,100,0,2,73,123,81,0,-27,-11,0,0,65,0,416,3,53,18,0,
0,2,-72,-77,0,0,100,0,2,73,123,81,0,-27,-11,0,0,65,0,416,3,53,18,0,
0,5,-79,-94,0,1,100,0,511,21,117,70,0,-65,-80,0,1,50,0,0,437,92,53,0,-65,-80,0,0,40,0,0,437,92,53,0,-68,-77,0,0,100,0,127,73,123,81,0,-27,-11,0,0,65,0,416,3,53,18,0,
0,5,-95,-47,0,1,100,0,641,10,137,84,0,-74,-37,0,1,50,0,87,434,105,57,0,-74,-37,0,0,40,0,87,434,105,57,0,-67,-76,0,0,100,0,252,73,123,81,0,-27,-11,0,0,65,0,416,3,53,18,0,
0,5,-93,-83,0,1,100,0,775,7,161,103,0,-64,-71,0,1,50,0,195,433,68,70,0,-64,-71,0,0,40,0,195,433,68,70,0,-64,-75,0,0,100,0,377,73,123,81,0,-27,-11,0,0,65,0,416,3,53,18,0,
0,5,-61,-86,0,1,100,0,938,17,149,99,0,-32,-67,0,1,50,0,262,433,99,69,0,-32,-67,0,0,40,0,262,433,99,69,0,-61,-73,0,0,100,0,2,156,123,81,0,-27,-11,0,0,65,0,416,3,53,18,0,
0,5,-42,-93,0,1,75,0,510,112,126,109,0,21,-59,0,1,50,0,0,487,46,61,0,21,-59,0,0,40,0,0,487,46,61,0,-55,-73,0,0,100,0,127,156,123,81,0,-27,-11,0,0,65,0,416,3,53,18,0,
0,5,-19,-86,0,1,100,0,643,129,96,99,0,-1,-67,0,1,50,0,46,495,61,52,0,-1,-67,0,0,40,0,46,498,61,52,0,-55,-73,0,0,100,0,252,156,123,81,0,-27,-11,0,0,65,0,416,3,53,18,0,
0,5,-101,-110,0,1,100,0,753,111,194,123,0,-79,-80,0,1,50,0,107,498,109,72,0,-79,-80,0,0,40,0,107,498,109,72,0,-75,-73,0,0,100,0,377,156,123,81,0,-27,-11,0,0,65,0,416,3,53,18,0,
0,5,-103,-119,0,1,100,0,941,114,145,153,0,-73,-83,0,1,50,0,216,506,93,82,0,-73,-83,0,0,40,0,216,506,93,82,0,-73,-77,0,0,100,0,2,239,123,81,0,-27,-11,0,0,65,0,416,3,53,18,0,
0,5,-107,-98,0,1,100,0,517,234,196,141,0,-67,-46,0,1,50,0,0,551,107,59,0,-67,-46,0,0,40,0,0,551,107,59,0,-73,-77,0,0,100,0,127,239,123,81,0,-39,-11,0,0,65,0,416,3,53,18,0,
0,5,-96,-122,0,1,100,0,703,235,175,159,0,-48,-59,0,1,50,0,107,570,94,65,0,-48,-59,0,0,40,0,107,570,94,65,0,-70,-77,0,0,100,0,252,239,123,81,0,-40,-11,0,0,65,0,416,3,53,18,0,
0,5,-95,-111,0,1,100,0,893,275,203,161,0,0,-64,0,1,50,0,202,587,66,71,0,0,-65,0,0,40,0,202,587,66,71,0,-62,-76,0,0,100,0,377,239,123,81,0,-40,-11,0,0,65,0,416,3,53,18,0,
0,5,-144,-154,0,1,100,0,512,383,251,198,0,-101,-80,0,1,50,0,268,588,92,96,0,-101,-80,0,0,40,0,268,588,92,96,0,-102,-69,0,0,100,0,2,322,123,81,0,-40,-11,0,0,65,0,416,3,53,18,0,
0,4,-144,-154,0,1,70,0,512,383,251,198,0,-107,-35,0,0,20,0,0,609,64,55,0,-101,-69,0,0,100,0,127,322,123,81,0,-40,-11,0,0,65,0,416,3,53,18,0,
0,3,-122,-113,0,1,60,0,771,431,125,140,0,-102,-69,0,0,100,0,252,322,123,81,0,-40,-11,0,0,65,0,416,3,53,18,0,
0,3,-117,-81,0,1,40,0,891,495,68,99,0,-102,-69,0,0,100,0,252,322,123,81,0,-40,-11,0,0,65,0,416,3,53,18,0,
0,3,-104,-85,0,1,20,0,954,494,51,99,0,-102,-69,0,0,100,0,252,322,123,81,0,-40,-11,0,0,65,0,416,3,53,18,0,
0,3,-104,-85,0,1,10,0,954,494,51,99,0,-102,-69,0,0,100,0,252,322,123,81,0,-40,-11,0,0,65,0,416,3,53,18,0,
0,2,-102,-69,0,0,100,0,252,322,123,81,0,-40,-11,0,0,65,0,416,3,53,18,0,
0,3,-54,-61,0,1,100,0,507,697,28,24,0,-64,-97,0,0,100,0,2,700,110,99,0,-27,-11,0,0,65,0,416,3,53,18,0,
0,3,-56,-70,0,1,100,0,559,634,54,46,0,-56,-97,0,0,100,0,114,700,110,99,0,-27,-11,0,0,65,0,416,3,53,18,0,
0,3,-52,-71,0,1,100,0,507,633,50,61,0,-56,-97,0,0,100,0,114,700,110,99,0,-27,-11,0,0,65,0,416,3,53,18,0,
0,4,-53,-71,0,1,30,0,507,633,50,61,0,-16,-58,0,1,100,0,558,682,67,38,0,-48,-97,0,0,100,0,226,700,110,99,0,-27,-11,0,0,65,0,416,3,53,18,0,
0,3,-15,-93,0,1,100,0,629,655,61,65,0,-40,-97,0,0,100,0,338,700,110,99,0,-27,-11,0,0,65,0,416,3,53,18,0,
0,3,-32,-95,0,1,100,0,688,620,84,40,0,-51,-98,0,0,100,0,2,801,110,99,0,-27,-11,0,0,65,0,416,3,53,18,0,
0,4,-31,-95,0,1,30,0,688,620,84,40,0,-66,-40,0,1,100,0,691,660,107,64,0,-73,-98,0,0,100,0,114,801,110,99,0,-27,-11,0,0,65,0,416,3,53,18,0,
0,4,-74,-102,0,1,10,0,449,813,104,88,0,-67,-99,0,1,100,0,799,632,58,87,0,-76,-98,0,0,100,0,226,801,110,99,0,-27,-11,0,0,65,0,416,3,53,18,0,
0,8,-66,-97,0,1,20,0,762,814,102,86,0,-57,-84,3,1,30,0,860,634,27,21,0,-66,-97,0,1,100,0,450,814,102,86,0,-57,-86,0,1,40,0,860,657,52,64,0,-8,-72,0,1,20,0,860,633,27,21,0,-30,-31,0,1,40,0,889,633,27,21,0,-56,-99,0,0,100,0,417,902,110,99,0,-27,-11,0,0,65,0,416,3,53,18,0,
0,7,-65,-95,0,1,20,0,450,814,102,86,0,-65,-95,0,1,80,0,554,814,102,86,0,-48,-76,0,1,20,0,859,633,27,21,0,-53,-58,0,1,30,0,890,633,27,21,0,-52,-82,0,1,50,0,913,658,70,64,0,-55,-99,0,0,100,0,529,902,110,99,0,-27,-11,0,0,65,0,416,3,53,18,0,
0,7,-65,-95,0,1,20,0,554,814,102,86,0,-65,-90,0,1,80,0,658,814,102,86,0,-36,-73,0,1,30,0,859,633,27,21,0,-47,-47,0,1,30,0,890,633,27,21,0,-35,-74,0,1,50,0,913,656,70,64,0,-55,-99,0,0,100,0,641,902,110,99,0,-27,-11,0,0,65,0,416,3,53,18,0,
0,6,-65,-95,0,1,30,0,450,814,102,86,0,-65,-95,0,1,80,0,762,814,102,86,0,-19,-71,0,1,50,0,859,633,27,21,0,-41,-39,0,1,50,0,890,633,27,21,0,-55,-99,0,0,100,0,753,902,110,99,0,-27,-11,0,0,65,0,416,3,53,18,0,
0,4,-65,-95,0,1,50,0,554,814,102,86,0,-63,-99,0,1,30,0,801,632,58,87,0,-63,-99,0,0,100,0,2,902,110,99,0,-27,-11,0,0,65,0,416,3,53,18,0,
0,5,-65,-90,0,1,75,0,658,814,102,86,0,-33,-71,0,1,25,0,836,633,27,21,0,-44,-45,0,1,25,0,867,633,27,21,0,-58,-99,0,0,100,0,114,902,110,99,0,-27,-11,0,0,65,0,416,3,53,18,0,
0,5,-65,-95,0,1,100,0,762,814,102,86,0,-16,-69,0,1,25,0,837,633,27,21,0,-38,-37,0,1,25,0,867,633,27,21,0,-58,-99,0,0,100,0,226,902,110,99,0,-27,-11,0,0,65,0,416,3,53,18,0,
