0,12,-36,-71,0,0,100,0,0,288,40,40,0,-27,-46,0,0,100,0,104,192,32,32,0,-50,-50,0,0,100,0,312,192,56,56,0,-58,-42,0,0,100,0,312,248,40,40,0,7,-63,0,0,100,0,152,192,16,16,0,-1,-68,0,0,100,0,736,304,32,32,0,-37,-52,0,0,100,0,736,272,32,32,0,-57,-88,0,0,100,0,0,0,104,96,0,-9,-88,0,0,100,0,736,232,40,40,0,-49,-76,0,0,100,0,736,192,40,40,0,-52,-64,0,0,100,0,416,0,104,88,0,-45,-16,0,0,65,0,208,224,88,32,0,
0,12,-36,-70,0,0,100,0,40,288,40,40,0,-28,-46,0,0,100,0,104,192,32,32,0,-51,-50,0,0,100,0,312,192,56,56,0,-59,-42,0,0,100,0,352,248,40,40,0,6,-64,0,0,100,0,152,192,16,16,0,-1,-67,0,0,100,0,768,304,32,32,0,-37,-51,0,0,100,0,768,272,32,32,0,-57,-87,0,0,100,0,104,0,104,96,0,-9,-87,0,0,100,0,776,232,40,40,0,-49,-75,0,0,100,0,776,192,40,40,0,-52,-64,0,0,100,0,520,0,104,88,0,-45,-16,0,0,65,0,208,224,88,32,0,
0,12,-36,-71,0,0,100,0,0,288,40,40,0,-27,-46,0,0,100,0,104,192,32,32,0,-50,-50,0,0,100,0,312,192,56,56,0,-58,-42,0,0,100,0,312,248,40,40,0,6,-63,0,0,100,0,152,192,16,16,0,-1,-68,0,0,100,0,736,304,32,32,0,-37,-52,0,0,100,0,736,272,32,32,0,-57,-88,0,0,100,0,208,0,104,96,0,-9,-88,0,0,100,0,736,232,40,40,0,-49,-76,0,0,100,0,736,192,40,40,0,-52,-64,0,0,100,0,624,0,104,88,0,-45,-16,0,0,65,0,208,224,88,32,0,
0,12,-36,-72,0,0,100,0,80,288,40,40,0,-26,-47,0,0,100,0,104,192,32,32,0,-49,-51,0,0,100,0,312,192,56,56,0,-57,-43,0,0,100,0,392,248,40,40,0,6,-62,0,0,100,0,152,192,16,16,0,-1,-69,0,0,100,0,800,304,32,32,0,-37,-53,0,0,100,0,800,272,32,32,0,-57,-89,0,0,100,0,312,0,104,96,0,-9,-89,0,0,100,0,816,232,40,40,0,-49,-77,0,0,100,0,816,192,40,40,0,-52,-64,0,0,100,0,728,0,104,88,0,-45,-16,0,0,65,0,208,224,88,32,0,
0,12,-34,-59,0,0,100,0,136,192,16,16,0,-66,-88,0,0,100,0,368,192,56,56,0,-47,-84,0,0,100,0,472,248,40,40,0,6,-62,0,0,100,0,736,336,32,32,0,-42,-63,0,0,100,0,736,400,32,32,0,-58,-88,0,0,100,0,0,96,104,96,0,-42,-71,0,0,100,0,736,368,32,32,0,-2,-64,0,0,100,0,688,192,48,32,0,-38,-61,0,0,100,0,656,192,32,32,0,-63,-92,0,1,0,0,416,88,120,104,0,-52,-64,0,0,100,0,416,0,104,88,0,-45,-16,0,0,65,0,208,224,88,32,0,
0,12,-34,-58,0,0,100,0,136,192,16,16,0,-66,-87,0,0,100,0,368,192,56,56,0,-47,-83,0,0,100,0,512,248,40,40,0,6,-61,0,0,100,0,768,336,32,32,0,-42,-62,0,0,100,0,768,400,32,32,0,-58,-87,0,0,100,0,104,96,104,96,0,-42,-70,0,0,100,0,768,368,32,32,0,-2,-63,0,0,100,0,688,224,48,32,0,-38,-60,0,0,100,0,656,224,32,32,0,-63,-92,0,1,0,0,536,88,120,104,0,-52,-64,0,0,100,0,520,0,104,88,0,-45,-16,0,0,65,0,208,224,88,32,0,
0,12,-34,-59,0,0,100,0,136,192,16,16,0,-66,-88,0,0,100,0,368,192,56,56,0,-47,-84,0,0,100,0,472,248,40,40,0,6,-62,0,0,100,0,736,336,32,32,0,-42,-63,0,0,100,0,736,400,32,32,0,-58,-88,0,0,100,0,208,96,104,96,0,-42,-71,0,0,100,0,736,368,32,32,0,-2,-64,0,0,100,0,688,192,48,32,0,-38,-61,0,0,100,0,656,192,32,32,0,-63,-92,0,1,0,0,656,88,120,104,0,-52,-64,0,0,100,0,624,0,104,88,0,-45,-16,0,0,65,0,208,224,88,32,0,
0,12,-34,-60,0,0,100,0,136,192,16,16,0,-66,-89,0,0,100,0,368,192,56,56,0,-47,-85,0,0,100,0,552,248,40,40,0,6,-63,0,0,100,0,800,336,32,32,0,-42,-64,0,0,100,0,800,400,32,32,0,-58,-89,0,0,100,0,312,96,104,96,0,-42,-72,0,0,100,0,800,368,32,32,0,-2,-65,0,0,100,0,688,256,48,32,0,-38,-62,0,0,100,0,656,256,32,32,0,-63,-92,0,1,0,0,776,88,120,104,0,-52,-64,0,0,100,0,728,0,104,88,0,-45,-16,0,0,65,0,208,224,88,32,0,
0,14,-26,-34,0,0,100,0,136,208,16,16,0,-37,-62,1,0,100,0,368,192,56,56,0,-50,-37,0,0,100,0,736,400,32,32,0,-1,-57,0,0,100,0,152,192,16,16,0,-19,-52,1,0,100,0,312,248,40,40,0,-20,-54,2,0,100,90,472,248,40,40,0,-11,-72,0,0,100,0,776,232,40,40,0,-6,-60,0,0,100,0,736,304,32,32,0,-57,-88,0,0,100,0,0,192,104,96,0,-34,-79,0,0,100,90,688,256,48,32,0,-50,-61,0,0,100,0,656,256,32,32,0,-49,-33,2,0,100,-270,736,368,32,32,0,-52,-64,0,0,100,0,416,0,104,88,0,-45,-16,0,0,65,0,208,224,88,32,0,
0,26,-1,-58,2,0,100,0,736,336,32,32,0,-22,-54,0,0,100,0,168,192,16,16,0,-17,-83,0,0,100,0,120,288,40,40,0,3,-55,0,0,100,0,0,368,16,16,0,-2,-55,0,0,100,-90,168,208,16,16,0,-19,-57,3,0,100,270,128,400,32,32,0,-20,-60,1,0,100,0,736,304,32,32,0,-32,-61,0,0,100,180,152,208,16,16,0,-42,-53,0,0,100,0,664,640,56,72,0,-60,-90,3,0,100,180,368,192,56,56,0,-52,-74,1,0,100,0,592,192,56,56,0,-51,-59,0,0,100,0,472,288,40,40,0,-47,-66,2,0,100,0,480,192,56,56,0,-28,-62,0,0,100,90,128,400,32,32,0,-37,-72,3,0,100,0,736,336,32,32,0,-22,-60,0,0,100,0,0,328,40,40,0,-13,-58,1,0,100,0,0,368,16,16,0,-37,-55,0,0,100,0,0,432,80,40,0,-13,-41,0,0,100,0,96,472,32,32,0,-23,-44,0,0,100,0,96,472,32,32,0,-17,-50,0,0,100,0,320,432,40,40,0,-4,-42,0,0,100,0,256,368,24,24,0,-27,-72,0,0,100,0,656,192,32,32,0,-12,-73,0,0,100,0,400,328,40,40,0,0,-67,0,0,100,0,688,192,48,32,0,-45,-16,0,0,65,0,208,224,88,32,0,
0,26,-1,-58,2,0,100,0,736,336,32,32,0,-22,-54,0,0,100,0,168,192,16,16,0,-17,-83,0,0,100,0,120,288,40,40,0,3,-55,0,0,100,0,0,368,16,16,0,-2,-55,0,0,100,-90,168,208,16,16,0,-19,-57,3,0,100,270,128,400,32,32,0,-20,-60,1,0,100,0,736,304,32,32,0,-32,-61,0,0,100,180,152,208,16,16,0,-41,-53,0,0,100,0,720,640,56,72,0,-60,-90,3,0,100,180,368,192,56,56,0,-52,-75,1,0,100,0,592,192,56,56,0,-51,-59,0,0,100,0,472,288,40,40,0,-46,-66,2,0,100,0,480,192,56,56,0,-28,-62,0,0,100,90,128,400,32,32,0,-37,-72,3,0,100,0,736,336,32,32,0,-22,-60,0,0,100,0,0,328,40,40,0,-13,-58,1,0,100,0,0,368,16,16,0,-37,-55,0,0,100,0,0,432,80,40,0,-13,-41,0,0,100,0,96,472,32,32,0,-23,-44,0,0,100,0,96,472,32,32,0,-17,-50,0,0,100,0,320,432,40,40,0,-4,-42,0,0,100,0,256,368,24,24,0,-27,-72,0,0,100,0,656,192,32,32,0,-12,-73,0,0,100,0,400,328,40,40,0,0,-67,0,0,100,0,688,192,48,32,0,-45,-16,0,0,65,0,208,224,88,32,0,
0,26,-1,-58,2,0,100,0,768,336,32,32,0,-22,-53,0,0,100,0,168,192,16,16,0,-17,-82,0,0,100,0,160,288,40,40,0,3,-54,0,0,100,0,0,368,16,16,0,-2,-54,0,0,100,-90,168,208,16,16,0,-19,-56,3,0,100,270,128,400,32,32,0,-20,-60,1,0,100,0,768,304,32,32,0,-32,-60,0,0,100,180,152,208,16,16,0,-42,-52,0,0,100,0,664,640,56,72,0,-60,-89,3,0,100,180,368,192,56,56,0,-52,-73,1,0,100,0,592,192,56,56,0,-51,-58,0,0,100,0,472,288,40,40,0,-47,-65,2,0,100,0,480,192,56,56,0,-28,-61,0,0,100,90,128,400,32,32,0,-37,-71,3,0,100,0,768,336,32,32,0,-22,-59,0,0,100,0,40,328,40,40,0,-13,-57,1,0,100,0,0,368,16,16,0,-37,-54,0,0,100,0,80,432,80,40,0,-13,-40,0,0,100,0,96,472,32,32,0,-23,-43,0,0,100,0,96,472,32,32,0,-17,-49,0,0,100,0,320,432,40,40,0,-4,-41,0,0,100,0,256,368,24,24,0,-27,-71,0,0,100,0,656,224,32,32,0,-12,-72,0,0,100,0,440,328,40,40,0,0,-66,0,0,100,0,688,224,48,32,0,-45,-16,0,0,65,0,208,224,88,32,0,
0,26,-1,-58,2,0,100,0,768,336,32,32,0,-22,-53,0,0,100,0,168,192,16,16,0,-17,-82,0,0,100,0,160,288,40,40,0,3,-54,0,0,100,0,0,368,16,16,0,-2,-54,0,0,100,-90,168,208,16,16,0,-19,-56,3,0,100,270,128,400,32,32,0,-20,-60,1,0,100,0,768,304,32,32,0,-32,-60,0,0,100,180,152,208,16,16,0,-41,-52,0,0,100,0,720,640,56,72,0,-60,-89,3,0,100,180,368,192,56,56,0,-52,-74,1,0,100,0,592,192,56,56,0,-51,-58,0,0,100,0,472,288,40,40,0,-46,-65,2,0,100,0,480,192,56,56,0,-28,-61,0,0,100,90,128,400,32,32,0,-37,-71,3,0,100,0,768,336,32,32,0,-22,-59,0,0,100,0,40,328,40,40,0,-13,-57,1,0,100,0,0,368,16,16,0,-37,-54,0,0,100,0,80,432,80,40,0,-13,-40,0,0,100,0,96,472,32,32,0,-23,-43,0,0,100,0,96,472,32,32,0,-17,-49,0,0,100,0,320,432,40,40,0,-4,-41,0,0,100,0,256,368,24,24,0,-27,-71,0,0,100,0,656,224,32,32,0,-12,-72,0,0,100,0,440,328,40,40,0,0,-66,0,0,100,0,688,224,48,32,0,-45,-16,0,0,65,0,208,224,88,32,0,
0,26,-1,-58,2,0,100,0,736,336,32,32,0,-22,-54,0,0,100,0,168,192,16,16,0,-17,-83,0,0,100,0,120,288,40,40,0,3,-55,0,0,100,0,0,368,16,16,0,-2,-55,0,0,100,-90,168,208,16,16,0,-19,-57,3,0,100,270,128,400,32,32,0,-20,-60,1,0,100,0,736,304,32,32,0,-32,-61,0,0,100,180,152,208,16,16,0,-41,-52,0,0,100,0,720,640,56,72,0,-60,-90,3,0,100,180,368,192,56,56,0,-52,-74,1,0,100,0,592,192,56,56,0,-51,-59,0,0,100,0,472,288,40,40,0,-46,-65,2,0,100,0,480,192,56,56,0,-28,-62,0,0,100,90,128,400,32,32,0,-37,-72,3,0,100,0,736,336,32,32,0,-22,-60,0,0,100,0,0,328,40,40,0,-13,-58,1,0,100,0,0,368,16,16,0,-37,-55,0,0,100,0,160,432,80,40,0,-13,-41,0,0,100,0,96,472,32,32,0,-23,-44,0,0,100,0,96,472,32,32,0,-17,-50,0,0,100,0,320,432,40,40,0,-4,-42,0,0,100,0,256,368,24,24,0,-27,-72,0,0,100,0,656,192,32,32,0,-12,-73,0,0,100,0,480,328,40,40,0,0,-67,0,0,100,0,688,192,48,32,0,-45,-16,0,0,65,0,208,224,88,32,0,
0,26,-1,-58,2,0,100,0,736,336,32,32,0,-22,-54,0,0,100,0,168,192,16,16,0,-17,-83,0,0,100,0,120,288,40,40,0,3,-55,0,0,100,0,0,368,16,16,0,-2,-55,0,0,100,-90,168,208,16,16,0,-19,-57,3,0,100,270,128,400,32,32,0,-20,-60,1,0,100,0,736,304,32,32,0,-32,-61,0,0,100,180,152,208,16,16,0,-41,-52,0,0,100,0,720,640,56,72,0,-60,-90,3,0,100,180,368,192,56,56,0,-52,-74,1,0,100,0,592,192,56,56,0,-51,-59,0,0,100,0,472,288,40,40,0,-46,-65,2,0,100,0,480,192,56,56,0,-28,-62,0,0,100,90,128,400,32,32,0,-37,-72,3,0,100,0,736,336,32,32,0,-22,-60,0,0,100,0,0,328,40,40,0,-13,-58,1,0,100,0,0,368,16,16,0,-37,-55,0,0,100,0,160,432,80,40,0,-13,-41,0,0,100,0,96,472,32,32,0,-23,-44,0,0,100,0,96,472,32,32,0,-17,-50,0,0,100,0,320,432,40,40,0,-4,-42,0,0,100,0,256,368,24,24,0,-27,-72,0,0,100,0,656,192,32,32,0,-12,-73,0,0,100,0,480,328,40,40,0,0,-67,0,0,100,0,688,192,48,32,0,-45,-16,0,0,65,0,208,224,88,32,0,
0,26,-1,-59,2,0,100,0,800,336,32,32,0,-22,-55,0,0,100,0,168,192,16,16,0,-17,-84,0,0,100,0,200,288,40,40,0,3,-56,0,0,100,0,0,368,16,16,0,-2,-56,0,0,100,-90,168,208,16,16,0,-19,-58,3,0,100,270,128,400,32,32,0,-20,-61,1,0,100,0,800,304,32,32,0,-32,-62,0,0,100,180,152,208,16,16,0,-41,-53,0,0,100,0,720,640,56,72,0,-60,-91,3,0,100,180,368,192,56,56,0,-52,-75,1,0,100,0,592,192,56,56,0,-51,-60,0,0,100,0,472,288,40,40,0,-46,-66,2,0,100,0,480,192,56,56,0,-28,-63,0,0,100,90,128,400,32,32,0,-37,-73,3,0,100,0,800,336,32,32,0,-22,-61,0,0,100,0,80,328,40,40,0,-13,-59,1,0,100,0,0,368,16,16,0,-37,-56,0,0,100,0,240,432,80,40,0,-13,-42,0,0,100,0,96,472,32,32,0,-23,-45,0,0,100,0,96,472,32,32,0,-17,-51,0,0,100,0,320,432,40,40,0,-4,-43,0,0,100,0,256,368,24,24,0,-27,-73,0,0,100,0,656,256,32,32,0,-12,-74,0,0,100,0,520,328,40,40,0,0,-68,0,0,100,0,688,256,48,32,0,-45,-16,0,0,65,0,208,224,88,32,0,
0,26,-1,-59,2,0,100,0,800,336,32,32,0,-22,-55,0,0,100,0,168,192,16,16,0,-17,-84,0,0,100,0,200,288,40,40,0,3,-56,0,0,100,0,0,368,16,16,0,-2,-56,0,0,100,-90,168,208,16,16,0,-19,-58,3,0,100,270,128,400,32,32,0,-20,-61,1,0,100,0,800,304,32,32,0,-32,-62,0,0,100,180,152,208,16,16,0,-41,-53,0,0,100,0,720,640,56,72,0,-60,-91,3,0,100,180,368,192,56,56,0,-52,-75,1,0,100,0,592,192,56,56,0,-51,-60,0,0,100,0,472,288,40,40,0,-46,-66,2,0,100,0,480,192,56,56,0,-28,-63,0,0,100,90,128,400,32,32,0,-37,-73,3,0,100,0,800,336,32,32,0,-22,-61,0,0,100,0,80,328,40,40,0,-13,-59,1,0,100,0,0,368,16,16,0,-37,-56,0,0,100,0,240,432,80,40,0,-13,-42,0,0,100,0,96,472,32,32,0,-23,-45,0,0,100,0,96,472,32,32,0,-17,-51,0,0,100,0,320,432,40,40,0,-4,-43,0,0,100,0,256,368,24,24,0,-27,-73,0,0,100,0,656,256,32,32,0,-12,-74,0,0,100,0,520,328,40,40,0,0,-68,0,0,100,0,688,256,48,32,0,-45,-16,0,0,65,0,208,224,88,32,0,
0,23,8,-47,0,0,100,0,736,336,32,32,0,-24,-79,0,0,100,0,280,288,40,40,0,-25,-57,0,0,100,0,160,328,40,40,0,-5,-47,3,0,100,0,736,400,32,32,0,-1,-51,0,0,100,0,0,368,16,16,0,-20,-53,0,0,100,0,96,400,32,32,0,-20,-53,0,0,100,0,64,400,32,32,0,-35,-51,1,0,100,0,736,336,32,32,0,-46,-45,2,0,100,0,368,192,56,56,0,-53,-33,0,0,100,0,480,192,56,56,0,-36,-25,0,0,100,0,472,288,40,40,0,-25,-57,0,0,100,0,120,328,40,40,0,-18,-76,0,0,100,0,400,328,40,40,0,-33,-49,0,0,100,0,0,432,80,40,0,-13,-37,0,0,100,0,96,472,32,32,0,-23,-40,0,0,100,0,96,472,32,32,0,0,-37,0,0,100,0,256,368,24,24,0,-5,-38,0,0,100,0,256,368,24,24,0,-2,-64,0,0,100,0,688,192,48,32,0,-31,-66,0,0,100,0,656,192,32,32,0,-74,-27,0,1,100,0,208,584,104,56,0,-52,-64,0,0,60,0,416,0,104,88,0,-45,-16,0,0,65,0,208,224,88,32,0,
0,23,11,-47,0,0,100,0,736,336,32,32,0,-21,-79,0,0,100,0,240,288,40,40,0,-22,-57,0,0,100,0,160,328,40,40,0,-2,-47,3,0,100,0,736,400,32,32,0,2,-52,0,0,100,0,0,368,16,16,0,-17,-53,0,0,100,0,96,400,32,32,0,-17,-53,0,0,100,0,64,400,32,32,0,-32,-51,1,0,100,0,736,336,32,32,0,-43,-45,2,0,100,0,368,192,56,56,0,-53,-33,0,0,100,0,536,192,56,56,0,-33,-25,0,0,100,0,472,288,40,40,0,-22,-57,0,0,100,0,120,328,40,40,0,-15,-76,0,0,100,0,440,328,40,40,0,-30,-49,0,0,100,0,80,432,80,40,0,-10,-37,0,0,100,0,96,472,32,32,0,-20,-40,0,0,100,0,96,472,32,32,0,0,-64,0,0,100,0,688,192,48,32,0,-29,-66,0,0,100,0,656,192,32,32,0,4,-37,0,0,100,0,256,368,24,24,0,-1,-38,0,0,100,0,256,368,24,24,0,-74,-27,0,1,100,0,416,584,104,56,0,-52,-64,0,0,40,0,520,0,104,88,0,-45,-16,0,0,65,0,208,224,88,32,0,
0,23,12,-47,0,0,100,0,736,336,32,32,0,-20,-79,0,0,100,0,240,288,40,40,0,-21,-57,0,0,100,0,160,328,40,40,0,-1,-47,3,0,100,0,736,400,32,32,0,3,-52,0,0,100,0,0,368,16,16,0,-16,-53,0,0,100,0,96,400,32,32,0,-16,-53,0,0,100,0,64,400,32,32,0,-31,-51,1,0,100,0,736,336,32,32,0,-42,-45,2,0,100,0,368,192,56,56,0,-53,-33,0,0,100,0,536,192,56,56,0,-32,-25,0,0,100,0,472,288,40,40,0,-21,-57,0,0,100,0,120,328,40,40,0,-14,-76,0,0,100,0,440,328,40,40,0,-29,-49,0,0,100,0,80,432,80,40,0,-9,-37,0,0,100,0,96,472,32,32,0,-19,-40,0,0,100,0,96,472,32,32,0,1,-64,0,0,100,0,688,192,48,32,0,-28,-66,0,0,100,0,656,192,32,32,0,5,-37,0,0,100,0,256,368,24,24,0,0,-38,0,0,100,0,256,368,24,24,0,-74,-27,0,1,40,0,416,584,104,56,0,-74,-27,0,1,100,0,520,584,104,56,0,-45,-16,0,0,65,0,208,224,88,32,0,
0,22,11,-47,0,0,100,0,736,336,32,32,0,-21,-79,0,0,100,0,240,288,40,40,0,-22,-57,0,0,100,0,160,328,40,40,0,-2,-47,3,0,100,0,736,400,32,32,0,2,-52,0,0,100,0,0,368,16,16,0,-17,-53,0,0,100,0,96,400,32,32,0,-17,-53,0,0,100,0,64,400,32,32,0,-32,-51,1,0,100,0,736,336,32,32,0,-43,-45,2,0,100,0,368,192,56,56,0,-53,-33,0,0,100,0,536,192,56,56,0,-33,-25,0,0,100,0,472,288,40,40,0,-22,-57,0,0,100,0,120,328,40,40,0,-15,-76,0,0,100,0,440,328,40,40,0,-30,-49,0,0,100,0,80,432,80,40,0,-10,-37,0,0,100,0,96,472,32,32,0,-20,-40,0,0,100,0,96,472,32,32,0,0,-64,0,0,100,0,688,192,48,32,0,-29,-66,0,0,100,0,656,192,32,32,0,4,-37,0,0,100,0,256,368,24,24,0,-1,-38,0,0,100,0,256,368,24,24,0,-74,-27,0,1,40,0,624,584,104,56,0,-45,-16,0,0,65,0,208,224,88,32,0,
0,21,12,-47,0,0,100,0,736,336,32,32,0,-20,-79,0,0,100,0,240,288,40,40,0,-21,-57,0,0,100,0,160,328,40,40,0,-1,-47,3,0,100,0,736,400,32,32,0,3,-52,0,0,100,0,0,368,16,16,0,-16,-53,0,0,100,0,96,400,32,32,0,-16,-53,0,0,100,0,64,400,32,32,0,-31,-51,1,0,100,0,736,336,32,32,0,-42,-45,2,0,100,0,368,192,56,56,0,-53,-33,0,0,100,0,536,192,56,56,0,-32,-25,0,0,100,0,472,288,40,40,0,-21,-57,0,0,100,0,120,328,40,40,0,-14,-76,0,0,100,0,440,328,40,40,0,-29,-49,0,0,100,0,80,432,80,40,0,-9,-37,0,0,100,0,96,472,32,32,0,-19,-40,0,0,100,0,96,472,32,32,0,1,-64,0,0,100,0,688,192,48,32,0,-28,-66,0,0,100,0,656,192,32,32,0,5,-37,0,0,100,0,256,368,24,24,0,0,-38,0,0,100,0,256,368,24,24,0,-45,-16,0,0,65,0,208,224,88,32,0,
0,21,11,-47,0,0,100,0,736,336,32,32,0,-21,-79,0,0,100,0,240,288,40,40,0,-22,-57,0,0,100,0,160,328,40,40,0,-2,-47,3,0,100,0,736,400,32,32,0,2,-52,0,0,100,0,0,368,16,16,0,-17,-53,0,0,100,0,96,400,32,32,0,-17,-53,0,0,100,0,64,400,32,32,0,-32,-51,1,0,100,0,736,336,32,32,0,-43,-45,2,0,100,0,368,192,56,56,0,-53,-33,0,0,100,0,536,192,56,56,0,-33,-25,0,0,100,0,472,288,40,40,0,-22,-57,0,0,100,0,120,328,40,40,0,-15,-76,0,0,100,0,440,328,40,40,0,-30,-49,0,0,100,0,80,432,80,40,0,-10,-37,0,0,100,0,96,472,32,32,0,-20,-40,0,0,100,0,96,472,32,32,0,0,-64,0,0,100,0,688,192,48,32,0,-29,-66,0,0,100,0,656,192,32,32,0,4,-37,0,0,100,0,256,368,24,24,0,-1,-38,0,0,100,0,256,368,24,24,0,-45,-16,0,0,65,0,208,224,88,32,0,
0,21,12,-47,0,0,100,0,736,336,32,32,0,-20,-79,0,0,100,0,240,288,40,40,0,-21,-57,0,0,100,0,160,328,40,40,0,-1,-47,3,0,100,0,736,400,32,32,0,3,-52,0,0,100,0,0,368,16,16,0,-16,-53,0,0,100,0,96,400,32,32,0,-16,-53,0,0,100,0,64,400,32,32,0,-31,-51,1,0,100,0,736,336,32,32,0,-42,-45,2,0,100,0,368,192,56,56,0,-53,-33,0,0,100,0,536,192,56,56,0,-32,-25,0,0,100,0,472,288,40,40,0,-21,-57,0,0,100,0,120,328,40,40,0,-14,-76,0,0,100,0,440,328,40,40,0,-29,-49,0,0,100,0,80,432,80,40,0,-9,-37,0,0,100,0,96,472,32,32,0,-19,-40,0,0,100,0,96,472,32,32,0,1,-64,0,0,100,0,688,192,48,32,0,-28,-66,0,0,100,0,656,192,32,32,0,5,-37,0,0,100,0,256,368,24,24,0,0,-38,0,0,100,0,256,368,24,24,0,-45,-16,0,0,65,0,208,224,88,32,0,
0,28,-20,-20,0,1,100,0,448,552,32,32,0,-77,-35,0,1,100,0,416,552,32,32,0,-83,-55,0,1,100,0,0,640,104,88,0,-4,-71,2,0,100,0,736,304,32,32,0,8,-71,0,0,100,0,736,336,32,32,0,-15,-65,0,0,100,90,184,208,16,16,0,-18,-65,0,0,100,0,152,208,16,16,0,-55,-97,0,0,100,0,368,192,56,56,0,-54,-73,3,0,100,0,472,248,40,40,0,-55,-76,2,0,100,0,312,248,40,40,0,-57,-59,0,0,100,0,664,640,56,72,0,-62,-80,0,0,100,0,480,192,56,56,0,-12,-63,0,0,100,0,160,400,32,32,0,-16,-76,0,0,100,0,120,288,40,40,0,-13,-53,3,0,100,0,16,368,16,16,0,-26,-68,0,0,100,0,192,400,32,32,0,-11,-54,1,0,100,0,0,328,40,40,0,-38,-46,1,0,100,0,0,432,80,40,0,-44,-68,2,0,100,-90,736,232,40,40,0,5,-51,2,0,100,0,16,368,16,16,0,-19,-32,0,0,100,0,0,472,32,32,0,-7,-37,0,0,100,0,32,472,32,32,0,-15,-42,0,0,100,0,320,432,40,40,0,-10,-67,0,0,100,0,400,328,40,40,0,-37,-59,1,0,100,0,688,192,48,32,0,3,-60,1,0,100,0,656,192,32,32,0,-83,-27,0,1,100,0,416,584,104,56,0,-45,-16,0,0,65,0,208,224,88,32,0,
0,28,-51,-55,0,1,100,0,416,552,32,32,0,-37,-63,0,1,100,-90,448,552,32,32,0,-67,-73,0,1,100,90,448,552,32,32,0,-83,-55,1,1,30,0,0,640,104,88,0,4,-78,2,0,100,0,736,304,32,32,0,3,-70,3,0,100,0,736,232,40,40,0,-2,-82,0,0,100,0,184,208,16,16,0,-5,-78,1,0,100,0,128,400,32,32,0,-20,-88,0,0,100,0,320,288,40,40,0,-6,-80,0,0,100,0,136,208,16,16,0,-13,-118,0,0,100,-90,368,192,56,56,0,-21,-100,2,0,100,-90,552,248,40,40,0,-17,-99,3,0,100,-90,392,248,40,40,0,-42,-143,2,0,100,-90,536,640,64,64,0,-34,-123,2,0,100,0,592,192,56,56,0,-27,-64,0,0,100,0,0,328,40,40,0,-40,-56,0,0,100,0,0,432,80,40,0,-22,-76,0,0,100,0,128,400,32,32,0,-38,-81,2,0,100,-90,736,232,40,40,0,-11,-42,1,0,100,0,0,472,32,32,0,-23,-47,1,0,100,0,32,472,32,32,0,-23,-52,1,0,100,0,320,432,40,40,0,-10,-77,0,0,100,-90,400,328,40,40,0,-26,-75,0,0,100,0,656,224,32,32,0,-5,-69,0,0,100,0,688,256,48,32,0,-83,-27,0,1,40,0,416,584,104,56,0,-83,-27,0,1,100,0,520,584,104,56,0,-45,-16,0,0,65,0,208,224,88,32,0,
0,26,-33,-67,0,1,70,-90,448,552,32,32,0,-53,-68,0,1,70,0,416,552,32,32,0,-69,-79,0,1,70,90,448,552,32,32,0,4,-81,2,0,100,0,768,304,32,32,0,3,-73,3,0,100,0,776,232,40,40,0,-2,-85,0,0,100,0,184,208,16,16,0,-5,-81,1,0,100,0,128,400,32,32,0,-20,-91,0,0,100,0,320,288,40,40,0,-6,-83,0,0,100,0,136,208,16,16,0,-13,-121,0,0,100,-90,368,192,56,56,0,-21,-103,2,0,100,-90,472,248,40,40,0,-17,-102,3,0,100,-90,312,248,40,40,0,-39,-147,2,0,100,-90,600,640,64,64,0,-30,-127,2,0,100,0,592,192,56,56,0,-27,-67,0,0,100,0,0,328,40,40,0,-40,-59,0,0,100,0,0,432,80,40,0,-22,-79,0,0,100,0,128,400,32,32,0,-38,-84,2,0,100,-90,776,232,40,40,0,-11,-45,1,0,100,0,0,472,32,32,0,-23,-50,1,0,100,0,32,472,32,32,0,-23,-55,1,0,100,0,320,432,40,40,0,-10,-80,0,0,100,-90,400,328,40,40,0,-26,-78,0,0,100,0,656,224,32,32,0,-5,-72,0,0,100,0,688,256,48,32,0,-83,-27,0,1,40,0,624,584,104,56,0,-45,-16,0,0,65,0,208,224,88,32,0,
0,25,-31,-62,0,1,30,-90,448,552,32,32,0,-54,-65,0,1,30,0,416,552,32,32,0,-72,-71,0,1,30,90,448,552,32,32,0,3,-81,2,0,100,0,736,304,32,32,0,2,-73,3,0,100,0,736,232,40,40,0,-3,-85,0,0,100,0,184,208,16,16,0,-6,-81,1,0,100,0,128,400,32,32,0,-21,-91,0,0,100,0,320,288,40,40,0,-7,-83,0,0,100,0,136,208,16,16,0,-14,-121,0,0,100,-90,368,192,56,56,0,-22,-103,2,0,100,-90,512,248,40,40,0,-18,-102,3,0,100,-90,352,248,40,40,0,-38,-145,2,0,100,-90,600,640,64,64,0,-30,-129,3,0,100,90,536,192,56,56,0,-28,-67,0,0,100,0,0,328,40,40,0,-41,-59,0,0,100,0,0,432,80,40,0,-23,-79,0,0,100,0,128,400,32,32,0,-39,-84,2,0,100,-90,736,232,40,40,0,-12,-45,1,0,100,0,0,472,32,32,0,-24,-50,1,0,100,0,32,472,32,32,0,-24,-55,1,0,100,0,320,432,40,40,0,-11,-80,0,0,100,-90,400,328,40,40,0,-27,-78,0,0,100,0,656,224,32,32,0,-6,-72,0,0,100,0,688,256,48,32,0,-45,-16,0,0,65,0,208,224,88,32,0,
0,22,2,-80,2,0,100,0,736,304,32,32,0,1,-72,3,0,100,0,736,232,40,40,0,-4,-84,0,0,100,0,184,208,16,16,0,-7,-80,1,0,100,0,128,400,32,32,0,-22,-90,0,0,100,0,320,288,40,40,0,-8,-82,0,0,100,0,136,208,16,16,0,-15,-120,0,0,100,-90,368,192,56,56,0,-23,-102,2,0,100,-90,512,248,40,40,0,-19,-101,3,0,100,-90,352,248,40,40,0,-52,-140,0,0,100,-90,600,640,64,64,0,-35,-126,2,0,100,0,592,192,56,56,0,-29,-66,0,0,100,0,0,328,40,40,0,-42,-58,0,0,100,0,0,432,80,40,0,-24,-78,0,0,100,0,128,400,32,32,0,-40,-83,2,0,100,-90,736,232,40,40,0,-13,-44,1,0,100,0,0,472,32,32,0,-25,-49,1,0,100,0,32,472,32,32,0,-25,-54,1,0,100,0,320,432,40,40,0,-12,-79,0,0,100,-90,400,328,40,40,0,-28,-77,0,0,100,0,656,224,32,32,0,-7,-71,0,0,100,0,688,256,48,32,0,-45,-16,0,0,65,0,208,224,88,32,0,
0,22,2,-73,2,0,100,0,736,304,32,32,0,1,-65,3,0,100,0,736,232,40,40,0,-4,-77,0,0,100,0,184,208,16,16,0,-7,-73,1,0,100,0,128,400,32,32,0,-22,-83,0,0,100,0,320,288,40,40,0,-8,-75,0,0,100,0,136,208,16,16,0,-15,-113,0,0,100,-90,368,192,56,56,0,-23,-95,2,0,100,-90,512,248,40,40,0,-19,-94,3,0,100,-90,352,248,40,40,0,-65,-95,0,0,100,0,600,640,64,64,0,-34,-102,0,0,100,0,592,192,56,56,0,-29,-59,0,0,100,0,0,328,40,40,0,-42,-51,0,0,100,0,0,432,80,40,0,-24,-71,0,0,100,0,128,400,32,32,0,-40,-76,2,0,100,-90,736,232,40,40,0,-13,-37,1,0,100,0,0,472,32,32,0,-25,-42,1,0,100,0,32,472,32,32,0,-25,-47,1,0,100,0,320,432,40,40,0,-12,-72,0,0,100,-90,400,328,40,40,0,-28,-70,0,0,100,0,656,224,32,32,0,-7,-64,0,0,100,0,688,256,48,32,0,-45,-16,0,0,65,0,208,224,88,32,0,
0,20,-16,-76,0,0,100,0,120,288,40,40,0,-34,-68,1,0,100,0,736,336,32,32,0,-11,-75,0,0,100,0,152,208,16,16,0,-23,-70,0,0,100,0,0,400,32,32,0,-11,-54,1,0,100,0,0,328,40,40,0,11,-46,0,0,100,0,736,336,32,32,0,16,-49,0,0,100,0,152,192,16,16,0,1,-55,0,0,100,0,32,400,32,32,0,-38,-46,1,0,100,0,0,432,80,40,0,-10,-69,0,0,100,0,400,328,40,40,0,-19,-32,0,0,100,0,0,472,32,32,0,-7,-37,0,0,100,0,32,472,32,32,0,-15,-42,0,0,100,0,320,432,40,40,0,-37,-60,1,0,100,0,688,192,48,32,0,6,-62,1,0,100,0,656,192,32,32,0,-44,-110,0,0,100,0,0,504,80,80,0,1,-36,0,0,100,0,256,368,24,24,0,-63,-92,0,1,20,0,416,88,120,104,0,-52,-64,0,0,100,0,416,0,104,88,0,-45,-16,0,0,65,0,208,224,88,32,0,
0,20,-16,-76,0,0,100,0,160,288,40,40,0,-34,-68,1,0,100,0,768,336,32,32,0,-11,-75,0,0,100,0,152,208,16,16,0,-23,-70,0,0,100,0,0,400,32,32,0,-11,-54,1,0,100,0,40,328,40,40,0,11,-46,0,0,100,0,768,336,32,32,0,16,-49,0,0,100,0,152,192,16,16,0,1,-55,0,0,100,0,32,400,32,32,0,-38,-46,1,0,100,0,80,432,80,40,0,-10,-69,0,0,100,0,440,328,40,40,0,-19,-32,0,0,100,0,0,472,32,32,0,-7,-37,0,0,100,0,32,472,32,32,0,-15,-42,0,0,100,0,320,432,40,40,0,-37,-60,1,0,100,0,688,224,48,32,0,6,-62,1,0,100,0,656,224,32,32,0,-44,-110,0,0,100,0,80,504,80,80,0,1,-36,0,0,100,0,256,368,24,24,0,-63,-92,0,1,40,0,536,88,120,104,0,-52,-64,0,0,100,0,520,0,104,88,0,-45,-16,0,0,65,0,208,224,88,32,0,
0,20,-16,-76,0,0,100,0,120,288,40,40,0,-34,-68,1,0,100,0,736,336,32,32,0,-11,-75,0,0,100,0,152,208,16,16,0,-23,-70,0,0,100,0,0,400,32,32,0,-11,-54,1,0,100,0,0,328,40,40,0,11,-46,0,0,100,0,736,336,32,32,0,16,-49,0,0,100,0,152,192,16,16,0,1,-55,0,0,100,0,32,400,32,32,0,-38,-46,1,0,100,0,160,432,80,40,0,-10,-69,0,0,100,0,480,328,40,40,0,-19,-32,0,0,100,0,0,472,32,32,0,-7,-37,0,0,100,0,32,472,32,32,0,-15,-42,0,0,100,0,320,432,40,40,0,-37,-60,1,0,100,0,688,192,48,32,0,6,-62,1,0,100,0,656,192,32,32,0,-44,-110,3,0,100,0,80,504,80,80,0,1,-36,0,0,100,0,256,368,24,24,0,-63,-92,0,1,60,0,656,88,120,104,0,-52,-64,0,0,100,0,624,0,104,88,0,-45,-16,0,0,65,0,208,224,88,32,0,
0,20,-16,-76,0,0,100,0,200,288,40,40,0,-34,-68,1,0,100,0,800,336,32,32,0,-11,-75,0,0,100,0,152,208,16,16,0,-23,-70,0,0,100,0,0,400,32,32,0,-11,-54,1,0,100,0,80,328,40,40,0,11,-46,0,0,100,0,800,336,32,32,0,16,-49,0,0,100,0,152,192,16,16,0,1,-55,0,0,100,0,32,400,32,32,0,-38,-46,1,0,100,0,240,432,80,40,0,-10,-69,0,0,100,0,520,328,40,40,0,-19,-32,0,0,100,0,0,472,32,32,0,-7,-37,0,0,100,0,32,472,32,32,0,-15,-42,0,0,100,0,320,432,40,40,0,-37,-60,1,0,100,0,688,256,48,32,0,6,-62,1,0,100,0,656,256,32,32,0,-44,-110,3,0,100,0,0,504,80,80,0,1,-36,0,0,100,0,256,368,24,24,0,-63,-92,0,1,80,0,776,88,120,104,0,-52,-64,0,0,100,0,728,0,104,88,0,-45,-16,0,0,65,0,208,224,88,32,0,
0,20,-16,-76,0,0,100,0,120,288,40,40,0,-34,-68,1,0,100,0,736,336,32,32,0,-11,-75,0,0,100,0,152,208,16,16,0,-23,-70,0,0,100,0,0,400,32,32,0,-11,-54,1,0,100,0,0,328,40,40,0,11,-46,0,0,100,0,736,336,32,32,0,16,-49,0,0,100,0,152,192,16,16,0,1,-55,0,0,100,0,32,400,32,32,0,-38,-46,1,0,100,0,0,432,80,40,0,-10,-69,0,0,100,0,400,328,40,40,0,-19,-32,0,0,100,0,0,472,32,32,0,-7,-37,0,0,100,0,32,472,32,32,0,-15,-42,0,0,100,0,320,432,40,40,0,-37,-60,1,0,100,0,688,192,48,32,0,6,-62,1,0,100,0,656,192,32,32,0,-44,-110,0,0,100,0,0,504,80,80,0,1,-36,0,0,100,0,256,368,24,24,0,-63,-92,0,1,100,0,416,88,120,104,0,-52,-64,0,0,100,0,416,0,104,88,0,-45,-16,0,0,65,0,208,224,88,32,0,
0,20,-16,-76,0,0,100,0,160,288,40,40,0,-34,-68,1,0,100,0,768,336,32,32,0,-11,-75,0,0,100,0,152,208,16,16,0,-23,-70,0,0,100,0,0,400,32,32,0,-11,-54,1,0,100,0,40,328,40,40,0,11,-46,0,0,100,0,768,336,32,32,0,16,-49,0,0,100,0,152,192,16,16,0,1,-55,0,0,100,0,32,400,32,32,0,-38,-46,1,0,100,0,80,432,80,40,0,-10,-69,0,0,100,0,440,328,40,40,0,-19,-32,0,0,100,0,0,472,32,32,0,-7,-37,0,0,100,0,32,472,32,32,0,-15,-42,0,0,100,0,320,432,40,40,0,-37,-60,1,0,100,0,688,224,48,32,0,6,-62,1,0,100,0,656,224,32,32,0,-44,-110,0,0,100,0,80,504,80,80,0,1,-36,0,0,100,0,256,368,24,24,0,-63,-92,0,1,100,0,536,88,120,104,0,-52,-64,0,0,100,0,520,0,104,88,0,-45,-16,0,0,65,0,208,224,88,32,0,
0,20,-16,-76,0,0,100,0,120,288,40,40,0,-34,-68,1,0,100,0,736,336,32,32,0,-11,-75,0,0,100,0,152,208,16,16,0,-23,-70,0,0,100,0,0,400,32,32,0,-11,-54,1,0,100,0,0,328,40,40,0,11,-46,0,0,100,0,736,336,32,32,0,16,-49,0,0,100,0,152,192,16,16,0,1,-55,0,0,100,0,32,400,32,32,0,-38,-46,1,0,100,0,160,432,80,40,0,-10,-69,0,0,100,0,480,328,40,40,0,-19,-32,0,0,100,0,0,472,32,32,0,-7,-37,0,0,100,0,32,472,32,32,0,-15,-42,0,0,100,0,320,432,40,40,0,-37,-60,1,0,100,0,688,192,48,32,0,6,-62,1,0,100,0,656,192,32,32,0,-44,-110,3,0,100,0,80,504,80,80,0,1,-36,0,0,100,0,256,368,24,24,0,-63,-92,0,1,100,0,656,88,120,104,0,-52,-64,0,0,100,0,624,0,104,88,0,-45,-16,0,0,65,0,208,224,88,32,0,
0,20,-16,-76,0,0,100,0,200,288,40,40,0,-34,-68,1,0,100,0,800,336,32,32,0,-11,-75,0,0,100,0,152,208,16,16,0,-23,-70,0,0,100,0,0,400,32,32,0,-11,-54,1,0,100,0,80,328,40,40,0,11,-46,0,0,100,0,800,336,32,32,0,16,-49,0,0,100,0,152,192,16,16,0,1,-55,0,0,100,0,32,400,32,32,0,-38,-46,1,0,100,0,240,432,80,40,0,-10,-69,0,0,100,0,520,328,40,40,0,-19,-32,0,0,100,0,0,472,32,32,0,-7,-37,0,0,100,0,32,472,32,32,0,-15,-42,0,0,100,0,320,432,40,40,0,-37,-60,1,0,100,0,688,256,48,32,0,6,-62,1,0,100,0,656,256,32,32,0,-44,-110,3,0,100,0,0,504,80,80,0,1,-36,0,0,100,0,256,368,24,24,0,-63,-92,0,1,100,0,776,88,120,104,0,-52,-64,0,0,100,0,728,0,104,88,0,-45,-16,0,0,65,0,208,224,88,32,0,
0,14,-14,-75,0,0,100,0,240,288,40,40,0,-12,-81,0,0,100,0,152,208,16,16,0,-21,-92,3,0,100,0,368,192,56,56,0,6,-76,1,0,100,-180,512,248,40,40,0,-16,-76,0,0,100,0,0,400,32,32,0,-9,-55,1,0,100,0,0,328,40,40,0,18,-50,0,0,100,0,152,192,16,16,0,3,-56,0,0,100,0,32,400,32,32,0,-34,-48,1,0,100,0,0,432,80,40,0,-4,-34,1,0,100,0,0,472,32,32,0,-16,-39,1,0,100,0,32,472,32,32,0,4,-37,0,0,100,0,256,368,24,24,0,-11,-44,0,0,100,0,320,432,40,40,0,-37,-16,0,0,65,0,208,224,88,32,0,
0,14,-12,-76,0,0,100,0,240,288,40,40,0,-9,-81,0,0,100,0,152,208,16,16,0,-18,-92,3,0,100,0,368,192,56,56,0,9,-76,1,0,100,-180,512,248,40,40,0,-13,-76,0,0,100,0,0,400,32,32,0,-7,-56,1,0,100,0,40,328,40,40,0,20,-51,0,0,100,0,152,192,16,16,0,5,-57,0,0,100,0,32,400,32,32,0,-34,-49,1,0,100,0,80,432,80,40,0,-3,-35,1,0,100,0,0,472,32,32,0,-15,-40,1,0,100,0,32,472,32,32,0,3,-39,0,0,100,0,256,368,24,24,0,-11,-45,0,0,100,0,320,432,40,40,0,-37,-16,0,0,65,0,208,224,88,32,0,
0,25,-82,-78,0,1,100,0,192,504,80,80,0,-16,-23,0,0,100,0,168,192,16,16,0,-35,-66,0,0,100,0,0,288,40,40,0,-9,-43,1,0,100,270,736,232,40,40,0,-7,-44,0,0,100,0,0,368,16,16,0,-10,-43,0,0,100,0,168,208,16,16,0,-23,-42,1,0,100,0,64,400,32,32,0,-23,-42,1,0,100,0,64,400,32,32,0,-26,-41,0,0,100,0,64,400,32,32,0,-49,-34,2,0,100,0,368,192,56,56,0,-53,-39,2,0,100,-180,472,248,40,40,0,-53,-39,3,0,100,-180,312,248,40,40,0,-46,-44,1,0,100,90,736,232,40,40,0,-32,-46,0,0,100,0,0,328,40,40,0,-28,-73,0,0,100,0,400,328,40,40,0,-12,-64,0,0,100,0,688,192,48,32,0,-38,-46,0,0,100,0,360,432,80,40,0,-5,-43,0,0,100,0,184,192,16,16,0,-13,-36,0,0,100,0,64,472,32,32,0,-28,-38,0,0,100,0,64,472,32,32,0,-41,-65,0,0,100,0,656,192,32,32,0,-8,-39,0,0,100,0,256,368,24,24,0,-63,-92,0,1,100,0,416,88,120,104,0,-52,-64,0,0,100,0,416,0,104,88,0,-45,-16,0,0,65,0,208,224,88,32,0,
0,26,-115,-11,0,1,100,0,624,552,48,32,0,-147,-27,0,1,100,0,208,584,104,56,0,-82,-77,0,1,40,0,272,504,80,80,0,-9,-45,1,0,100,270,776,232,40,40,0,-16,-25,0,0,100,0,168,192,16,16,0,-35,-68,0,0,100,0,40,288,40,40,0,-7,-46,0,0,100,0,0,368,16,16,0,-10,-45,0,0,100,0,168,208,16,16,0,-23,-44,1,0,100,0,64,400,32,32,0,-26,-43,0,0,100,0,64,400,32,32,0,-49,-36,2,0,100,0,368,192,56,56,0,-48,-22,2,0,100,-90,552,248,40,40,0,-48,-22,3,0,100,-90,392,248,40,40,0,-46,-46,1,0,100,90,776,232,40,40,0,-32,-48,0,0,100,0,40,328,40,40,0,-28,-75,0,0,100,0,440,328,40,40,0,-12,-63,0,0,100,0,688,224,48,32,0,-38,-46,0,0,100,0,80,432,80,40,0,-5,-44,0,0,100,0,184,192,16,16,0,-13,-35,0,0,100,0,64,472,32,32,0,-28,-37,0,0,100,0,64,472,32,32,0,-41,-64,0,0,100,0,656,224,32,32,0,-9,-37,0,0,100,0,256,368,24,24,0,-63,-92,0,1,100,0,536,88,120,104,0,-52,-64,0,0,100,0,520,0,104,88,0,-45,-16,0,0,65,0,208,224,88,32,0,
0,26,-115,-11,0,1,100,0,672,552,48,32,0,-147,-27,0,1,100,0,312,584,104,56,0,-82,-77,0,1,20,0,272,504,80,80,0,-9,-45,1,0,100,270,736,232,40,40,0,-16,-25,0,0,100,0,168,192,16,16,0,-35,-68,0,0,100,0,0,288,40,40,0,-7,-46,0,0,100,0,0,368,16,16,0,-10,-45,0,0,100,0,168,208,16,16,0,-23,-44,1,0,100,0,64,400,32,32,0,-26,-43,0,0,100,0,64,400,32,32,0,-49,-36,2,0,100,0,368,192,56,56,0,-47,-21,2,0,100,-90,472,248,40,40,0,-47,-21,3,0,100,-90,312,248,40,40,0,-46,-46,1,0,100,90,736,232,40,40,0,-32,-48,0,0,100,0,0,328,40,40,0,-28,-75,0,0,100,0,480,328,40,40,0,-12,-63,0,0,100,0,688,192,48,32,0,-38,-46,0,0,100,0,0,432,80,40,0,-5,-44,0,0,100,0,184,192,16,16,0,-13,-35,0,0,100,0,64,472,32,32,0,-28,-37,0,0,100,0,64,472,32,32,0,-41,-64,0,0,100,0,656,192,32,32,0,-9,-37,0,0,100,0,256,368,24,24,0,-63,-92,0,1,100,0,656,88,120,104,0,-52,-64,0,0,100,0,624,0,104,88,0,-45,-16,0,0,65,0,208,224,88,32,0,
0,27,-115,-11,0,1,40,0,672,552,48,32,0,-115,-11,0,1,100,0,720,552,48,32,0,-147,-27,0,1,40,0,312,584,104,56,0,-147,-27,0,1,100,0,416,584,104,56,0,-9,-45,1,0,100,270,816,232,40,40,0,-16,-25,0,0,100,0,168,192,16,16,0,-35,-68,0,0,100,0,80,288,40,40,0,-7,-46,0,0,100,0,0,368,16,16,0,-10,-45,0,0,100,0,168,208,16,16,0,-23,-44,1,0,100,0,64,400,32,32,0,-26,-43,0,0,100,0,64,400,32,32,0,-49,-36,2,0,100,0,368,192,56,56,0,-47,-21,2,0,100,-90,512,248,40,40,0,-47,-21,3,0,100,-90,352,248,40,40,0,-46,-46,1,0,100,90,816,232,40,40,0,-32,-48,0,0,100,0,80,328,40,40,0,-28,-75,0,0,100,0,520,328,40,40,0,-12,-63,0,0,100,0,688,256,48,32,0,-38,-46,0,0,100,0,240,432,80,40,0,-5,-44,0,0,100,0,184,192,16,16,0,-13,-35,0,0,100,0,64,472,32,32,0,-28,-37,0,0,100,0,64,472,32,32,0,-41,-64,0,0,100,0,656,256,32,32,0,-9,-37,0,0,100,0,256,368,24,24,0,-63,-92,0,1,100,0,776,88,120,104,0,-52,-64,0,0,100,0,728,0,104,88,0,-45,-16,0,0,65,0,208,224,88,32,0,
0,25,-147,-27,0,1,40,0,416,584,104,56,0,-147,-27,0,1,100,0,520,584,104,56,0,-9,-43,1,0,100,270,736,232,40,40,0,-16,-25,0,0,100,0,168,192,16,16,0,-35,-68,0,0,100,0,80,288,40,40,0,-7,-46,0,0,100,0,0,368,16,16,0,-10,-45,0,0,100,0,168,208,16,16,0,-23,-44,1,0,100,0,64,400,32,32,0,-26,-43,0,0,100,0,64,400,32,32,0,-49,-36,2,0,100,0,368,192,56,56,0,-47,-21,2,0,100,-90,512,248,40,40,0,-47,-21,3,0,100,-90,352,248,40,40,0,-46,-44,1,0,100,90,736,232,40,40,0,-32,-48,0,0,100,0,80,328,40,40,0,-28,-75,0,0,100,0,520,328,40,40,0,-12,-63,0,0,100,0,688,256,48,32,0,-38,-46,0,0,100,0,0,432,80,40,0,-5,-44,0,0,100,0,184,192,16,16,0,-13,-35,0,0,100,0,64,472,32,32,0,-28,-37,0,0,100,0,64,472,32,32,0,-41,-64,0,0,100,0,656,256,32,32,0,-9,-37,0,0,100,0,256,368,24,24,0,-63,-92,0,1,100,0,416,88,120,104,0,-52,-64,0,0,100,0,416,0,104,88,0,-45,-16,0,0,65,0,208,224,88,32,0,
0,26,-115,-11,0,1,100,0,624,552,48,32,0,-147,-27,0,1,40,0,520,584,104,56,0,-147,-27,0,1,100,0,624,584,104,56,0,-9,-45,1,0,100,270,776,232,40,40,0,-16,-25,0,0,100,0,168,192,16,16,0,-35,-68,0,0,100,0,80,288,40,40,0,-7,-46,0,0,100,0,0,368,16,16,0,-10,-45,0,0,100,0,168,208,16,16,0,-23,-44,1,0,100,0,64,400,32,32,0,-26,-43,0,0,100,0,64,400,32,32,0,-49,-36,2,0,100,0,368,192,56,56,0,-47,-21,2,0,100,-90,512,248,40,40,0,-47,-21,3,0,100,-90,352,248,40,40,0,-46,-46,1,0,100,90,776,232,40,40,0,-32,-48,0,0,100,0,80,328,40,40,0,-28,-75,0,0,100,0,520,328,40,40,0,-12,-63,0,0,100,0,688,256,48,32,0,-38,-46,0,0,100,0,80,432,80,40,0,-5,-44,0,0,100,0,184,192,16,16,0,-13,-35,0,0,100,0,64,472,32,32,0,-28,-37,0,0,100,0,64,472,32,32,0,-41,-64,0,0,100,0,656,256,32,32,0,-9,-37,0,0,100,0,256,368,24,24,0,-63,-92,0,1,100,0,536,88,120,104,0,-52,-64,0,0,100,0,520,0,104,88,0,-45,-16,0,0,65,0,208,224,88,32,0,
0,25,-115,-11,0,1,100,0,672,552,48,32,0,-147,-27,0,1,100,0,728,584,104,56,0,-9,-45,1,0,100,270,736,232,40,40,0,-16,-25,0,0,100,0,168,192,16,16,0,-35,-68,0,0,100,0,80,288,40,40,0,-7,-46,0,0,100,0,0,368,16,16,0,-10,-45,0,0,100,0,168,208,16,16,0,-23,-44,1,0,100,0,64,400,32,32,0,-26,-43,0,0,100,0,64,400,32,32,0,-49,-36,2,0,100,0,368,192,56,56,0,-47,-21,2,0,100,-90,512,248,40,40,0,-47,-21,3,0,100,-90,352,248,40,40,0,-46,-46,1,0,100,90,736,232,40,40,0,-32,-48,0,0,100,0,80,328,40,40,0,-28,-75,0,0,100,0,520,328,40,40,0,-12,-63,0,0,100,0,688,256,48,32,0,-38,-46,0,0,100,0,160,432,80,40,0,-5,-44,0,0,100,0,184,192,16,16,0,-13,-35,0,0,100,0,64,472,32,32,0,-28,-37,0,0,100,0,64,472,32,32,0,-41,-64,0,0,100,0,656,256,32,32,0,-9,-37,0,0,100,0,256,368,24,24,0,-63,-92,0,1,100,0,656,88,120,104,0,-52,-64,0,0,100,0,624,0,104,88,0,-45,-16,0,0,65,0,208,224,88,32,0,
0,26,-115,-11,0,1,40,0,672,552,48,32,0,-115,-11,0,1,100,0,720,552,48,32,0,-147,-27,0,1,40,0,728,584,104,56,0,-9,-45,1,0,100,270,816,232,40,40,0,-16,-25,0,0,100,0,168,192,16,16,0,-35,-68,0,0,100,0,80,288,40,40,0,-7,-46,0,0,100,0,0,368,16,16,0,-10,-45,0,0,100,0,168,208,16,16,0,-23,-44,1,0,100,0,64,400,32,32,0,-26,-43,0,0,100,0,64,400,32,32,0,-49,-36,2,0,100,0,368,192,56,56,0,-47,-21,2,0,100,-90,512,248,40,40,0,-47,-21,3,0,100,-90,352,248,40,40,0,-46,-46,1,0,100,90,816,232,40,40,0,-32,-48,0,0,100,0,80,328,40,40,0,-28,-75,0,0,100,0,520,328,40,40,0,-12,-63,0,0,100,0,688,256,48,32,0,-38,-46,0,0,100,0,240,432,80,40,0,-5,-44,0,0,100,0,184,192,16,16,0,-13,-35,0,0,100,0,64,472,32,32,0,-28,-37,0,0,100,0,64,472,32,32,0,-41,-64,0,0,100,0,656,256,32,32,0,-9,-37,0,0,100,0,256,368,24,24,0,-63,-92,0,1,100,0,776,88,120,104,0,-52,-64,0,0,100,0,728,0,104,88,0,-45,-16,0,0,65,0,208,224,88,32,0,
0,24,-115,-11,0,1,40,0,720,552,48,32,0,-9,-45,1,0,100,270,736,232,40,40,0,-16,-25,0,0,100,0,168,192,16,16,0,-35,-68,0,0,100,0,80,288,40,40,0,-7,-46,0,0,100,0,0,368,16,16,0,-10,-45,0,0,100,0,168,208,16,16,0,-23,-44,1,0,100,0,64,400,32,32,0,-26,-43,0,0,100,0,64,400,32,32,0,-49,-36,2,0,100,0,368,192,56,56,0,-47,-21,2,0,100,-90,512,248,40,40,0,-47,-21,3,0,100,-90,352,248,40,40,0,-46,-46,1,0,100,90,736,232,40,40,0,-32,-48,0,0,100,0,80,328,40,40,0,-28,-75,0,0,100,0,520,328,40,40,0,-12,-63,0,0,100,0,688,256,48,32,0,-38,-46,0,0,100,0,240,432,80,40,0,-5,-44,0,0,100,0,184,192,16,16,0,-13,-35,0,0,100,0,64,472,32,32,0,-28,-37,0,0,100,0,64,472,32,32,0,-41,-64,0,0,100,0,656,256,32,32,0,-9,-37,0,0,100,0,256,368,24,24,0,-63,-92,0,1,100,0,416,88,120,104,0,-52,-64,0,0,100,0,416,0,104,88,0,-45,-16,0,0,65,0,208,224,88,32,0,
0,23,-9,-45,1,0,100,270,776,232,40,40,0,-16,-25,0,0,100,0,168,192,16,16,0,-35,-68,0,0,100,0,80,288,40,40,0,-7,-46,0,0,100,0,0,368,16,16,0,-10,-45,0,0,100,0,168,208,16,16,0,-23,-44,1,0,100,0,64,400,32,32,0,-26,-43,0,0,100,0,64,400,32,32,0,-49,-36,2,0,100,0,368,192,56,56,0,-47,-21,2,0,100,-90,512,248,40,40,0,-47,-21,3,0,100,-90,352,248,40,40,0,-46,-46,1,0,100,90,776,232,40,40,0,-32,-48,0,0,100,0,80,328,40,40,0,-28,-75,0,0,100,0,520,328,40,40,0,-12,-63,0,0,100,0,688,256,48,32,0,-38,-46,0,0,100,0,0,432,80,40,0,-5,-44,0,0,100,0,184,192,16,16,0,-13,-35,0,0,100,0,64,472,32,32,0,-28,-37,0,0,100,0,64,472,32,32,0,-41,-64,0,0,100,0,656,256,32,32,0,-9,-37,0,0,100,0,256,368,24,24,0,-63,-92,0,1,100,0,536,88,120,104,0,-52,-64,0,0,100,0,520,0,104,88,0,-45,-16,0,0,65,0,208,224,88,32,0,
0,33,-142,-17,0,1,100,0,416,552,32,32,0,-121,-46,0,1,100,0,448,552,32,32,0,-99,-39,1,1,100,0,448,552,32,32,0,-104,-43,1,1,100,0,416,552,32,32,0,-88,-21,0,1,100,0,448,552,32,32,0,-147,-66,0,1,100,0,208,640,104,88,0,-147,-55,0,1,100,0,0,640,104,88,0,-147,-67,0,1,100,0,0,584,104,56,0,-147,-43,1,1,100,0,0,584,104,56,0,-147,-20,0,1,100,0,0,584,104,56,0,-9,-45,1,0,100,270,736,232,40,40,0,-16,-25,0,0,100,0,168,192,16,16,0,-35,-68,0,0,100,0,40,288,40,40,0,-7,-46,0,0,100,0,0,368,16,16,0,-10,-45,0,0,100,0,168,208,16,16,0,-23,-44,1,0,100,0,64,400,32,32,0,-26,-43,0,0,100,0,64,400,32,32,0,-49,-36,2,0,100,0,368,192,56,56,0,-47,-21,2,0,100,-90,552,248,40,40,0,-47,-21,3,0,100,-90,392,248,40,40,0,-46,-46,1,0,100,90,736,232,40,40,0,-32,-48,0,0,100,0,40,328,40,40,0,-28,-75,0,0,100,0,440,328,40,40,0,-12,-63,0,0,100,0,688,224,48,32,0,-38,-46,0,0,100,0,80,432,80,40,0,-5,-44,0,0,100,0,184,192,16,16,0,-13,-35,0,0,100,0,64,472,32,32,0,-28,-37,0,0,100,0,64,472,32,32,0,-41,-64,0,0,100,0,656,224,32,32,0,-7,-39,0,0,100,0,256,368,24,24,0,-63,-92,0,1,100,0,656,88,120,104,0,-52,-64,0,0,100,0,624,0,104,88,0,-45,-16,0,0,65,0,208,224,88,32,0,
0,35,-140,-23,0,1,100,0,416,552,32,32,0,-126,-78,0,1,100,0,416,552,32,32,0,-95,-52,1,1,100,0,448,552,32,32,0,-101,-91,1,1,100,0,416,552,32,32,0,-86,-26,0,1,100,0,448,552,32,32,0,-147,-121,1,1,100,0,208,640,104,88,0,-147,-99,1,1,100,0,104,640,104,88,0,-147,-67,0,1,100,0,104,640,104,88,0,-147,-55,1,1,100,0,0,640,104,88,0,-147,-103,0,1,100,0,0,584,104,56,0,-147,-79,1,1,100,0,0,584,104,56,0,-147,-31,0,1,100,0,0,584,104,56,0,-9,-45,1,0,100,270,816,232,40,40,0,-16,-25,0,0,100,0,168,192,16,16,0,-35,-68,0,0,100,0,0,288,40,40,0,-7,-46,0,0,100,0,0,368,16,16,0,-10,-45,0,0,100,0,168,208,16,16,0,-23,-44,1,0,100,0,64,400,32,32,0,-26,-43,0,0,100,0,64,400,32,32,0,-49,-36,2,0,100,0,368,192,56,56,0,-47,-21,2,0,100,-90,472,248,40,40,0,-47,-21,3,0,100,-90,312,248,40,40,0,-46,-46,1,0,100,90,816,232,40,40,0,-32,-48,0,0,100,0,0,328,40,40,0,-28,-75,0,0,100,0,480,328,40,40,0,-12,-63,0,0,100,0,688,192,48,32,0,-38,-46,0,0,100,0,520,432,80,40,0,-5,-44,0,0,100,0,184,192,16,16,0,-13,-35,0,0,100,0,64,472,32,32,0,-28,-37,0,0,100,0,64,472,32,32,0,-41,-64,0,0,100,0,656,192,32,32,0,-7,-38,0,0,100,0,256,368,24,24,0,-63,-92,0,1,100,0,776,88,120,104,0,-52,-64,0,0,100,0,728,0,104,88,0,-45,-16,0,0,65,0,208,224,88,32,0,
0,35,-141,-26,0,1,60,0,448,552,32,32,0,-130,-86,0,1,100,0,448,552,32,32,0,-93,-72,1,1,100,0,416,552,32,32,0,-100,-104,1,1,100,0,448,552,32,32,0,-88,-36,0,1,60,0,416,552,32,32,0,-147,-135,0,1,100,0,208,640,104,88,0,-147,-107,0,1,100,0,104,640,104,88,0,-147,-73,1,1,100,0,104,640,104,88,0,-147,-55,0,1,100,0,0,640,104,88,0,-147,-113,0,1,100,0,0,584,104,56,0,-147,-89,1,1,100,0,0,584,104,56,0,-147,-48,0,1,100,0,0,584,104,56,0,-9,-45,1,0,100,270,736,232,40,40,0,-16,-25,0,0,100,0,168,192,16,16,0,-35,-68,0,0,100,0,80,288,40,40,0,-7,-46,0,0,100,0,0,368,16,16,0,-10,-45,0,0,100,0,168,208,16,16,0,-23,-44,1,0,100,0,64,400,32,32,0,-26,-43,0,0,100,0,64,400,32,32,0,-49,-36,2,0,100,0,368,192,56,56,0,-47,-21,2,0,100,-90,512,248,40,40,0,-47,-21,3,0,100,-90,352,248,40,40,0,-46,-46,1,0,100,90,736,232,40,40,0,-32,-48,0,0,100,0,80,328,40,40,0,-28,-75,0,0,100,0,520,328,40,40,0,-12,-63,0,0,100,0,688,256,48,32,0,-38,-46,0,0,100,0,600,432,80,40,0,-5,-44,0,0,100,0,184,192,16,16,0,-13,-35,0,0,100,0,64,472,32,32,0,-28,-37,0,0,100,0,64,472,32,32,0,-41,-64,0,0,100,0,656,256,32,32,0,-7,-39,0,0,100,0,256,368,24,24,0,-63,-92,0,1,100,0,416,88,120,104,0,-52,-64,0,0,100,0,416,0,104,88,0,-45,-16,0,0,65,0,208,224,88,32,0,
0,35,-143,-37,0,1,40,0,416,552,32,32,0,-132,-92,0,1,100,0,416,552,32,32,0,-93,-75,1,1,100,0,448,552,32,32,0,-98,-113,1,1,100,0,416,552,32,32,0,-83,-35,0,1,40,0,448,552,32,32,0,-147,-138,1,1,100,0,208,640,104,88,0,-147,-104,1,1,100,0,104,640,104,88,0,-147,-73,0,1,100,0,104,640,104,88,0,-147,-55,1,1,100,0,0,640,104,88,0,-147,-118,0,1,60,0,0,584,104,56,0,-147,-94,1,1,100,0,0,584,104,56,0,-147,-66,0,1,100,0,0,584,104,56,0,-9,-45,1,0,100,270,776,232,40,40,0,-16,-25,0,0,100,0,168,192,16,16,0,-35,-68,0,0,100,0,0,288,40,40,0,-7,-46,0,0,100,0,0,368,16,16,0,-10,-45,0,0,100,0,168,208,16,16,0,-23,-44,1,0,100,0,64,400,32,32,0,-26,-43,0,0,100,0,64,400,32,32,0,-49,-36,2,0,100,0,368,192,56,56,0,-47,-21,2,0,100,-90,472,248,40,40,0,-47,-21,3,0,100,-90,312,248,40,40,0,-46,-46,1,0,100,90,776,232,40,40,0,-32,-48,0,0,100,0,0,328,40,40,0,-28,-75,0,0,100,0,400,328,40,40,0,-12,-63,0,0,100,0,688,192,48,32,0,-38,-46,0,0,100,0,360,432,80,40,0,-5,-44,0,0,100,0,184,192,16,16,0,-13,-35,0,0,100,0,64,472,32,32,0,-28,-37,0,0,100,0,64,472,32,32,0,-41,-64,0,0,100,0,656,192,32,32,0,-7,-38,0,0,100,0,256,368,24,24,0,-63,-92,0,1,100,0,536,88,120,104,0,-52,-64,0,0,100,0,520,0,104,88,0,-45,-16,0,0,65,0,208,224,88,32,0,
0,34,-136,-85,0,1,60,0,448,552,32,32,0,-87,-78,1,1,60,0,416,552,32,32,0,-96,-111,1,1,100,0,448,552,32,32,0,-147,-138,0,1,100,0,208,640,104,88,0,-147,-98,0,1,100,0,104,640,104,88,0,-147,-87,1,1,100,0,104,640,104,88,0,-147,-55,0,1,40,0,0,640,104,88,0,-147,-122,0,1,40,0,0,584,104,56,0,-147,-98,1,1,100,0,0,584,104,56,0,-147,-75,0,1,100,0,0,584,104,56,0,-147,-31,1,1,100,0,0,584,104,56,0,-9,-45,1,0,100,270,736,232,40,40,0,-16,-25,0,0,100,0,168,192,16,16,0,-35,-68,0,0,100,0,40,288,40,40,0,-7,-46,0,0,100,0,0,368,16,16,0,-10,-45,0,0,100,0,168,208,16,16,0,-23,-44,1,0,100,0,64,400,32,32,0,-26,-43,0,0,100,0,64,400,32,32,0,-49,-36,2,0,100,0,368,192,56,56,0,-47,-21,2,0,100,-90,552,248,40,40,0,-47,-21,3,0,100,-90,392,248,40,40,0,-46,-46,1,0,100,90,736,232,40,40,0,-32,-48,0,0,100,0,40,328,40,40,0,-28,-75,0,0,100,0,440,328,40,40,0,-12,-63,0,0,100,0,688,224,48,32,0,-38,-46,0,0,100,0,440,432,80,40,0,-5,-44,0,0,100,0,184,192,16,16,0,-13,-35,0,0,100,0,64,472,32,32,0,-28,-37,0,0,100,0,64,472,32,32,0,-41,-64,0,0,100,0,656,224,32,32,0,-7,-39,0,0,100,0,256,368,24,24,0,-63,-92,0,1,100,0,656,88,120,104,0,-52,-64,0,0,100,0,624,0,104,88,0,-45,-16,0,0,65,0,208,224,88,32,0,
0,32,-94,-108,1,1,100,0,416,552,32,32,0,-140,-67,0,1,40,0,416,552,32,32,0,-88,-58,1,1,40,0,448,552,32,32,0,-147,-136,1,1,100,0,208,640,104,88,0,-147,-117,0,1,100,0,208,640,104,88,0,-147,-55,1,1,20,0,0,640,104,88,0,-147,-106,1,1,100,0,0,584,104,56,0,-147,-82,0,1,100,0,0,584,104,56,0,-147,-44,1,1,100,0,0,584,104,56,0,-9,-45,1,0,100,270,816,232,40,40,0,-16,-25,0,0,100,0,168,192,16,16,0,-35,-68,0,0,100,0,0,288,40,40,0,-7,-46,0,0,100,0,0,368,16,16,0,-10,-45,0,0,100,0,168,208,16,16,0,-23,-44,1,0,100,0,64,400,32,32,0,-26,-43,0,0,100,0,64,400,32,32,0,-49,-36,2,0,100,0,368,192,56,56,0,-47,-21,2,0,100,-90,472,248,40,40,0,-47,-21,3,0,100,-90,312,248,40,40,0,-46,-46,1,0,100,90,816,232,40,40,0,-32,-48,0,0,100,0,0,328,40,40,0,-28,-75,0,0,100,0,480,328,40,40,0,-12,-63,0,0,100,0,688,192,48,32,0,-38,-46,0,0,100,0,520,432,80,40,0,-5,-44,0,0,100,0,184,192,16,16,0,-13,-35,0,0,100,0,64,472,32,32,0,-28,-37,0,0,100,0,64,472,32,32,0,-41,-64,0,0,100,0,656,192,32,32,0,-7,-38,0,0,100,0,256,368,24,24,0,-63,-92,0,1,100,0,776,88,120,104,0,-52,-64,0,0,100,0,728,0,104,88,0,-45,-16,0,0,65,0,208,224,88,32,0,
0,28,-90,-93,1,1,60,0,448,552,32,32,0,-147,-126,0,1,100,0,208,640,104,88,0,-147,-113,1,1,100,0,0,584,104,56,0,-147,-89,0,1,100,0,0,584,104,56,0,-147,-58,1,1,100,0,0,584,104,56,0,-9,-45,1,0,100,270,736,232,40,40,0,-16,-25,0,0,100,0,168,192,16,16,0,-35,-68,0,0,100,0,80,288,40,40,0,-7,-46,0,0,100,0,0,368,16,16,0,-10,-45,0,0,100,0,168,208,16,16,0,-23,-44,1,0,100,0,64,400,32,32,0,-26,-43,0,0,100,0,64,400,32,32,0,-49,-36,2,0,100,0,368,192,56,56,0,-47,-21,2,0,100,-90,512,248,40,40,0,-47,-21,3,0,100,-90,352,248,40,40,0,-46,-46,1,0,100,90,736,232,40,40,0,-32,-48,0,0,100,0,80,328,40,40,0,-28,-75,0,0,100,0,520,328,40,40,0,-12,-63,0,0,100,0,688,256,48,32,0,-38,-46,0,0,100,0,600,432,80,40,0,-5,-44,0,0,100,0,184,192,16,16,0,-13,-35,0,0,100,0,64,472,32,32,0,-28,-37,0,0,100,0,64,472,32,32,0,-41,-64,0,0,100,0,656,256,32,32,0,-7,-39,0,0,100,0,256,368,24,24,0,-63,-92,0,1,100,0,416,88,120,104,0,-52,-64,0,0,100,0,416,0,104,88,0,-45,-16,0,0,65,0,208,224,88,32,0,
0,28,-89,-88,1,1,40,0,416,552,32,32,0,-147,-126,1,1,40,0,208,640,104,88,0,-147,-118,1,1,60,0,0,584,104,56,0,-147,-94,0,1,80,0,0,584,104,56,0,-147,-66,1,1,100,0,0,584,104,56,0,-9,-45,1,0,100,270,776,232,40,40,0,-16,-25,0,0,100,0,168,192,16,16,0,-35,-68,0,0,100,0,0,288,40,40,0,-7,-46,0,0,100,0,0,368,16,16,0,-10,-45,0,0,100,0,168,208,16,16,0,-23,-44,1,0,100,0,64,400,32,32,0,-26,-43,0,0,100,0,64,400,32,32,0,-49,-36,2,0,100,0,368,192,56,56,0,-47,-21,2,0,100,-90,472,248,40,40,0,-47,-21,3,0,100,-90,312,248,40,40,0,-46,-46,1,0,100,90,776,232,40,40,0,-32,-48,0,0,100,0,0,328,40,40,0,-28,-75,0,0,100,0,400,328,40,40,0,-12,-63,0,0,100,0,688,192,48,32,0,-38,-46,0,0,100,0,360,432,80,40,0,-5,-44,0,0,100,0,184,192,16,16,0,-13,-35,0,0,100,0,64,472,32,32,0,-28,-37,0,0,100,0,64,472,32,32,0,-41,-64,0,0,100,0,656,192,32,32,0,-7,-38,0,0,100,0,256,368,24,24,0,-63,-92,0,1,100,0,536,88,120,104,0,-52,-64,0,0,100,0,520,0,104,88,0,-45,-16,0,0,65,0,208,224,88,32,0,
0,27,-88,-80,1,1,20,0,448,552,32,32,0,-147,-122,1,1,40,0,0,584,104,56,0,-147,-98,0,1,60,0,0,584,104,56,0,-147,-75,1,1,100,0,0,584,104,56,0,-9,-45,1,0,100,270,736,232,40,40,0,-16,-25,0,0,100,0,168,192,16,16,0,-35,-68,0,0,100,0,40,288,40,40,0,-7,-46,0,0,100,0,0,368,16,16,0,-10,-45,0,0,100,0,168,208,16,16,0,-23,-44,1,0,100,0,64,400,32,32,0,-26,-43,0,0,100,0,64,400,32,32,0,-49,-36,2,0,100,0,368,192,56,56,0,-47,-21,2,0,100,-90,552,248,40,40,0,-47,-21,3,0,100,-90,392,248,40,40,0,-46,-46,1,0,100,90,736,232,40,40,0,-32,-48,0,0,100,0,40,328,40,40,0,-28,-75,0,0,100,0,440,328,40,40,0,-12,-63,0,0,100,0,688,224,48,32,0,-38,-46,0,0,100,0,440,432,80,40,0,-5,-44,0,0,100,0,184,192,16,16,0,-13,-35,0,0,100,0,64,472,32,32,0,-28,-37,0,0,100,0,64,472,32,32,0,-41,-64,0,0,100,0,656,224,32,32,0,-7,-39,0,0,100,0,256,368,24,24,0,-63,-92,0,1,100,0,656,88,120,104,0,-52,-64,0,0,100,0,624,0,104,88,0,-45,-16,0,0,65,0,208,224,88,32,0,
0,26,-147,-126,1,1,0,0,0,584,104,56,0,-147,-102,0,1,20,0,0,584,104,56,0,-147,-79,1,1,40,0,0,584,104,56,0,-9,-45,1,0,100,270,816,232,40,40,0,-16,-25,0,0,100,0,168,192,16,16,0,-35,-68,0,0,100,0,0,288,40,40,0,-7,-46,0,0,100,0,0,368,16,16,0,-10,-45,0,0,100,0,168,208,16,16,0,-23,-44,1,0,100,0,64,400,32,32,0,-26,-43,0,0,100,0,64,400,32,32,0,-49,-36,2,0,100,0,368,192,56,56,0,-47,-21,2,0,100,-90,472,248,40,40,0,-47,-21,3,0,100,-90,312,248,40,40,0,-46,-46,1,0,100,90,816,232,40,40,0,-32,-48,0,0,100,0,0,328,40,40,0,-28,-75,0,0,100,0,480,328,40,40,0,-12,-63,0,0,100,0,688,192,48,32,0,-38,-46,0,0,100,0,520,432,80,40,0,-5,-44,0,0,100,0,184,192,16,16,0,-13,-35,0,0,100,0,64,472,32,32,0,-28,-37,0,0,100,0,64,472,32,32,0,-41,-64,0,0,100,0,656,192,32,32,0,-7,-38,0,0,100,0,256,368,24,24,0,-63,-92,0,1,100,0,776,88,120,104,0,-52,-64,0,0,100,0,728,0,104,88,0,-45,-16,0,0,65,0,208,224,88,32,0,
0,24,-147,-81,1,1,20,0,0,584,104,56,0,-9,-45,1,0,100,270,736,232,40,40,0,-16,-25,0,0,100,0,168,192,16,16,0,-35,-68,0,0,100,0,80,288,40,40,0,-7,-46,0,0,100,0,0,368,16,16,0,-10,-45,0,0,100,0,168,208,16,16,0,-23,-44,1,0,100,0,64,400,32,32,0,-26,-43,0,0,100,0,64,400,32,32,0,-49,-36,2,0,100,0,368,192,56,56,0,-47,-21,2,0,100,-90,512,248,40,40,0,-47,-21,3,0,100,-90,352,248,40,40,0,-46,-46,1,0,100,90,736,232,40,40,0,-32,-48,0,0,100,0,80,328,40,40,0,-28,-75,0,0,100,0,520,328,40,40,0,-12,-63,0,0,100,0,688,256,48,32,0,-38,-46,0,0,100,0,600,432,80,40,0,-5,-44,0,0,100,0,184,192,16,16,0,-13,-35,0,0,100,0,64,472,32,32,0,-28,-37,0,0,100,0,64,472,32,32,0,-41,-64,0,0,100,0,656,256,32,32,0,-7,-39,0,0,100,0,256,368,24,24,0,-63,-92,0,1,60,0,416,88,120,104,0,-52,-64,0,0,100,0,416,0,104,88,0,-45,-16,0,0,65,0,208,224,88,32,0,
0,23,-9,-45,1,0,100,270,776,232,40,40,0,-16,-25,0,0,100,0,168,192,16,16,0,-35,-68,0,0,100,0,0,288,40,40,0,-7,-46,0,0,100,0,0,368,16,16,0,-10,-45,0,0,100,0,168,208,16,16,0,-23,-44,1,0,100,0,64,400,32,32,0,-26,-43,0,0,100,0,64,400,32,32,0,-49,-36,2,0,100,0,368,192,56,56,0,-47,-21,2,0,100,-90,472,248,40,40,0,-47,-21,3,0,100,-90,312,248,40,40,0,-46,-46,1,0,100,90,776,232,40,40,0,-32,-48,0,0,100,0,0,328,40,40,0,-28,-75,0,0,100,0,400,328,40,40,0,-12,-63,0,0,100,0,688,192,48,32,0,-38,-46,0,0,100,0,360,432,80,40,0,-5,-44,0,0,100,0,184,192,16,16,0,-13,-35,0,0,100,0,64,472,32,32,0,-28,-37,0,0,100,0,64,472,32,32,0,-41,-64,0,0,100,0,656,192,32,32,0,-7,-38,0,0,100,0,256,368,24,24,0,-63,-92,0,1,40,0,536,88,120,104,0,-52,-64,0,0,100,0,520,0,104,88,0,-45,-16,0,0,65,0,208,224,88,32,0,
