0,5,-57,-85,0,0,70,0,576,520,72,64,0,-81,-104,0,0,100,0,0,0,152,120,0,-33,-104,0,0,80,0,0,520,72,64,0,-80,-48,0,0,80,0,288,520,72,64,0,-24,-11,0,0,65,0,1552,0,48,24,0,
0,5,-57,-85,0,0,70,0,648,520,72,64,0,-81,-104,0,0,100,0,152,0,152,120,0,-33,-104,0,0,80,0,72,520,72,64,0,-80,-48,0,0,80,0,360,520,72,64,0,-24,-11,0,0,65,0,1552,0,48,24,0,
0,5,-57,-85,0,0,70,0,720,520,72,64,0,-81,-104,0,0,100,0,304,0,152,120,0,-33,-104,0,0,80,0,144,520,72,64,0,-80,-48,0,0,80,0,432,520,72,64,0,-24,-11,0,0,65,0,1552,0,48,24,0,
0,5,-57,-85,0,0,70,0,792,520,72,64,0,-81,-104,0,0,100,0,456,0,152,120,0,-33,-104,0,0,80,0,216,520,72,64,0,-80,-48,0,0,80,0,504,520,72,64,0,-24,-11,0,0,65,0,1552,0,48,24,0,
0,19,-27,-43,2,0,100,0,576,120,32,24,0,-31,-54,0,0,100,0,688,128,40,40,0,-35,-53,0,0,100,0,384,120,48,48,0,-27,-62,0,0,100,0,648,0,40,40,0,-29,-74,0,0,100,0,72,288,72,72,0,-27,-62,0,0,100,0,1168,128,64,64,0,-20,-58,0,0,100,0,728,128,40,40,0,-30,-53,0,0,100,0,752,40,48,40,0,-29,-41,0,0,100,0,1112,80,56,48,0,-18,-57,0,0,100,0,672,168,48,48,0,-7,-70,0,0,100,0,288,288,72,72,0,-21,-78,1,0,80,0,0,520,72,64,0,-21,-72,0,0,100,0,1232,128,64,64,0,-41,-77,0,0,100,0,960,440,80,80,0,-25,-66,0,0,100,0,80,360,80,80,0,-38,-70,0,0,100,0,880,440,80,80,0,-71,-67,0,0,100,0,1400,128,104,72,0,3,-72,1,0,80,0,288,520,72,64,0,-24,-11,0,0,65,0,1552,0,48,24,0,
0,17,-15,-44,2,0,100,0,576,120,32,24,0,-19,-54,0,0,100,0,688,128,40,40,0,-43,-51,1,0,100,0,1040,256,64,64,0,-18,-55,0,0,100,0,0,168,48,48,0,-45,-53,1,0,100,0,0,216,72,72,0,-18,-57,0,0,100,0,656,40,48,40,0,-8,-54,0,0,100,0,728,128,40,40,0,-15,-53,1,0,100,0,1104,320,64,64,0,-26,-38,0,0,100,0,664,80,56,48,0,-11,-51,0,0,100,0,48,168,48,48,0,-3,-60,0,0,100,0,288,288,72,72,0,5,-61,1,0,70,0,288,520,72,64,0,-21,-41,0,0,100,0,1424,0,56,56,0,-57,-62,0,0,100,0,160,360,80,80,0,-25,-62,0,0,100,0,240,360,80,80,0,-44,-54,0,0,100,0,160,440,80,80,0,-24,-11,0,0,65,0,1552,0,48,24,0,
0,17,-14,-44,2,0,100,0,576,120,32,24,0,-17,-54,0,0,100,0,688,128,40,40,0,-42,-51,1,0,100,0,1232,256,64,64,0,-16,-56,0,0,100,0,0,168,48,48,0,-44,-53,1,0,100,0,0,216,72,72,0,-17,-57,0,0,100,0,656,40,48,40,0,-7,-54,0,0,100,0,728,128,40,40,0,-14,-53,1,0,100,0,1168,320,64,64,0,-26,-38,0,0,100,0,664,80,56,48,0,-12,-51,0,0,100,0,48,168,48,48,0,-4,-60,0,0,100,0,288,288,72,72,0,4,-61,1,0,40,0,360,520,72,64,0,-20,-41,0,0,100,0,1424,0,56,56,0,-56,-62,0,0,100,0,880,360,80,80,0,-20,-64,0,0,100,0,960,360,80,80,0,-36,-55,0,0,100,0,160,440,80,80,0,-24,-11,0,0,65,0,1552,0,48,24,0,
0,16,-13,-45,2,0,100,0,576,120,32,24,0,-5,-57,0,0,100,0,648,128,40,40,0,-30,-52,1,0,100,0,1040,256,64,64,0,-3,-53,0,0,100,0,0,120,48,48,0,2,-71,0,0,100,0,72,288,72,72,0,-12,-64,0,0,100,0,608,0,40,40,0,-13,-50,0,0,100,0,608,40,48,40,0,-25,-64,0,0,100,0,48,120,48,48,0,-17,-38,0,0,100,0,1000,80,56,48,0,-5,-39,0,0,100,0,1312,0,56,56,0,-4,-61,0,0,100,0,0,360,80,80,0,-40,-62,0,0,100,0,1040,192,64,64,0,-26,-59,0,0,100,0,0,216,72,72,0,-31,-46,0,0,100,0,1256,0,56,56,0,-25,-61,0,0,100,0,0,440,80,80,0,-16,-11,0,0,65,0,1552,0,48,24,0,
0,19,-60,-55,0,0,100,0,608,128,40,24,0,-91,-51,0,1,100,0,1112,504,112,16,0,-26,-73,0,0,80,0,1432,424,56,64,0,-12,-46,2,0,100,0,576,120,32,24,0,-3,-58,0,0,100,0,648,128,40,40,0,-29,-53,1,0,100,0,1104,256,64,64,0,-1,-54,0,0,100,0,0,120,48,48,0,4,-72,0,0,100,0,72,288,72,72,0,-11,-65,0,0,100,0,608,0,40,40,0,-13,-50,0,0,100,0,608,40,48,40,0,-16,-78,0,0,100,0,96,120,48,48,0,-17,-38,0,0,100,0,608,80,56,48,0,-4,-39,0,0,100,0,1312,0,56,56,0,-3,-62,0,0,100,0,80,360,80,80,0,-39,-64,0,0,100,0,1104,192,64,64,0,-25,-60,0,0,100,0,0,216,72,72,0,-31,-47,0,0,100,0,1256,0,56,56,0,-24,-68,0,0,100,0,80,440,80,80,0,-16,-11,0,0,65,0,1552,0,48,24,0,
0,21,-56,-46,0,0,100,0,608,128,40,24,0,-82,-42,0,1,100,0,1112,504,112,16,0,-118,-55,0,0,100,0,608,128,40,24,0,-121,-51,0,1,60,0,1112,504,112,16,0,-27,-73,0,0,80,0,1488,424,40,64,0,-12,-45,2,0,100,0,576,120,32,24,0,-3,-57,0,0,100,0,648,128,40,40,0,-28,-52,1,0,100,0,1104,256,64,64,0,-1,-53,0,0,100,0,0,120,48,48,0,4,-71,0,0,100,0,72,288,72,72,0,-11,-64,0,0,100,0,608,0,40,40,0,-13,-49,0,0,100,0,608,40,48,40,0,-17,-77,0,0,100,0,96,120,48,48,0,-17,-38,0,0,100,0,608,80,56,48,0,-4,-39,0,0,100,0,1424,0,56,56,0,-2,-61,0,0,100,0,80,360,80,80,0,-40,-63,0,0,100,0,1104,192,64,64,0,-25,-59,0,0,100,0,0,216,72,72,0,-31,-47,0,0,100,0,1368,0,56,56,0,-23,-68,0,0,100,0,80,440,80,80,0,-16,-11,0,0,65,0,1552,0,48,24,0,
0,22,-49,-38,0,0,100,0,608,128,40,24,0,-80,-34,0,1,100,0,1112,504,112,16,0,-114,-46,0,0,100,0,608,128,40,24,0,-129,-42,0,1,60,0,1112,504,112,16,0,-192,-55,0,0,50,0,608,128,40,24,0,-199,-51,0,1,30,0,1112,504,112,16,0,-12,-45,2,0,100,0,576,120,32,24,0,-3,-57,0,0,100,0,648,128,40,40,0,-28,-52,1,0,100,0,1104,256,64,64,0,-1,-53,0,0,100,0,0,120,48,48,0,4,-71,0,0,100,0,72,288,72,72,0,-11,-64,0,0,100,0,608,0,40,40,0,-13,-49,0,0,100,0,608,40,48,40,0,-17,-77,0,0,100,0,96,120,48,48,0,-17,-38,0,0,100,0,608,80,56,48,0,-4,-39,0,0,100,0,1424,0,56,56,0,-2,-61,0,0,100,0,80,360,80,80,0,-40,-63,0,0,100,0,1104,192,64,64,0,-25,-59,0,0,100,0,0,216,72,72,0,-31,-47,0,0,100,0,1368,0,56,56,0,-23,-68,0,0,100,0,80,440,80,80,0,-16,-11,0,0,65,0,1552,0,48,24,0,
0,20,-107,-38,0,0,100,0,608,128,40,24,0,-110,-34,0,1,60,0,1112,504,112,16,0,-188,-46,0,0,100,0,608,128,40,24,0,-207,-42,0,1,30,0,1112,504,112,16,0,-12,-45,2,0,100,0,576,120,32,24,0,-3,-57,0,0,100,0,648,128,40,40,0,-28,-52,1,0,100,0,1104,256,64,64,0,-1,-53,0,0,100,0,0,120,48,48,0,4,-71,0,0,100,0,72,288,72,72,0,-11,-64,0,0,100,0,608,0,40,40,0,-13,-49,0,0,100,0,608,40,48,40,0,-17,-77,0,0,100,0,96,120,48,48,0,-17,-38,0,0,100,0,608,80,56,48,0,-4,-39,0,0,100,0,1424,0,56,56,0,-2,-61,0,0,100,0,80,360,80,80,0,-40,-63,0,0,100,0,1104,192,64,64,0,-25,-59,0,0,100,0,0,216,72,72,0,-31,-47,0,0,100,0,1368,0,56,56,0,-23,-68,0,0,100,0,80,440,80,80,0,-16,-11,0,0,65,0,1552,0,48,24,0,
0,18,-181,-38,0,0,100,0,608,128,40,24,0,-188,-34,0,1,30,0,1112,504,112,16,0,-12,-45,2,0,100,0,576,120,32,24,0,-3,-57,0,0,100,0,648,128,40,40,0,-28,-52,1,0,100,0,1104,256,64,64,0,-1,-53,0,0,100,0,0,120,48,48,0,4,-71,0,0,100,0,72,288,72,72,0,-11,-64,0,0,100,0,608,0,40,40,0,-13,-49,0,0,100,0,608,40,48,40,0,-17,-77,0,0,100,0,96,120,48,48,0,-17,-38,0,0,100,0,608,80,56,48,0,-4,-39,0,0,100,0,1424,0,56,56,0,-2,-61,0,0,100,0,80,360,80,80,0,-40,-63,0,0,100,0,1104,192,64,64,0,-25,-59,0,0,100,0,0,216,72,72,0,-31,-47,0,0,100,0,1368,0,56,56,0,-23,-68,0,0,100,0,80,440,80,80,0,-16,-11,0,0,65,0,1552,0,48,24,0,
0,16,-12,-45,2,0,100,0,576,120,32,24,0,-3,-57,0,0,100,0,648,128,40,40,0,-28,-52,1,0,100,0,1104,256,64,64,0,-1,-53,0,0,100,0,0,120,48,48,0,4,-71,0,0,100,0,72,288,72,72,0,-11,-64,0,0,100,0,608,0,40,40,0,-13,-49,0,0,100,0,608,40,48,40,0,-17,-77,0,0,100,0,96,120,48,48,0,-17,-38,0,0,100,0,608,80,56,48,0,-4,-39,0,0,100,0,1424,0,56,56,0,-2,-61,0,0,100,0,80,360,80,80,0,-40,-63,0,0,100,0,1104,192,64,64,0,-25,-59,0,0,100,0,0,216,72,72,0,-31,-47,0,0,100,0,1368,0,56,56,0,-23,-68,0,0,100,0,80,440,80,80,0,-16,-11,0,0,65,0,1552,0,48,24,0,
0,16,-16,-44,2,0,100,0,576,120,32,24,0,-7,-56,0,0,100,0,648,128,40,40,0,-32,-51,1,0,100,0,1040,256,64,64,0,-5,-52,0,0,100,0,0,120,48,48,0,0,-70,0,0,100,0,72,288,72,72,0,-15,-63,0,0,100,0,608,0,40,40,0,-15,-49,0,0,100,0,608,40,48,40,0,-27,-62,0,0,100,0,48,120,48,48,0,-17,-38,0,0,100,0,1000,80,56,48,0,-4,-45,0,0,100,0,1312,0,56,56,0,-4,-61,0,0,100,0,0,360,80,80,0,-40,-62,0,0,100,0,1040,192,64,64,0,-26,-59,0,0,100,0,0,216,72,72,0,-31,-50,0,0,100,0,1256,0,56,56,0,-25,-61,0,0,100,0,0,440,80,80,0,-16,-11,0,0,65,0,1552,0,48,24,0,
0,17,-37,-54,0,0,100,0,688,128,40,40,0,-36,-50,0,0,100,0,1168,256,64,64,0,-31,-60,0,0,100,0,144,120,48,48,0,-20,-72,0,0,100,0,0,216,72,72,0,-8,-63,3,0,80,0,288,520,72,64,0,-33,-62,0,0,100,0,648,0,40,40,0,-85,-82,2,0,100,0,1400,128,104,72,0,-26,-58,0,0,100,0,728,128,40,40,0,-36,-53,0,0,100,0,752,40,48,40,0,-35,-41,0,0,100,0,1112,80,56,48,0,-24,-57,0,0,100,0,672,168,48,48,0,-13,-70,0,0,100,0,288,288,72,72,0,-23,-60,0,0,100,0,1232,192,64,64,0,-72,-66,0,0,100,0,320,360,80,80,0,-31,-66,0,0,100,0,80,360,80,80,0,-46,-62,0,0,100,0,240,440,80,80,0,-29,-11,0,0,65,0,1552,0,48,24,0,
0,17,-75,-54,0,0,100,0,688,128,40,40,0,-74,-50,0,0,100,0,1168,256,64,64,0,-69,-60,0,0,100,0,144,120,48,48,0,-58,-72,0,0,100,0,0,216,72,72,0,-46,-63,3,0,80,0,360,520,72,64,0,-71,-62,0,0,100,0,648,0,40,40,0,-119,-77,2,0,100,0,1400,128,104,72,0,-64,-58,0,0,100,0,728,128,40,40,0,-74,-53,0,0,100,0,752,40,48,40,0,-73,-41,0,0,100,0,1112,80,56,48,0,-62,-57,0,0,100,0,672,168,48,48,0,-51,-70,0,0,100,0,288,288,72,72,0,-61,-60,0,0,100,0,1232,192,64,64,0,-110,-66,0,0,100,0,320,360,80,80,0,-69,-66,0,0,100,0,80,360,80,80,0,-84,-62,0,0,100,0,240,440,80,80,0,-65,-11,0,0,65,0,1552,0,48,24,0,
0,19,-131,-66,0,0,100,0,1296,128,56,72,0,-131,-66,0,0,100,0,1296,128,104,32,0,-80,-54,0,0,100,0,688,128,40,40,0,-81,-56,0,0,100,0,1232,192,64,64,0,-76,-59,0,0,100,0,144,120,48,48,0,-68,-72,0,0,100,0,0,216,72,72,0,-56,-62,3,0,80,0,432,520,72,64,0,-76,-62,0,0,100,0,648,0,40,40,0,-69,-55,0,0,100,0,728,128,40,40,0,-80,-52,0,0,100,0,752,40,48,40,0,-90,-39,0,0,100,0,720,80,56,48,0,-83,-34,0,0,100,0,1344,160,56,40,0,-70,-51,0,0,100,0,144,168,48,48,0,-64,-74,0,0,100,0,72,288,72,72,0,-66,-60,0,0,100,0,1232,192,64,64,0,-115,-66,0,0,100,0,320,360,80,80,0,-74,-66,0,0,100,0,80,360,80,80,0,-89,-62,0,0,100,0,240,440,80,80,0,-85,-11,0,0,65,0,1552,0,48,24,0,
0,19,-133,-59,0,0,100,0,1400,128,104,32,0,-133,-59,0,0,100,0,1400,128,56,72,0,-79,-56,0,0,100,0,688,128,40,40,0,-80,-53,0,0,100,0,1232,256,64,64,0,-74,-61,0,0,100,0,144,120,48,48,0,-67,-74,0,0,100,0,0,216,72,72,0,-55,-64,3,0,80,0,504,520,72,64,0,-75,-62,0,0,100,0,648,0,40,40,0,-68,-56,0,0,100,0,728,128,40,40,0,-79,-53,0,0,100,0,752,40,48,40,0,-90,-39,0,0,100,0,720,80,56,48,0,-71,-50,0,0,100,0,144,168,48,48,0,-65,-73,0,0,100,0,72,288,72,72,0,-64,-60,1,0,100,0,1104,192,64,64,0,-117,-64,0,0,100,0,160,360,80,80,0,-84,-63,0,0,100,0,240,360,80,80,0,-105,-56,0,0,100,0,160,440,80,80,0,-94,-26,0,0,100,0,1440,160,40,32,0,-85,-11,0,0,65,0,1552,0,48,24,0,
0,18,-150,-72,0,0,100,0,696,584,104,72,0,-86,-42,2,0,100,0,576,120,32,24,0,-92,-58,0,0,100,0,688,128,40,40,0,-118,-60,0,0,100,0,1104,128,64,64,0,-107,-62,0,0,100,0,192,120,48,48,0,-145,-73,0,0,100,0,0,288,72,72,0,-86,-62,0,0,100,0,648,0,40,40,0,-80,-58,0,0,100,0,728,128,40,40,0,-95,-56,0,0,100,0,1168,192,64,64,0,-92,-52,0,0,100,0,752,40,48,40,0,-94,-39,0,0,100,0,776,80,56,48,0,-82,-50,0,0,100,0,144,168,48,48,0,-74,-66,0,0,100,0,288,288,72,72,0,-122,-59,0,0,100,0,1256,56,104,72,0,-129,-66,0,0,100,0,320,360,80,80,0,-88,-65,0,0,100,0,80,360,80,80,0,-108,-63,0,0,100,0,400,440,80,80,0,-90,-11,0,0,65,0,1552,0,48,24,0,
0,18,-151,-71,0,0,100,0,800,584,104,72,0,-87,-42,2,0,100,0,576,120,32,24,0,-94,-58,0,0,100,0,688,128,40,40,0,-116,-53,1,0,100,0,1168,256,64,64,0,-109,-62,0,0,100,0,192,120,48,48,0,-147,-73,0,0,100,0,0,288,72,72,0,-87,-62,0,0,100,0,648,0,40,40,0,-82,-58,0,0,100,0,728,128,40,40,0,-79,-60,1,0,100,0,1040,192,64,64,0,-93,-52,0,0,100,0,752,40,48,40,0,-94,-39,0,0,100,0,1056,80,56,48,0,-84,-49,0,0,100,0,144,168,48,48,0,-76,-65,0,0,100,0,288,288,72,72,0,-125,-55,0,0,100,0,1360,56,104,72,0,-130,-63,1,0,100,0,80,360,80,80,0,-88,-63,0,0,100,0,0,360,80,80,0,-110,-61,0,0,100,0,160,440,80,80,0,-90,-11,0,0,65,0,1552,0,48,24,0,
0,18,-150,-70,0,0,100,0,904,584,104,72,0,-87,-42,2,0,100,0,576,120,32,24,0,-94,-58,0,0,100,0,688,128,40,40,0,-116,-53,1,0,100,0,1168,256,64,64,0,-109,-62,0,0,100,0,192,120,48,48,0,-147,-73,0,0,100,0,0,288,72,72,0,-87,-62,0,0,100,0,648,0,40,40,0,-82,-58,0,0,100,0,728,128,40,40,0,-79,-60,1,0,100,0,1040,192,64,64,0,-93,-52,0,0,100,0,752,40,48,40,0,-94,-39,0,0,100,0,1056,80,56,48,0,-84,-49,0,0,100,0,144,168,48,48,0,-76,-65,0,0,100,0,288,288,72,72,0,-125,-55,0,0,100,0,1360,56,104,72,0,-130,-63,1,0,100,0,80,360,80,80,0,-88,-63,0,0,100,0,0,360,80,80,0,-110,-61,0,0,100,0,160,440,80,80,0,-90,-11,0,0,65,0,1552,0,48,24,0,
0,17,-87,-42,2,0,100,0,576,120,32,24,0,-94,-58,0,0,100,0,688,128,40,40,0,-116,-53,1,0,100,0,1168,256,64,64,0,-109,-62,0,0,100,0,192,120,48,48,0,-147,-73,0,0,100,0,0,288,72,72,0,-87,-62,0,0,100,0,648,0,40,40,0,-82,-58,0,0,100,0,728,128,40,40,0,-79,-60,1,0,100,0,1040,192,64,64,0,-93,-52,0,0,100,0,752,40,48,40,0,-94,-39,0,0,100,0,1056,80,56,48,0,-84,-49,0,0,100,0,144,168,48,48,0,-76,-65,0,0,100,0,288,288,72,72,0,-125,-55,0,0,100,0,1360,56,104,72,0,-130,-63,1,0,100,0,80,360,80,80,0,-88,-63,0,0,100,0,0,360,80,80,0,-110,-61,0,0,100,0,160,440,80,80,0,-90,-11,0,0,65,0,1552,0,48,24,0,
0,17,-87,-40,2,0,100,0,576,120,32,24,0,-95,-56,0,0,100,0,688,128,40,40,0,-115,-51,1,0,100,0,1168,256,64,64,0,-109,-58,0,0,100,0,192,120,48,48,0,-147,-69,0,0,100,0,0,288,72,72,0,-87,-60,0,0,100,0,648,0,40,40,0,-82,-57,0,0,100,0,728,128,40,40,0,-80,-60,1,0,100,0,1040,192,64,64,0,-93,-51,0,0,100,0,752,40,48,40,0,-94,-39,0,0,100,0,1056,80,56,48,0,-83,-49,0,0,100,0,144,168,48,48,0,-75,-65,0,0,100,0,288,288,72,72,0,-125,-54,0,0,100,0,1360,56,104,72,0,-130,-62,1,0,100,0,80,360,80,80,0,-88,-62,0,0,100,0,0,360,80,80,0,-110,-60,0,0,100,0,160,440,80,80,0,-90,-11,0,0,65,0,1552,0,48,24,0,
0,13,-102,-78,0,0,100,0,1040,456,72,64,0,-140,-70,0,0,100,0,1040,456,72,64,0,-134,-99,0,0,100,0,72,216,72,72,0,-137,-91,0,0,80,0,624,584,72,72,0,-36,-97,2,0,100,0,576,120,32,24,0,-63,-118,0,0,100,0,992,0,88,80,0,-23,-125,0,0,100,0,360,216,72,72,0,-39,-110,0,0,100,0,648,128,40,40,0,-71,-114,0,0,100,0,1040,192,64,64,0,-54,-111,0,0,100,0,480,360,80,80,0,-112,-140,0,0,100,0,1296,200,136,80,0,-74,-112,0,0,100,0,480,440,80,80,0,-45,-11,0,0,65,0,1552,0,48,24,0,
0,23,-61,-163,0,0,100,0,0,584,80,72,0,-114,-175,0,0,100,0,0,584,80,72,0,-100,-177,0,0,100,0,1112,384,48,56,0,-36,-135,0,0,100,0,1160,384,48,56,0,-110,-124,0,0,100,0,1040,384,72,72,0,-77,-134,0,0,100,0,1040,384,72,72,0,-120,-158,0,0,100,0,1040,384,72,72,0,-77,-183,0,0,100,0,1040,384,72,72,0,-66,-151,0,0,100,0,1040,456,72,64,0,-99,-145,0,0,100,0,1040,456,72,64,0,-104,-70,0,0,100,0,1040,456,72,64,0,-146,-62,0,0,100,0,1040,456,72,64,0,-46,-129,0,0,100,-180,1040,256,64,64,0,-9,-106,0,0,100,270,576,120,32,24,0,-56,-129,0,0,100,0,1080,0,88,80,0,-65,-202,0,0,100,0,144,216,72,72,0,-92,-202,0,0,80,0,536,584,96,72,0,-37,-92,0,0,100,270,360,216,72,72,0,-28,-177,0,0,100,0,1480,0,72,128,0,-62,-125,0,0,100,0,560,360,80,80,0,-46,-143,0,0,100,270,1040,192,64,64,0,-54,-145,0,0,100,0,560,440,80,80,0,-37,-11,0,0,65,0,1552,0,48,24,0,
0,24,-103,-142,0,0,100,0,0,584,80,72,0,-59,-166,0,0,100,0,80,584,80,72,0,-112,-178,0,0,100,0,80,584,80,72,0,-107,-174,0,0,100,0,1112,384,48,56,0,-38,-127,0,0,100,0,1160,384,48,56,0,-121,-98,0,0,100,0,1040,384,72,72,0,-82,-116,0,0,100,0,1040,384,72,72,0,-128,-144,0,0,100,0,1040,384,72,72,0,-84,-175,0,0,100,0,1040,384,72,72,0,-71,-142,0,0,100,0,1040,456,72,64,0,-109,-128,0,0,100,0,1040,456,72,64,0,-108,-59,0,0,100,0,1040,456,72,64,0,-151,-56,0,0,100,0,1040,456,72,64,0,-41,-128,0,0,100,-180,1040,256,64,64,0,-4,-105,0,0,100,270,576,120,32,24,0,-51,-128,0,0,100,0,1080,0,88,80,0,-60,-201,0,0,100,0,144,216,72,72,0,-87,-201,0,0,50,0,536,584,96,72,0,-32,-91,0,0,100,270,360,216,72,72,0,-23,-176,0,0,100,0,1480,0,72,128,0,-57,-124,0,0,100,0,560,360,80,80,0,-41,-142,0,0,100,270,1040,192,64,64,0,-49,-144,0,0,100,0,560,440,80,80,0,-33,-11,0,0,65,0,1552,0,48,24,0,
0,26,-145,-106,0,0,100,0,0,584,80,72,0,-101,-145,0,0,100,0,80,584,80,72,0,-57,-169,0,0,70,0,160,584,80,72,0,-110,-181,0,0,70,0,160,584,80,72,0,-150,-41,1,0,100,0,392,584,72,56,0,-104,-39,0,0,100,0,320,584,72,56,0,-107,-48,0,0,100,0,1176,440,64,64,0,-154,-52,0,0,100,0,1112,440,64,64,0,-121,-165,0,0,100,0,1112,384,48,56,0,-42,-108,0,0,100,0,1160,384,48,56,0,-130,-78,0,0,100,0,1040,384,72,72,0,-89,-96,0,0,100,0,1040,384,72,72,0,-151,-125,0,0,100,0,1040,384,72,72,0,-103,-153,0,0,100,0,1040,384,72,72,0,-79,-121,0,0,100,0,1040,456,72,64,0,-120,-110,0,0,100,0,1040,456,72,64,0,-5,-155,0,0,100,0,216,216,72,72,0,-50,-120,0,0,100,0,1432,200,136,80,0,-33,-66,0,0,100,90,576,120,32,24,0,-51,-97,0,0,100,0,1168,0,88,80,0,-49,-125,0,0,100,0,216,288,72,72,0,-41,-119,0,0,100,0,640,360,80,80,0,-54,-112,0,0,100,0,720,360,80,80,0,-116,-15,0,0,100,0,1208,384,88,40,0,-155,-17,0,0,100,0,1208,384,88,40,0,-28,-11,0,0,65,0,1552,0,48,24,0,
0,34,-80,-113,0,0,100,0,0,584,80,72,0,-142,-109,0,0,100,0,80,584,80,72,0,-98,-148,0,0,70,0,160,584,80,72,0,-54,-172,0,0,40,0,240,584,80,72,0,-107,-184,0,0,40,0,240,584,80,72,0,-150,-41,1,0,100,0,464,584,72,56,0,-104,-39,0,0,100,0,392,584,72,56,0,-156,-59,1,0,100,0,1240,432,64,72,0,-103,-55,0,0,100,0,1240,432,64,72,0,-166,-55,0,0,100,0,1112,440,64,64,0,-134,-60,0,0,100,0,1176,440,64,64,0,-129,-153,0,0,100,0,1112,384,48,56,0,-45,-91,0,0,100,0,1160,384,48,56,0,-115,-124,0,0,100,0,1040,384,72,72,0,-83,-100,0,0,100,0,1040,456,72,64,0,-19,-39,0,0,100,0,216,168,24,24,0,-21,-45,0,0,100,0,576,120,32,24,0,-25,-49,0,0,100,0,688,128,40,40,0,-51,-53,0,0,100,0,1104,128,64,64,0,-19,-56,0,0,100,0,688,0,40,40,0,-13,-49,0,0,100,0,728,128,40,40,0,-10,-56,1,0,100,0,1104,128,64,64,0,-24,-48,0,0,100,0,800,40,48,40,0,-29,-39,0,0,100,0,832,80,56,48,0,-59,-86,1,0,100,0,640,360,80,80,0,-41,-88,0,0,100,0,800,360,80,80,0,-14,-44,0,0,100,0,240,168,48,48,0,-4,-46,0,0,100,0,360,288,72,72,0,73,-99,0,0,100,0,288,216,72,72,0,1,-57,0,0,100,0,1296,280,136,72,0,-116,-15,0,0,100,0,1208,384,88,40,0,-155,-17,0,0,100,0,1208,384,88,40,0,-140,-23,0,0,100,0,1208,384,88,40,0,-24,-11,0,0,65,0,1552,0,48,24,0,
0,37,-128,-84,0,0,100,0,0,584,80,72,0,-77,-116,0,0,100,0,80,584,80,72,0,-139,-112,0,0,70,0,160,584,80,72,0,-95,-151,0,0,40,0,240,584,80,72,0,-150,-41,1,0,100,0,320,584,72,56,0,-104,-39,0,0,100,0,464,584,72,56,0,-156,-59,1,0,100,0,1304,432,64,72,0,-103,-55,0,0,100,0,1304,432,64,72,0,-77,-63,0,0,100,0,1240,432,64,72,0,-178,-62,1,0,100,0,1240,432,64,72,0,-125,-62,0,0,100,0,1240,432,64,72,0,-100,-60,0,0,100,0,1112,440,64,64,0,-144,-60,0,0,100,0,1176,440,64,64,0,-168,-47,1,0,100,0,320,584,72,56,0,-89,-43,0,0,100,0,464,584,72,56,0,-18,-36,0,0,100,0,216,168,24,24,0,-21,-42,0,0,100,0,576,120,32,24,0,-25,-46,0,0,100,0,688,128,40,40,0,-46,-43,1,0,100,0,1168,256,64,64,0,-19,-53,0,0,100,0,688,0,40,40,0,-13,-46,0,0,100,0,728,128,40,40,0,-14,-45,0,0,100,0,1168,256,64,64,0,-24,-45,0,0,100,0,800,40,48,40,0,-29,-39,0,0,100,0,888,80,56,48,0,-63,-55,0,0,100,0,320,360,80,80,0,-13,-43,0,0,100,0,240,168,48,48,0,-3,-45,0,0,100,0,360,288,72,72,0,89,-51,0,0,100,0,288,288,72,72,0,-3,-46,0,0,100,0,1432,280,136,72,0,-25,-57,0,0,100,0,400,360,80,80,0,-37,-50,0,0,100,0,240,440,80,80,0,-116,-15,0,0,100,0,1208,384,88,40,0,-155,-17,0,0,100,0,1208,384,88,40,0,-140,-23,0,0,100,0,1208,384,88,40,0,-166,-20,1,0,100,0,1208,384,88,40,0,-115,-19,1,0,100,0,1208,384,88,40,0,-24,-11,0,0,65,0,1552,0,48,24,0,
0,35,-125,-87,0,0,100,0,80,584,80,72,0,-74,-119,0,0,70,0,160,584,80,72,0,-136,-115,0,0,40,0,240,584,80,72,0,-150,-41,1,0,100,0,392,584,72,56,0,-104,-39,0,0,100,0,320,584,72,56,0,-156,-59,1,0,100,0,1368,432,64,72,0,-107,-48,0,0,100,0,1368,432,64,72,0,-77,-63,0,0,100,0,1304,432,64,72,0,-178,-62,1,0,100,0,1304,432,64,72,0,-125,-62,0,0,100,0,1304,432,64,72,0,-144,-65,1,0,100,0,1240,432,64,72,0,-168,-47,1,0,100,0,392,584,72,56,0,-89,-43,0,0,100,0,320,584,72,56,0,-18,-37,0,0,100,0,216,168,24,24,0,-21,-43,0,0,100,0,576,120,32,24,0,-25,-47,0,0,100,0,688,128,40,40,0,-46,-44,1,0,100,0,1168,256,64,64,0,-19,-54,0,0,100,0,688,0,40,40,0,-13,-47,0,0,100,0,728,128,40,40,0,-14,-46,0,0,100,0,1168,256,64,64,0,-24,-46,0,0,100,0,800,40,48,40,0,-29,-39,0,0,100,0,888,80,56,48,0,-62,-55,0,0,100,0,880,360,80,80,0,-13,-43,0,0,100,0,240,168,48,48,0,-3,-46,0,0,100,0,360,288,72,72,0,89,-50,0,0,100,0,288,288,72,72,0,-3,-45,0,0,100,0,1432,280,136,72,0,-25,-57,0,0,100,0,960,360,80,80,0,-41,-55,0,0,100,0,640,440,80,80,0,-116,-15,0,0,100,0,1208,384,88,40,0,-155,-17,0,0,100,0,1208,384,88,40,0,-140,-23,0,0,100,0,1208,384,88,40,0,-166,-20,1,0,100,0,1208,384,88,40,0,-115,-19,1,0,100,0,1208,384,88,40,0,-24,-11,0,0,65,0,1552,0,48,24,0,
0,34,-122,-90,0,0,70,0,160,584,80,72,0,-71,-122,0,0,40,0,240,584,80,72,0,-150,-41,1,0,100,0,464,584,72,56,0,-104,-39,0,0,100,0,392,584,72,56,0,-77,-63,0,0,100,0,1368,432,64,72,0,-178,-62,1,0,100,0,1368,432,64,72,0,-125,-62,0,0,100,0,1368,432,64,72,0,-144,-65,1,0,100,0,1304,432,64,72,0,-97,-64,0,0,100,0,1240,432,64,72,0,-168,-47,1,0,100,0,464,584,72,56,0,-89,-43,0,0,100,0,392,584,72,56,0,-20,-71,0,0,40,0,1152,520,72,56,0,-20,-37,0,0,100,0,216,168,24,24,0,-23,-43,0,0,100,0,576,120,32,24,0,-25,-47,0,0,100,0,688,128,40,40,0,-46,-44,1,0,100,0,1168,256,64,64,0,-19,-54,0,0,100,0,688,0,40,40,0,-13,-47,0,0,100,0,728,128,40,40,0,-14,-46,0,0,100,0,1168,256,64,64,0,-24,-46,0,0,100,0,800,40,48,40,0,-29,-39,0,0,100,0,888,80,56,48,0,-62,-55,0,0,100,0,880,360,80,80,0,-13,-43,0,0,100,0,240,168,48,48,0,-3,-46,0,0,100,0,360,288,72,72,0,89,-50,0,0,100,0,288,288,72,72,0,-3,-45,0,0,100,0,1432,280,136,72,0,-25,-57,0,0,100,0,960,360,80,80,0,-41,-55,0,0,100,0,640,440,80,80,0,-116,-15,0,0,100,0,1208,384,88,40,0,-155,-17,0,0,100,0,1208,384,88,40,0,-140,-23,0,0,100,0,1208,384,88,40,0,-166,-20,1,0,100,0,1208,384,88,40,0,-115,-19,1,0,100,0,1208,384,88,40,0,-24,-11,0,0,65,0,1552,0,48,24,0,
0,30,-119,-93,0,0,40,0,240,584,80,72,0,-150,-41,1,0,100,0,320,584,72,56,0,-104,-39,0,0,100,0,464,584,72,56,0,-144,-65,1,0,100,0,1368,432,64,72,0,-97,-64,0,0,100,0,1304,432,64,72,0,-168,-47,1,0,100,0,320,584,72,56,0,-89,-43,0,0,100,0,464,584,72,56,0,-33,-72,0,0,70,0,864,520,72,56,0,-25,-47,0,0,100,0,688,128,40,40,0,-46,-44,1,0,100,0,1168,256,64,64,0,-19,-54,0,0,100,0,688,0,40,40,0,-36,-45,0,0,100,0,576,120,32,24,0,-38,-52,0,0,100,0,240,120,48,48,0,-13,-47,0,0,100,0,728,128,40,40,0,-14,-46,0,0,100,0,1168,256,64,64,0,-24,-46,0,0,100,0,800,40,48,40,0,-29,-39,0,0,100,0,888,80,56,48,0,-62,-55,0,0,100,0,880,360,80,80,0,-13,-43,0,0,100,0,240,168,48,48,0,-3,-46,0,0,100,0,360,288,72,72,0,89,-50,0,0,100,0,288,288,72,72,0,-3,-45,0,0,100,0,1432,280,136,72,0,-25,-57,0,0,100,0,960,360,80,80,0,-41,-55,0,0,100,0,640,440,80,80,0,-116,-15,0,0,100,0,1208,384,88,40,0,-155,-17,0,0,100,0,1208,384,88,40,0,-140,-23,0,0,100,0,1208,384,88,40,0,-166,-20,1,0,100,0,1208,384,88,40,0,-115,-19,1,0,100,0,1208,384,88,40,0,-24,-11,0,0,65,0,1552,0,48,24,0,
0,28,-150,-41,1,0,100,0,392,584,72,56,0,-104,-39,0,0,100,0,320,584,72,56,0,-97,-64,0,0,100,0,1368,432,64,72,0,-168,-47,1,0,100,0,392,584,72,56,0,-89,-43,0,0,100,0,320,584,72,56,0,-33,-72,0,0,70,0,936,520,72,56,0,-25,-47,0,0,100,0,688,128,40,40,0,-46,-44,1,0,100,0,1168,256,64,64,0,-19,-54,0,0,100,0,688,0,40,40,0,-36,-45,0,0,100,0,576,120,32,24,0,-38,-52,0,0,100,0,240,120,48,48,0,-13,-47,0,0,100,0,728,128,40,40,0,-14,-46,0,0,100,0,1168,256,64,64,0,-24,-46,0,0,100,0,800,40,48,40,0,-29,-39,0,0,100,0,888,80,56,48,0,-62,-55,0,0,100,0,880,360,80,80,0,-13,-43,0,0,100,0,240,168,48,48,0,-3,-46,0,0,100,0,360,288,72,72,0,89,-50,0,0,100,0,288,288,72,72,0,-3,-45,0,0,100,0,1432,280,136,72,0,-25,-57,0,0,100,0,960,360,80,80,0,-41,-55,0,0,100,0,640,440,80,80,0,-116,-15,0,0,100,0,1208,384,88,40,0,-155,-17,0,0,100,0,1208,384,88,40,0,-140,-23,0,0,100,0,1208,384,88,40,0,-166,-20,1,0,100,0,1208,384,88,40,0,-115,-19,1,0,100,0,1208,384,88,40,0,-24,-11,0,0,65,0,1552,0,48,24,0,
0,27,-150,-41,1,0,100,0,464,584,72,56,0,-104,-39,0,0,100,0,392,584,72,56,0,-168,-47,1,0,100,0,464,584,72,56,0,-89,-43,0,0,100,0,392,584,72,56,0,-33,-72,0,0,70,0,1008,520,72,56,0,-25,-47,0,0,100,0,688,128,40,40,0,-46,-44,1,0,100,0,1168,256,64,64,0,-19,-54,0,0,100,0,688,0,40,40,0,-36,-45,0,0,100,0,576,120,32,24,0,-38,-52,0,0,100,0,240,120,48,48,0,-13,-47,0,0,100,0,728,128,40,40,0,-14,-46,0,0,100,0,1168,256,64,64,0,-24,-46,0,0,100,0,800,40,48,40,0,-29,-39,0,0,100,0,888,80,56,48,0,-62,-55,0,0,100,0,880,360,80,80,0,-13,-43,0,0,100,0,240,168,48,48,0,-3,-46,0,0,100,0,360,288,72,72,0,89,-50,0,0,100,0,288,288,72,72,0,-3,-45,0,0,100,0,1432,280,136,72,0,-25,-57,0,0,100,0,960,360,80,80,0,-41,-55,0,0,100,0,640,440,80,80,0,-116,-15,0,0,100,0,1208,384,88,40,0,-155,-17,0,0,100,0,1208,384,88,40,0,-140,-23,0,0,100,0,1208,384,88,40,0,-166,-20,1,0,100,0,1208,384,88,40,0,-115,-19,1,0,100,0,1208,384,88,40,0,-24,-11,0,0,65,0,1552,0,48,24,0,
0,27,-150,-41,1,0,100,0,320,584,72,56,0,-104,-39,0,0,100,0,464,584,72,56,0,-168,-47,1,0,100,0,320,584,72,56,0,-89,-43,0,0,100,0,464,584,72,56,0,-33,-72,0,0,70,0,1080,520,72,56,0,-25,-47,0,0,100,0,688,128,40,40,0,-46,-44,1,0,100,0,1168,256,64,64,0,-19,-54,0,0,100,0,688,0,40,40,0,-36,-45,0,0,100,0,576,120,32,24,0,-38,-52,0,0,100,0,240,120,48,48,0,-13,-47,0,0,100,0,728,128,40,40,0,-14,-46,0,0,100,0,1168,256,64,64,0,-24,-46,0,0,100,0,800,40,48,40,0,-29,-39,0,0,100,0,888,80,56,48,0,-62,-55,0,0,100,0,880,360,80,80,0,-13,-43,0,0,100,0,240,168,48,48,0,-3,-46,0,0,100,0,360,288,72,72,0,89,-50,0,0,100,0,288,288,72,72,0,-3,-45,0,0,100,0,1432,280,136,72,0,-25,-57,0,0,100,0,960,360,80,80,0,-41,-55,0,0,100,0,640,440,80,80,0,-116,-15,0,0,100,0,1208,384,88,40,0,-155,-17,0,0,100,0,1208,384,88,40,0,-140,-23,0,0,100,0,1208,384,88,40,0,-166,-20,1,0,100,0,1208,384,88,40,0,-115,-19,1,0,100,0,1208,384,88,40,0,-24,-11,0,0,65,0,1552,0,48,24,0,
0,27,-150,-41,1,0,100,0,392,584,72,56,0,-104,-39,0,0,100,0,320,584,72,56,0,-168,-47,1,0,100,0,392,584,72,56,0,-89,-43,0,0,100,0,320,584,72,56,0,-33,-72,0,0,70,0,1152,520,72,56,0,-25,-47,0,0,100,0,688,128,40,40,0,-46,-44,1,0,100,0,1168,256,64,64,0,-19,-54,0,0,100,0,688,0,40,40,0,-36,-45,0,0,100,0,576,120,32,24,0,-38,-52,0,0,100,0,240,120,48,48,0,-13,-47,0,0,100,0,728,128,40,40,0,-14,-46,0,0,100,0,1168,256,64,64,0,-24,-46,0,0,100,0,800,40,48,40,0,-29,-39,0,0,100,0,888,80,56,48,0,-62,-55,0,0,100,0,880,360,80,80,0,-13,-43,0,0,100,0,240,168,48,48,0,-3,-46,0,0,100,0,360,288,72,72,0,89,-50,0,0,100,0,288,288,72,72,0,-3,-45,0,0,100,0,1432,280,136,72,0,-25,-57,0,0,100,0,960,360,80,80,0,-41,-55,0,0,100,0,640,440,80,80,0,-116,-15,0,0,100,0,1208,384,88,40,0,-155,-17,0,0,100,0,1208,384,88,40,0,-140,-23,0,0,100,0,1208,384,88,40,0,-166,-20,1,0,100,0,1208,384,88,40,0,-115,-19,1,0,100,0,1208,384,88,40,0,-24,-11,0,0,65,0,1552,0,48,24,0,
0,28,-150,-41,1,0,100,0,464,584,72,56,0,-104,-39,0,0,100,0,392,584,72,56,0,-168,-47,1,0,100,0,464,584,72,56,0,-89,-43,0,0,100,0,392,584,72,56,0,-52,-89,0,0,70,0,864,520,72,56,0,-56,-56,2,0,100,0,576,120,32,24,0,-35,-48,0,0,100,0,1528,424,24,24,0,-25,-47,0,0,100,0,688,128,40,40,0,-46,-44,1,0,100,0,1168,256,64,64,0,-19,-54,0,0,100,0,688,0,40,40,0,-38,-52,0,0,100,0,288,120,48,48,0,-13,-47,0,0,100,0,728,128,40,40,0,-14,-46,0,0,100,0,1168,256,64,64,0,-24,-46,0,0,100,0,800,40,48,40,0,-29,-39,0,0,100,0,888,80,56,48,0,-62,-55,0,0,100,0,880,360,80,80,0,-13,-43,0,0,100,0,240,168,48,48,0,-3,-46,0,0,100,0,360,288,72,72,0,89,-50,0,0,100,0,288,288,72,72,0,-3,-45,0,0,100,0,1432,280,136,72,0,-25,-57,0,0,100,0,960,360,80,80,0,-41,-55,0,0,100,0,640,440,80,80,0,-116,-15,0,0,100,0,1208,384,88,40,0,-155,-17,0,0,100,0,1208,384,88,40,0,-140,-23,0,0,100,0,1208,384,88,40,0,-166,-20,1,0,100,0,1208,384,88,40,0,-115,-19,1,0,100,0,1208,384,88,40,0,-24,-11,0,0,65,0,1552,0,48,24,0,
0,28,-150,-41,1,0,100,0,320,584,72,56,0,-104,-39,0,0,100,0,464,584,72,56,0,-168,-47,1,0,100,0,320,584,72,56,0,-89,-43,0,0,100,0,464,584,72,56,0,-64,-88,0,0,50,0,936,520,72,56,0,-66,-57,2,0,100,0,576,120,32,24,0,-36,-49,0,0,50,0,1528,424,24,24,0,-25,-47,0,0,100,0,688,128,40,40,0,-46,-44,1,0,100,0,1168,256,64,64,0,-19,-54,0,0,100,0,688,0,40,40,0,-38,-52,0,0,100,0,288,120,48,48,0,-13,-47,0,0,100,0,728,128,40,40,0,-14,-46,0,0,100,0,1168,256,64,64,0,-24,-46,0,0,100,0,800,40,48,40,0,-29,-39,0,0,100,0,888,80,56,48,0,-62,-55,0,0,100,0,880,360,80,80,0,-13,-43,0,0,100,0,240,168,48,48,0,-3,-46,0,0,100,0,360,288,72,72,0,89,-50,0,0,100,0,288,288,72,72,0,-3,-45,0,0,100,0,1432,280,136,72,0,-25,-57,0,0,100,0,960,360,80,80,0,-41,-55,0,0,100,0,640,440,80,80,0,-116,-15,0,0,100,0,1208,384,88,40,0,-155,-17,0,0,100,0,1208,384,88,40,0,-140,-23,0,0,100,0,1208,384,88,40,0,-166,-20,1,0,100,0,1208,384,88,40,0,-115,-19,1,0,100,0,1208,384,88,40,0,-24,-11,0,0,65,0,1552,0,48,24,0,
0,27,-150,-41,1,0,100,0,392,584,72,56,0,-104,-39,0,0,100,0,320,584,72,56,0,-168,-47,1,0,100,0,392,584,72,56,0,-89,-43,0,0,100,0,320,584,72,56,0,-84,-77,0,0,40,0,1008,520,72,56,0,-87,-45,2,0,100,0,576,120,32,24,0,-25,-47,0,0,100,0,688,128,40,40,0,-46,-44,1,0,100,0,1168,256,64,64,0,-19,-54,0,0,100,0,688,0,40,40,0,-38,-52,0,0,100,0,288,120,48,48,0,-13,-47,0,0,100,0,728,128,40,40,0,-14,-46,0,0,100,0,1168,256,64,64,0,-24,-46,0,0,100,0,800,40,48,40,0,-29,-39,0,0,100,0,888,80,56,48,0,-62,-55,0,0,100,0,880,360,80,80,0,-13,-43,0,0,100,0,240,168,48,48,0,-3,-46,0,0,100,0,360,288,72,72,0,89,-50,0,0,100,0,288,288,72,72,0,-3,-45,0,0,100,0,1432,280,136,72,0,-25,-57,0,0,100,0,960,360,80,80,0,-41,-55,0,0,100,0,640,440,80,80,0,-116,-15,0,0,100,0,1208,384,88,40,0,-155,-17,0,0,100,0,1208,384,88,40,0,-140,-23,0,0,100,0,1208,384,88,40,0,-166,-20,1,0,100,0,1208,384,88,40,0,-115,-19,1,0,100,0,1208,384,88,40,0,-24,-11,0,0,65,0,1552,0,48,24,0,
0,27,-150,-41,1,0,100,0,464,584,72,56,0,-104,-39,0,0,100,0,392,584,72,56,0,-168,-47,1,0,100,0,464,584,72,56,0,-89,-43,0,0,100,0,392,584,72,56,0,-103,-59,0,0,30,0,1080,520,72,56,0,-105,-28,2,0,100,0,576,120,32,24,0,-25,-47,0,0,100,0,688,128,40,40,0,-46,-44,1,0,100,0,1168,256,64,64,0,-19,-54,0,0,100,0,688,0,40,40,0,-38,-52,0,0,100,0,288,120,48,48,0,-13,-47,0,0,100,0,728,128,40,40,0,-14,-46,0,0,100,0,1168,256,64,64,0,-24,-46,0,0,100,0,800,40,48,40,0,-29,-39,0,0,100,0,888,80,56,48,0,-62,-55,0,0,100,0,880,360,80,80,0,-13,-43,0,0,100,0,240,168,48,48,0,-3,-46,0,0,100,0,360,288,72,72,0,89,-50,0,0,100,0,288,288,72,72,0,-3,-45,0,0,100,0,1432,280,136,72,0,-25,-57,0,0,100,0,960,360,80,80,0,-41,-55,0,0,100,0,640,440,80,80,0,-116,-15,0,0,100,0,1208,384,88,40,0,-155,-17,0,0,100,0,1208,384,88,40,0,-140,-23,0,0,100,0,1208,384,88,40,0,-166,-20,1,0,100,0,1208,384,88,40,0,-115,-19,1,0,100,0,1208,384,88,40,0,-24,-11,0,0,65,0,1552,0,48,24,0,
0,26,-150,-41,1,0,100,0,320,584,72,56,0,-104,-39,0,0,100,0,464,584,72,56,0,-168,-47,1,0,100,0,320,584,72,56,0,-89,-43,0,0,100,0,464,584,72,56,0,-156,-187,0,1,100,0,632,840,120,216,0,-25,-47,0,0,100,0,688,128,40,40,0,-46,-44,1,0,100,0,1168,256,64,64,0,-19,-54,0,0,100,0,688,0,40,40,0,-38,-52,0,0,100,0,288,120,48,48,0,-13,-47,0,0,100,0,728,128,40,40,0,-14,-46,0,0,100,0,1168,256,64,64,0,-24,-46,0,0,100,0,800,40,48,40,0,-29,-39,0,0,100,0,888,80,56,48,0,-62,-55,0,0,100,0,880,360,80,80,0,-13,-43,0,0,100,0,240,168,48,48,0,-3,-46,0,0,100,0,360,288,72,72,0,89,-50,0,0,100,0,288,288,72,72,0,-3,-45,0,0,100,0,1432,280,136,72,0,-25,-57,0,0,100,0,960,360,80,80,0,-41,-55,0,0,100,0,640,440,80,80,0,-116,-15,0,0,100,0,1208,384,88,40,0,-155,-17,0,0,100,0,1208,384,88,40,0,-140,-23,0,0,100,0,1208,384,88,40,0,-166,-20,1,0,100,0,1208,384,88,40,0,-115,-19,1,0,100,0,1208,384,88,40,0,-24,-11,0,0,65,0,1552,0,48,24,0,
0,25,-89,-43,0,0,100,0,320,584,72,56,0,-175,-267,0,1,100,0,384,840,160,304,0,-167,-166,0,0,100,0,0,656,144,184,0,-181,-192,0,1,100,0,632,840,120,216,0,-25,-47,0,0,100,0,688,128,40,40,0,-46,-44,1,0,100,0,1168,256,64,64,0,-19,-54,0,0,100,0,688,0,40,40,0,-38,-52,0,0,100,0,288,120,48,48,0,-13,-47,0,0,100,0,728,128,40,40,0,-14,-46,0,0,100,0,1168,256,64,64,0,-24,-46,0,0,100,0,800,40,48,40,0,-29,-39,0,0,100,0,888,80,56,48,0,-62,-55,0,0,100,0,880,360,80,80,0,-13,-43,0,0,100,0,240,168,48,48,0,-3,-46,0,0,100,0,360,288,72,72,0,89,-50,0,0,100,0,288,288,72,72,0,-3,-45,0,0,100,0,1432,280,136,72,0,-25,-57,0,0,100,0,960,360,80,80,0,-41,-55,0,0,100,0,640,440,80,80,0,-116,-15,0,0,100,0,1208,384,88,40,0,-155,-17,0,0,100,0,1208,384,88,40,0,-140,-23,0,0,100,0,1208,384,88,40,0,-166,-20,1,0,100,0,1208,384,88,40,0,-115,-19,1,0,100,0,1208,384,88,40,0,-24,-11,0,0,65,0,1552,0,48,24,0,
0,28,-192,-161,0,0,70,0,192,1000,192,160,0,-143,-267,0,1,100,0,544,840,88,304,0,-167,-166,0,0,100,0,144,656,144,184,0,-200,-272,0,1,100,0,384,840,160,304,0,-192,-169,0,0,100,0,0,656,144,184,0,-89,-43,0,0,100,0,392,584,72,56,0,-125,-192,0,1,100,0,632,840,120,216,0,-25,-47,0,0,100,0,688,128,40,40,0,-46,-44,1,0,100,0,1168,256,64,64,0,-19,-54,0,0,100,0,688,0,40,40,0,-38,-52,0,0,100,0,288,120,48,48,0,-13,-47,0,0,100,0,728,128,40,40,0,-14,-46,0,0,100,0,1168,256,64,64,0,-24,-46,0,0,100,0,800,40,48,40,0,-29,-39,0,0,100,0,888,80,56,48,0,-62,-55,0,0,100,0,880,360,80,80,0,-13,-43,0,0,100,0,240,168,48,48,0,-3,-46,0,0,100,0,360,288,72,72,0,89,-50,0,0,100,0,288,288,72,72,0,-3,-45,0,0,100,0,1432,280,136,72,0,-25,-57,0,0,100,0,960,360,80,80,0,-41,-55,0,0,100,0,640,440,80,80,0,-116,-15,0,0,100,0,1208,384,88,40,0,-155,-17,0,0,100,0,1208,384,88,40,0,-140,-23,0,0,100,0,1208,384,88,40,0,-166,-20,1,0,100,0,1208,384,88,40,0,-115,-19,1,0,100,0,1208,384,88,40,0,-24,-11,0,0,65,0,1552,0,48,24,0,
0,29,-192,-168,0,0,100,0,192,1000,192,160,0,-167,-166,0,0,100,0,288,656,144,184,0,-237,-183,1,0,70,0,192,1000,192,160,0,-168,-272,0,1,100,0,544,840,88,304,0,-192,-169,0,0,100,0,144,656,144,184,0,-118,-209,0,0,70,0,0,840,128,160,0,-149,-272,0,1,100,0,384,840,160,304,0,-141,-168,0,0,100,0,0,656,144,184,0,-25,-47,0,0,100,0,688,128,40,40,0,-46,-44,1,0,100,0,1168,256,64,64,0,-19,-54,0,0,100,0,688,0,40,40,0,-38,-52,0,0,100,0,288,120,48,48,0,-13,-47,0,0,100,0,728,128,40,40,0,-14,-46,0,0,100,0,1168,256,64,64,0,-24,-46,0,0,100,0,800,40,48,40,0,-29,-39,0,0,100,0,888,80,56,48,0,-62,-55,0,0,100,0,880,360,80,80,0,-13,-43,0,0,100,0,240,168,48,48,0,-3,-46,0,0,100,0,360,288,72,72,0,89,-50,0,0,100,0,288,288,72,72,0,-3,-45,0,0,100,0,1432,280,136,72,0,-25,-57,0,0,100,0,960,360,80,80,0,-41,-55,0,0,100,0,640,440,80,80,0,-116,-15,0,0,100,0,1208,384,88,40,0,-155,-17,0,0,100,0,1208,384,88,40,0,-140,-23,0,0,100,0,1208,384,88,40,0,-166,-20,1,0,100,0,1208,384,88,40,0,-115,-19,1,0,100,0,1208,384,88,40,0,-24,-11,0,0,65,0,1552,0,48,24,0,
0,29,-192,-174,0,0,100,0,192,1000,192,160,0,-167,-166,0,0,100,0,0,656,144,184,0,-237,-190,1,0,100,0,192,1000,192,160,0,-192,-169,0,0,100,0,288,656,144,184,0,-118,-215,0,0,100,0,0,840,128,160,0,-138,-202,1,0,70,90,192,1000,192,160,0,-117,-272,0,1,100,0,544,840,88,304,0,-141,-168,0,0,100,0,144,656,144,184,0,-25,-47,0,0,100,0,688,128,40,40,0,-46,-44,1,0,100,0,1168,256,64,64,0,-19,-54,0,0,100,0,688,0,40,40,0,-38,-52,0,0,100,0,288,120,48,48,0,-13,-47,0,0,100,0,728,128,40,40,0,-14,-46,0,0,100,0,1168,256,64,64,0,-24,-46,0,0,100,0,800,40,48,40,0,-29,-39,0,0,100,0,888,80,56,48,0,-62,-55,0,0,100,0,880,360,80,80,0,-13,-43,0,0,100,0,240,168,48,48,0,-3,-46,0,0,100,0,360,288,72,72,0,89,-50,0,0,100,0,288,288,72,72,0,-3,-45,0,0,100,0,1432,280,136,72,0,-25,-57,0,0,100,0,960,360,80,80,0,-41,-55,0,0,100,0,640,440,80,80,0,-116,-15,0,0,100,0,1208,384,88,40,0,-155,-17,0,0,100,0,1208,384,88,40,0,-140,-23,0,0,100,0,1208,384,88,40,0,-166,-20,1,0,100,0,1208,384,88,40,0,-115,-19,1,0,100,0,1208,384,88,40,0,-24,-11,0,0,65,0,1552,0,48,24,0,
0,30,-192,-178,0,0,70,0,192,1000,192,160,0,-167,-166,0,0,100,0,144,656,144,184,0,-237,-195,1,0,100,0,192,1000,192,160,0,-192,-169,0,0,100,0,0,656,144,184,0,-220,-190,1,0,70,0,0,840,128,160,0,-118,-220,0,0,100,0,0,840,128,160,0,-138,-208,1,0,100,90,192,1000,192,160,0,-141,-168,0,0,100,0,288,656,144,184,0,-181,-195,0,0,70,90,0,1000,192,120,0,-25,-47,0,0,100,0,688,128,40,40,0,-46,-44,1,0,100,0,1168,256,64,64,0,-19,-54,0,0,100,0,688,0,40,40,0,-38,-52,0,0,100,0,288,120,48,48,0,-13,-47,0,0,100,0,728,128,40,40,0,-14,-46,0,0,100,0,1168,256,64,64,0,-24,-46,0,0,100,0,800,40,48,40,0,-29,-39,0,0,100,0,888,80,56,48,0,-62,-55,0,0,100,0,880,360,80,80,0,-13,-43,0,0,100,0,240,168,48,48,0,-3,-46,0,0,100,0,360,288,72,72,0,89,-50,0,0,100,0,288,288,72,72,0,-3,-45,0,0,100,0,1432,280,136,72,0,-25,-57,0,0,100,0,960,360,80,80,0,-41,-55,0,0,100,0,640,440,80,80,0,-116,-15,0,0,100,0,1208,384,88,40,0,-155,-17,0,0,100,0,1208,384,88,40,0,-140,-23,0,0,100,0,1208,384,88,40,0,-166,-20,1,0,100,0,1208,384,88,40,0,-115,-19,1,0,100,0,1208,384,88,40,0,-24,-11,0,0,65,0,1552,0,48,24,0,
0,30,-192,-181,0,0,40,0,192,1000,192,160,0,-167,-166,0,0,100,0,288,656,144,184,0,-237,-198,1,0,70,0,192,1000,192,160,0,-192,-169,0,0,100,0,144,656,144,184,0,-220,-194,1,0,100,0,0,840,128,160,0,-118,-223,0,0,70,0,0,840,128,160,0,-138,-212,1,0,100,90,192,1000,192,160,0,-141,-168,0,0,100,0,0,656,144,184,0,-181,-200,0,0,100,90,0,1000,192,120,0,-25,-47,0,0,100,0,688,128,40,40,0,-46,-44,1,0,100,0,1168,256,64,64,0,-19,-54,0,0,100,0,688,0,40,40,0,-38,-52,0,0,100,0,288,120,48,48,0,-13,-47,0,0,100,0,728,128,40,40,0,-14,-46,0,0,100,0,1168,256,64,64,0,-24,-46,0,0,100,0,800,40,48,40,0,-29,-39,0,0,100,0,888,80,56,48,0,-62,-55,0,0,100,0,880,360,80,80,0,-13,-43,0,0,100,0,240,168,48,48,0,-3,-46,0,0,100,0,360,288,72,72,0,89,-50,0,0,100,0,288,288,72,72,0,-3,-45,0,0,100,0,1432,280,136,72,0,-25,-57,0,0,100,0,960,360,80,80,0,-41,-55,0,0,100,0,640,440,80,80,0,-116,-15,0,0,100,0,1208,384,88,40,0,-155,-17,0,0,100,0,1208,384,88,40,0,-140,-23,0,0,100,0,1208,384,88,40,0,-166,-20,1,0,100,0,1208,384,88,40,0,-115,-19,1,0,100,0,1208,384,88,40,0,-24,-11,0,0,65,0,1552,0,48,24,0,
0,33,-166,-181,0,0,50,0,192,1000,192,160,0,-167,-166,0,0,100,0,432,656,144,184,0,-237,-201,1,0,40,0,192,1000,192,160,0,-206,-178,0,0,70,0,128,840,128,160,0,-207,-210,1,0,70,0,192,1000,192,160,0,-192,-169,0,0,100,0,288,656,144,184,0,-220,-198,1,0,100,0,0,840,128,160,0,-118,-225,0,0,40,0,0,840,128,160,0,-138,-216,1,0,70,90,192,1000,192,160,0,-141,-168,0,0,100,0,144,656,144,184,0,-135,-230,0,0,70,0,256,840,128,160,0,-181,-204,0,0,100,90,0,1000,192,120,0,-25,-47,0,0,100,0,688,128,40,40,0,-46,-44,1,0,100,0,1168,256,64,64,0,-19,-54,0,0,100,0,688,0,40,40,0,-38,-52,0,0,100,0,288,120,48,48,0,-13,-47,0,0,100,0,728,128,40,40,0,-14,-46,0,0,100,0,1168,256,64,64,0,-24,-46,0,0,100,0,800,40,48,40,0,-29,-39,0,0,100,0,888,80,56,48,0,-62,-55,0,0,100,0,880,360,80,80,0,-13,-43,0,0,100,0,240,168,48,48,0,-3,-46,0,0,100,0,360,288,72,72,0,89,-50,0,0,100,0,288,288,72,72,0,-3,-45,0,0,100,0,1432,280,136,72,0,-25,-57,0,0,100,0,960,360,80,80,0,-41,-55,0,0,100,0,640,440,80,80,0,-116,-15,0,0,100,0,1208,384,88,40,0,-155,-17,0,0,100,0,1208,384,88,40,0,-140,-23,0,0,100,0,1208,384,88,40,0,-166,-20,1,0,100,0,1208,384,88,40,0,-115,-19,1,0,100,0,1208,384,88,40,0,-24,-11,0,0,65,0,1552,0,48,24,0,
0,31,-166,-188,0,0,70,0,192,1000,192,160,0,-167,-166,0,0,100,0,576,656,144,184,0,-207,-214,1,0,100,0,192,1000,192,160,0,-206,-183,0,0,100,0,128,840,128,160,0,-192,-169,0,0,100,0,432,656,144,184,0,-220,-201,1,0,70,0,0,840,128,160,0,-138,-219,1,0,40,90,192,1000,192,160,0,-141,-168,0,0,100,0,288,656,144,184,0,-135,-234,0,0,100,0,256,840,128,160,0,-181,-207,0,0,70,90,0,1000,192,120,0,-25,-47,0,0,100,0,688,128,40,40,0,-46,-44,1,0,100,0,1168,256,64,64,0,-19,-54,0,0,100,0,688,0,40,40,0,-38,-52,0,0,100,0,288,120,48,48,0,-13,-47,0,0,100,0,728,128,40,40,0,-14,-46,0,0,100,0,1168,256,64,64,0,-24,-46,0,0,100,0,800,40,48,40,0,-29,-39,0,0,100,0,888,80,56,48,0,-62,-55,0,0,100,0,880,360,80,80,0,-13,-43,0,0,100,0,240,168,48,48,0,-3,-46,0,0,100,0,360,288,72,72,0,89,-50,0,0,100,0,288,288,72,72,0,-3,-45,0,0,100,0,1432,280,136,72,0,-25,-57,0,0,100,0,960,360,80,80,0,-41,-55,0,0,100,0,640,440,80,80,0,-116,-15,0,0,100,0,1208,384,88,40,0,-155,-17,0,0,100,0,1208,384,88,40,0,-140,-23,0,0,100,0,1208,384,88,40,0,-166,-20,1,0,100,0,1208,384,88,40,0,-115,-19,1,0,100,0,1208,384,88,40,0,-24,-11,0,0,65,0,1552,0,48,24,0,
0,30,-166,-193,0,0,100,0,192,1000,192,160,0,-167,-166,0,0,100,0,720,656,144,184,0,-207,-217,1,0,100,0,192,1000,192,160,0,-206,-186,0,0,100,0,128,840,128,160,0,-192,-169,0,0,100,0,576,656,144,184,0,-220,-203,1,0,40,0,0,840,128,160,0,-141,-168,0,0,100,0,432,656,144,184,0,-135,-237,0,0,100,0,256,840,128,160,0,-181,-210,0,0,40,90,0,1000,192,120,0,-25,-47,0,0,100,0,688,128,40,40,0,-46,-44,1,0,100,0,1168,256,64,64,0,-19,-54,0,0,100,0,688,0,40,40,0,-38,-52,0,0,100,0,288,120,48,48,0,-13,-47,0,0,100,0,728,128,40,40,0,-14,-46,0,0,100,0,1168,256,64,64,0,-24,-46,0,0,100,0,800,40,48,40,0,-29,-39,0,0,100,0,888,80,56,48,0,-62,-55,0,0,100,0,880,360,80,80,0,-13,-43,0,0,100,0,240,168,48,48,0,-3,-46,0,0,100,0,360,288,72,72,0,89,-50,0,0,100,0,288,288,72,72,0,-3,-45,0,0,100,0,1432,280,136,72,0,-25,-57,0,0,100,0,960,360,80,80,0,-41,-55,0,0,100,0,640,440,80,80,0,-116,-15,0,0,100,0,1208,384,88,40,0,-155,-17,0,0,100,0,1208,384,88,40,0,-140,-23,0,0,100,0,1208,384,88,40,0,-166,-20,1,0,100,0,1208,384,88,40,0,-115,-19,1,0,100,0,1208,384,88,40,0,-24,-11,0,0,65,0,1552,0,48,24,0,
0,28,-166,-196,0,0,70,0,192,1000,192,160,0,-167,-166,0,0,50,0,720,656,144,184,0,-207,-219,1,0,60,0,192,1000,192,160,0,-206,-188,0,0,60,0,128,840,128,160,0,-192,-169,0,0,100,0,720,656,144,184,0,-141,-168,0,0,100,0,576,656,144,184,0,-135,-239,0,0,70,0,256,840,128,160,0,-25,-47,0,0,100,0,688,128,40,40,0,-46,-44,1,0,100,0,1168,256,64,64,0,-19,-54,0,0,100,0,688,0,40,40,0,-38,-52,0,0,100,0,288,120,48,48,0,-13,-47,0,0,100,0,728,128,40,40,0,-14,-46,0,0,100,0,1168,256,64,64,0,-24,-46,0,0,100,0,800,40,48,40,0,-29,-39,0,0,100,0,888,80,56,48,0,-62,-55,0,0,100,0,880,360,80,80,0,-13,-43,0,0,100,0,240,168,48,48,0,-3,-46,0,0,100,0,360,288,72,72,0,89,-50,0,0,100,0,288,288,72,72,0,-3,-45,0,0,100,0,1432,280,136,72,0,-25,-57,0,0,100,0,960,360,80,80,0,-41,-55,0,0,100,0,640,440,80,80,0,-116,-15,0,0,100,0,1208,384,88,40,0,-155,-17,0,0,100,0,1208,384,88,40,0,-140,-23,0,0,100,0,1208,384,88,40,0,-166,-20,1,0,100,0,1208,384,88,40,0,-115,-19,1,0,100,0,1208,384,88,40,0,-24,-11,0,0,65,0,1552,0,48,24,0,
0,27,-166,-198,0,0,30,0,192,1000,192,160,0,-192,-169,0,0,50,0,720,656,144,184,0,-207,-221,1,0,30,0,192,1000,192,160,0,-206,-190,0,0,30,0,128,840,128,160,0,-141,-168,0,0,100,0,720,656,144,184,0,-135,-240,0,0,40,0,256,840,128,160,0,-25,-47,0,0,100,0,688,128,40,40,0,-46,-44,1,0,100,0,1168,256,64,64,0,-19,-54,0,0,100,0,688,0,40,40,0,-38,-52,0,0,100,0,288,120,48,48,0,-13,-47,0,0,100,0,728,128,40,40,0,-14,-46,0,0,100,0,1168,256,64,64,0,-24,-46,0,0,100,0,800,40,48,40,0,-29,-39,0,0,100,0,888,80,56,48,0,-62,-55,0,0,100,0,880,360,80,80,0,-13,-43,0,0,100,0,240,168,48,48,0,-3,-46,0,0,100,0,360,288,72,72,0,89,-50,0,0,100,0,288,288,72,72,0,-3,-45,0,0,100,0,1432,280,136,72,0,-25,-57,0,0,100,0,960,360,80,80,0,-41,-55,0,0,100,0,640,440,80,80,0,-116,-15,0,0,60,0,1208,384,88,40,0,-155,-17,0,0,60,0,1208,384,88,40,0,-140,-23,0,0,100,0,1208,384,88,40,0,-166,-20,1,0,100,0,1208,384,88,40,0,-115,-19,1,0,100,0,1208,384,88,40,0,-24,-11,0,0,65,0,1552,0,48,24,0,
0,20,-141,-168,0,0,50,0,720,656,144,184,0,-25,-47,0,0,100,0,688,128,40,40,0,-46,-44,1,0,100,0,1168,256,64,64,0,-19,-54,0,0,100,0,688,0,40,40,0,-38,-52,0,0,100,0,288,120,48,48,0,-13,-47,0,0,100,0,728,128,40,40,0,-14,-46,0,0,100,0,1168,256,64,64,0,-24,-46,0,0,100,0,800,40,48,40,0,-29,-39,0,0,100,0,888,80,56,48,0,-62,-55,0,0,100,0,880,360,80,80,0,-13,-43,0,0,100,0,240,168,48,48,0,-3,-46,0,0,100,0,360,288,72,72,0,89,-50,0,0,100,0,288,288,72,72,0,-3,-45,0,0,100,0,1432,280,136,72,0,-25,-57,0,0,100,0,960,360,80,80,0,-41,-55,0,0,100,0,640,440,80,80,0,-140,-23,0,0,100,0,1208,384,88,40,0,-166,-20,1,0,60,0,1208,384,88,40,0,-115,-19,1,0,100,0,1208,384,88,40,0,-24,-11,0,0,65,0,1552,0,48,24,0,
0,18,-31,-47,0,0,100,0,336,120,48,48,0,-67,-73,1,0,100,0,72,288,72,72,0,28,-69,0,0,100,0,0,216,72,72,0,-63,-78,0,0,100,0,1296,352,136,72,0,-26,-47,0,0,100,0,688,128,40,40,0,-51,-47,0,0,100,0,1040,192,64,64,0,-20,-54,0,0,100,0,688,0,40,40,0,-14,-47,0,0,100,0,728,128,40,40,0,-15,-46,0,0,100,0,1232,256,64,64,0,-25,-46,0,0,100,0,800,40,48,40,0,-35,-56,0,0,100,0,336,168,48,48,0,-29,-39,0,0,100,0,888,80,56,48,0,-62,-56,0,0,100,0,880,360,80,80,0,-24,-57,0,0,100,0,960,360,80,80,0,-40,-56,0,0,100,0,640,440,80,80,0,-140,-23,0,0,60,0,1208,384,88,40,0,-115,-19,1,0,60,0,1208,384,88,40,0,-24,-11,0,0,65,0,1552,0,48,24,0,
0,17,-32,-48,0,0,100,0,336,120,48,48,0,-68,-74,1,0,100,0,72,288,72,72,0,-27,-48,0,0,100,0,688,128,40,40,0,-46,-44,0,0,100,0,1040,128,64,64,0,-20,-55,0,0,100,0,688,0,40,40,0,-30,-66,0,0,100,0,384,168,48,48,0,-29,-102,0,0,100,0,216,288,72,72,0,-99,-70,0,0,100,0,1432,352,136,72,0,-15,-47,0,0,100,0,728,128,40,40,0,-15,-46,0,0,100,0,1040,256,64,64,0,-25,-46,0,0,100,0,800,40,48,40,0,-29,-39,0,0,100,0,888,80,56,48,0,-61,-57,0,0,100,0,880,360,80,80,0,-23,-56,0,0,100,0,960,360,80,80,0,-39,-55,0,0,100,0,640,440,80,80,0,-140,-23,0,0,30,0,1208,384,88,40,0,-24,-11,0,0,65,0,1552,0,48,24,0,
0,16,-31,-47,0,0,100,0,336,120,48,48,0,-67,-73,1,0,100,0,72,288,72,72,0,-27,-47,0,0,100,0,688,128,40,40,0,-46,-43,0,0,100,0,1040,128,64,64,0,-20,-54,0,0,100,0,688,0,40,40,0,-31,-65,0,0,100,0,384,168,48,48,0,-30,-101,0,0,100,0,216,288,72,72,0,-59,-59,0,0,100,0,1504,128,72,72,0,-15,-46,0,0,100,0,728,128,40,40,0,-15,-45,0,0,100,0,1040,256,64,64,0,-25,-45,0,0,100,0,800,40,48,40,0,-29,-39,0,0,100,0,888,80,56,48,0,-62,-57,0,0,100,0,880,360,80,80,0,-22,-56,0,0,100,0,960,360,80,80,0,-39,-56,0,0,100,0,640,440,80,80,0,-24,-11,0,0,65,0,1552,0,48,24,0,
0,15,-59,-81,0,0,60,0,576,520,72,64,0,-16,-56,0,0,100,0,768,128,40,40,0,-21,-52,0,0,100,0,1040,256,64,64,0,-25,-45,2,0,100,0,576,120,32,24,0,-23,-64,0,0,100,0,688,0,40,40,0,-17,-50,0,0,100,0,432,120,48,48,0,-24,-57,0,0,100,0,768,128,40,40,0,-46,-51,0,0,100,0,1040,320,64,64,0,-27,-52,0,0,100,0,848,40,48,40,0,-28,-38,0,0,100,0,944,80,56,48,0,-37,-54,0,0,100,0,432,168,48,48,0,-32,-53,0,0,100,0,480,168,48,48,0,-17,-60,0,0,100,0,0,360,80,80,0,-40,-59,0,0,100,0,0,440,80,80,0,-24,-11,0,0,65,0,1552,0,48,24,0,
0,16,-59,-81,0,0,50,0,648,520,72,64,0,-16,-56,0,0,100,0,768,128,40,40,0,-21,-52,0,0,100,0,1040,256,64,64,0,-25,-46,0,1,30,0,576,144,24,24,0,-25,-45,2,0,100,0,576,120,32,24,0,-23,-64,0,0,100,0,688,0,40,40,0,-17,-50,0,0,100,0,432,120,48,48,0,-24,-57,0,0,100,0,768,128,40,40,0,-46,-51,0,0,100,0,1040,320,64,64,0,-27,-52,0,0,100,0,848,40,48,40,0,-28,-38,0,0,100,0,944,80,56,48,0,-37,-54,0,0,100,0,432,168,48,48,0,-32,-53,0,0,100,0,480,168,48,48,0,-17,-60,0,0,100,0,0,360,80,80,0,-40,-59,0,0,100,0,0,440,80,80,0,-24,-11,0,0,65,0,1552,0,48,24,0,
0,16,-59,-81,0,0,40,0,720,520,72,64,0,-16,-56,0,0,100,0,768,128,40,40,0,-21,-52,0,0,100,0,1040,256,64,64,0,-25,-46,0,1,50,0,576,144,24,24,0,-25,-45,2,0,100,0,576,120,32,24,0,-23,-64,0,0,100,0,688,0,40,40,0,-17,-50,0,0,100,0,432,120,48,48,0,-24,-57,0,0,100,0,768,128,40,40,0,-46,-51,0,0,100,0,1040,320,64,64,0,-27,-52,0,0,100,0,848,40,48,40,0,-28,-38,0,0,100,0,944,80,56,48,0,-37,-54,0,0,100,0,432,168,48,48,0,-32,-53,0,0,100,0,480,168,48,48,0,-17,-60,0,0,100,0,0,360,80,80,0,-40,-59,0,0,100,0,0,440,80,80,0,-24,-11,0,0,65,0,1552,0,48,24,0,
0,16,-59,-81,0,0,20,0,792,520,72,64,0,-16,-56,0,0,100,0,768,128,40,40,0,-21,-52,0,0,100,0,1040,256,64,64,0,-25,-46,0,1,70,0,576,144,24,24,0,-25,-45,2,0,100,0,576,120,32,24,0,-23,-64,0,0,100,0,688,0,40,40,0,-17,-50,0,0,100,0,432,120,48,48,0,-24,-57,0,0,100,0,768,128,40,40,0,-46,-51,0,0,100,0,1040,320,64,64,0,-27,-52,0,0,100,0,848,40,48,40,0,-28,-38,0,0,100,0,944,80,56,48,0,-37,-54,0,0,100,0,432,168,48,48,0,-32,-53,0,0,100,0,480,168,48,48,0,-17,-60,0,0,100,0,0,360,80,80,0,-40,-59,0,0,100,0,0,440,80,80,0,-24,-11,0,0,65,0,1552,0,48,24,0,
0,15,-16,-56,0,0,100,0,768,128,40,40,0,-21,-52,0,0,100,0,1040,256,64,64,0,-25,-46,0,1,100,0,576,144,24,24,0,-25,-45,2,0,100,0,576,120,32,24,0,-23,-64,0,0,100,0,768,0,40,40,0,-17,-50,0,0,100,0,432,120,48,48,0,-24,-57,0,0,100,0,768,128,40,40,0,-46,-51,0,0,100,0,1040,320,64,64,0,-27,-52,0,0,100,0,848,40,48,40,0,-28,-38,0,0,100,0,944,80,56,48,0,-37,-54,0,0,100,0,432,168,48,48,0,-32,-53,0,0,100,0,480,168,48,48,0,-17,-60,0,0,100,0,0,360,80,80,0,-40,-59,0,0,100,0,0,440,80,80,0,-24,-11,0,0,65,0,1552,0,48,24,0,
0,15,-71,-86,0,0,70,0,1224,504,80,64,0,-15,-56,0,0,100,0,768,128,40,40,0,-21,-53,0,0,100,0,1104,256,64,64,0,-22,-64,0,0,100,0,728,0,40,40,0,-14,-51,0,0,100,0,480,120,48,48,0,-24,-57,0,0,100,0,768,128,40,40,0,-46,-54,0,0,100,0,1104,320,64,64,0,-27,-52,0,0,100,0,848,40,48,40,0,-28,-38,0,0,100,0,944,80,56,48,0,-43,-40,2,0,100,0,576,120,32,24,0,-41,-54,0,0,100,0,576,168,48,48,0,-13,-56,0,0,100,0,976,216,64,72,0,-36,-57,0,0,100,0,928,216,48,72,0,-38,-54,0,0,100,0,928,288,88,72,0,-24,-11,0,0,65,0,1552,0,48,24,0,
0,15,-73,-87,0,0,70,0,1304,504,80,64,0,-14,-56,0,0,100,0,768,128,40,40,0,-20,-53,0,0,100,0,1104,256,64,64,0,-20,-64,0,0,100,0,728,0,40,40,0,-13,-51,0,0,100,0,480,120,48,48,0,-23,-57,0,0,100,0,768,128,40,40,0,-45,-54,0,0,100,0,1104,320,64,64,0,-26,-52,0,0,100,0,848,40,48,40,0,-28,-38,0,0,100,0,944,80,56,48,0,-42,-41,2,0,100,0,576,120,32,24,0,-40,-55,0,0,100,0,576,168,48,48,0,-12,-56,0,0,100,0,976,216,64,72,0,-35,-57,0,0,100,0,928,216,48,72,0,-37,-54,0,0,100,0,928,288,88,72,0,-24,-11,0,0,65,0,1552,0,48,24,0,
0,15,-75,-88,0,0,70,0,1384,504,80,64,0,-14,-56,0,0,100,0,768,128,40,40,0,-20,-53,0,0,100,0,1104,256,64,64,0,-20,-64,0,0,100,0,728,0,40,40,0,-13,-51,0,0,100,0,480,120,48,48,0,-23,-57,0,0,100,0,768,128,40,40,0,-45,-54,0,0,100,0,1104,320,64,64,0,-26,-52,0,0,100,0,848,40,48,40,0,-28,-38,0,0,100,0,944,80,56,48,0,-42,-41,2,0,100,0,576,120,32,24,0,-40,-55,0,0,100,0,576,168,48,48,0,-12,-56,0,0,100,0,976,216,64,72,0,-35,-57,0,0,100,0,928,216,48,72,0,-37,-54,0,0,100,0,928,288,88,72,0,-24,-11,0,0,65,0,1552,0,48,24,0,
0,15,-77,-89,0,0,70,0,1464,504,80,64,0,-14,-56,0,0,100,0,768,128,40,40,0,-20,-53,0,0,100,0,1104,256,64,64,0,-20,-64,0,0,100,0,728,0,40,40,0,-13,-51,0,0,100,0,480,120,48,48,0,-23,-57,0,0,100,0,768,128,40,40,0,-45,-54,0,0,100,0,1104,320,64,64,0,-26,-52,0,0,100,0,848,40,48,40,0,-28,-38,0,0,100,0,944,80,56,48,0,-42,-41,2,0,100,0,576,120,32,24,0,-40,-55,0,0,100,0,576,168,48,48,0,-12,-56,0,0,100,0,976,216,64,72,0,-35,-57,0,0,100,0,928,216,48,72,0,-37,-54,0,0,100,0,928,288,88,72,0,-24,-11,0,0,65,0,1552,0,48,24,0,
0,15,-78,-90,0,0,30,0,1464,504,80,64,0,-14,-56,0,0,100,0,768,128,40,40,0,-20,-53,0,0,100,0,1104,256,64,64,0,-20,-64,0,0,100,0,728,0,40,40,0,-13,-51,0,0,100,0,480,120,48,48,0,-23,-57,0,0,100,0,768,128,40,40,0,-45,-54,0,0,100,0,1104,320,64,64,0,-26,-52,0,0,100,0,848,40,48,40,0,-28,-38,0,0,100,0,944,80,56,48,0,-42,-41,2,0,100,0,576,120,32,24,0,-40,-55,0,0,100,0,576,168,48,48,0,-12,-56,0,0,100,0,976,216,64,72,0,-35,-57,0,0,100,0,928,216,48,72,0,-37,-54,0,0,100,0,928,288,88,72,0,-24,-11,0,0,65,0,1552,0,48,24,0,
0,14,-14,-56,0,0,100,0,768,128,40,40,0,-20,-53,0,0,100,0,1104,256,64,64,0,-20,-64,0,0,100,0,728,0,40,40,0,-13,-51,0,0,100,0,480,120,48,48,0,-23,-57,0,0,100,0,768,128,40,40,0,-45,-54,0,0,100,0,1104,320,64,64,0,-26,-52,0,0,100,0,848,40,48,40,0,-28,-38,0,0,100,0,944,80,56,48,0,-42,-41,2,0,100,0,576,120,32,24,0,-40,-55,0,0,100,0,576,168,48,48,0,-12,-56,0,0,100,0,976,216,64,72,0,-35,-57,0,0,100,0,928,216,48,72,0,-37,-54,0,0,100,0,928,288,88,72,0,-24,-11,0,0,65,0,1552,0,48,24,0,
0,14,-27,-73,0,0,40,0,1080,520,72,56,0,-6,-55,0,0,100,0,768,128,40,40,0,-10,-52,0,0,100,0,1232,256,64,64,0,-6,-52,0,0,100,0,528,120,48,48,0,-10,-64,0,0,100,0,768,0,40,40,0,-14,-57,0,0,100,0,768,128,40,40,0,-40,-54,1,0,100,0,1104,256,64,64,0,-13,-50,0,0,100,0,608,40,48,40,0,-17,-38,0,0,100,0,1000,80,56,48,0,-29,-42,2,0,100,0,576,120,32,24,0,-27,-57,0,0,100,0,576,168,48,48,0,-6,-63,0,0,100,0,0,360,80,80,0,-29,-61,0,0,100,0,0,440,80,80,0,-16,-11,0,0,65,0,1552,0,48,24,0,
0,14,-28,-82,0,0,70,0,864,520,72,56,0,-5,-55,0,0,100,0,768,128,40,40,0,-9,-52,0,0,100,0,1040,256,64,64,0,-5,-52,0,0,100,0,528,120,48,48,0,-9,-64,0,0,100,0,768,0,40,40,0,-13,-59,0,0,100,0,768,128,40,40,0,-41,-56,1,0,100,0,1168,256,64,64,0,-12,-50,0,0,100,0,608,40,48,40,0,-17,-38,0,0,100,0,608,80,56,48,0,-30,-50,2,0,100,0,576,120,32,24,0,-28,-62,0,0,100,0,624,168,48,48,0,-23,-62,0,0,100,0,576,216,88,72,0,-30,-60,0,0,100,0,752,216,88,72,0,-16,-11,0,0,65,0,1552,0,48,24,0,
0,14,-28,-82,0,0,70,0,936,520,72,56,0,-5,-55,0,0,100,0,768,128,40,40,0,-9,-52,0,0,100,0,1104,256,64,64,0,-5,-52,0,0,100,0,528,120,48,48,0,-9,-64,0,0,100,0,768,0,40,40,0,-13,-59,0,0,100,0,768,128,40,40,0,-41,-56,1,0,100,0,1232,256,64,64,0,-12,-50,0,0,100,0,608,40,48,40,0,-17,-38,0,0,100,0,608,80,56,48,0,-30,-50,2,0,100,0,576,120,32,24,0,-28,-62,0,0,100,0,624,168,48,48,0,-23,-62,0,0,100,0,664,216,88,72,0,-30,-60,0,0,100,0,840,216,88,72,0,-16,-11,0,0,65,0,1552,0,48,24,0,
0,14,-28,-82,0,0,70,0,1008,520,72,56,0,-5,-55,0,0,100,0,768,128,40,40,0,-9,-52,0,0,100,0,1168,256,64,64,0,-5,-52,0,0,100,0,528,120,48,48,0,-9,-64,0,0,100,0,768,0,40,40,0,-13,-59,0,0,100,0,768,128,40,40,0,-41,-56,1,0,100,0,1040,256,64,64,0,-12,-50,0,0,100,0,608,40,48,40,0,-17,-38,0,0,100,0,608,80,56,48,0,-30,-50,2,0,100,0,576,120,32,24,0,-28,-62,0,0,100,0,624,168,48,48,0,-23,-62,0,0,100,0,576,288,88,72,0,-30,-60,0,0,100,0,752,288,88,72,0,-16,-11,0,0,65,0,1552,0,48,24,0,
0,14,-28,-82,0,0,70,0,1152,520,72,56,0,-5,-55,0,0,100,0,768,128,40,40,0,-9,-52,0,0,100,0,1232,256,64,64,0,-5,-52,0,0,100,0,528,120,48,48,0,-9,-64,0,0,100,0,768,0,40,40,0,-13,-59,0,0,100,0,768,128,40,40,0,-41,-56,1,0,100,0,1104,256,64,64,0,-12,-50,0,0,100,0,608,40,48,40,0,-17,-38,0,0,100,0,608,80,56,48,0,-30,-50,2,0,100,0,576,120,32,24,0,-28,-62,0,0,100,0,624,168,48,48,0,-23,-62,0,0,100,0,664,288,88,72,0,-30,-60,0,0,100,0,840,288,88,72,0,-16,-11,0,0,65,0,1552,0,48,24,0,
0,28,1,-289,0,1,100,0,544,840,88,304,0,-31,-289,0,1,100,0,384,840,160,304,0,-12,-209,0,1,100,0,632,840,120,216,0,-73,69,0,0,100,0,392,584,72,56,0,-73,69,0,0,100,0,320,584,72,56,0,-73,69,0,0,100,0,464,584,72,56,0,-230,-9,0,0,40,0,240,584,80,72,0,-233,-6,0,0,70,0,160,584,80,72,0,-236,-3,0,0,100,0,80,584,80,72,0,-239,0,0,0,100,0,0,584,80,72,0,0,0,0,0,100,0,464,584,72,56,0,0,0,0,0,100,0,392,584,72,56,0,0,0,0,0,100,0,320,584,72,56,0,0,0,0,0,100,0,1368,432,64,72,0,0,0,0,0,100,0,1304,432,64,72,0,0,0,0,0,100,0,1240,432,64,72,0,-129,0,1,0,100,0,320,584,72,56,0,-129,0,1,0,100,0,464,584,72,56,0,-129,0,1,0,100,0,392,584,72,56,0,-199,-51,0,1,30,0,1112,504,112,16,0,-121,-51,0,1,60,0,1112,504,112,16,0,-91,-51,0,1,100,0,1112,504,112,16,0,-129,0,1,0,100,0,464,584,72,56,0,-129,0,1,0,100,0,392,584,72,56,0,-129,0,1,0,100,0,320,584,72,56,0,-192,-55,0,0,100,0,608,128,40,24,0,-118,-55,0,0,100,0,608,128,40,24,0,-60,-55,0,0,100,0,608,128,40,24,0,
0,9,0,0,0,0,100,0,720,656,144,184,0,0,0,0,0,100,0,576,656,144,184,0,0,0,0,0,100,0,432,656,144,184,0,0,0,0,0,100,0,288,656,144,184,0,0,0,0,0,100,0,144,656,144,184,0,0,0,0,0,100,0,0,656,144,184,0,0,0,0,0,100,0,288,656,144,184,0,0,0,0,0,100,0,144,656,144,184,0,0,0,0,0,100,0,0,656,144,184,0,
