0,35,19,-84,0,0,100,0,128,248,32,24,0,3,-110,0,0,100,0,88,208,40,64,0,4,-66,0,0,100,0,0,208,48,64,0,-21,-32,0,0,100,0,400,112,64,48,0,6,-34,0,0,100,0,400,207,16,17,0,-11,-32,0,0,100,0,384,207,16,17,0,-10,-9,0,0,100,0,216,96,40,16,0,-10,-45,0,0,100,0,192,192,40,16,0,-2,-88,0,0,100,0,232,224,24,24,0,-4,-104,0,0,100,0,184,208,48,40,0,-13,-100,0,0,100,0,464,88,48,40,0,-13,-99,0,0,100,0,48,208,40,64,0,-10,-36,0,0,100,0,216,64,40,32,0,-51,-83,0,0,100,0,96,160,64,48,0,-61,-101,0,0,100,0,128,208,56,40,0,-44,-66,0,0,100,0,192,160,32,32,0,-43,-47,0,0,100,0,224,160,32,32,0,-26,-51,0,0,100,0,160,160,32,48,0,-61,-40,0,0,100,0,304,112,56,48,0,-47,-38,0,0,100,0,368,207,16,17,0,-49,-13,0,0,100,0,128,96,40,16,0,-49,-44,0,0,100,0,128,40,40,16,0,-49,-72,0,0,100,0,128,0,40,40,0,-49,-41,0,0,100,0,128,56,40,40,0,-77,-99,0,0,100,0,0,160,64,48,0,-64,-79,0,0,100,0,232,208,24,16,0,-55,-92,0,0,100,0,232,192,24,16,0,-67,-117,0,0,100,0,0,272,80,48,0,-60,-66,0,0,100,0,0,208,48,64,0,-33,-36,0,0,100,0,256,0,32,32,0,23,-40,0,0,100,0,360,112,40,48,0,27,-36,0,0,100,0,416,207,16,17,0,19,-65,0,0,100,0,64,160,32,48,0,25,-27,0,0,100,0,320,0,32,24,0,-72,-24,0,0,65,0,368,0,144,48,0,
0,35,19,-84,0,0,100,0,128,248,32,24,0,3,-110,0,0,100,0,88,208,40,64,0,4,-66,0,0,100,0,0,208,48,64,0,-21,-32,0,0,100,0,400,112,64,48,0,6,-34,0,0,100,0,400,207,16,17,0,-11,-32,0,0,100,0,384,207,16,17,0,-10,-9,0,0,100,0,216,96,40,16,0,-10,-45,0,0,100,0,192,192,40,16,0,-2,-88,0,0,100,0,232,224,24,24,0,-4,-104,0,0,100,0,184,208,48,40,0,-13,-100,0,0,100,0,464,88,48,40,0,-13,-99,0,0,100,0,48,208,40,64,0,-10,-36,0,0,100,0,216,64,40,32,0,-51,-83,0,0,100,0,96,160,64,48,0,-61,-101,0,0,100,0,128,208,56,40,0,-44,-66,0,0,100,0,192,160,32,32,0,-43,-47,0,0,100,0,224,160,32,32,0,-26,-51,0,0,100,0,160,160,32,48,0,-61,-40,0,0,100,0,304,112,56,48,0,-47,-38,0,0,100,0,368,207,16,17,0,-49,-13,0,0,100,0,128,96,40,16,0,-49,-44,0,0,100,0,128,40,40,16,0,-49,-72,0,0,100,0,128,0,40,40,0,-49,-41,0,0,100,0,128,56,40,40,0,-77,-99,0,0,100,0,0,160,64,48,0,-64,-79,0,0,100,0,232,208,24,16,0,-55,-92,0,0,100,0,232,192,24,16,0,-67,-117,0,0,100,0,80,272,80,48,0,-60,-66,0,0,100,0,0,208,48,64,0,-33,-36,0,0,100,0,256,0,32,32,0,23,-40,0,0,100,0,360,112,40,48,0,27,-36,0,0,100,0,416,207,16,17,0,19,-65,0,0,100,0,64,160,32,48,0,25,-27,0,0,100,0,320,0,32,24,0,-72,-24,0,0,65,0,368,0,144,48,0,
0,35,19,-84,0,0,100,0,128,248,32,24,0,3,-110,0,0,100,0,88,208,40,64,0,4,-66,0,0,100,0,0,208,48,64,0,-21,-32,0,0,100,0,400,112,64,48,0,6,-34,0,0,100,0,400,207,16,17,0,-11,-32,0,0,100,0,384,207,16,17,0,-10,-9,0,0,100,0,216,96,40,16,0,-10,-45,0,0,100,0,192,192,40,16,0,-2,-88,0,0,100,0,232,224,24,24,0,-4,-104,0,0,100,0,184,208,48,40,0,-13,-100,0,0,100,0,464,88,48,40,0,-13,-99,0,0,100,0,48,208,40,64,0,-10,-36,0,0,100,0,216,64,40,32,0,-51,-83,0,0,100,0,96,160,64,48,0,-61,-101,0,0,100,0,128,208,56,40,0,-44,-66,0,0,100,0,192,160,32,32,0,-43,-47,0,0,100,0,224,160,32,32,0,-26,-51,0,0,100,0,160,160,32,48,0,-61,-40,0,0,100,0,304,112,56,48,0,-47,-38,0,0,100,0,368,207,16,17,0,-49,-13,0,0,100,0,128,96,40,16,0,-49,-44,0,0,100,0,128,40,40,16,0,-49,-72,0,0,100,0,128,0,40,40,0,-49,-41,0,0,100,0,128,56,40,40,0,-77,-99,0,0,100,0,0,160,64,48,0,-64,-79,0,0,100,0,232,208,24,16,0,-55,-92,0,0,100,0,232,192,24,16,0,-67,-117,0,0,100,0,160,272,80,48,0,-60,-66,0,0,100,0,0,208,48,64,0,-33,-36,0,0,100,0,256,0,32,32,0,23,-40,0,0,100,0,360,112,40,48,0,27,-36,0,0,100,0,416,207,16,17,0,19,-65,0,0,100,0,64,160,32,48,0,25,-27,0,0,100,0,320,0,32,24,0,-72,-24,0,0,65,0,368,0,144,48,0,
0,35,19,-84,0,0,100,0,128,248,32,24,0,3,-110,0,0,100,0,88,208,40,64,0,4,-66,0,0,100,0,0,208,48,64,0,-21,-32,0,0,100,0,400,112,64,48,0,6,-34,0,0,100,0,400,207,16,17,0,-11,-32,0,0,100,0,384,207,16,17,0,-10,-9,0,0,100,0,216,96,40,16,0,-10,-45,0,0,100,0,192,192,40,16,0,-2,-88,0,0,100,0,232,224,24,24,0,-4,-104,0,0,100,0,184,208,48,40,0,-13,-100,0,0,100,0,464,88,48,40,0,-13,-99,0,0,100,0,48,208,40,64,0,-10,-36,0,0,100,0,216,64,40,32,0,-51,-83,0,0,100,0,96,160,64,48,0,-61,-101,0,0,100,0,128,208,56,40,0,-44,-66,0,0,100,0,192,160,32,32,0,-43,-47,0,0,100,0,224,160,32,32,0,-26,-51,0,0,100,0,160,160,32,48,0,-61,-40,0,0,100,0,304,112,56,48,0,-47,-38,0,0,100,0,368,207,16,17,0,-49,-13,0,0,100,0,128,96,40,16,0,-49,-44,0,0,100,0,128,40,40,16,0,-49,-72,0,0,100,0,128,0,40,40,0,-49,-41,0,0,100,0,128,56,40,40,0,-77,-99,0,0,100,0,0,160,64,48,0,-64,-79,0,0,100,0,232,208,24,16,0,-55,-92,0,0,100,0,232,192,24,16,0,-67,-117,0,0,100,0,240,272,80,48,0,-60,-66,0,0,100,0,0,208,48,64,0,-33,-36,0,0,100,0,256,0,32,32,0,23,-40,0,0,100,0,360,112,40,48,0,27,-36,0,0,100,0,416,207,16,17,0,19,-65,0,0,100,0,64,160,32,48,0,25,-27,0,0,100,0,320,0,32,24,0,-72,-24,0,0,65,0,368,0,144,48,0,
0,35,19,-84,0,0,100,0,128,248,32,24,0,3,-110,0,0,100,0,88,208,40,64,0,4,-66,0,0,100,0,0,208,48,64,0,-21,-32,0,0,100,0,400,112,64,48,0,6,-34,0,0,100,0,400,207,16,17,0,-11,-32,0,0,100,0,384,207,16,17,0,-10,-9,0,0,100,0,216,96,40,16,0,-10,-45,0,0,100,0,192,192,40,16,0,-2,-88,0,0,100,0,232,224,24,24,0,-4,-104,0,0,100,0,184,208,48,40,0,-13,-100,0,0,100,0,464,88,48,40,0,-13,-99,0,0,100,0,48,208,40,64,0,-10,-36,0,0,100,0,216,64,40,32,0,-51,-83,0,0,100,0,96,160,64,48,0,-61,-101,0,0,100,0,128,208,56,40,0,-44,-66,0,0,100,0,192,160,32,32,0,-43,-47,0,0,100,0,224,160,32,32,0,-26,-51,0,0,100,0,160,160,32,48,0,-61,-40,0,0,100,0,304,112,56,48,0,-47,-38,0,0,100,0,368,207,16,17,0,-49,-13,0,0,100,0,128,96,40,16,0,-49,-44,0,0,100,0,128,40,40,16,0,-49,-72,0,0,100,0,128,0,40,40,0,-49,-41,0,0,100,0,128,56,40,40,0,-77,-99,0,0,100,0,0,160,64,48,0,-64,-79,0,0,100,0,232,208,24,16,0,-55,-92,0,0,100,0,232,192,24,16,0,-67,-117,0,0,100,0,320,272,80,48,0,-60,-66,0,0,100,0,0,208,48,64,0,-33,-36,0,0,100,0,256,0,32,32,0,23,-40,0,0,100,0,360,112,40,48,0,27,-36,0,0,100,0,416,207,16,17,0,19,-65,0,0,100,0,64,160,32,48,0,25,-27,0,0,100,0,320,0,32,24,0,-72,-24,0,0,65,0,368,0,144,48,0,
0,38,19,-83,0,0,100,0,128,248,32,24,0,3,-109,0,0,100,0,88,208,40,64,0,4,-65,0,0,100,0,0,208,48,64,0,-20,-23,0,0,100,0,360,160,56,16,0,-21,-32,0,0,100,0,400,112,64,48,0,6,-33,0,0,100,0,400,207,16,17,0,-11,-31,0,0,100,0,384,207,16,17,0,-10,-9,0,0,100,0,216,96,40,16,0,-10,-45,0,0,100,0,192,192,40,16,0,-2,-87,0,0,100,0,232,224,24,24,0,-4,-103,0,0,100,0,184,208,48,40,0,-13,-99,0,0,100,0,464,88,48,40,0,-13,-98,0,0,100,0,48,208,40,64,0,-10,-36,0,0,100,0,216,64,40,32,0,-51,-82,0,0,100,0,96,160,64,48,0,-61,-100,0,0,100,0,128,208,56,40,0,-44,-65,0,0,100,0,192,160,32,32,0,-43,-46,0,0,100,0,224,160,32,32,0,-26,-50,0,0,100,0,160,160,32,48,0,-64,-26,0,0,100,0,304,160,56,16,0,-61,-40,0,0,100,0,304,112,56,48,0,-47,-37,0,0,100,0,368,207,16,17,0,-49,-13,0,0,100,0,128,96,40,16,0,-49,-44,0,0,100,0,128,40,40,16,0,-49,-71,0,0,100,0,128,0,40,40,0,-49,-41,0,0,100,0,128,56,40,40,0,-77,-98,0,0,100,0,0,160,64,48,0,-64,-78,0,0,100,0,232,208,24,16,0,-55,-91,0,0,100,0,232,192,24,16,0,-67,-116,0,0,100,0,400,272,80,48,0,-60,-65,0,0,100,0,0,208,48,64,0,-33,-36,0,0,100,0,256,0,32,32,0,18,-30,0,0,100,0,416,160,48,16,0,23,-40,0,0,100,0,360,112,40,48,0,27,-35,0,0,100,0,416,207,16,17,0,19,-64,0,0,100,0,64,160,32,48,0,25,-27,0,0,100,0,320,0,32,24,0,-72,-24,0,0,65,0,368,0,144,48,0,
0,38,19,-82,0,0,100,0,128,248,32,24,0,3,-108,0,0,100,0,88,208,40,64,0,4,-64,0,0,100,0,0,208,48,64,0,-22,-17,0,0,100,0,360,176,64,16,0,-21,-32,0,0,100,0,400,112,64,48,0,6,-32,0,0,100,0,400,207,16,17,0,-11,-30,0,0,100,0,384,207,16,17,0,-10,-9,0,0,100,0,216,96,40,16,0,-10,-44,0,0,100,0,192,192,40,16,0,-2,-86,0,0,100,0,232,224,24,24,0,-4,-102,0,0,100,0,184,208,48,40,0,-13,-98,0,0,100,0,464,88,48,40,0,-13,-97,0,0,100,0,48,208,40,64,0,-10,-35,0,0,100,0,216,64,40,32,0,-51,-81,0,0,100,0,96,160,64,48,0,-61,-99,0,0,100,0,128,208,56,40,0,-44,-64,0,0,100,0,192,160,32,32,0,-43,-45,0,0,100,0,224,160,32,32,0,-26,-49,0,0,100,0,160,160,32,48,0,-64,-21,0,0,100,0,304,176,56,16,0,-61,-40,0,0,100,0,304,112,56,48,0,-47,-36,0,0,100,0,368,207,16,17,0,-49,-13,0,0,100,0,128,96,40,16,0,-49,-43,0,0,100,0,128,40,40,16,0,-49,-70,0,0,100,0,128,0,40,40,0,-49,-40,0,0,100,0,128,56,40,40,0,-77,-97,0,0,100,0,0,160,64,48,0,-64,-77,0,0,100,0,232,208,24,16,0,-55,-90,0,0,100,0,232,192,24,16,0,-67,-115,0,0,100,0,0,272,80,48,0,-60,-64,0,0,100,0,0,208,48,64,0,-33,-36,0,0,100,0,256,0,32,32,0,18,-29,0,0,100,0,424,176,48,16,0,23,-40,0,0,100,0,360,112,40,48,0,27,-34,0,0,100,0,416,207,16,17,0,19,-64,0,0,100,0,64,160,32,48,0,25,-27,0,0,100,0,320,0,32,24,0,-72,-24,0,0,65,0,368,0,144,48,0,
0,38,19,-82,0,0,100,0,128,248,32,24,0,3,-108,0,0,100,0,88,208,40,64,0,4,-64,0,0,100,0,0,208,48,64,0,-21,-12,0,0,100,0,360,192,64,16,0,-21,-32,0,0,100,0,400,112,64,48,0,6,-32,0,0,100,0,400,207,16,17,0,-11,-30,0,0,100,0,384,207,16,17,0,-10,-9,0,0,100,0,216,96,40,16,0,-10,-44,0,0,100,0,192,192,40,16,0,-2,-86,0,0,100,0,232,224,24,24,0,-4,-102,0,0,100,0,184,208,48,40,0,-13,-98,0,0,100,0,464,88,48,40,0,-13,-97,0,0,100,0,48,208,40,64,0,-10,-35,0,0,100,0,216,64,40,32,0,-51,-81,0,0,100,0,96,160,64,48,0,-61,-99,0,0,100,0,128,208,56,40,0,-44,-64,0,0,100,0,192,160,32,32,0,-43,-45,0,0,100,0,224,160,32,32,0,-26,-49,0,0,100,0,160,160,32,48,0,-64,-17,0,0,100,0,304,192,56,16,0,-61,-40,0,0,100,0,304,112,56,48,0,-49,-13,0,0,100,0,128,96,40,16,0,-47,-36,0,0,100,0,368,207,16,17,0,-49,-43,0,0,100,0,128,40,40,16,0,-49,-70,0,0,100,0,128,0,40,40,0,-49,-40,0,0,100,0,128,56,40,40,0,-77,-97,0,0,100,0,0,160,64,48,0,-64,-77,0,0,100,0,232,208,24,16,0,-55,-90,0,0,100,0,232,192,24,16,0,-67,-115,0,0,100,0,80,272,80,48,0,-60,-64,0,0,100,0,0,208,48,64,0,-33,-36,0,0,100,0,256,0,32,32,0,19,-26,0,0,100,0,424,192,48,16,0,23,-40,0,0,100,0,360,112,40,48,0,27,-34,0,0,100,0,416,207,16,17,0,19,-64,0,0,100,0,64,160,32,48,0,25,-27,0,0,100,0,320,0,32,24,0,-72,-24,0,0,65,0,368,0,144,48,0,
0,35,19,-82,0,0,100,0,128,248,32,24,0,3,-108,0,0,100,0,88,208,40,64,0,4,-64,0,0,100,0,0,208,48,64,0,-21,-32,0,0,100,0,400,112,64,48,0,6,-32,0,0,100,0,400,207,16,17,0,-11,-30,0,0,100,0,384,207,16,17,0,-10,-9,0,0,100,0,216,96,40,16,0,-10,-44,0,0,100,0,192,192,40,16,0,-2,-86,0,0,100,0,232,224,24,24,0,-4,-102,0,0,100,0,184,208,48,40,0,-13,-98,0,0,100,0,464,88,48,40,0,-13,-97,0,0,100,0,48,208,40,64,0,-10,-35,0,0,100,0,216,64,40,32,0,-51,-81,0,0,100,0,96,160,64,48,0,-61,-99,0,0,100,0,128,208,56,40,0,-44,-64,0,0,100,0,192,160,32,32,0,-43,-45,0,0,100,0,224,160,32,32,0,-26,-49,0,0,100,0,160,160,32,48,0,-61,-40,0,0,100,0,304,112,56,48,0,-47,-36,0,0,100,0,368,207,16,17,0,-49,-13,0,0,100,0,128,96,40,16,0,-49,-43,0,0,100,0,128,40,40,16,0,-49,-70,0,0,100,0,128,0,40,40,0,-49,-40,0,0,100,0,128,56,40,40,0,-77,-97,0,0,100,0,0,160,64,48,0,-64,-77,0,0,100,0,232,208,24,16,0,-55,-90,0,0,100,0,232,192,24,16,0,-67,-115,0,0,100,0,160,272,80,48,0,-60,-64,0,0,100,0,0,208,48,64,0,-33,-36,0,0,100,0,256,0,32,32,0,23,-40,0,0,100,0,360,112,40,48,0,27,-34,0,0,100,0,416,207,16,17,0,19,-64,0,0,100,0,64,160,32,48,0,25,-27,0,0,100,0,320,0,32,24,0,-72,-24,0,0,65,0,368,0,144,48,0,
0,35,19,-82,0,0,100,0,128,248,32,24,0,3,-108,0,0,100,0,88,208,40,64,0,4,-64,0,0,100,0,0,208,48,64,0,-21,-32,0,0,100,0,400,112,64,48,0,6,-32,0,0,100,0,400,207,16,17,0,-11,-30,0,0,100,0,384,207,16,17,0,-10,-9,0,0,100,0,216,96,40,16,0,-10,-44,0,0,100,0,192,192,40,16,0,-2,-86,0,0,100,0,232,224,24,24,0,-4,-102,0,0,100,0,184,208,48,40,0,-13,-98,0,0,100,0,464,88,48,40,0,-13,-97,0,0,100,0,48,208,40,64,0,-10,-35,0,0,100,0,216,64,40,32,0,-51,-81,0,0,100,0,96,160,64,48,0,-61,-99,0,0,100,0,128,208,56,40,0,-44,-64,0,0,100,0,192,160,32,32,0,-43,-45,0,0,100,0,224,160,32,32,0,-26,-49,0,0,100,0,160,160,32,48,0,-61,-40,0,0,100,0,304,112,56,48,0,-47,-36,0,0,100,0,368,207,16,17,0,-49,-13,0,0,100,0,128,96,40,16,0,-49,-43,0,0,100,0,128,40,40,16,0,-49,-70,0,0,100,0,128,0,40,40,0,-49,-40,0,0,100,0,128,56,40,40,0,-77,-97,0,0,100,0,0,160,64,48,0,-64,-77,0,0,100,0,232,208,24,16,0,-55,-90,0,0,100,0,232,192,24,16,0,-67,-115,0,0,100,0,240,272,80,48,0,-60,-64,0,0,100,0,0,208,48,64,0,-33,-36,0,0,100,0,256,0,32,32,0,23,-40,0,0,100,0,360,112,40,48,0,27,-34,0,0,100,0,416,207,16,17,0,19,-64,0,0,100,0,64,160,32,48,0,25,-27,0,0,100,0,320,0,32,24,0,-72,-24,0,0,65,0,368,0,144,48,0,
0,38,19,-83,0,0,100,0,128,248,32,24,0,3,-109,0,0,100,0,88,208,40,64,0,4,-65,0,0,100,0,0,208,48,64,0,-22,-17,0,0,100,0,360,176,64,16,0,-21,-32,0,0,100,0,400,112,64,48,0,6,-33,0,0,100,0,400,207,16,17,0,-11,-31,0,0,100,0,384,207,16,17,0,-10,-9,0,0,100,0,216,96,40,16,0,-10,-45,0,0,100,0,192,192,40,16,0,-2,-87,0,0,100,0,232,224,24,24,0,-4,-103,0,0,100,0,184,208,48,40,0,-13,-99,0,0,100,0,464,88,48,40,0,-13,-98,0,0,100,0,48,208,40,64,0,-10,-36,0,0,100,0,216,64,40,32,0,-51,-82,0,0,100,0,96,160,64,48,0,-61,-100,0,0,100,0,128,208,56,40,0,-44,-65,0,0,100,0,192,160,32,32,0,-43,-46,0,0,100,0,224,160,32,32,0,-26,-50,0,0,100,0,160,160,32,48,0,-60,-21,0,0,100,0,304,176,56,16,0,-61,-40,0,0,100,0,304,112,56,48,0,-47,-37,0,0,100,0,368,207,16,17,0,-49,-13,0,0,100,0,128,96,40,16,0,-49,-44,0,0,100,0,128,40,40,16,0,-49,-71,0,0,100,0,128,0,40,40,0,-49,-41,0,0,100,0,128,56,40,40,0,-77,-98,0,0,100,0,0,160,64,48,0,-64,-78,0,0,100,0,232,208,24,16,0,-55,-91,0,0,100,0,232,192,24,16,0,-67,-116,0,0,100,0,320,272,80,48,0,-60,-65,0,0,100,0,0,208,48,64,0,-33,-36,0,0,100,0,256,0,32,32,0,18,-29,0,0,100,0,424,176,48,16,0,23,-40,0,0,100,0,360,112,40,48,0,27,-35,0,0,100,0,416,207,16,17,0,19,-65,0,0,100,0,64,160,32,48,0,25,-27,0,0,100,0,320,0,32,24,0,-72,-24,0,0,65,0,368,0,144,48,0,
0,35,19,-84,0,0,100,0,128,248,32,24,0,3,-110,0,0,100,0,88,208,40,64,0,4,-66,0,0,100,0,0,208,48,64,0,-21,-32,0,0,100,0,400,112,64,48,0,6,-34,0,0,100,0,400,207,16,17,0,-11,-32,0,0,100,0,384,207,16,17,0,-10,-9,0,0,100,0,216,96,40,16,0,-10,-45,0,0,100,0,192,192,40,16,0,-2,-88,0,0,100,0,232,224,24,24,0,-4,-104,0,0,100,0,184,208,48,40,0,-13,-100,0,0,100,0,464,88,48,40,0,-13,-99,0,0,100,0,48,208,40,64,0,-10,-36,0,0,100,0,216,64,40,32,0,-51,-83,0,0,100,0,96,160,64,48,0,-61,-101,0,0,100,0,128,208,56,40,0,-44,-66,0,0,100,0,192,160,32,32,0,-43,-47,0,0,100,0,224,160,32,32,0,-26,-51,0,0,100,0,160,160,32,48,0,-61,-40,0,0,100,0,304,112,56,48,0,-47,-38,0,0,100,0,368,207,16,17,0,-49,-13,0,0,100,0,128,96,40,16,0,-49,-44,0,0,100,0,128,40,40,16,0,-49,-72,0,0,100,0,128,0,40,40,0,-49,-41,0,0,100,0,128,56,40,40,0,-77,-99,0,0,100,0,0,160,64,48,0,-64,-79,0,0,100,0,232,208,24,16,0,-55,-92,0,0,100,0,232,192,24,16,0,-67,-117,0,0,100,0,400,272,80,48,0,-60,-66,0,0,100,0,0,208,48,64,0,-33,-36,0,0,100,0,256,0,32,32,0,23,-40,0,0,100,0,360,112,40,48,0,27,-36,0,0,100,0,416,207,16,17,0,19,-65,0,0,100,0,64,160,32,48,0,25,-27,0,0,100,0,320,0,32,24,0,-72,-24,0,0,65,0,368,0,144,48,0,
0,35,19,-84,0,0,100,0,128,248,32,24,0,3,-110,0,0,100,0,88,208,40,64,0,4,-66,0,0,100,0,0,208,48,64,0,-21,-32,0,0,100,0,400,112,64,48,0,6,-34,0,0,100,0,400,207,16,17,0,-11,-32,0,0,100,0,384,207,16,17,0,-10,-9,0,0,100,0,216,96,40,16,0,-10,-45,0,0,100,0,192,192,40,16,0,-4,-104,0,0,100,0,184,208,48,40,0,-2,-88,0,0,100,0,232,224,24,24,0,-13,-100,0,0,100,0,464,88,48,40,0,-13,-99,0,0,100,0,48,208,40,64,0,-10,-36,0,0,100,0,216,64,40,32,0,-51,-83,0,0,100,0,96,160,64,48,0,-61,-101,0,0,100,0,128,208,56,40,0,-44,-66,0,0,100,0,192,160,32,32,0,-43,-47,0,0,100,0,224,160,32,32,0,-26,-51,0,0,100,0,160,160,32,48,0,-61,-40,0,0,100,0,304,112,56,48,0,-47,-38,0,0,100,0,368,207,16,17,0,-49,-13,0,0,100,0,128,96,40,16,0,-49,-44,0,0,100,0,128,40,40,16,0,-49,-41,0,0,100,0,128,56,40,40,0,-49,-72,0,0,100,0,128,0,40,40,0,-77,-99,0,0,100,0,0,160,64,48,0,-64,-79,0,0,100,0,232,208,24,16,0,-55,-92,0,0,100,0,232,192,24,16,0,-67,-117,0,0,100,0,0,272,80,48,0,-60,-66,0,0,100,0,0,208,48,64,0,-33,-36,0,0,100,0,256,0,32,32,0,23,-40,0,0,100,0,360,112,40,48,0,27,-36,0,0,100,0,416,207,16,17,0,19,-65,0,0,100,0,64,160,32,48,0,25,-27,0,0,100,0,320,0,32,24,0,-72,-24,0,0,65,0,368,0,144,48,0,
0,35,19,-85,0,0,100,0,128,248,32,24,0,3,-111,0,0,100,0,88,208,40,64,0,4,-67,0,0,100,0,0,208,48,64,0,-21,-32,0,0,100,0,400,112,64,48,0,6,-34,0,0,100,0,400,207,16,17,0,-11,-32,0,0,100,0,384,207,16,17,0,-10,-9,0,0,100,0,216,96,40,16,0,-10,-46,0,0,100,0,192,192,40,16,0,-4,-105,0,0,100,0,184,208,48,40,0,-2,-89,0,0,100,0,232,224,24,24,0,-13,-101,0,0,100,0,464,88,48,40,0,-13,-100,0,0,100,0,48,208,40,64,0,-10,-37,0,0,100,0,216,64,40,32,0,-51,-84,0,0,100,0,96,160,64,48,0,-61,-102,0,0,100,0,128,208,56,40,0,-44,-67,0,0,100,0,192,160,32,32,0,-43,-47,0,0,100,0,224,160,32,32,0,-26,-52,0,0,100,0,160,160,32,48,0,-61,-40,0,0,100,0,304,112,56,48,0,-47,-38,0,0,100,0,368,207,16,17,0,-49,-13,0,0,100,0,128,96,40,16,0,-49,-45,0,0,100,0,128,40,40,16,0,-49,-42,0,0,100,0,128,56,40,40,0,-49,-73,0,0,100,0,128,0,40,40,0,-77,-100,0,0,100,0,0,160,64,48,0,-64,-80,0,0,100,0,232,208,24,16,0,-55,-93,0,0,100,0,232,192,24,16,0,-67,-118,0,0,100,0,80,272,80,48,0,-60,-67,0,0,100,0,0,208,48,64,0,-33,-36,0,0,100,0,256,0,32,32,0,23,-40,0,0,100,0,360,112,40,48,0,27,-36,0,0,100,0,416,207,16,17,0,19,-66,0,0,100,0,64,160,32,48,0,25,-27,0,0,100,0,320,0,32,24,0,-72,-24,0,0,65,0,368,0,144,48,0,
0,35,19,-85,0,0,100,0,128,248,32,24,0,3,-111,0,0,100,0,88,208,40,64,0,4,-67,0,0,100,0,0,208,48,64,0,-21,-32,0,0,100,0,400,112,64,48,0,6,-34,0,0,100,0,400,207,16,17,0,-11,-32,0,0,100,0,384,207,16,17,0,-10,-9,0,0,100,0,216,96,40,16,0,-10,-47,0,0,100,0,192,192,40,16,0,-4,-105,0,0,100,0,184,208,48,40,0,-2,-89,0,0,100,0,232,224,24,24,0,-13,-101,0,0,100,0,464,88,48,40,0,-13,-100,0,0,100,0,48,208,40,64,0,-10,-38,0,0,100,0,216,64,40,32,0,-51,-85,0,0,100,0,96,160,64,48,0,-61,-103,0,0,100,0,128,208,56,40,0,-44,-68,0,0,100,0,192,160,32,32,0,-43,-47,0,0,100,0,224,160,32,32,0,-26,-53,0,0,100,0,160,160,32,48,0,-61,-40,0,0,100,0,304,112,56,48,0,-47,-38,0,0,100,0,368,207,16,17,0,-49,-13,0,0,100,0,128,96,40,16,0,-49,-46,0,0,100,0,128,40,40,16,0,-49,-43,0,0,100,0,128,56,40,40,0,-49,-73,0,0,100,0,128,0,40,40,0,-77,-100,0,0,100,0,0,160,64,48,0,-64,-80,0,0,100,0,232,208,24,16,0,-55,-93,0,0,100,0,232,192,24,16,0,-67,-119,0,0,100,0,160,272,80,48,0,-60,-67,0,0,100,0,0,208,48,64,0,-33,-36,0,0,100,0,256,0,32,32,0,23,-40,0,0,100,0,360,112,40,48,0,27,-36,0,0,100,0,416,207,16,17,0,19,-67,0,0,100,0,64,160,32,48,0,25,-28,0,0,100,0,320,0,32,24,0,-72,-24,0,0,65,0,368,0,144,48,0,
0,35,19,-86,0,0,100,0,128,248,32,24,0,3,-112,0,0,100,0,88,208,40,64,0,4,-68,0,0,100,0,0,208,48,64,0,-21,-32,0,0,100,0,400,112,64,48,0,6,-34,0,0,100,0,400,207,16,17,0,-11,-32,0,0,100,0,384,207,16,17,0,-10,-9,0,0,100,0,216,96,40,16,0,-10,-47,0,0,100,0,192,192,40,16,0,-4,-106,0,0,100,0,184,208,48,40,0,-2,-90,0,0,100,0,232,224,24,24,0,-13,-102,0,0,100,0,464,88,48,40,0,-13,-101,0,0,100,0,48,208,40,64,0,-10,-38,0,0,100,0,216,64,40,32,0,-51,-86,0,0,100,0,96,160,64,48,0,-61,-104,0,0,100,0,128,208,56,40,0,-44,-68,0,0,100,0,192,160,32,32,0,-43,-47,0,0,100,0,224,160,32,32,0,-26,-54,0,0,100,0,160,160,32,48,0,-61,-40,0,0,100,0,304,112,56,48,0,-47,-38,0,0,100,0,368,207,16,17,0,-49,-13,0,0,100,0,128,96,40,16,0,-49,-46,0,0,100,0,128,40,40,16,0,-49,-43,0,0,100,0,128,56,40,40,0,-49,-74,0,0,100,0,128,0,40,40,0,-77,-101,0,0,100,0,0,160,64,48,0,-64,-81,0,0,100,0,232,208,24,16,0,-55,-94,0,0,100,0,232,192,24,16,0,-67,-120,0,0,100,0,240,272,80,48,0,-60,-68,0,0,100,0,0,208,48,64,0,-33,-36,0,0,100,0,256,0,32,32,0,23,-40,0,0,100,0,360,112,40,48,0,27,-36,0,0,100,0,416,207,16,17,0,19,-68,0,0,100,0,64,160,32,48,0,25,-29,0,0,100,0,320,0,32,24,0,-72,-24,0,0,65,0,368,0,144,48,0,
0,36,19,-87,0,0,100,0,128,248,32,24,0,3,-113,0,0,100,0,88,208,40,64,0,4,-69,0,0,100,0,0,208,48,64,0,-21,-32,0,0,100,0,400,112,64,48,0,6,-34,0,0,100,0,400,207,16,17,0,-11,-32,0,0,100,0,384,207,16,17,0,-10,-9,0,0,100,0,216,96,40,16,0,-10,-47,0,0,100,0,192,192,40,16,0,-4,-107,0,0,100,0,184,208,48,40,0,-2,-91,0,0,100,0,232,224,24,24,0,-13,-103,0,0,100,0,464,88,48,40,0,-13,-102,0,0,100,0,48,208,40,64,0,-10,-38,0,0,100,0,216,64,40,32,0,-51,-87,0,0,100,0,96,160,64,48,0,-61,-105,0,0,100,0,128,208,56,40,0,-44,-68,0,0,100,0,192,160,32,32,0,-43,-47,0,0,100,0,224,160,32,32,0,-26,-55,0,0,100,0,160,160,32,48,0,-61,-40,0,0,100,0,304,112,56,48,0,-47,-38,0,0,100,0,368,207,16,17,0,-49,-13,0,0,100,0,128,96,40,16,0,-49,-46,0,0,100,0,128,40,40,16,0,-49,-43,0,0,100,0,128,56,40,40,0,-49,-75,0,0,100,0,128,0,40,40,0,-77,-102,0,0,100,0,0,160,64,48,0,-64,-82,0,0,100,0,232,208,24,16,0,-55,-95,0,0,100,0,232,192,24,16,0,-67,-121,0,0,100,0,320,272,80,48,0,-60,-69,0,0,100,0,0,208,48,64,0,-33,-38,0,0,100,0,256,0,32,32,0,-33,-36,0,0,100,0,256,0,32,32,0,23,-40,0,0,100,0,360,112,40,48,0,27,-36,0,0,100,0,416,207,16,17,0,19,-68,0,0,100,0,64,160,32,48,0,25,-29,0,0,100,0,320,0,32,24,0,-72,-24,0,0,65,0,368,0,144,48,0,
0,36,19,-88,0,0,100,0,128,248,32,24,0,3,-114,0,0,100,0,88,208,40,64,0,4,-70,0,0,100,0,0,208,48,64,0,-21,-32,0,0,100,0,400,112,64,48,0,6,-34,0,0,100,0,400,207,16,17,0,-11,-32,0,0,100,0,384,207,16,17,0,-10,-9,0,0,100,0,216,96,40,16,0,-10,-47,0,0,100,0,192,192,40,16,0,-4,-108,0,0,100,0,184,208,48,40,0,-2,-92,0,0,100,0,232,224,24,24,0,-13,-104,0,0,100,0,464,88,48,40,0,-13,-103,0,0,100,0,48,208,40,64,0,-10,-38,0,0,100,0,216,64,40,32,0,-51,-88,0,0,100,0,96,160,64,48,0,-61,-106,0,0,100,0,128,208,56,40,0,-44,-68,0,0,100,0,192,160,32,32,0,-43,-47,0,0,100,0,224,160,32,32,0,-26,-56,0,0,100,0,160,160,32,48,0,-61,-40,0,0,100,0,304,112,56,48,0,-47,-38,0,0,100,0,368,207,16,17,0,-49,-13,0,0,100,0,128,96,40,16,0,-49,-46,0,0,100,0,128,40,40,16,0,-49,-43,0,0,100,0,128,56,40,40,0,-49,-76,0,0,100,0,128,0,40,40,0,-77,-103,0,0,100,0,0,160,64,48,0,-64,-83,0,0,100,0,232,208,24,16,0,-55,-96,0,0,100,0,232,192,24,16,0,-67,-122,0,0,100,0,400,272,80,48,0,-60,-70,0,0,100,0,0,208,48,64,0,-34,-39,0,0,100,0,256,0,32,32,0,-33,-36,0,0,100,0,256,0,32,32,0,23,-40,0,0,100,0,360,112,40,48,0,27,-36,0,0,100,0,416,207,16,17,0,19,-68,0,0,100,0,64,160,32,48,0,25,-29,0,0,100,0,320,0,32,24,0,-72,-24,0,0,65,0,368,0,144,48,0,
0,36,19,-89,0,0,100,0,128,248,32,24,0,3,-115,0,0,100,0,88,208,40,64,0,4,-71,0,0,100,0,0,208,48,64,0,-21,-32,0,0,100,0,400,112,64,48,0,6,-34,0,0,100,0,400,207,16,17,0,-11,-32,0,0,100,0,384,207,16,17,0,-10,-9,0,0,100,0,216,96,40,16,0,-10,-47,0,0,100,0,192,192,40,16,0,-4,-109,0,0,100,0,184,208,48,40,0,-2,-93,0,0,100,0,232,224,24,24,0,-13,-105,0,0,100,0,464,88,48,40,0,-13,-104,0,0,100,0,48,208,40,64,0,-10,-38,0,0,100,0,216,64,40,32,0,-51,-89,0,0,100,0,96,160,64,48,0,-61,-107,0,0,100,0,128,208,56,40,0,-44,-69,0,0,100,0,192,160,32,32,0,-43,-48,0,0,100,0,224,160,32,32,0,-26,-57,0,0,100,0,160,160,32,48,0,-61,-40,0,0,100,0,304,112,56,48,0,-47,-38,0,0,100,0,368,207,16,17,0,-49,-13,0,0,100,0,128,96,40,16,0,-49,-46,0,0,100,0,128,40,40,16,0,-49,-43,0,0,100,0,128,56,40,40,0,-49,-77,0,0,100,0,128,0,40,40,0,-77,-104,0,0,100,0,0,160,64,48,0,-64,-84,0,0,100,0,232,208,24,16,0,-55,-97,0,0,100,0,232,192,24,16,0,-67,-123,0,0,100,0,0,272,80,48,0,-60,-71,0,0,100,0,0,208,48,64,0,-35,-39,0,0,100,0,256,0,32,32,0,-33,-36,0,0,100,0,256,0,32,32,0,23,-40,0,0,100,0,360,112,40,48,0,27,-36,0,0,100,0,416,207,16,17,0,19,-68,0,0,100,0,64,160,32,48,0,25,-29,0,0,100,0,320,0,32,24,0,-72,-24,0,0,65,0,368,0,144,48,0,
0,37,19,-90,0,0,100,0,128,248,32,24,0,3,-116,0,0,100,0,88,208,40,64,0,4,-72,0,0,100,0,0,208,48,64,0,-21,-32,0,0,100,0,400,112,64,48,0,6,-34,0,0,100,0,400,207,16,17,0,-11,-32,0,0,100,0,384,207,16,17,0,-10,-9,0,0,100,0,216,96,40,16,0,-10,-47,0,0,100,0,192,192,40,16,0,-4,-110,0,0,100,0,184,208,48,40,0,-2,-94,0,0,100,0,232,224,24,24,0,-13,-106,0,0,100,0,464,88,48,40,0,-13,-105,0,0,100,0,48,208,40,64,0,-10,-38,0,0,100,0,216,64,40,32,0,-44,-83,0,1,50,0,160,248,48,24,0,-51,-90,0,0,100,0,96,160,64,48,0,-61,-108,0,0,100,0,128,208,56,40,0,-44,-70,0,0,100,0,192,160,32,32,0,-43,-49,0,0,100,0,224,160,32,32,0,-26,-58,0,0,100,0,160,160,32,48,0,-61,-40,0,0,100,0,304,112,56,48,0,-47,-38,0,0,100,0,368,207,16,17,0,-49,-13,0,0,100,0,128,96,40,16,0,-49,-46,0,0,100,0,128,40,40,16,0,-49,-43,0,0,100,0,128,56,40,40,0,-49,-78,0,0,100,0,128,0,40,40,0,-77,-105,0,0,100,0,0,160,64,48,0,-64,-85,0,0,100,0,232,208,24,16,0,-55,-98,0,0,100,0,232,192,24,16,0,-67,-124,0,0,100,0,80,272,80,48,0,-60,-72,0,0,100,0,0,208,48,64,0,-35,-41,0,0,100,0,256,0,32,32,0,-33,-36,0,0,100,0,256,0,32,32,0,23,-40,0,0,100,0,360,112,40,48,0,27,-36,0,0,100,0,416,207,16,17,0,19,-68,0,0,100,0,64,160,32,48,0,25,-29,0,0,100,0,320,0,32,24,0,-72,-24,0,0,65,0,368,0,144,48,0,
0,37,19,-91,0,0,100,0,128,248,32,24,0,3,-117,0,0,100,0,88,208,40,64,0,4,-73,0,0,100,0,0,208,48,64,0,-21,-32,0,0,100,0,400,112,64,48,0,6,-34,0,0,100,0,400,207,16,17,0,-11,-32,0,0,100,0,384,207,16,17,0,-10,-9,0,0,100,0,216,96,40,16,0,-10,-47,0,0,100,0,192,192,40,16,0,-4,-111,0,0,100,0,184,208,48,40,0,-2,-95,0,0,100,0,232,224,24,24,0,-13,-107,0,0,100,0,464,88,48,40,0,-13,-106,0,0,100,0,48,208,40,64,0,-10,-38,0,0,100,0,216,64,40,32,0,-44,-84,0,1,100,0,160,248,48,24,0,-51,-91,0,0,100,0,96,160,64,48,0,-61,-109,0,0,100,0,128,208,56,40,0,-44,-71,0,0,100,0,192,160,32,32,0,-43,-50,0,0,100,0,224,160,32,32,0,-26,-59,0,0,100,0,160,160,32,48,0,-61,-40,0,0,100,0,304,112,56,48,0,-47,-38,0,0,100,0,368,207,16,17,0,-49,-13,0,0,100,0,128,96,40,16,0,-49,-46,0,0,100,0,128,40,40,16,0,-49,-43,0,0,100,0,128,56,40,40,0,-49,-79,0,0,100,0,128,0,40,40,0,-77,-106,0,0,100,0,0,160,64,48,0,-64,-86,0,0,100,0,232,208,24,16,0,-55,-99,0,0,100,0,232,192,24,16,0,-67,-125,0,0,100,0,160,272,80,48,0,-60,-73,0,0,100,0,0,208,48,64,0,-35,-41,0,0,100,0,256,0,32,32,0,-33,-36,0,0,100,0,256,0,32,32,0,23,-40,0,0,100,0,360,112,40,48,0,27,-36,0,0,100,0,416,207,16,17,0,19,-68,0,0,100,0,64,160,32,48,0,25,-29,0,0,100,0,320,0,32,24,0,-72,-24,0,0,65,0,368,0,144,48,0,
0,37,19,-91,0,0,100,0,128,248,32,24,0,3,-117,0,0,100,0,88,208,40,64,0,4,-73,0,0,100,0,0,208,48,64,0,-21,-32,0,0,100,0,400,112,64,48,0,6,-34,0,0,100,0,400,207,16,17,0,-11,-32,0,0,100,0,384,207,16,17,0,-10,-9,0,0,100,0,216,96,40,16,0,-10,-47,0,0,100,0,192,192,40,16,0,-4,-111,0,0,100,0,184,208,48,40,0,-2,-95,0,0,100,0,232,224,24,24,0,-13,-107,0,0,100,0,464,88,48,40,0,-13,-106,0,0,100,0,48,208,40,64,0,-10,-38,0,0,100,0,216,64,40,32,0,-44,-84,0,1,100,0,160,248,48,24,0,-51,-91,0,0,100,0,96,160,64,48,0,-61,-109,0,0,100,0,128,208,56,40,0,-44,-71,0,0,100,0,192,160,32,32,0,-43,-50,0,0,100,0,224,160,32,32,0,-26,-59,0,0,100,0,160,160,32,48,0,-61,-40,0,0,100,0,304,112,56,48,0,-47,-38,0,0,100,0,368,207,16,17,0,-49,-13,0,0,100,0,128,96,40,16,0,-49,-46,0,0,100,0,128,40,40,16,0,-49,-43,0,0,100,0,128,56,40,40,0,-49,-79,0,0,100,0,128,0,40,40,0,-77,-106,0,0,100,0,0,160,64,48,0,-64,-86,0,0,100,0,232,208,24,16,0,-55,-99,0,0,100,0,232,192,24,16,0,-67,-125,0,0,100,0,240,272,80,48,0,-60,-73,0,0,100,0,0,208,48,64,0,-35,-41,0,0,100,0,256,0,32,32,0,-33,-36,0,0,100,0,256,0,32,32,0,23,-40,0,0,100,0,360,112,40,48,0,27,-36,0,0,100,0,416,207,16,17,0,19,-68,0,0,100,0,64,160,32,48,0,25,-29,0,0,100,0,320,0,32,24,0,-72,-24,0,0,65,0,368,0,144,48,0,
0,37,19,-91,0,0,100,0,128,248,32,24,0,3,-117,0,0,100,0,88,208,40,64,0,4,-73,0,0,100,0,0,208,48,64,0,-21,-32,0,0,100,0,400,112,64,48,0,6,-34,0,0,100,0,400,207,16,17,0,-11,-32,0,0,100,0,384,207,16,17,0,-10,-9,0,0,100,0,216,96,40,16,0,-10,-47,0,0,100,0,192,192,40,16,0,-4,-111,0,0,100,0,184,208,48,40,0,-2,-95,0,0,100,0,232,224,24,24,0,-13,-107,0,0,100,0,464,88,48,40,0,-13,-106,0,0,100,0,48,208,40,64,0,-10,-38,0,0,100,0,216,64,40,32,0,-44,-84,0,1,100,0,160,248,48,24,0,-51,-91,0,0,100,0,96,160,64,48,0,-61,-109,0,0,100,0,128,208,56,40,0,-44,-71,0,0,100,0,192,160,32,32,0,-43,-50,0,0,100,0,224,160,32,32,0,-26,-59,0,0,100,0,160,160,32,48,0,-61,-40,0,0,100,0,304,112,56,48,0,-47,-38,0,0,100,0,368,207,16,17,0,-49,-13,0,0,100,0,128,96,40,16,0,-49,-46,0,0,100,0,128,40,40,16,0,-49,-43,0,0,100,0,128,56,40,40,0,-49,-79,0,0,100,0,128,0,40,40,0,-77,-106,0,0,100,0,0,160,64,48,0,-64,-86,0,0,100,0,232,208,24,16,0,-55,-99,0,0,100,0,232,192,24,16,0,-67,-125,0,0,100,0,320,272,80,48,0,-60,-73,0,0,100,0,0,208,48,64,0,-35,-41,0,0,100,0,256,0,32,32,0,-33,-36,0,0,100,0,256,0,32,32,0,23,-40,0,0,100,0,360,112,40,48,0,27,-36,0,0,100,0,416,207,16,17,0,19,-68,0,0,100,0,64,160,32,48,0,25,-29,0,0,100,0,320,0,32,24,0,-72,-24,0,0,65,0,368,0,144,48,0,
0,37,19,-91,0,0,100,0,128,248,32,24,0,3,-117,0,0,100,0,88,208,40,64,0,4,-73,0,0,100,0,0,208,48,64,0,-21,-32,0,0,100,0,400,112,64,48,0,6,-34,0,0,100,0,400,207,16,17,0,-11,-32,0,0,100,0,384,207,16,17,0,-10,-9,0,0,100,0,216,96,40,16,0,-10,-47,0,0,100,0,192,192,40,16,0,-4,-111,0,0,100,0,184,208,48,40,0,-2,-95,0,0,100,0,232,224,24,24,0,-13,-107,0,0,100,0,464,88,48,40,0,-13,-106,0,0,100,0,48,208,40,64,0,-10,-38,0,0,100,0,216,64,40,32,0,-44,-84,0,1,100,0,160,248,48,24,0,-51,-91,0,0,100,0,96,160,64,48,0,-61,-109,0,0,100,0,128,208,56,40,0,-44,-71,0,0,100,0,192,160,32,32,0,-43,-50,0,0,100,0,224,160,32,32,0,-26,-59,0,0,100,0,160,160,32,48,0,-61,-40,0,0,100,0,304,112,56,48,0,-47,-38,0,0,100,0,368,207,16,17,0,-49,-13,0,0,100,0,128,96,40,16,0,-49,-46,0,0,100,0,128,40,40,16,0,-49,-43,0,0,100,0,128,56,40,40,0,-49,-79,0,0,100,0,128,0,40,40,0,-77,-106,0,0,100,0,0,160,64,48,0,-64,-86,0,0,100,0,232,208,24,16,0,-55,-99,0,0,100,0,232,192,24,16,0,-67,-125,0,0,100,0,400,272,80,48,0,-60,-73,0,0,100,0,0,208,48,64,0,-35,-41,0,0,100,0,256,0,32,32,0,-33,-36,0,0,100,0,256,0,32,32,0,23,-40,0,0,100,0,360,112,40,48,0,27,-36,0,0,100,0,416,207,16,17,0,19,-68,0,0,100,0,64,160,32,48,0,25,-29,0,0,100,0,320,0,32,24,0,-72,-24,0,0,65,0,368,0,144,48,0,
0,39,28,-45,0,0,100,0,104,504,40,24,0,-22,-39,0,0,100,0,48,504,56,24,0,-64,-45,0,0,100,0,0,504,48,24,0,-85,-41,0,1,100,0,512,0,176,80,0,19,-77,0,0,100,0,128,248,32,24,0,3,-104,0,0,100,0,88,208,40,64,0,4,-60,0,0,100,0,0,208,48,64,0,-21,-32,0,0,100,0,400,112,64,48,0,6,-32,0,0,100,0,400,207,16,17,0,-11,-30,0,0,100,0,384,207,16,17,0,-10,-9,0,0,100,0,216,96,40,16,0,-10,-43,0,0,100,0,192,192,40,16,0,-4,-97,0,0,100,0,184,208,48,40,0,-2,-81,0,0,100,0,232,224,24,24,0,-13,-91,0,0,100,0,464,88,48,40,0,-13,-93,0,0,100,0,48,208,40,64,0,-10,-34,0,0,100,0,216,64,40,32,0,-51,-77,0,0,100,0,96,160,64,48,0,-61,-95,0,0,100,0,128,208,56,40,0,-44,-60,0,0,100,0,192,160,32,32,0,-43,-41,0,0,100,0,224,160,32,32,0,-26,-45,0,0,100,0,160,160,32,48,0,-61,-40,0,0,100,0,304,112,56,48,0,-47,-36,0,0,100,0,368,207,16,17,0,-49,-13,0,0,100,0,128,96,40,16,0,-49,-42,0,0,100,0,128,40,40,16,0,-49,-39,0,0,100,0,128,56,40,40,0,-49,-66,0,0,100,0,128,0,40,40,0,-77,-93,0,0,100,0,0,160,64,48,0,-64,-72,0,0,100,0,232,208,24,16,0,-55,-85,0,0,100,0,232,192,24,16,0,-67,-111,0,0,100,0,0,272,80,48,0,-60,-60,0,0,100,0,0,208,48,64,0,-33,-36,0,0,100,0,256,0,32,32,0,23,-40,0,0,100,0,360,112,40,48,0,27,-34,0,0,100,0,416,207,16,17,0,19,-63,0,0,100,0,64,160,32,48,0,25,-27,0,0,100,0,320,0,32,24,0,-72,-24,0,0,65,0,368,0,144,48,0,
0,39,28,-37,0,0,100,0,104,528,40,16,0,-20,-32,0,0,100,0,48,528,56,16,0,-65,-34,0,0,100,0,0,528,48,16,0,-85,-41,0,1,100,0,688,0,176,80,0,19,-79,0,0,100,0,128,248,32,24,0,3,-105,0,0,100,0,88,208,40,64,0,4,-61,0,0,100,0,0,208,48,64,0,-21,-32,0,0,100,0,400,112,64,48,0,6,-32,0,0,100,0,400,207,16,17,0,-11,-30,0,0,100,0,384,207,16,17,0,-10,-9,0,0,100,0,216,96,40,16,0,-10,-43,0,0,100,0,192,192,40,16,0,-4,-99,0,0,100,0,184,208,48,40,0,-2,-83,0,0,100,0,232,224,24,24,0,-13,-96,0,0,100,0,464,88,48,40,0,-13,-94,0,0,100,0,48,208,40,64,0,-10,-34,0,0,100,0,216,64,40,32,0,-51,-79,0,0,100,0,96,160,64,48,0,-61,-97,0,0,100,0,128,208,56,40,0,-44,-61,0,0,100,0,192,160,32,32,0,-43,-40,0,0,100,0,224,160,32,32,0,-26,-47,0,0,100,0,160,160,32,48,0,-61,-40,0,0,100,0,304,112,56,48,0,-47,-36,0,0,100,0,368,207,16,17,0,-49,-13,0,0,100,0,128,96,40,16,0,-49,-42,0,0,100,0,128,40,40,16,0,-49,-39,0,0,100,0,128,56,40,40,0,-49,-67,0,0,100,0,128,0,40,40,0,-77,-94,0,0,100,0,0,160,64,48,0,-64,-74,0,0,100,0,232,208,24,16,0,-55,-87,0,0,100,0,232,192,24,16,0,-67,-113,0,0,100,0,80,272,80,48,0,-60,-61,0,0,100,0,0,208,48,64,0,-33,-36,0,0,100,0,256,0,32,32,0,23,-40,0,0,100,0,360,112,40,48,0,27,-34,0,0,100,0,416,207,16,17,0,19,-65,0,0,100,0,64,160,32,48,0,25,-27,0,0,100,0,320,0,32,24,0,-72,-24,0,0,65,0,368,0,144,48,0,
0,39,26,-33,0,0,100,0,272,504,48,16,0,-29,-27,0,0,100,0,200,504,72,16,0,-67,-30,0,0,100,0,144,504,56,16,0,-85,-41,0,1,100,0,864,0,176,80,0,19,-78,0,0,100,0,128,248,32,24,0,3,-104,0,0,100,0,88,208,40,64,0,4,-60,0,0,100,0,0,208,48,64,0,-21,-32,0,0,100,0,400,112,64,48,0,6,-32,0,0,100,0,400,207,16,17,0,-11,-30,0,0,100,0,384,207,16,17,0,-10,-9,0,0,100,0,216,96,40,16,0,-10,-43,0,0,100,0,192,192,40,16,0,-4,-98,0,0,100,0,184,208,48,40,0,-2,-82,0,0,100,0,232,224,24,24,0,-13,-94,0,0,100,0,464,88,48,40,0,-13,-93,0,0,100,0,48,208,40,64,0,-10,-34,0,0,100,0,216,64,40,32,0,-51,-79,0,0,100,0,96,160,64,48,0,-61,-97,0,0,100,0,128,208,56,40,0,-44,-59,0,0,100,0,192,160,32,32,0,-43,-39,0,0,100,0,224,160,32,32,0,-26,-47,0,0,100,0,160,160,32,48,0,-61,-40,0,0,100,0,304,112,56,48,0,-47,-36,0,0,100,0,368,207,16,17,0,-49,-13,0,0,100,0,128,96,40,16,0,-49,-42,0,0,100,0,128,40,40,16,0,-49,-39,0,0,100,0,128,56,40,40,0,-49,-66,0,0,100,0,128,0,40,40,0,-77,-93,0,0,100,0,0,160,64,48,0,-64,-73,0,0,100,0,232,208,24,16,0,-55,-86,0,0,100,0,232,192,24,16,0,-67,-113,0,0,100,0,160,272,80,48,0,-60,-60,0,0,100,0,0,208,48,64,0,-33,-36,0,0,100,0,256,0,32,32,0,23,-40,0,0,100,0,360,112,40,48,0,27,-34,0,0,100,0,416,207,16,17,0,19,-65,0,0,100,0,64,160,32,48,0,25,-27,0,0,100,0,320,0,32,24,0,-72,-24,0,0,65,0,368,0,144,48,0,
0,39,23,-28,0,0,100,0,272,520,48,16,0,-29,-21,0,0,100,0,200,520,72,16,0,-66,-26,0,0,100,0,144,520,56,16,0,-85,-41,0,1,100,0,512,80,176,80,0,19,-78,0,0,100,0,128,248,32,24,0,3,-104,0,0,100,0,88,208,40,64,0,4,-60,0,0,100,0,0,208,48,64,0,-21,-32,0,0,100,0,400,112,64,48,0,6,-32,0,0,100,0,400,207,16,17,0,-11,-30,0,0,100,0,384,207,16,17,0,-10,-9,0,0,100,0,216,96,40,16,0,-10,-43,0,0,100,0,192,192,40,16,0,-4,-98,0,0,100,0,184,208,48,40,0,-2,-82,0,0,100,0,232,224,24,24,0,-13,-94,0,0,100,0,464,88,48,40,0,-13,-93,0,0,100,0,48,208,40,64,0,-10,-34,0,0,100,0,216,64,40,32,0,-51,-79,0,0,100,0,96,160,64,48,0,-61,-97,0,0,100,0,128,208,56,40,0,-44,-59,0,0,100,0,192,160,32,32,0,-43,-39,0,0,100,0,224,160,32,32,0,-26,-47,0,0,100,0,160,160,32,48,0,-61,-40,0,0,100,0,304,112,56,48,0,-47,-36,0,0,100,0,368,207,16,17,0,-49,-13,0,0,100,0,128,96,40,16,0,-49,-42,0,0,100,0,128,40,40,16,0,-49,-39,0,0,100,0,128,56,40,40,0,-49,-66,0,0,100,0,128,0,40,40,0,-77,-93,0,0,100,0,0,160,64,48,0,-64,-73,0,0,100,0,232,208,24,16,0,-55,-86,0,0,100,0,232,192,24,16,0,-67,-113,0,0,100,0,240,272,80,48,0,-60,-60,0,0,100,0,0,208,48,64,0,-33,-36,0,0,100,0,256,0,32,32,0,23,-40,0,0,100,0,360,112,40,48,0,27,-34,0,0,100,0,416,207,16,17,0,19,-65,0,0,100,0,64,160,32,48,0,25,-27,0,0,100,0,320,0,32,24,0,-72,-24,0,0,65,0,368,0,144,48,0,
0,39,19,-21,0,0,100,0,272,536,48,16,0,-28,-14,0,0,100,0,200,536,72,16,0,-65,-20,0,0,100,0,144,536,56,16,0,-85,-41,0,1,100,0,688,80,176,80,0,19,-78,0,0,100,0,128,248,32,24,0,3,-104,0,0,100,0,88,208,40,64,0,4,-60,0,0,100,0,0,208,48,64,0,-21,-32,0,0,100,0,400,112,64,48,0,6,-32,0,0,100,0,400,207,16,17,0,-11,-30,0,0,100,0,384,207,16,17,0,-10,-9,0,0,100,0,216,96,40,16,0,-10,-43,0,0,100,0,192,192,40,16,0,-4,-98,0,0,100,0,184,208,48,40,0,-2,-82,0,0,100,0,232,224,24,24,0,-13,-94,0,0,100,0,464,88,48,40,0,-13,-93,0,0,100,0,48,208,40,64,0,-10,-34,0,0,100,0,216,64,40,32,0,-51,-79,0,0,100,0,96,160,64,48,0,-61,-97,0,0,100,0,128,208,56,40,0,-44,-59,0,0,100,0,192,160,32,32,0,-43,-39,0,0,100,0,224,160,32,32,0,-26,-47,0,0,100,0,160,160,32,48,0,-61,-40,0,0,100,0,304,112,56,48,0,-47,-36,0,0,100,0,368,207,16,17,0,-49,-13,0,0,100,0,128,96,40,16,0,-49,-42,0,0,100,0,128,40,40,16,0,-49,-39,0,0,100,0,128,56,40,40,0,-49,-66,0,0,100,0,128,0,40,40,0,-77,-93,0,0,100,0,0,160,64,48,0,-64,-73,0,0,100,0,232,208,24,16,0,-55,-86,0,0,100,0,232,192,24,16,0,-67,-113,0,0,100,0,320,272,80,48,0,-60,-60,0,0,100,0,0,208,48,64,0,-33,-36,0,0,100,0,256,0,32,32,0,23,-40,0,0,100,0,360,112,40,48,0,27,-34,0,0,100,0,416,207,16,17,0,19,-65,0,0,100,0,64,160,32,48,0,25,-27,0,0,100,0,320,0,32,24,0,-72,-24,0,0,65,0,368,0,144,48,0,
0,36,-85,-41,0,1,100,0,864,80,176,80,0,19,-78,0,0,100,0,128,248,32,24,0,3,-104,0,0,100,0,88,208,40,64,0,4,-60,0,0,100,0,0,208,48,64,0,-21,-32,0,0,100,0,400,112,64,48,0,6,-32,0,0,100,0,400,207,16,17,0,-11,-30,0,0,100,0,384,207,16,17,0,-10,-9,0,0,100,0,216,96,40,16,0,-10,-43,0,0,100,0,192,192,40,16,0,-4,-98,0,0,100,0,184,208,48,40,0,-2,-82,0,0,100,0,232,224,24,24,0,-13,-94,0,0,100,0,464,88,48,40,0,-13,-93,0,0,100,0,48,208,40,64,0,-10,-34,0,0,100,0,216,64,40,32,0,-51,-79,0,0,100,0,96,160,64,48,0,-61,-97,0,0,100,0,128,208,56,40,0,-44,-59,0,0,100,0,192,160,32,32,0,-43,-39,0,0,100,0,224,160,32,32,0,-26,-47,0,0,100,0,160,160,32,48,0,-61,-40,0,0,100,0,304,112,56,48,0,-47,-36,0,0,100,0,368,207,16,17,0,-49,-13,0,0,100,0,128,96,40,16,0,-49,-42,0,0,100,0,128,40,40,16,0,-49,-39,0,0,100,0,128,56,40,40,0,-49,-66,0,0,100,0,128,0,40,40,0,-77,-93,0,0,100,0,0,160,64,48,0,-64,-73,0,0,100,0,232,208,24,16,0,-55,-86,0,0,100,0,232,192,24,16,0,-67,-113,0,0,100,0,400,272,80,48,0,-60,-60,0,0,100,0,0,208,48,64,0,-33,-36,0,0,100,0,256,0,32,32,0,23,-40,0,0,100,0,360,112,40,48,0,27,-34,0,0,100,0,416,207,16,17,0,19,-65,0,0,100,0,64,160,32,48,0,25,-27,0,0,100,0,320,0,32,24,0,-72,-24,0,0,65,0,368,0,144,48,0,
0,36,-85,-41,0,1,100,0,512,160,176,80,0,19,-78,0,0,100,0,128,248,32,24,0,3,-104,0,0,100,0,88,208,40,64,0,4,-60,0,0,100,0,0,208,48,64,0,-21,-32,0,0,100,0,400,112,64,48,0,6,-32,0,0,100,0,400,207,16,17,0,-11,-30,0,0,100,0,384,207,16,17,0,-10,-9,0,0,100,0,216,96,40,16,0,-10,-43,0,0,100,0,192,192,40,16,0,-4,-98,0,0,100,0,184,208,48,40,0,-2,-82,0,0,100,0,232,224,24,24,0,-13,-94,0,0,100,0,464,88,48,40,0,-13,-93,0,0,100,0,48,208,40,64,0,-10,-34,0,0,100,0,216,64,40,32,0,-51,-79,0,0,100,0,96,160,64,48,0,-61,-97,0,0,100,0,128,208,56,40,0,-44,-59,0,0,100,0,192,160,32,32,0,-43,-39,0,0,100,0,224,160,32,32,0,-26,-47,0,0,100,0,160,160,32,48,0,-61,-40,0,0,100,0,304,112,56,48,0,-47,-36,0,0,100,0,368,207,16,17,0,-49,-13,0,0,100,0,128,96,40,16,0,-49,-42,0,0,100,0,128,40,40,16,0,-49,-39,0,0,100,0,128,56,40,40,0,-49,-66,0,0,100,0,128,0,40,40,0,-77,-93,0,0,100,0,0,160,64,48,0,-64,-73,0,0,100,0,232,208,24,16,0,-55,-86,0,0,100,0,232,192,24,16,0,-67,-113,0,0,100,0,0,272,80,48,0,-60,-60,0,0,100,0,0,208,48,64,0,-33,-36,0,0,100,0,256,0,32,32,0,23,-40,0,0,100,0,360,112,40,48,0,27,-34,0,0,100,0,416,207,16,17,0,19,-65,0,0,100,0,64,160,32,48,0,25,-27,0,0,100,0,320,0,32,24,0,-72,-24,0,0,65,0,368,0,144,48,0,
0,36,-85,-41,0,1,100,0,688,160,176,80,0,19,-78,0,0,100,0,128,248,32,24,0,3,-104,0,0,100,0,88,208,40,64,0,4,-60,0,0,100,0,0,208,48,64,0,-21,-32,0,0,100,0,400,112,64,48,0,6,-32,0,0,100,0,400,207,16,17,0,-11,-30,0,0,100,0,384,207,16,17,0,-10,-9,0,0,100,0,216,96,40,16,0,-10,-43,0,0,100,0,192,192,40,16,0,-4,-98,0,0,100,0,184,208,48,40,0,-2,-82,0,0,100,0,232,224,24,24,0,-13,-94,0,0,100,0,464,88,48,40,0,-13,-93,0,0,100,0,48,208,40,64,0,-10,-34,0,0,100,0,216,64,40,32,0,-51,-79,0,0,100,0,96,160,64,48,0,-61,-97,0,0,100,0,128,208,56,40,0,-44,-59,0,0,100,0,192,160,32,32,0,-43,-39,0,0,100,0,224,160,32,32,0,-26,-47,0,0,100,0,160,160,32,48,0,-61,-40,0,0,100,0,304,112,56,48,0,-47,-36,0,0,100,0,368,207,16,17,0,-49,-13,0,0,100,0,128,96,40,16,0,-49,-42,0,0,100,0,128,40,40,16,0,-49,-39,0,0,100,0,128,56,40,40,0,-49,-66,0,0,100,0,128,0,40,40,0,-77,-93,0,0,100,0,0,160,64,48,0,-64,-73,0,0,100,0,232,208,24,16,0,-55,-86,0,0,100,0,232,192,24,16,0,-67,-113,0,0,100,0,80,272,80,48,0,-60,-60,0,0,100,0,0,208,48,64,0,-33,-36,0,0,100,0,256,0,32,32,0,23,-40,0,0,100,0,360,112,40,48,0,27,-34,0,0,100,0,416,207,16,17,0,19,-65,0,0,100,0,64,160,32,48,0,25,-27,0,0,100,0,320,0,32,24,0,-72,-24,0,0,65,0,368,0,144,48,0,
0,37,-85,-41,0,1,100,0,864,160,176,80,0,19,-79,0,0,100,0,128,248,32,24,0,3,-105,0,0,100,0,88,208,40,64,0,4,-61,0,0,100,0,0,208,48,64,0,-21,-32,0,0,100,0,400,112,64,48,0,6,-32,0,0,100,0,400,207,16,17,0,-11,-30,0,0,100,0,384,207,16,17,0,-10,-9,0,0,100,0,216,96,40,16,0,-10,-44,0,0,100,0,192,192,40,16,0,-4,-99,0,0,100,0,184,208,48,40,0,-2,-83,0,0,100,0,232,224,24,24,0,-13,-95,0,0,100,0,464,88,48,40,0,-13,-94,0,0,100,0,48,208,40,64,0,-10,-35,0,0,100,0,216,64,40,32,0,-44,-73,0,0,20,0,208,248,48,24,0,-51,-80,0,0,100,0,96,160,64,48,0,-61,-98,0,0,100,0,128,208,56,40,0,-44,-60,0,0,100,0,192,160,32,32,0,-43,-40,0,0,100,0,224,160,32,32,0,-26,-48,0,0,100,0,160,160,32,48,0,-61,-40,0,0,100,0,304,112,56,48,0,-47,-36,0,0,100,0,368,207,16,17,0,-49,-13,0,0,100,0,128,96,40,16,0,-49,-43,0,0,100,0,128,40,40,16,0,-49,-40,0,0,100,0,128,56,40,40,0,-49,-67,0,0,100,0,128,0,40,40,0,-77,-94,0,0,100,0,0,160,64,48,0,-64,-74,0,0,100,0,232,208,24,16,0,-55,-87,0,0,100,0,232,192,24,16,0,-67,-114,0,0,100,0,160,272,80,48,0,-60,-61,0,0,100,0,0,208,48,64,0,-33,-36,0,0,100,0,256,0,32,32,0,23,-40,0,0,100,0,360,112,40,48,0,27,-34,0,0,100,0,416,207,16,17,0,19,-65,0,0,100,0,64,160,32,48,0,25,-27,0,0,100,0,320,0,32,24,0,-72,-24,0,0,65,0,368,0,144,48,0,
0,37,-85,-41,0,1,100,0,512,240,176,80,0,19,-80,0,0,100,0,128,248,32,24,0,3,-106,0,0,100,0,88,208,40,64,0,4,-62,0,0,100,0,0,208,48,64,0,-21,-32,0,0,100,0,400,112,64,48,0,6,-33,0,0,100,0,400,207,16,17,0,-11,-31,0,0,100,0,384,207,16,17,0,-10,-9,0,0,100,0,216,96,40,16,0,-10,-45,0,0,100,0,192,192,40,16,0,-4,-100,0,0,100,0,184,208,48,40,0,-2,-84,0,0,100,0,232,224,24,24,0,-13,-96,0,0,100,0,464,88,48,40,0,-13,-95,0,0,100,0,48,208,40,64,0,-10,-36,0,0,100,0,216,64,40,32,0,-44,-74,0,0,30,0,208,248,48,24,0,-51,-81,0,0,100,0,96,160,64,48,0,-61,-99,0,0,100,0,128,208,56,40,0,-44,-61,0,0,100,0,192,160,32,32,0,-43,-41,0,0,100,0,224,160,32,32,0,-26,-49,0,0,100,0,160,160,32,48,0,-61,-40,0,0,100,0,304,112,56,48,0,-47,-37,0,0,100,0,368,207,16,17,0,-49,-13,0,0,100,0,128,96,40,16,0,-49,-44,0,0,100,0,128,40,40,16,0,-49,-41,0,0,100,0,128,56,40,40,0,-49,-68,0,0,100,0,128,0,40,40,0,-77,-95,0,0,100,0,0,160,64,48,0,-64,-75,0,0,100,0,232,208,24,16,0,-55,-88,0,0,100,0,232,192,24,16,0,-67,-115,0,0,100,0,240,272,80,48,0,-60,-62,0,0,100,0,0,208,48,64,0,-33,-36,0,0,100,0,256,0,32,32,0,23,-40,0,0,100,0,360,112,40,48,0,27,-35,0,0,100,0,416,207,16,17,0,19,-65,0,0,100,0,64,160,32,48,0,25,-27,0,0,100,0,320,0,32,24,0,-72,-24,0,0,65,0,368,0,144,48,0,
0,37,-85,-41,0,1,100,0,688,240,176,80,0,19,-81,0,0,100,0,128,248,32,24,0,3,-107,0,0,100,0,88,208,40,64,0,4,-63,0,0,100,0,0,208,48,64,0,-21,-32,0,0,100,0,400,112,64,48,0,6,-34,0,0,100,0,400,207,16,17,0,-11,-32,0,0,100,0,384,207,16,17,0,-10,-9,0,0,100,0,216,96,40,16,0,-10,-45,0,0,100,0,192,192,40,16,0,-4,-101,0,0,100,0,184,208,48,40,0,-2,-85,0,0,100,0,232,224,24,24,0,-13,-97,0,0,100,0,464,88,48,40,0,-13,-96,0,0,100,0,48,208,40,64,0,-10,-36,0,0,100,0,216,64,40,32,0,-44,-75,0,0,40,0,208,248,48,24,0,-51,-82,0,0,100,0,96,160,64,48,0,-61,-100,0,0,100,0,128,208,56,40,0,-44,-62,0,0,100,0,192,160,32,32,0,-43,-42,0,0,100,0,224,160,32,32,0,-26,-50,0,0,100,0,160,160,32,48,0,-61,-40,0,0,100,0,304,112,56,48,0,-47,-38,0,0,100,0,368,207,16,17,0,-49,-13,0,0,100,0,128,96,40,16,0,-49,-44,0,0,100,0,128,40,40,16,0,-49,-41,0,0,100,0,128,56,40,40,0,-49,-69,0,0,100,0,128,0,40,40,0,-77,-96,0,0,100,0,0,160,64,48,0,-64,-76,0,0,100,0,232,208,24,16,0,-55,-89,0,0,100,0,232,192,24,16,0,-67,-116,0,0,100,0,320,272,80,48,0,-60,-63,0,0,100,0,0,208,48,64,0,-33,-36,0,0,100,0,256,0,32,32,0,23,-40,0,0,100,0,360,112,40,48,0,27,-36,0,0,100,0,416,207,16,17,0,19,-65,0,0,100,0,64,160,32,48,0,25,-27,0,0,100,0,320,0,32,24,0,-72,-24,0,0,65,0,368,0,144,48,0,
0,37,-85,-41,0,1,100,0,864,240,176,80,0,19,-82,0,0,100,0,128,248,32,24,0,3,-108,0,0,100,0,88,208,40,64,0,4,-64,0,0,100,0,0,208,48,64,0,-21,-32,0,0,100,0,400,112,64,48,0,6,-34,0,0,100,0,400,207,16,17,0,-11,-32,0,0,100,0,384,207,16,17,0,-10,-9,0,0,100,0,216,96,40,16,0,-10,-45,0,0,100,0,192,192,40,16,0,-4,-102,0,0,100,0,184,208,48,40,0,-2,-86,0,0,100,0,232,224,24,24,0,-13,-98,0,0,100,0,464,88,48,40,0,-13,-97,0,0,100,0,48,208,40,64,0,-10,-36,0,0,100,0,216,64,40,32,0,-44,-76,0,0,50,0,208,248,48,24,0,-51,-83,0,0,100,0,96,160,64,48,0,-61,-101,0,0,100,0,128,208,56,40,0,-44,-63,0,0,100,0,192,160,32,32,0,-43,-43,0,0,100,0,224,160,32,32,0,-26,-51,0,0,100,0,160,160,32,48,0,-61,-40,0,0,100,0,304,112,56,48,0,-47,-38,0,0,100,0,368,207,16,17,0,-49,-13,0,0,100,0,128,96,40,16,0,-49,-44,0,0,100,0,128,40,40,16,0,-49,-41,0,0,100,0,128,56,40,40,0,-49,-70,0,0,100,0,128,0,40,40,0,-77,-97,0,0,100,0,0,160,64,48,0,-64,-77,0,0,100,0,232,208,24,16,0,-55,-90,0,0,100,0,232,192,24,16,0,-67,-117,0,0,100,0,400,272,80,48,0,-60,-64,0,0,100,0,0,208,48,64,0,-33,-36,0,0,100,0,256,0,32,32,0,23,-40,0,0,100,0,360,112,40,48,0,27,-36,0,0,100,0,416,207,16,17,0,19,-65,0,0,100,0,64,160,32,48,0,25,-27,0,0,100,0,320,0,32,24,0,-72,-24,0,0,65,0,368,0,144,48,0,
0,36,19,-83,0,0,100,0,128,248,32,24,0,3,-109,0,0,100,0,88,208,40,64,0,4,-65,0,0,100,0,0,208,48,64,0,-21,-32,0,0,100,0,400,112,64,48,0,6,-34,0,0,100,0,400,207,16,17,0,-11,-32,0,0,100,0,384,207,16,17,0,-10,-9,0,0,100,0,216,96,40,16,0,-10,-45,0,0,100,0,192,192,40,16,0,-4,-103,0,0,100,0,184,208,48,40,0,-2,-87,0,0,100,0,232,224,24,24,0,-13,-99,0,0,100,0,464,88,48,40,0,-13,-98,0,0,100,0,48,208,40,64,0,-10,-36,0,0,100,0,216,64,40,32,0,-44,-76,0,0,60,0,208,248,48,24,0,-51,-83,0,0,100,0,96,160,64,48,0,-61,-101,0,0,100,0,128,208,56,40,0,-44,-64,0,0,100,0,192,160,32,32,0,-43,-44,0,0,100,0,224,160,32,32,0,-26,-51,0,0,100,0,160,160,32,48,0,-61,-40,0,0,100,0,304,112,56,48,0,-47,-38,0,0,100,0,368,207,16,17,0,-49,-13,0,0,100,0,128,96,40,16,0,-49,-44,0,0,100,0,128,40,40,16,0,-49,-41,0,0,100,0,128,56,40,40,0,-49,-71,0,0,100,0,128,0,40,40,0,-77,-98,0,0,100,0,0,160,64,48,0,-64,-78,0,0,100,0,232,208,24,16,0,-55,-91,0,0,100,0,232,192,24,16,0,-67,-117,0,0,100,0,0,272,80,48,0,-60,-65,0,0,100,0,0,208,48,64,0,-33,-36,0,0,100,0,256,0,32,32,0,23,-40,0,0,100,0,360,112,40,48,0,27,-36,0,0,100,0,416,207,16,17,0,19,-65,0,0,100,0,64,160,32,48,0,25,-27,0,0,100,0,320,0,32,24,0,-72,-24,0,0,65,0,368,0,144,48,0,
0,36,19,-84,0,0,100,0,128,248,32,24,0,3,-110,0,0,100,0,88,208,40,64,0,4,-66,0,0,100,0,0,208,48,64,0,-21,-32,0,0,100,0,400,112,64,48,0,6,-34,0,0,100,0,400,207,16,17,0,-11,-32,0,0,100,0,384,207,16,17,0,-10,-9,0,0,100,0,216,96,40,16,0,-10,-45,0,0,100,0,192,192,40,16,0,-4,-104,0,0,100,0,184,208,48,40,0,-2,-88,0,0,100,0,232,224,24,24,0,-13,-100,0,0,100,0,464,88,48,40,0,-13,-99,0,0,100,0,48,208,40,64,0,-10,-36,0,0,100,0,216,64,40,32,0,-44,-76,0,0,70,0,208,248,48,24,0,-51,-83,0,0,100,0,96,160,64,48,0,-61,-101,0,0,100,0,128,208,56,40,0,-44,-65,0,0,100,0,192,160,32,32,0,-43,-45,0,0,100,0,224,160,32,32,0,-26,-51,0,0,100,0,160,160,32,48,0,-61,-40,0,0,100,0,304,112,56,48,0,-47,-38,0,0,100,0,368,207,16,17,0,-49,-13,0,0,100,0,128,96,40,16,0,-49,-44,0,0,100,0,128,40,40,16,0,-49,-72,0,0,100,0,128,0,40,40,0,-49,-41,0,0,100,0,128,56,40,40,0,-77,-99,0,0,100,0,0,160,64,48,0,-64,-79,0,0,100,0,232,208,24,16,0,-55,-92,0,0,100,0,232,192,24,16,0,-67,-117,0,0,100,0,80,272,80,48,0,-60,-66,0,0,100,0,0,208,48,64,0,-33,-36,0,0,100,0,256,0,32,32,0,23,-40,0,0,100,0,360,112,40,48,0,27,-36,0,0,100,0,416,207,16,17,0,19,-65,0,0,100,0,64,160,32,48,0,25,-27,0,0,100,0,320,0,32,24,0,-72,-24,0,0,65,0,368,0,144,48,0,
0,36,19,-84,0,0,100,0,128,248,32,24,0,3,-110,0,0,100,0,88,208,40,64,0,4,-66,0,0,100,0,0,208,48,64,0,-21,-32,0,0,100,0,400,112,64,48,0,6,-34,0,0,100,0,400,207,16,17,0,-11,-32,0,0,100,0,384,207,16,17,0,-10,-9,0,0,100,0,216,96,40,16,0,-10,-45,0,0,100,0,192,192,40,16,0,-4,-104,0,0,100,0,184,208,48,40,0,-2,-88,0,0,100,0,232,224,24,24,0,-13,-100,0,0,100,0,464,88,48,40,0,-13,-99,0,0,100,0,48,208,40,64,0,-10,-36,0,0,100,0,216,64,40,32,0,-44,-76,0,0,80,0,208,248,48,24,0,-51,-83,0,0,100,0,96,160,64,48,0,-61,-101,0,0,100,0,128,208,56,40,0,-44,-66,0,0,100,0,192,160,32,32,0,-43,-46,0,0,100,0,224,160,32,32,0,-26,-51,0,0,100,0,160,160,32,48,0,-61,-40,0,0,100,0,304,112,56,48,0,-47,-38,0,0,100,0,368,207,16,17,0,-49,-13,0,0,100,0,128,96,40,16,0,-49,-44,0,0,100,0,128,40,40,16,0,-49,-72,0,0,100,0,128,0,40,40,0,-49,-41,0,0,100,0,128,56,40,40,0,-77,-99,0,0,100,0,0,160,64,48,0,-64,-79,0,0,100,0,232,208,24,16,0,-55,-92,0,0,100,0,232,192,24,16,0,-67,-117,0,0,100,0,160,272,80,48,0,-60,-66,0,0,100,0,0,208,48,64,0,-33,-36,0,0,100,0,256,0,32,32,0,23,-40,0,0,100,0,360,112,40,48,0,27,-36,0,0,100,0,416,207,16,17,0,19,-65,0,0,100,0,64,160,32,48,0,25,-27,0,0,100,0,320,0,32,24,0,-72,-24,0,0,65,0,368,0,144,48,0,
0,36,19,-84,0,0,100,0,128,248,32,24,0,3,-110,0,0,100,0,88,208,40,64,0,4,-66,0,0,100,0,0,208,48,64,0,-21,-32,0,0,100,0,400,112,64,48,0,6,-34,0,0,100,0,400,207,16,17,0,-11,-32,0,0,100,0,384,207,16,17,0,-10,-9,0,0,100,0,216,96,40,16,0,-10,-45,0,0,100,0,192,192,40,16,0,-4,-104,0,0,100,0,184,208,48,40,0,-2,-88,0,0,100,0,232,224,24,24,0,-13,-100,0,0,100,0,464,88,48,40,0,-13,-99,0,0,100,0,48,208,40,64,0,-10,-36,0,0,100,0,216,64,40,32,0,-44,-76,0,0,90,0,208,248,48,24,0,-51,-83,0,0,100,0,96,160,64,48,0,-61,-101,0,0,100,0,128,208,56,40,0,-44,-66,0,0,100,0,192,160,32,32,0,-43,-47,0,0,100,0,224,160,32,32,0,-26,-51,0,0,100,0,160,160,32,48,0,-61,-40,0,0,100,0,304,112,56,48,0,-47,-38,0,0,100,0,368,207,16,17,0,-49,-13,0,0,100,0,128,96,40,16,0,-49,-44,0,0,100,0,128,40,40,16,0,-49,-72,0,0,100,0,128,0,40,40,0,-49,-41,0,0,100,0,128,56,40,40,0,-77,-99,0,0,100,0,0,160,64,48,0,-64,-79,0,0,100,0,232,208,24,16,0,-55,-92,0,0,100,0,232,192,24,16,0,-67,-117,0,0,100,0,240,272,80,48,0,-60,-66,0,0,100,0,0,208,48,64,0,-33,-36,0,0,100,0,256,0,32,32,0,23,-40,0,0,100,0,360,112,40,48,0,27,-36,0,0,100,0,416,207,16,17,0,19,-65,0,0,100,0,64,160,32,48,0,25,-27,0,0,100,0,320,0,32,24,0,-72,-24,0,0,65,0,368,0,144,48,0,
0,36,19,-84,0,0,100,0,128,248,32,24,0,3,-110,0,0,100,0,88,208,40,64,0,4,-66,0,0,100,0,0,208,48,64,0,-21,-32,0,0,100,0,400,112,64,48,0,6,-34,0,0,100,0,400,207,16,17,0,-11,-32,0,0,100,0,384,207,16,17,0,-10,-9,0,0,100,0,216,96,40,16,0,-10,-45,0,0,100,0,192,192,40,16,0,-4,-104,0,0,100,0,184,208,48,40,0,-2,-88,0,0,100,0,232,224,24,24,0,-13,-100,0,0,100,0,464,88,48,40,0,-13,-99,0,0,100,0,48,208,40,64,0,-10,-36,0,0,100,0,216,64,40,32,0,-44,-76,0,0,100,0,208,248,48,24,0,-51,-83,0,0,100,0,96,160,64,48,0,-61,-101,0,0,100,0,128,208,56,40,0,-44,-66,0,0,100,0,192,160,32,32,0,-43,-47,0,0,100,0,224,160,32,32,0,-26,-51,0,0,100,0,160,160,32,48,0,-61,-40,0,0,100,0,304,112,56,48,0,-47,-38,0,0,100,0,368,207,16,17,0,-49,-13,0,0,100,0,128,96,40,16,0,-49,-44,0,0,100,0,128,40,40,16,0,-49,-72,0,0,100,0,128,0,40,40,0,-49,-41,0,0,100,0,128,56,40,40,0,-77,-99,0,0,100,0,0,160,64,48,0,-64,-79,0,0,100,0,232,208,24,16,0,-55,-92,0,0,100,0,232,192,24,16,0,-67,-117,0,0,100,0,320,272,80,48,0,-60,-66,0,0,100,0,0,208,48,64,0,-33,-36,0,0,100,0,256,0,32,32,0,23,-40,0,0,100,0,360,112,40,48,0,27,-36,0,0,100,0,416,207,16,17,0,19,-65,0,0,100,0,64,160,32,48,0,25,-27,0,0,100,0,320,0,32,24,0,-72,-24,0,0,65,0,368,0,144,48,0,
0,36,19,-84,0,0,100,0,128,248,32,24,0,3,-110,0,0,100,0,88,208,40,64,0,4,-66,0,0,100,0,0,208,48,64,0,-21,-32,0,0,100,0,400,112,64,48,0,6,-34,0,0,100,0,400,207,16,17,0,-11,-32,0,0,100,0,384,207,16,17,0,-10,-9,0,0,100,0,216,96,40,16,0,-10,-45,0,0,100,0,192,192,40,16,0,-4,-104,0,0,100,0,184,208,48,40,0,-2,-88,0,0,100,0,232,224,24,24,0,-13,-100,0,0,100,0,464,88,48,40,0,-13,-99,0,0,100,0,48,208,40,64,0,-10,-36,0,0,100,0,216,64,40,32,0,-44,-76,0,0,100,0,208,248,48,24,0,-51,-83,0,0,100,0,96,160,64,48,0,-61,-101,0,0,100,0,128,208,56,40,0,-44,-66,0,0,100,0,192,160,32,32,0,-43,-47,0,0,100,0,224,160,32,32,0,-26,-51,0,0,100,0,160,160,32,48,0,-61,-40,0,0,100,0,304,112,56,48,0,-47,-38,0,0,100,0,368,207,16,17,0,-49,-13,0,0,100,0,128,96,40,16,0,-49,-44,0,0,100,0,128,40,40,16,0,-49,-72,0,0,100,0,128,0,40,40,0,-49,-41,0,0,100,0,128,56,40,40,0,-77,-99,0,0,100,0,0,160,64,48,0,-64,-79,0,0,100,0,232,208,24,16,0,-55,-92,0,0,100,0,232,192,24,16,0,-67,-117,0,0,100,0,400,272,80,48,0,-60,-66,0,0,100,0,0,208,48,64,0,-33,-36,0,0,100,0,256,0,32,32,0,23,-40,0,0,100,0,360,112,40,48,0,27,-36,0,0,100,0,416,207,16,17,0,19,-65,0,0,100,0,64,160,32,48,0,25,-27,0,0,100,0,320,0,32,24,0,-72,-24,0,0,65,0,368,0,144,48,0,
0,36,19,-84,0,0,100,0,128,248,32,24,0,3,-110,0,0,100,0,88,208,40,64,0,4,-66,0,0,100,0,0,208,48,64,0,-21,-32,0,0,100,0,400,112,64,48,0,6,-34,0,0,100,0,400,207,16,17,0,-11,-32,0,0,100,0,384,207,16,17,0,-10,-9,0,0,100,0,216,96,40,16,0,-10,-45,0,0,100,0,192,192,40,16,0,-4,-104,0,0,100,0,184,208,48,40,0,-2,-88,0,0,100,0,232,224,24,24,0,-13,-100,0,0,100,0,464,88,48,40,0,-13,-99,0,0,100,0,48,208,40,64,0,-10,-36,0,0,100,0,216,64,40,32,0,-44,-76,0,0,100,0,208,248,48,24,0,-51,-83,0,0,100,0,96,160,64,48,0,-61,-101,0,0,100,0,128,208,56,40,0,-44,-66,0,0,100,0,192,160,32,32,0,-43,-47,0,0,100,0,224,160,32,32,0,-26,-51,0,0,100,0,160,160,32,48,0,-61,-40,0,0,100,0,304,112,56,48,0,-47,-38,0,0,100,0,368,207,16,17,0,-49,-13,0,0,100,0,128,96,40,16,0,-49,-44,0,0,100,0,128,40,40,16,0,-49,-72,0,0,100,0,128,0,40,40,0,-49,-41,0,0,100,0,128,56,40,40,0,-77,-99,0,0,100,0,0,160,64,48,0,-64,-79,0,0,100,0,232,208,24,16,0,-55,-92,0,0,100,0,232,192,24,16,0,-67,-117,0,0,100,0,0,272,80,48,0,-60,-66,0,0,100,0,0,208,48,64,0,-33,-36,0,0,100,0,256,0,32,32,0,23,-40,0,0,100,0,360,112,40,48,0,27,-36,0,0,100,0,416,207,16,17,0,19,-65,0,0,100,0,64,160,32,48,0,25,-27,0,0,100,0,320,0,32,24,0,-72,-24,0,0,65,0,368,0,144,48,0,
0,36,19,-84,0,0,100,0,128,248,32,24,0,3,-110,0,0,100,0,88,208,40,64,0,4,-66,0,0,100,0,0,208,48,64,0,-21,-32,0,0,100,0,400,112,64,48,0,6,-34,0,0,100,0,400,207,16,17,0,-11,-32,0,0,100,0,384,207,16,17,0,-10,-9,0,0,100,0,216,96,40,16,0,-10,-45,0,0,100,0,192,192,40,16,0,-4,-104,0,0,100,0,184,208,48,40,0,-2,-88,0,0,100,0,232,224,24,24,0,-13,-100,0,0,100,0,464,88,48,40,0,-13,-99,0,0,100,0,48,208,40,64,0,-10,-36,0,0,100,0,216,64,40,32,0,-44,-76,0,0,100,0,208,248,48,24,0,-51,-83,0,0,100,0,96,160,64,48,0,-61,-101,0,0,100,0,128,208,56,40,0,-44,-66,0,0,100,0,192,160,32,32,0,-43,-47,0,0,100,0,224,160,32,32,0,-26,-51,0,0,100,0,160,160,32,48,0,-61,-40,0,0,100,0,304,112,56,48,0,-47,-38,0,0,100,0,368,207,16,17,0,-49,-13,0,0,100,0,128,96,40,16,0,-49,-44,0,0,100,0,128,40,40,16,0,-49,-72,0,0,100,0,128,0,40,40,0,-49,-41,0,0,100,0,128,56,40,40,0,-77,-99,0,0,100,0,0,160,64,48,0,-64,-79,0,0,100,0,232,208,24,16,0,-55,-92,0,0,100,0,232,192,24,16,0,-67,-117,0,0,100,0,80,272,80,48,0,-60,-66,0,0,100,0,0,208,48,64,0,-33,-36,0,0,100,0,256,0,32,32,0,23,-40,0,0,100,0,360,112,40,48,0,27,-36,0,0,100,0,416,207,16,17,0,19,-65,0,0,100,0,64,160,32,48,0,25,-27,0,0,100,0,320,0,32,24,0,-72,-24,0,0,65,0,368,0,144,48,0,
0,36,19,-84,0,0,100,0,128,248,32,24,0,3,-110,0,0,100,0,88,208,40,64,0,4,-66,0,0,100,0,0,208,48,64,0,-21,-32,0,0,100,0,400,112,64,48,0,6,-34,0,0,100,0,400,207,16,17,0,-11,-32,0,0,100,0,384,207,16,17,0,-10,-9,0,0,100,0,216,96,40,16,0,-10,-45,0,0,100,0,192,192,40,16,0,-4,-104,0,0,100,0,184,208,48,40,0,-2,-88,0,0,100,0,232,224,24,24,0,-13,-100,0,0,100,0,464,88,48,40,0,-13,-99,0,0,100,0,48,208,40,64,0,-10,-36,0,0,100,0,216,64,40,32,0,-44,-76,0,0,100,0,208,248,48,24,0,-51,-83,0,0,100,0,96,160,64,48,0,-61,-101,0,0,100,0,128,208,56,40,0,-44,-66,0,0,100,0,192,160,32,32,0,-43,-47,0,0,100,0,224,160,32,32,0,-26,-51,0,0,100,0,160,160,32,48,0,-61,-40,0,0,100,0,304,112,56,48,0,-47,-38,0,0,100,0,368,207,16,17,0,-49,-13,0,0,100,0,128,96,40,16,0,-49,-44,0,0,100,0,128,40,40,16,0,-49,-72,0,0,100,0,128,0,40,40,0,-49,-41,0,0,100,0,128,56,40,40,0,-77,-99,0,0,100,0,0,160,64,48,0,-64,-79,0,0,100,0,232,208,24,16,0,-55,-92,0,0,100,0,232,192,24,16,0,-67,-117,0,0,100,0,160,272,80,48,0,-60,-66,0,0,100,0,0,208,48,64,0,-33,-36,0,0,100,0,256,0,32,32,0,23,-40,0,0,100,0,360,112,40,48,0,27,-36,0,0,100,0,416,207,16,17,0,19,-65,0,0,100,0,64,160,32,48,0,25,-27,0,0,100,0,320,0,32,24,0,-72,-24,0,0,65,0,368,0,144,48,0,
0,36,19,-84,0,0,100,0,128,248,32,24,0,3,-110,0,0,100,0,88,208,40,64,0,4,-66,0,0,100,0,0,208,48,64,0,-21,-32,0,0,100,0,400,112,64,48,0,6,-34,0,0,100,0,400,207,16,17,0,-11,-32,0,0,100,0,384,207,16,17,0,-10,-9,0,0,100,0,216,96,40,16,0,-10,-45,0,0,100,0,192,192,40,16,0,-4,-104,0,0,100,0,184,208,48,40,0,-2,-88,0,0,100,0,232,224,24,24,0,-13,-100,0,0,100,0,464,88,48,40,0,-13,-99,0,0,100,0,48,208,40,64,0,-10,-36,0,0,100,0,216,64,40,32,0,-44,-76,0,0,100,0,208,248,48,24,0,-51,-83,0,0,100,0,96,160,64,48,0,-61,-101,0,0,100,0,128,208,56,40,0,-44,-66,0,0,100,0,192,160,32,32,0,-43,-47,0,0,100,0,224,160,32,32,0,-26,-51,0,0,100,0,160,160,32,48,0,-61,-40,0,0,100,0,304,112,56,48,0,-47,-38,0,0,100,0,368,207,16,17,0,-49,-13,0,0,100,0,128,96,40,16,0,-49,-44,0,0,100,0,128,40,40,16,0,-49,-72,0,0,100,0,128,0,40,40,0,-49,-41,0,0,100,0,128,56,40,40,0,-77,-99,0,0,100,0,0,160,64,48,0,-64,-79,0,0,100,0,232,208,24,16,0,-55,-92,0,0,100,0,232,192,24,16,0,-67,-117,0,0,100,0,240,272,80,48,0,-60,-66,0,0,100,0,0,208,48,64,0,-33,-36,0,0,100,0,256,0,32,32,0,23,-40,0,0,100,0,360,112,40,48,0,27,-36,0,0,100,0,416,207,16,17,0,19,-65,0,0,100,0,64,160,32,48,0,25,-27,0,0,100,0,320,0,32,24,0,-72,-24,0,0,65,0,368,0,144,48,0,
0,36,19,-84,0,0,100,0,128,248,32,24,0,3,-110,0,0,100,0,88,208,40,64,0,4,-66,0,0,100,0,0,208,48,64,0,-21,-32,0,0,100,0,400,112,64,48,0,6,-34,0,0,100,0,400,207,16,17,0,-11,-32,0,0,100,0,384,207,16,17,0,-10,-9,0,0,100,0,216,96,40,16,0,-10,-45,0,0,100,0,192,192,40,16,0,-4,-104,0,0,100,0,184,208,48,40,0,-2,-88,0,0,100,0,232,224,24,24,0,-13,-100,0,0,100,0,464,88,48,40,0,-13,-99,0,0,100,0,48,208,40,64,0,-10,-36,0,0,100,0,216,64,40,32,0,-44,-76,0,0,100,0,208,248,48,24,0,-51,-83,0,0,100,0,96,160,64,48,0,-61,-101,0,0,100,0,128,208,56,40,0,-44,-66,0,0,100,0,192,160,32,32,0,-43,-47,0,0,100,0,224,160,32,32,0,-26,-51,0,0,100,0,160,160,32,48,0,-61,-40,0,0,100,0,304,112,56,48,0,-47,-38,0,0,100,0,368,207,16,17,0,-49,-13,0,0,100,0,128,96,40,16,0,-49,-44,0,0,100,0,128,40,40,16,0,-49,-72,0,0,100,0,128,0,40,40,0,-49,-41,0,0,100,0,128,56,40,40,0,-77,-99,0,0,100,0,0,160,64,48,0,-64,-79,0,0,100,0,232,208,24,16,0,-55,-92,0,0,100,0,232,192,24,16,0,-67,-117,0,0,100,0,320,272,80,48,0,-60,-66,0,0,100,0,0,208,48,64,0,-33,-36,0,0,100,0,256,0,32,32,0,23,-40,0,0,100,0,360,112,40,48,0,27,-36,0,0,100,0,416,207,16,17,0,19,-65,0,0,100,0,64,160,32,48,0,25,-27,0,0,100,0,320,0,32,24,0,-72,-24,0,0,65,0,368,0,144,48,0,
0,35,19,-84,0,0,100,0,128,248,32,24,0,3,-110,0,0,100,0,88,208,40,64,0,4,-66,0,0,100,0,0,208,48,64,0,-21,-32,0,0,100,0,400,112,64,48,0,6,-34,0,0,100,0,400,207,16,17,0,-11,-32,0,0,100,0,384,207,16,17,0,-10,-9,0,0,100,0,216,96,40,16,0,-10,-45,0,0,100,0,192,192,40,16,0,-2,-88,0,0,100,0,232,224,24,24,0,-4,-104,0,0,100,0,184,208,48,40,0,-13,-100,0,0,100,0,464,88,48,40,0,-13,-99,0,0,100,0,48,208,40,64,0,-10,-36,0,0,100,0,216,64,40,32,0,-51,-83,0,0,100,0,96,160,64,48,0,-61,-101,0,0,100,0,128,208,56,40,0,-44,-66,0,0,100,0,192,160,32,32,0,-43,-47,0,0,100,0,224,160,32,32,0,-26,-51,0,0,100,0,160,160,32,48,0,-61,-40,0,0,100,0,304,112,56,48,0,-47,-38,0,0,100,0,368,207,16,17,0,-49,-13,0,0,100,0,128,96,40,16,0,-49,-44,0,0,100,0,128,40,40,16,0,-49,-72,0,0,100,0,128,0,40,40,0,-49,-41,0,0,100,0,128,56,40,40,0,-77,-99,0,0,100,0,0,160,64,48,0,-64,-79,0,0,100,0,232,208,24,16,0,-55,-92,0,0,100,0,232,192,24,16,0,-67,-117,0,0,100,0,0,272,80,48,0,-60,-66,0,0,100,0,0,208,48,64,0,-33,-36,0,0,100,0,256,0,32,32,0,23,-40,0,0,100,0,360,112,40,48,0,27,-36,0,0,100,0,416,207,16,17,0,19,-65,0,0,100,0,64,160,32,48,0,25,-27,0,0,100,0,320,0,32,24,0,-72,-24,0,0,65,0,368,0,144,48,0,
0,38,-20,-23,0,0,100,0,360,160,56,16,0,21,-86,0,0,100,0,128,248,32,24,0,3,-112,0,0,100,0,88,208,40,64,0,4,-67,0,0,100,0,0,208,48,64,0,-21,-32,0,0,100,0,400,112,64,48,0,5,-33,0,0,100,0,400,207,16,17,0,-12,-31,0,0,100,0,384,207,16,17,0,-10,-9,0,0,100,0,216,96,40,16,0,-11,-44,0,0,100,0,192,192,40,16,0,-2,-90,0,0,100,0,232,224,24,24,0,-3,-106,0,0,100,0,184,208,48,40,0,-14,-98,0,0,100,0,464,88,48,40,0,-11,-35,0,0,100,0,216,64,40,32,0,-14,-97,0,0,100,0,48,208,40,64,0,-52,-82,0,0,100,0,96,160,64,48,0,-62,-100,0,0,100,0,128,208,56,40,0,-45,-65,0,0,100,0,192,160,32,32,0,-44,-45,0,0,100,0,224,160,32,32,0,-27,-50,0,0,100,0,160,160,32,48,0,-64,-26,0,0,100,0,304,160,56,16,0,-61,-40,0,0,100,0,304,112,56,48,0,-48,-37,0,0,100,0,368,207,16,17,0,-49,-13,0,0,100,0,128,96,40,16,0,-50,-43,0,0,100,0,128,40,40,16,0,-50,-69,0,0,100,0,128,0,40,40,0,-50,-40,0,0,100,0,128,56,40,40,0,-77,-101,0,0,100,0,0,160,64,48,0,-64,-81,0,0,100,0,232,208,24,16,0,-54,-94,0,0,100,0,232,192,24,16,0,-68,-116,0,0,100,0,80,272,80,48,0,-60,-67,0,0,100,0,0,208,48,64,0,-33,-36,0,0,100,0,256,0,32,32,0,18,-30,0,0,100,0,416,160,48,16,0,23,-40,0,0,100,0,360,112,40,48,0,26,-35,0,0,100,0,416,207,16,17,0,19,-64,0,0,100,0,64,160,32,48,0,25,-27,0,0,100,0,320,0,32,24,0,-72,-24,0,0,65,0,368,0,144,48,0,
0,38,-22,-17,0,0,100,0,360,176,64,16,0,23,-88,0,0,100,0,128,248,32,24,0,3,-115,0,0,100,0,88,208,40,64,0,4,-68,0,0,100,0,0,208,48,64,0,-21,-32,0,0,100,0,400,112,64,48,0,5,-32,0,0,100,0,400,207,16,17,0,-12,-30,0,0,100,0,384,207,16,17,0,-10,-9,0,0,100,0,216,96,40,16,0,-11,-42,0,0,100,0,192,192,40,16,0,-2,-92,0,0,100,0,232,224,24,24,0,-2,-108,0,0,100,0,184,208,48,40,0,-14,-95,0,0,100,0,464,88,48,40,0,-11,-33,0,0,100,0,216,64,40,32,0,-14,-94,0,0,100,0,48,208,40,64,0,-52,-80,0,0,100,0,96,160,64,48,0,-62,-98,0,0,100,0,128,208,56,40,0,-45,-63,0,0,100,0,192,160,32,32,0,-44,-43,0,0,100,0,224,160,32,32,0,-27,-48,0,0,100,0,160,160,32,48,0,-64,-21,0,0,100,0,304,176,56,16,0,-61,-40,0,0,100,0,304,112,56,48,0,-48,-36,0,0,100,0,368,207,16,17,0,-49,-13,0,0,100,0,128,96,40,16,0,-50,-41,0,0,100,0,128,40,40,16,0,-50,-39,0,0,100,0,128,56,40,40,0,-50,-64,0,0,100,0,128,0,40,40,0,-77,-104,0,0,100,0,0,160,64,48,0,-64,-83,0,0,100,0,232,208,24,16,0,-53,-96,0,0,100,0,232,192,24,16,0,-68,-114,0,0,100,0,160,272,80,48,0,-60,-68,0,0,100,0,0,208,48,64,0,-33,-36,0,0,100,0,256,0,32,32,0,18,-29,0,0,100,0,424,176,48,16,0,23,-40,0,0,100,0,360,112,40,48,0,26,-34,0,0,100,0,416,207,16,17,0,19,-63,0,0,100,0,64,160,32,48,0,25,-27,0,0,100,0,320,0,32,24,0,-72,-24,0,0,65,0,368,0,144,48,0,
0,38,-21,-12,0,0,100,0,360,192,64,16,0,25,-90,0,0,100,0,128,248,32,24,0,3,-118,0,0,100,0,88,208,40,64,0,4,-69,0,0,100,0,0,208,48,64,0,-21,-32,0,0,100,0,400,112,64,48,0,5,-32,0,0,100,0,400,207,16,17,0,-12,-30,0,0,100,0,384,207,16,17,0,-10,-9,0,0,100,0,216,96,40,16,0,-11,-39,0,0,100,0,192,192,40,16,0,-2,-94,0,0,100,0,232,224,24,24,0,-1,-110,0,0,100,0,184,208,48,40,0,-14,-94,0,0,100,0,464,88,48,40,0,-11,-30,0,0,100,0,216,64,40,32,0,-14,-88,0,0,100,0,48,208,40,64,0,-52,-79,0,0,100,0,96,160,64,48,0,-62,-97,0,0,100,0,128,208,56,40,0,-45,-62,0,0,100,0,192,160,32,32,0,-44,-42,0,0,100,0,224,160,32,32,0,-27,-47,0,0,100,0,160,160,32,48,0,-64,-17,0,0,100,0,304,192,56,16,0,-61,-40,0,0,100,0,304,112,56,48,0,-48,-36,0,0,100,0,368,207,16,17,0,-49,-13,0,0,100,0,128,96,40,16,0,-50,-38,0,0,100,0,128,40,40,16,0,-50,-35,0,0,100,0,128,56,40,40,0,-50,-59,0,0,100,0,128,0,40,40,0,-77,-107,0,0,100,0,0,160,64,48,0,-64,-85,0,0,100,0,232,208,24,16,0,-52,-98,0,0,100,0,232,192,24,16,0,-68,-113,0,0,100,0,240,272,80,48,0,-60,-69,0,0,100,0,0,208,48,64,0,-33,-36,0,0,100,0,256,0,32,32,0,19,-26,0,0,100,0,424,192,48,16,0,23,-40,0,0,100,0,360,112,40,48,0,26,-34,0,0,100,0,416,207,16,17,0,19,-62,0,0,100,0,64,160,32,48,0,25,-27,0,0,100,0,320,0,32,24,0,-72,-24,0,0,65,0,368,0,144,48,0,
0,35,27,-92,0,0,100,0,128,248,32,24,0,3,-117,0,0,100,0,88,208,40,64,0,4,-69,0,0,100,0,0,208,48,64,0,-21,-32,0,0,100,0,400,112,64,48,0,5,-32,0,0,100,0,400,207,16,17,0,-12,-30,0,0,100,0,384,207,16,17,0,-10,-9,0,0,100,0,216,96,40,16,0,-11,-38,0,0,100,0,192,192,40,16,0,-2,-96,0,0,100,0,232,224,24,24,0,0,-112,0,0,100,0,184,208,48,40,0,-14,-93,0,0,100,0,464,88,48,40,0,-11,-30,0,0,100,0,216,64,40,32,0,-14,-86,0,0,100,0,48,208,40,64,0,-52,-79,0,0,100,0,96,160,64,48,0,-62,-97,0,0,100,0,128,208,56,40,0,-45,-62,0,0,100,0,192,160,32,32,0,-44,-42,0,0,100,0,224,160,32,32,0,-27,-47,0,0,100,0,160,160,32,48,0,-61,-40,0,0,100,0,304,112,56,48,0,-48,-36,0,0,100,0,368,207,16,17,0,-49,-13,0,0,100,0,128,96,40,16,0,-50,-37,0,0,100,0,128,40,40,16,0,-50,-35,0,0,100,0,128,56,40,40,0,-50,-57,0,0,100,0,128,0,40,40,0,-77,-106,0,0,100,0,0,160,64,48,0,-64,-87,0,0,100,0,232,208,24,16,0,-51,-100,0,0,100,0,232,192,24,16,0,-68,-113,0,0,100,0,320,272,80,48,0,-60,-69,0,0,100,0,0,208,48,64,0,-33,-36,0,0,100,0,256,0,32,32,0,23,-40,0,0,100,0,360,112,40,48,0,26,-34,0,0,100,0,416,207,16,17,0,19,-62,0,0,100,0,64,160,32,48,0,25,-27,0,0,100,0,320,0,32,24,0,-72,-24,0,0,65,0,368,0,144,48,0,
0,35,29,-94,0,0,100,0,128,248,32,24,0,3,-117,0,0,100,0,88,208,40,64,0,4,-69,0,0,100,0,0,208,48,64,0,-21,-32,0,0,100,0,400,112,64,48,0,5,-32,0,0,100,0,400,207,16,17,0,-12,-30,0,0,100,0,384,207,16,17,0,-10,-9,0,0,100,0,216,96,40,16,0,-11,-36,0,0,100,0,192,192,40,16,0,-2,-98,0,0,100,0,232,224,24,24,0,1,-114,0,0,100,0,184,208,48,40,0,-14,-91,0,0,100,0,464,88,48,40,0,-11,-29,0,0,100,0,216,64,40,32,0,-14,-83,0,0,100,0,472,128,40,64,0,-52,-78,0,0,100,0,96,160,64,48,0,-62,-96,0,0,100,0,128,208,56,40,0,-45,-61,0,0,100,0,192,160,32,32,0,-44,-41,0,0,100,0,224,160,32,32,0,-27,-46,0,0,100,0,160,160,32,48,0,-61,-40,0,0,100,0,304,112,56,48,0,-48,-36,0,0,100,0,368,207,16,17,0,-49,-13,0,0,100,0,128,96,40,16,0,-50,-35,0,0,100,0,128,40,40,16,0,-50,-34,0,0,100,0,128,56,40,40,0,-50,-54,0,0,100,0,128,0,40,40,0,-77,-106,0,0,100,0,0,160,64,48,0,-64,-89,0,0,100,0,232,208,24,16,0,-50,-102,0,0,100,0,232,192,24,16,0,-66,-116,0,0,100,0,320,224,80,48,0,-60,-69,0,0,100,0,0,208,48,64,0,-33,-36,0,0,100,0,256,0,32,32,0,23,-40,0,0,100,0,360,112,40,48,0,26,-34,0,0,100,0,416,207,16,17,0,19,-62,0,0,100,0,64,160,32,48,0,25,-27,0,0,100,0,320,0,32,24,0,-72,-24,0,0,65,0,368,0,144,48,0,
0,39,-68,-104,0,1,50,0,400,320,128,128,0,-118,-143,0,1,50,0,1040,0,160,160,0,31,-96,0,0,100,0,128,248,32,24,0,3,-120,0,0,100,0,88,208,40,64,0,4,-70,0,0,100,0,0,208,48,64,0,-21,-32,0,0,100,0,400,112,64,48,0,5,-33,0,0,100,0,400,207,16,17,0,-12,-31,0,0,100,0,384,207,16,17,0,-10,-9,0,0,100,0,216,96,40,16,0,-11,-38,0,0,100,0,192,192,40,16,0,-2,-100,0,0,100,0,232,224,24,24,0,2,-116,0,0,100,0,184,208,48,40,0,-14,-93,0,0,100,0,464,88,48,40,0,-11,-30,0,0,100,0,216,64,40,32,0,-14,-85,0,0,100,0,472,128,40,64,0,-52,-81,0,0,100,0,96,160,64,48,0,-62,-99,0,0,100,0,128,208,56,40,0,-45,-64,0,0,100,0,192,160,32,32,0,-44,-44,0,0,100,0,224,160,32,32,0,-27,-48,0,0,100,0,160,160,32,48,0,-93,-109,0,1,50,0,400,320,128,128,0,-61,-40,0,0,100,0,304,112,56,48,0,-48,-37,0,0,100,0,368,207,16,17,0,-49,-13,0,0,100,0,128,96,40,16,0,-50,-37,0,0,100,0,128,40,40,16,0,-50,-35,0,0,100,0,128,56,40,40,0,-50,-56,0,0,100,0,128,0,40,40,0,-77,-109,0,0,100,0,0,160,64,48,0,-64,-91,0,0,100,0,232,208,24,16,0,-49,-104,0,0,100,0,232,192,24,16,0,-68,-116,0,0,100,0,400,224,80,48,0,-60,-70,0,0,100,0,0,208,48,64,0,-33,-36,0,0,100,0,256,0,32,32,0,23,-40,0,0,100,0,360,112,40,48,0,26,-35,0,0,100,0,416,207,16,17,0,19,-63,0,0,100,0,64,160,32,48,0,25,-27,0,0,100,0,320,0,32,24,0,-122,-173,0,1,50,0,0,1024,208,128,0,-72,-24,0,0,65,0,368,0,144,48,0,
0,39,-68,-104,0,1,80,0,528,320,128,128,0,-118,-143,0,1,80,0,1200,0,160,160,0,31,-96,0,0,100,0,128,248,32,24,0,3,-120,0,0,100,0,88,208,40,64,0,4,-70,0,0,100,0,0,208,48,64,0,-21,-32,0,0,100,0,400,112,64,48,0,5,-33,0,0,100,0,400,207,16,17,0,-12,-31,0,0,100,0,384,207,16,17,0,-10,-9,0,0,100,0,216,96,40,16,0,-11,-38,0,0,100,0,192,192,40,16,0,-2,-100,0,0,100,0,232,224,24,24,0,2,-116,0,0,100,0,184,208,48,40,0,-14,-93,0,0,100,0,464,88,48,40,0,-11,-30,0,0,100,0,216,64,40,32,0,-14,-85,0,0,100,0,472,128,40,64,0,-52,-81,0,0,100,0,96,160,64,48,0,-62,-99,0,0,100,0,128,208,56,40,0,-45,-64,0,0,100,0,192,160,32,32,0,-44,-44,0,0,100,0,224,160,32,32,0,-27,-48,0,0,100,0,160,160,32,48,0,-93,-109,0,1,80,0,528,320,128,128,0,-61,-40,0,0,100,0,304,112,56,48,0,-48,-37,0,0,100,0,368,207,16,17,0,-49,-13,0,0,100,0,128,96,40,16,0,-50,-37,0,0,100,0,128,40,40,16,0,-50,-35,0,0,100,0,128,56,40,40,0,-50,-56,0,0,100,0,128,0,40,40,0,-77,-109,0,0,100,0,0,160,64,48,0,-64,-91,0,0,100,0,232,208,24,16,0,-49,-104,0,0,100,0,232,192,24,16,0,-72,-111,0,0,100,0,0,320,88,32,0,-60,-70,0,0,100,0,0,208,48,64,0,-33,-36,0,0,100,0,256,0,32,32,0,23,-40,0,0,100,0,360,112,40,48,0,26,-35,0,0,100,0,416,207,16,17,0,19,-63,0,0,100,0,64,160,32,48,0,25,-27,0,0,100,0,320,0,32,24,0,-122,-173,0,1,80,0,208,1024,208,128,0,-72,-24,0,0,65,0,368,0,144,48,0,
0,39,-68,-104,0,1,100,0,656,320,128,128,0,-118,-143,0,1,100,0,1040,160,160,160,0,31,-96,0,0,100,0,128,248,32,24,0,3,-120,0,0,100,0,88,208,40,64,0,4,-70,0,0,100,0,0,208,48,64,0,-21,-32,0,0,100,0,400,112,64,48,0,5,-33,0,0,100,0,400,207,16,17,0,-12,-31,0,0,100,0,384,207,16,17,0,-10,-9,0,0,100,0,216,96,40,16,0,-11,-38,0,0,100,0,192,192,40,16,0,-2,-100,0,0,100,0,232,224,24,24,0,2,-116,0,0,100,0,184,208,48,40,0,-14,-93,0,0,100,0,464,88,48,40,0,-11,-30,0,0,100,0,216,64,40,32,0,-14,-85,0,0,100,0,472,128,40,64,0,-52,-81,0,0,100,0,96,160,64,48,0,-62,-99,0,0,100,0,128,208,56,40,0,-45,-64,0,0,100,0,192,160,32,32,0,-44,-44,0,0,100,0,224,160,32,32,0,-27,-48,0,0,100,0,160,160,32,48,0,-93,-109,0,1,100,0,656,320,128,128,0,-61,-40,0,0,100,0,304,112,56,48,0,-48,-37,0,0,100,0,368,207,16,17,0,-49,-13,0,0,100,0,128,96,40,16,0,-50,-37,0,0,100,0,128,40,40,16,0,-50,-35,0,0,100,0,128,56,40,40,0,-50,-56,0,0,100,0,128,0,40,40,0,-77,-109,0,0,100,0,0,160,64,48,0,-64,-91,0,0,100,0,232,208,24,16,0,-49,-104,0,0,100,0,232,192,24,16,0,-76,-111,0,0,100,0,88,320,88,32,0,-60,-70,0,0,100,0,0,208,48,64,0,-33,-36,0,0,100,0,256,0,32,32,0,23,-40,0,0,100,0,360,112,40,48,0,26,-35,0,0,100,0,416,207,16,17,0,19,-63,0,0,100,0,64,160,32,48,0,25,-27,0,0,100,0,320,0,32,24,0,-122,-173,0,1,100,0,416,1024,208,128,0,-72,-24,0,0,65,0,368,0,144,48,0,
0,40,-133,-159,0,1,100,0,0,576,192,192,0,-68,-104,0,1,100,0,784,320,128,128,0,-118,-143,0,1,100,0,1200,160,160,160,0,31,-96,0,0,100,0,128,248,32,24,0,3,-120,0,0,100,0,88,208,40,64,0,4,-70,0,0,100,0,0,208,48,64,0,-21,-32,0,0,100,0,400,112,64,48,0,5,-33,0,0,100,0,400,207,16,17,0,-12,-31,0,0,100,0,384,207,16,17,0,-10,-9,0,0,100,0,216,96,40,16,0,-11,-38,0,0,100,0,192,192,40,16,0,-2,-100,0,0,100,0,232,224,24,24,0,2,-116,0,0,100,0,184,208,48,40,0,-14,-93,0,0,100,0,464,88,48,40,0,-11,-30,0,0,100,0,216,64,40,32,0,-14,-85,0,0,100,0,472,128,40,64,0,-52,-81,0,0,100,0,96,160,64,48,0,-62,-99,0,0,100,0,128,208,56,40,0,-45,-64,0,0,100,0,192,160,32,32,0,-44,-44,0,0,100,0,224,160,32,32,0,-27,-48,0,0,100,0,160,160,32,48,0,-93,-109,0,1,100,0,784,320,128,128,0,-61,-40,0,0,100,0,304,112,56,48,0,-48,-37,0,0,100,0,368,207,16,17,0,-49,-13,0,0,100,0,128,96,40,16,0,-50,-37,0,0,100,0,128,40,40,16,0,-50,-35,0,0,100,0,128,56,40,40,0,-50,-56,0,0,100,0,128,0,40,40,0,-77,-109,0,0,100,0,0,160,64,48,0,-64,-91,0,0,100,0,232,208,24,16,0,-49,-104,0,0,100,0,232,192,24,16,0,-76,-111,0,0,100,0,176,320,88,32,0,-60,-70,0,0,100,0,0,208,48,64,0,-33,-36,0,0,100,0,256,0,32,32,0,23,-40,0,0,100,0,360,112,40,48,0,26,-35,0,0,100,0,416,207,16,17,0,19,-63,0,0,100,0,64,160,32,48,0,25,-27,0,0,100,0,320,0,32,24,0,-122,-173,0,1,100,0,624,1024,208,128,0,-72,-24,0,0,65,0,368,0,144,48,0,
0,40,-133,-159,0,1,100,0,192,576,192,192,0,-68,-104,0,1,100,0,912,320,128,128,0,-118,-143,0,1,100,0,1040,320,160,160,0,31,-96,0,0,100,0,128,248,32,24,0,3,-120,0,0,100,0,88,208,40,64,0,4,-70,0,0,100,0,0,208,48,64,0,-21,-32,0,0,100,0,400,112,64,48,0,5,-33,0,0,100,0,400,207,16,17,0,-12,-31,0,0,100,0,384,207,16,17,0,-10,-9,0,0,100,0,216,96,40,16,0,-11,-38,0,0,100,0,192,192,40,16,0,-2,-100,0,0,100,0,232,224,24,24,0,2,-116,0,0,100,0,184,208,48,40,0,-14,-93,0,0,100,0,464,88,48,40,0,-11,-30,0,0,100,0,216,64,40,32,0,-14,-85,0,0,100,0,472,128,40,64,0,-52,-81,0,0,100,0,96,160,64,48,0,-62,-99,0,0,100,0,128,208,56,40,0,-45,-64,0,0,100,0,192,160,32,32,0,-44,-44,0,0,100,0,224,160,32,32,0,-27,-48,0,0,100,0,160,160,32,48,0,-93,-109,0,1,100,0,912,320,128,128,0,-61,-40,0,0,100,0,304,112,56,48,0,-48,-37,0,0,100,0,368,207,16,17,0,-49,-13,0,0,100,0,128,96,40,16,0,-50,-37,0,0,100,0,128,40,40,16,0,-50,-35,0,0,100,0,128,56,40,40,0,-50,-56,0,0,100,0,128,0,40,40,0,-77,-109,0,0,100,0,0,160,64,48,0,-64,-91,0,0,100,0,232,208,24,16,0,-49,-104,0,0,100,0,232,192,24,16,0,-76,-111,0,0,100,0,0,320,88,32,0,-60,-70,0,0,100,0,0,208,48,64,0,-33,-36,0,0,100,0,256,0,32,32,0,23,-40,0,0,100,0,360,112,40,48,0,26,-35,0,0,100,0,416,207,16,17,0,19,-63,0,0,100,0,64,160,32,48,0,25,-27,0,0,100,0,320,0,32,24,0,-122,-173,0,1,100,0,832,1024,208,128,0,-72,-24,0,0,65,0,368,0,144,48,0,
0,40,-133,-159,0,1,100,0,384,576,192,192,0,-68,-104,0,1,100,0,400,448,128,128,0,-118,-143,0,1,100,0,1200,320,160,160,0,31,-96,0,0,100,0,128,248,32,24,0,3,-120,0,0,100,0,88,208,40,64,0,4,-70,0,0,100,0,0,208,48,64,0,-21,-32,0,0,100,0,400,112,64,48,0,5,-33,0,0,100,0,400,207,16,17,0,-12,-31,0,0,100,0,384,207,16,17,0,-10,-9,0,0,100,0,216,96,40,16,0,-11,-38,0,0,100,0,192,192,40,16,0,-2,-100,0,0,100,0,232,224,24,24,0,2,-116,0,0,100,0,184,208,48,40,0,-14,-93,0,0,100,0,464,88,48,40,0,-11,-30,0,0,100,0,216,64,40,32,0,-14,-85,0,0,100,0,472,128,40,64,0,-52,-81,0,0,100,0,96,160,64,48,0,-62,-99,0,0,100,0,128,208,56,40,0,-45,-64,0,0,100,0,192,160,32,32,0,-44,-44,0,0,100,0,224,160,32,32,0,-27,-48,0,0,100,0,160,160,32,48,0,-93,-109,0,1,100,0,400,448,128,128,0,-61,-40,0,0,100,0,304,112,56,48,0,-48,-37,0,0,100,0,368,207,16,17,0,-49,-13,0,0,100,0,128,96,40,16,0,-50,-37,0,0,100,0,128,40,40,16,0,-50,-35,0,0,100,0,128,56,40,40,0,-50,-56,0,0,100,0,128,0,40,40,0,-77,-109,0,0,100,0,0,160,64,48,0,-64,-91,0,0,100,0,232,208,24,16,0,-49,-104,0,0,100,0,232,192,24,16,0,-76,-111,0,0,100,0,88,320,88,32,0,-60,-70,0,0,100,0,0,208,48,64,0,-33,-36,0,0,100,0,256,0,32,32,0,23,-40,0,0,100,0,360,112,40,48,0,26,-35,0,0,100,0,416,207,16,17,0,19,-63,0,0,100,0,64,160,32,48,0,25,-27,0,0,100,0,320,0,32,24,0,-122,-173,0,1,100,0,1040,1024,208,128,0,-72,-24,0,0,65,0,368,0,144,48,0,
0,40,-133,-159,0,1,100,0,576,576,192,192,0,-68,-104,0,1,100,0,528,448,128,128,0,-118,-143,0,1,100,0,1040,480,160,160,0,31,-96,0,0,100,0,128,248,32,24,0,3,-120,0,0,100,0,88,208,40,64,0,4,-70,0,0,100,0,0,208,48,64,0,-21,-32,0,0,100,0,400,112,64,48,0,5,-33,0,0,100,0,400,207,16,17,0,-12,-31,0,0,100,0,384,207,16,17,0,-10,-9,0,0,100,0,216,96,40,16,0,-11,-38,0,0,100,0,192,192,40,16,0,-2,-100,0,0,100,0,232,224,24,24,0,2,-116,0,0,100,0,184,208,48,40,0,-14,-93,0,0,100,0,464,88,48,40,0,-11,-30,0,0,100,0,216,64,40,32,0,-14,-85,0,0,100,0,472,128,40,64,0,-52,-81,0,0,100,0,96,160,64,48,0,-62,-99,0,0,100,0,128,208,56,40,0,-45,-64,0,0,100,0,192,160,32,32,0,-44,-44,0,0,100,0,224,160,32,32,0,-27,-48,0,0,100,0,160,160,32,48,0,-93,-109,0,1,100,0,528,448,128,128,0,-61,-40,0,0,100,0,304,112,56,48,0,-48,-37,0,0,100,0,368,207,16,17,0,-49,-13,0,0,100,0,128,96,40,16,0,-50,-37,0,0,100,0,128,40,40,16,0,-50,-35,0,0,100,0,128,56,40,40,0,-50,-56,0,0,100,0,128,0,40,40,0,-77,-109,0,0,100,0,0,160,64,48,0,-64,-91,0,0,100,0,232,208,24,16,0,-49,-104,0,0,100,0,232,192,24,16,0,-76,-111,0,0,100,0,176,320,88,32,0,-60,-70,0,0,100,0,0,208,48,64,0,-33,-36,0,0,100,0,256,0,32,32,0,23,-40,0,0,100,0,360,112,40,48,0,26,-35,0,0,100,0,416,207,16,17,0,19,-63,0,0,100,0,64,160,32,48,0,25,-27,0,0,100,0,320,0,32,24,0,-122,-173,0,1,100,0,0,1152,208,128,0,-72,-24,0,0,65,0,368,0,144,48,0,
0,40,-133,-159,0,1,100,0,768,576,192,192,0,-68,-104,0,1,100,0,656,448,128,128,0,-118,-143,0,1,100,0,1200,480,160,160,0,31,-96,0,0,100,0,128,248,32,24,0,3,-120,0,0,100,0,88,208,40,64,0,4,-70,0,0,100,0,0,208,48,64,0,-21,-32,0,0,100,0,400,112,64,48,0,5,-33,0,0,100,0,400,207,16,17,0,-12,-31,0,0,100,0,384,207,16,17,0,-10,-9,0,0,100,0,216,96,40,16,0,-11,-38,0,0,100,0,192,192,40,16,0,-2,-100,0,0,100,0,232,224,24,24,0,2,-116,0,0,100,0,184,208,48,40,0,-14,-93,0,0,100,0,464,88,48,40,0,-11,-30,0,0,100,0,216,64,40,32,0,-14,-85,0,0,100,0,472,128,40,64,0,-52,-81,0,0,100,0,96,160,64,48,0,-62,-99,0,0,100,0,128,208,56,40,0,-45,-64,0,0,100,0,192,160,32,32,0,-44,-44,0,0,100,0,224,160,32,32,0,-27,-48,0,0,100,0,160,160,32,48,0,-93,-109,0,1,100,0,656,448,128,128,0,-61,-40,0,0,100,0,304,112,56,48,0,-48,-37,0,0,100,0,368,207,16,17,0,-49,-13,0,0,100,0,128,96,40,16,0,-50,-37,0,0,100,0,128,40,40,16,0,-50,-35,0,0,100,0,128,56,40,40,0,-50,-56,0,0,100,0,128,0,40,40,0,-77,-109,0,0,100,0,0,160,64,48,0,-64,-91,0,0,100,0,232,208,24,16,0,-49,-104,0,0,100,0,232,192,24,16,0,-76,-111,0,0,100,0,0,320,88,32,0,-60,-70,0,0,100,0,0,208,48,64,0,-33,-36,0,0,100,0,256,0,32,32,0,23,-40,0,0,100,0,360,112,40,48,0,26,-35,0,0,100,0,416,207,16,17,0,19,-63,0,0,100,0,64,160,32,48,0,25,-27,0,0,100,0,320,0,32,24,0,-122,-173,0,1,100,0,208,1152,208,128,0,-72,-24,0,0,65,0,368,0,144,48,0,
0,39,-68,-104,0,1,100,0,784,448,128,128,0,-118,-143,0,1,100,0,1040,640,160,160,0,31,-96,0,0,100,0,128,248,32,24,0,3,-120,0,0,100,0,88,208,40,64,0,4,-70,0,0,100,0,0,208,48,64,0,-21,-32,0,0,100,0,400,112,64,48,0,5,-33,0,0,100,0,400,207,16,17,0,-12,-31,0,0,100,0,384,207,16,17,0,-10,-9,0,0,100,0,216,96,40,16,0,-11,-38,0,0,100,0,192,192,40,16,0,-2,-100,0,0,100,0,232,224,24,24,0,2,-116,0,0,100,0,184,208,48,40,0,-14,-93,0,0,100,0,464,88,48,40,0,-11,-30,0,0,100,0,216,64,40,32,0,-14,-85,0,0,100,0,472,128,40,64,0,-52,-81,0,0,100,0,96,160,64,48,0,-62,-99,0,0,100,0,128,208,56,40,0,-45,-64,0,0,100,0,192,160,32,32,0,-44,-44,0,0,100,0,224,160,32,32,0,-27,-48,0,0,100,0,160,160,32,48,0,-93,-109,0,1,100,0,784,448,128,128,0,-61,-40,0,0,100,0,304,112,56,48,0,-48,-37,0,0,100,0,368,207,16,17,0,-49,-13,0,0,100,0,128,96,40,16,0,-50,-37,0,0,100,0,128,40,40,16,0,-50,-35,0,0,100,0,128,56,40,40,0,-50,-56,0,0,100,0,128,0,40,40,0,-77,-109,0,0,100,0,0,160,64,48,0,-64,-91,0,0,100,0,232,208,24,16,0,-49,-104,0,0,100,0,232,192,24,16,0,-76,-111,0,0,100,0,88,320,88,32,0,-60,-70,0,0,100,0,0,208,48,64,0,-33,-36,0,0,100,0,256,0,32,32,0,23,-40,0,0,100,0,360,112,40,48,0,26,-35,0,0,100,0,416,207,16,17,0,19,-63,0,0,100,0,64,160,32,48,0,25,-27,0,0,100,0,320,0,32,24,0,-122,-173,0,1,100,0,416,1152,208,128,0,-72,-24,0,0,65,0,368,0,144,48,0,
0,43,-259,-168,0,1,100,0,0,768,272,256,0,-292,-191,0,1,100,0,0,768,272,256,0,-68,-104,0,1,100,0,912,448,128,128,0,-118,-143,0,1,100,0,1200,640,160,160,0,31,-96,0,0,100,0,128,248,32,24,0,3,-120,0,0,100,0,88,208,40,64,0,4,-70,0,0,100,0,0,208,48,64,0,-21,-32,0,0,100,0,400,112,64,48,0,5,-33,0,0,100,0,400,207,16,17,0,-12,-31,0,0,100,0,384,207,16,17,0,-10,-9,0,0,100,0,216,96,40,16,0,-11,-38,0,0,100,0,192,192,40,16,0,-2,-100,0,0,100,0,232,224,24,24,0,2,-116,0,0,100,0,184,208,48,40,0,-14,-93,0,0,100,0,464,88,48,40,0,-11,-30,0,0,100,0,216,64,40,32,0,-14,-85,0,0,100,0,472,128,40,64,0,-57,-91,0,1,100,0,0,352,64,64,0,-52,-81,0,0,100,0,96,160,64,48,0,-284,-173,0,1,100,0,0,768,272,256,0,-62,-99,0,0,100,0,128,208,56,40,0,-45,-64,0,0,100,0,192,160,32,32,0,-44,-44,0,0,100,0,224,160,32,32,0,-27,-48,0,0,100,0,160,160,32,48,0,-93,-109,0,1,100,0,912,448,128,128,0,-61,-40,0,0,100,0,304,112,56,48,0,-48,-37,0,0,100,0,368,207,16,17,0,-49,-13,0,0,100,0,128,96,40,16,0,-50,-37,0,0,100,0,128,40,40,16,0,-50,-35,0,0,100,0,128,56,40,40,0,-50,-56,0,0,100,0,128,0,40,40,0,-77,-109,0,0,100,0,0,160,64,48,0,-64,-91,0,0,100,0,232,208,24,16,0,-49,-104,0,0,100,0,232,192,24,16,0,-76,-111,0,0,100,0,176,320,88,32,0,-60,-70,0,0,100,0,0,208,48,64,0,-33,-36,0,0,100,0,256,0,32,32,0,23,-40,0,0,100,0,360,112,40,48,0,26,-35,0,0,100,0,416,207,16,17,0,19,-63,0,0,100,0,64,160,32,48,0,25,-27,0,0,100,0,320,0,32,24,0,-122,-173,0,1,100,0,624,1152,208,128,0,-72,-24,0,0,65,0,368,0,144,48,0,
0,41,-287,-136,0,1,100,0,272,768,304,192,0,-287,-136,0,1,100,0,272,768,304,192,0,-320,-159,0,1,100,0,272,768,304,192,0,31,-96,0,0,100,0,128,248,32,24,0,3,-120,0,0,100,0,88,208,40,64,0,4,-70,0,0,100,0,0,208,48,64,0,-21,-32,0,0,100,0,400,112,64,48,0,5,-33,0,0,100,0,400,207,16,17,0,-12,-31,0,0,100,0,384,207,16,17,0,-10,-9,0,0,100,0,216,96,40,16,0,-11,-38,0,0,100,0,192,192,40,16,0,-2,-100,0,0,100,0,232,224,24,24,0,2,-116,0,0,100,0,184,208,48,40,0,-14,-93,0,0,100,0,464,88,48,40,0,-11,-30,0,0,100,0,216,64,40,32,0,-14,-85,0,0,100,0,472,128,40,64,0,-57,-91,0,1,100,0,64,352,64,64,0,-52,-81,0,0,100,0,96,160,64,48,0,-62,-99,0,0,100,0,128,208,56,40,0,-45,-64,0,0,100,0,192,160,32,32,0,-44,-44,0,0,100,0,224,160,32,32,0,-27,-48,0,0,100,0,160,160,32,48,0,-312,-141,0,1,100,0,272,768,304,192,0,-61,-40,0,0,100,0,304,112,56,48,0,-48,-37,0,0,100,0,368,207,16,17,0,-49,-13,0,0,100,0,128,96,40,16,0,-50,-37,0,0,100,0,128,40,40,16,0,-50,-35,0,0,100,0,128,56,40,40,0,-50,-56,0,0,100,0,128,0,40,40,0,-77,-109,0,0,100,0,0,160,64,48,0,-64,-91,0,0,100,0,232,208,24,16,0,-49,-104,0,0,100,0,232,192,24,16,0,-76,-111,0,0,100,0,0,320,88,32,0,-60,-70,0,0,100,0,0,208,48,64,0,-33,-36,0,0,100,0,256,0,32,32,0,23,-40,0,0,100,0,360,112,40,48,0,26,-35,0,0,100,0,416,207,16,17,0,19,-63,0,0,100,0,64,160,32,48,0,25,-27,0,0,100,0,320,0,32,24,0,-122,-173,0,1,100,0,832,1152,208,128,0,-72,-24,0,0,65,0,368,0,144,48,0,
0,40,-375,-104,0,1,100,0,576,768,384,128,0,-408,-127,0,1,100,0,576,768,384,128,0,31,-96,0,0,100,0,128,248,32,24,0,3,-120,0,0,100,0,88,208,40,64,0,4,-70,0,0,100,0,0,208,48,64,0,-21,-32,0,0,100,0,400,112,64,48,0,5,-33,0,0,100,0,400,207,16,17,0,-12,-31,0,0,100,0,384,207,16,17,0,-10,-9,0,0,100,0,216,96,40,16,0,-11,-38,0,0,100,0,192,192,40,16,0,-2,-100,0,0,100,0,232,224,24,24,0,2,-116,0,0,100,0,184,208,48,40,0,-14,-93,0,0,100,0,464,88,48,40,0,-11,-30,0,0,100,0,216,64,40,32,0,-14,-85,0,0,100,0,472,128,40,64,0,-57,-91,0,1,100,0,128,352,64,64,0,-52,-81,0,0,100,0,96,160,64,48,0,-62,-99,0,0,100,0,128,208,56,40,0,-45,-64,0,0,100,0,192,160,32,32,0,-44,-44,0,0,100,0,224,160,32,32,0,-27,-48,0,0,100,0,160,160,32,48,0,-400,-109,0,1,100,0,576,768,384,128,0,-61,-40,0,0,100,0,304,112,56,48,0,-48,-37,0,0,100,0,368,207,16,17,0,-49,-13,0,0,100,0,128,96,40,16,0,-50,-37,0,0,100,0,128,40,40,16,0,-50,-35,0,0,100,0,128,56,40,40,0,-50,-56,0,0,100,0,128,0,40,40,0,-77,-109,0,0,100,0,0,160,64,48,0,-64,-91,0,0,100,0,232,208,24,16,0,-49,-104,0,0,100,0,232,192,24,16,0,-76,-111,0,0,100,0,88,320,88,32,0,-60,-70,0,0,100,0,0,208,48,64,0,-33,-36,0,0,100,0,256,0,32,32,0,23,-40,0,0,100,0,360,112,40,48,0,26,-35,0,0,100,0,416,207,16,17,0,19,-63,0,0,100,0,64,160,32,48,0,25,-27,0,0,100,0,320,0,32,24,0,-122,-173,0,1,100,0,1040,1152,208,128,0,-72,-24,0,0,65,0,368,0,144,48,0,
0,40,-377,-80,0,1,100,0,576,896,384,80,0,-410,-103,0,1,100,0,576,896,384,80,0,31,-96,0,0,100,0,128,248,32,24,0,3,-120,0,0,100,0,88,208,40,64,0,4,-70,0,0,100,0,0,208,48,64,0,-21,-32,0,0,100,0,400,112,64,48,0,5,-33,0,0,100,0,400,207,16,17,0,-12,-31,0,0,100,0,384,207,16,17,0,-10,-9,0,0,100,0,216,96,40,16,0,-11,-38,0,0,100,0,192,192,40,16,0,-2,-100,0,0,100,0,232,224,24,24,0,2,-116,0,0,100,0,184,208,48,40,0,-14,-93,0,0,100,0,464,88,48,40,0,-11,-30,0,0,100,0,216,64,40,32,0,-14,-85,0,0,100,0,472,128,40,64,0,-57,-91,0,1,100,0,192,352,64,64,0,-52,-81,0,0,100,0,96,160,64,48,0,-62,-99,0,0,100,0,128,208,56,40,0,-45,-64,0,0,100,0,192,160,32,32,0,-44,-44,0,0,100,0,224,160,32,32,0,-27,-48,0,0,100,0,160,160,32,48,0,-402,-85,0,1,100,0,576,896,384,80,0,-61,-40,0,0,100,0,304,112,56,48,0,-48,-37,0,0,100,0,368,207,16,17,0,-49,-13,0,0,100,0,128,96,40,16,0,-50,-37,0,0,100,0,128,40,40,16,0,-50,-35,0,0,100,0,128,56,40,40,0,-50,-56,0,0,100,0,128,0,40,40,0,-77,-109,0,0,100,0,0,160,64,48,0,-64,-91,0,0,100,0,232,208,24,16,0,-49,-104,0,0,100,0,232,192,24,16,0,-76,-111,0,0,100,0,176,320,88,32,0,-60,-70,0,0,100,0,0,208,48,64,0,-33,-36,0,0,100,0,256,0,32,32,0,23,-40,0,0,100,0,360,112,40,48,0,26,-35,0,0,100,0,416,207,16,17,0,19,-63,0,0,100,0,64,160,32,48,0,25,-27,0,0,100,0,320,0,32,24,0,-122,-173,0,1,60,0,0,1024,208,128,0,-72,-24,0,0,65,0,368,0,144,48,0,
0,40,-357,-56,0,1,100,0,576,976,384,32,0,-390,-79,0,1,100,0,576,976,384,32,0,31,-96,0,0,100,0,128,248,32,24,0,3,-120,0,0,100,0,88,208,40,64,0,4,-70,0,0,100,0,0,208,48,64,0,-21,-32,0,0,100,0,400,112,64,48,0,5,-33,0,0,100,0,400,207,16,17,0,-12,-31,0,0,100,0,384,207,16,17,0,-10,-9,0,0,100,0,216,96,40,16,0,-11,-38,0,0,100,0,192,192,40,16,0,-2,-100,0,0,100,0,232,224,24,24,0,2,-116,0,0,100,0,184,208,48,40,0,-14,-93,0,0,100,0,464,88,48,40,0,-11,-30,0,0,100,0,216,64,40,32,0,-14,-85,0,0,100,0,472,128,40,64,0,-57,-91,0,1,100,0,256,352,64,64,0,-52,-81,0,0,100,0,96,160,64,48,0,-62,-99,0,0,100,0,128,208,56,40,0,-45,-64,0,0,100,0,192,160,32,32,0,-44,-44,0,0,100,0,224,160,32,32,0,-27,-48,0,0,100,0,160,160,32,48,0,-382,-61,0,1,100,0,576,976,384,32,0,-61,-40,0,0,100,0,304,112,56,48,0,-48,-37,0,0,100,0,368,207,16,17,0,-49,-13,0,0,100,0,128,96,40,16,0,-50,-37,0,0,100,0,128,40,40,16,0,-50,-35,0,0,100,0,128,56,40,40,0,-50,-56,0,0,100,0,128,0,40,40,0,-77,-109,0,0,100,0,0,160,64,48,0,-64,-91,0,0,100,0,232,208,24,16,0,-49,-104,0,0,100,0,232,192,24,16,0,-76,-111,0,0,100,0,0,320,88,32,0,-60,-70,0,0,100,0,0,208,48,64,0,-33,-36,0,0,100,0,256,0,32,32,0,23,-40,0,0,100,0,360,112,40,48,0,26,-35,0,0,100,0,416,207,16,17,0,19,-63,0,0,100,0,64,160,32,48,0,25,-27,0,0,100,0,320,0,32,24,0,-122,-173,0,1,30,0,208,1024,208,128,0,-72,-24,0,0,65,0,368,0,144,48,0,
0,35,31,-96,0,0,100,0,128,248,32,24,0,3,-120,0,0,100,0,88,208,40,64,0,4,-70,0,0,100,0,0,208,48,64,0,-21,-32,0,0,100,0,400,112,64,48,0,5,-33,0,0,100,0,400,207,16,17,0,-12,-31,0,0,100,0,384,207,16,17,0,-10,-9,0,0,100,0,216,96,40,16,0,-11,-38,0,0,100,0,192,192,40,16,0,-2,-100,0,0,100,0,232,224,24,24,0,2,-116,0,0,100,0,184,208,48,40,0,-14,-93,0,0,100,0,464,88,48,40,0,-11,-30,0,0,100,0,216,64,40,32,0,-14,-85,0,0,100,0,472,128,40,64,0,-52,-81,0,0,100,0,96,160,64,48,0,-62,-99,0,0,100,0,128,208,56,40,0,-45,-64,0,0,100,0,192,160,32,32,0,-44,-44,0,0,100,0,224,160,32,32,0,-27,-48,0,0,100,0,160,160,32,48,0,-61,-40,0,0,100,0,304,112,56,48,0,-48,-37,0,0,100,0,368,207,16,17,0,-49,-13,0,0,100,0,128,96,40,16,0,-50,-37,0,0,100,0,128,40,40,16,0,-50,-35,0,0,100,0,128,56,40,40,0,-50,-56,0,0,100,0,128,0,40,40,0,-77,-109,0,0,100,0,0,160,64,48,0,-64,-91,0,0,100,0,232,208,24,16,0,-49,-104,0,0,100,0,232,192,24,16,0,-76,-111,0,0,100,0,88,320,88,32,0,-60,-70,0,0,100,0,0,208,48,64,0,-33,-36,0,0,100,0,256,0,32,32,0,23,-40,0,0,100,0,360,112,40,48,0,26,-35,0,0,100,0,416,207,16,17,0,19,-63,0,0,100,0,64,160,32,48,0,25,-27,0,0,100,0,320,0,32,24,0,-72,-24,0,0,65,0,368,0,144,48,0,
0,35,31,-96,0,0,100,0,128,248,32,24,0,3,-120,0,0,100,0,88,208,40,64,0,4,-70,0,0,100,0,0,208,48,64,0,-21,-32,0,0,100,0,400,112,64,48,0,5,-33,0,0,100,0,400,207,16,17,0,-12,-31,0,0,100,0,384,207,16,17,0,-10,-9,0,0,100,0,216,96,40,16,0,-11,-38,0,0,100,0,192,192,40,16,0,-2,-100,0,0,100,0,232,224,24,24,0,2,-116,0,0,100,0,184,208,48,40,0,-14,-93,0,0,100,0,464,88,48,40,0,-11,-30,0,0,100,0,216,64,40,32,0,-14,-85,0,0,100,0,472,128,40,64,0,-52,-81,0,0,100,0,96,160,64,48,0,-62,-99,0,0,100,0,128,208,56,40,0,-45,-64,0,0,100,0,192,160,32,32,0,-44,-44,0,0,100,0,224,160,32,32,0,-27,-48,0,0,100,0,160,160,32,48,0,-61,-40,0,0,100,0,304,112,56,48,0,-48,-37,0,0,100,0,368,207,16,17,0,-49,-13,0,0,100,0,128,96,40,16,0,-50,-37,0,0,100,0,128,40,40,16,0,-50,-35,0,0,100,0,128,56,40,40,0,-50,-56,0,0,100,0,128,0,40,40,0,-77,-109,0,0,100,0,0,160,64,48,0,-64,-91,0,0,100,0,232,208,24,16,0,-49,-104,0,0,100,0,232,192,24,16,0,-76,-111,0,0,100,0,176,320,88,32,0,-60,-70,0,0,100,0,0,208,48,64,0,-33,-36,0,0,100,0,256,0,32,32,0,23,-40,0,0,100,0,360,112,40,48,0,26,-35,0,0,100,0,416,207,16,17,0,19,-63,0,0,100,0,64,160,32,48,0,25,-27,0,0,100,0,320,0,32,24,0,-72,-24,0,0,65,0,368,0,144,48,0,
0,35,31,-96,0,0,100,0,128,248,32,24,0,3,-120,0,0,100,0,88,208,40,64,0,4,-70,0,0,100,0,0,208,48,64,0,-21,-32,0,0,100,0,400,112,64,48,0,5,-33,0,0,100,0,400,207,16,17,0,-12,-31,0,0,100,0,384,207,16,17,0,-10,-9,0,0,100,0,216,96,40,16,0,-11,-38,0,0,100,0,192,192,40,16,0,-2,-100,0,0,100,0,232,224,24,24,0,2,-116,0,0,100,0,184,208,48,40,0,-14,-93,0,0,100,0,464,88,48,40,0,-11,-30,0,0,100,0,216,64,40,32,0,-14,-85,0,0,100,0,472,128,40,64,0,-52,-81,0,0,100,0,96,160,64,48,0,-62,-99,0,0,100,0,128,208,56,40,0,-45,-64,0,0,100,0,192,160,32,32,0,-44,-44,0,0,100,0,224,160,32,32,0,-27,-48,0,0,100,0,160,160,32,48,0,-61,-40,0,0,100,0,304,112,56,48,0,-48,-37,0,0,100,0,368,207,16,17,0,-49,-13,0,0,100,0,128,96,40,16,0,-50,-37,0,0,100,0,128,40,40,16,0,-50,-35,0,0,100,0,128,56,40,40,0,-50,-56,0,0,100,0,128,0,40,40,0,-77,-109,0,0,100,0,0,160,64,48,0,-64,-91,0,0,100,0,232,208,24,16,0,-49,-104,0,0,100,0,232,192,24,16,0,-76,-111,0,0,100,0,0,320,88,32,0,-60,-70,0,0,100,0,0,208,48,64,0,-33,-36,0,0,100,0,256,0,32,32,0,23,-40,0,0,100,0,360,112,40,48,0,26,-35,0,0,100,0,416,207,16,17,0,19,-63,0,0,100,0,64,160,32,48,0,25,-27,0,0,100,0,320,0,32,24,0,-72,-24,0,0,65,0,368,0,144,48,0,
0,35,31,-96,0,0,100,0,128,248,32,24,0,3,-120,0,0,100,0,88,208,40,64,0,4,-70,0,0,100,0,0,208,48,64,0,-21,-32,0,0,100,0,400,112,64,48,0,5,-33,0,0,100,0,400,207,16,17,0,-12,-31,0,0,100,0,384,207,16,17,0,-10,-9,0,0,100,0,216,96,40,16,0,-11,-38,0,0,100,0,192,192,40,16,0,-2,-100,0,0,100,0,232,224,24,24,0,2,-116,0,0,100,0,184,208,48,40,0,-14,-93,0,0,100,0,464,88,48,40,0,-11,-30,0,0,100,0,216,64,40,32,0,-14,-85,0,0,100,0,472,128,40,64,0,-52,-81,0,0,100,0,96,160,64,48,0,-62,-99,0,0,100,0,128,208,56,40,0,-45,-64,0,0,100,0,192,160,32,32,0,-44,-44,0,0,100,0,224,160,32,32,0,-27,-48,0,0,100,0,160,160,32,48,0,-61,-40,0,0,100,0,304,112,56,48,0,-48,-37,0,0,100,0,368,207,16,17,0,-49,-13,0,0,100,0,128,96,40,16,0,-50,-37,0,0,100,0,128,40,40,16,0,-50,-35,0,0,100,0,128,56,40,40,0,-50,-56,0,0,100,0,128,0,40,40,0,-77,-109,0,0,100,0,0,160,64,48,0,-64,-91,0,0,100,0,232,208,24,16,0,-49,-104,0,0,100,0,232,192,24,16,0,-76,-111,0,0,100,0,88,320,88,32,0,-60,-70,0,0,100,0,0,208,48,64,0,-33,-36,0,0,100,0,256,0,32,32,0,23,-40,0,0,100,0,360,112,40,48,0,26,-35,0,0,100,0,416,207,16,17,0,19,-63,0,0,100,0,64,160,32,48,0,25,-27,0,0,100,0,320,0,32,24,0,-72,-24,0,0,65,0,368,0,144,48,0,
0,35,31,-96,0,0,100,0,128,248,32,24,0,3,-120,0,0,100,0,88,208,40,64,0,4,-70,0,0,100,0,0,208,48,64,0,-21,-32,0,0,100,0,400,112,64,48,0,5,-33,0,0,100,0,400,207,16,17,0,-12,-31,0,0,100,0,384,207,16,17,0,-10,-9,0,0,100,0,216,96,40,16,0,-11,-38,0,0,100,0,192,192,40,16,0,-2,-100,0,0,100,0,232,224,24,24,0,2,-116,0,0,100,0,184,208,48,40,0,-14,-93,0,0,100,0,464,88,48,40,0,-11,-30,0,0,100,0,216,64,40,32,0,-14,-85,0,0,100,0,472,128,40,64,0,-52,-81,0,0,100,0,96,160,64,48,0,-62,-99,0,0,100,0,128,208,56,40,0,-45,-64,0,0,100,0,192,160,32,32,0,-44,-44,0,0,100,0,224,160,32,32,0,-27,-48,0,0,100,0,160,160,32,48,0,-61,-40,0,0,100,0,304,112,56,48,0,-48,-37,0,0,100,0,368,207,16,17,0,-49,-13,0,0,100,0,128,96,40,16,0,-50,-37,0,0,100,0,128,40,40,16,0,-50,-35,0,0,100,0,128,56,40,40,0,-50,-56,0,0,100,0,128,0,40,40,0,-77,-109,0,0,100,0,0,160,64,48,0,-64,-91,0,0,100,0,232,208,24,16,0,-49,-104,0,0,100,0,232,192,24,16,0,-76,-111,0,0,100,0,176,320,88,32,0,-60,-70,0,0,100,0,0,208,48,64,0,-33,-36,0,0,100,0,256,0,32,32,0,23,-40,0,0,100,0,360,112,40,48,0,26,-35,0,0,100,0,416,207,16,17,0,19,-63,0,0,100,0,64,160,32,48,0,25,-27,0,0,100,0,320,0,32,24,0,-72,-24,0,0,65,0,368,0,144,48,0,
0,35,31,-96,0,0,100,0,128,248,32,24,0,3,-120,0,0,100,0,88,208,40,64,0,4,-70,0,0,100,0,0,208,48,64,0,-21,-32,0,0,100,0,400,112,64,48,0,5,-33,0,0,100,0,400,207,16,17,0,-12,-31,0,0,100,0,384,207,16,17,0,-10,-9,0,0,100,0,216,96,40,16,0,-11,-38,0,0,100,0,192,192,40,16,0,-2,-100,0,0,100,0,232,224,24,24,0,2,-116,0,0,100,0,184,208,48,40,0,-14,-93,0,0,100,0,464,88,48,40,0,-11,-30,0,0,100,0,216,64,40,32,0,-14,-85,0,0,100,0,472,128,40,64,0,-52,-81,0,0,100,0,96,160,64,48,0,-62,-99,0,0,100,0,128,208,56,40,0,-45,-64,0,0,100,0,192,160,32,32,0,-44,-44,0,0,100,0,224,160,32,32,0,-27,-48,0,0,100,0,160,160,32,48,0,-61,-40,0,0,100,0,304,112,56,48,0,-48,-37,0,0,100,0,368,207,16,17,0,-49,-13,0,0,100,0,128,96,40,16,0,-50,-37,0,0,100,0,128,40,40,16,0,-50,-35,0,0,100,0,128,56,40,40,0,-50,-56,0,0,100,0,128,0,40,40,0,-77,-109,0,0,100,0,0,160,64,48,0,-64,-91,0,0,100,0,232,208,24,16,0,-49,-104,0,0,100,0,232,192,24,16,0,-76,-111,0,0,100,0,0,320,88,32,0,-60,-70,0,0,100,0,0,208,48,64,0,-33,-36,0,0,100,0,256,0,32,32,0,23,-40,0,0,100,0,360,112,40,48,0,26,-35,0,0,100,0,416,207,16,17,0,19,-63,0,0,100,0,64,160,32,48,0,25,-27,0,0,100,0,320,0,32,24,0,-72,-24,0,0,65,0,368,0,144,48,0,
0,35,31,-96,0,0,100,0,128,248,32,24,0,3,-120,0,0,100,0,88,208,40,64,0,4,-70,0,0,100,0,0,208,48,64,0,-21,-32,0,0,100,0,400,112,64,48,0,5,-33,0,0,100,0,400,207,16,17,0,-12,-31,0,0,100,0,384,207,16,17,0,-10,-9,0,0,100,0,216,96,40,16,0,-11,-38,0,0,100,0,192,192,40,16,0,-2,-100,0,0,100,0,232,224,24,24,0,2,-116,0,0,100,0,184,208,48,40,0,-14,-93,0,0,100,0,464,88,48,40,0,-11,-30,0,0,100,0,216,64,40,32,0,-14,-85,0,0,100,0,472,128,40,64,0,-52,-81,0,0,100,0,96,160,64,48,0,-62,-99,0,0,100,0,128,208,56,40,0,-45,-64,0,0,100,0,192,160,32,32,0,-44,-44,0,0,100,0,224,160,32,32,0,-27,-48,0,0,100,0,160,160,32,48,0,-61,-40,0,0,100,0,304,112,56,48,0,-48,-37,0,0,100,0,368,207,16,17,0,-49,-13,0,0,100,0,128,96,40,16,0,-50,-37,0,0,100,0,128,40,40,16,0,-50,-35,0,0,100,0,128,56,40,40,0,-50,-56,0,0,100,0,128,0,40,40,0,-77,-109,0,0,100,0,0,160,64,48,0,-64,-91,0,0,100,0,232,208,24,16,0,-49,-104,0,0,100,0,232,192,24,16,0,-76,-111,0,0,100,0,88,320,88,32,0,-60,-70,0,0,100,0,0,208,48,64,0,-33,-36,0,0,100,0,256,0,32,32,0,23,-40,0,0,100,0,360,112,40,48,0,26,-35,0,0,100,0,416,207,16,17,0,19,-63,0,0,100,0,64,160,32,48,0,25,-27,0,0,100,0,320,0,32,24,0,-72,-24,0,0,65,0,368,0,144,48,0,
0,35,31,-96,0,0,100,0,128,248,32,24,0,3,-120,0,0,100,0,88,208,40,64,0,4,-70,0,0,100,0,0,208,48,64,0,-21,-32,0,0,100,0,400,112,64,48,0,5,-33,0,0,100,0,400,207,16,17,0,-12,-31,0,0,100,0,384,207,16,17,0,-10,-9,0,0,100,0,216,96,40,16,0,-11,-38,0,0,100,0,192,192,40,16,0,-2,-100,0,0,100,0,232,224,24,24,0,2,-116,0,0,100,0,184,208,48,40,0,-14,-93,0,0,100,0,464,88,48,40,0,-11,-30,0,0,100,0,216,64,40,32,0,-14,-85,0,0,100,0,472,128,40,64,0,-52,-81,0,0,100,0,96,160,64,48,0,-62,-99,0,0,100,0,128,208,56,40,0,-45,-64,0,0,100,0,192,160,32,32,0,-44,-44,0,0,100,0,224,160,32,32,0,-27,-48,0,0,100,0,160,160,32,48,0,-61,-40,0,0,100,0,304,112,56,48,0,-48,-37,0,0,100,0,368,207,16,17,0,-49,-13,0,0,100,0,128,96,40,16,0,-50,-37,0,0,100,0,128,40,40,16,0,-50,-35,0,0,100,0,128,56,40,40,0,-50,-56,0,0,100,0,128,0,40,40,0,-77,-109,0,0,100,0,0,160,64,48,0,-64,-91,0,0,100,0,232,208,24,16,0,-49,-104,0,0,100,0,232,192,24,16,0,-76,-111,0,0,100,0,176,320,88,32,0,-60,-70,0,0,100,0,0,208,48,64,0,-33,-36,0,0,100,0,256,0,32,32,0,23,-40,0,0,100,0,360,112,40,48,0,26,-35,0,0,100,0,416,207,16,17,0,19,-63,0,0,100,0,64,160,32,48,0,25,-27,0,0,100,0,320,0,32,24,0,-72,-24,0,0,65,0,368,0,144,48,0,
0,35,31,-96,0,0,100,0,128,248,32,24,0,3,-120,0,0,100,0,88,208,40,64,0,4,-70,0,0,100,0,0,208,48,64,0,-21,-32,0,0,100,0,400,112,64,48,0,5,-33,0,0,100,0,400,207,16,17,0,-12,-31,0,0,100,0,384,207,16,17,0,-10,-9,0,0,100,0,216,96,40,16,0,-11,-38,0,0,100,0,192,192,40,16,0,-2,-100,0,0,100,0,232,224,24,24,0,2,-116,0,0,100,0,184,208,48,40,0,-14,-93,0,0,100,0,464,88,48,40,0,-11,-30,0,0,100,0,216,64,40,32,0,-14,-85,0,0,100,0,472,128,40,64,0,-52,-81,0,0,100,0,96,160,64,48,0,-62,-99,0,0,100,0,128,208,56,40,0,-45,-64,0,0,100,0,192,160,32,32,0,-44,-44,0,0,100,0,224,160,32,32,0,-27,-48,0,0,100,0,160,160,32,48,0,-61,-40,0,0,100,0,304,112,56,48,0,-48,-37,0,0,100,0,368,207,16,17,0,-49,-13,0,0,100,0,128,96,40,16,0,-50,-37,0,0,100,0,128,40,40,16,0,-50,-35,0,0,100,0,128,56,40,40,0,-50,-56,0,0,100,0,128,0,40,40,0,-77,-109,0,0,100,0,0,160,64,48,0,-64,-91,0,0,100,0,232,208,24,16,0,-49,-104,0,0,100,0,232,192,24,16,0,-76,-111,0,0,100,0,0,320,88,32,0,-60,-70,0,0,100,0,0,208,48,64,0,-33,-36,0,0,100,0,256,0,32,32,0,23,-40,0,0,100,0,360,112,40,48,0,26,-35,0,0,100,0,416,207,16,17,0,19,-63,0,0,100,0,64,160,32,48,0,25,-27,0,0,100,0,320,0,32,24,0,-72,-24,0,0,65,0,368,0,144,48,0,
0,35,31,-96,0,0,100,0,128,248,32,24,0,3,-120,0,0,100,0,88,208,40,64,0,4,-70,0,0,100,0,0,208,48,64,0,-21,-32,0,0,100,0,400,112,64,48,0,5,-33,0,0,100,0,400,207,16,17,0,-12,-31,0,0,100,0,384,207,16,17,0,-10,-9,0,0,100,0,216,96,40,16,0,-11,-38,0,0,100,0,192,192,40,16,0,-2,-100,0,0,100,0,232,224,24,24,0,2,-116,0,0,100,0,184,208,48,40,0,-14,-93,0,0,100,0,464,88,48,40,0,-11,-30,0,0,100,0,216,64,40,32,0,-14,-85,0,0,100,0,472,128,40,64,0,-52,-81,0,0,100,0,96,160,64,48,0,-62,-99,0,0,100,0,128,208,56,40,0,-45,-64,0,0,100,0,192,160,32,32,0,-44,-44,0,0,100,0,224,160,32,32,0,-27,-48,0,0,100,0,160,160,32,48,0,-61,-40,0,0,100,0,304,112,56,48,0,-48,-37,0,0,100,0,368,207,16,17,0,-49,-13,0,0,100,0,128,96,40,16,0,-50,-37,0,0,100,0,128,40,40,16,0,-50,-35,0,0,100,0,128,56,40,40,0,-50,-56,0,0,100,0,128,0,40,40,0,-77,-109,0,0,100,0,0,160,64,48,0,-64,-91,0,0,100,0,232,208,24,16,0,-49,-104,0,0,100,0,232,192,24,16,0,-76,-111,0,0,100,0,88,320,88,32,0,-60,-70,0,0,100,0,0,208,48,64,0,-33,-36,0,0,100,0,256,0,32,32,0,23,-40,0,0,100,0,360,112,40,48,0,26,-35,0,0,100,0,416,207,16,17,0,19,-63,0,0,100,0,64,160,32,48,0,25,-27,0,0,100,0,320,0,32,24,0,-72,-24,0,0,65,0,368,0,144,48,0,
0,35,31,-96,0,0,100,0,128,248,32,24,0,3,-120,0,0,100,0,88,208,40,64,0,4,-70,0,0,100,0,0,208,48,64,0,-21,-32,0,0,100,0,400,112,64,48,0,5,-33,0,0,100,0,400,207,16,17,0,-12,-31,0,0,100,0,384,207,16,17,0,-10,-9,0,0,100,0,216,96,40,16,0,-11,-38,0,0,100,0,192,192,40,16,0,-2,-100,0,0,100,0,232,224,24,24,0,2,-116,0,0,100,0,184,208,48,40,0,-14,-93,0,0,100,0,464,88,48,40,0,-11,-30,0,0,100,0,216,64,40,32,0,-14,-85,0,0,100,0,472,128,40,64,0,-52,-81,0,0,100,0,96,160,64,48,0,-62,-99,0,0,100,0,128,208,56,40,0,-45,-64,0,0,100,0,192,160,32,32,0,-44,-44,0,0,100,0,224,160,32,32,0,-27,-48,0,0,100,0,160,160,32,48,0,-61,-40,0,0,100,0,304,112,56,48,0,-48,-37,0,0,100,0,368,207,16,17,0,-49,-13,0,0,100,0,128,96,40,16,0,-50,-37,0,0,100,0,128,40,40,16,0,-50,-35,0,0,100,0,128,56,40,40,0,-50,-56,0,0,100,0,128,0,40,40,0,-77,-109,0,0,100,0,0,160,64,48,0,-64,-91,0,0,100,0,232,208,24,16,0,-49,-104,0,0,100,0,232,192,24,16,0,-76,-111,0,0,100,0,176,320,88,32,0,-60,-70,0,0,100,0,0,208,48,64,0,-33,-36,0,0,100,0,256,0,32,32,0,23,-40,0,0,100,0,360,112,40,48,0,26,-35,0,0,100,0,416,207,16,17,0,19,-63,0,0,100,0,64,160,32,48,0,25,-27,0,0,100,0,320,0,32,24,0,-72,-24,0,0,65,0,368,0,144,48,0,
0,35,31,-96,0,0,100,0,128,248,32,24,0,3,-120,0,0,100,0,88,208,40,64,0,4,-70,0,0,100,0,0,208,48,64,0,-21,-32,0,0,100,0,400,112,64,48,0,5,-33,0,0,100,0,400,207,16,17,0,-12,-31,0,0,100,0,384,207,16,17,0,-10,-9,0,0,100,0,216,96,40,16,0,-11,-38,0,0,100,0,192,192,40,16,0,-2,-100,0,0,100,0,232,224,24,24,0,2,-116,0,0,100,0,184,208,48,40,0,-14,-93,0,0,100,0,464,88,48,40,0,-11,-30,0,0,100,0,216,64,40,32,0,-14,-85,0,0,100,0,472,128,40,64,0,-52,-81,0,0,100,0,96,160,64,48,0,-62,-99,0,0,100,0,128,208,56,40,0,-45,-64,0,0,100,0,192,160,32,32,0,-44,-44,0,0,100,0,224,160,32,32,0,-27,-48,0,0,100,0,160,160,32,48,0,-61,-40,0,0,100,0,304,112,56,48,0,-48,-37,0,0,100,0,368,207,16,17,0,-49,-13,0,0,100,0,128,96,40,16,0,-50,-37,0,0,100,0,128,40,40,16,0,-50,-35,0,0,100,0,128,56,40,40,0,-50,-56,0,0,100,0,128,0,40,40,0,-77,-109,0,0,100,0,0,160,64,48,0,-64,-91,0,0,100,0,232,208,24,16,0,-49,-104,0,0,100,0,232,192,24,16,0,-68,-116,0,0,100,0,400,224,80,48,0,-60,-70,0,0,100,0,0,208,48,64,0,-33,-36,0,0,100,0,256,0,32,32,0,23,-40,0,0,100,0,360,112,40,48,0,26,-35,0,0,100,0,416,207,16,17,0,19,-63,0,0,100,0,64,160,32,48,0,25,-27,0,0,100,0,320,0,32,24,0,-72,-24,0,0,65,0,368,0,144,48,0,
0,35,31,-96,0,0,100,0,128,248,32,24,0,3,-120,0,0,100,0,88,208,40,64,0,4,-70,0,0,100,0,0,208,48,64,0,-21,-32,0,0,100,0,400,112,64,48,0,5,-33,0,0,100,0,400,207,16,17,0,-12,-31,0,0,100,0,384,207,16,17,0,-10,-9,0,0,100,0,216,96,40,16,0,-11,-38,0,0,100,0,192,192,40,16,0,-2,-100,0,0,100,0,232,224,24,24,0,2,-116,0,0,100,0,184,208,48,40,0,-14,-93,0,0,100,0,464,88,48,40,0,-11,-30,0,0,100,0,216,64,40,32,0,-14,-85,0,0,100,0,472,128,40,64,0,-52,-81,0,0,100,0,96,160,64,48,0,-62,-99,0,0,100,0,128,208,56,40,0,-45,-64,0,0,100,0,192,160,32,32,0,-44,-44,0,0,100,0,224,160,32,32,0,-27,-48,0,0,100,0,160,160,32,48,0,-61,-40,0,0,100,0,304,112,56,48,0,-48,-37,0,0,100,0,368,207,16,17,0,-49,-13,0,0,100,0,128,96,40,16,0,-50,-37,0,0,100,0,128,40,40,16,0,-50,-35,0,0,100,0,128,56,40,40,0,-50,-56,0,0,100,0,128,0,40,40,0,-77,-109,0,0,100,0,0,160,64,48,0,-64,-91,0,0,100,0,232,208,24,16,0,-49,-104,0,0,100,0,232,192,24,16,0,-68,-116,0,0,100,0,320,224,80,48,0,-60,-70,0,0,100,0,0,208,48,64,0,-33,-36,0,0,100,0,256,0,32,32,0,23,-40,0,0,100,0,360,112,40,48,0,26,-35,0,0,100,0,416,207,16,17,0,19,-63,0,0,100,0,64,160,32,48,0,25,-27,0,0,100,0,320,0,32,24,0,-72,-24,0,0,65,0,368,0,144,48,0,
0,35,31,-96,0,0,100,0,128,248,32,24,0,3,-120,0,0,100,0,88,208,40,64,0,4,-70,0,0,100,0,0,208,48,64,0,-21,-32,0,0,100,0,400,112,64,48,0,5,-33,0,0,100,0,400,207,16,17,0,-12,-31,0,0,100,0,384,207,16,17,0,-10,-9,0,0,100,0,216,96,40,16,0,-11,-38,0,0,100,0,192,192,40,16,0,-2,-100,0,0,100,0,232,224,24,24,0,2,-116,0,0,100,0,184,208,48,40,0,-14,-93,0,0,100,0,464,88,48,40,0,-11,-30,0,0,100,0,216,64,40,32,0,-14,-85,0,0,100,0,472,128,40,64,0,-52,-81,0,0,100,0,96,160,64,48,0,-62,-99,0,0,100,0,128,208,56,40,0,-45,-64,0,0,100,0,192,160,32,32,0,-44,-44,0,0,100,0,224,160,32,32,0,-27,-48,0,0,100,0,160,160,32,48,0,-61,-40,0,0,100,0,304,112,56,48,0,-48,-37,0,0,100,0,368,207,16,17,0,-49,-13,0,0,100,0,128,96,40,16,0,-50,-37,0,0,100,0,128,40,40,16,0,-50,-35,0,0,100,0,128,56,40,40,0,-50,-56,0,0,100,0,128,0,40,40,0,-77,-109,0,0,100,0,0,160,64,48,0,-64,-91,0,0,100,0,232,208,24,16,0,-49,-104,0,0,100,0,232,192,24,16,0,-68,-115,0,0,100,0,0,272,80,48,0,-60,-70,0,0,100,0,0,208,48,64,0,-33,-36,0,0,100,0,256,0,32,32,0,23,-40,0,0,100,0,360,112,40,48,0,26,-35,0,0,100,0,416,207,16,17,0,19,-63,0,0,100,0,64,160,32,48,0,25,-27,0,0,100,0,320,0,32,24,0,-72,-24,0,0,65,0,368,0,144,48,0,
