0,5,-37,-65,0,0,100,0,128,96,32,32,0,0,-72,0,0,100,0,64,96,32,32,0,4,-48,0,0,100,0,0,96,32,32,0,-50,-88,0,0,100,0,0,0,96,96,0,-32,-16,0,0,65,0,384,0,64,32,0,
0,5,-37,-65,0,0,100,0,160,96,32,32,0,0,-72,0,0,100,0,96,96,32,32,0,4,-48,0,0,100,0,32,96,32,32,0,-50,-88,0,0,100,0,0,0,96,96,0,-32,-16,0,0,65,0,384,0,64,32,0,
0,5,-37,-64,0,0,100,0,128,96,32,32,0,0,-73,0,0,100,0,64,96,32,32,0,4,-47,0,0,100,0,0,96,32,32,0,-50,-88,0,0,100,0,96,0,96,96,0,-32,-16,0,0,65,0,384,0,64,32,0,
0,5,-37,-64,0,0,100,0,160,96,32,32,0,0,-73,0,0,100,0,96,96,32,32,0,4,-47,0,0,100,0,32,96,32,32,0,-50,-88,0,0,100,0,96,0,96,96,0,-32,-16,0,0,65,0,384,0,64,32,0,
0,5,-37,-65,0,0,100,0,128,96,32,32,0,0,-72,0,0,100,0,64,96,32,32,0,4,-46,0,0,100,0,0,96,32,32,0,-50,-88,0,0,100,0,192,0,96,96,0,-32,-16,0,0,65,0,384,0,64,32,0,
0,5,-37,-65,0,0,100,0,160,96,32,32,0,0,-72,0,0,100,0,96,96,32,32,0,4,-46,0,0,100,0,32,96,32,32,0,-50,-88,0,0,100,0,192,0,96,96,0,-32,-16,0,0,65,0,384,0,64,32,0,
0,5,-37,-66,0,0,100,0,128,96,32,32,0,0,-71,0,0,100,0,64,96,32,32,0,4,-47,0,0,100,0,0,96,32,32,0,-50,-88,0,0,100,0,288,0,96,96,0,-32,-16,0,0,65,0,384,0,64,32,0,
0,5,-37,-66,0,0,100,0,160,96,32,32,0,0,-71,0,0,100,0,96,96,32,32,0,4,-47,0,0,100,0,32,96,32,32,0,-50,-88,0,0,100,0,288,0,96,96,0,-32,-16,0,0,65,0,384,0,64,32,0,
0,8,-36,-66,0,1,100,0,128,96,32,32,0,1,-73,0,1,100,0,64,96,32,32,0,5,-49,0,1,100,0,0,96,32,32,0,-36,-66,0,0,100,0,128,96,32,32,0,1,-73,0,0,100,0,64,96,32,32,0,5,-49,0,0,100,0,0,96,32,32,0,-50,-88,0,0,100,0,0,128,96,96,0,-32,-16,0,0,65,0,384,0,64,32,0,
0,8,-36,-66,0,1,100,0,160,96,32,32,0,1,-73,0,1,100,0,96,96,32,32,0,5,-49,0,1,100,0,32,96,32,32,0,-36,-66,0,0,100,0,160,96,32,32,0,1,-73,0,0,100,0,96,96,32,32,0,5,-49,0,0,100,0,32,96,32,32,0,-50,-88,0,0,100,0,0,128,96,96,0,-32,-16,0,0,65,0,384,0,64,32,0,
0,8,-35,-67,0,1,100,0,128,96,32,32,0,2,-74,0,1,100,0,64,96,32,32,0,6,-50,0,1,100,0,0,96,32,32,0,-35,-67,0,0,100,0,128,96,32,32,0,2,-74,0,0,100,0,64,96,32,32,0,6,-50,0,0,100,0,0,96,32,32,0,-50,-88,0,0,100,0,0,128,96,96,0,-32,-16,0,0,65,0,384,0,64,32,0,
0,8,-35,-67,0,1,100,0,160,96,32,32,0,2,-74,0,1,100,0,96,96,32,32,0,6,-50,0,1,100,0,32,96,32,32,0,-35,-67,0,0,100,0,160,96,32,32,0,2,-74,0,0,100,0,96,96,32,32,0,6,-50,0,0,100,0,32,96,32,32,0,-50,-88,0,0,100,0,0,128,96,96,0,-32,-16,0,0,65,0,384,0,64,32,0,
0,3,-50,-88,0,0,100,0,96,128,96,96,0,-49,-87,0,0,100,0,96,224,96,96,0,-32,-16,0,0,65,0,384,0,64,32,0,
0,3,-50,-88,0,0,100,0,192,128,96,96,0,-49,-87,0,0,100,0,192,224,96,96,0,-32,-16,0,0,65,0,384,0,64,32,0,
0,3,-50,-88,0,0,100,0,288,128,96,96,0,-50,-87,0,0,100,0,288,224,96,96,0,-32,-16,0,0,65,0,384,0,64,32,0,
0,3,-50,-88,0,0,100,0,288,464,96,96,0,-51,-87,0,0,100,0,384,224,96,96,0,-32,-16,0,0,65,0,384,0,64,32,0,
0,4,-146,-72,0,0,50,0,0,320,48,48,0,-112,-25,0,0,100,0,384,32,112,16,0,-50,-88,0,0,100,0,0,464,96,96,0,-32,-16,0,0,65,0,384,0,64,32,0,
0,3,-140,-66,0,0,100,0,0,320,48,48,0,-50,-88,0,0,100,0,0,464,96,96,0,-32,-16,0,0,65,0,384,0,64,32,0,
0,4,-100,-78,0,0,100,0,0,416,48,48,0,-140,-66,0,0,100,0,48,320,48,48,0,-50,-88,0,0,100,0,96,464,96,96,0,-32,-16,0,0,65,0,384,0,64,32,0,
0,5,-130,-88,0,0,100,0,0,368,48,48,0,-100,-78,0,0,100,0,48,416,48,48,0,-140,-66,0,0,100,0,96,320,48,48,0,-50,-88,0,0,100,0,96,464,96,96,0,-32,-16,0,0,65,0,384,0,64,32,0,
0,5,-130,-88,0,0,100,0,48,368,48,48,0,-100,-78,0,0,100,0,96,416,48,48,0,-140,-66,0,0,100,0,144,320,48,48,0,-50,-88,0,0,100,0,192,464,96,96,0,-32,-16,0,0,65,0,384,0,64,32,0,
0,5,-130,-88,0,0,100,0,96,368,48,48,0,-100,-78,0,0,100,0,144,416,48,48,0,-140,-66,0,0,100,0,192,320,48,48,0,-50,-88,0,0,100,0,192,464,96,96,0,-32,-16,0,0,65,0,384,0,64,32,0,
0,5,-130,-88,0,0,100,0,144,368,48,48,0,-100,-78,0,0,100,0,192,416,48,48,0,-140,-66,0,0,100,0,240,320,48,48,0,-50,-88,0,0,100,0,288,464,96,96,0,-32,-16,0,0,65,0,384,0,64,32,0,
0,5,-130,-88,0,0,100,0,192,368,48,48,0,-100,-78,0,0,100,0,240,416,48,48,0,-140,-66,0,0,100,0,288,320,48,48,0,-50,-88,0,0,100,0,288,464,96,96,0,-32,-16,0,0,65,0,384,0,64,32,0,
0,4,-130,-88,0,0,100,0,240,368,48,48,0,-100,-78,0,0,100,0,288,416,48,48,0,-50,-88,0,0,100,0,0,464,96,96,0,-32,-16,0,0,65,0,384,0,64,32,0,
0,4,-130,-88,0,0,100,0,288,368,48,48,0,-96,-78,0,0,30,0,0,416,48,48,0,-50,-88,0,0,100,0,0,464,96,96,0,-32,-16,0,0,65,0,384,0,64,32,0,
0,3,-130,-88,0,0,100,0,336,368,48,48,0,-50,-88,0,0,100,0,96,464,96,96,0,-32,-16,0,0,65,0,384,0,64,32,0,
0,3,-130,-88,0,0,100,0,384,368,48,48,0,-50,-88,0,0,100,0,96,464,96,96,0,-32,-16,0,0,65,0,384,0,64,32,0,
0,3,-133,-94,0,0,30,0,0,368,48,48,0,-50,-88,0,0,100,0,192,464,96,96,0,-32,-16,0,0,65,0,384,0,64,32,0,
0,3,-50,-82,0,0,100,0,384,224,96,96,0,-50,-88,0,0,100,0,192,464,96,96,0,-32,-16,0,0,65,0,384,0,64,32,0,
0,3,-50,-88,0,0,100,0,192,0,96,96,0,-50,-87,0,0,100,0,288,224,96,96,0,-32,-16,0,0,65,0,384,0,64,32,0,
0,3,-50,-88,0,0,100,0,288,0,96,96,0,-49,-87,0,0,100,0,192,224,96,96,0,-32,-16,0,0,65,0,384,0,64,32,0,
0,3,-50,-88,0,0,100,0,288,0,96,96,0,-49,-87,0,0,100,0,96,224,96,96,0,-32,-16,0,0,65,0,384,0,64,32,0,
0,5,-50,-88,0,0,100,0,0,560,96,96,0,4,-46,0,0,100,0,352,96,32,32,0,-4,-72,0,0,100,0,320,96,32,32,0,-38,-64,0,0,100,0,288,96,32,32,0,-32,-16,0,0,65,0,384,0,64,32,0,
0,5,-50,-88,0,0,100,0,0,656,96,96,0,-37,-65,0,0,100,0,128,96,32,32,0,0,-72,0,0,100,0,64,96,32,32,0,4,-48,0,0,100,0,0,96,32,32,0,-32,-16,0,0,65,0,384,0,64,32,0,
0,5,-50,-88,0,0,100,0,0,656,96,96,0,-37,-65,0,0,100,0,160,96,32,32,0,0,-72,0,0,100,0,96,96,32,32,0,4,-48,0,0,100,0,32,96,32,32,0,-32,-16,0,0,65,0,384,0,64,32,0,
0,5,-50,-88,0,0,100,0,0,656,96,96,0,-37,-64,0,0,100,0,128,96,32,32,0,0,-73,0,0,100,0,64,96,32,32,0,4,-47,0,0,100,0,0,96,32,32,0,-32,-16,0,0,65,0,384,0,64,32,0,
0,5,-50,-88,0,0,100,0,0,656,96,96,0,-37,-64,0,0,100,0,160,96,32,32,0,0,-73,0,0,100,0,96,96,32,32,0,4,-47,0,0,100,0,32,96,32,32,0,-32,-16,0,0,65,0,384,0,64,32,0,
0,5,-50,-88,0,0,100,0,96,656,96,96,0,-37,-65,0,0,100,0,128,96,32,32,0,0,-72,0,0,100,0,64,96,32,32,0,4,-46,0,0,100,0,0,96,32,32,0,-32,-16,0,0,65,0,384,0,64,32,0,
0,5,-50,-88,0,0,100,0,96,656,96,96,0,-37,-65,0,0,100,0,160,96,32,32,0,0,-72,0,0,100,0,96,96,32,32,0,4,-46,0,0,100,0,32,96,32,32,0,-32,-16,0,0,65,0,384,0,64,32,0,
0,5,-50,-88,0,0,100,0,96,656,96,96,0,-37,-66,0,0,100,0,128,96,32,32,0,0,-71,0,0,100,0,64,96,32,32,0,4,-47,0,0,100,0,0,96,32,32,0,-32,-16,0,0,65,0,384,0,64,32,0,
0,5,-50,-88,0,0,100,0,96,656,96,96,0,-37,-66,0,0,100,0,160,96,32,32,0,0,-71,0,0,100,0,96,96,32,32,0,4,-47,0,0,100,0,32,96,32,32,0,-32,-16,0,0,65,0,384,0,64,32,0,
0,5,-50,-88,0,0,100,0,192,656,96,96,0,-37,-65,0,0,100,0,128,96,32,32,0,0,-72,0,0,100,0,64,96,32,32,0,4,-48,0,0,100,0,0,96,32,32,0,-32,-16,0,0,65,0,384,0,64,32,0,
0,5,-50,-88,0,0,100,0,192,656,96,96,0,-37,-65,0,0,100,0,160,96,32,32,0,0,-72,0,0,100,0,96,96,32,32,0,4,-48,0,0,100,0,32,96,32,32,0,-32,-16,0,0,65,0,384,0,64,32,0,
0,5,-50,-88,0,0,100,0,192,656,96,96,0,-37,-64,0,0,100,0,128,96,32,32,0,0,-73,0,0,100,0,64,96,32,32,0,4,-47,0,0,100,0,0,96,32,32,0,-32,-16,0,0,65,0,384,0,64,32,0,
0,5,-50,-88,0,0,100,0,192,656,96,96,0,-37,-64,0,0,100,0,160,96,32,32,0,0,-73,0,0,100,0,96,96,32,32,0,4,-47,0,0,100,0,32,96,32,32,0,-32,-16,0,0,65,0,384,0,64,32,0,
0,5,-50,-88,0,0,100,0,288,656,96,96,0,-37,-65,0,0,100,0,128,96,32,32,0,0,-72,0,0,100,0,64,96,32,32,0,4,-46,0,0,100,0,0,96,32,32,0,-32,-16,0,0,65,0,384,0,64,32,0,
0,5,-50,-88,0,0,100,0,288,656,96,96,0,-37,-65,0,0,100,0,160,96,32,32,0,0,-72,0,0,100,0,96,96,32,32,0,4,-46,0,0,100,0,32,96,32,32,0,-32,-16,0,0,65,0,384,0,64,32,0,
0,5,-50,-88,0,0,100,0,288,656,96,96,0,-37,-66,0,0,100,0,128,96,32,32,0,0,-71,0,0,100,0,64,96,32,32,0,4,-47,0,0,100,0,0,96,32,32,0,-32,-16,0,0,65,0,384,0,64,32,0,
0,5,-50,-88,0,0,100,0,288,656,96,96,0,-37,-66,0,0,100,0,160,96,32,32,0,0,-71,0,0,100,0,96,96,32,32,0,4,-47,0,0,100,0,32,96,32,32,0,-32,-16,0,0,65,0,384,0,64,32,0,
0,5,-50,-88,0,0,100,0,0,656,96,96,0,0,-72,0,0,100,0,64,96,32,32,0,4,-48,0,0,100,0,0,96,32,32,0,-37,-65,0,0,100,0,128,96,32,32,0,-32,-16,0,0,65,0,384,0,64,32,0,
0,5,-50,-88,0,0,100,0,0,656,96,96,0,0,-72,0,0,100,0,96,96,32,32,0,4,-48,0,0,100,0,32,96,32,32,0,-37,-65,0,0,100,0,160,96,32,32,0,-32,-16,0,0,65,0,384,0,64,32,0,
0,5,-50,-88,0,0,100,0,0,656,96,96,0,-1,-73,0,0,100,0,64,96,32,32,0,4,-49,0,0,100,0,0,96,32,32,0,-36,-66,0,0,100,0,128,96,32,32,0,-32,-16,0,0,65,0,384,0,64,32,0,
0,5,-50,-88,0,0,100,0,0,656,96,96,0,-1,-73,0,0,100,0,96,96,32,32,0,4,-49,0,0,100,0,32,96,32,32,0,-36,-66,0,0,100,0,160,96,32,32,0,-32,-16,0,0,65,0,384,0,64,32,0,
0,5,-50,-88,0,0,100,0,96,656,96,96,0,-6,-75,0,0,100,0,64,96,32,32,0,1,-58,0,0,100,0,0,96,32,32,0,-34,-69,0,0,100,0,128,96,32,32,0,-32,-16,0,0,65,0,384,0,64,32,0,
0,5,-50,-88,0,0,100,0,96,656,96,96,0,-6,-75,0,0,100,0,96,96,32,32,0,1,-58,0,0,100,0,32,96,32,32,0,-34,-69,0,0,100,0,160,96,32,32,0,-32,-16,0,0,65,0,384,0,64,32,0,
0,5,-50,-88,0,0,100,0,96,656,96,96,0,-9,-76,0,0,100,0,64,96,32,32,0,-2,-62,0,0,100,0,0,96,32,32,0,-31,-70,0,0,100,0,128,96,32,32,0,-32,-16,0,0,65,0,384,0,64,32,0,
0,5,-50,-88,0,0,100,0,96,656,96,96,0,-9,-76,0,0,100,0,96,96,32,32,0,-2,-62,0,0,100,0,32,96,32,32,0,-31,-70,0,0,100,0,160,96,32,32,0,-32,-16,0,0,65,0,384,0,64,32,0,
0,5,-50,-88,0,0,100,0,192,656,96,96,0,-5,-66,0,0,100,0,0,96,32,32,0,-29,-69,0,0,100,0,128,96,32,32,0,-12,-75,0,0,100,0,64,96,32,32,0,-32,-16,0,0,65,0,384,0,64,32,0,
0,5,-50,-88,0,0,100,0,192,656,96,96,0,-5,-66,0,0,100,0,32,96,32,32,0,-29,-69,0,0,100,0,160,96,32,32,0,-12,-75,0,0,100,0,96,96,32,32,0,-32,-16,0,0,65,0,384,0,64,32,0,
0,5,-27,-64,0,0,100,0,192,96,32,32,0,-50,-88,0,0,100,0,192,656,96,96,0,-8,-70,0,0,100,0,0,96,32,32,0,-14,-73,0,0,100,0,64,96,32,32,0,-32,-16,0,0,65,0,384,0,64,32,0,
0,5,-27,-64,0,0,100,0,224,96,32,32,0,-50,-88,0,0,100,0,192,656,96,96,0,-8,-70,0,0,100,0,32,96,32,32,0,-14,-73,0,0,100,0,96,96,32,32,0,-32,-16,0,0,65,0,384,0,64,32,0,
0,5,-27,-65,0,0,100,0,192,96,32,32,0,-50,-88,0,0,100,0,288,656,96,96,0,-9,-65,0,0,100,0,0,96,32,32,0,-16,-71,0,0,100,0,64,96,32,32,0,-32,-16,0,0,65,0,384,0,64,32,0,
0,5,-27,-65,0,0,100,0,192,96,32,32,0,-50,-88,0,0,100,0,288,656,96,96,0,-9,-65,0,0,100,0,32,96,32,32,0,-17,-68,0,0,100,0,96,96,32,32,0,-32,-16,0,0,65,0,384,0,64,32,0,
0,5,-19,-69,0,0,100,0,256,96,32,32,0,-27,-65,0,0,100,0,192,96,32,32,0,-50,-88,0,0,100,0,0,656,96,96,0,-8,-66,0,0,100,0,0,96,32,32,0,-32,-16,0,0,65,0,384,0,64,32,0,
0,5,-19,-69,0,0,100,0,256,96,32,32,0,-27,-65,0,0,100,0,192,96,32,32,0,-50,-88,0,0,100,0,96,656,96,96,0,-8,-66,0,0,100,0,0,96,32,32,0,-32,-16,0,0,65,0,384,0,64,32,0,
0,5,-18,-69,0,0,100,0,256,96,32,32,0,-26,-66,0,0,100,0,192,96,32,32,0,-50,-88,0,0,100,0,384,752,96,96,0,-8,-65,0,0,100,0,0,96,32,32,0,-32,-16,0,0,65,0,384,0,64,32,0,
0,5,-18,-69,0,0,100,0,256,96,32,32,0,-26,-66,0,0,100,0,192,96,32,32,0,-50,-88,0,0,100,0,384,656,96,96,0,-8,-65,0,0,100,0,0,96,32,32,0,-32,-16,0,0,65,0,384,0,64,32,0,
0,5,-18,-68,0,0,100,0,256,96,32,32,0,-26,-67,0,0,100,0,192,96,32,32,0,-50,-88,0,0,100,0,0,752,96,96,0,-8,-64,0,0,100,0,0,96,32,32,0,-32,-16,0,0,65,0,384,0,64,32,0,
0,5,-18,-68,0,0,100,0,256,96,32,32,0,-26,-67,0,0,100,0,192,96,32,32,0,-50,-88,0,0,100,0,96,752,96,96,0,-8,-64,0,0,100,0,0,96,32,32,0,-32,-16,0,0,65,0,384,0,64,32,0,
0,5,-18,-68,0,0,100,0,256,96,32,32,0,-26,-67,0,0,100,0,192,96,32,32,0,-50,-88,0,0,100,0,192,752,96,96,0,-8,-64,0,0,100,0,0,96,32,32,0,-32,-16,0,0,65,0,384,0,64,32,0,
0,5,-18,-68,0,0,100,0,256,96,32,32,0,-26,-67,0,0,100,0,192,96,32,32,0,-50,-88,0,0,100,0,288,752,96,96,0,-8,-64,0,0,100,0,0,96,32,32,0,-32,-16,0,0,65,0,384,0,64,32,0,
