0,8,-10,-88,0,0,100,0,128,480,64,96,0,-49,-59,0,1,50,0,480,672,96,64,0,-49,-59,0,1,50,0,480,672,96,64,0,-48,-91,0,0,100,0,0,0,96,96,0,-10,-88,0,0,100,0,512,480,64,96,0,-47,-92,0,0,100,0,384,480,64,96,0,-42,-91,1,0,100,0,0,384,96,96,0,-48,-16,0,0,65,0,384,0,96,32,0,
0,9,-10,-87,0,0,100,0,192,480,64,96,0,-49,-58,0,1,80,0,480,672,96,64,0,-49,-58,0,1,80,0,480,672,96,64,0,-49,-58,0,1,80,0,480,672,96,64,0,-48,-90,0,0,100,0,96,0,96,96,0,-10,-87,0,0,100,0,512,480,64,96,0,-47,-91,0,0,100,0,448,480,64,96,0,-42,-90,1,0,100,0,0,384,96,96,0,-48,-16,0,0,65,0,384,0,96,32,0,
0,10,-10,-87,0,0,100,0,0,480,64,96,0,-49,-59,0,1,60,0,480,672,96,64,0,-49,-59,0,1,100,0,480,672,96,64,0,-49,-59,0,1,100,0,480,672,96,64,0,-49,-59,0,1,100,0,480,672,96,64,0,-48,-91,0,0,100,0,192,0,96,96,0,-10,-87,0,0,100,0,512,480,64,96,0,-47,-91,0,0,100,0,256,480,64,96,0,-42,-91,1,0,100,0,0,384,96,96,0,-48,-16,0,0,65,0,384,0,96,32,0,
0,9,-10,-88,0,0,100,0,64,480,64,96,0,-49,-60,0,1,80,0,480,672,96,64,0,-49,-60,0,1,80,0,480,672,96,64,0,-49,-60,0,1,80,0,480,672,96,64,0,-48,-92,0,0,100,0,288,0,96,96,0,-10,-88,0,0,100,0,512,480,64,96,0,-47,-92,0,0,100,0,320,480,64,96,0,-42,-92,1,0,100,0,0,384,96,96,0,-48,-16,0,0,65,0,384,0,96,32,0,
0,7,-33,-70,0,0,100,0,480,0,32,32,0,-23,-92,0,0,100,0,704,480,64,96,0,-50,-90,0,0,100,0,0,96,96,96,0,-19,-90,0,0,100,0,512,480,64,96,0,-48,-92,0,0,100,0,576,480,64,96,0,-48,-92,1,0,100,0,0,384,96,96,0,-48,-16,0,0,65,0,384,0,96,32,0,
0,7,-33,-72,0,0,100,0,480,0,32,32,0,-23,-93,0,0,100,0,704,480,64,96,0,-50,-91,0,0,100,0,0,96,96,96,0,-19,-91,0,0,100,0,512,480,64,96,0,-48,-93,0,0,100,0,576,480,64,96,0,-48,-93,1,0,100,0,0,384,96,96,0,-48,-16,0,0,65,0,384,0,96,32,0,
0,7,-33,-79,0,0,100,0,480,0,32,32,0,-25,-93,0,0,100,0,0,480,64,96,0,-50,-92,0,0,100,0,96,96,96,96,0,-19,-92,0,0,100,0,512,480,64,96,0,-48,-94,0,0,100,0,576,480,64,96,0,-47,-94,1,0,100,0,0,384,96,96,0,-48,-16,0,0,65,0,384,0,96,32,0,
0,12,-176,-72,0,0,20,0,384,768,128,96,0,-48,-98,0,0,30,0,576,128,64,64,0,-33,-82,0,0,100,0,480,0,32,32,0,-18,-91,0,1,50,0,0,576,64,96,0,-18,-91,0,0,100,0,0,480,64,96,0,-50,-91,0,0,100,0,192,96,96,96,0,-50,-93,0,1,50,0,256,576,64,96,0,-50,-93,0,0,100,0,256,480,64,96,0,-18,-93,0,1,100,0,512,576,64,96,0,-18,-93,0,0,100,0,512,480,64,96,0,-47,-95,1,0,100,0,0,384,96,96,0,-48,-16,0,0,65,0,384,0,96,32,0,
0,14,-176,-72,0,0,60,0,256,768,128,96,0,-176,-72,0,0,30,0,384,768,128,96,0,-48,-98,0,0,100,0,640,128,64,64,0,-32,-82,0,1,40,0,416,32,32,32,0,-33,-82,0,0,100,0,480,0,32,32,0,-18,-91,0,1,100,0,64,576,64,96,0,-18,-91,0,0,100,0,64,480,64,96,0,-50,-91,0,0,100,0,288,96,96,96,0,-50,-93,0,1,100,0,320,576,64,96,0,-50,-93,0,0,100,0,320,480,64,96,0,-18,-93,0,1,100,0,512,576,64,96,0,-18,-93,0,0,100,0,512,480,64,96,0,-47,-95,1,0,100,0,0,384,96,96,0,-48,-16,0,0,65,0,384,0,96,32,0,
0,14,-176,-72,0,0,100,0,128,768,128,96,0,-176,-72,0,0,20,0,256,768,128,96,0,-48,-98,0,0,100,0,704,128,64,64,0,-32,-82,0,1,60,0,416,32,32,32,0,-33,-82,0,0,100,0,480,0,32,32,0,-18,-91,0,1,100,0,128,576,64,96,0,-18,-91,0,0,100,0,128,480,64,96,0,-50,-91,0,0,100,0,384,96,96,96,0,-50,-93,0,1,100,0,384,576,64,96,0,-50,-93,0,0,100,0,384,480,64,96,0,-18,-93,0,1,100,0,512,576,64,96,0,-18,-93,0,0,100,0,512,480,64,96,0,-47,-95,1,0,100,0,0,384,96,96,0,-48,-16,0,0,65,0,384,0,96,32,0,
0,14,-176,-72,0,0,100,0,0,768,128,96,0,-176,-72,0,0,20,0,128,768,128,96,0,-48,-98,0,0,100,0,768,128,64,64,0,-32,-82,0,1,40,0,416,32,32,32,0,-33,-82,0,0,100,0,480,0,32,32,0,-18,-91,0,1,100,0,192,576,64,96,0,-18,-91,0,0,100,0,192,480,64,96,0,-50,-91,0,0,100,0,480,96,96,96,0,-50,-93,0,1,100,0,448,576,64,96,0,-50,-93,0,0,100,0,448,480,64,96,0,-18,-93,0,1,100,0,512,576,64,96,0,-18,-93,0,0,100,0,512,480,64,96,0,-47,-95,1,0,100,0,0,384,96,96,0,-48,-16,0,0,65,0,384,0,96,32,0,
0,13,-176,-72,0,0,100,0,0,768,128,96,0,-48,-98,0,0,100,0,768,128,64,64,0,-32,-82,0,1,40,0,416,32,32,32,0,-33,-82,0,0,100,0,480,0,32,32,0,-18,-91,0,1,100,0,0,576,64,96,0,-18,-91,0,0,100,0,0,480,64,96,0,-50,-91,0,0,100,0,192,96,96,96,0,-50,-93,0,1,100,0,256,576,64,96,0,-50,-93,0,0,100,0,256,480,64,96,0,-18,-93,0,1,100,0,512,576,64,96,0,-18,-93,0,0,100,0,512,480,64,96,0,-47,-95,1,0,100,0,0,384,96,96,0,-48,-16,0,0,65,0,384,0,96,32,0,
0,13,-176,-72,0,0,100,0,0,768,128,96,0,-48,-98,0,0,100,0,576,128,64,64,0,-32,-82,0,1,20,0,416,32,32,32,0,-33,-82,0,0,100,0,480,0,32,32,0,-18,-91,0,1,100,0,64,576,64,96,0,-18,-91,0,0,100,0,64,480,64,96,0,-50,-91,0,0,100,0,288,96,96,96,0,-50,-93,0,1,100,0,320,576,64,96,0,-50,-93,0,0,100,0,320,480,64,96,0,-18,-93,0,1,100,0,512,576,64,96,0,-18,-93,0,0,100,0,512,480,64,96,0,-47,-95,1,0,100,0,0,384,96,96,0,-48,-16,0,0,65,0,384,0,96,32,0,
0,16,-152,-104,0,0,50,0,0,672,96,96,0,-120,-74,0,0,100,0,384,32,32,32,0,-176,-72,0,0,100,0,0,768,128,96,0,-48,-98,0,0,100,0,576,128,64,64,0,-32,-82,0,1,20,0,416,32,32,32,0,-33,-82,0,0,100,0,480,0,32,32,0,-32,-82,0,1,20,0,416,32,32,32,0,-18,-91,0,1,100,0,128,576,64,96,0,-18,-91,0,0,100,0,128,480,64,96,0,-50,-91,0,0,100,0,384,96,96,96,0,-50,-93,0,1,100,0,384,576,64,96,0,-50,-93,0,0,100,0,384,480,64,96,0,-18,-93,0,1,100,0,512,576,64,96,0,-18,-93,0,0,100,0,512,480,64,96,0,-47,-95,1,0,100,0,0,384,96,96,0,-48,-16,0,0,65,0,384,0,96,32,0,
0,16,-152,-104,0,0,100,0,96,672,96,96,0,-184,-80,0,0,50,0,0,672,96,96,0,-152,-50,0,0,100,0,384,32,32,32,0,-176,-72,0,0,100,0,0,768,128,96,0,-48,-98,0,0,100,0,640,128,64,64,0,-32,-82,0,1,40,0,416,32,32,32,0,-33,-82,0,0,100,0,480,0,32,32,0,-18,-91,0,1,100,0,192,576,64,96,0,-18,-91,0,0,100,0,192,480,64,96,0,-50,-91,0,0,100,0,480,96,96,96,0,-50,-93,0,1,100,0,448,576,64,96,0,-50,-93,0,0,100,0,448,480,64,96,0,-18,-93,0,1,100,0,512,576,64,96,0,-18,-93,0,0,100,0,512,480,64,96,0,-47,-95,1,0,100,0,0,384,96,96,0,-48,-16,0,0,65,0,384,0,96,32,0,
0,17,-152,-104,0,0,100,0,192,672,96,96,0,-184,-80,0,0,100,0,96,672,96,96,0,-144,-64,0,0,50,0,0,672,96,96,0,-112,-34,0,0,100,0,384,32,32,32,0,-176,-72,0,0,100,0,0,768,128,96,0,-48,-98,0,0,100,0,640,128,64,64,0,-32,-82,0,1,40,0,416,32,32,32,0,-33,-82,0,0,100,0,480,0,32,32,0,-18,-91,0,1,100,0,0,576,64,96,0,-18,-91,0,0,100,0,0,480,64,96,0,-50,-91,0,0,100,0,192,96,96,96,0,-50,-93,0,1,100,0,256,576,64,96,0,-50,-93,0,0,100,0,256,480,64,96,0,-18,-93,0,1,100,0,512,576,64,96,0,-18,-93,0,0,100,0,512,480,64,96,0,-47,-95,1,0,100,0,0,384,96,96,0,-48,-16,0,0,65,0,384,0,96,32,0,
0,22,-105,-85,0,0,100,0,480,32,32,32,0,-129,-83,3,0,100,0,512,32,32,32,0,-102,-67,0,0,100,0,512,64,32,32,0,-122,-80,0,0,100,0,512,32,32,32,0,-152,-104,0,0,100,0,288,672,96,96,0,-184,-80,0,0,80,0,192,672,96,96,0,-144,-64,0,0,100,0,96,672,96,96,0,-160,-48,0,0,50,0,0,672,96,96,0,-128,-18,0,0,100,0,384,32,32,32,0,-176,-72,0,0,100,0,0,768,128,96,0,-48,-98,0,0,100,0,704,128,64,64,0,-32,-82,0,1,60,0,416,32,32,32,0,-33,-82,0,0,100,0,480,0,32,32,0,-18,-91,0,1,100,0,64,576,64,96,0,-18,-91,0,0,100,0,64,480,64,96,0,-50,-91,0,0,100,0,288,96,96,96,0,-50,-93,0,1,100,0,320,576,64,96,0,-50,-93,0,0,100,0,320,480,64,96,0,-18,-93,0,1,100,0,512,576,64,96,0,-18,-93,0,0,100,0,512,480,64,96,0,-47,-95,1,0,100,0,0,384,96,96,0,-48,-16,0,0,65,0,384,0,96,32,0,
0,23,-102,-90,0,0,100,0,480,32,32,32,0,-137,-86,3,0,100,0,512,32,32,32,0,-96,-64,0,0,100,0,512,64,32,32,0,-118,-82,0,0,100,0,512,32,32,32,0,-157,-31,3,0,100,0,512,64,32,32,0,-114,-7,0,0,100,0,512,32,32,32,0,-152,-104,0,0,100,0,384,672,96,96,0,-184,-80,0,0,100,0,288,672,96,96,0,-144,-64,0,0,100,0,192,672,96,96,0,-160,-48,0,0,100,0,96,672,96,96,0,-176,-72,0,0,100,0,0,768,128,96,0,-48,-98,0,0,100,0,704,128,64,64,0,-32,-82,0,1,60,0,416,32,32,32,0,-33,-82,0,0,100,0,480,0,32,32,0,-18,-91,0,1,100,0,128,576,64,96,0,-18,-91,0,0,100,0,128,480,64,96,0,-50,-91,0,0,100,0,384,96,96,96,0,-50,-93,0,1,100,0,384,576,64,96,0,-50,-93,0,0,100,0,384,480,64,96,0,-18,-93,0,1,100,0,512,576,64,96,0,-18,-93,0,0,100,0,512,480,64,96,0,-47,-95,1,0,100,0,0,384,96,96,0,-48,-16,0,0,65,0,384,0,96,32,0,
0,23,-103,-89,0,0,100,0,512,32,32,32,0,-137,-84,3,0,100,0,544,32,32,32,0,-91,-61,0,0,100,0,544,64,32,32,0,-119,-77,0,0,100,0,544,32,32,32,0,-112,-8,0,0,100,0,512,32,32,32,0,-160,-32,3,0,100,0,512,64,32,32,0,-128,-16,0,0,100,0,512,64,32,32,0,-184,-80,0,0,100,0,384,672,96,96,0,-144,-64,0,0,100,0,288,672,96,96,0,-160,-48,0,0,100,0,192,672,96,96,0,-176,-72,0,0,100,0,0,768,128,96,0,-48,-98,0,0,100,0,768,128,64,64,0,-32,-82,0,1,40,0,416,32,32,32,0,-33,-82,0,0,100,0,480,0,32,32,0,-18,-91,0,1,100,0,192,576,64,96,0,-18,-91,0,0,100,0,192,480,64,96,0,-50,-91,0,0,100,0,480,96,96,96,0,-50,-93,0,1,100,0,448,576,64,96,0,-50,-93,0,0,100,0,448,480,64,96,0,-18,-93,0,1,100,0,512,576,64,96,0,-18,-93,0,0,100,0,512,480,64,96,0,-47,-95,1,0,100,0,0,384,96,96,0,-48,-16,0,0,65,0,384,0,96,32,0,
0,22,-101,-91,0,0,40,0,512,32,32,32,0,-141,-84,3,0,40,0,544,32,32,32,0,-89,-61,0,0,40,0,544,64,32,32,0,-116,-79,0,0,40,0,544,32,32,32,0,-110,-9,0,0,100,0,512,32,32,32,0,-163,-33,3,0,100,0,512,64,32,32,0,-130,-14,0,0,100,0,512,64,32,32,0,-144,-64,0,0,100,0,384,672,96,96,0,-160,-48,0,0,100,0,288,672,96,96,0,-176,-72,0,0,100,0,0,768,128,96,0,-48,-98,0,0,100,0,768,128,64,64,0,-32,-82,0,1,40,0,416,32,32,32,0,-33,-82,0,0,100,0,480,0,32,32,0,-18,-91,0,1,100,0,0,576,64,96,0,-18,-91,0,0,100,0,0,480,64,96,0,-50,-91,0,0,100,0,192,96,96,96,0,-50,-93,0,1,100,0,256,576,64,96,0,-50,-93,0,0,100,0,256,480,64,96,0,-18,-93,0,1,100,0,512,576,64,96,0,-18,-93,0,0,100,0,512,480,64,96,0,-47,-95,1,0,100,0,0,384,96,96,0,-48,-16,0,0,65,0,384,0,96,32,0,
0,19,-160,-112,0,1,50,0,768,736,64,160,0,-168,-80,0,0,100,0,288,384,96,96,0,-107,-10,0,0,100,0,544,32,32,32,0,-167,-35,3,0,100,0,544,64,32,32,0,-132,-13,0,0,100,0,544,64,32,32,0,-160,-48,0,0,100,0,384,672,96,96,0,-176,-72,0,0,100,0,0,768,128,96,0,-48,-98,0,0,100,0,640,128,64,64,0,-32,-82,0,1,20,0,416,32,32,32,0,-33,-82,0,0,100,0,480,0,32,32,0,-18,-91,0,1,100,0,64,576,64,96,0,-18,-91,0,0,100,0,64,480,64,96,0,-50,-91,0,0,100,0,288,96,96,96,0,-50,-93,0,1,100,0,320,576,64,96,0,-50,-93,0,0,100,0,320,480,64,96,0,-18,-93,0,1,100,0,512,576,64,96,0,-18,-93,0,0,100,0,512,480,64,96,0,-47,-95,1,0,100,0,0,384,96,96,0,-48,-16,0,0,65,0,384,0,96,32,0,
0,18,-160,-112,0,1,100,0,768,736,64,160,0,-168,-80,0,0,100,0,384,384,96,96,0,-104,-9,0,0,50,0,544,32,32,32,0,-170,-36,3,0,50,0,544,64,32,32,0,-135,-12,0,0,50,0,544,64,32,32,0,-176,-72,0,0,100,0,0,768,128,96,0,-48,-98,0,0,100,0,640,128,64,64,0,-32,-82,0,1,20,0,416,32,32,32,0,-33,-82,0,0,100,0,480,0,32,32,0,-18,-91,0,1,100,0,128,576,64,96,0,-18,-91,0,0,100,0,128,480,64,96,0,-50,-91,0,0,100,0,384,96,96,96,0,-50,-93,0,1,100,0,384,576,64,96,0,-50,-93,0,0,100,0,384,480,64,96,0,-18,-93,0,1,100,0,512,576,64,96,0,-18,-93,0,0,100,0,512,480,64,96,0,-47,-95,1,0,100,0,0,384,96,96,0,-48,-16,0,0,65,0,384,0,96,32,0,
0,22,-160,-112,0,1,100,0,832,736,64,160,0,-168,-80,0,0,100,0,480,384,96,96,0,-113,-77,0,0,100,0,480,32,32,32,0,-137,-75,3,0,100,0,512,32,32,32,0,-110,-59,0,0,100,0,512,64,32,32,0,-130,-72,0,0,100,0,512,32,32,32,0,-104,-31,2,0,100,0,512,64,32,32,0,-163,-7,1,0,100,0,512,32,32,32,0,-176,-72,0,0,100,0,128,768,128,96,0,-176,-72,0,0,20,0,0,768,128,96,0,-48,-98,0,0,100,0,704,128,64,64,0,-32,-82,0,1,40,0,416,32,32,32,0,-33,-82,0,0,100,0,480,0,32,32,0,-18,-91,0,1,100,0,192,576,64,96,0,-18,-91,0,0,100,0,192,480,64,96,0,-50,-91,0,0,100,0,480,96,96,96,0,-50,-93,0,1,100,0,448,576,64,96,0,-50,-93,0,0,100,0,448,480,64,96,0,-18,-93,0,1,100,0,512,576,64,96,0,-18,-93,0,0,100,0,512,480,64,96,0,-47,-95,1,0,100,0,0,384,96,96,0,-48,-16,0,0,65,0,384,0,96,32,0,
0,23,-160,-112,0,1,100,0,896,736,64,160,0,-184,-96,0,0,100,0,576,352,128,128,0,-110,-82,0,0,100,0,480,32,32,32,0,-145,-78,3,0,100,0,512,32,32,32,0,-104,-56,0,0,100,0,512,64,32,32,0,-126,-74,0,0,100,0,512,32,32,32,0,-165,-8,1,0,100,0,512,32,32,32,0,-101,-32,2,0,100,0,512,64,32,32,0,-149,-16,1,0,100,0,512,64,32,32,0,-176,-72,0,0,100,0,256,768,128,96,0,-176,-72,0,0,20,0,128,768,128,96,0,-48,-98,0,0,100,0,704,128,64,64,0,-32,-82,0,1,40,0,416,32,32,32,0,-33,-82,0,0,100,0,480,0,32,32,0,-18,-91,0,1,100,0,0,576,64,96,0,-18,-91,0,0,100,0,0,480,64,96,0,-50,-91,0,0,100,0,192,96,96,96,0,-50,-93,0,1,100,0,256,576,64,96,0,-50,-93,0,0,100,0,256,480,64,96,0,-18,-93,0,1,100,0,512,576,64,96,0,-18,-93,0,0,100,0,512,480,64,96,0,-47,-95,1,0,100,0,0,384,96,96,0,-48,-16,0,0,65,0,384,0,96,32,0,
0,22,-184,-96,0,0,100,0,704,352,128,128,0,-111,-81,0,0,100,0,512,32,32,32,0,-145,-76,3,0,100,0,544,32,32,32,0,-99,-53,0,0,100,0,544,64,32,32,0,-127,-69,0,0,100,0,544,32,32,32,0,-162,-10,1,0,100,0,544,32,32,32,0,-86,-35,2,0,100,0,544,64,32,32,0,-137,-13,1,0,100,0,544,64,32,32,0,-176,-72,0,0,30,0,384,768,128,96,0,-176,-72,0,0,20,0,256,768,128,96,0,-48,-98,0,0,100,0,768,128,64,64,0,-32,-82,0,1,60,0,416,32,32,32,0,-33,-82,0,0,100,0,480,0,32,32,0,-18,-91,0,1,100,0,64,576,64,96,0,-18,-91,0,0,100,0,64,480,64,96,0,-50,-91,0,0,100,0,288,96,96,96,0,-50,-93,0,1,100,0,320,576,64,96,0,-50,-93,0,0,100,0,320,480,64,96,0,-18,-93,0,1,100,0,512,576,64,96,0,-18,-93,0,0,100,0,512,480,64,96,0,-47,-95,1,0,100,0,0,384,96,96,0,-48,-16,0,0,65,0,384,0,96,32,0,
0,20,-109,-83,0,0,40,0,512,32,32,32,0,-149,-76,3,0,40,0,544,32,32,32,0,-97,-53,0,0,40,0,544,64,32,32,0,-124,-71,0,0,40,0,544,32,32,32,0,-167,-9,1,0,50,0,544,32,32,32,0,-85,-36,2,0,50,0,544,64,32,32,0,-136,-12,1,0,50,0,544,64,32,32,0,-176,-72,0,0,15,0,384,768,128,96,0,-48,-98,0,0,50,0,576,128,64,64,0,-32,-82,0,1,40,0,416,32,32,32,0,-33,-82,0,0,100,0,480,0,32,32,0,-18,-91,0,1,50,0,128,576,64,96,0,-18,-91,0,0,100,0,128,480,64,96,0,-50,-91,0,0,100,0,384,96,96,96,0,-50,-93,0,1,50,0,384,576,64,96,0,-50,-93,0,0,100,0,384,480,64,96,0,-18,-93,0,1,50,0,512,576,64,96,0,-18,-93,0,0,100,0,512,480,64,96,0,-47,-95,1,0,100,0,0,384,96,96,0,-48,-16,0,0,65,0,384,0,96,32,0,
0,9,-48,-98,0,0,30,0,640,128,64,64,0,-32,-82,0,1,10,0,416,32,32,32,0,-33,-81,0,0,100,0,480,0,32,32,0,-18,-90,0,0,100,0,192,480,64,96,0,-50,-90,0,0,100,0,480,96,96,96,0,-50,-92,0,0,100,0,384,480,64,96,0,-18,-93,0,0,100,0,512,480,64,96,0,-47,-94,1,0,100,0,0,384,96,96,0,-48,-16,0,0,65,0,384,0,96,32,0,
0,7,-32,-66,0,0,100,0,480,0,32,32,0,-17,-85,0,0,100,0,0,480,64,96,0,-50,-89,0,0,100,0,0,96,96,96,0,-13,-91,0,0,100,0,512,480,64,96,0,-50,-90,0,0,100,0,256,480,64,96,0,-50,-91,1,0,100,0,0,384,96,96,0,-48,-16,0,0,65,0,384,0,96,32,0,
0,6,-48,-87,1,0,100,0,128,480,64,96,0,-48,-90,0,0,100,0,0,288,96,96,0,-48,-87,1,0,100,0,512,480,64,96,0,-11,-91,1,0,100,0,384,480,64,96,0,-42,-90,1,0,100,0,0,384,96,96,0,-48,-16,0,0,65,0,384,0,96,32,0,
0,7,-48,-91,0,0,50,0,0,864,96,96,0,-48,-91,0,0,100,0,0,192,96,96,0,-52,-89,1,0,100,0,0,480,64,96,0,-55,-95,1,0,100,0,512,480,64,96,0,-14,-91,1,0,100,0,256,480,64,96,0,-52,-90,0,0,100,0,0,384,96,96,0,-48,-16,0,0,65,0,384,0,96,32,0,
0,9,-48,-50,1,1,30,0,768,0,96,64,0,-48,-90,0,0,100,0,96,864,96,96,0,-48,-90,0,0,30,0,0,864,96,96,0,-40,-90,1,0,100,0,0,480,64,96,0,-48,-90,0,0,100,0,96,192,96,96,0,-41,-87,1,0,100,0,512,480,64,96,0,-48,-90,0,0,100,0,96,384,96,96,0,-13,-90,1,0,100,0,576,480,64,96,0,-48,-16,0,0,65,0,384,0,96,32,0,
0,7,-48,-50,1,1,75,0,864,0,96,64,0,-56,-90,1,0,100,0,192,384,96,96,0,-48,-90,0,0,100,0,192,864,96,96,0,-48,-90,0,0,30,0,96,864,96,96,0,-48,-90,0,0,100,0,576,576,96,96,0,-48,-90,0,0,100,0,192,192,96,96,0,-48,-16,0,0,65,0,384,0,96,32,0,
0,7,-48,-50,1,1,75,0,768,64,96,64,0,-40,-90,0,0,100,0,192,384,96,96,0,-48,-90,0,0,100,0,288,864,96,96,0,-48,-90,0,0,30,0,192,864,96,96,0,-48,-90,1,0,100,0,576,576,96,96,0,-48,-90,0,0,100,0,288,192,96,96,0,-48,-16,0,0,65,0,384,0,96,32,0,
0,9,-48,-50,1,1,75,0,864,64,96,64,0,-48,-90,0,0,100,0,384,864,96,96,0,-48,-90,0,0,30,0,288,864,96,96,0,-26,-91,0,0,100,0,704,480,64,96,0,-46,-90,0,0,100,0,384,192,96,96,0,-46,-90,1,0,100,0,96,384,96,96,0,-26,-87,0,0,100,0,512,480,64,96,0,-30,-90,0,0,100,0,576,480,64,96,0,-48,-16,0,0,65,0,384,0,96,32,0,
0,9,-48,-50,1,1,75,0,768,0,96,64,0,-48,-90,0,0,100,0,480,864,96,96,0,-48,-90,0,0,30,0,384,864,96,96,0,-24,-89,0,0,100,0,704,480,64,96,0,-48,-90,0,0,100,0,480,192,96,96,0,-48,-92,1,0,100,0,0,384,96,96,0,-22,-89,0,0,100,0,512,480,64,96,0,-48,-90,0,0,100,0,576,480,64,96,0,-48,-16,0,0,65,0,384,0,96,32,0,
0,9,-48,-50,1,1,30,0,864,0,96,64,0,-48,-90,0,0,100,0,576,864,96,96,0,-48,-90,0,0,30,0,480,864,96,96,0,-22,-88,0,0,100,0,0,480,64,96,0,-48,-89,0,0,100,0,576,192,96,96,0,-48,-91,1,0,100,0,0,384,96,96,0,-23,-88,0,0,100,0,512,480,64,96,0,-47,-90,0,0,100,0,256,480,64,96,0,-48,-16,0,0,65,0,384,0,96,32,0,
0,9,-48,-50,1,1,15,0,864,0,96,64,0,-48,-90,0,0,50,0,672,864,96,96,0,-48,-90,0,0,50,0,576,864,96,96,0,-21,-87,0,0,100,0,0,480,64,96,0,-48,-88,0,0,100,0,576,192,96,96,0,-48,-90,1,0,100,0,0,384,96,96,0,-22,-87,0,0,100,0,512,480,64,96,0,-48,-88,0,0,100,0,256,480,64,96,0,-48,-16,0,0,65,0,384,0,96,32,0,
0,6,-18,-87,0,0,100,0,0,480,64,96,0,-48,-87,0,0,100,0,672,192,96,96,0,-48,-91,1,0,100,0,0,384,96,96,0,-17,-89,0,0,100,0,512,480,64,96,0,-48,-91,0,0,100,0,384,480,64,96,0,-48,-16,0,0,65,0,384,0,96,32,0,
0,6,-13,-93,0,0,100,0,0,480,64,96,0,-48,-88,0,0,100,0,768,192,96,96,0,-13,-93,0,0,100,0,512,480,64,96,0,-49,-97,0,0,100,0,448,480,64,96,0,-48,-92,1,0,100,0,0,384,96,96,0,-48,-16,0,0,65,0,384,0,96,32,0,
0,9,-13,-93,0,1,50,0,0,576,64,96,0,-13,-93,0,0,100,0,0,480,64,96,0,-48,-89,0,0,100,0,96,288,96,96,0,-13,-92,0,1,50,0,512,576,64,96,0,-13,-93,0,0,100,0,512,480,64,96,0,-49,-96,0,1,50,0,256,576,64,96,0,-49,-96,0,0,100,0,256,480,64,96,0,-48,-93,1,0,100,0,0,384,96,96,0,-48,-16,0,0,65,0,384,0,96,32,0,
0,9,-14,-93,0,1,80,0,64,576,64,96,0,-14,-93,0,0,100,0,64,480,64,96,0,-48,-88,0,0,100,0,192,288,96,96,0,-14,-91,0,1,80,0,512,576,64,96,0,-14,-92,0,0,100,0,512,480,64,96,0,-48,-96,0,1,80,0,320,576,64,96,0,-48,-96,0,0,100,0,320,480,64,96,0,-48,-92,1,0,100,0,0,384,96,96,0,-48,-16,0,0,65,0,384,0,96,32,0,
0,9,-14,-93,0,1,100,0,128,576,64,96,0,-14,-93,0,0,100,0,128,480,64,96,0,-48,-89,0,0,100,0,288,288,96,96,0,-13,-92,0,1,100,0,512,576,64,96,0,-13,-93,0,0,100,0,512,480,64,96,0,-49,-96,0,1,100,0,384,576,64,96,0,-49,-96,0,0,100,0,384,480,64,96,0,-48,-93,1,0,100,0,0,384,96,96,0,-48,-16,0,0,65,0,384,0,96,32,0,
0,9,-13,-94,0,1,80,0,192,576,64,96,0,-13,-94,0,0,100,0,192,480,64,96,0,-48,-90,0,0,100,0,384,288,96,96,0,-13,-93,0,1,80,0,512,576,64,96,0,-13,-94,0,0,100,0,512,480,64,96,0,-49,-96,0,1,80,0,448,576,64,96,0,-49,-96,0,0,100,0,448,480,64,96,0,-48,-94,1,0,100,0,0,384,96,96,0,-48,-16,0,0,65,0,384,0,96,32,0,
0,6,-15,-88,0,0,100,0,0,480,64,96,0,-50,-86,0,0,100,0,672,0,96,96,0,-15,-89,0,0,100,0,512,480,64,96,0,-50,-86,0,0,100,0,576,480,64,96,0,-49,-88,1,0,100,0,0,384,96,96,0,-48,-16,0,0,65,0,384,0,96,32,0,
