0,17,-51,-71,0,0,100,0,0,320,96,96,0,-11,-55,0,0,100,0,0,120,40,40,0,-43,-63,0,0,100,0,320,0,80,80,0,-27,-55,0,0,100,0,0,80,40,40,0,-35,-47,0,0,100,0,0,40,40,40,0,-19,-63,0,0,100,0,0,0,40,40,0,-27,-39,0,0,100,0,0,160,40,40,0,-19,-31,0,0,100,0,0,200,40,40,0,-19,-47,0,0,100,0,160,120,40,40,0,-19,-31,0,0,100,0,0,240,40,40,0,-19,-31,0,0,100,0,0,280,40,40,0,-11,-39,0,0,100,0,160,0,40,40,0,-11,-55,0,0,100,0,160,80,40,40,0,-11,-55,0,0,100,0,160,40,40,40,0,-51,-95,0,0,100,0,320,80,80,80,0,-51,-55,0,0,100,0,320,160,80,80,0,-28,-12,0,0,65,0,480,296,56,24,0,
0,17,-51,-71,0,0,100,0,96,320,96,96,0,-12,-55,0,0,100,0,0,120,40,40,0,-44,-63,0,0,100,0,320,0,80,80,0,-27,-54,0,0,100,0,0,80,40,40,0,-35,-46,0,0,100,0,40,40,40,40,0,-19,-63,0,0,100,0,40,0,40,40,0,-27,-39,0,0,100,0,0,160,40,40,0,-19,-31,0,0,100,0,40,200,40,40,0,-19,-47,0,0,100,0,160,120,40,40,0,-19,-31,0,0,100,0,0,240,40,40,0,-19,-30,0,0,100,0,40,280,40,40,0,-11,-39,0,0,100,0,200,0,40,40,0,-11,-55,0,0,100,0,160,80,40,40,0,-12,-55,0,0,100,0,160,40,40,40,0,-51,-95,0,0,100,0,400,80,80,80,0,-51,-55,0,0,100,0,400,160,80,80,0,-28,-12,0,0,65,0,480,296,56,24,0,
0,17,-51,-71,0,0,100,0,192,320,96,96,0,-13,-54,0,0,100,0,0,120,40,40,0,-45,-62,0,0,100,0,320,0,80,80,0,-27,-53,0,0,100,0,0,80,40,40,0,-35,-45,0,0,100,0,80,40,40,40,0,-19,-62,0,0,100,0,80,0,40,40,0,-27,-38,0,0,100,0,0,160,40,40,0,-19,-30,0,0,100,0,80,200,40,40,0,-19,-46,0,0,100,0,160,120,40,40,0,-19,-31,0,0,100,0,40,240,40,40,0,-19,-29,0,0,100,0,40,280,40,40,0,-11,-38,0,0,100,0,240,0,40,40,0,-11,-54,0,0,100,0,160,80,40,40,0,-12,-54,0,0,100,0,160,40,40,40,0,-51,-94,0,0,100,0,480,80,80,80,0,-51,-55,0,0,100,0,480,160,80,80,0,-28,-12,0,0,65,0,480,296,56,24,0,
0,17,-51,-71,0,0,100,0,288,320,96,96,0,-12,-55,0,0,100,0,0,120,40,40,0,-44,-63,0,0,100,0,320,0,80,80,0,-27,-54,0,0,100,0,0,80,40,40,0,-35,-46,0,0,100,0,120,40,40,40,0,-19,-62,0,0,100,0,120,0,40,40,0,-27,-38,0,0,100,0,0,160,40,40,0,-19,-30,0,0,100,0,120,200,40,40,0,-19,-46,0,0,100,0,160,120,40,40,0,-19,-31,0,0,100,0,40,240,40,40,0,-19,-30,0,0,100,0,0,280,40,40,0,-11,-38,0,0,100,0,280,0,40,40,0,-11,-54,0,0,100,0,160,80,40,40,0,-11,-54,0,0,100,0,160,40,40,40,0,-51,-94,0,0,100,0,560,80,80,80,0,-51,-55,0,0,100,0,560,160,80,80,0,-28,-12,0,0,65,0,480,296,56,24,0,
0,15,-32,-40,0,0,100,0,0,80,40,40,0,-37,-40,0,0,100,0,120,80,40,40,0,-48,-44,0,0,100,0,80,80,40,40,0,-35,-48,0,0,100,0,360,280,40,40,0,-28,-56,0,0,100,0,640,160,80,80,0,-21,-33,0,0,100,0,40,160,40,40,0,-43,-30,0,0,100,0,160,200,80,40,0,-30,-37,0,0,100,0,200,120,40,40,0,-15,-27,0,0,100,0,80,280,40,40,0,-28,-28,0,0,100,0,80,240,40,40,0,-24,-30,0,0,100,0,160,0,40,40,0,-22,-45,0,0,100,0,160,40,40,40,0,-35,-78,1,0,100,0,320,80,80,80,0,-42,-57,0,0,100,0,560,0,80,80,0,-28,-12,0,0,65,0,480,272,56,24,0,
0,20,-23,-52,0,0,100,0,280,40,40,40,0,-21,-54,0,0,100,0,280,80,40,40,0,-19,-68,1,0,100,0,320,0,80,80,0,-26,-59,0,0,100,0,80,80,40,40,0,-24,-53,0,0,100,0,240,40,40,40,0,-28,-52,0,0,100,0,200,40,40,40,0,-21,-53,0,0,100,0,240,80,40,40,0,-19,-53,0,0,100,0,200,80,40,40,0,-27,-60,0,0,100,0,360,280,40,40,0,-37,-36,0,0,100,0,80,160,40,40,0,-25,-36,0,0,100,0,240,200,40,40,0,-17,-36,0,0,100,0,120,160,40,40,0,-26,-45,0,0,100,0,240,120,40,40,0,-36,-33,0,0,100,0,120,240,40,40,0,-16,-35,0,0,100,0,120,280,40,40,0,-33,-52,0,0,100,0,40,80,40,40,0,-18,-51,0,0,100,0,160,40,40,40,0,-65,-62,1,0,100,0,720,160,80,80,0,-54,-85,0,0,100,0,320,80,80,80,0,-33,-12,0,0,65,0,480,272,56,24,0,
0,20,-26,-54,0,0,100,0,280,40,40,40,0,-24,-55,0,0,100,0,280,80,40,40,0,-22,-70,1,0,100,0,320,0,80,80,0,-29,-61,0,0,100,0,80,80,40,40,0,-27,-55,0,0,100,0,240,40,40,40,0,-30,-53,0,0,100,0,200,40,40,40,0,-24,-55,0,0,100,0,240,80,40,40,0,-21,-54,0,0,100,0,200,80,40,40,0,-29,-60,0,0,100,0,360,280,40,40,0,-38,-36,0,0,100,0,80,160,40,40,0,-26,-36,0,0,100,0,240,200,40,40,0,-18,-36,0,0,100,0,120,160,40,40,0,-27,-45,0,0,100,0,240,120,40,40,0,-36,-33,0,0,100,0,120,240,40,40,0,-16,-35,0,0,100,0,120,280,40,40,0,-34,-52,0,0,100,0,40,80,40,40,0,-18,-52,0,0,100,0,160,40,40,40,0,-62,-63,1,0,100,0,800,160,80,80,0,-51,-82,0,0,100,0,400,80,80,80,0,-33,-12,0,0,65,0,480,272,56,24,0,
0,21,-90,-146,0,1,100,0,0,968,160,136,0,-116,-104,0,1,100,0,472,536,72,120,0,-115,-132,0,1,100,0,472,536,72,120,0,-90,-156,0,1,100,0,544,536,72,120,0,-128,-129,0,1,100,0,0,536,216,176,0,-31,-44,1,0,100,0,0,80,40,40,0,-37,-35,0,0,100,0,40,120,40,40,0,-77,-49,1,0,100,0,400,0,80,80,0,-31,-32,1,0,100,0,80,80,40,40,0,-40,-49,0,0,100,0,360,240,40,40,0,-19,-32,1,0,100,0,80,160,40,40,0,-31,-32,1,0,100,0,240,200,40,40,0,-39,-32,1,0,100,0,120,160,40,40,0,-34,-38,0,0,100,0,200,120,40,40,0,-36,-34,0,0,100,0,160,240,40,40,0,-19,-35,0,0,100,0,160,280,40,40,0,-42,-42,0,0,100,0,40,80,40,40,0,-42,-44,1,0,100,0,160,40,40,40,0,-31,-56,0,0,100,0,800,160,80,80,0,-38,-81,0,0,100,0,640,80,80,80,0,-33,-12,0,0,65,0,480,272,56,24,0,
0,24,-97,-152,0,1,100,0,160,968,160,136,0,-123,-100,0,1,100,0,472,536,72,120,0,-116,-104,0,1,100,0,544,536,72,120,0,-115,-132,0,1,100,0,544,536,72,120,0,-90,-156,0,1,100,0,616,536,72,120,0,-140,-76,0,1,100,0,320,416,152,120,0,-136,-129,0,1,100,0,216,536,144,176,0,-32,-43,1,0,100,0,0,80,40,40,0,-42,-48,0,0,100,0,360,240,40,40,0,-38,-32,0,0,100,0,80,120,40,40,0,-36,-32,0,0,100,0,120,120,40,40,0,-77,-37,0,0,100,0,320,0,80,80,0,-31,-31,1,0,100,0,80,80,40,40,0,-20,-31,1,0,100,0,80,160,40,40,0,-33,-31,1,0,100,0,240,200,40,40,0,-41,-30,1,0,100,0,120,160,40,40,0,-36,-37,0,0,100,0,200,120,40,40,0,-38,-34,0,0,100,0,200,240,40,40,0,-20,-35,0,0,100,0,200,280,40,40,0,-43,-40,0,0,100,0,40,80,40,40,0,-43,-40,1,0,100,0,160,40,40,40,0,-33,-52,0,0,100,0,880,160,80,80,0,-40,-79,0,0,100,0,640,80,80,80,0,-34,-12,0,0,65,0,480,272,56,24,0,
0,24,-97,-152,0,1,100,0,320,968,160,136,0,-123,-100,0,1,100,0,544,536,72,120,0,-116,-104,0,1,100,0,616,536,72,120,0,-115,-132,0,1,100,0,616,536,72,120,0,-90,-156,0,1,100,0,688,536,72,120,0,-157,-73,0,1,100,0,472,416,152,120,0,-119,-37,0,1,100,0,360,536,112,88,0,-31,-43,1,0,100,0,0,80,40,40,0,-42,-47,0,0,100,0,400,240,40,40,0,-76,-36,0,0,100,0,320,0,80,80,0,-38,-31,0,0,100,0,80,120,40,40,0,-35,-31,0,0,100,0,120,120,40,40,0,-30,-30,1,0,100,0,80,80,40,40,0,-20,-30,1,0,100,0,80,160,40,40,0,-33,-30,1,0,100,0,280,200,40,40,0,-41,-29,1,0,100,0,120,160,40,40,0,-36,-36,0,0,100,0,200,120,40,40,0,-39,-34,0,0,100,0,200,240,40,40,0,-20,-35,0,0,100,0,200,280,40,40,0,-43,-39,0,0,100,0,40,80,40,40,0,-42,-39,1,0,100,0,160,40,40,40,0,-40,-46,1,0,100,0,320,160,80,80,0,-42,-78,0,0,100,0,720,80,80,80,0,-34,-12,0,0,65,0,480,272,56,24,0,
0,22,-123,-100,0,1,100,0,616,536,72,120,0,-116,-104,0,1,100,0,688,536,72,120,0,-115,-132,0,1,100,0,688,536,72,120,0,-157,-73,0,1,100,0,624,416,152,120,0,-123,-30,0,1,100,0,360,624,112,88,0,-31,-43,1,0,100,0,0,80,40,40,0,-42,-47,0,0,100,0,440,240,40,40,0,-75,-36,0,0,100,0,320,0,80,80,0,-37,-31,0,0,100,0,80,120,40,40,0,-34,-31,0,0,100,0,120,120,40,40,0,-29,-30,1,0,100,0,80,80,40,40,0,-20,-30,1,0,100,0,80,160,40,40,0,-33,-30,1,0,100,0,280,200,40,40,0,-41,-29,1,0,100,0,120,160,40,40,0,-36,-36,0,0,100,0,200,120,40,40,0,-39,-34,0,0,100,0,200,240,40,40,0,-20,-35,0,0,100,0,200,280,40,40,0,-43,-38,0,0,100,0,40,80,40,40,0,-42,-39,1,0,100,0,160,40,40,40,0,-42,-46,1,0,100,0,400,160,80,80,0,-44,-75,0,0,100,0,800,80,80,80,0,-34,-12,0,0,65,0,480,272,56,24,0,
0,19,-123,-100,0,1,100,0,688,536,72,120,0,-157,-73,0,1,100,0,776,416,152,120,0,-31,-43,1,0,100,0,0,80,40,40,0,-42,-47,0,0,100,0,440,240,40,40,0,-75,-36,0,0,100,0,320,0,80,80,0,-37,-31,0,0,100,0,80,120,40,40,0,-34,-31,0,0,100,0,120,120,40,40,0,-29,-30,1,0,100,0,80,80,40,40,0,-20,-30,1,0,100,0,80,160,40,40,0,-33,-30,1,0,100,0,280,200,40,40,0,-41,-29,1,0,100,0,120,160,40,40,0,-36,-36,0,0,100,0,200,120,40,40,0,-39,-34,0,0,100,0,200,240,40,40,0,-20,-35,0,0,100,0,200,280,40,40,0,-43,-38,0,0,100,0,40,80,40,40,0,-42,-39,1,0,100,0,160,40,40,40,0,-43,-46,1,0,100,0,400,160,80,80,0,-44,-55,0,0,100,0,880,80,80,80,0,-34,-12,0,0,65,0,480,272,56,24,0,
0,17,-31,-43,1,0,100,0,0,80,40,40,0,-42,-48,0,0,100,0,440,240,40,40,0,-77,-37,0,0,100,0,480,0,80,80,0,-38,-32,0,0,100,0,80,120,40,40,0,-35,-31,0,0,100,0,120,120,40,40,0,-30,-30,1,0,100,0,80,80,40,40,0,-20,-31,1,0,100,0,80,160,40,40,0,-33,-31,1,0,100,0,280,200,40,40,0,-41,-30,1,0,100,0,120,160,40,40,0,-36,-37,0,0,100,0,200,120,40,40,0,-39,-34,0,0,100,0,160,240,40,40,0,-20,-35,0,0,100,0,160,280,40,40,0,-43,-38,0,0,100,0,40,80,40,40,0,-42,-40,1,0,100,0,160,40,40,40,0,-44,-54,0,0,100,0,880,80,80,80,0,-43,-46,1,0,100,0,400,160,80,80,0,-34,-12,0,0,65,0,480,272,56,24,0,
0,26,-104,-117,0,1,100,0,0,1104,136,136,0,-175,-41,0,1,100,0,760,680,168,72,0,-153,-61,0,1,100,0,760,608,168,72,0,-140,-91,0,1,100,0,760,536,168,72,0,-96,-94,0,1,100,0,760,536,168,72,0,-166,-166,0,1,100,0,0,712,296,256,0,-19,-53,0,0,100,0,280,40,40,40,0,-20,-57,0,0,100,0,280,160,40,40,0,-15,-87,3,0,100,0,320,0,80,80,0,-24,-55,2,0,100,0,80,80,40,40,0,-22,-51,0,0,100,0,280,120,40,40,0,-17,-54,0,0,100,0,240,80,40,40,0,-16,-53,0,0,100,0,200,80,40,40,0,-25,-60,0,0,100,0,360,280,40,40,0,-38,-36,0,0,100,0,80,160,40,40,0,-26,-36,0,0,100,0,240,200,40,40,0,-18,-36,0,0,100,0,120,160,40,40,0,-26,-45,0,0,100,0,240,120,40,40,0,-36,-33,0,0,100,0,120,240,40,40,0,-16,-35,0,0,100,0,120,280,40,40,0,-17,-52,1,0,100,0,40,80,40,40,0,-33,-52,0,0,100,0,40,80,40,40,0,-18,-53,0,0,100,0,160,40,40,40,0,-59,-55,1,0,100,0,560,240,80,80,0,-59,-81,1,0,100,0,720,80,80,80,0,-33,-12,0,0,65,0,480,272,56,24,0,
0,27,-152,-117,0,1,100,0,136,1104,200,136,0,-71,-109,0,1,100,0,760,536,168,72,0,-153,-61,0,1,100,0,760,680,168,72,0,-140,-91,0,1,100,0,760,608,168,72,0,-96,-94,0,1,100,0,760,608,168,72,0,-19,-152,0,1,100,0,576,752,160,136,0,-118,-125,0,1,100,0,296,712,280,120,0,-16,-52,0,0,100,0,280,40,40,40,0,-17,-56,0,0,100,0,280,160,40,40,0,-12,-86,3,0,100,0,320,0,80,80,0,-22,-55,2,0,100,0,80,80,40,40,0,-20,-51,0,0,100,0,280,120,40,40,0,-15,-54,0,0,100,0,240,80,40,40,0,-14,-53,0,0,100,0,200,80,40,40,0,-23,-60,0,0,100,0,360,280,40,40,0,-36,-37,0,0,100,0,80,160,40,40,0,-24,-36,0,0,100,0,280,200,40,40,0,-16,-35,0,0,100,0,120,160,40,40,0,-24,-45,0,0,100,0,240,120,40,40,0,-35,-33,0,0,100,0,120,240,40,40,0,-14,-35,0,0,100,0,120,280,40,40,0,-15,-51,1,0,100,0,40,80,40,40,0,-31,-53,0,0,100,0,40,80,40,40,0,-17,-53,0,0,100,0,160,40,40,40,0,-64,-66,1,0,100,0,720,160,80,80,0,-53,-91,0,0,100,0,320,80,80,80,0,-31,-12,0,0,65,0,480,272,56,24,0,
0,27,-152,-117,0,1,100,0,336,1104,208,136,0,-52,-107,0,1,100,0,760,536,168,72,0,-71,-109,0,1,100,0,760,608,168,72,0,-140,-91,0,1,100,0,760,680,168,72,0,-96,-94,0,1,100,0,760,680,168,72,0,-20,-149,0,1,100,0,736,752,160,136,0,-23,-129,0,1,100,0,296,832,144,136,0,-14,-50,0,0,100,0,280,40,40,40,0,-15,-54,0,0,100,0,280,160,40,40,0,-10,-84,3,0,100,0,320,0,80,80,0,-20,-53,2,0,100,0,80,80,40,40,0,-19,-50,0,0,100,0,280,120,40,40,0,-13,-53,0,0,100,0,240,80,40,40,0,-12,-52,0,0,100,0,200,80,40,40,0,-21,-59,0,0,100,0,400,280,40,40,0,-35,-36,0,0,100,0,80,160,40,40,0,-23,-35,0,0,100,0,280,200,40,40,0,-15,-34,0,0,100,0,120,160,40,40,0,-23,-44,0,0,100,0,240,120,40,40,0,-35,-33,0,0,100,0,120,240,40,40,0,-13,-35,0,0,100,0,120,280,40,40,0,-14,-50,1,0,100,0,40,80,40,40,0,-30,-53,0,0,100,0,40,80,40,40,0,-17,-53,0,0,100,0,160,40,40,40,0,-62,-67,1,0,100,0,800,160,80,80,0,-20,-91,1,0,100,0,480,80,80,80,0,-31,-12,0,0,65,0,480,272,56,24,0,
0,25,-168,-117,0,1,100,0,544,1104,200,136,0,-52,-107,0,1,100,0,760,608,168,72,0,-71,-109,0,1,100,0,760,680,168,72,0,-20,-161,0,1,100,0,576,888,160,136,0,-3,-131,0,1,100,0,440,832,136,136,0,-14,-49,0,0,100,0,280,40,40,40,0,-15,-53,0,0,100,0,280,160,40,40,0,-10,-83,3,0,100,0,320,0,80,80,0,-20,-52,2,0,100,0,80,80,40,40,0,-19,-49,0,0,100,0,280,120,40,40,0,-13,-52,0,0,100,0,240,80,40,40,0,-12,-51,0,0,100,0,200,80,40,40,0,-21,-59,0,0,100,0,440,280,40,40,0,-35,-36,0,0,100,0,80,160,40,40,0,-23,-35,0,0,100,0,280,200,40,40,0,-15,-34,0,0,100,0,120,160,40,40,0,-23,-44,0,0,100,0,240,120,40,40,0,-35,-33,0,0,100,0,120,240,40,40,0,-13,-35,0,0,100,0,120,280,40,40,0,-14,-49,1,0,100,0,40,80,40,40,0,-30,-52,0,0,100,0,40,80,40,40,0,-17,-53,0,0,100,0,160,40,40,40,0,-57,-63,1,0,100,0,880,160,80,80,0,-20,-88,0,0,100,0,720,80,80,80,0,-31,-12,0,0,65,0,480,272,56,24,0,
0,23,-144,-117,0,1,100,0,744,1104,136,136,0,-52,-107,0,1,100,0,760,680,168,72,0,-12,-161,0,1,100,0,736,888,160,136,0,-14,-49,0,0,100,0,280,40,40,40,0,-15,-53,0,0,100,0,280,160,40,40,0,-10,-83,3,0,100,0,320,0,80,80,0,-20,-52,2,0,100,0,80,80,40,40,0,-19,-49,0,0,100,0,280,120,40,40,0,-13,-52,0,0,100,0,240,80,40,40,0,-12,-51,0,0,100,0,200,80,40,40,0,-21,-59,0,0,100,0,440,280,40,40,0,-35,-36,0,0,100,0,80,160,40,40,0,-23,-35,0,0,100,0,240,200,40,40,0,-15,-34,0,0,100,0,120,160,40,40,0,-23,-44,0,0,100,0,240,120,40,40,0,-35,-33,0,0,100,0,120,240,40,40,0,-13,-35,0,0,100,0,120,280,40,40,0,-14,-49,1,0,100,0,40,80,40,40,0,-30,-52,0,0,100,0,40,80,40,40,0,-17,-53,0,0,100,0,160,40,40,40,0,-54,-53,1,0,100,0,560,240,80,80,0,-23,-85,0,0,100,0,800,80,80,80,0,-31,-12,0,0,65,0,480,272,56,24,0,
0,20,-14,-49,0,0,100,0,280,40,40,40,0,-15,-53,0,0,100,0,280,160,40,40,0,-10,-83,3,0,100,0,320,0,80,80,0,-20,-52,2,0,100,0,80,80,40,40,0,-19,-49,0,0,100,0,280,120,40,40,0,-13,-52,0,0,100,0,240,80,40,40,0,-12,-51,0,0,100,0,200,80,40,40,0,-21,-59,0,0,100,0,440,280,40,40,0,-35,-36,0,0,100,0,80,160,40,40,0,-23,-35,0,0,100,0,240,200,40,40,0,-15,-34,0,0,100,0,120,160,40,40,0,-23,-44,0,0,100,0,240,120,40,40,0,-35,-33,0,0,100,0,120,240,40,40,0,-13,-35,0,0,100,0,120,280,40,40,0,-14,-49,1,0,100,0,40,80,40,40,0,-30,-52,0,0,100,0,40,80,40,40,0,-17,-53,0,0,100,0,160,40,40,40,0,-51,-50,0,0,100,0,400,160,80,80,0,-24,-64,0,0,100,0,880,80,80,80,0,-31,-12,0,0,65,0,480,272,56,24,0,
0,16,-11,-53,1,0,100,0,0,80,40,40,0,-47,-47,0,0,100,0,320,0,80,80,0,-10,-41,0,0,100,0,80,416,40,40,0,-19,-62,0,0,100,0,440,280,40,40,0,-7,-37,1,0,100,0,80,160,40,40,0,-18,-29,0,0,100,0,240,160,40,40,0,-18,-47,1,0,100,0,240,120,40,40,0,-25,-37,1,0,100,0,120,160,40,40,0,-18,-29,0,0,100,0,240,280,40,40,0,-17,-29,0,0,100,0,280,280,40,40,0,-34,-47,0,0,100,0,0,40,40,40,0,-24,-52,0,0,100,0,40,80,40,40,0,-18,-26,0,0,100,0,200,160,40,40,0,-39,-57,0,0,100,0,640,240,80,80,0,-23,-68,0,0,100,0,880,240,80,80,0,-25,-12,0,0,65,0,480,272,56,24,0,
0,17,-27,-56,0,0,100,0,0,416,40,40,0,-45,-47,0,0,100,0,320,0,80,80,0,-10,-53,1,0,100,0,0,80,40,40,0,-8,-41,0,0,100,0,80,416,40,40,0,-17,-62,0,0,100,0,320,280,40,40,0,-7,-37,1,0,100,0,80,160,40,40,0,-18,-30,0,0,100,0,240,160,40,40,0,-17,-48,1,0,100,0,160,120,40,40,0,-25,-37,1,0,100,0,120,160,40,40,0,-18,-29,0,0,100,0,240,280,40,40,0,-17,-29,0,0,100,0,280,280,40,40,0,-27,-55,0,0,100,0,40,416,40,40,0,-23,-54,0,0,100,0,40,80,40,40,0,-18,-26,0,0,100,0,200,160,40,40,0,-38,-57,0,0,100,0,640,240,80,80,0,-19,-66,0,0,100,0,880,240,80,80,0,-25,-12,0,0,65,0,480,272,56,24,0,
0,17,-23,-59,0,0,100,0,0,416,40,40,0,-42,-48,0,0,100,0,320,0,80,80,0,-7,-53,1,0,100,0,0,80,40,40,0,-6,-41,0,0,100,0,80,416,40,40,0,-13,-62,0,0,100,0,320,240,40,40,0,-6,-37,1,0,100,0,80,160,40,40,0,-17,-30,0,0,100,0,240,160,40,40,0,-15,-48,1,0,100,0,160,120,40,40,0,-24,-37,1,0,100,0,120,160,40,40,0,-18,-29,0,0,100,0,240,280,40,40,0,-17,-29,0,0,100,0,280,280,40,40,0,-25,-57,0,0,100,0,40,416,40,40,0,-20,-56,0,0,100,0,40,80,40,40,0,-17,-26,0,0,100,0,200,160,40,40,0,-36,-57,0,0,100,0,640,240,80,80,0,-15,-65,0,0,100,0,880,240,80,80,0,-24,-12,0,0,65,0,480,272,56,24,0,
0,17,-21,-60,0,0,100,0,0,416,40,40,0,-41,-48,0,0,100,0,320,0,80,80,0,-7,-53,1,0,100,0,0,80,40,40,0,-5,-41,0,0,100,0,80,416,40,40,0,-12,-62,0,0,100,0,320,240,40,40,0,-6,-37,1,0,100,0,80,160,40,40,0,-17,-30,0,0,100,0,240,160,40,40,0,-15,-48,1,0,100,0,160,120,40,40,0,-24,-37,1,0,100,0,120,160,40,40,0,-18,-29,0,0,100,0,240,280,40,40,0,-17,-29,0,0,100,0,280,280,40,40,0,-23,-58,0,0,100,0,40,416,40,40,0,-20,-56,0,0,100,0,40,80,40,40,0,-17,-26,0,0,100,0,200,160,40,40,0,-35,-57,0,0,100,0,640,240,80,80,0,-14,-65,0,0,100,0,880,80,80,80,0,-22,-12,0,0,65,0,480,272,56,24,0,
0,17,-24,-59,0,0,100,0,0,416,40,40,0,-42,-47,0,0,100,0,320,0,80,80,0,-8,-53,1,0,100,0,0,80,40,40,0,-6,-40,0,0,100,0,80,416,40,40,0,-13,-62,0,0,100,0,320,240,40,40,0,-5,-37,1,0,100,0,80,160,40,40,0,-16,-30,0,0,100,0,240,160,40,40,0,-16,-48,1,0,100,0,160,120,40,40,0,-23,-37,1,0,100,0,120,160,40,40,0,-18,-29,0,0,100,0,240,280,40,40,0,-17,-29,0,0,100,0,280,280,40,40,0,-24,-57,0,0,100,0,40,416,40,40,0,-21,-56,0,0,100,0,40,80,40,40,0,-17,-26,0,0,100,0,200,160,40,40,0,-34,-57,0,0,100,0,720,240,80,80,0,-15,-65,0,0,100,0,880,80,80,80,0,-22,-12,0,0,65,0,480,272,56,24,0,
0,16,-46,-47,0,0,100,0,320,0,80,80,0,-12,-56,1,0,100,0,80,456,40,40,0,-9,-41,0,0,100,0,200,416,40,40,0,-25,-57,0,0,100,0,360,240,40,40,0,-5,-37,1,0,100,0,80,160,40,40,0,-21,-43,0,0,100,0,200,120,40,40,0,-16,-33,0,0,100,0,280,416,40,40,0,-22,-37,1,0,100,0,120,160,40,40,0,-19,-33,0,0,100,0,0,496,40,40,0,-17,-33,0,0,100,0,40,496,40,40,0,-40,-51,0,0,100,0,120,416,40,40,0,-28,-51,0,0,100,0,40,80,40,40,0,-16,-26,0,0,100,0,200,160,40,40,0,-34,-58,0,0,100,0,720,240,80,80,0,-32,-70,0,0,100,0,480,320,80,80,0,-26,-12,0,0,65,0,480,272,56,24,0,
0,16,-47,-48,0,0,100,0,320,0,80,80,0,-13,-55,1,0,100,0,80,456,40,40,0,-10,-42,0,0,100,0,200,416,40,40,0,-26,-55,0,0,100,0,400,240,40,40,0,-4,-37,1,0,100,0,80,160,40,40,0,-21,-42,0,0,100,0,200,120,40,40,0,-15,-33,0,0,100,0,280,416,40,40,0,-21,-37,1,0,100,0,120,160,40,40,0,-19,-33,0,0,100,0,0,496,40,40,0,-17,-33,0,0,100,0,40,496,40,40,0,-41,-49,0,0,100,0,120,416,40,40,0,-29,-49,0,0,100,0,40,80,40,40,0,-16,-26,0,0,100,0,200,160,40,40,0,-36,-57,0,0,100,0,720,240,80,80,0,-33,-68,0,0,100,0,560,320,80,80,0,-27,-12,0,0,65,0,480,272,56,24,0,
0,16,-47,-48,0,0,100,0,320,0,80,80,0,-12,-56,1,0,100,0,80,456,40,40,0,-10,-42,0,0,100,0,200,416,40,40,0,-25,-56,0,0,100,0,440,240,40,40,0,-4,-37,1,0,100,0,80,160,40,40,0,-21,-43,0,0,100,0,200,120,40,40,0,-15,-33,0,0,100,0,280,416,40,40,0,-21,-37,1,0,100,0,120,160,40,40,0,-19,-33,0,0,100,0,0,496,40,40,0,-17,-33,0,0,100,0,40,496,40,40,0,-39,-50,0,0,100,0,160,416,40,40,0,-28,-50,0,0,100,0,40,80,40,40,0,-16,-26,0,0,100,0,200,160,40,40,0,-36,-56,0,0,100,0,720,240,80,80,0,-32,-69,0,0,100,0,480,320,80,80,0,-27,-12,0,0,65,0,480,272,56,24,0,
0,16,-47,-48,0,0,100,0,320,0,80,80,0,-11,-56,1,0,100,0,80,456,40,40,0,-10,-42,0,0,100,0,200,416,40,40,0,-24,-57,0,0,100,0,440,240,40,40,0,-4,-37,1,0,100,0,80,160,40,40,0,-20,-43,0,0,100,0,200,120,40,40,0,-15,-33,0,0,100,0,280,416,40,40,0,-21,-37,1,0,100,0,120,160,40,40,0,-19,-33,0,0,100,0,0,496,40,40,0,-17,-33,0,0,100,0,40,496,40,40,0,-34,-51,0,0,100,0,160,416,40,40,0,-27,-50,0,0,100,0,40,80,40,40,0,-16,-26,0,0,100,0,200,160,40,40,0,-36,-56,0,0,100,0,640,240,80,80,0,-31,-69,0,0,100,0,480,320,80,80,0,-27,-12,0,0,65,0,480,272,56,24,0,
0,16,-47,-48,0,0,100,0,320,0,80,80,0,-13,-55,1,0,100,0,80,456,40,40,0,-10,-42,0,0,100,0,200,416,40,40,0,-26,-55,0,0,100,0,400,240,40,40,0,-4,-37,1,0,100,0,80,160,40,40,0,-21,-42,0,0,100,0,200,120,40,40,0,-15,-33,0,0,100,0,280,416,40,40,0,-21,-37,1,0,100,0,120,160,40,40,0,-19,-33,0,0,100,0,0,496,40,40,0,-17,-33,0,0,100,0,40,496,40,40,0,-41,-49,0,0,100,0,120,416,40,40,0,-29,-49,0,0,100,0,40,80,40,40,0,-16,-26,0,0,100,0,200,160,40,40,0,-36,-58,0,0,100,0,720,240,80,80,0,-32,-68,0,0,100,0,560,320,80,80,0,-27,-12,0,0,65,0,480,272,56,24,0,
0,16,-47,-48,0,0,100,0,320,0,80,80,0,-13,-55,1,0,100,0,80,456,40,40,0,-10,-42,0,0,100,0,200,416,40,40,0,-26,-55,0,0,100,0,400,240,40,40,0,-4,-37,1,0,100,0,80,160,40,40,0,-21,-42,0,0,100,0,200,120,40,40,0,-15,-33,0,0,100,0,280,416,40,40,0,-21,-37,1,0,100,0,120,160,40,40,0,-19,-33,0,0,100,0,0,496,40,40,0,-17,-33,0,0,100,0,40,496,40,40,0,-41,-49,0,0,100,0,120,416,40,40,0,-29,-49,0,0,100,0,40,80,40,40,0,-16,-26,0,0,100,0,200,160,40,40,0,-36,-57,0,0,100,0,720,240,80,80,0,-32,-68,0,0,100,0,560,320,80,80,0,-27,-12,0,0,65,0,480,272,56,24,0,
0,16,-47,-48,0,0,100,0,320,0,80,80,0,-13,-55,1,0,100,0,80,456,40,40,0,-10,-42,0,0,100,0,200,416,40,40,0,-26,-55,0,0,100,0,400,240,40,40,0,-4,-37,1,0,100,0,80,160,40,40,0,-21,-42,0,0,100,0,200,120,40,40,0,-15,-33,0,0,100,0,280,416,40,40,0,-21,-37,1,0,100,0,120,160,40,40,0,-19,-33,0,0,100,0,0,496,40,40,0,-17,-33,0,0,100,0,40,496,40,40,0,-41,-49,0,0,100,0,120,416,40,40,0,-29,-49,0,0,100,0,40,80,40,40,0,-16,-26,0,0,100,0,200,160,40,40,0,-38,-57,0,0,100,0,640,240,80,80,0,-32,-68,0,0,100,0,560,320,80,80,0,-27,-12,0,0,65,0,480,272,56,24,0,
0,16,-47,-48,0,0,100,0,320,0,80,80,0,-12,-56,1,0,100,0,80,456,40,40,0,-10,-42,0,0,100,0,200,416,40,40,0,-25,-56,0,0,100,0,440,240,40,40,0,-4,-37,1,0,100,0,80,160,40,40,0,-21,-43,0,0,100,0,200,120,40,40,0,-15,-33,0,0,100,0,280,416,40,40,0,-21,-37,1,0,100,0,120,160,40,40,0,-19,-33,0,0,100,0,0,496,40,40,0,-17,-33,0,0,100,0,40,496,40,40,0,-35,-44,0,0,100,0,0,40,40,40,0,-28,-50,0,0,100,0,40,80,40,40,0,-16,-26,0,0,100,0,200,160,40,40,0,-37,-57,0,0,100,0,640,240,80,80,0,-31,-69,0,0,100,0,480,320,80,80,0,-27,-12,0,0,65,0,480,272,56,24,0,
0,16,-46,-48,0,0,100,0,320,0,80,80,0,-11,-56,1,0,100,0,80,456,40,40,0,-9,-42,0,0,100,0,200,416,40,40,0,-24,-59,0,0,100,0,440,240,40,40,0,-4,-37,1,0,100,0,80,160,40,40,0,-21,-45,0,0,100,0,200,120,40,40,0,-16,-33,0,0,100,0,280,416,40,40,0,-21,-37,1,0,100,0,120,160,40,40,0,-18,-33,0,0,100,0,0,496,40,40,0,-17,-33,0,0,100,0,40,496,40,40,0,-33,-42,0,0,100,0,0,40,40,40,0,-26,-50,0,0,100,0,40,80,40,40,0,-16,-26,0,0,100,0,200,160,40,40,0,-37,-60,0,0,100,0,640,240,80,80,0,-25,-66,0,0,100,0,880,80,80,80,0,-26,-12,0,0,65,0,480,272,56,24,0,
0,17,-45,-50,0,0,100,0,320,0,80,80,0,-17,-63,0,0,100,0,320,280,40,40,0,-9,-55,1,0,100,0,0,80,40,40,0,-8,-44,0,0,100,0,80,416,40,40,0,-7,-37,1,0,100,0,80,160,40,40,0,-18,-30,0,0,100,0,240,160,40,40,0,-17,-48,1,0,100,0,160,120,40,40,0,-25,-37,1,0,100,0,120,160,40,40,0,-18,-29,0,0,100,0,240,280,40,40,0,-17,-29,0,0,100,0,280,280,40,40,0,-31,-47,0,0,100,0,80,40,40,40,0,-22,-54,0,0,100,0,40,80,40,40,0,-18,-26,0,0,100,0,200,160,40,40,0,-14,-55,0,0,100,0,160,80,40,40,0,-36,-57,0,0,100,0,640,240,80,80,0,-18,-68,0,0,100,0,880,80,80,80,0,-24,-12,0,0,65,0,480,272,56,24,0,
0,18,-45,-52,0,0,100,0,320,0,80,80,0,-16,-64,0,0,100,0,320,240,40,40,0,-9,-57,1,0,100,0,0,80,40,40,0,-8,-46,0,0,100,0,80,416,40,40,0,-22,-46,0,0,100,0,40,456,40,40,0,-7,-37,1,0,100,0,80,160,40,40,0,-18,-31,0,0,100,0,240,160,40,40,0,-17,-49,1,0,100,0,160,120,40,40,0,-25,-37,1,0,100,0,120,160,40,40,0,-18,-29,0,0,100,0,240,280,40,40,0,-17,-29,0,0,100,0,280,280,40,40,0,-21,-45,0,0,100,0,0,456,40,40,0,-22,-56,0,0,100,0,40,80,40,40,0,-18,-26,0,0,100,0,200,160,40,40,0,-13,-55,0,0,100,0,160,80,40,40,0,-35,-57,0,0,100,0,640,240,80,80,0,-19,-69,0,0,100,0,880,240,80,80,0,-24,-12,0,0,65,0,480,272,56,24,0,
0,17,-45,-53,0,0,100,0,320,0,80,80,0,-15,-64,1,0,100,0,320,240,40,40,0,-9,-58,1,0,100,0,0,80,40,40,0,-8,-47,0,0,100,0,80,416,40,40,0,-22,-46,0,0,100,0,40,456,40,40,0,-7,-37,1,0,100,0,80,160,40,40,0,-18,-31,0,0,100,0,240,160,40,40,0,-17,-49,1,0,100,0,160,120,40,40,0,-25,-37,1,0,100,0,120,160,40,40,0,-18,-29,0,0,100,0,240,280,40,40,0,-17,-29,0,0,100,0,280,280,40,40,0,-21,-46,0,0,100,0,0,456,40,40,0,-22,-57,0,0,100,0,40,80,40,40,0,-18,-26,0,0,100,0,200,160,40,40,0,-34,-58,0,0,100,0,720,240,80,80,0,-26,-69,0,0,100,0,880,80,80,80,0,-24,-12,0,0,65,0,480,272,56,24,0,
0,17,-45,-52,0,0,100,0,320,0,80,80,0,-14,-63,1,0,100,0,320,280,40,40,0,-9,-57,1,0,100,0,0,80,40,40,0,-8,-46,0,0,100,0,80,416,40,40,0,-22,-46,0,0,100,0,40,456,40,40,0,-7,-37,1,0,100,0,80,160,40,40,0,-18,-31,0,0,100,0,240,160,40,40,0,-17,-48,1,0,100,0,160,120,40,40,0,-25,-37,1,0,100,0,120,160,40,40,0,-18,-29,0,0,100,0,240,280,40,40,0,-17,-29,0,0,100,0,280,280,40,40,0,-21,-45,0,0,100,0,0,456,40,40,0,-22,-56,0,0,100,0,40,80,40,40,0,-18,-26,0,0,100,0,200,160,40,40,0,-34,-59,0,0,100,0,720,240,80,80,0,-49,-69,1,0,100,0,880,80,80,80,0,-24,-12,0,0,65,0,480,272,56,24,0,
0,17,-44,-47,0,0,100,0,320,0,80,80,0,-14,-61,1,0,100,0,400,320,40,40,0,-9,-53,1,0,100,0,0,80,40,40,0,-7,-41,0,0,100,0,80,416,40,40,0,-22,-45,0,0,100,0,40,456,40,40,0,-7,-35,1,0,100,0,80,160,40,40,0,-18,-29,0,0,100,0,240,160,40,40,0,-17,-46,1,0,100,0,160,120,40,40,0,-25,-35,1,0,100,0,120,160,40,40,0,-18,-29,0,0,100,0,240,280,40,40,0,-17,-29,0,0,100,0,280,280,40,40,0,-22,-42,0,0,100,0,0,456,40,40,0,-23,-53,0,0,100,0,40,80,40,40,0,-18,-25,0,0,100,0,200,160,40,40,0,-34,-57,0,0,100,0,800,240,80,80,0,-50,-68,1,0,100,0,880,80,80,80,0,-24,-12,0,0,65,0,480,272,56,24,0,
0,17,-44,-46,0,0,100,0,320,0,80,80,0,-14,-61,1,0,100,0,400,320,40,40,0,-9,-52,1,0,100,0,0,80,40,40,0,-7,-40,0,0,100,0,80,416,40,40,0,-22,-45,0,0,100,0,40,456,40,40,0,-7,-35,1,0,100,0,80,160,40,40,0,-18,-29,0,0,100,0,240,160,40,40,0,-17,-46,1,0,100,0,160,120,40,40,0,-25,-35,1,0,100,0,120,160,40,40,0,-18,-29,0,0,100,0,240,280,40,40,0,-17,-29,0,0,100,0,280,280,40,40,0,-22,-41,0,0,100,0,0,456,40,40,0,-23,-52,0,0,100,0,40,80,40,40,0,-18,-25,0,0,100,0,200,160,40,40,0,-34,-56,0,0,100,0,720,240,80,80,0,-50,-68,1,0,100,0,880,240,80,80,0,-24,-12,0,0,65,0,480,272,56,24,0,
0,17,-44,-46,0,0,100,0,320,0,80,80,0,-14,-61,1,0,100,0,400,320,40,40,0,-9,-52,1,0,100,0,0,80,40,40,0,-7,-40,0,0,100,0,80,416,40,40,0,-22,-45,0,0,100,0,40,456,40,40,0,-7,-35,1,0,100,0,80,160,40,40,0,-18,-29,0,0,100,0,240,160,40,40,0,-17,-46,1,0,100,0,160,120,40,40,0,-25,-35,1,0,100,0,120,160,40,40,0,-18,-29,0,0,100,0,240,280,40,40,0,-17,-29,0,0,100,0,280,280,40,40,0,-22,-41,0,0,100,0,0,456,40,40,0,-23,-52,0,0,100,0,40,80,40,40,0,-18,-25,0,0,100,0,200,160,40,40,0,-34,-56,0,0,100,0,640,240,80,80,0,-50,-68,1,0,100,0,880,240,80,80,0,-24,-12,0,0,65,0,480,272,56,24,0,
0,17,-44,-46,0,0,100,0,320,0,80,80,0,-14,-61,1,0,100,0,400,320,40,40,0,-9,-52,1,0,100,0,0,80,40,40,0,-7,-40,0,0,100,0,80,416,40,40,0,-22,-45,0,0,100,0,40,456,40,40,0,-7,-35,1,0,100,0,80,160,40,40,0,-18,-29,0,0,100,0,240,160,40,40,0,-17,-46,1,0,100,0,160,120,40,40,0,-25,-35,1,0,100,0,120,160,40,40,0,-18,-29,0,0,100,0,240,280,40,40,0,-17,-29,0,0,100,0,280,280,40,40,0,-22,-41,0,0,100,0,0,456,40,40,0,-23,-52,0,0,100,0,40,80,40,40,0,-18,-25,0,0,100,0,200,160,40,40,0,-34,-55,0,0,100,0,640,240,80,80,0,-50,-68,1,0,100,0,880,240,80,80,0,-24,-12,0,0,65,0,480,272,56,24,0,
0,17,-45,-46,0,0,100,0,320,0,80,80,0,-15,-61,1,0,100,0,440,240,40,40,0,-9,-52,1,0,100,0,0,80,40,40,0,-8,-40,0,0,100,0,80,416,40,40,0,-20,-46,0,0,100,0,40,456,40,40,0,-7,-35,1,0,100,0,80,160,40,40,0,-18,-29,0,0,100,0,240,160,40,40,0,-17,-46,1,0,100,0,160,120,40,40,0,-25,-35,1,0,100,0,120,160,40,40,0,-18,-29,0,0,100,0,240,280,40,40,0,-17,-29,0,0,100,0,280,280,40,40,0,-21,-42,0,0,100,0,0,456,40,40,0,-23,-53,0,0,100,0,40,80,40,40,0,-18,-25,0,0,100,0,200,160,40,40,0,-34,-55,0,0,100,0,640,240,80,80,0,-49,-68,1,0,100,0,880,240,80,80,0,-24,-12,0,0,65,0,480,272,56,24,0,
0,17,-54,-46,0,0,100,0,320,0,80,80,0,-17,-62,0,0,100,0,440,240,40,40,0,-9,-51,1,0,100,0,0,80,40,40,0,-14,-39,1,0,100,0,80,120,40,40,0,-20,-47,0,0,100,0,40,456,40,40,0,-30,-35,0,0,100,0,80,160,40,40,0,-18,-29,0,0,100,0,240,160,40,40,0,-18,-45,0,0,100,0,240,120,40,40,0,-11,-35,0,0,100,0,120,160,40,40,0,-19,-29,0,0,100,0,240,280,40,40,0,-16,-29,0,0,100,0,280,280,40,40,0,-20,-45,0,0,100,0,0,456,40,40,0,-24,-53,0,0,100,0,40,80,40,40,0,-18,-25,0,0,100,0,200,160,40,40,0,-34,-55,0,0,100,0,640,240,80,80,0,-22,-68,0,0,100,0,880,240,80,80,0,-24,-12,0,0,65,0,480,272,56,24,0,
0,17,-24,-44,0,0,100,0,80,496,40,40,0,-55,-47,0,0,100,0,320,0,80,80,0,-20,-62,0,0,100,0,440,240,40,40,0,-11,-51,1,0,100,0,0,80,40,40,0,-15,-40,1,0,100,0,80,120,40,40,0,-31,-36,0,0,100,0,80,160,40,40,0,-18,-30,0,0,100,0,240,160,40,40,0,-20,-46,0,0,100,0,240,120,40,40,0,-12,-36,0,0,100,0,120,160,40,40,0,-19,-29,0,0,100,0,240,280,40,40,0,-16,-29,0,0,100,0,280,280,40,40,0,-23,-50,0,0,100,0,200,40,40,40,0,-24,-55,0,0,100,0,40,80,40,40,0,-19,-26,0,0,100,0,200,160,40,40,0,-36,-55,0,0,100,0,640,240,80,80,0,-24,-68,0,0,100,0,880,80,80,80,0,-24,-12,0,0,65,0,480,272,56,24,0,
0,17,-24,-45,0,0,100,0,80,496,40,40,0,-56,-48,0,0,100,0,320,0,80,80,0,-22,-62,0,0,100,0,440,240,40,40,0,-12,-52,1,0,100,0,0,80,40,40,0,-16,-41,1,0,100,0,80,120,40,40,0,-32,-36,0,0,100,0,80,160,40,40,0,-19,-30,0,0,100,0,240,160,40,40,0,-21,-46,0,0,100,0,240,120,40,40,0,-13,-36,0,0,100,0,120,160,40,40,0,-19,-29,0,0,100,0,240,280,40,40,0,-16,-29,0,0,100,0,280,280,40,40,0,-24,-50,0,0,100,0,200,40,40,40,0,-25,-55,0,0,100,0,40,80,40,40,0,-19,-26,0,0,100,0,200,160,40,40,0,-37,-55,0,0,100,0,640,240,80,80,0,-26,-68,0,0,100,0,880,80,80,80,0,-25,-12,0,0,65,0,480,272,56,24,0,
0,16,-19,-41,0,0,100,0,640,0,80,80,0,-15,-62,0,0,100,0,400,280,40,40,0,-28,-35,0,0,100,0,80,160,40,40,0,-15,-33,0,0,100,0,280,456,40,40,0,-15,-46,0,0,100,0,240,120,40,40,0,-27,-50,0,0,100,0,160,496,40,40,0,-21,-55,0,0,100,0,40,80,40,40,0,-9,-35,0,0,100,0,120,160,40,40,0,-15,-29,1,0,100,0,240,280,40,40,0,-20,-30,1,0,100,0,240,416,40,40,0,-7,-46,0,0,100,0,120,456,40,40,0,-9,-52,1,0,100,0,40,80,40,40,0,-18,-25,1,0,100,0,200,160,40,40,0,-33,-57,0,0,100,0,800,240,80,80,0,-20,-67,0,0,100,0,880,80,80,80,0,-24,-12,0,0,65,0,480,272,56,24,0,
0,16,-17,-42,0,0,100,0,640,0,80,80,0,-14,-62,0,0,100,0,440,280,40,40,0,-27,-37,0,0,100,0,80,160,40,40,0,-14,-33,0,0,100,0,280,456,40,40,0,-14,-46,0,0,100,0,240,120,40,40,0,-29,-51,0,0,100,0,160,496,40,40,0,-21,-56,0,0,100,0,40,80,40,40,0,-8,-37,0,0,100,0,120,160,40,40,0,-14,-29,1,0,100,0,240,280,40,40,0,-20,-30,1,0,100,0,240,416,40,40,0,-5,-47,0,0,100,0,120,456,40,40,0,-8,-53,1,0,100,0,40,80,40,40,0,-17,-25,1,0,100,0,200,160,40,40,0,-19,-56,1,0,100,0,320,160,80,80,0,-24,-75,0,0,100,0,480,320,80,80,0,-23,-12,0,0,65,0,480,272,56,24,0,
0,16,-17,-42,0,0,100,0,640,0,80,80,0,-14,-62,0,0,100,0,400,280,40,40,0,-27,-37,0,0,100,0,80,160,40,40,0,-14,-33,0,0,100,0,280,456,40,40,0,-14,-46,0,0,100,0,240,120,40,40,0,-29,-51,0,0,100,0,160,496,40,40,0,-21,-56,0,0,100,0,40,80,40,40,0,-8,-37,0,0,100,0,120,160,40,40,0,-14,-29,1,0,100,0,240,280,40,40,0,-20,-30,1,0,100,0,240,416,40,40,0,-5,-47,0,0,100,0,120,456,40,40,0,-8,-53,1,0,100,0,40,80,40,40,0,-17,-25,1,0,100,0,200,160,40,40,0,-19,-56,1,0,100,0,400,160,80,80,0,-24,-75,0,0,100,0,720,320,80,80,0,-23,-12,0,0,65,0,480,272,56,24,0,
0,16,-17,-42,0,0,100,0,640,0,80,80,0,-14,-62,0,0,100,0,360,280,40,40,0,-27,-37,0,0,100,0,80,160,40,40,0,-14,-33,0,0,100,0,280,456,40,40,0,-14,-46,0,0,100,0,240,120,40,40,0,-29,-51,0,0,100,0,160,496,40,40,0,-21,-56,0,0,100,0,40,80,40,40,0,-8,-37,0,0,100,0,120,160,40,40,0,-14,-29,1,0,100,0,240,280,40,40,0,-20,-30,1,0,100,0,240,416,40,40,0,-5,-47,0,0,100,0,120,456,40,40,0,-8,-53,1,0,100,0,40,80,40,40,0,-17,-25,1,0,100,0,200,160,40,40,0,-19,-56,1,0,100,0,480,160,80,80,0,-24,-75,0,0,100,0,640,320,80,80,0,-23,-12,0,0,65,0,480,272,56,24,0,
0,16,-17,-42,0,0,100,0,640,0,80,80,0,-14,-62,0,0,100,0,440,320,40,40,0,-27,-37,0,0,100,0,80,160,40,40,0,-14,-33,0,0,100,0,280,456,40,40,0,-14,-46,0,0,100,0,240,120,40,40,0,-29,-51,0,0,100,0,160,496,40,40,0,-21,-56,0,0,100,0,40,80,40,40,0,-8,-37,0,0,100,0,120,160,40,40,0,-14,-29,1,0,100,0,240,280,40,40,0,-20,-30,1,0,100,0,240,416,40,40,0,-5,-47,0,0,100,0,120,456,40,40,0,-8,-53,1,0,100,0,40,80,40,40,0,-17,-25,1,0,100,0,200,160,40,40,0,-19,-56,1,0,100,0,560,160,80,80,0,-24,-75,0,0,100,0,560,320,80,80,0,-23,-12,0,0,65,0,480,272,56,24,0,
0,3,-85,-115,0,0,100,0,0,1240,160,136,0,-45,-61,0,0,100,0,720,1024,80,80,0,-28,-12,0,0,65,0,480,248,56,24,0,
0,3,-85,-115,0,0,100,0,160,1240,160,136,0,-45,-81,0,0,100,0,800,1024,80,80,0,-28,-12,0,0,65,0,480,248,56,24,0,
0,3,-85,-115,0,0,100,0,320,1240,160,136,0,-45,-81,0,0,100,0,800,1024,80,80,0,-28,-12,0,0,65,0,480,248,56,24,0,
0,3,-85,-115,0,0,100,0,480,1240,160,136,0,-45,-80,0,0,100,0,720,1024,80,80,0,-28,-12,0,0,65,0,480,248,56,24,0,
0,2,-45,-76,0,0,100,0,720,1240,80,80,0,-28,-12,0,0,65,0,480,248,56,24,0,
0,2,-45,-65,0,0,100,0,800,1240,80,80,0,-41,-11,0,0,65,0,400,360,80,24,0,
0,2,-45,-61,0,0,100,0,480,1024,80,80,0,-40,-11,0,0,65,0,400,360,80,24,0,
0,2,-45,-61,0,0,100,0,560,1024,80,80,0,-42,-11,0,0,65,0,400,360,80,24,0,
0,2,-45,-61,0,0,100,0,640,1024,80,80,0,-40,-11,0,0,65,0,400,360,80,24,0,
0,2,-45,-61,0,0,100,0,720,1024,80,80,0,-41,-11,0,0,65,0,400,360,80,24,0,
0,2,-45,-61,0,0,100,0,800,1024,80,80,0,-41,-11,0,0,65,0,400,360,80,24,0,
