0,6,0,-57,0,1,100,0,96,136,40,40,0,0,-57,0,0,40,0,56,136,40,40,0,8,-48,0,1,100,0,128,112,24,24,0,8,-48,0,0,60,0,104,112,24,24,0,-48,-96,0,0,100,0,0,0,104,104,0,-24,-8,0,0,65,0,0,176,48,16,0,
0,7,0,-57,0,1,100,0,176,136,40,40,0,0,-57,0,0,40,0,136,136,40,40,0,8,-48,0,1,50,0,176,112,24,24,0,8,-48,0,1,100,0,176,112,24,24,0,8,-48,0,0,60,0,152,112,24,24,0,-48,-96,0,0,100,0,104,0,104,104,0,-24,-8,0,0,65,0,0,176,48,16,0,
0,6,0,-57,0,1,100,0,256,136,40,40,0,0,-57,0,0,40,0,216,136,40,40,0,8,-48,0,1,100,0,224,112,24,24,0,8,-48,0,0,60,0,200,112,24,24,0,-48,-96,0,0,100,0,208,0,104,104,0,-24,-8,0,0,65,0,0,176,48,16,0,
0,6,0,-57,0,1,100,0,336,136,40,40,0,0,-57,0,0,40,0,296,136,40,40,0,8,-48,0,1,80,0,272,112,24,24,0,8,-48,0,0,60,0,248,112,24,24,0,-48,-96,0,0,100,0,312,0,104,104,0,-24,-8,0,0,65,0,0,176,48,16,0,
0,11,-32,-32,0,1,100,0,296,120,16,16,0,24,-80,0,1,100,0,296,120,16,16,0,-16,-16,0,1,100,0,296,104,16,16,0,0,-88,0,1,100,0,296,104,16,16,0,16,-8,0,1,100,0,296,104,16,16,0,0,-59,0,1,50,0,336,136,40,40,0,0,-59,0,0,20,0,296,136,40,40,0,4,-49,1,1,40,0,272,112,24,24,0,4,-49,1,0,30,0,248,112,24,24,0,-48,-96,0,0,100,0,416,0,104,104,0,-24,-8,0,0,65,0,0,176,48,16,0,
0,7,-32,-40,0,1,100,0,296,120,16,16,0,24,-88,0,1,100,0,296,120,16,16,0,-16,-32,0,1,100,0,296,104,16,16,0,0,-96,0,1,100,0,296,104,16,16,0,16,-16,0,1,100,0,296,104,16,16,0,-48,-96,0,0,100,0,520,0,104,104,0,-24,-8,0,0,65,0,0,176,48,16,0,
0,9,-28,-48,0,1,100,0,296,120,16,16,0,20,-96,0,1,100,0,296,120,16,16,0,-13,-40,0,1,100,0,296,104,16,16,0,0,-108,0,1,100,0,296,104,16,16,0,13,-24,0,1,100,0,296,104,16,16,0,-48,-96,0,1,100,0,624,0,104,104,0,-48,-96,0,0,100,0,624,0,104,104,0,-48,-90,0,0,50,0,624,0,104,104,0,-24,-8,0,0,46,0,0,176,48,16,0,
0,10,-4,-56,0,1,100,0,296,120,16,16,0,-4,-104,0,1,100,0,296,120,16,16,0,-5,-32,0,1,100,0,296,104,16,16,0,-16,-116,0,1,100,0,296,104,16,16,0,5,-48,0,1,100,0,296,104,16,16,0,-48,-144,0,1,100,0,376,104,104,144,0,-48,-144,0,0,80,0,376,104,104,120,0,-48,-136,0,0,40,0,376,104,104,120,0,-48,-128,0,0,20,0,376,104,104,120,0,-24,-8,0,0,46,0,0,176,48,16,0,
0,6,-48,-168,0,1,100,0,480,104,104,144,0,-48,-176,0,0,40,0,480,104,104,144,0,-48,-192,0,0,20,0,480,104,104,144,0,-48,-152,0,0,40,0,480,104,104,144,0,-48,-136,0,0,20,0,480,104,104,144,0,-24,-8,0,0,46,0,0,176,48,16,0,
0,6,-48,-170,0,1,50,0,480,104,104,144,0,-48,-182,0,0,20,0,480,104,104,144,0,-48,-198,0,0,10,0,480,104,104,144,0,-48,-158,0,0,20,0,480,104,104,144,0,-48,-142,0,0,10,0,480,104,104,144,0,-24,-8,0,0,46,0,0,176,48,16,0,
0,1,0,0,0,0,100,0,368,104,8,8,0,
0,2,-48,-156,0,1,50,0,480,104,104,144,0,-24,-8,0,0,46,0,0,176,48,16,0,
0,2,-48,-152,0,1,100,0,480,104,104,144,0,-24,-8,0,0,46,0,0,176,48,16,0,
0,3,-48,-136,0,1,100,0,376,104,104,144,0,-48,-136,0,0,80,0,376,104,104,120,0,-24,-8,0,0,46,0,0,176,48,16,0,
0,3,-48,-96,0,1,100,0,624,0,104,104,0,-48,-96,0,0,100,0,624,0,104,104,0,-24,-8,0,0,65,0,0,176,48,16,0,
0,5,-110,-39,0,1,80,0,824,1088,40,40,0,-110,-39,0,0,60,0,784,1088,40,40,0,-92,-43,1,1,100,0,208,648,72,40,0,-56,-80,0,0,100,0,344,856,104,88,0,-24,-8,0,0,65,0,0,176,48,16,0,
0,9,-124,-68,1,1,20,0,312,328,64,88,0,-188,-68,0,1,20,0,312,328,64,88,0,-184,-56,0,0,100,0,0,256,120,72,0,-176,-80,1,1,100,0,0,328,104,104,0,-157,-79,0,0,100,0,1216,480,80,88,0,-163,-79,0,0,100,0,1136,480,80,88,0,-160,-110,0,0,100,0,1056,480,80,120,0,-56,-96,0,0,100,0,104,712,104,104,0,-24,-8,0,0,65,0,0,176,48,16,0,
0,11,-32,-80,0,1,100,0,288,624,40,40,0,-216,-80,0,1,100,0,1328,392,184,56,0,-120,-72,1,1,100,0,312,328,64,88,0,-192,-72,0,1,100,0,312,328,64,88,0,-216,-64,0,0,100,0,120,248,160,80,0,-176,-80,0,1,100,0,0,328,104,104,0,-125,-135,0,0,100,0,1408,0,80,160,0,-195,-151,0,0,100,0,1328,0,80,160,0,-160,-230,0,0,100,0,1248,0,80,240,0,-56,-96,0,0,100,0,208,712,104,104,0,-24,-8,0,0,65,0,0,176,48,16,0,
0,13,-34,-78,0,1,100,0,288,664,40,40,0,-248,-80,0,1,100,0,1328,448,256,64,0,-112,-96,1,1,100,0,376,328,64,88,0,-200,-96,0,1,100,0,376,328,64,88,0,-216,-64,0,0,100,0,288,248,160,80,0,-176,-80,0,1,100,0,104,328,104,104,0,-176,-81,0,1,30,0,0,328,104,104,0,-128,-128,0,0,100,0,1408,0,80,160,0,-192,-144,0,0,100,0,1328,0,80,160,0,-160,-224,0,0,100,0,1248,0,80,240,0,-40,-64,0,0,100,0,448,856,40,40,0,-40,-96,0,0,100,0,0,816,88,104,0,-24,-8,0,0,65,0,0,176,48,16,0,
0,12,-36,-77,0,1,100,0,304,856,40,40,0,-248,-80,0,1,100,0,1328,512,256,64,0,-104,-104,1,1,100,0,440,328,64,88,0,-208,-104,0,1,100,0,440,328,64,88,0,-216,-64,0,0,100,0,288,248,160,80,0,-176,-82,0,1,30,0,104,328,104,104,0,-176,-80,0,1,100,0,208,328,104,104,0,-128,-128,0,0,100,0,1408,0,80,160,0,-192,-144,0,0,100,0,1328,0,80,160,0,-160,-224,0,0,100,0,1248,0,80,240,0,-40,-96,0,0,100,0,88,816,88,104,0,-24,-8,0,0,65,0,0,176,48,16,0,
0,12,-35,-77,0,1,100,0,288,664,40,40,0,-248,-80,0,1,50,0,1328,512,256,64,0,-105,-106,1,1,50,0,440,328,64,88,0,-207,-106,0,1,50,0,440,328,64,88,0,-216,-64,0,0,100,0,288,248,160,80,0,-176,-82,1,1,20,0,104,328,104,104,0,-176,-76,1,1,100,0,208,328,104,104,0,-128,-128,0,0,100,0,1408,0,80,160,0,-192,-144,0,0,100,0,1328,0,80,160,0,-160,-224,0,0,100,0,1248,0,80,240,0,-40,-96,0,0,100,0,0,816,88,104,0,-24,-8,0,0,65,0,0,176,48,16,0,
0,9,-34,-80,0,1,100,0,288,624,40,40,0,-216,-64,0,0,100,0,288,248,160,80,0,-176,-82,1,1,20,0,104,328,104,104,0,-176,-76,0,1,100,0,208,328,104,104,0,-128,-128,0,0,100,0,1408,0,80,160,0,-192,-144,0,0,100,0,1328,0,80,160,0,-160,-224,0,0,100,0,1248,0,80,240,0,-40,-96,0,0,100,0,176,816,88,104,0,-24,-8,0,0,65,0,0,176,48,16,0,
0,8,-17,-76,0,1,100,0,304,856,40,40,0,-216,-64,0,0,100,0,288,248,160,80,0,-200,-136,0,1,100,0,0,432,160,176,0,-128,-128,0,0,100,0,1408,160,80,160,0,-192,-144,0,0,100,0,1328,160,80,160,0,-160,-224,0,0,100,0,1248,240,80,240,0,-40,-96,0,0,100,0,0,920,88,104,0,-24,-8,0,0,65,0,0,176,48,16,0,
0,27,-80,-24,0,0,100,0,592,272,24,24,0,-96,-64,0,0,100,0,552,272,40,48,0,-128,-56,0,0,100,0,536,280,16,40,0,-184,-88,0,0,100,0,496,256,40,64,0,-224,-48,0,0,100,0,448,280,48,40,0,-144,-104,0,1,100,0,1488,368,24,24,0,-248,-128,0,1,100,0,1488,344,24,24,0,-232,-48,0,1,100,0,1488,320,24,24,0,0,-128,0,1,100,0,1488,320,24,24,0,-128,-144,0,1,100,0,1440,320,48,56,0,-144,-48,3,1,100,0,1400,320,40,56,0,-184,-80,1,1,100,0,1400,320,40,56,0,-168,-152,0,1,100,0,1400,320,40,56,0,-72,-128,0,1,100,0,1360,320,40,56,0,-208,-128,1,1,100,0,1328,320,32,72,0,-96,-88,0,1,100,0,1328,320,32,72,0,-144,-208,0,1,100,0,1328,320,32,72,0,-146,-120,0,1,80,0,1152,0,96,120,0,-131,-112,0,1,80,0,1056,0,96,120,0,-181,-135,0,1,80,0,984,0,72,136,0,-220,-127,0,1,80,0,880,0,104,136,0,-248,-184,0,1,100,0,1328,576,256,224,0,-64,-64,2,1,100,0,208,608,72,40,0,-58,-52,0,1,100,0,88,920,64,40,0,-40,-96,0,1,100,0,152,920,88,104,0,-40,-96,0,0,100,0,152,920,88,104,0,-22,-8,0,0,65,0,0,176,48,16,0,
0,27,-32,-56,0,0,60,0,592,272,24,24,0,-56,-120,0,0,60,0,552,272,40,48,0,-128,-128,0,0,60,0,536,280,16,40,0,-208,-136,0,0,60,0,496,256,40,64,0,-264,-72,0,0,60,0,448,280,48,40,0,-152,-128,0,1,100,0,1488,368,24,24,0,-296,-152,0,1,100,0,1488,344,24,24,0,-280,-64,0,1,100,0,1488,320,24,24,0,40,-160,0,1,100,0,1488,320,24,24,0,-96,-208,0,1,100,0,1440,320,48,56,0,-152,-72,3,1,100,0,1400,320,40,56,0,-216,-112,1,1,100,0,1400,320,40,56,0,-176,-200,0,1,100,0,1400,320,40,56,0,-16,-176,0,1,100,0,1360,320,40,56,0,-248,-208,1,1,100,0,1328,320,32,72,0,-72,-136,0,1,100,0,1328,320,32,72,0,-144,-272,0,1,100,0,1328,320,32,72,0,-144,-123,0,1,100,0,1152,0,96,120,0,-128,-112,0,1,100,0,1056,0,96,120,0,-183,-141,0,1,100,0,984,0,72,136,0,-228,-128,0,1,100,0,880,0,104,136,0,-256,-200,0,1,100,0,1328,800,272,240,0,-76,-56,2,1,100,0,208,648,72,40,0,-56,-52,0,1,100,0,88,960,40,40,0,-40,-96,0,1,100,0,152,920,88,104,0,-40,-96,0,0,100,0,152,920,88,104,0,-22,-8,0,0,65,0,0,176,48,16,0,
0,30,24,-96,0,0,30,0,592,272,24,24,0,-16,-168,0,0,30,0,552,272,40,48,0,-128,-200,0,0,30,0,536,280,16,40,0,-224,-168,0,0,30,0,496,256,40,64,0,-304,-96,0,0,30,0,448,280,48,40,0,-160,-136,0,1,40,0,1488,368,24,24,0,-304,-160,0,1,40,0,1488,344,24,24,0,-288,-64,0,1,40,0,1488,320,24,24,0,48,-168,0,1,40,0,1488,320,24,24,0,-88,-216,0,1,40,0,1440,320,48,56,0,-160,-88,3,1,40,0,1400,320,40,56,0,-224,-120,1,1,40,0,1400,320,40,56,0,-184,-216,0,1,40,0,1400,320,40,56,0,-8,-192,0,1,40,0,1360,320,40,56,0,-256,-224,1,1,40,0,1328,320,32,72,0,-64,-152,0,1,40,0,1328,320,32,72,0,-144,-280,0,1,40,0,1328,320,32,72,0,-143,-125,0,1,50,0,1152,0,96,120,0,-127,-114,0,1,50,0,1056,0,96,120,0,-185,-146,0,1,50,0,984,0,72,136,0,-228,-126,0,1,50,0,880,0,104,136,0,-144,-123,0,1,100,0,1152,120,96,120,0,-128,-112,0,1,100,0,1056,120,96,120,0,-184,-144,0,1,100,0,984,136,72,136,0,-224,-128,0,1,100,0,880,136,104,136,0,-256,-200,0,1,100,0,1328,1040,272,240,0,-82,-59,2,1,50,0,208,648,72,40,0,-40,-96,0,1,100,0,152,920,88,104,0,-40,-96,0,0,100,0,152,920,88,104,0,-22,-8,0,0,65,0,0,176,48,16,0,
0,33,26,-98,0,0,30,0,592,272,24,24,0,-13,-171,0,0,30,0,552,272,40,48,0,-128,-203,0,0,30,0,536,280,16,40,0,-225,-172,0,0,30,0,496,256,40,64,0,-307,-99,0,0,30,0,448,280,48,40,0,-161,-139,0,1,20,0,1488,368,24,24,0,-306,-162,0,1,20,0,1488,344,24,24,0,-290,-65,0,1,20,0,1488,320,24,24,0,50,-170,0,1,20,0,1488,320,24,24,0,-87,-220,0,1,20,0,1440,320,48,56,0,-169,-76,3,1,20,0,1400,320,40,56,0,-225,-123,1,1,20,0,1400,320,40,56,0,-186,-220,0,1,20,0,1400,320,40,56,0,-6,-195,0,1,20,0,1360,320,40,56,0,-258,-228,1,1,20,0,1328,320,32,72,0,-63,-155,0,1,20,0,1328,320,32,72,0,-144,-284,0,1,20,0,1328,320,32,72,0,-143,-120,0,1,20,0,1152,0,96,120,0,-127,-112,0,1,20,0,1056,0,96,120,0,-185,-144,0,1,20,0,984,0,72,136,0,-225,-128,0,1,20,0,880,0,104,136,0,-142,-120,0,1,50,0,1152,120,96,120,0,-126,-112,0,1,50,0,1056,120,96,120,0,-186,-144,0,1,50,0,984,136,72,136,0,-226,-128,0,1,50,0,880,136,104,136,0,-144,-120,0,1,100,0,1152,240,96,120,0,-120,-112,0,1,100,0,1056,240,96,120,0,-184,-144,0,1,100,0,984,272,72,136,0,-224,-128,0,1,100,0,880,272,104,136,0,-256,-200,0,1,100,0,1328,1280,272,240,0,-40,-96,0,1,60,0,152,920,88,104,0,-40,-96,0,0,100,0,152,920,88,104,0,-22,-8,0,0,65,0,0,176,48,16,0,
0,17,-144,-120,0,1,100,0,1152,360,96,120,0,-112,-104,0,1,100,0,1056,360,96,120,0,-184,-144,0,1,100,0,984,408,72,136,0,-232,-120,0,1,100,0,880,408,104,136,0,-140,-119,0,1,20,0,1152,120,96,120,0,-116,-111,0,1,20,0,1056,120,96,120,0,-188,-143,0,1,20,0,984,136,72,136,0,-228,-127,0,1,20,0,880,136,104,136,0,-146,-119,0,1,40,0,1152,240,96,120,0,-122,-111,0,1,40,0,1056,240,96,120,0,-182,-143,0,1,40,0,984,272,72,136,0,-168,-80,0,1,80,0,0,328,104,104,0,-200,-136,0,1,60,0,0,432,160,176,0,-256,-202,0,1,30,0,1328,1280,272,240,0,-40,-96,0,1,30,0,152,920,88,104,0,-40,-96,0,0,100,0,152,920,88,104,0,-22,-8,0,0,65,0,0,176,48,16,0,
0,11,-140,-118,0,1,50,0,1152,360,96,120,0,-108,-102,0,1,50,0,1056,360,96,120,0,-188,-142,0,1,50,0,984,408,72,136,0,-236,-118,0,1,50,0,880,408,104,136,0,-162,-135,0,1,20,0,1152,240,96,120,0,-138,-119,0,1,20,0,1056,240,96,120,0,-182,-143,0,1,20,0,984,272,72,136,0,-226,-125,0,1,20,0,880,272,104,136,0,-205,-140,1,1,70,0,0,432,160,176,0,-40,-96,0,0,100,0,152,920,88,104,0,-22,-8,0,0,65,0,0,176,48,16,0,
0,7,-176,-84,1,1,40,0,208,328,104,104,0,-136,-115,0,1,20,0,1152,360,96,120,0,-107,-101,0,1,20,0,1056,360,96,120,0,-188,-142,0,1,20,0,984,408,72,136,0,-237,-116,0,1,20,0,880,408,104,136,0,-40,-96,0,0,100,0,152,920,88,104,0,-22,-8,0,0,65,0,0,176,48,16,0,
0,2,-36,-80,0,0,100,0,488,856,72,88,0,-24,-8,0,0,65,0,0,176,48,16,0,
0,6,-3,-54,0,1,50,0,96,136,40,40,0,-3,-54,0,0,20,0,56,136,40,40,0,8,-47,0,1,50,0,128,112,24,24,0,8,-47,0,0,30,0,104,112,24,24,0,-48,-96,0,0,100,0,0,0,104,104,0,-24,-8,0,0,65,0,0,176,48,16,0,
0,1,-24,-8,0,0,46,0,0,176,48,16,0,
0,2,-56,-96,0,0,100,0,0,608,104,104,0,-24,-8,0,0,65,0,0,176,48,16,0,
0,5,11,-50,0,1,40,0,272,112,24,24,0,11,-50,0,0,30,0,248,112,24,24,0,0,-51,0,1,50,0,200,432,40,32,0,-56,-96,0,0,100,0,104,608,104,104,0,-24,-8,0,0,65,0,0,176,48,16,0,
0,5,2,-71,0,1,80,0,824,1088,40,40,0,2,-71,0,0,60,0,784,1088,40,40,0,-3,-54,0,1,100,0,200,464,40,32,0,-56,-96,0,0,100,0,176,504,104,104,0,-24,-8,0,0,65,0,0,176,48,16,0,
0,5,-62,-47,0,1,80,0,824,1088,40,40,0,-62,-47,0,0,60,0,784,1088,40,40,0,-60,-51,1,1,100,0,208,608,72,40,0,-56,-96,0,0,100,0,0,712,104,104,0,-24,-8,0,0,65,0,0,176,48,16,0,
0,8,-8,-51,0,1,100,0,104,1008,16,16,0,-8,-51,0,0,30,0,104,1008,16,16,0,1,-63,0,1,50,0,96,136,40,40,0,1,-63,0,0,20,0,56,136,40,40,0,9,-55,0,1,50,0,128,112,24,24,0,9,-55,0,0,30,0,104,112,24,24,0,-56,-96,0,0,100,0,0,1024,104,104,0,-24,-8,0,0,65,0,0,176,48,16,0,
0,7,1,-66,0,1,20,0,176,136,40,40,0,1,-66,0,0,10,0,136,136,40,40,0,9,-58,2,1,10,0,176,112,24,24,0,9,-58,2,1,20,0,176,112,24,24,0,9,-58,2,0,10,0,152,112,24,24,0,-56,-96,0,0,100,0,104,1024,104,104,0,-24,-8,0,0,65,0,0,176,48,16,0,
0,2,-56,-96,0,0,100,0,208,1024,104,104,0,-24,-8,0,0,65,0,0,176,48,16,0,
0,2,-56,-96,0,0,100,0,0,1128,104,104,0,-26,-8,0,0,65,0,0,176,48,16,0,
0,2,-56,-96,0,0,100,0,104,1128,104,104,0,-28,-8,0,0,65,0,0,176,48,16,0,
0,2,-56,-95,0,0,100,0,208,1128,104,104,0,-27,-8,0,0,65,0,0,176,48,16,0,
0,2,-56,-96,0,0,100,0,312,1128,104,104,0,-27,-8,0,0,65,0,0,176,48,16,0,
0,4,-14,-34,0,1,100,0,104,1008,16,16,0,-54,-20,0,0,100,0,0,208,104,32,0,-56,-96,0,0,100,0,416,1128,104,104,0,-27,-8,0,0,65,0,0,176,48,16,0,
0,5,-14,-34,0,1,100,0,104,1008,16,16,0,-54,-16,0,0,100,0,0,104,104,32,0,-56,-96,0,0,100,0,520,1128,104,104,0,-56,-80,0,1,20,0,208,328,104,104,0,-27,-8,0,0,65,0,0,176,48,16,0,
0,5,-14,-42,0,1,100,0,120,1000,16,24,0,-54,-16,0,0,100,0,0,104,104,32,0,-56,-96,0,0,100,0,624,1128,104,104,0,-56,-80,0,1,30,0,104,328,104,104,0,-27,-8,0,0,65,0,0,176,48,16,0,
0,5,-14,-41,0,1,100,0,136,1000,16,24,0,-54,-16,0,0,100,0,0,104,104,32,0,-56,-96,0,0,100,0,312,1128,104,104,0,-54,-79,0,1,50,0,0,328,104,104,0,-27,-8,0,0,65,0,0,176,48,16,0,
0,5,-14,-41,0,1,50,0,136,1000,16,24,0,-54,-16,0,0,100,0,0,104,104,32,0,-56,-96,0,0,100,0,416,1128,104,104,0,-82,-140,0,1,50,0,0,432,160,176,0,-27,-8,0,0,65,0,0,176,48,16,0,
0,6,-14,-34,0,1,100,0,104,1008,16,16,0,-54,-16,0,0,100,0,0,104,104,32,0,-56,-96,0,0,100,0,520,1128,104,104,0,-82,-140,0,1,50,0,880,600,160,176,0,-82,-140,0,1,20,0,0,432,160,176,0,-27,-8,0,0,65,0,0,176,48,16,0,
0,7,-14,-42,0,1,100,0,120,1000,16,24,0,-54,-16,0,0,100,0,0,104,104,32,0,-56,-96,0,0,100,0,624,1128,104,104,0,-56,-120,0,1,40,0,208,328,104,104,0,-56,-80,0,1,60,0,104,328,104,104,0,-82,-140,0,1,20,0,880,600,160,176,0,-27,-8,0,0,65,0,0,176,48,16,0,
0,6,-14,-41,0,1,100,0,136,1000,16,24,0,-54,-16,0,0,100,0,0,104,104,32,0,-56,-96,0,0,100,0,312,1128,104,104,0,-57,-113,1,1,40,0,208,328,104,104,0,-54,-79,0,1,40,0,0,328,104,104,0,-27,-8,0,0,65,0,0,176,48,16,0,
