0,2,-49,-77,0,0,100,0,0,0,96,96,0,-48,-16,0,0,65,0,480,0,96,32,0,
0,2,-49,-77,0,0,100,0,96,0,96,96,0,-48,-16,0,0,65,0,480,0,96,32,0,
0,2,-49,-77,0,0,100,0,192,0,96,96,0,-48,-16,0,0,65,0,480,0,96,32,0,
0,2,-49,-77,0,0,100,0,288,0,96,96,0,-48,-16,0,0,65,0,480,0,96,32,0,
0,0,
0,2,-49,-77,0,0,100,0,384,0,96,96,0,-48,-16,0,0,65,0,480,0,96,32,0,
0,0,
0,2,-33,-77,0,0,100,0,0,96,96,96,0,-40,-16,0,0,65,0,480,0,96,32,0,
0,2,-33,-77,0,0,100,0,96,96,96,96,0,-40,-16,0,0,65,0,480,0,96,32,0,
0,0,
0,2,-49,-77,0,0,100,0,192,96,96,96,0,-43,-16,0,0,65,0,480,0,96,32,0,
0,2,-49,-77,0,0,100,0,288,96,96,96,0,-43,-16,0,0,65,0,480,0,96,32,0,
0,2,-49,-77,0,0,100,0,384,96,96,96,0,-46,-16,0,0,65,0,480,0,96,32,0,
0,2,-49,-77,0,0,100,0,480,96,96,96,0,-46,-16,0,0,65,0,480,0,96,32,0,
0,2,-49,-77,0,0,100,0,576,96,96,96,0,-46,-16,0,0,65,0,480,0,96,32,0,
0,2,-49,-77,0,0,100,0,0,192,96,96,0,-46,-16,0,0,65,0,480,0,96,32,0,
0,2,-49,-77,0,0,100,0,96,192,96,96,0,-46,-16,0,0,65,0,480,0,96,32,0,
0,2,-41,-77,0,0,100,0,192,192,96,96,0,-40,-16,0,0,65,0,480,0,96,32,0,
0,2,-41,-77,0,0,100,0,288,192,96,96,0,-40,-16,0,0,65,0,480,0,96,32,0,
0,0,
0,0,
0,2,-56,-16,0,0,65,0,480,0,96,32,0,-56,-93,0,0,100,0,0,288,96,96,0,
0,2,-73,-95,0,0,100,0,96,288,96,192,0,-56,-16,0,0,65,0,480,0,96,32,0,
0,2,-73,-101,0,0,100,0,96,288,96,192,0,-56,-16,0,0,65,0,480,0,96,32,0,
0,2,-73,-102,0,0,100,0,192,288,96,192,0,-56,-16,0,0,65,0,480,0,96,32,0,
0,2,-73,-109,0,0,100,0,192,288,96,192,0,-56,-16,0,0,65,0,480,0,96,32,0,
0,2,-73,-110,0,0,100,0,192,288,96,192,0,-56,-16,0,0,65,0,480,0,96,32,0,
0,2,-57,-125,0,0,100,0,288,288,96,96,0,-52,-16,0,0,65,0,480,0,96,32,0,
0,0,
0,3,-33,-122,0,0,100,0,672,288,96,96,0,-49,-117,0,0,100,0,480,288,96,96,0,-51,-16,0,0,65,0,480,0,96,32,0,
0,2,-49,-93,0,0,100,0,576,288,96,96,0,-48,-16,0,0,65,0,480,0,96,32,0,
0,2,-49,-77,0,0,100,0,384,384,96,96,0,-48,-16,0,0,65,0,480,0,96,32,0,
0,2,-49,-77,0,0,100,0,480,384,96,96,0,-48,-16,0,0,65,0,480,0,96,32,0,
0,2,-49,-77,0,0,100,0,576,384,96,96,0,-48,-16,0,0,65,0,480,0,96,32,0,
0,0,
0,0,
0,0,
0,0,
0,0,
0,0,
0,2,-49,-77,0,0,100,0,0,480,96,96,0,-48,-16,0,0,65,0,480,0,96,32,0,
0,3,-49,-69,0,1,50,0,576,768,64,64,0,-49,-77,0,0,100,0,96,480,96,96,0,-48,-16,0,0,65,0,480,0,96,32,0,
0,3,-47,-77,0,1,70,0,512,768,64,64,0,-49,-77,0,0,100,0,96,480,96,96,0,-48,-16,0,0,65,0,480,0,96,32,0,
0,3,-45,-82,0,1,100,0,448,768,64,64,0,-49,-77,0,0,100,0,192,480,96,96,0,-48,-16,0,0,65,0,480,0,96,32,0,
0,3,-40,-86,0,1,100,0,512,768,64,64,0,-49,-77,0,0,100,0,192,480,96,96,0,-48,-16,0,0,65,0,480,0,96,32,0,
0,3,-33,-90,0,1,100,0,448,768,64,64,0,-49,-77,0,0,100,0,288,480,96,96,0,-48,-16,0,0,65,0,480,0,96,32,0,
0,3,-26,-93,0,1,70,0,512,768,64,64,0,-49,-77,0,0,100,0,288,480,96,96,0,-48,-16,0,0,65,0,480,0,96,32,0,
0,3,-18,-97,0,1,20,0,384,768,64,64,0,-49,-77,0,0,100,0,0,576,96,96,0,-48,-16,0,0,65,0,480,0,96,32,0,
0,3,-13,-101,0,1,5,0,512,768,64,64,0,-49,-77,0,0,100,0,0,576,96,96,0,-48,-16,0,0,65,0,480,0,96,32,0,
0,2,-49,-77,0,0,100,0,96,576,96,96,0,-48,-16,0,0,65,0,480,0,96,32,0,
0,2,-49,-77,0,0,100,0,96,576,96,96,0,-48,-16,0,0,65,0,480,0,96,32,0,
0,2,-49,-77,0,0,100,0,192,576,96,96,0,-48,-16,0,0,65,0,480,0,96,32,0,
0,2,-49,-77,0,0,100,0,192,576,96,96,0,-48,-16,0,0,65,0,480,0,96,32,0,
0,2,-49,-77,0,0,100,0,288,576,96,96,0,-48,-16,0,0,65,0,480,0,96,32,0,
0,2,-49,-77,0,0,100,0,288,576,96,96,0,-48,-16,0,0,65,0,480,0,96,32,0,
0,2,-49,-77,0,0,100,0,0,672,96,96,0,-48,-16,0,0,65,0,480,0,96,32,0,
0,2,-49,-77,0,0,100,0,0,672,96,96,0,-48,-16,0,0,65,0,480,0,96,32,0,
0,2,-49,-77,0,0,100,0,96,672,96,96,0,-48,-16,0,0,65,0,480,0,96,32,0,
0,2,-49,-77,0,0,100,0,192,672,96,96,0,-48,-16,0,0,65,0,480,0,96,32,0,
0,2,-49,-77,0,0,100,0,288,672,96,96,0,-48,-16,0,0,65,0,480,0,96,32,0,
0,0,
0,2,-49,-77,0,0,100,0,0,768,96,96,0,-48,-16,0,0,65,0,480,0,96,32,0,
0,2,-49,-77,0,0,100,0,96,768,96,96,0,-48,-16,0,0,65,0,480,0,96,32,0,
0,2,-49,-77,0,0,100,0,192,768,96,96,0,-48,-16,0,0,65,0,480,0,96,32,0,
0,2,-49,-77,0,0,100,0,288,768,96,96,0,-48,-16,0,0,65,0,480,0,96,32,0,
