0,4,-56,-82,0,1,60,0,576,480,96,96,0,-56,-81,0,1,20,0,864,480,96,96,0,-56,-82,0,0,100,0,0,0,96,96,0,-48,-19,0,0,65,0,480,0,96,32,0,
0,4,-56,-81,0,1,60,0,672,480,96,96,0,-56,-82,0,1,20,0,576,480,96,96,0,-56,-82,0,0,100,0,96,0,96,96,0,-48,-19,0,0,65,0,480,0,96,32,0,
0,4,-56,-81,0,1,60,0,768,480,96,96,0,-56,-81,0,1,20,0,672,480,96,96,0,-56,-82,0,0,100,0,192,0,96,96,0,-48,-19,0,0,65,0,480,0,96,32,0,
0,4,-56,-81,0,1,60,0,864,480,96,96,0,-56,-81,0,1,20,0,768,480,96,96,0,-56,-82,0,0,100,0,288,0,96,96,0,-48,-19,0,0,65,0,480,0,96,32,0,
0,5,-3,-83,0,0,100,0,608,672,32,64,0,-3,-83,0,0,100,0,704,672,32,64,0,-69,-66,0,1,100,0,608,736,64,64,0,-64,-83,0,0,100,0,384,0,96,96,0,-48,-19,0,0,65,0,480,0,96,32,0,
0,4,-3,-83,0,0,100,0,640,672,32,64,0,-69,-66,0,1,100,0,608,736,64,64,0,-64,-83,0,0,100,0,384,0,96,96,0,-48,-19,0,0,65,0,480,0,96,32,0,
0,4,-3,-83,0,0,100,0,672,672,32,64,0,-69,-66,0,1,100,0,608,736,64,64,0,-64,-83,0,0,100,0,384,0,96,96,0,-48,-19,0,0,65,0,480,0,96,32,0,
0,4,-3,-83,0,0,100,0,608,672,32,64,0,-73,-68,0,1,100,0,608,736,64,64,0,-64,-83,0,0,100,0,672,0,96,96,0,-48,-19,0,0,65,0,480,0,96,32,0,
0,5,-3,-83,0,0,100,0,640,672,32,64,0,-76,-70,0,1,100,0,608,736,64,64,0,-19,-53,0,0,100,0,480,32,32,32,0,-67,-85,0,0,100,0,672,0,96,96,0,-51,-19,0,0,65,0,480,0,96,32,0,
0,5,-3,-83,0,0,100,0,672,672,32,64,0,-78,-68,0,1,100,0,608,736,64,64,0,-22,-51,0,0,100,0,480,32,32,32,0,-70,-83,0,0,100,0,576,0,96,96,0,-54,-19,0,0,65,0,480,0,96,32,0,
0,5,-3,-83,0,0,100,0,704,672,32,64,0,-11,-83,0,0,100,0,608,672,32,64,0,-81,-69,0,1,100,0,608,736,64,64,0,-72,-84,0,0,100,0,672,0,96,96,0,-56,-19,0,0,65,0,480,0,96,32,0,
0,4,-11,-83,0,0,100,0,640,672,32,64,0,-81,-67,0,1,100,0,608,736,64,64,0,-73,-82,0,0,100,0,576,0,96,96,0,-57,-19,0,0,65,0,480,0,96,32,0,
0,4,-11,-83,0,0,100,0,672,672,32,64,0,-84,-66,0,1,100,0,608,736,64,64,0,-76,-82,0,0,100,0,768,0,96,96,0,-60,-19,0,0,65,0,480,0,96,32,0,
0,4,-11,-83,0,0,100,0,704,672,32,64,0,-49,-89,0,1,100,-90,608,736,64,64,0,-72,-83,0,0,100,0,192,96,96,96,0,-48,-19,0,0,65,0,480,0,96,32,0,
0,3,27,-83,0,1,100,0,672,736,64,64,0,-13,-83,0,0,100,0,384,96,96,96,0,-37,-19,0,0,65,0,480,0,96,32,0,
0,3,46,-91,0,1,100,0,736,736,64,64,0,6,-91,0,0,100,0,480,96,96,96,0,-18,-19,0,0,65,0,480,0,96,32,0,
0,3,47,-90,0,1,100,0,736,736,64,64,0,7,-92,0,0,100,0,576,96,96,96,0,-17,-19,0,0,65,0,480,0,96,32,0,
0,3,51,-89,0,1,100,0,736,736,64,64,0,11,-91,0,0,100,0,576,96,96,96,0,-14,-19,0,0,65,0,480,0,96,32,0,
0,3,40,-88,0,1,100,0,736,736,64,64,0,0,-90,0,0,100,0,672,96,96,96,0,-25,-19,0,0,65,0,480,0,96,32,0,
0,3,-88,-91,0,1,100,0,0,768,96,128,0,-64,-83,0,0,100,0,96,192,96,96,0,-56,-19,0,0,65,0,480,0,96,32,0,
0,4,-80,-67,0,1,100,0,0,896,64,96,0,-88,-91,0,1,20,0,0,768,96,128,0,-64,-83,0,0,100,0,192,192,96,96,0,-56,-19,0,0,65,0,480,0,96,32,0,
0,3,-80,-67,0,1,20,0,0,896,64,96,0,-64,-83,0,0,100,0,288,192,96,96,0,-56,-19,0,0,65,0,480,0,96,32,0,
0,2,-64,-83,0,0,100,0,384,192,96,96,0,-56,-19,0,0,65,0,480,0,96,32,0,
0,2,-64,-83,0,0,100,0,704,288,96,96,0,-56,-19,0,0,65,0,480,0,96,32,0,
0,3,-19,-83,1,0,100,0,608,672,32,64,0,-35,-83,0,0,100,0,480,192,96,96,0,-51,-19,0,0,65,0,480,0,96,32,0,
0,3,-19,-83,1,0,100,0,640,672,32,64,0,-23,-83,0,0,100,0,576,192,96,96,0,-39,-19,0,0,65,0,480,0,96,32,0,
0,4,-19,-83,1,0,100,0,672,672,32,64,0,-3,-83,1,0,100,0,608,672,32,64,0,-15,-83,0,0,100,0,672,192,96,96,0,-31,-19,0,0,65,0,480,0,96,32,0,
0,4,-19,-83,1,0,100,0,704,672,32,64,0,-3,-83,1,0,100,0,640,672,32,64,0,-11,-83,0,0,100,0,768,192,96,96,0,-27,-19,0,0,65,0,480,0,96,32,0,
0,3,-3,-83,1,0,100,0,704,672,32,64,0,-2,-83,0,0,100,0,640,288,96,96,0,-18,-19,0,0,65,0,480,0,96,32,0,
0,3,-88,-51,0,1,100,0,224,768,128,96,0,-56,-83,0,0,100,0,0,288,96,96,0,-40,-19,0,0,65,0,480,0,96,32,0,
0,4,-32,-83,0,0,100,0,224,288,88,96,0,-96,-83,0,1,100,0,192,864,160,96,0,0,-83,0,0,100,0,96,288,64,96,0,-40,-19,0,0,65,0,480,0,96,32,0,
0,3,6,-83,0,1,80,0,352,864,96,96,0,6,-83,0,0,100,0,320,288,96,96,0,-18,-19,0,0,65,0,480,0,96,32,0,
0,3,6,-83,0,1,10,0,352,864,96,96,0,8,-83,0,0,100,0,416,288,96,96,0,-16,-19,0,0,65,0,480,0,96,32,0,
0,2,8,-83,0,0,100,0,512,288,96,96,0,-16,-19,0,0,65,0,480,0,96,32,0,
0,2,7,-83,0,0,100,0,320,288,96,96,0,-17,-19,0,0,65,0,480,0,96,32,0,
0,4,-88,-104,0,1,100,0,448,832,128,128,0,-64,-99,0,1,100,0,96,768,128,128,0,-56,-83,0,0,100,0,0,384,96,96,0,-40,-19,0,0,65,0,480,0,96,32,0,
0,5,-88,-104,0,1,100,0,576,832,128,128,0,-72,-67,0,1,100,0,96,896,64,96,0,-64,-99,0,1,20,0,96,768,96,128,0,-56,-83,0,0,100,0,96,384,96,96,0,-40,-19,0,0,65,0,480,0,96,32,0,
0,5,-88,-104,0,1,100,0,704,832,128,128,0,-88,-104,0,1,20,0,576,832,128,128,0,-72,-67,0,1,20,0,96,896,64,96,0,-56,-83,0,0,100,0,192,384,96,96,0,-48,-19,0,0,65,0,480,0,96,32,0,
0,4,-88,-104,0,1,100,0,832,832,128,128,0,-88,-104,0,1,20,0,704,832,128,128,0,-56,-83,0,0,100,0,288,384,96,96,0,-48,-19,0,0,65,0,480,0,96,32,0,
0,3,-88,-104,0,1,20,0,832,832,128,128,0,-56,-83,0,0,100,0,384,384,96,96,0,-48,-19,0,0,65,0,480,0,96,32,0,
0,2,-56,-83,0,0,100,0,480,384,96,96,0,-48,-19,0,0,65,0,480,0,96,32,0,
0,4,-56,-82,0,1,80,0,576,480,96,96,0,-56,-82,0,1,100,0,608,576,96,96,0,-56,-83,0,0,100,0,0,480,96,96,0,-48,-19,0,0,65,0,480,0,96,32,0,
0,4,-56,-51,0,1,80,0,800,736,96,64,0,-56,-82,0,1,30,0,576,480,96,96,0,-56,-83,0,0,100,0,96,480,96,96,0,-48,-19,0,0,65,0,480,0,96,32,0,
0,4,-56,-51,0,1,60,0,896,736,96,64,0,-56,-51,0,1,40,0,800,736,96,64,0,-56,-83,0,0,100,0,96,480,96,96,0,-48,-19,0,0,65,0,480,0,96,32,0,
0,3,-56,-51,0,1,20,0,896,736,96,64,0,-56,-83,0,0,100,0,192,480,96,96,0,-48,-19,0,0,65,0,480,0,96,32,0,
0,2,-56,-83,0,0,100,0,288,480,96,96,0,-48,-19,0,0,65,0,480,0,96,32,0,
0,2,-56,-83,0,0,100,0,384,576,96,96,0,-48,-19,0,0,65,0,480,0,96,32,0,
0,2,-56,-83,0,0,100,0,384,480,96,96,0,-48,-19,0,0,65,0,480,0,96,32,0,
0,2,-56,-83,0,0,100,0,480,480,96,96,0,-48,-19,0,0,65,0,480,0,96,32,0,
0,2,-56,-83,0,0,100,0,0,672,96,96,0,-48,-19,0,0,65,0,480,0,96,32,0,
0,2,-56,-83,0,0,100,0,96,672,96,96,0,-48,-19,0,0,65,0,480,0,96,32,0,
0,2,-56,-83,0,0,100,0,192,672,96,96,0,-48,-19,0,0,65,0,480,0,96,32,0,
0,2,-56,-83,0,0,100,0,288,672,96,96,0,-48,-19,0,0,65,0,480,0,96,32,0,
0,2,-56,-83,0,0,100,0,480,672,96,96,0,-48,-19,0,0,65,0,480,0,96,32,0,
0,2,-56,-83,0,0,100,0,0,576,96,96,0,-48,-19,0,0,65,0,480,0,96,32,0,
0,2,-56,-83,0,0,100,0,96,576,96,96,0,-48,-19,0,0,65,0,480,0,96,32,0,
0,2,-56,-83,0,0,100,0,192,576,96,96,0,-48,-19,0,0,65,0,480,0,96,32,0,
0,2,-56,-83,0,0,100,0,288,576,96,96,0,-48,-19,0,0,65,0,480,0,96,32,0,
0,2,-56,-81,0,0,100,0,480,578,96,96,0,-48,-19,0,0,65,0,480,0,96,32,0,
