0,2,-37,-76,0,0,100,0,8,0,72,75,0,-30,-37,0,0,100,0,25,413,65,46,0,
0,2,-39,-76,0,0,100,0,80,0,76,75,0,-30,-37,0,0,100,0,25,413,65,46,0,
0,2,-37,-76,0,0,100,0,156,0,74,75,0,-30,-37,0,0,100,0,25,413,65,46,0,
0,2,-36,-76,0,0,100,0,231,0,72,75,0,-30,-37,0,0,100,0,25,413,65,46,0,
0,2,-32,-47,0,0,100,0,5,130,91,48,0,-30,-37,0,0,100,0,25,413,65,46,0,
0,2,-34,-88,0,0,100,0,96,89,71,88,0,-30,-37,0,0,100,0,25,413,65,46,0,
0,2,-33,-88,0,0,100,0,169,89,71,88,0,-30,-37,0,0,100,0,25,413,65,46,0,
0,3,1,-102,0,0,100,0,248,256,56,40,0,-25,-97,0,0,100,0,243,80,77,97,0,-30,-37,0,0,100,0,25,413,65,46,0,
0,4,-85,-8,0,0,100,0,7,361,51,19,0,-89,-100,0,0,100,0,0,248,112,112,0,-85,-48,0,0,100,0,0,184,120,56,0,-30,-37,0,0,100,0,25,413,65,46,0,
0,4,-95,-12,0,0,100,0,134,353,64,17,0,-112,-85,0,0,100,0,120,248,80,96,0,-91,-40,0,0,100,0,120,192,128,47,0,-30,-37,0,0,100,0,25,413,65,46,0,
0,4,-97,-9,0,0,100,0,243,359,69,15,0,-106,-51,0,0,100,0,240,296,72,60,0,-93,-48,0,0,100,0,248,184,128,59,0,-30,-37,0,0,100,0,25,413,65,46,0,
0,4,-100,-7,0,0,100,0,323,359,77,16,0,-84,-36,0,0,100,0,336,307,32,44,0,-98,-47,0,0,100,0,379,185,133,59,0,-30,-37,0,0,100,0,25,413,65,46,0,
0,2,-98,-47,0,0,100,0,379,185,133,59,0,-30,-37,0,0,100,0,25,413,65,46,0,
0,2,-39,-89,0,0,100,0,342,0,76,89,0,-30,-37,0,0,100,0,25,413,65,46,0,
0,2,-45,-81,0,0,100,0,424,8,82,82,0,-30,-37,0,0,100,0,25,413,65,46,0,
0,2,-44,-65,0,0,100,0,337,104,82,70,0,-30,-37,0,0,100,0,25,413,65,46,0,
0,2,-44,-65,0,0,100,0,425,104,82,70,0,-30,-37,0,0,100,0,25,413,65,46,0,
0,2,-44,-63,0,0,100,0,155,378,82,66,0,-30,-37,0,0,100,0,25,413,65,46,0,
0,2,-44,-63,0,0,100,0,245,378,82,66,0,-30,-37,0,0,100,0,25,413,65,46,0,
0,2,-44,-63,0,0,100,0,335,378,82,66,0,-30,-37,0,0,100,0,25,413,65,46,0,
0,2,-44,-63,0,0,100,0,425,378,82,66,0,-30,-37,0,0,100,0,25,413,65,46,0,
0,2,-44,-63,0,0,100,0,155,445,82,66,0,-30,-37,0,0,100,0,25,413,65,46,0,
0,2,-44,-63,0,0,100,0,245,445,82,66,0,-30,-37,0,0,100,0,25,413,65,46,0,
0,2,-44,-63,0,0,100,0,335,445,82,66,0,-30,-37,0,0,100,0,25,413,65,46,0,
0,2,-44,-63,0,0,100,0,425,445,82,66,0,-30,-37,0,0,100,0,25,413,65,46,0,
