0,2,-50,-79,0,0,100,0,0,0,96,96,0,-47,-16,0,0,65,0,384,0,96,32,0,
0,2,-50,-79,0,0,100,0,96,0,96,96,0,-47,-16,0,0,65,0,384,0,96,32,0,
0,2,-50,-79,0,0,100,0,192,0,96,96,0,-47,-16,0,0,65,0,384,0,96,32,0,
0,2,-50,-79,0,0,100,0,288,0,96,96,0,-47,-16,0,0,65,0,384,0,96,32,0,
0,2,-50,-79,0,0,100,0,0,96,96,96,0,-47,-16,0,0,65,0,384,0,96,32,0,
0,2,-50,-79,0,0,100,0,96,96,96,96,0,-47,-16,0,0,65,0,384,0,96,32,0,
0,2,-50,-79,0,0,100,0,192,96,96,96,0,-47,-16,0,0,65,0,384,0,96,32,0,
0,2,-50,-79,0,0,100,0,288,96,96,96,0,-47,-16,0,0,65,0,384,0,96,32,0,
0,3,-50,-79,0,0,100,0,384,96,96,96,0,-82,-79,0,0,100,0,352,256,96,96,0,-47,-16,0,0,65,0,384,0,96,32,0,
0,3,-50,-79,0,0,100,0,480,96,96,96,0,-146,-47,0,0,100,0,0,192,160,96,0,-47,-16,0,0,65,0,384,0,96,32,0,
0,4,-50,-79,0,0,100,0,480,96,96,96,0,-242,-47,0,0,100,0,160,192,320,64,0,-114,-95,0,0,100,0,352,256,128,96,0,-47,-16,0,0,65,0,384,0,96,32,0,
0,4,-50,-79,0,0,100,0,480,96,96,96,0,-338,-79,0,0,100,0,0,256,352,96,0,-178,-71,0,0,100,0,0,352,192,96,0,-47,-16,0,0,65,0,384,0,96,32,0,
0,8,-50,-79,0,0,100,0,480,96,96,96,0,-113,-79,0,0,100,0,864,672,96,96,0,-209,-79,0,0,100,0,768,672,96,96,0,-305,-79,0,0,100,0,736,672,96,96,0,-401,-79,0,0,100,0,672,672,96,96,0,-497,-79,0,0,100,0,576,672,96,96,0,-250,-79,0,0,100,0,192,352,256,96,0,-47,-16,0,0,65,0,384,0,96,32,0,
0,8,-50,-79,0,0,100,0,480,96,96,96,0,-113,-79,0,0,100,0,864,672,96,96,0,-208,-79,0,0,100,0,768,672,96,96,0,-303,-79,0,0,100,0,736,672,96,96,0,-398,-79,0,0,100,0,672,672,96,96,0,-492,-80,0,0,100,0,576,672,96,96,0,-450,-79,0,0,100,0,0,448,480,128,0,-47,-16,0,0,65,0,384,0,96,32,0,
0,18,-50,-79,0,0,100,0,480,96,96,96,0,-113,-79,0,1,50,0,864,672,96,96,0,-208,-79,0,1,50,0,768,672,96,96,0,-303,-79,0,1,50,0,736,672,96,96,0,-398,-79,0,1,50,0,672,672,96,96,0,-492,-80,0,1,50,0,576,672,96,96,0,-113,-79,0,0,100,0,864,672,96,96,0,-208,-79,0,0,100,0,768,672,96,96,0,-303,-79,0,0,100,0,736,672,96,96,0,-398,-79,0,0,100,0,672,672,96,96,0,-492,-80,0,0,100,0,576,672,96,96,0,-98,-60,2,0,100,0,864,576,96,96,0,-194,-60,2,0,100,0,768,576,96,96,0,-290,-59,2,0,100,0,704,576,96,96,0,-386,-63,2,0,100,0,672,576,96,96,0,-482,-64,2,0,100,0,576,576,96,96,0,-114,-79,0,0,100,0,0,576,128,96,0,-47,-16,0,0,65,0,384,0,96,32,0,
0,13,-50,-79,0,0,100,0,480,96,96,96,0,-113,-79,0,1,50,0,864,672,96,96,0,-208,-79,0,1,60,0,768,672,96,96,0,-303,-79,0,1,70,0,736,672,96,96,0,-398,-79,0,1,80,0,672,672,96,96,0,-492,-80,0,1,80,0,576,672,96,96,0,-97,-57,2,0,100,0,864,576,96,96,0,-192,-57,2,0,100,0,768,576,96,96,0,-288,-55,2,0,100,0,704,576,96,96,0,-383,-57,2,0,100,0,672,576,96,96,0,-479,-57,2,0,100,0,576,576,96,96,0,-194,-79,0,0,100,0,128,576,192,96,0,-47,-16,0,0,65,0,384,0,96,32,0,
0,23,-50,-79,0,0,100,0,480,96,96,96,0,-506,-63,0,1,100,0,576,768,96,96,0,-410,-63,0,1,100,0,736,768,96,96,0,-306,-39,0,1,90,0,672,768,96,96,0,-204,-79,3,1,80,0,672,768,96,96,0,-106,-95,0,1,70,0,832,768,96,96,0,-113,-79,0,1,10,0,864,672,96,96,0,-208,-79,0,1,20,0,768,672,96,96,0,-303,-79,0,1,30,0,736,672,96,96,0,-398,-79,0,1,30,0,672,672,96,96,0,-492,-80,0,1,30,0,576,672,96,96,0,-97,-57,2,1,50,0,864,576,96,96,0,-192,-57,2,1,50,0,768,576,96,96,0,-288,-55,2,1,50,0,704,576,96,96,0,-383,-57,2,1,50,0,672,576,96,96,0,-479,-57,2,1,50,0,576,576,96,96,0,-97,-57,2,0,100,0,864,576,96,96,0,-192,-57,2,0,100,0,768,576,96,96,0,-288,-55,2,0,100,0,704,576,96,96,0,-383,-57,2,0,100,0,672,576,96,96,0,-479,-57,2,0,100,0,576,576,96,96,0,-370,-79,0,0,100,0,0,672,384,96,0,-47,-16,0,0,65,0,384,0,96,32,0,
0,24,-50,-79,0,0,100,0,480,96,96,96,0,-506,-63,0,1,40,0,576,768,96,96,0,-410,-63,0,1,40,0,736,768,96,96,0,-306,-39,0,1,40,0,672,768,96,96,0,-204,-79,3,1,40,0,672,768,96,96,0,-106,-95,0,1,40,0,832,768,96,96,0,-506,-63,0,1,100,0,576,864,96,96,0,-410,-63,0,1,100,0,736,864,96,96,0,-306,-39,0,1,100,0,672,864,96,96,0,-204,-79,3,1,100,0,672,864,96,96,0,-106,-95,0,1,100,0,832,864,96,96,0,-105,-57,2,1,100,0,864,768,96,96,0,-200,-57,2,1,100,0,768,768,96,96,0,-296,-55,2,1,100,0,704,768,96,96,0,-391,-57,2,1,100,0,672,768,96,96,0,-487,-57,2,1,100,0,576,768,96,96,0,-97,-57,2,1,80,0,864,576,96,96,0,-192,-57,2,1,80,0,768,576,96,96,0,-288,-55,2,1,80,0,704,576,96,96,0,-383,-57,2,1,80,0,672,576,96,96,0,-479,-57,2,1,80,0,576,576,96,96,0,-378,-79,0,0,100,0,576,576,384,96,0,-434,-79,0,0,30,0,0,864,480,96,0,-47,-16,0,0,65,0,384,0,96,32,0,
0,17,-50,-79,0,0,100,0,480,96,96,96,0,-105,-57,2,1,100,0,864,864,96,96,0,-200,-57,2,1,100,0,768,864,96,96,0,-296,-55,2,1,100,0,704,864,96,96,0,-391,-57,2,1,100,0,672,864,96,96,0,-487,-57,2,1,100,0,576,864,96,96,0,-105,-57,2,1,80,0,864,768,96,96,0,-200,-57,2,1,80,0,768,768,96,96,0,-296,-55,2,1,80,0,704,768,96,96,0,-391,-57,2,1,80,0,672,768,96,96,0,-487,-57,2,1,80,0,576,768,96,96,0,-115,-78,0,0,100,0,864,576,96,96,0,-210,-79,0,0,100,0,768,576,96,96,0,-306,-80,0,0,100,0,704,576,96,96,0,-402,-76,0,0,100,0,672,576,96,96,0,-498,-75,0,0,100,0,576,576,96,96,0,-47,-16,0,0,65,0,384,0,96,32,0,
0,12,-50,-79,0,0,100,0,480,96,96,96,0,-105,-57,2,1,50,0,864,864,96,96,0,-200,-57,2,1,50,0,768,864,96,96,0,-296,-55,2,1,50,0,704,864,96,96,0,-391,-57,2,1,50,0,672,864,96,96,0,-487,-57,2,1,50,0,576,864,96,96,0,-113,-79,0,0,100,0,864,576,96,96,0,-208,-79,0,0,100,0,768,576,96,96,0,-304,-81,0,0,100,0,704,576,96,96,0,-399,-79,0,0,100,0,672,576,96,96,0,-495,-79,0,0,100,0,576,576,96,96,0,-47,-16,0,0,65,0,384,0,96,32,0,
0,12,-50,-79,0,0,100,0,480,96,96,96,0,-113,-79,0,1,50,0,864,576,96,96,0,-208,-79,0,1,50,0,768,576,96,96,0,-304,-81,0,1,50,0,704,576,96,96,0,-399,-79,0,1,50,0,672,576,96,96,0,-495,-79,0,1,50,0,576,576,96,96,0,-113,-79,0,0,100,0,864,576,96,96,0,-208,-79,0,0,100,0,768,576,96,96,0,-304,-81,0,0,100,0,704,576,96,96,0,-399,-79,0,0,100,0,672,576,96,96,0,-495,-79,0,0,100,0,576,576,96,96,0,-47,-16,0,0,65,0,384,0,96,32,0,
0,12,-50,-79,0,0,100,0,480,96,96,96,0,-113,-79,0,1,30,0,864,576,96,96,0,-208,-79,0,1,40,0,768,576,96,96,0,-304,-81,0,1,50,0,704,576,96,96,0,-399,-79,0,1,60,0,672,576,96,96,0,-495,-79,0,1,60,0,576,576,96,96,0,-113,-79,0,1,50,0,864,768,96,96,0,-208,-79,0,1,70,0,768,768,96,96,0,-304,-81,0,1,80,0,704,768,96,96,0,-399,-79,0,1,100,0,672,768,96,96,0,-495,-79,0,1,100,0,576,768,96,96,0,-47,-16,0,0,65,0,384,0,96,32,0,
0,12,-50,-79,0,0,100,0,480,96,96,96,0,-113,-79,0,1,100,0,864,864,96,96,0,-208,-79,0,1,100,0,768,864,96,96,0,-304,-81,0,1,100,0,704,864,96,96,0,-399,-79,0,1,100,0,672,864,96,96,0,-495,-79,0,1,100,0,576,864,96,96,0,-113,-79,0,1,20,0,864,768,96,96,0,-208,-79,0,1,30,0,768,768,96,96,0,-304,-81,0,1,30,0,704,768,96,96,0,-399,-79,0,1,30,0,672,768,96,96,0,-495,-79,0,1,40,0,576,768,96,96,0,-47,-16,0,0,65,0,384,0,96,32,0,
0,7,-50,-79,0,0,100,0,480,96,96,96,0,-113,-79,0,1,30,0,864,864,96,96,0,-208,-79,0,1,30,0,768,864,96,96,0,-304,-81,0,1,30,0,704,864,96,96,0,-399,-79,0,1,30,0,672,864,96,96,0,-495,-79,0,1,30,0,576,864,96,96,0,-47,-16,0,0,65,0,384,0,96,32,0,
0,2,-50,-79,0,0,100,0,480,96,96,96,0,-47,-16,0,0,65,0,384,0,96,32,0,
0,2,-50,-79,0,0,100,0,480,96,96,96,0,-47,-16,0,0,65,0,384,0,96,32,0,
0,2,-50,-79,0,0,100,0,384,96,96,96,0,-47,-16,0,0,65,0,384,0,96,32,0,
0,2,-50,-79,0,0,100,0,0,96,96,96,0,-47,-16,0,0,65,0,384,0,96,32,0,
0,2,-50,-79,0,0,100,0,576,96,96,96,0,-47,-16,0,0,65,0,384,0,96,32,0,
0,2,-50,-79,0,0,100,0,672,96,96,96,0,-47,-16,0,0,65,0,384,0,96,32,0,
0,2,-50,-79,0,0,100,0,768,96,96,96,0,-47,-16,0,0,65,0,384,64,96,32,0,
0,2,-50,-79,0,0,100,0,864,96,96,96,0,-47,-16,0,0,65,0,384,32,96,32,0,
0,2,-50,-79,0,0,100,0,576,192,96,96,0,-47,-16,0,0,65,0,384,32,96,32,0,
0,2,-50,-79,0,0,100,0,672,192,96,96,0,-47,-16,0,0,65,0,384,32,96,32,0,
0,2,-50,-79,0,0,100,0,768,192,96,96,0,-47,-16,0,0,65,0,384,32,96,32,0,
0,2,-50,-79,0,0,100,0,864,192,96,96,0,-47,-16,0,0,65,0,384,32,96,32,0,
0,2,-50,-79,0,0,100,0,576,288,96,96,0,-47,-16,0,0,65,0,384,32,96,32,0,
0,2,-50,-79,0,0,100,0,672,288,96,96,0,-47,-16,0,0,65,0,384,32,96,32,0,
0,2,-50,-79,0,0,100,0,768,288,96,96,0,-47,-16,0,0,65,0,384,32,96,32,0,
0,2,-50,-79,0,0,100,0,864,192,96,96,0,-47,-16,0,0,65,0,384,32,96,32,0,
0,2,-50,-79,0,0,100,0,768,192,96,96,0,-47,-16,0,0,65,0,384,32,96,32,0,
0,2,-50,-79,0,0,100,0,576,192,96,96,0,-47,-16,0,0,65,0,384,32,96,32,0,
0,2,-50,-79,0,0,100,0,864,96,96,96,0,-47,-16,0,0,65,0,384,32,96,32,0,
0,2,-50,-79,0,0,100,0,576,384,96,96,0,-47,-16,0,0,65,0,384,64,96,32,0,
0,2,-50,-79,0,0,100,0,672,384,96,96,0,-47,-16,0,0,65,0,384,0,96,32,0,
0,2,-50,-79,0,0,100,0,768,384,96,96,0,-47,-16,0,0,65,0,384,0,96,32,0,
0,2,-50,-79,0,0,100,0,864,384,96,96,0,-47,-16,0,0,65,0,384,0,96,32,0,
0,3,-50,-79,0,0,100,0,576,480,96,96,0,-50,-79,0,0,100,0,576,0,96,96,0,-47,-16,0,0,65,0,384,0,96,32,0,
0,3,-50,-79,0,0,100,0,672,480,96,96,0,-50,-79,0,0,100,0,672,0,96,96,0,-47,-16,0,0,65,0,384,0,96,32,0,
0,3,-50,-79,0,0,100,0,768,480,96,96,0,-50,-79,0,0,100,0,768,0,96,96,0,-47,-16,0,0,65,0,384,0,96,32,0,
0,3,-50,-79,0,0,100,0,864,480,96,96,0,-50,-79,0,0,100,0,864,0,96,96,0,-47,-16,0,0,65,0,384,0,96,32,0,
0,3,-50,-79,0,0,100,0,576,480,96,96,0,-50,-79,0,0,100,0,576,0,96,96,0,-47,-16,0,0,65,0,384,0,96,32,0,
0,3,-50,-79,0,0,100,0,672,480,96,96,0,-50,-79,0,0,100,0,576,0,96,96,0,-47,-16,0,0,65,0,384,0,96,32,0,
0,3,-50,-79,0,0,100,0,768,480,96,96,0,-50,-79,0,0,100,0,576,0,96,96,0,-47,-16,0,0,65,0,384,0,96,32,0,
0,3,-50,-79,0,0,100,0,864,480,96,96,0,-50,-79,0,0,100,0,576,0,96,96,0,-47,-16,0,0,65,0,384,0,96,32,0,
