0,3,-60,-57,0,0,100,0,0,88,72,72,0,-41,-73,0,0,100,0,0,0,80,88,0,-28,-15,0,0,65,0,264,240,56,32,0,
0,3,-59,-57,0,0,100,0,0,88,72,72,0,-41,-73,0,0,100,0,80,0,80,88,0,-28,-15,0,0,65,0,264,240,56,32,0,
0,3,-59,-56,0,0,100,0,0,88,72,72,0,-41,-73,0,0,100,0,160,0,80,88,0,-28,-15,0,0,65,0,264,240,56,32,0,
0,3,-60,-56,0,0,100,0,0,88,72,72,0,-41,-73,0,0,100,0,240,0,80,88,0,-28,-15,0,0,65,0,264,240,56,32,0,
0,3,-70,-56,0,0,100,0,0,88,72,72,0,-55,-74,0,0,100,0,320,0,88,88,0,-28,-15,0,0,65,0,264,240,56,32,0,
0,6,-48,-44,0,0,100,0,40,160,40,40,0,-52,-73,0,0,100,0,408,0,88,88,0,-24,-51,0,0,100,0,80,160,40,40,0,-40,-70,0,0,100,0,144,88,72,72,0,-41,-80,0,0,50,0,0,280,88,88,0,-28,-15,0,0,65,0,264,240,56,32,0,
0,6,-49,-43,0,0,100,0,40,160,40,40,0,-52,-73,0,0,100,0,496,0,88,88,0,-28,-51,0,0,100,0,80,160,40,40,0,-44,-70,0,0,100,0,144,88,72,72,0,-45,-80,0,0,100,0,0,280,88,88,0,-29,-15,0,0,65,0,264,240,56,32,0,
0,7,-81,-61,0,1,100,0,72,88,72,72,0,-81,-61,0,0,100,0,72,88,72,72,0,-22,-45,0,0,100,0,160,160,40,40,0,-54,-73,0,0,100,0,584,0,88,88,0,-57,-50,0,0,100,0,120,160,40,40,0,-81,-74,0,0,100,0,0,368,136,96,0,-31,-15,0,0,65,0,264,240,56,32,0,
0,7,-83,-60,0,1,100,0,72,88,72,72,0,-83,-60,0,0,100,0,72,88,72,72,0,-22,-44,0,0,100,0,160,160,40,40,0,-54,-73,0,0,100,0,672,0,88,88,0,-58,-49,0,0,100,0,120,160,40,40,0,-83,-73,0,0,100,0,136,368,136,96,0,-31,-15,0,0,65,0,264,240,56,32,0,
0,7,-82,-60,0,1,70,0,72,88,72,72,0,-82,-60,0,0,100,0,72,88,72,72,0,-22,-44,0,0,100,0,160,160,40,40,0,-54,-73,0,0,100,0,672,0,88,88,0,-57,-49,0,0,100,0,120,160,40,40,0,-83,-73,0,0,70,0,272,368,136,96,0,-31,-15,0,0,65,0,264,240,56,32,0,
0,5,-82,-60,0,0,100,0,72,88,72,72,0,-22,-44,0,0,100,0,160,160,40,40,0,-54,-73,0,0,100,0,672,0,88,88,0,-57,-49,0,0,100,0,120,160,40,40,0,-31,-15,0,0,65,0,264,240,56,32,0,
0,4,-62,-73,0,0,100,0,320,88,88,88,0,-49,-51,0,0,100,0,200,160,40,40,0,-70,-63,0,0,100,0,144,88,72,72,0,-48,-15,0,0,65,0,264,240,56,32,0,
0,3,-69,-73,0,0,100,0,232,272,88,88,0,-56,-62,0,0,100,0,144,88,72,72,0,-48,-15,0,0,65,0,264,240,56,32,0,
0,5,-75,-63,0,1,100,0,568,384,56,80,0,-71,-73,0,0,100,0,408,88,88,88,0,-71,-59,0,1,100,0,0,464,80,72,0,-55,-61,0,0,100,0,144,88,72,72,0,-49,-15,0,0,65,0,264,240,56,32,0,
0,6,-74,-68,0,1,100,0,624,384,56,80,0,-75,-63,0,1,70,0,568,384,56,80,0,-71,-73,0,0,100,0,496,88,88,88,0,-72,-63,0,1,100,0,208,464,96,72,0,-54,-60,0,0,100,0,144,88,72,72,0,-49,-15,0,0,65,0,264,240,56,32,0,
0,5,-74,-68,0,1,40,0,624,384,56,80,0,-71,-73,0,0,100,0,496,88,88,88,0,-72,-59,0,1,50,0,0,464,80,72,0,-54,-60,0,0,100,0,144,88,72,72,0,-49,-15,0,0,65,0,264,240,56,32,0,
0,5,-30,-46,0,0,100,0,0,200,40,40,0,-64,-73,0,0,100,0,584,88,88,88,0,-41,-47,0,0,100,0,200,160,40,40,0,-63,-58,0,0,100,0,144,88,72,72,0,-49,-15,0,0,65,0,264,240,56,32,0,
0,5,-31,-46,0,0,100,0,0,200,40,40,0,-64,-73,0,0,100,0,672,88,88,88,0,-44,-45,0,0,100,0,200,160,40,40,0,-65,-57,0,0,100,0,144,88,72,72,0,-49,-15,0,0,65,0,264,240,56,32,0,
0,3,-59,-58,0,0,100,0,0,88,72,72,0,-41,-73,0,0,100,0,0,0,80,88,0,-28,-15,0,0,65,0,264,240,56,32,0,
0,8,-16,-48,0,0,100,0,240,200,40,40,0,-12,-47,0,0,100,0,280,200,40,40,0,-20,-63,0,0,100,0,760,0,40,40,0,-16,-42,0,0,100,0,672,304,32,48,0,-43,-73,0,0,100,0,320,176,88,88,0,-32,-48,0,0,100,0,280,160,40,40,0,-54,-57,0,0,100,0,144,88,72,72,0,-28,-15,0,0,65,0,264,240,56,32,0,
0,8,-17,-47,0,0,100,0,240,200,40,40,0,-13,-47,0,0,100,0,280,200,40,40,0,-20,-63,0,0,100,0,760,0,40,40,0,-16,-42,0,0,100,0,672,304,32,48,0,-43,-73,0,0,100,0,320,176,88,88,0,-31,-47,0,0,100,0,280,160,40,40,0,-53,-56,0,0,100,0,144,88,72,72,0,-28,-15,0,0,65,0,264,240,56,32,0,
0,8,-16,-47,0,0,100,0,240,200,40,40,0,-13,-47,0,0,100,0,280,200,40,40,0,-20,-63,0,0,100,0,760,0,40,40,0,-16,-42,0,0,100,0,672,304,32,48,0,-43,-73,0,0,100,0,320,176,88,88,0,-31,-47,0,0,100,0,280,160,40,40,0,-53,-56,0,0,100,0,144,88,72,72,0,-28,-15,0,0,65,0,264,240,56,32,0,
0,8,-17,-46,0,0,100,0,240,200,40,40,0,-13,-47,0,0,100,0,280,200,40,40,0,-20,-63,0,0,100,0,760,0,40,40,0,-16,-42,0,0,100,0,672,304,32,48,0,-43,-73,0,0,100,0,320,176,88,88,0,-31,-47,0,0,100,0,280,160,40,40,0,-53,-56,0,0,100,0,144,88,72,72,0,-28,-15,0,0,65,0,264,240,56,32,0,
0,8,5,-46,0,0,100,0,200,224,24,16,0,-23,-62,0,0,100,0,760,80,40,40,0,-21,-51,0,0,100,0,736,280,64,32,0,-7,-44,0,0,100,0,200,200,40,24,0,-43,-73,0,0,100,0,320,176,88,88,0,-34,-46,0,0,100,0,280,160,40,40,0,-56,-55,0,0,100,0,144,88,72,72,0,-28,-15,0,0,65,0,264,240,56,32,0,
0,8,6,-46,0,0,100,0,200,224,24,16,0,-24,-62,0,0,100,0,760,40,40,40,0,-20,-51,0,0,100,0,736,280,64,32,0,-7,-44,0,0,100,0,200,200,40,24,0,-43,-73,0,0,100,0,320,176,88,88,0,-34,-46,0,0,100,0,280,160,40,40,0,-56,-55,0,0,100,0,144,88,72,72,0,-28,-15,0,0,65,0,264,240,56,32,0,
0,5,-5,-50,0,0,100,0,0,240,40,40,0,-43,-73,0,0,100,0,408,176,88,88,0,-31,-47,0,0,100,0,280,160,40,40,0,-53,-56,0,0,100,0,144,88,72,72,0,-28,-15,0,0,65,0,264,240,56,32,0,
0,5,-3,-49,0,0,100,0,0,240,40,40,0,-43,-73,0,0,100,0,496,176,88,88,0,-29,-46,0,0,100,0,280,160,40,40,0,-51,-55,0,0,100,0,144,88,72,72,0,-28,-15,0,0,65,0,264,240,56,32,0,
0,5,-3,-48,0,0,100,0,0,240,40,40,0,-43,-73,0,0,100,0,584,176,88,88,0,-29,-46,0,0,100,0,280,160,40,40,0,-51,-55,0,0,100,0,144,88,72,72,0,-28,-15,0,0,65,0,264,240,56,32,0,
0,7,-56,-55,0,0,100,0,216,88,72,72,0,-7,-55,0,0,100,0,80,200,40,40,0,-20,-62,0,0,100,0,760,160,40,40,0,-35,-47,0,0,100,0,40,200,40,40,0,-13,-48,0,0,100,0,704,304,32,48,0,-45,-72,0,0,100,0,672,176,88,88,0,-28,-15,0,0,65,0,264,240,56,32,0,
0,7,-56,-52,0,0,100,0,216,88,72,72,0,-8,-56,0,0,100,0,80,200,40,40,0,-20,-62,0,0,100,0,760,160,40,40,0,-35,-47,0,0,100,0,40,200,40,40,0,-13,-48,0,0,100,0,704,304,32,48,0,-45,-72,0,0,100,0,672,176,88,88,0,-28,-15,0,0,65,0,264,240,56,32,0,
0,7,-56,-53,0,0,100,0,216,88,72,72,0,-8,-56,0,0,100,0,80,200,40,40,0,-20,-62,0,0,100,0,760,160,40,40,0,-35,-47,0,0,100,0,40,200,40,40,0,-13,-48,0,0,100,0,704,304,32,48,0,-45,-72,0,0,100,0,672,176,88,88,0,-28,-15,0,0,65,0,264,240,56,32,0,
0,7,-56,-53,0,0,100,0,216,88,72,72,0,-8,-56,0,0,100,0,80,200,40,40,0,-19,-62,0,0,100,0,760,200,40,40,0,-35,-47,0,0,100,0,40,200,40,40,0,-13,-48,0,0,100,0,704,304,32,48,0,-45,-72,0,0,100,0,672,176,88,88,0,-28,-15,0,0,65,0,264,240,56,32,0,
0,7,-56,-53,0,0,100,0,216,88,72,72,0,-8,-56,0,0,100,0,80,200,40,40,0,-19,-62,0,0,100,0,760,240,40,40,0,-35,-47,0,0,100,0,40,200,40,40,0,-13,-48,0,0,100,0,704,304,32,48,0,-45,-72,0,0,100,0,672,176,88,88,0,-28,-15,0,0,65,0,264,240,56,32,0,
0,7,-56,-53,0,0,100,0,216,88,72,72,0,-6,-51,0,0,100,0,120,200,40,40,0,-19,-62,0,0,100,0,760,200,40,40,0,-35,-47,0,0,100,0,40,200,40,40,0,-12,-48,0,0,100,0,704,304,32,48,0,-45,-72,0,0,100,0,672,176,88,88,0,-28,-15,0,0,65,0,264,240,56,32,0,
0,7,-56,-53,0,0,100,0,216,88,72,72,0,-19,-61,0,0,100,0,760,120,40,40,0,-35,-47,0,0,100,0,40,200,40,40,0,-17,-46,0,0,100,0,736,312,56,40,0,-45,-72,0,0,100,0,672,176,88,88,0,-11,-43,0,0,100,0,160,200,40,40,0,-28,-15,0,0,65,0,264,240,56,32,0,
0,7,-56,-53,0,0,100,0,216,88,72,72,0,-19,-61,0,0,100,0,760,120,40,40,0,-12,-48,0,0,100,0,624,352,56,32,0,-35,-47,0,0,100,0,40,200,40,40,0,-45,-72,0,0,100,0,320,264,88,88,0,-11,-43,0,0,100,0,160,200,40,40,0,-28,-15,0,0,65,0,264,240,56,32,0,
0,7,-56,-53,0,0,100,0,216,88,72,72,0,-19,-61,0,0,100,0,760,120,40,40,0,-12,-48,0,0,100,0,680,352,56,32,0,-35,-47,0,0,100,0,40,200,40,40,0,-45,-72,0,0,100,0,408,264,88,88,0,-11,-43,0,0,100,0,160,200,40,40,0,-28,-15,0,0,65,0,264,240,56,32,0,
0,7,-56,-53,0,0,100,0,216,88,72,72,0,-19,-61,0,0,100,0,760,120,40,40,0,-12,-48,0,0,100,0,736,352,56,32,0,-35,-47,0,0,100,0,40,200,40,40,0,-45,-72,0,0,100,0,496,264,88,88,0,-11,-43,0,0,100,0,160,200,40,40,0,-28,-15,0,0,65,0,264,240,56,32,0,
0,7,-56,-53,0,0,100,0,216,88,72,72,0,-19,-61,0,0,100,0,760,120,40,40,0,-12,-48,0,0,100,0,568,352,56,32,0,-35,-47,0,0,100,0,40,200,40,40,0,-45,-72,0,0,100,0,584,264,88,88,0,-11,-43,0,0,100,0,160,200,40,40,0,-28,-15,0,0,65,0,264,240,56,32,0,
0,3,-71,-73,0,0,100,0,496,88,88,88,0,-54,-60,0,0,100,0,144,88,72,72,0,-49,-15,0,0,65,0,264,240,56,32,0,
