0,7,-36,-40,0,0,50,0,96,32,64,32,0,-36,-72,0,0,70,0,32,704,96,96,0,-36,-72,0,0,10,0,32,160,96,96,0,-36,-72,0,0,10,0,128,64,96,96,0,-36,-72,0,0,30,0,224,64,96,96,0,-36,-72,0,0,50,0,320,64,96,96,0,-32,-18,0,0,65,0,32,32,64,32,0,
0,6,-36,-39,0,0,70,0,96,32,64,32,0,-36,-72,0,0,5,0,32,160,96,96,0,-36,-72,0,0,5,0,128,160,96,96,0,-36,-72,0,0,20,0,224,160,96,96,0,-36,-72,0,0,40,0,320,160,96,96,0,-32,-18,0,0,65,0,32,32,64,32,0,
0,6,-36,-39,0,0,30,0,96,32,64,32,0,-36,-72,0,0,0,0,416,64,96,96,0,-36,-72,0,0,3,0,512,64,96,96,0,-36,-72,0,0,10,0,608,64,96,96,0,-36,-72,0,0,30,0,704,64,96,96,0,-32,-18,0,0,65,0,32,32,64,32,0,
0,6,-36,-40,0,0,40,0,96,32,64,32,0,-36,-72,0,0,5,0,416,160,96,96,0,-36,-72,0,0,5,0,512,160,96,96,0,-36,-72,0,0,20,0,608,160,96,96,0,-36,-72,0,0,40,0,704,160,96,96,0,-32,-18,0,0,65,0,32,32,64,32,0,
0,5,-48,-72,0,0,5,0,32,256,96,96,0,-48,-72,0,0,5,0,128,256,96,96,0,-48,-72,0,0,20,0,224,256,96,96,0,-48,-72,0,0,40,0,320,256,96,96,0,-32,-18,0,0,65,0,32,32,64,32,0,
0,6,-48,-72,0,0,10,0,416,256,96,96,0,-48,-72,0,0,10,0,512,256,96,96,0,-48,-72,0,0,30,0,608,256,96,96,0,-48,-72,0,0,50,0,704,256,96,96,0,-48,-72,0,0,30,0,768,352,96,96,0,-32,-18,0,0,65,0,32,32,64,32,0,
0,3,-77,-72,0,0,100,0,32,544,160,96,0,-77,-72,0,0,100,0,32,352,128,96,0,-41,-18,0,0,65,0,32,32,64,32,0,
0,3,-77,-72,0,0,100,0,192,544,160,96,0,-77,-72,0,0,100,0,160,352,128,96,0,-41,-18,0,0,65,0,32,32,64,32,0,
0,2,-77,-72,0,0,100,0,160,352,128,96,0,-41,-18,0,0,65,0,32,32,64,32,0,
0,2,-77,-72,0,0,100,0,288,352,128,96,0,-41,-18,0,0,65,0,32,32,64,32,0,
0,2,-77,-72,0,0,100,0,416,352,128,96,0,-36,-18,0,0,65,0,32,32,64,32,0,
0,3,-77,-104,0,0,100,0,352,544,160,128,0,-45,-72,0,0,100,0,32,448,96,96,0,-32,-18,0,0,65,0,32,32,64,32,0,
0,3,-77,-104,0,0,100,0,512,544,160,128,0,-45,-72,0,0,100,0,128,448,96,96,0,-32,-18,0,0,65,0,32,32,64,32,0,
0,3,-77,-104,0,0,100,0,672,544,160,96,0,-45,-72,0,0,100,0,224,448,96,96,0,-32,-18,0,0,65,0,32,32,64,32,0,
0,3,-77,-104,0,0,100,0,832,544,160,96,0,-45,-72,0,0,100,0,32,448,96,96,0,-32,-18,0,0,65,0,32,32,64,32,0,
0,3,-77,-104,0,0,100,0,672,544,160,96,0,-45,-72,0,0,100,0,128,448,96,96,0,-32,-18,0,0,65,0,32,32,64,32,0,
0,3,-77,-104,0,0,100,0,832,544,160,96,0,-45,-72,0,0,100,0,224,448,96,96,0,-32,-18,0,0,65,0,32,32,64,32,0,
0,3,-77,-104,0,0,100,0,672,544,160,96,0,-45,-72,0,0,100,0,32,448,96,96,0,-32,-18,0,0,65,0,32,32,64,32,0,
0,3,-77,-104,0,0,100,0,832,544,160,96,0,-45,-72,0,0,100,0,128,448,96,96,0,-32,-18,0,0,65,0,32,32,64,32,0,
0,7,-77,-72,0,0,100,0,32,640,128,64,0,-45,-72,0,0,10,0,320,448,96,96,0,-45,-72,0,0,10,0,416,448,96,96,0,-45,-72,0,0,30,0,512,448,96,96,0,-45,-72,0,0,50,0,608,448,96,96,0,-45,-72,0,0,30,0,864,352,96,96,0,-32,-18,0,0,65,0,32,32,64,32,0,
0,8,-36,-72,0,1,100,0,32,800,64,64,0,-36,-40,0,0,50,0,96,32,64,32,0,-36,-72,0,0,10,0,128,160,96,96,0,-36,-72,0,0,10,0,128,64,96,96,0,-36,-72,0,0,30,0,224,64,96,96,0,-36,-72,0,0,50,0,320,64,96,96,0,-36,-72,0,0,50,0,32,704,96,96,0,-32,-18,0,0,65,0,32,32,64,32,0,
0,3,-36,-72,0,1,100,0,96,800,64,64,0,-36,-72,0,0,100,0,32,704,96,96,0,-32,-18,0,0,65,0,32,32,64,32,0,
0,4,-36,-72,0,1,100,0,160,800,64,64,0,-36,-72,0,0,100,0,128,704,96,96,0,-36,-71,0,0,100,0,224,800,64,32,0,-32,-18,0,0,65,0,32,32,64,32,0,
0,3,-36,-72,0,0,100,0,128,704,96,96,0,-36,-71,0,0,100,0,224,832,64,32,0,-32,-18,0,0,65,0,32,32,64,32,0,
0,2,-36,-72,0,0,100,0,224,704,96,96,0,-28,-18,0,0,65,0,32,32,64,32,0,
0,2,-36,-72,0,0,100,0,320,704,96,96,0,-24,-18,0,0,65,0,32,32,64,32,0,
0,2,-36,-72,0,0,100,0,416,704,96,96,0,-18,-18,0,0,65,0,32,32,64,32,0,
0,2,-36,-72,0,0,100,0,512,704,96,96,0,-12,-18,0,0,65,0,32,32,64,32,0,
0,2,-36,-72,0,0,100,0,608,704,96,96,0,-12,-18,0,0,65,0,32,32,64,32,0,
0,3,-4,-72,0,0,100,0,800,704,64,64,0,-36,-72,0,0,100,0,704,704,96,96,0,-12,-18,0,0,65,0,32,32,64,32,0,
0,3,-4,-72,0,0,100,0,800,768,64,64,0,-36,-72,0,0,100,0,704,704,96,96,0,-12,-18,0,0,65,0,32,32,64,32,0,
0,3,-4,-72,0,0,100,0,864,768,64,64,0,-36,-72,0,0,100,0,704,704,96,96,0,-12,-18,0,0,65,0,32,32,64,32,0,
0,3,-4,-72,0,0,100,0,864,704,64,64,0,-36,-72,0,0,100,0,704,704,96,96,0,-12,-18,0,0,65,0,32,32,64,32,0,
0,3,-36,-72,0,0,100,0,512,800,96,32,0,-36,-72,0,0,100,0,512,704,96,96,0,-12,-18,0,0,65,0,32,32,64,32,0,
0,7,-36,-40,0,0,50,0,96,32,64,32,0,-36,-72,0,0,40,0,32,704,96,96,0,-36,-72,0,0,10,0,32,160,96,96,0,-36,-72,0,0,10,0,128,64,96,96,0,-36,-72,0,0,30,0,224,64,96,96,0,-36,-72,0,0,50,0,320,64,96,96,0,-32,-18,0,0,65,0,32,32,64,32,0,
