0,2,-64,-87,0,0,100,0,0,0,128,96,0,-39,-17,0,0,65,0,640,0,80,32,0,
0,2,-64,-87,0,0,100,0,128,0,128,96,0,-39,-17,0,0,65,0,640,0,80,32,0,
0,2,-64,-87,0,0,100,0,256,0,128,96,0,-39,-17,0,0,65,0,640,0,80,32,0,
0,2,-64,-87,0,0,100,0,384,0,128,96,0,-39,-17,0,0,65,0,640,0,80,32,0,
0,2,-64,-87,0,0,100,0,512,0,128,96,0,-39,-17,0,0,65,0,640,0,80,32,0,
0,2,-64,-87,0,0,100,0,512,96,128,96,0,-39,-17,0,0,65,0,640,0,80,32,0,
0,2,-64,-87,0,0,100,0,512,192,128,96,0,-39,-17,0,0,65,0,640,0,80,32,0,
0,3,-94,-84,0,0,100,0,640,32,128,112,0,-84,-87,0,0,100,0,512,0,128,96,0,-51,-17,0,0,65,0,640,0,80,32,0,
0,3,-94,-84,0,0,100,0,640,144,128,112,0,-86,-87,0,0,100,0,512,0,128,96,0,-53,-17,0,0,65,0,640,0,80,32,0,
0,3,-94,-84,0,0,50,0,640,256,128,112,0,-78,-87,0,0,100,0,0,96,128,96,0,-53,-17,0,0,65,0,640,0,80,32,0,
0,2,-78,-87,0,0,100,0,0,96,128,96,0,-53,-17,0,0,65,0,640,0,80,32,0,
0,2,-78,-87,0,0,100,0,128,96,128,96,0,-53,-17,0,0,65,0,640,0,80,32,0,
0,4,-126,-108,0,0,100,0,768,32,128,112,0,-78,-87,0,0,100,0,256,96,128,96,0,-93,-106,0,1,100,0,640,368,128,112,0,-53,-17,0,0,65,0,640,0,80,32,0,
0,3,-126,-108,0,0,100,0,768,144,128,112,0,-78,-87,0,0,100,0,384,96,128,96,0,-53,-17,0,0,65,0,640,0,80,32,0,
0,3,-126,-108,0,0,50,0,768,256,128,112,0,-78,-87,0,0,100,0,384,192,128,96,0,-53,-17,0,0,65,0,640,0,80,32,0,
0,2,-78,-87,0,0,100,0,384,96,128,96,0,-53,-17,0,0,65,0,640,0,80,32,0,
0,2,-64,-87,0,0,100,0,0,192,128,96,0,-39,-17,0,0,65,0,640,0,80,32,0,
0,2,-64,-87,0,0,100,0,128,192,128,96,0,-39,-17,0,0,65,0,640,0,80,32,0,
0,2,-64,-87,0,0,100,0,128,288,128,96,0,-39,-17,0,0,65,0,640,0,80,32,0,
0,2,-64,-87,0,0,100,0,256,192,128,96,0,-39,-17,0,0,65,0,640,0,80,32,0,
0,2,-64,-87,0,0,100,0,0,288,128,96,0,-39,-17,0,0,65,0,640,0,80,32,0,
0,3,-48,-71,0,0,50,0,720,480,80,80,0,-64,-87,0,0,100,0,0,192,128,96,0,-39,-17,0,0,65,0,640,0,80,32,0,
0,3,-48,-71,0,0,100,0,640,480,80,80,0,-64,-87,0,0,100,0,128,192,128,96,0,-39,-17,0,0,65,0,640,0,80,32,0,
0,3,-48,-71,0,0,50,0,720,480,80,80,0,-64,-87,0,0,100,0,128,192,128,96,0,-39,-17,0,0,65,0,640,0,80,32,0,
