0,9,-8,-36,0,0,100,0,0,344,48,40,0,-8,-28,0,0,100,0,0,264,48,40,0,-39,-80,0,0,100,0,0,0,88,88,0,-33,-89,0,0,100,0,344,264,32,104,0,-53,-48,0,0,100,0,968,0,64,56,0,-67,-41,0,0,100,0,968,168,72,56,0,-38,-12,0,0,65,0,904,144,32,16,0,0,-6,0,0,65,0,904,144,32,16,0,-23,-12,0,0,65,0,792,120,48,24,0,
0,9,-8,-36,0,0,100,0,48,344,48,40,0,-8,-28,0,0,100,0,48,264,48,40,0,-39,-80,0,0,100,0,88,0,88,88,0,-33,-89,0,0,100,0,344,264,32,104,0,-53,-48,0,0,100,0,1032,0,64,56,0,-66,-41,0,0,100,0,968,168,72,56,0,-38,-12,0,0,65,0,904,144,32,16,0,0,-6,0,0,65,0,904,144,32,16,0,-23,-12,0,0,65,0,792,120,48,24,0,
0,9,-8,-36,0,0,100,0,96,344,48,40,0,-8,-28,0,0,100,0,96,264,48,40,0,-39,-80,0,0,100,0,176,0,88,88,0,-33,-89,0,0,100,0,344,264,32,104,0,-53,-48,0,0,100,0,1096,0,64,56,0,-67,-42,0,0,100,0,968,168,72,56,0,-38,-12,0,0,65,0,904,144,32,16,0,0,-6,0,0,65,0,904,144,32,16,0,-23,-12,0,0,65,0,792,120,48,24,0,
0,9,-8,-36,0,0,100,0,144,344,48,40,0,-8,-28,0,0,100,0,144,264,48,40,0,-39,-80,0,0,100,0,264,0,88,88,0,-33,-89,0,0,100,0,344,264,32,104,0,-53,-48,0,0,100,0,1160,0,64,56,0,-68,-42,0,0,100,0,968,168,72,56,0,-38,-12,0,0,65,0,904,144,32,16,0,0,-6,0,0,65,0,904,144,32,16,0,-23,-12,0,0,65,0,792,120,48,24,0,
0,13,12,-31,0,0,100,0,24,352,24,32,0,-5,-31,0,0,100,0,192,264,48,40,0,5,-30,0,0,100,0,24,352,24,32,0,-35,-62,0,0,100,0,648,304,64,40,0,-50,-81,0,0,100,0,352,0,88,88,0,-15,-40,0,0,100,0,488,216,48,40,0,-40,-63,0,0,100,0,536,304,56,40,0,-74,-55,0,0,100,0,376,264,104,56,0,-57,-49,0,0,100,0,1224,0,64,56,0,-73,-42,0,0,100,0,968,168,72,56,0,-38,-12,0,0,65,0,904,144,32,16,0,2,-6,0,0,65,0,904,144,32,16,0,-23,-12,0,0,65,0,792,120,48,24,0,
0,21,-8,-36,0,0,100,0,0,344,48,40,0,-8,-28,0,0,100,0,0,264,48,40,0,-123,-78,0,0,90,0,296,776,96,104,0,-105,-78,0,0,60,0,296,776,96,104,0,-63,-62,0,1,100,0,792,144,112,72,0,-63,-62,0,1,100,0,792,144,112,72,0,-127,-67,0,1,100,0,168,776,128,80,0,-57,-62,0,0,100,0,712,304,56,40,0,-72,-80,0,0,100,0,440,0,88,88,0,-37,-39,0,0,100,0,440,176,48,40,0,-63,-63,0,0,100,0,592,304,56,40,0,-122,-43,1,0,100,90,344,264,32,104,0,-53,-48,0,0,100,0,968,0,64,56,0,-67,-41,0,0,100,0,968,168,72,56,0,-4,-76,0,0,30,0,1032,632,160,104,0,-36,-85,0,0,30,0,1032,632,160,104,0,-20,-119,0,0,30,0,1032,632,160,104,0,6,-102,0,0,0,0,904,408,112,112,0,-38,-12,0,0,65,0,904,144,32,16,0,0,-6,0,0,65,0,904,144,32,16,0,-42,-12,0,0,65,0,792,120,48,24,0,
0,21,-8,-36,0,0,100,0,48,344,48,40,0,-8,-28,0,0,100,0,48,264,48,40,0,-153,-78,0,0,50,0,296,776,96,104,0,-132,-78,0,0,30,0,296,776,96,104,0,-92,-62,0,1,100,0,792,144,112,72,0,-92,-62,0,1,100,0,792,144,112,72,0,-157,-67,0,1,100,0,168,776,128,80,0,-88,-61,0,0,100,0,648,344,64,40,0,-103,-80,0,0,100,0,440,0,88,88,0,-68,-39,0,0,100,0,488,176,48,40,0,-93,-62,0,0,100,0,536,344,56,40,0,-153,-43,1,0,100,90,344,264,32,104,0,-53,-48,0,0,100,0,1032,0,64,56,0,-66,-41,0,0,100,0,968,168,72,56,0,-4,-76,0,0,30,0,1032,632,160,104,0,-36,-85,0,0,30,0,1032,632,160,104,0,-20,-119,0,0,30,0,1032,632,160,104,0,6,-102,0,0,0,0,904,408,112,112,0,-38,-12,0,0,65,0,904,144,32,16,0,0,-6,0,0,65,0,904,144,32,16,0,-74,-12,0,0,65,0,792,120,48,24,0,
0,19,-8,-36,0,0,100,0,96,344,48,40,0,-8,-28,0,0,100,0,96,264,48,40,0,-173,-78,0,0,30,0,296,776,96,104,0,-113,-62,0,1,100,0,792,144,112,72,0,-176,-67,0,1,70,0,168,776,128,80,0,-102,-68,0,0,100,0,592,264,56,40,0,-129,-80,0,0,100,0,528,0,88,88,0,-88,-39,0,0,100,0,440,216,48,40,0,-113,-68,0,0,100,0,648,264,56,40,0,-173,-43,1,0,100,90,344,264,32,104,0,-53,-48,0,0,100,0,1096,0,64,56,0,-67,-42,0,0,100,0,968,168,72,56,0,-2,-76,0,0,60,0,1032,632,160,104,0,-38,-85,0,0,60,0,1032,632,160,104,0,-19,-119,0,0,60,0,1032,632,160,104,0,6,-102,0,0,0,0,1016,408,112,112,0,-38,-12,0,0,65,0,904,144,32,16,0,0,-6,0,0,65,0,904,144,32,16,0,-96,-12,0,0,65,0,792,120,48,24,0,
0,16,-8,-36,0,0,100,0,144,344,48,40,0,-8,-28,0,0,100,0,144,264,48,40,0,-100,-66,0,0,100,0,760,216,56,40,0,-130,-80,0,0,100,0,528,0,88,88,0,-88,-39,0,0,100,0,488,216,48,40,0,-112,-63,0,0,100,0,760,256,56,40,0,-174,-43,1,0,100,90,344,264,32,104,0,-53,-48,0,0,100,0,1160,0,64,56,0,-68,-42,0,0,100,0,968,168,72,56,0,-2,-76,0,0,60,0,1032,632,160,104,0,-38,-85,0,0,60,0,1032,632,160,104,0,-19,-119,0,0,60,0,1032,632,160,104,0,6,-102,0,0,0,0,1016,408,112,112,0,-38,-12,0,0,65,0,904,144,32,16,0,0,-6,0,0,65,0,904,144,32,16,0,-98,-12,0,0,65,0,792,120,48,24,0,
0,22,-8,-36,0,0,100,0,0,344,48,40,0,-8,-28,0,0,100,0,0,264,48,40,0,-147,-137,0,0,80,0,912,896,120,112,0,-138,-91,0,0,80,0,216,384,104,80,0,-136,-47,0,0,80,180,912,896,120,112,0,-129,-60,0,0,80,180,216,384,104,80,0,-123,-75,0,0,100,0,376,320,88,80,0,-88,-48,0,0,100,0,536,200,40,24,0,-101,-80,0,0,100,0,616,0,88,88,0,-92,-48,0,0,100,0,536,176,40,24,0,-74,-44,0,0,100,0,440,176,48,40,0,-53,-48,0,0,100,0,968,0,64,56,0,-67,-41,0,0,100,0,968,168,72,56,0,8,-92,0,1,100,0,1032,736,56,72,0,3,-76,0,0,100,0,1032,632,160,104,0,-42,-85,0,0,100,0,1032,632,160,104,0,13,-94,0,1,50,0,1144,736,112,80,0,-17,-119,0,0,100,0,1032,632,160,104,0,6,-102,0,0,60,0,1128,408,112,112,0,-38,-12,0,0,65,0,904,144,32,16,0,0,-6,0,0,65,0,904,144,32,16,0,-88,-12,0,0,65,0,792,120,48,24,0,
0,23,-8,-36,0,0,100,0,0,344,48,40,0,-8,-28,0,0,100,0,0,264,48,40,0,-92,-102,0,0,80,270,912,896,120,112,0,-106,-92,0,0,80,270,216,384,104,80,0,-183,-89,0,0,80,90,912,896,120,112,0,-137,-83,0,0,80,90,216,384,104,80,0,-121,-79,0,0,100,90,376,320,88,80,0,-88,-48,0,0,100,0,536,200,40,24,0,-101,-80,0,0,100,0,616,0,88,88,0,-92,-48,0,0,100,0,536,176,40,24,0,-74,-44,0,0,100,0,440,176,48,40,0,-53,-48,0,0,100,0,968,0,64,56,0,-67,-41,0,0,100,0,968,168,72,56,0,8,-92,0,1,100,0,1032,736,56,72,0,17,-59,1,1,100,0,1032,736,56,72,0,3,-76,0,0,100,0,1032,632,160,104,0,-42,-85,0,0,100,0,1032,632,160,104,0,13,-94,0,1,100,0,1144,736,112,80,0,-17,-119,0,0,100,0,1032,632,160,104,0,6,-102,0,0,60,0,1128,408,112,112,0,-38,-12,0,0,65,0,904,144,32,16,0,0,-6,0,0,65,0,904,144,32,16,0,-88,-12,0,0,65,0,792,120,48,24,0,
0,20,-8,-36,0,0,100,0,48,344,48,40,0,-8,-28,0,0,100,0,48,264,48,40,0,-131,-61,0,0,80,180,912,896,120,112,0,-124,-74,0,0,80,180,216,384,104,80,0,-142,-151,0,0,80,0,912,896,120,112,0,-133,-105,0,0,80,0,216,384,104,80,0,-118,-89,0,0,100,180,376,320,88,80,0,-85,-58,0,0,100,0,576,216,40,32,0,-101,-80,0,0,100,0,704,0,88,88,0,-91,-59,0,0,100,0,536,224,40,32,0,-74,-44,0,0,100,0,488,176,48,40,0,-53,-48,0,0,100,0,1032,0,64,56,0,-66,-41,0,0,100,0,968,168,72,56,0,4,-76,0,0,100,0,1032,632,160,104,0,-43,-85,0,0,100,0,1032,632,160,104,0,-16,-119,0,0,100,0,1032,632,160,104,0,6,-102,0,0,100,0,904,408,112,112,0,-38,-12,0,0,65,0,904,144,32,16,0,0,-6,0,0,65,0,904,144,32,16,0,-88,-12,0,0,65,0,792,120,48,24,0,
0,23,-8,-36,0,0,100,0,48,344,48,40,0,-8,-28,0,0,100,0,48,264,48,40,0,-177,-104,0,0,80,90,912,896,120,112,0,-131,-97,0,0,80,90,216,384,104,80,0,-86,-117,0,0,80,270,912,896,120,112,0,-100,-106,0,0,80,270,216,384,104,80,0,-115,-93,0,0,100,270,376,320,88,80,0,-85,-58,0,0,100,0,576,216,40,32,0,-101,-80,0,0,100,0,704,0,88,88,0,-91,-59,0,0,100,0,536,224,40,32,0,-74,-44,0,0,100,0,488,176,48,40,0,-53,-48,0,0,100,0,1032,0,64,56,0,-66,-41,0,0,100,0,968,168,72,56,0,73,-86,0,0,100,0,1088,736,56,72,0,4,-76,0,0,100,0,1032,632,160,104,0,-43,-85,0,0,100,0,1032,632,160,104,0,-16,-119,0,0,100,0,1032,632,160,104,0,-12,-80,0,0,20,0,1032,632,160,104,0,6,-102,0,0,100,0,904,408,112,112,0,-3,-119,0,0,20,0,1032,632,160,104,0,-38,-12,0,0,65,0,904,144,32,16,0,0,-6,0,0,65,0,904,144,32,16,0,-88,-12,0,0,65,0,792,120,48,24,0,
0,25,-8,-36,0,0,100,0,96,344,48,40,0,-8,-28,0,0,100,0,96,264,48,40,0,-135,-156,0,1,80,0,912,896,120,112,0,-126,-110,0,0,80,0,216,384,104,80,0,-124,-66,0,1,80,180,912,896,120,112,0,-117,-79,0,0,80,180,216,384,104,80,0,-111,-94,0,0,100,0,376,320,88,80,0,-72,-65,0,0,100,0,600,176,24,40,0,-101,-80,0,0,100,0,792,0,88,88,0,-77,-66,0,0,100,0,576,176,24,40,0,-74,-44,0,0,100,0,440,216,48,40,0,-53,-48,0,0,100,0,1096,0,64,56,0,-67,-42,0,0,100,0,968,168,72,56,0,73,-86,0,0,100,0,1088,736,56,72,0,5,-76,0,0,80,0,1032,632,160,104,0,-9,-86,0,1,50,0,1144,736,112,80,0,-44,-85,0,0,80,0,1032,632,160,104,0,-15,-119,0,0,80,0,1032,632,160,104,0,-12,-80,0,0,50,0,1032,632,160,104,0,6,-102,0,0,100,0,1016,408,112,112,0,-3,-119,0,0,20,0,1032,632,160,104,0,16,-16,0,0,20,0,816,472,88,32,0,-38,-12,0,0,65,0,904,144,32,16,0,0,-6,0,0,65,0,904,144,32,16,0,-88,-12,0,0,65,0,792,120,48,24,0,
0,24,-8,-36,0,0,100,0,96,344,48,40,0,-8,-28,0,0,100,0,96,264,48,40,0,-80,-124,0,1,40,270,912,896,120,112,0,-93,-111,0,0,80,270,216,384,104,80,0,-171,-111,0,1,40,90,912,896,120,112,0,-124,-102,0,0,80,90,216,384,104,80,0,-108,-98,0,0,100,90,376,320,88,80,0,-72,-65,0,0,100,0,600,176,24,40,0,-101,-80,0,0,100,0,792,0,88,88,0,-77,-66,0,0,100,0,576,176,24,40,0,-74,-44,0,0,100,0,440,216,48,40,0,-53,-48,0,0,100,0,1096,0,64,56,0,-67,-42,0,0,100,0,968,168,72,56,0,5,-76,0,0,80,0,1032,632,160,104,0,-9,-86,0,1,100,0,1144,736,112,80,0,-44,-85,0,0,80,0,1032,632,160,104,0,-15,-119,0,0,80,0,1032,632,160,104,0,-12,-80,0,0,80,0,1032,632,160,104,0,6,-102,0,0,100,0,1016,408,112,112,0,-3,-119,0,0,50,0,1032,632,160,104,0,16,-16,0,0,30,0,816,472,88,32,0,-38,-12,0,0,65,0,904,144,32,16,0,0,-6,0,0,65,0,904,144,32,16,0,-88,-12,0,0,65,0,792,120,48,24,0,
0,29,-23,-48,0,0,100,0,616,640,48,56,0,-8,-36,0,0,100,0,144,344,48,40,0,-8,-28,0,0,100,0,144,264,48,40,0,-151,-32,0,0,100,0,112,864,72,48,0,-171,-34,0,0,100,0,0,864,112,48,0,-183,-177,0,0,100,0,608,1032,168,200,0,-139,-103,0,0,100,0,0,384,72,120,0,-84,-62,0,0,100,0,592,264,56,40,0,-99,-57,0,0,100,0,840,88,64,56,0,-98,-42,0,0,100,0,920,0,48,40,0,-88,-33,0,0,100,0,880,0,40,40,0,-130,-27,0,0,100,0,480,256,112,48,0,-120,-35,0,0,100,0,880,40,88,48,0,-85,-29,1,0,100,0,792,88,32,32,0,-79,-34,0,0,100,0,440,176,48,40,0,-98,-59,0,0,100,0,648,264,56,40,0,-111,-45,0,0,100,0,920,320,80,48,0,-53,-48,0,0,100,0,1160,0,64,56,0,-68,-42,0,0,100,0,968,168,72,56,0,6,-76,0,0,50,0,1032,632,160,104,0,-45,-85,0,0,50,0,1032,632,160,104,0,-14,-119,0,0,50,0,1032,632,160,104,0,-12,-80,0,0,80,0,1032,632,160,104,0,6,-102,0,0,100,0,904,408,112,112,0,-3,-119,0,0,50,0,1032,632,160,104,0,16,-16,0,0,40,0,816,472,88,32,0,-38,-12,0,0,65,0,904,144,32,16,0,0,-6,0,0,65,0,904,144,32,16,0,-97,-12,0,0,65,0,792,120,48,24,0,
0,30,-24,-44,0,0,100,0,536,640,80,72,0,-8,-36,0,0,100,0,0,344,48,40,0,-8,-28,0,0,100,0,0,264,48,40,0,-199,-69,0,0,70,0,392,776,168,88,0,-198,-64,0,0,100,0,0,776,168,88,0,-172,-144,0,0,100,0,776,1064,136,168,0,-139,-103,0,0,100,0,72,384,72,120,0,-100,-56,0,0,100,0,840,88,64,56,0,-99,-53,0,0,100,0,536,304,56,40,0,-99,-41,0,0,100,0,920,0,48,40,0,-89,-32,0,0,100,0,880,0,40,40,0,-131,-26,0,0,100,0,480,256,112,48,0,-120,-35,0,0,100,0,880,40,88,48,0,-85,-29,1,0,100,0,792,88,32,32,0,-79,-34,0,0,100,0,488,176,48,40,0,-91,-54,0,0,100,0,648,304,64,40,0,-111,-36,0,0,100,0,1000,320,72,48,0,-40,-74,0,0,100,0,968,56,64,56,0,-26,-61,0,0,100,0,1040,168,48,40,0,-54,-75,2,0,100,0,968,168,72,56,0,6,-76,0,0,50,0,1032,632,160,104,0,-45,-85,0,0,50,0,1032,632,160,104,0,-14,-119,0,0,50,0,1032,632,160,104,0,-12,-80,0,0,100,0,1032,632,160,104,0,6,-102,0,0,100,0,904,408,112,112,0,-3,-119,0,0,70,0,1032,632,160,104,0,16,-16,0,0,50,0,816,472,88,32,0,-28,-12,0,0,65,0,904,144,32,16,0,0,-6,0,0,65,0,904,144,32,16,0,-97,-12,0,0,65,0,792,120,48,24,0,
0,29,-4,-29,0,0,100,0,664,640,64,56,0,-8,-36,0,0,100,0,48,344,48,40,0,-8,-28,0,0,100,0,48,264,48,40,0,-199,-69,0,0,40,0,392,776,168,88,0,-158,-143,0,0,100,0,792,896,120,168,0,-139,-103,0,0,100,0,144,384,72,120,0,-91,-56,0,0,100,0,712,304,64,40,0,-100,-57,0,0,100,0,840,88,64,56,0,-99,-42,0,0,100,0,920,0,48,40,0,-89,-32,0,0,100,0,880,0,40,40,0,-131,-26,0,0,100,0,480,256,112,48,0,-120,-35,0,0,100,0,880,40,88,48,0,-85,-29,1,0,100,0,792,88,32,32,0,-79,-33,0,0,100,0,440,216,48,40,0,-99,-55,0,0,100,0,592,304,56,40,0,-111,-37,0,0,100,0,1000,320,72,48,0,-21,-66,0,0,100,0,968,56,64,56,0,2,-57,0,0,100,0,1184,168,40,24,0,-37,-68,2,0,100,0,968,168,72,56,0,7,-76,0,0,20,0,1032,632,160,104,0,-46,-85,0,0,20,0,1032,632,160,104,0,-13,-119,0,0,20,0,1032,632,160,104,0,-12,-80,0,0,100,0,1032,632,160,104,0,6,-102,0,0,100,0,1128,408,112,112,0,-3,-119,0,0,70,0,1032,632,160,104,0,16,-16,0,0,65,0,816,472,88,32,0,-8,-12,0,0,65,0,904,144,32,16,0,0,-6,0,0,65,0,904,144,32,16,0,-97,-12,0,0,65,0,792,120,48,24,0,
0,22,-14,-48,0,0,100,0,1040,208,64,56,0,-8,-28,0,0,100,0,144,264,48,40,0,-32,-59,0,0,60,0,968,256,72,56,0,-25,-38,0,0,60,180,968,256,72,56,0,-24,-47,2,0,100,0,1224,112,64,56,0,-66,-68,0,1,50,0,0,776,168,88,0,-91,-55,0,0,100,0,648,344,64,40,0,-100,-57,0,0,100,0,840,88,64,56,0,-99,-42,0,0,100,0,920,0,48,40,0,-89,-32,0,0,100,0,880,0,40,40,0,-131,-26,0,0,100,0,480,256,112,48,0,-120,-35,0,0,100,0,880,40,88,48,0,-85,-29,1,0,100,0,792,88,32,32,0,-79,-33,0,0,100,0,440,216,48,40,0,-99,-54,0,0,100,0,536,344,56,40,0,-111,-37,0,0,100,0,1000,320,72,48,0,-12,-80,0,0,100,0,1032,632,160,104,0,6,-102,0,0,100,0,1128,408,112,112,0,-3,-119,0,0,100,0,1032,632,160,104,0,16,-16,0,0,65,0,816,472,88,32,0,0,-6,0,0,65,0,904,144,32,16,0,-97,-12,0,0,65,0,792,120,48,24,0,
0,23,8,-36,3,0,100,0,616,640,48,56,0,-14,-50,0,0,100,0,1040,264,64,56,0,-8,-28,0,0,100,0,144,304,48,40,0,-25,-35,3,0,60,0,968,256,72,56,0,-34,-58,0,0,60,0,968,256,72,56,0,-26,-47,1,0,100,0,1224,112,64,56,0,-25,-109,0,1,100,90,168,776,128,80,0,-26,-44,0,0,100,0,224,712,88,64,0,-68,-101,0,0,100,0,616,240,56,24,0,-60,-69,0,0,100,0,656,176,40,40,0,-77,-94,0,0,100,0,672,240,56,24,0,-67,-110,0,0,100,0,0,88,88,88,0,-41,-79,0,0,100,0,440,176,48,40,0,-73,-109,0,0,100,0,480,304,56,96,0,-72,-90,0,0,100,0,920,368,64,40,0,-40,-76,1,0,100,0,792,88,32,32,0,-12,-80,0,0,100,0,1032,632,160,104,0,8,-103,0,1,100,0,904,520,112,112,0,8,-103,0,0,100,0,904,520,112,112,0,-3,-119,0,0,100,0,1032,632,160,104,0,16,-16,0,0,65,0,816,472,88,32,0,0,-6,0,0,65,0,904,144,32,16,0,-57,-12,0,0,65,0,792,120,48,24,0,
0,25,-22,-55,3,0,100,0,536,640,80,72,0,-14,-50,0,0,100,0,1104,264,64,56,0,-8,-28,0,0,100,0,144,304,48,40,0,-34,-54,0,0,60,-270,968,256,72,56,0,-13,-59,0,0,60,-90,968,256,72,56,0,-28,-47,3,0,100,0,1224,112,64,56,0,-25,-109,0,1,50,90,168,776,128,80,0,-26,-44,0,0,100,0,312,712,88,64,0,-33,-147,0,0,100,0,752,400,64,72,0,-21,-133,0,0,100,0,776,352,48,48,0,9,-104,0,0,100,0,624,176,32,40,0,-16,-139,0,0,100,0,0,88,88,88,0,10,-108,0,0,100,0,440,176,48,40,0,-22,-138,0,0,100,0,480,304,56,96,0,-21,-119,0,0,100,0,920,368,64,40,0,-3,-139,0,0,100,0,776,296,40,48,0,11,-105,1,0,100,0,792,88,32,32,0,-12,-80,0,0,100,0,1032,632,160,104,0,8,-104,0,1,100,0,904,520,112,112,0,8,-104,0,1,100,0,904,520,112,112,0,8,-104,0,0,100,0,904,520,112,112,0,-3,-119,0,0,100,0,1032,632,160,104,0,16,-16,0,0,65,0,816,472,88,32,0,0,-6,0,0,65,0,904,144,32,16,0,5,-12,0,0,65,0,792,120,48,24,0,
0,24,-25,-54,3,0,100,0,664,640,64,56,0,-14,-50,0,0,100,0,1040,208,64,56,0,-8,-28,0,0,100,0,144,304,48,40,0,-32,-59,0,0,60,0,968,256,72,56,0,-25,-38,0,0,60,180,968,256,72,56,0,-24,-47,2,0,100,0,1224,112,64,56,0,-26,-44,0,0,100,0,400,712,88,64,0,-34,-136,0,0,100,0,632,400,120,88,0,10,-105,0,0,100,0,624,176,32,40,0,-5,-135,0,0,100,0,904,160,64,80,0,-3,-139,0,0,100,0,816,296,40,48,0,11,-109,0,0,100,0,440,176,48,40,0,-20,-134,0,0,100,0,824,352,48,48,0,-21,-139,0,0,100,0,480,304,56,96,0,-19,-120,0,0,100,0,984,368,64,40,0,12,-106,1,0,100,0,792,88,32,32,0,-12,-80,0,0,100,0,1032,632,160,104,0,8,-104,0,1,80,0,904,520,112,112,0,8,-104,0,0,80,0,904,520,112,112,0,8,-104,0,0,100,0,1128,520,112,112,0,-3,-119,0,0,100,0,1032,632,160,104,0,16,-16,0,0,65,0,816,472,88,32,0,0,-6,0,0,65,0,904,144,32,16,0,6,-12,0,0,65,0,792,120,48,24,0,
0,26,-27,-59,0,0,100,-90,616,640,48,56,0,-38,-60,0,0,80,-90,224,712,88,64,0,-14,-50,0,0,100,0,1104,208,64,56,0,-8,-28,0,0,100,0,144,304,48,40,0,-30,-34,0,0,100,0,968,224,72,32,0,-26,-44,0,0,100,0,224,712,88,64,0,-63,-82,1,0,50,0,528,400,104,104,0,-1,-119,0,0,100,0,816,400,88,72,0,-28,-150,0,1,50,0,528,400,104,104,0,10,-105,0,0,100,0,624,176,32,40,0,-5,-135,0,0,100,0,904,240,64,80,0,11,-109,0,0,100,0,440,176,48,40,0,2,-136,0,0,100,0,856,296,48,56,0,-11,-134,0,0,100,0,872,352,48,48,0,-21,-139,0,0,100,0,480,304,56,96,0,-21,-121,0,0,100,0,1048,368,64,40,0,12,-106,1,0,100,0,792,88,32,32,0,30,-53,1,1,100,0,1088,736,56,72,0,-12,-80,0,0,100,0,1032,632,160,104,0,8,-104,0,1,80,0,904,520,112,112,0,8,-104,0,0,80,0,904,520,112,112,0,8,-104,0,0,100,0,1128,520,112,112,0,-3,-119,0,0,100,0,1032,632,160,104,0,16,-16,0,0,65,0,816,472,88,32,0,0,-6,0,0,65,0,904,144,32,16,0,6,-12,0,0,65,0,792,120,48,24,0,
0,29,14,-98,2,0,100,0,616,640,48,56,0,-37,-125,0,1,50,0,0,912,176,128,0,-37,-125,0,0,80,0,0,912,176,128,0,-37,-125,0,0,100,0,0,1040,176,128,0,-48,-61,0,0,100,-90,536,640,80,72,0,-38,-63,0,0,80,-90,312,712,88,64,0,-14,-50,0,0,100,0,1040,264,64,56,0,-31,-35,0,0,100,0,968,224,72,32,0,-8,-28,0,0,60,0,144,304,48,40,0,-8,-28,0,0,100,0,0,264,48,40,0,-26,-44,0,0,70,0,312,712,88,64,0,-63,-82,0,0,100,0,320,400,104,104,0,19,-151,1,0,100,0,752,400,64,72,0,-1,-119,0,0,50,0,816,400,88,72,0,-24,-149,0,1,100,0,320,400,104,104,0,7,-135,0,0,100,0,712,344,64,40,0,10,-105,0,0,100,0,624,176,32,40,0,-15,-140,0,0,100,0,0,88,88,88,0,11,-109,0,0,100,0,488,176,48,40,0,-21,-139,0,0,100,0,480,304,56,96,0,12,-106,1,0,100,0,792,88,32,32,0,-1,-135,0,0,100,0,592,344,56,40,0,-21,-119,0,0,100,0,920,368,64,40,0,30,-53,1,1,100,0,1088,736,56,72,0,-12,-80,0,0,100,0,1032,632,160,104,0,-3,-119,0,0,100,0,1032,632,160,104,0,16,-16,0,0,65,0,816,472,88,32,0,0,-6,0,0,65,0,904,144,32,16,0,6,-12,0,0,65,0,792,120,48,24,0,
0,27,14,-118,2,0,100,0,536,640,80,72,0,-37,-127,0,1,50,0,0,912,176,128,0,-37,-127,0,0,80,0,0,912,176,128,0,-37,-127,0,0,100,0,0,1040,176,128,0,-44,-41,0,0,100,-90,664,640,64,56,0,-38,-62,0,0,80,-90,400,712,88,64,0,-14,-50,0,0,100,0,1104,264,64,56,0,-32,-35,0,0,100,0,968,224,72,32,0,-8,-28,0,0,30,0,144,304,48,40,0,-8,-28,0,0,100,0,0,264,48,40,0,-26,-44,0,0,60,0,400,712,88,64,0,-63,-82,0,0,40,0,528,400,104,104,0,-37,-137,1,0,100,0,632,400,120,88,0,-24,-149,0,1,100,0,424,400,104,104,0,7,-136,0,0,100,0,648,304,64,40,0,10,-105,0,0,100,0,624,176,32,40,0,-5,-135,0,0,100,0,904,160,64,80,0,11,-109,0,0,100,0,440,216,48,40,0,-21,-139,0,0,100,0,480,304,56,96,0,12,-106,1,0,100,0,792,88,32,32,0,0,-135,0,0,100,0,536,304,56,40,0,-19,-120,0,0,100,0,984,368,64,40,0,-12,-80,0,0,80,0,1032,632,160,104,0,-3,-119,0,0,80,0,1032,632,160,104,0,16,-16,0,0,65,0,816,472,88,32,0,0,-6,0,0,65,0,904,144,32,16,0,6,-12,0,0,65,0,792,120,48,24,0,
0,25,67,-66,0,0,100,90,616,640,48,56,0,35,-116,2,0,100,0,664,640,64,56,0,-39,-132,0,1,50,0,0,912,176,128,0,-39,-132,0,0,100,0,0,912,176,128,0,-39,-132,0,0,100,0,0,1040,176,128,0,-38,-60,0,0,80,-90,224,712,88,64,0,-14,-50,0,0,100,0,1040,208,64,56,0,-31,-34,0,0,100,0,968,224,72,32,0,-8,-28,0,0,100,0,0,264,48,40,0,-26,-44,0,0,20,0,224,712,88,64,0,-41,-117,1,0,100,0,816,400,88,72,0,-28,-150,0,1,100,0,528,400,104,104,0,7,-137,0,0,100,0,712,304,64,40,0,10,-105,0,0,100,0,624,176,32,40,0,-5,-135,0,0,100,0,904,240,64,80,0,11,-109,0,0,100,0,488,216,48,40,0,-21,-139,0,0,100,0,480,304,56,96,0,12,-106,1,0,100,0,792,88,32,32,0,0,-136,0,0,100,0,592,304,56,40,0,-12,-80,0,0,80,0,1032,632,160,104,0,-3,-119,0,0,80,0,1032,632,160,104,0,-94,-201,0,0,50,0,1032,864,256,192,0,16,-16,0,0,65,0,816,472,88,32,0,0,-6,0,0,65,0,904,144,32,16,0,6,-12,0,0,65,0,792,120,48,24,0,
0,21,74,-103,0,0,100,90,536,640,80,72,0,-74,-130,0,1,50,0,176,912,240,128,0,-74,-130,0,0,100,0,176,912,240,128,0,-74,-130,0,0,100,0,176,1040,240,128,0,-100,-64,0,0,80,0,224,640,104,72,0,-64,-59,0,0,100,0,1032,56,64,56,0,-84,-43,0,0,100,0,968,224,72,32,0,-59,-38,0,0,100,0,192,264,48,40,0,-43,-152,0,0,100,0,752,400,64,72,0,-92,-153,0,1,100,0,0,504,224,136,0,-77,-125,0,0,100,0,88,88,88,96,0,-111,-104,0,0,100,0,376,264,104,56,0,-45,-91,0,0,100,0,440,216,48,40,0,-45,-87,1,0,100,0,792,88,32,32,0,-94,-148,0,0,100,0,560,712,168,144,0,-12,-80,0,0,50,0,1032,632,160,104,0,-3,-119,0,0,50,0,1032,632,160,104,0,-175,-177,0,0,80,0,728,640,304,256,0,9,-16,0,0,65,0,816,472,88,32,0,-53,-6,0,0,65,0,904,144,32,16,0,-63,-12,0,0,65,0,792,120,48,24,0,
0,22,88,-108,0,0,100,90,664,640,64,56,0,-138,-109,0,1,50,0,176,912,240,128,0,-138,-109,0,0,100,0,176,912,240,128,0,-138,-109,0,0,100,0,176,1040,240,128,0,-158,-64,0,0,80,0,328,640,104,72,0,-122,-59,0,0,100,0,1032,56,64,56,0,-142,-43,0,0,100,0,968,224,72,32,0,-117,-38,0,0,100,0,192,264,48,40,0,-147,-109,0,0,100,0,752,400,64,72,0,-44,-141,0,0,100,0,632,400,120,88,0,-169,-127,0,1,100,0,224,504,224,136,0,-154,-99,0,0,100,0,88,88,88,96,0,-122,-65,0,0,100,0,440,216,48,40,0,-188,-78,0,0,100,0,376,264,104,56,0,-122,-62,1,0,100,0,792,88,32,32,0,-169,-120,0,0,100,0,560,712,168,144,0,-12,-80,0,0,50,0,1032,632,160,104,0,-3,-119,0,0,50,0,1032,632,160,104,0,-258,-148,0,0,80,0,1032,864,256,192,0,-62,-16,0,0,65,0,816,472,88,32,0,-109,-6,0,0,65,0,904,144,32,16,0,-139,-12,0,0,65,0,792,120,48,24,0,
0,23,-211,-59,0,0,80,0,432,640,104,72,0,-175,-55,0,0,100,0,1032,56,64,56,0,-195,-39,0,0,100,0,968,224,72,32,0,-170,-34,0,0,100,0,192,264,48,40,0,-209,-95,0,1,50,0,416,912,192,128,0,-209,-95,0,0,100,0,416,912,192,128,0,-209,-95,0,0,100,0,416,1040,192,128,0,-148,-98,0,0,100,0,632,400,120,88,0,-11,-124,0,0,100,0,816,400,88,72,0,-233,-100,0,1,100,0,448,504,224,136,0,-203,-62,0,0,100,0,592,264,56,40,0,-191,-26,0,0,100,0,792,88,32,32,0,-225,-80,0,0,100,0,176,88,88,88,0,-214,-62,0,0,100,0,648,264,56,40,0,-191,-34,0,0,100,0,440,176,48,40,0,-246,-52,0,0,100,0,376,264,104,56,0,-234,-95,0,0,60,0,560,712,168,144,0,-12,-80,0,0,30,0,1032,632,160,104,0,-3,-119,0,0,30,0,1032,632,160,104,0,-301,-128,0,0,80,0,728,640,304,256,0,-159,-16,0,0,65,0,816,472,88,32,0,-162,-6,0,0,65,0,904,144,32,16,0,-206,-12,0,0,65,0,792,120,48,24,0,
0,21,-193,-50,0,0,100,0,968,0,64,56,0,-207,-43,0,0,100,0,968,168,72,56,0,-187,-28,0,0,100,0,144,264,48,40,0,-204,-83,3,0,100,90,752,400,64,72,0,-115,-81,0,0,100,0,816,400,88,72,0,-230,-101,0,1,100,0,672,504,224,136,0,-204,-61,0,0,100,0,592,264,56,40,0,-191,-26,0,0,100,0,792,88,32,32,0,-225,-80,0,0,100,0,264,88,88,88,0,-215,-61,0,0,100,0,648,264,56,40,0,-191,-34,0,0,100,0,488,176,48,40,0,-246,-52,0,0,100,0,376,264,104,56,0,-195,-96,0,1,30,0,904,408,112,112,0,-195,-96,0,0,100,0,904,408,112,112,0,-195,-96,0,0,60,0,1128,520,112,112,0,-12,-80,0,0,30,0,1032,632,160,104,0,-3,-119,0,0,30,0,1032,632,160,104,0,-319,-120,0,0,50,0,1032,864,256,192,0,-172,-16,0,0,65,0,816,472,88,32,0,-178,-6,0,0,65,0,904,144,32,16,0,-206,-12,0,0,65,0,792,120,48,24,0,
0,15,-193,-50,0,0,100,0,1032,0,64,56,0,-206,-43,0,0,100,0,968,168,72,56,0,-187,-28,0,0,100,0,0,264,48,40,0,-233,-85,3,0,100,90,632,400,120,88,0,-229,-101,0,1,100,0,0,640,224,136,0,-210,-55,0,0,100,0,712,304,64,40,0,-191,-26,0,0,100,0,792,88,32,32,0,-225,-80,0,0,100,0,264,88,88,88,0,-215,-56,0,0,100,0,592,304,56,40,0,-191,-34,0,0,100,0,440,216,48,40,0,-246,-52,0,0,100,0,376,264,104,56,0,-191,-97,0,0,100,0,1128,408,112,112,0,-172,-16,0,0,65,0,816,472,88,32,0,-178,-6,0,0,65,0,904,144,32,16,0,-206,-12,0,0,65,0,792,120,48,24,0,
0,14,-193,-50,0,0,100,0,1096,0,64,56,0,-207,-44,0,0,100,0,968,168,72,56,0,-187,-28,0,0,100,0,0,264,48,40,0,-233,-55,3,0,100,90,816,400,88,72,0,-210,-54,0,0,100,0,648,344,64,40,0,-191,-26,0,0,100,0,792,88,32,32,0,-225,-80,0,0,100,0,264,88,88,88,0,-215,-55,0,0,100,0,536,344,56,40,0,-191,-34,0,0,100,0,488,216,48,40,0,-246,-52,0,0,100,0,376,264,104,56,0,-191,-96,0,0,100,0,1016,408,112,112,0,-172,-16,0,0,65,0,816,472,88,32,0,-178,-6,0,0,65,0,904,144,32,16,0,-206,-12,0,0,65,0,792,120,48,24,0,
0,13,-193,-50,0,0,100,0,1160,0,64,56,0,-208,-44,0,0,100,0,968,168,72,56,0,-187,-28,0,0,100,0,0,264,48,40,0,-210,-54,0,0,100,0,648,344,64,40,0,-191,-26,0,0,100,0,792,88,32,32,0,-225,-80,0,0,100,0,264,88,88,88,0,-215,-55,0,0,100,0,536,344,56,40,0,-191,-34,0,0,100,0,488,216,48,40,0,-246,-52,0,0,100,0,376,264,104,56,0,-191,-96,0,0,100,0,1016,408,112,112,0,-172,-16,0,0,65,0,816,472,88,32,0,-178,-6,0,0,65,0,904,144,32,16,0,-206,-12,0,0,65,0,792,120,48,24,0,
0,7,-8,-36,0,0,50,0,0,344,48,40,0,-8,-28,0,0,100,0,0,264,48,40,0,-39,-80,0,0,100,0,0,0,88,88,0,-53,-48,0,0,100,0,968,0,64,56,0,-38,-12,0,0,65,0,904,144,32,16,0,0,-6,0,0,65,0,904,144,32,16,0,-23,-12,0,0,65,0,792,120,48,24,0,
0,11,-8,-28,0,0,100,0,0,304,48,40,0,-39,-80,0,0,100,0,352,88,88,88,0,-27,-29,0,0,100,0,1184,112,24,24,0,-30,-26,0,0,100,0,1128,112,32,24,0,-52,-48,0,0,100,0,1096,56,64,56,0,-37,-30,0,0,100,0,1160,112,24,24,0,-41,-27,0,0,100,0,1096,112,32,24,0,-40,-33,0,0,100,0,1040,168,48,40,0,-37,-12,0,0,65,0,904,144,32,16,0,0,-6,0,0,65,0,904,144,32,16,0,-23,-12,0,0,65,0,792,120,48,24,0,
0,12,-7,-14,0,0,100,0,312,264,32,24,0,-8,-28,0,0,100,0,48,304,48,40,0,-39,-80,0,0,100,0,440,88,88,88,0,-27,-30,0,0,100,0,1184,112,24,24,0,-29,-27,0,0,100,0,1128,112,32,24,0,-52,-48,0,0,100,0,1096,56,64,56,0,-37,-31,0,0,100,0,1160,112,24,24,0,-42,-28,0,0,100,0,1096,112,32,24,0,-40,-33,0,0,100,0,1088,168,48,40,0,-37,-12,0,0,65,0,904,144,32,16,0,0,-6,0,0,65,0,904,144,32,16,0,-23,-12,0,0,65,0,792,120,48,24,0,
0,12,-9,-16,0,0,100,0,312,288,32,24,0,-8,-28,0,0,100,0,0,304,48,40,0,-39,-80,0,0,100,0,528,88,88,88,0,-27,-29,0,0,100,0,1184,112,24,24,0,-29,-26,0,0,100,0,1128,112,32,24,0,-52,-48,0,0,100,0,1096,56,64,56,0,-37,-30,0,0,100,0,1160,112,24,24,0,-42,-27,0,0,100,0,1096,112,32,24,0,-40,-33,0,0,100,0,1136,168,48,40,0,-37,-12,0,0,65,0,904,144,32,16,0,0,-6,0,0,65,0,904,144,32,16,0,-23,-12,0,0,65,0,792,120,48,24,0,
0,12,-10,-17,0,0,100,0,312,312,32,24,0,-8,-28,0,0,100,0,0,304,48,40,0,-39,-80,0,0,100,0,528,88,88,88,0,-27,-29,0,0,100,0,1184,112,24,24,0,-29,-26,0,0,100,0,1128,112,32,24,0,-52,-48,0,0,100,0,1096,56,64,56,0,-37,-30,0,0,100,0,1160,112,24,24,0,-42,-27,0,0,100,0,1096,112,32,24,0,-40,-33,0,0,100,0,1136,168,48,40,0,-37,-12,0,0,65,0,904,144,32,16,0,0,-6,0,0,65,0,904,144,32,16,0,-23,-12,0,0,65,0,792,120,48,24,0,
0,12,-9,-16,0,0,100,0,312,288,32,24,0,-8,-28,0,0,100,0,48,304,48,40,0,-40,-80,0,0,100,0,704,88,88,88,0,-27,-29,0,0,100,0,1184,112,24,24,0,-29,-26,0,0,100,0,1128,112,32,24,0,-52,-48,0,0,100,0,1160,56,64,56,0,-37,-30,0,0,100,0,1160,112,24,24,0,-42,-27,0,0,100,0,1096,112,32,24,0,-40,-33,0,0,100,0,1136,168,48,40,0,-37,-12,0,0,65,0,904,144,32,16,0,0,-6,0,0,65,0,904,144,32,16,0,-23,-12,0,0,65,0,792,120,48,24,0,
0,14,-23,-74,0,0,100,0,904,88,64,56,0,0,-42,0,0,100,0,616,216,32,24,0,-2,-31,0,0,100,0,312,264,32,24,0,-3,-45,0,0,100,0,48,304,48,40,0,-39,-80,0,0,100,0,616,88,88,88,0,-27,-29,0,0,100,0,1184,112,24,24,0,-29,-26,0,0,100,0,1128,112,32,24,0,-52,-48,0,0,100,0,1160,56,64,56,0,-37,-30,0,0,100,0,1160,112,24,24,0,-42,-27,0,0,100,0,1096,112,32,24,0,-40,-33,0,0,100,0,1136,168,48,40,0,-37,-12,0,0,65,0,904,144,32,16,0,6,-6,0,0,65,0,904,144,32,16,0,-23,-12,0,0,65,0,792,120,48,24,0,
0,14,-23,-74,0,0,100,0,904,88,64,56,0,0,-42,0,0,100,0,648,216,32,24,0,-3,-31,0,0,100,0,312,288,32,24,0,-2,-44,0,0,100,0,48,304,48,40,0,-39,-80,0,0,100,0,616,88,88,88,0,-27,-29,0,0,100,0,1184,112,24,24,0,-29,-26,0,0,100,0,1128,112,32,24,0,-52,-48,0,0,100,0,1160,56,64,56,0,-37,-30,0,0,100,0,1160,112,24,24,0,-42,-27,0,0,100,0,1096,112,32,24,0,-40,-33,0,0,100,0,1136,168,48,40,0,-37,-12,0,0,65,0,904,144,32,16,0,7,-6,0,0,65,0,904,144,32,16,0,-23,-12,0,0,65,0,792,120,48,24,0,
0,14,-23,-74,0,0,100,0,904,88,64,56,0,0,-42,0,0,100,0,648,216,32,24,0,-4,-29,0,0,100,0,312,336,32,24,0,-2,-42,0,0,100,0,96,304,48,40,0,-39,-80,0,0,100,0,616,88,88,88,0,-27,-29,0,0,100,0,1184,112,24,24,0,-29,-26,0,0,100,0,1128,112,32,24,0,-52,-48,0,0,100,0,1160,56,64,56,0,-37,-30,0,0,100,0,1160,112,24,24,0,-42,-27,0,0,100,0,1096,112,32,24,0,-40,-33,0,0,100,0,1136,168,48,40,0,-37,-12,0,0,65,0,904,144,32,16,0,7,-6,0,0,65,0,904,144,32,16,0,-23,-12,0,0,65,0,792,120,48,24,0,
0,13,-23,-74,0,0,100,0,904,88,64,56,0,0,-42,0,0,100,0,648,216,32,24,0,-2,-42,0,0,100,0,96,304,48,40,0,-39,-80,0,0,100,0,616,88,88,88,0,-27,-29,0,0,100,0,1184,112,24,24,0,-27,-28,0,0,100,0,1128,136,32,24,0,-52,-48,0,0,100,0,1224,56,64,56,0,-37,-30,0,0,100,0,1160,112,24,24,0,-44,-28,0,0,100,0,1096,136,32,24,0,-40,-33,0,0,100,0,1136,168,48,40,0,-37,-12,0,0,65,0,904,144,32,16,0,7,-6,0,0,65,0,904,144,32,16,0,-23,-12,0,0,65,0,792,120,48,24,0,
0,13,-23,-74,0,0,100,0,904,88,64,56,0,-3,-42,0,0,100,0,680,216,32,24,0,-6,-42,0,0,100,0,96,304,48,40,0,-39,-80,0,0,100,0,616,88,88,88,0,-27,-30,0,0,100,0,1184,112,24,24,0,-28,-29,0,0,100,0,1128,136,32,24,0,-52,-48,0,0,100,0,1224,56,64,56,0,-37,-31,0,0,100,0,1160,112,24,24,0,-43,-29,0,0,100,0,1096,136,32,24,0,-40,-33,0,0,100,0,1136,168,48,40,0,-37,-12,0,0,65,0,904,144,32,16,0,4,-6,0,0,30,0,904,144,32,16,0,-23,-12,0,0,65,0,792,120,48,24,0,
0,13,-10,-40,0,0,100,0,720,176,24,24,0,-7,-39,0,0,100,0,744,176,24,24,0,-22,-41,0,0,100,0,696,176,24,24,0,-15,-44,0,0,100,0,288,264,24,32,0,-39,-80,0,0,100,0,0,176,88,88,0,-27,-29,0,0,100,0,1184,112,24,24,0,-28,-28,0,0,100,0,1128,136,32,24,0,-52,-48,0,0,100,0,1224,56,64,56,0,-37,-30,0,0,100,0,1160,112,24,24,0,-43,-28,0,0,100,0,1096,136,32,24,0,-40,-33,0,0,100,0,1136,168,48,40,0,-37,-12,0,0,65,0,904,144,32,16,0,-23,-12,0,0,65,0,792,120,48,24,0,
0,13,-11,-40,0,0,100,0,720,176,24,24,0,-8,-39,0,0,100,0,744,176,24,24,0,-21,-41,0,0,100,0,696,176,24,24,0,-15,-44,0,0,100,0,288,296,24,32,0,-39,-80,0,0,100,0,0,176,88,88,0,-27,-29,0,0,100,0,1184,112,24,24,0,-28,-28,0,0,100,0,1128,136,32,24,0,-52,-48,0,0,100,0,1224,56,64,56,0,-37,-30,0,0,100,0,1160,112,24,24,0,-43,-28,0,0,100,0,1096,136,32,24,0,-40,-33,0,0,100,0,1136,168,48,40,0,-37,-12,0,0,65,0,904,144,32,16,0,-23,-12,0,0,65,0,792,120,48,24,0,
0,15,5,-33,0,0,100,0,744,200,16,16,0,-21,-38,0,0,100,0,696,200,16,16,0,-24,-48,0,0,100,0,192,344,48,40,0,-1,-33,0,0,100,0,736,224,24,16,0,-2,-35,0,0,100,0,712,224,24,16,0,-39,-80,0,0,100,0,88,176,88,88,0,-24,-41,0,0,100,0,712,200,32,24,0,-27,-29,0,0,100,0,1184,112,24,24,0,-28,-28,0,0,100,0,1128,136,32,24,0,-52,-48,0,0,100,0,1224,56,64,56,0,-37,-30,0,0,100,0,1160,112,24,24,0,-43,-28,0,0,100,0,1096,136,32,24,0,-40,-33,0,0,100,0,1136,168,48,40,0,-37,-12,0,0,65,0,904,144,32,16,0,-23,-12,0,0,65,0,792,120,48,24,0,
0,15,7,-33,0,0,100,0,744,200,16,16,0,-23,-38,0,0,100,0,696,200,16,16,0,-25,-48,0,0,100,0,240,344,48,40,0,1,-33,0,0,100,0,736,224,24,16,0,-2,-35,0,0,100,0,712,224,24,16,0,-39,-80,0,0,100,0,176,176,88,88,0,-26,-41,0,0,100,0,712,200,32,24,0,-27,-29,0,0,100,0,1184,112,24,24,0,-28,-28,0,0,100,0,1128,136,32,24,0,-52,-48,0,0,100,0,968,112,64,56,0,-37,-30,0,0,100,0,1160,112,24,24,0,-43,-28,0,0,100,0,1096,136,32,24,0,-40,-33,0,0,100,0,1136,168,48,40,0,-37,-12,0,0,65,0,904,144,32,16,0,-23,-12,0,0,65,0,792,120,48,24,0,
0,15,8,-33,0,0,100,0,744,200,16,16,0,-25,-38,0,0,100,0,696,200,16,16,0,-24,-47,0,0,100,0,240,304,48,40,0,2,-33,0,0,100,0,736,224,24,16,0,-2,-35,0,0,100,0,712,224,24,16,0,-39,-80,0,0,100,0,264,176,88,88,0,-28,-41,0,0,100,0,712,200,32,24,0,-27,-29,0,0,100,0,1184,112,24,24,0,-28,-28,0,0,100,0,1128,136,32,24,0,-52,-48,0,0,100,0,1224,56,64,56,0,-37,-30,0,0,100,0,1160,112,24,24,0,-43,-28,0,0,100,0,1096,136,32,24,0,-40,-33,0,0,100,0,1136,168,48,40,0,-37,-12,0,0,65,0,904,144,32,16,0,-23,-12,0,0,65,0,792,120,48,24,0,
0,15,7,-33,0,0,100,0,744,200,16,16,0,-24,-38,0,0,100,0,696,200,16,16,0,-24,-47,0,0,100,0,240,264,48,40,0,1,-33,0,0,100,0,736,224,24,16,0,-2,-35,0,0,100,0,712,224,24,16,0,-39,-80,0,0,100,0,352,176,88,88,0,-27,-41,0,0,100,0,712,200,32,24,0,-27,-29,0,0,100,0,1184,112,24,24,0,-28,-28,0,0,100,0,1128,136,32,24,0,-52,-48,0,0,100,0,1032,112,64,56,0,-37,-30,0,0,100,0,1160,112,24,24,0,-43,-28,0,0,100,0,1096,136,32,24,0,-40,-33,0,0,100,0,1136,168,48,40,0,-37,-12,0,0,65,0,904,144,32,16,0,-23,-12,0,0,65,0,792,120,48,24,0,
0,22,-14,-50,0,0,100,0,1104,208,64,56,0,-8,-28,0,0,100,0,144,304,48,40,0,-33,-51,0,0,60,90,968,256,72,56,0,-10,-58,0,0,60,270,968,256,72,56,0,-26,-47,0,0,100,0,1224,112,64,56,0,-66,-68,0,1,100,0,0,776,168,88,0,-91,-55,0,0,100,0,648,344,64,40,0,-100,-57,0,0,100,0,840,88,64,56,0,-99,-42,0,0,100,0,920,0,48,40,0,-89,-32,0,0,100,0,880,0,40,40,0,-131,-26,0,0,100,0,480,256,112,48,0,-120,-35,0,0,100,0,880,40,88,48,0,-85,-29,1,0,100,0,792,88,32,32,0,-99,-54,0,0,100,0,536,344,56,40,0,-79,-33,0,0,100,0,440,216,48,40,0,-111,-37,0,0,100,0,1000,320,72,48,0,-12,-80,0,0,100,0,1032,632,160,104,0,6,-102,0,0,100,0,904,408,112,112,0,-3,-119,0,0,100,0,1032,632,160,104,0,16,-16,0,0,65,0,816,472,88,32,0,0,-6,0,0,65,0,904,144,32,16,0,-97,-12,0,0,65,0,792,120,48,24,0,
0,8,-92,-28,0,0,100,0,48,264,48,40,0,-123,-80,0,0,100,0,88,0,88,88,0,-117,-89,0,0,100,0,344,264,32,104,0,-137,-48,0,0,100,0,968,0,64,56,0,-151,-41,0,0,100,0,968,168,72,56,0,-122,-12,0,0,65,0,904,144,32,16,0,-84,-6,0,0,65,0,904,144,32,16,0,-107,-12,0,0,65,0,792,120,48,24,0,
0,16,-8,-36,0,0,100,0,144,344,48,40,0,-8,-28,0,0,100,0,144,264,48,40,0,-100,-66,0,0,100,0,816,216,48,40,0,-130,-80,0,0,100,0,528,0,88,88,0,-88,-39,0,0,100,0,488,216,48,40,0,-117,-63,0,0,100,0,816,256,48,40,0,-174,-43,1,0,100,90,344,264,32,104,0,-53,-48,0,0,100,0,1160,0,64,56,0,-68,-42,0,0,100,0,968,168,72,56,0,0,-76,0,0,100,0,1032,632,160,104,0,-40,-85,0,0,100,0,1032,632,160,104,0,-18,-119,0,0,100,0,1032,632,160,104,0,6,-102,0,0,0,0,904,408,112,112,0,-38,-12,0,0,65,0,904,144,32,16,0,0,-6,0,0,65,0,904,144,32,16,0,-98,-12,0,0,65,0,792,120,48,24,0,
0,16,-8,-36,0,0,100,0,144,344,48,40,0,-8,-28,0,0,100,0,144,264,48,40,0,-100,-66,0,0,100,0,864,216,40,40,0,-130,-80,0,0,100,0,528,0,88,88,0,-88,-39,0,0,100,0,488,216,48,40,0,-120,-63,0,0,100,0,864,256,40,40,0,-174,-43,1,0,100,90,344,264,32,104,0,-53,-48,0,0,100,0,1160,0,64,56,0,-68,-42,0,0,100,0,968,168,72,56,0,0,-76,0,0,100,0,1032,632,160,104,0,-40,-85,0,0,100,0,1032,632,160,104,0,-18,-119,0,0,100,0,1032,632,160,104,0,6,-102,0,0,0,0,904,408,112,112,0,-38,-12,0,0,65,0,904,144,32,16,0,0,-6,0,0,65,0,904,144,32,16,0,-98,-12,0,0,65,0,792,120,48,24,0,
0,8,-8,-36,0,0,100,0,0,344,48,40,0,-8,-28,0,0,100,0,0,264,48,40,0,-39,-80,0,0,100,0,0,0,88,88,0,-51,-63,0,0,100,0,968,56,64,56,0,-38,-49,0,0,100,0,1040,168,48,40,0,-38,-12,0,0,65,0,904,144,32,16,0,0,-6,0,0,65,0,904,144,32,16,0,-23,-12,0,0,65,0,792,120,48,24,0,
0,8,-8,-36,0,0,100,0,48,344,48,40,0,-8,-28,0,0,100,0,48,264,48,40,0,-39,-80,0,0,100,0,88,0,88,88,0,-51,-78,0,0,100,0,968,56,64,56,0,-38,-64,0,0,100,0,1040,168,48,40,0,-38,-12,0,0,65,0,904,144,32,16,0,0,-6,0,0,65,0,904,144,32,16,0,-23,-12,0,0,65,0,792,120,48,24,0,
0,8,-8,-36,0,0,100,0,96,344,48,40,0,-8,-28,0,0,100,0,96,264,48,40,0,-39,-80,0,0,100,0,176,0,88,88,0,-51,-75,0,0,100,0,968,56,64,56,0,-30,-66,0,0,100,0,1184,168,40,24,0,-38,-12,0,0,65,0,904,144,32,16,0,0,-6,0,0,65,0,904,144,32,16,0,-23,-12,0,0,65,0,792,120,48,24,0,
0,8,-8,-36,0,0,100,0,144,344,48,40,0,-8,-28,0,0,100,0,144,264,48,40,0,-39,-80,0,0,100,0,264,0,88,88,0,-51,-57,0,0,100,0,968,56,64,56,0,-30,-48,0,0,100,0,1184,168,40,24,0,-38,-12,0,0,65,0,904,144,32,16,0,0,-6,0,0,65,0,904,144,32,16,0,-23,-12,0,0,65,0,792,120,48,24,0,
0,13,-193,-50,0,0,100,0,1160,0,64,56,0,-208,-44,0,0,100,0,968,168,72,56,0,-187,-28,0,0,100,0,0,264,48,40,0,-210,-54,0,0,100,0,648,344,64,40,0,-191,-26,0,0,100,0,792,88,32,32,0,-225,-80,0,0,100,0,264,88,88,88,0,-215,-55,0,0,100,0,536,344,56,40,0,-191,-34,0,0,100,0,488,216,48,40,0,-246,-52,0,0,100,0,376,264,104,56,0,-191,-96,0,1,70,0,1016,408,112,112,0,-172,-16,0,0,40,0,816,472,88,32,0,-178,-6,0,0,65,0,904,144,32,16,0,-206,-12,0,0,65,0,792,120,48,24,0,
0,13,-193,-50,0,0,100,0,1160,0,64,56,0,-208,-44,0,0,100,0,968,168,72,56,0,-187,-28,0,0,100,0,0,264,48,40,0,-210,-54,0,0,100,0,648,344,64,40,0,-191,-26,0,0,100,0,792,88,32,32,0,-225,-80,0,0,100,0,264,88,88,88,0,-215,-55,0,0,100,0,536,344,56,40,0,-191,-34,0,0,100,0,488,216,48,40,0,-246,-52,0,0,100,0,376,264,104,56,0,-191,-96,0,1,40,0,1016,408,112,112,0,-172,-16,0,0,40,0,816,472,88,32,0,-178,-6,0,0,65,0,904,144,32,16,0,-206,-12,0,0,65,0,792,120,48,24,0,
0,11,-193,-50,0,0,100,0,1160,0,64,56,0,-208,-44,0,0,100,0,968,168,72,56,0,-187,-28,0,0,100,0,0,264,48,40,0,-210,-54,0,0,100,0,648,344,64,40,0,-191,-26,0,0,100,0,792,88,32,32,0,-225,-80,0,0,100,0,264,88,88,88,0,-215,-55,0,0,100,0,536,344,56,40,0,-191,-34,0,0,100,0,488,216,48,40,0,-246,-52,0,0,100,0,376,264,104,56,0,-178,-6,0,0,65,0,904,144,32,16,0,-206,-12,0,0,65,0,792,120,48,24,0,
0,16,6,-102,0,0,100,0,1128,408,112,112,0,6,-102,0,0,100,0,904,408,112,112,0,6,-102,0,0,100,0,1016,408,112,112,0,6,-102,0,0,100,0,904,408,112,112,0,-32,-53,0,0,60,0,968,256,72,56,0,-25,-32,0,0,60,180,968,256,72,56,0,-24,-41,2,0,100,0,1224,112,64,56,0,-31,-48,0,0,60,-270,968,256,72,56,0,-10,-53,0,0,60,-90,968,256,72,56,0,-25,-41,3,0,100,0,1224,112,64,56,0,-25,-29,3,0,60,0,968,256,72,56,0,-34,-52,0,0,60,0,968,256,72,56,0,-26,-41,1,0,100,0,1224,112,64,56,0,-33,-45,0,0,60,90,968,256,72,56,0,-10,-52,0,0,60,270,968,256,72,56,0,-26,-41,0,0,100,0,1224,112,64,56,0,
