0,4,-42,-78,0,1,100,0,576,0,96,96,0,-42,-78,0,0,10,0,576,0,96,96,0,-48,-80,0,0,100,0,0,0,96,96,0,-48,-16,0,0,65,0,480,32,96,32,0,
0,4,-42,-78,0,1,100,0,576,96,96,96,0,-42,-78,0,0,10,0,576,96,96,96,0,-48,-80,0,0,100,0,96,0,96,96,0,-48,-16,0,0,65,0,480,32,96,32,0,
0,4,-42,-79,0,1,100,0,576,192,96,96,0,-42,-79,0,0,10,0,576,192,96,96,0,-48,-80,0,0,100,0,192,0,96,96,0,-48,-16,0,0,65,0,480,32,96,32,0,
0,4,-42,-78,0,1,100,0,576,288,96,96,0,-42,-78,0,0,10,0,576,288,96,96,0,-48,-80,0,0,100,0,288,0,96,96,0,-48,-16,0,0,65,0,480,32,96,32,0,
0,6,-39,-32,0,1,100,0,576,48,96,48,0,-39,-32,0,0,10,0,576,48,96,48,0,-48,-80,0,0,100,0,0,96,96,96,0,-18,-86,1,1,100,0,640,288,32,38,0,-18,-86,1,0,10,0,640,288,32,38,0,-49,-16,0,0,65,0,480,32,96,32,0,
0,6,-39,-32,0,1,100,0,576,144,96,48,0,-39,-32,0,0,10,0,576,144,96,48,0,-48,-80,0,0,100,0,96,96,96,96,0,-8,-91,1,1,100,0,640,192,32,44,0,-8,-86,1,0,10,0,640,197,32,41,0,-49,-16,0,0,65,0,480,32,96,32,0,
0,12,-39,-32,0,1,100,0,576,240,96,48,0,-39,-32,0,0,10,0,576,240,96,48,0,3,-48,0,0,50,0,448,64,32,32,0,3,-127,0,0,50,0,448,64,32,32,0,-38,-86,0,0,50,0,448,64,32,32,0,44,-86,0,0,50,0,448,64,32,32,0,3,-87,0,1,50,0,384,64,32,32,0,3,-87,0,0,20,0,384,64,32,32,0,-48,-80,0,0,100,0,0,192,96,96,0,6,-103,0,1,100,0,640,0,32,37,0,6,-103,0,0,10,0,640,0,32,45,0,-48,-16,0,0,65,0,480,32,96,32,0,
0,10,-39,-32,0,1,100,0,576,336,96,48,0,-39,-32,0,0,10,0,576,336,96,48,0,-28,-86,0,0,70,0,480,64,32,32,0,33,-86,0,0,70,0,480,64,32,32,0,3,-55,0,0,70,0,480,64,32,32,0,3,-117,0,0,70,0,480,64,32,32,0,-25,-122,0,0,70,0,288,96,96,96,0,-25,-122,0,0,50,0,288,96,96,96,0,-48,-80,0,0,100,0,96,192,96,96,0,-48,-16,0,0,65,0,480,32,96,32,0,
0,9,-39,-32,0,1,100,0,576,48,96,48,0,-39,-32,0,0,10,0,576,48,96,48,0,-17,-87,0,0,100,0,512,64,32,32,0,23,-86,0,0,100,0,512,64,32,32,0,3,-67,0,0,100,0,512,64,32,32,0,3,-106,0,0,100,0,512,64,32,32,0,3,-87,0,0,100,0,384,64,32,32,0,-48,-80,0,0,100,0,192,192,96,96,0,-48,-16,0,0,65,0,480,32,96,32,0,
0,5,-39,-32,0,1,100,0,576,144,96,48,0,-39,-32,0,0,10,0,576,144,96,48,0,-25,-122,0,0,100,0,288,96,96,96,0,-48,-80,0,0,100,0,288,192,96,96,0,-48,-16,0,0,65,0,480,32,96,32,0,
0,9,-39,-32,0,1,100,0,576,240,96,48,0,-39,-32,0,0,10,0,576,240,96,48,0,3,-48,0,0,100,0,448,64,32,32,0,3,-127,0,0,100,0,448,64,32,32,0,-38,-86,0,0,100,0,448,64,32,32,0,44,-86,0,0,100,0,448,64,32,32,0,3,-87,0,0,100,0,384,64,32,32,0,-48,-80,0,0,100,0,0,192,96,96,0,-48,-16,0,0,65,0,480,32,96,32,0,
0,13,-39,-32,0,1,100,0,576,336,96,48,0,-39,-32,0,0,10,0,576,336,96,48,0,-21,-62,0,0,100,0,512,64,32,32,0,-21,-110,0,0,100,0,512,64,32,32,0,27,-110,0,0,100,0,512,64,32,32,0,27,-62,0,0,100,0,512,64,32,32,0,3,-52,0,0,100,0,512,64,32,32,0,3,-120,0,0,100,0,512,64,32,32,0,-31,-86,0,0,100,0,512,64,32,32,0,37,-86,0,0,100,0,512,64,32,32,0,-29,-118,0,0,100,0,384,96,96,96,0,-48,-79,0,0,100,0,96,192,96,96,0,-48,-16,0,0,65,0,480,32,96,32,0,
0,13,-39,-32,0,1,100,0,576,48,96,48,0,-39,-32,0,0,10,0,576,48,96,48,0,-28,-56,0,0,100,0,480,64,32,32,0,-28,-118,0,0,100,0,480,64,32,32,0,34,-118,0,0,100,0,480,64,32,32,0,34,-56,0,0,100,0,480,64,32,32,0,3,-42,0,0,100,0,480,64,32,32,0,3,-130,0,0,100,0,480,64,32,32,0,-41,-86,0,0,100,0,480,64,32,32,0,47,-86,0,0,100,0,480,64,32,32,0,-21,-111,0,0,100,0,488,104,80,80,0,-48,-79,0,0,100,0,192,192,96,96,0,-48,-16,0,0,65,0,480,32,96,32,0,
0,15,-39,-32,0,1,100,0,576,144,96,48,0,-39,-32,0,0,10,0,576,144,96,48,0,-36,-49,0,0,100,0,448,64,32,32,0,-36,-125,0,0,100,0,448,64,32,32,0,40,-125,0,0,100,0,448,64,32,32,0,40,-49,0,0,100,0,448,64,32,32,0,3,-32,0,0,100,0,448,64,32,32,0,3,-140,0,0,100,0,448,64,32,32,0,-51,-86,0,0,100,0,448,64,32,32,0,57,-86,0,0,100,0,448,64,32,32,0,-34,-123,0,0,70,0,480,192,96,96,0,-48,-79,0,0,100,0,288,192,96,96,0,6,-101,0,1,30,0,640,0,32,43,0,6,-101,0,0,5,0,640,0,32,39,0,-48,-16,0,0,65,0,480,32,96,32,0,
0,15,-39,-32,0,1,100,0,576,240,96,48,0,-39,-32,0,0,10,0,576,240,96,48,0,-46,-39,0,0,100,0,416,64,32,32,0,-46,-135,0,0,100,0,416,64,32,32,0,50,-135,0,0,100,0,416,64,32,32,0,50,-39,0,0,100,0,416,64,32,32,0,3,-22,0,0,100,0,416,64,32,32,0,3,-150,0,0,100,0,416,64,32,32,0,-61,-86,0,0,100,0,416,64,32,32,0,67,-86,0,0,100,0,416,64,32,32,0,-29,-119,0,0,50,0,384,192,96,96,0,-48,-80,0,0,100,0,0,192,96,96,0,6,-104,0,1,50,0,640,96,32,40,0,6,-104,0,0,10,0,640,96,32,38,0,-48,-16,0,0,65,0,480,32,96,32,0,
0,15,-39,-32,0,1,100,0,576,336,96,48,0,-39,-32,0,0,10,0,576,336,96,48,0,-46,-39,0,0,50,0,416,64,32,32,0,-46,-135,0,0,50,0,416,64,32,32,0,50,-135,0,0,50,0,416,64,32,32,0,50,-39,0,0,50,0,416,64,32,32,0,3,-22,0,0,50,0,416,64,32,32,0,3,-150,0,0,50,0,416,64,32,32,0,-61,-86,0,0,50,0,416,64,32,32,0,67,-86,0,0,50,0,416,64,32,32,0,-31,-119,0,0,10,0,384,192,96,96,0,-48,-80,0,0,100,0,96,192,96,96,0,6,-105,0,1,70,0,640,192,32,48,0,6,-105,0,0,10,0,640,192,32,48,0,-48,-16,0,0,65,0,480,32,96,32,0,
0,6,-39,-32,0,1,100,0,576,48,96,48,0,-39,-32,0,0,10,0,576,48,96,48,0,-48,-80,0,0,100,0,192,192,96,96,0,6,-101,0,1,100,0,640,288,32,48,0,6,-101,0,0,10,0,640,288,32,48,0,-48,-16,0,0,65,0,480,32,96,32,0,
0,6,-39,-32,0,1,100,0,576,144,96,48,0,-39,-32,0,0,10,0,576,144,96,48,0,-48,-80,0,0,100,0,288,192,96,96,0,6,-103,0,1,100,0,640,0,32,48,0,6,-103,0,0,10,0,640,0,32,48,0,-48,-16,0,0,65,0,480,32,96,32,0,
0,6,-39,-32,0,1,100,0,576,240,96,48,0,-39,-32,0,0,10,0,576,240,96,48,0,-48,-80,0,0,100,0,192,96,96,96,0,6,-102,0,1,100,0,640,96,32,48,0,6,-102,0,0,10,0,640,96,32,48,0,-48,-16,0,0,65,0,480,32,96,32,0,
0,4,-48,-80,0,0,100,0,0,288,96,96,0,1,-91,0,1,100,0,384,32,32,32,0,1,-91,0,0,10,0,384,32,32,32,0,-47,-16,0,0,65,0,480,32,96,32,0,
0,4,-48,-80,0,0,100,0,96,288,96,96,0,1,-91,0,1,100,0,416,32,32,32,0,1,-91,0,0,10,0,416,32,32,32,0,-47,-16,0,0,65,0,480,32,96,32,0,
0,4,-48,-80,0,0,100,0,192,288,96,96,0,1,-91,0,1,100,0,384,0,32,32,0,1,-91,0,0,10,0,384,0,32,32,0,-47,-16,0,0,65,0,480,32,96,32,0,
0,4,-48,-80,0,0,100,0,288,288,96,96,0,1,-91,0,1,100,0,416,0,32,32,0,1,-91,0,0,10,0,416,0,32,32,0,-47,-16,0,0,65,0,480,32,96,32,0,
0,4,-48,-80,0,0,100,0,384,288,96,96,0,1,-91,0,1,100,0,384,32,32,32,0,1,-91,0,0,10,0,384,32,32,32,0,-47,-16,0,0,65,0,480,32,96,32,0,
0,4,-48,-80,0,0,100,0,480,288,96,96,0,1,-91,0,1,100,0,416,32,32,32,0,1,-91,0,0,10,0,416,32,32,32,0,-47,-16,0,0,65,0,480,32,96,32,0,
0,4,-48,-80,0,0,100,0,0,384,96,96,0,1,-91,0,1,100,0,384,0,32,32,0,1,-91,0,0,10,0,384,0,32,32,0,-47,-16,0,0,65,0,480,32,96,32,0,
0,4,-48,-80,0,0,100,0,96,384,96,96,0,10,-88,0,1,100,0,384,32,32,32,0,10,-88,0,0,10,0,384,32,32,32,0,-47,-16,0,0,65,0,480,32,96,32,0,
0,4,-48,-80,0,0,100,0,192,384,96,96,0,24,-75,0,1,100,0,448,0,32,64,0,24,-75,0,0,10,0,448,0,32,64,0,-47,-16,0,0,65,0,480,32,96,32,0,
0,4,-48,-80,0,0,100,0,0,480,96,96,0,25,-44,3,1,100,-180,416,32,32,32,0,25,-44,3,0,10,-180,416,32,32,32,0,-48,-16,0,0,65,0,480,32,96,32,0,
0,4,-48,-80,0,0,100,0,96,480,96,96,0,26,-41,3,1,100,-180,384,0,32,32,0,26,-41,3,0,10,-180,384,0,32,32,0,-48,-16,0,0,65,0,480,32,96,32,0,
0,4,-48,-80,0,0,100,0,288,384,96,96,0,26,-41,3,1,100,-180,416,0,32,32,0,26,-41,3,0,10,-180,416,0,32,32,0,-48,-16,0,0,65,0,480,32,96,32,0,
0,4,-48,-80,0,0,100,0,384,384,96,96,0,26,-41,3,1,100,-180,384,32,32,32,0,26,-41,3,0,10,-180,384,32,32,32,0,-48,-16,0,0,65,0,480,32,96,32,0,
0,4,-48,-80,0,0,100,0,480,384,96,96,0,26,-41,3,1,100,-180,416,32,32,32,0,26,-41,3,0,10,-180,416,32,32,32,0,-48,-16,0,0,65,0,480,32,96,32,0,
0,6,-39,-32,0,1,100,0,576,48,96,48,0,-39,-32,0,0,10,0,576,48,96,48,0,-48,-80,0,0,100,0,192,480,96,96,0,26,-41,3,1,100,-180,384,0,32,32,0,26,-41,3,0,10,-180,384,0,32,32,0,-48,-16,0,0,65,0,480,32,96,32,0,
0,6,-39,-32,0,1,100,0,576,144,96,48,0,-39,-32,0,0,10,0,576,144,96,48,0,-48,-80,0,0,100,0,288,480,96,96,0,26,-41,3,1,100,-180,416,0,32,32,0,26,-41,3,0,10,-180,416,0,32,32,0,-48,-16,0,0,65,0,480,32,96,32,0,
0,6,-39,-32,0,1,100,0,576,240,96,48,0,-39,-32,0,0,10,0,576,240,96,48,0,-48,-80,0,0,100,0,384,480,96,96,0,26,-41,3,1,100,-180,384,32,32,32,0,26,-41,3,0,10,-180,384,32,32,32,0,-48,-16,0,0,65,0,480,32,96,32,0,
0,6,-39,-32,0,1,100,0,576,336,96,48,0,-39,-32,0,0,10,0,576,336,96,48,0,-48,-80,0,0,100,0,480,480,96,96,0,26,-41,3,1,100,-180,416,32,32,32,0,26,-41,3,0,10,-180,416,32,32,32,0,-48,-16,0,0,65,0,480,32,96,32,0,
0,4,-59,-70,0,0,100,0,0,576,96,96,0,-42,-78,0,1,100,0,576,384,96,96,0,-42,-78,0,0,10,0,576,384,96,96,0,-48,-16,0,0,65,0,480,32,96,32,0,
