0,19,-28,-54,0,0,100,0,0,0,40,40,0,-28,-44,0,0,100,0,0,40,40,40,0,-33,-77,0,0,100,0,160,280,80,40,0,9,-54,0,0,100,0,17,160,23,40,0,-27,-63,0,0,100,0,160,320,80,40,0,-8,-54,0,0,100,0,0,80,40,80,0,-21,-28,0,0,100,0,0,240,40,40,0,-8,-54,0,0,100,0,0,160,40,40,0,-18,-44,0,0,100,0,160,240,80,40,0,-68,-54,0,0,100,0,160,200,80,40,0,-38,-74,0,0,100,0,160,280,80,40,0,-38,-54,0,0,100,0,160,80,40,40,0,-8,-41,0,0,100,0,160,160,40,40,0,-48,-74,0,0,100,0,160,0,80,80,0,-45,-63,0,0,100,0,160,120,40,40,0,-48,-72,0,1,100,0,240,0,96,80,0,-48,-24,0,1,100,0,320,120,80,40,0,-48,-24,0,1,100,0,320,80,80,40,0,-27,-12,0,0,65,0,0,320,56,24,0,
0,18,-28,-55,0,0,100,0,40,0,40,40,0,-28,-45,0,0,100,0,0,40,40,40,0,9,-55,0,0,100,0,17,160,23,40,0,-27,-64,0,0,100,0,240,320,80,40,0,-8,-55,0,0,100,0,40,80,40,80,0,-21,-28,0,0,100,0,0,200,40,40,0,-8,-55,0,0,100,0,0,160,40,40,0,-18,-45,0,0,100,0,240,240,80,40,0,-68,-55,0,0,100,0,240,200,80,40,0,-38,-75,0,0,100,0,240,280,80,40,0,-37,-55,0,0,100,0,160,80,40,40,0,-8,-43,0,0,100,0,160,160,40,40,0,-47,-75,0,0,100,0,160,0,80,80,0,-44,-64,0,0,100,0,200,120,40,40,0,-48,-72,0,1,100,0,336,0,96,80,0,-48,-24,0,1,100,0,400,120,80,40,0,-48,-24,0,1,100,0,400,80,80,40,0,-27,-12,0,0,65,0,0,320,56,24,0,
0,18,-28,-56,0,0,100,0,80,0,40,40,0,-28,-46,0,0,100,0,0,40,40,40,0,9,-56,0,0,100,0,17,160,23,40,0,-27,-66,0,0,100,0,320,320,80,40,0,-8,-56,0,0,100,0,80,80,40,80,0,-21,-28,0,0,100,0,416,680,40,40,0,-8,-56,0,0,100,0,0,160,40,40,0,-18,-47,0,0,100,0,320,240,80,40,0,-68,-57,0,0,100,0,320,200,80,40,0,-38,-77,0,0,100,0,320,280,80,40,0,-37,-56,0,0,100,0,160,80,40,40,0,-8,-44,0,0,100,0,160,160,40,40,0,-47,-76,0,0,100,0,160,0,80,80,0,-44,-65,0,0,100,0,240,120,40,40,0,-48,-72,0,1,100,0,432,0,96,80,0,-48,-24,0,1,100,0,480,120,80,40,0,-48,-24,0,1,100,0,480,80,80,40,0,-27,-12,0,0,65,0,0,320,56,24,0,
0,18,-28,-55,0,0,100,0,120,0,40,40,0,-28,-45,0,0,100,0,0,40,40,40,0,9,-55,0,0,100,0,17,160,23,40,0,-27,-65,0,0,100,0,400,320,80,40,0,-8,-55,0,0,100,0,120,80,40,80,0,-21,-28,0,0,100,0,0,200,40,40,0,-8,-55,0,0,100,0,0,160,40,40,0,-18,-46,0,0,100,0,400,240,80,40,0,-68,-56,0,0,100,0,400,200,80,40,0,-38,-76,0,0,100,0,400,280,80,40,0,-38,-55,0,0,100,0,160,80,40,40,0,-8,-42,0,0,100,0,160,160,40,40,0,-48,-75,0,0,100,0,160,0,80,80,0,-45,-64,0,0,100,0,280,120,40,40,0,-48,-72,0,1,100,0,528,0,96,80,0,-48,-24,0,1,100,0,560,120,80,40,0,-48,-24,0,1,100,0,560,80,80,40,0,-27,-12,0,0,65,0,0,320,56,24,0,
0,2,-40,-80,0,0,100,0,480,160,80,96,0,-27,-12,0,0,65,0,0,368,56,24,0,
0,2,-40,-84,0,0,100,0,560,160,80,96,0,-27,-12,0,0,65,0,0,368,56,24,0,
0,2,-40,-270,0,0,100,0,560,160,80,96,0,-27,-12,0,0,65,0,0,368,56,24,0,
0,2,-40,-285,0,0,100,0,480,160,80,96,0,-27,-12,0,0,65,0,0,368,56,24,0,
0,17,-24,-276,0,0,100,0,40,0,40,40,0,-24,-266,0,0,100,0,0,40,40,40,0,-4,-276,0,0,100,0,40,80,40,80,0,-17,-251,0,0,100,0,80,200,40,40,0,-23,-257,0,0,100,0,40,240,40,40,0,-4,-276,0,0,100,0,0,160,40,40,0,-34,-256,0,0,100,0,40,280,40,40,0,-14,-266,0,0,100,0,240,240,80,40,0,-24,-274,1,0,100,0,240,200,80,40,0,-24,-286,0,0,100,0,240,320,80,40,0,-34,-296,0,0,100,0,240,280,80,40,0,-41,-272,0,0,100,0,200,120,40,40,0,-32,-292,0,0,100,0,1024,480,40,40,0,-42,-312,0,0,100,0,880,480,80,80,0,-4,-267,0,0,100,0,160,160,40,40,0,-51,-299,0,1,100,0,640,240,120,96,0,-27,-12,0,0,65,0,0,368,56,24,0,
0,17,-24,-278,0,0,100,0,80,0,40,40,0,-24,-268,0,0,100,0,0,40,40,40,0,-4,-278,0,0,100,0,80,80,40,80,0,-18,-257,0,0,100,0,80,200,40,40,0,-23,-261,0,0,100,0,40,240,40,40,0,-4,-278,0,0,100,0,40,160,40,40,0,-34,-258,0,0,100,0,80,280,40,40,0,-37,-297,0,0,100,0,160,400,80,40,0,-24,-288,0,0,100,0,240,400,80,40,0,-14,-268,0,0,100,0,80,400,80,40,0,-44,-286,0,0,100,0,0,400,80,40,0,-33,-292,0,0,100,0,1024,480,40,40,0,-43,-312,0,0,100,0,880,480,80,80,0,-42,-272,0,0,100,0,240,120,40,40,0,-5,-270,0,0,100,0,160,160,40,40,0,-51,-323,0,1,100,0,640,336,120,108,0,-27,-12,0,0,65,0,0,368,56,24,0,
0,17,-24,-279,0,0,100,0,80,0,40,40,0,-24,-269,0,0,100,0,0,40,40,40,0,-4,-279,0,0,100,0,80,80,40,80,0,-18,-258,0,0,100,0,80,200,40,40,0,-23,-262,0,0,100,0,40,240,40,40,0,-4,-279,0,0,100,0,40,160,40,40,0,-34,-259,0,0,100,0,80,280,40,40,0,-38,-298,0,0,100,0,160,400,80,40,0,-24,-290,0,0,100,0,240,400,80,40,0,-14,-270,0,0,100,0,80,400,80,40,0,-45,-287,0,0,100,0,0,400,80,40,0,-33,-293,0,0,100,0,1024,480,40,40,0,-43,-313,0,0,100,0,880,480,80,80,0,-42,-273,0,0,100,0,240,120,40,40,0,-5,-271,0,0,100,0,160,160,40,40,0,-51,-323,0,1,100,0,760,336,120,108,0,-27,-12,0,0,65,0,0,368,56,24,0,
0,30,-90,-294,0,1,85,0,400,600,80,80,0,-96,-258,0,1,85,0,320,600,80,80,0,-104,-228,0,1,85,0,320,600,80,80,0,-90,-215,0,1,85,0,240,600,80,80,0,-110,-165,0,1,85,0,240,600,80,80,0,-70,-150,0,1,85,0,240,600,80,80,0,-126,-283,0,1,100,0,880,0,144,240,0,-126,-280,0,0,85,0,880,0,144,240,0,-23,-133,0,0,100,0,120,40,40,40,0,-24,-129,0,0,100,0,0,40,40,40,0,-15,-135,0,0,100,0,400,160,40,40,0,-10,-147,0,0,100,0,80,160,40,40,0,-30,-101,0,0,100,0,200,160,40,40,0,-20,-121,0,0,100,0,200,80,40,40,0,-15,-133,0,0,100,0,120,200,40,40,0,-27,-125,0,0,100,0,80,240,40,40,0,-13,-148,2,0,100,0,160,160,40,40,0,-39,-141,0,0,100,0,160,360,80,40,0,-31,-181,0,0,100,0,0,520,40,80,0,-22,-185,0,0,100,0,240,520,40,80,0,-32,-188,0,0,100,0,0,440,40,80,0,-12,-188,0,0,100,0,240,440,40,80,0,-33,-212,0,1,30,0,480,440,64,120,0,-33,-209,0,0,100,0,480,440,64,120,0,-33,-239,0,0,70,0,608,440,64,120,0,-33,-273,0,0,50,0,736,440,64,120,0,-126,-294,0,0,75,0,1024,0,144,240,0,-126,-320,0,0,50,0,1168,0,144,240,0,-126,-346,0,0,25,0,1312,0,144,240,0,-27,-12,0,0,65,0,0,368,56,24,0,
0,31,-118,-128,0,1,85,0,240,600,80,80,0,-82,-106,0,1,85,0,240,600,80,80,0,-96,-258,0,1,85,0,400,600,80,80,0,-104,-228,0,1,85,0,400,600,80,80,0,-90,-215,0,1,85,0,320,600,80,80,0,-110,-165,0,1,85,0,320,600,80,80,0,-70,-150,0,1,85,0,320,600,80,80,0,-126,-243,0,1,100,0,880,0,144,240,0,-126,-240,0,0,85,0,880,0,144,240,0,-23,-93,0,0,100,0,120,40,40,40,0,-24,-89,0,0,100,0,0,40,40,40,0,-15,-95,0,0,100,0,400,160,40,40,0,-10,-107,0,0,100,0,80,160,40,40,0,-30,-61,0,0,100,0,200,160,40,40,0,-20,-81,0,0,100,0,200,80,40,40,0,-15,-93,0,0,100,0,120,200,40,40,0,-27,-85,0,0,100,0,80,240,40,40,0,-13,-108,2,0,100,0,160,160,40,40,0,-39,-101,0,0,100,0,160,360,80,40,0,-31,-141,0,0,100,0,40,520,40,80,0,-22,-145,0,0,100,0,280,520,40,80,0,-22,-148,0,0,100,0,40,440,40,80,0,-12,-148,0,0,100,0,280,440,40,80,0,-33,-171,0,1,30,0,480,440,64,120,0,-33,-168,0,0,100,0,480,440,64,120,0,-33,-190,0,0,70,0,608,440,64,120,0,-33,-212,0,0,50,0,736,440,64,120,0,-126,-252,0,0,75,0,1024,0,144,240,0,-126,-270,0,0,50,0,1168,0,144,240,0,-126,-297,0,0,25,0,1312,0,144,240,0,-27,-12,0,0,65,0,0,344,56,24,0,
0,30,-99,-71,0,1,85,0,240,600,80,80,0,-58,-88,0,1,85,0,240,600,80,80,0,-102,-128,0,1,85,0,320,600,80,80,0,-82,-106,0,1,85,0,320,600,80,80,0,-90,-215,0,1,85,0,400,600,80,80,0,-94,-165,0,1,85,0,400,600,80,80,0,-70,-150,0,1,85,0,400,600,80,80,0,-126,-219,0,1,100,0,880,240,144,240,0,-126,-216,0,0,85,0,880,240,144,240,0,-23,-69,0,0,100,0,120,40,40,40,0,-24,-65,0,0,100,0,0,40,40,40,0,-15,-71,0,0,100,0,400,160,40,40,0,-10,-83,0,0,100,0,80,160,40,40,0,-30,-37,0,0,100,0,200,160,40,40,0,-20,-57,0,0,100,0,200,80,40,40,0,-15,-69,0,0,100,0,120,200,40,40,0,-27,-61,0,0,100,0,80,240,40,40,0,-13,-84,2,0,100,0,160,160,40,40,0,-39,-77,0,0,100,0,160,360,80,40,0,-31,-117,0,0,100,0,0,520,40,80,0,-22,-121,0,0,100,0,240,520,40,80,0,-32,-124,0,0,100,0,0,440,40,80,0,-12,-124,0,0,100,0,240,440,40,80,0,-33,-151,0,1,30,0,544,440,64,120,0,-33,-148,0,0,100,0,544,440,64,120,0,-33,-150,0,0,70,0,672,444,64,116,0,-33,-160,0,0,50,0,800,444,64,116,0,-126,-228,0,0,75,0,1024,240,144,240,0,-126,-246,0,0,50,0,1168,240,144,240,0,-27,-12,0,0,65,0,0,344,56,24,0,
0,29,-107,-93,0,1,85,0,240,600,80,80,0,-79,-61,0,1,85,0,240,600,80,80,0,-99,-71,0,1,85,0,320,600,80,80,0,-58,-88,0,1,85,0,320,600,80,80,0,-102,-128,0,1,85,0,400,600,80,80,0,-82,-106,0,1,85,0,400,600,80,80,0,-126,-218,0,1,100,0,880,240,144,240,0,-126,-215,0,0,85,0,880,240,144,240,0,-23,-68,0,0,100,0,120,40,40,40,0,-24,-64,0,0,100,0,0,40,40,40,0,-15,-70,0,0,100,0,400,160,40,40,0,-10,-82,0,0,100,0,80,160,40,40,0,-30,-36,0,0,100,0,200,160,40,40,0,-20,-56,0,0,100,0,200,80,40,40,0,-15,-68,0,0,100,0,120,200,40,40,0,-27,-60,0,0,100,0,80,240,40,40,0,-13,-83,2,0,100,0,160,160,40,40,0,-39,-76,0,0,100,0,160,360,80,40,0,-31,-116,0,0,100,0,40,520,40,80,0,-22,-120,0,0,100,0,280,520,40,80,0,-22,-123,0,0,100,0,40,440,40,80,0,-12,-123,0,0,100,0,280,440,40,80,0,-33,-149,0,1,30,0,544,440,64,120,0,-33,-146,0,0,100,0,544,440,64,120,0,-33,-145,0,0,70,0,672,444,64,116,0,-33,-150,0,0,50,0,800,444,64,116,0,-126,-220,0,0,75,0,1024,240,144,240,0,-126,-228,0,0,50,0,1168,240,144,240,0,-27,-12,0,0,65,0,0,344,56,24,0,
0,22,-107,-93,0,1,85,0,320,600,80,80,0,-79,-61,0,1,85,0,320,600,80,80,0,-99,-71,0,1,85,0,400,600,80,80,0,-58,-88,0,1,85,0,400,600,80,80,0,-126,-218,0,1,100,0,1312,240,144,240,0,-126,-215,0,0,85,0,1312,240,144,240,0,-23,-67,0,0,100,0,120,40,40,40,0,-24,-63,0,0,100,0,0,40,40,40,0,-15,-69,0,0,100,0,400,160,40,40,0,-10,-81,0,0,100,0,80,160,40,40,0,-30,-35,0,0,100,0,200,160,40,40,0,-20,-55,0,0,100,0,200,80,40,40,0,-15,-67,0,0,100,0,120,200,40,40,0,-27,-59,0,0,100,0,80,240,40,40,0,-13,-82,2,0,100,0,160,160,40,40,0,-39,-75,0,0,100,0,160,360,80,40,0,-31,-115,0,0,100,0,0,520,40,80,0,-22,-119,0,0,100,0,240,520,40,80,0,-32,-122,0,0,100,0,0,440,40,80,0,-12,-122,0,0,100,0,240,440,40,80,0,-32,-140,0,0,100,0,480,560,64,120,0,-27,-12,0,0,65,0,0,344,56,24,0,
0,17,-107,-93,0,1,85,0,400,600,80,80,0,-79,-61,0,1,85,0,400,600,80,80,0,-23,-45,0,0,100,0,120,40,40,40,0,-24,-41,0,0,100,0,0,40,40,40,0,-14,-46,0,0,100,0,400,160,40,40,0,-9,-58,0,0,100,0,80,160,40,40,0,-21,-34,0,0,100,0,80,320,40,40,0,-51,-59,0,0,100,0,240,160,40,40,0,-41,-49,0,0,100,0,240,80,40,40,0,-6,-49,0,0,100,0,120,160,40,40,0,-39,-51,0,0,100,0,160,360,80,40,0,-31,-93,0,0,100,0,0,520,40,80,0,-22,-97,0,0,100,0,240,520,40,80,0,-32,-100,0,0,100,0,0,440,40,80,0,-12,-100,0,0,100,0,240,440,40,80,0,-37,-129,0,0,100,0,544,560,64,120,0,-27,-12,0,0,65,0,0,320,56,24,0,
0,15,-23,-36,0,0,100,0,120,40,40,40,0,-24,-33,0,0,100,0,0,40,40,40,0,-14,-38,0,0,100,0,400,160,40,40,0,-4,-47,0,0,100,0,0,160,40,40,0,-21,-32,0,0,100,0,120,320,40,40,0,-48,-48,0,0,100,0,280,160,40,40,0,-41,-39,0,0,100,0,280,80,40,40,0,-4,-39,0,0,100,0,120,160,40,40,0,-39,-41,0,0,100,0,240,360,80,40,0,-34,-79,0,0,100,0,80,520,40,80,0,-13,-77,0,0,100,0,320,520,40,80,0,-69,-54,0,0,100,0,80,440,80,40,0,-25,-57,0,0,100,0,320,440,80,40,0,-37,-128,0,0,50,0,608,560,64,120,0,-27,-12,0,0,65,0,0,320,56,24,0,
0,14,-23,-35,0,0,100,0,120,40,40,40,0,-24,-33,0,0,100,0,0,40,40,40,0,-14,-37,0,0,100,0,400,160,40,40,0,-4,-46,0,0,100,0,0,160,40,40,0,-21,-32,0,0,100,0,120,320,40,40,0,-48,-45,0,0,100,0,320,160,40,40,0,-41,-37,0,0,100,0,280,80,40,40,0,-5,-37,0,0,100,0,120,160,40,40,0,-39,-29,0,0,100,0,320,360,80,40,0,-43,-84,0,0,100,0,120,520,40,80,0,-10,-83,0,0,100,0,360,520,40,80,0,-57,-43,0,0,100,0,160,440,80,40,0,-23,-43,0,0,100,0,400,440,80,40,0,-27,-12,0,0,65,0,0,320,56,24,0,
0,15,-23,-34,0,0,100,0,120,40,40,40,0,-24,-32,0,0,100,0,0,40,40,40,0,-14,-37,0,0,100,0,400,160,40,40,0,-4,-46,0,0,100,0,0,160,40,40,0,-21,-32,0,0,100,0,120,320,40,40,0,-48,-45,0,0,100,0,360,160,40,40,0,-41,-36,0,0,100,0,280,80,40,40,0,-5,-36,0,0,100,0,120,160,40,40,0,-12,-38,0,0,100,0,160,160,40,40,0,-39,-33,0,0,100,0,400,360,80,40,0,-68,-30,0,0,100,0,80,480,80,40,0,-24,-33,0,0,100,0,320,480,80,40,0,-53,-41,0,0,100,0,160,520,80,40,0,-23,-42,0,0,100,0,400,520,80,40,0,-27,-12,0,0,65,0,0,320,56,24,0,
0,13,-20,-62,0,0,100,0,80,40,40,40,0,-22,-49,0,0,100,0,0,40,40,40,0,-5,-57,0,0,100,0,0,80,40,80,0,-38,-29,0,0,100,0,0,680,80,40,0,-6,-51,0,0,100,0,200,600,40,40,0,-33,-52,0,0,100,0,160,600,40,40,0,-19,-35,0,0,100,0,240,680,40,40,0,-20,-54,0,0,100,0,480,360,80,40,0,-47,-65,0,0,100,0,480,280,80,40,0,-21,-67,0,0,100,0,160,320,80,40,0,-28,-74,0,0,100,0,160,280,80,40,0,-1,-40,0,0,100,0,160,160,40,40,0,-24,-12,0,0,65,0,0,344,56,24,0,
0,13,-19,-63,0,0,100,0,80,40,40,40,0,-22,-50,0,0,100,0,0,40,40,40,0,-5,-58,0,0,100,0,40,80,40,80,0,-38,-29,0,0,100,0,0,680,80,40,0,-5,-53,0,0,100,0,200,600,40,40,0,-33,-54,0,0,100,0,160,600,40,40,0,-19,-36,0,0,100,0,280,680,40,40,0,-20,-55,0,0,100,0,560,360,80,40,0,-47,-66,0,0,100,0,560,280,80,40,0,-21,-68,0,0,100,0,240,320,80,40,0,-28,-75,0,0,100,0,240,280,80,40,0,-1,-41,0,0,100,0,160,160,40,40,0,-24,-12,0,0,65,0,0,344,56,24,0,
0,13,-19,-63,0,0,100,0,80,40,40,40,0,-22,-50,0,0,100,0,0,40,40,40,0,-5,-58,0,0,100,0,80,80,40,80,0,-38,-29,0,0,100,0,0,680,80,40,0,-4,-53,0,0,100,0,200,600,40,40,0,-34,-54,0,0,100,0,160,600,40,40,0,-19,-36,0,0,100,0,320,680,40,40,0,-20,-55,0,0,100,0,480,400,80,40,0,-47,-66,0,0,100,0,480,320,80,40,0,-21,-68,0,0,100,0,320,320,80,40,0,-28,-75,0,0,100,0,320,280,80,40,0,-1,-41,0,0,100,0,160,160,40,40,0,-24,-12,0,0,65,0,0,344,56,24,0,
0,13,-19,-63,0,0,100,0,80,40,40,40,0,-22,-50,0,0,100,0,0,40,40,40,0,-5,-58,0,0,100,0,120,80,40,80,0,-38,-29,0,0,100,0,0,680,80,40,0,-4,-53,0,0,100,0,200,600,40,40,0,-34,-54,0,0,100,0,160,600,40,40,0,-19,-36,0,0,100,0,360,680,40,40,0,-20,-55,0,0,100,0,560,400,80,40,0,-51,-65,0,0,100,0,560,320,80,40,0,-21,-68,0,0,100,0,400,320,80,40,0,-28,-75,0,0,100,0,400,280,80,40,0,-1,-41,0,0,100,0,160,160,40,40,0,-24,-12,0,0,65,0,0,344,56,24,0,
0,13,-20,-62,0,0,100,0,80,40,40,40,0,-22,-49,0,0,100,0,0,40,40,40,0,-5,-57,0,0,100,0,0,80,40,80,0,-38,-29,0,0,100,0,0,680,80,40,0,-6,-51,0,0,100,0,200,600,40,40,0,-33,-52,0,0,100,0,160,600,40,40,0,-19,-35,0,0,100,0,240,680,40,40,0,-20,-54,0,0,100,0,480,360,80,40,0,-47,-65,0,0,100,0,480,280,80,40,0,-21,-67,0,0,100,0,160,320,80,40,0,-28,-74,0,0,100,0,160,280,80,40,0,-1,-40,0,0,100,0,160,160,40,40,0,-24,-12,0,0,65,0,0,344,56,24,0,
0,15,-17,-47,0,0,100,0,80,640,40,40,0,-26,-49,0,0,100,0,80,600,40,40,0,-21,-60,0,0,100,0,80,40,40,40,0,-23,-47,0,0,100,0,0,40,40,40,0,-5,-56,0,0,100,0,40,80,40,80,0,-38,-29,0,0,100,0,80,680,80,40,0,-6,-43,0,0,100,0,0,640,40,40,0,-27,-48,0,0,100,0,0,600,40,40,0,-19,-34,0,0,100,0,280,680,40,40,0,-2,-39,0,0,100,0,160,160,40,40,0,-24,-52,0,0,100,0,560,360,80,40,0,-47,-63,0,0,100,0,560,280,80,40,0,-25,-65,0,0,100,0,240,320,80,40,0,-32,-71,0,0,100,0,240,280,80,40,0,-24,-12,0,0,65,0,0,344,56,24,0,
0,47,-31,-103,0,1,100,0,672,560,120,120,0,13,-39,0,0,100,0,80,640,40,40,0,2,-41,0,0,100,0,80,600,40,40,0,8,-56,0,0,100,0,0,0,40,40,0,6,-43,0,0,100,0,0,40,40,40,0,24,-52,0,0,100,0,120,80,40,80,0,-9,-26,0,0,100,0,80,680,80,40,0,24,-36,0,0,100,0,0,640,40,40,0,1,-42,0,0,100,0,0,600,40,40,0,10,-30,0,0,100,0,360,680,40,40,0,27,-35,0,0,100,0,160,160,40,40,0,5,-47,0,0,100,0,560,400,80,40,0,-18,-58,0,0,100,0,560,320,80,40,0,4,-60,0,0,100,0,400,320,80,40,0,-3,-67,0,0,100,0,400,280,80,40,0,5,-9,0,0,65,0,0,344,56,24,0,-16,-42,0,0,100,0,80,640,40,40,0,-27,-44,0,0,100,0,80,600,40,40,0,-21,-59,0,0,100,0,0,0,40,40,0,-23,-46,0,0,100,0,0,40,40,40,0,-5,-55,0,0,100,0,40,80,40,80,0,-38,-29,0,0,100,0,80,680,80,40,0,-5,-39,0,0,100,0,0,640,40,40,0,-28,-45,0,0,100,0,0,600,40,40,0,-19,-33,0,0,100,0,280,680,40,40,0,-2,-38,0,0,100,0,160,160,40,40,0,-24,-50,0,0,100,0,560,360,80,40,0,-47,-61,0,0,100,0,560,280,80,40,0,-25,-63,0,0,100,0,240,320,80,40,0,-32,-70,0,0,100,0,240,280,80,40,0,-24,-12,0,0,65,0,0,344,56,24,0,-90,-110,0,1,100,0,672,560,120,120,0,-45,-45,0,0,100,0,80,640,40,40,0,-56,-47,0,0,100,0,80,600,40,40,0,-50,-62,0,0,100,0,0,0,40,40,0,-52,-49,0,0,100,0,0,40,40,40,0,-34,-58,0,0,100,0,0,80,40,80,0,-67,-32,0,0,100,0,80,680,80,40,0,-34,-42,0,0,100,0,0,640,40,40,0,-57,-48,0,0,100,0,0,600,40,40,0,-48,-36,0,0,100,0,240,680,40,40,0,-31,-41,0,0,100,0,160,160,40,40,0,-53,-53,0,0,100,0,480,360,80,40,0,-76,-64,0,0,100,0,480,280,80,40,0,-54,-66,0,0,100,0,160,320,80,40,0,-61,-73,0,0,100,0,160,280,80,40,0,-53,-15,0,0,65,0,0,344,56,24,0,
0,47,-31,-103,0,1,100,0,792,560,120,120,0,12,-38,0,0,100,0,80,640,40,40,0,3,-40,0,0,100,0,80,600,40,40,0,8,-55,0,0,100,0,0,0,40,40,0,6,-42,0,0,100,0,0,40,40,40,0,24,-51,0,0,100,0,0,80,40,80,0,-9,-26,0,0,100,0,160,680,80,40,0,23,-36,0,0,100,0,0,640,40,40,0,2,-41,0,0,100,0,0,600,40,40,0,10,-29,0,0,100,0,240,680,40,40,0,27,-34,0,0,100,0,160,160,40,40,0,5,-47,0,0,100,0,480,360,80,40,0,-18,-58,0,0,100,0,480,280,80,40,0,4,-60,0,0,100,0,160,320,80,40,0,-3,-67,0,0,100,0,160,280,80,40,0,5,-9,0,0,65,0,0,344,56,24,0,-17,-41,0,0,100,0,80,640,40,40,0,-26,-43,0,0,100,0,80,600,40,40,0,-21,-58,0,0,100,0,0,0,40,40,0,-23,-45,0,0,100,0,0,40,40,40,0,-5,-54,0,0,100,0,80,80,40,80,0,-38,-29,0,0,100,0,160,680,80,40,0,-6,-39,0,0,100,0,0,640,40,40,0,-27,-44,0,0,100,0,0,600,40,40,0,-19,-32,0,0,100,0,320,680,40,40,0,-2,-37,0,0,100,0,160,160,40,40,0,-24,-50,0,0,100,0,480,400,80,40,0,-47,-61,0,0,100,0,480,320,80,40,0,-25,-63,0,0,100,0,320,320,80,40,0,-32,-70,0,0,100,0,320,280,80,40,0,-24,-12,0,0,65,0,0,344,56,24,0,-90,-110,0,1,100,0,792,560,120,120,0,-46,-44,0,0,100,0,80,640,40,40,0,-55,-46,0,0,100,0,80,600,40,40,0,-50,-61,0,0,100,0,0,0,40,40,0,-52,-48,0,0,100,0,0,40,40,40,0,-34,-57,0,0,100,0,40,80,40,80,0,-67,-32,0,0,100,0,160,680,80,40,0,-35,-42,0,0,100,0,0,640,40,40,0,-56,-47,0,0,100,0,0,600,40,40,0,-48,-35,0,0,100,0,280,680,40,40,0,-31,-40,0,0,100,0,160,160,40,40,0,-53,-53,0,0,100,0,560,360,80,40,0,-76,-64,0,0,100,0,560,280,80,40,0,-54,-66,0,0,100,0,240,320,80,40,0,-61,-73,0,0,100,0,240,280,80,40,0,-53,-15,0,0,65,0,0,344,56,24,0,
0,47,-31,-103,0,1,100,0,912,560,120,120,0,12,-38,0,0,100,0,80,640,40,40,0,3,-40,0,0,100,0,80,600,40,40,0,8,-55,0,0,100,0,0,0,40,40,0,6,-42,0,0,100,0,0,40,40,40,0,24,-51,0,0,100,0,40,80,40,80,0,-9,-26,0,0,100,0,160,680,80,40,0,23,-36,0,0,100,0,0,640,40,40,0,2,-41,0,0,100,0,0,600,40,40,0,10,-29,0,0,100,0,280,680,40,40,0,27,-34,0,0,100,0,160,160,40,40,0,5,-47,0,0,100,0,560,360,80,40,0,-18,-58,0,0,100,0,560,280,80,40,0,4,-60,0,0,100,0,240,320,80,40,0,-3,-67,0,0,100,0,240,280,80,40,0,5,-9,0,0,65,0,0,344,56,24,0,-17,-41,0,0,100,0,80,640,40,40,0,-26,-43,0,0,100,0,80,600,40,40,0,-21,-58,0,0,100,0,0,0,40,40,0,-23,-45,0,0,100,0,0,40,40,40,0,-5,-54,0,0,100,0,120,80,40,80,0,-38,-29,0,0,100,0,160,680,80,40,0,-6,-39,0,0,100,0,0,640,40,40,0,-27,-44,0,0,100,0,0,600,40,40,0,-19,-32,0,0,100,0,360,680,40,40,0,-2,-37,0,0,100,0,160,160,40,40,0,-24,-50,0,0,100,0,560,400,80,40,0,-47,-61,0,0,100,0,560,320,80,40,0,-25,-63,0,0,100,0,400,320,80,40,0,-32,-70,0,0,100,0,400,280,80,40,0,-24,-12,0,0,65,0,0,344,56,24,0,-90,-110,0,1,100,0,912,560,120,120,0,-46,-44,0,0,100,0,80,640,40,40,0,-55,-46,0,0,100,0,80,600,40,40,0,-50,-61,0,0,100,0,0,0,40,40,0,-52,-48,0,0,100,0,0,40,40,40,0,-34,-57,0,0,100,0,80,80,40,80,0,-67,-32,0,0,100,0,160,680,80,40,0,-35,-42,0,0,100,0,0,640,40,40,0,-56,-47,0,0,100,0,0,600,40,40,0,-48,-35,0,0,100,0,320,680,40,40,0,-31,-40,0,0,100,0,160,160,40,40,0,-53,-53,0,0,100,0,480,400,80,40,0,-76,-64,0,0,100,0,480,320,80,40,0,-54,-66,0,0,100,0,320,320,80,40,0,-61,-73,0,0,100,0,320,280,80,40,0,-53,-15,0,0,65,0,0,344,56,24,0,
0,47,-31,-103,0,1,100,0,1032,560,120,120,0,12,-38,0,0,100,0,80,640,40,40,0,3,-40,0,0,100,0,80,600,40,40,0,8,-55,0,0,100,0,0,0,40,40,0,6,-42,0,0,100,0,0,40,40,40,0,24,-51,0,0,100,0,80,80,40,80,0,-9,-26,0,0,100,0,160,680,80,40,0,23,-36,0,0,100,0,0,640,40,40,0,2,-41,0,0,100,0,0,600,40,40,0,10,-29,0,0,100,0,320,680,40,40,0,27,-34,0,0,100,0,160,160,40,40,0,5,-47,0,0,100,0,480,400,80,40,0,-18,-58,0,0,100,0,480,320,80,40,0,4,-60,0,0,100,0,320,320,80,40,0,-3,-67,0,0,100,0,320,280,80,40,0,5,-9,0,0,65,0,0,344,56,24,0,-17,-41,0,0,100,0,80,640,40,40,0,-26,-43,0,0,100,0,80,600,40,40,0,-21,-58,0,0,100,0,0,0,40,40,0,-23,-45,0,0,100,0,0,40,40,40,0,-5,-54,0,0,100,0,0,80,40,80,0,-38,-29,0,0,100,0,160,680,80,40,0,-6,-39,0,0,100,0,0,640,40,40,0,-27,-44,0,0,100,0,0,600,40,40,0,-19,-32,0,0,100,0,240,680,40,40,0,-2,-37,0,0,100,0,160,160,40,40,0,-24,-50,0,0,100,0,480,360,80,40,0,-47,-61,0,0,100,0,480,280,80,40,0,-25,-63,0,0,100,0,160,320,80,40,0,-32,-70,0,0,100,0,160,280,80,40,0,-24,-12,0,0,65,0,0,344,56,24,0,-90,-110,0,1,100,0,1032,560,120,120,0,-46,-44,0,0,100,0,80,640,40,40,0,-55,-46,0,0,100,0,80,600,40,40,0,-50,-61,0,0,100,0,0,0,40,40,0,-52,-48,0,0,100,0,0,40,40,40,0,-34,-57,0,0,100,0,120,80,40,80,0,-67,-32,0,0,100,0,160,680,80,40,0,-35,-42,0,0,100,0,0,640,40,40,0,-56,-47,0,0,100,0,0,600,40,40,0,-48,-35,0,0,100,0,360,680,40,40,0,-31,-40,0,0,100,0,160,160,40,40,0,-53,-53,0,0,100,0,560,400,80,40,0,-76,-64,0,0,100,0,560,320,80,40,0,-54,-66,0,0,100,0,400,320,80,40,0,-61,-73,0,0,100,0,400,280,80,40,0,-53,-15,0,0,65,0,0,344,56,24,0,
0,47,-31,-103,0,1,100,0,1152,560,120,120,0,12,-38,0,0,100,0,80,640,40,40,0,3,-40,0,0,100,0,80,600,40,40,0,8,-55,0,0,100,0,0,0,40,40,0,6,-42,0,0,100,0,0,40,40,40,0,24,-51,0,0,100,0,120,80,40,80,0,-9,-26,0,0,100,0,160,680,80,40,0,23,-36,0,0,100,0,0,640,40,40,0,2,-41,0,0,100,0,0,600,40,40,0,10,-29,0,0,100,0,360,680,40,40,0,27,-34,0,0,100,0,160,160,40,40,0,5,-47,0,0,100,0,560,400,80,40,0,-18,-58,0,0,100,0,560,320,80,40,0,4,-60,0,0,100,0,400,320,80,40,0,-3,-67,0,0,100,0,400,280,80,40,0,5,-9,0,0,65,0,0,344,56,24,0,-17,-41,0,0,100,0,80,640,40,40,0,-26,-43,0,0,100,0,80,600,40,40,0,-21,-58,0,0,100,0,0,0,40,40,0,-23,-45,0,0,100,0,0,40,40,40,0,-5,-54,0,0,100,0,40,80,40,80,0,-38,-29,0,0,100,0,160,680,80,40,0,-6,-39,0,0,100,0,0,640,40,40,0,-27,-44,0,0,100,0,0,600,40,40,0,-19,-32,0,0,100,0,280,680,40,40,0,-2,-37,0,0,100,0,160,160,40,40,0,-24,-50,0,0,100,0,560,360,80,40,0,-47,-61,0,0,100,0,560,280,80,40,0,-25,-63,0,0,100,0,240,320,80,40,0,-32,-70,0,0,100,0,240,280,80,40,0,-24,-12,0,0,65,0,0,344,56,24,0,-90,-110,0,1,100,0,1152,560,120,120,0,-46,-44,0,0,100,0,80,640,40,40,0,-55,-46,0,0,100,0,80,600,40,40,0,-50,-61,0,0,100,0,0,0,40,40,0,-52,-48,0,0,100,0,0,40,40,40,0,-34,-57,0,0,100,0,0,80,40,80,0,-67,-32,0,0,100,0,160,680,80,40,0,-35,-42,0,0,100,0,0,640,40,40,0,-56,-47,0,0,100,0,0,600,40,40,0,-48,-35,0,0,100,0,240,680,40,40,0,-31,-40,0,0,100,0,160,160,40,40,0,-53,-53,0,0,100,0,480,360,80,40,0,-76,-64,0,0,100,0,480,280,80,40,0,-54,-66,0,0,100,0,160,320,80,40,0,-61,-73,0,0,100,0,240,280,80,40,0,-53,-15,0,0,65,0,0,344,56,24,0,
0,45,12,-38,0,0,100,0,80,640,40,40,0,3,-40,0,0,100,0,80,600,40,40,0,8,-55,0,0,100,0,0,0,40,40,0,6,-42,0,0,100,0,0,40,40,40,0,24,-51,0,0,100,0,0,80,40,80,0,-9,-26,0,0,100,0,160,680,80,40,0,23,-36,0,0,100,0,0,640,40,40,0,2,-41,0,0,100,0,0,600,40,40,0,10,-29,0,0,100,0,240,680,40,40,0,27,-34,0,0,100,0,160,160,40,40,0,5,-47,0,0,100,0,480,360,80,40,0,-18,-58,0,0,100,0,480,280,80,40,0,4,-60,0,0,100,0,160,320,80,40,0,-3,-67,0,0,100,0,160,280,80,40,0,5,-9,0,0,65,0,0,344,56,24,0,-17,-41,0,0,100,0,80,640,40,40,0,-26,-43,0,0,100,0,80,600,40,40,0,-21,-58,0,0,100,0,0,0,40,40,0,-23,-45,0,0,100,0,0,40,40,40,0,-5,-54,0,0,100,0,80,80,40,80,0,-38,-29,0,0,100,0,160,680,80,40,0,-6,-39,0,0,100,0,0,640,40,40,0,-27,-44,0,0,100,0,0,600,40,40,0,-19,-32,0,0,100,0,320,680,40,40,0,-2,-37,0,0,100,0,160,160,40,40,0,-24,-50,0,0,100,0,480,400,80,40,0,-47,-61,0,0,100,0,480,320,80,40,0,-25,-63,0,0,100,0,320,320,80,40,0,-32,-70,0,0,100,0,320,280,80,40,0,-24,-12,0,0,65,0,0,344,56,24,0,-46,-44,0,0,100,0,80,640,40,40,0,-55,-46,0,0,100,0,80,600,40,40,0,-50,-61,0,0,100,0,0,0,40,40,0,-52,-48,0,0,100,0,0,40,40,40,0,-34,-57,0,0,100,0,40,80,40,80,0,-67,-32,0,0,100,0,160,680,80,40,0,-35,-42,0,0,100,0,0,640,40,40,0,-56,-47,0,0,100,0,0,600,40,40,0,-48,-35,0,0,100,0,280,680,40,40,0,-31,-40,0,0,100,0,160,160,40,40,0,-53,-53,0,0,100,0,560,360,80,40,0,-76,-64,0,0,100,0,560,280,80,40,0,-54,-66,0,0,100,0,240,320,80,40,0,-61,-73,0,0,100,0,240,280,80,40,0,-53,-15,0,0,65,0,0,344,56,24,0,
0,45,12,-38,0,0,100,0,80,640,40,40,0,3,-40,0,0,100,0,80,600,40,40,0,8,-55,0,0,100,0,0,0,40,40,0,6,-42,0,0,100,0,0,40,40,40,0,24,-51,0,0,100,0,40,80,40,80,0,-9,-26,0,0,100,0,160,680,80,40,0,23,-36,0,0,100,0,0,640,40,40,0,2,-41,0,0,100,0,0,600,40,40,0,10,-29,0,0,100,0,280,680,40,40,0,27,-34,0,0,100,0,160,160,40,40,0,5,-47,0,0,100,0,560,360,80,40,0,-18,-58,0,0,100,0,560,280,80,40,0,4,-60,0,0,100,0,240,320,80,40,0,-3,-67,0,0,100,0,240,280,80,40,0,5,-9,0,0,65,0,0,344,56,24,0,-17,-41,0,0,100,0,80,640,40,40,0,-26,-43,0,0,100,0,80,600,40,40,0,-21,-58,0,0,100,0,0,0,40,40,0,-23,-45,0,0,100,0,0,40,40,40,0,-5,-54,0,0,100,0,120,80,40,80,0,-38,-29,0,0,100,0,160,680,80,40,0,-6,-39,0,0,100,0,0,640,40,40,0,-27,-44,0,0,100,0,0,600,40,40,0,-19,-32,0,0,100,0,360,680,40,40,0,-2,-37,0,0,100,0,160,160,40,40,0,-24,-50,0,0,100,0,560,400,80,40,0,-47,-61,0,0,100,0,560,320,80,40,0,-25,-63,0,0,100,0,400,320,80,40,0,-32,-70,0,0,100,0,400,280,80,40,0,-24,-12,0,0,65,0,0,344,56,24,0,-46,-44,0,0,100,0,80,640,40,40,0,-55,-46,0,0,100,0,80,600,40,40,0,-50,-61,0,0,100,0,0,0,40,40,0,-52,-48,0,0,100,0,0,40,40,40,0,-34,-57,0,0,100,0,80,80,40,80,0,-67,-32,0,0,100,0,160,680,80,40,0,-35,-42,0,0,100,0,0,640,40,40,0,-56,-47,0,0,100,0,0,600,40,40,0,-48,-35,0,0,100,0,320,680,40,40,0,-31,-40,0,0,100,0,160,160,40,40,0,-53,-53,0,0,100,0,480,400,80,40,0,-76,-64,0,0,100,0,480,320,80,40,0,-54,-66,0,0,100,0,320,320,80,40,0,-61,-73,0,0,100,0,320,280,80,40,0,-53,-15,0,0,65,0,0,344,56,24,0,
0,45,12,-38,0,0,100,0,80,640,40,40,0,3,-40,0,0,100,0,80,600,40,40,0,8,-55,0,0,100,0,0,0,40,40,0,6,-42,0,0,100,0,0,40,40,40,0,24,-51,0,0,100,0,80,80,40,80,0,-9,-26,0,0,100,0,160,680,80,40,0,23,-36,0,0,100,0,0,640,40,40,0,2,-41,0,0,100,0,0,600,40,40,0,10,-29,0,0,100,0,320,680,40,40,0,27,-34,0,0,100,0,160,160,40,40,0,5,-47,0,0,100,0,480,400,80,40,0,-18,-58,0,0,100,0,480,320,80,40,0,4,-60,0,0,100,0,320,320,80,40,0,-3,-67,0,0,100,0,320,280,80,40,0,5,-9,0,0,65,0,0,344,56,24,0,-17,-41,0,0,100,0,80,640,40,40,0,-26,-43,0,0,100,0,80,600,40,40,0,-21,-58,0,0,100,0,0,0,40,40,0,-23,-45,0,0,100,0,0,40,40,40,0,-5,-54,0,0,100,0,0,80,40,80,0,-38,-29,0,0,100,0,160,680,80,40,0,-6,-39,0,0,100,0,0,640,40,40,0,-27,-44,0,0,100,0,0,600,40,40,0,-19,-32,0,0,100,0,240,680,40,40,0,-2,-37,0,0,100,0,160,160,40,40,0,-24,-50,0,0,100,0,480,360,80,40,0,-47,-61,0,0,100,0,480,280,80,40,0,-25,-63,0,0,100,0,160,320,80,40,0,-32,-70,0,0,100,0,160,280,80,40,0,-24,-12,0,0,65,0,0,344,56,24,0,-46,-44,0,0,100,0,80,640,40,40,0,-55,-46,0,0,100,0,80,600,40,40,0,-50,-61,0,0,100,0,0,0,40,40,0,-52,-48,0,0,100,0,0,40,40,40,0,-34,-57,0,0,100,0,120,80,40,80,0,-67,-32,0,0,100,0,160,680,80,40,0,-35,-42,0,0,100,0,0,640,40,40,0,-56,-47,0,0,100,0,0,600,40,40,0,-48,-35,0,0,100,0,360,680,40,40,0,-31,-40,0,0,100,0,160,160,40,40,0,-53,-53,0,0,100,0,560,400,80,40,0,-76,-64,0,0,100,0,560,320,80,40,0,-54,-66,0,0,100,0,400,320,80,40,0,-61,-73,0,0,100,0,400,280,80,40,0,-53,-15,0,0,65,0,0,344,56,24,0,
0,45,12,-38,0,0,100,0,80,640,40,40,0,3,-40,0,0,100,0,80,600,40,40,0,8,-55,0,0,100,0,0,0,40,40,0,6,-42,0,0,100,0,0,40,40,40,0,24,-51,0,0,100,0,120,80,40,80,0,-9,-26,0,0,100,0,160,680,80,40,0,23,-36,0,0,100,0,0,640,40,40,0,2,-41,0,0,100,0,0,600,40,40,0,10,-29,0,0,100,0,360,680,40,40,0,27,-34,0,0,100,0,160,160,40,40,0,5,-47,0,0,100,0,560,400,80,40,0,-18,-58,0,0,100,0,560,320,80,40,0,4,-60,0,0,100,0,400,320,80,40,0,-3,-67,0,0,100,0,400,280,80,40,0,5,-9,0,0,65,0,0,344,56,24,0,-17,-41,0,0,100,0,80,640,40,40,0,-26,-43,0,0,100,0,80,600,40,40,0,-21,-58,0,0,100,0,0,0,40,40,0,-23,-45,0,0,100,0,0,40,40,40,0,-5,-54,0,0,100,0,40,80,40,80,0,-38,-29,0,0,100,0,160,680,80,40,0,-6,-39,0,0,100,0,0,640,40,40,0,-27,-44,0,0,100,0,0,600,40,40,0,-19,-32,0,0,100,0,280,680,40,40,0,-2,-37,0,0,100,0,160,160,40,40,0,-24,-50,0,0,100,0,560,360,80,40,0,-47,-61,0,0,100,0,560,280,80,40,0,-25,-63,0,0,100,0,240,320,80,40,0,-32,-70,0,0,100,0,240,280,80,40,0,-24,-12,0,0,65,0,0,344,56,24,0,-46,-44,0,0,100,0,80,640,40,40,0,-55,-46,0,0,100,0,80,600,40,40,0,-50,-61,0,0,100,0,0,0,40,40,0,-52,-48,0,0,100,0,0,40,40,40,0,-34,-57,0,0,100,0,0,80,40,80,0,-67,-32,0,0,100,0,160,680,80,40,0,-35,-42,0,0,100,0,0,640,40,40,0,-56,-47,0,0,100,0,0,600,40,40,0,-48,-35,0,0,100,0,240,680,40,40,0,-31,-40,0,0,100,0,160,160,40,40,0,-53,-53,0,0,100,0,480,360,80,40,0,-76,-64,0,0,100,0,480,280,80,40,0,-54,-66,0,0,100,0,160,320,80,40,0,-61,-73,0,0,100,0,240,280,80,40,0,-53,-15,0,0,65,0,0,344,56,24,0,
0,45,12,-37,0,0,100,0,80,640,40,40,0,3,-39,0,0,100,0,80,600,40,40,0,8,-53,0,0,100,0,0,0,40,40,0,6,-40,0,0,100,0,0,40,40,40,0,24,-49,0,0,100,0,0,80,40,80,0,-9,-26,0,0,100,0,160,640,80,40,0,23,-35,0,0,100,0,0,640,40,40,0,2,-40,0,0,100,0,0,600,40,40,0,10,-27,0,0,100,0,240,680,40,40,0,27,-32,0,0,100,0,160,160,40,40,0,5,-45,0,0,100,0,480,360,80,40,0,-18,-56,0,0,100,0,480,280,80,40,0,4,-58,0,0,100,0,160,320,80,40,0,-3,-65,0,0,100,0,160,280,80,40,0,5,-9,0,0,65,0,0,344,56,24,0,-17,-41,0,0,100,0,80,640,40,40,0,-26,-43,0,0,100,0,80,600,40,40,0,-21,-58,0,0,100,0,0,0,40,40,0,-23,-45,0,0,100,0,0,40,40,40,0,-5,-54,0,0,100,0,80,80,40,80,0,-38,-29,0,0,100,0,160,680,80,40,0,-6,-39,0,0,100,0,0,640,40,40,0,-27,-44,0,0,100,0,0,600,40,40,0,-19,-32,0,0,100,0,320,680,40,40,0,-2,-37,0,0,100,0,160,160,40,40,0,-24,-50,0,0,100,0,480,400,80,40,0,-47,-61,0,0,100,0,480,320,80,40,0,-25,-63,0,0,100,0,320,320,80,40,0,-32,-70,0,0,100,0,320,280,80,40,0,-24,-12,0,0,65,0,0,344,56,24,0,-46,-44,0,0,100,0,80,640,40,40,0,-55,-46,0,0,100,0,80,600,40,40,0,-50,-61,0,0,100,0,0,0,40,40,0,-52,-48,0,0,100,0,0,40,40,40,0,-34,-57,0,0,100,0,40,80,40,80,0,-67,-32,0,0,100,0,160,680,80,40,0,-35,-42,0,0,100,0,0,640,40,40,0,-56,-47,0,0,100,0,0,600,40,40,0,-48,-35,0,0,100,0,280,680,40,40,0,-31,-40,0,0,100,0,160,160,40,40,0,-53,-53,0,0,100,0,560,360,80,40,0,-76,-64,0,0,100,0,560,280,80,40,0,-54,-66,0,0,100,0,240,320,80,40,0,-61,-73,0,0,100,0,240,280,80,40,0,-53,-15,0,0,65,0,0,344,56,24,0,
0,45,12,-37,0,0,100,0,80,640,40,40,0,3,-39,0,0,100,0,80,600,40,40,0,8,-52,0,0,100,0,0,0,40,40,0,6,-39,0,0,100,0,0,40,40,40,0,24,-48,0,0,100,0,40,80,40,80,0,-9,-26,0,0,100,0,160,640,80,40,0,23,-35,0,0,100,0,0,640,40,40,0,2,-40,0,0,100,0,0,600,40,40,0,10,-26,0,0,100,0,280,680,40,40,0,27,-31,0,0,100,0,160,160,40,40,0,5,-44,0,0,100,0,560,360,80,40,0,-18,-55,0,0,100,0,560,280,80,40,0,4,-57,0,0,100,0,240,320,80,40,0,-3,-64,0,0,100,0,240,280,80,40,0,5,-9,0,0,65,0,0,344,56,24,0,-17,-41,0,0,100,0,80,640,40,40,0,-26,-43,0,0,100,0,80,600,40,40,0,-21,-58,0,0,100,0,0,0,40,40,0,-23,-45,0,0,100,0,0,40,40,40,0,-5,-54,0,0,100,0,120,80,40,80,0,-38,-29,0,0,100,0,160,680,80,40,0,-6,-39,0,0,100,0,0,640,40,40,0,-27,-44,0,0,100,0,0,600,40,40,0,-19,-32,0,0,100,0,360,680,40,40,0,-2,-37,0,0,100,0,160,160,40,40,0,-24,-50,0,0,100,0,560,400,80,40,0,-47,-61,0,0,100,0,560,320,80,40,0,-25,-63,0,0,100,0,400,320,80,40,0,-32,-70,0,0,100,0,400,280,80,40,0,-24,-12,0,0,65,0,0,344,56,24,0,-46,-44,0,0,100,0,80,640,40,40,0,-55,-46,0,0,100,0,80,600,40,40,0,-50,-61,0,0,100,0,0,0,40,40,0,-52,-48,0,0,100,0,0,40,40,40,0,-34,-57,0,0,100,0,80,80,40,80,0,-67,-32,0,0,100,0,160,680,80,40,0,-35,-42,0,0,100,0,0,640,40,40,0,-56,-47,0,0,100,0,0,600,40,40,0,-48,-35,0,0,100,0,320,680,40,40,0,-31,-40,0,0,100,0,160,160,40,40,0,-53,-53,0,0,100,0,480,400,80,40,0,-76,-64,0,0,100,0,480,320,80,40,0,-54,-66,0,0,100,0,320,320,80,40,0,-61,-73,0,0,100,0,320,280,80,40,0,-53,-15,0,0,65,0,0,344,56,24,0,
0,45,12,-37,0,0,100,0,80,640,40,40,0,3,-39,0,0,100,0,80,600,40,40,0,8,-52,0,0,100,0,0,0,40,40,0,6,-39,0,0,100,0,0,40,40,40,0,24,-48,0,0,100,0,80,80,40,80,0,-9,-26,0,0,100,0,160,640,80,40,0,23,-35,0,0,100,0,0,640,40,40,0,2,-40,0,0,100,0,0,600,40,40,0,10,-26,0,0,100,0,320,680,40,40,0,27,-31,0,0,100,0,160,160,40,40,0,5,-44,0,0,100,0,480,400,80,40,0,-18,-55,0,0,100,0,480,320,80,40,0,4,-57,0,0,100,0,320,320,80,40,0,-3,-64,0,0,100,0,320,280,80,40,0,5,-9,0,0,65,0,0,344,56,24,0,-17,-41,0,0,100,0,80,640,40,40,0,-26,-43,0,0,100,0,80,600,40,40,0,-21,-58,0,0,100,0,0,0,40,40,0,-23,-45,0,0,100,0,0,40,40,40,0,-5,-54,0,0,100,0,0,80,40,80,0,-38,-29,0,0,100,0,160,680,80,40,0,-6,-39,0,0,100,0,0,640,40,40,0,-27,-44,0,0,100,0,0,600,40,40,0,-19,-32,0,0,100,0,240,680,40,40,0,-2,-37,0,0,100,0,160,160,40,40,0,-24,-50,0,0,100,0,480,360,80,40,0,-47,-61,0,0,100,0,480,280,80,40,0,-25,-63,0,0,100,0,160,320,80,40,0,-32,-70,0,0,100,0,160,280,80,40,0,-24,-12,0,0,65,0,0,344,56,24,0,-46,-44,0,0,100,0,80,640,40,40,0,-55,-46,0,0,100,0,80,600,40,40,0,-50,-61,0,0,100,0,0,0,40,40,0,-52,-48,0,0,100,0,0,40,40,40,0,-34,-57,0,0,100,0,120,80,40,80,0,-67,-32,0,0,100,0,160,680,80,40,0,-35,-42,0,0,100,0,0,640,40,40,0,-56,-47,0,0,100,0,0,600,40,40,0,-48,-35,0,0,100,0,360,680,40,40,0,-31,-40,0,0,100,0,160,160,40,40,0,-53,-53,0,0,100,0,560,400,80,40,0,-76,-64,0,0,100,0,560,320,80,40,0,-54,-66,0,0,100,0,400,320,80,40,0,-61,-73,0,0,100,0,400,280,80,40,0,-53,-15,0,0,65,0,0,344,56,24,0,
0,45,12,-37,0,0,100,0,80,640,40,40,0,3,-39,0,0,100,0,80,600,40,40,0,8,-52,0,0,100,0,0,0,40,40,0,6,-39,0,0,100,0,0,40,40,40,0,24,-48,0,0,100,0,120,80,40,80,0,-9,-26,0,0,100,0,160,640,80,40,0,23,-35,0,0,100,0,0,640,40,40,0,2,-40,0,0,100,0,0,600,40,40,0,10,-26,0,0,100,0,360,680,40,40,0,27,-31,0,0,100,0,160,160,40,40,0,5,-44,0,0,100,0,560,400,80,40,0,-18,-55,0,0,100,0,560,320,80,40,0,4,-57,0,0,100,0,400,320,80,40,0,-3,-64,0,0,100,0,400,280,80,40,0,5,-9,0,0,65,0,0,344,56,24,0,-17,-41,0,0,100,0,80,640,40,40,0,-26,-43,0,0,100,0,80,600,40,40,0,-21,-58,0,0,100,0,0,0,40,40,0,-23,-45,0,0,100,0,0,40,40,40,0,-5,-54,0,0,100,0,40,80,40,80,0,-38,-29,0,0,100,0,160,680,80,40,0,-6,-39,0,0,100,0,0,640,40,40,0,-27,-44,0,0,100,0,0,600,40,40,0,-19,-32,0,0,100,0,280,680,40,40,0,-2,-37,0,0,100,0,160,160,40,40,0,-24,-50,0,0,100,0,560,360,80,40,0,-47,-61,0,0,100,0,560,280,80,40,0,-25,-63,0,0,100,0,240,320,80,40,0,-32,-70,0,0,100,0,240,280,80,40,0,-24,-12,0,0,65,0,0,344,56,24,0,-46,-44,0,0,100,0,80,640,40,40,0,-55,-46,0,0,100,0,80,600,40,40,0,-50,-61,0,0,100,0,0,0,40,40,0,-52,-48,0,0,100,0,0,40,40,40,0,-34,-57,0,0,100,0,0,80,40,80,0,-67,-32,0,0,100,0,160,680,80,40,0,-35,-42,0,0,100,0,0,640,40,40,0,-56,-47,0,0,100,0,0,600,40,40,0,-48,-35,0,0,100,0,240,680,40,40,0,-31,-40,0,0,100,0,160,160,40,40,0,-53,-53,0,0,100,0,480,360,80,40,0,-76,-64,0,0,100,0,480,280,80,40,0,-54,-66,0,0,100,0,160,320,80,40,0,-61,-73,0,0,100,0,240,280,80,40,0,-53,-15,0,0,65,0,0,344,56,24,0,
0,42,25,-65,0,0,100,0,0,0,40,40,0,27,-76,0,0,100,0,400,320,80,40,0,25,-57,0,0,100,0,0,40,40,40,0,25,-35,0,0,100,0,40,200,40,40,0,44,-66,0,0,100,0,0,80,40,80,0,46,-65,0,0,100,0,40,160,40,39,0,25,-46,0,0,100,0,80,360,40,39,0,14,-65,0,0,100,0,160,80,40,40,0,45,-51,0,0,100,0,160,160,40,40,0,6,-83,0,0,100,0,160,0,80,80,0,8,-80,0,0,100,0,320,160,40,40,0,17,-9,0,0,65,0,0,368,56,24,0,-17,-41,0,0,100,0,80,640,40,40,0,-26,-43,0,0,100,0,80,600,40,40,0,-21,-58,0,0,100,0,0,0,40,40,0,-23,-45,0,0,100,0,0,40,40,40,0,-5,-54,0,0,100,0,80,80,40,80,0,-38,-29,0,0,100,0,160,680,80,40,0,-6,-39,0,0,100,0,0,640,40,40,0,-27,-44,0,0,100,0,0,600,40,40,0,-19,-32,0,0,100,0,320,680,40,40,0,-2,-37,0,0,100,0,160,160,40,40,0,-24,-50,0,0,100,0,480,400,80,40,0,-47,-61,0,0,100,0,480,320,80,40,0,-25,-63,0,0,100,0,320,320,80,40,0,-32,-70,0,0,100,0,320,280,80,40,0,-24,-12,0,0,65,0,0,344,56,24,0,-46,-43,0,0,100,0,80,640,40,40,0,-55,-45,0,0,100,0,80,600,40,40,0,-50,-59,0,0,100,0,0,0,40,40,0,-52,-46,0,0,100,0,0,40,40,40,0,-34,-55,0,0,100,0,40,80,40,80,0,-67,-32,0,0,100,0,160,640,80,40,0,-35,-41,0,0,100,0,0,640,40,40,0,-56,-46,0,0,100,0,0,600,40,40,0,-48,-33,0,0,100,0,280,680,40,40,0,-31,-38,0,0,100,0,160,160,40,40,0,-53,-51,0,0,100,0,560,360,80,40,0,-76,-62,0,0,100,0,560,280,80,40,0,-54,-64,0,0,100,0,240,320,80,40,0,-61,-71,0,0,100,0,240,280,80,40,0,-53,-15,0,0,65,0,0,344,56,24,0,
0,32,12,-117,0,0,100,0,760,0,120,120,0,29,-9,0,0,65,0,0,368,56,24,0,-17,-41,0,0,100,0,80,640,40,40,0,-26,-43,0,0,100,0,80,600,40,40,0,-21,-58,0,0,100,0,0,0,40,40,0,-23,-45,0,0,100,0,0,40,40,40,0,-5,-54,0,0,100,0,80,80,40,80,0,-38,-29,0,0,100,0,160,680,80,40,0,-6,-39,0,0,100,0,0,640,40,40,0,-27,-44,0,0,100,0,0,600,40,40,0,-19,-32,0,0,100,0,320,680,40,40,0,-2,-37,0,0,100,0,160,160,40,40,0,-24,-50,0,0,100,0,480,400,80,40,0,-47,-61,0,0,100,0,480,320,80,40,0,-25,-63,0,0,100,0,320,320,80,40,0,-32,-69,0,0,100,0,320,280,80,40,0,-24,-12,0,0,65,0,0,344,56,24,0,-46,-43,0,0,100,0,80,640,40,40,0,-55,-46,0,0,100,0,80,600,40,40,0,-50,-59,0,0,100,0,0,0,40,40,0,-52,-46,0,0,100,0,0,40,40,40,0,-34,-55,0,0,100,0,40,80,40,80,0,-67,-32,0,0,100,0,160,640,80,40,0,-35,-41,0,0,100,0,0,640,40,40,0,-56,-46,0,0,100,0,0,600,40,40,0,-48,-33,0,0,100,0,280,680,40,40,0,-31,-38,0,0,100,0,160,160,40,40,0,-53,-51,0,0,100,0,560,360,80,40,0,-76,-62,0,0,100,0,560,280,80,40,0,-54,-64,0,0,100,0,240,320,80,40,0,-61,-71,0,0,100,0,240,280,80,40,0,-53,-15,0,0,65,0,0,344,56,24,0,
0,30,-17,-41,0,0,100,0,80,640,40,40,0,-26,-43,0,0,100,0,80,600,40,40,0,-21,-58,0,0,100,0,0,0,40,40,0,-23,-45,0,0,100,0,0,40,40,40,0,-5,-54,0,0,100,0,120,80,40,80,0,-38,-29,0,0,100,0,160,680,80,40,0,-6,-39,0,0,100,0,0,640,40,40,0,-27,-44,0,0,100,0,0,600,40,40,0,-19,-32,0,0,100,0,360,680,40,40,0,-2,-37,0,0,100,0,160,160,40,40,0,-24,-50,0,0,100,0,560,400,80,40,0,-47,-61,0,0,100,0,560,320,80,40,0,-25,-63,0,0,100,0,400,320,80,40,0,-32,-70,0,0,100,0,400,280,80,40,0,-24,-12,0,0,65,0,0,344,56,24,0,-46,-43,0,0,100,0,80,640,40,40,0,-55,-45,0,0,100,0,80,600,40,40,0,-50,-58,0,0,100,0,0,0,40,40,0,-52,-45,0,0,100,0,0,40,40,40,0,-34,-54,0,0,100,0,80,80,40,80,0,-67,-32,0,0,100,0,160,640,80,40,0,-35,-41,0,0,100,0,0,640,40,40,0,-56,-46,0,0,100,0,0,600,40,40,0,-48,-32,0,0,100,0,320,680,40,40,0,-31,-37,0,0,100,0,160,160,40,40,0,-53,-50,0,0,100,0,480,400,80,40,0,-76,-61,0,0,100,0,480,320,80,40,0,-54,-63,0,0,100,0,320,320,80,40,0,-61,-70,0,0,100,0,320,280,80,40,0,-53,-15,0,0,65,0,0,344,56,24,0,
0,30,-17,-41,0,0,100,0,80,640,40,40,0,-26,-43,0,0,100,0,80,600,40,40,0,-21,-58,0,0,100,0,0,0,40,40,0,-23,-45,0,0,100,0,0,40,40,40,0,-5,-54,0,0,100,0,0,80,40,80,0,-38,-29,0,0,100,0,160,680,80,40,0,-6,-39,0,0,100,0,0,640,40,40,0,-27,-44,0,0,100,0,0,600,40,40,0,-19,-32,0,0,100,0,240,680,40,40,0,-2,-37,0,0,100,0,160,160,40,40,0,-24,-50,0,0,100,0,480,360,80,40,0,-47,-61,0,0,100,0,480,280,80,40,0,-25,-63,0,0,100,0,160,320,80,40,0,-32,-70,0,0,100,0,160,280,80,40,0,-24,-12,0,0,65,0,0,344,56,24,0,-46,-43,0,0,100,0,80,640,40,40,0,-55,-45,0,0,100,0,80,600,40,40,0,-50,-58,0,0,100,0,0,0,40,40,0,-52,-45,0,0,100,0,0,40,40,40,0,-34,-54,0,0,100,0,120,80,40,80,0,-67,-32,0,0,100,0,160,640,80,40,0,-35,-41,0,0,100,0,0,640,40,40,0,-56,-46,0,0,100,0,0,600,40,40,0,-48,-32,0,0,100,0,360,680,40,40,0,-31,-37,0,0,100,0,160,160,40,40,0,-53,-50,0,0,100,0,560,400,80,40,0,-76,-61,0,0,100,0,560,320,80,40,0,-54,-63,0,0,100,0,400,320,80,40,0,-61,-70,0,0,100,0,400,280,80,40,0,-53,-15,0,0,65,0,0,344,56,24,0,
0,30,-17,-41,0,0,100,0,80,640,40,40,0,-26,-43,0,0,100,0,80,600,40,40,0,-21,-58,0,0,100,0,0,0,40,40,0,-23,-45,0,0,100,0,0,40,40,40,0,-5,-54,0,0,100,0,40,80,40,80,0,-38,-29,0,0,100,0,160,680,80,40,0,-6,-39,0,0,100,0,0,640,40,40,0,-27,-44,0,0,100,0,0,600,40,40,0,-19,-32,0,0,100,0,280,680,40,40,0,-2,-37,0,0,100,0,160,160,40,40,0,-24,-50,0,0,100,0,560,360,80,40,0,-47,-61,0,0,100,0,560,280,80,40,0,-25,-63,0,0,100,0,240,320,80,40,0,-32,-70,0,0,100,0,240,280,80,40,0,-24,-12,0,0,65,0,0,344,56,24,0,-46,-43,0,0,100,0,80,640,40,40,0,-55,-45,0,0,100,0,80,600,40,40,0,-50,-58,0,0,100,0,0,0,40,40,0,-52,-45,0,0,100,0,0,40,40,40,0,-34,-54,0,0,100,0,0,80,40,80,0,-67,-32,0,0,100,0,160,640,80,40,0,-35,-41,0,0,100,0,0,640,40,40,0,-56,-46,0,0,100,0,0,600,40,40,0,-48,-32,0,0,100,0,240,680,40,40,0,-31,-37,0,0,100,0,160,160,40,40,0,-53,-50,0,0,100,0,480,360,80,40,0,-76,-61,0,0,100,0,480,280,80,40,0,-54,-63,0,0,100,0,160,320,80,40,0,-61,-70,0,0,100,0,240,280,80,40,0,-53,-15,0,0,65,0,0,344,56,24,0,
0,27,-17,-41,0,0,100,0,80,640,40,40,0,-26,-43,0,0,100,0,80,600,40,40,0,-21,-58,0,0,100,0,0,0,40,40,0,-23,-45,0,0,100,0,0,40,40,40,0,-5,-54,0,0,100,0,80,80,40,80,0,-38,-29,0,0,100,0,160,680,80,40,0,-6,-39,0,0,100,0,0,640,40,40,0,-27,-44,0,0,100,0,0,600,40,40,0,-19,-32,0,0,100,0,320,680,40,40,0,-2,-37,0,0,100,0,160,160,40,40,0,-24,-50,0,0,100,0,480,400,80,40,0,-47,-61,0,0,100,0,480,320,80,40,0,-25,-63,0,0,100,0,320,320,80,40,0,-32,-70,0,0,100,0,320,280,80,40,0,-24,-12,0,0,65,0,0,344,56,24,0,-80,-70,0,0,100,0,0,0,40,40,0,-78,-81,0,0,100,0,400,320,80,40,0,-80,-62,0,0,100,0,0,40,40,40,0,-65,-44,0,0,100,0,120,240,40,40,0,-61,-71,0,0,100,0,0,80,40,80,0,-59,-70,0,0,100,0,40,160,40,39,0,-80,-51,0,0,100,0,80,360,40,39,0,-91,-70,0,0,100,0,160,80,40,40,0,-60,-56,0,0,100,0,160,160,40,40,0,-95,-78,0,0,100,0,280,120,40,40,0,-99,-88,0,0,100,0,160,0,80,80,0,-73,-15,0,0,65,0,0,368,56,24,0,
0,17,-17,-41,0,0,100,0,80,640,40,40,0,-26,-43,0,0,100,0,80,600,40,40,0,-21,-58,0,0,100,0,0,0,40,40,0,-23,-45,0,0,100,0,0,40,40,40,0,-5,-54,0,0,100,0,80,80,40,80,0,-38,-29,0,0,100,0,160,680,80,40,0,-6,-39,0,0,100,0,0,640,40,40,0,-27,-44,0,0,100,0,0,600,40,40,0,-19,-32,0,0,100,0,320,680,40,40,0,-2,-37,0,0,100,0,160,160,40,40,0,-24,-50,0,0,100,0,480,400,80,40,0,-47,-61,0,0,100,0,480,320,80,40,0,-25,-63,0,0,100,0,320,320,80,40,0,-32,-69,0,0,100,0,320,280,80,40,0,-24,-12,0,0,65,0,0,344,56,24,0,-128,-119,0,0,100,0,760,120,120,120,0,-85,-15,0,0,65,0,0,368,56,24,0,
0,15,-17,-41,0,0,100,0,80,640,40,40,0,-26,-43,0,0,100,0,80,600,40,40,0,-21,-58,0,0,100,0,0,0,40,40,0,-23,-45,0,0,100,0,0,40,40,40,0,-5,-54,0,0,100,0,120,80,40,80,0,-38,-29,0,0,100,0,160,680,80,40,0,-6,-39,0,0,100,0,0,640,40,40,0,-27,-44,0,0,100,0,0,600,40,40,0,-19,-32,0,0,100,0,360,680,40,40,0,-2,-37,0,0,100,0,160,160,40,40,0,-24,-50,0,0,100,0,560,400,80,40,0,-47,-61,0,0,100,0,560,320,80,40,0,-25,-63,0,0,100,0,400,320,80,40,0,-32,-70,0,0,100,0,400,280,80,40,0,-24,-12,0,0,65,0,0,344,56,24,0,
0,15,-17,-41,0,0,100,0,80,640,40,40,0,-26,-43,0,0,100,0,80,600,40,40,0,-21,-58,0,0,100,0,0,0,40,40,0,-23,-45,0,0,100,0,0,40,40,40,0,-5,-54,0,0,100,0,0,80,40,80,0,-38,-29,0,0,100,0,160,680,80,40,0,-6,-39,0,0,100,0,0,640,40,40,0,-27,-44,0,0,100,0,0,600,40,40,0,-19,-32,0,0,100,0,240,680,40,40,0,-2,-37,0,0,100,0,160,160,40,40,0,-24,-50,0,0,100,0,480,360,80,40,0,-47,-61,0,0,100,0,480,280,80,40,0,-25,-63,0,0,100,0,160,320,80,40,0,-32,-70,0,0,100,0,160,280,80,40,0,-24,-12,0,0,65,0,0,344,56,24,0,
0,15,-17,-41,0,0,100,0,80,640,40,40,0,-26,-43,0,0,100,0,80,600,40,40,0,-21,-58,0,0,100,0,0,0,40,40,0,-23,-45,0,0,100,0,0,40,40,40,0,-5,-54,0,0,100,0,40,80,40,80,0,-38,-29,0,0,100,0,160,680,80,40,0,-6,-39,0,0,100,0,0,640,40,40,0,-27,-44,0,0,100,0,0,600,40,40,0,-19,-32,0,0,100,0,280,680,40,40,0,-2,-37,0,0,100,0,160,160,40,40,0,-24,-50,0,0,100,0,560,360,80,40,0,-47,-61,0,0,100,0,560,280,80,40,0,-25,-63,0,0,100,0,240,320,80,40,0,-32,-70,0,0,100,0,240,280,80,40,0,-24,-12,0,0,65,0,0,344,56,24,0,
0,15,-17,-41,0,0,100,0,80,640,40,40,0,-26,-43,0,0,100,0,80,600,40,40,0,-21,-58,0,0,100,0,0,0,40,40,0,-23,-45,0,0,100,0,0,40,40,40,0,-5,-54,0,0,100,0,80,80,40,80,0,-38,-29,0,0,100,0,160,680,80,40,0,-6,-39,0,0,100,0,0,640,40,40,0,-27,-44,0,0,100,0,0,600,40,40,0,-19,-32,0,0,100,0,320,680,40,40,0,-2,-37,0,0,100,0,160,160,40,40,0,-24,-50,0,0,100,0,480,400,80,40,0,-47,-61,0,0,100,0,480,320,80,40,0,-25,-63,0,0,100,0,320,320,80,40,0,-32,-69,0,0,100,0,320,280,80,40,0,-24,-12,0,0,65,0,0,344,56,24,0,
0,15,-17,-41,0,0,100,0,80,640,40,40,0,-26,-43,0,0,100,0,80,600,40,40,0,-21,-58,0,0,100,0,0,0,40,40,0,-23,-45,0,0,100,0,0,40,40,40,0,-5,-54,0,0,100,0,120,80,40,80,0,-38,-29,0,0,100,0,160,680,80,40,0,-6,-39,0,0,100,0,0,640,40,40,0,-27,-44,0,0,100,0,0,600,40,40,0,-19,-32,0,0,100,0,360,680,40,40,0,-2,-37,0,0,100,0,160,160,40,40,0,-24,-50,0,0,100,0,560,400,80,40,0,-47,-61,0,0,100,0,560,320,80,40,0,-25,-63,0,0,100,0,400,320,80,40,0,-32,-70,0,0,100,0,400,280,80,40,0,-24,-12,0,0,65,0,0,344,56,24,0,
0,15,-17,-46,0,0,100,0,80,640,40,40,0,-26,-48,0,0,100,0,80,600,40,40,0,-21,-60,0,0,100,0,80,40,40,40,0,-23,-47,0,0,100,0,0,40,40,40,0,-5,-56,0,0,100,0,0,80,40,80,0,-38,-29,0,0,100,0,80,680,80,40,0,-6,-43,0,0,100,0,0,640,40,40,0,-27,-48,0,0,100,0,0,600,40,40,0,-19,-34,0,0,100,0,240,680,40,40,0,-2,-39,0,0,100,0,160,160,40,40,0,-24,-52,0,0,100,0,480,360,80,40,0,-47,-63,0,0,100,0,480,280,80,40,0,-25,-65,0,0,100,0,160,320,80,40,0,-32,-72,0,0,100,0,160,280,80,40,0,-24,-12,0,0,65,0,0,344,56,24,0,
0,11,25,-65,0,0,100,0,0,0,40,40,0,27,-76,0,0,100,0,400,320,80,40,0,25,-57,0,0,100,0,0,40,40,40,0,25,-35,0,0,100,0,40,200,40,40,0,44,-66,0,0,100,0,0,80,40,80,0,46,-65,0,0,100,0,40,160,40,39,0,25,-46,0,0,100,0,80,360,40,39,0,14,-65,0,0,100,0,160,80,40,40,0,45,-51,0,0,100,0,160,160,40,40,0,8,-80,0,0,100,0,320,160,40,40,0,6,-83,0,0,100,0,160,0,80,80,0,
0,11,-80,-70,0,0,100,0,0,0,40,40,0,-78,-81,0,0,100,0,400,320,80,40,0,-80,-62,0,0,100,0,0,40,40,40,0,-65,-44,0,0,100,0,120,240,40,40,0,-61,-71,0,0,100,0,0,80,40,80,0,-59,-70,0,0,100,0,40,160,40,39,0,-80,-51,0,0,100,0,80,360,40,39,0,-91,-70,0,0,100,0,160,80,40,40,0,-60,-56,0,0,100,0,160,160,40,40,0,-99,-88,0,0,100,0,160,0,80,80,0,-95,-78,0,0,100,0,280,120,40,40,0,
