0,18,-19,-30,0,0,100,0,160,840,40,40,0,-9,-40,0,0,100,0,160,880,40,40,0,-19,-70,0,0,100,0,0,720,40,40,0,-29,-60,0,0,100,0,0,760,40,40,0,-19,-60,0,0,100,0,0,800,40,40,0,-19,-40,0,0,100,0,0,840,40,40,0,-9,-50,0,0,100,0,160,920,40,40,0,1,-60,0,0,100,0,160,720,40,40,0,-9,-70,0,0,100,0,0,920,40,40,0,-39,-70,0,0,100,0,0,960,40,40,0,-9,-50,0,0,100,0,0,880,40,40,0,-39,-80,0,0,100,0,160,960,80,80,0,-59,-80,0,0,100,0,320,720,120,80,0,-59,-70,0,0,100,0,320,840,80,40,0,-69,-60,0,0,100,0,320,880,80,40,0,-49,-70,0,0,100,0,480,640,80,80,0,-39,-70,0,0,100,0,480,960,80,80,0,-27,-12,0,0,65,0,0,320,56,24,0,
0,18,-20,-31,0,0,100,0,160,840,40,40,0,-10,-41,0,0,100,0,160,880,40,40,0,-19,-71,0,0,100,0,40,720,40,40,0,-29,-61,0,0,100,0,40,760,40,40,0,-19,-61,0,0,100,0,40,800,40,40,0,-19,-41,0,0,100,0,0,840,40,40,0,-9,-50,0,0,100,0,160,920,40,40,0,0,-60,0,0,100,0,160,720,40,40,0,-10,-70,0,0,100,0,0,920,40,40,0,-39,-71,0,0,100,0,40,960,40,40,0,-9,-51,0,0,100,0,0,880,40,40,0,-39,-81,0,0,100,0,160,960,80,80,0,-59,-81,0,0,100,0,440,720,120,80,0,-58,-70,0,0,100,0,320,840,80,40,0,-69,-61,0,0,100,0,400,880,80,40,0,-49,-71,0,0,100,0,560,640,80,80,0,-39,-70,0,0,100,0,560,960,80,80,0,-27,-12,0,0,65,0,0,320,56,24,0,
0,18,-20,-32,0,0,100,0,160,840,40,40,0,-10,-41,0,0,100,0,200,880,40,40,0,-19,-71,0,0,100,0,80,720,40,40,0,-29,-62,0,0,100,0,80,760,40,40,0,-19,-61,0,0,100,0,80,800,40,40,0,-19,-40,0,0,100,0,40,840,40,40,0,-10,-50,0,0,100,0,160,920,40,40,0,0,-61,0,0,100,0,160,720,40,40,0,-10,-71,0,0,100,0,0,920,40,40,0,-39,-71,0,0,100,0,80,960,40,40,0,-9,-50,0,0,100,0,0,880,40,40,0,-39,-80,0,0,100,0,240,960,80,80,0,-59,-80,0,0,100,0,560,720,120,80,0,-58,-70,0,0,100,0,400,840,80,40,0,-69,-60,0,0,100,0,400,880,80,40,0,-49,-70,0,0,100,0,640,640,80,80,0,-38,-69,0,0,100,0,640,960,80,80,0,-27,-12,0,0,65,0,0,320,56,24,0,
0,18,-19,-31,0,0,100,0,160,840,40,40,0,-10,-40,0,0,100,0,200,880,40,40,0,-19,-70,0,0,100,0,120,720,40,40,0,-29,-61,0,0,100,0,120,760,40,40,0,-19,-60,0,0,100,0,120,800,40,40,0,-19,-39,0,0,100,0,40,840,40,40,0,-10,-49,0,0,100,0,160,920,40,40,0,1,-61,0,0,100,0,160,720,40,40,0,-9,-71,0,0,100,0,0,920,40,40,0,-39,-70,0,0,100,0,120,960,40,40,0,-9,-49,0,0,100,0,0,880,40,40,0,-39,-79,0,0,100,0,240,960,80,80,0,-59,-79,0,0,100,0,680,720,120,80,0,-59,-70,0,0,100,0,400,840,80,40,0,-69,-59,0,0,100,0,320,880,80,40,0,-49,-69,0,0,100,0,720,640,80,80,0,-38,-69,0,0,100,0,720,960,80,80,0,-27,-12,0,0,65,0,0,320,56,24,0,
0,18,-35,-33,0,0,100,0,200,840,40,40,0,-23,-40,0,0,100,0,160,880,40,40,0,-37,-63,0,0,100,0,240,160,40,40,0,-32,-67,0,0,100,0,0,720,40,40,0,-14,-47,1,0,100,0,160,80,80,40,0,-22,-57,1,0,100,0,208,120,40,40,0,-24,-60,1,0,100,0,0,800,40,40,0,-32,-40,0,0,100,0,0,840,40,40,0,-22,-50,0,0,100,0,160,920,40,40,0,-24,-72,0,0,100,0,0,920,40,40,0,-8,-68,1,0,100,0,0,960,40,40,0,-22,-50,0,0,100,0,0,880,40,40,0,-45,-41,0,0,100,0,160,1000,80,40,0,-59,-77,1,0,100,0,160,960,80,40,0,-25,-80,0,0,100,0,320,920,40,40,0,-39,-81,1,0,100,0,320,840,80,40,0,-10,-90,0,0,100,0,640,880,80,80,0,-33,-12,0,0,65,0,0,392,80,24,0,
0,18,-39,-33,0,0,100,0,200,840,40,40,0,-26,-40,0,0,100,0,160,880,40,40,0,-40,-62,0,0,100,0,240,160,40,40,0,-35,-66,0,0,100,0,40,720,40,40,0,-15,-46,1,0,100,0,160,80,80,40,0,-23,-56,1,0,100,0,208,120,40,40,0,-27,-59,1,0,100,0,40,800,40,40,0,-35,-39,0,0,100,0,0,840,40,40,0,-25,-49,0,0,100,0,160,920,40,40,0,-27,-71,0,0,100,0,0,920,40,40,0,-14,-70,1,0,100,0,40,960,40,40,0,-25,-49,0,0,100,0,0,880,40,40,0,-48,-39,0,0,100,0,160,1000,80,40,0,-62,-75,1,0,100,0,160,960,80,40,0,-27,-78,0,0,100,0,320,920,40,40,0,-41,-78,1,0,100,0,320,840,80,40,0,-14,-88,0,0,100,0,720,880,80,80,0,-35,-12,0,0,65,0,0,392,80,24,0,
0,18,-40,-33,0,0,100,0,200,840,40,40,0,-27,-39,0,0,100,0,160,880,40,40,0,-41,-61,0,0,100,0,240,160,40,40,0,-36,-65,0,0,100,0,80,720,40,40,0,-16,-45,1,0,100,0,160,80,80,40,0,-24,-55,1,0,100,0,208,120,40,40,0,-28,-58,1,0,100,0,80,800,40,40,0,-36,-38,0,0,100,0,0,840,40,40,0,-26,-48,0,0,100,0,160,920,40,40,0,-28,-70,0,0,100,0,0,920,40,40,0,-15,-69,1,0,100,0,80,960,40,40,0,-26,-48,0,0,100,0,0,880,40,40,0,-49,-38,0,0,100,0,160,1000,80,40,0,-63,-74,1,0,100,0,160,960,80,40,0,-27,-76,0,0,100,0,320,920,40,40,0,-41,-76,1,0,100,0,320,840,80,40,0,-16,-85,0,0,100,0,800,880,80,80,0,-36,-12,0,0,65,0,0,392,80,24,0,
0,18,55,-69,0,0,100,0,160,840,40,40,0,66,-75,0,0,100,0,160,880,40,40,0,56,-98,0,0,100,0,80,720,40,40,0,45,-90,0,0,100,0,0,760,40,40,0,52,-89,0,0,100,0,80,800,40,40,0,51,-70,0,0,100,0,0,840,40,40,0,61,-80,0,0,100,0,160,920,40,40,0,77,-94,0,0,100,0,160,720,40,40,0,67,-104,0,0,100,0,0,920,40,40,0,36,-100,0,0,100,0,80,960,40,40,0,61,-80,0,0,100,0,0,880,40,40,0,35,-79,0,0,100,0,320,960,80,40,0,23,-92,0,0,100,0,320,1000,80,40,0,8,-90,0,0,100,0,400,840,80,40,0,-3,-80,0,0,100,0,400,880,80,40,0,24,-89,0,0,100,0,640,800,80,80,0,31,-77,0,0,100,0,320,960,80,40,0,41,-12,0,0,65,0,0,344,56,24,0,
0,18,66,-73,0,0,100,0,160,840,40,40,0,77,-79,0,0,100,0,160,880,40,40,0,67,-102,0,0,100,0,120,720,40,40,0,56,-92,0,0,100,0,0,760,40,40,0,63,-93,0,0,100,0,120,800,40,40,0,62,-74,0,0,100,0,0,840,40,40,0,72,-84,0,0,100,0,160,920,40,40,0,86,-100,0,0,100,0,160,720,40,40,0,76,-110,0,0,100,0,0,920,40,40,0,47,-104,0,0,100,0,120,960,40,40,0,72,-84,0,0,100,0,0,880,40,40,0,46,-83,0,0,100,0,320,960,80,40,0,35,-94,0,0,100,0,320,1000,80,40,0,12,-94,0,0,100,0,480,840,80,40,0,12,-76,0,0,100,0,480,880,80,40,0,23,-94,0,0,100,0,800,960,80,80,0,43,-79,0,0,100,0,320,960,80,40,0,53,-12,0,0,65,0,0,344,56,24,0,
0,18,68,-71,0,0,100,0,160,840,40,40,0,79,-77,0,0,100,0,160,880,40,40,0,70,-100,0,0,100,0,0,720,40,40,0,59,-89,0,0,100,0,0,760,40,40,0,66,-91,0,0,100,0,0,800,40,40,0,64,-72,0,0,100,0,0,840,40,40,0,74,-82,0,0,100,0,160,920,40,40,0,88,-99,0,0,100,0,160,720,40,40,0,78,-109,0,0,100,0,0,920,40,40,0,50,-102,0,0,100,0,0,960,40,40,0,74,-82,0,0,100,0,0,880,40,40,0,48,-81,0,0,100,0,320,960,80,40,0,37,-93,0,0,100,0,320,1000,80,40,0,16,-92,0,0,100,0,480,840,80,40,0,18,-74,0,0,100,0,480,880,80,40,0,46,-90,0,0,100,0,720,800,80,80,0,43,-79,0,0,100,0,320,960,80,40,0,56,-12,0,0,65,0,0,344,56,24,0,
0,18,62,-66,0,0,100,0,160,840,40,40,0,73,-74,0,0,100,0,160,880,40,40,0,69,-97,0,0,100,0,0,720,40,40,0,57,-86,0,0,100,0,0,760,40,40,0,64,-89,0,0,100,0,0,800,40,40,0,61,-70,0,0,100,0,0,840,40,40,0,71,-80,0,0,100,0,160,920,40,40,0,87,-97,0,0,100,0,160,720,40,40,0,77,-107,0,0,100,0,0,920,40,40,0,49,-99,0,0,100,0,0,960,40,40,0,71,-80,0,0,100,0,0,880,40,40,0,45,-79,0,0,100,0,320,960,80,40,0,37,-92,0,0,100,0,320,1000,80,40,0,17,-91,0,0,100,0,480,840,80,40,0,21,-74,0,0,100,0,480,880,80,40,0,50,-93,0,0,100,0,800,800,80,80,0,40,-78,0,0,100,0,320,960,80,40,0,55,-12,0,0,65,0,0,344,56,24,0,
0,18,62,-66,0,0,100,0,160,840,40,40,0,73,-74,0,0,100,0,160,880,40,40,0,69,-97,0,0,100,0,0,720,40,40,0,57,-86,0,0,100,0,0,760,40,40,0,64,-89,0,0,100,0,0,800,40,40,0,61,-70,0,0,100,0,0,840,40,40,0,71,-80,0,0,100,0,160,920,40,40,0,87,-97,0,0,100,0,160,720,40,40,0,77,-107,0,0,100,0,0,920,40,40,0,49,-99,0,0,100,0,0,960,40,40,0,71,-80,0,0,100,0,0,880,40,40,0,45,-79,0,0,100,0,320,960,80,40,0,37,-92,0,0,100,0,320,1000,80,40,0,17,-91,0,0,100,0,480,840,80,40,0,21,-74,0,0,100,0,480,880,80,40,0,50,-93,0,0,100,0,800,800,80,80,0,40,-78,0,0,100,0,320,960,80,40,0,57,-12,0,0,65,0,0,344,56,24,0,
0,22,32,-140,0,1,100,0,800,592,72,144,0,-41,-93,0,1,100,0,1016,544,160,88,0,1,-78,0,0,100,0,0,40,40,40,0,-3,-78,0,0,100,0,160,160,40,40,0,21,-74,0,0,100,0,320,920,40,40,0,11,-81,1,0,100,0,320,840,80,40,0,23,-71,1,0,100,0,320,880,80,40,0,11,-78,0,0,100,0,280,200,40,40,0,11,-78,0,0,100,0,120,120,40,40,0,10,-59,0,0,100,0,40,200,40,40,0,-1,-86,0,0,100,0,0,0,40,40,0,-1,-86,0,0,100,0,160,0,80,40,0,9,-86,2,0,100,0,240,80,80,40,0,-19,-52,0,0,100,0,200,840,40,40,0,-5,-60,0,0,100,0,200,880,40,40,0,-5,-61,0,0,100,0,320,920,40,40,0,-13,-69,1,0,100,0,320,840,80,40,0,-11,-56,1,0,100,0,320,880,80,40,0,-9,-68,1,0,100,0,320,840,80,40,0,33,-90,0,0,100,0,640,880,80,80,0,4,-127,0,0,100,0,640,0,120,96,0,-9,-12,0,0,65,0,0,392,80,24,0,
0,25,-14,-127,0,1,100,0,800,592,72,144,0,32,-140,0,1,100,0,872,592,72,144,0,-102,-85,0,1,100,0,1016,632,160,104,0,-233,-108,0,1,100,0,640,240,272,144,0,-74,-34,0,0,100,0,200,840,40,40,0,-59,-43,0,0,100,0,200,880,40,40,0,-62,-52,0,0,100,0,160,920,40,40,0,-50,-80,0,0,100,0,400,960,40,80,0,-40,-74,0,0,100,0,320,920,40,40,0,-50,-74,1,0,100,0,320,840,80,40,0,-38,-65,1,0,100,0,320,880,80,40,0,-29,-85,0,0,100,0,640,880,80,80,0,-134,-39,0,0,100,0,200,120,40,40,0,-176,-28,0,0,100,0,160,80,80,40,0,-128,-51,0,0,100,0,0,280,40,40,0,-119,-40,0,0,100,0,1096,384,40,40,0,-119,-42,0,0,100,0,80,120,40,40,0,-129,-32,0,0,100,0,160,200,40,40,0,-108,-32,0,0,100,0,160,240,40,40,0,-119,-40,0,0,100,0,1136,384,40,40,0,-133,-40,0,0,100,0,160,120,40,40,0,-129,-53,0,0,100,0,320,0,80,40,0,-128,-88,0,0,100,0,760,0,232,96,0,-65,-12,0,0,65,0,0,392,80,24,0,-128,-12,0,0,65,0,0,344,56,24,0,
0,31,-14,-127,0,1,100,0,872,592,72,144,0,32,-140,0,1,100,0,944,592,72,144,0,-79,-161,0,1,100,0,880,736,160,200,0,-303,-108,0,1,100,0,912,240,272,144,0,-78,-22,0,0,100,0,280,320,40,40,0,-68,-32,0,0,100,0,80,360,40,40,0,-56,-30,0,0,100,0,120,360,40,40,0,-44,-32,1,0,100,0,200,320,40,40,0,-69,-34,0,0,100,0,320,200,80,40,0,-61,-34,0,0,100,0,200,840,40,40,0,-46,-43,0,0,100,0,200,880,40,40,0,-49,-52,0,0,100,0,160,920,40,40,0,-37,-80,0,0,100,0,400,960,40,80,0,-27,-74,0,0,100,0,320,920,40,40,0,-37,-74,1,0,100,0,320,840,80,40,0,-25,-65,1,0,100,0,320,880,80,40,0,-16,-85,0,0,100,0,640,880,80,80,0,-62,-40,1,0,100,0,120,400,40,40,0,-173,-46,0,0,100,0,240,160,40,40,0,-167,-51,0,0,100,0,0,280,40,40,0,-151,-54,3,0,100,0,160,80,80,40,0,-160,-51,0,0,100,0,280,160,40,40,0,-159,-40,0,0,100,0,1096,384,40,40,0,-159,-42,0,0,100,0,80,120,40,40,0,-169,-32,0,0,100,0,160,200,40,40,0,-148,-32,0,0,100,0,160,240,40,40,0,-159,-40,0,0,100,0,1136,384,40,40,0,-169,-53,0,0,100,0,320,0,80,40,0,-163,-90,0,0,100,0,992,0,232,96,0,-55,-12,0,0,65,0,0,392,80,24,0,-167,-12,0,0,65,0,0,344,56,24,0,
0,32,-14,-127,0,1,100,0,944,592,72,144,0,-69,-171,0,1,100,0,1040,736,176,200,0,-266,-98,0,1,100,0,640,384,192,144,0,-110,-31,0,0,100,0,200,320,40,40,0,-91,-25,0,0,100,0,240,320,40,40,0,-78,-22,0,0,100,0,280,320,40,40,0,-68,-32,0,0,100,0,80,360,40,40,0,-100,-34,0,0,100,0,80,400,40,40,0,-56,-30,0,0,100,0,120,360,40,40,0,-44,-32,1,0,100,0,200,320,40,40,0,-69,-34,0,0,100,0,320,200,80,40,0,-76,-34,0,0,100,0,200,840,40,40,0,-63,-42,0,0,100,0,200,880,40,40,0,-64,-52,0,0,100,0,160,920,40,40,0,-54,-81,0,0,100,0,400,960,40,80,0,-45,-74,0,0,100,0,320,920,40,40,0,-58,-78,1,0,100,0,320,840,80,40,0,-46,-69,1,0,100,0,320,880,80,40,0,-37,-85,0,0,100,0,640,880,80,80,0,-198,-44,0,0,100,0,240,160,40,40,0,-193,-49,0,0,100,0,0,280,40,40,0,-176,-54,3,0,100,0,160,80,80,40,0,-185,-51,0,0,100,0,280,160,40,40,0,-184,-39,0,0,100,0,1096,384,40,40,0,-184,-41,0,0,100,0,80,120,40,40,0,-195,-32,0,0,100,0,160,200,40,40,0,-173,-32,0,0,100,0,160,240,40,40,0,-184,-39,0,0,100,0,1136,384,40,40,0,-195,-51,0,0,100,0,320,0,80,40,0,-196,-81,0,0,100,0,640,96,232,88,0,-75,-12,0,0,65,0,0,392,80,24,0,-193,-12,0,0,65,0,0,344,56,24,0,
0,30,-245,-94,0,1,100,0,832,384,152,144,0,-110,-31,0,0,100,0,200,320,40,40,0,-91,-25,0,0,100,0,240,320,40,40,0,-78,-22,0,0,100,0,280,320,40,40,0,-68,-32,0,0,100,0,80,360,40,40,0,-100,-34,0,0,100,0,80,400,40,40,0,-56,-30,0,0,100,0,120,360,40,40,0,-44,-32,1,0,100,0,200,320,40,40,0,-69,-34,0,0,100,0,320,200,80,40,0,-73,-34,0,0,100,0,200,840,40,40,0,-60,-42,0,0,100,0,200,880,40,40,0,-61,-52,0,0,100,0,160,920,40,40,0,-51,-81,0,0,100,0,400,960,40,80,0,-42,-74,0,0,100,0,320,920,40,40,0,-55,-78,1,0,100,0,320,840,80,40,0,-43,-69,1,0,100,0,320,880,80,40,0,-34,-85,0,0,100,0,640,880,80,80,0,-202,-43,0,0,100,0,240,160,40,40,0,-198,-49,0,0,100,0,0,280,40,40,0,-180,-55,3,0,100,0,160,80,80,40,0,-189,-52,0,0,100,0,280,160,40,40,0,-189,-39,0,0,100,0,1096,384,40,40,0,-189,-41,0,0,100,0,80,120,40,40,0,-200,-32,0,0,100,0,160,200,40,40,0,-178,-32,0,0,100,0,160,240,40,40,0,-189,-39,0,0,100,0,1136,384,40,40,0,-200,-51,0,0,100,0,320,0,80,40,0,-203,-82,0,0,100,0,872,96,152,88,0,-73,-12,0,0,65,0,0,392,80,24,0,-198,-12,0,0,65,0,0,344,56,24,0,
0,31,-248,-94,0,1,100,0,832,384,152,144,0,-110,-31,0,0,100,0,200,320,40,40,0,-91,-25,0,0,100,0,240,320,40,40,0,-78,-22,0,0,100,0,280,320,40,40,0,-68,-32,0,0,100,0,80,360,40,40,0,-100,-34,0,0,100,0,80,400,40,40,0,-56,-30,0,0,100,0,120,360,40,40,0,-44,-32,1,0,100,0,200,320,40,40,0,-69,-34,0,0,100,0,320,200,80,40,0,-79,-34,0,0,100,0,200,840,40,40,0,-65,-42,0,0,100,0,200,880,40,40,0,-67,-51,0,0,100,0,160,920,40,40,0,-56,-78,0,0,100,0,440,960,40,80,0,-34,-64,1,0,100,0,320,840,40,40,0,-51,-76,0,0,100,0,320,920,40,40,0,-64,-78,1,0,100,0,320,840,80,40,0,-52,-73,1,0,100,0,320,880,80,40,0,-40,-87,0,0,100,0,640,880,80,80,0,-205,-42,0,0,100,0,240,160,40,40,0,-202,-48,0,0,100,0,0,280,40,40,0,-184,-55,3,0,100,0,160,80,80,40,0,-193,-52,0,0,100,0,280,160,40,40,0,-192,-38,0,0,100,0,1096,384,40,40,0,-192,-40,0,0,100,0,80,120,40,40,0,-203,-32,0,0,100,0,200,200,40,40,0,-181,-32,0,0,100,0,200,240,40,40,0,-192,-38,0,0,100,0,1136,384,40,40,0,-204,-50,0,0,100,0,400,0,80,40,0,-207,-82,0,0,100,0,872,96,152,88,0,-81,-12,0,0,65,0,0,392,80,24,0,-199,-12,0,0,65,0,0,344,56,24,0,
0,33,-198,-94,0,1,100,0,984,384,112,144,0,-110,-31,0,0,100,0,200,320,40,40,0,-91,-25,0,0,100,0,240,320,40,40,0,-78,-22,0,0,100,0,280,320,40,40,0,-68,-32,0,0,100,0,80,360,40,40,0,-100,-34,0,0,100,0,80,400,40,40,0,-56,-30,0,0,100,0,120,360,40,40,0,-44,-32,1,0,100,0,200,320,40,40,0,-69,-34,0,0,100,0,320,200,80,40,0,-77,-34,0,0,100,0,200,840,40,40,0,-63,-42,0,0,100,0,200,880,40,40,0,-66,-50,0,0,100,0,160,920,40,40,0,-55,-78,0,0,100,0,440,960,40,80,0,-33,-64,1,0,100,0,320,840,40,40,0,-50,-76,0,0,100,0,320,920,40,40,0,-62,-78,1,0,100,0,320,840,80,40,0,-51,-73,1,0,100,0,320,880,80,40,0,-38,-89,0,0,100,0,560,880,80,80,0,-207,-42,0,0,100,0,240,160,40,40,0,-205,-48,0,0,100,0,40,280,40,40,0,-187,-55,3,0,100,0,160,80,80,40,0,-196,-52,0,0,100,0,280,160,40,40,0,-195,-38,0,0,100,0,1096,384,40,40,0,-195,-40,0,0,100,0,80,120,40,40,0,-206,-32,0,0,100,0,200,200,40,40,0,-184,-32,0,0,100,0,200,240,40,40,0,-195,-38,0,0,100,0,1136,384,40,40,0,-207,-50,0,0,100,0,400,0,80,40,0,-22,-27,0,0,100,0,240,320,40,40,0,-32,-27,1,0,100,0,280,320,40,40,0,-221,-82,0,0,100,0,1024,96,152,88,0,-79,-12,0,0,65,0,0,392,80,24,0,-202,-12,0,0,65,0,0,344,56,24,0,
0,34,-200,-94,0,1,50,0,984,384,112,144,0,-110,-31,0,0,100,0,200,320,40,40,0,-91,-25,0,0,100,0,240,320,40,40,0,-78,-22,0,0,100,0,280,320,40,40,0,-68,-32,0,0,100,0,80,360,40,40,0,-100,-34,0,0,100,0,80,400,40,40,0,-56,-30,0,0,100,0,120,360,40,40,0,-44,-32,1,0,100,0,200,320,40,40,0,-80,-34,0,0,100,0,200,840,40,40,0,-67,-42,0,0,100,0,200,880,40,40,0,-72,-49,0,0,100,0,160,920,40,40,0,-60,-78,0,0,100,0,280,880,40,80,0,-61,-73,0,0,100,0,320,920,40,40,0,-43,-64,1,0,100,0,320,840,40,40,0,-73,-78,1,0,100,0,320,840,80,40,0,-61,-73,1,0,100,0,320,880,80,40,0,-49,-88,0,0,100,0,560,880,80,80,0,-209,-42,0,0,100,0,240,160,40,40,0,-207,-48,0,0,100,0,40,280,40,40,0,-189,-55,3,0,100,0,160,80,80,40,0,-198,-52,0,0,100,0,280,160,40,40,0,-197,-38,0,0,100,0,1096,384,40,40,0,-197,-40,0,0,100,0,80,120,40,40,0,-208,-32,0,0,100,0,200,200,40,40,0,-186,-32,0,0,100,0,200,240,40,40,0,-197,-38,0,0,100,0,1136,384,40,40,0,-209,-50,0,0,100,0,400,0,80,40,0,-20,-27,0,0,100,0,240,320,40,40,0,-34,-26,1,0,100,0,280,320,40,40,0,-26,-33,0,0,100,0,80,360,40,40,0,-69,-34,0,0,100,0,320,200,80,40,0,-207,-54,0,0,100,0,640,184,112,56,0,-82,-12,0,0,65,0,0,392,80,24,0,-204,-12,0,0,65,0,0,344,56,24,0,
0,36,-210,-42,0,0,100,0,240,160,40,40,0,-208,-48,0,0,100,0,40,280,40,40,0,-190,-55,3,0,100,0,160,80,80,40,0,-199,-52,0,0,100,0,280,160,40,40,0,-198,-38,0,0,100,0,1096,384,40,40,0,-198,-40,0,0,100,0,80,120,40,40,0,-209,-32,0,0,100,0,200,200,40,40,0,-187,-32,0,0,100,0,200,240,40,40,0,-198,-38,0,0,100,0,1136,384,40,40,0,-212,-43,0,0,100,0,480,0,80,40,0,-55,-19,0,0,100,0,160,320,40,40,0,-46,-21,1,0,100,0,200,320,40,40,0,-60,-19,0,0,100,0,120,320,40,40,0,-19,-27,0,0,100,0,240,320,40,40,0,-35,-26,1,0,100,0,280,320,40,40,0,-26,-33,0,0,100,0,120,360,40,40,0,-110,-31,0,0,100,0,200,320,40,40,0,-91,-25,0,0,100,0,240,320,40,40,0,-78,-22,0,0,100,0,280,320,40,40,0,-68,-32,0,0,100,0,80,360,40,40,0,-100,-34,0,0,100,0,80,400,40,40,0,-56,-30,0,0,100,0,120,360,40,40,0,-44,-32,1,0,100,0,200,320,40,40,0,-69,-34,0,0,100,0,320,200,80,40,0,-80,-34,0,0,100,0,200,840,40,40,0,-67,-42,0,0,100,0,200,880,40,40,0,-72,-49,0,0,100,0,160,920,40,40,0,-61,-78,0,0,100,0,280,880,40,80,0,-62,-73,0,0,100,0,320,920,40,40,0,-46,-65,1,0,100,0,320,840,40,40,0,-75,-77,1,0,100,0,320,840,80,40,0,-63,-72,1,0,100,0,320,880,80,40,0,-53,-88,0,0,100,0,720,880,80,80,0,-215,-55,0,0,100,0,752,184,112,56,0,-83,-12,0,0,65,0,0,392,80,24,0,-205,-12,0,0,65,0,0,344,56,24,0,
0,37,-210,-42,0,0,100,0,240,160,40,40,0,-208,-48,0,0,100,0,40,280,40,40,0,-190,-55,3,0,100,0,160,80,80,40,0,-199,-52,0,0,100,0,280,160,40,40,0,-198,-38,0,0,100,0,1096,384,40,40,0,-198,-40,0,0,100,0,80,120,40,40,0,-209,-32,0,0,100,0,200,200,40,40,0,-187,-32,0,0,100,0,200,240,40,40,0,-198,-38,0,0,100,0,1136,384,40,40,0,-212,-43,0,0,100,0,480,0,80,40,0,-55,-18,0,0,100,0,160,320,40,40,0,-45,-21,1,0,100,0,200,320,40,40,0,-61,-19,0,0,100,0,120,320,40,40,0,-55,-28,0,0,100,0,80,440,40,40,0,-19,-27,0,0,100,0,240,320,40,40,0,-35,-26,1,0,100,0,280,320,40,40,0,-26,-33,0,0,100,0,120,360,40,40,0,-110,-31,0,0,100,0,200,320,40,40,0,-91,-25,0,0,100,0,240,320,40,40,0,-78,-22,0,0,100,0,280,320,40,40,0,-68,-32,0,0,100,0,80,360,40,40,0,-100,-34,0,0,100,0,80,400,40,40,0,-56,-30,0,0,100,0,120,360,40,40,0,-44,-32,1,0,100,0,200,320,40,40,0,-69,-34,0,0,100,0,320,200,80,40,0,-82,-34,0,0,100,0,200,840,40,40,0,-69,-42,0,0,100,0,200,880,40,40,0,-75,-48,0,0,100,0,160,920,40,40,0,-63,-78,0,0,100,0,280,880,40,80,0,-63,-73,0,0,100,0,320,920,40,40,0,-47,-62,1,0,100,0,320,840,40,40,0,-76,-77,1,0,100,0,320,840,80,40,0,-64,-71,1,0,100,0,320,880,80,40,0,-53,-87,0,0,100,0,720,880,80,80,0,-214,-53,0,0,100,0,864,184,112,56,0,-85,-12,0,0,65,0,0,392,80,24,0,-205,-12,0,0,65,0,0,344,56,24,0,
0,43,-211,-42,0,0,100,0,240,160,40,40,0,-209,-48,0,0,100,0,80,280,40,40,0,-191,-55,3,0,100,0,160,80,80,40,0,-200,-52,0,0,100,0,280,160,40,40,0,-199,-38,0,0,100,0,1096,424,40,40,0,-199,-40,0,0,100,0,80,120,40,40,0,-210,-32,0,0,100,0,200,200,40,40,0,-188,-32,0,0,100,0,200,240,40,40,0,-199,-38,0,0,100,0,1136,424,40,40,0,-213,-42,0,0,100,0,480,0,80,40,0,-55,-18,0,0,100,0,160,320,40,40,0,-44,-21,1,0,100,0,200,320,40,40,0,-62,-19,0,0,100,0,120,320,40,40,0,-55,-28,0,0,100,0,120,440,40,40,0,-78,-23,0,0,100,0,160,320,40,40,0,-70,-26,0,0,100,0,280,320,40,40,0,-78,-31,1,0,100,0,80,360,40,40,0,-92,-25,0,0,100,0,240,320,40,40,0,-100,-26,1,0,100,0,280,320,40,40,0,-81,-25,1,0,100,0,200,320,40,40,0,-19,-27,0,0,100,0,240,320,40,40,0,-35,-26,1,0,100,0,280,320,40,40,0,-26,-33,0,0,100,0,120,360,40,40,0,-110,-31,0,0,100,0,200,320,40,40,0,-91,-25,0,0,100,0,240,320,40,40,0,-78,-22,0,0,100,0,280,320,40,40,0,-68,-32,0,0,100,0,80,360,40,40,0,-100,-34,0,0,100,0,80,400,40,40,0,-56,-30,0,0,100,0,120,360,40,40,0,-44,-32,1,0,100,0,200,320,40,40,0,-69,-34,0,0,100,0,320,200,80,40,0,-83,-34,0,0,100,0,200,840,40,40,0,-71,-43,0,0,100,0,200,880,40,40,0,-77,-49,0,0,100,0,160,920,40,40,0,-65,-79,0,0,100,0,280,880,40,80,0,-62,-73,0,0,100,0,320,920,40,40,0,-47,-62,1,0,100,0,320,840,40,40,0,-76,-76,1,0,100,0,320,840,80,40,0,-64,-70,1,0,100,0,320,880,80,40,0,-54,-86,0,0,100,0,800,880,80,80,0,-212,-54,0,0,100,0,976,184,112,56,0,-87,-12,0,0,65,0,0,392,80,24,0,-206,-12,0,0,65,0,0,344,56,24,0,
0,48,-211,-42,0,0,100,0,240,160,40,40,0,-209,-48,0,0,100,0,80,280,40,40,0,-191,-55,3,0,100,0,160,80,80,40,0,-200,-52,0,0,100,0,280,160,40,40,0,-199,-38,0,0,100,0,1096,424,40,40,0,-199,-40,0,0,100,0,80,120,40,40,0,-210,-32,0,0,100,0,200,200,40,40,0,-188,-32,0,0,100,0,200,240,40,40,0,-199,-38,0,0,100,0,1136,424,40,40,0,-213,-42,0,0,100,0,560,0,80,40,0,-104,-18,0,0,100,0,120,320,40,40,0,-69,-18,0,0,100,0,240,320,40,40,0,-55,-18,0,0,100,0,160,320,40,40,0,-44,-21,1,0,100,0,200,320,40,40,0,-62,-19,0,0,100,0,120,320,40,40,0,-55,-28,0,0,100,0,120,440,40,40,0,-78,-22,0,0,100,0,160,320,40,40,0,-69,-26,0,0,100,0,280,320,40,40,0,-79,-31,1,0,100,0,80,360,40,40,0,-92,-24,0,0,100,0,240,320,40,40,0,-101,-26,1,0,100,0,280,320,40,40,0,-80,-25,1,0,100,0,200,320,40,40,0,-104,-34,0,0,100,0,80,400,40,40,0,-19,-27,0,0,100,0,240,320,40,40,0,-35,-26,1,0,100,0,280,320,40,40,0,-26,-33,0,0,100,0,120,360,40,40,0,-61,-71,0,0,100,0,320,240,80,80,0,-110,-31,0,0,100,0,200,320,40,40,0,-91,-25,0,0,100,0,240,320,40,40,0,-78,-22,0,0,100,0,280,320,40,40,0,-68,-32,0,0,100,0,80,360,40,40,0,-100,-34,0,0,100,0,80,400,40,40,0,-56,-30,0,0,100,0,120,360,40,40,0,-44,-32,1,0,100,0,200,320,40,40,0,-69,-34,0,0,100,0,320,200,80,40,0,-101,-55,1,0,100,0,504,400,56,56,0,-84,-34,0,0,100,0,200,840,40,40,0,-72,-43,0,0,100,0,200,880,40,40,0,-78,-49,0,0,100,0,160,920,40,40,0,-66,-79,0,0,100,0,280,880,40,80,0,-62,-72,0,0,100,0,320,920,40,40,0,-47,-61,1,0,100,0,320,840,40,40,0,-76,-75,1,0,100,0,320,840,80,40,0,-64,-69,1,0,100,0,320,880,80,40,0,-53,-84,0,0,100,0,800,880,80,80,0,-219,-53,0,0,100,0,1088,184,112,56,0,-88,-12,0,0,65,0,0,392,80,24,0,-206,-12,0,0,65,0,0,344,56,24,0,
0,55,-212,-42,0,0,100,0,240,160,40,40,0,-210,-48,0,0,100,0,80,280,40,40,0,-192,-55,3,0,100,0,160,80,80,40,0,-201,-52,0,0,100,0,280,160,40,40,0,-200,-38,0,0,100,0,1096,424,40,40,0,-200,-40,0,0,100,0,80,120,40,40,0,-211,-32,0,0,100,0,200,200,40,40,0,-189,-32,0,0,100,0,200,240,40,40,0,-200,-38,0,0,100,0,1136,424,40,40,0,-214,-41,0,0,100,0,560,0,80,40,0,-104,-18,0,0,100,0,120,320,40,40,0,-69,-18,0,0,100,0,240,320,40,40,0,-144,-25,0,0,100,0,120,320,40,40,0,-136,-23,0,0,100,0,240,320,40,40,0,-126,-23,0,0,100,0,280,320,40,40,0,-122,-28,1,0,100,0,200,320,40,40,0,-55,-18,0,0,100,0,160,320,40,40,0,-44,-21,1,0,100,0,200,320,40,40,0,-62,-19,0,0,100,0,120,320,40,40,0,-55,-28,0,0,100,0,120,440,40,40,0,-78,-22,0,0,100,0,160,320,40,40,0,-69,-26,0,0,100,0,280,320,40,40,0,-79,-31,1,0,100,0,80,360,40,40,0,-92,-23,0,0,100,0,240,320,40,40,0,-102,-26,1,0,100,0,280,320,40,40,0,-80,-25,1,0,100,0,200,320,40,40,0,-104,-34,0,0,100,0,120,400,40,40,0,-93,-28,0,0,100,0,280,320,40,40,0,-96,-34,0,0,100,0,80,440,40,40,0,-19,-27,0,0,100,0,240,320,40,40,0,-35,-26,1,0,100,0,280,320,40,40,0,-26,-33,0,0,100,0,120,360,40,40,0,-60,-70,0,0,100,0,400,240,80,80,0,-116,-29,0,0,100,0,560,400,80,32,0,-110,-31,0,0,100,0,200,320,40,40,0,-91,-25,0,0,100,0,240,320,40,40,0,-78,-22,0,0,100,0,280,320,40,40,0,-68,-32,0,0,100,0,80,360,40,40,0,-100,-34,0,0,100,0,80,400,40,40,0,-56,-30,0,0,100,0,120,360,40,40,0,-44,-32,1,0,100,0,200,320,40,40,0,-69,-34,0,0,100,0,320,200,80,40,0,-90,-93,1,0,100,0,504,400,56,96,0,-105,-59,1,0,100,0,560,400,80,56,0,-84,-34,0,0,100,0,200,840,40,40,0,-72,-43,0,0,100,0,200,880,40,40,0,-78,-49,0,0,100,0,160,920,40,40,0,-66,-79,0,0,100,0,280,880,40,80,0,-61,-71,0,0,100,0,320,920,40,40,0,-46,-60,1,0,100,0,320,840,40,40,0,-75,-74,1,0,100,0,320,840,80,40,0,-63,-68,1,0,100,0,320,880,80,40,0,-52,-85,0,0,100,0,560,800,80,80,0,-88,-12,0,0,65,0,0,392,80,24,0,-207,-12,0,0,65,0,0,344,56,24,0,
0,58,-212,-42,0,0,100,0,240,160,40,40,0,-210,-48,0,0,100,0,120,280,40,40,0,-192,-55,3,0,100,0,160,80,80,40,0,-201,-52,0,0,100,0,280,160,40,40,0,-200,-38,0,0,100,0,1096,464,40,40,0,-200,-40,0,0,100,0,80,120,40,40,0,-211,-32,0,0,100,0,200,200,40,40,0,-189,-32,0,0,100,0,200,240,40,40,0,-200,-38,0,0,100,0,1136,464,40,40,0,-226,-39,0,0,100,0,320,40,80,40,0,-104,-18,0,0,100,0,120,320,40,40,0,-69,-18,0,0,100,0,240,320,40,40,0,-145,-25,0,0,100,0,120,320,40,40,0,-136,-22,0,0,100,0,240,320,40,40,0,-125,-23,0,0,100,0,280,320,40,40,0,-128,-31,1,0,100,0,80,440,40,40,0,-121,-28,1,0,100,0,200,320,40,40,0,-55,-18,0,0,100,0,160,320,40,40,0,-44,-21,1,0,100,0,200,320,40,40,0,-62,-19,0,0,100,0,120,320,40,40,0,-55,-28,0,0,100,0,120,440,40,40,0,-78,-22,0,0,100,0,160,320,40,40,0,-69,-26,0,0,100,0,280,320,40,40,0,-79,-31,1,0,100,0,80,360,40,40,0,-92,-23,0,0,100,0,240,320,40,40,0,-102,-26,1,0,100,0,280,320,40,40,0,-80,-25,1,0,100,0,200,320,40,40,0,-104,-34,0,0,100,0,120,400,40,40,0,-92,-28,0,0,100,0,280,320,40,40,0,-95,-35,0,0,100,0,80,440,40,40,0,-66,-32,1,0,100,0,80,440,40,40,0,-19,-27,0,0,100,0,240,320,40,40,0,-35,-26,1,0,100,0,280,320,40,40,0,-26,-33,0,0,100,0,120,360,40,40,0,-113,-28,1,0,100,0,280,320,40,40,0,-115,-35,1,0,100,0,80,400,40,40,0,-57,-72,0,0,100,0,400,240,80,80,0,-110,-76,0,0,100,0,320,320,80,80,0,-146,-71,1,0,100,0,320,240,80,80,0,-95,-59,0,0,100,0,560,400,80,56,0,-112,-54,0,0,100,0,504,400,56,48,0,-120,-75,1,0,100,0,320,320,80,80,0,-67,-83,0,0,100,0,320,240,80,80,0,-89,-95,1,0,100,0,504,400,56,96,0,-127,-99,1,0,100,0,560,400,80,96,0,-110,-79,1,0,100,0,400,320,80,80,0,-131,-62,0,0,100,0,400,400,48,56,0,-85,-34,0,0,100,0,200,840,40,40,0,-73,-43,0,0,100,0,200,880,40,40,0,-79,-49,0,0,100,0,160,920,40,40,0,-67,-79,0,0,100,0,280,880,40,80,0,-62,-70,0,0,100,0,320,920,40,40,0,-46,-59,1,0,100,0,320,840,40,40,0,-75,-73,1,0,100,0,320,840,80,40,0,-63,-67,1,0,100,0,320,880,80,40,0,-52,-84,0,0,100,0,560,800,80,80,0,-88,-12,0,0,65,0,0,392,80,24,0,-207,-12,0,0,65,0,0,344,56,24,0,
0,64,-212,-42,0,0,100,0,240,160,40,40,0,-210,-48,0,0,100,0,120,280,40,40,0,-192,-55,3,0,100,0,160,80,80,40,0,-201,-52,0,0,100,0,280,160,40,40,0,-200,-38,0,0,100,0,1096,464,40,40,0,-200,-40,0,0,100,0,80,120,40,40,0,-211,-32,0,0,100,0,200,200,40,40,0,-189,-32,0,0,100,0,200,240,40,40,0,-200,-38,0,0,100,0,1136,464,40,40,0,-226,-38,0,0,100,0,320,40,80,40,0,-104,-18,0,0,100,0,120,320,40,40,0,-69,-18,0,0,100,0,240,320,40,40,0,-146,-25,0,0,100,0,120,320,40,40,0,-137,-22,0,0,100,0,240,320,40,40,0,-125,-23,0,0,100,0,280,320,40,40,0,-128,-31,1,0,100,0,120,440,40,40,0,-140,-30,1,0,100,0,80,360,40,40,0,-120,-28,1,0,100,0,200,320,40,40,0,-55,-18,0,0,100,0,160,320,40,40,0,-44,-21,1,0,100,0,200,320,40,40,0,-62,-19,0,0,100,0,120,320,40,40,0,-55,-28,0,0,100,0,120,440,40,40,0,-78,-22,0,0,100,0,160,320,40,40,0,-69,-26,0,0,100,0,280,320,40,40,0,-79,-31,1,0,100,0,80,360,40,40,0,-92,-23,0,0,100,0,240,320,40,40,0,-102,-26,1,0,100,0,280,320,40,40,0,-80,-25,1,0,100,0,200,320,40,40,0,-104,-34,0,0,100,0,120,400,40,40,0,-92,-28,0,0,100,0,280,320,40,40,0,-95,-35,0,0,100,0,80,440,40,40,0,-66,-33,1,0,100,0,80,440,40,40,0,-19,-27,0,0,100,0,240,320,40,40,0,-35,-26,1,0,100,0,280,320,40,40,0,-26,-33,0,0,100,0,120,360,40,40,0,-113,-28,1,0,100,0,280,320,40,40,0,-114,-36,1,0,100,0,80,400,40,40,0,-55,-73,0,0,100,0,400,240,80,80,0,-110,-76,0,0,100,0,400,320,80,80,0,-147,-72,1,0,100,0,320,240,80,80,0,-82,-77,0,0,100,0,320,240,80,80,0,-77,-90,0,0,100,0,560,400,80,96,0,-126,-86,0,0,100,0,504,400,56,80,0,-160,-72,1,0,100,0,320,240,80,80,0,-124,-82,1,0,100,0,320,320,80,80,0,-59,-86,0,0,100,0,400,240,80,80,0,-147,-29,0,0,100,0,160,320,40,40,0,-148,-28,1,0,100,0,280,320,40,40,0,-88,-97,1,0,100,0,504,400,56,96,0,-137,-109,1,0,100,0,560,400,80,96,0,-179,-64,1,0,100,0,320,248,80,80,0,-122,-102,1,0,100,0,400,320,80,80,0,-155,-82,0,0,100,0,400,400,72,72,0,-85,-34,0,0,100,0,200,840,40,40,0,-73,-43,0,0,100,0,200,880,40,40,0,-79,-49,0,0,100,0,160,920,40,40,0,-67,-79,0,0,100,0,280,880,40,80,0,-62,-70,0,0,100,0,320,920,40,40,0,-46,-59,1,0,100,0,320,840,40,40,0,-75,-73,1,0,100,0,320,840,80,40,0,-63,-67,1,0,100,0,320,880,80,40,0,-52,-84,0,0,100,0,560,800,80,80,0,-88,-12,0,0,65,0,0,392,80,24,0,-207,-12,0,0,65,0,0,344,56,24,0,
0,74,-212,-42,0,0,100,0,240,160,40,40,0,-210,-48,0,0,100,0,160,280,40,40,0,-192,-55,3,0,100,0,160,80,80,40,0,-201,-52,0,0,100,0,280,160,40,40,0,-200,-38,0,0,100,0,1096,504,40,40,0,-200,-40,0,0,100,0,80,120,40,40,0,-211,-32,0,0,100,0,200,200,40,40,0,-189,-32,0,0,100,0,200,240,40,40,0,-200,-38,0,0,100,0,1136,504,40,40,0,-226,-38,0,0,100,0,400,40,80,40,0,-166,-23,0,0,100,0,120,320,40,40,0,-150,-25,0,0,100,0,240,320,40,40,0,-156,-27,0,0,100,0,200,320,40,40,0,-104,-18,0,0,100,0,120,320,40,40,0,-69,-18,0,0,100,0,240,320,40,40,0,-147,-25,0,0,100,0,120,320,40,40,0,-138,-22,0,0,100,0,240,320,40,40,0,-125,-23,0,0,100,0,280,320,40,40,0,-129,-31,1,0,100,0,120,440,40,40,0,-140,-30,1,0,100,0,120,360,40,40,0,-120,-28,1,0,100,0,200,320,40,40,0,-55,-18,0,0,100,0,160,320,40,40,0,-44,-21,1,0,100,0,200,320,40,40,0,-62,-19,0,0,100,0,120,320,40,40,0,-55,-28,0,0,100,0,120,440,40,40,0,-78,-22,0,0,100,0,160,320,40,40,0,-69,-26,0,0,100,0,280,320,40,40,0,-79,-31,1,0,100,0,80,360,40,40,0,-92,-23,0,0,100,0,240,320,40,40,0,-102,-26,1,0,100,0,280,320,40,40,0,-80,-25,1,0,100,0,200,320,40,40,0,-104,-34,0,0,100,0,120,400,40,40,0,-92,-28,0,0,100,0,280,320,40,40,0,-95,-35,0,0,100,0,80,440,40,40,0,-66,-33,1,0,100,0,80,440,40,40,0,-19,-27,0,0,100,0,240,320,40,40,0,-35,-26,1,0,100,0,280,320,40,40,0,-26,-33,0,0,100,0,120,360,40,40,0,-113,-28,1,0,100,0,280,320,40,40,0,-114,-36,1,0,100,0,80,400,40,40,0,-55,-73,0,0,100,0,400,240,80,80,0,-110,-78,0,0,100,0,400,320,80,80,0,-147,-72,1,0,100,0,320,240,80,80,0,-79,-79,0,0,100,0,320,240,80,80,0,-76,-92,0,0,100,0,560,400,80,96,0,-129,-92,0,0,100,0,504,400,56,96,0,-162,-73,1,0,100,0,400,240,80,80,0,-125,-84,1,0,100,0,320,320,80,80,0,-58,-88,0,0,100,0,400,240,80,80,0,-161,-27,0,0,100,0,160,320,40,40,0,-162,-28,1,0,100,0,280,320,40,40,0,-149,-32,1,0,100,0,80,440,40,40,0,-157,-31,1,0,100,0,80,360,40,40,0,-138,-111,1,0,100,0,560,400,80,96,0,-88,-98,1,0,100,0,504,400,56,96,0,-178,-29,0,0,100,0,200,320,40,40,0,-170,-35,1,0,100,0,80,360,40,40,0,-186,-64,1,0,100,0,320,248,80,80,0,-161,-49,1,0,100,0,80,360,40,40,0,-123,-105,1,0,100,0,400,320,80,80,0,-131,-50,0,0,100,0,120,400,40,40,0,-197,-127,0,0,100,0,400,400,104,112,0,-189,-81,1,0,100,0,400,248,80,80,0,-85,-34,0,0,100,0,200,840,40,40,0,-73,-43,0,0,100,0,200,880,40,40,0,-79,-49,0,0,100,0,160,920,40,40,0,-67,-79,0,0,100,0,280,880,40,80,0,-63,-69,0,0,100,0,320,920,40,40,0,-47,-58,1,0,100,0,320,840,40,40,0,-76,-72,1,0,100,0,320,840,80,40,0,-64,-66,1,0,100,0,320,880,80,40,0,-53,-83,0,0,100,0,560,800,80,80,0,-88,-12,0,0,65,0,0,392,80,24,0,-207,-12,0,0,65,0,0,344,56,24,0,
0,73,-212,-42,0,0,100,0,240,160,40,40,0,-210,-48,0,0,100,0,160,280,40,40,0,-192,-55,3,0,100,0,160,80,80,40,0,-201,-52,0,0,100,0,280,160,40,40,0,-200,-38,0,0,100,0,1096,504,40,40,0,-200,-40,0,0,100,0,80,120,40,40,0,-211,-32,0,0,100,0,200,200,40,40,0,-189,-32,0,0,100,0,200,240,40,40,0,-200,-38,0,0,100,0,1136,504,40,40,0,-227,-38,0,0,100,0,400,40,80,40,0,-166,-23,0,0,100,0,120,320,40,40,0,-151,-25,0,0,100,0,240,320,40,40,0,-158,-27,0,0,100,0,200,320,40,40,0,-104,-18,0,0,100,0,120,320,40,40,0,-69,-18,0,0,100,0,240,320,40,40,0,-147,-25,0,0,100,0,120,320,40,40,0,-138,-22,0,0,100,0,240,320,40,40,0,-125,-23,0,0,100,0,280,320,40,40,0,-129,-31,1,0,100,0,120,440,40,40,0,-141,-31,1,0,100,0,120,360,40,40,0,-120,-28,1,0,100,0,200,320,40,40,0,-55,-18,0,0,100,0,160,320,40,40,0,-44,-21,1,0,100,0,200,320,40,40,0,-62,-19,0,0,100,0,120,320,40,40,0,-55,-28,0,0,100,0,120,440,40,40,0,-78,-22,0,0,100,0,160,320,40,40,0,-69,-26,0,0,100,0,280,320,40,40,0,-79,-31,1,0,100,0,80,360,40,40,0,-92,-23,0,0,100,0,240,320,40,40,0,-102,-26,1,0,100,0,280,320,40,40,0,-80,-25,1,0,100,0,200,320,40,40,0,-104,-34,0,0,100,0,120,400,40,40,0,-92,-28,0,0,100,0,280,320,40,40,0,-95,-35,0,0,100,0,80,440,40,40,0,-66,-33,1,0,100,0,80,440,40,40,0,-19,-27,0,0,100,0,240,320,40,40,0,-35,-26,1,0,100,0,280,320,40,40,0,-26,-33,0,0,100,0,120,360,40,40,0,-113,-28,1,0,100,0,280,320,40,40,0,-114,-36,1,0,100,0,80,400,40,40,0,-55,-73,0,0,100,0,400,240,80,80,0,-110,-79,0,0,100,0,400,320,80,80,0,-147,-72,1,0,100,0,320,240,80,80,0,-78,-80,0,0,100,0,320,240,80,80,0,-75,-94,0,0,100,0,560,400,80,96,0,-130,-94,0,0,100,0,504,400,56,96,0,-164,-74,1,0,100,0,400,240,80,80,0,-125,-84,1,0,100,0,320,320,80,80,0,-58,-88,0,0,100,0,400,240,80,80,0,-163,-27,0,0,100,0,160,320,40,40,0,-168,-28,1,0,100,0,280,320,40,40,0,-151,-33,1,0,100,0,80,440,40,40,0,-164,-32,1,0,100,0,80,360,40,40,0,-138,-111,1,0,100,0,560,400,80,96,0,-88,-98,1,0,100,0,504,400,56,96,0,-183,-33,1,0,100,0,80,360,40,40,0,-189,-64,1,0,100,0,400,248,80,80,0,-172,-35,1,0,100,0,120,360,40,40,0,-123,-106,1,0,100,0,400,320,80,80,0,-137,-60,0,0,100,0,120,400,40,40,0,-201,-131,0,0,100,0,400,400,104,112,0,-205,-93,1,0,100,0,400,248,80,80,0,-85,-34,0,0,100,0,200,840,40,40,0,-73,-43,0,0,100,0,200,880,40,40,0,-79,-49,0,0,100,0,160,920,40,40,0,-67,-79,0,0,100,0,280,880,40,80,0,-63,-69,0,0,100,0,320,920,40,40,0,-47,-58,1,0,100,0,320,840,40,40,0,-76,-72,1,0,100,0,320,840,80,40,0,-64,-66,1,0,100,0,320,880,80,40,0,-53,-83,0,0,100,0,560,800,80,80,0,-88,-12,0,0,65,0,0,392,80,24,0,-207,-12,0,0,65,0,0,344,56,24,0,
0,78,-212,-42,0,0,100,0,240,160,40,40,0,-210,-48,0,0,100,0,160,280,40,40,0,-192,-55,3,0,100,0,160,80,80,40,0,-201,-52,0,0,100,0,280,160,40,40,0,-200,-38,0,0,100,0,1096,504,40,40,0,-200,-40,0,0,100,0,80,120,40,40,0,-211,-32,0,0,100,0,200,200,40,40,0,-189,-32,0,0,100,0,200,240,40,40,0,-200,-38,0,0,100,0,1136,504,40,40,0,-227,-38,0,0,100,0,400,40,80,40,0,-24,-66,0,1,100,0,728,528,88,64,0,-166,-23,0,0,100,0,120,320,40,40,0,-151,-25,0,0,100,0,240,320,40,40,0,-158,-27,0,0,100,0,200,320,40,40,0,-104,-18,0,0,100,0,120,320,40,40,0,-69,-18,0,0,100,0,240,320,40,40,0,-147,-25,0,0,100,0,120,320,40,40,0,-138,-22,0,0,100,0,240,320,40,40,0,-125,-23,0,0,100,0,280,320,40,40,0,-129,-31,1,0,100,0,120,440,40,40,0,-141,-31,1,0,100,0,120,360,40,40,0,-120,-28,1,0,100,0,200,320,40,40,0,-55,-18,0,0,100,0,160,320,40,40,0,-44,-21,1,0,100,0,200,320,40,40,0,-62,-19,0,0,100,0,120,320,40,40,0,-55,-28,0,0,100,0,120,440,40,40,0,-78,-22,0,0,100,0,160,320,40,40,0,-69,-26,0,0,100,0,280,320,40,40,0,-79,-31,1,0,100,0,80,360,40,40,0,-92,-23,0,0,100,0,240,320,40,40,0,-102,-26,1,0,100,0,280,320,40,40,0,-80,-25,1,0,100,0,200,320,40,40,0,-104,-34,0,0,100,0,120,400,40,40,0,-92,-28,0,0,100,0,280,320,40,40,0,-95,-35,0,0,100,0,80,440,40,40,0,-66,-33,1,0,100,0,80,440,40,40,0,-19,-27,0,0,100,0,240,320,40,40,0,-35,-26,1,0,100,0,280,320,40,40,0,-26,-33,0,1,100,0,120,360,40,40,0,-26,-33,0,1,100,0,120,360,40,40,0,-26,-33,0,0,100,0,120,360,40,40,0,-113,-28,1,0,100,0,280,320,40,40,0,-114,-36,1,0,100,0,80,400,40,40,0,-55,-73,0,1,100,0,400,240,80,80,0,-55,-73,0,0,100,0,400,240,80,80,0,-110,-79,0,0,100,0,400,320,80,80,0,-147,-72,1,0,100,0,320,240,80,80,0,-78,-80,0,0,100,0,320,240,80,80,0,-75,-94,0,0,100,0,560,400,80,96,0,-130,-94,0,0,100,0,504,400,56,96,0,-164,-74,1,0,100,0,400,240,80,80,0,-125,-84,1,0,100,0,320,320,80,80,0,-58,-88,0,1,100,0,400,240,80,80,0,-58,-88,0,0,100,0,400,240,80,80,0,-163,-27,0,0,100,0,160,320,40,40,0,-168,-28,1,0,100,0,280,320,40,40,0,-151,-33,1,0,100,0,80,440,40,40,0,-164,-32,1,0,100,0,80,360,40,40,0,-138,-111,1,0,100,0,560,400,80,96,0,-88,-98,1,0,100,0,504,400,56,96,0,-183,-33,1,0,100,0,80,360,40,40,0,-189,-64,1,0,100,0,400,248,80,80,0,-172,-35,1,0,100,0,120,360,40,40,0,-123,-106,1,0,100,0,400,320,80,80,0,-137,-60,0,0,100,0,120,400,40,40,0,-201,-131,0,0,100,0,400,400,104,112,0,-205,-93,1,0,100,0,400,248,80,80,0,-85,-34,0,0,100,0,200,840,40,40,0,-73,-43,0,0,100,0,200,880,40,40,0,-79,-49,0,0,100,0,160,920,40,40,0,-67,-79,0,0,100,0,280,880,40,80,0,-63,-69,0,0,100,0,320,920,40,40,0,-47,-58,1,0,100,0,320,840,40,40,0,-76,-72,1,0,100,0,320,840,80,40,0,-64,-66,1,0,100,0,320,880,80,40,0,-53,-83,0,0,100,0,560,800,80,80,0,-88,-12,0,0,65,0,0,392,80,24,0,-207,-12,0,0,65,0,0,344,56,24,0,
0,93,-212,-42,0,0,100,0,240,160,40,40,0,-210,-48,0,0,100,0,200,280,40,40,0,-192,-55,3,0,100,0,160,80,80,40,0,-201,-52,0,0,100,0,280,160,40,40,0,-200,-38,0,0,100,0,1096,504,40,40,0,-200,-40,0,0,100,0,80,120,40,40,0,-211,-32,0,0,100,0,200,200,40,40,0,-189,-32,0,0,100,0,200,240,40,40,0,-200,-38,0,0,100,0,1136,504,40,40,0,-227,-38,0,0,100,0,400,40,80,40,0,-34,-96,0,1,100,0,728,528,88,64,0,-24,-66,0,1,100,0,816,528,88,64,0,-21,-76,0,0,100,0,560,240,40,40,0,-21,-85,3,0,100,0,240,400,40,40,0,-28,-75,0,0,100,0,200,400,40,40,0,-33,-55,0,0,100,0,560,240,40,40,0,-26,-34,0,0,100,0,560,240,40,40,0,-18,-35,0,0,100,0,600,240,40,40,0,-78,-65,0,0,100,0,160,520,80,40,0,-18,-25,0,0,100,0,0,560,80,40,0,-28,-45,3,0,100,0,240,400,40,40,0,-19,-70,0,0,100,0,200,360,40,40,0,-29,-65,0,0,100,0,240,360,40,40,0,-18,-55,0,0,100,0,200,440,40,40,0,-38,-55,0,0,100,0,200,400,40,40,0,-18,-45,0,0,100,0,240,400,40,40,0,-18,-32,0,0,100,0,240,400,40,40,0,-21,-39,0,0,100,0,240,360,40,40,0,-32,-36,0,0,100,0,200,360,40,40,0,-166,-23,0,0,100,0,120,320,40,40,0,-151,-25,0,0,100,0,240,320,40,40,0,-158,-27,0,0,100,0,200,320,40,40,0,-104,-18,0,0,100,0,120,320,40,40,0,-69,-18,0,0,100,0,240,320,40,40,0,-147,-25,0,0,100,0,120,320,40,40,0,-138,-22,0,0,100,0,240,320,40,40,0,-125,-23,0,0,100,0,280,320,40,40,0,-129,-31,1,0,100,0,120,440,40,40,0,-141,-31,1,0,100,0,120,360,40,40,0,-120,-28,1,0,100,0,200,320,40,40,0,-55,-18,0,0,100,0,160,320,40,40,0,-44,-21,1,0,100,0,200,320,40,40,0,-62,-19,0,0,100,0,120,320,40,40,0,-55,-28,0,1,100,0,120,440,40,40,0,-55,-28,0,1,100,0,120,440,40,40,0,-55,-28,0,0,100,0,120,440,40,40,0,-78,-22,0,0,100,0,160,320,40,40,0,-69,-26,0,0,100,0,280,320,40,40,0,-79,-31,1,0,100,0,80,360,40,40,0,-92,-23,0,0,100,0,240,320,40,40,0,-102,-26,1,0,100,0,280,320,40,40,0,-80,-25,1,0,100,0,200,320,40,40,0,-104,-34,0,0,100,0,120,400,40,40,0,-92,-28,0,0,100,0,280,320,40,40,0,-95,-35,0,0,100,0,80,440,40,40,0,-66,-33,1,0,100,0,80,440,40,40,0,-35,-26,1,0,100,0,280,320,40,40,0,-26,-33,0,0,100,0,160,360,40,40,0,-113,-28,1,0,100,0,280,320,40,40,0,-114,-36,1,0,100,0,80,400,40,40,0,-55,-73,0,0,100,0,480,240,80,80,0,-110,-79,0,0,100,0,400,320,80,80,0,-147,-72,1,0,100,0,320,240,80,80,0,-78,-80,0,0,100,0,320,240,80,80,0,-75,-94,0,1,100,0,560,400,80,96,0,-75,-94,0,0,100,0,560,400,80,96,0,-130,-94,0,0,100,0,504,400,56,96,0,-164,-74,1,0,100,0,400,240,80,80,0,-125,-84,1,0,100,0,320,320,80,80,0,-163,-27,0,0,100,0,160,320,40,40,0,-168,-28,1,0,100,0,280,320,40,40,0,-151,-33,1,0,100,0,80,440,40,40,0,-164,-32,1,0,100,0,80,360,40,40,0,-138,-111,1,0,100,0,560,400,80,96,0,-88,-98,1,0,100,0,504,400,56,96,0,-183,-33,1,0,100,0,80,360,40,40,0,-189,-64,1,0,100,0,400,248,80,80,0,-172,-35,1,0,100,0,120,360,40,40,0,-123,-106,1,0,100,0,400,320,80,80,0,-137,-60,0,0,100,0,120,400,40,40,0,-201,-131,0,0,100,0,400,400,104,112,0,-205,-93,1,0,100,0,400,248,80,80,0,-85,-34,0,0,100,0,200,840,40,40,0,-73,-43,0,0,100,0,200,880,40,40,0,-79,-49,0,0,100,0,160,920,40,40,0,-67,-79,0,0,100,0,280,880,40,80,0,-63,-69,0,0,100,0,320,920,40,40,0,-47,-58,1,0,100,0,320,840,40,40,0,-76,-72,1,0,100,0,320,840,80,40,0,-64,-66,1,0,100,0,320,880,80,40,0,-53,-83,0,0,100,0,560,800,80,80,0,-88,-12,0,0,65,0,0,392,80,24,0,-207,-12,0,0,65,0,0,344,56,24,0,
0,107,-212,-42,0,0,100,0,240,160,40,40,0,-210,-49,0,0,100,0,200,280,40,40,0,-191,-55,3,0,100,0,160,80,80,40,0,-200,-52,0,0,100,0,280,160,40,40,0,-200,-39,0,0,100,0,1096,504,40,40,0,-200,-41,0,0,100,0,80,120,40,40,0,-211,-32,0,0,100,0,200,200,40,40,0,-189,-32,0,0,100,0,200,240,40,40,0,-200,-39,0,0,100,0,1136,504,40,40,0,-227,-38,0,0,100,0,400,40,80,40,0,-34,-96,0,1,100,0,816,528,88,64,0,-24,-66,0,1,100,0,904,528,88,64,0,-42,-92,1,0,100,0,0,480,40,80,0,-58,-75,1,0,100,0,160,520,80,40,0,-57,-84,0,0,100,0,600,240,40,40,0,-39,-89,0,0,100,0,560,240,40,40,0,-55,-72,0,0,100,0,560,240,40,40,0,-21,-76,0,0,100,0,560,280,40,40,0,-58,-68,1,0,100,0,200,440,40,40,0,-38,-98,1,0,100,0,200,400,40,40,0,-30,-106,0,0,100,0,240,400,40,40,0,-54,-76,1,0,100,0,240,440,40,40,0,-41,-76,0,0,100,0,280,360,40,40,0,-17,-105,3,0,100,0,240,400,40,40,0,2,-78,1,0,100,0,200,400,40,40,0,-33,-55,0,0,100,0,560,280,40,40,0,-33,-25,0,0,100,0,560,240,40,40,0,-26,-34,0,0,100,0,560,280,40,40,0,-18,-35,0,0,100,0,600,280,40,40,0,-78,-65,0,0,100,0,240,520,80,40,0,-50,-43,1,0,100,0,160,520,80,40,0,-52,-16,1,0,100,0,160,480,80,40,0,-38,-55,1,0,100,0,0,480,40,80,0,-18,-25,0,0,100,0,80,560,80,40,0,-8,-35,3,0,100,0,240,400,40,40,0,5,-90,1,0,100,0,200,360,40,40,0,-49,-85,1,0,100,0,240,360,40,40,0,7,-45,0,0,100,0,200,400,40,40,0,-39,-85,0,0,100,0,200,440,40,40,0,-60,-41,0,0,100,0,240,360,40,40,0,-60,-51,1,0,100,0,240,400,40,40,0,-38,-44,0,0,100,0,240,440,40,40,0,-55,-35,1,0,100,0,200,360,40,40,0,-16,-57,0,0,100,0,240,400,40,40,0,-6,-20,0,0,100,0,240,400,40,40,0,-1,-49,0,0,100,0,240,440,40,40,0,-42,-66,0,0,100,0,200,360,40,40,0,-21,-29,2,0,100,0,240,400,40,40,0,-25,-26,1,0,100,0,200,360,40,40,0,-166,-23,0,0,100,0,120,320,40,40,0,-151,-25,0,0,100,0,240,320,40,40,0,-158,-27,0,0,100,0,200,320,40,40,0,-104,-18,0,0,100,0,120,320,40,40,0,-69,-18,0,0,100,0,240,320,40,40,0,-147,-25,0,0,100,0,120,320,40,40,0,-138,-22,0,0,100,0,240,320,40,40,0,-125,-23,0,0,100,0,280,320,40,40,0,-129,-31,1,0,100,0,120,440,40,40,0,-141,-31,1,0,100,0,120,360,40,40,0,-120,-28,1,0,100,0,200,320,40,40,0,-55,-18,0,0,100,0,160,320,40,40,0,-44,-21,1,0,100,0,200,320,40,40,0,-62,-19,0,0,100,0,120,320,40,40,0,-55,-28,0,0,100,0,160,440,40,40,0,-78,-22,0,0,100,0,160,320,40,40,0,-69,-26,0,0,100,0,280,320,40,40,0,-79,-31,1,0,100,0,80,360,40,40,0,-92,-23,0,0,100,0,240,320,40,40,0,-102,-26,1,0,100,0,280,320,40,40,0,-80,-25,1,0,100,0,200,320,40,40,0,-104,-34,0,0,100,0,120,400,40,40,0,-92,-28,0,0,100,0,280,320,40,40,0,-95,-35,0,0,100,0,80,440,40,40,0,-66,-33,1,0,100,0,80,440,40,40,0,-113,-28,1,0,100,0,280,320,40,40,0,-114,-36,1,0,100,0,80,400,40,40,0,-55,-73,0,0,100,0,480,240,80,80,0,-110,-79,0,0,100,0,400,320,80,80,0,-147,-72,1,0,100,0,320,240,80,80,0,-78,-80,0,0,100,0,320,240,80,80,0,-75,-94,0,0,100,0,560,496,80,96,0,-130,-94,0,0,100,0,504,400,56,96,0,-164,-74,1,0,100,0,400,240,80,80,0,-125,-84,1,0,100,0,320,320,80,80,0,-163,-27,0,0,100,0,160,320,40,40,0,-168,-28,1,0,100,0,280,320,40,40,0,-151,-33,1,0,100,0,80,440,40,40,0,-164,-32,1,0,100,0,80,360,40,40,0,-138,-111,1,0,100,0,560,400,80,96,0,-88,-98,1,0,100,0,504,400,56,96,0,-183,-33,1,0,100,0,80,360,40,40,0,-189,-64,1,0,100,0,400,248,80,80,0,-172,-35,1,0,100,0,120,360,40,40,0,-123,-106,1,0,100,0,400,320,80,80,0,-137,-60,0,0,100,0,120,400,40,40,0,-201,-131,0,0,100,0,400,400,104,112,0,-205,-93,1,0,100,0,400,248,80,80,0,-82,-34,0,0,100,0,200,840,40,40,0,-68,-42,0,0,100,0,200,880,40,40,0,-69,-51,0,0,100,0,160,920,40,40,0,-59,-76,0,0,100,0,440,960,40,80,0,-54,-70,0,0,100,0,320,920,40,40,0,-65,-76,1,0,100,0,320,840,80,40,0,-54,-69,1,0,100,0,320,880,80,40,0,-45,-83,0,0,100,0,800,880,80,80,0,-76,-12,0,0,65,0,0,392,80,24,0,-207,-12,0,0,65,0,0,344,56,24,0,
0,123,-212,-42,0,0,100,0,240,160,40,40,0,-210,-49,0,0,100,0,200,280,40,40,0,-191,-55,3,0,100,0,160,80,80,40,0,-200,-52,0,0,100,0,280,160,40,40,0,-200,-39,0,0,100,0,1096,504,40,40,0,-200,-41,0,0,100,0,80,120,40,40,0,-211,-32,0,0,100,0,200,200,40,40,0,-189,-32,0,0,100,0,200,240,40,40,0,-200,-39,0,0,100,0,1136,504,40,40,0,-227,-38,0,0,100,0,400,40,80,40,0,-44,-66,0,1,100,0,728,528,88,64,0,-34,-96,0,1,100,0,904,528,88,64,0,-42,-92,1,0,100,0,40,480,40,80,0,-58,-75,1,0,100,0,240,520,80,40,0,-57,-84,0,0,100,0,600,280,40,40,0,-39,-89,0,0,100,0,560,280,40,40,0,-55,-72,0,0,100,0,560,280,40,40,0,-21,-76,0,0,100,0,560,320,40,40,0,-88,-58,1,0,100,0,200,440,40,40,0,-34,-118,1,0,100,0,200,400,40,40,0,-20,-110,0,0,100,0,240,400,40,40,0,-74,-80,1,0,100,0,240,440,40,40,0,-26,-81,0,0,100,0,280,360,40,40,0,-6,-119,3,0,100,0,240,400,40,40,0,33,-67,1,0,100,0,200,440,40,40,0,-54,-31,0,0,100,0,560,240,40,40,0,-33,-55,0,0,100,0,560,320,40,40,0,-33,-25,0,0,100,0,560,280,40,40,0,-26,-34,0,0,100,0,560,320,40,40,0,-48,-45,0,0,100,0,600,240,40,40,0,-18,-35,0,0,100,0,600,320,40,40,0,-78,-65,0,0,100,0,320,520,80,40,0,-50,-43,1,0,100,0,240,520,80,40,0,-52,-16,1,0,100,0,240,480,80,40,0,-38,-55,1,0,100,0,40,480,40,80,0,-18,-25,0,0,100,0,160,560,80,40,0,-14,-47,0,0,100,0,240,400,40,40,0,-45,-50,0,0,100,0,240,400,40,40,0,-25,-40,2,0,100,0,200,360,40,40,0,-56,-33,2,0,100,0,240,440,40,40,0,-29,-28,1,0,100,0,200,400,40,40,0,-35,-44,1,0,100,0,200,440,40,40,0,32,-18,0,0,100,0,240,400,40,40,0,17,-105,2,0,100,0,200,360,40,40,0,-59,-105,2,0,100,0,240,440,40,40,0,18,-21,2,0,100,0,200,440,40,40,0,-59,-88,0,0,100,0,200,440,40,40,0,22,-25,1,0,100,0,240,400,40,40,0,25,-92,2,0,100,0,200,360,40,40,0,-59,-95,1,0,100,0,240,440,40,40,0,29,-31,1,0,100,0,200,440,40,40,0,-43,-92,1,0,100,0,200,400,40,40,0,-43,-31,0,0,100,0,200,400,40,40,0,-51,-23,1,0,100,0,200,360,40,40,0,-86,-46,0,0,100,0,240,360,40,40,0,-74,-65,1,0,100,0,240,400,40,40,0,-24,-57,0,0,100,0,240,440,40,40,0,-77,-48,2,0,100,0,200,360,40,40,0,-5,-69,0,0,100,0,240,400,40,40,0,9,-18,0,0,100,0,240,400,40,40,0,14,-47,0,0,100,0,240,440,40,40,0,-52,-76,3,0,100,0,200,360,40,40,0,-4,-29,2,0,100,0,240,400,40,40,0,-15,-19,1,0,100,0,200,360,40,40,0,-166,-23,0,0,100,0,120,320,40,40,0,-151,-25,0,0,100,0,240,320,40,40,0,-158,-27,0,0,100,0,200,320,40,40,0,-104,-18,0,0,100,0,120,320,40,40,0,-69,-18,0,0,100,0,240,320,40,40,0,-147,-25,0,0,100,0,120,320,40,40,0,-138,-22,0,0,100,0,240,320,40,40,0,-125,-23,0,0,100,0,280,320,40,40,0,-129,-31,1,0,100,0,120,440,40,40,0,-141,-31,1,0,100,0,120,360,40,40,0,-120,-28,1,0,100,0,200,320,40,40,0,-78,-22,0,0,100,0,160,320,40,40,0,-69,-26,0,0,100,0,280,320,40,40,0,-79,-31,1,1,100,0,80,360,40,40,0,-79,-31,1,1,100,0,80,360,40,40,0,-79,-31,1,0,100,0,80,360,40,40,0,-92,-23,0,0,100,0,240,320,40,40,0,-102,-26,1,0,100,0,280,320,40,40,0,-80,-25,1,0,100,0,200,320,40,40,0,-104,-34,0,0,100,0,120,400,40,40,0,-92,-28,0,0,100,0,280,320,40,40,0,-95,-35,0,0,100,0,80,440,40,40,0,-66,-33,1,1,100,0,80,440,40,40,0,-66,-33,1,1,100,0,80,440,40,40,0,-66,-33,1,0,100,0,80,440,40,40,0,-113,-28,1,0,100,0,280,320,40,40,0,-114,-36,1,0,100,0,80,400,40,40,0,-110,-79,0,1,100,0,400,320,80,80,0,-110,-79,0,0,100,0,400,320,80,80,0,-147,-72,1,0,100,0,320,240,80,80,0,-78,-80,0,1,100,0,320,240,80,80,0,-78,-80,0,0,100,0,320,240,80,80,0,-75,-94,0,0,100,0,560,496,80,96,0,-130,-94,0,0,100,0,504,400,56,96,0,-164,-74,1,0,100,0,400,240,80,80,0,-125,-84,1,0,100,0,320,320,80,80,0,-163,-27,0,0,100,0,160,320,40,40,0,-168,-28,1,0,100,0,280,320,40,40,0,-151,-33,1,0,100,0,80,440,40,40,0,-164,-32,1,0,100,0,80,360,40,40,0,-138,-111,1,0,100,0,560,400,80,96,0,-88,-98,1,0,100,0,504,400,56,96,0,-183,-33,1,0,100,0,80,360,40,40,0,-189,-64,1,0,100,0,400,248,80,80,0,-172,-35,1,0,100,0,120,360,40,40,0,-123,-106,1,0,100,0,400,320,80,80,0,-137,-60,0,0,100,0,120,400,40,40,0,-201,-131,0,0,100,0,400,400,104,112,0,-205,-93,1,0,100,0,400,248,80,80,0,-78,-35,0,0,100,0,200,840,40,40,0,-64,-43,0,0,100,0,200,880,40,40,0,-66,-52,0,0,100,0,160,920,40,40,0,-55,-78,0,0,100,0,400,960,40,80,0,-50,-70,0,0,100,0,320,920,40,40,0,-60,-77,1,0,100,0,320,840,80,40,0,-50,-70,1,0,100,0,320,880,80,40,0,-38,-84,0,0,100,0,720,880,80,80,0,-71,-12,0,0,65,0,0,392,80,24,0,-207,-12,0,0,65,0,0,344,56,24,0,
0,130,-211,-44,0,0,100,0,240,160,40,40,0,-208,-51,0,0,100,0,200,280,40,40,0,-189,-54,3,0,100,0,160,80,80,40,0,-198,-51,0,0,100,0,280,160,40,40,0,-199,-40,0,0,100,0,1096,504,40,40,0,-199,-42,0,0,100,0,80,120,40,40,0,-209,-32,0,0,100,0,160,200,40,40,0,-187,-32,0,0,100,0,160,240,40,40,0,-199,-40,0,0,100,0,1136,504,40,40,0,-226,-39,0,0,100,0,400,40,80,40,0,-44,-66,0,1,100,0,816,528,88,64,0,-42,-92,1,0,100,0,80,480,40,80,0,-127,-79,0,0,100,0,160,520,80,40,0,-64,-45,1,0,100,0,160,520,80,40,0,-58,-75,1,0,100,0,320,520,80,40,0,-41,-42,0,0,100,0,600,240,40,40,0,-96,-73,0,0,100,0,560,240,40,40,0,-59,-49,0,0,100,0,560,240,40,40,0,-57,-84,0,0,100,0,600,320,40,40,0,-39,-89,0,0,100,0,560,320,40,40,0,-55,-72,0,0,100,0,560,320,40,40,0,-21,-76,0,0,100,0,560,360,40,40,0,-53,-26,0,0,100,0,240,400,40,40,0,-55,-59,1,0,100,0,240,440,40,40,0,-48,-49,1,0,100,0,200,440,40,40,0,-40,-35,0,0,100,0,200,400,40,40,0,-65,-44,1,0,100,0,280,360,40,40,0,-108,-53,1,0,100,0,200,400,40,40,0,-25,-122,1,0,100,0,200,440,40,40,0,-6,-120,0,0,100,0,240,400,40,40,0,-94,-84,1,0,100,0,240,440,40,40,0,-18,-74,0,0,100,0,280,360,40,40,0,4,-129,3,0,100,0,240,400,40,40,0,43,-57,1,0,100,0,200,400,40,40,0,-89,-58,0,0,100,0,560,240,40,40,0,-71,-29,0,0,100,0,560,240,40,40,0,-54,-31,0,0,100,0,560,280,40,40,0,-33,-55,0,0,100,0,560,360,40,40,0,-33,-25,0,0,100,0,560,320,40,40,0,-26,-34,0,0,100,0,560,360,40,40,0,-98,-65,0,0,100,0,600,240,40,40,0,-78,-45,0,0,100,0,600,240,40,40,0,-48,-45,0,0,100,0,600,280,40,40,0,-18,-35,0,0,100,0,600,360,40,40,0,-131,-60,0,0,100,0,160,520,80,40,0,-72,-105,1,0,100,0,0,480,40,80,0,-68,-55,1,0,100,0,160,520,80,40,0,-75,-33,1,0,100,0,160,520,80,40,0,-50,-43,1,0,100,0,320,520,80,40,0,-52,-16,1,0,100,0,320,480,80,40,0,-81,-51,0,0,100,0,0,480,40,80,0,-38,-55,1,0,100,0,80,480,40,80,0,-18,-25,0,0,100,0,240,560,80,40,0,-69,-48,1,0,100,0,240,400,40,40,0,-82,-105,1,0,100,0,240,400,40,40,0,-104,-77,2,0,100,0,240,400,40,40,0,-96,-92,2,0,100,0,200,360,40,40,0,-76,-72,2,0,100,0,240,440,40,40,0,-87,-71,3,0,100,0,200,400,40,40,0,-60,-36,3,0,100,0,200,440,40,40,0,-77,-60,1,0,100,0,200,440,40,40,0,16,-67,2,0,100,0,240,400,40,40,0,-55,-80,0,0,100,0,240,400,40,40,0,12,-51,3,0,100,0,200,360,40,40,0,-86,-33,3,0,100,0,240,440,40,40,0,-43,-64,1,0,100,0,200,400,40,40,0,-51,-34,2,0,100,0,240,440,40,40,0,-74,-37,0,0,100,0,200,360,40,40,0,-70,-28,0,0,100,0,240,440,40,40,0,-58,-44,3,0,100,0,240,400,40,40,0,-81,-34,2,0,100,0,240,400,40,40,0,-71,-14,0,0,100,0,240,400,40,40,0,-33,-51,0,0,100,0,200,440,40,40,0,-65,-62,2,0,100,0,200,360,40,40,0,-108,-56,0,0,100,0,240,440,40,40,0,-82,-84,1,0,100,0,240,400,40,40,0,-10,-59,0,0,100,0,240,440,40,40,0,-89,-60,3,0,100,0,200,360,40,40,0,6,-72,0,0,100,0,240,400,40,40,0,-166,-23,0,0,100,0,120,320,40,40,0,-151,-25,0,0,100,0,240,320,40,40,0,-158,-27,0,0,100,0,200,320,40,40,0,-104,-18,0,0,100,0,120,320,40,40,0,-147,-25,0,0,100,0,120,320,40,40,0,-138,-22,0,0,100,0,240,320,40,40,0,-125,-23,0,0,100,0,280,320,40,40,0,-129,-31,1,0,100,0,120,440,40,40,0,-141,-31,1,0,100,0,120,360,40,40,0,-120,-28,1,0,100,0,200,320,40,40,0,-69,-26,0,0,100,0,280,320,40,40,0,-92,-23,0,0,100,0,240,320,40,40,0,-102,-26,1,0,100,0,280,320,40,40,0,-80,-25,1,0,100,0,200,320,40,40,0,-104,-34,0,1,100,0,120,400,40,40,0,-104,-34,0,1,100,0,120,400,40,40,0,-104,-34,0,0,100,0,120,400,40,40,0,-92,-28,0,0,100,0,280,320,40,40,0,-95,-35,0,1,100,0,80,440,40,40,0,-95,-35,0,1,100,0,80,440,40,40,0,-95,-35,0,0,100,0,80,440,40,40,0,-113,-28,1,0,100,0,280,320,40,40,0,-114,-36,1,0,100,0,80,400,40,40,0,-110,-79,0,0,100,0,480,320,80,80,0,-147,-72,1,0,100,0,320,240,80,80,0,-130,-94,0,0,100,0,504,400,56,96,0,-164,-74,1,0,100,0,400,240,80,80,0,-125,-84,1,0,100,0,320,320,80,80,0,-163,-27,0,0,100,0,160,320,40,40,0,-168,-28,1,0,100,0,280,320,40,40,0,-151,-33,1,0,100,0,80,440,40,40,0,-164,-32,1,0,100,0,80,360,40,40,0,-138,-111,1,0,100,0,560,400,80,96,0,-88,-98,1,0,100,0,504,400,56,96,0,-183,-33,1,0,100,0,80,360,40,40,0,-189,-64,1,0,100,0,400,248,80,80,0,-172,-35,1,0,100,0,120,360,40,40,0,-123,-106,1,0,100,0,400,320,80,80,0,-137,-60,0,0,100,0,120,400,40,40,0,-201,-131,0,0,100,0,400,400,104,112,0,-205,-93,1,0,100,0,400,248,80,80,0,-77,-36,0,0,100,0,200,840,40,40,0,-63,-44,0,0,100,0,200,880,40,40,0,-65,-53,0,0,100,0,160,920,40,40,0,-54,-79,0,0,100,0,400,960,40,80,0,-49,-71,0,0,100,0,320,920,40,40,0,-59,-78,1,0,100,0,320,840,80,40,0,-49,-71,1,0,100,0,320,880,80,40,0,-37,-85,0,0,100,0,720,880,80,80,0,-69,-12,0,0,65,0,0,392,80,24,0,-206,-12,0,0,65,0,0,344,56,24,0,
0,126,-211,-45,0,0,100,0,240,160,40,40,0,-195,-32,1,0,100,0,160,80,80,40,0,-193,-40,1,0,100,0,200,120,40,40,0,-207,-52,0,0,100,0,200,280,40,40,0,-198,-41,0,0,100,0,1096,504,40,40,0,-198,-43,0,0,100,0,80,120,40,40,0,-209,-32,0,0,100,0,160,200,40,40,0,-187,-32,0,0,100,0,160,240,40,40,0,-198,-41,0,0,100,0,1136,504,40,40,0,-225,-40,0,0,100,0,400,40,80,40,0,-167,-84,1,1,100,0,728,528,88,64,0,-44,-66,0,1,100,0,904,528,88,64,0,-42,-92,1,0,100,0,120,480,40,80,0,-127,-79,0,0,100,0,240,520,80,40,0,-64,-45,1,0,100,0,240,520,80,40,0,-41,-42,0,0,100,0,600,280,40,40,0,-96,-73,0,0,100,0,560,280,40,40,0,-59,-49,0,0,100,0,560,280,40,40,0,-57,-84,0,0,100,0,600,360,40,40,0,-39,-89,0,0,100,0,560,360,40,40,0,-55,-72,0,0,100,0,560,360,40,40,0,-83,-34,0,0,100,0,240,400,40,40,0,-65,-79,1,0,100,0,240,440,40,40,0,-28,-69,1,0,100,0,200,440,40,40,0,-10,-45,0,0,100,0,200,400,40,40,0,-73,-56,1,0,100,0,280,360,40,40,0,-120,-48,1,0,100,0,200,400,40,40,0,-18,-128,1,0,100,0,200,440,40,40,0,4,-124,0,0,100,0,240,400,40,40,0,-104,-88,1,0,100,0,240,440,40,40,0,-11,-62,2,0,100,0,280,360,40,40,0,-105,-38,0,0,100,0,560,240,40,40,0,-89,-58,0,0,100,0,560,280,40,40,0,-71,-29,0,0,100,0,560,280,40,40,0,-54,-31,0,0,100,0,560,320,40,40,0,-33,-25,0,0,100,0,560,360,40,40,0,-108,-35,0,0,100,0,600,240,40,40,0,-98,-65,0,0,100,0,600,280,40,40,0,-78,-45,0,0,100,0,600,280,40,40,0,-48,-45,0,0,100,0,600,320,40,40,0,-131,-60,0,0,100,0,240,520,80,40,0,-84,-28,1,0,100,0,160,480,80,40,0,-72,-105,1,0,100,0,40,480,40,80,0,-68,-55,1,0,100,0,240,520,80,40,0,-75,-33,1,0,100,0,240,520,80,40,0,-111,-68,0,0,100,0,0,480,40,80,0,-141,-50,0,0,100,0,160,520,80,40,0,-81,-51,0,0,100,0,40,480,40,80,0,-38,-55,1,0,100,0,120,480,40,80,0,-29,-58,1,0,100,0,240,400,40,40,0,-82,-135,1,0,100,0,240,400,40,40,0,-134,-87,2,0,100,0,240,400,40,40,0,-116,-112,2,0,100,0,200,360,40,40,0,-56,-82,2,0,100,0,240,440,40,40,0,-117,-81,3,0,100,0,200,440,40,40,0,-30,-26,3,0,100,0,200,400,40,40,0,-37,-70,1,0,100,0,200,400,40,40,0,-7,-30,1,0,100,0,200,440,40,40,0,26,-87,3,0,100,0,240,400,40,40,0,-75,-100,1,0,100,0,240,400,40,40,0,33,-56,0,0,100,0,200,360,40,40,0,-106,-43,3,0,100,0,240,440,40,40,0,15,-22,2,0,100,0,200,400,40,40,0,-48,-88,2,0,100,0,200,440,40,40,0,-103,-65,0,0,100,0,240,440,40,40,0,-93,-35,0,0,100,0,240,400,40,40,0,-113,-45,3,0,100,0,200,360,40,40,0,-37,-42,3,0,100,0,240,440,40,40,0,-84,-47,1,0,100,0,200,360,40,40,0,-60,-40,0,0,100,0,240,440,40,40,0,-56,-60,3,0,100,0,240,400,40,40,0,-94,-54,2,0,100,0,240,400,40,40,0,-49,-24,0,0,100,0,240,400,40,40,0,-19,-47,1,0,100,0,200,400,40,40,0,-75,-72,3,0,100,0,200,360,40,40,0,-128,-61,1,0,100,0,240,440,40,40,0,-96,-92,1,0,100,0,240,400,40,40,0,0,-60,0,0,100,0,240,440,40,40,0,-166,-23,0,0,100,0,120,320,40,40,0,-151,-25,0,0,100,0,240,320,40,40,0,-158,-27,0,0,100,0,200,320,40,40,0,-147,-25,0,0,100,0,120,320,40,40,0,-138,-22,0,0,100,0,240,320,40,40,0,-125,-23,0,0,100,0,280,320,40,40,0,-129,-31,1,0,100,0,120,440,40,40,0,-141,-31,1,0,100,0,120,360,40,40,0,-120,-28,1,0,100,0,200,320,40,40,0,-92,-23,0,0,100,0,240,320,40,40,0,-102,-26,1,0,100,0,280,320,40,40,0,-104,-34,0,0,100,0,160,400,40,40,0,-92,-28,0,0,100,0,280,320,40,40,0,-113,-28,1,0,100,0,280,320,40,40,0,-114,-36,1,1,100,0,80,400,40,40,0,-114,-36,1,1,100,0,80,400,40,40,0,-114,-36,1,0,100,0,80,400,40,40,0,-110,-79,0,0,100,0,480,320,80,80,0,-147,-72,1,0,100,0,320,240,80,80,0,-130,-94,0,1,100,0,504,400,56,96,0,-130,-94,0,0,100,0,504,400,56,96,0,-164,-74,1,0,100,0,400,240,80,80,0,-125,-84,1,1,100,0,320,320,80,80,0,-125,-84,1,0,100,0,320,320,80,80,0,-163,-27,0,0,100,0,160,320,40,40,0,-168,-28,1,0,100,0,280,320,40,40,0,-151,-33,1,0,100,0,80,440,40,40,0,-164,-32,1,0,100,0,80,360,40,40,0,-138,-111,1,1,100,0,560,400,80,96,0,-138,-111,1,0,100,0,560,400,80,96,0,-88,-98,1,0,100,0,512,496,56,96,0,-183,-33,1,0,100,0,80,360,40,40,0,-189,-64,1,0,100,0,400,248,80,80,0,-172,-35,1,0,100,0,120,360,40,40,0,-123,-106,1,1,100,0,400,320,80,80,0,-123,-106,1,0,100,0,400,320,80,80,0,-137,-60,0,0,100,0,120,400,40,40,0,-201,-131,0,0,100,0,400,400,104,112,0,-205,-93,1,0,100,0,400,248,80,80,0,-76,-36,0,0,100,0,200,840,40,40,0,-62,-44,0,0,100,0,200,880,40,40,0,-64,-53,0,0,100,0,160,920,40,40,0,-50,-47,0,0,100,0,320,920,40,40,0,-53,-79,0,0,100,0,400,960,40,80,0,-51,-72,1,0,100,0,320,920,40,40,0,-73,-98,3,0,100,0,800,960,80,80,0,-76,-12,0,0,65,0,0,320,56,24,0,-206,-12,0,0,65,0,0,344,56,24,0,
0,139,-250,-31,0,0,100,0,160,80,80,40,0,-210,-41,0,0,100,0,200,120,40,40,0,-206,-53,0,0,100,0,200,280,40,40,0,-198,-41,0,0,100,0,1096,504,40,40,0,-198,-43,0,0,100,0,40,120,40,40,0,-209,-32,0,0,100,0,160,200,40,40,0,-188,-32,0,0,100,0,160,240,40,40,0,-211,-41,0,0,100,0,160,120,40,40,0,-198,-41,0,0,100,0,1136,504,40,40,0,-223,-39,0,0,100,0,400,40,80,40,0,-212,-80,1,1,100,0,728,528,88,64,0,-167,-84,1,1,100,0,816,528,88,64,0,-142,-115,0,0,100,0,0,480,40,80,0,-112,-102,1,0,100,0,160,520,80,40,0,-128,-122,0,0,100,0,600,240,40,40,0,-111,-96,0,0,100,0,600,240,40,40,0,-121,-116,0,0,100,0,560,240,40,40,0,-101,-86,0,0,100,0,560,240,40,40,0,-119,-110,2,0,100,0,200,360,40,40,0,-109,-100,2,0,100,0,240,440,40,40,0,-99,-110,2,0,100,0,200,440,40,40,0,-109,-80,2,0,100,0,200,400,40,40,0,-129,-100,2,0,100,0,280,360,40,40,0,-172,-82,0,0,100,0,160,520,80,40,0,-127,-79,0,0,100,0,320,520,80,40,0,-64,-45,1,0,100,0,320,520,80,40,0,-109,-49,0,0,100,0,600,240,40,40,0,-139,-82,0,0,100,0,600,240,40,40,0,-115,-43,0,0,100,0,560,240,40,40,0,-91,-36,0,0,100,0,560,240,40,40,0,-136,-63,0,0,100,0,560,240,40,40,0,-41,-42,0,0,100,0,600,320,40,40,0,-96,-73,0,0,100,0,560,320,40,40,0,-59,-49,0,0,100,0,560,320,40,40,0,-114,-67,1,0,100,0,240,400,40,40,0,-143,-75,1,0,100,0,240,400,40,40,0,-140,-94,0,0,100,0,240,400,40,40,0,-133,-87,0,0,100,0,240,440,40,40,0,-106,-62,0,0,100,0,240,440,40,40,0,-76,-32,1,0,100,0,240,440,40,40,0,-114,-58,0,0,100,0,200,400,40,40,0,-132,-74,0,0,100,0,200,400,40,40,0,-101,-38,2,0,100,0,280,360,40,40,0,-105,-24,0,0,100,0,240,400,40,40,0,-85,-99,1,0,100,0,240,440,40,40,0,-8,-71,1,0,100,0,200,400,40,40,0,14,-40,0,0,100,0,200,400,40,40,0,-84,-48,3,0,100,0,280,360,40,40,0,-1,-42,2,0,100,0,280,360,40,40,0,-95,-28,0,0,100,0,560,240,40,40,0,-105,-38,0,0,100,0,560,280,40,40,0,-89,-58,0,0,100,0,560,320,40,40,0,-71,-29,0,0,100,0,560,320,40,40,0,-54,-31,0,0,100,0,560,360,40,40,0,-81,-35,0,0,100,0,600,240,40,40,0,-99,-23,0,0,100,0,600,240,40,40,0,-108,-35,0,0,100,0,600,280,40,40,0,-98,-65,0,0,100,0,600,320,40,40,0,-78,-45,0,0,100,0,600,320,40,40,0,-48,-45,0,0,100,0,600,360,40,40,0,-131,-60,0,0,100,0,320,520,80,40,0,-84,-28,1,0,100,0,240,480,80,40,0,-72,-105,1,0,100,0,80,480,40,80,0,-68,-55,1,0,100,0,320,520,80,40,0,-75,-33,1,0,100,0,320,520,80,40,0,-111,-68,0,0,100,0,40,480,40,80,0,-141,-50,0,0,100,0,240,520,80,40,0,-102,-16,1,0,100,0,160,480,80,40,0,-81,-51,0,0,100,0,80,480,40,80,0,-74,-37,2,0,100,0,240,400,40,40,0,-106,-52,0,0,100,0,240,360,40,40,0,-87,-30,1,0,100,0,200,440,40,40,0,6,-54,1,0,100,0,240,400,40,40,0,-75,-145,3,0,100,0,240,400,40,40,0,-164,-97,2,0,100,0,240,400,40,40,0,-136,-132,3,0,100,0,200,360,40,40,0,-36,-92,2,0,100,0,240,360,40,40,0,-147,-86,3,0,100,0,200,400,40,40,0,0,-22,3,0,100,0,200,440,40,40,0,-9,-82,1,0,100,0,200,440,40,40,0,-93,-48,3,0,100,0,200,360,40,40,0,-85,-38,3,0,100,0,240,440,40,40,0,-93,-26,3,0,100,0,240,400,40,40,0,-116,-48,1,0,100,0,240,400,40,40,0,-105,-36,2,0,100,0,200,400,40,40,0,-122,-37,0,0,100,0,200,360,40,40,0,-97,-70,0,0,100,0,240,360,40,40,0,-73,-47,1,0,100,0,240,400,40,40,0,-133,-65,0,0,100,0,200,360,40,40,0,-27,-52,0,0,100,0,240,440,40,40,0,-73,-62,2,0,100,0,200,360,40,40,0,-45,-54,1,0,100,0,240,440,40,40,0,-52,-70,3,0,100,0,240,400,40,40,0,-104,-64,1,0,100,0,240,400,40,40,0,-39,-26,0,0,100,0,240,400,40,40,0,-13,-42,1,0,100,0,200,440,40,40,0,-83,-76,0,0,100,0,200,360,40,40,0,-166,-23,0,0,100,0,120,320,40,40,0,-151,-25,0,0,100,0,240,320,40,40,0,-158,-27,0,0,100,0,200,320,40,40,0,-147,-25,0,0,100,0,120,320,40,40,0,-138,-22,0,0,100,0,240,320,40,40,0,-125,-23,0,0,100,0,280,320,40,40,0,-129,-31,1,1,100,0,120,440,40,40,0,-129,-31,1,1,100,0,120,440,40,40,0,-129,-31,1,0,100,0,120,440,40,40,0,-141,-31,1,0,100,0,120,360,40,40,0,-120,-28,1,0,100,0,200,320,40,40,0,-113,-28,1,0,100,0,280,320,40,40,0,-147,-72,1,1,100,0,320,240,80,80,0,-147,-72,1,0,100,0,320,240,80,80,0,-130,-94,0,0,100,0,504,496,56,96,0,-164,-74,1,1,100,0,400,240,80,80,0,-164,-74,1,0,100,0,400,240,80,80,0,-163,-27,0,0,100,0,160,320,40,40,0,-168,-28,1,0,100,0,280,320,40,40,0,-151,-33,1,0,100,0,80,440,40,40,0,-164,-32,1,0,100,0,80,360,40,40,0,-183,-33,1,0,100,0,80,360,40,40,0,-189,-64,1,0,100,0,400,248,80,80,0,-172,-35,1,0,100,0,120,360,40,40,0,-137,-60,0,0,100,0,120,400,40,40,0,-201,-131,0,1,100,0,400,400,104,112,0,-201,-131,0,0,100,0,400,400,104,112,0,-205,-93,1,1,100,0,400,248,80,80,0,-205,-93,1,0,100,0,400,248,80,80,0,-138,-111,1,0,100,0,560,496,80,96,0,-123,-106,1,0,100,0,480,320,80,80,0,-68,-37,0,0,100,0,200,840,40,40,0,-54,-45,0,0,100,0,200,880,40,40,0,-63,-51,0,0,100,0,160,920,40,40,0,-45,-49,0,0,100,0,320,920,40,40,0,-50,-77,0,0,100,0,400,960,40,80,0,-51,-73,1,0,100,0,320,920,40,40,0,-79,-75,0,0,100,0,320,840,80,40,0,-100,-72,0,0,100,0,320,880,80,40,0,-109,-90,1,0,100,0,800,880,80,80,0,-79,-12,0,0,65,0,0,320,56,24,0,-206,-12,0,0,65,0,0,344,56,24,0,
0,142,-249,-32,0,0,100,0,160,80,80,40,0,-209,-42,0,0,100,0,200,120,40,40,0,-202,-55,0,0,100,0,200,280,40,40,0,-194,-45,0,0,100,0,120,40,40,40,0,-206,-29,0,0,100,0,240,200,40,40,0,-208,-25,0,0,100,0,240,240,40,40,0,-214,-41,0,0,100,0,240,120,40,40,0,-208,-45,1,0,100,0,0,160,40,40,0,-220,-40,0,0,100,0,400,40,80,40,0,-212,-80,1,1,100,0,816,528,88,64,0,-167,-84,1,1,100,0,904,528,88,64,0,-152,-125,1,0,100,0,0,480,40,80,0,-222,-92,0,0,100,0,160,520,80,40,0,-142,-115,0,0,100,0,40,480,40,80,0,-112,-102,1,0,100,0,240,520,80,40,0,-201,-146,0,0,100,0,600,240,40,40,0,-171,-126,0,0,100,0,600,240,40,40,0,-171,-96,0,0,100,0,600,240,40,40,0,-201,-126,0,0,100,0,560,240,40,40,0,-191,-86,0,0,100,0,560,240,40,40,0,-181,-116,0,0,100,0,560,240,40,40,0,-128,-122,0,0,100,0,600,280,40,40,0,-111,-96,0,0,100,0,600,280,40,40,0,-121,-116,0,0,100,0,560,280,40,40,0,-101,-86,0,0,100,0,560,280,40,40,0,-149,-140,2,0,100,0,240,400,40,40,0,-169,-150,0,0,100,0,200,360,40,40,0,-209,-120,2,0,100,0,240,440,40,40,0,-199,-80,0,0,100,0,200,440,40,40,0,-169,-110,2,0,100,0,200,400,40,40,0,-189,-140,0,0,100,0,280,360,40,40,0,-189,-100,2,0,100,0,280,360,40,40,0,-109,-150,2,0,100,0,200,360,40,40,0,-89,-90,2,0,100,0,240,440,40,40,0,-79,-130,2,0,100,0,200,440,40,40,0,-79,-100,2,0,100,0,200,400,40,40,0,-159,-120,2,0,100,0,280,360,40,40,0,-132,-82,1,0,100,0,0,480,40,80,0,-172,-82,0,0,100,0,240,520,80,40,0,-159,-61,0,0,100,0,600,240,40,40,0,-153,-50,0,0,100,0,560,240,40,40,0,-109,-49,0,0,100,0,600,280,40,40,0,-139,-82,0,0,100,0,600,280,40,40,0,-115,-43,0,0,100,0,560,280,40,40,0,-91,-36,0,0,100,0,560,280,40,40,0,-136,-63,0,0,100,0,560,280,40,40,0,-41,-42,0,0,100,0,600,360,40,40,0,-96,-73,0,0,100,0,560,360,40,40,0,-59,-49,0,0,100,0,560,360,40,40,0,-158,-73,0,0,100,0,240,400,40,40,0,-155,-67,1,0,100,0,240,440,40,40,0,-154,-57,0,0,100,0,200,440,40,40,0,-94,-97,1,0,100,0,240,400,40,40,0,-173,-65,1,0,100,0,240,400,40,40,0,-170,-94,0,0,100,0,240,400,40,40,0,-153,-107,0,0,100,0,240,440,40,40,0,-96,-82,0,0,100,0,240,440,40,40,0,-56,-42,1,0,100,0,240,440,40,40,0,-94,-68,1,0,100,0,200,440,40,40,0,-152,-84,0,0,100,0,200,440,40,40,0,-119,-50,2,0,100,0,280,360,40,40,0,-125,-24,0,0,100,0,240,400,40,40,0,-105,-109,1,0,100,0,240,440,40,40,0,14,-69,1,0,100,0,200,400,40,40,0,25,-27,0,0,100,0,200,440,40,40,0,-96,-30,3,0,100,0,280,360,40,40,0,-138,-41,0,0,100,0,560,240,40,40,0,-122,-32,0,0,100,0,560,240,40,40,0,-95,-28,0,0,100,0,560,280,40,40,0,-105,-38,0,0,100,0,560,320,40,40,0,-89,-58,0,0,100,0,560,360,40,40,0,-71,-29,0,0,100,0,560,360,40,40,0,-137,-46,0,0,100,0,600,240,40,40,0,-121,-25,0,0,100,0,600,240,40,40,0,-81,-35,0,0,100,0,600,280,40,40,0,-99,-23,0,0,100,0,600,280,40,40,0,-108,-35,0,0,100,0,600,320,40,40,0,-98,-65,0,0,100,0,600,360,40,40,0,-78,-45,0,0,100,0,600,360,40,40,0,-84,-28,1,0,100,0,320,480,80,40,0,-72,-105,1,0,100,0,120,480,40,80,0,-171,-47,0,0,100,0,160,520,80,40,0,-111,-68,0,0,100,0,80,480,40,80,0,-138,-47,1,0,100,0,160,520,80,40,0,-141,-50,0,0,100,0,320,520,80,40,0,-102,-16,1,0,100,0,240,480,80,40,0,-81,-51,0,0,100,0,120,480,40,80,0,-3,-32,2,0,100,0,240,400,40,40,0,-146,-92,0,0,100,0,240,440,40,40,0,-17,-80,1,0,100,0,200,400,40,40,0,-142,-56,1,0,100,0,240,400,40,40,0,-143,-39,3,0,100,0,240,400,40,40,0,-145,-47,1,0,100,0,240,360,40,40,0,-125,-37,1,0,100,0,200,360,40,40,0,-91,-60,0,0,100,0,200,360,40,40,0,-73,-49,0,0,100,0,240,440,40,40,0,-73,-29,3,0,100,0,240,400,40,40,0,-118,-68,1,0,100,0,240,400,40,40,0,-124,-46,2,0,100,0,200,440,40,40,0,-162,-47,2,0,100,0,200,360,40,40,0,-85,-79,1,0,100,0,240,360,40,40,0,-60,-50,1,0,100,0,240,400,40,40,0,-144,-69,1,0,100,0,200,360,40,40,0,-17,-42,3,0,100,0,240,440,40,40,0,-59,-66,3,0,100,0,200,360,40,40,0,-31,-56,1,0,100,0,240,440,40,40,0,-166,-23,0,0,100,0,120,320,40,40,0,-151,-25,0,0,100,0,240,320,40,40,0,-158,-27,0,0,100,0,200,320,40,40,0,-147,-25,0,0,100,0,120,320,40,40,0,-138,-22,0,0,100,0,240,320,40,40,0,-125,-23,0,0,100,0,280,320,40,40,0,-129,-31,1,0,100,0,160,440,40,40,0,-141,-31,1,1,100,0,120,360,40,40,0,-141,-31,1,1,100,0,120,360,40,40,0,-141,-31,1,0,100,0,120,360,40,40,0,-164,-74,1,0,100,0,480,240,80,80,0,-163,-27,0,0,100,0,160,320,40,40,0,-168,-28,1,0,100,0,280,320,40,40,0,-151,-33,1,0,100,0,80,440,40,40,0,-164,-32,1,0,100,0,80,360,40,40,0,-183,-33,1,0,100,0,80,360,40,40,0,-189,-64,1,0,100,0,400,248,80,80,0,-172,-35,1,0,100,0,120,360,40,40,0,-137,-60,0,0,100,0,120,400,40,40,0,-138,-111,1,0,100,0,560,496,80,96,0,-123,-106,1,0,100,0,480,320,80,80,0,-164,-74,1,0,100,0,480,240,80,80,0,-201,-131,0,0,100,0,400,512,104,112,0,-205,-93,1,0,100,0,480,248,80,80,0,-44,-54,0,0,100,0,160,840,40,40,0,-33,-65,0,0,100,0,160,880,40,40,0,-39,-72,0,0,100,0,160,920,40,40,0,-35,-76,1,0,100,0,160,920,40,40,0,-36,-71,1,0,100,0,320,920,40,40,0,-49,-83,1,0,100,0,320,920,40,40,0,-60,-71,0,0,100,0,320,840,80,40,0,-76,-86,0,0,100,0,320,840,80,40,0,-76,-71,0,0,100,0,320,880,80,40,0,-103,-97,1,0,100,0,720,880,80,80,0,-72,-12,0,0,65,0,0,320,56,24,0,-214,-12,0,0,65,0,0,368,56,24,0,
0,137,-184,-99,0,0,100,0,480,40,80,40,0,-162,-91,0,0,100,0,0,40,40,40,0,-213,-81,0,0,100,0,160,80,80,40,0,-173,-91,0,0,100,0,0,120,40,40,0,-152,-91,0,0,100,0,120,40,40,40,0,-167,-72,0,0,100,0,240,200,40,40,0,-169,-71,0,0,100,0,240,240,40,40,0,-160,-103,0,0,100,0,0,0,40,40,0,-160,-103,0,0,100,0,160,0,24,40,0,-172,-88,0,0,100,0,240,120,40,40,0,-214,-77,0,0,80,0,640,528,88,64,0,-212,-80,1,1,100,0,904,528,88,64,0,-212,-32,1,0,100,0,0,560,80,40,0,-152,-125,1,0,100,0,40,480,40,80,0,-222,-92,0,0,100,0,240,520,80,40,0,-142,-115,0,0,100,0,80,480,40,80,0,-112,-102,1,0,100,0,320,520,80,40,0,-111,-66,0,0,100,0,600,240,40,40,0,-101,-66,0,0,100,0,560,240,40,40,0,-201,-146,0,0,100,0,600,280,40,40,0,-171,-126,0,0,100,0,600,280,40,40,0,-171,-96,0,0,100,0,600,280,40,40,0,-201,-126,0,0,100,0,560,280,40,40,0,-191,-86,0,0,100,0,560,280,40,40,0,-181,-116,0,0,100,0,560,280,40,40,0,-128,-122,0,0,100,0,600,320,40,40,0,-111,-96,0,0,100,0,600,320,40,40,0,-121,-116,0,0,100,0,560,320,40,40,0,-101,-86,0,0,100,0,560,320,40,40,0,-209,-70,2,0,100,0,240,400,40,40,0,-149,-70,0,0,100,0,200,360,40,40,0,-189,-50,2,0,100,0,240,440,40,40,0,-189,-40,0,0,100,0,200,440,40,40,0,-169,-50,2,0,100,0,200,400,40,40,0,-102,-113,2,0,100,0,240,400,40,40,0,-109,-80,0,0,100,0,200,360,40,40,0,-129,-100,2,0,100,0,240,440,40,40,0,-89,-80,0,0,100,0,200,440,40,40,0,-119,-70,2,0,100,0,200,400,40,40,0,-109,-50,2,0,100,0,280,360,40,40,0,-129,-140,2,0,100,0,240,400,40,40,0,-179,-180,0,0,100,0,200,360,40,40,0,-249,-140,2,0,100,0,240,440,40,40,0,-239,-60,0,0,100,0,200,440,40,40,0,-189,-150,2,0,100,0,200,400,40,40,0,-209,-180,2,0,100,0,280,360,40,40,0,-229,-110,1,0,100,0,280,360,40,40,0,-97,-161,2,0,100,0,200,360,40,40,0,-69,-70,2,0,100,0,240,440,40,40,0,-49,-140,2,0,100,0,200,440,40,40,0,-57,-96,2,0,100,0,200,400,40,40,0,-179,-124,2,0,100,0,280,360,40,40,0,-132,-82,1,0,100,0,40,480,40,80,0,-172,-82,0,0,100,0,320,520,80,40,0,-159,-61,0,0,100,0,600,280,40,40,0,-153,-50,0,0,100,0,560,280,40,40,0,-109,-49,0,0,100,0,600,320,40,40,0,-139,-82,0,0,100,0,600,320,40,40,0,-115,-43,0,0,100,0,560,320,40,40,0,-91,-36,0,0,100,0,560,320,40,40,0,-136,-63,0,0,100,0,560,320,40,40,0,-138,-89,1,0,100,0,240,400,40,40,0,-180,-71,1,0,100,0,240,440,40,40,0,-184,-37,0,0,100,0,200,400,40,40,0,-84,-101,1,0,100,0,240,400,40,40,0,-188,-45,1,0,100,0,240,400,40,40,0,-194,-92,0,0,100,0,240,400,40,40,0,-165,-112,0,0,100,0,240,440,40,40,0,-62,-90,0,0,100,0,240,440,40,40,0,-26,-32,2,0,100,0,240,440,40,40,0,-74,-48,1,0,100,0,200,440,40,40,0,-172,-85,0,0,100,0,200,440,40,40,0,-139,-60,2,0,100,0,280,360,40,40,0,-148,-31,0,0,100,0,560,240,40,40,0,-138,-41,0,0,100,0,560,280,40,40,0,-122,-32,0,0,100,0,560,280,40,40,0,-95,-28,0,0,100,0,560,320,40,40,0,-105,-38,0,0,100,0,560,360,40,40,0,-147,-31,0,0,100,0,600,240,40,40,0,-137,-46,0,0,100,0,600,280,40,40,0,-121,-25,0,0,100,0,600,280,40,40,0,-81,-35,0,0,100,0,600,320,40,40,0,-99,-23,0,0,100,0,600,320,40,40,0,-108,-35,0,0,100,0,600,360,40,40,0,-171,-47,0,0,100,0,240,520,80,40,0,-111,-68,0,0,100,0,120,480,40,80,0,-138,-47,1,0,100,0,240,520,80,40,0,-172,-16,0,0,100,0,160,480,80,40,0,-102,-16,1,0,100,0,320,480,80,40,0,-188,-25,1,0,100,0,0,560,80,40,0,-43,-42,2,0,100,0,240,400,40,40,0,-126,-82,0,0,100,0,240,360,40,40,0,-47,-70,1,0,100,0,200,440,40,40,0,-149,-49,1,0,100,0,240,400,40,40,0,-145,-45,0,0,100,0,200,360,40,40,0,-149,-29,0,0,100,0,240,400,40,40,0,-135,-37,0,0,100,0,240,360,40,40,0,-152,-66,1,0,100,0,240,400,40,40,0,-173,-29,3,0,100,0,240,400,40,40,0,-165,-57,2,0,100,0,240,360,40,40,0,-149,-40,1,0,100,0,200,360,40,40,0,-76,-61,1,0,100,0,200,360,40,40,0,-52,-51,1,0,100,0,240,440,40,40,0,-58,-31,3,0,100,0,240,400,40,40,0,-126,-78,2,0,100,0,240,400,40,40,0,-135,-49,0,0,100,0,200,400,40,40,0,-170,-39,3,0,100,0,200,360,40,40,0,-79,-81,2,0,100,0,240,360,40,40,0,-166,-23,0,0,100,0,120,320,40,40,0,-151,-25,0,0,100,0,240,320,40,40,0,-158,-27,0,0,100,0,200,320,40,40,0,-147,-25,0,0,100,0,120,320,40,40,0,-138,-22,0,0,100,0,240,320,40,40,0,-141,-31,1,0,100,0,160,360,40,40,0,-164,-74,1,0,100,0,480,240,80,80,0,-163,-27,0,0,100,0,160,320,40,40,0,-168,-28,1,0,100,0,280,320,40,40,0,-151,-33,1,0,100,0,80,440,40,40,0,-164,-32,1,0,100,0,80,360,40,40,0,-183,-33,1,0,100,0,80,360,40,40,0,-137,-60,0,0,100,0,120,400,40,40,0,-189,-64,1,0,100,0,480,248,80,80,0,-164,-74,1,0,100,0,480,240,80,80,0,-201,-131,0,0,100,0,400,512,104,112,0,-205,-93,1,0,100,0,480,248,80,80,0,-38,-56,0,0,100,0,160,840,40,40,0,-30,-66,0,0,100,0,160,880,40,40,0,-37,-73,0,0,100,0,160,920,40,40,0,-33,-77,1,0,100,0,160,920,40,40,0,-33,-74,1,0,100,0,320,920,40,40,0,-42,-84,1,0,100,0,320,920,40,40,0,-59,-72,0,0,100,0,320,840,80,40,0,-71,-86,0,0,100,0,320,840,80,40,0,-74,-72,0,0,100,0,320,880,80,40,0,-101,-98,1,0,100,0,640,880,80,80,0,-69,-12,0,0,65,0,0,320,56,24,0,-171,-12,0,0,65,0,0,368,56,24,0,
0,128,-158,-119,0,0,100,0,480,40,80,40,0,-136,-111,0,0,100,0,0,40,40,40,0,-187,-101,0,0,100,0,160,80,80,40,0,-147,-111,0,0,100,0,0,120,40,40,0,-126,-111,0,0,100,0,120,40,40,40,0,-141,-92,0,0,100,0,240,200,40,40,0,-143,-91,0,0,100,0,240,240,40,40,0,-134,-123,0,0,100,0,0,0,40,40,0,-134,-123,0,0,100,0,160,0,24,40,0,-146,-108,0,0,100,0,240,120,40,40,0,-183,-112,0,0,80,0,640,528,88,64,0,-197,-97,0,0,40,0,640,528,88,64,0,-142,-52,1,0,100,0,160,480,80,40,0,-212,-32,1,0,100,0,80,560,80,40,0,-152,-125,1,0,100,0,80,480,40,80,0,-222,-92,0,0,100,0,320,520,80,40,0,-142,-115,0,0,100,0,120,480,40,80,0,-141,-76,0,0,100,0,600,240,40,40,0,-211,-66,0,0,100,0,600,240,40,40,0,-161,-66,0,0,100,0,600,240,40,40,0,-191,-76,0,0,100,0,600,240,40,40,0,-201,-56,0,0,100,0,560,240,40,40,0,-151,-66,0,0,100,0,560,240,40,40,0,-171,-56,0,0,100,0,560,240,40,40,0,-181,-76,0,0,100,0,560,240,40,40,0,-111,-66,0,0,100,0,600,280,40,40,0,-101,-66,0,0,100,0,560,280,40,40,0,-201,-146,0,0,100,0,600,320,40,40,0,-171,-126,0,0,100,0,600,320,40,40,0,-171,-96,0,0,100,0,600,320,40,40,0,-201,-126,0,0,100,0,560,320,40,40,0,-191,-86,0,0,100,0,560,320,40,40,0,-181,-116,0,0,100,0,560,320,40,40,0,-128,-122,0,0,100,0,600,360,40,40,0,-111,-96,0,0,100,0,600,360,40,40,0,-121,-116,0,0,100,0,560,360,40,40,0,-101,-86,0,0,100,0,560,360,40,40,0,-189,-130,2,0,100,0,240,400,40,40,0,-129,-60,0,0,100,0,200,360,40,40,0,-209,-110,2,0,100,0,240,440,40,40,0,-209,-80,0,0,100,0,200,440,40,40,0,-189,-60,0,0,100,0,200,400,40,40,0,-129,-70,0,0,100,0,280,360,40,40,0,-169,-60,3,0,100,0,280,360,40,40,0,-239,-70,2,0,100,0,240,400,40,40,0,-189,-100,0,0,100,0,200,360,40,40,0,-219,-60,1,0,100,0,240,440,40,40,0,-229,-30,0,0,100,0,200,440,40,40,0,-189,-80,0,0,100,0,200,400,40,40,0,-62,-143,2,0,100,0,240,400,40,40,0,-59,-110,0,0,100,0,200,360,40,40,0,-169,-140,2,0,100,0,240,440,40,40,0,-49,-70,0,0,100,0,200,440,40,40,0,-89,-90,2,0,100,0,200,400,40,40,0,-149,-70,2,0,100,0,280,360,40,40,0,-104,-135,2,0,100,0,240,400,40,40,0,-189,-190,0,0,100,0,200,360,40,40,0,-272,-137,2,0,100,0,240,440,40,40,0,-279,-40,1,0,100,0,200,440,40,40,0,-229,-160,2,0,100,0,200,400,40,40,0,-239,-190,1,0,100,0,280,360,40,40,0,-249,-80,3,0,100,0,280,360,40,40,0,-132,-82,1,0,100,0,80,480,40,80,0,-159,-61,0,0,100,0,600,320,40,40,0,-153,-50,0,0,100,0,560,320,40,40,0,-109,-49,0,0,100,0,600,360,40,40,0,-139,-82,0,0,100,0,600,360,40,40,0,-115,-43,0,0,100,0,560,360,40,40,0,-91,-36,0,0,100,0,560,360,40,40,0,-136,-63,0,0,100,0,560,360,40,40,0,-136,-35,1,0,100,0,200,360,40,40,0,-127,-34,0,0,100,0,200,440,40,40,0,-128,-91,1,0,100,0,240,400,40,40,0,-194,-53,1,0,100,0,200,360,40,40,0,-204,-25,0,0,100,0,200,440,40,40,0,-74,-102,1,0,100,0,240,400,40,40,0,-206,-41,1,0,100,0,240,400,40,40,0,-208,-89,0,0,100,0,240,400,40,40,0,-175,-116,0,0,100,0,240,440,40,40,0,-42,-92,0,0,100,0,240,440,40,40,0,-16,-22,2,0,100,0,240,440,40,40,0,-64,-38,0,0,100,0,200,400,40,40,0,-193,-73,1,0,100,0,200,400,40,40,0,-151,-42,0,0,100,0,280,360,40,40,0,-148,-31,0,0,100,0,560,280,40,40,0,-138,-41,0,0,100,0,560,320,40,40,0,-122,-32,0,0,100,0,560,320,40,40,0,-95,-28,0,0,100,0,560,360,40,40,0,-147,-31,0,0,100,0,600,280,40,40,0,-137,-46,0,0,100,0,600,320,40,40,0,-121,-25,0,0,100,0,600,240,40,40,0,-81,-35,0,0,100,0,600,360,40,40,0,-99,-23,0,0,100,0,600,360,40,40,0,-171,-47,0,0,100,0,320,520,80,40,0,-138,-47,1,0,100,0,320,520,80,40,0,-172,-16,0,0,100,0,240,480,80,40,0,-188,-25,1,0,100,0,80,560,80,40,0,-140,-20,3,0,100,0,240,440,40,40,0,-160,-37,3,0,100,0,240,400,40,40,0,-136,-38,2,0,100,0,240,400,40,40,0,-160,-25,2,0,100,0,240,360,40,40,0,-149,-29,2,0,100,0,200,360,40,40,0,-169,-69,2,0,100,0,240,400,40,40,0,-133,-65,1,0,100,0,200,360,40,40,0,-129,-25,0,0,100,0,240,400,40,40,0,-112,-32,0,0,100,0,240,440,40,40,0,-160,-86,1,0,100,0,240,400,40,40,0,-195,-25,3,0,100,0,240,400,40,40,0,-180,-60,3,0,100,0,240,360,40,40,0,-170,-42,2,0,100,0,200,360,40,40,0,-71,-63,2,0,100,0,200,360,40,40,0,-38,-51,2,0,100,0,240,440,40,40,0,-163,-27,0,0,100,0,160,320,40,40,0,-168,-28,1,0,100,0,280,320,40,40,0,-164,-32,1,0,100,0,80,360,40,40,0,-189,-64,1,0,100,0,480,248,80,80,0,-34,-57,0,0,100,0,160,840,40,40,0,-27,-67,0,0,100,0,160,880,40,40,0,-35,-74,0,0,100,0,160,920,40,40,0,-31,-78,1,0,100,0,160,920,40,40,0,-31,-75,1,0,100,0,320,920,40,40,0,-40,-85,1,0,100,0,320,920,40,40,0,-57,-74,0,0,100,0,320,840,80,40,0,-69,-88,0,0,100,0,320,840,80,40,0,-72,-77,0,0,100,0,320,880,80,40,0,-99,-100,1,0,100,0,640,880,80,80,0,-65,-12,0,0,65,0,0,320,56,24,0,-145,-12,0,0,65,0,0,368,56,24,0,
0,84,-133,-128,0,0,100,0,480,40,80,40,0,-111,-120,0,0,100,0,0,40,40,40,0,-162,-110,0,0,100,0,160,80,80,40,0,-122,-120,0,0,100,0,0,120,40,40,0,-101,-120,0,0,100,0,120,40,40,40,0,-116,-101,0,0,100,0,240,200,40,40,0,-118,-100,0,0,100,0,240,240,40,40,0,-109,-132,0,0,100,0,0,0,40,40,0,-109,-132,0,0,100,0,160,0,24,40,0,-121,-117,0,0,100,0,240,120,40,40,0,-157,-126,0,0,80,0,640,528,88,64,0,-173,-117,0,0,40,0,640,528,88,64,0,-142,-52,1,0,100,0,240,480,80,40,0,-212,-32,1,0,100,0,160,560,80,40,0,-152,-125,1,0,100,0,120,480,40,80,0,-141,-76,0,0,100,0,600,280,40,40,0,-211,-66,0,0,100,0,600,280,40,40,0,-161,-66,0,0,100,0,600,280,40,40,0,-191,-76,0,0,100,0,600,280,40,40,0,-201,-56,0,0,100,0,560,280,40,40,0,-151,-66,0,0,100,0,560,280,40,40,0,-171,-56,0,0,100,0,560,280,40,40,0,-181,-76,0,0,100,0,560,280,40,40,0,-111,-66,0,0,100,0,600,320,40,40,0,-101,-66,0,0,100,0,560,320,40,40,0,-201,-146,0,0,100,0,600,360,40,40,0,-171,-126,0,0,100,0,600,360,40,40,0,-171,-96,0,0,100,0,600,360,40,40,0,-201,-126,0,0,100,0,560,360,40,40,0,-191,-86,0,0,100,0,560,360,40,40,0,-181,-116,0,0,100,0,560,360,40,40,0,-229,-160,2,0,100,0,240,400,40,40,0,-109,-70,0,0,100,0,200,360,40,40,0,-229,-130,2,0,100,0,240,440,40,40,0,-239,-70,0,0,100,0,200,440,40,40,0,-229,-40,0,0,100,0,200,400,40,40,0,-99,-90,1,0,100,0,280,360,40,40,0,-199,-90,3,0,100,0,280,360,40,40,0,-259,-100,2,0,100,0,240,400,40,40,0,-209,-120,0,0,100,0,200,360,40,40,0,-269,-50,1,0,100,0,240,440,40,40,0,-249,-20,0,0,100,0,200,440,40,40,0,-219,-100,0,0,100,0,200,400,40,40,0,-55,-157,2,0,100,0,240,400,40,40,0,-37,-106,0,0,100,0,200,360,40,40,0,-193,-138,2,0,100,0,240,440,40,40,0,-29,-40,0,0,100,0,200,440,40,40,0,-69,-70,2,0,100,0,200,400,40,40,0,-199,-50,0,0,100,0,280,360,40,40,0,-132,-82,1,0,100,0,120,480,40,80,0,-159,-61,0,0,100,0,600,360,40,40,0,-153,-50,0,0,100,0,560,360,40,40,0,-140,-55,1,0,100,0,200,360,40,40,0,-107,-44,0,0,100,0,200,440,40,40,0,-148,-31,0,0,100,0,560,320,40,40,0,-138,-41,0,0,100,0,560,360,40,40,0,-122,-32,0,0,100,0,560,360,40,40,0,-147,-31,0,0,100,0,600,320,40,40,0,-137,-46,0,0,100,0,600,360,40,40,0,-121,-25,0,0,100,0,600,360,40,40,0,-172,-16,0,0,100,0,320,480,80,40,0,-188,-25,1,0,100,0,160,560,80,40,0,-123,-32,0,0,100,0,240,440,40,40,0,-177,-42,3,0,100,0,240,400,40,40,0,-130,-48,3,0,100,0,240,400,40,40,0,-180,-30,1,0,100,0,240,360,40,40,0,-156,-50,3,0,100,0,200,360,40,40,0,-189,-71,3,0,100,0,240,400,40,40,0,-123,-75,2,0,100,0,200,360,40,40,0,-112,-27,1,0,100,0,240,400,40,40,0,-95,-34,1,0,100,0,240,440,40,40,0,-164,-90,2,0,100,0,240,400,40,40,0,-33,-57,0,0,100,0,160,840,40,40,0,-26,-67,0,0,100,0,160,880,40,40,0,-34,-74,0,0,100,0,160,920,40,40,0,-30,-78,1,0,100,0,160,920,40,40,0,-30,-75,1,0,100,0,320,920,40,40,0,-39,-85,1,0,100,0,320,920,40,40,0,-56,-74,0,0,100,0,320,840,80,40,0,-68,-88,0,0,100,0,320,840,80,40,0,-71,-77,0,0,100,0,320,880,80,40,0,-98,-100,1,0,100,0,640,880,80,80,0,-64,-12,0,0,65,0,0,320,56,24,0,-121,-12,0,0,65,0,0,368,56,24,0,
0,54,-103,-124,0,0,100,0,480,40,80,40,0,-81,-116,0,0,100,0,0,40,40,40,0,-132,-106,0,0,100,0,160,80,80,40,0,-92,-116,0,0,100,0,0,120,40,40,0,-71,-116,0,0,100,0,120,40,40,40,0,-86,-97,0,0,100,0,240,200,40,40,0,-88,-96,0,0,100,0,240,240,40,40,0,-79,-128,0,0,100,0,0,0,40,40,0,-79,-128,0,0,100,0,160,0,24,40,0,-91,-113,0,0,100,0,240,120,40,40,0,-126,-130,0,0,80,0,640,528,88,64,0,-150,-128,0,0,40,0,640,528,88,64,0,-142,-52,1,0,100,0,320,480,80,40,0,-212,-32,1,0,100,0,240,560,80,40,0,-141,-76,0,0,100,0,600,320,40,40,0,-211,-66,0,0,100,0,600,320,40,40,0,-161,-66,0,0,100,0,600,320,40,40,0,-191,-76,0,0,100,0,600,320,40,40,0,-201,-56,0,0,100,0,560,320,40,40,0,-151,-66,0,0,100,0,560,320,40,40,0,-171,-56,0,0,100,0,560,320,40,40,0,-181,-76,0,0,100,0,560,320,40,40,0,-111,-66,0,0,100,0,600,360,40,40,0,-101,-66,0,0,100,0,560,360,40,40,0,-249,-170,2,0,100,0,240,400,40,40,0,-99,-50,0,0,100,0,200,360,40,40,0,-259,-140,2,0,100,0,240,440,40,40,0,-269,-40,0,0,100,0,200,440,40,40,0,-249,-50,0,0,100,0,200,400,40,40,0,-79,-60,1,0,100,0,280,360,40,40,0,-219,-60,3,0,100,0,280,360,40,40,0,-160,-55,3,0,100,0,200,360,40,40,0,-87,-34,0,0,100,0,200,400,40,40,0,-148,-31,0,0,100,0,560,360,40,40,0,-147,-31,0,0,100,0,600,360,40,40,0,-188,-25,1,0,100,0,240,560,80,40,0,-103,-33,1,0,100,0,240,440,40,40,0,-218,-43,1,0,100,0,240,400,40,40,0,-119,-53,2,0,100,0,240,400,40,40,0,-192,-36,1,0,100,0,240,360,40,40,0,-168,-66,2,0,100,0,200,360,40,40,0,-199,-72,3,0,100,0,240,400,40,40,0,-32,-58,0,0,100,0,160,840,40,40,0,-25,-68,0,0,100,0,160,880,40,40,0,-33,-75,0,0,100,0,160,920,40,40,0,-29,-79,1,0,100,0,160,920,40,40,0,-29,-76,1,0,100,0,320,920,40,40,0,-38,-86,1,0,100,0,320,920,40,40,0,-55,-75,0,0,100,0,320,840,80,40,0,-67,-89,0,0,100,0,320,840,80,40,0,-70,-78,0,0,100,0,320,880,80,40,0,-97,-101,1,0,100,0,640,880,80,80,0,-63,-12,0,0,65,0,0,320,56,24,0,-90,-12,0,0,65,0,0,368,56,24,0,
0,36,-90,-22,1,0,100,0,240,360,40,40,0,-232,-40,2,0,100,0,240,400,40,40,0,-107,-59,3,0,100,0,240,400,40,40,0,-31,-99,1,0,100,0,80,720,40,40,0,-45,-92,0,0,100,0,0,760,40,40,0,-38,-91,0,0,100,0,80,800,40,40,0,-39,-72,0,0,100,0,0,840,40,40,0,-13,-96,0,0,100,0,160,720,40,40,0,-23,-106,0,0,100,0,0,920,40,40,0,-54,-98,0,0,100,0,80,960,40,40,0,-29,-82,0,0,100,0,0,880,40,40,0,-141,-76,0,0,100,0,600,360,40,40,0,-211,-66,0,0,100,0,600,360,40,40,0,-161,-66,0,0,100,0,600,360,40,40,0,-191,-76,0,0,100,0,600,360,40,40,0,-201,-56,0,0,100,0,560,360,40,40,0,-151,-66,0,0,100,0,560,360,40,40,0,-171,-56,0,0,100,0,560,360,40,40,0,-181,-76,0,0,100,0,560,360,40,40,0,-254,-177,2,0,100,0,240,400,40,40,0,-79,-40,0,0,100,0,200,360,40,40,0,-289,-135,2,0,100,0,240,440,40,40,0,-279,-30,2,0,100,0,200,440,40,40,0,-30,-48,0,0,100,0,160,840,40,40,0,-21,-58,0,0,100,0,160,880,40,40,0,-29,-65,0,0,100,0,160,920,40,40,0,-25,-69,1,0,100,0,160,920,40,40,0,-25,-66,1,0,100,0,320,920,40,40,0,-32,-76,1,0,100,0,320,920,40,40,0,-50,-65,0,0,100,0,320,840,80,40,0,-62,-80,0,0,100,0,320,840,80,40,0,-64,-68,0,0,100,0,320,880,80,40,0,-89,-94,1,0,100,0,720,880,80,80,0,-85,-118,0,0,80,0,640,528,88,64,0,-116,-128,0,0,40,0,640,528,88,64,0,-53,-12,0,0,65,0,0,320,56,24,0,
0,17,-26,-40,0,0,100,0,160,840,40,40,0,-16,-50,0,0,100,0,160,880,40,40,0,-26,-80,0,0,100,0,0,720,40,40,0,-36,-70,0,0,100,0,0,760,40,40,0,-26,-70,0,0,100,0,0,800,40,40,0,-26,-50,0,0,100,0,0,840,40,40,0,-16,-60,0,0,100,0,160,920,40,40,0,-6,-70,0,0,100,0,160,720,40,40,0,-16,-80,0,0,100,0,0,920,40,40,0,-46,-80,0,0,100,0,0,960,40,40,0,-16,-60,0,0,100,0,0,880,40,40,0,-46,-90,0,0,100,0,160,960,80,80,0,-66,-81,0,0,100,0,320,840,80,40,0,-76,-72,0,0,100,0,320,880,80,40,0,-86,-88,1,0,100,0,800,880,80,80,0,-76,-108,0,0,40,0,640,528,88,64,0,-42,-12,0,0,65,0,0,320,56,24,0,
0,16,-20,-33,0,0,100,0,160,840,40,40,0,-11,-42,0,0,100,0,200,880,40,40,0,-20,-72,0,0,100,0,120,720,40,40,0,-30,-63,0,0,100,0,120,760,40,40,0,-20,-62,0,0,100,0,120,800,40,40,0,-20,-41,0,0,100,0,40,840,40,40,0,-11,-51,0,0,100,0,160,920,40,40,0,0,-63,0,0,100,0,160,720,40,40,0,-10,-73,0,0,100,0,0,920,40,40,0,-40,-72,0,0,100,0,120,960,40,40,0,-10,-51,0,0,100,0,0,880,40,40,0,-40,-81,0,0,100,0,240,960,80,80,0,-60,-72,0,0,100,0,400,840,80,40,0,-70,-61,0,0,100,0,320,880,80,40,0,-39,-71,0,0,100,0,720,960,80,80,0,-31,-12,0,0,65,0,0,320,56,24,0,
0,16,-16,-28,0,0,100,0,160,840,40,40,0,-8,-38,0,0,100,0,160,880,40,40,0,-17,-68,0,0,100,0,80,720,40,40,0,-28,-59,0,0,100,0,80,760,40,40,0,-17,-58,0,0,100,0,80,800,40,40,0,-17,-38,0,0,100,0,0,840,40,40,0,-7,-48,0,0,100,0,160,920,40,40,0,5,-55,0,0,100,0,160,720,40,40,0,-5,-65,0,0,100,0,0,920,40,40,0,-37,-68,0,0,100,0,80,960,40,40,0,-7,-48,0,0,100,0,0,880,40,40,0,-38,-79,0,0,100,0,160,960,80,80,0,-57,-69,0,0,100,0,320,840,80,40,0,-67,-59,0,0,100,0,320,880,80,40,0,-38,-71,0,0,100,0,480,960,80,80,0,-25,-12,0,0,65,0,0,320,56,24,0,
0,16,-18,-30,0,0,100,0,160,840,40,40,0,-9,-39,0,0,100,0,160,880,40,40,0,-18,-68,0,0,100,0,120,720,40,40,0,-29,-59,0,0,100,0,120,760,40,40,0,-18,-58,0,0,100,0,120,800,40,40,0,-18,-38,0,0,100,0,0,840,40,40,0,-8,-48,0,0,100,0,160,920,40,40,0,1,-59,0,0,100,0,160,720,40,40,0,-9,-69,0,0,100,0,0,920,40,40,0,-38,-68,0,0,100,0,120,960,40,40,0,-8,-48,0,0,100,0,0,880,40,40,0,-39,-79,0,0,100,0,160,960,80,80,0,-58,-67,0,0,100,0,320,840,80,40,0,-67,-57,0,0,100,0,320,880,80,40,0,-36,-70,0,0,100,0,480,960,80,80,0,-26,-12,0,0,65,0,0,320,56,24,0,
0,15,-23,-40,0,0,100,0,160,840,40,40,0,-13,-44,0,0,100,0,160,880,40,40,0,-19,-74,1,0,100,0,0,720,40,40,0,-31,-62,0,0,100,0,0,760,40,40,0,-21,-63,0,0,100,0,0,800,40,40,0,-21,-43,0,0,100,0,0,840,40,40,0,-12,-54,0,0,100,0,160,920,40,40,0,-14,-74,0,0,100,0,0,920,40,40,0,-41,-71,0,0,100,0,0,960,40,40,0,-11,-53,0,0,100,0,0,880,40,40,0,-41,-83,0,0,100,0,160,960,80,80,0,-59,-72,0,0,100,0,400,840,80,40,0,-69,-60,0,0,100,0,400,880,80,40,0,-39,-68,0,0,100,0,560,960,80,80,0,-31,-12,0,0,65,0,0,320,56,24,0,
0,16,-31,-51,0,0,100,0,160,840,40,40,0,-22,-58,0,0,100,0,160,880,40,40,0,-30,-70,0,0,100,0,0,760,40,40,0,-31,-70,1,0,100,0,120,40,40,40,0,-21,-81,1,0,100,0,0,720,40,40,0,-56,-73,1,0,100,0,480,0,80,40,0,-25,-49,0,0,100,0,0,840,40,40,0,-22,-65,0,0,100,0,160,920,40,40,0,-19,-62,0,0,100,0,0,880,40,40,0,-16,-63,0,0,100,0,320,920,40,40,0,-40,-61,1,0,100,0,400,840,80,40,0,-34,-56,1,0,100,0,400,880,80,40,0,-53,-61,0,0,100,0,400,840,80,40,0,-65,-50,0,0,100,0,400,880,80,40,0,-40,-60,0,0,100,0,640,960,80,80,0,-33,-12,0,0,65,0,0,320,56,24,0,
0,16,-43,-63,0,0,100,0,200,840,40,40,0,-32,-68,0,0,100,0,160,880,40,40,0,-31,-79,0,0,100,0,0,760,40,40,0,-33,-80,1,0,100,0,120,40,40,40,0,-22,-91,1,0,100,0,0,720,40,40,0,-46,-79,1,0,100,0,320,40,80,40,0,-32,-75,0,0,100,0,160,920,40,40,0,-21,-67,0,0,100,0,320,920,40,40,0,-41,-67,1,0,100,0,400,840,80,40,0,-26,-61,1,0,100,0,400,880,80,40,0,-26,-63,1,0,100,0,480,840,80,40,0,-45,-59,0,0,100,0,480,840,80,40,0,-59,-56,0,0,100,0,480,840,80,40,0,-55,-50,0,0,100,0,400,880,80,40,0,-35,-57,0,0,100,0,640,960,80,80,0,-34,-12,0,0,65,0,0,320,56,24,0,
0,16,-48,-63,0,0,100,0,200,840,40,40,0,-33,-71,0,0,100,0,200,880,40,40,0,-56,-68,1,0,100,0,320,1000,80,40,0,-43,-67,1,0,100,0,400,840,80,40,0,-33,-62,1,0,100,0,400,880,80,40,0,-28,-65,1,0,100,0,480,840,80,40,0,-41,-59,1,0,100,0,400,880,80,40,0,-32,-53,1,0,100,0,480,880,80,40,0,-40,-46,0,0,100,0,480,880,80,40,0,-44,-47,0,0,100,0,480,880,80,40,0,-57,-51,0,0,100,0,480,840,80,40,0,-39,-32,0,0,100,0,240,800,80,40,0,-22,-91,0,0,100,0,64,656,16,24,0,-10,-89,0,0,100,0,64,632,16,24,0,-24,-84,0,0,100,0,32,656,32,56,0,-37,-12,0,0,65,0,0,320,56,24,0,
0,17,-51,-58,0,0,100,0,200,840,40,40,0,-37,-67,0,0,100,0,200,880,40,40,0,-58,-65,1,0,100,0,320,1000,80,40,0,-45,-65,1,0,100,0,400,840,80,40,0,-35,-60,1,0,100,0,400,880,80,40,0,-29,-63,1,0,100,0,480,840,80,40,0,-42,-56,1,0,100,0,400,880,80,40,0,-33,-51,1,0,100,0,480,880,80,40,0,-38,-42,0,0,100,0,480,880,80,40,0,-42,-43,0,0,100,0,480,880,80,40,0,-56,-48,0,0,100,0,480,840,80,40,0,-41,-30,0,0,100,0,240,800,80,40,0,-26,-88,0,0,100,0,80,600,40,40,0,-17,-76,0,0,100,0,200,680,40,40,0,-25,-82,0,0,100,0,0,600,32,56,0,-24,-88,0,0,100,0,280,640,40,40,0,-38,-12,0,0,65,0,0,320,56,24,0,
0,19,-27,-73,0,0,100,0,400,640,40,40,0,-50,-52,0,0,100,0,160,840,40,40,0,-38,-62,0,0,100,0,200,880,40,40,0,-59,-61,1,0,100,0,320,1000,80,40,0,-46,-61,1,0,100,0,400,840,80,40,0,-36,-57,1,0,100,0,400,880,80,40,0,-30,-60,1,0,100,0,480,840,80,40,0,-42,-52,1,0,100,0,400,880,80,40,0,-33,-48,1,0,100,0,480,880,80,40,0,-38,-39,0,0,100,0,480,880,80,40,0,-42,-39,0,0,100,0,480,880,80,40,0,-55,-44,0,0,100,0,480,840,80,40,0,-42,-26,0,0,100,0,320,800,80,40,0,-34,-80,0,0,100,0,120,600,40,40,0,-26,-78,0,0,100,0,0,600,32,56,0,-25,-65,0,0,100,0,400,680,40,40,0,-12,-82,0,0,100,0,320,640,40,40,0,-25,-89,0,0,100,0,320,600,40,40,0,-39,-12,0,0,65,0,0,320,56,24,0,
0,19,-28,-71,0,0,100,0,400,640,40,40,0,-50,-49,0,0,100,0,160,840,40,40,0,-39,-60,0,0,100,0,200,880,40,40,0,-60,-59,1,0,100,0,320,1000,80,40,0,-47,-60,1,0,100,0,400,840,80,40,0,-36,-56,1,0,100,0,400,880,80,40,0,-31,-59,1,0,100,0,480,840,80,40,0,-42,-50,1,0,100,0,400,880,80,40,0,-33,-47,1,0,100,0,480,880,80,40,0,-38,-37,0,0,100,0,480,880,80,40,0,-42,-38,0,0,100,0,480,880,80,40,0,-54,-42,0,0,100,0,480,840,80,40,0,-42,-24,0,0,100,0,320,800,80,40,0,-40,-103,0,0,100,0,80,680,40,40,0,-41,-81,0,0,100,0,160,600,40,40,0,-27,-76,0,0,100,0,0,600,32,56,0,-26,-63,0,0,100,0,400,680,40,40,0,-34,-80,0,0,100,0,280,608,32,32,0,-40,-12,0,0,65,0,0,320,56,24,0,
0,19,-28,-70,0,0,100,0,400,640,40,40,0,-50,-48,0,0,100,0,160,840,40,40,0,-39,-59,0,0,100,0,200,880,40,40,0,-60,-58,1,0,100,0,320,1000,80,40,0,-47,-59,1,0,100,0,400,840,80,40,0,-36,-55,1,0,100,0,400,880,80,40,0,-31,-58,1,0,100,0,480,840,80,40,0,-42,-49,1,0,100,0,400,880,80,40,0,-33,-46,1,0,100,0,480,880,80,40,0,-38,-36,0,0,100,0,480,880,80,40,0,-42,-37,0,0,100,0,480,880,80,40,0,-54,-41,0,0,100,0,480,840,80,40,0,-42,-23,0,0,100,0,400,800,80,40,0,-45,-101,0,0,100,0,80,680,40,40,0,-41,-80,0,0,100,0,160,600,40,40,0,-27,-75,0,0,100,0,0,600,32,56,0,-26,-62,0,0,100,0,400,680,40,40,0,-39,-78,0,0,100,0,280,608,32,32,0,-40,-12,0,0,65,0,0,320,56,24,0,
0,19,-29,-70,0,0,100,0,400,640,40,40,0,-50,-47,0,0,100,0,160,840,40,40,0,-39,-58,0,0,100,0,200,880,40,40,0,-61,-58,1,0,100,0,320,1000,80,40,0,-48,-59,1,0,100,0,400,840,80,40,0,-37,-56,1,0,100,0,400,880,80,40,0,-31,-59,1,0,100,0,480,840,80,40,0,-42,-50,1,0,100,0,400,880,80,40,0,-33,-47,1,0,100,0,480,880,80,40,0,-38,-36,0,0,100,0,480,880,80,40,0,-42,-37,0,0,100,0,480,880,80,40,0,-54,-42,0,0,100,0,480,840,80,40,0,-42,-23,0,0,100,0,400,800,80,40,0,-41,-79,0,0,100,0,200,600,40,40,0,-28,-75,0,0,100,0,0,600,32,56,0,-27,-62,0,0,100,0,400,680,40,40,0,-47,-76,0,0,100,0,240,640,40,40,0,-61,-76,0,0,100,0,120,680,40,40,0,-40,-12,0,0,65,0,0,320,56,24,0,
0,19,-29,-52,0,0,100,0,400,656,40,24,0,-49,-45,0,0,100,0,160,840,40,40,0,-39,-56,0,0,100,0,200,880,40,40,0,-61,-56,1,0,100,0,320,1000,80,40,0,-48,-57,1,0,100,0,400,840,80,40,0,-37,-54,1,0,100,0,400,880,80,40,0,-31,-58,1,0,100,0,480,840,80,40,0,-42,-48,1,0,100,0,400,880,80,40,0,-33,-45,1,0,100,0,480,880,80,40,0,-38,-35,0,0,100,0,480,880,80,40,0,-42,-37,0,0,100,0,480,880,80,40,0,-54,-41,0,0,100,0,480,840,80,40,0,-42,-22,0,0,100,0,400,800,80,40,0,-36,-75,0,0,100,0,240,600,40,40,0,-29,-68,0,0,100,0,400,640,40,40,0,-28,-73,0,0,100,0,0,600,32,56,0,-27,-60,0,0,100,0,400,680,40,40,0,-55,-53,0,0,100,0,160,680,40,40,0,-40,-12,0,0,65,0,0,320,56,24,0,
0,19,-29,-53,0,0,100,0,400,656,40,24,0,-50,-48,0,0,100,0,160,840,40,40,0,-39,-59,0,0,100,0,200,880,40,40,0,-60,-59,1,0,100,0,320,1000,80,40,0,-47,-59,1,0,100,0,400,840,80,40,0,-36,-55,1,0,100,0,400,880,80,40,0,-30,-60,1,0,100,0,480,840,80,40,0,-42,-51,1,0,100,0,400,880,80,40,0,-32,-47,1,0,100,0,480,880,80,40,0,-38,-37,0,0,100,0,480,880,80,40,0,-42,-38,0,0,100,0,480,880,80,40,0,-55,-43,0,0,100,0,480,840,80,40,0,-43,-23,0,0,100,0,480,800,80,40,0,-36,-76,0,0,100,0,360,600,40,40,0,-29,-69,0,0,100,0,400,640,40,40,0,-28,-74,0,0,100,0,0,600,32,56,0,-27,-61,0,0,100,0,400,680,40,40,0,-44,-59,0,0,100,0,240,680,40,40,0,-40,-12,0,0,65,0,0,320,56,24,0,
0,19,-28,-55,0,0,100,0,400,656,40,24,0,-50,-51,0,0,100,0,160,840,40,40,0,-38,-61,0,0,100,0,200,880,40,40,0,-59,-61,1,0,100,0,320,1000,80,40,0,-46,-61,1,0,100,0,400,840,80,40,0,-35,-58,1,0,100,0,400,880,80,40,0,-29,-61,1,0,100,0,480,840,80,40,0,-41,-52,1,0,100,0,400,880,80,40,0,-32,-47,1,0,100,0,480,880,80,40,0,-39,-37,0,0,100,0,480,880,80,40,0,-43,-39,0,0,100,0,480,880,80,40,0,-56,-44,0,0,100,0,480,840,80,40,0,-44,-24,0,0,100,0,480,800,80,40,0,-35,-78,0,0,100,0,360,600,40,40,0,-28,-71,0,0,100,0,400,640,40,40,0,-27,-76,0,0,100,0,0,600,32,56,0,-26,-63,0,0,100,0,400,680,40,40,0,-39,-62,0,0,100,0,280,680,40,40,0,-39,-12,0,0,65,0,0,320,56,24,0,
0,19,-28,-82,0,0,100,0,280,720,40,40,0,-28,-56,0,0,100,0,400,656,40,24,0,-50,-52,0,0,100,0,160,840,40,40,0,-38,-62,0,0,100,0,200,880,40,40,0,-59,-62,1,0,100,0,320,1000,80,40,0,-46,-62,1,0,100,0,400,840,80,40,0,-35,-59,1,0,100,0,400,880,80,40,0,-29,-62,1,0,100,0,480,840,80,40,0,-41,-53,1,0,100,0,400,880,80,40,0,-32,-48,1,0,100,0,480,880,80,40,0,-39,-38,0,0,100,0,480,880,80,40,0,-43,-40,0,0,100,0,480,880,80,40,0,-56,-45,0,0,100,0,480,840,80,40,0,-44,-25,0,0,100,0,240,800,80,40,0,-28,-72,0,0,100,0,400,640,40,40,0,-27,-77,0,0,100,0,0,600,32,56,0,-26,-64,0,0,100,0,400,680,40,40,0,-39,-63,0,0,100,0,320,680,40,40,0,-39,-12,0,0,65,0,0,320,56,24,0,
0,20,-28,-81,0,0,100,0,64,680,16,24,0,-51,-79,1,0,100,0,480,40,80,40,0,-31,-70,0,0,100,0,400,640,40,40,0,-29,-76,0,0,100,0,0,656,32,56,0,-49,-53,0,0,100,0,160,840,40,40,0,-37,-63,0,0,100,0,200,880,40,40,0,-58,-62,1,0,100,0,320,1000,80,40,0,-45,-62,1,0,100,0,400,840,80,40,0,-34,-59,1,0,100,0,400,880,80,40,0,-28,-61,1,0,100,0,480,840,80,40,0,-40,-52,1,0,100,0,400,880,80,40,0,-31,-47,1,0,100,0,480,880,80,40,0,-39,-37,0,0,100,0,480,880,80,40,0,-43,-39,0,0,100,0,480,880,80,40,0,-57,-45,0,0,100,0,480,840,80,40,0,-45,-25,0,0,100,0,320,800,80,40,0,-29,-77,0,0,100,0,0,600,32,56,0,-26,-65,0,0,100,0,400,680,40,40,0,-39,-63,0,0,100,0,240,680,40,40,0,-38,-12,0,0,65,0,0,320,56,24,0,
0,20,-30,-80,0,0,100,0,64,680,16,24,0,-58,-77,1,0,100,0,560,40,80,40,0,-34,-68,0,0,100,0,400,640,40,40,0,-31,-75,0,0,100,0,0,656,32,56,0,-49,-52,0,0,100,0,160,840,40,40,0,-37,-62,0,0,100,0,200,880,40,40,0,-58,-61,1,0,100,0,320,1000,80,40,0,-45,-61,1,0,100,0,400,840,80,40,0,-34,-58,1,0,100,0,400,880,80,40,0,-28,-60,1,0,100,0,480,840,80,40,0,-40,-51,1,0,100,0,400,880,80,40,0,-31,-46,1,0,100,0,480,880,80,40,0,-39,-36,0,0,100,0,480,880,80,40,0,-43,-38,0,0,100,0,480,880,80,40,0,-57,-44,0,0,100,0,480,840,80,40,0,-45,-24,0,0,100,0,320,800,80,40,0,-29,-76,0,0,100,0,0,600,32,56,0,-26,-64,0,0,100,0,400,680,40,40,0,-39,-62,0,0,100,0,240,680,40,40,0,-40,-12,0,0,65,0,0,320,56,24,0,
0,20,-39,-75,0,0,100,0,160,640,40,40,0,-31,-72,0,0,100,0,32,600,32,56,0,-36,-67,0,0,100,0,440,680,40,40,0,-50,-50,0,0,100,0,160,840,40,40,0,-38,-60,0,0,100,0,200,880,40,40,0,-59,-60,1,0,100,0,320,1000,80,40,0,-46,-60,1,0,100,0,400,840,80,40,0,-35,-57,1,0,100,0,400,880,80,40,0,-29,-60,1,0,100,0,480,840,80,40,0,-41,-51,1,0,100,0,400,880,80,40,0,-32,-46,1,0,100,0,480,880,80,40,0,-39,-36,0,0,100,0,480,880,80,40,0,-43,-38,0,0,100,0,480,880,80,40,0,-56,-43,0,0,100,0,480,840,80,40,0,-44,-23,0,0,100,0,400,800,80,40,0,-31,-69,0,0,100,0,440,640,40,40,0,-26,-63,0,0,100,0,320,560,40,40,0,-37,-62,0,0,100,0,240,680,40,40,0,-52,-73,0,0,100,0,200,760,40,40,0,-41,-12,0,0,65,0,0,320,56,24,0,
0,20,-39,-75,0,0,100,0,200,640,40,40,0,-32,-71,0,0,100,0,32,600,32,56,0,-37,-66,0,0,100,0,360,560,40,40,0,-50,-49,0,0,100,0,160,840,40,40,0,-38,-59,0,0,100,0,200,880,40,40,0,-59,-59,1,0,100,0,320,1000,80,40,0,-46,-59,1,0,100,0,400,840,80,40,0,-35,-56,1,0,100,0,400,880,80,40,0,-29,-59,1,0,100,0,480,840,80,40,0,-41,-50,1,0,100,0,400,880,80,40,0,-32,-45,1,0,100,0,480,880,80,40,0,-39,-35,0,0,100,0,480,880,80,40,0,-43,-37,0,0,100,0,480,880,80,40,0,-56,-42,0,0,100,0,480,840,80,40,0,-44,-22,0,0,100,0,400,800,80,40,0,-31,-68,0,0,100,0,440,640,40,40,0,-26,-62,0,0,100,0,320,560,40,40,0,-37,-61,0,0,100,0,280,680,40,40,0,-53,-72,0,0,100,0,240,760,40,40,0,-41,-12,0,0,65,0,0,320,56,24,0,
0,20,-39,-75,0,0,100,0,80,640,40,40,0,-33,-71,0,0,100,0,32,600,32,56,0,-38,-66,0,0,100,0,360,560,40,40,0,-50,-48,0,0,100,0,160,840,40,40,0,-39,-59,0,0,100,0,200,880,40,40,0,-60,-59,1,0,100,0,320,1000,80,40,0,-47,-59,1,0,100,0,400,840,80,40,0,-36,-56,1,0,100,0,400,880,80,40,0,-30,-59,1,0,100,0,480,840,80,40,0,-42,-50,1,0,100,0,400,880,80,40,0,-32,-46,1,0,100,0,480,880,80,40,0,-38,-36,0,0,100,0,480,880,80,40,0,-42,-37,0,0,100,0,480,880,80,40,0,-55,-42,0,0,100,0,480,840,80,40,0,-43,-22,0,0,100,0,480,800,80,40,0,-32,-68,0,0,100,0,440,640,40,40,0,-27,-62,0,0,100,0,320,560,40,40,0,-38,-61,0,0,100,0,320,680,40,40,0,-54,-72,0,0,100,0,280,760,40,40,0,-42,-12,0,0,65,0,0,320,56,24,0,
0,20,-39,-75,0,0,100,0,120,640,40,40,0,-33,-72,0,0,100,0,32,600,32,56,0,-38,-67,0,0,100,0,360,560,40,40,0,-50,-49,0,0,100,0,160,840,40,40,0,-39,-60,0,0,100,0,200,880,40,40,0,-60,-60,1,0,100,0,320,1000,80,40,0,-47,-60,1,0,100,0,400,840,80,40,0,-36,-57,1,0,100,0,400,880,80,40,0,-30,-60,1,0,100,0,480,840,80,40,0,-42,-51,1,0,100,0,400,880,80,40,0,-32,-47,1,0,100,0,480,880,80,40,0,-38,-37,0,0,100,0,480,880,80,40,0,-42,-38,0,0,100,0,480,880,80,40,0,-55,-43,0,0,100,0,480,840,80,40,0,-43,-23,0,0,100,0,480,800,80,40,0,-32,-69,0,0,100,0,440,640,40,40,0,-27,-63,0,0,100,0,320,560,40,40,0,-38,-62,0,0,100,0,360,680,40,40,0,-54,-73,0,0,100,0,160,760,40,40,0,-42,-12,0,0,65,0,0,320,56,24,0,
0,20,-40,-76,0,0,100,0,160,640,40,40,0,-32,-73,0,0,100,0,32,600,32,56,0,-37,-68,0,0,100,0,360,560,40,40,0,-50,-51,0,0,100,0,160,840,40,40,0,-38,-61,0,0,100,0,200,880,40,40,0,-59,-61,1,0,100,0,320,1000,80,40,0,-46,-61,1,0,100,0,400,840,80,40,0,-35,-58,1,0,100,0,400,880,80,40,0,-29,-61,1,0,100,0,480,840,80,40,0,-41,-52,1,0,100,0,400,880,80,40,0,-32,-47,1,0,100,0,480,880,80,40,0,-39,-37,0,0,100,0,480,880,80,40,0,-43,-39,0,0,100,0,480,880,80,40,0,-56,-44,0,0,100,0,480,840,80,40,0,-44,-24,0,0,100,0,240,800,80,40,0,-31,-70,0,0,100,0,440,640,40,40,0,-26,-64,0,0,100,0,320,560,40,40,0,-37,-63,0,0,100,0,240,680,40,40,0,-53,-74,0,0,100,0,200,760,40,40,0,-41,-12,0,0,65,0,0,320,56,24,0,
0,20,-39,-78,0,0,100,0,200,640,40,40,0,-32,-74,0,0,100,0,32,600,32,56,0,-37,-69,0,0,100,0,360,560,40,40,0,-50,-52,0,0,100,0,160,840,40,40,0,-38,-62,0,0,100,0,200,880,40,40,0,-59,-62,1,0,100,0,320,1000,80,40,0,-46,-62,1,0,100,0,400,840,80,40,0,-35,-59,1,0,100,0,400,880,80,40,0,-29,-62,1,0,100,0,480,840,80,40,0,-41,-53,1,0,100,0,400,880,80,40,0,-32,-48,1,0,100,0,480,880,80,40,0,-39,-38,0,0,100,0,480,880,80,40,0,-43,-40,0,0,100,0,480,880,80,40,0,-56,-45,0,0,100,0,480,840,80,40,0,-44,-25,0,0,100,0,240,800,80,40,0,-31,-71,0,0,100,0,440,640,40,40,0,-26,-65,0,0,100,0,320,560,40,40,0,-37,-64,0,0,100,0,280,680,40,40,0,-53,-75,0,0,100,0,240,760,40,40,0,-41,-12,0,0,65,0,0,320,56,24,0,
0,20,-37,-78,0,0,100,0,80,640,40,40,0,-31,-74,0,0,100,0,32,600,32,56,0,-36,-69,0,0,100,0,360,560,40,40,0,-49,-53,0,0,100,0,160,840,40,40,0,-37,-63,0,0,100,0,200,880,40,40,0,-58,-62,1,0,100,0,320,1000,80,40,0,-45,-62,1,0,100,0,400,840,80,40,0,-34,-59,1,0,100,0,400,880,80,40,0,-28,-61,1,0,100,0,480,840,80,40,0,-40,-52,1,0,100,0,400,880,80,40,0,-31,-47,1,0,100,0,480,880,80,40,0,-39,-37,0,0,100,0,480,880,80,40,0,-43,-39,0,0,100,0,480,880,80,40,0,-57,-45,0,0,100,0,480,840,80,40,0,-45,-25,0,0,100,0,320,800,80,40,0,-30,-71,0,0,100,0,440,640,40,40,0,-25,-65,0,0,100,0,320,560,40,40,0,-36,-64,0,0,100,0,320,680,40,40,0,-52,-75,0,0,100,0,280,760,40,40,0,-40,-12,0,0,65,0,0,320,56,24,0,
0,20,-37,-76,0,0,100,0,120,640,40,40,0,-31,-73,0,0,100,0,32,600,32,56,0,-36,-68,0,0,100,0,360,560,40,40,0,-49,-52,0,0,100,0,160,840,40,40,0,-37,-62,0,0,100,0,200,880,40,40,0,-58,-61,1,0,100,0,320,1000,80,40,0,-45,-61,1,0,100,0,400,840,80,40,0,-34,-58,1,0,100,0,400,880,80,40,0,-28,-60,1,0,100,0,480,840,80,40,0,-40,-51,1,0,100,0,400,880,80,40,0,-31,-46,1,0,100,0,480,880,80,40,0,-39,-36,0,0,100,0,480,880,80,40,0,-43,-38,0,0,100,0,480,880,80,40,0,-57,-44,0,0,100,0,480,840,80,40,0,-45,-24,0,0,100,0,320,800,80,40,0,-30,-70,0,0,100,0,440,640,40,40,0,-25,-64,0,0,100,0,320,560,40,40,0,-36,-63,0,0,100,0,360,680,40,40,0,-52,-74,0,0,100,0,160,760,40,40,0,-40,-12,0,0,65,0,0,320,56,24,0,
0,20,-40,-75,0,0,100,0,160,640,40,40,0,-32,-72,0,0,100,0,32,600,32,56,0,-37,-67,0,0,100,0,360,560,40,40,0,-50,-50,0,0,100,0,160,840,40,40,0,-38,-60,0,0,100,0,200,880,40,40,0,-59,-60,1,0,100,0,320,1000,80,40,0,-46,-60,1,0,100,0,400,840,80,40,0,-35,-57,1,0,100,0,400,880,80,40,0,-29,-60,1,0,100,0,480,840,80,40,0,-41,-51,1,0,100,0,400,880,80,40,0,-32,-46,1,0,100,0,480,880,80,40,0,-39,-36,0,0,100,0,480,880,80,40,0,-43,-38,0,0,100,0,480,880,80,40,0,-56,-43,0,0,100,0,480,840,80,40,0,-44,-23,0,0,100,0,400,800,80,40,0,-31,-69,0,0,100,0,440,640,40,40,0,-26,-63,0,0,100,0,320,560,40,40,0,-37,-62,0,0,100,0,240,680,40,40,0,-53,-73,0,0,100,0,200,760,40,40,0,-41,-12,0,0,65,0,0,320,56,24,0,
