[
    {
        "P_SPHERE_ITEM_ID": "100100",
        "P_SPHERE_ITEM_NAME": "\u540d\u5263\u30d6\u30ec\u30a4\u30d6\u30e9\u30a4\u30c9",
        "8Cx57oAk": "\u540d\u5263\u30d6\u30ec",
        "KMtIE5k7": "1",
        "P_RARE": "1",
        "P_DISPORDER": "1",
        "moWQ30GH": "3",
        "P_PASSIVE_SKILL_GROUP_INFO": "1001001",
        "P_DISP_DICTIONARY": "0",
        "AcK13Frq": "",
        "P_ICON_ID": "1000",
        "P_DICTIONARY_NO": "1",
        "P_DICTIONARY_BG": "1",
        "P_NEED_SWITCH_INFO": "0",
        "P_HIDE_SWITCH_INFO": "0",
        "P_OPEN_SWITCH_INFO": "0",
        "P_CREATEDATE": "2018-02-20 05:28:04",
        "P_UPDATEDATE": "2018-02-20 05:28:04"
    },
    {
        "P_SPHERE_ITEM_ID": "100101",
        "P_SPHERE_ITEM_NAME": "\u8056\u5263\u30a8\u30d9\u30ea\u30af\u30b9",
        "8Cx57oAk": "\u8056\u5263\u30a8\u30d9",
        "KMtIE5k7": "1",
        "P_RARE": "2",
        "P_DISPORDER": "2",
        "moWQ30GH": "3",
        "P_PASSIVE_SKILL_GROUP_INFO": "1001002",
        "P_DISP_DICTIONARY": "0",
        "AcK13Frq": "",
        "P_ICON_ID": "1001",
        "P_DICTIONARY_NO": "1",
        "P_DICTIONARY_BG": "2",
        "P_NEED_SWITCH_INFO": "0",
        "P_HIDE_SWITCH_INFO": "0",
        "P_OPEN_SWITCH_INFO": "0",
        "P_CREATEDATE": "2018-02-20 05:28:04",
        "P_UPDATEDATE": "2018-02-20 05:28:04"
    },
    {
        "P_SPHERE_ITEM_ID": "100102",
        "P_SPHERE_ITEM_NAME": "\u9b54\u5263\u30a8\u30c7\u30eb\u30fb\u30de\u30bc\u30eb",
        "8Cx57oAk": "\u9b54\u5263\u30a8\u30c7",
        "KMtIE5k7": "1",
        "P_RARE": "3",
        "P_DISPORDER": "3",
        "moWQ30GH": "3",
        "P_PASSIVE_SKILL_GROUP_INFO": "1001003",
        "P_DISP_DICTIONARY": "1",
        "AcK13Frq": "",
        "P_ICON_ID": "1002",
        "P_DICTIONARY_NO": "1",
        "P_DICTIONARY_BG": "3",
        "P_NEED_SWITCH_INFO": "0",
        "P_HIDE_SWITCH_INFO": "0",
        "P_OPEN_SWITCH_INFO": "0",
        "P_CREATEDATE": "2018-02-20 05:28:04",
        "P_UPDATEDATE": "2018-02-20 05:28:04"
    },
    {
        "P_SPHERE_ITEM_ID": "100103",
        "P_SPHERE_ITEM_NAME": "\u7adc\u304c\u935b\u3048\u3057\u5263\u300e\u30de\u30ac\u300f",
        "8Cx57oAk": "\u7adc\u935b\u5263",
        "KMtIE5k7": "1",
        "P_RARE": "4",
        "P_DISPORDER": "4",
        "moWQ30GH": "3",
        "P_PASSIVE_SKILL_GROUP_INFO": "1001004",
        "P_DISP_DICTIONARY": "1",
        "AcK13Frq": "",
        "P_ICON_ID": "1003",
        "P_DICTIONARY_NO": "1",
        "P_DICTIONARY_BG": "4",
        "P_NEED_SWITCH_INFO": "0",
        "P_HIDE_SWITCH_INFO": "0",
        "P_OPEN_SWITCH_INFO": "0",
        "P_CREATEDATE": "2018-02-20 05:28:04",
        "P_UPDATEDATE": "2018-02-20 05:28:04"
    },
    {
        "P_SPHERE_ITEM_ID": "100200",
        "P_SPHERE_ITEM_NAME": "\u5de8\u4eba\u76fe\u30a8\u30d3\u30aa\u30dc",
        "8Cx57oAk": "\u5de8\u4eba\u76fe",
        "KMtIE5k7": "1",
        "P_RARE": "1",
        "P_DISPORDER": "100",
        "moWQ30GH": "3",
        "P_PASSIVE_SKILL_GROUP_INFO": "1002001",
        "P_DISP_DICTIONARY": "0",
        "AcK13Frq": "",
        "P_ICON_ID": "1000",
        "P_DICTIONARY_NO": "1",
        "P_DICTIONARY_BG": "5",
        "P_NEED_SWITCH_INFO": "0",
        "P_HIDE_SWITCH_INFO": "0",
        "P_OPEN_SWITCH_INFO": "0",
        "P_CREATEDATE": "2018-02-20 05:28:04",
        "P_UPDATEDATE": "2018-02-20 05:28:04"
    },
    {
        "P_SPHERE_ITEM_ID": "100201",
        "P_SPHERE_ITEM_NAME": "\u7adc\u9c57\u76fe\u30d0\u30eb\u30b2\u30a4\u30aa\u30b9",
        "8Cx57oAk": "\u7adc\u9c57\u76fe",
        "KMtIE5k7": "1",
        "P_RARE": "2",
        "P_DISPORDER": "101",
        "moWQ30GH": "3",
        "P_PASSIVE_SKILL_GROUP_INFO": "1002002",
        "P_DISP_DICTIONARY": "0",
        "AcK13Frq": "",
        "P_ICON_ID": "1001",
        "P_DICTIONARY_NO": "1",
        "P_DICTIONARY_BG": "6",
        "P_NEED_SWITCH_INFO": "0",
        "P_HIDE_SWITCH_INFO": "0",
        "P_OPEN_SWITCH_INFO": "0",
        "P_CREATEDATE": "2018-02-20 05:28:04",
        "P_UPDATEDATE": "2018-02-20 05:28:04"
    },
    {
        "P_SPHERE_ITEM_ID": "100202",
        "P_SPHERE_ITEM_NAME": "\u5973\u795e\u76fe\u30e9\u30a6\u30fb\u30ec\u30a4\u30af",
        "8Cx57oAk": "\u5973\u795e\u76fe",
        "KMtIE5k7": "1",
        "P_RARE": "3",
        "P_DISPORDER": "102",
        "moWQ30GH": "3",
        "P_PASSIVE_SKILL_GROUP_INFO": "1002003",
        "P_DISP_DICTIONARY": "1",
        "AcK13Frq": "",
        "P_ICON_ID": "1002",
        "P_DICTIONARY_NO": "1",
        "P_DICTIONARY_BG": "7",
        "P_NEED_SWITCH_INFO": "0",
        "P_HIDE_SWITCH_INFO": "0",
        "P_OPEN_SWITCH_INFO": "0",
        "P_CREATEDATE": "2018-02-20 05:28:04",
        "P_UPDATEDATE": "2018-02-20 05:28:04"
    },
    {
        "P_SPHERE_ITEM_ID": "100203",
        "P_SPHERE_ITEM_NAME": "\u592a\u967d\u3068\u6708\u306e\u76fe\u30de\u30ea\u30b9",
        "8Cx57oAk": "\u967d\u6708\u76fe",
        "KMtIE5k7": "1",
        "P_RARE": "4",
        "P_DISPORDER": "103",
        "moWQ30GH": "3",
        "P_PASSIVE_SKILL_GROUP_INFO": "1002004",
        "P_DISP_DICTIONARY": "1",
        "AcK13Frq": "",
        "P_ICON_ID": "1003",
        "P_DICTIONARY_NO": "1",
        "P_DICTIONARY_BG": "8",
        "P_NEED_SWITCH_INFO": "0",
        "P_HIDE_SWITCH_INFO": "0",
        "P_OPEN_SWITCH_INFO": "0",
        "P_CREATEDATE": "2018-02-20 05:28:04",
        "P_UPDATEDATE": "2018-02-20 05:28:04"
    },
    {
        "P_SPHERE_ITEM_ID": "100300",
        "P_SPHERE_ITEM_NAME": "\u68ee\u7cbe\u306e\u7e2b\u8863",
        "8Cx57oAk": "\u7e2b\u8863",
        "KMtIE5k7": "1",
        "P_RARE": "1",
        "P_DISPORDER": "200",
        "moWQ30GH": "3",
        "P_PASSIVE_SKILL_GROUP_INFO": "1003001",
        "P_DISP_DICTIONARY": "0",
        "AcK13Frq": "",
        "P_ICON_ID": "1000",
        "P_DICTIONARY_NO": "1",
        "P_DICTIONARY_BG": "9",
        "P_NEED_SWITCH_INFO": "0",
        "P_HIDE_SWITCH_INFO": "0",
        "P_OPEN_SWITCH_INFO": "0",
        "P_CREATEDATE": "2018-02-20 05:28:04",
        "P_UPDATEDATE": "2018-02-20 05:28:04"
    },
    {
        "P_SPHERE_ITEM_ID": "100301",
        "P_SPHERE_ITEM_NAME": "\u68ee\u8863\u30d5\u30e9\u30c7\u30ea\u30a2",
        "8Cx57oAk": "\u68ee\u8863",
        "KMtIE5k7": "1",
        "P_RARE": "2",
        "P_DISPORDER": "201",
        "moWQ30GH": "3",
        "P_PASSIVE_SKILL_GROUP_INFO": "1003002",
        "P_DISP_DICTIONARY": "0",
        "AcK13Frq": "",
        "P_ICON_ID": "1001",
        "P_DICTIONARY_NO": "1",
        "P_DICTIONARY_BG": "10",
        "P_NEED_SWITCH_INFO": "0",
        "P_HIDE_SWITCH_INFO": "0",
        "P_OPEN_SWITCH_INFO": "0",
        "P_CREATEDATE": "2018-02-20 05:28:04",
        "P_UPDATEDATE": "2018-02-20 05:28:04"
    },
    {
        "P_SPHERE_ITEM_ID": "100302",
        "P_SPHERE_ITEM_NAME": "\u68ee\u738b\u8863\u30a2\u30a4\u30c7\u30a3\u30fc\u30cd",
        "8Cx57oAk": "\u68ee\u738b\u8863",
        "KMtIE5k7": "1",
        "P_RARE": "3",
        "P_DISPORDER": "202",
        "moWQ30GH": "3",
        "P_PASSIVE_SKILL_GROUP_INFO": "1003003",
        "P_DISP_DICTIONARY": "1",
        "AcK13Frq": "",
        "P_ICON_ID": "1002",
        "P_DICTIONARY_NO": "1",
        "P_DICTIONARY_BG": "11",
        "P_NEED_SWITCH_INFO": "0",
        "P_HIDE_SWITCH_INFO": "0",
        "P_OPEN_SWITCH_INFO": "0",
        "P_CREATEDATE": "2018-02-20 05:28:04",
        "P_UPDATEDATE": "2018-02-20 05:28:04"
    },
    {
        "P_SPHERE_ITEM_ID": "100303",
        "P_SPHERE_ITEM_NAME": "\u767d\u54c0\u306e\u5929\u846c\u8863",
        "8Cx57oAk": "\u5929\u846c\u8863",
        "KMtIE5k7": "1",
        "P_RARE": "4",
        "P_DISPORDER": "203",
        "moWQ30GH": "3",
        "P_PASSIVE_SKILL_GROUP_INFO": "1003004",
        "P_DISP_DICTIONARY": "1",
        "AcK13Frq": "",
        "P_ICON_ID": "1003",
        "P_DICTIONARY_NO": "1",
        "P_DICTIONARY_BG": "12",
        "P_NEED_SWITCH_INFO": "0",
        "P_HIDE_SWITCH_INFO": "0",
        "P_OPEN_SWITCH_INFO": "0",
        "P_CREATEDATE": "2018-02-20 05:28:04",
        "P_UPDATEDATE": "2018-02-20 05:28:04"
    },
    {
        "P_SPHERE_ITEM_ID": "100400",
        "P_SPHERE_ITEM_NAME": "\u9b3c\u93a7\u30ac\u30f4\u30a1\u30ea\u30a2\u30f3",
        "8Cx57oAk": "\u9b3c\u93a7",
        "KMtIE5k7": "1",
        "P_RARE": "1",
        "P_DISPORDER": "300",
        "moWQ30GH": "3",
        "P_PASSIVE_SKILL_GROUP_INFO": "1004001",
        "P_DISP_DICTIONARY": "0",
        "AcK13Frq": "",
        "P_ICON_ID": "1000",
        "P_DICTIONARY_NO": "1",
        "P_DICTIONARY_BG": "13",
        "P_NEED_SWITCH_INFO": "0",
        "P_HIDE_SWITCH_INFO": "0",
        "P_OPEN_SWITCH_INFO": "0",
        "P_CREATEDATE": "2018-02-20 05:28:04",
        "P_UPDATEDATE": "2018-02-20 05:28:04"
    },
    {
        "P_SPHERE_ITEM_ID": "100401",
        "P_SPHERE_ITEM_NAME": "\u5e7b\u7363\u93a7\u300e\u9e92\u9e9f\u300f",
        "8Cx57oAk": "\u5e7b\u93a7\u9e92\u9e9f",
        "KMtIE5k7": "1",
        "P_RARE": "2",
        "P_DISPORDER": "301",
        "moWQ30GH": "3",
        "P_PASSIVE_SKILL_GROUP_INFO": "1004002",
        "P_DISP_DICTIONARY": "0",
        "AcK13Frq": "",
        "P_ICON_ID": "1001",
        "P_DICTIONARY_NO": "1",
        "P_DICTIONARY_BG": "14",
        "P_NEED_SWITCH_INFO": "0",
        "P_HIDE_SWITCH_INFO": "0",
        "P_OPEN_SWITCH_INFO": "0",
        "P_CREATEDATE": "2018-02-20 05:28:04",
        "P_UPDATEDATE": "2018-02-20 05:28:04"
    },
    {
        "P_SPHERE_ITEM_ID": "100402",
        "P_SPHERE_ITEM_NAME": "\u8056\u8863\u30a8\u30e1\u30eb\u30c7\u30a3\u30a2",
        "8Cx57oAk": "\u8056\u8863\u30a8\u30e1",
        "KMtIE5k7": "1",
        "P_RARE": "3",
        "P_DISPORDER": "302",
        "moWQ30GH": "3",
        "P_PASSIVE_SKILL_GROUP_INFO": "1004003",
        "P_DISP_DICTIONARY": "1",
        "AcK13Frq": "",
        "P_ICON_ID": "1002",
        "P_DICTIONARY_NO": "1",
        "P_DICTIONARY_BG": "15",
        "P_NEED_SWITCH_INFO": "0",
        "P_HIDE_SWITCH_INFO": "0",
        "P_OPEN_SWITCH_INFO": "0",
        "P_CREATEDATE": "2018-02-20 05:28:04",
        "P_UPDATEDATE": "2018-02-20 05:28:04"
    },
    {
        "P_SPHERE_ITEM_ID": "100403",
        "P_SPHERE_ITEM_NAME": "\u8f1d\u93a7\u30eb\u30c7\u30a3\u30d0\u30fb\u30de\u30af\u30b9",
        "8Cx57oAk": "\u8f1d\u93a7",
        "KMtIE5k7": "1",
        "P_RARE": "4",
        "P_DISPORDER": "303",
        "moWQ30GH": "3",
        "P_PASSIVE_SKILL_GROUP_INFO": "1004004",
        "P_DISP_DICTIONARY": "1",
        "AcK13Frq": "",
        "P_ICON_ID": "1003",
        "P_DICTIONARY_NO": "1",
        "P_DICTIONARY_BG": "16",
        "P_NEED_SWITCH_INFO": "0",
        "P_HIDE_SWITCH_INFO": "0",
        "P_OPEN_SWITCH_INFO": "0",
        "P_CREATEDATE": "2018-02-20 05:28:04",
        "P_UPDATEDATE": "2018-02-20 05:28:04"
    },
    {
        "P_SPHERE_ITEM_ID": "100500",
        "P_SPHERE_ITEM_NAME": "\u5343\u5b50\u6751\u6b63",
        "8Cx57oAk": "\u5343\u5b50\u6751\u6b63",
        "KMtIE5k7": "1",
        "P_RARE": "3",
        "P_DISPORDER": "400",
        "moWQ30GH": "3",
        "P_PASSIVE_SKILL_GROUP_INFO": "1019002",
        "P_DISP_DICTIONARY": "1",
        "AcK13Frq": "",
        "P_ICON_ID": "1002",
        "P_DICTIONARY_NO": "1",
        "P_DICTIONARY_BG": "17",
        "P_NEED_SWITCH_INFO": "0",
        "P_HIDE_SWITCH_INFO": "0",
        "P_OPEN_SWITCH_INFO": "0",
        "P_CREATEDATE": "2018-02-20 05:28:04",
        "P_UPDATEDATE": "2018-02-20 05:28:04"
    },
    {
        "P_SPHERE_ITEM_ID": "100510",
        "P_SPHERE_ITEM_NAME": "\u738b\u76fe\u30c0\u30eb\u30d0\u30f3\u30b7\u30a7\u30eb",
        "8Cx57oAk": "\u738b\u76fe",
        "KMtIE5k7": "1",
        "P_RARE": "3",
        "P_DISPORDER": "500",
        "moWQ30GH": "3",
        "P_PASSIVE_SKILL_GROUP_INFO": "1019102",
        "P_DISP_DICTIONARY": "1",
        "AcK13Frq": "",
        "P_ICON_ID": "1002",
        "P_DICTIONARY_NO": "1",
        "P_DICTIONARY_BG": "20",
        "P_NEED_SWITCH_INFO": "0",
        "P_HIDE_SWITCH_INFO": "0",
        "P_OPEN_SWITCH_INFO": "0",
        "P_CREATEDATE": "2018-02-20 05:28:04",
        "P_UPDATEDATE": "2018-02-20 05:28:04"
    },
    {
        "P_SPHERE_ITEM_ID": "100520",
        "P_SPHERE_ITEM_NAME": "\u6b63\u5b97",
        "8Cx57oAk": "\u6b63\u5b97",
        "KMtIE5k7": "1",
        "P_RARE": "5",
        "P_DISPORDER": "600",
        "moWQ30GH": "3",
        "P_PASSIVE_SKILL_GROUP_INFO": "1019302",
        "P_DISP_DICTIONARY": "1",
        "AcK13Frq": "",
        "P_ICON_ID": "1004",
        "P_DICTIONARY_NO": "1",
        "P_DICTIONARY_BG": "23",
        "P_NEED_SWITCH_INFO": "0",
        "P_HIDE_SWITCH_INFO": "0",
        "P_OPEN_SWITCH_INFO": "0",
        "P_CREATEDATE": "2018-02-20 05:28:04",
        "P_UPDATEDATE": "2018-02-20 05:28:04"
    },
    {
        "P_SPHERE_ITEM_ID": "100600",
        "P_SPHERE_ITEM_NAME": "\u6a5f\u5263\u30c7\u30a3\u30d5\u30a7\u30f3\u30c0\u30fc",
        "8Cx57oAk": "\u6a5f\u5263",
        "KMtIE5k7": "1",
        "P_RARE": "3",
        "P_DISPORDER": "700",
        "moWQ30GH": "3",
        "P_PASSIVE_SKILL_GROUP_INFO": "1015001",
        "P_DISP_DICTIONARY": "1",
        "AcK13Frq": "",
        "P_ICON_ID": "1002",
        "P_DICTIONARY_NO": "1",
        "P_DICTIONARY_BG": "26",
        "P_NEED_SWITCH_INFO": "0",
        "P_HIDE_SWITCH_INFO": "0",
        "P_OPEN_SWITCH_INFO": "0",
        "P_CREATEDATE": "2018-02-20 05:28:04",
        "P_UPDATEDATE": "2018-02-20 05:28:04"
    },
    {
        "P_SPHERE_ITEM_ID": "100601",
        "P_SPHERE_ITEM_NAME": "\u79d8\u5b9d\u300e\u30de\u30eb\u30ad\u30e5\u30ed\u30c7\u30a3\u30f3\u300f",
        "8Cx57oAk": "\u79d8\u5b9d\u30de\u30eb",
        "KMtIE5k7": "1",
        "P_RARE": "4",
        "P_DISPORDER": "701",
        "moWQ30GH": "3",
        "P_PASSIVE_SKILL_GROUP_INFO": "1015002",
        "P_DISP_DICTIONARY": "1",
        "AcK13Frq": "",
        "P_ICON_ID": "1003",
        "P_DICTIONARY_NO": "1",
        "P_DICTIONARY_BG": "27",
        "P_NEED_SWITCH_INFO": "0",
        "P_HIDE_SWITCH_INFO": "0",
        "P_OPEN_SWITCH_INFO": "0",
        "P_CREATEDATE": "2018-02-20 05:28:05",
        "P_UPDATEDATE": "2018-02-20 05:28:05"
    },
    {
        "P_SPHERE_ITEM_ID": "100602",
        "P_SPHERE_ITEM_NAME": "\u79d8\u5b9d\u300e\u30ec\u30d6\u30fb\u30de\u30c7\u30e5\u30e9\u300f",
        "8Cx57oAk": "\u79d8\u5b9d\u30ec\u30d6",
        "KMtIE5k7": "1",
        "P_RARE": "5",
        "P_DISPORDER": "702",
        "moWQ30GH": "3",
        "P_PASSIVE_SKILL_GROUP_INFO": "1015003",
        "P_DISP_DICTIONARY": "1",
        "AcK13Frq": "",
        "P_ICON_ID": "1004",
        "P_DICTIONARY_NO": "1",
        "P_DICTIONARY_BG": "28",
        "P_NEED_SWITCH_INFO": "0",
        "P_HIDE_SWITCH_INFO": "0",
        "P_OPEN_SWITCH_INFO": "0",
        "P_CREATEDATE": "2018-02-20 05:28:05",
        "P_UPDATEDATE": "2018-02-20 05:28:05"
    },
    {
        "P_SPHERE_ITEM_ID": "100720",
        "P_SPHERE_ITEM_NAME": "\u7cbe\u970a\u306e\u77ed\u5263",
        "8Cx57oAk": "\u7cbe\u970a\u77ed\u5263",
        "KMtIE5k7": "1",
        "P_RARE": "3",
        "P_DISPORDER": "1000",
        "moWQ30GH": "3",
        "P_PASSIVE_SKILL_GROUP_INFO": "1005002",
        "P_DISP_DICTIONARY": "1",
        "AcK13Frq": "",
        "P_ICON_ID": "1002",
        "P_DICTIONARY_NO": "1",
        "P_DICTIONARY_BG": "35",
        "P_NEED_SWITCH_INFO": "0",
        "P_HIDE_SWITCH_INFO": "0",
        "P_OPEN_SWITCH_INFO": "0",
        "P_CREATEDATE": "2018-02-20 05:28:05",
        "P_UPDATEDATE": "2018-02-20 05:28:05"
    },
    {
        "P_SPHERE_ITEM_ID": "100721",
        "P_SPHERE_ITEM_NAME": "\u7cbe\u970a\u5263\u30c6\u30a3\u30a2\u30c3\u30c8",
        "8Cx57oAk": "\u7cbe\u970a\u5263",
        "KMtIE5k7": "1",
        "P_RARE": "4",
        "P_DISPORDER": "1001",
        "moWQ30GH": "3",
        "P_PASSIVE_SKILL_GROUP_INFO": "1005003",
        "P_DISP_DICTIONARY": "1",
        "AcK13Frq": "",
        "P_ICON_ID": "1003",
        "P_DICTIONARY_NO": "1",
        "P_DICTIONARY_BG": "36",
        "P_NEED_SWITCH_INFO": "0",
        "P_HIDE_SWITCH_INFO": "0",
        "P_OPEN_SWITCH_INFO": "0",
        "P_CREATEDATE": "2018-02-20 05:28:05",
        "P_UPDATEDATE": "2018-02-20 05:28:05"
    },
    {
        "P_SPHERE_ITEM_ID": "100722",
        "P_SPHERE_ITEM_NAME": "\u7cbe\u970a\u5b9d\u5263\u30c0\u30a4\u30ca",
        "8Cx57oAk": "\u7cbe\u970a\u5b9d\u5263",
        "KMtIE5k7": "1",
        "P_RARE": "5",
        "P_DISPORDER": "1002",
        "moWQ30GH": "3",
        "P_PASSIVE_SKILL_GROUP_INFO": "1005004",
        "P_DISP_DICTIONARY": "1",
        "AcK13Frq": "",
        "P_ICON_ID": "1004",
        "P_DICTIONARY_NO": "1",
        "P_DICTIONARY_BG": "37",
        "P_NEED_SWITCH_INFO": "0",
        "P_HIDE_SWITCH_INFO": "0",
        "P_OPEN_SWITCH_INFO": "0",
        "P_CREATEDATE": "2018-02-20 05:28:05",
        "P_UPDATEDATE": "2018-02-20 05:28:05"
    },
    {
        "P_SPHERE_ITEM_ID": "100730",
        "P_SPHERE_ITEM_NAME": "\u60a0\u6c37\u306e\u7363\u5b88",
        "8Cx57oAk": "\u60a0\u6c37\u5b88",
        "KMtIE5k7": "1",
        "P_RARE": "3",
        "P_DISPORDER": "1100",
        "moWQ30GH": "3",
        "P_PASSIVE_SKILL_GROUP_INFO": "1010002",
        "P_DISP_DICTIONARY": "1",
        "AcK13Frq": "",
        "P_ICON_ID": "1002",
        "P_DICTIONARY_NO": "1",
        "P_DICTIONARY_BG": "38",
        "P_NEED_SWITCH_INFO": "0",
        "P_HIDE_SWITCH_INFO": "0",
        "P_OPEN_SWITCH_INFO": "0",
        "P_CREATEDATE": "2018-02-20 05:28:05",
        "P_UPDATEDATE": "2018-02-20 05:28:05"
    },
    {
        "P_SPHERE_ITEM_ID": "100731",
        "P_SPHERE_ITEM_NAME": "\u30e9\u30a4\u30cd\u30eb\u306e\u9ed2\u8276\u7b26",
        "8Cx57oAk": "\u9ed2\u8276\u7b26",
        "KMtIE5k7": "1",
        "P_RARE": "4",
        "P_DISPORDER": "1101",
        "moWQ30GH": "3",
        "P_PASSIVE_SKILL_GROUP_INFO": "1010003",
        "P_DISP_DICTIONARY": "1",
        "AcK13Frq": "",
        "P_ICON_ID": "1003",
        "P_DICTIONARY_NO": "1",
        "P_DICTIONARY_BG": "39",
        "P_NEED_SWITCH_INFO": "0",
        "P_HIDE_SWITCH_INFO": "0",
        "P_OPEN_SWITCH_INFO": "0",
        "P_CREATEDATE": "2018-02-20 05:28:05",
        "P_UPDATEDATE": "2018-02-20 05:28:05"
    },
    {
        "P_SPHERE_ITEM_ID": "100732",
        "P_SPHERE_ITEM_NAME": "\u8b77\u308a\u306e\u8fb0\u7802\u7b26",
        "8Cx57oAk": "\u8fb0\u7802\u7b26",
        "KMtIE5k7": "1",
        "P_RARE": "5",
        "P_DISPORDER": "1102",
        "moWQ30GH": "3",
        "P_PASSIVE_SKILL_GROUP_INFO": "1010004",
        "P_DISP_DICTIONARY": "1",
        "AcK13Frq": "",
        "P_ICON_ID": "1004",
        "P_DICTIONARY_NO": "1",
        "P_DICTIONARY_BG": "40",
        "P_NEED_SWITCH_INFO": "0",
        "P_HIDE_SWITCH_INFO": "0",
        "P_OPEN_SWITCH_INFO": "0",
        "P_CREATEDATE": "2018-02-20 05:28:05",
        "P_UPDATEDATE": "2018-02-20 05:28:05"
    },
    {
        "P_SPHERE_ITEM_ID": "100733",
        "P_SPHERE_ITEM_NAME": "\u9b54\u5b9d\u300e\u30bc\u30a2\u30ad\u30a2\u300f",
        "8Cx57oAk": "\u9b54\u5b9d\u30bc\u30a2",
        "KMtIE5k7": "1",
        "P_RARE": "5",
        "P_DISPORDER": "1103",
        "moWQ30GH": "3",
        "P_PASSIVE_SKILL_GROUP_INFO": "1014004",
        "P_DISP_DICTIONARY": "1",
        "AcK13Frq": "",
        "P_ICON_ID": "1004",
        "P_DICTIONARY_NO": "1",
        "P_DICTIONARY_BG": "41",
        "P_NEED_SWITCH_INFO": "0",
        "P_HIDE_SWITCH_INFO": "0",
        "P_OPEN_SWITCH_INFO": "0",
        "P_CREATEDATE": "2018-02-20 05:28:05",
        "P_UPDATEDATE": "2018-02-20 05:28:05"
    },
    {
        "P_SPHERE_ITEM_ID": "100800",
        "P_SPHERE_ITEM_NAME": "\u5b64\u72fc\u306e\u9b42\u306e\u69cd",
        "8Cx57oAk": "\u5b64\u72fc\u69cd",
        "KMtIE5k7": "1",
        "P_RARE": "3",
        "P_DISPORDER": "1400",
        "moWQ30GH": "3",
        "P_PASSIVE_SKILL_GROUP_INFO": "1016014",
        "P_DISP_DICTIONARY": "1",
        "AcK13Frq": "",
        "P_ICON_ID": "1002",
        "P_DICTIONARY_NO": "1",
        "P_DICTIONARY_BG": "50",
        "P_NEED_SWITCH_INFO": "0",
        "P_HIDE_SWITCH_INFO": "0",
        "P_OPEN_SWITCH_INFO": "0",
        "P_CREATEDATE": "2018-02-20 05:28:05",
        "P_UPDATEDATE": "2018-02-20 05:28:05"
    },
    {
        "P_SPHERE_ITEM_ID": "100810",
        "P_SPHERE_ITEM_NAME": "\u8778\u725b\u76fe\u30ab\u30e9\u30b3\u30eb",
        "8Cx57oAk": "\u8778\u725b\u76fe",
        "KMtIE5k7": "1",
        "P_RARE": "3",
        "P_DISPORDER": "1500",
        "moWQ30GH": "3",
        "P_PASSIVE_SKILL_GROUP_INFO": "1016031",
        "P_DISP_DICTIONARY": "1",
        "AcK13Frq": "",
        "P_ICON_ID": "1002",
        "P_DICTIONARY_NO": "1",
        "P_DICTIONARY_BG": "53",
        "P_NEED_SWITCH_INFO": "0",
        "P_HIDE_SWITCH_INFO": "0",
        "P_OPEN_SWITCH_INFO": "0",
        "P_CREATEDATE": "2018-02-20 05:28:05",
        "P_UPDATEDATE": "2018-02-20 05:28:05"
    },
    {
        "P_SPHERE_ITEM_ID": "100820",
        "P_SPHERE_ITEM_NAME": "\u5b9d\u5263\u300e\u7d62\u721b\u300f",
        "8Cx57oAk": "\u5b9d\u5263\u7d62\u721b",
        "KMtIE5k7": "1",
        "P_RARE": "4",
        "P_DISPORDER": "1600",
        "moWQ30GH": "3",
        "P_PASSIVE_SKILL_GROUP_INFO": "1016055",
        "P_DISP_DICTIONARY": "1",
        "AcK13Frq": "",
        "P_ICON_ID": "1003",
        "P_DICTIONARY_NO": "1",
        "P_DICTIONARY_BG": "56",
        "P_NEED_SWITCH_INFO": "0",
        "P_HIDE_SWITCH_INFO": "0",
        "P_OPEN_SWITCH_INFO": "0",
        "P_CREATEDATE": "2018-02-20 05:28:05",
        "P_UPDATEDATE": "2018-02-20 05:28:05"
    },
    {
        "P_SPHERE_ITEM_ID": "100900",
        "P_SPHERE_ITEM_NAME": "\u65fa\u9b42\u5200\u300e\u6975\u300f",
        "8Cx57oAk": "\u65fa\u9b42\u5200",
        "KMtIE5k7": "1",
        "P_RARE": "3",
        "P_DISPORDER": "1700",
        "moWQ30GH": "3",
        "P_PASSIVE_SKILL_GROUP_INFO": "1017012",
        "P_DISP_DICTIONARY": "1",
        "AcK13Frq": "",
        "P_ICON_ID": "1002",
        "P_DICTIONARY_NO": "1",
        "P_DICTIONARY_BG": "59",
        "P_NEED_SWITCH_INFO": "0",
        "P_HIDE_SWITCH_INFO": "0",
        "P_OPEN_SWITCH_INFO": "0",
        "P_CREATEDATE": "2018-02-20 05:28:05",
        "P_UPDATEDATE": "2018-02-20 05:28:05"
    },
    {
        "P_SPHERE_ITEM_ID": "100910",
        "P_SPHERE_ITEM_NAME": "\u932c\u9283\u30e9\u30f4\u30a3\u30fc\u30c1",
        "8Cx57oAk": "\u932c\u9283",
        "KMtIE5k7": "1",
        "P_RARE": "4",
        "P_DISPORDER": "1800",
        "moWQ30GH": "3",
        "P_PASSIVE_SKILL_GROUP_INFO": "1017034",
        "P_DISP_DICTIONARY": "1",
        "AcK13Frq": "",
        "P_ICON_ID": "1003",
        "P_DICTIONARY_NO": "1",
        "P_DICTIONARY_BG": "62",
        "P_NEED_SWITCH_INFO": "0",
        "P_HIDE_SWITCH_INFO": "0",
        "P_OPEN_SWITCH_INFO": "0",
        "P_CREATEDATE": "2018-02-20 05:28:05",
        "P_UPDATEDATE": "2018-02-20 05:28:05"
    },
    {
        "P_SPHERE_ITEM_ID": "200000",
        "P_SPHERE_ITEM_NAME": "\u8987\u65a7\u30de\u30ea\u30e5\u30c7\u30d5\u30b9",
        "8Cx57oAk": "\u8987\u65a7",
        "KMtIE5k7": "2",
        "P_RARE": "2",
        "P_DISPORDER": "1900",
        "moWQ30GH": "3",
        "P_PASSIVE_SKILL_GROUP_INFO": "3010005",
        "P_DISP_DICTIONARY": "0",
        "AcK13Frq": "",
        "P_ICON_ID": "1101",
        "P_DICTIONARY_NO": "1",
        "P_DICTIONARY_BG": "65",
        "P_NEED_SWITCH_INFO": "0",
        "P_HIDE_SWITCH_INFO": "0",
        "P_OPEN_SWITCH_INFO": "0",
        "P_CREATEDATE": "2018-02-20 05:28:05",
        "P_UPDATEDATE": "2018-02-20 05:28:05"
    },
    {
        "P_SPHERE_ITEM_ID": "200001",
        "P_SPHERE_ITEM_NAME": "\u9b54\u795e\u65a7\u30ed\u30fc\u30c9\u30fb\u30de\u30b0\u30ec\u30b9",
        "8Cx57oAk": "\u9b54\u795e\u65a7",
        "KMtIE5k7": "2",
        "P_RARE": "3",
        "P_DISPORDER": "1901",
        "moWQ30GH": "3",
        "P_PASSIVE_SKILL_GROUP_INFO": "3010000",
        "P_DISP_DICTIONARY": "1",
        "AcK13Frq": "",
        "P_ICON_ID": "1102",
        "P_DICTIONARY_NO": "1",
        "P_DICTIONARY_BG": "66",
        "P_NEED_SWITCH_INFO": "0",
        "P_HIDE_SWITCH_INFO": "0",
        "P_OPEN_SWITCH_INFO": "0",
        "P_CREATEDATE": "2018-02-20 05:28:05",
        "P_UPDATEDATE": "2018-02-20 05:28:05"
    },
    {
        "P_SPHERE_ITEM_ID": "200002",
        "P_SPHERE_ITEM_NAME": "\u96f7\u9707\u65a7\u30b6\u30eb\u30b8\u30d0",
        "8Cx57oAk": "\u96f7\u9707\u65a7",
        "KMtIE5k7": "2",
        "P_RARE": "4",
        "P_DISPORDER": "1902",
        "moWQ30GH": "3",
        "P_PASSIVE_SKILL_GROUP_INFO": "3010001",
        "P_DISP_DICTIONARY": "1",
        "AcK13Frq": "",
        "P_ICON_ID": "1103",
        "P_DICTIONARY_NO": "1",
        "P_DICTIONARY_BG": "67",
        "P_NEED_SWITCH_INFO": "0",
        "P_HIDE_SWITCH_INFO": "0",
        "P_OPEN_SWITCH_INFO": "0",
        "P_CREATEDATE": "2018-02-20 05:28:05",
        "P_UPDATEDATE": "2018-02-20 05:28:05"
    },
    {
        "P_SPHERE_ITEM_ID": "200100",
        "P_SPHERE_ITEM_NAME": "\u72c2\u6c17\u306e\u51f6\u5203",
        "8Cx57oAk": "\u72c2\u6c17\u5203",
        "KMtIE5k7": "2",
        "P_RARE": "2",
        "P_DISPORDER": "1903",
        "moWQ30GH": "3",
        "P_PASSIVE_SKILL_GROUP_INFO": "3020005",
        "P_DISP_DICTIONARY": "0",
        "AcK13Frq": "",
        "P_ICON_ID": "1101",
        "P_DICTIONARY_NO": "1",
        "P_DICTIONARY_BG": "68",
        "P_NEED_SWITCH_INFO": "0",
        "P_HIDE_SWITCH_INFO": "0",
        "P_OPEN_SWITCH_INFO": "0",
        "P_CREATEDATE": "2018-02-20 05:28:05",
        "P_UPDATEDATE": "2018-02-20 05:28:05"
    },
    {
        "P_SPHERE_ITEM_ID": "200101",
        "P_SPHERE_ITEM_NAME": "\u9b54\u5203\u306e\u30b1\u30eb\u30b7\u30e5",
        "8Cx57oAk": "\u9b54\u5203\u30b1\u30eb",
        "KMtIE5k7": "2",
        "P_RARE": "3",
        "P_DISPORDER": "1904",
        "moWQ30GH": "3",
        "P_PASSIVE_SKILL_GROUP_INFO": "3020006",
        "P_DISP_DICTIONARY": "1",
        "AcK13Frq": "",
        "P_ICON_ID": "1102",
        "P_DICTIONARY_NO": "1",
        "P_DICTIONARY_BG": "69",
        "P_NEED_SWITCH_INFO": "0",
        "P_HIDE_SWITCH_INFO": "0",
        "P_OPEN_SWITCH_INFO": "0",
        "P_CREATEDATE": "2018-02-20 05:28:05",
        "P_UPDATEDATE": "2018-02-20 05:28:05"
    },
    {
        "P_SPHERE_ITEM_ID": "200102",
        "P_SPHERE_ITEM_NAME": "\u7344\u5203\u30dc\u30a6\u30b8\u30b6\u30d5\u30a1",
        "8Cx57oAk": "\u7344\u5203\u30dc\u30a6",
        "KMtIE5k7": "2",
        "P_RARE": "4",
        "P_DISPORDER": "1905",
        "moWQ30GH": "3",
        "P_PASSIVE_SKILL_GROUP_INFO": "3020007",
        "P_DISP_DICTIONARY": "1",
        "AcK13Frq": "",
        "P_ICON_ID": "1103",
        "P_DICTIONARY_NO": "1",
        "P_DICTIONARY_BG": "70",
        "P_NEED_SWITCH_INFO": "0",
        "P_HIDE_SWITCH_INFO": "0",
        "P_OPEN_SWITCH_INFO": "0",
        "P_CREATEDATE": "2018-02-20 05:28:05",
        "P_UPDATEDATE": "2018-02-20 05:28:05"
    },
    {
        "P_SPHERE_ITEM_ID": "200103",
        "P_SPHERE_ITEM_NAME": "\u7948\u308a\u306e\u5927\u5f13",
        "8Cx57oAk": "\u7948\u5927\u5f13",
        "KMtIE5k7": "2",
        "P_RARE": "5",
        "P_DISPORDER": "1906",
        "moWQ30GH": "3",
        "P_PASSIVE_SKILL_GROUP_INFO": "3020008",
        "P_DISP_DICTIONARY": "1",
        "AcK13Frq": "",
        "P_ICON_ID": "1104",
        "P_DICTIONARY_NO": "1",
        "P_DICTIONARY_BG": "71",
        "P_NEED_SWITCH_INFO": "0",
        "P_HIDE_SWITCH_INFO": "0",
        "P_OPEN_SWITCH_INFO": "0",
        "P_CREATEDATE": "2018-02-20 05:28:05",
        "P_UPDATEDATE": "2018-02-20 05:28:05"
    },
    {
        "P_SPHERE_ITEM_ID": "300000",
        "P_SPHERE_ITEM_NAME": "\u738b\u5149\u306e\u82b1",
        "8Cx57oAk": "\u738b\u5149\u82b1",
        "KMtIE5k7": "11",
        "P_RARE": "2",
        "P_DISPORDER": "2000",
        "moWQ30GH": "3",
        "P_PASSIVE_SKILL_GROUP_INFO": "2010000",
        "P_DISP_DICTIONARY": "0",
        "AcK13Frq": "",
        "P_ICON_ID": "1801",
        "P_DICTIONARY_NO": "1",
        "P_DICTIONARY_BG": "72",
        "P_NEED_SWITCH_INFO": "0",
        "P_HIDE_SWITCH_INFO": "0",
        "P_OPEN_SWITCH_INFO": "0",
        "P_CREATEDATE": "2018-02-20 05:28:05",
        "P_UPDATEDATE": "2018-02-20 05:28:05"
    },
    {
        "P_SPHERE_ITEM_ID": "300001",
        "P_SPHERE_ITEM_NAME": "\u795e\u5854\u306e\u82b1",
        "8Cx57oAk": "\u795e\u5854\u82b1",
        "KMtIE5k7": "11",
        "P_RARE": "3",
        "P_DISPORDER": "2001",
        "moWQ30GH": "3",
        "P_PASSIVE_SKILL_GROUP_INFO": "2010001",
        "P_DISP_DICTIONARY": "1",
        "AcK13Frq": "",
        "P_ICON_ID": "1802",
        "P_DICTIONARY_NO": "1",
        "P_DICTIONARY_BG": "73",
        "P_NEED_SWITCH_INFO": "0",
        "P_HIDE_SWITCH_INFO": "0",
        "P_OPEN_SWITCH_INFO": "0",
        "P_CREATEDATE": "2018-02-20 05:28:05",
        "P_UPDATEDATE": "2018-02-20 05:28:05"
    },
    {
        "P_SPHERE_ITEM_ID": "300002",
        "P_SPHERE_ITEM_NAME": "\u795e\u81e3\u306e\u82b1",
        "8Cx57oAk": "\u795e\u81e3\u82b1",
        "KMtIE5k7": "11",
        "P_RARE": "4",
        "P_DISPORDER": "2002",
        "moWQ30GH": "3",
        "P_PASSIVE_SKILL_GROUP_INFO": "2010002",
        "P_DISP_DICTIONARY": "1",
        "AcK13Frq": "",
        "P_ICON_ID": "1803",
        "P_DICTIONARY_NO": "1",
        "P_DICTIONARY_BG": "74",
        "P_NEED_SWITCH_INFO": "0",
        "P_HIDE_SWITCH_INFO": "0",
        "P_OPEN_SWITCH_INFO": "0",
        "P_CREATEDATE": "2018-02-20 05:28:05",
        "P_UPDATEDATE": "2018-02-20 05:28:05"
    },
    {
        "P_SPHERE_ITEM_ID": "300003",
        "P_SPHERE_ITEM_NAME": "\u98db\u68cd\u30bb\u30e9\u30ad\u30a6\u30e0",
        "8Cx57oAk": "\u98db\u68cd\u30bb\u30e9",
        "KMtIE5k7": "11",
        "P_RARE": "5",
        "P_DISPORDER": "2003",
        "moWQ30GH": "3",
        "P_PASSIVE_SKILL_GROUP_INFO": "2010003",
        "P_DISP_DICTIONARY": "1",
        "AcK13Frq": "",
        "P_ICON_ID": "1804",
        "P_DICTIONARY_NO": "1",
        "P_DICTIONARY_BG": "75",
        "P_NEED_SWITCH_INFO": "0",
        "P_HIDE_SWITCH_INFO": "0",
        "P_OPEN_SWITCH_INFO": "0",
        "P_CREATEDATE": "2018-02-20 05:28:05",
        "P_UPDATEDATE": "2018-02-20 05:28:05"
    },
    {
        "P_SPHERE_ITEM_ID": "400000",
        "P_SPHERE_ITEM_NAME": "\u6280\u5b9d\u30d0\u30c8\u30eb\u30d6\u30fc\u30b9\u30bf\u30fc",
        "8Cx57oAk": "\u6280\u5b9d\u6226\u6676",
        "KMtIE5k7": "3",
        "P_RARE": "2",
        "P_DISPORDER": "2100",
        "moWQ30GH": "3",
        "P_PASSIVE_SKILL_GROUP_INFO": "7000000",
        "P_DISP_DICTIONARY": "0",
        "AcK13Frq": "",
        "P_ICON_ID": "1201",
        "P_DICTIONARY_NO": "1",
        "P_DICTIONARY_BG": "76",
        "P_NEED_SWITCH_INFO": "0",
        "P_HIDE_SWITCH_INFO": "0",
        "P_OPEN_SWITCH_INFO": "0",
        "P_CREATEDATE": "2018-02-20 05:28:05",
        "P_UPDATEDATE": "2018-02-20 05:28:05"
    },
    {
        "P_SPHERE_ITEM_ID": "400001",
        "P_SPHERE_ITEM_NAME": "\u6226\u5b9d\u30d0\u30c8\u30eb\u30c9\u30e9\u30a4\u30d0\u30fc",
        "8Cx57oAk": "\u6226\u5b9d\u65cb\u6676",
        "KMtIE5k7": "3",
        "P_RARE": "3",
        "P_DISPORDER": "2101",
        "moWQ30GH": "3",
        "P_PASSIVE_SKILL_GROUP_INFO": "7000001",
        "P_DISP_DICTIONARY": "1",
        "AcK13Frq": "",
        "P_ICON_ID": "1202",
        "P_DICTIONARY_NO": "1",
        "P_DICTIONARY_BG": "77",
        "P_NEED_SWITCH_INFO": "0",
        "P_HIDE_SWITCH_INFO": "0",
        "P_OPEN_SWITCH_INFO": "0",
        "P_CREATEDATE": "2018-02-20 05:28:05",
        "P_UPDATEDATE": "2018-02-20 05:28:05"
    },
    {
        "P_SPHERE_ITEM_ID": "400100",
        "P_SPHERE_ITEM_NAME": "\u7652\u5b9d\u30cf\u30fc\u30c8\u30d6\u30fc\u30b9\u30bf\u30fc",
        "8Cx57oAk": "\u7652\u5b9d\u56de\u6676",
        "KMtIE5k7": "3",
        "P_RARE": "2",
        "P_DISPORDER": "2200",
        "moWQ30GH": "3",
        "P_PASSIVE_SKILL_GROUP_INFO": "7010001",
        "P_DISP_DICTIONARY": "0",
        "AcK13Frq": "",
        "P_ICON_ID": "1201",
        "P_DICTIONARY_NO": "1",
        "P_DICTIONARY_BG": "79",
        "P_NEED_SWITCH_INFO": "0",
        "P_HIDE_SWITCH_INFO": "0",
        "P_OPEN_SWITCH_INFO": "0",
        "P_CREATEDATE": "2018-02-20 05:28:05",
        "P_UPDATEDATE": "2018-02-20 05:28:05"
    },
    {
        "P_SPHERE_ITEM_ID": "400200",
        "P_SPHERE_ITEM_NAME": "\u8ce2\u5b9d\u30d0\u30c8\u30eb\u30d6\u30fc\u30b9\u30bf\u30fc",
        "8Cx57oAk": "\u8ce2\u5b9d\u6676",
        "KMtIE5k7": "3",
        "P_RARE": "5",
        "P_DISPORDER": "2300",
        "moWQ30GH": "3",
        "P_PASSIVE_SKILL_GROUP_INFO": "7050000",
        "P_DISP_DICTIONARY": "1",
        "AcK13Frq": "",
        "P_ICON_ID": "1204",
        "P_DICTIONARY_NO": "1",
        "P_DICTIONARY_BG": "82",
        "P_NEED_SWITCH_INFO": "0",
        "P_HIDE_SWITCH_INFO": "0",
        "P_OPEN_SWITCH_INFO": "0",
        "P_CREATEDATE": "2018-02-20 05:28:05",
        "P_UPDATEDATE": "2018-02-20 05:28:05"
    },
    {
        "P_SPHERE_ITEM_ID": "500010",
        "P_SPHERE_ITEM_NAME": "\u30d5\u30a7\u30cb\u30c3\u30af\u30b9\u306e\u773c",
        "8Cx57oAk": "\u706b\u773c",
        "KMtIE5k7": "7",
        "P_RARE": "1",
        "P_DISPORDER": "2500",
        "moWQ30GH": "3",
        "P_PASSIVE_SKILL_GROUP_INFO": "6010109",
        "P_DISP_DICTIONARY": "0",
        "AcK13Frq": "",
        "P_ICON_ID": "1600",
        "P_DICTIONARY_NO": "1",
        "P_DICTIONARY_BG": "88",
        "P_NEED_SWITCH_INFO": "0",
        "P_HIDE_SWITCH_INFO": "0",
        "P_OPEN_SWITCH_INFO": "0",
        "P_CREATEDATE": "2018-02-20 05:28:05",
        "P_UPDATEDATE": "2018-02-20 05:28:05"
    },
    {
        "P_SPHERE_ITEM_ID": "500011",
        "P_SPHERE_ITEM_NAME": "\u30d5\u30a7\u30eb\u30b6\u30fc\u306e\u773c",
        "8Cx57oAk": "\u708e\u773c",
        "KMtIE5k7": "7",
        "P_RARE": "2",
        "P_DISPORDER": "2501",
        "moWQ30GH": "3",
        "P_PASSIVE_SKILL_GROUP_INFO": "6010100",
        "P_DISP_DICTIONARY": "0",
        "AcK13Frq": "",
        "P_ICON_ID": "1601",
        "P_DICTIONARY_NO": "1",
        "P_DICTIONARY_BG": "89",
        "P_NEED_SWITCH_INFO": "0",
        "P_HIDE_SWITCH_INFO": "0",
        "P_OPEN_SWITCH_INFO": "0",
        "P_CREATEDATE": "2018-02-20 05:28:05",
        "P_UPDATEDATE": "2018-02-20 05:28:05"
    },
    {
        "P_SPHERE_ITEM_ID": "500200",
        "P_SPHERE_ITEM_NAME": "\u95c7\u8863\u30c0\u30fc\u30af\u30a8\u30c7\u30e5\u30a2",
        "8Cx57oAk": "\u95c7\u8863",
        "KMtIE5k7": "7",
        "P_RARE": "2",
        "P_DISPORDER": "2700",
        "moWQ30GH": "3",
        "P_PASSIVE_SKILL_GROUP_INFO": "6040002",
        "P_DISP_DICTIONARY": "0",
        "AcK13Frq": "",
        "P_ICON_ID": "1601",
        "P_DICTIONARY_NO": "1",
        "P_DICTIONARY_BG": "94",
        "P_NEED_SWITCH_INFO": "0",
        "P_HIDE_SWITCH_INFO": "0",
        "P_OPEN_SWITCH_INFO": "0",
        "P_CREATEDATE": "2018-02-20 05:28:05",
        "P_UPDATEDATE": "2018-02-20 05:28:05"
    },
    {
        "P_SPHERE_ITEM_ID": "500300",
        "P_SPHERE_ITEM_NAME": "\u6d77\u9b54\u5973\u306e\u8b77\u5e03",
        "8Cx57oAk": "\u6d77\u9b54\u5973\u5e03",
        "KMtIE5k7": "7",
        "P_RARE": "2",
        "P_DISPORDER": "2800",
        "moWQ30GH": "3",
        "P_PASSIVE_SKILL_GROUP_INFO": "6030004",
        "P_DISP_DICTIONARY": "0",
        "AcK13Frq": "",
        "P_ICON_ID": "1601",
        "P_DICTIONARY_NO": "1",
        "P_DICTIONARY_BG": "97",
        "P_NEED_SWITCH_INFO": "0",
        "P_HIDE_SWITCH_INFO": "0",
        "P_OPEN_SWITCH_INFO": "0",
        "P_CREATEDATE": "2018-02-20 05:28:05",
        "P_UPDATEDATE": "2018-02-20 05:28:05"
    },
    {
        "P_SPHERE_ITEM_ID": "600000",
        "P_SPHERE_ITEM_NAME": "\u9b54\u77f3\u306e\u6b20\u7247",
        "8Cx57oAk": "\u9b54\u77f3\u6b20\u7247",
        "KMtIE5k7": "6",
        "P_RARE": "1",
        "P_DISPORDER": "3100",
        "moWQ30GH": "3",
        "P_PASSIVE_SKILL_GROUP_INFO": "5010000",
        "P_DISP_DICTIONARY": "0",
        "AcK13Frq": "",
        "P_ICON_ID": "1500",
        "P_DICTIONARY_NO": "1",
        "P_DICTIONARY_BG": "106",
        "P_NEED_SWITCH_INFO": "0",
        "P_HIDE_SWITCH_INFO": "0",
        "P_OPEN_SWITCH_INFO": "0",
        "P_CREATEDATE": "2018-02-20 05:28:05",
        "P_UPDATEDATE": "2018-02-20 05:28:05"
    },
    {
        "P_SPHERE_ITEM_ID": "600001",
        "P_SPHERE_ITEM_NAME": "\u9b54\u6676\u77f3\u306e\u6b20\u7247",
        "8Cx57oAk": "\u9b54\u6676\u77f3\u7247",
        "KMtIE5k7": "6",
        "P_RARE": "2",
        "P_DISPORDER": "3101",
        "moWQ30GH": "3",
        "P_PASSIVE_SKILL_GROUP_INFO": "5010001",
        "P_DISP_DICTIONARY": "0",
        "AcK13Frq": "",
        "P_ICON_ID": "1501",
        "P_DICTIONARY_NO": "1",
        "P_DICTIONARY_BG": "107",
        "P_NEED_SWITCH_INFO": "0",
        "P_HIDE_SWITCH_INFO": "0",
        "P_OPEN_SWITCH_INFO": "0",
        "P_CREATEDATE": "2018-02-20 05:28:05",
        "P_UPDATEDATE": "2018-02-20 05:28:05"
    },
    {
        "P_SPHERE_ITEM_ID": "600100",
        "P_SPHERE_ITEM_NAME": "\u30df\u30ed\u30af\u306e\u73e0",
        "8Cx57oAk": "\u30df\u30ed\u30af\u73e0",
        "KMtIE5k7": "6",
        "P_RARE": "1",
        "P_DISPORDER": "3200",
        "moWQ30GH": "3",
        "P_PASSIVE_SKILL_GROUP_INFO": "5050001",
        "P_DISP_DICTIONARY": "0",
        "AcK13Frq": "",
        "P_ICON_ID": "1500",
        "P_DICTIONARY_NO": "1",
        "P_DICTIONARY_BG": "109",
        "P_NEED_SWITCH_INFO": "0",
        "P_HIDE_SWITCH_INFO": "0",
        "P_OPEN_SWITCH_INFO": "0",
        "P_CREATEDATE": "2018-02-20 05:28:05",
        "P_UPDATEDATE": "2018-02-20 05:28:05"
    },
    {
        "P_SPHERE_ITEM_ID": "600101",
        "P_SPHERE_ITEM_NAME": "\u30b0\u30f3\u30ca\u30de\u30c3\u30bf\u306e\u73e0",
        "8Cx57oAk": "\u30b0\u30f3\u30ca\u73e0",
        "KMtIE5k7": "6",
        "P_RARE": "2",
        "P_DISPORDER": "3201",
        "moWQ30GH": "3",
        "P_PASSIVE_SKILL_GROUP_INFO": "5050003",
        "P_DISP_DICTIONARY": "0",
        "AcK13Frq": "",
        "P_ICON_ID": "1501",
        "P_DICTIONARY_NO": "1",
        "P_DICTIONARY_BG": "110",
        "P_NEED_SWITCH_INFO": "0",
        "P_HIDE_SWITCH_INFO": "0",
        "P_OPEN_SWITCH_INFO": "0",
        "P_CREATEDATE": "2018-02-20 05:28:05",
        "P_UPDATEDATE": "2018-02-20 05:28:05"
    },
    {
        "P_SPHERE_ITEM_ID": "600300",
        "P_SPHERE_ITEM_NAME": "\u661f\u5263\u30a4\u30aa\u30e1\u30c6\u30a3\u30b9",
        "8Cx57oAk": "\u661f\u5263\u30a4\u30aa",
        "KMtIE5k7": "6",
        "P_RARE": "2",
        "P_DISPORDER": "3400",
        "moWQ30GH": "3",
        "P_PASSIVE_SKILL_GROUP_INFO": "5030000",
        "P_DISP_DICTIONARY": "0",
        "AcK13Frq": "",
        "P_ICON_ID": "1501",
        "P_DICTIONARY_NO": "1",
        "P_DICTIONARY_BG": "115",
        "P_NEED_SWITCH_INFO": "0",
        "P_HIDE_SWITCH_INFO": "0",
        "P_OPEN_SWITCH_INFO": "0",
        "P_CREATEDATE": "2018-02-20 05:28:05",
        "P_UPDATEDATE": "2018-02-20 05:28:05"
    },
    {
        "P_SPHERE_ITEM_ID": "600400",
        "P_SPHERE_ITEM_NAME": "\u61a4\u6012\u306e\u970a\u51a0",
        "8Cx57oAk": "\u6012\u970a\u51a0",
        "KMtIE5k7": "6",
        "P_RARE": "2",
        "P_DISPORDER": "3500",
        "moWQ30GH": "3",
        "P_PASSIVE_SKILL_GROUP_INFO": "5040006",
        "P_DISP_DICTIONARY": "0",
        "AcK13Frq": "",
        "P_ICON_ID": "1501",
        "P_DICTIONARY_NO": "1",
        "P_DICTIONARY_BG": "118",
        "P_NEED_SWITCH_INFO": "0",
        "P_HIDE_SWITCH_INFO": "0",
        "P_OPEN_SWITCH_INFO": "0",
        "P_CREATEDATE": "2018-02-20 05:28:05",
        "P_UPDATEDATE": "2018-02-20 05:28:05"
    },
    {
        "P_SPHERE_ITEM_ID": "700000",
        "P_SPHERE_ITEM_NAME": "\u596e\u96c4\u9283\u30c9\u30ec\u30f3\u30c6\u30a3\u30a2",
        "8Cx57oAk": "\u596e\u9283\u30c9\u30ec",
        "KMtIE5k7": "13",
        "P_RARE": "3",
        "P_DISPORDER": "3600",
        "moWQ30GH": "3",
        "P_PASSIVE_SKILL_GROUP_INFO": "4010001",
        "P_DISP_DICTIONARY": "1",
        "AcK13Frq": "",
        "P_ICON_ID": "1902",
        "P_DICTIONARY_NO": "1",
        "P_DICTIONARY_BG": "121",
        "P_NEED_SWITCH_INFO": "0",
        "P_HIDE_SWITCH_INFO": "0",
        "P_OPEN_SWITCH_INFO": "0",
        "P_CREATEDATE": "2018-02-20 05:28:05",
        "P_UPDATEDATE": "2018-02-20 05:28:05"
    },
    {
        "P_SPHERE_ITEM_ID": "700001",
        "P_SPHERE_ITEM_NAME": "\u707d\u5efb\u306e\u9b54\u9285\u8ca8",
        "8Cx57oAk": "\u707d\u5efb\u9285\u8ca8",
        "KMtIE5k7": "13",
        "P_RARE": "5",
        "P_DISPORDER": "3601",
        "moWQ30GH": "3",
        "P_PASSIVE_SKILL_GROUP_INFO": "4010003",
        "P_DISP_DICTIONARY": "1",
        "AcK13Frq": "",
        "P_ICON_ID": "1904",
        "P_DICTIONARY_NO": "1",
        "P_DICTIONARY_BG": "122",
        "P_NEED_SWITCH_INFO": "0",
        "P_HIDE_SWITCH_INFO": "0",
        "P_OPEN_SWITCH_INFO": "0",
        "P_CREATEDATE": "2018-02-20 05:28:05",
        "P_UPDATEDATE": "2018-02-20 05:28:05"
    },
    {
        "P_SPHERE_ITEM_ID": "800000",
        "P_SPHERE_ITEM_NAME": "\u546a\u6bd2\u5f13\u30d0\u30fc\u30f4\u30a9",
        "8Cx57oAk": "\u546a\u6bd2\u5f13",
        "KMtIE5k7": "4",
        "P_RARE": "1",
        "P_DISPORDER": "3700",
        "moWQ30GH": "3",
        "P_PASSIVE_SKILL_GROUP_INFO": "9020003",
        "P_DISP_DICTIONARY": "0",
        "AcK13Frq": "",
        "P_ICON_ID": "1300",
        "P_DICTIONARY_NO": "1",
        "P_DICTIONARY_BG": "124",
        "P_NEED_SWITCH_INFO": "0",
        "P_HIDE_SWITCH_INFO": "0",
        "P_OPEN_SWITCH_INFO": "0",
        "P_CREATEDATE": "2018-02-20 05:28:05",
        "P_UPDATEDATE": "2018-02-20 05:28:05"
    },
    {
        "P_SPHERE_ITEM_ID": "800010",
        "P_SPHERE_ITEM_NAME": "\u9b3c\u9aa8\u68cd\u30c7\u30aa\u30c9\u30a5",
        "8Cx57oAk": "\u9b3c\u9aa8\u68cd",
        "KMtIE5k7": "4",
        "P_RARE": "1",
        "P_DISPORDER": "3800",
        "moWQ30GH": "3",
        "P_PASSIVE_SKILL_GROUP_INFO": "9020103",
        "P_DISP_DICTIONARY": "0",
        "AcK13Frq": "",
        "P_ICON_ID": "1300",
        "P_DICTIONARY_NO": "1",
        "P_DICTIONARY_BG": "127",
        "P_NEED_SWITCH_INFO": "0",
        "P_HIDE_SWITCH_INFO": "0",
        "P_OPEN_SWITCH_INFO": "0",
        "P_CREATEDATE": "2018-02-20 05:28:05",
        "P_UPDATEDATE": "2018-02-20 05:28:05"
    },
    {
        "P_SPHERE_ITEM_ID": "800020",
        "P_SPHERE_ITEM_NAME": "\u75ab\u9000\u69cd\u30d9\u30ab\u30c9\u30ec",
        "8Cx57oAk": "\u75ab\u9000\u69cd",
        "KMtIE5k7": "4",
        "P_RARE": "1",
        "P_DISPORDER": "3900",
        "moWQ30GH": "3",
        "P_PASSIVE_SKILL_GROUP_INFO": "9020203",
        "P_DISP_DICTIONARY": "0",
        "AcK13Frq": "",
        "P_ICON_ID": "1300",
        "P_DICTIONARY_NO": "1",
        "P_DICTIONARY_BG": "130",
        "P_NEED_SWITCH_INFO": "0",
        "P_HIDE_SWITCH_INFO": "0",
        "P_OPEN_SWITCH_INFO": "0",
        "P_CREATEDATE": "2018-02-20 05:28:05",
        "P_UPDATEDATE": "2018-02-20 05:28:05"
    },
    {
        "P_SPHERE_ITEM_ID": "800030",
        "P_SPHERE_ITEM_NAME": "\u75c5\u9b54\u5634\u30d3\u30e8\u30b0\u30c9",
        "8Cx57oAk": "\u75c5\u9b54\u5634",
        "KMtIE5k7": "4",
        "P_RARE": "1",
        "P_DISPORDER": "4000",
        "moWQ30GH": "3",
        "P_PASSIVE_SKILL_GROUP_INFO": "9020303",
        "P_DISP_DICTIONARY": "0",
        "AcK13Frq": "",
        "P_ICON_ID": "1300",
        "P_DICTIONARY_NO": "1",
        "P_DICTIONARY_BG": "133",
        "P_NEED_SWITCH_INFO": "0",
        "P_HIDE_SWITCH_INFO": "0",
        "P_OPEN_SWITCH_INFO": "0",
        "P_CREATEDATE": "2018-02-20 05:28:05",
        "P_UPDATEDATE": "2018-02-20 05:28:05"
    },
    {
        "P_SPHERE_ITEM_ID": "800040",
        "P_SPHERE_ITEM_NAME": "\u5e7b\u932f\u65a7\u30ae\u30e8\u30c3\u30d7",
        "8Cx57oAk": "\u5e7b\u932f\u65a7",
        "KMtIE5k7": "4",
        "P_RARE": "1",
        "P_DISPORDER": "4100",
        "moWQ30GH": "3",
        "P_PASSIVE_SKILL_GROUP_INFO": "9020403",
        "P_DISP_DICTIONARY": "0",
        "AcK13Frq": "",
        "P_ICON_ID": "1300",
        "P_DICTIONARY_NO": "1",
        "P_DICTIONARY_BG": "136",
        "P_NEED_SWITCH_INFO": "0",
        "P_HIDE_SWITCH_INFO": "0",
        "P_OPEN_SWITCH_INFO": "0",
        "P_CREATEDATE": "2018-02-20 05:28:05",
        "P_UPDATEDATE": "2018-02-20 05:28:05"
    },
    {
        "P_SPHERE_ITEM_ID": "900000",
        "P_SPHERE_ITEM_NAME": "\u5929\u53d9\u306e\u6307\u8f2a",
        "8Cx57oAk": "\u5929\u53d9\u6307\u8f2a",
        "KMtIE5k7": "5",
        "P_RARE": "1",
        "P_DISPORDER": "4200",
        "moWQ30GH": "3",
        "P_PASSIVE_SKILL_GROUP_INFO": "8016100",
        "P_DISP_DICTIONARY": "0",
        "AcK13Frq": "",
        "P_ICON_ID": "1400",
        "P_DICTIONARY_NO": "1",
        "P_DICTIONARY_BG": "139",
        "P_NEED_SWITCH_INFO": "0",
        "P_HIDE_SWITCH_INFO": "0",
        "P_OPEN_SWITCH_INFO": "0",
        "P_CREATEDATE": "2018-02-20 05:28:05",
        "P_UPDATEDATE": "2018-02-20 05:28:05"
    },
    {
        "P_SPHERE_ITEM_ID": "900010",
        "P_SPHERE_ITEM_NAME": "\u5730\u52ab\u306e\u6307\u8f2a",
        "8Cx57oAk": "\u5730\u52ab\u6307\u8f2a",
        "KMtIE5k7": "5",
        "P_RARE": "1",
        "P_DISPORDER": "4300",
        "moWQ30GH": "3",
        "P_PASSIVE_SKILL_GROUP_INFO": "8016200",
        "P_DISP_DICTIONARY": "0",
        "AcK13Frq": "",
        "P_ICON_ID": "1400",
        "P_DICTIONARY_NO": "1",
        "P_DICTIONARY_BG": "142",
        "P_NEED_SWITCH_INFO": "0",
        "P_HIDE_SWITCH_INFO": "0",
        "P_OPEN_SWITCH_INFO": "0",
        "P_CREATEDATE": "2018-02-20 05:28:05",
        "P_UPDATEDATE": "2018-02-20 05:28:05"
    },
    {
        "P_SPHERE_ITEM_ID": "900020",
        "P_SPHERE_ITEM_NAME": "\u4eba\u667a\u306e\u6307\u8f2a",
        "8Cx57oAk": "\u4eba\u667a\u6307\u8f2a",
        "KMtIE5k7": "5",
        "P_RARE": "1",
        "P_DISPORDER": "4400",
        "moWQ30GH": "3",
        "P_PASSIVE_SKILL_GROUP_INFO": "8016300",
        "P_DISP_DICTIONARY": "0",
        "AcK13Frq": "",
        "P_ICON_ID": "1400",
        "P_DICTIONARY_NO": "1",
        "P_DICTIONARY_BG": "145",
        "P_NEED_SWITCH_INFO": "0",
        "P_HIDE_SWITCH_INFO": "0",
        "P_OPEN_SWITCH_INFO": "0",
        "P_CREATEDATE": "2018-02-20 05:28:05",
        "P_UPDATEDATE": "2018-02-20 05:28:05"
    },
    {
        "P_SPHERE_ITEM_ID": "1000000",
        "P_SPHERE_ITEM_NAME": "\u8056\u9280\u306e\u5916\u5957",
        "8Cx57oAk": "\u8056\u9280\u5916\u5957",
        "KMtIE5k7": "10",
        "P_RARE": "3",
        "P_DISPORDER": "4501",
        "moWQ30GH": "3",
        "P_PASSIVE_SKILL_GROUP_INFO": "10200000",
        "P_DISP_DICTIONARY": "0",
        "AcK13Frq": "",
        "P_ICON_ID": "1702",
        "P_DICTIONARY_NO": "1",
        "P_DICTIONARY_BG": "162",
        "P_NEED_SWITCH_INFO": "0",
        "P_HIDE_SWITCH_INFO": "0",
        "P_OPEN_SWITCH_INFO": "0",
        "P_CREATEDATE": "2018-02-20 05:28:05",
        "P_UPDATEDATE": "2018-02-20 05:28:05"
    },
    {
        "P_SPHERE_ITEM_ID": "1100000",
        "P_SPHERE_ITEM_NAME": "\u5f71\u5200\u300e\u7f85\u65ac\u300f",
        "8Cx57oAk": "\u7f85\u65ac",
        "KMtIE5k7": "1",
        "P_RARE": "4",
        "P_DISPORDER": "5000",
        "moWQ30GH": "3",
        "P_PASSIVE_SKILL_GROUP_INFO": "1019304",
        "P_DISP_DICTIONARY": "1",
        "AcK13Frq": "",
        "P_ICON_ID": "1003",
        "P_DICTIONARY_NO": "1",
        "P_DICTIONARY_BG": "148",
        "P_NEED_SWITCH_INFO": "0",
        "P_HIDE_SWITCH_INFO": "0",
        "P_OPEN_SWITCH_INFO": "0",
        "P_CREATEDATE": "2018-02-20 05:28:05",
        "P_UPDATEDATE": "2018-02-20 05:28:05"
    },
    {
        "P_SPHERE_ITEM_ID": "1100010",
        "P_SPHERE_ITEM_NAME": "\u6a5f\u68b0\u4eba\u5f62\u306e\u5fc3\u81d3\u57fa\u677f",
        "8Cx57oAk": "\u5fc3\u81d3\u57fa\u677f",
        "KMtIE5k7": "1",
        "P_RARE": "4",
        "P_DISPORDER": "5001",
        "moWQ30GH": "3",
        "P_PASSIVE_SKILL_GROUP_INFO": "1008001,6010100",
        "P_DISP_DICTIONARY": "1",
        "AcK13Frq": "",
        "P_ICON_ID": "1003",
        "P_DICTIONARY_NO": "1",
        "P_DICTIONARY_BG": "149",
        "P_NEED_SWITCH_INFO": "0",
        "P_HIDE_SWITCH_INFO": "0",
        "P_OPEN_SWITCH_INFO": "0",
        "P_CREATEDATE": "2018-02-20 05:28:05",
        "P_UPDATEDATE": "2018-02-20 05:28:05"
    },
    {
        "P_SPHERE_ITEM_ID": "1100020",
        "P_SPHERE_ITEM_NAME": "\u56db\u8056\u5341\u5b57\u594f\u52f2\u7ae0",
        "8Cx57oAk": "\u56db\u8056\u52f2\u7ae0",
        "KMtIE5k7": "1",
        "P_RARE": "4",
        "P_DISPORDER": "5002",
        "moWQ30GH": "3",
        "P_PASSIVE_SKILL_GROUP_INFO": "1015002",
        "P_DISP_DICTIONARY": "1",
        "AcK13Frq": "",
        "P_ICON_ID": "1003",
        "P_DICTIONARY_NO": "1",
        "P_DICTIONARY_BG": "150",
        "P_NEED_SWITCH_INFO": "0",
        "P_HIDE_SWITCH_INFO": "0",
        "P_OPEN_SWITCH_INFO": "0",
        "P_CREATEDATE": "2018-02-20 05:28:05",
        "P_UPDATEDATE": "2018-02-20 05:28:05"
    },
    {
        "P_SPHERE_ITEM_ID": "1100030",
        "P_SPHERE_ITEM_NAME": "\u5149\u7345\u5b50\u306e\u5927\u76fe",
        "8Cx57oAk": "\u5149\u7345\u5927\u76fe",
        "KMtIE5k7": "1",
        "P_RARE": "4",
        "P_DISPORDER": "5003",
        "moWQ30GH": "3",
        "P_PASSIVE_SKILL_GROUP_INFO": "1008004",
        "P_DISP_DICTIONARY": "1",
        "AcK13Frq": "",
        "P_ICON_ID": "1003",
        "P_DICTIONARY_NO": "1",
        "P_DICTIONARY_BG": "151",
        "P_NEED_SWITCH_INFO": "0",
        "P_HIDE_SWITCH_INFO": "0",
        "P_OPEN_SWITCH_INFO": "0",
        "P_CREATEDATE": "2018-02-20 05:28:05",
        "P_UPDATEDATE": "2018-02-20 05:28:05"
    },
    {
        "P_SPHERE_ITEM_ID": "1100050",
        "P_SPHERE_ITEM_NAME": "\u5fc3\u7cbe\u30b5\u30f3\u30af\u30aa\u30fc\u30ec\u306e\u6d99",
        "8Cx57oAk": "\u5fc3\u7cbe\u306e\u6d99",
        "KMtIE5k7": "1",
        "P_RARE": "5",
        "P_DISPORDER": "5005",
        "moWQ30GH": "3",
        "P_PASSIVE_SKILL_GROUP_INFO": "1018004,1018110",
        "P_DISP_DICTIONARY": "1",
        "AcK13Frq": "",
        "P_ICON_ID": "1004",
        "P_DICTIONARY_NO": "1",
        "P_DICTIONARY_BG": "153",
        "P_NEED_SWITCH_INFO": "0",
        "P_HIDE_SWITCH_INFO": "0",
        "P_OPEN_SWITCH_INFO": "0",
        "P_CREATEDATE": "2018-02-20 05:28:05",
        "P_UPDATEDATE": "2018-02-20 05:28:05"
    },
    {
        "P_SPHERE_ITEM_ID": "1100060",
        "P_SPHERE_ITEM_NAME": "\u8679\u5973\u795e\u306e\u5c01\u8b77\u7b26",
        "8Cx57oAk": "\u8679\u5973\u795e\u7b26",
        "KMtIE5k7": "1",
        "P_RARE": "5",
        "P_DISPORDER": "5006",
        "moWQ30GH": "3",
        "P_PASSIVE_SKILL_GROUP_INFO": "1015004,3010000",
        "P_DISP_DICTIONARY": "1",
        "AcK13Frq": "",
        "P_ICON_ID": "1004",
        "P_DICTIONARY_NO": "1",
        "P_DICTIONARY_BG": "154",
        "P_NEED_SWITCH_INFO": "0",
        "P_HIDE_SWITCH_INFO": "0",
        "P_OPEN_SWITCH_INFO": "0",
        "P_CREATEDATE": "2018-02-20 05:28:05",
        "P_UPDATEDATE": "2018-02-20 05:28:05"
    },
    {
        "P_SPHERE_ITEM_ID": "1100070",
        "P_SPHERE_ITEM_NAME": "\u9583\u5b9d\u300e\u30c8\u30ec\u30b9\u30fb\u30e9\u30b0\u30ea\u30b9\u300f",
        "8Cx57oAk": "\u9583\u5b9d\u30c8\u30ec",
        "KMtIE5k7": "1",
        "P_RARE": "5",
        "P_DISPORDER": "5007",
        "moWQ30GH": "3",
        "P_PASSIVE_SKILL_GROUP_INFO": "1015006,2010005",
        "P_DISP_DICTIONARY": "1",
        "AcK13Frq": "",
        "P_ICON_ID": "1004",
        "P_DICTIONARY_NO": "1",
        "P_DICTIONARY_BG": "162",
        "P_NEED_SWITCH_INFO": "0",
        "P_HIDE_SWITCH_INFO": "0",
        "P_OPEN_SWITCH_INFO": "0",
        "P_CREATEDATE": "2018-02-20 05:28:05",
        "P_UPDATEDATE": "2018-02-20 05:28:05"
    },
    {
        "P_SPHERE_ITEM_ID": "1300000",
        "P_SPHERE_ITEM_NAME": "\u7fe0\u6f54\u5200\u300e\u5f57\u83ef\u300f",
        "8Cx57oAk": "\u5f57\u83ef",
        "KMtIE5k7": "11",
        "P_RARE": "5",
        "P_DISPORDER": "7000",
        "moWQ30GH": "3",
        "P_PASSIVE_SKILL_GROUP_INFO": "2010002,2020001",
        "P_DISP_DICTIONARY": "1",
        "AcK13Frq": "",
        "P_ICON_ID": "1804",
        "P_DICTIONARY_NO": "1",
        "P_DICTIONARY_BG": "156",
        "P_NEED_SWITCH_INFO": "0",
        "P_HIDE_SWITCH_INFO": "0",
        "P_OPEN_SWITCH_INFO": "0",
        "P_CREATEDATE": "2018-02-20 05:28:05",
        "P_UPDATEDATE": "2018-02-20 05:28:05"
    },
    {
        "P_SPHERE_ITEM_ID": "1400000",
        "P_SPHERE_ITEM_NAME": "\u7363\u722a\u306e\u9996\u98fe\u308a",
        "8Cx57oAk": "\u7363\u722a\u9996\u98fe",
        "KMtIE5k7": "3",
        "P_RARE": "4",
        "P_DISPORDER": "8000",
        "moWQ30GH": "3",
        "P_PASSIVE_SKILL_GROUP_INFO": "7050000",
        "P_DISP_DICTIONARY": "1",
        "AcK13Frq": "",
        "P_ICON_ID": "1203",
        "P_DICTIONARY_NO": "1",
        "P_DICTIONARY_BG": "157",
        "P_NEED_SWITCH_INFO": "0",
        "P_HIDE_SWITCH_INFO": "0",
        "P_OPEN_SWITCH_INFO": "0",
        "P_CREATEDATE": "2018-02-20 05:28:05",
        "P_UPDATEDATE": "2018-02-20 05:28:05"
    },
    {
        "P_SPHERE_ITEM_ID": "1500000",
        "P_SPHERE_ITEM_NAME": "\u68ee\u8056\u306e\u745e\u82b1",
        "8Cx57oAk": "\u68ee\u8056\u745e\u82b1",
        "KMtIE5k7": "7",
        "P_RARE": "4",
        "P_DISPORDER": "9000",
        "moWQ30GH": "3",
        "P_PASSIVE_SKILL_GROUP_INFO": "6010108,6030005",
        "P_DISP_DICTIONARY": "1",
        "AcK13Frq": "",
        "P_ICON_ID": "1603",
        "P_DICTIONARY_NO": "1",
        "P_DICTIONARY_BG": "158",
        "P_NEED_SWITCH_INFO": "0",
        "P_HIDE_SWITCH_INFO": "0",
        "P_OPEN_SWITCH_INFO": "0",
        "P_CREATEDATE": "2018-02-20 05:28:05",
        "P_UPDATEDATE": "2018-02-20 05:28:05"
    },
    {
        "P_SPHERE_ITEM_ID": "1700000",
        "P_SPHERE_ITEM_NAME": "\u30a2\u30fc\u30e0\u30c9\u30fb\u30b3\u30fc\u30c8",
        "8Cx57oAk": "\u9283\u5668\u5916\u88c5",
        "KMtIE5k7": "13",
        "P_RARE": "4",
        "P_DISPORDER": "10000",
        "moWQ30GH": "3",
        "P_PASSIVE_SKILL_GROUP_INFO": "4010001,2010001",
        "P_DISP_DICTIONARY": "1",
        "AcK13Frq": "",
        "P_ICON_ID": "1903",
        "P_DICTIONARY_NO": "1",
        "P_DICTIONARY_BG": "159",
        "P_NEED_SWITCH_INFO": "0",
        "P_HIDE_SWITCH_INFO": "0",
        "P_OPEN_SWITCH_INFO": "0",
        "P_CREATEDATE": "2018-02-20 05:28:05",
        "P_UPDATEDATE": "2018-02-20 05:28:05"
    },
    {
        "P_SPHERE_ITEM_ID": "1900000",
        "P_SPHERE_ITEM_NAME": "\uff32\uff33\uff26\u306e\u52f2\u7ae0",
        "8Cx57oAk": "\uff32\uff33\uff26\u52f2",
        "KMtIE5k7": "5",
        "P_RARE": "4",
        "P_DISPORDER": "11000",
        "moWQ30GH": "3",
        "P_PASSIVE_SKILL_GROUP_INFO": "5050001,8016600",
        "P_DISP_DICTIONARY": "1",
        "AcK13Frq": "",
        "P_ICON_ID": "1403",
        "P_DICTIONARY_NO": "1",
        "P_DICTIONARY_BG": "160",
        "P_NEED_SWITCH_INFO": "0",
        "P_HIDE_SWITCH_INFO": "0",
        "P_OPEN_SWITCH_INFO": "0",
        "P_CREATEDATE": "2018-02-20 05:28:05",
        "P_UPDATEDATE": "2018-02-20 05:28:05"
    },
    {
        "P_SPHERE_ITEM_ID": "1900010",
        "P_SPHERE_ITEM_NAME": "\u6d77\u5e95\u306e\u706b\u82b1",
        "8Cx57oAk": "\u6d77\u5e95\u706b\u82b1",
        "KMtIE5k7": "5",
        "P_RARE": "4",
        "P_DISPORDER": "12000",
        "moWQ30GH": "3",
        "P_PASSIVE_SKILL_GROUP_INFO": "8017001",
        "P_DISP_DICTIONARY": "1",
        "AcK13Frq": "",
        "P_ICON_ID": "1403",
        "P_DICTIONARY_NO": "1",
        "P_DICTIONARY_BG": "161",
        "P_NEED_SWITCH_INFO": "0",
        "P_HIDE_SWITCH_INFO": "0",
        "P_OPEN_SWITCH_INFO": "0",
        "P_CREATEDATE": "2018-02-20 05:28:05",
        "P_UPDATEDATE": "2018-02-20 05:28:05"
    }
]