0,4,-40,-62,0,1,100,0,321,489,53,53,0,-16,-52,0,1,100,0,321,543,53,53,0,-28,-67,0,0,100,0,0,0,64,80,0,-20,-8,0,0,65,0,568,0,40,16,0,
0,4,-39,-61,0,1,100,0,375,489,53,53,0,-16,-52,0,1,100,0,375,543,53,53,0,-28,-67,0,0,100,0,64,0,64,80,0,-20,-8,0,0,65,0,568,0,40,16,0,
0,4,-39,-62,0,1,100,0,429,489,53,53,0,-16,-53,0,1,100,0,429,543,53,53,0,-28,-67,0,0,100,0,128,0,64,80,0,-20,-8,0,0,65,0,568,0,40,16,0,
0,4,-40,-62,0,1,100,0,483,489,53,53,0,-16,-52,0,1,100,0,483,543,53,53,0,-28,-67,0,0,100,0,192,0,64,80,0,-20,-8,0,0,65,0,568,0,40,16,0,
0,2,-40,-66,0,0,100,0,256,0,72,80,0,-20,-8,0,0,65,0,568,0,40,16,0,
0,2,-55,-68,0,0,100,0,328,0,80,80,0,-20,-8,0,0,65,0,568,0,40,16,0,
0,2,-55,-68,0,0,100,0,408,0,80,80,0,-22,-8,0,0,65,0,568,0,40,16,0,
0,4,-54,-58,0,1,100,0,1,569,46,54,0,-53,-56,0,1,100,0,0,320,48,56,0,-55,-68,0,0,100,0,488,0,80,80,0,-26,-8,0,0,65,0,568,0,40,16,0,
0,4,-55,-57,0,1,100,0,49,569,46,54,0,-53,-56,0,1,100,0,48,320,48,56,0,-55,-68,0,0,100,0,0,80,80,80,0,-25,-8,0,0,65,0,568,0,40,16,0,
0,2,-55,-68,0,0,100,0,80,80,80,80,0,-22,-8,0,0,65,0,568,0,40,16,0,
0,5,-59,-50,0,1,100,0,97,569,62,41,0,-67,-78,0,1,100,0,384,320,72,96,0,-67,-62,0,1,100,0,96,320,96,64,0,-55,-68,0,0,100,0,160,80,80,80,0,-26,-8,0,0,65,0,568,0,40,16,0,
0,5,-50,-50,0,1,100,0,161,569,62,41,0,-67,-78,0,1,100,0,456,320,72,96,0,-67,-62,0,1,100,0,192,320,96,64,0,-55,-68,0,0,100,0,240,80,80,80,0,-27,-8,0,0,65,0,568,0,40,16,0,
0,5,-40,-48,0,1,100,0,225,569,62,41,0,-67,-78,0,1,100,0,528,320,72,96,0,-67,-62,0,1,100,0,288,320,96,64,0,-55,-68,0,0,100,0,320,80,80,80,0,-26,-8,0,0,65,0,568,0,40,16,0,
0,4,-55,-68,0,0,100,0,400,80,80,80,0,-37,-51,0,1,100,0,546,417,53,53,0,-63,-60,0,1,100,0,0,384,80,72,0,-26,-8,0,0,65,0,568,0,40,16,0,
0,5,-61,-55,0,1,100,0,546,472,53,53,0,-72,-63,0,1,100,0,240,416,72,72,0,-63,-60,0,1,100,0,80,384,80,72,0,-55,-68,0,0,100,0,480,80,80,80,0,-35,-8,0,0,65,0,568,0,40,16,0,
0,6,-60,-44,0,1,100,0,546,527,53,53,0,-72,-63,0,1,100,0,312,416,72,72,0,-63,-60,0,1,100,0,160,384,80,72,0,-63,-60,0,1,40,0,80,384,80,72,0,-55,-68,0,0,100,0,560,80,80,80,0,-34,-8,0,0,65,0,568,0,40,16,0,
0,5,-58,-42,0,1,70,0,546,527,53,53,0,-72,-63,0,1,100,0,384,416,72,72,0,-63,-60,0,1,40,0,160,384,80,72,0,-55,-68,0,0,100,0,0,160,80,80,0,-34,-8,0,0,65,0,568,0,40,16,0,
0,2,-55,-68,0,0,100,0,80,160,80,80,0,-34,-8,0,0,65,0,568,0,40,16,0,
0,2,-36,-75,0,0,100,0,160,160,80,80,0,-20,-8,0,0,65,0,568,0,40,16,0,
0,2,-36,-75,0,0,100,0,240,160,80,80,0,-20,-8,0,0,65,0,568,0,40,16,0,
0,2,-36,-75,0,0,100,0,320,160,80,80,0,-20,-8,0,0,65,0,568,0,40,16,0,
0,2,-36,-75,0,0,100,0,400,160,80,80,0,-20,-8,0,0,46,0,568,16,40,16,0,
0,2,-36,-75,0,0,100,0,480,160,80,80,0,-20,-8,0,0,46,0,568,16,40,16,0,
0,2,-36,-75,0,0,100,0,560,160,80,80,0,-20,-8,0,0,46,0,568,16,40,16,0,
0,2,-36,-75,0,0,100,0,0,240,80,80,0,-20,-8,0,0,46,0,568,16,40,16,0,
0,2,-36,-75,0,0,100,0,80,240,80,80,0,-20,-8,0,0,46,0,568,16,40,16,0,
0,2,-36,-75,0,0,100,0,160,240,80,80,0,-20,-8,0,0,46,0,568,16,40,16,0,
0,2,-36,-75,0,0,100,0,240,240,80,80,0,-20,-8,0,0,65,0,568,0,40,16,0,
0,2,-36,-75,0,0,100,0,320,240,80,80,0,-20,-8,0,0,65,0,568,0,40,16,0,
0,2,-36,-75,0,0,100,0,400,240,80,80,0,-20,-8,0,0,65,0,568,0,40,16,0,
0,2,-36,-75,0,0,100,0,480,240,80,80,0,-20,-8,0,0,65,0,568,0,40,16,0,
0,2,-36,-75,0,0,100,0,560,240,80,80,0,-20,-8,0,0,65,0,568,0,40,16,0,
0,2,-39,-66,0,0,100,0,0,488,80,80,0,-20,-8,0,0,65,0,568,0,40,16,0,
0,2,-39,-66,0,0,100,0,80,488,80,80,0,-20,-8,0,0,65,0,568,0,40,16,0,
0,2,-39,-66,0,0,100,0,160,488,80,80,0,-20,-8,0,0,65,0,568,0,40,16,0,
0,2,-39,-66,0,0,100,0,240,488,80,80,0,-20,-8,0,0,65,0,568,0,40,16,0,
