0,12,0,-44,0,1,60,0,56,16,24,16,0,-24,-68,0,0,100,0,0,0,56,80,0,-64,-109,0,1,20,0,400,104,64,72,0,-64,-108,0,1,70,0,208,104,64,72,0,-40,-92,0,0,100,0,24,80,48,72,0,-40,-92,0,1,100,0,0,80,24,48,0,-24,-52,0,0,100,0,0,152,32,32,0,-24,-52,0,0,100,0,32,152,32,32,0,-9,-18,0,1,100,0,208,24,16,16,0,0,-12,0,1,100,0,208,24,16,16,0,1,-39,0,1,100,0,56,32,32,32,0,-24,-8,0,0,46,0,72,136,48,16,0,
0,12,0,-43,0,1,100,0,56,16,24,16,0,-24,-67,0,0,100,0,0,0,56,80,0,-64,-108,0,1,20,0,208,104,64,72,0,-64,-107,0,1,70,0,272,104,64,72,0,-40,-91,0,0,100,0,24,80,48,72,0,-40,-91,0,1,100,0,0,80,24,48,0,-24,-51,0,0,100,0,0,152,32,32,0,-24,-51,0,0,100,0,32,152,32,32,0,-9,-18,0,1,100,0,224,24,16,16,0,0,-12,0,1,100,0,224,24,16,16,0,1,-39,0,1,100,0,88,32,32,32,0,-24,-8,0,0,46,0,72,136,48,16,0,
0,12,0,-44,0,1,60,0,56,16,24,16,0,-24,-68,0,0,100,0,0,0,56,80,0,-64,-107,0,1,20,0,272,104,64,72,0,-64,-108,0,1,70,0,336,104,64,72,0,-40,-92,0,0,100,0,24,80,48,72,0,-40,-92,0,1,100,0,0,80,24,48,0,-24,-52,0,0,100,0,0,152,32,32,0,-24,-52,0,0,100,0,32,152,32,32,0,-9,-18,0,1,100,0,240,24,16,16,0,0,-12,0,1,100,0,240,24,16,16,0,1,-39,0,1,100,0,120,32,32,32,0,-24,-8,0,0,46,0,72,136,48,16,0,
0,12,0,-45,0,1,40,0,56,16,24,16,0,-24,-69,0,0,100,0,0,0,56,80,0,-64,-108,0,1,20,0,336,104,64,72,0,-64,-109,0,1,70,0,400,104,64,72,0,-40,-93,0,0,100,0,24,80,48,72,0,-40,-93,0,1,100,0,0,80,24,48,0,-24,-53,0,0,100,0,0,152,32,32,0,-24,-53,0,0,100,0,32,152,32,32,0,-9,-18,0,1,100,0,256,24,16,16,0,0,-12,0,1,100,0,256,24,16,16,0,1,-39,0,1,100,0,152,32,32,32,0,-24,-8,0,0,46,0,72,136,48,16,0,
0,7,-33,-59,0,0,100,0,0,184,88,64,0,7,-48,0,1,100,0,96,152,48,32,0,16,-17,1,1,100,-270,224,24,16,16,0,-3,-18,2,1,100,270,224,24,16,16,0,-19,-50,0,1,100,0,136,72,72,48,0,-33,-59,0,1,60,0,0,248,96,64,0,-24,-8,0,0,46,0,72,136,48,16,0,
0,4,-36,-88,0,0,100,0,96,184,64,96,0,2,-87,1,1,100,0,0,80,24,48,0,-35,-96,0,1,100,0,160,176,80,104,0,-20,-8,0,0,46,0,64,152,32,16,0,
0,4,-42,-91,0,0,100,0,96,184,64,96,0,-4,-90,1,1,100,0,0,80,24,48,0,-39,-101,0,1,100,0,160,176,80,104,0,-24,-8,0,0,46,0,64,152,32,16,0,
0,4,-31,-94,0,0,100,0,96,280,72,96,0,14,-96,1,1,100,0,0,80,24,48,0,-34,-103,0,1,100,0,168,280,80,104,0,-16,-8,0,0,46,0,64,152,32,16,0,
0,4,-19,-98,0,0,100,0,96,280,72,96,0,-18,-111,0,1,100,0,168,280,80,104,0,26,-100,1,1,100,0,0,80,24,48,0,-8,-8,0,0,46,0,64,152,32,16,0,
0,4,-17,-99,0,0,100,0,96,280,72,96,0,28,-101,1,1,100,0,0,80,24,48,0,-14,-114,0,1,100,0,168,280,80,104,0,-6,-8,0,0,46,0,64,152,32,16,0,
0,15,-192,-96,0,1,100,0,56,384,248,112,0,-192,-80,0,1,100,0,568,128,232,88,0,-216,-80,0,0,100,0,240,176,80,88,0,-204,-83,0,0,100,0,0,312,56,72,0,-193,-84,0,1,100,0,56,312,32,48,0,-184,-81,0,0,50,0,240,176,80,88,0,-172,-84,0,0,50,0,0,312,56,72,0,-161,-85,0,1,50,0,56,312,32,48,0,-152,-82,0,0,20,0,240,176,80,88,0,-140,-85,0,0,20,0,0,312,56,72,0,-129,-86,0,1,20,0,56,312,32,48,0,-10,-116,0,1,50,0,168,280,80,104,0,-13,-93,0,0,30,0,96,288,72,96,0,32,-103,1,1,30,0,0,80,24,48,0,-200,-8,0,0,46,0,72,136,48,16,0,
0,16,-296,-96,0,1,100,0,304,408,256,120,0,-196,-94,0,1,20,0,56,384,248,112,0,-272,-93,0,1,100,0,504,216,288,96,0,-220,-79,0,0,100,0,240,176,80,88,0,-208,-82,0,0,100,0,0,312,56,72,0,-197,-83,0,1,100,0,56,312,32,48,0,-208,-80,0,0,50,0,240,176,80,88,0,-196,-83,0,0,50,0,0,312,56,72,0,-185,-84,0,1,50,0,56,312,32,48,0,-198,-81,0,0,20,0,240,176,80,88,0,-186,-84,0,0,20,0,0,312,56,72,0,-175,-85,0,1,20,0,56,312,32,48,0,-9,-117,0,1,20,0,168,280,80,104,0,-12,-102,0,0,10,0,96,280,72,96,0,33,-104,1,1,10,0,0,80,24,48,0,-204,-8,0,0,46,0,72,136,48,16,0,
0,14,-288,-104,0,1,100,0,560,408,128,112,0,-298,-94,0,1,20,0,304,408,256,120,0,-198,-93,0,1,10,0,56,384,248,112,0,-280,-84,0,1,100,0,336,312,208,96,0,-221,-79,0,0,100,0,240,176,80,88,0,-209,-82,0,0,100,0,0,312,56,72,0,-198,-83,0,1,100,0,56,312,32,48,0,-216,-79,0,0,50,0,240,176,80,88,0,-204,-82,0,0,50,0,0,312,56,72,0,-193,-83,0,1,50,0,56,312,32,48,0,-214,-80,0,0,20,0,240,176,80,88,0,-202,-83,0,0,20,0,0,312,56,72,0,-191,-84,0,1,20,0,56,312,32,48,0,-205,-8,0,0,46,0,72,136,48,16,0,
0,7,-280,-84,0,1,40,0,336,312,208,96,0,-290,-105,0,1,20,0,560,408,128,112,0,-298,-94,0,1,10,0,304,408,256,120,0,-222,-80,0,0,100,0,240,176,80,88,0,-210,-83,0,0,100,0,0,312,56,72,0,-199,-84,0,1,100,0,56,312,32,48,0,-205,-8,0,0,46,0,72,136,48,16,0,
0,4,-217,-64,0,0,100,0,320,176,72,72,0,-217,-91,0,0,100,0,24,80,48,72,0,-217,-91,0,1,100,0,0,80,24,48,0,-206,-8,0,0,46,0,72,136,48,16,0,
0,17,24,-92,0,0,100,0,0,152,32,32,0,8,-132,0,0,100,0,24,80,48,72,0,8,-132,0,1,100,0,0,80,24,48,0,24,-92,0,0,100,0,32,152,32,32,0,18,-111,0,0,100,0,392,176,56,72,0,-11,-140,1,1,60,0,160,176,80,104,0,-11,-130,0,0,50,0,96,280,72,96,0,-10,-143,0,1,50,0,168,280,80,104,0,34,-132,1,1,50,0,0,80,24,48,0,-35,-122,0,0,20,0,96,280,72,96,0,-34,-135,0,1,20,0,168,280,80,104,0,10,-124,1,1,20,0,0,80,24,48,0,-228,-95,0,1,50,0,248,264,88,112,0,-220,-63,0,0,30,0,320,176,72,72,0,-220,-90,0,0,30,0,24,80,48,72,0,-220,-90,0,1,30,0,0,80,24,48,0,32,-8,0,0,46,0,64,152,32,16,0,
0,20,52,-125,0,0,100,0,392,176,56,72,0,58,-102,0,0,100,0,544,40,24,24,0,10,-118,0,0,100,0,464,40,80,40,0,10,-115,1,1,100,0,96,152,48,32,0,64,-98,0,0,100,0,40,160,16,16,0,14,-123,1,1,60,0,0,248,96,64,0,22,-135,0,0,50,0,24,80,48,72,0,22,-135,0,1,50,0,0,80,24,48,0,38,-95,0,0,50,0,0,152,32,32,0,38,-95,0,0,50,0,32,152,32,32,0,32,-114,0,0,50,0,392,176,56,72,0,3,-143,1,1,30,0,160,176,80,104,0,-7,-128,0,0,20,0,96,280,72,96,0,-6,-141,0,1,20,0,168,280,80,104,0,38,-130,1,1,20,0,0,80,24,48,0,-230,-94,0,1,20,0,248,264,88,112,0,-222,-62,0,0,10,0,320,176,72,72,0,-222,-89,0,0,10,0,24,80,48,72,0,-222,-89,0,1,10,0,0,80,24,48,0,58,-8,0,0,46,0,64,152,32,16,0,
0,17,8,-111,0,0,100,0,384,24,80,48,0,16,-87,0,1,100,0,392,72,48,32,0,53,-129,0,0,100,0,448,176,56,72,0,20,-137,0,1,80,0,464,88,104,88,0,48,-121,0,0,50,0,392,176,56,72,0,54,-98,0,0,50,0,544,40,24,24,0,6,-114,0,0,50,0,464,40,80,40,0,6,-111,1,1,50,0,96,152,48,32,0,60,-94,0,0,50,0,40,160,16,16,0,2,-119,1,1,30,0,0,248,96,64,0,20,-134,0,0,20,0,24,80,48,72,0,20,-134,0,1,20,0,0,80,24,48,0,36,-94,0,0,20,0,0,152,32,32,0,36,-94,0,0,20,0,32,152,32,32,0,30,-113,0,0,20,0,392,176,56,72,0,1,-142,1,1,10,0,160,176,80,104,0,67,-8,0,0,46,0,64,152,32,16,0,
0,15,8,-111,0,0,100,0,384,24,80,48,0,16,-87,0,1,100,0,392,72,48,32,0,53,-129,0,0,100,0,448,176,56,72,0,20,-137,0,1,80,0,464,88,104,88,0,2,-108,0,0,50,0,384,24,80,48,0,10,-84,0,1,50,0,392,72,48,32,0,47,-126,0,0,50,0,448,176,56,72,0,14,-134,0,1,40,0,464,88,104,88,0,45,-116,0,0,20,0,392,176,56,72,0,51,-93,0,0,20,0,544,40,24,24,0,3,-109,0,0,20,0,464,40,80,40,0,3,-106,1,1,20,0,96,152,48,32,0,57,-89,0,0,20,0,40,160,16,16,0,-1,-114,1,1,10,0,0,248,96,64,0,67,-8,0,0,46,0,64,152,32,16,0,
0,14,-120,-40,0,1,100,0,712,80,40,40,0,-176,-32,0,1,100,0,712,40,56,32,0,-168,-72,0,1,100,0,712,0,64,40,0,-64,-72,0,1,100,0,624,0,40,32,0,-40,-72,0,1,100,0,664,0,48,32,0,-80,-72,0,1,100,0,464,0,72,40,0,8,-93,0,1,100,0,320,24,32,32,0,-136,-56,0,1,100,0,664,32,48,40,0,-16,-80,0,1,100,0,560,8,40,24,0,8,-112,0,0,100,0,384,24,80,48,0,16,-88,0,1,100,0,392,72,48,32,0,53,-130,0,0,100,0,448,176,56,72,0,19,-138,0,1,100,0,464,88,104,88,0,67,-8,0,0,46,0,64,152,32,16,0,
0,15,-152,-32,0,1,100,0,752,80,72,48,0,-192,-32,0,1,100,0,768,40,64,40,0,-208,-16,0,1,100,0,624,0,40,32,0,-192,-72,0,1,100,0,776,0,88,40,0,-184,-32,0,1,60,0,624,0,40,32,0,-136,-24,0,1,60,0,664,0,48,32,0,-56,-77,0,1,100,0,464,0,72,40,0,-200,-24,0,1,100,0,464,0,72,40,0,0,-100,0,1,100,0,312,56,40,48,0,-141,-59,0,1,80,0,648,72,64,56,0,8,-111,0,0,100,0,384,24,80,48,0,16,-87,0,1,100,0,392,72,48,32,0,53,-129,0,0,100,0,448,176,56,72,0,20,-138,0,1,80,0,464,88,104,88,0,67,-8,0,0,46,0,64,152,32,16,0,
0,13,-168,-24,0,1,100,0,824,96,88,40,0,-200,-32,0,1,100,0,832,48,72,48,0,-200,-80,0,1,100,0,864,0,80,48,0,-232,-24,0,1,100,0,464,0,72,40,0,-7,-83,0,1,100,0,560,8,40,24,0,-128,-56,0,1,100,0,464,0,72,40,0,8,-93,0,1,100,0,320,24,32,32,0,-145,-58,0,1,20,0,648,72,64,56,0,8,-110,0,0,100,0,384,24,80,48,0,16,-86,0,1,100,0,392,72,48,32,0,53,-128,0,0,100,0,448,176,56,72,0,20,-136,0,1,60,0,464,88,104,88,0,67,-8,0,0,46,0,64,152,32,16,0,
0,11,-176,-64,0,1,100,0,712,0,64,40,0,-40,-80,0,1,100,0,464,0,72,40,0,-160,-48,0,1,100,0,624,0,40,32,0,-80,-72,0,1,100,0,464,0,72,40,0,0,-100,0,1,100,0,312,56,40,48,0,-152,-48,0,1,100,0,664,32,48,40,0,8,-111,0,0,100,0,384,24,80,48,0,16,-87,0,1,100,0,392,72,48,32,0,53,-129,0,0,100,0,448,176,56,72,0,19,-136,0,1,80,0,464,88,104,88,0,67,-8,0,0,46,0,64,152,32,16,0,
0,14,-112,-40,0,1,100,0,712,80,40,40,0,-176,-40,0,1,100,0,712,40,56,32,0,-200,-64,0,1,100,0,776,0,88,40,0,-136,-48,0,1,100,0,624,0,40,32,0,-112,-48,0,1,100,0,664,0,48,32,0,-152,-48,0,1,100,0,464,0,72,40,0,8,-93,0,1,100,0,320,24,32,32,0,-165,-51,0,1,80,0,648,72,64,56,0,-160,-48,0,1,100,0,664,32,48,40,0,8,-112,0,0,100,0,384,24,80,48,0,16,-88,0,1,100,0,392,72,48,32,0,53,-130,0,0,100,0,448,176,56,72,0,19,-138,0,1,80,0,464,88,104,88,0,67,-8,0,0,46,0,64,152,32,16,0,
0,16,-144,-32,0,1,100,0,752,80,72,48,0,-192,-40,0,1,100,0,768,40,64,40,0,-200,-72,0,1,100,0,864,0,80,48,0,-144,-48,0,1,60,0,624,0,40,32,0,-200,-24,0,1,100,0,624,0,40,32,0,-192,-32,0,1,100,0,464,0,72,40,0,-40,-64,0,1,60,0,664,0,48,32,0,-16,-94,0,1,100,0,464,0,72,40,0,0,-100,0,1,100,0,312,56,40,48,0,-162,-50,0,1,20,0,648,72,64,56,0,-173,-54,0,1,80,0,648,72,64,56,0,8,-111,0,0,100,0,384,24,80,48,0,16,-87,0,1,100,0,392,72,48,32,0,53,-129,0,0,100,0,448,176,56,72,0,20,-138,0,1,80,0,464,88,104,88,0,67,-8,0,0,46,0,64,152,32,16,0,
0,12,-136,-48,0,1,100,0,712,40,56,32,0,-160,-24,0,1,100,0,824,96,88,40,0,-200,-40,0,1,100,0,832,48,72,48,0,-72,-72,0,1,100,0,464,0,72,40,0,8,-93,0,1,100,0,320,24,32,32,0,-186,-58,0,1,20,0,648,72,64,56,0,-112,-56,0,1,100,0,664,32,48,40,0,8,-110,0,0,100,0,384,24,80,48,0,16,-86,0,1,100,0,392,72,48,32,0,53,-128,0,0,100,0,448,176,56,72,0,20,-136,0,1,60,0,464,88,104,88,0,67,-8,0,0,46,0,64,152,32,16,0,
0,10,-152,-48,0,1,100,0,768,40,64,40,0,-24,-88,0,1,100,0,464,0,72,40,0,-152,-40,0,1,100,0,472,0,64,32,0,0,-100,0,1,100,0,312,56,40,48,0,-125,-62,0,1,80,0,648,72,64,56,0,8,-111,0,0,100,0,384,24,80,48,0,16,-87,0,1,100,0,392,72,48,32,0,53,-129,0,0,100,0,448,176,56,72,0,19,-136,0,1,80,0,464,88,104,88,0,67,-8,0,0,46,0,64,152,32,16,0,
0,17,-160,-48,0,1,100,0,832,48,72,48,0,-88,-48,0,1,100,0,712,80,40,40,0,-168,-72,0,1,100,0,712,0,64,40,0,-208,-32,0,1,100,0,624,0,40,32,0,-200,-40,0,1,100,0,464,0,72,40,0,-80,-64,0,1,100,0,624,0,40,32,0,-40,-80,0,1,100,0,664,0,48,32,0,-96,-64,0,1,100,0,464,0,72,40,0,8,-93,0,1,100,0,320,24,32,32,0,-138,-66,0,1,20,0,648,72,64,56,0,-152,-56,0,1,100,0,664,32,48,40,0,-104,-56,0,1,100,0,664,32,48,40,0,8,-112,0,0,100,0,384,24,80,48,0,16,-88,0,1,100,0,392,72,48,32,0,53,-130,0,0,100,0,448,176,56,72,0,19,-138,0,1,80,0,464,88,104,88,0,67,-8,0,0,46,0,64,152,32,16,0,
0,14,-120,-40,0,1,100,0,752,80,72,48,0,-192,-72,0,1,100,0,776,0,88,40,0,-152,-32,0,1,100,0,624,0,40,32,0,-96,-56,0,1,60,0,624,0,40,32,0,-88,-32,0,1,60,0,664,0,48,32,0,-144,-40,0,1,100,0,464,0,72,40,0,0,-100,0,1,100,0,312,56,40,48,0,-165,-62,0,1,80,0,648,72,64,56,0,-117,-62,0,1,80,0,648,72,64,56,0,8,-111,0,0,100,0,384,24,80,48,0,16,-87,0,1,100,0,392,72,48,32,0,53,-129,0,0,100,0,448,176,56,72,0,20,-138,0,1,80,0,464,88,104,88,0,67,-8,0,0,46,0,64,152,32,16,0,
0,10,-136,-32,0,1,100,0,824,96,88,40,0,-200,-80,0,1,100,0,864,0,80,48,0,-174,-61,0,1,20,0,648,72,64,56,0,-122,-58,0,1,20,0,648,72,64,56,0,-160,-32,0,1,100,0,464,0,72,40,0,8,-110,0,0,100,0,384,24,80,48,0,16,-86,0,1,100,0,392,72,48,32,0,53,-128,0,0,100,0,448,176,56,72,0,20,-136,0,1,60,0,464,88,104,88,0,67,-8,0,0,46,0,64,152,32,16,0,
0,7,-184,-16,0,1,80,0,624,0,40,32,0,-176,-24,0,1,60,0,464,0,72,40,0,8,-111,0,0,100,0,384,24,80,48,0,16,-87,0,1,100,0,392,72,48,32,0,53,-129,0,0,100,0,448,176,56,72,0,19,-136,0,1,80,0,464,88,104,88,0,67,-8,0,0,46,0,64,152,32,16,0,
0,5,8,-112,0,0,100,0,384,24,80,48,0,16,-88,0,1,100,0,392,72,48,32,0,53,-130,0,0,100,0,448,176,56,72,0,20,-137,0,1,80,0,464,88,104,88,0,67,-8,0,0,46,0,64,152,32,16,0,
0,10,30,-102,0,0,100,0,0,0,56,80,0,-8,-136,0,1,20,0,336,104,64,72,0,14,-126,0,0,100,0,24,80,48,72,0,14,-126,0,1,100,0,0,80,24,48,0,30,-86,0,0,100,0,0,152,32,32,0,30,-86,0,0,100,0,32,152,32,32,0,45,-52,0,1,100,0,208,24,16,16,0,54,-46,0,1,100,0,208,24,16,16,0,55,-73,0,1,100,0,56,32,32,32,0,38,-8,0,0,46,0,64,152,32,16,0,
0,10,4,-82,0,0,100,0,0,0,56,80,0,-36,-122,0,1,50,0,400,104,64,72,0,-12,-106,0,0,100,0,24,80,48,72,0,-12,-106,0,1,100,0,0,80,24,48,0,4,-66,0,0,100,0,0,152,32,32,0,4,-66,0,0,100,0,32,152,32,32,0,19,-32,0,1,100,0,208,24,16,16,0,28,-26,0,1,100,0,208,24,16,16,0,29,-53,0,1,100,0,56,32,32,32,0,12,-8,0,0,46,0,64,152,32,16,0,
0,10,-24,-69,0,0,100,0,0,528,56,72,0,-68,-106,0,1,50,0,272,104,64,72,0,-41,-89,0,0,100,0,24,80,48,72,0,-41,-89,0,1,100,0,0,80,24,48,0,-25,-49,0,0,100,0,0,152,32,32,0,-25,-49,0,0,100,0,32,152,32,32,0,-11,-13,0,1,100,0,224,24,16,16,0,-2,-11,0,1,100,0,224,24,16,16,0,-17,-48,0,1,100,-90,136,72,72,48,0,-16,-8,0,0,46,0,64,152,32,16,0,
0,9,-22,-64,0,0,100,0,56,528,56,72,0,-20,-43,0,0,100,0,544,40,24,24,0,-68,-59,0,0,100,0,464,40,80,40,0,-68,-56,1,1,100,0,96,152,48,32,0,-14,-39,0,0,100,0,40,160,16,16,0,-9,-14,0,1,100,0,224,24,16,16,0,0,-12,0,1,100,0,224,24,16,16,0,-19,-48,0,1,100,-90,136,72,72,48,0,-16,-8,0,0,46,0,64,152,32,16,0,
0,6,-24,-95,0,0,100,0,112,528,64,96,0,13,-94,1,1,100,0,0,80,24,48,0,-8,-20,0,1,100,0,240,24,16,16,0,-2,-13,0,1,100,0,240,24,16,16,0,-20,-50,1,1,100,-270,136,72,72,48,0,-16,-8,0,0,46,0,64,152,32,16,0,
0,6,-24,-96,0,0,100,0,176,528,64,96,0,12,-96,1,1,100,0,0,80,24,48,0,-8,-21,0,1,100,0,240,24,16,16,0,-2,-14,0,1,100,0,240,24,16,16,0,-20,-51,0,1,100,-90,136,72,72,48,0,-16,-8,0,0,46,0,64,152,32,16,0,
0,7,15,-48,0,0,100,0,208,512,24,16,0,-24,-97,0,0,100,0,240,528,64,96,0,11,-96,1,1,100,0,0,80,24,48,0,-8,-22,0,1,100,0,240,24,16,16,0,-2,-15,0,1,100,0,240,24,16,16,0,-20,-52,1,1,100,-270,136,72,72,48,0,-16,-8,0,0,46,0,64,152,32,16,0,
0,8,19,-39,0,0,60,0,208,512,24,16,0,-24,-96,0,0,100,0,304,528,64,96,0,-7,-53,0,0,100,0,184,496,24,32,0,10,-95,1,1,100,0,0,80,24,48,0,-8,-21,0,1,100,0,240,24,16,16,0,-2,-14,0,1,100,0,240,24,16,16,0,-20,-51,0,1,100,-90,136,72,72,48,0,-16,-8,0,0,46,0,64,152,32,16,0,
0,8,21,-32,0,0,30,0,208,512,24,16,0,-24,-97,0,0,100,0,304,528,64,96,0,-9,-54,0,0,100,0,184,496,24,32,0,10,-96,1,1,100,0,0,80,24,48,0,-8,-22,0,1,100,0,240,24,16,16,0,-2,-15,0,1,100,0,240,24,16,16,0,-20,-52,1,1,100,-270,136,72,72,48,0,-16,-8,0,0,46,0,64,152,32,16,0,
0,7,-24,-96,0,0,100,0,304,528,64,96,0,-7,-53,0,0,100,0,184,496,24,32,0,10,-95,1,1,100,0,0,80,24,48,0,-8,-21,0,1,100,0,240,24,16,16,0,-2,-14,0,1,100,0,240,24,16,16,0,-20,-51,0,1,100,-90,136,72,72,48,0,-16,-8,0,0,46,0,64,152,32,16,0,
0,7,8,-47,0,0,100,0,208,512,24,16,0,-24,-97,0,0,100,0,240,528,64,96,0,11,-96,1,1,100,0,0,80,24,48,0,-8,-22,0,1,100,0,240,24,16,16,0,-2,-15,0,1,100,0,240,24,16,16,0,-20,-52,1,1,100,-270,136,72,72,48,0,-16,-8,0,0,46,0,64,152,32,16,0,
0,7,-24,-96,0,0,100,0,368,528,64,96,0,14,-97,1,1,100,0,0,80,24,48,0,-8,-21,0,1,100,0,240,24,16,16,0,-2,-14,0,1,100,0,240,24,16,16,0,-20,-53,0,1,100,-90,136,72,72,48,0,-32,-105,0,1,20,0,168,280,80,104,0,-16,-8,0,0,46,0,64,152,32,16,0,
0,7,-24,-97,0,0,100,0,368,528,64,96,0,14,-98,1,1,100,0,0,80,24,48,0,-8,-22,0,1,100,0,240,24,16,16,0,-2,-15,0,1,100,0,240,24,16,16,0,-20,-54,0,1,100,-90,136,72,72,48,0,-29,-108,0,1,50,0,168,280,80,104,0,-16,-8,0,0,46,0,64,152,32,16,0,
0,20,-31,-85,1,0,30,0,24,80,48,72,0,-7,-85,1,1,30,0,0,80,24,48,0,-20,-73,0,0,100,0,56,496,32,32,0,-26,-74,0,0,100,0,0,456,56,72,0,-25,-78,0,0,40,0,24,80,48,72,0,-25,-78,0,1,40,0,0,80,24,48,0,-63,-72,0,0,80,0,464,40,80,40,0,-63,-69,1,1,80,0,96,152,48,32,0,-18,-57,0,0,100,0,152,144,16,16,0,-26,-23,1,1,100,0,224,24,16,16,0,11,-18,0,1,100,0,224,24,16,16,0,-1,-45,0,1,100,0,88,32,32,32,0,-49,-90,0,1,50,0,432,528,104,96,0,-23,-98,0,0,20,0,368,528,64,96,0,15,-99,1,1,20,0,0,80,24,48,0,-7,-23,0,1,30,0,240,24,16,16,0,-1,-16,0,1,30,0,240,24,16,16,0,-19,-55,0,1,30,-90,136,72,72,48,0,-28,-109,0,1,20,0,168,280,80,104,0,-16,-8,0,0,46,0,64,152,32,16,0,
0,14,-20,-73,0,0,100,0,88,496,32,32,0,-26,-74,0,0,100,0,0,456,56,72,0,-68,-76,0,0,20,0,464,40,80,40,0,-68,-73,1,1,20,0,96,152,48,32,0,-56,-85,0,0,40,0,880,528,56,48,0,-59,-88,0,1,40,0,848,528,32,32,0,-52,-91,0,0,70,0,880,528,56,48,0,-55,-94,0,1,70,0,848,528,32,32,0,-18,-57,0,0,100,0,152,144,16,16,0,-26,-23,1,1,100,0,224,24,16,16,0,11,-18,0,1,100,0,224,24,16,16,0,-1,-45,0,1,100,0,88,32,32,32,0,-49,-90,0,1,100,0,432,528,104,96,0,-16,-8,0,0,46,0,64,152,32,16,0,
0,10,-20,-74,0,0,100,0,120,496,32,32,0,-26,-75,0,0,100,0,0,456,56,72,0,-52,-92,0,0,100,0,880,528,56,48,0,-55,-95,0,1,100,0,848,528,32,32,0,-18,-58,0,0,100,0,152,144,16,16,0,-26,-25,1,1,100,0,224,24,16,16,0,11,-20,0,1,100,0,224,24,16,16,0,-1,-46,0,1,100,0,88,32,32,32,0,-49,-91,0,1,100,0,536,528,104,96,0,-16,-8,0,0,46,0,64,152,32,16,0,
0,10,-20,-75,0,0,100,0,152,496,32,32,0,-26,-76,0,0,100,0,0,456,56,72,0,-52,-93,0,0,100,0,880,528,56,48,0,-55,-96,0,1,100,0,848,528,32,32,0,-18,-59,0,0,100,0,152,144,16,16,0,-25,-25,1,1,100,0,224,24,16,16,0,10,-21,0,1,100,0,224,24,16,16,0,-1,-47,0,1,100,0,88,32,32,32,0,-49,-92,0,1,100,0,640,528,104,96,0,-16,-8,0,0,46,0,64,152,32,16,0,
0,10,-20,-74,0,0,100,0,56,496,32,32,0,-26,-75,0,0,100,0,0,456,56,72,0,-52,-92,0,0,100,0,880,528,56,48,0,-55,-95,0,1,100,0,848,528,32,32,0,-18,-58,0,0,100,0,152,144,16,16,0,-25,-24,1,1,100,0,224,24,16,16,0,10,-20,0,1,100,0,224,24,16,16,0,-1,-46,0,1,100,0,88,32,32,32,0,-49,-91,0,1,100,0,744,528,104,96,0,-16,-8,0,0,46,0,64,152,32,16,0,
0,10,-20,-73,0,0,100,0,88,496,32,32,0,-26,-74,0,0,100,0,0,456,56,72,0,-52,-91,0,0,100,0,880,528,56,48,0,-55,-94,0,1,100,0,848,528,32,32,0,-18,-57,0,0,100,0,152,144,16,16,0,-26,-23,1,1,100,0,224,24,16,16,0,11,-18,0,1,100,0,224,24,16,16,0,-1,-45,0,1,100,0,88,32,32,32,0,-49,-90,0,1,100,0,432,528,104,96,0,-16,-8,0,0,46,0,64,152,32,16,0,
