48,0,0,4,
49,0,0,8,
50,0,0,3,
51,0,0,5,
52,0,0,6,
53,0,0,6,
54,0,0,6,
55,0,0,6,
56,0,0,20,
57,0,0,25,
58,0,0,4,
59,0,0,5,
60,0,0,6,
61,0,0,6,
62,0,0,7,
63,0,0,7,
64,0,0,16,
63,0,0,7,
62,0,0,7,
61,0,0,8,
65,0,0,7,
