[
    {
        "P_GACHA_ID": "1000",
        "P_NAME": "\u7d46\u53ec\u559a",
        "P_EXPLAIN_SHORT": "\u8aac\u660e(short)",
        "P_EXTRA_TEXT": "\u8aac\u660e(long)",
        "5Dfw03tu": "top_banner.png",
        "3qriyIc5": "reward_banner.png",
        "8jCYqcN5": "gacha_normal_bg_img.png",
        "zWEB6YF9": "gacha_normal_door.png",
        "P_COST_INFO": "31:200",
        "9Xn70RPu": "0",
        "X4mIT5Lc": "0",
        "P_SCHEDULE_ID": "0",
        "P_CREATEDATE": "2018-06-25 05:15:36",
        "P_UPDATEDATE": "2018-06-25 05:15:36"
    },
    {
        "P_GACHA_ID": "1010",
        "P_NAME": "\u7d46\u53ec\u559a",
        "P_EXPLAIN_SHORT": "\u8aac\u660e(short)",
        "P_EXTRA_TEXT": "\u8aac\u660e(long)",
        "5Dfw03tu": "top_banner.png",
        "3qriyIc5": "reward_banner.png",
        "8jCYqcN5": "gacha_normal_bg_img_20180625.png",
        "zWEB6YF9": "gacha_normal_door.png",
        "P_COST_INFO": "31:200",
        "9Xn70RPu": "0",
        "X4mIT5Lc": "0",
        "P_SCHEDULE_ID": "0",
        "P_CREATEDATE": "2018-06-25 05:15:36",
        "P_UPDATEDATE": "2018-06-25 05:15:36"
    },
    {
        "P_GACHA_ID": "2000",
        "P_NAME": "\u7d46\u53ec\u559a",
        "P_EXPLAIN_SHORT": "\u8aac\u660e(short)",
        "P_EXTRA_TEXT": "\u8aac\u660e(long)",
        "5Dfw03tu": "top_banner.png",
        "3qriyIc5": "reward_banner.png",
        "8jCYqcN5": "gacha_sp_bg_img.png",
        "zWEB6YF9": "gacha_normal_door.png",
        "P_COST_INFO": "31:200",
        "9Xn70RPu": "0",
        "X4mIT5Lc": "0",
        "P_SCHEDULE_ID": "50055",
        "P_CREATEDATE": "2018-06-25 05:15:36",
        "P_UPDATEDATE": "2018-06-25 05:15:36"
    },
    {
        "P_GACHA_ID": "2010",
        "P_NAME": "\u7d46\u53ec\u559a",
        "P_EXPLAIN_SHORT": "\u8aac\u660e(short)",
        "P_EXTRA_TEXT": "\u8aac\u660e(long)",
        "5Dfw03tu": "top_banner.png",
        "3qriyIc5": "reward_banner.png",
        "8jCYqcN5": "gacha_sp_bg_img_20180625.png",
        "zWEB6YF9": "gacha_normal_door.png",
        "P_COST_INFO": "31:200",
        "9Xn70RPu": "0",
        "X4mIT5Lc": "0",
        "P_SCHEDULE_ID": "50080",
        "P_CREATEDATE": "2018-06-25 05:15:36",
        "P_UPDATEDATE": "2018-06-25 05:15:36"
    }
]