[
    {
        "uy32chnm": "10001",
        "P_TARGET_TYPE": "10",
        "P_TARGET_GROUP": "1",
        "P_TARGET_ID": "1",
        "wJsB35iH": "1",
        "8yh9tcHX": "30",
        "bP95htUd": "50",
        "P_SCHEDULE_ID": "0",
        "P_COUNTER_ID": "0",
        "P_CREATEDATE": "2018-01-18 20:28:17",
        "P_UPDATEDATE": "2018-01-18 20:28:17"
    },
    {
        "uy32chnm": "10002",
        "P_TARGET_TYPE": "10",
        "P_TARGET_GROUP": "1",
        "P_TARGET_ID": "2",
        "wJsB35iH": "1",
        "8yh9tcHX": "30",
        "bP95htUd": "100",
        "P_SCHEDULE_ID": "0",
        "P_COUNTER_ID": "0",
        "P_CREATEDATE": "2018-01-18 20:28:17",
        "P_UPDATEDATE": "2018-01-18 20:28:17"
    },
    {
        "uy32chnm": "10003",
        "P_TARGET_TYPE": "10",
        "P_TARGET_GROUP": "1",
        "P_TARGET_ID": "3",
        "wJsB35iH": "1",
        "8yh9tcHX": "30",
        "bP95htUd": "200",
        "P_SCHEDULE_ID": "0",
        "P_COUNTER_ID": "0",
        "P_CREATEDATE": "2018-01-18 20:28:17",
        "P_UPDATEDATE": "2018-01-18 20:28:17"
    },
    {
        "uy32chnm": "10004",
        "P_TARGET_TYPE": "10",
        "P_TARGET_GROUP": "1",
        "P_TARGET_ID": "4",
        "wJsB35iH": "1",
        "8yh9tcHX": "30",
        "bP95htUd": "500",
        "P_SCHEDULE_ID": "0",
        "P_COUNTER_ID": "0",
        "P_CREATEDATE": "2018-01-18 20:28:17",
        "P_UPDATEDATE": "2018-01-18 20:28:17"
    },
    {
        "uy32chnm": "10005",
        "P_TARGET_TYPE": "10",
        "P_TARGET_GROUP": "1",
        "P_TARGET_ID": "5",
        "wJsB35iH": "1",
        "8yh9tcHX": "30",
        "bP95htUd": "1000",
        "P_SCHEDULE_ID": "0",
        "P_COUNTER_ID": "0",
        "P_CREATEDATE": "2018-01-18 20:28:18",
        "P_UPDATEDATE": "2018-01-18 20:28:18"
    },
    {
        "uy32chnm": "10011",
        "P_TARGET_TYPE": "10",
        "P_TARGET_GROUP": "4",
        "P_TARGET_ID": "1",
        "wJsB35iH": "1",
        "8yh9tcHX": "30",
        "bP95htUd": "200",
        "P_SCHEDULE_ID": "0",
        "P_COUNTER_ID": "0",
        "P_CREATEDATE": "2018-01-18 20:28:18",
        "P_UPDATEDATE": "2018-01-18 20:28:18"
    },
    {
        "uy32chnm": "10012",
        "P_TARGET_TYPE": "10",
        "P_TARGET_GROUP": "4",
        "P_TARGET_ID": "2",
        "wJsB35iH": "1",
        "8yh9tcHX": "30",
        "bP95htUd": "500",
        "P_SCHEDULE_ID": "0",
        "P_COUNTER_ID": "0",
        "P_CREATEDATE": "2018-01-18 20:28:18",
        "P_UPDATEDATE": "2018-01-18 20:28:18"
    },
    {
        "uy32chnm": "10013",
        "P_TARGET_TYPE": "10",
        "P_TARGET_GROUP": "4",
        "P_TARGET_ID": "3",
        "wJsB35iH": "1",
        "8yh9tcHX": "30",
        "bP95htUd": "1000",
        "P_SCHEDULE_ID": "0",
        "P_COUNTER_ID": "0",
        "P_CREATEDATE": "2018-01-18 20:28:18",
        "P_UPDATEDATE": "2018-01-18 20:28:18"
    },
    {
        "uy32chnm": "10014",
        "P_TARGET_TYPE": "10",
        "P_TARGET_GROUP": "4",
        "P_TARGET_ID": "4",
        "wJsB35iH": "1",
        "8yh9tcHX": "30",
        "bP95htUd": "2000",
        "P_SCHEDULE_ID": "0",
        "P_COUNTER_ID": "0",
        "P_CREATEDATE": "2018-01-18 20:28:18",
        "P_UPDATEDATE": "2018-01-18 20:28:18"
    },
    {
        "uy32chnm": "10015",
        "P_TARGET_TYPE": "10",
        "P_TARGET_GROUP": "4",
        "P_TARGET_ID": "5",
        "wJsB35iH": "1",
        "8yh9tcHX": "30",
        "bP95htUd": "3000",
        "P_SCHEDULE_ID": "0",
        "P_COUNTER_ID": "0",
        "P_CREATEDATE": "2018-01-18 20:28:18",
        "P_UPDATEDATE": "2018-01-18 20:28:18"
    },
    {
        "uy32chnm": "11001",
        "P_TARGET_TYPE": "10",
        "P_TARGET_GROUP": "2",
        "P_TARGET_ID": "5002811",
        "wJsB35iH": "1",
        "8yh9tcHX": "30",
        "bP95htUd": "1000",
        "P_SCHEDULE_ID": "0",
        "P_COUNTER_ID": "0",
        "P_CREATEDATE": "2018-01-18 20:28:18",
        "P_UPDATEDATE": "2018-01-18 20:28:18"
    },
    {
        "uy32chnm": "11002",
        "P_TARGET_TYPE": "10",
        "P_TARGET_GROUP": "2",
        "P_TARGET_ID": "5002812",
        "wJsB35iH": "1",
        "8yh9tcHX": "30",
        "bP95htUd": "5000",
        "P_SCHEDULE_ID": "0",
        "P_COUNTER_ID": "0",
        "P_CREATEDATE": "2018-01-18 20:28:18",
        "P_UPDATEDATE": "2018-01-18 20:28:18"
    },
    {
        "uy32chnm": "11003",
        "P_TARGET_TYPE": "10",
        "P_TARGET_GROUP": "2",
        "P_TARGET_ID": "5002813",
        "wJsB35iH": "1",
        "8yh9tcHX": "30",
        "bP95htUd": "10000",
        "P_SCHEDULE_ID": "0",
        "P_COUNTER_ID": "0",
        "P_CREATEDATE": "2018-01-18 20:28:18",
        "P_UPDATEDATE": "2018-01-18 20:28:18"
    },
    {
        "uy32chnm": "20001",
        "P_TARGET_TYPE": "11",
        "P_TARGET_GROUP": "1",
        "P_TARGET_ID": "1",
        "wJsB35iH": "1",
        "8yh9tcHX": "30",
        "bP95htUd": "100",
        "P_SCHEDULE_ID": "0",
        "P_COUNTER_ID": "0",
        "P_CREATEDATE": "2018-01-18 20:28:18",
        "P_UPDATEDATE": "2018-01-18 20:28:18"
    },
    {
        "uy32chnm": "20002",
        "P_TARGET_TYPE": "11",
        "P_TARGET_GROUP": "1",
        "P_TARGET_ID": "2",
        "wJsB35iH": "1",
        "8yh9tcHX": "30",
        "bP95htUd": "250",
        "P_SCHEDULE_ID": "0",
        "P_COUNTER_ID": "0",
        "P_CREATEDATE": "2018-01-18 20:28:18",
        "P_UPDATEDATE": "2018-01-18 20:28:18"
    },
    {
        "uy32chnm": "20003",
        "P_TARGET_TYPE": "11",
        "P_TARGET_GROUP": "1",
        "P_TARGET_ID": "3",
        "wJsB35iH": "1",
        "8yh9tcHX": "30",
        "bP95htUd": "500",
        "P_SCHEDULE_ID": "0",
        "P_COUNTER_ID": "0",
        "P_CREATEDATE": "2018-01-18 20:28:18",
        "P_UPDATEDATE": "2018-01-18 20:28:18"
    },
    {
        "uy32chnm": "20004",
        "P_TARGET_TYPE": "11",
        "P_TARGET_GROUP": "1",
        "P_TARGET_ID": "4",
        "wJsB35iH": "1",
        "8yh9tcHX": "30",
        "bP95htUd": "1000",
        "P_SCHEDULE_ID": "0",
        "P_COUNTER_ID": "0",
        "P_CREATEDATE": "2018-01-18 20:28:18",
        "P_UPDATEDATE": "2018-01-18 20:28:18"
    },
    {
        "uy32chnm": "20005",
        "P_TARGET_TYPE": "11",
        "P_TARGET_GROUP": "1",
        "P_TARGET_ID": "5",
        "wJsB35iH": "1",
        "8yh9tcHX": "30",
        "bP95htUd": "1500",
        "P_SCHEDULE_ID": "0",
        "P_COUNTER_ID": "0",
        "P_CREATEDATE": "2018-01-18 20:28:18",
        "P_UPDATEDATE": "2018-01-18 20:28:18"
    },
    {
        "uy32chnm": "30001",
        "P_TARGET_TYPE": "22",
        "P_TARGET_GROUP": "1",
        "P_TARGET_ID": "1",
        "wJsB35iH": "1",
        "8yh9tcHX": "30",
        "bP95htUd": "5",
        "P_SCHEDULE_ID": "0",
        "P_COUNTER_ID": "0",
        "P_CREATEDATE": "2018-01-18 20:28:18",
        "P_UPDATEDATE": "2018-01-18 20:28:18"
    },
    {
        "uy32chnm": "30002",
        "P_TARGET_TYPE": "22",
        "P_TARGET_GROUP": "1",
        "P_TARGET_ID": "2",
        "wJsB35iH": "1",
        "8yh9tcHX": "30",
        "bP95htUd": "10",
        "P_SCHEDULE_ID": "0",
        "P_COUNTER_ID": "0",
        "P_CREATEDATE": "2018-01-18 20:28:18",
        "P_UPDATEDATE": "2018-01-18 20:28:18"
    },
    {
        "uy32chnm": "30003",
        "P_TARGET_TYPE": "22",
        "P_TARGET_GROUP": "1",
        "P_TARGET_ID": "3",
        "wJsB35iH": "1",
        "8yh9tcHX": "30",
        "bP95htUd": "20",
        "P_SCHEDULE_ID": "0",
        "P_COUNTER_ID": "0",
        "P_CREATEDATE": "2018-01-18 20:28:18",
        "P_UPDATEDATE": "2018-01-18 20:28:18"
    },
    {
        "uy32chnm": "30004",
        "P_TARGET_TYPE": "22",
        "P_TARGET_GROUP": "1",
        "P_TARGET_ID": "4",
        "wJsB35iH": "1",
        "8yh9tcHX": "30",
        "bP95htUd": "40",
        "P_SCHEDULE_ID": "0",
        "P_COUNTER_ID": "0",
        "P_CREATEDATE": "2018-01-18 20:28:18",
        "P_UPDATEDATE": "2018-01-18 20:28:18"
    },
    {
        "uy32chnm": "30005",
        "P_TARGET_TYPE": "22",
        "P_TARGET_GROUP": "1",
        "P_TARGET_ID": "5",
        "wJsB35iH": "1",
        "8yh9tcHX": "30",
        "bP95htUd": "80",
        "P_SCHEDULE_ID": "0",
        "P_COUNTER_ID": "0",
        "P_CREATEDATE": "2018-01-18 20:28:18",
        "P_UPDATEDATE": "2018-01-18 20:28:18"
    },
    {
        "uy32chnm": "40001",
        "P_TARGET_TYPE": "20",
        "P_TARGET_GROUP": "1",
        "P_TARGET_ID": "1",
        "wJsB35iH": "1",
        "8yh9tcHX": "30",
        "bP95htUd": "10",
        "P_SCHEDULE_ID": "0",
        "P_COUNTER_ID": "0",
        "P_CREATEDATE": "2018-01-18 20:28:18",
        "P_UPDATEDATE": "2018-01-18 20:28:18"
    },
    {
        "uy32chnm": "40002",
        "P_TARGET_TYPE": "20",
        "P_TARGET_GROUP": "1",
        "P_TARGET_ID": "2",
        "wJsB35iH": "1",
        "8yh9tcHX": "30",
        "bP95htUd": "20",
        "P_SCHEDULE_ID": "0",
        "P_COUNTER_ID": "0",
        "P_CREATEDATE": "2018-01-18 20:28:18",
        "P_UPDATEDATE": "2018-01-18 20:28:18"
    },
    {
        "uy32chnm": "40003",
        "P_TARGET_TYPE": "20",
        "P_TARGET_GROUP": "1",
        "P_TARGET_ID": "3",
        "wJsB35iH": "1",
        "8yh9tcHX": "30",
        "bP95htUd": "40",
        "P_SCHEDULE_ID": "0",
        "P_COUNTER_ID": "0",
        "P_CREATEDATE": "2018-01-18 20:28:18",
        "P_UPDATEDATE": "2018-01-18 20:28:18"
    },
    {
        "uy32chnm": "40004",
        "P_TARGET_TYPE": "20",
        "P_TARGET_GROUP": "1",
        "P_TARGET_ID": "4",
        "wJsB35iH": "1",
        "8yh9tcHX": "30",
        "bP95htUd": "80",
        "P_SCHEDULE_ID": "0",
        "P_COUNTER_ID": "0",
        "P_CREATEDATE": "2018-01-18 20:28:18",
        "P_UPDATEDATE": "2018-01-18 20:28:18"
    },
    {
        "uy32chnm": "40005",
        "P_TARGET_TYPE": "20",
        "P_TARGET_GROUP": "1",
        "P_TARGET_ID": "5",
        "wJsB35iH": "1",
        "8yh9tcHX": "30",
        "bP95htUd": "160",
        "P_SCHEDULE_ID": "0",
        "P_COUNTER_ID": "0",
        "P_CREATEDATE": "2018-01-18 20:28:18",
        "P_UPDATEDATE": "2018-01-18 20:28:18"
    },
    {
        "uy32chnm": "50001",
        "P_TARGET_TYPE": "21",
        "P_TARGET_GROUP": "1",
        "P_TARGET_ID": "1",
        "wJsB35iH": "1",
        "8yh9tcHX": "30",
        "bP95htUd": "20",
        "P_SCHEDULE_ID": "0",
        "P_COUNTER_ID": "0",
        "P_CREATEDATE": "2018-01-18 20:28:18",
        "P_UPDATEDATE": "2018-01-18 20:28:18"
    },
    {
        "uy32chnm": "50002",
        "P_TARGET_TYPE": "21",
        "P_TARGET_GROUP": "1",
        "P_TARGET_ID": "2",
        "wJsB35iH": "1",
        "8yh9tcHX": "30",
        "bP95htUd": "40",
        "P_SCHEDULE_ID": "0",
        "P_COUNTER_ID": "0",
        "P_CREATEDATE": "2018-01-18 20:28:18",
        "P_UPDATEDATE": "2018-01-18 20:28:18"
    },
    {
        "uy32chnm": "50003",
        "P_TARGET_TYPE": "21",
        "P_TARGET_GROUP": "1",
        "P_TARGET_ID": "3",
        "wJsB35iH": "1",
        "8yh9tcHX": "30",
        "bP95htUd": "80",
        "P_SCHEDULE_ID": "0",
        "P_COUNTER_ID": "0",
        "P_CREATEDATE": "2018-01-18 20:28:18",
        "P_UPDATEDATE": "2018-01-18 20:28:18"
    },
    {
        "uy32chnm": "50004",
        "P_TARGET_TYPE": "21",
        "P_TARGET_GROUP": "1",
        "P_TARGET_ID": "4",
        "wJsB35iH": "1",
        "8yh9tcHX": "30",
        "bP95htUd": "160",
        "P_SCHEDULE_ID": "0",
        "P_COUNTER_ID": "0",
        "P_CREATEDATE": "2018-01-18 20:28:18",
        "P_UPDATEDATE": "2018-01-18 20:28:18"
    },
    {
        "uy32chnm": "50005",
        "P_TARGET_TYPE": "21",
        "P_TARGET_GROUP": "1",
        "P_TARGET_ID": "5",
        "wJsB35iH": "1",
        "8yh9tcHX": "30",
        "bP95htUd": "320",
        "P_SCHEDULE_ID": "0",
        "P_COUNTER_ID": "0",
        "P_CREATEDATE": "2018-01-18 20:28:18",
        "P_UPDATEDATE": "2018-01-18 20:28:18"
    },
    {
        "uy32chnm": "100000",
        "P_TARGET_TYPE": "30",
        "P_TARGET_GROUP": "0",
        "P_TARGET_ID": "0",
        "wJsB35iH": "1000",
        "8yh9tcHX": "33",
        "bP95htUd": "10",
        "P_SCHEDULE_ID": "0",
        "P_COUNTER_ID": "201",
        "P_CREATEDATE": "2018-01-18 20:28:18",
        "P_UPDATEDATE": "2018-01-18 20:28:18"
    },
    {
        "uy32chnm": "200003",
        "P_TARGET_TYPE": "10",
        "P_TARGET_GROUP": "1",
        "P_TARGET_ID": "3",
        "wJsB35iH": "1",
        "8yh9tcHX": "33",
        "bP95htUd": "20",
        "P_SCHEDULE_ID": "0",
        "P_COUNTER_ID": "202",
        "P_CREATEDATE": "2018-01-18 20:28:18",
        "P_UPDATEDATE": "2018-01-18 20:28:18"
    },
    {
        "uy32chnm": "200004",
        "P_TARGET_TYPE": "10",
        "P_TARGET_GROUP": "1",
        "P_TARGET_ID": "4",
        "wJsB35iH": "1",
        "8yh9tcHX": "33",
        "bP95htUd": "50",
        "P_SCHEDULE_ID": "0",
        "P_COUNTER_ID": "202",
        "P_CREATEDATE": "2018-01-18 20:28:18",
        "P_UPDATEDATE": "2018-01-18 20:28:18"
    },
    {
        "uy32chnm": "200005",
        "P_TARGET_TYPE": "10",
        "P_TARGET_GROUP": "1",
        "P_TARGET_ID": "5",
        "wJsB35iH": "1",
        "8yh9tcHX": "33",
        "bP95htUd": "100",
        "P_SCHEDULE_ID": "0",
        "P_COUNTER_ID": "202",
        "P_CREATEDATE": "2018-01-18 20:28:18",
        "P_UPDATEDATE": "2018-01-18 20:28:18"
    },
    {
        "uy32chnm": "200103",
        "P_TARGET_TYPE": "10",
        "P_TARGET_GROUP": "4",
        "P_TARGET_ID": "3",
        "wJsB35iH": "1",
        "8yh9tcHX": "33",
        "bP95htUd": "500",
        "P_SCHEDULE_ID": "0",
        "P_COUNTER_ID": "202",
        "P_CREATEDATE": "2018-01-18 20:28:18",
        "P_UPDATEDATE": "2018-01-18 20:28:18"
    },
    {
        "uy32chnm": "200104",
        "P_TARGET_TYPE": "10",
        "P_TARGET_GROUP": "4",
        "P_TARGET_ID": "4",
        "wJsB35iH": "1",
        "8yh9tcHX": "33",
        "bP95htUd": "700",
        "P_SCHEDULE_ID": "0",
        "P_COUNTER_ID": "202",
        "P_CREATEDATE": "2018-01-18 20:28:18",
        "P_UPDATEDATE": "2018-01-18 20:28:18"
    },
    {
        "uy32chnm": "200105",
        "P_TARGET_TYPE": "10",
        "P_TARGET_GROUP": "4",
        "P_TARGET_ID": "5",
        "wJsB35iH": "1",
        "8yh9tcHX": "33",
        "bP95htUd": "1000",
        "P_SCHEDULE_ID": "0",
        "P_COUNTER_ID": "202",
        "P_CREATEDATE": "2018-01-18 20:28:18",
        "P_UPDATEDATE": "2018-01-18 20:28:18"
    },
    {
        "uy32chnm": "300003",
        "P_TARGET_TYPE": "21",
        "P_TARGET_GROUP": "1",
        "P_TARGET_ID": "1",
        "wJsB35iH": "1",
        "8yh9tcHX": "33",
        "bP95htUd": "5",
        "P_SCHEDULE_ID": "0",
        "P_COUNTER_ID": "203",
        "P_CREATEDATE": "2018-01-18 20:28:18",
        "P_UPDATEDATE": "2018-01-18 20:28:18"
    },
    {
        "uy32chnm": "300004",
        "P_TARGET_TYPE": "21",
        "P_TARGET_GROUP": "1",
        "P_TARGET_ID": "2",
        "wJsB35iH": "1",
        "8yh9tcHX": "33",
        "bP95htUd": "10",
        "P_SCHEDULE_ID": "0",
        "P_COUNTER_ID": "203",
        "P_CREATEDATE": "2018-01-18 20:28:18",
        "P_UPDATEDATE": "2018-01-18 20:28:18"
    },
    {
        "uy32chnm": "300005",
        "P_TARGET_TYPE": "21",
        "P_TARGET_GROUP": "1",
        "P_TARGET_ID": "3",
        "wJsB35iH": "1",
        "8yh9tcHX": "33",
        "bP95htUd": "20",
        "P_SCHEDULE_ID": "0",
        "P_COUNTER_ID": "203",
        "P_CREATEDATE": "2018-01-18 20:28:18",
        "P_UPDATEDATE": "2018-01-18 20:28:18"
    },
    {
        "uy32chnm": "300006",
        "P_TARGET_TYPE": "21",
        "P_TARGET_GROUP": "1",
        "P_TARGET_ID": "4",
        "wJsB35iH": "1",
        "8yh9tcHX": "33",
        "bP95htUd": "30",
        "P_SCHEDULE_ID": "0",
        "P_COUNTER_ID": "203",
        "P_CREATEDATE": "2018-01-18 20:28:18",
        "P_UPDATEDATE": "2018-01-18 20:28:18"
    },
    {
        "uy32chnm": "300007",
        "P_TARGET_TYPE": "21",
        "P_TARGET_GROUP": "1",
        "P_TARGET_ID": "5",
        "wJsB35iH": "1",
        "8yh9tcHX": "33",
        "bP95htUd": "50",
        "P_SCHEDULE_ID": "0",
        "P_COUNTER_ID": "203",
        "P_CREATEDATE": "2018-01-18 20:28:18",
        "P_UPDATEDATE": "2018-01-18 20:28:18"
    }
]