[
    {
        "P_IMPORTANT_ITEM_ID": "1",
        "P_EXPLAIN_SHORT": "\u30d1\u30b9\u30b3\u30fc\u30c9\u306e\u30d2\u30f3\u30c8\u304c\u66f8\u304b\u308c\u305f\u30e1\u30e2",
        "P_EXTRA_TEXT": "\u30d0\u30c0\u30fb\u30d5\u30a1\u30ca\u306e\u5730\u4e0b\u30b2\u30fc\u30c8\u3092\u958b\u3051\u308b\u305f\u3081\u306e\u30d1\u30b9\u30b3\u30fc\u30c9\u306e\n\u30d2\u30f3\u30c8\u304c\u66f8\u304b\u308c\u3066\u3044\u308b\u30e1\u30e2\u3002\n\u201c\u5de6\u304b\u3089\u3001\u7814\u7a76\u5ba4\u306e\u30e1\u30e2\u3001\u540a\u308b\u3057\u3066\u3042\u308b\u306c\u3044\u3050\u308b\u307f\u306e\u6570\u3001\n\u9752\u3044\u30bf\u30aa\u30eb\u306e\u679a\u6570\u201d\u3068\u66f8\u304b\u308c\u3066\u3044\u308b\u3002",
        "P_COMMENT_GETTABLE": ""
    },
    {
        "P_IMPORTANT_ITEM_ID": "2",
        "P_EXPLAIN_SHORT": "\u30d1\u30b9\u30b3\u30fc\u30c9\u306e\u30d2\u30f3\u30c8\u304c\u66f8\u304b\u308c\u305f\u30e1\u30e2",
        "P_EXTRA_TEXT": "\u30d0\u30c0\u30fb\u30d5\u30a1\u30ca\u306e\u57f9\u990a\u7814\u7a76\u5ba4\u3067\u898b\u3064\u3051\u305f\u30e1\u30e2\u3002\n\u300c\uff13\uff18\u300d\u3068\u66f8\u304b\u308c\u3066\u3044\u308b\u3002",
        "P_COMMENT_GETTABLE": ""
    },
    {
        "P_IMPORTANT_ITEM_ID": "3",
        "P_EXPLAIN_SHORT": "\u8ab0\u3067\u3082\u53ec\u559a\u304c\u884c\u3048\u308b\u6a5f\u5668",
        "P_EXTRA_TEXT": "\u30a2\u30af\u30e9\u30b9\u53ec\u559a\u9662\u958b\u767a\u5c40\u9577\u30ce\u30a8\u30eb\u304c\u958b\u767a\u3057\u305f\u643a\u5e2f\u578b\u53ec\u559a\u5668\u3002\n\u53ec\u559a\u5e2b\u3067\u306a\u3044\u8005\u3067\u3082\u53ec\u559a\u304c\u884c\u3048\u308b\u3088\u3046\u306b\u306a\u308b\u3002",
        "P_COMMENT_GETTABLE": ""
    },
    {
        "P_IMPORTANT_ITEM_ID": "4",
        "P_EXPLAIN_SHORT": "\u30a4\u30af\u30b9\u30bf\u30b9\u9996\u90fd\u8fd1\u90ca\u306e\u30cd\u30b0\u30ec\u30b9\u8ecd\u914d\u7f6e\u56f3",
        "P_EXTRA_TEXT": "\u30a4\u30af\u30b9\u30bf\u30b9\u9996\u90fd\u8fd1\u90ca\u306e\u5730\u56f3\u3002\n\u30cd\u30b0\u30ec\u30b9\u8ecd\u306e\u914d\u7f6e\u3089\u3057\u304d\u3082\u306e\u304c\u66f8\u304d\u8fbc\u307e\u308c\u3066\u3044\u308b\u3002",
        "P_COMMENT_GETTABLE": ""
    },
    {
        "P_IMPORTANT_ITEM_ID": "5",
        "P_EXPLAIN_SHORT": "\u5175\u5668\u3068\u601d\u3057\u304d\u8a2d\u8a08\u56f3",
        "P_EXTRA_TEXT": "\u30a4\u30af\u30b9\u30bf\u30b9\u3067\u958b\u767a\u4e2d\u306e\u5175\u5668\u3068\u601d\u3057\u304d\u8a2d\u8a08\u56f3\u3002",
        "P_COMMENT_GETTABLE": ""
    },
    {
        "P_IMPORTANT_ITEM_ID": "6",
        "P_EXPLAIN_SHORT": "\u6280\u8853\u958b\u767a\u5e81\u3078\u5165\u9928\u3059\u308b\u305f\u3081\u306e\u30ab\u30fc\u30c9\u30ad\u30fc",
        "P_EXTRA_TEXT": "\u30a4\u30af\u30b9\u30bf\u30b9\u306e\u6280\u8853\u958b\u767a\u5e81\u3078\u5165\u9928\u3059\u308b\u305f\u3081\u306e\u30ab\u30fc\u30c9\u30ad\u30fc\u3002",
        "P_COMMENT_GETTABLE": ""
    },
    {
        "P_IMPORTANT_ITEM_ID": "7",
        "P_EXPLAIN_SHORT": "\u6280\u8853\u958b\u767a\u5e81\u30d5\u30ed\u30a2\u6848\u5185\u30de\u30c3\u30d7",
        "P_EXTRA_TEXT": "\u30a4\u30af\u30b9\u30bf\u30b9\u306e\u6280\u8853\u958b\u767a\u5e81\u30d5\u30ed\u30a2\u6848\u5185\u30de\u30c3\u30d7\u3002",
        "P_COMMENT_GETTABLE": ""
    },
    {
        "P_IMPORTANT_ITEM_ID": "8",
        "P_EXPLAIN_SHORT": "\u30b3\u30f3\u30c8\u30ed\u30fc\u30eb\u30eb\u30fc\u30e0\u7528\u306e\u30ab\u30fc\u30c9\u30ad\u30fc",
        "P_EXTRA_TEXT": "\u30a4\u30af\u30b9\u30bf\u30b9\u306e\u6280\u8853\u958b\u767a\u5e81\u5185\u306b\u3042\u308b\u30b3\u30f3\u30c8\u30ed\u30fc\u30eb\u30eb\u30fc\u30e0\u3078\n\u5165\u5ba4\u3059\u308b\u305f\u3081\u306b\u5fc5\u8981\u306a\u8a8d\u8a3c\u30ab\u30fc\u30c9\u30ad\u30fc\u3002",
        "P_COMMENT_GETTABLE": ""
    },
    {
        "P_IMPORTANT_ITEM_ID": "9",
        "P_EXPLAIN_SHORT": "\u7814\u7a76\u5ba4\uff12\uff10\uff15\u7528\u306e\u30eb\u30fc\u30e0\u30ad\u30fc",
        "P_EXTRA_TEXT": "\u30a4\u30af\u30b9\u30bf\u30b9\u306e\u6280\u8853\u958b\u767a\u5e81\u7b2c\u4e8c\u7814\u7a76\u30a8\u30ea\u30a2\u5185\u306b\u3042\u308b\n\u7814\u7a76\u5ba4\uff12\uff10\uff15\u306e\u30ab\u30fc\u30c9\u578b\u30eb\u30fc\u30e0\u30ad\u30fc\u3002",
        "P_COMMENT_GETTABLE": ""
    },
    {
        "P_IMPORTANT_ITEM_ID": "10",
        "P_EXPLAIN_SHORT": "\u7814\u7a76\u5ba4\uff12\uff10\uff19\u306b\u3042\u308b\u91d1\u5eab\u306e\u9375",
        "P_EXTRA_TEXT": "\u30a4\u30af\u30b9\u30bf\u30b9\u306e\u6280\u8853\u958b\u767a\u5e81\u5185\u7814\u7a76\u5ba4\uff12\uff10\uff19\u306b\u8a2d\u7f6e\u3055\u308c\u305f\n\u91d1\u5eab\u306e\u9375\u3002",
        "P_COMMENT_GETTABLE": ""
    },
    {
        "P_IMPORTANT_ITEM_ID": "11",
        "P_EXPLAIN_SHORT": "\u30b0\u30b9\u30bf\u30d5\u535a\u58eb\u304c\u6240\u6301\u3057\u3066\u3044\u305f\u9375",
        "P_EXTRA_TEXT": "\u30d0\u30c0\u30fb\u30d5\u30a1\u30ca\u306e\u5175\u5668\u7814\u7a76\u6240\u3067\u91d1\u5eab\u5185\u306b\u4fdd\u7ba1\u3055\u308c\u3066\u3044\u305f\u9375\u3002\n\u30b0\u30b9\u30bf\u30d5\u535a\u58eb\u304c\u6240\u6301\u3057\u3066\u3044\u305f\u3082\u306e\u306e\u3088\u3046\u3060\u304c\u2026\u2026",
        "P_COMMENT_GETTABLE": ""
    },
    {
        "P_IMPORTANT_ITEM_ID": "12",
        "P_EXPLAIN_SHORT": "\u9b54\u57ce\u4e2d\u5c64\u90e8\u306e\u898b\u53d6\u308a\u56f3",
        "P_EXTRA_TEXT": "\u7834\u7363\u306e\u9593\u3067\u898b\u3064\u3051\u305f\u9b54\u57ce\u4e2d\u5c64\u90e8\u306e\u898b\u53d6\u308a\u56f3\u3002\n\u6d77\u5cb8\u3078\u629c\u3051\u308b\u30eb\u30fc\u30c8\u304c\u6731\u66f8\u304d\u3055\u308c\u3066\u3044\u308b\u3002",
        "P_COMMENT_GETTABLE": ""
    },
    {
        "P_IMPORTANT_ITEM_ID": "13",
        "P_EXPLAIN_SHORT": "\u8b0e\u306e\u7814\u7a76\u30ec\u30dd\u30fc\u30c8",
        "P_EXTRA_TEXT": "\u9b54\u57ce\u6700\u4e0a\u5c64\u306e\u5c4d\u8853\u5ba4\u3067\u898b\u3064\u3051\u305f\u8b0e\u306e\u7814\u7a76\u30ec\u30dd\u30fc\u30c8\u3002\n\u8907\u6570\u306e\u751f\u7269\u306e\u8089\u4f53\u3092\u5408\u6210\u3057\u3066\u529b\u3092\u9ad8\u3081\u308b\u65b9\u6cd5\u3084\n\u53e4\u306e\u60aa\u9b54\u306b\u95a2\u3059\u308b\u5185\u5bb9\u304c\u8a18\u3055\u308c\u3066\u3044\u308b\u3002",
        "P_COMMENT_GETTABLE": ""
    },
    {
        "P_IMPORTANT_ITEM_ID": "10000",
        "P_EXPLAIN_SHORT": "\u30a2\u30a4\u30c6\u30e0\u8abf\u5408\u306e\u57fa\u790e\u7684\u306a\u3082\u306e\u304c\u8f09\u3063\u3066\u3044\u308b\u624b\u9806\u66f8",
        "P_EXTRA_TEXT": "\u30a2\u30a4\u30c6\u30e0\u8abf\u5408\u306e\u57fa\u790e\u7684\u306a\u3082\u306e\u304c\u8f09\u3063\u3066\u3044\u308b\u624b\u9806\u66f8\u3002\n\u30a2\u30a4\u30c6\u30e0\u306e\u8abf\u5408\u3067\u300c\u56de\u5fa9\u85ac\u300d\u3001\u300c\u6d44\u5316\u85ac\u300d\u3001\u300c\u6d3b\u6027\u85ac\u300d\u3001\u300c\u93ae\u9759\u85ac\u300d\u3001\u300c\u5f37\u5316\u98df\u300d\u3001\u300c\u786c\u5316\u98df\u300d\u304c\u4f5c\u308c\u308b\u3088\u3046\u306b\u306a\u308b\u3002",
        "P_COMMENT_GETTABLE": ""
    },
    {
        "P_IMPORTANT_ITEM_ID": "10001",
        "P_EXPLAIN_SHORT": "\u30a2\u30a4\u30c6\u30e0\u8abf\u5408\u306e\u5fdc\u7528\u7684\u306a\u3082\u306e\u304c\u8f09\u3063\u3066\u3044\u308b\u624b\u9806\u66f8",
        "P_EXTRA_TEXT": "\u30a2\u30a4\u30c6\u30e0\u8abf\u5408\u306e\u5fdc\u7528\u7684\u306a\u3082\u306e\u304c\u8f09\u3063\u3066\u3044\u308b\u624b\u9806\u66f8\u3002\n\u30a2\u30a4\u30c6\u30e0\u8abf\u5408\u3067\u300c\u795d\u798f\u306e\u5149\u300d\u3001\u300c\u6226\u976d\u98df\u300d\u3001\u300c\u6b66\u795e\u85ac\u300d\u304c\u4f5c\u308c\u308b\u3088\u3046\u306b\u306a\u308b\u3002",
        "P_COMMENT_GETTABLE": ""
    },
    {
        "P_IMPORTANT_ITEM_ID": "10002",
        "P_EXPLAIN_SHORT": "\u30a2\u30a4\u30c6\u30e0\u8abf\u5408\u306e\u767a\u5c55\u7684\u306a\u3082\u306e\u304c\u8f09\u3063\u3066\u3044\u308b\u624b\u9806\u66f8",
        "P_EXTRA_TEXT": "\u30a2\u30a4\u30c6\u30e0\u8abf\u5408\u306e\u767a\u5c55\u7684\u306a\u3082\u306e\u304c\u8f09\u3063\u3066\u3044\u308b\u624b\u9806\u66f8\u3002\n\u30a2\u30a4\u30c6\u30e0\u8abf\u5408\u3067\u300c\u7d99\u5fa9\u5149\u300d\u3001\u300c\u795e\u4ed9\u7434\u300d\u3001\u300c\u8607\u751f\u85ac\u300d\u304c\u4f5c\u308c\u308b\u3088\u3046\u306b\u306a\u308b\u3002",
        "P_COMMENT_GETTABLE": ""
    },
    {
        "P_IMPORTANT_ITEM_ID": "10008",
        "P_EXPLAIN_SHORT": "\u9a0e\u58eb\u5b66\u6821\u3067\u3082\u3089\u3063\u305f\u30a2\u30a4\u30c6\u30e0\u8abf\u5408\u306e\u624b\u9806\u66f8",
        "P_EXTRA_TEXT": "\u9a0e\u58eb\u5b66\u6821\u3067\u3082\u3089\u3063\u305f\u30a2\u30a4\u30c6\u30e0\u8abf\u5408\u306e\u624b\u9806\u66f8\u3002\n\u30a2\u30a4\u30c6\u30e0\u306e\u8abf\u5408\u3067\u300c\u56de\u5fa9\u85ac\u300d\u3001\u300c\u6d44\u5316\u85ac\u300d\u3001\u300c\u6d3b\u6027\u85ac\u300d\u3001\u300c\u93ae\u9759\u85ac\u300d\u3001\u300c\u5f37\u5316\u98df\u300d\u3001\u300c\u786c\u5316\u98df\u300d\u304c\u4f5c\u308c\u308b\u3088\u3046\u306b\u306a\u308b\u3002",
        "P_COMMENT_GETTABLE": ""
    },
    {
        "P_IMPORTANT_ITEM_ID": "20000",
        "P_EXPLAIN_SHORT": "\u6b66\u5668\u751f\u6210\u306e\u57fa\u790e\u7684\u306a\u3082\u306e\u304c\u8f09\u3063\u3066\u3044\u308b\u624b\u9806\u66f8",
        "P_EXTRA_TEXT": "\u6b66\u5668\u751f\u6210\u306e\u57fa\u790e\u7684\u306a\u3082\u306e\u304c\u8f09\u3063\u3066\u3044\u308b\u624b\u9806\u66f8\u3002\n\u6b66\u5668\u751f\u6210\u3067\u300c\u708e\u5263\u30e9\u30e0\u30ab\u300d\u3001\u300c\u8b77\u69cd\u30b0\u30e9\u30b7\u30b9\u300d\u304c\u4f5c\u308c\u308b\u3088\u3046\u306b\u306a\u308b\u3002",
        "P_COMMENT_GETTABLE": ""
    },
    {
        "P_IMPORTANT_ITEM_ID": "20002",
        "P_EXPLAIN_SHORT": "\u300c\u6e05\u6756\u30c8\u30eb\u30af\u30fc\u30ec\u300d\u306e\u4f5c\u308a\u65b9\u304c\u8f09\u3063\u3066\u3044\u308b\u624b\u9806\u66f8",
        "P_EXTRA_TEXT": "\u300c\u6e05\u6756\u30c8\u30eb\u30af\u30fc\u30ec\u300d\u306e\u4f5c\u308a\u65b9\u304c\u8f09\u3063\u3066\u3044\u308b\u624b\u9806\u66f8\u3002\n\u6b66\u5668\u751f\u6210\u3067\u300c\u6e05\u6756\u30c8\u30eb\u30af\u30fc\u30ec\u300d\u304c\u4f5c\u308c\u308b\u3088\u3046\u306b\u306a\u308b\u3002",
        "P_COMMENT_GETTABLE": ""
    },
    {
        "P_IMPORTANT_ITEM_ID": "20003",
        "P_EXPLAIN_SHORT": "\u300c\u5875\u65a7\u30d0\u30eb\u30b0\u30e9\u30e0\u300d\u306e\u4f5c\u308a\u65b9\u304c\u8f09\u3063\u3066\u3044\u308b\u624b\u9806\u66f8",
        "P_EXTRA_TEXT": "\u300c\u5875\u65a7\u30d0\u30eb\u30b0\u30e9\u30e0\u300d\u306e\u4f5c\u308a\u65b9\u304c\u8f09\u3063\u3066\u3044\u308b\u624b\u9806\u66f8\u3002\n\u6b66\u5668\u751f\u6210\u3067\u300c\u5875\u65a7\u30d0\u30eb\u30b0\u30e9\u30e0\u300d\u304c\u4f5c\u308c\u308b\u3088\u3046\u306b\u306a\u308b\u3002",
        "P_COMMENT_GETTABLE": ""
    },
    {
        "P_IMPORTANT_ITEM_ID": "20004",
        "P_EXPLAIN_SHORT": "\u300c\u7815\u5149\u5263\u30d7\u30ed\u30ad\u30a2\u300d\u306e\u4f5c\u308a\u65b9\u304c\u8f09\u3063\u3066\u3044\u308b\u624b\u9806\u66f8",
        "P_EXTRA_TEXT": "\u300c\u7815\u5149\u5263\u30d7\u30ed\u30ad\u30a2\u300d\u306e\u4f5c\u308a\u65b9\u304c\u8f09\u3063\u3066\u3044\u308b\u624b\u9806\u66f8\u3002\n\u6b66\u5668\u751f\u6210\u3067\u300c\u7815\u5149\u5263\u30d7\u30ed\u30ad\u30a2\u300d\u304c\u4f5c\u308c\u308b\u3088\u3046\u306b\u306a\u308b\u3002",
        "P_COMMENT_GETTABLE": ""
    },
    {
        "P_IMPORTANT_ITEM_ID": "20005",
        "P_EXPLAIN_SHORT": "\u300c\u96f7\u7a7f\u9283\u30b9\u30c6\u30e9\u300d\u306e\u4f5c\u308a\u65b9\u304c\u8f09\u3063\u3066\u3044\u308b\u624b\u9806\u66f8",
        "P_EXTRA_TEXT": "\u300c\u96f7\u7a7f\u9283\u30b9\u30c6\u30e9\u300d\u306e\u4f5c\u308a\u65b9\u304c\u8f09\u3063\u3066\u3044\u308b\u624b\u9806\u66f8\u3002\n\u6b66\u5668\u751f\u6210\u3067\u300c\u96f7\u7a7f\u9283\u30b9\u30c6\u30e9\u300d\u304c\u4f5c\u308c\u308b\u3088\u3046\u306b\u306a\u308b\u3002",
        "P_COMMENT_GETTABLE": ""
    },
    {
        "P_IMPORTANT_ITEM_ID": "20006",
        "P_EXPLAIN_SHORT": "\u300c\u5e7b\u714c\u5263\u30ec\u30aa\u30cb\u30af\u30b9\u300d\u306e\u4f5c\u308a\u65b9\u304c\u8f09\u3063\u3066\u3044\u308b\u624b\u9806\u66f8",
        "P_EXTRA_TEXT": "\u300c\u5e7b\u714c\u5263\u30ec\u30aa\u30cb\u30af\u30b9\u300d\u306e\u4f5c\u308a\u65b9\u304c\u8f09\u3063\u3066\u3044\u308b\u624b\u9806\u66f8\u3002\n\u6b66\u5668\u751f\u6210\u3067\u300c\u5e7b\u714c\u5263\u30ec\u30aa\u30cb\u30af\u30b9\u300d\u304c\u4f5c\u308c\u308b\u3088\u3046\u306b\u306a\u308b\u3002",
        "P_COMMENT_GETTABLE": ""
    },
    {
        "P_IMPORTANT_ITEM_ID": "20007",
        "P_EXPLAIN_SHORT": "\u300c\u51cd\u5263\u30a2\u30eb\u30bb\u30ca\u300d\u306e\u4f5c\u308a\u65b9\u304c\u8f09\u3063\u3066\u3044\u308b\u624b\u9806\u66f8",
        "P_EXTRA_TEXT": "\u300c\u51cd\u5263\u30a2\u30eb\u30bb\u30ca\u300d\u306e\u4f5c\u308a\u65b9\u304c\u8f09\u3063\u3066\u3044\u308b\u624b\u9806\u66f8\u3002\n\u6b66\u5668\u751f\u6210\u3067\u300c\u51cd\u5263\u30a2\u30eb\u30bb\u30ca\u300d\u304c\u4f5c\u308c\u308b\u3088\u3046\u306b\u306a\u308b\u3002",
        "P_COMMENT_GETTABLE": ""
    },
    {
        "P_IMPORTANT_ITEM_ID": "20008",
        "P_EXPLAIN_SHORT": "\u300c\u5149\u5178\u30d5\u30a7\u30ea\u30a8\u30fc\u30eb\u300d\u306e\u4f5c\u308a\u65b9\u304c\u8f09\u3063\u3066\u3044\u308b\u624b\u9806\u66f8",
        "P_EXTRA_TEXT": "\u300c\u5149\u5178\u30d5\u30a7\u30ea\u30a8\u30fc\u30eb\u300d\u306e\u4f5c\u308a\u65b9\u304c\u8f09\u3063\u3066\u3044\u308b\u624b\u9806\u66f8\u3002\n\u6b66\u5668\u751f\u6210\u3067\u300c\u5149\u5178\u30d5\u30a7\u30ea\u30a8\u30fc\u30eb\u300d\u304c\u4f5c\u308c\u308b\u3088\u3046\u306b\u306a\u308b\u3002",
        "P_COMMENT_GETTABLE": ""
    },
    {
        "P_IMPORTANT_ITEM_ID": "20009",
        "P_EXPLAIN_SHORT": "\u300c\u98db\u68cd\u30c1\u30a7\u30eb\u30c6\u30a3\u300d\u306e\u4f5c\u308a\u65b9\u304c\u8f09\u3063\u3066\u3044\u308b\u624b\u9806\u66f8",
        "P_EXTRA_TEXT": "\u300c\u98db\u68cd\u30c1\u30a7\u30eb\u30c6\u30a3\u300d\u306e\u4f5c\u308a\u65b9\u304c\u8f09\u3063\u3066\u3044\u308b\u624b\u9806\u66f8\u3002\n\u6b66\u5668\u751f\u6210\u3067\u300c\u98db\u68cd\u30c1\u30a7\u30eb\u30c6\u30a3\u300d\u304c\u4f5c\u308c\u308b\u3088\u3046\u306b\u306a\u308b\u3002",
        "P_COMMENT_GETTABLE": ""
    },
    {
        "P_IMPORTANT_ITEM_ID": "20012",
        "P_EXPLAIN_SHORT": "\u300c\u8000\u6cd5\u73e0\u30cd\u30c7\u30a3\u30e9\u300d\u306e\u4f5c\u308a\u65b9\u304c\u8f09\u3063\u3066\u3044\u308b\u624b\u9806\u66f8",
        "P_EXTRA_TEXT": "\u300c\u8000\u6cd5\u73e0\u30cd\u30c7\u30a3\u30e9\u300d\u306e\u4f5c\u308a\u65b9\u304c\u8f09\u3063\u3066\u3044\u308b\u624b\u9806\u66f8\u3002\n\u6b66\u5668\u751f\u6210\u3067\u300c\u8000\u6cd5\u73e0\u30cd\u30c7\u30a3\u30e9\u300d\u304c\u4f5c\u308c\u308b\u3088\u3046\u306b\u306a\u308b\u3002",
        "P_COMMENT_GETTABLE": ""
    },
    {
        "P_IMPORTANT_ITEM_ID": "20013",
        "P_EXPLAIN_SHORT": "\u300c\u795f\u5996\u5200\u300e\u5bb5\u83ca\u300f\u300d\u306e\u4f5c\u308a\u65b9\u304c\u8f09\u3063\u3066\u3044\u308b\u624b\u9806\u66f8",
        "P_EXTRA_TEXT": "\u300c\u795f\u5996\u5200\u300e\u5bb5\u83ca\u300f\u300d\u306e\u4f5c\u308a\u65b9\u304c\u8f09\u3063\u3066\u3044\u308b\u624b\u9806\u66f8\u3002\n\u6b66\u5668\u751f\u6210\u3067\u300c\u795f\u5996\u5200\u300e\u5bb5\u83ca\u300f\u300d\u304c\u4f5c\u308c\u308b\u3088\u3046\u306b\u306a\u308b\u3002",
        "P_COMMENT_GETTABLE": ""
    },
    {
        "P_IMPORTANT_ITEM_ID": "20014",
        "P_EXPLAIN_SHORT": "\u300c\u7dcb\u95bb\u932b\u30e9\u30fc\u30c7\u30ea\u30a2\u30b9\u300d\u306e\u4f5c\u308a\u65b9\u304c\u8f09\u3063\u3066\u3044\u308b\u624b\u9806\u66f8",
        "P_EXTRA_TEXT": "\u300c\u7dcb\u95bb\u932b\u30e9\u30fc\u30c7\u30ea\u30a2\u30b9\u300d\u306e\u4f5c\u308a\u65b9\u304c\u8f09\u3063\u3066\u3044\u308b\u624b\u9806\u66f8\u3002\n\u6b66\u5668\u751f\u6210\u3067\u300c\u7dcb\u95bb\u932b\u30e9\u30fc\u30c7\u30ea\u30a2\u30b9\u300d\u304c\u4f5c\u308c\u308b\u3088\u3046\u306b\u306a\u308b\u3002",
        "P_COMMENT_GETTABLE": ""
    },
    {
        "P_IMPORTANT_ITEM_ID": "20015",
        "P_EXPLAIN_SHORT": "\u300c\u7d2b\u524b\u96d9\u5203\u30a8\u30f4\u30f3\u30cb\u30fc\u30c9\u300d\u306e\u4f5c\u308a\u65b9\u304c\u8f09\u3063\u3066\u3044\u308b\u624b\u9806\u66f8",
        "P_EXTRA_TEXT": "\u300c\u7d2b\u524b\u96d9\u5203\u30a8\u30f4\u30f3\u30cb\u30fc\u30c9\u300d\u306e\u4f5c\u308a\u65b9\u304c\u8f09\u3063\u3066\u3044\u308b\u624b\u9806\u66f8\u3002\n\u6b66\u5668\u751f\u6210\u3067\u300c\u7d2b\u524b\u96d9\u5203\u30a8\u30f4\u30f3\u30cb\u30fc\u30c9\u300d\u304c\u4f5c\u308c\u308b\u3088\u3046\u306b\u306a\u308b\u3002",
        "P_COMMENT_GETTABLE": ""
    },
    {
        "P_IMPORTANT_ITEM_ID": "20016",
        "P_EXPLAIN_SHORT": "\u300c\u5b0c\u6b66\u8208\u4f0e\u30a4\u30eb\u30c8\u30ea\u30c3\u30d7\u300d\u306e\u4f5c\u308a\u65b9\u304c\u8f09\u3063\u3066\u3044\u308b\u624b\u9806\u66f8",
        "P_EXTRA_TEXT": "\u300c\u5b0c\u6b66\u8208\u4f0e\u30a4\u30eb\u30c8\u30ea\u30c3\u30d7\u300d\u306e\u4f5c\u308a\u65b9\u304c\u8f09\u3063\u3066\u3044\u308b\u624b\u9806\u66f8\u3002\n\u6b66\u5668\u751f\u6210\u3067\u300c\u5b0c\u6b66\u8208\u4f0e\u30a4\u30eb\u30c8\u30ea\u30c3\u30d7\u300d\u304c\u4f5c\u308c\u308b\u3088\u3046\u306b\u306a\u308b\u3002",
        "P_COMMENT_GETTABLE": ""
    },
    {
        "P_IMPORTANT_ITEM_ID": "20017",
        "P_EXPLAIN_SHORT": "\u300c\u5f57\u70c8\u6a5f\u8fc5\u30b8\u30b0\u30d5\u30a9\u30fc\u30eb\u300d\u306e\u4f5c\u308a\u65b9\u304c\u8f09\u3063\u3066\u3044\u308b\u624b\u9806\u66f8",
        "P_EXTRA_TEXT": "\u300c\u5f57\u70c8\u6a5f\u8fc5\u30b8\u30b0\u30d5\u30a9\u30fc\u30eb\u300d\u306e\u4f5c\u308a\u65b9\u304c\u8f09\u3063\u3066\u3044\u308b\u624b\u9806\u66f8\u3002\n\u6b66\u5668\u751f\u6210\u3067\u300c\u5f57\u70c8\u6a5f\u8fc5\u30b8\u30b0\u30d5\u30a9\u30fc\u30eb\u300d\u304c\u4f5c\u308c\u308b\u3088\u3046\u306b\u306a\u308b\u3002",
        "P_COMMENT_GETTABLE": ""
    },
    {
        "P_IMPORTANT_ITEM_ID": "20018",
        "P_EXPLAIN_SHORT": "\u300c\u907a\u6faa\u74b0\u30d5\u30a3\u30eb\u30fb\u30d5\u30a3\u30ed\u300d\u306e\u4f5c\u308a\u65b9\u304c\u8f09\u3063\u3066\u3044\u308b\u624b\u9806\u66f8",
        "P_EXTRA_TEXT": "\u300c\u907a\u6faa\u74b0\u30d5\u30a3\u30eb\u30fb\u30d5\u30a3\u30ed\u300d\u306e\u4f5c\u308a\u65b9\u304c\u8f09\u3063\u3066\u3044\u308b\u624b\u9806\u66f8\u3002\n\u6b66\u5668\u751f\u6210\u3067\u300c\u907a\u6faa\u74b0\u30d5\u30a3\u30eb\u30fb\u30d5\u30a3\u30ed\u300d\u304c\u4f5c\u308c\u308b\u3088\u3046\u306b\u306a\u308b\u3002",
        "P_COMMENT_GETTABLE": ""
    },
    {
        "P_IMPORTANT_ITEM_ID": "20019",
        "P_EXPLAIN_SHORT": "\u300c\u95d8\u64f2\u92fc\u76fe\u30e9\u30c0\u30f3\u30d3\u30fc\u30af\u300d\u306e\u4f5c\u308a\u65b9\u304c\u8f09\u3063\u3066\u3044\u308b\u624b\u9806\u66f8",
        "P_EXTRA_TEXT": "\u300c\u95d8\u64f2\u92fc\u76fe\u30e9\u30c0\u30f3\u30d3\u30fc\u30af\u300d\u306e\u4f5c\u308a\u65b9\u304c\u8f09\u3063\u3066\u3044\u308b\u624b\u9806\u66f8\u3002\n\u6b66\u5668\u751f\u6210\u3067\u300c\u95d8\u64f2\u92fc\u76fe\u30e9\u30c0\u30f3\u30d3\u30fc\u30af\u300d\u304c\u4f5c\u308c\u308b\u3088\u3046\u306b\u306a\u308b\u3002",
        "P_COMMENT_GETTABLE": ""
    },
    {
        "P_IMPORTANT_ITEM_ID": "20020",
        "P_EXPLAIN_SHORT": "\u300c\u885d\u7a7f\u68cd\u30c9\u30a5\u30df\u30cd\u30eb\u300d\u306e\u4f5c\u308a\u65b9\u304c\u8f09\u3063\u3066\u3044\u308b\u624b\u9806\u66f8",
        "P_EXTRA_TEXT": "\u300c\u885d\u7a7f\u68cd\u30c9\u30a5\u30df\u30cd\u30eb\u300d\u306e\u4f5c\u308a\u65b9\u304c\u8f09\u3063\u3066\u3044\u308b\u624b\u9806\u66f8\u3002\n\u6b66\u5668\u751f\u6210\u3067\u300c\u885d\u7a7f\u68cd\u30c9\u30a5\u30df\u30cd\u30eb\u300d\u304c\u4f5c\u308c\u308b\u3088\u3046\u306b\u306a\u308b\u3002",
        "P_COMMENT_GETTABLE": ""
    },
    {
        "P_IMPORTANT_ITEM_ID": "20021",
        "P_EXPLAIN_SHORT": "\u300c\u771f\u7483\u6676\u93e1\u30de\u30eb\u30b5\u30fc\u30ec\u300d\u306e\u4f5c\u308a\u65b9\u304c\u8f09\u3063\u3066\u3044\u308b\u624b\u9806\u66f8",
        "P_EXTRA_TEXT": "\u300c\u771f\u7483\u6676\u93e1\u30de\u30eb\u30b5\u30fc\u30ec\u300d\u306e\u4f5c\u308a\u65b9\u304c\u8f09\u3063\u3066\u3044\u308b\u624b\u9806\u66f8\u3002\n\u6b66\u5668\u751f\u6210\u3067\u300c\u771f\u7483\u6676\u93e1\u30de\u30eb\u30b5\u30fc\u30ec\u300d\u304c\u4f5c\u308c\u308b\u3088\u3046\u306b\u306a\u308b\u3002",
        "P_COMMENT_GETTABLE": ""
    },
    {
        "P_IMPORTANT_ITEM_ID": "30000",
        "P_EXPLAIN_SHORT": "\u643a\u5e2f\u53ec\u559a\u5668\u306b\u4ed8\u3044\u3066\u3044\u305f\u57fa\u790e\u30b9\u30d5\u30a3\u30a2\u306e\u751f\u6210\u30e1\u30e2",
        "P_EXTRA_TEXT": "\u643a\u5e2f\u53ec\u559a\u5668\u306b\u3064\u3044\u3066\u3044\u305f\u57fa\u790e\u30b9\u30d5\u30a3\u30a2\u306e\u751f\u6210\u30e1\u30e2\u3002\n\u30b9\u30d5\u30a3\u30a2\u751f\u6210\u3067\u300c\u540d\u5263\u30d6\u30ec\u30a4\u30d6\u30e9\u30a4\u30c9\u300d\u3001\u300c\u5de8\u4eba\u76fe\u30a8\u30d3\u30aa\u30dc\u300d\u3001\u300c\u68ee\u7cbe\u306e\u7e2b\u8863\u300d\u3001\u300c\u9b3c\u93a7\u30ac\u30f4\u30a1\u30ea\u30a2\u30f3\u300d\u304c\u4f5c\u308c\u308b\u3088\u3046\u306b\u306a\u308b\u3002",
        "P_COMMENT_GETTABLE": ""
    },
    {
        "P_IMPORTANT_ITEM_ID": "30002",
        "P_EXPLAIN_SHORT": "\u300c\u8056\u5263\u30a8\u30d9\u30ea\u30af\u30b9\u300d\u306e\u4f5c\u308a\u65b9\u304c\u8f09\u3063\u3066\u3044\u308b\u624b\u9806\u66f8",
        "P_EXTRA_TEXT": "\u300c\u8056\u5263\u30a8\u30d9\u30ea\u30af\u30b9\u300d\u306e\u4f5c\u308a\u65b9\u304c\u8f09\u3063\u3066\u3044\u308b\u624b\u9806\u66f8\u3002\n\u30b9\u30d5\u30a3\u30a2\u751f\u6210\u3067\u300c\u8056\u5263\u30a8\u30d9\u30ea\u30af\u30b9\u300d\u304c\u4f5c\u308c\u308b\u3088\u3046\u306b\u306a\u308b\u3002",
        "P_COMMENT_GETTABLE": ""
    },
    {
        "P_IMPORTANT_ITEM_ID": "30003",
        "P_EXPLAIN_SHORT": "\u300c\u9b54\u5263\u30a8\u30c7\u30eb\u30fb\u30de\u30bc\u30eb\u300d\u306e\u4f5c\u308a\u65b9\u304c\u8f09\u3063\u3066\u3044\u308b\u624b\u9806\u66f8",
        "P_EXTRA_TEXT": "\u300c\u9b54\u5263\u30a8\u30c7\u30eb\u30fb\u30de\u30bc\u30eb\u300d\u306e\u4f5c\u308a\u65b9\u304c\u8f09\u3063\u3066\u3044\u308b\u624b\u9806\u66f8\u3002\n\u30b9\u30d5\u30a3\u30a2\u751f\u6210\u3067\u300c\u9b54\u5263\u30a8\u30c7\u30eb\u30fb\u30de\u30bc\u30eb\u300d\u304c\u4f5c\u308c\u308b\u3088\u3046\u306b\u306a\u308b\u3002",
        "P_COMMENT_GETTABLE": ""
    },
    {
        "P_IMPORTANT_ITEM_ID": "30004",
        "P_EXPLAIN_SHORT": "\u300c\u7adc\u304c\u935b\u3048\u3057\u5263\u300e\u30de\u30ac\u300f\u300d\u306e\u4f5c\u308a\u65b9\u304c\u8f09\u3063\u3066\u3044\u308b\u624b\u9806\u66f8",
        "P_EXTRA_TEXT": "\u300c\u7adc\u304c\u935b\u3048\u3057\u5263\u300e\u30de\u30ac\u300f\u300d\u306e\u4f5c\u308a\u65b9\u304c\u8f09\u3063\u3066\u3044\u308b\u624b\u9806\u66f8\u3002\n\u30b9\u30d5\u30a3\u30a2\u751f\u6210\u3067\u300c\u7adc\u304c\u935b\u3048\u3057\u5263\u300e\u30de\u30ac\u300f\u300d\u304c\u4f5c\u308c\u308b\u3088\u3046\u306b\u306a\u308b\u3002",
        "P_COMMENT_GETTABLE": ""
    },
    {
        "P_IMPORTANT_ITEM_ID": "30006",
        "P_EXPLAIN_SHORT": "\u300c\u7adc\u9c57\u76fe\u30d0\u30eb\u30b2\u30a4\u30aa\u30b9\u300d\u306e\u4f5c\u308a\u65b9\u304c\u8f09\u3063\u3066\u3044\u308b\u624b\u9806\u66f8",
        "P_EXTRA_TEXT": "\u300c\u7adc\u9c57\u76fe\u30d0\u30eb\u30b2\u30a4\u30aa\u30b9\u300d\u306e\u4f5c\u308a\u65b9\u304c\u8f09\u3063\u3066\u3044\u308b\u624b\u9806\u66f8\u3002\n\u30b9\u30d5\u30a3\u30a2\u751f\u6210\u3067\u300c\u7adc\u9c57\u76fe\u30d0\u30eb\u30b2\u30a4\u30aa\u30b9\u300d\u304c\u4f5c\u308c\u308b\u3088\u3046\u306b\u306a\u308b\u3002",
        "P_COMMENT_GETTABLE": ""
    },
    {
        "P_IMPORTANT_ITEM_ID": "30007",
        "P_EXPLAIN_SHORT": "\u300c\u5973\u795e\u76fe\u30e9\u30a6\u30fb\u30ec\u30a4\u30af\u300d\u306e\u4f5c\u308a\u65b9\u304c\u8f09\u3063\u3066\u3044\u308b\u624b\u9806\u66f8",
        "P_EXTRA_TEXT": "\u300c\u5973\u795e\u76fe\u30e9\u30a6\u30fb\u30ec\u30a4\u30af\u300d\u306e\u4f5c\u308a\u65b9\u304c\u8f09\u3063\u3066\u3044\u308b\u624b\u9806\u66f8\u3002\n\u30b9\u30d5\u30a3\u30a2\u751f\u6210\u3067\u300c\u5973\u795e\u76fe\u30e9\u30a6\u30fb\u30ec\u30a4\u30af\u300d\u304c\u4f5c\u308c\u308b\u3088\u3046\u306b\u306a\u308b\u3002",
        "P_COMMENT_GETTABLE": ""
    },
    {
        "P_IMPORTANT_ITEM_ID": "30008",
        "P_EXPLAIN_SHORT": "\u300c\u592a\u967d\u3068\u6708\u306e\u76fe\u30de\u30ea\u30b9\u300d\u306e\u4f5c\u308a\u65b9\u304c\u8f09\u3063\u3066\u3044\u308b\u624b\u9806\u66f8",
        "P_EXTRA_TEXT": "\u300c\u592a\u967d\u3068\u6708\u306e\u76fe\u30de\u30ea\u30b9\u300d\u306e\u4f5c\u308a\u65b9\u304c\u8f09\u3063\u3066\u3044\u308b\u624b\u9806\u66f8\u3002\n\u30b9\u30d5\u30a3\u30a2\u751f\u6210\u3067\u300c\u592a\u967d\u3068\u6708\u306e\u76fe\u30de\u30ea\u30b9\u300d\u304c\u4f5c\u308c\u308b\u3088\u3046\u306b\u306a\u308b\u3002",
        "P_COMMENT_GETTABLE": ""
    },
    {
        "P_IMPORTANT_ITEM_ID": "30010",
        "P_EXPLAIN_SHORT": "\u300c\u68ee\u8863\u30d5\u30e9\u30c7\u30ea\u30a2\u300d\u306e\u4f5c\u308a\u65b9\u304c\u8f09\u3063\u3066\u3044\u308b\u624b\u9806\u66f8",
        "P_EXTRA_TEXT": "\u300c\u68ee\u8863\u30d5\u30e9\u30c7\u30ea\u30a2\u300d\u306e\u4f5c\u308a\u65b9\u304c\u8f09\u3063\u3066\u3044\u308b\u624b\u9806\u66f8\u3002\n\u30b9\u30d5\u30a3\u30a2\u751f\u6210\u3067\u300c\u68ee\u8863\u30d5\u30e9\u30c7\u30ea\u30a2\u300d\u304c\u4f5c\u308c\u308b\u3088\u3046\u306b\u306a\u308b\u3002",
        "P_COMMENT_GETTABLE": ""
    },
    {
        "P_IMPORTANT_ITEM_ID": "30011",
        "P_EXPLAIN_SHORT": "\u300c\u68ee\u738b\u8863\u30a2\u30a4\u30c7\u30a3\u30fc\u30cd\u300d\u306e\u4f5c\u308a\u65b9\u304c\u8f09\u3063\u3066\u3044\u308b\u624b\u9806\u66f8",
        "P_EXTRA_TEXT": "\u300c\u68ee\u738b\u8863\u30a2\u30a4\u30c7\u30a3\u30fc\u30cd\u300d\u306e\u4f5c\u308a\u65b9\u304c\u8f09\u3063\u3066\u3044\u308b\u624b\u9806\u66f8\u3002\n\u30b9\u30d5\u30a3\u30a2\u751f\u6210\u3067\u300c\u68ee\u738b\u8863\u30a2\u30a4\u30c7\u30a3\u30fc\u30cd\u300d\u304c\u4f5c\u308c\u308b\u3088\u3046\u306b\u306a\u308b\u3002",
        "P_COMMENT_GETTABLE": ""
    },
    {
        "P_IMPORTANT_ITEM_ID": "30012",
        "P_EXPLAIN_SHORT": "\u300c\u767d\u54c0\u306e\u5929\u846c\u8863\u300d\u306e\u4f5c\u308a\u65b9\u304c\u8f09\u3063\u3066\u3044\u308b\u624b\u9806\u66f8",
        "P_EXTRA_TEXT": "\u300c\u767d\u54c0\u306e\u5929\u846c\u8863\u300d\u306e\u4f5c\u308a\u65b9\u304c\u8f09\u3063\u3066\u3044\u308b\u624b\u9806\u66f8\u3002\n\u30b9\u30d5\u30a3\u30a2\u751f\u6210\u3067\u300c\u767d\u54c0\u306e\u5929\u846c\u8863\u300d\u304c\u4f5c\u308c\u308b\u3088\u3046\u306b\u306a\u308b\u3002",
        "P_COMMENT_GETTABLE": ""
    },
    {
        "P_IMPORTANT_ITEM_ID": "30014",
        "P_EXPLAIN_SHORT": "\u300c\u5e7b\u7363\u93a7\u300e\u9e92\u9e9f\u300f\u300d\u306e\u4f5c\u308a\u65b9\u304c\u8f09\u3063\u3066\u3044\u308b\u624b\u9806\u66f8",
        "P_EXTRA_TEXT": "\u300c\u5e7b\u7363\u93a7\u300e\u9e92\u9e9f\u300f\u300d\u306e\u4f5c\u308a\u65b9\u304c\u8f09\u3063\u3066\u3044\u308b\u624b\u9806\u66f8\u3002\n\u30b9\u30d5\u30a3\u30a2\u751f\u6210\u3067\u300c\u5e7b\u7363\u93a7\u300e\u9e92\u9e9f\u300f\u300d\u304c\u4f5c\u308c\u308b\u3088\u3046\u306b\u306a\u308b\u3002",
        "P_COMMENT_GETTABLE": ""
    },
    {
        "P_IMPORTANT_ITEM_ID": "30015",
        "P_EXPLAIN_SHORT": "\u300c\u8056\u8863\u30a8\u30e1\u30eb\u30c7\u30a3\u30a2\u300d\u306e\u4f5c\u308a\u65b9\u304c\u8f09\u3063\u3066\u3044\u308b\u624b\u9806\u66f8",
        "P_EXTRA_TEXT": "\u300c\u8056\u8863\u30a8\u30e1\u30eb\u30c7\u30a3\u30a2\u300d\u306e\u4f5c\u308a\u65b9\u304c\u8f09\u3063\u3066\u3044\u308b\u624b\u9806\u66f8\u3002\n\u30b9\u30d5\u30a3\u30a2\u751f\u6210\u3067\u300c\u8056\u8863\u30a8\u30e1\u30eb\u30c7\u30a3\u30a2\u300d\u304c\u4f5c\u308c\u308b\u3088\u3046\u306b\u306a\u308b\u3002",
        "P_COMMENT_GETTABLE": ""
    },
    {
        "P_IMPORTANT_ITEM_ID": "30016",
        "P_EXPLAIN_SHORT": "\u300c\u8f1d\u93a7\u30eb\u30c7\u30a3\u30d0\u30fb\u30de\u30af\u30b9\u300d\u306e\u4f5c\u308a\u65b9\u304c\u8f09\u3063\u3066\u3044\u308b\u624b\u9806\u66f8",
        "P_EXTRA_TEXT": "\u300c\u8f1d\u93a7\u30eb\u30c7\u30a3\u30d0\u30fb\u30de\u30af\u30b9\u300d\u306e\u4f5c\u308a\u65b9\u304c\u8f09\u3063\u3066\u3044\u308b\u624b\u9806\u66f8\u3002\n\u30b9\u30d5\u30a3\u30a2\u751f\u6210\u3067\u300c\u8f1d\u93a7\u30eb\u30c7\u30a3\u30d0\u30fb\u30de\u30af\u30b9\u300d\u304c\u4f5c\u308c\u308b\u3088\u3046\u306b\u306a\u308b\u3002",
        "P_COMMENT_GETTABLE": ""
    },
    {
        "P_IMPORTANT_ITEM_ID": "30017",
        "P_EXPLAIN_SHORT": "\u300c\u5343\u5b50\u6751\u6b63\u300d\u306e\u4f5c\u308a\u65b9\u304c\u8f09\u3063\u3066\u3044\u308b\u624b\u9806\u66f8",
        "P_EXTRA_TEXT": "\u300c\u5343\u5b50\u6751\u6b63\u300d\u306e\u4f5c\u308a\u65b9\u304c\u8f09\u3063\u3066\u3044\u308b\u624b\u9806\u66f8\u3002\n\u30b9\u30d5\u30a3\u30a2\u751f\u6210\u3067\u300c\u5343\u5b50\u6751\u6b63\u300d\u304c\u4f5c\u308c\u308b\u3088\u3046\u306b\u306a\u308b\u3002",
        "P_COMMENT_GETTABLE": ""
    },
    {
        "P_IMPORTANT_ITEM_ID": "30018",
        "P_EXPLAIN_SHORT": "\u300c\u738b\u76fe\u30c0\u30eb\u30d0\u30f3\u30b7\u30a7\u30eb\u300d\u306e\u4f5c\u308a\u65b9\u304c\u8f09\u3063\u3066\u3044\u308b\u624b\u9806\u66f8",
        "P_EXTRA_TEXT": "\u300c\u738b\u76fe\u30c0\u30eb\u30d0\u30f3\u30b7\u30a7\u30eb\u300d\u306e\u4f5c\u308a\u65b9\u304c\u8f09\u3063\u3066\u3044\u308b\u624b\u9806\u66f8\u3002\n\u30b9\u30d5\u30a3\u30a2\u751f\u6210\u3067\u300c\u738b\u76fe\u30c0\u30eb\u30d0\u30f3\u30b7\u30a7\u30eb\u300d\u304c\u4f5c\u308c\u308b\u3088\u3046\u306b\u306a\u308b\u3002",
        "P_COMMENT_GETTABLE": ""
    },
    {
        "P_IMPORTANT_ITEM_ID": "30019",
        "P_EXPLAIN_SHORT": "\u300c\u6b63\u5b97\u300d\u306e\u4f5c\u308a\u65b9\u304c\u8f09\u3063\u3066\u3044\u308b\u624b\u9806\u66f8",
        "P_EXTRA_TEXT": "\u300c\u6b63\u5b97\u300d\u306e\u4f5c\u308a\u65b9\u304c\u8f09\u3063\u3066\u3044\u308b\u624b\u9806\u66f8\u3002\n\u30b9\u30d5\u30a3\u30a2\u751f\u6210\u3067\u300c\u6b63\u5b97\u300d\u304c\u4f5c\u308c\u308b\u3088\u3046\u306b\u306a\u308b\u3002",
        "P_COMMENT_GETTABLE": ""
    },
    {
        "P_IMPORTANT_ITEM_ID": "30020",
        "P_EXPLAIN_SHORT": "\u300c\u6a5f\u5263\u30c7\u30a3\u30d5\u30a7\u30f3\u30c0\u30fc\u300d\u306e\u4f5c\u308a\u65b9\u304c\u8f09\u3063\u3066\u3044\u308b\u624b\u9806\u66f8",
        "P_EXTRA_TEXT": "\u300c\u6a5f\u5263\u30c7\u30a3\u30d5\u30a7\u30f3\u30c0\u30fc\u300d\u306e\u4f5c\u308a\u65b9\u304c\u8f09\u3063\u3066\u3044\u308b\u624b\u9806\u66f8\u3002\n\u30b9\u30d5\u30a3\u30a2\u751f\u6210\u3067\u300c\u6a5f\u5263\u30c7\u30a3\u30d5\u30a7\u30f3\u30c0\u30fc\u300d\u304c\u4f5c\u308c\u308b\u3088\u3046\u306b\u306a\u308b\u3002",
        "P_COMMENT_GETTABLE": ""
    },
    {
        "P_IMPORTANT_ITEM_ID": "30021",
        "P_EXPLAIN_SHORT": "\u300c\u79d8\u5b9d\u300e\u30de\u30eb\u30ad\u30e5\u30ed\u30c7\u30a3\u30f3\u300f\u300d\u306e\u4f5c\u308a\u65b9\u304c\u8f09\u3063\u3066\u3044\u308b\u624b\u9806\u66f8",
        "P_EXTRA_TEXT": "\u300c\u79d8\u5b9d\u300e\u30de\u30eb\u30ad\u30e5\u30ed\u30c7\u30a3\u30f3\u300f\u300d\u306e\u4f5c\u308a\u65b9\u304c\u8f09\u3063\u3066\u3044\u308b\u624b\u9806\u66f8\u3002\n\u30b9\u30d5\u30a3\u30a2\u751f\u6210\u3067\u300c\u79d8\u5b9d\u300e\u30de\u30eb\u30ad\u30e5\u30ed\u30c7\u30a3\u30f3\u300f\u300d\u304c\u4f5c\u308c\u308b\u3088\u3046\u306b\u306a\u308b\u3002",
        "P_COMMENT_GETTABLE": ""
    },
    {
        "P_IMPORTANT_ITEM_ID": "30022",
        "P_EXPLAIN_SHORT": "\u300c\u79d8\u5b9d\u300e\u30ec\u30d6\u30fb\u30de\u30c7\u30e5\u30e9\u300f\u300d\u306e\u4f5c\u308a\u65b9\u304c\u8f09\u3063\u3066\u3044\u308b\u624b\u9806\u66f8",
        "P_EXTRA_TEXT": "\u300c\u79d8\u5b9d\u300e\u30ec\u30d6\u30fb\u30de\u30c7\u30e5\u30e9\u300f\u300d\u306e\u4f5c\u308a\u65b9\u304c\u8f09\u3063\u3066\u3044\u308b\u624b\u9806\u66f8\u3002\n\u30b9\u30d5\u30a3\u30a2\u751f\u6210\u3067\u300c\u79d8\u5b9d\u300e\u30ec\u30d6\u30fb\u30de\u30c7\u30e5\u30e9\u300f\u300d\u304c\u4f5c\u308c\u308b\u3088\u3046\u306b\u306a\u308b\u3002",
        "P_COMMENT_GETTABLE": ""
    },
    {
        "P_IMPORTANT_ITEM_ID": "30023",
        "P_EXPLAIN_SHORT": "\u300c\u7cbe\u970a\u306e\u77ed\u5263\u300d\u306e\u4f5c\u308a\u65b9\u304c\u8f09\u3063\u3066\u3044\u308b\u624b\u9806\u66f8",
        "P_EXTRA_TEXT": "\u300c\u7cbe\u970a\u306e\u77ed\u5263\u300d\u306e\u4f5c\u308a\u65b9\u304c\u8f09\u3063\u3066\u3044\u308b\u624b\u9806\u66f8\u3002\n\u30b9\u30d5\u30a3\u30a2\u751f\u6210\u3067\u300c\u7cbe\u970a\u306e\u77ed\u5263\u300d\u304c\u4f5c\u308c\u308b\u3088\u3046\u306b\u306a\u308b\u3002",
        "P_COMMENT_GETTABLE": ""
    },
    {
        "P_IMPORTANT_ITEM_ID": "30024",
        "P_EXPLAIN_SHORT": "\u300c\u7cbe\u970a\u5263\u30c6\u30a3\u30a2\u30c3\u30c8\u300d\u306e\u4f5c\u308a\u65b9\u304c\u8f09\u3063\u3066\u3044\u308b\u624b\u9806\u66f8",
        "P_EXTRA_TEXT": "\u300c\u7cbe\u970a\u5263\u30c6\u30a3\u30a2\u30c3\u30c8\u300d\u306e\u4f5c\u308a\u65b9\u304c\u8f09\u3063\u3066\u3044\u308b\u624b\u9806\u66f8\u3002\n\u30b9\u30d5\u30a3\u30a2\u751f\u6210\u3067\u300c\u7cbe\u970a\u5263\u30c6\u30a3\u30a2\u30c3\u30c8\u300d\u304c\u4f5c\u308c\u308b\u3088\u3046\u306b\u306a\u308b\u3002",
        "P_COMMENT_GETTABLE": ""
    },
    {
        "P_IMPORTANT_ITEM_ID": "30025",
        "P_EXPLAIN_SHORT": "\u300c\u7cbe\u970a\u5b9d\u5263\u30c0\u30a4\u30ca\u300d\u306e\u4f5c\u308a\u65b9\u304c\u8f09\u3063\u3066\u3044\u308b\u624b\u9806\u66f8",
        "P_EXTRA_TEXT": "\u300c\u7cbe\u970a\u5b9d\u5263\u30c0\u30a4\u30ca\u300d\u306e\u4f5c\u308a\u65b9\u304c\u8f09\u3063\u3066\u3044\u308b\u624b\u9806\u66f8\u3002\n\u30b9\u30d5\u30a3\u30a2\u751f\u6210\u3067\u300c\u7cbe\u970a\u5b9d\u5263\u30c0\u30a4\u30ca\u300d\u304c\u4f5c\u308c\u308b\u3088\u3046\u306b\u306a\u308b\u3002",
        "P_COMMENT_GETTABLE": ""
    },
    {
        "P_IMPORTANT_ITEM_ID": "30026",
        "P_EXPLAIN_SHORT": "\u300c\u60a0\u6c37\u306e\u7363\u5b88\u300d\u306e\u4f5c\u308a\u65b9\u304c\u8f09\u3063\u3066\u3044\u308b\u624b\u9806\u66f8",
        "P_EXTRA_TEXT": "\u300c\u60a0\u6c37\u306e\u7363\u5b88\u300d\u306e\u4f5c\u308a\u65b9\u304c\u8f09\u3063\u3066\u3044\u308b\u624b\u9806\u66f8\u3002\n\u30b9\u30d5\u30a3\u30a2\u751f\u6210\u3067\u300c\u60a0\u6c37\u306e\u7363\u5b88\u300d\u304c\u4f5c\u308c\u308b\u3088\u3046\u306b\u306a\u308b\u3002",
        "P_COMMENT_GETTABLE": ""
    },
    {
        "P_IMPORTANT_ITEM_ID": "30027",
        "P_EXPLAIN_SHORT": "\u300c\u30e9\u30a4\u30cd\u30eb\u306e\u9ed2\u8276\u7b26\u300d\u306e\u4f5c\u308a\u65b9\u304c\u8f09\u3063\u3066\u3044\u308b\u624b\u9806\u66f8",
        "P_EXTRA_TEXT": "\u300c\u30e9\u30a4\u30cd\u30eb\u306e\u9ed2\u8276\u7b26\u300d\u306e\u4f5c\u308a\u65b9\u304c\u8f09\u3063\u3066\u3044\u308b\u624b\u9806\u66f8\u3002\n\u30b9\u30d5\u30a3\u30a2\u751f\u6210\u3067\u300c\u30e9\u30a4\u30cd\u30eb\u306e\u9ed2\u8276\u7b26\u300d\u304c\u4f5c\u308c\u308b\u3088\u3046\u306b\u306a\u308b\u3002",
        "P_COMMENT_GETTABLE": ""
    },
    {
        "P_IMPORTANT_ITEM_ID": "30028",
        "P_EXPLAIN_SHORT": "\u300c\u8b77\u308a\u306e\u8fb0\u7802\u7b26\u300d\u306e\u4f5c\u308a\u65b9\u304c\u8f09\u3063\u3066\u3044\u308b\u624b\u9806\u66f8",
        "P_EXTRA_TEXT": "\u300c\u8b77\u308a\u306e\u8fb0\u7802\u7b26\u300d\u306e\u4f5c\u308a\u65b9\u304c\u8f09\u3063\u3066\u3044\u308b\u624b\u9806\u66f8\u3002\n\u30b9\u30d5\u30a3\u30a2\u751f\u6210\u3067\u300c\u8b77\u308a\u306e\u8fb0\u7802\u7b26\u300d\u304c\u4f5c\u308c\u308b\u3088\u3046\u306b\u306a\u308b\u3002",
        "P_COMMENT_GETTABLE": ""
    },
    {
        "P_IMPORTANT_ITEM_ID": "30029",
        "P_EXPLAIN_SHORT": "\u300c\u5b64\u72fc\u306e\u9b42\u306e\u69cd\u300d\u306e\u4f5c\u308a\u65b9\u304c\u8f09\u3063\u3066\u3044\u308b\u624b\u9806\u66f8",
        "P_EXTRA_TEXT": "\u300c\u5b64\u72fc\u306e\u9b42\u306e\u69cd\u300d\u306e\u4f5c\u308a\u65b9\u304c\u8f09\u3063\u3066\u3044\u308b\u624b\u9806\u66f8\u3002\n\u30b9\u30d5\u30a3\u30a2\u751f\u6210\u3067\u300c\u5b64\u72fc\u306e\u9b42\u306e\u69cd\u300d\u304c\u4f5c\u308c\u308b\u3088\u3046\u306b\u306a\u308b\u3002",
        "P_COMMENT_GETTABLE": ""
    },
    {
        "P_IMPORTANT_ITEM_ID": "30030",
        "P_EXPLAIN_SHORT": "\u300c\u8778\u725b\u76fe\u30ab\u30e9\u30b3\u30eb\u300d\u306e\u4f5c\u308a\u65b9\u304c\u8f09\u3063\u3066\u3044\u308b\u624b\u9806\u66f8",
        "P_EXTRA_TEXT": "\u300c\u8778\u725b\u76fe\u30ab\u30e9\u30b3\u30eb\u300d\u306e\u4f5c\u308a\u65b9\u304c\u8f09\u3063\u3066\u3044\u308b\u624b\u9806\u66f8\u3002\n\u30b9\u30d5\u30a3\u30a2\u751f\u6210\u3067\u300c\u8778\u725b\u76fe\u30ab\u30e9\u30b3\u30eb\u300d\u304c\u4f5c\u308c\u308b\u3088\u3046\u306b\u306a\u308b\u3002",
        "P_COMMENT_GETTABLE": ""
    },
    {
        "P_IMPORTANT_ITEM_ID": "30031",
        "P_EXPLAIN_SHORT": "\u300c\u5b9d\u5263\u300e\u7d62\u721b\u300f\u300d\u306e\u4f5c\u308a\u65b9\u304c\u8f09\u3063\u3066\u3044\u308b\u624b\u9806\u66f8",
        "P_EXTRA_TEXT": "\u300c\u5b9d\u5263\u300e\u7d62\u721b\u300f\u300d\u306e\u4f5c\u308a\u65b9\u304c\u8f09\u3063\u3066\u3044\u308b\u624b\u9806\u66f8\u3002\n\u30b9\u30d5\u30a3\u30a2\u751f\u6210\u3067\u300c\u5b9d\u5263\u300e\u7d62\u721b\u300f\u300d\u304c\u4f5c\u308c\u308b\u3088\u3046\u306b\u306a\u308b\u3002",
        "P_COMMENT_GETTABLE": ""
    },
    {
        "P_IMPORTANT_ITEM_ID": "30032",
        "P_EXPLAIN_SHORT": "\u300c\u65fa\u9b42\u5200\u300e\u6975\u300f\u300d\u306e\u4f5c\u308a\u65b9\u304c\u8f09\u3063\u3066\u3044\u308b\u624b\u9806\u66f8",
        "P_EXTRA_TEXT": "\u300c\u65fa\u9b42\u5200\u300e\u6975\u300f\u300d\u306e\u4f5c\u308a\u65b9\u304c\u8f09\u3063\u3066\u3044\u308b\u624b\u9806\u66f8\u3002\n\u30b9\u30d5\u30a3\u30a2\u751f\u6210\u3067\u300c\u65fa\u9b42\u5200\u300e\u6975\u300f\u300d\u304c\u4f5c\u308c\u308b\u3088\u3046\u306b\u306a\u308b\u3002",
        "P_COMMENT_GETTABLE": ""
    },
    {
        "P_IMPORTANT_ITEM_ID": "30033",
        "P_EXPLAIN_SHORT": "\u300c\u932c\u9283\u30e9\u30f4\u30a3\u30fc\u30c1\u300d\u306e\u4f5c\u308a\u65b9\u304c\u8f09\u3063\u3066\u3044\u308b\u624b\u9806\u66f8",
        "P_EXTRA_TEXT": "\u300c\u932c\u9283\u30e9\u30f4\u30a3\u30fc\u30c1\u300d\u306e\u4f5c\u308a\u65b9\u304c\u8f09\u3063\u3066\u3044\u308b\u624b\u9806\u66f8\u3002\n\u30b9\u30d5\u30a3\u30a2\u751f\u6210\u3067\u300c\u932c\u9283\u30e9\u30f4\u30a3\u30fc\u30c1\u300d\u304c\u4f5c\u308c\u308b\u3088\u3046\u306b\u306a\u308b\u3002",
        "P_COMMENT_GETTABLE": ""
    },
    {
        "P_IMPORTANT_ITEM_ID": "30034",
        "P_EXPLAIN_SHORT": "\u300c\u8987\u65a7\u30de\u30ea\u30e5\u30c7\u30d5\u30b9\u300d\u306e\u4f5c\u308a\u65b9\u304c\u8f09\u3063\u3066\u3044\u308b\u624b\u9806\u66f8",
        "P_EXTRA_TEXT": "\u300c\u8987\u65a7\u30de\u30ea\u30e5\u30c7\u30d5\u30b9\u300d\u306e\u4f5c\u308a\u65b9\u304c\u8f09\u3063\u3066\u3044\u308b\u624b\u9806\u66f8\u3002\n\u30b9\u30d5\u30a3\u30a2\u751f\u6210\u3067\u300c\u8987\u65a7\u30de\u30ea\u30e5\u30c7\u30d5\u30b9\u300d\u304c\u4f5c\u308c\u308b\u3088\u3046\u306b\u306a\u308b\u3002",
        "P_COMMENT_GETTABLE": ""
    },
    {
        "P_IMPORTANT_ITEM_ID": "30035",
        "P_EXPLAIN_SHORT": "\u300c\u9b54\u795e\u65a7\u30ed\u30fc\u30c9\u30fb\u30de\u30b0\u30ec\u30b9\u300d\u306e\u4f5c\u308a\u65b9\u304c\u8f09\u3063\u3066\u3044\u308b\u624b\u9806\u66f8",
        "P_EXTRA_TEXT": "\u300c\u9b54\u795e\u65a7\u30ed\u30fc\u30c9\u30fb\u30de\u30b0\u30ec\u30b9\u300d\u306e\u4f5c\u308a\u65b9\u304c\u8f09\u3063\u3066\u3044\u308b\u624b\u9806\u66f8\u3002\n\u30b9\u30d5\u30a3\u30a2\u751f\u6210\u3067\u300c\u9b54\u795e\u65a7\u30ed\u30fc\u30c9\u30fb\u30de\u30b0\u30ec\u30b9\u300d\u304c\u4f5c\u308c\u308b\u3088\u3046\u306b\u306a\u308b\u3002",
        "P_COMMENT_GETTABLE": ""
    },
    {
        "P_IMPORTANT_ITEM_ID": "30036",
        "P_EXPLAIN_SHORT": "\u300c\u72c2\u6c17\u306e\u51f6\u5203\u300d\u306e\u4f5c\u308a\u65b9\u304c\u8f09\u3063\u3066\u3044\u308b\u624b\u9806\u66f8",
        "P_EXTRA_TEXT": "\u300c\u72c2\u6c17\u306e\u51f6\u5203\u300d\u306e\u4f5c\u308a\u65b9\u304c\u8f09\u3063\u3066\u3044\u308b\u624b\u9806\u66f8\u3002\n\u30b9\u30d5\u30a3\u30a2\u751f\u6210\u3067\u300c\u72c2\u6c17\u306e\u51f6\u5203\u300d\u304c\u4f5c\u308c\u308b\u3088\u3046\u306b\u306a\u308b\u3002",
        "P_COMMENT_GETTABLE": ""
    },
    {
        "P_IMPORTANT_ITEM_ID": "30037",
        "P_EXPLAIN_SHORT": "\u300c\u9b54\u5203\u306e\u30b1\u30eb\u30b7\u30e5\u300d\u306e\u4f5c\u308a\u65b9\u304c\u8f09\u3063\u3066\u3044\u308b\u624b\u9806\u66f8",
        "P_EXTRA_TEXT": "\u300c\u9b54\u5203\u306e\u30b1\u30eb\u30b7\u30e5\u300d\u306e\u4f5c\u308a\u65b9\u304c\u8f09\u3063\u3066\u3044\u308b\u624b\u9806\u66f8\u3002\n\u30b9\u30d5\u30a3\u30a2\u751f\u6210\u3067\u300c\u9b54\u5203\u306e\u30b1\u30eb\u30b7\u30e5\u300d\u304c\u4f5c\u308c\u308b\u3088\u3046\u306b\u306a\u308b\u3002",
        "P_COMMENT_GETTABLE": ""
    },
    {
        "P_IMPORTANT_ITEM_ID": "30038",
        "P_EXPLAIN_SHORT": "\u300c\u7344\u5203\u30dc\u30a6\u30b8\u30b6\u30d5\u30a1\u300d\u306e\u4f5c\u308a\u65b9\u304c\u8f09\u3063\u3066\u3044\u308b\u624b\u9806\u66f8",
        "P_EXTRA_TEXT": "\u300c\u7344\u5203\u30dc\u30a6\u30b8\u30b6\u30d5\u30a1\u300d\u306e\u4f5c\u308a\u65b9\u304c\u8f09\u3063\u3066\u3044\u308b\u624b\u9806\u66f8\u3002\n\u30b9\u30d5\u30a3\u30a2\u751f\u6210\u3067\u300c\u7344\u5203\u30dc\u30a6\u30b8\u30b6\u30d5\u30a1\u300d\u304c\u4f5c\u308c\u308b\u3088\u3046\u306b\u306a\u308b\u3002",
        "P_COMMENT_GETTABLE": ""
    },
    {
        "P_IMPORTANT_ITEM_ID": "30039",
        "P_EXPLAIN_SHORT": "\u300c\u738b\u5149\u306e\u82b1\u300d\u306e\u4f5c\u308a\u65b9\u304c\u8f09\u3063\u3066\u3044\u308b\u624b\u9806\u66f8",
        "P_EXTRA_TEXT": "\u300c\u738b\u5149\u306e\u82b1\u300d\u306e\u4f5c\u308a\u65b9\u304c\u8f09\u3063\u3066\u3044\u308b\u624b\u9806\u66f8\u3002\n\u30b9\u30d5\u30a3\u30a2\u751f\u6210\u3067\u300c\u738b\u5149\u306e\u82b1\u300d\u304c\u4f5c\u308c\u308b\u3088\u3046\u306b\u306a\u308b\u3002",
        "P_COMMENT_GETTABLE": ""
    },
    {
        "P_IMPORTANT_ITEM_ID": "30040",
        "P_EXPLAIN_SHORT": "\u300c\u795e\u5854\u306e\u82b1\u300d\u306e\u4f5c\u308a\u65b9\u304c\u8f09\u3063\u3066\u3044\u308b\u624b\u9806\u66f8",
        "P_EXTRA_TEXT": "\u300c\u795e\u5854\u306e\u82b1\u300d\u306e\u4f5c\u308a\u65b9\u304c\u8f09\u3063\u3066\u3044\u308b\u624b\u9806\u66f8\u3002\n\u30b9\u30d5\u30a3\u30a2\u751f\u6210\u3067\u300c\u795e\u5854\u306e\u82b1\u300d\u304c\u4f5c\u308c\u308b\u3088\u3046\u306b\u306a\u308b\u3002",
        "P_COMMENT_GETTABLE": ""
    },
    {
        "P_IMPORTANT_ITEM_ID": "30041",
        "P_EXPLAIN_SHORT": "\u300c\u795e\u81e3\u306e\u82b1\u300d\u306e\u4f5c\u308a\u65b9\u304c\u8f09\u3063\u3066\u3044\u308b\u624b\u9806\u66f8",
        "P_EXTRA_TEXT": "\u300c\u795e\u81e3\u306e\u82b1\u300d\u306e\u4f5c\u308a\u65b9\u304c\u8f09\u3063\u3066\u3044\u308b\u624b\u9806\u66f8\u3002\n\u30b9\u30d5\u30a3\u30a2\u751f\u6210\u3067\u300c\u795e\u81e3\u306e\u82b1\u300d\u304c\u4f5c\u308c\u308b\u3088\u3046\u306b\u306a\u308b\u3002",
        "P_COMMENT_GETTABLE": ""
    },
    {
        "P_IMPORTANT_ITEM_ID": "30042",
        "P_EXPLAIN_SHORT": "\u300c\u6280\u5b9d\u30d0\u30c8\u30eb\u30d6\u30fc\u30b9\u30bf\u30fc\u300d\u306e\u4f5c\u308a\u65b9\u304c\u8f09\u3063\u3066\u3044\u308b\u624b\u9806\u66f8",
        "P_EXTRA_TEXT": "\u300c\u6280\u5b9d\u30d0\u30c8\u30eb\u30d6\u30fc\u30b9\u30bf\u30fc\u300d\u306e\u4f5c\u308a\u65b9\u304c\u8f09\u3063\u3066\u3044\u308b\u624b\u9806\u66f8\u3002\n\u30b9\u30d5\u30a3\u30a2\u751f\u6210\u3067\u300c\u6280\u5b9d\u30d0\u30c8\u30eb\u30d6\u30fc\u30b9\u30bf\u30fc\u300d\u304c\u4f5c\u308c\u308b\u3088\u3046\u306b\u306a\u308b\u3002",
        "P_COMMENT_GETTABLE": ""
    },
    {
        "P_IMPORTANT_ITEM_ID": "30043",
        "P_EXPLAIN_SHORT": "\u300c\u7652\u5b9d\u30cf\u30fc\u30c8\u30d6\u30fc\u30b9\u30bf\u30fc\u300d\u306e\u4f5c\u308a\u65b9\u304c\u8f09\u3063\u3066\u3044\u308b\u624b\u9806\u66f8",
        "P_EXTRA_TEXT": "\u300c\u7652\u5b9d\u30cf\u30fc\u30c8\u30d6\u30fc\u30b9\u30bf\u30fc\u300d\u306e\u4f5c\u308a\u65b9\u304c\u8f09\u3063\u3066\u3044\u308b\u624b\u9806\u66f8\u3002\n\u30b9\u30d5\u30a3\u30a2\u751f\u6210\u3067\u300c\u7652\u5b9d\u30cf\u30fc\u30c8\u30d6\u30fc\u30b9\u30bf\u30fc\u300d\u304c\u4f5c\u308c\u308b\u3088\u3046\u306b\u306a\u308b\u3002",
        "P_COMMENT_GETTABLE": ""
    },
    {
        "P_IMPORTANT_ITEM_ID": "30044",
        "P_EXPLAIN_SHORT": "\u300c\u8ce2\u5b9d\u30d0\u30c8\u30eb\u30d6\u30fc\u30b9\u30bf\u30fc\u300d\u306e\u4f5c\u308a\u65b9\u304c\u8f09\u3063\u3066\u3044\u308b\u624b\u9806\u66f8",
        "P_EXTRA_TEXT": "\u300c\u8ce2\u5b9d\u30d0\u30c8\u30eb\u30d6\u30fc\u30b9\u30bf\u30fc\u300d\u306e\u4f5c\u308a\u65b9\u304c\u8f09\u3063\u3066\u3044\u308b\u624b\u9806\u66f8\u3002\n\u30b9\u30d5\u30a3\u30a2\u751f\u6210\u3067\u300c\u8ce2\u5b9d\u30d0\u30c8\u30eb\u30d6\u30fc\u30b9\u30bf\u30fc\u300d\u304c\u4f5c\u308c\u308b\u3088\u3046\u306b\u306a\u308b\u3002",
        "P_COMMENT_GETTABLE": ""
    },
    {
        "P_IMPORTANT_ITEM_ID": "30045",
        "P_EXPLAIN_SHORT": "\u300c\u30d5\u30a7\u30cb\u30c3\u30af\u30b9\u306e\u773c\u300d\u306e\u4f5c\u308a\u65b9\u304c\u8f09\u3063\u3066\u3044\u308b\u624b\u9806\u66f8",
        "P_EXTRA_TEXT": "\u300c\u30d5\u30a7\u30cb\u30c3\u30af\u30b9\u306e\u773c\u300d\u306e\u4f5c\u308a\u65b9\u304c\u8f09\u3063\u3066\u3044\u308b\u624b\u9806\u66f8\u3002\n\u30b9\u30d5\u30a3\u30a2\u751f\u6210\u3067\u300c\u30d5\u30a7\u30cb\u30c3\u30af\u30b9\u306e\u773c\u300d\u304c\u4f5c\u308c\u308b\u3088\u3046\u306b\u306a\u308b\u3002",
        "P_COMMENT_GETTABLE": ""
    },
    {
        "P_IMPORTANT_ITEM_ID": "30046",
        "P_EXPLAIN_SHORT": "\u300c\u30d5\u30a7\u30eb\u30b6\u30fc\u306e\u773c\u300d\u306e\u4f5c\u308a\u65b9\u304c\u8f09\u3063\u3066\u3044\u308b\u624b\u9806\u66f8",
        "P_EXTRA_TEXT": "\u300c\u30d5\u30a7\u30eb\u30b6\u30fc\u306e\u773c\u300d\u306e\u4f5c\u308a\u65b9\u304c\u8f09\u3063\u3066\u3044\u308b\u624b\u9806\u66f8\u3002\n\u30b9\u30d5\u30a3\u30a2\u751f\u6210\u3067\u300c\u30d5\u30a7\u30eb\u30b6\u30fc\u306e\u773c\u300d\u304c\u4f5c\u308c\u308b\u3088\u3046\u306b\u306a\u308b\u3002",
        "P_COMMENT_GETTABLE": ""
    },
    {
        "P_IMPORTANT_ITEM_ID": "30047",
        "P_EXPLAIN_SHORT": "\u300c\u95c7\u8863\u30c0\u30fc\u30af\u30a8\u30c7\u30e5\u30a2\u300d\u306e\u4f5c\u308a\u65b9\u304c\u8f09\u3063\u3066\u3044\u308b\u624b\u9806\u66f8",
        "P_EXTRA_TEXT": "\u300c\u95c7\u8863\u30c0\u30fc\u30af\u30a8\u30c7\u30e5\u30a2\u300d\u306e\u4f5c\u308a\u65b9\u304c\u8f09\u3063\u3066\u3044\u308b\u624b\u9806\u66f8\u3002\n\u30b9\u30d5\u30a3\u30a2\u751f\u6210\u3067\u300c\u95c7\u8863\u30c0\u30fc\u30af\u30a8\u30c7\u30e5\u30a2\u300d\u304c\u4f5c\u308c\u308b\u3088\u3046\u306b\u306a\u308b\u3002",
        "P_COMMENT_GETTABLE": ""
    },
    {
        "P_IMPORTANT_ITEM_ID": "30048",
        "P_EXPLAIN_SHORT": "\u300c\u9b54\u77f3\u306e\u6b20\u7247\u300d\u306e\u4f5c\u308a\u65b9\u304c\u8f09\u3063\u3066\u3044\u308b\u624b\u9806\u66f8",
        "P_EXTRA_TEXT": "\u300c\u9b54\u77f3\u306e\u6b20\u7247\u300d\u306e\u4f5c\u308a\u65b9\u304c\u8f09\u3063\u3066\u3044\u308b\u624b\u9806\u66f8\u3002\n\u30b9\u30d5\u30a3\u30a2\u751f\u6210\u3067\u300c\u9b54\u77f3\u306e\u6b20\u7247\u300d\u304c\u4f5c\u308c\u308b\u3088\u3046\u306b\u306a\u308b\u3002",
        "P_COMMENT_GETTABLE": ""
    },
    {
        "P_IMPORTANT_ITEM_ID": "30049",
        "P_EXPLAIN_SHORT": "\u300c\u9b54\u6676\u77f3\u306e\u6b20\u7247\u300d\u306e\u4f5c\u308a\u65b9\u304c\u8f09\u3063\u3066\u3044\u308b\u624b\u9806\u66f8",
        "P_EXTRA_TEXT": "\u300c\u9b54\u6676\u77f3\u306e\u6b20\u7247\u300d\u306e\u4f5c\u308a\u65b9\u304c\u8f09\u3063\u3066\u3044\u308b\u624b\u9806\u66f8\u3002\n\u30b9\u30d5\u30a3\u30a2\u751f\u6210\u3067\u300c\u9b54\u6676\u77f3\u306e\u6b20\u7247\u300d\u304c\u4f5c\u308c\u308b\u3088\u3046\u306b\u306a\u308b\u3002",
        "P_COMMENT_GETTABLE": ""
    },
    {
        "P_IMPORTANT_ITEM_ID": "30050",
        "P_EXPLAIN_SHORT": "\u300c\u30df\u30ed\u30af\u306e\u73e0\u300d\u306e\u4f5c\u308a\u65b9\u304c\u8f09\u3063\u3066\u3044\u308b\u624b\u9806\u66f8",
        "P_EXTRA_TEXT": "\u300c\u30df\u30ed\u30af\u306e\u73e0\u300d\u306e\u4f5c\u308a\u65b9\u304c\u8f09\u3063\u3066\u3044\u308b\u624b\u9806\u66f8\u3002\n\u30b9\u30d5\u30a3\u30a2\u751f\u6210\u3067\u300c\u30df\u30ed\u30af\u306e\u73e0\u300d\u304c\u4f5c\u308c\u308b\u3088\u3046\u306b\u306a\u308b\u3002",
        "P_COMMENT_GETTABLE": ""
    },
    {
        "P_IMPORTANT_ITEM_ID": "30051",
        "P_EXPLAIN_SHORT": "\u300c\u30b0\u30f3\u30ca\u30de\u30c3\u30bf\u306e\u73e0\u300d\u306e\u4f5c\u308a\u65b9\u304c\u8f09\u3063\u3066\u3044\u308b\u624b\u9806\u66f8",
        "P_EXTRA_TEXT": "\u300c\u30b0\u30f3\u30ca\u30de\u30c3\u30bf\u306e\u73e0\u300d\u306e\u4f5c\u308a\u65b9\u304c\u8f09\u3063\u3066\u3044\u308b\u624b\u9806\u66f8\u3002\n\u30b9\u30d5\u30a3\u30a2\u751f\u6210\u3067\u300c\u30b0\u30f3\u30ca\u30de\u30c3\u30bf\u306e\u73e0\u300d\u304c\u4f5c\u308c\u308b\u3088\u3046\u306b\u306a\u308b\u3002",
        "P_COMMENT_GETTABLE": ""
    },
    {
        "P_IMPORTANT_ITEM_ID": "30052",
        "P_EXPLAIN_SHORT": "\u300c\u596e\u96c4\u9283\u30c9\u30ec\u30f3\u30c6\u30a3\u30a2\u300d\u306e\u4f5c\u308a\u65b9\u304c\u8f09\u3063\u3066\u3044\u308b\u624b\u9806\u66f8",
        "P_EXTRA_TEXT": "\u300c\u596e\u96c4\u9283\u30c9\u30ec\u30f3\u30c6\u30a3\u30a2\u300d\u306e\u4f5c\u308a\u65b9\u304c\u8f09\u3063\u3066\u3044\u308b\u624b\u9806\u66f8\u3002\n\u30b9\u30d5\u30a3\u30a2\u751f\u6210\u3067\u300c\u596e\u96c4\u9283\u30c9\u30ec\u30f3\u30c6\u30a3\u30a2\u300d\u304c\u4f5c\u308c\u308b\u3088\u3046\u306b\u306a\u308b\u3002",
        "P_COMMENT_GETTABLE": ""
    },
    {
        "P_IMPORTANT_ITEM_ID": "30053",
        "P_EXPLAIN_SHORT": "\u300c\u707d\u5efb\u306e\u9b54\u9285\u8ca8\u300d\u306e\u4f5c\u308a\u65b9\u304c\u8f09\u3063\u3066\u3044\u308b\u624b\u9806\u66f8",
        "P_EXTRA_TEXT": "\u300c\u707d\u5efb\u306e\u9b54\u9285\u8ca8\u300d\u306e\u4f5c\u308a\u65b9\u304c\u8f09\u3063\u3066\u3044\u308b\u624b\u9806\u66f8\u3002\n\u30b9\u30d5\u30a3\u30a2\u751f\u6210\u3067\u300c\u707d\u5efb\u306e\u9b54\u9285\u8ca8\u300d\u304c\u4f5c\u308c\u308b\u3088\u3046\u306b\u306a\u308b\u3002",
        "P_COMMENT_GETTABLE": ""
    },
    {
        "P_IMPORTANT_ITEM_ID": "30054",
        "P_EXPLAIN_SHORT": "\u300c\u546a\u6bd2\u5f13\u30d0\u30fc\u30f4\u30a9\u300d\u306e\u4f5c\u308a\u65b9\u304c\u8f09\u3063\u3066\u3044\u308b\u624b\u9806\u66f8",
        "P_EXTRA_TEXT": "\u300c\u546a\u6bd2\u5f13\u30d0\u30fc\u30f4\u30a9\u300d\u306e\u4f5c\u308a\u65b9\u304c\u8f09\u3063\u3066\u3044\u308b\u624b\u9806\u66f8\u3002\n\u30b9\u30d5\u30a3\u30a2\u751f\u6210\u3067\u300c\u546a\u6bd2\u5f13\u30d0\u30fc\u30f4\u30a9\u300d\u304c\u4f5c\u308c\u308b\u3088\u3046\u306b\u306a\u308b\u3002",
        "P_COMMENT_GETTABLE": ""
    },
    {
        "P_IMPORTANT_ITEM_ID": "30055",
        "P_EXPLAIN_SHORT": "\u300c\u9b3c\u9aa8\u68cd\u30c7\u30aa\u30c9\u30a5\u300d\u306e\u4f5c\u308a\u65b9\u304c\u8f09\u3063\u3066\u3044\u308b\u624b\u9806\u66f8",
        "P_EXTRA_TEXT": "\u300c\u9b3c\u9aa8\u68cd\u30c7\u30aa\u30c9\u30a5\u300d\u306e\u4f5c\u308a\u65b9\u304c\u8f09\u3063\u3066\u3044\u308b\u624b\u9806\u66f8\u3002\n\u30b9\u30d5\u30a3\u30a2\u751f\u6210\u3067\u300c\u9b3c\u9aa8\u68cd\u30c7\u30aa\u30c9\u30a5\u300d\u304c\u4f5c\u308c\u308b\u3088\u3046\u306b\u306a\u308b\u3002",
        "P_COMMENT_GETTABLE": ""
    },
    {
        "P_IMPORTANT_ITEM_ID": "30056",
        "P_EXPLAIN_SHORT": "\u300c\u75ab\u9000\u69cd\u30d9\u30ab\u30c9\u30ec\u300d\u306e\u4f5c\u308a\u65b9\u304c\u8f09\u3063\u3066\u3044\u308b\u624b\u9806\u66f8",
        "P_EXTRA_TEXT": "\u300c\u75ab\u9000\u69cd\u30d9\u30ab\u30c9\u30ec\u300d\u306e\u4f5c\u308a\u65b9\u304c\u8f09\u3063\u3066\u3044\u308b\u624b\u9806\u66f8\u3002\n\u30b9\u30d5\u30a3\u30a2\u751f\u6210\u3067\u300c\u75ab\u9000\u69cd\u30d9\u30ab\u30c9\u30ec\u300d\u304c\u4f5c\u308c\u308b\u3088\u3046\u306b\u306a\u308b\u3002",
        "P_COMMENT_GETTABLE": ""
    },
    {
        "P_IMPORTANT_ITEM_ID": "30057",
        "P_EXPLAIN_SHORT": "\u300c\u75c5\u9b54\u5634\u30d3\u30e8\u30b0\u30c9\u300d\u306e\u4f5c\u308a\u65b9\u304c\u8f09\u3063\u3066\u3044\u308b\u624b\u9806\u66f8",
        "P_EXTRA_TEXT": "\u300c\u75c5\u9b54\u5634\u30d3\u30e8\u30b0\u30c9\u300d\u306e\u4f5c\u308a\u65b9\u304c\u8f09\u3063\u3066\u3044\u308b\u624b\u9806\u66f8\u3002\n\u30b9\u30d5\u30a3\u30a2\u751f\u6210\u3067\u300c\u75c5\u9b54\u5634\u30d3\u30e8\u30b0\u30c9\u300d\u304c\u4f5c\u308c\u308b\u3088\u3046\u306b\u306a\u308b\u3002",
        "P_COMMENT_GETTABLE": ""
    },
    {
        "P_IMPORTANT_ITEM_ID": "30058",
        "P_EXPLAIN_SHORT": "\u300c\u5e7b\u932f\u65a7\u30ae\u30e8\u30c3\u30d7\u300d\u306e\u4f5c\u308a\u65b9\u304c\u8f09\u3063\u3066\u3044\u308b\u624b\u9806\u66f8",
        "P_EXTRA_TEXT": "\u300c\u5e7b\u932f\u65a7\u30ae\u30e8\u30c3\u30d7\u300d\u306e\u4f5c\u308a\u65b9\u304c\u8f09\u3063\u3066\u3044\u308b\u624b\u9806\u66f8\u3002\n\u30b9\u30d5\u30a3\u30a2\u751f\u6210\u3067\u300c\u5e7b\u932f\u65a7\u30ae\u30e8\u30c3\u30d7\u300d\u304c\u4f5c\u308c\u308b\u3088\u3046\u306b\u306a\u308b\u3002",
        "P_COMMENT_GETTABLE": ""
    },
    {
        "P_IMPORTANT_ITEM_ID": "30059",
        "P_EXPLAIN_SHORT": "\u300c\u5929\u53d9\u306e\u6307\u8f2a\u300d\u306e\u4f5c\u308a\u65b9\u304c\u8f09\u3063\u3066\u3044\u308b\u624b\u9806\u66f8",
        "P_EXTRA_TEXT": "\u300c\u5929\u53d9\u306e\u6307\u8f2a\u300d\u306e\u4f5c\u308a\u65b9\u304c\u8f09\u3063\u3066\u3044\u308b\u624b\u9806\u66f8\u3002\n\u30b9\u30d5\u30a3\u30a2\u751f\u6210\u3067\u300c\u5929\u53d9\u306e\u6307\u8f2a\u300d\u304c\u4f5c\u308c\u308b\u3088\u3046\u306b\u306a\u308b\u3002",
        "P_COMMENT_GETTABLE": ""
    },
    {
        "P_IMPORTANT_ITEM_ID": "30060",
        "P_EXPLAIN_SHORT": "\u300c\u5730\u52ab\u306e\u6307\u8f2a\u300d\u306e\u4f5c\u308a\u65b9\u304c\u8f09\u3063\u3066\u3044\u308b\u624b\u9806\u66f8",
        "P_EXTRA_TEXT": "\u300c\u5730\u52ab\u306e\u6307\u8f2a\u300d\u306e\u4f5c\u308a\u65b9\u304c\u8f09\u3063\u3066\u3044\u308b\u624b\u9806\u66f8\u3002\n\u30b9\u30d5\u30a3\u30a2\u751f\u6210\u3067\u300c\u5730\u52ab\u306e\u6307\u8f2a\u300d\u304c\u4f5c\u308c\u308b\u3088\u3046\u306b\u306a\u308b\u3002",
        "P_COMMENT_GETTABLE": ""
    },
    {
        "P_IMPORTANT_ITEM_ID": "30061",
        "P_EXPLAIN_SHORT": "\u300c\u4eba\u667a\u306e\u6307\u8f2a\u300d\u306e\u4f5c\u308a\u65b9\u304c\u8f09\u3063\u3066\u3044\u308b\u624b\u9806\u66f8",
        "P_EXTRA_TEXT": "\u300c\u4eba\u667a\u306e\u6307\u8f2a\u300d\u306e\u4f5c\u308a\u65b9\u304c\u8f09\u3063\u3066\u3044\u308b\u624b\u9806\u66f8\u3002\n\u30b9\u30d5\u30a3\u30a2\u751f\u6210\u3067\u300c\u4eba\u667a\u306e\u6307\u8f2a\u300d\u304c\u4f5c\u308c\u308b\u3088\u3046\u306b\u306a\u308b\u3002",
        "P_COMMENT_GETTABLE": ""
    },
    {
        "P_IMPORTANT_ITEM_ID": "30062",
        "P_EXPLAIN_SHORT": "\u57fa\u672c\u30b9\u30d5\u30a3\u30a2\u306e\u4f5c\u6210\u65b9\u6cd5\u304c\u66f8\u304b\u308c\u305f\u30e1\u30e2",
        "P_EXTRA_TEXT": "\u57fa\u672c\u30b9\u30d5\u30a3\u30a2\u306e\u4f5c\u6210\u65b9\u6cd5\u304c\u66f8\u304b\u308c\u305f\u30e1\u30e2\u3002\u643a\u5e2f\u53ec\u559a\u6a5f\u3068\u4e00\u7dd2\u306b\u30eb\u30b8\u30fc\u30ca\u304b\u3089\u3082\u3089\u3063\u305f\u3002",
        "P_COMMENT_GETTABLE": ""
    },
    {
        "P_IMPORTANT_ITEM_ID": "30063",
        "P_EXPLAIN_SHORT": "\u300c\u9280\u306e\u30d0\u30f3\u30b0\u30eb\u300d\u306e\u4f5c\u308a\u65b9\u304c\u8f09\u3063\u3066\u3044\u308b\u624b\u9806\u66f8",
        "P_EXTRA_TEXT": "\u300c\u9280\u306e\u30d0\u30f3\u30b0\u30eb\u300d\u306e\u4f5c\u308a\u65b9\u304c\u8f09\u3063\u3066\u3044\u308b\u624b\u9806\u66f8\u3002\n\u30b9\u30d5\u30a3\u30a2\u751f\u6210\u3067\u300c\u9280\u306e\u30d0\u30f3\u30b0\u30eb\u300d\u304c\u4f5c\u308c\u308b\u3088\u3046\u306b\u306a\u308b\u3002",
        "P_COMMENT_GETTABLE": ""
    },
    {
        "P_IMPORTANT_ITEM_ID": "30064",
        "P_EXPLAIN_SHORT": "\u300c\u91d1\u306e\u30d0\u30f3\u30b0\u30eb\u300d\u306e\u4f5c\u308a\u65b9\u304c\u8f09\u3063\u3066\u3044\u308b\u624b\u9806\u66f8",
        "P_EXTRA_TEXT": "\u300c\u91d1\u306e\u30d0\u30f3\u30b0\u30eb\u300d\u306e\u4f5c\u308a\u65b9\u304c\u8f09\u3063\u3066\u3044\u308b\u624b\u9806\u66f8\u3002\n\u30b9\u30d5\u30a3\u30a2\u751f\u6210\u3067\u300c\u91d1\u306e\u30d0\u30f3\u30b0\u30eb\u300d\u304c\u4f5c\u308c\u308b\u3088\u3046\u306b\u306a\u308b\u3002",
        "P_COMMENT_GETTABLE": ""
    },
    {
        "P_IMPORTANT_ITEM_ID": "30065",
        "P_EXPLAIN_SHORT": "\u300c\u661f\u5263\u30a4\u30aa\u30e1\u30c6\u30a3\u30b9\u300d\u306e\u4f5c\u308a\u65b9\u304c\u8f09\u3063\u3066\u3044\u308b\u624b\u9806\u66f8",
        "P_EXTRA_TEXT": "\u300c\u661f\u5263\u30a4\u30aa\u30e1\u30c6\u30a3\u30b9\u300d\u306e\u4f5c\u308a\u65b9\u304c\u8f09\u3063\u3066\u3044\u308b\u624b\u9806\u66f8\u3002\n\u30b9\u30d5\u30a3\u30a2\u751f\u6210\u3067\u300c\u661f\u5263\u30a4\u30aa\u30e1\u30c6\u30a3\u30b9\u300d\u304c\u4f5c\u308c\u308b\u3088\u3046\u306b\u306a\u308b\u3002",
        "P_COMMENT_GETTABLE": ""
    },
    {
        "P_IMPORTANT_ITEM_ID": "30066",
        "P_EXPLAIN_SHORT": "\u300c\u661f\u5263\u30eb\u30d6\u30a2\u30e1\u30c6\u30a3\u30a2\u300d\u306e\u4f5c\u308a\u65b9\u304c\u8f09\u3063\u3066\u3044\u308b\u624b\u9806\u66f8",
        "P_EXTRA_TEXT": "\u300c\u661f\u5263\u30eb\u30d6\u30a2\u30e1\u30c6\u30a3\u30a2\u300d\u306e\u4f5c\u308a\u65b9\u304c\u8f09\u3063\u3066\u3044\u308b\u624b\u9806\u66f8\u3002\n\u30b9\u30d5\u30a3\u30a2\u751f\u6210\u3067\u300c\u661f\u5263\u30eb\u30d6\u30a2\u30e1\u30c6\u30a3\u30a2\u300d\u304c\u4f5c\u308c\u308b\u3088\u3046\u306b\u306a\u308b\u3002",
        "P_COMMENT_GETTABLE": ""
    },
    {
        "P_IMPORTANT_ITEM_ID": "30067",
        "P_EXPLAIN_SHORT": "\u300c\u30a2\u30c9\u30de\u30b7\u30a8\u30eb\u306e\u9583\u7b26\u300d\u306e\u4f5c\u308a\u65b9\u304c\u8f09\u3063\u3066\u3044\u308b\u624b\u9806\u66f8",
        "P_EXTRA_TEXT": "\u300c\u30a2\u30c9\u30de\u30b7\u30a8\u30eb\u306e\u9583\u7b26\u300d\u306e\u4f5c\u308a\u65b9\u304c\u8f09\u3063\u3066\u3044\u308b\u624b\u9806\u66f8\u3002\n\u30b9\u30d5\u30a3\u30a2\u751f\u6210\u3067\u300c\u30a2\u30c9\u30de\u30b7\u30a8\u30eb\u306e\u9583\u7b26\u300d\u304c\u4f5c\u308c\u308b\u3088\u3046\u306b\u306a\u308b\u3002",
        "P_COMMENT_GETTABLE": ""
    },
    {
        "P_IMPORTANT_ITEM_ID": "30068",
        "P_EXPLAIN_SHORT": "\u300c\u970a\u611f\u7b26\u30b0\u30e9\u30c3\u30ab\u30fc\u30cd\u300d\u306e\u4f5c\u308a\u65b9\u304c\u8f09\u3063\u3066\u3044\u308b\u624b\u9806\u66f8",
        "P_EXTRA_TEXT": "\u300c\u970a\u611f\u7b26\u30b0\u30e9\u30c3\u30ab\u30fc\u30cd\u300d\u306e\u4f5c\u308a\u65b9\u304c\u8f09\u3063\u3066\u3044\u308b\u624b\u9806\u66f8\u3002\n\u30b9\u30d5\u30a3\u30a2\u751f\u6210\u3067\u300c\u970a\u611f\u7b26\u30b0\u30e9\u30c3\u30ab\u30fc\u30cd\u300d\u304c\u4f5c\u308c\u308b\u3088\u3046\u306b\u306a\u308b\u3002",
        "P_COMMENT_GETTABLE": ""
    },
    {
        "P_IMPORTANT_ITEM_ID": "30069",
        "P_EXPLAIN_SHORT": "\u300c\u98df\u93a7\u30a2\u30d0\u30c9\u30f3\u30b7\u30fc\u30eb\u300d\u306e\u4f5c\u308a\u65b9\u304c\u8f09\u3063\u3066\u3044\u308b\u624b\u9806\u66f8",
        "P_EXTRA_TEXT": "\u300c\u98df\u93a7\u30a2\u30d0\u30c9\u30f3\u30b7\u30fc\u30eb\u300d\u306e\u4f5c\u308a\u65b9\u304c\u8f09\u3063\u3066\u3044\u308b\u624b\u9806\u66f8\u3002\n\u30b9\u30d5\u30a3\u30a2\u751f\u6210\u3067\u300c\u98df\u93a7\u30a2\u30d0\u30c9\u30f3\u30b7\u30fc\u30eb\u300d\u304c\u4f5c\u308c\u308b\u3088\u3046\u306b\u306a\u308b\u3002",
        "P_COMMENT_GETTABLE": ""
    },
    {
        "P_IMPORTANT_ITEM_ID": "30070",
        "P_EXPLAIN_SHORT": "\u300c\u5438\u93a7\u30b7\u30fc\u30c9\u30b9\u300d\u306e\u4f5c\u308a\u65b9\u304c\u8f09\u3063\u3066\u3044\u308b\u624b\u9806\u66f8",
        "P_EXTRA_TEXT": "\u300c\u5438\u93a7\u30b7\u30fc\u30c9\u30b9\u300d\u306e\u4f5c\u308a\u65b9\u304c\u8f09\u3063\u3066\u3044\u308b\u624b\u9806\u66f8\u3002\n\u30b9\u30d5\u30a3\u30a2\u751f\u6210\u3067\u300c\u5438\u93a7\u30b7\u30fc\u30c9\u30b9\u300d\u304c\u4f5c\u308c\u308b\u3088\u3046\u306b\u306a\u308b\u3002",
        "P_COMMENT_GETTABLE": ""
    },
    {
        "P_IMPORTANT_ITEM_ID": "30071",
        "P_EXPLAIN_SHORT": "\u300c\u8caa\u6b32\u93a7\u30b0\u30ea\u30fc\u30c9\u30bb\u30eb\u300d\u306e\u4f5c\u308a\u65b9\u304c\u8f09\u3063\u3066\u3044\u308b\u624b\u9806\u66f8",
        "P_EXTRA_TEXT": "\u300c\u8caa\u6b32\u93a7\u30b0\u30ea\u30fc\u30c9\u30bb\u30eb\u300d\u306e\u4f5c\u308a\u65b9\u304c\u8f09\u3063\u3066\u3044\u308b\u624b\u9806\u66f8\u3002\n\u30b9\u30d5\u30a3\u30a2\u751f\u6210\u3067\u300c\u8caa\u6b32\u93a7\u30b0\u30ea\u30fc\u30c9\u30bb\u30eb\u300d\u304c\u4f5c\u308c\u308b\u3088\u3046\u306b\u306a\u308b\u3002",
        "P_COMMENT_GETTABLE": ""
    },
    {
        "P_IMPORTANT_ITEM_ID": "30072",
        "P_EXPLAIN_SHORT": "\u300c\u6602\u51a0\u30a8\u30b0\u30bc\u30b0\u30fb\u30d0\u30a2\u30eb\u300d\u306e\u4f5c\u308a\u65b9\u304c\u8f09\u3063\u3066\u3044\u308b\u624b\u9806\u66f8",
        "P_EXTRA_TEXT": "\u300c\u6602\u51a0\u30a8\u30b0\u30bc\u30b0\u30fb\u30d0\u30a2\u30eb\u300d\u306e\u4f5c\u308a\u65b9\u304c\u8f09\u3063\u3066\u3044\u308b\u624b\u9806\u66f8\u3002\n\u30b9\u30d5\u30a3\u30a2\u751f\u6210\u3067\u300c\u6602\u51a0\u30a8\u30b0\u30bc\u30b0\u30fb\u30d0\u30a2\u30eb\u300d\u304c\u4f5c\u308c\u308b\u3088\u3046\u306b\u306a\u308b\u3002",
        "P_COMMENT_GETTABLE": ""
    },
    {
        "P_IMPORTANT_ITEM_ID": "30073",
        "P_EXPLAIN_SHORT": "\u300c\u6b4c\u5263\u30ec\u30fb\u30e9\u30fc\u30b8\u30a7\u300d\u306e\u4f5c\u308a\u65b9\u304c\u8f09\u3063\u3066\u3044\u308b\u624b\u9806\u66f8",
        "P_EXTRA_TEXT": "\u300c\u6b4c\u5263\u30ec\u30fb\u30e9\u30fc\u30b8\u30a7\u300d\u306e\u4f5c\u308a\u65b9\u304c\u8f09\u3063\u3066\u3044\u308b\u624b\u9806\u66f8\u3002\n\u30b9\u30d5\u30a3\u30a2\u751f\u6210\u3067\u300c\u6b4c\u5263\u30ec\u30fb\u30e9\u30fc\u30b8\u30a7\u300d\u304c\u4f5c\u308c\u308b\u3088\u3046\u306b\u306a\u308b\u3002",
        "P_COMMENT_GETTABLE": ""
    },
    {
        "P_IMPORTANT_ITEM_ID": "30074",
        "P_EXPLAIN_SHORT": "\u300c\u53eb\u5263\u30d0\u30b8\u30a7\u30e9\u300d\u306e\u4f5c\u308a\u65b9\u304c\u8f09\u3063\u3066\u3044\u308b\u624b\u9806\u66f8",
        "P_EXTRA_TEXT": "\u300c\u53eb\u5263\u30d0\u30b8\u30a7\u30e9\u300d\u306e\u4f5c\u308a\u65b9\u304c\u8f09\u3063\u3066\u3044\u308b\u624b\u9806\u66f8\u3002\n\u30b9\u30d5\u30a3\u30a2\u751f\u6210\u3067\u300c\u53eb\u5263\u30d0\u30b8\u30a7\u30e9\u300d\u304c\u4f5c\u308c\u308b\u3088\u3046\u306b\u306a\u308b\u3002",
        "P_COMMENT_GETTABLE": ""
    },
    {
        "P_IMPORTANT_ITEM_ID": "30075",
        "P_EXPLAIN_SHORT": "\u300c\u51f6\u97f3\u5263\u30a8\u30b0\u30ba\u30de\u300d\u306e\u4f5c\u308a\u65b9\u304c\u8f09\u3063\u3066\u3044\u308b\u624b\u9806\u66f8",
        "P_EXTRA_TEXT": "\u300c\u51f6\u97f3\u5263\u30a8\u30b0\u30ba\u30de\u300d\u306e\u4f5c\u308a\u65b9\u304c\u8f09\u3063\u3066\u3044\u308b\u624b\u9806\u66f8\u3002\n\u30b9\u30d5\u30a3\u30a2\u751f\u6210\u3067\u300c\u51f6\u97f3\u5263\u30a8\u30b0\u30ba\u30de\u300d\u304c\u4f5c\u308c\u308b\u3088\u3046\u306b\u306a\u308b\u3002",
        "P_COMMENT_GETTABLE": ""
    },
    {
        "P_IMPORTANT_ITEM_ID": "30076",
        "P_EXPLAIN_SHORT": "\u300c\u30bc\u30eb\u30ca\u30a4\u30c8\u306e\u6307\u8f2a\u300d\u306e\u4f5c\u308a\u65b9\u304c\u8f09\u3063\u3066\u3044\u308b\u624b\u9806\u66f8",
        "P_EXTRA_TEXT": "\u300c\u30bc\u30eb\u30ca\u30a4\u30c8\u306e\u6307\u8f2a\u300d\u306e\u4f5c\u308a\u65b9\u304c\u8f09\u3063\u3066\u3044\u308b\u624b\u9806\u66f8\u3002\n\u30b9\u30d5\u30a3\u30a2\u751f\u6210\u3067\u300c\u30bc\u30eb\u30ca\u30a4\u30c8\u306e\u6307\u8f2a\u300d\u304c\u4f5c\u308c\u308b\u3088\u3046\u306b\u306a\u308b\u3002",
        "P_COMMENT_GETTABLE": ""
    },
    {
        "P_IMPORTANT_ITEM_ID": "30077",
        "P_EXPLAIN_SHORT": "\u300c\u30bc\u30eb\u30de\u30b9\u30bf\u30fc\u306e\u6307\u8f2a\u300d\u306e\u4f5c\u308a\u65b9\u304c\u8f09\u3063\u3066\u3044\u308b\u624b\u9806\u66f8",
        "P_EXTRA_TEXT": "\u300c\u30bc\u30eb\u30de\u30b9\u30bf\u30fc\u306e\u6307\u8f2a\u300d\u306e\u4f5c\u308a\u65b9\u304c\u8f09\u3063\u3066\u3044\u308b\u624b\u9806\u66f8\u3002\n\u30b9\u30d5\u30a3\u30a2\u751f\u6210\u3067\u300c\u30bc\u30eb\u30de\u30b9\u30bf\u30fc\u306e\u6307\u8f2a\u300d\u304c\u4f5c\u308c\u308b\u3088\u3046\u306b\u306a\u308b\u3002",
        "P_COMMENT_GETTABLE": ""
    },
    {
        "P_IMPORTANT_ITEM_ID": "30078",
        "P_EXPLAIN_SHORT": "\u300c\u30af\u30e9\u30c8\u30eb\u306e\u53e4\u5634\u300d\u306e\u4f5c\u308a\u65b9\u304c\u8f09\u3063\u3066\u3044\u308b\u624b\u9806\u66f8",
        "P_EXTRA_TEXT": "\u300c\u30af\u30e9\u30c8\u30eb\u306e\u53e4\u5634\u300d\u306e\u4f5c\u308a\u65b9\u304c\u8f09\u3063\u3066\u3044\u308b\u624b\u9806\u66f8\u3002\n\u30b9\u30d5\u30a3\u30a2\u751f\u6210\u3067\u300c\u30af\u30e9\u30c8\u30eb\u306e\u53e4\u5634\u300d\u304c\u4f5c\u308c\u308b\u3088\u3046\u306b\u306a\u308b\u3002",
        "P_COMMENT_GETTABLE": ""
    },
    {
        "P_IMPORTANT_ITEM_ID": "30079",
        "P_EXPLAIN_SHORT": "\u300c\u9ed2\u7adc\u306e\u30a4\u30e4\u30ea\u30f3\u30b0\u300d\u306e\u4f5c\u308a\u65b9\u304c\u8f09\u3063\u3066\u3044\u308b\u624b\u9806\u66f8",
        "P_EXTRA_TEXT": "\u300c\u9ed2\u7adc\u306e\u30a4\u30e4\u30ea\u30f3\u30b0\u300d\u306e\u4f5c\u308a\u65b9\u304c\u8f09\u3063\u3066\u3044\u308b\u624b\u9806\u66f8\u3002\n\u30b9\u30d5\u30a3\u30a2\u751f\u6210\u3067\u300c\u9ed2\u7adc\u306e\u30a4\u30e4\u30ea\u30f3\u30b0\u300d\u304c\u4f5c\u308c\u308b\u3088\u3046\u306b\u306a\u308b\u3002",
        "P_COMMENT_GETTABLE": ""
    },
    {
        "P_IMPORTANT_ITEM_ID": "30080",
        "P_EXPLAIN_SHORT": "\u300c\u7adc\u6838\u5263\u30ea\u30d9\u30ea\u30a6\u30b9\u300d\u306e\u4f5c\u308a\u65b9\u304c\u8f09\u3063\u3066\u3044\u308b\u624b\u9806\u66f8",
        "P_EXTRA_TEXT": "\u300c\u7adc\u6838\u5263\u30ea\u30d9\u30ea\u30a6\u30b9\u300d\u306e\u4f5c\u308a\u65b9\u304c\u8f09\u3063\u3066\u3044\u308b\u624b\u9806\u66f8\u3002\n\u30b9\u30d5\u30a3\u30a2\u751f\u6210\u3067\u300c\u7adc\u6838\u5263\u30ea\u30d9\u30ea\u30a6\u30b9\u300d\u304c\u4f5c\u308c\u308b\u3088\u3046\u306b\u306a\u308b\u3002",
        "P_COMMENT_GETTABLE": ""
    },
    {
        "P_IMPORTANT_ITEM_ID": "30081",
        "P_EXPLAIN_SHORT": "\u300c\u834a\u306e\u4e09\u7bc0\u68cd\u300d\u306e\u4f5c\u308a\u65b9\u304c\u8f09\u3063\u3066\u3044\u308b\u624b\u9806\u66f8",
        "P_EXTRA_TEXT": "\u300c\u834a\u306e\u4e09\u7bc0\u68cd\u300d\u306e\u4f5c\u308a\u65b9\u304c\u8f09\u3063\u3066\u3044\u308b\u624b\u9806\u66f8\u3002\n\u30b9\u30d5\u30a3\u30a2\u751f\u6210\u3067\u300c\u834a\u306e\u4e09\u7bc0\u68cd\u300d\u304c\u4f5c\u308c\u308b\u3088\u3046\u306b\u306a\u308b\u3002",
        "P_COMMENT_GETTABLE": ""
    },
    {
        "P_IMPORTANT_ITEM_ID": "30082",
        "P_EXPLAIN_SHORT": "\u300c\u8594\u8587\u306e\u30d5\u30ec\u30a4\u30eb\u300d\u306e\u4f5c\u308a\u65b9\u304c\u8f09\u3063\u3066\u3044\u308b\u624b\u9806\u66f8",
        "P_EXTRA_TEXT": "\u300c\u8594\u8587\u306e\u30d5\u30ec\u30a4\u30eb\u300d\u306e\u4f5c\u308a\u65b9\u304c\u8f09\u3063\u3066\u3044\u308b\u624b\u9806\u66f8\u3002\n\u30b9\u30d5\u30a3\u30a2\u751f\u6210\u3067\u300c\u8594\u8587\u306e\u30d5\u30ec\u30a4\u30eb\u300d\u304c\u4f5c\u308c\u308b\u3088\u3046\u306b\u306a\u308b\u3002",
        "P_COMMENT_GETTABLE": ""
    },
    {
        "P_IMPORTANT_ITEM_ID": "30083",
        "P_EXPLAIN_SHORT": "\u300c\u30e1\u30cc\u30bc\u306e\u92fc\u8eab\u8b77\u7b26\u300d\u306e\u4f5c\u308a\u65b9\u304c\u8f09\u3063\u3066\u3044\u308b\u624b\u9806\u66f8",
        "P_EXTRA_TEXT": "\u300c\u30e1\u30cc\u30bc\u306e\u92fc\u8eab\u8b77\u7b26\u300d\u306e\u4f5c\u308a\u65b9\u304c\u8f09\u3063\u3066\u3044\u308b\u624b\u9806\u66f8\u3002\n\u30b9\u30d5\u30a3\u30a2\u751f\u6210\u3067\u300c\u30e1\u30cc\u30bc\u306e\u92fc\u8eab\u8b77\u7b26\u300d\u304c\u4f5c\u308c\u308b\u3088\u3046\u306b\u306a\u308b\u3002",
        "P_COMMENT_GETTABLE": ""
    },
    {
        "P_IMPORTANT_ITEM_ID": "30084",
        "P_EXPLAIN_SHORT": "\u300c\u5947\u602a\u571f\u5076\u30e0\u30cc\u30cf\u300d\u306e\u4f5c\u308a\u65b9\u304c\u8f09\u3063\u3066\u3044\u308b\u624b\u9806\u66f8",
        "P_EXTRA_TEXT": "\u300c\u5947\u602a\u571f\u5076\u30e0\u30cc\u30cf\u300d\u306e\u4f5c\u308a\u65b9\u304c\u8f09\u3063\u3066\u3044\u308b\u624b\u9806\u66f8\u3002\n\u30b9\u30d5\u30a3\u30a2\u751f\u6210\u3067\u300c\u5947\u602a\u571f\u5076\u30e0\u30cc\u30cf\u300d\u304c\u4f5c\u308c\u308b\u3088\u3046\u306b\u306a\u308b\u3002",
        "P_COMMENT_GETTABLE": ""
    },
    {
        "P_IMPORTANT_ITEM_ID": "30085",
        "P_EXPLAIN_SHORT": "\u300c\u30a8\u30f3\u30c6\u30bb\u30eb\u306e\u796d\u5263\u300d\u306e\u4f5c\u308a\u65b9\u304c\u8f09\u3063\u3066\u3044\u308b\u624b\u9806\u66f8",
        "P_EXTRA_TEXT": "\u300c\u30a8\u30f3\u30c6\u30bb\u30eb\u306e\u796d\u5263\u300d\u306e\u4f5c\u308a\u65b9\u304c\u8f09\u3063\u3066\u3044\u308b\u624b\u9806\u66f8\u3002\n\u30b9\u30d5\u30a3\u30a2\u751f\u6210\u3067\u300c\u30a8\u30f3\u30c6\u30bb\u30eb\u306e\u796d\u5263\u300d\u304c\u4f5c\u308c\u308b\u3088\u3046\u306b\u306a\u308b\u3002",
        "P_COMMENT_GETTABLE": ""
    },
    {
        "P_IMPORTANT_ITEM_ID": "30086",
        "P_EXPLAIN_SHORT": "\u300c\u30c0\u30c0\u30eb\u306e\u6307\u5357\u66f8\u300d\u306e\u4f5c\u308a\u65b9\u304c\u8f09\u3063\u3066\u3044\u308b\u624b\u9806\u66f8",
        "P_EXTRA_TEXT": "\u300c\u30c0\u30c0\u30eb\u306e\u6307\u5357\u66f8\u300d\u306e\u4f5c\u308a\u65b9\u304c\u8f09\u3063\u3066\u3044\u308b\u624b\u9806\u66f8\u3002\n\u30b9\u30d5\u30a3\u30a2\u751f\u6210\u3067\u300c\u30c0\u30c0\u30eb\u306e\u6307\u5357\u66f8\u300d\u304c\u4f5c\u308c\u308b\u3088\u3046\u306b\u306a\u308b\u3002",
        "P_COMMENT_GETTABLE": ""
    },
    {
        "P_IMPORTANT_ITEM_ID": "30087",
        "P_EXPLAIN_SHORT": "\u300c\u5929\u7953\u8f2a\u30b5\u30e9\u30d5\u30a3\u30f3\u300d\u306e\u4f5c\u308a\u65b9\u304c\u8f09\u3063\u3066\u3044\u308b\u624b\u9806\u66f8",
        "P_EXTRA_TEXT": "\u300c\u5929\u7953\u8f2a\u30b5\u30e9\u30d5\u30a3\u30f3\u300d\u306e\u4f5c\u308a\u65b9\u304c\u8f09\u3063\u3066\u3044\u308b\u624b\u9806\u66f8\u3002\n\u30b9\u30d5\u30a3\u30a2\u751f\u6210\u3067\u300c\u5929\u7953\u8f2a\u30b5\u30e9\u30d5\u30a3\u30f3\u300d\u304c\u4f5c\u308c\u308b\u3088\u3046\u306b\u306a\u308b\u3002",
        "P_COMMENT_GETTABLE": ""
    },
    {
        "P_IMPORTANT_ITEM_ID": "30088",
        "P_EXPLAIN_SHORT": "\u300c\u5730\u58ee\u8f2a\u30af\u30ec\u30a2\u30ec\u30ea\u300d\u306e\u4f5c\u308a\u65b9\u304c\u8f09\u3063\u3066\u3044\u308b\u624b\u9806\u66f8",
        "P_EXTRA_TEXT": "\u300c\u5730\u58ee\u8f2a\u30af\u30ec\u30a2\u30ec\u30ea\u300d\u306e\u4f5c\u308a\u65b9\u304c\u8f09\u3063\u3066\u3044\u308b\u624b\u9806\u66f8\u3002\n\u30b9\u30d5\u30a3\u30a2\u751f\u6210\u3067\u300c\u5730\u58ee\u8f2a\u30af\u30ec\u30a2\u30ec\u30ea\u300d\u304c\u4f5c\u308c\u308b\u3088\u3046\u306b\u306a\u308b\u3002",
        "P_COMMENT_GETTABLE": ""
    },
    {
        "P_IMPORTANT_ITEM_ID": "30089",
        "P_EXPLAIN_SHORT": "\u300c\u4eba\u609f\u8f2a\u30d2\u30fc\u30ec\u30af\u30b9\u300d\u306e\u4f5c\u308a\u65b9\u304c\u8f09\u3063\u3066\u3044\u308b\u624b\u9806\u66f8",
        "P_EXTRA_TEXT": "\u300c\u4eba\u609f\u8f2a\u30d2\u30fc\u30ec\u30af\u30b9\u300d\u306e\u4f5c\u308a\u65b9\u304c\u8f09\u3063\u3066\u3044\u308b\u624b\u9806\u66f8\u3002\n\u30b9\u30d5\u30a3\u30a2\u751f\u6210\u3067\u300c\u4eba\u609f\u8f2a\u30d2\u30fc\u30ec\u30af\u30b9\u300d\u304c\u4f5c\u308c\u308b\u3088\u3046\u306b\u306a\u308b\u3002",
        "P_COMMENT_GETTABLE": ""
    },
    {
        "P_IMPORTANT_ITEM_ID": "30090",
        "P_EXPLAIN_SHORT": "\u300c\u30a8\u30c7\u30eb\u30b0\u30b7\u30aa\u30f3\u306e\u6226\u65d7\u300d\u306e\u4f5c\u308a\u65b9\u304c\u8f09\u3063\u3066\u3044\u308b\u624b\u9806\u66f8",
        "P_EXTRA_TEXT": "\u300c\u30a8\u30c7\u30eb\u30b0\u30b7\u30aa\u30f3\u306e\u6226\u65d7\u300d\u306e\u4f5c\u308a\u65b9\u304c\u8f09\u3063\u3066\u3044\u308b\u624b\u9806\u66f8\u3002\n\u30b9\u30d5\u30a3\u30a2\u751f\u6210\u3067\u300c\u30a8\u30c7\u30eb\u30b0\u30b7\u30aa\u30f3\u306e\u6226\u65d7\u300d\u304c\u4f5c\u308c\u308b\u3088\u3046\u306b\u306a\u308b\u3002",
        "P_COMMENT_GETTABLE": ""
    },
    {
        "P_IMPORTANT_ITEM_ID": "30091",
        "P_EXPLAIN_SHORT": "\u300c\u30c0\u30b0\u30c6\u30b9\u30de\u306e\u6a29\u6756\u300d\u306e\u4f5c\u308a\u65b9\u304c\u8f09\u3063\u3066\u3044\u308b\u624b\u9806\u66f8",
        "P_EXTRA_TEXT": "\u300c\u30c0\u30b0\u30c6\u30b9\u30de\u306e\u6a29\u6756\u300d\u306e\u4f5c\u308a\u65b9\u304c\u8f09\u3063\u3066\u3044\u308b\u624b\u9806\u66f8\u3002\n\u30b9\u30d5\u30a3\u30a2\u751f\u6210\u3067\u300c\u30c0\u30b0\u30c6\u30b9\u30de\u306e\u6a29\u6756\u300d\u304c\u4f5c\u308c\u308b\u3088\u3046\u306b\u306a\u308b\u3002",
        "P_COMMENT_GETTABLE": ""
    },
    {
        "P_IMPORTANT_ITEM_ID": "30092",
        "P_EXPLAIN_SHORT": "\u300c\u8056\u5973\u306e\u6226\u88c5\u675f\u30a2\u30ea\u30e9\u30c8\u300d\u306e\u4f5c\u308a\u65b9\u304c\u8f09\u3063\u3066\u3044\u308b\u624b\u9806\u66f8",
        "P_EXTRA_TEXT": "\u300c\u8056\u5973\u306e\u6226\u88c5\u675f\u30a2\u30ea\u30e9\u30c8\u300d\u306e\u4f5c\u308a\u65b9\u304c\u8f09\u3063\u3066\u3044\u308b\u624b\u9806\u66f8\u3002\n\u30b9\u30d5\u30a3\u30a2\u751f\u6210\u3067\u300c\u8056\u5973\u306e\u6226\u88c5\u675f\u30a2\u30ea\u30e9\u30c8\u300d\u304c\u4f5c\u308c\u308b\u3088\u3046\u306b\u306a\u308b\u3002",
        "P_COMMENT_GETTABLE": ""
    },
    {
        "P_IMPORTANT_ITEM_ID": "30093",
        "P_EXPLAIN_SHORT": "\u300c\u5f71\u3088\u308a\u73fe\u308c\u3057\u5203\u300e\u30b6\u30b8\u300f\u300d\u306e\u4f5c\u308a\u65b9\u304c\u8f09\u3063\u3066\u3044\u308b\u624b\u9806\u66f8",
        "P_EXTRA_TEXT": "\u300c\u5f71\u3088\u308a\u73fe\u308c\u3057\u5203\u300e\u30b6\u30b8\u300f\u300d\u306e\u4f5c\u308a\u65b9\u304c\u8f09\u3063\u3066\u3044\u308b\u624b\u9806\u66f8\u3002\n\u30b9\u30d5\u30a3\u30a2\u751f\u6210\u3067\u300c\u5f71\u3088\u308a\u73fe\u308c\u3057\u5203\u300e\u30b6\u30b8\u300f\u300d\u304c\u4f5c\u308c\u308b\u3088\u3046\u306b\u306a\u308b\u3002",
        "P_COMMENT_GETTABLE": ""
    },
    {
        "P_IMPORTANT_ITEM_ID": "30094",
        "P_EXPLAIN_SHORT": "\u300c\u795e\u5203\u8f2a\u30d0\u30f3\u30c7\u30a3\u30f3\u30ac\u300d\u306e\u4f5c\u308a\u65b9\u304c\u8f09\u3063\u3066\u3044\u308b\u624b\u9806\u66f8",
        "P_EXTRA_TEXT": "\u300c\u795e\u5203\u8f2a\u30d0\u30f3\u30c7\u30a3\u30f3\u30ac\u300d\u306e\u4f5c\u308a\u65b9\u304c\u8f09\u3063\u3066\u3044\u308b\u624b\u9806\u66f8\u3002\n\u30b9\u30d5\u30a3\u30a2\u751f\u6210\u3067\u300c\u795e\u5203\u8f2a\u30d0\u30f3\u30c7\u30a3\u30f3\u30ac\u300d\u304c\u4f5c\u308c\u308b\u3088\u3046\u306b\u306a\u308b\u3002",
        "P_COMMENT_GETTABLE": ""
    },
    {
        "P_IMPORTANT_ITEM_ID": "30095",
        "P_EXPLAIN_SHORT": "\u300c\u30ac\u30c0\u30e9\u5360\u4e8b\u672c\u8a18\u300d\u306e\u4f5c\u308a\u65b9\u304c\u8f09\u3063\u3066\u3044\u308b\u624b\u9806\u66f8",
        "P_EXTRA_TEXT": "\u300c\u30ac\u30c0\u30e9\u5360\u4e8b\u672c\u8a18\u300d\u306e\u4f5c\u308a\u65b9\u304c\u8f09\u3063\u3066\u3044\u308b\u624b\u9806\u66f8\u3002\n\u30b9\u30d5\u30a3\u30a2\u751f\u6210\u3067\u300c\u30ac\u30c0\u30e9\u5360\u4e8b\u672c\u8a18\u300d\u304c\u4f5c\u308c\u308b\u3088\u3046\u306b\u306a\u308b\u3002",
        "P_COMMENT_GETTABLE": ""
    },
    {
        "P_IMPORTANT_ITEM_ID": "30096",
        "P_EXPLAIN_SHORT": "\u300c\u5947\u66f8\u300e\u865a\u7121\u3078\u306e\u9053\u6a19\u300f\u300d\u306e\u4f5c\u308a\u65b9\u304c\u8f09\u3063\u3066\u3044\u308b\u624b\u9806\u66f8",
        "P_EXTRA_TEXT": "\u300c\u5947\u66f8\u300e\u865a\u7121\u3078\u306e\u9053\u6a19\u300f\u300d\u306e\u4f5c\u308a\u65b9\u304c\u8f09\u3063\u3066\u3044\u308b\u624b\u9806\u66f8\u3002\n\u30b9\u30d5\u30a3\u30a2\u751f\u6210\u3067\u300c\u5947\u66f8\u300e\u865a\u7121\u3078\u306e\u9053\u6a19\u300f\u300d\u304c\u4f5c\u308c\u308b\u3088\u3046\u306b\u306a\u308b\u3002",
        "P_COMMENT_GETTABLE": ""
    },
    {
        "P_IMPORTANT_ITEM_ID": "30097",
        "P_EXPLAIN_SHORT": "\u300c\u61a4\u6012\u306e\u970a\u51a0\u300d\u306e\u4f5c\u308a\u65b9\u304c\u8f09\u3063\u3066\u3044\u308b\u624b\u9806\u66f8",
        "P_EXTRA_TEXT": "\u300c\u61a4\u6012\u306e\u970a\u51a0\u300d\u306e\u4f5c\u308a\u65b9\u304c\u8f09\u3063\u3066\u3044\u308b\u624b\u9806\u66f8\u3002\n\u30b9\u30d5\u30a3\u30a2\u751f\u6210\u3067\u300c\u61a4\u6012\u306e\u970a\u51a0\u300d\u304c\u4f5c\u308c\u308b\u3088\u3046\u306b\u306a\u308b\u3002",
        "P_COMMENT_GETTABLE": ""
    },
    {
        "P_IMPORTANT_ITEM_ID": "30098",
        "P_EXPLAIN_SHORT": "\u300c\u6d77\u9b54\u5973\u306e\u8b77\u5e03\u300d\u306e\u4f5c\u308a\u65b9\u304c\u8f09\u3063\u3066\u3044\u308b\u624b\u9806\u66f8",
        "P_EXTRA_TEXT": "\u300c\u6d77\u9b54\u5973\u306e\u8b77\u5e03\u300d\u306e\u4f5c\u308a\u65b9\u304c\u8f09\u3063\u3066\u3044\u308b\u624b\u9806\u66f8\u3002\n\u30b9\u30d5\u30a3\u30a2\u751f\u6210\u3067\u300c\u6d77\u9b54\u5973\u306e\u8b77\u5e03\u300d\u304c\u4f5c\u308c\u308b\u3088\u3046\u306b\u306a\u308b\u3002",
        "P_COMMENT_GETTABLE": ""
    },
    {
        "P_IMPORTANT_ITEM_ID": "30099",
        "P_EXPLAIN_SHORT": "\u300c\u30ed\u30fc\u30c6\u30b1\u30ea\u306e\u9b54\u93e1\u300d\u306e\u4f5c\u308a\u65b9\u304c\u8f09\u3063\u3066\u3044\u308b\u624b\u9806\u66f8",
        "P_EXTRA_TEXT": "\u300c\u30ed\u30fc\u30c6\u30b1\u30ea\u306e\u9b54\u93e1\u300d\u306e\u4f5c\u308a\u65b9\u304c\u8f09\u3063\u3066\u3044\u308b\u624b\u9806\u66f8\u3002\n\u30b9\u30d5\u30a3\u30a2\u751f\u6210\u3067\u300c\u30ed\u30fc\u30c6\u30b1\u30ea\u306e\u9b54\u93e1\u300d\u304c\u4f5c\u308c\u308b\u3088\u3046\u306b\u306a\u308b\u3002",
        "P_COMMENT_GETTABLE": ""
    },
    {
        "P_IMPORTANT_ITEM_ID": "30100",
        "P_EXPLAIN_SHORT": "\u300c\u53e4\u795e\u5929\u51a0\u30e1\u30fc\u30c1\u30bc\u30ab\u30eb\u300d\u306e\u4f5c\u308a\u65b9\u304c\u8f09\u3063\u3066\u3044\u308b\u624b\u9806\u66f8",
        "P_EXTRA_TEXT": "\u300c\u53e4\u795e\u5929\u51a0\u30e1\u30fc\u30c1\u30bc\u30ab\u30eb\u300d\u306e\u4f5c\u308a\u65b9\u304c\u8f09\u3063\u3066\u3044\u308b\u624b\u9806\u66f8\u3002\n\u30b9\u30d5\u30a3\u30a2\u751f\u6210\u3067\u300c\u53e4\u795e\u5929\u51a0\u30e1\u30fc\u30c1\u30bc\u30ab\u30eb\u300d\u304c\u4f5c\u308c\u308b\u3088\u3046\u306b\u306a\u308b\u3002",
        "P_COMMENT_GETTABLE": ""
    },
    {
        "P_IMPORTANT_ITEM_ID": "30101",
        "P_EXPLAIN_SHORT": "\u300c\u6226\u5b9d\u30d0\u30c8\u30eb\u30c9\u30e9\u30a4\u30d0\u30fc\u300d\u306e\u4f5c\u308a\u65b9\u304c\u8f09\u3063\u3066\u3044\u308b\u624b\u9806\u66f8",
        "P_EXTRA_TEXT": "\u300c\u6226\u5b9d\u30d0\u30c8\u30eb\u30c9\u30e9\u30a4\u30d0\u30fc\u300d\u306e\u4f5c\u308a\u65b9\u304c\u8f09\u3063\u3066\u3044\u308b\u624b\u9806\u66f8\u3002\n\u30b9\u30d5\u30a3\u30a2\u751f\u6210\u3067\u300c\u6226\u5b9d\u30d0\u30c8\u30eb\u30c9\u30e9\u30a4\u30d0\u30fc\u300d\u304c\u4f5c\u308c\u308b\u3088\u3046\u306b\u306a\u308b\u3002",
        "P_COMMENT_GETTABLE": ""
    },
    {
        "P_IMPORTANT_ITEM_ID": "30102",
        "P_EXPLAIN_SHORT": "\u300c\u98db\u68cd\u30bb\u30e9\u30ad\u30a6\u30e0\u300d\u306e\u4f5c\u308a\u65b9\u304c\u8f09\u3063\u3066\u3044\u308b\u624b\u9806\u66f8",
        "P_EXTRA_TEXT": "\u300c\u98db\u68cd\u30bb\u30e9\u30ad\u30a6\u30e0\u300d\u306e\u4f5c\u308a\u65b9\u304c\u8f09\u3063\u3066\u3044\u308b\u624b\u9806\u66f8\u3002\n\u30b9\u30d5\u30a3\u30a2\u751f\u6210\u3067\u300c\u98db\u68cd\u30bb\u30e9\u30ad\u30a6\u30e0\u300d\u304c\u4f5c\u308c\u308b\u3088\u3046\u306b\u306a\u308b\u3002",
        "P_COMMENT_GETTABLE": ""
    },
    {
        "P_IMPORTANT_ITEM_ID": "30103",
        "P_EXPLAIN_SHORT": "\u300c\u7948\u308a\u306e\u5927\u5f13\u300d\u306e\u4f5c\u308a\u65b9\u304c\u8f09\u3063\u3066\u3044\u308b\u624b\u9806\u66f8",
        "P_EXTRA_TEXT": "\u300c\u7948\u308a\u306e\u5927\u5f13\u300d\u306e\u4f5c\u308a\u65b9\u304c\u8f09\u3063\u3066\u3044\u308b\u624b\u9806\u66f8\u3002\n\u30b9\u30d5\u30a3\u30a2\u751f\u6210\u3067\u300c\u7948\u308a\u306e\u5927\u5f13\u300d\u304c\u4f5c\u308c\u308b\u3088\u3046\u306b\u306a\u308b\u3002",
        "P_COMMENT_GETTABLE": ""
    },
    {
        "P_IMPORTANT_ITEM_ID": "30104",
        "P_EXPLAIN_SHORT": "\u300c\u9583\u99c6\u5203\u30b6\u30ab\u30ea\u30a8\u30f3\u300d\u306e\u4f5c\u308a\u65b9\u304c\u8f09\u3063\u3066\u3044\u308b\u624b\u9806\u66f8",
        "P_EXTRA_TEXT": "\u300c\u9583\u99c6\u5203\u30b6\u30ab\u30ea\u30a8\u30f3\u300d\u306e\u4f5c\u308a\u65b9\u304c\u8f09\u3063\u3066\u3044\u308b\u624b\u9806\u66f8\u3002\n\u30b9\u30d5\u30a3\u30a2\u751f\u6210\u3067\u300c\u9583\u99c6\u5203\u30b6\u30ab\u30ea\u30a8\u30f3\u300d\u304c\u4f5c\u308c\u308b\u3088\u3046\u306b\u306a\u308b\u3002",
        "P_COMMENT_GETTABLE": ""
    },
    {
        "P_IMPORTANT_ITEM_ID": "30105",
        "P_EXPLAIN_SHORT": "\u300c\u91cd\u9583\u5203\u30a6\u30eb\u30bf\u30fc\u30b0\u300d\u306e\u4f5c\u308a\u65b9\u304c\u8f09\u3063\u3066\u3044\u308b\u624b\u9806\u66f8",
        "P_EXTRA_TEXT": "\u300c\u91cd\u9583\u5203\u30a6\u30eb\u30bf\u30fc\u30b0\u300d\u306e\u4f5c\u308a\u65b9\u304c\u8f09\u3063\u3066\u3044\u308b\u624b\u9806\u66f8\u3002\n\u30b9\u30d5\u30a3\u30a2\u751f\u6210\u3067\u300c\u91cd\u9583\u5203\u30a6\u30eb\u30bf\u30fc\u30b0\u300d\u304c\u4f5c\u308c\u308b\u3088\u3046\u306b\u306a\u308b\u3002",
        "P_COMMENT_GETTABLE": ""
    },
    {
        "P_IMPORTANT_ITEM_ID": "30106",
        "P_EXPLAIN_SHORT": "\u300c\u9020\u6210\u7532\u30dc\u30eb\u30b0\u30a8\u30b9\u300d\u306e\u4f5c\u308a\u65b9\u304c\u8f09\u3063\u3066\u3044\u308b\u624b\u9806\u66f8",
        "P_EXTRA_TEXT": "\u300c\u9020\u6210\u7532\u30dc\u30eb\u30b0\u30a8\u30b9\u300d\u306e\u4f5c\u308a\u65b9\u304c\u8f09\u3063\u3066\u3044\u308b\u624b\u9806\u66f8\u3002\n\u30b9\u30d5\u30a3\u30a2\u751f\u6210\u3067\u300c\u9020\u6210\u7532\u30dc\u30eb\u30b0\u30a8\u30b9\u300d\u304c\u4f5c\u308c\u308b\u3088\u3046\u306b\u306a\u308b\u3002",
        "P_COMMENT_GETTABLE": ""
    },
    {
        "P_IMPORTANT_ITEM_ID": "30107",
        "P_EXPLAIN_SHORT": "\u300c\u5275\u585e\u7532\u30d6\u30eb\u30bf\u30ea\u30b2\u30b9\u300d\u306e\u4f5c\u308a\u65b9\u304c\u8f09\u3063\u3066\u3044\u308b\u624b\u9806\u66f8",
        "P_EXTRA_TEXT": "\u300c\u5275\u585e\u7532\u30d6\u30eb\u30bf\u30ea\u30b2\u30b9\u300d\u306e\u4f5c\u308a\u65b9\u304c\u8f09\u3063\u3066\u3044\u308b\u624b\u9806\u66f8\u3002\n\u30b9\u30d5\u30a3\u30a2\u751f\u6210\u3067\u300c\u5275\u585e\u7532\u30d6\u30eb\u30bf\u30ea\u30b2\u30b9\u300d\u304c\u4f5c\u308c\u308b\u3088\u3046\u306b\u306a\u308b\u3002",
        "P_COMMENT_GETTABLE": ""
    },
    {
        "P_IMPORTANT_ITEM_ID": "30108",
        "P_EXPLAIN_SHORT": "\u300c\u9b54\u6676\u5236\u5fa1\u4e00\u578b\u300e\u6681\u5929\u300f\u300d\u306e\u4f5c\u308a\u65b9\u304c\u8f09\u3063\u3066\u3044\u308b\u624b\u9806\u66f8",
        "P_EXTRA_TEXT": "\u300c\u9b54\u6676\u5236\u5fa1\u4e00\u578b\u300e\u6681\u5929\u300f\u300d\u306e\u4f5c\u308a\u65b9\u304c\u8f09\u3063\u3066\u3044\u308b\u624b\u9806\u66f8\u3002\n\u30b9\u30d5\u30a3\u30a2\u751f\u6210\u3067\u300c\u9b54\u6676\u5236\u5fa1\u4e00\u578b\u300e\u6681\u5929\u300f\u300d\u304c\u4f5c\u308c\u308b\u3088\u3046\u306b\u306a\u308b\u3002",
        "P_COMMENT_GETTABLE": ""
    },
    {
        "P_IMPORTANT_ITEM_ID": "30109",
        "P_EXPLAIN_SHORT": "\u300c\u9b54\u6676\u5236\u5fa1\u4e8c\u578b\u300e\u8352\u5929\u300f\u300d\u306e\u4f5c\u308a\u65b9\u304c\u8f09\u3063\u3066\u3044\u308b\u624b\u9806\u66f8",
        "P_EXTRA_TEXT": "\u300c\u9b54\u6676\u5236\u5fa1\u4e8c\u578b\u300e\u8352\u5929\u300f\u300d\u306e\u4f5c\u308a\u65b9\u304c\u8f09\u3063\u3066\u3044\u308b\u624b\u9806\u66f8\u3002\n\u30b9\u30d5\u30a3\u30a2\u751f\u6210\u3067\u300c\u9b54\u6676\u5236\u5fa1\u4e8c\u578b\u300e\u8352\u5929\u300f\u300d\u304c\u4f5c\u308c\u308b\u3088\u3046\u306b\u306a\u308b\u3002",
        "P_COMMENT_GETTABLE": ""
    },
    {
        "P_IMPORTANT_ITEM_ID": "30110",
        "P_EXPLAIN_SHORT": "\u300c\u7d46\u5b9d\u300e\u30e2\u30fc\u30c7\u30a3\u30ea\u30a2\u300f\u300d\u306e\u4f5c\u308a\u65b9\u304c\u8f09\u3063\u3066\u3044\u308b\u624b\u9806\u66f8",
        "P_EXTRA_TEXT": "\u300c\u7d46\u5b9d\u300e\u30e2\u30fc\u30c7\u30a3\u30ea\u30a2\u300f\u300d\u306e\u4f5c\u308a\u65b9\u304c\u8f09\u3063\u3066\u3044\u308b\u624b\u9806\u66f8\u3002\n\u30b9\u30d5\u30a3\u30a2\u751f\u6210\u3067\u300c\u7d46\u5b9d\u300e\u30e2\u30fc\u30c7\u30a3\u30ea\u30a2\u300f\u300d\u304c\u4f5c\u308c\u308b\u3088\u3046\u306b\u306a\u308b\u3002",
        "P_COMMENT_GETTABLE": ""
    },
    {
        "P_IMPORTANT_ITEM_ID": "30111",
        "P_EXPLAIN_SHORT": "\u300c\u7d46\u5b9d\u300e\u30b8\u30fc\u30b0\u30a2\u30e9\u30f3\u300f\u300d\u306e\u4f5c\u308a\u65b9\u304c\u8f09\u3063\u3066\u3044\u308b\u624b\u9806\u66f8",
        "P_EXTRA_TEXT": "\u300c\u7d46\u5b9d\u300e\u30b8\u30fc\u30b0\u30a2\u30e9\u30f3\u300f\u300d\u306e\u4f5c\u308a\u65b9\u304c\u8f09\u3063\u3066\u3044\u308b\u624b\u9806\u66f8\u3002\n\u30b9\u30d5\u30a3\u30a2\u751f\u6210\u3067\u300c\u7d46\u5b9d\u300e\u30b8\u30fc\u30b0\u30a2\u30e9\u30f3\u300f\u300d\u304c\u4f5c\u308c\u308b\u3088\u3046\u306b\u306a\u308b\u3002",
        "P_COMMENT_GETTABLE": ""
    },
    {
        "P_IMPORTANT_ITEM_ID": "30112",
        "P_EXPLAIN_SHORT": "\u300c\u4e00\u7d1a\u30a8\u30ca\u30d5\u30a9\u30b9\u52f2\u7ae0\u300d\u306e\u4f5c\u308a\u65b9\u304c\u8f09\u3063\u3066\u3044\u308b\u624b\u9806\u66f8",
        "P_EXTRA_TEXT": "\u300c\u4e00\u7d1a\u30a8\u30ca\u30d5\u30a9\u30b9\u52f2\u7ae0\u300d\u306e\u4f5c\u308a\u65b9\u304c\u8f09\u3063\u3066\u3044\u308b\u624b\u9806\u66f8\u3002\n\u30b9\u30d5\u30a3\u30a2\u751f\u6210\u3067\u300c\u4e00\u7d1a\u30a8\u30ca\u30d5\u30a9\u30b9\u52f2\u7ae0\u300d\u304c\u4f5c\u308c\u308b\u3088\u3046\u306b\u306a\u308b\u3002",
        "P_COMMENT_GETTABLE": ""
    },
    {
        "P_IMPORTANT_ITEM_ID": "30113",
        "P_EXPLAIN_SHORT": "\u300c\u7279\u7d1a\u30c7\u30e5\u30aa\u30d5\u30a9\u30bf\u52f2\u7ae0\u300d\u306e\u4f5c\u308a\u65b9\u304c\u8f09\u3063\u3066\u3044\u308b\u624b\u9806\u66f8",
        "P_EXTRA_TEXT": "\u300c\u7279\u7d1a\u30c7\u30e5\u30aa\u30d5\u30a9\u30bf\u52f2\u7ae0\u300d\u306e\u4f5c\u308a\u65b9\u304c\u8f09\u3063\u3066\u3044\u308b\u624b\u9806\u66f8\u3002\n\u30b9\u30d5\u30a3\u30a2\u751f\u6210\u3067\u300c\u7279\u7d1a\u30c7\u30e5\u30aa\u30d5\u30a9\u30bf\u52f2\u7ae0\u300d\u304c\u4f5c\u308c\u308b\u3088\u3046\u306b\u306a\u308b\u3002",
        "P_COMMENT_GETTABLE": ""
    },
    {
        "P_IMPORTANT_ITEM_ID": "30114",
        "P_EXPLAIN_SHORT": "\u300c\u96f7\u9707\u65a7\u30b6\u30eb\u30b8\u30d0\u300d\u306e\u4f5c\u308a\u65b9\u304c\u8f09\u3063\u3066\u3044\u308b\u624b\u9806\u66f8",
        "P_EXTRA_TEXT": "\u300c\u96f7\u9707\u65a7\u30b6\u30eb\u30b8\u30d0\u300d\u306e\u4f5c\u308a\u65b9\u304c\u8f09\u3063\u3066\u3044\u308b\u624b\u9806\u66f8\u3002\n\u30b9\u30d5\u30a3\u30a2\u751f\u6210\u3067\u300c\u96f7\u9707\u65a7\u30b6\u30eb\u30b8\u30d0\u300d\u304c\u4f5c\u308c\u308b\u3088\u3046\u306b\u306a\u308b\u3002",
        "P_COMMENT_GETTABLE": ""
    },
    {
        "P_IMPORTANT_ITEM_ID": "30115",
        "P_EXPLAIN_SHORT": "\u300c\u30ea\u30f3\u30c7\u30f3\u30c0\u30e0\u9b54\u6676\u300d\u306e\u4f5c\u308a\u65b9\u304c\u8f09\u3063\u3066\u3044\u308b\u624b\u9806\u66f8",
        "P_EXTRA_TEXT": "\u300c\u30ea\u30f3\u30c7\u30f3\u30c0\u30e0\u9b54\u6676\u300d\u306e\u4f5c\u308a\u65b9\u304c\u8f09\u3063\u3066\u3044\u308b\u624b\u9806\u66f8\u3002\n\u30b9\u30d5\u30a3\u30a2\u751f\u6210\u3067\u300c\u30ea\u30f3\u30c7\u30f3\u30c0\u30e0\u9b54\u6676\u300d\u304c\u4f5c\u308c\u308b\u3088\u3046\u306b\u306a\u308b\u3002",
        "P_COMMENT_GETTABLE": ""
    },
    {
        "P_IMPORTANT_ITEM_ID": "30116",
        "P_EXPLAIN_SHORT": "\u300c\u6d77\u5e95\u306e\u706b\u82b1\u300d\u306e\u4f5c\u308a\u65b9\u304c\u8f09\u3063\u3066\u3044\u308b\u624b\u9806\u66f8",
        "P_EXTRA_TEXT": "\u300c\u6d77\u5e95\u306e\u706b\u82b1\u300d\u306e\u4f5c\u308a\u65b9\u304c\u8f09\u3063\u3066\u3044\u308b\u624b\u9806\u66f8\u3002\n\u30b9\u30d5\u30a3\u30a2\u751f\u6210\u3067\u300c\u6d77\u5e95\u306e\u706b\u82b1\u300d\u304c\u4f5c\u308c\u308b\u3088\u3046\u306b\u306a\u308b\u3002",
        "P_COMMENT_GETTABLE": ""
    },
    {
        "P_IMPORTANT_ITEM_ID": "30117",
        "P_EXPLAIN_SHORT": "\u300c\u9e97\u9583\u7d2f\u5203\u30a8\u30eb\u30ab\u30c0\u30b9\u300d\u306e\u4f5c\u308a\u65b9\u304c\u8f09\u3063\u3066\u3044\u308b\u624b\u9806\u66f8",
        "P_EXTRA_TEXT": "\u300c\u9e97\u9583\u7d2f\u5203\u30a8\u30eb\u30ab\u30c0\u30b9\u300d\u306e\u4f5c\u308a\u65b9\u304c\u8f09\u3063\u3066\u3044\u308b\u624b\u9806\u66f8\u3002\n\u30b9\u30d5\u30a3\u30a2\u751f\u6210\u3067\u300c\u9e97\u9583\u7d2f\u5203\u30a8\u30eb\u30ab\u30c0\u30b9\u300d\u304c\u4f5c\u308c\u308b\u3088\u3046\u306b\u306a\u308b\u3002",
        "P_COMMENT_GETTABLE": ""
    },
    {
        "P_IMPORTANT_ITEM_ID": "30118",
        "P_EXPLAIN_SHORT": "\u300c\u6fc0\u6bb2\u5203\u30a6\u30eb\u30d6\u30e9\u30a4\u30b0\u300d\u306e\u4f5c\u308a\u65b9\u304c\u8f09\u3063\u3066\u3044\u308b\u624b\u9806\u66f8",
        "P_EXTRA_TEXT": "\u300c\u6fc0\u6bb2\u5203\u30a6\u30eb\u30d6\u30e9\u30a4\u30b0\u300d\u306e\u4f5c\u308a\u65b9\u304c\u8f09\u3063\u3066\u3044\u308b\u624b\u9806\u66f8\u3002\n\u30b9\u30d5\u30a3\u30a2\u751f\u6210\u3067\u300c\u6fc0\u6bb2\u5203\u30a6\u30eb\u30d6\u30e9\u30a4\u30b0\u300d\u304c\u4f5c\u308c\u308b\u3088\u3046\u306b\u306a\u308b\u3002",
        "P_COMMENT_GETTABLE": ""
    },
    {
        "P_IMPORTANT_ITEM_ID": "30119",
        "P_EXPLAIN_SHORT": "\u300c\u5805\u57ce\u7532\u30f4\u30a7\u30bf\u30eb\u30ae\u30b9\u300d\u306e\u4f5c\u308a\u65b9\u304c\u8f09\u3063\u3066\u3044\u308b\u624b\u9806\u66f8",
        "P_EXTRA_TEXT": "\u300c\u5805\u57ce\u7532\u30f4\u30a7\u30bf\u30eb\u30ae\u30b9\u300d\u306e\u4f5c\u308a\u65b9\u304c\u8f09\u3063\u3066\u3044\u308b\u624b\u9806\u66f8\u3002\n\u30b9\u30d5\u30a3\u30a2\u751f\u6210\u3067\u300c\u5805\u57ce\u7532\u30f4\u30a7\u30bf\u30eb\u30ae\u30b9\u300d\u304c\u4f5c\u308c\u308b\u3088\u3046\u306b\u306a\u308b\u3002",
        "P_COMMENT_GETTABLE": ""
    },
    {
        "P_IMPORTANT_ITEM_ID": "30120",
        "P_EXPLAIN_SHORT": "\u300c\u30bb\u30c6\u30eb\u30ae\u30a2\u306e\u518d\u9192\u93a7\u300d\u306e\u4f5c\u308a\u65b9\u304c\u8f09\u3063\u3066\u3044\u308b\u624b\u9806\u66f8",
        "P_EXTRA_TEXT": "\u300c\u30bb\u30c6\u30eb\u30ae\u30a2\u306e\u518d\u9192\u93a7\u300d\u306e\u4f5c\u308a\u65b9\u304c\u8f09\u3063\u3066\u3044\u308b\u624b\u9806\u66f8\u3002\n\u30b9\u30d5\u30a3\u30a2\u751f\u6210\u3067\u300c\u30bb\u30c6\u30eb\u30ae\u30a2\u306e\u518d\u9192\u93a7\u300d\u304c\u4f5c\u308c\u308b\u3088\u3046\u306b\u306a\u308b\u3002",
        "P_COMMENT_GETTABLE": ""
    },
    {
        "P_IMPORTANT_ITEM_ID": "30121",
        "P_EXPLAIN_SHORT": "\u300c\u9b54\u6676\u5236\u5fa1\u4e09\u578b\u300e\u708e\u5929\u300f\u300d\u306e\u4f5c\u308a\u65b9\u304c\u8f09\u3063\u3066\u3044\u308b\u624b\u9806\u66f8",
        "P_EXTRA_TEXT": "\u300c\u9b54\u6676\u5236\u5fa1\u4e09\u578b\u300e\u708e\u5929\u300f\u300d\u306e\u4f5c\u308a\u65b9\u304c\u8f09\u3063\u3066\u3044\u308b\u624b\u9806\u66f8\u3002\n\u30b9\u30d5\u30a3\u30a2\u751f\u6210\u3067\u300c\u9b54\u6676\u5236\u5fa1\u4e09\u578b\u300e\u708e\u5929\u300f\u300d\u304c\u4f5c\u308c\u308b\u3088\u3046\u306b\u306a\u308b\u3002",
        "P_COMMENT_GETTABLE": ""
    },
    {
        "P_IMPORTANT_ITEM_ID": "30122",
        "P_EXPLAIN_SHORT": "\u300c\u9b54\u6676\u5909\u6027\u8a66\u4f5c\u300e\u5b9d\u661f\u300f\u300d\u306e\u4f5c\u308a\u65b9\u304c\u8f09\u3063\u3066\u3044\u308b\u624b\u9806\u66f8",
        "P_EXTRA_TEXT": "\u300c\u9b54\u6676\u5909\u6027\u8a66\u4f5c\u300e\u5b9d\u661f\u300f\u300d\u306e\u4f5c\u308a\u65b9\u304c\u8f09\u3063\u3066\u3044\u308b\u624b\u9806\u66f8\u3002\n\u30b9\u30d5\u30a3\u30a2\u751f\u6210\u3067\u300c\u9b54\u6676\u5909\u6027\u8a66\u4f5c\u300e\u5b9d\u661f\u300f\u300d\u304c\u4f5c\u308c\u308b\u3088\u3046\u306b\u306a\u308b\u3002",
        "P_COMMENT_GETTABLE": ""
    },
    {
        "P_IMPORTANT_ITEM_ID": "30123",
        "P_EXPLAIN_SHORT": "\u300c\u7d46\u5b9d\u300e\u30c9\u30e9\u30a4\u30d5\u30a1\u30b9\u300f\u300d\u306e\u4f5c\u308a\u65b9\u304c\u8f09\u3063\u3066\u3044\u308b\u624b\u9806\u66f8",
        "P_EXTRA_TEXT": "\u300c\u7d46\u5b9d\u300e\u30c9\u30e9\u30a4\u30d5\u30a1\u30b9\u300f\u300d\u306e\u4f5c\u308a\u65b9\u304c\u8f09\u3063\u3066\u3044\u308b\u624b\u9806\u66f8\u3002\n\u30b9\u30d5\u30a3\u30a2\u751f\u6210\u3067\u300c\u7d46\u5b9d\u300e\u30c9\u30e9\u30a4\u30d5\u30a1\u30b9\u300f\u300d\u304c\u4f5c\u308c\u308b\u3088\u3046\u306b\u306a\u308b\u3002",
        "P_COMMENT_GETTABLE": ""
    },
    {
        "P_IMPORTANT_ITEM_ID": "30124",
        "P_EXPLAIN_SHORT": "\u300c\u8d85\u7d1a\u30c8\u30ea\u30a2\u30d5\u30a9\u30bf\u52f2\u7ae0\u300d\u306e\u4f5c\u308a\u65b9\u304c\u8f09\u3063\u3066\u3044\u308b\u624b\u9806\u66f8",
        "P_EXTRA_TEXT": "\u300c\u8d85\u7d1a\u30c8\u30ea\u30a2\u30d5\u30a9\u30bf\u52f2\u7ae0\u300d\u306e\u4f5c\u308a\u65b9\u304c\u8f09\u3063\u3066\u3044\u308b\u624b\u9806\u66f8\u3002\n\u30b9\u30d5\u30a3\u30a2\u751f\u6210\u3067\u300c\u8d85\u7d1a\u30c8\u30ea\u30a2\u30d5\u30a9\u30bf\u52f2\u7ae0\u300d\u304c\u4f5c\u308c\u308b\u3088\u3046\u306b\u306a\u308b\u3002",
        "P_COMMENT_GETTABLE": ""
    },
    {
        "P_IMPORTANT_ITEM_ID": "30125",
        "P_EXPLAIN_SHORT": "\u300c\u5e0c\u5b9d\u300e\u30af\u30ed\u30a8\u30c7\u30fc\u30eb\u300f\u300d\u306e\u4f5c\u308a\u65b9\u304c\u8f09\u3063\u3066\u3044\u308b\u624b\u9806\u66f8",
        "P_EXTRA_TEXT": "\u300c\u5e0c\u5b9d\u300e\u30af\u30ed\u30a8\u30c7\u30fc\u30eb\u300f\u300d\u306e\u4f5c\u308a\u65b9\u304c\u8f09\u3063\u3066\u3044\u308b\u624b\u9806\u66f8\u3002\n\u30b9\u30d5\u30a3\u30a2\u751f\u6210\u3067\u300c\u5e0c\u5b9d\u300e\u30af\u30ed\u30a8\u30c7\u30fc\u30eb\u300f\u300d\u304c\u4f5c\u308c\u308b\u3088\u3046\u306b\u306a\u308b\u3002",
        "P_COMMENT_GETTABLE": ""
    },
    {
        "P_IMPORTANT_ITEM_ID": "30126",
        "P_EXPLAIN_SHORT": "\u300c\u5275\u4e16\u306e\u77f3\u7248\u300d\u306e\u4f5c\u308a\u65b9\u304c\u8f09\u3063\u3066\u3044\u308b\u624b\u9806\u66f8",
        "P_EXTRA_TEXT": "\u300c\u5275\u4e16\u306e\u77f3\u7248\u300d\u306e\u4f5c\u308a\u65b9\u304c\u8f09\u3063\u3066\u3044\u308b\u624b\u9806\u66f8\u3002\n\u30b9\u30d5\u30a3\u30a2\u751f\u6210\u3067\u300c\u5275\u4e16\u306e\u77f3\u7248\u300d\u304c\u4f5c\u308c\u308b\u3088\u3046\u306b\u306a\u308b\u3002",
        "P_COMMENT_GETTABLE": ""
    },
    {
        "P_IMPORTANT_ITEM_ID": "30127",
        "P_EXPLAIN_SHORT": "\u300c\u30e1\u30a4\u30c6\u30b9\u30ab\u306e\u8056\u676f\u300d\u306e\u4f5c\u308a\u65b9\u304c\u8f09\u3063\u3066\u3044\u308b\u624b\u9806\u66f8",
        "P_EXTRA_TEXT": "\u300c\u30e1\u30a4\u30c6\u30b9\u30ab\u306e\u8056\u676f\u300d\u306e\u4f5c\u308a\u65b9\u304c\u8f09\u3063\u3066\u3044\u308b\u624b\u9806\u66f8\u3002\n\u30b9\u30d5\u30a3\u30a2\u751f\u6210\u3067\u300c\u30e1\u30a4\u30c6\u30b9\u30ab\u306e\u8056\u676f\u300d\u304c\u4f5c\u308c\u308b\u3088\u3046\u306b\u306a\u308b\u3002",
        "P_COMMENT_GETTABLE": ""
    },
    {
        "P_IMPORTANT_ITEM_ID": "30128",
        "P_EXPLAIN_SHORT": "\u300c\u53e4\u795e\u51a5\u88c5\u30ab\u30e0\u30b7\u30b0\u30e9\u30eb\u300d\u306e\u4f5c\u308a\u65b9\u304c\u8f09\u3063\u3066\u3044\u308b\u624b\u9806\u66f8",
        "P_EXTRA_TEXT": "\u300c\u53e4\u795e\u51a5\u88c5\u30ab\u30e0\u30b7\u30b0\u30e9\u30eb\u300d\u306e\u4f5c\u308a\u65b9\u304c\u8f09\u3063\u3066\u3044\u308b\u624b\u9806\u66f8\u3002\n\u30b9\u30d5\u30a3\u30a2\u751f\u6210\u3067\u300c\u53e4\u795e\u51a5\u88c5\u30ab\u30e0\u30b7\u30b0\u30e9\u30eb\u300d\u304c\u4f5c\u308c\u308b\u3088\u3046\u306b\u306a\u308b\u3002",
        "P_COMMENT_GETTABLE": ""
    },
    {
        "P_IMPORTANT_ITEM_ID": "30129",
        "P_EXPLAIN_SHORT": "\u300c\u9583\u65ac\u6f70\u5203\u30e6\u30fc\u30b0\u30ac\u30ec\u30b9\u300d\u306e\u4f5c\u308a\u65b9\u304c\u8f09\u3063\u3066\u3044\u308b\u624b\u9806\u66f8",
        "P_EXTRA_TEXT": "\u300c\u9583\u65ac\u6f70\u5203\u30e6\u30fc\u30b0\u30ac\u30ec\u30b9\u300d\u306e\u4f5c\u308a\u65b9\u304c\u8f09\u3063\u3066\u3044\u308b\u624b\u9806\u66f8\u3002\n\u30b9\u30d5\u30a3\u30a2\u751f\u6210\u3067\u300c\u9583\u65ac\u6f70\u5203\u30e6\u30fc\u30b0\u30ac\u30ec\u30b9\u300d\u304c\u4f5c\u308c\u308b\u3088\u3046\u306b\u306a\u308b\u3002",
        "P_COMMENT_GETTABLE": ""
    },
    {
        "P_IMPORTANT_ITEM_ID": "30130",
        "P_EXPLAIN_SHORT": "\u300c\u5954\u5d50\u6bb2\u5203\u30f4\u30a9\u30eb\u30c7\u30a4\u30eb\u300d\u306e\u4f5c\u308a\u65b9\u304c\u8f09\u3063\u3066\u3044\u308b\u624b\u9806\u66f8",
        "P_EXTRA_TEXT": "\u300c\u5954\u5d50\u6bb2\u5203\u30f4\u30a9\u30eb\u30c7\u30a4\u30eb\u300d\u306e\u4f5c\u308a\u65b9\u304c\u8f09\u3063\u3066\u3044\u308b\u624b\u9806\u66f8\u3002\n\u30b9\u30d5\u30a3\u30a2\u751f\u6210\u3067\u300c\u5954\u5d50\u6bb2\u5203\u30f4\u30a9\u30eb\u30c7\u30a4\u30eb\u300d\u304c\u4f5c\u308c\u308b\u3088\u3046\u306b\u306a\u308b\u3002",
        "P_COMMENT_GETTABLE": ""
    },
    {
        "P_IMPORTANT_ITEM_ID": "30131",
        "P_EXPLAIN_SHORT": "\u300c\u4e0d\u9665\u525b\u7532\u30c7\u30eb\u30de\u30b8\u30ce\u300d\u306e\u4f5c\u308a\u65b9\u304c\u8f09\u3063\u3066\u3044\u308b\u624b\u9806\u66f8",
        "P_EXTRA_TEXT": "\u300c\u4e0d\u9665\u525b\u7532\u30c7\u30eb\u30de\u30b8\u30ce\u300d\u306e\u4f5c\u308a\u65b9\u304c\u8f09\u3063\u3066\u3044\u308b\u624b\u9806\u66f8\u3002\n\u30b9\u30d5\u30a3\u30a2\u751f\u6210\u3067\u300c\u4e0d\u9665\u525b\u7532\u30c7\u30eb\u30de\u30b8\u30ce\u300d\u304c\u4f5c\u308c\u308b\u3088\u3046\u306b\u306a\u308b\u3002",
        "P_COMMENT_GETTABLE": ""
    },
    {
        "P_IMPORTANT_ITEM_ID": "30132",
        "P_EXPLAIN_SHORT": "\u300c\u30ab\u30f3\u30c7\u30eb\u30b0\u306e\u6c38\u8f2a\u5efb\u7532\u300d\u306e\u4f5c\u308a\u65b9\u304c\u8f09\u3063\u3066\u3044\u308b\u624b\u9806\u66f8",
        "P_EXTRA_TEXT": "\u300c\u30ab\u30f3\u30c7\u30eb\u30b0\u306e\u6c38\u8f2a\u5efb\u7532\u300d\u306e\u4f5c\u308a\u65b9\u304c\u8f09\u3063\u3066\u3044\u308b\u624b\u9806\u66f8\u3002\n\u30b9\u30d5\u30a3\u30a2\u751f\u6210\u3067\u300c\u30ab\u30f3\u30c7\u30eb\u30b0\u306e\u6c38\u8f2a\u5efb\u7532\u300d\u304c\u4f5c\u308c\u308b\u3088\u3046\u306b\u306a\u308b\u3002",
        "P_COMMENT_GETTABLE": ""
    },
    {
        "P_IMPORTANT_ITEM_ID": "30133",
        "P_EXPLAIN_SHORT": "\u300c\u9b54\u6676\u5236\u5fa1\u56db\u578b\u300e\u7687\u5929\u300f\u300d\u306e\u4f5c\u308a\u65b9\u304c\u8f09\u3063\u3066\u3044\u308b\u624b\u9806\u66f8",
        "P_EXTRA_TEXT": "\u300c\u9b54\u6676\u5236\u5fa1\u56db\u578b\u300e\u7687\u5929\u300f\u300d\u306e\u4f5c\u308a\u65b9\u304c\u8f09\u3063\u3066\u3044\u308b\u624b\u9806\u66f8\u3002\n\u30b9\u30d5\u30a3\u30a2\u751f\u6210\u3067\u300c\u9b54\u6676\u5236\u5fa1\u56db\u578b\u300e\u7687\u5929\u300f\u300d\u304c\u4f5c\u308c\u308b\u3088\u3046\u306b\u306a\u308b\u3002",
        "P_COMMENT_GETTABLE": ""
    },
    {
        "P_IMPORTANT_ITEM_ID": "30134",
        "P_EXPLAIN_SHORT": "\u300c\u9b54\u6676\u5909\u6027\u8a66\u4f5c\u300e\u7a00\u661f\u300f\u300d\u306e\u4f5c\u308a\u65b9\u304c\u8f09\u3063\u3066\u3044\u308b\u624b\u9806\u66f8",
        "P_EXTRA_TEXT": "\u300c\u9b54\u6676\u5909\u6027\u8a66\u4f5c\u300e\u7a00\u661f\u300f\u300d\u306e\u4f5c\u308a\u65b9\u304c\u8f09\u3063\u3066\u3044\u308b\u624b\u9806\u66f8\u3002\n\u30b9\u30d5\u30a3\u30a2\u751f\u6210\u3067\u300c\u9b54\u6676\u5909\u6027\u8a66\u4f5c\u300e\u7a00\u661f\u300f\u300d\u304c\u4f5c\u308c\u308b\u3088\u3046\u306b\u306a\u308b\u3002",
        "P_COMMENT_GETTABLE": ""
    },
    {
        "P_IMPORTANT_ITEM_ID": "30135",
        "P_EXPLAIN_SHORT": "\u300c\u7d46\u5b9d\u300e\u30ab\u30c8\u30eb\u30ec\u30f3\u30c8\u300f\u300d\u306e\u4f5c\u308a\u65b9\u304c\u8f09\u3063\u3066\u3044\u308b\u624b\u9806\u66f8",
        "P_EXTRA_TEXT": "\u300c\u7d46\u5b9d\u300e\u30ab\u30c8\u30eb\u30ec\u30f3\u30c8\u300f\u300d\u306e\u4f5c\u308a\u65b9\u304c\u8f09\u3063\u3066\u3044\u308b\u624b\u9806\u66f8\u3002\n\u30b9\u30d5\u30a3\u30a2\u751f\u6210\u3067\u300c\u7d46\u5b9d\u300e\u30ab\u30c8\u30eb\u30ec\u30f3\u30c8\u300f\u300d\u304c\u4f5c\u308c\u308b\u3088\u3046\u306b\u306a\u308b\u3002",
        "P_COMMENT_GETTABLE": ""
    },
    {
        "P_IMPORTANT_ITEM_ID": "30136",
        "P_EXPLAIN_SHORT": "\u300c\u771f\u7d1a\u30da\u30f3\u30c6\u30d5\u30a9\u30bf\u52f2\u7ae0\u300d\u306e\u4f5c\u308a\u65b9\u304c\u8f09\u3063\u3066\u3044\u308b\u624b\u9806\u66f8",
        "P_EXTRA_TEXT": "\u300c\u771f\u7d1a\u30da\u30f3\u30c6\u30d5\u30a9\u30bf\u52f2\u7ae0\u300d\u306e\u4f5c\u308a\u65b9\u304c\u8f09\u3063\u3066\u3044\u308b\u624b\u9806\u66f8\u3002\n\u30b9\u30d5\u30a3\u30a2\u751f\u6210\u3067\u300c\u771f\u7d1a\u30da\u30f3\u30c6\u30d5\u30a9\u30bf\u52f2\u7ae0\u300d\u304c\u4f5c\u308c\u308b\u3088\u3046\u306b\u306a\u308b\u3002",
        "P_COMMENT_GETTABLE": ""
    },
    {
        "P_IMPORTANT_ITEM_ID": "30137",
        "P_EXPLAIN_SHORT": "\u300c\u9b54\u5b9d\u300e\u30bc\u30a2\u30ad\u30a2\u300f\u300d\u306e\u4f5c\u308a\u65b9\u304c\u8f09\u3063\u3066\u3044\u308b\u624b\u9806\u66f8",
        "P_EXTRA_TEXT": "\u300c\u9b54\u5b9d\u300e\u30bc\u30a2\u30ad\u30a2\u300f\u300d\u306e\u4f5c\u308a\u65b9\u304c\u8f09\u3063\u3066\u3044\u308b\u624b\u9806\u66f8\u3002\n\u30b9\u30d5\u30a3\u30a2\u751f\u6210\u3067\u300c\u9b54\u5b9d\u300e\u30bc\u30a2\u30ad\u30a2\u300f\u300d\u304c\u4f5c\u308c\u308b\u3088\u3046\u306b\u306a\u308b\u3002",
        "P_COMMENT_GETTABLE": ""
    },
    {
        "P_IMPORTANT_ITEM_ID": "30138",
        "P_EXPLAIN_SHORT": "\u300c\u9706\u939a\u30de\u30c7\u30a4\u30b2\u30eb\u300d\u306e\u4f5c\u308a\u65b9\u304c\u8f09\u3063\u3066\u3044\u308b\u624b\u9806\u66f8",
        "P_EXTRA_TEXT": "\u300c\u9706\u939a\u30de\u30c7\u30a4\u30b2\u30eb\u300d\u306e\u4f5c\u308a\u65b9\u304c\u8f09\u3063\u3066\u3044\u308b\u624b\u9806\u66f8\u3002\n\u30b9\u30d5\u30a3\u30a2\u751f\u6210\u3067\u300c\u9706\u939a\u30de\u30c7\u30a4\u30b2\u30eb\u300d\u304c\u4f5c\u308c\u308b\u3088\u3046\u306b\u306a\u308b\u3002",
        "P_COMMENT_GETTABLE": ""
    }
]