[
    {
        "7kMI1Pmw": "1",
        "P_NAME": "\u767d",
        "FY3zMh6H": "255,255,255",
        "P_NEED_SWITCH_INFO": "",
        "P_HIDE_SWITCH_INFO": "",
        "P_OPEN_SWITCH_INFO": ""
    },
    {
        "7kMI1Pmw": "2",
        "P_NAME": "\u8d64",
        "FY3zMh6H": "249,37,0",
        "P_NEED_SWITCH_INFO": "72000001",
        "P_HIDE_SWITCH_INFO": "",
        "P_OPEN_SWITCH_INFO": ""
    },
    {
        "7kMI1Pmw": "3",
        "P_NAME": "\u7dd1",
        "FY3zMh6H": "0,255,65",
        "P_NEED_SWITCH_INFO": "72000002",
        "P_HIDE_SWITCH_INFO": "",
        "P_OPEN_SWITCH_INFO": ""
    },
    {
        "7kMI1Pmw": "4",
        "P_NAME": "\u6c34\u8272",
        "FY3zMh6H": "119,254,249",
        "P_NEED_SWITCH_INFO": "72000003",
        "P_HIDE_SWITCH_INFO": "",
        "P_OPEN_SWITCH_INFO": ""
    },
    {
        "7kMI1Pmw": "5",
        "P_NAME": "\u30d4\u30f3\u30af",
        "FY3zMh6H": "255,192,203",
        "P_NEED_SWITCH_INFO": "72000004",
        "P_HIDE_SWITCH_INFO": "",
        "P_OPEN_SWITCH_INFO": ""
    },
    {
        "7kMI1Pmw": "6",
        "P_NAME": "\u9ec4",
        "FY3zMh6H": "255,255,0",
        "P_NEED_SWITCH_INFO": "72000005",
        "P_HIDE_SWITCH_INFO": "",
        "P_OPEN_SWITCH_INFO": ""
    },
    {
        "7kMI1Pmw": "7",
        "P_NAME": "\u6a59",
        "FY3zMh6H": "255,183,76",
        "P_NEED_SWITCH_INFO": "72000006",
        "P_HIDE_SWITCH_INFO": "",
        "P_OPEN_SWITCH_INFO": ""
    },
    {
        "7kMI1Pmw": "8",
        "P_NAME": "\u7d2b",
        "FY3zMh6H": "167,107,223",
        "P_NEED_SWITCH_INFO": "72000007",
        "P_HIDE_SWITCH_INFO": "",
        "P_OPEN_SWITCH_INFO": ""
    }
]