5,0,0,3,
6,0,0,3,
7,0,0,4,
8,0,0,7,
9,0,0,1,
10,0,0,1,
11,0,0,1,
12,0,0,1,
13,0,0,1,
14,0,0,1,
15,0,0,1,
16,0,0,1,
17,0,0,1,
18,0,0,1,
19,0,0,1,
20,0,0,3,
21,0,0,3,
22,0,0,3,
23,0,0,4,
24,0,0,4,
25,0,0,10,
26,0,0,5,
27,0,0,5,
28,0,0,5,
29,0,0,6,
30,0,0,6,
31,0,0,7,
32,0,0,7,
33,0,0,7,
34,0,0,6,
35,0,0,6,
36,0,0,6,
37,0,0,5,
38,0,0,4,
