7,0,0,4,
8,0,0,8,
10,0,0,5,
11,0,0,5,
12,0,0,5,
13,0,0,4,
14,0,0,4,
15,0,0,4,
16,0,0,5,
17,0,0,6,
18,0,0,8,
21,0,0,7,
22,0,0,3,
23,0,0,9,
24,0,0,3,
25,0,0,9,
26,0,0,3,
27,0,0,7,
29,0,0,6,
30,0,0,3,
31,0,0,3,
32,0,0,5,
33,0,0,19,
