10,0,0,1,
11,0,0,3,
12,0,0,4,
13,0,0,7,
14,0,0,6,
15,0,0,6,
16,0,0,6,
17,0,0,3,
18,0,0,3,
19,0,0,3,
20,0,0,3,
21,0,0,3,
22,0,0,3,
23,0,0,3,
24,0,0,3,
25,0,0,3,
26,0,0,3,
27,0,0,3,
28,0,0,3,
29,0,0,3,
30,0,0,3,
31,0,0,3,
32,0,0,3,
33,0,0,3,
34,0,0,3,
35,0,0,3,
36,0,0,3,
37,0,0,3,
38,0,0,3,
39,0,0,3,
40,0,0,3,
41,0,0,3,
42,0,0,3,
43,0,0,3,
44,0,0,3,
45,0,0,3,
46,0,0,4,
47,0,0,6,
48,0,0,7,
49,0,0,7,
50,0,0,6,
51,0,0,2,
52,0,0,2,
53,0,0,2,
54,0,0,3,
55,0,0,4,
56,0,0,6,
57,0,0,7,
58,0,0,7,
59,0,0,9,
60,0,0,9,
61,0,0,9,
62,0,0,9,
63,0,0,9,
64,0,0,10,
65,0,0,14,
