23,0,0,6,
24,0,0,3,
25,0,0,3,
26,0,0,3,
27,0,0,3,
28,0,0,3,
29,0,0,4,
30,0,0,3,
31,0,0,5,
32,0,0,4,
33,0,0,3,
34,0,0,5,
35,0,0,4,
36,0,0,5,
37,0,0,5,
38,0,0,3,
39,0,0,3,
40,0,0,4,
41,0,0,5,
42,0,0,3,
43,0,0,8,
44,0,0,6,
45,0,0,6,
46,0,0,15,
