5,0,0,6,
6,0,0,4,
7,0,0,4,
8,0,0,4,
9,0,0,6,
10,0,0,12,
11,0,0,4,
12,0,0,3,
13,0,0,2,
14,0,0,2,
15,0,0,2,
16,0,0,3,
17,0,0,3,
18,0,0,2,
19,0,0,3,
20,0,0,2,
21,0,0,8,
22,0,0,4,
23,0,0,3,
24,0,0,2,
25,0,0,2,
26,0,0,3,
27,0,0,3,
28,0,0,2,
29,0,0,10,
30,0,0,6,
31,0,0,4,
32,0,0,6,
33,0,0,8,
34,0,0,12,
35,0,0,8,
36,0,0,10,
