5,0,0,3,
6,0,0,7,
7,0,0,6,
8,0,0,6,
9,0,0,10,
10,0,0,5,
11,0,0,1,
12,0,0,1,
13,0,0,1,
14,0,0,1,
15,0,0,1,
16,0,0,1,
17,0,0,1,
18,0,0,1,
19,0,0,1,
20,0,0,1,
21,0,0,1,
22,0,0,3,
23,0,0,3,
24,0,0,3,
25,0,0,4,
26,0,0,4,
27,0,0,10,
28,0,0,5,
29,0,0,5,
30,0,0,5,
31,0,0,5,
32,0,0,6,
33,0,0,6,
34,0,0,6,
35,0,0,7,
36,0,0,7,
37,0,0,7,
38,0,0,6,
39,0,0,6,
40,0,0,6,
41,0,0,5,
42,0,0,4,
43,0,0,12,
