5,0,0,4,
6,0,0,4,
7,0,0,3,
8,0,0,4,
52,0,0,4,
53,0,0,4,
9,0,0,3,
10,0,0,4,
11,0,0,3,
12,0,0,4,
13,0,0,5,
14,0,0,6,
15,0,0,8,
16,0,0,3,
17,0,0,4,
18,0,0,5,
50,0,0,5,
19,0,0,5,
20,0,0,4,
21,0,0,3,
22,0,0,3,
23,0,0,3,
24,0,0,7,
25,0,0,4,
26,0,0,4,
27,0,0,4,
28,0,0,4,
29,0,0,4,
30,0,0,4,
31,0,0,4,
32,0,0,10,
51,0,0,3,
0,0,0,5,
