6,0,0,8,
7,0,0,8,
8,0,0,4,
9,0,0,4,
10,0,0,4,
11,0,0,4,
12,0,0,5,
13,0,0,4,
12,0,0,4,
13,0,0,4,
14,0,0,4,
15,0,0,5,
16,0,0,2,
17,0,0,3,
18,0,0,5,
19,0,0,5,
20,0,0,5,
21,0,0,5,
22,0,0,5,
23,0,0,5,
24,0,0,6,
25,0,0,5,
26,0,0,3,
27,0,0,15,
