47,0,0,3,
48,0,0,3,
49,0,0,7,
50,0,0,7,
51,0,0,7,
52,0,0,6,
53,0,0,6,
54,0,0,6,
55,0,0,6,
56,0,0,6,
57,0,0,6,
58,0,0,6,
59,0,0,6,
60,0,0,6,
61,0,0,6,
62,0,0,6,
63,0,0,7,
64,0,0,7,
65,0,0,7,
66,0,0,7,
67,0,0,7,
68,0,0,7,
