47,0,0,3,
48,0,0,3,
49,0,0,7,
50,0,0,7,
51,0,0,7,
52,0,0,5,
53,0,0,5,
54,0,0,5,
55,0,0,5,
56,0,0,4,
57,0,0,4,
58,0,0,4,
59,0,0,4,
60,0,0,4,
61,0,0,4,
62,0,0,4,
63,0,0,5,
64,0,0,6,
65,0,0,7,
66,0,0,8,
67,0,0,8,
68,0,0,8,
69,0,0,8,
70,0,0,8,
