5,0,0,6,
6,0,0,6,
7,0,0,3,
8,0,0,3,
9,0,0,3,
10,0,0,3,
11,0,0,3,
12,0,0,3,
13,0,0,3,
14,0,0,3,
15,0,0,3,
16,0,0,3,
17,0,0,3,
18,0,0,3,
19,0,0,7,
20,0,0,7,
21,0,0,3,
23,0,0,7,
24,0,0,5,
40,0,0,6,
41,0,0,10,
