5,0,0,8,
6,0,0,12,
7,0,0,8,
8,0,0,6,
9,0,0,3,
10,0,0,3,
11,0,0,5,
12,0,0,6,
13,0,0,4,
14,0,0,2,
15,0,0,12,
16,0,0,10,
17,0,0,6,
18,0,0,4,
19,0,0,4,
20,0,0,2,
21,0,0,5,
22,0,0,12,
23,0,0,10,
24,0,0,10,
25,0,0,2,
26,0,0,2,
27,0,0,2,
28,0,0,2,
29,0,0,7,
30,0,0,15,
