38,0,0,8,
39,0,0,4,
40,0,0,4,
42,0,0,4,
43,0,0,2,
44,0,0,2,
45,0,0,4,
47,0,0,6,
48,0,0,6,
49,0,0,6,
50,0,0,6,
51,0,0,6,
52,0,0,6,
53,0,0,8,
54,0,0,10,
55,0,0,4,
57,0,0,2,
58,0,0,2,
59,0,0,4,
60,0,0,2,
61,0,0,2,
62,0,0,4,
63,0,0,2,
