9,0,0,8,
10,0,0,5,
11,0,0,4,
12,0,0,3,
13,0,0,3,
14,0,0,4,
15,0,0,4,
16,0,0,3,
17,0,0,3,
18,0,0,3,
19,0,0,3,
20,0,0,3,
21,0,0,3,
22,0,0,5,
23,0,0,3,
24,0,0,3,
25,0,0,3,
26,0,0,3,
27,0,0,5,
28,0,0,8,
29,0,0,6,
30,0,0,6,
31,0,0,6,
32,0,0,4,
33,0,0,10,
