[
    {
        "P_MISSION_ID": "1",
        "CE1V8ozW": "1",
        "v5yn07L3": "0",
        "swzqU9m5": "0",
        "auypw76W": "",
        "biX6Z83J": ""
    },
    {
        "P_MISSION_ID": "2",
        "CE1V8ozW": "2",
        "v5yn07L3": "0",
        "swzqU9m5": "0",
        "auypw76W": "",
        "biX6Z83J": ""
    },
    {
        "P_MISSION_ID": "3",
        "CE1V8ozW": "3",
        "v5yn07L3": "0",
        "swzqU9m5": "0",
        "auypw76W": "",
        "biX6Z83J": ""
    },
    {
        "P_MISSION_ID": "101",
        "CE1V8ozW": "101",
        "v5yn07L3": "1,10",
        "swzqU9m5": "0",
        "auypw76W": "",
        "biX6Z83J": ""
    },
    {
        "P_MISSION_ID": "102",
        "CE1V8ozW": "101",
        "v5yn07L3": "1,10",
        "swzqU9m5": "0",
        "auypw76W": "",
        "biX6Z83J": ""
    },
    {
        "P_MISSION_ID": "503",
        "CE1V8ozW": "104",
        "v5yn07L3": "1,10",
        "swzqU9m5": "0",
        "auypw76W": "",
        "biX6Z83J": ""
    },
    {
        "P_MISSION_ID": "504",
        "CE1V8ozW": "0",
        "v5yn07L3": "34",
        "swzqU9m5": "0",
        "auypw76W": "",
        "biX6Z83J": ""
    },
    {
        "P_MISSION_ID": "610",
        "CE1V8ozW": "110",
        "v5yn07L3": "0",
        "swzqU9m5": "0",
        "auypw76W": "",
        "biX6Z83J": ""
    },
    {
        "P_MISSION_ID": "810",
        "CE1V8ozW": "111",
        "v5yn07L3": "0",
        "swzqU9m5": "0",
        "auypw76W": "",
        "biX6Z83J": ""
    },
    {
        "P_MISSION_ID": "811",
        "CE1V8ozW": "112",
        "v5yn07L3": "0",
        "swzqU9m5": "0",
        "auypw76W": "",
        "biX6Z83J": ""
    },
    {
        "P_MISSION_ID": "904",
        "CE1V8ozW": "103",
        "v5yn07L3": "1,10",
        "swzqU9m5": "0",
        "auypw76W": "",
        "biX6Z83J": ""
    },
    {
        "P_MISSION_ID": "910",
        "CE1V8ozW": "113",
        "v5yn07L3": "0",
        "swzqU9m5": "0",
        "auypw76W": "",
        "biX6Z83J": ""
    },
    {
        "P_MISSION_ID": "952",
        "CE1V8ozW": "0",
        "v5yn07L3": "34",
        "swzqU9m5": "0",
        "auypw76W": "",
        "biX6Z83J": ""
    },
    {
        "P_MISSION_ID": "1001",
        "CE1V8ozW": "201",
        "v5yn07L3": "3,10",
        "swzqU9m5": "0",
        "auypw76W": "",
        "biX6Z83J": ""
    },
    {
        "P_MISSION_ID": "1002",
        "CE1V8ozW": "201",
        "v5yn07L3": "3,10",
        "swzqU9m5": "0",
        "auypw76W": "",
        "biX6Z83J": ""
    },
    {
        "P_MISSION_ID": "1010",
        "CE1V8ozW": "207",
        "v5yn07L3": "0",
        "swzqU9m5": "0",
        "auypw76W": "",
        "biX6Z83J": ""
    },
    {
        "P_MISSION_ID": "1101",
        "CE1V8ozW": "202",
        "v5yn07L3": "3,10",
        "swzqU9m5": "0",
        "auypw76W": "",
        "biX6Z83J": ""
    },
    {
        "P_MISSION_ID": "1102",
        "CE1V8ozW": "202",
        "v5yn07L3": "3,10",
        "swzqU9m5": "0",
        "auypw76W": "",
        "biX6Z83J": ""
    },
    {
        "P_MISSION_ID": "2001",
        "CE1V8ozW": "203",
        "v5yn07L3": "3,10",
        "swzqU9m5": "0",
        "auypw76W": "",
        "biX6Z83J": ""
    },
    {
        "P_MISSION_ID": "2201",
        "CE1V8ozW": "202",
        "v5yn07L3": "3,10",
        "swzqU9m5": "0",
        "auypw76W": "",
        "biX6Z83J": ""
    },
    {
        "P_MISSION_ID": "2203",
        "CE1V8ozW": "0",
        "v5yn07L3": "3,34",
        "swzqU9m5": "0",
        "auypw76W": "",
        "biX6Z83J": ""
    },
    {
        "P_MISSION_ID": "2252",
        "CE1V8ozW": "0",
        "v5yn07L3": "34",
        "swzqU9m5": "0",
        "auypw76W": "",
        "biX6Z83J": ""
    },
    {
        "P_MISSION_ID": "2601",
        "CE1V8ozW": "105",
        "v5yn07L3": "2,10",
        "swzqU9m5": "0",
        "auypw76W": "",
        "biX6Z83J": ""
    },
    {
        "P_MISSION_ID": "2602",
        "CE1V8ozW": "105",
        "v5yn07L3": "2,10",
        "swzqU9m5": "0",
        "auypw76W": "",
        "biX6Z83J": ""
    },
    {
        "P_MISSION_ID": "2610",
        "CE1V8ozW": "114",
        "v5yn07L3": "0",
        "swzqU9m5": "0",
        "auypw76W": "",
        "biX6Z83J": ""
    },
    {
        "P_MISSION_ID": "2904",
        "CE1V8ozW": "106",
        "v5yn07L3": "1,10",
        "swzqU9m5": "0",
        "auypw76W": "",
        "biX6Z83J": ""
    },
    {
        "P_MISSION_ID": "2910",
        "CE1V8ozW": "115",
        "v5yn07L3": "0",
        "swzqU9m5": "0",
        "auypw76W": "",
        "biX6Z83J": ""
    },
    {
        "P_MISSION_ID": "2950",
        "CE1V8ozW": "0",
        "v5yn07L3": "34",
        "swzqU9m5": "0",
        "auypw76W": "",
        "biX6Z83J": ""
    },
    {
        "P_MISSION_ID": "3190",
        "CE1V8ozW": "122",
        "v5yn07L3": "0",
        "swzqU9m5": "0",
        "auypw76W": "",
        "biX6Z83J": ""
    },
    {
        "P_MISSION_ID": "3202",
        "CE1V8ozW": "107",
        "v5yn07L3": "1,10",
        "swzqU9m5": "0",
        "auypw76W": "",
        "biX6Z83J": ""
    },
    {
        "P_MISSION_ID": "3210",
        "CE1V8ozW": "123",
        "v5yn07L3": "0",
        "swzqU9m5": "0",
        "auypw76W": "",
        "biX6Z83J": ""
    },
    {
        "P_MISSION_ID": "3501",
        "CE1V8ozW": "108,120",
        "v5yn07L3": "1,10",
        "swzqU9m5": "0",
        "auypw76W": "",
        "biX6Z83J": ""
    },
    {
        "P_MISSION_ID": "3603",
        "CE1V8ozW": "109",
        "v5yn07L3": "34,5",
        "swzqU9m5": "0",
        "auypw76W": "",
        "biX6Z83J": ""
    },
    {
        "P_MISSION_ID": "3650",
        "CE1V8ozW": "0",
        "v5yn07L3": "34",
        "swzqU9m5": "0",
        "auypw76W": "",
        "biX6Z83J": ""
    },
    {
        "P_MISSION_ID": "3701",
        "CE1V8ozW": "204",
        "v5yn07L3": "4,10",
        "swzqU9m5": "0",
        "auypw76W": "",
        "biX6Z83J": ""
    },
    {
        "P_MISSION_ID": "3702",
        "CE1V8ozW": "204",
        "v5yn07L3": "4,10",
        "swzqU9m5": "0",
        "auypw76W": "",
        "biX6Z83J": ""
    },
    {
        "P_MISSION_ID": "3710",
        "CE1V8ozW": "218",
        "v5yn07L3": "0",
        "swzqU9m5": "0",
        "auypw76W": "",
        "biX6Z83J": ""
    },
    {
        "P_MISSION_ID": "3810",
        "CE1V8ozW": "208",
        "v5yn07L3": "0",
        "swzqU9m5": "0",
        "auypw76W": "",
        "biX6Z83J": ""
    },
    {
        "P_MISSION_ID": "3901",
        "CE1V8ozW": "206",
        "v5yn07L3": "4,10",
        "swzqU9m5": "0",
        "auypw76W": "",
        "biX6Z83J": ""
    },
    {
        "P_MISSION_ID": "3902",
        "CE1V8ozW": "206",
        "v5yn07L3": "4,10",
        "swzqU9m5": "0",
        "auypw76W": "",
        "biX6Z83J": ""
    },
    {
        "P_MISSION_ID": "3903",
        "CE1V8ozW": "206",
        "v5yn07L3": "4,10",
        "swzqU9m5": "0",
        "auypw76W": "",
        "biX6Z83J": ""
    },
    {
        "P_MISSION_ID": "3910",
        "CE1V8ozW": "209",
        "v5yn07L3": "0",
        "swzqU9m5": "0",
        "auypw76W": "",
        "biX6Z83J": ""
    },
    {
        "P_MISSION_ID": "3911",
        "CE1V8ozW": "209",
        "v5yn07L3": "0",
        "swzqU9m5": "0",
        "auypw76W": "",
        "biX6Z83J": ""
    },
    {
        "P_MISSION_ID": "3912",
        "CE1V8ozW": "210",
        "v5yn07L3": "0",
        "swzqU9m5": "0",
        "auypw76W": "",
        "biX6Z83J": ""
    },
    {
        "P_MISSION_ID": "4003",
        "CE1V8ozW": "205",
        "v5yn07L3": "3,10",
        "swzqU9m5": "0",
        "auypw76W": "",
        "biX6Z83J": ""
    },
    {
        "P_MISSION_ID": "4010",
        "CE1V8ozW": "208",
        "v5yn07L3": "0",
        "swzqU9m5": "0",
        "auypw76W": "",
        "biX6Z83J": ""
    },
    {
        "P_MISSION_ID": "4011",
        "CE1V8ozW": "211",
        "v5yn07L3": "0",
        "swzqU9m5": "0",
        "auypw76W": "",
        "biX6Z83J": ""
    },
    {
        "P_MISSION_ID": "4012",
        "CE1V8ozW": "208",
        "v5yn07L3": "0",
        "swzqU9m5": "0",
        "auypw76W": "",
        "biX6Z83J": ""
    },
    {
        "P_MISSION_ID": "4101",
        "CE1V8ozW": "0",
        "v5yn07L3": "0",
        "swzqU9m5": "0",
        "auypw76W": "3,300",
        "biX6Z83J": ""
    },
    {
        "P_MISSION_ID": "4102",
        "CE1V8ozW": "0",
        "v5yn07L3": "0",
        "swzqU9m5": "0",
        "auypw76W": "3,300",
        "biX6Z83J": ""
    },
    {
        "P_MISSION_ID": "4110",
        "CE1V8ozW": "219",
        "v5yn07L3": "0",
        "swzqU9m5": "0",
        "auypw76W": "",
        "biX6Z83J": ""
    },
    {
        "P_MISSION_ID": "4201",
        "CE1V8ozW": "0",
        "v5yn07L3": "0",
        "swzqU9m5": "0",
        "auypw76W": "2,15",
        "biX6Z83J": ""
    },
    {
        "P_MISSION_ID": "4202",
        "CE1V8ozW": "0",
        "v5yn07L3": "0",
        "swzqU9m5": "0",
        "auypw76W": "2,15",
        "biX6Z83J": ""
    },
    {
        "P_MISSION_ID": "4410",
        "CE1V8ozW": "219",
        "v5yn07L3": "0",
        "swzqU9m5": "0",
        "auypw76W": "",
        "biX6Z83J": ""
    },
    {
        "P_MISSION_ID": "4411",
        "CE1V8ozW": "219",
        "v5yn07L3": "0",
        "swzqU9m5": "0",
        "auypw76W": "",
        "biX6Z83J": ""
    },
    {
        "P_MISSION_ID": "4501",
        "CE1V8ozW": "0",
        "v5yn07L3": "0",
        "swzqU9m5": "0",
        "auypw76W": "3,300",
        "biX6Z83J": ""
    },
    {
        "P_MISSION_ID": "4502",
        "CE1V8ozW": "0",
        "v5yn07L3": "0",
        "swzqU9m5": "0",
        "auypw76W": "3,300",
        "biX6Z83J": ""
    },
    {
        "P_MISSION_ID": "4503",
        "CE1V8ozW": "0",
        "v5yn07L3": "0",
        "swzqU9m5": "0",
        "auypw76W": "3,300",
        "biX6Z83J": ""
    },
    {
        "P_MISSION_ID": "4510",
        "CE1V8ozW": "220",
        "v5yn07L3": "0",
        "swzqU9m5": "0",
        "auypw76W": "",
        "biX6Z83J": ""
    },
    {
        "P_MISSION_ID": "4602",
        "CE1V8ozW": "204",
        "v5yn07L3": "4,10",
        "swzqU9m5": "0",
        "auypw76W": "",
        "biX6Z83J": ""
    },
    {
        "P_MISSION_ID": "4603",
        "CE1V8ozW": "206",
        "v5yn07L3": "4,10",
        "swzqU9m5": "0",
        "auypw76W": "",
        "biX6Z83J": ""
    },
    {
        "P_MISSION_ID": "4610",
        "CE1V8ozW": "220",
        "v5yn07L3": "0",
        "swzqU9m5": "0",
        "auypw76W": "",
        "biX6Z83J": ""
    },
    {
        "P_MISSION_ID": "4611",
        "CE1V8ozW": "219",
        "v5yn07L3": "0",
        "swzqU9m5": "0",
        "auypw76W": "",
        "biX6Z83J": ""
    },
    {
        "P_MISSION_ID": "4612",
        "CE1V8ozW": "221",
        "v5yn07L3": "0",
        "swzqU9m5": "0",
        "auypw76W": "",
        "biX6Z83J": ""
    },
    {
        "P_MISSION_ID": "4613",
        "CE1V8ozW": "221",
        "v5yn07L3": "0",
        "swzqU9m5": "0",
        "auypw76W": "",
        "biX6Z83J": ""
    },
    {
        "P_MISSION_ID": "4904",
        "CE1V8ozW": "301",
        "v5yn07L3": "1,10",
        "swzqU9m5": "0",
        "auypw76W": "",
        "biX6Z83J": ""
    },
    {
        "P_MISSION_ID": "4910",
        "CE1V8ozW": "306",
        "v5yn07L3": "0",
        "swzqU9m5": "0",
        "auypw76W": "",
        "biX6Z83J": ""
    },
    {
        "P_MISSION_ID": "5002",
        "CE1V8ozW": "302",
        "v5yn07L3": "1,10",
        "swzqU9m5": "0",
        "auypw76W": "",
        "biX6Z83J": ""
    },
    {
        "P_MISSION_ID": "5003",
        "CE1V8ozW": "302",
        "v5yn07L3": "1,10",
        "swzqU9m5": "0",
        "auypw76W": "",
        "biX6Z83J": ""
    },
    {
        "P_MISSION_ID": "5010",
        "CE1V8ozW": "307",
        "v5yn07L3": "0",
        "swzqU9m5": "0",
        "auypw76W": "",
        "biX6Z83J": ""
    },
    {
        "P_MISSION_ID": "5103",
        "CE1V8ozW": "303",
        "v5yn07L3": "1,10",
        "swzqU9m5": "0",
        "auypw76W": "",
        "biX6Z83J": ""
    },
    {
        "P_MISSION_ID": "5204",
        "CE1V8ozW": "304",
        "v5yn07L3": "5",
        "swzqU9m5": "0",
        "auypw76W": "",
        "biX6Z83J": ""
    },
    {
        "P_MISSION_ID": "5205",
        "CE1V8ozW": "0",
        "v5yn07L3": "34",
        "swzqU9m5": "0",
        "auypw76W": "",
        "biX6Z83J": ""
    },
    {
        "P_MISSION_ID": "5250",
        "CE1V8ozW": "0",
        "v5yn07L3": "34",
        "swzqU9m5": "0",
        "auypw76W": "",
        "biX6Z83J": ""
    },
    {
        "P_MISSION_ID": "5401",
        "CE1V8ozW": "400",
        "v5yn07L3": "1,3",
        "swzqU9m5": "0",
        "auypw76W": "",
        "biX6Z83J": ""
    },
    {
        "P_MISSION_ID": "5402",
        "CE1V8ozW": "400",
        "v5yn07L3": "1,3",
        "swzqU9m5": "0",
        "auypw76W": "",
        "biX6Z83J": ""
    },
    {
        "P_MISSION_ID": "5410",
        "CE1V8ozW": "404",
        "v5yn07L3": "0",
        "swzqU9m5": "0",
        "auypw76W": "",
        "biX6Z83J": ""
    },
    {
        "P_MISSION_ID": "5601",
        "CE1V8ozW": "0",
        "v5yn07L3": "4",
        "swzqU9m5": "0",
        "auypw76W": "",
        "biX6Z83J": ""
    },
    {
        "P_MISSION_ID": "5602",
        "CE1V8ozW": "0",
        "v5yn07L3": "4",
        "swzqU9m5": "0",
        "auypw76W": "",
        "biX6Z83J": ""
    },
    {
        "P_MISSION_ID": "5603",
        "CE1V8ozW": "0",
        "v5yn07L3": "4",
        "swzqU9m5": "0",
        "auypw76W": "",
        "biX6Z83J": ""
    },
    {
        "P_MISSION_ID": "5610",
        "CE1V8ozW": "408",
        "v5yn07L3": "0",
        "swzqU9m5": "0",
        "auypw76W": "",
        "biX6Z83J": ""
    },
    {
        "P_MISSION_ID": "5650",
        "CE1V8ozW": "0",
        "v5yn07L3": "34",
        "swzqU9m5": "0",
        "auypw76W": "",
        "biX6Z83J": ""
    },
    {
        "P_MISSION_ID": "5701",
        "CE1V8ozW": "0",
        "v5yn07L3": "4",
        "swzqU9m5": "0",
        "auypw76W": "",
        "biX6Z83J": ""
    },
    {
        "P_MISSION_ID": "5702",
        "CE1V8ozW": "0",
        "v5yn07L3": "4",
        "swzqU9m5": "0",
        "auypw76W": "",
        "biX6Z83J": ""
    },
    {
        "P_MISSION_ID": "5703",
        "CE1V8ozW": "0",
        "v5yn07L3": "4",
        "swzqU9m5": "0",
        "auypw76W": "",
        "biX6Z83J": ""
    },
    {
        "P_MISSION_ID": "5801",
        "CE1V8ozW": "0",
        "v5yn07L3": "4",
        "swzqU9m5": "0",
        "auypw76W": "",
        "biX6Z83J": ""
    },
    {
        "P_MISSION_ID": "5802",
        "CE1V8ozW": "0",
        "v5yn07L3": "4",
        "swzqU9m5": "0",
        "auypw76W": "",
        "biX6Z83J": ""
    },
    {
        "P_MISSION_ID": "5803",
        "CE1V8ozW": "0",
        "v5yn07L3": "4",
        "swzqU9m5": "0",
        "auypw76W": "",
        "biX6Z83J": ""
    },
    {
        "P_MISSION_ID": "5810",
        "CE1V8ozW": "406",
        "v5yn07L3": "0",
        "swzqU9m5": "0",
        "auypw76W": "",
        "biX6Z83J": ""
    },
    {
        "P_MISSION_ID": "5811",
        "CE1V8ozW": "406",
        "v5yn07L3": "0",
        "swzqU9m5": "0",
        "auypw76W": "",
        "biX6Z83J": ""
    },
    {
        "P_MISSION_ID": "5901",
        "CE1V8ozW": "401",
        "v5yn07L3": "1,10",
        "swzqU9m5": "0",
        "auypw76W": "",
        "biX6Z83J": ""
    },
    {
        "P_MISSION_ID": "5902",
        "CE1V8ozW": "401",
        "v5yn07L3": "1,10",
        "swzqU9m5": "0",
        "auypw76W": "",
        "biX6Z83J": ""
    },
    {
        "P_MISSION_ID": "6001",
        "CE1V8ozW": "0",
        "v5yn07L3": "2",
        "swzqU9m5": "0",
        "auypw76W": "",
        "biX6Z83J": ""
    },
    {
        "P_MISSION_ID": "6002",
        "CE1V8ozW": "0",
        "v5yn07L3": "2",
        "swzqU9m5": "0",
        "auypw76W": "",
        "biX6Z83J": ""
    },
    {
        "P_MISSION_ID": "6003",
        "CE1V8ozW": "0",
        "v5yn07L3": "2",
        "swzqU9m5": "0",
        "auypw76W": "",
        "biX6Z83J": ""
    },
    {
        "P_MISSION_ID": "6101",
        "CE1V8ozW": "0",
        "v5yn07L3": "2",
        "swzqU9m5": "0",
        "auypw76W": "",
        "biX6Z83J": ""
    },
    {
        "P_MISSION_ID": "6102",
        "CE1V8ozW": "0",
        "v5yn07L3": "2",
        "swzqU9m5": "0",
        "auypw76W": "",
        "biX6Z83J": ""
    },
    {
        "P_MISSION_ID": "6103",
        "CE1V8ozW": "0",
        "v5yn07L3": "2",
        "swzqU9m5": "0",
        "auypw76W": "",
        "biX6Z83J": ""
    },
    {
        "P_MISSION_ID": "6201",
        "CE1V8ozW": "0",
        "v5yn07L3": "2",
        "swzqU9m5": "0",
        "auypw76W": "",
        "biX6Z83J": ""
    },
    {
        "P_MISSION_ID": "6202",
        "CE1V8ozW": "0",
        "v5yn07L3": "2",
        "swzqU9m5": "0",
        "auypw76W": "",
        "biX6Z83J": ""
    },
    {
        "P_MISSION_ID": "6203",
        "CE1V8ozW": "0",
        "v5yn07L3": "2",
        "swzqU9m5": "0",
        "auypw76W": "",
        "biX6Z83J": ""
    },
    {
        "P_MISSION_ID": "6301",
        "CE1V8ozW": "0",
        "v5yn07L3": "2",
        "swzqU9m5": "0",
        "auypw76W": "",
        "biX6Z83J": ""
    },
    {
        "P_MISSION_ID": "6302",
        "CE1V8ozW": "0",
        "v5yn07L3": "2",
        "swzqU9m5": "0",
        "auypw76W": "",
        "biX6Z83J": ""
    },
    {
        "P_MISSION_ID": "6303",
        "CE1V8ozW": "0",
        "v5yn07L3": "2",
        "swzqU9m5": "0",
        "auypw76W": "",
        "biX6Z83J": ""
    },
    {
        "P_MISSION_ID": "6304",
        "CE1V8ozW": "402",
        "v5yn07L3": "3,2",
        "swzqU9m5": "0",
        "auypw76W": "",
        "biX6Z83J": ""
    },
    {
        "P_MISSION_ID": "6305",
        "CE1V8ozW": "403",
        "v5yn07L3": "11,34",
        "swzqU9m5": "0",
        "auypw76W": "",
        "biX6Z83J": ""
    },
    {
        "P_MISSION_ID": "6306",
        "CE1V8ozW": "407",
        "v5yn07L3": "0",
        "swzqU9m5": "0",
        "auypw76W": "",
        "biX6Z83J": ""
    },
    {
        "P_MISSION_ID": "6350",
        "CE1V8ozW": "0",
        "v5yn07L3": "34",
        "swzqU9m5": "0",
        "auypw76W": "",
        "biX6Z83J": ""
    },
    {
        "P_MISSION_ID": "6602",
        "CE1V8ozW": "0",
        "v5yn07L3": "0",
        "swzqU9m5": "0",
        "auypw76W": "6",
        "biX6Z83J": ""
    },
    {
        "P_MISSION_ID": "6701",
        "CE1V8ozW": "0",
        "v5yn07L3": "9,10",
        "swzqU9m5": "0",
        "auypw76W": "2,30:4",
        "biX6Z83J": ""
    },
    {
        "P_MISSION_ID": "6801",
        "CE1V8ozW": "0",
        "v5yn07L3": "0",
        "swzqU9m5": "0",
        "auypw76W": "6",
        "biX6Z83J": ""
    },
    {
        "P_MISSION_ID": "6803",
        "CE1V8ozW": "0",
        "v5yn07L3": "0",
        "swzqU9m5": "0",
        "auypw76W": "6",
        "biX6Z83J": ""
    },
    {
        "P_MISSION_ID": "6804",
        "CE1V8ozW": "0",
        "v5yn07L3": "0",
        "swzqU9m5": "0",
        "auypw76W": "6",
        "biX6Z83J": ""
    },
    {
        "P_MISSION_ID": "6901",
        "CE1V8ozW": "0",
        "v5yn07L3": "0",
        "swzqU9m5": "0",
        "auypw76W": "6",
        "biX6Z83J": ""
    },
    {
        "P_MISSION_ID": "6902",
        "CE1V8ozW": "0",
        "v5yn07L3": "5,10",
        "swzqU9m5": "0",
        "auypw76W": "",
        "biX6Z83J": ""
    },
    {
        "P_MISSION_ID": "6903",
        "CE1V8ozW": "0",
        "v5yn07L3": "0",
        "swzqU9m5": "0",
        "auypw76W": "6",
        "biX6Z83J": ""
    },
    {
        "P_MISSION_ID": "6904",
        "CE1V8ozW": "0",
        "v5yn07L3": "0",
        "swzqU9m5": "0",
        "auypw76W": "6",
        "biX6Z83J": ""
    },
    {
        "P_MISSION_ID": "6905",
        "CE1V8ozW": "0",
        "v5yn07L3": "0",
        "swzqU9m5": "0",
        "auypw76W": "6",
        "biX6Z83J": ""
    },
    {
        "P_MISSION_ID": "7002",
        "CE1V8ozW": "0",
        "v5yn07L3": "10",
        "swzqU9m5": "0",
        "auypw76W": "",
        "biX6Z83J": ""
    },
    {
        "P_MISSION_ID": "7051",
        "CE1V8ozW": "0",
        "v5yn07L3": "34",
        "swzqU9m5": "0",
        "auypw76W": "",
        "biX6Z83J": ""
    },
    {
        "P_MISSION_ID": "7052",
        "CE1V8ozW": "0",
        "v5yn07L3": "34",
        "swzqU9m5": "0",
        "auypw76W": "6",
        "biX6Z83J": ""
    },
    {
        "P_MISSION_ID": "7054",
        "CE1V8ozW": "0",
        "v5yn07L3": "34",
        "swzqU9m5": "0",
        "auypw76W": "6",
        "biX6Z83J": ""
    },
    {
        "P_MISSION_ID": "7055",
        "CE1V8ozW": "0",
        "v5yn07L3": "0",
        "swzqU9m5": "0",
        "auypw76W": "6",
        "biX6Z83J": ""
    },
    {
        "P_MISSION_ID": "7101",
        "CE1V8ozW": "0",
        "v5yn07L3": "0",
        "swzqU9m5": "0",
        "auypw76W": "6",
        "biX6Z83J": ""
    },
    {
        "P_MISSION_ID": "7202",
        "CE1V8ozW": "0",
        "v5yn07L3": "34",
        "swzqU9m5": "0",
        "auypw76W": "2,15",
        "biX6Z83J": ""
    },
    {
        "P_MISSION_ID": "7203",
        "CE1V8ozW": "0",
        "v5yn07L3": "34",
        "swzqU9m5": "0",
        "auypw76W": "",
        "biX6Z83J": ""
    },
    {
        "P_MISSION_ID": "7304",
        "CE1V8ozW": "0",
        "v5yn07L3": "0",
        "swzqU9m5": "0",
        "auypw76W": "6",
        "biX6Z83J": ""
    },
    {
        "P_MISSION_ID": "7305",
        "CE1V8ozW": "0",
        "v5yn07L3": "34",
        "swzqU9m5": "0",
        "auypw76W": "",
        "biX6Z83J": ""
    },
    {
        "P_MISSION_ID": "7402",
        "CE1V8ozW": "0",
        "v5yn07L3": "0",
        "swzqU9m5": "0",
        "auypw76W": "6",
        "biX6Z83J": ""
    },
    {
        "P_MISSION_ID": "7403",
        "CE1V8ozW": "0",
        "v5yn07L3": "0",
        "swzqU9m5": "0",
        "auypw76W": "6",
        "biX6Z83J": ""
    },
    {
        "P_MISSION_ID": "7501",
        "CE1V8ozW": "0",
        "v5yn07L3": "5,10",
        "swzqU9m5": "0",
        "auypw76W": "4",
        "biX6Z83J": ""
    },
    {
        "P_MISSION_ID": "7502",
        "CE1V8ozW": "0",
        "v5yn07L3": "0",
        "swzqU9m5": "0",
        "auypw76W": "6",
        "biX6Z83J": ""
    },
    {
        "P_MISSION_ID": "7702",
        "CE1V8ozW": "702",
        "v5yn07L3": "10",
        "swzqU9m5": "0",
        "auypw76W": "",
        "biX6Z83J": ""
    },
    {
        "P_MISSION_ID": "7703",
        "CE1V8ozW": "0",
        "v5yn07L3": "0",
        "swzqU9m5": "0",
        "auypw76W": "6",
        "biX6Z83J": ""
    },
    {
        "P_MISSION_ID": "7704",
        "CE1V8ozW": "700",
        "v5yn07L3": "0",
        "swzqU9m5": "0",
        "auypw76W": "6",
        "biX6Z83J": ""
    },
    {
        "P_MISSION_ID": "7705",
        "CE1V8ozW": "700",
        "v5yn07L3": "0",
        "swzqU9m5": "0",
        "auypw76W": "6",
        "biX6Z83J": ""
    },
    {
        "P_MISSION_ID": "7706",
        "CE1V8ozW": "700",
        "v5yn07L3": "0",
        "swzqU9m5": "0",
        "auypw76W": "6",
        "biX6Z83J": ""
    },
    {
        "P_MISSION_ID": "7707",
        "CE1V8ozW": "700",
        "v5yn07L3": "0",
        "swzqU9m5": "0",
        "auypw76W": "6",
        "biX6Z83J": ""
    },
    {
        "P_MISSION_ID": "7801",
        "CE1V8ozW": "0",
        "v5yn07L3": "1,4",
        "swzqU9m5": "0",
        "auypw76W": "",
        "biX6Z83J": ""
    },
    {
        "P_MISSION_ID": "7802",
        "CE1V8ozW": "0",
        "v5yn07L3": "1,4",
        "swzqU9m5": "0",
        "auypw76W": "",
        "biX6Z83J": ""
    },
    {
        "P_MISSION_ID": "7803",
        "CE1V8ozW": "0",
        "v5yn07L3": "1,4",
        "swzqU9m5": "0",
        "auypw76W": "",
        "biX6Z83J": ""
    },
    {
        "P_MISSION_ID": "7901",
        "CE1V8ozW": "0",
        "v5yn07L3": "2,3",
        "swzqU9m5": "0",
        "auypw76W": "",
        "biX6Z83J": ""
    },
    {
        "P_MISSION_ID": "7902",
        "CE1V8ozW": "0",
        "v5yn07L3": "2,3",
        "swzqU9m5": "0",
        "auypw76W": "",
        "biX6Z83J": ""
    },
    {
        "P_MISSION_ID": "7903",
        "CE1V8ozW": "0",
        "v5yn07L3": "2,3",
        "swzqU9m5": "0",
        "auypw76W": "",
        "biX6Z83J": ""
    },
    {
        "P_MISSION_ID": "8001",
        "CE1V8ozW": "0",
        "v5yn07L3": "5,10",
        "swzqU9m5": "0",
        "auypw76W": "",
        "biX6Z83J": ""
    },
    {
        "P_MISSION_ID": "8002",
        "CE1V8ozW": "0",
        "v5yn07L3": "5,10",
        "swzqU9m5": "0",
        "auypw76W": "",
        "biX6Z83J": ""
    },
    {
        "P_MISSION_ID": "8003",
        "CE1V8ozW": "0",
        "v5yn07L3": "5,10",
        "swzqU9m5": "0",
        "auypw76W": "",
        "biX6Z83J": ""
    },
    {
        "P_MISSION_ID": "8101",
        "CE1V8ozW": "0",
        "v5yn07L3": "5,10",
        "swzqU9m5": "0",
        "auypw76W": "",
        "biX6Z83J": ""
    },
    {
        "P_MISSION_ID": "8102",
        "CE1V8ozW": "0",
        "v5yn07L3": "5,10",
        "swzqU9m5": "0",
        "auypw76W": "",
        "biX6Z83J": ""
    },
    {
        "P_MISSION_ID": "8103",
        "CE1V8ozW": "0",
        "v5yn07L3": "5,10",
        "swzqU9m5": "0",
        "auypw76W": "",
        "biX6Z83J": ""
    },
    {
        "P_MISSION_ID": "8201",
        "CE1V8ozW": "0",
        "v5yn07L3": "5,10",
        "swzqU9m5": "0",
        "auypw76W": "",
        "biX6Z83J": ""
    },
    {
        "P_MISSION_ID": "8202",
        "CE1V8ozW": "0",
        "v5yn07L3": "5,10",
        "swzqU9m5": "0",
        "auypw76W": "",
        "biX6Z83J": ""
    },
    {
        "P_MISSION_ID": "8203",
        "CE1V8ozW": "0",
        "v5yn07L3": "5,10",
        "swzqU9m5": "0",
        "auypw76W": "",
        "biX6Z83J": ""
    },
    {
        "P_MISSION_ID": "8301",
        "CE1V8ozW": "0",
        "v5yn07L3": "5,10",
        "swzqU9m5": "0",
        "auypw76W": "",
        "biX6Z83J": ""
    },
    {
        "P_MISSION_ID": "8302",
        "CE1V8ozW": "0",
        "v5yn07L3": "5,10",
        "swzqU9m5": "0",
        "auypw76W": "",
        "biX6Z83J": ""
    },
    {
        "P_MISSION_ID": "8303",
        "CE1V8ozW": "0",
        "v5yn07L3": "5,10",
        "swzqU9m5": "0",
        "auypw76W": "",
        "biX6Z83J": ""
    },
    {
        "P_MISSION_ID": "8401",
        "CE1V8ozW": "0",
        "v5yn07L3": "5,10",
        "swzqU9m5": "0",
        "auypw76W": "",
        "biX6Z83J": ""
    },
    {
        "P_MISSION_ID": "8402",
        "CE1V8ozW": "0",
        "v5yn07L3": "5,10",
        "swzqU9m5": "0",
        "auypw76W": "",
        "biX6Z83J": ""
    },
    {
        "P_MISSION_ID": "8403",
        "CE1V8ozW": "0",
        "v5yn07L3": "5,10",
        "swzqU9m5": "0",
        "auypw76W": "",
        "biX6Z83J": ""
    },
    {
        "P_MISSION_ID": "8601",
        "CE1V8ozW": "0",
        "v5yn07L3": "34",
        "swzqU9m5": "0",
        "auypw76W": "",
        "biX6Z83J": ""
    },
    {
        "P_MISSION_ID": "8704",
        "CE1V8ozW": "0",
        "v5yn07L3": "0",
        "swzqU9m5": "0",
        "auypw76W": "6",
        "biX6Z83J": ""
    },
    {
        "P_MISSION_ID": "8801",
        "CE1V8ozW": "0",
        "v5yn07L3": "2,4",
        "swzqU9m5": "0",
        "auypw76W": "",
        "biX6Z83J": ""
    },
    {
        "P_MISSION_ID": "8802",
        "CE1V8ozW": "0",
        "v5yn07L3": "2,4",
        "swzqU9m5": "0",
        "auypw76W": "",
        "biX6Z83J": ""
    },
    {
        "P_MISSION_ID": "8803",
        "CE1V8ozW": "0",
        "v5yn07L3": "2,4",
        "swzqU9m5": "0",
        "auypw76W": "",
        "biX6Z83J": ""
    },
    {
        "P_MISSION_ID": "8804",
        "CE1V8ozW": "0",
        "v5yn07L3": "0",
        "swzqU9m5": "0",
        "auypw76W": "6",
        "biX6Z83J": ""
    },
    {
        "P_MISSION_ID": "8903",
        "CE1V8ozW": "800",
        "v5yn07L3": "1,3",
        "swzqU9m5": "0",
        "auypw76W": "6",
        "biX6Z83J": ""
    },
    {
        "P_MISSION_ID": "8904",
        "CE1V8ozW": "801",
        "v5yn07L3": "5,10",
        "swzqU9m5": "0",
        "auypw76W": "6",
        "biX6Z83J": ""
    },
    {
        "P_MISSION_ID": "8905",
        "CE1V8ozW": "802",
        "v5yn07L3": "0",
        "swzqU9m5": "0",
        "auypw76W": "6",
        "biX6Z83J": ""
    },
    {
        "P_MISSION_ID": "8906",
        "CE1V8ozW": "802",
        "v5yn07L3": "0",
        "swzqU9m5": "0",
        "auypw76W": "6",
        "biX6Z83J": ""
    },
    {
        "P_MISSION_ID": "8907",
        "CE1V8ozW": "802",
        "v5yn07L3": "0",
        "swzqU9m5": "0",
        "auypw76W": "6",
        "biX6Z83J": ""
    },
    {
        "P_MISSION_ID": "8908",
        "CE1V8ozW": "800",
        "v5yn07L3": "1,3",
        "swzqU9m5": "0",
        "auypw76W": "6",
        "biX6Z83J": ""
    },
    {
        "P_MISSION_ID": "8910",
        "CE1V8ozW": "802",
        "v5yn07L3": "0",
        "swzqU9m5": "0",
        "auypw76W": "6",
        "biX6Z83J": ""
    },
    {
        "P_MISSION_ID": "8911",
        "CE1V8ozW": "802",
        "v5yn07L3": "0",
        "swzqU9m5": "0",
        "auypw76W": "6",
        "biX6Z83J": ""
    },
    {
        "P_MISSION_ID": "9001",
        "CE1V8ozW": "0",
        "v5yn07L3": "2,4",
        "swzqU9m5": "0",
        "auypw76W": "",
        "biX6Z83J": ""
    },
    {
        "P_MISSION_ID": "9002",
        "CE1V8ozW": "0",
        "v5yn07L3": "2,4",
        "swzqU9m5": "0",
        "auypw76W": "6",
        "biX6Z83J": ""
    },
    {
        "P_MISSION_ID": "9004",
        "CE1V8ozW": "0",
        "v5yn07L3": "0",
        "swzqU9m5": "0",
        "auypw76W": "6",
        "biX6Z83J": ""
    },
    {
        "P_MISSION_ID": "9005",
        "CE1V8ozW": "0",
        "v5yn07L3": "0",
        "swzqU9m5": "0",
        "auypw76W": "6",
        "biX6Z83J": ""
    },
    {
        "P_MISSION_ID": "9101",
        "CE1V8ozW": "0",
        "v5yn07L3": "34",
        "swzqU9m5": "0",
        "auypw76W": "",
        "biX6Z83J": ""
    },
    {
        "P_MISSION_ID": "2000000",
        "CE1V8ozW": "20000",
        "v5yn07L3": "0",
        "swzqU9m5": "0",
        "auypw76W": "",
        "biX6Z83J": ""
    },
    {
        "P_MISSION_ID": "2000001",
        "CE1V8ozW": "20001",
        "v5yn07L3": "0",
        "swzqU9m5": "0",
        "auypw76W": "",
        "biX6Z83J": ""
    },
    {
        "P_MISSION_ID": "2000002",
        "CE1V8ozW": "20002",
        "v5yn07L3": "0",
        "swzqU9m5": "0",
        "auypw76W": "",
        "biX6Z83J": ""
    },
    {
        "P_MISSION_ID": "2000003",
        "CE1V8ozW": "20003",
        "v5yn07L3": "0",
        "swzqU9m5": "0",
        "auypw76W": "",
        "biX6Z83J": ""
    },
    {
        "P_MISSION_ID": "2000004",
        "CE1V8ozW": "20004",
        "v5yn07L3": "0",
        "swzqU9m5": "0",
        "auypw76W": "",
        "biX6Z83J": ""
    },
    {
        "P_MISSION_ID": "2000005",
        "CE1V8ozW": "20005",
        "v5yn07L3": "0",
        "swzqU9m5": "0",
        "auypw76W": "",
        "biX6Z83J": ""
    },
    {
        "P_MISSION_ID": "2000006",
        "CE1V8ozW": "20006",
        "v5yn07L3": "0",
        "swzqU9m5": "0",
        "auypw76W": "",
        "biX6Z83J": ""
    },
    {
        "P_MISSION_ID": "2000007",
        "CE1V8ozW": "20007",
        "v5yn07L3": "0",
        "swzqU9m5": "0",
        "auypw76W": "",
        "biX6Z83J": ""
    },
    {
        "P_MISSION_ID": "2000008",
        "CE1V8ozW": "20008",
        "v5yn07L3": "34",
        "swzqU9m5": "0",
        "auypw76W": "",
        "biX6Z83J": ""
    },
    {
        "P_MISSION_ID": "2000010",
        "CE1V8ozW": "20011",
        "v5yn07L3": "0",
        "swzqU9m5": "0",
        "auypw76W": "",
        "biX6Z83J": ""
    },
    {
        "P_MISSION_ID": "2000012",
        "CE1V8ozW": "20009",
        "v5yn07L3": "0",
        "swzqU9m5": "0",
        "auypw76W": "",
        "biX6Z83J": ""
    },
    {
        "P_MISSION_ID": "2000100",
        "CE1V8ozW": "20050",
        "v5yn07L3": "0",
        "swzqU9m5": "0",
        "auypw76W": "",
        "biX6Z83J": ""
    },
    {
        "P_MISSION_ID": "2000101",
        "CE1V8ozW": "20051",
        "v5yn07L3": "0",
        "swzqU9m5": "0",
        "auypw76W": "",
        "biX6Z83J": ""
    },
    {
        "P_MISSION_ID": "2000102",
        "CE1V8ozW": "20051",
        "v5yn07L3": "0",
        "swzqU9m5": "0",
        "auypw76W": "",
        "biX6Z83J": ""
    },
    {
        "P_MISSION_ID": "2000103",
        "CE1V8ozW": "20052",
        "v5yn07L3": "0",
        "swzqU9m5": "0",
        "auypw76W": "",
        "biX6Z83J": ""
    },
    {
        "P_MISSION_ID": "2000104",
        "CE1V8ozW": "20050",
        "v5yn07L3": "0",
        "swzqU9m5": "0",
        "auypw76W": "",
        "biX6Z83J": ""
    },
    {
        "P_MISSION_ID": "2000105",
        "CE1V8ozW": "20053",
        "v5yn07L3": "0",
        "swzqU9m5": "0",
        "auypw76W": "",
        "biX6Z83J": ""
    },
    {
        "P_MISSION_ID": "2000106",
        "CE1V8ozW": "20054",
        "v5yn07L3": "0",
        "swzqU9m5": "0",
        "auypw76W": "",
        "biX6Z83J": ""
    },
    {
        "P_MISSION_ID": "2000107",
        "CE1V8ozW": "20055",
        "v5yn07L3": "0",
        "swzqU9m5": "0",
        "auypw76W": "",
        "biX6Z83J": ""
    },
    {
        "P_MISSION_ID": "2000108",
        "CE1V8ozW": "20055",
        "v5yn07L3": "0",
        "swzqU9m5": "0",
        "auypw76W": "",
        "biX6Z83J": ""
    },
    {
        "P_MISSION_ID": "2000109",
        "CE1V8ozW": "20056",
        "v5yn07L3": "0",
        "swzqU9m5": "0",
        "auypw76W": "",
        "biX6Z83J": ""
    },
    {
        "P_MISSION_ID": "2000110",
        "CE1V8ozW": "20052",
        "v5yn07L3": "0",
        "swzqU9m5": "0",
        "auypw76W": "",
        "biX6Z83J": ""
    },
    {
        "P_MISSION_ID": "2000200",
        "CE1V8ozW": "20100",
        "v5yn07L3": "0",
        "swzqU9m5": "0",
        "auypw76W": "",
        "biX6Z83J": ""
    },
    {
        "P_MISSION_ID": "2000201",
        "CE1V8ozW": "20101",
        "v5yn07L3": "0",
        "swzqU9m5": "0",
        "auypw76W": "",
        "biX6Z83J": ""
    },
    {
        "P_MISSION_ID": "2000202",
        "CE1V8ozW": "20103",
        "v5yn07L3": "0",
        "swzqU9m5": "0",
        "auypw76W": "",
        "biX6Z83J": ""
    },
    {
        "P_MISSION_ID": "2000203",
        "CE1V8ozW": "20103",
        "v5yn07L3": "0",
        "swzqU9m5": "0",
        "auypw76W": "",
        "biX6Z83J": ""
    },
    {
        "P_MISSION_ID": "2000204",
        "CE1V8ozW": "20104",
        "v5yn07L3": "0",
        "swzqU9m5": "0",
        "auypw76W": "",
        "biX6Z83J": ""
    },
    {
        "P_MISSION_ID": "2000300",
        "CE1V8ozW": "20150",
        "v5yn07L3": "0",
        "swzqU9m5": "0",
        "auypw76W": "",
        "biX6Z83J": ""
    },
    {
        "P_MISSION_ID": "2000301",
        "CE1V8ozW": "20151",
        "v5yn07L3": "0",
        "swzqU9m5": "0",
        "auypw76W": "",
        "biX6Z83J": ""
    },
    {
        "P_MISSION_ID": "2000302",
        "CE1V8ozW": "20151",
        "v5yn07L3": "0",
        "swzqU9m5": "0",
        "auypw76W": "",
        "biX6Z83J": ""
    },
    {
        "P_MISSION_ID": "2000303",
        "CE1V8ozW": "20153",
        "v5yn07L3": "0",
        "swzqU9m5": "0",
        "auypw76W": "",
        "biX6Z83J": ""
    },
    {
        "P_MISSION_ID": "2000304",
        "CE1V8ozW": "20154",
        "v5yn07L3": "0",
        "swzqU9m5": "0",
        "auypw76W": "4",
        "biX6Z83J": ""
    },
    {
        "P_MISSION_ID": "2000305",
        "CE1V8ozW": "20153",
        "v5yn07L3": "0",
        "swzqU9m5": "0",
        "auypw76W": "",
        "biX6Z83J": ""
    },
    {
        "P_MISSION_ID": "2000306",
        "CE1V8ozW": "20157",
        "v5yn07L3": "0",
        "swzqU9m5": "0",
        "auypw76W": "4",
        "biX6Z83J": ""
    },
    {
        "P_MISSION_ID": "2000307",
        "CE1V8ozW": "20158",
        "v5yn07L3": "0",
        "swzqU9m5": "0",
        "auypw76W": "",
        "biX6Z83J": ""
    },
    {
        "P_MISSION_ID": "2000308",
        "CE1V8ozW": "20158",
        "v5yn07L3": "0",
        "swzqU9m5": "0",
        "auypw76W": "",
        "biX6Z83J": ""
    },
    {
        "P_MISSION_ID": "2000309",
        "CE1V8ozW": "20158",
        "v5yn07L3": "0",
        "swzqU9m5": "0",
        "auypw76W": "",
        "biX6Z83J": ""
    },
    {
        "P_MISSION_ID": "2000310",
        "CE1V8ozW": "20158",
        "v5yn07L3": "34",
        "swzqU9m5": "0",
        "auypw76W": "",
        "biX6Z83J": ""
    },
    {
        "P_MISSION_ID": "2000311",
        "CE1V8ozW": "20156",
        "v5yn07L3": "0",
        "swzqU9m5": "0",
        "auypw76W": "",
        "biX6Z83J": ""
    },
    {
        "P_MISSION_ID": "2000312",
        "CE1V8ozW": "20158",
        "v5yn07L3": "0",
        "swzqU9m5": "0",
        "auypw76W": "",
        "biX6Z83J": ""
    },
    {
        "P_MISSION_ID": "2000400",
        "CE1V8ozW": "20200",
        "v5yn07L3": "0",
        "swzqU9m5": "0",
        "auypw76W": "",
        "biX6Z83J": ""
    },
    {
        "P_MISSION_ID": "2000401",
        "CE1V8ozW": "20200",
        "v5yn07L3": "0",
        "swzqU9m5": "0",
        "auypw76W": "",
        "biX6Z83J": ""
    },
    {
        "P_MISSION_ID": "2000402",
        "CE1V8ozW": "20200",
        "v5yn07L3": "0",
        "swzqU9m5": "0",
        "auypw76W": "3,600",
        "biX6Z83J": ""
    },
    {
        "P_MISSION_ID": "2000403",
        "CE1V8ozW": "20200",
        "v5yn07L3": "0",
        "swzqU9m5": "0",
        "auypw76W": "",
        "biX6Z83J": ""
    },
    {
        "P_MISSION_ID": "2000404",
        "CE1V8ozW": "20211",
        "v5yn07L3": "0",
        "swzqU9m5": "0",
        "auypw76W": "",
        "biX6Z83J": ""
    },
    {
        "P_MISSION_ID": "2000405",
        "CE1V8ozW": "20211",
        "v5yn07L3": "0",
        "swzqU9m5": "0",
        "auypw76W": "",
        "biX6Z83J": ""
    },
    {
        "P_MISSION_ID": "2000406",
        "CE1V8ozW": "20211",
        "v5yn07L3": "0",
        "swzqU9m5": "0",
        "auypw76W": "",
        "biX6Z83J": ""
    },
    {
        "P_MISSION_ID": "2000407",
        "CE1V8ozW": "20211",
        "v5yn07L3": "0",
        "swzqU9m5": "0",
        "auypw76W": "",
        "biX6Z83J": ""
    },
    {
        "P_MISSION_ID": "2000408",
        "CE1V8ozW": "20211",
        "v5yn07L3": "0",
        "swzqU9m5": "0",
        "auypw76W": "",
        "biX6Z83J": ""
    },
    {
        "P_MISSION_ID": "2000409",
        "CE1V8ozW": "20211",
        "v5yn07L3": "0",
        "swzqU9m5": "0",
        "auypw76W": "",
        "biX6Z83J": ""
    },
    {
        "P_MISSION_ID": "2000410",
        "CE1V8ozW": "20211",
        "v5yn07L3": "0",
        "swzqU9m5": "0",
        "auypw76W": "",
        "biX6Z83J": ""
    },
    {
        "P_MISSION_ID": "2000411",
        "CE1V8ozW": "20211",
        "v5yn07L3": "0",
        "swzqU9m5": "0",
        "auypw76W": "",
        "biX6Z83J": ""
    },
    {
        "P_MISSION_ID": "2000412",
        "CE1V8ozW": "20211",
        "v5yn07L3": "0",
        "swzqU9m5": "0",
        "auypw76W": "",
        "biX6Z83J": ""
    },
    {
        "P_MISSION_ID": "2000413",
        "CE1V8ozW": "20211",
        "v5yn07L3": "0",
        "swzqU9m5": "0",
        "auypw76W": "",
        "biX6Z83J": ""
    },
    {
        "P_MISSION_ID": "2000414",
        "CE1V8ozW": "20211",
        "v5yn07L3": "0",
        "swzqU9m5": "0",
        "auypw76W": "",
        "biX6Z83J": ""
    },
    {
        "P_MISSION_ID": "2000415",
        "CE1V8ozW": "20211",
        "v5yn07L3": "0",
        "swzqU9m5": "0",
        "auypw76W": "",
        "biX6Z83J": ""
    },
    {
        "P_MISSION_ID": "2000500",
        "CE1V8ozW": "20300",
        "v5yn07L3": "0",
        "swzqU9m5": "0",
        "auypw76W": "",
        "biX6Z83J": ""
    },
    {
        "P_MISSION_ID": "2000501",
        "CE1V8ozW": "20300",
        "v5yn07L3": "0",
        "swzqU9m5": "0",
        "auypw76W": "",
        "biX6Z83J": ""
    },
    {
        "P_MISSION_ID": "2000502",
        "CE1V8ozW": "20300",
        "v5yn07L3": "0",
        "swzqU9m5": "0",
        "auypw76W": "",
        "biX6Z83J": ""
    },
    {
        "P_MISSION_ID": "2000600",
        "CE1V8ozW": "20350",
        "v5yn07L3": "0",
        "swzqU9m5": "0",
        "auypw76W": "3,300",
        "biX6Z83J": ""
    },
    {
        "P_MISSION_ID": "2000601",
        "CE1V8ozW": "20350",
        "v5yn07L3": "0",
        "swzqU9m5": "0",
        "auypw76W": "",
        "biX6Z83J": ""
    },
    {
        "P_MISSION_ID": "2000602",
        "CE1V8ozW": "20350",
        "v5yn07L3": "0",
        "swzqU9m5": "0",
        "auypw76W": "",
        "biX6Z83J": ""
    },
    {
        "P_MISSION_ID": "2000700",
        "CE1V8ozW": "20400",
        "v5yn07L3": "0",
        "swzqU9m5": "0",
        "auypw76W": "",
        "biX6Z83J": ""
    },
    {
        "P_MISSION_ID": "2000702",
        "CE1V8ozW": "20401",
        "v5yn07L3": "0",
        "swzqU9m5": "0",
        "auypw76W": "",
        "biX6Z83J": ""
    },
    {
        "P_MISSION_ID": "2000703",
        "CE1V8ozW": "20402",
        "v5yn07L3": "0",
        "swzqU9m5": "0",
        "auypw76W": "",
        "biX6Z83J": ""
    },
    {
        "P_MISSION_ID": "2000704",
        "CE1V8ozW": "20403",
        "v5yn07L3": "0",
        "swzqU9m5": "0",
        "auypw76W": "",
        "biX6Z83J": ""
    },
    {
        "P_MISSION_ID": "2000800",
        "CE1V8ozW": "20450",
        "v5yn07L3": "0",
        "swzqU9m5": "0",
        "auypw76W": "",
        "biX6Z83J": ""
    },
    {
        "P_MISSION_ID": "2000801",
        "CE1V8ozW": "20450",
        "v5yn07L3": "0",
        "swzqU9m5": "0",
        "auypw76W": "",
        "biX6Z83J": ""
    },
    {
        "P_MISSION_ID": "2000802",
        "CE1V8ozW": "20450",
        "v5yn07L3": "0",
        "swzqU9m5": "0",
        "auypw76W": "",
        "biX6Z83J": ""
    },
    {
        "P_MISSION_ID": "2000803",
        "CE1V8ozW": "20452",
        "v5yn07L3": "0",
        "swzqU9m5": "0",
        "auypw76W": "",
        "biX6Z83J": ""
    },
    {
        "P_MISSION_ID": "2000900",
        "CE1V8ozW": "20500",
        "v5yn07L3": "0",
        "swzqU9m5": "0",
        "auypw76W": "6",
        "biX6Z83J": ""
    },
    {
        "P_MISSION_ID": "2000901",
        "CE1V8ozW": "20500",
        "v5yn07L3": "0",
        "swzqU9m5": "0",
        "auypw76W": "",
        "biX6Z83J": ""
    },
    {
        "P_MISSION_ID": "2000902",
        "CE1V8ozW": "20500",
        "v5yn07L3": "0",
        "swzqU9m5": "0",
        "auypw76W": "",
        "biX6Z83J": ""
    },
    {
        "P_MISSION_ID": "2000903",
        "CE1V8ozW": "20501",
        "v5yn07L3": "0",
        "swzqU9m5": "0",
        "auypw76W": "",
        "biX6Z83J": ""
    },
    {
        "P_MISSION_ID": "2000904",
        "CE1V8ozW": "20501",
        "v5yn07L3": "0",
        "swzqU9m5": "0",
        "auypw76W": "",
        "biX6Z83J": ""
    },
    {
        "P_MISSION_ID": "2000905",
        "CE1V8ozW": "20501",
        "v5yn07L3": "0",
        "swzqU9m5": "0",
        "auypw76W": "",
        "biX6Z83J": ""
    },
    {
        "P_MISSION_ID": "2000906",
        "CE1V8ozW": "20502",
        "v5yn07L3": "0",
        "swzqU9m5": "0",
        "auypw76W": "",
        "biX6Z83J": ""
    },
    {
        "P_MISSION_ID": "2000907",
        "CE1V8ozW": "20502",
        "v5yn07L3": "0",
        "swzqU9m5": "0",
        "auypw76W": "",
        "biX6Z83J": ""
    },
    {
        "P_MISSION_ID": "2000908",
        "CE1V8ozW": "20502",
        "v5yn07L3": "0",
        "swzqU9m5": "0",
        "auypw76W": "",
        "biX6Z83J": ""
    },
    {
        "P_MISSION_ID": "2000909",
        "CE1V8ozW": "20503",
        "v5yn07L3": "0",
        "swzqU9m5": "0",
        "auypw76W": "",
        "biX6Z83J": ""
    },
    {
        "P_MISSION_ID": "2000910",
        "CE1V8ozW": "20503",
        "v5yn07L3": "0",
        "swzqU9m5": "0",
        "auypw76W": "",
        "biX6Z83J": ""
    },
    {
        "P_MISSION_ID": "2000911",
        "CE1V8ozW": "20503",
        "v5yn07L3": "0",
        "swzqU9m5": "0",
        "auypw76W": "",
        "biX6Z83J": ""
    },
    {
        "P_MISSION_ID": "2000912",
        "CE1V8ozW": "20505",
        "v5yn07L3": "0",
        "swzqU9m5": "0",
        "auypw76W": "",
        "biX6Z83J": ""
    },
    {
        "P_MISSION_ID": "2000913",
        "CE1V8ozW": "20505",
        "v5yn07L3": "0",
        "swzqU9m5": "0",
        "auypw76W": "",
        "biX6Z83J": ""
    },
    {
        "P_MISSION_ID": "2000914",
        "CE1V8ozW": "20505",
        "v5yn07L3": "0",
        "swzqU9m5": "0",
        "auypw76W": "",
        "biX6Z83J": ""
    },
    {
        "P_MISSION_ID": "2000915",
        "CE1V8ozW": "20506",
        "v5yn07L3": "34",
        "swzqU9m5": "0",
        "auypw76W": "",
        "biX6Z83J": ""
    },
    {
        "P_MISSION_ID": "2001000",
        "CE1V8ozW": "20550",
        "v5yn07L3": "0",
        "swzqU9m5": "0",
        "auypw76W": "",
        "biX6Z83J": ""
    },
    {
        "P_MISSION_ID": "2001001",
        "CE1V8ozW": "20550",
        "v5yn07L3": "0",
        "swzqU9m5": "0",
        "auypw76W": "2,10",
        "biX6Z83J": ""
    },
    {
        "P_MISSION_ID": "2001002",
        "CE1V8ozW": "20550",
        "v5yn07L3": "0",
        "swzqU9m5": "0",
        "auypw76W": "",
        "biX6Z83J": ""
    },
    {
        "P_MISSION_ID": "2001003",
        "CE1V8ozW": "20555",
        "v5yn07L3": "0",
        "swzqU9m5": "0",
        "auypw76W": "6",
        "biX6Z83J": ""
    },
    {
        "P_MISSION_ID": "2001100",
        "CE1V8ozW": "20600",
        "v5yn07L3": "0",
        "swzqU9m5": "0",
        "auypw76W": "6",
        "biX6Z83J": ""
    },
    {
        "P_MISSION_ID": "2001101",
        "CE1V8ozW": "20600",
        "v5yn07L3": "0",
        "swzqU9m5": "0",
        "auypw76W": "",
        "biX6Z83J": ""
    },
    {
        "P_MISSION_ID": "2001102",
        "CE1V8ozW": "20600",
        "v5yn07L3": "0",
        "swzqU9m5": "0",
        "auypw76W": "6",
        "biX6Z83J": ""
    },
    {
        "P_MISSION_ID": "2001103",
        "CE1V8ozW": "20602",
        "v5yn07L3": "0",
        "swzqU9m5": "0",
        "auypw76W": "6",
        "biX6Z83J": ""
    },
    {
        "P_MISSION_ID": "2001104",
        "CE1V8ozW": "20601",
        "v5yn07L3": "0",
        "swzqU9m5": "0",
        "auypw76W": "6",
        "biX6Z83J": ""
    },
    {
        "P_MISSION_ID": "2001200",
        "CE1V8ozW": "20800",
        "v5yn07L3": "0",
        "swzqU9m5": "0",
        "auypw76W": "",
        "biX6Z83J": ""
    },
    {
        "P_MISSION_ID": "2001201",
        "CE1V8ozW": "20801",
        "v5yn07L3": "0",
        "swzqU9m5": "0",
        "auypw76W": "",
        "biX6Z83J": ""
    },
    {
        "P_MISSION_ID": "2001202",
        "CE1V8ozW": "20802",
        "v5yn07L3": "0",
        "swzqU9m5": "0",
        "auypw76W": "",
        "biX6Z83J": ""
    },
    {
        "P_MISSION_ID": "2001203",
        "CE1V8ozW": "20803",
        "v5yn07L3": "0",
        "swzqU9m5": "0",
        "auypw76W": "",
        "biX6Z83J": ""
    },
    {
        "P_MISSION_ID": "2001204",
        "CE1V8ozW": "20808",
        "v5yn07L3": "0",
        "swzqU9m5": "0",
        "auypw76W": "",
        "biX6Z83J": ""
    },
    {
        "P_MISSION_ID": "2001206",
        "CE1V8ozW": "20805",
        "v5yn07L3": "0",
        "swzqU9m5": "0",
        "auypw76W": "6",
        "biX6Z83J": ""
    },
    {
        "P_MISSION_ID": "2001207",
        "CE1V8ozW": "20806",
        "v5yn07L3": "0",
        "swzqU9m5": "0",
        "auypw76W": "6",
        "biX6Z83J": ""
    },
    {
        "P_MISSION_ID": "2001208",
        "CE1V8ozW": "20807",
        "v5yn07L3": "0",
        "swzqU9m5": "0",
        "auypw76W": "6",
        "biX6Z83J": ""
    },
    {
        "P_MISSION_ID": "2001209",
        "CE1V8ozW": "20805",
        "v5yn07L3": "0",
        "swzqU9m5": "0",
        "auypw76W": "6",
        "biX6Z83J": ""
    },
    {
        "P_MISSION_ID": "2001210",
        "CE1V8ozW": "20806",
        "v5yn07L3": "0",
        "swzqU9m5": "0",
        "auypw76W": "6",
        "biX6Z83J": ""
    },
    {
        "P_MISSION_ID": "2001300",
        "CE1V8ozW": "20900",
        "v5yn07L3": "0",
        "swzqU9m5": "0",
        "auypw76W": "",
        "biX6Z83J": ""
    },
    {
        "P_MISSION_ID": "2001301",
        "CE1V8ozW": "20901",
        "v5yn07L3": "0",
        "swzqU9m5": "0",
        "auypw76W": "6",
        "biX6Z83J": ""
    },
    {
        "P_MISSION_ID": "2001302",
        "CE1V8ozW": "20902",
        "v5yn07L3": "0",
        "swzqU9m5": "0",
        "auypw76W": "",
        "biX6Z83J": ""
    },
    {
        "P_MISSION_ID": "2001303",
        "CE1V8ozW": "20903",
        "v5yn07L3": "0",
        "swzqU9m5": "0",
        "auypw76W": "",
        "biX6Z83J": ""
    },
    {
        "P_MISSION_ID": "2001304",
        "CE1V8ozW": "20905",
        "v5yn07L3": "0",
        "swzqU9m5": "0",
        "auypw76W": "6",
        "biX6Z83J": ""
    },
    {
        "P_MISSION_ID": "2001305",
        "CE1V8ozW": "20902",
        "v5yn07L3": "0",
        "swzqU9m5": "0",
        "auypw76W": "",
        "biX6Z83J": ""
    },
    {
        "P_MISSION_ID": "2001306",
        "CE1V8ozW": "20901",
        "v5yn07L3": "0",
        "swzqU9m5": "0",
        "auypw76W": "6",
        "biX6Z83J": ""
    },
    {
        "P_MISSION_ID": "2001307",
        "CE1V8ozW": "20906",
        "v5yn07L3": "0",
        "swzqU9m5": "0",
        "auypw76W": "6",
        "biX6Z83J": ""
    },
    {
        "P_MISSION_ID": "2001308",
        "CE1V8ozW": "20906",
        "v5yn07L3": "0",
        "swzqU9m5": "0",
        "auypw76W": "",
        "biX6Z83J": ""
    },
    {
        "P_MISSION_ID": "2001309",
        "CE1V8ozW": "20906",
        "v5yn07L3": "0",
        "swzqU9m5": "0",
        "auypw76W": "6",
        "biX6Z83J": ""
    },
    {
        "P_MISSION_ID": "2001400",
        "CE1V8ozW": "21000",
        "v5yn07L3": "0",
        "swzqU9m5": "0",
        "auypw76W": "",
        "biX6Z83J": ""
    },
    {
        "P_MISSION_ID": "2001401",
        "CE1V8ozW": "21001",
        "v5yn07L3": "0",
        "swzqU9m5": "0",
        "auypw76W": "",
        "biX6Z83J": ""
    },
    {
        "P_MISSION_ID": "2001402",
        "CE1V8ozW": "21002",
        "v5yn07L3": "0",
        "swzqU9m5": "0",
        "auypw76W": "",
        "biX6Z83J": ""
    },
    {
        "P_MISSION_ID": "2001403",
        "CE1V8ozW": "21004",
        "v5yn07L3": "0",
        "swzqU9m5": "0",
        "auypw76W": "",
        "biX6Z83J": ""
    },
    {
        "P_MISSION_ID": "2001404",
        "CE1V8ozW": "21004",
        "v5yn07L3": "0",
        "swzqU9m5": "0",
        "auypw76W": "6",
        "biX6Z83J": ""
    },
    {
        "P_MISSION_ID": "2001405",
        "CE1V8ozW": "21003",
        "v5yn07L3": "0",
        "swzqU9m5": "0",
        "auypw76W": "6",
        "biX6Z83J": ""
    },
    {
        "P_MISSION_ID": "2001406",
        "CE1V8ozW": "21003",
        "v5yn07L3": "0",
        "swzqU9m5": "0",
        "auypw76W": "6",
        "biX6Z83J": ""
    },
    {
        "P_MISSION_ID": "2001500",
        "CE1V8ozW": "21100",
        "v5yn07L3": "0",
        "swzqU9m5": "0",
        "auypw76W": "6",
        "biX6Z83J": ""
    },
    {
        "P_MISSION_ID": "2001501",
        "CE1V8ozW": "21100",
        "v5yn07L3": "34",
        "swzqU9m5": "0",
        "auypw76W": "6",
        "biX6Z83J": ""
    },
    {
        "P_MISSION_ID": "2001502",
        "CE1V8ozW": "21100",
        "v5yn07L3": "0",
        "swzqU9m5": "0",
        "auypw76W": "6",
        "biX6Z83J": ""
    },
    {
        "P_MISSION_ID": "2001503",
        "CE1V8ozW": "21100",
        "v5yn07L3": "34",
        "swzqU9m5": "0",
        "auypw76W": "6",
        "biX6Z83J": ""
    },
    {
        "P_MISSION_ID": "2001504",
        "CE1V8ozW": "21100",
        "v5yn07L3": "0",
        "swzqU9m5": "0",
        "auypw76W": "6",
        "biX6Z83J": ""
    },
    {
        "P_MISSION_ID": "2001505",
        "CE1V8ozW": "21100",
        "v5yn07L3": "34",
        "swzqU9m5": "0",
        "auypw76W": "6",
        "biX6Z83J": ""
    },
    {
        "P_MISSION_ID": "2001506",
        "CE1V8ozW": "21100",
        "v5yn07L3": "0",
        "swzqU9m5": "0",
        "auypw76W": "6",
        "biX6Z83J": ""
    },
    {
        "P_MISSION_ID": "2001507",
        "CE1V8ozW": "21100",
        "v5yn07L3": "34",
        "swzqU9m5": "0",
        "auypw76W": "6",
        "biX6Z83J": ""
    },
    {
        "P_MISSION_ID": "2001508",
        "CE1V8ozW": "21100",
        "v5yn07L3": "34",
        "swzqU9m5": "0",
        "auypw76W": "6",
        "biX6Z83J": ""
    },
    {
        "P_MISSION_ID": "2001509",
        "CE1V8ozW": "21101",
        "v5yn07L3": "0",
        "swzqU9m5": "0",
        "auypw76W": "6",
        "biX6Z83J": ""
    },
    {
        "P_MISSION_ID": "2001510",
        "CE1V8ozW": "21101",
        "v5yn07L3": "0",
        "swzqU9m5": "0",
        "auypw76W": "6",
        "biX6Z83J": ""
    },
    {
        "P_MISSION_ID": "2001511",
        "CE1V8ozW": "21101",
        "v5yn07L3": "0",
        "swzqU9m5": "0",
        "auypw76W": "6",
        "biX6Z83J": ""
    },
    {
        "P_MISSION_ID": "2001512",
        "CE1V8ozW": "21101",
        "v5yn07L3": "0",
        "swzqU9m5": "0",
        "auypw76W": "6",
        "biX6Z83J": ""
    },
    {
        "P_MISSION_ID": "2001513",
        "CE1V8ozW": "21101",
        "v5yn07L3": "0",
        "swzqU9m5": "0",
        "auypw76W": "6",
        "biX6Z83J": ""
    },
    {
        "P_MISSION_ID": "2001514",
        "CE1V8ozW": "21101",
        "v5yn07L3": "0",
        "swzqU9m5": "0",
        "auypw76W": "6",
        "biX6Z83J": ""
    },
    {
        "P_MISSION_ID": "2001515",
        "CE1V8ozW": "21101",
        "v5yn07L3": "0",
        "swzqU9m5": "0",
        "auypw76W": "6",
        "biX6Z83J": ""
    },
    {
        "P_MISSION_ID": "2001516",
        "CE1V8ozW": "21101",
        "v5yn07L3": "0",
        "swzqU9m5": "0",
        "auypw76W": "6",
        "biX6Z83J": ""
    },
    {
        "P_MISSION_ID": "2001517",
        "CE1V8ozW": "21101",
        "v5yn07L3": "0",
        "swzqU9m5": "0",
        "auypw76W": "6",
        "biX6Z83J": ""
    },
    {
        "P_MISSION_ID": "2001518",
        "CE1V8ozW": "21101",
        "v5yn07L3": "0",
        "swzqU9m5": "0",
        "auypw76W": "6",
        "biX6Z83J": ""
    },
    {
        "P_MISSION_ID": "2001519",
        "CE1V8ozW": "21101",
        "v5yn07L3": "0",
        "swzqU9m5": "0",
        "auypw76W": "6",
        "biX6Z83J": ""
    },
    {
        "P_MISSION_ID": "2001520",
        "CE1V8ozW": "21101",
        "v5yn07L3": "0",
        "swzqU9m5": "0",
        "auypw76W": "6",
        "biX6Z83J": ""
    },
    {
        "P_MISSION_ID": "2001521",
        "CE1V8ozW": "21101",
        "v5yn07L3": "0",
        "swzqU9m5": "0",
        "auypw76W": "6",
        "biX6Z83J": ""
    },
    {
        "P_MISSION_ID": "2001522",
        "CE1V8ozW": "21101",
        "v5yn07L3": "0",
        "swzqU9m5": "0",
        "auypw76W": "6",
        "biX6Z83J": ""
    },
    {
        "P_MISSION_ID": "2001523",
        "CE1V8ozW": "21101",
        "v5yn07L3": "0",
        "swzqU9m5": "0",
        "auypw76W": "6",
        "biX6Z83J": ""
    },
    {
        "P_MISSION_ID": "2001524",
        "CE1V8ozW": "21101",
        "v5yn07L3": "0",
        "swzqU9m5": "0",
        "auypw76W": "6",
        "biX6Z83J": ""
    },
    {
        "P_MISSION_ID": "2001525",
        "CE1V8ozW": "21101",
        "v5yn07L3": "0",
        "swzqU9m5": "0",
        "auypw76W": "6",
        "biX6Z83J": ""
    },
    {
        "P_MISSION_ID": "2001526",
        "CE1V8ozW": "21101",
        "v5yn07L3": "0",
        "swzqU9m5": "0",
        "auypw76W": "6",
        "biX6Z83J": ""
    },
    {
        "P_MISSION_ID": "2001527",
        "CE1V8ozW": "21101",
        "v5yn07L3": "0",
        "swzqU9m5": "0",
        "auypw76W": "6",
        "biX6Z83J": ""
    },
    {
        "P_MISSION_ID": "2001528",
        "CE1V8ozW": "21101",
        "v5yn07L3": "0",
        "swzqU9m5": "0",
        "auypw76W": "6",
        "biX6Z83J": ""
    },
    {
        "P_MISSION_ID": "2001529",
        "CE1V8ozW": "21101",
        "v5yn07L3": "0",
        "swzqU9m5": "0",
        "auypw76W": "6",
        "biX6Z83J": ""
    },
    {
        "P_MISSION_ID": "2001600",
        "CE1V8ozW": "21201",
        "v5yn07L3": "0",
        "swzqU9m5": "0",
        "auypw76W": "6",
        "biX6Z83J": ""
    },
    {
        "P_MISSION_ID": "2001601",
        "CE1V8ozW": "21202",
        "v5yn07L3": "0",
        "swzqU9m5": "0",
        "auypw76W": "6",
        "biX6Z83J": ""
    },
    {
        "P_MISSION_ID": "2001602",
        "CE1V8ozW": "21200",
        "v5yn07L3": "0",
        "swzqU9m5": "0",
        "auypw76W": "6",
        "biX6Z83J": ""
    },
    {
        "P_MISSION_ID": "2001603",
        "CE1V8ozW": "21204",
        "v5yn07L3": "0",
        "swzqU9m5": "0",
        "auypw76W": "",
        "biX6Z83J": ""
    },
    {
        "P_MISSION_ID": "2001604",
        "CE1V8ozW": "21203",
        "v5yn07L3": "0",
        "swzqU9m5": "0",
        "auypw76W": "",
        "biX6Z83J": ""
    },
    {
        "P_MISSION_ID": "2001605",
        "CE1V8ozW": "21206",
        "v5yn07L3": "0",
        "swzqU9m5": "0",
        "auypw76W": "6",
        "biX6Z83J": ""
    },
    {
        "P_MISSION_ID": "2001606",
        "CE1V8ozW": "21207",
        "v5yn07L3": "0",
        "swzqU9m5": "0",
        "auypw76W": "6",
        "biX6Z83J": ""
    },
    {
        "P_MISSION_ID": "2001607",
        "CE1V8ozW": "21207",
        "v5yn07L3": "0",
        "swzqU9m5": "0",
        "auypw76W": "6",
        "biX6Z83J": ""
    },
    {
        "P_MISSION_ID": "2001608",
        "CE1V8ozW": "21202",
        "v5yn07L3": "0",
        "swzqU9m5": "0",
        "auypw76W": "6",
        "biX6Z83J": ""
    },
    {
        "P_MISSION_ID": "2001609",
        "CE1V8ozW": "21200",
        "v5yn07L3": "0",
        "swzqU9m5": "0",
        "auypw76W": "6",
        "biX6Z83J": ""
    },
    {
        "P_MISSION_ID": "2001610",
        "CE1V8ozW": "21206",
        "v5yn07L3": "0",
        "swzqU9m5": "0",
        "auypw76W": "6",
        "biX6Z83J": ""
    },
    {
        "P_MISSION_ID": "2001700",
        "CE1V8ozW": "21300",
        "v5yn07L3": "0",
        "swzqU9m5": "0",
        "auypw76W": "6",
        "biX6Z83J": ""
    },
    {
        "P_MISSION_ID": "2001701",
        "CE1V8ozW": "21301",
        "v5yn07L3": "0",
        "swzqU9m5": "0",
        "auypw76W": "",
        "biX6Z83J": ""
    },
    {
        "P_MISSION_ID": "2001702",
        "CE1V8ozW": "21302",
        "v5yn07L3": "0",
        "swzqU9m5": "0",
        "auypw76W": "6",
        "biX6Z83J": ""
    },
    {
        "P_MISSION_ID": "2001703",
        "CE1V8ozW": "21303",
        "v5yn07L3": "0",
        "swzqU9m5": "0",
        "auypw76W": "",
        "biX6Z83J": ""
    },
    {
        "P_MISSION_ID": "2001704",
        "CE1V8ozW": "21304",
        "v5yn07L3": "0",
        "swzqU9m5": "0",
        "auypw76W": "6",
        "biX6Z83J": ""
    },
    {
        "P_MISSION_ID": "2001705",
        "CE1V8ozW": "21306",
        "v5yn07L3": "0",
        "swzqU9m5": "0",
        "auypw76W": "",
        "biX6Z83J": ""
    },
    {
        "P_MISSION_ID": "2001706",
        "CE1V8ozW": "21307",
        "v5yn07L3": "0",
        "swzqU9m5": "0",
        "auypw76W": "",
        "biX6Z83J": ""
    },
    {
        "P_MISSION_ID": "2001707",
        "CE1V8ozW": "21305",
        "v5yn07L3": "0",
        "swzqU9m5": "0",
        "auypw76W": "",
        "biX6Z83J": ""
    },
    {
        "P_MISSION_ID": "2001708",
        "CE1V8ozW": "21306",
        "v5yn07L3": "0",
        "swzqU9m5": "0",
        "auypw76W": "",
        "biX6Z83J": ""
    },
    {
        "P_MISSION_ID": "2001709",
        "CE1V8ozW": "21306",
        "v5yn07L3": "0",
        "swzqU9m5": "0",
        "auypw76W": "",
        "biX6Z83J": ""
    },
    {
        "P_MISSION_ID": "2001710",
        "CE1V8ozW": "21306",
        "v5yn07L3": "0",
        "swzqU9m5": "0",
        "auypw76W": "6",
        "biX6Z83J": ""
    },
    {
        "P_MISSION_ID": "2001711",
        "CE1V8ozW": "21306",
        "v5yn07L3": "0",
        "swzqU9m5": "0",
        "auypw76W": "6",
        "biX6Z83J": ""
    },
    {
        "P_MISSION_ID": "2001712",
        "CE1V8ozW": "21306",
        "v5yn07L3": "0",
        "swzqU9m5": "0",
        "auypw76W": "6",
        "biX6Z83J": ""
    },
    {
        "P_MISSION_ID": "2100000",
        "CE1V8ozW": "20700",
        "v5yn07L3": "0",
        "swzqU9m5": "0",
        "auypw76W": "6",
        "biX6Z83J": ""
    },
    {
        "P_MISSION_ID": "2100001",
        "CE1V8ozW": "20702",
        "v5yn07L3": "0",
        "swzqU9m5": "0",
        "auypw76W": "6",
        "biX6Z83J": ""
    },
    {
        "P_MISSION_ID": "2100002",
        "CE1V8ozW": "20703",
        "v5yn07L3": "0",
        "swzqU9m5": "0",
        "auypw76W": "6",
        "biX6Z83J": ""
    },
    {
        "P_MISSION_ID": "2100003",
        "CE1V8ozW": "20701",
        "v5yn07L3": "0",
        "swzqU9m5": "0",
        "auypw76W": "6",
        "biX6Z83J": ""
    },
    {
        "P_MISSION_ID": "3001004",
        "CE1V8ozW": "0",
        "v5yn07L3": "0",
        "swzqU9m5": "0",
        "auypw76W": "10,10$5$1.5:3,150$30",
        "biX6Z83J": ""
    },
    {
        "P_MISSION_ID": "3001005",
        "CE1V8ozW": "0",
        "v5yn07L3": "0",
        "swzqU9m5": "0",
        "auypw76W": "9,10$6$5$50000:8",
        "biX6Z83J": ""
    },
    {
        "P_MISSION_ID": "3001016",
        "CE1V8ozW": "0",
        "v5yn07L3": "0",
        "swzqU9m5": "0",
        "auypw76W": "10,10$5$1.5:3,150$30",
        "biX6Z83J": ""
    },
    {
        "P_MISSION_ID": "3001017",
        "CE1V8ozW": "0",
        "v5yn07L3": "0",
        "swzqU9m5": "0",
        "auypw76W": "9,10$6$5$50000:8",
        "biX6Z83J": ""
    },
    {
        "P_MISSION_ID": "3010101",
        "CE1V8ozW": "0",
        "v5yn07L3": "0",
        "swzqU9m5": "0",
        "auypw76W": "2,30",
        "biX6Z83J": ""
    },
    {
        "P_MISSION_ID": "3010102",
        "CE1V8ozW": "0",
        "v5yn07L3": "0",
        "swzqU9m5": "0",
        "auypw76W": "",
        "biX6Z83J": ""
    },
    {
        "P_MISSION_ID": "3010103",
        "CE1V8ozW": "0",
        "v5yn07L3": "0",
        "swzqU9m5": "0",
        "auypw76W": "2,30",
        "biX6Z83J": ""
    },
    {
        "P_MISSION_ID": "3010201",
        "CE1V8ozW": "0",
        "v5yn07L3": "0",
        "swzqU9m5": "0",
        "auypw76W": "2,30",
        "biX6Z83J": ""
    },
    {
        "P_MISSION_ID": "3010203",
        "CE1V8ozW": "0",
        "v5yn07L3": "23",
        "swzqU9m5": "0",
        "auypw76W": "",
        "biX6Z83J": ""
    },
    {
        "P_MISSION_ID": "3010204",
        "CE1V8ozW": "0",
        "v5yn07L3": "0",
        "swzqU9m5": "0",
        "auypw76W": "2,30",
        "biX6Z83J": ""
    },
    {
        "P_MISSION_ID": "3010301",
        "CE1V8ozW": "0",
        "v5yn07L3": "0",
        "swzqU9m5": "0",
        "auypw76W": "2,30",
        "biX6Z83J": ""
    },
    {
        "P_MISSION_ID": "3010303",
        "CE1V8ozW": "0",
        "v5yn07L3": "0",
        "swzqU9m5": "0",
        "auypw76W": "2,30",
        "biX6Z83J": ""
    },
    {
        "P_MISSION_ID": "3010401",
        "CE1V8ozW": "0",
        "v5yn07L3": "0",
        "swzqU9m5": "0",
        "auypw76W": "2,30",
        "biX6Z83J": ""
    },
    {
        "P_MISSION_ID": "3010501",
        "CE1V8ozW": "0",
        "v5yn07L3": "0",
        "swzqU9m5": "0",
        "auypw76W": "2,30",
        "biX6Z83J": ""
    },
    {
        "P_MISSION_ID": "3010503",
        "CE1V8ozW": "30000",
        "v5yn07L3": "5",
        "swzqU9m5": "0",
        "auypw76W": "2,30:6",
        "biX6Z83J": ""
    },
    {
        "P_MISSION_ID": "3010601",
        "CE1V8ozW": "0",
        "v5yn07L3": "0",
        "swzqU9m5": "0",
        "auypw76W": "2,30",
        "biX6Z83J": ""
    },
    {
        "P_MISSION_ID": "3010603",
        "CE1V8ozW": "0",
        "v5yn07L3": "0",
        "swzqU9m5": "0",
        "auypw76W": "2,30",
        "biX6Z83J": ""
    },
    {
        "P_MISSION_ID": "3010701",
        "CE1V8ozW": "0",
        "v5yn07L3": "0",
        "swzqU9m5": "0",
        "auypw76W": "2,30",
        "biX6Z83J": ""
    },
    {
        "P_MISSION_ID": "3010801",
        "CE1V8ozW": "0",
        "v5yn07L3": "0",
        "swzqU9m5": "0",
        "auypw76W": "2,30",
        "biX6Z83J": ""
    },
    {
        "P_MISSION_ID": "3010803",
        "CE1V8ozW": "0",
        "v5yn07L3": "0",
        "swzqU9m5": "0",
        "auypw76W": "2,30",
        "biX6Z83J": ""
    },
    {
        "P_MISSION_ID": "3010901",
        "CE1V8ozW": "0",
        "v5yn07L3": "0",
        "swzqU9m5": "0",
        "auypw76W": "2,30",
        "biX6Z83J": ""
    },
    {
        "P_MISSION_ID": "3010903",
        "CE1V8ozW": "0",
        "v5yn07L3": "18,22",
        "swzqU9m5": "0",
        "auypw76W": "",
        "biX6Z83J": ""
    },
    {
        "P_MISSION_ID": "3011001",
        "CE1V8ozW": "0",
        "v5yn07L3": "0",
        "swzqU9m5": "0",
        "auypw76W": "2,30",
        "biX6Z83J": ""
    },
    {
        "P_MISSION_ID": "3011003",
        "CE1V8ozW": "0",
        "v5yn07L3": "0",
        "swzqU9m5": "0",
        "auypw76W": "2,20",
        "biX6Z83J": ""
    },
    {
        "P_MISSION_ID": "3020101",
        "CE1V8ozW": "0",
        "v5yn07L3": "34",
        "swzqU9m5": "0",
        "auypw76W": "",
        "biX6Z83J": ""
    },
    {
        "P_MISSION_ID": "3020102",
        "CE1V8ozW": "0",
        "v5yn07L3": "34",
        "swzqU9m5": "0",
        "auypw76W": "",
        "biX6Z83J": ""
    },
    {
        "P_MISSION_ID": "3020103",
        "CE1V8ozW": "0",
        "v5yn07L3": "34",
        "swzqU9m5": "0",
        "auypw76W": "",
        "biX6Z83J": ""
    },
    {
        "P_MISSION_ID": "3020104",
        "CE1V8ozW": "0",
        "v5yn07L3": "34",
        "swzqU9m5": "0",
        "auypw76W": "",
        "biX6Z83J": ""
    },
    {
        "P_MISSION_ID": "3020105",
        "CE1V8ozW": "0",
        "v5yn07L3": "34",
        "swzqU9m5": "0",
        "auypw76W": "",
        "biX6Z83J": ""
    },
    {
        "P_MISSION_ID": "3020106",
        "CE1V8ozW": "0",
        "v5yn07L3": "34",
        "swzqU9m5": "0",
        "auypw76W": "",
        "biX6Z83J": ""
    },
    {
        "P_MISSION_ID": "3020107",
        "CE1V8ozW": "0",
        "v5yn07L3": "34",
        "swzqU9m5": "0",
        "auypw76W": "",
        "biX6Z83J": ""
    },
    {
        "P_MISSION_ID": "3020108",
        "CE1V8ozW": "0",
        "v5yn07L3": "34",
        "swzqU9m5": "0",
        "auypw76W": "",
        "biX6Z83J": ""
    }
]