[
    {
        "P_MISSION_ID": "1",
        "CE1V8ozW": "1",
        "v5yn07L3": "0",
        "swzqU9m5": "0",
        "auypw76W": "",
        "biX6Z83J": "",
        "P_CREATEDATE": "2018-02-03 19:44:43",
        "P_UPDATEDATE": "2018-02-03 19:44:43"
    },
    {
        "P_MISSION_ID": "2",
        "CE1V8ozW": "2",
        "v5yn07L3": "0",
        "swzqU9m5": "0",
        "auypw76W": "",
        "biX6Z83J": "",
        "P_CREATEDATE": "2018-02-03 19:44:43",
        "P_UPDATEDATE": "2018-02-03 19:44:43"
    },
    {
        "P_MISSION_ID": "3",
        "CE1V8ozW": "3",
        "v5yn07L3": "0",
        "swzqU9m5": "0",
        "auypw76W": "",
        "biX6Z83J": "",
        "P_CREATEDATE": "2018-02-03 19:44:43",
        "P_UPDATEDATE": "2018-02-03 19:44:43"
    },
    {
        "P_MISSION_ID": "101",
        "CE1V8ozW": "101",
        "v5yn07L3": "1,10",
        "swzqU9m5": "0",
        "auypw76W": "",
        "biX6Z83J": "",
        "P_CREATEDATE": "2018-02-03 19:44:43",
        "P_UPDATEDATE": "2018-02-03 19:44:43"
    },
    {
        "P_MISSION_ID": "102",
        "CE1V8ozW": "101",
        "v5yn07L3": "1,10",
        "swzqU9m5": "0",
        "auypw76W": "",
        "biX6Z83J": "",
        "P_CREATEDATE": "2018-02-03 19:44:43",
        "P_UPDATEDATE": "2018-02-03 19:44:43"
    },
    {
        "P_MISSION_ID": "503",
        "CE1V8ozW": "104",
        "v5yn07L3": "1,10",
        "swzqU9m5": "0",
        "auypw76W": "",
        "biX6Z83J": "",
        "P_CREATEDATE": "2018-02-03 19:44:43",
        "P_UPDATEDATE": "2018-02-03 19:44:43"
    },
    {
        "P_MISSION_ID": "610",
        "CE1V8ozW": "110",
        "v5yn07L3": "0",
        "swzqU9m5": "0",
        "auypw76W": "",
        "biX6Z83J": "",
        "P_CREATEDATE": "2018-02-03 19:44:43",
        "P_UPDATEDATE": "2018-02-03 19:44:43"
    },
    {
        "P_MISSION_ID": "810",
        "CE1V8ozW": "111",
        "v5yn07L3": "0",
        "swzqU9m5": "0",
        "auypw76W": "",
        "biX6Z83J": "",
        "P_CREATEDATE": "2018-02-03 19:44:43",
        "P_UPDATEDATE": "2018-02-03 19:44:43"
    },
    {
        "P_MISSION_ID": "811",
        "CE1V8ozW": "112",
        "v5yn07L3": "0",
        "swzqU9m5": "0",
        "auypw76W": "",
        "biX6Z83J": "",
        "P_CREATEDATE": "2018-02-03 19:44:43",
        "P_UPDATEDATE": "2018-02-03 19:44:43"
    },
    {
        "P_MISSION_ID": "904",
        "CE1V8ozW": "103",
        "v5yn07L3": "1,10",
        "swzqU9m5": "0",
        "auypw76W": "",
        "biX6Z83J": "",
        "P_CREATEDATE": "2018-02-03 19:44:43",
        "P_UPDATEDATE": "2018-02-03 19:44:43"
    },
    {
        "P_MISSION_ID": "910",
        "CE1V8ozW": "113",
        "v5yn07L3": "0",
        "swzqU9m5": "0",
        "auypw76W": "",
        "biX6Z83J": "",
        "P_CREATEDATE": "2018-02-03 19:44:43",
        "P_UPDATEDATE": "2018-02-03 19:44:43"
    },
    {
        "P_MISSION_ID": "1001",
        "CE1V8ozW": "201",
        "v5yn07L3": "3,10",
        "swzqU9m5": "0",
        "auypw76W": "",
        "biX6Z83J": "",
        "P_CREATEDATE": "2018-02-03 19:44:43",
        "P_UPDATEDATE": "2018-02-03 19:44:43"
    },
    {
        "P_MISSION_ID": "1002",
        "CE1V8ozW": "201",
        "v5yn07L3": "3,10",
        "swzqU9m5": "0",
        "auypw76W": "",
        "biX6Z83J": "",
        "P_CREATEDATE": "2018-02-03 19:44:43",
        "P_UPDATEDATE": "2018-02-03 19:44:43"
    },
    {
        "P_MISSION_ID": "1010",
        "CE1V8ozW": "207",
        "v5yn07L3": "0",
        "swzqU9m5": "0",
        "auypw76W": "",
        "biX6Z83J": "",
        "P_CREATEDATE": "2018-02-03 19:44:43",
        "P_UPDATEDATE": "2018-02-03 19:44:43"
    },
    {
        "P_MISSION_ID": "1101",
        "CE1V8ozW": "202",
        "v5yn07L3": "3,10",
        "swzqU9m5": "0",
        "auypw76W": "",
        "biX6Z83J": "",
        "P_CREATEDATE": "2018-02-03 19:44:43",
        "P_UPDATEDATE": "2018-02-03 19:44:43"
    },
    {
        "P_MISSION_ID": "1102",
        "CE1V8ozW": "202",
        "v5yn07L3": "3,10",
        "swzqU9m5": "0",
        "auypw76W": "",
        "biX6Z83J": "",
        "P_CREATEDATE": "2018-02-03 19:44:43",
        "P_UPDATEDATE": "2018-02-03 19:44:43"
    },
    {
        "P_MISSION_ID": "2001",
        "CE1V8ozW": "203",
        "v5yn07L3": "3,10",
        "swzqU9m5": "0",
        "auypw76W": "",
        "biX6Z83J": "",
        "P_CREATEDATE": "2018-02-03 19:44:43",
        "P_UPDATEDATE": "2018-02-03 19:44:43"
    },
    {
        "P_MISSION_ID": "2201",
        "CE1V8ozW": "202",
        "v5yn07L3": "3,10",
        "swzqU9m5": "0",
        "auypw76W": "",
        "biX6Z83J": "",
        "P_CREATEDATE": "2018-02-03 19:44:43",
        "P_UPDATEDATE": "2018-02-03 19:44:43"
    },
    {
        "P_MISSION_ID": "2203",
        "CE1V8ozW": "0",
        "v5yn07L3": "3",
        "swzqU9m5": "0",
        "auypw76W": "",
        "biX6Z83J": "",
        "P_CREATEDATE": "2018-02-03 19:44:43",
        "P_UPDATEDATE": "2018-02-03 19:44:43"
    },
    {
        "P_MISSION_ID": "2601",
        "CE1V8ozW": "105",
        "v5yn07L3": "2,10",
        "swzqU9m5": "0",
        "auypw76W": "",
        "biX6Z83J": "",
        "P_CREATEDATE": "2018-02-03 19:44:43",
        "P_UPDATEDATE": "2018-02-03 19:44:43"
    },
    {
        "P_MISSION_ID": "2602",
        "CE1V8ozW": "105",
        "v5yn07L3": "2,10",
        "swzqU9m5": "0",
        "auypw76W": "",
        "biX6Z83J": "",
        "P_CREATEDATE": "2018-02-03 19:44:43",
        "P_UPDATEDATE": "2018-02-03 19:44:43"
    },
    {
        "P_MISSION_ID": "2610",
        "CE1V8ozW": "114",
        "v5yn07L3": "0",
        "swzqU9m5": "0",
        "auypw76W": "",
        "biX6Z83J": "",
        "P_CREATEDATE": "2018-02-03 19:44:43",
        "P_UPDATEDATE": "2018-02-03 19:44:43"
    },
    {
        "P_MISSION_ID": "2904",
        "CE1V8ozW": "106",
        "v5yn07L3": "1,10",
        "swzqU9m5": "0",
        "auypw76W": "",
        "biX6Z83J": "",
        "P_CREATEDATE": "2018-02-03 19:44:43",
        "P_UPDATEDATE": "2018-02-03 19:44:43"
    },
    {
        "P_MISSION_ID": "2910",
        "CE1V8ozW": "115",
        "v5yn07L3": "0",
        "swzqU9m5": "0",
        "auypw76W": "",
        "biX6Z83J": "",
        "P_CREATEDATE": "2018-02-03 19:44:43",
        "P_UPDATEDATE": "2018-02-03 19:44:43"
    },
    {
        "P_MISSION_ID": "2950",
        "CE1V8ozW": "0",
        "v5yn07L3": "1,34",
        "swzqU9m5": "0",
        "auypw76W": "",
        "biX6Z83J": "",
        "P_CREATEDATE": "2018-02-03 19:44:43",
        "P_UPDATEDATE": "2018-02-03 19:44:43"
    },
    {
        "P_MISSION_ID": "3190",
        "CE1V8ozW": "118",
        "v5yn07L3": "0",
        "swzqU9m5": "0",
        "auypw76W": "",
        "biX6Z83J": "",
        "P_CREATEDATE": "2018-02-03 19:44:43",
        "P_UPDATEDATE": "2018-02-03 19:44:43"
    },
    {
        "P_MISSION_ID": "3202",
        "CE1V8ozW": "107",
        "v5yn07L3": "1,10",
        "swzqU9m5": "0",
        "auypw76W": "",
        "biX6Z83J": "",
        "P_CREATEDATE": "2018-02-03 19:44:43",
        "P_UPDATEDATE": "2018-02-03 19:44:43"
    },
    {
        "P_MISSION_ID": "3210",
        "CE1V8ozW": "116",
        "v5yn07L3": "0",
        "swzqU9m5": "0",
        "auypw76W": "",
        "biX6Z83J": "",
        "P_CREATEDATE": "2018-02-03 19:44:43",
        "P_UPDATEDATE": "2018-02-03 19:44:43"
    },
    {
        "P_MISSION_ID": "3501",
        "CE1V8ozW": "108,120",
        "v5yn07L3": "1,10",
        "swzqU9m5": "0",
        "auypw76W": "",
        "biX6Z83J": "",
        "P_CREATEDATE": "2018-02-03 19:44:43",
        "P_UPDATEDATE": "2018-02-03 19:44:43"
    },
    {
        "P_MISSION_ID": "3603",
        "CE1V8ozW": "109",
        "v5yn07L3": "5,34",
        "swzqU9m5": "0",
        "auypw76W": "",
        "biX6Z83J": "",
        "P_CREATEDATE": "2018-02-03 19:44:43",
        "P_UPDATEDATE": "2018-02-03 19:44:43"
    },
    {
        "P_MISSION_ID": "3650",
        "CE1V8ozW": "0",
        "v5yn07L3": "1,34",
        "swzqU9m5": "0",
        "auypw76W": "",
        "biX6Z83J": "",
        "P_CREATEDATE": "2018-02-03 19:44:43",
        "P_UPDATEDATE": "2018-02-03 19:44:43"
    },
    {
        "P_MISSION_ID": "3701",
        "CE1V8ozW": "204",
        "v5yn07L3": "4,10",
        "swzqU9m5": "0",
        "auypw76W": "",
        "biX6Z83J": "",
        "P_CREATEDATE": "2018-02-03 19:44:43",
        "P_UPDATEDATE": "2018-02-03 19:44:43"
    },
    {
        "P_MISSION_ID": "3702",
        "CE1V8ozW": "204",
        "v5yn07L3": "4,10",
        "swzqU9m5": "0",
        "auypw76W": "",
        "biX6Z83J": "",
        "P_CREATEDATE": "2018-02-03 19:44:43",
        "P_UPDATEDATE": "2018-02-03 19:44:43"
    },
    {
        "P_MISSION_ID": "3710",
        "CE1V8ozW": "218",
        "v5yn07L3": "0",
        "swzqU9m5": "0",
        "auypw76W": "",
        "biX6Z83J": "",
        "P_CREATEDATE": "2018-02-03 19:44:43",
        "P_UPDATEDATE": "2018-02-03 19:44:43"
    },
    {
        "P_MISSION_ID": "3810",
        "CE1V8ozW": "208",
        "v5yn07L3": "0",
        "swzqU9m5": "0",
        "auypw76W": "",
        "biX6Z83J": "",
        "P_CREATEDATE": "2018-02-03 19:44:43",
        "P_UPDATEDATE": "2018-02-03 19:44:43"
    },
    {
        "P_MISSION_ID": "3901",
        "CE1V8ozW": "206",
        "v5yn07L3": "4,10",
        "swzqU9m5": "0",
        "auypw76W": "",
        "biX6Z83J": "",
        "P_CREATEDATE": "2018-02-03 19:44:43",
        "P_UPDATEDATE": "2018-02-03 19:44:43"
    },
    {
        "P_MISSION_ID": "3902",
        "CE1V8ozW": "206",
        "v5yn07L3": "4,10",
        "swzqU9m5": "0",
        "auypw76W": "",
        "biX6Z83J": "",
        "P_CREATEDATE": "2018-02-03 19:44:43",
        "P_UPDATEDATE": "2018-02-03 19:44:43"
    },
    {
        "P_MISSION_ID": "3903",
        "CE1V8ozW": "206",
        "v5yn07L3": "4,10",
        "swzqU9m5": "0",
        "auypw76W": "",
        "biX6Z83J": "",
        "P_CREATEDATE": "2018-02-03 19:44:43",
        "P_UPDATEDATE": "2018-02-03 19:44:43"
    },
    {
        "P_MISSION_ID": "3910",
        "CE1V8ozW": "209",
        "v5yn07L3": "0",
        "swzqU9m5": "0",
        "auypw76W": "",
        "biX6Z83J": "",
        "P_CREATEDATE": "2018-02-03 19:44:43",
        "P_UPDATEDATE": "2018-02-03 19:44:43"
    },
    {
        "P_MISSION_ID": "3911",
        "CE1V8ozW": "209",
        "v5yn07L3": "0",
        "swzqU9m5": "0",
        "auypw76W": "",
        "biX6Z83J": "",
        "P_CREATEDATE": "2018-02-03 19:44:43",
        "P_UPDATEDATE": "2018-02-03 19:44:43"
    },
    {
        "P_MISSION_ID": "3912",
        "CE1V8ozW": "210",
        "v5yn07L3": "0",
        "swzqU9m5": "0",
        "auypw76W": "",
        "biX6Z83J": "",
        "P_CREATEDATE": "2018-02-03 19:44:43",
        "P_UPDATEDATE": "2018-02-03 19:44:43"
    },
    {
        "P_MISSION_ID": "4003",
        "CE1V8ozW": "205",
        "v5yn07L3": "3,10",
        "swzqU9m5": "0",
        "auypw76W": "",
        "biX6Z83J": "",
        "P_CREATEDATE": "2018-02-03 19:44:43",
        "P_UPDATEDATE": "2018-02-03 19:44:43"
    },
    {
        "P_MISSION_ID": "4010",
        "CE1V8ozW": "208",
        "v5yn07L3": "0",
        "swzqU9m5": "0",
        "auypw76W": "",
        "biX6Z83J": "",
        "P_CREATEDATE": "2018-02-03 19:44:43",
        "P_UPDATEDATE": "2018-02-03 19:44:43"
    },
    {
        "P_MISSION_ID": "4011",
        "CE1V8ozW": "211",
        "v5yn07L3": "0",
        "swzqU9m5": "0",
        "auypw76W": "",
        "biX6Z83J": "",
        "P_CREATEDATE": "2018-02-03 19:44:43",
        "P_UPDATEDATE": "2018-02-03 19:44:43"
    },
    {
        "P_MISSION_ID": "4012",
        "CE1V8ozW": "208",
        "v5yn07L3": "0",
        "swzqU9m5": "0",
        "auypw76W": "",
        "biX6Z83J": "",
        "P_CREATEDATE": "2018-02-03 19:44:43",
        "P_UPDATEDATE": "2018-02-03 19:44:43"
    },
    {
        "P_MISSION_ID": "4101",
        "CE1V8ozW": "0",
        "v5yn07L3": "0",
        "swzqU9m5": "0",
        "auypw76W": "3,300",
        "biX6Z83J": "",
        "P_CREATEDATE": "2018-02-03 19:44:43",
        "P_UPDATEDATE": "2018-02-03 19:44:43"
    },
    {
        "P_MISSION_ID": "4102",
        "CE1V8ozW": "0",
        "v5yn07L3": "0",
        "swzqU9m5": "0",
        "auypw76W": "3,300",
        "biX6Z83J": "",
        "P_CREATEDATE": "2018-02-03 19:44:43",
        "P_UPDATEDATE": "2018-02-03 19:44:43"
    },
    {
        "P_MISSION_ID": "4110",
        "CE1V8ozW": "219",
        "v5yn07L3": "0",
        "swzqU9m5": "0",
        "auypw76W": "",
        "biX6Z83J": "",
        "P_CREATEDATE": "2018-02-03 19:44:43",
        "P_UPDATEDATE": "2018-02-03 19:44:43"
    },
    {
        "P_MISSION_ID": "4201",
        "CE1V8ozW": "0",
        "v5yn07L3": "0",
        "swzqU9m5": "0",
        "auypw76W": "2,15",
        "biX6Z83J": "",
        "P_CREATEDATE": "2018-02-03 19:44:43",
        "P_UPDATEDATE": "2018-02-03 19:44:43"
    },
    {
        "P_MISSION_ID": "4202",
        "CE1V8ozW": "0",
        "v5yn07L3": "0",
        "swzqU9m5": "0",
        "auypw76W": "2,15",
        "biX6Z83J": "",
        "P_CREATEDATE": "2018-02-03 19:44:43",
        "P_UPDATEDATE": "2018-02-03 19:44:43"
    },
    {
        "P_MISSION_ID": "4410",
        "CE1V8ozW": "219",
        "v5yn07L3": "0",
        "swzqU9m5": "0",
        "auypw76W": "",
        "biX6Z83J": "",
        "P_CREATEDATE": "2018-02-03 19:44:43",
        "P_UPDATEDATE": "2018-02-03 19:44:43"
    },
    {
        "P_MISSION_ID": "4411",
        "CE1V8ozW": "219",
        "v5yn07L3": "0",
        "swzqU9m5": "0",
        "auypw76W": "",
        "biX6Z83J": "",
        "P_CREATEDATE": "2018-02-03 19:44:43",
        "P_UPDATEDATE": "2018-02-03 19:44:43"
    },
    {
        "P_MISSION_ID": "4501",
        "CE1V8ozW": "0",
        "v5yn07L3": "0",
        "swzqU9m5": "0",
        "auypw76W": "3,300",
        "biX6Z83J": "",
        "P_CREATEDATE": "2018-02-03 19:44:43",
        "P_UPDATEDATE": "2018-02-03 19:44:43"
    },
    {
        "P_MISSION_ID": "4502",
        "CE1V8ozW": "0",
        "v5yn07L3": "0",
        "swzqU9m5": "0",
        "auypw76W": "3,300",
        "biX6Z83J": "",
        "P_CREATEDATE": "2018-02-03 19:44:43",
        "P_UPDATEDATE": "2018-02-03 19:44:43"
    },
    {
        "P_MISSION_ID": "4503",
        "CE1V8ozW": "0",
        "v5yn07L3": "0",
        "swzqU9m5": "0",
        "auypw76W": "3,300",
        "biX6Z83J": "",
        "P_CREATEDATE": "2018-02-03 19:44:43",
        "P_UPDATEDATE": "2018-02-03 19:44:43"
    },
    {
        "P_MISSION_ID": "4510",
        "CE1V8ozW": "220",
        "v5yn07L3": "0",
        "swzqU9m5": "0",
        "auypw76W": "",
        "biX6Z83J": "",
        "P_CREATEDATE": "2018-02-03 19:44:43",
        "P_UPDATEDATE": "2018-02-03 19:44:43"
    },
    {
        "P_MISSION_ID": "4602",
        "CE1V8ozW": "204",
        "v5yn07L3": "4,10",
        "swzqU9m5": "0",
        "auypw76W": "",
        "biX6Z83J": "",
        "P_CREATEDATE": "2018-02-03 19:44:43",
        "P_UPDATEDATE": "2018-02-03 19:44:43"
    },
    {
        "P_MISSION_ID": "4603",
        "CE1V8ozW": "206",
        "v5yn07L3": "4,10",
        "swzqU9m5": "0",
        "auypw76W": "",
        "biX6Z83J": "",
        "P_CREATEDATE": "2018-02-03 19:44:43",
        "P_UPDATEDATE": "2018-02-03 19:44:43"
    },
    {
        "P_MISSION_ID": "4610",
        "CE1V8ozW": "220",
        "v5yn07L3": "0",
        "swzqU9m5": "0",
        "auypw76W": "",
        "biX6Z83J": "",
        "P_CREATEDATE": "2018-02-03 19:44:43",
        "P_UPDATEDATE": "2018-02-03 19:44:43"
    },
    {
        "P_MISSION_ID": "4611",
        "CE1V8ozW": "219",
        "v5yn07L3": "0",
        "swzqU9m5": "0",
        "auypw76W": "",
        "biX6Z83J": "",
        "P_CREATEDATE": "2018-02-03 19:44:43",
        "P_UPDATEDATE": "2018-02-03 19:44:43"
    },
    {
        "P_MISSION_ID": "4612",
        "CE1V8ozW": "112",
        "v5yn07L3": "0",
        "swzqU9m5": "0",
        "auypw76W": "",
        "biX6Z83J": "",
        "P_CREATEDATE": "2018-02-03 19:44:43",
        "P_UPDATEDATE": "2018-02-03 19:44:43"
    },
    {
        "P_MISSION_ID": "4613",
        "CE1V8ozW": "221",
        "v5yn07L3": "0",
        "swzqU9m5": "0",
        "auypw76W": "",
        "biX6Z83J": "",
        "P_CREATEDATE": "2018-02-03 19:44:43",
        "P_UPDATEDATE": "2018-02-03 19:44:43"
    },
    {
        "P_MISSION_ID": "4904",
        "CE1V8ozW": "301",
        "v5yn07L3": "1,10",
        "swzqU9m5": "0",
        "auypw76W": "",
        "biX6Z83J": "",
        "P_CREATEDATE": "2018-02-03 19:44:43",
        "P_UPDATEDATE": "2018-02-03 19:44:43"
    },
    {
        "P_MISSION_ID": "4910",
        "CE1V8ozW": "306",
        "v5yn07L3": "0",
        "swzqU9m5": "0",
        "auypw76W": "",
        "biX6Z83J": "",
        "P_CREATEDATE": "2018-02-03 19:44:43",
        "P_UPDATEDATE": "2018-02-03 19:44:43"
    },
    {
        "P_MISSION_ID": "5002",
        "CE1V8ozW": "302",
        "v5yn07L3": "1,10",
        "swzqU9m5": "0",
        "auypw76W": "",
        "biX6Z83J": "",
        "P_CREATEDATE": "2018-02-03 19:44:43",
        "P_UPDATEDATE": "2018-02-03 19:44:43"
    },
    {
        "P_MISSION_ID": "5003",
        "CE1V8ozW": "302",
        "v5yn07L3": "1,10",
        "swzqU9m5": "0",
        "auypw76W": "",
        "biX6Z83J": "",
        "P_CREATEDATE": "2018-02-03 19:44:43",
        "P_UPDATEDATE": "2018-02-03 19:44:43"
    },
    {
        "P_MISSION_ID": "5010",
        "CE1V8ozW": "307",
        "v5yn07L3": "0",
        "swzqU9m5": "0",
        "auypw76W": "",
        "biX6Z83J": "",
        "P_CREATEDATE": "2018-02-03 19:44:43",
        "P_UPDATEDATE": "2018-02-03 19:44:43"
    },
    {
        "P_MISSION_ID": "5103",
        "CE1V8ozW": "303",
        "v5yn07L3": "1,10",
        "swzqU9m5": "0",
        "auypw76W": "",
        "biX6Z83J": "",
        "P_CREATEDATE": "2018-02-03 19:44:43",
        "P_UPDATEDATE": "2018-02-03 19:44:43"
    },
    {
        "P_MISSION_ID": "5204",
        "CE1V8ozW": "304",
        "v5yn07L3": "5",
        "swzqU9m5": "0",
        "auypw76W": "",
        "biX6Z83J": "",
        "P_CREATEDATE": "2018-02-03 19:44:43",
        "P_UPDATEDATE": "2018-02-03 19:44:43"
    },
    {
        "P_MISSION_ID": "2000000",
        "CE1V8ozW": "20000",
        "v5yn07L3": "0",
        "swzqU9m5": "0",
        "auypw76W": "",
        "biX6Z83J": "",
        "P_CREATEDATE": "2018-02-03 19:44:43",
        "P_UPDATEDATE": "2018-02-03 19:44:43"
    },
    {
        "P_MISSION_ID": "2000001",
        "CE1V8ozW": "20001",
        "v5yn07L3": "0",
        "swzqU9m5": "0",
        "auypw76W": "",
        "biX6Z83J": "",
        "P_CREATEDATE": "2018-02-03 19:44:43",
        "P_UPDATEDATE": "2018-02-03 19:44:43"
    },
    {
        "P_MISSION_ID": "2000002",
        "CE1V8ozW": "20002",
        "v5yn07L3": "0",
        "swzqU9m5": "0",
        "auypw76W": "",
        "biX6Z83J": "",
        "P_CREATEDATE": "2018-02-03 19:44:43",
        "P_UPDATEDATE": "2018-02-03 19:44:43"
    },
    {
        "P_MISSION_ID": "2000003",
        "CE1V8ozW": "20003",
        "v5yn07L3": "0",
        "swzqU9m5": "0",
        "auypw76W": "",
        "biX6Z83J": "",
        "P_CREATEDATE": "2018-02-03 19:44:43",
        "P_UPDATEDATE": "2018-02-03 19:44:43"
    },
    {
        "P_MISSION_ID": "2000004",
        "CE1V8ozW": "20004",
        "v5yn07L3": "0",
        "swzqU9m5": "0",
        "auypw76W": "",
        "biX6Z83J": "",
        "P_CREATEDATE": "2018-02-03 19:44:43",
        "P_UPDATEDATE": "2018-02-03 19:44:43"
    },
    {
        "P_MISSION_ID": "2000005",
        "CE1V8ozW": "20005",
        "v5yn07L3": "0",
        "swzqU9m5": "0",
        "auypw76W": "",
        "biX6Z83J": "",
        "P_CREATEDATE": "2018-02-03 19:44:43",
        "P_UPDATEDATE": "2018-02-03 19:44:43"
    },
    {
        "P_MISSION_ID": "2000006",
        "CE1V8ozW": "20006",
        "v5yn07L3": "0",
        "swzqU9m5": "0",
        "auypw76W": "",
        "biX6Z83J": "",
        "P_CREATEDATE": "2018-02-03 19:44:43",
        "P_UPDATEDATE": "2018-02-03 19:44:43"
    },
    {
        "P_MISSION_ID": "2000007",
        "CE1V8ozW": "20007",
        "v5yn07L3": "34",
        "swzqU9m5": "0",
        "auypw76W": "",
        "biX6Z83J": "",
        "P_CREATEDATE": "2018-02-03 19:44:43",
        "P_UPDATEDATE": "2018-02-03 19:44:43"
    },
    {
        "P_MISSION_ID": "2000008",
        "CE1V8ozW": "20008",
        "v5yn07L3": "34",
        "swzqU9m5": "0",
        "auypw76W": "",
        "biX6Z83J": "",
        "P_CREATEDATE": "2018-02-03 19:44:43",
        "P_UPDATEDATE": "2018-02-03 19:44:43"
    },
    {
        "P_MISSION_ID": "2000010",
        "CE1V8ozW": "20011",
        "v5yn07L3": "0",
        "swzqU9m5": "0",
        "auypw76W": "",
        "biX6Z83J": "",
        "P_CREATEDATE": "2018-02-03 19:44:43",
        "P_UPDATEDATE": "2018-02-03 19:44:43"
    },
    {
        "P_MISSION_ID": "2000012",
        "CE1V8ozW": "20009",
        "v5yn07L3": "0",
        "swzqU9m5": "0",
        "auypw76W": "",
        "biX6Z83J": "",
        "P_CREATEDATE": "2018-02-03 19:44:43",
        "P_UPDATEDATE": "2018-02-03 19:44:43"
    },
    {
        "P_MISSION_ID": "2000100",
        "CE1V8ozW": "20050",
        "v5yn07L3": "0",
        "swzqU9m5": "0",
        "auypw76W": "",
        "biX6Z83J": "",
        "P_CREATEDATE": "2018-02-03 19:44:43",
        "P_UPDATEDATE": "2018-02-03 19:44:43"
    },
    {
        "P_MISSION_ID": "2000101",
        "CE1V8ozW": "20051",
        "v5yn07L3": "0",
        "swzqU9m5": "0",
        "auypw76W": "",
        "biX6Z83J": "",
        "P_CREATEDATE": "2018-02-03 19:44:43",
        "P_UPDATEDATE": "2018-02-03 19:44:43"
    },
    {
        "P_MISSION_ID": "2000102",
        "CE1V8ozW": "20051",
        "v5yn07L3": "0",
        "swzqU9m5": "0",
        "auypw76W": "",
        "biX6Z83J": "",
        "P_CREATEDATE": "2018-02-03 19:44:43",
        "P_UPDATEDATE": "2018-02-03 19:44:43"
    },
    {
        "P_MISSION_ID": "2000103",
        "CE1V8ozW": "20052",
        "v5yn07L3": "0",
        "swzqU9m5": "0",
        "auypw76W": "",
        "biX6Z83J": "",
        "P_CREATEDATE": "2018-02-03 19:44:43",
        "P_UPDATEDATE": "2018-02-03 19:44:43"
    },
    {
        "P_MISSION_ID": "2000104",
        "CE1V8ozW": "20050",
        "v5yn07L3": "0",
        "swzqU9m5": "0",
        "auypw76W": "",
        "biX6Z83J": "",
        "P_CREATEDATE": "2018-02-03 19:44:43",
        "P_UPDATEDATE": "2018-02-03 19:44:43"
    },
    {
        "P_MISSION_ID": "2000105",
        "CE1V8ozW": "20053",
        "v5yn07L3": "0",
        "swzqU9m5": "0",
        "auypw76W": "",
        "biX6Z83J": "",
        "P_CREATEDATE": "2018-02-03 19:44:43",
        "P_UPDATEDATE": "2018-02-03 19:44:43"
    },
    {
        "P_MISSION_ID": "2000106",
        "CE1V8ozW": "20054",
        "v5yn07L3": "0",
        "swzqU9m5": "0",
        "auypw76W": "",
        "biX6Z83J": "",
        "P_CREATEDATE": "2018-02-03 19:44:43",
        "P_UPDATEDATE": "2018-02-03 19:44:43"
    },
    {
        "P_MISSION_ID": "2000107",
        "CE1V8ozW": "20055",
        "v5yn07L3": "0",
        "swzqU9m5": "0",
        "auypw76W": "",
        "biX6Z83J": "",
        "P_CREATEDATE": "2018-02-03 19:44:43",
        "P_UPDATEDATE": "2018-02-03 19:44:43"
    },
    {
        "P_MISSION_ID": "2000108",
        "CE1V8ozW": "20055",
        "v5yn07L3": "0",
        "swzqU9m5": "0",
        "auypw76W": "",
        "biX6Z83J": "",
        "P_CREATEDATE": "2018-02-03 19:44:43",
        "P_UPDATEDATE": "2018-02-03 19:44:43"
    },
    {
        "P_MISSION_ID": "2000109",
        "CE1V8ozW": "20056",
        "v5yn07L3": "0",
        "swzqU9m5": "0",
        "auypw76W": "",
        "biX6Z83J": "",
        "P_CREATEDATE": "2018-02-03 19:44:43",
        "P_UPDATEDATE": "2018-02-03 19:44:43"
    },
    {
        "P_MISSION_ID": "2000110",
        "CE1V8ozW": "20052",
        "v5yn07L3": "0",
        "swzqU9m5": "0",
        "auypw76W": "",
        "biX6Z83J": "",
        "P_CREATEDATE": "2018-02-03 19:44:43",
        "P_UPDATEDATE": "2018-02-03 19:44:43"
    },
    {
        "P_MISSION_ID": "2000200",
        "CE1V8ozW": "20100",
        "v5yn07L3": "0",
        "swzqU9m5": "0",
        "auypw76W": "",
        "biX6Z83J": "",
        "P_CREATEDATE": "2018-02-03 19:44:43",
        "P_UPDATEDATE": "2018-02-03 19:44:43"
    },
    {
        "P_MISSION_ID": "2000201",
        "CE1V8ozW": "20101",
        "v5yn07L3": "0",
        "swzqU9m5": "0",
        "auypw76W": "",
        "biX6Z83J": "",
        "P_CREATEDATE": "2018-02-03 19:44:43",
        "P_UPDATEDATE": "2018-02-03 19:44:43"
    },
    {
        "P_MISSION_ID": "2000202",
        "CE1V8ozW": "20103",
        "v5yn07L3": "0",
        "swzqU9m5": "0",
        "auypw76W": "",
        "biX6Z83J": "",
        "P_CREATEDATE": "2018-02-03 19:44:43",
        "P_UPDATEDATE": "2018-02-03 19:44:43"
    },
    {
        "P_MISSION_ID": "2000203",
        "CE1V8ozW": "20103",
        "v5yn07L3": "0",
        "swzqU9m5": "0",
        "auypw76W": "",
        "biX6Z83J": "",
        "P_CREATEDATE": "2018-02-03 19:44:43",
        "P_UPDATEDATE": "2018-02-03 19:44:43"
    },
    {
        "P_MISSION_ID": "2000204",
        "CE1V8ozW": "20104",
        "v5yn07L3": "0",
        "swzqU9m5": "0",
        "auypw76W": "",
        "biX6Z83J": "",
        "P_CREATEDATE": "2018-02-03 19:44:43",
        "P_UPDATEDATE": "2018-02-03 19:44:43"
    },
    {
        "P_MISSION_ID": "2000300",
        "CE1V8ozW": "20150",
        "v5yn07L3": "0",
        "swzqU9m5": "0",
        "auypw76W": "",
        "biX6Z83J": "",
        "P_CREATEDATE": "2018-02-03 19:44:43",
        "P_UPDATEDATE": "2018-02-03 19:44:43"
    },
    {
        "P_MISSION_ID": "2000301",
        "CE1V8ozW": "20151",
        "v5yn07L3": "0",
        "swzqU9m5": "0",
        "auypw76W": "",
        "biX6Z83J": "",
        "P_CREATEDATE": "2018-02-03 19:44:43",
        "P_UPDATEDATE": "2018-02-03 19:44:43"
    },
    {
        "P_MISSION_ID": "2000302",
        "CE1V8ozW": "20152",
        "v5yn07L3": "0",
        "swzqU9m5": "0",
        "auypw76W": "",
        "biX6Z83J": "",
        "P_CREATEDATE": "2018-02-03 19:44:43",
        "P_UPDATEDATE": "2018-02-03 19:44:43"
    },
    {
        "P_MISSION_ID": "2000303",
        "CE1V8ozW": "20153",
        "v5yn07L3": "0",
        "swzqU9m5": "0",
        "auypw76W": "",
        "biX6Z83J": "",
        "P_CREATEDATE": "2018-02-03 19:44:43",
        "P_UPDATEDATE": "2018-02-03 19:44:43"
    },
    {
        "P_MISSION_ID": "2000304",
        "CE1V8ozW": "20154",
        "v5yn07L3": "0",
        "swzqU9m5": "0",
        "auypw76W": "",
        "biX6Z83J": "",
        "P_CREATEDATE": "2018-02-03 19:44:43",
        "P_UPDATEDATE": "2018-02-03 19:44:43"
    },
    {
        "P_MISSION_ID": "2000305",
        "CE1V8ozW": "20155",
        "v5yn07L3": "0",
        "swzqU9m5": "0",
        "auypw76W": "",
        "biX6Z83J": "",
        "P_CREATEDATE": "2018-02-03 19:44:43",
        "P_UPDATEDATE": "2018-02-03 19:44:43"
    },
    {
        "P_MISSION_ID": "2000306",
        "CE1V8ozW": "20156",
        "v5yn07L3": "0",
        "swzqU9m5": "0",
        "auypw76W": "",
        "biX6Z83J": "",
        "P_CREATEDATE": "2018-02-03 19:44:43",
        "P_UPDATEDATE": "2018-02-03 19:44:43"
    },
    {
        "P_MISSION_ID": "2000400",
        "CE1V8ozW": "20200",
        "v5yn07L3": "0",
        "swzqU9m5": "0",
        "auypw76W": "",
        "biX6Z83J": "",
        "P_CREATEDATE": "2018-02-03 19:44:43",
        "P_UPDATEDATE": "2018-02-03 19:44:43"
    },
    {
        "P_MISSION_ID": "2000401",
        "CE1V8ozW": "20200",
        "v5yn07L3": "0",
        "swzqU9m5": "0",
        "auypw76W": "",
        "biX6Z83J": "",
        "P_CREATEDATE": "2018-02-03 19:44:43",
        "P_UPDATEDATE": "2018-02-03 19:44:43"
    },
    {
        "P_MISSION_ID": "2000402",
        "CE1V8ozW": "20201",
        "v5yn07L3": "0",
        "swzqU9m5": "0",
        "auypw76W": "",
        "biX6Z83J": "",
        "P_CREATEDATE": "2018-02-03 19:44:43",
        "P_UPDATEDATE": "2018-02-03 19:44:43"
    },
    {
        "P_MISSION_ID": "2000403",
        "CE1V8ozW": "20200",
        "v5yn07L3": "0",
        "swzqU9m5": "0",
        "auypw76W": "",
        "biX6Z83J": "",
        "P_CREATEDATE": "2018-02-03 19:44:43",
        "P_UPDATEDATE": "2018-02-03 19:44:43"
    },
    {
        "P_MISSION_ID": "2000404",
        "CE1V8ozW": "20200",
        "v5yn07L3": "0",
        "swzqU9m5": "0",
        "auypw76W": "",
        "biX6Z83J": "",
        "P_CREATEDATE": "2018-02-03 19:44:43",
        "P_UPDATEDATE": "2018-02-03 19:44:43"
    },
    {
        "P_MISSION_ID": "2000405",
        "CE1V8ozW": "20200",
        "v5yn07L3": "0",
        "swzqU9m5": "0",
        "auypw76W": "",
        "biX6Z83J": "",
        "P_CREATEDATE": "2018-02-03 19:44:43",
        "P_UPDATEDATE": "2018-02-03 19:44:43"
    },
    {
        "P_MISSION_ID": "2000406",
        "CE1V8ozW": "20200",
        "v5yn07L3": "0",
        "swzqU9m5": "0",
        "auypw76W": "3,600",
        "biX6Z83J": "",
        "P_CREATEDATE": "2018-02-03 19:44:43",
        "P_UPDATEDATE": "2018-02-03 19:44:43"
    },
    {
        "P_MISSION_ID": "2000407",
        "CE1V8ozW": "20200",
        "v5yn07L3": "0",
        "swzqU9m5": "0",
        "auypw76W": "",
        "biX6Z83J": "",
        "P_CREATEDATE": "2018-02-03 19:44:43",
        "P_UPDATEDATE": "2018-02-03 19:44:43"
    },
    {
        "P_MISSION_ID": "2000408",
        "CE1V8ozW": "20200",
        "v5yn07L3": "0",
        "swzqU9m5": "0",
        "auypw76W": "",
        "biX6Z83J": "",
        "P_CREATEDATE": "2018-02-03 19:44:43",
        "P_UPDATEDATE": "2018-02-03 19:44:43"
    },
    {
        "P_MISSION_ID": "2000900",
        "CE1V8ozW": "9102",
        "v5yn07L3": "0",
        "swzqU9m5": "0",
        "auypw76W": "",
        "biX6Z83J": "",
        "P_CREATEDATE": "2018-02-03 19:44:43",
        "P_UPDATEDATE": "2018-02-03 19:44:43"
    },
    {
        "P_MISSION_ID": "2000901",
        "CE1V8ozW": "9103",
        "v5yn07L3": "0",
        "swzqU9m5": "0",
        "auypw76W": "",
        "biX6Z83J": "",
        "P_CREATEDATE": "2018-02-03 19:44:43",
        "P_UPDATEDATE": "2018-02-03 19:44:43"
    },
    {
        "P_MISSION_ID": "2000902",
        "CE1V8ozW": "9104",
        "v5yn07L3": "0",
        "swzqU9m5": "0",
        "auypw76W": "",
        "biX6Z83J": "",
        "P_CREATEDATE": "2018-02-03 19:44:43",
        "P_UPDATEDATE": "2018-02-03 19:44:43"
    },
    {
        "P_MISSION_ID": "3010101",
        "CE1V8ozW": "0",
        "v5yn07L3": "1",
        "swzqU9m5": "0",
        "auypw76W": "2,30",
        "biX6Z83J": "",
        "P_CREATEDATE": "2018-02-03 19:44:43",
        "P_UPDATEDATE": "2018-02-03 19:44:43"
    },
    {
        "P_MISSION_ID": "3010102",
        "CE1V8ozW": "0",
        "v5yn07L3": "2",
        "swzqU9m5": "0",
        "auypw76W": "",
        "biX6Z83J": "",
        "P_CREATEDATE": "2018-02-03 19:44:43",
        "P_UPDATEDATE": "2018-02-03 19:44:43"
    },
    {
        "P_MISSION_ID": "3010103",
        "CE1V8ozW": "0",
        "v5yn07L3": "14",
        "swzqU9m5": "0",
        "auypw76W": "3,600",
        "biX6Z83J": "",
        "P_CREATEDATE": "2018-02-03 19:44:43",
        "P_UPDATEDATE": "2018-02-03 19:44:43"
    },
    {
        "P_MISSION_ID": "3010104",
        "CE1V8ozW": "0",
        "v5yn07L3": "19",
        "swzqU9m5": "0",
        "auypw76W": "",
        "biX6Z83J": "",
        "P_CREATEDATE": "2018-02-03 19:44:43",
        "P_UPDATEDATE": "2018-02-03 19:44:43"
    },
    {
        "P_MISSION_ID": "9000003",
        "CE1V8ozW": "9001",
        "v5yn07L3": "0",
        "swzqU9m5": "0",
        "auypw76W": "",
        "biX6Z83J": "",
        "P_CREATEDATE": "2018-02-03 19:44:43",
        "P_UPDATEDATE": "2018-02-03 19:44:43"
    },
    {
        "P_MISSION_ID": "9000004",
        "CE1V8ozW": "9002",
        "v5yn07L3": "0",
        "swzqU9m5": "0",
        "auypw76W": "",
        "biX6Z83J": "",
        "P_CREATEDATE": "2018-02-03 19:44:43",
        "P_UPDATEDATE": "2018-02-03 19:44:43"
    },
    {
        "P_MISSION_ID": "9000005",
        "CE1V8ozW": "9100",
        "v5yn07L3": "0",
        "swzqU9m5": "0",
        "auypw76W": "",
        "biX6Z83J": "",
        "P_CREATEDATE": "2018-02-03 19:44:43",
        "P_UPDATEDATE": "2018-02-03 19:44:43"
    },
    {
        "P_MISSION_ID": "9000006",
        "CE1V8ozW": "9101",
        "v5yn07L3": "0",
        "swzqU9m5": "0",
        "auypw76W": "",
        "biX6Z83J": "",
        "P_CREATEDATE": "2018-02-03 19:44:43",
        "P_UPDATEDATE": "2018-02-03 19:44:43"
    },
    {
        "P_MISSION_ID": "9000019",
        "CE1V8ozW": "0",
        "v5yn07L3": "0",
        "swzqU9m5": "0",
        "auypw76W": "2,10",
        "biX6Z83J": "",
        "P_CREATEDATE": "2018-02-03 19:44:43",
        "P_UPDATEDATE": "2018-02-03 19:44:43"
    },
    {
        "P_MISSION_ID": "9000020",
        "CE1V8ozW": "0",
        "v5yn07L3": "0",
        "swzqU9m5": "0",
        "auypw76W": "3,600",
        "biX6Z83J": "",
        "P_CREATEDATE": "2018-02-03 19:44:43",
        "P_UPDATEDATE": "2018-02-03 19:44:43"
    },
    {
        "P_MISSION_ID": "9000113",
        "CE1V8ozW": "1",
        "v5yn07L3": "0",
        "swzqU9m5": "0",
        "auypw76W": "",
        "biX6Z83J": "",
        "P_CREATEDATE": "2018-02-03 19:44:43",
        "P_UPDATEDATE": "2018-02-03 19:44:43"
    },
    {
        "P_MISSION_ID": "9000114",
        "CE1V8ozW": "2",
        "v5yn07L3": "0",
        "swzqU9m5": "0",
        "auypw76W": "",
        "biX6Z83J": "",
        "P_CREATEDATE": "2018-02-03 19:44:43",
        "P_UPDATEDATE": "2018-02-03 19:44:43"
    },
    {
        "P_MISSION_ID": "9000130",
        "CE1V8ozW": "20003",
        "v5yn07L3": "0",
        "swzqU9m5": "0",
        "auypw76W": "",
        "biX6Z83J": "",
        "P_CREATEDATE": "2018-02-03 19:44:43",
        "P_UPDATEDATE": "2018-02-03 19:44:43"
    },
    {
        "P_MISSION_ID": "9000147",
        "CE1V8ozW": "110",
        "v5yn07L3": "0",
        "swzqU9m5": "0",
        "auypw76W": "",
        "biX6Z83J": "",
        "P_CREATEDATE": "2018-02-03 19:44:43",
        "P_UPDATEDATE": "2018-02-03 19:44:43"
    }
]