[
    {
        "hYnFS67M": "1",
        "TYIHfu61": "\u5e1d\u90fd\u56f3\u66f8\u9928",
        "P_SCENE_ID": "30400",
        "P_SCENE_PARAM": "",
        "nrD3PUj9": "bg_randall_library.jpg",
        "8q4pgcmV": "204",
        "P_IMG": "navi_chara_bf2_75_0.png",
        "P_POS": "60,0",
        "ZC0msu2L": "\u5e1d\u90fd\u56f3\u66f8\u9928\u306b\u3088\u3046\u3053\u305d\u3002\n\u3053\u3053\u306f\u69d8\u3005\u306a\u60c5\u5831\u3084\u77e5\u8b58\u304c\u96c6\u307e\u308b\u5834\u6240\u3055\u3002\n\u4eca\u65e5\u306f\u4f55\u3092\u95b2\u89a7\u3057\u305f\u3044\u3093\u3060\u3044\uff1f",
        "Ub74V9A1": "0,-20",
        "P_SOUND_ID": "33",
        "P_PRIORITY": "1",
        "P_NEED_SWITCH_INFO": "",
        "P_HIDE_SWITCH_INFO": "",
        "P_OPEN_SWITCH_INFO": "",
        "P_SCHEDULE_ID": "0",
        "P_CREATEDATE": "2018-01-31 19:09:40",
        "P_UPDATEDATE": "2018-01-31 19:09:40"
    },
    {
        "hYnFS67M": "2",
        "TYIHfu61": "\u30a2\u30af\u30e9\u30b9\u53ec\u559a\u9662\u7ba1\u7406\u5c40",
        "P_SCENE_ID": "30100",
        "P_SCENE_PARAM": "",
        "nrD3PUj9": "bg_randall_management.jpg",
        "8q4pgcmV": "200",
        "P_IMG": "navi_chara_bf2_34_0.png,navi_chara_bf2_34.png",
        "P_POS": "130,0",
        "ZC0msu2L": "\u3053\u3053\u306f\u30a2\u30af\u30e9\u30b9\u53ec\u559a\u9662\u7ba1\u7406\u5c40\u3088\u3002\n\u529f\u7e3e\u30dd\u30a4\u30f3\u30c8\u306b\u3088\u308b\u30b9\u30d5\u30a3\u30a2\u7b49\u306e\u4ea4\u63db\u3084\n\u5404\u7a2e\u7d0d\u5165\u306a\u3069\u3092\u53d7\u3051\u4ed8\u3051\u3066\u3044\u308b\u308f\u3002",
        "Ub74V9A1": "0,-20",
        "P_SOUND_ID": "35",
        "P_PRIORITY": "1",
        "P_NEED_SWITCH_INFO": "",
        "P_HIDE_SWITCH_INFO": "",
        "P_OPEN_SWITCH_INFO": "",
        "P_SCHEDULE_ID": "0",
        "P_CREATEDATE": "2018-01-31 19:09:40",
        "P_UPDATEDATE": "2018-01-31 19:09:40"
    },
    {
        "hYnFS67M": "3",
        "TYIHfu61": "\u958b\u62d3\u5c40\u76f4\u55b6\u30b7\u30e7\u30c3\u30d7",
        "P_SCENE_ID": "3000",
        "P_SCENE_PARAM": "",
        "nrD3PUj9": "bg_randall_shop.jpg",
        "8q4pgcmV": "202",
        "P_IMG": "",
        "P_POS": "60,0",
        "ZC0msu2L": "\u3088\u3046\u3053\u305d\u304a\u8d8a\u3057\u304f\u3060\u3055\u3044\u307e\u3057\u305f\uff01\n\u3053\u3061\u3089\u3067\u306f\u5192\u967a\u306b\u5f79\u7acb\u3064\u69d8\u3005\u306a\u3082\u306e\u3092\n\u8ca9\u58f2\u3057\u3066\u304a\u308a\u307e\u3059\uff01",
        "Ub74V9A1": "0,-60",
        "P_SOUND_ID": "30",
        "P_PRIORITY": "1",
        "P_NEED_SWITCH_INFO": "",
        "P_HIDE_SWITCH_INFO": "",
        "P_OPEN_SWITCH_INFO": "",
        "P_SCHEDULE_ID": "0",
        "P_CREATEDATE": "2018-01-31 19:09:40",
        "P_UPDATEDATE": "2018-01-31 19:09:40"
    },
    {
        "hYnFS67M": "4",
        "TYIHfu61": "\u30d5\u30a1\u30af\u30c8\u30ea\u30fc",
        "P_SCENE_ID": "30500",
        "P_SCENE_PARAM": "1",
        "nrD3PUj9": "bg_randall_factory.jpg",
        "8q4pgcmV": "201",
        "P_IMG": "navi_chara_bf2_32_0.png",
        "P_POS": "200,-20",
        "ZC0msu2L": "\u30a4\u30e9\u30c3\u30b7\u30e3\u30a4\u30de\u30bb\uff01\n\u30b3\u30b3\u30c7\u30cf\u3001\u6b66\u5668\u3001\u30b9\u30d5\u30a3\u30a2\u30ce\u4f5c\u6210\n\u30a2\u30a4\u30c6\u30e0\u30ce\u8abf\u5408\u30ca\u30c9\u30ac\u884c\u30a8\u30de\u30b9!!",
        "Ub74V9A1": "0,-60",
        "P_SOUND_ID": "0",
        "P_PRIORITY": "1",
        "P_NEED_SWITCH_INFO": "",
        "P_HIDE_SWITCH_INFO": "",
        "P_OPEN_SWITCH_INFO": "",
        "P_SCHEDULE_ID": "0",
        "P_CREATEDATE": "2018-01-31 19:09:40",
        "P_UPDATEDATE": "2018-01-31 19:09:40"
    },
    {
        "hYnFS67M": "5",
        "TYIHfu61": "\u30a2\u30a4\u30c6\u30e0\u4f5c\u6210",
        "P_SCENE_ID": "30500",
        "P_SCENE_PARAM": "2",
        "nrD3PUj9": "bg_rinbag.jpg",
        "8q4pgcmV": "101",
        "P_IMG": "navi_chara_bf2_25_0.png,navi_chara_bf2_25.png",
        "P_POS": "80,0",
        "ZC0msu2L": "\u3046\u30fc\u3093\u3001\u4f55\u3092\u3064\u304f\u308d\u3046\u304b\u306a\u3041\u2026",
        "Ub74V9A1": "0,0",
        "P_SOUND_ID": "0",
        "P_PRIORITY": "1",
        "P_NEED_SWITCH_INFO": "",
        "P_HIDE_SWITCH_INFO": "",
        "P_OPEN_SWITCH_INFO": "",
        "P_SCHEDULE_ID": "0",
        "P_CREATEDATE": "2018-01-31 19:09:40",
        "P_UPDATEDATE": "2018-01-31 19:09:40"
    },
    {
        "hYnFS67M": "6",
        "TYIHfu61": "\u904a\u6280\u5834\u30c8\u30c3\u30d7",
        "P_SCENE_ID": "32000",
        "P_SCENE_PARAM": "",
        "nrD3PUj9": "bg_randall_gamecenter.jpg",
        "8q4pgcmV": "205",
        "P_IMG": "navi_chara_bf2_26_0.png,navi_chara_bf2_26.png",
        "P_POS": "80,0",
        "ZC0msu2L": "<rep_handlename>\u3055\u3093\u3082\u606f\u629c\u304d\u3067\u3059\u304b\u3041\u301c\uff1f\n\u3053\u3053\u3067\u306f\u69d8\u3005\u306a\u30b2\u30fc\u30e0\u3092\u904a\u3079\u307e\u3059\u304b\u3089\u306d\u3047\u3002\n\u79c1\u3082\u3088\u304f\u4ed5\u4e8b\u3092\u30b5\u30dc\u3063\u3066\u6765\u3066\u308b\u3093\u3067\u3059\u3088\u266a",
        "Ub74V9A1": "0,20",
        "P_SOUND_ID": "0",
        "P_PRIORITY": "2",
        "P_NEED_SWITCH_INFO": "",
        "P_HIDE_SWITCH_INFO": "",
        "P_OPEN_SWITCH_INFO": "",
        "P_SCHEDULE_ID": "0",
        "P_CREATEDATE": "2018-01-31 19:09:40",
        "P_UPDATEDATE": "2018-01-31 19:09:40"
    },
    {
        "hYnFS67M": "7",
        "TYIHfu61": "\u30a2\u30a4\u30c6\u30e0\u7ba1\u7406",
        "P_SCENE_ID": "8000",
        "P_SCENE_PARAM": "1",
        "nrD3PUj9": "bg_randall_storage.jpg",
        "8q4pgcmV": "203",
        "P_IMG": "navi_chara_bf2_1_0.png,navi_chara_bf2_1.png",
        "P_POS": "250,0",
        "ZC0msu2L": "\u5192\u967a\u306b\u51fa\u308b\u524d\u306b\u6e96\u5099\u306f\u3061\u3083\u3093\u3068\u3057\u306a\u304d\u3083\u306d\uff01\n\u3053\u3053\u3067\u306f\u30a2\u30a4\u30c6\u30e0\u306e\u7de8\u6210\u3084\u58f2\u5374\u3084\u5192\u967a\u3067\u5f97\u305f\n\u300c\u5927\u4e8b\u306a\u3082\u306e\u300d\u306e\u95b2\u89a7\u304c\u3067\u304d\u308b\u308f\u3002",
        "Ub74V9A1": "0,20",
        "P_SOUND_ID": "0",
        "P_PRIORITY": "1",
        "P_NEED_SWITCH_INFO": "",
        "P_HIDE_SWITCH_INFO": "",
        "P_OPEN_SWITCH_INFO": "",
        "P_SCHEDULE_ID": "0",
        "P_CREATEDATE": "2018-01-31 19:09:40",
        "P_UPDATEDATE": "2018-01-31 19:09:40"
    },
    {
        "hYnFS67M": "8",
        "TYIHfu61": "\u30a2\u30a4\u30c6\u30e0\u7ba1\u7406",
        "P_SCENE_ID": "8000",
        "P_SCENE_PARAM": "2",
        "nrD3PUj9": "bg_rinbag.jpg",
        "8q4pgcmV": "101",
        "P_IMG": "navi_chara_bf2_25_0.png,navi_chara_bf2_25.png",
        "P_POS": "80,0",
        "ZC0msu2L": "\u5192\u967a\u306b\u51fa\u308b\u524d\u306b\u6e96\u5099\u306f\u3061\u3083\u3093\u3068\u3057\u306a\u304d\u3083\u306d\uff01",
        "Ub74V9A1": "0,20",
        "P_SOUND_ID": "0",
        "P_PRIORITY": "1",
        "P_NEED_SWITCH_INFO": "",
        "P_HIDE_SWITCH_INFO": "",
        "P_OPEN_SWITCH_INFO": "",
        "P_SCHEDULE_ID": "0",
        "P_CREATEDATE": "2018-01-31 19:09:40",
        "P_UPDATEDATE": "2018-01-31 19:09:40"
    },
    {
        "hYnFS67M": "9",
        "TYIHfu61": "\u7d0d\u5165\u30c8\u30c3\u30d7",
        "P_SCENE_ID": "30110",
        "P_SCENE_PARAM": "",
        "nrD3PUj9": "bg_randall_management.jpg",
        "8q4pgcmV": "200",
        "P_IMG": "navi_chara_bf2_34_0.png,navi_chara_bf2_34.png",
        "P_POS": "90,0",
        "ZC0msu2L": "\u7d0d\u5165\u3057\u305f\u3044\u5bfe\u8c61\u306f\u3069\u308c\u304b\u3057\u3089\uff1f\n\u7d0d\u5165\u3059\u308b\u5185\u5bb9\u306b\u5fdc\u3058\u3066\n\u529f\u7e3e\u30dd\u30a4\u30f3\u30c8\u304c\u4e0e\u3048\u3089\u308c\u308b\u308f\u3088\u3002",
        "Ub74V9A1": "0,-60",
        "P_SOUND_ID": "0",
        "P_PRIORITY": "1",
        "P_NEED_SWITCH_INFO": "",
        "P_HIDE_SWITCH_INFO": "",
        "P_OPEN_SWITCH_INFO": "",
        "P_SCHEDULE_ID": "0",
        "P_CREATEDATE": "2018-01-31 19:09:40",
        "P_UPDATEDATE": "2018-01-31 19:09:40"
    },
    {
        "hYnFS67M": "10",
        "TYIHfu61": "\u53ec\u559a\u8853\u7814\u7a76\u6240TOP",
        "P_SCENE_ID": "33000",
        "P_SCENE_PARAM": "",
        "nrD3PUj9": "bg_labo.jpg",
        "8q4pgcmV": "300",
        "P_IMG": "navi_chara_bf2_31_0.png,navi_chara_bf2_31.png",
        "P_POS": "120,0",
        "ZC0msu2L": "\u3084\u3041\u3001\u4eca\u65e5\u306f\u4f55\u306b\u6311\u6226\u3059\u308b\u3093\u3060\u3044\uff1f\n\u541b\u306e\u6226\u3044\u306f\u306a\u304b\u306a\u304b\u8208\u5473\u6df1\u3044\u304b\u3089\u306d\u3002\n\u3069\u3093\u3069\u3093\u30c1\u30e3\u30ec\u30f3\u30b8\u3057\u3066\u304f\u308c\u308b\u3068\u5b09\u3057\u3044\u3088\u3002",
        "Ub74V9A1": "0,-60",
        "P_SOUND_ID": "1037",
        "P_PRIORITY": "1",
        "P_NEED_SWITCH_INFO": "",
        "P_HIDE_SWITCH_INFO": "",
        "P_OPEN_SWITCH_INFO": "",
        "P_SCHEDULE_ID": "0",
        "P_CREATEDATE": "2018-01-31 19:09:40",
        "P_UPDATEDATE": "2018-01-31 19:09:40"
    },
    {
        "hYnFS67M": "11",
        "TYIHfu61": "FH\u96c6\u8a08\u4e2d",
        "P_SCENE_ID": "35000",
        "P_SCENE_PARAM": "2",
        "nrD3PUj9": "bg_labo.jpg",
        "8q4pgcmV": "300",
        "P_IMG": "navi_chara_bf2_31_0.png,navi_chara_bf2_31.png",
        "P_POS": "120,0",
        "ZC0msu2L": "\u4eca\u56de\u306e\u30d5\u30ed\u30f3\u30c6\u30a3\u30a2\u30cf\u30f3\u30bf\u30fc\u306f\u7d42\u4e86\u3057\u305f\u3088\u3002\n\u7d50\u679c\u3092\u89e3\u6790\u3057\u3066\u3044\u308b\u304b\u3089\u5c11\u3057\u5f85\u3063\u3066\u3044\u3066\u304f\u308c\u3002\n\u5f8c\u3067\u5831\u916c\u306f\u8ee2\u9001\u3057\u3066\u304a\u304f\u3088\u3002\u304a\u75b2\u308c\u69d8\u3002",
        "Ub74V9A1": "0,-60",
        "P_SOUND_ID": "1037",
        "P_PRIORITY": "1",
        "P_NEED_SWITCH_INFO": "",
        "P_HIDE_SWITCH_INFO": "",
        "P_OPEN_SWITCH_INFO": "",
        "P_SCHEDULE_ID": "0",
        "P_CREATEDATE": "2018-01-31 19:09:40",
        "P_UPDATEDATE": "2018-01-31 19:09:40"
    },
    {
        "hYnFS67M": "12",
        "TYIHfu61": "FH\u975e\u958b\u50ac",
        "P_SCENE_ID": "35000",
        "P_SCENE_PARAM": "3",
        "nrD3PUj9": "bg_labo.jpg",
        "8q4pgcmV": "300",
        "P_IMG": "navi_chara_bf2_31_0.png,navi_chara_bf2_31.png",
        "P_POS": "120,0",
        "ZC0msu2L": "\u4eca\u30d5\u30ed\u30f3\u30c6\u30a3\u30a2\u30cf\u30f3\u30bf\u30fc\u306f\u958b\u304b\u308c\u3066\u3044\u306a\u3044\u3088\u3002\n\u305b\u3063\u304b\u304f\u3060\u304b\u3089\u904e\u53bb\u306e\u6210\u7e3e\u3092\u898b\u3066\u307f\u308b\u306e\u3082\n\u3044\u3044\u304b\u3082\u3057\u308c\u306a\u3044\u306d\u3002",
        "Ub74V9A1": "0,-60",
        "P_SOUND_ID": "1037",
        "P_PRIORITY": "1",
        "P_NEED_SWITCH_INFO": "",
        "P_HIDE_SWITCH_INFO": "",
        "P_OPEN_SWITCH_INFO": "",
        "P_SCHEDULE_ID": "0",
        "P_CREATEDATE": "2018-01-31 19:09:40",
        "P_UPDATEDATE": "2018-01-31 19:09:40"
    },
    {
        "hYnFS67M": "13",
        "TYIHfu61": "\u8a66\u7df4\uff12\u30d1\u30fc\u30c6\u30a3\u7de8\u6210",
        "P_SCENE_ID": "2612",
        "P_SCENE_PARAM": "",
        "nrD3PUj9": "",
        "8q4pgcmV": "300",
        "P_IMG": "navi_chara_bf2_31_0.png,navi_chara_bf2_31.png",
        "P_POS": "-150,730",
        "ZC0msu2L": "\u3053\u3053\u304b\u3089\u5148\u306e\u30d0\u30c8\u30eb\u306b\u306f\n\uff12\u30d1\u30fc\u30c6\u30a3\u5206\u306e\u30e6\u30cb\u30c3\u30c8\u304c\u5fc5\u8981\u3060\u3088\u3002",
        "Ub74V9A1": "0,100",
        "P_SOUND_ID": "32",
        "P_PRIORITY": "1",
        "P_NEED_SWITCH_INFO": "",
        "P_HIDE_SWITCH_INFO": "",
        "P_OPEN_SWITCH_INFO": "",
        "P_SCHEDULE_ID": "0",
        "P_CREATEDATE": "2018-01-31 19:09:40",
        "P_UPDATEDATE": "2018-01-31 19:09:40"
    }
]