[
    {
        "P_ITEM_ID": "1000",
        "P_EXPLAIN_SHORT": "\u5473\u65b9\u5358\u4f53\u306eHP\u309245%~60%\u56de\u5fa9",
        "P_EXTRA_TEXT": "\u751f\u547d\u529b\u3092\u56de\u5fa9\u3059\u308b\u3053\u3068\u304c\u3067\u304d\u308b\u6c34\u85ac\u3002\n\u308f\u305a\u304b\u306a\u7518\u307f\u304c\u3042\u308a\u3001\u723d\u3084\u304b\u306a\u306e\u3069\u3054\u3057\u304c\u5473\u308f\u3048\u308b\u305f\u3081\u3001\u5143\u6c17\u306a\u6642\u3067\u3082\u3064\u3044\u98f2\u307f\u305f\u304f\u306a\u3063\u3066\u3057\u307e\u3046\u3002\u4e2d\u6bd2\u6027\u304c\u3042\u308b\u306e\u3067\u306f\u306a\u3044\u304b\u3068\u7591\u308f\u308c\u305f\u3053\u3068\u3082\u3042\u308b\u304c\u3001\u305d\u3046\u3044\u3063\u305f\u526f\u4f5c\u7528\u306f\u73fe\u5728\u8a8d\u3081\u3089\u308c\u3066\u3044\u306a\u3044\u3002",
        "P_COMMENT_GETTABLE": "",
        "P_CREATEDATE": "2018-02-13 14:46:37",
        "P_UPDATEDATE": "2018-02-13 14:46:37"
    },
    {
        "P_ITEM_ID": "1010",
        "P_EXPLAIN_SHORT": "\u5473\u65b9\u5168\u4f53\u306eHP\u309245%~60%\u56de\u5fa9",
        "P_EXTRA_TEXT": "\u982d\u4e0a\u306b\u6295\u3052\u3066\u632f\u308a\u6492\u304f\u3053\u3068\u3067\u5e83\u3044\u7bc4\u56f2\u3092\u7652\u3059\u7c89\u672b\u3002\n\u304d\u3089\u304d\u3089\u3068\u5929\u3088\u308a\u7652\u3057\u306e\u5149\u304c\u964d\u308a\u6ce8\u3050\u3088\u3046\u306a\u5149\u666f\u306f\u3068\u3066\u3082\u7f8e\u3057\u304f\u3001\u672c\u6765\u306e\u7528\u9014\u3067\u306f\u306a\u304f\u7279\u5225\u306a\u65e5\u306e\u6f14\u51fa\u306b\u4f7f\u7528\u3059\u308b\u8005\u3082\u5c11\u306a\u304f\u306a\u3044\u3002\u304b\u3064\u3066\u306f\u8056\u8077\u8005\u306b\u306e\u307f\u8abf\u5408\u6cd5\u304c\u4f1d\u3048\u3089\u308c\u3066\u3044\u305f\u304c\u3001\u73fe\u5728\u3067\u306f\u5e83\u304f\u77e5\u3089\u308c\u3066\u3044\u308b\u3002",
        "P_COMMENT_GETTABLE": "",
        "P_CREATEDATE": "2018-02-13 14:46:37",
        "P_UPDATEDATE": "2018-02-13 14:46:37"
    },
    {
        "P_ITEM_ID": "1020",
        "P_EXPLAIN_SHORT": "3\u30bf\u30fc\u30f3\u306e\u9593\u3001\u5473\u65b9\u5168\u4f53\u306eHP\u309220%~25%\u56de\u5fa9",
        "P_EXTRA_TEXT": "\u7d99\u7d9a\u7684\u306b\u751f\u547d\u529b\u3092\u56de\u5fa9\u3059\u308b\u3053\u3068\u304c\u3067\u304d\u308b\u7c89\u672b\u3002\n\u5929\u306b\u5411\u304b\u3063\u3066\u632f\u308a\u6492\u304f\u3053\u3068\u3067\u3001\u4f7f\u7528\u8005\u3068\u305d\u306e\u5468\u56f2\u306e\u8005\u305f\u3061\u3092\u7652\u3059\u52b9\u679c\u304c\u3042\u308b\u3068\u3044\u3046\u3002\u4e00\u8aac\u306b\u3088\u308b\u3068\u3001\u3053\u306e\u7c89\u672b\u306f\u65e5\u591c\u8abf\u5408\u306b\u660e\u3051\u66ae\u308c\u3001\u56de\u5fa9\u85ac\u3067\u3059\u3089\u81ea\u5206\u597d\u307f\u306b\u5fae\u8abf\u6574\u3057\u3066\u3044\u308b\u3068\u3044\u3046\u5947\u7279\u306a\u85ac\u5e2b\u304c\u8003\u6848\u3057\u305f\u3082\u306e\u3060\u3068\u3044\u3046\u3002",
        "P_COMMENT_GETTABLE": "",
        "P_CREATEDATE": "2018-02-13 14:46:37",
        "P_UPDATEDATE": "2018-02-13 14:46:37"
    },
    {
        "P_ITEM_ID": "1100",
        "P_EXPLAIN_SHORT": "\u5473\u65b9\u5358\u4f53\u306e\u6bd2\u30fb\u546a\u3044\u3092\u6cbb\u7642\u3059\u308b",
        "P_EXTRA_TEXT": "\u4f53\u304b\u3089\u6bd2\u3068\u546a\u3044\u3092\u6d44\u5316\u3057\u3066\u304f\u308c\u308b\u6c34\u85ac\u3002\n\u8fd1\u5e74\u3067\u306f\u8907\u6570\u306e\u751f\u85ac\u3092\u914d\u5408\u3059\u308b\u3053\u3068\u3067\u3001\u8eab\u4f53\u3068\u7cbe\u795e\u306e\u6c5a\u67d3\u3092\u540c\u6642\u306b\u9664\u53bb\u3067\u304d\u308b\u85ac\u304c\u751f\u307f\u51fa\u3055\u308c\u305f\u3002\u4ee5\u524d\u306f\uff12\u7a2e\u985e\u306e\u85ac\u3092\u5e38\u5099\u3057\u306a\u3051\u308c\u3070\u306a\u3089\u306a\u304b\u3063\u305f\u3053\u3068\u3092\u8003\u3048\u308b\u3068\u3001\u753b\u671f\u7684\u306a\u767a\u660e\u3067\u3042\u308b\u3002",
        "P_COMMENT_GETTABLE": "",
        "P_CREATEDATE": "2018-02-13 14:46:37",
        "P_UPDATEDATE": "2018-02-13 14:46:37"
    },
    {
        "P_ITEM_ID": "1101",
        "P_EXPLAIN_SHORT": "\u5473\u65b9\u5358\u4f53\u306e\u5f31\u4f53\u30fb\u602a\u6211\u30fb\u75c5\u6c17\u30fb\u9ebb\u75fa\u3092\u6cbb\u7642\u3059\u308b",
        "P_EXTRA_TEXT": "\u5f31\u4f53\u3001\u602a\u6211\u3001\u75c5\u6c17\u3001\u9ebb\u75fa\u3092\u7652\u3059\u3053\u3068\u304c\u3067\u304d\u308b\u6c34\u85ac\u3002\n\u8eab\u4f53\u306b\u60aa\u5f71\u97ff\u3092\u53ca\u307c\u3059\u69d8\u3005\u306a\u75c7\u72b6\u3092\u77ac\u6642\u306b\u53d6\u308a\u9664\u304f\u3002\u4ee5\u524d\u4e3b\u6d41\u3060\u3063\u305f\u5143\u6c17\u85ac\u306e\u4e0a\u4f4d\u4e92\u63db\u54c1\u3067\u3042\u308a\u3001\u958b\u767a\u8005\u306f\u4eca\u5ea6\u3053\u305d\u201c\u4e07\u80fd\u85ac\u201d\u3068\u540d\u4ed8\u3051\u305f\u304c\u3063\u305f\u304c\u3001\u3042\u3089\u3086\u308b\u7570\u5e38\u3092\u53d6\u308a\u9664\u304f\u307e\u3067\u306b\u306f\u81f3\u3063\u3066\u3044\u306a\u3044\u305f\u3081\u3001\u518d\u3073\u5374\u4e0b\u3055\u308c\u305f\u3068\u3044\u3046\u3002",
        "P_COMMENT_GETTABLE": "",
        "P_CREATEDATE": "2018-02-13 14:46:37",
        "P_UPDATEDATE": "2018-02-13 14:46:37"
    },
    {
        "P_ITEM_ID": "1102",
        "P_EXPLAIN_SHORT": "\u5473\u65b9\u5358\u4f53\u306e\u96d1\u5ff5\u30fb\u865a\u8131\u30fb\u5e7b\u899a\u30fb\u6df7\u4e71\u3092\u6cbb\u7642\u3059\u308b",
        "P_EXTRA_TEXT": "\u96d1\u5ff5\u3001\u865a\u8131\u3001\u5e7b\u899a\u3001\u6df7\u4e71\u3092\u7652\u3059\u3053\u3068\u304c\u3067\u304d\u308b\u6c34\u85ac\u3002\n\u4e3b\u306b\u7cbe\u795e\u306b\u4f5c\u7528\u3059\u308b\u306e\u3060\u304c\u3001\u7570\u5e38\u306e\u306a\u3044\u72b6\u614b\u3067\u98f2\u3080\u3053\u3068\u306f\u7981\u5fcc\u3068\u3055\u308c\u3066\u3044\u308b\u3002\u5642\u306b\u3088\u308b\u3068\u96c6\u4e2d\u529b\u3084\u8a18\u61b6\u529b\u304c\u9ad8\u307e\u308a\u3001\u601d\u8003\u306e\u901f\u5ea6\u3082\u4e0a\u304c\u308b\u3089\u3057\u3044\u304c\u3001\u305d\u308c\u306f\u672c\u4eba\u304c\u305d\u3046\u611f\u3058\u3066\u3044\u308b\u3060\u3051\u3067\u3001\u508d\u304b\u3089\u898b\u308c\u3070\u5909\u308f\u3089\u306a\u3044\u3068\u3044\u3046\u3002",
        "P_COMMENT_GETTABLE": "",
        "P_CREATEDATE": "2018-02-13 14:46:37",
        "P_UPDATEDATE": "2018-02-13 14:46:37"
    },
    {
        "P_ITEM_ID": "1200",
        "P_EXPLAIN_SHORT": "3\u30bf\u30fc\u30f3\u306e\u9593\u3001\u5473\u65b9\u5358\u4f53\u306e\u653b\u6483\u529b\u309210%\u30a2\u30c3\u30d7",
        "P_EXTRA_TEXT": "\u653b\u6483\u7684\u306a\u6f5c\u5728\u80fd\u529b\u3092\u5f15\u304d\u51fa\u3059\u3053\u3068\u304c\u3067\u304d\u308b\u6226\u95d8\u7ce7\u98df\u3002\n\u8abf\u7406\u8005\u306e\u597d\u307f\u306e\u5473\u4ed8\u3051\u304c\u53ef\u80fd\u306a\u305f\u3081\u3001\u53ec\u559a\u5e2b\u306e\u6570\u3060\u3051\u5f37\u5316\u98df\u304c\u3042\u308b\u3068\u3082\u8a00\u308f\u308c\u3066\u3044\u308b\u3002\u80c3\u8178\u7c98\u819c\u3078\u306e\u523a\u6fc0\u304c\u5f37\u304f\u3001\u304a\u8179\u306e\u8abf\u5b50\u304c\u60aa\u304f\u306a\u308b\u3068\u3044\u3046\u5831\u544a\u3082\u3042\u308b\u305f\u3081\u3001\u4ed6\u306e\u98df\u3079\u7269\u3068\u4e00\u7dd2\u306b\u6442\u53d6\u3059\u308b\u3053\u3068\u304c\u63a8\u5968\u3055\u308c\u3066\u3044\u308b\u3002",
        "P_COMMENT_GETTABLE": "",
        "P_CREATEDATE": "2018-02-13 14:46:37",
        "P_UPDATEDATE": "2018-02-13 14:46:37"
    },
    {
        "P_ITEM_ID": "1201",
        "P_EXPLAIN_SHORT": "3\u30bf\u30fc\u30f3\u306e\u9593\u3001\u5473\u65b9\u5358\u4f53\u306e\u9632\u5fa1\u529b\u30fb\u9b54\u6cd5\u9632\u5fa1\u529b\u309210%\u30a2\u30c3\u30d7",
        "P_EXTRA_TEXT": "\u9632\u5fa1\u7684\u306a\u6f5c\u5728\u80fd\u529b\u3092\u5f15\u304d\u51fa\u3059\u3053\u3068\u304c\u3067\u304d\u308b\u6226\u95d8\u7ce7\u98df\u3002\n\u5f37\u5316\u98df\u3068\u306f\u7570\u306a\u308a\u3001\u6750\u6599\u306e\u95a2\u4fc2\u4e0a\u3067\u8ab0\u304c\u4f5c\u3063\u3066\u3082\u5473\u306f\u5927\u5dee\u304c\u306a\u3044\u3068\u8a00\u308f\u308c\u3066\u3044\u308b\u3002\u7121\u96e3\u306a\u5473\u306b\u4ed5\u4e0a\u304c\u308b\u305f\u3081\u4e0d\u5473\u3044\u3068\u3044\u3046\u3053\u3068\u3082\u306a\u3044\u304c\u3001\u786c\u5316\u98df\u3092\u7279\u306b\u597d\u3080\u8005\u3082\u3044\u306a\u3044\u3088\u3046\u3060\u3002",
        "P_COMMENT_GETTABLE": "",
        "P_CREATEDATE": "2018-02-13 14:46:37",
        "P_UPDATEDATE": "2018-02-13 14:46:37"
    },
    {
        "P_ITEM_ID": "1202",
        "P_EXPLAIN_SHORT": "3\u30bf\u30fc\u30f3\u306e\u9593\u3001\u5473\u65b9\u5358\u4f53\u306e\u653b\u6483\u529b\u30fb\u9632\u5fa1\u529b\u30fb\u9b54\u6cd5\u9632\u5fa1\u529b\u309210%\u30a2\u30c3\u30d7",
        "P_EXTRA_TEXT": "\u69d8\u3005\u306a\u6f5c\u5728\u80fd\u529b\u3092\u5f15\u304d\u51fa\u3059\u3053\u3068\u304c\u3067\u304d\u308b\u6226\u95d8\u7ce7\u98df\u3002\n\u7279\u6b8a\u306a\u5de5\u7a0b\u3092\u7d4c\u308b\u3053\u3068\u3067\u3001\u5f37\u5316\u98df\u3068\u786c\u5316\u98df\u306e\u52b9\u679c\u3092\u540c\u6642\u306b\u5f97\u308b\u6226\u976d\u98df\u3092\u4f5c\u308b\u3053\u3068\u304c\u3067\u304d\u308b\u3002\u304a\u8179\u3082\u81a8\u308c\u308b\u306e\u3060\u304c\u3001\u98f2\u307f\u8fbc\u3080\u3088\u3046\u306b\u3057\u3066\u624b\u65e9\u304f\u98df\u3079\u308b\u3053\u3068\u304c\u63a8\u5968\u3055\u308c\u3066\u3044\u308b\u305f\u3081\u304b\u3001\u98df\u306e\u697d\u3057\u307f\u3092\u5473\u308f\u3046\u3053\u3068\u306f\u3067\u304d\u306a\u3044\u3002",
        "P_COMMENT_GETTABLE": "",
        "P_CREATEDATE": "2018-02-13 14:46:37",
        "P_UPDATEDATE": "2018-02-13 14:46:37"
    },
    {
        "P_ITEM_ID": "1300",
        "P_EXPLAIN_SHORT": "\u5473\u65b9\u5358\u4f53\u306eBB\u30b2\u30fc\u30b8\u3092\u6700\u5927\u306b\u3059\u308b",
        "P_EXTRA_TEXT": "\u7cbe\u795e\u72b6\u614b\u3092\u77ac\u6642\u306b\u9ad8\u3081\u308b\u52b9\u679c\u304c\u3042\u308b\u79d8\u85ac\u3002\n\u6b66\u795e\u306e\u773c\u306e\u7c89\u672b\u304c\u4e3b\u6210\u5206\u3067\u3042\u308a\u3001\u9b42\u3092\u596e\u3044\u7acb\u3066\u308b\u529b\u3092\u79d8\u3081\u3066\u3044\u308b\u3002\u7cbe\u795e\u306e\u9ad8\u3076\u308a\u306f\u6226\u95d8\u306b\u304a\u3044\u3066\u5f90\u3005\u306b\u9ad8\u307e\u3063\u3066\u3044\u304f\u3082\u306e\u3067\u3042\u308b\u304c\u3001\u3053\u306e\u85ac\u3092\u4f7f\u3048\u3070\u5f85\u305f\u305a\u306b\u5f37\u529b\u306a\u6280\u3092\u7e70\u308a\u51fa\u3059\u3053\u3068\u304c\u3067\u304d\u308b\u3002",
        "P_COMMENT_GETTABLE": "",
        "P_CREATEDATE": "2018-02-13 14:46:37",
        "P_UPDATEDATE": "2018-02-13 14:46:37"
    },
    {
        "P_ITEM_ID": "1310",
        "P_EXPLAIN_SHORT": "2\u30bf\u30fc\u30f3\u306e\u9593\u3001\u5473\u65b9\u5168\u4f53\u306eBB\u30b2\u30fc\u30b8\u3092500~1000\u5897\u52a0\u3059\u308b",
        "P_EXTRA_TEXT": "\u7cbe\u795e\u72b6\u614b\u304c\u9ad8\u307e\u308b\u97f3\u8272\u3092\u594f\u3067\u308b\u796d\u7940\u7528\u697d\u5668\u3002\n\u9b42\u3092\u596e\u3044\u7acb\u3066\u308b\u7aea\u7434\u3067\u3042\u308a\u3001\u6226\u95d8\u4e2d\u306b\u3053\u306e\u697d\u5668\u3067\u594f\u3067\u3089\u308c\u305f\u97f3\u697d\u3092\u8074\u304f\u3068\u3001\u5f37\u529b\u306a\u6280\u3092\u7e70\u308a\u51fa\u3059\u307e\u3067\u306b\u304b\u304b\u308b\u6642\u9593\u3092\u77ed\u7e2e\u3059\u308b\u3053\u3068\u304c\u3067\u304d\u308b\u3002\u6b66\u795e\u85ac\u307b\u3069\u306e\u5373\u52b9\u6027\u306f\u306a\u3044\u304c\u3001\u7d99\u7d9a\u7684\u306a\u52b9\u679c\u304c\u4eba\u6c17\u3092\u535a\u3057\u3066\u3044\u308b\u3002",
        "P_COMMENT_GETTABLE": "",
        "P_CREATEDATE": "2018-02-13 14:46:37",
        "P_UPDATEDATE": "2018-02-13 14:46:37"
    },
    {
        "P_ITEM_ID": "1410",
        "P_EXPLAIN_SHORT": "\u5473\u65b9\u5358\u4f53\u306e\u6226\u95d8\u4e0d\u80fd\u3092\u56de\u5fa9\u3059\u308b",
        "P_EXTRA_TEXT": "\u50b7\u4ed8\u3044\u305f\u9b42\u3092\u7526\u3089\u305b\u308b\u52b9\u679c\u3092\u6301\u3063\u305f\u970a\u85ac\u3002\n\u4eba\u304c\u6301\u3064\u751f\u5b58\u672c\u80fd\u3092\u899a\u9192\u3055\u305b\u3001\u9b42\u81ea\u4f53\u306e\u6d3b\u529b\u3092\u5fa9\u6d3b\u3055\u305b\u308b\u3068\u3044\u3046\u3002\u9065\u304b\u524d\u306b\u6b7b\u304c\u78ba\u5b9a\u3057\u3066\u3057\u307e\u3063\u305f\u4eba\u9593\u306b\u306f\u52b9\u679c\u304c\u306a\u3044\u304c\u3001\u6b7b\u306b\u7015\u3057\u3066\u3044\u308b\u8005\u3084\u3001\u9b42\u306e\u307f\u306e\u5b58\u5728\u306b\u5bfe\u3057\u3066\u306f\u5947\u8de1\u3068\u3082\u547c\u3079\u308b\u52b9\u80fd\u3092\u767a\u63ee\u3059\u308b\u3002",
        "P_COMMENT_GETTABLE": "",
        "P_CREATEDATE": "2018-02-13 14:46:37",
        "P_UPDATEDATE": "2018-02-13 14:46:37"
    },
    {
        "P_ITEM_ID": "1600",
        "P_EXPLAIN_SHORT": "XBB\u30b2\u30fc\u30b8\u3092\u6e80\u30bf\u30f3\u306b\u3059\u308b",
        "P_EXTRA_TEXT": "\u4ef2\u9593\u3068\u306e\u7d46\u306e\u529b\u3092\u89e3\u653e\u3055\u305b\u308b\u79d8\u85ac\u3002\n\u53e4\u304f\u3088\u308a\u7d46\u306e\u529b\u306f\u7121\u9650\u5927\u3068\u3082\u8a00\u308f\u308c\u3066\u304a\u308a\u3001\u3069\u3093\u306a\u7d76\u671b\u7684\u306a\u72b6\u6cc1\u304b\u3089\u3082\u5e0c\u671b\u3092\u898b\u51fa\u3059\u3053\u3068\u304c\u3067\u304d\u308b\u3068\u3055\u308c\u3066\u3044\u308b\u3002\u5143\u3005\u7d46\u3067\u7d50\u3070\u308c\u3066\u3044\u306a\u3044\u8005\u540c\u58eb\u3067\u306f\u52b9\u679c\u304c\u306a\u3044\u305f\u3081\u3001\u3057\u3063\u304b\u308a\u3068\u4fe1\u983c\u95a2\u4fc2\u3092\u7bc9\u3044\u3066\u304a\u3053\u3046\u3002",
        "P_COMMENT_GETTABLE": "",
        "P_CREATEDATE": "2018-02-13 14:46:37",
        "P_UPDATEDATE": "2018-02-13 14:46:37"
    },
    {
        "P_ITEM_ID": "120000",
        "P_EXPLAIN_SHORT": "\u30af\u30a8\u30b9\u30c8\u30ea\u30b6\u30eb\u30c8\u3067\u5f97\u3089\u308c\u308b\u7d4c\u9a13\u5024\u3001\u30a2\u30a4\u30c6\u30e0\u304c\u5168\u30662\u500d\u306b\u306a\u308b",
        "P_EXTRA_TEXT": "\u6226\u3044\u3067\u5f97\u305f\u7d4c\u9a13\u3092\u5fc3\u8eab\u306b\u5f37\u304f\u523b\u307f\u8fbc\u3080\u970a\u5177\u3002\n\u53e4\u6765\u3001\u935b\u932c\u306e\u6210\u679c\u3092\u9ad8\u3081\u308b\u7814\u7a76\u306f\u69d8\u3005\u306a\u65b9\u6cd5\u304c\u6a21\u7d22\u3055\u308c\u3066\u304d\u305f\u304c\u3001\u53ec\u559a\u8853\u7814\u7a76\u6240\u304c\u9042\u306b\u5b8c\u6210\u306b\u81f3\u3089\u3057\u3081\u305f\u3002\u3053\u306e\u970a\u5177\u306f\u82f1\u96c4\u304c\u751f\u304d\u305f\u6642\u4ee3\u3092\u8ffd\u4f53\u9a13\u3059\u308b\u6a5f\u69cb\u3092\u5fdc\u7528\u3057\u3066\u751f\u307f\u51fa\u3057\u305f\u3068\u3055\u308c\u308b\u304c\u3001\u8a73\u7d30\u306f\u6a5f\u5bc6\u3060\u3068\u3044\u3046\u3002",
        "P_COMMENT_GETTABLE": "",
        "P_CREATEDATE": "2018-02-13 14:46:37",
        "P_UPDATEDATE": "2018-02-13 14:46:37"
    },
    {
        "P_ITEM_ID": "200000",
        "P_EXPLAIN_SHORT": "\u30b2\u30fc\u30c8\u306e\u72ed\u9593\u306b\u3042\u308b\u30e1\u30bf\u30eb\u30d1\u30ec\u30fc\u30c9\u306e\u6249\u3092\u958b\u304f\u795e\u79d8\u7684\u306a\u9375",
        "P_EXTRA_TEXT": "\u30e1\u30bf\u30eb\u30d1\u30ec\u30fc\u30c9\u306e\u6249\u3092\u958b\u304f\u795e\u79d8\u7684\u306a\u9375\u3002\n\u3042\u3089\u3086\u308b\u8a18\u9332\u3067\u6e80\u305f\u3055\u308c\u3066\u3044\u308b\u3068\u3044\u3046\u795e\u79d8\u7a7a\u9593\u3078\u306e\u6249\u3092\u958b\u304f\u3053\u3068\u304c\u3067\u304d\u308b\u3002\u69d8\u3005\u306a\u7d4c\u9a13\u306e\u8a18\u9332\u304c\u9b42\u306e\u6bb5\u968e\u3092\u5f15\u304d\u4e0a\u3052\u3066\u304f\u308c\u308b\u3053\u3068\u3060\u308d\u3046\u3002\u305f\u3060\u3057\u3001\u9375\u306f\u4e00\u5ea6\u4f7f\u7528\u3059\u308b\u3068\u6d88\u3048\u3066\u3057\u307e\u3046\u3002\u8a08\u753b\u7684\u306b\u4f7f\u7528\u3059\u3079\u304d\u3060\u308d\u3046\u3002",
        "P_COMMENT_GETTABLE": "",
        "P_CREATEDATE": "2018-02-13 14:46:37",
        "P_UPDATEDATE": "2018-02-13 14:46:37"
    },
    {
        "P_ITEM_ID": "200001",
        "P_EXPLAIN_SHORT": "\u30b2\u30fc\u30c8\u306e\u72ed\u9593\u306b\u3042\u308b\u30b8\u30e5\u30a8\u30eb\u30d1\u30ec\u30fc\u30c9\u306e\u6249\u3092\u958b\u304f\u9ec4\u91d1\u306e\u9375",
        "P_EXTRA_TEXT": "\u30b8\u30e5\u30a8\u30eb\u30d1\u30ec\u30fc\u30c9\u306e\u6249\u3092\u958b\u304f\u9ec4\u91d1\u306e\u9375\u3002\n\u4eba\u3005\u3092\u9b45\u4e86\u3059\u308b\u9ec4\u91d1\u306e\u8f1d\u304d\u306b\u6e80\u3061\u305f\u7a7a\u9593\u3078\u306e\u6249\u3092\u958b\u304f\u3053\u3068\u304c\u3067\u304d\u308b\u3002\u8ca1\u5b9d\u306b\u8208\u5473\u306e\u7121\u3044\u8005\u3067\u3082\u3001\u821e\u3044\u8e0a\u308b\u5b9d\u77f3\u7cbe\u305f\u3061\u306e\u7fa4\u308c\u3092\u773a\u3081\u7d9a\u3051\u308c\u3070\u9ec4\u91d1\u72c2\u306b\u306a\u3063\u3066\u3057\u307e\u3046\u3068\u3044\u3046\u3002\u9375\u306f\u4e00\u5ea6\u4f7f\u3046\u3068\u6d88\u3048\u3066\u3057\u307e\u3046\u305f\u3081\u3001\u5341\u5206\u306b\u6e96\u5099\u3092\u3057\u3066\u4f7f\u7528\u3059\u3079\u304d\u3060\u308d\u3046\u3002",
        "P_COMMENT_GETTABLE": "",
        "P_CREATEDATE": "2018-02-13 14:46:37",
        "P_UPDATEDATE": "2018-02-13 14:46:37"
    },
    {
        "P_ITEM_ID": "300000",
        "P_EXPLAIN_SHORT": "\u82f1\u970a\u3092\u559a\u3073\u51fa\u3059\u5100\u5f0f\u3092\u884c\u3046\u8a31\u53ef\u8a3c",
        "P_EXTRA_TEXT": "\u82f1\u970a\u3092\u559a\u3073\u51fa\u3059\u5100\u5f0f\u3092\u884c\u3046\u8a31\u53ef\u8a3c\u3002\n\u904e\u53bb\u3092\u751f\u304d\u305f\u82f1\u970a\u305f\u3061\u306e\u8ecc\u8de1\u3092\u8ffd\u3044\u3001\u53ec\u559a\u8853\u3092\u7528\u3044\u3066\u5b9f\u4f53\u5316\u3055\u305b\u308b\u5100\u5f0f\u306b\u306f\u69d8\u3005\u306a\u6e96\u5099\u304c\u5fc5\u8981\u306a\u305f\u3081\u3001\u53ec\u559a\u9662\u3067\u306f\u76f8\u5fdc\u306e\u5bfe\u4fa1\u3092\u53ec\u559a\u5e2b\u306b\u6c42\u3081\u3066\u3044\u308b\u3002\u5100\u5f0f\u3067\u547c\u3073\u51fa\u3057\u305f\u82f1\u970a\u306f\u305d\u306e\u5f8c\u81ea\u7531\u306b\u53ec\u559a\u3067\u304d\u308b\u3088\u3046\u306b\u306a\u308b\u3060\u308d\u3046\u3002",
        "P_COMMENT_GETTABLE": "",
        "P_CREATEDATE": "2018-02-13 14:46:37",
        "P_UPDATEDATE": "2018-02-13 14:46:37"
    }
]