[
    {
        "P_COUNTER_ID": "1",
        "P_NAME": "\u30a2\u30ea\u30fc\u30ca\u4e71\u5165\u5929\u4e95",
        "hIWFDi72": "0",
        "BgR6ine9": "0",
        "hns35kNL": "0",
        "P_CREATEDATE": "2018-06-25 02:19:06",
        "P_UPDATEDATE": "2018-06-25 02:19:06"
    },
    {
        "P_COUNTER_ID": "100",
        "P_NAME": "\u4ea4\u63db\u30b7\u30e7\u30c3\u30d7\u5546\u54c1\uff11",
        "hIWFDi72": "7",
        "BgR6ine9": "0",
        "hns35kNL": "99",
        "P_CREATEDATE": "2018-06-25 02:19:06",
        "P_UPDATEDATE": "2018-06-25 02:19:06"
    },
    {
        "P_COUNTER_ID": "101",
        "P_NAME": "\u529f\u7e3e\u4ea4\u63db\u6240\u30b5\u30a4\u30af\u30eb\u30e1\u30bf\u30eb\u30b4\u30fc\u30b9\u30c8",
        "hIWFDi72": "7",
        "BgR6ine9": "0",
        "hns35kNL": "20",
        "P_CREATEDATE": "2018-06-25 02:19:06",
        "P_UPDATEDATE": "2018-06-25 02:19:06"
    },
    {
        "P_COUNTER_ID": "102",
        "P_NAME": "\u529f\u7e3e\u4ea4\u63db\u6240\u30b5\u30a4\u30af\u30eb\u30e1\u30bf\u30eb\u30ad\u30f3\u30b0",
        "hIWFDi72": "7",
        "BgR6ine9": "0",
        "hns35kNL": "4",
        "P_CREATEDATE": "2018-06-25 02:19:06",
        "P_UPDATEDATE": "2018-06-25 02:19:06"
    },
    {
        "P_COUNTER_ID": "103",
        "P_NAME": "\u529f\u7e3e\u4ea4\u63db\u6240\u30b5\u30a4\u30af\u30eb\u30e1\u30bf\u30eb\u30b4\u30c3\u30c9",
        "hIWFDi72": "7",
        "BgR6ine9": "0",
        "hns35kNL": "2",
        "P_CREATEDATE": "2018-06-25 02:19:06",
        "P_UPDATEDATE": "2018-06-25 02:19:06"
    },
    {
        "P_COUNTER_ID": "104",
        "P_NAME": "\u529f\u7e3e\u4ea4\u63db\u6240\u30b5\u30a4\u30af\u30eb\u9032\u5316\u306e\u5996\u7cbe",
        "hIWFDi72": "7",
        "BgR6ine9": "0",
        "hns35kNL": "7",
        "P_CREATEDATE": "2018-06-25 02:19:06",
        "P_UPDATEDATE": "2018-06-25 02:19:06"
    },
    {
        "P_COUNTER_ID": "105",
        "P_NAME": "\u529f\u7e3e\u4ea4\u63db\u6240\u30b5\u30a4\u30af\u30eb\u9032\u5316\u306e\u7cbe\u970a",
        "hIWFDi72": "7",
        "BgR6ine9": "0",
        "hns35kNL": "5",
        "P_CREATEDATE": "2018-06-25 02:19:06",
        "P_UPDATEDATE": "2018-06-25 02:19:06"
    },
    {
        "P_COUNTER_ID": "106",
        "P_NAME": "\u529f\u7e3e\u4ea4\u63db\u6240\u30b5\u30a4\u30af\u30eb\u9032\u5316\u306e\u77f3\u50cf",
        "hIWFDi72": "7",
        "BgR6ine9": "0",
        "hns35kNL": "4",
        "P_CREATEDATE": "2018-06-25 02:19:06",
        "P_UPDATEDATE": "2018-06-25 02:19:06"
    },
    {
        "P_COUNTER_ID": "107",
        "P_NAME": "\u529f\u7e3e\u4ea4\u63db\u6240\u30b5\u30a4\u30af\u30eb\u9032\u5316\u306e\u30c4\u30dc",
        "hIWFDi72": "7",
        "BgR6ine9": "0",
        "hns35kNL": "4",
        "P_CREATEDATE": "2018-06-25 02:19:06",
        "P_UPDATEDATE": "2018-06-25 02:19:06"
    },
    {
        "P_COUNTER_ID": "108",
        "P_NAME": "\u529f\u7e3e\u4ea4\u63db\u6240\u30b5\u30a4\u30af\u30eb\u9032\u5316\u306e\u5de8\u795e",
        "hIWFDi72": "7",
        "BgR6ine9": "0",
        "hns35kNL": "1",
        "P_CREATEDATE": "2018-06-25 02:19:06",
        "P_UPDATEDATE": "2018-06-25 02:19:06"
    },
    {
        "P_COUNTER_ID": "109",
        "P_NAME": "\u529f\u7e3e\u4ea4\u63db\u6240\u30b5\u30a4\u30af\u30eb\u8056\u5263\u30a8\u30d9\u30ea\u30af\u30b9",
        "hIWFDi72": "7",
        "BgR6ine9": "0",
        "hns35kNL": "1",
        "P_CREATEDATE": "2018-06-25 02:19:06",
        "P_UPDATEDATE": "2018-06-25 02:19:06"
    },
    {
        "P_COUNTER_ID": "110",
        "P_NAME": "\u529f\u7e3e\u4ea4\u63db\u6240\u30b5\u30a4\u30af\u30eb\u7adc\u9c57\u76fe\u30d0\u30eb\u30b2\u30a4\u30aa\u30b9",
        "hIWFDi72": "7",
        "BgR6ine9": "0",
        "hns35kNL": "1",
        "P_CREATEDATE": "2018-06-25 02:19:06",
        "P_UPDATEDATE": "2018-06-25 02:19:06"
    },
    {
        "P_COUNTER_ID": "111",
        "P_NAME": "\u529f\u7e3e\u4ea4\u63db\u6240\u30b5\u30a4\u30af\u30eb\u9b54\u9632\u30a2\u30c3\u30d710\uff05",
        "hIWFDi72": "7",
        "BgR6ine9": "0",
        "hns35kNL": "1",
        "P_CREATEDATE": "2018-06-25 02:19:06",
        "P_UPDATEDATE": "2018-06-25 02:19:06"
    },
    {
        "P_COUNTER_ID": "112",
        "P_NAME": "\u529f\u7e3e\u4ea4\u63db\u6240\u30b5\u30a4\u30af\u30eb\u5e7b\u7363\u93a7\u300e\u9e92\u9e9f\u300f",
        "hIWFDi72": "7",
        "BgR6ine9": "0",
        "hns35kNL": "1",
        "P_CREATEDATE": "2018-06-25 02:19:06",
        "P_UPDATEDATE": "2018-06-25 02:19:06"
    },
    {
        "P_COUNTER_ID": "113",
        "P_NAME": "\u529f\u7e3e\u4ea4\u63db\u6240\u30b5\u30a4\u30af\u30eb\u6a5f\u5263\u30c7\u30a3\u30d5\u30a7\u30f3\u30c0\u30fc",
        "hIWFDi72": "30",
        "BgR6ine9": "0",
        "hns35kNL": "1",
        "P_CREATEDATE": "2018-06-25 02:19:06",
        "P_UPDATEDATE": "2018-06-25 02:19:06"
    },
    {
        "P_COUNTER_ID": "114",
        "P_NAME": "\u529f\u7e3e\u4ea4\u63db\u6240\u30b5\u30a4\u30af\u30eb\u5343\u5b50\u6751\u6b63",
        "hIWFDi72": "0",
        "BgR6ine9": "0",
        "hns35kNL": "1",
        "P_CREATEDATE": "2018-06-25 02:19:06",
        "P_UPDATEDATE": "2018-06-25 02:19:06"
    },
    {
        "P_COUNTER_ID": "115",
        "P_NAME": "\u529f\u7e3e\u4ea4\u63db\u6240\u30b5\u30a4\u30af\u30eb\u30d5\u30a7\u30cb\u30c3\u30af\u30b9\u306e\u773c",
        "hIWFDi72": "0",
        "BgR6ine9": "0",
        "hns35kNL": "1",
        "P_CREATEDATE": "2018-06-25 02:19:06",
        "P_UPDATEDATE": "2018-06-25 02:19:06"
    },
    {
        "P_COUNTER_ID": "116",
        "P_NAME": "\u529f\u7e3e\u4ea4\u63db\u6240\u30b5\u30a4\u30af\u30eb\u56de\u5fa9\u85ac",
        "hIWFDi72": "7",
        "BgR6ine9": "0",
        "hns35kNL": "100",
        "P_CREATEDATE": "2018-06-25 02:19:06",
        "P_UPDATEDATE": "2018-06-25 02:19:06"
    },
    {
        "P_COUNTER_ID": "117",
        "P_NAME": "\u529f\u7e3e\u4ea4\u63db\u6240\u30b5\u30a4\u30af\u30eb\u8607\u751f\u85ac",
        "hIWFDi72": "7",
        "BgR6ine9": "0",
        "hns35kNL": "10",
        "P_CREATEDATE": "2018-06-25 02:19:06",
        "P_UPDATEDATE": "2018-06-25 02:19:06"
    },
    {
        "P_COUNTER_ID": "118",
        "P_NAME": "\u529f\u7e3e\u4ea4\u63db\u6240\u30b5\u30a4\u30af\u30eb\u6d44\u5316\u85ac",
        "hIWFDi72": "7",
        "BgR6ine9": "0",
        "hns35kNL": "60",
        "P_CREATEDATE": "2018-06-25 02:19:06",
        "P_UPDATEDATE": "2018-06-25 02:19:06"
    },
    {
        "P_COUNTER_ID": "119",
        "P_NAME": "\u529f\u7e3e\u4ea4\u63db\u6240\u30b5\u30a4\u30af\u30eb\u6d3b\u6027\u85ac",
        "hIWFDi72": "7",
        "BgR6ine9": "0",
        "hns35kNL": "60",
        "P_CREATEDATE": "2018-06-25 02:19:06",
        "P_UPDATEDATE": "2018-06-25 02:19:06"
    },
    {
        "P_COUNTER_ID": "120",
        "P_NAME": "\u529f\u7e3e\u4ea4\u63db\u6240\u30b5\u30a4\u30af\u30eb\u93ae\u9759\u85ac",
        "hIWFDi72": "7",
        "BgR6ine9": "0",
        "hns35kNL": "60",
        "P_CREATEDATE": "2018-06-25 02:19:06",
        "P_UPDATEDATE": "2018-06-25 02:19:06"
    },
    {
        "P_COUNTER_ID": "121",
        "P_NAME": "\u529f\u7e3e\u4ea4\u63db\u6240\u30b5\u30a4\u30af\u30eb\u6280\u5b9d\u30d0\u30c8\u30eb\u30d6\u30fc\u30b9\u30bf\u30fc",
        "hIWFDi72": "0",
        "BgR6ine9": "0",
        "hns35kNL": "1",
        "P_CREATEDATE": "2018-06-25 02:19:06",
        "P_UPDATEDATE": "2018-06-25 02:19:06"
    },
    {
        "P_COUNTER_ID": "122",
        "P_NAME": "\u529f\u7e3e\u4ea4\u63db\u6240\u30b5\u30a4\u30af\u30eb\u6b66\u795e\u85ac",
        "hIWFDi72": "7",
        "BgR6ine9": "0",
        "hns35kNL": "10",
        "P_CREATEDATE": "2018-06-25 02:19:06",
        "P_UPDATEDATE": "2018-06-25 02:19:06"
    },
    {
        "P_COUNTER_ID": "123",
        "P_NAME": "\u529f\u7e3e\u4ea4\u63db\u6240\u30b5\u30a4\u30af\u30eb\u795e\u4ed9\u7434",
        "hIWFDi72": "7",
        "BgR6ine9": "0",
        "hns35kNL": "10",
        "P_CREATEDATE": "2018-06-25 02:19:06",
        "P_UPDATEDATE": "2018-06-25 02:19:06"
    },
    {
        "P_COUNTER_ID": "124",
        "P_NAME": "\u529f\u7e3e\u4ea4\u63db\u6240\u30b5\u30a4\u30af\u30eb\u6226\u96c4\u7d46\u6676",
        "hIWFDi72": "7",
        "BgR6ine9": "0",
        "hns35kNL": "3",
        "P_CREATEDATE": "2018-06-25 02:19:06",
        "P_UPDATEDATE": "2018-06-25 02:19:06"
    },
    {
        "P_COUNTER_ID": "125",
        "P_NAME": "\u529f\u7e3e\u4ea4\u63db\u6240\u30b5\u30a4\u30af\u30eb\u8607\u751f\u85ac_\u7121\u9650\u7248",
        "hIWFDi72": "1",
        "BgR6ine9": "0",
        "hns35kNL": "999",
        "P_CREATEDATE": "2018-06-25 02:19:06",
        "P_UPDATEDATE": "2018-06-25 02:19:06"
    },
    {
        "P_COUNTER_ID": "126",
        "P_NAME": "\u529f\u7e3e\u4ea4\u63db\u6240\u30b5\u30a4\u30af\u30eb\u6b66\u795e\u85ac_\u7121\u9650\u7248",
        "hIWFDi72": "1",
        "BgR6ine9": "0",
        "hns35kNL": "999",
        "P_CREATEDATE": "2018-06-25 02:19:06",
        "P_UPDATEDATE": "2018-06-25 02:19:06"
    },
    {
        "P_COUNTER_ID": "127",
        "P_NAME": "\u529f\u7e3e\u4ea4\u63db\u6240\u30b5\u30a4\u30af\u30eb\u795e\u4ed9\u7434_\u7121\u9650\u7248",
        "hIWFDi72": "1",
        "BgR6ine9": "0",
        "hns35kNL": "999",
        "P_CREATEDATE": "2018-06-25 02:19:06",
        "P_UPDATEDATE": "2018-06-25 02:19:06"
    },
    {
        "P_COUNTER_ID": "128",
        "P_NAME": "\u529f\u7e3e\u4ea4\u63db\u6240\u30b5\u30a4\u30af\u30eb\u6226\u96c4\u7d46\u6676_\u7121\u9650\u7248",
        "hIWFDi72": "1",
        "BgR6ine9": "0",
        "hns35kNL": "999",
        "P_CREATEDATE": "2018-06-25 02:19:06",
        "P_UPDATEDATE": "2018-06-25 02:19:06"
    },
    {
        "P_COUNTER_ID": "129",
        "P_NAME": "\u529f\u7e3e\u4ea4\u63db\u6240\u30b5\u30a4\u30af\u30eb_\u79f0\u53f7\u300c\u304c\u300d",
        "hIWFDi72": "0",
        "BgR6ine9": "0",
        "hns35kNL": "1",
        "P_CREATEDATE": "2018-06-25 02:19:06",
        "P_UPDATEDATE": "2018-06-25 02:19:06"
    },
    {
        "P_COUNTER_ID": "130",
        "P_NAME": "\u529f\u7e3e\u4ea4\u63db\u6240\u30b5\u30a4\u30af\u30eb_\u79f0\u53f7\u300c\u2605\u300d",
        "hIWFDi72": "0",
        "BgR6ine9": "0",
        "hns35kNL": "1",
        "P_CREATEDATE": "2018-06-25 02:19:06",
        "P_UPDATEDATE": "2018-06-25 02:19:06"
    },
    {
        "P_COUNTER_ID": "133",
        "P_NAME": "GW\u9650\u5b9a\u4ea4\u63db\u5546\u54c1_\u7cbe\u970a\u5263\u30c6\u30a3\u30a2\u30c3\u30c8",
        "hIWFDi72": "0",
        "BgR6ine9": "0",
        "hns35kNL": "1",
        "P_CREATEDATE": "2018-06-25 02:19:06",
        "P_UPDATEDATE": "2018-06-25 02:19:06"
    },
    {
        "P_COUNTER_ID": "134",
        "P_NAME": "GW\u9650\u5b9a\u4ea4\u63db\u5546\u54c1_\u30e9\u30a4\u30cd\u30eb\u306e\u9ed2\u8276\u7b26",
        "hIWFDi72": "0",
        "BgR6ine9": "0",
        "hns35kNL": "1",
        "P_CREATEDATE": "2018-06-25 02:19:06",
        "P_UPDATEDATE": "2018-06-25 02:19:06"
    },
    {
        "P_COUNTER_ID": "135",
        "P_NAME": "GW\u9650\u5b9a\u4ea4\u63db\u5546\u54c1_\u79d8\u5b9d\u30de\u30eb\u30ad\u30e5\u30ed\u30c7\u30a3\u30f3",
        "hIWFDi72": "0",
        "BgR6ine9": "0",
        "hns35kNL": "1",
        "P_CREATEDATE": "2018-06-25 02:19:06",
        "P_UPDATEDATE": "2018-06-25 02:19:06"
    },
    {
        "P_COUNTER_ID": "136",
        "P_NAME": "GW\u9650\u5b9a\u4ea4\u63db\u5546\u54c1_\u9b54\u5203\u306e\u30b1\u30eb\u30b7\u30e5",
        "hIWFDi72": "0",
        "BgR6ine9": "0",
        "hns35kNL": "1",
        "P_CREATEDATE": "2018-06-25 02:19:06",
        "P_UPDATEDATE": "2018-06-25 02:19:06"
    },
    {
        "P_COUNTER_ID": "137",
        "P_NAME": "GW\u9650\u5b9a\u4ea4\u63db\u5546\u54c1_\u7652\u5b9d\u30cf\u30fc\u30c8\u30d6\u30fc\u30b9\u30bf\u30fc",
        "hIWFDi72": "0",
        "BgR6ine9": "0",
        "hns35kNL": "1",
        "P_CREATEDATE": "2018-06-25 02:19:06",
        "P_UPDATEDATE": "2018-06-25 02:19:06"
    },
    {
        "P_COUNTER_ID": "138",
        "P_NAME": "GW\u9650\u5b9a\u4ea4\u63db\u5546\u54c1_\u5bb5\u73bb\u7483",
        "hIWFDi72": "0",
        "BgR6ine9": "0",
        "hns35kNL": "1",
        "P_CREATEDATE": "2018-06-25 02:19:06",
        "P_UPDATEDATE": "2018-06-25 02:19:06"
    },
    {
        "P_COUNTER_ID": "139",
        "P_NAME": "GW\u9650\u5b9a\u4ea4\u63db\u5546\u54c1_\u30e1\u30bf\u30eb\u30ad\u30fc",
        "hIWFDi72": "0",
        "BgR6ine9": "0",
        "hns35kNL": "6",
        "P_CREATEDATE": "2018-06-25 02:19:06",
        "P_UPDATEDATE": "2018-06-25 02:19:06"
    },
    {
        "P_COUNTER_ID": "140",
        "P_NAME": "GW\u9650\u5b9a\u4ea4\u63db\u5546\u54c1_\u30b8\u30e5\u30a8\u30eb\u30ad\u30fc",
        "hIWFDi72": "0",
        "BgR6ine9": "0",
        "hns35kNL": "6",
        "P_CREATEDATE": "2018-06-25 02:19:06",
        "P_UPDATEDATE": "2018-06-25 02:19:06"
    },
    {
        "P_COUNTER_ID": "141",
        "P_NAME": "GW\u9650\u5b9a\u4ea4\u63db\u5546\u54c1_\u30d0\u30fc\u30b9\u30c8\u30af\u30c3\u30ad\u30fc",
        "hIWFDi72": "0",
        "BgR6ine9": "0",
        "hns35kNL": "6",
        "P_CREATEDATE": "2018-06-25 02:19:06",
        "P_UPDATEDATE": "2018-06-25 02:19:06"
    },
    {
        "P_COUNTER_ID": "142",
        "P_NAME": "GW\u9650\u5b9a\u4ea4\u63db\u5546\u54c1_\u795e\u9a13\u306e\u8a3c",
        "hIWFDi72": "0",
        "BgR6ine9": "0",
        "hns35kNL": "6",
        "P_CREATEDATE": "2018-06-25 02:19:06",
        "P_UPDATEDATE": "2018-06-25 02:19:06"
    },
    {
        "P_COUNTER_ID": "143",
        "P_NAME": "GW\u9650\u5b9a\u4ea4\u63db\u5546\u54c1_\u30e1\u30bf\u30eb\u30b4\u30c3\u30c9",
        "hIWFDi72": "0",
        "BgR6ine9": "0",
        "hns35kNL": "20",
        "P_CREATEDATE": "2018-06-25 02:19:06",
        "P_UPDATEDATE": "2018-06-25 02:19:06"
    },
    {
        "P_COUNTER_ID": "144",
        "P_NAME": "5\u6708\u9650\u5b9a\u30d6\u30c3\u30af\u4ea4\u63db\u5546\u54c1_\u9b54\u795e\u65a7\u30ed\u30fc\u30c9\u30fb\u30de\u30b0\u30ec\u30b9",
        "hIWFDi72": "0",
        "BgR6ine9": "0",
        "hns35kNL": "1",
        "P_CREATEDATE": "2018-06-25 02:19:06",
        "P_UPDATEDATE": "2018-06-25 02:19:06"
    },
    {
        "P_COUNTER_ID": "145",
        "P_NAME": "5\u6708\u9650\u5b9a\u30d6\u30c3\u30af\u4ea4\u63db\u5546\u54c1_\u767d\u54c0\u306e\u5929\u846c\u8863",
        "hIWFDi72": "0",
        "BgR6ine9": "0",
        "hns35kNL": "1",
        "P_CREATEDATE": "2018-06-25 02:19:06",
        "P_UPDATEDATE": "2018-06-25 02:19:06"
    },
    {
        "P_COUNTER_ID": "146",
        "P_NAME": "5\u6708\u9650\u5b9a\u30d6\u30c3\u30af\u4ea4\u63db\u5546\u54c1_\u8f1d\u93a7\u30eb\u30c7\u30a3\u30d0\u30fb\u30de\u30af\u30b9",
        "hIWFDi72": "0",
        "BgR6ine9": "0",
        "hns35kNL": "1",
        "P_CREATEDATE": "2018-06-25 02:19:06",
        "P_UPDATEDATE": "2018-06-25 02:19:06"
    },
    {
        "P_COUNTER_ID": "147",
        "P_NAME": "5\u6708\u9650\u5b9a\u30d6\u30c3\u30af\u4ea4\u63db\u5546\u54c1_\u9032\u5316\u306e\u30c4\u30dc",
        "hIWFDi72": "0",
        "BgR6ine9": "0",
        "hns35kNL": "8",
        "P_CREATEDATE": "2018-06-25 02:19:06",
        "P_UPDATEDATE": "2018-06-25 02:19:06"
    },
    {
        "P_COUNTER_ID": "148",
        "P_NAME": "5\u6708\u9650\u5b9a\u30d6\u30c3\u30af\u4ea4\u63db\u5546\u54c1_\u9032\u5316\u306e\u77f3\u50cf",
        "hIWFDi72": "0",
        "BgR6ine9": "0",
        "hns35kNL": "8",
        "P_CREATEDATE": "2018-06-25 02:19:06",
        "P_UPDATEDATE": "2018-06-25 02:19:06"
    },
    {
        "P_COUNTER_ID": "149",
        "P_NAME": "5\u6708\u9650\u5b9a\u30d6\u30c3\u30af\u4ea4\u63db\u5546\u54c1_\u9032\u5316\u306e\u7cbe\u970a",
        "hIWFDi72": "0",
        "BgR6ine9": "0",
        "hns35kNL": "10",
        "P_CREATEDATE": "2018-06-25 02:19:06",
        "P_UPDATEDATE": "2018-06-25 02:19:06"
    },
    {
        "P_COUNTER_ID": "150",
        "P_NAME": "5\u6708\u9650\u5b9a\u30d6\u30c3\u30af\u4ea4\u63db\u5546\u54c1_\u9032\u5316\u306e\u5996\u7cbe",
        "hIWFDi72": "0",
        "BgR6ine9": "0",
        "hns35kNL": "14",
        "P_CREATEDATE": "2018-06-25 02:19:06",
        "P_UPDATEDATE": "2018-06-25 02:19:06"
    },
    {
        "P_COUNTER_ID": "151",
        "P_NAME": "5\u6708\u9650\u5b9a\u30d6\u30c3\u30af\u4ea4\u63db\u5546\u54c1_\u708e\u795e\u306e\u773c",
        "hIWFDi72": "0",
        "BgR6ine9": "0",
        "hns35kNL": "5",
        "P_CREATEDATE": "2018-06-25 02:19:06",
        "P_UPDATEDATE": "2018-06-25 02:19:06"
    },
    {
        "P_COUNTER_ID": "152",
        "P_NAME": "5\u6708\u9650\u5b9a\u30d6\u30c3\u30af\u4ea4\u63db\u5546\u54c1_\u6c34\u795e\u306e\u773c",
        "hIWFDi72": "0",
        "BgR6ine9": "0",
        "hns35kNL": "5",
        "P_CREATEDATE": "2018-06-25 02:19:06",
        "P_UPDATEDATE": "2018-06-25 02:19:06"
    },
    {
        "P_COUNTER_ID": "153",
        "P_NAME": "5\u6708\u9650\u5b9a\u30d6\u30c3\u30af\u4ea4\u63db\u5546\u54c1_\u6a39\u795e\u306e\u773c",
        "hIWFDi72": "0",
        "BgR6ine9": "0",
        "hns35kNL": "5",
        "P_CREATEDATE": "2018-06-25 02:19:06",
        "P_UPDATEDATE": "2018-06-25 02:19:06"
    },
    {
        "P_COUNTER_ID": "154",
        "P_NAME": "5\u6708\u9650\u5b9a\u30d6\u30c3\u30af\u4ea4\u63db\u5546\u54c1_\u96f7\u795e\u306e\u773c",
        "hIWFDi72": "0",
        "BgR6ine9": "0",
        "hns35kNL": "5",
        "P_CREATEDATE": "2018-06-25 02:19:06",
        "P_UPDATEDATE": "2018-06-25 02:19:06"
    },
    {
        "P_COUNTER_ID": "155",
        "P_NAME": "5\u6708\u9650\u5b9a\u30d6\u30c3\u30af\u4ea4\u63db\u5546\u54c1_\u5149\u795e\u306e\u773c",
        "hIWFDi72": "0",
        "BgR6ine9": "0",
        "hns35kNL": "5",
        "P_CREATEDATE": "2018-06-25 02:19:06",
        "P_UPDATEDATE": "2018-06-25 02:19:06"
    },
    {
        "P_COUNTER_ID": "156",
        "P_NAME": "5\u6708\u9650\u5b9a\u30d6\u30c3\u30af\u4ea4\u63db\u5546\u54c1_\u95c7\u795e\u306e\u773c",
        "hIWFDi72": "0",
        "BgR6ine9": "0",
        "hns35kNL": "5",
        "P_CREATEDATE": "2018-06-25 02:19:06",
        "P_UPDATEDATE": "2018-06-25 02:19:06"
    },
    {
        "P_COUNTER_ID": "157",
        "P_NAME": "5\u6708\u9650\u5b9a\u30d6\u30c3\u30af\u4ea4\u63db\u5546\u54c1_\u84bc\u73ca\u9271",
        "hIWFDi72": "0",
        "BgR6ine9": "0",
        "hns35kNL": "3",
        "P_CREATEDATE": "2018-06-25 02:19:06",
        "P_UPDATEDATE": "2018-06-25 02:19:06"
    },
    {
        "P_COUNTER_ID": "158",
        "P_NAME": "5\u6708\u9650\u5b9a\u30d6\u30c3\u30af\u4ea4\u63db\u5546\u54c1_\u5343\u7e54\u5e03",
        "hIWFDi72": "0",
        "BgR6ine9": "0",
        "hns35kNL": "3",
        "P_CREATEDATE": "2018-06-25 02:19:06",
        "P_UPDATEDATE": "2018-06-25 02:19:06"
    },
    {
        "P_COUNTER_ID": "159",
        "P_NAME": "5\u6708\u9650\u5b9a\u30d6\u30c3\u30af\u4ea4\u63db\u5546\u54c1_\u30d0\u30cf\u6750",
        "hIWFDi72": "0",
        "BgR6ine9": "0",
        "hns35kNL": "3",
        "P_CREATEDATE": "2018-06-25 02:19:06",
        "P_UPDATEDATE": "2018-06-25 02:19:06"
    },
    {
        "P_COUNTER_ID": "160",
        "P_NAME": "5\u5468\u5e74\u9650\u5b9a\u30d6\u30c3\u30af\u4ea4\u63db\u5546\u54c1_\u795e\u81e3\u306e\u82b1",
        "hIWFDi72": "0",
        "BgR6ine9": "0",
        "hns35kNL": "1",
        "P_CREATEDATE": "2018-06-25 02:19:06",
        "P_UPDATEDATE": "2018-06-25 02:19:06"
    },
    {
        "P_COUNTER_ID": "161",
        "P_NAME": "5\u5468\u5e74\u9650\u5b9a\u30d6\u30c3\u30af\u4ea4\u63db\u5546\u54c1_\u6226\u5b9d\u30d0\u30c8\u30eb\u30c9\u30e9\u30a4\u30d0\u30fc",
        "hIWFDi72": "0",
        "BgR6ine9": "0",
        "hns35kNL": "1",
        "P_CREATEDATE": "2018-06-25 02:19:06",
        "P_UPDATEDATE": "2018-06-25 02:19:06"
    },
    {
        "P_COUNTER_ID": "162",
        "P_NAME": "5\u5468\u5e74\u9650\u5b9a\u30d6\u30c3\u30af\u4ea4\u63db\u5546\u54c1_\u79d8\u5b9d\u300e\u30de\u30eb\u30ad\u30e5\u30ed\u30c7\u30a3\u30f3\u300f",
        "hIWFDi72": "0",
        "BgR6ine9": "0",
        "hns35kNL": "1",
        "P_CREATEDATE": "2018-06-25 02:19:06",
        "P_UPDATEDATE": "2018-06-25 02:19:06"
    },
    {
        "P_COUNTER_ID": "163",
        "P_NAME": "5\u5468\u5e74\u9650\u5b9a\u30d6\u30c3\u30af\u4ea4\u63db\u5546\u54c1_\u7cbe\u970a\u5263\u30c6\u30a3\u30a2\u30c3\u30c8",
        "hIWFDi72": "0",
        "BgR6ine9": "0",
        "hns35kNL": "1",
        "P_CREATEDATE": "2018-06-25 02:19:06",
        "P_UPDATEDATE": "2018-06-25 02:19:06"
    },
    {
        "P_COUNTER_ID": "164",
        "P_NAME": "5\u5468\u5e74\u9650\u5b9a\u30d6\u30c3\u30af\u4ea4\u63db\u5546\u54c1_\u30e9\u30a4\u30cd\u30eb\u306e\u9ed2\u8276\u7b26",
        "hIWFDi72": "0",
        "BgR6ine9": "0",
        "hns35kNL": "1",
        "P_CREATEDATE": "2018-06-25 02:19:06",
        "P_UPDATEDATE": "2018-06-25 02:19:06"
    },
    {
        "P_COUNTER_ID": "165",
        "P_NAME": "5\u5468\u5e74\u9650\u5b9a\u30d6\u30c3\u30af\u4ea4\u63db\u5546\u54c1_\u5bb5\u73bb\u7483",
        "hIWFDi72": "0",
        "BgR6ine9": "0",
        "hns35kNL": "1",
        "P_CREATEDATE": "2018-06-25 02:19:06",
        "P_UPDATEDATE": "2018-06-25 02:19:06"
    },
    {
        "P_COUNTER_ID": "166",
        "P_NAME": "5\u5468\u5e74\u9650\u5b9a\u30d6\u30c3\u30af\u4ea4\u63db\u5546\u54c1_\u30e1\u30bf\u30eb\u30ad\u30fc",
        "hIWFDi72": "0",
        "BgR6ine9": "0",
        "hns35kNL": "6",
        "P_CREATEDATE": "2018-06-25 02:19:06",
        "P_UPDATEDATE": "2018-06-25 02:19:06"
    },
    {
        "P_COUNTER_ID": "167",
        "P_NAME": "5\u5468\u5e74\u9650\u5b9a\u30d6\u30c3\u30af\u4ea4\u63db\u5546\u54c1_\u30b8\u30e5\u30a8\u30eb\u30ad\u30fc",
        "hIWFDi72": "0",
        "BgR6ine9": "0",
        "hns35kNL": "6",
        "P_CREATEDATE": "2018-06-25 02:19:06",
        "P_UPDATEDATE": "2018-06-25 02:19:06"
    },
    {
        "P_COUNTER_ID": "168",
        "P_NAME": "5\u5468\u5e74\u9650\u5b9a\u30d6\u30c3\u30af\u4ea4\u63db\u5546\u54c1_\u30d0\u30fc\u30b9\u30c8\u30af\u30c3\u30ad\u30fc",
        "hIWFDi72": "0",
        "BgR6ine9": "0",
        "hns35kNL": "6",
        "P_CREATEDATE": "2018-06-25 02:19:06",
        "P_UPDATEDATE": "2018-06-25 02:19:06"
    },
    {
        "P_COUNTER_ID": "169",
        "P_NAME": "5\u5468\u5e74\u9650\u5b9a\u30d6\u30c3\u30af\u4ea4\u63db\u5546\u54c1_\u795e\u9a13\u306e\u8a3c",
        "hIWFDi72": "0",
        "BgR6ine9": "0",
        "hns35kNL": "6",
        "P_CREATEDATE": "2018-06-25 02:19:06",
        "P_UPDATEDATE": "2018-06-25 02:19:06"
    },
    {
        "P_COUNTER_ID": "170",
        "P_NAME": "5\u5468\u5e74\u9650\u5b9a\u30d6\u30c3\u30af\u4ea4\u63db\u5546\u54c1_\u30e1\u30bf\u30eb\u30b4\u30c3\u30c9",
        "hIWFDi72": "0",
        "BgR6ine9": "0",
        "hns35kNL": "20",
        "P_CREATEDATE": "2018-06-25 02:19:06",
        "P_UPDATEDATE": "2018-06-25 02:19:06"
    },
    {
        "P_COUNTER_ID": "171",
        "P_NAME": "5\u5468\u5e74\u9650\u5b9a\u30d6\u30c3\u30af\u4ea4\u63db\u5546\u54c1_\u708e\u795e\u306e\u773c",
        "hIWFDi72": "0",
        "BgR6ine9": "0",
        "hns35kNL": "5",
        "P_CREATEDATE": "2018-06-25 02:19:06",
        "P_UPDATEDATE": "2018-06-25 02:19:06"
    },
    {
        "P_COUNTER_ID": "172",
        "P_NAME": "5\u5468\u5e74\u9650\u5b9a\u30d6\u30c3\u30af\u4ea4\u63db\u5546\u54c1_\u6c34\u795e\u306e\u773c",
        "hIWFDi72": "0",
        "BgR6ine9": "0",
        "hns35kNL": "5",
        "P_CREATEDATE": "2018-06-25 02:19:06",
        "P_UPDATEDATE": "2018-06-25 02:19:06"
    },
    {
        "P_COUNTER_ID": "173",
        "P_NAME": "5\u5468\u5e74\u9650\u5b9a\u30d6\u30c3\u30af\u4ea4\u63db\u5546\u54c1_\u6a39\u795e\u306e\u773c",
        "hIWFDi72": "0",
        "BgR6ine9": "0",
        "hns35kNL": "5",
        "P_CREATEDATE": "2018-06-25 02:19:06",
        "P_UPDATEDATE": "2018-06-25 02:19:06"
    },
    {
        "P_COUNTER_ID": "174",
        "P_NAME": "5\u5468\u5e74\u9650\u5b9a\u30d6\u30c3\u30af\u4ea4\u63db\u5546\u54c1_\u96f7\u795e\u306e\u773c",
        "hIWFDi72": "0",
        "BgR6ine9": "0",
        "hns35kNL": "5",
        "P_CREATEDATE": "2018-06-25 02:19:06",
        "P_UPDATEDATE": "2018-06-25 02:19:06"
    },
    {
        "P_COUNTER_ID": "175",
        "P_NAME": "5\u5468\u5e74\u9650\u5b9a\u30d6\u30c3\u30af\u4ea4\u63db\u5546\u54c1_\u5149\u795e\u306e\u773c",
        "hIWFDi72": "0",
        "BgR6ine9": "0",
        "hns35kNL": "5",
        "P_CREATEDATE": "2018-06-25 02:19:06",
        "P_UPDATEDATE": "2018-06-25 02:19:06"
    },
    {
        "P_COUNTER_ID": "176",
        "P_NAME": "5\u5468\u5e74\u9650\u5b9a\u30d6\u30c3\u30af\u4ea4\u63db\u5546\u54c1_\u95c7\u795e\u306e\u773c",
        "hIWFDi72": "0",
        "BgR6ine9": "0",
        "hns35kNL": "5",
        "P_CREATEDATE": "2018-06-25 02:19:06",
        "P_UPDATEDATE": "2018-06-25 02:19:06"
    },
    {
        "P_COUNTER_ID": "177",
        "P_NAME": "5\u5468\u5e74\u9650\u5b9a\u30d6\u30c3\u30af\u4ea4\u63db\u5546\u54c1_\u84bc\u73ca\u9271",
        "hIWFDi72": "0",
        "BgR6ine9": "0",
        "hns35kNL": "3",
        "P_CREATEDATE": "2018-06-25 02:19:06",
        "P_UPDATEDATE": "2018-06-25 02:19:06"
    },
    {
        "P_COUNTER_ID": "178",
        "P_NAME": "5\u5468\u5e74\u9650\u5b9a\u30d6\u30c3\u30af\u4ea4\u63db\u5546\u54c1_\u5343\u7e54\u5e03",
        "hIWFDi72": "0",
        "BgR6ine9": "0",
        "hns35kNL": "3",
        "P_CREATEDATE": "2018-06-25 02:19:06",
        "P_UPDATEDATE": "2018-06-25 02:19:06"
    },
    {
        "P_COUNTER_ID": "179",
        "P_NAME": "5\u5468\u5e74\u9650\u5b9a\u30d6\u30c3\u30af\u4ea4\u63db\u5546\u54c1_\u30d0\u30cf\u6750",
        "hIWFDi72": "0",
        "BgR6ine9": "0",
        "hns35kNL": "3",
        "P_CREATEDATE": "2018-06-25 02:19:06",
        "P_UPDATEDATE": "2018-06-25 02:19:06"
    },
    {
        "P_COUNTER_ID": "180",
        "P_NAME": "5\u5468\u5e74\u9650\u5b9a\u30d6\u30c3\u30af\u4ea4\u63db\u5546\u54c1_\u79f0\u53f71\u7528",
        "hIWFDi72": "0",
        "BgR6ine9": "0",
        "hns35kNL": "1",
        "P_CREATEDATE": "2018-06-25 02:19:06",
        "P_UPDATEDATE": "2018-06-25 02:19:06"
    },
    {
        "P_COUNTER_ID": "181",
        "P_NAME": "5\u5468\u5e74\u9650\u5b9a\u30d6\u30c3\u30af\u4ea4\u63db\u5546\u54c1_\u79f0\u53f72\u7528",
        "hIWFDi72": "0",
        "BgR6ine9": "0",
        "hns35kNL": "1",
        "P_CREATEDATE": "2018-06-25 02:19:06",
        "P_UPDATEDATE": "2018-06-25 02:19:06"
    },
    {
        "P_COUNTER_ID": "201",
        "P_NAME": "\u30bc\u30eb\u7d0d\u5165\u4e0a\u9650\u8a2d\u5b9a",
        "hIWFDi72": "1",
        "BgR6ine9": "0",
        "hns35kNL": "10000",
        "P_CREATEDATE": "2018-06-25 02:19:06",
        "P_UPDATEDATE": "2018-06-25 02:19:06"
    },
    {
        "P_COUNTER_ID": "202",
        "P_NAME": "\u30e6\u30cb\u30c3\u30c8\u7d0d\u5165\u4e0a\u9650\u8a2d\u5b9a",
        "hIWFDi72": "1",
        "BgR6ine9": "0",
        "hns35kNL": "99999",
        "P_CREATEDATE": "2018-06-25 02:19:06",
        "P_UPDATEDATE": "2018-06-25 02:19:06"
    },
    {
        "P_COUNTER_ID": "203",
        "P_NAME": "\u30b9\u30d5\u30a3\u30a2\u7d0d\u5165\u4e0a\u9650\u8a2d\u5b9a",
        "hIWFDi72": "1",
        "BgR6ine9": "0",
        "hns35kNL": "99999",
        "P_CREATEDATE": "2018-06-25 02:19:06",
        "P_UPDATEDATE": "2018-06-25 02:19:06"
    },
    {
        "P_COUNTER_ID": "1000",
        "P_NAME": "\u30ec\u30b7\u30d41\u751f\u6210\u6570",
        "hIWFDi72": "0",
        "BgR6ine9": "0",
        "hns35kNL": "0",
        "P_CREATEDATE": "2018-06-25 02:19:06",
        "P_UPDATEDATE": "2018-06-25 02:19:06"
    },
    {
        "P_COUNTER_ID": "1001",
        "P_NAME": "\u529f\u7e3e\u4ea4\u63db\u6240\u30b5\u30a4\u30af\u30eb_\u773c1",
        "hIWFDi72": "7",
        "BgR6ine9": "0",
        "hns35kNL": "5",
        "P_CREATEDATE": "2018-06-25 02:19:06",
        "P_UPDATEDATE": "2018-06-25 02:19:06"
    },
    {
        "P_COUNTER_ID": "1002",
        "P_NAME": "\u529f\u7e3e\u4ea4\u63db\u6240\u30b5\u30a4\u30af\u30eb_\u773c2",
        "hIWFDi72": "7",
        "BgR6ine9": "0",
        "hns35kNL": "5",
        "P_CREATEDATE": "2018-06-25 02:19:06",
        "P_UPDATEDATE": "2018-06-25 02:19:06"
    },
    {
        "P_COUNTER_ID": "1003",
        "P_NAME": "\u529f\u7e3e\u4ea4\u63db\u6240\u30b5\u30a4\u30af\u30eb_\u9752\u7d20\u67501",
        "hIWFDi72": "7",
        "BgR6ine9": "0",
        "hns35kNL": "5",
        "P_CREATEDATE": "2018-06-25 02:19:06",
        "P_UPDATEDATE": "2018-06-25 02:19:06"
    },
    {
        "P_COUNTER_ID": "1004",
        "P_NAME": "\u529f\u7e3e\u4ea4\u63db\u6240\u30b5\u30a4\u30af\u30eb_\u8d64\u7d20\u67501",
        "hIWFDi72": "7",
        "BgR6ine9": "0",
        "hns35kNL": "3",
        "P_CREATEDATE": "2018-06-25 02:19:06",
        "P_UPDATEDATE": "2018-06-25 02:19:06"
    },
    {
        "P_COUNTER_ID": "1005",
        "P_NAME": "\u529f\u7e3e\u4ea4\u63db\u6240\u30b5\u30a4\u30af\u30eb_\u9752\u7d20\u67502",
        "hIWFDi72": "7",
        "BgR6ine9": "0",
        "hns35kNL": "5",
        "P_CREATEDATE": "2018-06-25 02:19:06",
        "P_UPDATEDATE": "2018-06-25 02:19:06"
    },
    {
        "P_COUNTER_ID": "1006",
        "P_NAME": "\u529f\u7e3e\u4ea4\u63db\u6240\u30b5\u30a4\u30af\u30eb_\u8d64\u7d20\u67502",
        "hIWFDi72": "7",
        "BgR6ine9": "0",
        "hns35kNL": "3",
        "P_CREATEDATE": "2018-06-25 02:19:06",
        "P_UPDATEDATE": "2018-06-25 02:19:06"
    },
    {
        "P_COUNTER_ID": "1007",
        "P_NAME": "\u529f\u7e3e\u4ea4\u63db\u6240\u30b5\u30a4\u30af\u30eb_\u6b66\u5668\u7d20\u67501",
        "hIWFDi72": "7",
        "BgR6ine9": "0",
        "hns35kNL": "5",
        "P_CREATEDATE": "2018-06-25 02:19:06",
        "P_UPDATEDATE": "2018-06-25 02:19:06"
    },
    {
        "P_COUNTER_ID": "1008",
        "P_NAME": "\u529f\u7e3e\u4ea4\u63db\u6240\u30b5\u30a4\u30af\u30eb_\u6b66\u5668\u7d20\u67502",
        "hIWFDi72": "7",
        "BgR6ine9": "0",
        "hns35kNL": "3",
        "P_CREATEDATE": "2018-06-25 02:19:06",
        "P_UPDATEDATE": "2018-06-25 02:19:06"
    },
    {
        "P_COUNTER_ID": "1009",
        "P_NAME": "\u529f\u7e3e\u4ea4\u63db\u6240\u30b5\u30a4\u30af\u30eb_\u30e1\u30bf\u30eb\u30ad\u30fc",
        "hIWFDi72": "7",
        "BgR6ine9": "0",
        "hns35kNL": "3",
        "P_CREATEDATE": "2018-06-25 02:19:06",
        "P_UPDATEDATE": "2018-06-25 02:19:06"
    },
    {
        "P_COUNTER_ID": "1010",
        "P_NAME": "\u529f\u7e3e\u4ea4\u63db\u6240\u30b5\u30a4\u30af\u30eb_\u30b8\u30e5\u30a8\u30eb\u30ad\u30fc",
        "hIWFDi72": "7",
        "BgR6ine9": "0",
        "hns35kNL": "3",
        "P_CREATEDATE": "2018-06-25 02:19:06",
        "P_UPDATEDATE": "2018-06-25 02:19:06"
    },
    {
        "P_COUNTER_ID": "1011",
        "P_NAME": "\u529f\u7e3e\u4ea4\u63db\u6240\u30b5\u30a4\u30af\u30eb_\u30d0\u30fc\u30b9\u30c8\u30af\u30c3\u30ad\u30fc",
        "hIWFDi72": "7",
        "BgR6ine9": "0",
        "hns35kNL": "3",
        "P_CREATEDATE": "2018-06-25 02:19:06",
        "P_UPDATEDATE": "2018-06-25 02:19:06"
    },
    {
        "P_COUNTER_ID": "1012",
        "P_NAME": "\u529f\u7e3e\u4ea4\u63db\u6240\u30b5\u30a4\u30af\u30eb_\u773c1",
        "hIWFDi72": "7",
        "BgR6ine9": "0",
        "hns35kNL": "5",
        "P_CREATEDATE": "2018-06-25 02:19:06",
        "P_UPDATEDATE": "2018-06-25 02:19:06"
    },
    {
        "P_COUNTER_ID": "1013",
        "P_NAME": "\u529f\u7e3e\u4ea4\u63db\u6240\u30b5\u30a4\u30af\u30eb_\u773c2",
        "hIWFDi72": "7",
        "BgR6ine9": "0",
        "hns35kNL": "5",
        "P_CREATEDATE": "2018-06-25 02:19:06",
        "P_UPDATEDATE": "2018-06-25 02:19:06"
    },
    {
        "P_COUNTER_ID": "1014",
        "P_NAME": "\u529f\u7e3e\u4ea4\u63db\u6240\u30b5\u30a4\u30af\u30eb_\u9752\u7d20\u67501",
        "hIWFDi72": "7",
        "BgR6ine9": "0",
        "hns35kNL": "5",
        "P_CREATEDATE": "2018-06-25 02:19:06",
        "P_UPDATEDATE": "2018-06-25 02:19:06"
    },
    {
        "P_COUNTER_ID": "1015",
        "P_NAME": "\u529f\u7e3e\u4ea4\u63db\u6240\u30b5\u30a4\u30af\u30eb_\u8d64\u7d20\u67501",
        "hIWFDi72": "7",
        "BgR6ine9": "0",
        "hns35kNL": "3",
        "P_CREATEDATE": "2018-06-25 02:19:06",
        "P_UPDATEDATE": "2018-06-25 02:19:06"
    },
    {
        "P_COUNTER_ID": "1016",
        "P_NAME": "\u529f\u7e3e\u4ea4\u63db\u6240\u30b5\u30a4\u30af\u30eb_\u9752\u7d20\u67502",
        "hIWFDi72": "7",
        "BgR6ine9": "0",
        "hns35kNL": "5",
        "P_CREATEDATE": "2018-06-25 02:19:06",
        "P_UPDATEDATE": "2018-06-25 02:19:06"
    },
    {
        "P_COUNTER_ID": "1017",
        "P_NAME": "\u529f\u7e3e\u4ea4\u63db\u6240\u30b5\u30a4\u30af\u30eb_\u8d64\u7d20\u67502",
        "hIWFDi72": "7",
        "BgR6ine9": "0",
        "hns35kNL": "3",
        "P_CREATEDATE": "2018-06-25 02:19:06",
        "P_UPDATEDATE": "2018-06-25 02:19:06"
    },
    {
        "P_COUNTER_ID": "1018",
        "P_NAME": "\u529f\u7e3e\u4ea4\u63db\u6240\u30b5\u30a4\u30af\u30eb_\u6b66\u5668\u7d20\u67501",
        "hIWFDi72": "7",
        "BgR6ine9": "0",
        "hns35kNL": "5",
        "P_CREATEDATE": "2018-06-25 02:19:06",
        "P_UPDATEDATE": "2018-06-25 02:19:06"
    },
    {
        "P_COUNTER_ID": "1019",
        "P_NAME": "\u529f\u7e3e\u4ea4\u63db\u6240\u30b5\u30a4\u30af\u30eb_\u6b66\u5668\u7d20\u67502",
        "hIWFDi72": "7",
        "BgR6ine9": "0",
        "hns35kNL": "3",
        "P_CREATEDATE": "2018-06-25 02:19:06",
        "P_UPDATEDATE": "2018-06-25 02:19:06"
    },
    {
        "P_COUNTER_ID": "1020",
        "P_NAME": "\u529f\u7e3e\u4ea4\u63db\u6240\u30b5\u30a4\u30af\u30eb_\u30e1\u30bf\u30eb\u30ad\u30fc",
        "hIWFDi72": "7",
        "BgR6ine9": "0",
        "hns35kNL": "3",
        "P_CREATEDATE": "2018-06-25 02:19:06",
        "P_UPDATEDATE": "2018-06-25 02:19:06"
    },
    {
        "P_COUNTER_ID": "1021",
        "P_NAME": "\u529f\u7e3e\u4ea4\u63db\u6240\u30b5\u30a4\u30af\u30eb_\u30b8\u30e5\u30a8\u30eb\u30ad\u30fc",
        "hIWFDi72": "7",
        "BgR6ine9": "0",
        "hns35kNL": "3",
        "P_CREATEDATE": "2018-06-25 02:19:06",
        "P_UPDATEDATE": "2018-06-25 02:19:06"
    },
    {
        "P_COUNTER_ID": "1022",
        "P_NAME": "\u529f\u7e3e\u4ea4\u63db\u6240\u30b5\u30a4\u30af\u30eb_\u30d0\u30fc\u30b9\u30c8\u30af\u30c3\u30ad\u30fc",
        "hIWFDi72": "7",
        "BgR6ine9": "0",
        "hns35kNL": "3",
        "P_CREATEDATE": "2018-06-25 02:19:06",
        "P_UPDATEDATE": "2018-06-25 02:19:06"
    },
    {
        "P_COUNTER_ID": "1023",
        "P_NAME": "\u529f\u7e3e\u4ea4\u63db\u6240\u30b5\u30a4\u30af\u30eb_\u773c1",
        "hIWFDi72": "0",
        "BgR6ine9": "0",
        "hns35kNL": "5",
        "P_CREATEDATE": "2018-06-25 02:19:06",
        "P_UPDATEDATE": "2018-06-25 02:19:06"
    },
    {
        "P_COUNTER_ID": "1024",
        "P_NAME": "\u529f\u7e3e\u4ea4\u63db\u6240\u30b5\u30a4\u30af\u30eb_\u773c2",
        "hIWFDi72": "0",
        "BgR6ine9": "0",
        "hns35kNL": "5",
        "P_CREATEDATE": "2018-06-25 02:19:06",
        "P_UPDATEDATE": "2018-06-25 02:19:06"
    },
    {
        "P_COUNTER_ID": "1025",
        "P_NAME": "\u529f\u7e3e\u4ea4\u63db\u6240\u30b5\u30a4\u30af\u30eb_\u9752\u7d20\u67501",
        "hIWFDi72": "0",
        "BgR6ine9": "0",
        "hns35kNL": "5",
        "P_CREATEDATE": "2018-06-25 02:19:06",
        "P_UPDATEDATE": "2018-06-25 02:19:06"
    },
    {
        "P_COUNTER_ID": "1026",
        "P_NAME": "\u529f\u7e3e\u4ea4\u63db\u6240\u30b5\u30a4\u30af\u30eb_\u8d64\u7d20\u67501",
        "hIWFDi72": "0",
        "BgR6ine9": "0",
        "hns35kNL": "3",
        "P_CREATEDATE": "2018-06-25 02:19:06",
        "P_UPDATEDATE": "2018-06-25 02:19:06"
    },
    {
        "P_COUNTER_ID": "1027",
        "P_NAME": "\u529f\u7e3e\u4ea4\u63db\u6240\u30b5\u30a4\u30af\u30eb_\u9752\u7d20\u67502",
        "hIWFDi72": "0",
        "BgR6ine9": "0",
        "hns35kNL": "5",
        "P_CREATEDATE": "2018-06-25 02:19:06",
        "P_UPDATEDATE": "2018-06-25 02:19:06"
    },
    {
        "P_COUNTER_ID": "1028",
        "P_NAME": "\u529f\u7e3e\u4ea4\u63db\u6240\u30b5\u30a4\u30af\u30eb_\u8d64\u7d20\u67502",
        "hIWFDi72": "0",
        "BgR6ine9": "0",
        "hns35kNL": "3",
        "P_CREATEDATE": "2018-06-25 02:19:06",
        "P_UPDATEDATE": "2018-06-25 02:19:06"
    },
    {
        "P_COUNTER_ID": "1029",
        "P_NAME": "\u529f\u7e3e\u4ea4\u63db\u6240\u30b5\u30a4\u30af\u30eb_\u6b66\u5668\u7d20\u67501",
        "hIWFDi72": "0",
        "BgR6ine9": "0",
        "hns35kNL": "5",
        "P_CREATEDATE": "2018-06-25 02:19:06",
        "P_UPDATEDATE": "2018-06-25 02:19:06"
    },
    {
        "P_COUNTER_ID": "1030",
        "P_NAME": "\u529f\u7e3e\u4ea4\u63db\u6240\u30b5\u30a4\u30af\u30eb_\u6b66\u5668\u7d20\u67502",
        "hIWFDi72": "0",
        "BgR6ine9": "0",
        "hns35kNL": "3",
        "P_CREATEDATE": "2018-06-25 02:19:06",
        "P_UPDATEDATE": "2018-06-25 02:19:06"
    },
    {
        "P_COUNTER_ID": "1031",
        "P_NAME": "\u529f\u7e3e\u4ea4\u63db\u6240\u30b5\u30a4\u30af\u30eb_\u30e1\u30bf\u30eb\u30ad\u30fc",
        "hIWFDi72": "0",
        "BgR6ine9": "0",
        "hns35kNL": "3",
        "P_CREATEDATE": "2018-06-25 02:19:06",
        "P_UPDATEDATE": "2018-06-25 02:19:06"
    },
    {
        "P_COUNTER_ID": "1032",
        "P_NAME": "\u529f\u7e3e\u4ea4\u63db\u6240\u30b5\u30a4\u30af\u30eb_\u30b8\u30e5\u30a8\u30eb\u30ad\u30fc",
        "hIWFDi72": "0",
        "BgR6ine9": "0",
        "hns35kNL": "3",
        "P_CREATEDATE": "2018-06-25 02:19:06",
        "P_UPDATEDATE": "2018-06-25 02:19:06"
    },
    {
        "P_COUNTER_ID": "1033",
        "P_NAME": "\u529f\u7e3e\u4ea4\u63db\u6240\u30b5\u30a4\u30af\u30eb_\u30d0\u30fc\u30b9\u30c8\u30af\u30c3\u30ad\u30fc",
        "hIWFDi72": "0",
        "BgR6ine9": "0",
        "hns35kNL": "3",
        "P_CREATEDATE": "2018-06-25 02:19:06",
        "P_UPDATEDATE": "2018-06-25 02:19:06"
    },
    {
        "P_COUNTER_ID": "1034",
        "P_NAME": "\u529f\u7e3e\u4ea4\u63db\u6240\u30b5\u30a4\u30af\u30eb_\u773c1",
        "hIWFDi72": "0",
        "BgR6ine9": "0",
        "hns35kNL": "5",
        "P_CREATEDATE": "2018-06-25 02:19:06",
        "P_UPDATEDATE": "2018-06-25 02:19:06"
    },
    {
        "P_COUNTER_ID": "1035",
        "P_NAME": "\u529f\u7e3e\u4ea4\u63db\u6240\u30b5\u30a4\u30af\u30eb_\u773c2",
        "hIWFDi72": "0",
        "BgR6ine9": "0",
        "hns35kNL": "5",
        "P_CREATEDATE": "2018-06-25 02:19:06",
        "P_UPDATEDATE": "2018-06-25 02:19:06"
    },
    {
        "P_COUNTER_ID": "1036",
        "P_NAME": "\u529f\u7e3e\u4ea4\u63db\u6240\u30b5\u30a4\u30af\u30eb_\u9752\u7d20\u67501",
        "hIWFDi72": "0",
        "BgR6ine9": "0",
        "hns35kNL": "5",
        "P_CREATEDATE": "2018-06-25 02:19:06",
        "P_UPDATEDATE": "2018-06-25 02:19:06"
    },
    {
        "P_COUNTER_ID": "1037",
        "P_NAME": "\u529f\u7e3e\u4ea4\u63db\u6240\u30b5\u30a4\u30af\u30eb_\u8d64\u7d20\u67501",
        "hIWFDi72": "0",
        "BgR6ine9": "0",
        "hns35kNL": "3",
        "P_CREATEDATE": "2018-06-25 02:19:06",
        "P_UPDATEDATE": "2018-06-25 02:19:06"
    },
    {
        "P_COUNTER_ID": "1038",
        "P_NAME": "\u529f\u7e3e\u4ea4\u63db\u6240\u30b5\u30a4\u30af\u30eb_\u9752\u7d20\u67502",
        "hIWFDi72": "0",
        "BgR6ine9": "0",
        "hns35kNL": "5",
        "P_CREATEDATE": "2018-06-25 02:19:06",
        "P_UPDATEDATE": "2018-06-25 02:19:06"
    },
    {
        "P_COUNTER_ID": "1039",
        "P_NAME": "\u529f\u7e3e\u4ea4\u63db\u6240\u30b5\u30a4\u30af\u30eb_\u8d64\u7d20\u67502",
        "hIWFDi72": "0",
        "BgR6ine9": "0",
        "hns35kNL": "3",
        "P_CREATEDATE": "2018-06-25 02:19:06",
        "P_UPDATEDATE": "2018-06-25 02:19:06"
    },
    {
        "P_COUNTER_ID": "1040",
        "P_NAME": "\u529f\u7e3e\u4ea4\u63db\u6240\u30b5\u30a4\u30af\u30eb_\u6b66\u5668\u7d20\u67501",
        "hIWFDi72": "0",
        "BgR6ine9": "0",
        "hns35kNL": "5",
        "P_CREATEDATE": "2018-06-25 02:19:06",
        "P_UPDATEDATE": "2018-06-25 02:19:06"
    },
    {
        "P_COUNTER_ID": "1041",
        "P_NAME": "\u529f\u7e3e\u4ea4\u63db\u6240\u30b5\u30a4\u30af\u30eb_\u6b66\u5668\u7d20\u67502",
        "hIWFDi72": "0",
        "BgR6ine9": "0",
        "hns35kNL": "3",
        "P_CREATEDATE": "2018-06-25 02:19:06",
        "P_UPDATEDATE": "2018-06-25 02:19:06"
    },
    {
        "P_COUNTER_ID": "1042",
        "P_NAME": "\u529f\u7e3e\u4ea4\u63db\u6240\u30b5\u30a4\u30af\u30eb_\u30e1\u30bf\u30eb\u30ad\u30fc",
        "hIWFDi72": "0",
        "BgR6ine9": "0",
        "hns35kNL": "3",
        "P_CREATEDATE": "2018-06-25 02:19:06",
        "P_UPDATEDATE": "2018-06-25 02:19:06"
    },
    {
        "P_COUNTER_ID": "1043",
        "P_NAME": "\u529f\u7e3e\u4ea4\u63db\u6240\u30b5\u30a4\u30af\u30eb_\u30b8\u30e5\u30a8\u30eb\u30ad\u30fc",
        "hIWFDi72": "0",
        "BgR6ine9": "0",
        "hns35kNL": "3",
        "P_CREATEDATE": "2018-06-25 02:19:06",
        "P_UPDATEDATE": "2018-06-25 02:19:06"
    },
    {
        "P_COUNTER_ID": "1044",
        "P_NAME": "\u529f\u7e3e\u4ea4\u63db\u6240\u30b5\u30a4\u30af\u30eb_\u30d0\u30fc\u30b9\u30c8\u30af\u30c3\u30ad\u30fc",
        "hIWFDi72": "0",
        "BgR6ine9": "0",
        "hns35kNL": "3",
        "P_CREATEDATE": "2018-06-25 02:19:06",
        "P_UPDATEDATE": "2018-06-25 02:19:06"
    },
    {
        "P_COUNTER_ID": "1045",
        "P_NAME": "\u529f\u7e3e\u4ea4\u63db\u6240\u30b5\u30a4\u30af\u30eb_\u773c1",
        "hIWFDi72": "0",
        "BgR6ine9": "0",
        "hns35kNL": "5",
        "P_CREATEDATE": "2018-06-25 02:19:06",
        "P_UPDATEDATE": "2018-06-25 02:19:06"
    },
    {
        "P_COUNTER_ID": "1046",
        "P_NAME": "\u529f\u7e3e\u4ea4\u63db\u6240\u30b5\u30a4\u30af\u30eb_\u773c2",
        "hIWFDi72": "0",
        "BgR6ine9": "0",
        "hns35kNL": "5",
        "P_CREATEDATE": "2018-06-25 02:19:06",
        "P_UPDATEDATE": "2018-06-25 02:19:06"
    },
    {
        "P_COUNTER_ID": "1047",
        "P_NAME": "\u529f\u7e3e\u4ea4\u63db\u6240\u30b5\u30a4\u30af\u30eb_\u9752\u7d20\u67501",
        "hIWFDi72": "0",
        "BgR6ine9": "0",
        "hns35kNL": "5",
        "P_CREATEDATE": "2018-06-25 02:19:06",
        "P_UPDATEDATE": "2018-06-25 02:19:06"
    },
    {
        "P_COUNTER_ID": "1048",
        "P_NAME": "\u529f\u7e3e\u4ea4\u63db\u6240\u30b5\u30a4\u30af\u30eb_\u8d64\u7d20\u67501",
        "hIWFDi72": "0",
        "BgR6ine9": "0",
        "hns35kNL": "3",
        "P_CREATEDATE": "2018-06-25 02:19:06",
        "P_UPDATEDATE": "2018-06-25 02:19:06"
    },
    {
        "P_COUNTER_ID": "1049",
        "P_NAME": "\u529f\u7e3e\u4ea4\u63db\u6240\u30b5\u30a4\u30af\u30eb_\u9752\u7d20\u67502",
        "hIWFDi72": "0",
        "BgR6ine9": "0",
        "hns35kNL": "5",
        "P_CREATEDATE": "2018-06-25 02:19:06",
        "P_UPDATEDATE": "2018-06-25 02:19:06"
    },
    {
        "P_COUNTER_ID": "1050",
        "P_NAME": "\u529f\u7e3e\u4ea4\u63db\u6240\u30b5\u30a4\u30af\u30eb_\u8d64\u7d20\u67502",
        "hIWFDi72": "0",
        "BgR6ine9": "0",
        "hns35kNL": "3",
        "P_CREATEDATE": "2018-06-25 02:19:06",
        "P_UPDATEDATE": "2018-06-25 02:19:06"
    },
    {
        "P_COUNTER_ID": "1051",
        "P_NAME": "\u529f\u7e3e\u4ea4\u63db\u6240\u30b5\u30a4\u30af\u30eb_\u6b66\u5668\u7d20\u67501",
        "hIWFDi72": "0",
        "BgR6ine9": "0",
        "hns35kNL": "5",
        "P_CREATEDATE": "2018-06-25 02:19:06",
        "P_UPDATEDATE": "2018-06-25 02:19:06"
    },
    {
        "P_COUNTER_ID": "1052",
        "P_NAME": "\u529f\u7e3e\u4ea4\u63db\u6240\u30b5\u30a4\u30af\u30eb_\u6b66\u5668\u7d20\u67502",
        "hIWFDi72": "0",
        "BgR6ine9": "0",
        "hns35kNL": "3",
        "P_CREATEDATE": "2018-06-25 02:19:06",
        "P_UPDATEDATE": "2018-06-25 02:19:06"
    },
    {
        "P_COUNTER_ID": "1053",
        "P_NAME": "\u529f\u7e3e\u4ea4\u63db\u6240\u30b5\u30a4\u30af\u30eb_\u30e1\u30bf\u30eb\u30ad\u30fc",
        "hIWFDi72": "0",
        "BgR6ine9": "0",
        "hns35kNL": "3",
        "P_CREATEDATE": "2018-06-25 02:19:06",
        "P_UPDATEDATE": "2018-06-25 02:19:06"
    },
    {
        "P_COUNTER_ID": "1054",
        "P_NAME": "\u529f\u7e3e\u4ea4\u63db\u6240\u30b5\u30a4\u30af\u30eb_\u30b8\u30e5\u30a8\u30eb\u30ad\u30fc",
        "hIWFDi72": "0",
        "BgR6ine9": "0",
        "hns35kNL": "3",
        "P_CREATEDATE": "2018-06-25 02:19:06",
        "P_UPDATEDATE": "2018-06-25 02:19:06"
    },
    {
        "P_COUNTER_ID": "1055",
        "P_NAME": "\u529f\u7e3e\u4ea4\u63db\u6240\u30b5\u30a4\u30af\u30eb_\u30d0\u30fc\u30b9\u30c8\u30af\u30c3\u30ad\u30fc",
        "hIWFDi72": "0",
        "BgR6ine9": "0",
        "hns35kNL": "3",
        "P_CREATEDATE": "2018-06-25 02:19:06",
        "P_UPDATEDATE": "2018-06-25 02:19:06"
    },
    {
        "P_COUNTER_ID": "1056",
        "P_NAME": "\u529f\u7e3e\u4ea4\u63db\u6240\u30b5\u30a4\u30af\u30eb_\u773c1",
        "hIWFDi72": "0",
        "BgR6ine9": "0",
        "hns35kNL": "5",
        "P_CREATEDATE": "2018-06-25 02:19:06",
        "P_UPDATEDATE": "2018-06-25 02:19:06"
    },
    {
        "P_COUNTER_ID": "1057",
        "P_NAME": "\u529f\u7e3e\u4ea4\u63db\u6240\u30b5\u30a4\u30af\u30eb_\u773c2",
        "hIWFDi72": "0",
        "BgR6ine9": "0",
        "hns35kNL": "5",
        "P_CREATEDATE": "2018-06-25 02:19:06",
        "P_UPDATEDATE": "2018-06-25 02:19:06"
    },
    {
        "P_COUNTER_ID": "1058",
        "P_NAME": "\u529f\u7e3e\u4ea4\u63db\u6240\u30b5\u30a4\u30af\u30eb_\u9752\u7d20\u67501",
        "hIWFDi72": "0",
        "BgR6ine9": "0",
        "hns35kNL": "5",
        "P_CREATEDATE": "2018-06-25 02:19:06",
        "P_UPDATEDATE": "2018-06-25 02:19:06"
    },
    {
        "P_COUNTER_ID": "1059",
        "P_NAME": "\u529f\u7e3e\u4ea4\u63db\u6240\u30b5\u30a4\u30af\u30eb_\u8d64\u7d20\u67501",
        "hIWFDi72": "0",
        "BgR6ine9": "0",
        "hns35kNL": "3",
        "P_CREATEDATE": "2018-06-25 02:19:06",
        "P_UPDATEDATE": "2018-06-25 02:19:06"
    },
    {
        "P_COUNTER_ID": "1060",
        "P_NAME": "\u529f\u7e3e\u4ea4\u63db\u6240\u30b5\u30a4\u30af\u30eb_\u9752\u7d20\u67502",
        "hIWFDi72": "0",
        "BgR6ine9": "0",
        "hns35kNL": "5",
        "P_CREATEDATE": "2018-06-25 02:19:06",
        "P_UPDATEDATE": "2018-06-25 02:19:06"
    },
    {
        "P_COUNTER_ID": "1061",
        "P_NAME": "\u529f\u7e3e\u4ea4\u63db\u6240\u30b5\u30a4\u30af\u30eb_\u8d64\u7d20\u67502",
        "hIWFDi72": "0",
        "BgR6ine9": "0",
        "hns35kNL": "3",
        "P_CREATEDATE": "2018-06-25 02:19:06",
        "P_UPDATEDATE": "2018-06-25 02:19:06"
    },
    {
        "P_COUNTER_ID": "1062",
        "P_NAME": "\u529f\u7e3e\u4ea4\u63db\u6240\u30b5\u30a4\u30af\u30eb_\u6b66\u5668\u7d20\u67501",
        "hIWFDi72": "0",
        "BgR6ine9": "0",
        "hns35kNL": "5",
        "P_CREATEDATE": "2018-06-25 02:19:06",
        "P_UPDATEDATE": "2018-06-25 02:19:06"
    },
    {
        "P_COUNTER_ID": "1063",
        "P_NAME": "\u529f\u7e3e\u4ea4\u63db\u6240\u30b5\u30a4\u30af\u30eb_\u6b66\u5668\u7d20\u67502",
        "hIWFDi72": "0",
        "BgR6ine9": "0",
        "hns35kNL": "3",
        "P_CREATEDATE": "2018-06-25 02:19:06",
        "P_UPDATEDATE": "2018-06-25 02:19:06"
    },
    {
        "P_COUNTER_ID": "1064",
        "P_NAME": "\u529f\u7e3e\u4ea4\u63db\u6240\u30b5\u30a4\u30af\u30eb_\u30e1\u30bf\u30eb\u30ad\u30fc",
        "hIWFDi72": "0",
        "BgR6ine9": "0",
        "hns35kNL": "3",
        "P_CREATEDATE": "2018-06-25 02:19:06",
        "P_UPDATEDATE": "2018-06-25 02:19:06"
    },
    {
        "P_COUNTER_ID": "1065",
        "P_NAME": "\u529f\u7e3e\u4ea4\u63db\u6240\u30b5\u30a4\u30af\u30eb_\u30b8\u30e5\u30a8\u30eb\u30ad\u30fc",
        "hIWFDi72": "0",
        "BgR6ine9": "0",
        "hns35kNL": "3",
        "P_CREATEDATE": "2018-06-25 02:19:06",
        "P_UPDATEDATE": "2018-06-25 02:19:06"
    },
    {
        "P_COUNTER_ID": "1066",
        "P_NAME": "\u529f\u7e3e\u4ea4\u63db\u6240\u30b5\u30a4\u30af\u30eb_\u30d0\u30fc\u30b9\u30c8\u30af\u30c3\u30ad\u30fc",
        "hIWFDi72": "0",
        "BgR6ine9": "0",
        "hns35kNL": "3",
        "P_CREATEDATE": "2018-06-25 02:19:06",
        "P_UPDATEDATE": "2018-06-25 02:19:06"
    },
    {
        "P_COUNTER_ID": "1067",
        "P_NAME": "\u529f\u7e3e\u4ea4\u63db\u6240\u30b5\u30a4\u30af\u30eb_\u773c1",
        "hIWFDi72": "0",
        "BgR6ine9": "0",
        "hns35kNL": "5",
        "P_CREATEDATE": "2018-06-25 02:19:06",
        "P_UPDATEDATE": "2018-06-25 02:19:06"
    },
    {
        "P_COUNTER_ID": "1068",
        "P_NAME": "\u529f\u7e3e\u4ea4\u63db\u6240\u30b5\u30a4\u30af\u30eb_\u773c2",
        "hIWFDi72": "0",
        "BgR6ine9": "0",
        "hns35kNL": "5",
        "P_CREATEDATE": "2018-06-25 02:19:06",
        "P_UPDATEDATE": "2018-06-25 02:19:06"
    },
    {
        "P_COUNTER_ID": "1069",
        "P_NAME": "\u529f\u7e3e\u4ea4\u63db\u6240\u30b5\u30a4\u30af\u30eb_\u9752\u7d20\u67501",
        "hIWFDi72": "0",
        "BgR6ine9": "0",
        "hns35kNL": "5",
        "P_CREATEDATE": "2018-06-25 02:19:06",
        "P_UPDATEDATE": "2018-06-25 02:19:06"
    },
    {
        "P_COUNTER_ID": "1070",
        "P_NAME": "\u529f\u7e3e\u4ea4\u63db\u6240\u30b5\u30a4\u30af\u30eb_\u8d64\u7d20\u67501",
        "hIWFDi72": "0",
        "BgR6ine9": "0",
        "hns35kNL": "3",
        "P_CREATEDATE": "2018-06-25 02:19:06",
        "P_UPDATEDATE": "2018-06-25 02:19:06"
    },
    {
        "P_COUNTER_ID": "1071",
        "P_NAME": "\u529f\u7e3e\u4ea4\u63db\u6240\u30b5\u30a4\u30af\u30eb_\u9752\u7d20\u67502",
        "hIWFDi72": "0",
        "BgR6ine9": "0",
        "hns35kNL": "5",
        "P_CREATEDATE": "2018-06-25 02:19:06",
        "P_UPDATEDATE": "2018-06-25 02:19:06"
    },
    {
        "P_COUNTER_ID": "1072",
        "P_NAME": "\u529f\u7e3e\u4ea4\u63db\u6240\u30b5\u30a4\u30af\u30eb_\u8d64\u7d20\u67502",
        "hIWFDi72": "0",
        "BgR6ine9": "0",
        "hns35kNL": "3",
        "P_CREATEDATE": "2018-06-25 02:19:06",
        "P_UPDATEDATE": "2018-06-25 02:19:06"
    },
    {
        "P_COUNTER_ID": "1073",
        "P_NAME": "\u529f\u7e3e\u4ea4\u63db\u6240\u30b5\u30a4\u30af\u30eb_\u6b66\u5668\u7d20\u67501",
        "hIWFDi72": "0",
        "BgR6ine9": "0",
        "hns35kNL": "5",
        "P_CREATEDATE": "2018-06-25 02:19:06",
        "P_UPDATEDATE": "2018-06-25 02:19:06"
    },
    {
        "P_COUNTER_ID": "1074",
        "P_NAME": "\u529f\u7e3e\u4ea4\u63db\u6240\u30b5\u30a4\u30af\u30eb_\u6b66\u5668\u7d20\u67502",
        "hIWFDi72": "0",
        "BgR6ine9": "0",
        "hns35kNL": "3",
        "P_CREATEDATE": "2018-06-25 02:19:06",
        "P_UPDATEDATE": "2018-06-25 02:19:06"
    },
    {
        "P_COUNTER_ID": "1075",
        "P_NAME": "\u529f\u7e3e\u4ea4\u63db\u6240\u30b5\u30a4\u30af\u30eb_\u30e1\u30bf\u30eb\u30ad\u30fc",
        "hIWFDi72": "0",
        "BgR6ine9": "0",
        "hns35kNL": "3",
        "P_CREATEDATE": "2018-06-25 02:19:06",
        "P_UPDATEDATE": "2018-06-25 02:19:06"
    },
    {
        "P_COUNTER_ID": "1076",
        "P_NAME": "\u529f\u7e3e\u4ea4\u63db\u6240\u30b5\u30a4\u30af\u30eb_\u30b8\u30e5\u30a8\u30eb\u30ad\u30fc",
        "hIWFDi72": "0",
        "BgR6ine9": "0",
        "hns35kNL": "3",
        "P_CREATEDATE": "2018-06-25 02:19:06",
        "P_UPDATEDATE": "2018-06-25 02:19:06"
    },
    {
        "P_COUNTER_ID": "1077",
        "P_NAME": "\u529f\u7e3e\u4ea4\u63db\u6240\u30b5\u30a4\u30af\u30eb_\u30d0\u30fc\u30b9\u30c8\u30af\u30c3\u30ad\u30fc",
        "hIWFDi72": "0",
        "BgR6ine9": "0",
        "hns35kNL": "3",
        "P_CREATEDATE": "2018-06-25 02:19:06",
        "P_UPDATEDATE": "2018-06-25 02:19:06"
    },
    {
        "P_COUNTER_ID": "1078",
        "P_NAME": "\u529f\u7e3e\u4ea4\u63db\u6240\u30b5\u30a4\u30af\u30eb_\u773c1",
        "hIWFDi72": "0",
        "BgR6ine9": "0",
        "hns35kNL": "5",
        "P_CREATEDATE": "2018-06-25 02:19:06",
        "P_UPDATEDATE": "2018-06-25 02:19:06"
    },
    {
        "P_COUNTER_ID": "1079",
        "P_NAME": "\u529f\u7e3e\u4ea4\u63db\u6240\u30b5\u30a4\u30af\u30eb_\u773c2",
        "hIWFDi72": "0",
        "BgR6ine9": "0",
        "hns35kNL": "5",
        "P_CREATEDATE": "2018-06-25 02:19:06",
        "P_UPDATEDATE": "2018-06-25 02:19:06"
    },
    {
        "P_COUNTER_ID": "1080",
        "P_NAME": "\u529f\u7e3e\u4ea4\u63db\u6240\u30b5\u30a4\u30af\u30eb_\u9752\u7d20\u67501",
        "hIWFDi72": "0",
        "BgR6ine9": "0",
        "hns35kNL": "5",
        "P_CREATEDATE": "2018-06-25 02:19:06",
        "P_UPDATEDATE": "2018-06-25 02:19:06"
    },
    {
        "P_COUNTER_ID": "1081",
        "P_NAME": "\u529f\u7e3e\u4ea4\u63db\u6240\u30b5\u30a4\u30af\u30eb_\u8d64\u7d20\u67501",
        "hIWFDi72": "0",
        "BgR6ine9": "0",
        "hns35kNL": "3",
        "P_CREATEDATE": "2018-06-25 02:19:06",
        "P_UPDATEDATE": "2018-06-25 02:19:06"
    },
    {
        "P_COUNTER_ID": "1082",
        "P_NAME": "\u529f\u7e3e\u4ea4\u63db\u6240\u30b5\u30a4\u30af\u30eb_\u9752\u7d20\u67502",
        "hIWFDi72": "0",
        "BgR6ine9": "0",
        "hns35kNL": "5",
        "P_CREATEDATE": "2018-06-25 02:19:06",
        "P_UPDATEDATE": "2018-06-25 02:19:06"
    },
    {
        "P_COUNTER_ID": "1083",
        "P_NAME": "\u529f\u7e3e\u4ea4\u63db\u6240\u30b5\u30a4\u30af\u30eb_\u8d64\u7d20\u67502",
        "hIWFDi72": "0",
        "BgR6ine9": "0",
        "hns35kNL": "3",
        "P_CREATEDATE": "2018-06-25 02:19:06",
        "P_UPDATEDATE": "2018-06-25 02:19:06"
    },
    {
        "P_COUNTER_ID": "1084",
        "P_NAME": "\u529f\u7e3e\u4ea4\u63db\u6240\u30b5\u30a4\u30af\u30eb_\u6b66\u5668\u7d20\u67501",
        "hIWFDi72": "0",
        "BgR6ine9": "0",
        "hns35kNL": "5",
        "P_CREATEDATE": "2018-06-25 02:19:06",
        "P_UPDATEDATE": "2018-06-25 02:19:06"
    },
    {
        "P_COUNTER_ID": "1085",
        "P_NAME": "\u529f\u7e3e\u4ea4\u63db\u6240\u30b5\u30a4\u30af\u30eb_\u6b66\u5668\u7d20\u67502",
        "hIWFDi72": "0",
        "BgR6ine9": "0",
        "hns35kNL": "3",
        "P_CREATEDATE": "2018-06-25 02:19:06",
        "P_UPDATEDATE": "2018-06-25 02:19:06"
    },
    {
        "P_COUNTER_ID": "1086",
        "P_NAME": "\u529f\u7e3e\u4ea4\u63db\u6240\u30b5\u30a4\u30af\u30eb_\u30e1\u30bf\u30eb\u30ad\u30fc",
        "hIWFDi72": "0",
        "BgR6ine9": "0",
        "hns35kNL": "3",
        "P_CREATEDATE": "2018-06-25 02:19:06",
        "P_UPDATEDATE": "2018-06-25 02:19:06"
    },
    {
        "P_COUNTER_ID": "1087",
        "P_NAME": "\u529f\u7e3e\u4ea4\u63db\u6240\u30b5\u30a4\u30af\u30eb_\u30b8\u30e5\u30a8\u30eb\u30ad\u30fc",
        "hIWFDi72": "0",
        "BgR6ine9": "0",
        "hns35kNL": "3",
        "P_CREATEDATE": "2018-06-25 02:19:06",
        "P_UPDATEDATE": "2018-06-25 02:19:06"
    },
    {
        "P_COUNTER_ID": "1088",
        "P_NAME": "\u529f\u7e3e\u4ea4\u63db\u6240\u30b5\u30a4\u30af\u30eb_\u30d0\u30fc\u30b9\u30c8\u30af\u30c3\u30ad\u30fc",
        "hIWFDi72": "0",
        "BgR6ine9": "0",
        "hns35kNL": "3",
        "P_CREATEDATE": "2018-06-25 02:19:06",
        "P_UPDATEDATE": "2018-06-25 02:19:06"
    },
    {
        "P_COUNTER_ID": "1089",
        "P_NAME": "\u529f\u7e3e\u4ea4\u63db\u6240\u30b5\u30a4\u30af\u30eb_\u773c1",
        "hIWFDi72": "0",
        "BgR6ine9": "0",
        "hns35kNL": "5",
        "P_CREATEDATE": "2018-06-25 02:19:06",
        "P_UPDATEDATE": "2018-06-25 02:19:06"
    },
    {
        "P_COUNTER_ID": "1090",
        "P_NAME": "\u529f\u7e3e\u4ea4\u63db\u6240\u30b5\u30a4\u30af\u30eb_\u773c2",
        "hIWFDi72": "0",
        "BgR6ine9": "0",
        "hns35kNL": "5",
        "P_CREATEDATE": "2018-06-25 02:19:06",
        "P_UPDATEDATE": "2018-06-25 02:19:06"
    },
    {
        "P_COUNTER_ID": "1091",
        "P_NAME": "\u529f\u7e3e\u4ea4\u63db\u6240\u30b5\u30a4\u30af\u30eb_\u9752\u7d20\u67501",
        "hIWFDi72": "0",
        "BgR6ine9": "0",
        "hns35kNL": "5",
        "P_CREATEDATE": "2018-06-25 02:19:06",
        "P_UPDATEDATE": "2018-06-25 02:19:06"
    },
    {
        "P_COUNTER_ID": "1092",
        "P_NAME": "\u529f\u7e3e\u4ea4\u63db\u6240\u30b5\u30a4\u30af\u30eb_\u8d64\u7d20\u67501",
        "hIWFDi72": "0",
        "BgR6ine9": "0",
        "hns35kNL": "3",
        "P_CREATEDATE": "2018-06-25 02:19:06",
        "P_UPDATEDATE": "2018-06-25 02:19:06"
    },
    {
        "P_COUNTER_ID": "1093",
        "P_NAME": "\u529f\u7e3e\u4ea4\u63db\u6240\u30b5\u30a4\u30af\u30eb_\u9752\u7d20\u67502",
        "hIWFDi72": "0",
        "BgR6ine9": "0",
        "hns35kNL": "5",
        "P_CREATEDATE": "2018-06-25 02:19:06",
        "P_UPDATEDATE": "2018-06-25 02:19:06"
    },
    {
        "P_COUNTER_ID": "1094",
        "P_NAME": "\u529f\u7e3e\u4ea4\u63db\u6240\u30b5\u30a4\u30af\u30eb_\u8d64\u7d20\u67502",
        "hIWFDi72": "0",
        "BgR6ine9": "0",
        "hns35kNL": "3",
        "P_CREATEDATE": "2018-06-25 02:19:06",
        "P_UPDATEDATE": "2018-06-25 02:19:06"
    },
    {
        "P_COUNTER_ID": "1095",
        "P_NAME": "\u529f\u7e3e\u4ea4\u63db\u6240\u30b5\u30a4\u30af\u30eb_\u6b66\u5668\u7d20\u67501",
        "hIWFDi72": "0",
        "BgR6ine9": "0",
        "hns35kNL": "5",
        "P_CREATEDATE": "2018-06-25 02:19:06",
        "P_UPDATEDATE": "2018-06-25 02:19:06"
    },
    {
        "P_COUNTER_ID": "1096",
        "P_NAME": "\u529f\u7e3e\u4ea4\u63db\u6240\u30b5\u30a4\u30af\u30eb_\u6b66\u5668\u7d20\u67502",
        "hIWFDi72": "0",
        "BgR6ine9": "0",
        "hns35kNL": "3",
        "P_CREATEDATE": "2018-06-25 02:19:06",
        "P_UPDATEDATE": "2018-06-25 02:19:06"
    },
    {
        "P_COUNTER_ID": "1097",
        "P_NAME": "\u529f\u7e3e\u4ea4\u63db\u6240\u30b5\u30a4\u30af\u30eb_\u30e1\u30bf\u30eb\u30ad\u30fc",
        "hIWFDi72": "0",
        "BgR6ine9": "0",
        "hns35kNL": "3",
        "P_CREATEDATE": "2018-06-25 02:19:06",
        "P_UPDATEDATE": "2018-06-25 02:19:06"
    },
    {
        "P_COUNTER_ID": "1098",
        "P_NAME": "\u529f\u7e3e\u4ea4\u63db\u6240\u30b5\u30a4\u30af\u30eb_\u30b8\u30e5\u30a8\u30eb\u30ad\u30fc",
        "hIWFDi72": "0",
        "BgR6ine9": "0",
        "hns35kNL": "3",
        "P_CREATEDATE": "2018-06-25 02:19:06",
        "P_UPDATEDATE": "2018-06-25 02:19:06"
    },
    {
        "P_COUNTER_ID": "1099",
        "P_NAME": "\u529f\u7e3e\u4ea4\u63db\u6240\u30b5\u30a4\u30af\u30eb_\u30d0\u30fc\u30b9\u30c8\u30af\u30c3\u30ad\u30fc",
        "hIWFDi72": "0",
        "BgR6ine9": "0",
        "hns35kNL": "3",
        "P_CREATEDATE": "2018-06-25 02:19:06",
        "P_UPDATEDATE": "2018-06-25 02:19:06"
    },
    {
        "P_COUNTER_ID": "1100",
        "P_NAME": "\u529f\u7e3e\u4ea4\u63db\u6240\u30b5\u30a4\u30af\u30eb_\u773c1",
        "hIWFDi72": "0",
        "BgR6ine9": "0",
        "hns35kNL": "5",
        "P_CREATEDATE": "2018-06-25 02:19:06",
        "P_UPDATEDATE": "2018-06-25 02:19:06"
    },
    {
        "P_COUNTER_ID": "1101",
        "P_NAME": "\u529f\u7e3e\u4ea4\u63db\u6240\u30b5\u30a4\u30af\u30eb_\u773c2",
        "hIWFDi72": "0",
        "BgR6ine9": "0",
        "hns35kNL": "5",
        "P_CREATEDATE": "2018-06-25 02:19:06",
        "P_UPDATEDATE": "2018-06-25 02:19:06"
    },
    {
        "P_COUNTER_ID": "1102",
        "P_NAME": "\u529f\u7e3e\u4ea4\u63db\u6240\u30b5\u30a4\u30af\u30eb_\u9752\u7d20\u67501",
        "hIWFDi72": "0",
        "BgR6ine9": "0",
        "hns35kNL": "5",
        "P_CREATEDATE": "2018-06-25 02:19:06",
        "P_UPDATEDATE": "2018-06-25 02:19:06"
    },
    {
        "P_COUNTER_ID": "1103",
        "P_NAME": "\u529f\u7e3e\u4ea4\u63db\u6240\u30b5\u30a4\u30af\u30eb_\u8d64\u7d20\u67501",
        "hIWFDi72": "0",
        "BgR6ine9": "0",
        "hns35kNL": "3",
        "P_CREATEDATE": "2018-06-25 02:19:06",
        "P_UPDATEDATE": "2018-06-25 02:19:06"
    },
    {
        "P_COUNTER_ID": "1104",
        "P_NAME": "\u529f\u7e3e\u4ea4\u63db\u6240\u30b5\u30a4\u30af\u30eb_\u9752\u7d20\u67502",
        "hIWFDi72": "0",
        "BgR6ine9": "0",
        "hns35kNL": "5",
        "P_CREATEDATE": "2018-06-25 02:19:06",
        "P_UPDATEDATE": "2018-06-25 02:19:06"
    },
    {
        "P_COUNTER_ID": "1105",
        "P_NAME": "\u529f\u7e3e\u4ea4\u63db\u6240\u30b5\u30a4\u30af\u30eb_\u8d64\u7d20\u67502",
        "hIWFDi72": "0",
        "BgR6ine9": "0",
        "hns35kNL": "3",
        "P_CREATEDATE": "2018-06-25 02:19:06",
        "P_UPDATEDATE": "2018-06-25 02:19:06"
    },
    {
        "P_COUNTER_ID": "1106",
        "P_NAME": "\u529f\u7e3e\u4ea4\u63db\u6240\u30b5\u30a4\u30af\u30eb_\u6b66\u5668\u7d20\u67501",
        "hIWFDi72": "0",
        "BgR6ine9": "0",
        "hns35kNL": "5",
        "P_CREATEDATE": "2018-06-25 02:19:06",
        "P_UPDATEDATE": "2018-06-25 02:19:06"
    },
    {
        "P_COUNTER_ID": "1107",
        "P_NAME": "\u529f\u7e3e\u4ea4\u63db\u6240\u30b5\u30a4\u30af\u30eb_\u6b66\u5668\u7d20\u67502",
        "hIWFDi72": "0",
        "BgR6ine9": "0",
        "hns35kNL": "3",
        "P_CREATEDATE": "2018-06-25 02:19:06",
        "P_UPDATEDATE": "2018-06-25 02:19:06"
    },
    {
        "P_COUNTER_ID": "1108",
        "P_NAME": "\u529f\u7e3e\u4ea4\u63db\u6240\u30b5\u30a4\u30af\u30eb_\u30e1\u30bf\u30eb\u30ad\u30fc",
        "hIWFDi72": "0",
        "BgR6ine9": "0",
        "hns35kNL": "3",
        "P_CREATEDATE": "2018-06-25 02:19:06",
        "P_UPDATEDATE": "2018-06-25 02:19:06"
    },
    {
        "P_COUNTER_ID": "1109",
        "P_NAME": "\u529f\u7e3e\u4ea4\u63db\u6240\u30b5\u30a4\u30af\u30eb_\u30b8\u30e5\u30a8\u30eb\u30ad\u30fc",
        "hIWFDi72": "0",
        "BgR6ine9": "0",
        "hns35kNL": "3",
        "P_CREATEDATE": "2018-06-25 02:19:06",
        "P_UPDATEDATE": "2018-06-25 02:19:06"
    },
    {
        "P_COUNTER_ID": "1110",
        "P_NAME": "\u529f\u7e3e\u4ea4\u63db\u6240\u30b5\u30a4\u30af\u30eb_\u30d0\u30fc\u30b9\u30c8\u30af\u30c3\u30ad\u30fc",
        "hIWFDi72": "0",
        "BgR6ine9": "0",
        "hns35kNL": "3",
        "P_CREATEDATE": "2018-06-25 02:19:06",
        "P_UPDATEDATE": "2018-06-25 02:19:06"
    },
    {
        "P_COUNTER_ID": "1111",
        "P_NAME": "\u529f\u7e3e\u4ea4\u63db\u6240\u30b5\u30a4\u30af\u30eb_\u773c1",
        "hIWFDi72": "0",
        "BgR6ine9": "0",
        "hns35kNL": "5",
        "P_CREATEDATE": "2018-06-25 02:19:06",
        "P_UPDATEDATE": "2018-06-25 02:19:06"
    },
    {
        "P_COUNTER_ID": "1112",
        "P_NAME": "\u529f\u7e3e\u4ea4\u63db\u6240\u30b5\u30a4\u30af\u30eb_\u773c2",
        "hIWFDi72": "0",
        "BgR6ine9": "0",
        "hns35kNL": "5",
        "P_CREATEDATE": "2018-06-25 02:19:06",
        "P_UPDATEDATE": "2018-06-25 02:19:06"
    },
    {
        "P_COUNTER_ID": "1113",
        "P_NAME": "\u529f\u7e3e\u4ea4\u63db\u6240\u30b5\u30a4\u30af\u30eb_\u9752\u7d20\u67501",
        "hIWFDi72": "0",
        "BgR6ine9": "0",
        "hns35kNL": "5",
        "P_CREATEDATE": "2018-06-25 02:19:06",
        "P_UPDATEDATE": "2018-06-25 02:19:06"
    },
    {
        "P_COUNTER_ID": "1114",
        "P_NAME": "\u529f\u7e3e\u4ea4\u63db\u6240\u30b5\u30a4\u30af\u30eb_\u8d64\u7d20\u67501",
        "hIWFDi72": "0",
        "BgR6ine9": "0",
        "hns35kNL": "3",
        "P_CREATEDATE": "2018-06-25 02:19:06",
        "P_UPDATEDATE": "2018-06-25 02:19:06"
    },
    {
        "P_COUNTER_ID": "1115",
        "P_NAME": "\u529f\u7e3e\u4ea4\u63db\u6240\u30b5\u30a4\u30af\u30eb_\u9752\u7d20\u67502",
        "hIWFDi72": "0",
        "BgR6ine9": "0",
        "hns35kNL": "5",
        "P_CREATEDATE": "2018-06-25 02:19:06",
        "P_UPDATEDATE": "2018-06-25 02:19:06"
    },
    {
        "P_COUNTER_ID": "1116",
        "P_NAME": "\u529f\u7e3e\u4ea4\u63db\u6240\u30b5\u30a4\u30af\u30eb_\u8d64\u7d20\u67502",
        "hIWFDi72": "0",
        "BgR6ine9": "0",
        "hns35kNL": "3",
        "P_CREATEDATE": "2018-06-25 02:19:06",
        "P_UPDATEDATE": "2018-06-25 02:19:06"
    },
    {
        "P_COUNTER_ID": "1117",
        "P_NAME": "\u529f\u7e3e\u4ea4\u63db\u6240\u30b5\u30a4\u30af\u30eb_\u6b66\u5668\u7d20\u67501",
        "hIWFDi72": "0",
        "BgR6ine9": "0",
        "hns35kNL": "5",
        "P_CREATEDATE": "2018-06-25 02:19:06",
        "P_UPDATEDATE": "2018-06-25 02:19:06"
    },
    {
        "P_COUNTER_ID": "1118",
        "P_NAME": "\u529f\u7e3e\u4ea4\u63db\u6240\u30b5\u30a4\u30af\u30eb_\u6b66\u5668\u7d20\u67502",
        "hIWFDi72": "0",
        "BgR6ine9": "0",
        "hns35kNL": "3",
        "P_CREATEDATE": "2018-06-25 02:19:06",
        "P_UPDATEDATE": "2018-06-25 02:19:06"
    },
    {
        "P_COUNTER_ID": "1119",
        "P_NAME": "\u529f\u7e3e\u4ea4\u63db\u6240\u30b5\u30a4\u30af\u30eb_\u30e1\u30bf\u30eb\u30ad\u30fc",
        "hIWFDi72": "0",
        "BgR6ine9": "0",
        "hns35kNL": "3",
        "P_CREATEDATE": "2018-06-25 02:19:06",
        "P_UPDATEDATE": "2018-06-25 02:19:06"
    },
    {
        "P_COUNTER_ID": "1120",
        "P_NAME": "\u529f\u7e3e\u4ea4\u63db\u6240\u30b5\u30a4\u30af\u30eb_\u30b8\u30e5\u30a8\u30eb\u30ad\u30fc",
        "hIWFDi72": "0",
        "BgR6ine9": "0",
        "hns35kNL": "3",
        "P_CREATEDATE": "2018-06-25 02:19:06",
        "P_UPDATEDATE": "2018-06-25 02:19:06"
    },
    {
        "P_COUNTER_ID": "1121",
        "P_NAME": "\u529f\u7e3e\u4ea4\u63db\u6240\u30b5\u30a4\u30af\u30eb_\u30d0\u30fc\u30b9\u30c8\u30af\u30c3\u30ad\u30fc",
        "hIWFDi72": "0",
        "BgR6ine9": "0",
        "hns35kNL": "3",
        "P_CREATEDATE": "2018-06-25 02:19:06",
        "P_UPDATEDATE": "2018-06-25 02:19:06"
    },
    {
        "P_COUNTER_ID": "1122",
        "P_NAME": "\u529f\u7e3e\u4ea4\u63db\u6240\u30b5\u30a4\u30af\u30eb_\u773c1",
        "hIWFDi72": "0",
        "BgR6ine9": "0",
        "hns35kNL": "5",
        "P_CREATEDATE": "2018-06-25 02:19:06",
        "P_UPDATEDATE": "2018-06-25 02:19:06"
    },
    {
        "P_COUNTER_ID": "1123",
        "P_NAME": "\u529f\u7e3e\u4ea4\u63db\u6240\u30b5\u30a4\u30af\u30eb_\u773c2",
        "hIWFDi72": "0",
        "BgR6ine9": "0",
        "hns35kNL": "5",
        "P_CREATEDATE": "2018-06-25 02:19:06",
        "P_UPDATEDATE": "2018-06-25 02:19:06"
    },
    {
        "P_COUNTER_ID": "1124",
        "P_NAME": "\u529f\u7e3e\u4ea4\u63db\u6240\u30b5\u30a4\u30af\u30eb_\u9752\u7d20\u67501",
        "hIWFDi72": "0",
        "BgR6ine9": "0",
        "hns35kNL": "5",
        "P_CREATEDATE": "2018-06-25 02:19:06",
        "P_UPDATEDATE": "2018-06-25 02:19:06"
    },
    {
        "P_COUNTER_ID": "1125",
        "P_NAME": "\u529f\u7e3e\u4ea4\u63db\u6240\u30b5\u30a4\u30af\u30eb_\u8d64\u7d20\u67501",
        "hIWFDi72": "0",
        "BgR6ine9": "0",
        "hns35kNL": "3",
        "P_CREATEDATE": "2018-06-25 02:19:06",
        "P_UPDATEDATE": "2018-06-25 02:19:06"
    },
    {
        "P_COUNTER_ID": "1126",
        "P_NAME": "\u529f\u7e3e\u4ea4\u63db\u6240\u30b5\u30a4\u30af\u30eb_\u9752\u7d20\u67502",
        "hIWFDi72": "0",
        "BgR6ine9": "0",
        "hns35kNL": "5",
        "P_CREATEDATE": "2018-06-25 02:19:06",
        "P_UPDATEDATE": "2018-06-25 02:19:06"
    },
    {
        "P_COUNTER_ID": "1127",
        "P_NAME": "\u529f\u7e3e\u4ea4\u63db\u6240\u30b5\u30a4\u30af\u30eb_\u8d64\u7d20\u67502",
        "hIWFDi72": "0",
        "BgR6ine9": "0",
        "hns35kNL": "3",
        "P_CREATEDATE": "2018-06-25 02:19:06",
        "P_UPDATEDATE": "2018-06-25 02:19:06"
    },
    {
        "P_COUNTER_ID": "1128",
        "P_NAME": "\u529f\u7e3e\u4ea4\u63db\u6240\u30b5\u30a4\u30af\u30eb_\u6b66\u5668\u7d20\u67501",
        "hIWFDi72": "0",
        "BgR6ine9": "0",
        "hns35kNL": "5",
        "P_CREATEDATE": "2018-06-25 02:19:06",
        "P_UPDATEDATE": "2018-06-25 02:19:06"
    },
    {
        "P_COUNTER_ID": "1129",
        "P_NAME": "\u529f\u7e3e\u4ea4\u63db\u6240\u30b5\u30a4\u30af\u30eb_\u6b66\u5668\u7d20\u67502",
        "hIWFDi72": "0",
        "BgR6ine9": "0",
        "hns35kNL": "3",
        "P_CREATEDATE": "2018-06-25 02:19:06",
        "P_UPDATEDATE": "2018-06-25 02:19:06"
    },
    {
        "P_COUNTER_ID": "1130",
        "P_NAME": "\u529f\u7e3e\u4ea4\u63db\u6240\u30b5\u30a4\u30af\u30eb_\u30e1\u30bf\u30eb\u30ad\u30fc",
        "hIWFDi72": "0",
        "BgR6ine9": "0",
        "hns35kNL": "3",
        "P_CREATEDATE": "2018-06-25 02:19:06",
        "P_UPDATEDATE": "2018-06-25 02:19:06"
    },
    {
        "P_COUNTER_ID": "1131",
        "P_NAME": "\u529f\u7e3e\u4ea4\u63db\u6240\u30b5\u30a4\u30af\u30eb_\u30b8\u30e5\u30a8\u30eb\u30ad\u30fc",
        "hIWFDi72": "0",
        "BgR6ine9": "0",
        "hns35kNL": "3",
        "P_CREATEDATE": "2018-06-25 02:19:06",
        "P_UPDATEDATE": "2018-06-25 02:19:06"
    },
    {
        "P_COUNTER_ID": "1132",
        "P_NAME": "\u529f\u7e3e\u4ea4\u63db\u6240\u30b5\u30a4\u30af\u30eb_\u30d0\u30fc\u30b9\u30c8\u30af\u30c3\u30ad\u30fc",
        "hIWFDi72": "0",
        "BgR6ine9": "0",
        "hns35kNL": "3",
        "P_CREATEDATE": "2018-06-25 02:19:06",
        "P_UPDATEDATE": "2018-06-25 02:19:06"
    }
]