[
    {
        "0g14jZbc": "111",
        "kVd1jmT4": "2,TestAnime:unit_anime_xxxxx.png:unit_cgg_xxxxx.csv:unit_atk_cgs_xxxxx.csv",
        "P_CREATEDATE": "2018-09-25 03:14:55",
        "P_UPDATEDATE": "2018-09-25 03:14:55"
    },
    {
        "0g14jZbc": "112",
        "kVd1jmT4": "2,0:\uff58xx.png:\uff58xx.cgg:\uff58xx.cgs:\uff58xx.cgs",
        "P_CREATEDATE": "2018-09-25 03:14:55",
        "P_UPDATEDATE": "2018-09-25 03:14:55"
    },
    {
        "0g14jZbc": "113",
        "kVd1jmT4": "3,0",
        "P_CREATEDATE": "2018-09-25 03:14:55",
        "P_UPDATEDATE": "2018-09-25 03:14:55"
    },
    {
        "0g14jZbc": "221",
        "kVd1jmT4": "1,0",
        "P_CREATEDATE": "2018-09-25 03:14:55",
        "P_UPDATEDATE": "2018-09-25 03:14:55"
    },
    {
        "0g14jZbc": "222",
        "kVd1jmT4": "2,\uff58xx.cgg:\uff58xx.cgs:\uff58xx.cgs:\uff58xx.cgs:\uff58xx.cgs",
        "P_CREATEDATE": "2018-09-25 03:14:55",
        "P_UPDATEDATE": "2018-09-25 03:14:55"
    },
    {
        "0g14jZbc": "223",
        "kVd1jmT4": "3,0",
        "P_CREATEDATE": "2018-09-25 03:14:55",
        "P_UPDATEDATE": "2018-09-25 03:14:55"
    },
    {
        "0g14jZbc": "331",
        "kVd1jmT4": "1,0",
        "P_CREATEDATE": "2018-09-25 03:14:55",
        "P_UPDATEDATE": "2018-09-25 03:14:55"
    },
    {
        "0g14jZbc": "332",
        "kVd1jmT4": "2,\uff58xx.cgg:\uff58xx.cgs:\uff58xx.cgs:\uff58xx.cgs:\uff58xx.cgs",
        "P_CREATEDATE": "2018-09-25 03:14:55",
        "P_UPDATEDATE": "2018-09-25 03:14:55"
    },
    {
        "0g14jZbc": "333",
        "kVd1jmT4": "3,0",
        "P_CREATEDATE": "2018-09-25 03:14:55",
        "P_UPDATEDATE": "2018-09-25 03:14:55"
    },
    {
        "0g14jZbc": "100014",
        "kVd1jmT4": "2,100014:unit_xbb_anime_100014.png:unit_xbb_cgg_100014.csv:unit_xbb_cgs_100014.csv",
        "P_CREATEDATE": "2018-09-25 03:14:55",
        "P_UPDATEDATE": "2018-09-25 03:14:55"
    },
    {
        "0g14jZbc": "200012",
        "kVd1jmT4": "2,200012:unit_xbb_anime_200012.png:unit_xbb_cgg_200012.csv:unit_xbb_cgs_200012.csv",
        "P_CREATEDATE": "2018-09-25 03:14:55",
        "P_UPDATEDATE": "2018-09-25 03:14:55"
    },
    {
        "0g14jZbc": "200014",
        "kVd1jmT4": "2,200014:unit_xbb_anime_200014.png:unit_xbb_cgg_200014.csv:unit_xbb_cgs_200014.csv",
        "P_CREATEDATE": "2018-09-25 03:14:55",
        "P_UPDATEDATE": "2018-09-25 03:14:55"
    },
    {
        "0g14jZbc": "200024",
        "kVd1jmT4": "2,200024:unit_xbb_anime_200024.png:unit_xbb_cgg_200024.csv:unit_xbb_cgs_200024.csv",
        "P_CREATEDATE": "2018-09-25 03:14:55",
        "P_UPDATEDATE": "2018-09-25 03:14:55"
    },
    {
        "0g14jZbc": "200034",
        "kVd1jmT4": "2,200034:unit_xbb_anime_200034.png:unit_xbb_cgg_200034.csv:unit_xbb_cgs_200034.csv",
        "P_CREATEDATE": "2018-09-25 03:14:55",
        "P_UPDATEDATE": "2018-09-25 03:14:55"
    },
    {
        "0g14jZbc": "200044",
        "kVd1jmT4": "2,200044:unit_xbb_anime_200044.png:unit_xbb_cgg_200044.csv:unit_xbb_cgs_200044.csv",
        "P_CREATEDATE": "2018-09-25 03:14:55",
        "P_UPDATEDATE": "2018-09-25 03:14:55"
    },
    {
        "0g14jZbc": "200054",
        "kVd1jmT4": "2,200054:unit_xbb_anime_200054.png:unit_xbb_cgg_200054.csv:unit_xbb_cgs_200054.csv",
        "P_CREATEDATE": "2018-09-25 03:14:55",
        "P_UPDATEDATE": "2018-09-25 03:14:55"
    },
    {
        "0g14jZbc": "200064",
        "kVd1jmT4": "2,200064:unit_xbb_anime_200064.png:unit_xbb_cgg_200064.csv:unit_xbb_cgs_200064.csv",
        "P_CREATEDATE": "2018-09-25 03:14:55",
        "P_UPDATEDATE": "2018-09-25 03:14:55"
    },
    {
        "0g14jZbc": "200074",
        "kVd1jmT4": "2,200074:unit_xbb_anime_200074.png:unit_xbb_cgg_200074.csv:unit_xbb_cgs_200074.csv",
        "P_CREATEDATE": "2018-09-25 03:14:55",
        "P_UPDATEDATE": "2018-09-25 03:14:55"
    },
    {
        "0g14jZbc": "200084",
        "kVd1jmT4": "2,200084:unit_xbb_anime_200084.png:unit_xbb_cgg_200084.csv:unit_xbb_cgs_200084.csv",
        "P_CREATEDATE": "2018-09-25 03:14:55",
        "P_UPDATEDATE": "2018-09-25 03:14:55"
    },
    {
        "0g14jZbc": "200094",
        "kVd1jmT4": "2,200094:unit_xbb_anime_200094.png:unit_xbb_cgg_200094.csv:unit_xbb_cgs_200094.csv",
        "P_CREATEDATE": "2018-09-25 03:14:55",
        "P_UPDATEDATE": "2018-09-25 03:14:55"
    },
    {
        "0g14jZbc": "200104",
        "kVd1jmT4": "2,200104:unit_xbb_anime_200104.png:unit_xbb_cgg_200104.csv:unit_xbb_cgs_200104.csv",
        "P_CREATEDATE": "2018-09-25 03:14:55",
        "P_UPDATEDATE": "2018-09-25 03:14:55"
    },
    {
        "0g14jZbc": "200114",
        "kVd1jmT4": "2,200114:unit_xbb_anime_200114.png:unit_xbb_cgg_200114.csv:unit_xbb_cgs_200114.csv",
        "P_CREATEDATE": "2018-09-25 03:14:55",
        "P_UPDATEDATE": "2018-09-25 03:14:55"
    },
    {
        "0g14jZbc": "200124",
        "kVd1jmT4": "2,200124:unit_xbb_anime_200124.png:unit_xbb_cgg_200124.csv:unit_xbb_cgs_200124.csv",
        "P_CREATEDATE": "2018-09-25 03:14:55",
        "P_UPDATEDATE": "2018-09-25 03:14:55"
    },
    {
        "0g14jZbc": "200134",
        "kVd1jmT4": "2,200134:unit_xbb_anime_200134.png:unit_xbb_cgg_200134.csv:unit_xbb_cgs_200134.csv",
        "P_CREATEDATE": "2018-09-25 03:14:55",
        "P_UPDATEDATE": "2018-09-25 03:14:55"
    },
    {
        "0g14jZbc": "200144",
        "kVd1jmT4": "2,200144:unit_xbb_anime_200144.png:unit_xbb_cgg_200144.csv:unit_xbb_cgs_200144.csv",
        "P_CREATEDATE": "2018-09-25 03:14:55",
        "P_UPDATEDATE": "2018-09-25 03:14:55"
    },
    {
        "0g14jZbc": "200154",
        "kVd1jmT4": "2,200154:unit_xbb_anime_200154.png:unit_xbb_cgg_200154.csv:unit_xbb_cgs_200154.csv",
        "P_CREATEDATE": "2018-09-25 03:14:55",
        "P_UPDATEDATE": "2018-09-25 03:14:55"
    },
    {
        "0g14jZbc": "200164",
        "kVd1jmT4": "2,200164:unit_xbb_anime_200164.png:unit_xbb_cgg_200164.csv:unit_xbb_cgs_200164.csv",
        "P_CREATEDATE": "2018-09-25 03:14:55",
        "P_UPDATEDATE": "2018-09-25 03:14:55"
    },
    {
        "0g14jZbc": "200174",
        "kVd1jmT4": "2,200174:unit_xbb_anime_200174.png:unit_xbb_cgg_200174.csv:unit_xbb_cgs_200174.csv",
        "P_CREATEDATE": "2018-09-25 03:14:55",
        "P_UPDATEDATE": "2018-09-25 03:14:55"
    },
    {
        "0g14jZbc": "200184",
        "kVd1jmT4": "2,200184:unit_xbb_anime_200184.png:unit_xbb_cgg_200184.csv:unit_xbb_cgs_200184.csv",
        "P_CREATEDATE": "2018-09-25 03:14:55",
        "P_UPDATEDATE": "2018-09-25 03:14:55"
    },
    {
        "0g14jZbc": "200194",
        "kVd1jmT4": "2,200194:unit_xbb_anime_200194.png:unit_xbb_cgg_200194.csv:unit_xbb_cgs_200194.csv",
        "P_CREATEDATE": "2018-09-25 03:14:55",
        "P_UPDATEDATE": "2018-09-25 03:14:55"
    },
    {
        "0g14jZbc": "200204",
        "kVd1jmT4": "2,200204:unit_xbb_anime_200204.png:unit_xbb_cgg_200204.csv:unit_xbb_cgs_200204.csv",
        "P_CREATEDATE": "2018-09-25 03:14:55",
        "P_UPDATEDATE": "2018-09-25 03:14:55"
    },
    {
        "0g14jZbc": "200214",
        "kVd1jmT4": "2,200214:unit_xbb_anime_200214.png:unit_xbb_cgg_200214.csv:unit_xbb_cgs_200214.csv",
        "P_CREATEDATE": "2018-09-25 03:14:55",
        "P_UPDATEDATE": "2018-09-25 03:14:55"
    },
    {
        "0g14jZbc": "200224",
        "kVd1jmT4": "2,200224:unit_xbb_anime_200224.png:unit_xbb_cgg_200224.csv:unit_xbb_cgs_200224.csv",
        "P_CREATEDATE": "2018-09-25 03:14:55",
        "P_UPDATEDATE": "2018-09-25 03:14:55"
    },
    {
        "0g14jZbc": "200234",
        "kVd1jmT4": "2,200234:unit_xbb_anime_200234.png:unit_xbb_cgg_200234.csv:unit_xbb_cgs_200234.csv",
        "P_CREATEDATE": "2018-09-25 03:14:55",
        "P_UPDATEDATE": "2018-09-25 03:14:55"
    },
    {
        "0g14jZbc": "200244",
        "kVd1jmT4": "2,200244:unit_xbb_anime_200244.png:unit_xbb_cgg_200244.csv:unit_xbb_cgs_200244.csv",
        "P_CREATEDATE": "2018-09-25 03:14:55",
        "P_UPDATEDATE": "2018-09-25 03:14:55"
    },
    {
        "0g14jZbc": "200254",
        "kVd1jmT4": "2,200254:unit_xbb_anime_200254.png:unit_xbb_cgg_200254.csv:unit_xbb_cgs_200254.csv",
        "P_CREATEDATE": "2018-09-25 03:14:55",
        "P_UPDATEDATE": "2018-09-25 03:14:55"
    },
    {
        "0g14jZbc": "200264",
        "kVd1jmT4": "2,200264:unit_xbb_anime_200264.png:unit_xbb_cgg_200264.csv:unit_xbb_cgs_200264.csv",
        "P_CREATEDATE": "2018-09-25 03:14:55",
        "P_UPDATEDATE": "2018-09-25 03:14:55"
    },
    {
        "0g14jZbc": "200274",
        "kVd1jmT4": "2,200274:unit_xbb_anime_200274.png:unit_xbb_cgg_200274.csv:unit_xbb_cgs_200274.csv",
        "P_CREATEDATE": "2018-09-25 03:14:55",
        "P_UPDATEDATE": "2018-09-25 03:14:55"
    },
    {
        "0g14jZbc": "200284",
        "kVd1jmT4": "2,200284:unit_xbb_anime_200284.png:unit_xbb_cgg_200284.csv:unit_xbb_cgs_200284.csv",
        "P_CREATEDATE": "2018-09-25 03:14:55",
        "P_UPDATEDATE": "2018-09-25 03:14:55"
    },
    {
        "0g14jZbc": "200294",
        "kVd1jmT4": "2,200294:unit_xbb_anime_200294.png:unit_xbb_cgg_200294.csv:unit_xbb_cgs_200294.csv",
        "P_CREATEDATE": "2018-09-25 03:14:55",
        "P_UPDATEDATE": "2018-09-25 03:14:55"
    },
    {
        "0g14jZbc": "200304",
        "kVd1jmT4": "2,200304:unit_xbb_anime_200304.png:unit_xbb_cgg_200304.csv:unit_xbb_cgs_200304.csv",
        "P_CREATEDATE": "2018-09-25 03:14:55",
        "P_UPDATEDATE": "2018-09-25 03:14:55"
    },
    {
        "0g14jZbc": "200314",
        "kVd1jmT4": "2,200314:unit_xbb_anime_200314.png:unit_xbb_cgg_200314.csv:unit_xbb_cgs_200314.csv",
        "P_CREATEDATE": "2018-09-25 03:14:55",
        "P_UPDATEDATE": "2018-09-25 03:14:55"
    },
    {
        "0g14jZbc": "200324",
        "kVd1jmT4": "2,200324:unit_xbb_anime_200324_HERO.png:unit_xbb_cgg_200324_HERO.csv:unit_xbb_cgs_200324_HERO.csv",
        "P_CREATEDATE": "2018-09-25 03:14:55",
        "P_UPDATEDATE": "2018-09-25 03:14:55"
    },
    {
        "0g14jZbc": "200334",
        "kVd1jmT4": "2,200334:unit_xbb_anime_200334.png:unit_xbb_cgg_200334.csv:unit_xbb_cgs_200334.csv",
        "P_CREATEDATE": "2018-09-25 03:14:55",
        "P_UPDATEDATE": "2018-09-25 03:14:55"
    },
    {
        "0g14jZbc": "200344",
        "kVd1jmT4": "2,200344:unit_xbb_anime_200344.png:unit_xbb_cgg_200344.csv:unit_xbb_cgs_200344.csv",
        "P_CREATEDATE": "2018-09-25 03:14:55",
        "P_UPDATEDATE": "2018-09-25 03:14:55"
    },
    {
        "0g14jZbc": "200354",
        "kVd1jmT4": "2,200354:unit_xbb_anime_200354.png:unit_xbb_cgg_200354.csv:unit_xbb_cgs_200354.csv",
        "P_CREATEDATE": "2018-09-25 03:14:55",
        "P_UPDATEDATE": "2018-09-25 03:14:55"
    },
    {
        "0g14jZbc": "200364",
        "kVd1jmT4": "2,200364:unit_xbb_anime_200364.png:unit_xbb_cgg_200364.csv:unit_xbb_cgs_200364.csv",
        "P_CREATEDATE": "2018-09-25 03:14:55",
        "P_UPDATEDATE": "2018-09-25 03:14:55"
    },
    {
        "0g14jZbc": "200374",
        "kVd1jmT4": "2,200374:unit_xbb_anime_200374.png:unit_xbb_cgg_200374.csv:unit_xbb_cgs_200374.csv",
        "P_CREATEDATE": "2018-09-25 03:14:55",
        "P_UPDATEDATE": "2018-09-25 03:14:55"
    },
    {
        "0g14jZbc": "200384",
        "kVd1jmT4": "2,200384:unit_xbb_anime_200384.png:unit_xbb_cgg_200384.csv:unit_xbb_cgs_200384.csv",
        "P_CREATEDATE": "2018-09-25 03:14:55",
        "P_UPDATEDATE": "2018-09-25 03:14:55"
    },
    {
        "0g14jZbc": "200394",
        "kVd1jmT4": "2,200394:unit_xbb_anime_200394.png:unit_xbb_cgg_200394.csv:unit_xbb_cgs_200394.csv",
        "P_CREATEDATE": "2018-09-25 03:14:55",
        "P_UPDATEDATE": "2018-09-25 03:14:55"
    },
    {
        "0g14jZbc": "200404",
        "kVd1jmT4": "2,200404:unit_xbb_anime_200404.png:unit_xbb_cgg_200404.csv:unit_xbb_cgs_200404.csv",
        "P_CREATEDATE": "2018-09-25 03:14:55",
        "P_UPDATEDATE": "2018-09-25 03:14:55"
    },
    {
        "0g14jZbc": "300014",
        "kVd1jmT4": "2,300014:unit_xbb_anime_300014.png:unit_xbb_cgg_300014.csv:unit_xbb_cgs_300014.csv",
        "P_CREATEDATE": "2018-09-25 03:14:55",
        "P_UPDATEDATE": "2018-09-25 03:14:55"
    },
    {
        "0g14jZbc": "300024",
        "kVd1jmT4": "2,300024:unit_xbb_anime_300024.png:unit_xbb_cgg_300024.csv:unit_xbb_cgs_300024.csv",
        "P_CREATEDATE": "2018-09-25 03:14:55",
        "P_UPDATEDATE": "2018-09-25 03:14:55"
    },
    {
        "0g14jZbc": "300034",
        "kVd1jmT4": "2,300034:unit_xbb_anime_300034.png:unit_xbb_cgg_300034.csv:unit_xbb_cgs_300034.csv",
        "P_CREATEDATE": "2018-09-25 03:14:55",
        "P_UPDATEDATE": "2018-09-25 03:14:55"
    },
    {
        "0g14jZbc": "300044",
        "kVd1jmT4": "2,300044:unit_xbb_anime_300044.png:unit_xbb_cgg_300044.csv:unit_xbb_cgs_300044.csv",
        "P_CREATEDATE": "2018-09-25 03:14:55",
        "P_UPDATEDATE": "2018-09-25 03:14:55"
    },
    {
        "0g14jZbc": "300054",
        "kVd1jmT4": "2,300054:unit_xbb_anime_300054.png:unit_xbb_cgg_300054.csv:unit_xbb_cgs_300054.csv",
        "P_CREATEDATE": "2018-09-25 03:14:55",
        "P_UPDATEDATE": "2018-09-25 03:14:55"
    },
    {
        "0g14jZbc": "300064",
        "kVd1jmT4": "2,300064:unit_xbb_anime_300064.png:unit_xbb_cgg_300064.csv:unit_xbb_cgs_300064.csv",
        "P_CREATEDATE": "2018-09-25 03:14:55",
        "P_UPDATEDATE": "2018-09-25 03:14:55"
    },
    {
        "0g14jZbc": "400014",
        "kVd1jmT4": "2,400014:unit_xbb_anime_400014.png:unit_xbb_cgg_400014.csv:unit_xbb_cgs_400014.csv",
        "P_CREATEDATE": "2018-09-25 03:14:55",
        "P_UPDATEDATE": "2018-09-25 03:14:55"
    },
    {
        "0g14jZbc": "400024",
        "kVd1jmT4": "2,400024:unit_xbb_anime_400024.png:unit_xbb_cgg_400024.csv:unit_xbb_cgs_400024.csv",
        "P_CREATEDATE": "2018-09-25 03:14:55",
        "P_UPDATEDATE": "2018-09-25 03:14:55"
    },
    {
        "0g14jZbc": "400034",
        "kVd1jmT4": "2,400034:unit_xbb_anime_400034.png:unit_xbb_cgg_400034.csv:unit_xbb_cgs_400034.csv",
        "P_CREATEDATE": "2018-09-25 03:14:55",
        "P_UPDATEDATE": "2018-09-25 03:14:55"
    },
    {
        "0g14jZbc": "500014",
        "kVd1jmT4": "2,500014:unit_xbb_anime_500014.png:unit_xbb_cgg_500014.csv:unit_xbb_cgs_500014.csv",
        "P_CREATEDATE": "2018-09-25 03:14:55",
        "P_UPDATEDATE": "2018-09-25 03:14:55"
    },
    {
        "0g14jZbc": "500024",
        "kVd1jmT4": "2,500024:unit_xbb_anime_500024.png:unit_xbb_cgg_500024.csv:unit_xbb_cgs_500024.csv",
        "P_CREATEDATE": "2018-09-25 03:14:55",
        "P_UPDATEDATE": "2018-09-25 03:14:55"
    },
    {
        "0g14jZbc": "500034",
        "kVd1jmT4": "2,500034:unit_xbb_anime_500034.png:unit_xbb_cgg_500034.csv:unit_xbb_cgs_500034.csv",
        "P_CREATEDATE": "2018-09-25 03:14:55",
        "P_UPDATEDATE": "2018-09-25 03:14:55"
    },
    {
        "0g14jZbc": "500044",
        "kVd1jmT4": "2,500044:unit_xbb_anime_500044.png:unit_xbb_cgg_500044.csv:unit_xbb_cgs_500044.csv",
        "P_CREATEDATE": "2018-09-25 03:14:55",
        "P_UPDATEDATE": "2018-09-25 03:14:55"
    },
    {
        "0g14jZbc": "600014",
        "kVd1jmT4": "2,600014:unit_xbb_anime_600014.png:unit_xbb_cgg_600014.csv:unit_xbb_cgs_600014.csv",
        "P_CREATEDATE": "2018-09-25 03:14:55",
        "P_UPDATEDATE": "2018-09-25 03:14:55"
    },
    {
        "0g14jZbc": "600024",
        "kVd1jmT4": "2,600024:unit_xbb_anime_600024.png:unit_xbb_cgg_600024.csv:unit_xbb_cgs_600024.csv",
        "P_CREATEDATE": "2018-09-25 03:14:55",
        "P_UPDATEDATE": "2018-09-25 03:14:55"
    },
    {
        "0g14jZbc": "600034",
        "kVd1jmT4": "2,600034:unit_xbb_anime_600034.png:unit_xbb_cgg_600034.csv:unit_xbb_cgs_600034.csv",
        "P_CREATEDATE": "2018-09-25 03:14:55",
        "P_UPDATEDATE": "2018-09-25 03:14:55"
    },
    {
        "0g14jZbc": "600040",
        "kVd1jmT4": "2,600040:unit_xbb_anime_600040.png:unit_xbb_cgg_600040.csv:unit_xbb_cgs_600040.csv",
        "P_CREATEDATE": "2018-09-25 03:14:55",
        "P_UPDATEDATE": "2018-09-25 03:14:55"
    },
    {
        "0g14jZbc": "600054",
        "kVd1jmT4": "2,600054:unit_xbb_anime_600054.png:unit_xbb_cgg_600054.csv:unit_xbb_cgs_600054.csv",
        "P_CREATEDATE": "2018-09-25 03:14:55",
        "P_UPDATEDATE": "2018-09-25 03:14:55"
    },
    {
        "0g14jZbc": "600064",
        "kVd1jmT4": "2,600064:unit_xbb_anime_600064.png:unit_xbb_cgg_600064.csv:unit_xbb_cgs_600064.csv",
        "P_CREATEDATE": "2018-09-25 03:14:55",
        "P_UPDATEDATE": "2018-09-25 03:14:55"
    },
    {
        "0g14jZbc": "2031001",
        "kVd1jmT4": "2,2031001:unit_xbb_anime_2031001.png:unit_xbb_cgg_2031001.csv:unit_xbb_cgs_2031001.csv",
        "P_CREATEDATE": "2018-09-25 03:14:55",
        "P_UPDATEDATE": "2018-09-25 03:14:55"
    },
    {
        "0g14jZbc": "2031002",
        "kVd1jmT4": "2,2031002:unit_xbb_anime_2031002.png:unit_xbb_cgg_2031002.csv:unit_xbb_cgs_2031002.csv",
        "P_CREATEDATE": "2018-09-25 03:14:55",
        "P_UPDATEDATE": "2018-09-25 03:14:55"
    }
]