[
    {
        "MFV1A4vj": "1",
        "r8Iq10fB": "\u5b9a\u5e38\u6642",
        "P_IMG": "",
        "P_SOUND_ID": "1",
        "P_PRIORITY": "1",
        "P_SCHEDULE_ID": "0",
        "P_CREATEDATE": "2018-02-14 03:08:29",
        "P_UPDATEDATE": "2018-02-14 03:08:29"
    },
    {
        "MFV1A4vj": "2",
        "r8Iq10fB": "\u30ea\u30ea\u30fc\u30b9\u8a18\u5ff5\u30ad\u30e3\u30f3\u30da\u30fc\u30f3",
        "P_IMG": "",
        "P_SOUND_ID": "1",
        "P_PRIORITY": "2",
        "P_SCHEDULE_ID": "51003",
        "P_CREATEDATE": "2018-02-14 03:08:29",
        "P_UPDATEDATE": "2018-02-14 03:08:29"
    }
]