[
    {
        "MFV1A4vj": "8",
        "r8Iq10fB": "\u30bb\u30c3\u30c8\u5272\u5f15",
        "P_IMG": "",
        "P_SOUND_ID": "1",
        "P_PRIORITY": "9",
        "P_SCHEDULE_ID": "50012"
    },
    {
        "MFV1A4vj": "9",
        "r8Iq10fB": "\u5341\u7ffc\u306e\u7834\u58ca\u8005",
        "P_IMG": "",
        "P_SOUND_ID": "1",
        "P_PRIORITY": "11",
        "P_SCHEDULE_ID": "50015"
    },
    {
        "MFV1A4vj": "11",
        "r8Iq10fB": "\u5341\u7ffc\u306e\u7834\u58ca\u8005\uff06\u7d46\u30ad\u30e3\u30f3\u30da\u30fc\u30f3",
        "P_IMG": "",
        "P_SOUND_ID": "1",
        "P_PRIORITY": "12",
        "P_SCHEDULE_ID": "50023"
    },
    {
        "MFV1A4vj": "12",
        "r8Iq10fB": "\u5341\u7ffc\u306e\u7834\u58ca\u8005",
        "P_IMG": "",
        "P_SOUND_ID": "1",
        "P_PRIORITY": "13",
        "P_SCHEDULE_ID": "50025"
    },
    {
        "MFV1A4vj": "13",
        "r8Iq10fB": "4\u6708\u30d4\u30c3\u30af\u30a2\u30c3\u30d71\uff06\u30bb\u30c3\u30c8\u5272\u5f15",
        "P_IMG": "",
        "P_SOUND_ID": "1",
        "P_PRIORITY": "14",
        "P_SCHEDULE_ID": "50027"
    },
    {
        "MFV1A4vj": "14",
        "r8Iq10fB": "4\u6708\u30d4\u30c3\u30af\u30a2\u30c3\u30d72\uff06\u30bb\u30c3\u30c8\u5272\u5f15",
        "P_IMG": "",
        "P_SOUND_ID": "1",
        "P_PRIORITY": "15",
        "P_SCHEDULE_ID": "50028"
    },
    {
        "MFV1A4vj": "15",
        "r8Iq10fB": "4\u6708\u30d4\u30c3\u30af\u30a2\u30c3\u30d73\uff06\u30bb\u30c3\u30c8\u5272\u5f15",
        "P_IMG": "",
        "P_SOUND_ID": "1",
        "P_PRIORITY": "16",
        "P_SCHEDULE_ID": "50029"
    },
    {
        "MFV1A4vj": "16",
        "r8Iq10fB": "4\u6708\u30d4\u30c3\u30af\u30a2\u30c3\u30d74\uff06\u30bb\u30c3\u30c8\u5272\u5f15",
        "P_IMG": "",
        "P_SOUND_ID": "1",
        "P_PRIORITY": "17",
        "P_SCHEDULE_ID": "50030"
    },
    {
        "MFV1A4vj": "17",
        "r8Iq10fB": "4\u6708\u30d4\u30c3\u30af\u30a2\u30c3\u30d75\uff06\u30bb\u30c3\u30c8\u5272\u5f15",
        "P_IMG": "",
        "P_SOUND_ID": "1",
        "P_PRIORITY": "18",
        "P_SCHEDULE_ID": "50031"
    },
    {
        "MFV1A4vj": "18",
        "r8Iq10fB": "4\u6708\u30d4\u30c3\u30af\u30a2\u30c3\u30d76\uff06\u30bb\u30c3\u30c8\u5272\u5f15",
        "P_IMG": "",
        "P_SOUND_ID": "1",
        "P_PRIORITY": "19",
        "P_SCHEDULE_ID": "50032"
    },
    {
        "MFV1A4vj": "19",
        "r8Iq10fB": "4\u6708\u30bb\u30c3\u30c8\u5272\u5f15",
        "P_IMG": "",
        "P_SOUND_ID": "1",
        "P_PRIORITY": "20",
        "P_SCHEDULE_ID": "50033"
    },
    {
        "MFV1A4vj": "20",
        "r8Iq10fB": "\u30ad\u30e7\u30a6\u30ea\u30e5\u30a6\u30b8\u30e3\u30fc",
        "P_IMG": "",
        "P_SOUND_ID": "1",
        "P_PRIORITY": "21",
        "P_SCHEDULE_ID": "50037"
    },
    {
        "MFV1A4vj": "21",
        "r8Iq10fB": "\u30ad\u30e7\u30a6\u30ea\u30e5\u30a6\u30b8\u30e3\u30fc\uff06\u7d46\u30ad\u30e3\u30f3\u30da\u30fc\u30f3",
        "P_IMG": "",
        "P_SOUND_ID": "1",
        "P_PRIORITY": "22",
        "P_SCHEDULE_ID": "50038"
    },
    {
        "MFV1A4vj": "22",
        "r8Iq10fB": "\u30ad\u30e7\u30a6\u30ea\u30e5\u30a6\u30b8\u30e3\u30fc",
        "P_IMG": "",
        "P_SOUND_ID": "1",
        "P_PRIORITY": "23",
        "P_SCHEDULE_ID": "50039"
    },
    {
        "MFV1A4vj": "23",
        "r8Iq10fB": "5\u6708\u30d4\u30c3\u30af\u30a2\u30c3\u30d71\uff06\u30bb\u30c3\u30c8\u5272\u5f15",
        "P_IMG": "",
        "P_SOUND_ID": "1",
        "P_PRIORITY": "24",
        "P_SCHEDULE_ID": "50050"
    },
    {
        "MFV1A4vj": "24",
        "r8Iq10fB": "5\u6708\u30d4\u30c3\u30af\u30a2\u30c3\u30d72\uff06\u30bb\u30c3\u30c8\u5272\u5f15",
        "P_IMG": "",
        "P_SOUND_ID": "1",
        "P_PRIORITY": "25",
        "P_SCHEDULE_ID": "50051"
    },
    {
        "MFV1A4vj": "25",
        "r8Iq10fB": "5\u6708\u30d4\u30c3\u30af\u30a2\u30c3\u30d73\uff06\u30bb\u30c3\u30c8\u5272\u5f15",
        "P_IMG": "",
        "P_SOUND_ID": "1",
        "P_PRIORITY": "26",
        "P_SCHEDULE_ID": "50052"
    },
    {
        "MFV1A4vj": "26",
        "r8Iq10fB": "\u9b54\u88c5\u5175\u5668\uff06\u53cd\u9006\u795e\u5f92",
        "P_IMG": "",
        "P_SOUND_ID": "1",
        "P_PRIORITY": "27",
        "P_SCHEDULE_ID": "50054"
    },
    {
        "MFV1A4vj": "27",
        "r8Iq10fB": "\u9b54\u88c5\u5175\u5668\uff06\u53cd\u9006\u795e\u5f92\uff06\u7d46",
        "P_IMG": "",
        "P_SOUND_ID": "1",
        "P_PRIORITY": "28",
        "P_SCHEDULE_ID": "50055"
    },
    {
        "MFV1A4vj": "28",
        "r8Iq10fB": "\u30e9\u30f3\u30c9\u30fc\u30eb\u30ac\u30fc\u30c9\uff06\u30cb\u30fc\u30ca\uff06\u65e7\u5272\u5f15\uff06\u7d46",
        "P_IMG": "",
        "P_SOUND_ID": "1",
        "P_PRIORITY": "29",
        "P_SCHEDULE_ID": "50065"
    },
    {
        "MFV1A4vj": "29",
        "r8Iq10fB": "\u30e9\u30f3\u30c9\u30fc\u30eb\u30ac\u30fc\u30c9\uff06\u30cb\u30fc\u30ca\uff06\u7d46",
        "P_IMG": "",
        "P_SOUND_ID": "1",
        "P_PRIORITY": "30",
        "P_SCHEDULE_ID": "50066"
    },
    {
        "MFV1A4vj": "30",
        "r8Iq10fB": "\u30e9\u30f3\u30c9\u30fc\u30eb\u30ac\u30fc\u30c9\uff06\u30cb\u30fc\u30ca",
        "P_IMG": "",
        "P_SOUND_ID": "1",
        "P_PRIORITY": "31",
        "P_SCHEDULE_ID": "50067"
    },
    {
        "MFV1A4vj": "31",
        "r8Iq10fB": "\u708e\u30fb\u6a39\u30fb\u5149\uff06\u5fcd\u3073\u5bc4\u308b\u60aa\u610f",
        "P_IMG": "",
        "P_SOUND_ID": "1",
        "P_PRIORITY": "32",
        "P_SCHEDULE_ID": "50071"
    },
    {
        "MFV1A4vj": "32",
        "r8Iq10fB": "\u6c34\u30fb\u96f7\u30fb\u95c7\uff06\u5fcd\u3073\u5bc4\u308b\u60aa\u610f",
        "P_IMG": "",
        "P_SOUND_ID": "1",
        "P_PRIORITY": "33",
        "P_SCHEDULE_ID": "50072"
    },
    {
        "MFV1A4vj": "33",
        "r8Iq10fB": "\u6c34\u30fb\u96f7\u30fb\u95c7\uff06\u5fcd\u3073\u5bc4\u308b\u60aa\u610f\uff066\u6708\u30d5\u30a7\u30d6\u30e9\u30fc\u5144\u5f1f_\u65e7\u7d46",
        "P_IMG": "",
        "P_SOUND_ID": "1",
        "P_PRIORITY": "34",
        "P_SCHEDULE_ID": "50075"
    },
    {
        "MFV1A4vj": "34",
        "r8Iq10fB": "6\u6708\u30d5\u30a7\u30d6\u30e9\u30fc\u5144\u5f1f_\u65e7\u7d46",
        "P_IMG": "",
        "P_SOUND_ID": "1",
        "P_PRIORITY": "35",
        "P_SCHEDULE_ID": "50076"
    },
    {
        "MFV1A4vj": "35",
        "r8Iq10fB": "6\u6708\u30d5\u30a7\u30d6\u30e9\u30fc\u5144\u5f1f\uff06\u65b0\u7d46CP",
        "P_IMG": "",
        "P_SOUND_ID": "1",
        "P_PRIORITY": "36",
        "P_SCHEDULE_ID": "50077"
    },
    {
        "MFV1A4vj": "36",
        "r8Iq10fB": "6\u6708\u30d5\u30a7\u30d6\u30e9\u30fc\u5144\u5f1f_\u65b0\u7d46",
        "P_IMG": "",
        "P_SOUND_ID": "1",
        "P_PRIORITY": "37",
        "P_SCHEDULE_ID": "50078"
    },
    {
        "MFV1A4vj": "37",
        "r8Iq10fB": "6\u6708\u30d5\u30a7\u30d6\u30e9\u30fc\u5144\u5f1f\uff067\u6708\u30e1\u30a4\u30ea\u30b9\u524d\u534a\uff06\u30cd\u30ab\u30a6",
        "P_IMG": "",
        "P_SOUND_ID": "1",
        "P_PRIORITY": "38",
        "P_SCHEDULE_ID": "50091"
    },
    {
        "MFV1A4vj": "38",
        "r8Iq10fB": "7\u6708\u30e1\u30a4\u30ea\u30b9\u524d\u534a\uff06\u30cd\u30ab\u30a6",
        "P_IMG": "",
        "P_SOUND_ID": "1",
        "P_PRIORITY": "39",
        "P_SCHEDULE_ID": "50092"
    },
    {
        "MFV1A4vj": "39",
        "r8Iq10fB": "5\u5468\u5e74\u5168\u30e6\u30cb\u30c3\u30c8\u5272\u5f15",
        "P_IMG": "",
        "P_SOUND_ID": "1",
        "P_PRIORITY": "40",
        "P_SCHEDULE_ID": "50093"
    },
    {
        "MFV1A4vj": "40",
        "r8Iq10fB": "5\u5468\u5e74\u5168\u30e6\u30cb\u30c3\u30c8\u5272\u5f15\uff06\u30c7\u30a3\u30af\u30c8\u3001\u30e1\u30a4\u30ea\u30b9\u5f8c\u534a",
        "P_IMG": "",
        "P_SOUND_ID": "1",
        "P_PRIORITY": "41",
        "P_SCHEDULE_ID": "50105"
    },
    {
        "MFV1A4vj": "41",
        "r8Iq10fB": "\u30c7\u30a3\u30af\u30c8\u3001\u30e1\u30a4\u30ea\u30b9\u5f8c\u534a",
        "P_IMG": "",
        "P_SOUND_ID": "1",
        "P_PRIORITY": "42",
        "P_SCHEDULE_ID": "50106"
    },
    {
        "MFV1A4vj": "42",
        "r8Iq10fB": "\u30c7\u30a3\u30af\u30c8\u3001\u30e1\u30a4\u30ea\u30b9\u5f8c\u534a\uff06\u7d46CP",
        "P_IMG": "",
        "P_SOUND_ID": "1",
        "P_PRIORITY": "43",
        "P_SCHEDULE_ID": "50107"
    },
    {
        "MFV1A4vj": "43",
        "r8Iq10fB": "\u30b9\u30bf\u30fc\u30fb\u30a6\u30a9\u30fc\u30ba",
        "P_IMG": "",
        "P_SOUND_ID": "1",
        "P_PRIORITY": "46",
        "P_SCHEDULE_ID": "50116"
    },
    {
        "MFV1A4vj": "44",
        "r8Iq10fB": "\u5341\u5fcc\u30c7\u30a3\u30b9\u30ce\u30df\u30a2&\u30a4\u30f2\u30ea\u30d4\u30c3\u30af\u30a2\u30c3\u30d7",
        "P_IMG": "",
        "P_SOUND_ID": "1",
        "P_PRIORITY": "44",
        "P_SCHEDULE_ID": "50110"
    },
    {
        "MFV1A4vj": "45",
        "r8Iq10fB": "8\u6708\u5168\u30e6\u30cb\u30c3\u30c8\u5272\u5f15\uff06\u30bb\u30c3\u30c8",
        "P_IMG": "",
        "P_SOUND_ID": "1",
        "P_PRIORITY": "45",
        "P_SCHEDULE_ID": "50115"
    },
    {
        "MFV1A4vj": "46",
        "r8Iq10fB": "SW\u30e6\u30cb\u30c3\u30c8\u5272\u5f15&\u7d46CP",
        "P_IMG": "",
        "P_SOUND_ID": "1",
        "P_PRIORITY": "46",
        "P_SCHEDULE_ID": "50127"
    },
    {
        "MFV1A4vj": "47",
        "r8Iq10fB": "SW\u30e6\u30cb\u30c3\u30c8\u5272\u5f15&\u30e6\u30cb\u30c3\u30c8\u5272\u5f152\u7a2e&\u7d46CP",
        "P_IMG": "",
        "P_SOUND_ID": "1",
        "P_PRIORITY": "47",
        "P_SCHEDULE_ID": "50128"
    },
    {
        "MFV1A4vj": "48",
        "r8Iq10fB": "SW\u30e6\u30cb\u30c3\u30c8\u5272\u5f15&\u30e6\u30cb\u30c3\u30c8\u5272\u5f152\u7a2e",
        "P_IMG": "",
        "P_SOUND_ID": "1",
        "P_PRIORITY": "48",
        "P_SCHEDULE_ID": "50129"
    },
    {
        "MFV1A4vj": "49",
        "r8Iq10fB": "\u30e6\u30cb\u30c3\u30c8\u5272\u5f15",
        "P_IMG": "",
        "P_SOUND_ID": "1",
        "P_PRIORITY": "49",
        "P_SCHEDULE_ID": "50134"
    },
    {
        "MFV1A4vj": "50",
        "r8Iq10fB": "\u5fcd\u8005\u30e6\u30cb\u30c3\u30c8\u5272\u5f15&XBB\u30bb\u30c3\u30c8",
        "P_IMG": "",
        "P_SOUND_ID": "1",
        "P_PRIORITY": "50",
        "P_SCHEDULE_ID": "50145"
    },
    {
        "MFV1A4vj": "51",
        "r8Iq10fB": "\u5fcd\u8005\u30e6\u30cb\u30c3\u30c8\u5272\u5f15",
        "P_IMG": "",
        "P_SOUND_ID": "1",
        "P_PRIORITY": "51",
        "P_SCHEDULE_ID": "50146"
    },
    {
        "MFV1A4vj": "52",
        "r8Iq10fB": "\u5fcd\u8005\u30e6\u30cb\u30c3\u30c8\u5272\u5f15\uff06\u65b0\u7d46CP",
        "P_IMG": "",
        "P_SOUND_ID": "1",
        "P_PRIORITY": "52",
        "P_SCHEDULE_ID": "50150"
    },
    {
        "MFV1A4vj": "53",
        "r8Iq10fB": "\u5fcd\u8005\u30e6\u30cb\u30c3\u30c8\u5272\u5f15\u623b\u3057",
        "P_IMG": "",
        "P_SOUND_ID": "1",
        "P_PRIORITY": "53",
        "P_SCHEDULE_ID": "50151"
    },
    {
        "MFV1A4vj": "54",
        "r8Iq10fB": "10\u6708\u30e6\u30cb\u30c3\u30c8\u5272\u5f15(\u30d0\u30ea\u30a6\u30e9\u7687\u5973)",
        "P_IMG": "",
        "P_SOUND_ID": "1",
        "P_PRIORITY": "54",
        "P_SCHEDULE_ID": "50157"
    },
    {
        "MFV1A4vj": "55",
        "r8Iq10fB": "\u30e6\u30cb\u30c3\u30c8\u5272\u5f15(\u30d4\u30c3\u30af\u30a2\u30c3\u30d7\u203b\u708e\u3001\u6a39\u3001\u5149)",
        "P_IMG": "",
        "P_SOUND_ID": "1",
        "P_PRIORITY": "55",
        "P_SCHEDULE_ID": "50160"
    },
    {
        "MFV1A4vj": "56",
        "r8Iq10fB": "\u30e6\u30cb\u30c3\u30c8\u5272\u5f15(\u30d4\u30c3\u30af\u30a2\u30c3\u30d7\u203b\u6c34\u3001\u96f7\u3001\u95c7)",
        "P_IMG": "",
        "P_SOUND_ID": "1",
        "P_PRIORITY": "56",
        "P_SCHEDULE_ID": "50161"
    },
    {
        "MFV1A4vj": "57",
        "r8Iq10fB": "\u30e6\u30cb\u30c3\u30c8\u5272\u5f15(\u8352\u91ce\u30b7\u30ea\u30fc\u30ba)",
        "P_IMG": "",
        "P_SOUND_ID": "1",
        "P_PRIORITY": "57",
        "P_SCHEDULE_ID": "300002"
    },
    {
        "MFV1A4vj": "58",
        "r8Iq10fB": "\u30e6\u30cb\u30c3\u30c8\u5272\u5f15(\u8352\u91ce\u30b7\u30ea\u30fc\u30ba)&\u7d46CP",
        "P_IMG": "",
        "P_SOUND_ID": "1",
        "P_PRIORITY": "58",
        "P_SCHEDULE_ID": "300003"
    },
    {
        "MFV1A4vj": "59",
        "r8Iq10fB": "\u30e6\u30cb\u30c3\u30c8\u5272\u5f15(\u8352\u91ce\u30b7\u30ea\u30fc\u30ba)\u623b\u3057",
        "P_IMG": "",
        "P_SOUND_ID": "1",
        "P_PRIORITY": "59",
        "P_SCHEDULE_ID": "300004"
    },
    {
        "MFV1A4vj": "60",
        "r8Iq10fB": "\u30e6\u30cb\u30c3\u30c8\u5272\u5f15(\u5148\u9063\u968a\u30b7\u30ea\u30fc\u30ba)",
        "P_IMG": "",
        "P_SOUND_ID": "1",
        "P_PRIORITY": "60",
        "P_SCHEDULE_ID": "300006"
    },
    {
        "MFV1A4vj": "61",
        "r8Iq10fB": "\u30e6\u30cb\u30c3\u30c8\u5272\u5f15(\u5148\u9063\u968a\uff06\u30d4\u30c3\u30af\u30a2\u30c3\u30d7)",
        "P_IMG": "",
        "P_SOUND_ID": "1",
        "P_PRIORITY": "61",
        "P_SCHEDULE_ID": "300008"
    },
    {
        "MFV1A4vj": "62",
        "r8Iq10fB": "\u30e6\u30cb\u30c3\u30c8\u5272\u5f15(\u30d4\u30c3\u30af\u30a2\u30c3\u30d7)",
        "P_IMG": "",
        "P_SOUND_ID": "1",
        "P_PRIORITY": "62",
        "P_SCHEDULE_ID": "300009"
    },
    {
        "MFV1A4vj": "63",
        "r8Iq10fB": "\u30e6\u30cb\u30c3\u30c8\u5272\u5f15(\u30d4\u30c3\u30af\u30a2\u30c3\u30d7\uff06\u30f4\u30a1\u30a4\u30b6\u30fc)",
        "P_IMG": "",
        "P_SOUND_ID": "1",
        "P_PRIORITY": "63",
        "P_SCHEDULE_ID": "300011"
    },
    {
        "MFV1A4vj": "64",
        "r8Iq10fB": "\u30e6\u30cb\u30c3\u30c8\u5272\u5f15(\u30f4\u30a1\u30a4\u30b6\u30fc)",
        "P_IMG": "",
        "P_SOUND_ID": "1",
        "P_PRIORITY": "64",
        "P_SCHEDULE_ID": "300012"
    },
    {
        "MFV1A4vj": "65",
        "r8Iq10fB": "\u30e6\u30cb\u30c3\u30c8\u5272\u5f15(\u30f4\u30a1\u30a4\u30b6\u30fc)\uff06\u7d46",
        "P_IMG": "",
        "P_SOUND_ID": "1",
        "P_PRIORITY": "65",
        "P_SCHEDULE_ID": "300013"
    },
    {
        "MFV1A4vj": "66",
        "r8Iq10fB": "\u30e6\u30cb\u30c3\u30c8\u5272\u5f15(\u30f4\u30a1\u30a4\u30b6\u30fc)\u623b\u3057",
        "P_IMG": "",
        "P_SOUND_ID": "1",
        "P_PRIORITY": "66",
        "P_SCHEDULE_ID": "300014"
    },
    {
        "MFV1A4vj": "67",
        "r8Iq10fB": "\u30e6\u30cb\u30c3\u30c8\u5272\u5f15\uff08\u8b77\u795e\u5341\u4e8c\u8056\u30b7\u30ea\u30fc\u30ba\uff09",
        "P_IMG": "",
        "P_SOUND_ID": "1",
        "P_PRIORITY": "67",
        "P_SCHEDULE_ID": "300016"
    },
    {
        "MFV1A4vj": "68",
        "r8Iq10fB": "\u30e6\u30cb\u30c3\u30c8\u5272\u5f15(XBB\u30bb\u30c3\u30c8)",
        "P_IMG": "",
        "P_SOUND_ID": "1",
        "P_PRIORITY": "68",
        "P_SCHEDULE_ID": "300018"
    },
    {
        "MFV1A4vj": "100",
        "r8Iq10fB": "\u5b9a\u5e38\u6642",
        "P_IMG": "",
        "P_SOUND_ID": "1",
        "P_PRIORITY": "1",
        "P_SCHEDULE_ID": "0"
    }
]