[
    {
        "MFV1A4vj": "8",
        "r8Iq10fB": "\u30bb\u30c3\u30c8\u5272\u5f15",
        "P_IMG": "",
        "P_SOUND_ID": "1",
        "P_PRIORITY": "9",
        "P_SCHEDULE_ID": "50012",
        "P_CREATEDATE": "2018-05-25 01:14:42",
        "P_UPDATEDATE": "2018-05-25 01:14:42"
    },
    {
        "MFV1A4vj": "9",
        "r8Iq10fB": "\u5341\u7ffc\u306e\u7834\u58ca\u8005",
        "P_IMG": "",
        "P_SOUND_ID": "1",
        "P_PRIORITY": "11",
        "P_SCHEDULE_ID": "50015",
        "P_CREATEDATE": "2018-05-25 01:14:42",
        "P_UPDATEDATE": "2018-05-25 01:14:42"
    },
    {
        "MFV1A4vj": "11",
        "r8Iq10fB": "\u5341\u7ffc\u306e\u7834\u58ca\u8005\uff06\u7d46\u30ad\u30e3\u30f3\u30da\u30fc\u30f3",
        "P_IMG": "",
        "P_SOUND_ID": "1",
        "P_PRIORITY": "12",
        "P_SCHEDULE_ID": "50023",
        "P_CREATEDATE": "2018-05-25 01:14:42",
        "P_UPDATEDATE": "2018-05-25 01:14:42"
    },
    {
        "MFV1A4vj": "12",
        "r8Iq10fB": "\u5341\u7ffc\u306e\u7834\u58ca\u8005",
        "P_IMG": "",
        "P_SOUND_ID": "1",
        "P_PRIORITY": "13",
        "P_SCHEDULE_ID": "50025",
        "P_CREATEDATE": "2018-05-25 01:14:42",
        "P_UPDATEDATE": "2018-05-25 01:14:42"
    },
    {
        "MFV1A4vj": "13",
        "r8Iq10fB": "4\u6708\u30d4\u30c3\u30af\u30a2\u30c3\u30d71\uff06\u30bb\u30c3\u30c8\u5272\u5f15",
        "P_IMG": "",
        "P_SOUND_ID": "1",
        "P_PRIORITY": "14",
        "P_SCHEDULE_ID": "50027",
        "P_CREATEDATE": "2018-05-25 01:14:42",
        "P_UPDATEDATE": "2018-05-25 01:14:42"
    },
    {
        "MFV1A4vj": "14",
        "r8Iq10fB": "4\u6708\u30d4\u30c3\u30af\u30a2\u30c3\u30d72\uff06\u30bb\u30c3\u30c8\u5272\u5f15",
        "P_IMG": "",
        "P_SOUND_ID": "1",
        "P_PRIORITY": "15",
        "P_SCHEDULE_ID": "50028",
        "P_CREATEDATE": "2018-05-25 01:14:42",
        "P_UPDATEDATE": "2018-05-25 01:14:42"
    },
    {
        "MFV1A4vj": "15",
        "r8Iq10fB": "4\u6708\u30d4\u30c3\u30af\u30a2\u30c3\u30d73\uff06\u30bb\u30c3\u30c8\u5272\u5f15",
        "P_IMG": "",
        "P_SOUND_ID": "1",
        "P_PRIORITY": "16",
        "P_SCHEDULE_ID": "50029",
        "P_CREATEDATE": "2018-05-25 01:14:42",
        "P_UPDATEDATE": "2018-05-25 01:14:42"
    },
    {
        "MFV1A4vj": "16",
        "r8Iq10fB": "4\u6708\u30d4\u30c3\u30af\u30a2\u30c3\u30d74\uff06\u30bb\u30c3\u30c8\u5272\u5f15",
        "P_IMG": "",
        "P_SOUND_ID": "1",
        "P_PRIORITY": "17",
        "P_SCHEDULE_ID": "50030",
        "P_CREATEDATE": "2018-05-25 01:14:42",
        "P_UPDATEDATE": "2018-05-25 01:14:42"
    },
    {
        "MFV1A4vj": "17",
        "r8Iq10fB": "4\u6708\u30d4\u30c3\u30af\u30a2\u30c3\u30d75\uff06\u30bb\u30c3\u30c8\u5272\u5f15",
        "P_IMG": "",
        "P_SOUND_ID": "1",
        "P_PRIORITY": "18",
        "P_SCHEDULE_ID": "50031",
        "P_CREATEDATE": "2018-05-25 01:14:42",
        "P_UPDATEDATE": "2018-05-25 01:14:42"
    },
    {
        "MFV1A4vj": "18",
        "r8Iq10fB": "4\u6708\u30d4\u30c3\u30af\u30a2\u30c3\u30d76\uff06\u30bb\u30c3\u30c8\u5272\u5f15",
        "P_IMG": "",
        "P_SOUND_ID": "1",
        "P_PRIORITY": "19",
        "P_SCHEDULE_ID": "50032",
        "P_CREATEDATE": "2018-05-25 01:14:42",
        "P_UPDATEDATE": "2018-05-25 01:14:42"
    },
    {
        "MFV1A4vj": "19",
        "r8Iq10fB": "4\u6708\u30bb\u30c3\u30c8\u5272\u5f15",
        "P_IMG": "",
        "P_SOUND_ID": "1",
        "P_PRIORITY": "20",
        "P_SCHEDULE_ID": "50033",
        "P_CREATEDATE": "2018-05-25 01:14:42",
        "P_UPDATEDATE": "2018-05-25 01:14:42"
    },
    {
        "MFV1A4vj": "20",
        "r8Iq10fB": "\u30ad\u30e7\u30a6\u30ea\u30e5\u30a6\u30b8\u30e3\u30fc",
        "P_IMG": "",
        "P_SOUND_ID": "1",
        "P_PRIORITY": "21",
        "P_SCHEDULE_ID": "50037",
        "P_CREATEDATE": "2018-05-25 01:14:42",
        "P_UPDATEDATE": "2018-05-25 01:14:42"
    },
    {
        "MFV1A4vj": "21",
        "r8Iq10fB": "\u30ad\u30e7\u30a6\u30ea\u30e5\u30a6\u30b8\u30e3\u30fc\uff06\u7d46\u30ad\u30e3\u30f3\u30da\u30fc\u30f3",
        "P_IMG": "",
        "P_SOUND_ID": "1",
        "P_PRIORITY": "22",
        "P_SCHEDULE_ID": "50038",
        "P_CREATEDATE": "2018-05-25 01:14:42",
        "P_UPDATEDATE": "2018-05-25 01:14:42"
    },
    {
        "MFV1A4vj": "22",
        "r8Iq10fB": "\u30ad\u30e7\u30a6\u30ea\u30e5\u30a6\u30b8\u30e3\u30fc",
        "P_IMG": "",
        "P_SOUND_ID": "1",
        "P_PRIORITY": "23",
        "P_SCHEDULE_ID": "50039",
        "P_CREATEDATE": "2018-05-25 01:14:42",
        "P_UPDATEDATE": "2018-05-25 01:14:42"
    },
    {
        "MFV1A4vj": "23",
        "r8Iq10fB": "5\u6708\u30d4\u30c3\u30af\u30a2\u30c3\u30d71\uff06\u30bb\u30c3\u30c8\u5272\u5f15",
        "P_IMG": "",
        "P_SOUND_ID": "1",
        "P_PRIORITY": "24",
        "P_SCHEDULE_ID": "50050",
        "P_CREATEDATE": "2018-05-25 01:14:42",
        "P_UPDATEDATE": "2018-05-25 01:14:42"
    },
    {
        "MFV1A4vj": "24",
        "r8Iq10fB": "5\u6708\u30d4\u30c3\u30af\u30a2\u30c3\u30d72\uff06\u30bb\u30c3\u30c8\u5272\u5f15",
        "P_IMG": "",
        "P_SOUND_ID": "1",
        "P_PRIORITY": "25",
        "P_SCHEDULE_ID": "50051",
        "P_CREATEDATE": "2018-05-25 01:14:42",
        "P_UPDATEDATE": "2018-05-25 01:14:42"
    },
    {
        "MFV1A4vj": "25",
        "r8Iq10fB": "5\u6708\u30d4\u30c3\u30af\u30a2\u30c3\u30d73\uff06\u30bb\u30c3\u30c8\u5272\u5f15",
        "P_IMG": "",
        "P_SOUND_ID": "1",
        "P_PRIORITY": "26",
        "P_SCHEDULE_ID": "50052",
        "P_CREATEDATE": "2018-05-25 01:14:42",
        "P_UPDATEDATE": "2018-05-25 01:14:42"
    },
    {
        "MFV1A4vj": "26",
        "r8Iq10fB": "\u9b54\u88c5\u5175\u5668\uff06\u53cd\u9006\u795e\u5f92",
        "P_IMG": "",
        "P_SOUND_ID": "1",
        "P_PRIORITY": "27",
        "P_SCHEDULE_ID": "50054",
        "P_CREATEDATE": "2018-05-25 01:14:42",
        "P_UPDATEDATE": "2018-05-25 01:14:42"
    },
    {
        "MFV1A4vj": "27",
        "r8Iq10fB": "\u9b54\u88c5\u5175\u5668\uff06\u53cd\u9006\u795e\u5f92\uff06\u7d46",
        "P_IMG": "",
        "P_SOUND_ID": "1",
        "P_PRIORITY": "28",
        "P_SCHEDULE_ID": "50055",
        "P_CREATEDATE": "2018-05-25 01:14:42",
        "P_UPDATEDATE": "2018-05-25 01:14:42"
    },
    {
        "MFV1A4vj": "100",
        "r8Iq10fB": "\u5b9a\u5e38\u6642",
        "P_IMG": "",
        "P_SOUND_ID": "1",
        "P_PRIORITY": "1",
        "P_SCHEDULE_ID": "0",
        "P_CREATEDATE": "2018-05-25 01:14:42",
        "P_UPDATEDATE": "2018-05-25 01:14:42"
    }
]