[
    {
        "P_ARMS_ID": "100102",
        "P_ARMS_NAME": "\u708e\u5263\u30e9\u30e0\u30ab",
        "8Cx57oAk": "\u708e\u5263\u30e9\u30e0",
        "P_SUMMONER_ID": "1",
        "P_RARE": "3",
        "gvT2ds0Q": "3",
        "P_SERIES": "10010",
        "P_ROLE": "1",
        "P_KIND": "0",
        "P_MAX_LV": "20",
        "P_PATTERN_ID": "10",
        "P_GROWTH_TYPE": "1",
        "P_MIN_HP": "1830",
        "P_MAX_HP": "2196",
        "P_MIN_ATK": "431",
        "P_MAX_ATK": "517",
        "P_MIN_DEF": "411",
        "P_MAX_DEF": "494",
        "P_MIN_MDEF": "395",
        "P_MAX_MDEF": "474",
        "P_PARAM_MAX": "0,0,0,0",
        "P_STATUS_RESIST": "0,0,0,0,0,0",
        "P_ELEMENT": "1",
        "P_ATK_PARTITION": "100,0",
        "P_EFFECT_PROCESS_ID": "10010200",
        "P_MOVE_SPEED": "3",
        "P_MOVE_TYPE1": "1",
        "P_MOVE_TYPE2": "4",
        "P_MOVE_TYPE_SKILL": "1",
        "P_MOVE_OFFSET": "-55,0",
        "P_AFTERIMAGE": "0",
        "P_AI_TYPE": "100",
        "P_SKILL_INFO": "10010201",
        "P_ALT_SKILL_INFO": "",
        "P_ALT_SKILL_P": "2",
        "P_PASSIVE_SKILL_GROUP_INFO": "",
        "f91oUy7C": "1:10010201:2",
        "P_LEADER_SKILL_INFO": "1001002",
        "P_DISPORDER": "1",
        "P_SOUND_SETTING": "",
        "P_DISP_DICTIONARY": "1",
        "P_DICTIONARY_NO": "1",
        "P_DICTIONARY_BG": "1",
        "P_EXT_IMG_PARAM": "\u8aac\u660e",
        "P_PARAM_UP_EXT": "",
        "P_DOUBLE_SPHERE_TRIGGER": "0,0,0,0",
        "HMt6u09X": "1",
        "P_NEED_SWITCH_INFO": "0",
        "P_HIDE_SWITCH_INFO": "0",
        "P_OPEN_SWITCH_INFO": "40000001",
        "P_CREATEDATE": "2018-02-16 21:30:53",
        "P_UPDATEDATE": "2018-02-16 21:30:53"
    },
    {
        "P_ARMS_ID": "100113",
        "P_ARMS_NAME": "\u8f1d\u714c\u5263\u30b0\u30ea\u30b9\u30bf\u30c3\u30c9",
        "8Cx57oAk": "\u8f1d\u714c\u30b0\u30ea",
        "P_SUMMONER_ID": "1",
        "P_RARE": "4",
        "gvT2ds0Q": "4",
        "P_SERIES": "10010",
        "P_ROLE": "1",
        "P_KIND": "0",
        "P_MAX_LV": "60",
        "P_PATTERN_ID": "10",
        "P_GROWTH_TYPE": "1",
        "P_MIN_HP": "2196",
        "P_MAX_HP": "2635",
        "P_MIN_ATK": "517",
        "P_MAX_ATK": "621",
        "P_MIN_DEF": "494",
        "P_MAX_DEF": "593",
        "P_MIN_MDEF": "474",
        "P_MAX_MDEF": "568",
        "P_PARAM_MAX": "0,0,0,0",
        "P_STATUS_RESIST": "0,0,0,0,0,0",
        "P_ELEMENT": "1",
        "P_ATK_PARTITION": "100,0",
        "P_EFFECT_PROCESS_ID": "10011300",
        "P_MOVE_SPEED": "3",
        "P_MOVE_TYPE1": "1",
        "P_MOVE_TYPE2": "4",
        "P_MOVE_TYPE_SKILL": "1",
        "P_MOVE_OFFSET": "0,0",
        "P_AFTERIMAGE": "0",
        "P_AI_TYPE": "100",
        "P_SKILL_INFO": "10011301",
        "P_ALT_SKILL_INFO": "",
        "P_ALT_SKILL_P": "3",
        "P_PASSIVE_SKILL_GROUP_INFO": "",
        "f91oUy7C": "60:10011301:2",
        "P_LEADER_SKILL_INFO": "1001003",
        "P_DISPORDER": "2",
        "P_SOUND_SETTING": "",
        "P_DISP_DICTIONARY": "1",
        "P_DICTIONARY_NO": "1",
        "P_DICTIONARY_BG": "2",
        "P_EXT_IMG_PARAM": "\u8aac\u660e",
        "P_PARAM_UP_EXT": "",
        "P_DOUBLE_SPHERE_TRIGGER": "0,0,0,0",
        "HMt6u09X": "2",
        "P_NEED_SWITCH_INFO": "0",
        "P_HIDE_SWITCH_INFO": "0",
        "P_OPEN_SWITCH_INFO": "40000002",
        "P_CREATEDATE": "2018-02-16 21:30:53",
        "P_UPDATEDATE": "2018-02-16 21:30:53"
    },
    {
        "P_ARMS_ID": "100124",
        "P_ARMS_NAME": "\u7114\u5e1d\u5263\u30ed\u30ae\u30a2",
        "8Cx57oAk": "\u7114\u5e1d\u30ed\u30ae",
        "P_SUMMONER_ID": "1",
        "P_RARE": "5",
        "gvT2ds0Q": "5",
        "P_SERIES": "10010",
        "P_ROLE": "1",
        "P_KIND": "0",
        "P_MAX_LV": "80",
        "P_PATTERN_ID": "10",
        "P_GROWTH_TYPE": "1",
        "P_MIN_HP": "2635",
        "P_MAX_HP": "3162",
        "P_MIN_ATK": "621",
        "P_MAX_ATK": "745",
        "P_MIN_DEF": "593",
        "P_MAX_DEF": "711",
        "P_MIN_MDEF": "568",
        "P_MAX_MDEF": "682",
        "P_PARAM_MAX": "0,0,0,0",
        "P_STATUS_RESIST": "0,0,0,0,0,0",
        "P_ELEMENT": "1",
        "P_ATK_PARTITION": "100,0",
        "P_EFFECT_PROCESS_ID": "10012400",
        "P_MOVE_SPEED": "3",
        "P_MOVE_TYPE1": "1",
        "P_MOVE_TYPE2": "4",
        "P_MOVE_TYPE_SKILL": "1",
        "P_MOVE_OFFSET": "0,0",
        "P_AFTERIMAGE": "0",
        "P_AI_TYPE": "100",
        "P_SKILL_INFO": "10012401,10012402",
        "P_ALT_SKILL_INFO": "",
        "P_ALT_SKILL_P": "4",
        "P_PASSIVE_SKILL_GROUP_INFO": "",
        "f91oUy7C": "70:10012401:2,80:10012402:2",
        "P_LEADER_SKILL_INFO": "1001004",
        "P_DISPORDER": "3",
        "P_SOUND_SETTING": "",
        "P_DISP_DICTIONARY": "1",
        "P_DICTIONARY_NO": "1",
        "P_DICTIONARY_BG": "3",
        "P_EXT_IMG_PARAM": "\u8aac\u660e",
        "P_PARAM_UP_EXT": "",
        "P_DOUBLE_SPHERE_TRIGGER": "0,0,0,0",
        "HMt6u09X": "2",
        "P_NEED_SWITCH_INFO": "0",
        "P_HIDE_SWITCH_INFO": "0",
        "P_OPEN_SWITCH_INFO": "40000003",
        "P_CREATEDATE": "2018-02-16 21:30:53",
        "P_UPDATEDATE": "2018-02-16 21:30:53"
    },
    {
        "P_ARMS_ID": "100214",
        "P_ARMS_NAME": "\u5d29\u6ec5\u5203\u30a2\u30eb\u30ac\u30fb\u30de\u30bf",
        "8Cx57oAk": "\u5d29\u6ec5\u30de\u30bf",
        "P_SUMMONER_ID": "1",
        "P_RARE": "5",
        "gvT2ds0Q": "5",
        "P_SERIES": "60019",
        "P_ROLE": "4",
        "P_KIND": "0",
        "P_MAX_LV": "80",
        "P_PATTERN_ID": "10",
        "P_GROWTH_TYPE": "1",
        "P_MIN_HP": "2730",
        "P_MAX_HP": "3276",
        "P_MIN_ATK": "656",
        "P_MAX_ATK": "787",
        "P_MIN_DEF": "553",
        "P_MAX_DEF": "664",
        "P_MIN_MDEF": "561",
        "P_MAX_MDEF": "673",
        "P_PARAM_MAX": "0,0,0,0",
        "P_STATUS_RESIST": "0,0,0,0,0,0",
        "P_ELEMENT": "1",
        "P_ATK_PARTITION": "60,40",
        "P_EFFECT_PROCESS_ID": "10021400",
        "P_MOVE_SPEED": "4",
        "P_MOVE_TYPE1": "1",
        "P_MOVE_TYPE2": "4",
        "P_MOVE_TYPE_SKILL": "1",
        "P_MOVE_OFFSET": "0,0",
        "P_AFTERIMAGE": "0",
        "P_AI_TYPE": "100",
        "P_SKILL_INFO": "10021401,10021402",
        "P_ALT_SKILL_INFO": "",
        "P_ALT_SKILL_P": "4",
        "P_PASSIVE_SKILL_GROUP_INFO": "",
        "f91oUy7C": "60:10021401:2,80:10021402:2",
        "P_LEADER_SKILL_INFO": "3020006",
        "P_DISPORDER": "16",
        "P_SOUND_SETTING": "",
        "P_DISP_DICTIONARY": "1",
        "P_DICTIONARY_NO": "1",
        "P_DICTIONARY_BG": "16",
        "P_EXT_IMG_PARAM": "\u8aac\u660e",
        "P_PARAM_UP_EXT": "",
        "P_DOUBLE_SPHERE_TRIGGER": "0,0,0,0",
        "HMt6u09X": "2",
        "P_NEED_SWITCH_INFO": "0",
        "P_HIDE_SWITCH_INFO": "0",
        "P_OPEN_SWITCH_INFO": "40000016",
        "P_CREATEDATE": "2018-02-16 21:30:53",
        "P_UPDATEDATE": "2018-02-16 21:30:53"
    },
    {
        "P_ARMS_ID": "100313",
        "P_ARMS_NAME": "\u525b\u70c8\u68cd\u300e\u7114\u64f2\u300f",
        "8Cx57oAk": "\u525b\u70c8\u68cd\u7114",
        "P_SUMMONER_ID": "2",
        "P_RARE": "4",
        "gvT2ds0Q": "4",
        "P_SERIES": "40027",
        "P_ROLE": "6",
        "P_KIND": "0",
        "P_MAX_LV": "60",
        "P_PATTERN_ID": "10",
        "P_GROWTH_TYPE": "1",
        "P_MIN_HP": "2410",
        "P_MAX_HP": "2893",
        "P_MIN_ATK": "469",
        "P_MAX_ATK": "563",
        "P_MIN_DEF": "453",
        "P_MAX_DEF": "544",
        "P_MIN_MDEF": "417",
        "P_MAX_MDEF": "501",
        "P_PARAM_MAX": "0,0,0,0",
        "P_STATUS_RESIST": "0,0,0,0,0,0",
        "P_ELEMENT": "1",
        "P_ATK_PARTITION": "100,0",
        "P_EFFECT_PROCESS_ID": "10031300",
        "P_MOVE_SPEED": "3",
        "P_MOVE_TYPE1": "1",
        "P_MOVE_TYPE2": "4",
        "P_MOVE_TYPE_SKILL": "1",
        "P_MOVE_OFFSET": "0,0",
        "P_AFTERIMAGE": "0",
        "P_AI_TYPE": "100",
        "P_SKILL_INFO": "10031301",
        "P_ALT_SKILL_INFO": "",
        "P_ALT_SKILL_P": "2",
        "P_PASSIVE_SKILL_GROUP_INFO": "",
        "f91oUy7C": "60:10031301:2",
        "P_LEADER_SKILL_INFO": "1001003",
        "P_DISPORDER": "27",
        "P_SOUND_SETTING": "",
        "P_DISP_DICTIONARY": "1",
        "P_DICTIONARY_NO": "1",
        "P_DICTIONARY_BG": "27",
        "P_EXT_IMG_PARAM": "\u8aac\u660e",
        "P_PARAM_UP_EXT": "",
        "P_DOUBLE_SPHERE_TRIGGER": "0,0,0,0",
        "HMt6u09X": "2",
        "P_NEED_SWITCH_INFO": "0",
        "P_HIDE_SWITCH_INFO": "0",
        "P_OPEN_SWITCH_INFO": "40000027",
        "P_CREATEDATE": "2018-02-16 21:30:53",
        "P_UPDATEDATE": "2018-02-16 21:30:53"
    },
    {
        "P_ARMS_ID": "100314",
        "P_ARMS_NAME": "\u81e5\u7114\u9023\u88c5\u300e\u5239\u6e26\u708e\u300f",
        "8Cx57oAk": "\u81e5\u9023\u5239\u6e26",
        "P_SUMMONER_ID": "2",
        "P_RARE": "5",
        "gvT2ds0Q": "6",
        "P_SERIES": "40027",
        "P_ROLE": "6",
        "P_KIND": "0",
        "P_MAX_LV": "80",
        "P_PATTERN_ID": "10",
        "P_GROWTH_TYPE": "1",
        "P_MIN_HP": "2893",
        "P_MAX_HP": "3471",
        "P_MIN_ATK": "563",
        "P_MAX_ATK": "675",
        "P_MIN_DEF": "544",
        "P_MAX_DEF": "653",
        "P_MIN_MDEF": "501",
        "P_MAX_MDEF": "601",
        "P_PARAM_MAX": "0,0,0,0",
        "P_STATUS_RESIST": "0,0,0,0,0,0",
        "P_ELEMENT": "1",
        "P_ATK_PARTITION": "100,0",
        "P_EFFECT_PROCESS_ID": "10031400",
        "P_MOVE_SPEED": "3",
        "P_MOVE_TYPE1": "1",
        "P_MOVE_TYPE2": "4",
        "P_MOVE_TYPE_SKILL": "1",
        "P_MOVE_OFFSET": "0,0",
        "P_AFTERIMAGE": "0",
        "P_AI_TYPE": "100",
        "P_SKILL_INFO": "10031401,10031402",
        "P_ALT_SKILL_INFO": "",
        "P_ALT_SKILL_P": "3",
        "P_PASSIVE_SKILL_GROUP_INFO": "",
        "f91oUy7C": "70:10031401:2,80:10031402:2",
        "P_LEADER_SKILL_INFO": "1001004",
        "P_DISPORDER": "28",
        "P_SOUND_SETTING": "",
        "P_DISP_DICTIONARY": "1",
        "P_DICTIONARY_NO": "1",
        "P_DICTIONARY_BG": "28",
        "P_EXT_IMG_PARAM": "\u8aac\u660e",
        "P_PARAM_UP_EXT": "",
        "P_DOUBLE_SPHERE_TRIGGER": "0,0,0,0",
        "HMt6u09X": "3",
        "P_NEED_SWITCH_INFO": "0",
        "P_HIDE_SWITCH_INFO": "0",
        "P_OPEN_SWITCH_INFO": "40000028",
        "P_CREATEDATE": "2018-02-16 21:30:53",
        "P_UPDATEDATE": "2018-02-16 21:30:53"
    },
    {
        "P_ARMS_ID": "200164",
        "P_ARMS_NAME": "\u84bc\u885b\u93a7\u30ab\u30ea\u30e5\u30fc\u30bf",
        "8Cx57oAk": "\u84bc\u93a7\u30ab\u30ea",
        "P_SUMMONER_ID": "1",
        "P_RARE": "5",
        "gvT2ds0Q": "6",
        "P_SERIES": "30014",
        "P_ROLE": "2",
        "P_KIND": "0",
        "P_MAX_LV": "80",
        "P_PATTERN_ID": "10",
        "P_GROWTH_TYPE": "1",
        "P_MIN_HP": "2973",
        "P_MAX_HP": "3568",
        "P_MIN_ATK": "489",
        "P_MAX_ATK": "587",
        "P_MIN_DEF": "543",
        "P_MAX_DEF": "652",
        "P_MIN_MDEF": "536",
        "P_MAX_MDEF": "643",
        "P_PARAM_MAX": "0,0,0,0",
        "P_STATUS_RESIST": "0,0,0,0,0,0",
        "P_ELEMENT": "2",
        "P_ATK_PARTITION": "50,50",
        "P_EFFECT_PROCESS_ID": "20016400",
        "P_MOVE_SPEED": "2",
        "P_MOVE_TYPE1": "1",
        "P_MOVE_TYPE2": "4",
        "P_MOVE_TYPE_SKILL": "1",
        "P_MOVE_OFFSET": "0,0",
        "P_AFTERIMAGE": "0",
        "P_AI_TYPE": "100",
        "P_SKILL_INFO": "20016401,20016402",
        "P_ALT_SKILL_INFO": "",
        "P_ALT_SKILL_P": "4",
        "P_PASSIVE_SKILL_GROUP_INFO": "",
        "f91oUy7C": "60:20016401:2,80:20016402:2",
        "P_LEADER_SKILL_INFO": "1009003",
        "P_DISPORDER": "9",
        "P_SOUND_SETTING": "",
        "P_DISP_DICTIONARY": "1",
        "P_DICTIONARY_NO": "1",
        "P_DICTIONARY_BG": "9",
        "P_EXT_IMG_PARAM": "\u8aac\u660e",
        "P_PARAM_UP_EXT": "",
        "P_DOUBLE_SPHERE_TRIGGER": "0,0,0,0",
        "HMt6u09X": "3",
        "P_NEED_SWITCH_INFO": "0",
        "P_HIDE_SWITCH_INFO": "0",
        "P_OPEN_SWITCH_INFO": "40000009",
        "P_CREATEDATE": "2018-02-16 21:30:53",
        "P_UPDATEDATE": "2018-02-16 21:30:53"
    },
    {
        "P_ARMS_ID": "200172",
        "P_ARMS_NAME": "\u6e05\u6756\u30c8\u30eb\u30af\u30fc\u30ec",
        "8Cx57oAk": "\u6e05\u6756\u30c8\u30eb",
        "P_SUMMONER_ID": "1",
        "P_RARE": "3",
        "gvT2ds0Q": "4",
        "P_SERIES": "20017",
        "P_ROLE": "6",
        "P_KIND": "0",
        "P_MAX_LV": "40",
        "P_PATTERN_ID": "10",
        "P_GROWTH_TYPE": "1",
        "P_MIN_HP": "1792",
        "P_MAX_HP": "2150",
        "P_MIN_ATK": "359",
        "P_MAX_ATK": "431",
        "P_MIN_DEF": "409",
        "P_MAX_DEF": "491",
        "P_MIN_MDEF": "481",
        "P_MAX_MDEF": "578",
        "P_PARAM_MAX": "0,0,0,0",
        "P_STATUS_RESIST": "0,0,0,0,0,0",
        "P_ELEMENT": "2",
        "P_ATK_PARTITION": "0,100",
        "P_EFFECT_PROCESS_ID": "20017200",
        "P_MOVE_SPEED": "1",
        "P_MOVE_TYPE1": "3",
        "P_MOVE_TYPE2": "4",
        "P_MOVE_TYPE_SKILL": "3",
        "P_MOVE_OFFSET": "0,0",
        "P_AFTERIMAGE": "0",
        "P_AI_TYPE": "100",
        "P_SKILL_INFO": "20017201",
        "P_ALT_SKILL_INFO": "",
        "P_ALT_SKILL_P": "2",
        "P_PASSIVE_SKILL_GROUP_INFO": "",
        "f91oUy7C": "1:20017201:2,40:20017202:2",
        "P_LEADER_SKILL_INFO": "1003002",
        "P_DISPORDER": "10",
        "P_SOUND_SETTING": "",
        "P_DISP_DICTIONARY": "1",
        "P_DICTIONARY_NO": "1",
        "P_DICTIONARY_BG": "10",
        "P_EXT_IMG_PARAM": "\u8aac\u660e",
        "P_PARAM_UP_EXT": "",
        "P_DOUBLE_SPHERE_TRIGGER": "0,0,0,0",
        "HMt6u09X": "2",
        "P_NEED_SWITCH_INFO": "0",
        "P_HIDE_SWITCH_INFO": "0",
        "P_OPEN_SWITCH_INFO": "40000010",
        "P_CREATEDATE": "2018-02-16 21:30:53",
        "P_UPDATEDATE": "2018-02-16 21:30:53"
    },
    {
        "P_ARMS_ID": "200173",
        "P_ARMS_NAME": "\u8056\u8b83\u6756\u30b5\u30fc\u30af\u30ea\u30c3\u30c8",
        "8Cx57oAk": "\u8056\u6756\u30b5\u30af",
        "P_SUMMONER_ID": "1",
        "P_RARE": "4",
        "gvT2ds0Q": "5",
        "P_SERIES": "20017",
        "P_ROLE": "6",
        "P_KIND": "0",
        "P_MAX_LV": "60",
        "P_PATTERN_ID": "10",
        "P_GROWTH_TYPE": "1",
        "P_MIN_HP": "2150",
        "P_MAX_HP": "2580",
        "P_MIN_ATK": "431",
        "P_MAX_ATK": "518",
        "P_MIN_DEF": "491",
        "P_MAX_DEF": "589",
        "P_MIN_MDEF": "578",
        "P_MAX_MDEF": "693",
        "P_PARAM_MAX": "0,0,0,0",
        "P_STATUS_RESIST": "0,0,0,0,0,0",
        "P_ELEMENT": "2",
        "P_ATK_PARTITION": "0,100",
        "P_EFFECT_PROCESS_ID": "20017300",
        "P_MOVE_SPEED": "1",
        "P_MOVE_TYPE1": "3",
        "P_MOVE_TYPE2": "4",
        "P_MOVE_TYPE_SKILL": "3",
        "P_MOVE_OFFSET": "0,0",
        "P_AFTERIMAGE": "0",
        "P_AI_TYPE": "100",
        "P_SKILL_INFO": "20017301",
        "P_ALT_SKILL_INFO": "",
        "P_ALT_SKILL_P": "3",
        "P_PASSIVE_SKILL_GROUP_INFO": "",
        "f91oUy7C": "50:20017301:2,60:20017302:2",
        "P_LEADER_SKILL_INFO": "1003003",
        "P_DISPORDER": "11",
        "P_SOUND_SETTING": "",
        "P_DISP_DICTIONARY": "1",
        "P_DICTIONARY_NO": "1",
        "P_DICTIONARY_BG": "11",
        "P_EXT_IMG_PARAM": "\u8aac\u660e",
        "P_PARAM_UP_EXT": "",
        "P_DOUBLE_SPHERE_TRIGGER": "0,0,0,0",
        "HMt6u09X": "2",
        "P_NEED_SWITCH_INFO": "0",
        "P_HIDE_SWITCH_INFO": "0",
        "P_OPEN_SWITCH_INFO": "40000011",
        "P_CREATEDATE": "2018-02-16 21:30:53",
        "P_UPDATEDATE": "2018-02-16 21:30:53"
    },
    {
        "P_ARMS_ID": "200174",
        "P_ARMS_NAME": "\u8056\u5c0e\u6a19\u6756\u30ec\u30eb\u30af\u30ec\u30a4\u30f3",
        "8Cx57oAk": "\u8056\u5c0e\u30ec\u30eb",
        "P_SUMMONER_ID": "1",
        "P_RARE": "5",
        "gvT2ds0Q": "6",
        "P_SERIES": "20017",
        "P_ROLE": "6",
        "P_KIND": "0",
        "P_MAX_LV": "80",
        "P_PATTERN_ID": "10",
        "P_GROWTH_TYPE": "1",
        "P_MIN_HP": "2580",
        "P_MAX_HP": "3096",
        "P_MIN_ATK": "518",
        "P_MAX_ATK": "621",
        "P_MIN_DEF": "589",
        "P_MAX_DEF": "707",
        "P_MIN_MDEF": "693",
        "P_MAX_MDEF": "832",
        "P_PARAM_MAX": "0,0,0,0",
        "P_STATUS_RESIST": "0,0,0,0,0,0",
        "P_ELEMENT": "2",
        "P_ATK_PARTITION": "0,100",
        "P_EFFECT_PROCESS_ID": "20017400",
        "P_MOVE_SPEED": "1",
        "P_MOVE_TYPE1": "3",
        "P_MOVE_TYPE2": "4",
        "P_MOVE_TYPE_SKILL": "3",
        "P_MOVE_OFFSET": "0,0",
        "P_AFTERIMAGE": "0",
        "P_AI_TYPE": "100",
        "P_SKILL_INFO": "20017401,20017402",
        "P_ALT_SKILL_INFO": "",
        "P_ALT_SKILL_P": "4",
        "P_PASSIVE_SKILL_GROUP_INFO": "",
        "f91oUy7C": "60:20017401:2,70:20017402:2,80:20017403:2",
        "P_LEADER_SKILL_INFO": "1003004",
        "P_DISPORDER": "12",
        "P_SOUND_SETTING": "",
        "P_DISP_DICTIONARY": "1",
        "P_DICTIONARY_NO": "1",
        "P_DICTIONARY_BG": "12",
        "P_EXT_IMG_PARAM": "\u8aac\u660e",
        "P_PARAM_UP_EXT": "",
        "P_DOUBLE_SPHERE_TRIGGER": "0,0,0,0",
        "HMt6u09X": "3",
        "P_NEED_SWITCH_INFO": "0",
        "P_HIDE_SWITCH_INFO": "0",
        "P_OPEN_SWITCH_INFO": "40000012",
        "P_CREATEDATE": "2018-02-16 21:30:53",
        "P_UPDATEDATE": "2018-02-16 21:30:53"
    },
    {
        "P_ARMS_ID": "200322",
        "P_ARMS_NAME": "\u51cd\u5263\u30a2\u30eb\u30bb\u30ca",
        "8Cx57oAk": "\u51cd\u5263\u30a2\u30eb",
        "P_SUMMONER_ID": "2",
        "P_RARE": "3",
        "gvT2ds0Q": "3",
        "P_SERIES": "20032",
        "P_ROLE": "4",
        "P_KIND": "0",
        "P_MAX_LV": "40",
        "P_PATTERN_ID": "10",
        "P_GROWTH_TYPE": "1",
        "P_MIN_HP": "1828",
        "P_MAX_HP": "2194",
        "P_MIN_ATK": "417",
        "P_MAX_ATK": "501",
        "P_MIN_DEF": "475",
        "P_MAX_DEF": "570",
        "P_MIN_MDEF": "405",
        "P_MAX_MDEF": "485",
        "P_PARAM_MAX": "0,0,0,0",
        "P_STATUS_RESIST": "0,0,0,0,0,0",
        "P_ELEMENT": "2",
        "P_ATK_PARTITION": "100,0",
        "P_EFFECT_PROCESS_ID": "20032200",
        "P_MOVE_SPEED": "5",
        "P_MOVE_TYPE1": "1",
        "P_MOVE_TYPE2": "4",
        "P_MOVE_TYPE_SKILL": "1",
        "P_MOVE_OFFSET": "0,0",
        "P_AFTERIMAGE": "0",
        "P_AI_TYPE": "100",
        "P_SKILL_INFO": "20032201",
        "P_ALT_SKILL_INFO": "",
        "P_ALT_SKILL_P": "1",
        "P_PASSIVE_SKILL_GROUP_INFO": "",
        "f91oUy7C": "1:20032201:2",
        "P_LEADER_SKILL_INFO": "2020001",
        "P_DISPORDER": "29",
        "P_SOUND_SETTING": "",
        "P_DISP_DICTIONARY": "1",
        "P_DICTIONARY_NO": "1",
        "P_DICTIONARY_BG": "29",
        "P_EXT_IMG_PARAM": "\u8aac\u660e",
        "P_PARAM_UP_EXT": "",
        "P_DOUBLE_SPHERE_TRIGGER": "0,0,0,0",
        "HMt6u09X": "1",
        "P_NEED_SWITCH_INFO": "0",
        "P_HIDE_SWITCH_INFO": "0",
        "P_OPEN_SWITCH_INFO": "40000029",
        "P_CREATEDATE": "2018-02-16 21:30:53",
        "P_UPDATEDATE": "2018-02-16 21:30:53"
    },
    {
        "P_ARMS_ID": "200323",
        "P_ARMS_NAME": "\u51cd\u5f71\u5263\u30a2\u30bb\u30b7\u30ce",
        "8Cx57oAk": "\u5f71\u5263\u30a2\u30bb",
        "P_SUMMONER_ID": "2",
        "P_RARE": "4",
        "gvT2ds0Q": "4",
        "P_SERIES": "20032",
        "P_ROLE": "4",
        "P_KIND": "0",
        "P_MAX_LV": "60",
        "P_PATTERN_ID": "10",
        "P_GROWTH_TYPE": "1",
        "P_MIN_HP": "2194",
        "P_MAX_HP": "2633",
        "P_MIN_ATK": "501",
        "P_MAX_ATK": "601",
        "P_MIN_DEF": "570",
        "P_MAX_DEF": "684",
        "P_MIN_MDEF": "485",
        "P_MAX_MDEF": "583",
        "P_PARAM_MAX": "0,0,0,0",
        "P_STATUS_RESIST": "0,0,0,0,0,0",
        "P_ELEMENT": "2",
        "P_ATK_PARTITION": "100,0",
        "P_EFFECT_PROCESS_ID": "20032300",
        "P_MOVE_SPEED": "5",
        "P_MOVE_TYPE1": "1",
        "P_MOVE_TYPE2": "4",
        "P_MOVE_TYPE_SKILL": "1",
        "P_MOVE_OFFSET": "0,0",
        "P_AFTERIMAGE": "0",
        "P_AI_TYPE": "100",
        "P_SKILL_INFO": "20032301",
        "P_ALT_SKILL_INFO": "",
        "P_ALT_SKILL_P": "2",
        "P_PASSIVE_SKILL_GROUP_INFO": "",
        "f91oUy7C": "60:20032301:2",
        "P_LEADER_SKILL_INFO": "2020002",
        "P_DISPORDER": "30",
        "P_SOUND_SETTING": "",
        "P_DISP_DICTIONARY": "1",
        "P_DICTIONARY_NO": "1",
        "P_DICTIONARY_BG": "30",
        "P_EXT_IMG_PARAM": "\u8aac\u660e",
        "P_PARAM_UP_EXT": "",
        "P_DOUBLE_SPHERE_TRIGGER": "0,0,0,0",
        "HMt6u09X": "2",
        "P_NEED_SWITCH_INFO": "0",
        "P_HIDE_SWITCH_INFO": "0",
        "P_OPEN_SWITCH_INFO": "40000030",
        "P_CREATEDATE": "2018-02-16 21:30:53",
        "P_UPDATEDATE": "2018-02-16 21:30:53"
    },
    {
        "P_ARMS_ID": "200334",
        "P_ARMS_NAME": "\u51db\u821e\u601c\u5203\u30a4\u30e9\u30eb\u30d5\u30a1",
        "8Cx57oAk": "\u51db\u821e\u30a4\u30e9",
        "P_SUMMONER_ID": "2",
        "P_RARE": "5",
        "gvT2ds0Q": "5",
        "P_SERIES": "20032",
        "P_ROLE": "4",
        "P_KIND": "0",
        "P_MAX_LV": "80",
        "P_PATTERN_ID": "10",
        "P_GROWTH_TYPE": "1",
        "P_MIN_HP": "2633",
        "P_MAX_HP": "3159",
        "P_MIN_ATK": "601",
        "P_MAX_ATK": "721",
        "P_MIN_DEF": "684",
        "P_MAX_DEF": "821",
        "P_MIN_MDEF": "583",
        "P_MAX_MDEF": "699",
        "P_PARAM_MAX": "0,0,0,0",
        "P_STATUS_RESIST": "0,0,0,0,0,0",
        "P_ELEMENT": "2",
        "P_ATK_PARTITION": "60,40",
        "P_EFFECT_PROCESS_ID": "20033400",
        "P_MOVE_SPEED": "5",
        "P_MOVE_TYPE1": "1",
        "P_MOVE_TYPE2": "4",
        "P_MOVE_TYPE_SKILL": "1",
        "P_MOVE_OFFSET": "0,0",
        "P_AFTERIMAGE": "0",
        "P_AI_TYPE": "100",
        "P_SKILL_INFO": "20033401,20033402",
        "P_ALT_SKILL_INFO": "",
        "P_ALT_SKILL_P": "3",
        "P_PASSIVE_SKILL_GROUP_INFO": "",
        "f91oUy7C": "70:20033401:2,80:20033402:2",
        "P_LEADER_SKILL_INFO": "2020003",
        "P_DISPORDER": "31",
        "P_SOUND_SETTING": "",
        "P_DISP_DICTIONARY": "1",
        "P_DICTIONARY_NO": "1",
        "P_DICTIONARY_BG": "31",
        "P_EXT_IMG_PARAM": "\u8aac\u660e",
        "P_PARAM_UP_EXT": "",
        "P_DOUBLE_SPHERE_TRIGGER": "0,0,0,0",
        "HMt6u09X": "2",
        "P_NEED_SWITCH_INFO": "0",
        "P_HIDE_SWITCH_INFO": "0",
        "P_OPEN_SWITCH_INFO": "40000031",
        "P_CREATEDATE": "2018-02-16 21:30:53",
        "P_UPDATEDATE": "2018-02-16 21:30:53"
    },
    {
        "P_ARMS_ID": "200404",
        "P_ARMS_NAME": "\u84bc\u71d5\u53cc\u65a7\u30a8\u30ea\u30b6\u30fc\u30af",
        "8Cx57oAk": "\u84bc\u71d5\u30a8\u30ea",
        "P_SUMMONER_ID": "2",
        "P_RARE": "5",
        "gvT2ds0Q": "5",
        "P_SERIES": "30038",
        "P_ROLE": "1",
        "P_KIND": "0",
        "P_MAX_LV": "80",
        "P_PATTERN_ID": "10",
        "P_GROWTH_TYPE": "1",
        "P_MIN_HP": "2663",
        "P_MAX_HP": "3196",
        "P_MIN_ATK": "724",
        "P_MAX_ATK": "869",
        "P_MIN_DEF": "565",
        "P_MAX_DEF": "678",
        "P_MIN_MDEF": "548",
        "P_MAX_MDEF": "657",
        "P_PARAM_MAX": "0,0,0,0",
        "P_STATUS_RESIST": "0,0,0,0,0,0",
        "P_ELEMENT": "2",
        "P_ATK_PARTITION": "100,0",
        "P_EFFECT_PROCESS_ID": "20040400",
        "P_MOVE_SPEED": "3",
        "P_MOVE_TYPE1": "1",
        "P_MOVE_TYPE2": "4",
        "P_MOVE_TYPE_SKILL": "1",
        "P_MOVE_OFFSET": "0,0",
        "P_AFTERIMAGE": "0",
        "P_AI_TYPE": "100",
        "P_SKILL_INFO": "20040401,20040402",
        "P_ALT_SKILL_INFO": "",
        "P_ALT_SKILL_P": "3",
        "P_PASSIVE_SKILL_GROUP_INFO": "",
        "f91oUy7C": "60:20040401:2,80:20040402:2",
        "P_LEADER_SKILL_INFO": "3010002",
        "P_DISPORDER": "38",
        "P_SOUND_SETTING": "",
        "P_DISP_DICTIONARY": "1",
        "P_DICTIONARY_NO": "1",
        "P_DICTIONARY_BG": "38",
        "P_EXT_IMG_PARAM": "\u8aac\u660e",
        "P_PARAM_UP_EXT": "",
        "P_DOUBLE_SPHERE_TRIGGER": "0,0,0,0",
        "HMt6u09X": "2",
        "P_NEED_SWITCH_INFO": "0",
        "P_HIDE_SWITCH_INFO": "0",
        "P_OPEN_SWITCH_INFO": "40000038",
        "P_CREATEDATE": "2018-02-16 21:30:53",
        "P_UPDATEDATE": "2018-02-16 21:30:53"
    },
    {
        "P_ARMS_ID": "300142",
        "P_ARMS_NAME": "\u8b77\u69cd\u30b0\u30e9\u30b7\u30b9",
        "8Cx57oAk": "\u8b77\u69cd\u30b0\u30e9",
        "P_SUMMONER_ID": "1",
        "P_RARE": "3",
        "gvT2ds0Q": "3",
        "P_SERIES": "30014",
        "P_ROLE": "2",
        "P_KIND": "0",
        "P_MAX_LV": "40",
        "P_PATTERN_ID": "10",
        "P_GROWTH_TYPE": "1",
        "P_MIN_HP": "1852",
        "P_MAX_HP": "2223",
        "P_MIN_ATK": "363",
        "P_MAX_ATK": "436",
        "P_MIN_DEF": "483",
        "P_MAX_DEF": "580",
        "P_MIN_MDEF": "368",
        "P_MAX_MDEF": "442",
        "P_PARAM_MAX": "0,0,0,0",
        "P_STATUS_RESIST": "0,0,0,0,0,0",
        "P_ELEMENT": "3",
        "P_ATK_PARTITION": "100,0",
        "P_EFFECT_PROCESS_ID": "30014200",
        "P_MOVE_SPEED": "3",
        "P_MOVE_TYPE1": "1",
        "P_MOVE_TYPE2": "4",
        "P_MOVE_TYPE_SKILL": "1",
        "P_MOVE_OFFSET": "0,0",
        "P_AFTERIMAGE": "0",
        "P_AI_TYPE": "100",
        "P_SKILL_INFO": "30014201",
        "P_ALT_SKILL_INFO": "",
        "P_ALT_SKILL_P": "2",
        "P_PASSIVE_SKILL_GROUP_INFO": "",
        "f91oUy7C": "1:30014201:2",
        "P_LEADER_SKILL_INFO": "1002002",
        "P_DISPORDER": "6",
        "P_SOUND_SETTING": "",
        "P_DISP_DICTIONARY": "1",
        "P_DICTIONARY_NO": "1",
        "P_DICTIONARY_BG": "6",
        "P_EXT_IMG_PARAM": "\u8aac\u660e",
        "P_PARAM_UP_EXT": "",
        "P_DOUBLE_SPHERE_TRIGGER": "0,0,0,0",
        "HMt6u09X": "1",
        "P_NEED_SWITCH_INFO": "0",
        "P_HIDE_SWITCH_INFO": "0",
        "P_OPEN_SWITCH_INFO": "40000006",
        "P_CREATEDATE": "2018-02-16 21:30:53",
        "P_UPDATEDATE": "2018-02-16 21:30:53"
    },
    {
        "P_ARMS_ID": "300143",
        "P_ARMS_NAME": "\u8b77\u9663\u69cd\u30b0\u30e9\u30b7\u30fc\u30c9",
        "8Cx57oAk": "\u8b77\u9663\u30b0\u30e9",
        "P_SUMMONER_ID": "1",
        "P_RARE": "4",
        "gvT2ds0Q": "3",
        "P_SERIES": "30014",
        "P_ROLE": "2",
        "P_KIND": "0",
        "P_MAX_LV": "60",
        "P_PATTERN_ID": "10",
        "P_GROWTH_TYPE": "1",
        "P_MIN_HP": "2223",
        "P_MAX_HP": "2668",
        "P_MIN_ATK": "436",
        "P_MAX_ATK": "523",
        "P_MIN_DEF": "580",
        "P_MAX_DEF": "696",
        "P_MIN_MDEF": "442",
        "P_MAX_MDEF": "530",
        "P_PARAM_MAX": "0,0,0,0",
        "P_STATUS_RESIST": "0,0,0,0,0,0",
        "P_ELEMENT": "3",
        "P_ATK_PARTITION": "100,0",
        "P_EFFECT_PROCESS_ID": "30014300",
        "P_MOVE_SPEED": "3",
        "P_MOVE_TYPE1": "1",
        "P_MOVE_TYPE2": "4",
        "P_MOVE_TYPE_SKILL": "1",
        "P_MOVE_OFFSET": "0,0",
        "P_AFTERIMAGE": "0",
        "P_AI_TYPE": "100",
        "P_SKILL_INFO": "30014301",
        "P_ALT_SKILL_INFO": "",
        "P_ALT_SKILL_P": "3",
        "P_PASSIVE_SKILL_GROUP_INFO": "",
        "f91oUy7C": "60:30014301:2",
        "P_LEADER_SKILL_INFO": "1002003",
        "P_DISPORDER": "7",
        "P_SOUND_SETTING": "",
        "P_DISP_DICTIONARY": "1",
        "P_DICTIONARY_NO": "1",
        "P_DICTIONARY_BG": "7",
        "P_EXT_IMG_PARAM": "\u8aac\u660e",
        "P_PARAM_UP_EXT": "",
        "P_DOUBLE_SPHERE_TRIGGER": "0,0,0,0",
        "HMt6u09X": "1",
        "P_NEED_SWITCH_INFO": "0",
        "P_HIDE_SWITCH_INFO": "0",
        "P_OPEN_SWITCH_INFO": "40000007",
        "P_CREATEDATE": "2018-02-16 21:30:53",
        "P_UPDATEDATE": "2018-02-16 21:30:53"
    },
    {
        "P_ARMS_ID": "300154",
        "P_ARMS_NAME": "\u5805\u77db\u6226\u58c1\u30ac\u30eb\u30af\u30f3\u30c9",
        "8Cx57oAk": "\u6226\u58c1\u30ac\u30eb",
        "P_SUMMONER_ID": "1",
        "P_RARE": "5",
        "gvT2ds0Q": "4",
        "P_SERIES": "30014",
        "P_ROLE": "2",
        "P_KIND": "0",
        "P_MAX_LV": "80",
        "P_PATTERN_ID": "10",
        "P_GROWTH_TYPE": "1",
        "P_MIN_HP": "2668",
        "P_MAX_HP": "3201",
        "P_MIN_ATK": "523",
        "P_MAX_ATK": "628",
        "P_MIN_DEF": "696",
        "P_MAX_DEF": "835",
        "P_MIN_MDEF": "530",
        "P_MAX_MDEF": "636",
        "P_PARAM_MAX": "0,0,0,0",
        "P_STATUS_RESIST": "0,0,0,0,0,0",
        "P_ELEMENT": "3",
        "P_ATK_PARTITION": "100,0",
        "P_EFFECT_PROCESS_ID": "30015400",
        "P_MOVE_SPEED": "3",
        "P_MOVE_TYPE1": "1",
        "P_MOVE_TYPE2": "4",
        "P_MOVE_TYPE_SKILL": "1",
        "P_MOVE_OFFSET": "0,0",
        "P_AFTERIMAGE": "0",
        "P_AI_TYPE": "100",
        "P_SKILL_INFO": "30015401,30015402",
        "P_ALT_SKILL_INFO": "",
        "P_ALT_SKILL_P": "4",
        "P_PASSIVE_SKILL_GROUP_INFO": "",
        "f91oUy7C": "70:30015401:2,80:30015402:2",
        "P_LEADER_SKILL_INFO": "1002004",
        "P_DISPORDER": "8",
        "P_SOUND_SETTING": "",
        "P_DISP_DICTIONARY": "1",
        "P_DICTIONARY_NO": "1",
        "P_DICTIONARY_BG": "8",
        "P_EXT_IMG_PARAM": "\u8aac\u660e",
        "P_PARAM_UP_EXT": "",
        "P_DOUBLE_SPHERE_TRIGGER": "0,0,0,0",
        "HMt6u09X": "2",
        "P_NEED_SWITCH_INFO": "0",
        "P_HIDE_SWITCH_INFO": "0",
        "P_OPEN_SWITCH_INFO": "40000008",
        "P_CREATEDATE": "2018-02-16 21:30:53",
        "P_UPDATEDATE": "2018-02-16 21:30:53"
    },
    {
        "P_ARMS_ID": "300234",
        "P_ARMS_NAME": "\u6a39\u92fc\u65ac\u5263\u30ed\u30b0\u30b9\u30e9\u30a4\u30c9",
        "8Cx57oAk": "\u6a39\u92fc\u30ed\u30b0",
        "P_SUMMONER_ID": "1",
        "P_RARE": "5",
        "gvT2ds0Q": "7",
        "P_SERIES": "50022",
        "P_ROLE": "1",
        "P_KIND": "0",
        "P_MAX_LV": "80",
        "P_PATTERN_ID": "10",
        "P_GROWTH_TYPE": "1",
        "P_MIN_HP": "2858",
        "P_MAX_HP": "3430",
        "P_MIN_ATK": "567",
        "P_MAX_ATK": "680",
        "P_MIN_DEF": "558",
        "P_MAX_DEF": "670",
        "P_MIN_MDEF": "558",
        "P_MAX_MDEF": "670",
        "P_PARAM_MAX": "0,0,0,0",
        "P_STATUS_RESIST": "0,0,0,0,0,0",
        "P_ELEMENT": "3",
        "P_ATK_PARTITION": "100,0",
        "P_EFFECT_PROCESS_ID": "30023400",
        "P_MOVE_SPEED": "3",
        "P_MOVE_TYPE1": "1",
        "P_MOVE_TYPE2": "4",
        "P_MOVE_TYPE_SKILL": "1",
        "P_MOVE_OFFSET": "0,0",
        "P_AFTERIMAGE": "0",
        "P_AI_TYPE": "100",
        "P_SKILL_INFO": "30023401,30023402",
        "P_ALT_SKILL_INFO": "",
        "P_ALT_SKILL_P": "4",
        "P_PASSIVE_SKILL_GROUP_INFO": "",
        "f91oUy7C": "60:30023401:2,80:30023402:2",
        "P_LEADER_SKILL_INFO": "1005002",
        "P_DISPORDER": "19",
        "P_SOUND_SETTING": "",
        "P_DISP_DICTIONARY": "1",
        "P_DICTIONARY_NO": "1",
        "P_DICTIONARY_BG": "19",
        "P_EXT_IMG_PARAM": "\u8aac\u660e",
        "P_PARAM_UP_EXT": "",
        "P_DOUBLE_SPHERE_TRIGGER": "0,0,0,0",
        "HMt6u09X": "3",
        "P_NEED_SWITCH_INFO": "0",
        "P_HIDE_SWITCH_INFO": "0",
        "P_OPEN_SWITCH_INFO": "40000019",
        "P_CREATEDATE": "2018-02-16 21:30:53",
        "P_UPDATEDATE": "2018-02-16 21:30:53"
    },
    {
        "P_ARMS_ID": "300344",
        "P_ARMS_NAME": "\u7dd1\u5043\u9583\u5200\u300e\u7f85\u65ac\u300f",
        "8Cx57oAk": "\u5043\u5200\u7f85\u65ac",
        "P_SUMMONER_ID": "2",
        "P_RARE": "5",
        "gvT2ds0Q": "5",
        "P_SERIES": "20032",
        "P_ROLE": "1",
        "P_KIND": "0",
        "P_MAX_LV": "80",
        "P_PATTERN_ID": "10",
        "P_GROWTH_TYPE": "1",
        "P_MIN_HP": "2733",
        "P_MAX_HP": "3279",
        "P_MIN_ATK": "678",
        "P_MAX_ATK": "814",
        "P_MIN_DEF": "604",
        "P_MAX_DEF": "725",
        "P_MIN_MDEF": "485",
        "P_MAX_MDEF": "582",
        "P_PARAM_MAX": "0,0,0,0",
        "P_STATUS_RESIST": "0,0,0,0,0,0",
        "P_ELEMENT": "3",
        "P_ATK_PARTITION": "100,0",
        "P_EFFECT_PROCESS_ID": "30034400",
        "P_MOVE_SPEED": "3",
        "P_MOVE_TYPE1": "1",
        "P_MOVE_TYPE2": "4",
        "P_MOVE_TYPE_SKILL": "1",
        "P_MOVE_OFFSET": "0,0",
        "P_AFTERIMAGE": "0",
        "P_AI_TYPE": "100",
        "P_SKILL_INFO": "30034401,30034402",
        "P_ALT_SKILL_INFO": "",
        "P_ALT_SKILL_P": "3",
        "P_PASSIVE_SKILL_GROUP_INFO": "",
        "f91oUy7C": "60:30034401:2,80:30034402:2",
        "P_LEADER_SKILL_INFO": "4010003",
        "P_DISPORDER": "32",
        "P_SOUND_SETTING": "",
        "P_DISP_DICTIONARY": "1",
        "P_DICTIONARY_NO": "1",
        "P_DICTIONARY_BG": "32",
        "P_EXT_IMG_PARAM": "\u8aac\u660e",
        "P_PARAM_UP_EXT": "",
        "P_DOUBLE_SPHERE_TRIGGER": "0,0,0,0",
        "HMt6u09X": "2",
        "P_NEED_SWITCH_INFO": "0",
        "P_HIDE_SWITCH_INFO": "0",
        "P_OPEN_SWITCH_INFO": "40000032",
        "P_CREATEDATE": "2018-02-16 21:30:53",
        "P_UPDATEDATE": "2018-02-16 21:30:53"
    },
    {
        "P_ARMS_ID": "300383",
        "P_ARMS_NAME": "\u98db\u68cd\u30c1\u30a7\u30eb\u30c6\u30a3",
        "8Cx57oAk": "\u98db\u68cd\u30c1\u30eb",
        "P_SUMMONER_ID": "2",
        "P_RARE": "4",
        "gvT2ds0Q": "4",
        "P_SERIES": "30038",
        "P_ROLE": "6",
        "P_KIND": "0",
        "P_MAX_LV": "60",
        "P_PATTERN_ID": "10",
        "P_GROWTH_TYPE": "1",
        "P_MIN_HP": "2271",
        "P_MAX_HP": "2725",
        "P_MIN_ATK": "487",
        "P_MAX_ATK": "584",
        "P_MIN_DEF": "481",
        "P_MAX_DEF": "577",
        "P_MIN_MDEF": "512",
        "P_MAX_MDEF": "614",
        "P_PARAM_MAX": "0,0,0,0",
        "P_STATUS_RESIST": "0,0,0,0,0,0",
        "P_ELEMENT": "3",
        "P_ATK_PARTITION": "100,0",
        "P_EFFECT_PROCESS_ID": "30038300",
        "P_MOVE_SPEED": "3",
        "P_MOVE_TYPE1": "1",
        "P_MOVE_TYPE2": "4",
        "P_MOVE_TYPE_SKILL": "1",
        "P_MOVE_OFFSET": "70,0",
        "P_AFTERIMAGE": "0",
        "P_AI_TYPE": "100",
        "P_SKILL_INFO": "30038301",
        "P_ALT_SKILL_INFO": "",
        "P_ALT_SKILL_P": "2",
        "P_PASSIVE_SKILL_GROUP_INFO": "",
        "f91oUy7C": "1:30038301:2",
        "P_LEADER_SKILL_INFO": "7050001",
        "P_DISPORDER": "36",
        "P_SOUND_SETTING": "",
        "P_DISP_DICTIONARY": "1",
        "P_DICTIONARY_NO": "1",
        "P_DICTIONARY_BG": "36",
        "P_EXT_IMG_PARAM": "\u8aac\u660e",
        "P_PARAM_UP_EXT": "",
        "P_DOUBLE_SPHERE_TRIGGER": "0,0,0,0",
        "HMt6u09X": "2",
        "P_NEED_SWITCH_INFO": "0",
        "P_HIDE_SWITCH_INFO": "0",
        "P_OPEN_SWITCH_INFO": "40000036",
        "P_CREATEDATE": "2018-02-16 21:30:53",
        "P_UPDATEDATE": "2018-02-16 21:30:53"
    },
    {
        "P_ARMS_ID": "300394",
        "P_ARMS_NAME": "\u5e7b\u6708\u8f2a\u30ec\u30ce\u30ef\u30fc\u30eb",
        "8Cx57oAk": "\u6708\u8f2a\u30ec\u30ce",
        "P_SUMMONER_ID": "2",
        "P_RARE": "5",
        "gvT2ds0Q": "5",
        "P_SERIES": "30038",
        "P_ROLE": "6",
        "P_KIND": "0",
        "P_MAX_LV": "80",
        "P_PATTERN_ID": "10",
        "P_GROWTH_TYPE": "1",
        "P_MIN_HP": "2725",
        "P_MAX_HP": "3270",
        "P_MIN_ATK": "584",
        "P_MAX_ATK": "701",
        "P_MIN_DEF": "577",
        "P_MAX_DEF": "692",
        "P_MIN_MDEF": "614",
        "P_MAX_MDEF": "737",
        "P_PARAM_MAX": "0,0,0,0",
        "P_STATUS_RESIST": "0,0,0,0,0,0",
        "P_ELEMENT": "3",
        "P_ATK_PARTITION": "50,50",
        "P_EFFECT_PROCESS_ID": "30039400",
        "P_MOVE_SPEED": "3",
        "P_MOVE_TYPE1": "1",
        "P_MOVE_TYPE2": "4",
        "P_MOVE_TYPE_SKILL": "1",
        "P_MOVE_OFFSET": "40,0",
        "P_AFTERIMAGE": "0",
        "P_AI_TYPE": "100",
        "P_SKILL_INFO": "30039401,30039402",
        "P_ALT_SKILL_INFO": "",
        "P_ALT_SKILL_P": "3",
        "P_PASSIVE_SKILL_GROUP_INFO": "",
        "f91oUy7C": "60:30039401:2,80:30039402:2",
        "P_LEADER_SKILL_INFO": "7050002",
        "P_DISPORDER": "37",
        "P_SOUND_SETTING": "",
        "P_DISP_DICTIONARY": "1",
        "P_DICTIONARY_NO": "1",
        "P_DICTIONARY_BG": "37",
        "P_EXT_IMG_PARAM": "\u8aac\u660e",
        "P_PARAM_UP_EXT": "",
        "P_DOUBLE_SPHERE_TRIGGER": "0,0,0,0",
        "HMt6u09X": "2",
        "P_NEED_SWITCH_INFO": "0",
        "P_HIDE_SWITCH_INFO": "0",
        "P_OPEN_SWITCH_INFO": "40000037",
        "P_CREATEDATE": "2018-02-16 21:30:53",
        "P_UPDATEDATE": "2018-02-16 21:30:53"
    },
    {
        "P_ARMS_ID": "400133",
        "P_ARMS_NAME": "\u5d50\u53cc\u821e\u5263\u30f4\u30a1\u30a4\u30f3",
        "8Cx57oAk": "\u5d50\u821e\u30f4\u30a1",
        "P_SUMMONER_ID": "1",
        "P_RARE": "4",
        "gvT2ds0Q": "4",
        "P_SERIES": "10010",
        "P_ROLE": "3",
        "P_KIND": "0",
        "P_MAX_LV": "60",
        "P_PATTERN_ID": "10",
        "P_GROWTH_TYPE": "1",
        "P_MIN_HP": "2164",
        "P_MAX_HP": "2597",
        "P_MIN_ATK": "581",
        "P_MAX_ATK": "698",
        "P_MIN_DEF": "454",
        "P_MAX_DEF": "545",
        "P_MIN_MDEF": "481",
        "P_MAX_MDEF": "578",
        "P_PARAM_MAX": "0,0,0,0",
        "P_STATUS_RESIST": "0,0,0,0,0,0",
        "P_ELEMENT": "4",
        "P_ATK_PARTITION": "100,0",
        "P_EFFECT_PROCESS_ID": "40013300",
        "P_MOVE_SPEED": "4",
        "P_MOVE_TYPE1": "1",
        "P_MOVE_TYPE2": "4",
        "P_MOVE_TYPE_SKILL": "1",
        "P_MOVE_OFFSET": "0,0",
        "P_AFTERIMAGE": "0",
        "P_AI_TYPE": "100",
        "P_SKILL_INFO": "40013301",
        "P_ALT_SKILL_INFO": "",
        "P_ALT_SKILL_P": "3",
        "P_PASSIVE_SKILL_GROUP_INFO": "",
        "f91oUy7C": "60:40013301:2",
        "P_LEADER_SKILL_INFO": "2010002",
        "P_DISPORDER": "4",
        "P_SOUND_SETTING": "",
        "P_DISP_DICTIONARY": "1",
        "P_DICTIONARY_NO": "1",
        "P_DICTIONARY_BG": "4",
        "P_EXT_IMG_PARAM": "\u8aac\u660e",
        "P_PARAM_UP_EXT": "",
        "P_DOUBLE_SPHERE_TRIGGER": "0,0,0,0",
        "HMt6u09X": "2",
        "P_NEED_SWITCH_INFO": "0",
        "P_HIDE_SWITCH_INFO": "0",
        "P_OPEN_SWITCH_INFO": "40000004",
        "P_CREATEDATE": "2018-02-16 21:30:53",
        "P_UPDATEDATE": "2018-02-16 21:30:53"
    },
    {
        "P_ARMS_ID": "400134",
        "P_ARMS_NAME": "\u96f7\u8fc5\u53cc\u9706\u30ea\u30f4\u30a1\u30a4\u30c8",
        "8Cx57oAk": "\u96f7\u53cc\u30ea\u30f4",
        "P_SUMMONER_ID": "1",
        "P_RARE": "5",
        "gvT2ds0Q": "5",
        "P_SERIES": "10010",
        "P_ROLE": "3",
        "P_KIND": "0",
        "P_MAX_LV": "80",
        "P_PATTERN_ID": "10",
        "P_GROWTH_TYPE": "1",
        "P_MIN_HP": "2597",
        "P_MAX_HP": "3116",
        "P_MIN_ATK": "698",
        "P_MAX_ATK": "837",
        "P_MIN_DEF": "545",
        "P_MAX_DEF": "654",
        "P_MIN_MDEF": "578",
        "P_MAX_MDEF": "693",
        "P_PARAM_MAX": "0,0,0,0",
        "P_STATUS_RESIST": "0,0,0,0,0,0",
        "P_ELEMENT": "4",
        "P_ATK_PARTITION": "100,0",
        "P_EFFECT_PROCESS_ID": "40013400",
        "P_MOVE_SPEED": "4",
        "P_MOVE_TYPE1": "1",
        "P_MOVE_TYPE2": "4",
        "P_MOVE_TYPE_SKILL": "1",
        "P_MOVE_OFFSET": "0,0",
        "P_AFTERIMAGE": "0",
        "P_AI_TYPE": "100",
        "P_SKILL_INFO": "40013401,40013402",
        "P_ALT_SKILL_INFO": "",
        "P_ALT_SKILL_P": "4",
        "P_PASSIVE_SKILL_GROUP_INFO": "",
        "f91oUy7C": "70:40013401:2,80:40013402:2",
        "P_LEADER_SKILL_INFO": "2010003",
        "P_DISPORDER": "5",
        "P_SOUND_SETTING": "",
        "P_DISP_DICTIONARY": "1",
        "P_DICTIONARY_NO": "1",
        "P_DICTIONARY_BG": "5",
        "P_EXT_IMG_PARAM": "\u8aac\u660e",
        "P_PARAM_UP_EXT": "",
        "P_DOUBLE_SPHERE_TRIGGER": "0,0,0,0",
        "HMt6u09X": "2",
        "P_NEED_SWITCH_INFO": "0",
        "P_HIDE_SWITCH_INFO": "0",
        "P_OPEN_SWITCH_INFO": "40000005",
        "P_CREATEDATE": "2018-02-16 21:30:53",
        "P_UPDATEDATE": "2018-02-16 21:30:53"
    },
    {
        "P_ARMS_ID": "400243",
        "P_ARMS_NAME": "\u96f7\u7a7f\u9283\u30b9\u30c6\u30e9",
        "8Cx57oAk": "\u96f7\u7a7f\u30b9\u30c6",
        "P_SUMMONER_ID": "1",
        "P_RARE": "4",
        "gvT2ds0Q": "4",
        "P_SERIES": "40024",
        "P_ROLE": "6",
        "P_KIND": "0",
        "P_MAX_LV": "60",
        "P_PATTERN_ID": "10",
        "P_GROWTH_TYPE": "1",
        "P_MIN_HP": "2226",
        "P_MAX_HP": "2672",
        "P_MIN_ATK": "570",
        "P_MAX_ATK": "684",
        "P_MIN_DEF": "454",
        "P_MAX_DEF": "545",
        "P_MIN_MDEF": "499",
        "P_MAX_MDEF": "599",
        "P_PARAM_MAX": "0,0,0,0",
        "P_STATUS_RESIST": "0,0,0,0,0,0",
        "P_ELEMENT": "4",
        "P_ATK_PARTITION": "40,60",
        "P_EFFECT_PROCESS_ID": "40024300",
        "P_MOVE_SPEED": "2",
        "P_MOVE_TYPE1": "3",
        "P_MOVE_TYPE2": "4",
        "P_MOVE_TYPE_SKILL": "3",
        "P_MOVE_OFFSET": "0,0",
        "P_AFTERIMAGE": "0",
        "P_AI_TYPE": "100",
        "P_SKILL_INFO": "40024301",
        "P_ALT_SKILL_INFO": "",
        "P_ALT_SKILL_P": "3",
        "P_PASSIVE_SKILL_GROUP_INFO": "",
        "f91oUy7C": "1:40024301:2,60:40024302:2",
        "P_LEADER_SKILL_INFO": "2020002",
        "P_DISPORDER": "20",
        "P_SOUND_SETTING": "",
        "P_DISP_DICTIONARY": "1",
        "P_DICTIONARY_NO": "1",
        "P_DICTIONARY_BG": "20",
        "P_EXT_IMG_PARAM": "\u8aac\u660e",
        "P_PARAM_UP_EXT": "",
        "P_DOUBLE_SPHERE_TRIGGER": "0,0,0,0",
        "HMt6u09X": "2",
        "P_NEED_SWITCH_INFO": "0",
        "P_HIDE_SWITCH_INFO": "0",
        "P_OPEN_SWITCH_INFO": "40000020",
        "P_CREATEDATE": "2018-02-16 21:30:53",
        "P_UPDATEDATE": "2018-02-16 21:30:53"
    },
    {
        "P_ARMS_ID": "400254",
        "P_ARMS_NAME": "\u96f7\u5e1d\u7832\u30c6\u30eb\u30c9\u30ed\u30a4",
        "8Cx57oAk": "\u96f7\u5e1d\u30c6\u30eb",
        "P_SUMMONER_ID": "1",
        "P_RARE": "5",
        "gvT2ds0Q": "5",
        "P_SERIES": "40024",
        "P_ROLE": "6",
        "P_KIND": "0",
        "P_MAX_LV": "80",
        "P_PATTERN_ID": "10",
        "P_GROWTH_TYPE": "1",
        "P_MIN_HP": "2672",
        "P_MAX_HP": "3206",
        "P_MIN_ATK": "684",
        "P_MAX_ATK": "821",
        "P_MIN_DEF": "545",
        "P_MAX_DEF": "654",
        "P_MIN_MDEF": "599",
        "P_MAX_MDEF": "719",
        "P_PARAM_MAX": "0,0,0,0",
        "P_STATUS_RESIST": "0,0,0,0,0,0",
        "P_ELEMENT": "4",
        "P_ATK_PARTITION": "20,80",
        "P_EFFECT_PROCESS_ID": "40025400",
        "P_MOVE_SPEED": "2",
        "P_MOVE_TYPE1": "3",
        "P_MOVE_TYPE2": "4",
        "P_MOVE_TYPE_SKILL": "3",
        "P_MOVE_OFFSET": "0,0",
        "P_AFTERIMAGE": "0",
        "P_AI_TYPE": "100",
        "P_SKILL_INFO": "40025401,40025403",
        "P_ALT_SKILL_INFO": "",
        "P_ALT_SKILL_P": "4",
        "P_PASSIVE_SKILL_GROUP_INFO": "",
        "f91oUy7C": "70:40025401:2,80:40025402:2",
        "P_LEADER_SKILL_INFO": "2020003",
        "P_DISPORDER": "21",
        "P_SOUND_SETTING": "",
        "P_DISP_DICTIONARY": "1",
        "P_DICTIONARY_NO": "1",
        "P_DICTIONARY_BG": "21",
        "P_EXT_IMG_PARAM": "\u8aac\u660e",
        "P_PARAM_UP_EXT": "",
        "P_DOUBLE_SPHERE_TRIGGER": "0,0,0,0",
        "HMt6u09X": "2",
        "P_NEED_SWITCH_INFO": "0",
        "P_HIDE_SWITCH_INFO": "0",
        "P_OPEN_SWITCH_INFO": "40000021",
        "P_CREATEDATE": "2018-02-16 21:30:53",
        "P_UPDATEDATE": "2018-02-16 21:30:53"
    },
    {
        "P_ARMS_ID": "400272",
        "P_ARMS_NAME": "\u95d8\u62f3\u30ec\u30af\u30b7\u30d6",
        "8Cx57oAk": "\u95d8\u62f3\u30ec\u30d6",
        "P_SUMMONER_ID": "2",
        "P_RARE": "3",
        "gvT2ds0Q": "3",
        "P_SERIES": "40027",
        "P_ROLE": "3",
        "P_KIND": "0",
        "P_MAX_LV": "40",
        "P_PATTERN_ID": "10",
        "P_GROWTH_TYPE": "1",
        "P_MIN_HP": "1807",
        "P_MAX_HP": "2169",
        "P_MIN_ATK": "427",
        "P_MAX_ATK": "513",
        "P_MIN_DEF": "414",
        "P_MAX_DEF": "497",
        "P_MIN_MDEF": "402",
        "P_MAX_MDEF": "482",
        "P_PARAM_MAX": "0,0,0,0",
        "P_STATUS_RESIST": "0,0,0,0,0,0",
        "P_ELEMENT": "4",
        "P_ATK_PARTITION": "100,0",
        "P_EFFECT_PROCESS_ID": "40027200",
        "P_MOVE_SPEED": "4",
        "P_MOVE_TYPE1": "1",
        "P_MOVE_TYPE2": "4",
        "P_MOVE_TYPE_SKILL": "1",
        "P_MOVE_OFFSET": "0,0",
        "P_AFTERIMAGE": "0",
        "P_AI_TYPE": "100",
        "P_SKILL_INFO": "40027201",
        "P_ALT_SKILL_INFO": "",
        "P_ALT_SKILL_P": "1",
        "P_PASSIVE_SKILL_GROUP_INFO": "",
        "f91oUy7C": "1:40027201:2",
        "P_LEADER_SKILL_INFO": "3010000",
        "P_DISPORDER": "23",
        "P_SOUND_SETTING": "",
        "P_DISP_DICTIONARY": "1",
        "P_DICTIONARY_NO": "1",
        "P_DICTIONARY_BG": "23",
        "P_EXT_IMG_PARAM": "\u8aac\u660e",
        "P_PARAM_UP_EXT": "",
        "P_DOUBLE_SPHERE_TRIGGER": "0,0,0,0",
        "HMt6u09X": "1",
        "P_NEED_SWITCH_INFO": "0",
        "P_HIDE_SWITCH_INFO": "0",
        "P_OPEN_SWITCH_INFO": "40000023",
        "P_CREATEDATE": "2018-02-16 21:30:53",
        "P_UPDATEDATE": "2018-02-16 21:30:53"
    },
    {
        "P_ARMS_ID": "400283",
        "P_ARMS_NAME": "\u6226\u6483\u7532\u30f4\u30a1\u30e9\u30b9\u30c8",
        "8Cx57oAk": "\u6226\u7532\u30f4\u30a1",
        "P_SUMMONER_ID": "2",
        "P_RARE": "4",
        "gvT2ds0Q": "4",
        "P_SERIES": "40027",
        "P_ROLE": "3",
        "P_KIND": "0",
        "P_MAX_LV": "60",
        "P_PATTERN_ID": "10",
        "P_GROWTH_TYPE": "1",
        "P_MIN_HP": "2169",
        "P_MAX_HP": "2603",
        "P_MIN_ATK": "513",
        "P_MAX_ATK": "615",
        "P_MIN_DEF": "497",
        "P_MAX_DEF": "597",
        "P_MIN_MDEF": "482",
        "P_MAX_MDEF": "578",
        "P_PARAM_MAX": "0,0,0,0",
        "P_STATUS_RESIST": "0,0,0,0,0,0",
        "P_ELEMENT": "4",
        "P_ATK_PARTITION": "100,0",
        "P_EFFECT_PROCESS_ID": "40028300",
        "P_MOVE_SPEED": "4",
        "P_MOVE_TYPE1": "1",
        "P_MOVE_TYPE2": "4",
        "P_MOVE_TYPE_SKILL": "1",
        "P_MOVE_OFFSET": "0,0",
        "P_AFTERIMAGE": "0",
        "P_AI_TYPE": "100",
        "P_SKILL_INFO": "40028301",
        "P_ALT_SKILL_INFO": "",
        "P_ALT_SKILL_P": "2",
        "P_PASSIVE_SKILL_GROUP_INFO": "",
        "f91oUy7C": "1:40028301:1",
        "P_LEADER_SKILL_INFO": "3010001",
        "P_DISPORDER": "24",
        "P_SOUND_SETTING": "",
        "P_DISP_DICTIONARY": "1",
        "P_DICTIONARY_NO": "1",
        "P_DICTIONARY_BG": "24",
        "P_EXT_IMG_PARAM": "\u8aac\u660e",
        "P_PARAM_UP_EXT": "",
        "P_DOUBLE_SPHERE_TRIGGER": "0,0,0,0",
        "HMt6u09X": "2",
        "P_NEED_SWITCH_INFO": "0",
        "P_HIDE_SWITCH_INFO": "0",
        "P_OPEN_SWITCH_INFO": "40000024",
        "P_CREATEDATE": "2018-02-16 21:30:53",
        "P_UPDATEDATE": "2018-02-16 21:30:53"
    },
    {
        "P_ARMS_ID": "400294",
        "P_ARMS_NAME": "\u7d76\u62f3\u300e\u5929\u9cf4\u300f",
        "8Cx57oAk": "\u7d76\u62f3\u5929\u9cf4",
        "P_SUMMONER_ID": "2",
        "P_RARE": "5",
        "gvT2ds0Q": "5",
        "P_SERIES": "40027",
        "P_ROLE": "3",
        "P_KIND": "0",
        "P_MAX_LV": "80",
        "P_PATTERN_ID": "10",
        "P_GROWTH_TYPE": "1",
        "P_MIN_HP": "2603",
        "P_MAX_HP": "3123",
        "P_MIN_ATK": "615",
        "P_MAX_ATK": "738",
        "P_MIN_DEF": "597",
        "P_MAX_DEF": "716",
        "P_MIN_MDEF": "578",
        "P_MAX_MDEF": "694",
        "P_PARAM_MAX": "0,0,0,0",
        "P_STATUS_RESIST": "0,0,0,0,0,0",
        "P_ELEMENT": "4",
        "P_ATK_PARTITION": "100,0",
        "P_EFFECT_PROCESS_ID": "40029400",
        "P_MOVE_SPEED": "4",
        "P_MOVE_TYPE1": "1",
        "P_MOVE_TYPE2": "4",
        "P_MOVE_TYPE_SKILL": "1",
        "P_MOVE_OFFSET": "0,0",
        "P_AFTERIMAGE": "0",
        "P_AI_TYPE": "100",
        "P_SKILL_INFO": "40029401,40029402",
        "P_ALT_SKILL_INFO": "",
        "P_ALT_SKILL_P": "3",
        "P_PASSIVE_SKILL_GROUP_INFO": "",
        "f91oUy7C": "60:40029401:2",
        "P_LEADER_SKILL_INFO": "5050003",
        "P_DISPORDER": "25",
        "P_SOUND_SETTING": "",
        "P_DISP_DICTIONARY": "1",
        "P_DICTIONARY_NO": "1",
        "P_DICTIONARY_BG": "25",
        "P_EXT_IMG_PARAM": "\u8aac\u660e",
        "P_PARAM_UP_EXT": "",
        "P_DOUBLE_SPHERE_TRIGGER": "0,0,0,0",
        "HMt6u09X": "2",
        "P_NEED_SWITCH_INFO": "0",
        "P_HIDE_SWITCH_INFO": "0",
        "P_OPEN_SWITCH_INFO": "40000025",
        "P_CREATEDATE": "2018-02-16 21:30:53",
        "P_UPDATEDATE": "2018-02-16 21:30:53"
    },
    {
        "P_ARMS_ID": "500223",
        "P_ARMS_NAME": "\u7815\u5149\u5263\u30d7\u30ed\u30ad\u30a2",
        "8Cx57oAk": "\u5149\u5263\u30d7\u30ed",
        "P_SUMMONER_ID": "1",
        "P_RARE": "4",
        "gvT2ds0Q": "4",
        "P_SERIES": "50022",
        "P_ROLE": "4",
        "P_KIND": "0",
        "P_MAX_LV": "60",
        "P_PATTERN_ID": "10",
        "P_GROWTH_TYPE": "1",
        "P_MIN_HP": "2431",
        "P_MAX_HP": "2918",
        "P_MIN_ATK": "501",
        "P_MAX_ATK": "602",
        "P_MIN_DEF": "480",
        "P_MAX_DEF": "576",
        "P_MIN_MDEF": "476",
        "P_MAX_MDEF": "572",
        "P_PARAM_MAX": "0,0,0,0",
        "P_STATUS_RESIST": "0,0,0,0,0,0",
        "P_ELEMENT": "5",
        "P_ATK_PARTITION": "100,0",
        "P_EFFECT_PROCESS_ID": "50022300",
        "P_MOVE_SPEED": "3",
        "P_MOVE_TYPE1": "1",
        "P_MOVE_TYPE2": "4",
        "P_MOVE_TYPE_SKILL": "1",
        "P_MOVE_OFFSET": "0,0",
        "P_AFTERIMAGE": "0",
        "P_AI_TYPE": "100",
        "P_SKILL_INFO": "50022301",
        "P_ALT_SKILL_INFO": "",
        "P_ALT_SKILL_P": "3",
        "P_PASSIVE_SKILL_GROUP_INFO": "",
        "f91oUy7C": "1:50022301:2",
        "P_LEADER_SKILL_INFO": "1005002",
        "P_DISPORDER": "17",
        "P_SOUND_SETTING": "",
        "P_DISP_DICTIONARY": "1",
        "P_DICTIONARY_NO": "1",
        "P_DICTIONARY_BG": "17",
        "P_EXT_IMG_PARAM": "\u8aac\u660e",
        "P_PARAM_UP_EXT": "",
        "P_DOUBLE_SPHERE_TRIGGER": "0,0,0,0",
        "HMt6u09X": "2",
        "P_NEED_SWITCH_INFO": "0",
        "P_HIDE_SWITCH_INFO": "0",
        "P_OPEN_SWITCH_INFO": "40000017",
        "P_CREATEDATE": "2018-02-16 21:30:53",
        "P_UPDATEDATE": "2018-02-16 21:30:53"
    },
    {
        "P_ARMS_ID": "500224",
        "P_ARMS_NAME": "\u8056\u65ad\u5263\u30a2\u30b9\u30ac\u30e9\u30f3",
        "8Cx57oAk": "\u8056\u65ad\u30a2\u30b9",
        "P_SUMMONER_ID": "1",
        "P_RARE": "5",
        "gvT2ds0Q": "5",
        "P_SERIES": "50022",
        "P_ROLE": "4",
        "P_KIND": "0",
        "P_MAX_LV": "80",
        "P_PATTERN_ID": "10",
        "P_GROWTH_TYPE": "1",
        "P_MIN_HP": "2918",
        "P_MAX_HP": "3501",
        "P_MIN_ATK": "602",
        "P_MAX_ATK": "722",
        "P_MIN_DEF": "576",
        "P_MAX_DEF": "691",
        "P_MIN_MDEF": "572",
        "P_MAX_MDEF": "686",
        "P_PARAM_MAX": "0,0,0,0",
        "P_STATUS_RESIST": "0,0,0,0,0,0",
        "P_ELEMENT": "5",
        "P_ATK_PARTITION": "70,30",
        "P_EFFECT_PROCESS_ID": "50022400",
        "P_MOVE_SPEED": "3",
        "P_MOVE_TYPE1": "1",
        "P_MOVE_TYPE2": "4",
        "P_MOVE_TYPE_SKILL": "1",
        "P_MOVE_OFFSET": "0,0",
        "P_AFTERIMAGE": "0",
        "P_AI_TYPE": "100",
        "P_SKILL_INFO": "50022401,50022402",
        "P_ALT_SKILL_INFO": "",
        "P_ALT_SKILL_P": "4",
        "P_PASSIVE_SKILL_GROUP_INFO": "",
        "f91oUy7C": "60:50022401:2,80:50022402:2",
        "P_LEADER_SKILL_INFO": "1005003",
        "P_DISPORDER": "18",
        "P_SOUND_SETTING": "",
        "P_DISP_DICTIONARY": "1",
        "P_DICTIONARY_NO": "1",
        "P_DICTIONARY_BG": "18",
        "P_EXT_IMG_PARAM": "\u8aac\u660e",
        "P_PARAM_UP_EXT": "",
        "P_DOUBLE_SPHERE_TRIGGER": "0,0,0,0",
        "HMt6u09X": "2",
        "P_NEED_SWITCH_INFO": "0",
        "P_HIDE_SWITCH_INFO": "0",
        "P_OPEN_SWITCH_INFO": "40000018",
        "P_CREATEDATE": "2018-02-16 21:30:53",
        "P_UPDATEDATE": "2018-02-16 21:30:53"
    },
    {
        "P_ARMS_ID": "500264",
        "P_ARMS_NAME": "\u5e7b\u714c\u5263\u30ec\u30aa\u30cb\u30af\u30b9",
        "8Cx57oAk": "\u5e7b\u714c\u30ec\u30aa",
        "P_SUMMONER_ID": "1",
        "P_RARE": "5",
        "gvT2ds0Q": "5",
        "P_SERIES": "50026",
        "P_ROLE": "1",
        "P_KIND": "0",
        "P_MAX_LV": "80",
        "P_PATTERN_ID": "10",
        "P_GROWTH_TYPE": "1",
        "P_MIN_HP": "2833",
        "P_MAX_HP": "3400",
        "P_MIN_ATK": "708",
        "P_MAX_ATK": "850",
        "P_MIN_DEF": "583",
        "P_MAX_DEF": "700",
        "P_MIN_MDEF": "583",
        "P_MAX_MDEF": "700",
        "P_PARAM_MAX": "0,0,0,0",
        "P_STATUS_RESIST": "0,0,0,0,0,0",
        "P_ELEMENT": "5",
        "P_ATK_PARTITION": "50,50",
        "P_EFFECT_PROCESS_ID": "50026400",
        "P_MOVE_SPEED": "4",
        "P_MOVE_TYPE1": "1",
        "P_MOVE_TYPE2": "4",
        "P_MOVE_TYPE_SKILL": "1",
        "P_MOVE_OFFSET": "0,0",
        "P_AFTERIMAGE": "0",
        "P_AI_TYPE": "100",
        "P_SKILL_INFO": "50026401,50026402",
        "P_ALT_SKILL_INFO": "",
        "P_ALT_SKILL_P": "4",
        "P_PASSIVE_SKILL_GROUP_INFO": "",
        "f91oUy7C": "1:50026401:2,40:50026402:2,80:50026403:2",
        "P_LEADER_SKILL_INFO": "1006003",
        "P_DISPORDER": "22",
        "P_SOUND_SETTING": "",
        "P_DISP_DICTIONARY": "1",
        "P_DICTIONARY_NO": "1",
        "P_DICTIONARY_BG": "22",
        "P_EXT_IMG_PARAM": "\u8aac\u660e",
        "P_PARAM_UP_EXT": "",
        "P_DOUBLE_SPHERE_TRIGGER": "0,0,0,0",
        "HMt6u09X": "2",
        "P_NEED_SWITCH_INFO": "0",
        "P_HIDE_SWITCH_INFO": "0",
        "P_OPEN_SWITCH_INFO": "40000022",
        "P_CREATEDATE": "2018-02-16 21:30:53",
        "P_UPDATEDATE": "2018-02-16 21:30:53"
    },
    {
        "P_ARMS_ID": "500304",
        "P_ARMS_NAME": "\u9583\u65ac\u722a\u30b7\u30e3\u30e9\u30e0",
        "8Cx57oAk": "\u9583\u722a\u30b7\u30e3",
        "P_SUMMONER_ID": "2",
        "P_RARE": "5",
        "gvT2ds0Q": "5",
        "P_SERIES": "40027",
        "P_ROLE": "1",
        "P_KIND": "0",
        "P_MAX_LV": "80",
        "P_PATTERN_ID": "10",
        "P_GROWTH_TYPE": "1",
        "P_MIN_HP": "2639",
        "P_MAX_HP": "3167",
        "P_MIN_ATK": "616",
        "P_MAX_ATK": "739",
        "P_MIN_DEF": "603",
        "P_MAX_DEF": "723",
        "P_MIN_MDEF": "559",
        "P_MAX_MDEF": "671",
        "P_PARAM_MAX": "0,0,0,0",
        "P_STATUS_RESIST": "0,0,0,0,0,0",
        "P_ELEMENT": "5",
        "P_ATK_PARTITION": "70,30",
        "P_EFFECT_PROCESS_ID": "50030400",
        "P_MOVE_SPEED": "4",
        "P_MOVE_TYPE1": "1",
        "P_MOVE_TYPE2": "4",
        "P_MOVE_TYPE_SKILL": "1",
        "P_MOVE_OFFSET": "0,0",
        "P_AFTERIMAGE": "0",
        "P_AI_TYPE": "100",
        "P_SKILL_INFO": "50030401,50030402",
        "P_ALT_SKILL_INFO": "",
        "P_ALT_SKILL_P": "3",
        "P_PASSIVE_SKILL_GROUP_INFO": "",
        "f91oUy7C": "60:50030401:2,80:50030402:2",
        "P_LEADER_SKILL_INFO": "2010003",
        "P_DISPORDER": "26",
        "P_SOUND_SETTING": "",
        "P_DISP_DICTIONARY": "1",
        "P_DICTIONARY_NO": "1",
        "P_DICTIONARY_BG": "26",
        "P_EXT_IMG_PARAM": "\u8aac\u660e",
        "P_PARAM_UP_EXT": "",
        "P_DOUBLE_SPHERE_TRIGGER": "0,0,0,0",
        "HMt6u09X": "2",
        "P_NEED_SWITCH_INFO": "0",
        "P_HIDE_SWITCH_INFO": "0",
        "P_OPEN_SWITCH_INFO": "40000026",
        "P_CREATEDATE": "2018-02-16 21:30:53",
        "P_UPDATEDATE": "2018-02-16 21:30:53"
    },
    {
        "P_ARMS_ID": "500363",
        "P_ARMS_NAME": "\u5149\u5178\u30d5\u30a7\u30ea\u30a8\u30fc\u30eb",
        "8Cx57oAk": "\u5149\u5178\u30d5\u30a7",
        "P_SUMMONER_ID": "2",
        "P_RARE": "4",
        "gvT2ds0Q": "6",
        "P_SERIES": "50036",
        "P_ROLE": "5",
        "P_KIND": "0",
        "P_MAX_LV": "60",
        "P_PATTERN_ID": "10",
        "P_GROWTH_TYPE": "1",
        "P_MIN_HP": "2158",
        "P_MAX_HP": "2590",
        "P_MIN_ATK": "413",
        "P_MAX_ATK": "495",
        "P_MIN_DEF": "517",
        "P_MAX_DEF": "621",
        "P_MIN_MDEF": "612",
        "P_MAX_MDEF": "734",
        "P_PARAM_MAX": "0,0,0,0",
        "P_STATUS_RESIST": "0,0,0,0,0,0",
        "P_ELEMENT": "5",
        "P_ATK_PARTITION": "0,100",
        "P_EFFECT_PROCESS_ID": "50036300",
        "P_MOVE_SPEED": "1",
        "P_MOVE_TYPE1": "3",
        "P_MOVE_TYPE2": "4",
        "P_MOVE_TYPE_SKILL": "3",
        "P_MOVE_OFFSET": "0,0",
        "P_AFTERIMAGE": "0",
        "P_AI_TYPE": "100",
        "P_SKILL_INFO": "50036301",
        "P_ALT_SKILL_INFO": "",
        "P_ALT_SKILL_P": "2",
        "P_PASSIVE_SKILL_GROUP_INFO": "",
        "f91oUy7C": "30:50036301:2,60:50036302:2",
        "P_LEADER_SKILL_INFO": "1008002",
        "P_DISPORDER": "34",
        "P_SOUND_SETTING": "",
        "P_DISP_DICTIONARY": "1",
        "P_DICTIONARY_NO": "1",
        "P_DICTIONARY_BG": "34",
        "P_EXT_IMG_PARAM": "\u8aac\u660e",
        "P_PARAM_UP_EXT": "",
        "P_DOUBLE_SPHERE_TRIGGER": "0,0,0,0",
        "HMt6u09X": "3",
        "P_NEED_SWITCH_INFO": "0",
        "P_HIDE_SWITCH_INFO": "0",
        "P_OPEN_SWITCH_INFO": "40000034",
        "P_CREATEDATE": "2018-02-16 21:30:53",
        "P_UPDATEDATE": "2018-02-16 21:30:53"
    },
    {
        "P_ARMS_ID": "500374",
        "P_ARMS_NAME": "\u8f1d\u8056\u5178\u30d7\u30ec\u30f3\u30b7\u30a7\u30a2",
        "8Cx57oAk": "\u8f1d\u5178\u30d7\u30ec",
        "P_SUMMONER_ID": "2",
        "P_RARE": "5",
        "gvT2ds0Q": "8",
        "P_SERIES": "50036",
        "P_ROLE": "5",
        "P_KIND": "0",
        "P_MAX_LV": "80",
        "P_PATTERN_ID": "10",
        "P_GROWTH_TYPE": "1",
        "P_MIN_HP": "2590",
        "P_MAX_HP": "3108",
        "P_MIN_ATK": "495",
        "P_MAX_ATK": "594",
        "P_MIN_DEF": "621",
        "P_MAX_DEF": "745",
        "P_MIN_MDEF": "734",
        "P_MAX_MDEF": "881",
        "P_PARAM_MAX": "0,0,0,0",
        "P_STATUS_RESIST": "0,0,0,0,0,0",
        "P_ELEMENT": "5",
        "P_ATK_PARTITION": "0,100",
        "P_EFFECT_PROCESS_ID": "50037400",
        "P_MOVE_SPEED": "1",
        "P_MOVE_TYPE1": "3",
        "P_MOVE_TYPE2": "4",
        "P_MOVE_TYPE_SKILL": "3",
        "P_MOVE_OFFSET": "0,0",
        "P_AFTERIMAGE": "0",
        "P_AI_TYPE": "100",
        "P_SKILL_INFO": "50037401,50037402",
        "P_ALT_SKILL_INFO": "",
        "P_ALT_SKILL_P": "3",
        "P_PASSIVE_SKILL_GROUP_INFO": "",
        "f91oUy7C": "70:50037401:2,80:50037402:2",
        "P_LEADER_SKILL_INFO": "1008003",
        "P_DISPORDER": "35",
        "P_SOUND_SETTING": "",
        "P_DISP_DICTIONARY": "1",
        "P_DICTIONARY_NO": "1",
        "P_DICTIONARY_BG": "35",
        "P_EXT_IMG_PARAM": "\u8aac\u660e",
        "P_PARAM_UP_EXT": "",
        "P_DOUBLE_SPHERE_TRIGGER": "0,0,0,0",
        "HMt6u09X": "4",
        "P_NEED_SWITCH_INFO": "0",
        "P_HIDE_SWITCH_INFO": "0",
        "P_OPEN_SWITCH_INFO": "40000035",
        "P_CREATEDATE": "2018-02-16 21:30:53",
        "P_UPDATEDATE": "2018-02-16 21:30:53"
    },
    {
        "P_ARMS_ID": "600184",
        "P_ARMS_NAME": "\u95c7\u7a7f\u5f13\u30d3\u30e5\u30cb\u30b7\u30af",
        "8Cx57oAk": "\u95c7\u5f13\u30d3\u30cb",
        "P_SUMMONER_ID": "1",
        "P_RARE": "5",
        "gvT2ds0Q": "5",
        "P_SERIES": "20017",
        "P_ROLE": "4",
        "P_KIND": "0",
        "P_MAX_LV": "80",
        "P_PATTERN_ID": "10",
        "P_GROWTH_TYPE": "1",
        "P_MIN_HP": "2612",
        "P_MAX_HP": "3134",
        "P_MIN_ATK": "619",
        "P_MAX_ATK": "743",
        "P_MIN_DEF": "579",
        "P_MAX_DEF": "695",
        "P_MIN_MDEF": "607",
        "P_MAX_MDEF": "728",
        "P_PARAM_MAX": "0,0,0,0",
        "P_STATUS_RESIST": "0,0,0,0,0,0",
        "P_ELEMENT": "6",
        "P_ATK_PARTITION": "50,50",
        "P_EFFECT_PROCESS_ID": "60018400",
        "P_MOVE_SPEED": "2",
        "P_MOVE_TYPE1": "3",
        "P_MOVE_TYPE2": "4",
        "P_MOVE_TYPE_SKILL": "3",
        "P_MOVE_OFFSET": "0,0",
        "P_AFTERIMAGE": "0",
        "P_AI_TYPE": "100",
        "P_SKILL_INFO": "60018401,60018402",
        "P_ALT_SKILL_INFO": "",
        "P_ALT_SKILL_P": "4",
        "P_PASSIVE_SKILL_GROUP_INFO": "",
        "f91oUy7C": "60:60018401:2,80:60018402:2",
        "P_LEADER_SKILL_INFO": "5020007",
        "P_DISPORDER": "13",
        "P_SOUND_SETTING": "",
        "P_DISP_DICTIONARY": "1",
        "P_DICTIONARY_NO": "1",
        "P_DICTIONARY_BG": "13",
        "P_EXT_IMG_PARAM": "\u8aac\u660e",
        "P_PARAM_UP_EXT": "",
        "P_DOUBLE_SPHERE_TRIGGER": "0,0,0,0",
        "HMt6u09X": "2",
        "P_NEED_SWITCH_INFO": "0",
        "P_HIDE_SWITCH_INFO": "0",
        "P_OPEN_SWITCH_INFO": "40000013",
        "P_CREATEDATE": "2018-02-16 21:30:53",
        "P_UPDATEDATE": "2018-02-16 21:30:53"
    },
    {
        "P_ARMS_ID": "600193",
        "P_ARMS_NAME": "\u5875\u65a7\u30d0\u30eb\u30b0\u30e9\u30e0",
        "8Cx57oAk": "\u5875\u65a7\u30d0\u30eb",
        "P_SUMMONER_ID": "1",
        "P_RARE": "4",
        "gvT2ds0Q": "4",
        "P_SERIES": "60019",
        "P_ROLE": "1",
        "P_KIND": "0",
        "P_MAX_LV": "60",
        "P_PATTERN_ID": "10",
        "P_GROWTH_TYPE": "1",
        "P_MIN_HP": "2208",
        "P_MAX_HP": "2649",
        "P_MIN_ATK": "610",
        "P_MAX_ATK": "732",
        "P_MIN_DEF": "497",
        "P_MAX_DEF": "596",
        "P_MIN_MDEF": "436",
        "P_MAX_MDEF": "523",
        "P_PARAM_MAX": "0,0,0,0",
        "P_STATUS_RESIST": "0,0,0,0,0,0",
        "P_ELEMENT": "6",
        "P_ATK_PARTITION": "100,0",
        "P_EFFECT_PROCESS_ID": "60019300",
        "P_MOVE_SPEED": "3",
        "P_MOVE_TYPE1": "1",
        "P_MOVE_TYPE2": "4",
        "P_MOVE_TYPE_SKILL": "1",
        "P_MOVE_OFFSET": "0,0",
        "P_AFTERIMAGE": "0",
        "P_AI_TYPE": "100",
        "P_SKILL_INFO": "60019301",
        "P_ALT_SKILL_INFO": "",
        "P_ALT_SKILL_P": "3",
        "P_PASSIVE_SKILL_GROUP_INFO": "",
        "f91oUy7C": "1:60019301:2",
        "P_LEADER_SKILL_INFO": "3010001",
        "P_DISPORDER": "14",
        "P_SOUND_SETTING": "",
        "P_DISP_DICTIONARY": "1",
        "P_DICTIONARY_NO": "1",
        "P_DICTIONARY_BG": "14",
        "P_EXT_IMG_PARAM": "\u8aac\u660e",
        "P_PARAM_UP_EXT": "",
        "P_DOUBLE_SPHERE_TRIGGER": "0,0,0,0",
        "HMt6u09X": "2",
        "P_NEED_SWITCH_INFO": "0",
        "P_HIDE_SWITCH_INFO": "0",
        "P_OPEN_SWITCH_INFO": "40000014",
        "P_CREATEDATE": "2018-02-16 21:30:53",
        "P_UPDATEDATE": "2018-02-16 21:30:53"
    },
    {
        "P_ARMS_ID": "600204",
        "P_ARMS_NAME": "\u9b54\u65cb\u51a5\u621f\u30f4\u30a1\u30eb\u30cb\u30ab",
        "8Cx57oAk": "\u9b54\u621f\u30f4\u30a1",
        "P_SUMMONER_ID": "1",
        "P_RARE": "5",
        "gvT2ds0Q": "5",
        "P_SERIES": "60019",
        "P_ROLE": "1",
        "P_KIND": "0",
        "P_MAX_LV": "80",
        "P_PATTERN_ID": "10",
        "P_GROWTH_TYPE": "1",
        "P_MIN_HP": "2649",
        "P_MAX_HP": "3179",
        "P_MIN_ATK": "732",
        "P_MAX_ATK": "878",
        "P_MIN_DEF": "596",
        "P_MAX_DEF": "715",
        "P_MIN_MDEF": "523",
        "P_MAX_MDEF": "628",
        "P_PARAM_MAX": "0,0,0,0",
        "P_STATUS_RESIST": "0,0,0,0,0,0",
        "P_ELEMENT": "6",
        "P_ATK_PARTITION": "100,0",
        "P_EFFECT_PROCESS_ID": "60020400",
        "P_MOVE_SPEED": "2",
        "P_MOVE_TYPE1": "1",
        "P_MOVE_TYPE2": "4",
        "P_MOVE_TYPE_SKILL": "1",
        "P_MOVE_OFFSET": "0,0",
        "P_AFTERIMAGE": "0",
        "P_AI_TYPE": "100",
        "P_SKILL_INFO": "60020401,60020402",
        "P_ALT_SKILL_INFO": "",
        "P_ALT_SKILL_P": "4",
        "P_PASSIVE_SKILL_GROUP_INFO": "",
        "f91oUy7C": "80:60020401:2",
        "P_LEADER_SKILL_INFO": "3010002",
        "P_DISPORDER": "15",
        "P_SOUND_SETTING": "",
        "P_DISP_DICTIONARY": "1",
        "P_DICTIONARY_NO": "1",
        "P_DICTIONARY_BG": "15",
        "P_EXT_IMG_PARAM": "\u8aac\u660e",
        "P_PARAM_UP_EXT": "",
        "P_DOUBLE_SPHERE_TRIGGER": "0,0,0,0",
        "HMt6u09X": "2",
        "P_NEED_SWITCH_INFO": "0",
        "P_HIDE_SWITCH_INFO": "0",
        "P_OPEN_SWITCH_INFO": "40000015",
        "P_CREATEDATE": "2018-02-16 21:30:53",
        "P_UPDATEDATE": "2018-02-16 21:30:53"
    },
    {
        "P_ARMS_ID": "600354",
        "P_ARMS_NAME": "\u6bb2\u88c2\u97ad\u30ea\u30b9\u30c6\u30a3\u30b9",
        "8Cx57oAk": "\u6bb2\u97ad\u30ea\u30b9",
        "P_SUMMONER_ID": "2",
        "P_RARE": "5",
        "gvT2ds0Q": "6",
        "P_SERIES": "20032",
        "P_ROLE": "1",
        "P_KIND": "0",
        "P_MAX_LV": "80",
        "P_PATTERN_ID": "10",
        "P_GROWTH_TYPE": "1",
        "P_MIN_HP": "2825",
        "P_MAX_HP": "3390",
        "P_MIN_ATK": "558",
        "P_MAX_ATK": "670",
        "P_MIN_DEF": "575",
        "P_MAX_DEF": "690",
        "P_MIN_MDEF": "583",
        "P_MAX_MDEF": "700",
        "P_PARAM_MAX": "0,0,0,0",
        "P_STATUS_RESIST": "0,0,0,0,0,0",
        "P_ELEMENT": "6",
        "P_ATK_PARTITION": "100,0",
        "P_EFFECT_PROCESS_ID": "60035400",
        "P_MOVE_SPEED": "2",
        "P_MOVE_TYPE1": "1",
        "P_MOVE_TYPE2": "4",
        "P_MOVE_TYPE_SKILL": "1",
        "P_MOVE_OFFSET": "0,0",
        "P_AFTERIMAGE": "0",
        "P_AI_TYPE": "100",
        "P_SKILL_INFO": "60035401,60035402",
        "P_ALT_SKILL_INFO": "",
        "P_ALT_SKILL_P": "3",
        "P_PASSIVE_SKILL_GROUP_INFO": "",
        "f91oUy7C": "60:60035401:2,80:60035402:2",
        "P_LEADER_SKILL_INFO": "1001004",
        "P_DISPORDER": "33",
        "P_SOUND_SETTING": "",
        "P_DISP_DICTIONARY": "1",
        "P_DICTIONARY_NO": "1",
        "P_DICTIONARY_BG": "33",
        "P_EXT_IMG_PARAM": "\u8aac\u660e",
        "P_PARAM_UP_EXT": "",
        "P_DOUBLE_SPHERE_TRIGGER": "0,0,0,0",
        "HMt6u09X": "3",
        "P_NEED_SWITCH_INFO": "0",
        "P_HIDE_SWITCH_INFO": "0",
        "P_OPEN_SWITCH_INFO": "40000033",
        "P_CREATEDATE": "2018-02-16 21:30:53",
        "P_UPDATEDATE": "2018-02-16 21:30:53"
    }
]