[
    {
        "P_ARMS_ID": "100102",
        "P_ARMS_NAME": "\u708e\u5263\u30e9\u30e0\u30ab",
        "8Cx57oAk": "\u708e\u5263\u30e9\u30e0",
        "P_SUMMONER_ID": "1",
        "P_RARE": "3",
        "gvT2ds0Q": "3",
        "P_SERIES": "10010",
        "P_ROLE": "1",
        "P_KIND": "0",
        "P_MAX_LV": "20",
        "P_PATTERN_ID": "10",
        "P_GROWTH_TYPE": "1",
        "P_MIN_HP": "1527",
        "P_MAX_HP": "1863",
        "P_MIN_ATK": "342",
        "P_MAX_ATK": "421",
        "P_MIN_DEF": "342",
        "P_MAX_DEF": "421",
        "P_MIN_MDEF": "337",
        "P_MAX_MDEF": "415",
        "P_PARAM_MAX": "0,0,0,0",
        "P_STATUS_RESIST": "0,0,0,0,0,0",
        "P_ELEMENT": "1",
        "P_ATK_PARTITION": "100,0",
        "P_EFFECT_PROCESS_ID": "10010200",
        "P_MOVE_SPEED": "3",
        "P_MOVE_TYPE1": "1",
        "P_MOVE_TYPE2": "4",
        "P_MOVE_TYPE_SKILL": "1",
        "P_MOVE_OFFSET": "-55,0",
        "P_AFTERIMAGE": "0",
        "P_AI_TYPE": "100",
        "P_SKILL_INFO": "10010201",
        "P_ALT_SKILL_INFO": "",
        "P_ALT_SKILL_P": "2",
        "P_PASSIVE_SKILL_GROUP_INFO": "",
        "f91oUy7C": "1:10010201:2",
        "P_LEADER_SKILL_INFO": "1001002",
        "P_DISPORDER": "1",
        "P_SOUND_SETTING": "",
        "P_DISP_DICTIONARY": "1",
        "P_DICTIONARY_NO": "1",
        "P_DICTIONARY_BG": "1",
        "P_EXT_IMG_PARAM": "\u8aac\u660e",
        "P_PARAM_UP_EXT": "",
        "P_DOUBLE_SPHERE_TRIGGER": "0,0,0,0",
        "HMt6u09X": "1",
        "P_NEED_SWITCH_INFO": "1",
        "P_HIDE_SWITCH_INFO": "",
        "P_OPEN_SWITCH_INFO": "",
        "P_CREATEDATE": "2018-02-02 19:30:14",
        "P_UPDATEDATE": "2018-02-02 19:30:14"
    },
    {
        "P_ARMS_ID": "100113",
        "P_ARMS_NAME": "\u8f1d\u714c\u5263\u30b0\u30ea\u30b9\u30bf\u30c3\u30c9",
        "8Cx57oAk": "\u8f1d\u714c\u30b0\u30ea",
        "P_SUMMONER_ID": "1",
        "P_RARE": "4",
        "gvT2ds0Q": "4",
        "P_SERIES": "10010",
        "P_ROLE": "1",
        "P_KIND": "0",
        "P_MAX_LV": "60",
        "P_PATTERN_ID": "10",
        "P_GROWTH_TYPE": "1",
        "P_MIN_HP": "2152",
        "P_MAX_HP": "2583",
        "P_MIN_ATK": "471",
        "P_MAX_ATK": "566",
        "P_MIN_DEF": "475",
        "P_MAX_DEF": "570",
        "P_MIN_MDEF": "468",
        "P_MAX_MDEF": "562",
        "P_PARAM_MAX": "0,0,0,0",
        "P_STATUS_RESIST": "0,0,0,0,0,0",
        "P_ELEMENT": "1",
        "P_ATK_PARTITION": "100,0",
        "P_EFFECT_PROCESS_ID": "10011300",
        "P_MOVE_SPEED": "3",
        "P_MOVE_TYPE1": "1",
        "P_MOVE_TYPE2": "4",
        "P_MOVE_TYPE_SKILL": "1",
        "P_MOVE_OFFSET": "0,0",
        "P_AFTERIMAGE": "0",
        "P_AI_TYPE": "100",
        "P_SKILL_INFO": "10011301",
        "P_ALT_SKILL_INFO": "",
        "P_ALT_SKILL_P": "3",
        "P_PASSIVE_SKILL_GROUP_INFO": "",
        "f91oUy7C": "60:10011301:2",
        "P_LEADER_SKILL_INFO": "1001003",
        "P_DISPORDER": "2",
        "P_SOUND_SETTING": "",
        "P_DISP_DICTIONARY": "1",
        "P_DICTIONARY_NO": "1",
        "P_DICTIONARY_BG": "2",
        "P_EXT_IMG_PARAM": "\u8aac\u660e",
        "P_PARAM_UP_EXT": "",
        "P_DOUBLE_SPHERE_TRIGGER": "0,0,0,0",
        "HMt6u09X": "2",
        "P_NEED_SWITCH_INFO": "1",
        "P_HIDE_SWITCH_INFO": "",
        "P_OPEN_SWITCH_INFO": "",
        "P_CREATEDATE": "2018-02-02 19:30:14",
        "P_UPDATEDATE": "2018-02-02 19:30:14"
    },
    {
        "P_ARMS_ID": "100124",
        "P_ARMS_NAME": "\u7114\u5e1d\u5263\u30ed\u30ae\u30a2",
        "8Cx57oAk": "\u7114\u5e1d\u30ed\u30ae",
        "P_SUMMONER_ID": "1",
        "P_RARE": "5",
        "gvT2ds0Q": "5",
        "P_SERIES": "10010",
        "P_ROLE": "1",
        "P_KIND": "0",
        "P_MAX_LV": "80",
        "P_PATTERN_ID": "10",
        "P_GROWTH_TYPE": "1",
        "P_MIN_HP": "2583",
        "P_MAX_HP": "3100",
        "P_MIN_ATK": "566",
        "P_MAX_ATK": "680",
        "P_MIN_DEF": "570",
        "P_MAX_DEF": "685",
        "P_MIN_MDEF": "562",
        "P_MAX_MDEF": "675",
        "P_PARAM_MAX": "0,0,0,0",
        "P_STATUS_RESIST": "0,0,0,0,0,0",
        "P_ELEMENT": "1",
        "P_ATK_PARTITION": "100,0",
        "P_EFFECT_PROCESS_ID": "10012400",
        "P_MOVE_SPEED": "3",
        "P_MOVE_TYPE1": "1",
        "P_MOVE_TYPE2": "4",
        "P_MOVE_TYPE_SKILL": "1",
        "P_MOVE_OFFSET": "0,0",
        "P_AFTERIMAGE": "0",
        "P_AI_TYPE": "100",
        "P_SKILL_INFO": "10012401,10012402",
        "P_ALT_SKILL_INFO": "",
        "P_ALT_SKILL_P": "4",
        "P_PASSIVE_SKILL_GROUP_INFO": "",
        "f91oUy7C": "70:10012401:2,80:10012402:2",
        "P_LEADER_SKILL_INFO": "1001004",
        "P_DISPORDER": "3",
        "P_SOUND_SETTING": "",
        "P_DISP_DICTIONARY": "1",
        "P_DICTIONARY_NO": "1",
        "P_DICTIONARY_BG": "3",
        "P_EXT_IMG_PARAM": "\u8aac\u660e",
        "P_PARAM_UP_EXT": "",
        "P_DOUBLE_SPHERE_TRIGGER": "0,0,0,0",
        "HMt6u09X": "2",
        "P_NEED_SWITCH_INFO": "1",
        "P_HIDE_SWITCH_INFO": "",
        "P_OPEN_SWITCH_INFO": "",
        "P_CREATEDATE": "2018-02-02 19:30:14",
        "P_UPDATEDATE": "2018-02-02 19:30:14"
    },
    {
        "P_ARMS_ID": "100214",
        "P_ARMS_NAME": "\u5d29\u6ec5\u5203\u30a2\u30eb\u30ac\u30fb\u30de\u30bf",
        "8Cx57oAk": "\u5d29\u6ec5\u30de\u30bf",
        "P_SUMMONER_ID": "1",
        "P_RARE": "5",
        "gvT2ds0Q": "5",
        "P_SERIES": "60019",
        "P_ROLE": "4",
        "P_KIND": "0",
        "P_MAX_LV": "80",
        "P_PATTERN_ID": "10",
        "P_GROWTH_TYPE": "1",
        "P_MIN_HP": "2750",
        "P_MAX_HP": "3300",
        "P_MIN_ATK": "608",
        "P_MAX_ATK": "730",
        "P_MIN_DEF": "566",
        "P_MAX_DEF": "680",
        "P_MIN_MDEF": "583",
        "P_MAX_MDEF": "700",
        "P_PARAM_MAX": "0,0,0,0",
        "P_STATUS_RESIST": "0,0,0,0,0,0",
        "P_ELEMENT": "1",
        "P_ATK_PARTITION": "60,40",
        "P_EFFECT_PROCESS_ID": "10021400",
        "P_MOVE_SPEED": "3",
        "P_MOVE_TYPE1": "1",
        "P_MOVE_TYPE2": "4",
        "P_MOVE_TYPE_SKILL": "1",
        "P_MOVE_OFFSET": "0,0",
        "P_AFTERIMAGE": "0",
        "P_AI_TYPE": "100",
        "P_SKILL_INFO": "10021401,10021402",
        "P_ALT_SKILL_INFO": "",
        "P_ALT_SKILL_P": "4",
        "P_PASSIVE_SKILL_GROUP_INFO": "",
        "f91oUy7C": "60:10021401:2,80:10021402:2",
        "P_LEADER_SKILL_INFO": "3020002",
        "P_DISPORDER": "16",
        "P_SOUND_SETTING": "",
        "P_DISP_DICTIONARY": "1",
        "P_DICTIONARY_NO": "1",
        "P_DICTIONARY_BG": "16",
        "P_EXT_IMG_PARAM": "\u8aac\u660e",
        "P_PARAM_UP_EXT": "",
        "P_DOUBLE_SPHERE_TRIGGER": "0,0,0,0",
        "HMt6u09X": "2",
        "P_NEED_SWITCH_INFO": "1",
        "P_HIDE_SWITCH_INFO": "",
        "P_OPEN_SWITCH_INFO": "",
        "P_CREATEDATE": "2018-02-02 19:30:14",
        "P_UPDATEDATE": "2018-02-02 19:30:14"
    },
    {
        "P_ARMS_ID": "100313",
        "P_ARMS_NAME": "\u525b\u70c8\u68cd\u300e\u7114\u64f2\u300f",
        "8Cx57oAk": "\u525b\u70c8\u68cd\u7114",
        "P_SUMMONER_ID": "2",
        "P_RARE": "4",
        "gvT2ds0Q": "4",
        "P_SERIES": "40027",
        "P_ROLE": "6",
        "P_KIND": "0",
        "P_MAX_LV": "60",
        "P_PATTERN_ID": "10",
        "P_GROWTH_TYPE": "1",
        "P_MIN_HP": "2375",
        "P_MAX_HP": "2850",
        "P_MIN_ATK": "458",
        "P_MAX_ATK": "550",
        "P_MIN_DEF": "492",
        "P_MAX_DEF": "591",
        "P_MIN_MDEF": "485",
        "P_MAX_MDEF": "583",
        "P_PARAM_MAX": "0,0,0,0",
        "P_STATUS_RESIST": "0,0,0,0,0,0",
        "P_ELEMENT": "1",
        "P_ATK_PARTITION": "100,0",
        "P_EFFECT_PROCESS_ID": "10031300",
        "P_MOVE_SPEED": "3",
        "P_MOVE_TYPE1": "1",
        "P_MOVE_TYPE2": "4",
        "P_MOVE_TYPE_SKILL": "1",
        "P_MOVE_OFFSET": "0,0",
        "P_AFTERIMAGE": "0",
        "P_AI_TYPE": "100",
        "P_SKILL_INFO": "10031301",
        "P_ALT_SKILL_INFO": "",
        "P_ALT_SKILL_P": "2",
        "P_PASSIVE_SKILL_GROUP_INFO": "",
        "f91oUy7C": "60:10031301:2",
        "P_LEADER_SKILL_INFO": "1001003",
        "P_DISPORDER": "27",
        "P_SOUND_SETTING": "",
        "P_DISP_DICTIONARY": "1",
        "P_DICTIONARY_NO": "1",
        "P_DICTIONARY_BG": "27",
        "P_EXT_IMG_PARAM": "\u8aac\u660e",
        "P_PARAM_UP_EXT": "",
        "P_DOUBLE_SPHERE_TRIGGER": "0,0,0,0",
        "HMt6u09X": "2",
        "P_NEED_SWITCH_INFO": "1",
        "P_HIDE_SWITCH_INFO": "",
        "P_OPEN_SWITCH_INFO": "",
        "P_CREATEDATE": "2018-02-02 19:30:14",
        "P_UPDATEDATE": "2018-02-02 19:30:14"
    },
    {
        "P_ARMS_ID": "100314",
        "P_ARMS_NAME": "\u81e5\u7114\u9023\u88c5\u300e\u5239\u6e26\u708e\u300f",
        "8Cx57oAk": "\u81e5\u9023\u5239\u6e26",
        "P_SUMMONER_ID": "2",
        "P_RARE": "5",
        "gvT2ds0Q": "6",
        "P_SERIES": "40027",
        "P_ROLE": "6",
        "P_KIND": "0",
        "P_MAX_LV": "80",
        "P_PATTERN_ID": "10",
        "P_GROWTH_TYPE": "1",
        "P_MIN_HP": "2850",
        "P_MAX_HP": "3420",
        "P_MIN_ATK": "550",
        "P_MAX_ATK": "660",
        "P_MIN_DEF": "591",
        "P_MAX_DEF": "710",
        "P_MIN_MDEF": "583",
        "P_MAX_MDEF": "700",
        "P_PARAM_MAX": "0,0,0,0",
        "P_STATUS_RESIST": "0,0,0,0,0,0",
        "P_ELEMENT": "1",
        "P_ATK_PARTITION": "100,0",
        "P_EFFECT_PROCESS_ID": "10031400",
        "P_MOVE_SPEED": "3",
        "P_MOVE_TYPE1": "1",
        "P_MOVE_TYPE2": "4",
        "P_MOVE_TYPE_SKILL": "1",
        "P_MOVE_OFFSET": "0,0",
        "P_AFTERIMAGE": "0",
        "P_AI_TYPE": "100",
        "P_SKILL_INFO": "10031401,10031402",
        "P_ALT_SKILL_INFO": "",
        "P_ALT_SKILL_P": "3",
        "P_PASSIVE_SKILL_GROUP_INFO": "",
        "f91oUy7C": "70:10031401:2,80:10031402:2",
        "P_LEADER_SKILL_INFO": "1001004",
        "P_DISPORDER": "28",
        "P_SOUND_SETTING": "",
        "P_DISP_DICTIONARY": "1",
        "P_DICTIONARY_NO": "1",
        "P_DICTIONARY_BG": "28",
        "P_EXT_IMG_PARAM": "\u8aac\u660e",
        "P_PARAM_UP_EXT": "",
        "P_DOUBLE_SPHERE_TRIGGER": "0,0,0,0",
        "HMt6u09X": "3",
        "P_NEED_SWITCH_INFO": "1",
        "P_HIDE_SWITCH_INFO": "",
        "P_OPEN_SWITCH_INFO": "",
        "P_CREATEDATE": "2018-02-02 19:30:14",
        "P_UPDATEDATE": "2018-02-02 19:30:14"
    },
    {
        "P_ARMS_ID": "200164",
        "P_ARMS_NAME": "\u84bc\u885b\u93a7\u30ab\u30ea\u30e5\u30fc\u30bf",
        "8Cx57oAk": "\u84bc\u93a7\u30ab\u30ea",
        "P_SUMMONER_ID": "1",
        "P_RARE": "5",
        "gvT2ds0Q": "6",
        "P_SERIES": "30014",
        "P_ROLE": "2",
        "P_KIND": "0",
        "P_MAX_LV": "80",
        "P_PATTERN_ID": "10",
        "P_GROWTH_TYPE": "1",
        "P_MIN_HP": "3000",
        "P_MAX_HP": "3600",
        "P_MIN_ATK": "541",
        "P_MAX_ATK": "650",
        "P_MIN_DEF": "600",
        "P_MAX_DEF": "720",
        "P_MIN_MDEF": "591",
        "P_MAX_MDEF": "710",
        "P_PARAM_MAX": "0,0,0,0",
        "P_STATUS_RESIST": "0,0,0,0,0,0",
        "P_ELEMENT": "2",
        "P_ATK_PARTITION": "100,0",
        "P_EFFECT_PROCESS_ID": "20016400",
        "P_MOVE_SPEED": "2",
        "P_MOVE_TYPE1": "1",
        "P_MOVE_TYPE2": "4",
        "P_MOVE_TYPE_SKILL": "1",
        "P_MOVE_OFFSET": "0,0",
        "P_AFTERIMAGE": "0",
        "P_AI_TYPE": "100",
        "P_SKILL_INFO": "20016401,20016402",
        "P_ALT_SKILL_INFO": "",
        "P_ALT_SKILL_P": "4",
        "P_PASSIVE_SKILL_GROUP_INFO": "",
        "f91oUy7C": "60:20016401:2,80:20016402:2",
        "P_LEADER_SKILL_INFO": "1009003",
        "P_DISPORDER": "9",
        "P_SOUND_SETTING": "",
        "P_DISP_DICTIONARY": "1",
        "P_DICTIONARY_NO": "1",
        "P_DICTIONARY_BG": "9",
        "P_EXT_IMG_PARAM": "\u8aac\u660e",
        "P_PARAM_UP_EXT": "",
        "P_DOUBLE_SPHERE_TRIGGER": "0,0,0,0",
        "HMt6u09X": "3",
        "P_NEED_SWITCH_INFO": "1",
        "P_HIDE_SWITCH_INFO": "",
        "P_OPEN_SWITCH_INFO": "",
        "P_CREATEDATE": "2018-02-02 19:30:14",
        "P_UPDATEDATE": "2018-02-02 19:30:14"
    },
    {
        "P_ARMS_ID": "200172",
        "P_ARMS_NAME": "\u6e05\u6756\u30c8\u30eb\u30af\u30fc\u30ec",
        "8Cx57oAk": "\u6e05\u6756\u30c8\u30eb",
        "P_SUMMONER_ID": "1",
        "P_RARE": "3",
        "gvT2ds0Q": "4",
        "P_SERIES": "20017",
        "P_ROLE": "6",
        "P_KIND": "0",
        "P_MAX_LV": "40",
        "P_PATTERN_ID": "10",
        "P_GROWTH_TYPE": "1",
        "P_MIN_HP": "1816",
        "P_MAX_HP": "2180",
        "P_MIN_ATK": "358",
        "P_MAX_ATK": "430",
        "P_MIN_DEF": "404",
        "P_MAX_DEF": "485",
        "P_MIN_MDEF": "421",
        "P_MAX_MDEF": "506",
        "P_PARAM_MAX": "0,0,0,0",
        "P_STATUS_RESIST": "0,0,0,0,0,0",
        "P_ELEMENT": "2",
        "P_ATK_PARTITION": "0,100",
        "P_EFFECT_PROCESS_ID": "20017200",
        "P_MOVE_SPEED": "2",
        "P_MOVE_TYPE1": "3",
        "P_MOVE_TYPE2": "4",
        "P_MOVE_TYPE_SKILL": "3",
        "P_MOVE_OFFSET": "0,0",
        "P_AFTERIMAGE": "0",
        "P_AI_TYPE": "100",
        "P_SKILL_INFO": "20017201",
        "P_ALT_SKILL_INFO": "",
        "P_ALT_SKILL_P": "2",
        "P_PASSIVE_SKILL_GROUP_INFO": "",
        "f91oUy7C": "1:20017201:2,40:20017202:2",
        "P_LEADER_SKILL_INFO": "1003002",
        "P_DISPORDER": "10",
        "P_SOUND_SETTING": "",
        "P_DISP_DICTIONARY": "1",
        "P_DICTIONARY_NO": "1",
        "P_DICTIONARY_BG": "10",
        "P_EXT_IMG_PARAM": "\u8aac\u660e",
        "P_PARAM_UP_EXT": "",
        "P_DOUBLE_SPHERE_TRIGGER": "0,0,0,0",
        "HMt6u09X": "2",
        "P_NEED_SWITCH_INFO": "1",
        "P_HIDE_SWITCH_INFO": "",
        "P_OPEN_SWITCH_INFO": "",
        "P_CREATEDATE": "2018-02-02 19:30:14",
        "P_UPDATEDATE": "2018-02-02 19:30:14"
    },
    {
        "P_ARMS_ID": "200173",
        "P_ARMS_NAME": "\u8056\u8b83\u6756\u30b5\u30fc\u30af\u30ea\u30c3\u30c8",
        "8Cx57oAk": "\u8056\u6756\u30b5\u30af",
        "P_SUMMONER_ID": "1",
        "P_RARE": "4",
        "gvT2ds0Q": "5",
        "P_SERIES": "20017",
        "P_ROLE": "6",
        "P_KIND": "0",
        "P_MAX_LV": "60",
        "P_PATTERN_ID": "10",
        "P_GROWTH_TYPE": "1",
        "P_MIN_HP": "2180",
        "P_MAX_HP": "2616",
        "P_MIN_ATK": "430",
        "P_MAX_ATK": "516",
        "P_MIN_DEF": "485",
        "P_MAX_DEF": "583",
        "P_MIN_MDEF": "506",
        "P_MAX_MDEF": "608",
        "P_PARAM_MAX": "0,0,0,0",
        "P_STATUS_RESIST": "0,0,0,0,0,0",
        "P_ELEMENT": "2",
        "P_ATK_PARTITION": "0,100",
        "P_EFFECT_PROCESS_ID": "20017300",
        "P_MOVE_SPEED": "2",
        "P_MOVE_TYPE1": "3",
        "P_MOVE_TYPE2": "4",
        "P_MOVE_TYPE_SKILL": "3",
        "P_MOVE_OFFSET": "0,0",
        "P_AFTERIMAGE": "0",
        "P_AI_TYPE": "100",
        "P_SKILL_INFO": "20017301",
        "P_ALT_SKILL_INFO": "",
        "P_ALT_SKILL_P": "3",
        "P_PASSIVE_SKILL_GROUP_INFO": "",
        "f91oUy7C": "50:20017301:2,60:20017302:2",
        "P_LEADER_SKILL_INFO": "1003003",
        "P_DISPORDER": "11",
        "P_SOUND_SETTING": "",
        "P_DISP_DICTIONARY": "1",
        "P_DICTIONARY_NO": "1",
        "P_DICTIONARY_BG": "11",
        "P_EXT_IMG_PARAM": "\u8aac\u660e",
        "P_PARAM_UP_EXT": "",
        "P_DOUBLE_SPHERE_TRIGGER": "0,0,0,0",
        "HMt6u09X": "2",
        "P_NEED_SWITCH_INFO": "1",
        "P_HIDE_SWITCH_INFO": "",
        "P_OPEN_SWITCH_INFO": "",
        "P_CREATEDATE": "2018-02-02 19:30:14",
        "P_UPDATEDATE": "2018-02-02 19:30:14"
    },
    {
        "P_ARMS_ID": "200174",
        "P_ARMS_NAME": "\u8056\u5c0e\u6a19\u6756\u30ec\u30eb\u30af\u30ec\u30a4\u30f3",
        "8Cx57oAk": "\u8056\u5c0e\u30ec\u30eb",
        "P_SUMMONER_ID": "1",
        "P_RARE": "5",
        "gvT2ds0Q": "6",
        "P_SERIES": "20017",
        "P_ROLE": "6",
        "P_KIND": "0",
        "P_MAX_LV": "80",
        "P_PATTERN_ID": "10",
        "P_GROWTH_TYPE": "1",
        "P_MIN_HP": "2666",
        "P_MAX_HP": "3200",
        "P_MIN_ATK": "516",
        "P_MAX_ATK": "620",
        "P_MIN_DEF": "583",
        "P_MAX_DEF": "700",
        "P_MIN_MDEF": "641",
        "P_MAX_MDEF": "770",
        "P_PARAM_MAX": "0,0,0,0",
        "P_STATUS_RESIST": "0,0,0,0,0,0",
        "P_ELEMENT": "2",
        "P_ATK_PARTITION": "0,100",
        "P_EFFECT_PROCESS_ID": "20017400",
        "P_MOVE_SPEED": "2",
        "P_MOVE_TYPE1": "3",
        "P_MOVE_TYPE2": "4",
        "P_MOVE_TYPE_SKILL": "3",
        "P_MOVE_OFFSET": "0,0",
        "P_AFTERIMAGE": "0",
        "P_AI_TYPE": "100",
        "P_SKILL_INFO": "20017401,20017402",
        "P_ALT_SKILL_INFO": "",
        "P_ALT_SKILL_P": "4",
        "P_PASSIVE_SKILL_GROUP_INFO": "",
        "f91oUy7C": "60:20017401:2,70:20017402:2,80:20017403:2",
        "P_LEADER_SKILL_INFO": "1003004",
        "P_DISPORDER": "12",
        "P_SOUND_SETTING": "",
        "P_DISP_DICTIONARY": "1",
        "P_DICTIONARY_NO": "1",
        "P_DICTIONARY_BG": "12",
        "P_EXT_IMG_PARAM": "\u8aac\u660e",
        "P_PARAM_UP_EXT": "",
        "P_DOUBLE_SPHERE_TRIGGER": "0,0,0,0",
        "HMt6u09X": "3",
        "P_NEED_SWITCH_INFO": "1",
        "P_HIDE_SWITCH_INFO": "",
        "P_OPEN_SWITCH_INFO": "",
        "P_CREATEDATE": "2018-02-02 19:30:14",
        "P_UPDATEDATE": "2018-02-02 19:30:14"
    },
    {
        "P_ARMS_ID": "200322",
        "P_ARMS_NAME": "\u51cd\u5263\u30a2\u30eb\u30bb\u30ca",
        "8Cx57oAk": "\u51cd\u5263\u30a2\u30eb",
        "P_SUMMONER_ID": "2",
        "P_RARE": "3",
        "gvT2ds0Q": "3",
        "P_SERIES": "20032",
        "P_ROLE": "4",
        "P_KIND": "0",
        "P_MAX_LV": "40",
        "P_PATTERN_ID": "10",
        "P_GROWTH_TYPE": "1",
        "P_MIN_HP": "1850",
        "P_MAX_HP": "2221",
        "P_MIN_ATK": "360",
        "P_MAX_ATK": "433",
        "P_MIN_DEF": "392",
        "P_MAX_DEF": "471",
        "P_MIN_MDEF": "392",
        "P_MAX_MDEF": "471",
        "P_PARAM_MAX": "0,0,0,0",
        "P_STATUS_RESIST": "0,0,0,0,0,0",
        "P_ELEMENT": "2",
        "P_ATK_PARTITION": "100,0",
        "P_EFFECT_PROCESS_ID": "20032200",
        "P_MOVE_SPEED": "5",
        "P_MOVE_TYPE1": "1",
        "P_MOVE_TYPE2": "4",
        "P_MOVE_TYPE_SKILL": "1",
        "P_MOVE_OFFSET": "0,0",
        "P_AFTERIMAGE": "0",
        "P_AI_TYPE": "100",
        "P_SKILL_INFO": "20032201",
        "P_ALT_SKILL_INFO": "",
        "P_ALT_SKILL_P": "1",
        "P_PASSIVE_SKILL_GROUP_INFO": "",
        "f91oUy7C": "1:20032201:2",
        "P_LEADER_SKILL_INFO": "2020001",
        "P_DISPORDER": "29",
        "P_SOUND_SETTING": "",
        "P_DISP_DICTIONARY": "1",
        "P_DICTIONARY_NO": "1",
        "P_DICTIONARY_BG": "29",
        "P_EXT_IMG_PARAM": "\u8aac\u660e",
        "P_PARAM_UP_EXT": "",
        "P_DOUBLE_SPHERE_TRIGGER": "0,0,0,0",
        "HMt6u09X": "1",
        "P_NEED_SWITCH_INFO": "1",
        "P_HIDE_SWITCH_INFO": "",
        "P_OPEN_SWITCH_INFO": "",
        "P_CREATEDATE": "2018-02-02 19:30:14",
        "P_UPDATEDATE": "2018-02-02 19:30:14"
    },
    {
        "P_ARMS_ID": "200323",
        "P_ARMS_NAME": "\u51cd\u5f71\u5263\u30a2\u30bb\u30b7\u30ce",
        "8Cx57oAk": "\u5f71\u5263\u30a2\u30bb",
        "P_SUMMONER_ID": "2",
        "P_RARE": "4",
        "gvT2ds0Q": "4",
        "P_SERIES": "20032",
        "P_ROLE": "4",
        "P_KIND": "0",
        "P_MAX_LV": "60",
        "P_PATTERN_ID": "10",
        "P_GROWTH_TYPE": "1",
        "P_MIN_HP": "2221",
        "P_MAX_HP": "2666",
        "P_MIN_ATK": "433",
        "P_MAX_ATK": "520",
        "P_MIN_DEF": "471",
        "P_MAX_DEF": "566",
        "P_MIN_MDEF": "471",
        "P_MAX_MDEF": "566",
        "P_PARAM_MAX": "0,0,0,0",
        "P_STATUS_RESIST": "0,0,0,0,0,0",
        "P_ELEMENT": "2",
        "P_ATK_PARTITION": "100,0",
        "P_EFFECT_PROCESS_ID": "20032300",
        "P_MOVE_SPEED": "5",
        "P_MOVE_TYPE1": "1",
        "P_MOVE_TYPE2": "4",
        "P_MOVE_TYPE_SKILL": "1",
        "P_MOVE_OFFSET": "0,0",
        "P_AFTERIMAGE": "0",
        "P_AI_TYPE": "100",
        "P_SKILL_INFO": "20032301",
        "P_ALT_SKILL_INFO": "",
        "P_ALT_SKILL_P": "2",
        "P_PASSIVE_SKILL_GROUP_INFO": "",
        "f91oUy7C": "60:20032301:2",
        "P_LEADER_SKILL_INFO": "2020002",
        "P_DISPORDER": "30",
        "P_SOUND_SETTING": "",
        "P_DISP_DICTIONARY": "1",
        "P_DICTIONARY_NO": "1",
        "P_DICTIONARY_BG": "30",
        "P_EXT_IMG_PARAM": "\u8aac\u660e",
        "P_PARAM_UP_EXT": "",
        "P_DOUBLE_SPHERE_TRIGGER": "0,0,0,0",
        "HMt6u09X": "2",
        "P_NEED_SWITCH_INFO": "1",
        "P_HIDE_SWITCH_INFO": "",
        "P_OPEN_SWITCH_INFO": "",
        "P_CREATEDATE": "2018-02-02 19:30:14",
        "P_UPDATEDATE": "2018-02-02 19:30:14"
    },
    {
        "P_ARMS_ID": "200334",
        "P_ARMS_NAME": "\u51db\u821e\u601c\u5203\u30a4\u30e9\u30eb\u30d5\u30a1",
        "8Cx57oAk": "\u51db\u821e\u30a4\u30e9",
        "P_SUMMONER_ID": "2",
        "P_RARE": "5",
        "gvT2ds0Q": "5",
        "P_SERIES": "20032",
        "P_ROLE": "4",
        "P_KIND": "0",
        "P_MAX_LV": "80",
        "P_PATTERN_ID": "10",
        "P_GROWTH_TYPE": "1",
        "P_MIN_HP": "2666",
        "P_MAX_HP": "3200",
        "P_MIN_ATK": "520",
        "P_MAX_ATK": "625",
        "P_MIN_DEF": "583",
        "P_MAX_DEF": "700",
        "P_MIN_MDEF": "591",
        "P_MAX_MDEF": "710",
        "P_PARAM_MAX": "0,0,0,0",
        "P_STATUS_RESIST": "0,0,0,0,0,0",
        "P_ELEMENT": "2",
        "P_ATK_PARTITION": "60,40",
        "P_EFFECT_PROCESS_ID": "20033400",
        "P_MOVE_SPEED": "5",
        "P_MOVE_TYPE1": "1",
        "P_MOVE_TYPE2": "4",
        "P_MOVE_TYPE_SKILL": "1",
        "P_MOVE_OFFSET": "0,0",
        "P_AFTERIMAGE": "0",
        "P_AI_TYPE": "100",
        "P_SKILL_INFO": "20033401,20033402",
        "P_ALT_SKILL_INFO": "",
        "P_ALT_SKILL_P": "3",
        "P_PASSIVE_SKILL_GROUP_INFO": "",
        "f91oUy7C": "70:20033401:2,80:20033402:2",
        "P_LEADER_SKILL_INFO": "2020003",
        "P_DISPORDER": "31",
        "P_SOUND_SETTING": "",
        "P_DISP_DICTIONARY": "1",
        "P_DICTIONARY_NO": "1",
        "P_DICTIONARY_BG": "31",
        "P_EXT_IMG_PARAM": "\u8aac\u660e",
        "P_PARAM_UP_EXT": "",
        "P_DOUBLE_SPHERE_TRIGGER": "0,0,0,0",
        "HMt6u09X": "2",
        "P_NEED_SWITCH_INFO": "1",
        "P_HIDE_SWITCH_INFO": "",
        "P_OPEN_SWITCH_INFO": "",
        "P_CREATEDATE": "2018-02-02 19:30:14",
        "P_UPDATEDATE": "2018-02-02 19:30:14"
    },
    {
        "P_ARMS_ID": "200404",
        "P_ARMS_NAME": "\u84bc\u71d5\u53cc\u65a7\u30a8\u30ea\u30b6\u30fc\u30af",
        "8Cx57oAk": "\u84bc\u71d5\u30a8\u30ea",
        "P_SUMMONER_ID": "2",
        "P_RARE": "5",
        "gvT2ds0Q": "5",
        "P_SERIES": "30038",
        "P_ROLE": "1",
        "P_KIND": "0",
        "P_MAX_LV": "80",
        "P_PATTERN_ID": "10",
        "P_GROWTH_TYPE": "1",
        "P_MIN_HP": "2625",
        "P_MAX_HP": "3150",
        "P_MIN_ATK": "608",
        "P_MAX_ATK": "730",
        "P_MIN_DEF": "583",
        "P_MAX_DEF": "700",
        "P_MIN_MDEF": "583",
        "P_MAX_MDEF": "700",
        "P_PARAM_MAX": "0,0,0,0",
        "P_STATUS_RESIST": "0,0,0,0,0,0",
        "P_ELEMENT": "2",
        "P_ATK_PARTITION": "100,0",
        "P_EFFECT_PROCESS_ID": "20040400",
        "P_MOVE_SPEED": "3",
        "P_MOVE_TYPE1": "1",
        "P_MOVE_TYPE2": "4",
        "P_MOVE_TYPE_SKILL": "1",
        "P_MOVE_OFFSET": "0,0",
        "P_AFTERIMAGE": "0",
        "P_AI_TYPE": "100",
        "P_SKILL_INFO": "20040401,20040402",
        "P_ALT_SKILL_INFO": "",
        "P_ALT_SKILL_P": "3",
        "P_PASSIVE_SKILL_GROUP_INFO": "",
        "f91oUy7C": "60:20040401:2,80:20040402:2",
        "P_LEADER_SKILL_INFO": "3010002",
        "P_DISPORDER": "38",
        "P_SOUND_SETTING": "",
        "P_DISP_DICTIONARY": "1",
        "P_DICTIONARY_NO": "1",
        "P_DICTIONARY_BG": "38",
        "P_EXT_IMG_PARAM": "\u8aac\u660e",
        "P_PARAM_UP_EXT": "",
        "P_DOUBLE_SPHERE_TRIGGER": "0,0,0,0",
        "HMt6u09X": "2",
        "P_NEED_SWITCH_INFO": "1",
        "P_HIDE_SWITCH_INFO": "",
        "P_OPEN_SWITCH_INFO": "",
        "P_CREATEDATE": "2018-02-02 19:30:14",
        "P_UPDATEDATE": "2018-02-02 19:30:14"
    },
    {
        "P_ARMS_ID": "300142",
        "P_ARMS_NAME": "\u8b77\u69cd\u30b0\u30e9\u30b7\u30b9",
        "8Cx57oAk": "\u8b77\u69cd\u30b0\u30e9",
        "P_SUMMONER_ID": "1",
        "P_RARE": "3",
        "gvT2ds0Q": "3",
        "P_SERIES": "30014",
        "P_ROLE": "2",
        "P_KIND": "0",
        "P_MAX_LV": "40",
        "P_PATTERN_ID": "10",
        "P_GROWTH_TYPE": "1",
        "P_MIN_HP": "1850",
        "P_MAX_HP": "2221",
        "P_MIN_ATK": "370",
        "P_MAX_ATK": "444",
        "P_MIN_DEF": "433",
        "P_MAX_DEF": "520",
        "P_MIN_MDEF": "399",
        "P_MAX_MDEF": "479",
        "P_PARAM_MAX": "0,0,0,0",
        "P_STATUS_RESIST": "0,0,0,0,0,0",
        "P_ELEMENT": "3",
        "P_ATK_PARTITION": "100,0",
        "P_EFFECT_PROCESS_ID": "30014200",
        "P_MOVE_SPEED": "3",
        "P_MOVE_TYPE1": "1",
        "P_MOVE_TYPE2": "4",
        "P_MOVE_TYPE_SKILL": "1",
        "P_MOVE_OFFSET": "0,0",
        "P_AFTERIMAGE": "0",
        "P_AI_TYPE": "100",
        "P_SKILL_INFO": "30014201",
        "P_ALT_SKILL_INFO": "",
        "P_ALT_SKILL_P": "2",
        "P_PASSIVE_SKILL_GROUP_INFO": "",
        "f91oUy7C": "1:30014201:2",
        "P_LEADER_SKILL_INFO": "1002002",
        "P_DISPORDER": "6",
        "P_SOUND_SETTING": "",
        "P_DISP_DICTIONARY": "1",
        "P_DICTIONARY_NO": "1",
        "P_DICTIONARY_BG": "6",
        "P_EXT_IMG_PARAM": "\u8aac\u660e",
        "P_PARAM_UP_EXT": "",
        "P_DOUBLE_SPHERE_TRIGGER": "0,0,0,0",
        "HMt6u09X": "1",
        "P_NEED_SWITCH_INFO": "1",
        "P_HIDE_SWITCH_INFO": "",
        "P_OPEN_SWITCH_INFO": "",
        "P_CREATEDATE": "2018-02-02 19:30:14",
        "P_UPDATEDATE": "2018-02-02 19:30:14"
    },
    {
        "P_ARMS_ID": "300143",
        "P_ARMS_NAME": "\u8b77\u9663\u69cd\u30b0\u30e9\u30b7\u30fc\u30c9",
        "8Cx57oAk": "\u8b77\u9663\u30b0\u30e9",
        "P_SUMMONER_ID": "1",
        "P_RARE": "4",
        "gvT2ds0Q": "3",
        "P_SERIES": "30014",
        "P_ROLE": "2",
        "P_KIND": "0",
        "P_MAX_LV": "60",
        "P_PATTERN_ID": "10",
        "P_GROWTH_TYPE": "1",
        "P_MIN_HP": "2221",
        "P_MAX_HP": "2666",
        "P_MIN_ATK": "444",
        "P_MAX_ATK": "533",
        "P_MIN_DEF": "520",
        "P_MAX_DEF": "625",
        "P_MIN_MDEF": "479",
        "P_MAX_MDEF": "575",
        "P_PARAM_MAX": "0,0,0,0",
        "P_STATUS_RESIST": "0,0,0,0,0,0",
        "P_ELEMENT": "3",
        "P_ATK_PARTITION": "100,0",
        "P_EFFECT_PROCESS_ID": "30014300",
        "P_MOVE_SPEED": "3",
        "P_MOVE_TYPE1": "1",
        "P_MOVE_TYPE2": "4",
        "P_MOVE_TYPE_SKILL": "1",
        "P_MOVE_OFFSET": "0,0",
        "P_AFTERIMAGE": "0",
        "P_AI_TYPE": "100",
        "P_SKILL_INFO": "30014301",
        "P_ALT_SKILL_INFO": "",
        "P_ALT_SKILL_P": "3",
        "P_PASSIVE_SKILL_GROUP_INFO": "",
        "f91oUy7C": "60:30014301:2",
        "P_LEADER_SKILL_INFO": "1002003",
        "P_DISPORDER": "7",
        "P_SOUND_SETTING": "",
        "P_DISP_DICTIONARY": "1",
        "P_DICTIONARY_NO": "1",
        "P_DICTIONARY_BG": "7",
        "P_EXT_IMG_PARAM": "\u8aac\u660e",
        "P_PARAM_UP_EXT": "",
        "P_DOUBLE_SPHERE_TRIGGER": "0,0,0,0",
        "HMt6u09X": "1",
        "P_NEED_SWITCH_INFO": "1",
        "P_HIDE_SWITCH_INFO": "",
        "P_OPEN_SWITCH_INFO": "",
        "P_CREATEDATE": "2018-02-02 19:30:14",
        "P_UPDATEDATE": "2018-02-02 19:30:14"
    },
    {
        "P_ARMS_ID": "300154",
        "P_ARMS_NAME": "\u5805\u77db\u6226\u58c1\u30ac\u30eb\u30af\u30f3\u30c9",
        "8Cx57oAk": "\u6226\u58c1\u30ac\u30eb",
        "P_SUMMONER_ID": "1",
        "P_RARE": "5",
        "gvT2ds0Q": "4",
        "P_SERIES": "30014",
        "P_ROLE": "2",
        "P_KIND": "0",
        "P_MAX_LV": "80",
        "P_PATTERN_ID": "10",
        "P_GROWTH_TYPE": "1",
        "P_MIN_HP": "2666",
        "P_MAX_HP": "3200",
        "P_MIN_ATK": "533",
        "P_MAX_ATK": "640",
        "P_MIN_DEF": "625",
        "P_MAX_DEF": "750",
        "P_MIN_MDEF": "575",
        "P_MAX_MDEF": "690",
        "P_PARAM_MAX": "0,0,0,0",
        "P_STATUS_RESIST": "0,0,0,0,0,0",
        "P_ELEMENT": "3",
        "P_ATK_PARTITION": "100,0",
        "P_EFFECT_PROCESS_ID": "30015400",
        "P_MOVE_SPEED": "3",
        "P_MOVE_TYPE1": "1",
        "P_MOVE_TYPE2": "4",
        "P_MOVE_TYPE_SKILL": "1",
        "P_MOVE_OFFSET": "0,0",
        "P_AFTERIMAGE": "0",
        "P_AI_TYPE": "100",
        "P_SKILL_INFO": "30015401,30015402",
        "P_ALT_SKILL_INFO": "",
        "P_ALT_SKILL_P": "4",
        "P_PASSIVE_SKILL_GROUP_INFO": "",
        "f91oUy7C": "70:30015401:2,80:30015402:2",
        "P_LEADER_SKILL_INFO": "1002004",
        "P_DISPORDER": "8",
        "P_SOUND_SETTING": "",
        "P_DISP_DICTIONARY": "1",
        "P_DICTIONARY_NO": "1",
        "P_DICTIONARY_BG": "8",
        "P_EXT_IMG_PARAM": "\u8aac\u660e",
        "P_PARAM_UP_EXT": "",
        "P_DOUBLE_SPHERE_TRIGGER": "0,0,0,0",
        "HMt6u09X": "2",
        "P_NEED_SWITCH_INFO": "1",
        "P_HIDE_SWITCH_INFO": "",
        "P_OPEN_SWITCH_INFO": "",
        "P_CREATEDATE": "2018-02-02 19:30:14",
        "P_UPDATEDATE": "2018-02-02 19:30:14"
    },
    {
        "P_ARMS_ID": "300234",
        "P_ARMS_NAME": "\u6a39\u92fc\u65ac\u5263\u30ed\u30b0\u30b9\u30e9\u30a4\u30c9",
        "8Cx57oAk": "\u6a39\u92fc\u30ed\u30b0",
        "P_SUMMONER_ID": "1",
        "P_RARE": "5",
        "gvT2ds0Q": "7",
        "P_SERIES": "50022",
        "P_ROLE": "1",
        "P_KIND": "0",
        "P_MAX_LV": "80",
        "P_PATTERN_ID": "10",
        "P_GROWTH_TYPE": "1",
        "P_MIN_HP": "2875",
        "P_MAX_HP": "3450",
        "P_MIN_ATK": "570",
        "P_MAX_ATK": "685",
        "P_MIN_DEF": "566",
        "P_MAX_DEF": "680",
        "P_MIN_MDEF": "566",
        "P_MAX_MDEF": "680",
        "P_PARAM_MAX": "0,0,0,0",
        "P_STATUS_RESIST": "0,0,0,0,0,0",
        "P_ELEMENT": "3",
        "P_ATK_PARTITION": "100,0",
        "P_EFFECT_PROCESS_ID": "30023400",
        "P_MOVE_SPEED": "3",
        "P_MOVE_TYPE1": "1",
        "P_MOVE_TYPE2": "4",
        "P_MOVE_TYPE_SKILL": "1",
        "P_MOVE_OFFSET": "0,0",
        "P_AFTERIMAGE": "0",
        "P_AI_TYPE": "100",
        "P_SKILL_INFO": "30023401,30023402",
        "P_ALT_SKILL_INFO": "",
        "P_ALT_SKILL_P": "4",
        "P_PASSIVE_SKILL_GROUP_INFO": "",
        "f91oUy7C": "60:30023401:2,80:30023402:2",
        "P_LEADER_SKILL_INFO": "1005002",
        "P_DISPORDER": "19",
        "P_SOUND_SETTING": "",
        "P_DISP_DICTIONARY": "1",
        "P_DICTIONARY_NO": "1",
        "P_DICTIONARY_BG": "19",
        "P_EXT_IMG_PARAM": "\u8aac\u660e",
        "P_PARAM_UP_EXT": "",
        "P_DOUBLE_SPHERE_TRIGGER": "0,0,0,0",
        "HMt6u09X": "3",
        "P_NEED_SWITCH_INFO": "1",
        "P_HIDE_SWITCH_INFO": "",
        "P_OPEN_SWITCH_INFO": "",
        "P_CREATEDATE": "2018-02-02 19:30:14",
        "P_UPDATEDATE": "2018-02-02 19:30:14"
    },
    {
        "P_ARMS_ID": "300344",
        "P_ARMS_NAME": "\u7dd1\u5043\u9583\u5200\u300e\u7f85\u65ac\u300f",
        "8Cx57oAk": "\u5043\u5200\u7f85\u65ac",
        "P_SUMMONER_ID": "2",
        "P_RARE": "5",
        "gvT2ds0Q": "5",
        "P_SERIES": "20032",
        "P_ROLE": "1",
        "P_KIND": "0",
        "P_MAX_LV": "80",
        "P_PATTERN_ID": "10",
        "P_GROWTH_TYPE": "1",
        "P_MIN_HP": "2791",
        "P_MAX_HP": "3350",
        "P_MIN_ATK": "575",
        "P_MAX_ATK": "690",
        "P_MIN_DEF": "575",
        "P_MAX_DEF": "690",
        "P_MIN_MDEF": "583",
        "P_MAX_MDEF": "700",
        "P_PARAM_MAX": "0,0,0,0",
        "P_STATUS_RESIST": "0,0,0,0,0,0",
        "P_ELEMENT": "3",
        "P_ATK_PARTITION": "100,0",
        "P_EFFECT_PROCESS_ID": "30034400",
        "P_MOVE_SPEED": "2",
        "P_MOVE_TYPE1": "1",
        "P_MOVE_TYPE2": "4",
        "P_MOVE_TYPE_SKILL": "1",
        "P_MOVE_OFFSET": "0,0",
        "P_AFTERIMAGE": "0",
        "P_AI_TYPE": "100",
        "P_SKILL_INFO": "30034401,30034402",
        "P_ALT_SKILL_INFO": "",
        "P_ALT_SKILL_P": "3",
        "P_PASSIVE_SKILL_GROUP_INFO": "",
        "f91oUy7C": "60:30034401:2,80:30034402:2",
        "P_LEADER_SKILL_INFO": "4010003",
        "P_DISPORDER": "32",
        "P_SOUND_SETTING": "",
        "P_DISP_DICTIONARY": "1",
        "P_DICTIONARY_NO": "1",
        "P_DICTIONARY_BG": "32",
        "P_EXT_IMG_PARAM": "\u8aac\u660e",
        "P_PARAM_UP_EXT": "",
        "P_DOUBLE_SPHERE_TRIGGER": "0,0,0,0",
        "HMt6u09X": "2",
        "P_NEED_SWITCH_INFO": "1",
        "P_HIDE_SWITCH_INFO": "",
        "P_OPEN_SWITCH_INFO": "",
        "P_CREATEDATE": "2018-02-02 19:30:14",
        "P_UPDATEDATE": "2018-02-02 19:30:14"
    },
    {
        "P_ARMS_ID": "300383",
        "P_ARMS_NAME": "\u98db\u68cd\u30c1\u30a7\u30eb\u30c6\u30a3",
        "8Cx57oAk": "\u98db\u68cd\u30c1\u30eb",
        "P_SUMMONER_ID": "2",
        "P_RARE": "4",
        "gvT2ds0Q": "4",
        "P_SERIES": "30038",
        "P_ROLE": "6",
        "P_KIND": "0",
        "P_MAX_LV": "60",
        "P_PATTERN_ID": "10",
        "P_GROWTH_TYPE": "1",
        "P_MIN_HP": "2187",
        "P_MAX_HP": "2625",
        "P_MIN_ATK": "485",
        "P_MAX_ATK": "583",
        "P_MIN_DEF": "485",
        "P_MAX_DEF": "583",
        "P_MIN_MDEF": "485",
        "P_MAX_MDEF": "583",
        "P_PARAM_MAX": "0,0,0,0",
        "P_STATUS_RESIST": "0,0,0,0,0,0",
        "P_ELEMENT": "3",
        "P_ATK_PARTITION": "100,0",
        "P_EFFECT_PROCESS_ID": "30038300",
        "P_MOVE_SPEED": "2",
        "P_MOVE_TYPE1": "3",
        "P_MOVE_TYPE2": "4",
        "P_MOVE_TYPE_SKILL": "3",
        "P_MOVE_OFFSET": "0,0",
        "P_AFTERIMAGE": "0",
        "P_AI_TYPE": "100",
        "P_SKILL_INFO": "30038301",
        "P_ALT_SKILL_INFO": "",
        "P_ALT_SKILL_P": "2",
        "P_PASSIVE_SKILL_GROUP_INFO": "",
        "f91oUy7C": "1:30038301:2",
        "P_LEADER_SKILL_INFO": "7050001",
        "P_DISPORDER": "36",
        "P_SOUND_SETTING": "",
        "P_DISP_DICTIONARY": "1",
        "P_DICTIONARY_NO": "1",
        "P_DICTIONARY_BG": "36",
        "P_EXT_IMG_PARAM": "\u8aac\u660e",
        "P_PARAM_UP_EXT": "",
        "P_DOUBLE_SPHERE_TRIGGER": "0,0,0,0",
        "HMt6u09X": "2",
        "P_NEED_SWITCH_INFO": "1",
        "P_HIDE_SWITCH_INFO": "",
        "P_OPEN_SWITCH_INFO": "",
        "P_CREATEDATE": "2018-02-02 19:30:14",
        "P_UPDATEDATE": "2018-02-02 19:30:14"
    },
    {
        "P_ARMS_ID": "300394",
        "P_ARMS_NAME": "\u5e7b\u6708\u8f2a\u30ec\u30ce\u30ef\u30fc\u30eb",
        "8Cx57oAk": "\u6708\u8f2a\u30ec\u30ce",
        "P_SUMMONER_ID": "2",
        "P_RARE": "5",
        "gvT2ds0Q": "5",
        "P_SERIES": "30038",
        "P_ROLE": "6",
        "P_KIND": "0",
        "P_MAX_LV": "80",
        "P_PATTERN_ID": "10",
        "P_GROWTH_TYPE": "1",
        "P_MIN_HP": "2750",
        "P_MAX_HP": "3300",
        "P_MIN_ATK": "583",
        "P_MAX_ATK": "700",
        "P_MIN_DEF": "591",
        "P_MAX_DEF": "710",
        "P_MIN_MDEF": "591",
        "P_MAX_MDEF": "710",
        "P_PARAM_MAX": "0,0,0,0",
        "P_STATUS_RESIST": "0,0,0,0,0,0",
        "P_ELEMENT": "3",
        "P_ATK_PARTITION": "50,50",
        "P_EFFECT_PROCESS_ID": "30039400",
        "P_MOVE_SPEED": "2",
        "P_MOVE_TYPE1": "3",
        "P_MOVE_TYPE2": "4",
        "P_MOVE_TYPE_SKILL": "3",
        "P_MOVE_OFFSET": "0,0",
        "P_AFTERIMAGE": "0",
        "P_AI_TYPE": "100",
        "P_SKILL_INFO": "30039401,30039402",
        "P_ALT_SKILL_INFO": "",
        "P_ALT_SKILL_P": "3",
        "P_PASSIVE_SKILL_GROUP_INFO": "",
        "f91oUy7C": "60:30039401:2,80:30039402:2",
        "P_LEADER_SKILL_INFO": "7050002",
        "P_DISPORDER": "37",
        "P_SOUND_SETTING": "",
        "P_DISP_DICTIONARY": "1",
        "P_DICTIONARY_NO": "1",
        "P_DICTIONARY_BG": "37",
        "P_EXT_IMG_PARAM": "\u8aac\u660e",
        "P_PARAM_UP_EXT": "",
        "P_DOUBLE_SPHERE_TRIGGER": "0,0,0,0",
        "HMt6u09X": "2",
        "P_NEED_SWITCH_INFO": "1",
        "P_HIDE_SWITCH_INFO": "",
        "P_OPEN_SWITCH_INFO": "",
        "P_CREATEDATE": "2018-02-02 19:30:14",
        "P_UPDATEDATE": "2018-02-02 19:30:14"
    },
    {
        "P_ARMS_ID": "400133",
        "P_ARMS_NAME": "\u5d50\u53cc\u821e\u5263\u30f4\u30a1\u30a4\u30f3",
        "8Cx57oAk": "\u5d50\u821e\u30f4\u30a1",
        "P_SUMMONER_ID": "1",
        "P_RARE": "4",
        "gvT2ds0Q": "4",
        "P_SERIES": "10010",
        "P_ROLE": "3",
        "P_KIND": "0",
        "P_MAX_LV": "60",
        "P_PATTERN_ID": "10",
        "P_GROWTH_TYPE": "1",
        "P_MIN_HP": "2013",
        "P_MAX_HP": "2416",
        "P_MIN_ATK": "500",
        "P_MAX_ATK": "600",
        "P_MIN_DEF": "471",
        "P_MAX_DEF": "566",
        "P_MIN_MDEF": "465",
        "P_MAX_MDEF": "558",
        "P_PARAM_MAX": "0,0,0,0",
        "P_STATUS_RESIST": "0,0,0,0,0,0",
        "P_ELEMENT": "4",
        "P_ATK_PARTITION": "100,0",
        "P_EFFECT_PROCESS_ID": "40013300",
        "P_MOVE_SPEED": "4",
        "P_MOVE_TYPE1": "1",
        "P_MOVE_TYPE2": "4",
        "P_MOVE_TYPE_SKILL": "1",
        "P_MOVE_OFFSET": "0,0",
        "P_AFTERIMAGE": "0",
        "P_AI_TYPE": "100",
        "P_SKILL_INFO": "40013301",
        "P_ALT_SKILL_INFO": "",
        "P_ALT_SKILL_P": "3",
        "P_PASSIVE_SKILL_GROUP_INFO": "",
        "f91oUy7C": "60:40013301:2",
        "P_LEADER_SKILL_INFO": "2010002",
        "P_DISPORDER": "4",
        "P_SOUND_SETTING": "",
        "P_DISP_DICTIONARY": "1",
        "P_DICTIONARY_NO": "1",
        "P_DICTIONARY_BG": "4",
        "P_EXT_IMG_PARAM": "\u8aac\u660e",
        "P_PARAM_UP_EXT": "",
        "P_DOUBLE_SPHERE_TRIGGER": "0,0,0,0",
        "HMt6u09X": "2",
        "P_NEED_SWITCH_INFO": "1",
        "P_HIDE_SWITCH_INFO": "",
        "P_OPEN_SWITCH_INFO": "",
        "P_CREATEDATE": "2018-02-02 19:30:14",
        "P_UPDATEDATE": "2018-02-02 19:30:14"
    },
    {
        "P_ARMS_ID": "400134",
        "P_ARMS_NAME": "\u96f7\u8fc5\u53cc\u9706\u30ea\u30f4\u30a1\u30a4\u30c8",
        "8Cx57oAk": "\u96f7\u53cc\u30ea\u30f4",
        "P_SUMMONER_ID": "1",
        "P_RARE": "5",
        "gvT2ds0Q": "5",
        "P_SERIES": "10010",
        "P_ROLE": "3",
        "P_KIND": "0",
        "P_MAX_LV": "80",
        "P_PATTERN_ID": "10",
        "P_GROWTH_TYPE": "1",
        "P_MIN_HP": "2416",
        "P_MAX_HP": "2900",
        "P_MIN_ATK": "600",
        "P_MAX_ATK": "720",
        "P_MIN_DEF": "566",
        "P_MAX_DEF": "680",
        "P_MIN_MDEF": "558",
        "P_MAX_MDEF": "670",
        "P_PARAM_MAX": "0,0,0,0",
        "P_STATUS_RESIST": "0,0,0,0,0,0",
        "P_ELEMENT": "4",
        "P_ATK_PARTITION": "100,0",
        "P_EFFECT_PROCESS_ID": "40013400",
        "P_MOVE_SPEED": "4",
        "P_MOVE_TYPE1": "1",
        "P_MOVE_TYPE2": "4",
        "P_MOVE_TYPE_SKILL": "1",
        "P_MOVE_OFFSET": "0,0",
        "P_AFTERIMAGE": "0",
        "P_AI_TYPE": "100",
        "P_SKILL_INFO": "40013401,40013402",
        "P_ALT_SKILL_INFO": "",
        "P_ALT_SKILL_P": "4",
        "P_PASSIVE_SKILL_GROUP_INFO": "",
        "f91oUy7C": "70:40013401:2,80:40013402:2",
        "P_LEADER_SKILL_INFO": "2010003",
        "P_DISPORDER": "5",
        "P_SOUND_SETTING": "",
        "P_DISP_DICTIONARY": "1",
        "P_DICTIONARY_NO": "1",
        "P_DICTIONARY_BG": "5",
        "P_EXT_IMG_PARAM": "\u8aac\u660e",
        "P_PARAM_UP_EXT": "",
        "P_DOUBLE_SPHERE_TRIGGER": "0,0,0,0",
        "HMt6u09X": "2",
        "P_NEED_SWITCH_INFO": "1",
        "P_HIDE_SWITCH_INFO": "",
        "P_OPEN_SWITCH_INFO": "",
        "P_CREATEDATE": "2018-02-02 19:30:14",
        "P_UPDATEDATE": "2018-02-02 19:30:14"
    },
    {
        "P_ARMS_ID": "400243",
        "P_ARMS_NAME": "\u96f7\u7a7f\u9283\u30b9\u30c6\u30e9",
        "8Cx57oAk": "\u96f7\u7a7f\u30b9\u30c6",
        "P_SUMMONER_ID": "1",
        "P_RARE": "4",
        "gvT2ds0Q": "4",
        "P_SERIES": "40024",
        "P_ROLE": "6",
        "P_KIND": "0",
        "P_MAX_LV": "60",
        "P_PATTERN_ID": "10",
        "P_GROWTH_TYPE": "1",
        "P_MIN_HP": "2208",
        "P_MAX_HP": "2650",
        "P_MIN_ATK": "527",
        "P_MAX_ATK": "633",
        "P_MIN_DEF": "475",
        "P_MAX_DEF": "570",
        "P_MIN_MDEF": "500",
        "P_MAX_MDEF": "600",
        "P_PARAM_MAX": "0,0,0,0",
        "P_STATUS_RESIST": "0,0,0,0,0,0",
        "P_ELEMENT": "4",
        "P_ATK_PARTITION": "40,60",
        "P_EFFECT_PROCESS_ID": "40024300",
        "P_MOVE_SPEED": "2",
        "P_MOVE_TYPE1": "3",
        "P_MOVE_TYPE2": "4",
        "P_MOVE_TYPE_SKILL": "3",
        "P_MOVE_OFFSET": "0,0",
        "P_AFTERIMAGE": "0",
        "P_AI_TYPE": "100",
        "P_SKILL_INFO": "40024301",
        "P_ALT_SKILL_INFO": "",
        "P_ALT_SKILL_P": "3",
        "P_PASSIVE_SKILL_GROUP_INFO": "",
        "f91oUy7C": "1:40024301:2,60:40024302:2",
        "P_LEADER_SKILL_INFO": "2020002",
        "P_DISPORDER": "20",
        "P_SOUND_SETTING": "",
        "P_DISP_DICTIONARY": "1",
        "P_DICTIONARY_NO": "1",
        "P_DICTIONARY_BG": "20",
        "P_EXT_IMG_PARAM": "\u8aac\u660e",
        "P_PARAM_UP_EXT": "",
        "P_DOUBLE_SPHERE_TRIGGER": "0,0,0,0",
        "HMt6u09X": "2",
        "P_NEED_SWITCH_INFO": "1",
        "P_HIDE_SWITCH_INFO": "",
        "P_OPEN_SWITCH_INFO": "",
        "P_CREATEDATE": "2018-02-02 19:30:14",
        "P_UPDATEDATE": "2018-02-02 19:30:14"
    },
    {
        "P_ARMS_ID": "400254",
        "P_ARMS_NAME": "\u96f7\u5e1d\u7832\u30c6\u30eb\u30c9\u30ed\u30a4",
        "8Cx57oAk": "\u96f7\u5e1d\u30c6\u30eb",
        "P_SUMMONER_ID": "1",
        "P_RARE": "5",
        "gvT2ds0Q": "5",
        "P_SERIES": "40024",
        "P_ROLE": "6",
        "P_KIND": "0",
        "P_MAX_LV": "80",
        "P_PATTERN_ID": "10",
        "P_GROWTH_TYPE": "1",
        "P_MIN_HP": "2650",
        "P_MAX_HP": "3180",
        "P_MIN_ATK": "633",
        "P_MAX_ATK": "760",
        "P_MIN_DEF": "570",
        "P_MAX_DEF": "685",
        "P_MIN_MDEF": "600",
        "P_MAX_MDEF": "720",
        "P_PARAM_MAX": "0,0,0,0",
        "P_STATUS_RESIST": "0,0,0,0,0,0",
        "P_ELEMENT": "4",
        "P_ATK_PARTITION": "20,80",
        "P_EFFECT_PROCESS_ID": "40025400",
        "P_MOVE_SPEED": "2",
        "P_MOVE_TYPE1": "3",
        "P_MOVE_TYPE2": "4",
        "P_MOVE_TYPE_SKILL": "3",
        "P_MOVE_OFFSET": "0,0",
        "P_AFTERIMAGE": "0",
        "P_AI_TYPE": "100",
        "P_SKILL_INFO": "40025401,40025402",
        "P_ALT_SKILL_INFO": "",
        "P_ALT_SKILL_P": "4",
        "P_PASSIVE_SKILL_GROUP_INFO": "",
        "f91oUy7C": "70:40025401:2,80:40025402:2",
        "P_LEADER_SKILL_INFO": "2020003",
        "P_DISPORDER": "21",
        "P_SOUND_SETTING": "",
        "P_DISP_DICTIONARY": "1",
        "P_DICTIONARY_NO": "1",
        "P_DICTIONARY_BG": "21",
        "P_EXT_IMG_PARAM": "\u8aac\u660e",
        "P_PARAM_UP_EXT": "",
        "P_DOUBLE_SPHERE_TRIGGER": "0,0,0,0",
        "HMt6u09X": "2",
        "P_NEED_SWITCH_INFO": "1",
        "P_HIDE_SWITCH_INFO": "",
        "P_OPEN_SWITCH_INFO": "",
        "P_CREATEDATE": "2018-02-02 19:30:14",
        "P_UPDATEDATE": "2018-02-02 19:30:14"
    },
    {
        "P_ARMS_ID": "400272",
        "P_ARMS_NAME": "\u95d8\u62f3\u30ec\u30af\u30b7\u30d6",
        "8Cx57oAk": "\u95d8\u62f3\u30ec\u30d6",
        "P_SUMMONER_ID": "2",
        "P_RARE": "3",
        "gvT2ds0Q": "3",
        "P_SERIES": "40027",
        "P_ROLE": "3",
        "P_KIND": "0",
        "P_MAX_LV": "40",
        "P_PATTERN_ID": "10",
        "P_GROWTH_TYPE": "1",
        "P_MIN_HP": "1781",
        "P_MAX_HP": "2138",
        "P_MIN_ATK": "364",
        "P_MAX_ATK": "437",
        "P_MIN_DEF": "399",
        "P_MAX_DEF": "479",
        "P_MIN_MDEF": "392",
        "P_MAX_MDEF": "471",
        "P_PARAM_MAX": "0,0,0,0",
        "P_STATUS_RESIST": "0,0,0,0,0,0",
        "P_ELEMENT": "4",
        "P_ATK_PARTITION": "100,0",
        "P_EFFECT_PROCESS_ID": "40027200",
        "P_MOVE_SPEED": "4",
        "P_MOVE_TYPE1": "1",
        "P_MOVE_TYPE2": "4",
        "P_MOVE_TYPE_SKILL": "1",
        "P_MOVE_OFFSET": "0,0",
        "P_AFTERIMAGE": "0",
        "P_AI_TYPE": "100",
        "P_SKILL_INFO": "40027201",
        "P_ALT_SKILL_INFO": "",
        "P_ALT_SKILL_P": "1",
        "P_PASSIVE_SKILL_GROUP_INFO": "",
        "f91oUy7C": "1:40027201:2",
        "P_LEADER_SKILL_INFO": "3010000",
        "P_DISPORDER": "23",
        "P_SOUND_SETTING": "",
        "P_DISP_DICTIONARY": "1",
        "P_DICTIONARY_NO": "1",
        "P_DICTIONARY_BG": "23",
        "P_EXT_IMG_PARAM": "\u8aac\u660e",
        "P_PARAM_UP_EXT": "",
        "P_DOUBLE_SPHERE_TRIGGER": "0,0,0,0",
        "HMt6u09X": "1",
        "P_NEED_SWITCH_INFO": "1",
        "P_HIDE_SWITCH_INFO": "",
        "P_OPEN_SWITCH_INFO": "",
        "P_CREATEDATE": "2018-02-02 19:30:14",
        "P_UPDATEDATE": "2018-02-02 19:30:14"
    },
    {
        "P_ARMS_ID": "400283",
        "P_ARMS_NAME": "\u6226\u6483\u7532\u30f4\u30a1\u30e9\u30b9\u30c8",
        "8Cx57oAk": "\u6226\u7532\u30f4\u30a1",
        "P_SUMMONER_ID": "2",
        "P_RARE": "4",
        "gvT2ds0Q": "4",
        "P_SERIES": "40027",
        "P_ROLE": "3",
        "P_KIND": "0",
        "P_MAX_LV": "60",
        "P_PATTERN_ID": "10",
        "P_GROWTH_TYPE": "1",
        "P_MIN_HP": "2138",
        "P_MAX_HP": "2566",
        "P_MIN_ATK": "437",
        "P_MAX_ATK": "525",
        "P_MIN_DEF": "479",
        "P_MAX_DEF": "575",
        "P_MIN_MDEF": "471",
        "P_MAX_MDEF": "566",
        "P_PARAM_MAX": "0,0,0,0",
        "P_STATUS_RESIST": "0,0,0,0,0,0",
        "P_ELEMENT": "4",
        "P_ATK_PARTITION": "100,0",
        "P_EFFECT_PROCESS_ID": "40028300",
        "P_MOVE_SPEED": "4",
        "P_MOVE_TYPE1": "1",
        "P_MOVE_TYPE2": "4",
        "P_MOVE_TYPE_SKILL": "1",
        "P_MOVE_OFFSET": "0,0",
        "P_AFTERIMAGE": "0",
        "P_AI_TYPE": "100",
        "P_SKILL_INFO": "40028301",
        "P_ALT_SKILL_INFO": "",
        "P_ALT_SKILL_P": "2",
        "P_PASSIVE_SKILL_GROUP_INFO": "",
        "f91oUy7C": "40:40028301:2",
        "P_LEADER_SKILL_INFO": "3010001",
        "P_DISPORDER": "24",
        "P_SOUND_SETTING": "",
        "P_DISP_DICTIONARY": "1",
        "P_DICTIONARY_NO": "1",
        "P_DICTIONARY_BG": "24",
        "P_EXT_IMG_PARAM": "\u8aac\u660e",
        "P_PARAM_UP_EXT": "",
        "P_DOUBLE_SPHERE_TRIGGER": "0,0,0,0",
        "HMt6u09X": "2",
        "P_NEED_SWITCH_INFO": "1",
        "P_HIDE_SWITCH_INFO": "",
        "P_OPEN_SWITCH_INFO": "",
        "P_CREATEDATE": "2018-02-02 19:30:14",
        "P_UPDATEDATE": "2018-02-02 19:30:14"
    },
    {
        "P_ARMS_ID": "400294",
        "P_ARMS_NAME": "\u7d76\u62f3\u300e\u5929\u9cf4\u300f",
        "8Cx57oAk": "\u7d76\u62f3\u5929\u9cf4",
        "P_SUMMONER_ID": "2",
        "P_RARE": "5",
        "gvT2ds0Q": "5",
        "P_SERIES": "40027",
        "P_ROLE": "3",
        "P_KIND": "0",
        "P_MAX_LV": "80",
        "P_PATTERN_ID": "10",
        "P_GROWTH_TYPE": "1",
        "P_MIN_HP": "2566",
        "P_MAX_HP": "3080",
        "P_MIN_ATK": "525",
        "P_MAX_ATK": "630",
        "P_MIN_DEF": "575",
        "P_MAX_DEF": "690",
        "P_MIN_MDEF": "566",
        "P_MAX_MDEF": "680",
        "P_PARAM_MAX": "0,0,0,0",
        "P_STATUS_RESIST": "0,0,0,0,0,0",
        "P_ELEMENT": "4",
        "P_ATK_PARTITION": "100,0",
        "P_EFFECT_PROCESS_ID": "40029400",
        "P_MOVE_SPEED": "4",
        "P_MOVE_TYPE1": "1",
        "P_MOVE_TYPE2": "4",
        "P_MOVE_TYPE_SKILL": "1",
        "P_MOVE_OFFSET": "0,0",
        "P_AFTERIMAGE": "0",
        "P_AI_TYPE": "100",
        "P_SKILL_INFO": "40029401,40029402",
        "P_ALT_SKILL_INFO": "",
        "P_ALT_SKILL_P": "3",
        "P_PASSIVE_SKILL_GROUP_INFO": "",
        "f91oUy7C": "60:40029401:2",
        "P_LEADER_SKILL_INFO": "5050003",
        "P_DISPORDER": "25",
        "P_SOUND_SETTING": "",
        "P_DISP_DICTIONARY": "1",
        "P_DICTIONARY_NO": "1",
        "P_DICTIONARY_BG": "25",
        "P_EXT_IMG_PARAM": "\u8aac\u660e",
        "P_PARAM_UP_EXT": "",
        "P_DOUBLE_SPHERE_TRIGGER": "0,0,0,0",
        "HMt6u09X": "2",
        "P_NEED_SWITCH_INFO": "1",
        "P_HIDE_SWITCH_INFO": "",
        "P_OPEN_SWITCH_INFO": "",
        "P_CREATEDATE": "2018-02-02 19:30:14",
        "P_UPDATEDATE": "2018-02-02 19:30:14"
    },
    {
        "P_ARMS_ID": "500223",
        "P_ARMS_NAME": "\u7815\u5149\u5263\u30d7\u30ed\u30ad\u30a2",
        "8Cx57oAk": "\u5149\u5263\u30d7\u30ed",
        "P_SUMMONER_ID": "1",
        "P_RARE": "4",
        "gvT2ds0Q": "4",
        "P_SERIES": "50022",
        "P_ROLE": "4",
        "P_KIND": "0",
        "P_MAX_LV": "60",
        "P_PATTERN_ID": "10",
        "P_GROWTH_TYPE": "1",
        "P_MIN_HP": "2395",
        "P_MAX_HP": "2875",
        "P_MIN_ATK": "475",
        "P_MAX_ATK": "570",
        "P_MIN_DEF": "471",
        "P_MAX_DEF": "566",
        "P_MIN_MDEF": "471",
        "P_MAX_MDEF": "566",
        "P_PARAM_MAX": "0,0,0,0",
        "P_STATUS_RESIST": "0,0,0,0,0,0",
        "P_ELEMENT": "5",
        "P_ATK_PARTITION": "100,0",
        "P_EFFECT_PROCESS_ID": "50022300",
        "P_MOVE_SPEED": "3",
        "P_MOVE_TYPE1": "1",
        "P_MOVE_TYPE2": "4",
        "P_MOVE_TYPE_SKILL": "1",
        "P_MOVE_OFFSET": "0,0",
        "P_AFTERIMAGE": "0",
        "P_AI_TYPE": "100",
        "P_SKILL_INFO": "50022301",
        "P_ALT_SKILL_INFO": "",
        "P_ALT_SKILL_P": "3",
        "P_PASSIVE_SKILL_GROUP_INFO": "",
        "f91oUy7C": "1:50022301:2",
        "P_LEADER_SKILL_INFO": "1005002",
        "P_DISPORDER": "17",
        "P_SOUND_SETTING": "",
        "P_DISP_DICTIONARY": "1",
        "P_DICTIONARY_NO": "1",
        "P_DICTIONARY_BG": "17",
        "P_EXT_IMG_PARAM": "\u8aac\u660e",
        "P_PARAM_UP_EXT": "",
        "P_DOUBLE_SPHERE_TRIGGER": "0,0,0,0",
        "HMt6u09X": "2",
        "P_NEED_SWITCH_INFO": "1",
        "P_HIDE_SWITCH_INFO": "",
        "P_OPEN_SWITCH_INFO": "",
        "P_CREATEDATE": "2018-02-02 19:30:14",
        "P_UPDATEDATE": "2018-02-02 19:30:14"
    },
    {
        "P_ARMS_ID": "500224",
        "P_ARMS_NAME": "\u8056\u65ad\u5263\u30a2\u30b9\u30ac\u30e9\u30f3",
        "8Cx57oAk": "\u8056\u65ad\u30a2\u30b9",
        "P_SUMMONER_ID": "1",
        "P_RARE": "5",
        "gvT2ds0Q": "5",
        "P_SERIES": "50022",
        "P_ROLE": "4",
        "P_KIND": "0",
        "P_MAX_LV": "80",
        "P_PATTERN_ID": "10",
        "P_GROWTH_TYPE": "1",
        "P_MIN_HP": "2933",
        "P_MAX_HP": "3520",
        "P_MIN_ATK": "583",
        "P_MAX_ATK": "700",
        "P_MIN_DEF": "583",
        "P_MAX_DEF": "700",
        "P_MIN_MDEF": "583",
        "P_MAX_MDEF": "700",
        "P_PARAM_MAX": "0,0,0,0",
        "P_STATUS_RESIST": "0,0,0,0,0,0",
        "P_ELEMENT": "5",
        "P_ATK_PARTITION": "70,30",
        "P_EFFECT_PROCESS_ID": "50022400",
        "P_MOVE_SPEED": "3",
        "P_MOVE_TYPE1": "1",
        "P_MOVE_TYPE2": "4",
        "P_MOVE_TYPE_SKILL": "1",
        "P_MOVE_OFFSET": "0,0",
        "P_AFTERIMAGE": "0",
        "P_AI_TYPE": "100",
        "P_SKILL_INFO": "50022401,50022402",
        "P_ALT_SKILL_INFO": "",
        "P_ALT_SKILL_P": "4",
        "P_PASSIVE_SKILL_GROUP_INFO": "",
        "f91oUy7C": "60:50022401:2,80:50022402:2",
        "P_LEADER_SKILL_INFO": "1005003",
        "P_DISPORDER": "18",
        "P_SOUND_SETTING": "",
        "P_DISP_DICTIONARY": "1",
        "P_DICTIONARY_NO": "1",
        "P_DICTIONARY_BG": "18",
        "P_EXT_IMG_PARAM": "\u8aac\u660e",
        "P_PARAM_UP_EXT": "",
        "P_DOUBLE_SPHERE_TRIGGER": "0,0,0,0",
        "HMt6u09X": "2",
        "P_NEED_SWITCH_INFO": "1",
        "P_HIDE_SWITCH_INFO": "",
        "P_OPEN_SWITCH_INFO": "",
        "P_CREATEDATE": "2018-02-02 19:30:14",
        "P_UPDATEDATE": "2018-02-02 19:30:14"
    },
    {
        "P_ARMS_ID": "500264",
        "P_ARMS_NAME": "\u5e7b\u714c\u5263\u30ec\u30aa\u30cb\u30af\u30b9",
        "8Cx57oAk": "\u5e7b\u714c\u30ec\u30aa",
        "P_SUMMONER_ID": "1",
        "P_RARE": "5",
        "gvT2ds0Q": "5",
        "P_SERIES": "50026",
        "P_ROLE": "1",
        "P_KIND": "0",
        "P_MAX_LV": "80",
        "P_PATTERN_ID": "10",
        "P_GROWTH_TYPE": "1",
        "P_MIN_HP": "2833",
        "P_MAX_HP": "3400",
        "P_MIN_ATK": "666",
        "P_MAX_ATK": "800",
        "P_MIN_DEF": "583",
        "P_MAX_DEF": "700",
        "P_MIN_MDEF": "583",
        "P_MAX_MDEF": "700",
        "P_PARAM_MAX": "0,0,0,0",
        "P_STATUS_RESIST": "0,0,0,0,0,0",
        "P_ELEMENT": "5",
        "P_ATK_PARTITION": "50,50",
        "P_EFFECT_PROCESS_ID": "50026400",
        "P_MOVE_SPEED": "3",
        "P_MOVE_TYPE1": "1",
        "P_MOVE_TYPE2": "4",
        "P_MOVE_TYPE_SKILL": "1",
        "P_MOVE_OFFSET": "0,0",
        "P_AFTERIMAGE": "0",
        "P_AI_TYPE": "100",
        "P_SKILL_INFO": "50026401,50026402",
        "P_ALT_SKILL_INFO": "",
        "P_ALT_SKILL_P": "4",
        "P_PASSIVE_SKILL_GROUP_INFO": "",
        "f91oUy7C": "1:50026401:2,40:50026402:2,80:50026403:2",
        "P_LEADER_SKILL_INFO": "1006003",
        "P_DISPORDER": "22",
        "P_SOUND_SETTING": "",
        "P_DISP_DICTIONARY": "1",
        "P_DICTIONARY_NO": "1",
        "P_DICTIONARY_BG": "22",
        "P_EXT_IMG_PARAM": "\u8aac\u660e",
        "P_PARAM_UP_EXT": "",
        "P_DOUBLE_SPHERE_TRIGGER": "0,0,0,0",
        "HMt6u09X": "2",
        "P_NEED_SWITCH_INFO": "1",
        "P_HIDE_SWITCH_INFO": "",
        "P_OPEN_SWITCH_INFO": "",
        "P_CREATEDATE": "2018-02-02 19:30:14",
        "P_UPDATEDATE": "2018-02-02 19:30:14"
    },
    {
        "P_ARMS_ID": "500304",
        "P_ARMS_NAME": "\u9583\u65ac\u722a\u30b7\u30e3\u30e9\u30e0",
        "8Cx57oAk": "\u9583\u722a\u30b7\u30e3",
        "P_SUMMONER_ID": "2",
        "P_RARE": "5",
        "gvT2ds0Q": "5",
        "P_SERIES": "40027",
        "P_ROLE": "1",
        "P_KIND": "0",
        "P_MAX_LV": "80",
        "P_PATTERN_ID": "10",
        "P_GROWTH_TYPE": "1",
        "P_MIN_HP": "2625",
        "P_MAX_HP": "3150",
        "P_MIN_ATK": "575",
        "P_MAX_ATK": "690",
        "P_MIN_DEF": "583",
        "P_MAX_DEF": "700",
        "P_MIN_MDEF": "591",
        "P_MAX_MDEF": "710",
        "P_PARAM_MAX": "0,0,0,0",
        "P_STATUS_RESIST": "0,0,0,0,0,0",
        "P_ELEMENT": "5",
        "P_ATK_PARTITION": "70,30",
        "P_EFFECT_PROCESS_ID": "50030400",
        "P_MOVE_SPEED": "5",
        "P_MOVE_TYPE1": "1",
        "P_MOVE_TYPE2": "4",
        "P_MOVE_TYPE_SKILL": "1",
        "P_MOVE_OFFSET": "0,0",
        "P_AFTERIMAGE": "0",
        "P_AI_TYPE": "100",
        "P_SKILL_INFO": "50030401,50030402",
        "P_ALT_SKILL_INFO": "",
        "P_ALT_SKILL_P": "3",
        "P_PASSIVE_SKILL_GROUP_INFO": "",
        "f91oUy7C": "60:50030401:2,80:50030402:2",
        "P_LEADER_SKILL_INFO": "2010003",
        "P_DISPORDER": "26",
        "P_SOUND_SETTING": "",
        "P_DISP_DICTIONARY": "1",
        "P_DICTIONARY_NO": "1",
        "P_DICTIONARY_BG": "26",
        "P_EXT_IMG_PARAM": "\u8aac\u660e",
        "P_PARAM_UP_EXT": "",
        "P_DOUBLE_SPHERE_TRIGGER": "0,0,0,0",
        "HMt6u09X": "2",
        "P_NEED_SWITCH_INFO": "1",
        "P_HIDE_SWITCH_INFO": "",
        "P_OPEN_SWITCH_INFO": "",
        "P_CREATEDATE": "2018-02-02 19:30:14",
        "P_UPDATEDATE": "2018-02-02 19:30:14"
    },
    {
        "P_ARMS_ID": "500363",
        "P_ARMS_NAME": "\u5149\u5178\u30d5\u30a7\u30ea\u30a8\u30fc\u30eb",
        "8Cx57oAk": "\u5149\u5178\u30d5\u30a7",
        "P_SUMMONER_ID": "2",
        "P_RARE": "4",
        "gvT2ds0Q": "6",
        "P_SERIES": "50036",
        "P_ROLE": "5",
        "P_KIND": "0",
        "P_MAX_LV": "60",
        "P_PATTERN_ID": "10",
        "P_GROWTH_TYPE": "1",
        "P_MIN_HP": "2221",
        "P_MAX_HP": "2666",
        "P_MIN_ATK": "416",
        "P_MAX_ATK": "500",
        "P_MIN_DEF": "500",
        "P_MAX_DEF": "600",
        "P_MIN_MDEF": "534",
        "P_MAX_MDEF": "641",
        "P_PARAM_MAX": "0,0,0,0",
        "P_STATUS_RESIST": "0,0,0,0,0,0",
        "P_ELEMENT": "5",
        "P_ATK_PARTITION": "0,100",
        "P_EFFECT_PROCESS_ID": "50036300",
        "P_MOVE_SPEED": "2",
        "P_MOVE_TYPE1": "3",
        "P_MOVE_TYPE2": "4",
        "P_MOVE_TYPE_SKILL": "3",
        "P_MOVE_OFFSET": "0,0",
        "P_AFTERIMAGE": "0",
        "P_AI_TYPE": "100",
        "P_SKILL_INFO": "50036301",
        "P_ALT_SKILL_INFO": "",
        "P_ALT_SKILL_P": "2",
        "P_PASSIVE_SKILL_GROUP_INFO": "",
        "f91oUy7C": "30:50036301:2,60:50036302:2",
        "P_LEADER_SKILL_INFO": "1010001",
        "P_DISPORDER": "34",
        "P_SOUND_SETTING": "",
        "P_DISP_DICTIONARY": "1",
        "P_DICTIONARY_NO": "1",
        "P_DICTIONARY_BG": "34",
        "P_EXT_IMG_PARAM": "\u8aac\u660e",
        "P_PARAM_UP_EXT": "",
        "P_DOUBLE_SPHERE_TRIGGER": "0,0,0,0",
        "HMt6u09X": "3",
        "P_NEED_SWITCH_INFO": "1",
        "P_HIDE_SWITCH_INFO": "",
        "P_OPEN_SWITCH_INFO": "",
        "P_CREATEDATE": "2018-02-02 19:30:14",
        "P_UPDATEDATE": "2018-02-02 19:30:14"
    },
    {
        "P_ARMS_ID": "500374",
        "P_ARMS_NAME": "\u8f1d\u8056\u5178\u30d7\u30ec\u30f3\u30b7\u30a7\u30a2",
        "8Cx57oAk": "\u8f1d\u5178\u30d7\u30ec",
        "P_SUMMONER_ID": "2",
        "P_RARE": "5",
        "gvT2ds0Q": "8",
        "P_SERIES": "50036",
        "P_ROLE": "5",
        "P_KIND": "0",
        "P_MAX_LV": "80",
        "P_PATTERN_ID": "10",
        "P_GROWTH_TYPE": "1",
        "P_MIN_HP": "2666",
        "P_MAX_HP": "3200",
        "P_MIN_ATK": "500",
        "P_MAX_ATK": "600",
        "P_MIN_DEF": "600",
        "P_MAX_DEF": "720",
        "P_MIN_MDEF": "641",
        "P_MAX_MDEF": "770",
        "P_PARAM_MAX": "0,0,0,0",
        "P_STATUS_RESIST": "0,0,0,0,0,0",
        "P_ELEMENT": "5",
        "P_ATK_PARTITION": "0,100",
        "P_EFFECT_PROCESS_ID": "50037400",
        "P_MOVE_SPEED": "2",
        "P_MOVE_TYPE1": "3",
        "P_MOVE_TYPE2": "4",
        "P_MOVE_TYPE_SKILL": "3",
        "P_MOVE_OFFSET": "0,0",
        "P_AFTERIMAGE": "0",
        "P_AI_TYPE": "100",
        "P_SKILL_INFO": "50037401,50037402",
        "P_ALT_SKILL_INFO": "",
        "P_ALT_SKILL_P": "3",
        "P_PASSIVE_SKILL_GROUP_INFO": "",
        "f91oUy7C": "70:50037401:2,80:50037402:2",
        "P_LEADER_SKILL_INFO": "1010002",
        "P_DISPORDER": "35",
        "P_SOUND_SETTING": "",
        "P_DISP_DICTIONARY": "1",
        "P_DICTIONARY_NO": "1",
        "P_DICTIONARY_BG": "35",
        "P_EXT_IMG_PARAM": "\u8aac\u660e",
        "P_PARAM_UP_EXT": "",
        "P_DOUBLE_SPHERE_TRIGGER": "0,0,0,0",
        "HMt6u09X": "4",
        "P_NEED_SWITCH_INFO": "1",
        "P_HIDE_SWITCH_INFO": "",
        "P_OPEN_SWITCH_INFO": "",
        "P_CREATEDATE": "2018-02-02 19:30:14",
        "P_UPDATEDATE": "2018-02-02 19:30:14"
    },
    {
        "P_ARMS_ID": "600184",
        "P_ARMS_NAME": "\u95c7\u7a7f\u5f13\u30d3\u30e5\u30cb\u30b7\u30af",
        "8Cx57oAk": "\u95c7\u5f13\u30d3\u30cb",
        "P_SUMMONER_ID": "1",
        "P_RARE": "5",
        "gvT2ds0Q": "5",
        "P_SERIES": "20017",
        "P_ROLE": "4",
        "P_KIND": "0",
        "P_MAX_LV": "80",
        "P_PATTERN_ID": "10",
        "P_GROWTH_TYPE": "1",
        "P_MIN_HP": "2616",
        "P_MAX_HP": "3140",
        "P_MIN_ATK": "608",
        "P_MAX_ATK": "730",
        "P_MIN_DEF": "583",
        "P_MAX_DEF": "700",
        "P_MIN_MDEF": "608",
        "P_MAX_MDEF": "730",
        "P_PARAM_MAX": "0,0,0,0",
        "P_STATUS_RESIST": "0,0,0,0,0,0",
        "P_ELEMENT": "6",
        "P_ATK_PARTITION": "50,50",
        "P_EFFECT_PROCESS_ID": "60018400",
        "P_MOVE_SPEED": "2",
        "P_MOVE_TYPE1": "3",
        "P_MOVE_TYPE2": "4",
        "P_MOVE_TYPE_SKILL": "3",
        "P_MOVE_OFFSET": "0,0",
        "P_AFTERIMAGE": "0",
        "P_AI_TYPE": "100",
        "P_SKILL_INFO": "60018401,60018402",
        "P_ALT_SKILL_INFO": "",
        "P_ALT_SKILL_P": "4",
        "P_PASSIVE_SKILL_GROUP_INFO": "",
        "f91oUy7C": "60:60018401:2,80:60018402:2",
        "P_LEADER_SKILL_INFO": "5020007",
        "P_DISPORDER": "13",
        "P_SOUND_SETTING": "",
        "P_DISP_DICTIONARY": "1",
        "P_DICTIONARY_NO": "1",
        "P_DICTIONARY_BG": "13",
        "P_EXT_IMG_PARAM": "\u8aac\u660e",
        "P_PARAM_UP_EXT": "",
        "P_DOUBLE_SPHERE_TRIGGER": "0,0,0,0",
        "HMt6u09X": "2",
        "P_NEED_SWITCH_INFO": "1",
        "P_HIDE_SWITCH_INFO": "",
        "P_OPEN_SWITCH_INFO": "",
        "P_CREATEDATE": "2018-02-02 19:30:14",
        "P_UPDATEDATE": "2018-02-02 19:30:14"
    },
    {
        "P_ARMS_ID": "600193",
        "P_ARMS_NAME": "\u5875\u65a7\u30d0\u30eb\u30b0\u30e9\u30e0",
        "8Cx57oAk": "\u5875\u65a7\u30d0\u30eb",
        "P_SUMMONER_ID": "1",
        "P_RARE": "4",
        "gvT2ds0Q": "4",
        "P_SERIES": "60019",
        "P_ROLE": "1",
        "P_KIND": "0",
        "P_MAX_LV": "60",
        "P_PATTERN_ID": "10",
        "P_GROWTH_TYPE": "1",
        "P_MIN_HP": "1944",
        "P_MAX_HP": "2333",
        "P_MIN_ATK": "506",
        "P_MAX_ATK": "608",
        "P_MIN_DEF": "471",
        "P_MAX_DEF": "566",
        "P_MIN_MDEF": "479",
        "P_MAX_MDEF": "575",
        "P_PARAM_MAX": "0,0,0,0",
        "P_STATUS_RESIST": "0,0,0,0,0,0",
        "P_ELEMENT": "6",
        "P_ATK_PARTITION": "100,0",
        "P_EFFECT_PROCESS_ID": "60019300",
        "P_MOVE_SPEED": "2",
        "P_MOVE_TYPE1": "1",
        "P_MOVE_TYPE2": "4",
        "P_MOVE_TYPE_SKILL": "1",
        "P_MOVE_OFFSET": "0,0",
        "P_AFTERIMAGE": "0",
        "P_AI_TYPE": "100",
        "P_SKILL_INFO": "60019301",
        "P_ALT_SKILL_INFO": "",
        "P_ALT_SKILL_P": "3",
        "P_PASSIVE_SKILL_GROUP_INFO": "",
        "f91oUy7C": "1:60019301:2",
        "P_LEADER_SKILL_INFO": "3010001",
        "P_DISPORDER": "14",
        "P_SOUND_SETTING": "",
        "P_DISP_DICTIONARY": "1",
        "P_DICTIONARY_NO": "1",
        "P_DICTIONARY_BG": "14",
        "P_EXT_IMG_PARAM": "\u8aac\u660e",
        "P_PARAM_UP_EXT": "",
        "P_DOUBLE_SPHERE_TRIGGER": "0,0,0,0",
        "HMt6u09X": "2",
        "P_NEED_SWITCH_INFO": "1",
        "P_HIDE_SWITCH_INFO": "",
        "P_OPEN_SWITCH_INFO": "",
        "P_CREATEDATE": "2018-02-02 19:30:14",
        "P_UPDATEDATE": "2018-02-02 19:30:14"
    },
    {
        "P_ARMS_ID": "600204",
        "P_ARMS_NAME": "\u9b54\u65cb\u51a5\u621f\u30f4\u30a1\u30eb\u30cb\u30ab",
        "8Cx57oAk": "\u9b54\u621f\u30f4\u30a1",
        "P_SUMMONER_ID": "1",
        "P_RARE": "5",
        "gvT2ds0Q": "5",
        "P_SERIES": "60019",
        "P_ROLE": "1",
        "P_KIND": "0",
        "P_MAX_LV": "80",
        "P_PATTERN_ID": "10",
        "P_GROWTH_TYPE": "1",
        "P_MIN_HP": "2333",
        "P_MAX_HP": "2800",
        "P_MIN_ATK": "625",
        "P_MAX_ATK": "750",
        "P_MIN_DEF": "600",
        "P_MAX_DEF": "720",
        "P_MIN_MDEF": "575",
        "P_MAX_MDEF": "690",
        "P_PARAM_MAX": "0,0,0,0",
        "P_STATUS_RESIST": "0,0,0,0,0,0",
        "P_ELEMENT": "6",
        "P_ATK_PARTITION": "100,0",
        "P_EFFECT_PROCESS_ID": "60020400",
        "P_MOVE_SPEED": "2",
        "P_MOVE_TYPE1": "1",
        "P_MOVE_TYPE2": "4",
        "P_MOVE_TYPE_SKILL": "1",
        "P_MOVE_OFFSET": "0,0",
        "P_AFTERIMAGE": "0",
        "P_AI_TYPE": "100",
        "P_SKILL_INFO": "60020401,60020402",
        "P_ALT_SKILL_INFO": "",
        "P_ALT_SKILL_P": "4",
        "P_PASSIVE_SKILL_GROUP_INFO": "",
        "f91oUy7C": "80:60020401:2",
        "P_LEADER_SKILL_INFO": "3010002",
        "P_DISPORDER": "15",
        "P_SOUND_SETTING": "",
        "P_DISP_DICTIONARY": "1",
        "P_DICTIONARY_NO": "1",
        "P_DICTIONARY_BG": "15",
        "P_EXT_IMG_PARAM": "\u8aac\u660e",
        "P_PARAM_UP_EXT": "",
        "P_DOUBLE_SPHERE_TRIGGER": "0,0,0,0",
        "HMt6u09X": "2",
        "P_NEED_SWITCH_INFO": "1",
        "P_HIDE_SWITCH_INFO": "",
        "P_OPEN_SWITCH_INFO": "",
        "P_CREATEDATE": "2018-02-02 19:30:14",
        "P_UPDATEDATE": "2018-02-02 19:30:14"
    },
    {
        "P_ARMS_ID": "600354",
        "P_ARMS_NAME": "\u6bb2\u88c2\u97ad\u30ea\u30b9\u30c6\u30a3\u30b9",
        "8Cx57oAk": "\u6bb2\u97ad\u30ea\u30b9",
        "P_SUMMONER_ID": "2",
        "P_RARE": "5",
        "gvT2ds0Q": "6",
        "P_SERIES": "20032",
        "P_ROLE": "1",
        "P_KIND": "0",
        "P_MAX_LV": "80",
        "P_PATTERN_ID": "10",
        "P_GROWTH_TYPE": "1",
        "P_MIN_HP": "2833",
        "P_MAX_HP": "3400",
        "P_MIN_ATK": "554",
        "P_MAX_ATK": "665",
        "P_MIN_DEF": "566",
        "P_MAX_DEF": "680",
        "P_MIN_MDEF": "566",
        "P_MAX_MDEF": "680",
        "P_PARAM_MAX": "0,0,0,0",
        "P_STATUS_RESIST": "0,0,0,0,0,0",
        "P_ELEMENT": "6",
        "P_ATK_PARTITION": "100,0",
        "P_EFFECT_PROCESS_ID": "60035400",
        "P_MOVE_SPEED": "2",
        "P_MOVE_TYPE1": "1",
        "P_MOVE_TYPE2": "4",
        "P_MOVE_TYPE_SKILL": "1",
        "P_MOVE_OFFSET": "0,0",
        "P_AFTERIMAGE": "0",
        "P_AI_TYPE": "100",
        "P_SKILL_INFO": "60035401,60035402",
        "P_ALT_SKILL_INFO": "",
        "P_ALT_SKILL_P": "3",
        "P_PASSIVE_SKILL_GROUP_INFO": "",
        "f91oUy7C": "60:60035401:2,80:60035402:2",
        "P_LEADER_SKILL_INFO": "1001004",
        "P_DISPORDER": "33",
        "P_SOUND_SETTING": "",
        "P_DISP_DICTIONARY": "1",
        "P_DICTIONARY_NO": "1",
        "P_DICTIONARY_BG": "33",
        "P_EXT_IMG_PARAM": "\u8aac\u660e",
        "P_PARAM_UP_EXT": "",
        "P_DOUBLE_SPHERE_TRIGGER": "0,0,0,0",
        "HMt6u09X": "3",
        "P_NEED_SWITCH_INFO": "1",
        "P_HIDE_SWITCH_INFO": "",
        "P_OPEN_SWITCH_INFO": "",
        "P_CREATEDATE": "2018-02-02 19:30:14",
        "P_UPDATEDATE": "2018-02-02 19:30:14"
    }
]