[
    {
        "KVZ8ag9n": "100",
        "P_SKILL_INFO": "5000009:1",
        "P_CREATEDATE": "2018-02-03 19:50:40",
        "P_UPDATEDATE": "2018-02-03 19:50:40"
    },
    {
        "KVZ8ag9n": "101",
        "P_SKILL_INFO": "5000010:1",
        "P_CREATEDATE": "2018-02-03 19:50:40",
        "P_UPDATEDATE": "2018-02-03 19:50:40"
    },
    {
        "KVZ8ag9n": "102",
        "P_SKILL_INFO": "5000011:1",
        "P_CREATEDATE": "2018-02-03 19:50:40",
        "P_UPDATEDATE": "2018-02-03 19:50:40"
    },
    {
        "KVZ8ag9n": "103",
        "P_SKILL_INFO": "5000012:1",
        "P_CREATEDATE": "2018-02-03 19:50:40",
        "P_UPDATEDATE": "2018-02-03 19:50:40"
    },
    {
        "KVZ8ag9n": "104",
        "P_SKILL_INFO": "5000013:1",
        "P_CREATEDATE": "2018-02-03 19:50:40",
        "P_UPDATEDATE": "2018-02-03 19:50:40"
    },
    {
        "KVZ8ag9n": "105",
        "P_SKILL_INFO": "5000020:1,5000021:1,5000022:1,5000023:1",
        "P_CREATEDATE": "2018-02-03 19:50:40",
        "P_UPDATEDATE": "2018-02-03 19:50:40"
    },
    {
        "KVZ8ag9n": "106",
        "P_SKILL_INFO": "5000024:1,5000020:0,5000022:0",
        "P_CREATEDATE": "2018-02-03 19:50:40",
        "P_UPDATEDATE": "2018-02-03 19:50:40"
    },
    {
        "KVZ8ag9n": "107",
        "P_SKILL_INFO": "5000025:1,5000026:1",
        "P_CREATEDATE": "2018-02-03 19:50:40",
        "P_UPDATEDATE": "2018-02-03 19:50:40"
    },
    {
        "KVZ8ag9n": "108",
        "P_SKILL_INFO": "5000037:1,5000038:0,5000039:0",
        "P_CREATEDATE": "2018-02-03 19:50:40",
        "P_UPDATEDATE": "2018-02-03 19:50:40"
    },
    {
        "KVZ8ag9n": "200",
        "P_SKILL_INFO": "5000001:1",
        "P_CREATEDATE": "2018-02-03 19:50:40",
        "P_UPDATEDATE": "2018-02-03 19:50:40"
    },
    {
        "KVZ8ag9n": "201",
        "P_SKILL_INFO": "5000001:1",
        "P_CREATEDATE": "2018-02-03 19:50:40",
        "P_UPDATEDATE": "2018-02-03 19:50:40"
    },
    {
        "KVZ8ag9n": "202",
        "P_SKILL_INFO": "5000001:1",
        "P_CREATEDATE": "2018-02-03 19:50:40",
        "P_UPDATEDATE": "2018-02-03 19:50:40"
    },
    {
        "KVZ8ag9n": "203",
        "P_SKILL_INFO": "5000001:1",
        "P_CREATEDATE": "2018-02-03 19:50:40",
        "P_UPDATEDATE": "2018-02-03 19:50:40"
    },
    {
        "KVZ8ag9n": "204",
        "P_SKILL_INFO": "5000001:1",
        "P_CREATEDATE": "2018-02-03 19:50:40",
        "P_UPDATEDATE": "2018-02-03 19:50:40"
    },
    {
        "KVZ8ag9n": "205",
        "P_SKILL_INFO": "5000001:1",
        "P_CREATEDATE": "2018-02-03 19:50:40",
        "P_UPDATEDATE": "2018-02-03 19:50:40"
    },
    {
        "KVZ8ag9n": "206",
        "P_SKILL_INFO": "5000001:1",
        "P_CREATEDATE": "2018-02-03 19:50:40",
        "P_UPDATEDATE": "2018-02-03 19:50:40"
    },
    {
        "KVZ8ag9n": "207",
        "P_SKILL_INFO": "5000001:1",
        "P_CREATEDATE": "2018-02-03 19:50:40",
        "P_UPDATEDATE": "2018-02-03 19:50:40"
    },
    {
        "KVZ8ag9n": "208",
        "P_SKILL_INFO": "5000001:1",
        "P_CREATEDATE": "2018-02-03 19:50:40",
        "P_UPDATEDATE": "2018-02-03 19:50:40"
    },
    {
        "KVZ8ag9n": "209",
        "P_SKILL_INFO": "5000001:1",
        "P_CREATEDATE": "2018-02-03 19:50:40",
        "P_UPDATEDATE": "2018-02-03 19:50:40"
    },
    {
        "KVZ8ag9n": "210",
        "P_SKILL_INFO": "5000001:1",
        "P_CREATEDATE": "2018-02-03 19:50:40",
        "P_UPDATEDATE": "2018-02-03 19:50:40"
    },
    {
        "KVZ8ag9n": "211",
        "P_SKILL_INFO": "5000001:1",
        "P_CREATEDATE": "2018-02-03 19:50:40",
        "P_UPDATEDATE": "2018-02-03 19:50:40"
    },
    {
        "KVZ8ag9n": "212",
        "P_SKILL_INFO": "5000001:1",
        "P_CREATEDATE": "2018-02-03 19:50:40",
        "P_UPDATEDATE": "2018-02-03 19:50:40"
    },
    {
        "KVZ8ag9n": "213",
        "P_SKILL_INFO": "5000001:1",
        "P_CREATEDATE": "2018-02-03 19:50:40",
        "P_UPDATEDATE": "2018-02-03 19:50:40"
    },
    {
        "KVZ8ag9n": "214",
        "P_SKILL_INFO": "5000001:1",
        "P_CREATEDATE": "2018-02-03 19:50:40",
        "P_UPDATEDATE": "2018-02-03 19:50:40"
    },
    {
        "KVZ8ag9n": "215",
        "P_SKILL_INFO": "5000001:1",
        "P_CREATEDATE": "2018-02-03 19:50:40",
        "P_UPDATEDATE": "2018-02-03 19:50:40"
    },
    {
        "KVZ8ag9n": "216",
        "P_SKILL_INFO": "5000001:1",
        "P_CREATEDATE": "2018-02-03 19:50:40",
        "P_UPDATEDATE": "2018-02-03 19:50:40"
    },
    {
        "KVZ8ag9n": "217",
        "P_SKILL_INFO": "5000001:1",
        "P_CREATEDATE": "2018-02-03 19:50:40",
        "P_UPDATEDATE": "2018-02-03 19:50:40"
    },
    {
        "KVZ8ag9n": "218",
        "P_SKILL_INFO": "5000001:1",
        "P_CREATEDATE": "2018-02-03 19:50:40",
        "P_UPDATEDATE": "2018-02-03 19:50:40"
    },
    {
        "KVZ8ag9n": "219",
        "P_SKILL_INFO": "5000001:1",
        "P_CREATEDATE": "2018-02-03 19:50:40",
        "P_UPDATEDATE": "2018-02-03 19:50:40"
    },
    {
        "KVZ8ag9n": "1000",
        "P_SKILL_INFO": "5000100:1,5000101:1,5000102:1,5000030:0",
        "P_CREATEDATE": "2018-02-03 19:50:40",
        "P_UPDATEDATE": "2018-02-03 19:50:40"
    },
    {
        "KVZ8ag9n": "1001",
        "P_SKILL_INFO": "5000160:1,5000161:1,5000030:0",
        "P_CREATEDATE": "2018-02-03 19:50:40",
        "P_UPDATEDATE": "2018-02-03 19:50:40"
    },
    {
        "KVZ8ag9n": "1002",
        "P_SKILL_INFO": "5000170:1,5000171:1,5000030:0",
        "P_CREATEDATE": "2018-02-03 19:50:40",
        "P_UPDATEDATE": "2018-02-03 19:50:40"
    },
    {
        "KVZ8ag9n": "1003",
        "P_SKILL_INFO": "5000130:1,5000131:1,5000132:1,5000133:1,5000030:0",
        "P_CREATEDATE": "2018-02-03 19:50:40",
        "P_UPDATEDATE": "2018-02-03 19:50:40"
    },
    {
        "KVZ8ag9n": "1004",
        "P_SKILL_INFO": "5000140:1,5000141:1,5000030:0",
        "P_CREATEDATE": "2018-02-03 19:50:40",
        "P_UPDATEDATE": "2018-02-03 19:50:40"
    },
    {
        "KVZ8ag9n": "1005",
        "P_SKILL_INFO": "5000150:1,5000151:1,5000030:0",
        "P_CREATEDATE": "2018-02-03 19:50:40",
        "P_UPDATEDATE": "2018-02-03 19:50:40"
    },
    {
        "KVZ8ag9n": "1006",
        "P_SKILL_INFO": "5000110:1,5000030:0",
        "P_CREATEDATE": "2018-02-03 19:50:40",
        "P_UPDATEDATE": "2018-02-03 19:50:40"
    },
    {
        "KVZ8ag9n": "2000",
        "P_SKILL_INFO": "5010000:0",
        "P_CREATEDATE": "2018-02-03 19:50:40",
        "P_UPDATEDATE": "2018-02-03 19:50:40"
    },
    {
        "KVZ8ag9n": "2001",
        "P_SKILL_INFO": "5010001:0",
        "P_CREATEDATE": "2018-02-03 19:50:40",
        "P_UPDATEDATE": "2018-02-03 19:50:40"
    },
    {
        "KVZ8ag9n": "2002",
        "P_SKILL_INFO": "5010002:0",
        "P_CREATEDATE": "2018-02-03 19:50:40",
        "P_UPDATEDATE": "2018-02-03 19:50:40"
    },
    {
        "KVZ8ag9n": "2003",
        "P_SKILL_INFO": "5010003:0",
        "P_CREATEDATE": "2018-02-03 19:50:40",
        "P_UPDATEDATE": "2018-02-03 19:50:40"
    },
    {
        "KVZ8ag9n": "2004",
        "P_SKILL_INFO": "5010004:0",
        "P_CREATEDATE": "2018-02-03 19:50:40",
        "P_UPDATEDATE": "2018-02-03 19:50:40"
    },
    {
        "KVZ8ag9n": "2005",
        "P_SKILL_INFO": "5010005:0",
        "P_CREATEDATE": "2018-02-03 19:50:40",
        "P_UPDATEDATE": "2018-02-03 19:50:40"
    },
    {
        "KVZ8ag9n": "2006",
        "P_SKILL_INFO": "5010006:0",
        "P_CREATEDATE": "2018-02-03 19:50:40",
        "P_UPDATEDATE": "2018-02-03 19:50:40"
    },
    {
        "KVZ8ag9n": "2007",
        "P_SKILL_INFO": "5010007:0",
        "P_CREATEDATE": "2018-02-03 19:50:40",
        "P_UPDATEDATE": "2018-02-03 19:50:40"
    },
    {
        "KVZ8ag9n": "2008",
        "P_SKILL_INFO": "5010008:0",
        "P_CREATEDATE": "2018-02-03 19:50:40",
        "P_UPDATEDATE": "2018-02-03 19:50:40"
    },
    {
        "KVZ8ag9n": "2009",
        "P_SKILL_INFO": "5010009:0",
        "P_CREATEDATE": "2018-02-03 19:50:40",
        "P_UPDATEDATE": "2018-02-03 19:50:40"
    },
    {
        "KVZ8ag9n": "2010",
        "P_SKILL_INFO": "5010010:0",
        "P_CREATEDATE": "2018-02-03 19:50:40",
        "P_UPDATEDATE": "2018-02-03 19:50:40"
    },
    {
        "KVZ8ag9n": "2011",
        "P_SKILL_INFO": "5010011:0",
        "P_CREATEDATE": "2018-02-03 19:50:40",
        "P_UPDATEDATE": "2018-02-03 19:50:40"
    },
    {
        "KVZ8ag9n": "2012",
        "P_SKILL_INFO": "5010012:0",
        "P_CREATEDATE": "2018-02-03 19:50:40",
        "P_UPDATEDATE": "2018-02-03 19:50:40"
    },
    {
        "KVZ8ag9n": "2013",
        "P_SKILL_INFO": "5010013:0",
        "P_CREATEDATE": "2018-02-03 19:50:40",
        "P_UPDATEDATE": "2018-02-03 19:50:40"
    },
    {
        "KVZ8ag9n": "2014",
        "P_SKILL_INFO": "5010014:0",
        "P_CREATEDATE": "2018-02-03 19:50:40",
        "P_UPDATEDATE": "2018-02-03 19:50:40"
    },
    {
        "KVZ8ag9n": "2015",
        "P_SKILL_INFO": "5010015:0",
        "P_CREATEDATE": "2018-02-03 19:50:40",
        "P_UPDATEDATE": "2018-02-03 19:50:40"
    },
    {
        "KVZ8ag9n": "2016",
        "P_SKILL_INFO": "5010016:0",
        "P_CREATEDATE": "2018-02-03 19:50:40",
        "P_UPDATEDATE": "2018-02-03 19:50:40"
    },
    {
        "KVZ8ag9n": "2017",
        "P_SKILL_INFO": "5010017:0",
        "P_CREATEDATE": "2018-02-03 19:50:40",
        "P_UPDATEDATE": "2018-02-03 19:50:40"
    },
    {
        "KVZ8ag9n": "2018",
        "P_SKILL_INFO": "5010018:0",
        "P_CREATEDATE": "2018-02-03 19:50:40",
        "P_UPDATEDATE": "2018-02-03 19:50:40"
    },
    {
        "KVZ8ag9n": "2019",
        "P_SKILL_INFO": "5010019:0",
        "P_CREATEDATE": "2018-02-03 19:50:40",
        "P_UPDATEDATE": "2018-02-03 19:50:40"
    },
    {
        "KVZ8ag9n": "2020",
        "P_SKILL_INFO": "5010020:0",
        "P_CREATEDATE": "2018-02-03 19:50:40",
        "P_UPDATEDATE": "2018-02-03 19:50:40"
    },
    {
        "KVZ8ag9n": "2021",
        "P_SKILL_INFO": "5010021:0",
        "P_CREATEDATE": "2018-02-03 19:50:40",
        "P_UPDATEDATE": "2018-02-03 19:50:40"
    },
    {
        "KVZ8ag9n": "2022",
        "P_SKILL_INFO": "5010022:0",
        "P_CREATEDATE": "2018-02-03 19:50:40",
        "P_UPDATEDATE": "2018-02-03 19:50:40"
    },
    {
        "KVZ8ag9n": "2023",
        "P_SKILL_INFO": "5010023:0",
        "P_CREATEDATE": "2018-02-03 19:50:40",
        "P_UPDATEDATE": "2018-02-03 19:50:40"
    },
    {
        "KVZ8ag9n": "2024",
        "P_SKILL_INFO": "5010024:0",
        "P_CREATEDATE": "2018-02-03 19:50:40",
        "P_UPDATEDATE": "2018-02-03 19:50:40"
    },
    {
        "KVZ8ag9n": "2025",
        "P_SKILL_INFO": "5010025:0",
        "P_CREATEDATE": "2018-02-03 19:50:40",
        "P_UPDATEDATE": "2018-02-03 19:50:40"
    },
    {
        "KVZ8ag9n": "2026",
        "P_SKILL_INFO": "5010026:0",
        "P_CREATEDATE": "2018-02-03 19:50:40",
        "P_UPDATEDATE": "2018-02-03 19:50:40"
    },
    {
        "KVZ8ag9n": "2027",
        "P_SKILL_INFO": "5010027:0",
        "P_CREATEDATE": "2018-02-03 19:50:40",
        "P_UPDATEDATE": "2018-02-03 19:50:40"
    },
    {
        "KVZ8ag9n": "2030",
        "P_SKILL_INFO": "5010030:0",
        "P_CREATEDATE": "2018-02-03 19:50:40",
        "P_UPDATEDATE": "2018-02-03 19:50:40"
    },
    {
        "KVZ8ag9n": "2031",
        "P_SKILL_INFO": "5010031:0",
        "P_CREATEDATE": "2018-02-03 19:50:40",
        "P_UPDATEDATE": "2018-02-03 19:50:40"
    },
    {
        "KVZ8ag9n": "2032",
        "P_SKILL_INFO": "5010032:0",
        "P_CREATEDATE": "2018-02-03 19:50:40",
        "P_UPDATEDATE": "2018-02-03 19:50:40"
    },
    {
        "KVZ8ag9n": "2033",
        "P_SKILL_INFO": "5010033:0",
        "P_CREATEDATE": "2018-02-03 19:50:40",
        "P_UPDATEDATE": "2018-02-03 19:50:40"
    },
    {
        "KVZ8ag9n": "2034",
        "P_SKILL_INFO": "5010034:0",
        "P_CREATEDATE": "2018-02-03 19:50:40",
        "P_UPDATEDATE": "2018-02-03 19:50:40"
    },
    {
        "KVZ8ag9n": "2035",
        "P_SKILL_INFO": "5010035:0",
        "P_CREATEDATE": "2018-02-03 19:50:40",
        "P_UPDATEDATE": "2018-02-03 19:50:40"
    },
    {
        "KVZ8ag9n": "2036",
        "P_SKILL_INFO": "5010036:0",
        "P_CREATEDATE": "2018-02-03 19:50:40",
        "P_UPDATEDATE": "2018-02-03 19:50:40"
    },
    {
        "KVZ8ag9n": "2037",
        "P_SKILL_INFO": "5010037:0",
        "P_CREATEDATE": "2018-02-03 19:50:40",
        "P_UPDATEDATE": "2018-02-03 19:50:40"
    },
    {
        "KVZ8ag9n": "2038",
        "P_SKILL_INFO": "5010038:0",
        "P_CREATEDATE": "2018-02-03 19:50:40",
        "P_UPDATEDATE": "2018-02-03 19:50:40"
    },
    {
        "KVZ8ag9n": "2039",
        "P_SKILL_INFO": "5010039:0",
        "P_CREATEDATE": "2018-02-03 19:50:40",
        "P_UPDATEDATE": "2018-02-03 19:50:40"
    },
    {
        "KVZ8ag9n": "2040",
        "P_SKILL_INFO": "5010040:0",
        "P_CREATEDATE": "2018-02-03 19:50:40",
        "P_UPDATEDATE": "2018-02-03 19:50:40"
    },
    {
        "KVZ8ag9n": "2041",
        "P_SKILL_INFO": "5010041:0",
        "P_CREATEDATE": "2018-02-03 19:50:40",
        "P_UPDATEDATE": "2018-02-03 19:50:40"
    },
    {
        "KVZ8ag9n": "2042",
        "P_SKILL_INFO": "5010042:0",
        "P_CREATEDATE": "2018-02-03 19:50:40",
        "P_UPDATEDATE": "2018-02-03 19:50:40"
    },
    {
        "KVZ8ag9n": "2043",
        "P_SKILL_INFO": "5010043:0",
        "P_CREATEDATE": "2018-02-03 19:50:40",
        "P_UPDATEDATE": "2018-02-03 19:50:40"
    },
    {
        "KVZ8ag9n": "2044",
        "P_SKILL_INFO": "5010044:0",
        "P_CREATEDATE": "2018-02-03 19:50:40",
        "P_UPDATEDATE": "2018-02-03 19:50:40"
    },
    {
        "KVZ8ag9n": "2045",
        "P_SKILL_INFO": "5010045:0",
        "P_CREATEDATE": "2018-02-03 19:50:40",
        "P_UPDATEDATE": "2018-02-03 19:50:40"
    },
    {
        "KVZ8ag9n": "2046",
        "P_SKILL_INFO": "5010046:0",
        "P_CREATEDATE": "2018-02-03 19:50:40",
        "P_UPDATEDATE": "2018-02-03 19:50:40"
    },
    {
        "KVZ8ag9n": "2047",
        "P_SKILL_INFO": "5010047:0",
        "P_CREATEDATE": "2018-02-03 19:50:40",
        "P_UPDATEDATE": "2018-02-03 19:50:40"
    },
    {
        "KVZ8ag9n": "2048",
        "P_SKILL_INFO": "5010048:0",
        "P_CREATEDATE": "2018-02-03 19:50:40",
        "P_UPDATEDATE": "2018-02-03 19:50:40"
    },
    {
        "KVZ8ag9n": "2049",
        "P_SKILL_INFO": "5010049:0",
        "P_CREATEDATE": "2018-02-03 19:50:40",
        "P_UPDATEDATE": "2018-02-03 19:50:40"
    },
    {
        "KVZ8ag9n": "2050",
        "P_SKILL_INFO": "5010050:0",
        "P_CREATEDATE": "2018-02-03 19:50:40",
        "P_UPDATEDATE": "2018-02-03 19:50:40"
    },
    {
        "KVZ8ag9n": "2051",
        "P_SKILL_INFO": "5010051:0",
        "P_CREATEDATE": "2018-02-03 19:50:40",
        "P_UPDATEDATE": "2018-02-03 19:50:40"
    },
    {
        "KVZ8ag9n": "2052",
        "P_SKILL_INFO": "5010052:0",
        "P_CREATEDATE": "2018-02-03 19:50:40",
        "P_UPDATEDATE": "2018-02-03 19:50:40"
    },
    {
        "KVZ8ag9n": "2053",
        "P_SKILL_INFO": "5010053:0",
        "P_CREATEDATE": "2018-02-03 19:50:40",
        "P_UPDATEDATE": "2018-02-03 19:50:40"
    },
    {
        "KVZ8ag9n": "2054",
        "P_SKILL_INFO": "5010054:0",
        "P_CREATEDATE": "2018-02-03 19:50:40",
        "P_UPDATEDATE": "2018-02-03 19:50:40"
    },
    {
        "KVZ8ag9n": "2055",
        "P_SKILL_INFO": "5010055:0",
        "P_CREATEDATE": "2018-02-03 19:50:40",
        "P_UPDATEDATE": "2018-02-03 19:50:40"
    },
    {
        "KVZ8ag9n": "2056",
        "P_SKILL_INFO": "5010056:0",
        "P_CREATEDATE": "2018-02-03 19:50:40",
        "P_UPDATEDATE": "2018-02-03 19:50:40"
    },
    {
        "KVZ8ag9n": "2057",
        "P_SKILL_INFO": "5010057:0",
        "P_CREATEDATE": "2018-02-03 19:50:40",
        "P_UPDATEDATE": "2018-02-03 19:50:40"
    },
    {
        "KVZ8ag9n": "2060",
        "P_SKILL_INFO": "5010060:0",
        "P_CREATEDATE": "2018-02-03 19:50:40",
        "P_UPDATEDATE": "2018-02-03 19:50:40"
    },
    {
        "KVZ8ag9n": "2061",
        "P_SKILL_INFO": "5010061:0",
        "P_CREATEDATE": "2018-02-03 19:50:40",
        "P_UPDATEDATE": "2018-02-03 19:50:40"
    },
    {
        "KVZ8ag9n": "2062",
        "P_SKILL_INFO": "5010062:0",
        "P_CREATEDATE": "2018-02-03 19:50:40",
        "P_UPDATEDATE": "2018-02-03 19:50:40"
    },
    {
        "KVZ8ag9n": "2063",
        "P_SKILL_INFO": "5010063:0",
        "P_CREATEDATE": "2018-02-03 19:50:40",
        "P_UPDATEDATE": "2018-02-03 19:50:40"
    },
    {
        "KVZ8ag9n": "2064",
        "P_SKILL_INFO": "5010064:0",
        "P_CREATEDATE": "2018-02-03 19:50:40",
        "P_UPDATEDATE": "2018-02-03 19:50:40"
    },
    {
        "KVZ8ag9n": "2065",
        "P_SKILL_INFO": "5010065:0",
        "P_CREATEDATE": "2018-02-03 19:50:40",
        "P_UPDATEDATE": "2018-02-03 19:50:40"
    },
    {
        "KVZ8ag9n": "2066",
        "P_SKILL_INFO": "5010066:0",
        "P_CREATEDATE": "2018-02-03 19:50:40",
        "P_UPDATEDATE": "2018-02-03 19:50:40"
    },
    {
        "KVZ8ag9n": "2067",
        "P_SKILL_INFO": "5010067:0",
        "P_CREATEDATE": "2018-02-03 19:50:40",
        "P_UPDATEDATE": "2018-02-03 19:50:40"
    },
    {
        "KVZ8ag9n": "2068",
        "P_SKILL_INFO": "5010068:0",
        "P_CREATEDATE": "2018-02-03 19:50:40",
        "P_UPDATEDATE": "2018-02-03 19:50:40"
    },
    {
        "KVZ8ag9n": "2069",
        "P_SKILL_INFO": "5010069:0",
        "P_CREATEDATE": "2018-02-03 19:50:40",
        "P_UPDATEDATE": "2018-02-03 19:50:40"
    },
    {
        "KVZ8ag9n": "2070",
        "P_SKILL_INFO": "5010070:0",
        "P_CREATEDATE": "2018-02-03 19:50:40",
        "P_UPDATEDATE": "2018-02-03 19:50:40"
    },
    {
        "KVZ8ag9n": "2071",
        "P_SKILL_INFO": "5010071:0",
        "P_CREATEDATE": "2018-02-03 19:50:40",
        "P_UPDATEDATE": "2018-02-03 19:50:40"
    },
    {
        "KVZ8ag9n": "2072",
        "P_SKILL_INFO": "5010072:0",
        "P_CREATEDATE": "2018-02-03 19:50:40",
        "P_UPDATEDATE": "2018-02-03 19:50:40"
    },
    {
        "KVZ8ag9n": "2073",
        "P_SKILL_INFO": "5010073:0",
        "P_CREATEDATE": "2018-02-03 19:50:40",
        "P_UPDATEDATE": "2018-02-03 19:50:40"
    },
    {
        "KVZ8ag9n": "2074",
        "P_SKILL_INFO": "5010074:0",
        "P_CREATEDATE": "2018-02-03 19:50:40",
        "P_UPDATEDATE": "2018-02-03 19:50:40"
    },
    {
        "KVZ8ag9n": "2075",
        "P_SKILL_INFO": "5010075:0",
        "P_CREATEDATE": "2018-02-03 19:50:40",
        "P_UPDATEDATE": "2018-02-03 19:50:40"
    },
    {
        "KVZ8ag9n": "2076",
        "P_SKILL_INFO": "5010076:0",
        "P_CREATEDATE": "2018-02-03 19:50:40",
        "P_UPDATEDATE": "2018-02-03 19:50:40"
    },
    {
        "KVZ8ag9n": "2077",
        "P_SKILL_INFO": "5010077:0",
        "P_CREATEDATE": "2018-02-03 19:50:40",
        "P_UPDATEDATE": "2018-02-03 19:50:40"
    },
    {
        "KVZ8ag9n": "2078",
        "P_SKILL_INFO": "5010078:0",
        "P_CREATEDATE": "2018-02-03 19:50:40",
        "P_UPDATEDATE": "2018-02-03 19:50:40"
    },
    {
        "KVZ8ag9n": "2079",
        "P_SKILL_INFO": "5010079:0",
        "P_CREATEDATE": "2018-02-03 19:50:40",
        "P_UPDATEDATE": "2018-02-03 19:50:40"
    },
    {
        "KVZ8ag9n": "2080",
        "P_SKILL_INFO": "5010080:0",
        "P_CREATEDATE": "2018-02-03 19:50:40",
        "P_UPDATEDATE": "2018-02-03 19:50:40"
    },
    {
        "KVZ8ag9n": "2081",
        "P_SKILL_INFO": "5010081:0",
        "P_CREATEDATE": "2018-02-03 19:50:40",
        "P_UPDATEDATE": "2018-02-03 19:50:40"
    },
    {
        "KVZ8ag9n": "2082",
        "P_SKILL_INFO": "5010082:0",
        "P_CREATEDATE": "2018-02-03 19:50:40",
        "P_UPDATEDATE": "2018-02-03 19:50:40"
    },
    {
        "KVZ8ag9n": "2083",
        "P_SKILL_INFO": "5010083:0",
        "P_CREATEDATE": "2018-02-03 19:50:40",
        "P_UPDATEDATE": "2018-02-03 19:50:40"
    },
    {
        "KVZ8ag9n": "2084",
        "P_SKILL_INFO": "5010084:0",
        "P_CREATEDATE": "2018-02-03 19:50:40",
        "P_UPDATEDATE": "2018-02-03 19:50:40"
    },
    {
        "KVZ8ag9n": "2085",
        "P_SKILL_INFO": "5010085:0",
        "P_CREATEDATE": "2018-02-03 19:50:40",
        "P_UPDATEDATE": "2018-02-03 19:50:40"
    },
    {
        "KVZ8ag9n": "2086",
        "P_SKILL_INFO": "5010086:0",
        "P_CREATEDATE": "2018-02-03 19:50:40",
        "P_UPDATEDATE": "2018-02-03 19:50:40"
    },
    {
        "KVZ8ag9n": "2087",
        "P_SKILL_INFO": "5010087:0",
        "P_CREATEDATE": "2018-02-03 19:50:40",
        "P_UPDATEDATE": "2018-02-03 19:50:40"
    },
    {
        "KVZ8ag9n": "2090",
        "P_SKILL_INFO": "5010090:0",
        "P_CREATEDATE": "2018-02-03 19:50:40",
        "P_UPDATEDATE": "2018-02-03 19:50:40"
    },
    {
        "KVZ8ag9n": "2091",
        "P_SKILL_INFO": "5010091:0",
        "P_CREATEDATE": "2018-02-03 19:50:40",
        "P_UPDATEDATE": "2018-02-03 19:50:40"
    },
    {
        "KVZ8ag9n": "2092",
        "P_SKILL_INFO": "5010092:0",
        "P_CREATEDATE": "2018-02-03 19:50:40",
        "P_UPDATEDATE": "2018-02-03 19:50:40"
    },
    {
        "KVZ8ag9n": "2093",
        "P_SKILL_INFO": "5010093:0",
        "P_CREATEDATE": "2018-02-03 19:50:40",
        "P_UPDATEDATE": "2018-02-03 19:50:40"
    },
    {
        "KVZ8ag9n": "2094",
        "P_SKILL_INFO": "5010094:0",
        "P_CREATEDATE": "2018-02-03 19:50:40",
        "P_UPDATEDATE": "2018-02-03 19:50:40"
    },
    {
        "KVZ8ag9n": "2095",
        "P_SKILL_INFO": "5010095:0",
        "P_CREATEDATE": "2018-02-03 19:50:40",
        "P_UPDATEDATE": "2018-02-03 19:50:40"
    },
    {
        "KVZ8ag9n": "2096",
        "P_SKILL_INFO": "5010096:0",
        "P_CREATEDATE": "2018-02-03 19:50:40",
        "P_UPDATEDATE": "2018-02-03 19:50:40"
    },
    {
        "KVZ8ag9n": "2097",
        "P_SKILL_INFO": "5010097:0",
        "P_CREATEDATE": "2018-02-03 19:50:40",
        "P_UPDATEDATE": "2018-02-03 19:50:40"
    },
    {
        "KVZ8ag9n": "2098",
        "P_SKILL_INFO": "5010098:0",
        "P_CREATEDATE": "2018-02-03 19:50:40",
        "P_UPDATEDATE": "2018-02-03 19:50:40"
    },
    {
        "KVZ8ag9n": "2099",
        "P_SKILL_INFO": "5010099:0",
        "P_CREATEDATE": "2018-02-03 19:50:40",
        "P_UPDATEDATE": "2018-02-03 19:50:40"
    },
    {
        "KVZ8ag9n": "2100",
        "P_SKILL_INFO": "5010100:0",
        "P_CREATEDATE": "2018-02-03 19:50:40",
        "P_UPDATEDATE": "2018-02-03 19:50:40"
    },
    {
        "KVZ8ag9n": "2101",
        "P_SKILL_INFO": "5010101:0",
        "P_CREATEDATE": "2018-02-03 19:50:40",
        "P_UPDATEDATE": "2018-02-03 19:50:40"
    },
    {
        "KVZ8ag9n": "2102",
        "P_SKILL_INFO": "5010102:0",
        "P_CREATEDATE": "2018-02-03 19:50:40",
        "P_UPDATEDATE": "2018-02-03 19:50:40"
    },
    {
        "KVZ8ag9n": "2103",
        "P_SKILL_INFO": "5010103:0",
        "P_CREATEDATE": "2018-02-03 19:50:40",
        "P_UPDATEDATE": "2018-02-03 19:50:40"
    },
    {
        "KVZ8ag9n": "2104",
        "P_SKILL_INFO": "5010104:0",
        "P_CREATEDATE": "2018-02-03 19:50:40",
        "P_UPDATEDATE": "2018-02-03 19:50:40"
    },
    {
        "KVZ8ag9n": "2105",
        "P_SKILL_INFO": "5010105:0",
        "P_CREATEDATE": "2018-02-03 19:50:40",
        "P_UPDATEDATE": "2018-02-03 19:50:40"
    },
    {
        "KVZ8ag9n": "2106",
        "P_SKILL_INFO": "5010106:0",
        "P_CREATEDATE": "2018-02-03 19:50:40",
        "P_UPDATEDATE": "2018-02-03 19:50:40"
    },
    {
        "KVZ8ag9n": "2107",
        "P_SKILL_INFO": "5010107:0",
        "P_CREATEDATE": "2018-02-03 19:50:40",
        "P_UPDATEDATE": "2018-02-03 19:50:40"
    },
    {
        "KVZ8ag9n": "2108",
        "P_SKILL_INFO": "5010108:0",
        "P_CREATEDATE": "2018-02-03 19:50:40",
        "P_UPDATEDATE": "2018-02-03 19:50:40"
    },
    {
        "KVZ8ag9n": "2109",
        "P_SKILL_INFO": "5010109:0",
        "P_CREATEDATE": "2018-02-03 19:50:40",
        "P_UPDATEDATE": "2018-02-03 19:50:40"
    },
    {
        "KVZ8ag9n": "2110",
        "P_SKILL_INFO": "5010110:0",
        "P_CREATEDATE": "2018-02-03 19:50:40",
        "P_UPDATEDATE": "2018-02-03 19:50:40"
    },
    {
        "KVZ8ag9n": "2111",
        "P_SKILL_INFO": "5010111:0",
        "P_CREATEDATE": "2018-02-03 19:50:40",
        "P_UPDATEDATE": "2018-02-03 19:50:40"
    },
    {
        "KVZ8ag9n": "2112",
        "P_SKILL_INFO": "5010112:0",
        "P_CREATEDATE": "2018-02-03 19:50:40",
        "P_UPDATEDATE": "2018-02-03 19:50:40"
    },
    {
        "KVZ8ag9n": "2113",
        "P_SKILL_INFO": "5010113:0",
        "P_CREATEDATE": "2018-02-03 19:50:40",
        "P_UPDATEDATE": "2018-02-03 19:50:40"
    },
    {
        "KVZ8ag9n": "2114",
        "P_SKILL_INFO": "5010114:0",
        "P_CREATEDATE": "2018-02-03 19:50:40",
        "P_UPDATEDATE": "2018-02-03 19:50:40"
    },
    {
        "KVZ8ag9n": "2115",
        "P_SKILL_INFO": "5010115:0",
        "P_CREATEDATE": "2018-02-03 19:50:40",
        "P_UPDATEDATE": "2018-02-03 19:50:40"
    },
    {
        "KVZ8ag9n": "2116",
        "P_SKILL_INFO": "5010116:0",
        "P_CREATEDATE": "2018-02-03 19:50:40",
        "P_UPDATEDATE": "2018-02-03 19:50:40"
    },
    {
        "KVZ8ag9n": "2117",
        "P_SKILL_INFO": "5010117:0",
        "P_CREATEDATE": "2018-02-03 19:50:40",
        "P_UPDATEDATE": "2018-02-03 19:50:40"
    },
    {
        "KVZ8ag9n": "2120",
        "P_SKILL_INFO": "5010120:0",
        "P_CREATEDATE": "2018-02-03 19:50:40",
        "P_UPDATEDATE": "2018-02-03 19:50:40"
    },
    {
        "KVZ8ag9n": "2121",
        "P_SKILL_INFO": "5010121:0",
        "P_CREATEDATE": "2018-02-03 19:50:40",
        "P_UPDATEDATE": "2018-02-03 19:50:40"
    },
    {
        "KVZ8ag9n": "2122",
        "P_SKILL_INFO": "5010122:0",
        "P_CREATEDATE": "2018-02-03 19:50:40",
        "P_UPDATEDATE": "2018-02-03 19:50:40"
    },
    {
        "KVZ8ag9n": "2123",
        "P_SKILL_INFO": "5010123:0",
        "P_CREATEDATE": "2018-02-03 19:50:40",
        "P_UPDATEDATE": "2018-02-03 19:50:40"
    },
    {
        "KVZ8ag9n": "2124",
        "P_SKILL_INFO": "5010124:0",
        "P_CREATEDATE": "2018-02-03 19:50:40",
        "P_UPDATEDATE": "2018-02-03 19:50:40"
    },
    {
        "KVZ8ag9n": "2125",
        "P_SKILL_INFO": "5010125:0",
        "P_CREATEDATE": "2018-02-03 19:50:40",
        "P_UPDATEDATE": "2018-02-03 19:50:40"
    },
    {
        "KVZ8ag9n": "2126",
        "P_SKILL_INFO": "5010126:0",
        "P_CREATEDATE": "2018-02-03 19:50:40",
        "P_UPDATEDATE": "2018-02-03 19:50:40"
    },
    {
        "KVZ8ag9n": "2127",
        "P_SKILL_INFO": "5010127:0",
        "P_CREATEDATE": "2018-02-03 19:50:40",
        "P_UPDATEDATE": "2018-02-03 19:50:40"
    },
    {
        "KVZ8ag9n": "2128",
        "P_SKILL_INFO": "5010128:0",
        "P_CREATEDATE": "2018-02-03 19:50:40",
        "P_UPDATEDATE": "2018-02-03 19:50:40"
    },
    {
        "KVZ8ag9n": "2129",
        "P_SKILL_INFO": "5010129:0",
        "P_CREATEDATE": "2018-02-03 19:50:40",
        "P_UPDATEDATE": "2018-02-03 19:50:40"
    },
    {
        "KVZ8ag9n": "2130",
        "P_SKILL_INFO": "5010130:0",
        "P_CREATEDATE": "2018-02-03 19:50:40",
        "P_UPDATEDATE": "2018-02-03 19:50:40"
    },
    {
        "KVZ8ag9n": "2131",
        "P_SKILL_INFO": "5010131:0",
        "P_CREATEDATE": "2018-02-03 19:50:40",
        "P_UPDATEDATE": "2018-02-03 19:50:40"
    },
    {
        "KVZ8ag9n": "2140",
        "P_SKILL_INFO": "5010140:0",
        "P_CREATEDATE": "2018-02-03 19:50:40",
        "P_UPDATEDATE": "2018-02-03 19:50:40"
    },
    {
        "KVZ8ag9n": "2141",
        "P_SKILL_INFO": "5010141:0",
        "P_CREATEDATE": "2018-02-03 19:50:40",
        "P_UPDATEDATE": "2018-02-03 19:50:40"
    },
    {
        "KVZ8ag9n": "2142",
        "P_SKILL_INFO": "5010142:0",
        "P_CREATEDATE": "2018-02-03 19:50:40",
        "P_UPDATEDATE": "2018-02-03 19:50:40"
    },
    {
        "KVZ8ag9n": "2143",
        "P_SKILL_INFO": "5010143:0",
        "P_CREATEDATE": "2018-02-03 19:50:40",
        "P_UPDATEDATE": "2018-02-03 19:50:40"
    },
    {
        "KVZ8ag9n": "2144",
        "P_SKILL_INFO": "5010144:0",
        "P_CREATEDATE": "2018-02-03 19:50:40",
        "P_UPDATEDATE": "2018-02-03 19:50:40"
    },
    {
        "KVZ8ag9n": "2145",
        "P_SKILL_INFO": "5010145:0",
        "P_CREATEDATE": "2018-02-03 19:50:40",
        "P_UPDATEDATE": "2018-02-03 19:50:40"
    },
    {
        "KVZ8ag9n": "2146",
        "P_SKILL_INFO": "5010146:0",
        "P_CREATEDATE": "2018-02-03 19:50:41",
        "P_UPDATEDATE": "2018-02-03 19:50:41"
    },
    {
        "KVZ8ag9n": "2147",
        "P_SKILL_INFO": "5010147:0",
        "P_CREATEDATE": "2018-02-03 19:50:41",
        "P_UPDATEDATE": "2018-02-03 19:50:41"
    },
    {
        "KVZ8ag9n": "2148",
        "P_SKILL_INFO": "5010148:0",
        "P_CREATEDATE": "2018-02-03 19:50:41",
        "P_UPDATEDATE": "2018-02-03 19:50:41"
    },
    {
        "KVZ8ag9n": "2149",
        "P_SKILL_INFO": "5010149:0",
        "P_CREATEDATE": "2018-02-03 19:50:41",
        "P_UPDATEDATE": "2018-02-03 19:50:41"
    },
    {
        "KVZ8ag9n": "2150",
        "P_SKILL_INFO": "5010150:0",
        "P_CREATEDATE": "2018-02-03 19:50:41",
        "P_UPDATEDATE": "2018-02-03 19:50:41"
    },
    {
        "KVZ8ag9n": "2151",
        "P_SKILL_INFO": "5010151:0",
        "P_CREATEDATE": "2018-02-03 19:50:41",
        "P_UPDATEDATE": "2018-02-03 19:50:41"
    },
    {
        "KVZ8ag9n": "2160",
        "P_SKILL_INFO": "5010160:0",
        "P_CREATEDATE": "2018-02-03 19:50:41",
        "P_UPDATEDATE": "2018-02-03 19:50:41"
    },
    {
        "KVZ8ag9n": "2161",
        "P_SKILL_INFO": "5010161:0",
        "P_CREATEDATE": "2018-02-03 19:50:41",
        "P_UPDATEDATE": "2018-02-03 19:50:41"
    },
    {
        "KVZ8ag9n": "2162",
        "P_SKILL_INFO": "5010162:0",
        "P_CREATEDATE": "2018-02-03 19:50:41",
        "P_UPDATEDATE": "2018-02-03 19:50:41"
    },
    {
        "KVZ8ag9n": "2163",
        "P_SKILL_INFO": "5010163:0",
        "P_CREATEDATE": "2018-02-03 19:50:41",
        "P_UPDATEDATE": "2018-02-03 19:50:41"
    },
    {
        "KVZ8ag9n": "2164",
        "P_SKILL_INFO": "5010164:0",
        "P_CREATEDATE": "2018-02-03 19:50:41",
        "P_UPDATEDATE": "2018-02-03 19:50:41"
    },
    {
        "KVZ8ag9n": "2165",
        "P_SKILL_INFO": "5010165:0",
        "P_CREATEDATE": "2018-02-03 19:50:41",
        "P_UPDATEDATE": "2018-02-03 19:50:41"
    },
    {
        "KVZ8ag9n": "2166",
        "P_SKILL_INFO": "5010166:0",
        "P_CREATEDATE": "2018-02-03 19:50:41",
        "P_UPDATEDATE": "2018-02-03 19:50:41"
    },
    {
        "KVZ8ag9n": "2167",
        "P_SKILL_INFO": "5010167:0",
        "P_CREATEDATE": "2018-02-03 19:50:41",
        "P_UPDATEDATE": "2018-02-03 19:50:41"
    },
    {
        "KVZ8ag9n": "2168",
        "P_SKILL_INFO": "5010168:0",
        "P_CREATEDATE": "2018-02-03 19:50:41",
        "P_UPDATEDATE": "2018-02-03 19:50:41"
    },
    {
        "KVZ8ag9n": "2169",
        "P_SKILL_INFO": "5010169:0",
        "P_CREATEDATE": "2018-02-03 19:50:41",
        "P_UPDATEDATE": "2018-02-03 19:50:41"
    },
    {
        "KVZ8ag9n": "2170",
        "P_SKILL_INFO": "5010170:0",
        "P_CREATEDATE": "2018-02-03 19:50:41",
        "P_UPDATEDATE": "2018-02-03 19:50:41"
    },
    {
        "KVZ8ag9n": "2171",
        "P_SKILL_INFO": "5010171:0",
        "P_CREATEDATE": "2018-02-03 19:50:41",
        "P_UPDATEDATE": "2018-02-03 19:50:41"
    },
    {
        "KVZ8ag9n": "2180",
        "P_SKILL_INFO": "5010180:0",
        "P_CREATEDATE": "2018-02-03 19:50:41",
        "P_UPDATEDATE": "2018-02-03 19:50:41"
    },
    {
        "KVZ8ag9n": "2181",
        "P_SKILL_INFO": "5010181:0",
        "P_CREATEDATE": "2018-02-03 19:50:41",
        "P_UPDATEDATE": "2018-02-03 19:50:41"
    },
    {
        "KVZ8ag9n": "2182",
        "P_SKILL_INFO": "5010182:0",
        "P_CREATEDATE": "2018-02-03 19:50:41",
        "P_UPDATEDATE": "2018-02-03 19:50:41"
    },
    {
        "KVZ8ag9n": "2183",
        "P_SKILL_INFO": "5010183:0",
        "P_CREATEDATE": "2018-02-03 19:50:41",
        "P_UPDATEDATE": "2018-02-03 19:50:41"
    },
    {
        "KVZ8ag9n": "2184",
        "P_SKILL_INFO": "5010184:0",
        "P_CREATEDATE": "2018-02-03 19:50:41",
        "P_UPDATEDATE": "2018-02-03 19:50:41"
    },
    {
        "KVZ8ag9n": "2185",
        "P_SKILL_INFO": "5010185:0",
        "P_CREATEDATE": "2018-02-03 19:50:41",
        "P_UPDATEDATE": "2018-02-03 19:50:41"
    },
    {
        "KVZ8ag9n": "2186",
        "P_SKILL_INFO": "5010186:0",
        "P_CREATEDATE": "2018-02-03 19:50:41",
        "P_UPDATEDATE": "2018-02-03 19:50:41"
    },
    {
        "KVZ8ag9n": "2187",
        "P_SKILL_INFO": "5010187:0",
        "P_CREATEDATE": "2018-02-03 19:50:41",
        "P_UPDATEDATE": "2018-02-03 19:50:41"
    },
    {
        "KVZ8ag9n": "2188",
        "P_SKILL_INFO": "5010188:0",
        "P_CREATEDATE": "2018-02-03 19:50:41",
        "P_UPDATEDATE": "2018-02-03 19:50:41"
    },
    {
        "KVZ8ag9n": "2189",
        "P_SKILL_INFO": "5010189:0",
        "P_CREATEDATE": "2018-02-03 19:50:41",
        "P_UPDATEDATE": "2018-02-03 19:50:41"
    },
    {
        "KVZ8ag9n": "2190",
        "P_SKILL_INFO": "5010190:0",
        "P_CREATEDATE": "2018-02-03 19:50:41",
        "P_UPDATEDATE": "2018-02-03 19:50:41"
    },
    {
        "KVZ8ag9n": "2191",
        "P_SKILL_INFO": "5010191:0",
        "P_CREATEDATE": "2018-02-03 19:50:41",
        "P_UPDATEDATE": "2018-02-03 19:50:41"
    },
    {
        "KVZ8ag9n": "2200",
        "P_SKILL_INFO": "5010200:0",
        "P_CREATEDATE": "2018-02-03 19:50:41",
        "P_UPDATEDATE": "2018-02-03 19:50:41"
    },
    {
        "KVZ8ag9n": "2201",
        "P_SKILL_INFO": "5010201:0",
        "P_CREATEDATE": "2018-02-03 19:50:41",
        "P_UPDATEDATE": "2018-02-03 19:50:41"
    },
    {
        "KVZ8ag9n": "2202",
        "P_SKILL_INFO": "5010202:0",
        "P_CREATEDATE": "2018-02-03 19:50:41",
        "P_UPDATEDATE": "2018-02-03 19:50:41"
    },
    {
        "KVZ8ag9n": "2203",
        "P_SKILL_INFO": "5010203:0",
        "P_CREATEDATE": "2018-02-03 19:50:41",
        "P_UPDATEDATE": "2018-02-03 19:50:41"
    },
    {
        "KVZ8ag9n": "2204",
        "P_SKILL_INFO": "5010204:0",
        "P_CREATEDATE": "2018-02-03 19:50:41",
        "P_UPDATEDATE": "2018-02-03 19:50:41"
    },
    {
        "KVZ8ag9n": "2205",
        "P_SKILL_INFO": "5010205:0",
        "P_CREATEDATE": "2018-02-03 19:50:41",
        "P_UPDATEDATE": "2018-02-03 19:50:41"
    },
    {
        "KVZ8ag9n": "2206",
        "P_SKILL_INFO": "5010206:0",
        "P_CREATEDATE": "2018-02-03 19:50:41",
        "P_UPDATEDATE": "2018-02-03 19:50:41"
    },
    {
        "KVZ8ag9n": "2207",
        "P_SKILL_INFO": "5010207:0",
        "P_CREATEDATE": "2018-02-03 19:50:41",
        "P_UPDATEDATE": "2018-02-03 19:50:41"
    },
    {
        "KVZ8ag9n": "2208",
        "P_SKILL_INFO": "5010208:0",
        "P_CREATEDATE": "2018-02-03 19:50:41",
        "P_UPDATEDATE": "2018-02-03 19:50:41"
    },
    {
        "KVZ8ag9n": "2209",
        "P_SKILL_INFO": "5010209:0",
        "P_CREATEDATE": "2018-02-03 19:50:41",
        "P_UPDATEDATE": "2018-02-03 19:50:41"
    },
    {
        "KVZ8ag9n": "2210",
        "P_SKILL_INFO": "5010210:0",
        "P_CREATEDATE": "2018-02-03 19:50:41",
        "P_UPDATEDATE": "2018-02-03 19:50:41"
    },
    {
        "KVZ8ag9n": "2211",
        "P_SKILL_INFO": "5010211:0",
        "P_CREATEDATE": "2018-02-03 19:50:41",
        "P_UPDATEDATE": "2018-02-03 19:50:41"
    },
    {
        "KVZ8ag9n": "2220",
        "P_SKILL_INFO": "5010220:0",
        "P_CREATEDATE": "2018-02-03 19:50:41",
        "P_UPDATEDATE": "2018-02-03 19:50:41"
    },
    {
        "KVZ8ag9n": "2221",
        "P_SKILL_INFO": "5010221:0",
        "P_CREATEDATE": "2018-02-03 19:50:41",
        "P_UPDATEDATE": "2018-02-03 19:50:41"
    },
    {
        "KVZ8ag9n": "2222",
        "P_SKILL_INFO": "5010222:0",
        "P_CREATEDATE": "2018-02-03 19:50:41",
        "P_UPDATEDATE": "2018-02-03 19:50:41"
    },
    {
        "KVZ8ag9n": "2223",
        "P_SKILL_INFO": "5010223:0",
        "P_CREATEDATE": "2018-02-03 19:50:41",
        "P_UPDATEDATE": "2018-02-03 19:50:41"
    },
    {
        "KVZ8ag9n": "2224",
        "P_SKILL_INFO": "5010224:0",
        "P_CREATEDATE": "2018-02-03 19:50:41",
        "P_UPDATEDATE": "2018-02-03 19:50:41"
    },
    {
        "KVZ8ag9n": "2225",
        "P_SKILL_INFO": "5010225:0",
        "P_CREATEDATE": "2018-02-03 19:50:41",
        "P_UPDATEDATE": "2018-02-03 19:50:41"
    },
    {
        "KVZ8ag9n": "2226",
        "P_SKILL_INFO": "5010226:0",
        "P_CREATEDATE": "2018-02-03 19:50:41",
        "P_UPDATEDATE": "2018-02-03 19:50:41"
    },
    {
        "KVZ8ag9n": "2227",
        "P_SKILL_INFO": "5010227:0",
        "P_CREATEDATE": "2018-02-03 19:50:41",
        "P_UPDATEDATE": "2018-02-03 19:50:41"
    },
    {
        "KVZ8ag9n": "2228",
        "P_SKILL_INFO": "5010228:0",
        "P_CREATEDATE": "2018-02-03 19:50:41",
        "P_UPDATEDATE": "2018-02-03 19:50:41"
    },
    {
        "KVZ8ag9n": "2229",
        "P_SKILL_INFO": "5010229:0",
        "P_CREATEDATE": "2018-02-03 19:50:41",
        "P_UPDATEDATE": "2018-02-03 19:50:41"
    },
    {
        "KVZ8ag9n": "2230",
        "P_SKILL_INFO": "5010230:0",
        "P_CREATEDATE": "2018-02-03 19:50:41",
        "P_UPDATEDATE": "2018-02-03 19:50:41"
    },
    {
        "KVZ8ag9n": "2231",
        "P_SKILL_INFO": "5010231:0",
        "P_CREATEDATE": "2018-02-03 19:50:41",
        "P_UPDATEDATE": "2018-02-03 19:50:41"
    },
    {
        "KVZ8ag9n": "2240",
        "P_SKILL_INFO": "5010240:0",
        "P_CREATEDATE": "2018-02-03 19:50:41",
        "P_UPDATEDATE": "2018-02-03 19:50:41"
    },
    {
        "KVZ8ag9n": "2241",
        "P_SKILL_INFO": "5010241:0",
        "P_CREATEDATE": "2018-02-03 19:50:41",
        "P_UPDATEDATE": "2018-02-03 19:50:41"
    },
    {
        "KVZ8ag9n": "2242",
        "P_SKILL_INFO": "5010242:0",
        "P_CREATEDATE": "2018-02-03 19:50:41",
        "P_UPDATEDATE": "2018-02-03 19:50:41"
    },
    {
        "KVZ8ag9n": "2243",
        "P_SKILL_INFO": "5010243:0",
        "P_CREATEDATE": "2018-02-03 19:50:41",
        "P_UPDATEDATE": "2018-02-03 19:50:41"
    },
    {
        "KVZ8ag9n": "2244",
        "P_SKILL_INFO": "5010244:0",
        "P_CREATEDATE": "2018-02-03 19:50:41",
        "P_UPDATEDATE": "2018-02-03 19:50:41"
    },
    {
        "KVZ8ag9n": "2245",
        "P_SKILL_INFO": "5010245:0",
        "P_CREATEDATE": "2018-02-03 19:50:41",
        "P_UPDATEDATE": "2018-02-03 19:50:41"
    },
    {
        "KVZ8ag9n": "2246",
        "P_SKILL_INFO": "5010246:0",
        "P_CREATEDATE": "2018-02-03 19:50:41",
        "P_UPDATEDATE": "2018-02-03 19:50:41"
    },
    {
        "KVZ8ag9n": "2247",
        "P_SKILL_INFO": "5010247:0",
        "P_CREATEDATE": "2018-02-03 19:50:41",
        "P_UPDATEDATE": "2018-02-03 19:50:41"
    },
    {
        "KVZ8ag9n": "2248",
        "P_SKILL_INFO": "5010248:0",
        "P_CREATEDATE": "2018-02-03 19:50:41",
        "P_UPDATEDATE": "2018-02-03 19:50:41"
    },
    {
        "KVZ8ag9n": "2249",
        "P_SKILL_INFO": "5010249:0",
        "P_CREATEDATE": "2018-02-03 19:50:41",
        "P_UPDATEDATE": "2018-02-03 19:50:41"
    },
    {
        "KVZ8ag9n": "2250",
        "P_SKILL_INFO": "5010250:0",
        "P_CREATEDATE": "2018-02-03 19:50:41",
        "P_UPDATEDATE": "2018-02-03 19:50:41"
    },
    {
        "KVZ8ag9n": "2251",
        "P_SKILL_INFO": "5010251:0",
        "P_CREATEDATE": "2018-02-03 19:50:41",
        "P_UPDATEDATE": "2018-02-03 19:50:41"
    },
    {
        "KVZ8ag9n": "2260",
        "P_SKILL_INFO": "5010260:0",
        "P_CREATEDATE": "2018-02-03 19:50:41",
        "P_UPDATEDATE": "2018-02-03 19:50:41"
    },
    {
        "KVZ8ag9n": "2261",
        "P_SKILL_INFO": "5010261:0",
        "P_CREATEDATE": "2018-02-03 19:50:41",
        "P_UPDATEDATE": "2018-02-03 19:50:41"
    },
    {
        "KVZ8ag9n": "2262",
        "P_SKILL_INFO": "5010262:0",
        "P_CREATEDATE": "2018-02-03 19:50:41",
        "P_UPDATEDATE": "2018-02-03 19:50:41"
    },
    {
        "KVZ8ag9n": "2263",
        "P_SKILL_INFO": "5010263:0",
        "P_CREATEDATE": "2018-02-03 19:50:41",
        "P_UPDATEDATE": "2018-02-03 19:50:41"
    },
    {
        "KVZ8ag9n": "2264",
        "P_SKILL_INFO": "5010264:0",
        "P_CREATEDATE": "2018-02-03 19:50:41",
        "P_UPDATEDATE": "2018-02-03 19:50:41"
    },
    {
        "KVZ8ag9n": "2265",
        "P_SKILL_INFO": "5010265:0",
        "P_CREATEDATE": "2018-02-03 19:50:41",
        "P_UPDATEDATE": "2018-02-03 19:50:41"
    },
    {
        "KVZ8ag9n": "2266",
        "P_SKILL_INFO": "5010266:0",
        "P_CREATEDATE": "2018-02-03 19:50:41",
        "P_UPDATEDATE": "2018-02-03 19:50:41"
    },
    {
        "KVZ8ag9n": "2267",
        "P_SKILL_INFO": "5010267:0",
        "P_CREATEDATE": "2018-02-03 19:50:41",
        "P_UPDATEDATE": "2018-02-03 19:50:41"
    },
    {
        "KVZ8ag9n": "2268",
        "P_SKILL_INFO": "5010268:0",
        "P_CREATEDATE": "2018-02-03 19:50:41",
        "P_UPDATEDATE": "2018-02-03 19:50:41"
    },
    {
        "KVZ8ag9n": "2269",
        "P_SKILL_INFO": "5010269:0",
        "P_CREATEDATE": "2018-02-03 19:50:41",
        "P_UPDATEDATE": "2018-02-03 19:50:41"
    },
    {
        "KVZ8ag9n": "2270",
        "P_SKILL_INFO": "5010270:0",
        "P_CREATEDATE": "2018-02-03 19:50:41",
        "P_UPDATEDATE": "2018-02-03 19:50:41"
    },
    {
        "KVZ8ag9n": "2271",
        "P_SKILL_INFO": "5010271:0",
        "P_CREATEDATE": "2018-02-03 19:50:41",
        "P_UPDATEDATE": "2018-02-03 19:50:41"
    },
    {
        "KVZ8ag9n": "2280",
        "P_SKILL_INFO": "5010280:0",
        "P_CREATEDATE": "2018-02-03 19:50:41",
        "P_UPDATEDATE": "2018-02-03 19:50:41"
    },
    {
        "KVZ8ag9n": "2281",
        "P_SKILL_INFO": "5010281:0",
        "P_CREATEDATE": "2018-02-03 19:50:41",
        "P_UPDATEDATE": "2018-02-03 19:50:41"
    },
    {
        "KVZ8ag9n": "2282",
        "P_SKILL_INFO": "5010282:0",
        "P_CREATEDATE": "2018-02-03 19:50:41",
        "P_UPDATEDATE": "2018-02-03 19:50:41"
    },
    {
        "KVZ8ag9n": "2283",
        "P_SKILL_INFO": "5010283:0",
        "P_CREATEDATE": "2018-02-03 19:50:41",
        "P_UPDATEDATE": "2018-02-03 19:50:41"
    },
    {
        "KVZ8ag9n": "2284",
        "P_SKILL_INFO": "5010284:0",
        "P_CREATEDATE": "2018-02-03 19:50:41",
        "P_UPDATEDATE": "2018-02-03 19:50:41"
    },
    {
        "KVZ8ag9n": "2285",
        "P_SKILL_INFO": "5010285:0",
        "P_CREATEDATE": "2018-02-03 19:50:41",
        "P_UPDATEDATE": "2018-02-03 19:50:41"
    },
    {
        "KVZ8ag9n": "2286",
        "P_SKILL_INFO": "5010286:0",
        "P_CREATEDATE": "2018-02-03 19:50:41",
        "P_UPDATEDATE": "2018-02-03 19:50:41"
    },
    {
        "KVZ8ag9n": "2287",
        "P_SKILL_INFO": "5010287:0",
        "P_CREATEDATE": "2018-02-03 19:50:41",
        "P_UPDATEDATE": "2018-02-03 19:50:41"
    },
    {
        "KVZ8ag9n": "2288",
        "P_SKILL_INFO": "5010288:0",
        "P_CREATEDATE": "2018-02-03 19:50:41",
        "P_UPDATEDATE": "2018-02-03 19:50:41"
    },
    {
        "KVZ8ag9n": "2289",
        "P_SKILL_INFO": "5010289:0",
        "P_CREATEDATE": "2018-02-03 19:50:41",
        "P_UPDATEDATE": "2018-02-03 19:50:41"
    },
    {
        "KVZ8ag9n": "2290",
        "P_SKILL_INFO": "5010290:0",
        "P_CREATEDATE": "2018-02-03 19:50:41",
        "P_UPDATEDATE": "2018-02-03 19:50:41"
    },
    {
        "KVZ8ag9n": "2291",
        "P_SKILL_INFO": "5010291:0",
        "P_CREATEDATE": "2018-02-03 19:50:41",
        "P_UPDATEDATE": "2018-02-03 19:50:41"
    },
    {
        "KVZ8ag9n": "2300",
        "P_SKILL_INFO": "5010300:0",
        "P_CREATEDATE": "2018-02-03 19:50:41",
        "P_UPDATEDATE": "2018-02-03 19:50:41"
    },
    {
        "KVZ8ag9n": "2301",
        "P_SKILL_INFO": "5010301:0",
        "P_CREATEDATE": "2018-02-03 19:50:41",
        "P_UPDATEDATE": "2018-02-03 19:50:41"
    },
    {
        "KVZ8ag9n": "2302",
        "P_SKILL_INFO": "5010302:0",
        "P_CREATEDATE": "2018-02-03 19:50:41",
        "P_UPDATEDATE": "2018-02-03 19:50:41"
    },
    {
        "KVZ8ag9n": "2303",
        "P_SKILL_INFO": "5010303:0",
        "P_CREATEDATE": "2018-02-03 19:50:41",
        "P_UPDATEDATE": "2018-02-03 19:50:41"
    },
    {
        "KVZ8ag9n": "2304",
        "P_SKILL_INFO": "5010304:0",
        "P_CREATEDATE": "2018-02-03 19:50:41",
        "P_UPDATEDATE": "2018-02-03 19:50:41"
    },
    {
        "KVZ8ag9n": "2305",
        "P_SKILL_INFO": "5010305:0",
        "P_CREATEDATE": "2018-02-03 19:50:41",
        "P_UPDATEDATE": "2018-02-03 19:50:41"
    },
    {
        "KVZ8ag9n": "2306",
        "P_SKILL_INFO": "5010306:0",
        "P_CREATEDATE": "2018-02-03 19:50:41",
        "P_UPDATEDATE": "2018-02-03 19:50:41"
    },
    {
        "KVZ8ag9n": "2307",
        "P_SKILL_INFO": "5010307:0",
        "P_CREATEDATE": "2018-02-03 19:50:41",
        "P_UPDATEDATE": "2018-02-03 19:50:41"
    },
    {
        "KVZ8ag9n": "2308",
        "P_SKILL_INFO": "5010308:0",
        "P_CREATEDATE": "2018-02-03 19:50:41",
        "P_UPDATEDATE": "2018-02-03 19:50:41"
    },
    {
        "KVZ8ag9n": "2309",
        "P_SKILL_INFO": "5010309:0",
        "P_CREATEDATE": "2018-02-03 19:50:41",
        "P_UPDATEDATE": "2018-02-03 19:50:41"
    },
    {
        "KVZ8ag9n": "2310",
        "P_SKILL_INFO": "5010310:0",
        "P_CREATEDATE": "2018-02-03 19:50:41",
        "P_UPDATEDATE": "2018-02-03 19:50:41"
    },
    {
        "KVZ8ag9n": "2311",
        "P_SKILL_INFO": "5010311:0",
        "P_CREATEDATE": "2018-02-03 19:50:41",
        "P_UPDATEDATE": "2018-02-03 19:50:41"
    },
    {
        "KVZ8ag9n": "2320",
        "P_SKILL_INFO": "5010320:0",
        "P_CREATEDATE": "2018-02-03 19:50:41",
        "P_UPDATEDATE": "2018-02-03 19:50:41"
    },
    {
        "KVZ8ag9n": "2321",
        "P_SKILL_INFO": "5010321:0",
        "P_CREATEDATE": "2018-02-03 19:50:41",
        "P_UPDATEDATE": "2018-02-03 19:50:41"
    },
    {
        "KVZ8ag9n": "2322",
        "P_SKILL_INFO": "5010322:0",
        "P_CREATEDATE": "2018-02-03 19:50:41",
        "P_UPDATEDATE": "2018-02-03 19:50:41"
    },
    {
        "KVZ8ag9n": "2323",
        "P_SKILL_INFO": "5010323:0",
        "P_CREATEDATE": "2018-02-03 19:50:41",
        "P_UPDATEDATE": "2018-02-03 19:50:41"
    },
    {
        "KVZ8ag9n": "2324",
        "P_SKILL_INFO": "5010324:0",
        "P_CREATEDATE": "2018-02-03 19:50:41",
        "P_UPDATEDATE": "2018-02-03 19:50:41"
    },
    {
        "KVZ8ag9n": "2325",
        "P_SKILL_INFO": "5010325:0",
        "P_CREATEDATE": "2018-02-03 19:50:41",
        "P_UPDATEDATE": "2018-02-03 19:50:41"
    },
    {
        "KVZ8ag9n": "2326",
        "P_SKILL_INFO": "5010326:0",
        "P_CREATEDATE": "2018-02-03 19:50:41",
        "P_UPDATEDATE": "2018-02-03 19:50:41"
    },
    {
        "KVZ8ag9n": "2327",
        "P_SKILL_INFO": "5010327:0",
        "P_CREATEDATE": "2018-02-03 19:50:41",
        "P_UPDATEDATE": "2018-02-03 19:50:41"
    },
    {
        "KVZ8ag9n": "2328",
        "P_SKILL_INFO": "5010328:0",
        "P_CREATEDATE": "2018-02-03 19:50:41",
        "P_UPDATEDATE": "2018-02-03 19:50:41"
    },
    {
        "KVZ8ag9n": "2329",
        "P_SKILL_INFO": "5010329:0",
        "P_CREATEDATE": "2018-02-03 19:50:41",
        "P_UPDATEDATE": "2018-02-03 19:50:41"
    },
    {
        "KVZ8ag9n": "2330",
        "P_SKILL_INFO": "5010330:0",
        "P_CREATEDATE": "2018-02-03 19:50:41",
        "P_UPDATEDATE": "2018-02-03 19:50:41"
    },
    {
        "KVZ8ag9n": "2331",
        "P_SKILL_INFO": "5010331:0",
        "P_CREATEDATE": "2018-02-03 19:50:41",
        "P_UPDATEDATE": "2018-02-03 19:50:41"
    },
    {
        "KVZ8ag9n": "2340",
        "P_SKILL_INFO": "5010340:0",
        "P_CREATEDATE": "2018-02-03 19:50:41",
        "P_UPDATEDATE": "2018-02-03 19:50:41"
    },
    {
        "KVZ8ag9n": "2341",
        "P_SKILL_INFO": "5010341:0",
        "P_CREATEDATE": "2018-02-03 19:50:41",
        "P_UPDATEDATE": "2018-02-03 19:50:41"
    },
    {
        "KVZ8ag9n": "2342",
        "P_SKILL_INFO": "5010342:0",
        "P_CREATEDATE": "2018-02-03 19:50:41",
        "P_UPDATEDATE": "2018-02-03 19:50:41"
    },
    {
        "KVZ8ag9n": "2343",
        "P_SKILL_INFO": "5010343:0",
        "P_CREATEDATE": "2018-02-03 19:50:41",
        "P_UPDATEDATE": "2018-02-03 19:50:41"
    },
    {
        "KVZ8ag9n": "2344",
        "P_SKILL_INFO": "5010344:0",
        "P_CREATEDATE": "2018-02-03 19:50:41",
        "P_UPDATEDATE": "2018-02-03 19:50:41"
    },
    {
        "KVZ8ag9n": "2345",
        "P_SKILL_INFO": "5010345:0",
        "P_CREATEDATE": "2018-02-03 19:50:41",
        "P_UPDATEDATE": "2018-02-03 19:50:41"
    },
    {
        "KVZ8ag9n": "2346",
        "P_SKILL_INFO": "5010346:0",
        "P_CREATEDATE": "2018-02-03 19:50:41",
        "P_UPDATEDATE": "2018-02-03 19:50:41"
    },
    {
        "KVZ8ag9n": "2347",
        "P_SKILL_INFO": "5010347:0",
        "P_CREATEDATE": "2018-02-03 19:50:41",
        "P_UPDATEDATE": "2018-02-03 19:50:41"
    },
    {
        "KVZ8ag9n": "2348",
        "P_SKILL_INFO": "5010348:0",
        "P_CREATEDATE": "2018-02-03 19:50:41",
        "P_UPDATEDATE": "2018-02-03 19:50:41"
    },
    {
        "KVZ8ag9n": "2349",
        "P_SKILL_INFO": "5010349:0",
        "P_CREATEDATE": "2018-02-03 19:50:41",
        "P_UPDATEDATE": "2018-02-03 19:50:41"
    },
    {
        "KVZ8ag9n": "2350",
        "P_SKILL_INFO": "5010350:0",
        "P_CREATEDATE": "2018-02-03 19:50:41",
        "P_UPDATEDATE": "2018-02-03 19:50:41"
    },
    {
        "KVZ8ag9n": "2351",
        "P_SKILL_INFO": "5010351:0",
        "P_CREATEDATE": "2018-02-03 19:50:41",
        "P_UPDATEDATE": "2018-02-03 19:50:41"
    },
    {
        "KVZ8ag9n": "10000",
        "P_SKILL_INFO": "5011000:1,5011001:1",
        "P_CREATEDATE": "2018-02-03 19:50:41",
        "P_UPDATEDATE": "2018-02-03 19:50:41"
    },
    {
        "KVZ8ag9n": "10100",
        "P_SKILL_INFO": "5004001:1,5004002:1,5004003:1,5011010:1,5011011:1",
        "P_CREATEDATE": "2018-02-03 19:50:41",
        "P_UPDATEDATE": "2018-02-03 19:50:41"
    },
    {
        "KVZ8ag9n": "10101",
        "P_SKILL_INFO": "5004004:1,5004005:1,5004006:1,5011012:1,5011013:1",
        "P_CREATEDATE": "2018-02-03 19:50:41",
        "P_UPDATEDATE": "2018-02-03 19:50:41"
    },
    {
        "KVZ8ag9n": "10200",
        "P_SKILL_INFO": "5001001:1,5001002:1,5001003:1,5011070:1,5011071:1,5011072:1",
        "P_CREATEDATE": "2018-02-03 19:50:41",
        "P_UPDATEDATE": "2018-02-03 19:50:41"
    },
    {
        "KVZ8ag9n": "10201",
        "P_SKILL_INFO": "5001004:1,5001002:1,5001003:1,5011070:1,5011071:1,5011072:1",
        "P_CREATEDATE": "2018-02-03 19:50:41",
        "P_UPDATEDATE": "2018-02-03 19:50:41"
    },
    {
        "KVZ8ag9n": "10202",
        "P_SKILL_INFO": "5001001:1,5001002:1,5001003:1,5011073:1,5011074:1,5011075:1",
        "P_CREATEDATE": "2018-02-03 19:50:41",
        "P_UPDATEDATE": "2018-02-03 19:50:41"
    },
    {
        "KVZ8ag9n": "10203",
        "P_SKILL_INFO": "5001001:1,5001002:1,5001003:1,5011076:1,5011077:1,5011078:1,5011079:1",
        "P_CREATEDATE": "2018-02-03 19:50:41",
        "P_UPDATEDATE": "2018-02-03 19:50:41"
    },
    {
        "KVZ8ag9n": "10300",
        "P_SKILL_INFO": "5002004:1,5002005:1,5011050:1,5011051:1",
        "P_CREATEDATE": "2018-02-03 19:50:41",
        "P_UPDATEDATE": "2018-02-03 19:50:41"
    },
    {
        "KVZ8ag9n": "10400",
        "P_SKILL_INFO": "5011030:1,5011031:1",
        "P_CREATEDATE": "2018-02-03 19:50:41",
        "P_UPDATEDATE": "2018-02-03 19:50:41"
    },
    {
        "KVZ8ag9n": "10500",
        "P_SKILL_INFO": "5011040:1,5011041:1",
        "P_CREATEDATE": "2018-02-03 19:50:41",
        "P_UPDATEDATE": "2018-02-03 19:50:41"
    },
    {
        "KVZ8ag9n": "10600",
        "P_SKILL_INFO": "5011060:1,5011061:1,5011062:1,5007001:1",
        "P_CREATEDATE": "2018-02-03 19:50:41",
        "P_UPDATEDATE": "2018-02-03 19:50:41"
    },
    {
        "KVZ8ag9n": "10700",
        "P_SKILL_INFO": "5000024:1,5000020:0,5000022:0",
        "P_CREATEDATE": "2018-02-03 19:50:41",
        "P_UPDATEDATE": "2018-02-03 19:50:41"
    },
    {
        "KVZ8ag9n": "10701",
        "P_SKILL_INFO": "5011080:1,5011081:1,5011082:1",
        "P_CREATEDATE": "2018-02-03 19:50:41",
        "P_UPDATEDATE": "2018-02-03 19:50:41"
    },
    {
        "KVZ8ag9n": "10800",
        "P_SKILL_INFO": "5008000:1",
        "P_CREATEDATE": "2018-02-03 19:50:41",
        "P_UPDATEDATE": "2018-02-03 19:50:41"
    },
    {
        "KVZ8ag9n": "10900",
        "P_SKILL_INFO": "5011020:1,5011021:1,5011022:1",
        "P_CREATEDATE": "2018-02-03 19:50:41",
        "P_UPDATEDATE": "2018-02-03 19:50:41"
    },
    {
        "KVZ8ag9n": "11000",
        "P_SKILL_INFO": "5011090:1,5011091:1",
        "P_CREATEDATE": "2018-02-03 19:50:41",
        "P_UPDATEDATE": "2018-02-03 19:50:41"
    },
    {
        "KVZ8ag9n": "11010",
        "P_SKILL_INFO": "5011100:1,5011101:1",
        "P_CREATEDATE": "2018-02-03 19:50:41",
        "P_UPDATEDATE": "2018-02-03 19:50:41"
    },
    {
        "KVZ8ag9n": "11020",
        "P_SKILL_INFO": "5011110:1,5011111:1",
        "P_CREATEDATE": "2018-02-03 19:50:41",
        "P_UPDATEDATE": "2018-02-03 19:50:41"
    },
    {
        "KVZ8ag9n": "11030",
        "P_SKILL_INFO": "5011120:1",
        "P_CREATEDATE": "2018-02-03 19:50:41",
        "P_UPDATEDATE": "2018-02-03 19:50:41"
    },
    {
        "KVZ8ag9n": "11040",
        "P_SKILL_INFO": "5011130:1,5011131:1,5011132:1",
        "P_CREATEDATE": "2018-02-03 19:50:41",
        "P_UPDATEDATE": "2018-02-03 19:50:41"
    },
    {
        "KVZ8ag9n": "11050",
        "P_SKILL_INFO": "5011140:1,5011141:1,5011142:1",
        "P_CREATEDATE": "2018-02-03 19:50:41",
        "P_UPDATEDATE": "2018-02-03 19:50:41"
    },
    {
        "KVZ8ag9n": "11060",
        "P_SKILL_INFO": "5011150:1,5011151:1,5011152:1",
        "P_CREATEDATE": "2018-02-03 19:50:41",
        "P_UPDATEDATE": "2018-02-03 19:50:41"
    },
    {
        "KVZ8ag9n": "100001",
        "P_SKILL_INFO": "9000001:0:0",
        "P_CREATEDATE": "2018-02-03 19:50:42",
        "P_UPDATEDATE": "2018-02-03 19:50:42"
    },
    {
        "KVZ8ag9n": "100002",
        "P_SKILL_INFO": "9000002:0,9000003:0",
        "P_CREATEDATE": "2018-02-03 19:50:42",
        "P_UPDATEDATE": "2018-02-03 19:50:42"
    },
    {
        "KVZ8ag9n": "100003",
        "P_SKILL_INFO": "9000004:0,9000005:0,9000006:0",
        "P_CREATEDATE": "2018-02-03 19:50:42",
        "P_UPDATEDATE": "2018-02-03 19:50:42"
    },
    {
        "KVZ8ag9n": "100004",
        "P_SKILL_INFO": "9000007:1:0",
        "P_CREATEDATE": "2018-02-03 19:50:42",
        "P_UPDATEDATE": "2018-02-03 19:50:42"
    },
    {
        "KVZ8ag9n": "100005",
        "P_SKILL_INFO": "9000008:0,9000009:0",
        "P_CREATEDATE": "2018-02-03 19:50:42",
        "P_UPDATEDATE": "2018-02-03 19:50:42"
    },
    {
        "KVZ8ag9n": "100006",
        "P_SKILL_INFO": "9000010:1:0",
        "P_CREATEDATE": "2018-02-03 19:50:42",
        "P_UPDATEDATE": "2018-02-03 19:50:42"
    },
    {
        "KVZ8ag9n": "100007",
        "P_SKILL_INFO": "9000011:0,9000012:0",
        "P_CREATEDATE": "2018-02-03 19:50:42",
        "P_UPDATEDATE": "2018-02-03 19:50:42"
    },
    {
        "KVZ8ag9n": "100008",
        "P_SKILL_INFO": "9000013:0,9000014:0",
        "P_CREATEDATE": "2018-02-03 19:50:42",
        "P_UPDATEDATE": "2018-02-03 19:50:42"
    },
    {
        "KVZ8ag9n": "100009",
        "P_SKILL_INFO": "9000015:0,9000016:0,9000002:0,9000003:0",
        "P_CREATEDATE": "2018-02-03 19:50:42",
        "P_UPDATEDATE": "2018-02-03 19:50:42"
    },
    {
        "KVZ8ag9n": "100010",
        "P_SKILL_INFO": "9000017:0,9000018:0,9000019:0,9000020:0",
        "P_CREATEDATE": "2018-02-03 19:50:42",
        "P_UPDATEDATE": "2018-02-03 19:50:42"
    },
    {
        "KVZ8ag9n": "100011",
        "P_SKILL_INFO": "9000022:0,9000023:0,9000024:0,9000025:0",
        "P_CREATEDATE": "2018-02-03 19:50:42",
        "P_UPDATEDATE": "2018-02-03 19:50:42"
    },
    {
        "KVZ8ag9n": "100012",
        "P_SKILL_INFO": "9000026:0:0",
        "P_CREATEDATE": "2018-02-06 17:21:18",
        "P_UPDATEDATE": "2018-02-06 17:21:18"
    },
    {
        "KVZ8ag9n": "111111",
        "P_SKILL_INFO": "5000001:1",
        "P_CREATEDATE": "2018-02-03 19:50:40",
        "P_UPDATEDATE": "2018-02-03 19:50:40"
    },
    {
        "KVZ8ag9n": "200000",
        "P_SKILL_INFO": "5000001:0,5210000:1",
        "P_CREATEDATE": "2018-02-03 19:50:41",
        "P_UPDATEDATE": "2018-02-03 19:50:41"
    },
    {
        "KVZ8ag9n": "200001",
        "P_SKILL_INFO": "5000001:0,5210050:1",
        "P_CREATEDATE": "2018-02-03 19:50:41",
        "P_UPDATEDATE": "2018-02-03 19:50:41"
    },
    {
        "KVZ8ag9n": "200002",
        "P_SKILL_INFO": "5000001:0,5210100:1",
        "P_CREATEDATE": "2018-02-03 19:50:41",
        "P_UPDATEDATE": "2018-02-03 19:50:41"
    },
    {
        "KVZ8ag9n": "200003",
        "P_SKILL_INFO": "5000001:0,5210150:1",
        "P_CREATEDATE": "2018-02-03 19:50:41",
        "P_UPDATEDATE": "2018-02-03 19:50:41"
    },
    {
        "KVZ8ag9n": "200004",
        "P_SKILL_INFO": "5000001:0,5210200:1",
        "P_CREATEDATE": "2018-02-03 19:50:41",
        "P_UPDATEDATE": "2018-02-03 19:50:41"
    },
    {
        "KVZ8ag9n": "200005",
        "P_SKILL_INFO": "5000001:0,5210250:1",
        "P_CREATEDATE": "2018-02-03 19:50:41",
        "P_UPDATEDATE": "2018-02-03 19:50:41"
    },
    {
        "KVZ8ag9n": "200006",
        "P_SKILL_INFO": "5000001:0,5210300:1",
        "P_CREATEDATE": "2018-02-03 19:50:41",
        "P_UPDATEDATE": "2018-02-03 19:50:41"
    },
    {
        "KVZ8ag9n": "200007",
        "P_SKILL_INFO": "5000001:0,5210350:1",
        "P_CREATEDATE": "2018-02-03 19:50:41",
        "P_UPDATEDATE": "2018-02-03 19:50:41"
    },
    {
        "KVZ8ag9n": "200008",
        "P_SKILL_INFO": "5000001:0,5210400:1",
        "P_CREATEDATE": "2018-02-03 19:50:41",
        "P_UPDATEDATE": "2018-02-03 19:50:41"
    },
    {
        "KVZ8ag9n": "200009",
        "P_SKILL_INFO": "5000001:0,5210450:1,5210451:1",
        "P_CREATEDATE": "2018-02-03 19:50:41",
        "P_UPDATEDATE": "2018-02-03 19:50:41"
    },
    {
        "KVZ8ag9n": "200010",
        "P_SKILL_INFO": "5000001:0,5210470:1,5210471:1",
        "P_CREATEDATE": "2018-02-03 19:50:41",
        "P_UPDATEDATE": "2018-02-03 19:50:41"
    },
    {
        "KVZ8ag9n": "200011",
        "P_SKILL_INFO": "5000001:0,5210500:1,5210501:1,5210502:1",
        "P_CREATEDATE": "2018-02-03 19:50:41",
        "P_UPDATEDATE": "2018-02-03 19:50:41"
    },
    {
        "KVZ8ag9n": "200012",
        "P_SKILL_INFO": "5000001:1",
        "P_CREATEDATE": "2018-02-03 19:50:41",
        "P_UPDATEDATE": "2018-02-03 19:50:41"
    },
    {
        "KVZ8ag9n": "200013",
        "P_SKILL_INFO": "5210001:0",
        "P_CREATEDATE": "2018-02-03 19:50:41",
        "P_UPDATEDATE": "2018-02-03 19:50:41"
    },
    {
        "KVZ8ag9n": "200100",
        "P_SKILL_INFO": "5000001:0,5210550:1",
        "P_CREATEDATE": "2018-02-03 19:50:41",
        "P_UPDATEDATE": "2018-02-03 19:50:41"
    },
    {
        "KVZ8ag9n": "200101",
        "P_SKILL_INFO": "5000001:0,5210600:1",
        "P_CREATEDATE": "2018-02-03 19:50:41",
        "P_UPDATEDATE": "2018-02-03 19:50:41"
    },
    {
        "KVZ8ag9n": "200102",
        "P_SKILL_INFO": "5000001:0,5210650:1",
        "P_CREATEDATE": "2018-02-03 19:50:41",
        "P_UPDATEDATE": "2018-02-03 19:50:41"
    },
    {
        "KVZ8ag9n": "200103",
        "P_SKILL_INFO": "5000001:1,5210700:1,5210701:1,5210702:1,5210703:1",
        "P_CREATEDATE": "2018-02-03 19:50:41",
        "P_UPDATEDATE": "2018-02-03 19:50:41"
    },
    {
        "KVZ8ag9n": "200104",
        "P_SKILL_INFO": "5000001:0,5210750:1",
        "P_CREATEDATE": "2018-02-03 19:50:41",
        "P_UPDATEDATE": "2018-02-03 19:50:41"
    },
    {
        "KVZ8ag9n": "200105",
        "P_SKILL_INFO": "5000001:0,5210800:1",
        "P_CREATEDATE": "2018-02-03 19:50:41",
        "P_UPDATEDATE": "2018-02-03 19:50:41"
    },
    {
        "KVZ8ag9n": "200106",
        "P_SKILL_INFO": "5000001:1,5210850:1,5210851:1,5210852:1",
        "P_CREATEDATE": "2018-02-03 19:50:41",
        "P_UPDATEDATE": "2018-02-03 19:50:41"
    },
    {
        "KVZ8ag9n": "200107",
        "P_SKILL_INFO": "5000001:0:1",
        "P_CREATEDATE": "2018-02-03 19:50:41",
        "P_UPDATEDATE": "2018-02-03 19:50:41"
    },
    {
        "KVZ8ag9n": "200108",
        "P_SKILL_INFO": "5000001:0:1",
        "P_CREATEDATE": "2018-02-03 19:50:41",
        "P_UPDATEDATE": "2018-02-03 19:50:41"
    },
    {
        "KVZ8ag9n": "200109",
        "P_SKILL_INFO": "5000001:0:1",
        "P_CREATEDATE": "2018-02-03 19:50:41",
        "P_UPDATEDATE": "2018-02-03 19:50:41"
    },
    {
        "KVZ8ag9n": "200110",
        "P_SKILL_INFO": "5000001:0:1",
        "P_CREATEDATE": "2018-02-03 19:50:41",
        "P_UPDATEDATE": "2018-02-03 19:50:41"
    },
    {
        "KVZ8ag9n": "200111",
        "P_SKILL_INFO": "5000001:0",
        "P_CREATEDATE": "2018-02-03 19:50:41",
        "P_UPDATEDATE": "2018-02-03 19:50:41"
    },
    {
        "KVZ8ag9n": "200200",
        "P_SKILL_INFO": "5000001:0,5210900:1",
        "P_CREATEDATE": "2018-02-03 19:50:41",
        "P_UPDATEDATE": "2018-02-03 19:50:41"
    },
    {
        "KVZ8ag9n": "200201",
        "P_SKILL_INFO": "5000001:0,5210950:1",
        "P_CREATEDATE": "2018-02-03 19:50:41",
        "P_UPDATEDATE": "2018-02-03 19:50:41"
    },
    {
        "KVZ8ag9n": "200202",
        "P_SKILL_INFO": "5000001:0,5211000:1",
        "P_CREATEDATE": "2018-02-03 19:50:41",
        "P_UPDATEDATE": "2018-02-03 19:50:41"
    },
    {
        "KVZ8ag9n": "200203",
        "P_SKILL_INFO": "5000001:0,5211050:1",
        "P_CREATEDATE": "2018-02-03 19:50:41",
        "P_UPDATEDATE": "2018-02-03 19:50:41"
    },
    {
        "KVZ8ag9n": "200204",
        "P_SKILL_INFO": "5000001:0,5211101:1",
        "P_CREATEDATE": "2018-02-03 19:50:41",
        "P_UPDATEDATE": "2018-02-03 19:50:41"
    },
    {
        "KVZ8ag9n": "200205",
        "P_SKILL_INFO": "5000001:0,5211150:1,5211151:1,5211152:1",
        "P_CREATEDATE": "2018-02-03 19:50:41",
        "P_UPDATEDATE": "2018-02-03 19:50:41"
    },
    {
        "KVZ8ag9n": "200300",
        "P_SKILL_INFO": "5000001:0,5211200:1",
        "P_CREATEDATE": "2018-02-03 19:50:41",
        "P_UPDATEDATE": "2018-02-03 19:50:41"
    },
    {
        "KVZ8ag9n": "200301",
        "P_SKILL_INFO": "5000001:0,5211250:1",
        "P_CREATEDATE": "2018-02-03 19:50:41",
        "P_UPDATEDATE": "2018-02-03 19:50:41"
    },
    {
        "KVZ8ag9n": "200302",
        "P_SKILL_INFO": "5000001:0,5211300:1",
        "P_CREATEDATE": "2018-02-03 19:50:41",
        "P_UPDATEDATE": "2018-02-03 19:50:41"
    },
    {
        "KVZ8ag9n": "200303",
        "P_SKILL_INFO": "5000001:0,5211350:1",
        "P_CREATEDATE": "2018-02-03 19:50:41",
        "P_UPDATEDATE": "2018-02-03 19:50:41"
    },
    {
        "KVZ8ag9n": "200304",
        "P_SKILL_INFO": "5000001:0,5211400:1",
        "P_CREATEDATE": "2018-02-03 19:50:41",
        "P_UPDATEDATE": "2018-02-03 19:50:41"
    },
    {
        "KVZ8ag9n": "200305",
        "P_SKILL_INFO": "5000001:0,5211450:1",
        "P_CREATEDATE": "2018-02-03 19:50:41",
        "P_UPDATEDATE": "2018-02-03 19:50:41"
    },
    {
        "KVZ8ag9n": "200306",
        "P_SKILL_INFO": "5000001:0,5211500:1",
        "P_CREATEDATE": "2018-02-03 19:50:42",
        "P_UPDATEDATE": "2018-02-03 19:50:42"
    },
    {
        "KVZ8ag9n": "200400",
        "P_SKILL_INFO": "5000001:0,5211550:1",
        "P_CREATEDATE": "2018-02-03 19:50:42",
        "P_UPDATEDATE": "2018-02-03 19:50:42"
    },
    {
        "KVZ8ag9n": "200401",
        "P_SKILL_INFO": "5000001:0,5211600:1",
        "P_CREATEDATE": "2018-02-03 19:50:42",
        "P_UPDATEDATE": "2018-02-03 19:50:42"
    },
    {
        "KVZ8ag9n": "200402",
        "P_SKILL_INFO": "5000001:0,5211650:1",
        "P_CREATEDATE": "2018-02-03 19:50:42",
        "P_UPDATEDATE": "2018-02-03 19:50:42"
    },
    {
        "KVZ8ag9n": "200403",
        "P_SKILL_INFO": "5000001:0,5211700:1",
        "P_CREATEDATE": "2018-02-03 19:50:42",
        "P_UPDATEDATE": "2018-02-03 19:50:42"
    },
    {
        "KVZ8ag9n": "200404",
        "P_SKILL_INFO": "5000001:0,5211750:1",
        "P_CREATEDATE": "2018-02-03 19:50:42",
        "P_UPDATEDATE": "2018-02-03 19:50:42"
    },
    {
        "KVZ8ag9n": "200405",
        "P_SKILL_INFO": "5000001:0,5211800:1",
        "P_CREATEDATE": "2018-02-03 19:50:42",
        "P_UPDATEDATE": "2018-02-03 19:50:42"
    },
    {
        "KVZ8ag9n": "200406",
        "P_SKILL_INFO": "5000001:0,5211850:1",
        "P_CREATEDATE": "2018-02-03 19:50:42",
        "P_UPDATEDATE": "2018-02-03 19:50:42"
    },
    {
        "KVZ8ag9n": "200407",
        "P_SKILL_INFO": "5000001:0,5211900:1",
        "P_CREATEDATE": "2018-02-03 19:50:42",
        "P_UPDATEDATE": "2018-02-03 19:50:42"
    },
    {
        "KVZ8ag9n": "200408",
        "P_SKILL_INFO": "5000001:0,5211950:1",
        "P_CREATEDATE": "2018-02-03 19:50:42",
        "P_UPDATEDATE": "2018-02-03 19:50:42"
    },
    {
        "KVZ8ag9n": "200409",
        "P_SKILL_INFO": "5000001:0,5212000:1",
        "P_CREATEDATE": "2018-02-03 19:50:42",
        "P_UPDATEDATE": "2018-02-03 19:50:42"
    },
    {
        "KVZ8ag9n": "200410",
        "P_SKILL_INFO": "5000001:0,5212050:1",
        "P_CREATEDATE": "2018-02-03 19:50:42",
        "P_UPDATEDATE": "2018-02-03 19:50:42"
    },
    {
        "KVZ8ag9n": "200411",
        "P_SKILL_INFO": "5000001:0,5212100:1",
        "P_CREATEDATE": "2018-02-03 19:50:42",
        "P_UPDATEDATE": "2018-02-03 19:50:42"
    },
    {
        "KVZ8ag9n": "200412",
        "P_SKILL_INFO": "5000001:0,5212150:1",
        "P_CREATEDATE": "2018-02-03 19:50:42",
        "P_UPDATEDATE": "2018-02-03 19:50:42"
    },
    {
        "KVZ8ag9n": "200413",
        "P_SKILL_INFO": "5000001:0,5212200:1",
        "P_CREATEDATE": "2018-02-03 19:50:42",
        "P_UPDATEDATE": "2018-02-03 19:50:42"
    },
    {
        "KVZ8ag9n": "200414",
        "P_SKILL_INFO": "5000001:0,5212250:1",
        "P_CREATEDATE": "2018-02-03 19:50:42",
        "P_UPDATEDATE": "2018-02-03 19:50:42"
    },
    {
        "KVZ8ag9n": "200415",
        "P_SKILL_INFO": "5000001:0,5212300:1",
        "P_CREATEDATE": "2018-02-03 19:50:42",
        "P_UPDATEDATE": "2018-02-03 19:50:42"
    },
    {
        "KVZ8ag9n": "200416",
        "P_SKILL_INFO": "5000001:0,5212350:1",
        "P_CREATEDATE": "2018-02-03 19:50:42",
        "P_UPDATEDATE": "2018-02-03 19:50:42"
    },
    {
        "KVZ8ag9n": "200417",
        "P_SKILL_INFO": "5000001:0,5212400:1",
        "P_CREATEDATE": "2018-02-03 19:50:42",
        "P_UPDATEDATE": "2018-02-03 19:50:42"
    },
    {
        "KVZ8ag9n": "200418",
        "P_SKILL_INFO": "5000001:0,5212450:1",
        "P_CREATEDATE": "2018-02-03 19:50:42",
        "P_UPDATEDATE": "2018-02-03 19:50:42"
    },
    {
        "KVZ8ag9n": "200419",
        "P_SKILL_INFO": "5000001:0,5212500:1",
        "P_CREATEDATE": "2018-02-03 19:50:42",
        "P_UPDATEDATE": "2018-02-03 19:50:42"
    },
    {
        "KVZ8ag9n": "200420",
        "P_SKILL_INFO": "5000001:0,5212550:1",
        "P_CREATEDATE": "2018-02-03 19:50:42",
        "P_UPDATEDATE": "2018-02-03 19:50:42"
    },
    {
        "KVZ8ag9n": "200421",
        "P_SKILL_INFO": "5000001:0,5212600:1",
        "P_CREATEDATE": "2018-02-03 19:50:42",
        "P_UPDATEDATE": "2018-02-03 19:50:42"
    },
    {
        "KVZ8ag9n": "222222",
        "P_SKILL_INFO": "5000001:1,5000002:1",
        "P_CREATEDATE": "2018-02-03 19:50:40",
        "P_UPDATEDATE": "2018-02-03 19:50:40"
    },
    {
        "KVZ8ag9n": "333333",
        "P_SKILL_INFO": "5000003:1,5000003:1",
        "P_CREATEDATE": "2018-02-03 19:50:40",
        "P_UPDATEDATE": "2018-02-03 19:50:40"
    },
    {
        "KVZ8ag9n": "444444",
        "P_SKILL_INFO": "5000001:1,5000002:1,5000003:1",
        "P_CREATEDATE": "2018-02-03 19:50:40",
        "P_UPDATEDATE": "2018-02-03 19:50:40"
    }
]