[
    {
        "P_IMPORTANT_ITEM_ID": "1",
        "P_NAME": "\u7834\u7363\u306e\u9593\u306e\u30e1\u30e2",
        "8Cx57oAk": "\u7834\u7363\u30e1\u30e2",
        "P_DISPORDER": "100004",
        "60IsqxDt": "9",
        "CA7uXs6D": "1",
        "P_ICON_ID": "40000",
        "37moriMq": "",
        "P_DICTIONARY_NO": "1",
        "P_DICTIONARY_BG": "1",
        "P_IMG": "",
        "P_NEED_SWITCH_INFO": "0",
        "P_HIDE_SWITCH_INFO": "0",
        "P_OPEN_SWITCH_INFO": "0",
        "P_CREATEDATE": "2018-02-28 14:20:43",
        "P_UPDATEDATE": "2018-02-28 14:20:43"
    },
    {
        "P_IMPORTANT_ITEM_ID": "2",
        "P_NAME": "\u57f9\u990a\u7814\u7a76\u5ba4\u306e\u30e1\u30e2",
        "8Cx57oAk": "\u57f9\u990a\u30e1\u30e2",
        "P_DISPORDER": "100005",
        "60IsqxDt": "9",
        "CA7uXs6D": "1",
        "P_ICON_ID": "40000",
        "37moriMq": "",
        "P_DICTIONARY_NO": "1",
        "P_DICTIONARY_BG": "2",
        "P_IMG": "",
        "P_NEED_SWITCH_INFO": "0",
        "P_HIDE_SWITCH_INFO": "0",
        "P_OPEN_SWITCH_INFO": "0",
        "P_CREATEDATE": "2018-02-28 14:20:43",
        "P_UPDATEDATE": "2018-02-28 14:20:43"
    },
    {
        "P_IMPORTANT_ITEM_ID": "3",
        "P_NAME": "\u643a\u5e2f\u578b\u53ec\u559a\u5668",
        "8Cx57oAk": "\u53ec\u559a\u5668",
        "P_DISPORDER": "100001",
        "60IsqxDt": "9",
        "CA7uXs6D": "1",
        "P_ICON_ID": "40008",
        "37moriMq": "",
        "P_DICTIONARY_NO": "1",
        "P_DICTIONARY_BG": "3",
        "P_IMG": "event_item_002.png",
        "P_NEED_SWITCH_INFO": "0",
        "P_HIDE_SWITCH_INFO": "0",
        "P_OPEN_SWITCH_INFO": "0",
        "P_CREATEDATE": "2018-02-28 14:20:43",
        "P_UPDATEDATE": "2018-02-28 14:20:43"
    },
    {
        "P_IMPORTANT_ITEM_ID": "4",
        "P_NAME": "\u30cd\u30b0\u30ec\u30b9\u8ecd\u914d\u7f6e\u56f3",
        "8Cx57oAk": "\u8ecd\u914d\u7f6e\u56f3",
        "P_DISPORDER": "100002",
        "60IsqxDt": "9",
        "CA7uXs6D": "1",
        "P_ICON_ID": "40001",
        "37moriMq": "",
        "P_DICTIONARY_NO": "1",
        "P_DICTIONARY_BG": "4",
        "P_IMG": "event_item_003.png",
        "P_NEED_SWITCH_INFO": "0",
        "P_HIDE_SWITCH_INFO": "0",
        "P_OPEN_SWITCH_INFO": "0",
        "P_CREATEDATE": "2018-02-28 14:20:43",
        "P_UPDATEDATE": "2018-02-28 14:20:43"
    },
    {
        "P_IMPORTANT_ITEM_ID": "5",
        "P_NAME": "\u5175\u5668\u8a2d\u8a08\u56f3",
        "8Cx57oAk": "\u5175\u5668\u8a2d\u8a08",
        "P_DISPORDER": "100003",
        "60IsqxDt": "9",
        "CA7uXs6D": "1",
        "P_ICON_ID": "40002",
        "37moriMq": "",
        "P_DICTIONARY_NO": "1",
        "P_DICTIONARY_BG": "5",
        "P_IMG": "event_item_004.png",
        "P_NEED_SWITCH_INFO": "0",
        "P_HIDE_SWITCH_INFO": "0",
        "P_OPEN_SWITCH_INFO": "0",
        "P_CREATEDATE": "2018-02-28 14:20:43",
        "P_UPDATEDATE": "2018-02-28 14:20:43"
    },
    {
        "P_IMPORTANT_ITEM_ID": "6",
        "P_NAME": "\u6280\u8853\u958b\u767a\u5e81\u5165\u9928\u30ad\u30fc",
        "8Cx57oAk": "\u5165\u9928\u30ad\u30fc",
        "P_DISPORDER": "100006",
        "60IsqxDt": "9",
        "CA7uXs6D": "1",
        "P_ICON_ID": "40003",
        "37moriMq": "",
        "P_DICTIONARY_NO": "1",
        "P_DICTIONARY_BG": "6",
        "P_IMG": "event_item_005.png",
        "P_NEED_SWITCH_INFO": "0",
        "P_HIDE_SWITCH_INFO": "0",
        "P_OPEN_SWITCH_INFO": "0",
        "P_CREATEDATE": "2018-02-28 14:20:43",
        "P_UPDATEDATE": "2018-02-28 14:20:43"
    },
    {
        "P_IMPORTANT_ITEM_ID": "7",
        "P_NAME": "\u6280\u8853\u958b\u767a\u5e81\u30de\u30c3\u30d7",
        "8Cx57oAk": "\u958b\u767a\u5e81\u56f3",
        "P_DISPORDER": "100007",
        "60IsqxDt": "9",
        "CA7uXs6D": "1",
        "P_ICON_ID": "40004",
        "37moriMq": "",
        "P_DICTIONARY_NO": "1",
        "P_DICTIONARY_BG": "7",
        "P_IMG": "event_item_006.png",
        "P_NEED_SWITCH_INFO": "0",
        "P_HIDE_SWITCH_INFO": "0",
        "P_OPEN_SWITCH_INFO": "0",
        "P_CREATEDATE": "2018-02-28 14:20:43",
        "P_UPDATEDATE": "2018-02-28 14:20:43"
    },
    {
        "P_IMPORTANT_ITEM_ID": "8",
        "P_NAME": "\u5236\u5fa1\u5ba4\u8a8d\u8a3c\u30ad\u30fc",
        "8Cx57oAk": "\u5236\u5fa1\u5ba4\u9375",
        "P_DISPORDER": "100008",
        "60IsqxDt": "9",
        "CA7uXs6D": "1",
        "P_ICON_ID": "40005",
        "37moriMq": "",
        "P_DICTIONARY_NO": "1",
        "P_DICTIONARY_BG": "8",
        "P_IMG": "event_item_007.png",
        "P_NEED_SWITCH_INFO": "0",
        "P_HIDE_SWITCH_INFO": "0",
        "P_OPEN_SWITCH_INFO": "0",
        "P_CREATEDATE": "2018-02-28 14:20:43",
        "P_UPDATEDATE": "2018-02-28 14:20:43"
    },
    {
        "P_IMPORTANT_ITEM_ID": "9",
        "P_NAME": "\uff12\uff10\uff15\u30eb\u30fc\u30e0\u30ad\u30fc",
        "8Cx57oAk": "\uff12\uff10\uff15\u9375",
        "P_DISPORDER": "100009",
        "60IsqxDt": "9",
        "CA7uXs6D": "1",
        "P_ICON_ID": "40006",
        "37moriMq": "",
        "P_DICTIONARY_NO": "1",
        "P_DICTIONARY_BG": "9",
        "P_IMG": "event_item_008.png",
        "P_NEED_SWITCH_INFO": "0",
        "P_HIDE_SWITCH_INFO": "0",
        "P_OPEN_SWITCH_INFO": "0",
        "P_CREATEDATE": "2018-02-28 14:20:43",
        "P_UPDATEDATE": "2018-02-28 14:20:43"
    },
    {
        "P_IMPORTANT_ITEM_ID": "10",
        "P_NAME": "\uff12\uff10\uff19\u91d1\u5eab\u306e\u9375",
        "8Cx57oAk": "\uff12\uff10\uff19\u9375",
        "P_DISPORDER": "100010",
        "60IsqxDt": "9",
        "CA7uXs6D": "1",
        "P_ICON_ID": "40007",
        "37moriMq": "",
        "P_DICTIONARY_NO": "1",
        "P_DICTIONARY_BG": "10",
        "P_IMG": "event_item_009.png",
        "P_NEED_SWITCH_INFO": "0",
        "P_HIDE_SWITCH_INFO": "0",
        "P_OPEN_SWITCH_INFO": "0",
        "P_CREATEDATE": "2018-02-28 14:20:43",
        "P_UPDATEDATE": "2018-02-28 14:20:43"
    },
    {
        "P_IMPORTANT_ITEM_ID": "11",
        "P_NAME": "\u30b0\u30b9\u30bf\u30d5\u306e\u9375",
        "8Cx57oAk": "\u535a\u58eb\u306e\u9375",
        "P_DISPORDER": "100011",
        "60IsqxDt": "9",
        "CA7uXs6D": "1",
        "P_ICON_ID": "40007",
        "37moriMq": "",
        "P_DICTIONARY_NO": "1",
        "P_DICTIONARY_BG": "11",
        "P_IMG": "event_item_009.png",
        "P_NEED_SWITCH_INFO": "0",
        "P_HIDE_SWITCH_INFO": "0",
        "P_OPEN_SWITCH_INFO": "0",
        "P_CREATEDATE": "2018-02-28 14:20:43",
        "P_UPDATEDATE": "2018-02-28 14:20:43"
    },
    {
        "P_IMPORTANT_ITEM_ID": "10000",
        "P_NAME": "\u8abf\u5408\u306e\u57fa\u790e\u30ec\u30b7\u30d4",
        "8Cx57oAk": "\u8abf\u5408\u57fa\u790e",
        "P_DISPORDER": "110000",
        "60IsqxDt": "1",
        "CA7uXs6D": "1",
        "P_ICON_ID": "30000",
        "37moriMq": "",
        "P_DICTIONARY_NO": "1",
        "P_DICTIONARY_BG": "12",
        "P_IMG": "",
        "P_NEED_SWITCH_INFO": "0",
        "P_HIDE_SWITCH_INFO": "0",
        "P_OPEN_SWITCH_INFO": "61300001",
        "P_CREATEDATE": "2018-02-28 14:20:43",
        "P_UPDATEDATE": "2018-02-28 14:20:43"
    },
    {
        "P_IMPORTANT_ITEM_ID": "10001",
        "P_NAME": "\u8abf\u5408\u306e\u5fdc\u7528\u30ec\u30b7\u30d4",
        "8Cx57oAk": "\u8abf\u5408\u5fdc\u7528",
        "P_DISPORDER": "110003",
        "60IsqxDt": "1",
        "CA7uXs6D": "1",
        "P_ICON_ID": "30000",
        "37moriMq": "",
        "P_DICTIONARY_NO": "1",
        "P_DICTIONARY_BG": "13",
        "P_IMG": "",
        "P_NEED_SWITCH_INFO": "0",
        "P_HIDE_SWITCH_INFO": "0",
        "P_OPEN_SWITCH_INFO": "61300002,61300004,61300005",
        "P_CREATEDATE": "2018-02-28 14:20:43",
        "P_UPDATEDATE": "2018-02-28 14:20:43"
    },
    {
        "P_IMPORTANT_ITEM_ID": "10002",
        "P_NAME": "\u8abf\u5408\u306e\u767a\u5c55\u30ec\u30b7\u30d4",
        "8Cx57oAk": "\u8abf\u5408\u767a\u5c55",
        "P_DISPORDER": "110004",
        "60IsqxDt": "1",
        "CA7uXs6D": "1",
        "P_ICON_ID": "30000",
        "37moriMq": "",
        "P_DICTIONARY_NO": "1",
        "P_DICTIONARY_BG": "14",
        "P_IMG": "",
        "P_NEED_SWITCH_INFO": "0",
        "P_HIDE_SWITCH_INFO": "0",
        "P_OPEN_SWITCH_INFO": "61300003,61300006,61300007",
        "P_CREATEDATE": "2018-02-28 14:20:43",
        "P_UPDATEDATE": "2018-02-28 14:20:43"
    },
    {
        "P_IMPORTANT_ITEM_ID": "10003",
        "P_NAME": "\u6226\u976d\u98df\u306e\u30ec\u30b7\u30d4",
        "8Cx57oAk": "\u6226\u976d\u98df\u30ec",
        "P_DISPORDER": "110005",
        "60IsqxDt": "1",
        "CA7uXs6D": "1",
        "P_ICON_ID": "30000",
        "37moriMq": "",
        "P_DICTIONARY_NO": "0",
        "P_DICTIONARY_BG": "15",
        "P_IMG": "",
        "P_NEED_SWITCH_INFO": "0",
        "P_HIDE_SWITCH_INFO": "0",
        "P_OPEN_SWITCH_INFO": "61300004",
        "P_CREATEDATE": "2018-02-28 14:20:43",
        "P_UPDATEDATE": "2018-02-28 14:20:43"
    },
    {
        "P_IMPORTANT_ITEM_ID": "10004",
        "P_NAME": "\u6b66\u795e\u85ac\u306e\u30ec\u30b7\u30d4",
        "8Cx57oAk": "\u6b66\u795e\u85ac\u30ec",
        "P_DISPORDER": "110006",
        "60IsqxDt": "1",
        "CA7uXs6D": "1",
        "P_ICON_ID": "30000",
        "37moriMq": "",
        "P_DICTIONARY_NO": "0",
        "P_DICTIONARY_BG": "16",
        "P_IMG": "",
        "P_NEED_SWITCH_INFO": "0",
        "P_HIDE_SWITCH_INFO": "0",
        "P_OPEN_SWITCH_INFO": "61300005",
        "P_CREATEDATE": "2018-02-28 14:20:43",
        "P_UPDATEDATE": "2018-02-28 14:20:43"
    },
    {
        "P_IMPORTANT_ITEM_ID": "10005",
        "P_NAME": "\u795e\u4ed9\u7434\u306e\u30ec\u30b7\u30d4",
        "8Cx57oAk": "\u795e\u4ed9\u7434\u30ec",
        "P_DISPORDER": "110007",
        "60IsqxDt": "1",
        "CA7uXs6D": "1",
        "P_ICON_ID": "30000",
        "37moriMq": "",
        "P_DICTIONARY_NO": "0",
        "P_DICTIONARY_BG": "17",
        "P_IMG": "",
        "P_NEED_SWITCH_INFO": "0",
        "P_HIDE_SWITCH_INFO": "0",
        "P_OPEN_SWITCH_INFO": "61300006",
        "P_CREATEDATE": "2018-02-28 14:20:43",
        "P_UPDATEDATE": "2018-02-28 14:20:43"
    },
    {
        "P_IMPORTANT_ITEM_ID": "10006",
        "P_NAME": "\u8607\u751f\u85ac\u306e\u30ec\u30b7\u30d4",
        "8Cx57oAk": "\u8607\u751f\u85ac\u30ec",
        "P_DISPORDER": "110008",
        "60IsqxDt": "1",
        "CA7uXs6D": "1",
        "P_ICON_ID": "30000",
        "37moriMq": "",
        "P_DICTIONARY_NO": "0",
        "P_DICTIONARY_BG": "18",
        "P_IMG": "",
        "P_NEED_SWITCH_INFO": "0",
        "P_HIDE_SWITCH_INFO": "0",
        "P_OPEN_SWITCH_INFO": "61300007",
        "P_CREATEDATE": "2018-02-28 14:20:43",
        "P_UPDATEDATE": "2018-02-28 14:20:43"
    },
    {
        "P_IMPORTANT_ITEM_ID": "10007",
        "P_NAME": "\u6226\u96c4\u7d46\u6676\u306e\u30ec\u30b7\u30d4",
        "8Cx57oAk": "\u6226\u96c4\u7d46\u30ec",
        "P_DISPORDER": "110009",
        "60IsqxDt": "1",
        "CA7uXs6D": "1",
        "P_ICON_ID": "30000",
        "37moriMq": "",
        "P_DICTIONARY_NO": "1",
        "P_DICTIONARY_BG": "19",
        "P_IMG": "",
        "P_NEED_SWITCH_INFO": "0",
        "P_HIDE_SWITCH_INFO": "0",
        "P_OPEN_SWITCH_INFO": "61300008",
        "P_CREATEDATE": "2018-02-28 14:20:43",
        "P_UPDATEDATE": "2018-02-28 14:20:43"
    },
    {
        "P_IMPORTANT_ITEM_ID": "10008",
        "P_NAME": "\u5148\u751f\u306e\u6559\u3048",
        "8Cx57oAk": "\u5148\u751f\u30e1\u30e2",
        "P_DISPORDER": "110001",
        "60IsqxDt": "1",
        "CA7uXs6D": "1",
        "P_ICON_ID": "30000",
        "37moriMq": "",
        "P_DICTIONARY_NO": "1",
        "P_DICTIONARY_BG": "20",
        "P_IMG": "",
        "P_NEED_SWITCH_INFO": "0",
        "P_HIDE_SWITCH_INFO": "0",
        "P_OPEN_SWITCH_INFO": "0",
        "P_CREATEDATE": "2018-02-28 14:20:43",
        "P_UPDATEDATE": "2018-02-28 14:20:43"
    },
    {
        "P_IMPORTANT_ITEM_ID": "20000",
        "P_NAME": "\u6b66\u5668\u751f\u6210\u306e\u57fa\u790e\u66f8",
        "8Cx57oAk": "\u6b66\u5668\u57fa\u790e",
        "P_DISPORDER": "120000",
        "60IsqxDt": "1",
        "CA7uXs6D": "1",
        "P_ICON_ID": "30000",
        "37moriMq": "",
        "P_DICTIONARY_NO": "1",
        "P_DICTIONARY_BG": "21",
        "P_IMG": "",
        "P_NEED_SWITCH_INFO": "0",
        "P_HIDE_SWITCH_INFO": "0",
        "P_OPEN_SWITCH_INFO": "61100012",
        "P_CREATEDATE": "2018-02-28 14:20:43",
        "P_UPDATEDATE": "2018-02-28 14:20:43"
    },
    {
        "P_IMPORTANT_ITEM_ID": "20002",
        "P_NAME": "\u6e05\u6756\u30c8\u30eb\u30af\u30fc\u30ec\u306e\u30ec\u30b7\u30d4",
        "8Cx57oAk": "\u6e05\u6756\u30ec",
        "P_DISPORDER": "120002",
        "60IsqxDt": "1",
        "CA7uXs6D": "1",
        "P_ICON_ID": "30000",
        "37moriMq": "",
        "P_DICTIONARY_NO": "1",
        "P_DICTIONARY_BG": "23",
        "P_IMG": "",
        "P_NEED_SWITCH_INFO": "0",
        "P_HIDE_SWITCH_INFO": "0",
        "P_OPEN_SWITCH_INFO": "61100002",
        "P_CREATEDATE": "2018-02-28 14:20:43",
        "P_UPDATEDATE": "2018-02-28 14:20:43"
    },
    {
        "P_IMPORTANT_ITEM_ID": "20003",
        "P_NAME": "\u5875\u65a7\u30d0\u30eb\u30b0\u30e9\u30e0\u306e\u30ec\u30b7\u30d4",
        "8Cx57oAk": "\u5875\u65a7\u30ec",
        "P_DISPORDER": "120003",
        "60IsqxDt": "1",
        "CA7uXs6D": "1",
        "P_ICON_ID": "30000",
        "37moriMq": "",
        "P_DICTIONARY_NO": "1",
        "P_DICTIONARY_BG": "24",
        "P_IMG": "",
        "P_NEED_SWITCH_INFO": "0",
        "P_HIDE_SWITCH_INFO": "0",
        "P_OPEN_SWITCH_INFO": "61100003",
        "P_CREATEDATE": "2018-02-28 14:20:43",
        "P_UPDATEDATE": "2018-02-28 14:20:43"
    },
    {
        "P_IMPORTANT_ITEM_ID": "20004",
        "P_NAME": "\u7815\u5149\u5263\u30d7\u30ed\u30ad\u30a2\u306e\u30ec\u30b7\u30d4",
        "8Cx57oAk": "\u7815\u5149\u5263\u30ec",
        "P_DISPORDER": "120004",
        "60IsqxDt": "1",
        "CA7uXs6D": "1",
        "P_ICON_ID": "30000",
        "37moriMq": "",
        "P_DICTIONARY_NO": "1",
        "P_DICTIONARY_BG": "25",
        "P_IMG": "",
        "P_NEED_SWITCH_INFO": "0",
        "P_HIDE_SWITCH_INFO": "0",
        "P_OPEN_SWITCH_INFO": "61100004",
        "P_CREATEDATE": "2018-02-28 14:20:43",
        "P_UPDATEDATE": "2018-02-28 14:20:43"
    },
    {
        "P_IMPORTANT_ITEM_ID": "20005",
        "P_NAME": "\u96f7\u7a7f\u9283\u30b9\u30c6\u30e9\u306e\u30ec\u30b7\u30d4",
        "8Cx57oAk": "\u96f7\u7a7f\u9283\u30ec",
        "P_DISPORDER": "120005",
        "60IsqxDt": "1",
        "CA7uXs6D": "1",
        "P_ICON_ID": "30000",
        "37moriMq": "",
        "P_DICTIONARY_NO": "1",
        "P_DICTIONARY_BG": "26",
        "P_IMG": "",
        "P_NEED_SWITCH_INFO": "0",
        "P_HIDE_SWITCH_INFO": "0",
        "P_OPEN_SWITCH_INFO": "61100005",
        "P_CREATEDATE": "2018-02-28 14:20:43",
        "P_UPDATEDATE": "2018-02-28 14:20:43"
    },
    {
        "P_IMPORTANT_ITEM_ID": "20006",
        "P_NAME": "\u5e7b\u714c\u5263\u30ec\u30aa\u30cb\u30af\u30b9\u306e\u30ec\u30b7\u30d4",
        "8Cx57oAk": "\u5e7b\u714c\u5263\u30ec",
        "P_DISPORDER": "120006",
        "60IsqxDt": "1",
        "CA7uXs6D": "1",
        "P_ICON_ID": "30000",
        "37moriMq": "",
        "P_DICTIONARY_NO": "1",
        "P_DICTIONARY_BG": "27",
        "P_IMG": "",
        "P_NEED_SWITCH_INFO": "0",
        "P_HIDE_SWITCH_INFO": "0",
        "P_OPEN_SWITCH_INFO": "61100006",
        "P_CREATEDATE": "2018-02-28 14:20:43",
        "P_UPDATEDATE": "2018-02-28 14:20:43"
    },
    {
        "P_IMPORTANT_ITEM_ID": "20007",
        "P_NAME": "\u51cd\u5263\u30a2\u30eb\u30bb\u30ca\u306e\u30ec\u30b7\u30d4",
        "8Cx57oAk": "\u51cd\u5263\u30ec",
        "P_DISPORDER": "120007",
        "60IsqxDt": "1",
        "CA7uXs6D": "1",
        "P_ICON_ID": "30000",
        "37moriMq": "",
        "P_DICTIONARY_NO": "1",
        "P_DICTIONARY_BG": "28",
        "P_IMG": "",
        "P_NEED_SWITCH_INFO": "0",
        "P_HIDE_SWITCH_INFO": "0",
        "P_OPEN_SWITCH_INFO": "61100007",
        "P_CREATEDATE": "2018-02-28 14:20:43",
        "P_UPDATEDATE": "2018-02-28 14:20:43"
    },
    {
        "P_IMPORTANT_ITEM_ID": "20008",
        "P_NAME": "\u5149\u5178\u30d5\u30a7\u30ea\u30a8\u30fc\u30eb\u306e\u30ec\u30b7\u30d4",
        "8Cx57oAk": "\u5149\u5178\u30ec",
        "P_DISPORDER": "120008",
        "60IsqxDt": "1",
        "CA7uXs6D": "1",
        "P_ICON_ID": "30000",
        "37moriMq": "",
        "P_DICTIONARY_NO": "1",
        "P_DICTIONARY_BG": "29",
        "P_IMG": "",
        "P_NEED_SWITCH_INFO": "0",
        "P_HIDE_SWITCH_INFO": "0",
        "P_OPEN_SWITCH_INFO": "61100008",
        "P_CREATEDATE": "2018-02-28 14:20:43",
        "P_UPDATEDATE": "2018-02-28 14:20:43"
    },
    {
        "P_IMPORTANT_ITEM_ID": "20009",
        "P_NAME": "\u98db\u68cd\u30c1\u30a7\u30eb\u30c6\u30a3\u306e\u30ec\u30b7\u30d4",
        "8Cx57oAk": "\u98db\u68cd\u30ec",
        "P_DISPORDER": "120009",
        "60IsqxDt": "1",
        "CA7uXs6D": "1",
        "P_ICON_ID": "30000",
        "37moriMq": "",
        "P_DICTIONARY_NO": "1",
        "P_DICTIONARY_BG": "30",
        "P_IMG": "",
        "P_NEED_SWITCH_INFO": "0",
        "P_HIDE_SWITCH_INFO": "0",
        "P_OPEN_SWITCH_INFO": "61100009",
        "P_CREATEDATE": "2018-02-28 14:20:43",
        "P_UPDATEDATE": "2018-02-28 14:20:43"
    },
    {
        "P_IMPORTANT_ITEM_ID": "20010",
        "P_NAME": "\u95d8\u62f3\u30ec\u30af\u30b7\u30d6\u306e\u30ec\u30b7\u30d4",
        "8Cx57oAk": "\u95d8\u62f3\u30ec",
        "P_DISPORDER": "120010",
        "60IsqxDt": "1",
        "CA7uXs6D": "1",
        "P_ICON_ID": "30000",
        "37moriMq": "",
        "P_DICTIONARY_NO": "1",
        "P_DICTIONARY_BG": "31",
        "P_IMG": "",
        "P_NEED_SWITCH_INFO": "0",
        "P_HIDE_SWITCH_INFO": "0",
        "P_OPEN_SWITCH_INFO": "61100010",
        "P_CREATEDATE": "2018-02-28 14:20:43",
        "P_UPDATEDATE": "2018-02-28 14:20:43"
    },
    {
        "P_IMPORTANT_ITEM_ID": "20011",
        "P_NAME": "\u57fa\u790e\u30b9\u30d5\u30a3\u30a2\u306e\u30ec\u30b7\u30d4",
        "8Cx57oAk": "\u30b9\u30d5\u30a3\u30ec",
        "P_DISPORDER": "120011",
        "60IsqxDt": "1",
        "CA7uXs6D": "1",
        "P_ICON_ID": "30000",
        "37moriMq": "",
        "P_DICTIONARY_NO": "1",
        "P_DICTIONARY_BG": "32",
        "P_IMG": "",
        "P_NEED_SWITCH_INFO": "0",
        "P_HIDE_SWITCH_INFO": "0",
        "P_OPEN_SWITCH_INFO": "61100011",
        "P_CREATEDATE": "2018-02-28 14:20:43",
        "P_UPDATEDATE": "2018-02-28 14:20:43"
    },
    {
        "P_IMPORTANT_ITEM_ID": "30000",
        "P_NAME": "\u57fa\u790e\u30b9\u30d5\u30a3\u30a2\u306e\u30e1\u30e2",
        "8Cx57oAk": "\u30b9\u30d5\u30a3\u30e1",
        "P_DISPORDER": "130000",
        "60IsqxDt": "1",
        "CA7uXs6D": "1",
        "P_ICON_ID": "30000",
        "37moriMq": "",
        "P_DICTIONARY_NO": "1",
        "P_DICTIONARY_BG": "33",
        "P_IMG": "",
        "P_NEED_SWITCH_INFO": "0",
        "P_HIDE_SWITCH_INFO": "0",
        "P_OPEN_SWITCH_INFO": "61200001",
        "P_CREATEDATE": "2018-02-28 14:20:43",
        "P_UPDATEDATE": "2018-02-28 14:20:43"
    },
    {
        "P_IMPORTANT_ITEM_ID": "30002",
        "P_NAME": "\u8056\u5263\u30a8\u30d9\u30ea\u30af\u30b9\u306e\u30ec\u30b7\u30d4",
        "8Cx57oAk": "\u8056\u5263\u30ec",
        "P_DISPORDER": "130003",
        "60IsqxDt": "1",
        "CA7uXs6D": "1",
        "P_ICON_ID": "30000",
        "37moriMq": "",
        "P_DICTIONARY_NO": "1",
        "P_DICTIONARY_BG": "35",
        "P_IMG": "",
        "P_NEED_SWITCH_INFO": "0",
        "P_HIDE_SWITCH_INFO": "0",
        "P_OPEN_SWITCH_INFO": "61200003",
        "P_CREATEDATE": "2018-02-28 14:20:43",
        "P_UPDATEDATE": "2018-02-28 14:20:43"
    },
    {
        "P_IMPORTANT_ITEM_ID": "30003",
        "P_NAME": "\u9b54\u5263\u30a8\u30c7\u30eb\u30fb\u30de\u30bc\u30eb\u306e\u30ec\u30b7\u30d4",
        "8Cx57oAk": "\u9b54\u5263\u30ec",
        "P_DISPORDER": "130004",
        "60IsqxDt": "1",
        "CA7uXs6D": "1",
        "P_ICON_ID": "30000",
        "37moriMq": "",
        "P_DICTIONARY_NO": "1",
        "P_DICTIONARY_BG": "36",
        "P_IMG": "",
        "P_NEED_SWITCH_INFO": "0",
        "P_HIDE_SWITCH_INFO": "0",
        "P_OPEN_SWITCH_INFO": "61200004",
        "P_CREATEDATE": "2018-02-28 14:20:43",
        "P_UPDATEDATE": "2018-02-28 14:20:43"
    },
    {
        "P_IMPORTANT_ITEM_ID": "30004",
        "P_NAME": "\u7adc\u304c\u935b\u3048\u3057\u5263\u300e\u30de\u30ac\u300f\u306e\u30ec\u30b7\u30d4",
        "8Cx57oAk": "\u7adc\u5263\u30ec",
        "P_DISPORDER": "130005",
        "60IsqxDt": "1",
        "CA7uXs6D": "1",
        "P_ICON_ID": "30000",
        "37moriMq": "",
        "P_DICTIONARY_NO": "1",
        "P_DICTIONARY_BG": "37",
        "P_IMG": "",
        "P_NEED_SWITCH_INFO": "0",
        "P_HIDE_SWITCH_INFO": "0",
        "P_OPEN_SWITCH_INFO": "61200005",
        "P_CREATEDATE": "2018-02-28 14:20:43",
        "P_UPDATEDATE": "2018-02-28 14:20:43"
    },
    {
        "P_IMPORTANT_ITEM_ID": "30006",
        "P_NAME": "\u7adc\u9c57\u76fe\u30d0\u30eb\u30b2\u30a4\u30aa\u30b9\u306e\u30ec\u30b7\u30d4",
        "8Cx57oAk": "\u7adc\u9c57\u76fe\u30ec",
        "P_DISPORDER": "130007",
        "60IsqxDt": "1",
        "CA7uXs6D": "1",
        "P_ICON_ID": "30000",
        "37moriMq": "",
        "P_DICTIONARY_NO": "1",
        "P_DICTIONARY_BG": "39",
        "P_IMG": "",
        "P_NEED_SWITCH_INFO": "0",
        "P_HIDE_SWITCH_INFO": "0",
        "P_OPEN_SWITCH_INFO": "61200007",
        "P_CREATEDATE": "2018-02-28 14:20:43",
        "P_UPDATEDATE": "2018-02-28 14:20:43"
    },
    {
        "P_IMPORTANT_ITEM_ID": "30007",
        "P_NAME": "\u5973\u795e\u76fe\u30e9\u30a6\u30fb\u30ec\u30a4\u30af\u306e\u30ec\u30b7\u30d4",
        "8Cx57oAk": "\u5973\u795e\u76fe\u30ec",
        "P_DISPORDER": "130008",
        "60IsqxDt": "1",
        "CA7uXs6D": "1",
        "P_ICON_ID": "30000",
        "37moriMq": "",
        "P_DICTIONARY_NO": "1",
        "P_DICTIONARY_BG": "40",
        "P_IMG": "",
        "P_NEED_SWITCH_INFO": "0",
        "P_HIDE_SWITCH_INFO": "0",
        "P_OPEN_SWITCH_INFO": "61200008",
        "P_CREATEDATE": "2018-02-28 14:20:43",
        "P_UPDATEDATE": "2018-02-28 14:20:43"
    },
    {
        "P_IMPORTANT_ITEM_ID": "30008",
        "P_NAME": "\u592a\u967d\u3068\u6708\u306e\u76fe\u30de\u30ea\u30b9\u306e\u30ec\u30b7\u30d4",
        "8Cx57oAk": "\u967d\u6708\u76fe\u30ec",
        "P_DISPORDER": "130009",
        "60IsqxDt": "1",
        "CA7uXs6D": "1",
        "P_ICON_ID": "30000",
        "37moriMq": "",
        "P_DICTIONARY_NO": "1",
        "P_DICTIONARY_BG": "41",
        "P_IMG": "",
        "P_NEED_SWITCH_INFO": "0",
        "P_HIDE_SWITCH_INFO": "0",
        "P_OPEN_SWITCH_INFO": "61200009",
        "P_CREATEDATE": "2018-02-28 14:20:43",
        "P_UPDATEDATE": "2018-02-28 14:20:43"
    },
    {
        "P_IMPORTANT_ITEM_ID": "30010",
        "P_NAME": "\u68ee\u8863\u30d5\u30e9\u30c7\u30ea\u30a2\u306e\u30ec\u30b7\u30d4",
        "8Cx57oAk": "\u68ee\u8863\u30ec",
        "P_DISPORDER": "130011",
        "60IsqxDt": "1",
        "CA7uXs6D": "1",
        "P_ICON_ID": "30000",
        "37moriMq": "",
        "P_DICTIONARY_NO": "1",
        "P_DICTIONARY_BG": "43",
        "P_IMG": "",
        "P_NEED_SWITCH_INFO": "0",
        "P_HIDE_SWITCH_INFO": "0",
        "P_OPEN_SWITCH_INFO": "61200011",
        "P_CREATEDATE": "2018-02-28 14:20:43",
        "P_UPDATEDATE": "2018-02-28 14:20:43"
    },
    {
        "P_IMPORTANT_ITEM_ID": "30011",
        "P_NAME": "\u68ee\u738b\u8863\u30a2\u30a4\u30c7\u30a3\u30fc\u30cd\u306e\u30ec\u30b7\u30d4",
        "8Cx57oAk": "\u68ee\u738b\u8863\u30ec",
        "P_DISPORDER": "130012",
        "60IsqxDt": "1",
        "CA7uXs6D": "1",
        "P_ICON_ID": "30000",
        "37moriMq": "",
        "P_DICTIONARY_NO": "1",
        "P_DICTIONARY_BG": "44",
        "P_IMG": "",
        "P_NEED_SWITCH_INFO": "0",
        "P_HIDE_SWITCH_INFO": "0",
        "P_OPEN_SWITCH_INFO": "61200012",
        "P_CREATEDATE": "2018-02-28 14:20:43",
        "P_UPDATEDATE": "2018-02-28 14:20:43"
    },
    {
        "P_IMPORTANT_ITEM_ID": "30012",
        "P_NAME": "\u767d\u54c0\u306e\u5929\u846c\u8863\u306e\u30ec\u30b7\u30d4",
        "8Cx57oAk": "\u5929\u846c\u8863\u30ec",
        "P_DISPORDER": "130013",
        "60IsqxDt": "1",
        "CA7uXs6D": "1",
        "P_ICON_ID": "30000",
        "37moriMq": "",
        "P_DICTIONARY_NO": "1",
        "P_DICTIONARY_BG": "45",
        "P_IMG": "",
        "P_NEED_SWITCH_INFO": "0",
        "P_HIDE_SWITCH_INFO": "0",
        "P_OPEN_SWITCH_INFO": "61200013",
        "P_CREATEDATE": "2018-02-28 14:20:43",
        "P_UPDATEDATE": "2018-02-28 14:20:43"
    },
    {
        "P_IMPORTANT_ITEM_ID": "30014",
        "P_NAME": "\u5e7b\u7363\u93a7\u300e\u9e92\u9e9f\u300f\u306e\u30ec\u30b7\u30d4",
        "8Cx57oAk": "\u5e7b\u9e92\u9e9f\u30ec",
        "P_DISPORDER": "130015",
        "60IsqxDt": "1",
        "CA7uXs6D": "1",
        "P_ICON_ID": "30000",
        "37moriMq": "",
        "P_DICTIONARY_NO": "1",
        "P_DICTIONARY_BG": "47",
        "P_IMG": "",
        "P_NEED_SWITCH_INFO": "0",
        "P_HIDE_SWITCH_INFO": "0",
        "P_OPEN_SWITCH_INFO": "61200015",
        "P_CREATEDATE": "2018-02-28 14:20:43",
        "P_UPDATEDATE": "2018-02-28 14:20:43"
    },
    {
        "P_IMPORTANT_ITEM_ID": "30015",
        "P_NAME": "\u8056\u8863\u30a8\u30e1\u30eb\u30c7\u30a3\u30a2\u306e\u30ec\u30b7\u30d4",
        "8Cx57oAk": "\u8056\u8863\u30ec",
        "P_DISPORDER": "130016",
        "60IsqxDt": "1",
        "CA7uXs6D": "1",
        "P_ICON_ID": "30000",
        "37moriMq": "",
        "P_DICTIONARY_NO": "1",
        "P_DICTIONARY_BG": "48",
        "P_IMG": "",
        "P_NEED_SWITCH_INFO": "0",
        "P_HIDE_SWITCH_INFO": "0",
        "P_OPEN_SWITCH_INFO": "61200016",
        "P_CREATEDATE": "2018-02-28 14:20:43",
        "P_UPDATEDATE": "2018-02-28 14:20:43"
    },
    {
        "P_IMPORTANT_ITEM_ID": "30016",
        "P_NAME": "\u8f1d\u93a7\u30eb\u30c7\u30a3\u30d0\u30fb\u30de\u30af\u30b9\u306e\u30ec\u30b7\u30d4",
        "8Cx57oAk": "\u8f1d\u93a7\u30ec",
        "P_DISPORDER": "130017",
        "60IsqxDt": "1",
        "CA7uXs6D": "1",
        "P_ICON_ID": "30000",
        "37moriMq": "",
        "P_DICTIONARY_NO": "1",
        "P_DICTIONARY_BG": "49",
        "P_IMG": "",
        "P_NEED_SWITCH_INFO": "0",
        "P_HIDE_SWITCH_INFO": "0",
        "P_OPEN_SWITCH_INFO": "61200017",
        "P_CREATEDATE": "2018-02-28 14:20:43",
        "P_UPDATEDATE": "2018-02-28 14:20:43"
    },
    {
        "P_IMPORTANT_ITEM_ID": "30017",
        "P_NAME": "\u5343\u5b50\u6751\u6b63\u306e\u30ec\u30b7\u30d4",
        "8Cx57oAk": "\u6751\u6b63\u30ec",
        "P_DISPORDER": "130020",
        "60IsqxDt": "1",
        "CA7uXs6D": "1",
        "P_ICON_ID": "30000",
        "37moriMq": "",
        "P_DICTIONARY_NO": "1",
        "P_DICTIONARY_BG": "50",
        "P_IMG": "",
        "P_NEED_SWITCH_INFO": "0",
        "P_HIDE_SWITCH_INFO": "0",
        "P_OPEN_SWITCH_INFO": "61200018",
        "P_CREATEDATE": "2018-02-28 14:20:43",
        "P_UPDATEDATE": "2018-02-28 14:20:43"
    },
    {
        "P_IMPORTANT_ITEM_ID": "30018",
        "P_NAME": "\u738b\u76fe\u30c0\u30eb\u30d0\u30f3\u30b7\u30a7\u30eb\u306e\u30ec\u30b7\u30d4",
        "8Cx57oAk": "\u738b\u76fe\u30ec",
        "P_DISPORDER": "130023",
        "60IsqxDt": "1",
        "CA7uXs6D": "1",
        "P_ICON_ID": "30000",
        "37moriMq": "",
        "P_DICTIONARY_NO": "1",
        "P_DICTIONARY_BG": "51",
        "P_IMG": "",
        "P_NEED_SWITCH_INFO": "0",
        "P_HIDE_SWITCH_INFO": "0",
        "P_OPEN_SWITCH_INFO": "61200019",
        "P_CREATEDATE": "2018-02-28 14:20:43",
        "P_UPDATEDATE": "2018-02-28 14:20:43"
    },
    {
        "P_IMPORTANT_ITEM_ID": "30019",
        "P_NAME": "\u6b63\u5b97\u306e\u30ec\u30b7\u30d4",
        "8Cx57oAk": "\u6b63\u5b97\u30ec",
        "P_DISPORDER": "130026",
        "60IsqxDt": "1",
        "CA7uXs6D": "1",
        "P_ICON_ID": "30000",
        "37moriMq": "",
        "P_DICTIONARY_NO": "1",
        "P_DICTIONARY_BG": "52",
        "P_IMG": "",
        "P_NEED_SWITCH_INFO": "0",
        "P_HIDE_SWITCH_INFO": "0",
        "P_OPEN_SWITCH_INFO": "61200020",
        "P_CREATEDATE": "2018-02-28 14:20:43",
        "P_UPDATEDATE": "2018-02-28 14:20:43"
    },
    {
        "P_IMPORTANT_ITEM_ID": "30020",
        "P_NAME": "\u6a5f\u5263\u30c7\u30a3\u30d5\u30a7\u30f3\u30c0\u30fc\u306e\u30ec\u30b7\u30d4",
        "8Cx57oAk": "\u6a5f\u5263\u30ec",
        "P_DISPORDER": "130027",
        "60IsqxDt": "1",
        "CA7uXs6D": "1",
        "P_ICON_ID": "30000",
        "37moriMq": "",
        "P_DICTIONARY_NO": "1",
        "P_DICTIONARY_BG": "53",
        "P_IMG": "",
        "P_NEED_SWITCH_INFO": "0",
        "P_HIDE_SWITCH_INFO": "0",
        "P_OPEN_SWITCH_INFO": "61200021",
        "P_CREATEDATE": "2018-02-28 14:20:43",
        "P_UPDATEDATE": "2018-02-28 14:20:43"
    },
    {
        "P_IMPORTANT_ITEM_ID": "30021",
        "P_NAME": "\u79d8\u5b9d\u300e\u30de\u30eb\u30ad\u30e5\u30ed\u30c7\u30a3\u30f3\u300f\u306e\u30ec\u30b7\u30d4",
        "8Cx57oAk": "\u79d8\u5b9d\u30de\u30ec",
        "P_DISPORDER": "130028",
        "60IsqxDt": "1",
        "CA7uXs6D": "1",
        "P_ICON_ID": "30000",
        "37moriMq": "",
        "P_DICTIONARY_NO": "1",
        "P_DICTIONARY_BG": "54",
        "P_IMG": "",
        "P_NEED_SWITCH_INFO": "0",
        "P_HIDE_SWITCH_INFO": "0",
        "P_OPEN_SWITCH_INFO": "61200022",
        "P_CREATEDATE": "2018-02-28 14:20:43",
        "P_UPDATEDATE": "2018-02-28 14:20:43"
    },
    {
        "P_IMPORTANT_ITEM_ID": "30022",
        "P_NAME": "\u79d8\u5b9d\u300e\u30ec\u30d6\u30fb\u30de\u30c7\u30e5\u30e9\u300f\u306e\u30ec\u30b7\u30d4",
        "8Cx57oAk": "\u79d8\u5b9d\u30ec\u30ec",
        "P_DISPORDER": "130035",
        "60IsqxDt": "1",
        "CA7uXs6D": "1",
        "P_ICON_ID": "30000",
        "37moriMq": "",
        "P_DICTIONARY_NO": "1",
        "P_DICTIONARY_BG": "55",
        "P_IMG": "",
        "P_NEED_SWITCH_INFO": "0",
        "P_HIDE_SWITCH_INFO": "0",
        "P_OPEN_SWITCH_INFO": "61200023",
        "P_CREATEDATE": "2018-02-28 14:20:43",
        "P_UPDATEDATE": "2018-02-28 14:20:43"
    },
    {
        "P_IMPORTANT_ITEM_ID": "30023",
        "P_NAME": "\u7cbe\u970a\u306e\u77ed\u5263\u306e\u30ec\u30b7\u30d4",
        "8Cx57oAk": "\u7cbe\u77ed\u5263\u30ec",
        "P_DISPORDER": "130036",
        "60IsqxDt": "1",
        "CA7uXs6D": "1",
        "P_ICON_ID": "30000",
        "37moriMq": "",
        "P_DICTIONARY_NO": "1",
        "P_DICTIONARY_BG": "56",
        "P_IMG": "",
        "P_NEED_SWITCH_INFO": "0",
        "P_HIDE_SWITCH_INFO": "0",
        "P_OPEN_SWITCH_INFO": "61200024",
        "P_CREATEDATE": "2018-02-28 14:20:43",
        "P_UPDATEDATE": "2018-02-28 14:20:43"
    },
    {
        "P_IMPORTANT_ITEM_ID": "30024",
        "P_NAME": "\u7cbe\u970a\u5263\u30c6\u30a3\u30a2\u30c3\u30c8\u306e\u30ec\u30b7\u30d4",
        "8Cx57oAk": "\u7cbe\u970a\u5263\u30ec",
        "P_DISPORDER": "130037",
        "60IsqxDt": "1",
        "CA7uXs6D": "1",
        "P_ICON_ID": "30000",
        "37moriMq": "",
        "P_DICTIONARY_NO": "1",
        "P_DICTIONARY_BG": "57",
        "P_IMG": "",
        "P_NEED_SWITCH_INFO": "0",
        "P_HIDE_SWITCH_INFO": "0",
        "P_OPEN_SWITCH_INFO": "61200025",
        "P_CREATEDATE": "2018-02-28 14:20:43",
        "P_UPDATEDATE": "2018-02-28 14:20:43"
    },
    {
        "P_IMPORTANT_ITEM_ID": "30025",
        "P_NAME": "\u7cbe\u970a\u5b9d\u5263\u30c0\u30a4\u30ca\u306e\u30ec\u30b7\u30d4",
        "8Cx57oAk": "\u7cbe\u5b9d\u5263\u30ec",
        "P_DISPORDER": "130038",
        "60IsqxDt": "1",
        "CA7uXs6D": "1",
        "P_ICON_ID": "30000",
        "37moriMq": "",
        "P_DICTIONARY_NO": "1",
        "P_DICTIONARY_BG": "58",
        "P_IMG": "",
        "P_NEED_SWITCH_INFO": "0",
        "P_HIDE_SWITCH_INFO": "0",
        "P_OPEN_SWITCH_INFO": "61200026",
        "P_CREATEDATE": "2018-02-28 14:20:43",
        "P_UPDATEDATE": "2018-02-28 14:20:43"
    },
    {
        "P_IMPORTANT_ITEM_ID": "30026",
        "P_NAME": "\u60a0\u6c37\u306e\u7363\u5b88\u306e\u30ec\u30b7\u30d4",
        "8Cx57oAk": "\u60a0\u6c37\u5b88\u30ec",
        "P_DISPORDER": "130039",
        "60IsqxDt": "1",
        "CA7uXs6D": "1",
        "P_ICON_ID": "30000",
        "37moriMq": "",
        "P_DICTIONARY_NO": "1",
        "P_DICTIONARY_BG": "59",
        "P_IMG": "",
        "P_NEED_SWITCH_INFO": "0",
        "P_HIDE_SWITCH_INFO": "0",
        "P_OPEN_SWITCH_INFO": "61200027",
        "P_CREATEDATE": "2018-02-28 14:20:43",
        "P_UPDATEDATE": "2018-02-28 14:20:43"
    },
    {
        "P_IMPORTANT_ITEM_ID": "30027",
        "P_NAME": "\u30e9\u30a4\u30cd\u30eb\u306e\u9ed2\u8276\u7b26\u306e\u30ec\u30b7\u30d4",
        "8Cx57oAk": "\u9ed2\u8276\u7b26\u30ec",
        "P_DISPORDER": "130040",
        "60IsqxDt": "1",
        "CA7uXs6D": "1",
        "P_ICON_ID": "30000",
        "37moriMq": "",
        "P_DICTIONARY_NO": "1",
        "P_DICTIONARY_BG": "60",
        "P_IMG": "",
        "P_NEED_SWITCH_INFO": "0",
        "P_HIDE_SWITCH_INFO": "0",
        "P_OPEN_SWITCH_INFO": "61200028",
        "P_CREATEDATE": "2018-02-28 14:20:43",
        "P_UPDATEDATE": "2018-02-28 14:20:43"
    },
    {
        "P_IMPORTANT_ITEM_ID": "30028",
        "P_NAME": "\u8b77\u308a\u306e\u8fb0\u7802\u7b26\u306e\u30ec\u30b7\u30d4",
        "8Cx57oAk": "\u8fb0\u7802\u7b26\u30ec",
        "P_DISPORDER": "130050",
        "60IsqxDt": "1",
        "CA7uXs6D": "1",
        "P_ICON_ID": "30000",
        "37moriMq": "",
        "P_DICTIONARY_NO": "1",
        "P_DICTIONARY_BG": "61",
        "P_IMG": "",
        "P_NEED_SWITCH_INFO": "0",
        "P_HIDE_SWITCH_INFO": "0",
        "P_OPEN_SWITCH_INFO": "61200029",
        "P_CREATEDATE": "2018-02-28 14:20:43",
        "P_UPDATEDATE": "2018-02-28 14:20:43"
    },
    {
        "P_IMPORTANT_ITEM_ID": "30029",
        "P_NAME": "\u5b64\u72fc\u306e\u9b42\u306e\u69cd\u306e\u30ec\u30b7\u30d4",
        "8Cx57oAk": "\u5b64\u72fc\u69cd\u30ec",
        "P_DISPORDER": "130053",
        "60IsqxDt": "1",
        "CA7uXs6D": "1",
        "P_ICON_ID": "30000",
        "37moriMq": "",
        "P_DICTIONARY_NO": "1",
        "P_DICTIONARY_BG": "62",
        "P_IMG": "",
        "P_NEED_SWITCH_INFO": "0",
        "P_HIDE_SWITCH_INFO": "0",
        "P_OPEN_SWITCH_INFO": "61200030",
        "P_CREATEDATE": "2018-02-28 14:20:43",
        "P_UPDATEDATE": "2018-02-28 14:20:43"
    },
    {
        "P_IMPORTANT_ITEM_ID": "30030",
        "P_NAME": "\u8778\u725b\u76fe\u30ab\u30e9\u30b3\u30eb\u306e\u30ec\u30b7\u30d4",
        "8Cx57oAk": "\u8778\u725b\u76fe\u30ec",
        "P_DISPORDER": "130056",
        "60IsqxDt": "1",
        "CA7uXs6D": "1",
        "P_ICON_ID": "30000",
        "37moriMq": "",
        "P_DICTIONARY_NO": "1",
        "P_DICTIONARY_BG": "63",
        "P_IMG": "",
        "P_NEED_SWITCH_INFO": "0",
        "P_HIDE_SWITCH_INFO": "0",
        "P_OPEN_SWITCH_INFO": "61200031",
        "P_CREATEDATE": "2018-02-28 14:20:43",
        "P_UPDATEDATE": "2018-02-28 14:20:43"
    },
    {
        "P_IMPORTANT_ITEM_ID": "30031",
        "P_NAME": "\u5b9d\u5263\u300e\u7d62\u721b\u300f\u306e\u30ec\u30b7\u30d4",
        "8Cx57oAk": "\u5b9d\u5263\u7d62\u30ec",
        "P_DISPORDER": "130059",
        "60IsqxDt": "1",
        "CA7uXs6D": "1",
        "P_ICON_ID": "30000",
        "37moriMq": "",
        "P_DICTIONARY_NO": "1",
        "P_DICTIONARY_BG": "64",
        "P_IMG": "",
        "P_NEED_SWITCH_INFO": "0",
        "P_HIDE_SWITCH_INFO": "0",
        "P_OPEN_SWITCH_INFO": "61200032",
        "P_CREATEDATE": "2018-02-28 14:20:43",
        "P_UPDATEDATE": "2018-02-28 14:20:43"
    },
    {
        "P_IMPORTANT_ITEM_ID": "30032",
        "P_NAME": "\u65fa\u9b42\u5200\u300e\u6975\u300f\u306e\u30ec\u30b7\u30d4",
        "8Cx57oAk": "\u65fa\u9b42\u5200\u30ec",
        "P_DISPORDER": "130062",
        "60IsqxDt": "1",
        "CA7uXs6D": "1",
        "P_ICON_ID": "30000",
        "37moriMq": "",
        "P_DICTIONARY_NO": "1",
        "P_DICTIONARY_BG": "65",
        "P_IMG": "",
        "P_NEED_SWITCH_INFO": "0",
        "P_HIDE_SWITCH_INFO": "0",
        "P_OPEN_SWITCH_INFO": "61200033",
        "P_CREATEDATE": "2018-02-28 14:20:43",
        "P_UPDATEDATE": "2018-02-28 14:20:43"
    },
    {
        "P_IMPORTANT_ITEM_ID": "30033",
        "P_NAME": "\u932c\u9283\u30e9\u30f4\u30a3\u30fc\u30c1\u306e\u30ec\u30b7\u30d4",
        "8Cx57oAk": "\u932c\u9283\u30ec",
        "P_DISPORDER": "130065",
        "60IsqxDt": "1",
        "CA7uXs6D": "1",
        "P_ICON_ID": "30000",
        "37moriMq": "",
        "P_DICTIONARY_NO": "1",
        "P_DICTIONARY_BG": "66",
        "P_IMG": "",
        "P_NEED_SWITCH_INFO": "0",
        "P_HIDE_SWITCH_INFO": "0",
        "P_OPEN_SWITCH_INFO": "61200034",
        "P_CREATEDATE": "2018-02-28 14:20:43",
        "P_UPDATEDATE": "2018-02-28 14:20:43"
    },
    {
        "P_IMPORTANT_ITEM_ID": "30034",
        "P_NAME": "\u8987\u65a7\u30de\u30ea\u30e5\u30c7\u30d5\u30b9\u306e\u30ec\u30b7\u30d4",
        "8Cx57oAk": "\u8987\u65a7\u30ec",
        "P_DISPORDER": "130066",
        "60IsqxDt": "1",
        "CA7uXs6D": "1",
        "P_ICON_ID": "30000",
        "37moriMq": "",
        "P_DICTIONARY_NO": "1",
        "P_DICTIONARY_BG": "67",
        "P_IMG": "",
        "P_NEED_SWITCH_INFO": "0",
        "P_HIDE_SWITCH_INFO": "0",
        "P_OPEN_SWITCH_INFO": "61200035",
        "P_CREATEDATE": "2018-02-28 14:20:43",
        "P_UPDATEDATE": "2018-02-28 14:20:43"
    },
    {
        "P_IMPORTANT_ITEM_ID": "30035",
        "P_NAME": "\u9b54\u795e\u65a7\u30ed\u30fc\u30c9\u30fb\u30de\u30b0\u30ec\u30b9\u306e\u30ec\u30b7\u30d4",
        "8Cx57oAk": "\u9b54\u795e\u65a7\u30ec",
        "P_DISPORDER": "130068",
        "60IsqxDt": "1",
        "CA7uXs6D": "1",
        "P_ICON_ID": "30000",
        "37moriMq": "",
        "P_DICTIONARY_NO": "1",
        "P_DICTIONARY_BG": "68",
        "P_IMG": "",
        "P_NEED_SWITCH_INFO": "0",
        "P_HIDE_SWITCH_INFO": "0",
        "P_OPEN_SWITCH_INFO": "61200036",
        "P_CREATEDATE": "2018-02-28 14:20:43",
        "P_UPDATEDATE": "2018-02-28 14:20:43"
    },
    {
        "P_IMPORTANT_ITEM_ID": "30036",
        "P_NAME": "\u72c2\u6c17\u306e\u51f6\u5203\u306e\u30ec\u30b7\u30d4",
        "8Cx57oAk": "\u72c2\u6c17\u5203\u30ec",
        "P_DISPORDER": "130069",
        "60IsqxDt": "1",
        "CA7uXs6D": "1",
        "P_ICON_ID": "30000",
        "37moriMq": "",
        "P_DICTIONARY_NO": "1",
        "P_DICTIONARY_BG": "69",
        "P_IMG": "",
        "P_NEED_SWITCH_INFO": "0",
        "P_HIDE_SWITCH_INFO": "0",
        "P_OPEN_SWITCH_INFO": "61200037",
        "P_CREATEDATE": "2018-02-28 14:20:43",
        "P_UPDATEDATE": "2018-02-28 14:20:43"
    },
    {
        "P_IMPORTANT_ITEM_ID": "30037",
        "P_NAME": "\u9b54\u5203\u306e\u30b1\u30eb\u30b7\u30e5\u306e\u30ec\u30b7\u30d4",
        "8Cx57oAk": "\u9b54\u5203\u30ec",
        "P_DISPORDER": "130070",
        "60IsqxDt": "1",
        "CA7uXs6D": "1",
        "P_ICON_ID": "30000",
        "37moriMq": "",
        "P_DICTIONARY_NO": "1",
        "P_DICTIONARY_BG": "70",
        "P_IMG": "",
        "P_NEED_SWITCH_INFO": "0",
        "P_HIDE_SWITCH_INFO": "0",
        "P_OPEN_SWITCH_INFO": "61200038",
        "P_CREATEDATE": "2018-02-28 14:20:43",
        "P_UPDATEDATE": "2018-02-28 14:20:43"
    },
    {
        "P_IMPORTANT_ITEM_ID": "30038",
        "P_NAME": "\u7344\u5203\u30dc\u30a6\u30b8\u30b6\u30d5\u30a1\u306e\u30ec\u30b7\u30d4",
        "8Cx57oAk": "\u7344\u5203\u30ec",
        "P_DISPORDER": "130071",
        "60IsqxDt": "1",
        "CA7uXs6D": "1",
        "P_ICON_ID": "30000",
        "37moriMq": "",
        "P_DICTIONARY_NO": "1",
        "P_DICTIONARY_BG": "71",
        "P_IMG": "",
        "P_NEED_SWITCH_INFO": "0",
        "P_HIDE_SWITCH_INFO": "0",
        "P_OPEN_SWITCH_INFO": "61200039",
        "P_CREATEDATE": "2018-02-28 14:20:43",
        "P_UPDATEDATE": "2018-02-28 14:20:43"
    },
    {
        "P_IMPORTANT_ITEM_ID": "30039",
        "P_NAME": "\u738b\u5149\u306e\u82b1\u306e\u30ec\u30b7\u30d4",
        "8Cx57oAk": "\u738b\u5149\u82b1\u30ec",
        "P_DISPORDER": "130072",
        "60IsqxDt": "1",
        "CA7uXs6D": "1",
        "P_ICON_ID": "30000",
        "37moriMq": "",
        "P_DICTIONARY_NO": "1",
        "P_DICTIONARY_BG": "72",
        "P_IMG": "",
        "P_NEED_SWITCH_INFO": "0",
        "P_HIDE_SWITCH_INFO": "0",
        "P_OPEN_SWITCH_INFO": "61200040",
        "P_CREATEDATE": "2018-02-28 14:20:43",
        "P_UPDATEDATE": "2018-02-28 14:20:43"
    },
    {
        "P_IMPORTANT_ITEM_ID": "30040",
        "P_NAME": "\u795e\u5854\u306e\u82b1\u306e\u30ec\u30b7\u30d4",
        "8Cx57oAk": "\u795e\u5854\u82b1\u30ec",
        "P_DISPORDER": "130073",
        "60IsqxDt": "1",
        "CA7uXs6D": "1",
        "P_ICON_ID": "30000",
        "37moriMq": "",
        "P_DICTIONARY_NO": "1",
        "P_DICTIONARY_BG": "73",
        "P_IMG": "",
        "P_NEED_SWITCH_INFO": "0",
        "P_HIDE_SWITCH_INFO": "0",
        "P_OPEN_SWITCH_INFO": "61200041",
        "P_CREATEDATE": "2018-02-28 14:20:43",
        "P_UPDATEDATE": "2018-02-28 14:20:43"
    },
    {
        "P_IMPORTANT_ITEM_ID": "30041",
        "P_NAME": "\u795e\u81e3\u306e\u82b1\u306e\u30ec\u30b7\u30d4",
        "8Cx57oAk": "\u795e\u81e3\u82b1\u30ec",
        "P_DISPORDER": "130074",
        "60IsqxDt": "1",
        "CA7uXs6D": "1",
        "P_ICON_ID": "30000",
        "37moriMq": "",
        "P_DICTIONARY_NO": "1",
        "P_DICTIONARY_BG": "74",
        "P_IMG": "",
        "P_NEED_SWITCH_INFO": "0",
        "P_HIDE_SWITCH_INFO": "0",
        "P_OPEN_SWITCH_INFO": "61200042",
        "P_CREATEDATE": "2018-02-28 14:20:43",
        "P_UPDATEDATE": "2018-02-28 14:20:43"
    },
    {
        "P_IMPORTANT_ITEM_ID": "30042",
        "P_NAME": "\u6280\u5b9d\u30d0\u30c8\u30eb\u30d6\u30fc\u30b9\u30bf\u30fc\u306e\u30ec\u30b7\u30d4",
        "8Cx57oAk": "\u6280\u5b9d\u30ec",
        "P_DISPORDER": "130075",
        "60IsqxDt": "1",
        "CA7uXs6D": "1",
        "P_ICON_ID": "30000",
        "37moriMq": "",
        "P_DICTIONARY_NO": "1",
        "P_DICTIONARY_BG": "75",
        "P_IMG": "",
        "P_NEED_SWITCH_INFO": "0",
        "P_HIDE_SWITCH_INFO": "0",
        "P_OPEN_SWITCH_INFO": "61200043",
        "P_CREATEDATE": "2018-02-28 14:20:43",
        "P_UPDATEDATE": "2018-02-28 14:20:43"
    },
    {
        "P_IMPORTANT_ITEM_ID": "30043",
        "P_NAME": "\u7652\u5b9d\u30cf\u30fc\u30c8\u30d6\u30fc\u30b9\u30bf\u30fc\u306e\u30ec\u30b7\u30d4",
        "8Cx57oAk": "\u7652\u5b9d\u30ec",
        "P_DISPORDER": "130076",
        "60IsqxDt": "1",
        "CA7uXs6D": "1",
        "P_ICON_ID": "30000",
        "37moriMq": "",
        "P_DICTIONARY_NO": "1",
        "P_DICTIONARY_BG": "76",
        "P_IMG": "",
        "P_NEED_SWITCH_INFO": "0",
        "P_HIDE_SWITCH_INFO": "0",
        "P_OPEN_SWITCH_INFO": "61200044",
        "P_CREATEDATE": "2018-02-28 14:20:43",
        "P_UPDATEDATE": "2018-02-28 14:20:43"
    },
    {
        "P_IMPORTANT_ITEM_ID": "30044",
        "P_NAME": "\u8ce2\u5b9d\u30d0\u30c8\u30eb\u30d6\u30fc\u30b9\u30bf\u30fc\u306e\u30ec\u30b7\u30d4",
        "8Cx57oAk": "\u8ce2\u5b9d\u30ec",
        "P_DISPORDER": "130077",
        "60IsqxDt": "1",
        "CA7uXs6D": "1",
        "P_ICON_ID": "30000",
        "37moriMq": "",
        "P_DICTIONARY_NO": "1",
        "P_DICTIONARY_BG": "77",
        "P_IMG": "",
        "P_NEED_SWITCH_INFO": "0",
        "P_HIDE_SWITCH_INFO": "0",
        "P_OPEN_SWITCH_INFO": "61200045",
        "P_CREATEDATE": "2018-02-28 14:20:43",
        "P_UPDATEDATE": "2018-02-28 14:20:43"
    },
    {
        "P_IMPORTANT_ITEM_ID": "30045",
        "P_NAME": "\u30d5\u30a7\u30cb\u30c3\u30af\u30b9\u306e\u773c\u306e\u30ec\u30b7\u30d4",
        "8Cx57oAk": "\u706b\u773c\u30ec",
        "P_DISPORDER": "130078",
        "60IsqxDt": "1",
        "CA7uXs6D": "1",
        "P_ICON_ID": "30000",
        "37moriMq": "",
        "P_DICTIONARY_NO": "1",
        "P_DICTIONARY_BG": "78",
        "P_IMG": "",
        "P_NEED_SWITCH_INFO": "0",
        "P_HIDE_SWITCH_INFO": "0",
        "P_OPEN_SWITCH_INFO": "61200046",
        "P_CREATEDATE": "2018-02-28 14:20:44",
        "P_UPDATEDATE": "2018-02-28 14:20:44"
    },
    {
        "P_IMPORTANT_ITEM_ID": "30046",
        "P_NAME": "\u30d5\u30a7\u30eb\u30b6\u30fc\u306e\u773c\u306e\u30ec\u30b7\u30d4",
        "8Cx57oAk": "\u708e\u773c\u30ec",
        "P_DISPORDER": "130079",
        "60IsqxDt": "1",
        "CA7uXs6D": "1",
        "P_ICON_ID": "30000",
        "37moriMq": "",
        "P_DICTIONARY_NO": "1",
        "P_DICTIONARY_BG": "79",
        "P_IMG": "",
        "P_NEED_SWITCH_INFO": "0",
        "P_HIDE_SWITCH_INFO": "0",
        "P_OPEN_SWITCH_INFO": "61200047",
        "P_CREATEDATE": "2018-02-28 14:20:44",
        "P_UPDATEDATE": "2018-02-28 14:20:44"
    },
    {
        "P_IMPORTANT_ITEM_ID": "30047",
        "P_NAME": "\u95c7\u8863\u30c0\u30fc\u30af\u30a8\u30c7\u30e5\u30a2\u306e\u30ec\u30b7\u30d4",
        "8Cx57oAk": "\u95c7\u8863\u30ec",
        "P_DISPORDER": "130080",
        "60IsqxDt": "1",
        "CA7uXs6D": "1",
        "P_ICON_ID": "30000",
        "37moriMq": "",
        "P_DICTIONARY_NO": "1",
        "P_DICTIONARY_BG": "80",
        "P_IMG": "",
        "P_NEED_SWITCH_INFO": "0",
        "P_HIDE_SWITCH_INFO": "0",
        "P_OPEN_SWITCH_INFO": "61200048",
        "P_CREATEDATE": "2018-02-28 14:20:44",
        "P_UPDATEDATE": "2018-02-28 14:20:44"
    },
    {
        "P_IMPORTANT_ITEM_ID": "30048",
        "P_NAME": "\u9b54\u77f3\u306e\u6b20\u7247\u306e\u30ec\u30b7\u30d4",
        "8Cx57oAk": "\u9b54\u77f3\u7247\u30ec",
        "P_DISPORDER": "130081",
        "60IsqxDt": "1",
        "CA7uXs6D": "1",
        "P_ICON_ID": "30000",
        "37moriMq": "",
        "P_DICTIONARY_NO": "1",
        "P_DICTIONARY_BG": "81",
        "P_IMG": "",
        "P_NEED_SWITCH_INFO": "0",
        "P_HIDE_SWITCH_INFO": "0",
        "P_OPEN_SWITCH_INFO": "61200049",
        "P_CREATEDATE": "2018-02-28 14:20:44",
        "P_UPDATEDATE": "2018-02-28 14:20:44"
    },
    {
        "P_IMPORTANT_ITEM_ID": "30049",
        "P_NAME": "\u9b54\u6676\u77f3\u306e\u6b20\u7247\u306e\u30ec\u30b7\u30d4",
        "8Cx57oAk": "\u9b54\u6676\u7247\u30ec",
        "P_DISPORDER": "130082",
        "60IsqxDt": "1",
        "CA7uXs6D": "1",
        "P_ICON_ID": "30000",
        "37moriMq": "",
        "P_DICTIONARY_NO": "1",
        "P_DICTIONARY_BG": "82",
        "P_IMG": "",
        "P_NEED_SWITCH_INFO": "0",
        "P_HIDE_SWITCH_INFO": "0",
        "P_OPEN_SWITCH_INFO": "61200050",
        "P_CREATEDATE": "2018-02-28 14:20:44",
        "P_UPDATEDATE": "2018-02-28 14:20:44"
    },
    {
        "P_IMPORTANT_ITEM_ID": "30050",
        "P_NAME": "\u30df\u30ed\u30af\u306e\u73e0\u306e\u30ec\u30b7\u30d4",
        "8Cx57oAk": "\u30df\u30ed\u30af\u30ec",
        "P_DISPORDER": "130083",
        "60IsqxDt": "1",
        "CA7uXs6D": "1",
        "P_ICON_ID": "30000",
        "37moriMq": "",
        "P_DICTIONARY_NO": "1",
        "P_DICTIONARY_BG": "83",
        "P_IMG": "",
        "P_NEED_SWITCH_INFO": "0",
        "P_HIDE_SWITCH_INFO": "0",
        "P_OPEN_SWITCH_INFO": "61200051",
        "P_CREATEDATE": "2018-02-28 14:20:44",
        "P_UPDATEDATE": "2018-02-28 14:20:44"
    },
    {
        "P_IMPORTANT_ITEM_ID": "30051",
        "P_NAME": "\u30b0\u30f3\u30ca\u30de\u30c3\u30bf\u306e\u73e0\u306e\u30ec\u30b7\u30d4",
        "8Cx57oAk": "\u30b0\u30f3\u30ca\u30ec",
        "P_DISPORDER": "130084",
        "60IsqxDt": "1",
        "CA7uXs6D": "1",
        "P_ICON_ID": "30000",
        "37moriMq": "",
        "P_DICTIONARY_NO": "1",
        "P_DICTIONARY_BG": "84",
        "P_IMG": "",
        "P_NEED_SWITCH_INFO": "0",
        "P_HIDE_SWITCH_INFO": "0",
        "P_OPEN_SWITCH_INFO": "61200052",
        "P_CREATEDATE": "2018-02-28 14:20:44",
        "P_UPDATEDATE": "2018-02-28 14:20:44"
    },
    {
        "P_IMPORTANT_ITEM_ID": "30052",
        "P_NAME": "\u596e\u96c4\u9283\u30c9\u30ec\u30f3\u30c6\u30a3\u30a2\u306e\u30ec\u30b7\u30d4",
        "8Cx57oAk": "\u596e\u96c4\u9283\u30ec",
        "P_DISPORDER": "130085",
        "60IsqxDt": "1",
        "CA7uXs6D": "1",
        "P_ICON_ID": "30000",
        "37moriMq": "",
        "P_DICTIONARY_NO": "1",
        "P_DICTIONARY_BG": "85",
        "P_IMG": "",
        "P_NEED_SWITCH_INFO": "0",
        "P_HIDE_SWITCH_INFO": "0",
        "P_OPEN_SWITCH_INFO": "61200053",
        "P_CREATEDATE": "2018-02-28 14:20:44",
        "P_UPDATEDATE": "2018-02-28 14:20:44"
    },
    {
        "P_IMPORTANT_ITEM_ID": "30053",
        "P_NAME": "\u707d\u5efb\u306e\u9b54\u9285\u8ca8\u306e\u30ec\u30b7\u30d4",
        "8Cx57oAk": "\u707d\u5efb\u30ec",
        "P_DISPORDER": "130086",
        "60IsqxDt": "1",
        "CA7uXs6D": "1",
        "P_ICON_ID": "30000",
        "37moriMq": "",
        "P_DICTIONARY_NO": "1",
        "P_DICTIONARY_BG": "86",
        "P_IMG": "",
        "P_NEED_SWITCH_INFO": "0",
        "P_HIDE_SWITCH_INFO": "0",
        "P_OPEN_SWITCH_INFO": "61200054",
        "P_CREATEDATE": "2018-02-28 14:20:44",
        "P_UPDATEDATE": "2018-02-28 14:20:44"
    },
    {
        "P_IMPORTANT_ITEM_ID": "30054",
        "P_NAME": "\u546a\u6bd2\u5f13\u30d0\u30fc\u30f4\u30a9\u306e\u30ec\u30b7\u30d4",
        "8Cx57oAk": "\u546a\u6bd2\u5f13\u30ec",
        "P_DISPORDER": "130087",
        "60IsqxDt": "1",
        "CA7uXs6D": "1",
        "P_ICON_ID": "30000",
        "37moriMq": "",
        "P_DICTIONARY_NO": "1",
        "P_DICTIONARY_BG": "87",
        "P_IMG": "",
        "P_NEED_SWITCH_INFO": "0",
        "P_HIDE_SWITCH_INFO": "0",
        "P_OPEN_SWITCH_INFO": "61200055",
        "P_CREATEDATE": "2018-02-28 14:20:44",
        "P_UPDATEDATE": "2018-02-28 14:20:44"
    },
    {
        "P_IMPORTANT_ITEM_ID": "30055",
        "P_NAME": "\u9b3c\u9aa8\u68cd\u30c7\u30aa\u30c9\u30a5\u306e\u30ec\u30b7\u30d4",
        "8Cx57oAk": "\u9b3c\u9aa8\u68cd\u30ec",
        "P_DISPORDER": "130088",
        "60IsqxDt": "1",
        "CA7uXs6D": "1",
        "P_ICON_ID": "30000",
        "37moriMq": "",
        "P_DICTIONARY_NO": "1",
        "P_DICTIONARY_BG": "88",
        "P_IMG": "",
        "P_NEED_SWITCH_INFO": "0",
        "P_HIDE_SWITCH_INFO": "0",
        "P_OPEN_SWITCH_INFO": "61200056",
        "P_CREATEDATE": "2018-02-28 14:20:44",
        "P_UPDATEDATE": "2018-02-28 14:20:44"
    },
    {
        "P_IMPORTANT_ITEM_ID": "30056",
        "P_NAME": "\u75ab\u9000\u69cd\u30d9\u30ab\u30c9\u30ec\u306e\u30ec\u30b7\u30d4",
        "8Cx57oAk": "\u75ab\u9000\u69cd\u30ec",
        "P_DISPORDER": "130089",
        "60IsqxDt": "1",
        "CA7uXs6D": "1",
        "P_ICON_ID": "30000",
        "37moriMq": "",
        "P_DICTIONARY_NO": "1",
        "P_DICTIONARY_BG": "89",
        "P_IMG": "",
        "P_NEED_SWITCH_INFO": "0",
        "P_HIDE_SWITCH_INFO": "0",
        "P_OPEN_SWITCH_INFO": "61200057",
        "P_CREATEDATE": "2018-02-28 14:20:44",
        "P_UPDATEDATE": "2018-02-28 14:20:44"
    },
    {
        "P_IMPORTANT_ITEM_ID": "30057",
        "P_NAME": "\u75c5\u9b54\u5634\u30d3\u30e8\u30b0\u30c9\u306e\u30ec\u30b7\u30d4",
        "8Cx57oAk": "\u75c5\u9b54\u5634\u30ec",
        "P_DISPORDER": "130090",
        "60IsqxDt": "1",
        "CA7uXs6D": "1",
        "P_ICON_ID": "30000",
        "37moriMq": "",
        "P_DICTIONARY_NO": "1",
        "P_DICTIONARY_BG": "90",
        "P_IMG": "",
        "P_NEED_SWITCH_INFO": "0",
        "P_HIDE_SWITCH_INFO": "0",
        "P_OPEN_SWITCH_INFO": "61200058",
        "P_CREATEDATE": "2018-02-28 14:20:44",
        "P_UPDATEDATE": "2018-02-28 14:20:44"
    },
    {
        "P_IMPORTANT_ITEM_ID": "30058",
        "P_NAME": "\u5e7b\u932f\u65a7\u30ae\u30e8\u30c3\u30d7\u306e\u30ec\u30b7\u30d4",
        "8Cx57oAk": "\u5e7b\u932f\u65a7\u30ec",
        "P_DISPORDER": "130091",
        "60IsqxDt": "1",
        "CA7uXs6D": "1",
        "P_ICON_ID": "30000",
        "37moriMq": "",
        "P_DICTIONARY_NO": "1",
        "P_DICTIONARY_BG": "91",
        "P_IMG": "",
        "P_NEED_SWITCH_INFO": "0",
        "P_HIDE_SWITCH_INFO": "0",
        "P_OPEN_SWITCH_INFO": "61200059",
        "P_CREATEDATE": "2018-02-28 14:20:44",
        "P_UPDATEDATE": "2018-02-28 14:20:44"
    },
    {
        "P_IMPORTANT_ITEM_ID": "30059",
        "P_NAME": "\u5929\u53d9\u306e\u6307\u8f2a\u306e\u30ec\u30b7\u30d4",
        "8Cx57oAk": "\u5929\u53d9\u8f2a\u30ec",
        "P_DISPORDER": "130092",
        "60IsqxDt": "1",
        "CA7uXs6D": "1",
        "P_ICON_ID": "30000",
        "37moriMq": "",
        "P_DICTIONARY_NO": "1",
        "P_DICTIONARY_BG": "92",
        "P_IMG": "",
        "P_NEED_SWITCH_INFO": "0",
        "P_HIDE_SWITCH_INFO": "0",
        "P_OPEN_SWITCH_INFO": "61200060",
        "P_CREATEDATE": "2018-02-28 14:20:44",
        "P_UPDATEDATE": "2018-02-28 14:20:44"
    },
    {
        "P_IMPORTANT_ITEM_ID": "30060",
        "P_NAME": "\u5730\u52ab\u306e\u6307\u8f2a\u306e\u30ec\u30b7\u30d4",
        "8Cx57oAk": "\u5730\u52ab\u8f2a\u30ec",
        "P_DISPORDER": "130093",
        "60IsqxDt": "1",
        "CA7uXs6D": "1",
        "P_ICON_ID": "30000",
        "37moriMq": "",
        "P_DICTIONARY_NO": "1",
        "P_DICTIONARY_BG": "93",
        "P_IMG": "",
        "P_NEED_SWITCH_INFO": "0",
        "P_HIDE_SWITCH_INFO": "0",
        "P_OPEN_SWITCH_INFO": "61200061",
        "P_CREATEDATE": "2018-02-28 14:20:44",
        "P_UPDATEDATE": "2018-02-28 14:20:44"
    },
    {
        "P_IMPORTANT_ITEM_ID": "30061",
        "P_NAME": "\u4eba\u667a\u306e\u6307\u8f2a\u306e\u30ec\u30b7\u30d4",
        "8Cx57oAk": "\u4eba\u667a\u8f2a\u30ec",
        "P_DISPORDER": "130094",
        "60IsqxDt": "1",
        "CA7uXs6D": "1",
        "P_ICON_ID": "30000",
        "37moriMq": "",
        "P_DICTIONARY_NO": "1",
        "P_DICTIONARY_BG": "94",
        "P_IMG": "",
        "P_NEED_SWITCH_INFO": "0",
        "P_HIDE_SWITCH_INFO": "0",
        "P_OPEN_SWITCH_INFO": "61200062",
        "P_CREATEDATE": "2018-02-28 14:20:44",
        "P_UPDATEDATE": "2018-02-28 14:20:44"
    },
    {
        "P_IMPORTANT_ITEM_ID": "30062",
        "P_NAME": "\u57fa\u672c\u30b9\u30d5\u30a3\u30a2\u306e\u30e1\u30e2",
        "8Cx57oAk": "\u57fa\u672c\u30b9\u30d5",
        "P_DISPORDER": "130001",
        "60IsqxDt": "1",
        "CA7uXs6D": "1",
        "P_ICON_ID": "30000",
        "37moriMq": "",
        "P_DICTIONARY_NO": "0",
        "P_DICTIONARY_BG": "95",
        "P_IMG": "",
        "P_NEED_SWITCH_INFO": "0",
        "P_HIDE_SWITCH_INFO": "0",
        "P_OPEN_SWITCH_INFO": "0",
        "P_CREATEDATE": "2018-02-28 14:20:44",
        "P_UPDATEDATE": "2018-02-28 14:20:44"
    }
]