[
    {
        "5XI73nmh": "1010",
        "1RWEp4At": "\u56f3\u66f8\u9928\u521d\u56de\u8aac\u660e\u30b9\u30af\u30ea\u30d7\u30c8",
        "P_SCENE_ID": "30400",
        "P_SCENE_PARAM": "0",
        "Lx1tHz2Z": "2",
        "P_FILE_NAME": "1001",
        "P_PRIORITY": "1",
        "yHV1b5Ih": "0",
        "X3zk7AuE": "0",
        "P_NEED_SWITCH_INFO": "0",
        "P_HIDE_SWITCH_INFO": "2100002",
        "P_OPEN_SWITCH_INFO": "2100002",
        "P_SCHEDULE_ID": "0",
        "P_EXT_IMG_PARAM": "",
        "ya4GQhs8": "0",
        "P_CREATEDATE": "2018-09-25 01:58:46",
        "P_UPDATEDATE": "2018-09-25 01:58:46"
    },
    {
        "5XI73nmh": "1011",
        "1RWEp4At": "\u7ba1\u7406\u5c40\u521d\u56de\u8aac\u660e\u30b9\u30af\u30ea\u30d7\u30c8",
        "P_SCENE_ID": "30100",
        "P_SCENE_PARAM": "0",
        "Lx1tHz2Z": "2",
        "P_FILE_NAME": "1002",
        "P_PRIORITY": "1",
        "yHV1b5Ih": "0",
        "X3zk7AuE": "0",
        "P_NEED_SWITCH_INFO": "0",
        "P_HIDE_SWITCH_INFO": "2100003",
        "P_OPEN_SWITCH_INFO": "2100003",
        "P_SCHEDULE_ID": "0",
        "P_EXT_IMG_PARAM": "",
        "ya4GQhs8": "0",
        "P_CREATEDATE": "2018-09-25 01:58:46",
        "P_UPDATEDATE": "2018-09-25 01:58:46"
    },
    {
        "5XI73nmh": "1012",
        "1RWEp4At": "\u30a2\u30ea\u30fc\u30ca\u521d\u56de\u8aac\u660e\u30b9\u30af\u30ea\u30d7\u30c8",
        "P_SCENE_ID": "50010",
        "P_SCENE_PARAM": "0",
        "Lx1tHz2Z": "2",
        "P_FILE_NAME": "1003",
        "P_PRIORITY": "1",
        "yHV1b5Ih": "0",
        "X3zk7AuE": "0",
        "P_NEED_SWITCH_INFO": "0",
        "P_HIDE_SWITCH_INFO": "2100004",
        "P_OPEN_SWITCH_INFO": "2100004",
        "P_SCHEDULE_ID": "0",
        "P_EXT_IMG_PARAM": "",
        "ya4GQhs8": "0",
        "P_CREATEDATE": "2018-09-25 01:58:46",
        "P_UPDATEDATE": "2018-09-25 01:58:46"
    },
    {
        "5XI73nmh": "1013",
        "1RWEp4At": "\u53ec\u559a\u8853\u7814\u7a76\u6240\u521d\u56de\u8aac\u660e\u30b9\u30af\u30ea\u30d7\u30c8",
        "P_SCENE_ID": "33000",
        "P_SCENE_PARAM": "0",
        "Lx1tHz2Z": "2",
        "P_FILE_NAME": "1004",
        "P_PRIORITY": "1",
        "yHV1b5Ih": "0",
        "X3zk7AuE": "0",
        "P_NEED_SWITCH_INFO": "0",
        "P_HIDE_SWITCH_INFO": "2100005",
        "P_OPEN_SWITCH_INFO": "2100005",
        "P_SCHEDULE_ID": "0",
        "P_EXT_IMG_PARAM": "",
        "ya4GQhs8": "0",
        "P_CREATEDATE": "2018-09-25 01:58:46",
        "P_UPDATEDATE": "2018-09-25 01:58:46"
    },
    {
        "5XI73nmh": "1014",
        "1RWEp4At": "\u30d5\u30ed\u30cf\u30f3\u521d\u56de\u8aac\u660e\u30b9\u30af\u30ea\u30d7\u30c8",
        "P_SCENE_ID": "35000",
        "P_SCENE_PARAM": "0",
        "Lx1tHz2Z": "2",
        "P_FILE_NAME": "1005",
        "P_PRIORITY": "1",
        "yHV1b5Ih": "0",
        "X3zk7AuE": "0",
        "P_NEED_SWITCH_INFO": "0",
        "P_HIDE_SWITCH_INFO": "2100006",
        "P_OPEN_SWITCH_INFO": "2100006",
        "P_SCHEDULE_ID": "0",
        "P_EXT_IMG_PARAM": "",
        "ya4GQhs8": "0",
        "P_CREATEDATE": "2018-09-25 01:58:46",
        "P_UPDATEDATE": "2018-09-25 01:58:46"
    },
    {
        "5XI73nmh": "1015",
        "1RWEp4At": "\u30e9\u30f3\u30c9\u30fc\u30eb\u521d\u56de\u8aac\u660e\u30b9\u30af\u30ea\u30d7\u30c8",
        "P_SCENE_ID": "30000",
        "P_SCENE_PARAM": "0",
        "Lx1tHz2Z": "2",
        "P_FILE_NAME": "1000",
        "P_PRIORITY": "1",
        "yHV1b5Ih": "0",
        "X3zk7AuE": "0",
        "P_NEED_SWITCH_INFO": "0",
        "P_HIDE_SWITCH_INFO": "2100001",
        "P_OPEN_SWITCH_INFO": "2100001",
        "P_SCHEDULE_ID": "0",
        "P_EXT_IMG_PARAM": "",
        "ya4GQhs8": "0",
        "P_CREATEDATE": "2018-09-25 01:58:46",
        "P_UPDATEDATE": "2018-09-25 01:58:46"
    },
    {
        "5XI73nmh": "1020",
        "1RWEp4At": "\u56f3\u66f8\u9928\u521d\u56de\u8aac\u660e\u30b9\u30af\u30ea\u30d7\u30c8",
        "P_SCENE_ID": "30400",
        "P_SCENE_PARAM": "3",
        "Lx1tHz2Z": "2",
        "P_FILE_NAME": "1001",
        "P_PRIORITY": "1",
        "yHV1b5Ih": "0",
        "X3zk7AuE": "0",
        "P_NEED_SWITCH_INFO": "0",
        "P_HIDE_SWITCH_INFO": "2100002",
        "P_OPEN_SWITCH_INFO": "2100002",
        "P_SCHEDULE_ID": "0",
        "P_EXT_IMG_PARAM": "",
        "ya4GQhs8": "0",
        "P_CREATEDATE": "2018-09-25 01:58:46",
        "P_UPDATEDATE": "2018-09-25 01:58:46"
    },
    {
        "5XI73nmh": "1021",
        "1RWEp4At": "\u7ba1\u7406\u5c40\u521d\u56de\u8aac\u660e\u30b9\u30af\u30ea\u30d7\u30c8",
        "P_SCENE_ID": "30100",
        "P_SCENE_PARAM": "3",
        "Lx1tHz2Z": "2",
        "P_FILE_NAME": "1002",
        "P_PRIORITY": "1",
        "yHV1b5Ih": "0",
        "X3zk7AuE": "0",
        "P_NEED_SWITCH_INFO": "0",
        "P_HIDE_SWITCH_INFO": "2100003",
        "P_OPEN_SWITCH_INFO": "2100003",
        "P_SCHEDULE_ID": "0",
        "P_EXT_IMG_PARAM": "",
        "ya4GQhs8": "0",
        "P_CREATEDATE": "2018-09-25 01:58:46",
        "P_UPDATEDATE": "2018-09-25 01:58:46"
    },
    {
        "5XI73nmh": "1022",
        "1RWEp4At": "\u30a2\u30ea\u30fc\u30ca\u521d\u56de\u8aac\u660e\u30b9\u30af\u30ea\u30d7\u30c8",
        "P_SCENE_ID": "50010",
        "P_SCENE_PARAM": "3",
        "Lx1tHz2Z": "2",
        "P_FILE_NAME": "1003",
        "P_PRIORITY": "1",
        "yHV1b5Ih": "0",
        "X3zk7AuE": "1,2,3",
        "P_NEED_SWITCH_INFO": "0",
        "P_HIDE_SWITCH_INFO": "2100004",
        "P_OPEN_SWITCH_INFO": "2100004",
        "P_SCHEDULE_ID": "0",
        "P_EXT_IMG_PARAM": "",
        "ya4GQhs8": "0",
        "P_CREATEDATE": "2018-09-25 01:58:46",
        "P_UPDATEDATE": "2018-09-25 01:58:46"
    },
    {
        "5XI73nmh": "1023",
        "1RWEp4At": "\u53ec\u559a\u8853\u7814\u7a76\u6240\u521d\u56de\u8aac\u660e\u30b9\u30af\u30ea\u30d7\u30c8",
        "P_SCENE_ID": "33000",
        "P_SCENE_PARAM": "3",
        "Lx1tHz2Z": "2",
        "P_FILE_NAME": "1004",
        "P_PRIORITY": "1",
        "yHV1b5Ih": "0",
        "X3zk7AuE": "0",
        "P_NEED_SWITCH_INFO": "0",
        "P_HIDE_SWITCH_INFO": "2100005",
        "P_OPEN_SWITCH_INFO": "2100005",
        "P_SCHEDULE_ID": "0",
        "P_EXT_IMG_PARAM": "",
        "ya4GQhs8": "0",
        "P_CREATEDATE": "2018-09-25 01:58:46",
        "P_UPDATEDATE": "2018-09-25 01:58:46"
    },
    {
        "5XI73nmh": "1024",
        "1RWEp4At": "\u30d5\u30ed\u30cf\u30f3\u521d\u56de\u8aac\u660e\u30b9\u30af\u30ea\u30d7\u30c8",
        "P_SCENE_ID": "35000",
        "P_SCENE_PARAM": "3",
        "Lx1tHz2Z": "2",
        "P_FILE_NAME": "1005",
        "P_PRIORITY": "1",
        "yHV1b5Ih": "0",
        "X3zk7AuE": "0",
        "P_NEED_SWITCH_INFO": "0",
        "P_HIDE_SWITCH_INFO": "2100006",
        "P_OPEN_SWITCH_INFO": "2100006",
        "P_SCHEDULE_ID": "0",
        "P_EXT_IMG_PARAM": "",
        "ya4GQhs8": "0",
        "P_CREATEDATE": "2018-09-25 01:58:46",
        "P_UPDATEDATE": "2018-09-25 01:58:46"
    },
    {
        "5XI73nmh": "1025",
        "1RWEp4At": "\u30e9\u30f3\u30c9\u30fc\u30eb\u521d\u56de\u8aac\u660e\u30b9\u30af\u30ea\u30d7\u30c8",
        "P_SCENE_ID": "30000",
        "P_SCENE_PARAM": "3",
        "Lx1tHz2Z": "2",
        "P_FILE_NAME": "1000",
        "P_PRIORITY": "1",
        "yHV1b5Ih": "0",
        "X3zk7AuE": "0",
        "P_NEED_SWITCH_INFO": "0",
        "P_HIDE_SWITCH_INFO": "2100001",
        "P_OPEN_SWITCH_INFO": "2100001",
        "P_SCHEDULE_ID": "0",
        "P_EXT_IMG_PARAM": "",
        "ya4GQhs8": "0",
        "P_CREATEDATE": "2018-09-25 01:58:46",
        "P_UPDATEDATE": "2018-09-25 01:58:46"
    },
    {
        "5XI73nmh": "1026",
        "1RWEp4At": "\u30e6\u30cb\u30c3\u30c8\u63a2\u7d22\u521d\u56de\u8aac\u660e\u30b9\u30af\u30ea\u30d7\u30c8",
        "P_SCENE_ID": "65000",
        "P_SCENE_PARAM": "1",
        "Lx1tHz2Z": "2",
        "P_FILE_NAME": "1007",
        "P_PRIORITY": "1",
        "yHV1b5Ih": "0",
        "X3zk7AuE": "0",
        "P_NEED_SWITCH_INFO": "0",
        "P_HIDE_SWITCH_INFO": "2100008",
        "P_OPEN_SWITCH_INFO": "2100008",
        "P_SCHEDULE_ID": "0",
        "P_EXT_IMG_PARAM": "",
        "ya4GQhs8": "0",
        "P_CREATEDATE": "2018-09-25 01:58:46",
        "P_UPDATEDATE": "2018-09-25 01:58:46"
    },
    {
        "5XI73nmh": "1027",
        "1RWEp4At": "\u30e6\u30cb\u30c3\u30c8\u63a2\u7d22\u521d\u56de\u8aac\u660e\u30b9\u30af\u30ea\u30d7\u30c8",
        "P_SCENE_ID": "65000",
        "P_SCENE_PARAM": "3",
        "Lx1tHz2Z": "2",
        "P_FILE_NAME": "1007",
        "P_PRIORITY": "1",
        "yHV1b5Ih": "0",
        "X3zk7AuE": "0",
        "P_NEED_SWITCH_INFO": "0",
        "P_HIDE_SWITCH_INFO": "2100008",
        "P_OPEN_SWITCH_INFO": "2100008",
        "P_SCHEDULE_ID": "0",
        "P_EXT_IMG_PARAM": "",
        "ya4GQhs8": "0",
        "P_CREATEDATE": "2018-09-25 01:58:46",
        "P_UPDATEDATE": "2018-09-25 01:58:46"
    },
    {
        "5XI73nmh": "1028",
        "1RWEp4At": "\u904a\u6280\u5834\u521d\u56de\u8aac\u660e\u30b9\u30af\u30ea\u30d7\u30c8",
        "P_SCENE_ID": "32000",
        "P_SCENE_PARAM": "1",
        "Lx1tHz2Z": "2",
        "P_FILE_NAME": "1008",
        "P_PRIORITY": "1",
        "yHV1b5Ih": "0",
        "X3zk7AuE": "0",
        "P_NEED_SWITCH_INFO": "0",
        "P_HIDE_SWITCH_INFO": "2110012",
        "P_OPEN_SWITCH_INFO": "2110012",
        "P_SCHEDULE_ID": "0",
        "P_EXT_IMG_PARAM": "",
        "ya4GQhs8": "0",
        "P_CREATEDATE": "2018-09-25 01:58:46",
        "P_UPDATEDATE": "2018-09-25 01:58:46"
    },
    {
        "5XI73nmh": "1029",
        "1RWEp4At": "\u904a\u6280\u5834\u521d\u56de\u8aac\u660e\u30b9\u30af\u30ea\u30d7\u30c8",
        "P_SCENE_ID": "32000",
        "P_SCENE_PARAM": "3",
        "Lx1tHz2Z": "2",
        "P_FILE_NAME": "1008",
        "P_PRIORITY": "1",
        "yHV1b5Ih": "0",
        "X3zk7AuE": "0",
        "P_NEED_SWITCH_INFO": "0",
        "P_HIDE_SWITCH_INFO": "2110012",
        "P_OPEN_SWITCH_INFO": "2110012",
        "P_SCHEDULE_ID": "0",
        "P_EXT_IMG_PARAM": "",
        "ya4GQhs8": "0",
        "P_CREATEDATE": "2018-09-25 01:58:46",
        "P_UPDATEDATE": "2018-09-25 01:58:46"
    },
    {
        "5XI73nmh": "2001",
        "1RWEp4At": "\u4e3b\u4eba\u516c\u30db\u30fc\u30e0",
        "P_SCENE_ID": "1000",
        "P_SCENE_PARAM": "1",
        "Lx1tHz2Z": "1",
        "P_FILE_NAME": "first_desc_001_home1.png",
        "P_PRIORITY": "1",
        "yHV1b5Ih": "1",
        "X3zk7AuE": "1,2",
        "P_NEED_SWITCH_INFO": "0",
        "P_HIDE_SWITCH_INFO": "2110001",
        "P_OPEN_SWITCH_INFO": "2110001",
        "P_SCHEDULE_ID": "0",
        "P_EXT_IMG_PARAM": "",
        "ya4GQhs8": "0",
        "P_CREATEDATE": "2018-09-25 01:58:46",
        "P_UPDATEDATE": "2018-09-25 01:58:46"
    },
    {
        "5XI73nmh": "2002",
        "1RWEp4At": "\u30ea\u30f3\u30db\u30fc\u30e0",
        "P_SCENE_ID": "1000",
        "P_SCENE_PARAM": "2",
        "Lx1tHz2Z": "1",
        "P_FILE_NAME": "first_desc_002_home2.png",
        "P_PRIORITY": "1",
        "yHV1b5Ih": "1",
        "X3zk7AuE": "0",
        "P_NEED_SWITCH_INFO": "2000000",
        "P_HIDE_SWITCH_INFO": "2110002",
        "P_OPEN_SWITCH_INFO": "2110002",
        "P_SCHEDULE_ID": "0",
        "P_EXT_IMG_PARAM": "",
        "ya4GQhs8": "0",
        "P_CREATEDATE": "2018-09-25 01:58:46",
        "P_UPDATEDATE": "2018-09-25 01:58:46"
    },
    {
        "5XI73nmh": "2003",
        "1RWEp4At": "\u30d6\u30c3\u30af",
        "P_SCENE_ID": "31010",
        "P_SCENE_PARAM": "0",
        "Lx1tHz2Z": "1",
        "P_FILE_NAME": "first_desc_003_book.png",
        "P_PRIORITY": "1",
        "yHV1b5Ih": "1",
        "X3zk7AuE": "0",
        "P_NEED_SWITCH_INFO": "0",
        "P_HIDE_SWITCH_INFO": "2110003",
        "P_OPEN_SWITCH_INFO": "2110003",
        "P_SCHEDULE_ID": "0",
        "P_EXT_IMG_PARAM": "",
        "ya4GQhs8": "0",
        "P_CREATEDATE": "2018-09-25 01:58:46",
        "P_UPDATEDATE": "2018-09-25 01:58:46"
    },
    {
        "5XI73nmh": "2004",
        "1RWEp4At": "\u30e6\u30cb\u30c3\u30c8",
        "P_SCENE_ID": "2000",
        "P_SCENE_PARAM": "0",
        "Lx1tHz2Z": "1",
        "P_FILE_NAME": "first_desc_004_unit.png",
        "P_PRIORITY": "1",
        "yHV1b5Ih": "1",
        "X3zk7AuE": "0",
        "P_NEED_SWITCH_INFO": "0",
        "P_HIDE_SWITCH_INFO": "2110004",
        "P_OPEN_SWITCH_INFO": "2110004",
        "P_SCHEDULE_ID": "0",
        "P_EXT_IMG_PARAM": "",
        "ya4GQhs8": "0",
        "P_CREATEDATE": "2018-09-25 01:58:46",
        "P_UPDATEDATE": "2018-09-25 01:58:46"
    },
    {
        "5XI73nmh": "2005",
        "1RWEp4At": "\u30d1\u30fc\u30c8\u30ca\u30fc",
        "P_SCENE_ID": "24010",
        "P_SCENE_PARAM": "0",
        "Lx1tHz2Z": "1",
        "P_FILE_NAME": "first_desc_005_partner.png",
        "P_PRIORITY": "1",
        "yHV1b5Ih": "1",
        "X3zk7AuE": "0",
        "P_NEED_SWITCH_INFO": "0",
        "P_HIDE_SWITCH_INFO": "2110005",
        "P_OPEN_SWITCH_INFO": "2110005",
        "P_SCHEDULE_ID": "0",
        "P_EXT_IMG_PARAM": "",
        "ya4GQhs8": "0",
        "P_CREATEDATE": "2018-09-25 01:58:46",
        "P_UPDATEDATE": "2018-09-25 01:58:46"
    },
    {
        "5XI73nmh": "2006",
        "1RWEp4At": "\u30a8\u30f3\u30c1\u30e3\u30f3\u30c8",
        "P_SCENE_ID": "24050",
        "P_SCENE_PARAM": "0",
        "Lx1tHz2Z": "1",
        "P_FILE_NAME": "first_desc_006_enchant.png",
        "P_PRIORITY": "1",
        "yHV1b5Ih": "1",
        "X3zk7AuE": "0",
        "P_NEED_SWITCH_INFO": "0",
        "P_HIDE_SWITCH_INFO": "2110006",
        "P_OPEN_SWITCH_INFO": "2110006",
        "P_SCHEDULE_ID": "0",
        "P_EXT_IMG_PARAM": "",
        "ya4GQhs8": "0",
        "P_CREATEDATE": "2018-09-25 01:58:46",
        "P_UPDATEDATE": "2018-09-25 01:58:46"
    },
    {
        "5XI73nmh": "2007",
        "1RWEp4At": "\u30a8\u30f3\u30c1\u30e3\u30f3\u30c8\u7fd2\u5f97",
        "P_SCENE_ID": "24040",
        "P_SCENE_PARAM": "0",
        "Lx1tHz2Z": "1",
        "P_FILE_NAME": "first_desc_006_enchant.png",
        "P_PRIORITY": "1",
        "yHV1b5Ih": "1",
        "X3zk7AuE": "0",
        "P_NEED_SWITCH_INFO": "0",
        "P_HIDE_SWITCH_INFO": "2110006",
        "P_OPEN_SWITCH_INFO": "2110006",
        "P_SCHEDULE_ID": "0",
        "P_EXT_IMG_PARAM": "",
        "ya4GQhs8": "0",
        "P_CREATEDATE": "2018-09-25 01:58:46",
        "P_UPDATEDATE": "2018-09-25 01:58:46"
    },
    {
        "5XI73nmh": "2008",
        "1RWEp4At": "\u30d5\u30ec\u30f3\u30c9",
        "P_SCENE_ID": "5000",
        "P_SCENE_PARAM": "0",
        "Lx1tHz2Z": "1",
        "P_FILE_NAME": "first_desc_007_friend.png",
        "P_PRIORITY": "1",
        "yHV1b5Ih": "1",
        "X3zk7AuE": "0",
        "P_NEED_SWITCH_INFO": "0",
        "P_HIDE_SWITCH_INFO": "2110007",
        "P_OPEN_SWITCH_INFO": "2110007",
        "P_SCHEDULE_ID": "0",
        "P_EXT_IMG_PARAM": "",
        "ya4GQhs8": "0",
        "P_CREATEDATE": "2018-09-25 01:58:46",
        "P_UPDATEDATE": "2018-09-25 01:58:46"
    },
    {
        "5XI73nmh": "2009",
        "1RWEp4At": "\u30b2\u30fc\u30c8\u306e\u72ed\u9593",
        "P_SCENE_ID": "1000",
        "P_SCENE_PARAM": "1",
        "Lx1tHz2Z": "1",
        "P_FILE_NAME": "first_desc_008_gate-1.png,first_desc_008_gate-2.png",
        "P_PRIORITY": "1",
        "yHV1b5Ih": "1",
        "X3zk7AuE": "0",
        "P_NEED_SWITCH_INFO": "10000002",
        "P_HIDE_SWITCH_INFO": "2110008",
        "P_OPEN_SWITCH_INFO": "2110008",
        "P_SCHEDULE_ID": "0",
        "P_EXT_IMG_PARAM": "",
        "ya4GQhs8": "0",
        "P_CREATEDATE": "2018-09-25 01:58:46",
        "P_UPDATEDATE": "2018-09-25 01:58:46"
    },
    {
        "5XI73nmh": "2010",
        "1RWEp4At": "\u5408\u6d41\u5f8c\u30db\u30fc\u30e0",
        "P_SCENE_ID": "1000",
        "P_SCENE_PARAM": "3",
        "Lx1tHz2Z": "1",
        "P_FILE_NAME": "first_desc_009_home3.png",
        "P_PRIORITY": "1",
        "yHV1b5Ih": "1",
        "X3zk7AuE": "0",
        "P_NEED_SWITCH_INFO": "2000010",
        "P_HIDE_SWITCH_INFO": "2110009",
        "P_OPEN_SWITCH_INFO": "2110009",
        "P_SCHEDULE_ID": "0",
        "P_EXT_IMG_PARAM": "",
        "ya4GQhs8": "0",
        "P_CREATEDATE": "2018-09-25 01:58:46",
        "P_UPDATEDATE": "2018-09-25 01:58:46"
    },
    {
        "5XI73nmh": "2011",
        "1RWEp4At": "\u63a2\u7d22\u958b\u653e_\u4e3b\u4eba\u516c",
        "P_SCENE_ID": "1000",
        "P_SCENE_PARAM": "1",
        "Lx1tHz2Z": "1",
        "P_FILE_NAME": "first_desc_011_explore1.png,first_desc_011_explore2.png",
        "P_PRIORITY": "1",
        "yHV1b5Ih": "1",
        "X3zk7AuE": "0",
        "P_NEED_SWITCH_INFO": "10000027",
        "P_HIDE_SWITCH_INFO": "2110010",
        "P_OPEN_SWITCH_INFO": "2110010",
        "P_SCHEDULE_ID": "0",
        "P_EXT_IMG_PARAM": "",
        "ya4GQhs8": "0",
        "P_CREATEDATE": "2018-09-25 01:58:46",
        "P_UPDATEDATE": "2018-09-25 01:58:46"
    },
    {
        "5XI73nmh": "2012",
        "1RWEp4At": "\u63a2\u7d22\u958b\u653e_\u5408\u6d41",
        "P_SCENE_ID": "1000",
        "P_SCENE_PARAM": "3",
        "Lx1tHz2Z": "1",
        "P_FILE_NAME": "first_desc_011_explore1.png,first_desc_011_explore2.png",
        "P_PRIORITY": "1",
        "yHV1b5Ih": "1",
        "X3zk7AuE": "0",
        "P_NEED_SWITCH_INFO": "10000027",
        "P_HIDE_SWITCH_INFO": "2110010",
        "P_OPEN_SWITCH_INFO": "2110010",
        "P_SCHEDULE_ID": "0",
        "P_EXT_IMG_PARAM": "",
        "ya4GQhs8": "0",
        "P_CREATEDATE": "2018-09-25 01:58:46",
        "P_UPDATEDATE": "2018-09-25 01:58:46"
    },
    {
        "5XI73nmh": "2013",
        "1RWEp4At": "\u30b9\u30ad\u30eb\u30e9\u30a4\u30ba\u89e3\u653e_\u4e3b\u4eba\u516c",
        "P_SCENE_ID": "1000",
        "P_SCENE_PARAM": "1",
        "Lx1tHz2Z": "1",
        "P_FILE_NAME": "first_desc_012_skillrise1.png,first_desc_012_skillrise2.png,first_desc_012_skillrise3.png",
        "P_PRIORITY": "1",
        "yHV1b5Ih": "1",
        "X3zk7AuE": "0",
        "P_NEED_SWITCH_INFO": "10000027",
        "P_HIDE_SWITCH_INFO": "2110013",
        "P_OPEN_SWITCH_INFO": "2110013",
        "P_SCHEDULE_ID": "0",
        "P_EXT_IMG_PARAM": "",
        "ya4GQhs8": "0",
        "P_CREATEDATE": "2018-09-25 01:58:46",
        "P_UPDATEDATE": "2018-09-25 01:58:46"
    },
    {
        "5XI73nmh": "2014",
        "1RWEp4At": "\u30b9\u30ad\u30eb\u30e9\u30a4\u30ba\u89e3\u653e_\u5408\u6d41",
        "P_SCENE_ID": "1000",
        "P_SCENE_PARAM": "3",
        "Lx1tHz2Z": "1",
        "P_FILE_NAME": "first_desc_012_skillrise1.png,first_desc_012_skillrise2.png,first_desc_012_skillrise3.png",
        "P_PRIORITY": "1",
        "yHV1b5Ih": "1",
        "X3zk7AuE": "0",
        "P_NEED_SWITCH_INFO": "10000027",
        "P_HIDE_SWITCH_INFO": "2110013",
        "P_OPEN_SWITCH_INFO": "2110013",
        "P_SCHEDULE_ID": "0",
        "P_EXT_IMG_PARAM": "",
        "ya4GQhs8": "0",
        "P_CREATEDATE": "2018-09-25 01:58:46",
        "P_UPDATEDATE": "2018-09-25 01:58:46"
    },
    {
        "5XI73nmh": "2015",
        "1RWEp4At": "XBB\u30b5\u30d6\u30d1\u30fc\u30c6\u30a3\u89e3\u653e_\u5408\u6d41",
        "P_SCENE_ID": "1000",
        "P_SCENE_PARAM": "3",
        "Lx1tHz2Z": "1",
        "P_FILE_NAME": "first_desc_013_xbbsub1.png,first_desc_013_xbbsub2.png",
        "P_PRIORITY": "1",
        "yHV1b5Ih": "1",
        "X3zk7AuE": "0",
        "P_NEED_SWITCH_INFO": "10000152",
        "P_HIDE_SWITCH_INFO": "2110014",
        "P_OPEN_SWITCH_INFO": "2110014",
        "P_SCHEDULE_ID": "0",
        "P_EXT_IMG_PARAM": "",
        "ya4GQhs8": "0",
        "P_CREATEDATE": "2018-09-25 01:58:46",
        "P_UPDATEDATE": "2018-09-25 01:58:46"
    },
    {
        "5XI73nmh": "10000",
        "1RWEp4At": "\u30ea\u30f31\u7ae0\u89e3\u653e\u30b9\u30af\u30ea\u30d7\u30c8",
        "P_SCENE_ID": "15000",
        "P_SCENE_PARAM": "1",
        "Lx1tHz2Z": "2",
        "P_FILE_NAME": "11200",
        "P_PRIORITY": "1",
        "yHV1b5Ih": "0",
        "X3zk7AuE": "0",
        "P_NEED_SWITCH_INFO": "10000027",
        "P_HIDE_SWITCH_INFO": "2000000",
        "P_OPEN_SWITCH_INFO": "2000000",
        "P_SCHEDULE_ID": "0",
        "P_EXT_IMG_PARAM": "",
        "ya4GQhs8": "0",
        "P_CREATEDATE": "2018-09-25 01:58:46",
        "P_UPDATEDATE": "2018-09-25 01:58:46"
    },
    {
        "5XI73nmh": "10001",
        "1RWEp4At": "3\u7ae0\u89e3\u653e\u30b9\u30af\u30ea\u30d7\u30c8",
        "P_SCENE_ID": "15000",
        "P_SCENE_PARAM": "1",
        "Lx1tHz2Z": "2",
        "P_FILE_NAME": "12300",
        "P_PRIORITY": "1",
        "yHV1b5Ih": "0",
        "X3zk7AuE": "0",
        "P_NEED_SWITCH_INFO": "10000104,10000133",
        "P_HIDE_SWITCH_INFO": "11000200",
        "P_OPEN_SWITCH_INFO": "11000200",
        "P_SCHEDULE_ID": "0",
        "P_EXT_IMG_PARAM": "",
        "ya4GQhs8": "0",
        "P_CREATEDATE": "2018-09-25 01:58:46",
        "P_UPDATEDATE": "2018-09-25 01:58:46"
    },
    {
        "5XI73nmh": "20000",
        "1RWEp4At": "2018/3/15\u30d5\u30ed\u30cf\u30f3\u958b\u59cb\u544a\u77e5_\u4e3b\u4eba\u516c",
        "P_SCENE_ID": "1000",
        "P_SCENE_PARAM": "1",
        "Lx1tHz2Z": "1",
        "P_FILE_NAME": "010_fh.png",
        "P_PRIORITY": "1",
        "yHV1b5Ih": "1",
        "X3zk7AuE": "0",
        "P_NEED_SWITCH_INFO": "10000027",
        "P_HIDE_SWITCH_INFO": "2300000",
        "P_OPEN_SWITCH_INFO": "2300000",
        "P_SCHEDULE_ID": "50013",
        "P_EXT_IMG_PARAM": "",
        "ya4GQhs8": "0",
        "P_CREATEDATE": "2018-09-25 01:58:46",
        "P_UPDATEDATE": "2018-09-25 01:58:46"
    },
    {
        "5XI73nmh": "20001",
        "1RWEp4At": "2018/3/15\u30d5\u30ed\u30cf\u30f3\u958b\u59cb\u544a\u77e5_\u30ea\u30f3",
        "P_SCENE_ID": "1000",
        "P_SCENE_PARAM": "2",
        "Lx1tHz2Z": "1",
        "P_FILE_NAME": "010_fh.png",
        "P_PRIORITY": "1",
        "yHV1b5Ih": "1",
        "X3zk7AuE": "0",
        "P_NEED_SWITCH_INFO": "10000027",
        "P_HIDE_SWITCH_INFO": "2300000",
        "P_OPEN_SWITCH_INFO": "2300000",
        "P_SCHEDULE_ID": "50013",
        "P_EXT_IMG_PARAM": "",
        "ya4GQhs8": "0",
        "P_CREATEDATE": "2018-09-25 01:58:46",
        "P_UPDATEDATE": "2018-09-25 01:58:46"
    },
    {
        "5XI73nmh": "20002",
        "1RWEp4At": "2018/3/15\u30d5\u30ed\u30cf\u30f3\u958b\u59cb\u544a\u77e5_\u5408\u6d41",
        "P_SCENE_ID": "1000",
        "P_SCENE_PARAM": "3",
        "Lx1tHz2Z": "1",
        "P_FILE_NAME": "010_fh.png",
        "P_PRIORITY": "1",
        "yHV1b5Ih": "1",
        "X3zk7AuE": "0",
        "P_NEED_SWITCH_INFO": "10000027",
        "P_HIDE_SWITCH_INFO": "2300000",
        "P_OPEN_SWITCH_INFO": "2300000",
        "P_SCHEDULE_ID": "50013",
        "P_EXT_IMG_PARAM": "",
        "ya4GQhs8": "0",
        "P_CREATEDATE": "2018-09-25 01:58:46",
        "P_UPDATEDATE": "2018-09-25 01:58:46"
    },
    {
        "5XI73nmh": "20003",
        "1RWEp4At": "2018/4/17\u30d5\u30ed\u30cf\u30f3\u958b\u59cb\u544a\u77e5_\u4e3b\u4eba\u516c",
        "P_SCENE_ID": "1000",
        "P_SCENE_PARAM": "1",
        "Lx1tHz2Z": "1",
        "P_FILE_NAME": "010_fh.png",
        "P_PRIORITY": "1",
        "yHV1b5Ih": "1",
        "X3zk7AuE": "0",
        "P_NEED_SWITCH_INFO": "10000027",
        "P_HIDE_SWITCH_INFO": "2300002",
        "P_OPEN_SWITCH_INFO": "2300002",
        "P_SCHEDULE_ID": "10002",
        "P_EXT_IMG_PARAM": "",
        "ya4GQhs8": "0",
        "P_CREATEDATE": "2018-09-25 01:58:46",
        "P_UPDATEDATE": "2018-09-25 01:58:46"
    },
    {
        "5XI73nmh": "20004",
        "1RWEp4At": "2018/4/17\u30d5\u30ed\u30cf\u30f3\u958b\u59cb\u544a\u77e5_\u30ea\u30f3",
        "P_SCENE_ID": "1000",
        "P_SCENE_PARAM": "2",
        "Lx1tHz2Z": "1",
        "P_FILE_NAME": "010_fh.png",
        "P_PRIORITY": "1",
        "yHV1b5Ih": "1",
        "X3zk7AuE": "0",
        "P_NEED_SWITCH_INFO": "10000027",
        "P_HIDE_SWITCH_INFO": "2300002",
        "P_OPEN_SWITCH_INFO": "2300002",
        "P_SCHEDULE_ID": "10002",
        "P_EXT_IMG_PARAM": "",
        "ya4GQhs8": "0",
        "P_CREATEDATE": "2018-09-25 01:58:46",
        "P_UPDATEDATE": "2018-09-25 01:58:46"
    },
    {
        "5XI73nmh": "20005",
        "1RWEp4At": "2018/4/17\u30d5\u30ed\u30cf\u30f3\u958b\u59cb\u544a\u77e5_\u5408\u6d41",
        "P_SCENE_ID": "1000",
        "P_SCENE_PARAM": "3",
        "Lx1tHz2Z": "1",
        "P_FILE_NAME": "010_fh.png",
        "P_PRIORITY": "1",
        "yHV1b5Ih": "1",
        "X3zk7AuE": "0",
        "P_NEED_SWITCH_INFO": "10000027",
        "P_HIDE_SWITCH_INFO": "2300002",
        "P_OPEN_SWITCH_INFO": "2300002",
        "P_SCHEDULE_ID": "10002",
        "P_EXT_IMG_PARAM": "",
        "ya4GQhs8": "0",
        "P_CREATEDATE": "2018-09-25 01:58:46",
        "P_UPDATEDATE": "2018-09-25 01:58:46"
    },
    {
        "5XI73nmh": "20006",
        "1RWEp4At": "2018/6/15\u30d5\u30ed\u30cf\u30f3\u958b\u59cb\u544a\u77e5_\u4e3b\u4eba\u516c",
        "P_SCENE_ID": "1000",
        "P_SCENE_PARAM": "1",
        "Lx1tHz2Z": "1",
        "P_FILE_NAME": "010_fh.png",
        "P_PRIORITY": "1",
        "yHV1b5Ih": "1",
        "X3zk7AuE": "0",
        "P_NEED_SWITCH_INFO": "10000027",
        "P_HIDE_SWITCH_INFO": "2300004",
        "P_OPEN_SWITCH_INFO": "2300004",
        "P_SCHEDULE_ID": "10004",
        "P_EXT_IMG_PARAM": "",
        "ya4GQhs8": "0",
        "P_CREATEDATE": "2018-09-25 01:58:46",
        "P_UPDATEDATE": "2018-09-25 01:58:46"
    },
    {
        "5XI73nmh": "20007",
        "1RWEp4At": "2018/6/15\u30d5\u30ed\u30cf\u30f3\u958b\u59cb\u544a\u77e5_\u30ea\u30f3",
        "P_SCENE_ID": "1000",
        "P_SCENE_PARAM": "2",
        "Lx1tHz2Z": "1",
        "P_FILE_NAME": "010_fh.png",
        "P_PRIORITY": "1",
        "yHV1b5Ih": "1",
        "X3zk7AuE": "0",
        "P_NEED_SWITCH_INFO": "10000027",
        "P_HIDE_SWITCH_INFO": "2300004",
        "P_OPEN_SWITCH_INFO": "2300004",
        "P_SCHEDULE_ID": "10004",
        "P_EXT_IMG_PARAM": "",
        "ya4GQhs8": "0",
        "P_CREATEDATE": "2018-09-25 01:58:46",
        "P_UPDATEDATE": "2018-09-25 01:58:46"
    },
    {
        "5XI73nmh": "20008",
        "1RWEp4At": "2018/6/15\u30d5\u30ed\u30cf\u30f3\u958b\u59cb\u544a\u77e5_\u5408\u6d41",
        "P_SCENE_ID": "1000",
        "P_SCENE_PARAM": "3",
        "Lx1tHz2Z": "1",
        "P_FILE_NAME": "010_fh.png",
        "P_PRIORITY": "1",
        "yHV1b5Ih": "1",
        "X3zk7AuE": "0",
        "P_NEED_SWITCH_INFO": "10000027",
        "P_HIDE_SWITCH_INFO": "2300004",
        "P_OPEN_SWITCH_INFO": "2300004",
        "P_SCHEDULE_ID": "10004",
        "P_EXT_IMG_PARAM": "",
        "ya4GQhs8": "0",
        "P_CREATEDATE": "2018-09-25 01:58:46",
        "P_UPDATEDATE": "2018-09-25 01:58:46"
    },
    {
        "5XI73nmh": "20009",
        "1RWEp4At": "2018/7/17\u30d5\u30ed\u30cf\u30f3\u958b\u59cb\u544a\u77e5_\u4e3b\u4eba\u516c",
        "P_SCENE_ID": "1000",
        "P_SCENE_PARAM": "1",
        "Lx1tHz2Z": "1",
        "P_FILE_NAME": "010_fh.png",
        "P_PRIORITY": "1",
        "yHV1b5Ih": "1",
        "X3zk7AuE": "0",
        "P_NEED_SWITCH_INFO": "10000027",
        "P_HIDE_SWITCH_INFO": "2300005",
        "P_OPEN_SWITCH_INFO": "2300005",
        "P_SCHEDULE_ID": "10005",
        "P_EXT_IMG_PARAM": "",
        "ya4GQhs8": "0",
        "P_CREATEDATE": "2018-09-25 01:58:46",
        "P_UPDATEDATE": "2018-09-25 01:58:46"
    },
    {
        "5XI73nmh": "20010",
        "1RWEp4At": "2018/7/17\u30d5\u30ed\u30cf\u30f3\u958b\u59cb\u544a\u77e5_\u30ea\u30f3",
        "P_SCENE_ID": "1000",
        "P_SCENE_PARAM": "2",
        "Lx1tHz2Z": "1",
        "P_FILE_NAME": "010_fh.png",
        "P_PRIORITY": "1",
        "yHV1b5Ih": "1",
        "X3zk7AuE": "0",
        "P_NEED_SWITCH_INFO": "10000027",
        "P_HIDE_SWITCH_INFO": "2300005",
        "P_OPEN_SWITCH_INFO": "2300005",
        "P_SCHEDULE_ID": "10005",
        "P_EXT_IMG_PARAM": "",
        "ya4GQhs8": "0",
        "P_CREATEDATE": "2018-09-25 01:58:46",
        "P_UPDATEDATE": "2018-09-25 01:58:46"
    },
    {
        "5XI73nmh": "20011",
        "1RWEp4At": "2018/7/17\u30d5\u30ed\u30cf\u30f3\u958b\u59cb\u544a\u77e5_\u5408\u6d41",
        "P_SCENE_ID": "1000",
        "P_SCENE_PARAM": "3",
        "Lx1tHz2Z": "1",
        "P_FILE_NAME": "010_fh.png",
        "P_PRIORITY": "1",
        "yHV1b5Ih": "1",
        "X3zk7AuE": "0",
        "P_NEED_SWITCH_INFO": "10000027",
        "P_HIDE_SWITCH_INFO": "2300005",
        "P_OPEN_SWITCH_INFO": "2300005",
        "P_SCHEDULE_ID": "10005",
        "P_EXT_IMG_PARAM": "",
        "ya4GQhs8": "0",
        "P_CREATEDATE": "2018-09-25 01:58:46",
        "P_UPDATEDATE": "2018-09-25 01:58:46"
    },
    {
        "5XI73nmh": "20012",
        "1RWEp4At": "2018/8/16\u30d5\u30ed\u30cf\u30f3\u958b\u59cb\u544a\u77e5_\u4e3b\u4eba\u516c",
        "P_SCENE_ID": "1000",
        "P_SCENE_PARAM": "1",
        "Lx1tHz2Z": "1",
        "P_FILE_NAME": "010_fh.png",
        "P_PRIORITY": "1",
        "yHV1b5Ih": "1",
        "X3zk7AuE": "0",
        "P_NEED_SWITCH_INFO": "10000027",
        "P_HIDE_SWITCH_INFO": "2300006",
        "P_OPEN_SWITCH_INFO": "2300006",
        "P_SCHEDULE_ID": "10006",
        "P_EXT_IMG_PARAM": "",
        "ya4GQhs8": "0",
        "P_CREATEDATE": "2018-09-25 01:58:46",
        "P_UPDATEDATE": "2018-09-25 01:58:46"
    },
    {
        "5XI73nmh": "20013",
        "1RWEp4At": "2018/8/16\u30d5\u30ed\u30cf\u30f3\u958b\u59cb\u544a\u77e5_\u4e3b\u4eba\u516c",
        "P_SCENE_ID": "1000",
        "P_SCENE_PARAM": "2",
        "Lx1tHz2Z": "1",
        "P_FILE_NAME": "010_fh.png",
        "P_PRIORITY": "1",
        "yHV1b5Ih": "1",
        "X3zk7AuE": "0",
        "P_NEED_SWITCH_INFO": "10000027",
        "P_HIDE_SWITCH_INFO": "2300006",
        "P_OPEN_SWITCH_INFO": "2300006",
        "P_SCHEDULE_ID": "10006",
        "P_EXT_IMG_PARAM": "",
        "ya4GQhs8": "0",
        "P_CREATEDATE": "2018-09-25 01:58:46",
        "P_UPDATEDATE": "2018-09-25 01:58:46"
    },
    {
        "5XI73nmh": "20014",
        "1RWEp4At": "2018/8/16\u30d5\u30ed\u30cf\u30f3\u958b\u59cb\u544a\u77e5_\u4e3b\u4eba\u516c",
        "P_SCENE_ID": "1000",
        "P_SCENE_PARAM": "3",
        "Lx1tHz2Z": "1",
        "P_FILE_NAME": "010_fh.png",
        "P_PRIORITY": "1",
        "yHV1b5Ih": "1",
        "X3zk7AuE": "0",
        "P_NEED_SWITCH_INFO": "10000027",
        "P_HIDE_SWITCH_INFO": "2300006",
        "P_OPEN_SWITCH_INFO": "2300006",
        "P_SCHEDULE_ID": "10006",
        "P_EXT_IMG_PARAM": "",
        "ya4GQhs8": "0",
        "P_CREATEDATE": "2018-09-25 01:58:46",
        "P_UPDATEDATE": "2018-09-25 01:58:46"
    },
    {
        "5XI73nmh": "20015",
        "1RWEp4At": "2018/9/14\u30d5\u30ed\u30cf\u30f3\u958b\u59cb\u544a\u77e5_\u4e3b\u4eba\u516c",
        "P_SCENE_ID": "1000",
        "P_SCENE_PARAM": "1",
        "Lx1tHz2Z": "1",
        "P_FILE_NAME": "010_fh.png",
        "P_PRIORITY": "1",
        "yHV1b5Ih": "1",
        "X3zk7AuE": "0",
        "P_NEED_SWITCH_INFO": "10000027",
        "P_HIDE_SWITCH_INFO": "2300008",
        "P_OPEN_SWITCH_INFO": "2300008",
        "P_SCHEDULE_ID": "10007",
        "P_EXT_IMG_PARAM": "",
        "ya4GQhs8": "0",
        "P_CREATEDATE": "2018-09-25 01:58:46",
        "P_UPDATEDATE": "2018-09-25 01:58:46"
    },
    {
        "5XI73nmh": "20016",
        "1RWEp4At": "2018/9/14\u30d5\u30ed\u30cf\u30f3\u958b\u59cb\u544a\u77e5_\u4e3b\u4eba\u516c",
        "P_SCENE_ID": "1000",
        "P_SCENE_PARAM": "2",
        "Lx1tHz2Z": "1",
        "P_FILE_NAME": "010_fh.png",
        "P_PRIORITY": "1",
        "yHV1b5Ih": "1",
        "X3zk7AuE": "0",
        "P_NEED_SWITCH_INFO": "10000027",
        "P_HIDE_SWITCH_INFO": "2300008",
        "P_OPEN_SWITCH_INFO": "2300008",
        "P_SCHEDULE_ID": "10007",
        "P_EXT_IMG_PARAM": "",
        "ya4GQhs8": "0",
        "P_CREATEDATE": "2018-09-25 01:58:46",
        "P_UPDATEDATE": "2018-09-25 01:58:46"
    },
    {
        "5XI73nmh": "20017",
        "1RWEp4At": "2018/9/14\u30d5\u30ed\u30cf\u30f3\u958b\u59cb\u544a\u77e5_\u4e3b\u4eba\u516c",
        "P_SCENE_ID": "1000",
        "P_SCENE_PARAM": "3",
        "Lx1tHz2Z": "1",
        "P_FILE_NAME": "010_fh.png",
        "P_PRIORITY": "1",
        "yHV1b5Ih": "1",
        "X3zk7AuE": "0",
        "P_NEED_SWITCH_INFO": "10000027",
        "P_HIDE_SWITCH_INFO": "2300008",
        "P_OPEN_SWITCH_INFO": "2300008",
        "P_SCHEDULE_ID": "10007",
        "P_EXT_IMG_PARAM": "",
        "ya4GQhs8": "0",
        "P_CREATEDATE": "2018-09-25 01:58:46",
        "P_UPDATEDATE": "2018-09-25 01:58:46"
    },
    {
        "5XI73nmh": "30000",
        "1RWEp4At": "2018/3/22\u30d6\u30ec\u30d5\u30ed2\u306e\u65e5_\u4e3b\u4eba\u516c",
        "P_SCENE_ID": "1000",
        "P_SCENE_PARAM": "1",
        "Lx1tHz2Z": "1",
        "P_FILE_NAME": "brefro2_20180322.png",
        "P_PRIORITY": "1",
        "yHV1b5Ih": "1",
        "X3zk7AuE": "0",
        "P_NEED_SWITCH_INFO": "1000016",
        "P_HIDE_SWITCH_INFO": "2300001",
        "P_OPEN_SWITCH_INFO": "2300001",
        "P_SCHEDULE_ID": "50014",
        "P_EXT_IMG_PARAM": "",
        "ya4GQhs8": "0",
        "P_CREATEDATE": "2018-09-25 01:58:46",
        "P_UPDATEDATE": "2018-09-25 01:58:46"
    },
    {
        "5XI73nmh": "30001",
        "1RWEp4At": "2018/3/22\u30d6\u30ec\u30d5\u30ed2\u306e\u65e5_\u30ea\u30f3",
        "P_SCENE_ID": "1000",
        "P_SCENE_PARAM": "2",
        "Lx1tHz2Z": "1",
        "P_FILE_NAME": "brefro2_20180322.png",
        "P_PRIORITY": "1",
        "yHV1b5Ih": "1",
        "X3zk7AuE": "0",
        "P_NEED_SWITCH_INFO": "1000016",
        "P_HIDE_SWITCH_INFO": "2300001",
        "P_OPEN_SWITCH_INFO": "2300001",
        "P_SCHEDULE_ID": "50014",
        "P_EXT_IMG_PARAM": "",
        "ya4GQhs8": "0",
        "P_CREATEDATE": "2018-09-25 01:58:46",
        "P_UPDATEDATE": "2018-09-25 01:58:46"
    },
    {
        "5XI73nmh": "30002",
        "1RWEp4At": "2018/3/22\u30d6\u30ec\u30d5\u30ed2\u306e\u65e5_\u5408\u6d41",
        "P_SCENE_ID": "1000",
        "P_SCENE_PARAM": "3",
        "Lx1tHz2Z": "1",
        "P_FILE_NAME": "brefro2_20180322.png",
        "P_PRIORITY": "1",
        "yHV1b5Ih": "1",
        "X3zk7AuE": "0",
        "P_NEED_SWITCH_INFO": "1000016",
        "P_HIDE_SWITCH_INFO": "2300001",
        "P_OPEN_SWITCH_INFO": "2300001",
        "P_SCHEDULE_ID": "50014",
        "P_EXT_IMG_PARAM": "",
        "ya4GQhs8": "0",
        "P_CREATEDATE": "2018-09-25 01:58:46",
        "P_UPDATEDATE": "2018-09-25 01:58:46"
    },
    {
        "5XI73nmh": "30003",
        "1RWEp4At": "2018/4/22\u30d6\u30ec\u30d5\u30ed2\u306e\u65e5_\u4e3b\u4eba\u516c",
        "P_SCENE_ID": "1000",
        "P_SCENE_PARAM": "1",
        "Lx1tHz2Z": "1",
        "P_FILE_NAME": "brefro2_20180322.png",
        "P_PRIORITY": "1",
        "yHV1b5Ih": "1",
        "X3zk7AuE": "0",
        "P_NEED_SWITCH_INFO": "1000016",
        "P_HIDE_SWITCH_INFO": "2300003",
        "P_OPEN_SWITCH_INFO": "2300003",
        "P_SCHEDULE_ID": "50036",
        "P_EXT_IMG_PARAM": "",
        "ya4GQhs8": "0",
        "P_CREATEDATE": "2018-09-25 01:58:46",
        "P_UPDATEDATE": "2018-09-25 01:58:46"
    },
    {
        "5XI73nmh": "30004",
        "1RWEp4At": "2018/4/22\u30d6\u30ec\u30d5\u30ed2\u306e\u65e5_\u30ea\u30f3",
        "P_SCENE_ID": "1000",
        "P_SCENE_PARAM": "2",
        "Lx1tHz2Z": "1",
        "P_FILE_NAME": "brefro2_20180322.png",
        "P_PRIORITY": "1",
        "yHV1b5Ih": "1",
        "X3zk7AuE": "0",
        "P_NEED_SWITCH_INFO": "1000016",
        "P_HIDE_SWITCH_INFO": "2300003",
        "P_OPEN_SWITCH_INFO": "2300003",
        "P_SCHEDULE_ID": "50036",
        "P_EXT_IMG_PARAM": "",
        "ya4GQhs8": "0",
        "P_CREATEDATE": "2018-09-25 01:58:46",
        "P_UPDATEDATE": "2018-09-25 01:58:46"
    },
    {
        "5XI73nmh": "30005",
        "1RWEp4At": "2018/4/22\u30d6\u30ec\u30d5\u30ed2\u306e\u65e5_\u5408\u6d41",
        "P_SCENE_ID": "1000",
        "P_SCENE_PARAM": "3",
        "Lx1tHz2Z": "1",
        "P_FILE_NAME": "brefro2_20180322.png",
        "P_PRIORITY": "1",
        "yHV1b5Ih": "1",
        "X3zk7AuE": "0",
        "P_NEED_SWITCH_INFO": "1000016",
        "P_HIDE_SWITCH_INFO": "2300003",
        "P_OPEN_SWITCH_INFO": "2300003",
        "P_SCHEDULE_ID": "50036",
        "P_EXT_IMG_PARAM": "",
        "ya4GQhs8": "0",
        "P_CREATEDATE": "2018-09-25 01:58:46",
        "P_UPDATEDATE": "2018-09-25 01:58:46"
    },
    {
        "5XI73nmh": "30006",
        "1RWEp4At": "2018/9/22\u30d6\u30ec\u30d5\u30ed2\u306e\u65e5_\u4e3b\u4eba\u516c",
        "P_SCENE_ID": "1000",
        "P_SCENE_PARAM": "1",
        "Lx1tHz2Z": "1",
        "P_FILE_NAME": "brefro2_20180322.png",
        "P_PRIORITY": "1",
        "yHV1b5Ih": "1",
        "X3zk7AuE": "0",
        "P_NEED_SWITCH_INFO": "1000016",
        "P_HIDE_SWITCH_INFO": "2300009",
        "P_OPEN_SWITCH_INFO": "2300009",
        "P_SCHEDULE_ID": "50143",
        "P_EXT_IMG_PARAM": "",
        "ya4GQhs8": "0",
        "P_CREATEDATE": "2018-09-25 01:58:46",
        "P_UPDATEDATE": "2018-09-25 01:58:46"
    },
    {
        "5XI73nmh": "30007",
        "1RWEp4At": "2018/9/22\u30d6\u30ec\u30d5\u30ed2\u306e\u65e5_\u30ea\u30f3",
        "P_SCENE_ID": "1000",
        "P_SCENE_PARAM": "2",
        "Lx1tHz2Z": "1",
        "P_FILE_NAME": "brefro2_20180322.png",
        "P_PRIORITY": "1",
        "yHV1b5Ih": "1",
        "X3zk7AuE": "0",
        "P_NEED_SWITCH_INFO": "1000016",
        "P_HIDE_SWITCH_INFO": "2300009",
        "P_OPEN_SWITCH_INFO": "2300009",
        "P_SCHEDULE_ID": "50143",
        "P_EXT_IMG_PARAM": "",
        "ya4GQhs8": "0",
        "P_CREATEDATE": "2018-09-25 01:58:46",
        "P_UPDATEDATE": "2018-09-25 01:58:46"
    },
    {
        "5XI73nmh": "30008",
        "1RWEp4At": "2018/9/22\u30d6\u30ec\u30d5\u30ed2\u306e\u65e5_\u5408\u6d41",
        "P_SCENE_ID": "1000",
        "P_SCENE_PARAM": "3",
        "Lx1tHz2Z": "1",
        "P_FILE_NAME": "brefro2_20180322.png",
        "P_PRIORITY": "1",
        "yHV1b5Ih": "1",
        "X3zk7AuE": "0",
        "P_NEED_SWITCH_INFO": "1000016",
        "P_HIDE_SWITCH_INFO": "2300009",
        "P_OPEN_SWITCH_INFO": "2300009",
        "P_SCHEDULE_ID": "50143",
        "P_EXT_IMG_PARAM": "",
        "ya4GQhs8": "0",
        "P_CREATEDATE": "2018-09-25 01:58:46",
        "P_UPDATEDATE": "2018-09-25 01:58:46"
    },
    {
        "5XI73nmh": "40000",
        "1RWEp4At": "2018/8/25\u30b9\u30bf\u30fc\u30fb\u30a6\u30a9\u30fc\u30ba\u30b3\u30e9\u30dc\u958b\u59cb_\u4e3b\u4eba\u516c",
        "P_SCENE_ID": "1000",
        "P_SCENE_PARAM": "1",
        "Lx1tHz2Z": "1",
        "P_FILE_NAME": "first_desc_sw.png",
        "P_PRIORITY": "1",
        "yHV1b5Ih": "1",
        "X3zk7AuE": "0",
        "P_NEED_SWITCH_INFO": "10000002",
        "P_HIDE_SWITCH_INFO": "2300007",
        "P_OPEN_SWITCH_INFO": "2300007",
        "P_SCHEDULE_ID": "50109",
        "P_EXT_IMG_PARAM": "",
        "ya4GQhs8": "0",
        "P_CREATEDATE": "2018-09-25 01:58:46",
        "P_UPDATEDATE": "2018-09-25 01:58:46"
    },
    {
        "5XI73nmh": "40001",
        "1RWEp4At": "2018/8/25\u30b9\u30bf\u30fc\u30fb\u30a6\u30a9\u30fc\u30ba\u30b3\u30e9\u30dc\u958b\u59cb_\u30ea\u30f3",
        "P_SCENE_ID": "1000",
        "P_SCENE_PARAM": "2",
        "Lx1tHz2Z": "1",
        "P_FILE_NAME": "first_desc_sw.png",
        "P_PRIORITY": "1",
        "yHV1b5Ih": "1",
        "X3zk7AuE": "0",
        "P_NEED_SWITCH_INFO": "10000002",
        "P_HIDE_SWITCH_INFO": "2300007",
        "P_OPEN_SWITCH_INFO": "2300007",
        "P_SCHEDULE_ID": "50109",
        "P_EXT_IMG_PARAM": "",
        "ya4GQhs8": "0",
        "P_CREATEDATE": "2018-09-25 01:58:46",
        "P_UPDATEDATE": "2018-09-25 01:58:46"
    },
    {
        "5XI73nmh": "40002",
        "1RWEp4At": "2018/8/25\u30b9\u30bf\u30fc\u30fb\u30a6\u30a9\u30fc\u30ba\u30b3\u30e9\u30dc\u958b\u59cb_\u5408\u6d41",
        "P_SCENE_ID": "1000",
        "P_SCENE_PARAM": "3",
        "Lx1tHz2Z": "1",
        "P_FILE_NAME": "first_desc_sw.png",
        "P_PRIORITY": "1",
        "yHV1b5Ih": "1",
        "X3zk7AuE": "0",
        "P_NEED_SWITCH_INFO": "10000002",
        "P_HIDE_SWITCH_INFO": "2300007",
        "P_OPEN_SWITCH_INFO": "2300007",
        "P_SCHEDULE_ID": "50109",
        "P_EXT_IMG_PARAM": "",
        "ya4GQhs8": "0",
        "P_CREATEDATE": "2018-09-25 01:58:46",
        "P_UPDATEDATE": "2018-09-25 01:58:46"
    }
]