[
    {
        "8q4pgcmV": "100",
        "P_IMG": "bg_randall.jpg",
        "P_POS": "0,0",
        "P_EFFECT_INFO": ""
    },
    {
        "8q4pgcmV": "101",
        "P_IMG": "bg_rinbag.jpg",
        "P_POS": "0,0",
        "P_EFFECT_INFO": ""
    },
    {
        "8q4pgcmV": "200",
        "P_IMG": "bg_randall_management.jpg",
        "P_POS": "0,0",
        "P_EFFECT_INFO": ""
    },
    {
        "8q4pgcmV": "201",
        "P_IMG": "bg_randall_factory.jpg",
        "P_POS": "0,0",
        "P_EFFECT_INFO": ""
    },
    {
        "8q4pgcmV": "202",
        "P_IMG": "bg_randall_shop.jpg",
        "P_POS": "0,0",
        "P_EFFECT_INFO": "1:100050"
    },
    {
        "8q4pgcmV": "203",
        "P_IMG": "bg_randall_storage.jpg",
        "P_POS": "0,0",
        "P_EFFECT_INFO": ""
    },
    {
        "8q4pgcmV": "204",
        "P_IMG": "bg_randall_library.jpg",
        "P_POS": "0,0",
        "P_EFFECT_INFO": ""
    },
    {
        "8q4pgcmV": "205",
        "P_IMG": "bg_randall_gamecenter.jpg",
        "P_POS": "0,0",
        "P_EFFECT_INFO": ""
    },
    {
        "8q4pgcmV": "300",
        "P_IMG": "bg_labo.jpg",
        "P_POS": "0,0",
        "P_EFFECT_INFO": ""
    }
]