[
    {
        "0P4KLAhs": "101",
        "n9cJH6Mz": "\u56db\u8056\u3068\u5149\u95c7\u306e\u738b",
        "P_UNIT_SHOP_ID": "100",
        "ZnJH80Dc": "1",
        "ND02HhRV": "101",
        "TRGD9o01": "1",
        "0I3i2TMg": "90",
        "1gDkL6XR": "set_20180222_01.png,set_light.png",
        "P_REWARD_INFO": "",
        "P_EXT_IMG_PARAM": "\u30bb\u30c3\u30c8\u5272\u3067\u3059",
        "P_PRIORITY": "3",
        "P_SCHEDULE_ID": "50000",
        "P_CREATEDATE": "2018-11-09 13:26:42",
        "P_UPDATEDATE": "2018-11-09 13:26:42"
    },
    {
        "0P4KLAhs": "102",
        "n9cJH6Mz": "\u30d0\u30ea\u30a6\u30e9\u7687\u5973",
        "P_UNIT_SHOP_ID": "100",
        "ZnJH80Dc": "1",
        "ND02HhRV": "102",
        "TRGD9o01": "1",
        "0I3i2TMg": "30",
        "1gDkL6XR": "set_20180222_02.png,set_light.png",
        "P_REWARD_INFO": "",
        "P_EXT_IMG_PARAM": "\u30bb\u30c3\u30c8\u5272\u3067\u3059",
        "P_PRIORITY": "2",
        "P_SCHEDULE_ID": "50000",
        "P_CREATEDATE": "2018-11-09 13:26:42",
        "P_UPDATEDATE": "2018-11-09 13:26:42"
    },
    {
        "0P4KLAhs": "103",
        "n9cJH6Mz": "\u4eba\u578b\u6383\u8a0e\u5175\u5668",
        "P_UNIT_SHOP_ID": "100",
        "ZnJH80Dc": "1",
        "ND02HhRV": "103",
        "TRGD9o01": "1",
        "0I3i2TMg": "45",
        "1gDkL6XR": "set_20180222_03.png,set_light.png",
        "P_REWARD_INFO": "",
        "P_EXT_IMG_PARAM": "\u30bb\u30c3\u30c8\u5272\u3067\u3059",
        "P_PRIORITY": "1",
        "P_SCHEDULE_ID": "50003",
        "P_CREATEDATE": "2018-11-09 13:26:42",
        "P_UPDATEDATE": "2018-11-09 13:26:42"
    },
    {
        "0P4KLAhs": "104",
        "n9cJH6Mz": "\u52c7\u8005\u306e\u8840\u7d71",
        "P_UNIT_SHOP_ID": "100",
        "ZnJH80Dc": "1",
        "ND02HhRV": "104",
        "TRGD9o01": "1",
        "0I3i2TMg": "90",
        "1gDkL6XR": "set_20180301_01.png,set_light.png",
        "P_REWARD_INFO": "",
        "P_EXT_IMG_PARAM": "\u30bb\u30c3\u30c8\u5272\u3067\u3059",
        "P_PRIORITY": "3",
        "P_SCHEDULE_ID": "50001",
        "P_CREATEDATE": "2018-11-09 13:26:42",
        "P_UPDATEDATE": "2018-11-09 13:26:42"
    },
    {
        "0P4KLAhs": "105",
        "n9cJH6Mz": "\u7a00\u4ee3\u306e\u5929\u624d\u3068\u7121\u4e8c\u306e\u9b3c\u624d",
        "P_UNIT_SHOP_ID": "100",
        "ZnJH80Dc": "1",
        "ND02HhRV": "105",
        "TRGD9o01": "1",
        "0I3i2TMg": "30",
        "1gDkL6XR": "set_20180301_02.png,set_light.png",
        "P_REWARD_INFO": "",
        "P_EXT_IMG_PARAM": "\u30bb\u30c3\u30c8\u5272\u3067\u3059",
        "P_PRIORITY": "2",
        "P_SCHEDULE_ID": "50001",
        "P_CREATEDATE": "2018-11-09 13:26:42",
        "P_UPDATEDATE": "2018-11-09 13:26:42"
    },
    {
        "0P4KLAhs": "106",
        "n9cJH6Mz": "\u5fcd\u3073\u5bc4\u308b\u60aa\u610f",
        "P_UNIT_SHOP_ID": "100",
        "ZnJH80Dc": "1",
        "ND02HhRV": "106",
        "TRGD9o01": "1",
        "0I3i2TMg": "90",
        "1gDkL6XR": "set_20180308_01.png,set_light.png",
        "P_REWARD_INFO": "",
        "P_EXT_IMG_PARAM": "\u30bb\u30c3\u30c8\u5272\u3067\u3059",
        "P_PRIORITY": "3",
        "P_SCHEDULE_ID": "50002",
        "P_CREATEDATE": "2018-11-09 13:26:42",
        "P_UPDATEDATE": "2018-11-09 13:26:42"
    },
    {
        "0P4KLAhs": "107",
        "n9cJH6Mz": "\u8056\u53e1\u306a\u308b\u9858\u3044",
        "P_UNIT_SHOP_ID": "100",
        "ZnJH80Dc": "1",
        "ND02HhRV": "107",
        "TRGD9o01": "1",
        "0I3i2TMg": "30",
        "1gDkL6XR": "set_20180308_02.png,set_light.png",
        "P_REWARD_INFO": "",
        "P_EXT_IMG_PARAM": "\u30bb\u30c3\u30c8\u5272\u3067\u3059",
        "P_PRIORITY": "2",
        "P_SCHEDULE_ID": "50002",
        "P_CREATEDATE": "2018-11-09 13:26:42",
        "P_UPDATEDATE": "2018-11-09 13:26:42"
    },
    {
        "0P4KLAhs": "108",
        "n9cJH6Mz": "\u65e5\u66ff\u308f\u308a\u30d4\u30c3\u30af\u30a2\u30c3\u30d7\u708e",
        "P_UNIT_SHOP_ID": "101",
        "ZnJH80Dc": "1",
        "ND02HhRV": "108",
        "TRGD9o01": "2",
        "0I3i2TMg": "0",
        "1gDkL6XR": "set_20180315_01.png,set_light.png",
        "P_REWARD_INFO": "",
        "P_EXT_IMG_PARAM": "\u5358\u4f53\u30d4\u30c3\u30af\u30a2\u30c3\u30d7",
        "P_PRIORITY": "1",
        "P_SCHEDULE_ID": "50006",
        "P_CREATEDATE": "2018-11-09 13:26:42",
        "P_UPDATEDATE": "2018-11-09 13:26:42"
    },
    {
        "0P4KLAhs": "109",
        "n9cJH6Mz": "\u65e5\u66ff\u308f\u308a\u30d4\u30c3\u30af\u30a2\u30c3\u30d7\u6c34",
        "P_UNIT_SHOP_ID": "102",
        "ZnJH80Dc": "1",
        "ND02HhRV": "109",
        "TRGD9o01": "2",
        "0I3i2TMg": "0",
        "1gDkL6XR": "set_20180316_01.png,set_light.png",
        "P_REWARD_INFO": "",
        "P_EXT_IMG_PARAM": "\u5358\u4f53\u30d4\u30c3\u30af\u30a2\u30c3\u30d7",
        "P_PRIORITY": "1",
        "P_SCHEDULE_ID": "50007",
        "P_CREATEDATE": "2018-11-09 13:26:42",
        "P_UPDATEDATE": "2018-11-09 13:26:42"
    },
    {
        "0P4KLAhs": "110",
        "n9cJH6Mz": "\u65e5\u66ff\u308f\u308a\u30d4\u30c3\u30af\u30a2\u30c3\u30d7\u6a39",
        "P_UNIT_SHOP_ID": "103",
        "ZnJH80Dc": "1",
        "ND02HhRV": "110",
        "TRGD9o01": "2",
        "0I3i2TMg": "0",
        "1gDkL6XR": "set_20180317_01.png,set_light.png",
        "P_REWARD_INFO": "",
        "P_EXT_IMG_PARAM": "\u5358\u4f53\u30d4\u30c3\u30af\u30a2\u30c3\u30d7",
        "P_PRIORITY": "1",
        "P_SCHEDULE_ID": "50008",
        "P_CREATEDATE": "2018-11-09 13:26:42",
        "P_UPDATEDATE": "2018-11-09 13:26:42"
    },
    {
        "0P4KLAhs": "111",
        "n9cJH6Mz": "\u65e5\u66ff\u308f\u308a\u30d4\u30c3\u30af\u30a2\u30c3\u30d7\u96f7",
        "P_UNIT_SHOP_ID": "104",
        "ZnJH80Dc": "1",
        "ND02HhRV": "111",
        "TRGD9o01": "2",
        "0I3i2TMg": "0",
        "1gDkL6XR": "set_20180318_01.png,set_light.png",
        "P_REWARD_INFO": "",
        "P_EXT_IMG_PARAM": "\u5358\u4f53\u30d4\u30c3\u30af\u30a2\u30c3\u30d7",
        "P_PRIORITY": "1",
        "P_SCHEDULE_ID": "50009",
        "P_CREATEDATE": "2018-11-09 13:26:42",
        "P_UPDATEDATE": "2018-11-09 13:26:42"
    },
    {
        "0P4KLAhs": "112",
        "n9cJH6Mz": "\u65e5\u66ff\u308f\u308a\u30d4\u30c3\u30af\u30a2\u30c3\u30d7\u5149",
        "P_UNIT_SHOP_ID": "105",
        "ZnJH80Dc": "1",
        "ND02HhRV": "112",
        "TRGD9o01": "2",
        "0I3i2TMg": "0",
        "1gDkL6XR": "set_20180319_01.png,set_light.png",
        "P_REWARD_INFO": "",
        "P_EXT_IMG_PARAM": "\u5358\u4f53\u30d4\u30c3\u30af\u30a2\u30c3\u30d7",
        "P_PRIORITY": "1",
        "P_SCHEDULE_ID": "50010",
        "P_CREATEDATE": "2018-11-09 13:26:42",
        "P_UPDATEDATE": "2018-11-09 13:26:42"
    },
    {
        "0P4KLAhs": "113",
        "n9cJH6Mz": "\u65e5\u66ff\u308f\u308a\u30d4\u30c3\u30af\u30a2\u30c3\u30d7\u95c7",
        "P_UNIT_SHOP_ID": "106",
        "ZnJH80Dc": "1",
        "ND02HhRV": "113",
        "TRGD9o01": "2",
        "0I3i2TMg": "0",
        "1gDkL6XR": "set_20180320_01.png,set_light.png",
        "P_REWARD_INFO": "",
        "P_EXT_IMG_PARAM": "\u5358\u4f53\u30d4\u30c3\u30af\u30a2\u30c3\u30d7",
        "P_PRIORITY": "1",
        "P_SCHEDULE_ID": "50011",
        "P_CREATEDATE": "2018-11-09 13:26:42",
        "P_UPDATEDATE": "2018-11-09 13:26:42"
    },
    {
        "0P4KLAhs": "201",
        "n9cJH6Mz": "\u30d1\u30eb\u30df\u30ca\u306e\u56db\u6226\u58eb",
        "P_UNIT_SHOP_ID": "107",
        "ZnJH80Dc": "1",
        "ND02HhRV": "201",
        "TRGD9o01": "1",
        "0I3i2TMg": "60",
        "1gDkL6XR": "set_20180321_0327_01.png,set_light.png",
        "P_REWARD_INFO": "",
        "P_EXT_IMG_PARAM": "\u30bb\u30c3\u30c8\u5272\u3067\u3059",
        "P_PRIORITY": "2",
        "P_SCHEDULE_ID": "50024",
        "P_CREATEDATE": "2018-11-09 13:26:42",
        "P_UPDATEDATE": "2018-11-09 13:26:42"
    },
    {
        "0P4KLAhs": "202",
        "n9cJH6Mz": "\u7687\u5b88\u306e\u5951\u8a93",
        "P_UNIT_SHOP_ID": "107",
        "ZnJH80Dc": "1",
        "ND02HhRV": "202",
        "TRGD9o01": "1",
        "0I3i2TMg": "30",
        "1gDkL6XR": "set_20180321_0327_02.png,set_light.png",
        "P_REWARD_INFO": "",
        "P_EXT_IMG_PARAM": "\u30bb\u30c3\u30c8\u5272\u3067\u3059",
        "P_PRIORITY": "1",
        "P_SCHEDULE_ID": "50024",
        "P_CREATEDATE": "2018-11-09 13:26:42",
        "P_UPDATEDATE": "2018-11-09 13:26:42"
    },
    {
        "0P4KLAhs": "203",
        "n9cJH6Mz": "\u5341\u7ffc\u306e\u7834\u58ca\u8005",
        "P_UNIT_SHOP_ID": "108",
        "ZnJH80Dc": "1",
        "ND02HhRV": "203",
        "TRGD9o01": "2",
        "0I3i2TMg": "0",
        "1gDkL6XR": "",
        "P_REWARD_INFO": "",
        "P_EXT_IMG_PARAM": "\u5358\u4f53\u30d4\u30c3\u30af\u30a2\u30c3\u30d7",
        "P_PRIORITY": "1",
        "P_SCHEDULE_ID": "50024",
        "P_CREATEDATE": "2018-11-09 13:26:42",
        "P_UPDATEDATE": "2018-11-09 13:26:42"
    },
    {
        "0P4KLAhs": "204",
        "n9cJH6Mz": "\u5341\u7ffc\u306e\u7834\u58ca\u8005",
        "P_UNIT_SHOP_ID": "109",
        "ZnJH80Dc": "1",
        "ND02HhRV": "203",
        "TRGD9o01": "2",
        "0I3i2TMg": "0",
        "1gDkL6XR": "",
        "P_REWARD_INFO": "",
        "P_EXT_IMG_PARAM": "\u5358\u4f53\u30d4\u30c3\u30af\u30a2\u30c3\u30d7",
        "P_PRIORITY": "1",
        "P_SCHEDULE_ID": "50015",
        "P_CREATEDATE": "2018-11-09 13:26:42",
        "P_UPDATEDATE": "2018-11-09 13:26:42"
    },
    {
        "0P4KLAhs": "205",
        "n9cJH6Mz": "\u5341\u7ffc\u306e\u7834\u58ca\u8005",
        "P_UNIT_SHOP_ID": "110",
        "ZnJH80Dc": "1",
        "ND02HhRV": "203",
        "TRGD9o01": "2",
        "0I3i2TMg": "0",
        "1gDkL6XR": "",
        "P_REWARD_INFO": "",
        "P_EXT_IMG_PARAM": "\u5358\u4f53\u30d4\u30c3\u30af\u30a2\u30c3\u30d7",
        "P_PRIORITY": "1",
        "P_SCHEDULE_ID": "50023",
        "P_CREATEDATE": "2018-11-09 13:26:42",
        "P_UPDATEDATE": "2018-11-09 13:26:42"
    },
    {
        "0P4KLAhs": "206",
        "n9cJH6Mz": "\u5341\u7ffc\u306e\u7834\u58ca\u8005",
        "P_UNIT_SHOP_ID": "111",
        "ZnJH80Dc": "1",
        "ND02HhRV": "203",
        "TRGD9o01": "2",
        "0I3i2TMg": "0",
        "1gDkL6XR": "",
        "P_REWARD_INFO": "",
        "P_EXT_IMG_PARAM": "\u5358\u4f53\u30d4\u30c3\u30af\u30a2\u30c3\u30d7",
        "P_PRIORITY": "1",
        "P_SCHEDULE_ID": "50025",
        "P_CREATEDATE": "2018-11-09 13:26:42",
        "P_UPDATEDATE": "2018-11-09 13:26:42"
    },
    {
        "0P4KLAhs": "207",
        "n9cJH6Mz": "4\u6708\u30d4\u30c3\u30af\u30a2\u30c3\u30d71",
        "P_UNIT_SHOP_ID": "112",
        "ZnJH80Dc": "1",
        "ND02HhRV": "204",
        "TRGD9o01": "2",
        "0I3i2TMg": "0",
        "1gDkL6XR": "",
        "P_REWARD_INFO": "",
        "P_EXT_IMG_PARAM": "\u5358\u4f53\u30d4\u30c3\u30af\u30a2\u30c3\u30d7",
        "P_PRIORITY": "1",
        "P_SCHEDULE_ID": "50027",
        "P_CREATEDATE": "2018-11-09 13:26:42",
        "P_UPDATEDATE": "2018-11-09 13:26:42"
    },
    {
        "0P4KLAhs": "208",
        "n9cJH6Mz": "4\u6708\u30d4\u30c3\u30af\u30a2\u30c3\u30d72",
        "P_UNIT_SHOP_ID": "113",
        "ZnJH80Dc": "1",
        "ND02HhRV": "205",
        "TRGD9o01": "2",
        "0I3i2TMg": "0",
        "1gDkL6XR": "",
        "P_REWARD_INFO": "",
        "P_EXT_IMG_PARAM": "\u5358\u4f53\u30d4\u30c3\u30af\u30a2\u30c3\u30d7",
        "P_PRIORITY": "1",
        "P_SCHEDULE_ID": "50028",
        "P_CREATEDATE": "2018-11-09 13:26:42",
        "P_UPDATEDATE": "2018-11-09 13:26:42"
    },
    {
        "0P4KLAhs": "209",
        "n9cJH6Mz": "4\u6708\u30d4\u30c3\u30af\u30a2\u30c3\u30d73",
        "P_UNIT_SHOP_ID": "114",
        "ZnJH80Dc": "1",
        "ND02HhRV": "206",
        "TRGD9o01": "2",
        "0I3i2TMg": "0",
        "1gDkL6XR": "",
        "P_REWARD_INFO": "",
        "P_EXT_IMG_PARAM": "\u5358\u4f53\u30d4\u30c3\u30af\u30a2\u30c3\u30d7",
        "P_PRIORITY": "1",
        "P_SCHEDULE_ID": "50029",
        "P_CREATEDATE": "2018-11-09 13:26:42",
        "P_UPDATEDATE": "2018-11-09 13:26:42"
    },
    {
        "0P4KLAhs": "210",
        "n9cJH6Mz": "4\u6708\u30d4\u30c3\u30af\u30a2\u30c3\u30d74",
        "P_UNIT_SHOP_ID": "115",
        "ZnJH80Dc": "1",
        "ND02HhRV": "207",
        "TRGD9o01": "2",
        "0I3i2TMg": "0",
        "1gDkL6XR": "",
        "P_REWARD_INFO": "",
        "P_EXT_IMG_PARAM": "\u5358\u4f53\u30d4\u30c3\u30af\u30a2\u30c3\u30d7",
        "P_PRIORITY": "1",
        "P_SCHEDULE_ID": "50030",
        "P_CREATEDATE": "2018-11-09 13:26:42",
        "P_UPDATEDATE": "2018-11-09 13:26:42"
    },
    {
        "0P4KLAhs": "211",
        "n9cJH6Mz": "4\u6708\u30d4\u30c3\u30af\u30a2\u30c3\u30d75",
        "P_UNIT_SHOP_ID": "116",
        "ZnJH80Dc": "1",
        "ND02HhRV": "208",
        "TRGD9o01": "2",
        "0I3i2TMg": "0",
        "1gDkL6XR": "",
        "P_REWARD_INFO": "",
        "P_EXT_IMG_PARAM": "\u5358\u4f53\u30d4\u30c3\u30af\u30a2\u30c3\u30d7",
        "P_PRIORITY": "1",
        "P_SCHEDULE_ID": "50031",
        "P_CREATEDATE": "2018-11-09 13:26:42",
        "P_UPDATEDATE": "2018-11-09 13:26:42"
    },
    {
        "0P4KLAhs": "212",
        "n9cJH6Mz": "4\u6708\u30d4\u30c3\u30af\u30a2\u30c3\u30d76",
        "P_UNIT_SHOP_ID": "117",
        "ZnJH80Dc": "1",
        "ND02HhRV": "209",
        "TRGD9o01": "2",
        "0I3i2TMg": "0",
        "1gDkL6XR": "",
        "P_REWARD_INFO": "",
        "P_EXT_IMG_PARAM": "\u5358\u4f53\u30d4\u30c3\u30af\u30a2\u30c3\u30d7",
        "P_PRIORITY": "1",
        "P_SCHEDULE_ID": "50032",
        "P_CREATEDATE": "2018-11-09 13:26:42",
        "P_UPDATEDATE": "2018-11-09 13:26:42"
    },
    {
        "0P4KLAhs": "213",
        "n9cJH6Mz": "\u30c0\u30d6\u30eb\u30b9\u30af\u30e9\u30c3\u30c1",
        "P_UNIT_SHOP_ID": "118",
        "ZnJH80Dc": "1",
        "ND02HhRV": "210",
        "TRGD9o01": "1",
        "0I3i2TMg": "30",
        "1gDkL6XR": "set_20180409_01.png,set_20180409_light.png",
        "P_REWARD_INFO": "",
        "P_EXT_IMG_PARAM": "\u30bb\u30c3\u30c8\u5272\u3067\u3059",
        "P_PRIORITY": "3",
        "P_SCHEDULE_ID": "50034",
        "P_CREATEDATE": "2018-11-09 13:26:42",
        "P_UPDATEDATE": "2018-11-09 13:26:42"
    },
    {
        "0P4KLAhs": "214",
        "n9cJH6Mz": "\u30bb\u30a4\u30af\u30ea\u30c3\u30c9\u30b9\u30ec\u30a4\u30f4",
        "P_UNIT_SHOP_ID": "118",
        "ZnJH80Dc": "1",
        "ND02HhRV": "211",
        "TRGD9o01": "1",
        "0I3i2TMg": "30",
        "1gDkL6XR": "set_20180409_02.png,set_20180409_light.png",
        "P_REWARD_INFO": "",
        "P_EXT_IMG_PARAM": "\u30bb\u30c3\u30c8\u5272\u3067\u3059",
        "P_PRIORITY": "2",
        "P_SCHEDULE_ID": "50034",
        "P_CREATEDATE": "2018-11-09 13:26:42",
        "P_UPDATEDATE": "2018-11-09 13:26:42"
    },
    {
        "0P4KLAhs": "215",
        "n9cJH6Mz": "\u30c7\u30a3\u30b9\u30bf\u30fc\u30d0\u30f3\u30b9",
        "P_UNIT_SHOP_ID": "118",
        "ZnJH80Dc": "1",
        "ND02HhRV": "212",
        "TRGD9o01": "1",
        "0I3i2TMg": "45",
        "1gDkL6XR": "set_20180409_03.png,set_20180409_light.png",
        "P_REWARD_INFO": "",
        "P_EXT_IMG_PARAM": "\u30bb\u30c3\u30c8\u5272\u3067\u3059",
        "P_PRIORITY": "1",
        "P_SCHEDULE_ID": "50034",
        "P_CREATEDATE": "2018-11-09 13:26:42",
        "P_UPDATEDATE": "2018-11-09 13:26:42"
    },
    {
        "0P4KLAhs": "216",
        "n9cJH6Mz": "\u30ad\u30e7\u30a6\u30ea\u30e5\u30a6\u30b8\u30e3\u30fc",
        "P_UNIT_SHOP_ID": "119",
        "ZnJH80Dc": "1",
        "ND02HhRV": "213",
        "TRGD9o01": "3",
        "0I3i2TMg": "120",
        "1gDkL6XR": "",
        "P_REWARD_INFO": "",
        "P_EXT_IMG_PARAM": "\u30bb\u30c3\u30c8\u5272\u3067\u3059",
        "P_PRIORITY": "1",
        "P_SCHEDULE_ID": "50041",
        "P_CREATEDATE": "2018-11-09 13:26:42",
        "P_UPDATEDATE": "2018-11-09 13:26:42"
    },
    {
        "0P4KLAhs": "217",
        "n9cJH6Mz": "\u30ad\u30e7\u30a6\u30ea\u30e5\u30a6\u30b8\u30e3\u30fc",
        "P_UNIT_SHOP_ID": "120",
        "ZnJH80Dc": "1",
        "ND02HhRV": "213",
        "TRGD9o01": "3",
        "0I3i2TMg": "0",
        "1gDkL6XR": "",
        "P_REWARD_INFO": "",
        "P_EXT_IMG_PARAM": "\u5358\u4f53\u30d4\u30c3\u30af\u30a2\u30c3\u30d7",
        "P_PRIORITY": "1",
        "P_SCHEDULE_ID": "50041",
        "P_CREATEDATE": "2018-11-09 13:26:42",
        "P_UPDATEDATE": "2018-11-09 13:26:42"
    },
    {
        "0P4KLAhs": "218",
        "n9cJH6Mz": "\u30a2\u30ea\u30b5\u30d4\u30c3\u30af\u30a2\u30c3\u30d7",
        "P_UNIT_SHOP_ID": "121",
        "ZnJH80Dc": "1",
        "ND02HhRV": "214",
        "TRGD9o01": "2",
        "0I3i2TMg": "0",
        "1gDkL6XR": "",
        "P_REWARD_INFO": "",
        "P_EXT_IMG_PARAM": "\u5358\u4f53\u30d4\u30c3\u30af\u30a2\u30c3\u30d7",
        "P_PRIORITY": "1",
        "P_SCHEDULE_ID": "50053",
        "P_CREATEDATE": "2018-11-09 13:26:42",
        "P_UPDATEDATE": "2018-11-09 13:26:42"
    },
    {
        "0P4KLAhs": "219",
        "n9cJH6Mz": "5\u6708\u30d4\u30c3\u30af\u30a2\u30c3\u30d71",
        "P_UNIT_SHOP_ID": "122",
        "ZnJH80Dc": "1",
        "ND02HhRV": "215",
        "TRGD9o01": "2",
        "0I3i2TMg": "0",
        "1gDkL6XR": "",
        "P_REWARD_INFO": "",
        "P_EXT_IMG_PARAM": "\u5358\u4f53\u30d4\u30c3\u30af\u30a2\u30c3\u30d7",
        "P_PRIORITY": "1",
        "P_SCHEDULE_ID": "50050",
        "P_CREATEDATE": "2018-11-09 13:26:42",
        "P_UPDATEDATE": "2018-11-09 13:26:42"
    },
    {
        "0P4KLAhs": "220",
        "n9cJH6Mz": "5\u6708\u30d4\u30c3\u30af\u30a2\u30c3\u30d72",
        "P_UNIT_SHOP_ID": "123",
        "ZnJH80Dc": "1",
        "ND02HhRV": "216",
        "TRGD9o01": "2",
        "0I3i2TMg": "0",
        "1gDkL6XR": "",
        "P_REWARD_INFO": "",
        "P_EXT_IMG_PARAM": "\u5358\u4f53\u30d4\u30c3\u30af\u30a2\u30c3\u30d7",
        "P_PRIORITY": "1",
        "P_SCHEDULE_ID": "50051",
        "P_CREATEDATE": "2018-11-09 13:26:42",
        "P_UPDATEDATE": "2018-11-09 13:26:42"
    },
    {
        "0P4KLAhs": "221",
        "n9cJH6Mz": "5\u6708\u30d4\u30c3\u30af\u30a2\u30c3\u30d73",
        "P_UNIT_SHOP_ID": "124",
        "ZnJH80Dc": "1",
        "ND02HhRV": "217",
        "TRGD9o01": "2",
        "0I3i2TMg": "0",
        "1gDkL6XR": "",
        "P_REWARD_INFO": "",
        "P_EXT_IMG_PARAM": "\u5358\u4f53\u30d4\u30c3\u30af\u30a2\u30c3\u30d7",
        "P_PRIORITY": "1",
        "P_SCHEDULE_ID": "50052",
        "P_CREATEDATE": "2018-11-09 13:26:42",
        "P_UPDATEDATE": "2018-11-09 13:26:42"
    },
    {
        "0P4KLAhs": "222",
        "n9cJH6Mz": "\u56db\u8056\u3068\u5149\u95c7\u306e\u738b",
        "P_UNIT_SHOP_ID": "125",
        "ZnJH80Dc": "1",
        "ND02HhRV": "218",
        "TRGD9o01": "1",
        "0I3i2TMg": "75",
        "1gDkL6XR": "set_20180516_01.png,set_20180409_light.png",
        "P_REWARD_INFO": "",
        "P_EXT_IMG_PARAM": "\u30bb\u30c3\u30c8\u5272\u3067\u3059",
        "P_PRIORITY": "3",
        "P_SCHEDULE_ID": "50053",
        "P_CREATEDATE": "2018-11-09 13:26:42",
        "P_UPDATEDATE": "2018-11-09 13:26:42"
    },
    {
        "0P4KLAhs": "223",
        "n9cJH6Mz": "\u4eba\u578b\u6383\u8a0e\u5175\u5668",
        "P_UNIT_SHOP_ID": "125",
        "ZnJH80Dc": "1",
        "ND02HhRV": "219",
        "TRGD9o01": "1",
        "0I3i2TMg": "45",
        "1gDkL6XR": "set_20180516_02.png,set_20180409_light.png",
        "P_REWARD_INFO": "",
        "P_EXT_IMG_PARAM": "\u30bb\u30c3\u30c8\u5272\u3067\u3059",
        "P_PRIORITY": "2",
        "P_SCHEDULE_ID": "50053",
        "P_CREATEDATE": "2018-11-09 13:26:42",
        "P_UPDATEDATE": "2018-11-09 13:26:42"
    },
    {
        "0P4KLAhs": "224",
        "n9cJH6Mz": "\u9b54\u88c5\u5175\u5668\u30a2\u30d9\u30eb\u30ac\u30eb\u30b9",
        "P_UNIT_SHOP_ID": "126",
        "ZnJH80Dc": "1",
        "ND02HhRV": "220",
        "TRGD9o01": "1",
        "0I3i2TMg": "45",
        "1gDkL6XR": "",
        "P_REWARD_INFO": "",
        "P_EXT_IMG_PARAM": "\u30bb\u30c3\u30c8\u5272\u3067\u3059",
        "P_PRIORITY": "2",
        "P_SCHEDULE_ID": "50056",
        "P_CREATEDATE": "2018-11-09 13:26:42",
        "P_UPDATEDATE": "2018-11-09 13:26:42"
    },
    {
        "0P4KLAhs": "225",
        "n9cJH6Mz": "\u9b54\u88c5\u5175\u5668\u30a2\u30d9\u30eb\u30ac\u30eb\u30b9",
        "P_UNIT_SHOP_ID": "127",
        "ZnJH80Dc": "1",
        "ND02HhRV": "220",
        "TRGD9o01": "2",
        "0I3i2TMg": "0",
        "1gDkL6XR": "",
        "P_REWARD_INFO": "",
        "P_EXT_IMG_PARAM": "\u5358\u4f53\u30d4\u30c3\u30af\u30a2\u30c3\u30d7",
        "P_PRIORITY": "2",
        "P_SCHEDULE_ID": "50056",
        "P_CREATEDATE": "2018-11-09 13:26:42",
        "P_UPDATEDATE": "2018-11-09 13:26:42"
    },
    {
        "0P4KLAhs": "226",
        "n9cJH6Mz": "\u53cd\u9006\u306e\u516d\u795e\u5f92",
        "P_UNIT_SHOP_ID": "128",
        "ZnJH80Dc": "1",
        "ND02HhRV": "221",
        "TRGD9o01": "2",
        "0I3i2TMg": "0",
        "1gDkL6XR": "",
        "P_REWARD_INFO": "",
        "P_EXT_IMG_PARAM": "\u5358\u4f53\u30d4\u30c3\u30af\u30a2\u30c3\u30d7",
        "P_PRIORITY": "1",
        "P_SCHEDULE_ID": "50056",
        "P_CREATEDATE": "2018-11-09 13:26:42",
        "P_UPDATEDATE": "2018-11-09 13:26:42"
    },
    {
        "0P4KLAhs": "227",
        "n9cJH6Mz": "\u521d\u4ee3\u30e9\u30f3\u30c9\u30fc\u30eb\u30ac\u30fc\u30c9",
        "P_UNIT_SHOP_ID": "129",
        "ZnJH80Dc": "1",
        "ND02HhRV": "222",
        "TRGD9o01": "2",
        "0I3i2TMg": "0",
        "1gDkL6XR": "",
        "P_REWARD_INFO": "",
        "P_EXT_IMG_PARAM": "\u5358\u4f53\u30d4\u30c3\u30af\u30a2\u30c3\u30d7",
        "P_PRIORITY": "1",
        "P_SCHEDULE_ID": "50068",
        "P_CREATEDATE": "2018-11-09 13:26:42",
        "P_UPDATEDATE": "2018-11-09 13:26:42"
    },
    {
        "0P4KLAhs": "228",
        "n9cJH6Mz": "\u30cb\u30fc\u30ca\u30d4\u30c3\u30af\u30a2\u30c3\u30d7",
        "P_UNIT_SHOP_ID": "130",
        "ZnJH80Dc": "1",
        "ND02HhRV": "223",
        "TRGD9o01": "2",
        "0I3i2TMg": "0",
        "1gDkL6XR": "",
        "P_REWARD_INFO": "",
        "P_EXT_IMG_PARAM": "\u5358\u4f53\u30d4\u30c3\u30af\u30a2\u30c3\u30d7",
        "P_PRIORITY": "1",
        "P_SCHEDULE_ID": "50068",
        "P_CREATEDATE": "2018-11-09 13:26:42",
        "P_UPDATEDATE": "2018-11-09 13:26:42"
    },
    {
        "0P4KLAhs": "229",
        "n9cJH6Mz": "\u30d4\u30c3\u30af\u30a2\u30c3\u30d7\u708e\u30fb\u6a39\u30fb\u5149",
        "P_UNIT_SHOP_ID": "131",
        "ZnJH80Dc": "1",
        "ND02HhRV": "224",
        "TRGD9o01": "2",
        "0I3i2TMg": "0",
        "1gDkL6XR": "",
        "P_REWARD_INFO": "",
        "P_EXT_IMG_PARAM": "\u5358\u4f53\u30d4\u30c3\u30af\u30a2\u30c3\u30d7",
        "P_PRIORITY": "1",
        "P_SCHEDULE_ID": "50073",
        "P_CREATEDATE": "2018-11-09 13:26:42",
        "P_UPDATEDATE": "2018-11-09 13:26:42"
    },
    {
        "0P4KLAhs": "230",
        "n9cJH6Mz": "\u30d4\u30c3\u30af\u30a2\u30c3\u30d7\u6c34\u30fb\u96f7\u30fb\u95c7",
        "P_UNIT_SHOP_ID": "132",
        "ZnJH80Dc": "1",
        "ND02HhRV": "225",
        "TRGD9o01": "2",
        "0I3i2TMg": "0",
        "1gDkL6XR": "",
        "P_REWARD_INFO": "",
        "P_EXT_IMG_PARAM": "\u5358\u4f53\u30d4\u30c3\u30af\u30a2\u30c3\u30d7",
        "P_PRIORITY": "1",
        "P_SCHEDULE_ID": "50073",
        "P_CREATEDATE": "2018-11-09 13:26:42",
        "P_UPDATEDATE": "2018-11-09 13:26:42"
    },
    {
        "0P4KLAhs": "231",
        "n9cJH6Mz": "\u5fcd\u3073\u5bc4\u308b\u60aa\u610f",
        "P_UNIT_SHOP_ID": "133",
        "ZnJH80Dc": "1",
        "ND02HhRV": "226",
        "TRGD9o01": "1",
        "0I3i2TMg": "90",
        "1gDkL6XR": "",
        "P_REWARD_INFO": "",
        "P_EXT_IMG_PARAM": "\u30bb\u30c3\u30c8\u5272\u3067\u3059",
        "P_PRIORITY": "1",
        "P_SCHEDULE_ID": "50073",
        "P_CREATEDATE": "2018-11-09 13:26:42",
        "P_UPDATEDATE": "2018-11-09 13:26:42"
    },
    {
        "0P4KLAhs": "232",
        "n9cJH6Mz": "\u30d5\u30a7\u30d6\u30e9\u30fc\u5144\u5f1f\u3068\u7cbe\u970a\u306e\u672c",
        "P_UNIT_SHOP_ID": "134",
        "ZnJH80Dc": "1",
        "ND02HhRV": "227",
        "TRGD9o01": "1",
        "0I3i2TMg": "75",
        "1gDkL6XR": "",
        "P_REWARD_INFO": "",
        "P_EXT_IMG_PARAM": "\u30bb\u30c3\u30c8\u5272\u3067\u3059",
        "P_PRIORITY": "1",
        "P_SCHEDULE_ID": "50079",
        "P_CREATEDATE": "2018-11-09 13:26:42",
        "P_UPDATEDATE": "2018-11-09 13:26:42"
    },
    {
        "0P4KLAhs": "233",
        "n9cJH6Mz": "\u30d5\u30a7\u30d6\u30e9\u30fc\u5144\u5f1f\u3068\u7cbe\u970a\u306e\u672c",
        "P_UNIT_SHOP_ID": "135",
        "ZnJH80Dc": "1",
        "ND02HhRV": "228",
        "TRGD9o01": "2",
        "0I3i2TMg": "0",
        "1gDkL6XR": "",
        "P_REWARD_INFO": "",
        "P_EXT_IMG_PARAM": "\u5358\u4f53\u30d4\u30c3\u30af\u30a2\u30c3\u30d7",
        "P_PRIORITY": "1",
        "P_SCHEDULE_ID": "50079",
        "P_CREATEDATE": "2018-11-09 13:26:42",
        "P_UPDATEDATE": "2018-11-09 13:26:42"
    },
    {
        "0P4KLAhs": "234",
        "n9cJH6Mz": "\u5927\u795e\u7687\u795e\u885b\u4f7f\u30e1\u30a4\u30ea\u30b9",
        "P_UNIT_SHOP_ID": "136",
        "ZnJH80Dc": "1",
        "ND02HhRV": "229",
        "TRGD9o01": "2",
        "0I3i2TMg": "0",
        "1gDkL6XR": "",
        "P_REWARD_INFO": "",
        "P_EXT_IMG_PARAM": "\u5358\u4f53\u30d4\u30c3\u30af\u30a2\u30c3\u30d7",
        "P_PRIORITY": "1",
        "P_SCHEDULE_ID": "50094",
        "P_CREATEDATE": "2018-11-09 13:26:42",
        "P_UPDATEDATE": "2018-11-09 13:26:42"
    },
    {
        "0P4KLAhs": "235",
        "n9cJH6Mz": "\u30cd\u30fb\u30ab\u30a6\u30d4\u30c3\u30af\u30a2\u30c3\u30d7",
        "P_UNIT_SHOP_ID": "137",
        "ZnJH80Dc": "1",
        "ND02HhRV": "230",
        "TRGD9o01": "2",
        "0I3i2TMg": "0",
        "1gDkL6XR": "",
        "P_REWARD_INFO": "",
        "P_EXT_IMG_PARAM": "\u5358\u4f53\u30d4\u30c3\u30af\u30a2\u30c3\u30d7",
        "P_PRIORITY": "1",
        "P_SCHEDULE_ID": "50094",
        "P_CREATEDATE": "2018-11-09 13:26:42",
        "P_UPDATEDATE": "2018-11-09 13:26:42"
    },
    {
        "0P4KLAhs": "236",
        "n9cJH6Mz": "\u5927\u795e\u7687\u795e\u885b\u4f7f\u30e1\u30a4\u30ea\u30b9",
        "P_UNIT_SHOP_ID": "138",
        "ZnJH80Dc": "1",
        "ND02HhRV": "231",
        "TRGD9o01": "2",
        "0I3i2TMg": "0",
        "1gDkL6XR": "",
        "P_REWARD_INFO": "",
        "P_EXT_IMG_PARAM": "\u5358\u4f53\u30d4\u30c3\u30af\u30a2\u30c3\u30d7",
        "P_PRIORITY": "1",
        "P_SCHEDULE_ID": "50108",
        "P_CREATEDATE": "2018-11-09 13:26:42",
        "P_UPDATEDATE": "2018-11-09 13:26:42"
    },
    {
        "0P4KLAhs": "237",
        "n9cJH6Mz": "\u30d5\u30a7\u30d6\u30e9\u30fc\u5144\u5f1f\u3068\u7cbe\u970a\u306e\u672c",
        "P_UNIT_SHOP_ID": "139",
        "ZnJH80Dc": "1",
        "ND02HhRV": "232",
        "TRGD9o01": "1",
        "0I3i2TMg": "75",
        "1gDkL6XR": "",
        "P_REWARD_INFO": "",
        "P_EXT_IMG_PARAM": "\u30bb\u30c3\u30c8\u5272\u3067\u3059",
        "P_PRIORITY": "1",
        "P_SCHEDULE_ID": "50108",
        "P_CREATEDATE": "2018-11-09 13:26:42",
        "P_UPDATEDATE": "2018-11-09 13:26:42"
    },
    {
        "0P4KLAhs": "238",
        "n9cJH6Mz": "\u30d5\u30a7\u30d6\u30e9\u30fc\u5144\u5f1f\u3068\u7cbe\u970a\u306e\u672c",
        "P_UNIT_SHOP_ID": "140",
        "ZnJH80Dc": "1",
        "ND02HhRV": "232",
        "TRGD9o01": "2",
        "0I3i2TMg": "0",
        "1gDkL6XR": "",
        "P_REWARD_INFO": "",
        "P_EXT_IMG_PARAM": "\u5358\u4f53\u30d4\u30c3\u30af\u30a2\u30c3\u30d7",
        "P_PRIORITY": "1",
        "P_SCHEDULE_ID": "50108",
        "P_CREATEDATE": "2018-11-09 13:26:42",
        "P_UPDATEDATE": "2018-11-09 13:26:42"
    },
    {
        "0P4KLAhs": "239",
        "n9cJH6Mz": "\u30b9\u30bf\u30fc\u30fb\u30a6\u30a9\u30fc\u30ba",
        "P_UNIT_SHOP_ID": "141",
        "ZnJH80Dc": "1",
        "ND02HhRV": "233",
        "TRGD9o01": "3",
        "0I3i2TMg": "100",
        "1gDkL6XR": "",
        "P_REWARD_INFO": "",
        "P_EXT_IMG_PARAM": "\u30bb\u30c3\u30c8\u5272\u3067\u3059",
        "P_PRIORITY": "1",
        "P_SCHEDULE_ID": "50109",
        "P_CREATEDATE": "2018-11-09 13:26:42",
        "P_UPDATEDATE": "2018-11-09 13:26:42"
    },
    {
        "0P4KLAhs": "240",
        "n9cJH6Mz": "\u30b9\u30bf\u30fc\u30fb\u30a6\u30a9\u30fc\u30ba",
        "P_UNIT_SHOP_ID": "142",
        "ZnJH80Dc": "1",
        "ND02HhRV": "233",
        "TRGD9o01": "3",
        "0I3i2TMg": "0",
        "1gDkL6XR": "",
        "P_REWARD_INFO": "",
        "P_EXT_IMG_PARAM": "\u5358\u4f53\u30d4\u30c3\u30af\u30a2\u30c3\u30d7",
        "P_PRIORITY": "1",
        "P_SCHEDULE_ID": "50109",
        "P_CREATEDATE": "2018-11-09 13:26:42",
        "P_UPDATEDATE": "2018-11-09 13:26:42"
    },
    {
        "0P4KLAhs": "241",
        "n9cJH6Mz": "\u5341\u5fcc\u30c7\u30a3\u30b9\u30ce\u30df\u30a2",
        "P_UNIT_SHOP_ID": "143",
        "ZnJH80Dc": "1",
        "ND02HhRV": "234",
        "TRGD9o01": "2",
        "0I3i2TMg": "0",
        "1gDkL6XR": "",
        "P_REWARD_INFO": "",
        "P_EXT_IMG_PARAM": "\u5358\u4f53\u30d4\u30c3\u30af\u30a2\u30c3\u30d7",
        "P_PRIORITY": "2",
        "P_SCHEDULE_ID": "50112",
        "P_CREATEDATE": "2018-11-09 13:26:42",
        "P_UPDATEDATE": "2018-11-09 13:26:42"
    },
    {
        "0P4KLAhs": "242",
        "n9cJH6Mz": "\u30a4\u30f2\u30ea\u30d4\u30c3\u30af\u30a2\u30c3\u30d7",
        "P_UNIT_SHOP_ID": "144",
        "ZnJH80Dc": "1",
        "ND02HhRV": "235",
        "TRGD9o01": "2",
        "0I3i2TMg": "0",
        "1gDkL6XR": "",
        "P_REWARD_INFO": "",
        "P_EXT_IMG_PARAM": "\u5358\u4f53\u30d4\u30c3\u30af\u30a2\u30c3\u30d7",
        "P_PRIORITY": "1",
        "P_SCHEDULE_ID": "50112",
        "P_CREATEDATE": "2018-11-09 13:26:42",
        "P_UPDATEDATE": "2018-11-09 13:26:42"
    },
    {
        "0P4KLAhs": "243",
        "n9cJH6Mz": "\u52c7\u8005\u306e\u8840\u7d71",
        "P_UNIT_SHOP_ID": "145",
        "ZnJH80Dc": "1",
        "ND02HhRV": "236",
        "TRGD9o01": "1",
        "0I3i2TMg": "90",
        "1gDkL6XR": "",
        "P_REWARD_INFO": "",
        "P_EXT_IMG_PARAM": "\u30bb\u30c3\u30c8\u5272\u3067\u3059",
        "P_PRIORITY": "3",
        "P_SCHEDULE_ID": "50115",
        "P_CREATEDATE": "2018-11-09 13:26:42",
        "P_UPDATEDATE": "2018-11-09 13:26:42"
    },
    {
        "0P4KLAhs": "244",
        "n9cJH6Mz": "\u7fa9\u8cca\u30bc\u30eb\u30ca\u30a4\u30c8\u3068\u98a8\u306e\u59eb\u541b",
        "P_UNIT_SHOP_ID": "146",
        "ZnJH80Dc": "1",
        "ND02HhRV": "237",
        "TRGD9o01": "2",
        "0I3i2TMg": "0",
        "1gDkL6XR": "",
        "P_REWARD_INFO": "",
        "P_EXT_IMG_PARAM": "\u5358\u4f53\u30d4\u30c3\u30af\u30a2\u30c3\u30d7",
        "P_PRIORITY": "1",
        "P_SCHEDULE_ID": "50130",
        "P_CREATEDATE": "2018-11-09 13:26:42",
        "P_UPDATEDATE": "2018-11-09 13:26:42"
    },
    {
        "0P4KLAhs": "245",
        "n9cJH6Mz": "\u30e6\u30fc\u30cb\u30a3\uff06\u30ec\u30ea\u30c3\u30af",
        "P_UNIT_SHOP_ID": "147",
        "ZnJH80Dc": "1",
        "ND02HhRV": "238",
        "TRGD9o01": "2",
        "0I3i2TMg": "0",
        "1gDkL6XR": "",
        "P_REWARD_INFO": "",
        "P_EXT_IMG_PARAM": "\u5358\u4f53\u30d4\u30c3\u30af\u30a2\u30c3\u30d7",
        "P_PRIORITY": "1",
        "P_SCHEDULE_ID": "50130",
        "P_CREATEDATE": "2018-11-09 13:26:42",
        "P_UPDATEDATE": "2018-11-09 13:26:42"
    },
    {
        "0P4KLAhs": "246",
        "n9cJH6Mz": "\u30c7\u30a3\u30b9\u30ce\u30df\u30a2\u306e\u72c2\u5bb4",
        "P_UNIT_SHOP_ID": "148",
        "ZnJH80Dc": "1",
        "ND02HhRV": "239",
        "TRGD9o01": "1",
        "0I3i2TMg": "30",
        "1gDkL6XR": "",
        "P_REWARD_INFO": "",
        "P_EXT_IMG_PARAM": "\u30bb\u30c3\u30c8\u5272\u3067\u3059",
        "P_PRIORITY": "1",
        "P_SCHEDULE_ID": "50144",
        "P_CREATEDATE": "2018-11-09 13:26:42",
        "P_UPDATEDATE": "2018-11-09 13:26:42"
    },
    {
        "0P4KLAhs": "248",
        "n9cJH6Mz": "\u73b2\u7109\u306e\u5927\u5929\u51a5\u8853",
        "P_UNIT_SHOP_ID": "149",
        "ZnJH80Dc": "1",
        "ND02HhRV": "240",
        "TRGD9o01": "1",
        "0I3i2TMg": "30",
        "1gDkL6XR": "set_20180913_02.png,set_20180409_light.png",
        "P_REWARD_INFO": "",
        "P_EXT_IMG_PARAM": "\u30bb\u30c3\u30c8\u5272\u3067\u3059",
        "P_PRIORITY": "3",
        "P_SCHEDULE_ID": "50144",
        "P_CREATEDATE": "2018-11-09 13:26:42",
        "P_UPDATEDATE": "2018-11-09 13:26:42"
    },
    {
        "0P4KLAhs": "249",
        "n9cJH6Mz": "\u97ff\u60f3\u306e\u30b5\u30f3\u30af\u30c6\u30a3\u30a2",
        "P_UNIT_SHOP_ID": "149",
        "ZnJH80Dc": "1",
        "ND02HhRV": "241",
        "TRGD9o01": "1",
        "0I3i2TMg": "45",
        "1gDkL6XR": "set_20180913_01.png,set_20180409_light.png",
        "P_REWARD_INFO": "",
        "P_EXT_IMG_PARAM": "\u30bb\u30c3\u30c8\u5272\u3067\u3059",
        "P_PRIORITY": "2",
        "P_SCHEDULE_ID": "50144",
        "P_CREATEDATE": "2018-11-09 13:26:42",
        "P_UPDATEDATE": "2018-11-09 13:26:42"
    },
    {
        "0P4KLAhs": "250",
        "n9cJH6Mz": "\u9b54\u88c5\u5175\u5668\u30a2\u30d9\u30eb\u30ac\u30eb\u30b9",
        "P_UNIT_SHOP_ID": "149",
        "ZnJH80Dc": "1",
        "ND02HhRV": "242",
        "TRGD9o01": "1",
        "0I3i2TMg": "45",
        "1gDkL6XR": "set_20180913_03.png,set_20180409_light.png",
        "P_REWARD_INFO": "",
        "P_EXT_IMG_PARAM": "\u30bb\u30c3\u30c8\u5272\u3067\u3059",
        "P_PRIORITY": "1",
        "P_SCHEDULE_ID": "50144",
        "P_CREATEDATE": "2018-11-09 13:26:42",
        "P_UPDATEDATE": "2018-11-09 13:26:42"
    },
    {
        "0P4KLAhs": "251",
        "n9cJH6Mz": "\u7a62\u308c\u3057\u4e94\u5fcd",
        "P_UNIT_SHOP_ID": "150",
        "ZnJH80Dc": "1",
        "ND02HhRV": "243",
        "TRGD9o01": "2",
        "0I3i2TMg": "0",
        "1gDkL6XR": "",
        "P_REWARD_INFO": "",
        "P_EXT_IMG_PARAM": "\u5358\u4f53\u30d4\u30c3\u30af\u30a2\u30c3\u30d7",
        "P_PRIORITY": "1",
        "P_SCHEDULE_ID": "50147",
        "P_CREATEDATE": "2018-11-09 13:26:42",
        "P_UPDATEDATE": "2018-11-09 13:26:42"
    },
    {
        "0P4KLAhs": "252",
        "n9cJH6Mz": "\u30d0\u30ea\u30a6\u30e9\u7687\u5973",
        "P_UNIT_SHOP_ID": "151",
        "ZnJH80Dc": "1",
        "ND02HhRV": "244",
        "TRGD9o01": "2",
        "0I3i2TMg": "0",
        "1gDkL6XR": "",
        "P_REWARD_INFO": "",
        "P_EXT_IMG_PARAM": "\u5358\u4f53\u30d4\u30c3\u30af\u30a2\u30c3\u30d7",
        "P_PRIORITY": "1",
        "P_SCHEDULE_ID": "50158",
        "P_CREATEDATE": "2018-11-09 13:26:42",
        "P_UPDATEDATE": "2018-11-09 13:26:42"
    },
    {
        "0P4KLAhs": "253",
        "n9cJH6Mz": "\u30d4\u30c3\u30af\u30a2\u30c3\u30d7\u203b\u708e\u3001\u6a39\u3001\u5149",
        "P_UNIT_SHOP_ID": "152",
        "ZnJH80Dc": "1",
        "ND02HhRV": "245",
        "TRGD9o01": "2",
        "0I3i2TMg": "0",
        "1gDkL6XR": "",
        "P_REWARD_INFO": "",
        "P_EXT_IMG_PARAM": "\u5358\u4f53\u30d4\u30c3\u30af\u30a2\u30c3\u30d7",
        "P_PRIORITY": "1",
        "P_SCHEDULE_ID": "50160",
        "P_CREATEDATE": "2018-11-09 13:26:42",
        "P_UPDATEDATE": "2018-11-09 13:26:42"
    },
    {
        "0P4KLAhs": "254",
        "n9cJH6Mz": "\u30d4\u30c3\u30af\u30a2\u30c3\u30d7\u203b\u6c34 \u3001\u96f7\u3001\u95c7",
        "P_UNIT_SHOP_ID": "153",
        "ZnJH80Dc": "1",
        "ND02HhRV": "246",
        "TRGD9o01": "2",
        "0I3i2TMg": "0",
        "1gDkL6XR": "",
        "P_REWARD_INFO": "",
        "P_EXT_IMG_PARAM": "\u5358\u4f53\u30d4\u30c3\u30af\u30a2\u30c3\u30d7",
        "P_PRIORITY": "1",
        "P_SCHEDULE_ID": "50161",
        "P_CREATEDATE": "2018-11-09 13:26:42",
        "P_UPDATEDATE": "2018-11-09 13:26:42"
    },
    {
        "0P4KLAhs": "255",
        "n9cJH6Mz": "\u8352\u91ce\u30b7\u30ea\u30fc\u30ba",
        "P_UNIT_SHOP_ID": "154",
        "ZnJH80Dc": "1",
        "ND02HhRV": "247",
        "TRGD9o01": "2",
        "0I3i2TMg": "0",
        "1gDkL6XR": "",
        "P_REWARD_INFO": "",
        "P_EXT_IMG_PARAM": "\u5358\u4f53\u30d4\u30c3\u30af\u30a2\u30c3\u30d7",
        "P_PRIORITY": "1",
        "P_SCHEDULE_ID": "300001",
        "P_CREATEDATE": "2018-11-09 13:26:42",
        "P_UPDATEDATE": "2018-11-09 13:26:42"
    },
    {
        "0P4KLAhs": "256",
        "n9cJH6Mz": "\u5148\u9063\u968a\u30b7\u30ea\u30fc\u30ba",
        "P_UNIT_SHOP_ID": "155",
        "ZnJH80Dc": "1",
        "ND02HhRV": "248",
        "TRGD9o01": "2",
        "0I3i2TMg": "0",
        "1gDkL6XR": "",
        "P_REWARD_INFO": "",
        "P_EXT_IMG_PARAM": "\u5358\u4f53\u30d4\u30c3\u30af\u30a2\u30c3\u30d7",
        "P_PRIORITY": "1",
        "P_SCHEDULE_ID": "300005",
        "P_CREATEDATE": "2018-11-09 13:26:42",
        "P_UPDATEDATE": "2018-11-09 13:26:42"
    },
    {
        "0P4KLAhs": "2000",
        "n9cJH6Mz": "\u5168\u30e6\u30cb\u30c3\u30c8\u304b\u3089\u63a2\u3059",
        "P_UNIT_SHOP_ID": "10000",
        "ZnJH80Dc": "1",
        "ND02HhRV": "10000",
        "TRGD9o01": "1",
        "0I3i2TMg": "0",
        "1gDkL6XR": "all.png,all_light.png",
        "P_REWARD_INFO": "",
        "P_EXT_IMG_PARAM": "\u5168\u30e6\u30cb\u30c3\u30c8\u3067\u3059",
        "P_PRIORITY": "1",
        "P_SCHEDULE_ID": "0",
        "P_CREATEDATE": "2018-11-09 13:26:42",
        "P_UPDATEDATE": "2018-11-09 13:26:42"
    },
    {
        "0P4KLAhs": "2001",
        "n9cJH6Mz": "\u5168\u30e6\u30cb\u30c3\u30c8\u304b\u3089\u63a2\u3059",
        "P_UNIT_SHOP_ID": "10001",
        "ZnJH80Dc": "1",
        "ND02HhRV": "10001",
        "TRGD9o01": "1",
        "0I3i2TMg": "0",
        "1gDkL6XR": "all.png,all_light.png",
        "P_REWARD_INFO": "",
        "P_EXT_IMG_PARAM": "\u5168\u30e6\u30cb\u30c3\u30c8\u3067\u3059",
        "P_PRIORITY": "1",
        "P_SCHEDULE_ID": "0",
        "P_CREATEDATE": "2018-11-09 13:26:42",
        "P_UPDATEDATE": "2018-11-09 13:26:42"
    },
    {
        "0P4KLAhs": "2002",
        "n9cJH6Mz": "\u5168\u30e6\u30cb\u30c3\u30c8\u304b\u3089\u63a2\u3059",
        "P_UNIT_SHOP_ID": "10002",
        "ZnJH80Dc": "1",
        "ND02HhRV": "10000",
        "TRGD9o01": "2",
        "0I3i2TMg": "0",
        "1gDkL6XR": "all.png,all_light.png",
        "P_REWARD_INFO": "",
        "P_EXT_IMG_PARAM": "5\u5468\u5e74\u7528\u5168\u30e6\u30cb\u30c3\u30c8\u3067\u3059",
        "P_PRIORITY": "1",
        "P_SCHEDULE_ID": "50093",
        "P_CREATEDATE": "2018-11-09 13:26:42",
        "P_UPDATEDATE": "2018-11-09 13:26:42"
    },
    {
        "0P4KLAhs": "2003",
        "n9cJH6Mz": "\u5168\u30e6\u30cb\u30c3\u30c8\u304b\u3089\u63a2\u3059",
        "P_UNIT_SHOP_ID": "10003",
        "ZnJH80Dc": "1",
        "ND02HhRV": "10000",
        "TRGD9o01": "2",
        "0I3i2TMg": "0",
        "1gDkL6XR": "all.png,all_light.png",
        "P_REWARD_INFO": "",
        "P_EXT_IMG_PARAM": "5\u5468\u5e74\u7528\u5168\u30e6\u30cb\u30c3\u30c8\u3067\u3059",
        "P_PRIORITY": "1",
        "P_SCHEDULE_ID": "50115",
        "P_CREATEDATE": "2018-11-09 13:26:42",
        "P_UPDATEDATE": "2018-11-09 13:26:42"
    }
]