[
    {
        "0P4KLAhs": "103",
        "n9cJH6Mz": "\u4eba\u578b\u6383\u8a0e\u5175\u5668",
        "P_UNIT_SHOP_ID": "100",
        "ZnJH80Dc": "1",
        "ND02HhRV": "103",
        "TRGD9o01": "1",
        "0I3i2TMg": "45",
        "1gDkL6XR": "set_20180222_03.png,set_light.png",
        "P_REWARD_INFO": "",
        "P_EXT_IMG_PARAM": "\u30bb\u30c3\u30c8\u5272\u3067\u3059",
        "P_PRIORITY": "1",
        "P_SCHEDULE_ID": "50003",
        "P_CREATEDATE": "2018-03-26 13:52:21",
        "P_UPDATEDATE": "2018-03-26 13:52:21"
    },
    {
        "0P4KLAhs": "106",
        "n9cJH6Mz": "\u5fcd\u3073\u5bc4\u308b\u60aa\u610f",
        "P_UNIT_SHOP_ID": "100",
        "ZnJH80Dc": "1",
        "ND02HhRV": "106",
        "TRGD9o01": "1",
        "0I3i2TMg": "90",
        "1gDkL6XR": "set_20180308_01.png,set_light.png",
        "P_REWARD_INFO": "",
        "P_EXT_IMG_PARAM": "\u30bb\u30c3\u30c8\u5272\u3067\u3059",
        "P_PRIORITY": "3",
        "P_SCHEDULE_ID": "50003",
        "P_CREATEDATE": "2018-03-26 13:52:21",
        "P_UPDATEDATE": "2018-03-26 13:52:21"
    },
    {
        "0P4KLAhs": "107",
        "n9cJH6Mz": "\u8056\u53e1\u306a\u308b\u9858\u3044",
        "P_UNIT_SHOP_ID": "100",
        "ZnJH80Dc": "1",
        "ND02HhRV": "107",
        "TRGD9o01": "1",
        "0I3i2TMg": "30",
        "1gDkL6XR": "set_20180308_02.png,set_light.png",
        "P_REWARD_INFO": "",
        "P_EXT_IMG_PARAM": "\u30bb\u30c3\u30c8\u5272\u3067\u3059",
        "P_PRIORITY": "2",
        "P_SCHEDULE_ID": "50003",
        "P_CREATEDATE": "2018-03-26 13:52:21",
        "P_UPDATEDATE": "2018-03-26 13:52:21"
    },
    {
        "0P4KLAhs": "108",
        "n9cJH6Mz": "\u65e5\u66ff\u308f\u308a\u30d4\u30c3\u30af\u30a2\u30c3\u30d7\u708e",
        "P_UNIT_SHOP_ID": "101",
        "ZnJH80Dc": "1",
        "ND02HhRV": "108",
        "TRGD9o01": "2",
        "0I3i2TMg": "0",
        "1gDkL6XR": "set_20180315_01.png,set_light.png",
        "P_REWARD_INFO": "",
        "P_EXT_IMG_PARAM": "\u5358\u4f53\u30d4\u30c3\u30af\u30a2\u30c3\u30d7",
        "P_PRIORITY": "1",
        "P_SCHEDULE_ID": "50006",
        "P_CREATEDATE": "2018-03-26 13:52:21",
        "P_UPDATEDATE": "2018-03-26 13:52:21"
    },
    {
        "0P4KLAhs": "109",
        "n9cJH6Mz": "\u65e5\u66ff\u308f\u308a\u30d4\u30c3\u30af\u30a2\u30c3\u30d7\u6c34",
        "P_UNIT_SHOP_ID": "102",
        "ZnJH80Dc": "1",
        "ND02HhRV": "109",
        "TRGD9o01": "2",
        "0I3i2TMg": "0",
        "1gDkL6XR": "set_20180316_01.png,set_light.png",
        "P_REWARD_INFO": "",
        "P_EXT_IMG_PARAM": "\u5358\u4f53\u30d4\u30c3\u30af\u30a2\u30c3\u30d7",
        "P_PRIORITY": "1",
        "P_SCHEDULE_ID": "50007",
        "P_CREATEDATE": "2018-03-26 13:52:21",
        "P_UPDATEDATE": "2018-03-26 13:52:21"
    },
    {
        "0P4KLAhs": "110",
        "n9cJH6Mz": "\u65e5\u66ff\u308f\u308a\u30d4\u30c3\u30af\u30a2\u30c3\u30d7\u6a39",
        "P_UNIT_SHOP_ID": "103",
        "ZnJH80Dc": "1",
        "ND02HhRV": "110",
        "TRGD9o01": "2",
        "0I3i2TMg": "0",
        "1gDkL6XR": "set_20180317_01.png,set_light.png",
        "P_REWARD_INFO": "",
        "P_EXT_IMG_PARAM": "\u5358\u4f53\u30d4\u30c3\u30af\u30a2\u30c3\u30d7",
        "P_PRIORITY": "1",
        "P_SCHEDULE_ID": "50008",
        "P_CREATEDATE": "2018-03-26 13:52:21",
        "P_UPDATEDATE": "2018-03-26 13:52:21"
    },
    {
        "0P4KLAhs": "111",
        "n9cJH6Mz": "\u65e5\u66ff\u308f\u308a\u30d4\u30c3\u30af\u30a2\u30c3\u30d7\u96f7",
        "P_UNIT_SHOP_ID": "104",
        "ZnJH80Dc": "1",
        "ND02HhRV": "111",
        "TRGD9o01": "2",
        "0I3i2TMg": "0",
        "1gDkL6XR": "set_20180318_01.png,set_light.png",
        "P_REWARD_INFO": "",
        "P_EXT_IMG_PARAM": "\u5358\u4f53\u30d4\u30c3\u30af\u30a2\u30c3\u30d7",
        "P_PRIORITY": "1",
        "P_SCHEDULE_ID": "50009",
        "P_CREATEDATE": "2018-03-26 13:52:21",
        "P_UPDATEDATE": "2018-03-26 13:52:21"
    },
    {
        "0P4KLAhs": "112",
        "n9cJH6Mz": "\u65e5\u66ff\u308f\u308a\u30d4\u30c3\u30af\u30a2\u30c3\u30d7\u5149",
        "P_UNIT_SHOP_ID": "105",
        "ZnJH80Dc": "1",
        "ND02HhRV": "112",
        "TRGD9o01": "2",
        "0I3i2TMg": "0",
        "1gDkL6XR": "set_20180319_01.png,set_light.png",
        "P_REWARD_INFO": "",
        "P_EXT_IMG_PARAM": "\u5358\u4f53\u30d4\u30c3\u30af\u30a2\u30c3\u30d7",
        "P_PRIORITY": "1",
        "P_SCHEDULE_ID": "50010",
        "P_CREATEDATE": "2018-03-26 13:52:21",
        "P_UPDATEDATE": "2018-03-26 13:52:21"
    },
    {
        "0P4KLAhs": "113",
        "n9cJH6Mz": "\u65e5\u66ff\u308f\u308a\u30d4\u30c3\u30af\u30a2\u30c3\u30d7\u95c7",
        "P_UNIT_SHOP_ID": "106",
        "ZnJH80Dc": "1",
        "ND02HhRV": "113",
        "TRGD9o01": "2",
        "0I3i2TMg": "0",
        "1gDkL6XR": "set_20180320_01.png,set_light.png",
        "P_REWARD_INFO": "",
        "P_EXT_IMG_PARAM": "\u5358\u4f53\u30d4\u30c3\u30af\u30a2\u30c3\u30d7",
        "P_PRIORITY": "1",
        "P_SCHEDULE_ID": "50011",
        "P_CREATEDATE": "2018-03-26 13:52:21",
        "P_UPDATEDATE": "2018-03-26 13:52:21"
    },
    {
        "0P4KLAhs": "201",
        "n9cJH6Mz": "\u30d1\u30eb\u30df\u30ca\u306e\u56db\u6226\u58eb",
        "P_UNIT_SHOP_ID": "107",
        "ZnJH80Dc": "1",
        "ND02HhRV": "201",
        "TRGD9o01": "1",
        "0I3i2TMg": "60",
        "1gDkL6XR": "set_20180321_0327_01.png,set_light.png",
        "P_REWARD_INFO": "",
        "P_EXT_IMG_PARAM": "\u30bb\u30c3\u30c8\u5272\u3067\u3059",
        "P_PRIORITY": "2",
        "P_SCHEDULE_ID": "50024",
        "P_CREATEDATE": "2018-03-26 13:52:21",
        "P_UPDATEDATE": "2018-03-26 13:52:21"
    },
    {
        "0P4KLAhs": "202",
        "n9cJH6Mz": "\u7687\u5b88\u306e\u5951\u8a93",
        "P_UNIT_SHOP_ID": "107",
        "ZnJH80Dc": "1",
        "ND02HhRV": "202",
        "TRGD9o01": "1",
        "0I3i2TMg": "30",
        "1gDkL6XR": "set_20180321_0327_02.png,set_light.png",
        "P_REWARD_INFO": "",
        "P_EXT_IMG_PARAM": "\u30bb\u30c3\u30c8\u5272\u3067\u3059",
        "P_PRIORITY": "1",
        "P_SCHEDULE_ID": "50024",
        "P_CREATEDATE": "2018-03-26 13:52:21",
        "P_UPDATEDATE": "2018-03-26 13:52:21"
    },
    {
        "0P4KLAhs": "203",
        "n9cJH6Mz": "\u5341\u7ffc\u306e\u7834\u58ca\u8005",
        "P_UNIT_SHOP_ID": "108",
        "ZnJH80Dc": "1",
        "ND02HhRV": "203",
        "TRGD9o01": "2",
        "0I3i2TMg": "0",
        "1gDkL6XR": "",
        "P_REWARD_INFO": "",
        "P_EXT_IMG_PARAM": "\u5358\u4f53\u30d4\u30c3\u30af\u30a2\u30c3\u30d7",
        "P_PRIORITY": "1",
        "P_SCHEDULE_ID": "50024",
        "P_CREATEDATE": "2018-03-26 13:52:21",
        "P_UPDATEDATE": "2018-03-26 13:52:21"
    },
    {
        "0P4KLAhs": "204",
        "n9cJH6Mz": "\u5341\u7ffc\u306e\u7834\u58ca\u8005",
        "P_UNIT_SHOP_ID": "109",
        "ZnJH80Dc": "1",
        "ND02HhRV": "203",
        "TRGD9o01": "2",
        "0I3i2TMg": "0",
        "1gDkL6XR": "",
        "P_REWARD_INFO": "",
        "P_EXT_IMG_PARAM": "\u5358\u4f53\u30d4\u30c3\u30af\u30a2\u30c3\u30d7",
        "P_PRIORITY": "1",
        "P_SCHEDULE_ID": "50015",
        "P_CREATEDATE": "2018-03-26 13:52:21",
        "P_UPDATEDATE": "2018-03-26 13:52:21"
    },
    {
        "0P4KLAhs": "2000",
        "n9cJH6Mz": "\u5168\u30e6\u30cb\u30c3\u30c8\u304b\u3089\u63a2\u3059",
        "P_UNIT_SHOP_ID": "10000",
        "ZnJH80Dc": "1",
        "ND02HhRV": "10000",
        "TRGD9o01": "1",
        "0I3i2TMg": "0",
        "1gDkL6XR": "all.png,all_light.png",
        "P_REWARD_INFO": "",
        "P_EXT_IMG_PARAM": "\u5168\u30e6\u30cb\u30c3\u30c8\u3067\u3059",
        "P_PRIORITY": "1",
        "P_SCHEDULE_ID": "0",
        "P_CREATEDATE": "2018-03-26 13:52:21",
        "P_UPDATEDATE": "2018-03-26 13:52:21"
    }
]