[
    {
        "0P4KLAhs": "101",
        "n9cJH6Mz": "\u30bb\u30c3\u30c8\u5272",
        "P_UNIT_SHOP_ID": "100",
        "ZnJH80Dc": "1",
        "ND02HhRV": "101",
        "TRGD9o01": "1",
        "0I3i2TMg": "30",
        "1gDkL6XR": "set_20171212.png,set_light.png",
        "P_REWARD_INFO": "",
        "P_EXT_IMG_PARAM": "\u30bb\u30c3\u30c8\u5272\u3067\u3059",
        "P_PRIORITY": "2",
        "P_SCHEDULE_ID": "0",
        "P_CREATEDATE": "2018-01-19 16:15:38",
        "P_UPDATEDATE": "2018-01-19 16:15:38"
    },
    {
        "0P4KLAhs": "102",
        "n9cJH6Mz": "\u30bb\u30c3\u30c8\u5272",
        "P_UNIT_SHOP_ID": "100",
        "ZnJH80Dc": "1",
        "ND02HhRV": "102",
        "TRGD9o01": "1",
        "0I3i2TMg": "45",
        "1gDkL6XR": "set_20171212.png,set_light.png",
        "P_REWARD_INFO": "",
        "P_EXT_IMG_PARAM": "\u30bb\u30c3\u30c8\u5272\u3067\u3059",
        "P_PRIORITY": "2",
        "P_SCHEDULE_ID": "0",
        "P_CREATEDATE": "2018-01-19 16:15:38",
        "P_UPDATEDATE": "2018-01-19 16:15:38"
    },
    {
        "0P4KLAhs": "103",
        "n9cJH6Mz": "\u30bb\u30c3\u30c8\u5272",
        "P_UNIT_SHOP_ID": "100",
        "ZnJH80Dc": "1",
        "ND02HhRV": "103",
        "TRGD9o01": "1",
        "0I3i2TMg": "90",
        "1gDkL6XR": "set_20171212.png,set_light.png",
        "P_REWARD_INFO": "",
        "P_EXT_IMG_PARAM": "\u30bb\u30c3\u30c8\u5272\u3067\u3059",
        "P_PRIORITY": "2",
        "P_SCHEDULE_ID": "0",
        "P_CREATEDATE": "2018-01-19 16:15:38",
        "P_UPDATEDATE": "2018-01-19 16:15:38"
    },
    {
        "0P4KLAhs": "2000",
        "n9cJH6Mz": "\u5168\u30e6\u30cb\u30c3\u30c8",
        "P_UNIT_SHOP_ID": "2000",
        "ZnJH80Dc": "1",
        "ND02HhRV": "2000",
        "TRGD9o01": "1",
        "0I3i2TMg": "0",
        "1gDkL6XR": "all.png,all_light.png",
        "P_REWARD_INFO": "",
        "P_EXT_IMG_PARAM": "\u5168\u30e6\u30cb\u30c3\u30c8\u3067\u3059",
        "P_PRIORITY": "3",
        "P_SCHEDULE_ID": "0",
        "P_CREATEDATE": "2018-01-19 16:15:38",
        "P_UPDATEDATE": "2018-01-19 16:15:38"
    },
    {
        "0P4KLAhs": "9999",
        "n9cJH6Mz": "\u30c7\u30d0\u30c3\u30b0\u7528",
        "P_UNIT_SHOP_ID": "9999",
        "ZnJH80Dc": "1",
        "ND02HhRV": "9999",
        "TRGD9o01": "999",
        "0I3i2TMg": "0",
        "1gDkL6XR": "kizuna.png,kizuna_light.png",
        "P_REWARD_INFO": "",
        "P_EXT_IMG_PARAM": "\u30c7\u30d0\u30c3\u30b0\u7528\u3067\u3059",
        "P_PRIORITY": "4",
        "P_SCHEDULE_ID": "0",
        "P_CREATEDATE": "2018-01-19 16:15:38",
        "P_UPDATEDATE": "2018-01-19 16:15:38"
    }
]