[
    {
        "P_SOUND_ID": "1",
        "xIRA58fC": "\u51f1\u65cb",
        "P_SOUND_FILE": "BF2_001_ttl_top.acb",
        "P_DISPORDER": "1",
        "n8dwpcX0": "100",
        "P_EXT_IMG_PARAM": "ID\uff1a1\n\u30bf\u30a4\u30c8\u30eb\u3001\u30bb\u30eb\u30bf\u30d3\u30a2\u3001\u52c7\u58ee",
        "P_NEED_SWITCH_INFO": "",
        "P_OPEN_SWITCH_INFO": "",
        "P_CREATEDATE": "2018-01-26 23:38:42",
        "P_UPDATEDATE": "2018-01-26 23:38:42"
    },
    {
        "P_SOUND_ID": "2",
        "xIRA58fC": "\u203b\u30db\u30fc\u30e0\u753b\u9762\uff08\u4e3b\u4eba\u516c\uff09",
        "P_SOUND_FILE": "BF2_002_hom_hero.acb",
        "P_DISPORDER": "2",
        "n8dwpcX0": "100",
        "P_EXT_IMG_PARAM": "ID\uff1a2\n\u30db\u30fc\u30e0\u753b\u9762\uff08\u4e3b\u4eba\u516c\uff09",
        "P_NEED_SWITCH_INFO": "",
        "P_OPEN_SWITCH_INFO": "",
        "P_CREATEDATE": "2018-01-26 23:38:42",
        "P_UPDATEDATE": "2018-01-26 23:38:42"
    },
    {
        "P_SOUND_ID": "3",
        "xIRA58fC": "\u30da\u30c1\u30e5\u30cb\u30a2",
        "P_SOUND_FILE": "BF2_003_hom_heroine.acb",
        "P_DISPORDER": "3",
        "n8dwpcX0": "100",
        "P_EXT_IMG_PARAM": "ID\uff1a3\n\u30db\u30fc\u30e0\u753b\u9762\uff08\u30ea\u30f3\uff09",
        "P_NEED_SWITCH_INFO": "2000000",
        "P_OPEN_SWITCH_INFO": "",
        "P_CREATEDATE": "2018-01-26 23:38:42",
        "P_UPDATEDATE": "2018-01-26 23:38:42"
    },
    {
        "P_SOUND_ID": "4",
        "xIRA58fC": "\u4e8c\u3064\u306e\u6c7a\u610f",
        "P_SOUND_FILE": "BF2_004_hom_join.acb",
        "P_DISPORDER": "4",
        "n8dwpcX0": "100",
        "P_EXT_IMG_PARAM": "ID\uff1a4\n\u30db\u30fc\u30e0\u753b\u9762\uff08\u5408\u6d41\u5f8c\uff09",
        "P_NEED_SWITCH_INFO": "",
        "P_OPEN_SWITCH_INFO": "",
        "P_CREATEDATE": "2018-01-26 23:38:42",
        "P_UPDATEDATE": "2018-01-26 23:38:42"
    },
    {
        "P_SOUND_ID": "5",
        "xIRA58fC": "\u30a2\u30ea\u30fc\u30ca",
        "P_SOUND_FILE": "BF2_005_arn_top.acb",
        "P_DISPORDER": "5",
        "n8dwpcX0": "100",
        "P_EXT_IMG_PARAM": "ID\uff1a5\n\u30a2\u30ea\u30fc\u30ca",
        "P_NEED_SWITCH_INFO": "",
        "P_OPEN_SWITCH_INFO": "",
        "P_CREATEDATE": "2018-01-26 23:38:42",
        "P_UPDATEDATE": "2018-01-26 23:38:42"
    },
    {
        "P_SOUND_ID": "6",
        "xIRA58fC": "\u30b0\u30e9\u30f3\u30c9\u30b5\u30de\u30ca\u30fc",
        "P_SOUND_FILE": "BF2_006_arn_battle.acb",
        "P_DISPORDER": "6",
        "n8dwpcX0": "100",
        "P_EXT_IMG_PARAM": "ID\uff1a6\n\u30a2\u30ea\u30fc\u30ca\u30d0\u30c8\u30eb",
        "P_NEED_SWITCH_INFO": "",
        "P_OPEN_SWITCH_INFO": "",
        "P_CREATEDATE": "2018-01-26 23:38:42",
        "P_UPDATEDATE": "2018-01-26 23:38:42"
    },
    {
        "P_SOUND_ID": "7",
        "xIRA58fC": "\u30e9\u30f3\u30c9\u30fc\u30eb",
        "P_SOUND_FILE": "BF2_007_rdl_randall.acb",
        "P_DISPORDER": "7",
        "n8dwpcX0": "100",
        "P_EXT_IMG_PARAM": "ID\uff1a7\n\u30e9\u30f3\u30c9\u30fc\u30eb",
        "P_NEED_SWITCH_INFO": "",
        "P_OPEN_SWITCH_INFO": "",
        "P_CREATEDATE": "2018-01-26 23:38:42",
        "P_UPDATEDATE": "2018-01-26 23:38:42"
    },
    {
        "P_SOUND_ID": "8",
        "xIRA58fC": "\u30d0\u30c8\u30eb\u30ea\u30b6\u30eb\u30c8",
        "P_SOUND_FILE": "BF2_008_btl_result.acb",
        "P_DISPORDER": "8",
        "n8dwpcX0": "100",
        "P_EXT_IMG_PARAM": "ID\uff1a8\n\u30d0\u30c8\u30eb\u30ea\u30b6\u30eb\u30c8",
        "P_NEED_SWITCH_INFO": "",
        "P_OPEN_SWITCH_INFO": "",
        "P_CREATEDATE": "2018-01-26 23:38:42",
        "P_UPDATEDATE": "2018-01-26 23:38:42"
    },
    {
        "P_SOUND_ID": "9",
        "xIRA58fC": "\u7d46",
        "P_SOUND_FILE": "BF2_009_qst_top.acb",
        "P_DISPORDER": "9",
        "n8dwpcX0": "100",
        "P_EXT_IMG_PARAM": "ID\uff1a9\n\u30af\u30a8\u30b9\u30c8\uff08\u7570\u754c\u9078\u629e\uff09\u3001\u30ed\u30fc\u30c9\u4e2d",
        "P_NEED_SWITCH_INFO": "",
        "P_OPEN_SWITCH_INFO": "",
        "P_CREATEDATE": "2018-01-26 23:38:42",
        "P_UPDATEDATE": "2018-01-26 23:38:42"
    },
    {
        "P_SOUND_ID": "10",
        "xIRA58fC": "\u30d5\u30ed\u30f3\u30c6\u30a3\u30a2",
        "P_SOUND_FILE": "BF2_010_qst_grangaia.acb",
        "P_DISPORDER": "10",
        "n8dwpcX0": "100",
        "P_EXT_IMG_PARAM": "ID\uff1a10\n\u30af\u30a8\u30b9\u30c8\uff08\u30b0\u30e9\u30f3\u30ac\u30a4\u30a2\uff09",
        "P_NEED_SWITCH_INFO": "",
        "P_OPEN_SWITCH_INFO": "",
        "P_CREATEDATE": "2018-01-26 23:38:42",
        "P_UPDATEDATE": "2018-01-26 23:38:42"
    },
    {
        "P_SOUND_ID": "11",
        "xIRA58fC": "\u4ec4\u6697\u3044\u5730\u306e\u5e95\u3067",
        "P_SOUND_FILE": "BF2_011_qst_bada-fana.acb",
        "P_DISPORDER": "11",
        "n8dwpcX0": "100",
        "P_EXT_IMG_PARAM": "ID\uff1a11\n\u30af\u30a8\u30b9\u30c8\uff08\u30d0\u30c0\u30fb\u30d5\u30a1\u30ca\uff09",
        "P_NEED_SWITCH_INFO": "",
        "P_OPEN_SWITCH_INFO": "",
        "P_CREATEDATE": "2018-01-26 23:38:42",
        "P_UPDATEDATE": "2018-01-26 23:38:42"
    },
    {
        "P_SOUND_ID": "12",
        "xIRA58fC": "Never Seen",
        "P_SOUND_FILE": "BF2_012_qst_extus.acb",
        "P_DISPORDER": "12",
        "n8dwpcX0": "100",
        "P_EXT_IMG_PARAM": "ID\uff1a12\n\u30af\u30a8\u30b9\u30c8\uff08\u30a4\u30af\u30b9\u30bf\u30b9\uff09",
        "P_NEED_SWITCH_INFO": "",
        "P_OPEN_SWITCH_INFO": "",
        "P_CREATEDATE": "2018-01-26 23:38:42",
        "P_UPDATEDATE": "2018-01-26 23:38:42"
    },
    {
        "P_SOUND_ID": "14",
        "xIRA58fC": "HAZAMA",
        "P_SOUND_FILE": "BF2_014_hzm_top.acb",
        "P_DISPORDER": "13",
        "n8dwpcX0": "100",
        "P_EXT_IMG_PARAM": "ID\uff1a14\n\u30b2\u30fc\u30c8\u306e\u72ed\u9593",
        "P_NEED_SWITCH_INFO": "",
        "P_OPEN_SWITCH_INFO": "",
        "P_CREATEDATE": "2018-01-26 23:38:42",
        "P_UPDATEDATE": "2018-01-26 23:38:42"
    },
    {
        "P_SOUND_ID": "20",
        "xIRA58fC": "\u6697\u304d\u8822\u52d5",
        "P_SOUND_FILE": "BF2_020_thm_rumford.acb",
        "P_DISPORDER": "14",
        "n8dwpcX0": "100",
        "P_EXT_IMG_PARAM": "ID\uff1a20\n\uff08\u65e7\u30e9\u30f3\u30d5\u30a9\u30fc\u30c9\u306e\u30c6\u30fc\u30de\uff09",
        "P_NEED_SWITCH_INFO": "",
        "P_OPEN_SWITCH_INFO": "",
        "P_CREATEDATE": "2018-01-26 23:38:42",
        "P_UPDATEDATE": "2018-01-26 23:38:42"
    },
    {
        "P_SOUND_ID": "21",
        "xIRA58fC": "\u95c7\u546a\u5e2b\u30a8\u30eb\u30cf\u30b6",
        "P_SOUND_FILE": "BF2_021_thm_elhaza.acb",
        "P_DISPORDER": "15",
        "n8dwpcX0": "100",
        "P_EXT_IMG_PARAM": "ID\uff1a21\n\u30a8\u30eb\u30cf\u30b6\u306e\u30c6\u30fc\u30de",
        "P_NEED_SWITCH_INFO": "",
        "P_OPEN_SWITCH_INFO": "",
        "P_CREATEDATE": "2018-01-26 23:38:42",
        "P_UPDATEDATE": "2018-01-26 23:38:42"
    },
    {
        "P_SOUND_ID": "22",
        "xIRA58fC": "\u9b54\u5e7b\u5983\u30b7\u30e3\u30a4\u30a2",
        "P_SOUND_FILE": "BF2_022_thm_shia.acb",
        "P_DISPORDER": "16",
        "n8dwpcX0": "100",
        "P_EXT_IMG_PARAM": "ID\uff1a22\n\u30b7\u30e3\u30a4\u30a2\u306e\u30c6\u30fc\u30de",
        "P_NEED_SWITCH_INFO": "",
        "P_OPEN_SWITCH_INFO": "",
        "P_CREATEDATE": "2018-01-26 23:38:42",
        "P_UPDATEDATE": "2018-01-26 23:38:42"
    },
    {
        "P_SOUND_ID": "23",
        "xIRA58fC": "\u5947\u8853\u5e2b\u30e1\u30eb\u30d5\u30a7\u30eb",
        "P_SOUND_FILE": "BF2_023_thm_melfel.acb",
        "P_DISPORDER": "17",
        "n8dwpcX0": "100",
        "P_EXT_IMG_PARAM": "ID\uff1a23\n\u30e1\u30eb\u30d5\u30a7\u30eb\u306e\u30c6\u30fc\u30de",
        "P_NEED_SWITCH_INFO": "",
        "P_OPEN_SWITCH_INFO": "",
        "P_CREATEDATE": "2018-01-26 23:38:42",
        "P_UPDATEDATE": "2018-01-26 23:38:42"
    },
    {
        "P_SOUND_ID": "24",
        "xIRA58fC": "\u7206\u708e\u7345\u30d0\u30e9\u30ac\u30f3",
        "P_SOUND_FILE": "BF2_024_thm_barragan.acb",
        "P_DISPORDER": "18",
        "n8dwpcX0": "100",
        "P_EXT_IMG_PARAM": "ID\uff1a24\n\u30d0\u30e9\u30ac\u30f3\u306e\u30c6\u30fc\u30de",
        "P_NEED_SWITCH_INFO": "",
        "P_OPEN_SWITCH_INFO": "",
        "P_CREATEDATE": "2018-01-26 23:38:42",
        "P_UPDATEDATE": "2018-01-26 23:38:42"
    },
    {
        "P_SOUND_ID": "25",
        "xIRA58fC": "\u6c99\u86c7\u53f2\u30d2\u30eb\u30c0",
        "P_SOUND_FILE": "BF2_025_thm_hilda.acb",
        "P_DISPORDER": "19",
        "n8dwpcX0": "100",
        "P_EXT_IMG_PARAM": "ID\uff1a25\n\u30d2\u30eb\u30c0\u306e\u30c6\u30fc\u30de",
        "P_NEED_SWITCH_INFO": "",
        "P_OPEN_SWITCH_INFO": "",
        "P_CREATEDATE": "2018-01-26 23:38:42",
        "P_UPDATEDATE": "2018-01-26 23:38:42"
    },
    {
        "P_SOUND_ID": "26",
        "xIRA58fC": "\u7149\u6c37\u59eb\u30eb\u30cd",
        "P_SOUND_FILE": "BF2_026_thm_rene.acb",
        "P_DISPORDER": "20",
        "n8dwpcX0": "100",
        "P_EXT_IMG_PARAM": "ID\uff1a26\n\u30eb\u30cd\u306e\u30c6\u30fc\u30de",
        "P_NEED_SWITCH_INFO": "",
        "P_OPEN_SWITCH_INFO": "",
        "P_CREATEDATE": "2018-01-26 23:38:42",
        "P_UPDATEDATE": "2018-01-26 23:38:42"
    },
    {
        "P_SOUND_ID": "27",
        "xIRA58fC": "\u7f85\u6bb2\u93a7\u30b6\u30c9",
        "P_SOUND_FILE": "BF2_027_thm_zad.acb",
        "P_DISPORDER": "21",
        "n8dwpcX0": "100",
        "P_EXT_IMG_PARAM": "ID\uff1a27\n\u30b6\u30c9\u306e\u30c6\u30fc\u30de",
        "P_NEED_SWITCH_INFO": "",
        "P_OPEN_SWITCH_INFO": "",
        "P_CREATEDATE": "2018-01-26 23:38:42",
        "P_UPDATEDATE": "2018-01-26 23:38:42"
    },
    {
        "P_SOUND_ID": "28",
        "xIRA58fC": "\u60b2\u54c0",
        "P_SOUND_FILE": "BF2_028_scr_sad.acb",
        "P_DISPORDER": "22",
        "n8dwpcX0": "100",
        "P_EXT_IMG_PARAM": "ID\uff1a28\n\u30b7\u30fc\u30f3\u60b2\u58ee",
        "P_NEED_SWITCH_INFO": "",
        "P_OPEN_SWITCH_INFO": "",
        "P_CREATEDATE": "2018-01-26 23:38:42",
        "P_UPDATEDATE": "2018-01-26 23:38:42"
    },
    {
        "P_SOUND_ID": "30",
        "xIRA58fC": "\u5e73\u7a4f",
        "P_SOUND_FILE": "BF2_030_scr_calm.acb",
        "P_DISPORDER": "23",
        "n8dwpcX0": "100",
        "P_EXT_IMG_PARAM": "ID\uff1a30\n\u30b7\u30fc\u30f3\u7a4f\u3084\u304b",
        "P_NEED_SWITCH_INFO": "",
        "P_OPEN_SWITCH_INFO": "",
        "P_CREATEDATE": "2018-01-26 23:38:42",
        "P_UPDATEDATE": "2018-01-26 23:38:42"
    },
    {
        "P_SOUND_ID": "31",
        "xIRA58fC": "\u203b\u30b7\u30fc\u30f3\u30d4\u30f3\u30c1",
        "P_SOUND_FILE": "BF2_031_scr_pinch.acb",
        "P_DISPORDER": "24",
        "n8dwpcX0": "100",
        "P_EXT_IMG_PARAM": "ID\uff1a31\n\u30b7\u30fc\u30f3\u30d4\u30f3\u30c1",
        "P_NEED_SWITCH_INFO": "",
        "P_OPEN_SWITCH_INFO": "",
        "P_CREATEDATE": "2018-01-26 23:38:42",
        "P_UPDATEDATE": "2018-01-26 23:38:42"
    },
    {
        "P_SOUND_ID": "32",
        "xIRA58fC": "\u63a2\u6c42",
        "P_SOUND_FILE": "BF2_032_scr_tension.acb",
        "P_DISPORDER": "25",
        "n8dwpcX0": "100",
        "P_EXT_IMG_PARAM": "ID\uff1a32\n\u30b7\u30fc\u30f3\u7dca\u5f35",
        "P_NEED_SWITCH_INFO": "",
        "P_OPEN_SWITCH_INFO": "",
        "P_CREATEDATE": "2018-01-26 23:38:42",
        "P_UPDATEDATE": "2018-01-26 23:38:42"
    },
    {
        "P_SOUND_ID": "33",
        "xIRA58fC": "\u63a2\u6c42",
        "P_SOUND_FILE": "BF2_033_scr_mystery.acb",
        "P_DISPORDER": "26",
        "n8dwpcX0": "100",
        "P_EXT_IMG_PARAM": "ID\uff1a33\n\u30b7\u30fc\u30f3\u8b0e",
        "P_NEED_SWITCH_INFO": "",
        "P_OPEN_SWITCH_INFO": "",
        "P_CREATEDATE": "2018-01-26 23:38:42",
        "P_UPDATEDATE": "2018-01-26 23:38:42"
    },
    {
        "P_SOUND_ID": "34",
        "xIRA58fC": "\u5371\u61fc",
        "P_SOUND_FILE": "BF2_034_scr_anxiety.acb",
        "P_DISPORDER": "27",
        "n8dwpcX0": "100",
        "P_EXT_IMG_PARAM": "ID\uff1a34\n\u30b7\u30fc\u30f3\u7126\u71e5",
        "P_NEED_SWITCH_INFO": "",
        "P_OPEN_SWITCH_INFO": "",
        "P_CREATEDATE": "2018-01-26 23:38:42",
        "P_UPDATEDATE": "2018-01-26 23:38:42"
    },
    {
        "P_SOUND_ID": "35",
        "xIRA58fC": "\u5b89\u606f",
        "P_SOUND_FILE": "BF2_035_scr_peace.acb",
        "P_DISPORDER": "28",
        "n8dwpcX0": "100",
        "P_EXT_IMG_PARAM": "ID\uff1a35\n\u30b7\u30fc\u30f3\u5b89\u5835",
        "P_NEED_SWITCH_INFO": "",
        "P_OPEN_SWITCH_INFO": "",
        "P_CREATEDATE": "2018-01-26 23:38:42",
        "P_UPDATEDATE": "2018-01-26 23:38:42"
    },
    {
        "P_SOUND_ID": "36",
        "xIRA58fC": "\u203b\u4e03\u9b54\u5c06\u30d0\u30c8\u30eb1",
        "P_SOUND_FILE": "BF2_036_btl_7boss1.acb",
        "P_DISPORDER": "29",
        "n8dwpcX0": "100",
        "P_EXT_IMG_PARAM": "ID\uff1a36\n\u4e03\u9b54\u5c06\u30d0\u30c8\u30eb1",
        "P_NEED_SWITCH_INFO": "",
        "P_OPEN_SWITCH_INFO": "",
        "P_CREATEDATE": "2018-01-26 23:38:42",
        "P_UPDATEDATE": "2018-01-26 23:38:42"
    },
    {
        "P_SOUND_ID": "37",
        "xIRA58fC": "\u95c7\u3068\u306e\u6c7a\u6226",
        "P_SOUND_FILE": "BF2_037_btl_7boss2.acb",
        "P_DISPORDER": "30",
        "n8dwpcX0": "100",
        "P_EXT_IMG_PARAM": "ID\uff1a37\n\u4e03\u9b54\u5c06\u30d0\u30c8\u30eb2",
        "P_NEED_SWITCH_INFO": "",
        "P_OPEN_SWITCH_INFO": "",
        "P_CREATEDATE": "2018-01-26 23:38:42",
        "P_UPDATEDATE": "2018-01-26 23:38:42"
    },
    {
        "P_SOUND_ID": "38",
        "xIRA58fC": "\u30df\u30df\u30c3\u30af",
        "P_SOUND_FILE": "BF2_038_btl_mimic.acb",
        "P_DISPORDER": "31",
        "n8dwpcX0": "100",
        "P_EXT_IMG_PARAM": "ID\uff1a38\n\u30df\u30df\u30c3\u30af",
        "P_NEED_SWITCH_INFO": "",
        "P_OPEN_SWITCH_INFO": "",
        "P_CREATEDATE": "2018-01-26 23:38:42",
        "P_UPDATEDATE": "2018-01-26 23:38:42"
    },
    {
        "P_SOUND_ID": "39",
        "xIRA58fC": "\u203b\u30dc\u30b9\u30d0\u30c8\u30eb1",
        "P_SOUND_FILE": "BF2_039_btl_boss01.acb",
        "P_DISPORDER": "32",
        "n8dwpcX0": "100",
        "P_EXT_IMG_PARAM": "ID\uff1a39\n\u30dc\u30b9\u30d0\u30c8\u30eb1",
        "P_NEED_SWITCH_INFO": "",
        "P_OPEN_SWITCH_INFO": "",
        "P_CREATEDATE": "2018-01-26 23:38:42",
        "P_UPDATEDATE": "2018-01-26 23:38:42"
    },
    {
        "P_SOUND_ID": "40",
        "xIRA58fC": "\u4e0d\u6493\u4e0d\u5c48",
        "P_SOUND_FILE": "BF2_040_btl_nomal01.acb",
        "P_DISPORDER": "33",
        "n8dwpcX0": "100",
        "P_EXT_IMG_PARAM": "ID\uff1a40\n\u901a\u5e38\u30d0\u30c8\u30eb1",
        "P_NEED_SWITCH_INFO": "",
        "P_OPEN_SWITCH_INFO": "",
        "P_CREATEDATE": "2018-01-26 23:38:42",
        "P_UPDATEDATE": "2018-01-26 23:38:42"
    },
    {
        "P_SOUND_ID": "41",
        "xIRA58fC": "\u9ed2\u8987\u9a0e\u30e9\u30f3\u30d5\u30a9\u30fc\u30c9",
        "P_SOUND_FILE": "BF2_041_btl_nomal02.acb",
        "P_DISPORDER": "34",
        "n8dwpcX0": "100",
        "P_EXT_IMG_PARAM": "ID\uff1a41\n\u901a\u5e38\u30d0\u30c8\u30eb2",
        "P_NEED_SWITCH_INFO": "",
        "P_OPEN_SWITCH_INFO": "",
        "P_CREATEDATE": "2018-01-26 23:38:42",
        "P_UPDATEDATE": "2018-01-26 23:38:42"
    },
    {
        "P_SOUND_ID": "42",
        "xIRA58fC": "\u9032\u8ecd\u306e\u6642",
        "P_SOUND_FILE": "BF2_042_btl_nomal03.acb",
        "P_DISPORDER": "35",
        "n8dwpcX0": "100",
        "P_EXT_IMG_PARAM": "ID\uff1a42\n\u901a\u5e38\u30d0\u30c8\u30eb3",
        "P_NEED_SWITCH_INFO": "",
        "P_OPEN_SWITCH_INFO": "",
        "P_CREATEDATE": "2018-01-26 23:38:42",
        "P_UPDATEDATE": "2018-01-26 23:38:42"
    },
    {
        "P_SOUND_ID": "43",
        "xIRA58fC": "Swift",
        "P_SOUND_FILE": "BF2_043_btl_nomal04.acb",
        "P_DISPORDER": "36",
        "n8dwpcX0": "100",
        "P_EXT_IMG_PARAM": "ID\uff1a43\n\u901a\u5e38\u30d0\u30c8\u30eb4",
        "P_NEED_SWITCH_INFO": "",
        "P_OPEN_SWITCH_INFO": "",
        "P_CREATEDATE": "2018-01-26 23:38:42",
        "P_UPDATEDATE": "2018-01-26 23:38:42"
    },
    {
        "P_SOUND_ID": "44",
        "xIRA58fC": "Strike Back",
        "P_SOUND_FILE": "BF2_044_btl_nomal05.acb",
        "P_DISPORDER": "37",
        "n8dwpcX0": "100",
        "P_EXT_IMG_PARAM": "ID\uff1a44\n\u901a\u5e38\u30d0\u30c8\u30eb5",
        "P_NEED_SWITCH_INFO": "",
        "P_OPEN_SWITCH_INFO": "",
        "P_CREATEDATE": "2018-01-26 23:38:42",
        "P_UPDATEDATE": "2018-01-26 23:38:42"
    },
    {
        "P_SOUND_ID": "45",
        "xIRA58fC": "Right Track",
        "P_SOUND_FILE": "BF2_045_btl_nomal06.acb",
        "P_DISPORDER": "38",
        "n8dwpcX0": "100",
        "P_EXT_IMG_PARAM": "ID\uff1a45\n\u901a\u5e38\u30d0\u30c8\u30eb6",
        "P_NEED_SWITCH_INFO": "",
        "P_OPEN_SWITCH_INFO": "",
        "P_CREATEDATE": "2018-01-26 23:38:42",
        "P_UPDATEDATE": "2018-01-26 23:38:42"
    },
    {
        "P_SOUND_ID": "49",
        "xIRA58fC": "\u5275\u9020\u4e3b",
        "P_SOUND_FILE": "BF2_049_btl_ordeal.acb",
        "P_DISPORDER": "39",
        "n8dwpcX0": "100",
        "P_EXT_IMG_PARAM": "ID\uff1a49\n\u8a66\u7df4\u30d0\u30c8\u30eb",
        "P_NEED_SWITCH_INFO": "",
        "P_OPEN_SWITCH_INFO": "",
        "P_CREATEDATE": "2018-01-26 23:38:42",
        "P_UPDATEDATE": "2018-01-26 23:38:42"
    },
    {
        "P_SOUND_ID": "51",
        "xIRA58fC": "\u6e3e\u6c8c",
        "P_SOUND_FILE": "BF2_051_scr_extus.acb",
        "P_DISPORDER": "40",
        "n8dwpcX0": "100",
        "P_EXT_IMG_PARAM": "ID\uff1a51\n\u30b7\u30fc\u30f3\u30a4\u30af\u30b9\u30bf\u30b9\u7dca\u8feb",
        "P_NEED_SWITCH_INFO": "",
        "P_OPEN_SWITCH_INFO": "",
        "P_CREATEDATE": "2018-01-26 23:38:42",
        "P_UPDATEDATE": "2018-01-26 23:38:42"
    },
    {
        "P_SOUND_ID": "52",
        "xIRA58fC": "\u6182\u4e8b",
        "P_SOUND_FILE": "BF2_052_scr_restless.acb",
        "P_DISPORDER": "41",
        "n8dwpcX0": "100",
        "P_EXT_IMG_PARAM": "ID\uff1a52\n\u30b7\u30fc\u30f3\u4e0d\u5b89",
        "P_NEED_SWITCH_INFO": "",
        "P_OPEN_SWITCH_INFO": "",
        "P_CREATEDATE": "2018-01-26 23:38:42",
        "P_UPDATEDATE": "2018-01-26 23:38:42"
    },
    {
        "P_SOUND_ID": "54",
        "xIRA58fC": "\u731f\u4eba",
        "P_SOUND_FILE": "BF2_054_btl_fh.acb",
        "P_DISPORDER": "42",
        "n8dwpcX0": "100",
        "P_EXT_IMG_PARAM": "ID\uff1a54\n\u30d5\u30ed\u30cf\u30f3\u30d0\u30c8\u30eb",
        "P_NEED_SWITCH_INFO": "",
        "P_OPEN_SWITCH_INFO": "",
        "P_CREATEDATE": "2018-01-26 23:38:42",
        "P_UPDATEDATE": "2018-01-26 23:38:42"
    },
    {
        "P_SOUND_ID": "55",
        "xIRA58fC": "\u99c6\u3051\u629c\u3051\u308b\u60f3\u3044",
        "P_SOUND_FILE": "BF2_055_btl_nomal07.acb",
        "P_DISPORDER": "43",
        "n8dwpcX0": "100",
        "P_EXT_IMG_PARAM": "ID\uff1a55\n\u901a\u5e38\u30d0\u30c8\u30eb7",
        "P_NEED_SWITCH_INFO": "",
        "P_OPEN_SWITCH_INFO": "",
        "P_CREATEDATE": "2018-01-26 23:38:42",
        "P_UPDATEDATE": "2018-01-26 23:38:42"
    },
    {
        "P_SOUND_ID": "1011",
        "xIRA58fC": "\u708e",
        "P_SOUND_FILE": "BF1_1011_btl_firecave.acb",
        "P_DISPORDER": "45",
        "n8dwpcX0": "100",
        "P_EXT_IMG_PARAM": "ID\uff1a1011\nBF1\u901a\u5e38\u30d0\u30c8\u30eb1",
        "P_NEED_SWITCH_INFO": "",
        "P_OPEN_SWITCH_INFO": "",
        "P_CREATEDATE": "2018-01-26 23:38:42",
        "P_UPDATEDATE": "2018-01-26 23:38:42"
    },
    {
        "P_SOUND_ID": "1012",
        "xIRA58fC": "\u51cd\u3066\u3064\u304f\u6d99",
        "P_SOUND_FILE": "BF1_1012_btl_snow.acb",
        "P_DISPORDER": "46",
        "n8dwpcX0": "100",
        "P_EXT_IMG_PARAM": "ID\uff1a1012\nBF1\u901a\u5e38\u30d0\u30c8\u30eb2",
        "P_NEED_SWITCH_INFO": "",
        "P_OPEN_SWITCH_INFO": "",
        "P_CREATEDATE": "2018-01-26 23:38:42",
        "P_UPDATEDATE": "2018-01-26 23:38:42"
    },
    {
        "P_SOUND_ID": "1020",
        "xIRA58fC": "\u5b64\u72ec\u306a\u529b",
        "P_SOUND_FILE": "BF1_1020_btl_nightwood.acb",
        "P_DISPORDER": "47",
        "n8dwpcX0": "100",
        "P_EXT_IMG_PARAM": "ID\uff1a1020\nBF1\u901a\u5e38\u30d0\u30c8\u30eb3",
        "P_NEED_SWITCH_INFO": "",
        "P_OPEN_SWITCH_INFO": "",
        "P_CREATEDATE": "2018-01-26 23:38:42",
        "P_UPDATEDATE": "2018-01-26 23:38:42"
    },
    {
        "P_SOUND_ID": "1024",
        "xIRA58fC": "\u60aa\u9b54\u306e\u5fc3",
        "P_SOUND_FILE": "BF1_1024_btl_cave.acb",
        "P_DISPORDER": "48",
        "n8dwpcX0": "100",
        "P_EXT_IMG_PARAM": "ID\uff1a1024\nBF1\u901a\u5e38\u30d0\u30c8\u30eb4",
        "P_NEED_SWITCH_INFO": "",
        "P_OPEN_SWITCH_INFO": "",
        "P_CREATEDATE": "2018-01-26 23:38:42",
        "P_UPDATEDATE": "2018-01-26 23:38:42"
    },
    {
        "P_SOUND_ID": "1037",
        "xIRA58fC": "Gimmick",
        "P_SOUND_FILE": "BF1_1037_lab_lighttower.acb",
        "P_DISPORDER": "44",
        "n8dwpcX0": "100",
        "P_EXT_IMG_PARAM": "ID\uff1a1037\n\u53ec\u559a\u8853\u7814\u7a76\u6240",
        "P_NEED_SWITCH_INFO": "",
        "P_OPEN_SWITCH_INFO": "",
        "P_CREATEDATE": "2018-01-26 23:38:42",
        "P_UPDATEDATE": "2018-01-26 23:38:42"
    },
    {
        "P_SOUND_ID": "1041",
        "xIRA58fC": "\u7d05\u306e\u4e18",
        "P_SOUND_FILE": "BF1_1041_btl_jewrel.acb",
        "P_DISPORDER": "49",
        "n8dwpcX0": "100",
        "P_EXT_IMG_PARAM": "ID\uff1a1041\nBF1\u901a\u5e38\u30d0\u30c8\u30eb5",
        "P_NEED_SWITCH_INFO": "",
        "P_OPEN_SWITCH_INFO": "",
        "P_CREATEDATE": "2018-01-26 23:38:42",
        "P_UPDATEDATE": "2018-01-26 23:38:42"
    },
    {
        "P_SOUND_ID": "1052",
        "xIRA58fC": "\u9b54\u969c",
        "P_SOUND_FILE": "BF1_1052_btl_mgc_swamp.acb",
        "P_DISPORDER": "50",
        "n8dwpcX0": "100",
        "P_EXT_IMG_PARAM": "ID\uff1a1052\nBF1\u901a\u5e38\u30d0\u30c8\u30eb6",
        "P_NEED_SWITCH_INFO": "",
        "P_OPEN_SWITCH_INFO": "",
        "P_CREATEDATE": "2018-01-26 23:38:42",
        "P_UPDATEDATE": "2018-01-26 23:38:42"
    },
    {
        "P_SOUND_ID": "1060",
        "xIRA58fC": "\u96ea\u539f\u306e\u8a69",
        "P_SOUND_FILE": "BF1_1060_btl_alvest.acb",
        "P_DISPORDER": "51",
        "n8dwpcX0": "100",
        "P_EXT_IMG_PARAM": "ID\uff1a1060\nBF1\u901a\u5e38\u30d0\u30c8\u30eb7",
        "P_NEED_SWITCH_INFO": "",
        "P_OPEN_SWITCH_INFO": "",
        "P_CREATEDATE": "2018-01-26 23:38:42",
        "P_UPDATEDATE": "2018-01-26 23:38:42"
    },
    {
        "P_SOUND_ID": "1113",
        "xIRA58fC": "\u672a\u6765\u3078\u306e\u6c7a\u610f",
        "P_SOUND_FILE": "BF1_1113_btl_scenario5_bs1.acb",
        "P_DISPORDER": "52",
        "n8dwpcX0": "100",
        "P_EXT_IMG_PARAM": "ID\uff1a1113\nBF1\u30b7\u30c0\u9b54\u795e\u6539\uff12\u6226\uff08\u5730\u5e95\u7262\u7344\uff09",
        "P_NEED_SWITCH_INFO": "",
        "P_OPEN_SWITCH_INFO": "",
        "P_CREATEDATE": "2018-01-26 23:38:42",
        "P_UPDATEDATE": "2018-01-26 23:38:42"
    }
]