[
    {
        "P_SOUND_ID": "1",
        "xIRA58fC": "\u51f1\u65cb",
        "P_SOUND_FILE": "BF2_001_ttl_top.acb",
        "P_DISPORDER": "1",
        "n8dwpcX0": "100",
        "P_EXT_IMG_PARAM": "\u53e4\u3088\u308a\u30d5\u30a3\u30eb\u30a2\u30fc\u30e0\u738b\u56fd\u306b\u4f1d\u308f\u308b\n\u7d46\u306e\u8a93\u3044\u3078\u6367\u3052\u3089\u308c\u3057\u51f1\u65cb\u66f2",
        "P_NEED_SWITCH_INFO": "",
        "P_OPEN_SWITCH_INFO": "",
        "P_CREATEDATE": "2018-10-10 13:22:54",
        "P_UPDATEDATE": "2018-10-10 13:22:54"
    },
    {
        "P_SOUND_ID": "2",
        "xIRA58fC": "\u4e00\u7e37\u306e\u5149\u3068\u3068\u3082\u306b",
        "P_SOUND_FILE": "BF2_002_hom_hero.acb",
        "P_DISPORDER": "2",
        "n8dwpcX0": "100",
        "P_EXT_IMG_PARAM": "\u30bb\u30eb\u30bf\u30d3\u30a2\u306e\u5f0f\u5178\u3067\u6f14\u594f\u3055\u308c\u308b\u697d\n\u66f2\u3092\u30e9\u30f3\u30c9\u30fc\u30eb\u98a8\u306b\u6539\u3081\u305f\u3082\u306e",
        "P_NEED_SWITCH_INFO": "",
        "P_OPEN_SWITCH_INFO": "",
        "P_CREATEDATE": "2018-10-10 13:22:54",
        "P_UPDATEDATE": "2018-10-10 13:22:54"
    },
    {
        "P_SOUND_ID": "3",
        "xIRA58fC": "\u30da\u30c1\u30e5\u30cb\u30a2",
        "P_SOUND_FILE": "BF2_003_hom_heroine.acb",
        "P_DISPORDER": "3",
        "n8dwpcX0": "100",
        "P_EXT_IMG_PARAM": "\u30bb\u30eb\u30bf\u30d3\u30a2\u306b\u4f1d\u308f\u308b\u6c11\u8b21\u3092\n\u73fe\u4ee3\u98a8\u306b\u30a2\u30ec\u30f3\u30b8\u3057\u305f\u697d\u66f2",
        "P_NEED_SWITCH_INFO": "2000000",
        "P_OPEN_SWITCH_INFO": "",
        "P_CREATEDATE": "2018-10-10 13:22:54",
        "P_UPDATEDATE": "2018-10-10 13:22:54"
    },
    {
        "P_SOUND_ID": "4",
        "xIRA58fC": "\u4e8c\u3064\u306e\u6c7a\u610f",
        "P_SOUND_FILE": "BF2_004_hom_join.acb",
        "P_DISPORDER": "4",
        "n8dwpcX0": "100",
        "P_EXT_IMG_PARAM": "\u6545\u90f7\u3092\u53d6\u308a\u623b\u305d\u3046\u3068\u3059\u308b\u4e8c\u4eba\u306e\u82e5\n\u8005\u306b\u3053\u306e\u66f2\u3092\u9001\u308b\u3000By\u30e9\u30eb\u30d5",
        "P_NEED_SWITCH_INFO": "2000010",
        "P_OPEN_SWITCH_INFO": "",
        "P_CREATEDATE": "2018-10-10 13:22:54",
        "P_UPDATEDATE": "2018-10-10 13:22:54"
    },
    {
        "P_SOUND_ID": "5",
        "xIRA58fC": "\u30a2\u30ea\u30fc\u30ca",
        "P_SOUND_FILE": "BF2_005_arn_top.acb",
        "P_DISPORDER": "5",
        "n8dwpcX0": "100",
        "P_EXT_IMG_PARAM": "\u97f3\u697d\u5bb6\u30e9\u30eb\u30d5\u304c\u30bb\u30ea\u30a2\u3068\u306e\u6226\u3044\u306b\n\u6557\u308c\u305f\u3053\u3068\u3067\u7740\u60f3\u3092\u5f97\u305f\u540d\u66f2",
        "P_NEED_SWITCH_INFO": "",
        "P_OPEN_SWITCH_INFO": "",
        "P_CREATEDATE": "2018-10-10 13:22:54",
        "P_UPDATEDATE": "2018-10-10 13:22:54"
    },
    {
        "P_SOUND_ID": "6",
        "xIRA58fC": "\u30b0\u30e9\u30f3\u30c9\u30b5\u30de\u30ca\u30fc",
        "P_SOUND_FILE": "BF2_006_arn_battle.acb",
        "P_DISPORDER": "6",
        "n8dwpcX0": "100",
        "P_EXT_IMG_PARAM": "\u30a2\u30ea\u30fc\u30ca\u5efa\u56fd\u306e\u795d\u8cc0\u3068\u3057\u3066\u5e1d\u56fd\n\u30bd\u30e9\u30ea\u30b9\u304b\u3089\u8d08\u3089\u308c\u305f\u95d8\u6280\u66f2",
        "P_NEED_SWITCH_INFO": "",
        "P_OPEN_SWITCH_INFO": "",
        "P_CREATEDATE": "2018-10-10 13:22:54",
        "P_UPDATEDATE": "2018-10-10 13:22:54"
    },
    {
        "P_SOUND_ID": "7",
        "xIRA58fC": "\u30e9\u30f3\u30c9\u30fc\u30eb",
        "P_SOUND_FILE": "BF2_007_rdl_randall.acb",
        "P_DISPORDER": "7",
        "n8dwpcX0": "100",
        "P_EXT_IMG_PARAM": "\u5e1d\u90fd\u30e9\u30f3\u30c9\u30fc\u30eb\u306e\u5f0f\u5178\u3067\u306f\u5fc5\u305a\n\u6f14\u594f\u3055\u308c\u308b\u4f1d\u7d71\u3042\u308b\u697d\u66f2",
        "P_NEED_SWITCH_INFO": "",
        "P_OPEN_SWITCH_INFO": "",
        "P_CREATEDATE": "2018-10-10 13:22:54",
        "P_UPDATEDATE": "2018-10-10 13:22:54"
    },
    {
        "P_SOUND_ID": "8",
        "xIRA58fC": "\u30d0\u30c8\u30eb\u30ea\u30b6\u30eb\u30c8\u203b\u975e\u8868\u793a",
        "P_SOUND_FILE": "BF2_008_btl_result.acb",
        "P_DISPORDER": "0",
        "n8dwpcX0": "100",
        "P_EXT_IMG_PARAM": "ID\uff1a8\n\u30d0\u30c8\u30eb\u30ea\u30b6\u30eb\u30c8\u203b\u975e\u8868\u793a",
        "P_NEED_SWITCH_INFO": "",
        "P_OPEN_SWITCH_INFO": "",
        "P_CREATEDATE": "2018-10-10 13:22:54",
        "P_UPDATEDATE": "2018-10-10 13:22:54"
    },
    {
        "P_SOUND_ID": "9",
        "xIRA58fC": "\u30d2\u30c8\u30c4\u30ce\u30d2\u30ab\u30ea",
        "P_SOUND_FILE": "BF2_009_qst_top.acb",
        "P_DISPORDER": "9",
        "n8dwpcX0": "100",
        "P_EXT_IMG_PARAM": "\u30a2\u30fc\u30ea\u30f3\u30c9\u795e\u5b66\u9662\u306e\u97f3\u697d\u5bb6\u305f\u3061\u304c\n\u795e\u3078\u306e\u7948\u308a\u3092\u8fbc\u3081\u3066\u5236\u4f5c\u3057\u305f\u66f2",
        "P_NEED_SWITCH_INFO": "",
        "P_OPEN_SWITCH_INFO": "",
        "P_CREATEDATE": "2018-10-10 13:22:54",
        "P_UPDATEDATE": "2018-10-10 13:22:54"
    },
    {
        "P_SOUND_ID": "10",
        "xIRA58fC": "\u30d5\u30ed\u30f3\u30c6\u30a3\u30a2",
        "P_SOUND_FILE": "BF2_010_qst_grangaia.acb",
        "P_DISPORDER": "10",
        "n8dwpcX0": "100",
        "P_EXT_IMG_PARAM": "\u30e9\u30f3\u30c9\u30fc\u30eb\u4e09\u697d\u8056\u306e\u4e00\u4eba\u3067\u3042\u308b\n\u30c0\u30b9\u30b1\u30eb\u304c\u4f5c\u3063\u305f\u8a89\u308c\u9ad8\u304d\u4e00\u66f2",
        "P_NEED_SWITCH_INFO": "",
        "P_OPEN_SWITCH_INFO": "",
        "P_CREATEDATE": "2018-10-10 13:22:54",
        "P_UPDATEDATE": "2018-10-10 13:22:54"
    },
    {
        "P_SOUND_ID": "11",
        "xIRA58fC": "\u4ec4\u6697\u3044\u5730\u306e\u5e95\u3067",
        "P_SOUND_FILE": "BF2_011_qst_bada-fana.acb",
        "P_DISPORDER": "11",
        "n8dwpcX0": "100",
        "P_EXT_IMG_PARAM": "\u30d0\u30c0\u30fb\u30d5\u30a1\u30ca\u3067\u767a\u898b\u3055\u308c\u305f\u97f3\u697d\u30b9\n\u30d5\u30a3\u30a2\u3002\u5c11\u3057\u6c5a\u308c\u3066\u3044\u308b",
        "P_NEED_SWITCH_INFO": "10000063",
        "P_OPEN_SWITCH_INFO": "",
        "P_CREATEDATE": "2018-10-10 13:22:55",
        "P_UPDATEDATE": "2018-10-10 13:22:55"
    },
    {
        "P_SOUND_ID": "12",
        "xIRA58fC": "Never Seen",
        "P_SOUND_FILE": "BF2_012_qst_extus.acb",
        "P_DISPORDER": "12",
        "n8dwpcX0": "100",
        "P_EXT_IMG_PARAM": "\u30a4\u30af\u30b9\u30bf\u30b9\u306e\u6d41\u884c\u6b4c\u3092\u4f5c\u66f2\u5bb6\u30c0\u30b9\n\u30b1\u30eb\u304c\u7de8\u66f2\u3057\u305f\u3082\u306e",
        "P_NEED_SWITCH_INFO": "10000133",
        "P_OPEN_SWITCH_INFO": "",
        "P_CREATEDATE": "2018-10-10 13:22:55",
        "P_UPDATEDATE": "2018-10-10 13:22:55"
    },
    {
        "P_SOUND_ID": "14",
        "xIRA58fC": "HAZAMA",
        "P_SOUND_FILE": "BF2_014_hzm_top.acb",
        "P_DISPORDER": "13",
        "n8dwpcX0": "100",
        "P_EXT_IMG_PARAM": "\u304b\u3064\u3066\u5b58\u5728\u3057\u305f\u30b0\u30ea\u30a2\u81ea\u6cbb\u533a\u3067\n\u767a\u898b\u3055\u308c\u305f\u795e\u79d8\u7684\u306a\u96f0\u56f2\u6c17\u306e\u697d\u66f2",
        "P_NEED_SWITCH_INFO": "",
        "P_OPEN_SWITCH_INFO": "",
        "P_CREATEDATE": "2018-10-10 13:22:55",
        "P_UPDATEDATE": "2018-10-10 13:22:55"
    },
    {
        "P_SOUND_ID": "20",
        "xIRA58fC": "\u9ed2\u8987\u9a0e\u30e9\u30f3\u30d5\u30a9\u30fc\u30c9",
        "P_SOUND_FILE": "BF2_020_thm_rumford.acb",
        "P_DISPORDER": "14",
        "n8dwpcX0": "100",
        "P_EXT_IMG_PARAM": "\u9ed2\u304d\u5263\u3068\u5171\u306b\u3082\u305f\u3089\u3055\u308c\u308b\u884c\u8ecd\u6b4c\n\u8f5f\u304f\u9ed2\u9244\u306e\u97ff\u304d\u304c\u5168\u3066\u3092\u8e42\u8e99\u3059\u308b",
        "P_NEED_SWITCH_INFO": "",
        "P_OPEN_SWITCH_INFO": "",
        "P_CREATEDATE": "2018-10-10 13:22:55",
        "P_UPDATEDATE": "2018-10-10 13:22:55"
    },
    {
        "P_SOUND_ID": "21",
        "xIRA58fC": "\u95c7\u546a\u5e2b\u30a8\u30eb\u30cf\u30b6",
        "P_SOUND_FILE": "BF2_021_thm_elhaza.acb",
        "P_DISPORDER": "15",
        "n8dwpcX0": "100",
        "P_EXT_IMG_PARAM": "\u6f14\u594f\u3059\u308b\u3060\u3051\u3067\u4e00\u3064\u306e\u90fd\u5e02\u304c\u58ca\u6ec5\n\u3059\u308b\u3068\u8a00\u308f\u308c\u3066\u3044\u308b\u8b0e\u306e\u697d\u66f2",
        "P_NEED_SWITCH_INFO": "10000104",
        "P_OPEN_SWITCH_INFO": "",
        "P_CREATEDATE": "2018-10-10 13:22:55",
        "P_UPDATEDATE": "2018-10-10 13:22:55"
    },
    {
        "P_SOUND_ID": "22",
        "xIRA58fC": "\u9b54\u5e7b\u5983\u30b7\u30e3\u30a4\u30a2",
        "P_SOUND_FILE": "BF2_022_thm_shia.acb",
        "P_DISPORDER": "16",
        "n8dwpcX0": "100",
        "P_EXT_IMG_PARAM": "\u7570\u754c\u306e\u795e\u79d8\u3092\u89e3\u660e\u3059\u308b\u9375\u304c\u3042\u308b\u3068\n\u3055\u308c\u308b\u8b0e\u306e\u97f3\u697d\u30b9\u30d5\u30a3\u30a2",
        "P_NEED_SWITCH_INFO": "",
        "P_OPEN_SWITCH_INFO": "",
        "P_CREATEDATE": "2018-10-10 13:22:55",
        "P_UPDATEDATE": "2018-10-10 13:22:55"
    },
    {
        "P_SOUND_ID": "23",
        "xIRA58fC": "\u5947\u8853\u5e2b\u30e1\u30eb\u30d5\u30a7\u30eb",
        "P_SOUND_FILE": "BF2_023_thm_melfel.acb",
        "P_DISPORDER": "17",
        "n8dwpcX0": "100",
        "P_EXT_IMG_PARAM": "\u4f5c\u66f2\u8005\u4e0d\u660e\u306e\u697d\u66f2\u3002\u697d\u3057\u3052\u306a\u65cb\u5f8b\n\u306e\u4e2d\u306b\u72c2\u6c17\u304c\u5bbf\u3063\u3066\u3044\u308b\u3068\u3055\u308c\u308b",
        "P_NEED_SWITCH_INFO": "10000104",
        "P_OPEN_SWITCH_INFO": "",
        "P_CREATEDATE": "2018-10-10 13:22:55",
        "P_UPDATEDATE": "2018-10-10 13:22:55"
    },
    {
        "P_SOUND_ID": "24",
        "xIRA58fC": "\u7206\u708e\u7345\u30d0\u30e9\u30ac\u30f3",
        "P_SOUND_FILE": "BF2_024_thm_barragan.acb",
        "P_DISPORDER": "18",
        "n8dwpcX0": "100",
        "P_EXT_IMG_PARAM": "\u3042\u308b\u7363\u4eba\u306e\u731b\u3005\u3057\u3055\u3068\u6c17\u9ad8\u3055\u3092\n\u8b83\u3048\u305f\u3068\u3055\u308c\u308b\u884c\u9032\u66f2",
        "P_NEED_SWITCH_INFO": "",
        "P_OPEN_SWITCH_INFO": "",
        "P_CREATEDATE": "2018-10-10 13:22:55",
        "P_UPDATEDATE": "2018-10-10 13:22:55"
    },
    {
        "P_SOUND_ID": "25",
        "xIRA58fC": "\u6c99\u86c7\u53f2\u30d2\u30eb\u30c0",
        "P_SOUND_FILE": "BF2_025_thm_hilda.acb",
        "P_DISPORDER": "19",
        "n8dwpcX0": "100",
        "P_EXT_IMG_PARAM": "\u8074\u3044\u305f\u8005\u3092\u60a6\u697d\u3068\u7834\u6ec5\u3078\u3068\u8a98\u3046\u3068\n\u3055\u308c\u308b\u7981\u5fcc\u6b4c",
        "P_NEED_SWITCH_INFO": "10000084",
        "P_OPEN_SWITCH_INFO": "",
        "P_CREATEDATE": "2018-10-10 13:22:55",
        "P_UPDATEDATE": "2018-10-10 13:22:55"
    },
    {
        "P_SOUND_ID": "26",
        "xIRA58fC": "\u7149\u6c37\u59eb\u30eb\u30cd",
        "P_SOUND_FILE": "BF2_026_thm_rene.acb",
        "P_DISPORDER": "20",
        "n8dwpcX0": "100",
        "P_EXT_IMG_PARAM": "\u8074\u304f\u8005\u3092\u9b45\u4e86\u3057\u3001\u51cd\u3066\u3064\u304f\u4e16\u754c\u3078\n\u8a98\u3046\u3068\u3055\u308c\u308b\u6c37\u4e0a\u306e\u821e\u8e0a\u66f2",
        "P_NEED_SWITCH_INFO": "10000084",
        "P_OPEN_SWITCH_INFO": "",
        "P_CREATEDATE": "2018-10-10 13:22:55",
        "P_UPDATEDATE": "2018-10-10 13:22:55"
    },
    {
        "P_SOUND_ID": "27",
        "xIRA58fC": "\u7f85\u6bb2\u93a7\u30b6\u30c9",
        "P_SOUND_FILE": "BF2_027_thm_zad.acb",
        "P_DISPORDER": "21",
        "n8dwpcX0": "100",
        "P_EXT_IMG_PARAM": "\u8133\u5185\u306b\u69d8\u3005\u306a\u5f71\u97ff\u3092\u53ca\u307c\u3059\u3068\u3044\u3046\n\u6a5f\u68b0\u4eba\u5f62\u304c\u594f\u3067\u308b\u65b0\u7a2e\u306e\u697d\u66f2",
        "P_NEED_SWITCH_INFO": "10000063",
        "P_OPEN_SWITCH_INFO": "",
        "P_CREATEDATE": "2018-10-10 13:22:55",
        "P_UPDATEDATE": "2018-10-10 13:22:55"
    },
    {
        "P_SOUND_ID": "28",
        "xIRA58fC": "\u60b2\u54c0",
        "P_SOUND_FILE": "BF2_028_scr_sad.acb",
        "P_DISPORDER": "22",
        "n8dwpcX0": "100",
        "P_EXT_IMG_PARAM": "\u9060\u3044\u7570\u56fd\u3088\u308a\u4f1d\u3048\u3089\u308c\u3057\u72ec\u5531\u66f2\n\u6b7b\u306b\u3086\u304f\u9b42\u306e\u5b89\u3089\u304b\u306a\u3089\u3093\u4e8b\u3092\u2026",
        "P_NEED_SWITCH_INFO": "10000152",
        "P_OPEN_SWITCH_INFO": "",
        "P_CREATEDATE": "2018-10-10 13:22:55",
        "P_UPDATEDATE": "2018-10-10 13:22:55"
    },
    {
        "P_SOUND_ID": "30",
        "xIRA58fC": "\u5e73\u7a4f",
        "P_SOUND_FILE": "BF2_030_scr_calm.acb",
        "P_DISPORDER": "23",
        "n8dwpcX0": "100",
        "P_EXT_IMG_PARAM": "\u4f5c\u66f2\u5bb6\u30e9\u30e1\u30a2\u306e\u6700\u6669\u5e74\u306b\u8457\u3055\u308c\u305f\n\u75c5\u8eab\u3092\u611f\u3058\u3055\u305b\u306c\u7a0b\u7a4f\u3084\u304b\u306a\u697d\u66f2",
        "P_NEED_SWITCH_INFO": "10000084",
        "P_OPEN_SWITCH_INFO": "",
        "P_CREATEDATE": "2018-10-10 13:22:55",
        "P_UPDATEDATE": "2018-10-10 13:22:55"
    },
    {
        "P_SOUND_ID": "31",
        "xIRA58fC": "\u7aae\u5730",
        "P_SOUND_FILE": "BF2_031_scr_pinch.acb",
        "P_DISPORDER": "24",
        "n8dwpcX0": "100",
        "P_EXT_IMG_PARAM": "\u51fa\u81ea\u306f\u660e\u3089\u304b\u3068\u306a\u3063\u3066\u3044\u306a\u3044\u304c\u3001\n\u5802\u3005\u305f\u308b\u98a8\u683c\u3092\u611f\u3058\u3055\u305b\u308b\u697d\u66f2",
        "P_NEED_SWITCH_INFO": "10000104",
        "P_OPEN_SWITCH_INFO": "",
        "P_CREATEDATE": "2018-10-10 13:22:55",
        "P_UPDATEDATE": "2018-10-10 13:22:55"
    },
    {
        "P_SOUND_ID": "32",
        "xIRA58fC": "\u7dca\u8feb",
        "P_SOUND_FILE": "BF2_032_scr_tension.acb",
        "P_DISPORDER": "25",
        "n8dwpcX0": "100",
        "P_EXT_IMG_PARAM": "\u30a4\u30b7\u30e5\u30b0\u30ea\u30a2\u306b\u907a\u3055\u308c\u3066\u3044\u305f\u8b5c\u9762\n\u540c\u5730\u306e\u904e\u9177\u306a\u74b0\u5883\u3092\u60f3\u308f\u305b\u308b\u697d\u66f2",
        "P_NEED_SWITCH_INFO": "",
        "P_OPEN_SWITCH_INFO": "",
        "P_CREATEDATE": "2018-10-10 13:22:55",
        "P_UPDATEDATE": "2018-10-10 13:22:55"
    },
    {
        "P_SOUND_ID": "33",
        "xIRA58fC": "\u63a2\u6c42",
        "P_SOUND_FILE": "BF2_033_scr_mystery.acb",
        "P_DISPORDER": "26",
        "n8dwpcX0": "100",
        "P_EXT_IMG_PARAM": "\u30a2\u30eb\u30e1\u30ea\u30a2\u3067\u767a\u898b\u3055\u308c\u305f\u30b9\u30d5\u30a3\u30a2\n\u7a4f\u3084\u304b\u3055\u306e\u4e2d\u306b\u7dca\u8feb\u611f\u3092\u5b55\u3080\u540d\u8b5c",
        "P_NEED_SWITCH_INFO": "10000063",
        "P_OPEN_SWITCH_INFO": "",
        "P_CREATEDATE": "2018-10-10 13:22:55",
        "P_UPDATEDATE": "2018-10-10 13:22:55"
    },
    {
        "P_SOUND_ID": "34",
        "xIRA58fC": "\u5371\u61fc",
        "P_SOUND_FILE": "BF2_034_scr_anxiety.acb",
        "P_DISPORDER": "27",
        "n8dwpcX0": "100",
        "P_EXT_IMG_PARAM": "\u4f5c\u66f2\u5bb6G\u30fbF\u306b\u3088\u308b\u521d\u671f\u306e\u697d\u66f2\n\u9023\u90a6\u73fe\u4ee3\u97f3\u697d\u796d\u3067\u91d1\u8cde\u3092\u53d7\u8cde\u3057\u305f",
        "P_NEED_SWITCH_INFO": "",
        "P_OPEN_SWITCH_INFO": "",
        "P_CREATEDATE": "2018-10-10 13:22:55",
        "P_UPDATEDATE": "2018-10-10 13:22:55"
    },
    {
        "P_SOUND_ID": "35",
        "xIRA58fC": "\u5b89\u606f",
        "P_SOUND_FILE": "BF2_035_scr_peace.acb",
        "P_DISPORDER": "28",
        "n8dwpcX0": "100",
        "P_EXT_IMG_PARAM": "\u30bb\u30eb\u30bf\u30d3\u30a2\u3067\u3001\u52d5\u7269\u305f\u3061\u3092\u7387\u3044\u3066\n\u65c5\u3092\u3059\u308b\u697d\u56e3\u306e\u6f14\u594f\u66f2",
        "P_NEED_SWITCH_INFO": "10000104",
        "P_OPEN_SWITCH_INFO": "",
        "P_CREATEDATE": "2018-10-10 13:22:55",
        "P_UPDATEDATE": "2018-10-10 13:22:55"
    },
    {
        "P_SOUND_ID": "36",
        "xIRA58fC": "\u6697\u304d\u8822\u52d5",
        "P_SOUND_FILE": "BF2_036_btl_7boss1.acb",
        "P_DISPORDER": "0",
        "n8dwpcX0": "100",
        "P_EXT_IMG_PARAM": "\u95c7\u3088\u308a\u751f\u307e\u308c\u3057\u7a76\u6975\u306e\u9b54\u795e\u3092\n\u5d07\u3081\u305f\u3082\u306e\u3068\u3055\u308c\u308b\u7981\u546a\u6b4c",
        "P_NEED_SWITCH_INFO": "",
        "P_OPEN_SWITCH_INFO": "",
        "P_CREATEDATE": "2018-10-10 13:22:55",
        "P_UPDATEDATE": "2018-10-10 13:22:55"
    },
    {
        "P_SOUND_ID": "37",
        "xIRA58fC": "\u95c7\u3068\u306e\u6c7a\u6226",
        "P_SOUND_FILE": "BF2_037_btl_7boss2.acb",
        "P_DISPORDER": "0",
        "n8dwpcX0": "100",
        "P_EXT_IMG_PARAM": "\u53e4\u306e\u6226\u6b4c\u3092\u4eca\u98a8\u306b\u4f5c\u308a\u76f4\u3057\u3001\u82e5\u304d\n\u52c7\u8005\u305f\u3061\u306b\u8d08\u3089\u308c\u305f\u697d\u66f2",
        "P_NEED_SWITCH_INFO": "",
        "P_OPEN_SWITCH_INFO": "",
        "P_CREATEDATE": "2018-10-10 13:22:55",
        "P_UPDATEDATE": "2018-10-10 13:22:55"
    },
    {
        "P_SOUND_ID": "38",
        "xIRA58fC": "\u30df\u30df\u30c3\u30af",
        "P_SOUND_FILE": "BF2_038_btl_mimic.acb",
        "P_DISPORDER": "31",
        "n8dwpcX0": "100",
        "P_EXT_IMG_PARAM": "\u304b\u3064\u3066\u6b53\u697d\u8857\u306e\u9685\u3067\u95c7\u53d6\u5f15\u3055\u308c\u3066\n\u3044\u305f\u3068\u3044\u3046\u97f3\u697d\u30b9\u30d5\u30a3\u30a2",
        "P_NEED_SWITCH_INFO": "",
        "P_OPEN_SWITCH_INFO": "",
        "P_CREATEDATE": "2018-10-10 13:22:55",
        "P_UPDATEDATE": "2018-10-10 13:22:55"
    },
    {
        "P_SOUND_ID": "39",
        "xIRA58fC": "\u30d6\u30ec\u30a4\u30d6\u30a2\u30fc\u30af",
        "P_SOUND_FILE": "BF2_039_btl_boss01.acb",
        "P_DISPORDER": "32",
        "n8dwpcX0": "100",
        "P_EXT_IMG_PARAM": "\u30b0\u30e9\u30f3\u30ac\u30a4\u30a2\u3067\u767a\u6398\u3055\u308c\u3001\u9ad8\u5024\u3067\n\u53d6\u5f15\u3055\u308c\u3066\u3044\u308b\u97f3\u697d\u30b9\u30d5\u30a3\u30a2",
        "P_NEED_SWITCH_INFO": "10000159",
        "P_OPEN_SWITCH_INFO": "",
        "P_CREATEDATE": "2018-10-10 13:22:55",
        "P_UPDATEDATE": "2018-10-10 13:22:55"
    },
    {
        "P_SOUND_ID": "40",
        "xIRA58fC": "\u4e0d\u6493\u4e0d\u5c48",
        "P_SOUND_FILE": "BF2_040_btl_nomal01.acb",
        "P_DISPORDER": "33",
        "n8dwpcX0": "100",
        "P_EXT_IMG_PARAM": "\u30a8\u30eb\u30ac\u30a4\u30a2\u306b\u53e4\u304f\u304b\u3089\u4f1d\u308f\u308b\u6f14\u6b66\n\u306e\u5c71\u5834\u3067\u6f14\u594f\u3055\u308c\u308b\u66f2",
        "P_NEED_SWITCH_INFO": "",
        "P_OPEN_SWITCH_INFO": "",
        "P_CREATEDATE": "2018-10-10 13:22:55",
        "P_UPDATEDATE": "2018-10-10 13:22:55"
    },
    {
        "P_SOUND_ID": "41",
        "xIRA58fC": "\u30d5\u30a9\u30fc\u30c8\u30ec\u30b9",
        "P_SOUND_FILE": "BF2_041_btl_nomal02.acb",
        "P_DISPORDER": "34",
        "n8dwpcX0": "100",
        "P_EXT_IMG_PARAM": "\u30e2\u30eb\u30c7\u30f3\u30ab\u30f3\u30d7\u306b\u3042\u308b\u8981\u585e\u4ed8\u8fd1\u3067\n\u767a\u898b\u3055\u308c\u305f\u97f3\u697d\u30b9\u30d5\u30a3\u30a2",
        "P_NEED_SWITCH_INFO": "",
        "P_OPEN_SWITCH_INFO": "",
        "P_CREATEDATE": "2018-10-10 13:22:55",
        "P_UPDATEDATE": "2018-10-10 13:22:55"
    },
    {
        "P_SOUND_ID": "42",
        "xIRA58fC": "\u9032\u8ecd\u306e\u6642",
        "P_SOUND_FILE": "BF2_042_btl_nomal03.acb",
        "P_DISPORDER": "35",
        "n8dwpcX0": "100",
        "P_EXT_IMG_PARAM": "\u6575\u306e\u5927\u8ecd\u3078\u7a81\u6483\u3057\u3066\u3044\u3063\u305f\u5175\u58eb\u3092\n\u8b83\u3048\u3066\u4f5c\u3089\u308c\u305f\u697d\u66f2",
        "P_NEED_SWITCH_INFO": "",
        "P_OPEN_SWITCH_INFO": "",
        "P_CREATEDATE": "2018-10-10 13:22:55",
        "P_UPDATEDATE": "2018-10-10 13:22:55"
    },
    {
        "P_SOUND_ID": "43",
        "xIRA58fC": "Swift",
        "P_SOUND_FILE": "BF2_043_btl_nomal04.acb",
        "P_DISPORDER": "36",
        "n8dwpcX0": "100",
        "P_EXT_IMG_PARAM": "\u5d50\u306e\u7a7a\u3092\u98db\u3093\u3067\u3044\u304f\u8239\u3092\u898b\u305f\u3068\u3044\n\u3046\u4f5c\u66f2\u5bb6\u304c\u4f5c\u3063\u305f\u697d\u66f2",
        "P_NEED_SWITCH_INFO": "",
        "P_OPEN_SWITCH_INFO": "",
        "P_CREATEDATE": "2018-10-10 13:22:55",
        "P_UPDATEDATE": "2018-10-10 13:22:55"
    },
    {
        "P_SOUND_ID": "44",
        "xIRA58fC": "Strike Back",
        "P_SOUND_FILE": "BF2_044_btl_nomal05.acb",
        "P_DISPORDER": "37",
        "n8dwpcX0": "100",
        "P_EXT_IMG_PARAM": "\u50b7\u4e00\u3064\u8ca0\u308f\u305a\u3001\u7121\u6557\u3092\u8a87\u3063\u305f\u3068\u3044\n\u3046\u95d8\u6280\u5834\u306e\u6226\u58eb\u3092\u8b33\u3063\u305f\u66f2",
        "P_NEED_SWITCH_INFO": "",
        "P_OPEN_SWITCH_INFO": "",
        "P_CREATEDATE": "2018-10-10 13:22:55",
        "P_UPDATEDATE": "2018-10-10 13:22:55"
    },
    {
        "P_SOUND_ID": "45",
        "xIRA58fC": "Right Track",
        "P_SOUND_FILE": "BF2_045_btl_nomal06.acb",
        "P_DISPORDER": "38",
        "n8dwpcX0": "100",
        "P_EXT_IMG_PARAM": "\u8b0e\u306e\u97f3\u697d\u5bb6\u306b\u3088\u3063\u3066\u5236\u4f5c\u3055\u308c\u305f\n\u4fe1\u5ff5\u306e\u5f37\u3055\u3092\u601d\u308f\u305b\u308b\u697d\u66f2",
        "P_NEED_SWITCH_INFO": "",
        "P_OPEN_SWITCH_INFO": "",
        "P_CREATEDATE": "2018-10-10 13:22:55",
        "P_UPDATEDATE": "2018-10-10 13:22:55"
    },
    {
        "P_SOUND_ID": "49",
        "xIRA58fC": "\u5275\u9020\u4e3b",
        "P_SOUND_FILE": "BF2_049_btl_ordeal.acb",
        "P_DISPORDER": "39",
        "n8dwpcX0": "100",
        "P_EXT_IMG_PARAM": "\u5275\u9020\u795e\u306e\u523b\u5370\u304c\u65bd\u3055\u308c\u3066\u3044\u308b\n\u975e\u5e38\u306b\u8cb4\u91cd\u306a\u97f3\u697d\u30b9\u30d5\u30a3\u30a2",
        "P_NEED_SWITCH_INFO": "2100005",
        "P_OPEN_SWITCH_INFO": "",
        "P_CREATEDATE": "2018-10-10 13:22:55",
        "P_UPDATEDATE": "2018-10-10 13:22:55"
    },
    {
        "P_SOUND_ID": "51",
        "xIRA58fC": "\u6e3e\u6c8c",
        "P_SOUND_FILE": "BF2_051_scr_extus.acb",
        "P_DISPORDER": "40",
        "n8dwpcX0": "100",
        "P_EXT_IMG_PARAM": "\u30a4\u30af\u30b9\u30bf\u30b9\u306e\u5965\u5730\u3067\u767a\u898b\u3055\u308c\u305f\n\u4e0d\u5b89\u3068\u7dca\u5f35\u3092\u611f\u3058\u3055\u305b\u308b\u697d\u66f2",
        "P_NEED_SWITCH_INFO": "",
        "P_OPEN_SWITCH_INFO": "",
        "P_CREATEDATE": "2018-10-10 13:22:55",
        "P_UPDATEDATE": "2018-10-10 13:22:55"
    },
    {
        "P_SOUND_ID": "52",
        "xIRA58fC": "\u6182\u4e8b",
        "P_SOUND_FILE": "BF2_052_scr_restless.acb",
        "P_DISPORDER": "41",
        "n8dwpcX0": "100",
        "P_EXT_IMG_PARAM": "\u5931\u8e2a\u3057\u305f\u540d\u4f5c\u66f2\u5bb6\u304c\u3001\u5df1\u306e\u5fc3\u4e2d\u3092\n\u8868\u73fe\u3057\u305f\u3068\u3055\u308c\u308b\u697d\u66f2",
        "P_NEED_SWITCH_INFO": "",
        "P_OPEN_SWITCH_INFO": "",
        "P_CREATEDATE": "2018-10-10 13:22:55",
        "P_UPDATEDATE": "2018-10-10 13:22:55"
    },
    {
        "P_SOUND_ID": "54",
        "xIRA58fC": "\u731f\u4eba",
        "P_SOUND_FILE": "BF2_054_btl_fh.acb",
        "P_DISPORDER": "42",
        "n8dwpcX0": "100",
        "P_EXT_IMG_PARAM": "\u751f\u7269\u6dd8\u6c70\u6fc0\u3057\u3044\u672a\u77e5\u306e\u571f\u5730\u3067\n\u5076\u7136\u767a\u898b\u3055\u308c\u305f\u53e4\u306e\u97f3\u697d\u30b9\u30d5\u30a3\u30a2",
        "P_NEED_SWITCH_INFO": "2100006",
        "P_OPEN_SWITCH_INFO": "",
        "P_CREATEDATE": "2018-10-10 13:22:55",
        "P_UPDATEDATE": "2018-10-10 13:22:55"
    },
    {
        "P_SOUND_ID": "55",
        "xIRA58fC": "\u99c6\u3051\u629c\u3051\u308b\u60f3\u3044",
        "P_SOUND_FILE": "BF2_055_btl_nomal07.acb",
        "P_DISPORDER": "66",
        "n8dwpcX0": "100",
        "P_EXT_IMG_PARAM": "\u9059\u304b\u306a\u308b\u6843\u6e90\u90f7\u3092\u76ee\u6307\u3057\n\u958b\u62d3\u3092\u7d9a\u3051\u308b\u65c5\u4eba\u3089\u3092\u8b33\u3063\u305f\u697d\u66f2",
        "P_NEED_SWITCH_INFO": "12000404|10000211",
        "P_OPEN_SWITCH_INFO": "",
        "P_CREATEDATE": "2018-10-10 13:22:55",
        "P_UPDATEDATE": "2018-10-10 13:22:55"
    },
    {
        "P_SOUND_ID": "56",
        "xIRA58fC": "\u6c7a\u610f",
        "P_SOUND_FILE": "BF2_056_scr_resolution.acb",
        "P_DISPORDER": "44",
        "n8dwpcX0": "100",
        "P_EXT_IMG_PARAM": "\u3042\u308b\u4f5c\u66f2\u5bb6\u304c\u3001\u6c7a\u65ad\u306b\u8feb\u3089\u308c\u305f\n\u53cb\u4eba\u306e\u80cc\u3092\u62bc\u3059\u70ba\u306b\u4f5c\u3063\u305f\u66f2",
        "P_NEED_SWITCH_INFO": "",
        "P_OPEN_SWITCH_INFO": "",
        "P_CREATEDATE": "2018-10-10 13:22:55",
        "P_UPDATEDATE": "2018-10-10 13:22:55"
    },
    {
        "P_SOUND_ID": "57",
        "xIRA58fC": "\u30b7\u30fc\u30f3\u30cb\u30e5\u30fc\u30c8\u30e9\u30eb\u203b\u975e\u8868\u793a",
        "P_SOUND_FILE": "BF2_057_scr_neutral.acb",
        "P_DISPORDER": "0",
        "n8dwpcX0": "100",
        "P_EXT_IMG_PARAM": "ID\uff1a57\n\u30b7\u30fc\u30f3\u30cb\u30e5\u30fc\u30c8\u30e9\u30eb\u203b\u975e\u8868\u793a",
        "P_NEED_SWITCH_INFO": "",
        "P_OPEN_SWITCH_INFO": "",
        "P_CREATEDATE": "2018-10-10 13:22:55",
        "P_UPDATEDATE": "2018-10-10 13:22:55"
    },
    {
        "P_SOUND_ID": "58",
        "xIRA58fC": "\u65e5\u5e38",
        "P_SOUND_FILE": "BF2_058_scr_daily.acb",
        "P_DISPORDER": "46",
        "n8dwpcX0": "100",
        "P_EXT_IMG_PARAM": "\u4f55\u6c17\u306a\u3044\u65e5\u3005\u304c\u7d9a\u304f\u5e78\u305b\u3092\n\u611f\u3058\u308b\u3053\u3068\u306e\u3067\u304d\u308b\u4e00\u66f2",
        "P_NEED_SWITCH_INFO": "",
        "P_OPEN_SWITCH_INFO": "",
        "P_CREATEDATE": "2018-10-10 13:22:55",
        "P_UPDATEDATE": "2018-10-10 13:22:55"
    },
    {
        "P_SOUND_ID": "59",
        "xIRA58fC": "\u30b7\u30fc\u30f3\u7b2c\u4e00\u7ae0\u30e0\u30fc\u30d3\u30fc\u7528\u203b\u975e\u8868\u793a",
        "P_SOUND_FILE": "BF2_059_scr_op_movie.acb",
        "P_DISPORDER": "0",
        "n8dwpcX0": "100",
        "P_EXT_IMG_PARAM": "ID\uff1a59\n\u30b7\u30fc\u30f3OP\u30e0\u30fc\u30d3\u30fc\u203b\u975e\u8868\u793a",
        "P_NEED_SWITCH_INFO": "",
        "P_OPEN_SWITCH_INFO": "",
        "P_CREATEDATE": "2018-10-10 13:22:55",
        "P_UPDATEDATE": "2018-10-10 13:22:55"
    },
    {
        "P_SOUND_ID": "60",
        "xIRA58fC": "\u30b7\u30fc\u30f3OP\u30ef\u30fc\u30d7\u203b\u975e\u8868\u793a",
        "P_SOUND_FILE": "BF2_060_scr_demension.acb",
        "P_DISPORDER": "0",
        "n8dwpcX0": "100",
        "P_EXT_IMG_PARAM": "ID\uff1a60\n\u30b7\u30fc\u30f3OP\u30ef\u30fc\u30d7\u203b\u975e\u8868\u793a",
        "P_NEED_SWITCH_INFO": "",
        "P_OPEN_SWITCH_INFO": "",
        "P_CREATEDATE": "2018-10-10 13:22:55",
        "P_UPDATEDATE": "2018-10-10 13:22:55"
    },
    {
        "P_SOUND_ID": "61",
        "xIRA58fC": "\u30b7\u30fc\u30f3OP\u98a8\u203b\u975e\u8868\u793a",
        "P_SOUND_FILE": "BF2_061_scr_wind.acb",
        "P_DISPORDER": "0",
        "n8dwpcX0": "100",
        "P_EXT_IMG_PARAM": "ID\uff1a61\n\u30b7\u30fc\u30f3OP\u98a8\u203b\u975e\u8868\u793a",
        "P_NEED_SWITCH_INFO": "",
        "P_OPEN_SWITCH_INFO": "",
        "P_CREATEDATE": "2018-10-10 13:22:55",
        "P_UPDATEDATE": "2018-10-10 13:22:55"
    },
    {
        "P_SOUND_ID": "62",
        "xIRA58fC": "\u30b7\u30fc\u30f3\u7121\u97f3\u203b\u975e\u8868\u793a",
        "P_SOUND_FILE": "BF2_062_nothing.acb",
        "P_DISPORDER": "0",
        "n8dwpcX0": "100",
        "P_EXT_IMG_PARAM": "ID\uff1a62\n\u30b7\u30fc\u30f3OP\u7121\u97f3\u203b\u975e\u8868\u793a",
        "P_NEED_SWITCH_INFO": "",
        "P_OPEN_SWITCH_INFO": "",
        "P_CREATEDATE": "2018-10-10 13:22:55",
        "P_UPDATEDATE": "2018-10-10 13:22:55"
    },
    {
        "P_SOUND_ID": "63",
        "xIRA58fC": "\u6c7a\u610fAuthentic",
        "P_SOUND_FILE": "BF2_063_scr_resolution2.acb",
        "P_DISPORDER": "0",
        "n8dwpcX0": "100",
        "P_EXT_IMG_PARAM": "\u3042\u308b\u4f5c\u66f2\u5bb6\u304c\u3001\u6c7a\u65ad\u3092\u4e0b\u3057\u3066\u9060\u304f\n\u3078\u65c5\u7acb\u3063\u305f\u53cb\u4eba\u3092\u601d\u3044\u3001\u4f5c\u3063\u305f\u66f2",
        "P_NEED_SWITCH_INFO": "",
        "P_OPEN_SWITCH_INFO": "",
        "P_CREATEDATE": "2018-10-10 13:22:55",
        "P_UPDATEDATE": "2018-10-10 13:22:55"
    },
    {
        "P_SOUND_ID": "64",
        "xIRA58fC": "\u9b54\u57ce",
        "P_SOUND_FILE": "BF2_064_btl_devilcastle.acb",
        "P_DISPORDER": "67",
        "n8dwpcX0": "100",
        "P_EXT_IMG_PARAM": "\u6575\u9663\u6df1\u304f\u3078\u3068\u65ac\u308a\u8fbc\u3080\u82f1\u96c4\u306e\n\u5fc3\u60c5\u3092\u594f\u3067\u308b\u52c7\u58ee\u306a\u884c\u9032\u66f2",
        "P_NEED_SWITCH_INFO": "10000232",
        "P_OPEN_SWITCH_INFO": "",
        "P_CREATEDATE": "2018-10-10 13:22:55",
        "P_UPDATEDATE": "2018-10-10 13:22:55"
    },
    {
        "P_SOUND_ID": "65",
        "xIRA58fC": "\u30a2\u30d5\u30bf\u30fc\u30a2\u30ef\u30fc\u30ba",
        "P_SOUND_FILE": "BF2_065_exg_arenatopjz.acb",
        "P_DISPORDER": "68",
        "n8dwpcX0": "100",
        "P_EXT_IMG_PARAM": "\u6642\u306b\u306f\u606f\u629c\u304d\u3082\u5fc5\u8981\n\u97f3\u697d\u5bb6\u30e9\u30eb\u30d5\u306e\u540d\u66f2\u304c\u7526\u308b",
        "P_NEED_SWITCH_INFO": "2110012",
        "P_OPEN_SWITCH_INFO": "",
        "P_CREATEDATE": "2018-10-10 13:22:55",
        "P_UPDATEDATE": "2018-10-10 13:22:55"
    },
    {
        "P_SOUND_ID": "66",
        "xIRA58fC": "\u30b9\u30a4\u30f3\u30b0\u30b5\u30de\u30ca\u30fc",
        "P_SOUND_FILE": "BF2_066_exg_arenabtljz.acb",
        "P_DISPORDER": "69",
        "n8dwpcX0": "100",
        "P_EXT_IMG_PARAM": "\u6d17\u7df4\u3055\u308c\u305f\u30aa\u30c8\u30ca\u306e\u6226\u3044\u306b\u5408\u308f\u305b\n\u30a2\u30ec\u30f3\u30b8\u304c\u52a0\u3048\u3089\u308c\u305f\u697d\u66f2",
        "P_NEED_SWITCH_INFO": "2110012",
        "P_OPEN_SWITCH_INFO": "",
        "P_CREATEDATE": "2018-10-10 13:22:55",
        "P_UPDATEDATE": "2018-10-10 13:22:55"
    },
    {
        "P_SOUND_ID": "67",
        "xIRA58fC": "SW_\u30e1\u30a4\u30f3\u30c6\u30fc\u30de",
        "P_SOUND_FILE": "BF2_067_btl_sw_maintitle.acb",
        "P_DISPORDER": "0",
        "n8dwpcX0": "100",
        "P_EXT_IMG_PARAM": "",
        "P_NEED_SWITCH_INFO": "",
        "P_OPEN_SWITCH_INFO": "",
        "P_CREATEDATE": "2018-10-10 13:22:55",
        "P_UPDATEDATE": "2018-10-10 13:22:55"
    },
    {
        "P_SOUND_ID": "68",
        "xIRA58fC": "SW_\u30a8\u30f3\u30c9\u30a2",
        "P_SOUND_FILE": "BF2_069_btl_sw_thebattleofendor1.acb",
        "P_DISPORDER": "0",
        "n8dwpcX0": "100",
        "P_EXT_IMG_PARAM": "",
        "P_NEED_SWITCH_INFO": "",
        "P_OPEN_SWITCH_INFO": "",
        "P_CREATEDATE": "2018-10-10 13:22:55",
        "P_UPDATEDATE": "2018-10-10 13:22:55"
    },
    {
        "P_SOUND_ID": "69",
        "xIRA58fC": "SW_\u5e1d\u56fd\u306e\u30de\u30fc\u30c1",
        "P_SOUND_FILE": "BF2_068_btl_sw_theimperialmarch.acb",
        "P_DISPORDER": "0",
        "n8dwpcX0": "100",
        "P_EXT_IMG_PARAM": "",
        "P_NEED_SWITCH_INFO": "",
        "P_OPEN_SWITCH_INFO": "",
        "P_CREATEDATE": "2018-10-10 13:22:55",
        "P_UPDATEDATE": "2018-10-10 13:22:55"
    },
    {
        "P_SOUND_ID": "70",
        "xIRA58fC": "SW_\u68ee\u6797\u306e\u6226\u3044",
        "P_SOUND_FILE": "BF2_070_btl_sw_theforestbattle.acb",
        "P_DISPORDER": "0",
        "n8dwpcX0": "100",
        "P_EXT_IMG_PARAM": "",
        "P_NEED_SWITCH_INFO": "",
        "P_OPEN_SWITCH_INFO": "",
        "P_CREATEDATE": "2018-10-10 13:22:55",
        "P_UPDATEDATE": "2018-10-10 13:22:55"
    },
    {
        "P_SOUND_ID": "71",
        "xIRA58fC": "SW_\u30db\u30b9\u306e\u6226\u3044",
        "P_SOUND_FILE": "BF2_071_btl_sw_thebattleofhoth.acb",
        "P_DISPORDER": "0",
        "n8dwpcX0": "100",
        "P_EXT_IMG_PARAM": "",
        "P_NEED_SWITCH_INFO": "",
        "P_OPEN_SWITCH_INFO": "",
        "P_CREATEDATE": "2018-10-10 13:22:55",
        "P_UPDATEDATE": "2018-10-10 13:22:55"
    },
    {
        "P_SOUND_ID": "1009",
        "xIRA58fC": "\u6751",
        "P_SOUND_FILE": "BF1_1009_btl_village.acb",
        "P_DISPORDER": "0",
        "n8dwpcX0": "100",
        "P_EXT_IMG_PARAM": "\u6751",
        "P_NEED_SWITCH_INFO": "",
        "P_OPEN_SWITCH_INFO": "",
        "P_CREATEDATE": "2018-10-10 13:22:55",
        "P_UPDATEDATE": "2018-10-10 13:22:55"
    },
    {
        "P_SOUND_ID": "1010",
        "xIRA58fC": "\u8f1d\u304f\u592a\u967d\u3068\u7dd1",
        "P_SOUND_FILE": "BF1_1010_btl_grass.acb",
        "P_DISPORDER": "50",
        "n8dwpcX0": "100",
        "P_EXT_IMG_PARAM": "\u30b0\u30e9\u30f3\u30ac\u30a4\u30a2\u306e\u96c4\u5927\u306a\u666f\u8272\u306b\n\u611f\u52d5\u3057\u305f\u4f5c\u66f2\u5bb6\u30c0\u30b9\u30b1\u30eb\u306e\u51fa\u4e16\u4f5c",
        "P_NEED_SWITCH_INFO": "",
        "P_OPEN_SWITCH_INFO": "",
        "P_CREATEDATE": "2018-10-10 13:22:55",
        "P_UPDATEDATE": "2018-10-10 13:22:55"
    },
    {
        "P_SOUND_ID": "1011",
        "xIRA58fC": "\u708e",
        "P_SOUND_FILE": "BF1_1011_btl_firecave.acb",
        "P_DISPORDER": "51",
        "n8dwpcX0": "100",
        "P_EXT_IMG_PARAM": "\u30df\u30b9\u30c8\u30e9\u30eb\u306e\u708e\u98a8\u306e\u6d1e\u7a9f\u306e\u5965\u5730\u3067\n\u767a\u6398\u3055\u308c\u305f\u97f3\u697d\u30b9\u30d5\u30a3\u30a2",
        "P_NEED_SWITCH_INFO": "",
        "P_OPEN_SWITCH_INFO": "",
        "P_CREATEDATE": "2018-10-10 13:22:55",
        "P_UPDATEDATE": "2018-10-10 13:22:55"
    },
    {
        "P_SOUND_ID": "1012",
        "xIRA58fC": "\u51cd\u3066\u3064\u304f\u6d99",
        "P_SOUND_FILE": "BF1_1012_btl_snow.acb",
        "P_DISPORDER": "52",
        "n8dwpcX0": "100",
        "P_EXT_IMG_PARAM": "\u767d\u96ea\u306e\u511a\u3055\u3068\u7f8e\u3057\u3055\u3092\u8868\u73fe\u3057\u305f\u3068\n\u3055\u308c\u308b\u53e4\u306e\u97f3\u697d\u30b9\u30d5\u30a3\u30a2",
        "P_NEED_SWITCH_INFO": "",
        "P_OPEN_SWITCH_INFO": "",
        "P_CREATEDATE": "2018-10-10 13:22:55",
        "P_UPDATEDATE": "2018-10-10 13:22:55"
    },
    {
        "P_SOUND_ID": "1018",
        "xIRA58fC": "\u8703\u6c17\u697c",
        "P_SOUND_FILE": "BF1_1018_btl_sand.acb",
        "P_DISPORDER": "0",
        "n8dwpcX0": "100",
        "P_EXT_IMG_PARAM": "",
        "P_NEED_SWITCH_INFO": "",
        "P_OPEN_SWITCH_INFO": "",
        "P_CREATEDATE": "2018-10-10 13:22:55",
        "P_UPDATEDATE": "2018-10-10 13:22:55"
    },
    {
        "P_SOUND_ID": "1020",
        "xIRA58fC": "\u5b64\u72ec\u306a\u529b",
        "P_SOUND_FILE": "BF1_1020_btl_nightwood.acb",
        "P_DISPORDER": "53",
        "n8dwpcX0": "100",
        "P_EXT_IMG_PARAM": "\u6211\u304c\u7b2c\u4e8c\u306e\u4eba\u751f\u306f\u3053\u306e\u9053\u3088\u308a\n\u59cb\u307e\u308b\u2026\u2026\u3000\u4f5c\u66f2\uff1a\u30e9\u30e1\u30a2",
        "P_NEED_SWITCH_INFO": "",
        "P_OPEN_SWITCH_INFO": "",
        "P_CREATEDATE": "2018-10-10 13:22:55",
        "P_UPDATEDATE": "2018-10-10 13:22:55"
    },
    {
        "P_SOUND_ID": "1021",
        "xIRA58fC": "\u7adc\u306e\u722a\u8de1",
        "P_SOUND_FILE": "BF1_1021_btl_wasteland02.acb",
        "P_DISPORDER": "0",
        "n8dwpcX0": "100",
        "P_EXT_IMG_PARAM": "",
        "P_NEED_SWITCH_INFO": "",
        "P_OPEN_SWITCH_INFO": "",
        "P_CREATEDATE": "2018-10-10 13:22:55",
        "P_UPDATEDATE": "2018-10-10 13:22:55"
    },
    {
        "P_SOUND_ID": "1024",
        "xIRA58fC": "\u60aa\u9b54\u306e\u5fc3",
        "P_SOUND_FILE": "BF1_1024_btl_cave.acb",
        "P_DISPORDER": "54",
        "n8dwpcX0": "100",
        "P_EXT_IMG_PARAM": "\u795e\u306e\u624b\u3068\u547c\u3070\u308c\u305f\u4f5c\u66f2\u5bb6\u30d9\u30fc\u30eb\u304c\n\u6700\u671f\u306b\u6b8b\u3057\u305f\u97f3\u697d\u30b9\u30d5\u30a3\u30a2",
        "P_NEED_SWITCH_INFO": "",
        "P_OPEN_SWITCH_INFO": "",
        "P_CREATEDATE": "2018-10-10 13:22:55",
        "P_UPDATEDATE": "2018-10-10 13:22:55"
    },
    {
        "P_SOUND_ID": "1030",
        "xIRA58fC": "\u30e1\u30bf\u30eb\u30af\u30e9\u30a6\u30c9",
        "P_SOUND_FILE": "BF1_1030_btl_evboss.acb",
        "P_DISPORDER": "65",
        "n8dwpcX0": "100",
        "P_EXT_IMG_PARAM": "\u91d1\u878d\u8857\u30e9\u30f3\u30c9\u30b1\u30fc\u30eb\u306e\u88cf\u53d6\u5f15\u3067\n\u7af6\u58f2\u306b\u304b\u3051\u3089\u308c\u3066\u3044\u305f\u8cb4\u91cd\u306a\u697d\u66f2",
        "P_NEED_SWITCH_INFO": "15000001",
        "P_OPEN_SWITCH_INFO": "",
        "P_CREATEDATE": "2018-10-10 13:22:55",
        "P_UPDATEDATE": "2018-10-10 13:22:55"
    },
    {
        "P_SOUND_ID": "1037",
        "xIRA58fC": "Gimmick",
        "P_SOUND_FILE": "BF1_1037_lab_lighttower.acb",
        "P_DISPORDER": "55",
        "n8dwpcX0": "100",
        "P_EXT_IMG_PARAM": "\u9577\u304d\u306b\u6e21\u308a\u82e5\u624b\u53ec\u559a\u5e2b\u305f\u3061\u306b\n\u611b\u3055\u308c\u3066\u3044\u308b\u6709\u540d\u66f2",
        "P_NEED_SWITCH_INFO": "2100006",
        "P_OPEN_SWITCH_INFO": "",
        "P_CREATEDATE": "2018-10-10 13:22:55",
        "P_UPDATEDATE": "2018-10-10 13:22:55"
    },
    {
        "P_SOUND_ID": "1041",
        "xIRA58fC": "\u7d05\u306e\u4e18",
        "P_SOUND_FILE": "BF1_1041_btl_jewrel.acb",
        "P_DISPORDER": "56",
        "n8dwpcX0": "100",
        "P_EXT_IMG_PARAM": "\u4e89\u3044\u306e\u72a0\u7272\u3068\u306a\u3063\u305f\u8005\u3092\u5f14\u3046\u70ba\u306b\n\u796d\u793c\u3067\u62ab\u9732\u3055\u308c\u308b\u93ae\u9b42\u6b4c",
        "P_NEED_SWITCH_INFO": "10000104",
        "P_OPEN_SWITCH_INFO": "",
        "P_CREATEDATE": "2018-10-10 13:22:55",
        "P_UPDATEDATE": "2018-10-10 13:22:55"
    },
    {
        "P_SOUND_ID": "1049",
        "xIRA58fC": "\u795e\u6226",
        "P_SOUND_FILE": "BF1_1049_btl_raid_boss.acb",
        "P_DISPORDER": "0",
        "n8dwpcX0": "100",
        "P_EXT_IMG_PARAM": "\u9b54\u795e\u3068\u51fa\u4f1a\u3063\u305f\u6642\u306e\u3042\u306e\u6226\u6144\u3092\n\u97f3\u697d\u3067\u518d\u73fe\u3057\u305f\u3044\u2026",
        "P_NEED_SWITCH_INFO": "",
        "P_OPEN_SWITCH_INFO": "",
        "P_CREATEDATE": "2018-10-10 13:22:55",
        "P_UPDATEDATE": "2018-10-10 13:22:55"
    },
    {
        "P_SOUND_ID": "1052",
        "xIRA58fC": "\u9b54\u969c",
        "P_SOUND_FILE": "BF1_1052_btl_mgc_swamp.acb",
        "P_DISPORDER": "57",
        "n8dwpcX0": "100",
        "P_EXT_IMG_PARAM": "\u9b54\u7634\u6f02\u3046\u6cbc\u5730\u306e\u5965\u5e95\u3088\u308a\u9cf4\u308a\u97ff\u304d\n\u7d9a\u3051\u3066\u3044\u305f\u3068\u3044\u3046\u592a\u53e4\u306e\u697d\u66f2",
        "P_NEED_SWITCH_INFO": "10000084",
        "P_OPEN_SWITCH_INFO": "",
        "P_CREATEDATE": "2018-10-10 13:22:55",
        "P_UPDATEDATE": "2018-10-10 13:22:55"
    },
    {
        "P_SOUND_ID": "1053",
        "xIRA58fC": "\u7a32\u59bb\u306e\u5f7c\u65b9\u3078",
        "P_SOUND_FILE": "BF1_1053_btl_zazilba.acb",
        "P_DISPORDER": "58",
        "n8dwpcX0": "100",
        "P_EXT_IMG_PARAM": "\u96f7\u9cf4\u8f5f\u304f\u68ee\u3067\u767a\u898b\u3055\u308c\u305f\u697d\u8b5c\u3092\n\u8fd1\u4ee3\u306e\u97f3\u697d\u5bb6\u305f\u3061\u304c\u8607\u3089\u305b\u305f\u3082\u306e",
        "P_NEED_SWITCH_INFO": "",
        "P_OPEN_SWITCH_INFO": "",
        "P_CREATEDATE": "2018-10-10 13:22:55",
        "P_UPDATEDATE": "2018-10-10 13:22:55"
    },
    {
        "P_SOUND_ID": "1060",
        "xIRA58fC": "\u96ea\u539f\u306e\u8a69",
        "P_SOUND_FILE": "BF1_1060_btl_alvest.acb",
        "P_DISPORDER": "59",
        "n8dwpcX0": "100",
        "P_EXT_IMG_PARAM": "\u96ea\u539f\u306b\u4f47\u3080\u5893\u6a19\u306b\u523b\u307e\u308c\u3066\u3044\u305f\n\u5927\u5207\u306a\u8005\u306e\u9b42\u3092\u9001\u308b\u70ba\u306e\u4e00\u66f2",
        "P_NEED_SWITCH_INFO": "10000104",
        "P_OPEN_SWITCH_INFO": "",
        "P_CREATEDATE": "2018-10-10 13:22:55",
        "P_UPDATEDATE": "2018-10-10 13:22:55"
    },
    {
        "P_SOUND_ID": "1087",
        "xIRA58fC": "\u60a0\u4e45\u305f\u308b\u7948\u308a",
        "P_SOUND_FILE": "BF1_1087_lab_akras_mypage02.acb",
        "P_DISPORDER": "60",
        "n8dwpcX0": "100",
        "P_EXT_IMG_PARAM": "\u82e5\u304d\u53ec\u559a\u5e2b\u305f\u3061\u306e\u6210\u9577\u3092\u7948\u9858\u3057\u3066\n\u8457\u540d\u306a\u97f3\u697d\u5bb6\u3088\u308a\u5bc4\u8d08\u3055\u308c\u305f\u697d\u66f2",
        "P_NEED_SWITCH_INFO": "2100005",
        "P_OPEN_SWITCH_INFO": "",
        "P_CREATEDATE": "2018-10-10 13:22:55",
        "P_UPDATEDATE": "2018-10-10 13:22:55"
    },
    {
        "P_SOUND_ID": "1095",
        "xIRA58fC": "\u5927\u3044\u306a\u308b\u98db\u7fd4",
        "P_SOUND_FILE": "BF1_1095_btl_another_worldbtl.acb",
        "P_DISPORDER": "70",
        "n8dwpcX0": "100",
        "P_EXT_IMG_PARAM": "\u65b0\u305f\u306a\u5192\u967a\u306b\u65c5\u7acb\u3063\u305f\n\u4f1d\u8aac\u306e\u53ec\u559a\u5e2b\u3092\u8b83\u3048\u308b\u795d\u5178\u66f2",
        "P_NEED_SWITCH_INFO": "",
        "P_OPEN_SWITCH_INFO": "",
        "P_CREATEDATE": "2018-10-10 13:22:55",
        "P_UPDATEDATE": "2018-10-10 13:22:55"
    },
    {
        "P_SOUND_ID": "1101",
        "xIRA58fC": "\u6226\u53cb\u3078",
        "P_SOUND_FILE": "BF1_1101_lab_multi_lobi.acb",
        "P_DISPORDER": "61",
        "n8dwpcX0": "100",
        "P_EXT_IMG_PARAM": "\u53e4\u304f\u3088\u308a\u6226\u5834\u3067\u53e3\u305a\u3055\u307e\u308c\u3066\u304d\u305f\n\u6226\u6b4c\u3092\u89aa\u3057\u307f\u3084\u3059\u304f\u7de8\u66f2\u3057\u305f\u3082\u306e",
        "P_NEED_SWITCH_INFO": "2100005",
        "P_OPEN_SWITCH_INFO": "",
        "P_CREATEDATE": "2018-10-10 13:22:55",
        "P_UPDATEDATE": "2018-10-10 13:22:55"
    },
    {
        "P_SOUND_ID": "1102",
        "xIRA58fC": "Tremors",
        "P_SOUND_FILE": "BF1_1102_btl_multi_ready.acb",
        "P_DISPORDER": "0",
        "n8dwpcX0": "100",
        "P_EXT_IMG_PARAM": "\u6226\u5730\u3088\u308a\u5e30\u9084\u3057\u305f\u82e5\u304d\u97f3\u697d\u5bb6\u304c\n\u51fa\u6483\u524d\u306e\u7dca\u8feb\u611f\u3092\u8868\u3057\u305f\u697d\u66f2",
        "P_NEED_SWITCH_INFO": "",
        "P_OPEN_SWITCH_INFO": "",
        "P_CREATEDATE": "2018-10-10 13:22:55",
        "P_UPDATEDATE": "2018-10-10 13:22:55"
    },
    {
        "P_SOUND_ID": "1103",
        "xIRA58fC": "\u7d46\uff01\u9023\u6483\uff01Break\uff01\uff01",
        "P_SOUND_FILE": "BF1_1103_btl_multi_battle01.acb",
        "P_DISPORDER": "64",
        "n8dwpcX0": "100",
        "P_EXT_IMG_PARAM": "\u58ca\u308c\u305f\u97f3\u697d\u30b9\u30d5\u30a3\u30a2\u3092\u89e3\u6790\u3057\u3066\n\u518d\u73fe\u3057\u305f\u3001\u6226\u5834\u3092\u9023\u60f3\u3055\u305b\u308b\u4e00\u66f2",
        "P_NEED_SWITCH_INFO": "14000000",
        "P_OPEN_SWITCH_INFO": "",
        "P_CREATEDATE": "2018-10-10 13:22:55",
        "P_UPDATEDATE": "2018-10-10 13:22:55"
    },
    {
        "P_SOUND_ID": "1104",
        "xIRA58fC": "\u6b66\u5fc3\u306e\u8a89\u308c",
        "P_SOUND_FILE": "BF1_1104_btl_Scenario3_1st.acb",
        "P_DISPORDER": "71",
        "n8dwpcX0": "100",
        "P_EXT_IMG_PARAM": "\u51f0\u5203\u90a3\u539f\u306b\u9023\u7dbf\u3068\u53d7\u3051\u7d99\u304c\u308c\u308b\n\u201c\u30e2\u30ce\u30ce\u30d5\u201d\u306e\u77dc\u6301\u3092\u8b33\u3063\u305f\u697d\u66f2",
        "P_NEED_SWITCH_INFO": "12000908",
        "P_OPEN_SWITCH_INFO": "",
        "P_CREATEDATE": "2018-10-10 13:22:55",
        "P_UPDATEDATE": "2018-10-10 13:22:55"
    },
    {
        "P_SOUND_ID": "1105",
        "xIRA58fC": "\u76e4\u77f3\u306e\u81f3\u308a",
        "P_SOUND_FILE": "BF1_1105_btl_Scenario3_fin.acb",
        "P_DISPORDER": "72",
        "n8dwpcX0": "100",
        "P_EXT_IMG_PARAM": "\u7570\u754c\u72ec\u7279\u306e\u7f8e\u610f\u8b58\u3092\u30a4\u30e1\u30fc\u30b8\u3057\u3066\n\u4f5c\u3089\u308c\u305f\u697d\u66f2",
        "P_NEED_SWITCH_INFO": "12000908",
        "P_OPEN_SWITCH_INFO": "",
        "P_CREATEDATE": "2018-10-10 13:22:55",
        "P_UPDATEDATE": "2018-10-10 13:22:55"
    },
    {
        "P_SOUND_ID": "1112",
        "xIRA58fC": "\u7570\u540c\u6298\u8877",
        "P_SOUND_FILE": "BF1_1112_btl_Scenario3_fin02.acb",
        "P_DISPORDER": "73",
        "n8dwpcX0": "100",
        "P_EXT_IMG_PARAM": "\u30a8\u30eb\u30ac\u30a4\u30a2\u3068\u51f0\u5203\u90a3\u539f\u306e\u66f2\u8abf\u3092\n\u878d\u5408\u3055\u305b\u305f\u65b0\u9032\u6c17\u92ed\u306a\u97f3\u697d\u5bb6\u306e\u66f2",
        "P_NEED_SWITCH_INFO": "12000908",
        "P_OPEN_SWITCH_INFO": "",
        "P_CREATEDATE": "2018-10-10 13:22:55",
        "P_UPDATEDATE": "2018-10-10 13:22:55"
    },
    {
        "P_SOUND_ID": "1113",
        "xIRA58fC": "\u672a\u6765\u3078\u306e\u6c7a\u610f",
        "P_SOUND_FILE": "BF1_1113_btl_scenario5_bs1.acb",
        "P_DISPORDER": "62",
        "n8dwpcX0": "100",
        "P_EXT_IMG_PARAM": "\u65c5\u7acb\u3061\u3092\u6c7a\u5fc3\u3057\u305f\u82e5\u8005\u306e\n\u4fe1\u5ff5\u3068\u52c7\u6c17\u3092\u8b83\u3048\u308b\u58ee\u884c\u66f2",
        "P_NEED_SWITCH_INFO": "",
        "P_OPEN_SWITCH_INFO": "",
        "P_CREATEDATE": "2018-10-10 13:22:55",
        "P_UPDATEDATE": "2018-10-10 13:22:55"
    }
]