[
    {
        "P_AREA_ID": "1",
        "V84mzqoX": "\u7570\u754c\u9078\u629e\u753b\u9762",
        "3v1qg7Uj": "1",
        "4RnIaUq5": "0",
        "P_DISPORDER": "1",
        "X4mIT5Lc": "1",
        "P_IMG": "",
        "1gDkL6XR": "",
        "P_SOUND_ID": "9",
        "P_POS": "",
        "0I4MtuDa": "",
        "f73FMZua": "",
        "a91ecjh7": "",
        "P_EFFECT_INFO": "",
        "9bpFf3Ut": "",
        "P_NEED_SWITCH_INFO": "0",
        "P_HIDE_SWITCH_INFO": "",
        "P_SCHEDULE_ID": "0",
        "P_EXT_IMG_PARAM": "",
        "P_CREATEDATE": "2018-02-07 13:11:51",
        "P_UPDATEDATE": "2018-02-07 13:11:51"
    },
    {
        "P_AREA_ID": "2",
        "V84mzqoX": "\u30b2\u30fc\u30c8\u306e\u72ed\u9593",
        "3v1qg7Uj": "50",
        "4RnIaUq5": "0",
        "P_DISPORDER": "1",
        "X4mIT5Lc": "1",
        "P_IMG": "",
        "1gDkL6XR": "",
        "P_SOUND_ID": "14",
        "P_POS": "",
        "0I4MtuDa": "",
        "f73FMZua": "",
        "a91ecjh7": "",
        "P_EFFECT_INFO": "",
        "9bpFf3Ut": "",
        "P_NEED_SWITCH_INFO": "0",
        "P_HIDE_SWITCH_INFO": "",
        "P_SCHEDULE_ID": "0",
        "P_EXT_IMG_PARAM": "",
        "P_CREATEDATE": "2018-02-07 13:11:51",
        "P_UPDATEDATE": "2018-02-07 13:11:51"
    },
    {
        "P_AREA_ID": "3",
        "V84mzqoX": "\u53ec\u559a\u8853\u7814\u7a76\u6240",
        "3v1qg7Uj": "5",
        "4RnIaUq5": "0",
        "P_DISPORDER": "1",
        "X4mIT5Lc": "1",
        "P_IMG": "",
        "1gDkL6XR": "",
        "P_SOUND_ID": "1037",
        "P_POS": "",
        "0I4MtuDa": "",
        "f73FMZua": "",
        "a91ecjh7": "",
        "P_EFFECT_INFO": "",
        "9bpFf3Ut": "",
        "P_NEED_SWITCH_INFO": "0",
        "P_HIDE_SWITCH_INFO": "",
        "P_SCHEDULE_ID": "0",
        "P_EXT_IMG_PARAM": "",
        "P_CREATEDATE": "2018-02-07 13:11:51",
        "P_UPDATEDATE": "2018-02-07 13:11:51"
    },
    {
        "P_AREA_ID": "98",
        "V84mzqoX": "\u30ea\u30f3BS\u7528\u975e\u8868\u793a\u30a8\u30ea\u30a2",
        "3v1qg7Uj": "100",
        "4RnIaUq5": "0",
        "P_DISPORDER": "1",
        "X4mIT5Lc": "99",
        "P_IMG": "",
        "1gDkL6XR": "",
        "P_SOUND_ID": "1",
        "P_POS": "",
        "0I4MtuDa": "",
        "f73FMZua": "",
        "a91ecjh7": "",
        "P_EFFECT_INFO": "",
        "9bpFf3Ut": "",
        "P_NEED_SWITCH_INFO": "0",
        "P_HIDE_SWITCH_INFO": "",
        "P_SCHEDULE_ID": "0",
        "P_EXT_IMG_PARAM": "",
        "P_CREATEDATE": "2018-02-07 13:11:51",
        "P_UPDATEDATE": "2018-02-07 13:11:51"
    },
    {
        "P_AREA_ID": "99",
        "V84mzqoX": "\u4e3b\u4eba\u516cBS\u7528\u975e\u8868\u793a\u30a8\u30ea\u30a2",
        "3v1qg7Uj": "100",
        "4RnIaUq5": "0",
        "P_DISPORDER": "1",
        "X4mIT5Lc": "99",
        "P_IMG": "",
        "1gDkL6XR": "",
        "P_SOUND_ID": "1",
        "P_POS": "",
        "0I4MtuDa": "",
        "f73FMZua": "",
        "a91ecjh7": "",
        "P_EFFECT_INFO": "",
        "9bpFf3Ut": "",
        "P_NEED_SWITCH_INFO": "0",
        "P_HIDE_SWITCH_INFO": "",
        "P_SCHEDULE_ID": "0",
        "P_EXT_IMG_PARAM": "",
        "P_CREATEDATE": "2018-02-07 13:11:51",
        "P_UPDATEDATE": "2018-02-07 13:11:51"
    },
    {
        "P_AREA_ID": "101",
        "V84mzqoX": "\u30b0\u30e9\u30f3\u30ac\u30a4\u30a2",
        "3v1qg7Uj": "2",
        "4RnIaUq5": "1",
        "P_DISPORDER": "1",
        "X4mIT5Lc": "1",
        "P_IMG": "world_01_l.jpg,world_01_r.jpg",
        "1gDkL6XR": "world_vision_01.png,world_label_01.png",
        "P_SOUND_ID": "10",
        "P_POS": "",
        "0I4MtuDa": "",
        "f73FMZua": "",
        "a91ecjh7": "",
        "P_EFFECT_INFO": "",
        "9bpFf3Ut": "",
        "P_NEED_SWITCH_INFO": "0",
        "P_HIDE_SWITCH_INFO": "",
        "P_SCHEDULE_ID": "0",
        "P_EXT_IMG_PARAM": "",
        "P_CREATEDATE": "2018-02-07 13:11:51",
        "P_UPDATEDATE": "2018-02-07 13:11:51"
    },
    {
        "P_AREA_ID": "102",
        "V84mzqoX": "\u30a8\u30eb\u30ac\u30a4\u30a2",
        "3v1qg7Uj": "2",
        "4RnIaUq5": "1",
        "P_DISPORDER": "2",
        "X4mIT5Lc": "1",
        "P_IMG": "world_01_l.jpg,world_01_r.jpg",
        "1gDkL6XR": "world_vision_02.png,world_label_04.png",
        "P_SOUND_ID": "10",
        "P_POS": "",
        "0I4MtuDa": "",
        "f73FMZua": "",
        "a91ecjh7": "",
        "P_EFFECT_INFO": "",
        "9bpFf3Ut": "",
        "P_NEED_SWITCH_INFO": "10000014",
        "P_HIDE_SWITCH_INFO": "",
        "P_SCHEDULE_ID": "0",
        "P_EXT_IMG_PARAM": "",
        "P_CREATEDATE": "2018-02-07 13:11:51",
        "P_UPDATEDATE": "2018-02-07 13:11:51"
    },
    {
        "P_AREA_ID": "103",
        "V84mzqoX": "\u30d0\u30c0\u30fb\u30d5\u30a1\u30ca",
        "3v1qg7Uj": "2",
        "4RnIaUq5": "1",
        "P_DISPORDER": "3",
        "X4mIT5Lc": "1",
        "P_IMG": "world_01_l.jpg,world_01_r.jpg",
        "1gDkL6XR": "world_vision_03.png,world_label_03.png",
        "P_SOUND_ID": "11",
        "P_POS": "",
        "0I4MtuDa": "",
        "f73FMZua": "",
        "a91ecjh7": "",
        "P_EFFECT_INFO": "",
        "9bpFf3Ut": "",
        "P_NEED_SWITCH_INFO": "10000027",
        "P_HIDE_SWITCH_INFO": "",
        "P_SCHEDULE_ID": "0",
        "P_EXT_IMG_PARAM": "",
        "P_CREATEDATE": "2018-02-07 13:11:51",
        "P_UPDATEDATE": "2018-02-07 13:11:51"
    },
    {
        "P_AREA_ID": "104",
        "V84mzqoX": "\u30a4\u30af\u30b9\u30bf\u30b9",
        "3v1qg7Uj": "2",
        "4RnIaUq5": "1",
        "P_DISPORDER": "4",
        "X4mIT5Lc": "1",
        "P_IMG": "world_02_l.jpg,world_02_r.jpg",
        "1gDkL6XR": "world_vision_04.png,world_label_02.png",
        "P_SOUND_ID": "12",
        "P_POS": "",
        "0I4MtuDa": "",
        "f73FMZua": "",
        "a91ecjh7": "",
        "P_EFFECT_INFO": "",
        "9bpFf3Ut": "",
        "P_NEED_SWITCH_INFO": "10000063",
        "P_HIDE_SWITCH_INFO": "",
        "P_SCHEDULE_ID": "0",
        "P_EXT_IMG_PARAM": "",
        "P_CREATEDATE": "2018-02-07 13:11:52",
        "P_UPDATEDATE": "2018-02-07 13:11:52"
    },
    {
        "P_AREA_ID": "105",
        "V84mzqoX": "\u30bb\u30eb\u30bf\u30d3\u30a2",
        "3v1qg7Uj": "2",
        "4RnIaUq5": "1",
        "P_DISPORDER": "5",
        "X4mIT5Lc": "1",
        "P_IMG": "world_01_l.jpg,world_01_r.jpg",
        "1gDkL6XR": "world_vision_05.png,world_label_05.png",
        "P_SOUND_ID": "1",
        "P_POS": "",
        "0I4MtuDa": "",
        "f73FMZua": "",
        "a91ecjh7": "",
        "P_EFFECT_INFO": "",
        "9bpFf3Ut": "",
        "P_NEED_SWITCH_INFO": "10000104,10000133",
        "P_HIDE_SWITCH_INFO": "",
        "P_SCHEDULE_ID": "0",
        "P_EXT_IMG_PARAM": "",
        "P_CREATEDATE": "2018-02-07 13:11:52",
        "P_UPDATEDATE": "2018-02-07 13:11:52"
    },
    {
        "P_AREA_ID": "201",
        "V84mzqoX": "\u30a4\u30d9\u30f3\u30c8",
        "3v1qg7Uj": "2",
        "4RnIaUq5": "2",
        "P_DISPORDER": "1",
        "X4mIT5Lc": "3",
        "P_IMG": "",
        "1gDkL6XR": "",
        "P_SOUND_ID": "14",
        "P_POS": "",
        "0I4MtuDa": "",
        "f73FMZua": "",
        "a91ecjh7": "",
        "P_EFFECT_INFO": "",
        "9bpFf3Ut": "",
        "P_NEED_SWITCH_INFO": "0",
        "P_HIDE_SWITCH_INFO": "",
        "P_SCHEDULE_ID": "0",
        "P_EXT_IMG_PARAM": "",
        "P_CREATEDATE": "2018-02-07 13:11:52",
        "P_UPDATEDATE": "2018-02-07 13:11:52"
    },
    {
        "P_AREA_ID": "202",
        "V84mzqoX": "\u80b2\u6210",
        "3v1qg7Uj": "2",
        "4RnIaUq5": "2",
        "P_DISPORDER": "2",
        "X4mIT5Lc": "5",
        "P_IMG": "",
        "1gDkL6XR": "",
        "P_SOUND_ID": "14",
        "P_POS": "",
        "0I4MtuDa": "",
        "f73FMZua": "",
        "a91ecjh7": "",
        "P_EFFECT_INFO": "",
        "9bpFf3Ut": "",
        "P_NEED_SWITCH_INFO": "0",
        "P_HIDE_SWITCH_INFO": "",
        "P_SCHEDULE_ID": "0",
        "P_EXT_IMG_PARAM": "",
        "P_CREATEDATE": "2018-02-07 13:11:52",
        "P_UPDATEDATE": "2018-02-07 13:11:52"
    },
    {
        "P_AREA_ID": "302",
        "V84mzqoX": "\u8a66\u7df4",
        "3v1qg7Uj": "100",
        "4RnIaUq5": "3",
        "P_DISPORDER": "2",
        "X4mIT5Lc": "7",
        "P_IMG": "",
        "1gDkL6XR": "lab_banner_trial.png",
        "P_SOUND_ID": "32",
        "P_POS": "",
        "0I4MtuDa": "",
        "f73FMZua": "",
        "a91ecjh7": "",
        "P_EFFECT_INFO": "",
        "9bpFf3Ut": "",
        "P_NEED_SWITCH_INFO": "0",
        "P_HIDE_SWITCH_INFO": "",
        "P_SCHEDULE_ID": "0",
        "P_EXT_IMG_PARAM": "",
        "P_CREATEDATE": "2018-02-07 13:11:52",
        "P_UPDATEDATE": "2018-02-07 13:11:52"
    },
    {
        "P_AREA_ID": "10101",
        "V84mzqoX": "\u30df\u30b9\u30c8\u30e9\u30eb",
        "3v1qg7Uj": "3",
        "4RnIaUq5": "101",
        "P_DISPORDER": "1",
        "X4mIT5Lc": "1",
        "P_IMG": "area_001.jpg",
        "1gDkL6XR": "plate_world01_01.png",
        "P_SOUND_ID": "10",
        "P_POS": "453,750",
        "0I4MtuDa": "",
        "f73FMZua": "",
        "a91ecjh7": "",
        "P_EFFECT_INFO": "",
        "9bpFf3Ut": "",
        "P_NEED_SWITCH_INFO": "0",
        "P_HIDE_SWITCH_INFO": "",
        "P_SCHEDULE_ID": "0",
        "P_EXT_IMG_PARAM": "\u30eb\u30b7\u30a2\u30b9\u306e\u9580\u3092\u629c\u3051\u6700\u521d\u306b\u5e83\u304c\u3063\u3066\u3044\u308b\u5927\u5730\u3002\u305d\u3053\u3067\u306f\u56db\u5815\u795e\u306e\u4e00\u67f1\u3067\u3042\u308b\u5275\u9020\u795e\u30de\u30af\u30b9\u30a6\u30a7\u30eb\u304c\u5168\u3066\u3092\u652f\u914d\u3057\u3066\u3044\u308b\u3002",
        "P_CREATEDATE": "2018-02-07 13:11:52",
        "P_UPDATEDATE": "2018-02-07 13:11:52"
    },
    {
        "P_AREA_ID": "10102",
        "V84mzqoX": "\u30b5\u30fc\u30de\u738b\u56fd",
        "3v1qg7Uj": "3",
        "4RnIaUq5": "101",
        "P_DISPORDER": "2",
        "X4mIT5Lc": "1",
        "P_IMG": "area_004.jpg",
        "1gDkL6XR": "plate_world01_02.png",
        "P_SOUND_ID": "10",
        "P_POS": "600,900",
        "0I4MtuDa": "",
        "f73FMZua": "",
        "a91ecjh7": "",
        "P_EFFECT_INFO": "",
        "9bpFf3Ut": "",
        "P_NEED_SWITCH_INFO": "10000027",
        "P_HIDE_SWITCH_INFO": "",
        "P_SCHEDULE_ID": "0",
        "P_EXT_IMG_PARAM": "\u30a2\u30af\u30e9\u30b9\u53ec\u559a\u9662\u306b\u3088\u308a\u767a\u898b\u3055\u308c\u305f\u65b0\u305f\u306a\u5730\u57df\u3002\u305d\u306e\u305f\u3081\u672a\u8abf\u67fb\u306e\u5834\u6240\u304c\u591a\u304f\u3001\u5371\u967a\u306a\u9b54\u7269\u3082\u591a\u6570\u751f\u606f\u3057\u3066\u3044\u308b\u3068\u5642\u3055\u308c\u3066\u3044\u308b\u3002",
        "P_CREATEDATE": "2018-02-07 13:11:52",
        "P_UPDATEDATE": "2018-02-07 13:11:52"
    },
    {
        "P_AREA_ID": "10103",
        "V84mzqoX": "\u30d0\u30ea\u30a6\u30e9\u5e1d\u56fd",
        "3v1qg7Uj": "3",
        "4RnIaUq5": "101",
        "P_DISPORDER": "3",
        "X4mIT5Lc": "1",
        "P_IMG": "area_005.jpg",
        "1gDkL6XR": "plate_world01_03.png",
        "P_SOUND_ID": "10",
        "P_POS": "500,520",
        "0I4MtuDa": "",
        "f73FMZua": "",
        "a91ecjh7": "",
        "P_EFFECT_INFO": "",
        "9bpFf3Ut": "",
        "P_NEED_SWITCH_INFO": "10000084",
        "P_HIDE_SWITCH_INFO": "",
        "P_SCHEDULE_ID": "0",
        "P_EXT_IMG_PARAM": "\u30a2\u30af\u30e9\u30b9\u53ec\u559a\u9662\u306b\u3088\u308a\u767a\u898b\u3055\u308c\u305f\u65b0\u305f\u306a\u5730\u57df\u3002\u305d\u306e\u305f\u3081\u672a\u8abf\u67fb\u306e\u5834\u6240\u304c\u591a\u304f\u3001\u5371\u967a\u306a\u9b54\u7269\u3082\u591a\u6570\u751f\u606f\u3057\u3066\u3044\u308b\u3068\u5642\u3055\u308c\u3066\u3044\u308b\u3002",
        "P_CREATEDATE": "2018-02-07 13:11:52",
        "P_UPDATEDATE": "2018-02-07 13:11:52"
    },
    {
        "P_AREA_ID": "10201",
        "V84mzqoX": "\u30e9\u30f3\u30c9\u30fc\u30eb\u90ca\u5916",
        "3v1qg7Uj": "3",
        "4RnIaUq5": "102",
        "P_DISPORDER": "1",
        "X4mIT5Lc": "1",
        "P_IMG": "area_002.jpg",
        "1gDkL6XR": "plate_world01_01.png",
        "P_SOUND_ID": "10",
        "P_POS": "520,930",
        "0I4MtuDa": "",
        "f73FMZua": "",
        "a91ecjh7": "",
        "P_EFFECT_INFO": "",
        "9bpFf3Ut": "",
        "P_NEED_SWITCH_INFO": "10000014",
        "P_HIDE_SWITCH_INFO": "",
        "P_SCHEDULE_ID": "0",
        "P_EXT_IMG_PARAM": "\u30a2\u30af\u30e9\u30b9\u53ec\u559a\u9662\u306b\u3088\u308a\u767a\u898b\u3055\u308c\u305f\u65b0\u305f\u306a\u5730\u57df\u3002\u305d\u306e\u305f\u3081\u672a\u8abf\u67fb\u306e\u5834\u6240\u304c\u591a\u304f\u3001\u5371\u967a\u306a\u9b54\u7269\u3082\u591a\u6570\u751f\u606f\u3057\u3066\u3044\u308b\u3068\u5642\u3055\u308c\u3066\u3044\u308b\u3002",
        "P_CREATEDATE": "2018-02-07 13:11:52",
        "P_UPDATEDATE": "2018-02-07 13:11:52"
    },
    {
        "P_AREA_ID": "10301",
        "V84mzqoX": "\u30d0\u30c0\u30fb\u30d5\u30a1\u30ca\u30de\u30c3\u30d7",
        "3v1qg7Uj": "6",
        "4RnIaUq5": "103",
        "P_DISPORDER": "1",
        "X4mIT5Lc": "1",
        "P_IMG": "area_003_1.jpg",
        "1gDkL6XR": "plate_world01_01.png",
        "P_SOUND_ID": "11",
        "P_POS": "5,5",
        "0I4MtuDa": "5,5",
        "f73FMZua": "",
        "a91ecjh7": "",
        "P_EFFECT_INFO": "",
        "9bpFf3Ut": "",
        "P_NEED_SWITCH_INFO": "10000027",
        "P_HIDE_SWITCH_INFO": "",
        "P_SCHEDULE_ID": "0",
        "P_EXT_IMG_PARAM": "\u30a2\u30af\u30e9\u30b9\u53ec\u559a\u9662\u306b\u3088\u308a\u767a\u898b\u3055\u308c\u305f\u65b0\u305f\u306a\u5730\u57df\u3002\u305d\u306e\u305f\u3081\u672a\u8abf\u67fb\u306e\u5834\u6240\u304c\u591a\u304f\u3001\u5371\u967a\u306a\u9b54\u7269\u3082\u591a\u6570\u751f\u606f\u3057\u3066\u3044\u308b\u3068\u5642\u3055\u308c\u3066\u3044\u308b\u3002",
        "P_CREATEDATE": "2018-02-07 13:11:52",
        "P_UPDATEDATE": "2018-02-07 13:11:52"
    },
    {
        "P_AREA_ID": "10401",
        "V84mzqoX": "\u30a4\u30af\u30b9\u30bf\u30b9\u90ca\u5916",
        "3v1qg7Uj": "3",
        "4RnIaUq5": "104",
        "P_DISPORDER": "1",
        "X4mIT5Lc": "1",
        "P_IMG": "area_006.jpg",
        "1gDkL6XR": "plate_world04_01.png",
        "P_SOUND_ID": "12",
        "P_POS": "1140,630",
        "0I4MtuDa": "",
        "f73FMZua": "",
        "a91ecjh7": "",
        "P_EFFECT_INFO": "",
        "9bpFf3Ut": "",
        "P_NEED_SWITCH_INFO": "10000063",
        "P_HIDE_SWITCH_INFO": "",
        "P_SCHEDULE_ID": "0",
        "P_EXT_IMG_PARAM": "\u30a2\u30af\u30e9\u30b9\u53ec\u559a\u9662\u306b\u3088\u308a\u767a\u898b\u3055\u308c\u305f\u65b0\u305f\u306a\u5730\u57df\u3002\u305d\u306e\u305f\u3081\u672a\u8abf\u67fb\u306e\u5834\u6240\u304c\u591a\u304f\u3001\u5371\u967a\u306a\u9b54\u7269\u3082\u591a\u6570\u751f\u606f\u3057\u3066\u3044\u308b\u3068\u5642\u3055\u308c\u3066\u3044\u308b\u3002",
        "P_CREATEDATE": "2018-02-07 13:11:52",
        "P_UPDATEDATE": "2018-02-07 13:11:52"
    },
    {
        "P_AREA_ID": "10402",
        "V84mzqoX": "\u9996\u90fd\u30a4\u30af\u30b9\u30bf\u30b9",
        "3v1qg7Uj": "3",
        "4RnIaUq5": "104",
        "P_DISPORDER": "2",
        "X4mIT5Lc": "1",
        "P_IMG": "area_007.jpg",
        "1gDkL6XR": "plate_world04_02.png",
        "P_SOUND_ID": "12",
        "P_POS": "1150,475",
        "0I4MtuDa": "",
        "f73FMZua": "",
        "a91ecjh7": "",
        "P_EFFECT_INFO": "",
        "9bpFf3Ut": "",
        "P_NEED_SWITCH_INFO": "10000109",
        "P_HIDE_SWITCH_INFO": "",
        "P_SCHEDULE_ID": "0",
        "P_EXT_IMG_PARAM": "\u30a2\u30af\u30e9\u30b9\u53ec\u559a\u9662\u306b\u3088\u308a\u767a\u898b\u3055\u308c\u305f\u65b0\u305f\u306a\u5730\u57df\u3002\u305d\u306e\u305f\u3081\u672a\u8abf\u67fb\u306e\u5834\u6240\u304c\u591a\u304f\u3001\u5371\u967a\u306a\u9b54\u7269\u3082\u591a\u6570\u751f\u606f\u3057\u3066\u3044\u308b\u3068\u5642\u3055\u308c\u3066\u3044\u308b\u3002",
        "P_CREATEDATE": "2018-02-07 13:11:52",
        "P_UPDATEDATE": "2018-02-07 13:11:52"
    },
    {
        "P_AREA_ID": "10403",
        "V84mzqoX": "\u6280\u8853\u958b\u767a\u5e81",
        "3v1qg7Uj": "3",
        "4RnIaUq5": "104",
        "P_DISPORDER": "3",
        "X4mIT5Lc": "1",
        "P_IMG": "area_008.jpg",
        "1gDkL6XR": "plate_world04_03.png",
        "P_SOUND_ID": "12",
        "P_POS": "1150,475",
        "0I4MtuDa": "",
        "f73FMZua": "",
        "a91ecjh7": "",
        "P_EFFECT_INFO": "",
        "9bpFf3Ut": "",
        "P_NEED_SWITCH_INFO": "10000118",
        "P_HIDE_SWITCH_INFO": "",
        "P_SCHEDULE_ID": "0",
        "P_EXT_IMG_PARAM": "\u30a2\u30af\u30e9\u30b9\u53ec\u559a\u9662\u306b\u3088\u308a\u767a\u898b\u3055\u308c\u305f\u65b0\u305f\u306a\u5730\u57df\u3002\u305d\u306e\u305f\u3081\u672a\u8abf\u67fb\u306e\u5834\u6240\u304c\u591a\u304f\u3001\u5371\u967a\u306a\u9b54\u7269\u3082\u591a\u6570\u751f\u606f\u3057\u3066\u3044\u308b\u3068\u5642\u3055\u308c\u3066\u3044\u308b\u3002",
        "P_CREATEDATE": "2018-02-07 13:11:52",
        "P_UPDATEDATE": "2018-02-07 13:11:52"
    },
    {
        "P_AREA_ID": "10501",
        "V84mzqoX": "\u30e2\u30eb\u30c7\u30f3\u30ab\u30f3\u30d7",
        "3v1qg7Uj": "3",
        "4RnIaUq5": "105",
        "P_DISPORDER": "1",
        "X4mIT5Lc": "1",
        "P_IMG": "area_009.jpg",
        "1gDkL6XR": "plate_world01_01.png",
        "P_SOUND_ID": "1",
        "P_POS": "62,284",
        "0I4MtuDa": "",
        "f73FMZua": "",
        "a91ecjh7": "",
        "P_EFFECT_INFO": "",
        "9bpFf3Ut": "",
        "P_NEED_SWITCH_INFO": "10000104,10000133",
        "P_HIDE_SWITCH_INFO": "",
        "P_SCHEDULE_ID": "0",
        "P_EXT_IMG_PARAM": "\u30a2\u30af\u30e9\u30b9\u53ec\u559a\u9662\u306b\u3088\u308a\u767a\u898b\u3055\u308c\u305f\u65b0\u305f\u306a\u5730\u57df\u3002\u305d\u306e\u305f\u3081\u672a\u8abf\u67fb\u306e\u5834\u6240\u304c\u591a\u304f\u3001\u5371\u967a\u306a\u9b54\u7269\u3082\u591a\u6570\u751f\u606f\u3057\u3066\u3044\u308b\u3068\u5642\u3055\u308c\u3066\u3044\u308b\u3002",
        "P_CREATEDATE": "2018-02-07 13:11:52",
        "P_UPDATEDATE": "2018-02-07 13:11:52"
    },
    {
        "P_AREA_ID": "20201",
        "V84mzqoX": "\u30b9\u30c8\u30fc\u30ea\u30fc\u30af\u30a8\u30b9\u30c8",
        "3v1qg7Uj": "2",
        "4RnIaUq5": "201",
        "P_DISPORDER": "1",
        "X4mIT5Lc": "2",
        "P_IMG": "",
        "1gDkL6XR": "banner_story_quest_top.png",
        "P_SOUND_ID": "14",
        "P_POS": "",
        "0I4MtuDa": "",
        "f73FMZua": "",
        "a91ecjh7": "",
        "P_EFFECT_INFO": "",
        "9bpFf3Ut": "",
        "P_NEED_SWITCH_INFO": "0",
        "P_HIDE_SWITCH_INFO": "",
        "P_SCHEDULE_ID": "0",
        "P_EXT_IMG_PARAM": "",
        "P_CREATEDATE": "2018-02-07 13:11:52",
        "P_UPDATEDATE": "2018-02-07 13:11:52"
    },
    {
        "P_AREA_ID": "103011",
        "V84mzqoX": "\u8b0e\u306e\u30a2\u30b8\u30c8",
        "3v1qg7Uj": "3",
        "4RnIaUq5": "10301",
        "P_DISPORDER": "1",
        "X4mIT5Lc": "1",
        "P_IMG": "area_003_1.jpg",
        "1gDkL6XR": "",
        "P_SOUND_ID": "11",
        "P_POS": "5,5",
        "0I4MtuDa": "5,5",
        "f73FMZua": "",
        "a91ecjh7": "",
        "P_EFFECT_INFO": "",
        "9bpFf3Ut": "",
        "P_NEED_SWITCH_INFO": "10000027",
        "P_HIDE_SWITCH_INFO": "",
        "P_SCHEDULE_ID": "0",
        "P_EXT_IMG_PARAM": "\u30a2\u30af\u30e9\u30b9\u53ec\u559a\u9662\u306b\u3088\u308a\u767a\u898b\u3055\u308c\u305f\u65b0\u305f\u306a\u5730\u57df\u3002\u305d\u306e\u305f\u3081\u672a\u8abf\u67fb\u306e\u5834\u6240\u304c\u591a\u304f\u3001\u5371\u967a\u306a\u9b54\u7269\u3082\u591a\u6570\u751f\u606f\u3057\u3066\u3044\u308b\u3068\u5642\u3055\u308c\u3066\u3044\u308b\u3002",
        "P_CREATEDATE": "2018-02-07 13:11:52",
        "P_UPDATEDATE": "2018-02-07 13:11:52"
    },
    {
        "P_AREA_ID": "103012",
        "V84mzqoX": "\u8b0e\u306e\u30a2\u30b8\u30c8",
        "3v1qg7Uj": "3",
        "4RnIaUq5": "10301",
        "P_DISPORDER": "2",
        "X4mIT5Lc": "1",
        "P_IMG": "area_003_2.jpg",
        "1gDkL6XR": "",
        "P_SOUND_ID": "11",
        "P_POS": "5,6",
        "0I4MtuDa": "5,6",
        "f73FMZua": "",
        "a91ecjh7": "",
        "P_EFFECT_INFO": "",
        "9bpFf3Ut": "",
        "P_NEED_SWITCH_INFO": "10000048",
        "P_HIDE_SWITCH_INFO": "",
        "P_SCHEDULE_ID": "0",
        "P_EXT_IMG_PARAM": "\u30a2\u30af\u30e9\u30b9\u53ec\u559a\u9662\u306b\u3088\u308a\u767a\u898b\u3055\u308c\u305f\u65b0\u305f\u306a\u5730\u57df\u3002\u305d\u306e\u305f\u3081\u672a\u8abf\u67fb\u306e\u5834\u6240\u304c\u591a\u304f\u3001\u5371\u967a\u306a\u9b54\u7269\u3082\u591a\u6570\u751f\u606f\u3057\u3066\u3044\u308b\u3068\u5642\u3055\u308c\u3066\u3044\u308b\u3002",
        "P_CREATEDATE": "2018-02-07 13:11:52",
        "P_UPDATEDATE": "2018-02-07 13:11:52"
    },
    {
        "P_AREA_ID": "1010100",
        "V84mzqoX": "\u30c1\u30e5\u30fc\u30c8\u30ea\u30a2\u30eb",
        "3v1qg7Uj": "100",
        "4RnIaUq5": "10101",
        "P_DISPORDER": "0",
        "X4mIT5Lc": "99",
        "P_IMG": "",
        "1gDkL6XR": "",
        "P_SOUND_ID": "10",
        "P_POS": "632,200",
        "0I4MtuDa": "",
        "f73FMZua": "",
        "a91ecjh7": "",
        "P_EFFECT_INFO": "",
        "9bpFf3Ut": "",
        "P_NEED_SWITCH_INFO": "0",
        "P_HIDE_SWITCH_INFO": "",
        "P_SCHEDULE_ID": "0",
        "P_EXT_IMG_PARAM": "",
        "P_CREATEDATE": "2018-02-07 13:11:52",
        "P_UPDATEDATE": "2018-02-07 13:11:52"
    },
    {
        "P_AREA_ID": "1010101",
        "V84mzqoX": "\u5192\u967a\u8005\u306e\u8349\u539f",
        "3v1qg7Uj": "100",
        "4RnIaUq5": "10101",
        "P_DISPORDER": "1",
        "X4mIT5Lc": "1",
        "P_IMG": "",
        "1gDkL6XR": "",
        "P_SOUND_ID": "10",
        "P_POS": "592,960",
        "0I4MtuDa": "",
        "f73FMZua": "",
        "a91ecjh7": "1:1010102@3",
        "P_EFFECT_INFO": "",
        "9bpFf3Ut": "",
        "P_NEED_SWITCH_INFO": "0",
        "P_HIDE_SWITCH_INFO": "",
        "P_SCHEDULE_ID": "0",
        "P_EXT_IMG_PARAM": "",
        "P_CREATEDATE": "2018-02-07 13:11:52",
        "P_UPDATEDATE": "2018-02-07 13:11:52"
    },
    {
        "P_AREA_ID": "1010102",
        "V84mzqoX": "\u708e\u98a8\u306e\u6d1e\u7a9f",
        "3v1qg7Uj": "100",
        "4RnIaUq5": "10101",
        "P_DISPORDER": "2",
        "X4mIT5Lc": "1",
        "P_IMG": "",
        "1gDkL6XR": "",
        "P_SOUND_ID": "10",
        "P_POS": "232,920",
        "0I4MtuDa": "",
        "f73FMZua": "",
        "a91ecjh7": "2:1010104@4",
        "P_EFFECT_INFO": "",
        "9bpFf3Ut": "",
        "P_NEED_SWITCH_INFO": "10000002",
        "P_HIDE_SWITCH_INFO": "",
        "P_SCHEDULE_ID": "0",
        "P_EXT_IMG_PARAM": "",
        "P_CREATEDATE": "2018-02-07 13:11:52",
        "P_UPDATEDATE": "2018-02-07 13:11:52"
    },
    {
        "P_AREA_ID": "1010103",
        "V84mzqoX": "\u30a8\u30b4\u30eb\u96ea\u539f",
        "3v1qg7Uj": "100",
        "4RnIaUq5": "10101",
        "P_DISPORDER": "3",
        "X4mIT5Lc": "1",
        "P_IMG": "",
        "1gDkL6XR": "",
        "P_SOUND_ID": "10",
        "P_POS": "550,730",
        "0I4MtuDa": "",
        "f73FMZua": "",
        "a91ecjh7": "",
        "P_EFFECT_INFO": "",
        "9bpFf3Ut": "",
        "P_NEED_SWITCH_INFO": "10000005",
        "P_HIDE_SWITCH_INFO": "",
        "P_SCHEDULE_ID": "0",
        "P_EXT_IMG_PARAM": "",
        "P_CREATEDATE": "2018-02-07 13:11:52",
        "P_UPDATEDATE": "2018-02-07 13:11:52"
    },
    {
        "P_AREA_ID": "1010104",
        "V84mzqoX": "\u72c2\u7363\u306e\u68ee",
        "3v1qg7Uj": "100",
        "4RnIaUq5": "10101",
        "P_DISPORDER": "4",
        "X4mIT5Lc": "1",
        "P_IMG": "",
        "1gDkL6XR": "",
        "P_SOUND_ID": "10",
        "P_POS": "242,580",
        "0I4MtuDa": "",
        "f73FMZua": "",
        "a91ecjh7": "2:1010105@4",
        "P_EFFECT_INFO": "",
        "9bpFf3Ut": "",
        "P_NEED_SWITCH_INFO": "10000005",
        "P_HIDE_SWITCH_INFO": "",
        "P_SCHEDULE_ID": "0",
        "P_EXT_IMG_PARAM": "",
        "P_CREATEDATE": "2018-02-07 13:11:52",
        "P_UPDATEDATE": "2018-02-07 13:11:52"
    },
    {
        "P_AREA_ID": "1010105",
        "V84mzqoX": "\u9b54\u7269\u306e\u4f4f\u51e6",
        "3v1qg7Uj": "100",
        "4RnIaUq5": "10101",
        "P_DISPORDER": "5",
        "X4mIT5Lc": "1",
        "P_IMG": "",
        "1gDkL6XR": "",
        "P_SOUND_ID": "10",
        "P_POS": "262,380",
        "0I4MtuDa": "",
        "f73FMZua": "",
        "a91ecjh7": "",
        "P_EFFECT_INFO": "",
        "9bpFf3Ut": "",
        "P_NEED_SWITCH_INFO": "10000011",
        "P_HIDE_SWITCH_INFO": "",
        "P_SCHEDULE_ID": "0",
        "P_EXT_IMG_PARAM": "",
        "P_CREATEDATE": "2018-02-07 13:11:52",
        "P_UPDATEDATE": "2018-02-07 13:11:52"
    },
    {
        "P_AREA_ID": "1010201",
        "V84mzqoX": "\u70c8\u96ea\u306e\u8c37",
        "3v1qg7Uj": "100",
        "4RnIaUq5": "10102",
        "P_DISPORDER": "1",
        "X4mIT5Lc": "1",
        "P_IMG": "",
        "1gDkL6XR": "",
        "P_SOUND_ID": "10",
        "P_POS": "592,1050",
        "0I4MtuDa": "",
        "f73FMZua": "",
        "a91ecjh7": "2:1010202@4",
        "P_EFFECT_INFO": "",
        "9bpFf3Ut": "",
        "P_NEED_SWITCH_INFO": "10000027",
        "P_HIDE_SWITCH_INFO": "",
        "P_SCHEDULE_ID": "0",
        "P_EXT_IMG_PARAM": "",
        "P_CREATEDATE": "2018-02-07 13:11:52",
        "P_UPDATEDATE": "2018-02-07 13:11:52"
    },
    {
        "P_AREA_ID": "1010202",
        "V84mzqoX": "\u7815\u6c37\u7a9f",
        "3v1qg7Uj": "100",
        "4RnIaUq5": "10102",
        "P_DISPORDER": "2",
        "X4mIT5Lc": "1",
        "P_IMG": "",
        "1gDkL6XR": "",
        "P_SOUND_ID": "10",
        "P_POS": "530,900",
        "0I4MtuDa": "",
        "f73FMZua": "",
        "a91ecjh7": "2:1010203@4",
        "P_EFFECT_INFO": "",
        "9bpFf3Ut": "",
        "P_NEED_SWITCH_INFO": "10000066",
        "P_HIDE_SWITCH_INFO": "",
        "P_SCHEDULE_ID": "0",
        "P_EXT_IMG_PARAM": "",
        "P_CREATEDATE": "2018-02-07 13:11:52",
        "P_UPDATEDATE": "2018-02-07 13:11:52"
    },
    {
        "P_AREA_ID": "1010203",
        "V84mzqoX": "\u9727\u96ea\u306e\u68ee",
        "3v1qg7Uj": "100",
        "4RnIaUq5": "10102",
        "P_DISPORDER": "3",
        "X4mIT5Lc": "1",
        "P_IMG": "",
        "1gDkL6XR": "",
        "P_SOUND_ID": "10",
        "P_POS": "570,690",
        "0I4MtuDa": "",
        "f73FMZua": "",
        "a91ecjh7": "2:1010205@4",
        "P_EFFECT_INFO": "",
        "9bpFf3Ut": "",
        "P_NEED_SWITCH_INFO": "10000069",
        "P_HIDE_SWITCH_INFO": "",
        "P_SCHEDULE_ID": "0",
        "P_EXT_IMG_PARAM": "",
        "P_CREATEDATE": "2018-02-07 13:11:52",
        "P_UPDATEDATE": "2018-02-07 13:11:52"
    },
    {
        "P_AREA_ID": "1010204",
        "V84mzqoX": "\u30a8\u30eb\u30bb\u30a6\u30b9\u907a\u8de1",
        "3v1qg7Uj": "100",
        "4RnIaUq5": "10102",
        "P_DISPORDER": "4",
        "X4mIT5Lc": "1",
        "P_IMG": "",
        "1gDkL6XR": "",
        "P_SOUND_ID": "10",
        "P_POS": "260,980",
        "0I4MtuDa": "",
        "f73FMZua": "",
        "a91ecjh7": "",
        "P_EFFECT_INFO": "",
        "9bpFf3Ut": "",
        "P_NEED_SWITCH_INFO": "10000072",
        "P_HIDE_SWITCH_INFO": "",
        "P_SCHEDULE_ID": "0",
        "P_EXT_IMG_PARAM": "",
        "P_CREATEDATE": "2018-02-07 13:11:52",
        "P_UPDATEDATE": "2018-02-07 13:11:52"
    },
    {
        "P_AREA_ID": "1010205",
        "V84mzqoX": "\u30df\u30e5\u30fc\u30eb\u96ea\u539f",
        "3v1qg7Uj": "100",
        "4RnIaUq5": "10102",
        "P_DISPORDER": "5",
        "X4mIT5Lc": "1",
        "P_IMG": "",
        "1gDkL6XR": "",
        "P_SOUND_ID": "10",
        "P_POS": "430,550",
        "0I4MtuDa": "",
        "f73FMZua": "",
        "a91ecjh7": "2:1010206@4",
        "P_EFFECT_INFO": "",
        "9bpFf3Ut": "",
        "P_NEED_SWITCH_INFO": "10000074",
        "P_HIDE_SWITCH_INFO": "",
        "P_SCHEDULE_ID": "0",
        "P_EXT_IMG_PARAM": "",
        "P_CREATEDATE": "2018-02-07 13:11:52",
        "P_UPDATEDATE": "2018-02-07 13:11:52"
    },
    {
        "P_AREA_ID": "1010206",
        "V84mzqoX": "\u30b5\u30fc\u30de\u8ecd\u6e2f",
        "3v1qg7Uj": "100",
        "4RnIaUq5": "10102",
        "P_DISPORDER": "6",
        "X4mIT5Lc": "1",
        "P_IMG": "",
        "1gDkL6XR": "",
        "P_SOUND_ID": "10",
        "P_POS": "262,400",
        "0I4MtuDa": "",
        "f73FMZua": "",
        "a91ecjh7": "2:1010207@4",
        "P_EFFECT_INFO": "",
        "9bpFf3Ut": "",
        "P_NEED_SWITCH_INFO": "10000077",
        "P_HIDE_SWITCH_INFO": "",
        "P_SCHEDULE_ID": "0",
        "P_EXT_IMG_PARAM": "",
        "P_CREATEDATE": "2018-02-07 13:11:52",
        "P_UPDATEDATE": "2018-02-07 13:11:52"
    },
    {
        "P_AREA_ID": "1010207",
        "V84mzqoX": "\u30b5\u30fc\u30de\u57ce",
        "3v1qg7Uj": "100",
        "4RnIaUq5": "10102",
        "P_DISPORDER": "7",
        "X4mIT5Lc": "1",
        "P_IMG": "",
        "1gDkL6XR": "",
        "P_SOUND_ID": "10",
        "P_POS": "530,200",
        "0I4MtuDa": "",
        "f73FMZua": "",
        "a91ecjh7": "",
        "P_EFFECT_INFO": "",
        "9bpFf3Ut": "",
        "P_NEED_SWITCH_INFO": "10000080",
        "P_HIDE_SWITCH_INFO": "",
        "P_SCHEDULE_ID": "0",
        "P_EXT_IMG_PARAM": "",
        "P_CREATEDATE": "2018-02-07 13:11:52",
        "P_UPDATEDATE": "2018-02-07 13:11:52"
    },
    {
        "P_AREA_ID": "1010208",
        "V84mzqoX": "\u30a2\u30c9\u30ec\u8056\u5802",
        "3v1qg7Uj": "100",
        "4RnIaUq5": "10102",
        "P_DISPORDER": "8",
        "X4mIT5Lc": "1",
        "P_IMG": "",
        "1gDkL6XR": "",
        "P_SOUND_ID": "10",
        "P_POS": "260,790",
        "0I4MtuDa": "",
        "f73FMZua": "",
        "a91ecjh7": "",
        "P_EFFECT_INFO": "",
        "9bpFf3Ut": "",
        "P_NEED_SWITCH_INFO": "10000084",
        "P_HIDE_SWITCH_INFO": "",
        "P_SCHEDULE_ID": "0",
        "P_EXT_IMG_PARAM": "",
        "P_CREATEDATE": "2018-02-07 13:11:52",
        "P_UPDATEDATE": "2018-02-07 13:11:52"
    },
    {
        "P_AREA_ID": "1010301",
        "V84mzqoX": "\u6697\u8ff7\u306e\u68ee",
        "3v1qg7Uj": "100",
        "4RnIaUq5": "10103",
        "P_DISPORDER": "1",
        "X4mIT5Lc": "1",
        "P_IMG": "",
        "1gDkL6XR": "",
        "P_SOUND_ID": "10",
        "P_POS": "300,820",
        "0I4MtuDa": "",
        "f73FMZua": "",
        "a91ecjh7": "4:1010302@1",
        "P_EFFECT_INFO": "",
        "9bpFf3Ut": "",
        "P_NEED_SWITCH_INFO": "10000084",
        "P_HIDE_SWITCH_INFO": "",
        "P_SCHEDULE_ID": "0",
        "P_EXT_IMG_PARAM": "",
        "P_CREATEDATE": "2018-02-07 13:11:52",
        "P_UPDATEDATE": "2018-02-07 13:11:52"
    },
    {
        "P_AREA_ID": "1010302",
        "V84mzqoX": "\u7121\u660e\u967a\u8def",
        "3v1qg7Uj": "100",
        "4RnIaUq5": "10103",
        "P_DISPORDER": "2",
        "X4mIT5Lc": "1",
        "P_IMG": "",
        "1gDkL6XR": "",
        "P_SOUND_ID": "10",
        "P_POS": "570,1030",
        "0I4MtuDa": "",
        "f73FMZua": "",
        "a91ecjh7": "2:1010303@4",
        "P_EFFECT_INFO": "",
        "9bpFf3Ut": "",
        "P_NEED_SWITCH_INFO": "10000087",
        "P_HIDE_SWITCH_INFO": "",
        "P_SCHEDULE_ID": "0",
        "P_EXT_IMG_PARAM": "",
        "P_CREATEDATE": "2018-02-07 13:11:52",
        "P_UPDATEDATE": "2018-02-07 13:11:52"
    },
    {
        "P_AREA_ID": "1010303",
        "V84mzqoX": "\u30ac\u30a6\u30bc\u8b10\u5ca9\u6d77\u5cb8",
        "3v1qg7Uj": "100",
        "4RnIaUq5": "10103",
        "P_DISPORDER": "3",
        "X4mIT5Lc": "1",
        "P_IMG": "",
        "1gDkL6XR": "",
        "P_SOUND_ID": "10",
        "P_POS": "580,650",
        "0I4MtuDa": "",
        "f73FMZua": "",
        "a91ecjh7": "1:1010304@3",
        "P_EFFECT_INFO": "",
        "9bpFf3Ut": "",
        "P_NEED_SWITCH_INFO": "10000089",
        "P_HIDE_SWITCH_INFO": "",
        "P_SCHEDULE_ID": "0",
        "P_EXT_IMG_PARAM": "",
        "P_CREATEDATE": "2018-02-07 13:11:52",
        "P_UPDATEDATE": "2018-02-07 13:11:52"
    },
    {
        "P_AREA_ID": "1010304",
        "V84mzqoX": "\u798d\u7d2b\u6d77\u9053",
        "3v1qg7Uj": "100",
        "4RnIaUq5": "10103",
        "P_DISPORDER": "4",
        "X4mIT5Lc": "1",
        "P_IMG": "",
        "1gDkL6XR": "",
        "P_SOUND_ID": "10",
        "P_POS": "242,580",
        "0I4MtuDa": "",
        "f73FMZua": "",
        "a91ecjh7": "2:1010305@4",
        "P_EFFECT_INFO": "",
        "9bpFf3Ut": "",
        "P_NEED_SWITCH_INFO": "10000092",
        "P_HIDE_SWITCH_INFO": "",
        "P_SCHEDULE_ID": "0",
        "P_EXT_IMG_PARAM": "",
        "P_CREATEDATE": "2018-02-07 13:11:52",
        "P_UPDATEDATE": "2018-02-07 13:11:52"
    },
    {
        "P_AREA_ID": "1010305",
        "V84mzqoX": "\u9b54\u52ab\u51a5\u5802\u3000\u6d77\u9580",
        "3v1qg7Uj": "100",
        "4RnIaUq5": "10103",
        "P_DISPORDER": "5",
        "X4mIT5Lc": "1",
        "P_IMG": "",
        "1gDkL6XR": "",
        "P_SOUND_ID": "10",
        "P_POS": "600,400",
        "0I4MtuDa": "",
        "f73FMZua": "",
        "a91ecjh7": "2:1010306@4",
        "P_EFFECT_INFO": "",
        "9bpFf3Ut": "",
        "P_NEED_SWITCH_INFO": "10000095",
        "P_HIDE_SWITCH_INFO": "",
        "P_SCHEDULE_ID": "0",
        "P_EXT_IMG_PARAM": "",
        "P_CREATEDATE": "2018-02-07 13:11:52",
        "P_UPDATEDATE": "2018-02-07 13:11:52"
    },
    {
        "P_AREA_ID": "1010306",
        "V84mzqoX": "\u9b54\u52ab\u51a5\u5802\u3000\u9022\u6b7b\u30ce\u9593",
        "3v1qg7Uj": "100",
        "4RnIaUq5": "10103",
        "P_DISPORDER": "6",
        "X4mIT5Lc": "1",
        "P_IMG": "",
        "1gDkL6XR": "",
        "P_SOUND_ID": "10",
        "P_POS": "570,230",
        "0I4MtuDa": "",
        "f73FMZua": "",
        "a91ecjh7": "1:1010307@4",
        "P_EFFECT_INFO": "",
        "9bpFf3Ut": "",
        "P_NEED_SWITCH_INFO": "10000098",
        "P_HIDE_SWITCH_INFO": "",
        "P_SCHEDULE_ID": "0",
        "P_EXT_IMG_PARAM": "",
        "P_CREATEDATE": "2018-02-07 13:11:52",
        "P_UPDATEDATE": "2018-02-07 13:11:52"
    },
    {
        "P_AREA_ID": "1010307",
        "V84mzqoX": "\u9b54\u52ab\u51a5\u5802\u3000\u8fce\u751f\u30ce\u9593",
        "3v1qg7Uj": "100",
        "4RnIaUq5": "10103",
        "P_DISPORDER": "7",
        "X4mIT5Lc": "1",
        "P_IMG": "",
        "1gDkL6XR": "",
        "P_SOUND_ID": "10",
        "P_POS": "270,180",
        "0I4MtuDa": "",
        "f73FMZua": "",
        "a91ecjh7": "",
        "P_EFFECT_INFO": "",
        "9bpFf3Ut": "",
        "P_NEED_SWITCH_INFO": "10000101",
        "P_HIDE_SWITCH_INFO": "",
        "P_SCHEDULE_ID": "0",
        "P_EXT_IMG_PARAM": "",
        "P_CREATEDATE": "2018-02-07 13:11:52",
        "P_UPDATEDATE": "2018-02-07 13:11:52"
    },
    {
        "P_AREA_ID": "1010308",
        "V84mzqoX": "\u6d41\u5fcc\u306e\u6edd",
        "3v1qg7Uj": "100",
        "4RnIaUq5": "10103",
        "P_DISPORDER": "8",
        "X4mIT5Lc": "1",
        "P_IMG": "",
        "1gDkL6XR": "",
        "P_SOUND_ID": "10",
        "P_POS": "250,1060",
        "0I4MtuDa": "",
        "f73FMZua": "",
        "a91ecjh7": "",
        "P_EFFECT_INFO": "",
        "9bpFf3Ut": "",
        "P_NEED_SWITCH_INFO": "10000104",
        "P_HIDE_SWITCH_INFO": "",
        "P_SCHEDULE_ID": "0",
        "P_EXT_IMG_PARAM": "",
        "P_CREATEDATE": "2018-02-07 13:11:52",
        "P_UPDATEDATE": "2018-02-07 13:11:52"
    },
    {
        "P_AREA_ID": "1020101",
        "V84mzqoX": "\u30eb\u30b7\u30a2\u30b9\u306e\u9580",
        "3v1qg7Uj": "100",
        "4RnIaUq5": "10201",
        "P_DISPORDER": "1",
        "X4mIT5Lc": "1",
        "P_IMG": "",
        "1gDkL6XR": "",
        "P_SOUND_ID": "10",
        "P_POS": "385,200",
        "0I4MtuDa": "",
        "f73FMZua": "",
        "a91ecjh7": "4:1020102@2",
        "P_EFFECT_INFO": "",
        "9bpFf3Ut": "",
        "P_NEED_SWITCH_INFO": "10000014",
        "P_HIDE_SWITCH_INFO": "",
        "P_SCHEDULE_ID": "0",
        "P_EXT_IMG_PARAM": "",
        "P_CREATEDATE": "2018-02-07 13:11:52",
        "P_UPDATEDATE": "2018-02-07 13:11:52"
    },
    {
        "P_AREA_ID": "1020102",
        "V84mzqoX": "\u30b6\u30eb\u30c4\u6751",
        "3v1qg7Uj": "100",
        "4RnIaUq5": "10201",
        "P_DISPORDER": "2",
        "X4mIT5Lc": "1",
        "P_IMG": "",
        "1gDkL6XR": "",
        "P_SOUND_ID": "10",
        "P_POS": "315,560",
        "0I4MtuDa": "",
        "f73FMZua": "",
        "a91ecjh7": "4:1020103@2",
        "P_EFFECT_INFO": "",
        "9bpFf3Ut": "",
        "P_NEED_SWITCH_INFO": "10000017",
        "P_HIDE_SWITCH_INFO": "",
        "P_SCHEDULE_ID": "0",
        "P_EXT_IMG_PARAM": "",
        "P_CREATEDATE": "2018-02-07 13:11:52",
        "P_UPDATEDATE": "2018-02-07 13:11:52"
    },
    {
        "P_AREA_ID": "1020103",
        "V84mzqoX": "\u30e9\u30f3\u30c9\u30fc\u30eb\u5927\u6a4b",
        "3v1qg7Uj": "100",
        "4RnIaUq5": "10201",
        "P_DISPORDER": "3",
        "X4mIT5Lc": "1",
        "P_IMG": "",
        "1gDkL6XR": "",
        "P_SOUND_ID": "10",
        "P_POS": "250,780",
        "0I4MtuDa": "",
        "f73FMZua": "",
        "a91ecjh7": "4:1020104@2",
        "P_EFFECT_INFO": "",
        "9bpFf3Ut": "",
        "P_NEED_SWITCH_INFO": "10000020",
        "P_HIDE_SWITCH_INFO": "",
        "P_SCHEDULE_ID": "0",
        "P_EXT_IMG_PARAM": "",
        "P_CREATEDATE": "2018-02-07 13:11:52",
        "P_UPDATEDATE": "2018-02-07 13:11:52"
    },
    {
        "P_AREA_ID": "1020104",
        "V84mzqoX": "\u5e1d\u90fd\u8857\u9053",
        "3v1qg7Uj": "100",
        "4RnIaUq5": "10201",
        "P_DISPORDER": "4",
        "X4mIT5Lc": "1",
        "P_IMG": "",
        "1gDkL6XR": "",
        "P_SOUND_ID": "10",
        "P_POS": "352,980",
        "0I4MtuDa": "",
        "f73FMZua": "",
        "a91ecjh7": "",
        "P_EFFECT_INFO": "",
        "9bpFf3Ut": "",
        "P_NEED_SWITCH_INFO": "10000023",
        "P_HIDE_SWITCH_INFO": "",
        "P_SCHEDULE_ID": "0",
        "P_EXT_IMG_PARAM": "",
        "P_CREATEDATE": "2018-02-07 13:11:52",
        "P_UPDATEDATE": "2018-02-07 13:11:52"
    },
    {
        "P_AREA_ID": "1020105",
        "V84mzqoX": "\u5f71\u7dd1\u306e\u68ee\u6797",
        "3v1qg7Uj": "100",
        "4RnIaUq5": "10201",
        "P_DISPORDER": "5",
        "X4mIT5Lc": "1",
        "P_IMG": "",
        "1gDkL6XR": "",
        "P_SOUND_ID": "10",
        "P_POS": "550,420",
        "0I4MtuDa": "",
        "f73FMZua": "",
        "a91ecjh7": "",
        "P_EFFECT_INFO": "",
        "9bpFf3Ut": "",
        "P_NEED_SWITCH_INFO": "10000027",
        "P_HIDE_SWITCH_INFO": "",
        "P_SCHEDULE_ID": "0",
        "P_EXT_IMG_PARAM": "",
        "P_CREATEDATE": "2018-02-07 13:11:52",
        "P_UPDATEDATE": "2018-02-07 13:11:52"
    },
    {
        "P_AREA_ID": "1020106",
        "V84mzqoX": "\u30e9\u30f3\u30c9\u30fc\u30eb\u6e56\u7554",
        "3v1qg7Uj": "100",
        "4RnIaUq5": "10201",
        "P_DISPORDER": "6",
        "X4mIT5Lc": "1",
        "P_IMG": "",
        "1gDkL6XR": "",
        "P_SOUND_ID": "10",
        "P_POS": "520,680",
        "0I4MtuDa": "",
        "f73FMZua": "",
        "a91ecjh7": "",
        "P_EFFECT_INFO": "",
        "9bpFf3Ut": "",
        "P_NEED_SWITCH_INFO": "10000027",
        "P_HIDE_SWITCH_INFO": "",
        "P_SCHEDULE_ID": "0",
        "P_EXT_IMG_PARAM": "",
        "P_CREATEDATE": "2018-02-07 13:11:52",
        "P_UPDATEDATE": "2018-02-07 13:11:52"
    },
    {
        "P_AREA_ID": "1030101",
        "V84mzqoX": "\u6c5a\u6b7b\u306e\u8352\u5730",
        "3v1qg7Uj": "100",
        "4RnIaUq5": "103011",
        "P_DISPORDER": "1",
        "X4mIT5Lc": "1",
        "P_IMG": "",
        "1gDkL6XR": "",
        "P_SOUND_ID": "11",
        "P_POS": "240,300",
        "0I4MtuDa": "",
        "f73FMZua": "",
        "a91ecjh7": "2:1030102@1",
        "P_EFFECT_INFO": "",
        "9bpFf3Ut": "",
        "P_NEED_SWITCH_INFO": "10000027",
        "P_HIDE_SWITCH_INFO": "",
        "P_SCHEDULE_ID": "0",
        "P_EXT_IMG_PARAM": "",
        "P_CREATEDATE": "2018-02-07 13:11:52",
        "P_UPDATEDATE": "2018-02-07 13:11:52"
    },
    {
        "P_AREA_ID": "1030102",
        "V84mzqoX": "\u6d1e\u95c7\u306e\u5165\u53e3",
        "3v1qg7Uj": "100",
        "4RnIaUq5": "103011",
        "P_DISPORDER": "2",
        "X4mIT5Lc": "1",
        "P_IMG": "",
        "1gDkL6XR": "",
        "P_SOUND_ID": "11",
        "P_POS": "520,210",
        "0I4MtuDa": "",
        "f73FMZua": "",
        "a91ecjh7": "4:1030103@2",
        "P_EFFECT_INFO": "",
        "9bpFf3Ut": "",
        "P_NEED_SWITCH_INFO": "10000029",
        "P_HIDE_SWITCH_INFO": "",
        "P_SCHEDULE_ID": "0",
        "P_EXT_IMG_PARAM": "",
        "P_CREATEDATE": "2018-02-07 13:11:52",
        "P_UPDATEDATE": "2018-02-07 13:11:52"
    },
    {
        "P_AREA_ID": "1030103",
        "V84mzqoX": "\u5730\u4e0b\u3078\u3068\u7d9a\u304f\u9053",
        "3v1qg7Uj": "100",
        "4RnIaUq5": "103011",
        "P_DISPORDER": "3",
        "X4mIT5Lc": "1",
        "P_IMG": "",
        "1gDkL6XR": "",
        "P_SOUND_ID": "11",
        "P_POS": "620,400",
        "0I4MtuDa": "",
        "f73FMZua": "",
        "a91ecjh7": "1:1030201@2",
        "P_EFFECT_INFO": "",
        "9bpFf3Ut": "",
        "P_NEED_SWITCH_INFO": "10000031",
        "P_HIDE_SWITCH_INFO": "",
        "P_SCHEDULE_ID": "0",
        "P_EXT_IMG_PARAM": "",
        "P_CREATEDATE": "2018-02-07 13:11:52",
        "P_UPDATEDATE": "2018-02-07 13:11:52"
    },
    {
        "P_AREA_ID": "1030201",
        "V84mzqoX": "\u5927\u9910\u5834",
        "3v1qg7Uj": "100",
        "4RnIaUq5": "103011",
        "P_DISPORDER": "4",
        "X4mIT5Lc": "1",
        "P_IMG": "",
        "1gDkL6XR": "",
        "P_SOUND_ID": "11",
        "P_POS": "280,500",
        "0I4MtuDa": "",
        "f73FMZua": "",
        "a91ecjh7": "4:1030206@2",
        "P_EFFECT_INFO": "",
        "9bpFf3Ut": "",
        "P_NEED_SWITCH_INFO": "10000034",
        "P_HIDE_SWITCH_INFO": "",
        "P_SCHEDULE_ID": "0",
        "P_EXT_IMG_PARAM": "",
        "P_CREATEDATE": "2018-02-07 13:11:52",
        "P_UPDATEDATE": "2018-02-07 13:11:52"
    },
    {
        "P_AREA_ID": "1030202",
        "V84mzqoX": "\u57f9\u990a\u7814\u7a76\u5ba4",
        "3v1qg7Uj": "100",
        "4RnIaUq5": "103011",
        "P_DISPORDER": "5",
        "X4mIT5Lc": "1",
        "P_IMG": "",
        "1gDkL6XR": "",
        "P_SOUND_ID": "11",
        "P_POS": "620,880",
        "0I4MtuDa": "",
        "f73FMZua": "",
        "a91ecjh7": "",
        "P_EFFECT_INFO": "",
        "9bpFf3Ut": "",
        "P_NEED_SWITCH_INFO": "11000027",
        "P_HIDE_SWITCH_INFO": "",
        "P_SCHEDULE_ID": "0",
        "P_EXT_IMG_PARAM": "",
        "P_CREATEDATE": "2018-02-07 13:11:52",
        "P_UPDATEDATE": "2018-02-07 13:11:52"
    },
    {
        "P_AREA_ID": "1030203",
        "V84mzqoX": "\u7834\u7363\u306e\u9593",
        "3v1qg7Uj": "100",
        "4RnIaUq5": "103011",
        "P_DISPORDER": "6",
        "X4mIT5Lc": "1",
        "P_IMG": "",
        "1gDkL6XR": "",
        "P_SOUND_ID": "11",
        "P_POS": "600,650",
        "0I4MtuDa": "",
        "f73FMZua": "",
        "a91ecjh7": "",
        "P_EFFECT_INFO": "",
        "9bpFf3Ut": "",
        "P_NEED_SWITCH_INFO": "11000027",
        "P_HIDE_SWITCH_INFO": "",
        "P_SCHEDULE_ID": "0",
        "P_EXT_IMG_PARAM": "",
        "P_CREATEDATE": "2018-02-07 13:11:52",
        "P_UPDATEDATE": "2018-02-07 13:11:52"
    },
    {
        "P_AREA_ID": "1030204",
        "V84mzqoX": "\u5947\u904a\u306e\u9593",
        "3v1qg7Uj": "100",
        "4RnIaUq5": "103011",
        "P_DISPORDER": "7",
        "X4mIT5Lc": "1",
        "P_IMG": "",
        "1gDkL6XR": "",
        "P_SOUND_ID": "11",
        "P_POS": "250,800",
        "0I4MtuDa": "",
        "f73FMZua": "",
        "a91ecjh7": "",
        "P_EFFECT_INFO": "",
        "9bpFf3Ut": "",
        "P_NEED_SWITCH_INFO": "11000027",
        "P_HIDE_SWITCH_INFO": "",
        "P_SCHEDULE_ID": "0",
        "P_EXT_IMG_PARAM": "",
        "P_CREATEDATE": "2018-02-07 13:11:52",
        "P_UPDATEDATE": "2018-02-07 13:11:52"
    },
    {
        "P_AREA_ID": "1030205",
        "V84mzqoX": "\u5730\u4e0b\u30b2\u30fc\u30c8\u524d",
        "3v1qg7Uj": "100",
        "4RnIaUq5": "103011",
        "P_DISPORDER": "8",
        "X4mIT5Lc": "1",
        "P_IMG": "",
        "1gDkL6XR": "",
        "P_SOUND_ID": "11",
        "P_POS": "370,1050",
        "0I4MtuDa": "",
        "f73FMZua": "",
        "a91ecjh7": "4:1030301@2",
        "P_EFFECT_INFO": "",
        "9bpFf3Ut": "",
        "P_NEED_SWITCH_INFO": "10000037",
        "P_HIDE_SWITCH_INFO": "",
        "P_SCHEDULE_ID": "0",
        "P_EXT_IMG_PARAM": "",
        "P_CREATEDATE": "2018-02-07 13:11:52",
        "P_UPDATEDATE": "2018-02-07 13:11:52"
    },
    {
        "P_AREA_ID": "1030206",
        "V84mzqoX": "\u975e\u8868\u793a\u7528",
        "3v1qg7Uj": "100",
        "4RnIaUq5": "103011",
        "P_DISPORDER": "9",
        "X4mIT5Lc": "99",
        "P_IMG": "",
        "1gDkL6XR": "",
        "P_SOUND_ID": "11",
        "P_POS": "450,745",
        "0I4MtuDa": "",
        "f73FMZua": "",
        "a91ecjh7": "2:1030205@2",
        "P_EFFECT_INFO": "",
        "9bpFf3Ut": "",
        "P_NEED_SWITCH_INFO": "10000037",
        "P_HIDE_SWITCH_INFO": "",
        "P_SCHEDULE_ID": "0",
        "P_EXT_IMG_PARAM": "",
        "P_CREATEDATE": "2018-02-07 13:11:52",
        "P_UPDATEDATE": "2018-02-07 13:11:52"
    },
    {
        "P_AREA_ID": "1030301",
        "V84mzqoX": "\u84bc\u7114\u306e\u5186\u5353",
        "3v1qg7Uj": "100",
        "4RnIaUq5": "103012",
        "P_DISPORDER": "1",
        "X4mIT5Lc": "1",
        "P_IMG": "",
        "1gDkL6XR": "",
        "P_SOUND_ID": "11",
        "P_POS": "250,350",
        "0I4MtuDa": "",
        "f73FMZua": "",
        "a91ecjh7": "4:1030303@2",
        "P_EFFECT_INFO": "",
        "9bpFf3Ut": "",
        "P_NEED_SWITCH_INFO": "10000048",
        "P_HIDE_SWITCH_INFO": "",
        "P_SCHEDULE_ID": "0",
        "P_EXT_IMG_PARAM": "",
        "P_CREATEDATE": "2018-02-07 13:11:52",
        "P_UPDATEDATE": "2018-02-07 13:11:52"
    },
    {
        "P_AREA_ID": "1030302",
        "V84mzqoX": "\u52d5\u529b\u5ba4",
        "3v1qg7Uj": "100",
        "4RnIaUq5": "103012",
        "P_DISPORDER": "2",
        "X4mIT5Lc": "1",
        "P_IMG": "",
        "1gDkL6XR": "",
        "P_SOUND_ID": "11",
        "P_POS": "620,330",
        "0I4MtuDa": "",
        "f73FMZua": "",
        "a91ecjh7": "",
        "P_EFFECT_INFO": "",
        "9bpFf3Ut": "",
        "P_NEED_SWITCH_INFO": "11000035",
        "P_HIDE_SWITCH_INFO": "",
        "P_SCHEDULE_ID": "0",
        "P_EXT_IMG_PARAM": "",
        "P_CREATEDATE": "2018-02-07 13:11:52",
        "P_UPDATEDATE": "2018-02-07 13:11:52"
    },
    {
        "P_AREA_ID": "1030303",
        "V84mzqoX": "\u6700\u6df1\u90e8\u30a8\u30ec\u30d9\u30fc\u30bf\u30fc",
        "3v1qg7Uj": "100",
        "4RnIaUq5": "103012",
        "P_DISPORDER": "3",
        "X4mIT5Lc": "1",
        "P_IMG": "",
        "1gDkL6XR": "",
        "P_SOUND_ID": "11",
        "P_POS": "440,570",
        "0I4MtuDa": "",
        "f73FMZua": "",
        "a91ecjh7": "4:1030304@2",
        "P_EFFECT_INFO": "",
        "9bpFf3Ut": "",
        "P_NEED_SWITCH_INFO": "10000051",
        "P_HIDE_SWITCH_INFO": "",
        "P_SCHEDULE_ID": "0",
        "P_EXT_IMG_PARAM": "",
        "P_CREATEDATE": "2018-02-07 13:11:52",
        "P_UPDATEDATE": "2018-02-07 13:11:52"
    },
    {
        "P_AREA_ID": "1030304",
        "V84mzqoX": "\u751f\u4f53\u5b9f\u9a13\u5834",
        "3v1qg7Uj": "100",
        "4RnIaUq5": "103012",
        "P_DISPORDER": "4",
        "X4mIT5Lc": "1",
        "P_IMG": "",
        "1gDkL6XR": "",
        "P_SOUND_ID": "11",
        "P_POS": "230,770",
        "0I4MtuDa": "",
        "f73FMZua": "",
        "a91ecjh7": "4:1030305@1",
        "P_EFFECT_INFO": "",
        "9bpFf3Ut": "",
        "P_NEED_SWITCH_INFO": "10000057",
        "P_HIDE_SWITCH_INFO": "",
        "P_SCHEDULE_ID": "0",
        "P_EXT_IMG_PARAM": "",
        "P_CREATEDATE": "2018-02-07 13:11:52",
        "P_UPDATEDATE": "2018-02-07 13:11:52"
    },
    {
        "P_AREA_ID": "1030305",
        "V84mzqoX": "\u9b54\u795e\u306e\u7389\u5ea7",
        "3v1qg7Uj": "100",
        "4RnIaUq5": "103012",
        "P_DISPORDER": "5",
        "X4mIT5Lc": "1",
        "P_IMG": "",
        "1gDkL6XR": "",
        "P_SOUND_ID": "11",
        "P_POS": "610,1020",
        "0I4MtuDa": "",
        "f73FMZua": "",
        "a91ecjh7": "",
        "P_EFFECT_INFO": "",
        "9bpFf3Ut": "",
        "P_NEED_SWITCH_INFO": "10000060",
        "P_HIDE_SWITCH_INFO": "",
        "P_SCHEDULE_ID": "0",
        "P_EXT_IMG_PARAM": "",
        "P_CREATEDATE": "2018-02-07 13:11:52",
        "P_UPDATEDATE": "2018-02-07 13:11:52"
    },
    {
        "P_AREA_ID": "1030306",
        "V84mzqoX": "\u5175\u5668\u7814\u7a76\u5ba4",
        "3v1qg7Uj": "100",
        "4RnIaUq5": "103012",
        "P_DISPORDER": "6",
        "X4mIT5Lc": "1",
        "P_IMG": "",
        "1gDkL6XR": "",
        "P_SOUND_ID": "11",
        "P_POS": "620,770",
        "0I4MtuDa": "",
        "f73FMZua": "",
        "a91ecjh7": "",
        "P_EFFECT_INFO": "",
        "9bpFf3Ut": "",
        "P_NEED_SWITCH_INFO": "10000063",
        "P_HIDE_SWITCH_INFO": "",
        "P_SCHEDULE_ID": "0",
        "P_EXT_IMG_PARAM": "",
        "P_CREATEDATE": "2018-02-07 13:11:52",
        "P_UPDATEDATE": "2018-02-07 13:11:52"
    },
    {
        "P_AREA_ID": "1030307",
        "V84mzqoX": "\u5730\u5e95\u7262\u7344",
        "3v1qg7Uj": "100",
        "4RnIaUq5": "103012",
        "P_DISPORDER": "7",
        "X4mIT5Lc": "1",
        "P_IMG": "",
        "1gDkL6XR": "",
        "P_SOUND_ID": "11",
        "P_POS": "250,1050",
        "0I4MtuDa": "",
        "f73FMZua": "",
        "a91ecjh7": "",
        "P_EFFECT_INFO": "",
        "9bpFf3Ut": "",
        "P_NEED_SWITCH_INFO": "10000063",
        "P_HIDE_SWITCH_INFO": "",
        "P_SCHEDULE_ID": "0",
        "P_EXT_IMG_PARAM": "",
        "P_CREATEDATE": "2018-02-07 13:11:52",
        "P_UPDATEDATE": "2018-02-07 13:11:52"
    },
    {
        "P_AREA_ID": "1040101",
        "V84mzqoX": "\u30a2\u30d3\u30a8\u30eb\u8352\u91ce",
        "3v1qg7Uj": "100",
        "4RnIaUq5": "10401",
        "P_DISPORDER": "1",
        "X4mIT5Lc": "1",
        "P_IMG": "",
        "1gDkL6XR": "",
        "P_SOUND_ID": "12",
        "P_POS": "592,520",
        "0I4MtuDa": "",
        "f73FMZua": "",
        "a91ecjh7": "1:1040102@4",
        "P_EFFECT_INFO": "",
        "9bpFf3Ut": "",
        "P_NEED_SWITCH_INFO": "10000063",
        "P_HIDE_SWITCH_INFO": "",
        "P_SCHEDULE_ID": "0",
        "P_EXT_IMG_PARAM": "",
        "P_CREATEDATE": "2018-02-07 13:11:52",
        "P_UPDATEDATE": "2018-02-07 13:11:52"
    },
    {
        "P_AREA_ID": "1040102",
        "V84mzqoX": "\u30e1\u30eb\u30b5\u30b9\u30d6\u30ea\u30c3\u30b8",
        "3v1qg7Uj": "100",
        "4RnIaUq5": "10401",
        "P_DISPORDER": "2",
        "X4mIT5Lc": "1",
        "P_IMG": "",
        "1gDkL6XR": "",
        "P_SOUND_ID": "12",
        "P_POS": "300,380",
        "0I4MtuDa": "",
        "f73FMZua": "",
        "a91ecjh7": "",
        "P_EFFECT_INFO": "",
        "9bpFf3Ut": "",
        "P_NEED_SWITCH_INFO": "10000106",
        "P_HIDE_SWITCH_INFO": "",
        "P_SCHEDULE_ID": "0",
        "P_EXT_IMG_PARAM": "",
        "P_CREATEDATE": "2018-02-07 13:11:52",
        "P_UPDATEDATE": "2018-02-07 13:11:52"
    },
    {
        "P_AREA_ID": "1040201",
        "V84mzqoX": "\u5357\u30b2\u30fc\u30c8",
        "3v1qg7Uj": "100",
        "4RnIaUq5": "10402",
        "P_DISPORDER": "1",
        "X4mIT5Lc": "1",
        "P_IMG": "",
        "1gDkL6XR": "",
        "P_SOUND_ID": "12",
        "P_POS": "280,720",
        "0I4MtuDa": "",
        "f73FMZua": "",
        "a91ecjh7": "4:1040202@2",
        "P_EFFECT_INFO": "",
        "9bpFf3Ut": "",
        "P_NEED_SWITCH_INFO": "10000109",
        "P_HIDE_SWITCH_INFO": "",
        "P_SCHEDULE_ID": "0",
        "P_EXT_IMG_PARAM": "",
        "P_CREATEDATE": "2018-02-07 13:11:52",
        "P_UPDATEDATE": "2018-02-07 13:11:52"
    },
    {
        "P_AREA_ID": "1040202",
        "V84mzqoX": "\u6771\u30b2\u30fc\u30c8",
        "3v1qg7Uj": "100",
        "4RnIaUq5": "10402",
        "P_DISPORDER": "2",
        "X4mIT5Lc": "1",
        "P_IMG": "",
        "1gDkL6XR": "",
        "P_SOUND_ID": "12",
        "P_POS": "460,1050",
        "0I4MtuDa": "",
        "f73FMZua": "",
        "a91ecjh7": "2:1040203@4",
        "P_EFFECT_INFO": "",
        "9bpFf3Ut": "",
        "P_NEED_SWITCH_INFO": "10000112",
        "P_HIDE_SWITCH_INFO": "",
        "P_SCHEDULE_ID": "0",
        "P_EXT_IMG_PARAM": "",
        "P_CREATEDATE": "2018-02-07 13:11:52",
        "P_UPDATEDATE": "2018-02-07 13:11:52"
    },
    {
        "P_AREA_ID": "1040203",
        "V84mzqoX": "\u6280\u8853\u958b\u767a\u5e81",
        "3v1qg7Uj": "100",
        "4RnIaUq5": "10402",
        "P_DISPORDER": "3",
        "X4mIT5Lc": "1",
        "P_IMG": "",
        "1gDkL6XR": "",
        "P_SOUND_ID": "12",
        "P_POS": "620,660",
        "0I4MtuDa": "",
        "f73FMZua": "",
        "a91ecjh7": "",
        "P_EFFECT_INFO": "",
        "9bpFf3Ut": "",
        "P_NEED_SWITCH_INFO": "10000115",
        "P_HIDE_SWITCH_INFO": "",
        "P_SCHEDULE_ID": "0",
        "P_EXT_IMG_PARAM": "",
        "P_CREATEDATE": "2018-02-07 13:11:52",
        "P_UPDATEDATE": "2018-02-07 13:11:52"
    },
    {
        "P_AREA_ID": "1040204",
        "V84mzqoX": "\u4e2d\u5fc3\u5e02\u8857\u5730\u5e83\u5834",
        "3v1qg7Uj": "100",
        "4RnIaUq5": "10402",
        "P_DISPORDER": "4",
        "X4mIT5Lc": "1",
        "P_IMG": "",
        "1gDkL6XR": "",
        "P_SOUND_ID": "12",
        "P_POS": "400,430",
        "0I4MtuDa": "",
        "f73FMZua": "",
        "a91ecjh7": "",
        "P_EFFECT_INFO": "",
        "9bpFf3Ut": "",
        "P_NEED_SWITCH_INFO": "10000130",
        "P_HIDE_SWITCH_INFO": "",
        "P_SCHEDULE_ID": "0",
        "P_EXT_IMG_PARAM": "",
        "P_CREATEDATE": "2018-02-07 13:11:52",
        "P_UPDATEDATE": "2018-02-07 13:11:52"
    },
    {
        "P_AREA_ID": "1040301",
        "V84mzqoX": "\u30a8\u30f3\u30c8\u30e9\u30f3\u30b9",
        "3v1qg7Uj": "100",
        "4RnIaUq5": "10403",
        "P_DISPORDER": "1",
        "X4mIT5Lc": "1",
        "P_IMG": "",
        "1gDkL6XR": "",
        "P_SOUND_ID": "12",
        "P_POS": "540,1070",
        "0I4MtuDa": "",
        "f73FMZua": "",
        "a91ecjh7": "",
        "P_EFFECT_INFO": "",
        "9bpFf3Ut": "",
        "P_NEED_SWITCH_INFO": "10000118",
        "P_HIDE_SWITCH_INFO": "",
        "P_SCHEDULE_ID": "0",
        "P_EXT_IMG_PARAM": "",
        "P_CREATEDATE": "2018-02-07 13:11:52",
        "P_UPDATEDATE": "2018-02-07 13:11:52"
    },
    {
        "P_AREA_ID": "1040302",
        "V84mzqoX": "\u7b2c\u4e8c\u7814\u7a76\u30a8\u30ea\u30a2",
        "3v1qg7Uj": "100",
        "4RnIaUq5": "10403",
        "P_DISPORDER": "2",
        "X4mIT5Lc": "1",
        "P_IMG": "",
        "1gDkL6XR": "",
        "P_SOUND_ID": "12",
        "P_POS": "380,730",
        "0I4MtuDa": "",
        "f73FMZua": "",
        "a91ecjh7": "",
        "P_EFFECT_INFO": "",
        "9bpFf3Ut": "",
        "P_NEED_SWITCH_INFO": "11000169",
        "P_HIDE_SWITCH_INFO": "",
        "P_SCHEDULE_ID": "0",
        "P_EXT_IMG_PARAM": "",
        "P_CREATEDATE": "2018-02-07 13:11:52",
        "P_UPDATEDATE": "2018-02-07 13:11:52"
    },
    {
        "P_AREA_ID": "1040303",
        "V84mzqoX": "\u30b3\u30f3\u30c8\u30ed\u30fc\u30eb\u30eb\u30fc\u30e0",
        "3v1qg7Uj": "100",
        "4RnIaUq5": "10403",
        "P_DISPORDER": "1",
        "X4mIT5Lc": "1",
        "P_IMG": "",
        "1gDkL6XR": "",
        "P_SOUND_ID": "12",
        "P_POS": "330,350",
        "0I4MtuDa": "",
        "f73FMZua": "",
        "a91ecjh7": "3:1040304@2",
        "P_EFFECT_INFO": "",
        "9bpFf3Ut": "",
        "P_NEED_SWITCH_INFO": "10000120",
        "P_HIDE_SWITCH_INFO": "",
        "P_SCHEDULE_ID": "0",
        "P_EXT_IMG_PARAM": "",
        "P_CREATEDATE": "2018-02-07 13:11:52",
        "P_UPDATEDATE": "2018-02-07 13:11:52"
    },
    {
        "P_AREA_ID": "1040304",
        "V84mzqoX": "\u9023\u7d61\u7528\u901a\u8def",
        "3v1qg7Uj": "100",
        "4RnIaUq5": "10403",
        "P_DISPORDER": "4",
        "X4mIT5Lc": "1",
        "P_IMG": "",
        "1gDkL6XR": "",
        "P_SOUND_ID": "12",
        "P_POS": "520,530",
        "0I4MtuDa": "",
        "f73FMZua": "",
        "a91ecjh7": "",
        "P_EFFECT_INFO": "",
        "9bpFf3Ut": "",
        "P_NEED_SWITCH_INFO": "10000127",
        "P_HIDE_SWITCH_INFO": "",
        "P_SCHEDULE_ID": "0",
        "P_EXT_IMG_PARAM": "",
        "P_CREATEDATE": "2018-02-07 13:11:52",
        "P_UPDATEDATE": "2018-02-07 13:11:52"
    },
    {
        "P_AREA_ID": "1050101",
        "V84mzqoX": "\u723d\u98a8\u306e\u4e18",
        "3v1qg7Uj": "100",
        "4RnIaUq5": "10501",
        "P_DISPORDER": "1",
        "X4mIT5Lc": "1",
        "P_IMG": "",
        "1gDkL6XR": "",
        "P_SOUND_ID": "1",
        "P_POS": "250,1030",
        "0I4MtuDa": "",
        "f73FMZua": "",
        "a91ecjh7": "3:1050102@4",
        "P_EFFECT_INFO": "",
        "9bpFf3Ut": "",
        "P_NEED_SWITCH_INFO": "10000104,10000133",
        "P_HIDE_SWITCH_INFO": "",
        "P_SCHEDULE_ID": "0",
        "P_EXT_IMG_PARAM": "",
        "P_CREATEDATE": "2018-02-07 13:11:52",
        "P_UPDATEDATE": "2018-02-07 13:11:52"
    },
    {
        "P_AREA_ID": "1050102",
        "V84mzqoX": "\u6ec5\u307c\u3055\u308c\u305f\u6751",
        "3v1qg7Uj": "100",
        "4RnIaUq5": "10501",
        "P_DISPORDER": "2",
        "X4mIT5Lc": "1",
        "P_IMG": "",
        "1gDkL6XR": "",
        "P_SOUND_ID": "1",
        "P_POS": "560,780",
        "0I4MtuDa": "",
        "f73FMZua": "",
        "a91ecjh7": "2:1050103@4",
        "P_EFFECT_INFO": "",
        "9bpFf3Ut": "",
        "P_NEED_SWITCH_INFO": "10000136",
        "P_HIDE_SWITCH_INFO": "",
        "P_SCHEDULE_ID": "0",
        "P_EXT_IMG_PARAM": "",
        "P_CREATEDATE": "2018-02-07 13:11:52",
        "P_UPDATEDATE": "2018-02-07 13:11:52"
    },
    {
        "P_AREA_ID": "1050103",
        "V84mzqoX": "\u30ec\u30b7\u30b9\u7269\u898b\u5854",
        "3v1qg7Uj": "100",
        "4RnIaUq5": "10501",
        "P_DISPORDER": "3",
        "X4mIT5Lc": "1",
        "P_IMG": "",
        "1gDkL6XR": "",
        "P_SOUND_ID": "1",
        "P_POS": "250,600",
        "0I4MtuDa": "",
        "f73FMZua": "",
        "a91ecjh7": "3:1050104@1",
        "P_EFFECT_INFO": "",
        "9bpFf3Ut": "",
        "P_NEED_SWITCH_INFO": "10000138",
        "P_HIDE_SWITCH_INFO": "",
        "P_SCHEDULE_ID": "0",
        "P_EXT_IMG_PARAM": "",
        "P_CREATEDATE": "2018-02-07 13:11:52",
        "P_UPDATEDATE": "2018-02-07 13:11:52"
    },
    {
        "P_AREA_ID": "1050104",
        "V84mzqoX": "\u30e2\u30eb\u30c7\u30f3\u5927\u540a\u6a4b",
        "3v1qg7Uj": "100",
        "4RnIaUq5": "10501",
        "P_DISPORDER": "4",
        "X4mIT5Lc": "1",
        "P_IMG": "",
        "1gDkL6XR": "",
        "P_SOUND_ID": "1",
        "P_POS": "570,525",
        "0I4MtuDa": "",
        "f73FMZua": "",
        "a91ecjh7": "2:1050105@4",
        "P_EFFECT_INFO": "",
        "9bpFf3Ut": "",
        "P_NEED_SWITCH_INFO": "10000142",
        "P_HIDE_SWITCH_INFO": "",
        "P_SCHEDULE_ID": "0",
        "P_EXT_IMG_PARAM": "",
        "P_CREATEDATE": "2018-02-07 13:11:52",
        "P_UPDATEDATE": "2018-02-07 13:11:52"
    },
    {
        "P_AREA_ID": "1050105",
        "V84mzqoX": "\u6a5f\u5175\u524d\u54e8\u57fa\u5730",
        "3v1qg7Uj": "100",
        "4RnIaUq5": "10501",
        "P_DISPORDER": "5",
        "X4mIT5Lc": "1",
        "P_IMG": "",
        "1gDkL6XR": "",
        "P_SOUND_ID": "1",
        "P_POS": "500,350",
        "0I4MtuDa": "",
        "f73FMZua": "",
        "a91ecjh7": "1:1050106@4",
        "P_EFFECT_INFO": "",
        "9bpFf3Ut": "",
        "P_NEED_SWITCH_INFO": "10000145",
        "P_HIDE_SWITCH_INFO": "",
        "P_SCHEDULE_ID": "0",
        "P_EXT_IMG_PARAM": "",
        "P_CREATEDATE": "2018-02-07 13:11:52",
        "P_UPDATEDATE": "2018-02-07 13:11:52"
    },
    {
        "P_AREA_ID": "1050106",
        "V84mzqoX": "\u7f85\u6bb2\u8981\u585e",
        "3v1qg7Uj": "100",
        "4RnIaUq5": "10501",
        "P_DISPORDER": "6",
        "X4mIT5Lc": "1",
        "P_IMG": "",
        "1gDkL6XR": "",
        "P_SOUND_ID": "1",
        "P_POS": "252,250",
        "0I4MtuDa": "",
        "f73FMZua": "",
        "a91ecjh7": "",
        "P_EFFECT_INFO": "",
        "9bpFf3Ut": "",
        "P_NEED_SWITCH_INFO": "10000148",
        "P_HIDE_SWITCH_INFO": "",
        "P_SCHEDULE_ID": "0",
        "P_EXT_IMG_PARAM": "",
        "P_CREATEDATE": "2018-02-07 13:11:52",
        "P_UPDATEDATE": "2018-02-07 13:11:52"
    },
    {
        "P_AREA_ID": "1050107",
        "V84mzqoX": "\u30d0\u30c0\u30f3\u306e\u7826",
        "3v1qg7Uj": "100",
        "4RnIaUq5": "10501",
        "P_DISPORDER": "7",
        "X4mIT5Lc": "1",
        "P_IMG": "",
        "1gDkL6XR": "",
        "P_SOUND_ID": "1",
        "P_POS": "610,220",
        "0I4MtuDa": "",
        "f73FMZua": "",
        "a91ecjh7": "",
        "P_EFFECT_INFO": "",
        "9bpFf3Ut": "",
        "P_NEED_SWITCH_INFO": "10000152",
        "P_HIDE_SWITCH_INFO": "",
        "P_SCHEDULE_ID": "0",
        "P_EXT_IMG_PARAM": "",
        "P_CREATEDATE": "2018-02-07 13:11:52",
        "P_UPDATEDATE": "2018-02-07 13:11:52"
    },
    {
        "P_AREA_ID": "2020101",
        "V84mzqoX": "\u56db\u8056\u3068\u5149\u95c7\u306e\u53cc\u738b",
        "3v1qg7Uj": "3",
        "4RnIaUq5": "20201",
        "P_DISPORDER": "1",
        "X4mIT5Lc": "2",
        "P_IMG": "sq_map_002.jpg",
        "1gDkL6XR": "banner_story_quest_1.png,label_story_quest_1.png",
        "P_SOUND_ID": "14",
        "P_POS": "",
        "0I4MtuDa": "",
        "f73FMZua": "",
        "a91ecjh7": "",
        "P_EFFECT_INFO": "",
        "9bpFf3Ut": "1,10@1000122:10@2000122:10@3000122:10@4000122:10@5000122",
        "P_NEED_SWITCH_INFO": "0",
        "P_HIDE_SWITCH_INFO": "",
        "P_SCHEDULE_ID": "0",
        "P_EXT_IMG_PARAM": "\u3044\u307e\u3053\u305d\u8a9e\u308d\u3046\n\u3044\u306b\u3057\u3048\u306e\u30bb\u30eb\u30bf\u30d3\u30a2\u3088\u308a\u4f1d\u308f\u308b\n\u8ce2\u738b\u3068\u56db\u8056\u306e\u4f1d\u8aac\u3092\u2026",
        "P_CREATEDATE": "2018-02-07 13:11:52",
        "P_UPDATEDATE": "2018-02-07 13:11:52"
    },
    {
        "P_AREA_ID": "2020201",
        "V84mzqoX": "\u5fcd\u3073\u5bc4\u308b\u60aa\u610f",
        "3v1qg7Uj": "3",
        "4RnIaUq5": "20201",
        "P_DISPORDER": "2",
        "X4mIT5Lc": "2",
        "P_IMG": "sq_map_001.jpg",
        "1gDkL6XR": "banner_story_quest_2.png,label_story_quest_2.png",
        "P_SOUND_ID": "14",
        "P_POS": "",
        "0I4MtuDa": "",
        "f73FMZua": "",
        "a91ecjh7": "",
        "P_EFFECT_INFO": "",
        "9bpFf3Ut": "1,10@1000422:10@2000422:10@3000422:10@4000422:10@5000422:10@6000422",
        "P_NEED_SWITCH_INFO": "0",
        "P_HIDE_SWITCH_INFO": "",
        "P_SCHEDULE_ID": "0",
        "P_EXT_IMG_PARAM": "\u300c\u6211\u3089\u300d\u3068\u300c\u5f7c\u3089\u300d\n\u3059\u308c\u9055\u3046\u60f3\u3044\u304c\u4ea4\u932f\u3059\u308b\n\u305d\u306e\u679c\u3066\u306b\u8a2a\u308c\u308b\u3082\u306e\u306f\u2026",
        "P_CREATEDATE": "2018-02-07 13:11:52",
        "P_UPDATEDATE": "2018-02-07 13:11:52"
    },
    {
        "P_AREA_ID": "2020401",
        "V84mzqoX": "\u5341\u7ffc\u306e\u7834\u58ca\u8005",
        "3v1qg7Uj": "7",
        "4RnIaUq5": "20201",
        "P_DISPORDER": "4",
        "X4mIT5Lc": "2",
        "P_IMG": "sq_map_003.jpg",
        "1gDkL6XR": "banner_story_quest.png,label_story_quest_4.png",
        "P_SOUND_ID": "14",
        "P_POS": "",
        "0I4MtuDa": "",
        "f73FMZua": "",
        "a91ecjh7": "",
        "P_EFFECT_INFO": "",
        "9bpFf3Ut": "1,10@1002012:10@2001812:10@3001812:10@4001912:10@6002112",
        "P_NEED_SWITCH_INFO": "0",
        "P_HIDE_SWITCH_INFO": "",
        "P_SCHEDULE_ID": "0",
        "P_EXT_IMG_PARAM": "\u30df\u30bb\u30eb\u3068\u3086\u304b\u3044\u306a\u4e0b\u50d5\u305f\u3061vs\u30e1\u30eb\u30ad\u30aa",
        "P_CREATEDATE": "2018-02-07 13:11:52",
        "P_UPDATEDATE": "2018-02-07 13:11:52"
    },
    {
        "P_AREA_ID": "20100901",
        "V84mzqoX": "FH\u30c6\u30b9\u30c8",
        "3v1qg7Uj": "5",
        "4RnIaUq5": "201",
        "P_DISPORDER": "101",
        "X4mIT5Lc": "3",
        "P_IMG": "",
        "1gDkL6XR": "sp_event_quest_banner_2_5.png",
        "P_SOUND_ID": "14",
        "P_POS": "",
        "0I4MtuDa": "",
        "f73FMZua": "",
        "a91ecjh7": "",
        "P_EFFECT_INFO": "",
        "9bpFf3Ut": "",
        "P_NEED_SWITCH_INFO": "0",
        "P_HIDE_SWITCH_INFO": "",
        "P_SCHEDULE_ID": "0",
        "P_EXT_IMG_PARAM": "",
        "P_CREATEDATE": "2018-02-07 13:11:52",
        "P_UPDATEDATE": "2018-02-07 13:11:52"
    },
    {
        "P_AREA_ID": "20300001",
        "V84mzqoX": "\u30e1\u30bf\u30eb\u30d1\u30ec\u30fc\u30c9",
        "3v1qg7Uj": "100",
        "4RnIaUq5": "202",
        "P_DISPORDER": "1",
        "X4mIT5Lc": "4",
        "P_IMG": "",
        "1gDkL6XR": "banner_key_quest_metal.png,icon_metal_king_key.png",
        "P_SOUND_ID": "14",
        "P_POS": "",
        "0I4MtuDa": "",
        "f73FMZua": "",
        "a91ecjh7": "",
        "P_EFFECT_INFO": "",
        "9bpFf3Ut": "",
        "P_NEED_SWITCH_INFO": "0",
        "P_HIDE_SWITCH_INFO": "",
        "P_SCHEDULE_ID": "0",
        "P_EXT_IMG_PARAM": "",
        "P_CREATEDATE": "2018-02-07 13:11:52",
        "P_UPDATEDATE": "2018-02-07 13:11:52"
    },
    {
        "P_AREA_ID": "20300002",
        "V84mzqoX": "\u30b8\u30e5\u30a8\u30eb\u30d1\u30ec\u30fc\u30c9",
        "3v1qg7Uj": "100",
        "4RnIaUq5": "202",
        "P_DISPORDER": "2",
        "X4mIT5Lc": "4",
        "P_IMG": "",
        "1gDkL6XR": "banner_key_quest_Jewel.png,icon_jewel_king_key.png",
        "P_SOUND_ID": "14",
        "P_POS": "",
        "0I4MtuDa": "",
        "f73FMZua": "",
        "a91ecjh7": "",
        "P_EFFECT_INFO": "",
        "9bpFf3Ut": "",
        "P_NEED_SWITCH_INFO": "0",
        "P_HIDE_SWITCH_INFO": "",
        "P_SCHEDULE_ID": "0",
        "P_EXT_IMG_PARAM": "",
        "P_CREATEDATE": "2018-02-07 13:11:52",
        "P_UPDATEDATE": "2018-02-07 13:11:52"
    },
    {
        "P_AREA_ID": "20300003",
        "V84mzqoX": "\u7d4c\u9a13\u306e\u9593",
        "3v1qg7Uj": "100",
        "4RnIaUq5": "202",
        "P_DISPORDER": "3",
        "X4mIT5Lc": "1",
        "P_IMG": "",
        "1gDkL6XR": "banner_sp_quest_exp.png",
        "P_SOUND_ID": "14",
        "P_POS": "",
        "0I4MtuDa": "",
        "f73FMZua": "",
        "a91ecjh7": "",
        "P_EFFECT_INFO": "",
        "9bpFf3Ut": "",
        "P_NEED_SWITCH_INFO": "0",
        "P_HIDE_SWITCH_INFO": "",
        "P_SCHEDULE_ID": "0",
        "P_EXT_IMG_PARAM": "",
        "P_CREATEDATE": "2018-02-07 13:11:52",
        "P_UPDATEDATE": "2018-02-07 13:11:52"
    },
    {
        "P_AREA_ID": "20300004",
        "V84mzqoX": "\u9032\u5316\u306e\u9593",
        "3v1qg7Uj": "100",
        "4RnIaUq5": "202",
        "P_DISPORDER": "4",
        "X4mIT5Lc": "1",
        "P_IMG": "",
        "1gDkL6XR": "banner_sp_quest_evounit.png",
        "P_SOUND_ID": "14",
        "P_POS": "",
        "0I4MtuDa": "",
        "f73FMZua": "",
        "a91ecjh7": "",
        "P_EFFECT_INFO": "",
        "9bpFf3Ut": "",
        "P_NEED_SWITCH_INFO": "0",
        "P_HIDE_SWITCH_INFO": "",
        "P_SCHEDULE_ID": "0",
        "P_EXT_IMG_PARAM": "",
        "P_CREATEDATE": "2018-02-07 13:11:52",
        "P_UPDATEDATE": "2018-02-07 13:11:52"
    },
    {
        "P_AREA_ID": "20300005",
        "V84mzqoX": "\u30bc\u30eb\u306e\u9593",
        "3v1qg7Uj": "100",
        "4RnIaUq5": "202",
        "P_DISPORDER": "5",
        "X4mIT5Lc": "1",
        "P_IMG": "",
        "1gDkL6XR": "banner_sp_quest_zel.png",
        "P_SOUND_ID": "14",
        "P_POS": "",
        "0I4MtuDa": "",
        "f73FMZua": "",
        "a91ecjh7": "",
        "P_EFFECT_INFO": "",
        "9bpFf3Ut": "",
        "P_NEED_SWITCH_INFO": "0",
        "P_HIDE_SWITCH_INFO": "",
        "P_SCHEDULE_ID": "0",
        "P_EXT_IMG_PARAM": "",
        "P_CREATEDATE": "2018-02-07 13:11:52",
        "P_UPDATEDATE": "2018-02-07 13:11:52"
    },
    {
        "P_AREA_ID": "20300006",
        "V84mzqoX": "BB\u3068EP\u306e\u9593",
        "3v1qg7Uj": "100",
        "4RnIaUq5": "202",
        "P_DISPORDER": "6",
        "X4mIT5Lc": "1",
        "P_IMG": "",
        "1gDkL6XR": "banner_sp_quest_bbep.png",
        "P_SOUND_ID": "14",
        "P_POS": "",
        "0I4MtuDa": "",
        "f73FMZua": "",
        "a91ecjh7": "",
        "P_EFFECT_INFO": "",
        "9bpFf3Ut": "",
        "P_NEED_SWITCH_INFO": "0",
        "P_HIDE_SWITCH_INFO": "",
        "P_SCHEDULE_ID": "0",
        "P_EXT_IMG_PARAM": "",
        "P_CREATEDATE": "2018-02-07 13:11:52",
        "P_UPDATEDATE": "2018-02-07 13:11:52"
    },
    {
        "P_AREA_ID": "202010101",
        "V84mzqoX": "\u30bb\u30eb\u30bf\u30d3\u30a2\u8fba\u5883",
        "3v1qg7Uj": "100",
        "4RnIaUq5": "2020101",
        "P_DISPORDER": "1",
        "X4mIT5Lc": "2",
        "P_IMG": "",
        "1gDkL6XR": "",
        "P_SOUND_ID": "14",
        "P_POS": "570,664",
        "0I4MtuDa": "",
        "f73FMZua": "",
        "a91ecjh7": "4:202010102@2",
        "P_EFFECT_INFO": "",
        "9bpFf3Ut": "",
        "P_NEED_SWITCH_INFO": "0",
        "P_HIDE_SWITCH_INFO": "",
        "P_SCHEDULE_ID": "0",
        "P_EXT_IMG_PARAM": "",
        "P_CREATEDATE": "2018-02-07 13:11:52",
        "P_UPDATEDATE": "2018-02-07 13:11:52"
    },
    {
        "P_AREA_ID": "202010102",
        "V84mzqoX": "\u30e2\u30eb\u30c7\u30f3\u30ab\u30f3\u30d7\u516c\u9818",
        "3v1qg7Uj": "100",
        "4RnIaUq5": "2020101",
        "P_DISPORDER": "2",
        "X4mIT5Lc": "2",
        "P_IMG": "",
        "1gDkL6XR": "",
        "P_SOUND_ID": "14",
        "P_POS": "260,912",
        "0I4MtuDa": "",
        "f73FMZua": "",
        "a91ecjh7": "2:202010103@4",
        "P_EFFECT_INFO": "",
        "9bpFf3Ut": "",
        "P_NEED_SWITCH_INFO": "12000003",
        "P_HIDE_SWITCH_INFO": "",
        "P_SCHEDULE_ID": "0",
        "P_EXT_IMG_PARAM": "",
        "P_CREATEDATE": "2018-02-07 13:11:52",
        "P_UPDATEDATE": "2018-02-07 13:11:52"
    },
    {
        "P_AREA_ID": "202010103",
        "V84mzqoX": "\u5ec3\u57ce\u30c7\u30ab\u30c6\u30cd\u30a4\u30c8",
        "3v1qg7Uj": "100",
        "4RnIaUq5": "2020101",
        "P_DISPORDER": "3",
        "X4mIT5Lc": "2",
        "P_IMG": "",
        "1gDkL6XR": "",
        "P_SOUND_ID": "14",
        "P_POS": "360,240",
        "0I4MtuDa": "",
        "f73FMZua": "",
        "a91ecjh7": "",
        "P_EFFECT_INFO": "",
        "9bpFf3Ut": "",
        "P_NEED_SWITCH_INFO": "12000006",
        "P_HIDE_SWITCH_INFO": "",
        "P_SCHEDULE_ID": "0",
        "P_EXT_IMG_PARAM": "",
        "P_CREATEDATE": "2018-02-07 13:11:52",
        "P_UPDATEDATE": "2018-02-07 13:11:52"
    },
    {
        "P_AREA_ID": "202020101",
        "V84mzqoX": "\u7363\u4eba\u65cf\u306e\u4f4f\u3080\u9818\u57df",
        "3v1qg7Uj": "100",
        "4RnIaUq5": "2020201",
        "P_DISPORDER": "1",
        "X4mIT5Lc": "2",
        "P_IMG": "",
        "1gDkL6XR": "",
        "P_SOUND_ID": "14",
        "P_POS": "300,980",
        "0I4MtuDa": "",
        "f73FMZua": "",
        "a91ecjh7": "2:202020102@4",
        "P_EFFECT_INFO": "",
        "9bpFf3Ut": "",
        "P_NEED_SWITCH_INFO": "0",
        "P_HIDE_SWITCH_INFO": "",
        "P_SCHEDULE_ID": "0",
        "P_EXT_IMG_PARAM": "",
        "P_CREATEDATE": "2018-02-07 13:11:52",
        "P_UPDATEDATE": "2018-02-07 13:11:52"
    },
    {
        "P_AREA_ID": "202020102",
        "V84mzqoX": "\u30a8\u30eb\u30d5\u65cf\u306e\u8056\u57df",
        "3v1qg7Uj": "100",
        "4RnIaUq5": "2020201",
        "P_DISPORDER": "2",
        "X4mIT5Lc": "2",
        "P_IMG": "",
        "1gDkL6XR": "",
        "P_SOUND_ID": "14",
        "P_POS": "570,790",
        "0I4MtuDa": "",
        "f73FMZua": "",
        "a91ecjh7": "2:202020103@4",
        "P_EFFECT_INFO": "",
        "9bpFf3Ut": "",
        "P_NEED_SWITCH_INFO": "12000052",
        "P_HIDE_SWITCH_INFO": "",
        "P_SCHEDULE_ID": "0",
        "P_EXT_IMG_PARAM": "",
        "P_CREATEDATE": "2018-02-07 13:11:52",
        "P_UPDATEDATE": "2018-02-07 13:11:52"
    },
    {
        "P_AREA_ID": "202020103",
        "V84mzqoX": "\u30a8\u30eb\u30d5\u738b\u57ce\u306e\u88cf\u306e\u68ee",
        "3v1qg7Uj": "100",
        "4RnIaUq5": "2020201",
        "P_DISPORDER": "3",
        "X4mIT5Lc": "2",
        "P_IMG": "",
        "1gDkL6XR": "",
        "P_SOUND_ID": "14",
        "P_POS": "580,440",
        "0I4MtuDa": "",
        "f73FMZua": "",
        "a91ecjh7": "4:202020104@2",
        "P_EFFECT_INFO": "",
        "9bpFf3Ut": "",
        "P_NEED_SWITCH_INFO": "12000054",
        "P_HIDE_SWITCH_INFO": "",
        "P_SCHEDULE_ID": "0",
        "P_EXT_IMG_PARAM": "",
        "P_CREATEDATE": "2018-02-07 13:11:52",
        "P_UPDATEDATE": "2018-02-07 13:11:52"
    },
    {
        "P_AREA_ID": "202020104",
        "V84mzqoX": "\u30a8\u30eb\u30d5\u65cf\u306e\u5e83\u5834",
        "3v1qg7Uj": "100",
        "4RnIaUq5": "2020201",
        "P_DISPORDER": "4",
        "X4mIT5Lc": "2",
        "P_IMG": "",
        "1gDkL6XR": "",
        "P_SOUND_ID": "14",
        "P_POS": "252,650",
        "0I4MtuDa": "",
        "f73FMZua": "",
        "a91ecjh7": "",
        "P_EFFECT_INFO": "",
        "9bpFf3Ut": "",
        "P_NEED_SWITCH_INFO": "12000056",
        "P_HIDE_SWITCH_INFO": "",
        "P_SCHEDULE_ID": "0",
        "P_EXT_IMG_PARAM": "",
        "P_CREATEDATE": "2018-02-07 13:11:52",
        "P_UPDATEDATE": "2018-02-07 13:11:52"
    },
    {
        "P_AREA_ID": "202030101",
        "V84mzqoX": "\u546a\u308f\u308c\u3057\u708e\u93a7",
        "3v1qg7Uj": "100",
        "4RnIaUq5": "20201",
        "P_DISPORDER": "3",
        "X4mIT5Lc": "2",
        "P_IMG": "",
        "1gDkL6XR": "banner_story_quest_3.png,label_story_quest_3.png",
        "P_SOUND_ID": "14",
        "P_POS": "",
        "0I4MtuDa": "",
        "f73FMZua": "",
        "a91ecjh7": "",
        "P_EFFECT_INFO": "",
        "9bpFf3Ut": "1,10@5002012:10@5000522:10@6000522",
        "P_NEED_SWITCH_INFO": "0",
        "P_HIDE_SWITCH_INFO": "",
        "P_SCHEDULE_ID": "0",
        "P_EXT_IMG_PARAM": "\u6211\u306f\u5263\u3000\u6211\u306f\u76fe\n\u6211\u304c\u529b\u306f\u4e3b\u306e\u529b\u305d\u306e\u3082\u306e\n\u5275\u9020\u4e3b\u2026\u305d\u306e\u540d\u304c\u80cc\u8ca0\u3046\u7f6a\u3068\u7f70",
        "P_CREATEDATE": "2018-02-07 13:11:52",
        "P_UPDATEDATE": "2018-02-07 13:11:52"
    },
    {
        "P_AREA_ID": "202040101",
        "V84mzqoX": "\u30c0\u30f3\u30b8\u30e7\u30f31",
        "3v1qg7Uj": "100",
        "4RnIaUq5": "2020401",
        "P_DISPORDER": "1",
        "X4mIT5Lc": "2",
        "P_IMG": "",
        "1gDkL6XR": "",
        "P_SOUND_ID": "14",
        "P_POS": "300,820",
        "0I4MtuDa": "",
        "f73FMZua": "",
        "a91ecjh7": "4:1010302@1",
        "P_EFFECT_INFO": "",
        "9bpFf3Ut": "",
        "P_NEED_SWITCH_INFO": "0",
        "P_HIDE_SWITCH_INFO": "",
        "P_SCHEDULE_ID": "0",
        "P_EXT_IMG_PARAM": "",
        "P_CREATEDATE": "2018-02-07 13:11:52",
        "P_UPDATEDATE": "2018-02-07 13:11:52"
    },
    {
        "P_AREA_ID": "202040102",
        "V84mzqoX": "\u30c0\u30f3\u30b8\u30e7\u30f32",
        "3v1qg7Uj": "100",
        "4RnIaUq5": "2020401",
        "P_DISPORDER": "2",
        "X4mIT5Lc": "2",
        "P_IMG": "",
        "1gDkL6XR": "",
        "P_SOUND_ID": "14",
        "P_POS": "550,1030",
        "0I4MtuDa": "",
        "f73FMZua": "",
        "a91ecjh7": "2:1010303@4",
        "P_EFFECT_INFO": "",
        "9bpFf3Ut": "",
        "P_NEED_SWITCH_INFO": "12000150",
        "P_HIDE_SWITCH_INFO": "",
        "P_SCHEDULE_ID": "0",
        "P_EXT_IMG_PARAM": "",
        "P_CREATEDATE": "2018-02-07 13:11:52",
        "P_UPDATEDATE": "2018-02-07 13:11:52"
    },
    {
        "P_AREA_ID": "202040103",
        "V84mzqoX": "\u30c0\u30f3\u30b8\u30e7\u30f33",
        "3v1qg7Uj": "100",
        "4RnIaUq5": "2020401",
        "P_DISPORDER": "3",
        "X4mIT5Lc": "2",
        "P_IMG": "",
        "1gDkL6XR": "",
        "P_SOUND_ID": "14",
        "P_POS": "580,650",
        "0I4MtuDa": "",
        "f73FMZua": "",
        "a91ecjh7": "1:1010304@3",
        "P_EFFECT_INFO": "",
        "9bpFf3Ut": "",
        "P_NEED_SWITCH_INFO": "12000151",
        "P_HIDE_SWITCH_INFO": "",
        "P_SCHEDULE_ID": "0",
        "P_EXT_IMG_PARAM": "",
        "P_CREATEDATE": "2018-02-07 13:11:52",
        "P_UPDATEDATE": "2018-02-07 13:11:52"
    },
    {
        "P_AREA_ID": "202040104",
        "V84mzqoX": "\u30c0\u30f3\u30b8\u30e7\u30f34",
        "3v1qg7Uj": "100",
        "4RnIaUq5": "2020401",
        "P_DISPORDER": "4",
        "X4mIT5Lc": "2",
        "P_IMG": "",
        "1gDkL6XR": "",
        "P_SOUND_ID": "14",
        "P_POS": "242,580",
        "0I4MtuDa": "",
        "f73FMZua": "",
        "a91ecjh7": "2:1010305@4",
        "P_EFFECT_INFO": "",
        "9bpFf3Ut": "",
        "P_NEED_SWITCH_INFO": "12000152",
        "P_HIDE_SWITCH_INFO": "",
        "P_SCHEDULE_ID": "0",
        "P_EXT_IMG_PARAM": "",
        "P_CREATEDATE": "2018-02-07 13:11:52",
        "P_UPDATEDATE": "2018-02-07 13:11:52"
    },
    {
        "P_AREA_ID": "202040105",
        "V84mzqoX": "\u30c0\u30f3\u30b8\u30e7\u30f35",
        "3v1qg7Uj": "100",
        "4RnIaUq5": "2020401",
        "P_DISPORDER": "5",
        "X4mIT5Lc": "2",
        "P_IMG": "",
        "1gDkL6XR": "",
        "P_SOUND_ID": "14",
        "P_POS": "600,400",
        "0I4MtuDa": "",
        "f73FMZua": "",
        "a91ecjh7": "2:1010306@4",
        "P_EFFECT_INFO": "",
        "9bpFf3Ut": "",
        "P_NEED_SWITCH_INFO": "12000153",
        "P_HIDE_SWITCH_INFO": "",
        "P_SCHEDULE_ID": "0",
        "P_EXT_IMG_PARAM": "",
        "P_CREATEDATE": "2018-02-07 13:11:52",
        "P_UPDATEDATE": "2018-02-07 13:11:52"
    },
    {
        "P_AREA_ID": "202040106",
        "V84mzqoX": "\u30c0\u30f3\u30b8\u30e7\u30f36",
        "3v1qg7Uj": "100",
        "4RnIaUq5": "2020401",
        "P_DISPORDER": "6",
        "X4mIT5Lc": "2",
        "P_IMG": "",
        "1gDkL6XR": "",
        "P_SOUND_ID": "14",
        "P_POS": "570,230",
        "0I4MtuDa": "",
        "f73FMZua": "",
        "a91ecjh7": "1:1010307@3",
        "P_EFFECT_INFO": "",
        "9bpFf3Ut": "",
        "P_NEED_SWITCH_INFO": "12000154",
        "P_HIDE_SWITCH_INFO": "",
        "P_SCHEDULE_ID": "0",
        "P_EXT_IMG_PARAM": "",
        "P_CREATEDATE": "2018-02-07 13:11:52",
        "P_UPDATEDATE": "2018-02-07 13:11:52"
    },
    {
        "P_AREA_ID": "202040107",
        "V84mzqoX": "\u30c0\u30f3\u30b8\u30e7\u30f37",
        "3v1qg7Uj": "100",
        "4RnIaUq5": "2020401",
        "P_DISPORDER": "7",
        "X4mIT5Lc": "2",
        "P_IMG": "",
        "1gDkL6XR": "",
        "P_SOUND_ID": "14",
        "P_POS": "270,180",
        "0I4MtuDa": "",
        "f73FMZua": "",
        "a91ecjh7": "",
        "P_EFFECT_INFO": "",
        "9bpFf3Ut": "",
        "P_NEED_SWITCH_INFO": "12000155",
        "P_HIDE_SWITCH_INFO": "",
        "P_SCHEDULE_ID": "0",
        "P_EXT_IMG_PARAM": "",
        "P_CREATEDATE": "2018-02-07 13:11:52",
        "P_UPDATEDATE": "2018-02-07 13:11:52"
    },
    {
        "P_AREA_ID": "202050101",
        "V84mzqoX": "\u30df\u30d5\u30cd\u306e\u4f8d\u9053",
        "3v1qg7Uj": "100",
        "4RnIaUq5": "20201",
        "P_DISPORDER": "5",
        "X4mIT5Lc": "2",
        "P_IMG": "",
        "1gDkL6XR": "banner_story_quest_5.png,label_story_quest_5.png",
        "P_SOUND_ID": "14",
        "P_POS": "",
        "0I4MtuDa": "",
        "f73FMZua": "",
        "a91ecjh7": "",
        "P_EFFECT_INFO": "",
        "9bpFf3Ut": "1,10@6001812",
        "P_NEED_SWITCH_INFO": "0",
        "P_HIDE_SWITCH_INFO": "",
        "P_SCHEDULE_ID": "0",
        "P_EXT_IMG_PARAM": "\u7570\u754c\u306e\u4f8d\u30df\u30d5\u30cd\u306e\u5192\u967a",
        "P_CREATEDATE": "2018-02-07 13:11:52",
        "P_UPDATEDATE": "2018-02-07 13:11:52"
    }
]