[
    {
        "P_AREA_ID": "1",
        "V84mzqoX": "\u7570\u754c\u9078\u629e\u753b\u9762",
        "3v1qg7Uj": "1",
        "4RnIaUq5": "0",
        "P_DISPORDER": "1",
        "X4mIT5Lc": "1",
        "P_IMG": "",
        "1gDkL6XR": "",
        "P_SOUND_ID": "9",
        "P_POS": "",
        "0I4MtuDa": "",
        "f73FMZua": "",
        "a91ecjh7": "",
        "P_EFFECT_INFO": "",
        "9bpFf3Ut": "",
        "P_NEED_SWITCH_INFO": "0",
        "P_HIDE_SWITCH_INFO": "",
        "P_SCHEDULE_ID": "0",
        "P_EXT_IMG_PARAM": "",
        "P_CREATEDATE": "2018-05-25 02:48:54",
        "P_UPDATEDATE": "2018-05-25 02:48:54"
    },
    {
        "P_AREA_ID": "2",
        "V84mzqoX": "\u30b2\u30fc\u30c8\u306e\u72ed\u9593",
        "3v1qg7Uj": "50",
        "4RnIaUq5": "0",
        "P_DISPORDER": "1",
        "X4mIT5Lc": "1",
        "P_IMG": "",
        "1gDkL6XR": "",
        "P_SOUND_ID": "14",
        "P_POS": "",
        "0I4MtuDa": "",
        "f73FMZua": "",
        "a91ecjh7": "",
        "P_EFFECT_INFO": "",
        "9bpFf3Ut": "",
        "P_NEED_SWITCH_INFO": "0",
        "P_HIDE_SWITCH_INFO": "",
        "P_SCHEDULE_ID": "0",
        "P_EXT_IMG_PARAM": "",
        "P_CREATEDATE": "2018-05-25 02:48:54",
        "P_UPDATEDATE": "2018-05-25 02:48:54"
    },
    {
        "P_AREA_ID": "3",
        "V84mzqoX": "\u53ec\u559a\u8853\u7814\u7a76\u6240",
        "3v1qg7Uj": "5",
        "4RnIaUq5": "0",
        "P_DISPORDER": "1",
        "X4mIT5Lc": "1",
        "P_IMG": "",
        "1gDkL6XR": "",
        "P_SOUND_ID": "1087",
        "P_POS": "",
        "0I4MtuDa": "",
        "f73FMZua": "",
        "a91ecjh7": "",
        "P_EFFECT_INFO": "",
        "9bpFf3Ut": "",
        "P_NEED_SWITCH_INFO": "0",
        "P_HIDE_SWITCH_INFO": "",
        "P_SCHEDULE_ID": "0",
        "P_EXT_IMG_PARAM": "",
        "P_CREATEDATE": "2018-05-25 02:48:54",
        "P_UPDATEDATE": "2018-05-25 02:48:54"
    },
    {
        "P_AREA_ID": "98",
        "V84mzqoX": "\u30ea\u30f3BS\u7528\u975e\u8868\u793a\u30a8\u30ea\u30a2",
        "3v1qg7Uj": "100",
        "4RnIaUq5": "0",
        "P_DISPORDER": "1",
        "X4mIT5Lc": "99",
        "P_IMG": "",
        "1gDkL6XR": "",
        "P_SOUND_ID": "1",
        "P_POS": "",
        "0I4MtuDa": "",
        "f73FMZua": "",
        "a91ecjh7": "",
        "P_EFFECT_INFO": "",
        "9bpFf3Ut": "",
        "P_NEED_SWITCH_INFO": "0",
        "P_HIDE_SWITCH_INFO": "",
        "P_SCHEDULE_ID": "0",
        "P_EXT_IMG_PARAM": "",
        "P_CREATEDATE": "2018-05-25 02:48:54",
        "P_UPDATEDATE": "2018-05-25 02:48:54"
    },
    {
        "P_AREA_ID": "99",
        "V84mzqoX": "\u4e3b\u4eba\u516cBS\u7528\u975e\u8868\u793a\u30a8\u30ea\u30a2",
        "3v1qg7Uj": "100",
        "4RnIaUq5": "0",
        "P_DISPORDER": "1",
        "X4mIT5Lc": "99",
        "P_IMG": "",
        "1gDkL6XR": "",
        "P_SOUND_ID": "1",
        "P_POS": "",
        "0I4MtuDa": "",
        "f73FMZua": "",
        "a91ecjh7": "",
        "P_EFFECT_INFO": "",
        "9bpFf3Ut": "",
        "P_NEED_SWITCH_INFO": "0",
        "P_HIDE_SWITCH_INFO": "",
        "P_SCHEDULE_ID": "0",
        "P_EXT_IMG_PARAM": "",
        "P_CREATEDATE": "2018-05-25 02:48:54",
        "P_UPDATEDATE": "2018-05-25 02:48:54"
    },
    {
        "P_AREA_ID": "101",
        "V84mzqoX": "\u30b0\u30e9\u30f3\u30ac\u30a4\u30a2",
        "3v1qg7Uj": "2",
        "4RnIaUq5": "1",
        "P_DISPORDER": "1",
        "X4mIT5Lc": "1",
        "P_IMG": "world_01_l.jpg,world_01_r.jpg",
        "1gDkL6XR": "world_vision_01.png,world_label_01.png",
        "P_SOUND_ID": "10",
        "P_POS": "",
        "0I4MtuDa": "",
        "f73FMZua": "",
        "a91ecjh7": "",
        "P_EFFECT_INFO": "",
        "9bpFf3Ut": "",
        "P_NEED_SWITCH_INFO": "0",
        "P_HIDE_SWITCH_INFO": "",
        "P_SCHEDULE_ID": "0",
        "P_EXT_IMG_PARAM": "",
        "P_CREATEDATE": "2018-05-25 02:48:54",
        "P_UPDATEDATE": "2018-05-25 02:48:54"
    },
    {
        "P_AREA_ID": "102",
        "V84mzqoX": "\u30a8\u30eb\u30ac\u30a4\u30a2",
        "3v1qg7Uj": "2",
        "4RnIaUq5": "1",
        "P_DISPORDER": "2",
        "X4mIT5Lc": "1",
        "P_IMG": "world_01_l.jpg,world_01_r.jpg",
        "1gDkL6XR": "world_vision_02.png,world_label_04.png",
        "P_SOUND_ID": "10",
        "P_POS": "",
        "0I4MtuDa": "",
        "f73FMZua": "",
        "a91ecjh7": "",
        "P_EFFECT_INFO": "",
        "9bpFf3Ut": "",
        "P_NEED_SWITCH_INFO": "10000014",
        "P_HIDE_SWITCH_INFO": "",
        "P_SCHEDULE_ID": "0",
        "P_EXT_IMG_PARAM": "",
        "P_CREATEDATE": "2018-05-25 02:48:54",
        "P_UPDATEDATE": "2018-05-25 02:48:54"
    },
    {
        "P_AREA_ID": "103",
        "V84mzqoX": "\u30d0\u30c0\u30fb\u30d5\u30a1\u30ca",
        "3v1qg7Uj": "2",
        "4RnIaUq5": "1",
        "P_DISPORDER": "3",
        "X4mIT5Lc": "1",
        "P_IMG": "world_01_l.jpg,world_01_r.jpg",
        "1gDkL6XR": "world_vision_03.png,world_label_03.png",
        "P_SOUND_ID": "11",
        "P_POS": "",
        "0I4MtuDa": "",
        "f73FMZua": "",
        "a91ecjh7": "",
        "P_EFFECT_INFO": "",
        "9bpFf3Ut": "",
        "P_NEED_SWITCH_INFO": "10000027",
        "P_HIDE_SWITCH_INFO": "",
        "P_SCHEDULE_ID": "0",
        "P_EXT_IMG_PARAM": "",
        "P_CREATEDATE": "2018-05-25 02:48:54",
        "P_UPDATEDATE": "2018-05-25 02:48:54"
    },
    {
        "P_AREA_ID": "104",
        "V84mzqoX": "\u30a4\u30af\u30b9\u30bf\u30b9",
        "3v1qg7Uj": "2",
        "4RnIaUq5": "1",
        "P_DISPORDER": "4",
        "X4mIT5Lc": "1",
        "P_IMG": "world_02_l.jpg,world_02_r.jpg",
        "1gDkL6XR": "world_vision_04.png,world_label_02.png",
        "P_SOUND_ID": "12",
        "P_POS": "",
        "0I4MtuDa": "",
        "f73FMZua": "",
        "a91ecjh7": "",
        "P_EFFECT_INFO": "",
        "9bpFf3Ut": "",
        "P_NEED_SWITCH_INFO": "10000063",
        "P_HIDE_SWITCH_INFO": "",
        "P_SCHEDULE_ID": "0",
        "P_EXT_IMG_PARAM": "",
        "P_CREATEDATE": "2018-05-25 02:48:54",
        "P_UPDATEDATE": "2018-05-25 02:48:54"
    },
    {
        "P_AREA_ID": "105",
        "V84mzqoX": "\u30bb\u30eb\u30bf\u30d3\u30a2",
        "3v1qg7Uj": "2",
        "4RnIaUq5": "1",
        "P_DISPORDER": "5",
        "X4mIT5Lc": "1",
        "P_IMG": "world_03.jpg",
        "1gDkL6XR": "world_vision_05.png,world_label_05.png",
        "P_SOUND_ID": "1",
        "P_POS": "",
        "0I4MtuDa": "",
        "f73FMZua": "",
        "a91ecjh7": "",
        "P_EFFECT_INFO": "",
        "9bpFf3Ut": "",
        "P_NEED_SWITCH_INFO": "10000104,10000133",
        "P_HIDE_SWITCH_INFO": "",
        "P_SCHEDULE_ID": "0",
        "P_EXT_IMG_PARAM": "",
        "P_CREATEDATE": "2018-05-25 02:48:54",
        "P_UPDATEDATE": "2018-05-25 02:48:54"
    },
    {
        "P_AREA_ID": "201",
        "V84mzqoX": "\u30a4\u30d9\u30f3\u30c8",
        "3v1qg7Uj": "2",
        "4RnIaUq5": "2",
        "P_DISPORDER": "1",
        "X4mIT5Lc": "3",
        "P_IMG": "",
        "1gDkL6XR": "",
        "P_SOUND_ID": "14",
        "P_POS": "",
        "0I4MtuDa": "",
        "f73FMZua": "",
        "a91ecjh7": "",
        "P_EFFECT_INFO": "",
        "9bpFf3Ut": "",
        "P_NEED_SWITCH_INFO": "0",
        "P_HIDE_SWITCH_INFO": "",
        "P_SCHEDULE_ID": "0",
        "P_EXT_IMG_PARAM": "",
        "P_CREATEDATE": "2018-05-25 02:48:54",
        "P_UPDATEDATE": "2018-05-25 02:48:54"
    },
    {
        "P_AREA_ID": "202",
        "V84mzqoX": "\u80b2\u6210",
        "3v1qg7Uj": "2",
        "4RnIaUq5": "2",
        "P_DISPORDER": "2",
        "X4mIT5Lc": "5",
        "P_IMG": "",
        "1gDkL6XR": "",
        "P_SOUND_ID": "14",
        "P_POS": "",
        "0I4MtuDa": "",
        "f73FMZua": "",
        "a91ecjh7": "",
        "P_EFFECT_INFO": "",
        "9bpFf3Ut": "",
        "P_NEED_SWITCH_INFO": "0",
        "P_HIDE_SWITCH_INFO": "",
        "P_SCHEDULE_ID": "0",
        "P_EXT_IMG_PARAM": "",
        "P_CREATEDATE": "2018-05-25 02:48:54",
        "P_UPDATEDATE": "2018-05-25 02:48:54"
    },
    {
        "P_AREA_ID": "301",
        "V84mzqoX": "\u30d5\u30ed\u30f3\u30c6\u30a3\u30a2\u30cf\u30f3\u30bf\u30fc",
        "3v1qg7Uj": "100",
        "4RnIaUq5": "3",
        "P_DISPORDER": "1",
        "X4mIT5Lc": "6",
        "P_IMG": "",
        "1gDkL6XR": "lab_banner_frontier_hunter.png,lab_orb.png",
        "P_SOUND_ID": "1037",
        "P_POS": "",
        "0I4MtuDa": "",
        "f73FMZua": "",
        "a91ecjh7": "",
        "P_EFFECT_INFO": "",
        "9bpFf3Ut": "",
        "P_NEED_SWITCH_INFO": "0",
        "P_HIDE_SWITCH_INFO": "",
        "P_SCHEDULE_ID": "0",
        "P_EXT_IMG_PARAM": "",
        "P_CREATEDATE": "2018-05-25 02:48:54",
        "P_UPDATEDATE": "2018-05-25 02:48:54"
    },
    {
        "P_AREA_ID": "302",
        "V84mzqoX": "\u8a66\u7df4",
        "3v1qg7Uj": "100",
        "4RnIaUq5": "3",
        "P_DISPORDER": "2",
        "X4mIT5Lc": "7",
        "P_IMG": "",
        "1gDkL6XR": "lab_banner_trial.png",
        "P_SOUND_ID": "1101",
        "P_POS": "",
        "0I4MtuDa": "",
        "f73FMZua": "",
        "a91ecjh7": "",
        "P_EFFECT_INFO": "",
        "9bpFf3Ut": "",
        "P_NEED_SWITCH_INFO": "0",
        "P_HIDE_SWITCH_INFO": "",
        "P_SCHEDULE_ID": "0",
        "P_EXT_IMG_PARAM": "",
        "P_CREATEDATE": "2018-05-25 02:48:54",
        "P_UPDATEDATE": "2018-05-25 02:48:54"
    },
    {
        "P_AREA_ID": "10101",
        "V84mzqoX": "\u30df\u30b9\u30c8\u30e9\u30eb",
        "3v1qg7Uj": "3",
        "4RnIaUq5": "101",
        "P_DISPORDER": "1",
        "X4mIT5Lc": "1",
        "P_IMG": "area_001.jpg",
        "1gDkL6XR": "plate_world01_01.png",
        "P_SOUND_ID": "10",
        "P_POS": "453,750",
        "0I4MtuDa": "",
        "f73FMZua": "",
        "a91ecjh7": "",
        "P_EFFECT_INFO": "",
        "9bpFf3Ut": "",
        "P_NEED_SWITCH_INFO": "0",
        "P_HIDE_SWITCH_INFO": "",
        "P_SCHEDULE_ID": "0",
        "P_EXT_IMG_PARAM": "\u30eb\u30b7\u30a2\u30b9\u306e\u9580\u3092\u629c\u3051\u6700\u521d\u306b\u5e83\u304c\u3063\u3066\u3044\u308b\u5927\u5730\u3002\u305d\u3053\u3067\u306f\u56db\u5815\u795e\u306e\u4e00\u67f1\u3067\u3042\u308b\u5275\u9020\u795e\u30de\u30af\u30b9\u30a6\u30a7\u30eb\u304c\u5168\u3066\u3092\u652f\u914d\u3057\u3066\u3044\u308b\u3002",
        "P_CREATEDATE": "2018-05-25 02:48:54",
        "P_UPDATEDATE": "2018-05-25 02:48:54"
    },
    {
        "P_AREA_ID": "10102",
        "V84mzqoX": "\u30b5\u30fc\u30de\u738b\u56fd",
        "3v1qg7Uj": "3",
        "4RnIaUq5": "101",
        "P_DISPORDER": "2",
        "X4mIT5Lc": "1",
        "P_IMG": "area_004.jpg",
        "1gDkL6XR": "plate_world01_02.png",
        "P_SOUND_ID": "10",
        "P_POS": "600,900",
        "0I4MtuDa": "",
        "f73FMZua": "",
        "a91ecjh7": "",
        "P_EFFECT_INFO": "",
        "9bpFf3Ut": "",
        "P_NEED_SWITCH_INFO": "10000027",
        "P_HIDE_SWITCH_INFO": "",
        "P_SCHEDULE_ID": "0",
        "P_EXT_IMG_PARAM": "\u30a2\u30af\u30e9\u30b9\u53ec\u559a\u9662\u306b\u3088\u308a\u767a\u898b\u3055\u308c\u305f\u65b0\u305f\u306a\u5730\u57df\u3002\u305d\u306e\u305f\u3081\u672a\u8abf\u67fb\u306e\u5834\u6240\u304c\u591a\u304f\u3001\u5371\u967a\u306a\u9b54\u7269\u3082\u591a\u6570\u751f\u606f\u3057\u3066\u3044\u308b\u3068\u5642\u3055\u308c\u3066\u3044\u308b\u3002",
        "P_CREATEDATE": "2018-05-25 02:48:54",
        "P_UPDATEDATE": "2018-05-25 02:48:54"
    },
    {
        "P_AREA_ID": "10103",
        "V84mzqoX": "\u30d0\u30ea\u30a6\u30e9\u5e1d\u56fd",
        "3v1qg7Uj": "3",
        "4RnIaUq5": "101",
        "P_DISPORDER": "3",
        "X4mIT5Lc": "1",
        "P_IMG": "area_005.jpg",
        "1gDkL6XR": "plate_world01_03.png",
        "P_SOUND_ID": "10",
        "P_POS": "500,520",
        "0I4MtuDa": "",
        "f73FMZua": "",
        "a91ecjh7": "",
        "P_EFFECT_INFO": "",
        "9bpFf3Ut": "",
        "P_NEED_SWITCH_INFO": "10000084",
        "P_HIDE_SWITCH_INFO": "",
        "P_SCHEDULE_ID": "0",
        "P_EXT_IMG_PARAM": "\u30a2\u30af\u30e9\u30b9\u53ec\u559a\u9662\u306b\u3088\u308a\u767a\u898b\u3055\u308c\u305f\u65b0\u305f\u306a\u5730\u57df\u3002\u305d\u306e\u305f\u3081\u672a\u8abf\u67fb\u306e\u5834\u6240\u304c\u591a\u304f\u3001\u5371\u967a\u306a\u9b54\u7269\u3082\u591a\u6570\u751f\u606f\u3057\u3066\u3044\u308b\u3068\u5642\u3055\u308c\u3066\u3044\u308b\u3002",
        "P_CREATEDATE": "2018-05-25 02:48:54",
        "P_UPDATEDATE": "2018-05-25 02:48:54"
    },
    {
        "P_AREA_ID": "10201",
        "V84mzqoX": "\u30e9\u30f3\u30c9\u30fc\u30eb\u90ca\u5916",
        "3v1qg7Uj": "3",
        "4RnIaUq5": "102",
        "P_DISPORDER": "1",
        "X4mIT5Lc": "1",
        "P_IMG": "area_002.jpg",
        "1gDkL6XR": "plate_world01_01.png",
        "P_SOUND_ID": "10",
        "P_POS": "520,930",
        "0I4MtuDa": "",
        "f73FMZua": "",
        "a91ecjh7": "",
        "P_EFFECT_INFO": "",
        "9bpFf3Ut": "",
        "P_NEED_SWITCH_INFO": "10000014",
        "P_HIDE_SWITCH_INFO": "",
        "P_SCHEDULE_ID": "0",
        "P_EXT_IMG_PARAM": "\u30a2\u30af\u30e9\u30b9\u53ec\u559a\u9662\u306b\u3088\u308a\u767a\u898b\u3055\u308c\u305f\u65b0\u305f\u306a\u5730\u57df\u3002\u305d\u306e\u305f\u3081\u672a\u8abf\u67fb\u306e\u5834\u6240\u304c\u591a\u304f\u3001\u5371\u967a\u306a\u9b54\u7269\u3082\u591a\u6570\u751f\u606f\u3057\u3066\u3044\u308b\u3068\u5642\u3055\u308c\u3066\u3044\u308b\u3002",
        "P_CREATEDATE": "2018-05-25 02:48:54",
        "P_UPDATEDATE": "2018-05-25 02:48:54"
    },
    {
        "P_AREA_ID": "10301",
        "V84mzqoX": "\u30d0\u30c0\u30fb\u30d5\u30a1\u30ca\u30de\u30c3\u30d7",
        "3v1qg7Uj": "6",
        "4RnIaUq5": "103",
        "P_DISPORDER": "1",
        "X4mIT5Lc": "1",
        "P_IMG": "area_003_1.jpg",
        "1gDkL6XR": "plate_world01_01.png",
        "P_SOUND_ID": "11",
        "P_POS": "5,5",
        "0I4MtuDa": "5,5",
        "f73FMZua": "",
        "a91ecjh7": "",
        "P_EFFECT_INFO": "",
        "9bpFf3Ut": "",
        "P_NEED_SWITCH_INFO": "10000027",
        "P_HIDE_SWITCH_INFO": "",
        "P_SCHEDULE_ID": "0",
        "P_EXT_IMG_PARAM": "\u30a2\u30af\u30e9\u30b9\u53ec\u559a\u9662\u306b\u3088\u308a\u767a\u898b\u3055\u308c\u305f\u65b0\u305f\u306a\u5730\u57df\u3002\u305d\u306e\u305f\u3081\u672a\u8abf\u67fb\u306e\u5834\u6240\u304c\u591a\u304f\u3001\u5371\u967a\u306a\u9b54\u7269\u3082\u591a\u6570\u751f\u606f\u3057\u3066\u3044\u308b\u3068\u5642\u3055\u308c\u3066\u3044\u308b\u3002",
        "P_CREATEDATE": "2018-05-25 02:48:54",
        "P_UPDATEDATE": "2018-05-25 02:48:54"
    },
    {
        "P_AREA_ID": "10401",
        "V84mzqoX": "\u30a4\u30af\u30b9\u30bf\u30b9\u90ca\u5916",
        "3v1qg7Uj": "3",
        "4RnIaUq5": "104",
        "P_DISPORDER": "1",
        "X4mIT5Lc": "1",
        "P_IMG": "area_006.jpg",
        "1gDkL6XR": "plate_world04_01.png",
        "P_SOUND_ID": "12",
        "P_POS": "1140,630",
        "0I4MtuDa": "",
        "f73FMZua": "",
        "a91ecjh7": "",
        "P_EFFECT_INFO": "",
        "9bpFf3Ut": "",
        "P_NEED_SWITCH_INFO": "10000063",
        "P_HIDE_SWITCH_INFO": "",
        "P_SCHEDULE_ID": "0",
        "P_EXT_IMG_PARAM": "\u30a2\u30af\u30e9\u30b9\u53ec\u559a\u9662\u306b\u3088\u308a\u767a\u898b\u3055\u308c\u305f\u65b0\u305f\u306a\u5730\u57df\u3002\u305d\u306e\u305f\u3081\u672a\u8abf\u67fb\u306e\u5834\u6240\u304c\u591a\u304f\u3001\u5371\u967a\u306a\u9b54\u7269\u3082\u591a\u6570\u751f\u606f\u3057\u3066\u3044\u308b\u3068\u5642\u3055\u308c\u3066\u3044\u308b\u3002",
        "P_CREATEDATE": "2018-05-25 02:48:54",
        "P_UPDATEDATE": "2018-05-25 02:48:54"
    },
    {
        "P_AREA_ID": "10402",
        "V84mzqoX": "\u9996\u90fd\u30a4\u30af\u30b9\u30bf\u30b9",
        "3v1qg7Uj": "3",
        "4RnIaUq5": "104",
        "P_DISPORDER": "2",
        "X4mIT5Lc": "1",
        "P_IMG": "area_007.jpg",
        "1gDkL6XR": "plate_world04_02.png",
        "P_SOUND_ID": "12",
        "P_POS": "1150,475",
        "0I4MtuDa": "",
        "f73FMZua": "",
        "a91ecjh7": "",
        "P_EFFECT_INFO": "",
        "9bpFf3Ut": "",
        "P_NEED_SWITCH_INFO": "10000109",
        "P_HIDE_SWITCH_INFO": "",
        "P_SCHEDULE_ID": "0",
        "P_EXT_IMG_PARAM": "\u30a2\u30af\u30e9\u30b9\u53ec\u559a\u9662\u306b\u3088\u308a\u767a\u898b\u3055\u308c\u305f\u65b0\u305f\u306a\u5730\u57df\u3002\u305d\u306e\u305f\u3081\u672a\u8abf\u67fb\u306e\u5834\u6240\u304c\u591a\u304f\u3001\u5371\u967a\u306a\u9b54\u7269\u3082\u591a\u6570\u751f\u606f\u3057\u3066\u3044\u308b\u3068\u5642\u3055\u308c\u3066\u3044\u308b\u3002",
        "P_CREATEDATE": "2018-05-25 02:48:54",
        "P_UPDATEDATE": "2018-05-25 02:48:54"
    },
    {
        "P_AREA_ID": "10403",
        "V84mzqoX": "\u6280\u8853\u958b\u767a\u5e81",
        "3v1qg7Uj": "3",
        "4RnIaUq5": "104",
        "P_DISPORDER": "3",
        "X4mIT5Lc": "1",
        "P_IMG": "area_008.jpg",
        "1gDkL6XR": "plate_world04_03.png",
        "P_SOUND_ID": "12",
        "P_POS": "1150,475",
        "0I4MtuDa": "",
        "f73FMZua": "",
        "a91ecjh7": "",
        "P_EFFECT_INFO": "",
        "9bpFf3Ut": "",
        "P_NEED_SWITCH_INFO": "10000118",
        "P_HIDE_SWITCH_INFO": "",
        "P_SCHEDULE_ID": "0",
        "P_EXT_IMG_PARAM": "\u30a2\u30af\u30e9\u30b9\u53ec\u559a\u9662\u306b\u3088\u308a\u767a\u898b\u3055\u308c\u305f\u65b0\u305f\u306a\u5730\u57df\u3002\u305d\u306e\u305f\u3081\u672a\u8abf\u67fb\u306e\u5834\u6240\u304c\u591a\u304f\u3001\u5371\u967a\u306a\u9b54\u7269\u3082\u591a\u6570\u751f\u606f\u3057\u3066\u3044\u308b\u3068\u5642\u3055\u308c\u3066\u3044\u308b\u3002",
        "P_CREATEDATE": "2018-05-25 02:48:54",
        "P_UPDATEDATE": "2018-05-25 02:48:54"
    },
    {
        "P_AREA_ID": "10501",
        "V84mzqoX": "\u30e2\u30eb\u30c7\u30f3\u30ab\u30f3\u30d7",
        "3v1qg7Uj": "3",
        "4RnIaUq5": "105",
        "P_DISPORDER": "1",
        "X4mIT5Lc": "1",
        "P_IMG": "area_009.jpg",
        "1gDkL6XR": "plate_world05_01.png",
        "P_SOUND_ID": "1",
        "P_POS": "304,859",
        "0I4MtuDa": "",
        "f73FMZua": "",
        "a91ecjh7": "",
        "P_EFFECT_INFO": "",
        "9bpFf3Ut": "",
        "P_NEED_SWITCH_INFO": "10000104,10000133",
        "P_HIDE_SWITCH_INFO": "",
        "P_SCHEDULE_ID": "0",
        "P_EXT_IMG_PARAM": "\u30a2\u30af\u30e9\u30b9\u53ec\u559a\u9662\u306b\u3088\u308a\u767a\u898b\u3055\u308c\u305f\u65b0\u305f\u306a\u5730\u57df\u3002\u305d\u306e\u305f\u3081\u672a\u8abf\u67fb\u306e\u5834\u6240\u304c\u591a\u304f\u3001\u5371\u967a\u306a\u9b54\u7269\u3082\u591a\u6570\u751f\u606f\u3057\u3066\u3044\u308b\u3068\u5642\u3055\u308c\u3066\u3044\u308b\u3002",
        "P_CREATEDATE": "2018-05-25 02:48:54",
        "P_UPDATEDATE": "2018-05-25 02:48:54"
    },
    {
        "P_AREA_ID": "10502",
        "V84mzqoX": "\u30d5\u30a3\u30eb\u30a2\u30fc\u30e0",
        "3v1qg7Uj": "3",
        "4RnIaUq5": "105",
        "P_DISPORDER": "2",
        "X4mIT5Lc": "1",
        "P_IMG": "area_010.jpg",
        "1gDkL6XR": "plate_world05_02.png",
        "P_SOUND_ID": "1",
        "P_POS": "414,650",
        "0I4MtuDa": "",
        "f73FMZua": "",
        "a91ecjh7": "",
        "P_EFFECT_INFO": "",
        "9bpFf3Ut": "",
        "P_NEED_SWITCH_INFO": "10000152",
        "P_HIDE_SWITCH_INFO": "",
        "P_SCHEDULE_ID": "0",
        "P_EXT_IMG_PARAM": "\u30a2\u30af\u30e9\u30b9\u53ec\u559a\u9662\u306b\u3088\u308a\u767a\u898b\u3055\u308c\u305f\u65b0\u305f\u306a\u5730\u57df\u3002\u305d\u306e\u305f\u3081\u672a\u8abf\u67fb\u306e\u5834\u6240\u304c\u591a\u304f\u3001\u5371\u967a\u306a\u9b54\u7269\u3082\u591a\u6570\u751f\u606f\u3057\u3066\u3044\u308b\u3068\u5642\u3055\u308c\u3066\u3044\u308b\u3002",
        "P_CREATEDATE": "2018-05-25 02:48:54",
        "P_UPDATEDATE": "2018-05-25 02:48:54"
    },
    {
        "P_AREA_ID": "10503",
        "V84mzqoX": "\u30d5\u30a3\u30eb\u30a2\u30fc\u30e0\u57ce\u30de\u30c3\u30d7",
        "3v1qg7Uj": "6",
        "4RnIaUq5": "105",
        "P_DISPORDER": "3",
        "X4mIT5Lc": "1",
        "P_IMG": "area_011_1.jpg",
        "1gDkL6XR": "plate_world05_03.png",
        "P_SOUND_ID": "1",
        "P_POS": "421,523",
        "0I4MtuDa": "",
        "f73FMZua": "",
        "a91ecjh7": "",
        "P_EFFECT_INFO": "",
        "9bpFf3Ut": "",
        "P_NEED_SWITCH_INFO": "10000171",
        "P_HIDE_SWITCH_INFO": "",
        "P_SCHEDULE_ID": "0",
        "P_EXT_IMG_PARAM": "\u30a2\u30af\u30e9\u30b9\u53ec\u559a\u9662\u306b\u3088\u308a\u767a\u898b\u3055\u308c\u305f\u65b0\u305f\u306a\u5730\u57df\u3002\u305d\u306e\u305f\u3081\u672a\u8abf\u67fb\u306e\u5834\u6240\u304c\u591a\u304f\u3001\u5371\u967a\u306a\u9b54\u7269\u3082\u591a\u6570\u751f\u606f\u3057\u3066\u3044\u308b\u3068\u5642\u3055\u308c\u3066\u3044\u308b\u3002",
        "P_CREATEDATE": "2018-05-25 02:48:54",
        "P_UPDATEDATE": "2018-05-25 02:48:54"
    },
    {
        "P_AREA_ID": "20201",
        "V84mzqoX": "\u30b9\u30c8\u30fc\u30ea\u30fc\u30af\u30a8\u30b9\u30c8",
        "3v1qg7Uj": "2",
        "4RnIaUq5": "201",
        "P_DISPORDER": "3",
        "X4mIT5Lc": "2",
        "P_IMG": "",
        "1gDkL6XR": "banner_story_quest_top.png",
        "P_SOUND_ID": "14",
        "P_POS": "",
        "0I4MtuDa": "",
        "f73FMZua": "",
        "a91ecjh7": "",
        "P_EFFECT_INFO": "",
        "9bpFf3Ut": "",
        "P_NEED_SWITCH_INFO": "0",
        "P_HIDE_SWITCH_INFO": "",
        "P_SCHEDULE_ID": "0",
        "P_EXT_IMG_PARAM": "",
        "P_CREATEDATE": "2018-05-25 02:48:54",
        "P_UPDATEDATE": "2018-05-25 02:48:54"
    },
    {
        "P_AREA_ID": "21000",
        "V84mzqoX": "\u305f\u305f\u304b\u3044\u306e\u30d5\u30ed\u30f3\u30c6\u30a3\u30a2\u518d\u3073\uff01",
        "3v1qg7Uj": "100",
        "4RnIaUq5": "201",
        "P_DISPORDER": "1",
        "X4mIT5Lc": "2",
        "P_IMG": "",
        "1gDkL6XR": "banner_story_quest_kyoryu.png,label_story_quest_kyoryu.png",
        "P_SOUND_ID": "14",
        "P_POS": "",
        "0I4MtuDa": "",
        "f73FMZua": "",
        "a91ecjh7": "",
        "P_EFFECT_INFO": "",
        "9bpFf3Ut": "2,10@1001824:10@2001424:10@3001524:10@4001824:10@5001624:10@6001624",
        "P_NEED_SWITCH_INFO": "0",
        "P_HIDE_SWITCH_INFO": "",
        "P_SCHEDULE_ID": "50041",
        "P_EXT_IMG_PARAM": "\u30ad\u30e7\u30a6\u30ea\u30e5\u30a6\u30b8\u30e3\u30fc\u306b\u30d6\u30ec\u30a4\u30d6\u30b9\u30ad\u30fc\u304c\u5012\u3055\u308c\n\u4f5c\u6226\u3082\u5931\u6557\u3057\u305f\u30ad\u30e3\u30f3\u30c7\u30ea\u30e9\u3068\u30e9\u30c3\u30ad\u30e5\u30fc\u30ed\u3002\n\u3060\u304c\uff12\u4eba\u306f\u3001\u3081\u3052\u308b\u3053\u3068\u306a\u304f\u518d\u3073\u559c\u3073\u306e\u611f\u60c5\u3092\n\u96c6\u3081\u308b\u4f5c\u6226\u3092\u958b\u59cb\u3059\u308b\uff01",
        "P_CREATEDATE": "2018-05-25 02:48:54",
        "P_UPDATEDATE": "2018-05-25 02:48:54"
    },
    {
        "P_AREA_ID": "103011",
        "V84mzqoX": "\u8b0e\u306e\u30a2\u30b8\u30c8",
        "3v1qg7Uj": "3",
        "4RnIaUq5": "10301",
        "P_DISPORDER": "1",
        "X4mIT5Lc": "1",
        "P_IMG": "area_003_1.jpg",
        "1gDkL6XR": "",
        "P_SOUND_ID": "11",
        "P_POS": "5,5",
        "0I4MtuDa": "5,5",
        "f73FMZua": "",
        "a91ecjh7": "",
        "P_EFFECT_INFO": "",
        "9bpFf3Ut": "",
        "P_NEED_SWITCH_INFO": "10000027",
        "P_HIDE_SWITCH_INFO": "",
        "P_SCHEDULE_ID": "0",
        "P_EXT_IMG_PARAM": "\u30a2\u30af\u30e9\u30b9\u53ec\u559a\u9662\u306b\u3088\u308a\u767a\u898b\u3055\u308c\u305f\u65b0\u305f\u306a\u5730\u57df\u3002\u305d\u306e\u305f\u3081\u672a\u8abf\u67fb\u306e\u5834\u6240\u304c\u591a\u304f\u3001\u5371\u967a\u306a\u9b54\u7269\u3082\u591a\u6570\u751f\u606f\u3057\u3066\u3044\u308b\u3068\u5642\u3055\u308c\u3066\u3044\u308b\u3002",
        "P_CREATEDATE": "2018-05-25 02:48:54",
        "P_UPDATEDATE": "2018-05-25 02:48:54"
    },
    {
        "P_AREA_ID": "103012",
        "V84mzqoX": "\u8b0e\u306e\u30a2\u30b8\u30c8",
        "3v1qg7Uj": "3",
        "4RnIaUq5": "10301",
        "P_DISPORDER": "2",
        "X4mIT5Lc": "1",
        "P_IMG": "area_003_2.jpg",
        "1gDkL6XR": "",
        "P_SOUND_ID": "11",
        "P_POS": "5,6",
        "0I4MtuDa": "5,6",
        "f73FMZua": "",
        "a91ecjh7": "",
        "P_EFFECT_INFO": "",
        "9bpFf3Ut": "",
        "P_NEED_SWITCH_INFO": "10000048",
        "P_HIDE_SWITCH_INFO": "",
        "P_SCHEDULE_ID": "0",
        "P_EXT_IMG_PARAM": "\u30a2\u30af\u30e9\u30b9\u53ec\u559a\u9662\u306b\u3088\u308a\u767a\u898b\u3055\u308c\u305f\u65b0\u305f\u306a\u5730\u57df\u3002\u305d\u306e\u305f\u3081\u672a\u8abf\u67fb\u306e\u5834\u6240\u304c\u591a\u304f\u3001\u5371\u967a\u306a\u9b54\u7269\u3082\u591a\u6570\u751f\u606f\u3057\u3066\u3044\u308b\u3068\u5642\u3055\u308c\u3066\u3044\u308b\u3002",
        "P_CREATEDATE": "2018-05-25 02:48:54",
        "P_UPDATEDATE": "2018-05-25 02:48:54"
    },
    {
        "P_AREA_ID": "105031",
        "V84mzqoX": "\u30d5\u30a3\u30eb\u30a2\u30fc\u30e0\u57ce\u58c1\u5185",
        "3v1qg7Uj": "3",
        "4RnIaUq5": "10503",
        "P_DISPORDER": "1",
        "X4mIT5Lc": "1",
        "P_IMG": "area_011_1.jpg",
        "1gDkL6XR": "",
        "P_SOUND_ID": "1",
        "P_POS": "5,5",
        "0I4MtuDa": "5,5",
        "f73FMZua": "",
        "a91ecjh7": "",
        "P_EFFECT_INFO": "",
        "9bpFf3Ut": "",
        "P_NEED_SWITCH_INFO": "10000171",
        "P_HIDE_SWITCH_INFO": "",
        "P_SCHEDULE_ID": "0",
        "P_EXT_IMG_PARAM": "\u30a2\u30af\u30e9\u30b9\u53ec\u559a\u9662\u306b\u3088\u308a\u767a\u898b\u3055\u308c\u305f\u65b0\u305f\u306a\u5730\u57df\u3002\u305d\u306e\u305f\u3081\u672a\u8abf\u67fb\u306e\u5834\u6240\u304c\u591a\u304f\u3001\u5371\u967a\u306a\u9b54\u7269\u3082\u591a\u6570\u751f\u606f\u3057\u3066\u3044\u308b\u3068\u5642\u3055\u308c\u3066\u3044\u308b\u3002",
        "P_CREATEDATE": "2018-05-25 02:48:54",
        "P_UPDATEDATE": "2018-05-25 02:48:54"
    },
    {
        "P_AREA_ID": "105032",
        "V84mzqoX": "\u30d5\u30a3\u30eb\u30a2\u30fc\u30e0\u57ce\u58c1\u5185",
        "3v1qg7Uj": "3",
        "4RnIaUq5": "10503",
        "P_DISPORDER": "2",
        "X4mIT5Lc": "1",
        "P_IMG": "area_011_2.jpg",
        "1gDkL6XR": "",
        "P_SOUND_ID": "1",
        "P_POS": "6,5",
        "0I4MtuDa": "6,5",
        "f73FMZua": "",
        "a91ecjh7": "",
        "P_EFFECT_INFO": "",
        "9bpFf3Ut": "",
        "P_NEED_SWITCH_INFO": "10000179",
        "P_HIDE_SWITCH_INFO": "",
        "P_SCHEDULE_ID": "0",
        "P_EXT_IMG_PARAM": "\u30a2\u30af\u30e9\u30b9\u53ec\u559a\u9662\u306b\u3088\u308a\u767a\u898b\u3055\u308c\u305f\u65b0\u305f\u306a\u5730\u57df\u3002\u305d\u306e\u305f\u3081\u672a\u8abf\u67fb\u306e\u5834\u6240\u304c\u591a\u304f\u3001\u5371\u967a\u306a\u9b54\u7269\u3082\u591a\u6570\u751f\u606f\u3057\u3066\u3044\u308b\u3068\u5642\u3055\u308c\u3066\u3044\u308b\u3002",
        "P_CREATEDATE": "2018-05-25 02:48:54",
        "P_UPDATEDATE": "2018-05-25 02:48:54"
    },
    {
        "P_AREA_ID": "1010100",
        "V84mzqoX": "\u30c1\u30e5\u30fc\u30c8\u30ea\u30a2\u30eb",
        "3v1qg7Uj": "100",
        "4RnIaUq5": "10101",
        "P_DISPORDER": "0",
        "X4mIT5Lc": "99",
        "P_IMG": "",
        "1gDkL6XR": "",
        "P_SOUND_ID": "10",
        "P_POS": "632,200",
        "0I4MtuDa": "",
        "f73FMZua": "",
        "a91ecjh7": "",
        "P_EFFECT_INFO": "",
        "9bpFf3Ut": "",
        "P_NEED_SWITCH_INFO": "0",
        "P_HIDE_SWITCH_INFO": "",
        "P_SCHEDULE_ID": "0",
        "P_EXT_IMG_PARAM": "",
        "P_CREATEDATE": "2018-05-25 02:48:54",
        "P_UPDATEDATE": "2018-05-25 02:48:54"
    },
    {
        "P_AREA_ID": "1010101",
        "V84mzqoX": "\u5192\u967a\u8005\u306e\u8349\u539f",
        "3v1qg7Uj": "100",
        "4RnIaUq5": "10101",
        "P_DISPORDER": "1",
        "X4mIT5Lc": "1",
        "P_IMG": "",
        "1gDkL6XR": "",
        "P_SOUND_ID": "10",
        "P_POS": "592,960",
        "0I4MtuDa": "",
        "f73FMZua": "",
        "a91ecjh7": "1:1010102@3",
        "P_EFFECT_INFO": "",
        "9bpFf3Ut": "",
        "P_NEED_SWITCH_INFO": "0",
        "P_HIDE_SWITCH_INFO": "",
        "P_SCHEDULE_ID": "0",
        "P_EXT_IMG_PARAM": "",
        "P_CREATEDATE": "2018-05-25 02:48:54",
        "P_UPDATEDATE": "2018-05-25 02:48:54"
    },
    {
        "P_AREA_ID": "1010102",
        "V84mzqoX": "\u708e\u98a8\u306e\u6d1e\u7a9f",
        "3v1qg7Uj": "100",
        "4RnIaUq5": "10101",
        "P_DISPORDER": "2",
        "X4mIT5Lc": "1",
        "P_IMG": "",
        "1gDkL6XR": "",
        "P_SOUND_ID": "10",
        "P_POS": "232,920",
        "0I4MtuDa": "",
        "f73FMZua": "",
        "a91ecjh7": "2:1010104@4",
        "P_EFFECT_INFO": "",
        "9bpFf3Ut": "",
        "P_NEED_SWITCH_INFO": "10000002",
        "P_HIDE_SWITCH_INFO": "",
        "P_SCHEDULE_ID": "0",
        "P_EXT_IMG_PARAM": "",
        "P_CREATEDATE": "2018-05-25 02:48:54",
        "P_UPDATEDATE": "2018-05-25 02:48:54"
    },
    {
        "P_AREA_ID": "1010103",
        "V84mzqoX": "\u30a8\u30b4\u30eb\u96ea\u539f",
        "3v1qg7Uj": "100",
        "4RnIaUq5": "10101",
        "P_DISPORDER": "3",
        "X4mIT5Lc": "8",
        "P_IMG": "",
        "1gDkL6XR": "",
        "P_SOUND_ID": "10",
        "P_POS": "550,730",
        "0I4MtuDa": "",
        "f73FMZua": "",
        "a91ecjh7": "",
        "P_EFFECT_INFO": "",
        "9bpFf3Ut": "",
        "P_NEED_SWITCH_INFO": "10000005",
        "P_HIDE_SWITCH_INFO": "",
        "P_SCHEDULE_ID": "0",
        "P_EXT_IMG_PARAM": "",
        "P_CREATEDATE": "2018-05-25 02:48:54",
        "P_UPDATEDATE": "2018-05-25 02:48:54"
    },
    {
        "P_AREA_ID": "1010104",
        "V84mzqoX": "\u72c2\u7363\u306e\u68ee",
        "3v1qg7Uj": "100",
        "4RnIaUq5": "10101",
        "P_DISPORDER": "4",
        "X4mIT5Lc": "1",
        "P_IMG": "",
        "1gDkL6XR": "",
        "P_SOUND_ID": "10",
        "P_POS": "242,580",
        "0I4MtuDa": "",
        "f73FMZua": "",
        "a91ecjh7": "2:1010105@4",
        "P_EFFECT_INFO": "",
        "9bpFf3Ut": "",
        "P_NEED_SWITCH_INFO": "10000005",
        "P_HIDE_SWITCH_INFO": "",
        "P_SCHEDULE_ID": "0",
        "P_EXT_IMG_PARAM": "",
        "P_CREATEDATE": "2018-05-25 02:48:54",
        "P_UPDATEDATE": "2018-05-25 02:48:54"
    },
    {
        "P_AREA_ID": "1010105",
        "V84mzqoX": "\u9b54\u7269\u306e\u4f4f\u51e6",
        "3v1qg7Uj": "100",
        "4RnIaUq5": "10101",
        "P_DISPORDER": "5",
        "X4mIT5Lc": "1",
        "P_IMG": "",
        "1gDkL6XR": "",
        "P_SOUND_ID": "10",
        "P_POS": "262,380",
        "0I4MtuDa": "",
        "f73FMZua": "",
        "a91ecjh7": "",
        "P_EFFECT_INFO": "",
        "9bpFf3Ut": "",
        "P_NEED_SWITCH_INFO": "10000011",
        "P_HIDE_SWITCH_INFO": "",
        "P_SCHEDULE_ID": "0",
        "P_EXT_IMG_PARAM": "",
        "P_CREATEDATE": "2018-05-25 02:48:54",
        "P_UPDATEDATE": "2018-05-25 02:48:54"
    },
    {
        "P_AREA_ID": "1010201",
        "V84mzqoX": "\u70c8\u96ea\u306e\u8c37",
        "3v1qg7Uj": "100",
        "4RnIaUq5": "10102",
        "P_DISPORDER": "1",
        "X4mIT5Lc": "1",
        "P_IMG": "",
        "1gDkL6XR": "",
        "P_SOUND_ID": "10",
        "P_POS": "592,1050",
        "0I4MtuDa": "",
        "f73FMZua": "",
        "a91ecjh7": "2:1010202@4",
        "P_EFFECT_INFO": "",
        "9bpFf3Ut": "",
        "P_NEED_SWITCH_INFO": "10000027",
        "P_HIDE_SWITCH_INFO": "",
        "P_SCHEDULE_ID": "0",
        "P_EXT_IMG_PARAM": "",
        "P_CREATEDATE": "2018-05-25 02:48:54",
        "P_UPDATEDATE": "2018-05-25 02:48:54"
    },
    {
        "P_AREA_ID": "1010202",
        "V84mzqoX": "\u7815\u6c37\u7a9f",
        "3v1qg7Uj": "100",
        "4RnIaUq5": "10102",
        "P_DISPORDER": "2",
        "X4mIT5Lc": "1",
        "P_IMG": "",
        "1gDkL6XR": "",
        "P_SOUND_ID": "10",
        "P_POS": "530,900",
        "0I4MtuDa": "",
        "f73FMZua": "",
        "a91ecjh7": "2:1010203@4",
        "P_EFFECT_INFO": "",
        "9bpFf3Ut": "",
        "P_NEED_SWITCH_INFO": "10000066",
        "P_HIDE_SWITCH_INFO": "",
        "P_SCHEDULE_ID": "0",
        "P_EXT_IMG_PARAM": "",
        "P_CREATEDATE": "2018-05-25 02:48:54",
        "P_UPDATEDATE": "2018-05-25 02:48:54"
    },
    {
        "P_AREA_ID": "1010203",
        "V84mzqoX": "\u9727\u96ea\u306e\u68ee",
        "3v1qg7Uj": "100",
        "4RnIaUq5": "10102",
        "P_DISPORDER": "3",
        "X4mIT5Lc": "1",
        "P_IMG": "",
        "1gDkL6XR": "",
        "P_SOUND_ID": "10",
        "P_POS": "570,690",
        "0I4MtuDa": "",
        "f73FMZua": "",
        "a91ecjh7": "2:1010205@4",
        "P_EFFECT_INFO": "",
        "9bpFf3Ut": "",
        "P_NEED_SWITCH_INFO": "10000069",
        "P_HIDE_SWITCH_INFO": "",
        "P_SCHEDULE_ID": "0",
        "P_EXT_IMG_PARAM": "",
        "P_CREATEDATE": "2018-05-25 02:48:54",
        "P_UPDATEDATE": "2018-05-25 02:48:54"
    },
    {
        "P_AREA_ID": "1010204",
        "V84mzqoX": "\u30a8\u30eb\u30bb\u30a6\u30b9\u907a\u8de1",
        "3v1qg7Uj": "100",
        "4RnIaUq5": "10102",
        "P_DISPORDER": "4",
        "X4mIT5Lc": "1",
        "P_IMG": "",
        "1gDkL6XR": "",
        "P_SOUND_ID": "10",
        "P_POS": "260,980",
        "0I4MtuDa": "",
        "f73FMZua": "",
        "a91ecjh7": "",
        "P_EFFECT_INFO": "",
        "9bpFf3Ut": "",
        "P_NEED_SWITCH_INFO": "10000072",
        "P_HIDE_SWITCH_INFO": "",
        "P_SCHEDULE_ID": "0",
        "P_EXT_IMG_PARAM": "",
        "P_CREATEDATE": "2018-05-25 02:48:54",
        "P_UPDATEDATE": "2018-05-25 02:48:54"
    },
    {
        "P_AREA_ID": "1010205",
        "V84mzqoX": "\u30df\u30e5\u30fc\u30eb\u96ea\u539f",
        "3v1qg7Uj": "100",
        "4RnIaUq5": "10102",
        "P_DISPORDER": "5",
        "X4mIT5Lc": "1",
        "P_IMG": "",
        "1gDkL6XR": "",
        "P_SOUND_ID": "10",
        "P_POS": "430,550",
        "0I4MtuDa": "",
        "f73FMZua": "",
        "a91ecjh7": "2:1010206@4",
        "P_EFFECT_INFO": "",
        "9bpFf3Ut": "",
        "P_NEED_SWITCH_INFO": "10000074",
        "P_HIDE_SWITCH_INFO": "",
        "P_SCHEDULE_ID": "0",
        "P_EXT_IMG_PARAM": "",
        "P_CREATEDATE": "2018-05-25 02:48:54",
        "P_UPDATEDATE": "2018-05-25 02:48:54"
    },
    {
        "P_AREA_ID": "1010206",
        "V84mzqoX": "\u30b5\u30fc\u30de\u8ecd\u6e2f",
        "3v1qg7Uj": "100",
        "4RnIaUq5": "10102",
        "P_DISPORDER": "6",
        "X4mIT5Lc": "1",
        "P_IMG": "",
        "1gDkL6XR": "",
        "P_SOUND_ID": "10",
        "P_POS": "262,400",
        "0I4MtuDa": "",
        "f73FMZua": "",
        "a91ecjh7": "2:1010207@4",
        "P_EFFECT_INFO": "",
        "9bpFf3Ut": "",
        "P_NEED_SWITCH_INFO": "10000077",
        "P_HIDE_SWITCH_INFO": "",
        "P_SCHEDULE_ID": "0",
        "P_EXT_IMG_PARAM": "",
        "P_CREATEDATE": "2018-05-25 02:48:54",
        "P_UPDATEDATE": "2018-05-25 02:48:54"
    },
    {
        "P_AREA_ID": "1010207",
        "V84mzqoX": "\u30b5\u30fc\u30de\u57ce",
        "3v1qg7Uj": "100",
        "4RnIaUq5": "10102",
        "P_DISPORDER": "7",
        "X4mIT5Lc": "1",
        "P_IMG": "",
        "1gDkL6XR": "",
        "P_SOUND_ID": "10",
        "P_POS": "530,200",
        "0I4MtuDa": "",
        "f73FMZua": "",
        "a91ecjh7": "",
        "P_EFFECT_INFO": "",
        "9bpFf3Ut": "",
        "P_NEED_SWITCH_INFO": "10000080",
        "P_HIDE_SWITCH_INFO": "",
        "P_SCHEDULE_ID": "0",
        "P_EXT_IMG_PARAM": "",
        "P_CREATEDATE": "2018-05-25 02:48:54",
        "P_UPDATEDATE": "2018-05-25 02:48:54"
    },
    {
        "P_AREA_ID": "1010208",
        "V84mzqoX": "\u30a2\u30c9\u30ec\u8056\u5802",
        "3v1qg7Uj": "100",
        "4RnIaUq5": "10102",
        "P_DISPORDER": "8",
        "X4mIT5Lc": "8",
        "P_IMG": "",
        "1gDkL6XR": "",
        "P_SOUND_ID": "10",
        "P_POS": "260,790",
        "0I4MtuDa": "",
        "f73FMZua": "",
        "a91ecjh7": "",
        "P_EFFECT_INFO": "",
        "9bpFf3Ut": "",
        "P_NEED_SWITCH_INFO": "10000084",
        "P_HIDE_SWITCH_INFO": "",
        "P_SCHEDULE_ID": "0",
        "P_EXT_IMG_PARAM": "",
        "P_CREATEDATE": "2018-05-25 02:48:54",
        "P_UPDATEDATE": "2018-05-25 02:48:54"
    },
    {
        "P_AREA_ID": "1010301",
        "V84mzqoX": "\u6697\u8ff7\u306e\u68ee",
        "3v1qg7Uj": "100",
        "4RnIaUq5": "10103",
        "P_DISPORDER": "1",
        "X4mIT5Lc": "1",
        "P_IMG": "",
        "1gDkL6XR": "",
        "P_SOUND_ID": "10",
        "P_POS": "300,820",
        "0I4MtuDa": "",
        "f73FMZua": "",
        "a91ecjh7": "4:1010302@1",
        "P_EFFECT_INFO": "",
        "9bpFf3Ut": "",
        "P_NEED_SWITCH_INFO": "10000084",
        "P_HIDE_SWITCH_INFO": "",
        "P_SCHEDULE_ID": "0",
        "P_EXT_IMG_PARAM": "",
        "P_CREATEDATE": "2018-05-25 02:48:54",
        "P_UPDATEDATE": "2018-05-25 02:48:54"
    },
    {
        "P_AREA_ID": "1010302",
        "V84mzqoX": "\u7121\u660e\u967a\u8def",
        "3v1qg7Uj": "100",
        "4RnIaUq5": "10103",
        "P_DISPORDER": "2",
        "X4mIT5Lc": "1",
        "P_IMG": "",
        "1gDkL6XR": "",
        "P_SOUND_ID": "10",
        "P_POS": "570,1030",
        "0I4MtuDa": "",
        "f73FMZua": "",
        "a91ecjh7": "2:1010303@4",
        "P_EFFECT_INFO": "",
        "9bpFf3Ut": "",
        "P_NEED_SWITCH_INFO": "10000087",
        "P_HIDE_SWITCH_INFO": "",
        "P_SCHEDULE_ID": "0",
        "P_EXT_IMG_PARAM": "",
        "P_CREATEDATE": "2018-05-25 02:48:54",
        "P_UPDATEDATE": "2018-05-25 02:48:54"
    },
    {
        "P_AREA_ID": "1010303",
        "V84mzqoX": "\u30ac\u30a6\u30bc\u8b10\u5ca9\u6d77\u5cb8",
        "3v1qg7Uj": "100",
        "4RnIaUq5": "10103",
        "P_DISPORDER": "3",
        "X4mIT5Lc": "1",
        "P_IMG": "",
        "1gDkL6XR": "",
        "P_SOUND_ID": "10",
        "P_POS": "580,650",
        "0I4MtuDa": "",
        "f73FMZua": "",
        "a91ecjh7": "1:1010304@3",
        "P_EFFECT_INFO": "",
        "9bpFf3Ut": "",
        "P_NEED_SWITCH_INFO": "10000089",
        "P_HIDE_SWITCH_INFO": "",
        "P_SCHEDULE_ID": "0",
        "P_EXT_IMG_PARAM": "",
        "P_CREATEDATE": "2018-05-25 02:48:54",
        "P_UPDATEDATE": "2018-05-25 02:48:54"
    },
    {
        "P_AREA_ID": "1010304",
        "V84mzqoX": "\u798d\u7d2b\u6d77\u9053",
        "3v1qg7Uj": "100",
        "4RnIaUq5": "10103",
        "P_DISPORDER": "4",
        "X4mIT5Lc": "1",
        "P_IMG": "",
        "1gDkL6XR": "",
        "P_SOUND_ID": "10",
        "P_POS": "242,580",
        "0I4MtuDa": "",
        "f73FMZua": "",
        "a91ecjh7": "2:1010305@4",
        "P_EFFECT_INFO": "",
        "9bpFf3Ut": "",
        "P_NEED_SWITCH_INFO": "10000092",
        "P_HIDE_SWITCH_INFO": "",
        "P_SCHEDULE_ID": "0",
        "P_EXT_IMG_PARAM": "",
        "P_CREATEDATE": "2018-05-25 02:48:54",
        "P_UPDATEDATE": "2018-05-25 02:48:54"
    },
    {
        "P_AREA_ID": "1010305",
        "V84mzqoX": "\u9b54\u52ab\u51a5\u5802\u3000\u6d77\u9580",
        "3v1qg7Uj": "100",
        "4RnIaUq5": "10103",
        "P_DISPORDER": "5",
        "X4mIT5Lc": "1",
        "P_IMG": "",
        "1gDkL6XR": "",
        "P_SOUND_ID": "10",
        "P_POS": "600,400",
        "0I4MtuDa": "",
        "f73FMZua": "",
        "a91ecjh7": "2:1010306@4",
        "P_EFFECT_INFO": "",
        "9bpFf3Ut": "",
        "P_NEED_SWITCH_INFO": "10000095",
        "P_HIDE_SWITCH_INFO": "",
        "P_SCHEDULE_ID": "0",
        "P_EXT_IMG_PARAM": "",
        "P_CREATEDATE": "2018-05-25 02:48:54",
        "P_UPDATEDATE": "2018-05-25 02:48:54"
    },
    {
        "P_AREA_ID": "1010306",
        "V84mzqoX": "\u9b54\u52ab\u51a5\u5802\u3000\u9022\u6b7b\u30ce\u9593",
        "3v1qg7Uj": "100",
        "4RnIaUq5": "10103",
        "P_DISPORDER": "6",
        "X4mIT5Lc": "1",
        "P_IMG": "",
        "1gDkL6XR": "",
        "P_SOUND_ID": "10",
        "P_POS": "570,230",
        "0I4MtuDa": "",
        "f73FMZua": "",
        "a91ecjh7": "1:1010307@4",
        "P_EFFECT_INFO": "",
        "9bpFf3Ut": "",
        "P_NEED_SWITCH_INFO": "10000098",
        "P_HIDE_SWITCH_INFO": "",
        "P_SCHEDULE_ID": "0",
        "P_EXT_IMG_PARAM": "",
        "P_CREATEDATE": "2018-05-25 02:48:54",
        "P_UPDATEDATE": "2018-05-25 02:48:54"
    },
    {
        "P_AREA_ID": "1010307",
        "V84mzqoX": "\u9b54\u52ab\u51a5\u5802\u3000\u8fce\u751f\u30ce\u9593",
        "3v1qg7Uj": "100",
        "4RnIaUq5": "10103",
        "P_DISPORDER": "7",
        "X4mIT5Lc": "1",
        "P_IMG": "",
        "1gDkL6XR": "",
        "P_SOUND_ID": "10",
        "P_POS": "270,180",
        "0I4MtuDa": "",
        "f73FMZua": "",
        "a91ecjh7": "",
        "P_EFFECT_INFO": "",
        "9bpFf3Ut": "",
        "P_NEED_SWITCH_INFO": "10000101",
        "P_HIDE_SWITCH_INFO": "",
        "P_SCHEDULE_ID": "0",
        "P_EXT_IMG_PARAM": "",
        "P_CREATEDATE": "2018-05-25 02:48:54",
        "P_UPDATEDATE": "2018-05-25 02:48:54"
    },
    {
        "P_AREA_ID": "1010308",
        "V84mzqoX": "\u6d41\u5fcc\u306e\u6edd",
        "3v1qg7Uj": "100",
        "4RnIaUq5": "10103",
        "P_DISPORDER": "8",
        "X4mIT5Lc": "8",
        "P_IMG": "",
        "1gDkL6XR": "",
        "P_SOUND_ID": "10",
        "P_POS": "250,1060",
        "0I4MtuDa": "",
        "f73FMZua": "",
        "a91ecjh7": "",
        "P_EFFECT_INFO": "",
        "9bpFf3Ut": "",
        "P_NEED_SWITCH_INFO": "10000104",
        "P_HIDE_SWITCH_INFO": "",
        "P_SCHEDULE_ID": "0",
        "P_EXT_IMG_PARAM": "",
        "P_CREATEDATE": "2018-05-25 02:48:54",
        "P_UPDATEDATE": "2018-05-25 02:48:54"
    },
    {
        "P_AREA_ID": "1020101",
        "V84mzqoX": "\u30eb\u30b7\u30a2\u30b9\u306e\u9580",
        "3v1qg7Uj": "100",
        "4RnIaUq5": "10201",
        "P_DISPORDER": "1",
        "X4mIT5Lc": "1",
        "P_IMG": "",
        "1gDkL6XR": "",
        "P_SOUND_ID": "10",
        "P_POS": "385,200",
        "0I4MtuDa": "",
        "f73FMZua": "",
        "a91ecjh7": "4:1020102@2",
        "P_EFFECT_INFO": "",
        "9bpFf3Ut": "",
        "P_NEED_SWITCH_INFO": "10000014",
        "P_HIDE_SWITCH_INFO": "",
        "P_SCHEDULE_ID": "0",
        "P_EXT_IMG_PARAM": "",
        "P_CREATEDATE": "2018-05-25 02:48:54",
        "P_UPDATEDATE": "2018-05-25 02:48:54"
    },
    {
        "P_AREA_ID": "1020102",
        "V84mzqoX": "\u30b6\u30eb\u30c4\u6751",
        "3v1qg7Uj": "100",
        "4RnIaUq5": "10201",
        "P_DISPORDER": "2",
        "X4mIT5Lc": "1",
        "P_IMG": "",
        "1gDkL6XR": "",
        "P_SOUND_ID": "10",
        "P_POS": "315,560",
        "0I4MtuDa": "",
        "f73FMZua": "",
        "a91ecjh7": "4:1020103@2",
        "P_EFFECT_INFO": "",
        "9bpFf3Ut": "",
        "P_NEED_SWITCH_INFO": "10000017",
        "P_HIDE_SWITCH_INFO": "",
        "P_SCHEDULE_ID": "0",
        "P_EXT_IMG_PARAM": "",
        "P_CREATEDATE": "2018-05-25 02:48:54",
        "P_UPDATEDATE": "2018-05-25 02:48:54"
    },
    {
        "P_AREA_ID": "1020103",
        "V84mzqoX": "\u30e9\u30f3\u30c9\u30fc\u30eb\u5927\u6a4b",
        "3v1qg7Uj": "100",
        "4RnIaUq5": "10201",
        "P_DISPORDER": "3",
        "X4mIT5Lc": "1",
        "P_IMG": "",
        "1gDkL6XR": "",
        "P_SOUND_ID": "10",
        "P_POS": "250,780",
        "0I4MtuDa": "",
        "f73FMZua": "",
        "a91ecjh7": "4:1020104@2",
        "P_EFFECT_INFO": "",
        "9bpFf3Ut": "",
        "P_NEED_SWITCH_INFO": "10000020",
        "P_HIDE_SWITCH_INFO": "",
        "P_SCHEDULE_ID": "0",
        "P_EXT_IMG_PARAM": "",
        "P_CREATEDATE": "2018-05-25 02:48:54",
        "P_UPDATEDATE": "2018-05-25 02:48:54"
    },
    {
        "P_AREA_ID": "1020104",
        "V84mzqoX": "\u5e1d\u90fd\u8857\u9053",
        "3v1qg7Uj": "100",
        "4RnIaUq5": "10201",
        "P_DISPORDER": "4",
        "X4mIT5Lc": "1",
        "P_IMG": "",
        "1gDkL6XR": "",
        "P_SOUND_ID": "10",
        "P_POS": "352,980",
        "0I4MtuDa": "",
        "f73FMZua": "",
        "a91ecjh7": "",
        "P_EFFECT_INFO": "",
        "9bpFf3Ut": "",
        "P_NEED_SWITCH_INFO": "10000023",
        "P_HIDE_SWITCH_INFO": "",
        "P_SCHEDULE_ID": "0",
        "P_EXT_IMG_PARAM": "",
        "P_CREATEDATE": "2018-05-25 02:48:54",
        "P_UPDATEDATE": "2018-05-25 02:48:54"
    },
    {
        "P_AREA_ID": "1020105",
        "V84mzqoX": "\u5f71\u7dd1\u306e\u68ee\u6797",
        "3v1qg7Uj": "100",
        "4RnIaUq5": "10201",
        "P_DISPORDER": "5",
        "X4mIT5Lc": "8",
        "P_IMG": "",
        "1gDkL6XR": "",
        "P_SOUND_ID": "10",
        "P_POS": "550,420",
        "0I4MtuDa": "",
        "f73FMZua": "",
        "a91ecjh7": "",
        "P_EFFECT_INFO": "",
        "9bpFf3Ut": "",
        "P_NEED_SWITCH_INFO": "10000027",
        "P_HIDE_SWITCH_INFO": "",
        "P_SCHEDULE_ID": "0",
        "P_EXT_IMG_PARAM": "",
        "P_CREATEDATE": "2018-05-25 02:48:54",
        "P_UPDATEDATE": "2018-05-25 02:48:54"
    },
    {
        "P_AREA_ID": "1020106",
        "V84mzqoX": "\u30e9\u30f3\u30c9\u30fc\u30eb\u6e56\u7554",
        "3v1qg7Uj": "100",
        "4RnIaUq5": "10201",
        "P_DISPORDER": "6",
        "X4mIT5Lc": "8",
        "P_IMG": "",
        "1gDkL6XR": "",
        "P_SOUND_ID": "10",
        "P_POS": "520,680",
        "0I4MtuDa": "",
        "f73FMZua": "",
        "a91ecjh7": "",
        "P_EFFECT_INFO": "",
        "9bpFf3Ut": "",
        "P_NEED_SWITCH_INFO": "10000027",
        "P_HIDE_SWITCH_INFO": "",
        "P_SCHEDULE_ID": "0",
        "P_EXT_IMG_PARAM": "",
        "P_CREATEDATE": "2018-05-25 02:48:54",
        "P_UPDATEDATE": "2018-05-25 02:48:54"
    },
    {
        "P_AREA_ID": "1030101",
        "V84mzqoX": "\u6c5a\u6b7b\u306e\u8352\u5730",
        "3v1qg7Uj": "100",
        "4RnIaUq5": "103011",
        "P_DISPORDER": "1",
        "X4mIT5Lc": "1",
        "P_IMG": "",
        "1gDkL6XR": "",
        "P_SOUND_ID": "11",
        "P_POS": "240,300",
        "0I4MtuDa": "",
        "f73FMZua": "",
        "a91ecjh7": "2:1030102@1",
        "P_EFFECT_INFO": "",
        "9bpFf3Ut": "",
        "P_NEED_SWITCH_INFO": "10000027",
        "P_HIDE_SWITCH_INFO": "",
        "P_SCHEDULE_ID": "0",
        "P_EXT_IMG_PARAM": "",
        "P_CREATEDATE": "2018-05-25 02:48:54",
        "P_UPDATEDATE": "2018-05-25 02:48:54"
    },
    {
        "P_AREA_ID": "1030102",
        "V84mzqoX": "\u6d1e\u95c7\u306e\u5165\u53e3",
        "3v1qg7Uj": "100",
        "4RnIaUq5": "103011",
        "P_DISPORDER": "2",
        "X4mIT5Lc": "1",
        "P_IMG": "",
        "1gDkL6XR": "",
        "P_SOUND_ID": "11",
        "P_POS": "520,210",
        "0I4MtuDa": "",
        "f73FMZua": "",
        "a91ecjh7": "4:1030103@2",
        "P_EFFECT_INFO": "",
        "9bpFf3Ut": "",
        "P_NEED_SWITCH_INFO": "10000029",
        "P_HIDE_SWITCH_INFO": "",
        "P_SCHEDULE_ID": "0",
        "P_EXT_IMG_PARAM": "",
        "P_CREATEDATE": "2018-05-25 02:48:54",
        "P_UPDATEDATE": "2018-05-25 02:48:54"
    },
    {
        "P_AREA_ID": "1030103",
        "V84mzqoX": "\u5730\u4e0b\u3078\u3068\u7d9a\u304f\u9053",
        "3v1qg7Uj": "100",
        "4RnIaUq5": "103011",
        "P_DISPORDER": "3",
        "X4mIT5Lc": "1",
        "P_IMG": "",
        "1gDkL6XR": "",
        "P_SOUND_ID": "11",
        "P_POS": "620,400",
        "0I4MtuDa": "",
        "f73FMZua": "",
        "a91ecjh7": "1:1030201@2",
        "P_EFFECT_INFO": "",
        "9bpFf3Ut": "",
        "P_NEED_SWITCH_INFO": "10000031",
        "P_HIDE_SWITCH_INFO": "",
        "P_SCHEDULE_ID": "0",
        "P_EXT_IMG_PARAM": "",
        "P_CREATEDATE": "2018-05-25 02:48:54",
        "P_UPDATEDATE": "2018-05-25 02:48:54"
    },
    {
        "P_AREA_ID": "1030201",
        "V84mzqoX": "\u5927\u9910\u5834",
        "3v1qg7Uj": "100",
        "4RnIaUq5": "103011",
        "P_DISPORDER": "4",
        "X4mIT5Lc": "1",
        "P_IMG": "",
        "1gDkL6XR": "",
        "P_SOUND_ID": "11",
        "P_POS": "280,500",
        "0I4MtuDa": "",
        "f73FMZua": "",
        "a91ecjh7": "4:1030206@2",
        "P_EFFECT_INFO": "",
        "9bpFf3Ut": "",
        "P_NEED_SWITCH_INFO": "10000034",
        "P_HIDE_SWITCH_INFO": "",
        "P_SCHEDULE_ID": "0",
        "P_EXT_IMG_PARAM": "",
        "P_CREATEDATE": "2018-05-25 02:48:54",
        "P_UPDATEDATE": "2018-05-25 02:48:54"
    },
    {
        "P_AREA_ID": "1030202",
        "V84mzqoX": "\u57f9\u990a\u7814\u7a76\u5ba4",
        "3v1qg7Uj": "100",
        "4RnIaUq5": "103011",
        "P_DISPORDER": "5",
        "X4mIT5Lc": "1",
        "P_IMG": "",
        "1gDkL6XR": "",
        "P_SOUND_ID": "11",
        "P_POS": "620,880",
        "0I4MtuDa": "",
        "f73FMZua": "",
        "a91ecjh7": "",
        "P_EFFECT_INFO": "",
        "9bpFf3Ut": "",
        "P_NEED_SWITCH_INFO": "11000027",
        "P_HIDE_SWITCH_INFO": "",
        "P_SCHEDULE_ID": "0",
        "P_EXT_IMG_PARAM": "",
        "P_CREATEDATE": "2018-05-25 02:48:54",
        "P_UPDATEDATE": "2018-05-25 02:48:54"
    },
    {
        "P_AREA_ID": "1030203",
        "V84mzqoX": "\u7834\u7363\u306e\u9593",
        "3v1qg7Uj": "100",
        "4RnIaUq5": "103011",
        "P_DISPORDER": "6",
        "X4mIT5Lc": "1",
        "P_IMG": "",
        "1gDkL6XR": "",
        "P_SOUND_ID": "11",
        "P_POS": "600,650",
        "0I4MtuDa": "",
        "f73FMZua": "",
        "a91ecjh7": "",
        "P_EFFECT_INFO": "",
        "9bpFf3Ut": "",
        "P_NEED_SWITCH_INFO": "11000027",
        "P_HIDE_SWITCH_INFO": "",
        "P_SCHEDULE_ID": "0",
        "P_EXT_IMG_PARAM": "",
        "P_CREATEDATE": "2018-05-25 02:48:54",
        "P_UPDATEDATE": "2018-05-25 02:48:54"
    },
    {
        "P_AREA_ID": "1030204",
        "V84mzqoX": "\u5947\u904a\u306e\u9593",
        "3v1qg7Uj": "100",
        "4RnIaUq5": "103011",
        "P_DISPORDER": "7",
        "X4mIT5Lc": "1",
        "P_IMG": "",
        "1gDkL6XR": "",
        "P_SOUND_ID": "11",
        "P_POS": "250,800",
        "0I4MtuDa": "",
        "f73FMZua": "",
        "a91ecjh7": "",
        "P_EFFECT_INFO": "",
        "9bpFf3Ut": "",
        "P_NEED_SWITCH_INFO": "11000027",
        "P_HIDE_SWITCH_INFO": "",
        "P_SCHEDULE_ID": "0",
        "P_EXT_IMG_PARAM": "",
        "P_CREATEDATE": "2018-05-25 02:48:54",
        "P_UPDATEDATE": "2018-05-25 02:48:54"
    },
    {
        "P_AREA_ID": "1030205",
        "V84mzqoX": "\u5730\u4e0b\u30b2\u30fc\u30c8\u524d",
        "3v1qg7Uj": "100",
        "4RnIaUq5": "103011",
        "P_DISPORDER": "8",
        "X4mIT5Lc": "1",
        "P_IMG": "",
        "1gDkL6XR": "",
        "P_SOUND_ID": "11",
        "P_POS": "370,1050",
        "0I4MtuDa": "",
        "f73FMZua": "",
        "a91ecjh7": "4:1030301@2",
        "P_EFFECT_INFO": "",
        "9bpFf3Ut": "",
        "P_NEED_SWITCH_INFO": "10000037",
        "P_HIDE_SWITCH_INFO": "",
        "P_SCHEDULE_ID": "0",
        "P_EXT_IMG_PARAM": "",
        "P_CREATEDATE": "2018-05-25 02:48:54",
        "P_UPDATEDATE": "2018-05-25 02:48:54"
    },
    {
        "P_AREA_ID": "1030206",
        "V84mzqoX": "\u975e\u8868\u793a\u7528",
        "3v1qg7Uj": "100",
        "4RnIaUq5": "103011",
        "P_DISPORDER": "9",
        "X4mIT5Lc": "99",
        "P_IMG": "",
        "1gDkL6XR": "",
        "P_SOUND_ID": "11",
        "P_POS": "450,745",
        "0I4MtuDa": "",
        "f73FMZua": "",
        "a91ecjh7": "2:1030205@2",
        "P_EFFECT_INFO": "",
        "9bpFf3Ut": "",
        "P_NEED_SWITCH_INFO": "10000037",
        "P_HIDE_SWITCH_INFO": "",
        "P_SCHEDULE_ID": "0",
        "P_EXT_IMG_PARAM": "",
        "P_CREATEDATE": "2018-05-25 02:48:54",
        "P_UPDATEDATE": "2018-05-25 02:48:54"
    },
    {
        "P_AREA_ID": "1030301",
        "V84mzqoX": "\u84bc\u7114\u306e\u5186\u5353",
        "3v1qg7Uj": "100",
        "4RnIaUq5": "103012",
        "P_DISPORDER": "1",
        "X4mIT5Lc": "1",
        "P_IMG": "",
        "1gDkL6XR": "",
        "P_SOUND_ID": "11",
        "P_POS": "250,350",
        "0I4MtuDa": "",
        "f73FMZua": "",
        "a91ecjh7": "4:1030303@2",
        "P_EFFECT_INFO": "",
        "9bpFf3Ut": "",
        "P_NEED_SWITCH_INFO": "10000048",
        "P_HIDE_SWITCH_INFO": "",
        "P_SCHEDULE_ID": "0",
        "P_EXT_IMG_PARAM": "",
        "P_CREATEDATE": "2018-05-25 02:48:54",
        "P_UPDATEDATE": "2018-05-25 02:48:54"
    },
    {
        "P_AREA_ID": "1030302",
        "V84mzqoX": "\u52d5\u529b\u5ba4",
        "3v1qg7Uj": "100",
        "4RnIaUq5": "103012",
        "P_DISPORDER": "2",
        "X4mIT5Lc": "1",
        "P_IMG": "",
        "1gDkL6XR": "",
        "P_SOUND_ID": "11",
        "P_POS": "620,330",
        "0I4MtuDa": "",
        "f73FMZua": "",
        "a91ecjh7": "",
        "P_EFFECT_INFO": "",
        "9bpFf3Ut": "",
        "P_NEED_SWITCH_INFO": "11000035",
        "P_HIDE_SWITCH_INFO": "",
        "P_SCHEDULE_ID": "0",
        "P_EXT_IMG_PARAM": "",
        "P_CREATEDATE": "2018-05-25 02:48:54",
        "P_UPDATEDATE": "2018-05-25 02:48:54"
    },
    {
        "P_AREA_ID": "1030303",
        "V84mzqoX": "\u6700\u6df1\u90e8\u30a8\u30ec\u30d9\u30fc\u30bf\u30fc",
        "3v1qg7Uj": "100",
        "4RnIaUq5": "103012",
        "P_DISPORDER": "3",
        "X4mIT5Lc": "1",
        "P_IMG": "",
        "1gDkL6XR": "",
        "P_SOUND_ID": "11",
        "P_POS": "440,570",
        "0I4MtuDa": "",
        "f73FMZua": "",
        "a91ecjh7": "4:1030304@2",
        "P_EFFECT_INFO": "",
        "9bpFf3Ut": "",
        "P_NEED_SWITCH_INFO": "10000051",
        "P_HIDE_SWITCH_INFO": "",
        "P_SCHEDULE_ID": "0",
        "P_EXT_IMG_PARAM": "",
        "P_CREATEDATE": "2018-05-25 02:48:54",
        "P_UPDATEDATE": "2018-05-25 02:48:54"
    },
    {
        "P_AREA_ID": "1030304",
        "V84mzqoX": "\u751f\u4f53\u5b9f\u9a13\u5834",
        "3v1qg7Uj": "100",
        "4RnIaUq5": "103012",
        "P_DISPORDER": "4",
        "X4mIT5Lc": "1",
        "P_IMG": "",
        "1gDkL6XR": "",
        "P_SOUND_ID": "11",
        "P_POS": "230,770",
        "0I4MtuDa": "",
        "f73FMZua": "",
        "a91ecjh7": "4:1030305@1",
        "P_EFFECT_INFO": "",
        "9bpFf3Ut": "",
        "P_NEED_SWITCH_INFO": "10000057",
        "P_HIDE_SWITCH_INFO": "",
        "P_SCHEDULE_ID": "0",
        "P_EXT_IMG_PARAM": "",
        "P_CREATEDATE": "2018-05-25 02:48:54",
        "P_UPDATEDATE": "2018-05-25 02:48:54"
    },
    {
        "P_AREA_ID": "1030305",
        "V84mzqoX": "\u9b54\u795e\u306e\u7389\u5ea7",
        "3v1qg7Uj": "100",
        "4RnIaUq5": "103012",
        "P_DISPORDER": "5",
        "X4mIT5Lc": "1",
        "P_IMG": "",
        "1gDkL6XR": "",
        "P_SOUND_ID": "11",
        "P_POS": "610,1020",
        "0I4MtuDa": "",
        "f73FMZua": "",
        "a91ecjh7": "",
        "P_EFFECT_INFO": "",
        "9bpFf3Ut": "",
        "P_NEED_SWITCH_INFO": "10000060",
        "P_HIDE_SWITCH_INFO": "",
        "P_SCHEDULE_ID": "0",
        "P_EXT_IMG_PARAM": "",
        "P_CREATEDATE": "2018-05-25 02:48:54",
        "P_UPDATEDATE": "2018-05-25 02:48:54"
    },
    {
        "P_AREA_ID": "1030306",
        "V84mzqoX": "\u5175\u5668\u7814\u7a76\u5ba4",
        "3v1qg7Uj": "100",
        "4RnIaUq5": "103012",
        "P_DISPORDER": "6",
        "X4mIT5Lc": "8",
        "P_IMG": "",
        "1gDkL6XR": "",
        "P_SOUND_ID": "11",
        "P_POS": "620,770",
        "0I4MtuDa": "",
        "f73FMZua": "",
        "a91ecjh7": "",
        "P_EFFECT_INFO": "",
        "9bpFf3Ut": "",
        "P_NEED_SWITCH_INFO": "10000063",
        "P_HIDE_SWITCH_INFO": "",
        "P_SCHEDULE_ID": "0",
        "P_EXT_IMG_PARAM": "",
        "P_CREATEDATE": "2018-05-25 02:48:54",
        "P_UPDATEDATE": "2018-05-25 02:48:54"
    },
    {
        "P_AREA_ID": "1030307",
        "V84mzqoX": "\u5730\u5e95\u7262\u7344",
        "3v1qg7Uj": "100",
        "4RnIaUq5": "103012",
        "P_DISPORDER": "7",
        "X4mIT5Lc": "8",
        "P_IMG": "",
        "1gDkL6XR": "",
        "P_SOUND_ID": "11",
        "P_POS": "250,1050",
        "0I4MtuDa": "",
        "f73FMZua": "",
        "a91ecjh7": "",
        "P_EFFECT_INFO": "",
        "9bpFf3Ut": "",
        "P_NEED_SWITCH_INFO": "10000063",
        "P_HIDE_SWITCH_INFO": "",
        "P_SCHEDULE_ID": "0",
        "P_EXT_IMG_PARAM": "",
        "P_CREATEDATE": "2018-05-25 02:48:54",
        "P_UPDATEDATE": "2018-05-25 02:48:54"
    },
    {
        "P_AREA_ID": "1040101",
        "V84mzqoX": "\u30a2\u30d3\u30a8\u30eb\u8352\u91ce",
        "3v1qg7Uj": "100",
        "4RnIaUq5": "10401",
        "P_DISPORDER": "1",
        "X4mIT5Lc": "1",
        "P_IMG": "",
        "1gDkL6XR": "",
        "P_SOUND_ID": "12",
        "P_POS": "592,520",
        "0I4MtuDa": "",
        "f73FMZua": "",
        "a91ecjh7": "1:1040102@4",
        "P_EFFECT_INFO": "",
        "9bpFf3Ut": "",
        "P_NEED_SWITCH_INFO": "10000063",
        "P_HIDE_SWITCH_INFO": "",
        "P_SCHEDULE_ID": "0",
        "P_EXT_IMG_PARAM": "",
        "P_CREATEDATE": "2018-05-25 02:48:54",
        "P_UPDATEDATE": "2018-05-25 02:48:54"
    },
    {
        "P_AREA_ID": "1040102",
        "V84mzqoX": "\u30e1\u30eb\u30b5\u30b9\u30d6\u30ea\u30c3\u30b8",
        "3v1qg7Uj": "100",
        "4RnIaUq5": "10401",
        "P_DISPORDER": "2",
        "X4mIT5Lc": "1",
        "P_IMG": "",
        "1gDkL6XR": "",
        "P_SOUND_ID": "12",
        "P_POS": "300,380",
        "0I4MtuDa": "",
        "f73FMZua": "",
        "a91ecjh7": "",
        "P_EFFECT_INFO": "",
        "9bpFf3Ut": "",
        "P_NEED_SWITCH_INFO": "10000106",
        "P_HIDE_SWITCH_INFO": "",
        "P_SCHEDULE_ID": "0",
        "P_EXT_IMG_PARAM": "",
        "P_CREATEDATE": "2018-05-25 02:48:54",
        "P_UPDATEDATE": "2018-05-25 02:48:54"
    },
    {
        "P_AREA_ID": "1040201",
        "V84mzqoX": "\u5357\u30b2\u30fc\u30c8",
        "3v1qg7Uj": "100",
        "4RnIaUq5": "10402",
        "P_DISPORDER": "1",
        "X4mIT5Lc": "1",
        "P_IMG": "",
        "1gDkL6XR": "",
        "P_SOUND_ID": "12",
        "P_POS": "280,720",
        "0I4MtuDa": "",
        "f73FMZua": "",
        "a91ecjh7": "4:1040202@2",
        "P_EFFECT_INFO": "",
        "9bpFf3Ut": "",
        "P_NEED_SWITCH_INFO": "10000109",
        "P_HIDE_SWITCH_INFO": "",
        "P_SCHEDULE_ID": "0",
        "P_EXT_IMG_PARAM": "",
        "P_CREATEDATE": "2018-05-25 02:48:54",
        "P_UPDATEDATE": "2018-05-25 02:48:54"
    },
    {
        "P_AREA_ID": "1040202",
        "V84mzqoX": "\u6771\u30b2\u30fc\u30c8",
        "3v1qg7Uj": "100",
        "4RnIaUq5": "10402",
        "P_DISPORDER": "2",
        "X4mIT5Lc": "1",
        "P_IMG": "",
        "1gDkL6XR": "",
        "P_SOUND_ID": "12",
        "P_POS": "460,1050",
        "0I4MtuDa": "",
        "f73FMZua": "",
        "a91ecjh7": "2:1040203@4",
        "P_EFFECT_INFO": "",
        "9bpFf3Ut": "",
        "P_NEED_SWITCH_INFO": "10000112",
        "P_HIDE_SWITCH_INFO": "",
        "P_SCHEDULE_ID": "0",
        "P_EXT_IMG_PARAM": "",
        "P_CREATEDATE": "2018-05-25 02:48:54",
        "P_UPDATEDATE": "2018-05-25 02:48:54"
    },
    {
        "P_AREA_ID": "1040203",
        "V84mzqoX": "\u6280\u8853\u958b\u767a\u5e81",
        "3v1qg7Uj": "100",
        "4RnIaUq5": "10402",
        "P_DISPORDER": "3",
        "X4mIT5Lc": "1",
        "P_IMG": "",
        "1gDkL6XR": "",
        "P_SOUND_ID": "12",
        "P_POS": "620,660",
        "0I4MtuDa": "",
        "f73FMZua": "",
        "a91ecjh7": "",
        "P_EFFECT_INFO": "",
        "9bpFf3Ut": "",
        "P_NEED_SWITCH_INFO": "10000115",
        "P_HIDE_SWITCH_INFO": "",
        "P_SCHEDULE_ID": "0",
        "P_EXT_IMG_PARAM": "",
        "P_CREATEDATE": "2018-05-25 02:48:54",
        "P_UPDATEDATE": "2018-05-25 02:48:54"
    },
    {
        "P_AREA_ID": "1040204",
        "V84mzqoX": "\u4e2d\u5fc3\u5e02\u8857\u5730\u5e83\u5834",
        "3v1qg7Uj": "100",
        "4RnIaUq5": "10402",
        "P_DISPORDER": "4",
        "X4mIT5Lc": "1",
        "P_IMG": "",
        "1gDkL6XR": "",
        "P_SOUND_ID": "12",
        "P_POS": "400,430",
        "0I4MtuDa": "",
        "f73FMZua": "",
        "a91ecjh7": "",
        "P_EFFECT_INFO": "",
        "9bpFf3Ut": "",
        "P_NEED_SWITCH_INFO": "10000130",
        "P_HIDE_SWITCH_INFO": "",
        "P_SCHEDULE_ID": "0",
        "P_EXT_IMG_PARAM": "",
        "P_CREATEDATE": "2018-05-25 02:48:54",
        "P_UPDATEDATE": "2018-05-25 02:48:54"
    },
    {
        "P_AREA_ID": "1040301",
        "V84mzqoX": "\u30a8\u30f3\u30c8\u30e9\u30f3\u30b9",
        "3v1qg7Uj": "100",
        "4RnIaUq5": "10403",
        "P_DISPORDER": "1",
        "X4mIT5Lc": "1",
        "P_IMG": "",
        "1gDkL6XR": "",
        "P_SOUND_ID": "12",
        "P_POS": "540,1070",
        "0I4MtuDa": "",
        "f73FMZua": "",
        "a91ecjh7": "",
        "P_EFFECT_INFO": "",
        "9bpFf3Ut": "",
        "P_NEED_SWITCH_INFO": "10000118",
        "P_HIDE_SWITCH_INFO": "",
        "P_SCHEDULE_ID": "0",
        "P_EXT_IMG_PARAM": "",
        "P_CREATEDATE": "2018-05-25 02:48:54",
        "P_UPDATEDATE": "2018-05-25 02:48:54"
    },
    {
        "P_AREA_ID": "1040302",
        "V84mzqoX": "\u7b2c\u4e8c\u7814\u7a76\u30a8\u30ea\u30a2",
        "3v1qg7Uj": "100",
        "4RnIaUq5": "10403",
        "P_DISPORDER": "2",
        "X4mIT5Lc": "1",
        "P_IMG": "",
        "1gDkL6XR": "",
        "P_SOUND_ID": "12",
        "P_POS": "380,730",
        "0I4MtuDa": "",
        "f73FMZua": "",
        "a91ecjh7": "",
        "P_EFFECT_INFO": "",
        "9bpFf3Ut": "",
        "P_NEED_SWITCH_INFO": "11000169",
        "P_HIDE_SWITCH_INFO": "",
        "P_SCHEDULE_ID": "0",
        "P_EXT_IMG_PARAM": "",
        "P_CREATEDATE": "2018-05-25 02:48:54",
        "P_UPDATEDATE": "2018-05-25 02:48:54"
    },
    {
        "P_AREA_ID": "1040303",
        "V84mzqoX": "\u30b3\u30f3\u30c8\u30ed\u30fc\u30eb\u30eb\u30fc\u30e0",
        "3v1qg7Uj": "100",
        "4RnIaUq5": "10403",
        "P_DISPORDER": "1",
        "X4mIT5Lc": "1",
        "P_IMG": "",
        "1gDkL6XR": "",
        "P_SOUND_ID": "12",
        "P_POS": "330,350",
        "0I4MtuDa": "",
        "f73FMZua": "",
        "a91ecjh7": "3:1040304@2",
        "P_EFFECT_INFO": "",
        "9bpFf3Ut": "",
        "P_NEED_SWITCH_INFO": "10000120",
        "P_HIDE_SWITCH_INFO": "",
        "P_SCHEDULE_ID": "0",
        "P_EXT_IMG_PARAM": "",
        "P_CREATEDATE": "2018-05-25 02:48:54",
        "P_UPDATEDATE": "2018-05-25 02:48:54"
    },
    {
        "P_AREA_ID": "1040304",
        "V84mzqoX": "\u9023\u7d61\u7528\u901a\u8def",
        "3v1qg7Uj": "100",
        "4RnIaUq5": "10403",
        "P_DISPORDER": "4",
        "X4mIT5Lc": "1",
        "P_IMG": "",
        "1gDkL6XR": "",
        "P_SOUND_ID": "12",
        "P_POS": "520,530",
        "0I4MtuDa": "",
        "f73FMZua": "",
        "a91ecjh7": "",
        "P_EFFECT_INFO": "",
        "9bpFf3Ut": "",
        "P_NEED_SWITCH_INFO": "10000127",
        "P_HIDE_SWITCH_INFO": "",
        "P_SCHEDULE_ID": "0",
        "P_EXT_IMG_PARAM": "",
        "P_CREATEDATE": "2018-05-25 02:48:54",
        "P_UPDATEDATE": "2018-05-25 02:48:54"
    },
    {
        "P_AREA_ID": "1050101",
        "V84mzqoX": "\u723d\u98a8\u306e\u4e18",
        "3v1qg7Uj": "100",
        "4RnIaUq5": "10501",
        "P_DISPORDER": "1",
        "X4mIT5Lc": "1",
        "P_IMG": "",
        "1gDkL6XR": "",
        "P_SOUND_ID": "1",
        "P_POS": "250,1030",
        "0I4MtuDa": "",
        "f73FMZua": "",
        "a91ecjh7": "3:1050102@4",
        "P_EFFECT_INFO": "",
        "9bpFf3Ut": "",
        "P_NEED_SWITCH_INFO": "10000104,10000133",
        "P_HIDE_SWITCH_INFO": "",
        "P_SCHEDULE_ID": "0",
        "P_EXT_IMG_PARAM": "",
        "P_CREATEDATE": "2018-05-25 02:48:54",
        "P_UPDATEDATE": "2018-05-25 02:48:54"
    },
    {
        "P_AREA_ID": "1050102",
        "V84mzqoX": "\u6ec5\u307c\u3055\u308c\u305f\u6751",
        "3v1qg7Uj": "100",
        "4RnIaUq5": "10501",
        "P_DISPORDER": "2",
        "X4mIT5Lc": "1",
        "P_IMG": "",
        "1gDkL6XR": "",
        "P_SOUND_ID": "1",
        "P_POS": "560,780",
        "0I4MtuDa": "",
        "f73FMZua": "",
        "a91ecjh7": "2:1050103@4",
        "P_EFFECT_INFO": "",
        "9bpFf3Ut": "",
        "P_NEED_SWITCH_INFO": "10000136",
        "P_HIDE_SWITCH_INFO": "",
        "P_SCHEDULE_ID": "0",
        "P_EXT_IMG_PARAM": "",
        "P_CREATEDATE": "2018-05-25 02:48:54",
        "P_UPDATEDATE": "2018-05-25 02:48:54"
    },
    {
        "P_AREA_ID": "1050103",
        "V84mzqoX": "\u30ec\u30b7\u30b9\u7269\u898b\u5854",
        "3v1qg7Uj": "100",
        "4RnIaUq5": "10501",
        "P_DISPORDER": "3",
        "X4mIT5Lc": "1",
        "P_IMG": "",
        "1gDkL6XR": "",
        "P_SOUND_ID": "1",
        "P_POS": "250,600",
        "0I4MtuDa": "",
        "f73FMZua": "",
        "a91ecjh7": "3:1050104@1",
        "P_EFFECT_INFO": "",
        "9bpFf3Ut": "",
        "P_NEED_SWITCH_INFO": "10000138",
        "P_HIDE_SWITCH_INFO": "",
        "P_SCHEDULE_ID": "0",
        "P_EXT_IMG_PARAM": "",
        "P_CREATEDATE": "2018-05-25 02:48:54",
        "P_UPDATEDATE": "2018-05-25 02:48:54"
    },
    {
        "P_AREA_ID": "1050104",
        "V84mzqoX": "\u30e2\u30eb\u30c7\u30f3\u5927\u540a\u6a4b",
        "3v1qg7Uj": "100",
        "4RnIaUq5": "10501",
        "P_DISPORDER": "4",
        "X4mIT5Lc": "1",
        "P_IMG": "",
        "1gDkL6XR": "",
        "P_SOUND_ID": "1",
        "P_POS": "570,525",
        "0I4MtuDa": "",
        "f73FMZua": "",
        "a91ecjh7": "2:1050105@4",
        "P_EFFECT_INFO": "",
        "9bpFf3Ut": "",
        "P_NEED_SWITCH_INFO": "10000142",
        "P_HIDE_SWITCH_INFO": "",
        "P_SCHEDULE_ID": "0",
        "P_EXT_IMG_PARAM": "",
        "P_CREATEDATE": "2018-05-25 02:48:54",
        "P_UPDATEDATE": "2018-05-25 02:48:54"
    },
    {
        "P_AREA_ID": "1050105",
        "V84mzqoX": "\u6a5f\u5175\u524d\u54e8\u57fa\u5730",
        "3v1qg7Uj": "100",
        "4RnIaUq5": "10501",
        "P_DISPORDER": "5",
        "X4mIT5Lc": "1",
        "P_IMG": "",
        "1gDkL6XR": "",
        "P_SOUND_ID": "1",
        "P_POS": "500,350",
        "0I4MtuDa": "",
        "f73FMZua": "",
        "a91ecjh7": "1:1050106@4",
        "P_EFFECT_INFO": "",
        "9bpFf3Ut": "",
        "P_NEED_SWITCH_INFO": "10000145",
        "P_HIDE_SWITCH_INFO": "",
        "P_SCHEDULE_ID": "0",
        "P_EXT_IMG_PARAM": "",
        "P_CREATEDATE": "2018-05-25 02:48:54",
        "P_UPDATEDATE": "2018-05-25 02:48:54"
    },
    {
        "P_AREA_ID": "1050106",
        "V84mzqoX": "\u7f85\u6bb2\u8981\u585e",
        "3v1qg7Uj": "100",
        "4RnIaUq5": "10501",
        "P_DISPORDER": "6",
        "X4mIT5Lc": "1",
        "P_IMG": "",
        "1gDkL6XR": "",
        "P_SOUND_ID": "1",
        "P_POS": "252,250",
        "0I4MtuDa": "",
        "f73FMZua": "",
        "a91ecjh7": "",
        "P_EFFECT_INFO": "",
        "9bpFf3Ut": "",
        "P_NEED_SWITCH_INFO": "10000148",
        "P_HIDE_SWITCH_INFO": "",
        "P_SCHEDULE_ID": "0",
        "P_EXT_IMG_PARAM": "",
        "P_CREATEDATE": "2018-05-25 02:48:54",
        "P_UPDATEDATE": "2018-05-25 02:48:54"
    },
    {
        "P_AREA_ID": "1050107",
        "V84mzqoX": "\u30d0\u30c0\u30f3\u306e\u7826",
        "3v1qg7Uj": "100",
        "4RnIaUq5": "10501",
        "P_DISPORDER": "7",
        "X4mIT5Lc": "8",
        "P_IMG": "",
        "1gDkL6XR": "",
        "P_SOUND_ID": "1",
        "P_POS": "610,220",
        "0I4MtuDa": "",
        "f73FMZua": "",
        "a91ecjh7": "",
        "P_EFFECT_INFO": "",
        "9bpFf3Ut": "",
        "P_NEED_SWITCH_INFO": "10000152",
        "P_HIDE_SWITCH_INFO": "",
        "P_SCHEDULE_ID": "0",
        "P_EXT_IMG_PARAM": "",
        "P_CREATEDATE": "2018-05-25 02:48:54",
        "P_UPDATEDATE": "2018-05-25 02:48:54"
    },
    {
        "P_AREA_ID": "1050201",
        "V84mzqoX": "\u30a2\u30eb\u30a6\u30a7\u30b9\u8349\u539f",
        "3v1qg7Uj": "100",
        "4RnIaUq5": "10502",
        "P_DISPORDER": "1",
        "X4mIT5Lc": "1",
        "P_IMG": "",
        "1gDkL6XR": "",
        "P_SOUND_ID": "1",
        "P_POS": "380,1000",
        "0I4MtuDa": "",
        "f73FMZua": "",
        "a91ecjh7": "2:1050202@4",
        "P_EFFECT_INFO": "",
        "9bpFf3Ut": "",
        "P_NEED_SWITCH_INFO": "10000152",
        "P_HIDE_SWITCH_INFO": "",
        "P_SCHEDULE_ID": "0",
        "P_EXT_IMG_PARAM": "",
        "P_CREATEDATE": "2018-05-25 02:48:54",
        "P_UPDATEDATE": "2018-05-25 02:48:54"
    },
    {
        "P_AREA_ID": "1050202",
        "V84mzqoX": "\u30cd\u30b0\u30ec\u30b9\u99d0\u5c6f\u5730\u8de1",
        "3v1qg7Uj": "100",
        "4RnIaUq5": "10502",
        "P_DISPORDER": "2",
        "X4mIT5Lc": "1",
        "P_IMG": "",
        "1gDkL6XR": "",
        "P_SOUND_ID": "1",
        "P_POS": "250,750",
        "0I4MtuDa": "",
        "f73FMZua": "",
        "a91ecjh7": "2:1050203@4",
        "P_EFFECT_INFO": "",
        "9bpFf3Ut": "",
        "P_NEED_SWITCH_INFO": "10000167",
        "P_HIDE_SWITCH_INFO": "",
        "P_SCHEDULE_ID": "0",
        "P_EXT_IMG_PARAM": "",
        "P_CREATEDATE": "2018-05-25 02:48:54",
        "P_UPDATEDATE": "2018-05-25 02:48:54"
    },
    {
        "P_AREA_ID": "1050203",
        "V84mzqoX": "\u30d5\u30a3\u30eb\u30a2\u30fc\u30e0\u57ce\u9580\u524d",
        "3v1qg7Uj": "100",
        "4RnIaUq5": "10502",
        "P_DISPORDER": "3",
        "X4mIT5Lc": "1",
        "P_IMG": "",
        "1gDkL6XR": "",
        "P_SOUND_ID": "1",
        "P_POS": "280,530",
        "0I4MtuDa": "",
        "f73FMZua": "",
        "a91ecjh7": "",
        "P_EFFECT_INFO": "",
        "9bpFf3Ut": "",
        "P_NEED_SWITCH_INFO": "10000169",
        "P_HIDE_SWITCH_INFO": "",
        "P_SCHEDULE_ID": "0",
        "P_EXT_IMG_PARAM": "",
        "P_CREATEDATE": "2018-05-25 02:48:54",
        "P_UPDATEDATE": "2018-05-25 02:48:54"
    },
    {
        "P_AREA_ID": "1050204",
        "V84mzqoX": "\u5ec3\u57ce\u30c7\u30ab\u30c6\u30cd\u30a4\u30c8",
        "3v1qg7Uj": "100",
        "4RnIaUq5": "10502",
        "P_DISPORDER": "4",
        "X4mIT5Lc": "1",
        "P_IMG": "",
        "1gDkL6XR": "",
        "P_SOUND_ID": "1",
        "P_POS": "600,250",
        "0I4MtuDa": "",
        "f73FMZua": "",
        "a91ecjh7": "",
        "P_EFFECT_INFO": "",
        "9bpFf3Ut": "",
        "P_NEED_SWITCH_INFO": "10000189",
        "P_HIDE_SWITCH_INFO": "",
        "P_SCHEDULE_ID": "0",
        "P_EXT_IMG_PARAM": "",
        "P_CREATEDATE": "2018-05-25 02:48:54",
        "P_UPDATEDATE": "2018-05-25 02:48:54"
    },
    {
        "P_AREA_ID": "1050205",
        "V84mzqoX": "\u714c\u6a39\u306e\u5bc6\u6797",
        "3v1qg7Uj": "100",
        "4RnIaUq5": "10502",
        "P_DISPORDER": "5",
        "X4mIT5Lc": "8",
        "P_IMG": "",
        "1gDkL6XR": "",
        "P_SOUND_ID": "1",
        "P_POS": "600,580",
        "0I4MtuDa": "",
        "f73FMZua": "",
        "a91ecjh7": "",
        "P_EFFECT_INFO": "",
        "9bpFf3Ut": "",
        "P_NEED_SWITCH_INFO": "10000196",
        "P_HIDE_SWITCH_INFO": "",
        "P_SCHEDULE_ID": "0",
        "P_EXT_IMG_PARAM": "",
        "P_CREATEDATE": "2018-05-25 02:48:54",
        "P_UPDATEDATE": "2018-05-25 02:48:54"
    },
    {
        "P_AREA_ID": "1050301",
        "V84mzqoX": "\u7dd1\u8449\u7267\u5730",
        "3v1qg7Uj": "100",
        "4RnIaUq5": "105031",
        "P_DISPORDER": "1",
        "X4mIT5Lc": "1",
        "P_IMG": "",
        "1gDkL6XR": "",
        "P_SOUND_ID": "1",
        "P_POS": "240,380",
        "0I4MtuDa": "",
        "f73FMZua": "",
        "a91ecjh7": "4:1050302@2",
        "P_EFFECT_INFO": "",
        "9bpFf3Ut": "",
        "P_NEED_SWITCH_INFO": "10000171",
        "P_HIDE_SWITCH_INFO": "",
        "P_SCHEDULE_ID": "0",
        "P_EXT_IMG_PARAM": "",
        "P_CREATEDATE": "2018-05-25 02:48:54",
        "P_UPDATEDATE": "2018-05-25 02:48:54"
    },
    {
        "P_AREA_ID": "1050302",
        "V84mzqoX": "\u30d5\u30a3\u30eb\u30a2\u30fc\u30e0\u95d8\u6280\u5834",
        "3v1qg7Uj": "100",
        "4RnIaUq5": "105031",
        "P_DISPORDER": "2",
        "X4mIT5Lc": "1",
        "P_IMG": "",
        "1gDkL6XR": "",
        "P_SOUND_ID": "1",
        "P_POS": "250,850",
        "0I4MtuDa": "",
        "f73FMZua": "",
        "a91ecjh7": "3:1050303@4",
        "P_EFFECT_INFO": "",
        "9bpFf3Ut": "",
        "P_NEED_SWITCH_INFO": "10000174",
        "P_HIDE_SWITCH_INFO": "",
        "P_SCHEDULE_ID": "0",
        "P_EXT_IMG_PARAM": "",
        "P_CREATEDATE": "2018-05-25 02:48:54",
        "P_UPDATEDATE": "2018-05-25 02:48:54"
    },
    {
        "P_AREA_ID": "1050303",
        "V84mzqoX": "\u8056\u7363\u306e\u6abb",
        "3v1qg7Uj": "100",
        "4RnIaUq5": "105031",
        "P_DISPORDER": "3",
        "X4mIT5Lc": "1",
        "P_IMG": "",
        "1gDkL6XR": "",
        "P_SOUND_ID": "1",
        "P_POS": "570,740",
        "0I4MtuDa": "",
        "f73FMZua": "",
        "a91ecjh7": "",
        "P_EFFECT_INFO": "",
        "9bpFf3Ut": "",
        "P_NEED_SWITCH_INFO": "10000177",
        "P_HIDE_SWITCH_INFO": "",
        "P_SCHEDULE_ID": "0",
        "P_EXT_IMG_PARAM": "",
        "P_CREATEDATE": "2018-05-25 02:48:54",
        "P_UPDATEDATE": "2018-05-25 02:48:54"
    },
    {
        "P_AREA_ID": "1050304",
        "V84mzqoX": "\u6e67\u6c34\u6574\u697c",
        "3v1qg7Uj": "100",
        "4RnIaUq5": "105032",
        "P_DISPORDER": "1",
        "X4mIT5Lc": "1",
        "P_IMG": "",
        "1gDkL6XR": "",
        "P_SOUND_ID": "1",
        "P_POS": "600,320",
        "0I4MtuDa": "",
        "f73FMZua": "",
        "a91ecjh7": "4:1050305@2",
        "P_EFFECT_INFO": "",
        "9bpFf3Ut": "",
        "P_NEED_SWITCH_INFO": "10000179",
        "P_HIDE_SWITCH_INFO": "",
        "P_SCHEDULE_ID": "0",
        "P_EXT_IMG_PARAM": "",
        "P_CREATEDATE": "2018-05-25 02:48:54",
        "P_UPDATEDATE": "2018-05-25 02:48:54"
    },
    {
        "P_AREA_ID": "1050305",
        "V84mzqoX": "\u30a2\u30cd\u30e2\u30b9\u98a8\u8eca",
        "3v1qg7Uj": "100",
        "4RnIaUq5": "105032",
        "P_DISPORDER": "2",
        "X4mIT5Lc": "1",
        "P_IMG": "",
        "1gDkL6XR": "",
        "P_SOUND_ID": "1",
        "P_POS": "610,710",
        "0I4MtuDa": "",
        "f73FMZua": "",
        "a91ecjh7": "4:1050306@3",
        "P_EFFECT_INFO": "",
        "9bpFf3Ut": "",
        "P_NEED_SWITCH_INFO": "10000182",
        "P_HIDE_SWITCH_INFO": "",
        "P_SCHEDULE_ID": "0",
        "P_EXT_IMG_PARAM": "",
        "P_CREATEDATE": "2018-05-25 02:48:54",
        "P_UPDATEDATE": "2018-05-25 02:48:54"
    },
    {
        "P_AREA_ID": "1050306",
        "V84mzqoX": "\u65e5\u6642\u8a08\u5e83\u5834",
        "3v1qg7Uj": "100",
        "4RnIaUq5": "105032",
        "P_DISPORDER": "3",
        "X4mIT5Lc": "1",
        "P_IMG": "",
        "1gDkL6XR": "",
        "P_SOUND_ID": "1",
        "P_POS": "300,870",
        "0I4MtuDa": "",
        "f73FMZua": "",
        "a91ecjh7": "2:1050307@4",
        "P_EFFECT_INFO": "",
        "9bpFf3Ut": "",
        "P_NEED_SWITCH_INFO": "10000185",
        "P_HIDE_SWITCH_INFO": "",
        "P_SCHEDULE_ID": "0",
        "P_EXT_IMG_PARAM": "",
        "P_CREATEDATE": "2018-05-25 02:48:54",
        "P_UPDATEDATE": "2018-05-25 02:48:54"
    },
    {
        "P_AREA_ID": "1050307",
        "V84mzqoX": "\u30d5\u30a3\u30eb\u30a2\u30fc\u30e0\u57ce",
        "3v1qg7Uj": "100",
        "4RnIaUq5": "105032",
        "P_DISPORDER": "4",
        "X4mIT5Lc": "1",
        "P_IMG": "",
        "1gDkL6XR": "",
        "P_SOUND_ID": "1",
        "P_POS": "300,660",
        "0I4MtuDa": "",
        "f73FMZua": "",
        "a91ecjh7": "",
        "P_EFFECT_INFO": "",
        "9bpFf3Ut": "",
        "P_NEED_SWITCH_INFO": "10000188",
        "P_HIDE_SWITCH_INFO": "",
        "P_SCHEDULE_ID": "0",
        "P_EXT_IMG_PARAM": "",
        "P_CREATEDATE": "2018-05-25 02:48:54",
        "P_UPDATEDATE": "2018-05-25 02:48:54"
    },
    {
        "P_AREA_ID": "1050308",
        "V84mzqoX": "\u30d5\u30a3\u30eb\u30ba\u5730\u4e0b\u5893\u5730",
        "3v1qg7Uj": "100",
        "4RnIaUq5": "105031",
        "P_DISPORDER": "4",
        "X4mIT5Lc": "8",
        "P_IMG": "",
        "1gDkL6XR": "",
        "P_SOUND_ID": "1",
        "P_POS": "500,480",
        "0I4MtuDa": "",
        "f73FMZua": "",
        "a91ecjh7": "",
        "P_EFFECT_INFO": "",
        "9bpFf3Ut": "",
        "P_NEED_SWITCH_INFO": "10000196",
        "P_HIDE_SWITCH_INFO": "",
        "P_SCHEDULE_ID": "0",
        "P_EXT_IMG_PARAM": "",
        "P_CREATEDATE": "2018-05-25 02:48:54",
        "P_UPDATEDATE": "2018-05-25 02:48:54"
    },
    {
        "P_AREA_ID": "2020101",
        "V84mzqoX": "\u56db\u8056\u3068\u5149\u95c7\u306e\u738b",
        "3v1qg7Uj": "3",
        "4RnIaUq5": "20201",
        "P_DISPORDER": "1",
        "X4mIT5Lc": "2",
        "P_IMG": "sq_map_002.jpg",
        "1gDkL6XR": "banner_story_quest_1.png,label_story_quest_1.png",
        "P_SOUND_ID": "14",
        "P_POS": "",
        "0I4MtuDa": "",
        "f73FMZua": "",
        "a91ecjh7": "",
        "P_EFFECT_INFO": "",
        "9bpFf3Ut": "1,10@1000122:10@2000122:10@3000122:10@4000122:10@5000122",
        "P_NEED_SWITCH_INFO": "0",
        "P_HIDE_SWITCH_INFO": "",
        "P_SCHEDULE_ID": "0",
        "P_EXT_IMG_PARAM": "\u30bb\u30eb\u30bf\u30d3\u30a2\u306b\u907a\u308b\u300c\u56db\u8056\u3068\u5149\u95c7\u306e\u738b\u300d\u306e\u4f1d\u8aac\u3002\n\u6642\u306e\u6d41\u308c\u306b\u56fd\u306f\u6f70\u3048\u3069\u3082\u3001\u4f1d\u8aac\u306f\u907a\u3055\u308c\u308b\u3002\n\u77e5\u3089\u306c\u8005\u306a\u304d\u82f1\u96c4\u8b5a\u3002\n\u305d\u308c\u306f\u3001\u5168\u3066\u3092\u7e4b\u3050\u7d46\u306e\u7269\u8a9e\u2015\u2015",
        "P_CREATEDATE": "2018-05-25 02:48:54",
        "P_UPDATEDATE": "2018-05-25 02:48:54"
    },
    {
        "P_AREA_ID": "2020201",
        "V84mzqoX": "\u5fcd\u3073\u5bc4\u308b\u60aa\u610f",
        "3v1qg7Uj": "3",
        "4RnIaUq5": "20201",
        "P_DISPORDER": "3",
        "X4mIT5Lc": "2",
        "P_IMG": "sq_map_001.jpg",
        "1gDkL6XR": "banner_story_quest_2.png,label_story_quest_2.png",
        "P_SOUND_ID": "14",
        "P_POS": "",
        "0I4MtuDa": "",
        "f73FMZua": "",
        "a91ecjh7": "",
        "P_EFFECT_INFO": "",
        "9bpFf3Ut": "1,10@1000422:10@3000422:10@4000422:10@5000422:10@6000422",
        "P_NEED_SWITCH_INFO": "0",
        "P_HIDE_SWITCH_INFO": "",
        "P_SCHEDULE_ID": "0",
        "P_EXT_IMG_PARAM": "\u8ff7\u3044\u306e\u68ee\u306b\u66ae\u3089\u3059\u30a8\u30eb\u30d5\u65cf\u3068\u7363\u4eba\u65cf\u3002\n\u5f7c\u3089\u306b\u8d77\u304d\u305f\u60b2\u5287\u306e\u771f\u76f8\u3068\u306f\u2026\u2026\uff1f\n\u3053\u308c\u306f\u3001\u3042\u308b\u601d\u60d1\u306b\u3088\u3063\u3066\u904b\u547d\u3092\u72c2\u308f\u3055\u308c\u305f\n\uff12\u3064\u306e\u7a2e\u65cf\u306e\u7269\u8a9e\u2015\u2015",
        "P_CREATEDATE": "2018-05-25 02:48:54",
        "P_UPDATEDATE": "2018-05-25 02:48:54"
    },
    {
        "P_AREA_ID": "2020401",
        "V84mzqoX": "\u5341\u7ffc\u306e\u7834\u58ca\u8005",
        "3v1qg7Uj": "7",
        "4RnIaUq5": "20201",
        "P_DISPORDER": "4",
        "X4mIT5Lc": "2",
        "P_IMG": "sq_map_003.jpg",
        "1gDkL6XR": "banner_story_quest_4.png,label_story_quest_4.png",
        "P_SOUND_ID": "14",
        "P_POS": "",
        "0I4MtuDa": "",
        "f73FMZua": "",
        "a91ecjh7": "",
        "P_EFFECT_INFO": "",
        "9bpFf3Ut": "1,10@1002012:10@2001812:10@3001812:10@4001912:10@6003112",
        "P_NEED_SWITCH_INFO": "0",
        "P_HIDE_SWITCH_INFO": "",
        "P_SCHEDULE_ID": "0",
        "P_EXT_IMG_PARAM": "\u5341\u679a\u306e\u7ffc\u3092\u6301\u3064\u7834\u58ca\u8005\u30fb\u30e1\u30eb\u30ad\u30aa\u306b\n\u7acb\u3061\u5411\u304b\u3063\u305f\u30df\u30bb\u30eb\u3068\u4ef2\u9593\u305f\u3061\u306e\u6fc0\u95d8\u3001\n\u305d\u3057\u3066\u3001\u7d46\u3068\u53cb\u60c5\u306e\u7269\u8a9e\u3002",
        "P_CREATEDATE": "2018-05-25 02:48:54",
        "P_UPDATEDATE": "2018-05-25 02:48:54"
    },
    {
        "P_AREA_ID": "20100001",
        "V84mzqoX": "\u79d8\u5b9d\u304c\u7720\u308b\u907a\u8de1",
        "3v1qg7Uj": "100",
        "4RnIaUq5": "201",
        "P_DISPORDER": "2",
        "X4mIT5Lc": "1",
        "P_IMG": "",
        "1gDkL6XR": "banner_sp_quest_material.png",
        "P_SOUND_ID": "14",
        "P_POS": "",
        "0I4MtuDa": "",
        "f73FMZua": "",
        "a91ecjh7": "",
        "P_EFFECT_INFO": "",
        "9bpFf3Ut": "",
        "P_NEED_SWITCH_INFO": "0",
        "P_HIDE_SWITCH_INFO": "",
        "P_SCHEDULE_ID": "50026",
        "P_EXT_IMG_PARAM": "",
        "P_CREATEDATE": "2018-05-25 02:48:54",
        "P_UPDATEDATE": "2018-05-25 02:48:54"
    },
    {
        "P_AREA_ID": "20100002",
        "V84mzqoX": "GW\u9650\u5b9a\u30c0\u30f3\u30b8\u30e7\u30f3",
        "3v1qg7Uj": "100",
        "4RnIaUq5": "201",
        "P_DISPORDER": "2",
        "X4mIT5Lc": "1",
        "P_IMG": "",
        "1gDkL6XR": "banner_sp_quest_exp_zell.png",
        "P_SOUND_ID": "14",
        "P_POS": "",
        "0I4MtuDa": "",
        "f73FMZua": "",
        "a91ecjh7": "",
        "P_EFFECT_INFO": "",
        "9bpFf3Ut": "",
        "P_NEED_SWITCH_INFO": "0",
        "P_HIDE_SWITCH_INFO": "",
        "P_SCHEDULE_ID": "50049",
        "P_EXT_IMG_PARAM": "",
        "P_CREATEDATE": "2018-05-25 02:48:54",
        "P_UPDATEDATE": "2018-05-25 02:48:54"
    },
    {
        "P_AREA_ID": "20300001",
        "V84mzqoX": "\u30e1\u30bf\u30eb\u30d1\u30ec\u30fc\u30c9",
        "3v1qg7Uj": "100",
        "4RnIaUq5": "202",
        "P_DISPORDER": "1",
        "X4mIT5Lc": "4",
        "P_IMG": "",
        "1gDkL6XR": "banner_key_quest_metal.png,icon_metal_king_key.png",
        "P_SOUND_ID": "14",
        "P_POS": "",
        "0I4MtuDa": "",
        "f73FMZua": "",
        "a91ecjh7": "",
        "P_EFFECT_INFO": "",
        "9bpFf3Ut": "",
        "P_NEED_SWITCH_INFO": "0",
        "P_HIDE_SWITCH_INFO": "",
        "P_SCHEDULE_ID": "0",
        "P_EXT_IMG_PARAM": "",
        "P_CREATEDATE": "2018-05-25 02:48:54",
        "P_UPDATEDATE": "2018-05-25 02:48:54"
    },
    {
        "P_AREA_ID": "20300002",
        "V84mzqoX": "\u30b8\u30e5\u30a8\u30eb\u30d1\u30ec\u30fc\u30c9",
        "3v1qg7Uj": "100",
        "4RnIaUq5": "202",
        "P_DISPORDER": "2",
        "X4mIT5Lc": "4",
        "P_IMG": "",
        "1gDkL6XR": "banner_key_quest_Jewel.png,icon_jewel_king_key.png",
        "P_SOUND_ID": "14",
        "P_POS": "",
        "0I4MtuDa": "",
        "f73FMZua": "",
        "a91ecjh7": "",
        "P_EFFECT_INFO": "",
        "9bpFf3Ut": "",
        "P_NEED_SWITCH_INFO": "0",
        "P_HIDE_SWITCH_INFO": "",
        "P_SCHEDULE_ID": "0",
        "P_EXT_IMG_PARAM": "",
        "P_CREATEDATE": "2018-05-25 02:48:54",
        "P_UPDATEDATE": "2018-05-25 02:48:54"
    },
    {
        "P_AREA_ID": "20300003",
        "V84mzqoX": "\u529b\u306e\u4fee\u7df4\u5834",
        "3v1qg7Uj": "100",
        "4RnIaUq5": "202",
        "P_DISPORDER": "3",
        "X4mIT5Lc": "1",
        "P_IMG": "",
        "1gDkL6XR": "banner_sp_quest_exp_rank.png",
        "P_SOUND_ID": "14",
        "P_POS": "",
        "0I4MtuDa": "",
        "f73FMZua": "",
        "a91ecjh7": "",
        "P_EFFECT_INFO": "",
        "9bpFf3Ut": "",
        "P_NEED_SWITCH_INFO": "0",
        "P_HIDE_SWITCH_INFO": "",
        "P_SCHEDULE_ID": "0",
        "P_EXT_IMG_PARAM": "",
        "P_CREATEDATE": "2018-05-25 02:48:54",
        "P_UPDATEDATE": "2018-05-25 02:48:54"
    },
    {
        "P_AREA_ID": "20300004",
        "V84mzqoX": "\u9032\u5316\u3078\u306e\u9053\u6a19",
        "3v1qg7Uj": "100",
        "4RnIaUq5": "202",
        "P_DISPORDER": "4",
        "X4mIT5Lc": "1",
        "P_IMG": "",
        "1gDkL6XR": "banner_sp_quest_evounit.png",
        "P_SOUND_ID": "14",
        "P_POS": "",
        "0I4MtuDa": "",
        "f73FMZua": "",
        "a91ecjh7": "",
        "P_EFFECT_INFO": "",
        "9bpFf3Ut": "",
        "P_NEED_SWITCH_INFO": "0",
        "P_HIDE_SWITCH_INFO": "",
        "P_SCHEDULE_ID": "0",
        "P_EXT_IMG_PARAM": "",
        "P_CREATEDATE": "2018-05-25 02:48:54",
        "P_UPDATEDATE": "2018-05-25 02:48:54"
    },
    {
        "P_AREA_ID": "20300005",
        "V84mzqoX": "\u9ec4\u91d1\u306b\u8f1d\u304f\u5730",
        "3v1qg7Uj": "100",
        "4RnIaUq5": "202",
        "P_DISPORDER": "5",
        "X4mIT5Lc": "1",
        "P_IMG": "",
        "1gDkL6XR": "banner_sp_quest_zel.png",
        "P_SOUND_ID": "14",
        "P_POS": "",
        "0I4MtuDa": "",
        "f73FMZua": "",
        "a91ecjh7": "",
        "P_EFFECT_INFO": "",
        "9bpFf3Ut": "",
        "P_NEED_SWITCH_INFO": "0",
        "P_HIDE_SWITCH_INFO": "",
        "P_SCHEDULE_ID": "0",
        "P_EXT_IMG_PARAM": "",
        "P_CREATEDATE": "2018-05-25 02:48:54",
        "P_UPDATEDATE": "2018-05-25 02:48:54"
    },
    {
        "P_AREA_ID": "202010101",
        "V84mzqoX": "\u30bb\u30eb\u30bf\u30d3\u30a2\u8fba\u5883",
        "3v1qg7Uj": "100",
        "4RnIaUq5": "2020101",
        "P_DISPORDER": "1",
        "X4mIT5Lc": "2",
        "P_IMG": "",
        "1gDkL6XR": "",
        "P_SOUND_ID": "14",
        "P_POS": "570,664",
        "0I4MtuDa": "",
        "f73FMZua": "",
        "a91ecjh7": "4:202010102@2",
        "P_EFFECT_INFO": "",
        "9bpFf3Ut": "",
        "P_NEED_SWITCH_INFO": "0",
        "P_HIDE_SWITCH_INFO": "",
        "P_SCHEDULE_ID": "0",
        "P_EXT_IMG_PARAM": "",
        "P_CREATEDATE": "2018-05-25 02:48:54",
        "P_UPDATEDATE": "2018-05-25 02:48:54"
    },
    {
        "P_AREA_ID": "202010102",
        "V84mzqoX": "\u30e2\u30eb\u30c7\u30f3\u30ab\u30f3\u30d7\u516c\u9818",
        "3v1qg7Uj": "100",
        "4RnIaUq5": "2020101",
        "P_DISPORDER": "2",
        "X4mIT5Lc": "2",
        "P_IMG": "",
        "1gDkL6XR": "",
        "P_SOUND_ID": "14",
        "P_POS": "260,912",
        "0I4MtuDa": "",
        "f73FMZua": "",
        "a91ecjh7": "2:202010103@4",
        "P_EFFECT_INFO": "",
        "9bpFf3Ut": "",
        "P_NEED_SWITCH_INFO": "12000003",
        "P_HIDE_SWITCH_INFO": "",
        "P_SCHEDULE_ID": "0",
        "P_EXT_IMG_PARAM": "",
        "P_CREATEDATE": "2018-05-25 02:48:54",
        "P_UPDATEDATE": "2018-05-25 02:48:54"
    },
    {
        "P_AREA_ID": "202010103",
        "V84mzqoX": "\u5ec3\u57ce\u30c7\u30ab\u30c6\u30cd\u30a4\u30c8",
        "3v1qg7Uj": "100",
        "4RnIaUq5": "2020101",
        "P_DISPORDER": "3",
        "X4mIT5Lc": "2",
        "P_IMG": "",
        "1gDkL6XR": "",
        "P_SOUND_ID": "14",
        "P_POS": "360,240",
        "0I4MtuDa": "",
        "f73FMZua": "",
        "a91ecjh7": "",
        "P_EFFECT_INFO": "",
        "9bpFf3Ut": "",
        "P_NEED_SWITCH_INFO": "12000006",
        "P_HIDE_SWITCH_INFO": "",
        "P_SCHEDULE_ID": "0",
        "P_EXT_IMG_PARAM": "",
        "P_CREATEDATE": "2018-05-25 02:48:54",
        "P_UPDATEDATE": "2018-05-25 02:48:54"
    },
    {
        "P_AREA_ID": "202020101",
        "V84mzqoX": "\u7363\u4eba\u65cf\u306e\u4f4f\u3080\u9818\u57df",
        "3v1qg7Uj": "100",
        "4RnIaUq5": "2020201",
        "P_DISPORDER": "1",
        "X4mIT5Lc": "2",
        "P_IMG": "",
        "1gDkL6XR": "",
        "P_SOUND_ID": "14",
        "P_POS": "300,980",
        "0I4MtuDa": "",
        "f73FMZua": "",
        "a91ecjh7": "2:202020102@4",
        "P_EFFECT_INFO": "",
        "9bpFf3Ut": "",
        "P_NEED_SWITCH_INFO": "0",
        "P_HIDE_SWITCH_INFO": "",
        "P_SCHEDULE_ID": "0",
        "P_EXT_IMG_PARAM": "",
        "P_CREATEDATE": "2018-05-25 02:48:54",
        "P_UPDATEDATE": "2018-05-25 02:48:54"
    },
    {
        "P_AREA_ID": "202020102",
        "V84mzqoX": "\u30a8\u30eb\u30d5\u65cf\u306e\u8056\u57df",
        "3v1qg7Uj": "100",
        "4RnIaUq5": "2020201",
        "P_DISPORDER": "2",
        "X4mIT5Lc": "2",
        "P_IMG": "",
        "1gDkL6XR": "",
        "P_SOUND_ID": "14",
        "P_POS": "570,790",
        "0I4MtuDa": "",
        "f73FMZua": "",
        "a91ecjh7": "2:202020103@4",
        "P_EFFECT_INFO": "",
        "9bpFf3Ut": "",
        "P_NEED_SWITCH_INFO": "12000052",
        "P_HIDE_SWITCH_INFO": "",
        "P_SCHEDULE_ID": "0",
        "P_EXT_IMG_PARAM": "",
        "P_CREATEDATE": "2018-05-25 02:48:54",
        "P_UPDATEDATE": "2018-05-25 02:48:54"
    },
    {
        "P_AREA_ID": "202020103",
        "V84mzqoX": "\u30a8\u30eb\u30d5\u738b\u57ce\u306e\u88cf\u306e\u68ee",
        "3v1qg7Uj": "100",
        "4RnIaUq5": "2020201",
        "P_DISPORDER": "3",
        "X4mIT5Lc": "2",
        "P_IMG": "",
        "1gDkL6XR": "",
        "P_SOUND_ID": "14",
        "P_POS": "580,440",
        "0I4MtuDa": "",
        "f73FMZua": "",
        "a91ecjh7": "4:202020104@2",
        "P_EFFECT_INFO": "",
        "9bpFf3Ut": "",
        "P_NEED_SWITCH_INFO": "12000054",
        "P_HIDE_SWITCH_INFO": "",
        "P_SCHEDULE_ID": "0",
        "P_EXT_IMG_PARAM": "",
        "P_CREATEDATE": "2018-05-25 02:48:54",
        "P_UPDATEDATE": "2018-05-25 02:48:54"
    },
    {
        "P_AREA_ID": "202020104",
        "V84mzqoX": "\u30a8\u30eb\u30d5\u65cf\u306e\u5e83\u5834",
        "3v1qg7Uj": "100",
        "4RnIaUq5": "2020201",
        "P_DISPORDER": "4",
        "X4mIT5Lc": "2",
        "P_IMG": "",
        "1gDkL6XR": "",
        "P_SOUND_ID": "14",
        "P_POS": "252,650",
        "0I4MtuDa": "",
        "f73FMZua": "",
        "a91ecjh7": "",
        "P_EFFECT_INFO": "",
        "9bpFf3Ut": "",
        "P_NEED_SWITCH_INFO": "12000056",
        "P_HIDE_SWITCH_INFO": "",
        "P_SCHEDULE_ID": "0",
        "P_EXT_IMG_PARAM": "",
        "P_CREATEDATE": "2018-05-25 02:48:54",
        "P_UPDATEDATE": "2018-05-25 02:48:54"
    },
    {
        "P_AREA_ID": "202030101",
        "V84mzqoX": "\u546a\u308f\u308c\u3057\u708e\u93a7",
        "3v1qg7Uj": "100",
        "4RnIaUq5": "20201",
        "P_DISPORDER": "2",
        "X4mIT5Lc": "2",
        "P_IMG": "",
        "1gDkL6XR": "banner_story_quest_3.png,label_story_quest_3.png",
        "P_SOUND_ID": "14",
        "P_POS": "",
        "0I4MtuDa": "",
        "f73FMZua": "",
        "a91ecjh7": "",
        "P_EFFECT_INFO": "",
        "9bpFf3Ut": "1,10@5002012:10@5000522:10@6000522",
        "P_NEED_SWITCH_INFO": "0",
        "P_HIDE_SWITCH_INFO": "",
        "P_SCHEDULE_ID": "0",
        "P_EXT_IMG_PARAM": "\u6211\u3089\u306e\u529b\u306b\u610f\u5fd7\u306f\u7121\u304f\u3001\u6211\u3089\u306e\u8a8d\u8b58\u306b\u5df1\u306f\u7121\u304f\u3002\n\u6211\u3089\u88ab\u9020\u7269\u306a\u308a\u3002\u6545\u306b\u6211\u3089\u306e\u548e\u306b\u7f6a\u306f\u7121\u3057\u2015\u2015\n\u7570\u754c\u30d9\u30af\u30bf\u30b9\u3067\u7e70\u308a\u5e83\u3052\u3089\u308c\u308b\u6a5f\u68b0\u3068\u4eba\u306e\u76f8\u514b\u3002\n\u305d\u306e\u679c\u3066\u306b\u5e83\u304c\u308b\u3082\u306e\u306f\u3001\u9032\u5316\u304b\u7834\u6ec5\u304b\u2015\u2015",
        "P_CREATEDATE": "2018-05-25 02:48:54",
        "P_UPDATEDATE": "2018-05-25 02:48:54"
    },
    {
        "P_AREA_ID": "202040101",
        "V84mzqoX": "\u5e38\u4e16\u306e\u68ee",
        "3v1qg7Uj": "100",
        "4RnIaUq5": "2020401",
        "P_DISPORDER": "1",
        "X4mIT5Lc": "2",
        "P_IMG": "",
        "1gDkL6XR": "",
        "P_SOUND_ID": "14",
        "P_POS": "130,550",
        "0I4MtuDa": "",
        "f73FMZua": "",
        "a91ecjh7": "4:202040102@2",
        "P_EFFECT_INFO": "",
        "9bpFf3Ut": "",
        "P_NEED_SWITCH_INFO": "0",
        "P_HIDE_SWITCH_INFO": "",
        "P_SCHEDULE_ID": "0",
        "P_EXT_IMG_PARAM": "",
        "P_CREATEDATE": "2018-05-25 02:48:54",
        "P_UPDATEDATE": "2018-05-25 02:48:54"
    },
    {
        "P_AREA_ID": "202040102",
        "V84mzqoX": "\u30a8\u30ea\u30cd\u30af\u30c8\u5e73\u91ce",
        "3v1qg7Uj": "100",
        "4RnIaUq5": "2020401",
        "P_DISPORDER": "2",
        "X4mIT5Lc": "2",
        "P_IMG": "",
        "1gDkL6XR": "",
        "P_SOUND_ID": "14",
        "P_POS": "170,800",
        "0I4MtuDa": "",
        "f73FMZua": "",
        "a91ecjh7": "3:202040103@4",
        "P_EFFECT_INFO": "",
        "9bpFf3Ut": "",
        "P_NEED_SWITCH_INFO": "12000150",
        "P_HIDE_SWITCH_INFO": "",
        "P_SCHEDULE_ID": "0",
        "P_EXT_IMG_PARAM": "",
        "P_CREATEDATE": "2018-05-25 02:48:54",
        "P_UPDATEDATE": "2018-05-25 02:48:54"
    },
    {
        "P_AREA_ID": "202040103",
        "V84mzqoX": "\u30a8\u30af\u30e1\u30c8\u5927\u6cb3",
        "3v1qg7Uj": "100",
        "4RnIaUq5": "2020401",
        "P_DISPORDER": "3",
        "X4mIT5Lc": "2",
        "P_IMG": "",
        "1gDkL6XR": "",
        "P_SOUND_ID": "14",
        "P_POS": "450,700",
        "0I4MtuDa": "",
        "f73FMZua": "",
        "a91ecjh7": "2:202040104@4",
        "P_EFFECT_INFO": "",
        "9bpFf3Ut": "",
        "P_NEED_SWITCH_INFO": "12000153",
        "P_HIDE_SWITCH_INFO": "",
        "P_SCHEDULE_ID": "0",
        "P_EXT_IMG_PARAM": "",
        "P_CREATEDATE": "2018-05-25 02:48:54",
        "P_UPDATEDATE": "2018-05-25 02:48:54"
    },
    {
        "P_AREA_ID": "202040104",
        "V84mzqoX": "\u30d0\u30e9\u30af\u6e7f\u5730",
        "3v1qg7Uj": "100",
        "4RnIaUq5": "2020401",
        "P_DISPORDER": "4",
        "X4mIT5Lc": "2",
        "P_IMG": "",
        "1gDkL6XR": "",
        "P_SOUND_ID": "14",
        "P_POS": "550,500",
        "0I4MtuDa": "",
        "f73FMZua": "",
        "a91ecjh7": "3:202040105@4",
        "P_EFFECT_INFO": "",
        "9bpFf3Ut": "",
        "P_NEED_SWITCH_INFO": "12000155",
        "P_HIDE_SWITCH_INFO": "",
        "P_SCHEDULE_ID": "0",
        "P_EXT_IMG_PARAM": "",
        "P_CREATEDATE": "2018-05-25 02:48:54",
        "P_UPDATEDATE": "2018-05-25 02:48:54"
    },
    {
        "P_AREA_ID": "202040105",
        "V84mzqoX": "\u96f7\u68ee\u57df\u30b6\u30eb\u30b8\u30d0",
        "3v1qg7Uj": "100",
        "4RnIaUq5": "2020401",
        "P_DISPORDER": "5",
        "X4mIT5Lc": "2",
        "P_IMG": "",
        "1gDkL6XR": "",
        "P_SOUND_ID": "14",
        "P_POS": "920,400",
        "0I4MtuDa": "",
        "f73FMZua": "",
        "a91ecjh7": "",
        "P_EFFECT_INFO": "",
        "9bpFf3Ut": "",
        "P_NEED_SWITCH_INFO": "12000157",
        "P_HIDE_SWITCH_INFO": "",
        "P_SCHEDULE_ID": "0",
        "P_EXT_IMG_PARAM": "",
        "P_CREATEDATE": "2018-05-25 02:48:54",
        "P_UPDATEDATE": "2018-05-25 02:48:54"
    },
    {
        "P_AREA_ID": "202050101",
        "V84mzqoX": "\u30df\u30d5\u30cd\u306e\u4f8d\u9053",
        "3v1qg7Uj": "100",
        "4RnIaUq5": "20201",
        "P_DISPORDER": "5",
        "X4mIT5Lc": "2",
        "P_IMG": "",
        "1gDkL6XR": "banner_story_quest_5.png,label_story_quest_5.png",
        "P_SOUND_ID": "14",
        "P_POS": "",
        "0I4MtuDa": "",
        "f73FMZua": "",
        "a91ecjh7": "",
        "P_EFFECT_INFO": "",
        "9bpFf3Ut": "1,10@6001812",
        "P_NEED_SWITCH_INFO": "0",
        "P_HIDE_SWITCH_INFO": "",
        "P_SCHEDULE_ID": "0",
        "P_EXT_IMG_PARAM": "\u30b0\u30e9\u30f3\u30ac\u30a4\u30a2\u306b\u73fe\u308c\u3057\u5263\u8c6a\u3001\u30df\u30d5\u30cd\u3002\n\u3053\u308c\u306f\u5f7c\u304c\u9b54\u5200\u300e\u51a5\u9583\u8000\u300f\u3068\u5171\u306b\u6b69\u307f\u7d9a\u3051\u305f\n\u4eba\u751f\u306e\u8a18\u9332\u3067\u3042\u308b\u3002",
        "P_CREATEDATE": "2018-05-25 02:48:54",
        "P_UPDATEDATE": "2018-05-25 02:48:54"
    },
    {
        "P_AREA_ID": "202060101",
        "V84mzqoX": "\u30a2\u30ea\u30b5\u7de8",
        "3v1qg7Uj": "100",
        "4RnIaUq5": "20201",
        "P_DISPORDER": "6",
        "X4mIT5Lc": "2",
        "P_IMG": "",
        "1gDkL6XR": "banner_story_quest_6.png,label_story_quest_6.png",
        "P_SOUND_ID": "14",
        "P_POS": "",
        "0I4MtuDa": "",
        "f73FMZua": "",
        "a91ecjh7": "",
        "P_EFFECT_INFO": "",
        "9bpFf3Ut": "1,10@3000222",
        "P_NEED_SWITCH_INFO": "0",
        "P_HIDE_SWITCH_INFO": "",
        "P_SCHEDULE_ID": "0",
        "P_EXT_IMG_PARAM": "\u516d\u9b54\u5c0e\u306e\uff11\u4eba\u306b\u6570\u3048\u3089\u308c\u308b\u3001\u60c5\u5831\u5c4b\u30a2\u30ea\u30b5\u3002\u5973\u512a\u3055\u306a\u304c\u3089\u306e\u6f14\u6280\u3068\u7f8e\u8c8c\u3067\u591a\u304f\u306e\u7537\u305f\u3061\u3092\u9aa8\u629c\u304d\u306b\u3057\u3066\u304d\u305f\u5f7c\u5973\u304c\u3001\u4f55\u6545\u7a81\u5982\u59ff\u3092\u6d88\u3057\u305f\u306e\u304b\u3001\u305d\u306e\u771f\u76f8\u304c\u4eca\u3001\u660e\u3089\u304b\u3068\u306a\u308b\u3002",
        "P_CREATEDATE": "2018-05-25 02:48:54",
        "P_UPDATEDATE": "2018-05-25 02:48:54"
    },
    {
        "P_AREA_ID": "202070101",
        "V84mzqoX": "\u9b54\u88c5\u5175\u5668\u30a2\u30d9\u30eb\u30ac\u30eb\u30b9",
        "3v1qg7Uj": "100",
        "4RnIaUq5": "201",
        "P_DISPORDER": "2",
        "X4mIT5Lc": "2",
        "P_IMG": "",
        "1gDkL6XR": "banner_story_quest_7.png,label_story_quest_7.png",
        "P_SOUND_ID": "14",
        "P_POS": "",
        "0I4MtuDa": "",
        "f73FMZua": "",
        "a91ecjh7": "",
        "P_EFFECT_INFO": "",
        "9bpFf3Ut": "",
        "P_NEED_SWITCH_INFO": "0",
        "P_HIDE_SWITCH_INFO": "",
        "P_SCHEDULE_ID": "0",
        "P_EXT_IMG_PARAM": "\u4e16\u754c\u5404\u5730\u306b\u6563\u3089\u3070\u308b\u3001\u69d8\u3005\u306a\u7570\u754c\u306e\u7269\u8a9e\u3002\n\u305d\u306e\u3072\u3068\u3064\u3001\u9b54\u88c5\u5175\u5668\u30a2\u30d9\u30eb\u30ac\u30eb\u30b9\u306e\u4f1d\u8aac\u3002\n\u7570\u754c\u3088\u308a\u4f1d\u308f\u308b\u3001\uff13\u4eba\u306e\u6b66\u5177\u3068\u82f1\u96c4\u305f\u3061\u3002\n\u4eca\u3053\u305d\u3001\u305d\u306e\u4f1d\u8aac\u3092\u7d10\u89e3\u3053\u3046\u2015\u2015",
        "P_CREATEDATE": "2018-05-25 02:48:54",
        "P_UPDATEDATE": "2018-05-25 02:48:54"
    }
]