[
    {
        "a5P9fTBM": "1",
        "fywS05nu": "\u30d0\u30c0\u30fb\u30d5\u30a1\u30ca\u306e\u30d1\u30b9\u30ef\u30fc\u30c9",
        "S2gvhA9G": "2",
        "RWB2meJ6": "iron",
        "Hc3P8Y6X": "iron",
        "t5R47iwj": "\u30d1\u30b9\u30b3\u30fc\u30c9\u3092\u5165\u529b\u305b\u3088,4,2:7:3:0,0,0,0"
    },
    {
        "a5P9fTBM": "2",
        "fywS05nu": "\u30d0\u30c0\u30fb\u30d5\u30a1\u30ca\u306e\u914d\u7dda\u30d1\u30ba\u30eb",
        "S2gvhA9G": "1",
        "RWB2meJ6": "code",
        "Hc3P8Y6X": "code",
        "t5R47iwj": "\u914d\u7dda\u3092\u6b63\u3057\u304f\u3064\u306a\u3052,9,9999,8:4:1:3:6:5:2:7:0,0,0,0"
    },
    {
        "a5P9fTBM": "3",
        "fywS05nu": "\u30a4\u30af\u30b9\u30bf\u30b9\u306e\u30d1\u30ba\u30eb",
        "S2gvhA9G": "1",
        "RWB2meJ6": "blueprint_9",
        "Hc3P8Y6X": "blueprint_9",
        "t5R47iwj": "\u6b63\u3057\u3044\u914d\u7f6e\u306b\u4e26\u3073\u66ff\u3048\u3088,9,9999,3:0:6:1:4:7:2:5:8,0,0,0"
    },
    {
        "a5P9fTBM": "4",
        "fywS05nu": "\u30e9\u30f3\u30c9\u30fc\u30eb\u68ee\u306e\u30d1\u30ba\u30eb",
        "S2gvhA9G": "1",
        "RWB2meJ6": "rock",
        "Hc3P8Y6X": "rock",
        "t5R47iwj": "\u6b63\u3057\u3044\u914d\u7f6e\u306b\u4e26\u3073\u66ff\u3048\u3088,16,9999,3:1:14:7:2:15:5:6:0:9:10:11:4:8:12:13,0,0,0"
    },
    {
        "a5P9fTBM": "5",
        "fywS05nu": "\u30e9\u30f3\u30c9\u30fc\u30eb\u6e56\u7554\u306e\u30d1\u30b9\u30ef\u30fc\u30c9",
        "S2gvhA9G": "2",
        "RWB2meJ6": "rock",
        "Hc3P8Y6X": "rock",
        "t5R47iwj": "\u77f3\u7891\u306e\u8b0e\u3092\u89e3\u3051,4,5:13:7:10@14:12:11:15,0:1,0,0"
    },
    {
        "a5P9fTBM": "6",
        "fywS05nu": "\u30d0\u30c0\u30fb\u30d5\u30a1\u30caEx\u7262\u7344\u306e\u30d1\u30b9\u30ef\u30fc\u30c9",
        "S2gvhA9G": "2",
        "RWB2meJ6": "iron",
        "Hc3P8Y6X": "iron",
        "t5R47iwj": "\u30d1\u30b9\u30b3\u30fc\u30c9\u3092\u5165\u529b\u305b\u3088,4,1:5:1:2@0:0:1:1,0:1,0,0"
    }
]