[
    {
        "P_REWARD_LIMIT_ID": "1",
        "P_NAME": "\u653b\u9632\u6226\u30e9\u30f3\u30ad\u30f3\u30b0\u5831\u916c\u671f\u9650",
        "P_EXT_IMG_PARAM": "\u653b\u9632\u6226\u306e\u30e9\u30f3\u30ad\u30f3\u30b0\u5831\u916c\u671f\u9650",
        "VAG57ojT": "2",
        "VDKB0Y5h": "25",
        "P_CREATEDATE": "2018-10-25 05:36:05",
        "P_UPDATEDATE": "2018-10-25 05:36:05"
    }
]