[
    {
        "P_REWARD_LIMIT_ID": "1",
        "P_NAME": "\u5831\u916c\u671f\u9650\u540d\u79f0",
        "P_EXT_IMG_PARAM": "xxxx\u8aac\u660e",
        "VAG57ojT": "1",
        "VDKB0Y5h": "30",
        "P_CREATEDATE": "2017-07-04 15:35:22",
        "P_UPDATEDATE": "2017-07-04 15:35:22"
    }
]