[
    {
        "3L9SmG6b": "100",
        "gvT2ds0Q": "1",
        "nm1USVcx": "20",
        "P_SKILL_NAME": "\u30c6\u30b9\u30c8\u30b9\u30ad\u30eb100",
        "P_GROUP_ID": "1",
        "P_PRIORITY": "1",
        "P_RARE": "1",
        "moWQ30GH": "3",
        "P_PASSIVE_SKILL_GROUP_INFO": "",
        "P_EXT_IMG_PARAM": "",
        "H49qP1tw": "1",
        "97yTNbfr": "1",
        "P_NEED_SWITCH_INFO": "0",
        "P_HIDE_SWITCH_INFO": "0",
        "P_OPEN_SWITCH_INFO": "0",
        "P_CREATEDATE": "2018-02-14 17:20:25",
        "P_UPDATEDATE": "2018-02-14 17:20:25"
    },
    {
        "3L9SmG6b": "110",
        "gvT2ds0Q": "2",
        "nm1USVcx": "30",
        "P_SKILL_NAME": "\u30c6\u30b9\u30c8\u30b9\u30ad\u30eb",
        "P_GROUP_ID": "1",
        "P_PRIORITY": "2",
        "P_RARE": "2",
        "moWQ30GH": "3",
        "P_PASSIVE_SKILL_GROUP_INFO": "111",
        "P_EXT_IMG_PARAM": "",
        "H49qP1tw": "1",
        "97yTNbfr": "3",
        "P_NEED_SWITCH_INFO": "0",
        "P_HIDE_SWITCH_INFO": "0",
        "P_OPEN_SWITCH_INFO": "0",
        "P_CREATEDATE": "2018-02-14 17:20:25",
        "P_UPDATEDATE": "2018-02-14 17:20:25"
    },
    {
        "3L9SmG6b": "120",
        "gvT2ds0Q": "3",
        "nm1USVcx": "40",
        "P_SKILL_NAME": "\u30c6\u30b9\u30c8\u30b9\u30ad\u30eb",
        "P_GROUP_ID": "1",
        "P_PRIORITY": "3",
        "P_RARE": "3",
        "moWQ30GH": "3",
        "P_PASSIVE_SKILL_GROUP_INFO": "222",
        "P_EXT_IMG_PARAM": "",
        "H49qP1tw": "1",
        "97yTNbfr": "4",
        "P_NEED_SWITCH_INFO": "0",
        "P_HIDE_SWITCH_INFO": "0",
        "P_OPEN_SWITCH_INFO": "0",
        "P_CREATEDATE": "2018-02-14 17:20:25",
        "P_UPDATEDATE": "2018-02-14 17:20:25"
    },
    {
        "3L9SmG6b": "10000",
        "gvT2ds0Q": "1",
        "nm1USVcx": "10",
        "P_SKILL_NAME": "\u69cd\uff1a\u6a39\u26053\u30b9\u30ad\u30eb",
        "P_GROUP_ID": "1",
        "P_PRIORITY": "4",
        "P_RARE": "1",
        "moWQ30GH": "3",
        "P_PASSIVE_SKILL_GROUP_INFO": "333",
        "P_EXT_IMG_PARAM": "",
        "H49qP1tw": "1",
        "97yTNbfr": "5",
        "P_NEED_SWITCH_INFO": "0",
        "P_HIDE_SWITCH_INFO": "0",
        "P_OPEN_SWITCH_INFO": "0",
        "P_CREATEDATE": "2018-02-14 17:20:25",
        "P_UPDATEDATE": "2018-02-14 17:20:25"
    },
    {
        "3L9SmG6b": "10001",
        "gvT2ds0Q": "1",
        "nm1USVcx": "10",
        "P_SKILL_NAME": "\u6756\uff1a\u6c34\u26053\u30b9\u30ad\u30eb",
        "P_GROUP_ID": "1",
        "P_PRIORITY": "5",
        "P_RARE": "1",
        "moWQ30GH": "3",
        "P_PASSIVE_SKILL_GROUP_INFO": "",
        "P_EXT_IMG_PARAM": "",
        "H49qP1tw": "1",
        "97yTNbfr": "6",
        "P_NEED_SWITCH_INFO": "0",
        "P_HIDE_SWITCH_INFO": "0",
        "P_OPEN_SWITCH_INFO": "0",
        "P_CREATEDATE": "2018-02-14 17:20:25",
        "P_UPDATEDATE": "2018-02-14 17:20:25"
    },
    {
        "3L9SmG6b": "10002",
        "gvT2ds0Q": "2",
        "nm1USVcx": "20",
        "P_SKILL_NAME": "\u5f13\uff1a\u95c7\u26055\u30b9\u30ad\u30eb",
        "P_GROUP_ID": "1",
        "P_PRIORITY": "6",
        "P_RARE": "1",
        "moWQ30GH": "3",
        "P_PASSIVE_SKILL_GROUP_INFO": "",
        "P_EXT_IMG_PARAM": "",
        "H49qP1tw": "1",
        "97yTNbfr": "6",
        "P_NEED_SWITCH_INFO": "0",
        "P_HIDE_SWITCH_INFO": "0",
        "P_OPEN_SWITCH_INFO": "0",
        "P_CREATEDATE": "2018-02-14 17:20:25",
        "P_UPDATEDATE": "2018-02-14 17:20:25"
    },
    {
        "3L9SmG6b": "10003",
        "gvT2ds0Q": "2",
        "nm1USVcx": "20",
        "P_SKILL_NAME": "\u6226\u65a7\uff1a\u95c7\u26054\u30b9\u30ad\u30eb",
        "P_GROUP_ID": "1",
        "P_PRIORITY": "7",
        "P_RARE": "1",
        "moWQ30GH": "3",
        "P_PASSIVE_SKILL_GROUP_INFO": "",
        "P_EXT_IMG_PARAM": "",
        "H49qP1tw": "1",
        "97yTNbfr": "6",
        "P_NEED_SWITCH_INFO": "0",
        "P_HIDE_SWITCH_INFO": "0",
        "P_OPEN_SWITCH_INFO": "0",
        "P_CREATEDATE": "2018-02-14 17:20:25",
        "P_UPDATEDATE": "2018-02-14 17:20:25"
    },
    {
        "3L9SmG6b": "10004",
        "gvT2ds0Q": "3",
        "nm1USVcx": "30",
        "P_SKILL_NAME": "\u5927\u5263\uff1a\u5149\u26054\u30b9\u30ad\u30eb",
        "P_GROUP_ID": "1",
        "P_PRIORITY": "8",
        "P_RARE": "1",
        "moWQ30GH": "3",
        "P_PASSIVE_SKILL_GROUP_INFO": "",
        "P_EXT_IMG_PARAM": "",
        "H49qP1tw": "1",
        "97yTNbfr": "6",
        "P_NEED_SWITCH_INFO": "0",
        "P_HIDE_SWITCH_INFO": "0",
        "P_OPEN_SWITCH_INFO": "0",
        "P_CREATEDATE": "2018-02-14 17:20:25",
        "P_UPDATEDATE": "2018-02-14 17:20:25"
    },
    {
        "3L9SmG6b": "10005",
        "gvT2ds0Q": "3",
        "nm1USVcx": "30",
        "P_SKILL_NAME": "\u9b54\u6cd5\u9283\uff1a\u96f7\u26054\u30b9\u30ad\u30eb",
        "P_GROUP_ID": "1",
        "P_PRIORITY": "9",
        "P_RARE": "1",
        "moWQ30GH": "3",
        "P_PASSIVE_SKILL_GROUP_INFO": "",
        "P_EXT_IMG_PARAM": "",
        "H49qP1tw": "1",
        "97yTNbfr": "6",
        "P_NEED_SWITCH_INFO": "0",
        "P_HIDE_SWITCH_INFO": "0",
        "P_OPEN_SWITCH_INFO": "0",
        "P_CREATEDATE": "2018-02-14 17:20:25",
        "P_UPDATEDATE": "2018-02-14 17:20:25"
    },
    {
        "3L9SmG6b": "10010201",
        "gvT2ds0Q": "1",
        "nm1USVcx": "10",
        "P_SKILL_NAME": "\u708e\u306e\u529b",
        "P_GROUP_ID": "1",
        "P_PRIORITY": "1",
        "P_RARE": "1",
        "moWQ30GH": "3",
        "P_PASSIVE_SKILL_GROUP_INFO": "1001001",
        "P_EXT_IMG_PARAM": "1:\u653b\u6483\u529b\u30925\uff05\u30a2\u30c3\u30d7",
        "H49qP1tw": "1",
        "97yTNbfr": "1",
        "P_NEED_SWITCH_INFO": "0",
        "P_HIDE_SWITCH_INFO": "0",
        "P_OPEN_SWITCH_INFO": "0",
        "P_CREATEDATE": "2018-02-14 17:20:25",
        "P_UPDATEDATE": "2018-02-14 17:20:25"
    },
    {
        "3L9SmG6b": "10011301",
        "gvT2ds0Q": "2",
        "nm1USVcx": "50",
        "P_SKILL_NAME": "\u9b42\u7114\u306e\u529b",
        "P_GROUP_ID": "1",
        "P_PRIORITY": "2",
        "P_RARE": "2",
        "moWQ30GH": "3",
        "P_PASSIVE_SKILL_GROUP_INFO": "1001002",
        "P_EXT_IMG_PARAM": "1:\u653b\u6483\u529b\u309210\uff05\u30a2\u30c3\u30d7",
        "H49qP1tw": "1",
        "97yTNbfr": "1",
        "P_NEED_SWITCH_INFO": "0",
        "P_HIDE_SWITCH_INFO": "0",
        "P_OPEN_SWITCH_INFO": "0",
        "P_CREATEDATE": "2018-02-14 17:20:25",
        "P_UPDATEDATE": "2018-02-14 17:20:25"
    },
    {
        "3L9SmG6b": "10012401",
        "gvT2ds0Q": "3",
        "nm1USVcx": "100",
        "P_SKILL_NAME": "\u9b42\u71c3\u3086\u308b\u529b",
        "P_GROUP_ID": "1",
        "P_PRIORITY": "3",
        "P_RARE": "3",
        "moWQ30GH": "3",
        "P_PASSIVE_SKILL_GROUP_INFO": "1001003",
        "P_EXT_IMG_PARAM": "1:\u653b\u6483\u529b\u309215\uff05\u30a2\u30c3\u30d7",
        "H49qP1tw": "1",
        "97yTNbfr": "1",
        "P_NEED_SWITCH_INFO": "0",
        "P_HIDE_SWITCH_INFO": "0",
        "P_OPEN_SWITCH_INFO": "0",
        "P_CREATEDATE": "2018-02-14 17:20:25",
        "P_UPDATEDATE": "2018-02-14 17:20:25"
    },
    {
        "3L9SmG6b": "10012402",
        "gvT2ds0Q": "4",
        "nm1USVcx": "200",
        "P_SKILL_NAME": "\u707c\u9b44\u306b\u5bbf\u308b\u529b",
        "P_GROUP_ID": "1",
        "P_PRIORITY": "4",
        "P_RARE": "4",
        "moWQ30GH": "3",
        "P_PASSIVE_SKILL_GROUP_INFO": "1001004",
        "P_EXT_IMG_PARAM": "1:\u653b\u6483\u529b\u309220\uff05\u30a2\u30c3\u30d7",
        "H49qP1tw": "1",
        "97yTNbfr": "1",
        "P_NEED_SWITCH_INFO": "0",
        "P_HIDE_SWITCH_INFO": "0",
        "P_OPEN_SWITCH_INFO": "0",
        "P_CREATEDATE": "2018-02-14 17:20:25",
        "P_UPDATEDATE": "2018-02-14 17:20:25"
    },
    {
        "3L9SmG6b": "10021401",
        "gvT2ds0Q": "2",
        "nm1USVcx": "150",
        "P_SKILL_NAME": "\u5d29\u6253\u306e\u9583\u5203",
        "P_GROUP_ID": "1",
        "P_PRIORITY": "25",
        "P_RARE": "2",
        "moWQ30GH": "3",
        "P_PASSIVE_SKILL_GROUP_INFO": "3020006",
        "P_EXT_IMG_PARAM": "2:\u30af\u30ea\u30c6\u30a3\u30ab\u30eb\u30c0\u30e1\u30fc\u30b8\u309210%\u30a2\u30c3\u30d7",
        "H49qP1tw": "1",
        "97yTNbfr": "2",
        "P_NEED_SWITCH_INFO": "0",
        "P_HIDE_SWITCH_INFO": "0",
        "P_OPEN_SWITCH_INFO": "0",
        "P_CREATEDATE": "2018-02-14 17:20:25",
        "P_UPDATEDATE": "2018-02-14 17:20:25"
    },
    {
        "3L9SmG6b": "10021402",
        "gvT2ds0Q": "3",
        "nm1USVcx": "300",
        "P_SKILL_NAME": "\u754c\u6ec5\u306e\u9583\u5203",
        "P_GROUP_ID": "1",
        "P_PRIORITY": "26",
        "P_RARE": "4",
        "moWQ30GH": "3",
        "P_PASSIVE_SKILL_GROUP_INFO": "3020008",
        "P_EXT_IMG_PARAM": "2:\u30af\u30ea\u30c6\u30a3\u30ab\u30eb\u30c0\u30e1\u30fc\u30b8\u309220%\u30a2\u30c3\u30d7",
        "H49qP1tw": "1",
        "97yTNbfr": "2",
        "P_NEED_SWITCH_INFO": "0",
        "P_HIDE_SWITCH_INFO": "0",
        "P_OPEN_SWITCH_INFO": "0",
        "P_CREATEDATE": "2018-02-14 17:20:25",
        "P_UPDATEDATE": "2018-02-14 17:20:25"
    },
    {
        "3L9SmG6b": "10031301",
        "gvT2ds0Q": "3",
        "nm1USVcx": "150",
        "P_SKILL_NAME": "\u64cd\u708e\u306e\u9663",
        "P_GROUP_ID": "1",
        "P_PRIORITY": "44",
        "P_RARE": "2",
        "moWQ30GH": "3",
        "P_PASSIVE_SKILL_GROUP_INFO": "1005002",
        "P_EXT_IMG_PARAM": "1:\u653b\u6483\u529b\u30fb\u9632\u5fa1\u529b\u309210%\u30a2\u30c3\u30d7",
        "H49qP1tw": "1",
        "97yTNbfr": "1",
        "P_NEED_SWITCH_INFO": "0",
        "P_HIDE_SWITCH_INFO": "0",
        "P_OPEN_SWITCH_INFO": "0",
        "P_CREATEDATE": "2018-02-14 17:20:25",
        "P_UPDATEDATE": "2018-02-14 17:20:25"
    },
    {
        "3L9SmG6b": "10031401",
        "gvT2ds0Q": "4",
        "nm1USVcx": "300",
        "P_SKILL_NAME": "\u81e5\u7114\u306e\u9663",
        "P_GROUP_ID": "1",
        "P_PRIORITY": "45",
        "P_RARE": "3",
        "moWQ30GH": "3",
        "P_PASSIVE_SKILL_GROUP_INFO": "1005003",
        "P_EXT_IMG_PARAM": "1:\u653b\u6483\u529b\u30fb\u9632\u5fa1\u529b\u309215%\u30a2\u30c3\u30d7",
        "H49qP1tw": "1",
        "97yTNbfr": "1",
        "P_NEED_SWITCH_INFO": "0",
        "P_HIDE_SWITCH_INFO": "0",
        "P_OPEN_SWITCH_INFO": "0",
        "P_CREATEDATE": "2018-02-14 17:20:25",
        "P_UPDATEDATE": "2018-02-14 17:20:25"
    },
    {
        "3L9SmG6b": "10031402",
        "gvT2ds0Q": "4",
        "nm1USVcx": "300",
        "P_SKILL_NAME": "\u932c\u5145\u306e\u95d8\u5fd7",
        "P_GROUP_ID": "1",
        "P_PRIORITY": "46",
        "P_RARE": "4",
        "moWQ30GH": "3",
        "P_PASSIVE_SKILL_GROUP_INFO": "1017034",
        "P_EXT_IMG_PARAM": "1:BB\u30b2\u30fc\u30b8\u304c\u6e80\u30bf\u30f3\u6642\u3001\u653b\u6483\u529b\u309225%\u30a2\u30c3\u30d7",
        "H49qP1tw": "1",
        "97yTNbfr": "1",
        "P_NEED_SWITCH_INFO": "0",
        "P_HIDE_SWITCH_INFO": "0",
        "P_OPEN_SWITCH_INFO": "0",
        "P_CREATEDATE": "2018-02-14 17:20:25",
        "P_UPDATEDATE": "2018-02-14 17:20:25"
    },
    {
        "3L9SmG6b": "20016401",
        "gvT2ds0Q": "3",
        "nm1USVcx": "150",
        "P_SKILL_NAME": "\u84bc\u304d\u5b88\u308a",
        "P_GROUP_ID": "1",
        "P_PRIORITY": "12",
        "P_RARE": "3",
        "moWQ30GH": "3",
        "P_PASSIVE_SKILL_GROUP_INFO": "1010002",
        "P_EXT_IMG_PARAM": "1:\u9632\u5fa1\u529b\u30fb\u6700\u5927HP\u309210\uff05\u30a2\u30c3\u30d7",
        "H49qP1tw": "1",
        "97yTNbfr": "1",
        "P_NEED_SWITCH_INFO": "0",
        "P_HIDE_SWITCH_INFO": "0",
        "P_OPEN_SWITCH_INFO": "0",
        "P_CREATEDATE": "2018-02-14 17:20:25",
        "P_UPDATEDATE": "2018-02-14 17:20:25"
    },
    {
        "3L9SmG6b": "20016402",
        "gvT2ds0Q": "4",
        "nm1USVcx": "300",
        "P_SKILL_NAME": "\u63fa\u308b\u304e\u306a\u304d\u84bc\u885b",
        "P_GROUP_ID": "1",
        "P_PRIORITY": "13",
        "P_RARE": "4",
        "moWQ30GH": "3",
        "P_PASSIVE_SKILL_GROUP_INFO": "1010003",
        "P_EXT_IMG_PARAM": "1:\u9632\u5fa1\u529b\u30fb\u6700\u5927HP\u309215\uff05\u30a2\u30c3\u30d7",
        "H49qP1tw": "1",
        "97yTNbfr": "1",
        "P_NEED_SWITCH_INFO": "0",
        "P_HIDE_SWITCH_INFO": "0",
        "P_OPEN_SWITCH_INFO": "0",
        "P_CREATEDATE": "2018-02-14 17:20:25",
        "P_UPDATEDATE": "2018-02-14 17:20:25"
    },
    {
        "3L9SmG6b": "20017201",
        "gvT2ds0Q": "1",
        "nm1USVcx": "10",
        "P_SKILL_NAME": "\u6e05\u6d44\u306e\u5b88\u308a",
        "P_GROUP_ID": "1",
        "P_PRIORITY": "14",
        "P_RARE": "1",
        "moWQ30GH": "3",
        "P_PASSIVE_SKILL_GROUP_INFO": "1003001",
        "P_EXT_IMG_PARAM": "12:\u9b54\u9632\u529b\u30925\uff05\u30a2\u30c3\u30d7",
        "H49qP1tw": "1",
        "97yTNbfr": "1",
        "P_NEED_SWITCH_INFO": "0",
        "P_HIDE_SWITCH_INFO": "0",
        "P_OPEN_SWITCH_INFO": "0",
        "P_CREATEDATE": "2018-02-14 17:20:25",
        "P_UPDATEDATE": "2018-02-14 17:20:25"
    },
    {
        "3L9SmG6b": "20017202",
        "gvT2ds0Q": "2",
        "nm1USVcx": "50",
        "P_SKILL_NAME": "\u546a\u6bd2\u306e\u907f\u5384",
        "P_GROUP_ID": "1",
        "P_PRIORITY": "15",
        "P_RARE": "2",
        "moWQ30GH": "3",
        "P_PASSIVE_SKILL_GROUP_INFO": "8016100",
        "P_EXT_IMG_PARAM": "5:\u546a\u3044\u30fb\u6bd2\u8010\u6027\u309230%\u30a2\u30c3\u30d7",
        "H49qP1tw": "1",
        "97yTNbfr": "5",
        "P_NEED_SWITCH_INFO": "0",
        "P_HIDE_SWITCH_INFO": "0",
        "P_OPEN_SWITCH_INFO": "0",
        "P_CREATEDATE": "2018-02-14 17:20:25",
        "P_UPDATEDATE": "2018-02-14 17:20:25"
    },
    {
        "3L9SmG6b": "20017301",
        "gvT2ds0Q": "2",
        "nm1USVcx": "50",
        "P_SKILL_NAME": "\u8056\u6d44\u306a\u308b\u5b88\u308a",
        "P_GROUP_ID": "1",
        "P_PRIORITY": "16",
        "P_RARE": "2",
        "moWQ30GH": "3",
        "P_PASSIVE_SKILL_GROUP_INFO": "1003002",
        "P_EXT_IMG_PARAM": "12:\u9b54\u9632\u529b\u309210\uff05\u30a2\u30c3\u30d7",
        "H49qP1tw": "1",
        "97yTNbfr": "1",
        "P_NEED_SWITCH_INFO": "0",
        "P_HIDE_SWITCH_INFO": "0",
        "P_OPEN_SWITCH_INFO": "0",
        "P_CREATEDATE": "2018-02-14 17:20:25",
        "P_UPDATEDATE": "2018-02-14 17:20:25"
    },
    {
        "3L9SmG6b": "20017302",
        "gvT2ds0Q": "2",
        "nm1USVcx": "100",
        "P_SKILL_NAME": "\u4f53\u96e3\u306e\u907f\u5384",
        "P_GROUP_ID": "1",
        "P_PRIORITY": "17",
        "P_RARE": "2",
        "moWQ30GH": "3",
        "P_PASSIVE_SKILL_GROUP_INFO": "8016200",
        "P_EXT_IMG_PARAM": "5:\u602a\u6211\u30fb\u5f31\u4f53\u30fb\u75c5\u6c17\u30fb\u9ebb\u75fa\u8010\u6027\u309230%\u30a2\u30c3\u30d7",
        "H49qP1tw": "1",
        "97yTNbfr": "5",
        "P_NEED_SWITCH_INFO": "0",
        "P_HIDE_SWITCH_INFO": "0",
        "P_OPEN_SWITCH_INFO": "0",
        "P_CREATEDATE": "2018-02-14 17:20:25",
        "P_UPDATEDATE": "2018-02-14 17:20:25"
    },
    {
        "3L9SmG6b": "20017401",
        "gvT2ds0Q": "3",
        "nm1USVcx": "100",
        "P_SKILL_NAME": "\u8056\u5c0e\u8a98\u6cbb\u306e\u5b88\u308a",
        "P_GROUP_ID": "1",
        "P_PRIORITY": "18",
        "P_RARE": "3",
        "moWQ30GH": "3",
        "P_PASSIVE_SKILL_GROUP_INFO": "1003003",
        "P_EXT_IMG_PARAM": "12:\u9b54\u9632\u529b\u309215\uff05\u30a2\u30c3\u30d7",
        "H49qP1tw": "1",
        "97yTNbfr": "1",
        "P_NEED_SWITCH_INFO": "0",
        "P_HIDE_SWITCH_INFO": "0",
        "P_OPEN_SWITCH_INFO": "0",
        "P_CREATEDATE": "2018-02-14 17:20:25",
        "P_UPDATEDATE": "2018-02-14 17:20:25"
    },
    {
        "3L9SmG6b": "20017402",
        "gvT2ds0Q": "2",
        "nm1USVcx": "100",
        "P_SKILL_NAME": "\u5fc3\u96e3\u306e\u907f\u5384",
        "P_GROUP_ID": "1",
        "P_PRIORITY": "19",
        "P_RARE": "2",
        "moWQ30GH": "3",
        "P_PASSIVE_SKILL_GROUP_INFO": "8016300",
        "P_EXT_IMG_PARAM": "5:\u96d1\u5ff5\u30fb\u865a\u8131\u30fb\u5e7b\u899a\u30fb\u6df7\u4e71\u8010\u6027\u309230%\u30a2\u30c3\u30d7",
        "H49qP1tw": "1",
        "97yTNbfr": "5",
        "P_NEED_SWITCH_INFO": "0",
        "P_HIDE_SWITCH_INFO": "0",
        "P_OPEN_SWITCH_INFO": "0",
        "P_CREATEDATE": "2018-02-14 17:20:25",
        "P_UPDATEDATE": "2018-02-14 17:20:25"
    },
    {
        "3L9SmG6b": "20017403",
        "gvT2ds0Q": "4",
        "nm1USVcx": "200",
        "P_SKILL_NAME": "\u8056\u5c0e\u795e\u79d8\u306e\u5b88\u308a",
        "P_GROUP_ID": "1",
        "P_PRIORITY": "20",
        "P_RARE": "4",
        "moWQ30GH": "3",
        "P_PASSIVE_SKILL_GROUP_INFO": "1003004",
        "P_EXT_IMG_PARAM": "12:\u9b54\u9632\u529b\u309220\uff05\u30a2\u30c3\u30d7",
        "H49qP1tw": "1",
        "97yTNbfr": "1",
        "P_NEED_SWITCH_INFO": "0",
        "P_HIDE_SWITCH_INFO": "0",
        "P_OPEN_SWITCH_INFO": "0",
        "P_CREATEDATE": "2018-02-14 17:20:25",
        "P_UPDATEDATE": "2018-02-14 17:20:25"
    },
    {
        "3L9SmG6b": "20032201",
        "gvT2ds0Q": "1",
        "nm1USVcx": "50",
        "P_SKILL_NAME": "\u91cd\u6483\u306e\u932c\u77f3",
        "P_GROUP_ID": "1",
        "P_PRIORITY": "47",
        "P_RARE": "2",
        "moWQ30GH": "3",
        "P_PASSIVE_SKILL_GROUP_INFO": "2020001",
        "P_EXT_IMG_PARAM": "3:\u30b9\u30d1\u30fc\u30af\u6642\u3001BC\u51fa\u73fe\u7387\u309210%\u30a2\u30c3\u30d7",
        "H49qP1tw": "1",
        "97yTNbfr": "11",
        "P_NEED_SWITCH_INFO": "0",
        "P_HIDE_SWITCH_INFO": "0",
        "P_OPEN_SWITCH_INFO": "0",
        "P_CREATEDATE": "2018-02-14 17:20:25",
        "P_UPDATEDATE": "2018-02-14 17:20:25"
    },
    {
        "3L9SmG6b": "20032301",
        "gvT2ds0Q": "2",
        "nm1USVcx": "200",
        "P_SKILL_NAME": "\u51cd\u71c3\u306e\u51db\u6b4c",
        "P_GROUP_ID": "1",
        "P_PRIORITY": "48",
        "P_RARE": "2",
        "moWQ30GH": "3",
        "P_PASSIVE_SKILL_GROUP_INFO": "5010001",
        "P_EXT_IMG_PARAM": "6:\u30bf\u30fc\u30f3\u6bce\u306bBB\u30b2\u30fc\u30b8\u3092200\u5897\u52a0",
        "H49qP1tw": "1",
        "97yTNbfr": "6",
        "P_NEED_SWITCH_INFO": "0",
        "P_HIDE_SWITCH_INFO": "0",
        "P_OPEN_SWITCH_INFO": "0",
        "P_CREATEDATE": "2018-02-14 17:20:25",
        "P_UPDATEDATE": "2018-02-14 17:20:25"
    },
    {
        "3L9SmG6b": "20033401",
        "gvT2ds0Q": "2",
        "nm1USVcx": "100",
        "P_SKILL_NAME": "\u5e7b\u75fa\u306e\u51cd\u5203",
        "P_GROUP_ID": "1",
        "P_PRIORITY": "49",
        "P_RARE": "2",
        "moWQ30GH": "3",
        "P_PASSIVE_SKILL_GROUP_INFO": "9020601",
        "P_EXT_IMG_PARAM": "4:10%\u306e\u78ba\u7387\u3067\u5e7b\u899a\u30fb\u9ebb\u75fa\u72b6\u614b\u306b\u3059\u308b",
        "H49qP1tw": "1",
        "97yTNbfr": "4",
        "P_NEED_SWITCH_INFO": "0",
        "P_HIDE_SWITCH_INFO": "0",
        "P_OPEN_SWITCH_INFO": "0",
        "P_CREATEDATE": "2018-02-14 17:20:25",
        "P_UPDATEDATE": "2018-02-14 17:20:25"
    },
    {
        "3L9SmG6b": "20033402",
        "gvT2ds0Q": "4",
        "nm1USVcx": "300",
        "P_SKILL_NAME": "\u95d8\u821e\u306e\u932c\u6b4c",
        "P_GROUP_ID": "1",
        "P_PRIORITY": "50",
        "P_RARE": "3",
        "moWQ30GH": "3",
        "P_PASSIVE_SKILL_GROUP_INFO": "5010002",
        "P_EXT_IMG_PARAM": "6:\u30bf\u30fc\u30f3\u6bce\u306bBB\u30b2\u30fc\u30b8\u3092300\u5897\u52a0",
        "H49qP1tw": "1",
        "97yTNbfr": "6",
        "P_NEED_SWITCH_INFO": "0",
        "P_HIDE_SWITCH_INFO": "0",
        "P_OPEN_SWITCH_INFO": "0",
        "P_CREATEDATE": "2018-02-14 17:20:25",
        "P_UPDATEDATE": "2018-02-14 17:20:25"
    },
    {
        "3L9SmG6b": "20040401",
        "gvT2ds0Q": "4",
        "nm1USVcx": "300",
        "P_SKILL_NAME": "\u5239\u90a3\u306e\u84bc\u6b66",
        "P_GROUP_ID": "1",
        "P_PRIORITY": "62",
        "P_RARE": "4",
        "moWQ30GH": "3",
        "P_PASSIVE_SKILL_GROUP_INFO": "1019304",
        "P_EXT_IMG_PARAM": "1:\u6226\u95d8\u958b\u59cb\u304b\u30893\u30bf\u30fc\u30f3\u3001\u653b\u6483\u529b\u30fb\u9632\u5fa1\u529b\u30fb\u9b54\u9632\u529b\u309215%\u30a2\u30c3\u30d7",
        "H49qP1tw": "1",
        "97yTNbfr": "1",
        "P_NEED_SWITCH_INFO": "0",
        "P_HIDE_SWITCH_INFO": "0",
        "P_OPEN_SWITCH_INFO": "0",
        "P_CREATEDATE": "2018-02-14 17:20:26",
        "P_UPDATEDATE": "2018-02-14 17:20:26"
    },
    {
        "3L9SmG6b": "20040402",
        "gvT2ds0Q": "3",
        "nm1USVcx": "300",
        "P_SKILL_NAME": "\u53cc\u6b66\u306e\u9583\u5203",
        "P_GROUP_ID": "1",
        "P_PRIORITY": "63",
        "P_RARE": "4",
        "moWQ30GH": "3",
        "P_PASSIVE_SKILL_GROUP_INFO": "3020008",
        "P_EXT_IMG_PARAM": "2:\u30af\u30ea\u30c6\u30a3\u30ab\u30eb\u30c0\u30e1\u30fc\u30b8\u309220%\u30a2\u30c3\u30d7",
        "H49qP1tw": "1",
        "97yTNbfr": "2",
        "P_NEED_SWITCH_INFO": "0",
        "P_HIDE_SWITCH_INFO": "0",
        "P_OPEN_SWITCH_INFO": "0",
        "P_CREATEDATE": "2018-02-14 17:20:26",
        "P_UPDATEDATE": "2018-02-14 17:20:26"
    },
    {
        "3L9SmG6b": "30014201",
        "gvT2ds0Q": "1",
        "nm1USVcx": "10",
        "P_SKILL_NAME": "\u69cd\u58c1",
        "P_GROUP_ID": "1",
        "P_PRIORITY": "8",
        "P_RARE": "1",
        "moWQ30GH": "3",
        "P_PASSIVE_SKILL_GROUP_INFO": "1002001",
        "P_EXT_IMG_PARAM": "1:\u9632\u5fa1\u529b\u30925\uff05\u30a2\u30c3\u30d7",
        "H49qP1tw": "1",
        "97yTNbfr": "1",
        "P_NEED_SWITCH_INFO": "0",
        "P_HIDE_SWITCH_INFO": "0",
        "P_OPEN_SWITCH_INFO": "0",
        "P_CREATEDATE": "2018-02-14 17:20:25",
        "P_UPDATEDATE": "2018-02-14 17:20:25"
    },
    {
        "3L9SmG6b": "30014301",
        "gvT2ds0Q": "2",
        "nm1USVcx": "50",
        "P_SKILL_NAME": "\u5b88\u8b77\u9663\u58c1",
        "P_GROUP_ID": "1",
        "P_PRIORITY": "9",
        "P_RARE": "2",
        "moWQ30GH": "3",
        "P_PASSIVE_SKILL_GROUP_INFO": "1002002",
        "P_EXT_IMG_PARAM": "1:\u9632\u5fa1\u529b\u309210\uff05\u30a2\u30c3\u30d7",
        "H49qP1tw": "1",
        "97yTNbfr": "1",
        "P_NEED_SWITCH_INFO": "0",
        "P_HIDE_SWITCH_INFO": "0",
        "P_OPEN_SWITCH_INFO": "0",
        "P_CREATEDATE": "2018-02-14 17:20:25",
        "P_UPDATEDATE": "2018-02-14 17:20:25"
    },
    {
        "3L9SmG6b": "30015401",
        "gvT2ds0Q": "3",
        "nm1USVcx": "100",
        "P_SKILL_NAME": "\u8073\u3048\u3057\u8b77\u58c1",
        "P_GROUP_ID": "1",
        "P_PRIORITY": "10",
        "P_RARE": "3",
        "moWQ30GH": "3",
        "P_PASSIVE_SKILL_GROUP_INFO": "1002003",
        "P_EXT_IMG_PARAM": "1:\u9632\u5fa1\u529b\u309215\uff05\u30a2\u30c3\u30d7",
        "H49qP1tw": "1",
        "97yTNbfr": "1",
        "P_NEED_SWITCH_INFO": "0",
        "P_HIDE_SWITCH_INFO": "0",
        "P_OPEN_SWITCH_INFO": "0",
        "P_CREATEDATE": "2018-02-14 17:20:25",
        "P_UPDATEDATE": "2018-02-14 17:20:25"
    },
    {
        "3L9SmG6b": "30015402",
        "gvT2ds0Q": "4",
        "nm1USVcx": "200",
        "P_SKILL_NAME": "\u93ae\u5ea7\u305b\u3057\u6226\u58c1",
        "P_GROUP_ID": "1",
        "P_PRIORITY": "11",
        "P_RARE": "4",
        "moWQ30GH": "3",
        "P_PASSIVE_SKILL_GROUP_INFO": "1002004",
        "P_EXT_IMG_PARAM": "1:\u9632\u5fa1\u529b\u309220\uff05\u30a2\u30c3\u30d7",
        "H49qP1tw": "1",
        "97yTNbfr": "1",
        "P_NEED_SWITCH_INFO": "0",
        "P_HIDE_SWITCH_INFO": "0",
        "P_OPEN_SWITCH_INFO": "0",
        "P_CREATEDATE": "2018-02-14 17:20:25",
        "P_UPDATEDATE": "2018-02-14 17:20:25"
    },
    {
        "3L9SmG6b": "30023401",
        "gvT2ds0Q": "2",
        "nm1USVcx": "50",
        "P_SKILL_NAME": "\u8056\u6a39\u306e\u7652\u5149",
        "P_GROUP_ID": "1",
        "P_PRIORITY": "30",
        "P_RARE": "2",
        "moWQ30GH": "3",
        "P_PASSIVE_SKILL_GROUP_INFO": "6010101",
        "P_EXT_IMG_PARAM": "7:\u30bf\u30fc\u30f3\u6bce\u306bHP\u3092300~400\u56de\u5fa9",
        "H49qP1tw": "1",
        "97yTNbfr": "7",
        "P_NEED_SWITCH_INFO": "0",
        "P_HIDE_SWITCH_INFO": "0",
        "P_OPEN_SWITCH_INFO": "0",
        "P_CREATEDATE": "2018-02-14 17:20:25",
        "P_UPDATEDATE": "2018-02-14 17:20:25"
    },
    {
        "3L9SmG6b": "30023402",
        "gvT2ds0Q": "2",
        "nm1USVcx": "200",
        "P_SKILL_NAME": "\u92fc\u6b66\u306e\u51f1\u6b4c",
        "P_GROUP_ID": "1",
        "P_PRIORITY": "31",
        "P_RARE": "2",
        "moWQ30GH": "3",
        "P_PASSIVE_SKILL_GROUP_INFO": "5010001",
        "P_EXT_IMG_PARAM": "6:\u30bf\u30fc\u30f3\u6bce\u306bBB\u30b2\u30fc\u30b8\u3092200\u5897\u52a0",
        "H49qP1tw": "1",
        "97yTNbfr": "6",
        "P_NEED_SWITCH_INFO": "0",
        "P_HIDE_SWITCH_INFO": "0",
        "P_OPEN_SWITCH_INFO": "0",
        "P_CREATEDATE": "2018-02-14 17:20:25",
        "P_UPDATEDATE": "2018-02-14 17:20:25"
    },
    {
        "3L9SmG6b": "30034401",
        "gvT2ds0Q": "2",
        "nm1USVcx": "150",
        "P_SKILL_NAME": "\u5927\u6a39\u306e\u5149\u5370",
        "P_GROUP_ID": "1",
        "P_PRIORITY": "51",
        "P_RARE": "2",
        "moWQ30GH": "3",
        "P_PASSIVE_SKILL_GROUP_INFO": "4010001",
        "P_EXT_IMG_PARAM": "13:\u653b\u6483BB\u306e\u5a01\u529b\u309210%\u30a2\u30c3\u30d7",
        "H49qP1tw": "1",
        "97yTNbfr": "13",
        "P_NEED_SWITCH_INFO": "0",
        "P_HIDE_SWITCH_INFO": "0",
        "P_OPEN_SWITCH_INFO": "0",
        "P_CREATEDATE": "2018-02-14 17:20:25",
        "P_UPDATEDATE": "2018-02-14 17:20:25"
    },
    {
        "3L9SmG6b": "30034402",
        "gvT2ds0Q": "3",
        "nm1USVcx": "300",
        "P_SKILL_NAME": "\u60a0\u6b66\u306e\u5149\u5370",
        "P_GROUP_ID": "1",
        "P_PRIORITY": "52",
        "P_RARE": "4",
        "moWQ30GH": "3",
        "P_PASSIVE_SKILL_GROUP_INFO": "4010003",
        "P_EXT_IMG_PARAM": "13:\u653b\u6483BB\u306e\u5a01\u529b\u309220%\u30a2\u30c3\u30d7",
        "H49qP1tw": "1",
        "97yTNbfr": "13",
        "P_NEED_SWITCH_INFO": "0",
        "P_HIDE_SWITCH_INFO": "0",
        "P_OPEN_SWITCH_INFO": "0",
        "P_CREATEDATE": "2018-02-14 17:20:25",
        "P_UPDATEDATE": "2018-02-14 17:20:25"
    },
    {
        "3L9SmG6b": "30038301",
        "gvT2ds0Q": "2",
        "nm1USVcx": "150",
        "P_SKILL_NAME": "\u98db\u5fd7\u306e\u932c\u77f3",
        "P_GROUP_ID": "1",
        "P_PRIORITY": "59",
        "P_RARE": "2",
        "moWQ30GH": "3",
        "P_PASSIVE_SKILL_GROUP_INFO": "7000001",
        "P_EXT_IMG_PARAM": "3:BC\u51fa\u73fe\u7387\u309210%\u30a2\u30c3\u30d7",
        "H49qP1tw": "1",
        "97yTNbfr": "3",
        "P_NEED_SWITCH_INFO": "0",
        "P_HIDE_SWITCH_INFO": "0",
        "P_OPEN_SWITCH_INFO": "0",
        "P_CREATEDATE": "2018-02-14 17:20:25",
        "P_UPDATEDATE": "2018-02-14 17:20:25"
    },
    {
        "3L9SmG6b": "30039401",
        "gvT2ds0Q": "2",
        "nm1USVcx": "300",
        "P_SKILL_NAME": "\u6708\u5149\u306e\u932c\u7652\u77f3",
        "P_GROUP_ID": "1",
        "P_PRIORITY": "60",
        "P_RARE": "2",
        "moWQ30GH": "3",
        "P_PASSIVE_SKILL_GROUP_INFO": "7050000",
        "P_EXT_IMG_PARAM": "3:BC\u30fbHC\u51fa\u73fe\u7387\u30925%\u30a2\u30c3\u30d7",
        "H49qP1tw": "1",
        "97yTNbfr": "3",
        "P_NEED_SWITCH_INFO": "0",
        "P_HIDE_SWITCH_INFO": "0",
        "P_OPEN_SWITCH_INFO": "0",
        "P_CREATEDATE": "2018-02-14 17:20:25",
        "P_UPDATEDATE": "2018-02-14 17:20:25"
    },
    {
        "3L9SmG6b": "30039402",
        "gvT2ds0Q": "4",
        "nm1USVcx": "500",
        "P_SKILL_NAME": "\u6708\u5f71\u306e\u6b66",
        "P_GROUP_ID": "1",
        "P_PRIORITY": "61",
        "P_RARE": "3",
        "moWQ30GH": "3",
        "P_PASSIVE_SKILL_GROUP_INFO": "1015002",
        "P_EXT_IMG_PARAM": "1:\u5168\u80fd\u529b\u309210%\u30a2\u30c3\u30d7",
        "H49qP1tw": "1",
        "97yTNbfr": "1",
        "P_NEED_SWITCH_INFO": "0",
        "P_HIDE_SWITCH_INFO": "0",
        "P_OPEN_SWITCH_INFO": "0",
        "P_CREATEDATE": "2018-02-14 17:20:26",
        "P_UPDATEDATE": "2018-02-14 17:20:26"
    },
    {
        "3L9SmG6b": "40013301",
        "gvT2ds0Q": "1",
        "nm1USVcx": "30",
        "P_SKILL_NAME": "\u96f7\u82b1",
        "P_GROUP_ID": "1",
        "P_PRIORITY": "5",
        "P_RARE": "1",
        "moWQ30GH": "3",
        "P_PASSIVE_SKILL_GROUP_INFO": "2010000",
        "P_EXT_IMG_PARAM": "11:\u30b9\u30d1\u30fc\u30af\u30c0\u30e1\u30fc\u30b8\u30925\uff05\u30a2\u30c3\u30d7",
        "H49qP1tw": "1",
        "97yTNbfr": "11",
        "P_NEED_SWITCH_INFO": "0",
        "P_HIDE_SWITCH_INFO": "0",
        "P_OPEN_SWITCH_INFO": "0",
        "P_CREATEDATE": "2018-02-14 17:20:25",
        "P_UPDATEDATE": "2018-02-14 17:20:25"
    },
    {
        "3L9SmG6b": "40013401",
        "gvT2ds0Q": "2",
        "nm1USVcx": "100",
        "P_SKILL_NAME": "\u5954\u308b\u9cf4\u82b1",
        "P_GROUP_ID": "1",
        "P_PRIORITY": "6",
        "P_RARE": "2",
        "moWQ30GH": "3",
        "P_PASSIVE_SKILL_GROUP_INFO": "2010001",
        "P_EXT_IMG_PARAM": "11:\u30b9\u30d1\u30fc\u30af\u30c0\u30e1\u30fc\u30b8\u309210\uff05\u30a2\u30c3\u30d7",
        "H49qP1tw": "1",
        "97yTNbfr": "11",
        "P_NEED_SWITCH_INFO": "0",
        "P_HIDE_SWITCH_INFO": "0",
        "P_OPEN_SWITCH_INFO": "0",
        "P_CREATEDATE": "2018-02-14 17:20:25",
        "P_UPDATEDATE": "2018-02-14 17:20:25"
    },
    {
        "3L9SmG6b": "40013402",
        "gvT2ds0Q": "3",
        "nm1USVcx": "200",
        "P_SKILL_NAME": "\u5207\u308a\u88c2\u304f\u8fc5\u82b1",
        "P_GROUP_ID": "1",
        "P_PRIORITY": "7",
        "P_RARE": "3",
        "moWQ30GH": "3",
        "P_PASSIVE_SKILL_GROUP_INFO": "2010002",
        "P_EXT_IMG_PARAM": "11:\u30b9\u30d1\u30fc\u30af\u30c0\u30e1\u30fc\u30b8\u309215\uff05\u30a2\u30c3\u30d7",
        "H49qP1tw": "1",
        "97yTNbfr": "11",
        "P_NEED_SWITCH_INFO": "0",
        "P_HIDE_SWITCH_INFO": "0",
        "P_OPEN_SWITCH_INFO": "0",
        "P_CREATEDATE": "2018-02-14 17:20:25",
        "P_UPDATEDATE": "2018-02-14 17:20:25"
    },
    {
        "3L9SmG6b": "40024301",
        "gvT2ds0Q": "1",
        "nm1USVcx": "50",
        "P_SKILL_NAME": "\u7a7f\u5f3e\u306e\u932c\u77f3",
        "P_GROUP_ID": "1",
        "P_PRIORITY": "32",
        "P_RARE": "1",
        "moWQ30GH": "3",
        "P_PASSIVE_SKILL_GROUP_INFO": "7000000",
        "P_EXT_IMG_PARAM": "3:BC\u51fa\u73fe\u7387\u30925%\u30a2\u30c3\u30d7",
        "H49qP1tw": "1",
        "97yTNbfr": "3",
        "P_NEED_SWITCH_INFO": "0",
        "P_HIDE_SWITCH_INFO": "0",
        "P_OPEN_SWITCH_INFO": "0",
        "P_CREATEDATE": "2018-02-14 17:20:25",
        "P_UPDATEDATE": "2018-02-14 17:20:25"
    },
    {
        "3L9SmG6b": "40024302",
        "gvT2ds0Q": "2",
        "nm1USVcx": "150",
        "P_SKILL_NAME": "\u9583\u6483\u306e\u932c\u77f3",
        "P_GROUP_ID": "1",
        "P_PRIORITY": "33",
        "P_RARE": "2",
        "moWQ30GH": "3",
        "P_PASSIVE_SKILL_GROUP_INFO": "7000001",
        "P_EXT_IMG_PARAM": "3:BC\u51fa\u73fe\u7387\u309210%\u30a2\u30c3\u30d7",
        "H49qP1tw": "1",
        "97yTNbfr": "3",
        "P_NEED_SWITCH_INFO": "0",
        "P_HIDE_SWITCH_INFO": "0",
        "P_OPEN_SWITCH_INFO": "0",
        "P_CREATEDATE": "2018-02-14 17:20:25",
        "P_UPDATEDATE": "2018-02-14 17:20:25"
    },
    {
        "3L9SmG6b": "40025401",
        "gvT2ds0Q": "2",
        "nm1USVcx": "150",
        "P_SKILL_NAME": "\u91cd\u6fc0\u306e\u932c\u6b4c",
        "P_GROUP_ID": "1",
        "P_PRIORITY": "34",
        "P_RARE": "3",
        "moWQ30GH": "3",
        "P_PASSIVE_SKILL_GROUP_INFO": "5070003",
        "P_EXT_IMG_PARAM": "6:\u30b9\u30d1\u30fc\u30af\u6642\u300150%\u306e\u78ba\u7387\u3067BB\u30b2\u30fc\u30b8\u3092100\u5897\u52a0\uff081\u30bf\u30fc\u30f33\u56de\u307e\u3067\uff09",
        "H49qP1tw": "1",
        "97yTNbfr": "6",
        "P_NEED_SWITCH_INFO": "0",
        "P_HIDE_SWITCH_INFO": "0",
        "P_OPEN_SWITCH_INFO": "0",
        "P_CREATEDATE": "2018-02-14 17:20:25",
        "P_UPDATEDATE": "2018-02-14 17:20:25"
    },
    {
        "3L9SmG6b": "40025402",
        "gvT2ds0Q": "2",
        "nm1USVcx": "200",
        "P_SKILL_NAME": "\u8f5f\u932c\u306e\u5e1d\u51a0",
        "P_GROUP_ID": "1",
        "P_PRIORITY": "35",
        "P_RARE": "4",
        "moWQ30GH": "3",
        "P_PASSIVE_SKILL_GROUP_INFO": "5050004",
        "P_EXT_IMG_PARAM": "6:BC\u7372\u5f97\u6642\u306e\u5897\u52a0\u91cf\u309225%\u30a2\u30c3\u30d7",
        "H49qP1tw": "1",
        "97yTNbfr": "6",
        "P_NEED_SWITCH_INFO": "0",
        "P_HIDE_SWITCH_INFO": "0",
        "P_OPEN_SWITCH_INFO": "0",
        "P_CREATEDATE": "2018-02-14 17:20:25",
        "P_UPDATEDATE": "2018-02-14 17:20:25"
    },
    {
        "3L9SmG6b": "40027201",
        "gvT2ds0Q": "1",
        "nm1USVcx": "10",
        "P_SKILL_NAME": "\u52c7\u6c17\u306e\u9583\u6483",
        "P_GROUP_ID": "1",
        "P_PRIORITY": "39",
        "P_RARE": "1",
        "moWQ30GH": "3",
        "P_PASSIVE_SKILL_GROUP_INFO": "3010005",
        "P_EXT_IMG_PARAM": "2:\u30af\u30ea\u30c6\u30a3\u30ab\u30eb\u7387\u30923%\u30a2\u30c3\u30d7",
        "H49qP1tw": "1",
        "97yTNbfr": "2",
        "P_NEED_SWITCH_INFO": "0",
        "P_HIDE_SWITCH_INFO": "0",
        "P_OPEN_SWITCH_INFO": "0",
        "P_CREATEDATE": "2018-02-14 17:20:25",
        "P_UPDATEDATE": "2018-02-14 17:20:25"
    },
    {
        "3L9SmG6b": "40028301",
        "gvT2ds0Q": "1",
        "nm1USVcx": "100",
        "P_SKILL_NAME": "\u70c8\u7834\u306e\u9583\u6483",
        "P_GROUP_ID": "1",
        "P_PRIORITY": "40",
        "P_RARE": "2",
        "moWQ30GH": "3",
        "P_PASSIVE_SKILL_GROUP_INFO": "3010000",
        "P_EXT_IMG_PARAM": "2:\u30af\u30ea\u30c6\u30a3\u30ab\u30eb\u7387\u30925%\u30a2\u30c3\u30d7",
        "H49qP1tw": "1",
        "97yTNbfr": "2",
        "P_NEED_SWITCH_INFO": "0",
        "P_HIDE_SWITCH_INFO": "0",
        "P_OPEN_SWITCH_INFO": "0",
        "P_CREATEDATE": "2018-02-14 17:20:25",
        "P_UPDATEDATE": "2018-02-14 17:20:25"
    },
    {
        "3L9SmG6b": "40029401",
        "gvT2ds0Q": "2",
        "nm1USVcx": "150",
        "P_SKILL_NAME": "\u81f3\u5929\u306e\u9583\u5203",
        "P_GROUP_ID": "1",
        "P_PRIORITY": "41",
        "P_RARE": "2",
        "moWQ30GH": "3",
        "P_PASSIVE_SKILL_GROUP_INFO": "3020006",
        "P_EXT_IMG_PARAM": "2:\u30af\u30ea\u30c6\u30a3\u30ab\u30eb\u30c0\u30e1\u30fc\u30b8\u309210%\u30a2\u30c3\u30d7",
        "H49qP1tw": "1",
        "97yTNbfr": "2",
        "P_NEED_SWITCH_INFO": "0",
        "P_HIDE_SWITCH_INFO": "0",
        "P_OPEN_SWITCH_INFO": "0",
        "P_CREATEDATE": "2018-02-14 17:20:25",
        "P_UPDATEDATE": "2018-02-14 17:20:25"
    },
    {
        "3L9SmG6b": "50022301",
        "gvT2ds0Q": "2",
        "nm1USVcx": "30",
        "P_SKILL_NAME": "\u7815\u5149\u306e\u9663",
        "P_GROUP_ID": "1",
        "P_PRIORITY": "27",
        "P_RARE": "2",
        "moWQ30GH": "3",
        "P_PASSIVE_SKILL_GROUP_INFO": "1005001",
        "P_EXT_IMG_PARAM": "1:\u653b\u6483\u529b\u30fb\u9632\u5fa1\u529b\u30925%\u30a2\u30c3\u30d7",
        "H49qP1tw": "1",
        "97yTNbfr": "1",
        "P_NEED_SWITCH_INFO": "0",
        "P_HIDE_SWITCH_INFO": "0",
        "P_OPEN_SWITCH_INFO": "0",
        "P_CREATEDATE": "2018-02-14 17:20:25",
        "P_UPDATEDATE": "2018-02-14 17:20:25"
    },
    {
        "3L9SmG6b": "50022401",
        "gvT2ds0Q": "3",
        "nm1USVcx": "150",
        "P_SKILL_NAME": "\u653b\u9632\u306e\u9663",
        "P_GROUP_ID": "1",
        "P_PRIORITY": "28",
        "P_RARE": "3",
        "moWQ30GH": "3",
        "P_PASSIVE_SKILL_GROUP_INFO": "1005002",
        "P_EXT_IMG_PARAM": "1:\u653b\u6483\u529b\u30fb\u9632\u5fa1\u529b\u309210%\u30a2\u30c3\u30d7",
        "H49qP1tw": "1",
        "97yTNbfr": "1",
        "P_NEED_SWITCH_INFO": "0",
        "P_HIDE_SWITCH_INFO": "0",
        "P_OPEN_SWITCH_INFO": "0",
        "P_CREATEDATE": "2018-02-14 17:20:25",
        "P_UPDATEDATE": "2018-02-14 17:20:25"
    },
    {
        "3L9SmG6b": "50022402",
        "gvT2ds0Q": "4",
        "nm1USVcx": "300",
        "P_SKILL_NAME": "\u8056\u65ad\u306e\u9663",
        "P_GROUP_ID": "1",
        "P_PRIORITY": "29",
        "P_RARE": "4",
        "moWQ30GH": "3",
        "P_PASSIVE_SKILL_GROUP_INFO": "1005003",
        "P_EXT_IMG_PARAM": "1:\u653b\u6483\u529b\u30fb\u9632\u5fa1\u529b\u309215%\u30a2\u30c3\u30d7",
        "H49qP1tw": "1",
        "97yTNbfr": "1",
        "P_NEED_SWITCH_INFO": "0",
        "P_HIDE_SWITCH_INFO": "0",
        "P_OPEN_SWITCH_INFO": "0",
        "P_CREATEDATE": "2018-02-14 17:20:25",
        "P_UPDATEDATE": "2018-02-14 17:20:25"
    },
    {
        "3L9SmG6b": "50026401",
        "gvT2ds0Q": "2",
        "nm1USVcx": "150",
        "P_SKILL_NAME": "\u7834\u58ca\u306e\u5149\u5370",
        "P_GROUP_ID": "1",
        "P_PRIORITY": "36",
        "P_RARE": "2",
        "moWQ30GH": "3",
        "P_PASSIVE_SKILL_GROUP_INFO": "4010001",
        "P_EXT_IMG_PARAM": "13:\u653b\u6483BB\u306e\u5a01\u529b\u309210%\u30a2\u30c3\u30d7",
        "H49qP1tw": "1",
        "97yTNbfr": "13",
        "P_NEED_SWITCH_INFO": "0",
        "P_HIDE_SWITCH_INFO": "0",
        "P_OPEN_SWITCH_INFO": "0",
        "P_CREATEDATE": "2018-02-14 17:20:25",
        "P_UPDATEDATE": "2018-02-14 17:20:25"
    },
    {
        "3L9SmG6b": "50026402",
        "gvT2ds0Q": "3",
        "nm1USVcx": "300",
        "P_SKILL_NAME": "\u8987\u976d\u306e\u5149\u5370",
        "P_GROUP_ID": "1",
        "P_PRIORITY": "37",
        "P_RARE": "4",
        "moWQ30GH": "3",
        "P_PASSIVE_SKILL_GROUP_INFO": "4010003",
        "P_EXT_IMG_PARAM": "13:\u653b\u6483BB\u306e\u5a01\u529b\u309220%\u30a2\u30c3\u30d7",
        "H49qP1tw": "1",
        "97yTNbfr": "13",
        "P_NEED_SWITCH_INFO": "0",
        "P_HIDE_SWITCH_INFO": "0",
        "P_OPEN_SWITCH_INFO": "0",
        "P_CREATEDATE": "2018-02-14 17:20:25",
        "P_UPDATEDATE": "2018-02-14 17:20:25"
    },
    {
        "3L9SmG6b": "50026403",
        "gvT2ds0Q": "5",
        "nm1USVcx": "750",
        "P_SKILL_NAME": "\u6975\u5149\u306e\u6b66",
        "P_GROUP_ID": "1",
        "P_PRIORITY": "38",
        "P_RARE": "4",
        "moWQ30GH": "3",
        "P_PASSIVE_SKILL_GROUP_INFO": "1015003",
        "P_EXT_IMG_PARAM": "1:\u5168\u80fd\u529b\u309215%\u30a2\u30c3\u30d7",
        "H49qP1tw": "1",
        "97yTNbfr": "1",
        "P_NEED_SWITCH_INFO": "0",
        "P_HIDE_SWITCH_INFO": "0",
        "P_OPEN_SWITCH_INFO": "0",
        "P_CREATEDATE": "2018-02-14 17:20:25",
        "P_UPDATEDATE": "2018-02-14 17:20:25"
    },
    {
        "3L9SmG6b": "50030401",
        "gvT2ds0Q": "2",
        "nm1USVcx": "100",
        "P_SKILL_NAME": "\u9583\u722a\u306e\u82b1",
        "P_GROUP_ID": "1",
        "P_PRIORITY": "42",
        "P_RARE": "2",
        "moWQ30GH": "3",
        "P_PASSIVE_SKILL_GROUP_INFO": "2010001",
        "P_EXT_IMG_PARAM": "11:\u30b9\u30d1\u30fc\u30af\u30c0\u30e1\u30fc\u30b8\u309210\uff05\u30a2\u30c3\u30d7",
        "H49qP1tw": "1",
        "97yTNbfr": "11",
        "P_NEED_SWITCH_INFO": "0",
        "P_HIDE_SWITCH_INFO": "0",
        "P_OPEN_SWITCH_INFO": "0",
        "P_CREATEDATE": "2018-02-14 17:20:25",
        "P_UPDATEDATE": "2018-02-14 17:20:25"
    },
    {
        "3L9SmG6b": "50030402",
        "gvT2ds0Q": "3",
        "nm1USVcx": "200",
        "P_SKILL_NAME": "\u65ac\u5149\u306e\u5486\u82b1",
        "P_GROUP_ID": "1",
        "P_PRIORITY": "43",
        "P_RARE": "3",
        "moWQ30GH": "3",
        "P_PASSIVE_SKILL_GROUP_INFO": "2010002",
        "P_EXT_IMG_PARAM": "11:\u30b9\u30d1\u30fc\u30af\u30c0\u30e1\u30fc\u30b8\u309215\uff05\u30a2\u30c3\u30d7",
        "H49qP1tw": "1",
        "97yTNbfr": "11",
        "P_NEED_SWITCH_INFO": "0",
        "P_HIDE_SWITCH_INFO": "0",
        "P_OPEN_SWITCH_INFO": "0",
        "P_CREATEDATE": "2018-02-14 17:20:25",
        "P_UPDATEDATE": "2018-02-14 17:20:25"
    },
    {
        "3L9SmG6b": "50036301",
        "gvT2ds0Q": "3",
        "nm1USVcx": "150",
        "P_SKILL_NAME": "\u656c\u8654\u306a\u308b\u8b77\u5370",
        "P_GROUP_ID": "1",
        "P_PRIORITY": "55",
        "P_RARE": "2",
        "moWQ30GH": "3",
        "P_PASSIVE_SKILL_GROUP_INFO": "1010002",
        "P_EXT_IMG_PARAM": "1:\u9b54\u9632\u529b\u30fb\u6700\u5927HP\u309210\uff05\u30a2\u30c3\u30d7",
        "H49qP1tw": "1",
        "97yTNbfr": "1",
        "P_NEED_SWITCH_INFO": "0",
        "P_HIDE_SWITCH_INFO": "0",
        "P_OPEN_SWITCH_INFO": "0",
        "P_CREATEDATE": "2018-02-14 17:20:25",
        "P_UPDATEDATE": "2018-02-14 17:20:25"
    },
    {
        "3L9SmG6b": "50036302",
        "gvT2ds0Q": "4",
        "nm1USVcx": "300",
        "P_SKILL_NAME": "\u5149\u6167\u306e\u6cbb\u7652",
        "P_GROUP_ID": "1",
        "P_PRIORITY": "56",
        "P_RARE": "3",
        "moWQ30GH": "3",
        "P_PASSIVE_SKILL_GROUP_INFO": "6010102",
        "P_EXT_IMG_PARAM": "7:\u30bf\u30fc\u30f3\u6bce\u306bHP\u3092400~500\u56de\u5fa9",
        "H49qP1tw": "1",
        "97yTNbfr": "7",
        "P_NEED_SWITCH_INFO": "0",
        "P_HIDE_SWITCH_INFO": "0",
        "P_OPEN_SWITCH_INFO": "0",
        "P_CREATEDATE": "2018-02-14 17:20:25",
        "P_UPDATEDATE": "2018-02-14 17:20:25"
    },
    {
        "3L9SmG6b": "50037401",
        "gvT2ds0Q": "4",
        "nm1USVcx": "100",
        "P_SKILL_NAME": "\u53e1\u667a\u306e\u8b77\u5370",
        "P_GROUP_ID": "1",
        "P_PRIORITY": "57",
        "P_RARE": "4",
        "moWQ30GH": "3",
        "P_PASSIVE_SKILL_GROUP_INFO": "1010003",
        "P_EXT_IMG_PARAM": "1:\u9b54\u9632\u529b\u30fb\u6700\u5927HP\u309215\uff05\u30a2\u30c3\u30d7",
        "H49qP1tw": "1",
        "97yTNbfr": "1",
        "P_NEED_SWITCH_INFO": "0",
        "P_HIDE_SWITCH_INFO": "0",
        "P_OPEN_SWITCH_INFO": "0",
        "P_CREATEDATE": "2018-02-14 17:20:25",
        "P_UPDATEDATE": "2018-02-14 17:20:25"
    },
    {
        "3L9SmG6b": "50037402",
        "gvT2ds0Q": "4",
        "nm1USVcx": "300",
        "P_SKILL_NAME": "\u4e07\u969c\u306e\u907f\u5384",
        "P_GROUP_ID": "1",
        "P_PRIORITY": "58",
        "P_RARE": "4",
        "moWQ30GH": "3",
        "P_PASSIVE_SKILL_GROUP_INFO": "8017000",
        "P_EXT_IMG_PARAM": "5:\u6bd2\u30fb\u546a\u3044\u30fb\u602a\u6211\u30fb\u5f31\u4f53\u30fb\u75c5\u6c17\u30fb\u9ebb\u75fa\u30fb\u96d1\u5ff5\u30fb\u865a\u8131\u30fb\u5e7b\u899a\u30fb\u6df7\u4e71\u8010\u6027\u309225%\u30a2\u30c3\u30d7",
        "H49qP1tw": "1",
        "97yTNbfr": "5",
        "P_NEED_SWITCH_INFO": "0",
        "P_HIDE_SWITCH_INFO": "0",
        "P_OPEN_SWITCH_INFO": "0",
        "P_CREATEDATE": "2018-02-14 17:20:25",
        "P_UPDATEDATE": "2018-02-14 17:20:25"
    },
    {
        "3L9SmG6b": "60018401",
        "gvT2ds0Q": "1",
        "nm1USVcx": "30",
        "P_SKILL_NAME": "\u95c7\u306b\u7a7f\u305f\u308c\u308b\u546a\u8a5b",
        "P_GROUP_ID": "1",
        "P_PRIORITY": "21",
        "P_RARE": "1",
        "moWQ30GH": "3",
        "P_PASSIVE_SKILL_GROUP_INFO": "9020501",
        "P_EXT_IMG_PARAM": "4:10%\u306e\u78ba\u7387\u3067\u5f31\u4f53\u30fb\u546a\u3044\u72b6\u614b\u306b\u3059\u308b",
        "H49qP1tw": "1",
        "97yTNbfr": "4",
        "P_NEED_SWITCH_INFO": "0",
        "P_HIDE_SWITCH_INFO": "0",
        "P_OPEN_SWITCH_INFO": "0",
        "P_CREATEDATE": "2018-02-14 17:20:25",
        "P_UPDATEDATE": "2018-02-14 17:20:25"
    },
    {
        "3L9SmG6b": "60018402",
        "gvT2ds0Q": "2",
        "nm1USVcx": "150",
        "P_SKILL_NAME": "\u9b54\u5f13\u306e\u6226\u6b4c",
        "P_GROUP_ID": "1",
        "P_PRIORITY": "22",
        "P_RARE": "2",
        "moWQ30GH": "3",
        "P_PASSIVE_SKILL_GROUP_INFO": "5020003",
        "P_EXT_IMG_PARAM": "6:\u653b\u6483\u6642\u300150\uff05\u306e\u78ba\u7387\u3067BB\u30b2\u30fc\u30b8\u3092200\u5897\u52a0",
        "H49qP1tw": "1",
        "97yTNbfr": "6",
        "P_NEED_SWITCH_INFO": "0",
        "P_HIDE_SWITCH_INFO": "0",
        "P_OPEN_SWITCH_INFO": "0",
        "P_CREATEDATE": "2018-02-14 17:20:25",
        "P_UPDATEDATE": "2018-02-14 17:20:25"
    },
    {
        "3L9SmG6b": "60019301",
        "gvT2ds0Q": "1",
        "nm1USVcx": "100",
        "P_SKILL_NAME": "\u9ed2\u304d\u9583\u6483",
        "P_GROUP_ID": "1",
        "P_PRIORITY": "23",
        "P_RARE": "2",
        "moWQ30GH": "3",
        "P_PASSIVE_SKILL_GROUP_INFO": "3010000",
        "P_EXT_IMG_PARAM": "2:\u30af\u30ea\u30c6\u30a3\u30ab\u30eb\u7387\u30925\uff05\u30a2\u30c3\u30d7",
        "H49qP1tw": "1",
        "97yTNbfr": "2",
        "P_NEED_SWITCH_INFO": "0",
        "P_HIDE_SWITCH_INFO": "0",
        "P_OPEN_SWITCH_INFO": "0",
        "P_CREATEDATE": "2018-02-14 17:20:25",
        "P_UPDATEDATE": "2018-02-14 17:20:25"
    },
    {
        "3L9SmG6b": "60020401",
        "gvT2ds0Q": "4",
        "nm1USVcx": "500",
        "P_SKILL_NAME": "\u51a5\u738b\u306e\u6b66",
        "P_GROUP_ID": "1",
        "P_PRIORITY": "24",
        "P_RARE": "3",
        "moWQ30GH": "3",
        "P_PASSIVE_SKILL_GROUP_INFO": "1015002",
        "P_EXT_IMG_PARAM": "1:\u5168\u80fd\u529b\u309210%\u30a2\u30c3\u30d7",
        "H49qP1tw": "1",
        "97yTNbfr": "1",
        "P_NEED_SWITCH_INFO": "0",
        "P_HIDE_SWITCH_INFO": "0",
        "P_OPEN_SWITCH_INFO": "0",
        "P_CREATEDATE": "2018-02-14 17:20:25",
        "P_UPDATEDATE": "2018-02-14 17:20:25"
    },
    {
        "3L9SmG6b": "60035401",
        "gvT2ds0Q": "1",
        "nm1USVcx": "50",
        "P_SKILL_NAME": "\u6bb2\u88c2\u306a\u308b\u4e00\u9583",
        "P_GROUP_ID": "1",
        "P_PRIORITY": "53",
        "P_RARE": "2",
        "moWQ30GH": "3",
        "P_PASSIVE_SKILL_GROUP_INFO": "9002004",
        "P_EXT_IMG_PARAM": "4:10%\u306e\u78ba\u7387\u3067\u602a\u6211\u72b6\u614b\u306b\u3059\u308b",
        "H49qP1tw": "1",
        "97yTNbfr": "4",
        "P_NEED_SWITCH_INFO": "0",
        "P_HIDE_SWITCH_INFO": "0",
        "P_OPEN_SWITCH_INFO": "0",
        "P_CREATEDATE": "2018-02-14 17:20:25",
        "P_UPDATEDATE": "2018-02-14 17:20:25"
    },
    {
        "3L9SmG6b": "60035402",
        "gvT2ds0Q": "2",
        "nm1USVcx": "200",
        "P_SKILL_NAME": "\u5199\u3057\u8eab\u306e\u9b54\u6b4c",
        "P_GROUP_ID": "1",
        "P_PRIORITY": "54",
        "P_RARE": "3",
        "moWQ30GH": "3",
        "P_PASSIVE_SKILL_GROUP_INFO": "5040006",
        "P_EXT_IMG_PARAM": "6:\u88ab\u30c0\u30e1\u30fc\u30b8\u6642\u300150%\u306e\u78ba\u7387\u3067BB\u30b2\u30fc\u30b8\u3092100\u5897\u52a0\uff081\u30bf\u30fc\u30f32\u56de\u307e\u3067\uff09",
        "H49qP1tw": "1",
        "97yTNbfr": "6",
        "P_NEED_SWITCH_INFO": "0",
        "P_HIDE_SWITCH_INFO": "0",
        "P_OPEN_SWITCH_INFO": "0",
        "P_CREATEDATE": "2018-02-14 17:20:25",
        "P_UPDATEDATE": "2018-02-14 17:20:25"
    }
]