[
    {
        "ND02HhRV": "101",
        "P_UNIT_ID": "1000122",
        "P_DISPORDER": "1",
        "P_CREATEDATE": "2018-09-18 00:21:33",
        "P_UPDATEDATE": "2018-09-18 00:21:33"
    },
    {
        "ND02HhRV": "101",
        "P_UNIT_ID": "2000122",
        "P_DISPORDER": "2",
        "P_CREATEDATE": "2018-09-18 00:21:33",
        "P_UPDATEDATE": "2018-09-18 00:21:33"
    },
    {
        "ND02HhRV": "101",
        "P_UNIT_ID": "3000122",
        "P_DISPORDER": "3",
        "P_CREATEDATE": "2018-09-18 00:21:33",
        "P_UPDATEDATE": "2018-09-18 00:21:33"
    },
    {
        "ND02HhRV": "101",
        "P_UNIT_ID": "4000122",
        "P_DISPORDER": "4",
        "P_CREATEDATE": "2018-09-18 00:21:33",
        "P_UPDATEDATE": "2018-09-18 00:21:33"
    },
    {
        "ND02HhRV": "101",
        "P_UNIT_ID": "5000122",
        "P_DISPORDER": "5",
        "P_CREATEDATE": "2018-09-18 00:21:33",
        "P_UPDATEDATE": "2018-09-18 00:21:33"
    },
    {
        "ND02HhRV": "101",
        "P_UNIT_ID": "6000122",
        "P_DISPORDER": "6",
        "P_CREATEDATE": "2018-09-18 00:21:33",
        "P_UPDATEDATE": "2018-09-18 00:21:33"
    },
    {
        "ND02HhRV": "102",
        "P_UNIT_ID": "6001612",
        "P_DISPORDER": "1",
        "P_CREATEDATE": "2018-09-18 00:21:33",
        "P_UPDATEDATE": "2018-09-18 00:21:33"
    },
    {
        "ND02HhRV": "102",
        "P_UNIT_ID": "6001712",
        "P_DISPORDER": "2",
        "P_CREATEDATE": "2018-09-18 00:21:33",
        "P_UPDATEDATE": "2018-09-18 00:21:33"
    },
    {
        "ND02HhRV": "103",
        "P_UNIT_ID": "5000522",
        "P_DISPORDER": "2",
        "P_CREATEDATE": "2018-09-18 00:21:33",
        "P_UPDATEDATE": "2018-09-18 00:21:33"
    },
    {
        "ND02HhRV": "103",
        "P_UNIT_ID": "5002012",
        "P_DISPORDER": "1",
        "P_CREATEDATE": "2018-09-18 00:21:33",
        "P_UPDATEDATE": "2018-09-18 00:21:33"
    },
    {
        "ND02HhRV": "103",
        "P_UNIT_ID": "6000522",
        "P_DISPORDER": "3",
        "P_CREATEDATE": "2018-09-18 00:21:33",
        "P_UPDATEDATE": "2018-09-18 00:21:33"
    },
    {
        "ND02HhRV": "104",
        "P_UNIT_ID": "1000322",
        "P_DISPORDER": "1",
        "P_CREATEDATE": "2018-09-18 00:21:33",
        "P_UPDATEDATE": "2018-09-18 00:21:33"
    },
    {
        "ND02HhRV": "104",
        "P_UNIT_ID": "2000322",
        "P_DISPORDER": "2",
        "P_CREATEDATE": "2018-09-18 00:21:33",
        "P_UPDATEDATE": "2018-09-18 00:21:33"
    },
    {
        "ND02HhRV": "104",
        "P_UNIT_ID": "3000322",
        "P_DISPORDER": "3",
        "P_CREATEDATE": "2018-09-18 00:21:33",
        "P_UPDATEDATE": "2018-09-18 00:21:33"
    },
    {
        "ND02HhRV": "104",
        "P_UNIT_ID": "4000322",
        "P_DISPORDER": "4",
        "P_CREATEDATE": "2018-09-18 00:21:33",
        "P_UPDATEDATE": "2018-09-18 00:21:33"
    },
    {
        "ND02HhRV": "104",
        "P_UNIT_ID": "5000322",
        "P_DISPORDER": "5",
        "P_CREATEDATE": "2018-09-18 00:21:33",
        "P_UPDATEDATE": "2018-09-18 00:21:33"
    },
    {
        "ND02HhRV": "104",
        "P_UNIT_ID": "6000322",
        "P_DISPORDER": "6",
        "P_CREATEDATE": "2018-09-18 00:21:33",
        "P_UPDATEDATE": "2018-09-18 00:21:33"
    },
    {
        "ND02HhRV": "105",
        "P_UNIT_ID": "1000522",
        "P_DISPORDER": "1",
        "P_CREATEDATE": "2018-09-18 00:21:33",
        "P_UPDATEDATE": "2018-09-18 00:21:33"
    },
    {
        "ND02HhRV": "105",
        "P_UNIT_ID": "4001312",
        "P_DISPORDER": "2",
        "P_CREATEDATE": "2018-09-18 00:21:33",
        "P_UPDATEDATE": "2018-09-18 00:21:33"
    },
    {
        "ND02HhRV": "106",
        "P_UNIT_ID": "1000422",
        "P_DISPORDER": "1",
        "P_CREATEDATE": "2018-09-18 00:21:33",
        "P_UPDATEDATE": "2018-09-18 00:21:33"
    },
    {
        "ND02HhRV": "106",
        "P_UNIT_ID": "2000422",
        "P_DISPORDER": "2",
        "P_CREATEDATE": "2018-09-18 00:21:33",
        "P_UPDATEDATE": "2018-09-18 00:21:33"
    },
    {
        "ND02HhRV": "106",
        "P_UNIT_ID": "3000422",
        "P_DISPORDER": "3",
        "P_CREATEDATE": "2018-09-18 00:21:33",
        "P_UPDATEDATE": "2018-09-18 00:21:33"
    },
    {
        "ND02HhRV": "106",
        "P_UNIT_ID": "4000422",
        "P_DISPORDER": "4",
        "P_CREATEDATE": "2018-09-18 00:21:33",
        "P_UPDATEDATE": "2018-09-18 00:21:33"
    },
    {
        "ND02HhRV": "106",
        "P_UNIT_ID": "5000422",
        "P_DISPORDER": "5",
        "P_CREATEDATE": "2018-09-18 00:21:33",
        "P_UPDATEDATE": "2018-09-18 00:21:33"
    },
    {
        "ND02HhRV": "106",
        "P_UNIT_ID": "6000422",
        "P_DISPORDER": "6",
        "P_CREATEDATE": "2018-09-18 00:21:33",
        "P_UPDATEDATE": "2018-09-18 00:21:33"
    },
    {
        "ND02HhRV": "107",
        "P_UNIT_ID": "2001312",
        "P_DISPORDER": "1",
        "P_CREATEDATE": "2018-09-18 00:21:33",
        "P_UPDATEDATE": "2018-09-18 00:21:33"
    },
    {
        "ND02HhRV": "107",
        "P_UNIT_ID": "3000522",
        "P_DISPORDER": "2",
        "P_CREATEDATE": "2018-09-18 00:21:33",
        "P_UPDATEDATE": "2018-09-18 00:21:33"
    },
    {
        "ND02HhRV": "108",
        "P_UNIT_ID": "1000222",
        "P_DISPORDER": "1",
        "P_CREATEDATE": "2018-09-18 00:21:33",
        "P_UPDATEDATE": "2018-09-18 00:21:33"
    },
    {
        "ND02HhRV": "108",
        "P_UNIT_ID": "1001812",
        "P_DISPORDER": "2",
        "P_CREATEDATE": "2018-09-18 00:21:33",
        "P_UPDATEDATE": "2018-09-18 00:21:33"
    },
    {
        "ND02HhRV": "109",
        "P_UNIT_ID": "2000222",
        "P_DISPORDER": "1",
        "P_CREATEDATE": "2018-09-18 00:21:33",
        "P_UPDATEDATE": "2018-09-18 00:21:33"
    },
    {
        "ND02HhRV": "109",
        "P_UNIT_ID": "2001412",
        "P_DISPORDER": "2",
        "P_CREATEDATE": "2018-09-18 00:21:33",
        "P_UPDATEDATE": "2018-09-18 00:21:33"
    },
    {
        "ND02HhRV": "110",
        "P_UNIT_ID": "3000222",
        "P_DISPORDER": "1",
        "P_CREATEDATE": "2018-09-18 00:21:33",
        "P_UPDATEDATE": "2018-09-18 00:21:33"
    },
    {
        "ND02HhRV": "110",
        "P_UNIT_ID": "3001412",
        "P_DISPORDER": "2",
        "P_CREATEDATE": "2018-09-18 00:21:33",
        "P_UPDATEDATE": "2018-09-18 00:21:33"
    },
    {
        "ND02HhRV": "111",
        "P_UNIT_ID": "4000222",
        "P_DISPORDER": "1",
        "P_CREATEDATE": "2018-09-18 00:21:33",
        "P_UPDATEDATE": "2018-09-18 00:21:33"
    },
    {
        "ND02HhRV": "111",
        "P_UNIT_ID": "4000522",
        "P_DISPORDER": "2",
        "P_CREATEDATE": "2018-09-18 00:21:33",
        "P_UPDATEDATE": "2018-09-18 00:21:33"
    },
    {
        "ND02HhRV": "112",
        "P_UNIT_ID": "5000222",
        "P_DISPORDER": "1",
        "P_CREATEDATE": "2018-09-18 00:21:33",
        "P_UPDATEDATE": "2018-09-18 00:21:33"
    },
    {
        "ND02HhRV": "112",
        "P_UNIT_ID": "5001412",
        "P_DISPORDER": "2",
        "P_CREATEDATE": "2018-09-18 00:21:33",
        "P_UPDATEDATE": "2018-09-18 00:21:33"
    },
    {
        "ND02HhRV": "113",
        "P_UNIT_ID": "6000222",
        "P_DISPORDER": "1",
        "P_CREATEDATE": "2018-09-18 00:21:33",
        "P_UPDATEDATE": "2018-09-18 00:21:33"
    },
    {
        "ND02HhRV": "113",
        "P_UNIT_ID": "6001512",
        "P_DISPORDER": "2",
        "P_CREATEDATE": "2018-09-18 00:21:33",
        "P_UPDATEDATE": "2018-09-18 00:21:33"
    },
    {
        "ND02HhRV": "201",
        "P_UNIT_ID": "1001912",
        "P_DISPORDER": "1",
        "P_CREATEDATE": "2018-09-18 00:21:33",
        "P_UPDATEDATE": "2018-09-18 00:21:33"
    },
    {
        "ND02HhRV": "201",
        "P_UNIT_ID": "2001712",
        "P_DISPORDER": "2",
        "P_CREATEDATE": "2018-09-18 00:21:33",
        "P_UPDATEDATE": "2018-09-18 00:21:33"
    },
    {
        "ND02HhRV": "201",
        "P_UNIT_ID": "3001712",
        "P_DISPORDER": "3",
        "P_CREATEDATE": "2018-09-18 00:21:33",
        "P_UPDATEDATE": "2018-09-18 00:21:33"
    },
    {
        "ND02HhRV": "201",
        "P_UNIT_ID": "4001812",
        "P_DISPORDER": "4",
        "P_CREATEDATE": "2018-09-18 00:21:33",
        "P_UPDATEDATE": "2018-09-18 00:21:33"
    },
    {
        "ND02HhRV": "202",
        "P_UNIT_ID": "1001412",
        "P_DISPORDER": "1",
        "P_CREATEDATE": "2018-09-18 00:21:33",
        "P_UPDATEDATE": "2018-09-18 00:21:33"
    },
    {
        "ND02HhRV": "202",
        "P_UNIT_ID": "2000522",
        "P_DISPORDER": "2",
        "P_CREATEDATE": "2018-09-18 00:21:33",
        "P_UPDATEDATE": "2018-09-18 00:21:33"
    },
    {
        "ND02HhRV": "203",
        "P_UNIT_ID": "1002012",
        "P_DISPORDER": "1",
        "P_CREATEDATE": "2018-09-18 00:21:33",
        "P_UPDATEDATE": "2018-09-18 00:21:33"
    },
    {
        "ND02HhRV": "203",
        "P_UNIT_ID": "2001812",
        "P_DISPORDER": "2",
        "P_CREATEDATE": "2018-09-18 00:21:33",
        "P_UPDATEDATE": "2018-09-18 00:21:33"
    },
    {
        "ND02HhRV": "203",
        "P_UNIT_ID": "3001812",
        "P_DISPORDER": "3",
        "P_CREATEDATE": "2018-09-18 00:21:33",
        "P_UPDATEDATE": "2018-09-18 00:21:33"
    },
    {
        "ND02HhRV": "203",
        "P_UNIT_ID": "4001912",
        "P_DISPORDER": "4",
        "P_CREATEDATE": "2018-09-18 00:21:33",
        "P_UPDATEDATE": "2018-09-18 00:21:33"
    },
    {
        "ND02HhRV": "203",
        "P_UNIT_ID": "6003112",
        "P_DISPORDER": "5",
        "P_CREATEDATE": "2018-09-18 00:21:33",
        "P_UPDATEDATE": "2018-09-18 00:21:33"
    },
    {
        "ND02HhRV": "204",
        "P_UNIT_ID": "4000122",
        "P_DISPORDER": "1",
        "P_CREATEDATE": "2018-09-18 00:21:33",
        "P_UPDATEDATE": "2018-09-18 00:21:33"
    },
    {
        "ND02HhRV": "204",
        "P_UNIT_ID": "5002012",
        "P_DISPORDER": "2",
        "P_CREATEDATE": "2018-09-18 00:21:33",
        "P_UPDATEDATE": "2018-09-18 00:21:33"
    },
    {
        "ND02HhRV": "205",
        "P_UNIT_ID": "1001412",
        "P_DISPORDER": "1",
        "P_CREATEDATE": "2018-09-18 00:21:33",
        "P_UPDATEDATE": "2018-09-18 00:21:33"
    },
    {
        "ND02HhRV": "205",
        "P_UNIT_ID": "2000122",
        "P_DISPORDER": "2",
        "P_CREATEDATE": "2018-09-18 00:21:33",
        "P_UPDATEDATE": "2018-09-18 00:21:33"
    },
    {
        "ND02HhRV": "206",
        "P_UNIT_ID": "3000122",
        "P_DISPORDER": "1",
        "P_CREATEDATE": "2018-09-18 00:21:33",
        "P_UPDATEDATE": "2018-09-18 00:21:33"
    },
    {
        "ND02HhRV": "206",
        "P_UNIT_ID": "5001512",
        "P_DISPORDER": "2",
        "P_CREATEDATE": "2018-09-18 00:21:33",
        "P_UPDATEDATE": "2018-09-18 00:21:33"
    },
    {
        "ND02HhRV": "207",
        "P_UNIT_ID": "1000122",
        "P_DISPORDER": "1",
        "P_CREATEDATE": "2018-09-18 00:21:33",
        "P_UPDATEDATE": "2018-09-18 00:21:33"
    },
    {
        "ND02HhRV": "207",
        "P_UNIT_ID": "4000222",
        "P_DISPORDER": "2",
        "P_CREATEDATE": "2018-09-18 00:21:33",
        "P_UPDATEDATE": "2018-09-18 00:21:33"
    },
    {
        "ND02HhRV": "208",
        "P_UNIT_ID": "5000122",
        "P_DISPORDER": "1",
        "P_CREATEDATE": "2018-09-18 00:21:33",
        "P_UPDATEDATE": "2018-09-18 00:21:33"
    },
    {
        "ND02HhRV": "208",
        "P_UNIT_ID": "6000522",
        "P_DISPORDER": "2",
        "P_CREATEDATE": "2018-09-18 00:21:33",
        "P_UPDATEDATE": "2018-09-18 00:21:33"
    },
    {
        "ND02HhRV": "209",
        "P_UNIT_ID": "2001612",
        "P_DISPORDER": "1",
        "P_CREATEDATE": "2018-09-18 00:21:33",
        "P_UPDATEDATE": "2018-09-18 00:21:33"
    },
    {
        "ND02HhRV": "209",
        "P_UNIT_ID": "5001812",
        "P_DISPORDER": "2",
        "P_CREATEDATE": "2018-09-18 00:21:33",
        "P_UPDATEDATE": "2018-09-18 00:21:33"
    },
    {
        "ND02HhRV": "210",
        "P_UNIT_ID": "4001612",
        "P_DISPORDER": "1",
        "P_CREATEDATE": "2018-09-18 00:21:33",
        "P_UPDATEDATE": "2018-09-18 00:21:33"
    },
    {
        "ND02HhRV": "210",
        "P_UNIT_ID": "4001712",
        "P_DISPORDER": "2",
        "P_CREATEDATE": "2018-09-18 00:21:33",
        "P_UPDATEDATE": "2018-09-18 00:21:33"
    },
    {
        "ND02HhRV": "211",
        "P_UNIT_ID": "5001412",
        "P_DISPORDER": "1",
        "P_CREATEDATE": "2018-09-18 00:21:33",
        "P_UPDATEDATE": "2018-09-18 00:21:33"
    },
    {
        "ND02HhRV": "211",
        "P_UNIT_ID": "6001512",
        "P_DISPORDER": "2",
        "P_CREATEDATE": "2018-09-18 00:21:33",
        "P_UPDATEDATE": "2018-09-18 00:21:33"
    },
    {
        "ND02HhRV": "212",
        "P_UNIT_ID": "1000422",
        "P_DISPORDER": "1",
        "P_CREATEDATE": "2018-09-18 00:21:33",
        "P_UPDATEDATE": "2018-09-18 00:21:33"
    },
    {
        "ND02HhRV": "212",
        "P_UNIT_ID": "2000422",
        "P_DISPORDER": "2",
        "P_CREATEDATE": "2018-09-18 00:21:33",
        "P_UPDATEDATE": "2018-09-18 00:21:33"
    },
    {
        "ND02HhRV": "212",
        "P_UNIT_ID": "4000422",
        "P_DISPORDER": "3",
        "P_CREATEDATE": "2018-09-18 00:21:33",
        "P_UPDATEDATE": "2018-09-18 00:21:33"
    },
    {
        "ND02HhRV": "213",
        "P_UNIT_ID": "1001824",
        "P_DISPORDER": "1",
        "P_CREATEDATE": "2018-09-18 00:21:33",
        "P_UPDATEDATE": "2018-09-18 00:21:33"
    },
    {
        "ND02HhRV": "213",
        "P_UNIT_ID": "2001424",
        "P_DISPORDER": "2",
        "P_CREATEDATE": "2018-09-18 00:21:33",
        "P_UPDATEDATE": "2018-09-18 00:21:33"
    },
    {
        "ND02HhRV": "213",
        "P_UNIT_ID": "3001524",
        "P_DISPORDER": "3",
        "P_CREATEDATE": "2018-09-18 00:21:33",
        "P_UPDATEDATE": "2018-09-18 00:21:33"
    },
    {
        "ND02HhRV": "213",
        "P_UNIT_ID": "4001824",
        "P_DISPORDER": "4",
        "P_CREATEDATE": "2018-09-18 00:21:33",
        "P_UPDATEDATE": "2018-09-18 00:21:33"
    },
    {
        "ND02HhRV": "213",
        "P_UNIT_ID": "5001624",
        "P_DISPORDER": "5",
        "P_CREATEDATE": "2018-09-18 00:21:33",
        "P_UPDATEDATE": "2018-09-18 00:21:33"
    },
    {
        "ND02HhRV": "213",
        "P_UNIT_ID": "6001624",
        "P_DISPORDER": "6",
        "P_CREATEDATE": "2018-09-18 00:21:33",
        "P_UPDATEDATE": "2018-09-18 00:21:33"
    },
    {
        "ND02HhRV": "214",
        "P_UNIT_ID": "3000222",
        "P_DISPORDER": "1",
        "P_CREATEDATE": "2018-09-18 00:21:33",
        "P_UPDATEDATE": "2018-09-18 00:21:33"
    },
    {
        "ND02HhRV": "215",
        "P_UNIT_ID": "2001912",
        "P_DISPORDER": "1",
        "P_CREATEDATE": "2018-09-18 00:21:33",
        "P_UPDATEDATE": "2018-09-18 00:21:33"
    },
    {
        "ND02HhRV": "215",
        "P_UNIT_ID": "3001912",
        "P_DISPORDER": "2",
        "P_CREATEDATE": "2018-09-18 00:21:33",
        "P_UPDATEDATE": "2018-09-18 00:21:33"
    },
    {
        "ND02HhRV": "215",
        "P_UNIT_ID": "5001612",
        "P_DISPORDER": "3",
        "P_CREATEDATE": "2018-09-18 00:21:33",
        "P_UPDATEDATE": "2018-09-18 00:21:33"
    },
    {
        "ND02HhRV": "215",
        "P_UNIT_ID": "6003112",
        "P_DISPORDER": "4",
        "P_CREATEDATE": "2018-09-18 00:21:33",
        "P_UPDATEDATE": "2018-09-18 00:21:33"
    },
    {
        "ND02HhRV": "216",
        "P_UNIT_ID": "1000322",
        "P_DISPORDER": "1",
        "P_CREATEDATE": "2018-09-18 00:21:33",
        "P_UPDATEDATE": "2018-09-18 00:21:33"
    },
    {
        "ND02HhRV": "216",
        "P_UNIT_ID": "3001412",
        "P_DISPORDER": "2",
        "P_CREATEDATE": "2018-09-18 00:21:33",
        "P_UPDATEDATE": "2018-09-18 00:21:33"
    },
    {
        "ND02HhRV": "216",
        "P_UNIT_ID": "4001512",
        "P_DISPORDER": "3",
        "P_CREATEDATE": "2018-09-18 00:21:33",
        "P_UPDATEDATE": "2018-09-18 00:21:33"
    },
    {
        "ND02HhRV": "216",
        "P_UNIT_ID": "6000122",
        "P_DISPORDER": "4",
        "P_CREATEDATE": "2018-09-18 00:21:33",
        "P_UPDATEDATE": "2018-09-18 00:21:33"
    },
    {
        "ND02HhRV": "217",
        "P_UNIT_ID": "1001712",
        "P_DISPORDER": "1",
        "P_CREATEDATE": "2018-09-18 00:21:33",
        "P_UPDATEDATE": "2018-09-18 00:21:33"
    },
    {
        "ND02HhRV": "217",
        "P_UNIT_ID": "2000322",
        "P_DISPORDER": "2",
        "P_CREATEDATE": "2018-09-18 00:21:33",
        "P_UPDATEDATE": "2018-09-18 00:21:33"
    },
    {
        "ND02HhRV": "217",
        "P_UNIT_ID": "4000222",
        "P_DISPORDER": "3",
        "P_CREATEDATE": "2018-09-18 00:21:33",
        "P_UPDATEDATE": "2018-09-18 00:21:33"
    },
    {
        "ND02HhRV": "217",
        "P_UNIT_ID": "5000422",
        "P_DISPORDER": "4",
        "P_CREATEDATE": "2018-09-18 00:21:33",
        "P_UPDATEDATE": "2018-09-18 00:21:33"
    },
    {
        "ND02HhRV": "218",
        "P_UNIT_ID": "1000122",
        "P_DISPORDER": "1",
        "P_CREATEDATE": "2018-09-18 00:21:33",
        "P_UPDATEDATE": "2018-09-18 00:21:33"
    },
    {
        "ND02HhRV": "218",
        "P_UNIT_ID": "2000122",
        "P_DISPORDER": "2",
        "P_CREATEDATE": "2018-09-18 00:21:33",
        "P_UPDATEDATE": "2018-09-18 00:21:33"
    },
    {
        "ND02HhRV": "218",
        "P_UNIT_ID": "3000122",
        "P_DISPORDER": "3",
        "P_CREATEDATE": "2018-09-18 00:21:33",
        "P_UPDATEDATE": "2018-09-18 00:21:33"
    },
    {
        "ND02HhRV": "218",
        "P_UNIT_ID": "4000122",
        "P_DISPORDER": "4",
        "P_CREATEDATE": "2018-09-18 00:21:33",
        "P_UPDATEDATE": "2018-09-18 00:21:33"
    },
    {
        "ND02HhRV": "218",
        "P_UNIT_ID": "5000122",
        "P_DISPORDER": "5",
        "P_CREATEDATE": "2018-09-18 00:21:33",
        "P_UPDATEDATE": "2018-09-18 00:21:33"
    },
    {
        "ND02HhRV": "219",
        "P_UNIT_ID": "5000522",
        "P_DISPORDER": "2",
        "P_CREATEDATE": "2018-09-18 00:21:33",
        "P_UPDATEDATE": "2018-09-18 00:21:33"
    },
    {
        "ND02HhRV": "219",
        "P_UNIT_ID": "5002012",
        "P_DISPORDER": "1",
        "P_CREATEDATE": "2018-09-18 00:21:33",
        "P_UPDATEDATE": "2018-09-18 00:21:33"
    },
    {
        "ND02HhRV": "219",
        "P_UNIT_ID": "6000522",
        "P_DISPORDER": "3",
        "P_CREATEDATE": "2018-09-18 00:21:33",
        "P_UPDATEDATE": "2018-09-18 00:21:33"
    },
    {
        "ND02HhRV": "220",
        "P_UNIT_ID": "1001922",
        "P_DISPORDER": "1",
        "P_CREATEDATE": "2018-09-18 00:21:33",
        "P_UPDATEDATE": "2018-09-18 00:21:33"
    },
    {
        "ND02HhRV": "220",
        "P_UNIT_ID": "3001822",
        "P_DISPORDER": "2",
        "P_CREATEDATE": "2018-09-18 00:21:33",
        "P_UPDATEDATE": "2018-09-18 00:21:33"
    },
    {
        "ND02HhRV": "220",
        "P_UNIT_ID": "4001922",
        "P_DISPORDER": "3",
        "P_CREATEDATE": "2018-09-18 00:21:33",
        "P_UPDATEDATE": "2018-09-18 00:21:33"
    },
    {
        "ND02HhRV": "221",
        "P_UNIT_ID": "5003012",
        "P_DISPORDER": "1",
        "P_CREATEDATE": "2018-09-18 00:21:33",
        "P_UPDATEDATE": "2018-09-18 00:21:33"
    },
    {
        "ND02HhRV": "221",
        "P_UNIT_ID": "6003212",
        "P_DISPORDER": "2",
        "P_CREATEDATE": "2018-09-18 00:21:33",
        "P_UPDATEDATE": "2018-09-18 00:21:33"
    },
    {
        "ND02HhRV": "222",
        "P_UNIT_ID": "1003012",
        "P_DISPORDER": "1",
        "P_CREATEDATE": "2018-09-18 00:21:33",
        "P_UPDATEDATE": "2018-09-18 00:21:33"
    },
    {
        "ND02HhRV": "222",
        "P_UNIT_ID": "5003112",
        "P_DISPORDER": "2",
        "P_CREATEDATE": "2018-09-18 00:21:33",
        "P_UPDATEDATE": "2018-09-18 00:21:33"
    },
    {
        "ND02HhRV": "223",
        "P_UNIT_ID": "4000222",
        "P_DISPORDER": "1",
        "P_CREATEDATE": "2018-09-18 00:21:33",
        "P_UPDATEDATE": "2018-09-18 00:21:33"
    },
    {
        "ND02HhRV": "224",
        "P_UNIT_ID": "1000522",
        "P_DISPORDER": "2",
        "P_CREATEDATE": "2018-09-18 00:21:33",
        "P_UPDATEDATE": "2018-09-18 00:21:33"
    },
    {
        "ND02HhRV": "224",
        "P_UNIT_ID": "1002012",
        "P_DISPORDER": "1",
        "P_CREATEDATE": "2018-09-18 00:21:33",
        "P_UPDATEDATE": "2018-09-18 00:21:33"
    },
    {
        "ND02HhRV": "224",
        "P_UNIT_ID": "3001612",
        "P_DISPORDER": "3",
        "P_CREATEDATE": "2018-09-18 00:21:33",
        "P_UPDATEDATE": "2018-09-18 00:21:33"
    },
    {
        "ND02HhRV": "224",
        "P_UNIT_ID": "3001812",
        "P_DISPORDER": "4",
        "P_CREATEDATE": "2018-09-18 00:21:33",
        "P_UPDATEDATE": "2018-09-18 00:21:33"
    },
    {
        "ND02HhRV": "224",
        "P_UNIT_ID": "5000322",
        "P_DISPORDER": "6",
        "P_CREATEDATE": "2018-09-18 00:21:33",
        "P_UPDATEDATE": "2018-09-18 00:21:33"
    },
    {
        "ND02HhRV": "224",
        "P_UNIT_ID": "5001412",
        "P_DISPORDER": "5",
        "P_CREATEDATE": "2018-09-18 00:21:33",
        "P_UPDATEDATE": "2018-09-18 00:21:33"
    },
    {
        "ND02HhRV": "225",
        "P_UNIT_ID": "2000522",
        "P_DISPORDER": "2",
        "P_CREATEDATE": "2018-09-18 00:21:33",
        "P_UPDATEDATE": "2018-09-18 00:21:33"
    },
    {
        "ND02HhRV": "225",
        "P_UNIT_ID": "2001412",
        "P_DISPORDER": "1",
        "P_CREATEDATE": "2018-09-18 00:21:33",
        "P_UPDATEDATE": "2018-09-18 00:21:33"
    },
    {
        "ND02HhRV": "225",
        "P_UNIT_ID": "4000522",
        "P_DISPORDER": "4",
        "P_CREATEDATE": "2018-09-18 00:21:33",
        "P_UPDATEDATE": "2018-09-18 00:21:33"
    },
    {
        "ND02HhRV": "225",
        "P_UNIT_ID": "4001912",
        "P_DISPORDER": "3",
        "P_CREATEDATE": "2018-09-18 00:21:33",
        "P_UPDATEDATE": "2018-09-18 00:21:33"
    },
    {
        "ND02HhRV": "225",
        "P_UNIT_ID": "6000322",
        "P_DISPORDER": "6",
        "P_CREATEDATE": "2018-09-18 00:21:33",
        "P_UPDATEDATE": "2018-09-18 00:21:33"
    },
    {
        "ND02HhRV": "225",
        "P_UNIT_ID": "6002212",
        "P_DISPORDER": "5",
        "P_CREATEDATE": "2018-09-18 00:21:33",
        "P_UPDATEDATE": "2018-09-18 00:21:33"
    },
    {
        "ND02HhRV": "226",
        "P_UNIT_ID": "1000422",
        "P_DISPORDER": "1",
        "P_CREATEDATE": "2018-09-18 00:21:33",
        "P_UPDATEDATE": "2018-09-18 00:21:33"
    },
    {
        "ND02HhRV": "226",
        "P_UNIT_ID": "2000422",
        "P_DISPORDER": "2",
        "P_CREATEDATE": "2018-09-18 00:21:33",
        "P_UPDATEDATE": "2018-09-18 00:21:33"
    },
    {
        "ND02HhRV": "226",
        "P_UNIT_ID": "3000422",
        "P_DISPORDER": "3",
        "P_CREATEDATE": "2018-09-18 00:21:33",
        "P_UPDATEDATE": "2018-09-18 00:21:33"
    },
    {
        "ND02HhRV": "226",
        "P_UNIT_ID": "4000422",
        "P_DISPORDER": "4",
        "P_CREATEDATE": "2018-09-18 00:21:33",
        "P_UPDATEDATE": "2018-09-18 00:21:33"
    },
    {
        "ND02HhRV": "226",
        "P_UNIT_ID": "5000422",
        "P_DISPORDER": "5",
        "P_CREATEDATE": "2018-09-18 00:21:33",
        "P_UPDATEDATE": "2018-09-18 00:21:33"
    },
    {
        "ND02HhRV": "226",
        "P_UNIT_ID": "6000422",
        "P_DISPORDER": "6",
        "P_CREATEDATE": "2018-09-18 00:21:33",
        "P_UPDATEDATE": "2018-09-18 00:21:33"
    },
    {
        "ND02HhRV": "227",
        "P_UNIT_ID": "1002522",
        "P_DISPORDER": "1",
        "P_CREATEDATE": "2018-09-18 00:21:33",
        "P_UPDATEDATE": "2018-09-18 00:21:33"
    },
    {
        "ND02HhRV": "227",
        "P_UNIT_ID": "2001922",
        "P_DISPORDER": "2",
        "P_CREATEDATE": "2018-09-18 00:21:33",
        "P_UPDATEDATE": "2018-09-18 00:21:33"
    },
    {
        "ND02HhRV": "227",
        "P_UNIT_ID": "3002122",
        "P_DISPORDER": "3",
        "P_CREATEDATE": "2018-09-18 00:21:33",
        "P_UPDATEDATE": "2018-09-18 00:21:33"
    },
    {
        "ND02HhRV": "227",
        "P_UNIT_ID": "4002222",
        "P_DISPORDER": "4",
        "P_CREATEDATE": "2018-09-18 00:21:33",
        "P_UPDATEDATE": "2018-09-18 00:21:33"
    },
    {
        "ND02HhRV": "227",
        "P_UNIT_ID": "5001922",
        "P_DISPORDER": "5",
        "P_CREATEDATE": "2018-09-18 00:21:33",
        "P_UPDATEDATE": "2018-09-18 00:21:33"
    },
    {
        "ND02HhRV": "228",
        "P_UNIT_ID": "1002522",
        "P_DISPORDER": "1",
        "P_CREATEDATE": "2018-09-18 00:21:33",
        "P_UPDATEDATE": "2018-09-18 00:21:33"
    },
    {
        "ND02HhRV": "228",
        "P_UNIT_ID": "2001922",
        "P_DISPORDER": "2",
        "P_CREATEDATE": "2018-09-18 00:21:33",
        "P_UPDATEDATE": "2018-09-18 00:21:33"
    },
    {
        "ND02HhRV": "228",
        "P_UNIT_ID": "3002122",
        "P_DISPORDER": "3",
        "P_CREATEDATE": "2018-09-18 00:21:33",
        "P_UPDATEDATE": "2018-09-18 00:21:33"
    },
    {
        "ND02HhRV": "228",
        "P_UNIT_ID": "4002222",
        "P_DISPORDER": "4",
        "P_CREATEDATE": "2018-09-18 00:21:33",
        "P_UPDATEDATE": "2018-09-18 00:21:33"
    },
    {
        "ND02HhRV": "228",
        "P_UNIT_ID": "5001922",
        "P_DISPORDER": "5",
        "P_CREATEDATE": "2018-09-18 00:21:33",
        "P_UPDATEDATE": "2018-09-18 00:21:33"
    },
    {
        "ND02HhRV": "229",
        "P_UNIT_ID": "1003212",
        "P_DISPORDER": "1",
        "P_CREATEDATE": "2018-09-18 00:21:33",
        "P_UPDATEDATE": "2018-09-18 00:21:33"
    },
    {
        "ND02HhRV": "229",
        "P_UNIT_ID": "2003012",
        "P_DISPORDER": "2",
        "P_CREATEDATE": "2018-09-18 00:21:33",
        "P_UPDATEDATE": "2018-09-18 00:21:33"
    },
    {
        "ND02HhRV": "229",
        "P_UNIT_ID": "5003312",
        "P_DISPORDER": "3",
        "P_CREATEDATE": "2018-09-18 00:21:33",
        "P_UPDATEDATE": "2018-09-18 00:21:33"
    },
    {
        "ND02HhRV": "230",
        "P_UNIT_ID": "2000222",
        "P_DISPORDER": "1",
        "P_CREATEDATE": "2018-09-18 00:21:33",
        "P_UPDATEDATE": "2018-09-18 00:21:33"
    },
    {
        "ND02HhRV": "231",
        "P_UNIT_ID": "3003012",
        "P_DISPORDER": "1",
        "P_CREATEDATE": "2018-09-18 00:21:33",
        "P_UPDATEDATE": "2018-09-18 00:21:33"
    },
    {
        "ND02HhRV": "231",
        "P_UNIT_ID": "4002912",
        "P_DISPORDER": "2",
        "P_CREATEDATE": "2018-09-18 00:21:33",
        "P_UPDATEDATE": "2018-09-18 00:21:33"
    },
    {
        "ND02HhRV": "231",
        "P_UNIT_ID": "6003412",
        "P_DISPORDER": "3",
        "P_CREATEDATE": "2018-09-18 00:21:33",
        "P_UPDATEDATE": "2018-09-18 00:21:33"
    },
    {
        "ND02HhRV": "232",
        "P_UNIT_ID": "1002522",
        "P_DISPORDER": "1",
        "P_CREATEDATE": "2018-09-18 00:21:33",
        "P_UPDATEDATE": "2018-09-18 00:21:33"
    },
    {
        "ND02HhRV": "232",
        "P_UNIT_ID": "2001922",
        "P_DISPORDER": "2",
        "P_CREATEDATE": "2018-09-18 00:21:33",
        "P_UPDATEDATE": "2018-09-18 00:21:33"
    },
    {
        "ND02HhRV": "232",
        "P_UNIT_ID": "3002122",
        "P_DISPORDER": "3",
        "P_CREATEDATE": "2018-09-18 00:21:33",
        "P_UPDATEDATE": "2018-09-18 00:21:33"
    },
    {
        "ND02HhRV": "232",
        "P_UNIT_ID": "4002222",
        "P_DISPORDER": "4",
        "P_CREATEDATE": "2018-09-18 00:21:33",
        "P_UPDATEDATE": "2018-09-18 00:21:33"
    },
    {
        "ND02HhRV": "232",
        "P_UNIT_ID": "6001822",
        "P_DISPORDER": "5",
        "P_CREATEDATE": "2018-09-18 00:21:33",
        "P_UPDATEDATE": "2018-09-18 00:21:33"
    },
    {
        "ND02HhRV": "233",
        "P_UNIT_ID": "5002124",
        "P_DISPORDER": "1",
        "P_CREATEDATE": "2018-09-18 00:21:33",
        "P_UPDATEDATE": "2018-09-18 00:21:33"
    },
    {
        "ND02HhRV": "233",
        "P_UNIT_ID": "5002224",
        "P_DISPORDER": "2",
        "P_CREATEDATE": "2018-09-18 00:21:33",
        "P_UPDATEDATE": "2018-09-18 00:21:33"
    },
    {
        "ND02HhRV": "233",
        "P_UNIT_ID": "5002324",
        "P_DISPORDER": "3",
        "P_CREATEDATE": "2018-09-18 00:21:33",
        "P_UPDATEDATE": "2018-09-18 00:21:33"
    },
    {
        "ND02HhRV": "233",
        "P_UNIT_ID": "5002424",
        "P_DISPORDER": "4",
        "P_CREATEDATE": "2018-09-18 00:21:33",
        "P_UPDATEDATE": "2018-09-18 00:21:33"
    },
    {
        "ND02HhRV": "233",
        "P_UNIT_ID": "5002524",
        "P_DISPORDER": "5",
        "P_CREATEDATE": "2018-09-18 00:21:33",
        "P_UPDATEDATE": "2018-09-18 00:21:33"
    },
    {
        "ND02HhRV": "234",
        "P_UNIT_ID": "5003412",
        "P_DISPORDER": "1",
        "P_CREATEDATE": "2018-09-18 00:21:33",
        "P_UPDATEDATE": "2018-09-18 00:21:33"
    },
    {
        "ND02HhRV": "234",
        "P_UNIT_ID": "6003612",
        "P_DISPORDER": "2",
        "P_CREATEDATE": "2018-09-18 00:21:33",
        "P_UPDATEDATE": "2018-09-18 00:21:33"
    },
    {
        "ND02HhRV": "235",
        "P_UNIT_ID": "1000222",
        "P_DISPORDER": "1",
        "P_CREATEDATE": "2018-09-18 00:21:33",
        "P_UPDATEDATE": "2018-09-18 00:21:33"
    },
    {
        "ND02HhRV": "236",
        "P_UNIT_ID": "1000322",
        "P_DISPORDER": "1",
        "P_CREATEDATE": "2018-09-18 00:21:33",
        "P_UPDATEDATE": "2018-09-18 00:21:33"
    },
    {
        "ND02HhRV": "236",
        "P_UNIT_ID": "2000322",
        "P_DISPORDER": "2",
        "P_CREATEDATE": "2018-09-18 00:21:33",
        "P_UPDATEDATE": "2018-09-18 00:21:33"
    },
    {
        "ND02HhRV": "236",
        "P_UNIT_ID": "3000322",
        "P_DISPORDER": "3",
        "P_CREATEDATE": "2018-09-18 00:21:33",
        "P_UPDATEDATE": "2018-09-18 00:21:33"
    },
    {
        "ND02HhRV": "236",
        "P_UNIT_ID": "4000322",
        "P_DISPORDER": "4",
        "P_CREATEDATE": "2018-09-18 00:21:33",
        "P_UPDATEDATE": "2018-09-18 00:21:33"
    },
    {
        "ND02HhRV": "236",
        "P_UNIT_ID": "5000322",
        "P_DISPORDER": "5",
        "P_CREATEDATE": "2018-09-18 00:21:33",
        "P_UPDATEDATE": "2018-09-18 00:21:33"
    },
    {
        "ND02HhRV": "236",
        "P_UNIT_ID": "6000322",
        "P_DISPORDER": "6",
        "P_CREATEDATE": "2018-09-18 00:21:33",
        "P_UPDATEDATE": "2018-09-18 00:21:33"
    },
    {
        "ND02HhRV": "237",
        "P_UNIT_ID": "3001412",
        "P_DISPORDER": "3",
        "P_CREATEDATE": "2018-09-18 00:21:33",
        "P_UPDATEDATE": "2018-09-18 00:21:33"
    },
    {
        "ND02HhRV": "237",
        "P_UNIT_ID": "3003112",
        "P_DISPORDER": "1",
        "P_CREATEDATE": "2018-09-18 00:21:33",
        "P_UPDATEDATE": "2018-09-18 00:21:33"
    },
    {
        "ND02HhRV": "237",
        "P_UNIT_ID": "4003012",
        "P_DISPORDER": "2",
        "P_CREATEDATE": "2018-09-18 00:21:33",
        "P_UPDATEDATE": "2018-09-18 00:21:33"
    },
    {
        "ND02HhRV": "238",
        "P_UNIT_ID": "5000222",
        "P_DISPORDER": "1",
        "P_CREATEDATE": "2018-09-18 00:21:33",
        "P_UPDATEDATE": "2018-09-18 00:21:33"
    },
    {
        "ND02HhRV": "238",
        "P_UNIT_ID": "6000222",
        "P_DISPORDER": "2",
        "P_CREATEDATE": "2018-09-18 00:21:33",
        "P_UPDATEDATE": "2018-09-18 00:21:33"
    },
    {
        "ND02HhRV": "239",
        "P_UNIT_ID": "5003412",
        "P_DISPORDER": "1",
        "P_CREATEDATE": "2018-09-18 00:21:33",
        "P_UPDATEDATE": "2018-09-18 00:21:33"
    },
    {
        "ND02HhRV": "239",
        "P_UNIT_ID": "6003612",
        "P_DISPORDER": "2",
        "P_CREATEDATE": "2018-09-18 00:21:33",
        "P_UPDATEDATE": "2018-09-18 00:21:33"
    },
    {
        "ND02HhRV": "240",
        "P_UNIT_ID": "5001512",
        "P_DISPORDER": "1",
        "P_CREATEDATE": "2018-09-18 00:21:33",
        "P_UPDATEDATE": "2018-09-18 00:21:33"
    },
    {
        "ND02HhRV": "240",
        "P_UNIT_ID": "6003412",
        "P_DISPORDER": "2",
        "P_CREATEDATE": "2018-09-18 00:21:33",
        "P_UPDATEDATE": "2018-09-18 00:21:33"
    },
    {
        "ND02HhRV": "241",
        "P_UNIT_ID": "1003212",
        "P_DISPORDER": "1",
        "P_CREATEDATE": "2018-09-18 00:21:33",
        "P_UPDATEDATE": "2018-09-18 00:21:33"
    },
    {
        "ND02HhRV": "241",
        "P_UNIT_ID": "3003012",
        "P_DISPORDER": "2",
        "P_CREATEDATE": "2018-09-18 00:21:33",
        "P_UPDATEDATE": "2018-09-18 00:21:33"
    },
    {
        "ND02HhRV": "241",
        "P_UNIT_ID": "4002912",
        "P_DISPORDER": "3",
        "P_CREATEDATE": "2018-09-18 00:21:33",
        "P_UPDATEDATE": "2018-09-18 00:21:33"
    },
    {
        "ND02HhRV": "242",
        "P_UNIT_ID": "1001922",
        "P_DISPORDER": "1",
        "P_CREATEDATE": "2018-09-18 00:21:33",
        "P_UPDATEDATE": "2018-09-18 00:21:33"
    },
    {
        "ND02HhRV": "242",
        "P_UNIT_ID": "3001822",
        "P_DISPORDER": "2",
        "P_CREATEDATE": "2018-09-18 00:21:33",
        "P_UPDATEDATE": "2018-09-18 00:21:33"
    },
    {
        "ND02HhRV": "242",
        "P_UNIT_ID": "4001922",
        "P_DISPORDER": "3",
        "P_CREATEDATE": "2018-09-18 00:21:33",
        "P_UPDATEDATE": "2018-09-18 00:21:33"
    },
    {
        "ND02HhRV": "10000",
        "P_UNIT_ID": "1000122",
        "P_DISPORDER": "1",
        "P_CREATEDATE": "2018-09-18 00:21:33",
        "P_UPDATEDATE": "2018-09-18 00:21:33"
    },
    {
        "ND02HhRV": "10000",
        "P_UNIT_ID": "1000222",
        "P_DISPORDER": "2",
        "P_CREATEDATE": "2018-09-18 00:21:33",
        "P_UPDATEDATE": "2018-09-18 00:21:33"
    },
    {
        "ND02HhRV": "10000",
        "P_UNIT_ID": "1000322",
        "P_DISPORDER": "3",
        "P_CREATEDATE": "2018-09-18 00:21:33",
        "P_UPDATEDATE": "2018-09-18 00:21:33"
    },
    {
        "ND02HhRV": "10000",
        "P_UNIT_ID": "1000422",
        "P_DISPORDER": "4",
        "P_CREATEDATE": "2018-09-18 00:21:33",
        "P_UPDATEDATE": "2018-09-18 00:21:33"
    },
    {
        "ND02HhRV": "10000",
        "P_UNIT_ID": "1000522",
        "P_DISPORDER": "5",
        "P_CREATEDATE": "2018-09-18 00:21:33",
        "P_UPDATEDATE": "2018-09-18 00:21:33"
    },
    {
        "ND02HhRV": "10000",
        "P_UNIT_ID": "1001412",
        "P_DISPORDER": "6",
        "P_CREATEDATE": "2018-09-18 00:21:33",
        "P_UPDATEDATE": "2018-09-18 00:21:33"
    },
    {
        "ND02HhRV": "10000",
        "P_UNIT_ID": "1001712",
        "P_DISPORDER": "7",
        "P_CREATEDATE": "2018-09-18 00:21:33",
        "P_UPDATEDATE": "2018-09-18 00:21:33"
    },
    {
        "ND02HhRV": "10000",
        "P_UNIT_ID": "1001812",
        "P_DISPORDER": "8",
        "P_CREATEDATE": "2018-09-18 00:21:33",
        "P_UPDATEDATE": "2018-09-18 00:21:33"
    },
    {
        "ND02HhRV": "10000",
        "P_UNIT_ID": "1001912",
        "P_DISPORDER": "9",
        "P_CREATEDATE": "2018-09-18 00:21:33",
        "P_UPDATEDATE": "2018-09-18 00:21:33"
    },
    {
        "ND02HhRV": "10000",
        "P_UNIT_ID": "1001922",
        "P_DISPORDER": "11",
        "P_CREATEDATE": "2018-09-18 00:21:33",
        "P_UPDATEDATE": "2018-09-18 00:21:33"
    },
    {
        "ND02HhRV": "10000",
        "P_UNIT_ID": "1002012",
        "P_DISPORDER": "10",
        "P_CREATEDATE": "2018-09-18 00:21:33",
        "P_UPDATEDATE": "2018-09-18 00:21:33"
    },
    {
        "ND02HhRV": "10000",
        "P_UNIT_ID": "1002522",
        "P_DISPORDER": "13",
        "P_CREATEDATE": "2018-09-18 00:21:33",
        "P_UPDATEDATE": "2018-09-18 00:21:33"
    },
    {
        "ND02HhRV": "10000",
        "P_UNIT_ID": "1003012",
        "P_DISPORDER": "12",
        "P_CREATEDATE": "2018-09-18 00:21:33",
        "P_UPDATEDATE": "2018-09-18 00:21:33"
    },
    {
        "ND02HhRV": "10000",
        "P_UNIT_ID": "1003212",
        "P_DISPORDER": "14",
        "P_CREATEDATE": "2018-09-18 00:21:33",
        "P_UPDATEDATE": "2018-09-18 00:21:33"
    },
    {
        "ND02HhRV": "10000",
        "P_UNIT_ID": "2000122",
        "P_DISPORDER": "15",
        "P_CREATEDATE": "2018-09-18 00:21:33",
        "P_UPDATEDATE": "2018-09-18 00:21:33"
    },
    {
        "ND02HhRV": "10000",
        "P_UNIT_ID": "2000222",
        "P_DISPORDER": "16",
        "P_CREATEDATE": "2018-09-18 00:21:33",
        "P_UPDATEDATE": "2018-09-18 00:21:33"
    },
    {
        "ND02HhRV": "10000",
        "P_UNIT_ID": "2000322",
        "P_DISPORDER": "17",
        "P_CREATEDATE": "2018-09-18 00:21:33",
        "P_UPDATEDATE": "2018-09-18 00:21:33"
    },
    {
        "ND02HhRV": "10000",
        "P_UNIT_ID": "2000422",
        "P_DISPORDER": "18",
        "P_CREATEDATE": "2018-09-18 00:21:33",
        "P_UPDATEDATE": "2018-09-18 00:21:33"
    },
    {
        "ND02HhRV": "10000",
        "P_UNIT_ID": "2000522",
        "P_DISPORDER": "19",
        "P_CREATEDATE": "2018-09-18 00:21:33",
        "P_UPDATEDATE": "2018-09-18 00:21:33"
    },
    {
        "ND02HhRV": "10000",
        "P_UNIT_ID": "2001312",
        "P_DISPORDER": "20",
        "P_CREATEDATE": "2018-09-18 00:21:33",
        "P_UPDATEDATE": "2018-09-18 00:21:33"
    },
    {
        "ND02HhRV": "10000",
        "P_UNIT_ID": "2001412",
        "P_DISPORDER": "21",
        "P_CREATEDATE": "2018-09-18 00:21:33",
        "P_UPDATEDATE": "2018-09-18 00:21:33"
    },
    {
        "ND02HhRV": "10000",
        "P_UNIT_ID": "2001612",
        "P_DISPORDER": "22",
        "P_CREATEDATE": "2018-09-18 00:21:33",
        "P_UPDATEDATE": "2018-09-18 00:21:33"
    },
    {
        "ND02HhRV": "10000",
        "P_UNIT_ID": "2001712",
        "P_DISPORDER": "23",
        "P_CREATEDATE": "2018-09-18 00:21:33",
        "P_UPDATEDATE": "2018-09-18 00:21:33"
    },
    {
        "ND02HhRV": "10000",
        "P_UNIT_ID": "2001812",
        "P_DISPORDER": "25",
        "P_CREATEDATE": "2018-09-18 00:21:33",
        "P_UPDATEDATE": "2018-09-18 00:21:33"
    },
    {
        "ND02HhRV": "10000",
        "P_UNIT_ID": "2001912",
        "P_DISPORDER": "24",
        "P_CREATEDATE": "2018-09-18 00:21:33",
        "P_UPDATEDATE": "2018-09-18 00:21:33"
    },
    {
        "ND02HhRV": "10000",
        "P_UNIT_ID": "2001922",
        "P_DISPORDER": "26",
        "P_CREATEDATE": "2018-09-18 00:21:33",
        "P_UPDATEDATE": "2018-09-18 00:21:33"
    },
    {
        "ND02HhRV": "10000",
        "P_UNIT_ID": "2003012",
        "P_DISPORDER": "27",
        "P_CREATEDATE": "2018-09-18 00:21:33",
        "P_UPDATEDATE": "2018-09-18 00:21:33"
    },
    {
        "ND02HhRV": "10000",
        "P_UNIT_ID": "3000122",
        "P_DISPORDER": "28",
        "P_CREATEDATE": "2018-09-18 00:21:33",
        "P_UPDATEDATE": "2018-09-18 00:21:33"
    },
    {
        "ND02HhRV": "10000",
        "P_UNIT_ID": "3000222",
        "P_DISPORDER": "29",
        "P_CREATEDATE": "2018-09-18 00:21:33",
        "P_UPDATEDATE": "2018-09-18 00:21:33"
    },
    {
        "ND02HhRV": "10000",
        "P_UNIT_ID": "3000322",
        "P_DISPORDER": "30",
        "P_CREATEDATE": "2018-09-18 00:21:33",
        "P_UPDATEDATE": "2018-09-18 00:21:33"
    },
    {
        "ND02HhRV": "10000",
        "P_UNIT_ID": "3000422",
        "P_DISPORDER": "31",
        "P_CREATEDATE": "2018-09-18 00:21:33",
        "P_UPDATEDATE": "2018-09-18 00:21:33"
    },
    {
        "ND02HhRV": "10000",
        "P_UNIT_ID": "3000522",
        "P_DISPORDER": "32",
        "P_CREATEDATE": "2018-09-18 00:21:33",
        "P_UPDATEDATE": "2018-09-18 00:21:33"
    },
    {
        "ND02HhRV": "10000",
        "P_UNIT_ID": "3001412",
        "P_DISPORDER": "33",
        "P_CREATEDATE": "2018-09-18 00:21:33",
        "P_UPDATEDATE": "2018-09-18 00:21:33"
    },
    {
        "ND02HhRV": "10000",
        "P_UNIT_ID": "3001612",
        "P_DISPORDER": "34",
        "P_CREATEDATE": "2018-09-18 00:21:33",
        "P_UPDATEDATE": "2018-09-18 00:21:33"
    },
    {
        "ND02HhRV": "10000",
        "P_UNIT_ID": "3001712",
        "P_DISPORDER": "35",
        "P_CREATEDATE": "2018-09-18 00:21:33",
        "P_UPDATEDATE": "2018-09-18 00:21:33"
    },
    {
        "ND02HhRV": "10000",
        "P_UNIT_ID": "3001812",
        "P_DISPORDER": "37",
        "P_CREATEDATE": "2018-09-18 00:21:33",
        "P_UPDATEDATE": "2018-09-18 00:21:33"
    },
    {
        "ND02HhRV": "10000",
        "P_UNIT_ID": "3001822",
        "P_DISPORDER": "38",
        "P_CREATEDATE": "2018-09-18 00:21:33",
        "P_UPDATEDATE": "2018-09-18 00:21:33"
    },
    {
        "ND02HhRV": "10000",
        "P_UNIT_ID": "3001912",
        "P_DISPORDER": "36",
        "P_CREATEDATE": "2018-09-18 00:21:33",
        "P_UPDATEDATE": "2018-09-18 00:21:33"
    },
    {
        "ND02HhRV": "10000",
        "P_UNIT_ID": "3002122",
        "P_DISPORDER": "39",
        "P_CREATEDATE": "2018-09-18 00:21:33",
        "P_UPDATEDATE": "2018-09-18 00:21:33"
    },
    {
        "ND02HhRV": "10000",
        "P_UNIT_ID": "3003012",
        "P_DISPORDER": "40",
        "P_CREATEDATE": "2018-09-18 00:21:33",
        "P_UPDATEDATE": "2018-09-18 00:21:33"
    },
    {
        "ND02HhRV": "10000",
        "P_UNIT_ID": "3003112",
        "P_DISPORDER": "41",
        "P_CREATEDATE": "2018-09-18 00:21:33",
        "P_UPDATEDATE": "2018-09-18 00:21:33"
    },
    {
        "ND02HhRV": "10000",
        "P_UNIT_ID": "4000122",
        "P_DISPORDER": "42",
        "P_CREATEDATE": "2018-09-18 00:21:33",
        "P_UPDATEDATE": "2018-09-18 00:21:33"
    },
    {
        "ND02HhRV": "10000",
        "P_UNIT_ID": "4000222",
        "P_DISPORDER": "43",
        "P_CREATEDATE": "2018-09-18 00:21:33",
        "P_UPDATEDATE": "2018-09-18 00:21:33"
    },
    {
        "ND02HhRV": "10000",
        "P_UNIT_ID": "4000322",
        "P_DISPORDER": "44",
        "P_CREATEDATE": "2018-09-18 00:21:33",
        "P_UPDATEDATE": "2018-09-18 00:21:33"
    },
    {
        "ND02HhRV": "10000",
        "P_UNIT_ID": "4000422",
        "P_DISPORDER": "45",
        "P_CREATEDATE": "2018-09-18 00:21:33",
        "P_UPDATEDATE": "2018-09-18 00:21:33"
    },
    {
        "ND02HhRV": "10000",
        "P_UNIT_ID": "4000522",
        "P_DISPORDER": "46",
        "P_CREATEDATE": "2018-09-18 00:21:33",
        "P_UPDATEDATE": "2018-09-18 00:21:33"
    },
    {
        "ND02HhRV": "10000",
        "P_UNIT_ID": "4001312",
        "P_DISPORDER": "47",
        "P_CREATEDATE": "2018-09-18 00:21:33",
        "P_UPDATEDATE": "2018-09-18 00:21:33"
    },
    {
        "ND02HhRV": "10000",
        "P_UNIT_ID": "4001512",
        "P_DISPORDER": "48",
        "P_CREATEDATE": "2018-09-18 00:21:33",
        "P_UPDATEDATE": "2018-09-18 00:21:33"
    },
    {
        "ND02HhRV": "10000",
        "P_UNIT_ID": "4001612",
        "P_DISPORDER": "49",
        "P_CREATEDATE": "2018-09-18 00:21:33",
        "P_UPDATEDATE": "2018-09-18 00:21:33"
    },
    {
        "ND02HhRV": "10000",
        "P_UNIT_ID": "4001712",
        "P_DISPORDER": "50",
        "P_CREATEDATE": "2018-09-18 00:21:33",
        "P_UPDATEDATE": "2018-09-18 00:21:33"
    },
    {
        "ND02HhRV": "10000",
        "P_UNIT_ID": "4001812",
        "P_DISPORDER": "51",
        "P_CREATEDATE": "2018-09-18 00:21:33",
        "P_UPDATEDATE": "2018-09-18 00:21:33"
    },
    {
        "ND02HhRV": "10000",
        "P_UNIT_ID": "4001912",
        "P_DISPORDER": "52",
        "P_CREATEDATE": "2018-09-18 00:21:33",
        "P_UPDATEDATE": "2018-09-18 00:21:33"
    },
    {
        "ND02HhRV": "10000",
        "P_UNIT_ID": "4001922",
        "P_DISPORDER": "53",
        "P_CREATEDATE": "2018-09-18 00:21:33",
        "P_UPDATEDATE": "2018-09-18 00:21:33"
    },
    {
        "ND02HhRV": "10000",
        "P_UNIT_ID": "4002222",
        "P_DISPORDER": "54",
        "P_CREATEDATE": "2018-09-18 00:21:33",
        "P_UPDATEDATE": "2018-09-18 00:21:33"
    },
    {
        "ND02HhRV": "10000",
        "P_UNIT_ID": "4002912",
        "P_DISPORDER": "55",
        "P_CREATEDATE": "2018-09-18 00:21:33",
        "P_UPDATEDATE": "2018-09-18 00:21:33"
    },
    {
        "ND02HhRV": "10000",
        "P_UNIT_ID": "4003012",
        "P_DISPORDER": "56",
        "P_CREATEDATE": "2018-09-18 00:21:33",
        "P_UPDATEDATE": "2018-09-18 00:21:33"
    },
    {
        "ND02HhRV": "10000",
        "P_UNIT_ID": "5000122",
        "P_DISPORDER": "57",
        "P_CREATEDATE": "2018-09-18 00:21:33",
        "P_UPDATEDATE": "2018-09-18 00:21:33"
    },
    {
        "ND02HhRV": "10000",
        "P_UNIT_ID": "5000222",
        "P_DISPORDER": "58",
        "P_CREATEDATE": "2018-09-18 00:21:33",
        "P_UPDATEDATE": "2018-09-18 00:21:33"
    },
    {
        "ND02HhRV": "10000",
        "P_UNIT_ID": "5000322",
        "P_DISPORDER": "59",
        "P_CREATEDATE": "2018-09-18 00:21:33",
        "P_UPDATEDATE": "2018-09-18 00:21:33"
    },
    {
        "ND02HhRV": "10000",
        "P_UNIT_ID": "5000422",
        "P_DISPORDER": "60",
        "P_CREATEDATE": "2018-09-18 00:21:33",
        "P_UPDATEDATE": "2018-09-18 00:21:33"
    },
    {
        "ND02HhRV": "10000",
        "P_UNIT_ID": "5000522",
        "P_DISPORDER": "61",
        "P_CREATEDATE": "2018-09-18 00:21:33",
        "P_UPDATEDATE": "2018-09-18 00:21:33"
    },
    {
        "ND02HhRV": "10000",
        "P_UNIT_ID": "5001412",
        "P_DISPORDER": "62",
        "P_CREATEDATE": "2018-09-18 00:21:33",
        "P_UPDATEDATE": "2018-09-18 00:21:33"
    },
    {
        "ND02HhRV": "10000",
        "P_UNIT_ID": "5001512",
        "P_DISPORDER": "63",
        "P_CREATEDATE": "2018-09-18 00:21:33",
        "P_UPDATEDATE": "2018-09-18 00:21:33"
    },
    {
        "ND02HhRV": "10000",
        "P_UNIT_ID": "5001612",
        "P_DISPORDER": "64",
        "P_CREATEDATE": "2018-09-18 00:21:33",
        "P_UPDATEDATE": "2018-09-18 00:21:33"
    },
    {
        "ND02HhRV": "10000",
        "P_UNIT_ID": "5001812",
        "P_DISPORDER": "65",
        "P_CREATEDATE": "2018-09-18 00:21:33",
        "P_UPDATEDATE": "2018-09-18 00:21:33"
    },
    {
        "ND02HhRV": "10000",
        "P_UNIT_ID": "5001922",
        "P_DISPORDER": "69",
        "P_CREATEDATE": "2018-09-18 00:21:33",
        "P_UPDATEDATE": "2018-09-18 00:21:33"
    },
    {
        "ND02HhRV": "10000",
        "P_UNIT_ID": "5002012",
        "P_DISPORDER": "66",
        "P_CREATEDATE": "2018-09-18 00:21:33",
        "P_UPDATEDATE": "2018-09-18 00:21:33"
    },
    {
        "ND02HhRV": "10000",
        "P_UNIT_ID": "5003012",
        "P_DISPORDER": "67",
        "P_CREATEDATE": "2018-09-18 00:21:33",
        "P_UPDATEDATE": "2018-09-18 00:21:33"
    },
    {
        "ND02HhRV": "10000",
        "P_UNIT_ID": "5003112",
        "P_DISPORDER": "68",
        "P_CREATEDATE": "2018-09-18 00:21:33",
        "P_UPDATEDATE": "2018-09-18 00:21:33"
    },
    {
        "ND02HhRV": "10000",
        "P_UNIT_ID": "5003312",
        "P_DISPORDER": "70",
        "P_CREATEDATE": "2018-09-18 00:21:33",
        "P_UPDATEDATE": "2018-09-18 00:21:33"
    },
    {
        "ND02HhRV": "10000",
        "P_UNIT_ID": "5003412",
        "P_DISPORDER": "71",
        "P_CREATEDATE": "2018-09-18 00:21:33",
        "P_UPDATEDATE": "2018-09-18 00:21:33"
    },
    {
        "ND02HhRV": "10000",
        "P_UNIT_ID": "6000122",
        "P_DISPORDER": "72",
        "P_CREATEDATE": "2018-09-18 00:21:33",
        "P_UPDATEDATE": "2018-09-18 00:21:33"
    },
    {
        "ND02HhRV": "10000",
        "P_UNIT_ID": "6000222",
        "P_DISPORDER": "73",
        "P_CREATEDATE": "2018-09-18 00:21:33",
        "P_UPDATEDATE": "2018-09-18 00:21:33"
    },
    {
        "ND02HhRV": "10000",
        "P_UNIT_ID": "6000322",
        "P_DISPORDER": "74",
        "P_CREATEDATE": "2018-09-18 00:21:33",
        "P_UPDATEDATE": "2018-09-18 00:21:33"
    },
    {
        "ND02HhRV": "10000",
        "P_UNIT_ID": "6000422",
        "P_DISPORDER": "75",
        "P_CREATEDATE": "2018-09-18 00:21:33",
        "P_UPDATEDATE": "2018-09-18 00:21:33"
    },
    {
        "ND02HhRV": "10000",
        "P_UNIT_ID": "6000522",
        "P_DISPORDER": "76",
        "P_CREATEDATE": "2018-09-18 00:21:33",
        "P_UPDATEDATE": "2018-09-18 00:21:33"
    },
    {
        "ND02HhRV": "10000",
        "P_UNIT_ID": "6001512",
        "P_DISPORDER": "77",
        "P_CREATEDATE": "2018-09-18 00:21:33",
        "P_UPDATEDATE": "2018-09-18 00:21:33"
    },
    {
        "ND02HhRV": "10000",
        "P_UNIT_ID": "6001612",
        "P_DISPORDER": "78",
        "P_CREATEDATE": "2018-09-18 00:21:33",
        "P_UPDATEDATE": "2018-09-18 00:21:33"
    },
    {
        "ND02HhRV": "10000",
        "P_UNIT_ID": "6001712",
        "P_DISPORDER": "79",
        "P_CREATEDATE": "2018-09-18 00:21:33",
        "P_UPDATEDATE": "2018-09-18 00:21:33"
    },
    {
        "ND02HhRV": "10000",
        "P_UNIT_ID": "6001822",
        "P_DISPORDER": "84",
        "P_CREATEDATE": "2018-09-18 00:21:33",
        "P_UPDATEDATE": "2018-09-18 00:21:33"
    },
    {
        "ND02HhRV": "10000",
        "P_UNIT_ID": "6002012",
        "P_DISPORDER": "80",
        "P_CREATEDATE": "2018-09-18 00:21:33",
        "P_UPDATEDATE": "2018-09-18 00:21:33"
    },
    {
        "ND02HhRV": "10000",
        "P_UNIT_ID": "6002212",
        "P_DISPORDER": "81",
        "P_CREATEDATE": "2018-09-18 00:21:33",
        "P_UPDATEDATE": "2018-09-18 00:21:33"
    },
    {
        "ND02HhRV": "10000",
        "P_UNIT_ID": "6003112",
        "P_DISPORDER": "82",
        "P_CREATEDATE": "2018-09-18 00:21:33",
        "P_UPDATEDATE": "2018-09-18 00:21:33"
    },
    {
        "ND02HhRV": "10000",
        "P_UNIT_ID": "6003212",
        "P_DISPORDER": "83",
        "P_CREATEDATE": "2018-09-18 00:21:33",
        "P_UPDATEDATE": "2018-09-18 00:21:33"
    },
    {
        "ND02HhRV": "10000",
        "P_UNIT_ID": "6003412",
        "P_DISPORDER": "85",
        "P_CREATEDATE": "2018-09-18 00:21:33",
        "P_UPDATEDATE": "2018-09-18 00:21:33"
    },
    {
        "ND02HhRV": "10000",
        "P_UNIT_ID": "6003612",
        "P_DISPORDER": "86",
        "P_CREATEDATE": "2018-09-18 00:21:33",
        "P_UPDATEDATE": "2018-09-18 00:21:33"
    },
    {
        "ND02HhRV": "10001",
        "P_UNIT_ID": "1000122",
        "P_DISPORDER": "1",
        "P_CREATEDATE": "2018-09-18 00:21:33",
        "P_UPDATEDATE": "2018-09-18 00:21:33"
    },
    {
        "ND02HhRV": "10001",
        "P_UNIT_ID": "1000222",
        "P_DISPORDER": "2",
        "P_CREATEDATE": "2018-09-18 00:21:33",
        "P_UPDATEDATE": "2018-09-18 00:21:33"
    },
    {
        "ND02HhRV": "10001",
        "P_UNIT_ID": "1000322",
        "P_DISPORDER": "3",
        "P_CREATEDATE": "2018-09-18 00:21:33",
        "P_UPDATEDATE": "2018-09-18 00:21:33"
    },
    {
        "ND02HhRV": "10001",
        "P_UNIT_ID": "1000422",
        "P_DISPORDER": "4",
        "P_CREATEDATE": "2018-09-18 00:21:33",
        "P_UPDATEDATE": "2018-09-18 00:21:33"
    },
    {
        "ND02HhRV": "10001",
        "P_UNIT_ID": "1000522",
        "P_DISPORDER": "5",
        "P_CREATEDATE": "2018-09-18 00:21:33",
        "P_UPDATEDATE": "2018-09-18 00:21:33"
    },
    {
        "ND02HhRV": "10001",
        "P_UNIT_ID": "1001412",
        "P_DISPORDER": "6",
        "P_CREATEDATE": "2018-09-18 00:21:33",
        "P_UPDATEDATE": "2018-09-18 00:21:33"
    },
    {
        "ND02HhRV": "10001",
        "P_UNIT_ID": "1001712",
        "P_DISPORDER": "7",
        "P_CREATEDATE": "2018-09-18 00:21:33",
        "P_UPDATEDATE": "2018-09-18 00:21:33"
    },
    {
        "ND02HhRV": "10001",
        "P_UNIT_ID": "1001812",
        "P_DISPORDER": "8",
        "P_CREATEDATE": "2018-09-18 00:21:33",
        "P_UPDATEDATE": "2018-09-18 00:21:33"
    },
    {
        "ND02HhRV": "10001",
        "P_UNIT_ID": "1001912",
        "P_DISPORDER": "9",
        "P_CREATEDATE": "2018-09-18 00:21:33",
        "P_UPDATEDATE": "2018-09-18 00:21:33"
    },
    {
        "ND02HhRV": "10001",
        "P_UNIT_ID": "1001922",
        "P_DISPORDER": "11",
        "P_CREATEDATE": "2018-09-18 00:21:33",
        "P_UPDATEDATE": "2018-09-18 00:21:33"
    },
    {
        "ND02HhRV": "10001",
        "P_UNIT_ID": "1002012",
        "P_DISPORDER": "10",
        "P_CREATEDATE": "2018-09-18 00:21:33",
        "P_UPDATEDATE": "2018-09-18 00:21:33"
    },
    {
        "ND02HhRV": "10001",
        "P_UNIT_ID": "1002522",
        "P_DISPORDER": "13",
        "P_CREATEDATE": "2018-09-18 00:21:33",
        "P_UPDATEDATE": "2018-09-18 00:21:33"
    },
    {
        "ND02HhRV": "10001",
        "P_UNIT_ID": "1003012",
        "P_DISPORDER": "12",
        "P_CREATEDATE": "2018-09-18 00:21:33",
        "P_UPDATEDATE": "2018-09-18 00:21:33"
    },
    {
        "ND02HhRV": "10001",
        "P_UNIT_ID": "1003212",
        "P_DISPORDER": "14",
        "P_CREATEDATE": "2018-09-18 00:21:33",
        "P_UPDATEDATE": "2018-09-18 00:21:33"
    },
    {
        "ND02HhRV": "10001",
        "P_UNIT_ID": "2000122",
        "P_DISPORDER": "15",
        "P_CREATEDATE": "2018-09-18 00:21:33",
        "P_UPDATEDATE": "2018-09-18 00:21:33"
    },
    {
        "ND02HhRV": "10001",
        "P_UNIT_ID": "2000222",
        "P_DISPORDER": "16",
        "P_CREATEDATE": "2018-09-18 00:21:33",
        "P_UPDATEDATE": "2018-09-18 00:21:33"
    },
    {
        "ND02HhRV": "10001",
        "P_UNIT_ID": "2000322",
        "P_DISPORDER": "17",
        "P_CREATEDATE": "2018-09-18 00:21:33",
        "P_UPDATEDATE": "2018-09-18 00:21:33"
    },
    {
        "ND02HhRV": "10001",
        "P_UNIT_ID": "2000422",
        "P_DISPORDER": "18",
        "P_CREATEDATE": "2018-09-18 00:21:33",
        "P_UPDATEDATE": "2018-09-18 00:21:33"
    },
    {
        "ND02HhRV": "10001",
        "P_UNIT_ID": "2000522",
        "P_DISPORDER": "19",
        "P_CREATEDATE": "2018-09-18 00:21:33",
        "P_UPDATEDATE": "2018-09-18 00:21:33"
    },
    {
        "ND02HhRV": "10001",
        "P_UNIT_ID": "2001312",
        "P_DISPORDER": "20",
        "P_CREATEDATE": "2018-09-18 00:21:33",
        "P_UPDATEDATE": "2018-09-18 00:21:33"
    },
    {
        "ND02HhRV": "10001",
        "P_UNIT_ID": "2001412",
        "P_DISPORDER": "21",
        "P_CREATEDATE": "2018-09-18 00:21:33",
        "P_UPDATEDATE": "2018-09-18 00:21:33"
    },
    {
        "ND02HhRV": "10001",
        "P_UNIT_ID": "2001612",
        "P_DISPORDER": "22",
        "P_CREATEDATE": "2018-09-18 00:21:33",
        "P_UPDATEDATE": "2018-09-18 00:21:33"
    },
    {
        "ND02HhRV": "10001",
        "P_UNIT_ID": "2001712",
        "P_DISPORDER": "23",
        "P_CREATEDATE": "2018-09-18 00:21:33",
        "P_UPDATEDATE": "2018-09-18 00:21:33"
    },
    {
        "ND02HhRV": "10001",
        "P_UNIT_ID": "2001812",
        "P_DISPORDER": "25",
        "P_CREATEDATE": "2018-09-18 00:21:33",
        "P_UPDATEDATE": "2018-09-18 00:21:33"
    },
    {
        "ND02HhRV": "10001",
        "P_UNIT_ID": "2001912",
        "P_DISPORDER": "24",
        "P_CREATEDATE": "2018-09-18 00:21:33",
        "P_UPDATEDATE": "2018-09-18 00:21:33"
    },
    {
        "ND02HhRV": "10001",
        "P_UNIT_ID": "2001922",
        "P_DISPORDER": "26",
        "P_CREATEDATE": "2018-09-18 00:21:33",
        "P_UPDATEDATE": "2018-09-18 00:21:33"
    },
    {
        "ND02HhRV": "10001",
        "P_UNIT_ID": "2003012",
        "P_DISPORDER": "27",
        "P_CREATEDATE": "2018-09-18 00:21:33",
        "P_UPDATEDATE": "2018-09-18 00:21:33"
    },
    {
        "ND02HhRV": "10001",
        "P_UNIT_ID": "3000122",
        "P_DISPORDER": "28",
        "P_CREATEDATE": "2018-09-18 00:21:33",
        "P_UPDATEDATE": "2018-09-18 00:21:33"
    },
    {
        "ND02HhRV": "10001",
        "P_UNIT_ID": "3000222",
        "P_DISPORDER": "29",
        "P_CREATEDATE": "2018-09-18 00:21:33",
        "P_UPDATEDATE": "2018-09-18 00:21:33"
    },
    {
        "ND02HhRV": "10001",
        "P_UNIT_ID": "3000322",
        "P_DISPORDER": "30",
        "P_CREATEDATE": "2018-09-18 00:21:33",
        "P_UPDATEDATE": "2018-09-18 00:21:33"
    },
    {
        "ND02HhRV": "10001",
        "P_UNIT_ID": "3000422",
        "P_DISPORDER": "31",
        "P_CREATEDATE": "2018-09-18 00:21:33",
        "P_UPDATEDATE": "2018-09-18 00:21:33"
    },
    {
        "ND02HhRV": "10001",
        "P_UNIT_ID": "3000522",
        "P_DISPORDER": "32",
        "P_CREATEDATE": "2018-09-18 00:21:33",
        "P_UPDATEDATE": "2018-09-18 00:21:33"
    },
    {
        "ND02HhRV": "10001",
        "P_UNIT_ID": "3001412",
        "P_DISPORDER": "33",
        "P_CREATEDATE": "2018-09-18 00:21:33",
        "P_UPDATEDATE": "2018-09-18 00:21:33"
    },
    {
        "ND02HhRV": "10001",
        "P_UNIT_ID": "3001612",
        "P_DISPORDER": "34",
        "P_CREATEDATE": "2018-09-18 00:21:33",
        "P_UPDATEDATE": "2018-09-18 00:21:33"
    },
    {
        "ND02HhRV": "10001",
        "P_UNIT_ID": "3001712",
        "P_DISPORDER": "35",
        "P_CREATEDATE": "2018-09-18 00:21:33",
        "P_UPDATEDATE": "2018-09-18 00:21:33"
    },
    {
        "ND02HhRV": "10001",
        "P_UNIT_ID": "3001812",
        "P_DISPORDER": "37",
        "P_CREATEDATE": "2018-09-18 00:21:33",
        "P_UPDATEDATE": "2018-09-18 00:21:33"
    },
    {
        "ND02HhRV": "10001",
        "P_UNIT_ID": "3001822",
        "P_DISPORDER": "38",
        "P_CREATEDATE": "2018-09-18 00:21:33",
        "P_UPDATEDATE": "2018-09-18 00:21:33"
    },
    {
        "ND02HhRV": "10001",
        "P_UNIT_ID": "3001912",
        "P_DISPORDER": "36",
        "P_CREATEDATE": "2018-09-18 00:21:33",
        "P_UPDATEDATE": "2018-09-18 00:21:33"
    },
    {
        "ND02HhRV": "10001",
        "P_UNIT_ID": "3002122",
        "P_DISPORDER": "39",
        "P_CREATEDATE": "2018-09-18 00:21:33",
        "P_UPDATEDATE": "2018-09-18 00:21:33"
    },
    {
        "ND02HhRV": "10001",
        "P_UNIT_ID": "3003012",
        "P_DISPORDER": "40",
        "P_CREATEDATE": "2018-09-18 00:21:33",
        "P_UPDATEDATE": "2018-09-18 00:21:33"
    },
    {
        "ND02HhRV": "10001",
        "P_UNIT_ID": "3003112",
        "P_DISPORDER": "41",
        "P_CREATEDATE": "2018-09-18 00:21:33",
        "P_UPDATEDATE": "2018-09-18 00:21:33"
    },
    {
        "ND02HhRV": "10001",
        "P_UNIT_ID": "4000122",
        "P_DISPORDER": "42",
        "P_CREATEDATE": "2018-09-18 00:21:33",
        "P_UPDATEDATE": "2018-09-18 00:21:33"
    },
    {
        "ND02HhRV": "10001",
        "P_UNIT_ID": "4000222",
        "P_DISPORDER": "43",
        "P_CREATEDATE": "2018-09-18 00:21:33",
        "P_UPDATEDATE": "2018-09-18 00:21:33"
    },
    {
        "ND02HhRV": "10001",
        "P_UNIT_ID": "4000322",
        "P_DISPORDER": "44",
        "P_CREATEDATE": "2018-09-18 00:21:33",
        "P_UPDATEDATE": "2018-09-18 00:21:33"
    },
    {
        "ND02HhRV": "10001",
        "P_UNIT_ID": "4000422",
        "P_DISPORDER": "45",
        "P_CREATEDATE": "2018-09-18 00:21:33",
        "P_UPDATEDATE": "2018-09-18 00:21:33"
    },
    {
        "ND02HhRV": "10001",
        "P_UNIT_ID": "4000522",
        "P_DISPORDER": "46",
        "P_CREATEDATE": "2018-09-18 00:21:33",
        "P_UPDATEDATE": "2018-09-18 00:21:33"
    },
    {
        "ND02HhRV": "10001",
        "P_UNIT_ID": "4001312",
        "P_DISPORDER": "47",
        "P_CREATEDATE": "2018-09-18 00:21:33",
        "P_UPDATEDATE": "2018-09-18 00:21:33"
    },
    {
        "ND02HhRV": "10001",
        "P_UNIT_ID": "4001512",
        "P_DISPORDER": "48",
        "P_CREATEDATE": "2018-09-18 00:21:33",
        "P_UPDATEDATE": "2018-09-18 00:21:33"
    },
    {
        "ND02HhRV": "10001",
        "P_UNIT_ID": "4001612",
        "P_DISPORDER": "49",
        "P_CREATEDATE": "2018-09-18 00:21:33",
        "P_UPDATEDATE": "2018-09-18 00:21:33"
    },
    {
        "ND02HhRV": "10001",
        "P_UNIT_ID": "4001712",
        "P_DISPORDER": "50",
        "P_CREATEDATE": "2018-09-18 00:21:33",
        "P_UPDATEDATE": "2018-09-18 00:21:33"
    },
    {
        "ND02HhRV": "10001",
        "P_UNIT_ID": "4001812",
        "P_DISPORDER": "51",
        "P_CREATEDATE": "2018-09-18 00:21:33",
        "P_UPDATEDATE": "2018-09-18 00:21:33"
    },
    {
        "ND02HhRV": "10001",
        "P_UNIT_ID": "4001912",
        "P_DISPORDER": "52",
        "P_CREATEDATE": "2018-09-18 00:21:33",
        "P_UPDATEDATE": "2018-09-18 00:21:33"
    },
    {
        "ND02HhRV": "10001",
        "P_UNIT_ID": "4001922",
        "P_DISPORDER": "53",
        "P_CREATEDATE": "2018-09-18 00:21:33",
        "P_UPDATEDATE": "2018-09-18 00:21:33"
    },
    {
        "ND02HhRV": "10001",
        "P_UNIT_ID": "4002222",
        "P_DISPORDER": "54",
        "P_CREATEDATE": "2018-09-18 00:21:33",
        "P_UPDATEDATE": "2018-09-18 00:21:33"
    },
    {
        "ND02HhRV": "10001",
        "P_UNIT_ID": "4002912",
        "P_DISPORDER": "55",
        "P_CREATEDATE": "2018-09-18 00:21:33",
        "P_UPDATEDATE": "2018-09-18 00:21:33"
    },
    {
        "ND02HhRV": "10001",
        "P_UNIT_ID": "4003012",
        "P_DISPORDER": "56",
        "P_CREATEDATE": "2018-09-18 00:21:33",
        "P_UPDATEDATE": "2018-09-18 00:21:33"
    },
    {
        "ND02HhRV": "10001",
        "P_UNIT_ID": "5000122",
        "P_DISPORDER": "57",
        "P_CREATEDATE": "2018-09-18 00:21:33",
        "P_UPDATEDATE": "2018-09-18 00:21:33"
    },
    {
        "ND02HhRV": "10001",
        "P_UNIT_ID": "5000222",
        "P_DISPORDER": "58",
        "P_CREATEDATE": "2018-09-18 00:21:33",
        "P_UPDATEDATE": "2018-09-18 00:21:33"
    },
    {
        "ND02HhRV": "10001",
        "P_UNIT_ID": "5000322",
        "P_DISPORDER": "59",
        "P_CREATEDATE": "2018-09-18 00:21:33",
        "P_UPDATEDATE": "2018-09-18 00:21:33"
    },
    {
        "ND02HhRV": "10001",
        "P_UNIT_ID": "5000422",
        "P_DISPORDER": "60",
        "P_CREATEDATE": "2018-09-18 00:21:33",
        "P_UPDATEDATE": "2018-09-18 00:21:33"
    },
    {
        "ND02HhRV": "10001",
        "P_UNIT_ID": "5000522",
        "P_DISPORDER": "61",
        "P_CREATEDATE": "2018-09-18 00:21:33",
        "P_UPDATEDATE": "2018-09-18 00:21:33"
    },
    {
        "ND02HhRV": "10001",
        "P_UNIT_ID": "5001412",
        "P_DISPORDER": "62",
        "P_CREATEDATE": "2018-09-18 00:21:33",
        "P_UPDATEDATE": "2018-09-18 00:21:33"
    },
    {
        "ND02HhRV": "10001",
        "P_UNIT_ID": "5001512",
        "P_DISPORDER": "63",
        "P_CREATEDATE": "2018-09-18 00:21:33",
        "P_UPDATEDATE": "2018-09-18 00:21:33"
    },
    {
        "ND02HhRV": "10001",
        "P_UNIT_ID": "5001612",
        "P_DISPORDER": "64",
        "P_CREATEDATE": "2018-09-18 00:21:33",
        "P_UPDATEDATE": "2018-09-18 00:21:33"
    },
    {
        "ND02HhRV": "10001",
        "P_UNIT_ID": "5001812",
        "P_DISPORDER": "65",
        "P_CREATEDATE": "2018-09-18 00:21:33",
        "P_UPDATEDATE": "2018-09-18 00:21:33"
    },
    {
        "ND02HhRV": "10001",
        "P_UNIT_ID": "5001922",
        "P_DISPORDER": "69",
        "P_CREATEDATE": "2018-09-18 00:21:33",
        "P_UPDATEDATE": "2018-09-18 00:21:33"
    },
    {
        "ND02HhRV": "10001",
        "P_UNIT_ID": "5002012",
        "P_DISPORDER": "66",
        "P_CREATEDATE": "2018-09-18 00:21:33",
        "P_UPDATEDATE": "2018-09-18 00:21:33"
    },
    {
        "ND02HhRV": "10001",
        "P_UNIT_ID": "5003012",
        "P_DISPORDER": "67",
        "P_CREATEDATE": "2018-09-18 00:21:33",
        "P_UPDATEDATE": "2018-09-18 00:21:33"
    },
    {
        "ND02HhRV": "10001",
        "P_UNIT_ID": "5003112",
        "P_DISPORDER": "68",
        "P_CREATEDATE": "2018-09-18 00:21:33",
        "P_UPDATEDATE": "2018-09-18 00:21:33"
    },
    {
        "ND02HhRV": "10001",
        "P_UNIT_ID": "5003312",
        "P_DISPORDER": "70",
        "P_CREATEDATE": "2018-09-18 00:21:33",
        "P_UPDATEDATE": "2018-09-18 00:21:33"
    },
    {
        "ND02HhRV": "10001",
        "P_UNIT_ID": "5003412",
        "P_DISPORDER": "71",
        "P_CREATEDATE": "2018-09-18 00:21:33",
        "P_UPDATEDATE": "2018-09-18 00:21:33"
    },
    {
        "ND02HhRV": "10001",
        "P_UNIT_ID": "6000122",
        "P_DISPORDER": "72",
        "P_CREATEDATE": "2018-09-18 00:21:33",
        "P_UPDATEDATE": "2018-09-18 00:21:33"
    },
    {
        "ND02HhRV": "10001",
        "P_UNIT_ID": "6000222",
        "P_DISPORDER": "73",
        "P_CREATEDATE": "2018-09-18 00:21:33",
        "P_UPDATEDATE": "2018-09-18 00:21:33"
    },
    {
        "ND02HhRV": "10001",
        "P_UNIT_ID": "6000322",
        "P_DISPORDER": "74",
        "P_CREATEDATE": "2018-09-18 00:21:33",
        "P_UPDATEDATE": "2018-09-18 00:21:33"
    },
    {
        "ND02HhRV": "10001",
        "P_UNIT_ID": "6000422",
        "P_DISPORDER": "75",
        "P_CREATEDATE": "2018-09-18 00:21:33",
        "P_UPDATEDATE": "2018-09-18 00:21:33"
    },
    {
        "ND02HhRV": "10001",
        "P_UNIT_ID": "6000522",
        "P_DISPORDER": "76",
        "P_CREATEDATE": "2018-09-18 00:21:33",
        "P_UPDATEDATE": "2018-09-18 00:21:33"
    },
    {
        "ND02HhRV": "10001",
        "P_UNIT_ID": "6001512",
        "P_DISPORDER": "77",
        "P_CREATEDATE": "2018-09-18 00:21:33",
        "P_UPDATEDATE": "2018-09-18 00:21:33"
    },
    {
        "ND02HhRV": "10001",
        "P_UNIT_ID": "6001612",
        "P_DISPORDER": "78",
        "P_CREATEDATE": "2018-09-18 00:21:33",
        "P_UPDATEDATE": "2018-09-18 00:21:33"
    },
    {
        "ND02HhRV": "10001",
        "P_UNIT_ID": "6001712",
        "P_DISPORDER": "79",
        "P_CREATEDATE": "2018-09-18 00:21:33",
        "P_UPDATEDATE": "2018-09-18 00:21:33"
    },
    {
        "ND02HhRV": "10001",
        "P_UNIT_ID": "6001822",
        "P_DISPORDER": "84",
        "P_CREATEDATE": "2018-09-18 00:21:33",
        "P_UPDATEDATE": "2018-09-18 00:21:33"
    },
    {
        "ND02HhRV": "10001",
        "P_UNIT_ID": "6002012",
        "P_DISPORDER": "80",
        "P_CREATEDATE": "2018-09-18 00:21:33",
        "P_UPDATEDATE": "2018-09-18 00:21:33"
    },
    {
        "ND02HhRV": "10001",
        "P_UNIT_ID": "6002212",
        "P_DISPORDER": "81",
        "P_CREATEDATE": "2018-09-18 00:21:33",
        "P_UPDATEDATE": "2018-09-18 00:21:33"
    },
    {
        "ND02HhRV": "10001",
        "P_UNIT_ID": "6003112",
        "P_DISPORDER": "82",
        "P_CREATEDATE": "2018-09-18 00:21:33",
        "P_UPDATEDATE": "2018-09-18 00:21:33"
    },
    {
        "ND02HhRV": "10001",
        "P_UNIT_ID": "6003212",
        "P_DISPORDER": "83",
        "P_CREATEDATE": "2018-09-18 00:21:33",
        "P_UPDATEDATE": "2018-09-18 00:21:33"
    },
    {
        "ND02HhRV": "10001",
        "P_UNIT_ID": "6003412",
        "P_DISPORDER": "85",
        "P_CREATEDATE": "2018-09-18 00:21:33",
        "P_UPDATEDATE": "2018-09-18 00:21:33"
    },
    {
        "ND02HhRV": "10001",
        "P_UNIT_ID": "6003612",
        "P_DISPORDER": "86",
        "P_CREATEDATE": "2018-09-18 00:21:33",
        "P_UPDATEDATE": "2018-09-18 00:21:33"
    }
]