[
    {
        "ND02HhRV": "101",
        "P_UNIT_ID": "1000122",
        "P_DISPORDER": "1",
        "P_CREATEDATE": "2018-02-16 15:42:56",
        "P_UPDATEDATE": "2018-02-16 15:42:56"
    },
    {
        "ND02HhRV": "101",
        "P_UNIT_ID": "2000122",
        "P_DISPORDER": "2",
        "P_CREATEDATE": "2018-02-16 15:42:56",
        "P_UPDATEDATE": "2018-02-16 15:42:56"
    },
    {
        "ND02HhRV": "101",
        "P_UNIT_ID": "3000122",
        "P_DISPORDER": "3",
        "P_CREATEDATE": "2018-02-16 15:42:56",
        "P_UPDATEDATE": "2018-02-16 15:42:56"
    },
    {
        "ND02HhRV": "101",
        "P_UNIT_ID": "4000122",
        "P_DISPORDER": "4",
        "P_CREATEDATE": "2018-02-16 15:42:56",
        "P_UPDATEDATE": "2018-02-16 15:42:56"
    },
    {
        "ND02HhRV": "101",
        "P_UNIT_ID": "5000122",
        "P_DISPORDER": "5",
        "P_CREATEDATE": "2018-02-16 15:42:56",
        "P_UPDATEDATE": "2018-02-16 15:42:56"
    },
    {
        "ND02HhRV": "101",
        "P_UNIT_ID": "6000122",
        "P_DISPORDER": "6",
        "P_CREATEDATE": "2018-02-16 15:42:56",
        "P_UPDATEDATE": "2018-02-16 15:42:56"
    },
    {
        "ND02HhRV": "102",
        "P_UNIT_ID": "6001612",
        "P_DISPORDER": "1",
        "P_CREATEDATE": "2018-02-16 15:42:56",
        "P_UPDATEDATE": "2018-02-16 15:42:56"
    },
    {
        "ND02HhRV": "102",
        "P_UNIT_ID": "6001712",
        "P_DISPORDER": "2",
        "P_CREATEDATE": "2018-02-16 15:42:56",
        "P_UPDATEDATE": "2018-02-16 15:42:56"
    },
    {
        "ND02HhRV": "103",
        "P_UNIT_ID": "5000522",
        "P_DISPORDER": "2",
        "P_CREATEDATE": "2018-02-16 15:42:56",
        "P_UPDATEDATE": "2018-02-16 15:42:56"
    },
    {
        "ND02HhRV": "103",
        "P_UNIT_ID": "5002012",
        "P_DISPORDER": "1",
        "P_CREATEDATE": "2018-02-16 15:42:56",
        "P_UPDATEDATE": "2018-02-16 15:42:56"
    },
    {
        "ND02HhRV": "103",
        "P_UNIT_ID": "6000522",
        "P_DISPORDER": "3",
        "P_CREATEDATE": "2018-02-16 15:42:56",
        "P_UPDATEDATE": "2018-02-16 15:42:56"
    },
    {
        "ND02HhRV": "104",
        "P_UNIT_ID": "1000322",
        "P_DISPORDER": "1",
        "P_CREATEDATE": "2018-02-16 15:42:56",
        "P_UPDATEDATE": "2018-02-16 15:42:56"
    },
    {
        "ND02HhRV": "104",
        "P_UNIT_ID": "2000322",
        "P_DISPORDER": "2",
        "P_CREATEDATE": "2018-02-16 15:42:56",
        "P_UPDATEDATE": "2018-02-16 15:42:56"
    },
    {
        "ND02HhRV": "104",
        "P_UNIT_ID": "3000322",
        "P_DISPORDER": "3",
        "P_CREATEDATE": "2018-02-16 15:42:56",
        "P_UPDATEDATE": "2018-02-16 15:42:56"
    },
    {
        "ND02HhRV": "104",
        "P_UNIT_ID": "4000322",
        "P_DISPORDER": "4",
        "P_CREATEDATE": "2018-02-16 15:42:56",
        "P_UPDATEDATE": "2018-02-16 15:42:56"
    },
    {
        "ND02HhRV": "104",
        "P_UNIT_ID": "5000322",
        "P_DISPORDER": "5",
        "P_CREATEDATE": "2018-02-16 15:42:56",
        "P_UPDATEDATE": "2018-02-16 15:42:56"
    },
    {
        "ND02HhRV": "104",
        "P_UNIT_ID": "6000322",
        "P_DISPORDER": "6",
        "P_CREATEDATE": "2018-02-16 15:42:56",
        "P_UPDATEDATE": "2018-02-16 15:42:56"
    },
    {
        "ND02HhRV": "105",
        "P_UNIT_ID": "1000522",
        "P_DISPORDER": "1",
        "P_CREATEDATE": "2018-02-16 15:42:56",
        "P_UPDATEDATE": "2018-02-16 15:42:56"
    },
    {
        "ND02HhRV": "105",
        "P_UNIT_ID": "4001312",
        "P_DISPORDER": "2",
        "P_CREATEDATE": "2018-02-16 15:42:56",
        "P_UPDATEDATE": "2018-02-16 15:42:56"
    },
    {
        "ND02HhRV": "106",
        "P_UNIT_ID": "1000422",
        "P_DISPORDER": "1",
        "P_CREATEDATE": "2018-02-16 15:42:56",
        "P_UPDATEDATE": "2018-02-16 15:42:56"
    },
    {
        "ND02HhRV": "106",
        "P_UNIT_ID": "2000422",
        "P_DISPORDER": "2",
        "P_CREATEDATE": "2018-02-16 15:42:56",
        "P_UPDATEDATE": "2018-02-16 15:42:56"
    },
    {
        "ND02HhRV": "106",
        "P_UNIT_ID": "3000422",
        "P_DISPORDER": "3",
        "P_CREATEDATE": "2018-02-16 15:42:56",
        "P_UPDATEDATE": "2018-02-16 15:42:56"
    },
    {
        "ND02HhRV": "106",
        "P_UNIT_ID": "4000422",
        "P_DISPORDER": "4",
        "P_CREATEDATE": "2018-02-16 15:42:56",
        "P_UPDATEDATE": "2018-02-16 15:42:56"
    },
    {
        "ND02HhRV": "106",
        "P_UNIT_ID": "5000422",
        "P_DISPORDER": "5",
        "P_CREATEDATE": "2018-02-16 15:42:56",
        "P_UPDATEDATE": "2018-02-16 15:42:56"
    },
    {
        "ND02HhRV": "106",
        "P_UNIT_ID": "6000422",
        "P_DISPORDER": "6",
        "P_CREATEDATE": "2018-02-16 15:42:56",
        "P_UPDATEDATE": "2018-02-16 15:42:56"
    },
    {
        "ND02HhRV": "107",
        "P_UNIT_ID": "2001312",
        "P_DISPORDER": "1",
        "P_CREATEDATE": "2018-02-16 15:42:56",
        "P_UPDATEDATE": "2018-02-16 15:42:56"
    },
    {
        "ND02HhRV": "107",
        "P_UNIT_ID": "3000522",
        "P_DISPORDER": "2",
        "P_CREATEDATE": "2018-02-16 15:42:56",
        "P_UPDATEDATE": "2018-02-16 15:42:56"
    },
    {
        "ND02HhRV": "10000",
        "P_UNIT_ID": "1000122",
        "P_DISPORDER": "1",
        "P_CREATEDATE": "2018-02-16 15:42:56",
        "P_UPDATEDATE": "2018-02-16 15:42:56"
    },
    {
        "ND02HhRV": "10000",
        "P_UNIT_ID": "1000222",
        "P_DISPORDER": "2",
        "P_CREATEDATE": "2018-02-16 15:42:56",
        "P_UPDATEDATE": "2018-02-16 15:42:56"
    },
    {
        "ND02HhRV": "10000",
        "P_UNIT_ID": "1000322",
        "P_DISPORDER": "3",
        "P_CREATEDATE": "2018-02-16 15:42:56",
        "P_UPDATEDATE": "2018-02-16 15:42:56"
    },
    {
        "ND02HhRV": "10000",
        "P_UNIT_ID": "1000422",
        "P_DISPORDER": "4",
        "P_CREATEDATE": "2018-02-16 15:42:56",
        "P_UPDATEDATE": "2018-02-16 15:42:56"
    },
    {
        "ND02HhRV": "10000",
        "P_UNIT_ID": "1000522",
        "P_DISPORDER": "5",
        "P_CREATEDATE": "2018-02-16 15:42:56",
        "P_UPDATEDATE": "2018-02-16 15:42:56"
    },
    {
        "ND02HhRV": "10000",
        "P_UNIT_ID": "1001412",
        "P_DISPORDER": "6",
        "P_CREATEDATE": "2018-02-16 15:42:56",
        "P_UPDATEDATE": "2018-02-16 15:42:56"
    },
    {
        "ND02HhRV": "10000",
        "P_UNIT_ID": "1001712",
        "P_DISPORDER": "7",
        "P_CREATEDATE": "2018-02-16 15:42:56",
        "P_UPDATEDATE": "2018-02-16 15:42:56"
    },
    {
        "ND02HhRV": "10000",
        "P_UNIT_ID": "1001812",
        "P_DISPORDER": "8",
        "P_CREATEDATE": "2018-02-16 15:42:56",
        "P_UPDATEDATE": "2018-02-16 15:42:56"
    },
    {
        "ND02HhRV": "10000",
        "P_UNIT_ID": "1001912",
        "P_DISPORDER": "9",
        "P_CREATEDATE": "2018-02-16 15:42:56",
        "P_UPDATEDATE": "2018-02-16 15:42:56"
    },
    {
        "ND02HhRV": "10000",
        "P_UNIT_ID": "2000122",
        "P_DISPORDER": "10",
        "P_CREATEDATE": "2018-02-16 15:42:56",
        "P_UPDATEDATE": "2018-02-16 15:42:56"
    },
    {
        "ND02HhRV": "10000",
        "P_UNIT_ID": "2000222",
        "P_DISPORDER": "11",
        "P_CREATEDATE": "2018-02-16 15:42:56",
        "P_UPDATEDATE": "2018-02-16 15:42:56"
    },
    {
        "ND02HhRV": "10000",
        "P_UNIT_ID": "2000322",
        "P_DISPORDER": "12",
        "P_CREATEDATE": "2018-02-16 15:42:56",
        "P_UPDATEDATE": "2018-02-16 15:42:56"
    },
    {
        "ND02HhRV": "10000",
        "P_UNIT_ID": "2000422",
        "P_DISPORDER": "13",
        "P_CREATEDATE": "2018-02-16 15:42:56",
        "P_UPDATEDATE": "2018-02-16 15:42:56"
    },
    {
        "ND02HhRV": "10000",
        "P_UNIT_ID": "2000522",
        "P_DISPORDER": "14",
        "P_CREATEDATE": "2018-02-16 15:42:56",
        "P_UPDATEDATE": "2018-02-16 15:42:56"
    },
    {
        "ND02HhRV": "10000",
        "P_UNIT_ID": "2001312",
        "P_DISPORDER": "15",
        "P_CREATEDATE": "2018-02-16 15:42:56",
        "P_UPDATEDATE": "2018-02-16 15:42:56"
    },
    {
        "ND02HhRV": "10000",
        "P_UNIT_ID": "2001412",
        "P_DISPORDER": "16",
        "P_CREATEDATE": "2018-02-16 15:42:56",
        "P_UPDATEDATE": "2018-02-16 15:42:56"
    },
    {
        "ND02HhRV": "10000",
        "P_UNIT_ID": "2001712",
        "P_DISPORDER": "17",
        "P_CREATEDATE": "2018-02-16 15:42:56",
        "P_UPDATEDATE": "2018-02-16 15:42:56"
    },
    {
        "ND02HhRV": "10000",
        "P_UNIT_ID": "2001912",
        "P_DISPORDER": "18",
        "P_CREATEDATE": "2018-02-16 15:42:56",
        "P_UPDATEDATE": "2018-02-16 15:42:56"
    },
    {
        "ND02HhRV": "10000",
        "P_UNIT_ID": "3000122",
        "P_DISPORDER": "19",
        "P_CREATEDATE": "2018-02-16 15:42:56",
        "P_UPDATEDATE": "2018-02-16 15:42:56"
    },
    {
        "ND02HhRV": "10000",
        "P_UNIT_ID": "3000222",
        "P_DISPORDER": "20",
        "P_CREATEDATE": "2018-02-16 15:42:56",
        "P_UPDATEDATE": "2018-02-16 15:42:56"
    },
    {
        "ND02HhRV": "10000",
        "P_UNIT_ID": "3000322",
        "P_DISPORDER": "21",
        "P_CREATEDATE": "2018-02-16 15:42:56",
        "P_UPDATEDATE": "2018-02-16 15:42:56"
    },
    {
        "ND02HhRV": "10000",
        "P_UNIT_ID": "3000422",
        "P_DISPORDER": "22",
        "P_CREATEDATE": "2018-02-16 15:42:56",
        "P_UPDATEDATE": "2018-02-16 15:42:56"
    },
    {
        "ND02HhRV": "10000",
        "P_UNIT_ID": "3000522",
        "P_DISPORDER": "23",
        "P_CREATEDATE": "2018-02-16 15:42:56",
        "P_UPDATEDATE": "2018-02-16 15:42:56"
    },
    {
        "ND02HhRV": "10000",
        "P_UNIT_ID": "3001412",
        "P_DISPORDER": "24",
        "P_CREATEDATE": "2018-02-16 15:42:56",
        "P_UPDATEDATE": "2018-02-16 15:42:56"
    },
    {
        "ND02HhRV": "10000",
        "P_UNIT_ID": "3001612",
        "P_DISPORDER": "25",
        "P_CREATEDATE": "2018-02-16 15:42:56",
        "P_UPDATEDATE": "2018-02-16 15:42:56"
    },
    {
        "ND02HhRV": "10000",
        "P_UNIT_ID": "3001712",
        "P_DISPORDER": "26",
        "P_CREATEDATE": "2018-02-16 15:42:56",
        "P_UPDATEDATE": "2018-02-16 15:42:56"
    },
    {
        "ND02HhRV": "10000",
        "P_UNIT_ID": "3001912",
        "P_DISPORDER": "27",
        "P_CREATEDATE": "2018-02-16 15:42:56",
        "P_UPDATEDATE": "2018-02-16 15:42:56"
    },
    {
        "ND02HhRV": "10000",
        "P_UNIT_ID": "4000122",
        "P_DISPORDER": "28",
        "P_CREATEDATE": "2018-02-16 15:42:56",
        "P_UPDATEDATE": "2018-02-16 15:42:56"
    },
    {
        "ND02HhRV": "10000",
        "P_UNIT_ID": "4000222",
        "P_DISPORDER": "29",
        "P_CREATEDATE": "2018-02-16 15:42:56",
        "P_UPDATEDATE": "2018-02-16 15:42:56"
    },
    {
        "ND02HhRV": "10000",
        "P_UNIT_ID": "4000322",
        "P_DISPORDER": "30",
        "P_CREATEDATE": "2018-02-16 15:42:56",
        "P_UPDATEDATE": "2018-02-16 15:42:56"
    },
    {
        "ND02HhRV": "10000",
        "P_UNIT_ID": "4000422",
        "P_DISPORDER": "31",
        "P_CREATEDATE": "2018-02-16 15:42:56",
        "P_UPDATEDATE": "2018-02-16 15:42:56"
    },
    {
        "ND02HhRV": "10000",
        "P_UNIT_ID": "4000522",
        "P_DISPORDER": "32",
        "P_CREATEDATE": "2018-02-16 15:42:56",
        "P_UPDATEDATE": "2018-02-16 15:42:56"
    },
    {
        "ND02HhRV": "10000",
        "P_UNIT_ID": "4001312",
        "P_DISPORDER": "33",
        "P_CREATEDATE": "2018-02-16 15:42:56",
        "P_UPDATEDATE": "2018-02-16 15:42:56"
    },
    {
        "ND02HhRV": "10000",
        "P_UNIT_ID": "4001512",
        "P_DISPORDER": "34",
        "P_CREATEDATE": "2018-02-16 15:42:56",
        "P_UPDATEDATE": "2018-02-16 15:42:56"
    },
    {
        "ND02HhRV": "10000",
        "P_UNIT_ID": "4001612",
        "P_DISPORDER": "35",
        "P_CREATEDATE": "2018-02-16 15:42:56",
        "P_UPDATEDATE": "2018-02-16 15:42:56"
    },
    {
        "ND02HhRV": "10000",
        "P_UNIT_ID": "4001812",
        "P_DISPORDER": "36",
        "P_CREATEDATE": "2018-02-16 15:42:56",
        "P_UPDATEDATE": "2018-02-16 15:42:56"
    },
    {
        "ND02HhRV": "10000",
        "P_UNIT_ID": "5000122",
        "P_DISPORDER": "37",
        "P_CREATEDATE": "2018-02-16 15:42:56",
        "P_UPDATEDATE": "2018-02-16 15:42:56"
    },
    {
        "ND02HhRV": "10000",
        "P_UNIT_ID": "5000222",
        "P_DISPORDER": "38",
        "P_CREATEDATE": "2018-02-16 15:42:56",
        "P_UPDATEDATE": "2018-02-16 15:42:56"
    },
    {
        "ND02HhRV": "10000",
        "P_UNIT_ID": "5000322",
        "P_DISPORDER": "39",
        "P_CREATEDATE": "2018-02-16 15:42:56",
        "P_UPDATEDATE": "2018-02-16 15:42:56"
    },
    {
        "ND02HhRV": "10000",
        "P_UNIT_ID": "5000422",
        "P_DISPORDER": "40",
        "P_CREATEDATE": "2018-02-16 15:42:56",
        "P_UPDATEDATE": "2018-02-16 15:42:56"
    },
    {
        "ND02HhRV": "10000",
        "P_UNIT_ID": "5000522",
        "P_DISPORDER": "41",
        "P_CREATEDATE": "2018-02-16 15:42:56",
        "P_UPDATEDATE": "2018-02-16 15:42:56"
    },
    {
        "ND02HhRV": "10000",
        "P_UNIT_ID": "5001412",
        "P_DISPORDER": "42",
        "P_CREATEDATE": "2018-02-16 15:42:56",
        "P_UPDATEDATE": "2018-02-16 15:42:56"
    },
    {
        "ND02HhRV": "10000",
        "P_UNIT_ID": "5001512",
        "P_DISPORDER": "43",
        "P_CREATEDATE": "2018-02-16 15:42:56",
        "P_UPDATEDATE": "2018-02-16 15:42:56"
    },
    {
        "ND02HhRV": "10000",
        "P_UNIT_ID": "5001612",
        "P_DISPORDER": "44",
        "P_CREATEDATE": "2018-02-16 15:42:56",
        "P_UPDATEDATE": "2018-02-16 15:42:56"
    },
    {
        "ND02HhRV": "10000",
        "P_UNIT_ID": "5001812",
        "P_DISPORDER": "45",
        "P_CREATEDATE": "2018-02-16 15:42:56",
        "P_UPDATEDATE": "2018-02-16 15:42:56"
    },
    {
        "ND02HhRV": "10000",
        "P_UNIT_ID": "5002012",
        "P_DISPORDER": "46",
        "P_CREATEDATE": "2018-02-16 15:42:56",
        "P_UPDATEDATE": "2018-02-16 15:42:56"
    },
    {
        "ND02HhRV": "10000",
        "P_UNIT_ID": "6000122",
        "P_DISPORDER": "47",
        "P_CREATEDATE": "2018-02-16 15:42:56",
        "P_UPDATEDATE": "2018-02-16 15:42:56"
    },
    {
        "ND02HhRV": "10000",
        "P_UNIT_ID": "6000222",
        "P_DISPORDER": "48",
        "P_CREATEDATE": "2018-02-16 15:42:56",
        "P_UPDATEDATE": "2018-02-16 15:42:56"
    },
    {
        "ND02HhRV": "10000",
        "P_UNIT_ID": "6000322",
        "P_DISPORDER": "49",
        "P_CREATEDATE": "2018-02-16 15:42:56",
        "P_UPDATEDATE": "2018-02-16 15:42:56"
    },
    {
        "ND02HhRV": "10000",
        "P_UNIT_ID": "6000422",
        "P_DISPORDER": "50",
        "P_CREATEDATE": "2018-02-16 15:42:56",
        "P_UPDATEDATE": "2018-02-16 15:42:56"
    },
    {
        "ND02HhRV": "10000",
        "P_UNIT_ID": "6000522",
        "P_DISPORDER": "51",
        "P_CREATEDATE": "2018-02-16 15:42:56",
        "P_UPDATEDATE": "2018-02-16 15:42:56"
    },
    {
        "ND02HhRV": "10000",
        "P_UNIT_ID": "6001512",
        "P_DISPORDER": "52",
        "P_CREATEDATE": "2018-02-16 15:42:56",
        "P_UPDATEDATE": "2018-02-16 15:42:56"
    },
    {
        "ND02HhRV": "10000",
        "P_UNIT_ID": "6001612",
        "P_DISPORDER": "53",
        "P_CREATEDATE": "2018-02-16 15:42:56",
        "P_UPDATEDATE": "2018-02-16 15:42:56"
    },
    {
        "ND02HhRV": "10000",
        "P_UNIT_ID": "6001712",
        "P_DISPORDER": "54",
        "P_CREATEDATE": "2018-02-16 15:42:56",
        "P_UPDATEDATE": "2018-02-16 15:42:56"
    },
    {
        "ND02HhRV": "10000",
        "P_UNIT_ID": "6002012",
        "P_DISPORDER": "55",
        "P_CREATEDATE": "2018-02-16 15:42:56",
        "P_UPDATEDATE": "2018-02-16 15:42:56"
    },
    {
        "ND02HhRV": "10000",
        "P_UNIT_ID": "6002212",
        "P_DISPORDER": "56",
        "P_CREATEDATE": "2018-02-16 15:42:56",
        "P_UPDATEDATE": "2018-02-16 15:42:56"
    }
]