[
    {
        "ND02HhRV": "101",
        "P_UNIT_ID": "1000122",
        "P_DISPORDER": "1"
    },
    {
        "ND02HhRV": "101",
        "P_UNIT_ID": "2000122",
        "P_DISPORDER": "2"
    },
    {
        "ND02HhRV": "101",
        "P_UNIT_ID": "3000122",
        "P_DISPORDER": "3"
    },
    {
        "ND02HhRV": "101",
        "P_UNIT_ID": "4000122",
        "P_DISPORDER": "4"
    },
    {
        "ND02HhRV": "101",
        "P_UNIT_ID": "5000122",
        "P_DISPORDER": "5"
    },
    {
        "ND02HhRV": "101",
        "P_UNIT_ID": "6000122",
        "P_DISPORDER": "6"
    },
    {
        "ND02HhRV": "102",
        "P_UNIT_ID": "6001612",
        "P_DISPORDER": "1"
    },
    {
        "ND02HhRV": "102",
        "P_UNIT_ID": "6001712",
        "P_DISPORDER": "2"
    },
    {
        "ND02HhRV": "103",
        "P_UNIT_ID": "5000522",
        "P_DISPORDER": "2"
    },
    {
        "ND02HhRV": "103",
        "P_UNIT_ID": "5002012",
        "P_DISPORDER": "1"
    },
    {
        "ND02HhRV": "103",
        "P_UNIT_ID": "6000522",
        "P_DISPORDER": "3"
    },
    {
        "ND02HhRV": "104",
        "P_UNIT_ID": "1000322",
        "P_DISPORDER": "1"
    },
    {
        "ND02HhRV": "104",
        "P_UNIT_ID": "2000322",
        "P_DISPORDER": "2"
    },
    {
        "ND02HhRV": "104",
        "P_UNIT_ID": "3000322",
        "P_DISPORDER": "3"
    },
    {
        "ND02HhRV": "104",
        "P_UNIT_ID": "4000322",
        "P_DISPORDER": "4"
    },
    {
        "ND02HhRV": "104",
        "P_UNIT_ID": "5000322",
        "P_DISPORDER": "5"
    },
    {
        "ND02HhRV": "104",
        "P_UNIT_ID": "6000322",
        "P_DISPORDER": "6"
    },
    {
        "ND02HhRV": "105",
        "P_UNIT_ID": "1000522",
        "P_DISPORDER": "1"
    },
    {
        "ND02HhRV": "105",
        "P_UNIT_ID": "4001312",
        "P_DISPORDER": "2"
    },
    {
        "ND02HhRV": "106",
        "P_UNIT_ID": "1000422",
        "P_DISPORDER": "1"
    },
    {
        "ND02HhRV": "106",
        "P_UNIT_ID": "2000422",
        "P_DISPORDER": "2"
    },
    {
        "ND02HhRV": "106",
        "P_UNIT_ID": "3000422",
        "P_DISPORDER": "3"
    },
    {
        "ND02HhRV": "106",
        "P_UNIT_ID": "4000422",
        "P_DISPORDER": "4"
    },
    {
        "ND02HhRV": "106",
        "P_UNIT_ID": "5000422",
        "P_DISPORDER": "5"
    },
    {
        "ND02HhRV": "106",
        "P_UNIT_ID": "6000422",
        "P_DISPORDER": "6"
    },
    {
        "ND02HhRV": "107",
        "P_UNIT_ID": "2001312",
        "P_DISPORDER": "1"
    },
    {
        "ND02HhRV": "107",
        "P_UNIT_ID": "3000522",
        "P_DISPORDER": "2"
    },
    {
        "ND02HhRV": "108",
        "P_UNIT_ID": "1000222",
        "P_DISPORDER": "1"
    },
    {
        "ND02HhRV": "108",
        "P_UNIT_ID": "1001812",
        "P_DISPORDER": "2"
    },
    {
        "ND02HhRV": "109",
        "P_UNIT_ID": "2000222",
        "P_DISPORDER": "1"
    },
    {
        "ND02HhRV": "109",
        "P_UNIT_ID": "2001412",
        "P_DISPORDER": "2"
    },
    {
        "ND02HhRV": "110",
        "P_UNIT_ID": "3000222",
        "P_DISPORDER": "1"
    },
    {
        "ND02HhRV": "110",
        "P_UNIT_ID": "3001412",
        "P_DISPORDER": "2"
    },
    {
        "ND02HhRV": "111",
        "P_UNIT_ID": "4000222",
        "P_DISPORDER": "1"
    },
    {
        "ND02HhRV": "111",
        "P_UNIT_ID": "4000522",
        "P_DISPORDER": "2"
    },
    {
        "ND02HhRV": "112",
        "P_UNIT_ID": "5000222",
        "P_DISPORDER": "1"
    },
    {
        "ND02HhRV": "112",
        "P_UNIT_ID": "5001412",
        "P_DISPORDER": "2"
    },
    {
        "ND02HhRV": "113",
        "P_UNIT_ID": "6000222",
        "P_DISPORDER": "1"
    },
    {
        "ND02HhRV": "113",
        "P_UNIT_ID": "6001512",
        "P_DISPORDER": "2"
    },
    {
        "ND02HhRV": "201",
        "P_UNIT_ID": "1001912",
        "P_DISPORDER": "1"
    },
    {
        "ND02HhRV": "201",
        "P_UNIT_ID": "2001712",
        "P_DISPORDER": "2"
    },
    {
        "ND02HhRV": "201",
        "P_UNIT_ID": "3001712",
        "P_DISPORDER": "3"
    },
    {
        "ND02HhRV": "201",
        "P_UNIT_ID": "4001812",
        "P_DISPORDER": "4"
    },
    {
        "ND02HhRV": "202",
        "P_UNIT_ID": "1001412",
        "P_DISPORDER": "1"
    },
    {
        "ND02HhRV": "202",
        "P_UNIT_ID": "2000522",
        "P_DISPORDER": "2"
    },
    {
        "ND02HhRV": "203",
        "P_UNIT_ID": "1002012",
        "P_DISPORDER": "1"
    },
    {
        "ND02HhRV": "203",
        "P_UNIT_ID": "2001812",
        "P_DISPORDER": "2"
    },
    {
        "ND02HhRV": "203",
        "P_UNIT_ID": "3001812",
        "P_DISPORDER": "3"
    },
    {
        "ND02HhRV": "203",
        "P_UNIT_ID": "4001912",
        "P_DISPORDER": "4"
    },
    {
        "ND02HhRV": "203",
        "P_UNIT_ID": "6003112",
        "P_DISPORDER": "5"
    },
    {
        "ND02HhRV": "204",
        "P_UNIT_ID": "4000122",
        "P_DISPORDER": "1"
    },
    {
        "ND02HhRV": "204",
        "P_UNIT_ID": "5002012",
        "P_DISPORDER": "2"
    },
    {
        "ND02HhRV": "205",
        "P_UNIT_ID": "1001412",
        "P_DISPORDER": "1"
    },
    {
        "ND02HhRV": "205",
        "P_UNIT_ID": "2000122",
        "P_DISPORDER": "2"
    },
    {
        "ND02HhRV": "206",
        "P_UNIT_ID": "3000122",
        "P_DISPORDER": "1"
    },
    {
        "ND02HhRV": "206",
        "P_UNIT_ID": "5001512",
        "P_DISPORDER": "2"
    },
    {
        "ND02HhRV": "207",
        "P_UNIT_ID": "1000122",
        "P_DISPORDER": "1"
    },
    {
        "ND02HhRV": "207",
        "P_UNIT_ID": "4000222",
        "P_DISPORDER": "2"
    },
    {
        "ND02HhRV": "208",
        "P_UNIT_ID": "5000122",
        "P_DISPORDER": "1"
    },
    {
        "ND02HhRV": "208",
        "P_UNIT_ID": "6000522",
        "P_DISPORDER": "2"
    },
    {
        "ND02HhRV": "209",
        "P_UNIT_ID": "2001612",
        "P_DISPORDER": "1"
    },
    {
        "ND02HhRV": "209",
        "P_UNIT_ID": "5001812",
        "P_DISPORDER": "2"
    },
    {
        "ND02HhRV": "210",
        "P_UNIT_ID": "4001612",
        "P_DISPORDER": "1"
    },
    {
        "ND02HhRV": "210",
        "P_UNIT_ID": "4001712",
        "P_DISPORDER": "2"
    },
    {
        "ND02HhRV": "211",
        "P_UNIT_ID": "5001412",
        "P_DISPORDER": "1"
    },
    {
        "ND02HhRV": "211",
        "P_UNIT_ID": "6001512",
        "P_DISPORDER": "2"
    },
    {
        "ND02HhRV": "212",
        "P_UNIT_ID": "1000422",
        "P_DISPORDER": "1"
    },
    {
        "ND02HhRV": "212",
        "P_UNIT_ID": "2000422",
        "P_DISPORDER": "2"
    },
    {
        "ND02HhRV": "212",
        "P_UNIT_ID": "4000422",
        "P_DISPORDER": "3"
    },
    {
        "ND02HhRV": "213",
        "P_UNIT_ID": "1001824",
        "P_DISPORDER": "1"
    },
    {
        "ND02HhRV": "213",
        "P_UNIT_ID": "2001424",
        "P_DISPORDER": "2"
    },
    {
        "ND02HhRV": "213",
        "P_UNIT_ID": "3001524",
        "P_DISPORDER": "3"
    },
    {
        "ND02HhRV": "213",
        "P_UNIT_ID": "4001824",
        "P_DISPORDER": "4"
    },
    {
        "ND02HhRV": "213",
        "P_UNIT_ID": "5001624",
        "P_DISPORDER": "5"
    },
    {
        "ND02HhRV": "213",
        "P_UNIT_ID": "6001624",
        "P_DISPORDER": "6"
    },
    {
        "ND02HhRV": "214",
        "P_UNIT_ID": "3000222",
        "P_DISPORDER": "1"
    },
    {
        "ND02HhRV": "215",
        "P_UNIT_ID": "2001912",
        "P_DISPORDER": "1"
    },
    {
        "ND02HhRV": "215",
        "P_UNIT_ID": "3001912",
        "P_DISPORDER": "2"
    },
    {
        "ND02HhRV": "215",
        "P_UNIT_ID": "5001612",
        "P_DISPORDER": "3"
    },
    {
        "ND02HhRV": "215",
        "P_UNIT_ID": "6003112",
        "P_DISPORDER": "4"
    },
    {
        "ND02HhRV": "216",
        "P_UNIT_ID": "1000322",
        "P_DISPORDER": "1"
    },
    {
        "ND02HhRV": "216",
        "P_UNIT_ID": "3001412",
        "P_DISPORDER": "2"
    },
    {
        "ND02HhRV": "216",
        "P_UNIT_ID": "4001512",
        "P_DISPORDER": "3"
    },
    {
        "ND02HhRV": "216",
        "P_UNIT_ID": "6000122",
        "P_DISPORDER": "4"
    },
    {
        "ND02HhRV": "217",
        "P_UNIT_ID": "1001712",
        "P_DISPORDER": "1"
    },
    {
        "ND02HhRV": "217",
        "P_UNIT_ID": "2000322",
        "P_DISPORDER": "2"
    },
    {
        "ND02HhRV": "217",
        "P_UNIT_ID": "4000222",
        "P_DISPORDER": "3"
    },
    {
        "ND02HhRV": "217",
        "P_UNIT_ID": "5000422",
        "P_DISPORDER": "4"
    },
    {
        "ND02HhRV": "218",
        "P_UNIT_ID": "1000122",
        "P_DISPORDER": "1"
    },
    {
        "ND02HhRV": "218",
        "P_UNIT_ID": "2000122",
        "P_DISPORDER": "2"
    },
    {
        "ND02HhRV": "218",
        "P_UNIT_ID": "3000122",
        "P_DISPORDER": "3"
    },
    {
        "ND02HhRV": "218",
        "P_UNIT_ID": "4000122",
        "P_DISPORDER": "4"
    },
    {
        "ND02HhRV": "218",
        "P_UNIT_ID": "5000122",
        "P_DISPORDER": "5"
    },
    {
        "ND02HhRV": "219",
        "P_UNIT_ID": "5000522",
        "P_DISPORDER": "2"
    },
    {
        "ND02HhRV": "219",
        "P_UNIT_ID": "5002012",
        "P_DISPORDER": "1"
    },
    {
        "ND02HhRV": "219",
        "P_UNIT_ID": "6000522",
        "P_DISPORDER": "3"
    },
    {
        "ND02HhRV": "220",
        "P_UNIT_ID": "1001922",
        "P_DISPORDER": "1"
    },
    {
        "ND02HhRV": "220",
        "P_UNIT_ID": "3001822",
        "P_DISPORDER": "2"
    },
    {
        "ND02HhRV": "220",
        "P_UNIT_ID": "4001922",
        "P_DISPORDER": "3"
    },
    {
        "ND02HhRV": "221",
        "P_UNIT_ID": "5003012",
        "P_DISPORDER": "1"
    },
    {
        "ND02HhRV": "221",
        "P_UNIT_ID": "6003212",
        "P_DISPORDER": "2"
    },
    {
        "ND02HhRV": "222",
        "P_UNIT_ID": "1003012",
        "P_DISPORDER": "1"
    },
    {
        "ND02HhRV": "222",
        "P_UNIT_ID": "5003112",
        "P_DISPORDER": "2"
    },
    {
        "ND02HhRV": "223",
        "P_UNIT_ID": "4000222",
        "P_DISPORDER": "1"
    },
    {
        "ND02HhRV": "224",
        "P_UNIT_ID": "1000522",
        "P_DISPORDER": "2"
    },
    {
        "ND02HhRV": "224",
        "P_UNIT_ID": "1002012",
        "P_DISPORDER": "1"
    },
    {
        "ND02HhRV": "224",
        "P_UNIT_ID": "3001612",
        "P_DISPORDER": "3"
    },
    {
        "ND02HhRV": "224",
        "P_UNIT_ID": "3001812",
        "P_DISPORDER": "4"
    },
    {
        "ND02HhRV": "224",
        "P_UNIT_ID": "5000322",
        "P_DISPORDER": "6"
    },
    {
        "ND02HhRV": "224",
        "P_UNIT_ID": "5001412",
        "P_DISPORDER": "5"
    },
    {
        "ND02HhRV": "225",
        "P_UNIT_ID": "2000522",
        "P_DISPORDER": "2"
    },
    {
        "ND02HhRV": "225",
        "P_UNIT_ID": "2001412",
        "P_DISPORDER": "1"
    },
    {
        "ND02HhRV": "225",
        "P_UNIT_ID": "4000522",
        "P_DISPORDER": "4"
    },
    {
        "ND02HhRV": "225",
        "P_UNIT_ID": "4001912",
        "P_DISPORDER": "3"
    },
    {
        "ND02HhRV": "225",
        "P_UNIT_ID": "6000322",
        "P_DISPORDER": "6"
    },
    {
        "ND02HhRV": "225",
        "P_UNIT_ID": "6002212",
        "P_DISPORDER": "5"
    },
    {
        "ND02HhRV": "226",
        "P_UNIT_ID": "1000422",
        "P_DISPORDER": "1"
    },
    {
        "ND02HhRV": "226",
        "P_UNIT_ID": "2000422",
        "P_DISPORDER": "2"
    },
    {
        "ND02HhRV": "226",
        "P_UNIT_ID": "3000422",
        "P_DISPORDER": "3"
    },
    {
        "ND02HhRV": "226",
        "P_UNIT_ID": "4000422",
        "P_DISPORDER": "4"
    },
    {
        "ND02HhRV": "226",
        "P_UNIT_ID": "5000422",
        "P_DISPORDER": "5"
    },
    {
        "ND02HhRV": "226",
        "P_UNIT_ID": "6000422",
        "P_DISPORDER": "6"
    },
    {
        "ND02HhRV": "227",
        "P_UNIT_ID": "1002522",
        "P_DISPORDER": "1"
    },
    {
        "ND02HhRV": "227",
        "P_UNIT_ID": "2001922",
        "P_DISPORDER": "2"
    },
    {
        "ND02HhRV": "227",
        "P_UNIT_ID": "3002122",
        "P_DISPORDER": "3"
    },
    {
        "ND02HhRV": "227",
        "P_UNIT_ID": "4002222",
        "P_DISPORDER": "4"
    },
    {
        "ND02HhRV": "227",
        "P_UNIT_ID": "5001922",
        "P_DISPORDER": "5"
    },
    {
        "ND02HhRV": "228",
        "P_UNIT_ID": "1002522",
        "P_DISPORDER": "1"
    },
    {
        "ND02HhRV": "228",
        "P_UNIT_ID": "2001922",
        "P_DISPORDER": "2"
    },
    {
        "ND02HhRV": "228",
        "P_UNIT_ID": "3002122",
        "P_DISPORDER": "3"
    },
    {
        "ND02HhRV": "228",
        "P_UNIT_ID": "4002222",
        "P_DISPORDER": "4"
    },
    {
        "ND02HhRV": "228",
        "P_UNIT_ID": "5001922",
        "P_DISPORDER": "5"
    },
    {
        "ND02HhRV": "229",
        "P_UNIT_ID": "1003212",
        "P_DISPORDER": "1"
    },
    {
        "ND02HhRV": "229",
        "P_UNIT_ID": "2003012",
        "P_DISPORDER": "2"
    },
    {
        "ND02HhRV": "229",
        "P_UNIT_ID": "5003312",
        "P_DISPORDER": "3"
    },
    {
        "ND02HhRV": "230",
        "P_UNIT_ID": "2000222",
        "P_DISPORDER": "1"
    },
    {
        "ND02HhRV": "231",
        "P_UNIT_ID": "3003012",
        "P_DISPORDER": "1"
    },
    {
        "ND02HhRV": "231",
        "P_UNIT_ID": "4002912",
        "P_DISPORDER": "2"
    },
    {
        "ND02HhRV": "231",
        "P_UNIT_ID": "6003412",
        "P_DISPORDER": "3"
    },
    {
        "ND02HhRV": "232",
        "P_UNIT_ID": "1002522",
        "P_DISPORDER": "1"
    },
    {
        "ND02HhRV": "232",
        "P_UNIT_ID": "2001922",
        "P_DISPORDER": "2"
    },
    {
        "ND02HhRV": "232",
        "P_UNIT_ID": "3002122",
        "P_DISPORDER": "3"
    },
    {
        "ND02HhRV": "232",
        "P_UNIT_ID": "4002222",
        "P_DISPORDER": "4"
    },
    {
        "ND02HhRV": "232",
        "P_UNIT_ID": "6001822",
        "P_DISPORDER": "5"
    },
    {
        "ND02HhRV": "233",
        "P_UNIT_ID": "5002124",
        "P_DISPORDER": "1"
    },
    {
        "ND02HhRV": "233",
        "P_UNIT_ID": "5002224",
        "P_DISPORDER": "2"
    },
    {
        "ND02HhRV": "233",
        "P_UNIT_ID": "5002324",
        "P_DISPORDER": "3"
    },
    {
        "ND02HhRV": "233",
        "P_UNIT_ID": "5002424",
        "P_DISPORDER": "4"
    },
    {
        "ND02HhRV": "233",
        "P_UNIT_ID": "5002524",
        "P_DISPORDER": "5"
    },
    {
        "ND02HhRV": "234",
        "P_UNIT_ID": "5003412",
        "P_DISPORDER": "1"
    },
    {
        "ND02HhRV": "234",
        "P_UNIT_ID": "6003612",
        "P_DISPORDER": "2"
    },
    {
        "ND02HhRV": "235",
        "P_UNIT_ID": "1000222",
        "P_DISPORDER": "1"
    },
    {
        "ND02HhRV": "236",
        "P_UNIT_ID": "1000322",
        "P_DISPORDER": "1"
    },
    {
        "ND02HhRV": "236",
        "P_UNIT_ID": "2000322",
        "P_DISPORDER": "2"
    },
    {
        "ND02HhRV": "236",
        "P_UNIT_ID": "3000322",
        "P_DISPORDER": "3"
    },
    {
        "ND02HhRV": "236",
        "P_UNIT_ID": "4000322",
        "P_DISPORDER": "4"
    },
    {
        "ND02HhRV": "236",
        "P_UNIT_ID": "5000322",
        "P_DISPORDER": "5"
    },
    {
        "ND02HhRV": "236",
        "P_UNIT_ID": "6000322",
        "P_DISPORDER": "6"
    },
    {
        "ND02HhRV": "237",
        "P_UNIT_ID": "3001412",
        "P_DISPORDER": "3"
    },
    {
        "ND02HhRV": "237",
        "P_UNIT_ID": "3003112",
        "P_DISPORDER": "1"
    },
    {
        "ND02HhRV": "237",
        "P_UNIT_ID": "4003012",
        "P_DISPORDER": "2"
    },
    {
        "ND02HhRV": "238",
        "P_UNIT_ID": "5000222",
        "P_DISPORDER": "1"
    },
    {
        "ND02HhRV": "238",
        "P_UNIT_ID": "6000222",
        "P_DISPORDER": "2"
    },
    {
        "ND02HhRV": "239",
        "P_UNIT_ID": "5003412",
        "P_DISPORDER": "1"
    },
    {
        "ND02HhRV": "239",
        "P_UNIT_ID": "6003612",
        "P_DISPORDER": "2"
    },
    {
        "ND02HhRV": "240",
        "P_UNIT_ID": "5001512",
        "P_DISPORDER": "1"
    },
    {
        "ND02HhRV": "240",
        "P_UNIT_ID": "6003412",
        "P_DISPORDER": "2"
    },
    {
        "ND02HhRV": "241",
        "P_UNIT_ID": "1003212",
        "P_DISPORDER": "1"
    },
    {
        "ND02HhRV": "241",
        "P_UNIT_ID": "3003012",
        "P_DISPORDER": "2"
    },
    {
        "ND02HhRV": "241",
        "P_UNIT_ID": "4002912",
        "P_DISPORDER": "3"
    },
    {
        "ND02HhRV": "242",
        "P_UNIT_ID": "1001922",
        "P_DISPORDER": "1"
    },
    {
        "ND02HhRV": "242",
        "P_UNIT_ID": "3001822",
        "P_DISPORDER": "2"
    },
    {
        "ND02HhRV": "242",
        "P_UNIT_ID": "4001922",
        "P_DISPORDER": "3"
    },
    {
        "ND02HhRV": "243",
        "P_UNIT_ID": "1002622",
        "P_DISPORDER": "1"
    },
    {
        "ND02HhRV": "243",
        "P_UNIT_ID": "2002222",
        "P_DISPORDER": "2"
    },
    {
        "ND02HhRV": "243",
        "P_UNIT_ID": "3002322",
        "P_DISPORDER": "3"
    },
    {
        "ND02HhRV": "243",
        "P_UNIT_ID": "4002422",
        "P_DISPORDER": "4"
    },
    {
        "ND02HhRV": "243",
        "P_UNIT_ID": "5002722",
        "P_DISPORDER": "5"
    },
    {
        "ND02HhRV": "243",
        "P_UNIT_ID": "6002122",
        "P_DISPORDER": "6"
    },
    {
        "ND02HhRV": "244",
        "P_UNIT_ID": "2003112",
        "P_DISPORDER": "1"
    },
    {
        "ND02HhRV": "244",
        "P_UNIT_ID": "3003212",
        "P_DISPORDER": "2"
    },
    {
        "ND02HhRV": "244",
        "P_UNIT_ID": "6003712",
        "P_DISPORDER": "3"
    },
    {
        "ND02HhRV": "245",
        "P_UNIT_ID": "1000122",
        "P_DISPORDER": "1"
    },
    {
        "ND02HhRV": "245",
        "P_UNIT_ID": "1001812",
        "P_DISPORDER": "2"
    },
    {
        "ND02HhRV": "245",
        "P_UNIT_ID": "1003012",
        "P_DISPORDER": "3"
    },
    {
        "ND02HhRV": "245",
        "P_UNIT_ID": "3000122",
        "P_DISPORDER": "4"
    },
    {
        "ND02HhRV": "245",
        "P_UNIT_ID": "3002122",
        "P_DISPORDER": "5"
    },
    {
        "ND02HhRV": "245",
        "P_UNIT_ID": "3003012",
        "P_DISPORDER": "6"
    },
    {
        "ND02HhRV": "245",
        "P_UNIT_ID": "5001922",
        "P_DISPORDER": "8"
    },
    {
        "ND02HhRV": "245",
        "P_UNIT_ID": "5003112",
        "P_DISPORDER": "7"
    },
    {
        "ND02HhRV": "245",
        "P_UNIT_ID": "5003412",
        "P_DISPORDER": "9"
    },
    {
        "ND02HhRV": "246",
        "P_UNIT_ID": "2000122",
        "P_DISPORDER": "1"
    },
    {
        "ND02HhRV": "246",
        "P_UNIT_ID": "2000222",
        "P_DISPORDER": "2"
    },
    {
        "ND02HhRV": "246",
        "P_UNIT_ID": "2001922",
        "P_DISPORDER": "3"
    },
    {
        "ND02HhRV": "246",
        "P_UNIT_ID": "4000122",
        "P_DISPORDER": "4"
    },
    {
        "ND02HhRV": "246",
        "P_UNIT_ID": "4002912",
        "P_DISPORDER": "5"
    },
    {
        "ND02HhRV": "246",
        "P_UNIT_ID": "4003012",
        "P_DISPORDER": "6"
    },
    {
        "ND02HhRV": "246",
        "P_UNIT_ID": "6001822",
        "P_DISPORDER": "8"
    },
    {
        "ND02HhRV": "246",
        "P_UNIT_ID": "6003212",
        "P_DISPORDER": "7"
    },
    {
        "ND02HhRV": "246",
        "P_UNIT_ID": "6003612",
        "P_DISPORDER": "9"
    },
    {
        "ND02HhRV": "247",
        "P_UNIT_ID": "1002822",
        "P_DISPORDER": "1"
    },
    {
        "ND02HhRV": "247",
        "P_UNIT_ID": "2002422",
        "P_DISPORDER": "2"
    },
    {
        "ND02HhRV": "247",
        "P_UNIT_ID": "2002522",
        "P_DISPORDER": "3"
    },
    {
        "ND02HhRV": "247",
        "P_UNIT_ID": "3002522",
        "P_DISPORDER": "4"
    },
    {
        "ND02HhRV": "247",
        "P_UNIT_ID": "4002622",
        "P_DISPORDER": "5"
    },
    {
        "ND02HhRV": "247",
        "P_UNIT_ID": "5002922",
        "P_DISPORDER": "6"
    },
    {
        "ND02HhRV": "248",
        "P_UNIT_ID": "1003312",
        "P_DISPORDER": "1"
    },
    {
        "ND02HhRV": "248",
        "P_UNIT_ID": "3003312",
        "P_DISPORDER": "2"
    },
    {
        "ND02HhRV": "248",
        "P_UNIT_ID": "5003812",
        "P_DISPORDER": "3"
    },
    {
        "ND02HhRV": "249",
        "P_UNIT_ID": "1002822",
        "P_DISPORDER": "1"
    },
    {
        "ND02HhRV": "249",
        "P_UNIT_ID": "2002422",
        "P_DISPORDER": "2"
    },
    {
        "ND02HhRV": "249",
        "P_UNIT_ID": "2002522",
        "P_DISPORDER": "2"
    },
    {
        "ND02HhRV": "249",
        "P_UNIT_ID": "3002522",
        "P_DISPORDER": "2"
    },
    {
        "ND02HhRV": "249",
        "P_UNIT_ID": "4002622",
        "P_DISPORDER": "2"
    },
    {
        "ND02HhRV": "249",
        "P_UNIT_ID": "5002922",
        "P_DISPORDER": "3"
    },
    {
        "ND02HhRV": "250",
        "P_UNIT_ID": "2003112",
        "P_DISPORDER": "1"
    },
    {
        "ND02HhRV": "250",
        "P_UNIT_ID": "3003212",
        "P_DISPORDER": "2"
    },
    {
        "ND02HhRV": "250",
        "P_UNIT_ID": "6003712",
        "P_DISPORDER": "3"
    },
    {
        "ND02HhRV": "251",
        "P_UNIT_ID": "1002622",
        "P_DISPORDER": "1"
    },
    {
        "ND02HhRV": "251",
        "P_UNIT_ID": "2002222",
        "P_DISPORDER": "2"
    },
    {
        "ND02HhRV": "251",
        "P_UNIT_ID": "3002322",
        "P_DISPORDER": "2"
    },
    {
        "ND02HhRV": "251",
        "P_UNIT_ID": "4002422",
        "P_DISPORDER": "2"
    },
    {
        "ND02HhRV": "251",
        "P_UNIT_ID": "5002722",
        "P_DISPORDER": "2"
    },
    {
        "ND02HhRV": "251",
        "P_UNIT_ID": "6002122",
        "P_DISPORDER": "3"
    },
    {
        "ND02HhRV": "252",
        "P_UNIT_ID": "1003422",
        "P_DISPORDER": "1"
    },
    {
        "ND02HhRV": "252",
        "P_UNIT_ID": "2002722",
        "P_DISPORDER": "2"
    },
    {
        "ND02HhRV": "252",
        "P_UNIT_ID": "3002822",
        "P_DISPORDER": "3"
    },
    {
        "ND02HhRV": "252",
        "P_UNIT_ID": "4002922",
        "P_DISPORDER": "4"
    },
    {
        "ND02HhRV": "252",
        "P_UNIT_ID": "5003222",
        "P_DISPORDER": "5"
    },
    {
        "ND02HhRV": "252",
        "P_UNIT_ID": "6002522",
        "P_DISPORDER": "6"
    },
    {
        "ND02HhRV": "253",
        "P_UNIT_ID": "5003912",
        "P_DISPORDER": "1"
    },
    {
        "ND02HhRV": "253",
        "P_UNIT_ID": "5004012",
        "P_DISPORDER": "2"
    },
    {
        "ND02HhRV": "253",
        "P_UNIT_ID": "6003812",
        "P_DISPORDER": "3"
    },
    {
        "ND02HhRV": "253",
        "P_UNIT_ID": "6003912",
        "P_DISPORDER": "4"
    },
    {
        "ND02HhRV": "254",
        "P_UNIT_ID": "3002822",
        "P_DISPORDER": "1"
    },
    {
        "ND02HhRV": "254",
        "P_UNIT_ID": "4002922",
        "P_DISPORDER": "2"
    },
    {
        "ND02HhRV": "254",
        "P_UNIT_ID": "6002522",
        "P_DISPORDER": "3"
    },
    {
        "ND02HhRV": "255",
        "P_UNIT_ID": "1003422",
        "P_DISPORDER": "1"
    },
    {
        "ND02HhRV": "255",
        "P_UNIT_ID": "2002722",
        "P_DISPORDER": "2"
    },
    {
        "ND02HhRV": "255",
        "P_UNIT_ID": "5003222",
        "P_DISPORDER": "3"
    },
    {
        "ND02HhRV": "256",
        "P_UNIT_ID": "1003312",
        "P_DISPORDER": "1"
    },
    {
        "ND02HhRV": "256",
        "P_UNIT_ID": "3003312",
        "P_DISPORDER": "2"
    },
    {
        "ND02HhRV": "256",
        "P_UNIT_ID": "5003812",
        "P_DISPORDER": "3"
    },
    {
        "ND02HhRV": "257",
        "P_UNIT_ID": "2002422",
        "P_DISPORDER": "1"
    },
    {
        "ND02HhRV": "257",
        "P_UNIT_ID": "2002522",
        "P_DISPORDER": "2"
    },
    {
        "ND02HhRV": "258",
        "P_UNIT_ID": "1002622",
        "P_DISPORDER": "1"
    },
    {
        "ND02HhRV": "258",
        "P_UNIT_ID": "2002222",
        "P_DISPORDER": "2"
    },
    {
        "ND02HhRV": "258",
        "P_UNIT_ID": "3002322",
        "P_DISPORDER": "3"
    },
    {
        "ND02HhRV": "258",
        "P_UNIT_ID": "4002422",
        "P_DISPORDER": "4"
    },
    {
        "ND02HhRV": "258",
        "P_UNIT_ID": "6002122",
        "P_DISPORDER": "5"
    },
    {
        "ND02HhRV": "259",
        "P_UNIT_ID": "1004022",
        "P_DISPORDER": "1"
    },
    {
        "ND02HhRV": "259",
        "P_UNIT_ID": "3003022",
        "P_DISPORDER": "2"
    },
    {
        "ND02HhRV": "259",
        "P_UNIT_ID": "4003222",
        "P_DISPORDER": "3"
    },
    {
        "ND02HhRV": "259",
        "P_UNIT_ID": "5003422",
        "P_DISPORDER": "4"
    },
    {
        "ND02HhRV": "259",
        "P_UNIT_ID": "6002622",
        "P_DISPORDER": "5"
    },
    {
        "ND02HhRV": "10000",
        "P_UNIT_ID": "1000122",
        "P_DISPORDER": "6"
    },
    {
        "ND02HhRV": "10000",
        "P_UNIT_ID": "1000222",
        "P_DISPORDER": "7"
    },
    {
        "ND02HhRV": "10000",
        "P_UNIT_ID": "1000322",
        "P_DISPORDER": "8"
    },
    {
        "ND02HhRV": "10000",
        "P_UNIT_ID": "1000422",
        "P_DISPORDER": "9"
    },
    {
        "ND02HhRV": "10000",
        "P_UNIT_ID": "1000522",
        "P_DISPORDER": "10"
    },
    {
        "ND02HhRV": "10000",
        "P_UNIT_ID": "1001412",
        "P_DISPORDER": "11"
    },
    {
        "ND02HhRV": "10000",
        "P_UNIT_ID": "1001712",
        "P_DISPORDER": "12"
    },
    {
        "ND02HhRV": "10000",
        "P_UNIT_ID": "1001812",
        "P_DISPORDER": "13"
    },
    {
        "ND02HhRV": "10000",
        "P_UNIT_ID": "1001912",
        "P_DISPORDER": "14"
    },
    {
        "ND02HhRV": "10000",
        "P_UNIT_ID": "1001922",
        "P_DISPORDER": "16"
    },
    {
        "ND02HhRV": "10000",
        "P_UNIT_ID": "1002012",
        "P_DISPORDER": "15"
    },
    {
        "ND02HhRV": "10000",
        "P_UNIT_ID": "1002522",
        "P_DISPORDER": "18"
    },
    {
        "ND02HhRV": "10000",
        "P_UNIT_ID": "1002622",
        "P_DISPORDER": "20"
    },
    {
        "ND02HhRV": "10000",
        "P_UNIT_ID": "1002822",
        "P_DISPORDER": "21"
    },
    {
        "ND02HhRV": "10000",
        "P_UNIT_ID": "1003012",
        "P_DISPORDER": "17"
    },
    {
        "ND02HhRV": "10000",
        "P_UNIT_ID": "1003212",
        "P_DISPORDER": "19"
    },
    {
        "ND02HhRV": "10000",
        "P_UNIT_ID": "1003312",
        "P_DISPORDER": "22"
    },
    {
        "ND02HhRV": "10000",
        "P_UNIT_ID": "1003422",
        "P_DISPORDER": "23"
    },
    {
        "ND02HhRV": "10000",
        "P_UNIT_ID": "1004022",
        "P_DISPORDER": "1"
    },
    {
        "ND02HhRV": "10000",
        "P_UNIT_ID": "2000122",
        "P_DISPORDER": "24"
    },
    {
        "ND02HhRV": "10000",
        "P_UNIT_ID": "2000222",
        "P_DISPORDER": "25"
    },
    {
        "ND02HhRV": "10000",
        "P_UNIT_ID": "2000322",
        "P_DISPORDER": "26"
    },
    {
        "ND02HhRV": "10000",
        "P_UNIT_ID": "2000422",
        "P_DISPORDER": "27"
    },
    {
        "ND02HhRV": "10000",
        "P_UNIT_ID": "2000522",
        "P_DISPORDER": "28"
    },
    {
        "ND02HhRV": "10000",
        "P_UNIT_ID": "2001312",
        "P_DISPORDER": "29"
    },
    {
        "ND02HhRV": "10000",
        "P_UNIT_ID": "2001412",
        "P_DISPORDER": "30"
    },
    {
        "ND02HhRV": "10000",
        "P_UNIT_ID": "2001612",
        "P_DISPORDER": "31"
    },
    {
        "ND02HhRV": "10000",
        "P_UNIT_ID": "2001712",
        "P_DISPORDER": "32"
    },
    {
        "ND02HhRV": "10000",
        "P_UNIT_ID": "2001812",
        "P_DISPORDER": "34"
    },
    {
        "ND02HhRV": "10000",
        "P_UNIT_ID": "2001912",
        "P_DISPORDER": "33"
    },
    {
        "ND02HhRV": "10000",
        "P_UNIT_ID": "2001922",
        "P_DISPORDER": "35"
    },
    {
        "ND02HhRV": "10000",
        "P_UNIT_ID": "2002222",
        "P_DISPORDER": "37"
    },
    {
        "ND02HhRV": "10000",
        "P_UNIT_ID": "2002422",
        "P_DISPORDER": "39"
    },
    {
        "ND02HhRV": "10000",
        "P_UNIT_ID": "2002522",
        "P_DISPORDER": "40"
    },
    {
        "ND02HhRV": "10000",
        "P_UNIT_ID": "2002722",
        "P_DISPORDER": "41"
    },
    {
        "ND02HhRV": "10000",
        "P_UNIT_ID": "2003012",
        "P_DISPORDER": "36"
    },
    {
        "ND02HhRV": "10000",
        "P_UNIT_ID": "2003112",
        "P_DISPORDER": "38"
    },
    {
        "ND02HhRV": "10000",
        "P_UNIT_ID": "3000122",
        "P_DISPORDER": "42"
    },
    {
        "ND02HhRV": "10000",
        "P_UNIT_ID": "3000222",
        "P_DISPORDER": "43"
    },
    {
        "ND02HhRV": "10000",
        "P_UNIT_ID": "3000322",
        "P_DISPORDER": "44"
    },
    {
        "ND02HhRV": "10000",
        "P_UNIT_ID": "3000422",
        "P_DISPORDER": "45"
    },
    {
        "ND02HhRV": "10000",
        "P_UNIT_ID": "3000522",
        "P_DISPORDER": "46"
    },
    {
        "ND02HhRV": "10000",
        "P_UNIT_ID": "3001412",
        "P_DISPORDER": "47"
    },
    {
        "ND02HhRV": "10000",
        "P_UNIT_ID": "3001612",
        "P_DISPORDER": "48"
    },
    {
        "ND02HhRV": "10000",
        "P_UNIT_ID": "3001712",
        "P_DISPORDER": "49"
    },
    {
        "ND02HhRV": "10000",
        "P_UNIT_ID": "3001812",
        "P_DISPORDER": "51"
    },
    {
        "ND02HhRV": "10000",
        "P_UNIT_ID": "3001822",
        "P_DISPORDER": "52"
    },
    {
        "ND02HhRV": "10000",
        "P_UNIT_ID": "3001912",
        "P_DISPORDER": "50"
    },
    {
        "ND02HhRV": "10000",
        "P_UNIT_ID": "3002122",
        "P_DISPORDER": "53"
    },
    {
        "ND02HhRV": "10000",
        "P_UNIT_ID": "3002322",
        "P_DISPORDER": "56"
    },
    {
        "ND02HhRV": "10000",
        "P_UNIT_ID": "3002522",
        "P_DISPORDER": "58"
    },
    {
        "ND02HhRV": "10000",
        "P_UNIT_ID": "3002822",
        "P_DISPORDER": "60"
    },
    {
        "ND02HhRV": "10000",
        "P_UNIT_ID": "3003012",
        "P_DISPORDER": "54"
    },
    {
        "ND02HhRV": "10000",
        "P_UNIT_ID": "3003022",
        "P_DISPORDER": "2"
    },
    {
        "ND02HhRV": "10000",
        "P_UNIT_ID": "3003112",
        "P_DISPORDER": "55"
    },
    {
        "ND02HhRV": "10000",
        "P_UNIT_ID": "3003212",
        "P_DISPORDER": "57"
    },
    {
        "ND02HhRV": "10000",
        "P_UNIT_ID": "3003312",
        "P_DISPORDER": "59"
    },
    {
        "ND02HhRV": "10000",
        "P_UNIT_ID": "4000122",
        "P_DISPORDER": "61"
    },
    {
        "ND02HhRV": "10000",
        "P_UNIT_ID": "4000222",
        "P_DISPORDER": "62"
    },
    {
        "ND02HhRV": "10000",
        "P_UNIT_ID": "4000322",
        "P_DISPORDER": "63"
    },
    {
        "ND02HhRV": "10000",
        "P_UNIT_ID": "4000422",
        "P_DISPORDER": "64"
    },
    {
        "ND02HhRV": "10000",
        "P_UNIT_ID": "4000522",
        "P_DISPORDER": "65"
    },
    {
        "ND02HhRV": "10000",
        "P_UNIT_ID": "4001312",
        "P_DISPORDER": "66"
    },
    {
        "ND02HhRV": "10000",
        "P_UNIT_ID": "4001512",
        "P_DISPORDER": "67"
    },
    {
        "ND02HhRV": "10000",
        "P_UNIT_ID": "4001612",
        "P_DISPORDER": "68"
    },
    {
        "ND02HhRV": "10000",
        "P_UNIT_ID": "4001712",
        "P_DISPORDER": "69"
    },
    {
        "ND02HhRV": "10000",
        "P_UNIT_ID": "4001812",
        "P_DISPORDER": "70"
    },
    {
        "ND02HhRV": "10000",
        "P_UNIT_ID": "4001912",
        "P_DISPORDER": "71"
    },
    {
        "ND02HhRV": "10000",
        "P_UNIT_ID": "4001922",
        "P_DISPORDER": "72"
    },
    {
        "ND02HhRV": "10000",
        "P_UNIT_ID": "4002222",
        "P_DISPORDER": "73"
    },
    {
        "ND02HhRV": "10000",
        "P_UNIT_ID": "4002422",
        "P_DISPORDER": "76"
    },
    {
        "ND02HhRV": "10000",
        "P_UNIT_ID": "4002622",
        "P_DISPORDER": "77"
    },
    {
        "ND02HhRV": "10000",
        "P_UNIT_ID": "4002912",
        "P_DISPORDER": "74"
    },
    {
        "ND02HhRV": "10000",
        "P_UNIT_ID": "4002922",
        "P_DISPORDER": "78"
    },
    {
        "ND02HhRV": "10000",
        "P_UNIT_ID": "4003012",
        "P_DISPORDER": "75"
    },
    {
        "ND02HhRV": "10000",
        "P_UNIT_ID": "4003222",
        "P_DISPORDER": "3"
    },
    {
        "ND02HhRV": "10000",
        "P_UNIT_ID": "5000122",
        "P_DISPORDER": "79"
    },
    {
        "ND02HhRV": "10000",
        "P_UNIT_ID": "5000222",
        "P_DISPORDER": "80"
    },
    {
        "ND02HhRV": "10000",
        "P_UNIT_ID": "5000322",
        "P_DISPORDER": "81"
    },
    {
        "ND02HhRV": "10000",
        "P_UNIT_ID": "5000422",
        "P_DISPORDER": "82"
    },
    {
        "ND02HhRV": "10000",
        "P_UNIT_ID": "5000522",
        "P_DISPORDER": "83"
    },
    {
        "ND02HhRV": "10000",
        "P_UNIT_ID": "5001412",
        "P_DISPORDER": "84"
    },
    {
        "ND02HhRV": "10000",
        "P_UNIT_ID": "5001512",
        "P_DISPORDER": "85"
    },
    {
        "ND02HhRV": "10000",
        "P_UNIT_ID": "5001612",
        "P_DISPORDER": "86"
    },
    {
        "ND02HhRV": "10000",
        "P_UNIT_ID": "5001812",
        "P_DISPORDER": "87"
    },
    {
        "ND02HhRV": "10000",
        "P_UNIT_ID": "5001922",
        "P_DISPORDER": "91"
    },
    {
        "ND02HhRV": "10000",
        "P_UNIT_ID": "5002012",
        "P_DISPORDER": "88"
    },
    {
        "ND02HhRV": "10000",
        "P_UNIT_ID": "5002722",
        "P_DISPORDER": "94"
    },
    {
        "ND02HhRV": "10000",
        "P_UNIT_ID": "5002922",
        "P_DISPORDER": "95"
    },
    {
        "ND02HhRV": "10000",
        "P_UNIT_ID": "5003012",
        "P_DISPORDER": "89"
    },
    {
        "ND02HhRV": "10000",
        "P_UNIT_ID": "5003112",
        "P_DISPORDER": "90"
    },
    {
        "ND02HhRV": "10000",
        "P_UNIT_ID": "5003222",
        "P_DISPORDER": "97"
    },
    {
        "ND02HhRV": "10000",
        "P_UNIT_ID": "5003312",
        "P_DISPORDER": "92"
    },
    {
        "ND02HhRV": "10000",
        "P_UNIT_ID": "5003412",
        "P_DISPORDER": "93"
    },
    {
        "ND02HhRV": "10000",
        "P_UNIT_ID": "5003422",
        "P_DISPORDER": "4"
    },
    {
        "ND02HhRV": "10000",
        "P_UNIT_ID": "5003812",
        "P_DISPORDER": "96"
    },
    {
        "ND02HhRV": "10000",
        "P_UNIT_ID": "5003912",
        "P_DISPORDER": "99"
    },
    {
        "ND02HhRV": "10000",
        "P_UNIT_ID": "5004012",
        "P_DISPORDER": "98"
    },
    {
        "ND02HhRV": "10000",
        "P_UNIT_ID": "6000122",
        "P_DISPORDER": "100"
    },
    {
        "ND02HhRV": "10000",
        "P_UNIT_ID": "6000222",
        "P_DISPORDER": "101"
    },
    {
        "ND02HhRV": "10000",
        "P_UNIT_ID": "6000322",
        "P_DISPORDER": "102"
    },
    {
        "ND02HhRV": "10000",
        "P_UNIT_ID": "6000422",
        "P_DISPORDER": "103"
    },
    {
        "ND02HhRV": "10000",
        "P_UNIT_ID": "6000522",
        "P_DISPORDER": "104"
    },
    {
        "ND02HhRV": "10000",
        "P_UNIT_ID": "6001512",
        "P_DISPORDER": "105"
    },
    {
        "ND02HhRV": "10000",
        "P_UNIT_ID": "6001612",
        "P_DISPORDER": "106"
    },
    {
        "ND02HhRV": "10000",
        "P_UNIT_ID": "6001712",
        "P_DISPORDER": "107"
    },
    {
        "ND02HhRV": "10000",
        "P_UNIT_ID": "6001822",
        "P_DISPORDER": "112"
    },
    {
        "ND02HhRV": "10000",
        "P_UNIT_ID": "6002012",
        "P_DISPORDER": "108"
    },
    {
        "ND02HhRV": "10000",
        "P_UNIT_ID": "6002122",
        "P_DISPORDER": "115"
    },
    {
        "ND02HhRV": "10000",
        "P_UNIT_ID": "6002212",
        "P_DISPORDER": "109"
    },
    {
        "ND02HhRV": "10000",
        "P_UNIT_ID": "6002522",
        "P_DISPORDER": "117"
    },
    {
        "ND02HhRV": "10000",
        "P_UNIT_ID": "6002622",
        "P_DISPORDER": "5"
    },
    {
        "ND02HhRV": "10000",
        "P_UNIT_ID": "6003112",
        "P_DISPORDER": "110"
    },
    {
        "ND02HhRV": "10000",
        "P_UNIT_ID": "6003212",
        "P_DISPORDER": "111"
    },
    {
        "ND02HhRV": "10000",
        "P_UNIT_ID": "6003412",
        "P_DISPORDER": "113"
    },
    {
        "ND02HhRV": "10000",
        "P_UNIT_ID": "6003612",
        "P_DISPORDER": "114"
    },
    {
        "ND02HhRV": "10000",
        "P_UNIT_ID": "6003712",
        "P_DISPORDER": "116"
    },
    {
        "ND02HhRV": "10000",
        "P_UNIT_ID": "6003812",
        "P_DISPORDER": "118"
    },
    {
        "ND02HhRV": "10000",
        "P_UNIT_ID": "6003912",
        "P_DISPORDER": "119"
    },
    {
        "ND02HhRV": "10001",
        "P_UNIT_ID": "1000122",
        "P_DISPORDER": "6"
    },
    {
        "ND02HhRV": "10001",
        "P_UNIT_ID": "1000222",
        "P_DISPORDER": "7"
    },
    {
        "ND02HhRV": "10001",
        "P_UNIT_ID": "1000322",
        "P_DISPORDER": "8"
    },
    {
        "ND02HhRV": "10001",
        "P_UNIT_ID": "1000422",
        "P_DISPORDER": "9"
    },
    {
        "ND02HhRV": "10001",
        "P_UNIT_ID": "1000522",
        "P_DISPORDER": "10"
    },
    {
        "ND02HhRV": "10001",
        "P_UNIT_ID": "1001412",
        "P_DISPORDER": "11"
    },
    {
        "ND02HhRV": "10001",
        "P_UNIT_ID": "1001712",
        "P_DISPORDER": "12"
    },
    {
        "ND02HhRV": "10001",
        "P_UNIT_ID": "1001812",
        "P_DISPORDER": "13"
    },
    {
        "ND02HhRV": "10001",
        "P_UNIT_ID": "1001912",
        "P_DISPORDER": "14"
    },
    {
        "ND02HhRV": "10001",
        "P_UNIT_ID": "1001922",
        "P_DISPORDER": "16"
    },
    {
        "ND02HhRV": "10001",
        "P_UNIT_ID": "1002012",
        "P_DISPORDER": "15"
    },
    {
        "ND02HhRV": "10001",
        "P_UNIT_ID": "1002522",
        "P_DISPORDER": "18"
    },
    {
        "ND02HhRV": "10001",
        "P_UNIT_ID": "1002622",
        "P_DISPORDER": "20"
    },
    {
        "ND02HhRV": "10001",
        "P_UNIT_ID": "1002822",
        "P_DISPORDER": "21"
    },
    {
        "ND02HhRV": "10001",
        "P_UNIT_ID": "1003012",
        "P_DISPORDER": "17"
    },
    {
        "ND02HhRV": "10001",
        "P_UNIT_ID": "1003212",
        "P_DISPORDER": "19"
    },
    {
        "ND02HhRV": "10001",
        "P_UNIT_ID": "1003312",
        "P_DISPORDER": "22"
    },
    {
        "ND02HhRV": "10001",
        "P_UNIT_ID": "1003422",
        "P_DISPORDER": "23"
    },
    {
        "ND02HhRV": "10001",
        "P_UNIT_ID": "1004022",
        "P_DISPORDER": "1"
    },
    {
        "ND02HhRV": "10001",
        "P_UNIT_ID": "2000122",
        "P_DISPORDER": "24"
    },
    {
        "ND02HhRV": "10001",
        "P_UNIT_ID": "2000222",
        "P_DISPORDER": "25"
    },
    {
        "ND02HhRV": "10001",
        "P_UNIT_ID": "2000322",
        "P_DISPORDER": "26"
    },
    {
        "ND02HhRV": "10001",
        "P_UNIT_ID": "2000422",
        "P_DISPORDER": "27"
    },
    {
        "ND02HhRV": "10001",
        "P_UNIT_ID": "2000522",
        "P_DISPORDER": "28"
    },
    {
        "ND02HhRV": "10001",
        "P_UNIT_ID": "2001312",
        "P_DISPORDER": "29"
    },
    {
        "ND02HhRV": "10001",
        "P_UNIT_ID": "2001412",
        "P_DISPORDER": "30"
    },
    {
        "ND02HhRV": "10001",
        "P_UNIT_ID": "2001612",
        "P_DISPORDER": "31"
    },
    {
        "ND02HhRV": "10001",
        "P_UNIT_ID": "2001712",
        "P_DISPORDER": "32"
    },
    {
        "ND02HhRV": "10001",
        "P_UNIT_ID": "2001812",
        "P_DISPORDER": "34"
    },
    {
        "ND02HhRV": "10001",
        "P_UNIT_ID": "2001912",
        "P_DISPORDER": "33"
    },
    {
        "ND02HhRV": "10001",
        "P_UNIT_ID": "2001922",
        "P_DISPORDER": "35"
    },
    {
        "ND02HhRV": "10001",
        "P_UNIT_ID": "2002222",
        "P_DISPORDER": "37"
    },
    {
        "ND02HhRV": "10001",
        "P_UNIT_ID": "2002422",
        "P_DISPORDER": "39"
    },
    {
        "ND02HhRV": "10001",
        "P_UNIT_ID": "2002522",
        "P_DISPORDER": "40"
    },
    {
        "ND02HhRV": "10001",
        "P_UNIT_ID": "2002722",
        "P_DISPORDER": "41"
    },
    {
        "ND02HhRV": "10001",
        "P_UNIT_ID": "2003012",
        "P_DISPORDER": "36"
    },
    {
        "ND02HhRV": "10001",
        "P_UNIT_ID": "2003112",
        "P_DISPORDER": "38"
    },
    {
        "ND02HhRV": "10001",
        "P_UNIT_ID": "3000122",
        "P_DISPORDER": "42"
    },
    {
        "ND02HhRV": "10001",
        "P_UNIT_ID": "3000222",
        "P_DISPORDER": "43"
    },
    {
        "ND02HhRV": "10001",
        "P_UNIT_ID": "3000322",
        "P_DISPORDER": "44"
    },
    {
        "ND02HhRV": "10001",
        "P_UNIT_ID": "3000422",
        "P_DISPORDER": "45"
    },
    {
        "ND02HhRV": "10001",
        "P_UNIT_ID": "3000522",
        "P_DISPORDER": "46"
    },
    {
        "ND02HhRV": "10001",
        "P_UNIT_ID": "3001412",
        "P_DISPORDER": "47"
    },
    {
        "ND02HhRV": "10001",
        "P_UNIT_ID": "3001612",
        "P_DISPORDER": "48"
    },
    {
        "ND02HhRV": "10001",
        "P_UNIT_ID": "3001712",
        "P_DISPORDER": "49"
    },
    {
        "ND02HhRV": "10001",
        "P_UNIT_ID": "3001812",
        "P_DISPORDER": "51"
    },
    {
        "ND02HhRV": "10001",
        "P_UNIT_ID": "3001822",
        "P_DISPORDER": "52"
    },
    {
        "ND02HhRV": "10001",
        "P_UNIT_ID": "3001912",
        "P_DISPORDER": "50"
    },
    {
        "ND02HhRV": "10001",
        "P_UNIT_ID": "3002122",
        "P_DISPORDER": "53"
    },
    {
        "ND02HhRV": "10001",
        "P_UNIT_ID": "3002322",
        "P_DISPORDER": "56"
    },
    {
        "ND02HhRV": "10001",
        "P_UNIT_ID": "3002522",
        "P_DISPORDER": "58"
    },
    {
        "ND02HhRV": "10001",
        "P_UNIT_ID": "3002822",
        "P_DISPORDER": "60"
    },
    {
        "ND02HhRV": "10001",
        "P_UNIT_ID": "3003012",
        "P_DISPORDER": "54"
    },
    {
        "ND02HhRV": "10001",
        "P_UNIT_ID": "3003022",
        "P_DISPORDER": "2"
    },
    {
        "ND02HhRV": "10001",
        "P_UNIT_ID": "3003112",
        "P_DISPORDER": "55"
    },
    {
        "ND02HhRV": "10001",
        "P_UNIT_ID": "3003212",
        "P_DISPORDER": "57"
    },
    {
        "ND02HhRV": "10001",
        "P_UNIT_ID": "3003312",
        "P_DISPORDER": "59"
    },
    {
        "ND02HhRV": "10001",
        "P_UNIT_ID": "4000122",
        "P_DISPORDER": "61"
    },
    {
        "ND02HhRV": "10001",
        "P_UNIT_ID": "4000222",
        "P_DISPORDER": "62"
    },
    {
        "ND02HhRV": "10001",
        "P_UNIT_ID": "4000322",
        "P_DISPORDER": "63"
    },
    {
        "ND02HhRV": "10001",
        "P_UNIT_ID": "4000422",
        "P_DISPORDER": "64"
    },
    {
        "ND02HhRV": "10001",
        "P_UNIT_ID": "4000522",
        "P_DISPORDER": "65"
    },
    {
        "ND02HhRV": "10001",
        "P_UNIT_ID": "4001312",
        "P_DISPORDER": "66"
    },
    {
        "ND02HhRV": "10001",
        "P_UNIT_ID": "4001512",
        "P_DISPORDER": "67"
    },
    {
        "ND02HhRV": "10001",
        "P_UNIT_ID": "4001612",
        "P_DISPORDER": "68"
    },
    {
        "ND02HhRV": "10001",
        "P_UNIT_ID": "4001712",
        "P_DISPORDER": "69"
    },
    {
        "ND02HhRV": "10001",
        "P_UNIT_ID": "4001812",
        "P_DISPORDER": "70"
    },
    {
        "ND02HhRV": "10001",
        "P_UNIT_ID": "4001912",
        "P_DISPORDER": "71"
    },
    {
        "ND02HhRV": "10001",
        "P_UNIT_ID": "4001922",
        "P_DISPORDER": "72"
    },
    {
        "ND02HhRV": "10001",
        "P_UNIT_ID": "4002222",
        "P_DISPORDER": "73"
    },
    {
        "ND02HhRV": "10001",
        "P_UNIT_ID": "4002422",
        "P_DISPORDER": "76"
    },
    {
        "ND02HhRV": "10001",
        "P_UNIT_ID": "4002622",
        "P_DISPORDER": "77"
    },
    {
        "ND02HhRV": "10001",
        "P_UNIT_ID": "4002912",
        "P_DISPORDER": "74"
    },
    {
        "ND02HhRV": "10001",
        "P_UNIT_ID": "4002922",
        "P_DISPORDER": "78"
    },
    {
        "ND02HhRV": "10001",
        "P_UNIT_ID": "4003012",
        "P_DISPORDER": "75"
    },
    {
        "ND02HhRV": "10001",
        "P_UNIT_ID": "4003222",
        "P_DISPORDER": "3"
    },
    {
        "ND02HhRV": "10001",
        "P_UNIT_ID": "5000122",
        "P_DISPORDER": "79"
    },
    {
        "ND02HhRV": "10001",
        "P_UNIT_ID": "5000222",
        "P_DISPORDER": "80"
    },
    {
        "ND02HhRV": "10001",
        "P_UNIT_ID": "5000322",
        "P_DISPORDER": "81"
    },
    {
        "ND02HhRV": "10001",
        "P_UNIT_ID": "5000422",
        "P_DISPORDER": "82"
    },
    {
        "ND02HhRV": "10001",
        "P_UNIT_ID": "5000522",
        "P_DISPORDER": "83"
    },
    {
        "ND02HhRV": "10001",
        "P_UNIT_ID": "5001412",
        "P_DISPORDER": "84"
    },
    {
        "ND02HhRV": "10001",
        "P_UNIT_ID": "5001512",
        "P_DISPORDER": "85"
    },
    {
        "ND02HhRV": "10001",
        "P_UNIT_ID": "5001612",
        "P_DISPORDER": "86"
    },
    {
        "ND02HhRV": "10001",
        "P_UNIT_ID": "5001812",
        "P_DISPORDER": "87"
    },
    {
        "ND02HhRV": "10001",
        "P_UNIT_ID": "5001922",
        "P_DISPORDER": "91"
    },
    {
        "ND02HhRV": "10001",
        "P_UNIT_ID": "5002012",
        "P_DISPORDER": "88"
    },
    {
        "ND02HhRV": "10001",
        "P_UNIT_ID": "5002722",
        "P_DISPORDER": "94"
    },
    {
        "ND02HhRV": "10001",
        "P_UNIT_ID": "5002922",
        "P_DISPORDER": "95"
    },
    {
        "ND02HhRV": "10001",
        "P_UNIT_ID": "5003012",
        "P_DISPORDER": "89"
    },
    {
        "ND02HhRV": "10001",
        "P_UNIT_ID": "5003112",
        "P_DISPORDER": "90"
    },
    {
        "ND02HhRV": "10001",
        "P_UNIT_ID": "5003222",
        "P_DISPORDER": "97"
    },
    {
        "ND02HhRV": "10001",
        "P_UNIT_ID": "5003312",
        "P_DISPORDER": "92"
    },
    {
        "ND02HhRV": "10001",
        "P_UNIT_ID": "5003412",
        "P_DISPORDER": "93"
    },
    {
        "ND02HhRV": "10001",
        "P_UNIT_ID": "5003422",
        "P_DISPORDER": "4"
    },
    {
        "ND02HhRV": "10001",
        "P_UNIT_ID": "5003812",
        "P_DISPORDER": "96"
    },
    {
        "ND02HhRV": "10001",
        "P_UNIT_ID": "5003912",
        "P_DISPORDER": "99"
    },
    {
        "ND02HhRV": "10001",
        "P_UNIT_ID": "5004012",
        "P_DISPORDER": "98"
    },
    {
        "ND02HhRV": "10001",
        "P_UNIT_ID": "6000122",
        "P_DISPORDER": "100"
    },
    {
        "ND02HhRV": "10001",
        "P_UNIT_ID": "6000222",
        "P_DISPORDER": "101"
    },
    {
        "ND02HhRV": "10001",
        "P_UNIT_ID": "6000322",
        "P_DISPORDER": "102"
    },
    {
        "ND02HhRV": "10001",
        "P_UNIT_ID": "6000422",
        "P_DISPORDER": "103"
    },
    {
        "ND02HhRV": "10001",
        "P_UNIT_ID": "6000522",
        "P_DISPORDER": "104"
    },
    {
        "ND02HhRV": "10001",
        "P_UNIT_ID": "6001512",
        "P_DISPORDER": "105"
    },
    {
        "ND02HhRV": "10001",
        "P_UNIT_ID": "6001612",
        "P_DISPORDER": "106"
    },
    {
        "ND02HhRV": "10001",
        "P_UNIT_ID": "6001712",
        "P_DISPORDER": "107"
    },
    {
        "ND02HhRV": "10001",
        "P_UNIT_ID": "6001822",
        "P_DISPORDER": "112"
    },
    {
        "ND02HhRV": "10001",
        "P_UNIT_ID": "6002012",
        "P_DISPORDER": "108"
    },
    {
        "ND02HhRV": "10001",
        "P_UNIT_ID": "6002122",
        "P_DISPORDER": "115"
    },
    {
        "ND02HhRV": "10001",
        "P_UNIT_ID": "6002212",
        "P_DISPORDER": "109"
    },
    {
        "ND02HhRV": "10001",
        "P_UNIT_ID": "6002522",
        "P_DISPORDER": "117"
    },
    {
        "ND02HhRV": "10001",
        "P_UNIT_ID": "6002622",
        "P_DISPORDER": "5"
    },
    {
        "ND02HhRV": "10001",
        "P_UNIT_ID": "6003112",
        "P_DISPORDER": "110"
    },
    {
        "ND02HhRV": "10001",
        "P_UNIT_ID": "6003212",
        "P_DISPORDER": "111"
    },
    {
        "ND02HhRV": "10001",
        "P_UNIT_ID": "6003412",
        "P_DISPORDER": "113"
    },
    {
        "ND02HhRV": "10001",
        "P_UNIT_ID": "6003612",
        "P_DISPORDER": "114"
    },
    {
        "ND02HhRV": "10001",
        "P_UNIT_ID": "6003712",
        "P_DISPORDER": "116"
    },
    {
        "ND02HhRV": "10001",
        "P_UNIT_ID": "6003812",
        "P_DISPORDER": "118"
    },
    {
        "ND02HhRV": "10001",
        "P_UNIT_ID": "6003912",
        "P_DISPORDER": "119"
    }
]