[
    {
        "D34vc8Q7": "111100102",
        "aSJp1i9m": "1",
        "0I4MtuDa": "0,-45,100"
    },
    {
        "D34vc8Q7": "111100113",
        "aSJp1i9m": "1",
        "0I4MtuDa": "0,-45,100"
    },
    {
        "D34vc8Q7": "111100124",
        "aSJp1i9m": "1",
        "0I4MtuDa": "0,-45,100"
    },
    {
        "D34vc8Q7": "111100214",
        "aSJp1i9m": "1",
        "0I4MtuDa": "0,-45,100"
    },
    {
        "D34vc8Q7": "111100464",
        "aSJp1i9m": "1",
        "0I4MtuDa": "0,-45,100"
    },
    {
        "D34vc8Q7": "111200164",
        "aSJp1i9m": "1",
        "0I4MtuDa": "0,-45,100"
    },
    {
        "D34vc8Q7": "111200172",
        "aSJp1i9m": "1",
        "0I4MtuDa": "0,-45,100"
    },
    {
        "D34vc8Q7": "111200173",
        "aSJp1i9m": "1",
        "0I4MtuDa": "0,-45,100"
    },
    {
        "D34vc8Q7": "111200174",
        "aSJp1i9m": "1",
        "0I4MtuDa": "0,-45,100"
    },
    {
        "D34vc8Q7": "111200434",
        "aSJp1i9m": "1",
        "0I4MtuDa": "0,-45,100"
    },
    {
        "D34vc8Q7": "111200554",
        "aSJp1i9m": "1",
        "0I4MtuDa": "0,-45,100"
    },
    {
        "D34vc8Q7": "111300142",
        "aSJp1i9m": "1",
        "0I4MtuDa": "0,-45,100"
    },
    {
        "D34vc8Q7": "111300143",
        "aSJp1i9m": "1",
        "0I4MtuDa": "0,-45,100"
    },
    {
        "D34vc8Q7": "111300154",
        "aSJp1i9m": "1",
        "0I4MtuDa": "0,-45,100"
    },
    {
        "D34vc8Q7": "111300234",
        "aSJp1i9m": "1",
        "0I4MtuDa": "0,-45,100"
    },
    {
        "D34vc8Q7": "111300564",
        "aSJp1i9m": "1",
        "0I4MtuDa": "0,-45,100"
    },
    {
        "D34vc8Q7": "111400133",
        "aSJp1i9m": "1",
        "0I4MtuDa": "0,-45,100"
    },
    {
        "D34vc8Q7": "111400134",
        "aSJp1i9m": "1",
        "0I4MtuDa": "0,-45,100"
    },
    {
        "D34vc8Q7": "111400243",
        "aSJp1i9m": "1",
        "0I4MtuDa": "0,-45,100"
    },
    {
        "D34vc8Q7": "111400254",
        "aSJp1i9m": "1",
        "0I4MtuDa": "0,-45,100"
    },
    {
        "D34vc8Q7": "111400424",
        "aSJp1i9m": "1",
        "0I4MtuDa": "0,-45,100"
    },
    {
        "D34vc8Q7": "111500223",
        "aSJp1i9m": "1",
        "0I4MtuDa": "0,-45,100"
    },
    {
        "D34vc8Q7": "111500224",
        "aSJp1i9m": "1",
        "0I4MtuDa": "0,-45,100"
    },
    {
        "D34vc8Q7": "111500264",
        "aSJp1i9m": "1",
        "0I4MtuDa": "0,-45,100"
    },
    {
        "D34vc8Q7": "111500413",
        "aSJp1i9m": "1",
        "0I4MtuDa": "0,-45,100"
    },
    {
        "D34vc8Q7": "111500414",
        "aSJp1i9m": "1",
        "0I4MtuDa": "0,-45,100"
    },
    {
        "D34vc8Q7": "111500504",
        "aSJp1i9m": "1",
        "0I4MtuDa": "0,-45,100"
    },
    {
        "D34vc8Q7": "111600184",
        "aSJp1i9m": "1",
        "0I4MtuDa": "0,-45,100"
    },
    {
        "D34vc8Q7": "111600193",
        "aSJp1i9m": "1",
        "0I4MtuDa": "0,-45,100"
    },
    {
        "D34vc8Q7": "111600204",
        "aSJp1i9m": "1",
        "0I4MtuDa": "0,-45,100"
    },
    {
        "D34vc8Q7": "111600474",
        "aSJp1i9m": "1",
        "0I4MtuDa": "0,-45,100"
    },
    {
        "D34vc8Q7": "111600534",
        "aSJp1i9m": "1",
        "0I4MtuDa": "0,-45,100"
    },
    {
        "D34vc8Q7": "112100102",
        "aSJp1i9m": "1",
        "0I4MtuDa": "0,-45,100"
    },
    {
        "D34vc8Q7": "112100113",
        "aSJp1i9m": "1",
        "0I4MtuDa": "0,-45,100"
    },
    {
        "D34vc8Q7": "112100124",
        "aSJp1i9m": "1",
        "0I4MtuDa": "0,-45,100"
    },
    {
        "D34vc8Q7": "112100214",
        "aSJp1i9m": "1",
        "0I4MtuDa": "0,-45,100"
    },
    {
        "D34vc8Q7": "112100464",
        "aSJp1i9m": "1",
        "0I4MtuDa": "0,-45,100"
    },
    {
        "D34vc8Q7": "112200164",
        "aSJp1i9m": "1",
        "0I4MtuDa": "0,-45,100"
    },
    {
        "D34vc8Q7": "112200172",
        "aSJp1i9m": "1",
        "0I4MtuDa": "0,-45,100"
    },
    {
        "D34vc8Q7": "112200173",
        "aSJp1i9m": "1",
        "0I4MtuDa": "0,-45,100"
    },
    {
        "D34vc8Q7": "112200174",
        "aSJp1i9m": "1",
        "0I4MtuDa": "0,-45,100"
    },
    {
        "D34vc8Q7": "112200434",
        "aSJp1i9m": "1",
        "0I4MtuDa": "0,-45,100"
    },
    {
        "D34vc8Q7": "112200554",
        "aSJp1i9m": "1",
        "0I4MtuDa": "0,-45,100"
    },
    {
        "D34vc8Q7": "112300142",
        "aSJp1i9m": "1",
        "0I4MtuDa": "0,-45,100"
    },
    {
        "D34vc8Q7": "112300143",
        "aSJp1i9m": "1",
        "0I4MtuDa": "0,-45,100"
    },
    {
        "D34vc8Q7": "112300154",
        "aSJp1i9m": "1",
        "0I4MtuDa": "0,-45,100"
    },
    {
        "D34vc8Q7": "112300234",
        "aSJp1i9m": "1",
        "0I4MtuDa": "0,-45,100"
    },
    {
        "D34vc8Q7": "112300564",
        "aSJp1i9m": "1",
        "0I4MtuDa": "0,-45,100"
    },
    {
        "D34vc8Q7": "112400133",
        "aSJp1i9m": "1",
        "0I4MtuDa": "0,-45,100"
    },
    {
        "D34vc8Q7": "112400134",
        "aSJp1i9m": "1",
        "0I4MtuDa": "0,-45,100"
    },
    {
        "D34vc8Q7": "112400243",
        "aSJp1i9m": "1",
        "0I4MtuDa": "0,-45,100"
    },
    {
        "D34vc8Q7": "112400254",
        "aSJp1i9m": "1",
        "0I4MtuDa": "0,-45,100"
    },
    {
        "D34vc8Q7": "112400424",
        "aSJp1i9m": "1",
        "0I4MtuDa": "0,-45,100"
    },
    {
        "D34vc8Q7": "112500223",
        "aSJp1i9m": "1",
        "0I4MtuDa": "0,-45,100"
    },
    {
        "D34vc8Q7": "112500224",
        "aSJp1i9m": "1",
        "0I4MtuDa": "0,-45,100"
    },
    {
        "D34vc8Q7": "112500264",
        "aSJp1i9m": "1",
        "0I4MtuDa": "0,-45,100"
    },
    {
        "D34vc8Q7": "112500413",
        "aSJp1i9m": "1",
        "0I4MtuDa": "0,-45,100"
    },
    {
        "D34vc8Q7": "112500414",
        "aSJp1i9m": "1",
        "0I4MtuDa": "0,-45,100"
    },
    {
        "D34vc8Q7": "112500504",
        "aSJp1i9m": "1",
        "0I4MtuDa": "0,-45,100"
    },
    {
        "D34vc8Q7": "112600184",
        "aSJp1i9m": "1",
        "0I4MtuDa": "0,-45,100"
    },
    {
        "D34vc8Q7": "112600193",
        "aSJp1i9m": "1",
        "0I4MtuDa": "0,-45,100"
    },
    {
        "D34vc8Q7": "112600204",
        "aSJp1i9m": "1",
        "0I4MtuDa": "0,-45,100"
    },
    {
        "D34vc8Q7": "112600474",
        "aSJp1i9m": "1",
        "0I4MtuDa": "0,-45,100"
    },
    {
        "D34vc8Q7": "112600534",
        "aSJp1i9m": "1",
        "0I4MtuDa": "0,-45,100"
    },
    {
        "D34vc8Q7": "113100102",
        "aSJp1i9m": "1",
        "0I4MtuDa": "0,-45,100"
    },
    {
        "D34vc8Q7": "113100113",
        "aSJp1i9m": "1",
        "0I4MtuDa": "0,-45,100"
    },
    {
        "D34vc8Q7": "113100124",
        "aSJp1i9m": "1",
        "0I4MtuDa": "0,-45,100"
    },
    {
        "D34vc8Q7": "113100214",
        "aSJp1i9m": "1",
        "0I4MtuDa": "0,-45,100"
    },
    {
        "D34vc8Q7": "113100464",
        "aSJp1i9m": "1",
        "0I4MtuDa": "0,-45,100"
    },
    {
        "D34vc8Q7": "113200164",
        "aSJp1i9m": "1",
        "0I4MtuDa": "0,-45,100"
    },
    {
        "D34vc8Q7": "113200172",
        "aSJp1i9m": "1",
        "0I4MtuDa": "0,-45,100"
    },
    {
        "D34vc8Q7": "113200173",
        "aSJp1i9m": "1",
        "0I4MtuDa": "0,-45,100"
    },
    {
        "D34vc8Q7": "113200174",
        "aSJp1i9m": "1",
        "0I4MtuDa": "0,-45,100"
    },
    {
        "D34vc8Q7": "113200434",
        "aSJp1i9m": "1",
        "0I4MtuDa": "0,-45,100"
    },
    {
        "D34vc8Q7": "113200554",
        "aSJp1i9m": "1",
        "0I4MtuDa": "0,-45,100"
    },
    {
        "D34vc8Q7": "113300142",
        "aSJp1i9m": "1",
        "0I4MtuDa": "0,-45,100"
    },
    {
        "D34vc8Q7": "113300143",
        "aSJp1i9m": "1",
        "0I4MtuDa": "0,-45,100"
    },
    {
        "D34vc8Q7": "113300154",
        "aSJp1i9m": "1",
        "0I4MtuDa": "0,-45,100"
    },
    {
        "D34vc8Q7": "113300234",
        "aSJp1i9m": "1",
        "0I4MtuDa": "0,-45,100"
    },
    {
        "D34vc8Q7": "113300564",
        "aSJp1i9m": "1",
        "0I4MtuDa": "0,-45,100"
    },
    {
        "D34vc8Q7": "113400133",
        "aSJp1i9m": "1",
        "0I4MtuDa": "0,-45,100"
    },
    {
        "D34vc8Q7": "113400134",
        "aSJp1i9m": "1",
        "0I4MtuDa": "0,-45,100"
    },
    {
        "D34vc8Q7": "113400243",
        "aSJp1i9m": "1",
        "0I4MtuDa": "0,-45,100"
    },
    {
        "D34vc8Q7": "113400254",
        "aSJp1i9m": "1",
        "0I4MtuDa": "0,-45,100"
    },
    {
        "D34vc8Q7": "113400424",
        "aSJp1i9m": "1",
        "0I4MtuDa": "0,-45,100"
    },
    {
        "D34vc8Q7": "113500223",
        "aSJp1i9m": "1",
        "0I4MtuDa": "0,-45,100"
    },
    {
        "D34vc8Q7": "113500224",
        "aSJp1i9m": "1",
        "0I4MtuDa": "0,-45,100"
    },
    {
        "D34vc8Q7": "113500264",
        "aSJp1i9m": "1",
        "0I4MtuDa": "0,-45,100"
    },
    {
        "D34vc8Q7": "113500413",
        "aSJp1i9m": "1",
        "0I4MtuDa": "0,-45,100"
    },
    {
        "D34vc8Q7": "113500414",
        "aSJp1i9m": "1",
        "0I4MtuDa": "0,-45,100"
    },
    {
        "D34vc8Q7": "113500504",
        "aSJp1i9m": "1",
        "0I4MtuDa": "0,-45,100"
    },
    {
        "D34vc8Q7": "113600184",
        "aSJp1i9m": "1",
        "0I4MtuDa": "0,-45,100"
    },
    {
        "D34vc8Q7": "113600193",
        "aSJp1i9m": "1",
        "0I4MtuDa": "0,-45,100"
    },
    {
        "D34vc8Q7": "113600204",
        "aSJp1i9m": "1",
        "0I4MtuDa": "0,-45,100"
    },
    {
        "D34vc8Q7": "113600474",
        "aSJp1i9m": "1",
        "0I4MtuDa": "0,-45,100"
    },
    {
        "D34vc8Q7": "113600534",
        "aSJp1i9m": "1",
        "0I4MtuDa": "0,-45,100"
    },
    {
        "D34vc8Q7": "121100102",
        "aSJp1i9m": "1",
        "0I4MtuDa": "0,-45,100"
    },
    {
        "D34vc8Q7": "121100113",
        "aSJp1i9m": "1",
        "0I4MtuDa": "0,-45,100"
    },
    {
        "D34vc8Q7": "121100124",
        "aSJp1i9m": "1",
        "0I4MtuDa": "0,-45,100"
    },
    {
        "D34vc8Q7": "121100214",
        "aSJp1i9m": "1",
        "0I4MtuDa": "0,-45,100"
    },
    {
        "D34vc8Q7": "121100464",
        "aSJp1i9m": "1",
        "0I4MtuDa": "0,-45,100"
    },
    {
        "D34vc8Q7": "121200164",
        "aSJp1i9m": "1",
        "0I4MtuDa": "0,-45,100"
    },
    {
        "D34vc8Q7": "121200172",
        "aSJp1i9m": "1",
        "0I4MtuDa": "0,-45,100"
    },
    {
        "D34vc8Q7": "121200173",
        "aSJp1i9m": "1",
        "0I4MtuDa": "0,-45,100"
    },
    {
        "D34vc8Q7": "121200174",
        "aSJp1i9m": "1",
        "0I4MtuDa": "0,-45,100"
    },
    {
        "D34vc8Q7": "121200434",
        "aSJp1i9m": "1",
        "0I4MtuDa": "0,-45,100"
    },
    {
        "D34vc8Q7": "121200554",
        "aSJp1i9m": "1",
        "0I4MtuDa": "0,-45,100"
    },
    {
        "D34vc8Q7": "121300142",
        "aSJp1i9m": "1",
        "0I4MtuDa": "0,-45,100"
    },
    {
        "D34vc8Q7": "121300143",
        "aSJp1i9m": "1",
        "0I4MtuDa": "0,-45,100"
    },
    {
        "D34vc8Q7": "121300154",
        "aSJp1i9m": "1",
        "0I4MtuDa": "0,-45,100"
    },
    {
        "D34vc8Q7": "121300234",
        "aSJp1i9m": "1",
        "0I4MtuDa": "0,-45,100"
    },
    {
        "D34vc8Q7": "121300564",
        "aSJp1i9m": "1",
        "0I4MtuDa": "0,-45,100"
    },
    {
        "D34vc8Q7": "121400133",
        "aSJp1i9m": "1",
        "0I4MtuDa": "0,-45,100"
    },
    {
        "D34vc8Q7": "121400134",
        "aSJp1i9m": "1",
        "0I4MtuDa": "0,-45,100"
    },
    {
        "D34vc8Q7": "121400243",
        "aSJp1i9m": "1",
        "0I4MtuDa": "0,-45,100"
    },
    {
        "D34vc8Q7": "121400254",
        "aSJp1i9m": "1",
        "0I4MtuDa": "0,-45,100"
    },
    {
        "D34vc8Q7": "121400424",
        "aSJp1i9m": "1",
        "0I4MtuDa": "0,-45,100"
    },
    {
        "D34vc8Q7": "121500223",
        "aSJp1i9m": "1",
        "0I4MtuDa": "0,-45,100"
    },
    {
        "D34vc8Q7": "121500224",
        "aSJp1i9m": "1",
        "0I4MtuDa": "0,-45,100"
    },
    {
        "D34vc8Q7": "121500264",
        "aSJp1i9m": "1",
        "0I4MtuDa": "0,-45,100"
    },
    {
        "D34vc8Q7": "121500413",
        "aSJp1i9m": "1",
        "0I4MtuDa": "0,-45,100"
    },
    {
        "D34vc8Q7": "121500414",
        "aSJp1i9m": "1",
        "0I4MtuDa": "0,-45,100"
    },
    {
        "D34vc8Q7": "121500504",
        "aSJp1i9m": "1",
        "0I4MtuDa": "0,-45,100"
    },
    {
        "D34vc8Q7": "121600184",
        "aSJp1i9m": "1",
        "0I4MtuDa": "0,-45,100"
    },
    {
        "D34vc8Q7": "121600193",
        "aSJp1i9m": "1",
        "0I4MtuDa": "0,-45,100"
    },
    {
        "D34vc8Q7": "121600204",
        "aSJp1i9m": "1",
        "0I4MtuDa": "0,-45,100"
    },
    {
        "D34vc8Q7": "121600474",
        "aSJp1i9m": "1",
        "0I4MtuDa": "0,-45,100"
    },
    {
        "D34vc8Q7": "121600534",
        "aSJp1i9m": "1",
        "0I4MtuDa": "0,-45,100"
    },
    {
        "D34vc8Q7": "122100102",
        "aSJp1i9m": "1",
        "0I4MtuDa": "0,-45,100"
    },
    {
        "D34vc8Q7": "122100113",
        "aSJp1i9m": "1",
        "0I4MtuDa": "0,-45,100"
    },
    {
        "D34vc8Q7": "122100124",
        "aSJp1i9m": "1",
        "0I4MtuDa": "0,-45,100"
    },
    {
        "D34vc8Q7": "122100214",
        "aSJp1i9m": "1",
        "0I4MtuDa": "0,-45,100"
    },
    {
        "D34vc8Q7": "122100464",
        "aSJp1i9m": "1",
        "0I4MtuDa": "0,-45,100"
    },
    {
        "D34vc8Q7": "122200164",
        "aSJp1i9m": "1",
        "0I4MtuDa": "0,-45,100"
    },
    {
        "D34vc8Q7": "122200172",
        "aSJp1i9m": "1",
        "0I4MtuDa": "0,-45,100"
    },
    {
        "D34vc8Q7": "122200173",
        "aSJp1i9m": "1",
        "0I4MtuDa": "0,-45,100"
    },
    {
        "D34vc8Q7": "122200174",
        "aSJp1i9m": "1",
        "0I4MtuDa": "0,-45,100"
    },
    {
        "D34vc8Q7": "122200434",
        "aSJp1i9m": "1",
        "0I4MtuDa": "0,-45,100"
    },
    {
        "D34vc8Q7": "122200554",
        "aSJp1i9m": "1",
        "0I4MtuDa": "0,-45,100"
    },
    {
        "D34vc8Q7": "122300142",
        "aSJp1i9m": "1",
        "0I4MtuDa": "0,-45,100"
    },
    {
        "D34vc8Q7": "122300143",
        "aSJp1i9m": "1",
        "0I4MtuDa": "0,-45,100"
    },
    {
        "D34vc8Q7": "122300154",
        "aSJp1i9m": "1",
        "0I4MtuDa": "0,-45,100"
    },
    {
        "D34vc8Q7": "122300234",
        "aSJp1i9m": "1",
        "0I4MtuDa": "0,-45,100"
    },
    {
        "D34vc8Q7": "122300564",
        "aSJp1i9m": "1",
        "0I4MtuDa": "0,-45,100"
    },
    {
        "D34vc8Q7": "122400133",
        "aSJp1i9m": "1",
        "0I4MtuDa": "0,-45,100"
    },
    {
        "D34vc8Q7": "122400134",
        "aSJp1i9m": "1",
        "0I4MtuDa": "0,-45,100"
    },
    {
        "D34vc8Q7": "122400243",
        "aSJp1i9m": "1",
        "0I4MtuDa": "0,-45,100"
    },
    {
        "D34vc8Q7": "122400254",
        "aSJp1i9m": "1",
        "0I4MtuDa": "0,-45,100"
    },
    {
        "D34vc8Q7": "122400424",
        "aSJp1i9m": "1",
        "0I4MtuDa": "0,-45,100"
    },
    {
        "D34vc8Q7": "122500223",
        "aSJp1i9m": "1",
        "0I4MtuDa": "0,-45,100"
    },
    {
        "D34vc8Q7": "122500224",
        "aSJp1i9m": "1",
        "0I4MtuDa": "0,-45,100"
    },
    {
        "D34vc8Q7": "122500264",
        "aSJp1i9m": "1",
        "0I4MtuDa": "0,-45,100"
    },
    {
        "D34vc8Q7": "122500413",
        "aSJp1i9m": "1",
        "0I4MtuDa": "0,-45,100"
    },
    {
        "D34vc8Q7": "122500414",
        "aSJp1i9m": "1",
        "0I4MtuDa": "0,-45,100"
    },
    {
        "D34vc8Q7": "122500504",
        "aSJp1i9m": "1",
        "0I4MtuDa": "0,-45,100"
    },
    {
        "D34vc8Q7": "122600184",
        "aSJp1i9m": "1",
        "0I4MtuDa": "0,-45,100"
    },
    {
        "D34vc8Q7": "122600193",
        "aSJp1i9m": "1",
        "0I4MtuDa": "0,-45,100"
    },
    {
        "D34vc8Q7": "122600204",
        "aSJp1i9m": "1",
        "0I4MtuDa": "0,-45,100"
    },
    {
        "D34vc8Q7": "122600474",
        "aSJp1i9m": "1",
        "0I4MtuDa": "0,-45,100"
    },
    {
        "D34vc8Q7": "122600534",
        "aSJp1i9m": "1",
        "0I4MtuDa": "0,-45,100"
    },
    {
        "D34vc8Q7": "123100102",
        "aSJp1i9m": "1",
        "0I4MtuDa": "0,-45,100"
    },
    {
        "D34vc8Q7": "123100113",
        "aSJp1i9m": "1",
        "0I4MtuDa": "0,-45,100"
    },
    {
        "D34vc8Q7": "123100124",
        "aSJp1i9m": "1",
        "0I4MtuDa": "0,-45,100"
    },
    {
        "D34vc8Q7": "123100214",
        "aSJp1i9m": "1",
        "0I4MtuDa": "0,-45,100"
    },
    {
        "D34vc8Q7": "123100464",
        "aSJp1i9m": "1",
        "0I4MtuDa": "0,-45,100"
    },
    {
        "D34vc8Q7": "123200164",
        "aSJp1i9m": "1",
        "0I4MtuDa": "0,-45,100"
    },
    {
        "D34vc8Q7": "123200172",
        "aSJp1i9m": "1",
        "0I4MtuDa": "0,-45,100"
    },
    {
        "D34vc8Q7": "123200173",
        "aSJp1i9m": "1",
        "0I4MtuDa": "0,-45,100"
    },
    {
        "D34vc8Q7": "123200174",
        "aSJp1i9m": "1",
        "0I4MtuDa": "0,-45,100"
    },
    {
        "D34vc8Q7": "123200434",
        "aSJp1i9m": "1",
        "0I4MtuDa": "0,-45,100"
    },
    {
        "D34vc8Q7": "123200554",
        "aSJp1i9m": "1",
        "0I4MtuDa": "0,-45,100"
    },
    {
        "D34vc8Q7": "123300142",
        "aSJp1i9m": "1",
        "0I4MtuDa": "0,-45,100"
    },
    {
        "D34vc8Q7": "123300143",
        "aSJp1i9m": "1",
        "0I4MtuDa": "0,-45,100"
    },
    {
        "D34vc8Q7": "123300154",
        "aSJp1i9m": "1",
        "0I4MtuDa": "0,-45,100"
    },
    {
        "D34vc8Q7": "123300234",
        "aSJp1i9m": "1",
        "0I4MtuDa": "0,-45,100"
    },
    {
        "D34vc8Q7": "123300564",
        "aSJp1i9m": "1",
        "0I4MtuDa": "0,-45,100"
    },
    {
        "D34vc8Q7": "123400133",
        "aSJp1i9m": "1",
        "0I4MtuDa": "0,-45,100"
    },
    {
        "D34vc8Q7": "123400134",
        "aSJp1i9m": "1",
        "0I4MtuDa": "0,-45,100"
    },
    {
        "D34vc8Q7": "123400243",
        "aSJp1i9m": "1",
        "0I4MtuDa": "0,-45,100"
    },
    {
        "D34vc8Q7": "123400254",
        "aSJp1i9m": "1",
        "0I4MtuDa": "0,-45,100"
    },
    {
        "D34vc8Q7": "123400424",
        "aSJp1i9m": "1",
        "0I4MtuDa": "0,-45,100"
    },
    {
        "D34vc8Q7": "123500223",
        "aSJp1i9m": "1",
        "0I4MtuDa": "0,-45,100"
    },
    {
        "D34vc8Q7": "123500224",
        "aSJp1i9m": "1",
        "0I4MtuDa": "0,-45,100"
    },
    {
        "D34vc8Q7": "123500264",
        "aSJp1i9m": "1",
        "0I4MtuDa": "0,-45,100"
    },
    {
        "D34vc8Q7": "123500413",
        "aSJp1i9m": "1",
        "0I4MtuDa": "0,-45,100"
    },
    {
        "D34vc8Q7": "123500414",
        "aSJp1i9m": "1",
        "0I4MtuDa": "0,-45,100"
    },
    {
        "D34vc8Q7": "123500504",
        "aSJp1i9m": "1",
        "0I4MtuDa": "0,-45,100"
    },
    {
        "D34vc8Q7": "123600184",
        "aSJp1i9m": "1",
        "0I4MtuDa": "0,-45,100"
    },
    {
        "D34vc8Q7": "123600193",
        "aSJp1i9m": "1",
        "0I4MtuDa": "0,-45,100"
    },
    {
        "D34vc8Q7": "123600204",
        "aSJp1i9m": "1",
        "0I4MtuDa": "0,-45,100"
    },
    {
        "D34vc8Q7": "123600474",
        "aSJp1i9m": "1",
        "0I4MtuDa": "0,-45,100"
    },
    {
        "D34vc8Q7": "123600534",
        "aSJp1i9m": "1",
        "0I4MtuDa": "0,-45,100"
    },
    {
        "D34vc8Q7": "221100313",
        "aSJp1i9m": "1",
        "0I4MtuDa": "0,-45,100"
    },
    {
        "D34vc8Q7": "221100314",
        "aSJp1i9m": "1",
        "0I4MtuDa": "0,-45,100"
    },
    {
        "D34vc8Q7": "221100454",
        "aSJp1i9m": "1",
        "0I4MtuDa": "0,-45,100"
    },
    {
        "D34vc8Q7": "221100514",
        "aSJp1i9m": "1",
        "0I4MtuDa": "0,-45,100"
    },
    {
        "D34vc8Q7": "221200322",
        "aSJp1i9m": "1",
        "0I4MtuDa": "0,-45,100"
    },
    {
        "D34vc8Q7": "221200323",
        "aSJp1i9m": "1",
        "0I4MtuDa": "0,-45,100"
    },
    {
        "D34vc8Q7": "221200334",
        "aSJp1i9m": "1",
        "0I4MtuDa": "0,-45,100"
    },
    {
        "D34vc8Q7": "221200404",
        "aSJp1i9m": "1",
        "0I4MtuDa": "0,-45,100"
    },
    {
        "D34vc8Q7": "221300344",
        "aSJp1i9m": "1",
        "0I4MtuDa": "0,-45,100"
    },
    {
        "D34vc8Q7": "221300383",
        "aSJp1i9m": "1",
        "0I4MtuDa": "0,-45,100"
    },
    {
        "D34vc8Q7": "221300394",
        "aSJp1i9m": "1",
        "0I4MtuDa": "0,-45,100"
    },
    {
        "D34vc8Q7": "221300484",
        "aSJp1i9m": "1",
        "0I4MtuDa": "0,-45,100"
    },
    {
        "D34vc8Q7": "221300574",
        "aSJp1i9m": "1",
        "0I4MtuDa": "0,-45,100"
    },
    {
        "D34vc8Q7": "221400272",
        "aSJp1i9m": "1",
        "0I4MtuDa": "0,-45,100"
    },
    {
        "D34vc8Q7": "221400283",
        "aSJp1i9m": "1",
        "0I4MtuDa": "0,-45,100"
    },
    {
        "D34vc8Q7": "221400294",
        "aSJp1i9m": "1",
        "0I4MtuDa": "0,-45,100"
    },
    {
        "D34vc8Q7": "221400494",
        "aSJp1i9m": "1",
        "0I4MtuDa": "0,-45,100"
    },
    {
        "D34vc8Q7": "221500304",
        "aSJp1i9m": "1",
        "0I4MtuDa": "0,-45,100"
    },
    {
        "D34vc8Q7": "221500363",
        "aSJp1i9m": "1",
        "0I4MtuDa": "0,-45,100"
    },
    {
        "D34vc8Q7": "221500374",
        "aSJp1i9m": "1",
        "0I4MtuDa": "0,-45,100"
    },
    {
        "D34vc8Q7": "221500524",
        "aSJp1i9m": "1",
        "0I4MtuDa": "0,-45,100"
    },
    {
        "D34vc8Q7": "221500584",
        "aSJp1i9m": "1",
        "0I4MtuDa": "0,-45,100"
    },
    {
        "D34vc8Q7": "221600354",
        "aSJp1i9m": "1",
        "0I4MtuDa": "0,-45,100"
    },
    {
        "D34vc8Q7": "221600443",
        "aSJp1i9m": "1",
        "0I4MtuDa": "0,-45,100"
    },
    {
        "D34vc8Q7": "221600444",
        "aSJp1i9m": "1",
        "0I4MtuDa": "0,-45,100"
    },
    {
        "D34vc8Q7": "221600544",
        "aSJp1i9m": "1",
        "0I4MtuDa": "0,-45,100"
    }
]