[
    {
        "MFV1A4vj": "1",
        "YvHAd5I7": "1",
        "aSJp1i9m": "2",
        "P_SCENE_PARAM": "100",
        "P_POS": "28,10",
        "P_IMG": "top_20180222.png,top_20180222_light.png",
        "P_CREATEDATE": "2018-04-09 15:20:13",
        "P_UPDATEDATE": "2018-04-09 15:20:13"
    },
    {
        "MFV1A4vj": "1",
        "YvHAd5I7": "2",
        "aSJp1i9m": "3",
        "P_SCENE_PARAM": "1000",
        "P_POS": "28,533#0,140:580,0:580,200:0,200",
        "P_IMG": "kizuna.png,kizuna_light.png",
        "P_CREATEDATE": "2018-04-09 15:20:13",
        "P_UPDATEDATE": "2018-04-09 15:20:13"
    },
    {
        "MFV1A4vj": "1",
        "YvHAd5I7": "3",
        "aSJp1i9m": "1",
        "P_SCENE_PARAM": "10000",
        "P_POS": "28,474#0,0:580,0:580,42:0,180",
        "P_IMG": "all.png,all_light.png",
        "P_CREATEDATE": "2018-04-09 15:20:13",
        "P_UPDATEDATE": "2018-04-09 15:20:13"
    },
    {
        "MFV1A4vj": "9",
        "YvHAd5I7": "1",
        "aSJp1i9m": "1",
        "P_SCENE_PARAM": "109",
        "P_POS": "28,10",
        "P_IMG": "top_20180326.png,top_20180222_light.png",
        "P_CREATEDATE": "2018-04-09 15:20:13",
        "P_UPDATEDATE": "2018-04-09 15:20:13"
    },
    {
        "MFV1A4vj": "9",
        "YvHAd5I7": "2",
        "aSJp1i9m": "3",
        "P_SCENE_PARAM": "1000",
        "P_POS": "28,533#0,140:580,0:580,200:0,200",
        "P_IMG": "kizuna.png,kizuna_light.png",
        "P_CREATEDATE": "2018-04-09 15:20:13",
        "P_UPDATEDATE": "2018-04-09 15:20:13"
    },
    {
        "MFV1A4vj": "9",
        "YvHAd5I7": "3",
        "aSJp1i9m": "1",
        "P_SCENE_PARAM": "10000",
        "P_POS": "28,474#0,0:580,0:580,42:0,180",
        "P_IMG": "all.png,all_light.png",
        "P_CREATEDATE": "2018-04-09 15:20:13",
        "P_UPDATEDATE": "2018-04-09 15:20:13"
    },
    {
        "MFV1A4vj": "11",
        "YvHAd5I7": "1",
        "aSJp1i9m": "1",
        "P_SCENE_PARAM": "110",
        "P_POS": "28,10",
        "P_IMG": "top_20180326.png,top_20180222_light.png",
        "P_CREATEDATE": "2018-04-09 15:20:13",
        "P_UPDATEDATE": "2018-04-09 15:20:13"
    },
    {
        "MFV1A4vj": "11",
        "YvHAd5I7": "2",
        "aSJp1i9m": "3",
        "P_SCENE_PARAM": "2000",
        "P_POS": "28,533#0,140:580,0:580,200:0,200",
        "P_IMG": "kizuna_sp.png,kizuna_light.png",
        "P_CREATEDATE": "2018-04-09 15:20:13",
        "P_UPDATEDATE": "2018-04-09 15:20:13"
    },
    {
        "MFV1A4vj": "11",
        "YvHAd5I7": "3",
        "aSJp1i9m": "1",
        "P_SCENE_PARAM": "10000",
        "P_POS": "28,474#0,0:580,0:580,42:0,180",
        "P_IMG": "all.png,all_light.png",
        "P_CREATEDATE": "2018-04-09 15:20:13",
        "P_UPDATEDATE": "2018-04-09 15:20:13"
    },
    {
        "MFV1A4vj": "12",
        "YvHAd5I7": "1",
        "aSJp1i9m": "1",
        "P_SCENE_PARAM": "111",
        "P_POS": "28,10",
        "P_IMG": "top_20180326.png,top_20180222_light.png",
        "P_CREATEDATE": "2018-04-09 15:20:13",
        "P_UPDATEDATE": "2018-04-09 15:20:13"
    },
    {
        "MFV1A4vj": "12",
        "YvHAd5I7": "2",
        "aSJp1i9m": "3",
        "P_SCENE_PARAM": "1000",
        "P_POS": "28,533#0,140:580,0:580,200:0,200",
        "P_IMG": "kizuna.png,kizuna_light.png",
        "P_CREATEDATE": "2018-04-09 15:20:13",
        "P_UPDATEDATE": "2018-04-09 15:20:13"
    },
    {
        "MFV1A4vj": "12",
        "YvHAd5I7": "3",
        "aSJp1i9m": "1",
        "P_SCENE_PARAM": "10000",
        "P_POS": "28,474#0,0:580,0:580,42:0,180",
        "P_IMG": "all.png,all_light.png",
        "P_CREATEDATE": "2018-04-09 15:20:13",
        "P_UPDATEDATE": "2018-04-09 15:20:13"
    },
    {
        "MFV1A4vj": "13",
        "YvHAd5I7": "1",
        "aSJp1i9m": "1",
        "P_SCENE_PARAM": "112",
        "P_POS": "28,10",
        "P_IMG": "top_20180409_01.png,top_20180409_light.png",
        "P_CREATEDATE": "2018-04-09 15:20:13",
        "P_UPDATEDATE": "2018-04-09 15:20:13"
    },
    {
        "MFV1A4vj": "13",
        "YvHAd5I7": "2",
        "aSJp1i9m": "2",
        "P_SCENE_PARAM": "118",
        "P_POS": "28,240",
        "P_IMG": "top_20180409_02.png,top_20180409_light.png",
        "P_CREATEDATE": "2018-04-09 15:20:13",
        "P_UPDATEDATE": "2018-04-09 15:20:13"
    },
    {
        "MFV1A4vj": "13",
        "YvHAd5I7": "3",
        "aSJp1i9m": "3",
        "P_SCENE_PARAM": "1000",
        "P_POS": "28,524#0,140:580,0:580,200:0,200",
        "P_IMG": "kizuna.png,kizuna_light.png",
        "P_CREATEDATE": "2018-04-09 15:20:13",
        "P_UPDATEDATE": "2018-04-09 15:20:13"
    },
    {
        "MFV1A4vj": "13",
        "YvHAd5I7": "4",
        "aSJp1i9m": "1",
        "P_SCENE_PARAM": "10000",
        "P_POS": "28,471#0,0:580,0:580,42:0,180",
        "P_IMG": "all.png,all_light.png",
        "P_CREATEDATE": "2018-04-09 15:20:13",
        "P_UPDATEDATE": "2018-04-09 15:20:13"
    },
    {
        "MFV1A4vj": "14",
        "YvHAd5I7": "1",
        "aSJp1i9m": "1",
        "P_SCENE_PARAM": "113",
        "P_POS": "28,10",
        "P_IMG": "top_20180411_01.png,top_20180409_light.png",
        "P_CREATEDATE": "2018-04-09 15:20:13",
        "P_UPDATEDATE": "2018-04-09 15:20:13"
    },
    {
        "MFV1A4vj": "14",
        "YvHAd5I7": "2",
        "aSJp1i9m": "2",
        "P_SCENE_PARAM": "118",
        "P_POS": "28,240",
        "P_IMG": "top_20180409_02.png,top_20180409_light.png",
        "P_CREATEDATE": "2018-04-09 15:20:13",
        "P_UPDATEDATE": "2018-04-09 15:20:13"
    },
    {
        "MFV1A4vj": "14",
        "YvHAd5I7": "3",
        "aSJp1i9m": "3",
        "P_SCENE_PARAM": "1000",
        "P_POS": "28,524#0,140:580,0:580,200:0,200",
        "P_IMG": "kizuna.png,kizuna_light.png",
        "P_CREATEDATE": "2018-04-09 15:20:13",
        "P_UPDATEDATE": "2018-04-09 15:20:13"
    },
    {
        "MFV1A4vj": "14",
        "YvHAd5I7": "4",
        "aSJp1i9m": "1",
        "P_SCENE_PARAM": "10000",
        "P_POS": "28,471#0,0:580,0:580,42:0,180",
        "P_IMG": "all.png,all_light.png",
        "P_CREATEDATE": "2018-04-09 15:20:13",
        "P_UPDATEDATE": "2018-04-09 15:20:13"
    },
    {
        "MFV1A4vj": "15",
        "YvHAd5I7": "1",
        "aSJp1i9m": "1",
        "P_SCENE_PARAM": "114",
        "P_POS": "28,10",
        "P_IMG": "top_20180413_01.png,top_20180409_light.png",
        "P_CREATEDATE": "2018-04-09 15:20:13",
        "P_UPDATEDATE": "2018-04-09 15:20:13"
    },
    {
        "MFV1A4vj": "15",
        "YvHAd5I7": "2",
        "aSJp1i9m": "2",
        "P_SCENE_PARAM": "118",
        "P_POS": "28,240",
        "P_IMG": "top_20180409_02.png,top_20180409_light.png",
        "P_CREATEDATE": "2018-04-09 15:20:13",
        "P_UPDATEDATE": "2018-04-09 15:20:13"
    },
    {
        "MFV1A4vj": "15",
        "YvHAd5I7": "3",
        "aSJp1i9m": "3",
        "P_SCENE_PARAM": "1000",
        "P_POS": "28,524#0,140:580,0:580,200:0,200",
        "P_IMG": "kizuna.png,kizuna_light.png",
        "P_CREATEDATE": "2018-04-09 15:20:13",
        "P_UPDATEDATE": "2018-04-09 15:20:13"
    },
    {
        "MFV1A4vj": "15",
        "YvHAd5I7": "4",
        "aSJp1i9m": "1",
        "P_SCENE_PARAM": "10000",
        "P_POS": "28,471#0,0:580,0:580,42:0,180",
        "P_IMG": "all.png,all_light.png",
        "P_CREATEDATE": "2018-04-09 15:20:13",
        "P_UPDATEDATE": "2018-04-09 15:20:13"
    },
    {
        "MFV1A4vj": "16",
        "YvHAd5I7": "1",
        "aSJp1i9m": "1",
        "P_SCENE_PARAM": "115",
        "P_POS": "28,10",
        "P_IMG": "top_20180415_01.png,top_20180409_light.png",
        "P_CREATEDATE": "2018-04-09 15:20:13",
        "P_UPDATEDATE": "2018-04-09 15:20:13"
    },
    {
        "MFV1A4vj": "16",
        "YvHAd5I7": "2",
        "aSJp1i9m": "2",
        "P_SCENE_PARAM": "118",
        "P_POS": "28,240",
        "P_IMG": "top_20180409_02.png,top_20180409_light.png",
        "P_CREATEDATE": "2018-04-09 15:20:13",
        "P_UPDATEDATE": "2018-04-09 15:20:13"
    },
    {
        "MFV1A4vj": "16",
        "YvHAd5I7": "3",
        "aSJp1i9m": "3",
        "P_SCENE_PARAM": "1000",
        "P_POS": "28,524#0,140:580,0:580,200:0,200",
        "P_IMG": "kizuna.png,kizuna_light.png",
        "P_CREATEDATE": "2018-04-09 15:20:13",
        "P_UPDATEDATE": "2018-04-09 15:20:13"
    },
    {
        "MFV1A4vj": "16",
        "YvHAd5I7": "4",
        "aSJp1i9m": "1",
        "P_SCENE_PARAM": "10000",
        "P_POS": "28,471#0,0:580,0:580,42:0,180",
        "P_IMG": "all.png,all_light.png",
        "P_CREATEDATE": "2018-04-09 15:20:13",
        "P_UPDATEDATE": "2018-04-09 15:20:13"
    },
    {
        "MFV1A4vj": "17",
        "YvHAd5I7": "1",
        "aSJp1i9m": "1",
        "P_SCENE_PARAM": "116",
        "P_POS": "28,10",
        "P_IMG": "top_20180417_01.png,top_20180409_light.png",
        "P_CREATEDATE": "2018-04-09 15:20:13",
        "P_UPDATEDATE": "2018-04-09 15:20:13"
    },
    {
        "MFV1A4vj": "17",
        "YvHAd5I7": "2",
        "aSJp1i9m": "2",
        "P_SCENE_PARAM": "118",
        "P_POS": "28,240",
        "P_IMG": "top_20180409_02.png,top_20180409_light.png",
        "P_CREATEDATE": "2018-04-09 15:20:13",
        "P_UPDATEDATE": "2018-04-09 15:20:13"
    },
    {
        "MFV1A4vj": "17",
        "YvHAd5I7": "3",
        "aSJp1i9m": "3",
        "P_SCENE_PARAM": "1000",
        "P_POS": "28,524#0,140:580,0:580,200:0,200",
        "P_IMG": "kizuna.png,kizuna_light.png",
        "P_CREATEDATE": "2018-04-09 15:20:13",
        "P_UPDATEDATE": "2018-04-09 15:20:13"
    },
    {
        "MFV1A4vj": "17",
        "YvHAd5I7": "4",
        "aSJp1i9m": "1",
        "P_SCENE_PARAM": "10000",
        "P_POS": "28,471#0,0:580,0:580,42:0,180",
        "P_IMG": "all.png,all_light.png",
        "P_CREATEDATE": "2018-04-09 15:20:13",
        "P_UPDATEDATE": "2018-04-09 15:20:13"
    },
    {
        "MFV1A4vj": "18",
        "YvHAd5I7": "1",
        "aSJp1i9m": "1",
        "P_SCENE_PARAM": "117",
        "P_POS": "28,10",
        "P_IMG": "top_20180419_01.png,top_20180409_light.png",
        "P_CREATEDATE": "2018-04-09 15:20:13",
        "P_UPDATEDATE": "2018-04-09 15:20:13"
    },
    {
        "MFV1A4vj": "18",
        "YvHAd5I7": "2",
        "aSJp1i9m": "2",
        "P_SCENE_PARAM": "118",
        "P_POS": "28,240",
        "P_IMG": "top_20180409_02.png,top_20180409_light.png",
        "P_CREATEDATE": "2018-04-09 15:20:13",
        "P_UPDATEDATE": "2018-04-09 15:20:13"
    },
    {
        "MFV1A4vj": "18",
        "YvHAd5I7": "3",
        "aSJp1i9m": "3",
        "P_SCENE_PARAM": "1000",
        "P_POS": "28,524#0,140:580,0:580,200:0,200",
        "P_IMG": "kizuna.png,kizuna_light.png",
        "P_CREATEDATE": "2018-04-09 15:20:13",
        "P_UPDATEDATE": "2018-04-09 15:20:13"
    },
    {
        "MFV1A4vj": "18",
        "YvHAd5I7": "4",
        "aSJp1i9m": "1",
        "P_SCENE_PARAM": "10000",
        "P_POS": "28,471#0,0:580,0:580,42:0,180",
        "P_IMG": "all.png,all_light.png",
        "P_CREATEDATE": "2018-04-09 15:20:13",
        "P_UPDATEDATE": "2018-04-09 15:20:13"
    },
    {
        "MFV1A4vj": "19",
        "YvHAd5I7": "1",
        "aSJp1i9m": "1",
        "P_SCENE_PARAM": "118",
        "P_POS": "28,10",
        "P_IMG": "top_20180409_02.png,top_20180409_light.png",
        "P_CREATEDATE": "2018-04-09 15:20:13",
        "P_UPDATEDATE": "2018-04-09 15:20:13"
    },
    {
        "MFV1A4vj": "19",
        "YvHAd5I7": "2",
        "aSJp1i9m": "3",
        "P_SCENE_PARAM": "1000",
        "P_POS": "28,299#0,140:580,0:580,200:0,200",
        "P_IMG": "kizuna.png,kizuna_light.png",
        "P_CREATEDATE": "2018-04-09 15:20:13",
        "P_UPDATEDATE": "2018-04-09 15:20:13"
    },
    {
        "MFV1A4vj": "19",
        "YvHAd5I7": "3",
        "aSJp1i9m": "1",
        "P_SCENE_PARAM": "10000",
        "P_POS": "28,240#0,0:580,0:580,42:0,180",
        "P_IMG": "all.png,all_light.png",
        "P_CREATEDATE": "2018-04-09 15:20:13",
        "P_UPDATEDATE": "2018-04-09 15:20:13"
    },
    {
        "MFV1A4vj": "100",
        "YvHAd5I7": "2",
        "aSJp1i9m": "3",
        "P_SCENE_PARAM": "1000",
        "P_POS": "28,69#0,140:580,0:580,200:0,200",
        "P_IMG": "kizuna.png,kizuna_light.png",
        "P_CREATEDATE": "2018-04-09 15:20:13",
        "P_UPDATEDATE": "2018-04-09 15:20:13"
    },
    {
        "MFV1A4vj": "100",
        "YvHAd5I7": "3",
        "aSJp1i9m": "1",
        "P_SCENE_PARAM": "10000",
        "P_POS": "28,10#0,0:580,0:580,42:0,180",
        "P_IMG": "all.png,all_light.png",
        "P_CREATEDATE": "2018-04-09 15:20:13",
        "P_UPDATEDATE": "2018-04-09 15:20:13"
    }
]