[
    {
        "MFV1A4vj": "1",
        "YvHAd5I7": "1",
        "aSJp1i9m": "2",
        "P_SCENE_PARAM": "100",
        "P_POS": "28,55",
        "P_IMG": "pickup_20171212.png,pickup_light.png",
        "P_CREATEDATE": "2018-02-07 16:55:29",
        "P_UPDATEDATE": "2018-02-07 16:55:29"
    },
    {
        "MFV1A4vj": "1",
        "YvHAd5I7": "2",
        "aSJp1i9m": "3",
        "P_SCENE_PARAM": "1000",
        "P_POS": "28,492#0,140:580,0:580,200:0,200",
        "P_IMG": "kizuna.png,kizuna_light.png",
        "P_CREATEDATE": "2018-02-07 16:55:29",
        "P_UPDATEDATE": "2018-02-07 16:55:29"
    },
    {
        "MFV1A4vj": "1",
        "YvHAd5I7": "3",
        "aSJp1i9m": "1",
        "P_SCENE_PARAM": "2000",
        "P_POS": "28,425#0,0:580,0:580,42:0,180",
        "P_IMG": "all.png,all_light.png",
        "P_CREATEDATE": "2018-02-07 16:55:29",
        "P_UPDATEDATE": "2018-02-07 16:55:29"
    }
]