[
    {
        "MFV1A4vj": "1",
        "YvHAd5I7": "1",
        "aSJp1i9m": "2",
        "P_SCENE_PARAM": "100",
        "P_POS": "28,10",
        "P_IMG": "top_20180222.png,top_20180222_light.png",
        "P_CREATEDATE": "2018-08-16 01:41:24",
        "P_UPDATEDATE": "2018-08-16 01:41:24"
    },
    {
        "MFV1A4vj": "1",
        "YvHAd5I7": "2",
        "aSJp1i9m": "3",
        "P_SCENE_PARAM": "1000",
        "P_POS": "28,533#0,140:580,0:580,200:0,200",
        "P_IMG": "kizuna.png,kizuna_light.png",
        "P_CREATEDATE": "2018-08-16 01:41:24",
        "P_UPDATEDATE": "2018-08-16 01:41:24"
    },
    {
        "MFV1A4vj": "1",
        "YvHAd5I7": "3",
        "aSJp1i9m": "1",
        "P_SCENE_PARAM": "10000",
        "P_POS": "28,474#0,0:580,0:580,42:0,180",
        "P_IMG": "all.png,all_light.png",
        "P_CREATEDATE": "2018-08-16 01:41:24",
        "P_UPDATEDATE": "2018-08-16 01:41:24"
    },
    {
        "MFV1A4vj": "9",
        "YvHAd5I7": "1",
        "aSJp1i9m": "1",
        "P_SCENE_PARAM": "109",
        "P_POS": "28,10",
        "P_IMG": "top_20180326.png,top_20180222_light.png",
        "P_CREATEDATE": "2018-08-16 01:41:24",
        "P_UPDATEDATE": "2018-08-16 01:41:24"
    },
    {
        "MFV1A4vj": "9",
        "YvHAd5I7": "2",
        "aSJp1i9m": "3",
        "P_SCENE_PARAM": "1000",
        "P_POS": "28,533#0,140:580,0:580,200:0,200",
        "P_IMG": "kizuna.png,kizuna_light.png",
        "P_CREATEDATE": "2018-08-16 01:41:24",
        "P_UPDATEDATE": "2018-08-16 01:41:24"
    },
    {
        "MFV1A4vj": "9",
        "YvHAd5I7": "3",
        "aSJp1i9m": "1",
        "P_SCENE_PARAM": "10000",
        "P_POS": "28,474#0,0:580,0:580,42:0,180",
        "P_IMG": "all.png,all_light.png",
        "P_CREATEDATE": "2018-08-16 01:41:24",
        "P_UPDATEDATE": "2018-08-16 01:41:24"
    },
    {
        "MFV1A4vj": "11",
        "YvHAd5I7": "1",
        "aSJp1i9m": "1",
        "P_SCENE_PARAM": "110",
        "P_POS": "28,10",
        "P_IMG": "top_20180326.png,top_20180222_light.png",
        "P_CREATEDATE": "2018-08-16 01:41:24",
        "P_UPDATEDATE": "2018-08-16 01:41:24"
    },
    {
        "MFV1A4vj": "11",
        "YvHAd5I7": "2",
        "aSJp1i9m": "3",
        "P_SCENE_PARAM": "2000",
        "P_POS": "28,533#0,140:580,0:580,200:0,200",
        "P_IMG": "kizuna_sp.png,kizuna_light.png",
        "P_CREATEDATE": "2018-08-16 01:41:24",
        "P_UPDATEDATE": "2018-08-16 01:41:24"
    },
    {
        "MFV1A4vj": "11",
        "YvHAd5I7": "3",
        "aSJp1i9m": "1",
        "P_SCENE_PARAM": "10000",
        "P_POS": "28,474#0,0:580,0:580,42:0,180",
        "P_IMG": "all.png,all_light.png",
        "P_CREATEDATE": "2018-08-16 01:41:24",
        "P_UPDATEDATE": "2018-08-16 01:41:24"
    },
    {
        "MFV1A4vj": "12",
        "YvHAd5I7": "1",
        "aSJp1i9m": "1",
        "P_SCENE_PARAM": "111",
        "P_POS": "28,10",
        "P_IMG": "top_20180326.png,top_20180222_light.png",
        "P_CREATEDATE": "2018-08-16 01:41:24",
        "P_UPDATEDATE": "2018-08-16 01:41:24"
    },
    {
        "MFV1A4vj": "12",
        "YvHAd5I7": "2",
        "aSJp1i9m": "3",
        "P_SCENE_PARAM": "1000",
        "P_POS": "28,533#0,140:580,0:580,200:0,200",
        "P_IMG": "kizuna.png,kizuna_light.png",
        "P_CREATEDATE": "2018-08-16 01:41:24",
        "P_UPDATEDATE": "2018-08-16 01:41:24"
    },
    {
        "MFV1A4vj": "12",
        "YvHAd5I7": "3",
        "aSJp1i9m": "1",
        "P_SCENE_PARAM": "10000",
        "P_POS": "28,474#0,0:580,0:580,42:0,180",
        "P_IMG": "all.png,all_light.png",
        "P_CREATEDATE": "2018-08-16 01:41:24",
        "P_UPDATEDATE": "2018-08-16 01:41:24"
    },
    {
        "MFV1A4vj": "13",
        "YvHAd5I7": "1",
        "aSJp1i9m": "1",
        "P_SCENE_PARAM": "112",
        "P_POS": "28,10",
        "P_IMG": "top_20180409_01.png,top_20180409_light.png",
        "P_CREATEDATE": "2018-08-16 01:41:24",
        "P_UPDATEDATE": "2018-08-16 01:41:24"
    },
    {
        "MFV1A4vj": "13",
        "YvHAd5I7": "2",
        "aSJp1i9m": "2",
        "P_SCENE_PARAM": "118",
        "P_POS": "28,240",
        "P_IMG": "top_20180409_02.png,top_20180409_light.png",
        "P_CREATEDATE": "2018-08-16 01:41:24",
        "P_UPDATEDATE": "2018-08-16 01:41:24"
    },
    {
        "MFV1A4vj": "13",
        "YvHAd5I7": "3",
        "aSJp1i9m": "3",
        "P_SCENE_PARAM": "1000",
        "P_POS": "28,524#0,140:580,0:580,200:0,200",
        "P_IMG": "kizuna.png,kizuna_light.png",
        "P_CREATEDATE": "2018-08-16 01:41:24",
        "P_UPDATEDATE": "2018-08-16 01:41:24"
    },
    {
        "MFV1A4vj": "13",
        "YvHAd5I7": "4",
        "aSJp1i9m": "1",
        "P_SCENE_PARAM": "10000",
        "P_POS": "28,471#0,0:580,0:580,42:0,180",
        "P_IMG": "all.png,all_light.png",
        "P_CREATEDATE": "2018-08-16 01:41:24",
        "P_UPDATEDATE": "2018-08-16 01:41:24"
    },
    {
        "MFV1A4vj": "14",
        "YvHAd5I7": "1",
        "aSJp1i9m": "1",
        "P_SCENE_PARAM": "113",
        "P_POS": "28,10",
        "P_IMG": "top_20180411_01.png,top_20180409_light.png",
        "P_CREATEDATE": "2018-08-16 01:41:24",
        "P_UPDATEDATE": "2018-08-16 01:41:24"
    },
    {
        "MFV1A4vj": "14",
        "YvHAd5I7": "2",
        "aSJp1i9m": "2",
        "P_SCENE_PARAM": "118",
        "P_POS": "28,240",
        "P_IMG": "top_20180409_02.png,top_20180409_light.png",
        "P_CREATEDATE": "2018-08-16 01:41:24",
        "P_UPDATEDATE": "2018-08-16 01:41:24"
    },
    {
        "MFV1A4vj": "14",
        "YvHAd5I7": "3",
        "aSJp1i9m": "3",
        "P_SCENE_PARAM": "1000",
        "P_POS": "28,524#0,140:580,0:580,200:0,200",
        "P_IMG": "kizuna.png,kizuna_light.png",
        "P_CREATEDATE": "2018-08-16 01:41:24",
        "P_UPDATEDATE": "2018-08-16 01:41:24"
    },
    {
        "MFV1A4vj": "14",
        "YvHAd5I7": "4",
        "aSJp1i9m": "1",
        "P_SCENE_PARAM": "10000",
        "P_POS": "28,471#0,0:580,0:580,42:0,180",
        "P_IMG": "all.png,all_light.png",
        "P_CREATEDATE": "2018-08-16 01:41:24",
        "P_UPDATEDATE": "2018-08-16 01:41:24"
    },
    {
        "MFV1A4vj": "15",
        "YvHAd5I7": "1",
        "aSJp1i9m": "1",
        "P_SCENE_PARAM": "114",
        "P_POS": "28,10",
        "P_IMG": "top_20180413_01.png,top_20180409_light.png",
        "P_CREATEDATE": "2018-08-16 01:41:24",
        "P_UPDATEDATE": "2018-08-16 01:41:24"
    },
    {
        "MFV1A4vj": "15",
        "YvHAd5I7": "2",
        "aSJp1i9m": "2",
        "P_SCENE_PARAM": "118",
        "P_POS": "28,240",
        "P_IMG": "top_20180409_02.png,top_20180409_light.png",
        "P_CREATEDATE": "2018-08-16 01:41:24",
        "P_UPDATEDATE": "2018-08-16 01:41:24"
    },
    {
        "MFV1A4vj": "15",
        "YvHAd5I7": "3",
        "aSJp1i9m": "3",
        "P_SCENE_PARAM": "1000",
        "P_POS": "28,524#0,140:580,0:580,200:0,200",
        "P_IMG": "kizuna.png,kizuna_light.png",
        "P_CREATEDATE": "2018-08-16 01:41:24",
        "P_UPDATEDATE": "2018-08-16 01:41:24"
    },
    {
        "MFV1A4vj": "15",
        "YvHAd5I7": "4",
        "aSJp1i9m": "1",
        "P_SCENE_PARAM": "10000",
        "P_POS": "28,471#0,0:580,0:580,42:0,180",
        "P_IMG": "all.png,all_light.png",
        "P_CREATEDATE": "2018-08-16 01:41:24",
        "P_UPDATEDATE": "2018-08-16 01:41:24"
    },
    {
        "MFV1A4vj": "16",
        "YvHAd5I7": "1",
        "aSJp1i9m": "1",
        "P_SCENE_PARAM": "115",
        "P_POS": "28,10",
        "P_IMG": "top_20180415_01.png,top_20180409_light.png",
        "P_CREATEDATE": "2018-08-16 01:41:24",
        "P_UPDATEDATE": "2018-08-16 01:41:24"
    },
    {
        "MFV1A4vj": "16",
        "YvHAd5I7": "2",
        "aSJp1i9m": "2",
        "P_SCENE_PARAM": "118",
        "P_POS": "28,240",
        "P_IMG": "top_20180409_02.png,top_20180409_light.png",
        "P_CREATEDATE": "2018-08-16 01:41:24",
        "P_UPDATEDATE": "2018-08-16 01:41:24"
    },
    {
        "MFV1A4vj": "16",
        "YvHAd5I7": "3",
        "aSJp1i9m": "3",
        "P_SCENE_PARAM": "1000",
        "P_POS": "28,524#0,140:580,0:580,200:0,200",
        "P_IMG": "kizuna.png,kizuna_light.png",
        "P_CREATEDATE": "2018-08-16 01:41:24",
        "P_UPDATEDATE": "2018-08-16 01:41:24"
    },
    {
        "MFV1A4vj": "16",
        "YvHAd5I7": "4",
        "aSJp1i9m": "1",
        "P_SCENE_PARAM": "10000",
        "P_POS": "28,471#0,0:580,0:580,42:0,180",
        "P_IMG": "all.png,all_light.png",
        "P_CREATEDATE": "2018-08-16 01:41:24",
        "P_UPDATEDATE": "2018-08-16 01:41:24"
    },
    {
        "MFV1A4vj": "17",
        "YvHAd5I7": "1",
        "aSJp1i9m": "1",
        "P_SCENE_PARAM": "116",
        "P_POS": "28,10",
        "P_IMG": "top_20180417_01.png,top_20180409_light.png",
        "P_CREATEDATE": "2018-08-16 01:41:24",
        "P_UPDATEDATE": "2018-08-16 01:41:24"
    },
    {
        "MFV1A4vj": "17",
        "YvHAd5I7": "2",
        "aSJp1i9m": "2",
        "P_SCENE_PARAM": "118",
        "P_POS": "28,240",
        "P_IMG": "top_20180409_02.png,top_20180409_light.png",
        "P_CREATEDATE": "2018-08-16 01:41:24",
        "P_UPDATEDATE": "2018-08-16 01:41:24"
    },
    {
        "MFV1A4vj": "17",
        "YvHAd5I7": "3",
        "aSJp1i9m": "3",
        "P_SCENE_PARAM": "1000",
        "P_POS": "28,524#0,140:580,0:580,200:0,200",
        "P_IMG": "kizuna.png,kizuna_light.png",
        "P_CREATEDATE": "2018-08-16 01:41:24",
        "P_UPDATEDATE": "2018-08-16 01:41:24"
    },
    {
        "MFV1A4vj": "17",
        "YvHAd5I7": "4",
        "aSJp1i9m": "1",
        "P_SCENE_PARAM": "10000",
        "P_POS": "28,471#0,0:580,0:580,42:0,180",
        "P_IMG": "all.png,all_light.png",
        "P_CREATEDATE": "2018-08-16 01:41:24",
        "P_UPDATEDATE": "2018-08-16 01:41:24"
    },
    {
        "MFV1A4vj": "18",
        "YvHAd5I7": "1",
        "aSJp1i9m": "1",
        "P_SCENE_PARAM": "117",
        "P_POS": "28,10",
        "P_IMG": "top_20180419_01.png,top_20180409_light.png",
        "P_CREATEDATE": "2018-08-16 01:41:24",
        "P_UPDATEDATE": "2018-08-16 01:41:24"
    },
    {
        "MFV1A4vj": "18",
        "YvHAd5I7": "2",
        "aSJp1i9m": "2",
        "P_SCENE_PARAM": "118",
        "P_POS": "28,240",
        "P_IMG": "top_20180409_02.png,top_20180409_light.png",
        "P_CREATEDATE": "2018-08-16 01:41:24",
        "P_UPDATEDATE": "2018-08-16 01:41:24"
    },
    {
        "MFV1A4vj": "18",
        "YvHAd5I7": "3",
        "aSJp1i9m": "3",
        "P_SCENE_PARAM": "1000",
        "P_POS": "28,524#0,140:580,0:580,200:0,200",
        "P_IMG": "kizuna.png,kizuna_light.png",
        "P_CREATEDATE": "2018-08-16 01:41:24",
        "P_UPDATEDATE": "2018-08-16 01:41:24"
    },
    {
        "MFV1A4vj": "18",
        "YvHAd5I7": "4",
        "aSJp1i9m": "1",
        "P_SCENE_PARAM": "10000",
        "P_POS": "28,471#0,0:580,0:580,42:0,180",
        "P_IMG": "all.png,all_light.png",
        "P_CREATEDATE": "2018-08-16 01:41:24",
        "P_UPDATEDATE": "2018-08-16 01:41:24"
    },
    {
        "MFV1A4vj": "19",
        "YvHAd5I7": "1",
        "aSJp1i9m": "2",
        "P_SCENE_PARAM": "118",
        "P_POS": "28,10",
        "P_IMG": "top_20180409_02.png,top_20180409_light.png",
        "P_CREATEDATE": "2018-08-16 01:41:24",
        "P_UPDATEDATE": "2018-08-16 01:41:24"
    },
    {
        "MFV1A4vj": "19",
        "YvHAd5I7": "2",
        "aSJp1i9m": "3",
        "P_SCENE_PARAM": "1000",
        "P_POS": "28,299#0,140:580,0:580,200:0,200",
        "P_IMG": "kizuna.png,kizuna_light.png",
        "P_CREATEDATE": "2018-08-16 01:41:24",
        "P_UPDATEDATE": "2018-08-16 01:41:24"
    },
    {
        "MFV1A4vj": "19",
        "YvHAd5I7": "3",
        "aSJp1i9m": "1",
        "P_SCENE_PARAM": "10000",
        "P_POS": "28,240#0,0:580,0:580,42:0,180",
        "P_IMG": "all.png,all_light.png",
        "P_CREATEDATE": "2018-08-16 01:41:24",
        "P_UPDATEDATE": "2018-08-16 01:41:24"
    },
    {
        "MFV1A4vj": "20",
        "YvHAd5I7": "1",
        "aSJp1i9m": "1",
        "P_SCENE_PARAM": "119",
        "P_POS": "7,-25",
        "P_IMG": "top_20180425.png,top_20180425_light.png",
        "P_CREATEDATE": "2018-08-16 01:41:24",
        "P_UPDATEDATE": "2018-08-16 01:41:24"
    },
    {
        "MFV1A4vj": "20",
        "YvHAd5I7": "2",
        "aSJp1i9m": "1",
        "P_SCENE_PARAM": "120",
        "P_POS": "395,365#0,0:200,0:200,80:0,80",
        "P_IMG": "top_btn_choice.png,top_btn_choice_light.png",
        "P_CREATEDATE": "2018-08-16 01:41:24",
        "P_UPDATEDATE": "2018-08-16 01:41:24"
    },
    {
        "MFV1A4vj": "20",
        "YvHAd5I7": "3",
        "aSJp1i9m": "3",
        "P_SCENE_PARAM": "1000",
        "P_POS": "28,533#0,140:580,0:580,200:0,200",
        "P_IMG": "kizuna.png,kizuna_light.png",
        "P_CREATEDATE": "2018-08-16 01:41:24",
        "P_UPDATEDATE": "2018-08-16 01:41:24"
    },
    {
        "MFV1A4vj": "20",
        "YvHAd5I7": "4",
        "aSJp1i9m": "1",
        "P_SCENE_PARAM": "10000",
        "P_POS": "28,474#0,0:580,0:580,42:0,180",
        "P_IMG": "all.png,all_light.png",
        "P_CREATEDATE": "2018-08-16 01:41:24",
        "P_UPDATEDATE": "2018-08-16 01:41:24"
    },
    {
        "MFV1A4vj": "21",
        "YvHAd5I7": "1",
        "aSJp1i9m": "1",
        "P_SCENE_PARAM": "119",
        "P_POS": "7,-25",
        "P_IMG": "top_20180425.png,top_20180425_light.png",
        "P_CREATEDATE": "2018-08-16 01:41:24",
        "P_UPDATEDATE": "2018-08-16 01:41:24"
    },
    {
        "MFV1A4vj": "21",
        "YvHAd5I7": "2",
        "aSJp1i9m": "1",
        "P_SCENE_PARAM": "120",
        "P_POS": "395,365#0,0:200,0:200,80:0,80",
        "P_IMG": "top_btn_choice.png,top_btn_choice_light.png",
        "P_CREATEDATE": "2018-08-16 01:41:24",
        "P_UPDATEDATE": "2018-08-16 01:41:24"
    },
    {
        "MFV1A4vj": "21",
        "YvHAd5I7": "3",
        "aSJp1i9m": "3",
        "P_SCENE_PARAM": "2000",
        "P_POS": "28,533#0,140:580,0:580,200:0,200",
        "P_IMG": "kizuna_sp.png,kizuna_light.png",
        "P_CREATEDATE": "2018-08-16 01:41:24",
        "P_UPDATEDATE": "2018-08-16 01:41:24"
    },
    {
        "MFV1A4vj": "21",
        "YvHAd5I7": "4",
        "aSJp1i9m": "1",
        "P_SCENE_PARAM": "10000",
        "P_POS": "28,474#0,0:580,0:580,42:0,180",
        "P_IMG": "all.png,all_light.png",
        "P_CREATEDATE": "2018-08-16 01:41:24",
        "P_UPDATEDATE": "2018-08-16 01:41:24"
    },
    {
        "MFV1A4vj": "22",
        "YvHAd5I7": "1",
        "aSJp1i9m": "1",
        "P_SCENE_PARAM": "119",
        "P_POS": "7,-25",
        "P_IMG": "top_20180425.png,top_20180425_light.png",
        "P_CREATEDATE": "2018-08-16 01:41:24",
        "P_UPDATEDATE": "2018-08-16 01:41:24"
    },
    {
        "MFV1A4vj": "22",
        "YvHAd5I7": "2",
        "aSJp1i9m": "1",
        "P_SCENE_PARAM": "120",
        "P_POS": "395,365#0,0:200,0:200,80:0,80",
        "P_IMG": "top_btn_choice.png,top_btn_choice_light.png",
        "P_CREATEDATE": "2018-08-16 01:41:24",
        "P_UPDATEDATE": "2018-08-16 01:41:24"
    },
    {
        "MFV1A4vj": "22",
        "YvHAd5I7": "3",
        "aSJp1i9m": "3",
        "P_SCENE_PARAM": "1000",
        "P_POS": "28,533#0,140:580,0:580,200:0,200",
        "P_IMG": "kizuna.png,kizuna_light.png",
        "P_CREATEDATE": "2018-08-16 01:41:24",
        "P_UPDATEDATE": "2018-08-16 01:41:24"
    },
    {
        "MFV1A4vj": "22",
        "YvHAd5I7": "4",
        "aSJp1i9m": "1",
        "P_SCENE_PARAM": "10000",
        "P_POS": "28,474#0,0:580,0:580,42:0,180",
        "P_IMG": "all.png,all_light.png",
        "P_CREATEDATE": "2018-08-16 01:41:24",
        "P_UPDATEDATE": "2018-08-16 01:41:24"
    },
    {
        "MFV1A4vj": "23",
        "YvHAd5I7": "1",
        "aSJp1i9m": "1",
        "P_SCENE_PARAM": "121",
        "P_POS": "28,10",
        "P_IMG": "top_20180516_02.png,top_20180409_light.png",
        "P_CREATEDATE": "2018-08-16 01:41:24",
        "P_UPDATEDATE": "2018-08-16 01:41:24"
    },
    {
        "MFV1A4vj": "23",
        "YvHAd5I7": "2",
        "aSJp1i9m": "1",
        "P_SCENE_PARAM": "122",
        "P_POS": "28,240",
        "P_IMG": "top_20180516_01.png,top_20180409_light.png",
        "P_CREATEDATE": "2018-08-16 01:41:24",
        "P_UPDATEDATE": "2018-08-16 01:41:24"
    },
    {
        "MFV1A4vj": "23",
        "YvHAd5I7": "3",
        "aSJp1i9m": "2",
        "P_SCENE_PARAM": "125",
        "P_POS": "28,470",
        "P_IMG": "top_20180516_03.png,top_20180409_light.png",
        "P_CREATEDATE": "2018-08-16 01:41:24",
        "P_UPDATEDATE": "2018-08-16 01:41:24"
    },
    {
        "MFV1A4vj": "23",
        "YvHAd5I7": "4",
        "aSJp1i9m": "3",
        "P_SCENE_PARAM": "1000",
        "P_POS": "28,754#0,140:580,0:580,200:0,200",
        "P_IMG": "kizuna.png,kizuna_light.png",
        "P_CREATEDATE": "2018-08-16 01:41:24",
        "P_UPDATEDATE": "2018-08-16 01:41:24"
    },
    {
        "MFV1A4vj": "23",
        "YvHAd5I7": "5",
        "aSJp1i9m": "1",
        "P_SCENE_PARAM": "10000",
        "P_POS": "28,701#0,0:580,0:580,42:0,180",
        "P_IMG": "all.png,all_light.png",
        "P_CREATEDATE": "2018-08-16 01:41:24",
        "P_UPDATEDATE": "2018-08-16 01:41:24"
    },
    {
        "MFV1A4vj": "24",
        "YvHAd5I7": "1",
        "aSJp1i9m": "1",
        "P_SCENE_PARAM": "121",
        "P_POS": "28,10",
        "P_IMG": "top_20180516_02.png,top_20180409_light.png",
        "P_CREATEDATE": "2018-08-16 01:41:24",
        "P_UPDATEDATE": "2018-08-16 01:41:24"
    },
    {
        "MFV1A4vj": "24",
        "YvHAd5I7": "2",
        "aSJp1i9m": "1",
        "P_SCENE_PARAM": "123",
        "P_POS": "28,240",
        "P_IMG": "top_20180519.png,top_20180409_light.png",
        "P_CREATEDATE": "2018-08-16 01:41:24",
        "P_UPDATEDATE": "2018-08-16 01:41:24"
    },
    {
        "MFV1A4vj": "24",
        "YvHAd5I7": "3",
        "aSJp1i9m": "2",
        "P_SCENE_PARAM": "125",
        "P_POS": "28,470",
        "P_IMG": "top_20180516_03.png,top_20180409_light.png",
        "P_CREATEDATE": "2018-08-16 01:41:24",
        "P_UPDATEDATE": "2018-08-16 01:41:24"
    },
    {
        "MFV1A4vj": "24",
        "YvHAd5I7": "4",
        "aSJp1i9m": "3",
        "P_SCENE_PARAM": "1000",
        "P_POS": "28,754#0,140:580,0:580,200:0,200",
        "P_IMG": "kizuna.png,kizuna_light.png",
        "P_CREATEDATE": "2018-08-16 01:41:24",
        "P_UPDATEDATE": "2018-08-16 01:41:24"
    },
    {
        "MFV1A4vj": "24",
        "YvHAd5I7": "5",
        "aSJp1i9m": "1",
        "P_SCENE_PARAM": "10000",
        "P_POS": "28,701#0,0:580,0:580,42:0,180",
        "P_IMG": "all.png,all_light.png",
        "P_CREATEDATE": "2018-08-16 01:41:24",
        "P_UPDATEDATE": "2018-08-16 01:41:24"
    },
    {
        "MFV1A4vj": "25",
        "YvHAd5I7": "1",
        "aSJp1i9m": "1",
        "P_SCENE_PARAM": "121",
        "P_POS": "28,10",
        "P_IMG": "top_20180516_02.png,top_20180409_light.png",
        "P_CREATEDATE": "2018-08-16 01:41:24",
        "P_UPDATEDATE": "2018-08-16 01:41:24"
    },
    {
        "MFV1A4vj": "25",
        "YvHAd5I7": "2",
        "aSJp1i9m": "1",
        "P_SCENE_PARAM": "124",
        "P_POS": "28,240",
        "P_IMG": "top_20180522.png,top_20180409_light.png",
        "P_CREATEDATE": "2018-08-16 01:41:24",
        "P_UPDATEDATE": "2018-08-16 01:41:24"
    },
    {
        "MFV1A4vj": "25",
        "YvHAd5I7": "3",
        "aSJp1i9m": "2",
        "P_SCENE_PARAM": "125",
        "P_POS": "28,470",
        "P_IMG": "top_20180516_03.png,top_20180409_light.png",
        "P_CREATEDATE": "2018-08-16 01:41:24",
        "P_UPDATEDATE": "2018-08-16 01:41:24"
    },
    {
        "MFV1A4vj": "25",
        "YvHAd5I7": "4",
        "aSJp1i9m": "3",
        "P_SCENE_PARAM": "1000",
        "P_POS": "28,754#0,140:580,0:580,200:0,200",
        "P_IMG": "kizuna.png,kizuna_light.png",
        "P_CREATEDATE": "2018-08-16 01:41:24",
        "P_UPDATEDATE": "2018-08-16 01:41:24"
    },
    {
        "MFV1A4vj": "25",
        "YvHAd5I7": "5",
        "aSJp1i9m": "1",
        "P_SCENE_PARAM": "10000",
        "P_POS": "28,701#0,0:580,0:580,42:0,180",
        "P_IMG": "all.png,all_light.png",
        "P_CREATEDATE": "2018-08-16 01:41:24",
        "P_UPDATEDATE": "2018-08-16 01:41:24"
    },
    {
        "MFV1A4vj": "26",
        "YvHAd5I7": "1",
        "aSJp1i9m": "1",
        "P_SCENE_PARAM": "126",
        "P_POS": "28,10",
        "P_IMG": "top_20180525_02.png,top_20180409_light.png",
        "P_CREATEDATE": "2018-08-16 01:41:24",
        "P_UPDATEDATE": "2018-08-16 01:41:24"
    },
    {
        "MFV1A4vj": "26",
        "YvHAd5I7": "2",
        "aSJp1i9m": "1",
        "P_SCENE_PARAM": "127",
        "P_POS": "405,137#0,0:200,0:200,80:0,80",
        "P_IMG": "top_btn_choice.png,top_btn_choice_light.png",
        "P_CREATEDATE": "2018-08-16 01:41:24",
        "P_UPDATEDATE": "2018-08-16 01:41:24"
    },
    {
        "MFV1A4vj": "26",
        "YvHAd5I7": "3",
        "aSJp1i9m": "1",
        "P_SCENE_PARAM": "128",
        "P_POS": "28,240",
        "P_IMG": "top_20180525_01.png,top_20180409_light.png",
        "P_CREATEDATE": "2018-08-16 01:41:24",
        "P_UPDATEDATE": "2018-08-16 01:41:24"
    },
    {
        "MFV1A4vj": "26",
        "YvHAd5I7": "4",
        "aSJp1i9m": "3",
        "P_SCENE_PARAM": "1000",
        "P_POS": "28,524#0,140:580,0:580,200:0,200",
        "P_IMG": "kizuna.png,kizuna_light.png",
        "P_CREATEDATE": "2018-08-16 01:41:24",
        "P_UPDATEDATE": "2018-08-16 01:41:24"
    },
    {
        "MFV1A4vj": "26",
        "YvHAd5I7": "5",
        "aSJp1i9m": "1",
        "P_SCENE_PARAM": "10001",
        "P_POS": "28,471#0,0:580,0:580,42:0,180",
        "P_IMG": "all.png,all_light.png",
        "P_CREATEDATE": "2018-08-16 01:41:24",
        "P_UPDATEDATE": "2018-08-16 01:41:24"
    },
    {
        "MFV1A4vj": "27",
        "YvHAd5I7": "1",
        "aSJp1i9m": "1",
        "P_SCENE_PARAM": "126",
        "P_POS": "28,10",
        "P_IMG": "top_20180525_02.png,top_20180409_light.png",
        "P_CREATEDATE": "2018-08-16 01:41:24",
        "P_UPDATEDATE": "2018-08-16 01:41:24"
    },
    {
        "MFV1A4vj": "27",
        "YvHAd5I7": "2",
        "aSJp1i9m": "1",
        "P_SCENE_PARAM": "127",
        "P_POS": "405,137#0,0:200,0:200,80:0,80",
        "P_IMG": "top_btn_choice.png,top_btn_choice_light.png",
        "P_CREATEDATE": "2018-08-16 01:41:24",
        "P_UPDATEDATE": "2018-08-16 01:41:24"
    },
    {
        "MFV1A4vj": "27",
        "YvHAd5I7": "3",
        "aSJp1i9m": "1",
        "P_SCENE_PARAM": "128",
        "P_POS": "28,240",
        "P_IMG": "top_20180525_01.png,top_20180409_light.png",
        "P_CREATEDATE": "2018-08-16 01:41:24",
        "P_UPDATEDATE": "2018-08-16 01:41:24"
    },
    {
        "MFV1A4vj": "27",
        "YvHAd5I7": "4",
        "aSJp1i9m": "3",
        "P_SCENE_PARAM": "2000",
        "P_POS": "28,524#0,140:580,0:580,200:0,200",
        "P_IMG": "kizuna_sp.png,kizuna_light.png",
        "P_CREATEDATE": "2018-08-16 01:41:24",
        "P_UPDATEDATE": "2018-08-16 01:41:24"
    },
    {
        "MFV1A4vj": "27",
        "YvHAd5I7": "5",
        "aSJp1i9m": "1",
        "P_SCENE_PARAM": "10001",
        "P_POS": "28,471#0,0:580,0:580,42:0,180",
        "P_IMG": "all.png,all_light.png",
        "P_CREATEDATE": "2018-08-16 01:41:24",
        "P_UPDATEDATE": "2018-08-16 01:41:24"
    },
    {
        "MFV1A4vj": "28",
        "YvHAd5I7": "1",
        "aSJp1i9m": "1",
        "P_SCENE_PARAM": "129",
        "P_POS": "28,10",
        "P_IMG": "top_20180608_01.png,top_20180409_light.png",
        "P_CREATEDATE": "2018-08-16 01:41:24",
        "P_UPDATEDATE": "2018-08-16 01:41:24"
    },
    {
        "MFV1A4vj": "28",
        "YvHAd5I7": "2",
        "aSJp1i9m": "1",
        "P_SCENE_PARAM": "130",
        "P_POS": "28,240",
        "P_IMG": "top_20180608_02.png,top_20180409_light.png",
        "P_CREATEDATE": "2018-08-16 01:41:24",
        "P_UPDATEDATE": "2018-08-16 01:41:24"
    },
    {
        "MFV1A4vj": "28",
        "YvHAd5I7": "3",
        "aSJp1i9m": "1",
        "P_SCENE_PARAM": "126",
        "P_POS": "28,470",
        "P_IMG": "top_20180525_02.png,top_20180409_light.png",
        "P_CREATEDATE": "2018-08-16 01:41:24",
        "P_UPDATEDATE": "2018-08-16 01:41:24"
    },
    {
        "MFV1A4vj": "28",
        "YvHAd5I7": "4",
        "aSJp1i9m": "1",
        "P_SCENE_PARAM": "127",
        "P_POS": "405,597#0,0:200,0:200,80:0,80",
        "P_IMG": "top_btn_choice.png,top_btn_choice_light.png",
        "P_CREATEDATE": "2018-08-16 01:41:24",
        "P_UPDATEDATE": "2018-08-16 01:41:24"
    },
    {
        "MFV1A4vj": "28",
        "YvHAd5I7": "5",
        "aSJp1i9m": "1",
        "P_SCENE_PARAM": "128",
        "P_POS": "28,700",
        "P_IMG": "top_20180525_01.png,top_20180409_light.png",
        "P_CREATEDATE": "2018-08-16 01:41:24",
        "P_UPDATEDATE": "2018-08-16 01:41:24"
    },
    {
        "MFV1A4vj": "28",
        "YvHAd5I7": "6",
        "aSJp1i9m": "3",
        "P_SCENE_PARAM": "2000",
        "P_POS": "28,984#0,140:580,0:580,200:0,200",
        "P_IMG": "kizuna_sp.png,kizuna_light.png",
        "P_CREATEDATE": "2018-08-16 01:41:24",
        "P_UPDATEDATE": "2018-08-16 01:41:24"
    },
    {
        "MFV1A4vj": "28",
        "YvHAd5I7": "7",
        "aSJp1i9m": "1",
        "P_SCENE_PARAM": "10001",
        "P_POS": "28,931#0,0:580,0:580,42:0,180",
        "P_IMG": "all.png,all_light.png",
        "P_CREATEDATE": "2018-08-16 01:41:24",
        "P_UPDATEDATE": "2018-08-16 01:41:24"
    },
    {
        "MFV1A4vj": "29",
        "YvHAd5I7": "1",
        "aSJp1i9m": "1",
        "P_SCENE_PARAM": "129",
        "P_POS": "28,10",
        "P_IMG": "top_20180608_01.png,top_20180409_light.png",
        "P_CREATEDATE": "2018-08-16 01:41:24",
        "P_UPDATEDATE": "2018-08-16 01:41:24"
    },
    {
        "MFV1A4vj": "29",
        "YvHAd5I7": "2",
        "aSJp1i9m": "1",
        "P_SCENE_PARAM": "130",
        "P_POS": "28,240",
        "P_IMG": "top_20180608_02.png,top_20180409_light.png",
        "P_CREATEDATE": "2018-08-16 01:41:24",
        "P_UPDATEDATE": "2018-08-16 01:41:24"
    },
    {
        "MFV1A4vj": "29",
        "YvHAd5I7": "3",
        "aSJp1i9m": "3",
        "P_SCENE_PARAM": "2000",
        "P_POS": "28,524#0,140:580,0:580,200:0,200",
        "P_IMG": "kizuna_sp.png,kizuna_light.png",
        "P_CREATEDATE": "2018-08-16 01:41:24",
        "P_UPDATEDATE": "2018-08-16 01:41:24"
    },
    {
        "MFV1A4vj": "29",
        "YvHAd5I7": "4",
        "aSJp1i9m": "1",
        "P_SCENE_PARAM": "10001",
        "P_POS": "28,471#0,0:580,0:580,42:0,180",
        "P_IMG": "all.png,all_light.png",
        "P_CREATEDATE": "2018-08-16 01:41:24",
        "P_UPDATEDATE": "2018-08-16 01:41:24"
    },
    {
        "MFV1A4vj": "30",
        "YvHAd5I7": "1",
        "aSJp1i9m": "1",
        "P_SCENE_PARAM": "129",
        "P_POS": "28,10",
        "P_IMG": "top_20180608_01.png,top_20180409_light.png",
        "P_CREATEDATE": "2018-08-16 01:41:24",
        "P_UPDATEDATE": "2018-08-16 01:41:24"
    },
    {
        "MFV1A4vj": "30",
        "YvHAd5I7": "2",
        "aSJp1i9m": "1",
        "P_SCENE_PARAM": "130",
        "P_POS": "28,240",
        "P_IMG": "top_20180608_02.png,top_20180409_light.png",
        "P_CREATEDATE": "2018-08-16 01:41:24",
        "P_UPDATEDATE": "2018-08-16 01:41:24"
    },
    {
        "MFV1A4vj": "30",
        "YvHAd5I7": "3",
        "aSJp1i9m": "3",
        "P_SCENE_PARAM": "1000",
        "P_POS": "28,524#0,140:580,0:580,200:0,200",
        "P_IMG": "kizuna.png,kizuna_light.png",
        "P_CREATEDATE": "2018-08-16 01:41:24",
        "P_UPDATEDATE": "2018-08-16 01:41:24"
    },
    {
        "MFV1A4vj": "30",
        "YvHAd5I7": "4",
        "aSJp1i9m": "1",
        "P_SCENE_PARAM": "10001",
        "P_POS": "28,471#0,0:580,0:580,42:0,180",
        "P_IMG": "all.png,all_light.png",
        "P_CREATEDATE": "2018-08-16 01:41:24",
        "P_UPDATEDATE": "2018-08-16 01:41:24"
    },
    {
        "MFV1A4vj": "31",
        "YvHAd5I7": "1",
        "aSJp1i9m": "1",
        "P_SCENE_PARAM": "131",
        "P_POS": "28,10",
        "P_IMG": "top_20180615_01.png,top_20180409_light.png",
        "P_CREATEDATE": "2018-08-16 01:41:24",
        "P_UPDATEDATE": "2018-08-16 01:41:24"
    },
    {
        "MFV1A4vj": "31",
        "YvHAd5I7": "2",
        "aSJp1i9m": "1",
        "P_SCENE_PARAM": "133",
        "P_POS": "28,240",
        "P_IMG": "top_20180615_02.png,top_20180409_light.png",
        "P_CREATEDATE": "2018-08-16 01:41:24",
        "P_UPDATEDATE": "2018-08-16 01:41:24"
    },
    {
        "MFV1A4vj": "31",
        "YvHAd5I7": "3",
        "aSJp1i9m": "3",
        "P_SCENE_PARAM": "1000",
        "P_POS": "28,524#0,140:580,0:580,200:0,200",
        "P_IMG": "kizuna.png,kizuna_light.png",
        "P_CREATEDATE": "2018-08-16 01:41:24",
        "P_UPDATEDATE": "2018-08-16 01:41:24"
    },
    {
        "MFV1A4vj": "31",
        "YvHAd5I7": "4",
        "aSJp1i9m": "1",
        "P_SCENE_PARAM": "10000",
        "P_POS": "28,471#0,0:580,0:580,42:0,180",
        "P_IMG": "all.png,all_light.png",
        "P_CREATEDATE": "2018-08-16 01:41:24",
        "P_UPDATEDATE": "2018-08-16 01:41:24"
    },
    {
        "MFV1A4vj": "32",
        "YvHAd5I7": "1",
        "aSJp1i9m": "1",
        "P_SCENE_PARAM": "132",
        "P_POS": "28,10",
        "P_IMG": "top_20180620.png,top_20180409_light.png",
        "P_CREATEDATE": "2018-08-16 01:41:24",
        "P_UPDATEDATE": "2018-08-16 01:41:24"
    },
    {
        "MFV1A4vj": "32",
        "YvHAd5I7": "2",
        "aSJp1i9m": "1",
        "P_SCENE_PARAM": "133",
        "P_POS": "28,240",
        "P_IMG": "top_20180615_02.png,top_20180409_light.png",
        "P_CREATEDATE": "2018-08-16 01:41:24",
        "P_UPDATEDATE": "2018-08-16 01:41:24"
    },
    {
        "MFV1A4vj": "32",
        "YvHAd5I7": "3",
        "aSJp1i9m": "3",
        "P_SCENE_PARAM": "1000",
        "P_POS": "28,524#0,140:580,0:580,200:0,200",
        "P_IMG": "kizuna.png,kizuna_light.png",
        "P_CREATEDATE": "2018-08-16 01:41:24",
        "P_UPDATEDATE": "2018-08-16 01:41:24"
    },
    {
        "MFV1A4vj": "32",
        "YvHAd5I7": "4",
        "aSJp1i9m": "1",
        "P_SCENE_PARAM": "10000",
        "P_POS": "28,471#0,0:580,0:580,42:0,180",
        "P_IMG": "all.png,all_light.png",
        "P_CREATEDATE": "2018-08-16 01:41:24",
        "P_UPDATEDATE": "2018-08-16 01:41:24"
    },
    {
        "MFV1A4vj": "33",
        "YvHAd5I7": "1",
        "aSJp1i9m": "1",
        "P_SCENE_PARAM": "134",
        "P_POS": "28,10",
        "P_IMG": "top_20180625.png,top_20180222_light.png",
        "P_CREATEDATE": "2018-08-16 01:41:24",
        "P_UPDATEDATE": "2018-08-16 01:41:24"
    },
    {
        "MFV1A4vj": "33",
        "YvHAd5I7": "2",
        "aSJp1i9m": "1",
        "P_SCENE_PARAM": "135",
        "P_POS": "395,365#0,0:200,0:200,80:0,80",
        "P_IMG": "top_btn_choice.png,top_btn_choice_light.png",
        "P_CREATEDATE": "2018-08-16 01:41:24",
        "P_UPDATEDATE": "2018-08-16 01:41:24"
    },
    {
        "MFV1A4vj": "33",
        "YvHAd5I7": "3",
        "aSJp1i9m": "1",
        "P_SCENE_PARAM": "132",
        "P_POS": "28,470",
        "P_IMG": "top_20180620.png,top_20180409_light.png",
        "P_CREATEDATE": "2018-08-16 01:41:24",
        "P_UPDATEDATE": "2018-08-16 01:41:24"
    },
    {
        "MFV1A4vj": "33",
        "YvHAd5I7": "4",
        "aSJp1i9m": "1",
        "P_SCENE_PARAM": "133",
        "P_POS": "28,700",
        "P_IMG": "top_20180615_02.png,top_20180409_light.png",
        "P_CREATEDATE": "2018-08-16 01:41:24",
        "P_UPDATEDATE": "2018-08-16 01:41:24"
    },
    {
        "MFV1A4vj": "33",
        "YvHAd5I7": "5",
        "aSJp1i9m": "3",
        "P_SCENE_PARAM": "1000",
        "P_POS": "28,984#0,140:580,0:580,200:0,200",
        "P_IMG": "kizuna.png,kizuna_light.png",
        "P_CREATEDATE": "2018-08-16 01:41:24",
        "P_UPDATEDATE": "2018-08-16 01:41:24"
    },
    {
        "MFV1A4vj": "33",
        "YvHAd5I7": "6",
        "aSJp1i9m": "1",
        "P_SCENE_PARAM": "10000",
        "P_POS": "28,931#0,0:580,0:580,42:0,180",
        "P_IMG": "all.png,all_light.png",
        "P_CREATEDATE": "2018-08-16 01:41:24",
        "P_UPDATEDATE": "2018-08-16 01:41:24"
    },
    {
        "MFV1A4vj": "34",
        "YvHAd5I7": "1",
        "aSJp1i9m": "1",
        "P_SCENE_PARAM": "134",
        "P_POS": "28,10",
        "P_IMG": "top_20180625.png,top_20180222_light.png",
        "P_CREATEDATE": "2018-08-16 01:41:24",
        "P_UPDATEDATE": "2018-08-16 01:41:24"
    },
    {
        "MFV1A4vj": "34",
        "YvHAd5I7": "2",
        "aSJp1i9m": "1",
        "P_SCENE_PARAM": "135",
        "P_POS": "395,365#0,0:200,0:200,80:0,80",
        "P_IMG": "top_btn_choice.png,top_btn_choice_light.png",
        "P_CREATEDATE": "2018-08-16 01:41:24",
        "P_UPDATEDATE": "2018-08-16 01:41:24"
    },
    {
        "MFV1A4vj": "34",
        "YvHAd5I7": "3",
        "aSJp1i9m": "3",
        "P_SCENE_PARAM": "1000",
        "P_POS": "28,524#0,140:580,0:580,200:0,200",
        "P_IMG": "kizuna.png,kizuna_light.png",
        "P_CREATEDATE": "2018-08-16 01:41:24",
        "P_UPDATEDATE": "2018-08-16 01:41:24"
    },
    {
        "MFV1A4vj": "34",
        "YvHAd5I7": "4",
        "aSJp1i9m": "1",
        "P_SCENE_PARAM": "10000",
        "P_POS": "28,471#0,0:580,0:580,42:0,180",
        "P_IMG": "all.png,all_light.png",
        "P_CREATEDATE": "2018-08-16 01:41:24",
        "P_UPDATEDATE": "2018-08-16 01:41:24"
    },
    {
        "MFV1A4vj": "35",
        "YvHAd5I7": "1",
        "aSJp1i9m": "1",
        "P_SCENE_PARAM": "134",
        "P_POS": "28,10",
        "P_IMG": "top_20180625.png,top_20180222_light.png",
        "P_CREATEDATE": "2018-08-16 01:41:24",
        "P_UPDATEDATE": "2018-08-16 01:41:24"
    },
    {
        "MFV1A4vj": "35",
        "YvHAd5I7": "2",
        "aSJp1i9m": "1",
        "P_SCENE_PARAM": "135",
        "P_POS": "395,365#0,0:200,0:200,80:0,80",
        "P_IMG": "top_btn_choice.png,top_btn_choice_light.png",
        "P_CREATEDATE": "2018-08-16 01:41:24",
        "P_UPDATEDATE": "2018-08-16 01:41:24"
    },
    {
        "MFV1A4vj": "35",
        "YvHAd5I7": "3",
        "aSJp1i9m": "3",
        "P_SCENE_PARAM": "2010",
        "P_POS": "28,524#0,140:580,0:580,200:0,200",
        "P_IMG": "kizuna_sp_20180625.png,kizuna_light.png",
        "P_CREATEDATE": "2018-08-16 01:41:24",
        "P_UPDATEDATE": "2018-08-16 01:41:24"
    },
    {
        "MFV1A4vj": "35",
        "YvHAd5I7": "4",
        "aSJp1i9m": "1",
        "P_SCENE_PARAM": "10000",
        "P_POS": "28,471#0,0:580,0:580,42:0,180",
        "P_IMG": "all.png,all_light.png",
        "P_CREATEDATE": "2018-08-16 01:41:24",
        "P_UPDATEDATE": "2018-08-16 01:41:24"
    },
    {
        "MFV1A4vj": "36",
        "YvHAd5I7": "1",
        "aSJp1i9m": "1",
        "P_SCENE_PARAM": "134",
        "P_POS": "28,10",
        "P_IMG": "top_20180625.png,top_20180222_light.png",
        "P_CREATEDATE": "2018-08-16 01:41:24",
        "P_UPDATEDATE": "2018-08-16 01:41:24"
    },
    {
        "MFV1A4vj": "36",
        "YvHAd5I7": "2",
        "aSJp1i9m": "1",
        "P_SCENE_PARAM": "135",
        "P_POS": "395,365#0,0:200,0:200,80:0,80",
        "P_IMG": "top_btn_choice.png,top_btn_choice_light.png",
        "P_CREATEDATE": "2018-08-16 01:41:24",
        "P_UPDATEDATE": "2018-08-16 01:41:24"
    },
    {
        "MFV1A4vj": "36",
        "YvHAd5I7": "3",
        "aSJp1i9m": "3",
        "P_SCENE_PARAM": "1010",
        "P_POS": "28,524#0,140:580,0:580,200:0,200",
        "P_IMG": "kizuna_20180625.png,kizuna_light.png",
        "P_CREATEDATE": "2018-08-16 01:41:24",
        "P_UPDATEDATE": "2018-08-16 01:41:24"
    },
    {
        "MFV1A4vj": "36",
        "YvHAd5I7": "4",
        "aSJp1i9m": "1",
        "P_SCENE_PARAM": "10000",
        "P_POS": "28,471#0,0:580,0:580,42:0,180",
        "P_IMG": "all.png,all_light.png",
        "P_CREATEDATE": "2018-08-16 01:41:24",
        "P_UPDATEDATE": "2018-08-16 01:41:24"
    },
    {
        "MFV1A4vj": "37",
        "YvHAd5I7": "1",
        "aSJp1i9m": "1",
        "P_SCENE_PARAM": "136",
        "P_POS": "28,10",
        "P_IMG": "top_20180710_01.png,top_20180409_light.png",
        "P_CREATEDATE": "2018-08-16 01:41:24",
        "P_UPDATEDATE": "2018-08-16 01:41:24"
    },
    {
        "MFV1A4vj": "37",
        "YvHAd5I7": "2",
        "aSJp1i9m": "1",
        "P_SCENE_PARAM": "137",
        "P_POS": "28,240",
        "P_IMG": "top_20180710_02.png,top_20180409_light.png",
        "P_CREATEDATE": "2018-08-16 01:41:24",
        "P_UPDATEDATE": "2018-08-16 01:41:24"
    },
    {
        "MFV1A4vj": "37",
        "YvHAd5I7": "3",
        "aSJp1i9m": "1",
        "P_SCENE_PARAM": "134",
        "P_POS": "28,470",
        "P_IMG": "top_20180625.png,top_20180222_light.png",
        "P_CREATEDATE": "2018-08-16 01:41:24",
        "P_UPDATEDATE": "2018-08-16 01:41:24"
    },
    {
        "MFV1A4vj": "37",
        "YvHAd5I7": "4",
        "aSJp1i9m": "1",
        "P_SCENE_PARAM": "135",
        "P_POS": "395,825#0,0:200,0:200,80:0,80",
        "P_IMG": "top_btn_choice.png,top_btn_choice_light.png",
        "P_CREATEDATE": "2018-08-16 01:41:24",
        "P_UPDATEDATE": "2018-08-16 01:41:24"
    },
    {
        "MFV1A4vj": "37",
        "YvHAd5I7": "5",
        "aSJp1i9m": "3",
        "P_SCENE_PARAM": "1010",
        "P_POS": "28,984#0,140:580,0:580,200:0,200",
        "P_IMG": "kizuna_20180625.png,kizuna_light.png",
        "P_CREATEDATE": "2018-08-16 01:41:24",
        "P_UPDATEDATE": "2018-08-16 01:41:24"
    },
    {
        "MFV1A4vj": "37",
        "YvHAd5I7": "6",
        "aSJp1i9m": "1",
        "P_SCENE_PARAM": "10000",
        "P_POS": "28,931#0,0:580,0:580,42:0,180",
        "P_IMG": "all.png,all_light.png",
        "P_CREATEDATE": "2018-08-16 01:41:24",
        "P_UPDATEDATE": "2018-08-16 01:41:24"
    },
    {
        "MFV1A4vj": "38",
        "YvHAd5I7": "1",
        "aSJp1i9m": "1",
        "P_SCENE_PARAM": "136",
        "P_POS": "28,10",
        "P_IMG": "top_20180710_01.png,top_20180409_light.png",
        "P_CREATEDATE": "2018-08-16 01:41:24",
        "P_UPDATEDATE": "2018-08-16 01:41:24"
    },
    {
        "MFV1A4vj": "38",
        "YvHAd5I7": "2",
        "aSJp1i9m": "1",
        "P_SCENE_PARAM": "137",
        "P_POS": "28,240",
        "P_IMG": "top_20180710_02.png,top_20180409_light.png",
        "P_CREATEDATE": "2018-08-16 01:41:24",
        "P_UPDATEDATE": "2018-08-16 01:41:24"
    },
    {
        "MFV1A4vj": "38",
        "YvHAd5I7": "3",
        "aSJp1i9m": "3",
        "P_SCENE_PARAM": "1010",
        "P_POS": "28,524#0,140:580,0:580,200:0,200",
        "P_IMG": "kizuna_20180625.png,kizuna_light.png",
        "P_CREATEDATE": "2018-08-16 01:41:24",
        "P_UPDATEDATE": "2018-08-16 01:41:24"
    },
    {
        "MFV1A4vj": "38",
        "YvHAd5I7": "4",
        "aSJp1i9m": "1",
        "P_SCENE_PARAM": "10000",
        "P_POS": "28,471#0,0:580,0:580,42:0,180",
        "P_IMG": "all.png,all_light.png",
        "P_CREATEDATE": "2018-08-16 01:41:24",
        "P_UPDATEDATE": "2018-08-16 01:41:24"
    },
    {
        "MFV1A4vj": "39",
        "YvHAd5I7": "1",
        "aSJp1i9m": "1",
        "P_SCENE_PARAM": "10002",
        "P_POS": "8,5",
        "P_IMG": "top_20180710.png,top_20180222_light.png",
        "P_CREATEDATE": "2018-08-16 01:41:24",
        "P_UPDATEDATE": "2018-08-16 01:41:24"
    },
    {
        "MFV1A4vj": "39",
        "YvHAd5I7": "2",
        "aSJp1i9m": "3",
        "P_SCENE_PARAM": "1010",
        "P_POS": "28,534#0,140:580,0:580,200:0,200",
        "P_IMG": "kizuna_20180625.png,kizuna_light.png",
        "P_CREATEDATE": "2018-08-16 01:41:24",
        "P_UPDATEDATE": "2018-08-16 01:41:24"
    },
    {
        "MFV1A4vj": "39",
        "YvHAd5I7": "3",
        "aSJp1i9m": "1",
        "P_SCENE_PARAM": "10002",
        "P_POS": "28,481#0,0:580,0:580,42:0,180",
        "P_IMG": "all.png,all_light.png",
        "P_CREATEDATE": "2018-08-16 01:41:24",
        "P_UPDATEDATE": "2018-08-16 01:41:24"
    },
    {
        "MFV1A4vj": "40",
        "YvHAd5I7": "1",
        "aSJp1i9m": "1",
        "P_SCENE_PARAM": "139",
        "P_POS": "28,10",
        "P_IMG": "top_20180725_01.png,top_20180409_light.png",
        "P_CREATEDATE": "2018-08-16 01:41:24",
        "P_UPDATEDATE": "2018-08-16 01:41:24"
    },
    {
        "MFV1A4vj": "40",
        "YvHAd5I7": "2",
        "aSJp1i9m": "1",
        "P_SCENE_PARAM": "140",
        "P_POS": "405,137#0,0:200,0:200,80:0,80",
        "P_IMG": "top_btn_choice.png,top_btn_choice_light.png",
        "P_CREATEDATE": "2018-08-16 01:41:24",
        "P_UPDATEDATE": "2018-08-16 01:41:24"
    },
    {
        "MFV1A4vj": "40",
        "YvHAd5I7": "3",
        "aSJp1i9m": "1",
        "P_SCENE_PARAM": "138",
        "P_POS": "28,240",
        "P_IMG": "top_20180725_02.png,top_20180409_light.png",
        "P_CREATEDATE": "2018-08-16 01:41:24",
        "P_UPDATEDATE": "2018-08-16 01:41:24"
    },
    {
        "MFV1A4vj": "40",
        "YvHAd5I7": "4",
        "aSJp1i9m": "1",
        "P_SCENE_PARAM": "10002",
        "P_POS": "8,466",
        "P_IMG": "top_20180710.png,top_20180222_light.png",
        "P_CREATEDATE": "2018-08-16 01:41:24",
        "P_UPDATEDATE": "2018-08-16 01:41:24"
    },
    {
        "MFV1A4vj": "40",
        "YvHAd5I7": "5",
        "aSJp1i9m": "3",
        "P_SCENE_PARAM": "1010",
        "P_POS": "28,994#0,140:580,0:580,200:0,200",
        "P_IMG": "kizuna_20180625.png,kizuna_light.png",
        "P_CREATEDATE": "2018-08-16 01:41:24",
        "P_UPDATEDATE": "2018-08-16 01:41:24"
    },
    {
        "MFV1A4vj": "40",
        "YvHAd5I7": "6",
        "aSJp1i9m": "1",
        "P_SCENE_PARAM": "10002",
        "P_POS": "28,941#0,0:580,0:580,42:0,180",
        "P_IMG": "all.png,all_light.png",
        "P_CREATEDATE": "2018-08-16 01:41:24",
        "P_UPDATEDATE": "2018-08-16 01:41:24"
    },
    {
        "MFV1A4vj": "41",
        "YvHAd5I7": "1",
        "aSJp1i9m": "1",
        "P_SCENE_PARAM": "139",
        "P_POS": "28,10",
        "P_IMG": "top_20180725_01.png,top_20180409_light.png",
        "P_CREATEDATE": "2018-08-16 01:41:24",
        "P_UPDATEDATE": "2018-08-16 01:41:24"
    },
    {
        "MFV1A4vj": "41",
        "YvHAd5I7": "2",
        "aSJp1i9m": "1",
        "P_SCENE_PARAM": "140",
        "P_POS": "405,137#0,0:200,0:200,80:0,80",
        "P_IMG": "top_btn_choice.png,top_btn_choice_light.png",
        "P_CREATEDATE": "2018-08-16 01:41:24",
        "P_UPDATEDATE": "2018-08-16 01:41:24"
    },
    {
        "MFV1A4vj": "41",
        "YvHAd5I7": "3",
        "aSJp1i9m": "1",
        "P_SCENE_PARAM": "138",
        "P_POS": "28,240",
        "P_IMG": "top_20180725_02.png,top_20180409_light.png",
        "P_CREATEDATE": "2018-08-16 01:41:24",
        "P_UPDATEDATE": "2018-08-16 01:41:24"
    },
    {
        "MFV1A4vj": "41",
        "YvHAd5I7": "4",
        "aSJp1i9m": "3",
        "P_SCENE_PARAM": "1010",
        "P_POS": "28,524#0,140:580,0:580,200:0,200",
        "P_IMG": "kizuna_20180625.png,kizuna_light.png",
        "P_CREATEDATE": "2018-08-16 01:41:24",
        "P_UPDATEDATE": "2018-08-16 01:41:24"
    },
    {
        "MFV1A4vj": "41",
        "YvHAd5I7": "5",
        "aSJp1i9m": "1",
        "P_SCENE_PARAM": "10000",
        "P_POS": "28,471#0,0:580,0:580,42:0,180",
        "P_IMG": "all.png,all_light.png",
        "P_CREATEDATE": "2018-08-16 01:41:24",
        "P_UPDATEDATE": "2018-08-16 01:41:24"
    },
    {
        "MFV1A4vj": "42",
        "YvHAd5I7": "1",
        "aSJp1i9m": "1",
        "P_SCENE_PARAM": "139",
        "P_POS": "28,10",
        "P_IMG": "top_20180725_01.png,top_20180409_light.png",
        "P_CREATEDATE": "2018-08-16 01:41:24",
        "P_UPDATEDATE": "2018-08-16 01:41:24"
    },
    {
        "MFV1A4vj": "42",
        "YvHAd5I7": "2",
        "aSJp1i9m": "1",
        "P_SCENE_PARAM": "140",
        "P_POS": "405,137#0,0:200,0:200,80:0,80",
        "P_IMG": "top_btn_choice.png,top_btn_choice_light.png",
        "P_CREATEDATE": "2018-08-16 01:41:24",
        "P_UPDATEDATE": "2018-08-16 01:41:24"
    },
    {
        "MFV1A4vj": "42",
        "YvHAd5I7": "3",
        "aSJp1i9m": "1",
        "P_SCENE_PARAM": "138",
        "P_POS": "28,240",
        "P_IMG": "top_20180725_02.png,top_20180409_light.png",
        "P_CREATEDATE": "2018-08-16 01:41:24",
        "P_UPDATEDATE": "2018-08-16 01:41:24"
    },
    {
        "MFV1A4vj": "42",
        "YvHAd5I7": "4",
        "aSJp1i9m": "3",
        "P_SCENE_PARAM": "2010",
        "P_POS": "28,524#0,140:580,0:580,200:0,200",
        "P_IMG": "kizuna_sp_20180625.png,kizuna_light.png",
        "P_CREATEDATE": "2018-08-16 01:41:24",
        "P_UPDATEDATE": "2018-08-16 01:41:24"
    },
    {
        "MFV1A4vj": "42",
        "YvHAd5I7": "5",
        "aSJp1i9m": "1",
        "P_SCENE_PARAM": "10000",
        "P_POS": "28,471#0,0:580,0:580,42:0,180",
        "P_IMG": "all.png,all_light.png",
        "P_CREATEDATE": "2018-08-16 01:41:24",
        "P_UPDATEDATE": "2018-08-16 01:41:24"
    },
    {
        "MFV1A4vj": "44",
        "YvHAd5I7": "1",
        "aSJp1i9m": "1",
        "P_SCENE_PARAM": "143",
        "P_POS": "28,10",
        "P_IMG": "top_20180808_01.png,top_20180409_light.png",
        "P_CREATEDATE": "2018-08-16 01:41:24",
        "P_UPDATEDATE": "2018-08-16 01:41:24"
    },
    {
        "MFV1A4vj": "44",
        "YvHAd5I7": "2",
        "aSJp1i9m": "1",
        "P_SCENE_PARAM": "144",
        "P_POS": "28,240",
        "P_IMG": "top_20180808_02.png,top_20180409_light.png",
        "P_CREATEDATE": "2018-08-16 01:41:24",
        "P_UPDATEDATE": "2018-08-16 01:41:24"
    },
    {
        "MFV1A4vj": "44",
        "YvHAd5I7": "3",
        "aSJp1i9m": "3",
        "P_SCENE_PARAM": "1010",
        "P_POS": "28,524#0,140:580,0:580,200:0,200",
        "P_IMG": "kizuna_20180625.png,kizuna_light.png",
        "P_CREATEDATE": "2018-08-16 01:41:24",
        "P_UPDATEDATE": "2018-08-16 01:41:24"
    },
    {
        "MFV1A4vj": "44",
        "YvHAd5I7": "4",
        "aSJp1i9m": "1",
        "P_SCENE_PARAM": "10000",
        "P_POS": "28,471#0,0:580,0:580,42:0,180",
        "P_IMG": "all.png,all_light.png",
        "P_CREATEDATE": "2018-08-16 01:41:24",
        "P_UPDATEDATE": "2018-08-16 01:41:24"
    },
    {
        "MFV1A4vj": "45",
        "YvHAd5I7": "1",
        "aSJp1i9m": "1",
        "P_SCENE_PARAM": "10003",
        "P_POS": "8,5",
        "P_IMG": "top_20180816_01.png,top_20180222_light.png",
        "P_CREATEDATE": "2018-08-16 01:41:24",
        "P_UPDATEDATE": "2018-08-16 01:41:24"
    },
    {
        "MFV1A4vj": "45",
        "YvHAd5I7": "2",
        "aSJp1i9m": "1",
        "P_SCENE_PARAM": "145",
        "P_POS": "28,481",
        "P_IMG": "top_20180816_02.png,top_20180409_light.png",
        "P_CREATEDATE": "2018-08-16 01:41:24",
        "P_UPDATEDATE": "2018-08-16 01:41:24"
    },
    {
        "MFV1A4vj": "45",
        "YvHAd5I7": "3",
        "aSJp1i9m": "3",
        "P_SCENE_PARAM": "1010",
        "P_POS": "28,762#0,140:580,0:580,200:0,200",
        "P_IMG": "kizuna_20180625.png,kizuna_light.png",
        "P_CREATEDATE": "2018-08-16 01:41:24",
        "P_UPDATEDATE": "2018-08-16 01:41:24"
    },
    {
        "MFV1A4vj": "45",
        "YvHAd5I7": "4",
        "aSJp1i9m": "1",
        "P_SCENE_PARAM": "10001",
        "P_POS": "28,709#0,0:580,0:580,42:0,180",
        "P_IMG": "all.png,all_light.png",
        "P_CREATEDATE": "2018-08-16 01:41:24",
        "P_UPDATEDATE": "2018-08-16 01:41:24"
    },
    {
        "MFV1A4vj": "100",
        "YvHAd5I7": "2",
        "aSJp1i9m": "3",
        "P_SCENE_PARAM": "1000",
        "P_POS": "28,69#0,140:580,0:580,200:0,200",
        "P_IMG": "kizuna.png,kizuna_light.png",
        "P_CREATEDATE": "2018-08-16 01:41:24",
        "P_UPDATEDATE": "2018-08-16 01:41:24"
    },
    {
        "MFV1A4vj": "100",
        "YvHAd5I7": "3",
        "aSJp1i9m": "1",
        "P_SCENE_PARAM": "10000",
        "P_POS": "28,10#0,0:580,0:580,42:0,180",
        "P_IMG": "all.png,all_light.png",
        "P_CREATEDATE": "2018-08-16 01:41:24",
        "P_UPDATEDATE": "2018-08-16 01:41:24"
    }
]