[
    {
        "P_GACHA_EFFECT_ID": "1",
        "P_GACHA_ID": "1000",
        "P_RARE": "1",
        "P_RATE": "100",
        "P_EFFECT_BLOCK_INFO": "11,12",
        "P_CREATEDATE": "2018-06-25 02:22:52",
        "P_UPDATEDATE": "2018-06-25 02:22:52"
    },
    {
        "P_GACHA_EFFECT_ID": "2",
        "P_GACHA_ID": "1000",
        "P_RARE": "2",
        "P_RATE": "50",
        "P_EFFECT_BLOCK_INFO": "21,22",
        "P_CREATEDATE": "2018-06-25 02:22:52",
        "P_UPDATEDATE": "2018-06-25 02:22:52"
    },
    {
        "P_GACHA_EFFECT_ID": "3",
        "P_GACHA_ID": "1000",
        "P_RARE": "2",
        "P_RATE": "50",
        "P_EFFECT_BLOCK_INFO": "11,23,22",
        "P_CREATEDATE": "2018-06-25 02:22:52",
        "P_UPDATEDATE": "2018-06-25 02:22:52"
    },
    {
        "P_GACHA_EFFECT_ID": "4",
        "P_GACHA_ID": "1000",
        "P_RARE": "3",
        "P_RATE": "50",
        "P_EFFECT_BLOCK_INFO": "31,32",
        "P_CREATEDATE": "2018-06-25 02:22:52",
        "P_UPDATEDATE": "2018-06-25 02:22:52"
    },
    {
        "P_GACHA_EFFECT_ID": "5",
        "P_GACHA_ID": "1000",
        "P_RARE": "3",
        "P_RATE": "30",
        "P_EFFECT_BLOCK_INFO": "21,34,32",
        "P_CREATEDATE": "2018-06-25 02:22:52",
        "P_UPDATEDATE": "2018-06-25 02:22:52"
    },
    {
        "P_GACHA_EFFECT_ID": "6",
        "P_GACHA_ID": "1000",
        "P_RARE": "3",
        "P_RATE": "20",
        "P_EFFECT_BLOCK_INFO": "11,23,34,32",
        "P_CREATEDATE": "2018-06-25 02:22:52",
        "P_UPDATEDATE": "2018-06-25 02:22:52"
    },
    {
        "P_GACHA_EFFECT_ID": "11",
        "P_GACHA_ID": "2000",
        "P_RARE": "1",
        "P_RATE": "100",
        "P_EFFECT_BLOCK_INFO": "11,12",
        "P_CREATEDATE": "2018-06-25 02:22:52",
        "P_UPDATEDATE": "2018-06-25 02:22:52"
    },
    {
        "P_GACHA_EFFECT_ID": "12",
        "P_GACHA_ID": "2000",
        "P_RARE": "2",
        "P_RATE": "50",
        "P_EFFECT_BLOCK_INFO": "21,22",
        "P_CREATEDATE": "2018-06-25 02:22:52",
        "P_UPDATEDATE": "2018-06-25 02:22:52"
    },
    {
        "P_GACHA_EFFECT_ID": "13",
        "P_GACHA_ID": "2000",
        "P_RARE": "2",
        "P_RATE": "50",
        "P_EFFECT_BLOCK_INFO": "11,23,22",
        "P_CREATEDATE": "2018-06-25 02:22:52",
        "P_UPDATEDATE": "2018-06-25 02:22:52"
    },
    {
        "P_GACHA_EFFECT_ID": "14",
        "P_GACHA_ID": "2000",
        "P_RARE": "3",
        "P_RATE": "50",
        "P_EFFECT_BLOCK_INFO": "31,32",
        "P_CREATEDATE": "2018-06-25 02:22:52",
        "P_UPDATEDATE": "2018-06-25 02:22:52"
    },
    {
        "P_GACHA_EFFECT_ID": "15",
        "P_GACHA_ID": "2000",
        "P_RARE": "3",
        "P_RATE": "30",
        "P_EFFECT_BLOCK_INFO": "21,34,32",
        "P_CREATEDATE": "2018-06-25 02:22:52",
        "P_UPDATEDATE": "2018-06-25 02:22:52"
    },
    {
        "P_GACHA_EFFECT_ID": "16",
        "P_GACHA_ID": "2000",
        "P_RARE": "3",
        "P_RATE": "20",
        "P_EFFECT_BLOCK_INFO": "11,23,34,32",
        "P_CREATEDATE": "2018-06-25 02:22:52",
        "P_UPDATEDATE": "2018-06-25 02:22:52"
    },
    {
        "P_GACHA_EFFECT_ID": "101",
        "P_GACHA_ID": "1010",
        "P_RARE": "1",
        "P_RATE": "100",
        "P_EFFECT_BLOCK_INFO": "11,12",
        "P_CREATEDATE": "2018-06-25 02:22:52",
        "P_UPDATEDATE": "2018-06-25 02:22:52"
    },
    {
        "P_GACHA_EFFECT_ID": "102",
        "P_GACHA_ID": "1010",
        "P_RARE": "2",
        "P_RATE": "50",
        "P_EFFECT_BLOCK_INFO": "21,22",
        "P_CREATEDATE": "2018-06-25 02:22:52",
        "P_UPDATEDATE": "2018-06-25 02:22:52"
    },
    {
        "P_GACHA_EFFECT_ID": "103",
        "P_GACHA_ID": "1010",
        "P_RARE": "2",
        "P_RATE": "50",
        "P_EFFECT_BLOCK_INFO": "11,23,22",
        "P_CREATEDATE": "2018-06-25 02:22:52",
        "P_UPDATEDATE": "2018-06-25 02:22:52"
    },
    {
        "P_GACHA_EFFECT_ID": "104",
        "P_GACHA_ID": "1010",
        "P_RARE": "3",
        "P_RATE": "50",
        "P_EFFECT_BLOCK_INFO": "31,32",
        "P_CREATEDATE": "2018-06-25 02:22:52",
        "P_UPDATEDATE": "2018-06-25 02:22:52"
    },
    {
        "P_GACHA_EFFECT_ID": "105",
        "P_GACHA_ID": "1010",
        "P_RARE": "3",
        "P_RATE": "30",
        "P_EFFECT_BLOCK_INFO": "21,34,32",
        "P_CREATEDATE": "2018-06-25 02:22:52",
        "P_UPDATEDATE": "2018-06-25 02:22:52"
    },
    {
        "P_GACHA_EFFECT_ID": "106",
        "P_GACHA_ID": "1010",
        "P_RARE": "3",
        "P_RATE": "20",
        "P_EFFECT_BLOCK_INFO": "11,23,34,32",
        "P_CREATEDATE": "2018-06-25 02:22:52",
        "P_UPDATEDATE": "2018-06-25 02:22:52"
    },
    {
        "P_GACHA_EFFECT_ID": "111",
        "P_GACHA_ID": "2010",
        "P_RARE": "1",
        "P_RATE": "100",
        "P_EFFECT_BLOCK_INFO": "11,12",
        "P_CREATEDATE": "2018-06-25 02:22:52",
        "P_UPDATEDATE": "2018-06-25 02:22:52"
    },
    {
        "P_GACHA_EFFECT_ID": "112",
        "P_GACHA_ID": "2010",
        "P_RARE": "2",
        "P_RATE": "50",
        "P_EFFECT_BLOCK_INFO": "21,22",
        "P_CREATEDATE": "2018-06-25 02:22:52",
        "P_UPDATEDATE": "2018-06-25 02:22:52"
    },
    {
        "P_GACHA_EFFECT_ID": "113",
        "P_GACHA_ID": "2010",
        "P_RARE": "2",
        "P_RATE": "50",
        "P_EFFECT_BLOCK_INFO": "11,23,22",
        "P_CREATEDATE": "2018-06-25 02:22:52",
        "P_UPDATEDATE": "2018-06-25 02:22:52"
    },
    {
        "P_GACHA_EFFECT_ID": "114",
        "P_GACHA_ID": "2010",
        "P_RARE": "3",
        "P_RATE": "50",
        "P_EFFECT_BLOCK_INFO": "31,32",
        "P_CREATEDATE": "2018-06-25 02:22:52",
        "P_UPDATEDATE": "2018-06-25 02:22:52"
    },
    {
        "P_GACHA_EFFECT_ID": "115",
        "P_GACHA_ID": "2010",
        "P_RARE": "3",
        "P_RATE": "30",
        "P_EFFECT_BLOCK_INFO": "21,34,32",
        "P_CREATEDATE": "2018-06-25 02:22:52",
        "P_UPDATEDATE": "2018-06-25 02:22:52"
    },
    {
        "P_GACHA_EFFECT_ID": "116",
        "P_GACHA_ID": "2010",
        "P_RARE": "3",
        "P_RATE": "20",
        "P_EFFECT_BLOCK_INFO": "11,23,34,32",
        "P_CREATEDATE": "2018-06-25 02:22:52",
        "P_UPDATEDATE": "2018-06-25 02:22:52"
    }
]