[
    {
        "P_BATTLE_BG_ID": "1",
        "P_IMG": "battle_bg_001_01.jpg",
        "P_POS": "0,0",
        "P_EFFECT_INFO": "",
        "P_HOME_EFFECT_INFO": "20",
        "P_CREATEDATE": "2018-02-12 17:16:02",
        "P_UPDATEDATE": "2018-02-12 17:16:02"
    },
    {
        "P_BATTLE_BG_ID": "2",
        "P_IMG": "battle_bg_001_01.jpg",
        "P_POS": "-156,-50",
        "P_EFFECT_INFO": "2:900000,1:900001",
        "P_HOME_EFFECT_INFO": "20",
        "P_CREATEDATE": "2018-02-12 17:16:02",
        "P_UPDATEDATE": "2018-02-12 17:16:02"
    },
    {
        "P_BATTLE_BG_ID": "3",
        "P_IMG": "battle_bg_001_01.jpg",
        "P_POS": "-156,-50",
        "P_EFFECT_INFO": "1:900011",
        "P_HOME_EFFECT_INFO": "20",
        "P_CREATEDATE": "2018-02-12 17:16:02",
        "P_UPDATEDATE": "2018-02-12 17:16:02"
    },
    {
        "P_BATTLE_BG_ID": "4",
        "P_IMG": "battle_bg_001_01.jpg",
        "P_POS": "-156,-50",
        "P_EFFECT_INFO": "1:900021",
        "P_HOME_EFFECT_INFO": "20",
        "P_CREATEDATE": "2018-02-12 17:16:02",
        "P_UPDATEDATE": "2018-02-12 17:16:02"
    },
    {
        "P_BATTLE_BG_ID": "5",
        "P_IMG": "battle_bg_001_01.jpg",
        "P_POS": "-156,-50",
        "P_EFFECT_INFO": "1:900031",
        "P_HOME_EFFECT_INFO": "20",
        "P_CREATEDATE": "2018-02-12 17:16:02",
        "P_UPDATEDATE": "2018-02-12 17:16:02"
    },
    {
        "P_BATTLE_BG_ID": "6",
        "P_IMG": "battle_bg_001_01.jpg",
        "P_POS": "-156,-50",
        "P_EFFECT_INFO": "2:900040,1:900041",
        "P_HOME_EFFECT_INFO": "20",
        "P_CREATEDATE": "2018-02-12 17:16:02",
        "P_UPDATEDATE": "2018-02-12 17:16:02"
    },
    {
        "P_BATTLE_BG_ID": "10",
        "P_IMG": "battle_bg_001_01.jpg",
        "P_POS": "-156,-136",
        "P_EFFECT_INFO": "",
        "P_HOME_EFFECT_INFO": "20",
        "P_CREATEDATE": "2018-02-12 17:16:02",
        "P_UPDATEDATE": "2018-02-12 17:16:02"
    },
    {
        "P_BATTLE_BG_ID": "11",
        "P_IMG": "battle_bg_001_01.jpg",
        "P_POS": "-156,-136",
        "P_EFFECT_INFO": "",
        "P_HOME_EFFECT_INFO": "20",
        "P_CREATEDATE": "2018-02-12 17:16:02",
        "P_UPDATEDATE": "2018-02-12 17:16:02"
    },
    {
        "P_BATTLE_BG_ID": "997",
        "P_IMG": "battle_bg_001_01.jpg",
        "P_POS": "-156,-150",
        "P_EFFECT_INFO": "",
        "P_HOME_EFFECT_INFO": "20",
        "P_CREATEDATE": "2018-02-12 17:16:02",
        "P_UPDATEDATE": "2018-02-12 17:16:02"
    },
    {
        "P_BATTLE_BG_ID": "998",
        "P_IMG": "battle_bg_001_01.jpg",
        "P_POS": "-156,-150",
        "P_EFFECT_INFO": "",
        "P_HOME_EFFECT_INFO": "20",
        "P_CREATEDATE": "2018-02-12 17:16:02",
        "P_UPDATEDATE": "2018-02-12 17:16:02"
    },
    {
        "P_BATTLE_BG_ID": "999",
        "P_IMG": "battle_bg_001_01.jpg",
        "P_POS": "-156,-142",
        "P_EFFECT_INFO": "",
        "P_HOME_EFFECT_INFO": "20",
        "P_CREATEDATE": "2018-02-12 17:16:02",
        "P_UPDATEDATE": "2018-02-12 17:16:02"
    },
    {
        "P_BATTLE_BG_ID": "100000",
        "P_IMG": "bg_arena.jpg",
        "P_POS": "-156,-142",
        "P_EFFECT_INFO": "1:100000",
        "P_HOME_EFFECT_INFO": "20",
        "P_CREATEDATE": "2018-02-12 17:16:02",
        "P_UPDATEDATE": "2018-02-12 17:16:02"
    },
    {
        "P_BATTLE_BG_ID": "100050",
        "P_IMG": "bg_randall_shop.jpg",
        "P_POS": "-86,-142",
        "P_EFFECT_INFO": "1:100050",
        "P_HOME_EFFECT_INFO": "20",
        "P_CREATEDATE": "2018-02-12 17:16:02",
        "P_UPDATEDATE": "2018-02-12 17:16:02"
    },
    {
        "P_BATTLE_BG_ID": "100100",
        "P_IMG": "bg_gate.jpg",
        "P_POS": "-106,-142",
        "P_EFFECT_INFO": "1:100100",
        "P_HOME_EFFECT_INFO": "20",
        "P_CREATEDATE": "2018-02-12 17:16:02",
        "P_UPDATEDATE": "2018-02-12 17:16:02"
    },
    {
        "P_BATTLE_BG_ID": "100150",
        "P_IMG": "bg_randall.jpg",
        "P_POS": "-106,-142",
        "P_EFFECT_INFO": "1:100150",
        "P_HOME_EFFECT_INFO": "20",
        "P_CREATEDATE": "2018-02-12 17:16:02",
        "P_UPDATEDATE": "2018-02-12 17:16:02"
    },
    {
        "P_BATTLE_BG_ID": "100200",
        "P_IMG": "bg_randall_management.jpg",
        "P_POS": "-106,-142",
        "P_EFFECT_INFO": "1:100300",
        "P_HOME_EFFECT_INFO": "20",
        "P_CREATEDATE": "2018-02-12 17:16:02",
        "P_UPDATEDATE": "2018-02-12 17:16:02"
    },
    {
        "P_BATTLE_BG_ID": "100250",
        "P_IMG": "bg_randall_factory.jpg",
        "P_POS": "-106,-142",
        "P_EFFECT_INFO": "1:100200",
        "P_HOME_EFFECT_INFO": "20",
        "P_CREATEDATE": "2018-02-12 17:16:02",
        "P_UPDATEDATE": "2018-02-12 17:16:02"
    },
    {
        "P_BATTLE_BG_ID": "100300",
        "P_IMG": "bg_labo.jpg",
        "P_POS": "-106,-142",
        "P_EFFECT_INFO": "1:100250",
        "P_HOME_EFFECT_INFO": "20",
        "P_CREATEDATE": "2018-02-12 17:16:02",
        "P_UPDATEDATE": "2018-02-12 17:16:02"
    },
    {
        "P_BATTLE_BG_ID": "700000",
        "P_IMG": "battle_bg_2000.jpg",
        "P_POS": "-156,-142",
        "P_EFFECT_INFO": "3:4000000,1:4000001",
        "P_HOME_EFFECT_INFO": "20",
        "P_CREATEDATE": "2018-02-12 17:16:03",
        "P_UPDATEDATE": "2018-02-12 17:16:03"
    },
    {
        "P_BATTLE_BG_ID": "800000",
        "P_IMG": "battle_bg_1001.jpg",
        "P_POS": "-156,-142",
        "P_EFFECT_INFO": "3:3000000,1:3000001",
        "P_HOME_EFFECT_INFO": "20",
        "P_CREATEDATE": "2018-02-12 17:16:03",
        "P_UPDATEDATE": "2018-02-12 17:16:03"
    },
    {
        "P_BATTLE_BG_ID": "800001",
        "P_IMG": "battle_bg_1002.jpg",
        "P_POS": "-156,-142",
        "P_EFFECT_INFO": "1:3000003",
        "P_HOME_EFFECT_INFO": "20",
        "P_CREATEDATE": "2018-02-12 17:16:03",
        "P_UPDATEDATE": "2018-02-12 17:16:03"
    },
    {
        "P_BATTLE_BG_ID": "800002",
        "P_IMG": "battle_bg_1003.jpg",
        "P_POS": "-156,-142",
        "P_EFFECT_INFO": "1:3000005",
        "P_HOME_EFFECT_INFO": "20",
        "P_CREATEDATE": "2018-02-12 17:16:03",
        "P_UPDATEDATE": "2018-02-12 17:16:03"
    },
    {
        "P_BATTLE_BG_ID": "800003",
        "P_IMG": "battle_bg_1004.jpg",
        "P_POS": "-156,-142",
        "P_EFFECT_INFO": "1:3000007",
        "P_HOME_EFFECT_INFO": "20",
        "P_CREATEDATE": "2018-02-12 17:16:03",
        "P_UPDATEDATE": "2018-02-12 17:16:03"
    },
    {
        "P_BATTLE_BG_ID": "800004",
        "P_IMG": "battle_bg_1005.jpg",
        "P_POS": "-156,-142",
        "P_EFFECT_INFO": "1:3000009",
        "P_HOME_EFFECT_INFO": "20",
        "P_CREATEDATE": "2018-02-12 17:16:03",
        "P_UPDATEDATE": "2018-02-12 17:16:03"
    },
    {
        "P_BATTLE_BG_ID": "800005",
        "P_IMG": "battle_bg_1006.jpg",
        "P_POS": "-156,-142",
        "P_EFFECT_INFO": "3:3000010,1:3000011",
        "P_HOME_EFFECT_INFO": "20",
        "P_CREATEDATE": "2018-02-12 17:16:03",
        "P_UPDATEDATE": "2018-02-12 17:16:03"
    },
    {
        "P_BATTLE_BG_ID": "900000",
        "P_IMG": "event_bg_001.jpg",
        "P_POS": "-156,-142",
        "P_EFFECT_INFO": "3:1000000,1:1000001",
        "P_HOME_EFFECT_INFO": "20",
        "P_CREATEDATE": "2018-02-12 17:16:02",
        "P_UPDATEDATE": "2018-02-12 17:16:02"
    },
    {
        "P_BATTLE_BG_ID": "900001",
        "P_IMG": "event_bg_002.jpg",
        "P_POS": "-156,-142",
        "P_EFFECT_INFO": "",
        "P_HOME_EFFECT_INFO": "20",
        "P_CREATEDATE": "2018-02-12 17:16:02",
        "P_UPDATEDATE": "2018-02-12 17:16:02"
    },
    {
        "P_BATTLE_BG_ID": "900003",
        "P_IMG": "event_bg_004.jpg",
        "P_POS": "-156,-142",
        "P_EFFECT_INFO": "",
        "P_HOME_EFFECT_INFO": "20",
        "P_CREATEDATE": "2018-02-12 17:16:02",
        "P_UPDATEDATE": "2018-02-12 17:16:02"
    },
    {
        "P_BATTLE_BG_ID": "900005",
        "P_IMG": "event_bg_006.jpg",
        "P_POS": "-156,-142",
        "P_EFFECT_INFO": "",
        "P_HOME_EFFECT_INFO": "20",
        "P_CREATEDATE": "2018-02-12 17:16:02",
        "P_UPDATEDATE": "2018-02-12 17:16:02"
    },
    {
        "P_BATTLE_BG_ID": "900006",
        "P_IMG": "event_bg_007.jpg",
        "P_POS": "-156,-142",
        "P_EFFECT_INFO": "1:1000013",
        "P_HOME_EFFECT_INFO": "20",
        "P_CREATEDATE": "2018-02-12 17:16:02",
        "P_UPDATEDATE": "2018-02-12 17:16:02"
    },
    {
        "P_BATTLE_BG_ID": "900007",
        "P_IMG": "event_bg_008.jpg",
        "P_POS": "-156,-142",
        "P_EFFECT_INFO": "",
        "P_HOME_EFFECT_INFO": "20",
        "P_CREATEDATE": "2018-02-12 17:16:02",
        "P_UPDATEDATE": "2018-02-12 17:16:02"
    },
    {
        "P_BATTLE_BG_ID": "900008",
        "P_IMG": "event_bg_009.jpg",
        "P_POS": "-156,-142",
        "P_EFFECT_INFO": "1:1000017",
        "P_HOME_EFFECT_INFO": "20",
        "P_CREATEDATE": "2018-02-12 17:16:02",
        "P_UPDATEDATE": "2018-02-12 17:16:02"
    },
    {
        "P_BATTLE_BG_ID": "900009",
        "P_IMG": "event_bg_010.jpg",
        "P_POS": "-156,-142",
        "P_EFFECT_INFO": "",
        "P_HOME_EFFECT_INFO": "20",
        "P_CREATEDATE": "2018-02-12 17:16:02",
        "P_UPDATEDATE": "2018-02-12 17:16:02"
    },
    {
        "P_BATTLE_BG_ID": "900010",
        "P_IMG": "event_bg_011.jpg",
        "P_POS": "-156,-142",
        "P_EFFECT_INFO": "",
        "P_HOME_EFFECT_INFO": "20",
        "P_CREATEDATE": "2018-02-12 17:16:02",
        "P_UPDATEDATE": "2018-02-12 17:16:02"
    },
    {
        "P_BATTLE_BG_ID": "900011",
        "P_IMG": "event_bg_012.jpg",
        "P_POS": "-156,-142",
        "P_EFFECT_INFO": "",
        "P_HOME_EFFECT_INFO": "20",
        "P_CREATEDATE": "2018-02-12 17:16:02",
        "P_UPDATEDATE": "2018-02-12 17:16:02"
    },
    {
        "P_BATTLE_BG_ID": "900012",
        "P_IMG": "event_bg_013.jpg",
        "P_POS": "-156,-142",
        "P_EFFECT_INFO": "",
        "P_HOME_EFFECT_INFO": "20",
        "P_CREATEDATE": "2018-02-12 17:16:02",
        "P_UPDATEDATE": "2018-02-12 17:16:02"
    },
    {
        "P_BATTLE_BG_ID": "900013",
        "P_IMG": "event_bg_012_1.jpg",
        "P_POS": "-156,-142",
        "P_EFFECT_INFO": "",
        "P_HOME_EFFECT_INFO": "20",
        "P_CREATEDATE": "2018-02-12 17:16:02",
        "P_UPDATEDATE": "2018-02-12 17:16:02"
    },
    {
        "P_BATTLE_BG_ID": "900014",
        "P_IMG": "battle_bg_003_11_1.jpg",
        "P_POS": "-156,-142",
        "P_EFFECT_INFO": "3:1000026,1:1000027",
        "P_HOME_EFFECT_INFO": "20",
        "P_CREATEDATE": "2018-02-12 17:16:02",
        "P_UPDATEDATE": "2018-02-12 17:16:02"
    },
    {
        "P_BATTLE_BG_ID": "1010101",
        "P_IMG": "battle_bg_001_01.jpg",
        "P_POS": "-156,-142",
        "P_EFFECT_INFO": "1:900051,3:900050",
        "P_HOME_EFFECT_INFO": "20",
        "P_CREATEDATE": "2018-02-12 17:16:02",
        "P_UPDATEDATE": "2018-02-12 17:16:02"
    },
    {
        "P_BATTLE_BG_ID": "1010102",
        "P_IMG": "battle_bg_001_02.jpg",
        "P_POS": "-156,-142",
        "P_EFFECT_INFO": "1:900061,3:900060",
        "P_HOME_EFFECT_INFO": "20",
        "P_CREATEDATE": "2018-02-12 17:16:02",
        "P_UPDATEDATE": "2018-02-12 17:16:02"
    },
    {
        "P_BATTLE_BG_ID": "1010103",
        "P_IMG": "battle_bg_001_03.jpg",
        "P_POS": "-156,-142",
        "P_EFFECT_INFO": "1:900071,3:900070",
        "P_HOME_EFFECT_INFO": "20",
        "P_CREATEDATE": "2018-02-12 17:16:02",
        "P_UPDATEDATE": "2018-02-12 17:16:02"
    },
    {
        "P_BATTLE_BG_ID": "1010104",
        "P_IMG": "battle_bg_001_04.jpg",
        "P_POS": "-156,-142",
        "P_EFFECT_INFO": "1:900081,3:900080",
        "P_HOME_EFFECT_INFO": "20",
        "P_CREATEDATE": "2018-02-12 17:16:02",
        "P_UPDATEDATE": "2018-02-12 17:16:02"
    },
    {
        "P_BATTLE_BG_ID": "1010105",
        "P_IMG": "battle_bg_001_05.jpg",
        "P_POS": "-156,-142",
        "P_EFFECT_INFO": "1:900091,3:900090",
        "P_HOME_EFFECT_INFO": "20",
        "P_CREATEDATE": "2018-02-12 17:16:02",
        "P_UPDATEDATE": "2018-02-12 17:16:02"
    },
    {
        "P_BATTLE_BG_ID": "1010201",
        "P_IMG": "battle_bg_004_01.jpg",
        "P_POS": "-156,-142",
        "P_EFFECT_INFO": "3:900300,1:900301",
        "P_HOME_EFFECT_INFO": "20",
        "P_CREATEDATE": "2018-02-12 17:16:02",
        "P_UPDATEDATE": "2018-02-12 17:16:02"
    },
    {
        "P_BATTLE_BG_ID": "1010202",
        "P_IMG": "battle_bg_004_03.jpg",
        "P_POS": "-156,-142",
        "P_EFFECT_INFO": "",
        "P_HOME_EFFECT_INFO": "20",
        "P_CREATEDATE": "2018-02-12 17:16:02",
        "P_UPDATEDATE": "2018-02-12 17:16:02"
    },
    {
        "P_BATTLE_BG_ID": "1010203",
        "P_IMG": "battle_bg_004_04.jpg",
        "P_POS": "-156,-142",
        "P_EFFECT_INFO": "3:900306,1:900307",
        "P_HOME_EFFECT_INFO": "20",
        "P_CREATEDATE": "2018-02-12 17:16:02",
        "P_UPDATEDATE": "2018-02-12 17:16:02"
    },
    {
        "P_BATTLE_BG_ID": "1010204",
        "P_IMG": "battle_bg_004_02.jpg",
        "P_POS": "-156,-142",
        "P_EFFECT_INFO": "1:900314",
        "P_HOME_EFFECT_INFO": "20",
        "P_CREATEDATE": "2018-02-12 17:16:02",
        "P_UPDATEDATE": "2018-02-12 17:16:02"
    },
    {
        "P_BATTLE_BG_ID": "1010205",
        "P_IMG": "battle_bg_004_05.jpg",
        "P_POS": "-156,-142",
        "P_EFFECT_INFO": "1:900309",
        "P_HOME_EFFECT_INFO": "20",
        "P_CREATEDATE": "2018-02-12 17:16:02",
        "P_UPDATEDATE": "2018-02-12 17:16:02"
    },
    {
        "P_BATTLE_BG_ID": "1010206",
        "P_IMG": "battle_bg_004_06.jpg",
        "P_POS": "-156,-142",
        "P_EFFECT_INFO": "3:900310,1:900311",
        "P_HOME_EFFECT_INFO": "20",
        "P_CREATEDATE": "2018-02-12 17:16:02",
        "P_UPDATEDATE": "2018-02-12 17:16:02"
    },
    {
        "P_BATTLE_BG_ID": "1010207",
        "P_IMG": "battle_bg_004_07.jpg",
        "P_POS": "-156,-142",
        "P_EFFECT_INFO": "3:900312,1:900313",
        "P_HOME_EFFECT_INFO": "20",
        "P_CREATEDATE": "2018-02-12 17:16:02",
        "P_UPDATEDATE": "2018-02-12 17:16:02"
    },
    {
        "P_BATTLE_BG_ID": "1010208",
        "P_IMG": "battle_bg_004_EX01.jpg",
        "P_POS": "-156,-142",
        "P_EFFECT_INFO": "",
        "P_HOME_EFFECT_INFO": "20",
        "P_CREATEDATE": "2018-02-12 17:16:02",
        "P_UPDATEDATE": "2018-02-12 17:16:02"
    },
    {
        "P_BATTLE_BG_ID": "1010301",
        "P_IMG": "battle_bg_005_01.jpg",
        "P_POS": "-156,-142",
        "P_EFFECT_INFO": "3:900400,1:900401",
        "P_HOME_EFFECT_INFO": "20",
        "P_CREATEDATE": "2018-02-12 17:16:02",
        "P_UPDATEDATE": "2018-02-12 17:16:02"
    },
    {
        "P_BATTLE_BG_ID": "1010302",
        "P_IMG": "battle_bg_005_02.jpg",
        "P_POS": "-156,-142",
        "P_EFFECT_INFO": "1:900403",
        "P_HOME_EFFECT_INFO": "20",
        "P_CREATEDATE": "2018-02-12 17:16:02",
        "P_UPDATEDATE": "2018-02-12 17:16:02"
    },
    {
        "P_BATTLE_BG_ID": "1010303",
        "P_IMG": "battle_bg_005_03.jpg",
        "P_POS": "-156,-142",
        "P_EFFECT_INFO": "1:900405",
        "P_HOME_EFFECT_INFO": "20",
        "P_CREATEDATE": "2018-02-12 17:16:02",
        "P_UPDATEDATE": "2018-02-12 17:16:02"
    },
    {
        "P_BATTLE_BG_ID": "1010304",
        "P_IMG": "battle_bg_005_04.jpg",
        "P_POS": "-156,-142",
        "P_EFFECT_INFO": "3:900406,1:900407",
        "P_HOME_EFFECT_INFO": "20",
        "P_CREATEDATE": "2018-02-12 17:16:02",
        "P_UPDATEDATE": "2018-02-12 17:16:02"
    },
    {
        "P_BATTLE_BG_ID": "1010305",
        "P_IMG": "battle_bg_005_05.jpg",
        "P_POS": "-156,-142",
        "P_EFFECT_INFO": "1:900409",
        "P_HOME_EFFECT_INFO": "20",
        "P_CREATEDATE": "2018-02-12 17:16:02",
        "P_UPDATEDATE": "2018-02-12 17:16:02"
    },
    {
        "P_BATTLE_BG_ID": "1010306",
        "P_IMG": "battle_bg_005_06.jpg",
        "P_POS": "-156,-142",
        "P_EFFECT_INFO": "1:900411",
        "P_HOME_EFFECT_INFO": "20",
        "P_CREATEDATE": "2018-02-12 17:16:02",
        "P_UPDATEDATE": "2018-02-12 17:16:02"
    },
    {
        "P_BATTLE_BG_ID": "1010307",
        "P_IMG": "battle_bg_005_07.jpg",
        "P_POS": "-156,-142",
        "P_EFFECT_INFO": "1:900413",
        "P_HOME_EFFECT_INFO": "20",
        "P_CREATEDATE": "2018-02-12 17:16:02",
        "P_UPDATEDATE": "2018-02-12 17:16:02"
    },
    {
        "P_BATTLE_BG_ID": "1010308",
        "P_IMG": "battle_bg_005_EX01.jpg",
        "P_POS": "-156,-142",
        "P_EFFECT_INFO": "3:900414,1:900415",
        "P_HOME_EFFECT_INFO": "20",
        "P_CREATEDATE": "2018-02-12 17:16:02",
        "P_UPDATEDATE": "2018-02-12 17:16:02"
    },
    {
        "P_BATTLE_BG_ID": "1020101",
        "P_IMG": "battle_bg_002_01.jpg",
        "P_POS": "-156,-142",
        "P_EFFECT_INFO": "1:900100",
        "P_HOME_EFFECT_INFO": "20",
        "P_CREATEDATE": "2018-02-12 17:16:02",
        "P_UPDATEDATE": "2018-02-12 17:16:02"
    },
    {
        "P_BATTLE_BG_ID": "1020102",
        "P_IMG": "battle_bg_002_02.jpg",
        "P_POS": "-156,-142",
        "P_EFFECT_INFO": "1:900101",
        "P_HOME_EFFECT_INFO": "20",
        "P_CREATEDATE": "2018-02-12 17:16:02",
        "P_UPDATEDATE": "2018-02-12 17:16:02"
    },
    {
        "P_BATTLE_BG_ID": "1020103",
        "P_IMG": "battle_bg_002_03.jpg",
        "P_POS": "-156,-142",
        "P_EFFECT_INFO": "1:900102",
        "P_HOME_EFFECT_INFO": "20",
        "P_CREATEDATE": "2018-02-12 17:16:02",
        "P_UPDATEDATE": "2018-02-12 17:16:02"
    },
    {
        "P_BATTLE_BG_ID": "1020104",
        "P_IMG": "battle_bg_002_04.jpg",
        "P_POS": "-156,-142",
        "P_EFFECT_INFO": "1:900104",
        "P_HOME_EFFECT_INFO": "20",
        "P_CREATEDATE": "2018-02-12 17:16:02",
        "P_UPDATEDATE": "2018-02-12 17:16:02"
    },
    {
        "P_BATTLE_BG_ID": "1020105",
        "P_IMG": "battle_bg_002_EX01.jpg",
        "P_POS": "-156,-142",
        "P_EFFECT_INFO": "",
        "P_HOME_EFFECT_INFO": "20",
        "P_CREATEDATE": "2018-02-12 17:16:02",
        "P_UPDATEDATE": "2018-02-12 17:16:02"
    },
    {
        "P_BATTLE_BG_ID": "1020106",
        "P_IMG": "battle_bg_002_EX02.jpg",
        "P_POS": "-156,-142",
        "P_EFFECT_INFO": "3:900107,1:900108",
        "P_HOME_EFFECT_INFO": "20",
        "P_CREATEDATE": "2018-02-12 17:16:02",
        "P_UPDATEDATE": "2018-02-12 17:16:02"
    },
    {
        "P_BATTLE_BG_ID": "1030101",
        "P_IMG": "battle_bg_003_01.jpg",
        "P_POS": "-156,-142",
        "P_EFFECT_INFO": "3:900200,1:900201",
        "P_HOME_EFFECT_INFO": "20",
        "P_CREATEDATE": "2018-02-12 17:16:02",
        "P_UPDATEDATE": "2018-02-12 17:16:02"
    },
    {
        "P_BATTLE_BG_ID": "1030102",
        "P_IMG": "battle_bg_003_02.jpg",
        "P_POS": "-156,-142",
        "P_EFFECT_INFO": "3:900202,1:900203",
        "P_HOME_EFFECT_INFO": "20",
        "P_CREATEDATE": "2018-02-12 17:16:03",
        "P_UPDATEDATE": "2018-02-12 17:16:03"
    },
    {
        "P_BATTLE_BG_ID": "1030103",
        "P_IMG": "battle_bg_003_03.jpg",
        "P_POS": "-156,-142",
        "P_EFFECT_INFO": "3:900204,1:900205",
        "P_HOME_EFFECT_INFO": "20",
        "P_CREATEDATE": "2018-02-12 17:16:03",
        "P_UPDATEDATE": "2018-02-12 17:16:03"
    },
    {
        "P_BATTLE_BG_ID": "1030201",
        "P_IMG": "battle_bg_003_04.jpg",
        "P_POS": "-156,-142",
        "P_EFFECT_INFO": "1:900207",
        "P_HOME_EFFECT_INFO": "20",
        "P_CREATEDATE": "2018-02-12 17:16:03",
        "P_UPDATEDATE": "2018-02-12 17:16:03"
    },
    {
        "P_BATTLE_BG_ID": "1030202",
        "P_IMG": "battle_bg_003_05.jpg",
        "P_POS": "-156,-142",
        "P_EFFECT_INFO": "3:900208,1:900209",
        "P_HOME_EFFECT_INFO": "20",
        "P_CREATEDATE": "2018-02-12 17:16:03",
        "P_UPDATEDATE": "2018-02-12 17:16:03"
    },
    {
        "P_BATTLE_BG_ID": "1030203",
        "P_IMG": "battle_bg_003_06.jpg",
        "P_POS": "-156,-142",
        "P_EFFECT_INFO": "",
        "P_HOME_EFFECT_INFO": "20",
        "P_CREATEDATE": "2018-02-12 17:16:03",
        "P_UPDATEDATE": "2018-02-12 17:16:03"
    },
    {
        "P_BATTLE_BG_ID": "1030204",
        "P_IMG": "battle_bg_003_07.jpg",
        "P_POS": "-156,-142",
        "P_EFFECT_INFO": "3:900212,1:900213",
        "P_HOME_EFFECT_INFO": "20",
        "P_CREATEDATE": "2018-02-12 17:16:03",
        "P_UPDATEDATE": "2018-02-12 17:16:03"
    },
    {
        "P_BATTLE_BG_ID": "1030205",
        "P_IMG": "battle_bg_003_08.jpg",
        "P_POS": "-156,-142",
        "P_EFFECT_INFO": "1:900215",
        "P_HOME_EFFECT_INFO": "20",
        "P_CREATEDATE": "2018-02-12 17:16:03",
        "P_UPDATEDATE": "2018-02-12 17:16:03"
    },
    {
        "P_BATTLE_BG_ID": "1030301",
        "P_IMG": "battle_bg_003_09.jpg",
        "P_POS": "-156,-142",
        "P_EFFECT_INFO": "1:900226",
        "P_HOME_EFFECT_INFO": "20",
        "P_CREATEDATE": "2018-02-12 17:16:03",
        "P_UPDATEDATE": "2018-02-12 17:16:03"
    },
    {
        "P_BATTLE_BG_ID": "1030302",
        "P_IMG": "battle_bg_003_10.jpg",
        "P_POS": "-156,-142",
        "P_EFFECT_INFO": "1:900219",
        "P_HOME_EFFECT_INFO": "20",
        "P_CREATEDATE": "2018-02-12 17:16:03",
        "P_UPDATEDATE": "2018-02-12 17:16:03"
    },
    {
        "P_BATTLE_BG_ID": "1030303",
        "P_IMG": "battle_bg_003_11.jpg",
        "P_POS": "-156,-142",
        "P_EFFECT_INFO": "1:900221",
        "P_HOME_EFFECT_INFO": "20",
        "P_CREATEDATE": "2018-02-12 17:16:03",
        "P_UPDATEDATE": "2018-02-12 17:16:03"
    },
    {
        "P_BATTLE_BG_ID": "1030304",
        "P_IMG": "battle_bg_003_12.jpg",
        "P_POS": "-156,-142",
        "P_EFFECT_INFO": "3:900222,1:900223",
        "P_HOME_EFFECT_INFO": "20",
        "P_CREATEDATE": "2018-02-12 17:16:03",
        "P_UPDATEDATE": "2018-02-12 17:16:03"
    },
    {
        "P_BATTLE_BG_ID": "1030305",
        "P_IMG": "battle_bg_003_13.jpg",
        "P_POS": "-156,-142",
        "P_EFFECT_INFO": "1:900225",
        "P_HOME_EFFECT_INFO": "20",
        "P_CREATEDATE": "2018-02-12 17:16:03",
        "P_UPDATEDATE": "2018-02-12 17:16:03"
    },
    {
        "P_BATTLE_BG_ID": "1030306",
        "P_IMG": "battle_bg_003_EX01.jpg",
        "P_POS": "-156,-142",
        "P_EFFECT_INFO": "",
        "P_HOME_EFFECT_INFO": "20",
        "P_CREATEDATE": "2018-02-12 17:16:03",
        "P_UPDATEDATE": "2018-02-12 17:16:03"
    },
    {
        "P_BATTLE_BG_ID": "1030307",
        "P_IMG": "battle_bg_003_EX02.jpg",
        "P_POS": "-156,-142",
        "P_EFFECT_INFO": "",
        "P_HOME_EFFECT_INFO": "20",
        "P_CREATEDATE": "2018-02-12 17:16:03",
        "P_UPDATEDATE": "2018-02-12 17:16:03"
    },
    {
        "P_BATTLE_BG_ID": "1040101",
        "P_IMG": "battle_bg_006_01.jpg",
        "P_POS": "-156,-142",
        "P_EFFECT_INFO": "",
        "P_HOME_EFFECT_INFO": "20",
        "P_CREATEDATE": "2018-02-12 17:16:03",
        "P_UPDATEDATE": "2018-02-12 17:16:03"
    },
    {
        "P_BATTLE_BG_ID": "1040102",
        "P_IMG": "battle_bg_006_02.jpg",
        "P_POS": "-156,-142",
        "P_EFFECT_INFO": "1:900503",
        "P_HOME_EFFECT_INFO": "20",
        "P_CREATEDATE": "2018-02-12 17:16:03",
        "P_UPDATEDATE": "2018-02-12 17:16:03"
    },
    {
        "P_BATTLE_BG_ID": "1040103",
        "P_IMG": "battle_bg_006_03.jpg",
        "P_POS": "-156,-142",
        "P_EFFECT_INFO": "3:900504,1:900505",
        "P_HOME_EFFECT_INFO": "20",
        "P_CREATEDATE": "2018-02-12 17:16:03",
        "P_UPDATEDATE": "2018-02-12 17:16:03"
    },
    {
        "P_BATTLE_BG_ID": "1040201",
        "P_IMG": "battle_bg_007_01.jpg",
        "P_POS": "-156,-142",
        "P_EFFECT_INFO": "3:900510,1:900511",
        "P_HOME_EFFECT_INFO": "20",
        "P_CREATEDATE": "2018-02-12 17:16:03",
        "P_UPDATEDATE": "2018-02-12 17:16:03"
    },
    {
        "P_BATTLE_BG_ID": "1040202",
        "P_IMG": "battle_bg_007_02.jpg",
        "P_POS": "-156,-142",
        "P_EFFECT_INFO": "3:900512,1:900513",
        "P_HOME_EFFECT_INFO": "20",
        "P_CREATEDATE": "2018-02-12 17:16:03",
        "P_UPDATEDATE": "2018-02-12 17:16:03"
    },
    {
        "P_BATTLE_BG_ID": "1040203",
        "P_IMG": "battle_bg_007_03.jpg",
        "P_POS": "-156,-142",
        "P_EFFECT_INFO": "3:900514,1:900515",
        "P_HOME_EFFECT_INFO": "20",
        "P_CREATEDATE": "2018-02-12 17:16:03",
        "P_UPDATEDATE": "2018-02-12 17:16:03"
    },
    {
        "P_BATTLE_BG_ID": "1040204",
        "P_IMG": "battle_bg_007_04.jpg",
        "P_POS": "-156,-142",
        "P_EFFECT_INFO": "3:900516,1:900517",
        "P_HOME_EFFECT_INFO": "20",
        "P_CREATEDATE": "2018-02-12 17:16:03",
        "P_UPDATEDATE": "2018-02-12 17:16:03"
    },
    {
        "P_BATTLE_BG_ID": "1040205",
        "P_IMG": "battle_bg_007_05.jpg",
        "P_POS": "-156,-142",
        "P_EFFECT_INFO": "1:900519",
        "P_HOME_EFFECT_INFO": "20",
        "P_CREATEDATE": "2018-02-12 17:16:03",
        "P_UPDATEDATE": "2018-02-12 17:16:03"
    },
    {
        "P_BATTLE_BG_ID": "1040301",
        "P_IMG": "battle_bg_008_01.jpg",
        "P_POS": "-156,-142",
        "P_EFFECT_INFO": "1:900521",
        "P_HOME_EFFECT_INFO": "20",
        "P_CREATEDATE": "2018-02-12 17:16:03",
        "P_UPDATEDATE": "2018-02-12 17:16:03"
    },
    {
        "P_BATTLE_BG_ID": "1040302",
        "P_IMG": "battle_bg_008_03.jpg",
        "P_POS": "-156,-142",
        "P_EFFECT_INFO": "1:900525",
        "P_HOME_EFFECT_INFO": "20",
        "P_CREATEDATE": "2018-02-12 17:16:03",
        "P_UPDATEDATE": "2018-02-12 17:16:03"
    },
    {
        "P_BATTLE_BG_ID": "1040303",
        "P_IMG": "battle_bg_008_04.jpg",
        "P_POS": "-156,-142",
        "P_EFFECT_INFO": "1:900527",
        "P_HOME_EFFECT_INFO": "20",
        "P_CREATEDATE": "2018-02-12 17:16:03",
        "P_UPDATEDATE": "2018-02-12 17:16:03"
    },
    {
        "P_BATTLE_BG_ID": "1040304",
        "P_IMG": "battle_bg_008_05.jpg",
        "P_POS": "-156,-142",
        "P_EFFECT_INFO": "1:900529",
        "P_HOME_EFFECT_INFO": "20",
        "P_CREATEDATE": "2018-02-12 17:16:03",
        "P_UPDATEDATE": "2018-02-12 17:16:03"
    },
    {
        "P_BATTLE_BG_ID": "1040305",
        "P_IMG": "battle_bg_008_02.jpg",
        "P_POS": "-156,-142",
        "P_EFFECT_INFO": "1:900523",
        "P_HOME_EFFECT_INFO": "20",
        "P_CREATEDATE": "2018-02-12 17:16:03",
        "P_UPDATEDATE": "2018-02-12 17:16:03"
    },
    {
        "P_BATTLE_BG_ID": "1050101",
        "P_IMG": "battle_bg_009_01.jpg",
        "P_POS": "-156,-142",
        "P_EFFECT_INFO": "1:900601",
        "P_HOME_EFFECT_INFO": "20",
        "P_CREATEDATE": "2018-02-12 17:16:03",
        "P_UPDATEDATE": "2018-02-12 17:16:03"
    },
    {
        "P_BATTLE_BG_ID": "1050102",
        "P_IMG": "battle_bg_009_02.jpg",
        "P_POS": "-156,-142",
        "P_EFFECT_INFO": "3:900602,1:900603",
        "P_HOME_EFFECT_INFO": "20",
        "P_CREATEDATE": "2018-02-12 17:16:03",
        "P_UPDATEDATE": "2018-02-12 17:16:03"
    },
    {
        "P_BATTLE_BG_ID": "1050103",
        "P_IMG": "battle_bg_009_03.jpg",
        "P_POS": "-156,-142",
        "P_EFFECT_INFO": "1:900605",
        "P_HOME_EFFECT_INFO": "20",
        "P_CREATEDATE": "2018-02-12 17:16:03",
        "P_UPDATEDATE": "2018-02-12 17:16:03"
    },
    {
        "P_BATTLE_BG_ID": "1050104",
        "P_IMG": "battle_bg_009_04.jpg",
        "P_POS": "-156,-142",
        "P_EFFECT_INFO": "",
        "P_HOME_EFFECT_INFO": "20",
        "P_CREATEDATE": "2018-02-12 17:16:03",
        "P_UPDATEDATE": "2018-02-12 17:16:03"
    },
    {
        "P_BATTLE_BG_ID": "1050105",
        "P_IMG": "battle_bg_009_05.jpg",
        "P_POS": "-156,-142",
        "P_EFFECT_INFO": "1:900609",
        "P_HOME_EFFECT_INFO": "20",
        "P_CREATEDATE": "2018-02-12 17:16:03",
        "P_UPDATEDATE": "2018-02-12 17:16:03"
    },
    {
        "P_BATTLE_BG_ID": "1050106",
        "P_IMG": "battle_bg_009_06.jpg",
        "P_POS": "-156,-142",
        "P_EFFECT_INFO": "3:900610,1:900611",
        "P_HOME_EFFECT_INFO": "20",
        "P_CREATEDATE": "2018-02-12 17:16:03",
        "P_UPDATEDATE": "2018-02-12 17:16:03"
    },
    {
        "P_BATTLE_BG_ID": "1050107",
        "P_IMG": "battle_bg_009_EX01.jpg",
        "P_POS": "-156,-142",
        "P_EFFECT_INFO": "1:900613",
        "P_HOME_EFFECT_INFO": "20",
        "P_CREATEDATE": "2018-02-12 17:16:03",
        "P_UPDATEDATE": "2018-02-12 17:16:03"
    },
    {
        "P_BATTLE_BG_ID": "1050113",
        "P_IMG": "battle_bg_009_03_1.jpg",
        "P_POS": "-156,-142",
        "P_EFFECT_INFO": "1:900615",
        "P_HOME_EFFECT_INFO": "20",
        "P_CREATEDATE": "2018-02-12 17:16:03",
        "P_UPDATEDATE": "2018-02-12 17:16:03"
    },
    {
        "P_BATTLE_BG_ID": "1050114",
        "P_IMG": "battle_bg_009_04_1.jpg",
        "P_POS": "-156,-142",
        "P_EFFECT_INFO": "",
        "P_HOME_EFFECT_INFO": "20",
        "P_CREATEDATE": "2018-02-12 17:16:03",
        "P_UPDATEDATE": "2018-02-12 17:16:03"
    },
    {
        "P_BATTLE_BG_ID": "202010101",
        "P_IMG": "battle_bg_sq_001_01.jpg",
        "P_POS": "-156,-142",
        "P_EFFECT_INFO": "1:2000001",
        "P_HOME_EFFECT_INFO": "20",
        "P_CREATEDATE": "2018-02-12 17:16:03",
        "P_UPDATEDATE": "2018-02-12 17:16:03"
    },
    {
        "P_BATTLE_BG_ID": "202010102",
        "P_IMG": "battle_bg_sq_001_02.jpg",
        "P_POS": "-156,-142",
        "P_EFFECT_INFO": "3:2000002,1:2000003",
        "P_HOME_EFFECT_INFO": "20",
        "P_CREATEDATE": "2018-02-12 17:16:03",
        "P_UPDATEDATE": "2018-02-12 17:16:03"
    },
    {
        "P_BATTLE_BG_ID": "202010103",
        "P_IMG": "battle_bg_sq_001_03.jpg",
        "P_POS": "-156,-142",
        "P_EFFECT_INFO": "1:2000005",
        "P_HOME_EFFECT_INFO": "20",
        "P_CREATEDATE": "2018-02-12 17:16:03",
        "P_UPDATEDATE": "2018-02-12 17:16:03"
    },
    {
        "P_BATTLE_BG_ID": "202010104",
        "P_IMG": "battle_bg_sq_001_04.jpg",
        "P_POS": "-156,-142",
        "P_EFFECT_INFO": "1:2000007",
        "P_HOME_EFFECT_INFO": "20",
        "P_CREATEDATE": "2018-02-12 17:16:03",
        "P_UPDATEDATE": "2018-02-12 17:16:03"
    },
    {
        "P_BATTLE_BG_ID": "202010105",
        "P_IMG": "event_bg_sq_001_01.jpg",
        "P_POS": "-156,-142",
        "P_EFFECT_INFO": "3:2000008,1:2000009",
        "P_HOME_EFFECT_INFO": "20",
        "P_CREATEDATE": "2018-02-12 17:16:03",
        "P_UPDATEDATE": "2018-02-12 17:16:03"
    },
    {
        "P_BATTLE_BG_ID": "202020101",
        "P_IMG": "battle_bg_sq_002_01.jpg",
        "P_POS": "-156,-142",
        "P_EFFECT_INFO": "3:2000100,1:2000101",
        "P_HOME_EFFECT_INFO": "20",
        "P_CREATEDATE": "2018-02-12 17:16:03",
        "P_UPDATEDATE": "2018-02-12 17:16:03"
    },
    {
        "P_BATTLE_BG_ID": "202020102",
        "P_IMG": "battle_bg_sq_002_02.jpg",
        "P_POS": "-156,-142",
        "P_EFFECT_INFO": "3:2000102,1:2000103",
        "P_HOME_EFFECT_INFO": "20",
        "P_CREATEDATE": "2018-02-12 17:16:03",
        "P_UPDATEDATE": "2018-02-12 17:16:03"
    },
    {
        "P_BATTLE_BG_ID": "202020103",
        "P_IMG": "battle_bg_sq_002_03.jpg",
        "P_POS": "-156,-142",
        "P_EFFECT_INFO": "1:2000105",
        "P_HOME_EFFECT_INFO": "20",
        "P_CREATEDATE": "2018-02-12 17:16:03",
        "P_UPDATEDATE": "2018-02-12 17:16:03"
    },
    {
        "P_BATTLE_BG_ID": "202020104",
        "P_IMG": "battle_bg_sq_002_04.jpg",
        "P_POS": "-156,-142",
        "P_EFFECT_INFO": "1:2000107",
        "P_HOME_EFFECT_INFO": "20",
        "P_CREATEDATE": "2018-02-12 17:16:03",
        "P_UPDATEDATE": "2018-02-12 17:16:03"
    },
    {
        "P_BATTLE_BG_ID": "202020105",
        "P_IMG": "event_bg_sq_002_01.jpg",
        "P_POS": "-156,-142",
        "P_EFFECT_INFO": "",
        "P_HOME_EFFECT_INFO": "20",
        "P_CREATEDATE": "2018-02-12 17:16:03",
        "P_UPDATEDATE": "2018-02-12 17:16:03"
    },
    {
        "P_BATTLE_BG_ID": "202020106",
        "P_IMG": "event_bg_sq_002_02.jpg",
        "P_POS": "-156,-142",
        "P_EFFECT_INFO": "",
        "P_HOME_EFFECT_INFO": "20",
        "P_CREATEDATE": "2018-02-12 17:16:03",
        "P_UPDATEDATE": "2018-02-12 17:16:03"
    },
    {
        "P_BATTLE_BG_ID": "202030101",
        "P_IMG": "battle_bg_sq_003_01.jpg",
        "P_POS": "-156,-142",
        "P_EFFECT_INFO": "3:2000200,1:2000201",
        "P_HOME_EFFECT_INFO": "20",
        "P_CREATEDATE": "2018-02-12 17:16:03",
        "P_UPDATEDATE": "2018-02-12 17:16:03"
    },
    {
        "P_BATTLE_BG_ID": "202030102",
        "P_IMG": "battle_bg_sq_003_02.jpg",
        "P_POS": "-156,-142",
        "P_EFFECT_INFO": "1:2000203",
        "P_HOME_EFFECT_INFO": "20",
        "P_CREATEDATE": "2018-02-12 17:16:03",
        "P_UPDATEDATE": "2018-02-12 17:16:03"
    },
    {
        "P_BATTLE_BG_ID": "202040101",
        "P_IMG": "battle_bg_sq_004_01.jpg",
        "P_POS": "-156,-142",
        "P_EFFECT_INFO": "3:2000300,1:2000301",
        "P_HOME_EFFECT_INFO": "20",
        "P_CREATEDATE": "2018-02-12 17:16:03",
        "P_UPDATEDATE": "2018-02-12 17:16:03"
    },
    {
        "P_BATTLE_BG_ID": "202040102",
        "P_IMG": "battle_bg_sq_004_02.jpg",
        "P_POS": "-156,-142",
        "P_EFFECT_INFO": "3:2000302,1:2000303",
        "P_HOME_EFFECT_INFO": "20",
        "P_CREATEDATE": "2018-02-12 17:16:03",
        "P_UPDATEDATE": "2018-02-12 17:16:03"
    },
    {
        "P_BATTLE_BG_ID": "202040103",
        "P_IMG": "battle_bg_sq_004_03.jpg",
        "P_POS": "-156,-142",
        "P_EFFECT_INFO": "3:2000304,1:2000305",
        "P_HOME_EFFECT_INFO": "20",
        "P_CREATEDATE": "2018-02-12 17:16:03",
        "P_UPDATEDATE": "2018-02-12 17:16:03"
    },
    {
        "P_BATTLE_BG_ID": "202040104",
        "P_IMG": "battle_bg_sq_004_04.jpg",
        "P_POS": "-156,-142",
        "P_EFFECT_INFO": "3:2000306,1:2000307",
        "P_HOME_EFFECT_INFO": "20",
        "P_CREATEDATE": "2018-02-12 17:16:03",
        "P_UPDATEDATE": "2018-02-12 17:16:03"
    },
    {
        "P_BATTLE_BG_ID": "202040105",
        "P_IMG": "battle_bg_sq_004_05.jpg",
        "P_POS": "-156,-142",
        "P_EFFECT_INFO": "3:2000308,1:2000309",
        "P_HOME_EFFECT_INFO": "20",
        "P_CREATEDATE": "2018-02-12 17:16:03",
        "P_UPDATEDATE": "2018-02-12 17:16:03"
    },
    {
        "P_BATTLE_BG_ID": "202040106",
        "P_IMG": "battle_bg_sq_004_06.jpg",
        "P_POS": "-156,-142",
        "P_EFFECT_INFO": "3:2000310,1:2000311",
        "P_HOME_EFFECT_INFO": "20",
        "P_CREATEDATE": "2018-02-12 17:16:03",
        "P_UPDATEDATE": "2018-02-12 17:16:03"
    },
    {
        "P_BATTLE_BG_ID": "202050101",
        "P_IMG": "battle_bg_sq_005_01.jpg",
        "P_POS": "-156,-142",
        "P_EFFECT_INFO": "3:2000400,1:2000401",
        "P_HOME_EFFECT_INFO": "20",
        "P_CREATEDATE": "2018-02-12 17:16:03",
        "P_UPDATEDATE": "2018-02-12 17:16:03"
    },
    {
        "P_BATTLE_BG_ID": "202050102",
        "P_IMG": "battle_bg_sq_005_02.jpg",
        "P_POS": "-156,-142",
        "P_EFFECT_INFO": "1:2000403",
        "P_HOME_EFFECT_INFO": "20",
        "P_CREATEDATE": "2018-02-12 17:16:03",
        "P_UPDATEDATE": "2018-02-12 17:16:03"
    },
    {
        "P_BATTLE_BG_ID": "202050103",
        "P_IMG": "battle_bg_sq_005_03.jpg",
        "P_POS": "-156,-142",
        "P_EFFECT_INFO": "1:2000405",
        "P_HOME_EFFECT_INFO": "20",
        "P_CREATEDATE": "2018-02-12 17:16:03",
        "P_UPDATEDATE": "2018-02-12 17:16:03"
    },
    {
        "P_BATTLE_BG_ID": "202050104",
        "P_IMG": "battle_bg_sq_005_04.jpg",
        "P_POS": "-156,-142",
        "P_EFFECT_INFO": "3:2000406,1:2000407",
        "P_HOME_EFFECT_INFO": "20",
        "P_CREATEDATE": "2018-02-12 17:16:03",
        "P_UPDATEDATE": "2018-02-12 17:16:03"
    }
]