[
    {
        "v4suNhG1": "10000",
        "9SAU2sRN": "1",
        "P_NAME": "\u30ed\u30b0\u30a4\u30f3\u65e5\u6570",
        "P_DISPORDER": "1",
        "P_COUNTER_ID": "10000",
        "P_ICON_FILE": "c_label_kos_act_log_10000.png",
        "P_NEED_SWITCH_INFO": "0",
        "P_HIDE_SWITCH_INFO": "0",
        "P_OPEN_SWITCH_INFO": "0",
        "P_CREATEDATE": "2018-06-08 01:10:58",
        "P_UPDATEDATE": "2018-06-08 01:10:58"
    },
    {
        "v4suNhG1": "10600",
        "9SAU2sRN": "1",
        "P_NAME": "\u7372\u5f97\u79f0\u53f7\u6570",
        "P_DISPORDER": "7",
        "P_COUNTER_ID": "10600",
        "P_ICON_FILE": "c_label_kos_act_log_10600.png",
        "P_NEED_SWITCH_INFO": "0",
        "P_HIDE_SWITCH_INFO": "0",
        "P_OPEN_SWITCH_INFO": "0",
        "P_CREATEDATE": "2018-06-08 01:10:58",
        "P_UPDATEDATE": "2018-06-08 01:10:58"
    },
    {
        "v4suNhG1": "10700",
        "9SAU2sRN": "1",
        "P_NAME": "\u7372\u5f97\u540d\u58f0pt",
        "P_DISPORDER": "8",
        "P_COUNTER_ID": "10700",
        "P_ICON_FILE": "c_label_kos_act_log_10700.png",
        "P_NEED_SWITCH_INFO": "0",
        "P_HIDE_SWITCH_INFO": "0",
        "P_OPEN_SWITCH_INFO": "0",
        "P_CREATEDATE": "2018-06-08 01:10:58",
        "P_UPDATEDATE": "2018-06-08 01:10:58"
    },
    {
        "v4suNhG1": "11000",
        "9SAU2sRN": "1",
        "P_NAME": "\u30d6\u30c3\u30af\u9054\u6210\u6570",
        "P_DISPORDER": "11",
        "P_COUNTER_ID": "11000",
        "P_ICON_FILE": "c_label_kos_act_log_11000.png",
        "P_NEED_SWITCH_INFO": "0",
        "P_HIDE_SWITCH_INFO": "0",
        "P_OPEN_SWITCH_INFO": "0",
        "P_CREATEDATE": "2018-06-08 01:10:58",
        "P_UPDATEDATE": "2018-06-08 01:10:58"
    },
    {
        "v4suNhG1": "11100",
        "9SAU2sRN": "1",
        "P_NAME": "\u30d6\u30c3\u30af\u30b3\u30f3\u30d7\u30ea\u30fc\u30c8\u6570",
        "P_DISPORDER": "12",
        "P_COUNTER_ID": "11100",
        "P_ICON_FILE": "c_label_kos_act_log_11100.png",
        "P_NEED_SWITCH_INFO": "0",
        "P_HIDE_SWITCH_INFO": "0",
        "P_OPEN_SWITCH_INFO": "0",
        "P_CREATEDATE": "2018-06-08 01:10:58",
        "P_UPDATEDATE": "2018-06-08 01:10:58"
    },
    {
        "v4suNhG1": "11200",
        "9SAU2sRN": "1",
        "P_NAME": "\u7dcf\u5408\u30e6\u30cb\u30c3\u30c8\u56f3\u9451\u6570",
        "P_DISPORDER": "13",
        "P_COUNTER_ID": "11200",
        "P_ICON_FILE": "c_label_kos_act_log_11200.png",
        "P_NEED_SWITCH_INFO": "0",
        "P_HIDE_SWITCH_INFO": "0",
        "P_OPEN_SWITCH_INFO": "0",
        "P_CREATEDATE": "2018-06-08 01:10:58",
        "P_UPDATEDATE": "2018-06-08 01:10:58"
    },
    {
        "v4suNhG1": "11300",
        "9SAU2sRN": "1",
        "P_NAME": "\u708e\u5c5e\u6027\u30e6\u30cb\u30c3\u30c8\u56f3\u9451\u6570",
        "P_DISPORDER": "14",
        "P_COUNTER_ID": "11300",
        "P_ICON_FILE": "c_label_kos_act_log_11300.png",
        "P_NEED_SWITCH_INFO": "0",
        "P_HIDE_SWITCH_INFO": "0",
        "P_OPEN_SWITCH_INFO": "0",
        "P_CREATEDATE": "2018-06-08 01:10:58",
        "P_UPDATEDATE": "2018-06-08 01:10:58"
    },
    {
        "v4suNhG1": "11400",
        "9SAU2sRN": "1",
        "P_NAME": "\u6c34\u5c5e\u6027\u30e6\u30cb\u30c3\u30c8\u56f3\u9451\u6570",
        "P_DISPORDER": "15",
        "P_COUNTER_ID": "11400",
        "P_ICON_FILE": "c_label_kos_act_log_11400.png",
        "P_NEED_SWITCH_INFO": "0",
        "P_HIDE_SWITCH_INFO": "0",
        "P_OPEN_SWITCH_INFO": "0",
        "P_CREATEDATE": "2018-06-08 01:10:58",
        "P_UPDATEDATE": "2018-06-08 01:10:58"
    },
    {
        "v4suNhG1": "11500",
        "9SAU2sRN": "1",
        "P_NAME": "\u6a39\u5c5e\u6027\u30e6\u30cb\u30c3\u30c8\u56f3\u9451\u6570",
        "P_DISPORDER": "16",
        "P_COUNTER_ID": "11500",
        "P_ICON_FILE": "c_label_kos_act_log_11500.png",
        "P_NEED_SWITCH_INFO": "0",
        "P_HIDE_SWITCH_INFO": "0",
        "P_OPEN_SWITCH_INFO": "0",
        "P_CREATEDATE": "2018-06-08 01:10:58",
        "P_UPDATEDATE": "2018-06-08 01:10:58"
    },
    {
        "v4suNhG1": "11600",
        "9SAU2sRN": "1",
        "P_NAME": "\u96f7\u5c5e\u6027\u30e6\u30cb\u30c3\u30c8\u56f3\u9451\u6570",
        "P_DISPORDER": "17",
        "P_COUNTER_ID": "11600",
        "P_ICON_FILE": "c_label_kos_act_log_11600.png",
        "P_NEED_SWITCH_INFO": "0",
        "P_HIDE_SWITCH_INFO": "0",
        "P_OPEN_SWITCH_INFO": "0",
        "P_CREATEDATE": "2018-06-08 01:10:58",
        "P_UPDATEDATE": "2018-06-08 01:10:58"
    },
    {
        "v4suNhG1": "11700",
        "9SAU2sRN": "1",
        "P_NAME": "\u5149\u5c5e\u6027\u30e6\u30cb\u30c3\u30c8\u56f3\u9451\u6570",
        "P_DISPORDER": "18",
        "P_COUNTER_ID": "11700",
        "P_ICON_FILE": "c_label_kos_act_log_11700.png",
        "P_NEED_SWITCH_INFO": "0",
        "P_HIDE_SWITCH_INFO": "0",
        "P_OPEN_SWITCH_INFO": "0",
        "P_CREATEDATE": "2018-06-08 01:10:58",
        "P_UPDATEDATE": "2018-06-08 01:10:58"
    },
    {
        "v4suNhG1": "11800",
        "9SAU2sRN": "1",
        "P_NAME": "\u95c7\u5c5e\u6027\u30e6\u30cb\u30c3\u30c8\u56f3\u9451\u6570",
        "P_DISPORDER": "19",
        "P_COUNTER_ID": "11800",
        "P_ICON_FILE": "c_label_kos_act_log_11800.png",
        "P_NEED_SWITCH_INFO": "0",
        "P_HIDE_SWITCH_INFO": "0",
        "P_OPEN_SWITCH_INFO": "0",
        "P_CREATEDATE": "2018-06-08 01:10:58",
        "P_UPDATEDATE": "2018-06-08 01:10:58"
    },
    {
        "v4suNhG1": "11900",
        "9SAU2sRN": "1",
        "P_NAME": "\u30a2\u30a4\u30c6\u30e0\u56f3\u9451\u6570",
        "P_DISPORDER": "20",
        "P_COUNTER_ID": "11900",
        "P_ICON_FILE": "c_label_kos_act_log_11900.png",
        "P_NEED_SWITCH_INFO": "0",
        "P_HIDE_SWITCH_INFO": "0",
        "P_OPEN_SWITCH_INFO": "0",
        "P_CREATEDATE": "2018-06-08 01:10:58",
        "P_UPDATEDATE": "2018-06-08 01:10:58"
    },
    {
        "v4suNhG1": "12000",
        "9SAU2sRN": "1",
        "P_NAME": "\u30b9\u30d5\u30a3\u30a2\u56f3\u9451\u6570",
        "P_DISPORDER": "21",
        "P_COUNTER_ID": "12000",
        "P_ICON_FILE": "c_label_kos_act_log_12000.png",
        "P_NEED_SWITCH_INFO": "0",
        "P_HIDE_SWITCH_INFO": "0",
        "P_OPEN_SWITCH_INFO": "0",
        "P_CREATEDATE": "2018-06-08 01:10:58",
        "P_UPDATEDATE": "2018-06-08 01:10:58"
    },
    {
        "v4suNhG1": "12100",
        "9SAU2sRN": "1",
        "P_NAME": "\u6b66\u5668\u56f3\u9451\u6570",
        "P_DISPORDER": "22",
        "P_COUNTER_ID": "12100",
        "P_ICON_FILE": "c_label_kos_act_log_12100.png",
        "P_NEED_SWITCH_INFO": "0",
        "P_HIDE_SWITCH_INFO": "0",
        "P_OPEN_SWITCH_INFO": "0",
        "P_CREATEDATE": "2018-06-08 01:10:58",
        "P_UPDATEDATE": "2018-06-08 01:10:58"
    },
    {
        "v4suNhG1": "12700",
        "9SAU2sRN": "1",
        "P_NAME": "\u30b9\u30d5\u30a3\u30a2\u751f\u6210\u6570",
        "P_DISPORDER": "28",
        "P_COUNTER_ID": "12700",
        "P_ICON_FILE": "c_label_kos_act_log_12700.png",
        "P_NEED_SWITCH_INFO": "0",
        "P_HIDE_SWITCH_INFO": "0",
        "P_OPEN_SWITCH_INFO": "0",
        "P_CREATEDATE": "2018-06-08 01:10:58",
        "P_UPDATEDATE": "2018-06-08 01:10:58"
    },
    {
        "v4suNhG1": "12800",
        "9SAU2sRN": "1",
        "P_NAME": "\u6b66\u5668\u751f\u6210\u6570",
        "P_DISPORDER": "29",
        "P_COUNTER_ID": "12800",
        "P_ICON_FILE": "c_label_kos_act_log_12800.png",
        "P_NEED_SWITCH_INFO": "0",
        "P_HIDE_SWITCH_INFO": "0",
        "P_OPEN_SWITCH_INFO": "0",
        "P_CREATEDATE": "2018-06-08 01:10:58",
        "P_UPDATEDATE": "2018-06-08 01:10:58"
    },
    {
        "v4suNhG1": "13400",
        "9SAU2sRN": "1",
        "P_NAME": "\u30e6\u30cb\u30c3\u30c8\u5358\u4f53\u6700\u5927\u4e0e\u30c0\u30e1\u30fc\u30b8\u91cf",
        "P_DISPORDER": "35",
        "P_COUNTER_ID": "13400",
        "P_ICON_FILE": "c_label_kos_act_log_13400.png",
        "P_NEED_SWITCH_INFO": "0",
        "P_HIDE_SWITCH_INFO": "0",
        "P_OPEN_SWITCH_INFO": "0",
        "P_CREATEDATE": "2018-06-08 01:10:58",
        "P_UPDATEDATE": "2018-06-08 01:10:58"
    },
    {
        "v4suNhG1": "13500",
        "9SAU2sRN": "1",
        "P_NAME": "1\u30bf\u30fc\u30f3\u6700\u5927\u4e0e\u30c0\u30e1\u30fc\u30b8\u91cf",
        "P_DISPORDER": "36",
        "P_COUNTER_ID": "13500",
        "P_ICON_FILE": "c_label_kos_act_log_13500.png",
        "P_NEED_SWITCH_INFO": "0",
        "P_HIDE_SWITCH_INFO": "0",
        "P_OPEN_SWITCH_INFO": "0",
        "P_CREATEDATE": "2018-06-08 01:10:58",
        "P_UPDATEDATE": "2018-06-08 01:10:58"
    },
    {
        "v4suNhG1": "13600",
        "9SAU2sRN": "1",
        "P_NAME": "1\u30bf\u30fc\u30f3\u6700\u5927\u30b9\u30d1\u30fc\u30af\u56de\u6570",
        "P_DISPORDER": "37",
        "P_COUNTER_ID": "13600",
        "P_ICON_FILE": "c_label_kos_act_log_13600.png",
        "P_NEED_SWITCH_INFO": "0",
        "P_HIDE_SWITCH_INFO": "0",
        "P_OPEN_SWITCH_INFO": "0",
        "P_CREATEDATE": "2018-06-08 01:10:58",
        "P_UPDATEDATE": "2018-06-08 01:10:58"
    },
    {
        "v4suNhG1": "13700",
        "9SAU2sRN": "1",
        "P_NAME": "1\u30bf\u30fc\u30f3\u6700\u5927\u30af\u30ea\u30c6\u30a3\u30ab\u30eb\u56de\u6570",
        "P_DISPORDER": "38",
        "P_COUNTER_ID": "13700",
        "P_ICON_FILE": "c_label_kos_act_log_13700.png",
        "P_NEED_SWITCH_INFO": "0",
        "P_HIDE_SWITCH_INFO": "0",
        "P_OPEN_SWITCH_INFO": "0",
        "P_CREATEDATE": "2018-06-08 01:10:58",
        "P_UPDATEDATE": "2018-06-08 01:10:58"
    },
    {
        "v4suNhG1": "14800",
        "9SAU2sRN": "1",
        "P_NAME": "\u7372\u5f97\u529f\u7e3ept",
        "P_DISPORDER": "49",
        "P_COUNTER_ID": "14800",
        "P_ICON_FILE": "c_label_kos_act_log_14800.png",
        "P_NEED_SWITCH_INFO": "0",
        "P_HIDE_SWITCH_INFO": "0",
        "P_OPEN_SWITCH_INFO": "0",
        "P_CREATEDATE": "2018-06-08 01:10:58",
        "P_UPDATEDATE": "2018-06-08 01:10:58"
    },
    {
        "v4suNhG1": "15400",
        "9SAU2sRN": "1",
        "P_NAME": "\u30b9\u30ad\u30eb\u30e9\u30a4\u30ba\u53d6\u5f97\u56de\u6570",
        "P_DISPORDER": "50",
        "P_COUNTER_ID": "15400",
        "P_ICON_FILE": "c_label_kos_act_log_15400.png",
        "P_NEED_SWITCH_INFO": "0",
        "P_HIDE_SWITCH_INFO": "0",
        "P_OPEN_SWITCH_INFO": "0",
        "P_CREATEDATE": "2018-06-08 01:10:58",
        "P_UPDATEDATE": "2018-06-08 01:10:58"
    },
    {
        "v4suNhG1": "19999",
        "9SAU2sRN": "2",
        "P_NAME": "\u53ec\u559a\u5e2b\u898b\u51fa\u3057",
        "P_DISPORDER": "55",
        "P_COUNTER_ID": "-1",
        "P_ICON_FILE": "c_label_orange24_kos_hero.png",
        "P_NEED_SWITCH_INFO": "0",
        "P_HIDE_SWITCH_INFO": "0",
        "P_OPEN_SWITCH_INFO": "0",
        "P_CREATEDATE": "2018-06-08 01:10:58",
        "P_UPDATEDATE": "2018-06-08 01:10:58"
    },
    {
        "v4suNhG1": "20000",
        "9SAU2sRN": "2",
        "P_NAME": "\u7372\u5f97\u53ec\u559a\u5e2b\uff25\uff30",
        "P_DISPORDER": "56",
        "P_COUNTER_ID": "20000",
        "P_ICON_FILE": "c_label_kos_act_log_20000.png",
        "P_NEED_SWITCH_INFO": "0",
        "P_HIDE_SWITCH_INFO": "0",
        "P_OPEN_SWITCH_INFO": "0",
        "P_CREATEDATE": "2018-06-08 01:10:58",
        "P_UPDATEDATE": "2018-06-08 01:10:58"
    },
    {
        "v4suNhG1": "20100",
        "9SAU2sRN": "2",
        "P_NAME": "\u30a8\u30f3\u30c1\u30e3\u30f3\u30c8\u7fd2\u5f97\u6570",
        "P_DISPORDER": "57",
        "P_COUNTER_ID": "20100",
        "P_ICON_FILE": "c_label_kos_act_log_20100.png",
        "P_NEED_SWITCH_INFO": "0",
        "P_HIDE_SWITCH_INFO": "0",
        "P_OPEN_SWITCH_INFO": "0",
        "P_CREATEDATE": "2018-06-08 01:10:58",
        "P_UPDATEDATE": "2018-06-08 01:10:58"
    },
    {
        "v4suNhG1": "20600",
        "9SAU2sRN": "2",
        "P_NAME": "\u53ec\u559a\u5e2b1\u30bf\u30fc\u30f3\u6700\u5927\u30c0\u30e1\u30fc\u30b8\u91cf",
        "P_DISPORDER": "62",
        "P_COUNTER_ID": "20600",
        "P_ICON_FILE": "c_label_kos_act_log_20600.png",
        "P_NEED_SWITCH_INFO": "0",
        "P_HIDE_SWITCH_INFO": "0",
        "P_OPEN_SWITCH_INFO": "0",
        "P_CREATEDATE": "2018-06-08 01:10:58",
        "P_UPDATEDATE": "2018-06-08 01:10:58"
    },
    {
        "v4suNhG1": "29999",
        "9SAU2sRN": "3",
        "P_NAME": "\u53ec\u559a\u5e2b\u30ea\u30f3\u898b\u51fa\u3057",
        "P_DISPORDER": "65",
        "P_COUNTER_ID": "-1",
        "P_ICON_FILE": "c_label_orange24_kos_heroine.png",
        "P_NEED_SWITCH_INFO": "0",
        "P_HIDE_SWITCH_INFO": "0",
        "P_OPEN_SWITCH_INFO": "0",
        "P_CREATEDATE": "2018-06-08 01:10:58",
        "P_UPDATEDATE": "2018-06-08 01:10:58"
    },
    {
        "v4suNhG1": "30000",
        "9SAU2sRN": "3",
        "P_NAME": "\u7372\u5f97\u53ec\u559a\u5e2b\uff25\uff30",
        "P_DISPORDER": "66",
        "P_COUNTER_ID": "30000",
        "P_ICON_FILE": "c_label_kos_act_log_20000.png",
        "P_NEED_SWITCH_INFO": "0",
        "P_HIDE_SWITCH_INFO": "0",
        "P_OPEN_SWITCH_INFO": "0",
        "P_CREATEDATE": "2018-06-08 01:10:58",
        "P_UPDATEDATE": "2018-06-08 01:10:58"
    },
    {
        "v4suNhG1": "30100",
        "9SAU2sRN": "3",
        "P_NAME": "\u30a8\u30f3\u30c1\u30e3\u30f3\u30c8\u7fd2\u5f97\u6570",
        "P_DISPORDER": "67",
        "P_COUNTER_ID": "30100",
        "P_ICON_FILE": "c_label_kos_act_log_20100.png",
        "P_NEED_SWITCH_INFO": "0",
        "P_HIDE_SWITCH_INFO": "0",
        "P_OPEN_SWITCH_INFO": "0",
        "P_CREATEDATE": "2018-06-08 01:10:58",
        "P_UPDATEDATE": "2018-06-08 01:10:58"
    },
    {
        "v4suNhG1": "30600",
        "9SAU2sRN": "3",
        "P_NAME": "\u53ec\u559a\u5e2b1\u30bf\u30fc\u30f3\u6700\u5927\u30c0\u30e1\u30fc\u30b8\u91cf",
        "P_DISPORDER": "72",
        "P_COUNTER_ID": "30600",
        "P_ICON_FILE": "c_label_kos_act_log_20600.png",
        "P_NEED_SWITCH_INFO": "0",
        "P_HIDE_SWITCH_INFO": "0",
        "P_OPEN_SWITCH_INFO": "0",
        "P_CREATEDATE": "2018-06-08 01:10:58",
        "P_UPDATEDATE": "2018-06-08 01:10:58"
    },
    {
        "v4suNhG1": "40000",
        "9SAU2sRN": "4",
        "P_NAME": "\u30af\u30a8\u30b9\u30c8\u6311\u6226\u6570",
        "P_DISPORDER": "75",
        "P_COUNTER_ID": "40000",
        "P_ICON_FILE": "c_label_kos_act_log_40000.png",
        "P_NEED_SWITCH_INFO": "0",
        "P_HIDE_SWITCH_INFO": "0",
        "P_OPEN_SWITCH_INFO": "0",
        "P_CREATEDATE": "2018-06-08 01:10:58",
        "P_UPDATEDATE": "2018-06-08 01:10:58"
    },
    {
        "v4suNhG1": "41000",
        "9SAU2sRN": "4",
        "P_NAME": "\u30c1\u30e3\u30ec\u30f3\u30b8\u9054\u6210\u6570",
        "P_DISPORDER": "85",
        "P_COUNTER_ID": "41001",
        "P_ICON_FILE": "c_label_kos_act_log_41000.png",
        "P_NEED_SWITCH_INFO": "0",
        "P_HIDE_SWITCH_INFO": "0",
        "P_OPEN_SWITCH_INFO": "0",
        "P_CREATEDATE": "2018-06-08 01:10:58",
        "P_UPDATEDATE": "2018-06-08 01:10:58"
    },
    {
        "v4suNhG1": "41050",
        "9SAU2sRN": "4",
        "P_NAME": "\u30c1\u30e3\u30ec\u30f3\u30b8\u30b3\u30f3\u30d7\u30ea\u30fc\u30c8\u6570",
        "P_DISPORDER": "86",
        "P_COUNTER_ID": "41051",
        "P_ICON_FILE": "c_label_kos_act_log_41050.png",
        "P_NEED_SWITCH_INFO": "0",
        "P_HIDE_SWITCH_INFO": "0",
        "P_OPEN_SWITCH_INFO": "0",
        "P_CREATEDATE": "2018-06-08 01:10:58",
        "P_UPDATEDATE": "2018-06-08 01:10:58"
    },
    {
        "v4suNhG1": "41100",
        "9SAU2sRN": "4",
        "P_NAME": "\u30d5\u30ed\u30f3\u30c6\u30a3\u30a2\u30cf\u30f3\u30bf\u30fc\u6311\u6226\u6570",
        "P_DISPORDER": "87",
        "P_COUNTER_ID": "41100",
        "P_ICON_FILE": "c_label_kos_act_log_41100.png",
        "P_NEED_SWITCH_INFO": "0",
        "P_HIDE_SWITCH_INFO": "0",
        "P_OPEN_SWITCH_INFO": "0",
        "P_CREATEDATE": "2018-06-08 01:10:58",
        "P_UPDATEDATE": "2018-06-08 01:10:58"
    },
    {
        "v4suNhG1": "41200",
        "9SAU2sRN": "4",
        "P_NAME": "\u7372\u5f97\u30cf\u30f3\u30bf\u30fcpt",
        "P_DISPORDER": "88",
        "P_COUNTER_ID": "41200",
        "P_ICON_FILE": "c_label_kos_act_log_41200.png",
        "P_NEED_SWITCH_INFO": "0",
        "P_HIDE_SWITCH_INFO": "0",
        "P_OPEN_SWITCH_INFO": "0",
        "P_CREATEDATE": "2018-06-08 01:10:58",
        "P_UPDATEDATE": "2018-06-08 01:10:58"
    },
    {
        "v4suNhG1": "50000",
        "9SAU2sRN": "5",
        "P_NAME": "\u53c2\u52a0\u6570",
        "P_DISPORDER": "89",
        "P_COUNTER_ID": "50000",
        "P_ICON_FILE": "c_label_kos_act_log_50000.png",
        "P_NEED_SWITCH_INFO": "0",
        "P_HIDE_SWITCH_INFO": "0",
        "P_OPEN_SWITCH_INFO": "0",
        "P_CREATEDATE": "2018-06-08 01:10:58",
        "P_UPDATEDATE": "2018-06-08 01:10:58"
    },
    {
        "v4suNhG1": "50100",
        "9SAU2sRN": "5",
        "P_NAME": "\u7dcf\u5408\u52dd\u5229\u6570",
        "P_DISPORDER": "90",
        "P_COUNTER_ID": "50100",
        "P_ICON_FILE": "c_label_kos_act_log_50100.png",
        "P_NEED_SWITCH_INFO": "0",
        "P_HIDE_SWITCH_INFO": "0",
        "P_OPEN_SWITCH_INFO": "0",
        "P_CREATEDATE": "2018-06-08 01:10:58",
        "P_UPDATEDATE": "2018-06-08 01:10:58"
    },
    {
        "v4suNhG1": "50200",
        "9SAU2sRN": "5",
        "P_NAME": "1\u6226\u76ee\u52dd\u5229\u6570",
        "P_DISPORDER": "91",
        "P_COUNTER_ID": "50200",
        "P_ICON_FILE": "c_label_kos_act_log_50200.png",
        "P_NEED_SWITCH_INFO": "0",
        "P_HIDE_SWITCH_INFO": "0",
        "P_OPEN_SWITCH_INFO": "0",
        "P_CREATEDATE": "2018-06-08 01:10:58",
        "P_UPDATEDATE": "2018-06-08 01:10:58"
    },
    {
        "v4suNhG1": "50300",
        "9SAU2sRN": "5",
        "P_NAME": "2\u6226\u76ee\u52dd\u5229\u6570",
        "P_DISPORDER": "92",
        "P_COUNTER_ID": "50300",
        "P_ICON_FILE": "c_label_kos_act_log_50300.png",
        "P_NEED_SWITCH_INFO": "0",
        "P_HIDE_SWITCH_INFO": "0",
        "P_OPEN_SWITCH_INFO": "0",
        "P_CREATEDATE": "2018-06-08 01:10:58",
        "P_UPDATEDATE": "2018-06-08 01:10:58"
    },
    {
        "v4suNhG1": "50400",
        "9SAU2sRN": "5",
        "P_NAME": "3\u6226\u76ee\u52dd\u5229\u6570",
        "P_DISPORDER": "93",
        "P_COUNTER_ID": "50400",
        "P_ICON_FILE": "c_label_kos_act_log_50400.png",
        "P_NEED_SWITCH_INFO": "0",
        "P_HIDE_SWITCH_INFO": "0",
        "P_OPEN_SWITCH_INFO": "0",
        "P_CREATEDATE": "2018-06-08 01:10:58",
        "P_UPDATEDATE": "2018-06-08 01:10:58"
    },
    {
        "v4suNhG1": "50500",
        "9SAU2sRN": "5",
        "P_NAME": "4\u6226\u76ee\u52dd\u5229\u6570",
        "P_DISPORDER": "94",
        "P_COUNTER_ID": "50500",
        "P_ICON_FILE": "c_label_kos_act_log_50500.png",
        "P_NEED_SWITCH_INFO": "0",
        "P_HIDE_SWITCH_INFO": "0",
        "P_OPEN_SWITCH_INFO": "0",
        "P_CREATEDATE": "2018-06-08 01:10:58",
        "P_UPDATEDATE": "2018-06-08 01:10:58"
    },
    {
        "v4suNhG1": "50600",
        "9SAU2sRN": "5",
        "P_NAME": "5\u6226\u76ee\u52dd\u5229\u6570",
        "P_DISPORDER": "95",
        "P_COUNTER_ID": "50600",
        "P_ICON_FILE": "c_label_kos_act_log_50600.png",
        "P_NEED_SWITCH_INFO": "0",
        "P_HIDE_SWITCH_INFO": "0",
        "P_OPEN_SWITCH_INFO": "0",
        "P_CREATEDATE": "2018-06-08 01:10:58",
        "P_UPDATEDATE": "2018-06-08 01:10:58"
    },
    {
        "v4suNhG1": "50800",
        "9SAU2sRN": "5",
        "P_NAME": "\u30d1\u30fc\u30d5\u30a7\u30af\u30c8\u52dd\u5229\u6570",
        "P_DISPORDER": "97",
        "P_COUNTER_ID": "50800",
        "P_ICON_FILE": "c_label_kos_act_log_50800.png",
        "P_NEED_SWITCH_INFO": "0",
        "P_HIDE_SWITCH_INFO": "0",
        "P_OPEN_SWITCH_INFO": "0",
        "P_CREATEDATE": "2018-06-08 01:10:58",
        "P_UPDATEDATE": "2018-06-08 01:10:58"
    },
    {
        "v4suNhG1": "51000",
        "9SAU2sRN": "5",
        "P_NAME": "\u7d2f\u8a08\u7372\u5f97ABP",
        "P_DISPORDER": "99",
        "P_COUNTER_ID": "51000",
        "P_ICON_FILE": "c_label_kos_act_log_51000.png",
        "P_NEED_SWITCH_INFO": "0",
        "P_HIDE_SWITCH_INFO": "0",
        "P_OPEN_SWITCH_INFO": "0",
        "P_CREATEDATE": "2018-06-08 01:10:58",
        "P_UPDATEDATE": "2018-06-08 01:10:58"
    },
    {
        "v4suNhG1": "51100",
        "9SAU2sRN": "5",
        "P_NAME": "\u7dcf\u5408\u30e6\u30cb\u30c3\u30c8\u6483\u7834\u6570",
        "P_DISPORDER": "100",
        "P_COUNTER_ID": "51100",
        "P_ICON_FILE": "c_label_kos_act_log_51100.png",
        "P_NEED_SWITCH_INFO": "0",
        "P_HIDE_SWITCH_INFO": "0",
        "P_OPEN_SWITCH_INFO": "0",
        "P_CREATEDATE": "2018-06-08 01:10:58",
        "P_UPDATEDATE": "2018-06-08 01:10:58"
    },
    {
        "v4suNhG1": "51200",
        "9SAU2sRN": "5",
        "P_NAME": "\u708e\u5c5e\u6027\u30e6\u30cb\u30c3\u30c8\u6483\u7834\u6570",
        "P_DISPORDER": "101",
        "P_COUNTER_ID": "51200",
        "P_ICON_FILE": "c_label_kos_act_log_51200.png",
        "P_NEED_SWITCH_INFO": "0",
        "P_HIDE_SWITCH_INFO": "0",
        "P_OPEN_SWITCH_INFO": "0",
        "P_CREATEDATE": "2018-06-08 01:10:58",
        "P_UPDATEDATE": "2018-06-08 01:10:58"
    },
    {
        "v4suNhG1": "51300",
        "9SAU2sRN": "5",
        "P_NAME": "\u6c34\u5c5e\u6027\u30e6\u30cb\u30c3\u30c8\u6483\u7834\u6570",
        "P_DISPORDER": "102",
        "P_COUNTER_ID": "51300",
        "P_ICON_FILE": "c_label_kos_act_log_51300.png",
        "P_NEED_SWITCH_INFO": "0",
        "P_HIDE_SWITCH_INFO": "0",
        "P_OPEN_SWITCH_INFO": "0",
        "P_CREATEDATE": "2018-06-08 01:10:58",
        "P_UPDATEDATE": "2018-06-08 01:10:58"
    },
    {
        "v4suNhG1": "51400",
        "9SAU2sRN": "5",
        "P_NAME": "\u6a39\u5c5e\u6027\u30e6\u30cb\u30c3\u30c8\u6483\u7834\u6570",
        "P_DISPORDER": "103",
        "P_COUNTER_ID": "51400",
        "P_ICON_FILE": "c_label_kos_act_log_51400.png",
        "P_NEED_SWITCH_INFO": "0",
        "P_HIDE_SWITCH_INFO": "0",
        "P_OPEN_SWITCH_INFO": "0",
        "P_CREATEDATE": "2018-06-08 01:10:58",
        "P_UPDATEDATE": "2018-06-08 01:10:58"
    },
    {
        "v4suNhG1": "51500",
        "9SAU2sRN": "5",
        "P_NAME": "\u96f7\u5c5e\u6027\u30e6\u30cb\u30c3\u30c8\u6483\u7834\u6570",
        "P_DISPORDER": "104",
        "P_COUNTER_ID": "51500",
        "P_ICON_FILE": "c_label_kos_act_log_51500.png",
        "P_NEED_SWITCH_INFO": "0",
        "P_HIDE_SWITCH_INFO": "0",
        "P_OPEN_SWITCH_INFO": "0",
        "P_CREATEDATE": "2018-06-08 01:10:58",
        "P_UPDATEDATE": "2018-06-08 01:10:58"
    },
    {
        "v4suNhG1": "51600",
        "9SAU2sRN": "5",
        "P_NAME": "\u5149\u5c5e\u6027\u30e6\u30cb\u30c3\u30c8\u6483\u7834\u6570",
        "P_DISPORDER": "105",
        "P_COUNTER_ID": "51600",
        "P_ICON_FILE": "c_label_kos_act_log_51600.png",
        "P_NEED_SWITCH_INFO": "0",
        "P_HIDE_SWITCH_INFO": "0",
        "P_OPEN_SWITCH_INFO": "0",
        "P_CREATEDATE": "2018-06-08 01:10:58",
        "P_UPDATEDATE": "2018-06-08 01:10:58"
    },
    {
        "v4suNhG1": "51700",
        "9SAU2sRN": "5",
        "P_NAME": "\u95c7\u5c5e\u6027\u30e6\u30cb\u30c3\u30c8\u6483\u7834\u6570",
        "P_DISPORDER": "106",
        "P_COUNTER_ID": "51700",
        "P_ICON_FILE": "c_label_kos_act_log_51700.png",
        "P_NEED_SWITCH_INFO": "0",
        "P_HIDE_SWITCH_INFO": "0",
        "P_OPEN_SWITCH_INFO": "0",
        "P_CREATEDATE": "2018-06-08 01:10:58",
        "P_UPDATEDATE": "2018-06-08 01:10:58"
    },
    {
        "v4suNhG1": "52600",
        "9SAU2sRN": "5",
        "P_NAME": "1\u30bf\u30fc\u30f3\u6700\u5927\u4e0e\u30c0\u30e1\u30fc\u30b8\u91cf",
        "P_DISPORDER": "115",
        "P_COUNTER_ID": "52600",
        "P_ICON_FILE": "c_label_kos_act_log_52600.png",
        "P_NEED_SWITCH_INFO": "0",
        "P_HIDE_SWITCH_INFO": "0",
        "P_OPEN_SWITCH_INFO": "0",
        "P_CREATEDATE": "2018-06-08 01:10:58",
        "P_UPDATEDATE": "2018-06-08 01:10:58"
    },
    {
        "v4suNhG1": "52700",
        "9SAU2sRN": "5",
        "P_NAME": "1\u30bf\u30fc\u30f3\u6700\u5927\u30b9\u30d1\u30fc\u30af\u56de\u6570",
        "P_DISPORDER": "116",
        "P_COUNTER_ID": "52700",
        "P_ICON_FILE": "c_label_kos_act_log_52700.png",
        "P_NEED_SWITCH_INFO": "0",
        "P_HIDE_SWITCH_INFO": "0",
        "P_OPEN_SWITCH_INFO": "0",
        "P_CREATEDATE": "2018-06-08 01:10:58",
        "P_UPDATEDATE": "2018-06-08 01:10:58"
    },
    {
        "v4suNhG1": "52800",
        "9SAU2sRN": "5",
        "P_NAME": "1\u30bf\u30fc\u30f3\u6700\u5927\u30af\u30ea\u30c6\u30a3\u30ab\u30eb\u56de\u6570",
        "P_DISPORDER": "117",
        "P_COUNTER_ID": "52800",
        "P_ICON_FILE": "c_label_kos_act_log_52800.png",
        "P_NEED_SWITCH_INFO": "0",
        "P_HIDE_SWITCH_INFO": "0",
        "P_OPEN_SWITCH_INFO": "0",
        "P_CREATEDATE": "2018-06-08 01:10:58",
        "P_UPDATEDATE": "2018-06-08 01:10:58"
    }
]