[
    {
        "P_CATEGORY_ID": "1",
        "P_CATEGORY_NAME": "\u5192\u967a\u306e\u8a18\u61b6",
        "P_UPPER_CATEGORY_ID": "0",
        "P_DISPORDER": "1",
        "P_EXT_IMG_PARAM": "\u53ec\u559a\u5e2b\u3068\u305d\u306e\u4ef2\u9593\u305f\u3061\u306e\u4e16\u754c\u3092\u3081\u3050\u308b\u69d8\u3005\u306a\u5192\u967a\u306e\u8a18\u61b6",
        "P_NEED_SWITCH_INFO": "0",
        "P_CREATEDATE": "2018-01-16 10:01:52",
        "P_UPDATEDATE": "2018-01-16 10:01:52"
    },
    {
        "P_CATEGORY_ID": "2",
        "P_CATEGORY_NAME": "\u72ed\u9593\u306e\u8a18\u61b6",
        "P_UPPER_CATEGORY_ID": "0",
        "P_DISPORDER": "2",
        "P_EXT_IMG_PARAM": "\u30b2\u30fc\u30c8\u306e\u72ed\u9593\u3067\u306e\u8a18\u61b6\uff08\u4eee\uff09",
        "P_NEED_SWITCH_INFO": "0",
        "P_CREATEDATE": "2018-01-16 10:01:52",
        "P_UPDATEDATE": "2018-01-16 10:01:52"
    },
    {
        "P_CATEGORY_ID": "100",
        "P_CATEGORY_NAME": "\u5e8f\u7ae0\u3000\u9ed2\u8987\u306e\u6025\u8972",
        "P_UPPER_CATEGORY_ID": "1",
        "P_DISPORDER": "1",
        "P_EXT_IMG_PARAM": "\u53ec\u559a\u5e2b\u306e\u6545\u90f7\u30d5\u30a3\u30eb\u30a2\u30fc\u30e0\u3002\u305d\u306e\u5e73\u7a4f\u306a\u4e16\u754c\u306b\u6697\u96f2\u304c\u7acb\u3061\u8fbc\u3081\u308b\u3002",
        "P_NEED_SWITCH_INFO": "0",
        "P_CREATEDATE": "2018-01-16 10:01:52",
        "P_UPDATEDATE": "2018-01-16 10:01:52"
    },
    {
        "P_CATEGORY_ID": "101",
        "P_CATEGORY_NAME": "\u7b2c\u4e00\u7ae0",
        "P_UPPER_CATEGORY_ID": "1",
        "P_DISPORDER": "1",
        "P_EXT_IMG_PARAM": "\u7b2c\u4e00\u7ae0",
        "P_NEED_SWITCH_INFO": "0",
        "P_CREATEDATE": "2018-01-16 10:01:52",
        "P_UPDATEDATE": "2018-01-16 10:01:52"
    },
    {
        "P_CATEGORY_ID": "102",
        "P_CATEGORY_NAME": "\u7b2c\u4e8c\u7ae0",
        "P_UPPER_CATEGORY_ID": "1",
        "P_DISPORDER": "2",
        "P_EXT_IMG_PARAM": "\u7b2c\u4e8c\u7ae0",
        "P_NEED_SWITCH_INFO": "10000064",
        "P_CREATEDATE": "2018-01-16 10:01:52",
        "P_UPDATEDATE": "2018-01-16 10:01:52"
    },
    {
        "P_CATEGORY_ID": "103",
        "P_CATEGORY_NAME": "\u30ea\u30f3\u7b2c\u4e00\u7ae0",
        "P_UPPER_CATEGORY_ID": "1",
        "P_DISPORDER": "3",
        "P_EXT_IMG_PARAM": "\u30ea\u30f3\u7de8\u3000\u7b2c\u4e00\u7ae0",
        "P_NEED_SWITCH_INFO": "10000030",
        "P_CREATEDATE": "2018-01-16 10:01:52",
        "P_UPDATEDATE": "2018-01-16 10:01:52"
    },
    {
        "P_CATEGORY_ID": "104",
        "P_CATEGORY_NAME": "\u30ea\u30f3\u7b2c\u4e8c\u7ae0",
        "P_UPPER_CATEGORY_ID": "1",
        "P_DISPORDER": "4",
        "P_EXT_IMG_PARAM": "\u30ea\u30f3\u7de8\u3000\u7b2c\u4e8c\u7ae0",
        "P_NEED_SWITCH_INFO": "10000105",
        "P_CREATEDATE": "2018-01-16 10:01:52",
        "P_UPDATEDATE": "2018-01-16 10:01:52"
    },
    {
        "P_CATEGORY_ID": "105",
        "P_CATEGORY_NAME": "\u7b2c\u4e09\u7ae0",
        "P_UPPER_CATEGORY_ID": "1",
        "P_DISPORDER": "5",
        "P_EXT_IMG_PARAM": "\u7b2c\u4e09\u7ae0",
        "P_NEED_SWITCH_INFO": "10000134",
        "P_CREATEDATE": "2018-01-16 10:01:52",
        "P_UPDATEDATE": "2018-01-16 10:01:52"
    },
    {
        "P_CATEGORY_ID": "2000",
        "P_CATEGORY_NAME": "\u30b9\u30c8\u30fc\u30ea\u30fc\u30af\u30a8\u30b9\u30c8",
        "P_UPPER_CATEGORY_ID": "2",
        "P_DISPORDER": "1",
        "P_EXT_IMG_PARAM": "\u30b9\u30c8\u30fc\u30ea\u30fc\u30af\u30a8\u30b9\u30c8\u306e\u4f55\u304b",
        "P_NEED_SWITCH_INFO": "0",
        "P_CREATEDATE": "2018-01-16 10:01:52",
        "P_UPDATEDATE": "2018-01-16 10:01:52"
    },
    {
        "P_CATEGORY_ID": "2001",
        "P_CATEGORY_NAME": "\u6226\u8a18",
        "P_UPPER_CATEGORY_ID": "2",
        "P_DISPORDER": "2",
        "P_EXT_IMG_PARAM": "\u30b0\u30e9\u30f3\u30ac\u30a4\u30a2\u6226\u8a18\u306e\u4f55\u304b",
        "P_NEED_SWITCH_INFO": "0",
        "P_CREATEDATE": "2018-01-16 10:01:53",
        "P_UPDATEDATE": "2018-01-16 10:01:53"
    },
    {
        "P_CATEGORY_ID": "20000",
        "P_CATEGORY_NAME": "\u56db\u8056\u3068\u5149\u95c7\u306e\u738b",
        "P_UPPER_CATEGORY_ID": "2000",
        "P_DISPORDER": "1",
        "P_EXT_IMG_PARAM": "\u56db\u8056",
        "P_NEED_SWITCH_INFO": "13000001",
        "P_CREATEDATE": "2018-01-16 10:01:52",
        "P_UPDATEDATE": "2018-01-16 10:01:52"
    },
    {
        "P_CATEGORY_ID": "20010",
        "P_CATEGORY_NAME": "\u5fcd\u3073\u5bc4\u308b\u60aa\u610f",
        "P_UPPER_CATEGORY_ID": "2000",
        "P_DISPORDER": "2",
        "P_EXT_IMG_PARAM": "\u30a8\u30eb\u30d5\u3068\u7363\u4eba",
        "P_NEED_SWITCH_INFO": "13000050",
        "P_CREATEDATE": "2018-01-16 10:01:52",
        "P_UPDATEDATE": "2018-01-16 10:01:52"
    },
    {
        "P_CATEGORY_ID": "20020",
        "P_CATEGORY_NAME": "\u546a\u308f\u308c\u3057\u708e\u93a7\u301c\u30ea\u30ea\u30b9\u5916\u4f1d",
        "P_UPPER_CATEGORY_ID": "2000",
        "P_DISPORDER": "3",
        "P_EXT_IMG_PARAM": "\u30ea\u30ea\u30b9\u305f\u3061",
        "P_NEED_SWITCH_INFO": "13000100",
        "P_CREATEDATE": "2018-01-16 10:01:52",
        "P_UPDATEDATE": "2018-01-16 10:01:52"
    },
    {
        "P_CATEGORY_ID": "20030",
        "P_CATEGORY_NAME": "\u5341\u7ffc\u306e\u7834\u58ca\u8005",
        "P_UPPER_CATEGORY_ID": "2000",
        "P_DISPORDER": "4",
        "P_EXT_IMG_PARAM": "\u30df\u30bb\u30eb\u305f\u3061",
        "P_NEED_SWITCH_INFO": "13000150",
        "P_CREATEDATE": "2018-01-16 10:01:52",
        "P_UPDATEDATE": "2018-01-16 10:01:52"
    },
    {
        "P_CATEGORY_ID": "20040",
        "P_CATEGORY_NAME": "\u30df\u30d5\u30cd\u306e\u4f8d\u9053",
        "P_UPPER_CATEGORY_ID": "2000",
        "P_DISPORDER": "5",
        "P_EXT_IMG_PARAM": "\u30df\u30d5\u30cd\u653e\u6d6a\u8a18",
        "P_NEED_SWITCH_INFO": "13000200",
        "P_CREATEDATE": "2018-01-16 10:01:53",
        "P_UPDATEDATE": "2018-01-16 10:01:53"
    }
]