[
    {
        "P_CATEGORY_ID": "1",
        "P_CATEGORY_NAME": "\u5192\u967a\u306e\u8a18\u61b6",
        "P_UPPER_CATEGORY_ID": "0",
        "P_DISPORDER": "1",
        "P_EXT_IMG_PARAM": "\u82e5\u304d\u9a0e\u58eb\u3068\u305d\u306e\u4ef2\u9593\u305f\u3061\u306e\u4e16\u754c\u3092\u3081\u3050\u308b\u5192\u967a\u306e\u8a18\u61b6\u3002",
        "P_NEED_SWITCH_INFO": "0",
        "P_CREATEDATE": "2018-03-26 14:49:18",
        "P_UPDATEDATE": "2018-03-26 14:49:18"
    },
    {
        "P_CATEGORY_ID": "2",
        "P_CATEGORY_NAME": "\u5c0e\u304d\u306e\u8a18\u61b6",
        "P_UPPER_CATEGORY_ID": "0",
        "P_DISPORDER": "3",
        "P_EXT_IMG_PARAM": "\u82e5\u304d\u9a0e\u58eb\u3092\u5c0e\u304f\u8005\u305f\u3061\u306e\u8a18\u61b6\u3002",
        "P_NEED_SWITCH_INFO": "0",
        "P_CREATEDATE": "2018-03-26 14:49:18",
        "P_UPDATEDATE": "2018-03-26 14:49:18"
    },
    {
        "P_CATEGORY_ID": "100",
        "P_CATEGORY_NAME": "\u5e8f\u7ae0\u3000\u9ed2\u8987\u306e\u6025\u8972",
        "P_UPPER_CATEGORY_ID": "1",
        "P_DISPORDER": "1",
        "P_EXT_IMG_PARAM": "\u3068\u3042\u308b\u7570\u754c\u306e\u56fd\u3001\u30d5\u30a3\u30eb\u30a2\u30fc\u30e0\u3092\u8b0e\u306e\u8ecd\u52e2\u304c\u6025\u8972\u3002\u7d76\u671b\u7684\u306a\u72b6\u6cc1\u306e\u4e2d\u3001\u9a0e\u58eb\u56e3\u9577\u306e\u4e0b\u3057\u305f\u6c7a\u65ad\u306f\u2026",
        "P_NEED_SWITCH_INFO": "0",
        "P_CREATEDATE": "2018-03-26 14:49:18",
        "P_UPDATEDATE": "2018-03-26 14:49:18"
    },
    {
        "P_CATEGORY_ID": "101",
        "P_CATEGORY_NAME": "\u7b2c\u4e00\u7ae0\u3000\u6551\u4e16\u306e\u53ec\u559a\u5e2b",
        "P_UPPER_CATEGORY_ID": "1",
        "P_DISPORDER": "2",
        "P_EXT_IMG_PARAM": "\u9a0e\u58eb\u56e3\u9577\u306b\u3088\u308a\u9003\u3055\u308c\u305f\u82e5\u304d\u9a0e\u58eb\u3002\u5e7c\u99b4\u67d3\u307f\u306e\u30ea\u30f3\u3068\u3082\u96e2\u308c\u76ee\u3092\u899a\u307e\u3057\u305f\u5148\u306f\u898b\u77e5\u3089\u306c\u7570\u754c\u3067\u3042\u3063\u305f\u3002",
        "P_NEED_SWITCH_INFO": "0",
        "P_CREATEDATE": "2018-03-26 14:49:18",
        "P_UPDATEDATE": "2018-03-26 14:49:18"
    },
    {
        "P_CATEGORY_ID": "102",
        "P_CATEGORY_NAME": "\u7b2c\u4e8c\u7ae0\u3000\u6ef2\u51fa\u305b\u3057\u7591\u60d1",
        "P_UPPER_CATEGORY_ID": "1",
        "P_DISPORDER": "4",
        "P_EXT_IMG_PARAM": "\u30ed\u30a4\u3001\u30b5\u30fc\u30b7\u30e3\u3068\u3068\u3082\u306b\u518d\u3073\u30b0\u30e9\u30f3\u30ac\u30a4\u30a2\u306b\u5411\u304b\u3046\u82e5\u304d\u9a0e\u58eb\u3002\u305d\u3053\u3067\u5f85\u3061\u53d7\u3051\u308b\u3082\u306e\u3068\u306f\u2026\uff1f",
        "P_NEED_SWITCH_INFO": "11000100",
        "P_CREATEDATE": "2018-03-26 14:49:18",
        "P_UPDATEDATE": "2018-03-26 14:49:18"
    },
    {
        "P_CATEGORY_ID": "103",
        "P_CATEGORY_NAME": "\u30ea\u30f3\u7b2c\u4e00\u7ae0\u3000\u4ec4\u6697\u3044\u5730\u306e\u5e95\u3067",
        "P_UPPER_CATEGORY_ID": "1",
        "P_DISPORDER": "3",
        "P_EXT_IMG_PARAM": "\u9a0e\u58eb\u56e3\u9577\u306b\u3088\u308a\u9003\u3055\u308c\u305f\u30ea\u30f3\u3002\u305f\u3063\u305f\u4e00\u4eba\u3001\u98db\u3070\u3055\u308c\u305f\u7570\u754c\u306e\u5730\u3067\u3001\u305d\u306e\u8a18\u61b6\u3055\u3048\u3082\u5931\u3063\u3066\u3044\u305f\u2026",
        "P_NEED_SWITCH_INFO": "11000021",
        "P_CREATEDATE": "2018-03-26 14:49:18",
        "P_UPDATEDATE": "2018-03-26 14:49:18"
    },
    {
        "P_CATEGORY_ID": "104",
        "P_CATEGORY_NAME": "\u30ea\u30f3\u7b2c\u4e8c\u7ae0\u3000\u30a4\u30af\u30b9\u30bf\u30b9\u9632\u885b\u6226",
        "P_UPPER_CATEGORY_ID": "1",
        "P_DISPORDER": "5",
        "P_EXT_IMG_PARAM": "\u30a4\u30af\u30b9\u30bf\u30b9\u306b\u4fb5\u653b\u3059\u308b\u30cd\u30b0\u30ec\u30b9\u3002\u305d\u306e\u65e7\u30a2\u30b8\u30c8\u3067\u6355\u3089\u308f\u308c\u306e\u8eab\u3068\u306a\u3063\u305f\u30ea\u30f3\u306e\u8eab\u306f\u679c\u305f\u3057\u3066\u2026",
        "P_NEED_SWITCH_INFO": "11000150",
        "P_CREATEDATE": "2018-03-26 14:49:18",
        "P_UPDATEDATE": "2018-03-26 14:49:18"
    },
    {
        "P_CATEGORY_ID": "105",
        "P_CATEGORY_NAME": "\u7b2c\u4e09\u7ae0\u3000\u30bb\u30eb\u30bf\u30d3\u30a2\u306e\u5730\u3078",
        "P_UPPER_CATEGORY_ID": "1",
        "P_DISPORDER": "6",
        "P_EXT_IMG_PARAM": "\u3044\u304f\u3064\u304b\u306e\u6226\u3044\u3092\u7d4c\u3066\u3001\u30bb\u30eb\u30bf\u30d3\u30a2\u306e\u5730\u3078\u3068\u964d\u308a\u7acb\u3064\u82e5\u304d\u9a0e\u58eb\u3002\u6545\u90f7\u3092\u53d6\u308a\u623b\u3059\u6226\u3044\u304c\u4eca\u59cb\u307e\u308b\u3002",
        "P_NEED_SWITCH_INFO": "11000200",
        "P_CREATEDATE": "2018-03-26 14:49:18",
        "P_UPDATEDATE": "2018-03-26 14:49:18"
    },
    {
        "P_CATEGORY_ID": "2000",
        "P_CATEGORY_NAME": "\u30b9\u30c8\u30fc\u30ea\u30fc\u30af\u30a8\u30b9\u30c8\u306e\u8a18\u61b6",
        "P_UPPER_CATEGORY_ID": "0",
        "P_DISPORDER": "2",
        "P_EXT_IMG_PARAM": "\u6570\u591a\u306e\u82f1\u96c4\u305f\u3061\u304c\u5f69\u308b\u6642\u7a7a\u3092\u8d85\u3048\u305f\u7269\u8a9e\u306e\u8a18\u61b6\u3002",
        "P_NEED_SWITCH_INFO": "13000001|13000050|13000100|13000150|13000200",
        "P_CREATEDATE": "2018-03-26 14:49:18",
        "P_UPDATEDATE": "2018-03-26 14:49:18"
    },
    {
        "P_CATEGORY_ID": "20000",
        "P_CATEGORY_NAME": "\u56db\u8056\u3068\u5149\u95c7\u306e\u738b",
        "P_UPPER_CATEGORY_ID": "2000",
        "P_DISPORDER": "1",
        "P_EXT_IMG_PARAM": "\u30bb\u30eb\u30bf\u30d3\u30a2\u306b\u8a9e\u308a\u7d99\u304c\u308c\u308b\u5149\u738b\u3068\u56db\u8056\u306e\u4f1d\u8aac\u2015\u2015\n\u4eca\u3053\u305d\u8a9e\u308d\u3046\u3002\u5168\u3066\u3092\u7e4b\u3050\u7d46\u306e\u7269\u8a9e\u3092\u3002",
        "P_NEED_SWITCH_INFO": "13000001",
        "P_CREATEDATE": "2018-03-26 14:49:18",
        "P_UPDATEDATE": "2018-03-26 14:49:18"
    },
    {
        "P_CATEGORY_ID": "20010",
        "P_CATEGORY_NAME": "\u5fcd\u3073\u5bc4\u308b\u60aa\u610f",
        "P_UPPER_CATEGORY_ID": "2000",
        "P_DISPORDER": "2",
        "P_EXT_IMG_PARAM": "\u9065\u304b\u6614\u3001\u8ff7\u3044\u306e\u68ee\u306b\u68f2\u3093\u3067\u3044\u305f\u30a8\u30eb\u30d5\u65cf\u3068\u7363\u4eba\u65cf\u3002\n\uff12\u3064\u306e\u7a2e\u65cf\u306b\u8d77\u304d\u305f\u60b2\u5287\u306e\u771f\u76f8\u3068\u306f\u2026",
        "P_NEED_SWITCH_INFO": "13000050",
        "P_CREATEDATE": "2018-03-26 14:49:18",
        "P_UPDATEDATE": "2018-03-26 14:49:18"
    },
    {
        "P_CATEGORY_ID": "20020",
        "P_CATEGORY_NAME": "\u546a\u308f\u308c\u3057\u708e\u93a7\u301c\u30ea\u30ea\u30b9\u5916\u4f1d",
        "P_UPPER_CATEGORY_ID": "2000",
        "P_DISPORDER": "3",
        "P_EXT_IMG_PARAM": "\u6a5f\u68b0\u306f\u81ea\u3089\u3092\u8a9e\u3089\u306a\u3044\u3002\u5f7c\u3089\u3092\u7406\u89e3\u3059\u308b\u305f\u3081\u306b\u306f\u3001\n\u5f7c\u3089\u306e\u7d4c\u9a13\u3092\u8ffd\u4f53\u9a13\u3059\u308b\u3088\u308a\u4ed6\u306a\u3044\u306e\u3060\u308d\u3046\u3002",
        "P_NEED_SWITCH_INFO": "13000100",
        "P_CREATEDATE": "2018-03-26 14:49:18",
        "P_UPDATEDATE": "2018-03-26 14:49:18"
    },
    {
        "P_CATEGORY_ID": "20030",
        "P_CATEGORY_NAME": "\u5341\u7ffc\u306e\u7834\u58ca\u8005",
        "P_UPPER_CATEGORY_ID": "2000",
        "P_DISPORDER": "4",
        "P_EXT_IMG_PARAM": "\u5341\u679a\u306e\u7ffc\u3092\u6301\u3064\u7834\u58ca\u8005\u30fb\u30e1\u30eb\u30ad\u30aa\u306b\u7acb\u3061\u5411\u304b\u3063\u305f\n\u30df\u30bb\u30eb\u3068\u4ef2\u9593\u305f\u3061\u306e\u6fc0\u95d8\u3001\u305d\u3057\u3066\u3001\u7d46\u3068\u53cb\u60c5\u306e\u7269\u8a9e\u3002",
        "P_NEED_SWITCH_INFO": "13000150",
        "P_CREATEDATE": "2018-03-26 14:49:18",
        "P_UPDATEDATE": "2018-03-26 14:49:18"
    },
    {
        "P_CATEGORY_ID": "20040",
        "P_CATEGORY_NAME": "\u30df\u30d5\u30cd\u306e\u4f8d\u9053",
        "P_UPPER_CATEGORY_ID": "2000",
        "P_DISPORDER": "5",
        "P_EXT_IMG_PARAM": "\u4eba\u751f\u306f\u4e00\u671f\u4e00\u4f1a\u3002\u30b0\u30e9\u30f3\u30ac\u30a4\u30a2\u3068\u3044\u3046\u7570\u754c\u306e\u5730\u3067\u3001\n\u30df\u30d5\u30cd\u304c\u51fa\u4f1a\u3063\u305f\u8005\u305f\u3061\u3068\u306f\u2026\u2026",
        "P_NEED_SWITCH_INFO": "13000200",
        "P_CREATEDATE": "2018-03-26 14:49:18",
        "P_UPDATEDATE": "2018-03-26 14:49:18"
    }
]