﻿ScriptCmd ver 1.1.1:スクリプト_アリーナ.xlsm/arena_zekutasa0/arena_zekutasa0.csv

*,type=SYSST_00,param=0:0:0:0:0:0:0:0:0:0:0,#
*,type=CMD_STOP,param=0:0:0:0:0:0:0:0:0:0:0,#
*,type=SYSST_01,param=0:0:0:0:0:0:0:0:0:0:0,#


*,type=STOP,param=0:0:0:0:0:0:0:0:0:0:0,#
*,type=HCHR_ENT00,param=chr_Lin:リン:N$chara_bf2_25:$POS_Center:TYPE$middle:Z$1:0:0:0:0:0,#
*,type=HCHR_TK00,msg=君は本当に強いヤツだ！<br>オレたちも全力でいかせてもらうよ！,param=chr_Lin:$LeftArena18:0:0:0:0:0:0:0:0:0,#
*,type=CSYN_0000,param=0:0:0:0:0:0:0:0:0:0:0,#
*,type=HCHR_TK01,param=ALL:0:0:0:0:0:0:0:0:0:0,#
*,type=HCHR_ENT01,param=chr_Lin:リン:0:0:0:0:0:0:0:0:0,#

*,type=SYSED_00,param=0:0:0:0:0:0:0:0:0:0:0,#



