﻿ScriptCmd ver 1.1.1:スクリプト_02R_1_リン２章イクスタス_dungeon9.xlsm/シーン9_1/main006-dungeon9_1.csv

*,type=SYSST_00,param=0:0:0:0:0:0:0:0:0:0:0,#
*,type=CMD_STOP,param=0:0:0:0:0:0:0:0:0:0:0,#
*,type=SYSST_01,param=0:0:0:0:0:0:0:0:0:0:0,#


*,type=PICT_0000,param=bg1:battle_bg_008_05.jpg:0:bg$1040304:0:0:0:0:0:0:0,#
*,type=HCHR_ENT00,param=chr_Lin_head:リン:N$chara_bf2_52:$POS_Center:TYPE$middle:Z$1:0:0:0:0:0,#
*,type=HCHR_ENT00,param=chr_mob1:警備兵:N$chara_bf2_47:$POS_Center:TYPE$middle:Z$1:0:0:0:0:0,#
*,type=STOP,param=0:0:0:0:0:0:0:0:0:0:0,#
*,type=FADEIN_000,param=1.5:00&00&00:0:0:0:0:0:0:0:0:0,#
*,type=BGM_0000,param=51:1.5:0:0:0:0:0:0:0:0:0,#
*,type=STOP,param=0:0:0:0:0:0:0:0:0:0:0,#
*,type=WAIT_0000,param=1:0:0:0:0:0:0:0:0:0:0,#
*,type=HCHR_PRM00,param=chr_Lin_head:$lage:0:0:0:0:0:0:0:0:0,#
*,type=HCHR_GRP00,param=chr_Lin_head:face:mu_eyes:T$0.0:0:0:0:0:0:0:0,#
*,type=HCHR_POS00,param=chr_Lin_head:FADEIN:$CHARA_FadeTime:$OFS_Center:0:0:0:0:0:0:0,#
*,type=STOP,param=0:0:0:0:0:0:0:0:0:0:0,#
*,type=WAIT_0000,param=0.5:0:0:0:0:0:0:0:0:0:0,#
*,type=SE_0000,param=135:0:0:0:0:0:0:0:0:0:0,#
*,type=WAIT_0000,param=0.5:0:0:0:0:0:0:0:0:0:0,#
*,type=STOP,param=0:0:0:0:0:0:0:0:0:0:0,#
*,type=HCHR_FDM00,param=ALL:MSK$on:T$0:0:0:0:0:0:0:0:0,#
*,type=FMSG_0000,msg=ここからは立入りが制限されたエリアです。<wait=3><br>入室するには認証キーをかざしてください。,param=chr_****:$CenterNoTail20:0:0:0:0:0:name$アナウンス:0:0:0,#
*,type=HCHR_TK01,param=ALL:0:0:0:0:0:0:0:0:0:0,#
*,type=MSKS_0000,param=bgmask:0&0&0:128:Z$10:T$0.2:0:0:0:0:0:0,#
*,type=STOP,param=0:0:0:0:0:0:0:0:0:0:0,#
*,type=PICT_0000,param=item:event_item_007.png:11:chr:0:1:0:0:0:0:0,#
*,type=PICT_0001,param=item:150:400:0.3:0:0:0:0:0:0:0,#
*,type=STOP,param=0:0:0:0:0:0:0:0:0:0:0,#
*,type=WAIT_0000,param=0.5:0:0:0:0:0:0:0:0:0:0,#
*,type=STOP,param=0:0:0:0:0:0:0:0:0:0:0,#
*,type=SE_0000,param=368:0:0:0:0:0:0:0:0:0:0,#
*,type=WAIT_0000,param=0.5:0:0:0:0:0:0:0:0:0:0,#
*,type=STOP,param=0:0:0:0:0:0:0:0:0:0:0,#
*,type=PICT_0003,param=item:0.3:0:0:0:0:0:0:0:0:0,#
*,type=STOP,param=0:0:0:0:0:0:0:0:0:0:0,#
*,type=MSKS_0002,param=bgmask:T$0.2:0:0:0:0:0:0:0:0:0,#
*,type=STOP,param=0:0:0:0:0:0:0:0:0:0:0,#
*,type=WAIT_0000,param=0.5:0:0:0:0:0:0:0:0:0:0,#
*,type=HCHR_FDM00,param=ALL:MSK$on:T$0:0:0:0:0:0:0:0:0,#
*,type=FMSG_0000,msg=認証キーを確認しました。,param=chr_****:$CenterNoTail12:0:0:0:0:0:name$アナウンス:0:0:0,#
*,type=HCHR_TK01,param=ALL:skipmask:0:0:0:0:0:0:0:0:0,#
*,type=FADEOUT_000,param=1.5:00&00&00:0:0:0:0:0:0:0:0:0,#
*,type=SE_0000,param=373:0:0:0:0:0:0:0:0:0:0,#
*,type=STOP,param=0:0:0:0:0:0:0:0:0:0:0,#
*,type=PICT_0004,param=bg1:0:0:0:0:0:0:0:0:0:0,#
*,type=HCHR_POS00,param=chr_Lin_head:FADEOUT:T$0.0:0:0:0:0:0:0:0:0,#
*,type=STOP,param=0:0:0:0:0:0:0:0:0:0:0,#
*,type=PICT_0000,param=bg1:battle_bg_008_04.jpg:0:bg$1040303:0:0:0:0:0:0:0,#
*,type=STOP,param=0:0:0:0:0:0:0:0:0:0:0,#
*,type=FADEIN_000,param=1.5:00&00&00:0:0:0:0:0:0:0:0:0,#
*,type=STOP,param=0:0:0:0:0:0:0:0:0:0:0,#
*,type=WAIT_0000,param=1:0:0:0:0:0:0:0:0:0:0,#
*,type=HCHR_FDM00,param=ALL:MSK$off:T$0:0:0:0:0:0:0:0:0,#
*,type=HCHR_PRM00,param=chr_Lin_head:$middle:0:0:0:0:0:0:0:0:0,#
*,type=HCHR_POS00,param=chr_Lin_head:FADEIN:$CHARA_FadeTime:$OFS_Right:0:0:0:0:0:0:0,#
*,type=STOP,param=0:0:0:0:0:0:0:0:0:0:0,#
*,type=WAIT_0000,param=1:0:0:0:0:0:0:0:0:0:0,#
*,type=HCHR_POS00,param=chr_mob1:IN$left$160:T$0.2:$OFS_Left:0:0:0:0:0:0:0,#
*,type=STOP,param=0:0:0:0:0:0:0:0:0:0:0,#
*,type=HCHR_TK00,msg=<speed=3>な、<wait=3>なんだっ!?,param=chr_mob1:$Left8:0:0:0:0:0:0:0:0:0,#
*,type=HCHR_TK00,msg=……まさか、<wait=3>連絡があった侵入者か!?,param=chr_mob1:$Left18:0:0:0:0:0:0:0:0:0,#
*,type=HCHR_TK00,msg=<speed=3>おとなしくしろっ!!</speed><wait=3><br>身柄を拘束させてもらう!!,param=chr_mob1:$Left12:0:0:0:0:0:0:0:0:0,#
*,type=HCHR_TK01,param=ALL:0:0:0:0:0:0:0:0:0:0,#
*,type=HCHR_FDM00,param=ALL:MSK$on:T$0:0:0:0:0:0:0:0:0,#
*,type=HCHR_FDM00,param=chr_Lin_head:MSK$off:T$0:0:0:0:0:0:0:0:0,#
*,type=HCHR_PRM00,param=chr_Lin_head:Z$11:T$0:0:0:0:0:0:0:0:0,#
*,type=STOP,param=0:0:0:0:0:0:0:0:0:0:0,#
*,type=HCHR_EFC00,param=mnp:chr_Lin_head:manpu_1:OFS$0&0:SS5$$MANP_silence_a:0:0:0:0:0:0,#
*,type=WAIT_0000,param=1.5:0:0:0:0:0:0:0:0:0:0,#
*,type=PICT_0004,param=mnp:0:0:0:0:0:0:0:0:0:0,#
*,type=HCHR_PRM00,param=chr_Lin_head:Z$1:T$0:0:0:0:0:0:0:0:0,#
*,type=STOP,param=0:0:0:0:0:0:0:0:0:0:0,#
*,type=FADEOUT_000,param=1.5:$BGBLACK_Color:0:0:0:0:0:0:0:0:0,#
*,type=BGM_0001,param=1.5:0:0:0:0:0:0:0:0:0:0,#
*,type=WAIT_0000,param=2:0:0:0:0:0:0:0:0:0:0,#
*,type=STOP,param=0:0:0:0:0:0:0:0:0:0:0,#
*,type=PICT_0004,param=bg1:0:0:0:0:0:0:0:0:0:0,#
*,type=HCHR_ENT01,param=chr_Lin_head:0:0:0:0:0:0:0:0:0:0,#
*,type=HCHR_ENT01,param=chr_mob1:0:0:0:0:0:0:0:0:0:0,#

*,type=SYSED_00,param=0:0:0:0:0:0:0:0:0:0:0,#



