﻿ScriptCmd ver 1.1.1(app1.0.4):スクリプト_05_2_魔城_dungeon5.xlsm/main009-dungeon5-1/main009-dungeon5-1.csv

*,type=SYSST_00,param=0:0:0:0:0:0:0:0:0:0:0,#
*,type=CMD_STOP,param=0:0:0:0:0:0:0:0:0:0:0,#
*,type=SYSST_01,param=0:0:0:0:0:0:0:0:0:0:0,#


*,type=MSKS_0000,param=bgFogMask_B:0&0&0:0:Z$50:T$0:0:0:0:0:0:0,#
*,type=PICT_0000,param=bg_01:battle_bg_013_04.jpg:1:bg$1050504:0:0:0:0:0:0:0,#
*,type=BGM_0000,param=1103:0:0:0:0:0:0:0:0:0:0,#
*,type=HCHR_ENT00,param=chr_Lin:リン:N$chara_bf2_25:$POS_Center:TYPE$middle:Z$10:0:0:0:0:0,#
*,type=HCHR_ENT00,param=chr_Loy:ロイ:N$chara_bf2_28:$POS_Center:TYPE$middle:Z$10:0:0:0:0:0,#
*,type=HCHR_ENT00,param=chr_Sarsha:サーシャ:N$chara_bf2_1:$POS_Center:TYPE$middle:Z$10:0:0:0:0:0,#
*,type=HCHR_ENT00,param=chr_Dewey:デューイ:N$tame_wolf_03:$POS_Center:TYPE$middle:Z$10:0:0:0:0:0,#
*,type=HCHR_ENT00,param=chr_Mehlfel:メルフェル:N$chara_bf2_18:$POS_Center:TYPE$middle:Z$10:0:0:0:0:0,#
*,type=HCHR_ENT00,param=chr_Lyle:メルフェル:N$chara_bf2_24:$POS_Center:TYPE$middle:Z$9:0:0:0:0:0,#
*,type=HCHR_ENT00,param=chr_Mob_wepon:人型召喚兵器:N$chara_bf2_40:$POS_Center:TYPE$middle:Z$10:0:0:0:0:0,#
*,type=HCHR_PRM00,param=chr_Lyle:XFLIP$SET:0:0:0:0:0:0:0:0:0,#
*,type=STOP,param=0:0:0:0:0:0:0:0:0:0:0,#
*,type=HCHR_POS00,param=chr_Loy:FADEIN:T$0:$OFS_Left:Z$11:0:0:0:0:0:0,#
*,type=HCHR_POS00,param=chr_Sarsha:FADEIN:T$0:$OFS_Right:Z$10:0:0:0:0:0:0,#
*,type=HCHR_GRP00,param=chr_Loy:face:bi:0:0:0:0:0:0:0:0,#
*,type=HCHR_GRP00,param=chr_Sarsha:face:bi:0:0:0:0:0:0:0:0,#
*,type=STOP,param=0:0:0:0:0:0:0:0:0:0:0,#
*,type=WAIT_0000,param=1:0:0:0:0:0:0:0:0:0:0,#
*,type=SE_0000,param=339:0:0:0:0:0:0:0:0:0:0,#
*,type=MSKS_0002,param=bgFogMask_B:T$2:0:0:0:0:0:0:0:0:0,#
*,type=WAIT_0000,param=3:0:0:0:0:0:0:0:0:0:0,#
*,type=HCHR_TK10,msg=<speed=3>ここは!?,param=chr_Loy:Left:BASIC:0:0:0:0:0:0:0:0,#
*,type=HCHR_GRP00,param=chr_Sarsha:face:bi:$FACE_FadeTime:0:0:0:0:0:0:0,#
*,type=HCHR_TK10,msg=試練の間！<wait=3><br>……に似てるけど、<wait=2>違う？,param=chr_Sarsha:Right:BASIC:0:0:0:0:0:0:0:0,#
*,type=HCHR_TK01,param=all:skipmask:0:0:0:0:0:0:0:0:0,#
*,type=HCHR_POS00,param=chr_Loy:FADEOUT:T$0.2:0:0:0:0:0:0:0:0,#
*,type=HCHR_POS00,param=chr_Sarsha:FADEOUT:T$0.2:0:0:0:0:0:0:0:0,#
*,type=WAIT_0000,param=0.3:0:0:0:0:0:0:0:0:0:0,#
*,type=SE_0001,param=0:344:0:0.8:3:0:0:0:0:0:0,#
*,type=HCHR_GRP00,param=chr_Lyle:face:ki:0:0:0:0:0:0:0:0,#
*,type=HCHR_FDM00,param=chr_Lyle:MSK$on:0:0:0:0:0:0:0:0:0,#
*,type=WAIT_0000,param=0.8:0:0:0:0:0:0:0:0:0:0,#
*,type=HCHR_TK10,msg=いいえ、<wait=1>ここは皆さんが<br>日々鍛錬を重ねている試練の間ですよ。,param=chr_Lyle:Center:NOTAIL:0:nowait:0:focusoff:0:0:0:0,#
*,type=WAIT_0000,param=0.8:0:0:0:0:0:0:0:0:0:0,#
*,type=HCHR_POS00,param=chr_Lyle:FADEIN:T$1.6:$OFS_Center:0:0:0:0:0:0:0,#
*,type=HCHR_FDM00,param=chr_Lyle:MSK$off:1.6:0:0:0:0:0:0:0:0,#
*,type=CSYN_0002,param=0:0:0:0:0:0:0:0:0:0:0,#
*,type=HCHR_TK01,param=all:skipmask:0:0:0:0:0:0:0:0:0,#
*,type=STOP,param=0:0:0:0:0:0:0:0:0:0:0,#
*,type=WAIT_0000,param=0.1:0:0:0:0:0:0:0:0:0:0,#
*,type=HCHR_POS00,param=chr_Lyle:IN$right$160:T$0.5:$OFS_Left:Z$9:0:0:0:0:0:0,#
*,type=HCHR_POS00,param=chr_Loy:FADEIN:T$0.5:$OFS_Right:Z$10:0:0:0:0:0:0,#
*,type=HCHR_FDM00,param=chr_Lyle:MSK$on:0.5:0:0:0:0:0:0:0:0,#
*,type=HCHR_FDM00,param=chr_Loy:MSK$off:0.5:0:0:0:0:0:0:0:0,#
*,type=WAIT_0000,param=0.7:0:0:0:0:0:0:0:0:0:0,#
*,type=HCHR_TK10,msg=<speed=3>ライル!?,param=chr_Loy:Right:BASIC:0:0:0:0:0:0:0:0,#
*,type=HCHR_TK01,param=all:skipmask:0:0:0:0:0:0:0:0:0,#
*,type=HCHR_PRM00,param=chr_Loy:Z$10:0:0:0:0:0:0:0:0:0,#
*,type=HCHR_PRM00,param=chr_Lyle:Z$12:0:0:0:0:0:0:0:0:0,#
*,type=HCHR_FDM00,param=chr_Loy:MSK$on:0.4:0:0:0:0:0:0:0:0,#
*,type=HCHR_FDM00,param=chr_Lyle:MSK$off:0.4:0:0:0:0:0:0:0:0,#
*,type=WAIT_0000,param=1.2:0:0:0:0:0:0:0:0:0:0,#
*,type=HCHR_GRP00,param=chr_Mehlfel:face:ki:0:0:0:0:0:0:0:0,#
*,type=HCHR_FDM00,param=chr_Mehlfel:MSK$on:0:0:0:0:0:0:0:0:0,#
*,type=STOP,param=0:0:0:0:0:0:0:0:0:0:0,#
*,type=SE_0000,param=363:0:0:0:0:0:0:0:0:0:0,#
*,type=HCHR_FDM00,param=chr_Lyle:MSK$on:0.75:0:0:0:0:0:0:0:0,#
*,type=HCHR_POS00,param=chr_Lyle:FADEOUT:T$1.5:0:Z$12:0:0:0:0:0:0,#
*,type=HCHR_POS00,param=chr_Mehlfel:FADEIN:T$1.5:$OFS_Left:Z$11:0:0:0:0:0:0,#
*,type=WAIT_0000,param=0.5:0:0:0:0:0:0:0:0:0:0,#
*,type=HCHR_FDM00,param=chr_Mehlfel:MSK$off:1:0:0:0:0:0:0:0:0,#
*,type=STOP,param=0:0:0:0:0:0:0:0:0:0:0,#
*,type=HCHR_TK10,msg=ちょいとワタクシ好みに<br>アレンジさせて頂きましたケド♪,param=chr_Mehlfel:Left:BASIC:0:0:0:0:0:0:0:0,#
*,type=HCHR_TK01,param=all:skipmask:0:0:0:0:0:0:0:0:0,#
*,type=HCHR_PRM00,param=chr_Mehlfel:Z$11:0:0:0:0:0:0:0:0:0,#
*,type=HCHR_POS00,param=chr_Loy:FADEOUT:T$0.3:0:0:0:0:0:0:0:0,#
*,type=HCHR_FDM00,param=chr_Mehlfel:MSK$on:0.3:0:0:0:0:0:0:0:0,#
*,type=HCHR_GRP00,param=chr_Sarsha:face:ai:$FACE_FadeTime:0:0:0:0:0:0:0,#
*,type=HCHR_POS00,param=chr_Sarsha:FADEIN:T$0.3:$OFS_Right:Z$12:0:0:0:0:0:0,#
*,type=HCHR_FDM00,param=chr_Sarsha:MSK$off:0.3:0:0:0:0:0:0:0:0,#
*,type=STOP,param=0:0:0:0:0:0:0:0:0:0:0,#
*,type=HCHR_TK10,msg=ライルさん……<wait=1><br>本当にネグレスのスパイだったのね。,param=chr_Sarsha:Right:BASIC:0:0:0:0:0:0:0:0,#
*,type=HCHR_TK01,param=all:skipmask:0:0:0:0:0:0:0:0:0,#
*,type=HCHR_POS00,param=chr_Sarsha:FADEOUT:T$0.3:0:Z$12:0:0:0:0:0:0,#
*,type=HCHR_FDM00,param=chr_Sarsha:MSK$on:0.3:0:0:0:0:0:0:0:0,#
*,type=HCHR_GRP00,param=chr_Loy:face:ai:$FACE_FadeTime:0:0:0:0:0:0:0,#
*,type=HCHR_POS00,param=chr_Loy:FADEIN:T$0.3:$OFS_Right:Z$13:0:0:0:0:0:0,#
*,type=HCHR_FDM00,param=chr_Loy:MSK$off:0.3:0:0:0:0:0:0:0:0,#
*,type=STOP,param=0:0:0:0:0:0:0:0:0:0:0,#
*,type=HCHR_TK10,msg=召喚院内部のことは<br>全て把握してるってアピールか。,param=chr_Loy:Right:BASIC:0:0:0:0:0:0:0:0,#
*,type=HCHR_TK10,msg=ほんといい性格してるな、<wait=1>お前。,param=chr_Loy:Right:BASIC:0:0:0:0:0:0:0:0,#
*,type=HCHR_TK10,msg=“先生”に褒めて頂けるなんて<wait=1><br>嬉しいですねェ♪,param=chr_Mehlfel:Left:BASIC:0:0:0:0:0:0:0:0,#
*,type=HCHR_GRP00,param=chr_Mehlfel:face:fu:$FACE_FadeTime:0:0:0:0:0:0:0,#
*,type=HCHR_TK10,msg=さて、<wait=1>お望み通り、<wait=1>これで思う存分<br>真面目に戦えますヨ。,param=chr_Mehlfel:Left:BASIC:0:0:0:0:0:0:0:0,#
*,type=HCHR_TK01,param=all:skipmask:0:0:0:0:0:0:0:0:0,#
*,type=HCHR_POS00,param=chr_Loy:FADEOUT:T$0.1:0:0:0:0:0:0:0:0,#
*,type=HCHR_POS00,param=chr_Mehlfel:FADEOUT:T$0.1:0:0:0:0:0:0:0:0,#
*,type=STOP,param=0:0:0:0:0:0:0:0:0:0:0,#
*,type=HCHR_FDM00,param=chr_Dewey:MSK$on:0:0:0:0:0:0:0:0:0,#
*,type=HCHR_FDM00,param=chr_Lin:MSK$off:0:0:0:0:0:0:0:0:0,#
*,type=HCHR_GRP00,param=chr_Dewey:face:do:0:0:0:0:0:0:0:0,#
*,type=HCHR_GRP00,param=chr_Lin:face:do:0:0:0:0:0:0:0:0,#
*,type=STOP,param=0:0:0:0:0:0:0:0:0:0:0,#
*,type=HCHR_POS00,param=chr_Dewey:FADEIN:$CHARA_FadeTime:$OFS_Left:Z$10:0:0:0:0:0:0,#
*,type=HCHR_POS00,param=chr_Lin:FADEIN:$CHARA_FadeTime:$OFS_Right:Z$11:0:0:0:0:0:0,#
*,type=STOP,param=0:0:0:0:0:0:0:0:0:0:0,#
*,type=HCHR_TK10,msg=アンタ、<wait=1>勘違いしてない？<wait=3><br>場所なんてどうだっていいのよ！,param=chr_Lin:Right:BASIC:0:0:0:0:0:0:0:0,#
*,type=HCHR_TK10,msg=アンタたちさえ倒せればね……！,param=chr_Lin:Right:BASIC:0:0:0:0:0:0:0:0,#
*,type=HCHR_TK01,param=all:skipmask:0:0:0:0:0:0:0:0:0,#
*,type=HCHR_POS00,param=chr_Dewey:FADEOUT:$CHARA_FadeTime:0:0:0:0:0:0:0:0,#
*,type=HCHR_POS00,param=chr_Lin:FADEOUT:$CHARA_FadeTime:0:0:0:0:0:0:0:0,#
*,type=STOP,param=0:0:0:0:0:0:0:0:0:0:0,#
*,type=HCHR_FDM00,param=chr_Mehlfel:MSK$off:0:0:0:0:0:0:0:0:0,#
*,type=HCHR_POS00,param=chr_Mehlfel:FADEIN:$CHARA_FadeTime:$OFS_Center:0:0:0:0:0:0:0,#
*,type=WAIT_0000,param=0.3:0:0:0:0:0:0:0:0:0:0,#
*,type=HCHR_TK10,msg=いえいえ、<wait=1>やはり<br>彼らと戦って頂くにはココでないと。,param=chr_Mehlfel:Center:BASIC:0:0:0:0:0:0:0:0,#
*,type=HCHR_TK01,param=all:0:0:0:0:0:0:0:0:0:0,#
*,type=HCHR_PRM00,param=chr_Mehlfel:Z$10:0:0:0:0:0:0:0:0:0,#
*,type=SE_0000,param=363:0:0:0:0:0:0:0:0:0:0,#
*,type=HCHR_POS00,param=chr_Mob_wepon:FADEIN:T$0.8:$OFS_Right:Z$11:0:0:0:0:0:0,#
*,type=HCHR_POS00,param=chr_Mehlfel:IN$right$160:T$0.5:$OFS_Left:0:0:0:0:0:0:0,#
*,type=WAIT_0000,param=1.8:0:0:0:0:0:0:0:0:0:0,#
*,type=HCHR_POS00,param=chr_Mob_wepon:FADEOUT:T$0.2:0:0:0:0:0:0:0:0,#
*,type=HCHR_POS00,param=chr_Mehlfel:FADEOUT:T$0.2:0:0:0:0:0:0:0:0,#
*,type=STOP,param=0:0:0:0:0:0:0:0:0:0:0,#
*,type=HCHR_GRP00,param=chr_Loy:face:do:$FACE_FadeTime:0:0:0:0:0:0:0,#
*,type=HCHR_POS00,param=chr_Loy:FADEIN:$CHARA_FadeTime:$OFS_Center:0:0:0:0:0:0:0,#
*,type=HCHR_TK10,msg=それは……!!,param=chr_Loy:Center:BASIC:0:0:0:0:0:0:0:0,#
*,type=HCHR_TK01,param=all:0:0:0:0:0:0:0:0:0:0,#
*,type=HCHR_POS00,param=chr_Loy:FADEOUT:T$0.1:0:0:0:0:0:0:0:0,#
*,type=STOP,param=0:0:0:0:0:0:0:0:0:0:0,#
*,type=HCHR_GRP00,param=chr_Mehlfel:face:ki:$FACE_FadeTime:0:0:0:0:0:0:0,#
*,type=HCHR_POS00,param=chr_Mehlfel:FADEIN:$CHARA_FadeTime:$OFS_Left:Z$10:0:0:0:0:0:0,#
*,type=HCHR_POS00,param=chr_Mob_wepon:FADEIN:$CHARA_FadeTime:$OFS_Right:Z$11:0:0:0:0:0:0,#
*,type=WAIT_0000,param=0.5:0:0:0:0:0:0:0:0:0:0,#
*,type=HCHR_TK10,msg=さぁ、<wait=1>特別ゲストの登場ですヨ！,param=chr_Mehlfel:Left:BASIC:0:0:0:focusoff:0:0:0:0,#
*,type=HCHR_TK01,param=all:skipmask:0:0:0:0:0:0:0:0:0,#
*,type=FADEOUT_000,param=1.5:$BGBLACK_Color:0:0:0:0:0:0:0:0:0,#
*,type=BGM_0001,param=1.5:0:0:0:0:0:0:0:0:0:0,#
*,type=WAIT_0000,param=1.5:0:0:0:0:0:0:0:0:0:0,#
*,type=CLSNE_0000,param=0:0:0:0:0:0:0:0:0:0:0,#
*,type=SWOPEN_0000,param=11000321:RUNTIME:SKIP_OPEN:0:0:0:0:0:0:0:0,#
*,type=GAM_STARTBTL,param=6801:HERO:0:0:0:0:0:0:0:0:0,#

*,type=SYSED_00,param=0:0:0:0:0:0:0:0:0:0:0,#



