﻿ScriptCmd ver 1.1.1(app1.0.4):スクリプト_08_1_魔城最上層_dungeon1.xlsm/main012-opening/main012-opening.csv

*,type=SYSST_00,param=0:0:0:0:0:0:0:0:0:0:0,#
*,type=CMD_STOP,param=0:0:0:0:0:0:0:0:0:0:0,#
*,type=SYSST_01,param=0:0:0:0:0:0:0:0:0:0:0,#


*,type=MSKS_0000,param=bgBlackMask:$BGBLACK_Color:0:Z$1:T$0:0:0:0:0:0:0,#
*,type=BGM_0000,param=36:1.5:0:0:0:0:0:0:0:0:0,#
*,type=WAIT_0000,param=2.5:0:0:0:0:0:0:0:0:0:0,#
*,type=HCHR_ENT00,param=chr_Lanford:ランフォード:N$chara_bf2_19:$POS_Center:TYPE$middle:Z$10:0:0:0:0:0,#
*,type=HCHR_ENT00,param=chr_Sarsha:サーシャ:N$chara_bf2_1:$POS_Center:TYPE$middle:Z$10:0:0:0:0:0,#
*,type=HCHR_ENT00,param=chr_Lin:リン:N$chara_bf2_25:$POS_Center:TYPE$middle:Z$10:0:0:0:0:0,#
*,type=HCHR_ENT00,param=chr_Dewey:デューイ:N$tame_wolf_16:$POS_Center:TYPE$middle:Z$9:0:0:0:0:0,#
*,type=HCHR_ENT00,param=chr_Loy:ロイ:N$chara_bf2_28:$POS_Center:TYPE$middle:Z$10:0:0:0:0:0,#
*,type=HCHR_ENT00,param=chr_Lugina:ルジーナ:N$chara_bf2_14:$POS_Center:TYPE$middle:Z$10:0:0:0:0:0,#
*,type=HCHR_ENT00,param=chr_Hans:ハンス:N$chara_bf2_22:$POS_Center:TYPE$middle:Z$11:0:XFLIP$SET:0:0:0,#
*,type=HCHR_ENT00,param=chr_Seria:セリア:N$chara_bf2_12:$POS_Center:TYPE$middle:Z$10:0:0:0:0:0,#
*,type=HCHR_ENT00,param=chr_Noel:ノエル:N$chara_bf2_31_m:$POS_Monitor_Center:TYPE$middle:Z$5&5:0:XFLIP$SET:0:0:0,#
*,type=HCHR_ENT00,param=chr_Karl:カル:N$chara_bf2_11_m:$POS_Monitor_Center:TYPE$middle:Z$5&5:0:XFLIP$SET:0:0:0,#
*,type=HCHR_ENT00,param=chr_Mob1:氷麗軍兵士:N$chara_bf2_44:$POS_Center:TYPE$middle:Z$10:0:0:0:0:0,#
*,type=HCHR_ENT00,param=chr_Mob2:機鎧軍兵士:N$chara_bf2_42:$POS_Center:TYPE$middle:Z$10:0:0:0:0:0,#
*,type=STOP,param=0:0:0:0:0:0:0:0:0:0:0,#
*,type=HCHR_POS00,param=chr_Lanford:FADEIN:T$2:$POS_Center:0:0:0:0:0:0:0,#
*,type=STOP,param=0:0:0:0:0:0:0:0:0:0:0,#
*,type=WAIT_0000,param=1:0:0:0:0:0:0:0:0:0:0,#
*,type=HCHR_TK10,msg=<speed=12>時は満ちた……,param=chr_Lanford:Center:BASIC:0:0:0:0:0:0:0:0,#
*,type=HCHR_TK01,param=all:0:0:0:0:0:0:0:0:0:0,#
*,type=WAIT_0000,param=0.5:0:0:0:0:0:0:0:0:0:0,#
*,type=HCHR_POS00,param=chr_Lanford:FADEOUT:T$1.5:0:0:0:0:0:0:0:0,#
*,type=WAIT_0000,param=1:0:0:0:0:0:0:0:0:0:0,#
*,type=STOP,param=0:0:0:0:0:0:0:0:0:0:0,#
*,type=MSKS_0002,param=bgBlackMask:T$3.5:0:0:0:0:0:0:0:0:0,#
*,type=SYSTEM_UI_DISP,param=OFF:0:0:0:0:0:0:0:0:0:0,#
*,type=SS5_0000,param=chapter_8_intromovie:chapter_intro_8.ssbp:main/anime:main/anime:50:320:560:1:0:0:0,#
*,type=WAIT_0000,param=9:0:0:0:0:0:0:0:0:0:0,#
*,type=SE_0000,param=226:0:0:0:0:0:0:0:0:0:0,#
*,type=SE_0000,param=316:0:0:0:0:0:0:0:0:0:0,#
*,type=WAIT_0000,param=0.2:0:0:0:0:0:0:0:0:0:0,#
*,type=SE_0000,param=228:0:0:0:0:0:0:0:0:0:0,#
*,type=SE_0000,param=328:0:0:0:0:0:0:0:0:0:0,#
*,type=SE_0001,param=0:320:0.6:0.5:2:0:0:0:0:0:0,#
*,type=WAIT_0000,param=8:0:0:0:0:0:0:0:0:0:0,#
*,type=BGM_0001,param=2.5:0:0:0:0:0:0:0:0:0:0,#
*,type=WAIT_0000,param=2.5:0:0:0:0:0:0:0:0:0:0,#
*,type=FADEIN_000,param=2.5:$BGBLACK_Color:0:0:0:0:0:0:0:0:0,#
*,type=PICT_0000,param=bg_01:battle_bg_016_01.jpg:1:bg$1050901:0:0:0:2:0:0:0,#
*,type=BGM_0000,param=31:2.5:0:0:0:0:0:0:0:0:0,#
*,type=SYSTEM_UI_DISP,param=ON:0:0:0:0:0:0:0:0:0:0,#
*,type=STOP,param=0:0:0:0:0:0:0:0:0:0:0,#
*,type=SE_0000,param=344:0.5:0:0:0:0:0:0:0:0:0,#
*,type=HCHR_POS00,param=chr_Sarsha:IN$right:T$0.5:$OFS_Right:0:0:0:0:0:0:0,#
*,type=STOP,param=0:0:0:0:0:0:0:0:0:0:0,#
*,type=WAIT_0000,param=1.5:0:0:0:0:0:0:0:0:0:0,#
*,type=HCHR_TK10,msg=<rep_handlename>、<wait=1>リン、<wait=1>こっちよ！<wait=3><br>ここから先に進めるみたい。,param=chr_Sarsha:Right:BASIC:0:0:0:0:0:0:0:0,#
*,type=HCHR_TK01,param=all:0:0:0:0:0:0:0:0:0:0,#
*,type=SE_0000,param=344:0.2:0:0:0:0:0:0:0:0:0,#
*,type=HCHR_GRP00,param=chr_Lin:face:do:0:0:0:0:0:0:0:0,#
*,type=HCHR_POS00,param=chr_Lin:IN$right:T$0.2:$OFS_Left:0:0:0:0:0:0:0,#
*,type=STOP,param=0:0:0:0:0:0:0:0:0:0:0,#
*,type=WAIT_0000,param=0.3:0:0:0:0:0:0:0:0:0:0,#
*,type=HCHR_TK10,msg=この先に先生たちが……！,param=chr_Lin:Left:BASIC:0:0:0:0:0:0:0:0,#
*,type=HCHR_GRP00,param=chr_Sarsha:face:ai:$FACE_FadeTime:0:0:0:0:0:0:0,#
*,type=HCHR_TK10,msg=でも、<wait=1>道がふたつに分かれてる……<wait=3><br>どっちにエルハザがいるのかしら。,param=chr_Sarsha:Right:BASIC:0:0:0:0:0:0:0:0,#
*,type=HCHR_GRP00,param=chr_Lin:face:mu:$FACE_FadeTime:0:0:0:0:0:0:0,#
*,type=HCHR_TK10,msg=デューイ、<wait=1>どっちに進めばいいかわかる？,param=chr_Lin:Left:BASIC:0:0:0:0:0:0:0:0,#
*,type=HCHR_TK01,param=all:skipmask:0:0:0:0:0:0:0:0:0,#
*,type=HCHR_POS00,param=chr_Sarsha:FADEOUT:T$0.1:0:0:0:0:0:0:0:0,#
*,type=HCHR_POS00,param=chr_Lin:FADEOUT:T$0.1:0:0:0:0:0:0:0:0,#
*,type=STOP,param=0:0:0:0:0:0:0:0:0:0:0,#
*,type=HCHR_FDM00,param=all:MSK$off:0:0:0:0:0:0:0:0:0,#
*,type=HCHR_POS00,param=chr_Dewey:FADEIN:T$0.3:$OFS_Right:0:0:0:0:0:0:0,#
*,type=STOP,param=0:0:0:0:0:0:0:0:0:0:0,#
*,type=HCHR_TK10,msg=<speed=3>ワゥッ！,param=chr_Dewey:Right:BASIC:0:0:0:0:0:0:OFS$0&180:0,#
*,type=HCHR_SHK00,param=chr_Dewey:0&5:0.5:1.5:NoRandom:0:0:0:0:0:0,#
*,type=HCHR_POS00,param=chr_Dewey:IN$right$160:T$1.5:OFS$-70&0:0:0:0:0:0:0:0,#
*,type=HCHR_TK10,msg=<speed=7>スンスンスン……,param=chr_Dewey:Center:BASIC:0:0:0:0:0:0:OFS$0&180:0,#
*,type=HCHR_TK01,param=all:0:0:0:0:0:0:0:0:0:0,#
*,type=WAIT_0000,param=0.5:0:0:0:0:0:0:0:0:0:0,#
*,type=HCHR_GRP00,param=chr_Dewey:face:ai:$FACE_FadeTime:0:0:0:0:0:0:0,#
*,type=HCHR_TK10,msg=<speed=9>……クゥ～ン。,param=chr_Dewey:Left:BASIC:0:0:0:0:0:0:OFS$0&180:0,#
*,type=HCHR_TK01,param=all:0:0:0:0:0:0:0:0:0:0,#
*,type=HCHR_FDM00,param=all:MSK$on:0:0:0:0:0:0:0:0:0,#
*,type=HCHR_FDM00,param=chr_Lin:MSK$off:0:0:0:0:0:0:0:0:0,#
*,type=HCHR_GRP00,param=chr_Lin:face:ai:0:0:0:0:0:0:0:0,#
*,type=HCHR_POS00,param=chr_Lin:IN$right:T$0.5:$OFS_Right:0:0:0:0:0:0:0,#
*,type=WAIT_0000,param=0.5:0:0:0:0:0:0:0:0:0:0,#
*,type=HCHR_TK10,msg=匂いでは辿れないか……,param=chr_Lin:Right:BASIC:0:0:0:0:0:0:OFS$0&180:0,#
*,type=HCHR_TK01,param=all:skipmask:0:0:0:0:0:0:0:0:0,#
*,type=HCHR_POS00,param=chr_Lin:FADEOUT:T$0.3:0:0:0:0:0:0:0:0,#
*,type=HCHR_POS00,param=chr_Dewey:FADEOUT:T$0.3:0:0:0:0:0:0:0:0,#
*,type=STOP,param=0:0:0:0:0:0:0:0:0:0:0,#
*,type=WAIT_0000,param=0.5:0:0:0:0:0:0:0:0:0:0,#
*,type=HCHR_FDM00,param=all:MSK$off:0:0:0:0:0:0:0:0:0,#
*,type=HCHR_POS00,param=chr_Loy:FADEIN:$CHARA_FadeTime:$OFS_Right:0:0:0:0:0:0:0,#
*,type=SS5_0000,param=SS_monitor:script_monitor.ssbp:script_monitor_closeonly/anime:script_monitor_closeonly/anime:8:$Monitor_Left:$Monitor_Y:1:0:0:0,#
*,type=SS5_0000,param=SS_monitorBG:script_monitor.ssbp:script_monitor_closeonly_back/anime:script_monitor_closeonly_back/anime:4:$Monitor_Left:$Monitor_Y:1:0:0:0,#
*,type=SS5_0000,param=SS_monitorNoise:script_monitor.ssbp:monitor_noise/anime:monitor_noise/anime:6:$Monitor_Left:$Monitor_Y:0:0:0:0,#
*,type=SE_0000,param=366:0:0:0:0:0:0:0:0:0:0,#
*,type=WAIT_0000,param=0.5:0:0:0:0:0:0:0:0:0:0,#
*,type=STOP,param=0:0:0:0:0:0:0:0:0:0:0,#
*,type=HCHR_POS00,param=chr_Noel:FADEIN:$CHARA_FadeTime:$OFS_Left:0:0:0:0:0:0:0,#
*,type=STOP,param=0:0:0:0:0:0:0:0:0:0:0,#
*,type=WAIT_0000,param=0.3:0:0:0:0:0:0:0:0:0:0,#
*,type=HCHR_POS00,param=chr_Noel:FADEOUT:T$0:0:0:0:0:0:0:0:0,#
*,type=WAIT_0000,param=0.1:0:0:0:0:0:0:0:0:0:0,#
*,type=HCHR_POS00,param=chr_Noel:FADEIN:T$0:$OFS_Left:0:0:0:0:0:0:0,#
*,type=WAIT_0000,param=0.1:0:0:0:0:0:0:0:0:0:0,#
*,type=HCHR_POS00,param=chr_Noel:FADEOUT:T$0:0:0:0:0:0:0:0:0,#
*,type=WAIT_0000,param=0.1:0:0:0:0:0:0:0:0:0:0,#
*,type=HCHR_POS00,param=chr_Noel:FADEIN:T$0:$OFS_Left:0:0:0:0:0:0:0,#
*,type=STOP,param=0:0:0:0:0:0:0:0:0:0:0,#
*,type=WAIT_0000,param=0.5:0:0:0:0:0:0:0:0:0:0,#
*,type=HCHR_TK10,msg=ノエルさん、<wait=1>聞こえますか？,param=chr_Loy:Right:BASIC:0:0:0:0:0:0:0:0,#
*,type=HCHR_TK01,param=all:0:0:0:0:0:0:0:0:0:0,#
*,type=HCHR_FDM00,param=chr_Loy:MSK$on:0:0:0:0:0:0:0:0:0,#
*,type=SE_0000,param=366:0:0:0:0:0:0:0:0:0:0,#
*,type=HCHR_POS00,param=chr_Noel:FADEOUT:T$0:0:0:0:0:0:0:0:0,#
*,type=WAIT_0000,param=0.1:0:0:0:0:0:0:0:0:0:0,#
*,type=HCHR_POS00,param=chr_Noel:FADEIN:T$0:$OFS_Left:0:0:0:0:0:0:0,#
*,type=WAIT_0000,param=0.1:0:0:0:0:0:0:0:0:0:0,#
*,type=HCHR_POS00,param=chr_Noel:FADEOUT:T$0:0:0:0:0:0:0:0:0,#
*,type=WAIT_0000,param=0.1:0:0:0:0:0:0:0:0:0:0,#
*,type=HCHR_POS00,param=chr_Noel:FADEIN:T$0:$OFS_Left:0:0:0:0:0:0:0,#
*,type=HCHR_TK10,msg=聞こえるけど、<wait=1>画像がかなり不鮮明だ。<wait=3><br>なるべく状況を口頭で聞かせてほしい。,param=chr_Noel:Left:BASIC:0:0:0:0:0:0:0:0,#
*,type=HCHR_TK10,msg=了解しました。,param=chr_Loy:Right:BASIC:0:0:0:0:0:0:0:0,#
*,type=HCHR_TK10,msg=ティリス様の助けを受けて<br>七魔将のひとりを撃退後,param=chr_Loy:Right:BASIC:0:0:0:0:0:0:0:0,#
*,type=HCHR_TK10,msg=さらに上層へと進んだんですが<wait=1><br>道が二手に分かれており――,param=chr_Loy:Right:BASIC:0:0:0:0:0:0:0:0,#
*,type=BGM_0001,param=1.5:0:0:0:0:0:0:0:0:0:0,#
*,type=HCHR_GRP00,param=chr_Noel:face:bi:$FACE_FadeTime:0:0:0:0:0:0:0,#
*,type=HCHR_TK10,msg=うわ、<wait=1>ちょっと何――,param=chr_Noel:Left:BASIC:0:0:0:0:0:0:0:0,#
*,type=HCHR_TK01,param=all:skipmask:0:0:0:0:0:0:0:0:0,#
*,type=HCHR_GRP00,param=chr_Loy:face:bi:$FACE_FadeTime:0:0:0:0:0:0:0,#
*,type=SE_0000,param=366:0:0:0:0:0:0:0:0:0:0,#
*,type=HCHR_POS00,param=chr_Noel:FADEOUT:T$0:0:0:0:0:0:0:0:0,#
*,type=WAIT_0000,param=0.1:0:0:0:0:0:0:0:0:0:0,#
*,type=HCHR_POS00,param=chr_Noel:FADEIN:T$0:$OFS_Left:0:0:0:0:0:0:0,#
*,type=WAIT_0000,param=0.1:0:0:0:0:0:0:0:0:0:0,#
*,type=HCHR_POS00,param=chr_Noel:FADEOUT:T$0:0:0:0:0:0:0:0:0,#
*,type=WAIT_0000,param=0.1:0:0:0:0:0:0:0:0:0:0,#
*,type=HCHR_FDM00,param=chr_Karl:MSK$off:0:0:0:0:0:0:0:0:0,#
*,type=HCHR_GRP00,param=chr_Karl:face:emi:0:0:0:0:0:0:0:0,#
*,type=HCHR_POS00,param=chr_Karl:FADEIN:T$0:$OFS_Left:0:0:0:0:0:0:0,#
*,type=STOP,param=0:0:0:0:0:0:0:0:0:0:0,#
*,type=WAIT_0000,param=0.3:0:0:0:0:0:0:0:0:0:0,#
*,type=BGM_0000,param=58:1.5:0.5:0:0:0:0:0:0:0:0,#
*,type=HCHR_TK10,msg=<speed=3>あいつに会ったんだって？<wait=3><br>元気だったか!?,param=chr_Karl:Left:BASIC:0:0:0:0:0:0:0:0,#
*,type=HCHR_GRP00,param=chr_Karl:face:ai:$FACE_FadeTime:0:0:0:0:0:0:0,#
*,type=HCHR_TK10,msg=あいつら、<wait=1>ちっとも顔見せないからな……,param=chr_Karl:Left:BASIC:0:0:0:0:0:0:0:0,#
*,type=HCHR_GRP00,param=chr_Karl:face:emi:$FACE_FadeTime:0:0:0:0:0:0:0,#
*,type=HCHR_TK10,msg=<speed=3>そうだ！</speed><wait=3><br>俺のことは何か言ってなかったか？,param=chr_Karl:Left:BASIC:0:0:0:0:0:0:0:0,#
*,type=HCHR_TK01,param=all:0:0:0:0:0:0:0:0:0:0,#
*,type=HCHR_POS00,param=chr_Loy:FADEOUT:T$0.1:0:0:0:0:0:0:0:0,#
*,type=HCHR_POS00,param=chr_Lugina:FADEIN:T$0.3:$OFS_Right:0:0:0:0:0:0:0,#
*,type=STOP,param=0:0:0:0:0:0:0:0:0:0:0,#
*,type=HCHR_TK10,msg=あいつの話なら、<wait=1>帰ってから<br>たっぷり聞かせてやるよ、<wait=1><speed=7>召<wait=1>喚<wait=1>老<wait=1>殿。,param=chr_Lugina:Right:BASIC:0:0:0:0:0:0:0:0,#
*,type=HCHR_TK01,param=all:skipmask:0:0:0:0:0:0:0:0:0,#
*,type=HCHR_GRP00,param=chr_Karl:face:bi:$FACE_FadeTime:0:0:0:0:0:0:0,#
*,type=HCHR_TK10,msg=<speed=7>あ……<wait=3>あぁ、<wait=1>そうだな。</speed><wait=3><br><ctag=CHRCHG_PT:chr_Karl:face:fu:->……ゴホン。<wait=3>失礼した。,param=chr_Karl:Left:BASIC:0:0:0:0:0:0:0:0,#
*,type=BGM_0001,param=1.5:0:0:0:0:0:0:0:0:0:0,#
*,type=BGM_0000,param=34:1.5:1.5:0:0:0:0:0:0:0:0,#
*,type=HCHR_TK10,msg=で、<wait=1>この先の道を<br>そっちでナビできるか？,param=chr_Lugina:Right:BASIC:0:0:0:0:0:0:0:0,#
*,type=HCHR_TK01,param=all:0:0:0:0:0:0:0:0:0:0,#
*,type=HCHR_POS00,param=chr_Karl:FADEOUT:T$0.1:0:0:0:0:0:0:0:0,#
*,type=HCHR_GRP00,param=chr_Noel:face:fu:0:0:0:0:0:0:0:0,#
*,type=HCHR_POS00,param=chr_Noel:FADEIN:T$0.3:$OFS_Left:0:0:0:0:0:0:0,#
*,type=STOP,param=0:0:0:0:0:0:0:0:0:0:0,#
*,type=WAIT_0000,param=0.1:0:0:0:0:0:0:0:0:0:0,#
*,type=SE_0000,param=366:0:0:0:0:0:0:0:0:0:0,#
*,type=HCHR_POS00,param=chr_Noel:FADEOUT:T$0:0:0:0:0:0:0:0:0,#
*,type=WAIT_0000,param=0.1:0:0:0:0:0:0:0:0:0:0,#
*,type=HCHR_POS00,param=chr_Noel:FADEIN:T$0:$OFS_Left:0:0:0:0:0:0:0,#
*,type=WAIT_0000,param=0.1:0:0:0:0:0:0:0:0:0:0,#
*,type=HCHR_POS00,param=chr_Noel:FADEOUT:T$0:0:0:0:0:0:0:0:0,#
*,type=WAIT_0000,param=0.1:0:0:0:0:0:0:0:0:0:0,#
*,type=HCHR_POS00,param=chr_Noel:FADEIN:T$0:$OFS_Left:0:0:0:0:0:0:0,#
*,type=HCHR_TK10,msg=……<wait=1>残念ながら今すぐは難しいね。,param=chr_Noel:Left:BASIC:0:0:0:0:0:0:0:0,#
*,type=HCHR_TK10,msg=さっきから奴らの召喚兵器をハッキング<br>して、<wait=1>色々調べてるんだけど,param=chr_Noel:Left:BASIC:0:0:0:0:0:0:0:0,#
*,type=HCHR_TK10,msg=城の構造に関するデータが不揃いなんだ。<wait=3><br>特に<wait=1>その先の情報が丸ごと抜け落ちてる。,param=chr_Noel:Left:BASIC:0:0:0:0:0:0:0:0,#
*,type=HCHR_GRP00,param=chr_Noel:face:ai:$FACE_FadeTime:0:0:0:0:0:0:0,#
*,type=HCHR_TK10,msg=<speed=7>一体何を隠してるんだか……,param=chr_Noel:Left:BASIC:0:0:0:0:0:0:0:0,#
*,type=HCHR_TK01,param=all:skipmask:0:0:0:0:0:0:0:0:0,#
*,type=SE_0000,param=366:0:0:0:0:0:0:0:0:0:0,#
*,type=HCHR_POS00,param=chr_Noel:FADEOUT:T$0:0:0:0:0:0:0:0:0,#
*,type=WAIT_0000,param=0.1:0:0:0:0:0:0:0:0:0:0,#
*,type=HCHR_GRP00,param=chr_Noel:face:fu:$FACE_FadeTime:0:0:0:0:0:0:0,#
*,type=HCHR_POS00,param=chr_Noel:FADEIN:T$0:$OFS_Left:0:0:0:0:0:0:0,#
*,type=WAIT_0000,param=0.1:0:0:0:0:0:0:0:0:0:0,#
*,type=HCHR_POS00,param=chr_Noel:FADEOUT:T$0:0:0:0:0:0:0:0:0,#
*,type=WAIT_0000,param=0.1:0:0:0:0:0:0:0:0:0:0,#
*,type=HCHR_POS00,param=chr_Noel:FADEIN:T$0:$OFS_Left:0:0:0:0:0:0:0,#
*,type=HCHR_TK10,msg=というわけで、<wait=1>全貌を解明するには<br>もう少し時間が欲しい。,param=chr_Noel:Left:BASIC:0:0:0:0:0:0:0:0,#
*,type=HCHR_TK01,param=all:skipmask:0:0:0:0:0:0:0:0:0,#
*,type=HCHR_POS00,param=chr_Lugina:FADEOUT:T$0.1:0:0:0:0:0:0:0:0,#
*,type=STOP,param=0:0:0:0:0:0:0:0:0:0:0,#
*,type=HCHR_FDM00,param=all:MSK$on:0:0:0:0:0:0:0:0:0,#
*,type=HCHR_FDM00,param=chr_Lin:MSK$off:0:0:0:0:0:0:0:0:0,#
*,type=HCHR_GRP00,param=chr_Lin:face:mu:0:0:0:0:0:0:0:0,#
*,type=HCHR_POS00,param=chr_Lin:FADEIN:T$0.3:$OFS_Right:0:0:0:0:0:0:0,#
*,type=STOP,param=0:0:0:0:0:0:0:0:0:0:0,#
*,type=HCHR_TK10,msg=……<wait=1>色々調べてくれてありがとう。<wait=3><br>でも、<wait=1>きっとあともう少しなの。,param=chr_Lin:Right:BASIC:0:0:0:0:0:0:0:0,#
*,type=HCHR_GRP00,param=chr_Lin:face:do:$FACE_FadeTime:0:0:0:0:0:0:0,#
*,type=HCHR_TK10,msg=自力で先生たちを探すわ！<wait=3><br>行こう、<wait=1><rep_handlename>っ！,param=chr_Lin:Right:BASIC:0:0:0:0:0:0:0:0,#
*,type=HCHR_TK01,param=all:skipmask:0:0:0:0:0:0:0:0:0,#
*,type=SS5_0001,param=SS_monitor:0:0:0:0:0:0:0:0:0:0,#
*,type=SS5_0001,param=SS_monitorBG:0:0:0:0:0:0:0:0:0:0,#
*,type=SS5_0001,param=SS_monitorNoise:0:0:0:0:0:0:0:0:0:0,#
*,type=HCHR_POS00,param=chr_Noel:FADEOUT:T$0.0:0:0:0:0:0:0:0:0,#
*,type=STOP,param=0:0:0:0:0:0:0:0:0:0:0,#
*,type=SE_0000,param=344:0:0:0:0:0:0:0:0:0:0,#
*,type=HCHR_POS00,param=chr_Lin:IN$right$160:T$0.2:$OFS_Left:0:0:0:0:0:0:0,#
*,type=WAIT_0000,param=0.2:0:0:0:0:0:0:0:0:0:0,#
*,type=SE_0000,param=344:0:0:0:0:0:0:0:0:0:0,#
*,type=HCHR_GRP00,param=chr_Sarsha:face:bi:0:0:0:0:0:0:0:0,#
*,type=HCHR_POS00,param=chr_Sarsha:IN$right$160:T$0.2:$OFS_Right:0:0:0:0:0:0:0,#
*,type=STOP,param=0:0:0:0:0:0:0:0:0:0:0,#
*,type=HCHR_TK10,msg=<speed=3>待って！,param=chr_Sarsha:Right:BASIC:0:0:0:0:0:0:0:0,#
*,type=HCHR_GRP00,param=chr_Lin:face:mu:$FACE_FadeTime:0:0:0:0:0:0:0,#
*,type=HCHR_GRP00,param=chr_Sarsha:face:ai:$FACE_FadeTime:0:0:0:0:0:0:0,#
*,type=HCHR_TK10,msg=やみくもに進んでも、<wait=1>却って<br>遠回りになっちゃうってこともあるわ。,param=chr_Sarsha:Right:BASIC:0:0:0:0:0:0:0:0,#
*,type=HCHR_TK10,msg=急いでる時こそ、<wait=1>落ち着いて……<wait=3>ね？,param=chr_Sarsha:Right:BASIC:0:0:0:0:0:0:0:0,#
*,type=HCHR_TK01,param=all:0:0:0:0:0:0:0:0:0:0,#
*,type=HCHR_FDM00,param=chr_Sarsha:MSK$on:0:0:0:0:0:0:0:0:0,#
*,type=HCHR_GRP00,param=chr_Lin:face:ai:$FACE_FadeTime:0:0:0:0:0:0:0,#
*,type=HCHR_EFC00,param=Eff_Manp_16:chr_Lin:manpu_1:0:SS5$$MANP_surprise_black_d:0:0:0:0:0:0,#
*,type=WAIT_0000,param=1:0:0:0:0:0:0:0:0:0:0,#
*,type=PICT_0004,param=Eff_Manp_16:0:0:0:0:0:0:0:0:0:0,#
*,type=HCHR_TK10,msg=<speed=7>う、<wait=1>うん……<wait=3>そうよね。<wait=3><br>ごめん。,param=chr_Lin:Left:BASIC:0:0:0:0:0:0:0:0,#
*,type=HCHR_TK01,param=all:skipmask:0:0:0:0:0:0:0:0:0,#
*,type=HCHR_POS00,param=chr_Lin:FADEOUT:T$0.1:0:0:0:0:0:0:0:0,#
*,type=HCHR_POS00,param=chr_Sarsha:FADEOUT:T$0.1:0:0:0:0:0:0:0:0,#
*,type=STOP,param=0:0:0:0:0:0:0:0:0:0:0,#
*,type=HCHR_FDM00,param=all:MSK$off:0:0:0:0:0:0:0:0:0,#
*,type=HCHR_FDM00,param=chr_Lugina:MSK$on:0:0:0:0:0:0:0:0:0,#
*,type=HCHR_POS00,param=chr_Lugina:FADEIN:T$0.3:$OFS_Right:0:0:0:0:0:0:0,#
*,type=HCHR_POS00,param=chr_Hans:FADEIN:T$0.3:$OFS_Left:0:0:0:0:0:0:0,#
*,type=STOP,param=0:0:0:0:0:0:0:0:0:0:0,#
*,type=HCHR_TK10,msg=ルジーナ様。<wait=3><br>偵察のご命令を。,param=chr_Hans:Left:BASIC:0:0:0:0:0:0:0:0,#
*,type=HCHR_TK10,msg=いや、<wait=1>そこまで慎重になっている<br>場合でもない。,param=chr_Lugina:Right:BASIC:0:0:0:0:0:0:0:0,#
*,type=HCHR_TK10,msg=この先、<wait=1>満足に通信できる保証もないしな。,param=chr_Lugina:Right:BASIC:0:0:0:0:0:0:0:0,#
*,type=HCHR_TK01,param=all:skipmask:0:0:0:0:0:0:0:0:0,#
*,type=HCHR_POS00,param=chr_Hans:T$0.2:$CHARA_FadeTime:0:0:0:0:0:0:0:0,#
*,type=SS5_0000,param=SS_monitor:script_monitor.ssbp:script_monitor_closeonly/anime:script_monitor_closeonly/anime:8:$Monitor_Left:$Monitor_Y:1:0:0:0,#
*,type=SS5_0000,param=SS_monitorBG:script_monitor.ssbp:script_monitor_closeonly_back/anime:script_monitor_closeonly_back/anime:4:$Monitor_Left:$Monitor_Y:1:0:0:0,#
*,type=SS5_0000,param=SS_monitorNoise:script_monitor.ssbp:monitor_noise/anime:monitor_noise/anime:6:$Monitor_Left:$Monitor_Y:0:0:0:0,#
*,type=HCHR_POS00,param=chr_Noel:FADEIN:$CHARA_FadeTime:$OFS_Left:0:0:0:0:0:0:0,#
*,type=SE_0000,param=366:0:0:0:0:0:0:0:0:0:0,#
*,type=STOP,param=0:0:0:0:0:0:0:0:0:0:0,#
*,type=HCHR_TK10,msg=恐らく通信障害はさらに酷くなるだろうね。,param=chr_Noel:Left:BASIC:0:0:0:0:0:0:0:0,#
*,type=HCHR_TK10,msg=狭い道をこの人数でぞろぞろ行くのも<br>馬鹿らしい。,param=chr_Lugina:Right:BASIC:0:0:0:0:0:0:0:0,#
*,type=HCHR_GRP00,param=chr_Lugina:face:emi:$FACE_FadeTime:0:0:0:0:0:0:0,#
*,type=HCHR_TK10,msg=それに、<wait=1>幸いなことに<wait=1><br>ここには召喚老がふたりも揃ってる。,param=chr_Lugina:Right:BASIC:0:0:0:0:0:0:0:0,#
*,type=HCHR_GRP00,param=chr_Lugina:face:fu:$FACE_FadeTime:0:0:0:0:0:0:0,#
*,type=HCHR_TK10,msg=俺とセリア、<wait=1>ふたつのチームに分かれて<br>進むぞ。,param=chr_Lugina:Right:BASIC:0:0:0:0:0:0:0:0,#
*,type=HCHR_TK01,param=all:skipmask:0:0:0:0:0:0:0:0:0,#
*,type=SS5_0001,param=SS_monitor:0:0:0:0:0:0:0:0:0:0,#
*,type=SS5_0001,param=SS_monitorBG:0:0:0:0:0:0:0:0:0:0,#
*,type=SS5_0001,param=SS_monitorNoise:0:0:0:0:0:0:0:0:0:0,#
*,type=HCHR_POS00,param=chr_Noel:FADEOUT:T$0.0:0:0:0:0:0:0:0:0,#
*,type=HCHR_POS00,param=chr_Lugina:FADEOUT:T$0.0:0:0:0:0:0:0:0:0,#
*,type=HCHR_FDM00,param=all:MSK$off:0:0:0:0:0:0:0:0:0,#
*,type=HCHR_POS00,param=chr_Seria:FADEIN:T$0.3:$OFS_Center:0:0:0:0:0:0:0,#
*,type=STOP,param=0:0:0:0:0:0:0:0:0:0:0,#
*,type=HCHR_TK10,msg=そうね、<wait=1>異論ないわ。<wait=3><br>状況を考えればそれが一番ね。,param=chr_Seria:Center:BASIC:0:0:0:0:0:0:0:0,#
*,type=HCHR_TK10,msg=<rep_handlename>、<wait=1>リン。<wait=3><br>問題ないわよね？,param=chr_Seria:Center:BASIC:0:0:0:0:0:0:0:0,#
*,type=HCHR_TK01,param=all:0:0:0:0:0:0:0:0:0:0,#
*,type=HCHR_POS00,param=chr_Seria:FADEOUT:T$0.1:0:0:0:0:0:0:0:0,#
*,type=HCHR_FDM00,param=chr_Dewey:MSK$on:0:0:0:0:0:0:0:0:0,#
*,type=HCHR_GRP00,param=chr_Lin:face:fu:0:0:0:0:0:0:0:0,#
*,type=HCHR_GRP00,param=chr_Dewey:face:fu:0:0:0:0:0:0:0:0,#
*,type=HCHR_POS00,param=chr_Lin:FADEIN:T$0.3:$OFS_Right:0:0:0:0:0:0:0,#
*,type=HCHR_POS00,param=chr_Dewey:FADEIN:T$0.3:OFS$-70&0:0:0:0:0:0:0:0,#
*,type=STOP,param=0:0:0:0:0:0:0:0:0:0:0,#
*,type=HCHR_TK10,msg=<speed=3>うんっ!!,param=chr_Lin:Right:BASIC:0:0:0:0:0:0:OFS$0&180:0,#
*,type=HCHR_TK01,param=all:0:0:0:0:0:0:0:0:0:0,#
*,type=HCHR_POS00,param=chr_Lin:FADEOUT:T$0.1:0:0:0:0:0:0:0:0,#
*,type=HCHR_POS00,param=chr_Dewey:FADEOUT:T$0.1:0:0:0:0:0:0:0:0,#
*,type=HCHR_POS00,param=chr_Lugina:FADEIN:T$0.3:$OFS_Center:0:0:0:0:0:0:0,#
*,type=STOP,param=0:0:0:0:0:0:0:0:0:0:0,#
*,type=HCHR_TK10,msg=よし。<wait=3><br>じゃあ、<wait=1>俺の方には――,param=chr_Lugina:Center:BASIC:0:0:0:0:0:0:0:0,#
*,type=HCHR_TK01,param=all:0:0:0:0:0:0:0:0:0:0,#
*,type=HCHR_FDM00,param=chr_Lugina:MSK$on:0.3:0:0:0:0:0:0:0:0,#
*,type=SE_0000,param=316:0:0:0:0:0:0:0:0:0:0,#
*,type=BGM_0001,param=0:0:0:0:0:0:0:0:0:0:0,#
*,type=WAIT_0000,param=1.5:0:0:0:0:0:0:0:0:0:0,#
*,type=BGM_0000,param=43:0:0:0:0:0:0:0:0:0:0,#
*,type=HCHR_POS00,param=chr_Lugina:FADEOUT:T$0.1:0:0:0:0:0:0:0:0,#
*,type=SE_0001,param=0:345:0:0.2:1:0:0:0:0:0:0,#
*,type=HCHR_POS00,param=chr_Mob1:IN$Left:T$0.3:$OFS_Left:0:0:0:0:0:0:0,#
*,type=HCHR_POS00,param=chr_Mob2:IN$Right:T$0.3:$OFS_Right:0:0:0:0:0:0:0,#
*,type=STOP,param=0:0:0:0:0:0:0:0:0:0:0,#
*,type=WAIT_0000,param=1.5:0:0:0:0:0:0:0:0:0:0,#
*,type=HCHR_POS00,param=chr_Mob1:FADEOUT:T$0.1:0:0:0:0:0:0:0:0,#
*,type=HCHR_POS00,param=chr_Mob2:FADEOUT:T$0.1:0:0:0:0:0:0:0:0,#
*,type=STOP,param=0:0:0:0:0:0:0:0:0:0:0,#
*,type=HCHR_FDM00,param=all:MSK$off:0:0:0:0:0:0:0:0:0,#
*,type=HCHR_POS00,param=chr_Lugina:FADEIN:T$0.3:$OFS_Right:0:0:0:0:0:0:0,#
*,type=WAIT_0000,param=0.5:0:0:0:0:0:0:0:0:0:0,#
*,type=SE_0000,param=344:0:0:0:0:0:0:0:0:0:0,#
*,type=HCHR_PRM00,param=chr_Hans:XFLIP$RESET:0:0:0:0:0:0:0:0:0,#
*,type=HCHR_GRP00,param=chr_Hans:face:do:0:0:0:0:0:0:0:0,#
*,type=HCHR_POS00,param=chr_Hans:IN$right$160:T$0.2:$OFS_Left:0:0:0:0:0:0:0,#
*,type=STOP,param=0:0:0:0:0:0:0:0:0:0:0,#
*,type=WAIT_0000,param=0.5:0:0:0:0:0:0:0:0:0:0,#
*,type=HCHR_TK10,msg=――と。<wait=3><br>先に訪問の挨拶でもしとくか。,param=chr_Lugina:Right:BASIC:0:0:0:0:0:0:0:0,#
*,type=HCHR_TK01,param=all:skipmask:0:0:0:0:0:0:0:0:0,#
*,type=FADEOUT_000,param=1.5:$BGBLACK_Color:0:0:0:0:0:0:0:0:0,#
*,type=BGM_0001,param=1.5:0:0:0:0:0:0:0:0:0:0,#
*,type=WAIT_0000,param=2:0:0:0:0:0:0:0:0:0:0,#
*,type=CLSNE_0000,param=0:0:0:0:0:0:0:0:0:0:0,#

*,type=SYSED_00,param=0:0:0:0:0:0:0:0:0:0:0,#



