﻿ScriptCmd ver 1.1.1(app1.0.4):スクリプト_10_受け継がれる想い_クエスト05.xlsm/main014-dungeon5-10_library/main014-dungeon5-10_library.csv

*,type=SYSST_00,param=0:0:0:0:0:0:0:0:0:0:0,#
*,type=CMD_STOP,param=0:0:0:0:0:0:0:0:0:0:0,#
*,type=SYSST_01,param=0:0:0:0:0:0:0:0:0:0:0,#


*,type=MSKS_0000,param=bgBlackMask:$BGBLACK_Color:0:Z$50:T$0:0:0:0:0:0:0,#
*,type=PICT_0000,param=bg_01:battle_bg_018_04.jpg:1:bg$1051104:0:0:0:2:0:0:0,#
*,type=BGM_0000,param=1020:1.5:0:0:0:0:0:0:0:0:0,#
*,type=HCHR_ENT00,param=chr_Legend:伝説の召喚師:N$chara_bf2_173:$POS_Center:TYPE$middle:Z$10:0:0:0:0:0,#
*,type=HCHR_ENT00,param=chr_Lin:リン:N$chara_bf2_25:$POS_Center:TYPE$middle:Z$10:0:0:0:0:0,#
*,type=HCHR_ENT00,param=chr_Dewey:デューイ:N$tame_wolf_16:$POS_Center:TYPE$middle:Z$10:0:0:0:0:0,#
*,type=HCHR_ENT00,param=chr_Lestalk:レストーク:N$chara_bf2_219:$POS_Center:TYPE$middle:Z$10:0:XFLIP$SET:0:0:0,#
*,type=HCHR_ENT00,param=chr_Nizel:ナイゼル:N$chara_bf2_217:$POS_Center:TYPE$middle:Z$10:0:XFLIP$SET:0:0:0,#
*,type=HCHR_ENT00,param=chr_Lugina:ルジーナ:N$chara_bf2_14:$POS_Center:TYPE$middle:Z$10:0:XFLIP$SET:0:0:0,#
*,type=HCHR_ENT00,param=chr_Hans:ハンス:N$chara_bf2_22:$POS_Center:TYPE$middle:Z$10:0:0:0:0:0,#
*,type=STOP,param=0:0:0:0:0:0:0:0:0:0:0,#
*,type=HCHR_FDM00,param=all:MSK$off:0:0:0:0:0:0:0:0:0,#
*,type=HCHR_FDM00,param=chr_Nizel:MSK$on:0:0:0:0:0:0:0:0:0,#
*,type=HCHR_PRM00,param=chr_Nizel:Z$10:0:0:0:0:0:0:0:0:0,#
*,type=HCHR_PRM00,param=chr_Lestalk:Z$11:0:0:0:0:0:0:0:0:0,#
*,type=HCHR_GRP00,param=chr_Nizel:face:ku:0:0:0:0:0:0:0:0,#
*,type=HCHR_GRP00,param=chr_Lestalk:face:ai:0:0:0:0:0:0:0:0,#
*,type=HCHR_POS00,param=chr_Lestalk:FADEIN:T$0:OFS$-110&0:0:0:0:0:0:0:0,#
*,type=HCHR_POS00,param=chr_Nizel:FADEIN:T$0:OFS$110&0:0:0:0:0:0:0:0,#
*,type=MSKS_0002,param=bgBlackMask:T$1.5:0:0:0:0:0:0:0:0:0,#
*,type=WAIT_0000,param=2.5:0:0:0:0:0:0:0:0:0:0,#
*,type=STOP,param=0:0:0:0:0:0:0:0:0:0:0,#
*,type=HCHR_SHK00,param=chr_Lestalk:6:0.05:0.2:0:0:0:0:0:0:0,#
*,type=HCHR_POS00,param=chr_Lestalk:OFS$0&20:T$0.3:0:0:0:0:0:0:0:0,#
*,type=WAIT_0000,param=0.4:0:0:0:0:0:0:0:0:0:0,#
*,type=HCHR_TK10,msg=<speed=12>ナイ……<wait=3>ゼル…………<wait=3>お前…………,param=chr_Lestalk:Left:BASIC:0:0:0:0:0:0:0:0,#
*,type=HCHR_TK01,param=all:skipmask:0:0:0:0:0:0:0:0:0,#
*,type=HCHR_FDM00,param=chr_Nizel:MSK$off:0:0:0:0:0:0:0:0:0,#
*,type=HCHR_FDM00,param=chr_Lestalk:MSK$on:0:0:0:0:0:0:0:0:0,#
*,type=HCHR_TK10,msg=<speed=9>もういい……<wait=3>もういいんだ、<wait=1.5>レストーク……,param=chr_Nizel:Right:BASIC:0:0:0:focusoff:0:0:0:0,#
*,type=HCHR_TK01,param=all:skipmask:0:0:0:0:0:0:0:0:0,#
*,type=HCHR_TK10,msg=<speed=9>……………………………………,param=chr_Lestalk:Left:BASIC:0:0:0:0:0:0:0:0,#
*,type=HCHR_TK01,param=all:skipmask:0:0:0:0:0:0:0:0:0,#
*,type=WAIT_0000,param=0.3:0:0:0:0:0:0:0:0:0:0,#
*,type=HCHR_FDM00,param=chr_Nizel:MSK$off:1.5:0:0:0:0:0:0:0:0,#
*,type=HCHR_FDM00,param=chr_Lestalk:MSK$on:1.5:0:0:0:0:0:0:0:0,#
*,type=HCHR_SHK00,param=chr_Lestalk:6:0.3:1:0:0:0:0:0:0:0,#
*,type=HCHR_POS00,param=chr_Lestalk:OUT$bottom:T$1.5:0:0:0:0:0:0:0:0,#
*,type=STOP,param=0:0:0:0:0:0:0:0:0:0:0,#
*,type=SE_0000,param=314:0:0:0:0:0:0:0:0:0:0,#
*,type=WAIT_0000,param=1.5:0:0:0:0:0:0:0:0:0:0,#
*,type=HCHR_GRP00,param=chr_Nizel:face:ai:$FACE_FadeTime:0:0:0:0:0:0:0,#
*,type=HCHR_SHK00,param=chr_Nizel:6:0.05:0.1:0:0:0:0:0:0:0,#
*,type=WAIT_0000,param=0.1:0:0:0:0:0:0:0:0:0:0,#
*,type=HCHR_POS00,param=chr_Nizel:OFS$-110&100:T$0.3:0:0:0:0:0:0:0:0,#
*,type=STOP,param=0:0:0:0:0:0:0:0:0:0:0,#
*,type=HCHR_FDM00,param=all:MSK$off:0:0:0:0:0:0:0:0:0,#
*,type=HCHR_PRM00,param=chr_Nizel:Z$10:0:0:0:0:0:0:0:0:0,#
*,type=HCHR_PRM00,param=chr_Lugina:Z$11:0:0:0:0:0:0:0:0:0,#
*,type=HCHR_GRP00,param=chr_Legend:face:bi:0:0:0:0:0:0:0:0,#
*,type=HCHR_GRP00,param=chr_Lugina:face:do:0:0:0:0:0:0:0:0,#
*,type=SE_0000,param=345:0:0:0:0:0:0:0:0:0:0,#
*,type=HCHR_POS00,param=chr_Lugina:IN$left:T$0.1:OFS$-200&70:0:0:0:0:0:0:0,#
*,type=WAIT_0000,param=0.4:0:0:0:0:0:0:0:0:0:0,#
*,type=HCHR_POS00,param=chr_Lugina:OFS$40&-70:T$0.2:0:0:0:0:0:0:0:0,#
*,type=HCHR_POS00,param=chr_Nizel:OFS$30&-100:T$0.2:0:0:0:0:0:0:0:0,#
*,type=STOP,param=0:0:0:0:0:0:0:0:0:0:0,#
*,type=WAIT_0000,param=0.3:0:0:0:0:0:0:0:0:0:0,#
*,type=HCHR_FDM00,param=chr_Lugina:MSK$off:0:0:0:0:0:0:0:0:0,#
*,type=HCHR_FDM00,param=chr_Nizel:MSK$on:0:0:0:0:0:0:0:0:0,#
*,type=HCHR_FDM00,param=chr_Legend:MSK$on:0:0:0:0:0:0:0:0:0,#
*,type=HCHR_PRM00,param=chr_Legend:Z$10:0:0:0:0:0:0:0:0:0,#
*,type=HCHR_PRM00,param=chr_Nizel:Z$11:0:0:0:0:0:0:0:0:0,#
*,type=HCHR_PRM00,param=chr_Lugina:Z$12:0:0:0:0:0:0:0:0:0,#
*,type=HCHR_GRP00,param=chr_Legend:face:bi:0:0:0:0:0:0:0:0,#
*,type=SE_0000,param=345:0:0:0:0:0:0:0:0:0:0,#
*,type=HCHR_POS00,param=chr_Legend:IN$right:T$0.1:$OFS_Right_Triple:0:0:0:0:0:0:0,#
*,type=HCHR_TK10,msg=馬鹿野郎！<wait=3><br>お前って奴は……！,param=chr_Lugina:Left:BASIC:0:0:0:0:0:0:0:0,#
*,type=HCHR_TK01,param=all:skipmask:0:0:0:0:0:0:0:0:0,#
*,type=HCHR_POS00,param=chr_Nizel:FADEOUT:$CHARA_FadeTime:0:0:0:0:0:0:0:0,#
*,type=HCHR_POS00,param=chr_Lugina:FADEOUT:$CHARA_FadeTime:0:0:0:0:0:0:0:0,#
*,type=HCHR_POS00,param=chr_Legend:FADEOUT:$CHARA_FadeTime:0:0:0:0:0:0:0:0,#
*,type=STOP,param=0:0:0:0:0:0:0:0:0:0:0,#
*,type=HCHR_FDM00,param=all:MSK$off:0:0:0:0:0:0:0:0:0,#
*,type=HCHR_FDM00,param=chr_Dewey:MSK$on:0:0:0:0:0:0:0:0:0,#
*,type=HCHR_PRM00,param=chr_Dewey:Z$10:0:0:0:0:0:0:0:0:0,#
*,type=HCHR_PRM00,param=chr_Lin:Z$11:0:0:0:0:0:0:0:0:0,#
*,type=HCHR_GRP00,param=chr_Lin:face:kyou1:0:0:0:0:0:0:0:0,#
*,type=HCHR_GRP00,param=chr_Dewey:face:bi:0:0:0:0:0:0:0:0,#
*,type=SE_0001,param=0:345:0:0.3:2:0:0:0:0:0:0,#
*,type=WAIT_0000,param=0.6:0:0:0:0:0:0:0:0:0:0,#
*,type=HCHR_POS00,param=chr_Lin:IN$right:T$0.1:$OFS_Right:0:0:0:0:0:0:0,#
*,type=HCHR_POS00,param=chr_Dewey:IN$right:T$0.1:OFS$-70&0:0:0:0:0:0:0:0,#
*,type=STOP,param=0:0:0:0:0:0:0:0:0:0:0,#
*,type=HCHR_TK10,msg=ナイゼルさん！<wait=3><br>大丈夫なの!?,param=chr_Lin:Right:BASIC:0:0:0:0:0:0:OFS$0&180:0,#
*,type=HCHR_TK01,param=all:skipmask:0:0:0:0:0:0:0:0:0,#
*,type=HCHR_POS00,param=chr_Lin:FADEOUT:$CHARA_FadeTime:0:0:0:0:0:0:0:0,#
*,type=HCHR_POS00,param=chr_Dewey:FADEOUT:$CHARA_FadeTime:0:0:0:0:0:0:0:0,#
*,type=STOP,param=0:0:0:0:0:0:0:0:0:0:0,#
*,type=HCHR_FDM00,param=all:MSK$on:0:0:0:0:0:0:0:0:0,#
*,type=HCHR_FDM00,param=chr_Lugina:MSK$off:0:0:0:0:0:0:0:0:0,#
*,type=HCHR_PRM00,param=chr_Nizel:Z$10:0:0:0:0:0:0:0:0:0,#
*,type=HCHR_PRM00,param=chr_Lugina:Z$11:0:0:0:0:0:0:0:0:0,#
*,type=HCHR_PRM00,param=chr_Nizel:Z$12:0:0:0:0:0:0:0:0:0,#
*,type=HCHR_GRP00,param=chr_Lugina:face:ai:0:0:0:0:0:0:0:0,#
*,type=HCHR_GRP00,param=chr_Nizel:face:ai:0:0:0:0:0:0:0:0,#
*,type=HCHR_GRP00,param=chr_Legend:face:ku:0:0:0:0:0:0:0:0,#
*,type=HCHR_POS00,param=chr_Lugina:FADEIN:$CHARA_FadeTime:$OFS_Left:0:0:0:0:0:0:0,#
*,type=HCHR_POS00,param=chr_Nizel:FADEIN:$CHARA_FadeTime:OFS$30&0:0:0:0:0:0:0:0,#
*,type=HCHR_POS00,param=chr_Legend:FADEIN:$CHARA_FadeTime:$OFS_Right_Triple:0:0:0:0:0:0:0,#
*,type=STOP,param=0:0:0:0:0:0:0:0:0:0:0,#
*,type=HCHR_TK10,msg=傷はかなり深いな……<wait=3>だが<wait=1>急げば<br>なんとか助かるかもしれん。,param=chr_Lugina:Left:BASIC:0:0:0:focusoff:0:0:0:0,#
*,type=HCHR_TK01,param=all:skipmask:0:0:0:0:0:0:0:0:0,#
*,type=HCHR_GRP00,param=chr_Lugina:face:ku:$FACE_FadeTime:0:0:0:0:0:0:0,#
*,type=HCHR_TK10,msg=いや、<wait=1>こんな所で絶対に死なせねぇ。,param=chr_Lugina:Left:BASIC:0:0:0:focusoff:0:0:0:0,#
*,type=HCHR_TK01,param=all:skipmask:0:0:0:0:0:0:0:0:0,#
*,type=HCHR_GRP00,param=chr_Lugina:face:do:$FACE_FadeTime:0:0:0:0:0:0:0,#
*,type=HCHR_TK10,msg=おい、<wait=1>ハンス！<wait=3><br>すぐにノエルに連絡だ！,param=chr_Lugina:Left:BASIC:0:0:0:focusoff:0:0:0:0,#
*,type=HCHR_TK01,param=all:skipmask:0:0:0:0:0:0:0:0:0,#
*,type=HCHR_POS00,param=chr_Lugina:FADEOUT:$CHARA_FadeTime:0:0:0:0:0:0:0:0,#
*,type=HCHR_POS00,param=chr_Nizel:FADEOUT:$CHARA_FadeTime:0:0:0:0:0:0:0:0,#
*,type=HCHR_POS00,param=chr_Legend:FADEOUT:$CHARA_FadeTime:0:0:0:0:0:0:0:0,#
*,type=STOP,param=0:0:0:0:0:0:0:0:0:0:0,#
*,type=HCHR_FDM00,param=all:MSK$off:0:0:0:0:0:0:0:0:0,#
*,type=HCHR_POS00,param=chr_Hans:FADEIN:$CHARA_FadeTime:$OFS_Center:0:0:0:0:0:0:0,#
*,type=STOP,param=0:0:0:0:0:0:0:0:0:0:0,#
*,type=HCHR_TK10,msg=はっ！,param=chr_Hans:Center:BASIC:0:0:0:0:0:0:0:0,#
*,type=HCHR_TK01,param=all:skipmask:0:0:0:0:0:0:0:0:0,#
*,type=HCHR_POS00,param=chr_Hans:FADEOUT:T$0.3:0:0:0:0:0:0:0:0,#
*,type=STOP,param=0:0:0:0:0:0:0:0:0:0:0,#
*,type=WAIT_0000,param=1:0:0:0:0:0:0:0:0:0:0,#
*,type=SE_0000,param=306:0:0:0:0:0:0:0:0:0:0,#
*,type=WAIT_0000,param=3.8:0:0:0:0:0:0:0:0:0:0,#
*,type=HCHR_FDM00,param=all:MSK$on:0:0:0:0:0:0:0:0:0,#
*,type=HCHR_FDM00,param=chr_Nizel:MSK$off:0:0:0:0:0:0:0:0:0,#
*,type=HCHR_PRM00,param=chr_Nizel:Z$10:0:0:0:0:0:0:0:0:0,#
*,type=HCHR_PRM00,param=chr_Lugina:Z$11:0:0:0:0:0:0:0:0:0,#
*,type=HCHR_PRM00,param=chr_Nizel:Z$12:0:0:0:0:0:0:0:0:0,#
*,type=HCHR_GRP00,param=chr_Lugina:face:ai:0:0:0:0:0:0:0:0,#
*,type=HCHR_GRP00,param=chr_Nizel:face:ku:0:0:0:0:0:0:0:0,#
*,type=HCHR_GRP00,param=chr_Legend:face:ku:0:0:0:0:0:0:0:0,#
*,type=HCHR_POS00,param=chr_Lugina:FADEIN:T$0.3:$OFS_Left:0:0:0:0:0:0:0,#
*,type=HCHR_POS00,param=chr_Nizel:FADEIN:T$0.3:$OFS_Center:0:0:0:0:0:0:0,#
*,type=HCHR_POS00,param=chr_Legend:FADEIN:T$0.3:$OFS_Right:0:0:0:0:0:0:0,#
*,type=STOP,param=0:0:0:0:0:0:0:0:0:0:0,#
*,type=WAIT_0000,param=0.3:0:0:0:0:0:0:0:0:0:0,#
*,type=HCHR_TK10,msg=<speed=9>…………<wait=1>オリヴィア？<wait=3><br>そこにいるのか……？,param=chr_Nizel:Center:BASIC:0:0:0:0:0:0:0:0,#
*,type=HCHR_TK01,param=all:skipmask:0:0:0:0:0:0:0:0:0,#
*,type=HCHR_FDM00,param=chr_Lugina:MSK$off:0:0:0:0:0:0:0:0:0,#
*,type=HCHR_FDM00,param=chr_Nizel:MSK$on:0:0:0:0:0:0:0:0:0,#
*,type=HCHR_GRP00,param=chr_Lugina:face:ai:$FACE_FadeTime:0:0:0:0:0:0:0,#
*,type=HCHR_TK10,msg=くそっ、<wait=1>しっかりしろっ！,param=chr_Lugina:Left:BASIC:0:0:0:focusoff:0:0:0:0,#
*,type=HCHR_TK01,param=all:skipmask:0:0:0:0:0:0:0:0:0,#
*,type=HCHR_TK10,msg=<speed=9>大丈夫……<wait=3>です……<wait=3><br>彼らの分まで……<wait=3>生きなければ……,param=chr_Nizel:Center:BASIC:0:0:0:0:0:0:0:0,#
*,type=HCHR_TK01,param=all:skipmask:0:0:0:0:0:0:0:0:0,#
*,type=HCHR_POS00,param=chr_Lugina:FADEOUT:$CHARA_FadeTime:0:0:0:0:0:0:0:0,#
*,type=HCHR_POS00,param=chr_Nizel:FADEOUT:$CHARA_FadeTime:0:0:0:0:0:0:0:0,#
*,type=HCHR_POS00,param=chr_Legend:FADEOUT:$CHARA_FadeTime:0:0:0:0:0:0:0:0,#
*,type=STOP,param=0:0:0:0:0:0:0:0:0:0:0,#
*,type=HCHR_FDM00,param=all:MSK$off:0:0:0:0:0:0:0:0:0,#
*,type=HCHR_FDM00,param=chr_Dewey:MSK$on:0:0:0:0:0:0:0:0:0,#
*,type=HCHR_PRM00,param=chr_Dewey:Z$10:0:0:0:0:0:0:0:0:0,#
*,type=HCHR_PRM00,param=chr_Lin:Z$11:0:0:0:0:0:0:0:0:0,#
*,type=HCHR_GRP00,param=chr_Lin:face:ku:0:0:0:0:0:0:0:0,#
*,type=HCHR_GRP00,param=chr_Dewey:face:ai:0:0:0:0:0:0:0:0,#
*,type=HCHR_POS00,param=chr_Dewey:FADEIN:$CHARA_FadeTime:OFS$-70&0:0:0:0:0:0:0:0,#
*,type=HCHR_POS00,param=chr_Lin:FADEIN:$CHARA_FadeTime:$OFS_Right:0:0:0:0:0:0:0,#
*,type=STOP,param=0:0:0:0:0:0:0:0:0:0:0,#
*,type=HCHR_TK10,msg=そうだよ！<wait=3><br>頑張って、<wait=1>ナイゼルさん！,param=chr_Lin:Right:BASIC:0:0:0:0:0:0:OFS$0&180:0,#
*,type=HCHR_TK01,param=all:skipmask:0:0:0:0:0:0:0:0:0,#
*,type=HCHR_POS00,param=chr_Lin:FADEOUT:$CHARA_FadeTime:0:0:0:0:0:0:0:0,#
*,type=HCHR_POS00,param=chr_Dewey:FADEOUT:$CHARA_FadeTime:0:0:0:0:0:0:0:0,#
*,type=STOP,param=0:0:0:0:0:0:0:0:0:0:0,#
*,type=HCHR_FDM00,param=all:MSK$on:0:0:0:0:0:0:0:0:0,#
*,type=HCHR_FDM00,param=chr_Nizel:MSK$off:0:0:0:0:0:0:0:0:0,#
*,type=HCHR_PRM00,param=chr_Legend:Z$10:0:0:0:0:0:0:0:0:0,#
*,type=HCHR_PRM00,param=chr_Nizel:Z$12:0:0:0:0:0:0:0:0:0,#
*,type=HCHR_PRM00,param=chr_Lugina:Z$11:0:0:0:0:0:0:0:0:0,#
*,type=HCHR_GRP00,param=chr_Nizel:face:ai:0:0:0:0:0:0:0:0,#
*,type=HCHR_POS00,param=chr_Lugina:FADEIN:$CHARA_FadeTime:$OFS_Left:0:0:0:0:0:0:0,#
*,type=HCHR_POS00,param=chr_Nizel:FADEIN:$CHARA_FadeTime:$OFS_Center:0:0:0:0:0:0:0,#
*,type=HCHR_POS00,param=chr_Legend:FADEIN:$CHARA_FadeTime:$OFS_Right:0:0:0:0:0:0:0,#
*,type=STOP,param=0:0:0:0:0:0:0:0:0:0:0,#
*,type=HCHR_TK10,msg=<speed=12>……君<wait=1>たち……,param=chr_Nizel:Center:BASIC:0:0:0:focusoff:0:0:0:0,#
*,type=HCHR_TK01,param=all:skipmask:0:0:0:0:0:0:0:0:0,#
*,type=HCHR_TK10,msg=<speed=12>あり……<wait=3>がとう…………,param=chr_Nizel:Center:BASIC:0:0:0:focusoff:0:0:0:0,#
*,type=HCHR_TK01,param=all:skipmask:0:0:0:0:0:0:0:0:0,#
*,type=FADEOUT_000,param=1.5:$BGBLACK_Color:0:0:0:0:0:0:0:0:0,#
*,type=BGM_0001,param=1.5:0:0:0:0:0:0:0:0:0:0,#
*,type=WAIT_0000,param=2:0:0:0:0:0:0:0:0:0:0,#
*,type=GAM_CHGSCENE,param=MissionSelect:0:0:0:0:0:0:0:0:0:0,#

*,type=SYSED_00,param=0:0:0:0:0:0:0:0:0:0:0,#



