﻿ScriptCmd ver 1.1.1(app1.0.4):スクリプト_10_受け継がれる想い_BS1.xlsm/main014-dungeon1-1/main014-dungeon1-1.csv

*,type=SYSST_00,param=0:0:0:0:0:0:0:0:0:0:0,#
*,type=CMD_STOP,param=0:0:0:0:0:0:0:0:0:0:0,#
*,type=SYSST_01,param=0:0:0:0:0:0:0:0:0:0:0,#


*,type=EVT_CHKTRG,param=0:0:0:0:0:0:0:0:0:0:0,#
*,type=EVT_BTL_STARTBTL,param=1:0:0:0:0:0:0:0:0:0:0,#
*,type=BTL_PanelMask,param=ON:0:0:0:0:0:0:0:0:0:0,#
*,type=BTL_CMD,param=unit_panel:PPTALL:OFF:0:0:0:0:0:0:0:0,#
*,type=BTL_EnemyHpBarVisible,param=OFF:0:0:0:0:0:0:0:0:0:0,#
*,type=BTL_ChangeParty,param=ON:920:1010112:0:0:0:0:0:0:0:0,#
*,type=BTL_WaitAction,param=10:0:0:0:0:0:0:0:0:0:0,#
*,type=BTL_ReqAction,param=PINDEX$0:0:MOVETOFIX:550$452$0$MOVE$IDLE:0:0:0:0:0:0:0,#
*,type=BTL_ReqAction,param=PINDEX$1:0:MOVETOFIX:1000$DEFAULT$0$MOVE$IDLE:0:0:0:0:0:0:0,#
*,type=BTL_ReqAction,param=PINDEX$2:0:MOVETOFIX:1000$DEFAULT$0$MOVE$IDLE:0:0:0:0:0:0:0,#
*,type=BTL_ReqAction,param=PINDEX$3:0:MOVETOFIX:1000$DEFAULT$0$MOVE$IDLE:0:0:0:0:0:0:0,#
*,type=BTL_ReqAction,param=PINDEX$4:0:MOVETOFIX:1000$DEFAULT$0$MOVE$IDLE:0:0:0:0:0:0:0,#
*,type=BTL_ReqAction,param=PINDEX$5:0:MOVETOFIX:1000$DEFAULT$0$MOVE$IDLE:0:0:0:0:0:0:0,#
*,type=BTL_ReqAction,param=MINDEX$1:0:MOVETOFIX:80$452$0$MOVE$IDLE:0:0:0:0:0:0:0,#
*,type=BTL_ReqAction,param=MINDEX$2:0:MOVETOFIX:-1000$DEFAULT$0$MOVE$IDLE:0:0:0:0:0:0:0,#
*,type=BTL_ReqAction,param=MINDEX$3:0:MOVETOFIX:-1000$DEFAULT$0$MOVE$IDLE:0:0:0:0:0:0:0,#
*,type=BTL_ReqAction,param=MINDEX$4:0:MOVETOFIX:-1000$DEFAULT$0$MOVE$IDLE:0:0:0:0:0:0:0,#
*,type=BTL_ReqAction,param=MINDEX$5:0:MOVETOFIX:-1000$DEFAULT$0$MOVE$IDLE:0:0:0:0:0:0:0,#
*,type=BTL_WaitAction,param=1:0:0:0:0:0:0:0:0:0:0,#
*,type=PICT_0000,param=bg_01:battle_bg_018_05.jpg:1:bg$1051105:0:0:0:2:0:0:0,#
*,type=HCHR_ENT00,param=chr_Legend_S:伝説の召喚師:N$chara_bf2_173:$POS_Center:TYPE$middle:Z$10:0:0:0:0:0,#
*,type=HCHR_ENT00,param=chr_Lestalk_S:レストーク:N$chara_bf2_218:$POS_Center:TYPE$middle:Z$10:0:XFLIP$SET:0:0:0,#
*,type=STOP,param=0:0:0:0:0:0:0:0:0:0:0,#
*,type=FADEIN_000,param=1.5:0&0&0:0:0:0:0:0:0:0:0:0,#
*,type=STOP,param=0:0:0:0:0:0:0:0:0:0:0,#
*,type=BTL_FADE,param=IN:0:0:0:0:0:0:0:0:0:0,#
*,type=WAIT_0000,param=1.5:0:0:0:0:0:0:0:0:0:0,#
*,type=HCHR_GRP00,param=chr_Legend_S:face:mu:0:0:0:0:0:0:0:0,#
*,type=HCHR_POS00,param=chr_Legend_S:FADEIN:T$0.5:$OFS_Center:0:0:0:0:0:0:0,#
*,type=WAIT_0000,param=1.5:0:0:0:0:0:0:0:0:0:0,#
*,type=HCHR_POS00,param=chr_Legend_S:FADEOUT:T$0.5:0:0:0:0:0:0:0:0,#
*,type=STOP,param=0:0:0:0:0:0:0:0:0:0:0,#
*,type=WAIT_0000,param=1.5:0:0:0:0:0:0:0:0:0:0,#
*,type=HCHR_POS00,param=chr_Lestalk_S:FADEIN:T$0.5:$OFS_Center:0:0:0:0:0:0:0,#
*,type=WAIT_0000,param=1.5:0:0:0:0:0:0:0:0:0:0,#
*,type=HCHR_POS00,param=chr_Lestalk_S:FADEOUT:T$0.5:0:0:0:0:0:0:0:0,#
*,type=STOP,param=0:0:0:0:0:0:0:0:0:0:0,#
*,type=FADEOUT_000,param=1.5:0&0&0:0:0:0:0:0:0:0:0:0,#
*,type=MSKS_0000,param=bgBlackMask:$BGBLACK_Color:0:Z$50:T$1:0:0:0:0:0:0,#
*,type=STOP,param=0:0:0:0:0:0:0:0:0:0:0,#
*,type=WAIT_0000,param=2:0:0:0:0:0:0:0:0:0:0,#
*,type=PICT_0004,param=bg_01:0:0:0:0:0:0:0:0:0:0,#
*,type=HCHR_ENT01,param=chr_Legend_S:T$0:0:0:0:0:0:0:0:0:0,#
*,type=HCHR_ENT01,param=chr_Lestalk_S:T$0:0:0:0:0:0:0:0:0:0,#
*,type=STOP,param=0:0:0:0:0:0:0:0:0:0:0,#
*,type=MSKS_0002,param=bgBlackMask:T$0.75:0:0:0:0:0:0:0:0:0,#
*,type=STOP,param=0:0:0:0:0:0:0:0:0:0:0,#
*,type=WAIT_0000,param=1:0:0:0:0:0:0:0:0:0:0,#
*,type=HCHR_ENT00,param=chr_Lugina:ルジーナ:N$chara_bf2_14_b:$BTLPOS_Left:TYPE$middle:Z$10:0:0:0:0:0,#
*,type=HCHR_ENT00,param=chr_Karl:カル:N$chara_bf2_11_b:$BTLPOS_Left:TYPE$middle:Z$10:0:0:0:0:0,#
*,type=HCHR_ENT00,param=chr_Tirith:ティリス:N$chara_bf2_174_b:$BTLPOS_Left:TYPE$middle:Z$10:0:0:0:0:0,#
*,type=HCHR_ENT00,param=chr_Seria:セリア:N$chara_bf2_12_b:$BTLPOS_Left:TYPE$middle:Z$10:0:0:0:0:0,#
*,type=HCHR_ENT00,param=chr_Lestalk:レストーク:N$chara_bf2_218_b:$BTLPOS_Right:TYPE$middle:Z$10:0:XFLIP$SET:0:0:0,#
*,type=HCHR_ENT00,param=chr_Legend:伝説の召喚師:N$chara_bf2_173_b:$BTLPOS_Left:TYPE$middle:Z$10:0:0:0:0:0,#
*,type=HCHR_ENT00,param=chr_Nothum:？？？:N$chara_bf2_1_nothum:$POS_Center:TYPE$middle:Z$10:0:0:0:0:0,#
*,type=STOP,param=0:0:0:0:0:0:0:0:0:0:0,#
*,type=HCHR_GRP00,param=chr_Lugina:face:ai:0:0:0:0:0:0:0:0,#
*,type=HCHR_POS00,param=chr_Lugina:FADEIN:$CHARA_FadeTime:0:0:0:0:0:0:0:0,#
*,type=STOP,param=0:0:0:0:0:0:0:0:0:0:0,#
*,type=HCHR_TK10,msg=チッ、<wait=1>あれだけの数を喚んでおいて<br>まだケロッとしてやがる。,param=chr_Lugina:Left:BATTLE:0:0:0:0:0:0:0:0,#
*,type=HCHR_TK01,param=all:0:0:0:0:0:0:0:0:0:0,#
*,type=HCHR_POS00,param=chr_Lugina:FADEOUT:$CHARA_FadeTime:0:0:0:0:0:0:0:0,#
*,type=STOP,param=0:0:0:0:0:0:0:0:0:0:0,#
*,type=HCHR_GRP00,param=chr_Karl:face:ai:0:0:0:0:0:0:0:0,#
*,type=HCHR_POS00,param=chr_Karl:FADEIN:$CHARA_FadeTime:0:0:0:0:0:0:0:0,#
*,type=STOP,param=0:0:0:0:0:0:0:0:0:0:0,#
*,type=HCHR_TK10,msg=伝説の召喚師の“再来”は<br>伊達じゃないとでも言いたいのか……,param=chr_Karl:Left:BATTLE:0:0:0:0:0:0:0:0,#
*,type=HCHR_TK01,param=all:0:0:0:0:0:0:0:0:0:0,#
*,type=HCHR_POS00,param=chr_Karl:FADEOUT:$CHARA_FadeTime:0:0:0:0:0:0:0:0,#
*,type=STOP,param=0:0:0:0:0:0:0:0:0:0:0,#
*,type=HCHR_GRP00,param=chr_Tirith:face:mu:0:0:0:0:0:0:0:0,#
*,type=HCHR_POS00,param=chr_Tirith:FADEIN:$CHARA_FadeTime:0:0:0:0:0:0:0:0,#
*,type=STOP,param=0:0:0:0:0:0:0:0:0:0:0,#
*,type=HCHR_TK10,msg=大丈夫だよ！<wait=3><br>私の召喚師は強いもん！,param=chr_Tirith:Left:BATTLE:0:0:0:0:0:0:0:0,#
*,type=HCHR_TK01,param=all:0:0:0:0:0:0:0:0:0:0,#
*,type=HCHR_POS00,param=chr_Tirith:FADEOUT:$CHARA_FadeTime:0:0:0:0:0:0:0:0,#
*,type=STOP,param=0:0:0:0:0:0:0:0:0:0:0,#
*,type=WAIT_0000,param=1:0:0:0:0:0:0:0:0:0:0,#
*,type=EFFECT_GP,param=31000022:450:452:0:0:70:0:0:0:0:0,#
*,type=BTL_ReqAction,param=PINDEX$1:0:MOVETOFIX:450$452$0$MOVE$IDLE:0:0:0:0:0:0:0,#
*,type=BTL_WaitAction,param=30:0:0:0:0:0:0:0:0:0:0,#
*,type=WAIT_0000,param=1.5:0:0:0:0:0:0:0:0:0:0,#
*,type=EFFECT_GP,param=31000022:200:452:0:0:70:0:0:0:0:0,#
*,type=BTL_ReqAction,param=MINDEX$2:0:MOVETOFIX:200$452$0$MOVE$IDLE:0:0:0:0:0:0:0,#
*,type=BTL_WaitAction,param=30:0:0:0:0:0:0:0:0:0:0,#
*,type=WAIT_0000,param=2:0:0:0:0:0:0:0:0:0:0,#
*,type=BTL_ReqAction,param=PINDEX$1:0:MOVETOFIX:350$452$0.4$MOVE$IDLE:0:0:0:0:0:0:0,#
*,type=BTL_ReqAction,param=MINDEX$2:0:MOVETOFIX:300$452$0.4$MOVE$IDLE:0:0:0:0:0:0:0,#
*,type=BTL_WaitAction,param=1:0:0:0:0:0:0:0:0:0:0,#
*,type=EFFECT_GP,param=31000771:320:390:0:0:70:0:0:0:0:0,#
*,type=WAIT_0000,param=0.5:0:0:0:0:0:0:0:0:0:0,#
*,type=SE_0000,param=202:0:0:0:0:0:0:0:0:0:0,#
*,type=EFFECT_GP,param=60010013:320:568:0:0:70:0:0:0:0:0,#
*,type=BTL_ReqAction,param=PINDEX$1:0:MOVETOFIX:1000$452$0$MOVE$IDLE:0:0:0:0:0:0:0,#
*,type=BTL_ReqAction,param=MINDEX$2:0:MOVETOFIX:-1000$452$0$MOVE$IDLE:0:0:0:0:0:0:0,#
*,type=BTL_WaitAction,param=1:0:0:0:0:0:0:0:0:0:0,#
*,type=WAIT_0000,param=1.5:0:0:0:0:0:0:0:0:0:0,#
*,type=HCHR_GRP00,param=chr_Seria:face:do:0:0:0:0:0:0:0:0,#
*,type=HCHR_POS00,param=chr_Seria:FADEIN:$CHARA_FadeTime:0:0:0:0:0:0:0:0,#
*,type=STOP,param=0:0:0:0:0:0:0:0:0:0:0,#
*,type=HCHR_TK10,msg=召喚対決でもするつもり!?,param=chr_Seria:Left:BATTLE:0:0:0:0:0:0:0:0,#
*,type=HCHR_TK01,param=all:0:0:0:0:0:0:0:0:0:0,#
*,type=HCHR_POS00,param=chr_Seria:FADEOUT:$CHARA_FadeTime:0:0:0:0:0:0:0:0,#
*,type=STOP,param=0:0:0:0:0:0:0:0:0:0:0,#
*,type=EFFECT_GP,param=32000144:450:360:0:0:70:0:0:0:0:0,#
*,type=BTL_ReqAction,param=PINDEX$2:0:MOVETOFIX:450$452$0$MOVE$IDLE:0:0:0:0:0:0:0,#
*,type=BTL_WaitAction,param=1:0:0:0:0:0:0:0:0:0:0,#
*,type=WAIT_0000,param=0.5:0:0:0:0:0:0:0:0:0:0,#
*,type=EFFECT_GP,param=32000144:200:360:0:0:70:0:0:0:0:0,#
*,type=BTL_ReqAction,param=MINDEX$3:0:MOVETOFIX:200$452$0$MOVE$IDLE:0:0:0:0:0:0:0,#
*,type=BTL_WaitAction,param=1:0:0:0:0:0:0:0:0:0:0,#
*,type=WAIT_0000,param=1:0:0:0:0:0:0:0:0:0:0,#
*,type=BTL_ReqAction,param=PINDEX$2:0:MOVETOFIX:350$452$0.4$MOVE$IDLE:0:0:0:0:0:0:0,#
*,type=BTL_ReqAction,param=MINDEX$3:0:MOVETOFIX:300$452$0.4$MOVE$IDLE:0:0:0:0:0:0:0,#
*,type=BTL_WaitAction,param=1:0:0:0:0:0:0:0:0:0:0,#
*,type=EFFECT_GP,param=32000941:320:390:0:0:70:0:0:0:0:0,#
*,type=WAIT_0000,param=0.5:0:0:0:0:0:0:0:0:0:0,#
*,type=SE_0000,param=202:0:0:0:0:0:0:0:0:0:0,#
*,type=EFFECT_GP,param=60010014:320:568:0:0:70:0:0:0:0:0,#
*,type=BTL_ReqAction,param=PINDEX$2:0:MOVETOFIX:1000$452$0$MOVE$IDLE:0:0:0:0:0:0:0,#
*,type=BTL_ReqAction,param=MINDEX$3:0:MOVETOFIX:-1000$452$0$MOVE$IDLE:0:0:0:0:0:0:0,#
*,type=BTL_WaitAction,param=1:0:0:0:0:0:0:0:0:0:0,#
*,type=WAIT_0000,param=2:0:0:0:0:0:0:0:0:0:0,#
*,type=EFFECT_GP,param=40000554:320:568:0:0:70:0:0:0:0:0,#
*,type=BTL_ReqAction,param=PINDEX$3:0:MOVETOFIX:450$352$0$MOVE$IDLE:0:0:0:0:0:0:0,#
*,type=BTL_ReqAction,param=PINDEX$4:0:MOVETOFIX:450$552$0$MOVE$IDLE:0:0:0:0:0:0:0,#
*,type=BTL_ReqAction,param=MINDEX$4:0:MOVETOFIX:200$352$0$MOVE$IDLE:0:0:0:0:0:0:0,#
*,type=BTL_ReqAction,param=MINDEX$5:0:MOVETOFIX:200$552$0$MOVE$IDLE:0:0:0:0:0:0:0,#
*,type=BTL_WaitAction,param=30:0:0:0:0:0:0:0:0:0:0,#
*,type=WAIT_0000,param=2:0:0:0:0:0:0:0:0:0:0,#
*,type=BTL_ReqAction,param=PINDEX$3:0:MOVETOFIX:350$452$0.4$MOVE$IDLE:0:0:0:0:0:0:0,#
*,type=BTL_ReqAction,param=PINDEX$4:0:MOVETOFIX:350$452$0.4$MOVE$IDLE:0:0:0:0:0:0:0,#
*,type=BTL_ReqAction,param=MINDEX$4:0:MOVETOFIX:300$452$0.4$MOVE$IDLE:0:0:0:0:0:0:0,#
*,type=BTL_ReqAction,param=MINDEX$5:0:MOVETOFIX:300$452$0.4$MOVE$IDLE:0:0:0:0:0:0:0,#
*,type=BTL_WaitAction,param=1:0:0:0:0:0:0:0:0:0:0,#
*,type=EFFECT_GP,param=33001112:320:452:0:0:70:0:0:0:0:0,#
*,type=WAIT_0000,param=1.5:0:0:0:0:0:0:0:0:0:0,#
*,type=SE_0000,param=202:0:0:0:0:0:0:0:0:0:0,#
*,type=EFFECT_GP,param=60010015:320:568:0:0:70:0:0:0:0:0,#
*,type=BTL_ReqAction,param=PINDEX$3:0:MOVETOFIX:1000$352$0$MOVE$IDLE:0:0:0:0:0:0:0,#
*,type=BTL_ReqAction,param=PINDEX$4:0:MOVETOFIX:1000$552$0$MOVE$IDLE:0:0:0:0:0:0:0,#
*,type=BTL_ReqAction,param=MINDEX$4:0:MOVETOFIX:-1000$352$0$MOVE$IDLE:0:0:0:0:0:0:0,#
*,type=BTL_ReqAction,param=MINDEX$5:0:MOVETOFIX:-1000$552$0$MOVE$IDLE:0:0:0:0:0:0:0,#
*,type=BTL_WaitAction,param=1:0:0:0:0:0:0:0:0:0:0,#
*,type=WAIT_0000,param=1:0:0:0:0:0:0:0:0:0:0,#
*,type=HCHR_GRP00,param=chr_Legend:face:mu:0:0:0:0:0:0:0:0,#
*,type=HCHR_POS00,param=chr_Legend:FADEIN:$CHARA_FadeTime:0:0:0:0:0:0:0:0,#
*,type=STOP,param=0:0:0:0:0:0:0:0:0:0:0,#
*,type=HCHR_EFC00,param=Eff_Manp_11:chr_Legend:manpu_1:0:SS5$$MANP_silence_a:0:0:0:0:0:0,#
*,type=WAIT_0000,param=1.5:0:0:0:0:0:0:0:0:0:0,#
*,type=PICT_0004,param=Eff_Manp_11:0:0:0:0:0:0:0:0:0:0,#
*,type=WAIT_0000,param=0.3:0:0:0:0:0:0:0:0:0:0,#
*,type=HCHR_POS00,param=chr_Legend:FADEOUT:$CHARA_FadeTime:0:0:0:0:0:0:0:0,#
*,type=STOP,param=0:0:0:0:0:0:0:0:0:0:0,#
*,type=HCHR_GRP00,param=chr_Lestalk:face:ki:0:0:0:0:0:0:0:0,#
*,type=HCHR_POS00,param=chr_Lestalk:FADEIN:$CHARA_FadeTime:0:0:0:0:0:0:0:0,#
*,type=STOP,param=0:0:0:0:0:0:0:0:0:0:0,#
*,type=WAIT_0000,param=1:0:0:0:0:0:0:0:0:0:0,#
*,type=HCHR_POS00,param=chr_Lestalk:FADEOUT:$CHARA_FadeTime:0:0:0:0:0:0:0:0,#
*,type=STOP,param=0:0:0:0:0:0:0:0:0:0:0,#
*,type=WAIT_0000,param=1:0:0:0:0:0:0:0:0:0:0,#
*,type=SE_0000,param=309:0:0:0:0:0:0:0:0:0:0,#
*,type=WAIT_0000,param=1:0:0:0:0:0:0:0:0:0:0,#
*,type=BTL_ReqAction,param=PINDEX$0:0:MOVETOFIX:380$452$0.2$MOVE$IDLE:0:0:0:0:0:0:0,#
*,type=BTL_ReqAction,param=MINDEX$1:0:MOVETOFIX:220$452$0.2$MOVE$IDLE:0:0:0:0:0:0:0,#
*,type=BTL_WaitAction,param=20:0:0:0:0:0:0:0:0:0:0,#
*,type=BGM_0001,param=0:0:0:0:0:0:0:0:0:0:0,#
*,type=HCHR_TK00,msg=<ctag=QUAK:10:10:0.05:12><size=50>レストォォク!!,param=chr_Nothum:$Shout_L_C:0:0:0:0:0:0:0:0:0,#
*,type=BTL_WaitAction,param=1:0:0:0:0:0:0:0:0:0:0,#
*,type=SS5_0000,param=mnp1:emote_icon_animation.ssbp:surprise_red_b/anime:surprise_red_b/anime:10:340:380:1:0:0.4:0,#
*,type=SS5_0000,param=mnp2:emote_icon_animation.ssbp:surprise_red_b/anime:surprise_red_b/anime:10:260:380:1:0:0.4:0,#
*,type=WAIT_0000,param=1:0:0:0:0:0:0:0:0:0:0,#
*,type=SS5_0001,param=mnp1:0:0:0:0:0:0:0:0:0:0,#
*,type=SS5_0001,param=mnp2:0:0:0:0:0:0:0:0:0:0,#
*,type=WAIT_0000,param=0.3:0:0:0:0:0:0:0:0:0:0,#
*,type=MSKS_0000,param=bgBlackMask:$BGBLACK_Color:0:Z$50:T$1:0:0:0:0:0:0,#
*,type=STOP,param=0:0:0:0:0:0:0:0:0:0:0,#
*,type=BTL_ChangeParty,param=OFF:0:0:0:0:0:0:0:0:0:0,#
*,type=BTL_CMD,param=unit_panel:PPTALL:ON:0:0:0:0:0:0:0:0,#
*,type=BTL_EnemyHpBarVisible,param=ON:0:0:0:0:0:0:0:0:0:0,#
*,type=GAM_CHGSCRIPT,param=0:0:0:19503:0:0:0:0:0:0:0,#
*,type=STOP,param=0:0:0:0:0:0:0:0:0:0:0,#
*,type=BTL_PanelMask,param=OFF:0:0:0:0:0:0:0:0:0:0,#
*,type=EVT_BLOCKEND,param=0:0:0:0:0:0:0:0:0:0:0,#

*,type=SYSED_00,param=0:0:0:0:0:0:0:0:0:0:0,#



