﻿ScriptCmd ver 1.1.1(app1.0.4):スクリプト_10_受け継がれる想い_BS4.xlsm/main014-dungeon4-1-1_btlcall/main014-dungeon4-1-1_btlcall.csv

*,type=SYSST_00,param=0:0:0:0:0:0:0:0:0:0:0,#
*,type=CMD_STOP,param=0:0:0:0:0:0:0:0:0:0:0,#
*,type=SYSST_01,param=0:0:0:0:0:0:0:0:0:0:0,#


*,type=GAM_STARTBTL,param=10609:HERO:0:0:0:0:0:0:0:0:0,#

*,type=SYSED_00,param=0:0:0:0:0:0:0:0:0:0:0,#



