﻿ScriptCmd ver 1.1.1:スクリプト_03_1_モルデンカンプ_dungeon4.xlsm/シーン4_3_3/main007-dungeon4_3_3.csv

*,type=SYSST_00,param=0:0:0:0:0:0:0:0:0:0:0,#
*,type=CMD_STOP,param=0:0:0:0:0:0:0:0:0:0:0,#
*,type=SYSST_01,param=0:0:0:0:0:0:0:0:0:0:0,#


*,type=BGM_0000,param=32:0:0:0:0:0:0:0:0:0:0,#
*,type=EFF_CONNECT,param=ON:0:0:0:0:0:0:0:0:0:0,#
*,type=HCHR_ENT00,param=chr_Yehoshua:ヨシュア:N$chara_bf2_7:$POS_Center:TYPE$middle:Z$1:0:0:0:0:0,#
*,type=HCHR_ENT00,param=chr_Seria:セリア:N$chara_bf2_85:$POS_Center:TYPE$middle:Z$10:0:0:0:0:0,#
*,type=HCHR_ENT00,param=samoner:モルデンカンプ女戦士:N$chara_bf2_37:$POS_Center:TYPE$middle:Z$9:0:0:0:0:0,#
*,type=HCHR_ENT00,param=monster1:機鎧軍兵士:N$chara_bf2_42:$POS_Center:TYPE$middle:Z$10:0:0:0:0:0,#
*,type=HCHR_ENT00,param=monster2:機鎧軍兵士:N$chara_bf2_42:$POS_Center:TYPE$middle:Z$10:0:0:0:0:0,#
*,type=HCHR_ENT00,param=monster3:人型召喚兵器GE:N$chara_bf2_40:$POS_Center:TYPE$middle:Z$10:0:0:0:0:0,#
*,type=HCHR_ENT00,param=chr_Dragon:<rep_myguardian>:N$tame_dragon_03:$POS_Center:TYPE$middle:Z$10:0:0:0:0:0,#
*,type=HCHR_ENT00,param=chr_Karl:カル:N$chara_bf2_11_m:$POS_Monitor_Center:TYPE$middle:Z$40&40:0:0:0:0:0,#
*,type=PICT_0000,param=bg1:battle_bg_009_01.jpg:0:bg$1050101:0:0:0:0:0:0:0,#
*,type=FADEIN_000,param=1.5:00&00&00:0:0:0:0:0:0:0:0:0,#
*,type=STOP,param=0:0:0:0:0:0:0:0:0:0:0,#
*,type=WAIT_0000,param=1:0:0:0:0:0:0:0:0:0:0,#
*,type=HCHR_GRP00,param=chr_Yehoshua:face:bi:T$0.0:0:0:0:0:0:0:0,#
*,type=HCHR_POS00,param=chr_Yehoshua:FADEIN:$CHARA_FadeTime:$OFS_Center:0:0:0:0:0:0:0,#
*,type=STOP,param=0:0:0:0:0:0:0:0:0:0:0,#
*,type=WAIT_0000,param=0.5:0:0:0:0:0:0:0:0:0:0,#
*,type=HCHR_TK00,msg=<speed=7>あんなに囲まれて……,param=chr_Yehoshua:$Center10:0:0:0:0:0:0:0:0:0,#
*,type=HCHR_TK01,param=ALL:skipmask:0:0:0:0:0:0:0:0:0,#
*,type=WAIT_0000,param=0.5:0:0:0:0:0:0:0:0:0:0,#
*,type=HCHR_GRP00,param=chr_Yehoshua:face:ku:T$0.0:0:0:0:0:0:0:0,#
*,type=HCHR_TK00,msg=あんな者を助けるために<wait=3><br><speed=7>なぜ、セリア様は………,param=chr_Yehoshua:$Center12:0:0:0:0:0:0:0:0:0,#
*,type=HCHR_TK01,param=all:0:0:0:0:0:0:0:0:0:0,#
*,type=WAIT_0000,param=0.5:0:0:0:0:0:0:0:0:0:0,#
*,type=FADEOUT_000,param=1:00&00&00:0:0:0:0:0:0:0:0:0,#
*,type=STOP,param=0:0:0:0:0:0:0:0:0:0:0,#
*,type=PICT_0004,param=bg1:battle_bg_009_01.jpg:0:0:0:0:0:0:0:0:0,#
*,type=HCHR_POS00,param=chr_Yehoshua:FADEOUT:T$0.0:0:0:0:0:0:0:0:0,#
*,type=PICT_0000,param=bg1:battle_bg_009_04_1.jpg:0:bg$1050114:0:0:0:0:0:0:0,#
*,type=FADEIN_000,param=1:00&00&00:0:0:0:0:0:0:0:0:0,#
*,type=STOP,param=0:0:0:0:0:0:0:0:0:0:0,#
*,type=WAIT_0000,param=0.3:0:0:0:0:0:0:0:0:0:0,#
*,type=HCHR_GRP00,param=chr_Seria:face:do:T$0.0:0:0:0:0:0:0:0,#
*,type=HCHR_POS00,param=chr_Seria:FADEIN:T$0.3:$OFS_Center:0:0:0:0:0:0:0,#
*,type=STOP,param=0:0:0:0:0:0:0:0:0:0:0,#
*,type=WAIT_0000,param=0.5:0:0:0:0:0:0:0:0:0:0,#
*,type=HCHR_TK00,msg=<speed=2>ハッ……!!,param=chr_Seria:$Center6:nowait:0:0:0:0:0:0:0:0,#
*,type=WAIT_0000,param=0.3:0:0:0:0:0:0:0:0:0:0,#
*,type=HCHR_SHK00,param=chr_Seria:10:0.05:0.3:0:0:0:0:0:0:0,#
*,type=CSYN_0002,param=0:0:0:0:0:0:0:0:0:0:0,#
*,type=HCHR_TK01,param=ALL:0:0:0:0:0:0:0:0:0:0,#
*,type=SE_0000,param=300:0:0:0:0:0:0:0:0:0:0,#
*,type=SE_0000,param=219:0:0:0:0:0:0:0:0:0:0,#
*,type=QUAK_0000,msg= ,param=0.05:10:8:8:FixRange:0:0:0:0:0:0,#
*,type=EFFECT_GP,param=60010008:320:568:0:0:70:0:0:0:0:0,#
*,type=HCHR_POS00,param=chr_Seria:FADEOUT:T$0.0:0:0:0:0:0:0:0:0,#
*,type=STOP,param=0:0:0:0:0:0:0:0:0:0:0,#
*,type=WAIT_0000,param=0.3:0:0:0:0:0:0:0:0:0:0,#
*,type=HCHR_GRP00,param=samoner:face:bi:T$0.0:0:0:0:0:0:0:0,#
*,type=HCHR_POS00,param=samoner:FADEIN:$CHARA_FadeTime:$OFS_Center:0:0:0:0:0:0:0,#
*,type=HCHR_POS00,param=monster1:FADEIN:$CHARA_FadeTime:$OFS_Left_Triple:0:0:0:0:0:0:0,#
*,type=HCHR_POS00,param=monster2:FADEIN:$CHARA_FadeTime:$OFS_Right_Triple:0:0:0:0:0:0:0,#
*,type=STOP,param=0:0:0:0:0:0:0:0:0:0:0,#
*,type=EFFECT_GP,param=60010007:320:568:0:0:70:0:0:0:0:0,#
*,type=QUAK_0000,param=0.05:10:8:8:FixRange:0:0:0:0:0:0,#
*,type=SE_0000,param=102:0:0:0:0:0:0:0:0:0:0,#
*,type=HCHR_POS00,param=monster1:OUT$bottom$50:T$1.5:0:0:0:0:0:0:0:0,#
*,type=HCHR_POS00,param=monster2:OUT$bottom$50:T$1.5:0:0:0:0:0:0:0:0,#
*,type=STOP,param=0:0:0:0:0:0:0:0:0:0:0,#
*,type=HCHR_GRP00,param=chr_Seria:face:fu:T$0.0:0:0:0:0:0:0:0,#
*,type=HCHR_FDM00,param=samoner:MSK$on:0.3:0:0:0:0:0:0:0:0,#
*,type=HCHR_POS00,param=samoner:IN$right$160:$CHARA_FadeTime:$OFS_Left:0:0:0:0:0:0:0,#
*,type=HCHR_POS00,param=chr_Seria:FADEIN:$CHARA_FadeTime:$OFS_Right:0:0:0:0:0:0:0,#
*,type=STOP,param=0:0:0:0:0:0:0:0:0:0:0,#
*,type=HCHR_TK00,msg=大丈夫……!?,param=chr_Seria:$Right6:0:0:0:0:0:0:0:0:0,#
*,type=HCHR_TK00,msg=<speed=7>あなた……<wait=3><br>私のために……？,param=samoner:$Left8:0:0:0:0:0:0:0:0:0,#
*,type=HCHR_TK00,msg=まぁね。,param=chr_Seria:$Right4:0:0:0:0:0:0:0:0:0,#
*,type=HCHR_TK00,msg=そんなことより、<wait=3>動けるんなら<br>先に進むわよ。,param=chr_Seria:$Right14:0:0:0:0:0:0:0:0:0,#
*,type=HCHR_TK00,msg=ここを切り抜けて、<wait=3>橋を渡るの！,param=chr_Seria:$Right16:0:0:0:0:0:0:0:0:0,#
*,type=HCHR_TK00,msg=<speed=7>え、<wait=3>えぇ……,param=samoner:$Left6:0:0:0:0:0:0:0:0:0,#
*,type=HCHR_GRP00,param=chr_Seria:face:do:T$0.0:0:0:0:0:0:0:0,#
*,type=HCHR_TK00,msg=<speed=3>一気に走り抜けるわよ！,param=chr_Seria:$Right12:0:0:0:0:0:0:0:0:0,#
*,type=HCHR_TK00,msg=<speed=3>ちょっと本気出すから<wait=3><br>遅れずについてきなさいよっ！,param=chr_Seria:$Right14:0:0:0:0:0:0:0:0:0,#
*,type=HCHR_TK01,param=ALL:skipmask:0:0:0:0:0:0:0:0:0,#
*,type=HCHR_POS00,param=chr_Seria:FADEOUT:$CHARA_FadeTime:0:0:0:0:0:0:0:0,#
*,type=HCHR_POS00,param=samoner:FADEOUT:$CHARA_FadeTime:0:0:0:0:0:0:0:0,#
*,type=STOP,param=0:0:0:0:0:0:0:0:0:0:0,#
*,type=HCHR_TK01,param=ALL:0:0:0:0:0:0:0:0:0:0,#
*,type=WAIT_0000,param=0.5:0:0:0:0:0:0:0:0:0:0,#
*,type=SE_0000,param=207:0:0:0:0:0:0:0:0:0:0,#
*,type=HCHR_POS00,param=monster3:FADEIN:T$1:$OFS_Center:0:0:0:0:0:0:0,#
*,type=STOP,param=0:0:0:0:0:0:0:0:0:0:0,#
*,type=WAIT_0000,param=0.5:0:0:0:0:0:0:0:0:0:0,#
*,type=SE_0000,param=215:0:0:0:0:0:0:0:0:0:0,#
*,type=HCHR_SHK00,param=monster3:6:0.02:0.5:0:0:0:0:0:0:0,#
*,type=WAIT_0000,param=1:0:0:0:0:0:0:0:0:0:0,#
*,type=HCHR_TK00,msg=<speed=7>ターゲットヲ<wait=3>捕捉。,param=monster3:$Center10:0:0:0:0:0:0:0:0:0,#
*,type=HCHR_TK01,param=ALL:0:0:0:0:0:0:0:0:0:0,#
*,type=HCHR_POS00,param=monster3:FADEOUT:$CHARA_FadeTime:0:0:0:0:0:0:0:0,#
*,type=STOP,param=0:0:0:0:0:0:0:0:0:0:0,#
*,type=HCHR_GRP00,param=chr_Seria:face:bi:T$0.0:0:0:0:0:0:0:0,#
*,type=HCHR_POS00,param=chr_Seria:FADEIN:$CHARA_FadeTime:$OFS_Center:0:0:0:0:0:0:0,#
*,type=HCHR_TK00,msg=<speed=3>……あの時の改造兵器!?,param=chr_Seria:$Center12:0:0:0:0:0:0:0:0:0,#
*,type=HCHR_TK01,param=ALL:0:0:0:0:0:0:0:0:0:0,#
*,type=HCHR_POS00,param=chr_Seria:FADEOUT:$CHARA_FadeTime:0:0:0:0:0:0:0:0,#
*,type=STOP,param=0:0:0:0:0:0:0:0:0:0:0,#
*,type=HCHR_POS00,param=monster3:FADEIN:$CHARA_FadeTime:$OFS_Center:0:0:0:0:0:0:0,#
*,type=STOP,param=0:0:0:0:0:0:0:0:0:0:0,#
*,type=HCHR_TK00,msg=戦力無効化ニ最適ナモードヲ検索。,param=monster3:$Center16:0:0:0:0:0:0:0:0:0,#
*,type=HCHR_TK01,param=ALL:0:0:0:0:0:0:0:0:0:0,#
*,type=WAIT_0000,param=0.5:0:0:0:0:0:0:0:0:0:0,#
*,type=SE_0000,param=215:0:0:0:0:0:0:0:0:0:0,#
*,type=HCHR_SHK00,param=monster3:6:0.02:0.5:0:0:0:0:0:0:0,#
*,type=WAIT_0000,param=1:0:0:0:0:0:0:0:0:0:0,#
*,type=HCHR_POS00,param=monster3:FADEOUT:$CHARA_FadeTime:0:0:0:0:0:0:0:0,#
*,type=STOP,param=0:0:0:0:0:0:0:0:0:0:0,#
*,type=HCHR_GRP00,param=chr_Seria:face:fu:T$0.0:0:0:0:0:0:0:0,#
*,type=HCHR_POS00,param=chr_Seria:FADEIN:$CHARA_FadeTime:$OFS_Center:0:0:0:0:0:0:0,#
*,type=STOP,param=0:0:0:0:0:0:0:0:0:0:0,#
*,type=BGM_0001,param=2:0:0:0:0:0:0:0:0:0:0,#
*,type=HCHR_EFC00,param=mnp:chr_Seria:manpu_1:OFS$0&0:SS5$$MANP_doubt_red_a:0:0:0:0:0:0,#
*,type=WAIT_0000,param=1.3:0:0:0:0:0:0:0:0:0:0,#
*,type=PICT_0004,param=mnp:0:0:0:0:0:0:0:0:0:0,#
*,type=WAIT_0000,param=0.3:0:0:0:0:0:0:0:0:0:0,#
*,type=HCHR_POS00,param=chr_Seria:FADEOUT:$CHARA_FadeTime:0:0:0:0:0:0:0:0,#
*,type=STOP,param=0:0:0:0:0:0:0:0:0:0:0,#
*,type=HCHR_POS00,param=monster3:FADEIN:$CHARA_FadeTime:$OFS_Center:0:0:0:0:0:0:0,#
*,type=STOP,param=0:0:0:0:0:0:0:0:0:0:0,#
*,type=BGM_0000,param=34:0:0:0:0:0:0:0:0:0:0,#
*,type=HCHR_TK00,msg=<speed=10>……<wait=7><speed=7>自爆モードヲ<wait=3>選択。,param=monster3:$Center12:0:0:0:0:0:0:0:0:0,#
*,type=HCHR_TK01,param=ALL:0:0:0:0:0:0:0:0:0:0,#
*,type=HCHR_POS00,param=monster3:FADEOUT:$CHARA_FadeTime:0:0:0:0:0:0:0:0,#
*,type=STOP,param=0:0:0:0:0:0:0:0:0:0:0,#
*,type=HCHR_GRP00,param=chr_Seria:face:bi:T$0.0:0:0:0:0:0:0:0,#
*,type=HCHR_POS00,param=chr_Seria:FADEIN:$CHARA_FadeTime:$OFS_Center:0:0:0:0:0:0:0,#
*,type=STOP,param=0:0:0:0:0:0:0:0:0:0:0,#
*,type=HCHR_SHK00,param=chr_Seria:8:0.05:0.3:0:0:0:0:0:0:0,#
*,type=HCHR_EFC00,param=Eff_Manp:chr_Seria:manpu_1:OFS$0&0:SS5$$MANP_surprise_red_a:0:1:0:0:0:0,#
*,type=WAIT_0000,param=0.8:0:0:0:0:0:0:0:0:0:0,#
*,type=PICT_0004,param=Eff_Manp:0:0:0:0:0:0:0:0:0:0,#
*,type=WAIT_0000,param=0.2:0:0:0:0:0:0:0:0:0:0,#
*,type=HCHR_POS00,param=chr_Seria:FADEOUT:T$0.2:0:0:0:0:0:0:0:0,#
*,type=STOP,param=0:0:0:0:0:0:0:0:0:0:0,#
*,type=HCHR_POS00,param=monster3:FADEIN:$CHARA_FadeTime:$OFS_Center:0:0:0:0:0:0:0,#
*,type=STOP,param=0:0:0:0:0:0:0:0:0:0:0,#
*,type=HCHR_TK00,msg=自爆モード実行。,param=monster3:$Center8:0:0:0:0:0:0:0:0:0,#
*,type=HCHR_TK01,param=ALL:0:0:0:0:0:0:0:0:0:0,#
*,type=SE_0000,param=113:0:0:0:0:0:0:0:0:0:0,#
*,type=FADEOUT_000,param=2:255&0&0:0:0:0:0:0:0:0:0:0,#
*,type=HCHR_SHK00,param=monster3:10:0.05:2:0:0:0:0:0:0:0,#
*,type=STOP,param=0:0:0:0:0:0:0:0:0:0:0,#
*,type=FADEIN_000,param=0.2:255&0&0:0:0:0:0:0:0:0:0:0,#
*,type=STOP,param=0:0:0:0:0:0:0:0:0:0:0,#
*,type=WAIT_0000,param=0.3:0:0:0:0:0:0:0:0:0:0,#
*,type=SE_0000,param=353:0:0:0:0:0:0:0:0:0:0,#
*,type=SE_0000,param=319:0:0:0:0:0:0:0:0:0:0,#
*,type=QUAK_0000,msg= ,param=0.1:20:30:20:FixRange:0:0:0:0:0:0,#
*,type=FADEOUT_000,param=1:255&0&0:0:0:0:0:0:0:0:0:0,#
*,type=STOP,param=0:0:0:0:0:0:0:0:0:0:0,#
*,type=FADEIN_000,param=0.5:255&0&0:0:0:0:0:0:0:0:0:0,#
*,type=SS5_0000,param=sc_bridgeexplosion1:sc_bridgeexplosion.ssbp:sc_bridgeexplosion/anime:sc_bridgeexplosion/anime:11:320:560:1:0:0:0,#
*,type=SPKG_0000,param=sc_bridgeexplosion2:sc_bridgeexplosion.vfxb:10:220:600:0:0:0:0:0:0,#
*,type=WAIT_0000,param=7:0:0:0:0:0:0:0:0:0:0,#
*,type=FADEOUT_000,param=0.5:00&00&00:0:0:0:0:0:0:0:0:0,#
*,type=STOP,param=0:0:0:0:0:0:0:0:0:0:0,#
*,type=SS5_0001,param=sc_bridgeexplosion1:0:0:0:0:0:0:0:0:0:0,#
*,type=SPKG_0002,param=sc_bridgeexplosion2:0:0:0:0:0:0:0:0:0:0,#
*,type=FADEIN_000,param=1.5:00&00&00:0:0:0:0:0:0:0:0:0,#
*,type=HCHR_ENT01,param=chr_Seria:0:0:0:0:0:0:0:0:0:0,#
*,type=HCHR_ENT01,param=monster3:0:0:0:0:0:0:0:0:0:0,#
*,type=HCHR_ENT01,param=samoner:0:0:0:0:0:0:0:0:0:0,#
*,type=PICT_0004,param=bg1:0:0:0:0:0:0:0:0:0:0,#
*,type=PICT_0000,param=bg1:battle_bg_009_01.jpg:0:bg$1050101:0:0:0:0:0:0:0,#
*,type=STOP,param=0:0:0:0:0:0:0:0:0:0:0,#
*,type=WAIT_0000,param=0.5:0:0:0:0:0:0:0:0:0:0,#
*,type=HCHR_GRP00,param=chr_Dragon:face:do:T$0.0:0:0:0:0:0:0:0,#
*,type=HCHR_POS00,param=chr_Dragon:FADEIN:$CHARA_FadeTime:$OFS_Center:0:0:0:0:0:0:0,#
*,type=HCHR_SHK00,param=chr_Dragon:8:0.05:0.5:0:0:0:0:0:0:0,#
*,type=HCHR_TK00,msg=グカァァッ!!!,param=chr_Dragon:$Center8:0:0:0:0:0:0:0:0:0,#
*,type=HCHR_TK01,param=ALL:0:0:0:0:0:0:0:0:0:0,#
*,type=HCHR_POS00,param=chr_Dragon:FADEOUT:$CHARA_FadeTime:0:0:0:0:0:0:0:0,#
*,type=STOP,param=0:0:0:0:0:0:0:0:0:0:0,#
*,type=HCHR_GRP00,param=chr_Yehoshua:face:do:T$0.0:0:0:0:0:0:0:0,#
*,type=HCHR_POS00,param=chr_Yehoshua:FADEIN:$CHARA_FadeTime:$OFS_Center:0:0:0:0:0:0:0,#
*,type=STOP,param=0:0:0:0:0:0:0:0:0:0:0,#
*,type=HCHR_TK00,msg=<speed=9>……<wait=3><speed=7>橋が……<wait=3><speed=3>落ちた……!?,param=chr_Yehoshua:$Center12:0:0:0:0:0:0:0:0:0,#
*,type=HCHR_TK01,param=ALL:skipmask:0:0:0:0:0:0:0:0:0,#
*,type=WAIT_0000,param=0.5:0:0:0:0:0:0:0:0:0:0,#
*,type=HCHR_GRP00,param=chr_Yehoshua:face:ku:T$0.0:0:0:0:0:0:0:0,#
*,type=HCHR_TK00,msg=<speed=9>…………<wait=4><speed=4.8>理解できない。,param=chr_Yehoshua:$Center12:0:0:0:0:0:0:0:0:0,#
*,type=HCHR_TK01,param=all:0:0:0:0:0:0:0:0:0:0,#
*,type=WAIT_0000,param=0.5:0:0:0:0:0:0:0:0:0:0,#
*,type=HCHR_TK00,msg=召喚老ともあろう者が<wait=3><br><speed=7>なんて軽はずみな行動を……,param=chr_Yehoshua:$Center14:0:0:0:0:0:0:0:0:0,#
*,type=HCHR_TK01,param=all:0:0:0:0:0:0:0:0:0:0,#
*,type=WAIT_0000,param=1:0:0:0:0:0:0:0:0:0:0,#
*,type=SE_0000,param=375:0:0:0:0:0:0:0:0:0:0,#
*,type=WAIT_0000,param=1:0:0:0:0:0:0:0:0:0:0,#
*,type=SE_0000,param=376:0:0:0:0:0:0:0:0:0:0,#
*,type=HCHR_FDM00,param=chr_Yehoshua:MSK$on:0.3:0:0:0:0:0:0:0:0,#
*,type=HCHR_POS00,param=chr_Yehoshua:IN$left$160:$CHARA_FadeTime:$OFS_Right:0:0:0:0:0:0:0,#
*,type=SS5_0000,param=SS_monitor:script_monitor.ssbp:script_monitor/anime:script_monitor/anime:50:$Monitor_Left:$Monitor_Y:1:0:0:0,#
*,type=SS5_0000,param=SS_monitorBG:script_monitor.ssbp:script_monitor_back/anime:script_monitor_back/anime:30:$Monitor_Left:$Monitor_Y:1:0:0:0,#
*,type=WAIT_0000,param=0.5:0:0:0:0:0:0:0:0:0:0,#
*,type=HCHR_POS00,param=chr_Karl:FADEIN:$CHARA_FadeTime:$OFS_Left_Twin:0:0:0:0:0:0:0,#
*,type=STOP,param=0:0:0:0:0:0:0:0:0:0:0,#
*,type=HCHR_TK00,msg=ヨシュア、<wait=3>どうかしたか？,param=chr_Karl:$Left12:0:0:0:0:0:0:0:0:0,#
*,type=HCHR_GRP00,param=chr_Yehoshua:face:fu:T$0.0:0:0:0:0:0:0:0,#
*,type=HCHR_TK00,msg=カル様、<wait=3>報告があります。,param=chr_Yehoshua:$Right12:0:0:0:0:0:0:0:0:0,#
*,type=HCHR_TK01,param=ALL:skipmask:0:0:0:0:0:0:0:0:0,#
*,type=BGM_0001,param=2:0:0:0:0:0:0:0:0:0:0,#
*,type=FADEOUT_000,param=1.5:00&00&00:0:0:0:0:0:0:0:0:0,#
*,type=WAIT_0000,param=2:0:0:0:0:0:0:0:0:0:0,#
*,type=HCHR_TK01,param=ALL:0:0:0:0:0:0:0:0:0:0,#
*,type=FADEIN_000,param=1.5:00&00&00:0:0:0:0:0:0:0:0:0,#
*,type=HCHR_GRP00,param=chr_Karl:face:ai:T$0.0:0:0:0:0:0:0:0,#
*,type=STOP,param=0:0:0:0:0:0:0:0:0:0:0,#
*,type=BGM_0000,param=32:2:0:0:0:0:0:0:0:0:0,#
*,type=WAIT_0000,param=0.5:0:0:0:0:0:0:0:0:0:0,#
*,type=HCHR_TK00,msg=<speed=7>そうか、<wait=3>セリアが……,param=chr_Karl:$Left10:0:0:focusoff:0:0:0:0:0:0,#
*,type=HCHR_TK00,msg=カル様、<wait=3>ご指示ください。,param=chr_Yehoshua:$Right12:0:0:0:0:0:0:0:0:0,#
*,type=HCHR_TK00,msg=任務の遂行とセリア様の救出<wait=3><br>どちらを優先すべきでしょうか？,param=chr_Yehoshua:$Right16:0:0:0:0:0:0:0:0:0,#
*,type=HCHR_TK00,msg=<speed=7>あぁ………<wait=4><speed=4.8>そうだな。,param=chr_Karl:$Left10:0:0:0:0:0:0:0:0:0,#
*,type=HCHR_TK01,param=ALL:skipmask:0:0:0:0:0:0:0:0:0,#
*,type=WAIT_0000,param=0.5:0:0:0:0:0:0:0:0:0:0,#
*,type=HCHR_GRP00,param=chr_Karl:face:fu:T$0.0:0:0:0:0:0:0:0,#
*,type=HCHR_TK00,msg=セリアのことは心配しなくていい。,param=chr_Karl:$Left16:0:0:0:0:0:0:0:0:0,#
*,type=HCHR_TK00,msg=谷に落ちたぐらいでどうにかなるような<wait=3><br>ヤワなやつじゃない。,param=chr_Karl:$Left18:0:0:0:0:0:0:0:0:0,#
*,type=HCHR_TK01,param=ALL:0:0:0:0:0:0:0:0:0:0,#
*,type=HCHR_FDM00,param=ALL:MSK$on:T$0:0:0:0:0:0:0:0:0,#
*,type=HCHR_FDM00,param=chr_Karl:MSK$off:T$0:0:0:0:0:0:0:0:0,#
*,type=STOP,param=0:0:0:0:0:0:0:0:0:0:0,#
*,type=WAIT_0000,param=0.5:0:0:0:0:0:0:0:0:0:0,#
*,type=HCHR_EFC00,param=mnp:chr_Karl:manpu_1:OFS$0&0:SS5$$MANP_silence_a:0:1:0:0:0:0,#
*,type=WAIT_0000,param=1.5:0:0:0:0:0:0:0:0:0:0,#
*,type=PICT_0004,param=mnp:0:0:0:0:0:0:0:0:0:0,#
*,type=WAIT_0000,param=0.3:0:0:0:0:0:0:0:0:0:0,#
*,type=STOP,param=0:0:0:0:0:0:0:0:0:0:0,#
*,type=HCHR_TK00,msg=セリア抜きで任務続行はできるか？,param=chr_Karl:$Left16:0:0:0:0:0:0:0:0:0,#
*,type=HCHR_TK00,msg=<speed=9>……<wait=4><speed=4.8>可能です。,param=chr_Yehoshua:$Right8:0:0:0:0:0:0:0:0:0,#
*,type=HCHR_TK10,msg=<rep_handlename>の力量も把握しました。<wait=3><br>問題ありません。,param=chr_Yehoshua:Right:BASIC:0:0:0:0:0:0:0:0,#
*,type=HCHR_TK00,msg=<speed=7>そうか……,param=chr_Karl:$Left6:0:0:0:0:0:0:0:0:0,#
*,type=HCHR_TK01,param=ALL:skipmask:0:0:0:0:0:0:0:0:0,#
*,type=WAIT_0000,param=0.5:0:0:0:0:0:0:0:0:0:0,#
*,type=HCHR_TK00,msg=連れ去られたリンという子のことも<br>気になる。,param=chr_Karl:$Left16:0:0:0:0:0:0:0:0:0,#
*,type=HCHR_TK00,msg=引き続き、ネグレス七魔将の１人<wait=3><br>羅殲鎧ザドと,param=chr_Karl:$Left16:0:0:0:0:0:0:0:0:0,#
*,type=HCHR_TK00,msg=それを作った科学者グスタフがいる<br>であろう拠点を目指してくれ。,param=chr_Karl:$Left16:0:0:0:0:0:0:0:0:0,#
*,type=HCHR_TK01,param=ALL:skipmask:0:0:0:0:0:0:0:0:0,#
*,type=WAIT_0000,param=0.5:0:0:0:0:0:0:0:0:0:0,#
*,type=HCHR_TK00,msg=もちろん、セリア救援を含めて<wait=3><br>君たちへの増援も可能な限り送る。,param=chr_Karl:$Left16:0:0:0:0:0:0:0:0:0,#
*,type=HCHR_TK00,msg=了解しました。,param=chr_Yehoshua:$Right8:0:0:0:0:0:0:0:0:0,#
*,type=HCHR_TK01,param=ALL:skipmask:0:0:0:0:0:0:0:0:0,#
*,type=SS5_0004,param=SS_monitor:JMP1:OFF:0:0:0:0:0:0:0:0,#
*,type=SS5_0004,param=SS_monitorBG:JMP1:OFF:0:0:0:0:0:0:0:0,#
*,type=HCHR_POS00,param=chr_Karl:FADEOUT:$CHARA_FadeTime:0:0:0:0:0:0:0:0,#
*,type=SE_0000,param=377:0:0:0:0:0:0:0:0:0:0,#
*,type=STOP,param=0:0:0:0:0:0:0:0:0:0:0,#
*,type=WAIT_0000,param=0.5:0:0:0:0:0:0:0:0:0:0,#
*,type=STOP,param=0:0:0:0:0:0:0:0:0:0:0,#
*,type=HCHR_POS00,param=chr_Yehoshua:IN$right$160:T$0.5:$OFS_Center:0:0:0:0:0:0:0,#
*,type=STOP,param=0:0:0:0:0:0:0:0:0:0:0,#
*,type=WAIT_0000,param=0.5:0:0:0:0:0:0:0:0:0:0,#
*,type=HCHR_TK00,msg=聞いた通りだ。<wait=3><br>俺たち２人で任務を続行する。,param=chr_Yehoshua:$Center14:0:0:0:0:0:0:0:0:0,#
*,type=HCHR_TK01,param=ALL:skipmask:0:0:0:0:0:0:0:0:0,#
*,type=WAIT_0000,param=0.5:0:0:0:0:0:0:0:0:0:0,#
*,type=HCHR_TK00,msg=行くぞ。,param=chr_Yehoshua:$Center4:0:0:0:0:0:0:0:0:0,#
*,type=HCHR_TK01,param=ALL:0:0:0:0:0:0:0:0:0:0,#
*,type=WAIT_0000,param=1:0:0:0:0:0:0:0:0:0:0,#
*,type=FADEOUT_000,param=1.5:00&00&00:0:0:0:0:0:0:0:0:0,#
*,type=WAIT_0000,param=2:0:0:0:0:0:0:0:0:0:0,#
*,type=STOP,param=0:0:0:0:0:0:0:0:0:0:0,#
*,type=PICT_0004,param=bg1:0:0:0:0:0:0:0:0:0:0,#
*,type=HCHR_ENT01,param=chr_Yehoshua:0:0:0:0:0:0:0:0:0:0,#
*,type=HCHR_ENT01,param=chr_Karl:0:0:0:0:0:0:0:0:0:0,#
*,type=GAM_CHGSCENE,param=DungeonSelect:0:10501:0:0:0:0:0:0:0:0,#

*,type=SYSED_00,param=0:0:0:0:0:0:0:0:0:0:0,#



