﻿ScriptCmd ver 1.1.1:スクリプト_03_1_モルデンカンプ_dungeon6.xlsm/シーン6_1/main007-dungeon6_1.csv

*,type=SYSST_00,param=0:0:0:0:0:0:0:0:0:0:0,#
*,type=CMD_STOP,param=0:0:0:0:0:0:0:0:0:0:0,#
*,type=SYSST_01,param=0:0:0:0:0:0:0:0:0:0:0,#


*,type=BGM_0000,param=51:0:0:0:0:0:0:0:0:0:0,#
*,type=PICT_0000,param=bg1:battle_bg_009_06.jpg:0:bg$1050106:0:0:0:0:0:0:0,#
*,type=HCHR_ENT00,param=chr_Yehoshua:ヨシュア:N$chara_bf2_7:$POS_Center:TYPE$middle:Z$1:0:0:0:0:0,#
*,type=HCHR_ENT00,param=chr_Noel:ノエル:N$chara_bf2_31_m:$POS_Monitor_Center:TYPE$middle:Z$5&5:0:0:0:0:0,#
*,type=HCHR_ENT00,param=chr_Lin:リン:N$chara_bf2_25:$POS_Center:TYPE$middle:Z$1:0:0:0:0:0,#
*,type=HCHR_ENT00,param=chr_Lyle:？？？:N$chara_bf2_24:$POS_Center:TYPE$middle:Z$1:0:0:0:0:0,#
*,type=HCHR_ENT00,param=chr_Eriole:エリオール:N$chara_bf2_8:$POS_Center:TYPE$middle:Z$1:0:0:0:0:0,#
*,type=HCHR_ENT00,param=chr_Sella:セラ:N$chara_bf2_34:$POS_Center:TYPE$middle:Z$1:0:0:0:0:0,#
*,type=HCHR_ENT00,param=chr_Mehlfel:メルフェル:N$chara_bf2_18:$POS_Center:TYPE$middle:Z$1:0:0:0:0:0,#
*,type=HCHR_ENT00,param=chr_Grahdens:グラデンス:N$chara_bf2_9:$POS_Center:TYPE$middle:Z$1:0:0:0:0:0,#
*,type=HCHR_ENT00,param=chr_nanashi:？？？:N$chara_bf2_1_nothum:$POS_Center:TYPE$middle:Z$1:0:0:0:0:0,#
*,type=STOP,param=0:0:0:0:0:0:0:0:0:0:0,#
*,type=FADEIN_000,param=1.5:00&00&00:0:0:0:0:0:0:0:0:0,#
*,type=STOP,param=0:0:0:0:0:0:0:0:0:0:0,#
*,type=WAIT_0000,param=2:0:0:0:0:0:0:0:0:0:0,#
*,type=HCHR_POS00,param=chr_Yehoshua:FADEIN:T$0.5:$OFS_Right:0:0:0:0:0:0:0,#
*,type=STOP,param=0:0:0:0:0:0:0:0:0:0:0,#
*,type=WAIT_0000,param=0.5:0:0:0:0:0:0:0:0:0:0,#
*,type=HCHR_TK00,msg=<speed=7>ここは……,param=chr_Yehoshua:$Right6:0:0:0:0:0:0:0:0:0,#
*,type=HCHR_TK01,param=all:0:0:0:0:0:0:0:0:0:0,#
*,type=SE_0000,param=376:0:0:0:0:0:0:0:0:0:0,#
*,type=SS5_0000,param=SS_monitor:script_monitor.ssbp:script_monitor/anime:script_monitor/anime:7:$Monitor_Left:$Monitor_Y:1:0:0:0,#
*,type=SS5_0000,param=SS_monitorBG:script_monitor.ssbp:script_monitor_back/anime:script_monitor_back/anime:4:$Monitor_Left:$Monitor_Y:1:0:0:0,#
*,type=WAIT_0000,param=0.5:0:0:0:0:0:0:0:0:0:0,#
*,type=STOP,param=0:0:0:0:0:0:0:0:0:0:0,#
*,type=HCHR_POS00,param=chr_Noel:FADEIN:$CHARA_FadeTime:$OFS_Left:0:0:0:0:0:0:0,#
*,type=STOP,param=0:0:0:0:0:0:0:0:0:0:0,#
*,type=HCHR_TK00,msg=さすがに手が込んでるね。,param=chr_Noel:$Left12:0:0:0:0:0:0:0:0:0,#
*,type=HCHR_TK00,msg=これだけの設備があれば<wait=3><br>いろんな実験や研究ができるな。,param=chr_Noel:$Left16:0:0:0:0:0:0:0:0:0,#
*,type=HCHR_TK00,msg=<speed=7>まったく羨ま……<wait=7><br>いや、<wait=3>なんてけしからん施設だ。,param=chr_Noel:$Left16:0:0:0:0:0:0:0:0:0,#
*,type=HCHR_TK01,param=ALL:skipmask:0:0:0:0:0:0:0:0:0,#
*,type=HCHR_FDM00,param=chr_Yehoshua:MSK$off:0.3:0:0:0:0:0:0:0:0,#
*,type=HCHR_FDM00,param=chr_Noel:MSK$on:0.3:0:0:0:0:0:0:0:0,#
*,type=STOP,param=0:0:0:0:0:0:0:0:0:0:0,#
*,type=WAIT_0000,param=0.5:0:0:0:0:0:0:0:0:0:0,#
*,type=HCHR_EFC00,param=Eff_Manp_11:chr_Yehoshua:manpu_1:0:SS5$$MANP_silence_a:0:1:0:0:0:0,#
*,type=STOP,param=0:0:0:0:0:0:0:0:0:0:0,#
*,type=WAIT_0000,param=1.3:0:0:0:0:0:0:0:0:0:0,#
*,type=STOP,param=0:0:0:0:0:0:0:0:0:0:0,#
*,type=PICT_0004,param=Eff_Manp_11:0:0:0:0:0:0:0:0:0:0,#
*,type=WAIT_0000,param=0.3:0:0:0:0:0:0:0:0:0:0,#
*,type=HCHR_TK00,msg=リン、<wait=3>あの機械人形と科学者がいる<br>場所は分かるか？,param=chr_Yehoshua:$Right16:0:0:0:0:0:0:0:0:0,#
*,type=HCHR_TK01,param=all:skipmask:0:0:0:0:0:0:0:0:0,#
*,type=HCHR_FDM00,param=chr_Lin:MSK$off:T$0.0:0:0:0:0:0:0:0:0,#
*,type=SS5_0001,param=SS_monitor:0:0:0:0:0:0:0:0:0:0,#
*,type=SS5_0001,param=SS_monitorBG:0:0:0:0:0:0:0:0:0:0,#
*,type=HCHR_POS00,param=chr_Noel:FADEOUT:T$0.0:0:0:0:0:0:0:0:0,#
*,type=STOP,param=0:0:0:0:0:0:0:0:0:0:0,#
*,type=HCHR_PRM00,param=chr_Yehoshua:Z$1:0:0:0:0:0:0:0:0:0,#
*,type=HCHR_PRM00,param=chr_Lin:Z$2:0:0:0:0:0:0:0:0:0,#
*,type=HCHR_GRP00,param=chr_Lin:face:ai:$FACE_FadeTime:0:0:0:0:0:0:0,#
*,type=HCHR_POS00,param=chr_Lin:FADEIN:T$0.5:$OFS_Left:0:0:0:0:0:0:0,#
*,type=STOP,param=0:0:0:0:0:0:0:0:0:0:0,#
*,type=HCHR_TK00,msg=<speed=9>……<wait=4><speed=4.8>この建物に入った記憶はあるけど,param=chr_Lin:$Left18:0:0:0:0:0:0:0:0:0,#
*,type=HCHR_TK00,msg=あのザドって奴に運ばれて、空から<br>入ったから、<wait=3><speed=7>よく分からない……,param=chr_Lin:$Left16:0:0:0:0:0:0:0:0:0,#
*,type=HCHR_TK00,msg=そうか。<wait=3><br>なら、調べながら進むしかないな。,param=chr_Yehoshua:$Right16:0:0:0:0:0:0:0:0:0,#
*,type=HCHR_TK01,param=all:skipmask:0:0:0:0:0:0:0:0:0,#
*,type=WAIT_0000,param=1:0:0:0:0:0:0:0:0:0:0,#
*,type=BGM_0001,param=2:0:0:0:0:0:0:0:0:0:0,#
*,type=FADEOUT_000,param=1.5:00&00&00:0:0:0:0:0:0:0:0:0,#
*,type=WAIT_0000,param=2:0:0:0:0:0:0:0:0:0:0,#
*,type=STOP,param=0:0:0:0:0:0:0:0:0:0:0,#
*,type=PICT_0004,param=bg1:0:0:0:0:0:0:0:0:0:0,#
*,type=HCHR_ENT01,param=chr_Noel:0:0:0:0:0:0:0:0:0:0,#
*,type=HCHR_ENT01,param=chr_Lin:0:0:0:0:0:0:0:0:0:0,#
*,type=HCHR_ENT01,param=chr_Yehoshua:0:0:0:0:0:0:0:0:0:0,#
*,type=PICT_0000,param=bg2:event_bg_009.jpg:0:bg$900008:0:0:0:0:0:0:0,#
*,type=MSKS_0000,param=bgBlackMask:$BGBLACK_Color:200:Z$50:0:0:0:0:0:0:0,#
*,type=STOP,param=0:0:0:0:0:0:0:0:0:0:0,#
*,type=FADEIN_000,param=1.5:00&00&00:0:0:0:0:0:0:0:0:0,#
*,type=STOP,param=0:0:0:0:0:0:0:0:0:0:0,#
*,type=WAIT_0000,param=0.5:0:0:0:0:0:0:0:0:0:0,#
*,type=FMSG_0000,msg=同時刻。,param=chr_narration1:$NW2_00013:nowait:0:focusoff:0:0:0:0:0:0,#
*,type=CSYN_0001,param=0:0:0:0:0:0:0:0:0:0:0,#
*,type=FMSG_0000,msg=アクラス召喚院にて。,param=chr_narration2:$NW2_00017:nowait:0:focusoff:0:0:0:0:0:0,#
*,type=CSYN_0001,param=0:0:0:0:0:0:0:0:0:0:0,#
*,type=WAIT_0000,param=2:0:0:0:0:0:0:0:0:0:0,#
*,type=FMSG_0001,param=ALL:0:0:0:0:0:0:0:0:0:0,#
*,type=WAIT_0000,param=1:0:0:0:0:0:0:0:0:0:0,#
*,type=HCHR_TK00,msg=報告する……,param=chr_nanashi:$CenterNoTail6:0:0:0:0:0:0:0:0:0,#
*,type=HCHR_TK00,msg=召喚院では近々大規模な人員をセルタビアに<wait=3><br>派遣する計画を立てている。,param=chr_nanashi:$CenterNoTail20:0:0:0:0:0:0:0:0:0,#
*,type=HCHR_TK00,msg=無論、<wait=3>妨害工作は行うが、<wait=3>そちらでも<br>対策を講じる必要があると考える。,param=chr_nanashi:$CenterNoTail18:0:0:0:0:0:0:0:0:0,#
*,type=HCHR_TK00,msg=繰り返す……<wait=3>召喚院では……,param=chr_nanashi:$CenterNoTail14:0:0:0:0:0:0:0:0:0,#
*,type=HCHR_TK01,param=all:0:0:0:0:0:0:0:0:0:0,#
*,type=FADEIN_000,param=0.2:255&255&255:0:0:0:0:0:0:0:0:0,#
*,type=WAIT_0000,param=0.165:0:0:0:0:0:0:0:0:0:0,#
*,type=MSKS_0002,param=bgBlackMask:T$0:0:0:0:0:0:0:0:0:0,#
*,type=FADEOUT_000,param=0.2:255&255&255:0:0:0:0:0:0:0:0:0,#
*,type=HCHR_PRM00,param=chr_Lyle:NAME$ライル:0:0:0:0:0:0:0:0:0,#
*,type=HCHR_GRP00,param=chr_Lyle:face:bi:$FACE_FadeTime:0:0:0:0:0:0:0,#
*,type=HCHR_POS00,param=chr_Lyle:FADEIN:T$0.0:0:0:0:0:0:0:0:0,#
*,type=STOP,param=0:0:0:0:0:0:0:0:0:0:0,#
*,type=HCHR_SHK00,param=chr_Lyle:5:0.1:0.5:0:0:0:0:0:0:0,#
*,type=HCHR_EFC00,param=Eff_Manp:chr_Lyle:manpu_1:OFS$0&0:SS5$$MANP_surprise_red_a_02:0:0:0:0:0:0,#
*,type=WAIT_0000,param=1.3:0:0:0:0:0:0:0:0:0:0,#
*,type=PICT_0004,param=Eff_Manp:0:0:0:0:0:0:0:0:0:0,#
*,type=WAIT_0000,param=0.5:0:0:0:0:0:0:0:0:0:0,#
*,type=HCHR_POS00,param=chr_Lyle:FADEOUT:T$0.2:0:0:0:0:0:0:0:0,#
*,type=STOP,param=0:0:0:0:0:0:0:0:0:0:0,#
*,type=BGM_0000,param=52:0:0:0:0:0:0:0:0:0:0,#
*,type=HCHR_PRM00,param=chr_Eriole:Z$3:0:0:0:0:0:0:0:0:0,#
*,type=HCHR_PRM00,param=chr_Sella:Z$1:0:0:0:0:0:0:0:0:0,#
*,type=HCHR_PRM00,param=chr_Grahdens:Z$2:0:0:0:0:0:0:0:0:0,#
*,type=HCHR_GRP00,param=chr_Eriole:face:fu:$FACE_FadeTime:0:0:0:0:0:0:0,#
*,type=HCHR_POS00,param=chr_Eriole:FADEIN:T$1.0:$OFS_Left_Triple:0:0:0:0:0:0:0,#
*,type=HCHR_GRP00,param=chr_Sella:face:bi:$FACE_FadeTime:0:0:0:0:0:0:0,#
*,type=HCHR_POS00,param=chr_Sella:FADEIN:T$1.0:$OFS_Center:0:0:0:0:0:0:0,#
*,type=HCHR_POS00,param=chr_Grahdens:FADEIN:T$1.0:$OFS_Right_Triple:0:0:0:0:0:0:0,#
*,type=STOP,param=0:0:0:0:0:0:0:0:0:0:0,#
*,type=WAIT_0000,param=1:0:0:0:0:0:0:0:0:0:0,#
*,type=HCHR_TK00,msg=ついに尻尾を出したな……,param=chr_Eriole:$Left12_FixedTriple:0:0:0:0:0:0:0:0:0,#
*,type=HCHR_TK00,msg=アクラス召喚院開拓局調査部後方支援課長<wait=4><br>ライル・ハースト。,param=chr_Eriole:$Left20_FixedTriple:0:0:0:0:0:0:0:0:0,#
*,type=HCHR_TK00,msg=<speed=3>ライル、<wait=4>まさかあなたが……!!,param=chr_Sella:$Center14:0:0:0:0:0:0:0:0:0,#
*,type=HCHR_TK01,param=all:skipmask:0:0:0:0:0:0:0:0:0,#
*,type=HCHR_POS00,param=chr_Eriole:FADEOUT:T$0.5:0:0:0:0:0:0:0:0,#
*,type=HCHR_POS00,param=chr_Sella:FADEOUT:T$0.5:0:0:0:0:0:0:0:0,#
*,type=HCHR_POS00,param=chr_Grahdens:FADEOUT:T$0.5:0:0:0:0:0:0:0:0,#
*,type=STOP,param=0:0:0:0:0:0:0:0:0:0:0,#
*,type=HCHR_FDM00,param=all:MSK$off:T$0.0:0:0:0:0:0:0:0:0,#
*,type=HCHR_GRP00,param=chr_Lyle:face:ku:$FACE_FadeTime:0:0:0:0:0:0:0,#
*,type=HCHR_POS00,param=chr_Lyle:FADEIN:T$0.5:0:0:0:0:0:0:0:0,#
*,type=STOP,param=0:0:0:0:0:0:0:0:0:0:0,#
*,type=WAIT_0000,param=0.5:0:0:0:0:0:0:0:0:0:0,#
*,type=HCHR_TK00,msg=<speed=9>…………,param=chr_Lyle:$Center4:0:0:0:0:0:0:0:0:0,#
*,type=HCHR_TK01,param=all:0:0:0:0:0:0:0:0:0:0,#
*,type=HCHR_POS00,param=chr_Lyle:FADEOUT:T$0.5:0:0:0:0:0:0:0:0,#
*,type=STOP,param=0:0:0:0:0:0:0:0:0:0:0,#
*,type=HCHR_FDM00,param=chr_Eriole:MSK$on:T$0.0:0:0:0:0:0:0:0:0,#
*,type=HCHR_FDM00,param=chr_Sella:MSK$on:T$0.0:0:0:0:0:0:0:0:0,#
*,type=HCHR_PRM00,param=chr_Eriole:Z$2:0:0:0:0:0:0:0:0:0,#
*,type=HCHR_PRM00,param=chr_Sella:Z$1:0:0:0:0:0:0:0:0:0,#
*,type=HCHR_PRM00,param=chr_Grahdens:Z$3:0:0:0:0:0:0:0:0:0,#
*,type=HCHR_POS00,param=chr_Eriole:FADEIN:$CHARA_FadeTime:$OFS_Left_Triple:0:0:0:0:0:0:0,#
*,type=HCHR_POS00,param=chr_Sella:FADEIN:$CHARA_FadeTime:$OFS_Center:0:0:0:0:0:0:0,#
*,type=HCHR_POS00,param=chr_Grahdens:FADEIN:$CHARA_FadeTime:$OFS_Right_Triple:0:0:0:0:0:0:0,#
*,type=STOP,param=0:0:0:0:0:0:0:0:0:0:0,#
*,type=HCHR_TK00,msg=エミリーちゃんの上司であるお主なら,param=chr_Grahdens:$Right18_FixedTriple:0:0:0:0:0:0:0:0:0,#
*,type=HCHR_TK00,msg=彼女に濡れ衣を着せることなど<wait=3><br>訳もなかったであろう。,param=chr_Grahdens:$Right14_FixedTriple:0:0:0:0:0:0:0:0:0,#
*,type=HCHR_TK01,param=ALL:skipmask:0:0:0:0:0:0:0:0:0,#
*,type=WAIT_0000,param=0.5:0:0:0:0:0:0:0:0:0:0,#
*,type=HCHR_GRP00,param=chr_Grahdens:face:do:$FACE_FadeTime:0:0:0:0:0:0:0,#
*,type=HCHR_TK00,msg=しかし、<wait=3>召喚師たちの間でスパイ疑惑が<br>広まる前に調査するフリをして,param=chr_Grahdens:$Right18_FixedTriple:0:0:0:0:0:0:0:0:0,#
*,type=HCHR_TK00,msg=先んじて偽の犯人を仕立て上げるとは<wait=3><br>なかなか悪どいもんじゃな。,param=chr_Grahdens:$Right18_FixedTriple:0:0:0:0:0:0:0:0:0,#
*,type=HCHR_GRP00,param=chr_Grahdens:face:ai:$FACE_FadeTime:0:0:0:0:0:0:0,#
*,type=HCHR_TK00,msg=まぁ、<wait=3>告発者が犯人だとは<wait=3><br>なかなか思わぬもんだからのう。,param=chr_Grahdens:$Right16_FixedTriple:0:0:0:0:0:0:0:0:0,#
*,type=HCHR_TK01,param=all:skipmask:0:0:0:0:0:0:0:0:0,#
*,type=WAIT_0000,param=0.5:0:0:0:0:0:0:0:0:0:0,#
*,type=HCHR_POS00,param=chr_Eriole:FADEOUT:$CHARA_FadeTime:0:0:0:0:0:0:0:0,#
*,type=HCHR_POS00,param=chr_Sella:FADEOUT:$CHARA_FadeTime:0:0:0:0:0:0:0:0,#
*,type=HCHR_POS00,param=chr_Grahdens:FADEOUT:$CHARA_FadeTime:0:0:0:0:0:0:0:0,#
*,type=STOP,param=0:0:0:0:0:0:0:0:0:0:0,#
*,type=HCHR_FDM00,param=chr_Lyle:MSK$off:T$0.0:0:0:0:0:0:0:0:0,#
*,type=HCHR_GRP00,param=chr_Lyle:face:ku:$FACE_FadeTime:0:0:0:0:0:0:0,#
*,type=HCHR_POS00,param=chr_Lyle:FADEIN:T$0.5:$OFS_Center:0:0:0:0:0:0:0,#
*,type=STOP,param=0:0:0:0:0:0:0:0:0:0:0,#
*,type=HCHR_TK00,msg=<speed=10>なるほど……<wait=4><speed=4.8>私はあなた方が仕掛けた罠に<wait=3><br>まんまと引っかかった、<wait=3>というわけですね。,param=chr_Lyle:$Center20:0:0:0:0:0:0:0:0:0,#
*,type=HCHR_TK01,param=all:skipmask:0:0:0:0:0:0:0:0:0,#
*,type=HCHR_FDM00,param=chr_Eriole:MSK$off:T$0.0:0:0:0:0:0:0:0:0,#
*,type=HCHR_PRM00,param=chr_Lyle:Z$1:0:0:0:0:0:0:0:0:0,#
*,type=HCHR_PRM00,param=chr_Eriole:Z$2:0:0:0:0:0:0:0:0:0,#
*,type=HCHR_POS00,param=chr_Lyle:OFS$160&0:T$0.5:0:0:0:0:0:0:0:0,#
*,type=HCHR_POS00,param=chr_Eriole:FADEIN:T$0.5:$OFS_Left:0:0:0:0:0:0:0,#
*,type=STOP,param=0:0:0:0:0:0:0:0:0:0:0,#
*,type=HCHR_TK00,msg=あぁ、<wait=3>案外簡単に引っかかってくれて<wait=3><br>助かった。,param=chr_Eriole:$Left18:0:0:0:0:0:0:0:0:0,#
*,type=HCHR_GRP00,param=chr_Lyle:face:mu:$FACE_FadeTime:0:0:0:0:0:0:0,#
*,type=HCHR_TK00,msg=……しかし、<wait=3>私は召喚院に勤めてもう<br>７年以上が経ちます。,param=chr_Lyle:$Right18:0:0:0:0:0:0:0:0:0,#
*,type=HCHR_GRP00,param=chr_Lyle:face:fu:$FACE_FadeTime:0:0:0:0:0:0:0,#
*,type=HCHR_TK00,msg=よくその私に疑いを向けたものですね？,param=chr_Lyle:$Right18:0:0:0:0:0:0:0:0:0,#
*,type=HCHR_TK00,msg=生憎と私は、召喚院の者たちと違って<wait=3><br>この手の策謀にはいささか詳しくてな。,param=chr_Eriole:$Left18:0:0:0:0:0:0:0:0:0,#
*,type=HCHR_TK00,msg=数年かけて仕込みをしている可能性など<wait=3><br>珍しいとも思わん。,param=chr_Eriole:$Left18:0:0:0:0:0:0:0:0:0,#
*,type=BGM_0001,param=2:0:0:0:0:0:0:0:0:0:0,#
*,type=HCHR_GRP00,param=chr_Lyle:face:mu:$FACE_FadeTime:0:0:0:0:0:0:0,#
*,type=HCHR_TK00,msg=<speed=10>なるほど……,param=chr_Lyle:$Right6:0:0:0:0:0:0:0:0:0,#
*,type=HCHR_TK01,param=ALL:skipmask:0:0:0:0:0:0:0:0:0,#
*,type=WAIT_0000,param=1:0:0:0:0:0:0:0:0:0:0,#
*,type=BGM_0000,param=23:0:0:0:0:0:0:0:0:0:0,#
*,type=HCHR_GRP00,param=chr_Lyle:face:ki:$FACE_FadeTime:0:0:0:0:0:0:0,#
*,type=HCHR_TK00,msg=ならば仕方ありませんネェ。<wait=3><br>茶番劇もここまでということで♪,param=chr_Lyle:$Right16:0:0:0:0:0:0:0:0:0,#
*,type=HCHR_TK01,param=all:skipmask:0:0:0:0:0:0:0:0:0,#
*,type=HCHR_POS00,param=chr_Eriole:FADEOUT:T$0.5:0:0:0:0:0:0:0:0,#
*,type=HCHR_FDM00,param=chr_Sella:MSK$off:T$0.0:0:0:0:0:0:0:0:0,#
*,type=HCHR_POS00,param=chr_Sella:FADEIN:T$0.5:$OFS_Left:0:0:0:0:0:0:0,#
*,type=STOP,param=0:0:0:0:0:0:0:0:0:0:0,#
*,type=HCHR_TK00,msg=えっ……<wait=3>ライル……!?,param=chr_Sella:$Left10:0:0:0:0:0:0:0:0:0,#
*,type=HCHR_TK01,param=all:skipmask:0:0:0:0:0:0:0:0:0,#
*,type=HCHR_POS00,param=chr_Sella:FADEOUT:T$0.5:0:0:0:0:0:0:0:0,#
*,type=STOP,param=0:0:0:0:0:0:0:0:0:0:0,#
*,type=HCHR_FDM00,param=all:MSK$off:0.3:0:0:0:0:0:0:0:0,#
*,type=HCHR_POS00,param=chr_Lyle:OFS$-160&0:T$0.5:0:0:0:0:0:0:0:0,#
*,type=WAIT_0000,param=1:0:0:0:0:0:0:0:0:0:0,#
*,type=FADEIN_000,param=0.2:255&255&255:0:0:0:0:0:0:0:0:0,#
*,type=STOP,param=0:0:0:0:0:0:0:0:0:0:0,#
*,type=WAIT_0000,param=0.2:0:0:0:0:0:0:0:0:0:0,#
*,type=FADEIN_000,param=0.2:255&255&255:0:0:0:0:0:0:0:0:0,#
*,type=STOP,param=0:0:0:0:0:0:0:0:0:0:0,#
*,type=WAIT_0000,param=0.5:0:0:0:0:0:0:0:0:0:0,#
*,type=FADEIN_000,param=0.2:255&255&255:0:0:0:0:0:0:0:0:0,#
*,type=HCHR_GRP00,param=chr_Mehlfel:face:ki:$FACE_FadeTime:0:0:0:0:0:0:0,#
*,type=HCHR_POS00,param=chr_Mehlfel:FADEIN:T$0.0:$OFS_Center:0:0:0:0:0:0:0,#
*,type=HCHR_POS00,param=chr_Lyle:FADEOUT:T$0.0:$OFS_Center:0:0:0:0:0:0:0,#
*,type=STOP,param=0:0:0:0:0:0:0:0:0:0:0,#
*,type=WAIT_0000,param=0.1:0:0:0:0:0:0:0:0:0:0,#
*,type=FADEIN_000,param=0.2:255&255&255:0:0:0:0:0:0:0:0:0,#
*,type=HCHR_POS00,param=chr_Mehlfel:FADEOUT:T$0.0:$OFS_Center:0:0:0:0:0:0:0,#
*,type=HCHR_POS00,param=chr_Lyle:FADEIN:T$0.0:$OFS_Center:0:0:0:0:0:0:0,#
*,type=STOP,param=0:0:0:0:0:0:0:0:0:0:0,#
*,type=WAIT_0000,param=0.2:0:0:0:0:0:0:0:0:0:0,#
*,type=FADEIN_000,param=0.2:255&255&255:0:0:0:0:0:0:0:0:0,#
*,type=HCHR_POS00,param=chr_Mehlfel:FADEIN:T$0.0:$OFS_Center:0:0:0:0:0:0:0,#
*,type=HCHR_POS00,param=chr_Lyle:FADEOUT:T$0.0:$OFS_Center:0:0:0:0:0:0:0,#
*,type=STOP,param=0:0:0:0:0:0:0:0:0:0:0,#
*,type=FADEIN_000,param=0.2:255&255&255:0:0:0:0:0:0:0:0:0,#
*,type=HCHR_POS00,param=chr_Mehlfel:FADEOUT:T$0.0:$OFS_Center:0:0:0:0:0:0:0,#
*,type=HCHR_POS00,param=chr_Lyle:FADEIN:T$0.0:$OFS_Center:0:0:0:0:0:0:0,#
*,type=STOP,param=0:0:0:0:0:0:0:0:0:0:0,#
*,type=WAIT_0000,param=0.5:0:0:0:0:0:0:0:0:0:0,#
*,type=FADEIN_000,param=0.1:255&255&255:0:0:0:0:0:0:0:0:0,#
*,type=HCHR_POS00,param=chr_Mehlfel:FADEIN:T$0.0:$OFS_Center:0:0:0:0:0:0:0,#
*,type=HCHR_POS00,param=chr_Lyle:FADEOUT:T$0.0:$OFS_Center:0:0:0:0:0:0:0,#
*,type=STOP,param=0:0:0:0:0:0:0:0:0:0:0,#
*,type=FADEIN_000,param=0.1:255&255&255:0:0:0:0:0:0:0:0:0,#
*,type=HCHR_POS00,param=chr_Mehlfel:FADEOUT:T$0.0:$OFS_Center:0:0:0:0:0:0:0,#
*,type=HCHR_POS00,param=chr_Lyle:FADEIN:T$0.0:$OFS_Center:0:0:0:0:0:0:0,#
*,type=STOP,param=0:0:0:0:0:0:0:0:0:0:0,#
*,type=SE_0000,param=8:0:0:0:0:0:0:0:0:0:0,#
*,type=FADEIN_000,param=2:255&255&255:0:0:0:0:0:0:0:0:0,#
*,type=HCHR_POS00,param=chr_Lyle:FADEOUT:T$0.0:$OFS_Center:0:0:0:0:0:0:0,#
*,type=WAIT_0000,param=1:0:0:0:0:0:0:0:0:0:0,#
*,type=HCHR_POS00,param=chr_Mehlfel:FADEIN:T$1.5:$OFS_Center:0:0:0:0:0:0:0,#
*,type=STOP,param=0:0:0:0:0:0:0:0:0:0:0,#
*,type=WAIT_0000,param=1:0:0:0:0:0:0:0:0:0:0,#
*,type=HCHR_TK00,msg=どうも、皆様。<wait=3><br>お初にお目にかかります♪,param=chr_Mehlfel:$Center12:0:0:0:0:0:0:0:0:0,#
*,type=HCHR_TK00,msg=ワタクシ、<wait=3>ネグレス七魔将が１人<wait=3><br>奇術師メルフェルと申します。,param=chr_Mehlfel:$Center16:0:0:0:0:0:0:0:0:0,#
*,type=HCHR_TK01,param=all:0:0:0:0:0:0:0:0:0:0,#
*,type=HCHR_POS00,param=chr_Mehlfel:OFS$-160&0:T$0.3:0:0:0:0:0:0:0:0,#
*,type=HCHR_FDM00,param=chr_Mehlfel:MSK$on:T$0.3:0:0:0:0:0:0:0:0,#
*,type=HCHR_PRM00,param=chr_Mehlfel:Z$1:0:0:0:0:0:0:0:0:0,#
*,type=HCHR_PRM00,param=chr_Grahdens:Z$2:0:0:0:0:0:0:0:0:0,#
*,type=HCHR_GRP00,param=chr_Grahdens:face:bi:0:0:0:0:0:0:0:0,#
*,type=HCHR_POS00,param=chr_Grahdens:FADEIN:T$0.3:$OFS_Right:0:0:0:0:0:0:0,#
*,type=STOP,param=0:0:0:0:0:0:0:0:0:0:0,#
*,type=HCHR_TK00,msg=<speed=3>七魔将じゃと……!?,param=chr_Grahdens:$Right10:0:0:0:0:0:0:0:0:0,#
*,type=HCHR_TK00,msg=はい♪,param=chr_Mehlfel:$Left4:0:0:0:0:0:0:0:0:0,#
*,type=HCHR_TK01,param=all:skipmask:0:0:0:0:0:0:0:0:0,#
*,type=WAIT_0000,param=0.5:0:0:0:0:0:0:0:0:0:0,#
*,type=HCHR_GRP00,param=chr_Mehlfel:face:fu:$FACE_FadeTime:0:0:0:0:0:0:0,#
*,type=HCHR_TK00,msg=あぁ、<wait=3>でもご安心を。,param=chr_Mehlfel:$Left10:0:0:0:0:0:0:0:0:0,#
*,type=HCHR_TK00,msg=ここにいるのはエルハザ様が作った依代に<wait=3><br>ワタクシの精神の一部を入れたものです。,param=chr_Mehlfel:$Left20:0:0:0:0:0:0:0:0:0,#
*,type=HCHR_TK00,msg=基本的に本体とは切り離された状態なので<wait=3><br>戦闘能力は皆無です。,param=chr_Mehlfel:$Left20:0:0:0:0:0:0:0:0:0,#
*,type=HCHR_TK00,msg=アナタ方を害することなど<wait=3><br>とてもできませんヨ♪,param=chr_Mehlfel:$Left12:0:0:0:0:0:0:0:0:0,#
*,type=HCHR_TK01,param=all:skipmask:0:0:0:0:0:0:0:0:0,#
*,type=HCHR_POS00,param=chr_Grahdens:FADEOUT:T$0.3:0:0:0:0:0:0:0:0,#
*,type=HCHR_PRM00,param=chr_Mehlfel:Z$1:0:0:0:0:0:0:0:0:0,#
*,type=HCHR_PRM00,param=chr_Eriole:Z$2:0:0:0:0:0:0:0:0:0,#
*,type=HCHR_FDM00,param=chr_Mehlfel:MSK$on:T$0.3:0:0:0:0:0:0:0:0,#
*,type=HCHR_FDM00,param=chr_Eriole:MSK$off:T$0.0:0:0:0:0:0:0:0:0,#
*,type=HCHR_GRP00,param=chr_Eriole:face:do:$FACE_FadeTime:0:0:0:0:0:0:0,#
*,type=HCHR_POS00,param=chr_Eriole:FADEIN:T$0.5:$OFS_Right:0:0:0:0:0:0:0,#
*,type=STOP,param=0:0:0:0:0:0:0:0:0:0:0,#
*,type=HCHR_TK00,msg=ならば都合がいい……,param=chr_Eriole:$Right10:0:0:0:0:0:0:0:0:0,#
*,type=HCHR_TK00,msg=安心してお前からネグレスの情報を<wait=3><br>聞き出せるという訳だな。,param=chr_Eriole:$Right16:0:0:0:0:0:0:0:0:0,#
*,type=HCHR_GRP00,param=chr_Mehlfel:face:bi:$FACE_FadeTime:0:0:0:0:0:0:0,#
*,type=HCHR_TK00,msg=<speed=9>おぉ～<wait=3>怖い<wait=3>怖い！,param=chr_Mehlfel:$Left8:0:0:0:0:0:0:0:0:0,#
*,type=HCHR_GRP00,param=chr_Mehlfel:face:ki:$FACE_FadeTime:0:0:0:0:0:0:0,#
*,type=HCHR_TK00,msg=さすが、元裏切り者は考えることが<br>違いますネェ。,param=chr_Mehlfel:$Left16:0:0:0:0:0:0:0:0:0,#
*,type=HCHR_TK01,param=all:skipmask:0:0:0:0:0:0:0:0:0,#
*,type=WAIT_0000,param=0.5:0:0:0:0:0:0:0:0:0:0,#
*,type=HCHR_GRP00,param=chr_Mehlfel:face:fu:$FACE_FadeTime:0:0:0:0:0:0:0,#
*,type=HCHR_TK00,msg=でも残念ながら、<wait=3>それは無理ですヨ♪,param=chr_Mehlfel:$Left18:0:0:0:0:0:0:0:0:0,#
*,type=HCHR_TK01,param=all:skipmask:0:0:0:0:0:0:0:0:0,#
*,type=WAIT_0000,param=0.5:0:0:0:0:0:0:0:0:0:0,#
*,type=HCHR_POS00,param=chr_Eriole:FADEOUT:T$0.5:0:0:0:0:0:0:0:0,#
*,type=HCHR_POS00,param=chr_Mehlfel:OFS$160&0:T$0.5:0:0:0:0:0:0:0:0,#
*,type=STOP,param=0:0:0:0:0:0:0:0:0:0:0,#
*,type=HCHR_TK00,msg=<speed=7>「ライル」<wait=3><speed=4.8>という普段のワタクシとは<br>正反対の人格を演じるのは,param=chr_Mehlfel:$Center18:0:0:0:0:0:0:0:0:0,#
*,type=HCHR_TK00,msg=なかなか新鮮で、<wait=3>いい退屈しのぎに<br>なりました。,param=chr_Mehlfel:$Center16:0:0:0:0:0:0:0:0:0,#
*,type=HCHR_TK01,param=all:skipmask:0:0:0:0:0:0:0:0:0,#
*,type=WAIT_0000,param=0.5:0:0:0:0:0:0:0:0:0:0,#
*,type=HCHR_GRP00,param=chr_Mehlfel:face:ki:$FACE_FadeTime:0:0:0:0:0:0:0,#
*,type=HCHR_TK00,msg=それでは皆さん。<wait=3><br>機会があれば、またお会いしましょうネ♪,param=chr_Mehlfel:$Center20:0:0:0:0:0:0:0:0:0,#
*,type=HCHR_TK01,param=all:0:0:0:0:0:0:0:0:0:0,#
*,type=WAIT_0000,param=1:0:0:0:0:0:0:0:0:0:0,#
*,type=BGM_0001,param=3:0:0:0:0:0:0:0:0:0:0,#
*,type=SE_0000,param=339:0:0:0:0:0:0:0:0:0:0,#
*,type=HCHR_POS00,param=chr_Mehlfel:FADEOUT:T$1:0:0:0:0:0:0:0:0,#
*,type=WAIT_0000,param=0.5:0:0:0:0:0:0:0:0:0:0,#
*,type=HCHR_ENT01,param=chr_Mehlfel:0:0:0:0:0:0:0:0:0:0,#
*,type=WAIT_0000,param=0.2:0:0:0:0:0:0:0:0:0:0,#
*,type=HCHR_ENT00,param=chr_Mehlfel2:メルフェル:N$chara_bf2_18:$POS_Center:TYPE$middle:Z$1:0:0:0:0:0,#
*,type=HCHR_GRP00,param=chr_Mehlfel2:face:ki:$FACE_FadeTime:0:0:0:0:0:0:0,#
*,type=HCHR_POS00,param=chr_Mehlfel2:FADEIN:T$0:$OFS_Center:0:0:0:0:0:0:0,#
*,type=HCHR_FDM00,param=chr_Mehlfel2:ALP$200:0:0:0:0:0:0:0:0:0,#
*,type=STOP,param=0:0:0:0:0:0:0:0:0:0:0,#
*,type=HCHR_POS00,param=chr_Mehlfel2:FADEOUT:T$1:0:0:0:0:0:0:0:0,#
*,type=WAIT_0000,param=0.5:0:0:0:0:0:0:0:0:0:0,#
*,type=HCHR_ENT01,param=chr_Mehlfel2:0:0:0:0:0:0:0:0:0:0,#
*,type=WAIT_0000,param=0.2:0:0:0:0:0:0:0:0:0:0,#
*,type=HCHR_ENT00,param=chr_Mehlfel3:メルフェル:N$chara_bf2_18:$POS_Center:TYPE$middle:Z$1:0:0:0:0:0,#
*,type=HCHR_GRP00,param=chr_Mehlfel3:face:ki:$FACE_FadeTime:0:0:0:0:0:0:0,#
*,type=HCHR_POS00,param=chr_Mehlfel3:FADEIN:T$0:$OFS_Center:0:0:0:0:0:0:0,#
*,type=HCHR_FDM00,param=chr_Mehlfel3:ALP$180:0:0:0:0:0:0:0:0:0,#
*,type=STOP,param=0:0:0:0:0:0:0:0:0:0:0,#
*,type=HCHR_POS00,param=chr_Mehlfel3:FADEOUT:T$1:0:0:0:0:0:0:0:0,#
*,type=WAIT_0000,param=0.5:0:0:0:0:0:0:0:0:0:0,#
*,type=SE_0000,param=350:0:0:0:0:0:0:0:0:0:0,#
*,type=FADEOUT_000,param=0.2:255&255&255:0:0:0:0:0:0:0:0:0,#
*,type=WAIT_0000,param=0.5:0:0:0:0:0:0:0:0:0:0,#
*,type=HCHR_ENT01,param=chr_Mehlfel3:0:0:0:0:0:0:0:0:0:0,#
*,type=FADEIN_000,param=1:255&255&255:0:0:0:0:0:0:0:0:0,#
*,type=STOP,param=0:0:0:0:0:0:0:0:0:0:0,#
*,type=WAIT_0000,param=1:0:0:0:0:0:0:0:0:0:0,#
*,type=HCHR_FDM00,param=chr_Sella:MSK$on:T$0.0:0:0:0:0:0:0:0:0,#
*,type=HCHR_FDM00,param=chr_Grahdens:MSK$on:T$0.0:0:0:0:0:0:0:0:0,#
*,type=HCHR_PRM00,param=chr_Eriole:Z$3:0:0:0:0:0:0:0:0:0,#
*,type=HCHR_PRM00,param=chr_Sella:Z$1:0:0:0:0:0:0:0:0:0,#
*,type=HCHR_PRM00,param=chr_Grahdens:Z$2:0:0:0:0:0:0:0:0:0,#
*,type=HCHR_GRP00,param=chr_Eriole:face:ku:$FACE_FadeTime:0:0:0:0:0:0:0,#
*,type=HCHR_POS00,param=chr_Eriole:FADEIN:$CHARA_FadeTime:$OFS_Left_Triple:0:0:0:0:0:0:0,#
*,type=HCHR_GRP00,param=chr_Sella:face:bi:$FACE_FadeTime:0:0:0:0:0:0:0,#
*,type=HCHR_POS00,param=chr_Sella:FADEIN:$CHARA_FadeTime:$OFS_Center:0:0:0:0:0:0:0,#
*,type=HCHR_GRP00,param=chr_Grahdens:face:do:$FACE_FadeTime:0:0:0:0:0:0:0,#
*,type=HCHR_POS00,param=chr_Grahdens:FADEIN:$CHARA_FadeTime:$OFS_Right_Triple:0:0:0:0:0:0:0,#
*,type=STOP,param=0:0:0:0:0:0:0:0:0:0:0,#
*,type=HCHR_TK00,msg=逃げたか……!?,param=chr_Eriole:$Left8_FixedTriple:0:0:0:0:0:0:0:0:0,#
*,type=HCHR_TK00,msg=<speed=10>逃げた……<wait=4><speed=4.8>というよりは、消滅したという<br>感じじゃな。,param=chr_Grahdens:$Right20_FixedTriple:0:0:0:0:0:0:0:0:0,#
*,type=BGM_0000,param=35:0:0:0:0:0:0:0:0:0:0,#
*,type=HCHR_TK00,msg=まぁ何はともあれ、<wait=3>スパイ騒ぎはこれで<br>解決かのう。,param=chr_Grahdens:$Right18_FixedTriple:0:0:0:0:0:0:0:0:0,#
*,type=HCHR_GRP00,param=chr_Grahdens:face:ki:$FACE_FadeTime:0:0:0:0:0:0:0,#
*,type=HCHR_TK00,msg=メルフェルとかいう奴については<wait=3><br>カルたち若いモンに任せるとしよう。,param=chr_Grahdens:$Right18_FixedTriple:0:0:0:0:0:0:0:0:0,#
*,type=HCHR_GRP00,param=chr_Sella:face:ki:$FACE_FadeTime:0:0:0:0:0:0:0,#
*,type=HCHR_TK00,msg=では、<wait=3>エミリーは釈放されるんですよね!?,param=chr_Sella:$Center20:0:0:0:0:0:0:0:0:0,#
*,type=HCHR_GRP00,param=chr_Eriole:face:fu:$FACE_FadeTime:0:0:0:0:0:0:0,#
*,type=HCHR_TK00,msg=もちろんだ。,param=chr_Eriole:$Left6:0:0:0:0:0:0:0:0:0,#
*,type=HCHR_GRP00,param=chr_Sella:face:ki:$FACE_FadeTime:0:0:0:0:0:0:0,#
*,type=HCHR_TK00,msg=<speed=3>私、<wait=3>今から迎えに行ってきます！,param=chr_Sella:$Center16:0:0:0:0:0:0:0:0:0,#
*,type=HCHR_TK01,param=all:skipmask:0:0:0:0:0:0:0:0:0,#
*,type=HCHR_POS00,param=chr_Sella:OUT$left:T$0.5:0:0:0:0:0:0:0:0,#
*,type=STOP,param=0:0:0:0:0:0:0:0:0:0:0,#
*,type=WAIT_0000,param=1:0:0:0:0:0:0:0:0:0:0,#
*,type=HCHR_FDM00,param=all:MSK$off:T$0.0:0:0:0:0:0:0:0:0,#
*,type=HCHR_PRM00,param=chr_Eriole:Z$1:0:0:0:0:0:0:0:0:0,#
*,type=HCHR_PRM00,param=chr_Grahdens:Z$2:0:0:0:0:0:0:0:0:0,#
*,type=HCHR_GRP00,param=chr_Grahdens:face:fu:$FACE_FadeTime:0:0:0:0:0:0:0,#
*,type=HCHR_POS00,param=chr_Eriole:OFS$90&0:T$1.0:0:0:0:0:0:0:0:0,#
*,type=HCHR_POS00,param=chr_Grahdens:OFS$-90&0:T$1.0:0:0:0:0:0:0:0:0,#
*,type=STOP,param=0:0:0:0:0:0:0:0:0:0:0,#
*,type=WAIT_0000,param=0.5:0:0:0:0:0:0:0:0:0:0,#
*,type=HCHR_TK00,msg=エリオールよ。<wait=3><br>今回、お主には世話になったのう。,param=chr_Grahdens:$Right16:0:0:0:0:0:0:0:0:0,#
*,type=HCHR_TK00,msg=ワシだけでは、あのライルという男を<wait=3><br>こうも早く見つけることはできんかった。,param=chr_Grahdens:$Right20:0:0:0:0:0:0:0:0:0,#
*,type=HCHR_GRP00,param=chr_Eriole:face:fu:$FACE_FadeTime:0:0:0:0:0:0:0,#
*,type=HCHR_TK00,msg=なに……<wait=4>今回の件はたまたま私の得意と<br>する分野だったというだけの話。,param=chr_Eriole:$Left18:0:0:0:0:0:0:0:0:0,#
*,type=HCHR_TK01,param=all:skipmask:0:0:0:0:0:0:0:0:0,#
*,type=WAIT_0000,param=0.5:0:0:0:0:0:0:0:0:0:0,#
*,type=HCHR_TK00,msg=<speed=9>……<wait=4><speed=4.8>それに、<wait=3>パリスの改革のおかげで,param=chr_Eriole:$Left18:0:0:0:0:0:0:0:0:0,#
*,type=HCHR_TK00,msg=私もかつては憎んだこの国を、<wait=3>ようやく<br>愛せるようになってきた……,param=chr_Eriole:$Left18:0:0:0:0:0:0:0:0:0,#
*,type=HCHR_TK01,param=all:skipmask:0:0:0:0:0:0:0:0:0,#
*,type=WAIT_0000,param=0.5:0:0:0:0:0:0:0:0:0:0,#
*,type=HCHR_GRP00,param=chr_Eriole:face:emi:$FACE_FadeTime:0:0:0:0:0:0:0,#
*,type=HCHR_TK00,msg=今のこの世界を守りたいという<br>気持ちはあなた方と一緒です。,param=chr_Eriole:$Left14:0:0:0:0:0:0:0:0:0,#
*,type=HCHR_TK01,param=ALL:skipmask:0:0:0:0:0:0:0:0:0,#
*,type=HCHR_GRP00,param=chr_Grahdens:face:ki:$FACE_FadeTime:0:0:0:0:0:0:0,#
*,type=HCHR_PRM00,param=chr_Eriole:Z$1:0:0:0:0:0:0:0:0:0,#
*,type=HCHR_PRM00,param=chr_Grahdens:Z$2:0:0:0:0:0:0:0:0:0,#
*,type=HCHR_FDM00,param=chr_Grahdens:MSK$off:T$0.0:0:0:0:0:0:0:0:0,#
*,type=HCHR_TK00,msg=<speed=9>そうか……<wait=4><speed=4.8>それは良かったのう。,param=chr_Grahdens:$Right16:0:0:focusoff:0:0:0:0:0:0,#
*,type=HCHR_TK01,param=ALL:skipmask:0:0:0:0:0:0:0:0:0,#
*,type=WAIT_0000,param=1:0:0:0:0:0:0:0:0:0:0,#
*,type=FADEOUT_000,param=1.5:00&00&00:0:0:0:0:0:0:0:0:0,#
*,type=WAIT_0000,param=2:0:0:0:0:0:0:0:0:0:0,#
*,type=STOP,param=0:0:0:0:0:0:0:0:0:0:0,#
*,type=PICT_0004,param=bg2:0:0:0:0:0:0:0:0:0:0,#
*,type=HCHR_ENT01,param=chr_Lyle:0:0:0:0:0:0:0:0:0:0,#
*,type=HCHR_ENT01,param=chr_Eriole:0:0:0:0:0:0:0:0:0:0,#
*,type=HCHR_ENT01,param=chr_Mehlfel:0:0:0:0:0:0:0:0:0:0,#
*,type=HCHR_ENT01,param=chr_Grahdens:0:0:0:0:0:0:0:0:0:0,#
*,type=STOP,param=0:0:0:0:0:0:0:0:0:0:0,#
*,type=PICT_0000,param=bg3:event_bg_010.jpg:0:bg$900009:0:0:0:0:0:0:0,#
*,type=HCHR_ENT00,param=chr_Emily:エミリー:N$chara_bf2_26:$POS_Center:TYPE$middle:Z$1:0:0:0:0:0,#
*,type=STOP,param=0:0:0:0:0:0:0:0:0:0:0,#
*,type=FADEIN_000,param=2:00&00&00:0:0:0:0:0:0:0:0:0,#
*,type=STOP,param=0:0:0:0:0:0:0:0:0:0:0,#
*,type=WAIT_0000,param=0.5:0:0:0:0:0:0:0:0:0:0,#
*,type=HCHR_FDM00,param=all:MSK$off:T$0.0:0:0:0:0:0:0:0:0,#
*,type=HCHR_GRP00,param=chr_Sella:face:ki:$FACE_FadeTime:0:0:0:0:0:0:0,#
*,type=HCHR_POS00,param=chr_Sella:IN$right:$CHARA_FadeTime:$OFS_Right:0:0:0:0:0:0:0,#
*,type=STOP,param=0:0:0:0:0:0:0:0:0:0:0,#
*,type=HCHR_TK00,msg=<speed=3>エミリー！<wait=3><br><speed=4.8>あなたのスパイ容疑が晴れたわよ！,param=chr_Sella:$Right16:0:0:0:0:0:0:0:0:0,#
*,type=HCHR_TK01,param=all:0:0:0:0:0:0:0:0:0:0,#
*,type=STOP,param=0:0:0:0:0:0:0:0:0:0:0,#
*,type=HCHR_GRP00,param=chr_Emily:face:bi:$FACE_FadeTime:0:0:0:0:0:0:0,#
*,type=HCHR_POS00,param=chr_Emily:FADEIN:$CHARA_FadeTime:$OFS_Left:0:0:0:0:0:0:0,#
*,type=STOP,param=0:0:0:0:0:0:0:0:0:0:0,#
*,type=HCHR_SHK00,param=chr_Emily:8:0.05:0.3:0:0:0:0:0:0:0,#
*,type=HCHR_TK00,msg=<speed=2>………！,param=chr_Emily:$Left4:0:0:0:0:0:0:0:0:0,#
*,type=HCHR_GRP00,param=chr_Sella:face:ai:$FACE_FadeTime:0:0:0:0:0:0:0,#
*,type=HCHR_TK00,msg=<speed=4>……あなたを信じてあげられなくて<wait=3><br>ごめんなさい！,param=chr_Sella:$Right16:0:0:0:0:0:0:0:0:0,#
*,type=HCHR_GRP00,param=chr_Emily:face:ai:$FACE_FadeTime:0:0:0:0:0:0:0,#
*,type=HCHR_TK00,msg=<speed=9>…………,param=chr_Emily:$Left4:0:0:0:0:0:0:0:0:0,#
*,type=HCHR_TK00,msg=あなたが拘束された時、<wait=3>私がちゃんと<br>事実確認しておけば……<wait=4>反省してるわ。,param=chr_Sella:$Right18:0:0:0:0:0:0:0:0:0,#
*,type=HCHR_TK01,param=ALL:skipmask:0:0:0:0:0:0:0:0:0,#
*,type=WAIT_0000,param=0.5:0:0:0:0:0:0:0:0:0:0,#
*,type=HCHR_TK00,msg=<speed=9>…………,param=chr_Emily:$Left4:0:0:0:0:0:0:0:0:0,#
*,type=HCHR_TK01,param=ALL:skipmask:0:0:0:0:0:0:0:0:0,#
*,type=WAIT_0000,param=0.5:0:0:0:0:0:0:0:0:0:0,#
*,type=HCHR_SHK00,param=chr_Emily:8:0.2:1.5:0:0:0:0:0:0:0,#
*,type=HCHR_TK00,msg=<speed=9>ひょっとまっふぇくらふぁい。<wait=3><br>ぃまのみこみまふから……,param=chr_Emily:$Left14:0:0:0:0:0:0:0:0:0,#
*,type=HCHR_GRP00,param=chr_Sella:face:bi:$FACE_FadeTime:0:0:0:0:0:0:0,#
*,type=HCHR_TK00,msg=えっ、<wait=3>エミリー？,param=chr_Sella:$Right8:0:0:0:0:0:0:0:0:0,#
*,type=HCHR_TK01,param=ALL:skipmask:0:0:0:0:0:0:0:0:0,#
*,type=HCHR_FDM00,param=ALL:MSK$on:0.3:0:0:0:0:0:0:0:0,#
*,type=HCHR_FDM00,param=chr_Emily:MSK$off:0.3:0:0:0:0:0:0:0:0,#
*,type=WAIT_0000,param=0.5:0:0:0:0:0:0:0:0:0:0,#
*,type=HCHR_SHK00,param=chr_Emily:8:0.1:0.2:0:0:0:0:0:0:0,#
*,type=HCHR_GRP00,param=chr_Emily:face:mu:$FACE_FadeTime:0:0:0:0:0:0:0,#
*,type=HCHR_TK00,msg=ゴクン……,param=chr_Emily:$Left6:0:0:0:0:0:0:0:0:0,#
*,type=HCHR_TK01,param=ALL:skipmask:0:0:0:0:0:0:0:0:0,#
*,type=WAIT_0000,param=0.5:0:0:0:0:0:0:0:0:0:0,#
*,type=HCHR_GRP00,param=chr_Emily:face:ki:$FACE_FadeTime:0:0:0:0:0:0:0,#
*,type=HCHR_TK00,msg=……いやぁ～、<wait=3>差し入れのお菓子が<br>みんな高級なものばかりで,param=chr_Emily:$Left16:0:0:0:0:0:0:0:0:0,#
*,type=HCHR_TK00,msg=なんか食べ過ぎちゃいました。,param=chr_Emily:$Left14:0:0:0:0:0:0:0:0:0,#
*,type=HCHR_GRP00,param=chr_Emily:face:ai:$FACE_FadeTime:0:0:0:0:0:0:0,#
*,type=HCHR_TK00,msg=<speed=7>おかげで、<wait=3>ちょっと太ったかも……,param=chr_Emily:$Left16:0:0:0:0:0:0:0:0:0,#
*,type=HCHR_GRP00,param=chr_Sella:face:ai:$FACE_FadeTime:0:0:0:0:0:0:0,#
*,type=HCHR_TK00,msg=<speed=9>エミリー……<wait=3>あなたって……,param=chr_Sella:$Right14:0:0:0:0:0:0:0:0:0,#
*,type=HCHR_TK01,param=ALL:skipmask:0:0:0:0:0:0:0:0:0,#
*,type=WAIT_0000,param=0.5:0:0:0:0:0:0:0:0:0:0,#
*,type=HCHR_GRP00,param=chr_Emily:face:mu:$FACE_FadeTime:0:0:0:0:0:0:0,#
*,type=HCHR_TK00,msg=<speed=7>いやぁ、<wait=3>でもホント焦りましたよぉ……,param=chr_Emily:$Left18:0:0:0:0:0:0:0:0:0,#
*,type=HCHR_GRP00,param=chr_Emily:face:ai:$FACE_FadeTime:0:0:0:0:0:0:0,#
*,type=HCHR_TK00,msg=私、<wait=3>あんまりマジメに働いてなかったから<wait=3><br><speed=7>あんな疑いがかけられたのかなぁってー。,param=chr_Emily:$Left20:0:0:0:0:0:0:0:0:0,#
*,type=HCHR_TK01,param=ALL:skipmask:0:0:0:0:0:0:0:0:0,#
*,type=WAIT_0000,param=0.5:0:0:0:0:0:0:0:0:0:0,#
*,type=HCHR_TK00,msg=私、<wait=3>クビじゃないですよね？,param=chr_Emily:$Left14:0:0:0:0:0:0:0:0:0,#
*,type=HCHR_TK00,msg=<speed=7>……まぁ、それはないけど。,param=chr_Sella:$Right14:0:0:0:0:0:0:0:0:0,#
*,type=HCHR_GRP00,param=chr_Emily:face:ki:$FACE_FadeTime:0:0:0:0:0:0:0,#
*,type=HCHR_EFC00,param=Eff_Manp_10:chr_Emily:manpu_1:0:SS5$$MANP_note_a:0:0:0:0:0:0,#
*,type=HCHR_TK00,msg=よかったぁ!!,param=chr_Emily:$Left6:0:0:0:0:0:0:0:0:0,#
*,type=PICT_0004,param=Eff_Manp_10:0:0:0:0:0:0:0:0:0:0,#
*,type=HCHR_TK01,param=ALL:skipmask:0:0:0:0:0:0:0:0:0,#
*,type=WAIT_0000,param=0.5:0:0:0:0:0:0:0:0:0:0,#
*,type=HCHR_TK00,msg=<speed=9>はぁ……,param=chr_Sella:$Right4:0:0:0:0:0:0:0:0:0,#
*,type=HCHR_TK01,param=ALL:skipmask:0:0:0:0:0:0:0:0:0,#
*,type=HCHR_FDM00,param=chr_Sella:MSK$on:0.3:0:0:0:0:0:0:0:0,#
*,type=HCHR_FDM00,param=chr_Emily:MSK$off:0.3:0:0:0:0:0:0:0:0,#
*,type=HCHR_GRP00,param=chr_Emily:face:mu:$FACE_FadeTime:0:0:0:0:0:0:0,#
*,type=HCHR_EFC00,param=Eff_Manp_06:chr_Emily:manpu_1:0:SS5$$MANP_doubt_red_a:0:0:0:0:0:0,#
*,type=WAIT_0000,param=1.3:0:0:0:0:0:0:0:0:0:0,#
*,type=PICT_0004,param=Eff_Manp_06:0:0:0:0:0:0:0:0:0:0,#
*,type=WAIT_0000,param=0.3:0:0:0:0:0:0:0:0:0:0,#
*,type=HCHR_GRP00,param=chr_Sella:face:do:$FACE_FadeTime:0:0:0:0:0:0:0,#
*,type=HCHR_TK00,msg=クビじゃないけど<wait=3><br>今後はサボらないように。,param=chr_Sella:$Right12:0:0:0:0:0:0:0:0:0,#
*,type=HCHR_TK00,msg=明日から開拓局内で、あなたの行動を<wait=3><br>ちゃーんと監視してもらいますからね。,param=chr_Sella:$Right18:0:0:0:0:0:0:0:0:0,#
*,type=HCHR_GRP00,param=chr_Emily:face:bi:$FACE_FadeTime:0:0:0:0:0:0:0,#
*,type=HCHR_TK00,msg=<speed=9>えぇぇ～～～!?,param=chr_Emily:$Left8:nowait:0:0:0:0:0:0:0:0,#
*,type=WAIT_0000,param=0.2:0:0:0:0:0:0:0:0:0:0,#
*,type=HCHR_SHK00,param=chr_Emily:6:0.05:1:0:0:0:0:0:0:0,#
*,type=CSYN_0002,param=0:0:0:0:0:0:0:0:0:0:0,#
*,type=HCHR_TK01,param=ALL:skipmask:0:0:0:0:0:0:0:0:0,#
*,type=WAIT_0000,param=1:0:0:0:0:0:0:0:0:0:0,#
*,type=FADEOUT_000,param=1.5:00&00&00:0:0:0:0:0:0:0:0:0,#
*,type=WAIT_0000,param=2:0:0:0:0:0:0:0:0:0:0,#
*,type=STOP,param=0:0:0:0:0:0:0:0:0:0:0,#
*,type=PICT_0004,param=bg3:0:0:0:0:0:0:0:0:0:0,#
*,type=HCHR_ENT01,param=chr_Emily:0:0:0:0:0:0:0:0:0:0,#
*,type=HCHR_ENT01,param=chr_Sella:0:0:0:0:0:0:0:0:0:0,#

*,type=SYSED_00,param=0:0:0:0:0:0:0:0:0:0:0,#



