﻿ScriptCmd ver 1.1.1(app1.0.4):スクリプト_02_1_サーマ_Ex1_BS.xlsm/シーン7_4BS（ルネヒルダ戦）/main004-dungeon-ex_BS.csv

*,type=SYSST_00,param=0:0:0:0:0:0:0:0:0:0:0,#
*,type=CMD_STOP,param=0:0:0:0:0:0:0:0:0:0:0,#
*,type=SYSST_01,param=0:0:0:0:0:0:0:0:0:0:0,#


*,type=EVT_CHKTRG,param=0:0:0:0:0:0:0:0:0:0:0,#
*,type=EVT_BTL_REGULARLY,param=10000:0:0:0:0:0:0:0:0:0:0,#
*,type=BTL_STARTBREAK,param=2:1:20000:183:ブレイク状態:0:0:0:0:0:0,#
*,type=EVT_BLOCKEND,param=0:0:0:0:0:0:0:0:0:0:0,#
*,type=EVT_BTL_REGULARLY,param=20000:0:0:0:0:0:0:0:0:0:0,#
*,type=BTL_ENDBREAK,param=1:0:0:0:0:0:0:0:0:0:0,#
*,type=EVT_BLOCKEND,param=0:0:0:0:0:0:0:0:0:0:0,#

*,type=SYSED_00,param=0:0:0:0:0:0:0:0:0:0:0,#



