﻿ScriptCmd ver 1.1.1(app1.0.4):スクリプト_05_2_魔城_dungeon7.xlsm/main009-dungeon7-6/main009-dungeon7-6.csv

*,type=SYSST_00,param=0:0:0:0:0:0:0:0:0:0:0,#
*,type=CMD_STOP,param=0:0:0:0:0:0:0:0:0:0:0,#
*,type=SYSST_01,param=0:0:0:0:0:0:0:0:0:0:0,#


*,type=PICT_0000,param=bg_01:battle_bg_013_06.jpg:1:bg$1050506:0:0:0:0:0:0:0,#
*,type=BGM_0000,param=35:0:0:0:0:0:0:0:0:0:0,#
*,type=FADEIN_000,param=1.5:$BGBLACK_Color:0:0:0:0:0:0:0:0:0,#
*,type=WAIT_0000,param=2.5:0:0:0:0:0:0:0:0:0:0,#
*,type=HCHR_ENT00,param=chr_Lin:リン:N$chara_bf2_25:$POS_Center:TYPE$middle:Z$10:0:0:0:0:0,#
*,type=HCHR_ENT00,param=chr_Sarsha:サーシャ:N$chara_bf2_1:$POS_Center:TYPE$middle:Z$10:0:0:0:0:0,#
*,type=HCHR_ENT00,param=chr_Loy:ロイ:N$chara_bf2_28:$POS_Center:TYPE$middle:Z$10:0:0:0:0:0,#
*,type=HCHR_ENT00,param=chr_Dewey:デューイ:N$tame_wolf_03:$POS_Center:TYPE$middle:Z$10:0:0:0:0:0,#
*,type=HCHR_ENT00,param=chr_Dragon:<rep_myguardian>:N$tame_dragon_03:$POS_Center:TYPE$middle:Z$10:0:0:0:0:0,#
*,type=HCHR_ENT00,param=chr_Sanqueoleh:サンクオーレ:N$chara_bf2_147_Lshl:$POS_Center:TYPE$middle:Z$10:0:0:0:0:0,#
*,type=STOP,param=0:0:0:0:0:0:0:0:0:0:0,#
*,type=HCHR_GRP00,param=chr_Lin:face:ki:$FACE_FadeTime:0:0:0:0:0:0:0,#
*,type=HCHR_GRP00,param=chr_Sarsha:face:emi:$FACE_FadeTime:0:0:0:0:0:0:0,#
*,type=HCHR_POS00,param=chr_Lin:FADEIN:T$0.5:$OFS_Left:Z$13:0:0:0:0:0:0,#
*,type=HCHR_POS00,param=chr_Sarsha:FADEIN:T$0.5:$OFS_Right:Z$12:0:0:0:0:0:0,#
*,type=WAIT_0000,param=1:0:0:0:0:0:0:0:0:0:0,#
*,type=HCHR_TK10,msg=ロイさん！<wait=3><br>私たち、<wait=1>メルフェルをやっつけたのね！,param=chr_Lin:Left:BASIC:0:0:0:0:0:0:0:0,#
*,type=HCHR_TK01,param=all:skipmask:0:0:0:0:0:0:0:0:0,#
*,type=HCHR_POS00,param=chr_Lin:FADEOUT:T$0.1:0:0:0:0:0:0:0:0,#
*,type=HCHR_POS00,param=chr_Sarsha:FADEOUT:T$0.1:0:0:0:0:0:0:0:0,#
*,type=STOP,param=0:0:0:0:0:0:0:0:0:0:0,#
*,type=HCHR_FDM00,param=all:MSK$off:0:0:0:0:0:0:0:0:0,#
*,type=HCHR_GRP00,param=chr_Loy:face:emi:$FACE_FadeTime:0:0:0:0:0:0:0,#
*,type=HCHR_GRP00,param=chr_Sanqueoleh:face:ki:$FACE_FadeTime:0:0:0:0:0:0:0,#
*,type=HCHR_POS00,param=chr_Loy:FADEIN:$CHARA_FadeTime:$OFS_Center:Z$10:0:0:0:0:0:0,#
*,type=HCHR_POS00,param=chr_Sanqueoleh:FADEIN:$CHARA_FadeTime:$OFS_Center:Z$11:0:0:0:0:0:0,#
*,type=STOP,param=0:0:0:0:0:0:0:0:0:0:0,#
*,type=HCHR_TK10,msg=あぁ、<wait=1>そうだな。,param=chr_Loy:Center:BASIC:0:0:0:focusoff:0:0:0:0,#
*,type=HCHR_TK01,param=all:skipmask:0:0:0:0:0:0:0:0:0,#
*,type=HCHR_POS00,param=chr_Loy:FADEOUT:T$0.1:0:0:0:0:0:0:0:0,#
*,type=HCHR_POS00,param=chr_Sanqueoleh:FADEOUT:T$0.1:0:0:0:0:0:0:0:0,#
*,type=STOP,param=0:0:0:0:0:0:0:0:0:0:0,#
*,type=HCHR_FDM00,param=chr_Lin:MSK$on:0:0:0:0:0:0:0:0:0,#
*,type=HCHR_GRP00,param=chr_Lin:face:fu:$FACE_FadeTime:0:0:0:0:0:0:0,#
*,type=HCHR_GRP00,param=chr_Sarsha:face:fu:$FACE_FadeTime:0:0:0:0:0:0:0,#
*,type=HCHR_POS00,param=chr_Lin:FADEIN:$CHARA_FadeTime:$OFS_Left:Z$10:0:0:0:0:0:0,#
*,type=HCHR_POS00,param=chr_Sarsha:FADEIN:$CHARA_FadeTime:$OFS_Right:Z$11:0:0:0:0:0:0,#
*,type=STOP,param=0:0:0:0:0:0:0:0:0:0:0,#
*,type=HCHR_TK10,msg=ロイさん……<wait=2>私、<wait=1>今回のことで<br>わかったことがあるんです。,param=chr_Sarsha:Right:BASIC:0:0:0:0:0:0:0:0,#
*,type=HCHR_TK10,msg=本当の強さって、<wait=1>力を鍛えれば<br>手に入るものじゃなかったんですね。,param=chr_Sarsha:Right:BASIC:0:0:0:0:0:0:0:0,#
*,type=HCHR_GRP00,param=chr_Sarsha:face:emi:$FACE_FadeTime:0:0:0:0:0:0:0,#
*,type=HCHR_TK10,msg=この先に待ち受けている<br>残りの敵と互角に戦うためにも,param=chr_Sarsha:Right:BASIC:0:0:0:0:0:0:0:0,#
*,type=HCHR_GRP00,param=chr_Sarsha:face:ki:$FACE_FadeTime:0:0:0:0:0:0:0,#
*,type=HCHR_TK10,msg=これからは心も一緒に<br>鍛えていこうと思います……！,param=chr_Sarsha:Right:BASIC:0:0:0:0:0:0:0:0,#
*,type=HCHR_GRP00,param=chr_Lin:face:fu:$FACE_FadeTime:0:0:0:0:0:0:0,#
*,type=HCHR_TK10,msg=うんうん！<wait=3><br>それと、<wait=1>私たちはヴァイザーの絆も！,param=chr_Lin:Left:BASIC:0:0:0:0:0:0:0:0,#
*,type=HCHR_GRP00,param=chr_Lin:face:ki:$FACE_FadeTime:0:0:0:0:0:0:0,#
*,type=HCHR_TK10,msg=一緒に頑張っていこうね、<wait=1>デューイ。,param=chr_Lin:Left:BASIC:0:0:0:0:0:0:0:0,#
*,type=HCHR_TK01,param=all:skipmask:0:0:0:0:0:0:0:0:0,#
*,type=HCHR_POS00,param=chr_Lin:FADEOUT:T$0.2:0:0:0:0:0:0:0:0,#
*,type=HCHR_POS00,param=chr_Sarsha:FADEOUT:T$0.2:0:0:0:0:0:0:0:0,#
*,type=HCHR_GRP00,param=chr_Dewey:face:ki:0:0:0:0:0:0:0:0,#
*,type=HCHR_GRP00,param=chr_Dragon:face:ki:0:0:0:0:0:0:0:0,#
*,type=HCHR_FDM00,param=chr_Dewey:MSK$off:0:0:0:0:0:0:0:0:0,#
*,type=STOP,param=0:0:0:0:0:0:0:0:0:0:0,#
*,type=HCHR_POS00,param=chr_Dewey:FADEIN:$CHARA_FadeTime:$OFS_Center:Z$11:0:0:0:0:0:0,#
*,type=HCHR_POS00,param=chr_Dragon:FADEIN:$CHARA_FadeTime:$OFS_Center:Z$10:0:0:0:0:0:0,#
*,type=STOP,param=0:0:0:0:0:0:0:0:0:0:0,#
*,type=HCHR_SHK00,param=chr_Dewey:0&8:0.2:0.2:NoRandom:0:0:0:0:0:0,#
*,type=HCHR_TK10,msg=<speed=3>ワゥッ！,param=chr_Dewey:Center_under:SP:0:0:0:0:0:0:0:0,#
*,type=HCHR_TK01,param=all:0:0:0:0:0:0:0:0:0:0,#
*,type=HCHR_PRM00,param=chr_Dewey:Z$11:0:0:0:0:0:0:0:0:0,#
*,type=HCHR_PRM00,param=chr_Dragon:Z$10:0:0:0:0:0:0:0:0:0,#
*,type=HCHR_SHK00,param=chr_Dragon:0&8:0.2:0.2:NoRandom:0:0:0:0:0:0,#
*,type=HCHR_TK10,msg=クルルル！,param=chr_Dragon:Left:BASIC:0:0:0:focusoff:0:0:0:0,#
*,type=HCHR_TK01,param=all:skipmask:0:0:0:0:0:0:0:0:0,#
*,type=HCHR_POS00,param=chr_Dewey:FADEOUT:T$0.2:0:0:0:0:0:0:0:0,#
*,type=HCHR_POS00,param=chr_Dragon:FADEOUT:T$0.2:0:0:0:0:0:0:0:0,#
*,type=STOP,param=0:0:0:0:0:0:0:0:0:0:0,#
*,type=HCHR_GRP00,param=chr_Lin:face:ki:0:0:0:0:0:0:0:0,#
*,type=HCHR_GRP00,param=chr_Sarsha:face:emi:0:0:0:0:0:0:0:0,#
*,type=HCHR_FDM00,param=chr_Lin:MSK$off:0:0:0:0:0:0:0:0:0,#
*,type=HCHR_FDM00,param=chr_Sarsha:MSK$on:0:0:0:0:0:0:0:0:0,#
*,type=STOP,param=0:0:0:0:0:0:0:0:0:0:0,#
*,type=HCHR_POS00,param=chr_Lin:FADEIN:T$0.3:$OFS_Left:Z$13:0:0:0:0:0:0,#
*,type=HCHR_POS00,param=chr_Sarsha:FADEIN:T$0.3:$OFS_Right:Z$12:0:0:0:0:0:0,#
*,type=STOP,param=0:0:0:0:0:0:0:0:0:0:0,#
*,type=HCHR_TK10,msg=ふふっ、<wait=1><rep_myguardian>も<br>やる気満々みたいよ、<wait=1><rep_handlename>。,param=chr_Lin:Left:BASIC:0:0:0:0:0:0:0:0,#
*,type=HCHR_TK01,param=all:skipmask:0:0:0:0:0:0:0:0:0,#
*,type=HCHR_POS00,param=chr_Lin:FADEOUT:T$0.1:0:0:0:0:0:0:0:0,#
*,type=HCHR_POS00,param=chr_Sarsha:FADEOUT:T$0.1:0:0:0:0:0:0:0:0,#
*,type=STOP,param=0:0:0:0:0:0:0:0:0:0:0,#
*,type=HCHR_FDM00,param=all:MSK$off:0:0:0:0:0:0:0:0:0,#
*,type=HCHR_GRP00,param=chr_Loy:face:ki:$FACE_FadeTime:0:0:0:0:0:0:0,#
*,type=HCHR_POS00,param=chr_Loy:FADEIN:$CHARA_FadeTime:$OFS_Center:Z$10:0:0:0:0:0:0,#
*,type=HCHR_POS00,param=chr_Sanqueoleh:FADEIN:$CHARA_FadeTime:$OFS_Center:Z$11:0:0:0:0:0:0,#
*,type=STOP,param=0:0:0:0:0:0:0:0:0:0:0,#
*,type=HCHR_TK10,msg=みんな、<wait=1>この短い期間で<br>よくここまで成長したな。,param=chr_Loy:Center:BASIC:0:0:0:focusoff:0:0:0:0,#
*,type=HCHR_GRP00,param=chr_Loy:face:emi:$FACE_FadeTime:0:0:0:0:0:0:0,#
*,type=HCHR_TK10,msg=この戦いで得た経験は、<wait=1>いわば財産だ。<wait=3><br>大事にしていくんだぞ。,param=chr_Loy:Center:BASIC:0:0:0:focusoff:0:0:0:0,#
*,type=HCHR_TK01,param=all:skipmask:0:0:0:0:0:0:0:0:0,#
*,type=HCHR_SHK00,param=chr_Sanqueoleh:0&10:0.2:0.4:NoRandom:0:0:0:0:0:0,#
*,type=HCHR_EFC00,param=Eff_Manp_10:chr_Sanqueoleh:manpu_1:0:SS5$$MANP_note_a:0:1:0:0:0:0,#
*,type=WAIT_0000,param=1:0:0:0:0:0:0:0:0:0:0,#
*,type=PICT_0004,param=Eff_Manp_10:0:0:0:0:0:0:0:0:0:0,#
*,type=HCHR_POS00,param=chr_Loy:FADEOUT:T$0.1:0:0:0:0:0:0:0:0,#
*,type=HCHR_POS00,param=chr_Sanqueoleh:FADEOUT:T$0.1:0:0:0:0:0:0:0:0,#
*,type=STOP,param=0:0:0:0:0:0:0:0:0:0:0,#
*,type=HCHR_FDM00,param=all:MSK$on:0:0:0:0:0:0:0:0:0,#
*,type=HCHR_FDM00,param=chr_Sarsha:MSK$off:0:0:0:0:0:0:0:0:0,#
*,type=HCHR_GRP00,param=chr_Lin:face:fu:$FACE_FadeTime:0:0:0:0:0:0:0,#
*,type=HCHR_GRP00,param=chr_Sarsha:face:ki:$FACE_FadeTime:0:0:0:0:0:0:0,#
*,type=HCHR_POS00,param=chr_Lin:FADEIN:$CHARA_FadeTime:$OFS_Left:Z$10:0:0:0:0:0:0,#
*,type=HCHR_POS00,param=chr_Sarsha:FADEIN:$CHARA_FadeTime:$OFS_Right:Z$11:0:0:0:0:0:0,#
*,type=STOP,param=0:0:0:0:0:0:0:0:0:0:0,#
*,type=HCHR_TK10,msg=はいっ、<wait=1>先生！,param=chr_Sarsha:Right:BASIC:0:0:0:0:0:0:0:0,#
*,type=HCHR_GRP00,param=chr_Sarsha:face:bi:$FACE_FadeTime:0:0:0:0:0:0:0,#
*,type=HCHR_TK10,msg=<speed=7>あっ……,param=chr_Sarsha:Right:BASIC:0:0:0:0:0:0:0:0,#
*,type=HCHR_GRP00,param=chr_Lin:face:naki:$FACE_FadeTime:0:0:0:0:0:0:0,#
*,type=HCHR_TK10,msg=あはは、<wait=1>サーシャも「先生」が<br>出ちゃったね。,param=chr_Lin:Left:BASIC:0:0:0:0:0:0:0:0,#
*,type=HCHR_GRP00,param=chr_Lin:face:fu:$FACE_FadeTime:0:0:0:0:0:0:0,#
*,type=HCHR_GRP00,param=chr_Sarsha:face:ai:$FACE_FadeTime:0:0:0:0:0:0:0,#
*,type=HCHR_TK10,msg=<speed=7>つ、<wait=1>つい……,param=chr_Sarsha:Right:BASIC:0:0:0:0:0:0:0:0,#
*,type=HCHR_TK01,param=all:skipmask:0:0:0:0:0:0:0:0:0,#
*,type=HCHR_POS00,param=chr_Lin:FADEOUT:T$0.1:0:0:0:0:0:0:0:0,#
*,type=HCHR_POS00,param=chr_Sarsha:FADEOUT:T$0.1:0:0:0:0:0:0:0:0,#
*,type=STOP,param=0:0:0:0:0:0:0:0:0:0:0,#
*,type=HCHR_FDM00,param=all:MSK$off:0:0:0:0:0:0:0:0:0,#
*,type=HCHR_GRP00,param=chr_Sanqueoleh:face:fu:$FACE_FadeTime:0:0:0:0:0:0:0,#
*,type=HCHR_POS00,param=chr_Loy:FADEIN:$CHARA_FadeTime:$OFS_Center:Z$10:0:0:0:0:0:0,#
*,type=HCHR_POS00,param=chr_Sanqueoleh:FADEIN:$CHARA_FadeTime:$OFS_Center:Z$11:0:0:0:0:0:0,#
*,type=STOP,param=0:0:0:0:0:0:0:0:0:0:0,#
*,type=HCHR_TK10,msg=ま、<wait=1>今ぐらいはいいさ。,param=chr_Loy:Center:BASIC:0:0:0:focusoff:0:0:0:0,#
*,type=HCHR_TK01,param=all:skipmask:0:0:0:0:0:0:0:0:0,#
*,type=HCHR_GRP00,param=chr_Sanqueoleh:face:ki:$FACE_FadeTime:0:0:0:0:0:0:0,#
*,type=HCHR_SHK00,param=chr_Sanqueoleh:0&10:0.2:0.4:NoRandom:0:0:0:0:0:0,#
*,type=HCHR_EFC00,param=Eff_Manp_08:chr_Sanqueoleh:manpu_1:0:SS5$$MANP_heart_a:0:1:0:0:0:0,#
*,type=WAIT_0000,param=1:0:0:0:0:0:0:0:0:0:0,#
*,type=PICT_0004,param=Eff_Manp_08:0:0:0:0:0:0:0:0:0:0,#
*,type=STOP,param=0:0:0:0:0:0:0:0:0:0:0,#
*,type=WAIT_0000,param=0.3:0:0:0:0:0:0:0:0:0:0,#
*,type=HCHR_POS00,param=chr_Loy:FADEOUT:T$0.1:0:0:0:0:0:0:0:0,#
*,type=HCHR_POS00,param=chr_Sanqueoleh:FADEOUT:T$0.1:0:0:0:0:0:0:0:0,#
*,type=STOP,param=0:0:0:0:0:0:0:0:0:0:0,#
*,type=HCHR_FDM00,param=all:MSK$on:0:0:0:0:0:0:0:0:0,#
*,type=HCHR_FDM00,param=chr_Sarsha:MSK$off:0:0:0:0:0:0:0:0:0,#
*,type=HCHR_GRP00,param=chr_Lin:face:fu:$FACE_FadeTime:0:0:0:0:0:0:0,#
*,type=HCHR_GRP00,param=chr_Sarsha:face:ai:$FACE_FadeTime:0:0:0:0:0:0:0,#
*,type=HCHR_POS00,param=chr_Lin:FADEIN:$CHARA_FadeTime:$OFS_Left:Z$10:0:0:0:0:0:0,#
*,type=HCHR_POS00,param=chr_Sarsha:FADEIN:$CHARA_FadeTime:$OFS_Right:Z$11:0:0:0:0:0:0,#
*,type=STOP,param=0:0:0:0:0:0:0:0:0:0:0,#
*,type=HCHR_TK10,msg=いえ、<wait=1>こういうことは<br>ちゃんとしないと……,param=chr_Sarsha:Right:BASIC:0:0:0:0:0:0:0:0,#
*,type=HCHR_TK01,param=all:skipmask:0:0:0:0:0:0:0:0:0,#
*,type=HCHR_FDM00,param=all:MSK$on:0.1:0:0:0:0:0:0:0:0,#
*,type=HCHR_FDM00,param=chr_Lin:MSK$off:0.1:0:0:0:0:0:0:0:0,#
*,type=HCHR_PRM00,param=chr_Sarsha:Z$10:0:0:0:0:0:0:0:0:0,#
*,type=HCHR_PRM00,param=chr_Lin:Z$11:0:0:0:0:0:0:0:0:0,#
*,type=STOP,param=0:0:0:0:0:0:0:0:0:0:0,#
*,type=HCHR_GRP00,param=chr_Lin:face:ki:$FACE_FadeTime:0:0:0:0:0:0:0,#
*,type=HCHR_EFC00,param=Eff_Manp_09:chr_Lin:manpu_1:0:SS5$$MANP_light_a:0:1:0:0:0:0,#
*,type=WAIT_0000,param=0.8:0:0:0:0:0:0:0:0:0:0,#
*,type=HCHR_TK10,msg=じゃあ、<wait=1>私と<rep_handlename>も<br>ロイさんのこと、<wait=1>先生って呼ぶわ！,param=chr_Lin:Left:BASIC:0:0:0:0:0:0:0:0,#
*,type=PICT_0004,param=Eff_Manp_09:0:0:0:0:0:0:0:0:0:0,#
*,type=HCHR_TK10,msg=それなら変じゃないでしょ？,param=chr_Lin:Left:BASIC:0:0:0:0:0:0:0:0,#
*,type=HCHR_TK01,param=all:skipmask:0:0:0:0:0:0:0:0:0,#
*,type=HCHR_POS00,param=chr_Lin:FADEOUT:T$0.1:0:0:0:0:0:0:0:0,#
*,type=HCHR_POS00,param=chr_Sarsha:FADEOUT:T$0.1:0:0:0:0:0:0:0:0,#
*,type=STOP,param=0:0:0:0:0:0:0:0:0:0:0,#
*,type=HCHR_FDM00,param=all:MSK$off:0:0:0:0:0:0:0:0:0,#
*,type=HCHR_GRP00,param=chr_Loy:face:bi:$FACE_FadeTime:0:0:0:0:0:0:0,#
*,type=HCHR_GRP00,param=chr_Sanqueoleh:face:bi:$FACE_FadeTime:0:0:0:0:0:0:0,#
*,type=HCHR_POS00,param=chr_Loy:FADEIN:$CHARA_FadeTime:$OFS_Center:Z$10:0:0:0:0:0:0,#
*,type=HCHR_POS00,param=chr_Sanqueoleh:FADEIN:$CHARA_FadeTime:$OFS_Center:Z$11:0:0:0:0:0:0,#
*,type=STOP,param=0:0:0:0:0:0:0:0:0:0:0,#
*,type=HCHR_TK10,msg=えっ、<wait=1>君たちもか!?,param=chr_Loy:Center:BASIC:0:0:0:focusoff:0:0:0:0,#
*,type=HCHR_TK01,param=all:skipmask:0:0:0:0:0:0:0:0:0,#
*,type=HCHR_POS00,param=chr_Loy:FADEOUT:T$0.1:0:0:0:0:0:0:0:0,#
*,type=HCHR_POS00,param=chr_Sanqueoleh:FADEOUT:T$0.1:0:0:0:0:0:0:0:0,#
*,type=STOP,param=0:0:0:0:0:0:0:0:0:0:0,#
*,type=HCHR_FDM00,param=all:MSK$on:0:0:0:0:0:0:0:0:0,#
*,type=HCHR_FDM00,param=chr_Lin:MSK$off:0:0:0:0:0:0:0:0:0,#
*,type=HCHR_GRP00,param=chr_Lin:face:ki:$FACE_FadeTime:0:0:0:0:0:0:0,#
*,type=HCHR_GRP00,param=chr_Sarsha:face:emi:$FACE_FadeTime:0:0:0:0:0:0:0,#
*,type=HCHR_POS00,param=chr_Lin:FADEIN:$CHARA_FadeTime:$OFS_Left:Z$11:0:0:0:0:0:0,#
*,type=HCHR_POS00,param=chr_Sarsha:FADEIN:$CHARA_FadeTime:$OFS_Right:Z$10:0:0:0:0:0:0,#
*,type=STOP,param=0:0:0:0:0:0:0:0:0:0:0,#
*,type=HCHR_TK10,msg=いいでしょ、<wait=1>ロイ先生♪,param=chr_Lin:Left:BASIC:0:0:0:0:0:0:0:0,#
*,type=HCHR_TK10,msg=もう、<wait=1>リンったら……,param=chr_Sarsha:Right:BASIC:0:0:0:0:0:0:0:0,#
*,type=HCHR_TK01,param=all:skipmask:0:0:0:0:0:0:0:0:0,#
*,type=HCHR_POS00,param=chr_Lin:FADEOUT:T$0.1:0:0:0:0:0:0:0:0,#
*,type=HCHR_POS00,param=chr_Sarsha:FADEOUT:T$0.1:0:0:0:0:0:0:0:0,#
*,type=STOP,param=0:0:0:0:0:0:0:0:0:0:0,#
*,type=HCHR_FDM00,param=all:MSK$off:0:0:0:0:0:0:0:0:0,#
*,type=HCHR_GRP00,param=chr_Loy:face:ks:$FACE_FadeTime:0:0:0:0:0:0:0,#
*,type=HCHR_GRP00,param=chr_Sanqueoleh:face:ki:$FACE_FadeTime:0:0:0:0:0:0:0,#
*,type=HCHR_POS00,param=chr_Loy:FADEIN:$CHARA_FadeTime:$OFS_Center:Z$10:0:0:0:0:0:0,#
*,type=HCHR_POS00,param=chr_Sanqueoleh:FADEIN:$CHARA_FadeTime:$OFS_Center:Z$11:0:0:0:0:0:0,#
*,type=STOP,param=0:0:0:0:0:0:0:0:0:0:0,#
*,type=HCHR_TK10,msg=<speed=7>はは……,param=chr_Loy:Center:BASIC:0:0:0:focusoff:0:0:0:0,#
*,type=HCHR_TK01,param=all:skipmask:0:0:0:0:0:0:0:0:0,#
*,type=HCHR_SHK00,param=chr_Sanqueoleh:0&8:0.2:0.2:NoRandom:0:0:0:0:0:0,#
*,type=HCHR_EFC00,param=Eff_Manp_10:chr_Sanqueoleh:manpu_1:0:SS5$$MANP_note_a:0:1:0:0:0:0,#
*,type=WAIT_0000,param=1:0:0:0:0:0:0:0:0:0:0,#
*,type=PICT_0004,param=Eff_Manp_10:0:0:0:0:0:0:0:0:0:0,#
*,type=WAIT_0000,param=0.5:0:0:0:0:0:0:0:0:0:0,#
*,type=HCHR_GRP00,param=chr_Loy:face:emi:$FACE_FadeTime:0:0:0:0:0:0:0,#
*,type=HCHR_TK10,msg=それじゃ、<wait=>このまま次の階層へ進むか！,param=chr_Loy:Center:BASIC:0:0:0:focusoff:0:0:0:0,#
*,type=HCHR_TK01,param=all:skipmask:0:0:0:0:0:0:0:0:0,#
*,type=HCHR_POS00,param=chr_Loy:FADEOUT:T$0.1:0:0:0:0:0:0:0:0,#
*,type=HCHR_POS00,param=chr_Sanqueoleh:FADEOUT:T$0.1:0:0:0:0:0:0:0:0,#
*,type=STOP,param=0:0:0:0:0:0:0:0:0:0:0,#
*,type=HCHR_FDM00,param=all:MSK$off:0:0:0:0:0:0:0:0:0,#
*,type=HCHR_GRP00,param=chr_Lin:face:fu:$FACE_FadeTime:0:0:0:0:0:0:0,#
*,type=HCHR_GRP00,param=chr_Sarsha:face:emi:$FACE_FadeTime:0:0:0:0:0:0:0,#
*,type=HCHR_POS00,param=chr_Lin:FADEIN:$CHARA_FadeTime:$OFS_Left:Z$10:0:0:0:0:0:0,#
*,type=HCHR_POS00,param=chr_Sarsha:FADEIN:$CHARA_FadeTime:$OFS_Right:Z$11:0:0:0:0:0:0,#
*,type=STOP,param=0:0:0:0:0:0:0:0:0:0:0,#
*,type=FMSG_0000,msg=<speed=3><size=32>はいっ!!,param=Twin_Heroine:$Shout_S_C:0:0:focusoff:0:0:0:0:0:0,#
*,type=FMSG_0001,param=all:skipmask:0:0:0:0:0:0:0:0:0,#
*,type=MSKS_0000,param=bgBlackMask1:$BGBLACK_Color:0:Z$50:T$2.5:0:0:0:0:0:0,#
*,type=BGM_0001,param=2.5:0:0:0:0:0:0:0:0:0:0,#
*,type=STOP,param=0:0:0:0:0:0:0:0:0:0:0,#
*,type=HCHR_ENT01,param=chr_Lin:T$0:0:0:0:0:0:0:0:0:0,#
*,type=HCHR_ENT01,param=chr_Sarsha:T$0:0:0:0:0:0:0:0:0:0,#
*,type=HCHR_ENT01,param=chr_Loy:T$0:0:0:0:0:0:0:0:0:0,#
*,type=HCHR_ENT01,param=chr_Dewey:T$0:0:0:0:0:0:0:0:0:0,#
*,type=HCHR_ENT01,param=chr_Dragon:T$0:0:0:0:0:0:0:0:0:0,#
*,type=HCHR_ENT01,param=chr_Sanqueoleh:T$0:0:0:0:0:0:0:0:0:0,#
*,type=PICT_0004,param=bg_01:0:0:0:0:0:0:0:0:0:0,#
*,type=STOP,param=0:0:0:0:0:0:0:0:0:0:0,#
*,type=HCHR_ENT00,param=chr_Seria:セリア:N$chara_bf2_12:$POS_Center:TYPE$middle:Z$10:0:0:0:0:0,#
*,type=HCHR_ENT00,param=chr_Seria_U:セリア:N$chara_bf2_85:$POS_Center:TYPE$middle:Z$10:0:0:0:0:0,#
*,type=HCHR_ENT00,param=chr_Worreth:ウォレス:N$chara_bf2_30:$POS_Center:TYPE$middle:Z$10:0:0:0:0:0,#
*,type=HCHR_ENT00,param=chr_Balagan:バラガン:N$chara_bf2_6:$POS_Center:TYPE$middle:Z$10:0:0:0:0:0,#
*,type=HCHR_ENT00,param=chr_Mob_A:破獣軍兵:N$chara_bf2_43:$POS_Center:TYPE$middle:Z$10:0:0:0:0:0,#
*,type=HCHR_ENT00,param=chr_Mob_B:破獣軍兵:N$chara_bf2_43:$POS_Center:TYPE$middle:Z$10:0:0:0:0:0,#
*,type=PICT_0000,param=bg_02:battle_bg_012_03.jpg:1:bg$1050403:0:0:0:2:0:0:0,#
*,type=MSKS_0000,param=bgBlackFilter1:0&0&0:128:Z$40:T$0:0:0:0:0:0:0,#
*,type=WAIT_0000,param=1:0:0:0:0:0:0:0:0:0:0,#
*,type=BGM_0000,param=61:1.5:0:0:0:0:0:0:0:0:0,#
*,type=MSKS_0002,param=bgBlackMask1:T$1.5:0:0:0:0:0:0:0:0:0,#
*,type=WAIT_0000,param=2:0:0:0:0:0:0:0:0:0:0,#
*,type=FMSG_0000,msg=<speed=9>時間は少し遡り……<wait=7>,param=chr_narration1:$Novel_W_14:nocenter&nowait:0:focusoff:0:0:0:0:0:0,#
*,type=CSYN_0001,param=0:0:0:0:0:0:0:0:0:0:0,#
*,type=FMSG_0000,msg=<speed=9><rep_handlename>たちが<br>奇術師メルフェルを撃破する少し前――,param=chr_narration2:$Novel_W_17:nocenter:0:focusoff:0:0:0:0:0:0,#
*,type=FMSG_0001,param=all:0:0:0:0:0:0:0:0:0:0,#
*,type=BGM_0001,param=1:0:0:0:0:0:0:0:0:0:0,#
*,type=MSKS_0002,param=bgBlackFilter1:T$1:0:0:0:0:0:0:0:0:0,#
*,type=WAIT_0000,param=1.5:0:0:0:0:0:0:0:0:0:0,#
*,type=BGM_0000,param=33:0:0:0:0:0:0:0:0:0:0,#
*,type=SE_0001,param=0:345:0:0.8:2:0:0:0:0:0:0,#
*,type=WAIT_0000,param=1.6:0:0:0:0:0:0:0:0:0:0,#
*,type=HCHR_POS00,param=chr_Seria:FADEIN:$CHARA_FadeTime:$OFS_Right:Z$10:0:0:0:0:0:0,#
*,type=WAIT_0000,param=0.4:0:0:0:0:0:0:0:0:0:0,#
*,type=HCHR_TK10,msg=ここを進めば、<wait=1>奴らの<br>新しい拠点に辿り着くのね？,param=chr_Seria:Right:BASIC:0:0:0:0:0:0:0:0,#
*,type=HCHR_TK01,param=all:0:0:0:0:0:0:0:0:0:0,#
*,type=SE_0000,param=345:0:0:0:0:0:0:0:0:0:0,#
*,type=HCHR_GRP00,param=chr_Worreth:face:mu:$FACE_FadeTime:0:0:0:0:0:0:0,#
*,type=HCHR_POS00,param=chr_Worreth:FADEIN:$CHARA_FadeTime:$OFS_Left:Z$11:0:0:0:0:0:0,#
*,type=HCHR_FDM00,param=chr_Seria:MSK$on:0.3:0:0:0:0:0:0:0:0,#
*,type=STOP,param=0:0:0:0:0:0:0:0:0:0:0,#
*,type=HCHR_TK10,msg=はい、<wait=1>マーティンさんから教えられた道は<br>こっちで間違いありません。,param=chr_Worreth:Left:BASIC:0:0:0:0:0:0:0:0,#
*,type=HCHR_GRP00,param=chr_Worreth:face:ai:$FACE_FadeTime:0:0:0:0:0:0:0,#
*,type=HCHR_TK10,msg=……でも、<wait=1>セリア様。,param=chr_Worreth:Left:BASIC:0:0:0:0:0:0:0:0,#
*,type=HCHR_TK10,msg=「さん」でしょ。<wait=3><br>何度言ったらわかるのよ。,param=chr_Seria:Right:BASIC:0:0:0:0:0:0:0:0,#
*,type=HCHR_TK10,msg=すいません……,param=chr_Worreth:Left:BASIC:0:0:0:0:0:0:0:0,#
*,type=HCHR_GRP00,param=chr_Worreth:face:mu:$FACE_FadeTime:0:0:0:0:0:0:0,#
*,type=HCHR_TK10,msg=で、<wait=1>セリア様。<wait=3><br>休まれなくて本当に大丈夫なんですか？,param=chr_Worreth:Left:BASIC:0:0:0:0:0:0:0:0,#
*,type=HCHR_TK10,msg=橋から落下したうえに、<wait=1>負傷者を背負って<br>自力で戻ってきたんですよ。,param=chr_Worreth:Left:BASIC:0:0:0:0:0:0:0:0,#
*,type=HCHR_GRP00,param=chr_Worreth:face:ai:$FACE_FadeTime:0:0:0:0:0:0:0,#
*,type=HCHR_TK10,msg=さすがにちょっと休んだ方が……,param=chr_Worreth:Left:BASIC:0:0:0:0:0:0:0:0,#
*,type=HCHR_TK10,msg=必要ない。<wait=3><br>私を誰だと思ってるの？,param=chr_Seria:Right:BASIC:0:0:0:0:0:0:0:0,#
*,type=HCHR_GRP00,param=chr_Worreth:face:fu:$FACE_FadeTime:0:0:0:0:0:0:0,#
*,type=HCHR_TK10,msg=……でしたね。<wait=3><br>すいません、<wait=1>今のは忘れてください。,param=chr_Worreth:Left:BASIC:0:0:0:0:0:0:0:0,#
*,type=HCHR_TK10,msg=わかればよし。<wait=3><br>さぁ、<wait=1>早くロイたちと合流するわよ！,param=chr_Seria:Right:BASIC:0:0:0:0:0:0:0:0,#
*,type=HCHR_TK10,msg=<speed=3>うっす！,param=chr_Worreth:Left:BASIC:0:0:0:0:0:0:0:0,#
*,type=HCHR_TK01,param=all:skipmask:0:0:0:0:0:0:0:0:0,#
*,type=BGM_0001,param=1:0:0:0:0:0:0:0:0:0:0,#
*,type=HCHR_POS00,param=chr_Seria:FADEOUT:$CHARA_FadeTime:0:0:0:0:0:0:0:0,#
*,type=HCHR_POS00,param=chr_Worreth:FADEOUT:$CHARA_FadeTime:0:0:0:0:0:0:0:0,#
*,type=WAIT_0000,param=1:0:0:0:0:0:0:0:0:0:0,#
*,type=BGM_0000,param=32:0:0:0:0:0:0:0:0:0:0,#
*,type=SE_0000,param=345:0:0:0:0:0:0:0:0:0:0,#
*,type=HCHR_FDM00,param=chr_Balagan:MSK$off:0:0:0:0:0:0:0:0:0,#
*,type=HCHR_POS00,param=chr_Mob_A:FADEIN:T$0.5:$OFS_Left_Triple:Z$8:0:0:0:0:0:0,#
*,type=HCHR_POS00,param=chr_Mob_B:FADEIN:T$0.5:$OFS_Right_Triple:Z$9:0:0:0:0:0:0,#
*,type=WAIT_0000,param=0.3:0:0:0:0:0:0:0:0:0:0,#
*,type=SE_0000,param=345:0:0:0:0:0:0:0:0:0:0,#
*,type=SE_0000,param=369:0:0:0:0:0:0:0:0:0:0,#
*,type=HCHR_GRP00,param=chr_Balagan:face:bi:$FACE_FadeTime:0:0:0:0:0:0:0,#
*,type=HCHR_POS00,param=chr_Balagan:FADEIN:T$0.5:$OFS_Center:Z$10:0:0:0:0:0:0,#
*,type=WAIT_0000,param=0.8:0:0:0:0:0:0:0:0:0:0,#
*,type=HCHR_TK10,msg=……お？,param=chr_Balagan:Center:BASIC:0:0:0:0:0:0:0:0,#
*,type=HCHR_TK01,param=all:skipmask:0:0:0:0:0:0:0:0:0,#
*,type=HCHR_POS00,param=chr_Balagan:FADEOUT:T$0.1:0:0:0:0:0:0:0:0,#
*,type=HCHR_POS00,param=chr_Mob_A:FADEOUT:T$0.1:0:0:0:0:0:0:0:0,#
*,type=HCHR_POS00,param=chr_Mob_B:FADEOUT:T$0.1:0:0:0:0:0:0:0:0,#
*,type=STOP,param=0:0:0:0:0:0:0:0:0:0:0,#
*,type=HCHR_FDM00,param=all:MSK$off:0:0:0:0:0:0:0:0:0,#
*,type=HCHR_GRP00,param=chr_Seria_U:face:bi:0:0:0:0:0:0:0:0,#
*,type=HCHR_GRP00,param=chr_Worreth:face:bi:0:0:0:0:0:0:0:0,#
*,type=STOP,param=0:0:0:0:0:0:0:0:0:0:0,#
*,type=HCHR_POS00,param=chr_Seria_U:FADEIN:T$0.2:$OFS_Right:Z$11:0:0:0:0:0:0,#
*,type=HCHR_POS00,param=chr_Worreth:FADEIN:T$0.2:$OFS_Left:Z$10:0:0:0:0:0:0,#
*,type=HCHR_EFC00,param=Eff_Manp_17a:chr_Seria_U:manpu_1:0:SS5$$MANP_surprise_red_a:0:1:0:0:0:0,#
*,type=HCHR_EFC00,param=Eff_Manp_17b:chr_Worreth:manpu_1:0:SS5$$MANP_surprise_red_a:0:1:0:0:0:0,#
*,type=WAIT_0000,param=1:0:0:0:0:0:0:0:0:0:0,#
*,type=PICT_0004,param=Eff_Manp_17a:0:0:0:0:0:0:0:0:0:0,#
*,type=PICT_0004,param=Eff_Manp_17b:0:0:0:0:0:0:0:0:0:0,#
*,type=HCHR_POS00,param=chr_Seria_U:FADEOUT:T$0:0:0:0:0:0:0:0:0,#
*,type=HCHR_POS00,param=chr_Worreth:FADEOUT:T$0:0:0:0:0:0:0:0:0,#
*,type=STOP,param=0:0:0:0:0:0:0:0:0:0:0,#
*,type=HCHR_FDM00,param=chr_Mob_A:MSK$on:0:0:0:0:0:0:0:0:0,#
*,type=HCHR_FDM00,param=chr_Mob_B:MSK$on:0:0:0:0:0:0:0:0:0,#
*,type=HCHR_GRP00,param=chr_Balagan:face:ki:0:0:0:0:0:0:0:0,#
*,type=STOP,param=0:0:0:0:0:0:0:0:0:0:0,#
*,type=HCHR_POS00,param=chr_Mob_A:FADEIN:T$0.5:$OFS_Left_Triple:Z$8:0:0:0:0:0:0,#
*,type=HCHR_POS00,param=chr_Mob_B:FADEIN:T$0.5:$OFS_Right_Triple:Z$9:0:0:0:0:0:0,#
*,type=HCHR_POS00,param=chr_Balagan:FADEIN:T$0.5:$OFS_Center:Z$10:0:0:0:0:0:0,#
*,type=STOP,param=0:0:0:0:0:0:0:0:0:0:0,#
*,type=HCHR_TK10,msg=おいおいおい!!<wait=3><br>こりゃツイてやがるぜぇっ!!,param=chr_Balagan:Center:BASIC:0:0:0:0:0:0:0:0,#
*,type=HCHR_TK10,msg=まさかこんなところで<br>アンタと再会できるなんてなぁっ!!,param=chr_Balagan:Center:BASIC:0:0:0:0:0:0:0:0,#
*,type=HCHR_TK10,msg=やっぱりこのルートを選んだ俺の勘は<br>間違ってなかったってワケだ！,param=chr_Balagan:Center:BASIC:0:0:0:0:0:0:0:0,#
*,type=HCHR_TK10,msg=こりゃあ、<wait=1>最高だぜぇっ!!,param=chr_Balagan:Center:BASIC:0:0:0:0:0:0:0:0,#
*,type=HCHR_TK01,param=all:skipmask:0:0:0:0:0:0:0:0:0,#
*,type=SE_0000,param=345:0:0:0:0:0:0:0:0:0:0,#
*,type=HCHR_POS00,param=chr_Mob_A:OUT$left:T$0.2:0:0:0:0:0:0:0:0,#
*,type=HCHR_POS00,param=chr_Mob_B:OUT$right:T$0.2:0:0:0:0:0:0:0:0,#
*,type=WAIT_0000,param=0.4:0:0:0:0:0:0:0:0:0:0,#
*,type=HCHR_POS00,param=chr_Balagan:FADEOUT:$CHARA_FadeTime:0:0:0:0:0:0:0:0,#
*,type=WAIT_0000,param=0.3:0:0:0:0:0:0:0:0:0:0,#
*,type=HCHR_ENT00,param=chr_Mob_C:破獣軍兵:N$chara_bf2_43:$POS_Center:TYPE$middle:Z$10:0:0:0:0:0,#
*,type=HCHR_ENT00,param=chr_Mob_D:破獣軍兵:N$chara_bf2_43:$POS_Center:TYPE$middle:Z$10:0:0:0:0:0,#
*,type=HCHR_PRM00,param=chr_Mob_A:S$0.6:0:0:0:0:0:0:0:0:0,#
*,type=HCHR_PRM00,param=chr_Mob_B:S$0.6:0:0:0:0:0:0:0:0:0,#
*,type=HCHR_PRM00,param=chr_Mob_C:S$0.48:0:0:0:0:0:0:0:0:0,#
*,type=HCHR_PRM00,param=chr_Mob_D:S$0.48:0:0:0:0:0:0:0:0:0,#
*,type=HCHR_PRM00,param=chr_Mob_A:XFLIP$SET:0:0:0:0:0:0:0:0:0,#
*,type=HCHR_PRM00,param=chr_Mob_C:XFLIP$SET:0:0:0:0:0:0:0:0:0,#
*,type=HCHR_FDM00,param=all:MSK$on:0:0:0:0:0:0:0:0:0,#
*,type=HCHR_FDM00,param=chr_Seria:MSK$off:0:0:0:0:0:0:0:0:0,#
*,type=HCHR_FDM00,param=chr_Worreth:MSK$off:0:0:0:0:0:0:0:0:0,#
*,type=HCHR_GRP00,param=chr_Seria:face:ai:0:0:0:0:0:0:0:0,#
*,type=HCHR_GRP00,param=chr_Worreth:face:mu:0:0:0:0:0:0:0:0,#
*,type=STOP,param=0:0:0:0:0:0:0:0:0:0:0,#
*,type=HCHR_POS00,param=chr_Seria:FADEIN:T$0.2:$OFS_Right:Z$11:0:0:0:0:0:0,#
*,type=HCHR_POS00,param=chr_Worreth:FADEIN:T$0.2:$OFS_Left:Z$10:0:0:0:0:0:0,#
*,type=WAIT_0000,param=0.5:0:0:0:0:0:0:0:0:0:0,#
*,type=SE_0000,param=345:0:0:0:0:0:0:0:0:0:0,#
*,type=SE_0000,param=345:0.15:0:0:0:0:0:0:0:0:0,#
*,type=HCHR_POS00,param=chr_Mob_A:IN$left$80:T$0.2:OFS$-320&-40:Z$8:0:0:0:0:0:0,#
*,type=HCHR_POS00,param=chr_Mob_C:IN$left$220:T$0.3:OFS$-180&-90:Z$6:0:0:0:0:0:0,#
*,type=HCHR_POS00,param=chr_Mob_D:IN$right$220:T$0.3:OFS$180&-90:Z$7:0:0:0:0:0:0,#
*,type=HCHR_POS00,param=chr_Mob_B:IN$right$80:T$0.2:OFS$320&-40:Z$9:0:0:0:0:0:0,#
*,type=WAIT_0000,param=0.8:0:0:0:0:0:0:0:0:0:0,#
*,type=HCHR_TK10,msg=……こっちは最悪の気分なんだけど。,param=chr_Seria:Right:BASIC:0:0:0:0:0:0:0:0,#
*,type=HCHR_TK01,param=all:skipmask:0:0:0:0:0:0:0:0:0,#
*,type=HCHR_POS00,param=chr_Seria:FADEOUT:T$0:0:0:0:0:0:0:0:0,#
*,type=HCHR_POS00,param=chr_Worreth:FADEOUT:T$0:0:0:0:0:0:0:0:0,#
*,type=HCHR_POS00,param=chr_Mob_A:FADEOUT:T$0:0:0:0:0:0:0:0:0,#
*,type=HCHR_POS00,param=chr_Mob_C:FADEOUT:T$0:0:0:0:0:0:0:0:0,#
*,type=HCHR_POS00,param=chr_Mob_D:FADEOUT:T$0:0:0:0:0:0:0:0:0,#
*,type=HCHR_POS00,param=chr_Mob_B:FADEOUT:T$0:0:0:0:0:0:0:0:0,#
*,type=STOP,param=0:0:0:0:0:0:0:0:0:0:0,#
*,type=HCHR_GRP00,param=chr_Balagan:face:fu:$FACE_FadeTime:0:0:0:0:0:0:0,#
*,type=HCHR_FDM00,param=chr_Balagan:MSK$off:0:0:0:0:0:0:0:0:0,#
*,type=HCHR_POS00,param=chr_Balagan:FADEIN:T$0.2:$OFS_Center:0:0:0:0:0:0:0,#
*,type=STOP,param=0:0:0:0:0:0:0:0:0:0:0,#
*,type=HCHR_TK10,msg=つれねえこと言うなよ！<wait=3><br>俺とアンタの仲じゃねぇか。,param=chr_Balagan:Center:BASIC:0:0:0:0:0:0:0:0,#
*,type=HCHR_TK01,param=all:0:0:0:0:0:0:0:0:0:0,#
*,type=HCHR_POS00,param=chr_Balagan:FADEOUT:T$0:0:0:0:0:0:0:0:0,#
*,type=STOP,param=0:0:0:0:0:0:0:0:0:0:0,#
*,type=HCHR_FDM00,param=all:MSK$on:0:0:0:0:0:0:0:0:0,#
*,type=HCHR_FDM00,param=chr_Seria:MSK$off:0:0:0:0:0:0:0:0:0,#
*,type=HCHR_GRP00,param=chr_Seria:face:do:0:0:0:0:0:0:0:0,#
*,type=STOP,param=0:0:0:0:0:0:0:0:0:0:0,#
*,type=HCHR_POS00,param=chr_Seria:FADEIN:T$0.2:$OFS_Right:0:0:0:0:0:0:0,#
*,type=HCHR_POS00,param=chr_Worreth:FADEIN:T$0.2:$OFS_Left:0:0:0:0:0:0:0,#
*,type=HCHR_POS00,param=chr_Mob_A:FADEIN:T$0.2:OFS$-320&-40:Z$8:0:0:0:0:0:0,#
*,type=HCHR_POS00,param=chr_Mob_C:FADEIN:T$0.2:OFS$-180&-90:Z$6:0:0:0:0:0:0,#
*,type=HCHR_POS00,param=chr_Mob_D:FADEIN:T$0.2:OFS$180&-90:Z$7:0:0:0:0:0:0,#
*,type=HCHR_POS00,param=chr_Mob_B:FADEIN:T$0.2:OFS$320&-40:Z$9:0:0:0:0:0:0,#
*,type=STOP,param=0:0:0:0:0:0:0:0:0:0:0,#
*,type=HCHR_TK10,msg=ちょっと……<wait=3><br>変な言い方しないでくれる？,param=chr_Seria:Right:BASIC:0:0:0:0:0:0:0:0,#
*,type=HCHR_TK01,param=all:skipmask:0:0:0:0:0:0:0:0:0,#
*,type=HCHR_POS00,param=chr_Seria:FADEOUT:T$0:0:0:0:0:0:0:0:0,#
*,type=HCHR_POS00,param=chr_Worreth:FADEOUT:T$0:0:0:0:0:0:0:0:0,#
*,type=HCHR_POS00,param=chr_Mob_A:FADEOUT:T$0:0:0:0:0:0:0:0:0,#
*,type=HCHR_POS00,param=chr_Mob_C:FADEOUT:T$0:0:0:0:0:0:0:0:0,#
*,type=HCHR_POS00,param=chr_Mob_D:FADEOUT:T$0:0:0:0:0:0:0:0:0,#
*,type=HCHR_POS00,param=chr_Mob_B:FADEOUT:T$0:0:0:0:0:0:0:0:0,#
*,type=STOP,param=0:0:0:0:0:0:0:0:0:0:0,#
*,type=HCHR_GRP00,param=chr_Balagan:face:ki:$FACE_FadeTime:0:0:0:0:0:0:0,#
*,type=HCHR_FDM00,param=chr_Balagan:MSK$off:0:0:0:0:0:0:0:0:0,#
*,type=HCHR_POS00,param=chr_Balagan:FADEIN:T$0.2:$OFS_Center:0:0:0:0:0:0:0,#
*,type=STOP,param=0:0:0:0:0:0:0:0:0:0:0,#
*,type=HCHR_TK10,msg=さぁて、<wait=1>んじゃ早速やるかぁっ！,param=chr_Balagan:Center:BASIC:0:0:0:0:0:0:0:0,#
*,type=HCHR_TK10,msg=もう体がなまっちまって仕方ねぇ!!<wait=2><br><ctag=SE:369>思う存分暴れさせてもらうぜ!!,param=chr_Balagan:Center:BASIC:0:0:0:0:0:0:0:0,#
*,type=HCHR_TK01,param=all:0:0:0:0:0:0:0:0:0:0,#
*,type=HCHR_POS00,param=chr_Balagan:FADEOUT:T$0:0:0:0:0:0:0:0:0,#
*,type=STOP,param=0:0:0:0:0:0:0:0:0:0:0,#
*,type=HCHR_FDM00,param=all:MSK$on:0:0:0:0:0:0:0:0:0,#
*,type=HCHR_FDM00,param=chr_Seria:MSK$off:0:0:0:0:0:0:0:0:0,#
*,type=HCHR_GRP00,param=chr_Seria:face:fu:0:0:0:0:0:0:0:0,#
*,type=HCHR_FDM00,param=chr_Seria_U:MSK$off:0:0:0:0:0:0:0:0:0,#
*,type=HCHR_GRP00,param=chr_Seria_U:face:fu:0:0:0:0:0:0:0:0,#
*,type=STOP,param=0:0:0:0:0:0:0:0:0:0:0,#
*,type=HCHR_POS00,param=chr_Seria:FADEIN:T$0.2:$OFS_Right:Z$15:0:0:0:0:0:0,#
*,type=HCHR_POS00,param=chr_Worreth:FADEIN:T$0.2:$OFS_Left:0:0:0:0:0:0:0,#
*,type=HCHR_POS00,param=chr_Mob_A:FADEIN:T$0.2:OFS$-320&-40:Z$8:0:0:0:0:0:0,#
*,type=HCHR_POS00,param=chr_Mob_C:FADEIN:T$0.2:OFS$-180&-90:Z$6:0:0:0:0:0:0,#
*,type=HCHR_POS00,param=chr_Mob_D:FADEIN:T$0.2:OFS$180&-90:Z$7:0:0:0:0:0:0,#
*,type=HCHR_POS00,param=chr_Mob_B:FADEIN:T$0.2:OFS$320&-40:Z$9:0:0:0:0:0:0,#
*,type=WAIT_0000,param=0.3:0:0:0:0:0:0:0:0:0:0,#
*,type=HCHR_TK10,msg=面倒だけど、<wait=1>避けて通ることは<br>できないみたいね……！,param=chr_Seria:Right:BASIC:0:0:0:focusoff:0:0:0:0,#
*,type=HCHR_TK01,param=all:skipmask:0:0:0:0:0:0:0:0:0,#
*,type=WAIT_0000,param=0.1:0:0:0:0:0:0:0:0:0:0,#
*,type=HCHR_POS00,param=chr_Seria_U:FADEIN:T$0.2:$OFS_Right:Z$16:0:0:0:0:0:0,#
*,type=WAIT_0000,param=0.1:0:0:0:0:0:0:0:0:0:0,#
*,type=HCHR_POS00,param=chr_Seria:FADEOUT:T$0.2:0:0:0:0:0:0:0:0,#
*,type=SE_0000,param=313:0:0:0:0:0:0:0:0:0:0,#
*,type=WAIT_0000,param=1.5:0:0:0:0:0:0:0:0:0:0,#
*,type=MSKS_0000,param=bgBlackMask2:$BGBLACK_Color:0:Z$50:T$1.5:0:0:0:0:0:0,#
*,type=BGM_0001,param=1.5:0:0:0:0:0:0:0:0:0:0,#
*,type=STOP,param=0:0:0:0:0:0:0:0:0:0:0,#
*,type=HCHR_ENT01,param=chr_Seria:T$0:0:0:0:0:0:0:0:0:0,#
*,type=HCHR_ENT01,param=chr_Seria_U:T$0:0:0:0:0:0:0:0:0:0,#
*,type=HCHR_ENT01,param=chr_Worreth:T$0:0:0:0:0:0:0:0:0:0,#
*,type=HCHR_ENT01,param=chr_Balagan:T$0:0:0:0:0:0:0:0:0:0,#
*,type=HCHR_ENT01,param=chr_Mob_A:T$0:0:0:0:0:0:0:0:0:0,#
*,type=HCHR_ENT01,param=chr_Mob_B:T$0:0:0:0:0:0:0:0:0:0,#
*,type=HCHR_ENT01,param=chr_Mob_C:T$0:0:0:0:0:0:0:0:0:0,#
*,type=HCHR_ENT01,param=chr_Mob_D:T$0:0:0:0:0:0:0:0:0:0,#
*,type=PICT_0004,param=bg_02:0:0:0:0:0:0:0:0:0:0,#
*,type=STOP,param=0:0:0:0:0:0:0:0:0:0:0,#
*,type=HCHR_ENT00,param=chr_Yehoshua:ヨシュア:N$chara_bf2_7:$POS_Center:TYPE$middle:Z$10:0:0:0:0:0,#
*,type=HCHR_ENT00,param=chr_Lanford:ランフォード:N$chara_bf2_19:$POS_Center:TYPE$middle:Z$10:0:0:0:0:0,#
*,type=PICT_0000,param=bg_03:battle_bg_013_01.jpg:1:bg$1050501:0:0:0:0:0:0:0,#
*,type=MSKS_0000,param=bgBlackFilter2:0&0&0:128:Z$40:T$0:0:0:0:0:0:0,#
*,type=BGM_0000,param=64:1.5:0:0:0:0:0:0:0:0:0,#
*,type=WAIT_0000,param=1:0:0:0:0:0:0:0:0:0:0,#
*,type=MSKS_0002,param=bgBlackMask2:T$1.5:0:0:0:0:0:0:0:0:0,#
*,type=WAIT_0000,param=2:0:0:0:0:0:0:0:0:0:0,#
*,type=FMSG_0000,msg=<speed=9>セリアたちが、爆炎獅バラガンと<br>交戦を開始したのとほぼ同時刻――,param=chr_narration1:$Novel_W_15:nocenter:0:focusoff:0:0:0:0:0:0,#
*,type=FMSG_0001,param=all:0:0:0:0:0:0:0:0:0:0,#
*,type=MSKS_0002,param=bgBlackFilter2:T$1:0:0:0:0:0:0:0:0:0,#
*,type=WAIT_0000,param=1.5:0:0:0:0:0:0:0:0:0:0,#
*,type=SE_0001,param=0:344:0:0.8:2:0:0:0:0:0:0,#
*,type=WAIT_0000,param=1.6:0:0:0:0:0:0:0:0:0:0,#
*,type=HCHR_POS00,param=chr_Yehoshua:FADEIN:T$0.5:$OFS_Center:0:0:0:0:0:0:0,#
*,type=WAIT_0000,param=1.5:0:0:0:0:0:0:0:0:0:0,#
*,type=HCHR_POS00,param=chr_Yehoshua:FADEOUT:T$0.3:0:0:0:0:0:0:0:0,#
*,type=STOP,param=0:0:0:0:0:0:0:0:0:0:0,#
*,type=HCHR_POS00,param=chr_Lanford:FADEIN:T$0.3:$OFS_Center:0:0:0:0:0:0:0,#
*,type=STOP,param=0:0:0:0:0:0:0:0:0:0:0,#
*,type=HCHR_TK10,msg=<speed=7>あの時の剣士か……,param=chr_Lanford:Center:BASIC:0:0:0:0:0:0:0:0,#
*,type=HCHR_TK10,msg=たったひとりでここまで来たのか？,param=chr_Lanford:Center:BASIC:0:0:0:0:0:0:0:0,#
*,type=HCHR_TK01,param=all:0:0:0:0:0:0:0:0:0:0,#
*,type=HCHR_POS00,param=chr_Lanford:FADEOUT:T$0.1:0:0:0:0:0:0:0:0,#
*,type=STOP,param=0:0:0:0:0:0:0:0:0:0:0,#
*,type=HCHR_POS00,param=chr_Yehoshua:FADEIN:T$0.3:$OFS_Center:0:0:0:0:0:0:0,#
*,type=STOP,param=0:0:0:0:0:0:0:0:0:0:0,#
*,type=HCHR_TK10,msg=<speed=9>………………,param=chr_Yehoshua:Center:BASIC:0:0:0:0:0:0:0:0,#
*,type=HCHR_TK01,param=all:0:0:0:0:0:0:0:0:0:0,#
*,type=WAIT_0000,param=1:0:0:0:0:0:0:0:0:0:0,#
*,type=HCHR_POS00,param=chr_Yehoshua:FADEOUT:T$0.3:0:0:0:0:0:0:0:0,#
*,type=STOP,param=0:0:0:0:0:0:0:0:0:0:0,#
*,type=HCHR_POS00,param=chr_Lanford:FADEIN:T$0.3:$OFS_Center:0:0:0:0:0:0:0,#
*,type=STOP,param=0:0:0:0:0:0:0:0:0:0:0,#
*,type=WAIT_0000,param=1.2:0:0:0:0:0:0:0:0:0:0,#
*,type=HCHR_POS00,param=chr_Lanford:FADEOUT:T$0.3:0:0:0:0:0:0:0:0,#
*,type=STOP,param=0:0:0:0:0:0:0:0:0:0:0,#
*,type=HCHR_POS00,param=chr_Yehoshua:FADEIN:T$0.3:$OFS_Center:0:0:0:0:0:0:0,#
*,type=STOP,param=0:0:0:0:0:0:0:0:0:0:0,#
*,type=WAIT_0000,param=2:0:0:0:0:0:0:0:0:0:0,#
*,type=SE_0000,param=309:0:0:0:0:0:0:0:0:0:0,#
*,type=FADEOUT_000,param=2:$BGBLACK_Color:0:0:0:0:0:0:0:0:0,#
*,type=BGM_0001,param=2:0:0:0:0:0:0:0:0:0:0,#
*,type=WAIT_0000,param=2.5:0:0:0:0:0:0:0:0:0:0,#
*,type=CLSNE_0000,param=0:0:0:0:0:0:0:0:0:0:0,#

*,type=SYSED_00,param=0:0:0:0:0:0:0:0:0:0:0,#



