﻿ScriptCmd ver 1.1.1(app1.0.4):スクリプト_01_2_エルガイア_dungeon3_BS.xlsm/シーン3_1/main002-dungeon3_1.csv

*,type=SYSST_00,param=0:0:0:0:0:0:0:0:0:0:0,#
*,type=CMD_STOP,param=0:0:0:0:0:0:0:0:0:0:0,#
*,type=SYSST_01,param=0:0:0:0:0:0:0:0:0:0:0,#


*,type=EVT_CHKTRG,param=0:0:0:0:0:0:0:0:0:0:0,#
*,type=EVT_BTL_STARTBTL,param=1:0:0:0:0:0:0:0:0:0:0,#
*,type=BTL_PanelMask,param=ON:0:0:0:0:0:0:0:0:0:0,#
*,type=BTL_STORY,param=START:0:0:SKIPFADE:0:0:0:0:0:0:0,#
*,type=STOP,param=0:0:0:0:0:0:0:0:0:0:0,#
*,type=HCHR_ENT00,param=chr_Mob:破獣軍兵士:N$chara_bf2_43_b:$BTLPOS_Right:TYPE$middle:Z$1:0:0:0:0:0,#
*,type=HCHR_POS00,param=chr_Mob:FADEIN:$CHARA_FadeTime:0:0:0:0:0:0:0:0,#
*,type=STOP,param=0:0:0:0:0:0:0:0:0:0:0,#
*,type=SE_0000,param=316:0:0:0:0:0:0:0:0:0:0,#
*,type=HCHR_TK00,msg=グゴオオオオオォオオ!!,param=chr_Mob:L$BATTLE&Right12:0:0:0:0:PY$1:0:0:0:0,#
*,type=HCHR_TK01,param=all:0:0:0:0:0:0:0:0:0:0,#
*,type=HCHR_POS00,param=chr_Mob:FADEOUT:$CHARA_FadeTime:0:0:0:0:0:0:0:0,#
*,type=BTL_STORY,param=END:0:0:SKIPFADE:0:0:0:0:0:0:0,#
*,type=STOP,param=0:0:0:0:0:0:0:0:0:0:0,#
*,type=BTL_ReqAction,param=MINDEX$1:PINDEX$4:ATTACK:0:0:0:0:0:0:0:0,#
*,type=BTL_WaitAction,param=30:0:0:0:0:0:0:0:0:0:0,#
*,type=STOP,param=0:0:0:0:0:0:0:0:0:0:0,#
*,type=HCHR_ENT00,param=chr_Mob1:一般召喚師:N$chara_bf2_39_b:$BTLPOS_Left:TYPE$middle:Z$1:0:0:0:0:0,#
*,type=HCHR_POS00,param=chr_Mob1:FADEIN:$CHARA_FadeTime:0:0:0:0:0:0:0:0,#
*,type=STOP,param=0:0:0:0:0:0:0:0:0:0:0,#
*,type=HCHR_TK00,msg=クソッ……!!<br>このままでは……!!,param=chr_Mob1:L$BATTLE&Left10:0:0:0:0:PY$1:0:0:0:0,#
*,type=HCHR_TK01,param=all:0:0:0:0:0:0:0:0:0:0,#
*,type=HCHR_POS00,param=chr_Mob1:FADEOUT:$CHARA_FadeTime:0:0:0:0:0:0:0:0,#
*,type=STOP,param=0:0:0:0:0:0:0:0:0:0:0,#
*,type=BTL_BTLUNIT_ADD,param=-1:3:115:1:HIDEPANEL:HIDE:0:0:0:0:0,#
*,type=BTL_ReqAction,param=PINDEX$3:0:MOVETO:800$DEFAULT$0.2$move$move:0:0:0:0:0:0:0,#
*,type=BTL_WaitAction,param=1:0:0:0:0:0:0:0:0:0:0,#
*,type=BTL_EVTUNIT_ANM,param=PINDEX$3:FADEIN:0.5:0:0:0:0:0:0:0:0,#
*,type=BTL_WaitAction,param=1:0:0:0:0:0:0:0:0:0:0,#
*,type=BTL_ReqAction,param=PINDEX$3:0:MOVETO:DEFAULT$DEFAULT$0.4$move$idle:0:0:0:0:0:0:0,#
*,type=BTL_WaitAction,param=30:0:0:0:0:0:0:0:0:0:0,#
*,type=BTL_CMD,param=unit_panel:PINDEX$3:ON:0:0:0:0:0:0:0:0,#
*,type=BTL_BTLUNIT_ADD,param=-1:5:115:2:HIDEPANEL:HIDE:0:0:0:0:0,#
*,type=BTL_ReqAction,param=PINDEX$5:0:MOVETO:800$DEFAULT$0.2$move$move:0:0:0:0:0:0:0,#
*,type=BTL_WaitAction,param=1:0:0:0:0:0:0:0:0:0:0,#
*,type=BTL_EVTUNIT_ANM,param=PINDEX$5:FADEIN:0.5:0:0:0:0:0:0:0:0,#
*,type=BTL_WaitAction,param=1:0:0:0:0:0:0:0:0:0:0,#
*,type=BTL_ReqAction,param=PINDEX$5:0:MOVETO:DEFAULT$DEFAULT$0.4$move$idle:0:0:0:0:0:0:0,#
*,type=BTL_WaitAction,param=30:0:0:0:0:0:0:0:0:0:0,#
*,type=BTL_CMD,param=unit_panel:PINDEX$5:ON:0:0:0:0:0:0:0:0,#
*,type=STOP,param=0:0:0:0:0:0:0:0:0:0:0,#
*,type=HCHR_ENT00,param=chr_Loy:ロイ:N$chara_bf2_28_b:$BTLPOS_Left:TYPE$middle:Z$1:0:0:0:0:0,#
*,type=HCHR_POS00,param=chr_Loy:FADEIN:$CHARA_FadeTime:0:0:0:0:0:0:0:0,#
*,type=HCHR_GRP00,param=chr_Loy:face:do:$FACE_FadeTime:0:0:0:0:0:0:0,#
*,type=STOP,param=0:0:0:0:0:0:0:0:0:0:0,#
*,type=HCHR_TK00,msg=ハッ……!!,param=chr_Loy:L$BATTLE&Left6:0:0:0:0:0:0:0:0:0,#
*,type=HCHR_TK01,param=all:0:0:0:0:0:0:0:0:0:0,#
*,type=HCHR_POS00,param=chr_Loy:FADEOUT:$CHARA_FadeTime:0:0:0:0:0:0:0:0,#
*,type=STOP,param=0:0:0:0:0:0:0:0:0:0:0,#
*,type=BTL_CMD,param=last_bgm_on:0:0:0:0:0:0:0:0:0:0,#
*,type=BTL_ReqAction,param=PINDEX$3:MPTALL:ATTACK:0:0:0:0:0:0:0:0,#
*,type=BTL_WaitAction,param=30:0:0:0:0:0:0:0:0:0:0,#
*,type=BTL_MONSTER_DEATH,param=MPTALL:0:0:0:0:0:0:0:0:0:0,#
*,type=STOP,param=0:0:0:0:0:0:0:0:0:0:0,#
*,type=HCHR_POS00,param=chr_Loy:FADEIN:$CHARA_FadeTime:0:0:0:0:0:0:0:0,#
*,type=HCHR_GRP00,param=chr_Loy:face:do:$FACE_FadeTime:0:0:0:0:0:0:0,#
*,type=STOP,param=0:0:0:0:0:0:0:0:0:0:0,#
*,type=HCHR_TK00,msg=しっかりしろ！大丈夫か!?,param=chr_Loy:L$BATTLE&Left14:0:0:0:0:0:0:0:0:0,#
*,type=HCHR_TK01,param=all:0:0:0:0:0:0:0:0:0:0,#
*,type=HCHR_POS00,param=chr_Loy:FADEOUT:$CHARA_FadeTime:0:0:0:0:0:0:0:0,#
*,type=HCHR_POS00,param=chr_Mob1:FADEIN:$CHARA_FadeTime:0:0:0:0:0:0:0:0,#
*,type=STOP,param=0:0:0:0:0:0:0:0:0:0:0,#
*,type=HCHR_TK00,msg=ロイ隊長、すみません……,param=chr_Mob1:L$BATTLE&Left12:0:0:0:0:PY$1:0:0:0:0,#
*,type=HCHR_TK01,param=all:0:0:0:0:0:0:0:0:0:0,#
*,type=HCHR_POS00,param=chr_Mob1:FADEOUT:$CHARA_FadeTime:0:0:0:0:0:0:0:0,#
*,type=HCHR_POS00,param=chr_Loy:FADEIN:$CHARA_FadeTime:0:0:0:0:0:0:0:0,#
*,type=HCHR_GRP00,param=chr_Loy:face:fu:$FACE_FadeTime:0:0:0:0:0:0:0,#
*,type=STOP,param=0:0:0:0:0:0:0:0:0:0:0,#
*,type=HCHR_TK00,msg=どうやら敵の本隊は、まだ先のようだな……,param=chr_Loy:L$BATTLE&Left20:0:0:0:0:0:0:0:0:0,#
*,type=HCHR_TK01,param=all:0:0:0:0:0:0:0:0:0:0,#
*,type=HCHR_POS00,param=chr_Loy:FADEOUT:$CHARA_FadeTime:0:0:0:0:0:0:0:0,#
*,type=HCHR_POS00,param=chr_Mob1:FADEIN:$CHARA_FadeTime:0:0:0:0:0:0:0:0,#
*,type=STOP,param=0:0:0:0:0:0:0:0:0:0:0,#
*,type=HCHR_TK00,msg=はい……,param=chr_Mob1:L$BATTLE&Left4:0:0:0:0:0:0:0:0:0,#
*,type=HCHR_TK00,msg=この橋で防衛線を築いていたのですが<br>敵の勢いが凄まじく……,param=chr_Mob1:L$BATTLE&Left18:0:0:0:0:0:0:0:0:0,#
*,type=HCHR_TK01,param=all:0:0:0:0:0:0:0:0:0:0,#
*,type=HCHR_POS00,param=chr_Mob1:FADEOUT:$CHARA_FadeTime:0:0:0:0:0:0:0:0,#
*,type=HCHR_ENT00,param=chr_Sarsha:サーシャ:N$chara_bf2_1_b:$BTLPOS_Left:TYPE$middle:Z$1:0:0:0:0:0,#
*,type=HCHR_POS00,param=chr_Sarsha:FADEIN:$CHARA_FadeTime:0:0:0:0:0:0:0:0,#
*,type=HCHR_GRP00,param=chr_Sarsha:face:fu:0:0:0:0:0:0:0:0,#
*,type=STOP,param=0:0:0:0:0:0:0:0:0:0:0,#
*,type=HCHR_TK00,msg=突破されてしまった……というわけね。,param=chr_Sarsha:L$BATTLE&Left18:0:0:0:0:0:0:0:0:0,#
*,type=HCHR_TK01,param=all:0:0:0:0:0:0:0:0:0:0,#
*,type=HCHR_POS00,param=chr_Sarsha:FADEOUT:$CHARA_FadeTime:0:0:0:0:0:0:0:0,#
*,type=HCHR_POS00,param=chr_Mob1:FADEIN:$CHARA_FadeTime:0:0:0:0:0:0:0:0,#
*,type=STOP,param=0:0:0:0:0:0:0:0:0:0:0,#
*,type=HCHR_TK00,msg=申し訳ありません……,param=chr_Mob1:L$BATTLE&Left10:0:0:0:0:0:0:0:0:0,#
*,type=HCHR_TK01,param=all:0:0:0:0:0:0:0:0:0:0,#
*,type=HCHR_POS00,param=chr_Mob1:FADEOUT:$CHARA_FadeTime:0:0:0:0:0:0:0:0,#
*,type=HCHR_POS00,param=chr_Loy:FADEIN:$CHARA_FadeTime:0:0:0:0:0:0:0:0,#
*,type=HCHR_GRP00,param=chr_Loy:face:fu:$FACE_FadeTime:0:0:0:0:0:0:0,#
*,type=STOP,param=0:0:0:0:0:0:0:0:0:0:0,#
*,type=HCHR_TK00,msg=セリアさん……セリア召喚老が<br>敵本隊を追っていたはずだ。,param=chr_Loy:L$BATTLE&Left14:0:0:0:0:0:0:0:0:0,#
*,type=HCHR_TK00,msg=見ていないか？,param=chr_Loy:L$BATTLE&Left8:0:0:0:0:0:0:0:0:0,#
*,type=HCHR_TK01,param=all:0:0:0:0:0:0:0:0:0:0,#
*,type=HCHR_POS00,param=chr_Loy:FADEOUT:$CHARA_FadeTime:0:0:0:0:0:0:0:0,#
*,type=HCHR_POS00,param=chr_Mob1:FADEIN:$CHARA_FadeTime:0:0:0:0:0:0:0:0,#
*,type=STOP,param=0:0:0:0:0:0:0:0:0:0:0,#
*,type=HCHR_TK00,msg=セリア様なら<br>少し前にここを通過され,param=chr_Mob1:L$BATTLE&Left12:0:0:0:0:0:0:0:0:0,#
*,type=HCHR_TK00,msg=敵の本体を追って、単身で<br>お進みになられました。,param=chr_Mob1:L$BATTLE&Left12:0:0:0:0:0:0:0:0:0,#
*,type=HCHR_TK01,param=all:0:0:0:0:0:0:0:0:0:0,#
*,type=HCHR_POS00,param=chr_Mob1:FADEOUT:$CHARA_FadeTime:0:0:0:0:0:0:0:0,#
*,type=HCHR_POS00,param=chr_Loy:FADEIN:$CHARA_FadeTime:0:0:0:0:0:0:0:0,#
*,type=HCHR_GRP00,param=chr_Loy:face:ku:$FACE_FadeTime:0:0:0:0:0:0:0,#
*,type=STOP,param=0:0:0:0:0:0:0:0:0:0:0,#
*,type=HCHR_TK00,msg=そうか……,param=chr_Loy:L$BATTLE&Left6:0:0:0:0:0:0:0:0:0,#
*,type=HCHR_TK00,msg=すまないが、俺たちも<br>それを追いかけさせてもらう。,param=chr_Loy:L$BATTLE&Left14:0:0:0:0:0:0:0:0:0,#
*,type=HCHR_TK01,param=all:0:0:0:0:0:0:0:0:0:0,#
*,type=HCHR_POS00,param=chr_Loy:FADEOUT:$CHARA_FadeTime:0:0:0:0:0:0:0:0,#
*,type=HCHR_POS00,param=chr_Mob1:FADEIN:$CHARA_FadeTime:0:0:0:0:0:0:0:0,#
*,type=STOP,param=0:0:0:0:0:0:0:0:0:0:0,#
*,type=HCHR_TK00,msg=分かっております……<br>ランドールを……お願いします。,param=chr_Mob1:L$BATTLE&Left16:0:0:0:0:0:0:0:0:0,#
*,type=HCHR_TK01,param=all:0:0:0:0:0:0:0:0:0:0,#
*,type=HCHR_POS00,param=chr_Mob1:FADEOUT:$CHARA_FadeTime:0:0:0:0:0:0:0:0,#
*,type=HCHR_POS00,param=chr_Loy:FADEIN:$CHARA_FadeTime:0:0:0:0:0:0:0:0,#
*,type=HCHR_GRP00,param=chr_Loy:face:do:$FACE_FadeTime:0:0:0:0:0:0:0,#
*,type=STOP,param=0:0:0:0:0:0:0:0:0:0:0,#
*,type=HCHR_TK00,msg=あぁ!!,param=chr_Loy:L$BATTLE&Left4:0:0:0:0:0:0:0:0:0,#
*,type=HCHR_TK01,param=all:0:0:0:0:0:0:0:0:0:0,#
*,type=HCHR_POS00,param=chr_Loy:FADEOUT:$CHARA_FadeTime:0:0:0:0:0:0:0:0,#
*,type=HCHR_POS00,param=chr_Mob1:FADEIN:$CHARA_FadeTime:0:0:0:0:0:0:0:0,#
*,type=STOP,param=0:0:0:0:0:0:0:0:0:0:0,#
*,type=HCHR_TK00,msg=あっ、それから…,param=chr_Mob1:L$BATTLE&Left8:0:0:0:0:0:0:0:0:0,#
*,type=HCHR_TK00,msg=敵の指揮官らしき獅子の獣人に<br>気をつけてください。,param=chr_Mob1:L$BATTLE&Left14:0:0:0:0:0:0:0:0:0,#
*,type=HCHR_TK00,msg=あの強さ……尋常ではありません！,param=chr_Mob1:L$BATTLE&Left16:0:0:0:0:0:0:0:0:0,#
*,type=HCHR_TK01,param=all:0:0:0:0:0:0:0:0:0:0,#
*,type=HCHR_POS00,param=chr_Mob1:FADEOUT:$CHARA_FadeTime:0:0:0:0:0:0:0:0,#
*,type=HCHR_POS00,param=chr_Loy:FADEIN:$CHARA_FadeTime:0:0:0:0:0:0:0:0,#
*,type=HCHR_GRP00,param=chr_Loy:face:do:$FACE_FadeTime:0:0:0:0:0:0:0,#
*,type=STOP,param=0:0:0:0:0:0:0:0:0:0:0,#
*,type=HCHR_TK00,msg=……分かった、ありがとう。,param=chr_Loy:L$BATTLE&Left14:0:0:0:0:0:0:0:0:0,#
*,type=HCHR_TK01,param=all:0:0:0:0:0:0:0:0:0:0,#
*,type=HCHR_POS00,param=chr_Loy:FADEOUT:$CHARA_FadeTime:0:0:0:0:0:0:0:0,#
*,type=BTL_ReqAction,param=PINDEX$4:0:MOVETO:1500$DEFAULT$2.4$IDLE$IDLE:0:0:0:0:0:0:0,#
*,type=BTL_WaitAction,param=5:0:0:0:0:0:0:0:0:0:0,#
*,type=BTL_CMD,param=unit_panel:PINDEX$4:OFF:0:0:0:0:0:0:0:0,#
*,type=STOP,param=0:0:0:0:0:0:0:0:0:0:0,#
*,type=WAIT_0000,param=0.5:0:0:0:0:0:0:0:0:0:0,#
*,type=HCHR_POS00,param=chr_Sarsha:FADEIN:$CHARA_FadeTime:0:0:0:0:0:0:0:0,#
*,type=HCHR_GRP00,param=chr_Sarsha:face:do:0:0:0:0:0:0:0:0,#
*,type=STOP,param=0:0:0:0:0:0:0:0:0:0:0,#
*,type=HCHR_TK00,msg=獅子の獣人……,param=chr_Sarsha:L$BATTLE&Left8:0:0:0:0:0:0:0:0:0,#
*,type=HCHR_TK10,msg=<rep_handlename>、あなたの世界を<br>襲ったやつらの中にはそんなのもいたの？,param=chr_Sarsha:Left:BATTLE:0:0:0:0:0:0:0:0,#
*,type=HCHR_TK01,param=chr_Sarsha:0:0:0:0:0:0:0:0:0:0,#
*,type=WAIT_0000,param=1:0:0:0:0:0:0:0:0:0:0,#
*,type=HCHR_GRP00,param=chr_Sarsha:face:ku:$FACE_FadeTime:0:0:0:0:0:0:0,#
*,type=HCHR_TK00,msg=そっか、見てないのね……,param=chr_Sarsha:L$BATTLE&Left12:0:0:0:0:0:0:0:0:0,#
*,type=HCHR_TK01,param=all:0:0:0:0:0:0:0:0:0:0,#
*,type=HCHR_POS00,param=chr_Sarsha:FADEOUT:$CHARA_FadeTime:0:0:0:0:0:0:0:0,#
*,type=HCHR_POS00,param=chr_Loy:FADEIN:$CHARA_FadeTime:0:0:0:0:0:0:0:0,#
*,type=HCHR_GRP00,param=chr_Loy:face:do:$FACE_FadeTime:0:0:0:0:0:0:0,#
*,type=STOP,param=0:0:0:0:0:0:0:0:0:0:0,#
*,type=HCHR_TK00,msg=ミストラルで遭遇したあのメルフェルといい,param=chr_Loy:L$BATTLE&Left20:0:0:0:0:0:0:0:0:0,#
*,type=HCHR_TK00,msg=ネグレスって奴らはどうにも一筋縄では<br>いかない奴らばかりのようだな……,param=chr_Loy:L$BATTLE&Left18:0:0:0:0:0:0:0:0:0,#
*,type=HCHR_TK01,param=all:0:0:0:0:0:0:0:0:0:0,#
*,type=HCHR_POS00,param=chr_Loy:FADEOUT:$CHARA_FadeTime:0:0:0:0:0:0:0:0,#
*,type=STOP,param=0:0:0:0:0:0:0:0:0:0:0,#
*,type=BTL_STORY,param=END:0:0:SKIPFADE:0:0:0:0:0:0:0,#
*,type=FADEOUT_000,param=1:00&00&00:0:0:0:0:0:0:0:0:0,#
*,type=WAIT_0000,param=1:0:0:0:0:0:0:0:0:0:0,#
*,type=BTL_PanelMask,param=OFF:0:0:0:0:0:0:0:0:0:0,#
*,type=GAM_CHGSCENE,param=MissionSelect:1:0:0:0:0:0:0:0:0:0,#
*,type=WAIT_0000,param=2:0:0:0:0:0:0:0:0:0:0,#
*,type=EVT_BLOCKEND,param=0:0:0:0:0:0:0:0:0:0:0,#

*,type=SYSED_00,param=0:0:0:0:0:0:0:0:0:0:0,#



