﻿ScriptCmd ver 1.1.1(app1.0.4):スクリプト_04_1_フィルアーム_dungeon1.xlsm/dungeon1/main008-dungeon1.csv

*,type=SYSST_00,param=0:0:0:0:0:0:0:0:0:0:0,#
*,type=CMD_STOP,param=0:0:0:0:0:0:0:0:0:0:0,#
*,type=SYSST_01,param=0:0:0:0:0:0:0:0:0:0:0,#


*,type=PICT_0000,param=bg1:0:0:bg$1050201:0:0:0:0:0:0:0,#
*,type=BGM_0000,param=1053:3:0:0:0:0:0:0:0:0:0,#
*,type=FADEIN_000,param=1.5:00&00&00:0:0:0:0:0:0:0:0:0,#
*,type=STOP,param=0:0:0:0:0:0:0:0:0:0:0,#
*,type=WAIT_0000,param=2:0:0:0:0:0:0:0:0:0:0,#
*,type=HCHR_ENT00,param=chr_Lin:リン:N$chara_bf2_25:$POS_Center:TYPE$middle:Z$10&10:0:0:0:0:0,#
*,type=HCHR_ENT00,param=chr_Yehoshua:ヨシュア:N$chara_bf2_7:$POS_Center:TYPE$middle:Z$10:0:0:0:0:0,#
*,type=HCHR_ENT00,param=chr_Dewey:デューイ:N$tame_wolf_03:$POS_Center:TYPE$middle:Z$11:0:0:0:0:0,#
*,type=HCHR_GRP00,param=chr_Lin:face:mu:0:0:0:0:0:0:0:0,#
*,type=HCHR_POS00,param=chr_Yehoshua:FADEIN:$CHARA_FadeTime:$OFS_Left:0:0:0:0:0:0:0,#
*,type=HCHR_POS00,param=chr_Lin:FADEIN:$CHARA_FadeTime:$OFS_Right:0:0:0:0:0:0:0,#
*,type=STOP,param=0:0:0:0:0:0:0:0:0:0:0,#
*,type=WAIT_0000,param=0.5:0:0:0:0:0:0:0:0:0:0,#
*,type=HCHR_TK10,msg=<speed=7>この辺りだな……,param=chr_Yehoshua:Left:BASIC:0:0:0:0:0:0:0:0,#
*,type=HCHR_TK10,msg=ここに増援が来るのね？,param=chr_Lin:Right:BASIC:0:0:0:0:0:0:0:0,#
*,type=HCHR_TK10,msg=あぁ、<wait=3>この地点で落ち合えとの指示だ。,param=chr_Yehoshua:Left:BASIC:0:0:0:0:0:0:0:0,#
*,type=HCHR_TK10,msg=転送自体はネグレスの妨害でピンポイント<br>にするのは難しいからな。,param=chr_Yehoshua:Left:BASIC:0:0:0:0:0:0:0:0,#
*,type=HCHR_TK01,param=all:0:0:0:0:0:0:0:0:0:0,#
*,type=HCHR_POS00,param=chr_Lin:FADEOUT:T$0.0:0:0:0:0:0:0:0:0,#
*,type=HCHR_POS00,param=chr_Yehoshua:FADEOUT:T$0.0:0:0:0:0:0:0:0:0,#
*,type=HCHR_GRP00,param=chr_Dewey:face:fu:0:0:0:0:0:0:0:0,#
*,type=STOP,param=0:0:0:0:0:0:0:0:0:0:0,#
*,type=HCHR_POS00,param=chr_Dewey:FADEIN:$CHARA_FadeTime:0:0:0:0:0:0:0:0,#
*,type=STOP,param=0:0:0:0:0:0:0:0:0:0:0,#
*,type=HCHR_SHK00,param=chr_Dewey:4:0.1:0.3:FixRange:0:0:0:0:0:0,#
*,type=HCHR_TK10,msg=<speed=3>ガゥッ!!,param=chr_Dewey:Center_under:SP:0:0:0:0:0:0:0:0,#
*,type=HCHR_TK01,param=all:0:0:0:0:0:0:0:0:0:0,#
*,type=HCHR_POS00,param=chr_Dewey:FADEOUT:T$0.0:0:0:0:0:0:0:0:0,#
*,type=STOP,param=0:0:0:0:0:0:0:0:0:0:0,#
*,type=HCHR_POS00,param=chr_Yehoshua:FADEIN:$CHARA_FadeTime:$OFS_Center:0:0:0:0:0:0:0,#
*,type=STOP,param=0:0:0:0:0:0:0:0:0:0:0,#
*,type=HCHR_TK10,msg=<speed=7>その狼……<wait=4>モルデンカンプの時よりも<br>随分と大きくなったな。,param=chr_Yehoshua:Center:BASIC:0:0:0:0:0:0:0:0,#
*,type=HCHR_TK01,param=all:0:0:0:0:0:0:0:0:0:0,#
*,type=HCHR_POS00,param=chr_Yehoshua:FADEOUT:T$0.0:0:0:0:0:0:0:0:0,#
*,type=HCHR_FDM00,param=chr_Dewey:MSK$on:T$0.0:0:0:0:0:0:0:0:0,#
*,type=HCHR_GRP00,param=chr_Lin:face:fu:0:0:0:0:0:0:0:0,#
*,type=STOP,param=0:0:0:0:0:0:0:0:0:0:0,#
*,type=HCHR_POS00,param=chr_Dewey:FADEIN:$CHARA_FadeTime:$OFS_Left:0:0:0:0:0:0:0,#
*,type=HCHR_POS00,param=chr_Lin:FADEIN:$CHARA_FadeTime:$OFS_Right:0:0:0:0:0:0:0,#
*,type=STOP,param=0:0:0:0:0:0:0:0:0:0:0,#
*,type=HCHR_TK10,msg=うん。,param=chr_Lin:Right:BASIC:0:0:0:0:0:0:0:0,#
*,type=HCHR_TK10,msg=この子たちヴァイザーのパートナーは<wait=3><br>成長がすっごく早いの。,param=chr_Lin:Right:BASIC:0:0:0:0:0:0:0:0,#
*,type=HCHR_TK10,msg=<speed=3>ガゥッ、ガゥッ!!,param=chr_Dewey:Left_under:SP:0:nowait:0:0:0:0:0:0,#
*,type=WAIT_0000,param=0.2:0:0:0:0:0:0:0:0:0:0,#
*,type=HCHR_SHK00,param=chr_Dewey:4:0.1:0.5:FixRange:0:0:0:0:0:0,#
*,type=CSYN_0002,param=0:0:0:0:0:0:0:0:0:0:0,#
*,type=HCHR_TK01,param=ALL:0:0:0:0:0:0:0:0:0:0,#
*,type=HCHR_POS00,param=chr_Lin:FADEOUT:T$0.0:0:0:0:0:0:0:0:0,#
*,type=HCHR_POS00,param=chr_Dewey:FADEOUT:T$0.0:0:0:0:0:0:0:0:0,#
*,type=STOP,param=0:0:0:0:0:0:0:0:0:0:0,#
*,type=HCHR_ENT01,param=chr_Lin:0:0:0:0:0:0:0:0:0:0,#
*,type=HCHR_ENT00,param=chr_Lin:リン:N$chara_bf2_25:$POS_Center:TYPE$middle:Z$10:0:0:0:0:0,#
*,type=HCHR_POS00,param=chr_Yehoshua:FADEIN:$CHARA_FadeTime:0:0:0:0:0:0:0:0,#
*,type=STOP,param=0:0:0:0:0:0:0:0:0:0:0,#
*,type=HCHR_TK10,msg=<speed=7>なるほど……,param=chr_Yehoshua:Center:BASIC:0:0:0:0:0:0:0:0,#
*,type=HCHR_TK10,msg=<rep_handlename>の<rep_myguardian>も<br>そうだったな。,param=chr_Yehoshua:Center:BASIC:0:0:0:0:0:0:0:0,#
*,type=HCHR_TK10,msg=パートナーとしてともに戦えるよう<wait=3><br>素早く成長していくということか。,param=chr_Yehoshua:Center:BASIC:0:0:0:0:0:0:0:0,#
*,type=HCHR_TK01,param=all:0:0:0:0:0:0:0:0:0:0,#
*,type=HCHR_POS00,param=chr_Yehoshua:FADEOUT:$CHARA_FadeTime:0:0:0:0:0:0:0:0,#
*,type=STOP,param=0:0:0:0:0:0:0:0:0:0:0,#
*,type=WAIT_0000,param=0.5:0:0:0:0:0:0:0:0:0:0,#
*,type=QUAK_0000,param=0.2:3:6:6:FixRange:0:0:0:0:0:0,#
*,type=FMSG_0000,msg=おぉーい!!,param=Shout:$Shout_S_C:0:0:0:0:0:0:0:0:0,#
*,type=FMSG_0001,param=all:0:0:0:0:0:0:0:0:0:0,#
*,type=WAIT_0000,param=0.5:0:0:0:0:0:0:0:0:0:0,#
*,type=STOP,param=0:0:0:0:0:0:0:0:0:0:0,#
*,type=HCHR_ENT00,param=chr_Sarsha:サーシャ:N$chara_bf2_1:$POS_Center:TYPE$middle:Z$10:0:0:0:0:0,#
*,type=HCHR_ENT00,param=chr_Worreth:ウォレス:N$chara_bf2_30:$POS_Center:TYPE$middle:Z$9:0:0:0:0:0,#
*,type=HCHR_ENT00,param=chr_Loy:ロイ:N$chara_bf2_28:$POS_Center:TYPE$middle:Z$10:0:0:0:0:0,#
*,type=HCHR_POS00,param=chr_Loy:FADEIN:T$1:0:0:0:0:0:0:0:0,#
*,type=HCHR_POS00,param=chr_Sarsha:FADEIN:T$1:$OFS_Right_Triple:0:0:0:0:0:0:0,#
*,type=HCHR_POS00,param=chr_Worreth:FADEIN:T$1:$OFS_Left_Triple:0:0:0:0:0:0:0,#
*,type=HCHR_GRP00,param=chr_Worreth:face:ki:$FACE_FadeTime:0:0:0:0:0:0:0,#
*,type=STOP,param=0:0:0:0:0:0:0:0:0:0:0,#
*,type=WAIT_0000,param=1:0:0:0:0:0:0:0:0:0:0,#
*,type=HCHR_PRM00,param=chr_Worreth:Z$11:0.3:0:0:0:0:0:0:0:0,#
*,type=HCHR_FDM00,param=ALL:MSK$on:0.3:0:0:0:0:0:0:0:0,#
*,type=HCHR_FDM00,param=chr_Worreth:MSK$off:0.3:0:0:0:0:0:0:0:0,#
*,type=STOP,param=0:0:0:0:0:0:0:0:0:0:0,#
*,type=WAIT_0000,param=0.5:0:0:0:0:0:0:0:0:0:0,#
*,type=HCHR_TK10,msg=やぁっと見つけたぜ!!,param=chr_Worreth:Left_Triple:BASIC:0:0:0:0:0:0:0:0,#
*,type=HCHR_TK10,msg=<speed=7>結構かかりましたね……,param=chr_Sarsha:Right_Triple:BASIC:0:0:0:0:0:0:0:0,#
*,type=HCHR_TK10,msg=やはり妨害のせいで、<wait=3>かなり転送位置が<br>ずれるみたいだな。,param=chr_Loy:Center:BASIC:0:0:0:0:0:0:0:0,#
*,type=HCHR_TK10,msg=待たせたな、<wait=3>ヨシュア。,param=chr_Loy:Center:BASIC:0:0:0:0:0:0:0:0,#
*,type=HCHR_TK01,param=all:0:0:0:0:0:0:0:0:0:0,#
*,type=HCHR_POS00,param=chr_Loy:FADEOUT:T$0.0:0:0:0:0:0:0:0:0,#
*,type=HCHR_POS00,param=chr_Sarsha:FADEOUT:T$0.0:0:0:0:0:0:0:0:0,#
*,type=HCHR_POS00,param=chr_Worreth:FADEOUT:T$0.0:0:0:0:0:0:0:0:0,#
*,type=HCHR_FDM00,param=chr_Lin:MSK$on:T$0.0:0:0:0:0:0:0:0:0,#
*,type=STOP,param=0:0:0:0:0:0:0:0:0:0:0,#
*,type=HCHR_POS00,param=chr_Yehoshua:FADEIN:T$0.5:$OFS_Left:0:0:0:0:0:0:0,#
*,type=HCHR_POS00,param=chr_Lin:FADEIN:T$0.5:$OFS_Right:0:0:0:0:0:0:0,#
*,type=STOP,param=0:0:0:0:0:0:0:0:0:0:0,#
*,type=HCHR_TK10,msg=いえ、<wait=3>早めに連絡をもらっていたので<br>さほど待ちはしませんでした。,param=chr_Yehoshua:Left:BASIC:0:0:0:0:0:0:0:0,#
*,type=HCHR_TK01,param=all:0:0:0:0:0:0:0:0:0:0,#
*,type=HCHR_POS00,param=chr_Yehoshua:FADEOUT:T$0.0:0:0:0:0:0:0:0:0,#
*,type=HCHR_POS00,param=chr_Lin:FADEOUT:T$0.0:0:0:0:0:0:0:0:0,#
*,type=HCHR_GRP00,param=chr_Loy:face:emi:0:0:0:0:0:0:0:0,#
*,type=HCHR_FDM00,param=chr_Sarsha:MSK$on:T$0.0:0:0:0:0:0:0:0:0,#
*,type=STOP,param=0:0:0:0:0:0:0:0:0:0:0,#
*,type=HCHR_POS00,param=chr_Loy:FADEIN:T$0.5:$OFS_Left:0:0:0:0:0:0:0,#
*,type=HCHR_POS00,param=chr_Sarsha:FADEIN:T$0.5:$OFS_Right:0:0:0:0:0:0:0,#
*,type=STOP,param=0:0:0:0:0:0:0:0:0:0:0,#
*,type=HCHR_TK10,msg=君がリンさんだね？<wait=3><br>初めまして、<wait=3>ロイだ。,param=chr_Loy:Left:BASIC:0:0:0:0:0:0:0:0,#
*,type=HCHR_GRP00,param=chr_Sarsha:face:ki:$FACE_FadeTime:0:0:0:0:0:0:0,#
*,type=HCHR_TK10,msg=サーシャよ、<wait=3>よろしくね。<wait=3><br>リンさん。,param=chr_Sarsha:Right:BASIC:0:0:0:0:0:0:0:0,#
*,type=HCHR_TK01,param=all:0:0:0:0:0:0:0:0:0:0,#
*,type=HCHR_POS00,param=chr_Loy:FADEOUT:T$0.0:0:0:0:0:0:0:0:0,#
*,type=HCHR_POS00,param=chr_Sarsha:FADEOUT:T$0.0:0:0:0:0:0:0:0:0,#
*,type=HCHR_GRP00,param=chr_Lin:face:ki:0:0:0:0:0:0:0:0,#
*,type=STOP,param=0:0:0:0:0:0:0:0:0:0:0,#
*,type=HCHR_POS00,param=chr_Lin:FADEIN:T$0.5:$OFS_Center:0:0:0:0:0:0:0,#
*,type=STOP,param=0:0:0:0:0:0:0:0:0:0:0,#
*,type=HCHR_TK10,msg=「リン」でいいわ。,param=chr_Lin:Center:BASIC:0:0:0:0:0:0:0:0,#
*,type=HCHR_GRP00,param=chr_Lin:face:fu:$FACE_FadeTime:0:0:0:0:0:0:0,#
*,type=HCHR_TK10,msg=待ってる間に、<wait=3>あなたたちのことは<br><rep_handlename>から聞いたの。,param=chr_Lin:Center:BASIC:0:0:0:0:0:0:0:0,#
*,type=HCHR_TK10,msg=<speed=7>全部、<wait=3>あなたたちに助けてもらえた<br>お陰だって……,param=chr_Lin:Center:BASIC:0:0:0:0:0:0:0:0,#
*,type=HCHR_TK10,msg=本当にありがとう。,param=chr_Lin:Center:BASIC:0:0:0:0:0:0:0:0,#
*,type=HCHR_GRP00,param=chr_Lin:face:ki:$FACE_FadeTime:0:0:0:0:0:0:0,#
*,type=HCHR_TK10,msg=これからもよろしくお願いします！,param=chr_Lin:Center:BASIC:0:0:0:0:0:0:0:0,#
*,type=HCHR_TK01,param=all:0:0:0:0:0:0:0:0:0:0,#
*,type=HCHR_POS00,param=chr_Lin:$OFS_Left:$CHARA_FadeTime:0:0:0:0:0:0:0:0,#
*,type=HCHR_POS00,param=chr_Sarsha:IN$right$100:$CHARA_FadeTime:0:0:0:0:0:0:0:0,#
*,type=STOP,param=0:0:0:0:0:0:0:0:0:0:0,#
*,type=HCHR_TK10,msg=ふふっ、<wait=3>なんか想像してた通りかも。,param=chr_Sarsha:Right:BASIC:0:0:0:0:0:0:0:0,#
*,type=HCHR_GRP00,param=chr_Lin:face:bi:$FACE_FadeTime:0:0:0:0:0:0:0,#
*,type=HCHR_TK10,msg=え？,param=chr_Lin:Left:BASIC:0:0:0:0:0:0:0:0,#
*,type=HCHR_TK10,msg=<rep_handlename>にね。<wait=3><br>とっても元気がいいって聞いてたから。,param=chr_Sarsha:Right:BASIC:0:0:0:0:0:0:0:0,#
*,type=HCHR_GRP00,param=chr_Lin:face:mu:$FACE_FadeTime:0:0:0:0:0:0:0,#
*,type=HCHR_TK10,msg=<speed=7><rep_handlename>……<wait=4><br>あんた余計なこと言ってないでしょうね？,param=chr_Lin:Left:BASIC:0:0:0:0:0:0:0:0,#
*,type=HCHR_TK01,param=all:skipmask:0:0:0:0:0:0:0:0:0,#
*,type=HCHR_POS00,param=chr_Lin:FADEOUT:T$0.5:0:0:0:0:0:0:0:0,#
*,type=HCHR_POS00,param=chr_Sarsha:FADEOUT:T$0.5:0:0:0:0:0:0:0:0,#
*,type=STOP,param=0:0:0:0:0:0:0:0:0:0:0,#
*,type=HCHR_TK01,param=all:0:0:0:0:0:0:0:0:0:0,#
*,type=HCHR_GRP00,param=chr_Loy:face:fu:0:0:0:0:0:0:0:0,#
*,type=HCHR_GRP00,param=chr_Worreth:face:fu:0:0:0:0:0:0:0:0,#
*,type=HCHR_PRM00,param=chr_Worreth:XFLIP$SET:0:0:0:0:0:0:0:0:0,#
*,type=STOP,param=0:0:0:0:0:0:0:0:0:0:0,#
*,type=HCHR_POS00,param=chr_Loy:FADEIN:T$0.5:$OFS_Left:Z$2:0:0:0:0:0:0,#
*,type=HCHR_POS00,param=chr_Worreth:FADEIN:T$0.5:$OFS_Right:Z$1:0:0:0:0:0:0,#
*,type=STOP,param=0:0:0:0:0:0:0:0:0:0:0,#
*,type=HCHR_TK10,msg=ウォレスは二人には会ってるよな？,param=chr_Loy:Left:BASIC:0:0:0:focusoff:0:0:0:0,#
*,type=HCHR_TK10,msg=えぇ、<wait=3>それぞれ一瞬ですけどね。,param=chr_Worreth:Right:BASIC:0:0:0:0:0:0:0:0,#
*,type=HCHR_TK01,param=ALL:skipmask:0:0:0:0:0:0:0:0:0,#
*,type=WAIT_0000,param=0.5:0:0:0:0:0:0:0:0:0:0,#
*,type=HCHR_TK10,msg=<speed=7>しかも、<wait=3>お嬢ちゃんの方には情けない姿を<br>見られちゃったけど……,param=chr_Worreth:Right:BASIC:0:0:0:0:0:0:0:0,#
*,type=HCHR_TK10,msg=でもこの通りもうピンピンしてるから<wait=3><br>安心してくれ！,param=chr_Worreth:Right:BASIC:0:0:0:0:0:0:0:0,#
*,type=HCHR_GRP00,param=chr_Loy:face:emi:$FACE_FadeTime:0:0:0:0:0:0:0,#
*,type=HCHR_TK10,msg=<rep_handlename><wait=3><br>バリウラではすまなかったな。,param=chr_Loy:Left:BASIC:0:0:0:0:0:0:0:0,#
*,type=HCHR_TK10,msg=お陰で俺もこの通り回復したよ。,param=chr_Loy:Left:BASIC:0:0:0:0:0:0:0:0,#
*,type=HCHR_GRP00,param=chr_Loy:face:fu:$FACE_FadeTime:0:0:0:0:0:0:0,#
*,type=HCHR_TK10,msg=七魔将の１人を倒したんだってな。<wait=3><br>少し見ない間に随分、<wait=3>逞しくなった。,param=chr_Loy:Left:BASIC:0:0:0:0:0:0:0:0,#
*,type=HCHR_TK01,param=all:skipmask:0:0:0:0:0:0:0:0:0,#
*,type=HCHR_POS00,param=chr_Loy:FADEOUT:T$0.5:0:0:0:0:0:0:0:0,#
*,type=HCHR_POS00,param=chr_Worreth:FADEOUT:T$0.5:0:0:0:0:0:0:0:0,#
*,type=STOP,param=0:0:0:0:0:0:0:0:0:0:0,#
*,type=HCHR_TK01,param=all:0:0:0:0:0:0:0:0:0:0,#
*,type=WAIT_0000,param=0.5:0:0:0:0:0:0:0:0:0:0,#
*,type=HCHR_GRP00,param=chr_Worreth:face:ai:0:0:0:0:0:0:0:0,#
*,type=HCHR_PRM00,param=chr_Worreth:XFLIP$RESET:0:0:0:0:0:0:0:0:0,#
*,type=HCHR_PRM00,param=chr_Worreth:Z$11:0:0:0:0:0:0:0:0:0,#
*,type=STOP,param=0:0:0:0:0:0:0:0:0:0:0,#
*,type=HCHR_POS00,param=chr_Worreth:FADEIN:$CHARA_FadeTime:$OFS_Left:0:0:0:0:0:0:0,#
*,type=HCHR_POS00,param=chr_Yehoshua:FADEIN:$CHARA_FadeTime:$OFS_Right:0:0:0:0:0:0:0,#
*,type=STOP,param=0:0:0:0:0:0:0:0:0:0:0,#
*,type=HCHR_TK10,msg=<speed=7>………<wait=4>ヨシュア。,param=chr_Worreth:Left:BASIC:0:0:0:focusoff:0:0:0:0,#
*,type=HCHR_TK01,param=ALL:skipmask:0:0:0:0:focusoff:0:0:0:0,#
*,type=HCHR_TK10,msg=<speed=7>セリア様のことはカル様から聞いた……,param=chr_Worreth:Left:BASIC:0:0:0:focusoff:0:0:0:0,#
*,type=HCHR_TK01,param=ALL:skipmask:0:0:0:0:focusoff:0:0:0:0,#
*,type=HCHR_GRP00,param=chr_Worreth:face:ku:$FACE_FadeTime:0:0:0:0:0:0:0,#
*,type=HCHR_TK10,msg=どうしようもなかったんだよな？,param=chr_Worreth:Left:BASIC:0:0:0:focusoff:0:0:0:0,#
*,type=HCHR_TK01,param=ALL:skipmask:0:0:0:0:focusoff:0:0:0:0,#
*,type=HCHR_TK10,msg=<speed=9>…………,param=chr_Yehoshua:Right:BASIC:0:0:0:0:0:0:0:0,#
*,type=HCHR_TK10,msg=セリア様ご自身の意思で、<wait=3>現地の者を<br>助けるために橋から落ちられた。,param=chr_Yehoshua:Right:BASIC:0:0:0:0:0:0:0:0,#
*,type=HCHR_TK10,msg=俺は反対した。,param=chr_Yehoshua:Right:BASIC:0:0:0:0:0:0:0:0,#
*,type=HCHR_GRP00,param=chr_Worreth:face:ai:$FACE_FadeTime:0:0:0:0:0:0:0,#
*,type=HCHR_TK10,msg=<speed=7>そうか……,param=chr_Worreth:Left:BASIC:0:0:0:0:0:0:0:0,#
*,type=HCHR_TK01,param=ALL:skipmask:0:0:0:0:0:0:0:0:0,#
*,type=WAIT_0000,param=0.5:0:0:0:0:0:0:0:0:0:0,#
*,type=HCHR_GRP00,param=chr_Worreth:face:fu:$FACE_FadeTime:0:0:0:0:0:0:0,#
*,type=HCHR_TK10,msg=お前はいつもベストな行動を取れる奴だ。,param=chr_Worreth:Left:BASIC:0:0:0:0:0:0:0:0,#
*,type=HCHR_GRP00,param=chr_Worreth:face:ki:$FACE_FadeTime:0:0:0:0:0:0:0,#
*,type=HCHR_TK10,msg=<speed=7>お前は……<wait=4>それでいい。,param=chr_Worreth:Left:BASIC:0:0:0:0:0:0:0:0,#
*,type=HCHR_TK01,param=all:0:0:0:0:0:0:0:0:0:0,#
*,type=HCHR_PRM00,param=chr_Worreth:Z$9:0.3:0:0:0:0:0:0:0:0,#
*,type=HCHR_FDM00,param=chr_Worreth:MSK$on:T$0.3:0:0:0:0:0:0:0:0,#
*,type=STOP,param=0:0:0:0:0:0:0:0:0:0:0,#
*,type=WAIT_0000,param=0.5:0:0:0:0:0:0:0:0:0:0,#
*,type=HCHR_EFC00,param=mnp_Yehoshua:chr_Yehoshua:manpu_1:OFS$0&0:SS5$$MANP_silence_a:0:0:0:0:0:0,#
*,type=WAIT_0000,param=1.3:0:0:0:0:0:0:0:0:0:0,#
*,type=PICT_0004,param=mnp_Yehoshua:0:0:0:0:0:0:0:0:0:0,#
*,type=WAIT_0000,param=0.5:0:0:0:0:0:0:0:0:0:0,#
*,type=HCHR_GRP00,param=chr_Worreth:face:mu:$FACE_FadeTime:0:0:0:0:0:0:0,#
*,type=HCHR_TK10,msg=ロイさん、<wait=3>着いた早々なんですが<wait=3><br>俺に単独行動を許してもらえませんか？,param=chr_Worreth:Left:BASIC:0:0:0:0:0:0:0:0,#
*,type=HCHR_TK01,param=all:0:0:0:0:0:0:0:0:0:0,#
*,type=HCHR_POS00,param=chr_Yehoshua:FADEOUT:T$0.0:0:0:0:0:0:0:0:0,#
*,type=HCHR_GRP00,param=chr_Loy:face:bi:0:0:0:0:0:0:0:0,#
*,type=STOP,param=0:0:0:0:0:0:0:0:0:0:0,#
*,type=HCHR_POS00,param=chr_Loy:FADEIN:$CHARA_FadeTime:$OFS_Right:Z$10:0:0:0:0:0:0,#
*,type=STOP,param=0:0:0:0:0:0:0:0:0:0:0,#
*,type=HCHR_TK10,msg=<speed=7>単独行動……？,param=chr_Loy:Right:BASIC:0:0:0:0:0:0:0:0,#
*,type=HCHR_GRP00,param=chr_Worreth:face:fu:$FACE_FadeTime:0:0:0:0:0:0:0,#
*,type=HCHR_TK10,msg=はい！<wait=3><br>セリア様を探しに行きます！,param=chr_Worreth:Left:BASIC:0:0:0:0:0:0:0:0,#
*,type=HCHR_GRP00,param=chr_Worreth:face:mu:$FACE_FadeTime:0:0:0:0:0:0:0,#
*,type=HCHR_TK10,msg=カル様は、<wait=3>セリア様なら大丈夫だから<br>対ネグレスに集中しろと言われましたが,param=chr_Worreth:Left:BASIC:0:0:0:0:0:0:0:0,#
*,type=HCHR_GRP00,param=chr_Worreth:face:ai:$FACE_FadeTime:0:0:0:0:0:0:0,#
*,type=HCHR_TK10,msg=<speed=7>俺は……<wait=4>やっぱり心配です。,param=chr_Worreth:Left:BASIC:0:0:0:0:0:0:0:0,#
*,type=HCHR_TK01,param=ALL:0:0:0:0:0:0:0:0:0:0,#
*,type=HCHR_PRM00,param=chr_Worreth:Z$1:0:0:0:0:0:0:0:0:0,#
*,type=HCHR_PRM00,param=chr_Loy:Z$2:0.3:0:0:0:0:0:0:0:0,#
*,type=HCHR_FDM00,param=ALL:MSK$on:0:0:0:0:0:0:0:0:0,#
*,type=HCHR_FDM00,param=chr_Loy:MSK$off:0.3:0:0:0:0:0:0:0:0,#
*,type=HCHR_GRP00,param=chr_Loy:face:ai:$FACE_FadeTime:Z$10:0:0:0:0:0:0,#
*,type=STOP,param=0:0:0:0:0:0:0:0:0:0:0,#
*,type=WAIT_0000,param=0.5:0:0:0:0:0:0:0:0:0:0,#
*,type=HCHR_EFC00,param=mnp_Loy:chr_Loy:manpu_1:OFS$0&0:SS5$$MANP_silence_a:0:0:0:0:0:0,#
*,type=WAIT_0000,param=1.3:0:0:0:0:0:0:0:0:0:0,#
*,type=PICT_0004,param=mnp_Loy:0:0:0:0:0:0:0:0:0:0,#
*,type=WAIT_0000,param=0.5:0:0:0:0:0:0:0:0:0:0,#
*,type=HCHR_GRP00,param=chr_Worreth:face:do:$FACE_FadeTime:0:0:0:0:0:0:0,#
*,type=HCHR_TK10,msg=<speed=3>お願いします!!,param=chr_Worreth:Left:BASIC:0:0:0:0:0:0:0:0,#
*,type=HCHR_GRP00,param=chr_Loy:face:fu:$FACE_FadeTime:0:0:0:0:0:0:0,#
*,type=HCHR_TK10,msg=<speed=9>……<wait=4><speed=4.8>分かった。<wait=3><br>俺もセリアさんが心配だ。,param=chr_Loy:Right:BASIC:0:0:0:0:0:0:0:0,#
*,type=HCHR_TK10,msg=対ネグレスの任務は、俺たちで行う。<wait=3><br>セリアさんのこと、<wait=3>よろしく頼む。,param=chr_Loy:Right:BASIC:0:0:0:0:0:0:0:0,#
*,type=HCHR_GRP00,param=chr_Worreth:face:ki:$FACE_FadeTime:0:0:0:0:0:0:0,#
*,type=HCHR_TK10,msg=<speed=3>はいっ!!<wait=3><br>ありがとうございます!!,param=chr_Worreth:Left:BASIC:0:0:0:0:0:0:0:0,#
*,type=HCHR_TK01,param=all:skipmask:0:0:0:0:0:0:0:0:0,#
*,type=WAIT_0000,param=0.5:0:0:0:0:0:0:0:0:0:0,#
*,type=HCHR_POS00,param=chr_Worreth:OUT$right$100:T$0.5:0:Z$11:0:0:0:0:0:0,#
*,type=STOP,param=0:0:0:0:0:0:0:0:0:0:0,#
*,type=HCHR_ENT01,param=chr_Worreth:0:0:0:0:0:0:0:0:0:0,#
*,type=WAIT_0000,param=0.5:0:0:0:0:0:0:0:0:0:0,#
*,type=HCHR_FDM00,param=chr_Loy:MSK$off:0.5:0:0:0:0:0:0:0:0,#
*,type=STOP,param=0:0:0:0:0:0:0:0:0:0:0,#
*,type=WAIT_0000,param=0.5:0:0:0:0:0:0:0:0:0:0,#
*,type=HCHR_TK01,param=all:0:0:0:0:0:0:0:0:0:0,#
*,type=HCHR_POS00,param=chr_Yehoshua:FADEIN:T$0.5:$OFS_Left:0:0:0:0:0:0:0,#
*,type=STOP,param=0:0:0:0:0:0:0:0:0:0:0,#
*,type=HCHR_TK10,msg=ロイさん。<wait=3><br>俺も１人で動きます。,param=chr_Yehoshua:Left:BASIC:0:0:0:focusoff:0:0:0:0,#
*,type=HCHR_GRP00,param=chr_Loy:face:bi:$FACE_FadeTime:0:0:0:0:0:0:0,#
*,type=HCHR_TK10,msg=え……？,param=chr_Loy:Right:BASIC:0:0:0:0:0:0:0:0,#
*,type=HCHR_TK10,msg=敵地にあって、<wait=3>あまり大人数で集まるよりも<wait=3><br>分散した方がいいと考えます。,param=chr_Yehoshua:Left:BASIC:0:0:0:0:0:0:0:0,#
*,type=HCHR_TK10,msg=それに俺は一人の方が動きやすい。,param=chr_Yehoshua:Left:BASIC:0:0:0:0:0:0:0:0,#
*,type=HCHR_TK01,param=ALL:skipmask:0:0:0:0:0:0:0:0:0,#
*,type=WAIT_0000,param=0.5:0:0:0:0:0:0:0:0:0:0,#
*,type=HCHR_TK10,msg=次の目的地は<rep_handlename>たちの<br>故郷のフィルアームですが……,param=chr_Yehoshua:Left:BASIC:0:0:0:0:0:0:0:0,#
*,type=HCHR_TK10,msg=俺は迂回してその先へ先行します。,param=chr_Yehoshua:Left:BASIC:0:0:0:0:0:0:0:0,#
*,type=HCHR_TK01,param=ALL:0:0:0:0:0:0:0:0:0:0,#
*,type=HCHR_TK10,msg=<speed=7>いや……<wait=4>しかし……,param=chr_Loy:Right:BASIC:0:0:0:focusoff:0:0:0:0,#
*,type=HCHR_TK01,param=ALL:skipmask:0:0:0:0:0:0:0:0:0,#
*,type=WAIT_0000,param=0.3:0:0:0:0:0:0:0:0:0:0,#
*,type=HCHR_POS00,param=chr_Yehoshua:OUT$left$100:T$0.5:0:0:0:0:0:0:0:0,#
*,type=WAIT_0000,param=0.2:0:0:0:0:0:0:0:0:0:0,#
*,type=HCHR_TK10,msg=<speed=3>あっ、<wait=3><speed=7>おい……!?,param=chr_Loy:Right:BASIC:0:0:0:0:0:0:0:0,#
*,type=HCHR_TK01,param=ALL:skipmask:0:0:0:0:0:0:0:0:0,#
*,type=WAIT_0000,param=0.5:0:0:0:0:0:0:0:0:0:0,#
*,type=HCHR_TK01,param=all:0:0:0:0:0:0:0:0:0:0,#
*,type=WAIT_0000,param=1:0:0:0:0:0:0:0:0:0:0,#
*,type=HCHR_ENT01,param=chr_Yehoshua:0:0:0:0:0:0:0:0:0:0,#
*,type=HCHR_GRP00,param=chr_Sarsha:face:fu:0:0:0:0:0:0:0:0,#
*,type=HCHR_PRM00,param=chr_Sarsha:XFLIP$SET:0:0:0:0:0:0:0:0:0,#
*,type=STOP,param=0:0:0:0:0:0:0:0:0:0:0,#
*,type=HCHR_FDM00,param=chr_Loy:MSK$on:0.5:0:0:0:0:0:0:0:0,#
*,type=HCHR_POS00,param=chr_Sarsha:FADEIN:T$0.5:$OFS_Left:0:0:0:0:0:0:0,#
*,type=STOP,param=0:0:0:0:0:0:0:0:0:0:0,#
*,type=HCHR_TK10,msg=あーあ、出ましたね。<wait=3><speed=7>独断専行……<wait=4><br>さすが、<wait=3>サンゼロのヨシュア。,param=chr_Sarsha:Left:BASIC:0:0:0:0:0:0:0:0,#
*,type=HCHR_GRP00,param=chr_Loy:face:ku:$FACE_FadeTime:0:0:0:0:0:0:0,#
*,type=HCHR_TK10,msg=<speed=9>あぁ……,param=chr_Loy:Right:BASIC:0:0:0:0:0:0:0:0,#
*,type=HCHR_TK10,msg=でもまぁ、<wait=3>５人でぞろぞろよりは<br>確かにこの方がいいかも知れませんね。,param=chr_Sarsha:Left:BASIC:0:0:0:0:0:0:0:0,#
*,type=HCHR_GRP00,param=chr_Loy:face:fu:$FACE_FadeTime:0:0:0:0:0:0:0,#
*,type=HCHR_TK10,msg=<speed=9>……<wait=4><speed=4.8>まぁ、奴のことだ。<wait=3><br>何か考えあってのことだろう。,param=chr_Loy:Right:BASIC:0:0:0:0:0:0:0:0,#
*,type=HCHR_TK10,msg=いずれにせよ、<wait=3>俺たちの進むべき先は<br>フィルアームだ。,param=chr_Loy:Right:BASIC:0:0:0:0:0:0:0:0,#
*,type=HCHR_TK10,msg=<rep_handlename>、<wait=3>リン。,param=chr_Loy:Right:BASIC:0:0:0:0:0:0:0:0,#
*,type=HCHR_TK10,msg=いよいよ、お前たちの故郷に戻るぞ。<wait=3><br>道案内を頼む！,param=chr_Loy:Right:BASIC:0:0:0:0:0:0:0:0,#
*,type=HCHR_TK01,param=all:skipmask:0:0:0:0:0:0:0:0:0,#
*,type=WAIT_0000,param=0.5:0:0:0:0:0:0:0:0:0:0,#
*,type=HCHR_TK01,param=all:0:0:0:0:0:0:0:0:0:0,#
*,type=HCHR_POS00,param=chr_Sarsha:FADEOUT:T$0.0:0:0:0:0:0:0:0:0,#
*,type=HCHR_GRP00,param=chr_Lin:face:fu:0:0:0:0:0:0:0:0,#
*,type=HCHR_FDM00,param=chr_Loy:MSK$on:0.5:0:0:0:0:0:0:0:0,#
*,type=HCHR_POS00,param=chr_Lin:FADEIN:T$0.5:0:0:0:0:0:0:0:0,#
*,type=STOP,param=0:0:0:0:0:0:0:0:0:0:0,#
*,type=HCHR_TK10,msg=えぇ、<wait=3>任せて！,param=chr_Lin:Left:BASIC:0:0:0:0:0:0:0:0,#
*,type=HCHR_TK01,param=ALL:skipmask:0:0:0:0:0:0:0:0:0,#
*,type=WAIT_0000,param=1:0:0:0:0:0:0:0:0:0:0,#
*,type=HCHR_GRP00,param=chr_Lin:face:ai:$FACE_FadeTime:0:0:0:0:0:0:0,#
*,type=HCHR_TK10,msg=<speed=9>……<wait=4><speed=4.8>お願い。<wait=3><br>みんな、<wait=3>どうか無事でいて。,param=chr_Lin:Left:BASIC:0:0:0:0:0:0:0:0,#
*,type=HCHR_TK01,param=ALL:skipmask:0:0:0:0:0:0:0:0:0,#
*,type=WAIT_0000,param=1:0:0:0:0:0:0:0:0:0:0,#
*,type=HCHR_GRP00,param=chr_Lin:face:do:$FACE_FadeTime:0:0:0:0:0:0:0,#
*,type=HCHR_TK10,msg=<speed=3>さぁ、<wait=3>こっちよっ!!,param=chr_Lin:Left:BASIC:0:0:0:0:0:0:0:0,#
*,type=HCHR_TK01,param=all:0:0:0:0:0:0:0:0:0:0,#
*,type=HCHR_POS00,param=chr_Lin:FADEOUT:T$0.0:0:0:0:0:0:0:0:0,#
*,type=HCHR_POS00,param=chr_Loy:FADEOUT:T$0.0:0:0:0:0:0:0:0:0,#
*,type=HCHR_ENT00,param=chr_Dragon:<rep_myguardian>:N$tame_dragon_03:$POS_Center:TYPE$middle:Z$10&10:0:0:0:0:0,#
*,type=HCHR_GRP00,param=chr_Dewey:face:do:$FACE_FadeTime:0:0:0:0:0:0:0,#
*,type=HCHR_FDM00,param=chr_Dewey:MSK$on:T$0.0:0:0:0:0:0:0:0:0,#
*,type=HCHR_POS00,param=chr_Dragon:FADEIN:T$0.5:0:0:0:0:0:0:0:0,#
*,type=HCHR_POS00,param=chr_Dewey:FADEIN:T$0.5:$OFS_Center:0:0:0:0:0:0:0,#
*,type=STOP,param=0:0:0:0:0:0:0:0:0:0:0,#
*,type=HCHR_SHK00,param=chr_Dragon:4:0.1:0.3:FixRange:0:0:0:0:0:0,#
*,type=HCHR_TK10,msg=<speed=3>グガァッッ!!,param=chr_Dragon:Left:BASIC:0:0:0:0:0:0:0:0,#
*,type=HCHR_SHK00,param=chr_Dewey:4:0.1:0.3:FixRange:0:0:0:0:0:0,#
*,type=HCHR_TK10,msg=<speed=3>ガゥッ!!,param=chr_Dewey:Center_under:SP:0:0:0:0:0:0:0:0,#
*,type=HCHR_TK01,param=all:skipmask:0:0:0:0:0:0:0:0:0,#
*,type=WAIT_0000,param=1:0:0:0:0:0:0:0:0:0:0,#
*,type=FADEOUT_000,param=1.5:00&00&00:0:0:0:0:0:0:0:0:0,#
*,type=WAIT_0000,param=2:0:0:0:0:0:0:0:0:0:0,#
*,type=STOP,param=0:0:0:0:0:0:0:0:0:0:0,#
*,type=PICT_0004,param=bg1:0:0:0:0:0:0:0:0:0:0,#
*,type=HCHR_ENT01,param=chr_Loy:0:0:0:0:0:0:0:0:0:0,#
*,type=HCHR_ENT01,param=chr_Sarsha:0:0:0:0:0:0:0:0:0:0,#
*,type=HCHR_ENT01,param=chr_Lin:0:0:0:0:0:0:0:0:0:0,#
*,type=HCHR_ENT01,param=chr_Dragon:0:0:0:0:0:0:0:0:0:0,#
*,type=HCHR_ENT01,param=chr_Dewey:0:0:0:0:0:0:0:0:0:0,#

*,type=SYSED_00,param=0:0:0:0:0:0:0:0:0:0:0,#



