﻿ScriptCmd ver 1.1.1(app1.0.4):スクリプト_04_2_フィルアーム城_dungeon8.xlsm/dungeon8/main008-dungeon8.csv

*,type=SYSST_00,param=0:0:0:0:0:0:0:0:0:0:0,#
*,type=CMD_STOP,param=0:0:0:0:0:0:0:0:0:0:0,#
*,type=SYSST_01,param=0:0:0:0:0:0:0:0:0:0:0,#


*,type=PICT_0000,param=bg1:battle_bg_011_07.jpg:0:bg$1050308:0:0:0:0:0:0:0,#
*,type=HCHR_ENT00,param=chr_Lin:リン:N$chara_bf2_25:$POS_Center:TYPE$middle:Z$11:0:0:0:0:0,#
*,type=HCHR_ENT00,param=chr_Sarsha:サーシャ:N$chara_bf2_1:$POS_Center:TYPE$middle:Z$10:0:0:0:0:0,#
*,type=HCHR_ENT00,param=chr_Hilda:ヒルダ:N$chara_bf2_15:$POS_Center:TYPE$middle:Z$10:0:0:0:0:0,#
*,type=BGM_0000,param=42:0:0:0:0:0:0:0:0:0:0,#
*,type=FADEIN_000,param=1.5:00&00&00:0:0:0:0:0:0:0:0:0,#
*,type=STOP,param=0:0:0:0:0:0:0:0:0:0:0,#
*,type=WAIT_0000,param=1:0:0:0:0:0:0:0:0:0:0,#
*,type=HCHR_POS00,param=chr_Lin:FADEIN:$CHARA_FadeTime:$OFS_Left:0:0:0:0:0:0:0,#
*,type=HCHR_POS00,param=chr_Sarsha:FADEIN:$CHARA_FadeTime:$OFS_Right:0:0:0:0:0:0:0,#
*,type=HCHR_GRP00,param=chr_Lin:face:mu:$FACE_FadeTime:0:0:0:0:0:0:0,#
*,type=WAIT_0000,param=1:0:0:0:0:0:0:0:0:0:0,#
*,type=HCHR_TK10,msg=ここを過ぎれば、<wait=1.5>日時計広場に出る。<wait=3><br>その先は、すぐ本城よ。,param=chr_Lin:Left:BASIC:0:0:0:0:0:0:0:0,#
*,type=HCHR_TK10,msg=もう、ロイさんたちは<wait=3><br>着いているかもしれない……,param=chr_Lin:Left:BASIC:0:0:0:0:0:0:0:0,#
*,type=HCHR_TK01,param=ALL:skipmask:0:0:0:0:0:0:0:0:0,#
*,type=WAIT_0000,param=0.5:0:0:0:0:0:0:0:0:0:0,#
*,type=HCHR_GRP00,param=chr_Lin:face:do:$FACE_FadeTime:0:0:0:0:0:0:0,#
*,type=HCHR_TK10,msg=<speed=3>急ぎましょ！,param=chr_Lin:Left:BASIC:0:0:0:0:0:0:0:0,#
*,type=HCHR_TK10,msg=<speed=3>うん！,param=chr_Sarsha:Right:BASIC:0:0:0:0:0:0:0:0,#
*,type=HCHR_TK01,param=all:skipmask:0:0:0:0:0:0:0:0:0,#
*,type=BGM_0001,param=2:0:0:0:0:0:0:0:0:0:0,#
*,type=WAIT_0000,param=0.5:0:0:0:0:0:0:0:0:0:0,#
*,type=HCHR_FDM00,param=all:MSK$on:0.3:0:0:0:0:0:0:0:0,#
*,type=STOP,param=0:0:0:0:0:0:0:0:0:0:0,#
*,type=FMSG_0000,msg=どこに消えたかと思えば<wait=1.5><br>こんなところにいたのかい。,param=chr_****:$CenterNoTail14:0:0:0:0:0:name$？？？:0:0:0,#
*,type=FMSG_0001,param=all:0:0:0:0:0:0:0:0:0:0,#
*,type=HCHR_POS00,param=chr_Lin:FADEOUT:T$0:0:0:0:0:0:0:0:0,#
*,type=HCHR_POS00,param=chr_Sarsha:FADEOUT:T$0:0:0:0:0:0:0:0:0,#
*,type=SE_0000,param=323:0:0:0:0:0:0:0:0:0:0,#
*,type=FADEOUT_000,param=0.5:0&0&180:0:0:0:0:0:0:0:0:0,#
*,type=STOP,param=0:0:0:0:0:0:0:0:0:0:0,#
*,type=SE_0000,param=343:0:0:0:0:0:0:0:0:0:0,#
*,type=SS5_0000,param=in_hilda:sc_generaltransition.ssbp:sc_15_in/anime:sc_15_in/anime:15:$GNRTRS_Hilda_X:$GNRTRS_Hilda_Y:1:0:0:0,#
*,type=HCHR_POS00,param=chr_Hilda:FADEIN:$CHARA_FadeTime:$OFS_Center:0:0:0:0:0:0:0,#
*,type=HCHR_GRP00,param=chr_Hilda:face:mu:$FACE_FadeTime:0:0:0:0:0:0:0,#
*,type=STOP,param=0:0:0:0:0:0:0:0:0:0:0,#
*,type=WAIT_0000,param=0.5:0:0:0:0:0:0:0:0:0:0,#
*,type=BGM_0000,param=25:0:0:0:0:0:0:0:0:0:0,#
*,type=STOP,param=0:0:0:0:0:0:0:0:0:0:0,#
*,type=SS5_0001,param=in_hilda:0:0:0:0:0:0:0:0:0:0,#
*,type=WAIT_0000,param=0.5:0:0:0:0:0:0:0:0:0:0,#
*,type=HCHR_TK10,msg=<speed=7>フン……<wait=3><br><speed=4.8>こっちにいるのは小娘２人か。,param=chr_Hilda:Center:BASIC:0:0:0:0:0:0:0:0,#
*,type=HCHR_TK01,param=all:0:0:0:0:0:0:0:0:0:0,#
*,type=HCHR_POS00,param=chr_Hilda:FADEOUT:T$0:0:0:0:0:0:0:0:0,#
*,type=HCHR_FDM00,param=all:MSK$on:0:0:0:0:0:0:0:0:0,#
*,type=HCHR_FDM00,param=chr_Sarsha:MSK$off:0:0:0:0:0:0:0:0:0,#
*,type=HCHR_PRM00,param=chr_Lin:Z$10:0:0:0:0:0:0:0:0:0,#
*,type=HCHR_PRM00,param=chr_Sarsha:Z$11:0:0:0:0:0:0:0:0:0,#
*,type=HCHR_POS00,param=chr_Lin:FADEIN:$CHARA_FadeTime:$OFS_Left:0:0:0:0:0:0:0,#
*,type=HCHR_POS00,param=chr_Sarsha:FADEIN:$CHARA_FadeTime:$OFS_Right:0:0:0:0:0:0:0,#
*,type=HCHR_GRP00,param=chr_Lin:face:mu:$FACE_FadeTime:0:0:0:0:0:0:0,#
*,type=HCHR_GRP00,param=chr_Sarsha:face:do:$FACE_FadeTime:0:0:0:0:0:0:0,#
*,type=STOP,param=0:0:0:0:0:0:0:0:0:0:0,#
*,type=HCHR_TK10,msg=あなたはたしか……<wait=3><speed=3>ヒルダ！,param=chr_Sarsha:Right:BASIC:0:0:0:0:0:0:0:0,#
*,type=HCHR_GRP00,param=chr_Lin:face:bi:$FACE_FadeTime:0:0:0:0:0:0:0,#
*,type=HCHR_TK10,msg=<speed=9>……<speed=4.8><wait=4>知り合い？,param=chr_Lin:Left:BASIC:0:0:0:0:0:0:0:0,#
*,type=HCHR_TK10,msg=ネグレスの七魔将の１人よ……,param=chr_Sarsha:Right:BASIC:0:0:0:0:0:0:0:0,#
*,type=HCHR_GRP00,param=chr_Lin:face:do:$FACE_FadeTime:0:0:0:0:0:0:0,#
*,type=HCHR_TK10,msg=<speed=3>七魔将!?,param=chr_Lin:Left:BASIC:0:nowait:0:0:0:0:0:0,#
*,type=WAIT_0000,param=0.2:0:0:0:0:0:0:0:0:0:0,#
*,type=HCHR_SHK00,param=chr_Lin:4:0.05:0.3:FixRange:0:0:0:0:0:0,#
*,type=CSYN_0002,param=0:0:0:0:0:0:0:0:0:0:0,#
*,type=HCHR_TK01,param=ALL:0:0:0:0:0:0:0:0:0:0,#
*,type=HCHR_POS00,param=chr_Lin:FADEOUT:T$0:0:0:0:0:0:0:0:0,#
*,type=HCHR_POS00,param=chr_Sarsha:FADEOUT:T$0:0:0:0:0:0:0:0:0,#
*,type=HCHR_POS00,param=chr_Hilda:FADEIN:$CHARA_FadeTime:$OFS_Center:0:0:0:0:0:0:0,#
*,type=STOP,param=0:0:0:0:0:0:0:0:0:0:0,#
*,type=WAIT_0000,param=0.5:0:0:0:0:0:0:0:0:0:0,#
*,type=HCHR_TK10,msg=まったく……<wait=3>舐められたものだね。,param=chr_Hilda:Center:BASIC:0:0:0:0:0:0:0:0,#
*,type=HCHR_TK10,msg=二手に分かれて進めば、<wait=3>アタシたちを<br>出し抜けるとでも思ったのかい？,param=chr_Hilda:Center:BASIC:0:0:0:0:0:0:0:0,#
*,type=HCHR_TK01,param=all:0:0:0:0:0:0:0:0:0:0,#
*,type=HCHR_FDM00,param=all:MSK$on:0.3:0:0:0:0:0:0:0:0,#
*,type=HCHR_FDM00,param=chr_Lin:MSK$off:0:0:0:0:0:0:0:0:0,#
*,type=HCHR_PRM00,param=chr_Hilda:Z$10:0:0:0:0:0:0:0:0:0,#
*,type=HCHR_PRM00,param=chr_Lin:Z$11:0:0:0:0:0:0:0:0:0,#
*,type=HCHR_POS00,param=chr_Hilda:IN$right$160:T$0.3:$OFS_Left:0:0:0:0:0:0:0,#
*,type=HCHR_POS00,param=chr_Lin:IN$right$160:T$0.3:$OFS_Right:0:0:0:0:0:0:0,#
*,type=STOP,param=0:0:0:0:0:0:0:0:0:0:0,#
*,type=HCHR_TK10,msg=二手に分かれて……って<wait=3><br><speed=3>アンタたちの仕業でしょ！,param=chr_Lin:Right:BASIC:0:0:0:0:0:0:0:0,#
*,type=HCHR_TK10,msg=<speed=9>……？<wait=4><br><speed=7>何を言っている……？,param=chr_Hilda:Left:BASIC:0:0:0:0:0:0:0:0,#
*,type=HCHR_TK10,msg=アンタたちがどんなことを企んだって……,param=chr_Lin:Right:BASIC:0:0:0:0:0:0:0:0,#
*,type=HCHR_TK10,msg=<speed=3>私たちはヴァイザーの誇りにかけて<wait=3><br>フィルアームを取り戻す！,param=chr_Lin:Right:BASIC:0:0:0:0:0:0:0:0,#
*,type=HCHR_GRP00,param=chr_Hilda:face:ki:$FACE_FadeTime:0:0:0:0:0:0:0,#
*,type=HCHR_TK10,msg=フン……<wait=3><br>ヴァイザーの誇りだって？,param=chr_Hilda:Left:BASIC:0:0:0:0:0:0:0:0,#
*,type=HCHR_GRP00,param=chr_Hilda:face:mu:$FACE_FadeTime:0:0:0:0:0:0:0,#
*,type=HCHR_TK10,msg=そんなものが本当にあると<wait=3><br>思ってるのかい？,param=chr_Hilda:Left:BASIC:0:0:0:0:0:0:0:0,#
*,type=HCHR_TK10,msg=騎士とは名ばかりで、<wait=3>ただいいように<br>利用されているだけのお前たちに。,param=chr_Hilda:Left:BASIC:0:0:0:0:0:0:0:0,#
*,type=HCHR_TK10,msg=<speed=7>な……!?,param=chr_Lin:Right:BASIC:0:0:0:0:0:0:0:0,#
*,type=HCHR_TK01,param=ALL:skipmask:0:0:0:0:0:0:0:0:0,#
*,type=WAIT_0000,param=0.5:0:0:0:0:0:0:0:0:0:0,#
*,type=HCHR_TK10,msg=<speed=3>そんなことない！<wait=3><br>何も知らないくせに!!,param=chr_Lin:Right:BASIC:0:nowait:0:0:0:0:0:0,#
*,type=WAIT_0000,param=0.2:0:0:0:0:0:0:0:0:0:0,#
*,type=HCHR_SHK00,param=chr_Lin:4:0.05:0.3:FixRange:0:0:0:0:0:0,#
*,type=CSYN_0002,param=0:0:0:0:0:0:0:0:0:0:0,#
*,type=HCHR_TK01,param=ALL:0:0:0:0:0:0:0:0:0:0,#
*,type=HCHR_TK10,msg=<speed=7>知ってるさ……,param=chr_Hilda:Left:BASIC:0:0:0:0:0:0:0:0,#
*,type=HCHR_TK10,msg=お前みたいな小娘なんかよりも<wait=3><br><speed=7>……ずっとね。,param=chr_Hilda:Left:BASIC:0:0:0:0:0:0:0:0,#
*,type=HCHR_GRP00,param=chr_Lin:face:bi:$FACE_FadeTime:0:0:0:0:0:0:0,#
*,type=HCHR_TK10,msg=<speed=3>えっ……!?,param=chr_Lin:Right:BASIC:0:0:0:0:0:0:0:0,#
*,type=HCHR_GRP00,param=chr_Hilda:face:fu:$FACE_FadeTime:0:0:0:0:0:0:0,#
*,type=HCHR_TK10,msg=ま、<wait=3>そんなことはどうでもいいか。,param=chr_Hilda:Left:BASIC:0:0:0:0:0:0:0:0,#
*,type=HCHR_TK10,msg=アンタらは、<wait=1.5>今ここでアタシに<br>倒されるんだ。,param=chr_Hilda:Left:BASIC:0:0:0:0:0:0:0:0,#
*,type=HCHR_TK10,msg=ヴァイザーに誇りがあろうがなかろうが<wait=3><br><speed=7>そんなことは関係なくね……,param=chr_Hilda:Left:BASIC:0:0:0:0:0:0:0:0,#
*,type=HCHR_TK01,param=all:skipmask:0:0:0:0:0:0:0:0:0,#
*,type=HCHR_GRP00,param=chr_Lin:face:kyou2:$FACE_FadeTime:0:0:0:0:0:0:0,#
*,type=WAIT_0000,param=0.5:0:0:0:0:0:0:0:0:0:0,#
*,type=HCHR_FDM00,param=all:MSK$on:0.3:0:0:0:0:0:0:0:0,#
*,type=HCHR_FDM00,param=chr_Sarsha:MSK$off:0:0:0:0:0:0:0:0:0,#
*,type=HCHR_PRM00,param=chr_Sarsha:Z$11:0:0:0:0:0:0:0:0:0,#
*,type=HCHR_PRM00,param=chr_Hilda:Z$10:0:0:0:0:0:0:0:0:0,#
*,type=HCHR_POS00,param=chr_Lin:FADEOUT:T$0:0:0:0:0:0:0:0:0,#
*,type=HCHR_POS00,param=chr_Sarsha:FADEIN:T$0.3:$OFS_Right:0:0:0:0:0:0:0,#
*,type=HCHR_GRP00,param=chr_Sarsha:face:fu:$FACE_FadeTime:0:0:0:0:0:0:0,#
*,type=WAIT_0000,param=0.8:0:0:0:0:0:0:0:0:0:0,#
*,type=HCHR_TK10,msg=<speed=7>ルネさんも……<wait=3>ここにいるの？,param=chr_Sarsha:Right:BASIC:0:0:0:0:0:0:0:0,#
*,type=HCHR_GRP00,param=chr_Hilda:face:mu:$FACE_FadeTime:0:0:0:0:0:0:0,#
*,type=HCHR_TK10,msg=<speed=9>……<wait=4><speed=4.8>あぁ、<wait=3>いるよ。,param=chr_Hilda:Left:BASIC:0:0:0:0:0:0:0:0,#
*,type=HCHR_TK10,msg=今頃は、<wait=3>もう一方のお前たちの<wait=3><br><speed=9>仲間の方に……,param=chr_Hilda:Left:BASIC:0:0:0:0:0:0:0:0,#
*,type=HCHR_TK01,param=ALL:skipmask:0:0:0:0:0:0:0:0:0,#
*,type=WAIT_0000,param=0.5:0:0:0:0:0:0:0:0:0:0,#
*,type=HCHR_GRP00,param=chr_Hilda:face:bi:$FACE_FadeTime:0:0:0:0:0:0:0,#
*,type=HCHR_TK10,msg=<speed=7>………？,param=chr_Hilda:Left:BASIC:0:0:0:0:0:0:0:0,#
*,type=HCHR_TK01,param=ALL:skipmask:0:0:0:0:0:0:0:0:0,#
*,type=WAIT_0000,param=0.5:0:0:0:0:0:0:0:0:0:0,#
*,type=HCHR_GRP00,param=chr_Hilda:face:do:$FACE_FadeTime:0:0:0:0:0:0:0,#
*,type=HCHR_TK10,msg=<speed=3>チッ……<wait=5><br>まったく、<wait=3>あの子は……,param=chr_Hilda:Left:BASIC:0:0:0:0:0:0:0:0,#
*,type=HCHR_TK01,param=all:0:0:0:0:0:0:0:0:0:0,#
*,type=HCHR_FDM00,param=all:MSK$on:0.3:0:0:0:0:0:0:0:0,#
*,type=HCHR_FDM00,param=chr_Sarsha:MSK$off:0.3:0:0:0:0:0:0:0:0,#
*,type=HCHR_PRM00,param=chr_Sarsha:Z$11:0:0:0:0:0:0:0:0:0,#
*,type=STOP,param=0:0:0:0:0:0:0:0:0:0:0,#
*,type=HCHR_GRP00,param=chr_Sarsha:face:bi:$FACE_FadeTime:0:0:0:0:0:0:0,#
*,type=HCHR_EFC00,param=Eff_Manp_04:chr_Sarsha:manpu_1:0:SS5$$MANP_doubt_black_a:0:0:0:0:0:0,#
*,type=WAIT_0000,param=1.3:0:0:0:0:0:0:0:0:0:0,#
*,type=PICT_0004,param=Eff_Manp_04:0:0:0:0:0:0:0:0:0:0,#
*,type=WAIT_0000,param=0.5:0:0:0:0:0:0:0:0:0:0,#
*,type=HCHR_GRP00,param=chr_Hilda:face:mu:$FACE_FadeTime:0:0:0:0:0:0:0,#
*,type=HCHR_TK10,msg=フン……<wait=3>アンタたち、<wait=1.5>命拾いしたわね。<wait=3><br>この場は見逃してあげるよ。,param=chr_Hilda:Left:BASIC:0:0:0:0:0:0:0:0,#
*,type=HCHR_TK10,msg=だが、<wait=3>アタシたちはこの城に<br>足を踏み入れた者の殲滅を命じられている。,param=chr_Hilda:Left:BASIC:0:0:0:0:0:0:0:0,#
*,type=HCHR_GRP00,param=chr_Sarsha:face:do:$FACE_FadeTime:0:0:0:0:0:0:0,#
*,type=HCHR_GRP00,param=chr_Hilda:face:do:$FACE_FadeTime:0:0:0:0:0:0:0,#
*,type=HCHR_TK10,msg=このまま尻尾を巻いて逃げるならば、<wait=3>よし。<wait=5><br>これ以上進んで来るなら、<wait=3>容赦しないよ！,param=chr_Hilda:Left:BASIC:0:0:0:0:0:0:0:0,#
*,type=HCHR_TK01,param=all:0:0:0:0:0:0:0:0:0:0,#
*,type=BGM_0001,param=1.5:0:0:0:0:0:0:0:0:0:0,#
*,type=HCHR_POS00,param=chr_Sarsha:FADEOUT:T$0:0:0:0:0:0:0:0:0,#
*,type=HCHR_POS00,param=chr_Hilda:IN$left$160:$CHARA_FadeTime:$OFS_Center:0:0:0:0:0:0:0,#
*,type=STOP,param=0:0:0:0:0:0:0:0:0:0:0,#
*,type=BGM_0001,param=2:0:0:0:0:0:0:0:0:0:0,#
*,type=WAIT_0000,param=1:0:0:0:0:0:0:0:0:0:0,#
*,type=SE_0000,param=324:0:0:0:0:0:0:0:0:0:0,#
*,type=SS5_0000,param=out_hilda:sc_generaltransition.ssbp:sc_15_out/anime:sc_15_out/anime:16:$GNRTRS_Hilda_X:$GNRTRS_Hilda_Y:1:0:0:0,#
*,type=WAIT_0000,param=0.2:0:0:0:0:0:0:0:0:0:0,#
*,type=FADEIN_000,param=0.3:0&0&180:0:0:0:0:0:0:0:0:0,#
*,type=HCHR_POS00,param=chr_Hilda:FADEOUT:$CHARA_FadeTime:0:0:0:0:0:0:0:0,#
*,type=WAIT_0000,param=0.5:0:0:0:0:0:0:0:0:0:0,#
*,type=STOP,param=0:0:0:0:0:0:0:0:0:0:0,#
*,type=SS5_0001,param=out_hilda:0:0:0:0:0:0:0:0:0:0,#
*,type=WAIT_0000,param=1.5:0:0:0:0:0:0:0:0:0:0,#
*,type=HCHR_PRM00,param=chr_Lin:Z$11:0:0:0:0:0:0:0:0:0,#
*,type=HCHR_PRM00,param=chr_Sarsha:Z$10:0:0:0:0:0:0:0:0:0,#
*,type=HCHR_POS00,param=chr_Lin:FADEIN:T$0.5:$OFS_Left:0:0:0:0:0:0:0,#
*,type=HCHR_POS00,param=chr_Sarsha:FADEIN:T$0.5:$OFS_Right:0:0:0:0:0:0:0,#
*,type=HCHR_GRP00,param=chr_Lin:face:ai:$FACE_FadeTime:0:0:0:0:0:0:0,#
*,type=HCHR_GRP00,param=chr_Sarsha:face:fu:$FACE_FadeTime:0:0:0:0:0:0:0,#
*,type=STOP,param=0:0:0:0:0:0:0:0:0:0:0,#
*,type=WAIT_0000,param=0.5:0:0:0:0:0:0:0:0:0:0,#
*,type=HCHR_TK10,msg=<speed=7>てっきり戦いになると思ったけど……<wait=3><br><speed=4.8>一体何だったの？,param=chr_Lin:Left:BASIC:0:0:0:0:0:0:0:0,#
*,type=BGM_0000,param=56:0:0:0:0:0:0:0:0:0:0,#
*,type=HCHR_TK10,msg=<speed=7>ルネさんが、<wait=3>ここにいる……<wait=6></speed><br><speed=3>リン、<wait=1.5>早く城に向かおう！,param=chr_Sarsha:Right:BASIC:0:0:0:0:0:0:0:0,#
*,type=HCHR_GRP00,param=chr_Lin:face:mu:$FACE_FadeTime:0:0:0:0:0:0:0,#
*,type=HCHR_TK10,msg=うん、<wait=3>あいつらと戦うのね！,param=chr_Lin:Left:BASIC:0:0:0:0:0:0:0:0,#
*,type=HCHR_GRP00,param=chr_Sarsha:face:ai:$FACE_FadeTime:0:0:0:0:0:0:0,#
*,type=HCHR_TK10,msg=<speed=9>………<wait=4><speed=4.8>うぅん、<wait=1.5>そうじゃない。<wait=3><br>戦いたくないの、<wait=1.5>ルネさんとは。,param=chr_Sarsha:Right:BASIC:0:0:0:0:0:0:0:0,#
*,type=HCHR_GRP00,param=chr_Lin:face:bi:$FACE_FadeTime:0:0:0:0:0:0:0,#
*,type=HCHR_TK10,msg=え？,param=chr_Lin:Left:BASIC:0:0:0:0:0:0:0:0,#
*,type=HCHR_TK10,msg=変なこと言ってごめんね……<wait=5><br><speed=7>でも……<wait=3>私……,param=chr_Sarsha:Right:BASIC:0:0:0:0:0:0:0:0,#
*,type=HCHR_TK01,param=all:skipmask:0:0:0:0:0:0:0:0:0,#
*,type=WAIT_0000,param=1:0:0:0:0:0:0:0:0:0:0,#
*,type=HCHR_GRP00,param=chr_Lin:face:fu:$FACE_FadeTime:0:0:0:0:0:0:0,#
*,type=HCHR_TK10,msg=わかった。<wait=3>城に向かう途中で聞くよ。<wait=3><br>その、<wait=1.5>ルネさんって人の話。,param=chr_Lin:Left:BASIC:0:0:0:0:0:0:0:0,#
*,type=HCHR_GRP00,param=chr_Sarsha:face:ki:$FACE_FadeTime:0:0:0:0:0:0:0,#
*,type=HCHR_TK10,msg=……ありがとう、<wait=3>リン。,param=chr_Sarsha:Right:BASIC:0:0:0:0:0:0:0:0,#
*,type=HCHR_TK01,param=all:skipmask:0:0:0:0:0:0:0:0:0,#
*,type=WAIT_0000,param=1:0:0:0:0:0:0:0:0:0:0,#
*,type=FADEOUT_000,param=1.5:00&00&00:0:0:0:0:0:0:0:0:0,#
*,type=WAIT_0000,param=2:0:0:0:0:0:0:0:0:0:0,#
*,type=STOP,param=0:0:0:0:0:0:0:0:0:0:0,#
*,type=PICT_0004,param=bg1:0:0:0:0:0:0:0:0:0:0,#
*,type=HCHR_ENT01,param=chr_Lin:0:0:0:0:0:0:0:0:0:0,#
*,type=HCHR_ENT01,param=chr_Sarsha:0:0:0:0:0:0:0:0:0:0,#
*,type=HCHR_ENT01,param=chr_Hilda:0:0:0:0:0:0:0:0:0:0,#

*,type=SYSED_00,param=0:0:0:0:0:0:0:0:0:0:0,#



