﻿ScriptCmd ver 1.1.1(app1.0.4):スクリプト_08_1_魔城最上層_dungeon4BS.xlsm/main012-dungeon4-7library/main012-dungeon4-7library.csv

*,type=SYSST_00,param=0:0:0:0:0:0:0:0:0:0:0,#
*,type=CMD_STOP,param=0:0:0:0:0:0:0:0:0:0:0,#
*,type=SYSST_01,param=0:0:0:0:0:0:0:0:0:0:0,#


*,type=EVT_CHKTRG,param=0:0:0:0:0:0:0:0:0:0:0,#
*,type=BGM_0000,param=22:1.5:0:0:0:0:0:0:0:0:0,#
*,type=EVT_BTL_STARTBTL,param=1:0:0:0:0:0:0:0:0:0:0,#
*,type=BTL_PanelMask,param=ON:0:0:0:0:0:0:0:0:0:0,#
*,type=BTL_CMD,param=unit_panel:PPTALL:OFF:0:0:0:0:0:0:0:0,#
*,type=BTL_EnemyHpBarVisible,param=OFF:0:0:0:0:0:0:0:0:0:0,#
*,type=BTL_ChangeParty,param=ON:803:1009119:0:0:0:0:0:0:0:0,#
*,type=BTL_WaitAction,param=10:0:0:0:0:0:0:0:0:0:0,#
*,type=BTL_EVTUNIT_ANM,param=MINDEX$1:IDLE:0:0:0:0:0:0:0:0:0,#
*,type=BTL_ReqAction,param=MINDEX$2:0:MOVETO:-1000$DEFAULT$0.8$IDLE$IDLE:0:0:0:0:0:0:0,#
*,type=BTL_ReqAction,param=MINDEX$3:0:MOVETO:-1000$DEFAULT$0.8$IDLE$IDLE:0:0:0:0:0:0:0,#
*,type=BTL_ReqAction,param=MINDEX$4:0:MOVETO:-1000$DEFAULT$0.8$IDLE$IDLE:0:0:0:0:0:0:0,#
*,type=BTL_WaitAction,param=1:0:0:0:0:0:0:0:0:0:0,#
*,type=BTL_FADE,param=IN:0:0:0:0:0:0:0:0:0:0,#
*,type=WAIT_0000,param=1.5:0:0:0:0:0:0:0:0:0:0,#
*,type=HCHR_ENT00,param=chr_Mehlfel:メルフェル:N$chara_bf2_18_b:$BTLPOS_Right:TYPE$middle:Z$1:0:0:0:0:0,#
*,type=STOP,param=0:0:0:0:0:0:0:0:0:0:0,#
*,type=HCHR_GRP00,param=chr_Mehlfel:face:ki:0:0:0:0:0:0:0:0,#
*,type=HCHR_POS00,param=chr_Mehlfel:FADEIN:$CHARA_FadeTime:0:0:0:0:0:0:0:0,#
*,type=STOP,param=0:0:0:0:0:0:0:0:0:0:0,#
*,type=HCHR_TK10,msg=さぁ、<wait=1>踊り狂いなさい！,param=chr_Mehlfel:Right:BATTLE:0:0:0:0:0:0:0:0,#
*,type=HCHR_TK01,param=ALL:0:0:0:0:0:0:0:0:0:0,#
*,type=HCHR_POS00,param=chr_Mehlfel:FADEOUT:$CHARA_FadeTime:0:0:0:0:0:0:0:0,#
*,type=STOP,param=0:0:0:0:0:0:0:0:0:0:0,#
*,type=WAIT_0000,param=0.5:0:0:0:0:0:0:0:0:0:0,#
*,type=BTL_EVTUNIT_ANM,param=MINDEX$1:ATTACK:0:0:0:0:0:0:0:0:0,#
*,type=BTL_WaitAction,param=1:0:0:0:0:0:0:0:0:0:0,#
*,type=WAIT_0000,param=1:0:0:0:0:0:0:0:0:0:0,#
*,type=BTL_EVTUNIT_ANM,param=MINDEX$1:IDLE:0:0:0:0:0:0:0:0:0,#
*,type=BTL_WaitAction,param=20:0:0:0:0:0:0:0:0:0:0,#
*,type=SE_0000,param=364:0:0:0:0:0:0:0:0:0:0,#
*,type=EFFECT_GP,param=1528:290:452:0:0:70:0:0:0:0:0,#
*,type=WAIT_0000,param=0.75:0:0:0:0:0:0:0:0:0:0,#
*,type=BTL_ReqAction,param=MINDEX$2:0:MOVETOFIX:290$352$0$MOVE$IDLE:0:0:0:0:0:0:0,#
*,type=BTL_ReqAction,param=MINDEX$3:0:MOVETOFIX:320$452$0$MOVE$IDLE:0:0:0:0:0:0:0,#
*,type=BTL_ReqAction,param=MINDEX$4:0:MOVETOFIX:290$552$0$MOVE$IDLE:0:0:0:0:0:0:0,#
*,type=BTL_WaitAction,param=3:0:0:0:0:0:0:0:0:0:0,#
*,type=WAIT_0000,param=1.8:0:0:0:0:0:0:0:0:0:0,#
*,type=HCHR_ENT00,param=chr_Seria:セリア:N$chara_bf2_85_b:$BTLPOS_Left:TYPE$middle:Z$10:0:0:0:0:0,#
*,type=HCHR_ENT00,param=chr_Lin:リン:N$chara_bf2_25_b:$BTLPOS_Left:TYPE$middle:Z$10:0:0:0:0:0,#
*,type=HCHR_ENT00,param=chr_Worreth:ウォレス:N$chara_bf2_30_b:$BTLPOS_Left:TYPE$middle:Z$10:0:XFLIP$SET:0:0:0,#
*,type=HCHR_ENT00,param=chr_Yehoshua:ヨシュア:N$chara_bf2_7_b:$BTLPOS_Left:TYPE$middle:Z$10:0:0:0:0:0,#
*,type=STOP,param=0:0:0:0:0:0:0:0:0:0:0,#
*,type=WAIT_0000,param=0.5:0:0:0:0:0:0:0:0:0:0,#
*,type=HCHR_GRP00,param=chr_Seria:face:do:0:0:0:0:0:0:0:0,#
*,type=HCHR_POS00,param=chr_Seria:FADEIN:$CHARA_FadeTime:0:0:0:0:0:0:0:0,#
*,type=STOP,param=0:0:0:0:0:0:0:0:0:0:0,#
*,type=HCHR_TK10,msg=また時間稼ぎ？<wait=3><br>噂通り、<wait=1>姑息な手ばかり使うのね。,param=chr_Seria:Left:BATTLE:0:0:0:0:0:0:0:0,#
*,type=HCHR_TK01,param=ALL:0:0:0:0:0:0:0:0:0:0,#
*,type=HCHR_POS00,param=chr_Seria:FADEOUT:T$0.2:0:0:0:0:0:0:0:0,#
*,type=STOP,param=0:0:0:0:0:0:0:0:0:0:0,#
*,type=HCHR_GRP00,param=chr_Lin:face:mu:0:0:0:0:0:0:0:0,#
*,type=HCHR_POS00,param=chr_Lin:FADEIN:$CHARA_FadeTime:0:0:0:0:0:0:0:0,#
*,type=STOP,param=0:0:0:0:0:0:0:0:0:0:0,#
*,type=HCHR_TK10,msg=<rep_handlename>、<wait=1>さっきの力<wait=1><br>もう一回出せそう？,param=chr_Lin:Left:BATTLE:0:0:0:0:0:0:0:0,#
*,type=HCHR_GRP00,param=chr_Lin:face:do:$FACE_FadeTime:0:0:0:0:0:0:0,#
*,type=HCHR_TK10,msg=一気に蹴散らして<wait=1><br>あいつを追わなきゃ！,param=chr_Lin:Left:BATTLE:0:0:0:0:0:0:0:0,#
*,type=HCHR_TK01,param=ALL:0:0:0:0:0:0:0:0:0:0,#
*,type=HCHR_POS00,param=chr_Lin:FADEOUT:T$0.2:0:0:0:0:0:0:0:0,#
*,type=STOP,param=0:0:0:0:0:0:0:0:0:0:0,#
*,type=HCHR_GRP00,param=chr_Worreth:face:fu:0:0:0:0:0:0:0:0,#
*,type=HCHR_POS00,param=chr_Worreth:FADEIN:$CHARA_FadeTime:0:0:0:0:0:0:0:0,#
*,type=STOP,param=0:0:0:0:0:0:0:0:0:0:0,#
*,type=HCHR_TK10,msg=いや、<wait=1>その必要はねぇぜ。,param=chr_Worreth:Left:BATTLE:0:0:0:0:0:0:0:0,#
*,type=HCHR_GRP00,param=chr_Worreth:face:mu:$FACE_FadeTime:0:0:0:0:0:0:0,#
*,type=HCHR_TK10,msg=お嬢ちゃんたちに<br>任せてばかりじゃいられねぇよ！,param=chr_Worreth:Left:BATTLE:0:0:0:0:0:0:0:0,#
*,type=HCHR_TK01,param=ALL:0:0:0:0:0:0:0:0:0:0,#
*,type=HCHR_POS00,param=chr_Worreth:FADEOUT:$CHARA_FadeTime:0:0:0:0:0:0:0:0,#
*,type=STOP,param=0:0:0:0:0:0:0:0:0:0:0,#
*,type=WAIT_0000,param=0.5:0:0:0:0:0:0:0:0:0:0,#
*,type=SE_0000,param=345:0:0:0:0:0:0:0:0:0:0,#
*,type=BTL_ReqAction,param=PINDEX$3:0:MOVETOFIX:390$350$0.8$IDLE$IDLE:0:0:0:0:0:0:0,#
*,type=BTL_WaitAction,param=1:0:0:0:0:0:0:0:0:0:0,#
*,type=WAIT_0000,param=1.5:0:0:0:0:0:0:0:0:0:0,#
*,type=HCHR_GRP00,param=chr_Yehoshua:face:fu:0:0:0:0:0:0:0:0,#
*,type=HCHR_POS00,param=chr_Yehoshua:FADEIN:$CHARA_FadeTime:0:0:0:0:0:0:0:0,#
*,type=STOP,param=0:0:0:0:0:0:0:0:0:0:0,#
*,type=HCHR_TK10,msg=<speed=7>…………………,param=chr_Yehoshua:Left:BATTLE:0:0:0:0:0:0:0:0,#
*,type=HCHR_TK01,param=ALL:0:0:0:0:0:0:0:0:0:0,#
*,type=HCHR_POS00,param=chr_Yehoshua:FADEOUT:$CHARA_FadeTime:0:0:0:0:0:0:0:0,#
*,type=STOP,param=0:0:0:0:0:0:0:0:0:0:0,#
*,type=WAIT_0000,param=0.5:0:0:0:0:0:0:0:0:0:0,#
*,type=SE_0000,param=345:0:0:0:0:0:0:0:0:0:0,#
*,type=BTL_ReqAction,param=PINDEX$4:0:MOVETOFIX:420$450$0.8$IDLE$IDLE:0:0:0:0:0:0:0,#
*,type=BTL_WaitAction,param=1:0:0:0:0:0:0:0:0:0:0,#
*,type=WAIT_0000,param=1.5:0:0:0:0:0:0:0:0:0:0,#
*,type=HCHR_GRP00,param=chr_Worreth:face:fu:0:0:0:0:0:0:0:0,#
*,type=HCHR_POS00,param=chr_Worreth:FADEIN:$CHARA_FadeTime:0:0:0:0:0:0:0:0,#
*,type=STOP,param=0:0:0:0:0:0:0:0:0:0:0,#
*,type=HCHR_TK10,msg=なんだ、<wait=1>お前も同じこと考えてたのか。<wait=3><br><ctag=CHRCHG_PT:chr_Worreth:face:ki:->いや～、<wait=1>俺たちってホント気が合うな！,param=chr_Worreth:Left:BATTLE:0:0:0:0:0:0:0:0,#
*,type=HCHR_TK01,param=ALL:0:0:0:0:0:0:0:0:0:0,#
*,type=HCHR_POS00,param=chr_Worreth:FADEOUT:T$0.2:0:0:0:0:0:0:0:0,#
*,type=STOP,param=0:0:0:0:0:0:0:0:0:0:0,#
*,type=HCHR_GRP00,param=chr_Yehoshua:face:ai:0:0:0:0:0:0:0:0,#
*,type=HCHR_POS00,param=chr_Yehoshua:FADEIN:$CHARA_FadeTime:0:0:0:0:0:0:0:0,#
*,type=STOP,param=0:0:0:0:0:0:0:0:0:0:0,#
*,type=HCHR_EFC00,param=Eff_Manp_11:chr_Yehoshua:manpu_1:0:SS5$$MANP_silence_a:0:0:0:0:0:0,#
*,type=WAIT_0000,param=1.5:0:0:0:0:0:0:0:0:0:0,#
*,type=PICT_0004,param=Eff_Manp_11:0:0:0:0:0:0:0:0:0:0,#
*,type=HCHR_POS00,param=chr_Yehoshua:FADEOUT:T$0.2:0:0:0:0:0:0:0:0,#
*,type=STOP,param=0:0:0:0:0:0:0:0:0:0:0,#
*,type=HCHR_GRP00,param=chr_Lin:face:bi:0:0:0:0:0:0:0:0,#
*,type=HCHR_POS00,param=chr_Lin:FADEIN:$CHARA_FadeTime:0:0:0:0:0:0:0:0,#
*,type=STOP,param=0:0:0:0:0:0:0:0:0:0:0,#
*,type=HCHR_TK10,msg=ウォレスさん、<wait=1>ヨシュアさん……！,param=chr_Lin:Left:BATTLE:0:0:0:0:0:0:0:0,#
*,type=HCHR_TK01,param=ALL:0:0:0:0:0:0:0:0:0:0,#
*,type=HCHR_POS00,param=chr_Lin:FADEOUT:T$0.2:0:0:0:0:0:0:0:0,#
*,type=STOP,param=0:0:0:0:0:0:0:0:0:0:0,#
*,type=HCHR_GRP00,param=chr_Yehoshua:face:fu:0:0:0:0:0:0:0:0,#
*,type=HCHR_POS00,param=chr_Yehoshua:FADEIN:$CHARA_FadeTime:0:0:0:0:0:0:0:0,#
*,type=STOP,param=0:0:0:0:0:0:0:0:0:0:0,#
*,type=HCHR_TK10,msg=<rep_handlename>、<wait=1>リン。<wait=3><br>お前たちもすべきことをしろ。,param=chr_Yehoshua:Left:BATTLE:0:0:0:0:0:0:0:0,#
*,type=HCHR_GRP00,param=chr_Yehoshua:face:do:$FACE_FadeTime:0:0:0:0:0:0:0,#
*,type=HCHR_TK10,msg=こいつらは俺たちが片付ける。,param=chr_Yehoshua:Left:BATTLE:0:0:0:0:0:0:0:0,#
*,type=HCHR_TK01,param=ALL:0:0:0:0:0:0:0:0:0:0,#
*,type=HCHR_POS00,param=chr_Yehoshua:FADEOUT:T$0.2:0:0:0:0:0:0:0:0,#
*,type=STOP,param=0:0:0:0:0:0:0:0:0:0:0,#
*,type=HCHR_GRP00,param=chr_Worreth:face:fu:0:0:0:0:0:0:0:0,#
*,type=HCHR_POS00,param=chr_Worreth:FADEIN:$CHARA_FadeTime:0:0:0:0:0:0:0:0,#
*,type=STOP,param=0:0:0:0:0:0:0:0:0:0:0,#
*,type=HCHR_TK10,msg=おう！,param=chr_Worreth:Left:BATTLE:0:0:0:0:0:0:0:0,#
*,type=HCHR_TK01,param=ALL:0:0:0:0:0:0:0:0:0:0,#
*,type=HCHR_POS00,param=chr_Worreth:FADEOUT:$CHARA_FadeTime:0:0:0:0:0:0:0:0,#
*,type=STOP,param=0:0:0:0:0:0:0:0:0:0:0,#
*,type=HCHR_GRP00,param=chr_Seria:face:fu:0:0:0:0:0:0:0:0,#
*,type=HCHR_POS00,param=chr_Seria:FADEIN:$CHARA_FadeTime:0:0:0:0:0:0:0:0,#
*,type=STOP,param=0:0:0:0:0:0:0:0:0:0:0,#
*,type=HCHR_TK10,msg=じゃあ、<wait=1>こいつは任せるわ。<wait=3><br>私たちはやつを追うわね。,param=chr_Seria:Left:BATTLE:0:0:0:0:0:0:0:0,#
*,type=HCHR_TK01,param=ALL:0:0:0:0:0:0:0:0:0:0,#
*,type=HCHR_POS00,param=chr_Seria:FADEOUT:$CHARA_FadeTime:0:0:0:0:0:0:0:0,#
*,type=STOP,param=0:0:0:0:0:0:0:0:0:0:0,#
*,type=HCHR_ENT01,param=chr_Seria:0:0:0:0:0:0:0:0:0:0,#
*,type=HCHR_ENT01,param=chr_Lin:0:0:0:0:0:0:0:0:0:0,#
*,type=HCHR_ENT01,param=chr_Worreth:0:0:0:0:0:0:0:0:0:0,#
*,type=HCHR_ENT01,param=chr_Yehoshua:0:0:0:0:0:0:0:0:0:0,#
*,type=STOP,param=0:0:0:0:0:0:0:0:0:0:0,#
*,type=WAIT_0000,param=1.5:0:0:0:0:0:0:0:0:0:0,#
*,type=SE_0001,param=0:345:0:0.25:3:0:0:0:0:0:0,#
*,type=BTL_ReqAction,param=PINDEX$0:0:MOVETO:1000$DEFAULT$0.8$IDLE$IDLE:0:0:0:0:0:0:0,#
*,type=BTL_ReqAction,param=PINDEX$1:0:MOVETO:1000$DEFAULT$0.8$IDLE$IDLE:0:0:0:0:0:0:0,#
*,type=BTL_ReqAction,param=PINDEX$2:0:MOVETO:1000$DEFAULT$0.8$IDLE$IDLE:0:0:0:0:0:0:0,#
*,type=BTL_WaitAction,param=1:0:0:0:0:0:0:0:0:0:0,#
*,type=WAIT_0000,param=0.5:0:0:0:0:0:0:0:0:0:0,#
*,type=MSKS_0000,param=bgBlackMask:$BGBLACK_Color:0:Z$50:T$1:0:0:0:0:0:0,#
*,type=STOP,param=0:0:0:0:0:0:0:0:0:0:0,#
*,type=BTL_ChangeParty,param=OFF:0:0:0:0:0:0:0:0:0:0,#
*,type=BTL_CMD,param=unit_panel:PPTALL:ON:0:0:0:0:0:0:0:0,#
*,type=BTL_EnemyHpBarVisible,param=ON:0:0:0:0:0:0:0:0:0:0,#
*,type=STOP,param=0:0:0:0:0:0:0:0:0:0:0,#
*,type=MSKS_0002,param=bgBlackMask:T$1:0:0:0:0:0:0:0:0:0,#
*,type=GAM_CHGSCENE,param=MissionSelect:0:0:0:0:0:0:0:0:0:0,#
*,type=BTL_PanelMask,param=OFF:0:0:0:0:0:0:0:0:0:0,#
*,type=EVT_BLOCKEND,param=0:0:0:0:0:0:0:0:0:0:0,#

*,type=SYSED_00,param=0:0:0:0:0:0:0:0:0:0:0,#



