﻿ScriptCmd ver 1.1.1:スクリプト_01R_1_リン１章バダファナ_dungeon_ex2.xlsm/ex2_4/main003-dungeon-ex2_4.csv

*,type=SYSST_00,param=0:0:0:0:0:0:0:0:0:0:0,#
*,type=CMD_STOP,param=0:0:0:0:0:0:0:0:0:0:0,#
*,type=SYSST_01,param=0:0:0:0:0:0:0:0:0:0:0,#


*,type=PICT_0000,param=bg1:battle_bg_003_EX01.jpg:0:bg$1030306:0:0:0:0:0:0:0,#
*,type=FADEIN_000,param=1.5:00&00&00:0:0:0:0:0:0:0:0:0,#
*,type=BGM_0000,param=33:1.5:0:0:0:0:0:0:0:0:0,#
*,type=STOP,param=0:0:0:0:0:0:0:0:0:0:0,#
*,type=WAIT_0000,param=1:0:0:0:0:0:0:0:0:0:0,#
*,type=HCHR_ENT00,param=chr_Lin:リン:N$chara_bf2_25:$POS_Center:TYPE$middle:Z$10:0:0:0:0:0,#
*,type=HCHR_ENT00,param=chr_Dewey:デューイ:N$tame_wolf_01:$POS_Center:TYPE$middle:Z$10:0:0:0:0:0,#
*,type=HCHR_PRM00,param=chr_Dewey:XFLIP$SET:0:0:0:0:0:0:0:0:0,#
*,type=HCHR_POS00,param=chr_Lin:FADEIN:$CHARA_FadeTime:$OFS_Right:0:0:0:0:0:0:0,#
*,type=HCHR_POS00,param=chr_Dewey:FADEIN:$CHARA_FadeTime:$OFS_Left:0:0:0:0:0:0:0,#
*,type=HCHR_GRP00,param=chr_Lin:face:bi:$FACE_FadeTime:0:0:0:0:0:0:0,#
*,type=HCHR_GRP00,param=chr_Dewey:face:bi:$FACE_FadeTime:0:0:0:0:0:0:0,#
*,type=HCHR_FDM00,param=chr_Dewey:MSK$on:0:0:0:0:0:0:0:0:0,#
*,type=STOP,param=0:0:0:0:0:0:0:0:0:0:0,#
*,type=SE_0000,param=347:0:0:0:0:0:0:0:0:0:0,#
*,type=QUAK_0000,param=0.1:10:1:1:FixRange:0:0:0:0:0:0,#
*,type=STOP,param=0:0:0:0:0:0:0:0:0:0:0,#
*,type=HCHR_TK00,msg=<speed=3>えっ、<wait=3>何なに、<wait=3>この音!?<wait=3><br>私、<wait=3>操作間違えちゃった!?,param=chr_Lin:$Right12:0:0:0:0:0:0:0:0:0,#
*,type=HCHR_TK01,param=ALL:skipmask:0:0:0:0:0:0:0:0:0,#
*,type=WAIT_0000,param=0.5:0:0:0:0:0:0:0:0:0:0,#
*,type=HCHR_FDM00,param=ALL:MSK$on:0:0:0:0:0:0:0:0:0,#
*,type=HCHR_FDM00,param=chr_Dewey:MSK$off:0:0:0:0:0:0:0:0:0,#
*,type=HCHR_EFC00,param=Eff_Manp_16:chr_Dewey:manpu_1_re:0:SS5$$MANP_surprise_black_d:0:1:0:0:XFLIP$SET:0,#
*,type=WAIT_0000,param=0.5:0:0:0:0:0:0:0:0:0:0,#
*,type=HCHR_SHK00,param=chr_Dewey:10:0.2:0.4:0:0:0:0:0:0:0,#
*,type=HCHR_TK00,msg=<speed=3>ワウワウッ！,param=chr_Dewey:$Shout_S_L_Minipet:0:0:0:0:0:0:0:0:0,#
*,type=HCHR_TK00,msg=<speed=3>か、<wait=3>壁が開いた……!!,param=chr_Lin:$Right10:0:0:0:0:0:0:0:0:0,#
*,type=HCHR_TK01,param=ALL:skipmask:0:0:0:0:0:0:0:0:0,#
*,type=WAIT_0000,param=0.5:0:0:0:0:0:0:0:0:0:0,#
*,type=HCHR_EFC00,param=Eff_Manp_16:chr_Lin:manpu_1:0:SS5$$MANP_surprise_black_d:0:0:0:0:0:0,#
*,type=WAIT_0000,param=1:0:0:0:0:0:0:0:0:0:0,#
*,type=PICT_0004,param=Eff_Manp_16:0:0:0:0:0:0:0:0:0:0,#
*,type=STOP,param=0:0:0:0:0:0:0:0:0:0:0,#
*,type=HCHR_GRP00,param=chr_Lin:face:ki:$FACE_FadeTime:0:0:0:0:0:0:0,#
*,type=HCHR_GRP00,param=chr_Dewey:face:fu:$FACE_FadeTime:0:0:0:0:0:0:0,#
*,type=HCHR_TK00,msg=ねぇ、<wait=3>これ<wait=3><br>きっと隠し扉っていうやつだよ！,param=chr_Lin:$Right16:0:0:0:0:0:0:0:0:0,#
*,type=HCHR_TK00,msg=すごい宝物が隠されてるのかも。<wait=3><br>早速見てみよう！,param=chr_Lin:$Right16:0:0:0:0:0:0:0:0:0,#
*,type=HCHR_TK01,param=ALL:skipmask:0:0:0:0:0:0:0:0:0,#
*,type=HCHR_POS00,param=chr_Lin:FADEOUT:$CHARA_FadeTime:0:0:0:0:0:0:0:0,#
*,type=HCHR_POS00,param=chr_Dewey:FADEOUT:$CHARA_FadeTime:0:0:0:0:0:0:0:0,#
*,type=STOP,param=0:0:0:0:0:0:0:0:0:0:0,#
*,type=WAIT_0000,param=1:0:0:0:0:0:0:0:0:0:0,#
*,type=HCHR_POS00,param=chr_Lin:FADEIN:$CHARA_FadeTime:$OFS_Right:0:0:0:0:0:0:0,#
*,type=HCHR_POS00,param=chr_Dewey:FADEIN:$CHARA_FadeTime:$OFS_Left:0:0:0:0:0:0:0,#
*,type=HCHR_GRP00,param=chr_Lin:face:fu:$FACE_FadeTime:0:0:0:0:0:0:0,#
*,type=HCHR_FDM00,param=ALL:MSK$off:0:0:0:0:0:0:0:0:0,#
*,type=HCHR_FDM00,param=chr_Dewey:MSK$on:0:0:0:0:0:0:0:0:0,#
*,type=STOP,param=0:0:0:0:0:0:0:0:0:0:0,#
*,type=WAIT_0000,param=0.5:0:0:0:0:0:0:0:0:0:0,#
*,type=HCHR_TK00,msg=古そうな箱がひとつだけかぁ……<wait=3><br>軽いけど、<wait=3>中に何が入ってるのかな？,param=chr_Lin:$Right18:0:0:0:0:0:0:0:0:0,#
*,type=HCHR_TK01,param=ALL:skipmask:0:0:0:0:0:0:0:0:0,#
*,type=WAIT_0000,param=0.5:0:0:0:0:0:0:0:0:0:0,#
*,type=SE_0000,param=20:0:0:0:0:0:0:0:0:0:0,#
*,type=WAIT_0000,param=1:0:0:0:0:0:0:0:0:0:0,#
*,type=HCHR_GRP00,param=chr_Lin:face:bi:$FACE_FadeTime:0:0:0:0:0:0:0,#
*,type=HCHR_TK00,msg=<speed=3>……え！</speed><wait=3><br>これって……,param=chr_Lin:$Right6:0:0:0:0:0:0:0:0:0,#
*,type=HCHR_TK01,param=ALL:skipmask:0:0:0:0:0:0:0:0:0,#
*,type=HCHR_FDM00,param=ALL:MSK$on:0.5:0:0:0:0:0:0:0:0,#
*,type=MSKS_0000,param=bgmask:0&0&0:128:Z$50:T$0.5:0:0:0:0:0:0,#
*,type=STOP,param=0:0:0:0:0:0:0:0:0:0:0,#
*,type=PICT_0000,param=item1:event_item_012.png:50:chr:0:1.4:0:0:0:0:0,#
*,type=PICT_0001,param=item1:25:350:0.3:0:0:0:0:0:0:0,#
*,type=STOP,param=0:0:0:0:0:0:0:0:0:0:0,#
*,type=CSYN_0000,param=0:0:0:0:0:0:0:0:0:0:0,#
*,type=PICT_0003,param=item1:0.3:0:0:0:0:0:0:0:0:0,#
*,type=STOP,param=0:0:0:0:0:0:0:0:0:0:0,#
*,type=MSKS_0002,param=bgmask:T$0.5:0:0:0:0:0:0:0:0:0,#
*,type=HCHR_FDM00,param=chr_Lin:MSK$off:0.5:0:0:0:0:0:0:0:0,#
*,type=HCHR_GRP00,param=chr_Lin:face:ai:$FACE_FadeTime:0:0:0:0:0:0:0,#
*,type=HCHR_GRP00,param=chr_Dewey:face:ai:$FACE_FadeTime:0:0:0:0:0:0:0,#
*,type=STOP,param=0:0:0:0:0:0:0:0:0:0:0,#
*,type=WAIT_0000,param=0.5:0:0:0:0:0:0:0:0:0:0,#
*,type=HCHR_TK00,msg=家族写真……<wait=3>だよね？<wait=3><br>でも、<wait=3>一体誰のなんだろう……,param=chr_Lin:$Right14:0:0:0:0:0:0:0:0:0,#
*,type=HCHR_TK01,param=ALL:skipmask:0:0:0:0:0:0:0:0:0,#
*,type=WAIT_0000,param=0.5:0:0:0:0:0:0:0:0:0:0,#
*,type=HCHR_TK00,msg=見て、<wait=3>デューイ…<wait=3>一緒に入ってたこの手紙。<wait=3><br><speed=7>『パパ、お誕生日おめでとう』…</speed><wait=3>だって。,param=chr_Lin:$Right20:0:0:0:0:0:0:0:0:0,#
*,type=HCHR_TK00,msg=こんなところに隠してるってことは<wait=3><br>よほど大事なものみたいね。,param=chr_Lin:$Right16:0:0:0:0:0:0:0:0:0,#
*,type=HCHR_TK00,msg=……この人たち、<wait=3>今はどうしてるのかな。,param=chr_Lin:$Right20:0:0:0:0:0:0:0:0:0,#
*,type=HCHR_TK00,msg=こんな風に、<wait=3>今も家族みんなで<br>笑えてるといいんだけど……,param=chr_Lin:$Right14:0:0:0:0:0:0:0:0:0,#
*,type=HCHR_TK00,msg=<speed=7>クゥ～ン……,param=chr_Dewey:$Minipet6_L:0:0:0:0:0:0:0:0:0,#
*,type=HCHR_TK01,param=ALL:skipmask:0:0:0:0:0:0:0:0:0,#
*,type=WAIT_0000,param=1:0:0:0:0:0:0:0:0:0:0,#
*,type=HCHR_GRP00,param=chr_Lin:face:fu:0:0:0:0:0:0:0:0,#
*,type=HCHR_TK00,msg=さっ、<wait=3>デューイ。<wait=3><br>気を取り直して、<wait=3>先を急ごう。,param=chr_Lin:$Right14:0:0:0:0:0:0:0:0:0,#
*,type=HCHR_GRP00,param=chr_Lin:face:mu:$FACE_FadeTime:0:0:0:0:0:0:0,#
*,type=HCHR_GRP00,param=chr_Dewey:face:fu:$FACE_FadeTime:0:0:0:0:0:0:0,#
*,type=HCHR_TK00,msg=私たちは、<wait=3>私たちの大切な人を<wait=3><br>早く助けに行かなくちゃ……！,param=chr_Lin:$Right14:0:0:0:0:0:0:0:0:0,#
*,type=HCHR_TK01,param=ALL:skipmask:0:0:0:0:0:0:0:0:0,#
*,type=FADEOUT_000,param=1.5:$BGBLACK_Color:0:0:0:0:0:0:0:0:0,#
*,type=BGM_0001,param=1.5:0:0:0:0:0:0:0:0:0:0,#
*,type=WAIT_0000,param=2:0:0:0:0:0:0:0:0:0:0,#
*,type=STOP,param=0:0:0:0:0:0:0:0:0:0:0,#
*,type=HCHR_ENT01,param=chr_Lin:T$0:0:0:0:0:0:0:0:0:0,#
*,type=HCHR_ENT01,param=chr_Dewey:T$0:0:0:0:0:0:0:0:0:0,#
*,type=PICT_0004,param=bg1:0:0:0:0:0:0:0:0:0:0,#
*,type=STOP,param=0:0:0:0:0:0:0:0:0:0:0,#

*,type=SYSED_00,param=0:0:0:0:0:0:0:0:0:0:0,#



