﻿ScriptCmd ver 1.1.1(app1.0.4):スクリプト_04_2_フィルアーム城_dungeon13-4_BS.xlsm/シーン13_4BS（ルネヒルダ戦）/main008-dungeon13-4_BS.csv

*,type=SYSST_00,param=0:0:0:0:0:0:0:0:0:0:0,#
*,type=CMD_STOP,param=0:0:0:0:0:0:0:0:0:0:0,#
*,type=SYSST_01,param=0:0:0:0:0:0:0:0:0:0:0,#


*,type=EVT_CHKTRG,param=0:0:0:0:0:0:0:0:0:0:0,#
*,type=EVT_BTL_STARTBTL,param=3:0:0:0:0:0:0:0:0:0:0,#
*,type=BTL_PanelMask,param=ON:0:0:0:0:0:0:0:0:0:0,#
*,type=BTL_STORY,param=START:0:0:SKIPFADE:0:0:0:0:0:0:0,#
*,type=SE_0000,param=330:0:0:0:0:0:0:0:0:0:0,#
*,type=SS5_0000,param=hilda_come:boss_appear_hilda_rene.ssbp:hilda_main/anime:hilda_main/anime:70:320:568:1:0:0:0,#
*,type=SS5_0005,param=hilda_come:0:0:0:0:0:0:0:0:0:0,#
*,type=WAIT_0000,param=0.5:0:0:0:0:0:0:0:0:0:0,#
*,type=SE_0000,param=323:0:0:0:0:0:0:0:0:0:0,#
*,type=SS5_0000,param=rune_come:boss_appear_hilda_rene.ssbp:rene_main/anime:rene_main/anime:70:320:568:1:0:0:0,#
*,type=SS5_0005,param=rune_come:0:0:0:0:0:0:0:0:0:0,#
*,type=WAIT_0000,param=2:0:0:0:0:0:0:0:0:0:0,#
*,type=HCHR_ENT00,param=chr_Hilda:沙蛇史ヒルダ:N$chara_bf2_15_b:$BTLPOS_Left:TYPE$middle:Z$1:0:0:0:0:0,#
*,type=HCHR_GRP00,param=chr_Hilda:face:mu:0:0:0:0:0:0:0:0,#
*,type=HCHR_POS00,param=chr_Hilda:FADEIN:T$0.5:0:0:0:0:0:0:0:0,#
*,type=HCHR_ENT00,param=chr_Renee:煉氷姫ルネ:N$chara_bf2_16_b:$BTLPOS_Right:TYPE$middle:Z$1:0:0:0:0:0,#
*,type=HCHR_GRP00,param=chr_Renee:face:mu:0:0:0:0:0:0:0:0,#
*,type=HCHR_POS00,param=chr_Renee:FADEIN:T$0.5:0:0:0:0:0:0:0:0,#
*,type=STOP,param=0:0:0:0:0:0:0:0:0:0:0,#
*,type=HCHR_TK00,msg=ルネ、わかってるだろうね？,param=chr_Hilda:L$BATTLE&Left14:0:0:0:0:0:0:0:0:0,#
*,type=HCHR_TK00,msg=うん…<br>大丈夫だよ、お姉ちゃん。,param=chr_Renee:L$BATTLE&Right12:0:0:0:0:0:0:0:0:0,#
*,type=HCHR_TK01,param=all:0:0:0:0:0:0:0:0:0:0,#
*,type=HCHR_ENT01,param=chr_Hilda:0:0:0:0:0:0:0:0:0:0,#
*,type=HCHR_ENT01,param=chr_Renee:0:0:0:0:0:0:0:0:0:0,#
*,type=BTL_INSENSITIVE_MONSTER,param=MID$9000502:0:0:0:0:0:0:0:0:0:0,#
*,type=BTL_INSENSITIVE_MONSTER,param=MID$9000602:0:0:0:0:0:0:0:0:0:0,#
*,type=BTL_WaitAction,param=50:0:0:0:0:0:0:0:0:0:0,#
*,type=BTL_PanelMask,param=OFF:0:0:0:0:0:0:0:0:0:0,#
*,type=BTL_STORY,param=END:0:0:SKIPFADE:0:0:0:0:0:0:0,#
*,type=EVT_BLOCKEND,param=0:0:0:0:0:0:0:0:0:0:0,#
*,type=EVT_BTL_REGULARLY,param=1000:0:0:0:0:0:0:0:0:0:0,#
*,type=BTL_FADE,param=OUT:0:0:0:0:0:0:0:0:0:0,#
*,type=HCHR_ENT00,param=chr_Hilda:沙蛇史ヒルダ:N$chara_bf2_15_b:$BTLPOS_Left:TYPE$middle:Z$1:0:0:0:0:0,#
*,type=HCHR_ENT00,param=chr_Renee:煉氷姫ルネ:N$chara_bf2_16_b:$BTLPOS_Right:TYPE$middle:Z$1:0:0:0:0:0,#
*,type=HCHR_POS00,param=chr_Hilda:FADEIN:T$0.5:0:0:0:0:0:0:0:0,#
*,type=HCHR_POS00,param=chr_Renee:FADEIN:T$0.5:0:0:0:0:0:0:0:0,#
*,type=STOP,param=0:0:0:0:0:0:0:0:0:0:0,#
*,type=HCHR_TK00,msg=やるじゃないか…<br>ちょっと本気で相手してやろうかね！,param=chr_Hilda:L$BATTLE&Left18:0:0:0:0:0:0:0:0:0,#
*,type=HCHR_TK00,msg=お姉ちゃん、がんばって！,param=chr_Renee:L$BATTLE&Right12:0:0:0:0:0:0:0:0:0,#
*,type=HCHR_ENT01,param=chr_Hilda:0:0:0:0:0:0:0:0:0:0,#
*,type=HCHR_ENT01,param=chr_Renee:0:0:0:0:0:0:0:0:0:0,#
*,type=BTL_SETDEFENSE,param=SNAKE:17:100$2000&80$2100&40$2200&0$2300:0:0:0:0:0:0:0:0,#
*,type=EVT_BLOCKEND,param=0:0:0:0:0:0:0:0:0:0:0,#
*,type=EVT_BTL_REGULARLY,param=2000:0:0:0:0:0:0:0:0:0:0,#
*,type=HCHR_ENT00,param=chr_Hilda:沙蛇史ヒルダ:N$chara_bf2_15_b:$BTLPOS_Left:TYPE$middle:Z$1:0:0:0:0:0,#
*,type=HCHR_ENT00,param=chr_Renee:煉氷姫ルネ:N$chara_bf2_16_b:$BTLPOS_Right:TYPE$middle:Z$1:0:0:0:0:0,#
*,type=HCHR_POS00,param=chr_Hilda:FADEIN:T$0.5:0:0:0:0:0:0:0:0,#
*,type=STOP,param=0:0:0:0:0:0:0:0:0:0:0,#
*,type=HCHR_TK00,msg=へぇ…思ったよりもやるね。<br>でも、安心するのは早いよ!!,param=chr_Hilda:L$BATTLE&Left14:0:0:0:0:0:0:0:0:0,#
*,type=HCHR_TK01,param=all:0:0:0:0:0:0:0:0:0:0,#
*,type=HCHR_ENT01,param=chr_Hilda:0:0:0:0:0:0:0:0:0:0,#
*,type=BTL_FADE,param=IN:0:0:0:0:0:0:0:0:0:0,#
*,type=STOP,param=0:0:0:0:0:0:0:0:0:0:0,#
*,type=EVT_BLOCKEND,param=0:0:0:0:0:0:0:0:0:0:0,#
*,type=EVT_BTL_REGULARLY,param=2100:0:0:0:0:0:0:0:0:0:0,#
*,type=HCHR_ENT00,param=chr_Hilda:沙蛇史ヒルダ:N$chara_bf2_15_b:$BTLPOS_Left:TYPE$middle:Z$1:0:0:0:0:0,#
*,type=HCHR_ENT00,param=chr_Renee:煉氷姫ルネ:N$chara_bf2_16_b:$BTLPOS_Right:TYPE$middle:Z$1:0:0:0:0:0,#
*,type=HCHR_POS00,param=chr_Hilda:FADEIN:T$0.5:0:0:0:0:0:0:0:0,#
*,type=STOP,param=0:0:0:0:0:0:0:0:0:0:0,#
*,type=HCHR_TK00,msg=ふぅん…<br>それで勝ったつもりかい？,param=chr_Hilda:L$BATTLE&Left14:0:0:0:0:0:0:0:0:0,#
*,type=HCHR_TK01,param=all:0:0:0:0:0:0:0:0:0:0,#
*,type=HCHR_ENT01,param=chr_Hilda:0:0:0:0:0:0:0:0:0:0,#
*,type=BTL_FADE,param=IN:0:0:0:0:0:0:0:0:0:0,#
*,type=STOP,param=0:0:0:0:0:0:0:0:0:0:0,#
*,type=EVT_BLOCKEND,param=0:0:0:0:0:0:0:0:0:0:0,#
*,type=EVT_BTL_REGULARLY,param=2200:0:0:0:0:0:0:0:0:0:0,#
*,type=HCHR_ENT00,param=chr_Hilda:沙蛇史ヒルダ:N$chara_bf2_15_b:$BTLPOS_Left:TYPE$middle:Z$1:0:0:0:0:0,#
*,type=HCHR_ENT00,param=chr_Renee:煉氷姫ルネ:N$chara_bf2_16_b:$BTLPOS_Right:TYPE$middle:Z$1:0:0:0:0:0,#
*,type=HCHR_POS00,param=chr_Hilda:FADEIN:T$0.5:0:0:0:0:0:0:0:0,#
*,type=STOP,param=0:0:0:0:0:0:0:0:0:0:0,#
*,type=HCHR_TK00,msg=ほら、コイツをくらいな!!,param=chr_Hilda:L$BATTLE&Left12:0:0:0:0:0:0:0:0:0,#
*,type=HCHR_TK01,param=all:0:0:0:0:0:0:0:0:0:0,#
*,type=HCHR_ENT01,param=chr_Hilda:0:0:0:0:0:0:0:0:0:0,#
*,type=BTL_FADE,param=IN:0:0:0:0:0:0:0:0:0:0,#
*,type=STOP,param=0:0:0:0:0:0:0:0:0:0:0,#
*,type=EVT_BLOCKEND,param=0:0:0:0:0:0:0:0:0:0:0,#
*,type=EVT_BTL_REGULARLY,param=2300:0:0:0:0:0:0:0:0:0:0,#
*,type=HCHR_ENT00,param=chr_Hilda:沙蛇史ヒルダ:N$chara_bf2_15_b:$BTLPOS_Left:TYPE$middle:Z$1:0:0:0:0:0,#
*,type=HCHR_ENT00,param=chr_Renee:煉氷姫ルネ:N$chara_bf2_16_b:$BTLPOS_Right:TYPE$middle:Z$1:0:0:0:0:0,#
*,type=HCHR_POS00,param=chr_Hilda:FADEIN:T$0.5:0:0:0:0:0:0:0:0,#
*,type=STOP,param=0:0:0:0:0:0:0:0:0:0:0,#
*,type=HCHR_TK00,msg=はっ、所詮その程度かい!!,param=chr_Hilda:L$BATTLE&Left12:0:0:0:0:0:0:0:0:0,#
*,type=HCHR_TK01,param=all:0:0:0:0:0:0:0:0:0:0,#
*,type=HCHR_ENT01,param=chr_Hilda:0:0:0:0:0:0:0:0:0:0,#
*,type=BTL_FADE,param=IN:0:0:0:0:0:0:0:0:0:0,#
*,type=STOP,param=0:0:0:0:0:0:0:0:0:0:0,#
*,type=EVT_BLOCKEND,param=0:0:0:0:0:0:0:0:0:0:0,#
*,type=EVT_BTL_REGULARLY,param=3000:0:0:0:0:0:0:0:0:0:0,#
*,type=BTL_PanelMask,param=ON:0:0:0:0:0:0:0:0:0:0,#
*,type=HCHR_ENT00,param=chr_Hilda:沙蛇史ヒルダ:N$chara_bf2_15_b:$BTLPOS_Left:TYPE$middle:Z$1:0:0:0:0:0,#
*,type=HCHR_GRP00,param=chr_Hilda:face:do:0:0:0:0:0:0:0:0,#
*,type=HCHR_POS00,param=chr_Hilda:FADEIN:T$0.5:0:0:0:0:0:0:0:0,#
*,type=HCHR_ENT00,param=chr_Renee:煉氷姫ルネ:N$chara_bf2_16_b:$BTLPOS_Right:TYPE$middle:Z$1:0:0:0:0:0,#
*,type=HCHR_GRP00,param=chr_Renee:face:ai:0:0:0:0:0:0:0:0,#
*,type=HCHR_POS00,param=chr_Renee:FADEIN:T$0.5:0:0:0:0:0:0:0:0,#
*,type=STOP,param=0:0:0:0:0:0:0:0:0:0:0,#
*,type=HCHR_TK00,msg=…………,param=chr_Renee:L$BATTLE&Right4:0:0:0:0:0:0:0:0:0,#
*,type=HCHR_TK00,msg=ちっ…,param=chr_Hilda:L$BATTLE&Left4:0:0:0:0:0:0:0:0:0,#
*,type=HCHR_TK01,param=all:0:0:0:0:0:0:0:0:0:0,#
*,type=HCHR_ENT01,param=chr_Hilda:0:0:0:0:0:0:0:0:0:0,#
*,type=HCHR_ENT01,param=chr_Renee:0:0:0:0:0:0:0:0:0:0,#
*,type=BTL_FADE,param=OUT:0:0:0:0:0:0:0:0:0:0,#
*,type=BTL_ENDMISSION,param=$MSNR_CLEAR:0:0:0:0:0:0:0:0:0:0,#
*,type=STOP,param=0:0:0:0:0:0:0:0:0:0:0,#
*,type=BTL_PanelMask,param=OFF:0:0:0:0:0:0:0:0:0:0,#
*,type=EVT_BLOCKEND,param=0:0:0:0:0:0:0:0:0:0:0,#
*,type=EVT_BTL_REGULARLY,param=10000:0:0:0:0:0:0:0:0:0:0,#
*,type=BTL_STARTBREAK,param=2:1:20000:183:ブレイク状態:0:0:0:0:0:0,#
*,type=EVT_BLOCKEND,param=0:0:0:0:0:0:0:0:0:0:0,#
*,type=EVT_BTL_REGULARLY,param=20000:0:0:0:0:0:0:0:0:0:0,#
*,type=BTL_ENDBREAK,param=1:0:0:0:0:0:0:0:0:0:0,#
*,type=EVT_BLOCKEND,param=0:0:0:0:0:0:0:0:0:0:0,#
*,type=EVT_BTL_REGULARLY,param=11000:0:0:0:0:0:0:0:0:0:0,#
*,type=BTL_STARTBREAK,param=2:1:21000:183:ブレイク状態:0:0:0:0:0:0,#
*,type=EVT_BLOCKEND,param=0:0:0:0:0:0:0:0:0:0:0,#
*,type=EVT_BTL_REGULARLY,param=21000:0:0:0:0:0:0:0:0:0:0,#
*,type=BTL_ENDBREAK,param=1:0:0:0:0:0:0:0:0:0:0,#
*,type=EVT_BLOCKEND,param=0:0:0:0:0:0:0:0:0:0:0,#
*,type=WAIT_0000,param=1:0:0:0:0:0:0:0:0:0:0,#

*,type=SYSED_00,param=0:0:0:0:0:0:0:0:0:0:0,#



