﻿ScriptCmd ver 1.1.1(app1.0.4):スクリプト_05_2_魔城_dungeon5_BS.xlsm/main009-dungeon5-4_library/main009-dungeon5-4_library.csv

*,type=SYSST_00,param=0:0:0:0:0:0:0:0:0:0:0,#
*,type=CMD_STOP,param=0:0:0:0:0:0:0:0:0:0:0,#
*,type=SYSST_01,param=0:0:0:0:0:0:0:0:0:0:0,#


*,type=EVT_CHKTRG,param=0:0:0:0:0:0:0:0:0:0:0,#
*,type=EVT_BTL_STARTBTL,param=1:0:0:0:0:0:0:0:0:0:0,#
*,type=BTL_PanelMask,param=ON:0:0:0:0:0:0:0:0:0:0,#
*,type=BTL_ChangeParty,param=ON:500:1004952:0:0:0:0:0:0:0:0,#
*,type=BTL_EVTUNIT_ANM,param=MID$9000405:IDLE:0:0:0:0:0:0:0:0:0,#
*,type=STOP,param=1:0:0:0:0:0:0:0:0:0:0,#
*,type=BTL_EVTUNIT_ANM,param=MID$2007101:FADEOUT:0.5:0:0:0:0:0:0:0:0,#
*,type=STOP,param=1:0:0:0:0:0:0:0:0:0:0,#
*,type=BTL_FADE,param=IN:0:0:0:0:0:0:0:0:0:0,#
*,type=HCHR_ENT00,param=chr_Loy:ロイ:N$chara_bf2_28_b:$BTLPOS_Left:TYPE$middle:Z$10:0:0:0:0:0,#
*,type=HCHR_ENT00,param=chr_Mehlfel:メルフェル:N$chara_bf2_18_b:$BTLPOS_Right:TYPE$middle:Z$1:0:0:0:0:0,#
*,type=STOP,param=0:0:0:0:0:0:0:0:0:0:0,#
*,type=HCHR_POS00,param=chr_Loy:FADEIN:$CHARA_FadeTime:0:0:0:0:0:0:0:0,#
*,type=STOP,param=0:0:0:0:0:0:0:0:0:0:0,#
*,type=HCHR_GRP00,param=chr_Loy:face:fu:0:0:0:0:0:0:0:0,#
*,type=HCHR_TK10,msg=メルフェル、<wait=1.5>つまらない手で<br>誤魔化すのはもうやめろ。,param=chr_Loy:Left:BATTLE:0:0:0:0:0:0:0:0,#
*,type=HCHR_GRP00,param=chr_Loy:face:do:0:0:0:0:0:0:0:0,#
*,type=HCHR_TK10,msg=お前も七魔将の端くれだろう。<br><wait=1.5>将なら将らしく、<wait=1.5>俺たちと全力で戦え！,param=chr_Loy:Left:BATTLE:0:0:0:0:0:0:0:0,#
*,type=HCHR_TK01,param=all:0:0:0:0:0:0:0:0:0:0,#
*,type=HCHR_POS00,param=chr_Loy:FADEOUT:T$0.1:0:0:0:0:0:0:0:0,#
*,type=STOP,param=0:0:0:0:0:0:0:0:0:0:0,#
*,type=HCHR_GRP00,param=chr_Mehlfel:face:bi:0:0:0:0:0:0:0:0,#
*,type=HCHR_POS00,param=chr_Mehlfel:FADEIN:$CHARA_FadeTime:0:0:0:0:0:0:0:0,#
*,type=STOP,param=0:0:0:0:0:0:0:0:0:0:0,#
*,type=HCHR_TK10,msg=おやおや、<wait=1>これはどうしたことでしょう。<wait=3><br>ワタクシ、<wait=1>もしかしてピンチですか？,param=chr_Mehlfel:Right:BATTLE:0:0:0:0:0:0:0:0,#
*,type=HCHR_GRP00,param=chr_Mehlfel:face:ai:0:0:0:0:0:0:0:0,#
*,type=HCHR_TK10,msg=<speed=7>もうこんな手しか残ってないんですが……,param=chr_Mehlfel:Right:BATTLE:0:0:0:0:0:0:0:0,#
*,type=HCHR_TK01,param=ALL:0:0:0:0:0:0:0:0:0:0,#
*,type=HCHR_POS00,param=chr_Mehlfel:FADEOUT:T$0.1:0:0:0:0:0:0:0:0,#
*,type=STOP,param=0:0:0:0:0:0:0:0:0:0:0,#
*,type=HCHR_ENT01,param=chr_Loy:T$0:0:0:0:0:0:0:0:0:0,#
*,type=HCHR_ENT01,param=chr_Mehlfel:T$0:0:0:0:0:0:0:0:0:0,#
*,type=STOP,param=0:0:0:0:0:0:0:0:0:0:0,#
*,type=BTL_ReqAction,param=MID$9000405:0:MOVETO:-1000$DEFAULT$2$IDLE$IDLE:0:0:0:0:0:0:0,#
*,type=BTL_WaitAction,param=50:0:0:0:0:0:0:0:0:0:0,#
*,type=BTL_EVTUNIT_ANM,param=MID$9000405:FADEOUT:0.3:0:0:0:0:0:0:0:0,#
*,type=STOP,param=0:0:0:0:0:0:0:0:0:0:0,#
*,type=SE_0000,param=29:0:0:0:0:0:0:0:0:0:0,#
*,type=SS5_0000,param=SS5_1:alt_effect.ssbp:alt_transform_1_start/anime:alt_transform_1_start/anime:30:162:402:1:0:0:0,#
*,type=BTL_EVTUNIT_ANM,param=MID$2007101:FADEIN:1:0:0:0:0:0:0:0:0,#
*,type=BTL_WaitAction,param=40:0:0:0:0:0:0:0:0:0:0,#
*,type=HCHR_ENT00,param=chr_Loy:ロイ:N$chara_bf2_28_b:$BTLPOS_Left:TYPE$middle:Z$10:0:0:0:0:0,#
*,type=HCHR_ENT00,param=chr_Mehlfel:メルフェル:N$chara_bf2_18_b:$BTLPOS_Right:TYPE$middle:Z$1:0:0:0:0:0,#
*,type=STOP,param=0:0:0:0:0:0:0:0:0:0:0,#
*,type=HCHR_GRP00,param=chr_Loy:face:bi:0:0:0:0:0:0:0:0,#
*,type=HCHR_POS00,param=chr_Loy:FADEIN:$CHARA_FadeTime:OFS$320&0:0:0:0:0:0:0:0,#
*,type=STOP,param=0:0:0:0:0:0:0:0:0:0:0,#
*,type=HCHR_SHK00,param=chr_Loy:3:0.04:0.7:0:0:0:0:0:0:0,#
*,type=HCHR_EFC00,param=Eff_Manp_17:chr_Loy:manpu_1:0:SS5$$MANP_surprise_red_a:0:1:0:0:0:0,#
*,type=WAIT_0000,param=0.6:0:0:0:0:0:0:0:0:0:0,#
*,type=HCHR_TK00,msg=<size=32><speed=7>なっ…………<wait=3><br><speed=3><ctag=QUAK:12:12:0.05:10>ノエルさん!?,param=chr_Loy:$Shout_M_R_Battle:nowait:0:0:0:0:0:0:0:0,#
*,type=CSYN_0001,param=0:0:0:0:0:0:0:0:0:0:0,#
*,type=PICT_0004,param=mnp:$Center6:0:0:0:0:0:0:0:0:0,#
*,type=CSYN_0002,param=0:0:0:0:0:0:0:0:0:0:0,#
*,type=HCHR_TK01,param=all:0:0:0:0:0:0:0:0:0:0,#
*,type=HCHR_POS00,param=chr_Loy:FADEOUT:T$0.1:0:0:0:0:0:0:0:0,#
*,type=STOP,param=0:0:0:0:0:0:0:0:0:0:0,#
*,type=HCHR_GRP00,param=chr_Mehlfel:face:ki:0:0:0:0:0:0:0:0,#
*,type=HCHR_POS00,param=chr_Mehlfel:FADEIN:$CHARA_FadeTime:0:0:0:0:0:0:0:0,#
*,type=STOP,param=0:0:0:0:0:0:0:0:0:0:0,#
*,type=HCHR_TK10,msg=う～ん、<wait2>いいリアクションです。<wait=3><br>また、<wait=1>サプライズ成功ですネ♪,param=chr_Mehlfel:Right:BATTLE:0:0:0:0:0:0:0:0,#
*,type=HCHR_GRP00,param=chr_Mehlfel:face:fu:0:0:0:0:0:0:0:0,#
*,type=HCHR_TK10,msg=それでは、<wait=1.5>後は<br>お仲間のみなさんだけでごゆっくり……,param=chr_Mehlfel:Right:BATTLE:0:0:0:0:0:0:0:0,#
*,type=HCHR_TK01,param=all:0:0:0:0:0:0:0:0:0:0,#
*,type=SE_0000,param=363:0:0:0:0:0:0:0:0:0:0,#
*,type=HCHR_POS00,param=chr_Mehlfel:FADEOUT:T$0.6:0:0:0:0:0:0:0:0,#
*,type=STOP,param=0:0:0:0:0:0:0:0:0:0:0,#
*,type=HCHR_ENT01,param=chr_Mehlfel:T$0:0:0:0:0:0:0:0:0:0,#
*,type=STOP,param=0:0:0:0:0:0:0:0:0:0:0,#
*,type=HCHR_GRP00,param=chr_Loy:face:do:0:0:0:0:0:0:0:0,#
*,type=HCHR_POS00,param=chr_Loy:FADEIN:$CHARA_FadeTime:0:0:0:0:0:0:0:0,#
*,type=STOP,param=0:0:0:0:0:0:0:0:0:0:0,#
*,type=HCHR_TK10,msg=<speed=3>おいっ、<wait=1.5>どこへ行くんだ!!,param=chr_Loy:Right:BATTLE:0:0:0:0:0:0:0:0,#
*,type=HCHR_GRP00,param=chr_Loy:face:ku:0:0:0:0:0:0:0:0,#
*,type=HCHR_TK10,msg=くそっ……<wait=2>メルフェルの奴<br>なんて人を召喚してくれたんだ。,param=chr_Loy:Right:BATTLE:0:0:0:0:0:0:0:0,#
*,type=HCHR_GRP00,param=chr_Loy:face:ai:0:0:0:0:0:0:0:0,#
*,type=HCHR_TK10,msg=しかし、<wait=1>こうなったら<br>やるしかない……,param=chr_Loy:Right:BATTLE:0:0:0:0:0:0:0:0,#
*,type=HCHR_GRP00,param=chr_Loy:face:do:0:0:0:0:0:0:0:0,#
*,type=HCHR_TK10,msg=<speed=3>いくぞ、<wait=1.5>みんな!!,param=chr_Loy:Right:BATTLE:0:0:0:0:0:0:0:0,#
*,type=HCHR_TK01,param=ALL:0:0:0:0:0:0:0:0:0:0,#
*,type=HCHR_POS00,param=chr_Loy:FADEOUT:T$0:0:0:0:0:0:0:0:0,#
*,type=STOP,param=0:0:0:0:0:0:0:0:0:0:0,#
*,type=HCHR_ENT01,param=chr_Loy:T$0:0:0:0:0:0:0:0:0:0,#
*,type=STOP,param=0:0:0:0:0:0:0:0:0:0:0,#
*,type=MSKS_0000,param=bgBlackMask:$BGBLACK_Color:0:Z$1:T$0.75:0:0:0:0:0:0,#
*,type=BTL_WaitAction,param=50:0:0:0:0:0:0:0:0:0:0,#
*,type=MSKS_0002,param=bgBlackMask:T$0.75:0:0:0:0:0:0:0:0:0,#
*,type=BTL_WaitAction,param=120:0:0:0:0:0:0:0:0:0:0,#
*,type=HCHR_ENT00,param=chr_Loy:ロイ:N$chara_bf2_28_b:$BTLPOS_Left:TYPE$middle:Z$10:0:0:0:0:0,#
*,type=HCHR_ENT00,param=chr_Sarsha:サーシャ:N$chara_bf2_1_b:$BTLPOS_Left:TYPE$middle:Z$10:0:0:0:0:0,#
*,type=HCHR_ENT00,param=chr_Lin:リン:N$chara_bf2_25_b:$BTLPOS_Left:TYPE$middle:Z$10:0:0:0:0:0,#
*,type=STOP,param=0:0:0:0:0:0:0:0:0:0:0,#
*,type=HCHR_GRP00,param=chr_Sarsha:face:ai:0:0:0:0:0:0:0:0,#
*,type=HCHR_POS00,param=chr_Sarsha:FADEIN:$CHARA_FadeTime:0:0:0:0:0:0:0:0,#
*,type=STOP,param=0:0:0:0:0:0:0:0:0:0:0,#
*,type=HCHR_TK10,msg=あの……<wait=2>私の気のせいかも<br>しれないんですけど,param=chr_Sarsha:Left:BATTLE:0:0:0:0:0:0:0:0,#
*,type=HCHR_TK10,msg=ノエルさんの擬似ユニット……<wait=2><br>召喚するたびに疲弊してませんか？,param=chr_Sarsha:Left:BATTLE:0:0:0:0:0:0:0:0,#
*,type=HCHR_TK01,param=all:0:0:0:0:0:0:0:0:0:0,#
*,type=HCHR_POS00,param=chr_Sarsha:FADEOUT:T$0.1:0:0:0:0:0:0:0:0,#
*,type=STOP,param=0:0:0:0:0:0:0:0:0:0:0,#
*,type=HCHR_GRP00,param=chr_Lin:face:mu:0:0:0:0:0:0:0:0,#
*,type=HCHR_POS00,param=chr_Lin:FADEIN:$CHARA_FadeTime:0:0:0:0:0:0:0:0,#
*,type=STOP,param=0:0:0:0:0:0:0:0:0:0:0,#
*,type=HCHR_TK10,msg=確かに、<wait=1.5>ちょっとしんどそうね。,param=chr_Lin:Left:BATTLE:0:0:0:0:0:0:0:0,#
*,type=HCHR_TK01,param=all:0:0:0:0:0:0:0:0:0:0,#
*,type=HCHR_POS00,param=chr_Lin:FADEOUT:T$0.1:0:0:0:0:0:0:0:0,#
*,type=STOP,param=0:0:0:0:0:0:0:0:0:0:0,#
*,type=HCHR_GRP00,param=chr_Loy:face:fu:0:0:0:0:0:0:0:0,#
*,type=HCHR_POS00,param=chr_Loy:FADEIN:$CHARA_FadeTime:0:0:0:0:0:0:0:0,#
*,type=STOP,param=0:0:0:0:0:0:0:0:0:0:0,#
*,type=HCHR_TK10,msg=俺たちみたいに訓練を受けた<br>召喚師じゃないからな……,param=chr_Loy:Left:BATTLE:0:0:0:0:0:0:0:0,#
*,type=HCHR_TK10,msg=あと１回召喚でもすれば<br>勝手に倒れてくれそうだぞ。,param=chr_Loy:Left:BATTLE:0:0:0:0:0:0:0:0,#
*,type=HCHR_TK10,msg=このまま俺たちの手でケリをつけるか<br><wait=1.5>自滅を待つか……,param=chr_Loy:Left:BATTLE:0:0:0:0:0:0:0:0,#
*,type=HCHR_GRP00,param=chr_Loy:face:emi:0:0:0:0:0:0:0:0,#
*,type=HCHR_TK10,msg=……俺はどうするか決めたぞ！<wait=2><br>あとは<rep_handlename>次第だ。,param=chr_Loy:Left:BATTLE:0:0:0:0:0:0:0:0,#
*,type=HCHR_TK01,param=ALL:0:0:0:0:0:0:0:0:0:0,#
*,type=HCHR_POS00,param=chr_Loy:FADEOUT:T$0.3:0:0:0:0:0:0:0:0,#
*,type=STOP,param=0:0:0:0:0:0:0:0:0:0:0,#
*,type=HCHR_ENT01,param=chr_Sarsha:T$0:0:0:0:0:0:0:0:0:0,#
*,type=HCHR_ENT01,param=chr_Lin:T$0:0:0:0:0:0:0:0:0:0,#
*,type=HCHR_ENT01,param=chr_Loy:T$0:0:0:0:0:0:0:0:0:0,#
*,type=STOP,param=0:0:0:0:0:0:0:0:0:0:0,#
*,type=MSKS_0000,param=bgBlackMask:$BGBLACK_Color:0:Z$1:T$0.75:0:0:0:0:0:0,#
*,type=BTL_WaitAction,param=60:0:0:0:0:0:0:0:0:0:0,#
*,type=GAM_CHGSCENE,param=MissionSelect:0:0:0:0:0:0:0:0:0:0,#
*,type=BTL_PanelMask,param=OFF:0:0:0:0:0:0:0:0:0:0,#
*,type=EVT_BLOCKEND,param=0:0:0:0:0:0:0:0:0:0:0,#

*,type=SYSED_00,param=0:0:0:0:0:0:0:0:0:0:0,#



