﻿ScriptCmd ver 1.1.1(app1.0.4):スクリプト_07_1_魔城上層部_dungeon11.xlsm/main011-dungeon11-3btlcall/main011-dungeon11-3btlcall.csv

*,type=SYSST_00,param=0:0:0:0:0:0:0:0:0:0:0,#
*,type=CMD_STOP,param=0:0:0:0:0:0:0:0:0:0:0,#
*,type=SYSST_01,param=0:0:0:0:0:0:0:0:0:0:0,#


*,type=GAM_STARTBTL,param=7705:HERO:0:0:0:0:0:0:0:0:0,#

*,type=SYSED_00,param=0:0:0:0:0:0:0:0:0:0:0,#



