﻿ScriptCmd ver 1.1.1(app1.0.4):メインクスクリプト_09_絆の行方_クエスト10.xlsm/main013-dungeon10-3/main013-dungeon10-3.csv

*,type=SYSST_00,param=0:0:0:0:0:0:0:0:0:0:0,#
*,type=CMD_STOP,param=0:0:0:0:0:0:0:0:0:0:0,#
*,type=SYSST_01,param=0:0:0:0:0:0:0:0:0:0:0,#


*,type=PICT_0000,param=bg_01:battle_bg_017_06_2.jpg:1:bg$1051010:0:0:0:2:0:0:0,#
*,type=BGM_0000,param=1053:1.5:0:0:0:0:0:0:0:0:0,#
*,type=FADEIN_000,param=1.5:00&00&00:0:0:0:0:0:0:0:0:0,#
*,type=WAIT_0000,param=2.5:0:0:0:0:0:0:0:0:0:0,#
*,type=STOP,param=0:0:0:0:0:0:0:0:0:0:0,#
*,type=HCHR_ENT00,param=chr_Sarsha:サーシャ:N$chara_bf2_1:$POS_Center:TYPE$middle:Z$3:0:0:0:0:0,#
*,type=HCHR_ENT00,param=chr_Renee:ルネ:N$chara_bf2_16:$POS_Center:TYPE$middle:Z$4:0:0:0:0:0,#
*,type=HCHR_ENT00,param=chr_Dewey:デューイ:N$tame_wolf_16:$POS_Center:TYPE$middle:Z$5:0:0:0:0:0,#
*,type=HCHR_ENT00,param=chr_Lin:リン:N$chara_bf2_25:$POS_Center:TYPE$middle:Z$6:0:0:0:0:0,#
*,type=HCHR_ENT00,param=chr_Loy:ロイ:N$chara_bf2_28:$POS_Center:TYPE$middle:Z$11:0:0:0:0:0,#
*,type=HCHR_ENT00,param=chr_Shida:シダ:N$chara_bf2_203:$POS_Center:TYPE$middle:Z$8:0:0:0:0:0,#
*,type=HCHR_ENT00,param=chr_Yehoshua:ヨシュア:N$chara_bf2_7:$POS_Center:TYPE$middle:Z$10:0:0:0:0:0,#
*,type=HCHR_ENT00,param=chr_Nothum:リン＆ルネ:N$chara_bf2_1_nothum:$POS_Center:TYPE$middle:Z$10:0:0:0:0:0,#
*,type=STOP,param=0:0:0:0:0:0:0:0:0:0:0,#
*,type=HCHR_GRP00,param=chr_Lin:face:kyou1:$FACE_FadeTime:0:0:0:0:0:0:0,#
*,type=HCHR_GRP00,param=chr_Renee:face:ai:$FACE_FadeTime:0:0:0:0:0:0:0,#
*,type=HCHR_POS00,param=chr_Renee:FADEIN:T$0.3:$OFS_Left:0:0:0:0:0:0:0,#
*,type=HCHR_POS00,param=chr_Lin:FADEIN:T$0.3:$OFS_Right:0:0:0:0:0:0:0,#
*,type=STOP,param=0:0:0:0:0:0:0:0:0:0:0,#
*,type=HCHR_TK10,msg=先生!!,param=chr_Lin:Right:BASIC:0:nowait:0:focusoff:0:0:OFS$50&0:0,#
*,type=HCHR_TK10,msg=<speed=2.5>お姉ちゃん!!,param=chr_Renee:Left:BASIC:0:0:0:focusoff:0:0:OFS$-50&0:0,#
*,type=HCHR_TK01,param=all:0:0:0:0:0:0:0:0:0:0,#
*,type=HCHR_POS00,param=chr_Lin:IN$right$60:T$0.1:OFS$100&0:0:0:0:0:0:0:0,#
*,type=HCHR_POS00,param=chr_Renee:IN$right$60:T$0.1:OFS$-220&0:0:0:0:0:0:0:0,#
*,type=STOP,param=0:0:0:0:0:0:0:0:0:0:0,#
*,type=WAIT_0000,param=0.1:0:0:0:0:0:0:0:0:0:0,#
*,type=SE_0000,param=339:0:0:0:0:0:0:0:0:0:0,#
*,type=EFFECT_GP,param=60010017:320:568:0:0:70:0:0:0:0:0,#
*,type=HCHR_GRP00,param=chr_Renee:face:ku:$FACE_FadeTime:0:0:0:0:0:0:0,#
*,type=HCHR_GRP00,param=chr_Lin:face:ku:$FACE_FadeTime:0:0:0:0:0:0:0,#
*,type=HCHR_POS00,param=chr_Renee:OUT$left:T$0.1:OFS$-220&0:0:0:0:0:0:0:0,#
*,type=HCHR_POS00,param=chr_Lin:OUT$right:T$0.1:OFS$100&0:0:0:0:0:0:0:0,#
*,type=HCHR_TK00,msg=<size=32><speed=3>きゃぁっ!!,param=chr_Nothum:$Shout_S_C:0:0:focusoff:0:0:0:0:0:0,#
*,type=HCHR_TK01,param=all:0:0:0:0:0:0:0:0:0:0,#
*,type=HCHR_GRP00,param=chr_Loy:face:bi:$FACE_FadeTime:0:0:0:0:0:0:0,#
*,type=HCHR_GRP00,param=chr_Sarsha:face:bi:$FACE_FadeTime:0:0:0:0:0:0:0,#
*,type=SE_0001,param=0:345:0:0.2:1:0:0:0:0:0:0,#
*,type=HCHR_FDM00,param=chr_Sarsha:MSK$on:0:0:0:0:0:0:0:0:0,#
*,type=HCHR_POS00,param=chr_Loy:IN$right:T$0.2:$OFS_Left:0:0:0:0:0:0:0,#
*,type=HCHR_POS00,param=chr_Sarsha:IN$right:T$0.2:$OFS_Right:0:0:0:0:0:0:0,#
*,type=STOP,param=0:0:0:0:0:0:0:0:0:0:0,#
*,type=HCHR_TK10,msg=大丈夫か、<wait=1>お前たち!?,param=chr_Loy:Left:BASIC:0:0:0:0:0:0:0:0,#
*,type=HCHR_TK01,param=chr_Loy:skipmask:0:0:0:0:0:0:0:0:0,#
*,type=HCHR_POS00,param=chr_Loy:FADEOUT:$CHARA_FadeTime:0:0:0:0:0:0:0:0,#
*,type=HCHR_POS00,param=chr_Sarsha:FADEOUT:$CHARA_FadeTime:0:0:0:0:0:0:0:0,#
*,type=STOP,param=0:0:0:0:0:0:0:0:0:0:0,#
*,type=WAIT_0000,param=0.5:0:0:0:0:0:0:0:0:0:0,#
*,type=HCHR_FDM00,param=all:MSK$off:0:0:0:0:0:0:0:0:0,#
*,type=HCHR_FDM00,param=chr_Dewey:MSK$on:0:0:0:0:0:0:0:0:0,#
*,type=HCHR_GRP00,param=chr_Dewey:face:ai:$FACE_FadeTime:0:0:0:0:0:0:0,#
*,type=HCHR_SHK00,param=chr_Lin:0&5:0.5:1:NoRandom:0:0:0:0:0:0,#
*,type=HCHR_POS00,param=chr_Lin:IN$right:T$1:$OFS_Right:0:0:0:0:0:0:0,#
*,type=HCHR_POS00,param=chr_Dewey:IN$right:T$1:$OFS_Center:0:0:0:0:0:0:0,#
*,type=STOP,param=0:0:0:0:0:0:0:0:0:0:0,#
*,type=HCHR_TK10,msg=<speed=7>私は何とか……</speed><wait=3>でも、<wait=1>ルネさんが！,param=chr_Lin:Right:BASIC:0:0:0:0:0:0:OFS$0&180:0,#
*,type=HCHR_TK01,param=chr_Lin:skipmask:0:0:0:0:0:0:0:0:0,#
*,type=HCHR_POS00,param=chr_Lin:FADEOUT:$CHARA_FadeTime:0:0:0:0:0:0:0:0,#
*,type=HCHR_POS00,param=chr_Dewey:FADEOUT:$CHARA_FadeTime:0:0:0:0:0:0:0:0,#
*,type=STOP,param=0:0:0:0:0:0:0:0:0:0:0,#
*,type=HCHR_FDM00,param=all:MSK$off:0:0:0:0:0:0:0:0:0,#
*,type=HCHR_GRP00,param=chr_Renee:face:ku:$FACE_FadeTime:0:0:0:0:0:0:0,#
*,type=HCHR_SHK00,param=chr_Renee:3&0:0.4:1.5:NoRandom:0:0:0:0:0:0,#
*,type=HCHR_POS00,param=chr_Renee:IN$bottom$30:T$1.5:$OFS_Left:0:0:0:0:0:0:0,#
*,type=STOP,param=0:0:0:0:0:0:0:0:0:0:0,#
*,type=HCHR_TK10,msg=<speed=7>ごめん……<wait=1>ね……<wait=3>結界を…………<wait=3><br>破るのに……<wait=3>力を……<wait=3>使い過ぎちゃった,param=chr_Renee:Left:BASIC:0:0:0:0:0:0:0:0,#
*,type=HCHR_TK10,msg=<speed=9>お願い……<wait=3>お姉ちゃんを<wait=1>取り戻して……,param=chr_Renee:Left:BASIC:0:0:0:0:0:0:0:0,#
*,type=HCHR_TK01,param=all:0:0:0:0:0:0:0:0:0:0,#
*,type=HCHR_PRM00,param=chr_Sarsha:Z$11:0:0:0:0:0:0:0:0:0,#
*,type=HCHR_PRM00,param=chr_Renee:Z$10:0:0:0:0:0:0:0:0:0,#
*,type=HCHR_GRP00,param=chr_Sarsha:face:do:$FACE_FadeTime:0:0:0:0:0:0:0,#
*,type=HCHR_POS00,param=chr_Sarsha:IN$right:T$0.2:$OFS_Right:0:0:0:0:0:0:0,#
*,type=STOP,param=0:0:0:0:0:0:0:0:0:0:0,#
*,type=WAIT_0000,param=0.2:0:0:0:0:0:0:0:0:0:0,#
*,type=HCHR_TK10,msg=わかったわ。<wait=3><br>私たちに任せてっ！,param=chr_Sarsha:Right:BASIC:0:0:0:0:0:0:0:0,#
*,type=HCHR_GRP00,param=chr_Renee:face:ai:$FACE_FadeTime:0:0:0:0:0:0:0,#
*,type=HCHR_TK10,msg=<speed=7>ありがと……<wait=3><br><ctag=CHRCHG_PT:chr_Renee:face:ku:->やっぱり、<wait=1>ともだちっていいね……,param=chr_Renee:Left:BASIC:0:0:0:0:0:0:0:0,#
*,type=HCHR_TK01,param=all:0:0:0:0:0:0:0:0:0:0,#
*,type=HCHR_FDM00,param=chr_Renee:MSK$on:0:0:0:0:0:0:0:0:0,#
*,type=HCHR_PRM00,param=chr_Sarsha:Z$11:0:0:0:0:0:0:0:0:0,#
*,type=HCHR_PRM00,param=chr_Renee:Z$10:0:0:0:0:0:0:0:0:0,#
*,type=HCHR_GRP00,param=chr_Sarsha:face:bi:$FACE_FadeTime:0:0:0:0:0:0:0,#
*,type=WAIT_0000,param=0.8:0:0:0:0:0:0:0:0:0:0,#
*,type=HCHR_GRP00,param=chr_Sarsha:face:emi:$FACE_FadeTime:0:0:0:0:0:0:0,#
*,type=HCHR_TK10,msg=……えぇ！,param=chr_Sarsha:Right:BASIC:0:0:0:0:0:0:0:0,#
*,type=HCHR_TK01,param=chr_Sarsha:skipmask:0:0:0:0:0:0:0:0:0,#
*,type=HCHR_POS00,param=chr_Renee:FADEOUT:$CHARA_FadeTime:0:0:0:0:0:0:0:0,#
*,type=HCHR_POS00,param=chr_Sarsha:FADEOUT:$CHARA_FadeTime:0:0:0:0:0:0:0:0,#
*,type=STOP,param=0:0:0:0:0:0:0:0:0:0:0,#
*,type=HCHR_FDM00,param=all:MSK$off:0:0:0:0:0:0:0:0:0,#
*,type=HCHR_FDM00,param=chr_Dewey:MSK$on:0:0:0:0:0:0:0:0:0,#
*,type=HCHR_GRP00,param=chr_Lin:face:do:0:0:0:0:0:0:0:0,#
*,type=HCHR_GRP00,param=chr_Dewey:face:do:0:0:0:0:0:0:0:0,#
*,type=HCHR_POS00,param=chr_Lin:FADEIN:T$0.3:$OFS_Right:0:0:0:0:0:0:0,#
*,type=HCHR_POS00,param=chr_Dewey:FADEIN:T$0.3:OFS$-70&0:0:0:0:0:0:0:0,#
*,type=STOP,param=0:0:0:0:0:0:0:0:0:0:0,#
*,type=HCHR_TK10,msg=さぁ、<wait=1>シダ！<wait=3>儀式は中止よ！<wait=3><br>大人しく観念しなさい！,param=chr_Lin:Right:BASIC:0:0:0:0:0:0:OFS$0&180:0,#
*,type=HCHR_TK01,param=chr_Lin:skipmask:0:0:0:0:0:0:0:0:0,#
*,type=HCHR_POS00,param=chr_Lin:FADEOUT:$CHARA_FadeTime:0:0:0:0:0:0:0:0,#
*,type=HCHR_POS00,param=chr_Dewey:FADEOUT:$CHARA_FadeTime:0:0:0:0:0:0:0:0,#
*,type=STOP,param=0:0:0:0:0:0:0:0:0:0:0,#
*,type=WAIT_0000,param=0.5:0:0:0:0:0:0:0:0:0:0,#
*,type=HCHR_FDM00,param=all:MSK$off:0:0:0:0:0:0:0:0:0,#
*,type=HCHR_POS00,param=chr_Shida:FADEIN:T$0.5:$OFS_Center:0:0:0:0:0:0:0,#
*,type=STOP,param=0:0:0:0:0:0:0:0:0:0:0,#
*,type=BGM_0001,param=1.5:0:0:0:0:0:0:0:0:0:0,#
*,type=BGM_0000,param=36:1.5:1.5:0:0:0:0:0:0:0:0,#
*,type=WAIT_0000,param=0.5:0:0:0:0:0:0:0:0:0:0,#
*,type=HCHR_TK10,msg=……<wait=1>確かに完全な解放には至らなかった。<wait=3><br><speed=9>だが…………,param=chr_Shida:Center:BASIC:0:0:0:0:0:0:0:0,#
*,type=SPKG_0000,param=Shida:sc_aura01_looppurple.vfxb:2:300:500:1:0:0:0:0:0,#
*,type=HCHR_GRP00,param=chr_Shida:face:ki:$FACE_FadeTime:0:0:0:0:0:0:0,#
*,type=HCHR_TK10,msg=不完全とはいえ<wait=1><br>これほどの力が得られるとは……,param=chr_Shida:Center:BASIC:0:0:0:0:0:0:0:0,#
*,type=HCHR_TK10,msg=やはり<wait=1>この地に目をつけて正解だった……,param=chr_Shida:Center:BASIC:0:0:0:0:0:0:0:0,#
*,type=HCHR_TK01,param=all:0:0:0:0:0:0:0:0:0:0,#
*,type=HCHR_POS00,param=chr_Shida:FADEOUT:$CHARA_FadeTime:0:0:0:0:0:0:0:0,#
*,type=SPKG_0001,param=Shida:KICK$1:0:0:0:0:0:0:0:0:0,#
*,type=STOP,param=0:0:0:0:0:0:0:0:0:0:0,#
*,type=WAIT_0000,param=0.5:0:0:0:0:0:0:0:0:0:0,#
*,type=HCHR_GRP00,param=chr_Yehoshua:face:do:0:0:0:0:0:0:0:0,#
*,type=HCHR_GRP00,param=chr_Loy:face:bi:0:0:0:0:0:0:0:0,#
*,type=HCHR_POS00,param=chr_Loy:FADEIN:T$0.3:$OFS_Left:0:0:0:0:0:0:0,#
*,type=HCHR_POS00,param=chr_Yehoshua:FADEIN:T$0.3:$OFS_Right:0:0:0:0:0:0:0,#
*,type=HCHR_EFC00,param=Eff_Manp_18a:chr_Loy:manpu_1:0:SS5$$MANP_surprise_red_b:0:0:0:0:0:0,#
*,type=HCHR_EFC00,param=Eff_Manp_18b:chr_Yehoshua:manpu_1:0:SS5$$MANP_surprise_red_b:0:0:0:0:0:0,#
*,type=WAIT_0000,param=1:0:0:0:0:0:0:0:0:0:0,#
*,type=PICT_0004,param=Eff_Manp_18a:0:0:0:0:0:0:0:0:0:0,#
*,type=PICT_0004,param=Eff_Manp_18b:0:0:0:0:0:0:0:0:0:0,#
*,type=STOP,param=0:0:0:0:0:0:0:0:0:0:0,#
*,type=HCHR_GRP00,param=chr_Loy:face:do:$FACE_FadeTime:0:0:0:0:0:0:0,#
*,type=HCHR_TK10,msg=……来るぞ！,param=chr_Loy:Left:BASIC:0:0:0:0:0:0:0:0,#
*,type=HCHR_TK01,param=all:skipmask:0:0:0:0:0:0:0:0:0,#
*,type=FADEOUT_000,param=1.5:$BGBLACK_Color:0:0:0:0:0:0:0:0:0,#
*,type=BGM_0001,param=1.5:0:0:0:0:0:0:0:0:0:0,#
*,type=WAIT_0000,param=2:0:0:0:0:0:0:0:0:0:0,#
*,type=GAM_CHGSCENE,param=DungeonSelect:0:10510:0:0:0:0:0:0:0:0,#

*,type=SYSED_00,param=0:0:0:0:0:0:0:0:0:0:0,#



