﻿ScriptCmd ver 1.1.1(app1.0.4):スクリプト_06_1_魔城中層部_dungeon5.xlsm/main010-dungeon5-5/main010-dungeon5-5.csv

*,type=SYSST_00,param=0:0:0:0:0:0:0:0:0:0:0,#
*,type=CMD_STOP,param=0:0:0:0:0:0:0:0:0:0:0,#
*,type=SYSST_01,param=0:0:0:0:0:0:0:0:0:0:0,#


*,type=PICT_0000,param=bg_01:battle_bg_014_05.jpg:1:bg$1050605:0:0:0:2:0:0:0,#
*,type=FADEIN_000,param=1.5:00&00&00:0:0:0:0:0:0:0:0:0,#
*,type=WAIT_0000,param=2.5:0:0:0:0:0:0:0:0:0:0,#
*,type=HCHR_ENT00,param=chr_Lin:リン:N$chara_bf2_25:$POS_Center:TYPE$middle:Z$10:0:0:0:0:0,#
*,type=HCHR_ENT00,param=chr_Loy:ロイ:N$chara_bf2_28:$POS_Center:TYPE$middle:Z$10:0:0:0:0:0,#
*,type=HCHR_ENT00,param=chr_SaintcuoreR:サンクオーレ:N$chara_bf2_147_Rshl:$POS_Center:TYPE$middle:Z$10:0:0:0:0:0,#
*,type=HCHR_ENT00,param=chr_Seria:セリア:N$chara_bf2_12:$POS_Center:TYPE$middle:Z$10:0:0:0:0:0,#
*,type=HCHR_ENT00,param=chr_Seria_ude:セリア:N$chara_bf2_85:$POS_Center:TYPE$middle:Z$10:0:0:0:0:0,#
*,type=HCHR_ENT00,param=chr_Balagan:バラガン:N$chara_bf2_6:$POS_Center:TYPE$middle:Z$10:0:0:0:0:0,#
*,type=HCHR_ENT00,param=chr_Dewey:デューイ:N$tame_wolf_03:$POS_Center:TYPE$middle:Z$9&9:0:0:0:0:0,#
*,type=HCHR_ENT00,param=chr_Dragon:<rep_myguardian>:N$tame_dragon_03:$POS_Center:TYPE$middle:Z$10:0:0:0:0:0,#
*,type=STOP,param=0:0:0:0:0:0:0:0:0:0:0,#
*,type=HCHR_GRP00,param=chr_Balagan:face:ku:0:0:0:0:0:0:0:0,#
*,type=HCHR_POS00,param=chr_Balagan:FADEIN:T$0.5:$OFS_Center:0:0:0:0:0:0:0,#
*,type=WAIT_0000,param=1:0:0:0:0:0:0:0:0:0:0,#
*,type=HCHR_TK10,msg=<speed=7>グッ………<wait=3>こ……<wait=3>この野郎………,param=chr_Balagan:Center:BASIC:0:0:0:0:0:0:0:0,#
*,type=HCHR_TK10,msg=<speed=7>なかなか……<wait=3>やるじゃ……<wait=3>ねぇか……,param=chr_Balagan:Center:BASIC:0:0:0:0:0:0:0:0,#
*,type=BGM_0000,param=63:0:0:0:0:0:0:0:0:0:0,#
*,type=HCHR_TK10,msg=……ガハッ！<wait=3>……ゴホッ！,param=chr_Balagan:Center:BASIC:0:nowait:0:0:0:0:0:0,#
*,type=WAIT_0000,param=0.2:0:0:0:0:0:0:0:0:0:0,#
*,type=HCHR_SHK00,param=chr_Balagan:4:0.2:0.6:0:0:0:0:0:0:0,#
*,type=HCHR_POS00,param=chr_Balagan:OFS$0&20:T$0.2:0:0:0:0:0:0:0:0,#
*,type=CSYN_0001,param=0:0:0:0:0:0:0:0:0:0:0,#
*,type=HCHR_SHK00,param=chr_Balagan:3:0.04:0.3:0:0:0:0:0:0:0,#
*,type=CSYN_0002,param=0:0:0:0:0:0:0:0:0:0:0,#
*,type=STOP,param=0:0:0:0:0:0:0:0:0:0:0,#
*,type=HCHR_TK01,param=all:0:0:0:0:0:0:0:0:0:0,#
*,type=HCHR_POS00,param=chr_Balagan:FADEOUT:T$0.1:0:0:0:0:0:0:0:0,#
*,type=STOP,param=0:0:0:0:0:0:0:0:0:0:0,#
*,type=HCHR_FDM00,param=chr_Dewey:MSK$on:0:0:0:0:0:0:0:0:0,#
*,type=HCHR_GRP00,param=chr_Lin:face:ku:0:0:0:0:0:0:0:0,#
*,type=HCHR_POS00,param=chr_Dewey:FADEIN:$CHARA_FadeTime:$OFS_Left:0:0:0:0:0:0:0,#
*,type=HCHR_POS00,param=chr_Lin:FADEIN:$CHARA_FadeTime:$OFS_Right:0:0:0:0:0:0:0,#
*,type=STOP,param=0:0:0:0:0:0:0:0:0:0:0,#
*,type=HCHR_TK10,msg=もう剣を振る力も残ってないでしょ……<wait=3><br>私たちの勝ちね！,param=chr_Lin:Right:BASIC:0:0:0:0:0:0:0:0,#
*,type=HCHR_TK01,param=all:skipmask:0:0:0:0:0:0:0:0:0,#
*,type=HCHR_POS00,param=chr_Lin:FADEOUT:T$0.1:0:0:0:0:0:0:0:0,#
*,type=HCHR_POS00,param=chr_Dewey:FADEOUT:T$0.1:0:0:0:0:0:0:0:0,#
*,type=STOP,param=0:0:0:0:0:0:0:0:0:0:0,#
*,type=HCHR_FDM00,param=chr_Balagan:MSK$off:0:0:0:0:0:0:0:0:0,#
*,type=HCHR_POS00,param=chr_Balagan:FADEIN:$CHARA_FadeTime:OFS$0&20:0:0:0:0:0:0:0,#
*,type=STOP,param=0:0:0:0:0:0:0:0:0:0:0,#
*,type=HCHR_POS00,param=chr_Balagan:OFS$0&-20:T$0.8:0:0:0:0:0:0:0:0,#
*,type=HCHR_TK10,msg=<speed=7>…………<wait=3>約束……<wait=3>だったな……,param=chr_Balagan:Center:BASIC:0:0:0:0:0:0:0:0,#
*,type=HCHR_TK10,msg=<speed=7>これでも…………<wait=3>持ってけ……,param=chr_Balagan:Center:BASIC:0:0:0:0:0:0:0:0,#
*,type=HCHR_TK01,param=all:0:0:0:0:0:0:0:0:0:0,#
*,type=SE_0000,param=309:0:0:0:0:0:0:0:0:0:0,#
*,type=WAIT_0000,param=0.8:0:0:0:0:0:0:0:0:0:0,#
*,type=SE_0000,param=386:0:0:0:0:0:0:0:0:0:0,#
*,type=HCHR_POS00,param=chr_Balagan:OFS$0&5:T$0.1:0:0:0:0:0:0:0:0,#
*,type=WAIT_0000,param=0.1:0:0:0:0:0:0:0:0:0:0,#
*,type=HCHR_POS00,param=chr_Balagan:OFS$0&2:T$0.2:0:0:0:0:0:0:0:0,#
*,type=WAIT_0000,param=0.2:0:0:0:0:0:0:0:0:0:0,#
*,type=HCHR_POS00,param=chr_Balagan:OFS$0&-7:T$0.15:0:0:0:0:0:0:0:0,#
*,type=WAIT_0000,param=0.15:0:0:0:0:0:0:0:0:0:0,#
*,type=HCHR_POS00,param=chr_Balagan:OFS$0&-3:T$0.1:0:0:0:0:0:0:0:0,#
*,type=WAIT_0000,param=0.6:0:0:0:0:0:0:0:0:0:0,#
*,type=HCHR_POS00,param=chr_Balagan:FADEOUT:$CHARA_FadeTime:0:0:0:0:0:0:0:0,#
*,type=STOP,param=0:0:0:0:0:0:0:0:0:0:0,#
*,type=HCHR_GRP00,param=chr_Dewey:face:bi:0:0:0:0:0:0:0:0,#
*,type=HCHR_GRP00,param=chr_Lin:face:bi:0:0:0:0:0:0:0:0,#
*,type=HCHR_POS00,param=chr_Dewey:FADEIN:$CHARA_FadeTime:$OFS_Left:0:0:0:0:0:0:0,#
*,type=HCHR_POS00,param=chr_Lin:FADEIN:$CHARA_FadeTime:$OFS_Right:0:0:0:0:0:0:0,#
*,type=WAIT_0000,param=0.5:0:0:0:0:0:0:0:0:0:0,#
*,type=SE_0000,param=370:0:0:0:0:0:0:0:0:0:0,#
*,type=HCHR_SHK00,param=chr_Lin:3:0.04:0.3:0:0:0:0:0:0:0,#
*,type=HCHR_TK10,msg=<speed=3>わっ！</speed><wait=3>……とと。,param=chr_Lin:Right:BASIC:0:0:0:focusoff:0:0:0:0,#
*,type=HCHR_TK01,param=all:skipmask:0:0:0:0:0:0:0:0:0,#
*,type=HCHR_EFC00,param=Eff_Manp_13a:chr_Lin:manpu_1:0:SS5$$MANP_surprise_black_a:0:1:0:0:0:0,#
*,type=HCHR_TK10,msg=……え!?<wait=3><br>これは……っ!!,param=chr_Lin:Right:BASIC:0:0:0:focusoff:0:0:0:0,#
*,type=HCHR_TK01,param=all:0:0:0:0:0:0:0:0:0:0,#
*,type=PICT_0004,param=Eff_Manp_13a:0:0:0:0:0:0:0:0:0:0,#
*,type=PICT_0004,param=Eff_Manp_13b:0:0:0:0:0:0:0:0:0:0,#
*,type=WAIT_0000,param=0.1:0:0:0:0:0:0:0:0:0:0,#
*,type=PICT_0000,param=item1:event_item_017.png:60:chr:0:1:0:0:0:0:0,#
*,type=PICT_0000,param=item2:event_item_018.png:60:chr:0:1:0:0:0:0:0,#
*,type=MSKS_0000,param=bgmask:0&0&0:128:Z$40:T$0.5:0:0:0:0:0:0,#
*,type=PICT_0001,param=item1:240:310:0.5:0:0:0:0:0:0:0,#
*,type=PICT_0001,param=item2:120:310:0.5:0:0:0:0:0:0:0,#
*,type=WAIT_0000,param=0.5:0:0:0:0:0:0:0:0:0:0,#
*,type=CSYN_0000,param=0:0:0:0:0:0:0:0:0:0:0,#
*,type=PICT_0003,param=item1:0.5:0:0:0:0:0:0:0:0:0,#
*,type=PICT_0003,param=item2:0.5:0:0:0:0:0:0:0:0:0,#
*,type=MSKS_0002,param=bgmask:T$0.5:0:0:0:0:0:0:0:0:0,#
*,type=WAIT_0000,param=1:0:0:0:0:0:0:0:0:0:0,#
*,type=PICT_0004,param=item1:0:0:0:0:0:0:0:0:0:0,#
*,type=PICT_0004,param=item2:0:0:0:0:0:0:0:0:0:0,#
*,type=HCHR_TK10,msg=先生とローリさんの剣!!,param=chr_Lin:Right:BASIC:0:0:0:0:0:0:0:0,#
*,type=HCHR_GRP00,param=chr_Lin:face:do:0:0:0:0:0:0:0:0,#
*,type=HCHR_GRP00,param=chr_Dewey:face:do:0:0:0:0:0:0:0:0,#
*,type=HCHR_TK10,msg=どうしてあんたがこれを持ってるの!?<wait=3><br>先生たちはどこなのっ!!,param=chr_Lin:Right:BASIC:0:0:0:0:0:0:0:0,#
*,type=HCHR_TK01,param=all:skipmask:0:0:0:0:0:0:0:0:0,#
*,type=HCHR_POS00,param=chr_Lin:FADEOUT:T$0.1:0:0:0:0:0:0:0:0,#
*,type=HCHR_POS00,param=chr_Dewey:FADEOUT:T$0.1:0:0:0:0:0:0:0:0,#
*,type=STOP,param=0:0:0:0:0:0:0:0:0:0:0,#
*,type=HCHR_FDM00,param=chr_Balagan:MSK$off:0:0:0:0:0:0:0:0:0,#
*,type=HCHR_POS00,param=chr_Balagan:FADEIN:$CHARA_FadeTime:$OFS_Center:0:0:0:0:0:0:0,#
*,type=STOP,param=0:0:0:0:0:0:0:0:0:0:0,#
*,type=HCHR_TK10,msg=<speed=7>残念……<wait=1>だな……<wait=3>あいつらは……<wait=3><br>ここには……<wait=1>いねぇ……,param=chr_Balagan:Center:BASIC:0:0:0:0:0:0:0:0,#
*,type=HCHR_TK10,msg=<speed=7>シャイアが……<wait=3>どっか……<wait=3><br>連れてっちまった…………<wait=3>からな……,param=chr_Balagan:Center:BASIC:0:0:0:0:0:0:0:0,#
*,type=HCHR_TK01,param=all:0:0:0:0:0:0:0:0:0:0,#
*,type=HCHR_POS00,param=chr_Balagan:FADEOUT:T$0.1:0:0:0:0:0:0:0:0,#
*,type=STOP,param=0:0:0:0:0:0:0:0:0:0:0,#
*,type=HCHR_FDM00,param=chr_Dewey:MSK$on:0:0:0:0:0:0:0:0:0,#
*,type=HCHR_GRP00,param=chr_Lin:face:ku:0:0:0:0:0:0:0:0,#
*,type=HCHR_POS00,param=chr_Dewey:FADEIN:$CHARA_FadeTime:$OFS_Left:0:0:0:0:0:0:0,#
*,type=HCHR_POS00,param=chr_Lin:FADEIN:$CHARA_FadeTime:$OFS_Right:0:0:0:0:0:0:0,#
*,type=STOP,param=0:0:0:0:0:0:0:0:0:0:0,#
*,type=HCHR_TK10,msg=どこへ連れて行ったの!?<wait=3><br><speed=3>教えて!!,param=chr_Lin:Right:BASIC:0:0:0:0:0:0:0:0,#
*,type=HCHR_TK01,param=all:skipmask:0:0:0:0:0:0:0:0:0,#
*,type=HCHR_POS00,param=chr_Lin:FADEOUT:T$0.1:0:0:0:0:0:0:0:0,#
*,type=HCHR_POS00,param=chr_Dewey:FADEOUT:T$0.1:0:0:0:0:0:0:0:0,#
*,type=STOP,param=0:0:0:0:0:0:0:0:0:0:0,#
*,type=HCHR_FDM00,param=chr_Balagan:MSK$off:0:0:0:0:0:0:0:0:0,#
*,type=HCHR_GRP00,param=chr_Balagan:face:ai:0:0:0:0:0:0:0:0,#
*,type=HCHR_POS00,param=chr_Balagan:FADEIN:$CHARA_FadeTime:$OFS_Center:0:0:0:0:0:0:0,#
*,type=STOP,param=0:0:0:0:0:0:0:0:0:0:0,#
*,type=HCHR_TK10,msg=<speed=7>…………<wait=3>エルハザを…………<wait=3>探せ。,param=chr_Balagan:Center:BASIC:0:0:0:0:0:0:0:0,#
*,type=HCHR_TK10,msg=<speed=7>奴は……<wait=3>連中を…………<wait=3>使って<wait=1.5><br>何か<wait=1>企んで…………<wait=3>やがる……,param=chr_Balagan:Center:BASIC:0:0:0:0:0:0:0:0,#
*,type=HCHR_TK10,msg=<speed=7>奴のところへ……<wait=1>行けば……<wait=3>生きてる<br>うち……<wait=3>会える……<wait=3>だろ……<wait=4>よ……,param=chr_Balagan:Center:BASIC:0:0:0:0:0:0:0:0,#
*,type=HCHR_TK01,param=all:0:0:0:0:0:0:0:0:0:0,#
*,type=HCHR_POS00,param=chr_Balagan:FADEOUT:T$0.1:0:0:0:0:0:0:0:0,#
*,type=STOP,param=0:0:0:0:0:0:0:0:0:0:0,#
*,type=HCHR_FDM00,param=chr_Dewey:MSK$on:0:0:0:0:0:0:0:0:0,#
*,type=HCHR_GRP00,param=chr_Lin:face:do:0:0:0:0:0:0:0:0,#
*,type=HCHR_POS00,param=chr_Dewey:FADEIN:$CHARA_FadeTime:$OFS_Left:0:0:0:0:0:0:0,#
*,type=HCHR_POS00,param=chr_Lin:FADEIN:$CHARA_FadeTime:$OFS_Right:0:0:0:0:0:0:0,#
*,type=STOP,param=0:0:0:0:0:0:0:0:0:0:0,#
*,type=HCHR_TK10,msg=<speed=3>そのエルハザって奴の居場所は!?<wait=3><br>この近くなの!?<wait=3>ねぇっ!!,param=chr_Lin:Right:BASIC:0:0:0:0:0:0:0:0,#
*,type=HCHR_GRP00,param=chr_Loy:face:ai:0:0:0:0:0:0:0:0,#
*,type=HCHR_FDM00,param=chr_Loy:MSK$off:0:0:0:0:0:0:0:0:0,#
*,type=HCHR_POS00,param=chr_Loy:IN$right$40:T$0.5:$OFS_Right_Triple:Z$10:0:0:0:0:0:0,#
*,type=HCHR_POS00,param=chr_Lin:OFS$-120&0:T$0.5:0:0:0:0:0:0:0:0,#
*,type=HCHR_TK01,param=all:skipmask:0:0:0:0:0:0:0:0:0,#
*,type=HCHR_TK10,msg=おい、<wait=1>リン……！<wait=3><br>少し落ち着け。,param=chr_Loy:Right_Triple:BASIC:0:0:0:focusoff:0:0:0:0,#
*,type=HCHR_TK01,param=all:skipmask:0:0:0:0:0:0:0:0:0,#
*,type=HCHR_POS00,param=chr_Loy:FADEOUT:T$0.1:0:0:0:0:0:0:0:0,#
*,type=HCHR_POS00,param=chr_Lin:FADEOUT:T$0.1:0:0:0:0:0:0:0:0,#
*,type=HCHR_POS00,param=chr_Dewey:FADEOUT:T$0.1:0:0:0:0:0:0:0:0,#
*,type=STOP,param=0:0:0:0:0:0:0:0:0:0:0,#
*,type=HCHR_FDM00,param=chr_Seria_ude:MSK$off:0:0:0:0:0:0:0:0:0,#
*,type=HCHR_GRP00,param=chr_Seria_ude:face:bi:0:0:0:0:0:0:0:0,#
*,type=HCHR_POS00,param=chr_Seria_ude:FADEIN:$CHARA_FadeTime:$OFS_Center:0:0:0:0:0:0:0,#
*,type=STOP,param=0:0:0:0:0:0:0:0:0:0:0,#
*,type=HCHR_EFC00,param=Eff_Manp_20:chr_Seria_ude:manpu_1:0:SS5$$MANP_surprise_red_d:0:1:0:0:0:0,#
*,type=WAIT_0000,param=1:0:0:0:0:0:0:0:0:0:0,#
*,type=PICT_0004,param=Eff_Manp_20:0:0:0:0:0:0:0:0:0:0,#
*,type=WAIT_0000,param=0.2:0:0:0:0:0:0:0:0:0:0,#
*,type=HCHR_POS00,param=chr_Seria_ude:FADEOUT:T$0.1:0:0:0:0:0:0:0:0,#
*,type=STOP,param=0:0:0:0:0:0:0:0:0:0:0,#
*,type=HCHR_ENT00,param=chr_Balagan_dead:バラガン:N$chara_bf2_161:$POS_Center:TYPE$middle:Z$10:0:0:0:0:0,#
*,type=HCHR_FDM00,param=chr_Balagan:MSK$off:0:0:0:0:0:0:0:0:0,#
*,type=HCHR_GRP00,param=chr_Balagan:face:ai:0:0:0:0:0:0:0:0,#
*,type=HCHR_POS00,param=chr_Balagan:FADEIN:T$0.5:$OFS_Center:0:0:0:0:0:0:0,#
*,type=WAIT_0000,param=0.6:0:0:0:0:0:0:0:0:0:0,#
*,type=HCHR_FDM00,param=all:MSK$off:0:0:0:0:0:0:0:0:0,#
*,type=HCHR_PRM00,param=chr_Balagan:Z$10:0:0:0:0:0:0:0:0:0,#
*,type=HCHR_POS00,param=chr_Balagan_dead:FADEIN:T$0:$OFS_Center:Z$9:0:0:0:0:0:0,#
*,type=STOP,param=0:0:0:0:0:0:0:0:0:0:0,#
*,type=HCHR_POS00,param=chr_Balagan:FADEOUT:T$3:0:0:0:0:0:0:0:0,#
*,type=CSYN_0000,param=0:0:0:0:0:0:0:0:0:0:0,#
*,type=HCHR_POS00,param=chr_Balagan_dead:FADEOUT:T$1.5:0:0:0:0:0:0:0:0,#
*,type=STOP,param=0:0:0:0:0:0:0:0:0:0:0,#
*,type=WAIT_0000,param=1:0:0:0:0:0:0:0:0:0:0,#
*,type=HCHR_FDM00,param=all:MSK$off:0:0:0:0:0:0:0:0:0,#
*,type=HCHR_POS00,param=chr_Loy:FADEIN:$CHARA_FadeTime:$OFS_Left:Z$10:0:0:0:0:0:0,#
*,type=HCHR_POS00,param=chr_Seria:FADEIN:$CHARA_FadeTime:$OFS_Right:Z$9:0:0:0:0:0:0,#
*,type=STOP,param=0:0:0:0:0:0:0:0:0:0:0,#
*,type=WAIT_0000,param=1:0:0:0:0:0:0:0:0:0:0,#
*,type=HCHR_GRP00,param=chr_SaintcuoreR:face:ai:0:0:0:0:0:0:0:0,#
*,type=HCHR_SHK00,param=chr_SaintcuoreR:0&20:0.5:0.5:FixRange:0:0:0:0:0:0,#
*,type=HCHR_POS00,param=chr_SaintcuoreR:FADEIN:T$0.5:$OFS_Right:Z$11:0:0:0:0:0:0,#
*,type=STOP,param=0:0:0:0:0:0:0:0:0:0:0,#
*,type=WAIT_0000,param=1.5:0:0:0:0:0:0:0:0:0:0,#
*,type=HCHR_FDM00,param=chr_Seria:MSK$on:0.2:0:0:0:0:0:0:0:0,#
*,type=HCHR_TK10,msg=<speed=7>………<wait=1>立ったまま……<wait=1>逝くとは。,param=chr_Loy:Left:BASIC:0:0:0:focusoff:0:0:0:0,#
*,type=HCHR_TK10,msg=敵ながら見上げたものね……,param=chr_Seria:Right:BASIC:0:0:0:0:0:0:0:0,#
*,type=HCHR_TK01,param=all:skipmask:0:0:0:0:0:0:0:0:0,#
*,type=HCHR_POS00,param=chr_SaintcuoreR:FADEOUT:T$0.1:0:0:0:0:0:0:0:0,#
*,type=HCHR_POS00,param=chr_Loy:FADEOUT:T$0.1:0:0:0:0:0:0:0:0,#
*,type=HCHR_POS00,param=chr_Seria:FADEOUT:T$0.1:0:0:0:0:0:0:0:0,#
*,type=STOP,param=0:0:0:0:0:0:0:0:0:0:0,#
*,type=HCHR_FDM00,param=chr_Lin:MSK$off:0:0:0:0:0:0:0:0:0,#
*,type=HCHR_GRP00,param=chr_Dewey:face:ai:0:0:0:0:0:0:0:0,#
*,type=HCHR_GRP00,param=chr_Lin:face:ai:0:0:0:0:0:0:0:0,#
*,type=HCHR_POS00,param=chr_Dewey:FADEIN:$CHARA_FadeTime:$OFS_Left:0:0:0:0:0:0:0,#
*,type=HCHR_POS00,param=chr_Lin:FADEIN:$CHARA_FadeTime:$OFS_Right:0:0:0:0:0:0:0,#
*,type=STOP,param=0:0:0:0:0:0:0:0:0:0:0,#
*,type=HCHR_TK10,msg=<speed=7>先生……<wait=3>ローリさん……,param=chr_Lin:Right:BASIC:0:0:0:0:0:0:0:0,#
*,type=HCHR_TK01,param=all:skipmask:0:0:0:0:0:0:0:0:0,#
*,type=HCHR_POS00,param=chr_Dewey:FADEOUT:T$0.1:0:0:0:0:0:0:0:0,#
*,type=HCHR_POS00,param=chr_Lin:FADEOUT:T$0.1:0:0:0:0:0:0:0:0,#
*,type=STOP,param=0:0:0:0:0:0:0:0:0:0:0,#
*,type=HCHR_FDM00,param=chr_Dragon:MSK$off:0:0:0:0:0:0:0:0:0,#
*,type=HCHR_POS00,param=chr_Dragon:FADEIN:$CHARA_FadeTime:$OFS_Center:0:0:0:0:0:0:0,#
*,type=WAIT_0000,param=0.5:0:0:0:0:0:0:0:0:0:0,#
*,type=HCHR_EFC00,param=Eff_Manp_11:chr_Dragon:manpu_1:0:SS5$$MANP_silence_a:0:1:0:0:0:0,#
*,type=WAIT_0000,param=1.5:0:0:0:0:0:0:0:0:0:0,#
*,type=PICT_0004,param=Eff_Manp_11:0:0:0:0:0:0:0:0:0:0,#
*,type=WAIT_0000,param=0.2:0:0:0:0:0:0:0:0:0:0,#
*,type=HCHR_POS00,param=chr_Dragon:FADEOUT:T$0.1:0:0:0:0:0:0:0:0,#
*,type=STOP,param=0:0:0:0:0:0:0:0:0:0:0,#
*,type=HCHR_FDM00,param=chr_Lin:MSK$off:0:0:0:0:0:0:0:0:0,#
*,type=HCHR_GRP00,param=chr_Lin:face:mu:0:0:0:0:0:0:0:0,#
*,type=HCHR_POS00,param=chr_Dewey:FADEIN:$CHARA_FadeTime:$OFS_Left:0:0:0:0:0:0:0,#
*,type=HCHR_POS00,param=chr_Lin:FADEIN:$CHARA_FadeTime:$OFS_Right:0:0:0:0:0:0:0,#
*,type=STOP,param=0:0:0:0:0:0:0:0:0:0:0,#
*,type=HCHR_TK10,msg=……うん。<wait=3>そうだね。<wait=3><br><rep_handlename>の言う通り,param=chr_Lin:Right:BASIC:0:0:0:0:0:0:0:0,#
*,type=HCHR_TK10,msg=あいつの話で、<wait=1>先生たちが<br>まだ生きてるって確信できた！,param=chr_Lin:Right:BASIC:0:0:0:0:0:0:0:0,#
*,type=HCHR_GRP00,param=chr_Lin:face:fu:0:0:0:0:0:0:0:0,#
*,type=HCHR_TK10,msg=先生の剣は<rep_handlename>が持っていて。<wait=3><br>私はローリさんの剣を預かっておくから。,param=chr_Lin:Right:BASIC:0:0:0:0:0:0:0:0,#
*,type=HCHR_GRP00,param=chr_Dewey:face:fu:0:0:0:0:0:0:0:0,#
*,type=HCHR_TK10,msg=みんなを助け出すことができたら<wait=1><br>ふたりで一緒に返そうね！,param=chr_Lin:Right:BASIC:0:0:0:0:0:0:0:0,#
*,type=HCHR_TK01,param=all:skipmask:0:0:0:0:0:0:0:0:0,#
*,type=HCHR_POS00,param=chr_Dewey:FADEOUT:T$0.1:0:0:0:0:0:0:0:0,#
*,type=HCHR_POS00,param=chr_Lin:FADEOUT:T$0.1:0:0:0:0:0:0:0:0,#
*,type=STOP,param=0:0:0:0:0:0:0:0:0:0:0,#
*,type=HCHR_FDM00,param=chr_Dragon:MSK$off:0:0:0:0:0:0:0:0:0,#
*,type=HCHR_GRP00,param=chr_Dragon:face:ki:0:0:0:0:0:0:0:0,#
*,type=HCHR_POS00,param=chr_Dragon:FADEIN:$CHARA_FadeTime:$OFS_Center:0:0:0:0:0:0:0,#
*,type=WAIT_0000,param=0.5:0:0:0:0:0:0:0:0:0:0,#
*,type=HCHR_SHK00,param=chr_Dragon:0&16:0.6:0.6:FixRange&NoRandom:0:0:0:0:0:0,#
*,type=WAIT_0000,param=1.4:0:0:0:0:0:0:0:0:0:0,#
*,type=MSKS_0000,param=bgBlackMask:$BGBLACK_Color:0:Z$40:T$3.5:0:0:0:0:0:0,#
*,type=BGM_0001,param=3.5:0:0:0:0:0:0:0:0:0:0,#
*,type=STOP,param=0:0:0:0:0:0:0:0:0:0:0,#
*,type=WAIT_0000,param=1:0:0:0:0:0:0:0:0:0:0,#
*,type=BGM_0000,param=57:0:0:0:0:0:0:0:0:0:0,#
*,type=HCHR_POS00,param=chr_Dragon:FADEOUT:T$0:0:0:0:0:0:0:0:0,#
*,type=HCHR_ENT00,param=chr_Mehlfel:メルフェル:N$chara_bf2_146:P$320&1670:TYPE$middle:Z$41:0:0:0:0:0,#
*,type=HCHR_GRP00,param=chr_Mehlfel:face:fuma:0:0:0:0:0:0:0:0,#
*,type=HCHR_FDM00,param=chr_Mehlfel:MSK$on:0.3:0:0:0:0:0:0:0:0,#
*,type=WAIT_0000,param=0.8:0:0:0:0:0:0:0:0:0:0,#
*,type=HCHR_SHK00,param=chr_Mehlfel:18&0:0.4:0.8:FixRange&NoRandom:0:0:0:0:0:0,#
*,type=HCHR_POS00,param=chr_Mehlfel:IN$bottom$30:T$1:$OFS_Center:0:0:0:0:0:0:0,#
*,type=HCHR_FDM00,param=chr_Mehlfel:MSK$off:1:0:0:0:0:0:0:0:0,#
*,type=WAIT_0000,param=1.2:0:0:0:0:0:0:0:0:0:0,#
*,type=HCHR_TK10,msg=<speed=7>バラガン……！</speed><wait=3><br>最期に余計なことをしてくれましたネ。,param=chr_Mehlfel:Center_under:SP:0:0:0:0:0:0:0:0,#
*,type=HCHR_GRP00,param=chr_Mehlfel:face:mu:0:0:0:0:0:0:0:0,#
*,type=HCHR_TK10,msg=……でも、<wait=1>ここで離脱してくれて<br>却って良かったかもしれません。,param=chr_Mehlfel:Center_under:SP:0:0:0:0:0:0:0:0,#
*,type=HCHR_TK10,msg=残る四鬼はワタクシだけ……<wait=3><br>ますます頑張りませんと。,param=chr_Mehlfel:Center_under:SP:0:0:0:0:0:0:0:0,#
*,type=HCHR_GRP00,param=chr_Mehlfel:face:ki2:0:0:0:0:0:0:0:0,#
*,type=HCHR_TK10,msg=<speed=7>全ては……<wait=3><speed=7>エルハザ様のために。,param=chr_Mehlfel:Center_under:SP:0:0:0:0:0:0:0:0,#
*,type=HCHR_TK01,param=all:0:0:0:0:0:0:0:0:0:0,#
*,type=FADEOUT_000,param=2:$BGBLACK_Color:0:0:0:0:0:0:0:0:0,#
*,type=BGM_0001,param=2:0:0:0:0:0:0:0:0:0:0,#
*,type=WAIT_0000,param=2.5:0:0:0:0:0:0:0:0:0:0,#
*,type=HCHR_POS00,param=chr_Mehlfel:FADEOUT:T$0:0:0:0:0:0:0:0:0,#
*,type=SE_0000,param=10:0:0:0:0:0:0:0:0:0:0,#
*,type=FMSG_0000,msg=武器<color=00FFFF><b>「蒼誓煌剣アステローグ」</b></color>と<br><color=FF0000><b>「紅誓燿剣アステマイア」</b></color>を手に入れた！,param=System:$System20:0:0:0:0:0:0:0:0:0,#
*,type=FMSG_0001,param=System:skipmask:0:0:0:0:0:0:0:0:0,#
*,type=WAIT_0000,param=1:0:0:0:0:0:0:0:0:0:0,#
*,type=CLSNE_0000,param=0:0:0:0:0:0:0:0:0:0:0,#

*,type=SYSED_00,param=0:0:0:0:0:0:0:0:0:0:0,#



