﻿ScriptCmd ver 1.1.1(app1.0.4):スクリプト_05_2_魔城_dungeon5.xlsm/main009-dungeon5-4a/main009-dungeon5-4a.csv

*,type=SYSST_00,param=0:0:0:0:0:0:0:0:0:0:0,#
*,type=CMD_STOP,param=0:0:0:0:0:0:0:0:0:0:0,#
*,type=SYSST_01,param=0:0:0:0:0:0:0:0:0:0:0,#


*,type=PICT_0000,param=bg_01:battle_bg_013_04.jpg:1:bg$1050504:0:0:0:2:0:0:0,#
*,type=BGM_0000,param=58:0:0:0:0:0:0:0:0:0:0,#
*,type=FADEIN_000,param=1.5:00&00&00:0:0:0:0:0:0:0:0:0,#
*,type=WAIT_0000,param=2.5:0:0:0:0:0:0:0:0:0:0,#
*,type=HCHR_ENT00,param=chr_Lin:リン:N$chara_bf2_25:$POS_Center:TYPE$middle:Z$10&10:0:0:0:0:0,#
*,type=HCHR_ENT00,param=chr_Loy:ロイ:N$chara_bf2_28:$POS_Center:TYPE$middle:Z$10&10:0:0:0:0:0,#
*,type=HCHR_ENT00,param=chr_Sarsha:サーシャ:N$chara_bf2_1:$POS_Center:TYPE$middle:Z$10&10:0:0:0:0:0,#
*,type=HCHR_ENT00,param=chr_Noel:ノエル:N$chara_bf2_31_m:$POS_Monitor_Center:TYPE$middle:Z$5&5:0:0:0:0:0,#
*,type=HCHR_ENT00,param=chr_Dragon:<rep_myguardian>:N$tame_dragon_03:$POS_Center:TYPE$middle:Z$10:0:0:0:0:0,#
*,type=STOP,param=0:0:0:0:0:0:0:0:0:0:0,#
*,type=HCHR_GRP00,param=chr_Loy:face:ki:$FACE_FadeTime:0:0:0:0:0:0:0,#
*,type=HCHR_POS00,param=chr_Loy:FADEIN:T$0.5:$OFS_Center:0:0:0:0:0:0:0,#
*,type=WAIT_0000,param=1:0:0:0:0:0:0:0:0:0:0,#
*,type=HCHR_TK10,msg=ふぅ、<wait=1>ノエルさんは手ごわかったな……！,param=chr_Loy:Center:BASIC:0:0:0:0:0:0:0:0,#
*,type=HCHR_TK01,param=all:0:0:0:0:0:0:0:0:0:0,#
*,type=HCHR_POS00,param=chr_Loy:FADEOUT:T$0.1:0:0:0:0:0:0:0:0,#
*,type=STOP,param=0:0:0:0:0:0:0:0:0:0:0,#
*,type=HCHR_GRP00,param=chr_Sarsha:face:ai:$FACE_FadeTime:0:0:0:0:0:0:0,#
*,type=HCHR_POS00,param=chr_Sarsha:FADEIN:$CHARA_FadeTime:$OFS_Center:0:0:0:0:0:0:0,#
*,type=WAIT_0000,param=0.3:0:0:0:0:0:0:0:0:0:0,#
*,type=HCHR_EFC00,param=Eff_Manp_29:chr_Sarsha:manpu_1:0:SS5$$MANP_sweat_a:0:1:0:0:0:0,#
*,type=HCHR_TK10,msg=ロイさん……,param=chr_Sarsha:Center:BASIC:0:0:0:0:0:0:0:0,#
*,type=HCHR_TK01,param=all:0:0:0:0:0:0:0:0:0:0,#
*,type=PICT_0004,param=Eff_Manp_29:0:0:0:0:0:0:0:0:0:0,#
*,type=WAIT_0000,param=0.2:0:0:0:0:0:0:0:0:0:0,#
*,type=HCHR_GRP00,param=chr_Sarsha:face:bi:$FACE_FadeTime:0:0:0:0:0:0:0,#
*,type=SE_0000,param=375:0:0:0:0:0:0:0:0:0:0,#
*,type=WAIT_0000,param=1.2:0:0:0:0:0:0:0:0:0:0,#
*,type=HCHR_TK10,msg=あ、<wait=1>召喚院から通信です。,param=chr_Sarsha:Center:BASIC:0:0:0:0:0:0:0:0,#
*,type=HCHR_TK01,param=all:0:0:0:0:0:0:0:0:0:0,#
*,type=HCHR_POS00,param=chr_Sarsha:FADEOUT:T$0.1:0:0:0:0:0:0:0:0,#
*,type=STOP,param=0:0:0:0:0:0:0:0:0:0:0,#
*,type=HCHR_GRP00,param=chr_Loy:face:emi:$FACE_FadeTime:0:0:0:0:0:0:0,#
*,type=HCHR_POS00,param=chr_Loy:FADEIN:$CHARA_FadeTime:$OFS_Right:0:0:0:0:0:0:0,#
*,type=WAIT_0000,param=0.3:0:0:0:0:0:0:0:0:0:0,#
*,type=HCHR_TK10,msg=カル様かな。<wait=3><br>繋いでくれ。,param=chr_Loy:Right:BASIC:0:0:0:0:0:0:0:0,#
*,type=HCHR_TK01,param=all:0:0:0:0:0:0:0:0:0:0,#
*,type=WAIT_0000,param=0.2:0:0:0:0:0:0:0:0:0:0,#
*,type=SE_0000,param=376:0:0:0:0:0:0:0:0:0:0,#
*,type=SS5_0000,param=SS_monitor:script_monitor.ssbp:script_monitor/anime:script_monitor/anime:7:$Monitor_Left:$Monitor_Y:1:0:0:0,#
*,type=SS5_0000,param=SS_monitorBG:script_monitor.ssbp:script_monitor_back/anime:script_monitor_back/anime:4:$Monitor_Left:$Monitor_Y:1:0:0:0,#
*,type=WAIT_0000,param=0.5:0:0:0:0:0:0:0:0:0:0,#
*,type=HCHR_POS00,param=chr_Noel:FADEIN:$CHARA_FadeTime:$OFS_Left:0:0:0:0:0:0:0,#
*,type=HCHR_FDM00,param=chr_Loy:MSK$on:0.3:0:0:0:0:0:0:0:0,#
*,type=WAIT_0000,param=0.5:0:0:0:0:0:0:0:0:0:0,#
*,type=HCHR_TK10,msg=そっちの様子はどう？,param=chr_Noel:Left:BASIC:0:0:0:0:0:0:0:0,#
*,type=HCHR_GRP00,param=chr_Loy:face:bi:$FACE_FadeTime:0:0:0:0:0:0:0,#
*,type=HCHR_TK10,msg=ノ、<wait=1>ノノノノエルさんッ!?,param=chr_Loy:Right:BASIC:0:nowait:0:0:0:0:0:0,#
*,type=WAIT_0000,param=0.3:0:0:0:0:0:0:0:0:0:0,#
*,type=SE_0000,param=345:0:0:0:0:0:0:0:0:0:0,#
*,type=HCHR_SHK00,param=chr_Loy:3:0.04:0.7:0:0:0:0:0:0:0,#
*,type=HCHR_POS00,param=chr_Loy:IN$left$90:T$0.3:$OFS_Right_Triple:0:0:0:0:0:0:0,#
*,type=CSYN_0002,param=0:0:0:0:0:0:0:0:0:0:0,#
*,type=STOP,param=0:0:0:0:0:0:0:0:0:0:0,#
*,type=HCHR_TK10,msg=……何かあったのかい。,param=chr_Noel:Left:BASIC:0:0:0:0:0:0:0:0,#
*,type=HCHR_TK01,param=all:0:0:0:0:0:0:0:0:0:0,#
*,type=HCHR_POS00,param=chr_Loy:IN$right$90:T$0.15:$OFS_Right:0:0:0:0:0:0:0,#
*,type=HCHR_GRP00,param=chr_Loy:face:ks:$FACE_FadeTime:0:0:0:0:0:0:0,#
*,type=HCHR_TK10,msg=ななな、<wait=1><speed=3>何もありませんよ!?,param=chr_Loy:Right:BASIC:0:0:0:0:0:0:0:0,#
*,type=HCHR_TK10,msg=……怪しいな。,param=chr_Noel:Left:BASIC:0:0:0:0:0:0:0:0,#
*,type=HCHR_TK10,msg=敵の妙な術に引っ掛かったり<br>してないだろうね。,param=chr_Noel:Left:BASIC:0:0:0:0:0:0:0:0,#
*,type=HCHR_TK10,msg=だっ、<wait=1>大丈夫ですよ！,param=chr_Loy:Right:BASIC:0:0:0:0:0:0:0:0,#
*,type=HCHR_TK01,param=all:skipmask:0:0:0:0:0:0:0:0:0,#
*,type=HCHR_POS00,param=chr_Noel:FADEOUT:$CHARA_FadeTime:0:0:0:0:0:0:0:0,#
*,type=HCHR_POS00,param=chr_Loy:FADEOUT:$CHARA_FadeTime:0:0:0:0:0:0:0:0,#
*,type=WAIT_0000,param=0.3:0:0:0:0:0:0:0:0:0:0,#
*,type=SS5_0001,param=SS_monitor:0:0:0:0:0:0:0:0:0:0,#
*,type=SS5_0001,param=SS_monitorBG:0:0:0:0:0:0:0:0:0:0,#
*,type=HCHR_FDM00,param=chr_Sarsha:MSK$on:0:0:0:0:0:0:0:0:0,#
*,type=HCHR_FDM00,param=chr_Lin:MSK$off:0:0:0:0:0:0:0:0:0,#
*,type=HCHR_GRP00,param=chr_Lin:face:ki:0:0:0:0:0:0:0:0,#
*,type=HCHR_GRP00,param=chr_Sarsha:face:fu:0:0:0:0:0:0:0:0,#
*,type=STOP,param=0:0:0:0:0:0:0:0:0:0:0,#
*,type=HCHR_POS00,param=chr_Lin:FADEIN:$CHARA_FadeTime:$OFS_Left:Z$11:0:0:0:0:0:0,#
*,type=HCHR_POS00,param=chr_Sarsha:FADEIN:$CHARA_FadeTime:$OFS_Right:Z$10:0:0:0:0:0:0,#
*,type=WAIT_0000,param=0.3:0:0:0:0:0:0:0:0:0:0,#
*,type=HCHR_TK10,msg=そうよ、<wait=1>全然平気！,param=chr_Lin:Left:BASIC:0:0:0:0:0:0:0:0,#
*,type=HCHR_TK10,msg=今も、<wait=1>召喚されたノエルさんを<br>ぶっ飛ばして――,param=chr_Lin:Left:BASIC:0:0:0:0:0:0:0:0,#
*,type=HCHR_TK01,param=all:skipmask:0:0:0:0:0:0:0:0:0,#
*,type=HCHR_FDM00,param=chr_Lin:MSK$on:0.1:0:0:0:0:0:0:0:0,#
*,type=HCHR_FDM00,param=chr_Sarsha:MSK$off:0.1:0:0:0:0:0:0:0:0,#
*,type=HCHR_GRP00,param=chr_Sarsha:face:bi:$FACE_FadeTime:0:0:0:0:0:0:0,#
*,type=HCHR_TK10,msg=ちょっ…<wait=1><speed=2>リン!!,param=chr_Sarsha:Right:BASIC:0:nowait:0:focusoff:0:0:OFS$-80&0:0,#
*,type=HCHR_POS00,param=chr_Sarsha:IN$right$100:T$0.15:OFS$60&0:Z$10:0:0:0:0:0:0,#
*,type=HCHR_GRP00,param=chr_Lin:face:bi:$FACE_FadeTime:0:0:0:0:0:0:0,#
*,type=CSYN_0002,param=0:0:0:0:0:0:0:0:0:0:0,#
*,type=HCHR_TK10,msg=え？,param=chr_Lin:Left:BASIC:0:0:0:0:0:0:0:0,#
*,type=HCHR_TK01,param=all:skipmask:0:0:0:0:0:0:0:0:0,#
*,type=HCHR_POS00,param=chr_Sarsha:FADEOUT:$CHARA_FadeTime:0:0:0:0:0:0:0:0,#
*,type=HCHR_POS00,param=chr_Lin:FADEOUT:$CHARA_FadeTime:0:0:0:0:0:0:0:0,#
*,type=WAIT_0000,param=0.3:0:0:0:0:0:0:0:0:0:0,#
*,type=HCHR_FDM00,param=chr_Lin:MSK$on:0:0:0:0:0:0:0:0:0,#
*,type=HCHR_FDM00,param=chr_Noel:MSK$off:0:0:0:0:0:0:0:0:0,#
*,type=HCHR_GRP00,param=chr_Noel:face:emi:0:0:0:0:0:0:0:0,#
*,type=HCHR_GRP00,param=chr_Lin:face:fu:0:0:0:0:0:0:0:0,#
*,type=STOP,param=0:0:0:0:0:0:0:0:0:0:0,#
*,type=SS5_0000,param=SS_monitor:script_monitor.ssbp:script_monitor_closeonly/anime:script_monitor_closeonly/anime:7:$Monitor_Left:$Monitor_Y:1:0:0:0,#
*,type=SS5_0000,param=SS_monitorBG:script_monitor.ssbp:script_monitor_closeonly_back/anime:script_monitor_closeonly_back/anime:4:$Monitor_Left:$Monitor_Y:1:0:0:0,#
*,type=HCHR_POS00,param=chr_Noel:FADEIN:$CHARA_FadeTime:$OFS_Left:0:0:0:0:0:0:0,#
*,type=HCHR_POS00,param=chr_Lin:FADEIN:$CHARA_FadeTime:$OFS_Right:0:0:0:0:0:0:0,#
*,type=WAIT_0000,param=0.3:0:0:0:0:0:0:0:0:0:0,#
*,type=HCHR_TK10,msg=俺をぶっ飛ばす……？<wait=3><br>詳しく説明してくれるかな。,param=chr_Noel:Left:BASIC:0:0:0:0:0:0:0:0,#
*,type=HCHR_GRP00,param=chr_Lin:face:ki:$FACE_FadeTime:0:0:0:0:0:0:0,#
*,type=HCHR_TK10,msg=あっ、<wait=1>うん！,param=chr_Lin:Right:BASIC:0:0:0:0:0:0:0:0,#
*,type=HCHR_GRP00,param=chr_Lin:face:fu:$FACE_FadeTime:0:0:0:0:0:0:0,#
*,type=HCHR_TK10,msg=メルフェルが人型召喚兵器を使って<br>サーシャたちの仲間を召喚したの。,param=chr_Lin:Right:BASIC:0:0:0:0:0:0:0:0,#
*,type=HCHR_TK10,msg=それをロイさんが率先して――<wait=3><ctag=CHRCHG_PT:chr_Lin:face:bi:-><speed=0>ムグッ!?,param=chr_Lin:Right:BASIC:0:nowait:0:0:0:0:0:0,#
*,type=CSYN_0001,param=0:0:0:0:0:0:0:0:0:0:0,#
*,type=HCHR_GRP00,param=chr_Dragon:face:bi:$FACE_FadeTime:0:0:0:0:0:0:0,#
*,type=HCHR_POS00,param=chr_Dragon:IN$right$160:T$0.2:$OFS_Right:Z$5:0:0:0:0:0:0,#
*,type=HCHR_SHK00,param=chr_Lin:5:0.04:0.3:0:0:0:0:0:0:0,#
*,type=CSYN_0002,param=0:0:0:0:0:0:0:0:0:0:0,#
*,type=STOP,param=0:0:0:0:0:0:0:0:0:0:0,#
*,type=HCHR_TK01,param=all:skipmask:0:0:0:0:0:0:0:0:0,#
*,type=HCHR_GRP00,param=chr_Noel:face:fu:$FACE_FadeTime:0:0:0:0:0:0:0,#
*,type=HCHR_ENT00,param=chr_Lin2:リン:N$chara_bf2_25:$POS_Center:TYPE$middle:Z$10:0:0:0:0:0,#
*,type=HCHR_GRP00,param=chr_Lin2:face:bi:0:0:0:0:0:0:0:0,#
*,type=WAIT_0000,param=0.2:0:0:0:0:0:0:0:0:0:0,#
*,type=HCHR_SHK00,param=chr_Lin:4:0.04:0.6:0:0:0:0:0:0:0,#
*,type=HCHR_TK10,msg=ムグ！<wait=1>ムグムグムグ!!,param=chr_Lin:Right:BASIC:0:nowait:0:0:0:0:0:0,#
*,type=HCHR_TK10,msg=（<rep_handlename>！<wait=1>何するの!!）,param=chr_Lin2:Right:NOTAIL:0:0:0:focusoff:0:0:OFS$0&80:0,#
*,type=WAIT_0000,param=0.2:0:0:0:0:0:0:0:0:0:0,#
*,type=HCHR_SHK00,param=chr_Lin:6:0.06:1:0:0:0:0:0:0:0,#
*,type=HCHR_TK10,msg=<speed=7>ムグムグムグ～ッ!?,param=chr_Lin:Right:BASIC:0:nowait:0:0:0:0:0:0,#
*,type=HCHR_TK10,msg=（話がこじれるから黙ってろですって～!?）,param=chr_Lin2:Right:NOTAIL:0:0:0:focusoff:0:0:OFS$0&80:0,#
*,type=HCHR_TK01,param=all:skipmask:0:0:0:0:0:0:0:0:0,#
*,type=HCHR_ENT01,param=chr_Lin2:0:0:0:0:0:0:0:0:0:0,#
*,type=HCHR_SHK00,param=chr_Lin:6:0.06:0.5:0:0:0:0:0:0:0,#
*,type=HCHR_POS00,param=chr_Lin:OUT$right:T$0.6:0:0:0:0:0:0:0:0,#
*,type=HCHR_POS00,param=chr_Dragon:OUT$right:T$0.6:0:0:0:0:0:0:0:0,#
*,type=HCHR_FDM00,param=chr_Lin:MSK$on:0.6:0:0:0:0:0:0:0:0,#
*,type=HCHR_FDM00,param=chr_Dragon:MSK$on:0.6:0:0:0:0:0:0:0:0,#
*,type=HCHR_FDM00,param=chr_Noel:MSK$off:0.6:0:0:0:0:0:0:0:0,#
*,type=WAIT_0000,param=0.7:0:0:0:0:0:0:0:0:0:0,#
*,type=HCHR_GRP00,param=chr_Sarsha:face:ai:0:0:0:0:0:0:0:0,#
*,type=HCHR_POS00,param=chr_Sarsha:FADEIN:T$0.3:$OFS_Right:0:0:0:0:0:0:0,#
*,type=HCHR_TK10,msg=……サーシャ、<wait=1>代わりに頼む。,param=chr_Noel:Left:BASIC:0:0:0:0:0:0:0:0,#
*,type=HCHR_TK10,msg=はい……,param=chr_Sarsha:Right:BASIC:0:0:0:0:0:0:0:0,#
*,type=FADEOUT_000,param=1.2:$BGBLACK_Color:0:0:0:0:0:0:0:0:0,#
*,type=WAIT_0000,param=2:0:0:0:0:0:0:0:0:0:0,#
*,type=HCHR_TK01,param=all:0:0:0:0:0:0:0:0:0:0,#
*,type=HCHR_FDM00,param=chr_Sarsha:MSK$on:0:0:0:0:0:0:0:0:0,#
*,type=FADEIN_000,param=1.2:$BGBLACK_Color:0:0:0:0:0:0:0:0:0,#
*,type=WAIT_0000,param=1.5:0:0:0:0:0:0:0:0:0:0,#
*,type=HCHR_TK10,msg=……なるほどね。,param=chr_Noel:Left:BASIC:0:0:0:0:0:0:0:0,#
*,type=HCHR_GRP00,param=chr_Noel:face:emi:$FACE_FadeTime:0:0:0:0:0:0:0,#
*,type=HCHR_TK10,msg=ロイが嬉々として、<wait=1>俺を殴っていたことは<br>ひとまず置いておいて……,param=chr_Noel:Left:BASIC:0:0:0:0:0:0:0:0,#
*,type=HCHR_TK01,param=all:skipmask:0:0:0:0:0:0:0:0:0,#
*,type=HCHR_POS00,param=chr_Sarsha:FADEOUT:T$0.3:0:Z$10:0:0:0:0:0:0,#
*,type=HCHR_FDM00,param=chr_Noel:MSK$on:0.3:0:0:0:0:0:0:0:0,#
*,type=HCHR_POS00,param=chr_Loy:FADEIN:T$0.3:$OFS_Right:Z$11:0:0:0:0:0:0,#
*,type=HCHR_FDM00,param=chr_Loy:MSK$off:0.3:0:0:0:0:0:0:0:0,#
*,type=WAIT_0000,param=0.3:0:0:0:0:0:0:0:0:0:0,#
*,type=HCHR_EFC00,param=Eff_Manp_29:chr_Loy:manpu_1:0:SS5$$MANP_sweat_a:0:1:0:0:0:0,#
*,type=WAIT_0000,param=0.5:0:0:0:0:0:0:0:0:0:0,#
*,type=HCHR_TK10,msg=い、<wait=1>言い方に少々語弊が……,param=chr_Loy:Right:BASIC:0:0:0:0:0:0:0:0,#
*,type=PICT_0004,param=Eff_Manp_29:0:0:0:0:0:0:0:0:0:0,#
*,type=HCHR_GRP00,param=chr_Noel:face:fu:$FACE_FadeTime:0:0:0:0:0:0:0,#
*,type=HCHR_TK10,msg=メルフェルは、<wait=1>今の君たちにとって<br>とても相性が悪い相手かもしれないね。,param=chr_Noel:Left:BASIC:0:0:0:0:0:0:0:0,#
*,type=HCHR_GRP00,param=chr_Loy:face:fu:$FACE_FadeTime:0:0:0:0:0:0:0,#
*,type=HCHR_TK10,msg=……かといって、<wait=1>別行動中のヨシュアたちと<br>合流するまで待機というわけにもいかない。,param=chr_Noel:Left:BASIC:0:0:0:0:0:0:0:0,#
*,type=HCHR_TK10,msg=ネグレスお抱えの召喚兵器については<br>こっちでも対策を考えてみるよ。,param=chr_Noel:Left:BASIC:0:0:0:0:0:0:0:0,#
*,type=HCHR_TK10,msg=今の俺が言えるのは、<wait=1>こんな状況こそ<br>焦らず慎重に進んでってことぐらいかな。,param=chr_Noel:Left:BASIC:0:0:0:0:0:0:0:0,#
*,type=HCHR_TK10,msg=奴が仲間同士の繋がりを<br>更に揺さぶってくることも考えられるしね。,param=chr_Noel:Left:BASIC:0:0:0:0:0:0:0:0,#
*,type=HCHR_TK01,param=all:skipmask:0:0:0:0:0:0:0:0:0,#
*,type=HCHR_POS00,param=chr_Noel:FADEOUT:$CHARA_FadeTime:0:0:0:0:0:0:0:0,#
*,type=HCHR_POS00,param=chr_Loy:FADEOUT:$CHARA_FadeTime:0:0:0:0:0:0:0:0,#
*,type=WAIT_0000,param=0.3:0:0:0:0:0:0:0:0:0:0,#
*,type=SS5_0001,param=SS_monitor:0:0:0:0:0:0:0:0:0:0,#
*,type=SS5_0001,param=SS_monitorBG:0:0:0:0:0:0:0:0:0:0,#
*,type=STOP,param=0:0:0:0:0:0:0:0:0:0:0,#
*,type=HCHR_FDM00,param=chr_Lin:MSK$off:0:0:0:0:0:0:0:0:0,#
*,type=HCHR_GRP00,param=chr_Lin:face:ki:0:0:0:0:0:0:0:0,#
*,type=HCHR_POS00,param=chr_Lin:FADEIN:$CHARA_FadeTime:$OFS_Center:0:0:0:0:0:0:0,#
*,type=WAIT_0000,param=0.3:0:0:0:0:0:0:0:0:0:0,#
*,type=HCHR_TK10,msg=それなら大丈夫よね、<wait=1><rep_handlename>！<br>なんたって私たちは“絆”のプロだもの。,param=chr_Lin:Center:BASIC:0:0:0:0:0:0:0:0,#
*,type=HCHR_TK01,param=all:0:0:0:0:0:0:0:0:0:0,#
*,type=HCHR_POS00,param=chr_Lin:FADEOUT:$CHARA_FadeTime:0:0:0:0:0:0:0:0,#
*,type=WAIT_0000,param=0.3:0:0:0:0:0:0:0:0:0:0,#
*,type=HCHR_GRP00,param=chr_Noel:face:emi:0:0:0:0:0:0:0:0,#
*,type=HCHR_FDM00,param=chr_Loy:MSK$on:0:0:0:0:0:0:0:0:0,#
*,type=STOP,param=0:0:0:0:0:0:0:0:0:0:0,#
*,type=SS5_0000,param=SS_monitor:script_monitor.ssbp:script_monitor_closeonly/anime:script_monitor_closeonly/anime:7:$Monitor_Left:$Monitor_Y:1:0:0:0,#
*,type=SS5_0000,param=SS_monitorBG:script_monitor.ssbp:script_monitor_closeonly_back/anime:script_monitor_closeonly_back/anime:4:$Monitor_Left:$Monitor_Y:1:0:0:0,#
*,type=HCHR_POS00,param=chr_Noel:FADEIN:$CHARA_FadeTime:$OFS_Left:0:0:0:0:0:0:0,#
*,type=HCHR_POS00,param=chr_Loy:FADEIN:$CHARA_FadeTime:$OFS_Right:0:0:0:0:0:0:0,#
*,type=WAIT_0000,param=0.3:0:0:0:0:0:0:0:0:0:0,#
*,type=HCHR_TK10,msg=その言葉を信じてるよ。<wait=3><br>それじゃ、<wait=1>何かあったらまた報告よろしく。,param=chr_Noel:Left:BASIC:0:0:0:0:0:0:0:0,#
*,type=HCHR_TK01,param=all:skipmask:0:0:0:0:0:0:0:0:0,#
*,type=HCHR_POS00,param=chr_Noel:FADEOUT:$CHARA_FadeTime:0:0:0:0:0:0:0:0,#
*,type=STOP,param=0:0:0:0:0:0:0:0:0:0:0,#
*,type=SS5_0004,param=SS_monitor:JMP1:OFF:0:0:0:0:0:0:0:0,#
*,type=SS5_0004,param=SS_monitorBG:JMP1:OFF:0:0:0:0:0:0:0:0,#
*,type=WAIT_0000,param=0.3:0:0:0:0:0:0:0:0:0:0,#
*,type=HCHR_FDM00,param=chr_Loy:MSK$off:0.3:0:0:0:0:0:0:0:0,#
*,type=WAIT_0000,param=0.3:0:0:0:0:0:0:0:0:0:0,#
*,type=HCHR_GRP00,param=chr_Loy:face:ai:$FACE_FadeTime:0:0:0:0:0:0:0,#
*,type=HCHR_TK10,msg=はぁ……<wait=3><br>ノエルさん、<wait=1>怒ってたかな……,param=chr_Loy:Right:BASIC:0:0:0:0:0:0:0:0,#
*,type=HCHR_TK01,param=all:0:0:0:0:0:0:0:0:0:0,#
*,type=ZIN_0000,param=1:100:0:0:0:1:0:0:0:0:0,#
*,type=HCHR_POS00,param=chr_Loy:IN$right$410:T$1:OFS$-250&0:Z$12:0:0:0:0:0:0,#
*,type=HCHR_FDM00,param=chr_Loy:MSK$on:1:0:0:0:0:0:0:0:0,#
*,type=WAIT_0000,param=1:0:0:0:0:0:0:0:0:0:0,#
*,type=HCHR_GRP00,param=chr_Lin:face:bi:0:0:0:0:0:0:0:0,#
*,type=HCHR_GRP00,param=chr_Sarsha:face:ai:0:0:0:0:0:0:0:0,#
*,type=HCHR_POS00,param=chr_Lin:FADEIN:$CHARA_FadeTime:OFS$220&0:Z$10:0:0:0:0:0:0,#
*,type=HCHR_POS00,param=chr_Sarsha:FADEIN:$CHARA_FadeTime:OFS$320&0:Z$11:0:0:0:0:0:0,#
*,type=HCHR_FDM00,param=chr_Sarsha:MSK$on:0:0:0:0:0:0:0:0:0,#
*,type=WAIT_0000,param=0.8:0:0:0:0:0:0:0:0:0:0,#
*,type=HCHR_FDM00,param=chr_Sarsha:MSK$on:0.1:0:0:0:0:0:0:0:0,#
*,type=HCHR_TK10,msg=<size=20>ねぇ……<wait=2>ロイさん、<wait=1>どうしちゃったの？,param=chr_Lin:Right_Triple:BASIC:0:0:0:focusoff:0:0:0:0,#
*,type=HCHR_TK01,param=all:skipmask:0:0:0:0:0:0:0:0:0,#
*,type=HCHR_FDM00,param=chr_Lin:MSK$on:0.1:0:0:0:0:0:0:0:0,#
*,type=HCHR_FDM00,param=chr_Sarsha:MSK$off:0.1:0:0:0:0:0:0:0:0,#
*,type=HCHR_TK10,msg=<size=20>色々あって、<wait=1>ノエルさんにだけは<br>頭が上がらないみたいなの。,param=chr_Sarsha:Right_Triple:BASIC:0:0:0:focusoff:0:0:OFS$70&0:0,#
*,type=HCHR_TK01,param=all:skipmask:0:0:0:0:0:0:0:0:0,#
*,type=HCHR_FDM00,param=chr_Sarsha:MSK$on:0.1:0:0:0:0:0:0:0:0,#
*,type=HCHR_FDM00,param=chr_Lin:MSK$off:0.1:0:0:0:0:0:0:0:0,#
*,type=HCHR_GRP00,param=chr_Lin:face:fu:$FACE_FadeTime:0:0:0:0:0:0:0,#
*,type=HCHR_TK10,msg=<size=20>へぇ……<wait=2>ロイさんにも<br>そういう人はいるんだ。,param=chr_Lin:Right_Triple:BASIC:0:0:0:focusoff:0:0:0:0,#
*,type=HCHR_GRP00,param=chr_Lin:face:ki:$FACE_FadeTime:0:0:0:0:0:0:0,#
*,type=HCHR_TK10,msg=<size=20><rep_handlename>、<wait=1>なんか面白そうだから<br>何があったのか今度聞いてみよ♪,param=chr_Lin:Right_Triple:BASIC:0:0:0:focusoff:0:0:0:0,#
*,type=HCHR_TK01,param=all:skipmask:0:0:0:0:0:0:0:0:0,#
*,type=ZIN_0000,param=1:0:0:0:0:1:0:0:0:0:0,#
*,type=HCHR_POS00,param=chr_Sarsha:FADEOUT:$CHARA_FadeTime:0:0:0:0:0:0:0:0,#
*,type=HCHR_POS00,param=chr_Lin:FADEOUT:$CHARA_FadeTime:0:0:0:0:0:0:0:0,#
*,type=HCHR_GRP00,param=chr_Loy:face:fu:$FACE_FadeTime:0:0:0:0:0:0:0,#
*,type=HCHR_POS00,param=chr_Loy:IN$left$250:T$1:$OFS_Center:Z$15:0:0:0:0:0:0,#
*,type=HCHR_FDM00,param=chr_Loy:MSK$off:1:0:0:0:0:0:0:0:0,#
*,type=WAIT_0000,param=1.2:0:0:0:0:0:0:0:0:0:0,#
*,type=HCHR_TK10,msg=さぁ、<wait=1>みんな！<wait=3><br>気を取り直して先を急ぐぞ！,param=chr_Loy:Center:BASIC:0:0:0:0:0:0:0:0,#
*,type=HCHR_TK01,param=all:0:0:0:0:0:0:0:0:0:0,#
*,type=SWOPEN_0000,param=11000330:RUNTIME:SKIP_OPEN:0:0:0:0:0:0:0:0,#
*,type=FADEOUT_000,param=1.5:$BGBLACK_Color:0:0:0:0:0:0:0:0:0,#
*,type=BGM_0001,param=1.5:0:0:0:0:0:0:0:0:0:0,#
*,type=WAIT_0000,param=2:0:0:0:0:0:0:0:0:0:0,#
*,type=CLSNE_0000,param=0:0:0:0:0:0:0:0:0:0:0,#

*,type=SYSED_00,param=0:0:0:0:0:0:0:0:0:0:0,#



