﻿ScriptCmd ver 1.1.1:スクリプト_03_1_モルデンカンプ_dungeon1.xlsm/シーン1/main007-dungeon1.csv

*,type=SYSST_00,param=0:0:0:0:0:0:0:0:0:0:0,#
*,type=CMD_STOP,param=0:0:0:0:0:0:0:0:0:0:0,#
*,type=SYSST_01,param=0:0:0:0:0:0:0:0:0:0:0,#


*,type=PICT_0000,param=bg1:battle_bg_009_01.jpg:0:bg$1050101:0:0:0:0:0:0:0,#
*,type=HCHR_ENT00,param=chr_Seria:セリア:N$chara_bf2_12:$POS_Center:TYPE$middle:Z$11:0:0:0:0:0,#
*,type=HCHR_ENT00,param=chr_Yehoshua:ヨシュア:N$chara_bf2_7:$POS_Center:TYPE$middle:Z$10:0:0:0:0:0,#
*,type=HCHR_ENT00,param=chr_Dragon:<rep_myguardian>:N$tame_dragon_03:$POS_Center:TYPE$middle:Z$10:0:0:0:0:0,#
*,type=STOP,param=0:0:0:0:0:0:0:0:0:0:0,#
*,type=SYSTEM_UI_DISP,param=OFF:0:0:0:0:0:0:0:0:0:0,#
*,type=FADEIN_000,param=1.5:00&00&00:0:0:0:0:0:0:0:0:0,#
*,type=MSKS_0000,param=0:opt$0&0&0:opt$0:Z$0:T$0.0:0:0:0:0:0:0,#
*,type=WAIT_0000,param=0.5:0:0:0:0:0:0:0:0:0:0,#
*,type=SE_0000,param=379:0:0:0:0:0:0:0:0:0:0,#
*,type=BGM_0000,param=1:0:0:0:0:0:0:0:0:0:0,#
*,type=SS5_0000,param=chapter:chapter_intro_3.ssbp:main/anime:main/anime:50:320:568:1:0:0:0,#
*,type=WAIT_0000,param=12:0:0:0:0:0:0:0:0:0:0,#
*,type=FADEOUT_000,param=1:255&255&255:0:0:0:0:0:0:0:0:0,#
*,type=STOP,param=0:0:0:0:0:0:0:0:0:0:0,#
*,type=FADEIN_000,param=2:255&255&255:0:0:0:0:0:0:0:0:0,#
*,type=STOP,param=0:0:0:0:0:0:0:0:0:0:0,#
*,type=SYSTEM_UI_DISP,param=ON:0:0:0:0:0:0:0:0:0:0,#
*,type=MSKS_0002,param=all:0:0:0:0:0:0:0:0:0:0,#
*,type=FADEIN_000,param=1.5:00&00&00:0:0:0:0:0:0:0:0:0,#
*,type=STOP,param=0:0:0:0:0:0:0:0:0:0:0,#
*,type=WAIT_0000,param=2:0:0:0:0:0:0:0:0:0:0,#
*,type=HCHR_POS00,param=chr_Seria:FADEIN:T$0.5:$OFS_Left:0:0:0:0:0:0:0,#
*,type=HCHR_POS00,param=chr_Yehoshua:FADEIN:T$0.5:$OFS_Right:0:0:0:0:0:0:0,#
*,type=STOP,param=0:0:0:0:0:0:0:0:0:0:0,#
*,type=WAIT_0000,param=0.5:0:0:0:0:0:0:0:0:0:0,#
*,type=HCHR_TK00,msg=<speed=7>ここがセルタビア……,param=chr_Seria:$Left10:0:0:0:0:0:0:0:0:0,#
*,type=HCHR_TK00,msg=<speed=10>周囲に敵は………<wait=5><speed=4.8>いないようね。,param=chr_Seria:$Left16:0:0:0:0:0:0:0:0:0,#
*,type=HCHR_TK00,msg=<speed=9>………………,param=chr_Yehoshua:$Right6:0:0:0:0:0:0:0:0:0,#
*,type=HCHR_TK00,msg=こうして見るとグランガイアや<br>エルガイアなんかと、<wait=3>そう変わらないわね。,param=chr_Seria:$Left20:0:0:0:0:0:0:0:0:0,#
*,type=HCHR_TK10,msg=<rep_handlename>、<wait=3>ここが<br>フィルアームってところなの？,param=chr_Seria:Left:BASIC:0:0:0:0:0:0:0:0,#
*,type=HCHR_TK01,param=ALL:skipmask:0:0:0:0:0:0:0:0:0,#
*,type=WAIT_0000,param=1:0:0:0:0:0:0:0:0:0:0,#
*,type=HCHR_GRP00,param=chr_Seria:face:bi:$FACE_FadeTime:0:0:0:0:0:0:0,#
*,type=HCHR_TK00,msg=え、<wait=3>違うの？,param=chr_Seria:$Left6:0:0:0:0:0:0:0:0:0,#
*,type=HCHR_TK01,param=ALL:skipmask:0:0:0:0:0:0:0:0:0,#
*,type=WAIT_0000,param=1:0:0:0:0:0:0:0:0:0:0,#
*,type=HCHR_GRP00,param=chr_Seria:face:fu:0.3:0:0:0:0:0:0:0,#
*,type=WAIT_0000,param=0.5:0:0:0:0:0:0:0:0:0:0,#
*,type=HCHR_TK00,msg=なるほど……<wait=4>ここは隣国の<wait=3><br><speed=7>「モルデンカンプ」<wait=3><speed=4.8>ってところなのね。,param=chr_Seria:$Left18:0:0:0:0:0:0:0:0:0,#
*,type=HCHR_TK01,param=ALL:skipmask:0:0:0:0:0:0:0:0:0,#
*,type=WAIT_0000,param=0.8:0:0:0:0:0:0:0:0:0:0,#
*,type=HCHR_TK00,msg=そうか、<wait=3>敵が本拠地をフィルアームに<br>置いているとしたら,param=chr_Seria:$Left18:0:0:0:0:0:0:0:0:0,#
*,type=HCHR_TK00,msg=次元転送の妨害もそこが中心になる。,param=chr_Seria:$Left18:0:0:0:0:0:0:0:0:0,#
*,type=HCHR_TK00,msg=そうなれば、<wait=3>ノエルたちが転送可能な<br>地点は当然そこから離れた所になるわね。,param=chr_Seria:$Left20:0:0:0:0:0:0:0:0:0,#
*,type=HCHR_TK01,param=ALL:skipmask:0:0:0:0:0:0:0:0:0,#
*,type=WAIT_0000,param=1:0:0:0:0:0:0:0:0:0:0,#
*,type=HCHR_TK10,msg=<speed=9>……<wait=4><speed=4.8>それはそうと、<wait=3><rep_handlename>。,param=chr_Seria:Left:BASIC:0:0:0:0:0:0:0:0,#
*,type=HCHR_TK00,msg=アンタの連れてたそれって……<wait=3><br>この短期間でそんなにおっきくなるわけ？,param=chr_Seria:$Left20:0:0:0:0:0:0:0:0:0,#
*,type=HCHR_TK01,param=ALL:skipmask:0:0:0:0:0:0:0:0:0,#
*,type=HCHR_POS00,param=chr_Seria:FADEOUT:T$0.3:0:0:0:0:0:0:0:0,#
*,type=HCHR_POS00,param=chr_Yehoshua:FADEOUT:T$0.3:0:0:0:0:0:0:0:0,#
*,type=STOP,param=0:0:0:0:0:0:0:0:0:0:0,#
*,type=HCHR_TK01,param=ALL:0:0:0:0:0:0:0:0:0:0,#
*,type=HCHR_POS00,param=chr_Dragon:FADEIN:T$1:0:0:0:0:0:0:0:0,#
*,type=STOP,param=0:0:0:0:0:0:0:0:0:0:0,#
*,type=HCHR_SHK00,param=chr_Dragon:7:0.1:0.5:0:0:0:0:0:0:0,#
*,type=HCHR_TK00,msg=<speed=3>グガァァァァ!!,param=chr_Dragon:$Shout_S_C:0:0:0:0:0:0:0:0:0,#
*,type=HCHR_TK01,param=ALL:0:0:0:0:0:0:0:0:0:0,#
*,type=HCHR_POS00,param=chr_Dragon:FADEOUT:T$0.3:0:0:0:0:0:0:0:0,#
*,type=STOP,param=0:0:0:0:0:0:0:0:0:0:0,#
*,type=HCHR_FDM00,param=chr_Yehoshua:MSK$on:0:0:0:0:0:0:0:0:0,#
*,type=HCHR_GRP00,param=chr_Seria:face:bi:0:0:0:0:0:0:0:0,#
*,type=HCHR_POS00,param=chr_Seria:FADEIN:T$0.3:$OFS_Left:0:0:0:0:0:0:0,#
*,type=HCHR_POS00,param=chr_Yehoshua:FADEIN:T$0.3:$OFS_Right:0:0:0:0:0:0:0,#
*,type=STOP,param=0:0:0:0:0:0:0:0:0:0:0,#
*,type=HCHR_TK00,msg=<speed=7>私たちが知ってるのとは違う種類の<br>竜ってわけね……,param=chr_Seria:$Left16:0:0:0:0:0:0:0:0:0,#
*,type=HCHR_TK01,param=ALL:skipmask:0:0:0:0:0:0:0:0:0,#
*,type=WAIT_0000,param=0.5:0:0:0:0:0:0:0:0:0:0,#
*,type=HCHR_GRP00,param=chr_Seria:face:ki:0:0:0:0:0:0:0:0,#
*,type=HCHR_TK00,msg=まぁ、戦力になりそうだし、<wait=3>いいか。,param=chr_Seria:$Left18:0:0:0:0:0:0:0:0:0,#
*,type=HCHR_TK01,param=ALL:skipmask:0:0:0:0:0:0:0:0:0,#
*,type=WAIT_0000,param=1:0:0:0:0:0:0:0:0:0:0,#
*,type=HCHR_GRP00,param=chr_Seria:face:fu:0:0:0:0:0:0:0:0,#
*,type=HCHR_TK00,msg=とりあえず、用心しながら進みましょ。<wait=3><br><rep_handlename>は私の隣に。,param=chr_Seria:$Left18:0:0:0:0:0:0:0:0:0,#
*,type=HCHR_TK00,msg=ヨシュアは後ろで、<wait=3>側面と後方をケア<br>しながら続いて。,param=chr_Seria:$Left18:0:0:0:0:0:0:0:0:0,#
*,type=HCHR_TK00,msg=了解です。,param=chr_Yehoshua:$Right6:0:0:0:0:0:0:0:0:0,#
*,type=HCHR_TK01,param=ALL:skipmask:0:0:0:0:0:0:0:0:0,#
*,type=WAIT_0000,param=0.5:0:0:0:0:0:0:0:0:0:0,#
*,type=HCHR_POS00,param=chr_Seria:OUT$left$100:T$0.8:0:0:0:0:0:0:0:0,#
*,type=STOP,param=0:0:0:0:0:0:0:0:0:0:0,#
*,type=HCHR_POS00,param=chr_Yehoshua:IN$right$160:T$0.8:$OFS_Center:0:0:0:0:0:0:0,#
*,type=HCHR_FDM00,param=chr_Yehoshua:MSK$off:0.8:0:0:0:0:0:0:0:0,#
*,type=STOP,param=0:0:0:0:0:0:0:0:0:0:0,#
*,type=WAIT_0000,param=1:0:0:0:0:0:0:0:0:0:0,#
*,type=HCHR_GRP00,param=chr_Yehoshua:face:bi:0:0:0:0:0:0:0:0,#
*,type=HCHR_EFC00,param=Eff_Manp:chr_Yehoshua:manpu_1:OFS$0&0:SS5$$MANP_doubt_black_a:0:0:0:0:0:0,#
*,type=WAIT_0000,param=1.3:0:0:0:0:0:0:0:0:0:0,#
*,type=PICT_0004,param=Eff_Manp:0:0:0:0:0:0:0:0:0:0,#
*,type=WAIT_0000,param=1:0:0:0:0:0:0:0:0:0:0,#
*,type=HCHR_GRP00,param=chr_Yehoshua:face:do:0:0:0:0:0:0:0:0,#
*,type=HCHR_TK00,msg=<speed=9>……………,param=chr_Yehoshua:$Center6:0:0:0:0:0:0:0:0:0,#
*,type=HCHR_TK01,param=ALL:0:0:0:0:0:0:0:0:0:0,#
*,type=WAIT_0000,param=1:0:0:0:0:0:0:0:0:0:0,#
*,type=BGM_0001,param=2:0:0:0:0:0:0:0:0:0:0,#
*,type=FADEOUT_000,param=1.5:0&0&0:0:0:0:0:0:0:0:0:0,#
*,type=WAIT_0000,param=2:0:0:0:0:0:0:0:0:0:0,#
*,type=PICT_0004,param=bg1:0:0:0:0:0:0:0:0:0:0,#
*,type=HCHR_ENT01,param=chr_Seria:0:0:0:0:0:0:0:0:0:0,#
*,type=HCHR_ENT01,param=chr_Yehoshua:0:0:0:0:0:0:0:0:0:0,#
*,type=STOP,param=0:0:0:0:0:0:0:0:0:0:0,#
*,type=PICT_0000,param=bg1:battle_bg_009_06.jpg:0:bg$1050106:0:0:0:0:0:0:0,#
*,type=HCHR_ENT00,param=chr_Gustaf:グスタフ:N$chara_bf2_4:$POS_Center:TYPE$middle:Z$10:0:0:0:0:0,#
*,type=HCHR_ENT00,param=chr_Zad:ザド:N$chara_bf2_21:$POS_Center:TYPE$middle:Z$11:0:0:0:0:0,#
*,type=HCHR_ENT00,param=chr_Lin_head:リン:N$chara_bf2_52:$POS_Center:TYPE$middle:Z$10:0:0:0:0:0,#
*,type=FADEIN_000,param=2:0&0&0:0:0:0:0:0:0:0:0:0,#
*,type=STOP,param=0:0:0:0:0:0:0:0:0:0:0,#
*,type=BGM_0000,param=27:0:0:0:0:0:0:0:0:0:0,#
*,type=WAIT_0000,param=0.5:0:0:0:0:0:0:0:0:0:0,#
*,type=HCHR_POS00,param=chr_Gustaf:FADEIN:T$0.5:$OFS_Center:0:0:0:0:0:0:0,#
*,type=STOP,param=0:0:0:0:0:0:0:0:0:0:0,#
*,type=WAIT_0000,param=0.5:0:0:0:0:0:0:0:0:0:0,#
*,type=HCHR_TK00,msg=どうやら奴からの情報通り<wait=3><br>召喚師たちがやって来たようだな。,param=chr_Gustaf:$Center16:0:0:0:0:0:0:0:0:0,#
*,type=HCHR_TK00,msg=各所に監視装置を配置しておいて<wait=3><br>正解じゃったわい。,param=chr_Gustaf:$Center16:0:0:0:0:0:0:0:0:0,#
*,type=HCHR_GRP00,param=chr_Gustaf:face:ki:0:0:0:0:0:0:0:0,#
*,type=HCHR_TK00,msg=これは丁重におもてなしせねばのう。,param=chr_Gustaf:$Center18:0:0:0:0:0:0:0:0:0,#
*,type=HCHR_TK01,param=ALL:0:0:0:0:0:0:0:0:0:0,#
*,type=WAIT_0000,param=0.5:0:0:0:0:0:0:0:0:0:0,#
*,type=HCHR_POS00,param=chr_Zad:FADEIN:T$0.2:$OFS_Right:0:0:0:0:0:0:0,#
*,type=HCHR_POS00,param=chr_Gustaf:OFS$-160&0:T$0.5:0:0:0:0:0:0:0:0,#
*,type=HCHR_FDM00,param=chr_Gustaf:MSK$on:0.5:0:0:0:0:0:0:0:0,#
*,type=QUAK_0000,msg= ,param=0.1:3:4:4:FixRange:0:0:0:0:0:0,#
*,type=STOP,param=0:0:0:0:0:0:0:0:0:0:0,#
*,type=WAIT_0000,param=0.5:0:0:0:0:0:0:0:0:0:0,#
*,type=HCHR_TK00,msg=イエス、<wait=3>マスター。,param=chr_Zad:$Right10:0:0:0:0:0:0:0:0:0,#
*,type=HCHR_TK01,param=ALL:skipmask:0:0:0:0:0:0:0:0:0,#
*,type=WAIT_0000,param=0.5:0:0:0:0:0:0:0:0:0:0,#
*,type=HCHR_POS00,param=chr_Zad:FADEOUT:T$0.5:0:0:0:0:0:0:0:0,#
*,type=HCHR_POS00,param=chr_Gustaf:FADEOUT:T$0.5:0:0:0:0:0:0:0:0,#
*,type=STOP,param=0:0:0:0:0:0:0:0:0:0:0,#
*,type=HCHR_TK01,param=ALL:0:0:0:0:0:0:0:0:0:0,#
*,type=WAIT_0000,param=1:0:0:0:0:0:0:0:0:0:0,#
*,type=HCHR_GRP00,param=chr_Lin_head:face:mu_eyes:0:0:0:0:0:0:0:0,#
*,type=HCHR_POS00,param=chr_Lin_head:FADEIN:T$1:$OFS_Center:0:0:0:0:0:0:0,#
*,type=STOP,param=0:0:0:0:0:0:0:0:0:0:0,#
*,type=WAIT_0000,param=1:0:0:0:0:0:0:0:0:0:0,#
*,type=HCHR_TK00,msg=<speed=12>……………,param=chr_Lin_head:$Center6:0:0:0:0:0:0:0:0:0,#
*,type=HCHR_TK01,param=ALL:0:0:0:0:0:0:0:0:0:0,#
*,type=WAIT_0000,param=1:0:0:0:0:0:0:0:0:0:0,#
*,type=FADEOUT_000,param=1.5:00&00&00:0:0:0:0:0:0:0:0:0,#
*,type=WAIT_0000,param=2:0:0:0:0:0:0:0:0:0:0,#
*,type=STOP,param=0:0:0:0:0:0:0:0:0:0:0,#
*,type=PICT_0004,param=bg1:0:0:0:0:0:0:0:0:0:0,#
*,type=HCHR_ENT01,param=chr_Gustaf:0:0:0:0:0:0:0:0:0:0,#
*,type=HCHR_ENT01,param=chr_Zad:0:0:0:0:0:0:0:0:0:0,#
*,type=HCHR_ENT01,param=chr_Lin_head:0:0:0:0:0:0:0:0:0:0,#

*,type=SYSED_00,param=0:0:0:0:0:0:0:0:0:0:0,#



