﻿ScriptCmd ver 1.1.1(app1.0.4):スクリプト_07_2_幻宙徨夢_dungeon.xlsm/main011-dungeon9/main011-dungeon9.csv

*,type=SYSST_00,param=0:0:0:0:0:0:0:0:0:0:0,#
*,type=CMD_STOP,param=0:0:0:0:0:0:0:0:0:0:0,#
*,type=SYSST_01,param=0:0:0:0:0:0:0:0:0:0:0,#


*,type=PICT_0000,param=bg_01:battle_bg_001_01.jpg:1:bg$1010101:0:0:0:2:0:0:0,#
*,type=MSKS_0000,param=bgFilterMask:149&86&41:100:Z$20:T$0:0:0:0:0:0:0,#
*,type=FADEIN_000,param=1.5:00&00&00:0:0:0:0:0:0:0:0:0,#
*,type=BGM_0000,param=1052:1.5:0:0:0:0:0:0:0:0:0,#
*,type=WAIT_0000,param=0.5:0:0:0:0:0:0:0:0:0:0,#
*,type=HCHR_ENT00,param=chr_Sarsha:サーシャ:N$chara_bf2_1:$POS_Center:TYPE$middle:Z$15:0:0:0:0:0,#
*,type=HCHR_ENT00,param=chr_Dragon:<rep_myguardian>:N$tame_dragon_01:$POS_Center:TYPE$middle:Z$10:0:0:0:0:0,#
*,type=STOP,param=0:0:0:0:0:0:0:0:0:0:0,#
*,type=HCHR_GRP00,param=chr_Dragon:face:ai:0:0:0:0:0:0:0:0,#
*,type=HCHR_POS00,param=chr_Dragon:FADEIN:T$0.5:$OFS_Center:0:0:0:0:0:0:0,#
*,type=STOP,param=0:0:0:0:0:0:0:0:0:0:0,#
*,type=WAIT_0000,param=0.5:0:0:0:0:0:0:0:0:0:0,#
*,type=HCHR_TK00,msg=<speed=9>クルル……,param=chr_Dragon:$Center6_under:0:0:focusoff:0:0:0:0:0:0,#
*,type=HCHR_TK01,param=all:0:0:0:0:0:0:0:0:0:0,#
*,type=WAIT_0000,param=0.5:0:0:0:0:0:0:0:0:0:0,#
*,type=HCHR_GRP00,param=chr_Dragon:face:bi:$FACE_FadeTime:0:0:0:0:0:0:0,#
*,type=HCHR_EFC00,param=Eff_Manp_20:chr_Dragon:manpu_1:0:SS5$$MANP_surprise_red_d:0:0:0:0:0:0,#
*,type=WAIT_0000,param=1:0:0:0:0:0:0:0:0:0:0,#
*,type=PICT_0004,param=Eff_Manp_20:0:0:0:0:0:0:0:0:0:0,#
*,type=WAIT_0000,param=0.5:0:0:0:0:0:0:0:0:0:0,#
*,type=HCHR_GRP00,param=chr_Dragon:face:ku:$FACE_FadeTime:0:0:0:0:0:0:0,#
*,type=HCHR_SHK00,param=chr_Dragon:0&15:0.1:0.4:NoRandom:0:0:0:0:0:0,#
*,type=HCHR_TK00,msg=<speed=3>クルル！<wait=3>クルルッ!!,param=chr_Dragon:$Center10_under:0:0:focusoff:0:0:0:0:0:0,#
*,type=HCHR_TK01,param=all:0:0:0:0:0:0:0:0:0:0,#
*,type=SE_0000,param=31:0:0:0:0:0:0:0:0:0:0,#
*,type=FADEOUT_000,param=2.5:$BGWHITE_Color:0:0:0:0:0:0:0:0:0,#
*,type=WAIT_0000,param=3:0:0:0:0:0:0:0:0:0:0,#
*,type=HCHR_POS00,param=chr_Dragon:FADEOUT:T$0:0:0:0:0:0:0:0:0,#
*,type=PICT_0004,param=bg_01:0:0:0:0:0:0:0:0:0:0,#
*,type=MSKS_0002,param=bgFilterMask:0:0:0:0:0:0:0:0:0:0,#
*,type=MSKS_0000,param=bgWhiteMask:$BGWHITE_Color:0:Z$5:T$0:0:0:0:0:0:0,#
*,type=FADEIN_000,param=1.5:$BGWHITE_Color:0:0:0:0:0:0:0:0:0,#
*,type=STOP,param=0:0:0:0:0:0:0:0:0:0:0,#
*,type=HCHR_GRP00,param=chr_Sarsha:face:ki:0:0:0:0:0:0:0:0,#
*,type=HCHR_POS00,param=chr_Sarsha:FADEIN:T$0.5:$OFS_Center:0:0:0:0:0:0:0,#
*,type=STOP,param=0:0:0:0:0:0:0:0:0:0:0,#
*,type=WAIT_0000,param=0.5:0:0:0:0:0:0:0:0:0:0,#
*,type=HCHR_TK10,msg=そういえば<wait=1><rep_handlename>を見つけた時<wait=1><br>こんな感じだったっけ……,param=chr_Sarsha:Center:BASIC:0:0:0:0:0:0:0:0,#
*,type=HCHR_GRP00,param=chr_Sarsha:face:emi:$FACE_FadeTime:0:0:0:0:0:0:0,#
*,type=HCHR_TK10,msg=実は<rep_handlename>と出会ってから<wait=1><br>まだそこまで経ってないのよね。,param=chr_Sarsha:Center:BASIC:0:0:0:0:0:0:0:0,#
*,type=HCHR_TK00,msg=でも、<wait=1>もうずいぶん古くからの友人みたい。<wait=3><br>不思議な感じ……,param=chr_Sarsha:$Mono_LL_C:0:0:0:0:0:0:0:0:0,#
*,type=HCHR_GRP00,param=chr_Sarsha:face:bi:$FACE_FadeTime:0:0:0:0:0:0:0,#
*,type=HCHR_TK10,msg=<speed=7>――って、<wait=1>え……？,param=chr_Sarsha:Center:BASIC:0:0:0:0:0:0:0:0,#
*,type=HCHR_TK10,msg=もしかして、<wait=1>術を抜けたの……？,param=chr_Sarsha:Center:BASIC:0:0:0:0:0:0:0:0,#
*,type=HCHR_TK01,param=all:0:0:0:0:0:0:0:0:0:0,#
*,type=BGM_0001,param=2:0:0:0:0:0:0:0:0:0:0,#
*,type=HCHR_POS00,param=chr_Sarsha:FADEOUT:T$0.3:0:0:0:0:0:0:0:0,#
*,type=STOP,param=0:0:0:0:0:0:0:0:0:0:0,#
*,type=SE_0000,param=27:1.5:0:0:0:0:0:0:0:0:0,#
*,type=SPKG_0000,param=sg1:sc_exdimentionspace.vfxb:10:320:568:1:0:0:0:0:0,#
*,type=STOP,param=0:0:0:0:0:0:0:0:0:0:0,#
*,type=BGM_0000,param=57:1.5:1.5:0:0:0:0:0:0:0:0,#
*,type=WAIT_0000,param=5:0:0:0:0:0:0:0:0:0:0,#
*,type=STOP,param=0:0:0:0:0:0:0:0:0:0:0,#
*,type=HCHR_GRP00,param=chr_Sarsha:face:do:0:0:0:0:0:0:0:0,#
*,type=HCHR_POS00,param=chr_Sarsha:FADEIN:T$0.5:$OFS_Center:0:0:0:0:0:0:0,#
*,type=STOP,param=0:0:0:0:0:0:0:0:0:0:0,#
*,type=HCHR_EFC00,param=Eff_Manp_18:chr_Sarsha:manpu_1:0:SS5$$MANP_surprise_red_b:0:1:0:0:0:0,#
*,type=WAIT_0000,param=0.3:0:0:0:0:0:0:0:0:0:0,#
*,type=HCHR_TK10,msg=<speed=3>このゲートは！,param=chr_Sarsha:Center:BASIC:0:0:0:0:0:0:0:0,#
*,type=PICT_0004,param=Eff_Manp_18:0:0:0:0:0:0:0:0:0:0,#
*,type=HCHR_TK00,msg=ヒルダさんをルネさんから引き離した<br>アレと同じ……！,param=chr_Sarsha:$Mono_LL_C:0:0:0:0:0:0:0:0:0,#
*,type=HCHR_TK01,param=all:0:0:0:0:0:0:0:0:0:0,#
*,type=WAIT_0000,param=0.5:0:0:0:0:0:0:0:0:0:0,#
*,type=HCHR_EFC00,param=Eff_Manp_11:chr_Sarsha:manpu_1:0:SS5$$MANP_silence_a:0:0:0:0:0:0,#
*,type=WAIT_0000,param=1.5:0:0:0:0:0:0:0:0:0:0,#
*,type=PICT_0004,param=Eff_Manp_11:0:0:0:0:0:0:0:0:0:0,#
*,type=HCHR_GRP00,param=chr_Sarsha:face:ku:$FACE_FadeTime:0:0:0:0:0:0:0,#
*,type=HCHR_TK00,msg=<speed=7>落ち着いて……<wait=3>感情的になってはダメ。,param=chr_Sarsha:$Mono_LL_C:0:0:0:0:0:0:0:0:0,#
*,type=HCHR_GRP00,param=chr_Sarsha:face:fu:$FACE_FadeTime:0:0:0:0:0:0:0,#
*,type=HCHR_TK00,msg=これが敵の罠でも、<wait=1>前へ進むためには<br>飛び込むことだって必要よ。,param=chr_Sarsha:$Mono_LL_C:0:0:0:0:0:0:0:0:0,#
*,type=HCHR_TK00,msg=自分の判断で行動して、<wait=1>結果を出さないと<wait=1><br>パパは認めてくれないものね……,param=chr_Sarsha:$Mono_LL_C:0:0:0:0:0:0:0:0:0,#
*,type=HCHR_TK01,param=all:0:0:0:0:0:0:0:0:0:0,#
*,type=WAIT_0000,param=0.5:0:0:0:0:0:0:0:0:0:0,#
*,type=HCHR_GRP00,param=chr_Sarsha:face:do:$FACE_FadeTime:0:0:0:0:0:0:0,#
*,type=HCHR_TK10,msg=……<wait=1>お願い。<wait=3><br>みんなに会わせて……！,param=chr_Sarsha:Center:BASIC:0:0:0:0:0:0:0:0,#
*,type=HCHR_TK01,param=all:0:0:0:0:0:0:0:0:0:0,#
*,type=HCHR_POS00,param=chr_Sarsha:OFS$0&-25:T$0.3:0:0:0:0:0:0:0:0,#
*,type=HCHR_PRM00,param=chr_Sarsha:S$0.780:T$0.3:0:0:0:0:0:0:0:0,#
*,type=SE_0000,param=344:0:0:0:0:0:0:0:0:0:0,#
*,type=HCHR_POS00,param=chr_Sarsha:FADEOUT:T$0.8:0:0:0:0:0:0:0:0,#
*,type=SE_0000,param=27:0.2:0:0:0:0:0:0:0:0:0,#
*,type=FADEOUT_000,param=1.5:$BGWHITE_Color:0:0:0:0:0:0:0:0:0,#
*,type=BGM_0001,param=2.5:0:0:0:0:0:0:0:0:0:0,#
*,type=WAIT_0000,param=3:0:0:0:0:0:0:0:0:0:0,#
*,type=CLSNE_0000,param=0:0:0:0:0:0:0:0:0:0:0,#

*,type=SYSED_00,param=0:0:0:0:0:0:0:0:0:0:0,#



