﻿ScriptCmd ver 1.1.1:スクリプト_02_1_サーマ_dungeon6.xlsm/シーン6-2/main004-dungeon6_2.csv

*,type=SYSST_00,param=0:0:0:0:0:0:0:0:0:0:0,#
*,type=CMD_STOP,param=0:0:0:0:0:0:0:0:0:0:0,#
*,type=SYSST_01,param=0:0:0:0:0:0:0:0:0:0:0,#


*,type=BGM_0000,param=34:0:0:0:0:0:0:0:0:0:0,#
*,type=PICT_0000,param=bg1:battle_bg_004_06.jpg:0:bg$1010206:0:0:0:0:0:0:0,#
*,type=HCHR_ENT00,param=chr_Sarsha:サーシャ:N$chara_bf2_1:$POS_Center:TYPE$middle:Z$1:0:0:0:0:0,#
*,type=HCHR_GRP00,param=chr_Sarsha:face:do:0:0:0:0:0:0:0:0,#
*,type=HCHR_ENT00,param=chr_Dragon:<rep_myguardian>:N$tame_dragon_02:$POS_Center:TYPE$middle:Z$1:0:0:0:0:0,#
*,type=HCHR_ENT00,param=chr_Emily:エミリー:N$chara_bf2_26_m:$POS_Monitor_Center:TYPE$middle:Z$5&5:0:0:0:0:0,#
*,type=HCHR_ENT00,param=chr_Renee:ルネ:N$chara_bf2_84:$POS_Center:TYPE$middle:Z$1:0:0:0:0:0,#
*,type=HCHR_GRP00,param=chr_Renee:face:fu:0:0:0:0:0:0:0:0,#
*,type=HCHR_ENT00,param=chr_Loy:ロイ:N$chara_bf2_28_m:$POS_Monitor_Center:TYPE$middle:Z$5&5:0:0:0:0:0,#
*,type=STOP,param=0:0:0:0:0:0:0:0:0:0:0,#
*,type=FADEIN_000,param=1.5:00&00&00:0:0:0:0:0:0:0:0:0,#
*,type=STOP,param=0:0:0:0:0:0:0:0:0:0:0,#
*,type=WAIT_0000,param=1:0:0:0:0:0:0:0:0:0:0,#
*,type=HCHR_POS00,param=chr_Sarsha:FADEIN:T$0.5:$OFS_Center:0:0:0:0:0:0:0,#
*,type=STOP,param=0:0:0:0:0:0:0:0:0:0:0,#
*,type=WAIT_0000,param=0.5:0:0:0:0:0:0:0:0:0:0,#
*,type=HCHR_TK00,msg=<speed=9>……………,param=chr_Sarsha:$Center6:0:0:0:0:0:0:0:0:0,#
*,type=HCHR_TK01,param=all:0:0:0:0:0:0:0:0:0:0,#
*,type=WAIT_0000,param=1:0:0:0:0:0:0:0:0:0:0,#
*,type=HCHR_TK00,msg=<speed=7>おかしいな………<wait=3><br>ここにも誰もいない……？,param=chr_Sarsha:$Center12:0:0:0:0:0:0:0:0:0,#
*,type=HCHR_TK01,param=all:0:0:0:0:0:0:0:0:0:0,#
*,type=WAIT_0000,param=0.5:0:0:0:0:0:0:0:0:0:0,#
*,type=HCHR_TK00,msg=<speed=7>ネグレスどころか<wait=3><br>連邦の兵士もいないなんて……,param=chr_Sarsha:$Center14:0:0:0:0:0:0:0:0:0,#
*,type=HCHR_TK01,param=all:0:0:0:0:0:0:0:0:0:0,#
*,type=WAIT_0000,param=0.5:0:0:0:0:0:0:0:0:0:0,#
*,type=HCHR_GRP00,param=chr_Sarsha:face:ku:$FACE_FadeTime:0:0:0:0:0:0:0,#
*,type=HCHR_TK00,msg=まさか……<wait=3><br>もしかして、もう全滅させられた後？,param=chr_Sarsha:$Center18:0:0:0:0:0:0:0:0:0,#
*,type=HCHR_TK01,param=all:0:0:0:0:0:0:0:0:0:0,#
*,type=WAIT_0000,param=0.5:0:0:0:0:0:0:0:0:0:0,#
*,type=HCHR_GRP00,param=chr_Sarsha:face:ai:$FACE_FadeTime:0:0:0:0:0:0:0,#
*,type=HCHR_TK00,msg=<speed=7>でも、戦いがあったような感じもないし…<wait=3><br>一体どういうこと……？,param=chr_Sarsha:$Center20:0:0:0:0:0:0:0:0:0,#
*,type=HCHR_TK01,param=all:0:0:0:0:0:0:0:0:0:0,#
*,type=WAIT_0000,param=0.5:0:0:0:0:0:0:0:0:0:0,#
*,type=SE_0000,param=375:0:0:0:0:0:0:0:0:0:0,#
*,type=WAIT_0000,param=1:0:0:0:0:0:0:0:0:0:0,#
*,type=HCHR_POS00,param=chr_Sarsha:OFS$160&0:T$0.3:0:0:0:0:0:0:0:0,#
*,type=STOP,param=0:0:0:0:0:0:0:0:0:0:0,#
*,type=SE_0000,param=376:0:0:0:0:0:0:0:0:0:0,#
*,type=SS5_0000,param=SS_monitor:script_monitor.ssbp:script_monitor/anime:script_monitor/anime:7:$Monitor_Left:$Monitor_Y:1:0:0:0,#
*,type=SS5_0000,param=SS_monitorBG:script_monitor.ssbp:script_monitor_back/anime:script_monitor_back/anime:4:$Monitor_Left:$Monitor_Y:1:0:0:0,#
*,type=WAIT_0000,param=0.5:0:0:0:0:0:0:0:0:0:0,#
*,type=HCHR_POS00,param=chr_Emily:FADEIN:$CHARA_FadeTime:$OFS_Left:0:0:0:0:0:0:0,#
*,type=HCHR_GRP00,param=chr_Emily:face:fu:0:0:0:0:0:0:0:0,#
*,type=STOP,param=0:0:0:0:0:0:0:0:0:0:0,#
*,type=HCHR_TK00,msg=サーシャさん、<wait=3>現場の様子はどうですかぁ？<wait=3><br>救援任務は無事終わりましたか～？,param=chr_Emily:$Left20:0:0:0:0:0:0:0:0:0,#
*,type=HCHR_TK01,param=all:skipmask:0:0:0:0:0:0:0:0:0,#
*,type=WAIT_0000,param=0.5:0:0:0:0:0:0:0:0:0:0,#
*,type=HCHR_TK00,msg=エミリーさん……,param=chr_Sarsha:$Right8:0:0:0:0:0:0:0:0:0,#
*,type=HCHR_TK00,msg=敵どころか、<wait=3>連邦の兵士すらどこにも<br>いないんですけど……,param=chr_Sarsha:$Right18:0:0:0:0:0:0:0:0:0,#
*,type=HCHR_GRP00,param=chr_Emily:face:bi:$FACE_FadeTime:0:0:0:0:0:0:0,#
*,type=HCHR_TK00,msg=<speed=7>え～、<wait=3>そんなはずはないんですけどぉ……,param=chr_Emily:$Left20:0:0:0:0:0:0:0:0:0,#
*,type=HCHR_GRP00,param=chr_Sarsha:face:do:$FACE_FadeTime:0:0:0:0:0:0:0,#
*,type=HCHR_TK00,msg=<speed=3>そんなはずないって言っても<wait=3><br>事実、いないものはいないんですよ！,param=chr_Sarsha:$Right18:0:0:0:0:0:0:0:0:0,#
*,type=HCHR_GRP00,param=chr_Emily:face:ai:$FACE_FadeTime:0:0:0:0:0:0:0,#
*,type=HCHR_TK00,msg=<speed=7>うーん、<wait=3>でもぉ～……,param=chr_Emily:$Left10:0:0:0:0:0:0:0:0:0,#
*,type=HCHR_TK01,param=all:skipmask:0:0:0:0:0:0:0:0:0,#
*,type=WAIT_0000,param=0.5:0:0:0:0:0:0:0:0:0:0,#
*,type=HCHR_GRP00,param=chr_Sarsha:face:fu:$FACE_FadeTime:0:0:0:0:0:0:0,#
*,type=HCHR_TK00,msg=移動したって可能性は……？,param=chr_Sarsha:$Right14:0:0:0:0:0:0:0:0:0,#
*,type=HCHR_TK00,msg=ここからだと<wait=3><br>行き先はサーマ城ぐらいしかないけど。,param=chr_Sarsha:$Right18:0:0:0:0:0:0:0:0:0,#
*,type=HCHR_GRP00,param=chr_Emily:face:ai:$FACE_FadeTime:0:0:0:0:0:0:0,#
*,type=HCHR_TK00,msg=<speed=9>……<wait=4><speed=5>お城の方に<br>それらしい反応はないですねぇ。,param=chr_Emily:$Left16:0:0:0:0:0:0:0:0:0,#
*,type=HCHR_TK00,msg=じゃあ多数の反応が<wait=3><br>いきなり消えたってこと？,param=chr_Sarsha:$Right12:0:0:0:0:0:0:0:0:0,#
*,type=HCHR_GRP00,param=chr_Emily:face:do:$FACE_FadeTime:0:0:0:0:0:0:0,#
*,type=HCHR_TK00,msg=う～ん…<wait=3><br>撤退でもしたんじゃないですかねぇ？,param=chr_Emily:$Left18:0:0:0:0:0:0:0:0:0,#
*,type=HCHR_GRP00,param=chr_Sarsha:face:ku:$FACE_FadeTime:0:0:0:0:0:0:0,#
*,type=HCHR_TK00,msg=<speed=8>したんじゃないですかね…<wait=4>って。,param=chr_Sarsha:$Right16:0:0:0:0:0:0:0:0:0,#
*,type=HCHR_TK01,param=all:skipmask:0:0:0:0:0:0:0:0:0,#
*,type=WAIT_0000,param=0.5:0:0:0:0:0:0:0:0:0:0,#
*,type=HCHR_GRP00,param=chr_Sarsha:face:do:$FACE_FadeTime:0:0:0:0:0:0:0,#
*,type=HCHR_TK00,msg=<speed=3>なら敵はともかく、<wait=3>連邦の兵士の姿が<br>見当たらないってのは、<wait=3>どう説明するのよ？,param=chr_Sarsha:$Right20:0:0:0:0:0:0:0:0:0,#
*,type=HCHR_TK00,msg=<speed=3>どう考えても、おかしいでしょっ!?,param=chr_Sarsha:$Right16:nowait:0:0:0:0:0:0:0:0,#
*,type=WAIT_0000,param=0.2:0:0:0:0:0:0:0:0:0:0,#
*,type=HCHR_SHK00,param=chr_Sarsha:5:0.1:0.5:0:0:0:0:0:0:0,#
*,type=CSYN_0002,param=0:0:0:0:0:0:0:0:0:0:0,#
*,type=HCHR_TK01,param=all:skipmask:0:0:0:0:0:0:0:0:0,#
*,type=WAIT_0000,param=0.3:0:0:0:0:0:0:0:0:0:0,#
*,type=HCHR_GRP00,param=chr_Emily:face:ku:$FACE_FadeTime:0:0:0:0:0:0:0,#
*,type=HCHR_TK00,msg=<speed=7>そ、<wait=3>そんなに怒らないでくださいよぅ……,param=chr_Emily:$Left20:0:0:0:0:0:0:0:0:0,#
*,type=HCHR_TK00,msg=私はただ、連邦軍の将官からそう連絡を受け<wait=3><br>それを伝えただけですし……,param=chr_Emily:$Left20:0:0:0:0:0:0:0:0:0,#
*,type=HCHR_TK00,msg=さっきは確かに次元探査システムで多数の<br>反応を示す表示があったんですからぁ……,param=chr_Emily:$Left20:0:0:0:0:0:0:0:0:0,#
*,type=HCHR_TK01,param=all:skipmask:0:0:0:0:0:0:0:0:0,#
*,type=HCHR_POS00,param=chr_Sarsha:FADEOUT:T$0.3:0:0:0:0:0:0:0:0,#
*,type=SS5_0004,param=SS_monitor:JMP1:OFF:0:0:0:0:0:0:0:0,#
*,type=SS5_0004,param=SS_monitorBG:JMP1:OFF:0:0:0:0:0:0:0:0,#
*,type=HCHR_POS00,param=chr_Emily:FADEOUT:$CHARA_FadeTime:0:0:0:0:0:0:0:0,#
*,type=STOP,param=0:0:0:0:0:0:0:0:0:0:0,#
*,type=WAIT_0000,param=0.5:0:0:0:0:0:0:0:0:0:0,#
*,type=HCHR_TK00,msg=<speed=7>サーシャちゃーーーん!!,param=chr_Renee:$CenterNoTail12:0:0:0:0:0:0:0:0:0,#
*,type=HCHR_TK01,param=all:0:0:0:0:0:0:0:0:0:0,#
*,type=WAIT_0000,param=0.5:0:0:0:0:0:0:0:0:0:0,#
*,type=HCHR_FDM00,param=ALL$chr_Sarsha:MSK$on:T$0:0:0:0:0:0:0:0:0,#
*,type=HCHR_POS00,param=chr_Sarsha:FADEIN:T$0.3:$OFS_Right:0:0:0:0:0:0:0,#
*,type=HCHR_GRP00,param=chr_Sarsha:face:bi:0:0:0:0:0:0:0:0,#
*,type=HCHR_POS00,param=chr_Dragon:FADEIN:T$0.3:$OFS_Left:0:0:0:0:0:0:0,#
*,type=HCHR_GRP00,param=chr_Dragon:face:bi:0:0:0:0:0:0:0:0,#
*,type=STOP,param=0:0:0:0:0:0:0:0:0:0:0,#
*,type=HCHR_TK00,msg=え……!?<wait=3><br>あれ、ルネさん……!!,param=chr_Sarsha:$Right10:0:0:0:0:0:0:0:0:0,#
*,type=HCHR_SHK00,param=chr_Dragon:10:0.2:0.7:0:0:0:0:0:0:0,#
*,type=HCHR_TK00,msg=<speed=7>グルルル……？,param=chr_Dragon:$Left8:0:0:0:0:0:0:0:0:0,#
*,type=HCHR_TK01,param=all:skipmask:0:0:0:0:0:0:0:0:0,#
*,type=HCHR_POS00,param=chr_Sarsha:FADEOUT:T$0.3:0:0:0:0:0:0:0:0,#
*,type=HCHR_POS00,param=chr_Dragon:FADEOUT:T$0.3:0:0:0:0:0:0:0:0,#
*,type=STOP,param=0:0:0:0:0:0:0:0:0:0:0,#
*,type=HCHR_TK01,param=all:0:0:0:0:0:0:0:0:0:0,#
*,type=WAIT_0000,param=0.5:0:0:0:0:0:0:0:0:0:0,#
*,type=FADEOUT_000,param=1:00&00&00:0:0:0:0:0:0:0:0:0,#
*,type=STOP,param=0:0:0:0:0:0:0:0:0:0:0,#
*,type=HCHR_POS00,param=chr_Renee:FADEIN:T$0.0:$OFS_Center:0:0:0:0:0:0:0,#
*,type=HCHR_GRP00,param=chr_Renee:face:ki:0:0:0:0:0:0:0:0,#
*,type=STOP,param=0:0:0:0:0:0:0:0:0:0:0,#
*,type=FADEIN_000,param=1:00&00&00:0:0:0:0:0:0:0:0:0,#
*,type=STOP,param=0:0:0:0:0:0:0:0:0:0:0,#
*,type=WAIT_0000,param=0.5:0:0:0:0:0:0:0:0:0:0,#
*,type=HCHR_TK00,msg=<speed=7>なんだか<br>難しいお話しているみたいだからー！,param=chr_Renee:$Center18:0:0:0:0:0:0:0:0:0,#
*,type=HCHR_TK01,param=all:0:0:0:0:0:0:0:0:0:0,#
*,type=WAIT_0000,param=0.5:0:0:0:0:0:0:0:0:0:0,#
*,type=HCHR_TK00,msg=<speed=7>その間に、お城を探検してくるね～!!,param=chr_Renee:$Center18:0:0:0:0:0:0:0:0:0,#
*,type=HCHR_TK01,param=all:0:0:0:0:0:0:0:0:0:0,#
*,type=WAIT_0000,param=0.5:0:0:0:0:0:0:0:0:0:0,#
*,type=HCHR_SHK00,param=chr_Renee:4:0.2:1:0:0:0:0:0:0:0,#
*,type=HCHR_POS00,param=chr_Renee:OUT$left$160:T$1:0:0:0:0:0:0:0:0,#
*,type=STOP,param=0:0:0:0:0:0:0:0:0:0:0,#
*,type=WAIT_0000,param=1:0:0:0:0:0:0:0:0:0:0,#
*,type=FADEOUT_000,param=1:00&00&00:0:0:0:0:0:0:0:0:0,#
*,type=STOP,param=0:0:0:0:0:0:0:0:0:0:0,#
*,type=MSKS_0000,param=0:00&00&00:0:0:0:0:0:0:0:0:0,#
*,type=SS5_0000,param=SS_monitor:script_monitor.ssbp:script_monitor/anime:script_monitor/anime:7:$Monitor_Left:$Monitor_Y:1:0:0:0,#
*,type=SS5_0000,param=SS_monitorBG:script_monitor.ssbp:script_monitor_back/anime:script_monitor_back/anime:4:$Monitor_Left:$Monitor_Y:1:0:0:0,#
*,type=HCHR_POS00,param=chr_Emily:FADEIN:$CHARA_FadeTime:$OFS_Left:0:0:0:0:0:0:0,#
*,type=HCHR_GRP00,param=chr_Emily:face:do:0:0:0:0:0:0:0:0,#
*,type=HCHR_POS00,param=chr_Sarsha:FADEIN:T$0.0:$OFS_Right_Twin:0:0:0:0:0:0:0,#
*,type=HCHR_GRP00,param=chr_Sarsha:face:ku:0:0:0:0:0:0:0:0,#
*,type=STOP,param=0:0:0:0:0:0:0:0:0:0:0,#
*,type=MSKS_0002,param=all:00&00&00:0:0:0:0:0:0:0:0:0,#
*,type=FADEIN_000,param=1:00&00&00:0:0:0:0:0:0:0:0:0,#
*,type=STOP,param=0:0:0:0:0:0:0:0:0:0:0,#
*,type=WAIT_0000,param=0.5:0:0:0:0:0:0:0:0:0:0,#
*,type=HCHR_TK00,msg=<speed=3>ルネさん、<wait=3>いつの間にあんな遠くに！<wait=3><br>しかもお城を探検って……!!,param=chr_Sarsha:$Right18:0:0:0:0:0:0:0:0:0,#
*,type=HCHR_TK01,param=all:skipmask:0:0:0:0:0:0:0:0:0,#
*,type=WAIT_0000,param=0.3:0:0:0:0:0:0:0:0:0:0,#
*,type=HCHR_TK00,msg=どうしたんですか、<wait=3>サーシャさん？,param=chr_Emily:$Left16:0:0:0:0:0:0:0:0:0,#
*,type=HCHR_GRP00,param=chr_Sarsha:face:do:$FACE_FadeTime:0:0:0:0:0:0:0,#
*,type=HCHR_TK00,msg=<speed=3>一旦、切りますっ!!,param=chr_Sarsha:$Right10:0:0:0:0:0:0:0:0:0,#
*,type=HCHR_TK00,msg=え、<wait=3>ちょっ……,param=chr_Emily:$Left8:nowait:0:0:0:0:0:0:0:0,#
*,type=WAIT_0000,param=1.3:0:0:0:0:0:0:0:0:0:0,#
*,type=HCHR_TK01,param=all:0:0:0:0:0:0:0:0:0:0,#
*,type=SS5_0004,param=SS_monitor:JMP1:OFF:0:0:0:0:0:0:0:0,#
*,type=SS5_0004,param=SS_monitorBG:JMP1:OFF:0:0:0:0:0:0:0:0,#
*,type=SE_0000,param=377:0:0:0:0:0:0:0:0:0:0,#
*,type=HCHR_POS00,param=chr_Emily:FADEOUT:$CHARA_FadeTime:0:0:0:0:0:0:0:0,#
*,type=STOP,param=0:0:0:0:0:0:0:0:0:0:0,#
*,type=WAIT_0000,param=0.5:0:0:0:0:0:0:0:0:0:0,#
*,type=HCHR_TK00,msg=<speed=3>急いで追いかけなきゃ！,param=chr_Sarsha:$Right12:0:0:0:0:0:0:0:0:0,#
*,type=HCHR_TK01,param=all:skipmask:0:0:0:0:0:0:0:0:0,#
*,type=WAIT_0000,param=1:0:0:0:0:0:0:0:0:0:0,#
*,type=HCHR_GRP00,param=chr_Sarsha:face:bi:$FACE_FadeTime:0:0:0:0:0:0:0,#
*,type=HCHR_TK00,msg=えっ、<wait=3>ロイさんに連絡？,param=chr_Sarsha:$Right12:0:0:0:0:0:0:0:0:0,#
*,type=HCHR_TK01,param=all:skipmask:0:0:0:0:0:0:0:0:0,#
*,type=WAIT_0000,param=0.5:0:0:0:0:0:0:0:0:0:0,#
*,type=HCHR_GRP00,param=chr_Sarsha:face:ai:$FACE_FadeTime:0:0:0:0:0:0:0,#
*,type=HCHR_TK00,msg=確かにそうね……,param=chr_Sarsha:$Right8:0:0:0:0:0:0:0:0:0,#
*,type=HCHR_TK01,param=all:skipmask:0:0:0:0:0:0:0:0:0,#
*,type=WAIT_0000,param=0.5:0:0:0:0:0:0:0:0:0:0,#
*,type=SE_0000,param=375:0:0:0:0:0:0:0:0:0:0,#
*,type=WAIT_0000,param=1:0:0:0:0:0:0:0:0:0:0,#
*,type=SE_0000,param=376:0:0:0:0:0:0:0:0:0:0,#
*,type=SS5_0000,param=SS_monitor:script_monitor.ssbp:script_monitor/anime:script_monitor/anime:7:$Monitor_Left:$Monitor_Y:1:0:0:0,#
*,type=SS5_0000,param=SS_monitorBG:script_monitor.ssbp:script_monitor_back/anime:script_monitor_back/anime:4:$Monitor_Left:$Monitor_Y:1:0:0:0,#
*,type=WAIT_0000,param=0.5:0:0:0:0:0:0:0:0:0:0,#
*,type=HCHR_POS00,param=chr_Loy:FADEIN:$CHARA_FadeTime:$OFS_Left:0:0:0:0:0:0:0,#
*,type=HCHR_GRP00,param=chr_Loy:face:fu:0:0:0:0:0:0:0:0,#
*,type=STOP,param=0:0:0:0:0:0:0:0:0:0:0,#
*,type=WAIT_0000,param=0.5:0:0:0:0:0:0:0:0:0:0,#
*,type=HCHR_TK00,msg=どうした、サーシャ。<wait=3><br>何かあったか？,param=chr_Loy:$Left10:0:0:0:0:0:0:0:0:0,#
*,type=HCHR_TK01,param=all:skipmask:0:0:0:0:0:0:0:0:0,#
*,type=WAIT_0000,param=0.5:0:0:0:0:0:0:0:0:0:0,#
*,type=HCHR_GRP00,param=chr_Sarsha:face:ku:$FACE_FadeTime:0:0:0:0:0:0:0,#
*,type=HCHR_TK00,msg=軍港には、敵も連邦兵士もいませんでした。,param=chr_Sarsha:$Right20:0:0:0:0:0:0:0:0:0,#
*,type=HCHR_GRP00,param=chr_Loy:face:fu:$FACE_FadeTime:0:0:0:0:0:0:0,#
*,type=HCHR_TK00,msg=なんだと……<wait=3><br>また誤情報か……!?,param=chr_Loy:$Left10:0:0:0:0:0:0:0:0:0,#
*,type=HCHR_GRP00,param=chr_Sarsha:face:fu:$FACE_FadeTime:0:0:0:0:0:0:0,#
*,type=HCHR_TK00,msg=えぇ…<wait=3>もう、なにがなんだか……,param=chr_Sarsha:$Right16:0:0:0:0:0:0:0:0:0,#
*,type=HCHR_TK01,param=all:skipmask:0:0:0:0:0:0:0:0:0,#
*,type=WAIT_0000,param=0.5:0:0:0:0:0:0:0:0:0:0,#
*,type=HCHR_GRP00,param=chr_Sarsha:face:ku:$FACE_FadeTime:0:0:0:0:0:0:0,#
*,type=HCHR_TK00,msg=ただ、それよりも、<wait=3>ルネさんが１人で<br>サーマ城に向かってしまって。,param=chr_Sarsha:$Right18:0:0:0:0:0:0:0:0:0,#
*,type=HCHR_GRP00,param=chr_Loy:face:bi:$FACE_FadeTime:0:0:0:0:0:0:0,#
*,type=HCHR_TK00,msg=<speed=7>え、<wait=3>なんだって……<wait=3><speed=5><br>ルネさんが……？,param=chr_Loy:$Left10:0:0:0:0:0:0:0:0:0,#
*,type=HCHR_TK01,param=all:skipmask:0:0:0:0:0:0:0:0:0,#
*,type=WAIT_0000,param=0.5:0:0:0:0:0:0:0:0:0:0,#
*,type=HCHR_GRP00,param=chr_Sarsha:face:do:$FACE_FadeTime:0:0:0:0:0:0:0,#
*,type=HCHR_TK00,msg=<speed=3>これから私たちは<wait=3><br>急いであの人を追いかけます！,param=chr_Sarsha:$Right14:0:0:0:0:0:0:0:0:0,#
*,type=HCHR_TK00,msg=<speed=3>ロイさんも<wait=3><br>サーマ城の方までお願いします！,param=chr_Sarsha:$Right16:0:0:0:0:0:0:0:0:0,#
*,type=HCHR_GRP00,param=chr_Loy:face:do:$FACE_FadeTime:0:0:0:0:0:0:0,#
*,type=HCHR_TK00,msg=<speed=3>あぁ、分かった。<wait=3><br>俺もサーマ城に急行する！,param=chr_Loy:$Left12:0:0:0:0:0:0:0:0:0,#
*,type=HCHR_TK01,param=all:skipmask:0:0:0:0:0:0:0:0:0,#
*,type=WAIT_0000,param=0.5:0:0:0:0:0:0:0:0:0:0,#
*,type=SS5_0004,param=SS_monitor:JMP1:OFF:0:0:0:0:0:0:0:0,#
*,type=SS5_0004,param=SS_monitorBG:JMP1:OFF:0:0:0:0:0:0:0:0,#
*,type=SE_0000,param=377:0:0:0:0:0:0:0:0:0:0,#
*,type=HCHR_POS00,param=chr_Loy:FADEOUT:$CHARA_FadeTime:0:0:0:0:0:0:0:0,#
*,type=STOP,param=0:0:0:0:0:0:0:0:0:0:0,#
*,type=WAIT_0000,param=0.5:0:0:0:0:0:0:0:0:0:0,#
*,type=HCHR_TK01,param=all:0:0:0:0:0:0:0:0:0:0,#
*,type=HCHR_TK10,msg=<speed=3>行こう、<rep_handlename>。<wait=3><br>急いでルネさんに追いつかなきゃ！,param=chr_Sarsha:Right:BASIC:0:0:0:0:0:0:0:0,#
*,type=HCHR_TK01,param=all:0:0:0:0:0:0:0:0:0:0,#
*,type=WAIT_0000,param=0.5:0:0:0:0:0:0:0:0:0:0,#
*,type=HCHR_FDM00,param=chr_Sarsha:MSK$on:0.3:0:0:0:0:0:0:0:0,#
*,type=HCHR_POS00,param=chr_Dragon:FADEIN:T$0.3:$OFS_Left:0:0:0:0:0:0:0,#
*,type=HCHR_GRP00,param=chr_Dragon:face:do:$FACE_FadeTime:0:0:0:0:0:0:0,#
*,type=STOP,param=0:0:0:0:0:0:0:0:0:0:0,#
*,type=HCHR_SHK00,param=chr_Dragon:10:0.2:0.7:0:0:0:0:0:0:0,#
*,type=HCHR_TK00,msg=グガァッ!!,param=chr_Dragon:$Left6:0:0:0:0:0:0:0:0:0,#
*,type=HCHR_TK01,param=ALL:skipmask:0:0:0:0:0:0:0:0:0,#
*,type=WAIT_0000,param=1:0:0:0:0:0:0:0:0:0:0,#
*,type=FADEOUT_000,param=1.5:00&00&00:0:0:0:0:0:0:0:0:0,#
*,type=WAIT_0000,param=2:0:0:0:0:0:0:0:0:0:0,#
*,type=STOP,param=0:0:0:0:0:0:0:0:0:0:0,#
*,type=PICT_0004,param=bg1:0:0:0:0:0:0:0:0:0:0,#
*,type=HCHR_ENT01,param=chr_Sarsha:0:0:0:0:0:0:0:0:0:0,#
*,type=HCHR_ENT01,param=chr_Dragon:0:0:0:0:0:0:0:0:0:0,#
*,type=HCHR_ENT01,param=chr_Emily:0:0:0:0:0:0:0:0:0:0,#
*,type=HCHR_ENT01,param=chr_Renee:0:0:0:0:0:0:0:0:0:0,#
*,type=HCHR_ENT01,param=chr_Loy:0:0:0:0:0:0:0:0:0:0,#

*,type=SYSED_00,param=0:0:0:0:0:0:0:0:0:0:0,#



