﻿ver 1.0

*,type=SYSST_00,param=0:0:0:0:0:0:0:0:0:0:0,#
*,type=CMD_STOP,param=0:0:0:0:0:0:0:0:0:0:0,#
*,type=SYSST_01,param=0:0:0:0:0:0:0:0:0:0:0,#


*,type=PICT_0000,param=bg1:battle_bg_008_04.jpg:0:bg:0:0:0:0:0:0:0,#
*,type=PICT_0001,param=bg1:0:0:0:0:0:0:0:0:0:0,#
*,type=HCHR_ENT00,param=chr_Lin_head:リン(カチューシャ):N$chara_bf2_52:$POS_Center:TYPE$middle:Z$1:0:0:0:0:0,#
*,type=HCHR_ENT00,param=chr_Dewey:デューイ★2:N$tame_wolf_02:$POS_Center:TYPE$middle:Z$1:0:0:0:0:0,#
*,type=HCHR_ENT00,param=mob1:警備兵1:N$chara_bf2_47:$POS_Center:TYPE$middle:Z$1:0:0:0:0:0,#
*,type=HCHR_ENT00,param=mob2:警備兵2:N$chara_bf2_47:$POS_Center:TYPE$middle:Z$1:0:0:0:0:0,#
*,type=HCHR_POS00,param=chr_Lin_head:FADEIN:T$0.0:$OFS_Right:0:0:0:0:0:0:0,#
*,type=HCHR_POS00,param=chr_Dewey:FADEIN:T$0.0:$OFS_Right_Triple:0:0:0:0:0:0:0,#
*,type=HCHR_POS00,param=mob1:FADEIN:T$0.0:$OFS_Left:0:0:0:0:0:0:0,#
*,type=HCHR_POS00,param=mob2:FADEIN:T$0.0:$OFS_Left_Triple:0:0:0:0:0:0:0,#
*,type=STOP,param=0:0:0:0:0:0:0:0:0:0:0,#
*,type=FADEIN_000,param=1.5:00&00&00:0:0:0:0:0:0:0:0:0,#
*,type=STOP,param=0:0:0:0:0:0:0:0:0:0:0,#
*,type=WAIT_0000,param=1:0:0:0:0:0:0:0:0:0:0,#
*,type=HCHR_TK00,msg=くっ……こうなったら<br>アレを起動させるしかない！,param=mob1:$Left10:0:0:0:0:0:0:0:0:0,#
*,type=HCHR_TK00,msg=……,param=chr_Lin_head:$Right10:0:0:0:0:0:0:0:0:0,#
*,type=HCHR_TK01,param=ALL:0:0:0:0:0:0:0:0:0:0,#
*,type=FADEOUT_000,param=1.5:00&00&00:0:0:0:0:0:0:0:0:0,#
*,type=WAIT_0000,param=2:0:0:0:0:0:0:0:0:0:0,#
*,type=STOP,param=0:0:0:0:0:0:0:0:0:0:0,#
*,type=PICT_0004,param=bg1:0:0:0:0:0:0:0:0:0:0,#
*,type=HCHR_ENT01,param=chr_Lin_head:0:0:0:0:0:0:0:0:0:0,#
*,type=HCHR_ENT01,param=chr_Dewey:0:0:0:0:0:0:0:0:0:0,#
*,type=HCHR_ENT01,param=mob1:0:0:0:0:0:0:0:0:0:0,#
*,type=HCHR_ENT01,param=mob2:0:0:0:0:0:0:0:0:0:0,#

*,type=SYSED_00,param=0:0:0:0:0:0:0:0:0:0:0,#



