﻿ScriptCmd ver 1.1.1(app1.0.4):スクリプト_02_2_バリウラ_dungeon3_BS.xlsm/シーン3_3(バトル)/main005-dungeon3_3.csv

*,type=SYSST_00,param=0:0:0:0:0:0:0:0:0:0:0,#
*,type=CMD_STOP,param=0:0:0:0:0:0:0:0:0:0:0,#
*,type=SYSST_01,param=0:0:0:0:0:0:0:0:0:0:0,#


*,type=EVT_CHKTRG,param=0:0:0:0:0:0:0:0:0:0:0,#
*,type=EVT_BTL_STARTBTL,param=3:0:0:0:0:0:0:0:0:0:0,#
*,type=BTL_INSENSITIVE_MONSTER,param=MINDEX$1:0:0:0:0:0:0:0:0:0:0,#
*,type=EVT_BLOCKEND,param=0:0:0:0:0:0:0:0:0:0:0,#
*,type=EVT_BTL_REGULARLY,param=100:0:0:0:0:0:0:0:0:0:0,#
*,type=BTL_ReqAction,param=PPTALL:PPTALL:MOVETO:DEFAULT$DEFAULT$0.4$IDLE$IDLE:0:0:0:0:0:0:0,#
*,type=BTL_ReqAction,param=MPTALL:MPTALL:MOVETO:DEFAULT$DEFAULT$0.4$IDLE$IDLE:0:0:0:0:0:0:0,#
*,type=BTL_WaitAction,param=100:0:0:0:0:0:0:0:0:0:0,#
*,type=STOP,param=0:0:0:0:0:0:0:0:0:0:0,#
*,type=FADEOUT_000,param=1:0&0&0:0:0:0:0:0:0:0:0:0,#
*,type=STOP,param=0:0:0:0:0:0:0:0:0:0:0,#
*,type=MSKS_0001,param=bgBlackMask:$BGBLACK_X:$BGBLACK_Y:$BGBLACK_W:$BGBLACK_H:$BGBLACK_Color:$BGBLACK_Alpha:Z$1:$BGBLACK_T:0:0,#
*,type=BTL_ChangeParty,param=ON:copy:1002331:0:0:0:0:0:0:0:0,#
*,type=STOP,param=0:0:0:0:0:0:0:0:0:0:0,#
*,type=MSKS_0002,param=bgBlackMask:T$0:0:0:0:0:0:0:0:0:0,#
*,type=FADEIN_000,param=1:0&0&0:0:0:0:0:0:0:0:0:0,#
*,type=STOP,param=0:0:0:0:0:0:0:0:0:0:0,#
*,type=BTL_PanelMask,param=ON:0:0:0:0:0:0:0:0:0:0,#
*,type=BTL_STORY,param=START:0:0:SKIPFADE:0:0:0:0:0:0:0,#
*,type=STOP,param=0:0:0:0:0:0:0:0:0:0:0,#
*,type=HCHR_ENT00,param=chr_Karl:カル:N$chara_bf2_11_b:$BTLPOS_Left:TYPE$middle:Z$1:0:0:0:0:0,#
*,type=HCHR_ENT00,param=chr_Mehlfel:メルフェル:N$chara_bf2_18_b:$BTLPOS_Right:TYPE$middle:Z$1:0:0:0:0:0,#
*,type=HCHR_POS00,param=chr_Karl:FADEIN:$CHARA_FadeTime:0:0:0:0:0:0:0:0,#
*,type=HCHR_GRP00,param=chr_Karl:face:do:T$0.0:0:0:0:0:0:0:0,#
*,type=STOP,param=0:0:0:0:0:0:0:0:0:0:0,#
*,type=HCHR_TK00,msg=ハッ!!,param=chr_Karl:L$BATTLE&Left4:0:0:0:0:0:0:0:0:0,#
*,type=HCHR_TK01,param=all:0:0:0:0:0:0:0:0:0:0,#
*,type=HCHR_POS00,param=chr_Karl:FADEOUT:$CHARA_FadeTime:0:0:0:0:0:0:0:0,#
*,type=BTL_STORY,param=END:0:0:SKIPFADE:0:0:0:0:0:0:0,#
*,type=BTL_ReqAction,param=GUESTID$1_2001124:MINDEX$1:ATTACK:0:0:0:0:0:0:0:0,#
*,type=BTL_WaitAction,param=60:0:0:0:0:0:0:0:0:0:0,#
*,type=STOP,param=0:0:0:0:0:0:0:0:0:0:0,#
*,type=BTL_STORY,param=START:0:0:SKIPFADE:0:0:0:0:0:0:0,#
*,type=HCHR_POS00,param=chr_Mehlfel:FADEIN:$CHARA_FadeTime:0:0:0:0:0:0:0:0,#
*,type=HCHR_GRP00,param=chr_Mehlfel:face:ku:T$0.0:0:0:0:0:0:0:0,#
*,type=STOP,param=0:0:0:0:0:0:0:0:0:0:0,#
*,type=HCHR_TK00,msg=クッ……!!,param=chr_Mehlfel:L$BATTLE&Right6:0:0:0:0:0:0:0:0:0,#
*,type=HCHR_TK00,msg=……さすがは召喚老筆頭。<br>強さの格が違いますネェ。,param=chr_Mehlfel:L$BATTLE&Right12:0:0:0:0:0:0:0:0:0,#
*,type=HCHR_GRP00,param=chr_Mehlfel:face:fu:T$0.0:0:0:0:0:0:0:0,#
*,type=HCHR_TK00,msg=ワタクシでは、かないそうにないので<br>ここは退散させていただきますヨ♪,param=chr_Mehlfel:L$BATTLE&Right18:0:0:0:0:0:0:0:0:0,#
*,type=HCHR_TK01,param=all:0:0:0:0:0:0:0:0:0:0,#
*,type=HCHR_POS00,param=chr_Mehlfel:FADEOUT:$CHARA_FadeTime:0:0:0:0:0:0:0:0,#
*,type=HCHR_POS00,param=chr_Karl:FADEIN:$CHARA_FadeTime:0:0:0:0:0:0:0:0,#
*,type=HCHR_GRP00,param=chr_Karl:face:fu:0:0:0:0:0:0:0:0,#
*,type=STOP,param=0:0:0:0:0:0:0:0:0:0:0,#
*,type=HCHR_TK00,msg=……戯言を。<br>なぜ、本気でかかってこない？,param=chr_Karl:L$BATTLE&Left14:0:0:0:0:0:0:0:0:0,#
*,type=HCHR_TK01,param=all:0:0:0:0:0:0:0:0:0:0,#
*,type=HCHR_POS00,param=chr_Karl:FADEOUT:$CHARA_FadeTime:0:0:0:0:0:0:0:0,#
*,type=STOP,param=0:0:0:0:0:0:0:0:0:0:0,#
*,type=HCHR_POS00,param=chr_Mehlfel:FADEIN:$CHARA_FadeTime:0:0:0:0:0:0:0:0,#
*,type=HCHR_GRP00,param=chr_Mehlfel:face:ki:T$0.0:0:0:0:0:0:0:0,#
*,type=STOP,param=0:0:0:0:0:0:0:0:0:0:0,#
*,type=HCHR_TK00,msg=クックックッ……<br>実力を隠しているのはお互い様でしょう。,param=chr_Mehlfel:L$BATTLE&Right20:0:0:0:0:0:0:0:0:0,#
*,type=HCHR_GRP00,param=chr_Mehlfel:face:fu:T$0.0:0:0:0:0:0:0:0,#
*,type=HCHR_TK00,msg=それにワタクシではかなわないというのは<br>戯言なんかじゃありませんヨ。,param=chr_Mehlfel:L$BATTLE&Right20:0:0:0:0:0:0:0:0:0,#
*,type=HCHR_TK00,msg=おそらく……本当のことでしょう？,param=chr_Mehlfel:L$BATTLE&Right16:0:0:0:0:0:0:0:0:0,#
*,type=HCHR_GRP00,param=chr_Mehlfel:face:ki:T$0.0:0:0:0:0:0:0:0,#
*,type=HCHR_TK00,msg=アナタの隠されている力……<br>なかなかに興味深いですからネェ。,param=chr_Mehlfel:L$BATTLE&Right16:0:0:0:0:0:0:0:0:0,#
*,type=HCHR_TK01,param=all:0:0:0:0:0:0:0:0:0:0,#
*,type=HCHR_POS00,param=chr_Mehlfel:FADEOUT:$CHARA_FadeTime:0:0:0:0:0:0:0:0,#
*,type=HCHR_POS00,param=chr_Karl:FADEIN:$CHARA_FadeTime:0:0:0:0:0:0:0:0,#
*,type=HCHR_GRP00,param=chr_Karl:face:fu:0:0:0:0:0:0:0:0,#
*,type=STOP,param=0:0:0:0:0:0:0:0:0:0:0,#
*,type=HCHR_TK00,msg=…………,param=chr_Karl:L$BATTLE&Left4:0:0:0:0:0:0:0:0:0,#
*,type=HCHR_TK01,param=all:0:0:0:0:0:0:0:0:0:0,#
*,type=HCHR_POS00,param=chr_Karl:FADEOUT:$CHARA_FadeTime:0:0:0:0:0:0:0:0,#
*,type=STOP,param=0:0:0:0:0:0:0:0:0:0:0,#
*,type=HCHR_POS00,param=chr_Mehlfel:FADEIN:$CHARA_FadeTime:0:0:0:0:0:0:0:0,#
*,type=HCHR_GRP00,param=chr_Mehlfel:face:fu:T$0.0:0:0:0:0:0:0:0,#
*,type=STOP,param=0:0:0:0:0:0:0:0:0:0:0,#
*,type=HCHR_TK00,msg=では、ひとまず失礼致しますヨ♪<br>ご機嫌よう……,param=chr_Mehlfel:L$BATTLE&Right16:0:0:0:0:0:0:0:0:0,#
*,type=HCHR_TK01,param=all:0:0:0:0:0:0:0:0:0:0,#
*,type=HCHR_POS00,param=chr_Mehlfel:FADEOUT:$CHARA_FadeTime:0:0:0:0:0:0:0:0,#
*,type=STOP,param=0:0:0:0:0:0:0:0:0:0:0,#
*,type=BTL_STORY,param=END:0:0:SKIPFADE:0:0:0:0:0:0:0,#
*,type=STOP,param=0:0:0:0:0:0:0:0:0:0:0,#
*,type=BTL_MONSTER_ESCAPE,param=MPTALL:LEFT:0:0:0:0:0:0:0:0:0,#
*,type=BTL_WaitAction,param=0:0:0:0:0:0:0:0:0:0:0,#
*,type=STOP,param=0:0:0:0:0:0:0:0:0:0:0,#
*,type=WAIT_0000,param=2:0:0:0:0:0:0:0:0:0:0,#
*,type=FADEOUT_000,param=2:00&00&00:0:0:0:0:0:0:0:0:0,#
*,type=BTL_ENDMISSION,param=$MSNR_CLEAR:0:0:0:0:0:0:0:0:0:0,#
*,type=BTL_PanelMask,param=OFF:0:0:0:0:0:0:0:0:0:0,#
*,type=EVT_BLOCKEND,param=0:0:0:0:0:0:0:0:0:0:0,#
*,type=EVT_BTL_REGULARLY,param=1000:0:0:0:0:0:0:0:0:0:0,#
*,type=BTL_FADE,param=OUT:0:0:0:0:0:0:0:0:0:0,#
*,type=HCHR_ENT00,param=chr_boss:奇術師メルフェル:N$chara_bf2_18_b:$BTLPOS_Right:TYPE$middle:Z$1:0:0:0:0:0,#
*,type=HCHR_POS00,param=chr_boss:FADEIN:T$0.5:0:0:0:0:0:0:0:0,#
*,type=STOP,param=0:0:0:0:0:0:0:0:0:0:0,#
*,type=HCHR_TK00,msg=さ～て、ここからは<br>楽しい楽しいゲームの時間ですヨ♪,param=chr_boss:L$BATTLE&Right16:0:0:0:0:0:0:0:0:0,#
*,type=HCHR_TK01,param=all:0:0:0:0:0:0:0:0:0:0,#
*,type=HCHR_ENT01,param=chr_boss:0:0:0:0:0:0:0:0:0:0,#
*,type=BTL_SETDEFENSE,param=CARD:0:33$2000&0$2100:0:0:0:0:0:0:0:0,#
*,type=EVT_BLOCKEND,param=0:0:0:0:0:0:0:0:0:0:0,#
*,type=EVT_BTL_REGULARLY,param=2000:0:0:0:0:0:0:0:0:0:0,#
*,type=HCHR_ENT00,param=chr_boss:奇術師メルフェル:N$chara_bf2_18_b:$BTLPOS_Right:TYPE$middle:Z$1:0:0:0:0:0,#
*,type=HCHR_POS00,param=chr_boss:FADEIN:T$0.5:0:0:0:0:0:0:0:0,#
*,type=STOP,param=0:0:0:0:0:0:0:0:0:0:0,#
*,type=HCHR_TK00,msg=クックックッ<br>よく引き当てましたネェ♪,param=chr_boss:L$BATTLE&Right12:0:0:0:0:0:0:0:0:0,#
*,type=HCHR_TK00,msg=それでは…<br>ご褒美をあげましょう♪,param=chr_boss:L$BATTLE&Right12:0:0:0:0:0:0:0:0:0,#
*,type=HCHR_TK01,param=all:0:0:0:0:0:0:0:0:0:0,#
*,type=HCHR_ENT01,param=chr_boss:0:0:0:0:0:0:0:0:0:0,#
*,type=BTL_FADE,param=IN:0:0:0:0:0:0:0:0:0:0,#
*,type=STOP,param=0:0:0:0:0:0:0:0:0:0:0,#
*,type=EVT_BLOCKEND,param=0:0:0:0:0:0:0:0:0:0:0,#
*,type=EVT_BTL_REGULARLY,param=2100:0:0:0:0:0:0:0:0:0:0,#
*,type=HCHR_ENT00,param=chr_boss:奇術師メルフェル:N$chara_bf2_18_b:$BTLPOS_Right:TYPE$middle:Z$1:0:0:0:0:0,#
*,type=HCHR_POS00,param=chr_boss:FADEIN:T$0.5:0:0:0:0:0:0:0:0,#
*,type=STOP,param=0:0:0:0:0:0:0:0:0:0:0,#
*,type=HCHR_TK00,msg=クックックッ……<br>アナタも運のない人ですネェ…,param=chr_boss:L$BATTLE&Right14:0:0:0:0:0:0:0:0:0,#
*,type=HCHR_TK00,msg=残念ですが…<br>ここでサヨナラしましょう！,param=chr_boss:L$BATTLE&Right14:0:0:0:0:0:0:0:0:0,#
*,type=HCHR_TK01,param=all:0:0:0:0:0:0:0:0:0:0,#
*,type=HCHR_ENT01,param=chr_boss:0:0:0:0:0:0:0:0:0:0,#
*,type=BTL_FADE,param=IN:0:0:0:0:0:0:0:0:0:0,#
*,type=STOP,param=0:0:0:0:0:0:0:0:0:0:0,#
*,type=EVT_BLOCKEND,param=0:0:0:0:0:0:0:0:0:0:0,#
*,type=EVT_BTL_REGULARLY,param=10000:0:0:0:0:0:0:0:0:0:0,#
*,type=BTL_STARTBREAK,param=2:1:20000:183:ブレイク状態:0:0:0:0:0:0,#
*,type=EVT_BLOCKEND,param=0:0:0:0:0:0:0:0:0:0:0,#
*,type=EVT_BTL_REGULARLY,param=20000:0:0:0:0:0:0:0:0:0:0,#
*,type=BTL_ENDBREAK,param=1:0:0:0:0:0:0:0:0:0:0,#
*,type=EVT_BLOCKEND,param=0:0:0:0:0:0:0:0:0:0:0,#

*,type=SYSED_00,param=0:0:0:0:0:0:0:0:0:0:0,#



