﻿ScriptCmd ver 1.1.1:スクリプト_02R_1_リン２章イクスタス_dungeon11_BS.xlsm/シーン11_1バトルコール用/main006-battlecall11_1.csv

*,type=SYSST_00,param=0:0:0:0:0:0:0:0:0:0:0,#
*,type=CMD_STOP,param=0:0:0:0:0:0:0:0:0:0:0,#
*,type=SYSST_01,param=0:0:0:0:0:0:0:0:0:0:0,#


*,type=GAM_STARTBTL,param=4610:HEROINE:0:0:0:0:0:0:0:0:0,#

*,type=SYSED_00,param=0:0:0:0:0:0:0:0:0:0:0,#



