﻿ScriptCmd ver 1.1.1(app1.0.4):スクリプト_07_1_魔城上層部_dungeon11.xlsm/main011-dungeon11-8/main011-dungeon11-8.csv

*,type=SYSST_00,param=0:0:0:0:0:0:0:0:0:0:0,#
*,type=CMD_STOP,param=0:0:0:0:0:0:0:0:0:0:0,#
*,type=SYSST_01,param=0:0:0:0:0:0:0:0:0:0:0,#


*,type=PICT_0000,param=bg_01:battle_bg_015_02.jpg:1:bg$1050702:0:0:0:2:0:0:0,#
*,type=BGM_0000,param=1010:1.5:0:0:0:0:0:0:0:0:0,#
*,type=FADEIN_000,param=1.5:00&00&00:0:0:0:0:0:0:0:0:0,#
*,type=WAIT_0000,param=2.5:0:0:0:0:0:0:0:0:0:0,#
*,type=HCHR_ENT00,param=chr_Lin:リン:N$chara_bf2_25:$POS_Center:TYPE$middle:Z$10:0:0:0:0:0,#
*,type=HCHR_ENT00,param=chr_Lin1:リン:N$chara_bf2_25:$POS_Center:TYPE$middle:Z$10&10:0:0:0:0:0,#
*,type=HCHR_ENT00,param=chr_Dewey:デューイ:N$tame_wolf_16:$POS_Center:TYPE$middle:Z$9&9:0:0:0:0:0,#
*,type=HCHR_ENT00,param=chr_Tirith:ティリス:N$chara_bf2_174:$POS_Center:TYPE$middle:Z$10:0:XFLIP$SET:0:0:0,#
*,type=HCHR_ENT00,param=chr_Lugina:ルジーナ:N$chara_bf2_14:$POS_Center:TYPE$middle:Z$10:0:XFLIP$SET:0:0:0,#
*,type=HCHR_ENT00,param=chr_Seria:セリア:N$chara_bf2_12:$POS_Center:TYPE$middle:Z$10:0:XFLIP$SET:0:0:0,#
*,type=HCHR_ENT00,param=chr_Loy:ロイ:N$chara_bf2_28:$POS_Center:TYPE$middle:Z$10:0:0:0:0:0,#
*,type=HCHR_ENT00,param=chr_Sarsha:サーシャ:N$chara_bf2_1:$POS_Center:TYPE$middle:Z$10:0:0:0:0:0,#
*,type=HCHR_ENT00,param=chr_Legend:伝説の召喚師:N$chara_bf2_173:$POS_Center:TYPE$middle:Z$10:0:0:0:0:0,#
*,type=STOP,param=0:0:0:0:0:0:0:0:0:0:0,#
*,type=HCHR_GRP00,param=chr_Lin1:face:mu:0:0:0:0:0:0:0:0,#
*,type=HCHR_POS00,param=chr_Lin1:FADEIN:T$0.5:$OFS_Right:0:0:0:0:0:0:0,#
*,type=HCHR_POS00,param=chr_Dewey:FADEIN:T$0.5:OFS$-70&0:0:0:0:0:0:0:0,#
*,type=STOP,param=0:0:0:0:0:0:0:0:0:0:0,#
*,type=WAIT_0000,param=0.5:0:0:0:0:0:0:0:0:0:0,#
*,type=HCHR_TK10,msg=これでもう邪魔をしてくる奴は<br>いなくなったはず……,param=chr_Lin1:Right:BASIC:0:0:0:0:0:0:OFS$0&180:0,#
*,type=HCHR_GRP00,param=chr_Lin1:face:fu:$FACE_FadeTime:0:0:0:0:0:0:0,#
*,type=HCHR_TK10,msg=あとは真っ直ぐエルハザの元に<br>向かうだけね！,param=chr_Lin1:Right:BASIC:0:0:0:0:0:0:OFS$0&180:0,#
*,type=HCHR_TK10,msg=<speed=3>ワゥッ！,param=chr_Dewey:Left:BASIC:0:0:0:0:0:0:OFS$0&180:0,#
*,type=HCHR_TK01,param=all:skipmask:0:0:0:0:0:0:0:0:0,#
*,type=HCHR_POS00,param=chr_Lin1:FADEOUT:T$0.3:0:0:0:0:0:0:0:0,#
*,type=HCHR_POS00,param=chr_Dewey:FADEOUT:T$0.3:0:0:0:0:0:0:0:0,#
*,type=STOP,param=0:0:0:0:0:0:0:0:0:0:0,#
*,type=WAIT_0000,param=0.5:0:0:0:0:0:0:0:0:0:0,#
*,type=HCHR_FDM00,param=all:MSK$off:0:0:0:0:0:0:0:0:0,#
*,type=HCHR_POS00,param=chr_Tirith:FADEIN:T$0.5:$OFS_Center:0:0:0:0:0:0:0,#
*,type=STOP,param=0:0:0:0:0:0:0:0:0:0:0,#
*,type=WAIT_0000,param=0.5:0:0:0:0:0:0:0:0:0:0,#
*,type=HCHR_TK10,msg=<speed=9>……さて、<wait=1>と。</speed><wait=3><br>それじゃ、<wait=1>私はそろそろ戻らなくちゃ。,param=chr_Tirith:Center:BASIC:0:0:0:0:0:0:0:0,#
*,type=HCHR_TK01,param=all:0:0:0:0:0:0:0:0:0:0,#
*,type=HCHR_PRM00,param=chr_Tirith:Z$10:0:0:0:0:0:0:0:0:0,#
*,type=HCHR_PRM00,param=chr_Lin:Z$11:0:0:0:0:0:0:0:0:0,#
*,type=HCHR_FDM00,param=chr_Tirith:MSK$on:T$0.3:0:0:0:0:0:0:0:0,#
*,type=HCHR_GRP00,param=chr_Tirith:face:bi:0:0:0:0:0:0:0:0,#
*,type=HCHR_GRP00,param=chr_Lin:face:bi:0:0:0:0:0:0:0:0,#
*,type=HCHR_POS00,param=chr_Lin:IN$right:T$0.3:$OFS_Right:0:0:0:0:0:0:0,#
*,type=HCHR_POS00,param=chr_Tirith:IN$right$160:T$0.3:$OFS_Left:0:0:0:0:0:0:0,#
*,type=STOP,param=0:0:0:0:0:0:0:0:0:0:0,#
*,type=HCHR_TK10,msg=えっ！<wait=3><br>ティリス様、<wait=1>もう行っちゃうの!?,param=chr_Lin:Right:BASIC:0:0:0:0:0:0:0:0,#
*,type=HCHR_GRP00,param=chr_Lin:face:ai:0.3:0:0:0:0:0:0:0,#
*,type=HCHR_TK10,msg=<speed=7>……あ、<wait=1>そっか。</speed><wait=3><br>あの人が待ってるんだっけ……,param=chr_Lin:Right:BASIC:0:0:0:0:0:0:0:0,#
*,type=HCHR_GRP00,param=chr_Lin:face:mu:$FACE_FadeTime:0:0:0:0:0:0:0,#
*,type=HCHR_TK10,msg=そっちの世界では、<wait=1>一体何が起きてるの？,param=chr_Lin:Right:BASIC:0:0:0:0:0:0:0:0,#
*,type=HCHR_TK01,param=all:skipmask:0:0:0:0:0:0:0:0:0,#
*,type=HCHR_PRM00,param=chr_Tirith:Z$11:T$0.3:0:0:0:0:0:0:0:0,#
*,type=HCHR_PRM00,param=chr_Lin:Z$10:T$0.3:0:0:0:0:0:0:0:0,#
*,type=HCHR_FDM00,param=chr_Lin:MSK$on:T$0.3:0:0:0:0:0:0:0:0,#
*,type=HCHR_FDM00,param=chr_Tirith:MSK$off:T$0.3:0:0:0:0:0:0:0:0,#
*,type=HCHR_GRP00,param=chr_Tirith:face:ai:0.3:0:0:0:0:0:0:0,#
*,type=HCHR_EFC00,param=Eff_Manp_11:chr_Tirith:manpu_1_re:0:SS5$$MANP_silence_a:0:0:0:0:XFLIP$SET:0,#
*,type=WAIT_0000,param=1.5:0:0:0:0:0:0:0:0:0:0,#
*,type=PICT_0004,param=Eff_Manp_11:0:0:0:0:0:0:0:0:0:0,#
*,type=WAIT_0000,param=0.5:0:0:0:0:0:0:0:0:0:0,#
*,type=HCHR_GRP00,param=chr_Tirith:face:mu:$FACE_FadeTime:0:0:0:0:0:0:0,#
*,type=HCHR_TK10,msg=今、<wait=1>アヴルヘインって異界で<br>ちょっと厄介なことが起きてるの。,param=chr_Tirith:Left:BASIC:0:0:0:0:0:0:0:0,#
*,type=HCHR_TK10,msg=彼と私は、<wait=1>その被害が他の異界に拡大<br>しないように、<wait=1>その元凶を追ってるんだ。,param=chr_Tirith:Left:BASIC:0:0:0:0:0:0:0:0,#
*,type=HCHR_TK01,param=all:skipmask:0:0:0:0:0:0:0:0:0,#
*,type=HCHR_POS00,param=chr_Tirith:FADEOUT:T$0.3:0:0:0:0:0:0:0:0,#
*,type=STOP,param=0:0:0:0:0:0:0:0:0:0:0,#
*,type=HCHR_PRM00,param=chr_Lugina:Z$11:0:0:0:0:0:0:0:0:0,#
*,type=HCHR_PRM00,param=chr_Lin:Z$10:0:0:0:0:0:0:0:0:0,#
*,type=HCHR_FDM00,param=chr_Lugina:MSK$off:0:0:0:0:0:0:0:0:0,#
*,type=HCHR_FDM00,param=chr_Lin:MSK$on:0.3:0:0:0:0:0:0:0:0,#
*,type=HCHR_POS00,param=chr_Lugina:FADEIN:T$0.3:$OFS_Left:0:0:0:0:0:0:0,#
*,type=STOP,param=0:0:0:0:0:0:0:0:0:0:0,#
*,type=HCHR_TK10,msg=下手すると全ての異界が未曽有の危機に<br>陥っちまうぐらい、<wait=1>危険な問題だ。,param=chr_Lugina:Left:BASIC:0:0:0:0:0:0:0:0,#
*,type=HCHR_TK10,msg=アイツは<wait=1>それをひとりで<br>食い止めようとしてやがるのさ。,param=chr_Lugina:Left:BASIC:0:0:0:0:0:0:0:0,#
*,type=HCHR_GRP00,param=chr_Lin:face:kyou1:$FACE_FadeTime:0:0:0:0:0:0:0,#
*,type=HCHR_TK10,msg=ひとりで!?<wait=3><br>仲間の力を借りようとは思わな――,param=chr_Lin:Right:BASIC:0:0:0:0:0:0:0:0,#
*,type=HCHR_TK01,param=all:skipmask:0:0:0:0:0:0:0:0:0,#
*,type=HCHR_EFC00,param=Eff_Manp_16:chr_Lin:manpu_1:0:SS5$$MANP_surprise_black_d:0:0:0:0:0:0,#
*,type=WAIT_0000,param=1:0:0:0:0:0:0:0:0:0:0,#
*,type=PICT_0004,param=Eff_Manp_16:0:0:0:0:0:0:0:0:0:0,#
*,type=WAIT_0000,param=0.5:0:0:0:0:0:0:0:0:0:0,#
*,type=HCHR_GRP00,param=chr_Lin:face:ai:$FACE_FadeTime:0:0:0:0:0:0:0,#
*,type=HCHR_TK10,msg=<speed=7>……そっか。</speed><wait=3>召喚院のみんなは、<wait=1>今<wait=1><br>ここで私たちを助けてくれてるから……,param=chr_Lin:Right:BASIC:0:0:0:0:0:0:0:0,#
*,type=HCHR_TK01,param=all:skipmask:0:0:0:0:0:0:0:0:0,#
*,type=HCHR_POS00,param=chr_Lugina:FADEOUT:T$0.3:0:0:0:0:0:0:0:0,#
*,type=STOP,param=0:0:0:0:0:0:0:0:0:0:0,#
*,type=HCHR_FDM00,param=chr_Lin:MSK$on:0.3:0:0:0:0:0:0:0:0,#
*,type=HCHR_FDM00,param=chr_Seria:MSK$off:0:0:0:0:0:0:0:0:0,#
*,type=HCHR_POS00,param=chr_Seria:FADEIN:T$0.3:$OFS_Left:0:0:0:0:0:0:0,#
*,type=STOP,param=0:0:0:0:0:0:0:0:0:0:0,#
*,type=HCHR_TK10,msg=アイツなら大丈夫よ。,param=chr_Seria:Left:BASIC:0:0:0:0:0:0:0:0,#
*,type=HCHR_GRP00,param=chr_Seria:face:ki:$FACE_FadeTime:0:0:0:0:0:0:0,#
*,type=HCHR_TK10,msg=無数の英雄が味方についてるんだから。,param=chr_Seria:Left:BASIC:0:0:0:0:0:0:0:0,#
*,type=HCHR_TK10,msg=<speed=7>……<wait=1>調合の腕だけはいまひとつだけど。,param=chr_Seria:Left:BASIC:0:0:0:0:0:0:0:0,#
*,type=HCHR_TK01,param=all:0:0:0:0:0:0:0:0:0:0,#
*,type=HCHR_FDM00,param=all:MSK$on:0:0:0:0:0:0:0:0:0,#
*,type=HCHR_FDM00,param=chr_Loy:MSK$off:0:0:0:0:0:0:0:0:0,#
*,type=HCHR_PRM00,param=chr_Lin:Z$10:0:0:0:0:0:0:0:0:0,#
*,type=HCHR_PRM00,param=chr_Seria:Z$10:0:0:0:0:0:0:0:0:0,#
*,type=HCHR_PRM00,param=chr_Loy:Z$11:0:0:0:0:0:0:0:0:0,#
*,type=HCHR_GRP00,param=chr_Loy:face:ki:0:0:0:0:0:0:0:0,#
*,type=HCHR_POS00,param=chr_Loy:FADEIN:T$0.3:$OFS_Center:0:0:0:0:0:0:0,#
*,type=WAIT_0000,param=0.1:0:0:0:0:0:0:0:0:0:0,#
*,type=HCHR_GRP00,param=chr_Lin:face:bi:0:0:0:0:0:0:0:0,#
*,type=HCHR_GRP00,param=chr_Seria:face:ai:0:0:0:0:0:0:0:0,#
*,type=HCHR_POS00,param=chr_Lin:IN$left$90:T$0.2:$OFS_Right_Triple:0:0:0:0:0:0:0,#
*,type=HCHR_POS00,param=chr_Seria:IN$right$90:T$0.2:$OFS_Left_Triple:0:0:0:0:0:0:0,#
*,type=STOP,param=0:0:0:0:0:0:0:0:0:0:0,#
*,type=HCHR_TK10,msg=その噂、<wait=1>本当だったんですか……！<wait=3><br>なんだか親近感湧くなぁ。,param=chr_Loy:Center:BASIC:0:0:0:0:0:0:0:0,#
*,type=HCHR_TK01,param=all:skipmask:0:0:0:0:0:0:0:0:0,#
*,type=HCHR_POS00,param=chr_Seria:FADEOUT:T$0.3:0:0:0:0:0:0:0:0,#
*,type=HCHR_POS00,param=chr_Loy:FADEOUT:T$0.3:0:0:0:0:0:0:0:0,#
*,type=HCHR_POS00,param=chr_Lin:FADEOUT:T$0.3:0:0:0:0:0:0:0:0,#
*,type=STOP,param=0:0:0:0:0:0:0:0:0:0:0,#
*,type=WAIT_0000,param=0.3:0:0:0:0:0:0:0:0:0:0,#
*,type=HCHR_FDM00,param=all:MSK$off:0:0:0:0:0:0:0:0:0,#
*,type=HCHR_GRP00,param=chr_Tirith:face:ki:0:0:0:0:0:0:0:0,#
*,type=HCHR_POS00,param=chr_Tirith:FADEIN:T$0.5:$OFS_Center:0:0:0:0:0:0:0,#
*,type=STOP,param=0:0:0:0:0:0:0:0:0:0:0,#
*,type=WAIT_0000,param=1:0:0:0:0:0:0:0:0:0:0,#
*,type=HCHR_GRP00,param=chr_Tirith:face:fu:0.3:0:0:0:0:0:0:0,#
*,type=HCHR_TK10,msg=<speed=7>じゃあ、<wait=1>私もう行くね！<wait=5><br><speed=9>みんな、<wait=1>またね！,param=chr_Tirith:Center:BASIC:0:0:0:0:0:0:0:0,#
*,type=HCHR_TK01,param=all:0:0:0:0:0:0:0:0:0:0,#
*,type=HCHR_POS00,param=chr_Tirith:FADEOUT:T$0.5:0:0:0:0:0:0:0:0,#
*,type=STOP,param=0:0:0:0:0:0:0:0:0:0:0,#
*,type=WAIT_0000,param=0.3:0:0:0:0:0:0:0:0:0:0,#
*,type=HCHR_GRP00,param=chr_Lin:face:ki:0:0:0:0:0:0:0:0,#
*,type=HCHR_POS00,param=chr_Lin:FADEIN:T$0.5:$OFS_Center:0:0:0:0:0:0:0,#
*,type=STOP,param=0:0:0:0:0:0:0:0:0:0:0,#
*,type=HCHR_TK10,msg=<speed=7>ティリス様、<wait=1>ありがとう！,param=chr_Lin:Center:BASIC:0:0:0:0:0:0:0:0,#
*,type=HCHR_TK01,param=all:0:0:0:0:0:0:0:0:0:0,#
*,type=HCHR_POS00,param=chr_Lin:FADEOUT:T$0.5:0:0:0:0:0:0:0:0,#
*,type=STOP,param=0:0:0:0:0:0:0:0:0:0:0,#
*,type=WAIT_0000,param=0.3:0:0:0:0:0:0:0:0:0:0,#
*,type=HCHR_POS00,param=chr_Tirith:FADEIN:T$0.5:$OFS_Center:0:0:0:0:0:0:0,#
*,type=STOP,param=0:0:0:0:0:0:0:0:0:0:0,#
*,type=WAIT_0000,param=1:0:0:0:0:0:0:0:0:0:0,#
*,type=HCHR_GRP00,param=chr_Tirith:face:ki:0.5:0:0:0:0:0:0:0,#
*,type=WAIT_0000,param=2:0:0:0:0:0:0:0:0:0:0,#
*,type=SE_0000,param=343:0:0:0:0:0:0:0:0:0:0,#
*,type=EFFECT_GP,param=60010008:300:568:0:0:70:0:0:0:0:0,#
*,type=FADEIN_000,param=0.3:$BGWHITE_Color:0:0:0:0:0:0:0:0:0,#
*,type=WAIT_0000,param=1:0:0:0:0:0:0:0:0:0:0,#
*,type=SE_0000,param=203:0:0:0:0:0:0:0:0:0:0,#
*,type=MSKS_0000,param=bgWhiteMask:$BGWHITE_Color:0:Z$50:T$1.5:0:0:0:0:0:0,#
*,type=WAIT_0000,param=3:0:0:0:0:0:0:0:0:0:0,#
*,type=HCHR_POS00,param=chr_Tirith:FADEOUT:T$0:$OFS_Center:0:0:0:0:0:0:0,#
*,type=MSKS_0002,param=bgWhiteMask:T$3.5:0:0:0:0:0:0:0:0:0,#
*,type=WAIT_0000,param=4.5:0:0:0:0:0:0:0:0:0:0,#
*,type=HCHR_GRP00,param=chr_Lin:face:fu:0:0:0:0:0:0:0:0,#
*,type=HCHR_POS00,param=chr_Lin:FADEIN:T$0.5:$OFS_Center:0:0:0:0:0:0:0,#
*,type=STOP,param=0:0:0:0:0:0:0:0:0:0:0,#
*,type=HCHR_TK10,msg=<speed=7>……<wait=1>ねぇ、<wait=1><rep_handlename>。,param=chr_Lin:Center:BASIC:0:0:0:0:0:0:0:0,#
*,type=HCHR_GRP00,param=chr_Lin:face:mu:$FACE_FadeTime:0:0:0:0:0:0:0,#
*,type=HCHR_TK10,msg=私たち、<wait=1>ずっと自分や自分の世界の<br>ことばかり考えてきたけど……,param=chr_Lin:Center:BASIC:0:0:0:0:0:0:0:0,#
*,type=HCHR_TK10,msg=先生たちを助けて、<wait=1>セルタビアを<br>元通り平和な世界に戻せたら,param=chr_Lin:Center:BASIC:0:0:0:0:0:0:0:0,#
*,type=HCHR_GRP00,param=chr_Lin:face:fu:$FACE_FadeTime:0:0:0:0:0:0:0,#
*,type=HCHR_TK10,msg=私、<wait=1>あの人みたいに、<wait=1>他の世界のことも<br>救えるようなヴァイザーになりたい！,param=chr_Lin:Center:BASIC:0:0:0:0:0:0:0:0,#
*,type=HCHR_TK01,param=all:0:0:0:0:0:0:0:0:0:0,#
*,type=WAIT_0000,param=1:0:0:0:0:0:0:0:0:0:0,#
*,type=HCHR_GRP00,param=chr_Lin:face:bi:$FACE_FadeTime:0:0:0:0:0:0:0,#
*,type=HCHR_TK10,msg=<speed=7>……え、</speed><wait=1><rep_handlename>も<br>同じこと考えてたの？,param=chr_Lin:Center:BASIC:0:0:0:0:0:0:0:0,#
*,type=HCHR_GRP00,param=chr_Lin:face:ki:$FACE_FadeTime:0:0:0:0:0:0:0,#
*,type=HCHR_TK10,msg=ふふっ、<wait=1>じゃあ決まりだね！,param=chr_Lin:Center:BASIC:0:0:0:0:0:0:0:0,#
*,type=HCHR_TK01,param=all:0:0:0:0:0:0:0:0:0:0,#
*,type=HCHR_POS00,param=chr_Lin:FADEOUT:T$0.5:0:0:0:0:0:0:0:0,#
*,type=STOP,param=0:0:0:0:0:0:0:0:0:0:0,#
*,type=WAIT_0000,param=0.5:0:0:0:0:0:0:0:0:0:0,#
*,type=HCHR_POS00,param=chr_Sarsha:FADEIN:T$0.5:$OFS_Center:0:0:0:0:0:0:0,#
*,type=STOP,param=0:0:0:0:0:0:0:0:0:0:0,#
*,type=HCHR_TK10,msg=ふたりとも、<wait=1>こっちに<br>上へ繋がる道を見つけたわよ。,param=chr_Sarsha:Center:BASIC:0:0:0:0:0:0:0:0,#
*,type=HCHR_TK10,msg=多分、<wait=1>頂上までもうすぐだと思うわ。,param=chr_Sarsha:Center:BASIC:0:0:0:0:0:0:0:0,#
*,type=HCHR_TK01,param=all:0:0:0:0:0:0:0:0:0:0,#
*,type=HCHR_POS00,param=chr_Sarsha:FADEOUT:T$0.5:0:0:0:0:0:0:0:0,#
*,type=STOP,param=0:0:0:0:0:0:0:0:0:0:0,#
*,type=WAIT_0000,param=0.5:0:0:0:0:0:0:0:0:0:0,#
*,type=HCHR_GRP00,param=chr_Lin:face:mu:0:0:0:0:0:0:0:0,#
*,type=HCHR_POS00,param=chr_Lin:FADEIN:T$0.5:$OFS_Center:0:0:0:0:0:0:0,#
*,type=STOP,param=0:0:0:0:0:0:0:0:0:0:0,#
*,type=HCHR_TK10,msg=<speed=9>頂上か……<wait=3>そこに先生たちも……,param=chr_Lin:Center:BASIC:0:0:0:0:0:0:0:0,#
*,type=HCHR_TK01,param=all:0:0:0:0:0:0:0:0:0:0,#
*,type=WAIT_0000,param=0.5:0:0:0:0:0:0:0:0:0:0,#
*,type=HCHR_GRP00,param=chr_Lin:face:fu:$FACE_FadeTime:0:0:0:0:0:0:0,#
*,type=HCHR_TK10,msg=行こう、<wait=1><rep_handlename>。<wait=3><br>みんなを取り返しに！,param=chr_Lin:Center:BASIC:0:0:0:0:0:0:0:0,#
*,type=HCHR_TK01,param=all:0:0:0:0:0:0:0:0:0:0,#
*,type=WAIT_0000,param=0.5:0:0:0:0:0:0:0:0:0:0,#
*,type=FADEOUT_000,param=2.5:$BGWHITE_Color:0:0:0:0:0:0:0:0:0,#
*,type=BGM_0001,param=2.5:0:0:0:0:0:0:0:0:0:0,#
*,type=WAIT_0000,param=4.5:0:0:0:0:0:0:0:0:0:0,#
*,type=HCHR_POS00,param=chr_Lin:FADEOUT:T$0:0:0:0:0:0:0:0:0,#
*,type=PICT_0004,param=bg_01:0:0:0:0:0:0:0:0:0:0,#
*,type=PICT_0000,param=bg_adv_01:battle_bg_015_04.jpg:1:bg$900016:0:0:0:2:0:0:0,#
*,type=FADEIN_000,param=2.5:$BGWHITE_Color:0:0:0:0:0:0:0:0:0,#
*,type=BGM_0000,param=1087:1.5:0:0:0:0:0:0:0:0:0,#
*,type=STOP,param=0:0:0:0:0:0:0:0:0:0:0,#
*,type=WAIT_0000,param=1.5:0:0:0:0:0:0:0:0:0:0,#
*,type=SE_0001,param=0:345:0:0.8:4:0:0:0:0:0:0,#
*,type=HCHR_GRP00,param=chr_Legend:face:mu:0:0:0:0:0:0:0:0,#
*,type=HCHR_POS00,param=chr_Legend:IN$right:T$1.5:$OFS_Center:0:0:0:0:0:0:0,#
*,type=STOP,param=0:0:0:0:0:0:0:0:0:0:0,#
*,type=WAIT_0000,param=0.5:0:0:0:0:0:0:0:0:0:0,#
*,type=HCHR_POS00,param=chr_Legend:OUT$left:T$1.5:0:0:0:0:0:0:0:0,#
*,type=WAIT_0000,param=0.8:0:0:0:0:0:0:0:0:0:0,#
*,type=HCHR_PRM00,param=chr_Tirith:XFLIP$RESET:0:0:0:0:0:0:0:0:0,#
*,type=HCHR_GRP00,param=chr_Tirith:face:mu:0:0:0:0:0:0:0:0,#
*,type=HCHR_POS00,param=chr_Tirith:IN$right:T$1.5:$OFS_Center:0:0:0:0:0:0:0,#
*,type=STOP,param=0:0:0:0:0:0:0:0:0:0:0,#
*,type=WAIT_0000,param=1.5:0:0:0:0:0:0:0:0:0:0,#
*,type=HCHR_GRP00,param=chr_Tirith:face:ai:$FACE_FadeTime:0:0:0:0:0:0:0,#
*,type=HCHR_TK10,msg=<speed=7>きっと、<wait=1>大丈夫だよね……,param=chr_Tirith:Center:BASIC:0:0:0:0:0:0:0:0,#
*,type=HCHR_GRP00,param=chr_Tirith:face:mu:$FACE_FadeTime:0:0:0:0:0:0:0,#
*,type=HCHR_TK10,msg=<speed=7>みんな、<wait=3>頑張ってね！,param=chr_Tirith:Center:BASIC:0:0:0:0:0:0:0:0,#
*,type=HCHR_TK01,param=all:0:0:0:0:0:0:0:0:0:0,#
*,type=WAIT_0000,param=1.5:0:0:0:0:0:0:0:0:0:0,#
*,type=FADEOUT_000,param=2:$BGBLACK_Color:0:0:0:0:0:0:0:0:0,#
*,type=BGM_0001,param=2:0:0:0:0:0:0:0:0:0:0,#
*,type=WAIT_0000,param=2.5:0:0:0:0:0:0:0:0:0:0,#
*,type=CLSNE_0000,param=0:0:0:0:0:0:0:0:0:0:0,#

*,type=SYSED_00,param=0:0:0:0:0:0:0:0:0:0:0,#



