﻿ScriptCmd ver 1.1.1(app1.0.4):スクリプト_05_2_魔城_dungeonEX-2.xlsm/main009-dungeon-ex2-4c/main009-dungeon-ex2-4c.csv

*,type=SYSST_00,param=0:0:0:0:0:0:0:0:0:0:0,#
*,type=CMD_STOP,param=0:0:0:0:0:0:0:0:0:0:0,#
*,type=SYSST_01,param=0:0:0:0:0:0:0:0:0:0:0,#


*,type=SYSTEM_UI_DISP,param=OFF:0:0:0:0:0:0:0:0:0:0,#
*,type=MSKS_0000,param=bgWhiteMask:255&255&255:0:Z$40:T$0:0:0:0:0:0:0,#
*,type=SE_0000,param=438:0:0:0:0:0:0:0:0:0:0,#
*,type=WAIT_0000,param=1:0:0:0:0:0:0:0:0:0:0,#
*,type=SS5_0000,param=slot_machine:slot_machine.ssbp:slot_3/anime:slot_3/anime:60:320:570:1:0:0:0,#
*,type=WAIT_0000,param=10:0:0:0:0:0:0:0:0:0:0,#
*,type=STOP,param=0:0:0:0:0:0:0:0:0:0:0,#
*,type=WAIT_0000,param=1:0:0:0:0:0:0:0:0:0:0,#
*,type=MSKS_0002,param=bgWhiteMask:T$0:0:0:0:0:0:0:0:0:0,#
*,type=SS5_0001,param=slot_machine:0:0:0:0:0:0:0:0:0:0,#
*,type=CLSNE_0000,param=0:0:0:0:0:0:0:0:0:0:0,#

*,type=SYSED_00,param=0:0:0:0:0:0:0:0:0:0:0,#



