﻿ScriptCmd ver 1.1.1:スクリプト_02_1_サーマ_dungeon1.xlsm/シーン1-1/main004-dungeon1_1.csv

*,type=SYSST_00,param=0:0:0:0:0:0:0:0:0:0:0,#
*,type=CMD_STOP,param=0:0:0:0:0:0:0:0:0:0:0,#
*,type=SYSST_01,param=0:0:0:0:0:0:0:0:0:0:0,#


*,type=BGM_0000,param=1052:0:0:0:0:0:0:0:0:0:0,#
*,type=PICT_0000,param=bg1:battle_bg_004_01.jpg:0:bg$1010201:0:0:0:0:0:0:0,#
*,type=FADEIN_000,param=1.5:00&00&00:0:0:0:0:0:0:0:0:0,#
*,type=STOP,param=0:0:0:0:0:0:0:0:0:0:0,#
*,type=WAIT_0000,param=1:0:0:0:0:0:0:0:0:0:0,#
*,type=HCHR_ENT00,param=chr_Sarsha:サーシャ:N$chara_bf2_1:$POS_Center:TYPE$middle:Z$1:0:0:0:0:0,#
*,type=HCHR_GRP00,param=chr_Sarsha:face:bi:0:0:0:0:0:0:0:0,#
*,type=HCHR_ENT00,param=chr_Loy:ロイ:N$chara_bf2_28:$POS_Center:TYPE$middle:Z$1:0:0:0:0:0,#
*,type=HCHR_ENT00,param=chr_Emily:エミリー:N$chara_bf2_26_m:$POS_Monitor_Center:TYPE$middle:Z$5&5:0:0:0:0:0,#
*,type=HCHR_POS00,param=chr_Sarsha:FADEIN:T$0.5:$OFS_Right_Twin:0:0:0:0:0:0:0,#
*,type=HCHR_POS00,param=chr_Loy:FADEIN:T$0.5:$OFS_Left_Twin:0:0:0:0:0:0:0,#
*,type=STOP,param=0:0:0:0:0:0:0:0:0:0:0,#
*,type=WAIT_0000,param=1:0:0:0:0:0:0:0:0:0:0,#
*,type=HCHR_GRP00,param=chr_Sarsha:face:bi:0:0:0:0:0:0:0:0,#
*,type=HCHR_TK00,msg=<speed=7>ここがサーマ……<wait=3><br><speed=5>私、<wait=3>初めて来ました。,param=chr_Sarsha:$Right10:0:0:0:0:0:0:0:0:0,#
*,type=HCHR_TK00,msg=俺は初めてじゃないが……<wait=3><br>それでも訪れたのは数えるほどしかないな。,param=chr_Loy:$Left20:0:0:0:0:0:0:0:0:0,#
*,type=HCHR_TK00,msg=グランガイアの中でも足を運びづらい地域<br>だからな。,param=chr_Loy:$Left20:0:0:0:0:0:0:0:0:0,#
*,type=HCHR_TK01,param=chr_Loy:skipmask:0:0:0:0:0:0:0:0:0,#
*,type=WAIT_0000,param=0.5:0:0:0:0:0:0:0:0:0:0,#
*,type=HCHR_GRP00,param=chr_Loy:face:fu:0:0:0:0:0:0:0:0,#
*,type=HCHR_TK10,msg=<rep_handlename>、<wait=3>お前の世界には<br>こんな場所はあったか……？,param=chr_Loy:Left:BASIC:0:0:0:0:0:0:0:0,#
*,type=HCHR_TK01,param=chr_Loy:skipmask:0:0:0:0:0:0:0:0:0,#
*,type=WAIT_0000,param=1.5:0:0:0:0:0:0:0:0:0:0,#
*,type=HCHR_GRP00,param=chr_Loy:face:emi:0:0:0:0:0:0:0:0,#
*,type=HCHR_TK00,msg=さすがにこんな所は、初めてか……<wait=3><br>まあこんな場所、<wait=3>そうそうないだろうからな,param=chr_Loy:$Left20:0:0:0:0:0:0:0:0:0,#
*,type=HCHR_TK01,param=chr_Loy:skipmask:0:0:0:0:0:0:0:0:0,#
*,type=WAIT_0000,param=0.5:0:0:0:0:0:0:0:0:0:0,#
*,type=HCHR_TK01,param=ALL:0:0:0:0:0:0:0:0:0:0,#
*,type=HCHR_POS00,param=chr_Sarsha:FADEOUT:$CHARA_FadeTime:0:0:0:0:0:0:0:0,#
*,type=HCHR_POS00,param=chr_Loy:FADEOUT:$CHARA_FadeTime:0:0:0:0:0:0:0:0,#
*,type=WAIT_0000,param=2:0:0:0:0:0:0:0:0:0:0,#
*,type=HCHR_GRP00,param=chr_Sarsha:face:ai:$FACE_FadeTime:0:0:0:0:0:0:0,#
*,type=HCHR_POS00,param=chr_Sarsha:FADEIN:$CHARA_FadeTime:$OFS_Right_Twin:0:0:0:0:0:0:0,#
*,type=HCHR_POS00,param=chr_Loy:FADEIN:$CHARA_FadeTime:$OFS_Left_Twin:0:0:0:0:0:0:0,#
*,type=STOP,param=0:0:0:0:0:0:0:0:0:0:0,#
*,type=WAIT_0000,param=0.5:0:0:0:0:0:0:0:0:0:0,#
*,type=HCHR_TK00,msg=<speed=7>しかし、本当に雪と氷ばかりですね……,param=chr_Sarsha:$Right18:0:0:0:0:0:0:0:0:0,#
*,type=HCHR_TK00,msg=まあ、こんな土地だからこそ<wait=3><br>かつての四堕神同士の戦いの影響を免れ,param=chr_Loy:$Left18:0:0:0:0:0:0:0:0:0,#
*,type=HCHR_TK00,msg=比較的、美しい景観が保たれているん<br>だろうけどな。,param=chr_Loy:$Left18:0:0:0:0:0:0:0:0:0,#
*,type=HCHR_TK01,param=chr_Loy:skipmask:0:0:0:0:0:0:0:0:0,#
*,type=WAIT_0000,param=0.5:0:0:0:0:0:0:0:0:0:0,#
*,type=SE_0000,param=375:0:0:0:0:0:0:0:0:0:0,#
*,type=WAIT_0000,param=1:0:0:0:0:0:0:0:0:0:0,#
*,type=HCHR_TK01,param=ALL:0:0:0:0:0:0:0:0:0:0,#
*,type=HCHR_POS00,param=chr_Sarsha:FADEOUT:$CHARA_FadeTime:0:0:0:0:0:0:0:0,#
*,type=STOP,param=0:0:0:0:0:0:0:0:0:0:0,#
*,type=SE_0000,param=376:0:0:0:0:0:0:0:0:0:0,#
*,type=SS5_0000,param=SS_monitor:script_monitor.ssbp:script_monitor/anime:script_monitor/anime:7:$Monitor_Right:$Monitor_Y:1:0:0:0,#
*,type=SS5_0000,param=SS_monitorBG:script_monitor.ssbp:script_monitor_back/anime:script_monitor_back/anime:4:$Monitor_Right:$Monitor_Y:1:0:0:0,#
*,type=WAIT_0000,param=0.5:0:0:0:0:0:0:0:0:0:0,#
*,type=HCHR_POS00,param=chr_Emily:FADEIN:$CHARA_FadeTime:$OFS_Right_Twin:0:0:0:0:0:0:0,#
*,type=HCHR_GRP00,param=chr_Emily:face:fu:0:0:0:0:0:0:0:0,#
*,type=STOP,param=0:0:0:0:0:0:0:0:0:0:0,#
*,type=HCHR_TK00,msg=<speed=7>あー……<wait=3><br><speed=5>ロイさん、<wait=3>聞こえてますか～？,param=chr_Emily:$Right14:0:0:0:0:0:0:0:0:0,#
*,type=HCHR_GRP00,param=chr_Loy:face:fu:0:0:0:0:0:0:0:0,#
*,type=HCHR_TK00,msg=ん、エミリーか。<wait=3>どうした？,param=chr_Loy:$Left14:0:0:0:0:0:0:0:0:0,#
*,type=HCHR_GRP00,param=chr_Emily:face:ki:0:0:0:0:0:0:0:0,#
*,type=HCHR_TK00,msg=今回、私がロイさんたちのサポートを<wait=3><br>担当する事になりましたぁ～。,param=chr_Emily:$Right18:0:0:0:0:0:0:0:0:0,#
*,type=HCHR_TK00,msg=<speed=7>よろしくおねがいしまぁ～す！,param=chr_Emily:$Right14:0:0:0:0:0:0:0:0:0,#
*,type=HCHR_GRP00,param=chr_Loy:face:emi:0:0:0:0:0:0:0:0,#
*,type=HCHR_TK00,msg=<speed=7>そうか……<wait=4><speed=5>よろしく頼む。<wait=3><br>現状でのサーマの反応はどうなってる？,param=chr_Loy:$Left18:0:0:0:0:0:0:0:0:0,#
*,type=HCHR_GRP00,param=chr_Emily:face:ai:0:0:0:0:0:0:0:0,#
*,type=HCHR_TK00,msg=<speed=7>えぇとですねぇ…,param=chr_Emily:$Right8:0:0:0:0:0:0:0:0:0,#
*,type=HCHR_TK01,param=chr_Emily:skipmask:0:0:0:0:0:0:0:0:0,#
*,type=WAIT_0000,param=0.5:0:0:0:0:0:0:0:0:0:0,#
*,type=HCHR_GRP00,param=chr_Emily:face:mu:0:0:0:0:0:0:0:0,#
*,type=HCHR_TK00,msg=今のところは破壊活動などが行われた<br>痕跡はないようですね。,param=chr_Emily:$Right18:0:0:0:0:0:0:0:0:0,#
*,type=HCHR_TK01,param=chr_Emily:skipmask:0:0:0:0:0:0:0:0:0,#
*,type=WAIT_0000,param=0.5:0:0:0:0:0:0:0:0:0:0,#
*,type=HCHR_TK00,msg=ただ、<wait=3>この先の「霧雪の森」って場所に<wait=3><br>多数の生体反応があるみたいです。,param=chr_Emily:$Right18:0:0:0:0:0:0:0:0:0,#
*,type=HCHR_TK01,param=ALL:0:0:0:0:0:0:0:0:0:0,#
*,type=HCHR_FDM00,param=chr_Emily:MSK$on:0:0:0:0:0:0:0:0:0,#
*,type=HCHR_POS00,param=chr_Loy:FADEOUT:T$0:0:0:0:0:0:0:0:0,#
*,type=HCHR_PRM00,param=chr_Sarsha:XFLIP$SET:0:0:0:0:0:0:0:0:0,#
*,type=HCHR_POS00,param=chr_Sarsha:FADEIN:T$0.3:$OFS_Left_Twin:0:0:0:0:0:0:0,#
*,type=HCHR_GRP00,param=chr_Sarsha:face:bi:0:0:0:0:0:0:0:0,#
*,type=STOP,param=0:0:0:0:0:0:0:0:0:0:0,#
*,type=HCHR_TK00,msg=<speed=7>多数の生体反応……<wait=3><br><speed=5>ネグレスの奴らですか？,param=chr_Sarsha:$Left12:0:0:0:0:0:0:0:0:0,#
*,type=HCHR_GRP00,param=chr_Emily:face:ai:0:0:0:0:0:0:0:0,#
*,type=HCHR_TK00,msg=<speed=9>うーん……<wait=3><br><speed=5>そこまでは分かってないですけどぉ。,param=chr_Emily:$Right18:0:0:0:0:0:0:0:0:0,#
*,type=HCHR_GRP00,param=chr_Emily:face:mu:0:0:0:0:0:0:0:0,#
*,type=HCHR_TK00,msg=逆にそこまでの間には<wait=3><br>大した反応はないみたいですね。,param=chr_Emily:$Right16:0:0:0:0:0:0:0:0:0,#
*,type=HCHR_TK01,param=ALL:0:0:0:0:0:0:0:0:0:0,#
*,type=HCHR_FDM00,param=chr_Emily:MSK$on:0:0:0:0:0:0:0:0:0,#
*,type=HCHR_POS00,param=chr_Sarsha:FADEOUT:T$0:0:0:0:0:0:0:0:0,#
*,type=HCHR_POS00,param=chr_Loy:FADEIN:T$0.3:$OFS_Left_Twin:0:0:0:0:0:0:0,#
*,type=STOP,param=0:0:0:0:0:0:0:0:0:0:0,#
*,type=HCHR_TK00,msg=そうか……<wait=3>ありがとう。,param=chr_Loy:$Left12:0:0:0:0:0:0:0:0:0,#
*,type=HCHR_TK01,param=chr_Loy:skipmask:0:0:0:0:0:0:0:0:0,#
*,type=WAIT_0000,param=0.5:0:0:0:0:0:0:0:0:0:0,#
*,type=HCHR_TK01,param=ALL:0:0:0:0:0:0:0:0:0:0,#
*,type=HCHR_GRP00,param=chr_Emily:face:fu:0:0:0:0:0:0:0:0,#
*,type=HCHR_TK00,msg=それにしても<wait=3><br>みなさん、役得ですねぇ～。,param=chr_Emily:$Right14:0:0:0:0:0:0:0:0:0,#
*,type=HCHR_GRP00,param=chr_Loy:face:bi:0:0:0:0:0:0:0:0,#
*,type=HCHR_TK00,msg=役得？,param=chr_Loy:$Left4:0:0:0:0:0:0:0:0:0,#
*,type=HCHR_TK00,msg=だって、任務とは言え<wait=3><br>サーマに行けるんですよ。,param=chr_Emily:$Right12:0:0:0:0:0:0:0:0:0,#
*,type=HCHR_TK01,param=ALL:0:0:0:0:0:0:0:0:0:0,#
*,type=HCHR_FDM00,param=chr_Emily:MSK$on:0:0:0:0:0:0:0:0:0,#
*,type=HCHR_POS00,param=chr_Loy:FADEOUT:T$0:0:0:0:0:0:0:0:0,#
*,type=HCHR_POS00,param=chr_Sarsha:FADEIN:T$0.3:$OFS_Left_Twin:0:0:0:0:0:0:0,#
*,type=HCHR_GRP00,param=chr_Sarsha:face:bi:0:0:0:0:0:0:0:0,#
*,type=STOP,param=0:0:0:0:0:0:0:0:0:0:0,#
*,type=HCHR_TK00,msg=それがどうして役得なんです？,param=chr_Sarsha:$Left14:0:0:0:0:0:0:0:0:0,#
*,type=HCHR_GRP00,param=chr_Emily:face:bi:$FACE_FadeTime:0:0:0:0:0:0:0,#
*,type=HCHR_TK00,msg=<speed=7>どうしてって……<wait=3><br><speed=3>もしかして知らないんですかぁ!?,param=chr_Emily:$Right16:0:0:0:0:0:0:0:0:0,#
*,type=HCHR_TK00,msg=<speed=3>サーマっていったら、<wait=3>エルガイアで今一番<br>話題の観光スポットじゃないですかぁ～！,param=chr_Emily:$Right20:0:0:0:0:0:0:0:0:0,#
*,type=HCHR_GRP00,param=chr_Sarsha:face:bi:0:0:0:0:0:0:0:0,#
*,type=HCHR_TK00,msg=え、<wait=3>そうなんですか……？,param=chr_Sarsha:$Left12:0:0:0:0:0:0:0:0:0,#
*,type=HCHR_GRP00,param=chr_Emily:face:fu:0:0:0:0:0:0:0:0,#
*,type=HCHR_TK00,msg=はい、<wait=3>今月出たエルガイアトラベルでも<wait=3><br>特集が組まれてるんですよぉ!!,param=chr_Emily:$Right18:0:0:0:0:0:0:0:0:0,#
*,type=HCHR_GRP00,param=chr_Emily:face:ki:0:0:0:0:0:0:0:0,#
*,type=HCHR_TK00,msg=“秘境中の秘境！<wait=3><br>氷雪が織りなす幻想的な美景”<wait=3>って。,param=chr_Emily:$Right18:0:0:0:0:0:0:0:0:0,#
*,type=HCHR_GRP00,param=chr_Sarsha:face:ki:0:0:0:0:0:0:0:0,#
*,type=HCHR_TK00,msg=<speed=7>へぇ～、<wait=3><speed=5>そんな素敵な場所なんですね……,param=chr_Sarsha:$Left20:0:0:0:0:0:0:0:0:0,#
*,type=HCHR_TK00,msg=はい、<wait=3>そりゃもう。<wait=3><br><speed=3>ツアーとかもあるくらいですから！,param=chr_Emily:$Right16:0:0:0:0:0:0:0:0:0,#
*,type=HCHR_GRP00,param=chr_Sarsha:face:bi:0:0:0:0:0:0:0:0,#
*,type=HCHR_TK00,msg=…って、<wait=4>それじゃ、私たち以外にも観光で<wait=3><br>来ている人たちがいるかもしれない？,param=chr_Sarsha:$Left20:0:0:0:0:0:0:0:0:0,#
*,type=HCHR_GRP00,param=chr_Sarsha:face:do:0:0:0:0:0:0:0:0,#
*,type=HCHR_TK00,msg=<speed=7>それってとっても危険じゃ……,param=chr_Sarsha:$Left14:0:0:0:0:0:0:0:0:0,#
*,type=HCHR_TK01,param=chr_Sarsha:skipmask:0:0:0:0:0:0:0:0:0,#
*,type=HCHR_FDM00,param=chr_Loy:MSK$off:0:0:0:0:0:0:0:0:0,#
*,type=HCHR_GRP00,param=chr_Loy:face:fu:0:0:0:0:0:0:0:0,#
*,type=HCHR_POS00,param=chr_Sarsha:FADEOUT:T$0.3:0:0:0:0:0:0:0:0,#
*,type=HCHR_POS00,param=chr_Loy:FADEIN:T$0.3:$OFS_Left_Twin:0:0:0:0:0:0:0,#
*,type=STOP,param=0:0:0:0:0:0:0:0:0:0:0,#
*,type=HCHR_TK00,msg=それについては、<wait=3>おそらく大丈夫だ。,param=chr_Loy:$Left18:0:0:0:0:0:0:0:0:0,#
*,type=HCHR_TK00,msg=一般人には、<wait=3>すでにグランガイアから<br>退去するよう連絡が出ているはずだからな。,param=chr_Loy:$Left20:0:0:0:0:0:0:0:0:0,#
*,type=HCHR_TK01,param=chr_Loy:skipmask:0:0:0:0:0:0:0:0:0,#
*,type=WAIT_0000,param=1:0:0:0:0:0:0:0:0:0:0,#
*,type=HCHR_TK00,msg=<speed=9>……<wait=4><speed=5>すまないがエミリー、<wait=3>我々はネグレス<br>迎撃という重要な任務を受けている。,param=chr_Loy:$Left20:0:0:0:0:0:0:0:0:0,#
*,type=HCHR_TK00,msg=観光気分で来ているわけじゃないんだ。,param=chr_Loy:$Left18:0:0:0:0:0:0:0:0:0,#
*,type=HCHR_TK00,msg=君の方でも、それを自覚して<wait=3><br>ちゃんとサポートしてくれないか？,param=chr_Loy:$Left16:0:0:0:0:0:0:0:0:0,#
*,type=HCHR_GRP00,param=chr_Emily:face:do:$FACE_FadeTime:0:0:0:0:0:0:0,#
*,type=HCHR_TK00,msg=<speed=9>……<wait=4><speed=7>はぁ～い、<wait=3>すみません。,param=chr_Emily:$Right14:0:0:0:0:0:0:0:0:0,#
*,type=HCHR_TK01,param=chr_Emily:skipmask:0:0:0:0:0:0:0:0:0,#
*,type=SS5_0004,param=SS_monitor:JMP1:OFF:0:0:0:0:0:0:0:0,#
*,type=SS5_0004,param=SS_monitorBG:JMP1:OFF:0:0:0:0:0:0:0:0,#
*,type=SE_0000,param=377:0:0:0:0:0:0:0:0:0:0,#
*,type=HCHR_POS00,param=chr_Emily:FADEOUT:$CHARA_FadeTime:0:0:0:0:0:0:0:0,#
*,type=STOP,param=0:0:0:0:0:0:0:0:0:0:0,#
*,type=WAIT_0000,param=0.5:0:0:0:0:0:0:0:0:0:0,#
*,type=HCHR_GRP00,param=chr_Loy:face:ai:$FACE_FadeTime:0:0:0:0:0:0:0,#
*,type=HCHR_TK00,msg=<speed=9>はぁ……,param=chr_Loy:$Left4:0:0:0:0:0:0:0:0:0,#
*,type=HCHR_TK00,msg=<speed=7>さすが、エミリーのやつ、<wait=3>いつも<br>セラさんに怒られているだけあるな…,param=chr_Loy:$Left18:0:0:0:0:0:0:0:0:0,#
*,type=HCHR_TK01,param=ALL:skipmask:0:0:0:0:0:0:0:0:0,#
*,type=WAIT_0000,param=0.5:0:0:0:0:0:0:0:0:0:0,#
*,type=SE_0000,param=376:0:0:0:0:0:0:0:0:0:0,#
*,type=SS5_0000,param=SS_monitor:script_monitor.ssbp:script_monitor/anime:script_monitor/anime:7:$Monitor_Right:$Monitor_Y:1:0:0:0,#
*,type=SS5_0000,param=SS_monitorBG:script_monitor.ssbp:script_monitor_back/anime:script_monitor_back/anime:4:$Monitor_Right:$Monitor_Y:1:0:0:0,#
*,type=WAIT_0000,param=0.5:0:0:0:0:0:0:0:0:0:0,#
*,type=HCHR_POS00,param=chr_Emily:FADEIN:$CHARA_FadeTime:$OFS_Right_Twin:0:0:0:0:0:0:0,#
*,type=HCHR_GRP00,param=chr_Emily:face:mu:0:0:0:0:0:0:0:0,#
*,type=STOP,param=0:0:0:0:0:0:0:0:0:0:0,#
*,type=HCHR_TK00,msg=あ、<wait=3>そうだ。<wait=3><br>伝え忘れてたことがありました。,param=chr_Emily:$Right16:0:0:0:0:0:0:0:0:0,#
*,type=HCHR_TK01,param=ALL:0:0:0:0:0:0:0:0:0:0,#
*,type=HCHR_FDM00,param=chr_Emily:MSK$on:T$0:0:0:0:0:0:0:0:0,#
*,type=HCHR_GRP00,param=chr_Loy:face:fu:0:0:0:0:0:0:0:0,#
*,type=HCHR_EFC00,param=mnp_Loy:chr_Loy:manpu_1:OFS$0&0:SS5$$MANP_surprise_black_d:0:0:0:0:0:0,#
*,type=STOP,param=0:0:0:0:0:0:0:0:0:0:0,#
*,type=WAIT_0000,param=1:0:0:0:0:0:0:0:0:0:0,#
*,type=PICT_0004,param=mnp_Loy:0:0:0:0:0:0:0:0:0:0,#
*,type=WAIT_0000,param=0.5:0:0:0:0:0:0:0:0:0:0,#
*,type=HCHR_TK00,msg=<speed=7>えぇっとですねぇ……,param=chr_Emily:$Right10:0:0:0:0:0:0:0:0:0,#
*,type=HCHR_TK00,msg=エルガイア連邦の兵士さんが<wait=3><br>ネグレス討伐のため,param=chr_Emily:$Right14:0:0:0:0:0:0:0:0:0,#
*,type=HCHR_TK00,msg=そちらに向かっているとのことです。,param=chr_Emily:$Right18:0:0:0:0:0:0:0:0:0,#
*,type=HCHR_GRP00,param=chr_Loy:face:bi:$FACE_FadeTime:0:0:0:0:0:0:0,#
*,type=HCHR_TK00,msg=連邦が？,param=chr_Loy:$Left4:0:0:0:0:0:0:0:0:0,#
*,type=HCHR_TK00,msg=はい、<wait=3>そうです。,param=chr_Emily:$Right8:0:0:0:0:0:0:0:0:0,#
*,type=HCHR_TK00,msg=このことについて、<wait=3>カル召喚老様より<br>ロイさんへの伝言を預かってます。,param=chr_Emily:$Right18:0:0:0:0:0:0:0:0:0,#
*,type=HCHR_TK00,msg=<speed=7>伝言……<wait=3>どんな？,param=chr_Loy:$Left8:0:0:0:0:0:0:0:0:0,#
*,type=HCHR_GRP00,param=chr_Emily:face:do:$FACE_FadeTime:0:0:0:0:0:0:0,#
*,type=HCHR_TK00,msg=<speed=7>えっと……,param=chr_Emily:$Right6:0:0:0:0:0:0:0:0:0,#
*,type=HCHR_TK01,param=chr_Emily:skipmask:0:0:0:0:0:0:0:0:0,#
*,type=WAIT_0000,param=0.5:0:0:0:0:0:0:0:0:0:0,#
*,type=HCHR_GRP00,param=chr_Emily:face:mu:$FACE_FadeTime:0:0:0:0:0:0:0,#
*,type=HCHR_TK00,msg=「状況に応じて彼らと協力してくれ」,param=chr_Emily:$Right16:0:0:0:0:0:0:0:0:0,#
*,type=HCHR_TK01,param=chr_Emily:skipmask:0:0:0:0:0:0:0:0:0,#
*,type=WAIT_0000,param=0.5:0:0:0:0:0:0:0:0:0:0,#
*,type=HCHR_GRP00,param=chr_Emily:face:ai:$FACE_FadeTime:0:0:0:0:0:0:0,#
*,type=HCHR_TK00,msg=……とのことです。,param=chr_Emily:$Right10:0:0:0:0:0:0:0:0:0,#
*,type=HCHR_TK01,param=chr_Emily:skipmask:0:0:0:0:0:0:0:0:0,#
*,type=WAIT_0000,param=0.5:0:0:0:0:0:0:0:0:0:0,#
*,type=HCHR_GRP00,param=chr_Loy:face:fu:$FACE_FadeTime:0:0:0:0:0:0:0,#
*,type=HCHR_TK00,msg=<speed=7>………<wait=4><speed=5>なるほどな。<wait=3>了解した。,param=chr_Loy:$Left14:0:0:0:0:0:0:0:0:0,#
*,type=HCHR_GRP00,param=chr_Emily:face:mu:$FACE_FadeTime:0:0:0:0:0:0:0,#
*,type=HCHR_TK00,msg=お伝えできることは<wait=3><br>現状では以上になりまーす。,param=chr_Emily:$Right14:0:0:0:0:0:0:0:0:0,#
*,type=HCHR_TK01,param=chr_Emily:skipmask:0:0:0:0:0:0:0:0:0,#
*,type=WAIT_0000,param=0.5:0:0:0:0:0:0:0:0:0:0,#
*,type=HCHR_GRP00,param=chr_Emily:face:fu:$FACE_FadeTime:0:0:0:0:0:0:0,#
*,type=HCHR_TK00,msg=それではみなさん<wait=3><br>がんばってくださいねぇ♪,param=chr_Emily:$Right12:0:0:0:0:0:0:0:0:0,#
*,type=HCHR_TK01,param=chr_Emily:skipmask:0:0:0:0:0:0:0:0:0,#
*,type=SS5_0004,param=SS_monitor:JMP1:OFF:0:0:0:0:0:0:0:0,#
*,type=SS5_0004,param=SS_monitorBG:JMP1:OFF:0:0:0:0:0:0:0:0,#
*,type=SE_0000,param=377:0:0:0:0:0:0:0:0:0:0,#
*,type=HCHR_POS00,param=chr_Emily:FADEOUT:$CHARA_FadeTime:0:0:0:0:0:0:0:0,#
*,type=STOP,param=0:0:0:0:0:0:0:0:0:0:0,#
*,type=WAIT_0000,param=0.5:0:0:0:0:0:0:0:0:0:0,#
*,type=HCHR_PRM00,param=chr_Sarsha:XFLIP$RESET:0:0:0:0:0:0:0:0:0,#
*,type=HCHR_GRP00,param=chr_Sarsha:face:ki:$FACE_FadeTime:0:0:0:0:0:0:0,#
*,type=HCHR_POS00,param=chr_Sarsha:FADEIN:T$0.3:$OFS_Right_Twin:0:0:0:0:0:0:0,#
*,type=STOP,param=0:0:0:0:0:0:0:0:0:0:0,#
*,type=HCHR_TK00,msg=連邦の兵士が援軍に来るってことは…<wait=3><br>これで戦いが楽になるかもしれませんね。,param=chr_Sarsha:$Right20:0:0:0:0:0:0:0:0:0,#
*,type=HCHR_GRP00,param=chr_Loy:face:fu:$FACE_FadeTime:0:0:0:0:0:0:0,#
*,type=HCHR_TK00,msg=<speed=7>……どうだろうな。,param=chr_Loy:$Left10:0:0:0:0:0:0:0:0:0,#
*,type=HCHR_TK01,param=chr_Loy:skipmask:0:0:0:0:0:0:0:0:0,#
*,type=WAIT_0000,param=0.5:0:0:0:0:0:0:0:0:0:0,#
*,type=HCHR_TK00,msg=<speed=7>状況に応じて……<wait=4><speed=5>か。,param=chr_Loy:$Left10:0:0:0:0:0:0:0:0:0,#
*,type=HCHR_TK01,param=chr_Loy:skipmask:0:0:0:0:0:0:0:0:0,#
*,type=WAIT_0000,param=0.5:0:0:0:0:0:0:0:0:0:0,#
*,type=HCHR_TK01,param=chr_Loy:0:0:0:0:0:0:0:0:0:0,#
*,type=HCHR_GRP00,param=chr_Sarsha:face:fu:$FACE_FadeTime:0:0:0:0:0:0:0,#
*,type=HCHR_PRM00,param=chr_Sarsha:Z$2:0.3:0:0:0:0:0:0:0:0,#
*,type=HCHR_FDM00,param=chr_Loy:MSK$on:0.3:0:0:0:0:0:0:0:0,#
*,type=HCHR_FDM00,param=chr_Sarsha:MSK$off:0.3:0:0:0:0:0:0:0:0,#
*,type=WAIT_0000,param=0.5:0:0:0:0:0:0:0:0:0:0,#
*,type=HCHR_EFC00,param=mnp_Sarsha:chr_Sarsha:manpu_1:OFS$0&0:SS5$$MANP_doubt_black_a:0:0:0:0:0:0,#
*,type=WAIT_0000,param=1.3:0:0:0:0:0:0:0:0:0:0,#
*,type=PICT_0004,param=mnp_Sarsha:0:0:0:0:0:0:0:0:0:0,#
*,type=WAIT_0000,param=1:0:0:0:0:0:0:0:0:0:0,#
*,type=FADEOUT_000,param=1.5:00&00&00:0:0:0:0:0:0:0:0:0,#
*,type=WAIT_0000,param=1.5:0:0:0:0:0:0:0:0:0:0,#
*,type=STOP,param=0:0:0:0:0:0:0:0:0:0:0,#
*,type=PICT_0004,param=bg1:0:0:0:0:0:0:0:0:0:0,#
*,type=HCHR_ENT01,param=chr_Loy:0:0:0:0:0:0:0:0:0:0,#
*,type=HCHR_ENT01,param=chr_Sarsha:0:0:0:0:0:0:0:0:0:0,#

*,type=SYSED_00,param=0:0:0:0:0:0:0:0:0:0:0,#



