﻿ScriptCmd ver 1.1.1(app1.0.4):メインスクリプト_10_受け継がれる想い_BS4.xlsm/main014-dungeon4-1_library/main014-dungeon4-1_library.csv

*,type=SYSST_00,param=0:0:0:0:0:0:0:0:0:0:0,#
*,type=CMD_STOP,param=0:0:0:0:0:0:0:0:0:0:0,#
*,type=SYSST_01,param=0:0:0:0:0:0:0:0:0:0:0,#


*,type=EVT_CHKTRG,param=0:0:0:0:0:0:0:0:0:0:0,#
*,type=EVT_BTL_STARTBTL,param=1:0:0:0:0:0:0:0:0:0:0,#
*,type=BTL_PanelMask,param=ON:0:0:0:0:0:0:0:0:0:0,#
*,type=BTL_CMD,param=unit_panel:PPTALL:OFF:0:0:0:0:0:0:0:0,#
*,type=BTL_EnemyHpBarVisible,param=OFF:0:0:0:0:0:0:0:0:0:0,#
*,type=BTL_ChangeParty,param=ON:21602:5019016:0:0:0:0:0:0:0:0,#
*,type=BTL_WaitAction,param=10:0:0:0:0:0:0:0:0:0:0,#
*,type=BTL_ReqAction,param=PINDEX$0:0:MOVETOFIX:1000$DEFAULT$0$IDLE$IDLE:0:0:0:0:0:0:0,#
*,type=BTL_ReqAction,param=MINDEX$1:0:MOVETO:-1000$DEFAULT$0$MOVE$IDLE:0:0:0:0:0:0:0,#
*,type=BTL_ReqAction,param=MINDEX$2:0:MOVETO:-1000$DEFAULT$0$MOVE$IDLE:0:0:0:0:0:0:0,#
*,type=BTL_ReqAction,param=MINDEX$3:0:MOVETO:-1000$DEFAULT$0$MOVE$IDLE:0:0:0:0:0:0:0,#
*,type=BTL_ReqAction,param=MINDEX$4:0:MOVETO:-1000$DEFAULT$0$MOVE$IDLE:0:0:0:0:0:0:0,#
*,type=BTL_ReqAction,param=MINDEX$5:0:MOVETO:-1000$DEFAULT$0$MOVE$IDLE:0:0:0:0:0:0:0,#
*,type=BTL_ReqAction,param=MINDEX$6:0:MOVETO:-1000$DEFAULT$0$MOVE$IDLE:0:0:0:0:0:0:0,#
*,type=BTL_WaitAction,param=3:0:0:0:0:0:0:0:0:0:0,#
*,type=BTL_FADE,param=IN:0:0:0:0:0:0:0:0:0:0,#
*,type=WAIT_0000,param=1.5:0:0:0:0:0:0:0:0:0:0,#
*,type=SE_0000,param=345:0:0:0:0:0:0:0:0:0:0,#
*,type=BTL_ReqAction,param=MINDEX$2:0:MOVETOFIX:350$352$0.6$MOVE$IDLE:0:0:0:0:0:0:0,#
*,type=BTL_ReqAction,param=MINDEX$3:0:MOVETOFIX:350$552$0.6$MOVE$IDLE:0:0:0:0:0:0:0,#
*,type=BTL_WaitAction,param=30:0:0:0:0:0:0:0:0:0:0,#
*,type=HCHR_ENT00,param=chr_Nothum:イブキ:N$chara_bf2_1_nothum:$POS_Center:TYPE$middle:Z$10:0:0:0:0:0,#
*,type=HCHR_ENT00,param=chr_Ninja:天武党の忍D:N$chara_bf2_207_b:$BTLPOS_Right:TYPE$middle:Z$10:0:XFLIP$SET:0:0:0,#
*,type=HCHR_ENT00,param=chr_Sarsha:サーシャ:N$chara_bf2_1_b:$BTLPOS_Left:TYPE$middle:Z$10:0:0:0:0:0,#
*,type=HCHR_ENT00,param=chr_Yurika:ユリカ:N$chara_bf2_215_b:$BTLPOS_Left:TYPE$middle:Z$10:0:0:0:0:0,#
*,type=STOP,param=0:0:0:0:0:0:0:0:0:0:0,#
*,type=HCHR_GRP00,param=chr_Ninja:face:ku:0:0:0:0:0:0:0:0,#
*,type=HCHR_POS00,param=chr_Ninja:FADEIN:$CHARA_FadeTime:0:0:0:0:0:0:0:0,#
*,type=STOP,param=0:0:0:0:0:0:0:0:0:0:0,#
*,type=HCHR_TK10,msg=くそっ……<wait=3>何故こんなことに！,param=chr_Ninja:Right:BATTLE:0:0:0:0:0:0:0:0,#
*,type=HCHR_TK01,param=all:0:0:0:0:0:0:0:0:0:0,#
*,type=HCHR_POS00,param=chr_Ninja:FADEOUT:$CHARA_FadeTime:0:0:0:0:0:0:0:0,#
*,type=STOP,param=0:0:0:0:0:0:0:0:0:0:0,#
*,type=HCHR_GRP00,param=chr_Sarsha:face:do:0:0:0:0:0:0:0:0,#
*,type=HCHR_POS00,param=chr_Sarsha:FADEIN:$CHARA_FadeTime:0:0:0:0:0:0:0:0,#
*,type=STOP,param=0:0:0:0:0:0:0:0:0:0:0,#
*,type=HCHR_TK10,msg=あいつら、<wait=1>私たちの方を見てない!?<wait=3><br>一体何があったの？,param=chr_Sarsha:Left:BATTLE:0:0:0:0:0:0:0:0,#
*,type=HCHR_TK01,param=all:0:0:0:0:0:0:0:0:0:0,#
*,type=HCHR_POS00,param=chr_Sarsha:FADEOUT:$CHARA_FadeTime:0:0:0:0:0:0:0:0,#
*,type=STOP,param=0:0:0:0:0:0:0:0:0:0:0,#
*,type=HCHR_GRP00,param=chr_Yurika:face:ai:0:0:0:0:0:0:0:0,#
*,type=HCHR_POS00,param=chr_Yurika:FADEIN:$CHARA_FadeTime:0:0:0:0:0:0:0:0,#
*,type=STOP,param=0:0:0:0:0:0:0:0:0:0:0,#
*,type=HCHR_TK10,msg=始まってしまったのです……<wait=3><br>魂の暴走が。,param=chr_Yurika:Left:BATTLE:0:0:0:0:0:0:0:0,#
*,type=HCHR_GRP00,param=chr_Yurika:face:ku:0:0:0:0:0:0:0:0,#
*,type=HCHR_TK10,msg=いえ、<wait=1>先ほどの無明林から<br>すでに起きていたのでしょう。,param=chr_Yurika:Left:BATTLE:0:0:0:0:0:0:0:0,#
*,type=HCHR_TK01,param=all:0:0:0:0:0:0:0:0:0:0,#
*,type=HCHR_POS00,param=chr_Yurika:FADEOUT:$CHARA_FadeTime:0:0:0:0:0:0:0:0,#
*,type=STOP,param=0:0:0:0:0:0:0:0:0:0:0,#
*,type=WAIT_0000,param=1:0:0:0:0:0:0:0:0:0:0,#
*,type=SE_0000,param=325:0:0:0:0:0:0:0:0:0:0,#
*,type=EFFECT_GP,param=23060000:320:452:0:0:70:0:0:0:0:0,#
*,type=WAIT_0000,param=0.5:0:0:0:0:0:0:0:0:0:0,#
*,type=EFFECT_GP,param=21120008:180:360:0:0:0:0:0:0:0:0,#
*,type=BTL_ReqAction,param=MINDEX$1:0:MOVETO:180$452$0$MOVE$IDLE:0:0:0:0:0:0:0,#
*,type=BTL_WaitAction,param=30:0:0:0:0:0:0:0:0:0:0,#
*,type=BTL_ReqAction,param=MINDEX$2:0:DIR:0:0:0:0:0:0:0:0,#
*,type=BTL_ReqAction,param=MINDEX$3:0:DIR:0:0:0:0:0:0:0:0,#
*,type=BTL_WaitAction,param=1:0:0:0:0:0:0:0:0:0:0,#
*,type=HCHR_GRP00,param=chr_Ninja:face:do:0:0:0:0:0:0:0:0,#
*,type=HCHR_POS00,param=chr_Ninja:FADEIN:$CHARA_FadeTime:0:0:0:0:0:0:0:0,#
*,type=STOP,param=0:0:0:0:0:0:0:0:0:0:0,#
*,type=HCHR_TK10,msg=我々は敵ではない！<wait=3><br>威吹の魂などにのまれるな！,param=chr_Ninja:Right:BATTLE:0:0:0:0:0:0:0:0,#
*,type=HCHR_TK01,param=all:0:0:0:0:0:0:0:0:0:0,#
*,type=HCHR_POS00,param=chr_Ninja:FADEOUT:$CHARA_FadeTime:0:0:0:0:0:0:0:0,#
*,type=STOP,param=0:0:0:0:0:0:0:0:0:0:0,#
*,type=HCHR_TK10,msg=うふふ……<wait=3>楽しいわぁ、<wait=1>蒼弥。<wait=3><br>よくこうして鬼ごっこしたわよねぇ。,param=chr_Nothum:Left:BASIC:0:0:0:0:0:0:0:0,#
*,type=HCHR_TK01,param=all:0:0:0:0:0:0:0:0:0:0,#
*,type=WAIT_0000,param=0.3:0:0:0:0:0:0:0:0:0:0,#
*,type=HCHR_GRP00,param=chr_Ninja:face:ku:0:0:0:0:0:0:0:0,#
*,type=HCHR_POS00,param=chr_Ninja:FADEIN:$CHARA_FadeTime:0:0:0:0:0:0:0:0,#
*,type=STOP,param=0:0:0:0:0:0:0:0:0:0:0,#
*,type=HCHR_TK10,msg=くっ……<wait=3>完全に<br>乗っ取られてしまったか。,param=chr_Ninja:Right:BATTLE:0:0:0:0:0:0:0:0,#
*,type=HCHR_GRP00,param=chr_Ninja:face:do:0:0:0:0:0:0:0:0,#
*,type=HCHR_TK10,msg=仕方がない。<wait=3><br>依り代ごと斬り捨てる！,param=chr_Ninja:Right:BATTLE:0:0:0:0:0:0:0:0,#
*,type=HCHR_TK01,param=all:0:0:0:0:0:0:0:0:0:0,#
*,type=HCHR_POS00,param=chr_Ninja:FADEOUT:$CHARA_FadeTime:0:0:0:0:0:0:0:0,#
*,type=STOP,param=0:0:0:0:0:0:0:0:0:0:0,#
*,type=HCHR_TK10,msg=今日の勝負は姉様の勝ちよぉ。<wait=3><br>はい、<wait=1>つーかまえたぁ。,param=chr_Nothum:Left:BASIC:0:0:0:0:0:0:0:0,#
*,type=HCHR_TK01,param=all:0:0:0:0:0:0:0:0:0:0,#
*,type=WAIT_0000,param=0.3:0:0:0:0:0:0:0:0:0:0,#
*,type=WAIT_0000,param=0.5:0:0:0:0:0:0:0:0:0:0,#
*,type=SE_0000,param=328:0:0:0:0:0:0:0:0:0:0,#
*,type=SE_0000,param=217:0:0:0:0:0:0:0:0:0:0,#
*,type=EFFECT_GP,param=23080000:550:452:0:0:70:0:0:0:0:0,#
*,type=EFFECT_GP,param=23150008:300:452:0:0:70:0:0:0:0:0,#
*,type=BTL_EVTUNIT_ANM,param=MINDEX$1:ATTACK:0:0:0:0:0:0:0:0:0,#
*,type=BTL_WaitAction,param=20:0:0:0:0:0:0:0:0:0:0,#
*,type=WAIT_0000,param=0.75:0:0:0:0:0:0:0:0:0:0,#
*,type=BTL_EVTUNIT_ANM,param=MINDEX$1:IDLE:0:0:0:0:0:0:0:0:0,#
*,type=BTL_WaitAction,param=20:0:0:0:0:0:0:0:0:0:0,#
*,type=EFFECT_GP,param=60010007:320:568:0:0:70:0:0:0:0:0,#
*,type=HCHR_TK00,msg=<ctag=QUAK:10:10:0.05:12>ぐぁぁっ!!,param=chr_Ninja:$Shout_S_C:0:0:0:0:0:0:0:0:0,#
*,type=BTL_MONSTER_DEATH,param=MINDEX$2:0:0:0:0:0:0:0:0:0:0,#
*,type=BTL_MONSTER_DEATH,param=MINDEX$3:0:0:0:0:0:0:0:0:0:0,#
*,type=BTL_WaitAction,param=30:0:0:0:0:0:0:0:0:0:0,#
*,type=HCHR_TK01,param=all:0:0:0:0:0:0:0:0:0:0,#
*,type=WAIT_0000,param=0.3:0:0:0:0:0:0:0:0:0:0,#
*,type=WAIT_0000,param=1:0:0:0:0:0:0:0:0:0:0,#
*,type=HCHR_GRP00,param=chr_Yurika:face:ai:0:0:0:0:0:0:0:0,#
*,type=HCHR_POS00,param=chr_Yurika:FADEIN:$CHARA_FadeTime:0:0:0:0:0:0:0:0,#
*,type=STOP,param=0:0:0:0:0:0:0:0:0:0:0,#
*,type=HCHR_TK10,msg=<speed=7>あぁ……<wait=3>なんと酷いことを……,param=chr_Yurika:Left:BATTLE:0:0:0:0:0:0:0:0,#
*,type=HCHR_TK01,param=all:0:0:0:0:0:0:0:0:0:0,#
*,type=HCHR_POS00,param=chr_Yurika:FADEOUT:$CHARA_FadeTime:0:0:0:0:0:0:0:0,#
*,type=STOP,param=0:0:0:0:0:0:0:0:0:0:0,#
*,type=HCHR_TK10,msg=<speed=7>うふふっ……<wait=3>ふふふふふ……<wait=3><br>蒼弥……<wait=3>そうやぁ……<wait=3>うふふふふ,param=chr_Nothum:Left:BASIC:0:0:0:0:0:0:0:0,#
*,type=HCHR_TK01,param=all:0:0:0:0:0:0:0:0:0:0,#
*,type=WAIT_0000,param=0.3:0:0:0:0:0:0:0:0:0:0,#
*,type=SS5_0000,param=mnp1:emote_icon_animation.ssbp:doubt_black_a/anime:doubt_black_a/anime:10:150:350:1:0:0.4:0,#
*,type=WAIT_0000,param=1:0:0:0:0:0:0:0:0:0:0,#
*,type=SS5_0001,param=mnp1:0:0:0:0:0:0:0:0:0:0,#
*,type=HCHR_TK10,msg=なんだか蒼弥の気配を感じるわぁ……<wait=3><br>そこにいるのは蒼弥なのぉ？,param=chr_Nothum:Left:BASIC:0:0:0:0:0:0:0:0,#
*,type=HCHR_TK01,param=all:0:0:0:0:0:0:0:0:0:0,#
*,type=WAIT_0000,param=0.3:0:0:0:0:0:0:0:0:0:0,#
*,type=WAIT_0000,param=1:0:0:0:0:0:0:0:0:0:0,#
*,type=SE_0000,param=345:0:0:0:0:0:0:0:0:0:0,#
*,type=BTL_ReqAction,param=PINDEX$0:0:MOVETOFIX:500$452$0.4$IDLE$IDLE:0:0:0:0:0:0:0,#
*,type=BTL_WaitAction,param=10:0:0:0:0:0:0:0:0:0:0,#
*,type=WAIT_0000,param=1:0:0:0:0:0:0:0:0:0:0,#
*,type=HCHR_TK10,msg=まぁ！<wait=3>蒼弥だわ！,param=chr_Nothum:Left:BASIC:0:0:0:0:0:0:0:0,#
*,type=HCHR_TK10,msg=蒼弥の魂と同じ感じがするもの<wait=1><br>あれはもう蒼弥よ！,param=chr_Nothum:Left:BASIC:0:0:0:0:0:0:0:0,#
*,type=HCHR_TK01,param=all:0:0:0:0:0:0:0:0:0:0,#
*,type=WAIT_0000,param=0.3:0:0:0:0:0:0:0:0:0:0,#
*,type=HCHR_GRP00,param=chr_Sarsha:face:do:0:0:0:0:0:0:0:0,#
*,type=HCHR_POS00,param=chr_Sarsha:FADEIN:$CHARA_FadeTime:0:0:0:0:0:0:0:0,#
*,type=STOP,param=0:0:0:0:0:0:0:0:0:0:0,#
*,type=HCHR_TK00,msg=<size=35>やっぱり狂ってる……！,param=chr_Sarsha:$Mono_L_L:0:0:0:0:0:0:0:0:0,#
*,type=HCHR_TK01,param=all:0:0:0:0:0:0:0:0:0:0,#
*,type=HCHR_POS00,param=chr_Sarsha:FADEOUT:$CHARA_FadeTime:0:0:0:0:0:0:0:0,#
*,type=STOP,param=0:0:0:0:0:0:0:0:0:0:0,#
*,type=HCHR_TK10,msg=私を迎えにきてくれたのね。<wait=3><br>嬉しいわぁ。,param=chr_Nothum:Left:BASIC:0:0:0:0:0:0:0:0,#
*,type=HCHR_TK10,msg=もうこのお人形さんたちで遊ぶのは<br>終わりにするわねぇ。,param=chr_Nothum:Left:BASIC:0:0:0:0:0:0:0:0,#
*,type=HCHR_TK01,param=all:0:0:0:0:0:0:0:0:0:0,#
*,type=WAIT_0000,param=0.3:0:0:0:0:0:0:0:0:0:0,#
*,type=WAIT_0000,param=1:0:0:0:0:0:0:0:0:0:0,#
*,type=SE_0000,param=328:0:0:0:0:0:0:0:0:0:0,#
*,type=SE_0000,param=217:0:0:0:0:0:0:0:0:0:0,#
*,type=EFFECT_GP,param=23080000:550:452:0:0:70:0:0:0:0:0,#
*,type=EFFECT_GP,param=23150008:280:452:0:0:70:0:0:0:0:0,#
*,type=WAIT_0000,param=0.1:0:0:0:0:0:0:0:0:0:0,#
*,type=EFFECT_GP,param=23080000:550:452:0:0:70:0:0:0:0:0,#
*,type=EFFECT_GP,param=23150008:280:452:0:0:70:0:0:0:0:0,#
*,type=BTL_ReqAction,param=MINDEX$4:0:MOVETOFIX:230$352$0$MOVE$IDLE:0:0:0:0:0:0:0,#
*,type=BTL_ReqAction,param=MINDEX$5:0:MOVETOFIX:280$452$0$MOVE$IDLE:0:0:0:0:0:0:0,#
*,type=BTL_ReqAction,param=MINDEX$6:0:MOVETOFIX:230$552$0$MOVE$IDLE:0:0:0:0:0:0:0,#
*,type=BTL_WaitAction,param=30:0:0:0:0:0:0:0:0:0:0,#
*,type=WAIT_0000,param=3:0:0:0:0:0:0:0:0:0:0,#
*,type=HCHR_TK10,msg=鬼さんこーちらぁ♪,param=chr_Nothum:Left:BASIC:0:0:0:0:0:0:0:0,#
*,type=HCHR_TK01,param=all:0:0:0:0:0:0:0:0:0:0,#
*,type=WAIT_0000,param=1:0:0:0:0:0:0:0:0:0:0,#
*,type=MSKS_0000,param=bgBlackMask:$BGBLACK_Color:0:Z$50:T$1:0:0:0:0:0:0,#
*,type=STOP,param=0:0:0:0:0:0:0:0:0:0:0,#
*,type=BTL_ChangeParty,param=OFF:0:0:0:0:0:0:0:0:0:0,#
*,type=BTL_CMD,param=unit_panel:PPTALL:ON:0:0:0:0:0:0:0:0,#
*,type=BTL_EnemyHpBarVisible,param=ON:0:0:0:0:0:0:0:0:0:0,#
*,type=STOP,param=0:0:0:0:0:0:0:0:0:0:0,#
*,type=GAM_CHGSCENE,param=MissionSelect:0:0:0:0:0:0:0:0:0:0,#
*,type=BTL_PanelMask,param=OFF:0:0:0:0:0:0:0:0:0:0,#
*,type=EVT_BLOCKEND,param=0:0:0:0:0:0:0:0:0:0:0,#

*,type=SYSED_00,param=0:0:0:0:0:0:0:0:0:0:0,#



