﻿ScriptCmd ver 1.1.1(app1.0.4):スクリプト_10_受け継がれる想い_BS4.xlsm/main014-dungeon4-1-1/main014-dungeon4-1-1.csv

*,type=SYSST_00,param=0:0:0:0:0:0:0:0:0:0:0,#
*,type=CMD_STOP,param=0:0:0:0:0:0:0:0:0:0:0,#
*,type=SYSST_01,param=0:0:0:0:0:0:0:0:0:0:0,#


*,type=EVT_CHKTRG,param=0:0:0:0:0:0:0:0:0:0:0,#
*,type=EVT_BTL_STARTBTL,param=1:0:0:0:0:0:0:0:0:0:0,#
*,type=BTL_PanelMask,param=ON:0:0:0:0:0:0:0:0:0:0,#
*,type=BTL_ChangeParty,param=ON:908:1010003:0:0:0:0:0:0:0:0,#
*,type=BTL_WaitAction,param=10:0:0:0:0:0:0:0:0:0:0,#
*,type=BTL_FADE,param=IN:0:0:0:0:0:0:0:0:0:0,#
*,type=WAIT_0000,param=1.5:0:0:0:0:0:0:0:0:0:0,#
*,type=HCHR_ENT00,param=chr_Lin:リン:N$chara_bf2_25_b:$BTLPOS_Left:TYPE$middle:Z$10:0:0:0:0:0,#
*,type=HCHR_ENT00,param=chr_Nizel:ナイゼル:N$chara_bf2_217_b:$BTLPOS_Left:TYPE$middle:Z$10:0:0:0:0:0,#
*,type=HCHR_ENT00,param=chr_Karl:カル:N$chara_bf2_11_b:$BTLPOS_Left:TYPE$middle:Z$10:0:0:0:0:0,#
*,type=STOP,param=0:0:0:0:0:0:0:0:0:0:0,#
*,type=HCHR_GRP00,param=chr_Nizel:face:bi:0:0:0:0:0:0:0:0,#
*,type=HCHR_POS00,param=chr_Nizel:FADEIN:$CHARA_FadeTime:0:0:0:0:0:0:0:0,#
*,type=STOP,param=0:0:0:0:0:0:0:0:0:0:0,#
*,type=HCHR_TK10,msg=これが全ての神々を束ねていた存在……！,param=chr_Nizel:Left:BATTLE:0:0:0:0:0:0:0:0,#
*,type=HCHR_GRP00,param=chr_Nizel:face:ku:0:0:0:0:0:0:0:0,#
*,type=HCHR_TK10,msg=レストークよ、<wait=1>お前はそうまでしても<br>俺たちを……,param=chr_Nizel:Left:BATTLE:0:0:0:0:0:0:0:0,#
*,type=HCHR_GRP00,param=chr_Nizel:face:ai:0:0:0:0:0:0:0:0,#
*,type=HCHR_TK10,msg=…………っ,param=chr_Nizel:Left:BATTLE:0:0:0:0:0:0:0:0,#
*,type=HCHR_TK01,param=all:0:0:0:0:0:0:0:0:0:0,#
*,type=HCHR_POS00,param=chr_Nizel:FADEOUT:$CHARA_FadeTime:0:0:0:0:0:0:0:0,#
*,type=STOP,param=0:0:0:0:0:0:0:0:0:0:0,#
*,type=HCHR_GRP00,param=chr_Lin:face:mu:0:0:0:0:0:0:0:0,#
*,type=HCHR_POS00,param=chr_Lin:FADEIN:$CHARA_FadeTime:0:0:0:0:0:0:0:0,#
*,type=STOP,param=0:0:0:0:0:0:0:0:0:0:0,#
*,type=HCHR_TK10,msg=<rep_handlename>……<wait=3><br>早くこの戦い、<wait=1>終わらせよ。,param=chr_Lin:Left:BATTLE:0:0:0:0:0:0:0:0,#
*,type=HCHR_TK10,msg=もちろん大勢の人たちの命が<br>懸かってるからっていうのもあるけど,param=chr_Lin:Left:BATTLE:0:0:0:0:0:0:0:0,#
*,type=HCHR_GRP00,param=chr_Lin:face:ai:0:0:0:0:0:0:0:0,#
*,type=HCHR_TK10,msg=信じてた仲間が敵になるなんて……,param=chr_Lin:Left:BATTLE:0:0:0:0:0:0:0:0,#
*,type=HCHR_TK10,msg=そんな悲しいこと<wait=1.5><br>これ以上、<wait=1>続けさせちゃダメだよ。,param=chr_Lin:Left:BATTLE:0:0:0:0:0:0:0:0,#
*,type=HCHR_TK01,param=all:0:0:0:0:0:0:0:0:0:0,#
*,type=HCHR_POS00,param=chr_Lin:FADEOUT:$CHARA_FadeTime:0:0:0:0:0:0:0:0,#
*,type=STOP,param=0:0:0:0:0:0:0:0:0:0:0,#
*,type=HCHR_GRP00,param=chr_Karl:face:fu:0:0:0:0:0:0:0:0,#
*,type=HCHR_POS00,param=chr_Karl:FADEIN:$CHARA_FadeTime:0:0:0:0:0:0:0:0,#
*,type=STOP,param=0:0:0:0:0:0:0:0:0:0:0,#
*,type=HCHR_TK10,msg=あぁ、<wait=1>そうだ……<wait=3><rep_handlename>、<wait=1>リン。,param=chr_Karl:Left:BATTLE:0:0:0:0:0:0:0:0,#
*,type=HCHR_GRP00,param=chr_Karl:face:do:0:0:0:0:0:0:0:0,#
*,type=HCHR_TK10,msg=そのためにも、<wait=1>どんな神が喚び出されようと<br>俺たちは全力で戦い続ける！,param=chr_Karl:Left:BATTLE:0:0:0:0:0:0:0:0,#
*,type=HCHR_TK01,param=all:0:0:0:0:0:0:0:0:0:0,#
*,type=HCHR_POS00,param=chr_Karl:FADEOUT:$CHARA_FadeTime:0:0:0:0:0:0:0:0,#
*,type=STOP,param=0:0:0:0:0:0:0:0:0:0:0,#
*,type=WAIT_0000,param=1:0:0:0:0:0:0:0:0:0:0,#
*,type=MSKS_0000,param=bgBlackMask:$BGBLACK_Color:0:Z$50:T$1:0:0:0:0:0:0,#
*,type=STOP,param=0:0:0:0:0:0:0:0:0:0:0,#
*,type=BTL_ChangeParty,param=OFF:0:0:0:0:0:0:0:0:0:0,#
*,type=BTL_CMD,param=unit_panel:PPTALL:ON:0:0:0:0:0:0:0:0,#
*,type=BTL_EnemyHpBarVisible,param=ON:0:0:0:0:0:0:0:0:0:0,#
*,type=STOP,param=0:0:0:0:0:0:0:0:0:0:0,#
*,type=MSKS_0002,param=bgBlackMask:T$1:0:0:0:0:0:0:0:0:0,#
*,type=GAM_CHGSCENE,param=MissionSelect:0:0:0:0:0:0:0:0:0:0,#
*,type=BTL_PanelMask,param=OFF:0:0:0:0:0:0:0:0:0:0,#
*,type=EVT_BLOCKEND,param=0:0:0:0:0:0:0:0:0:0:0,#

*,type=SYSED_00,param=0:0:0:0:0:0:0:0:0:0:0,#



