﻿ver 1.0

*,type=SYSST_00,param=0:0:0:0:0:0:0:0:0:0:0,#
*,type=CMD_STOP,param=0:0:0:0:0:0:0:0:0:0:0,#
*,type=SYSST_01,param=0:0:0:0:0:0:0:0:0:0:0,#


*,type=CALL_MGAME00,param=1:0:0:0:0:0:0:0:0:0:0,#
*,type=RESULT_0000,param=_CLEAR:$MINIGAME_CLEAR:0:0:0:0:0:0:0:0:0,#
*,type=RESULT_0000,param=_GIVEUP:$MINIGAME_GIVEUP:0:0:0:0:0:0:0:0:0,#
*,type=LABEL_0000,param=_CLEAR:0:0:0:0:0:0:0:0:0:0,#
*,type=SWOPEN_0000,param=10000048:0:0:0:0:0:0:0:0:0:0,#
*,type=GOTO_0000,param=_END:0:0:0:0:0:0:0:0:0:0,#
*,type=LABEL_0000,param=_GIVEUP:0:0:0:0:0:0:0:0:0:0,#
*,type=GOTO_0000,param=_END:0:0:0:0:0:0:0:0:0:0,#
*,type=LABEL_0000,param=_END:0:0:0:0:0:0:0:0:0:0,#
*,type=GAM_CHGSCENE,param=MissionSelect:0:0:0:0:0:0:0:0:0:0,#

*,type=SYSED_00,param=0:0:0:0:0:0:0:0:0:0:0,#



