﻿ScriptCmd ver 1.1.1(app1.0.4):スクリプト_Novel_0002.xlsm/script_novel_002_10/script_novel_002_10.csv

*,type=SYSST_00,param=0:0:0:0:0:0:0:0:0:0:0,#
*,type=CMD_STOP,param=0:0:0:0:0:0:0:0:0:0:0,#
*,type=SYSST_01,param=0:0:0:0:0:0:0:0:0:0:0,#


*,type=MSKS_0000,param=bgBlackMask:0&0&0:0:Z$50:T$0:0:0:0:0:0:0,#
*,type=PICT_0000,param=bg_paper_01:event_bg_paper.png:1:0:0:2:0:0:0:0:0,#
*,type=PICT_0001,param=bg_paper_01:-106:0:0:0:0:0:0:0:0:0,#
*,type=MSKS_0000,param=bgPaperMask:215&159&110:128:Z$6:T$0:0:0:0:0:0:0,#
*,type=WAIT_0000,param=1:0:0:0:0:0:0:0:0:0:0,#
*,type=FMSG_0000,msg=我が創造的思考の記録　No.10,param=chr_nov1:$Novel_B_13:nowait:once:focusoff:0:0:0:0:0:0,#
*,type=FMSG_0000,msg=バダ・ファナ歴　110年,param=chr_nov2:$Novel_B_16:nowait:once:focusoff:0:0:0:0:0:0,#
*,type=FMSG_0000,msg=グスタフ＝ファブラスカ,param=chr_nov3:$Novel_B_18:nowait:once:focusoff:0:0:0:0:0:0,#
*,type=STOP,param=0:0:0:0:0:0:0:0:0:0:0,#
*,type=MSKS_0002,param=bgBlackMask:T$1.5:0:0:0:0:0:0:0:0:0,#
*,type=WAIT_0000,param=1.5:0:0:0:0:0:0:0:0:0:0,#
*,type=CSYN_0002,param=0:0:0:0:0:0:0:0:0:0:0,#
*,type=SE_0000,param=20:0:0:0:0:0:0:0:0:0:0,#
*,type=FADEOUT_000,param=0.5:0&0&0:0:0:0:0:0:0:0:0:0,#
*,type=STOP,param=0:0:0:0:0:0:0:0:0:0:0,#
*,type=FMSG_0001,param=all:0:0:0:0:0:0:0:0:0:0,#
*,type=PICT_0004,param=bg_paper_01:0:0:0:0:0:0:0:0:0:0,#
*,type=PICT_0000,param=bg_01:battle_bg_003_13.jpg:2:bg$:0:0:0:3:0:0:0,#
*,type=PICT_0000,param=bg_paper_02:event_filter_paper.png:5:0:0:2:0:0:0:0:0,#
*,type=PICT_0001,param=bg_paper_02:-106:0:0:0:0:0:0:0:0:0,#
*,type=FADEIN_000,param=0.5:$0&0&0:0:0:0:0:0:0:0:0:0,#
*,type=BGM_0000,param=34:1.5:0:0:0:0:0:0:0:0:0,#
*,type=STOP,param=0:0:0:0:0:0:0:0:0:0:0,#
*,type=WAIT_0000,param=0.3:0:0:0:0:0:0:0:0:0:0,#
*,type=FMSG_0000,msg=2月12日,param=chr_nov1:$Novel_B_04:nocenter&nowait:0:focusoff:0:0:0:0:0:0,#
*,type=CSYN_0002,param=0:0:0:0:0:0:0:0:0:0:0,#
*,type=FMSG_0000,msg=セルタビアという異界を襲撃する日程が,param=chr_nov2:$Novel_B_07:nocenter&nowait:0:focusoff:0:0:0:0:0:0,#
*,type=CSYN_0001,param=0:0:0:0:0:0:0:0:0:0:0,#
*,type=FMSG_0000,msg=決まった。<wait=3>今から10日後だという。,param=chr_nov3:$Novel_B_08:nocenter&nowait:0:focusoff:0:0:0:0:0:0,#
*,type=CSYN_0002,param=0:0:0:0:0:0:0:0:0:0:0,#
*,type=FMSG_0000,msg=と同時に、このアジトも放棄することが,param=chr_nov4:$Novel_B_10:nocenter&nowait:0:focusoff:0:0:0:0:0:0,#
*,type=CSYN_0001,param=0:0:0:0:0:0:0:0:0:0:0,#
*,type=FMSG_0000,msg=確定となった。,param=chr_nov5:$Novel_B_11:nocenter&nowait:0:focusoff:0:0:0:0:0:0,#
*,type=CSYN_0002,param=0:0:0:0:0:0:0:0:0:0:0,#
*,type=FMSG_0000,msg=さる目的のため百年以上も地下に潜み,param=chr_nov6:$Novel_B_13:nocenter&nowait:0:focusoff:0:0:0:0:0:0,#
*,type=CSYN_0001,param=0:0:0:0:0:0:0:0:0:0:0,#
*,type=FMSG_0000,msg=続けてきたネグレスが、いよいよ表舞台,param=chr_nov7:$Novel_B_14:nocenter&nowait:0:focusoff:0:0:0:0:0:0,#
*,type=CSYN_0001,param=0:0:0:0:0:0:0:0:0:0:0,#
*,type=FMSG_0000,msg=に顔を出すのだ。,param=chr_nov8:$Novel_B_15:nocenter&nowait:0:focusoff:0:0:0:0:0:0,#
*,type=CSYN_0002,param=0:0:0:0:0:0:0:0:0:0:0,#
*,type=FMSG_0000,msg=その先には、念願のイクスタス襲撃も,param=chr_nov9:$Novel_B_17:nocenter&nowait:0:focusoff:0:0:0:0:0:0,#
*,type=CSYN_0001,param=0:0:0:0:0:0:0:0:0:0:0,#
*,type=FMSG_0000,msg=予定されている。,param=chr_nov10:$Novel_B_18:nocenter&nowait:0:focusoff:0:0:0:0:0:0,#
*,type=CSYN_0001,param=0:0:0:0:0:0:0:0:0:0:0,#
*,type=FMSG_0000,msg=<wait=3>今から待ち遠しくてならない。,param=chr_nov11:$Novel_B_19:nocenter&nowait:0:focusoff:0:0:0:0:0:0,#
*,type=CSYN_0002,param=0:0:0:0:0:0:0:0:0:0:0,#
*,type=FMSG_0000,msg=まだまだ新参者ではあるが、私も出来る,param=chr_nov12:$Novel_B_21:nocenter&nowait:0:focusoff:0:0:0:0:0:0,#
*,type=CSYN_0001,param=0:0:0:0:0:0:0:0:0:0:0,#
*,type=FMSG_0000,msg=限りのことをしようと思う。,param=chr_nov13:$Novel_B_22:nocenter&nowait:0:focusoff:0:0:0:0:0:0,#
*,type=CSYN_0002,param=0:0:0:0:0:0:0:0:0:0:0,#
*,type=FMSG_0000,msg=まずはここを嗅ぎつけてくるであろう,param=chr_nov14:$Novel_B_24:nocenter&nowait:0:focusoff:0:0:0:0:0:0,#
*,type=CSYN_0001,param=0:0:0:0:0:0:0:0:0:0:0,#
*,type=FMSG_0000,msg=邪魔者を適当に弄んでやることからだ。,param=chr_nov15:$Novel_B_25:nocenter&nowait:0:focusoff:0:0:0:0:0:0,#
*,type=CSYN_0002,param=0:0:0:0:0:0:0:0:0:0:0,#
*,type=FMSG_0000,msg=イクスタスの連中も、そこに与する,param=chr_nov16:$Novel_B_27:nocenter&nowait:0:focusoff:0:0:0:0:0:0,#
*,type=CSYN_0001,param=0:0:0:0:0:0:0:0:0:0:0,#
*,type=FMSG_0000,msg=召喚院の連中も、全員私の敵なのだ。,param=chr_nov17:$Novel_B_28:nocenter&nowait:0:focusoff:0:0:0:0:0:0,#
*,type=CSYN_0002,param=0:0:0:0:0:0:0:0:0:0:0,#
*,type=SE_0000,param=20:0:0:0:0:0:0:0:0:0:0,#
*,type=FADEOUT_000,param=0.5:0&0&0:0:0:0:0:0:0:0:0:0,#
*,type=BGM_0001,param=1.3:0:0:0:0:0:0:0:0:0:0,#
*,type=STOP,param=0:0:0:0:0:0:0:0:0:0:0,#
*,type=FMSG_0001,param=all:0:0:0:0:0:0:0:0:0:0,#
*,type=PICT_0004,param=bg_01:0:0:0:0:0:0:0:0:0:0,#
*,type=PICT_0000,param=bg_02:battle_bg_003_09.jpg:2:bg$:0:0:0:3:0:0:0,#
*,type=FADEIN_000,param=0.5:0&0&0:0:0:0:0:0:0:0:0:0,#
*,type=STOP,param=0:0:0:0:0:0:0:0:0:0:0,#
*,type=WAIT_0000,param=0.3:0:0:0:0:0:0:0:0:0:0,#
*,type=BGM_0000,param=52:1.5:0:0:0:0:0:0:0:0:0,#
*,type=FMSG_0000,msg=2月15日,param=chr_nov1:$Novel_B_02:nocenter&nowait:0:focusoff:0:0:0:0:0:0,#
*,type=CSYN_0002,param=0:0:0:0:0:0:0:0:0:0:0,#
*,type=FMSG_0000,msg=「素晴らしい笑顔です。アナタも,param=chr_nov2:$Novel_B_05:nocenter&nowait:0:focusoff:0:0:0:0:0:0,#
*,type=CSYN_0001,param=0:0:0:0:0:0:0:0:0:0:0,#
*,type=FMSG_0000,msg=<speed=0>　</speed>もう立派にネグレスの一員ですネ♪」,param=chr_nov3:$Novel_B_06:nocenter&nowait:0:focusoff:0:0:0:0:0:0,#
*,type=CSYN_0002,param=0:0:0:0:0:0:0:0:0:0:0,#
*,type=FMSG_0000,msg=私がイクスタス襲撃の計画を練っている,param=chr_nov4:$Novel_B_08:nocenter&nowait:0:focusoff:0:0:0:0:0:0,#
*,type=CSYN_0001,param=0:0:0:0:0:0:0:0:0:0:0,#
*,type=FMSG_0000,msg=と、メルフェル殿が声を掛けてきた。,param=chr_nov5:$Novel_B_09:nocenter&nowait:0:focusoff:0:0:0:0:0:0,#
*,type=CSYN_0002,param=0:0:0:0:0:0:0:0:0:0:0,#
*,type=FMSG_0000,msg=彼も七魔将のひとりで、ザドと同じ四鬼,param=chr_nov6:$Novel_B_11:nocenter&nowait:0:focusoff:0:0:0:0:0:0,#
*,type=CSYN_0001,param=0:0:0:0:0:0:0:0:0:0:0,#
*,type=FMSG_0000,msg=の仲間である。,param=chr_nov7:$Novel_B_12:nocenter&nowait:0:focusoff:0:0:0:0:0:0,#
*,type=CSYN_0002,param=0:0:0:0:0:0:0:0:0:0:0,#
*,type=FMSG_0000,msg=メルフェル殿は私の計画書を覗き込むと,param=chr_nov8:$Novel_B_14:nocenter&nowait:0:focusoff:0:0:0:0:0:0,#
*,type=CSYN_0001,param=0:0:0:0:0:0:0:0:0:0:0,#
*,type=FMSG_0000,msg=なかなか良い策だと褒めてくれた。,param=chr_nov9:$Novel_B_15:nocenter&nowait:0:focusoff:0:0:0:0:0:0,#
*,type=CSYN_0002,param=0:0:0:0:0:0:0:0:0:0:0,#
*,type=FMSG_0000,msg=「とってもイイ趣味してますよアナタ」,param=chr_nov10:$Novel_B_17:nocenter&nowait:0:focusoff:0:0:0:0:0:0,#
*,type=CSYN_0002,param=0:0:0:0:0:0:0:0:0:0:0,#
*,type=FMSG_0000,msg=彼の賞賛は、言葉とは真逆の意味を持つ。,param=chr_nov11:$Novel_B_19:nocenter&nowait:0:focusoff:0:0:0:0:0:0,#
*,type=CSYN_0001,param=0:0:0:0:0:0:0:0:0:0:0,#
*,type=FMSG_0000,msg=<wait=3>だが、今の私にとってこれほど嬉しい,param=chr_nov12:$Novel_B_20:nocenter&nowait:0:focusoff:0:0:0:0:0:0,#
*,type=CSYN_0001,param=0:0:0:0:0:0:0:0:0:0:0,#
*,type=FMSG_0000,msg=言葉はない。,param=chr_nov13:$Novel_B_21:nocenter&nowait:0:focusoff:0:0:0:0:0:0,#
*,type=CSYN_0002,param=0:0:0:0:0:0:0:0:0:0:0,#
*,type=FMSG_0000,msg=なぜならメルフェル殿は、相手を効果的,param=chr_nov14:$Novel_B_23:nocenter&nowait:0:focusoff:0:0:0:0:0:0,#
*,type=CSYN_0001,param=0:0:0:0:0:0:0:0:0:0:0,#
*,type=FMSG_0000,msg=にいたぶることに長けているからだ。,param=chr_nov15:$Novel_B_24:nocenter&nowait:0:focusoff:0:0:0:0:0:0,#
*,type=CSYN_0002,param=0:0:0:0:0:0:0:0:0:0:0,#
*,type=FMSG_0000,msg=イクスタスの連中は長年私を苦しめた。,param=chr_nov16:$Novel_B_27:nocenter&nowait:0:focusoff:0:0:0:0:0:0,#
*,type=CSYN_0001,param=0:0:0:0:0:0:0:0:0:0:0,#
*,type=FMSG_0000,msg=<wait=3>私と同じ……いや、それ以上の苦しみを,param=chr_nov17:$Novel_B_28:nocenter&nowait:0:focusoff:0:0:0:0:0:0,#
*,type=CSYN_0001,param=0:0:0:0:0:0:0:0:0:0:0,#
*,type=FMSG_0000,msg=奴らに味わわせてやるのだ。,param=chr_nov18:$Novel_B_29:nocenter&nowait:0:focusoff:0:0:0:0:0:0,#
*,type=CSYN_0002,param=0:0:0:0:0:0:0:0:0:0:0,#
*,type=SE_0000,param=20:0:0:0:0:0:0:0:0:0:0,#
*,type=FADEOUT_000,param=0.5:0&0&0:0:0:0:0:0:0:0:0:0,#
*,type=STOP,param=0:0:0:0:0:0:0:0:0:0:0,#
*,type=FMSG_0001,param=all:0:0:0:0:0:0:0:0:0:0,#
*,type=FADEIN_000,param=0.5:0&0&0:0:0:0:0:0:0:0:0:0,#
*,type=STOP,param=0:0:0:0:0:0:0:0:0:0:0,#
*,type=WAIT_0000,param=0.3:0:0:0:0:0:0:0:0:0:0,#
*,type=FMSG_0000,msg=無意識のうちに笑い声が漏れていた。,param=chr_nov1:$Novel_B_05:nocenter&nowait:0:focusoff:0:0:0:0:0:0,#
*,type=CSYN_0002,param=0:0:0:0:0:0:0:0:0:0:0,#
*,type=FMSG_0000,msg=つられるように、メルフェル殿も笑う。,param=chr_nov2:$Novel_B_07:nocenter&nowait:0:focusoff:0:0:0:0:0:0,#
*,type=CSYN_0002,param=0:0:0:0:0:0:0:0:0:0:0,#
*,type=FMSG_0000,msg=さすが道化、相手を小馬鹿にする笑みも,param=chr_nov3:$Novel_B_09:nocenter&nowait:0:focusoff:0:0:0:0:0:0,#
*,type=CSYN_0001,param=0:0:0:0:0:0:0:0:0:0:0,#
*,type=FMSG_0000,msg=板についたものである。,param=chr_nov4:$Novel_B_10:nocenter&nowait:0:focusoff:0:0:0:0:0:0,#
*,type=CSYN_0002,param=0:0:0:0:0:0:0:0:0:0:0,#
*,type=FMSG_0000,msg=私たちは声を上げて笑い合った。,param=chr_nov5:$Novel_B_12:nocenter&nowait:0:focusoff:0:0:0:0:0:0,#
*,type=CSYN_0002,param=0:0:0:0:0:0:0:0:0:0:0,#
*,type=FMSG_0000,msg=大声で笑うことの,param=chr_nov6:$Novel_B_14:nocenter&nowait:0:focusoff:0:0:0:0:0:0,#
*,type=CSYN_0001,param=0:0:0:0:0:0:0:0:0:0:0,#
*,type=FMSG_0000,msg=なんと気持ちの良いことか。,param=chr_nov7:$Novel_B_15:nocenter&nowait:0:focusoff:0:0:0:0:0:0,#
*,type=CSYN_0002,param=0:0:0:0:0:0:0:0:0:0:0,#
*,type=FMSG_0000,msg=するとザドがすぐさまこの状況を分析し,param=chr_nov8:$Novel_B_17:nocenter&nowait:0:focusoff:0:0:0:0:0:0,#
*,type=CSYN_0001,param=0:0:0:0:0:0:0:0:0:0:0,#
*,type=FMSG_0000,msg=声紋データから類似する声を選択して,param=chr_nov9:$Novel_B_18:nocenter&nowait:0:focusoff:0:0:0:0:0:0,#
*,type=CSYN_0001,param=0:0:0:0:0:0:0:0:0:0:0,#
*,type=FMSG_0000,msg=笑い声を上げはじめた。,param=chr_nov10:$Novel_B_19:nocenter&nowait:0:focusoff:0:0:0:0:0:0,#
*,type=CSYN_0002,param=0:0:0:0:0:0:0:0:0:0:0,#
*,type=FMSG_0000,msg=さすが私のザドだ。,param=chr_nov11:$Novel_B_21:nocenter&nowait:0:focusoff:0:0:0:0:0:0,#
*,type=CSYN_0001,param=0:0:0:0:0:0:0:0:0:0:0,#
*,type=FMSG_0000,msg=<wait=3>空気を読む術まで会得していたとは。,param=chr_nov12:$Novel_B_22:nocenter&nowait:0:focusoff:0:0:0:0:0:0,#
*,type=CSYN_0002,param=0:0:0:0:0:0:0:0:0:0:0,#
*,type=FMSG_0000,msg=ますます笑いが止まらなくなる。,param=chr_nov13:$Novel_B_24:nocenter&nowait:0:focusoff:0:0:0:0:0:0,#
*,type=CSYN_0002,param=0:0:0:0:0:0:0:0:0:0:0,#
*,type=FMSG_0000,msg=途中、バラガンが奇異なものを見る目で,param=chr_nov14:$Novel_B_26:nocenter&nowait:0:focusoff:0:0:0:0:0:0,#
*,type=CSYN_0001,param=0:0:0:0:0:0:0:0:0:0:0,#
*,type=FMSG_0000,msg=通り過ぎていった。,param=chr_nov15:$Novel_B_27:nocenter&nowait:0:focusoff:0:0:0:0:0:0,#
*,type=CSYN_0002,param=0:0:0:0:0:0:0:0:0:0:0,#
*,type=SE_0000,param=20:0:0:0:0:0:0:0:0:0:0,#
*,type=FADEOUT_000,param=0.5:0&0&0:0:0:0:0:0:0:0:0:0,#
*,type=STOP,param=0:0:0:0:0:0:0:0:0:0:0,#
*,type=FMSG_0001,param=all:0:0:0:0:0:0:0:0:0:0,#
*,type=PICT_0004,param=bg_02:0:0:0:0:0:0:0:0:0:0,#
*,type=PICT_0000,param=bg_03:battle_bg_003_EX02.jpg:2:bg$:0:0:0:3:0:0:0,#
*,type=FADEIN_000,param=0.5:0&0&0:0:0:0:0:0:0:0:0:0,#
*,type=STOP,param=0:0:0:0:0:0:0:0:0:0:0,#
*,type=WAIT_0000,param=0.3:0:0:0:0:0:0:0:0:0:0,#
*,type=FMSG_0000,msg=2月22日,param=chr_nov1:$Novel_B_03:nocenter&nowait:0:focusoff:0:0:0:0:0:0,#
*,type=CSYN_0002,param=0:0:0:0:0:0:0:0:0:0:0,#
*,type=FMSG_0000,msg=いよいよこの日がやってきた。,param=chr_nov2:$Novel_B_05:nocenter&nowait:0:focusoff:0:0:0:0:0:0,#
*,type=CSYN_0002,param=0:0:0:0:0:0:0:0:0:0:0,#
*,type=FMSG_0000,msg=ここバダ・ファナには、もう私とザドと,param=chr_nov3:$Novel_B_07:nocenter&nowait:0:focusoff:0:0:0:0:0:0,#
*,type=CSYN_0001,param=0:0:0:0:0:0:0:0:0:0:0,#
*,type=FMSG_0000,msg=必要最低限のネグレス兵しかいない。,param=chr_nov4:$Novel_B_08:nocenter&nowait:0:focusoff:0:0:0:0:0:0,#
*,type=CSYN_0002,param=0:0:0:0:0:0:0:0:0:0:0,#
*,type=FMSG_0000,msg=三帥とバラガンはセルタビアへ、ヒルダ,param=chr_nov5:$Novel_B_10:nocenter&nowait:0:focusoff:0:0:0:0:0:0,#
*,type=CSYN_0001,param=0:0:0:0:0:0:0:0:0:0:0,#
*,type=FMSG_0000,msg=とルネの姉妹、そしてメルフェル殿は,param=chr_nov6:$Novel_B_11:nocenter&nowait:0:focusoff:0:0:0:0:0:0,#
*,type=CSYN_0001,param=0:0:0:0:0:0:0:0:0:0:0,#
*,type=FMSG_0000,msg=また別の任務に向かわれている。,param=chr_nov7:$Novel_B_12:nocenter&nowait:0:focusoff:0:0:0:0:0:0,#
*,type=CSYN_0002,param=0:0:0:0:0:0:0:0:0:0:0,#
*,type=FMSG_0000,msg=ガランとしたアジトは、まるで私の心を,param=chr_nov8:$Novel_B_14:nocenter&nowait:0:focusoff:0:0:0:0:0:0,#
*,type=CSYN_0001,param=0:0:0:0:0:0:0:0:0:0:0,#
*,type=FMSG_0000,msg=表しているかのようだった。,param=chr_nov9:$Novel_B_15:nocenter&nowait:0:focusoff:0:0:0:0:0:0,#
*,type=CSYN_0002,param=0:0:0:0:0:0:0:0:0:0:0,#
*,type=FMSG_0000,msg=全てはここから始まったのだ……,param=chr_nov10:$Novel_B_17:nocenter&nowait:0:focusoff:0:0:0:0:0:0,#
*,type=CSYN_0002,param=0:0:0:0:0:0:0:0:0:0:0,#
*,type=FMSG_0000,msg=ザドを作り上げ、試行錯誤した日々が,param=chr_nov11:$Novel_B_19:nocenter&nowait:0:focusoff:0:0:0:0:0:0,#
*,type=CSYN_0001,param=0:0:0:0:0:0:0:0:0:0:0,#
*,type=FMSG_0000,msg=走馬灯のように蘇る。,param=chr_nov12:$Novel_B_20:nocenter&nowait:0:focusoff:0:0:0:0:0:0,#
*,type=CSYN_0002,param=0:0:0:0:0:0:0:0:0:0:0,#
*,type=FMSG_0000,msg=……私はもう長くないだろう。,param=chr_nov13:$Novel_B_22:nocenter&nowait:0:focusoff:0:0:0:0:0:0,#
*,type=CSYN_0002,param=0:0:0:0:0:0:0:0:0:0:0,#
*,type=FMSG_0000,msg=エルハザ様は私に復讐の機会を与えて,param=chr_nov14:$Novel_B_24:nocenter&nowait:0:focusoff:0:0:0:0:0:0,#
*,type=CSYN_0001,param=0:0:0:0:0:0:0:0:0:0:0,#
*,type=FMSG_0000,msg=下さったが、永遠の命までは授けて,param=chr_nov15:$Novel_B_25:nocenter&nowait:0:focusoff:0:0:0:0:0:0,#
*,type=CSYN_0001,param=0:0:0:0:0:0:0:0:0:0:0,#
*,type=FMSG_0000,msg=下さらなかった。,param=chr_nov16:$Novel_B_26:nocenter&nowait:0:focusoff:0:0:0:0:0:0,#
*,type=CSYN_0002,param=0:0:0:0:0:0:0:0:0:0:0,#
*,type=FMSG_0000,msg=ネグレスには完成したザドさえあれば,param=chr_nov17:$Novel_B_28:nocenter&nowait:0:focusoff:0:0:0:0:0:0,#
*,type=CSYN_0001,param=0:0:0:0:0:0:0:0:0:0:0,#
*,type=FMSG_0000,msg=良いのだ。,param=chr_nov18:$Novel_B_29:nocenter&nowait:0:focusoff:0:0:0:0:0:0,#
*,type=CSYN_0002,param=0:0:0:0:0:0:0:0:0:0:0,#
*,type=SE_0000,param=20:0:0:0:0:0:0:0:0:0:0,#
*,type=FADEOUT_000,param=0.5:0&0&0:0:0:0:0:0:0:0:0:0,#
*,type=BGM_0001,param=1.3:0:0:0:0:0:0:0:0:0:0,#
*,type=STOP,param=0:0:0:0:0:0:0:0:0:0:0,#
*,type=FMSG_0001,param=all:0:0:0:0:0:0:0:0:0:0,#
*,type=FADEIN_000,param=0.5:0&0&0:0:0:0:0:0:0:0:0:0,#
*,type=STOP,param=0:0:0:0:0:0:0:0:0:0:0,#
*,type=WAIT_0000,param=0.3:0:0:0:0:0:0:0:0:0:0,#
*,type=BGM_0000,param=56:1.5:0:0:0:0:0:0:0:0:0,#
*,type=FMSG_0000,msg=だが、それでいい。,param=chr_nov1:$Novel_B_04:nocenter&nowait:0:focusoff:0:0:0:0:0:0,#
*,type=CSYN_0002,param=0:0:0:0:0:0:0:0:0:0:0,#
*,type=FMSG_0000,msg=私の研究はザドという形で後世に残す,param=chr_nov2:$Novel_B_06:nocenter&nowait:0:focusoff:0:0:0:0:0:0,#
*,type=CSYN_0001,param=0:0:0:0:0:0:0:0:0:0:0,#
*,type=FMSG_0000,msg=ことができた。,param=chr_nov3:$Novel_B_07:nocenter&nowait:0:focusoff:0:0:0:0:0:0,#
*,type=CSYN_0002,param=0:0:0:0:0:0:0:0:0:0:0,#
*,type=FMSG_0000,msg=復讐さえ遂げることができれば,param=chr_nov4:$Novel_B_09:nocenter&nowait:0:focusoff:0:0:0:0:0:0,#
*,type=CSYN_0001,param=0:0:0:0:0:0:0:0:0:0:0,#
*,type=FMSG_0000,msg=あとはもうどうなっても良い。,param=chr_nov5:$Novel_B_10:nocenter&nowait:0:focusoff:0:0:0:0:0:0,#
*,type=CSYN_0002,param=0:0:0:0:0:0:0:0:0:0:0,#
*,type=FMSG_0000,msg=元より楽に死ねるとは思っていない。,param=chr_nov6:$Novel_B_12:nocenter&nowait:0:focusoff:0:0:0:0:0:0,#
*,type=CSYN_0001,param=0:0:0:0:0:0:0:0:0:0:0,#
*,type=FMSG_0000,msg=<wait=3>この戦いの中で果てるのもいいだろう。,param=chr_nov7:$Novel_B_13:nocenter&nowait:0:focusoff:0:0:0:0:0:0,#
*,type=CSYN_0002,param=0:0:0:0:0:0:0:0:0:0:0,#
*,type=FMSG_0000,msg=惜しむらくは、イザベラとファルザード,param=chr_nov8:$Novel_B_15:nocenter&nowait:0:focusoff:0:0:0:0:0:0,#
*,type=CSYN_0001,param=0:0:0:0:0:0:0:0:0:0:0,#
*,type=FMSG_0000,msg=……彼女らの元には永遠に行けぬという,param=chr_nov9:$Novel_B_16:nocenter&nowait:0:focusoff:0:0:0:0:0:0,#
*,type=CSYN_0001,param=0:0:0:0:0:0:0:0:0:0:0,#
*,type=FMSG_0000,msg=ことか。,param=chr_nov10:$Novel_B_17:nocenter&nowait:0:focusoff:0:0:0:0:0:0,#
*,type=CSYN_0002,param=0:0:0:0:0:0:0:0:0:0:0,#
*,type=FMSG_0000,msg=地獄がどのような場所かはわからないが,param=chr_nov11:$Novel_B_19:nocenter&nowait:0:focusoff:0:0:0:0:0:0,#
*,type=CSYN_0001,param=0:0:0:0:0:0:0:0:0:0:0,#
*,type=FMSG_0000,msg=少なくともこの世よりはマシだろう。,param=chr_nov12:$Novel_B_20:nocenter&nowait:0:focusoff:0:0:0:0:0:0,#
*,type=CSYN_0002,param=0:0:0:0:0:0:0:0:0:0:0,#
*,type=FMSG_0000,msg=さて、そろそろ時間だ。,param=chr_nov13:$Novel_B_23:nocenter&nowait:0:focusoff:0:0:0:0:0:0,#
*,type=CSYN_0001,param=0:0:0:0:0:0:0:0:0:0:0,#
*,type=FMSG_0000,msg=<wait=3>行くとしよう。,param=chr_nov14:$Novel_B_24:nocenter&nowait:0:focusoff:0:0:0:0:0:0,#
*,type=CSYN_0002,param=0:0:0:0:0:0:0:0:0:0:0,#
*,type=FMSG_0000,msg=私の声へ呼応するように、ザドの,param=chr_nov15:$Novel_B_26:nocenter&nowait:0:focusoff:0:0:0:0:0:0,#
*,type=CSYN_0001,param=0:0:0:0:0:0:0:0:0:0:0,#
*,type=FMSG_0000,msg=視覚センサーが２度瞬いた。,param=chr_nov16:$Novel_B_27:nocenter&nowait:0:focusoff:0:0:0:0:0:0,#
*,type=CSYN_0002,param=0:0:0:0:0:0:0:0:0:0:0,#
*,type=FADEOUT_000,param=0.5:0&0&0:0:0:0:0:0:0:0:0:0,#
*,type=BGM_0001,param=1.5:0:0:0:0:0:0:0:0:0:0,#
*,type=STOP,param=0:0:0:0:0:0:0:0:0:0:0,#
*,type=FMSG_0001,param=all:0:0:0:0:0:0:0:0:0:0,#
*,type=FADEIN_000,param=0.5:0&0&0:0:0:0:0:0:0:0:0:0,#
*,type=STOP,param=0:0:0:0:0:0:0:0:0:0:0,#
*,type=WAIT_0000,param=0.3:0:0:0:0:0:0:0:0:0:0,#
*,type=SE_0000,param=20:0:0:0:0:0:0:0:0:0:0,#
*,type=PICT_0000,param=item1:event_item_012.png:50:chr:0:1.4:0:0:0:0:0,#
*,type=PICT_0001,param=item1:25:350:0.3:0:0:0:0:0:0:0,#
*,type=WAIT_0000,param=1.8:0:0:0:0:0:0:0:0:0:0,#
*,type=SE_0000,param=20:0:0:0:0:0:0:0:0:0:0,#
*,type=PICT_0003,param=item1:0.3:0:0:0:0:0:0:0:0:0,#
*,type=STOP,param=0:0:0:0:0:0:0:0:0:0:0,#
*,type=FADEOUT_000,param=1.5:0&0&0:0:0:0:0:0:0:0:0:0,#
*,type=WAIT_0000,param=2:0:0:0:0:0:0:0:0:0:0,#
*,type=CLSNE_0000,param=0:0:0:0:0:0:0:0:0:0:0,#

*,type=SYSED_00,param=0:0:0:0:0:0:0:0:0:0:0,#



