﻿ScriptCmd ver 1.1.1(app1.0.4):スクリプト_Novel_0002.xlsm/script_novel_002_08/script_novel_002_08.csv

*,type=SYSST_00,param=0:0:0:0:0:0:0:0:0:0:0,#
*,type=CMD_STOP,param=0:0:0:0:0:0:0:0:0:0:0,#
*,type=SYSST_01,param=0:0:0:0:0:0:0:0:0:0:0,#


*,type=MSKS_0000,param=bgBlackMask:0&0&0:0:Z$50:T$0:0:0:0:0:0:0,#
*,type=PICT_0000,param=bg_paper_01:event_bg_paper.png:1:0:0:2:0:0:0:0:0,#
*,type=PICT_0001,param=bg_paper_01:-106:0:0:0:0:0:0:0:0:0,#
*,type=MSKS_0000,param=bgPaperMask:215&159&110:128:Z$6:T$0:0:0:0:0:0:0,#
*,type=WAIT_0000,param=1:0:0:0:0:0:0:0:0:0:0,#
*,type=FMSG_0000,msg=我が創造的思考の記録　No.8,param=chr_nov1:$Novel_B_13:nowait:once:focusoff:0:0:0:0:0:0,#
*,type=FMSG_0000,msg=バダ・ファナ歴　108年,param=chr_nov2:$Novel_B_16:nowait:once:focusoff:0:0:0:0:0:0,#
*,type=FMSG_0000,msg=グスタフ＝ファブラスカ,param=chr_nov3:$Novel_B_18:nowait:once:focusoff:0:0:0:0:0:0,#
*,type=STOP,param=0:0:0:0:0:0:0:0:0:0:0,#
*,type=MSKS_0002,param=bgBlackMask:T$1.5:0:0:0:0:0:0:0:0:0,#
*,type=WAIT_0000,param=1.5:0:0:0:0:0:0:0:0:0:0,#
*,type=CSYN_0002,param=0:0:0:0:0:0:0:0:0:0:0,#
*,type=SE_0000,param=20:0:0:0:0:0:0:0:0:0:0,#
*,type=FADEOUT_000,param=0.5:0&0&0:0:0:0:0:0:0:0:0:0,#
*,type=STOP,param=0:0:0:0:0:0:0:0:0:0:0,#
*,type=FMSG_0001,param=all:0:0:0:0:0:0:0:0:0:0,#
*,type=PICT_0004,param=bg_paper_01:0:0:0:0:0:0:0:0:0:0,#
*,type=PICT_0000,param=bg_01:battle_bg_003_09.jpg:2:bg$:0:0:0:3:0:0:0,#
*,type=PICT_0000,param=bg_paper_02:event_filter_paper.png:5:0:0:2:0:0:0:0:0,#
*,type=PICT_0001,param=bg_paper_02:-106:0:0:0:0:0:0:0:0:0,#
*,type=FADEIN_000,param=0.5:$0&0&0:0:0:0:0:0:0:0:0:0,#
*,type=BGM_0000,param=52:1.5:0:0:0:0:0:0:0:0:0,#
*,type=STOP,param=0:0:0:0:0:0:0:0:0:0:0,#
*,type=WAIT_0000,param=0.3:0:0:0:0:0:0:0:0:0:0,#
*,type=FMSG_0000,msg=12月28日,param=chr_nov1:$Novel_B_04:nocenter&nowait:0:focusoff:0:0:0:0:0:0,#
*,type=CSYN_0002,param=0:0:0:0:0:0:0:0:0:0:0,#
*,type=FMSG_0000,msg=久々の異界遠征が行われる。,param=chr_nov2:$Novel_B_07:nocenter&nowait:0:focusoff:0:0:0:0:0:0,#
*,type=CSYN_0002,param=0:0:0:0:0:0:0:0:0:0:0,#
*,type=FMSG_0000,msg=我々ネグレスは、とある目的のために,param=chr_nov3:$Novel_B_09:nocenter&nowait:0:focusoff:0:0:0:0:0:0,#
*,type=CSYN_0001,param=0:0:0:0:0:0:0:0:0:0:0,#
*,type=FMSG_0000,msg=準備を進めているところである。,param=chr_nov4:$Novel_B_10:nocenter&nowait:0:focusoff:0:0:0:0:0:0,#
*,type=CSYN_0002,param=0:0:0:0:0:0:0:0:0:0:0,#
*,type=FMSG_0000,msg=私とザドの機鎧軍は、資材さえ揃えば,param=chr_nov5:$Novel_B_12:nocenter&nowait:0:focusoff:0:0:0:0:0:0,#
*,type=CSYN_0001,param=0:0:0:0:0:0:0:0:0:0:0,#
*,type=FMSG_0000,msg=いくらでも数を増やすことができるが,param=chr_nov6:$Novel_B_13:nocenter&nowait:0:focusoff:0:0:0:0:0:0,#
*,type=CSYN_0001,param=0:0:0:0:0:0:0:0:0:0:0,#
*,type=FMSG_0000,msg=他の軍はそうもいかない。,param=chr_nov7:$Novel_B_14:nocenter&nowait:0:focusoff:0:0:0:0:0:0,#
*,type=CSYN_0002,param=0:0:0:0:0:0:0:0:0:0:0,#
*,type=FMSG_0000,msg=これから訪れるであろう戦いに備えて,param=chr_nov8:$Novel_B_16:nocenter&nowait:0:focusoff:0:0:0:0:0:0,#
*,type=CSYN_0001,param=0:0:0:0:0:0:0:0:0:0:0,#
*,type=FMSG_0000,msg=兵力は増やせるだけ増やしておくべき,param=chr_nov9:$Novel_B_17:nocenter&nowait:0:focusoff:0:0:0:0:0:0,#
*,type=CSYN_0001,param=0:0:0:0:0:0:0:0:0:0:0,#
*,type=FMSG_0000,msg=なのだ。,param=chr_nov10:$Novel_B_18:nocenter&nowait:0:focusoff:0:0:0:0:0:0,#
*,type=CSYN_0002,param=0:0:0:0:0:0:0:0:0:0:0,#
*,type=FMSG_0000,msg=そのため、こうして他の異界を訪れては,param=chr_nov11:$Novel_B_20:nocenter&nowait:0:focusoff:0:0:0:0:0:0,#
*,type=CSYN_0001,param=0:0:0:0:0:0:0:0:0:0:0,#
*,type=FMSG_0000,msg=捕虜や、兵士となる魂を集めている。,param=chr_nov12:$Novel_B_21:nocenter&nowait:0:focusoff:0:0:0:0:0:0,#
*,type=CSYN_0002,param=0:0:0:0:0:0:0:0:0:0:0,#
*,type=FMSG_0000,msg=明日は私とザドもそれに同行することに,param=chr_nov13:$Novel_B_23:nocenter&nowait:0:focusoff:0:0:0:0:0:0,#
*,type=CSYN_0001,param=0:0:0:0:0:0:0:0:0:0:0,#
*,type=FMSG_0000,msg=なった。,param=chr_nov14:$Novel_B_24:nocenter&nowait:0:focusoff:0:0:0:0:0:0,#
*,type=CSYN_0002,param=0:0:0:0:0:0:0:0:0:0:0,#
*,type=SE_0000,param=20:0:0:0:0:0:0:0:0:0:0,#
*,type=FADEOUT_000,param=0.5:0&0&0:0:0:0:0:0:0:0:0:0,#
*,type=BGM_0001,param=1.3:0:0:0:0:0:0:0:0:0:0,#
*,type=STOP,param=0:0:0:0:0:0:0:0:0:0:0,#
*,type=FMSG_0001,param=all:0:0:0:0:0:0:0:0:0:0,#
*,type=PICT_0004,param=bg_01:0:0:0:0:0:0:0:0:0:0,#
*,type=PICT_0000,param=bg_02:battle_bg_003_01.jpg:2:bg$:0:0:0:3:0:0:0,#
*,type=FADEIN_000,param=0.5:0&0&0:0:0:0:0:0:0:0:0:0,#
*,type=STOP,param=0:0:0:0:0:0:0:0:0:0:0,#
*,type=WAIT_0000,param=0.3:0:0:0:0:0:0:0:0:0:0,#
*,type=BGM_0000,param=31:1.5:0:0:0:0:0:0:0:0:0,#
*,type=FMSG_0000,msg=12月29日,param=chr_nov1:$Novel_B_04:nocenter&nowait:0:focusoff:0:0:0:0:0:0,#
*,type=CSYN_0002,param=0:0:0:0:0:0:0:0:0:0:0,#
*,type=FMSG_0000,msg=我々が訪れたのは、荒れた大地の広がる,param=chr_nov2:$Novel_B_07:nocenter&nowait:0:focusoff:0:0:0:0:0:0,#
*,type=CSYN_0001,param=0:0:0:0:0:0:0:0:0:0:0,#
*,type=FMSG_0000,msg=終末期の異界であった。,param=chr_nov3:$Novel_B_08:nocenter&nowait:0:focusoff:0:0:0:0:0:0,#
*,type=CSYN_0002,param=0:0:0:0:0:0:0:0:0:0:0,#
*,type=FMSG_0000,msg=愚かな戦争を繰り返した挙句、大地が,param=chr_nov4:$Novel_B_10:nocenter&nowait:0:focusoff:0:0:0:0:0:0,#
*,type=CSYN_0001,param=0:0:0:0:0:0:0:0:0:0:0,#
*,type=FMSG_0000,msg=瀕死になってようやく己の過ちに,param=chr_nov5:$Novel_B_11:nocenter&nowait:0:focusoff:0:0:0:0:0:0,#
*,type=CSYN_0001,param=0:0:0:0:0:0:0:0:0:0:0,#
*,type=FMSG_0000,msg=気付いたのであろう。,param=chr_nov6:$Novel_B_12:nocenter&nowait:0:focusoff:0:0:0:0:0:0,#
*,type=CSYN_0002,param=0:0:0:0:0:0:0:0:0:0:0,#
*,type=FMSG_0000,msg=あちこちに復興を目指す人々の動きが,param=chr_nov7:$Novel_B_14:nocenter&nowait:0:focusoff:0:0:0:0:0:0,#
*,type=CSYN_0001,param=0:0:0:0:0:0:0:0:0:0:0,#
*,type=FMSG_0000,msg=見えるが、残念ながらこの世界はもう,param=chr_nov8:$Novel_B_15:nocenter&nowait:0:focusoff:0:0:0:0:0:0,#
*,type=CSYN_0001,param=0:0:0:0:0:0:0:0:0:0:0,#
*,type=FMSG_0000,msg=終焉に向かっている。,param=chr_nov9:$Novel_B_16:nocenter&nowait:0:focusoff:0:0:0:0:0:0,#
*,type=CSYN_0002,param=0:0:0:0:0:0:0:0:0:0:0,#
*,type=FMSG_0000,msg=しかし長年戦争を続けてきただけあって,param=chr_nov10:$Novel_B_18:nocenter&nowait:0:focusoff:0:0:0:0:0:0,#
*,type=CSYN_0001,param=0:0:0:0:0:0:0:0:0:0:0,#
*,type=FMSG_0000,msg=戦力は十分なようであった。,param=chr_nov11:$Novel_B_19:nocenter&nowait:0:focusoff:0:0:0:0:0:0,#
*,type=CSYN_0001,param=0:0:0:0:0:0:0:0:0:0:0,#
*,type=FMSG_0000,msg=<wait=3>相手に不足はない。,param=chr_nov12:$Novel_B_20:nocenter&nowait:0:focusoff:0:0:0:0:0:0,#
*,type=CSYN_0002,param=0:0:0:0:0:0:0:0:0:0:0,#
*,type=FMSG_0000,msg=さて、収穫の時間だ。,param=chr_nov13:$Novel_B_22:nocenter&nowait:0:focusoff:0:0:0:0:0:0,#
*,type=CSYN_0002,param=0:0:0:0:0:0:0:0:0:0:0,#
*,type=FMSG_0000,msg=エルハザ様からは魂さえ持ち帰ればいい,param=chr_nov14:$Novel_B_24:nocenter&nowait:0:focusoff:0:0:0:0:0:0,#
*,type=CSYN_0001,param=0:0:0:0:0:0:0:0:0:0:0,#
*,type=FMSG_0000,msg=と言われている。,param=chr_nov15:$Novel_B_25:nocenter&nowait:0:focusoff:0:0:0:0:0:0,#
*,type=CSYN_0002,param=0:0:0:0:0:0:0:0:0:0:0,#
*,type=FMSG_0000,msg=つまり生死は問わないということだ。,param=chr_nov16:$Novel_B_26:nocenter&nowait:0:focusoff:0:0:0:0:0:0,#
*,type=CSYN_0002,param=0:0:0:0:0:0:0:0:0:0:0,#
*,type=FMSG_0000,msg=私は早速ザドに殲滅を命じた。,param=chr_nov17:$Novel_B_28:nocenter&nowait:0:focusoff:0:0:0:0:0:0,#
*,type=CSYN_0002,param=0:0:0:0:0:0:0:0:0:0:0,#
*,type=SE_0000,param=20:0:0:0:0:0:0:0:0:0:0,#
*,type=FADEOUT_000,param=0.5:0&0&0:0:0:0:0:0:0:0:0:0,#
*,type=BGM_0001,param=1.3:0:0:0:0:0:0:0:0:0:0,#
*,type=STOP,param=0:0:0:0:0:0:0:0:0:0:0,#
*,type=FMSG_0001,param=all:0:0:0:0:0:0:0:0:0:0,#
*,type=FADEIN_000,param=0.5:0&0&0:0:0:0:0:0:0:0:0:0,#
*,type=STOP,param=0:0:0:0:0:0:0:0:0:0:0,#
*,type=WAIT_0000,param=0.3:0:0:0:0:0:0:0:0:0:0,#
*,type=BGM_0000,param=32:0:0:0:0:0:0:0:0:0:0,#
*,type=FMSG_0000,msg=ところが、だ！,param=chr_nov1:$Novel_B_03:nocenter&nowait:0:focusoff:0:0:0:0:0:0,#
*,type=CSYN_0002,param=0:0:0:0:0:0:0:0:0:0:0,#
*,type=FMSG_0000,msg=ザドが逃げまどう市民を攻撃しようと,param=chr_nov2:$Novel_B_05:nocenter&nowait:0:focusoff:0:0:0:0:0:0,#
*,type=CSYN_0001,param=0:0:0:0:0:0:0:0:0:0:0,#
*,type=FMSG_0000,msg=した時、あろうことかバラガンが,param=chr_nov3:$Novel_B_06:nocenter&nowait:0:focusoff:0:0:0:0:0:0,#
*,type=CSYN_0001,param=0:0:0:0:0:0:0:0:0:0:0,#
*,type=FMSG_0000,msg=ザドを殴りつけてきたのである！,param=chr_nov4:$Novel_B_07:nocenter&nowait:0:focusoff:0:0:0:0:0:0,#
*,type=CSYN_0002,param=0:0:0:0:0:0:0:0:0:0:0,#
*,type=FMSG_0000,msg=乱心したのかと思ったが、そうでは,param=chr_nov5:$Novel_B_09:nocenter&nowait:0:focusoff:0:0:0:0:0:0,#
*,type=CSYN_0001,param=0:0:0:0:0:0:0:0:0:0:0,#
*,type=FMSG_0000,msg=ないらしい。,param=chr_nov6:$Novel_B_10:nocenter&nowait:0:focusoff:0:0:0:0:0:0,#
*,type=CSYN_0002,param=0:0:0:0:0:0:0:0:0:0:0,#
*,type=FMSG_0000,msg=彼は、戦意を喪失した者など放っておけ,param=chr_nov7:$Novel_B_12:nocenter&nowait:0:focusoff:0:0:0:0:0:0,#
*,type=CSYN_0001,param=0:0:0:0:0:0:0:0:0:0:0,#
*,type=FMSG_0000,msg=と叫んだ。,param=chr_nov8:$Novel_B_13:nocenter&nowait:0:focusoff:0:0:0:0:0:0,#
*,type=CSYN_0002,param=0:0:0:0:0:0:0:0:0:0:0,#
*,type=FMSG_0000,msg=私は、もうこの世界に未来はないこと、,param=chr_nov9:$Novel_B_15:nocenter&nowait:0:focusoff:0:0:0:0:0:0,#
*,type=CSYN_0001,param=0:0:0:0:0:0:0:0:0:0:0,#
*,type=FMSG_0000,msg=ここで死んでしまった方が彼らのため,param=chr_nov10:$Novel_B_16:nocenter&nowait:0:focusoff:0:0:0:0:0:0,#
*,type=CSYN_0001,param=0:0:0:0:0:0:0:0:0:0:0,#
*,type=FMSG_0000,msg=でもあることを熱弁した。,param=chr_nov11:$Novel_B_17:nocenter&nowait:0:focusoff:0:0:0:0:0:0,#
*,type=CSYN_0002,param=0:0:0:0:0:0:0:0:0:0:0,#
*,type=FMSG_0000,msg=魂となって我々に有効利用される方が,param=chr_nov12:$Novel_B_19:nocenter&nowait:0:focusoff:0:0:0:0:0:0,#
*,type=CSYN_0001,param=0:0:0:0:0:0:0:0:0:0:0,#
*,type=FMSG_0000,msg=幸せではないのか、と。,param=chr_nov13:$Novel_B_20:nocenter&nowait:0:focusoff:0:0:0:0:0:0,#
*,type=CSYN_0002,param=0:0:0:0:0:0:0:0:0:0:0,#
*,type=FMSG_0000,msg=だがバラガンは一向に私の主張を,param=chr_nov14:$Novel_B_22:nocenter&nowait:0:focusoff:0:0:0:0:0:0,#
*,type=CSYN_0001,param=0:0:0:0:0:0:0:0:0:0:0,#
*,type=FMSG_0000,msg=理解しようとしない。,param=chr_nov15:$Novel_B_23:nocenter&nowait:0:focusoff:0:0:0:0:0:0,#
*,type=CSYN_0002,param=0:0:0:0:0:0:0:0:0:0:0,#
*,type=FMSG_0000,msg=私は思わず言い放ってしまった。,param=chr_nov16:$Novel_B_25:nocenter&nowait:0:focusoff:0:0:0:0:0:0,#
*,type=CSYN_0002,param=0:0:0:0:0:0:0:0:0:0:0,#
*,type=FMSG_0000,msg=無能どもに生きている価値などない,param=chr_nov17:$Novel_B_27:nocenter&nowait:0:focusoff:0:0:0:0:0:0,#
*,type=CSYN_0001,param=0:0:0:0:0:0:0:0:0:0:0,#
*,type=FMSG_0000,msg=のだと。,param=chr_nov18:$Novel_B_28:nocenter&nowait:0:focusoff:0:0:0:0:0:0,#
*,type=CSYN_0002,param=0:0:0:0:0:0:0:0:0:0:0,#
*,type=SE_0000,param=20:0:0:0:0:0:0:0:0:0:0,#
*,type=FADEOUT_000,param=0.5:0&0&0:0:0:0:0:0:0:0:0:0,#
*,type=STOP,param=0:0:0:0:0:0:0:0:0:0:0,#
*,type=FMSG_0001,param=all:0:0:0:0:0:0:0:0:0:0,#
*,type=FADEIN_000,param=0.5:0&0&0:0:0:0:0:0:0:0:0:0,#
*,type=STOP,param=0:0:0:0:0:0:0:0:0:0:0,#
*,type=WAIT_0000,param=0.3:0:0:0:0:0:0:0:0:0:0,#
*,type=FMSG_0000,msg=するとバラガンは私の胸倉を掴み上げ,param=chr_nov1:$Novel_B_04:nocenter&nowait:0:focusoff:0:0:0:0:0:0,#
*,type=CSYN_0001,param=0:0:0:0:0:0:0:0:0:0:0,#
*,type=FMSG_0000,msg=脅すような声でこう言った。,param=chr_nov2:$Novel_B_05:nocenter&nowait:0:focusoff:0:0:0:0:0:0,#
*,type=CSYN_0002,param=0:0:0:0:0:0:0:0:0:0:0,#
*,type=FMSG_0000,msg=「無力な奴をぶっ殺して,param=chr_nov3:$Novel_B_07:nocenter&nowait:0:focusoff:0:0:0:0:0:0,#
*,type=CSYN_0001,param=0:0:0:0:0:0:0:0:0:0:0,#
*,type=FMSG_0000,msg=<speed=0>　</speed>神にでもなったつもりか？」,param=chr_nov4:$Novel_B_08:nocenter&nowait:0:focusoff:0:0:0:0:0:0,#
*,type=CSYN_0002,param=0:0:0:0:0:0:0:0:0:0:0,#
*,type=FMSG_0000,msg=殺される――――私は死を覚悟した。,param=chr_nov5:$Novel_B_10:nocenter&nowait:0:focusoff:0:0:0:0:0:0,#
*,type=CSYN_0002,param=0:0:0:0:0:0:0:0:0:0:0,#
*,type=FMSG_0000,msg=ザドがバラガンに向かってくるのが,param=chr_nov6:$Novel_B_12:nocenter&nowait:0:focusoff:0:0:0:0:0:0,#
*,type=CSYN_0001,param=0:0:0:0:0:0:0:0:0:0:0,#
*,type=FMSG_0000,msg=横目に見えた。,param=chr_nov7:$Novel_B_13:nocenter&nowait:0:focusoff:0:0:0:0:0:0,#
*,type=CSYN_0002,param=0:0:0:0:0:0:0:0:0:0:0,#
*,type=BGM_0001,param=3:0:0:0:0:0:0:0:0:0:0,#
*,type=FMSG_0000,msg=その後のことはよく覚えていない。,param=chr_nov8:$Novel_B_19:nocenter&nowait:0:focusoff:0:0:0:0:0:0,#
*,type=CSYN_0002,param=0:0:0:0:0:0:0:0:0:0:0,#
*,type=FMSG_0000,msg=気付いた時には、ザドの機体が,param=chr_nov9:$Novel_B_25:nocenter&nowait:0:focusoff:0:0:0:0:0:0,#
*,type=CSYN_0001,param=0:0:0:0:0:0:0:0:0:0:0,#
*,type=FMSG_0000,msg=バラバラになっていた。,param=chr_nov10:$Novel_B_26:nocenter&nowait:0:focusoff:0:0:0:0:0:0,#
*,type=CSYN_0002,param=0:0:0:0:0:0:0:0:0:0:0,#
*,type=SE_0000,param=20:0:0:0:0:0:0:0:0:0:0,#
*,type=FADEOUT_000,param=0.5:0&0&0:0:0:0:0:0:0:0:0:0,#
*,type=STOP,param=0:0:0:0:0:0:0:0:0:0:0,#
*,type=FMSG_0001,param=all:0:0:0:0:0:0:0:0:0:0,#
*,type=PICT_0004,param=bg_02:0:0:0:0:0:0:0:0:0:0,#
*,type=PICT_0000,param=bg_03:battle_bg_003_EX02.jpg:2:bg$:0:0:0:3:0:0:0,#
*,type=FADEIN_000,param=0.5:0&0&0:0:0:0:0:0:0:0:0:0,#
*,type=BGM_0000,param=52:1.5:0:0:0:0:0:0:0:0:0,#
*,type=STOP,param=0:0:0:0:0:0:0:0:0:0:0,#
*,type=WAIT_0000,param=0.3:0:0:0:0:0:0:0:0:0:0,#
*,type=FMSG_0000,msg=12月31日,param=chr_nov1:$Novel_B_03:nocenter&nowait:0:focusoff:0:0:0:0:0:0,#
*,type=CSYN_0002,param=0:0:0:0:0:0:0:0:0:0:0,#
*,type=FMSG_0000,msg=やはり関節部分にまだ少し問題がある,param=chr_nov2:$Novel_B_06:nocenter&nowait:0:focusoff:0:0:0:0:0:0,#
*,type=CSYN_0001,param=0:0:0:0:0:0:0:0:0:0:0,#
*,type=FMSG_0000,msg=らしい。,param=chr_nov3:$Novel_B_07:nocenter&nowait:0:focusoff:0:0:0:0:0:0,#
*,type=CSYN_0002,param=0:0:0:0:0:0:0:0:0:0:0,#
*,type=FMSG_0000,msg=大破したザドを回収した後、私は研究室,param=chr_nov4:$Novel_B_09:nocenter&nowait:0:focusoff:0:0:0:0:0:0,#
*,type=CSYN_0001,param=0:0:0:0:0:0:0:0:0:0:0,#
*,type=FMSG_0000,msg=に閉じこもって修理に打ち込んでいた。,param=chr_nov5:$Novel_B_10:nocenter&nowait:0:focusoff:0:0:0:0:0:0,#
*,type=CSYN_0002,param=0:0:0:0:0:0:0:0:0:0:0,#
*,type=FMSG_0000,msg=あの日のことを思い出すと、また勝手に,param=chr_nov6:$Novel_B_12:nocenter&nowait:0:focusoff:0:0:0:0:0:0,#
*,type=CSYN_0001,param=0:0:0:0:0:0:0:0:0:0:0,#
*,type=FMSG_0000,msg=体が震えてくる。,param=chr_nov7:$Novel_B_13:nocenter&nowait:0:focusoff:0:0:0:0:0:0,#
*,type=CSYN_0002,param=0:0:0:0:0:0:0:0:0:0:0,#
*,type=FMSG_0000,msg=七魔将の本当の恐ろしさを,param=chr_nov8:$Novel_B_15:nocenter&nowait:0:focusoff:0:0:0:0:0:0,#
*,type=CSYN_0001,param=0:0:0:0:0:0:0:0:0:0:0,#
*,type=FMSG_0000,msg=私は身をもって知ることになったのだ。,param=chr_nov9:$Novel_B_16:nocenter&nowait:0:focusoff:0:0:0:0:0:0,#
*,type=CSYN_0002,param=0:0:0:0:0:0:0:0:0:0:0,#
*,type=FMSG_0000,msg=ランフォード様が仲裁に入って下さらな,param=chr_nov10:$Novel_B_18:nocenter&nowait:0:focusoff:0:0:0:0:0:0,#
*,type=CSYN_0001,param=0:0:0:0:0:0:0:0:0:0:0,#
*,type=FMSG_0000,msg=ければ、私は確実に死んでいただろう。,param=chr_nov11:$Novel_B_19:nocenter&nowait:0:focusoff:0:0:0:0:0:0,#
*,type=CSYN_0002,param=0:0:0:0:0:0:0:0:0:0:0,#
*,type=FMSG_0000,msg=……しかし、私の行動のどこに問題が,param=chr_nov12:$Novel_B_21:nocenter&nowait:0:focusoff:0:0:0:0:0:0,#
*,type=CSYN_0001,param=0:0:0:0:0:0:0:0:0:0:0,#
*,type=FMSG_0000,msg=あったというのだ。,param=chr_nov13:$Novel_B_22:nocenter&nowait:0:focusoff:0:0:0:0:0:0,#
*,type=CSYN_0002,param=0:0:0:0:0:0:0:0:0:0:0,#
*,type=FMSG_0000,msg=あれからずっと考えているが、未だ,param=chr_nov14:$Novel_B_24:nocenter&nowait:0:focusoff:0:0:0:0:0:0,#
*,type=CSYN_0001,param=0:0:0:0:0:0:0:0:0:0:0,#
*,type=FMSG_0000,msg=納得のいく答えは見つかっていない。,param=chr_nov15:$Novel_B_25:nocenter&nowait:0:focusoff:0:0:0:0:0:0,#
*,type=CSYN_0002,param=0:0:0:0:0:0:0:0:0:0:0,#
*,type=FMSG_0000,msg=このまま私はネグレスの一員として,param=chr_nov16:$Novel_B_27:nocenter&nowait:0:focusoff:0:0:0:0:0:0,#
*,type=CSYN_0001,param=0:0:0:0:0:0:0:0:0:0:0,#
*,type=FMSG_0000,msg=やってゆくことができるのだろうか……,param=chr_nov17:$Novel_B_28:nocenter&nowait:0:focusoff:0:0:0:0:0:0,#
*,type=CSYN_0002,param=0:0:0:0:0:0:0:0:0:0:0,#
*,type=SE_0000,param=103:0:0:0:0:0:0:0:0:0:0,#
*,type=FADEOUT_000,param=1.5:0&0&0:0:0:0:0:0:0:0:0:0,#
*,type=BGM_0001,param=1.5:0:0:0:0:0:0:0:0:0:0,#
*,type=WAIT_0000,param=2:0:0:0:0:0:0:0:0:0:0,#
*,type=FMSG_0001,param=all:0:0:0:0:0:0:0:0:0:0,#
*,type=CLSNE_0000,param=0:0:0:0:0:0:0:0:0:0:0,#

*,type=SYSED_00,param=0:0:0:0:0:0:0:0:0:0:0,#



