﻿ScriptCmd ver 1.1.1(app1.0.4):スクリプト_novel_006.xlsm/script_novel_006_10/script_novel_006_10.csv

*,type=SYSST_00,param=0:0:0:0:0:0:0:0:0:0:0,#
*,type=CMD_STOP,param=0:0:0:0:0:0:0:0:0:0:0,#
*,type=SYSST_01,param=0:0:0:0:0:0:0:0:0:0:0,#


*,type=MSKS_0000,param=bgBlackMask:0&0&0:0:Z$50:T$0:0:0:0:0:0:0,#
*,type=PICT_0000,param=bg_paper_01:event_bg_paper.png:1:0:0:2:0:0:0:0:0,#
*,type=PICT_0001,param=bg_paper_01:-106:0:0:0:0:0:0:0:0:0,#
*,type=MSKS_0000,param=bgPaperMask:215&159&110:128:Z$6:T$0:0:0:0:0:0:0,#
*,type=WAIT_0000,param=1:0:0:0:0:0:0:0:0:0:0,#
*,type=FMSG_0000,msg=ある神徒の記憶,param=chr_nov1:$Novel_B_14:nowait:once:focusoff:0:0:0:0:0:0,#
*,type=FMSG_0000,msg=～アートリアにて～,param=chr_nov2:$Novel_B_17:nowait:once:focusoff:0:0:0:0:0:0,#
*,type=STOP,param=0:0:0:0:0:0:0:0:0:0:0,#
*,type=MSKS_0002,param=bgBlackMask:T$1.5:0:0:0:0:0:0:0:0:0,#
*,type=WAIT_0000,param=1.5:0:0:0:0:0:0:0:0:0:0,#
*,type=CSYN_0002,param=0:0:0:0:0:0:0:0:0:0:0,#
*,type=SE_0000,param=20:0:0:0:0:0:0:0:0:0:0,#
*,type=FADEOUT_000,param=0.5:0&0&0:0:0:0:0:0:0:0:0:0,#
*,type=STOP,param=0:0:0:0:0:0:0:0:0:0:0,#
*,type=FMSG_0001,param=all:0:0:0:0:0:0:0:0:0:0,#
*,type=PICT_0004,param=bg_paper_01:0:0:0:0:0:0:0:0:0:0,#
*,type=PICT_0000,param=bg_adv_01:battle_bg_015_04.jpg:1:bg$900016:0:0:0:2:0:0:0,#
*,type=PICT_0000,param=bg_paper_02:event_filter_paper.png:5:0:0:2:0:0:0:0:0,#
*,type=PICT_0001,param=bg_paper_02:-106:0:0:0:0:0:0:0:0:0,#
*,type=FADEIN_000,param=0.5:$0&0&0:0:0:0:0:0:0:0:0:0,#
*,type=BGM_0000,param=61:0:0:0:0:0:0:0:0:0:0,#
*,type=STOP,param=0:0:0:0:0:0:0:0:0:0:0,#
*,type=WAIT_0000,param=0.8:0:0:0:0:0:0:0:0:0:0,#
*,type=FMSG_0000,msg=<speed=9>アヴルヘインに漂う,param=chr_nov1:$Novel_B_14:nowait:0:focusoff:0:0:0:0:0:0,#
*,type=CSYN_0001,param=0:0:0:0:0:0:0:0:0:0:0,#
*,type=FMSG_0000,msg=<speed=9>誰かの記憶が流れ込む,param=chr_nov2:$Novel_B_16:nowait:0:focusoff:0:0:0:0:0:0,#
*,type=CSYN_0002,param=0:0:0:0:0:0:0:0:0:0:0,#
*,type=SE_0000,param=20:0:0:0:0:0:0:0:0:0:0,#
*,type=FADEOUT_000,param=0.5:0&0&0:0:0:0:0:0:0:0:0:0,#
*,type=STOP,param=0:0:0:0:0:0:0:0:0:0:0,#
*,type=BGM_0001,param=0.5:0:0:0:0:0:0:0:0:0:0,#
*,type=BGM_0000,param=1060:0.5:0.5:0:0:0:0:0:0:0:0,#
*,type=PICT_0004,param=bg_adv_01:0:0:0:0:0:0:0:0:0:0,#
*,type=PICT_0000,param=bg_01:battle_bg_018_04.jpg:1:bg$1051104:0:0:0:2:0:0:0,#
*,type=FMSG_0001,param=all:0:0:0:0:0:0:0:0:0:0,#
*,type=FADEIN_000,param=0.5:0&0&0:0:0:0:0:0:0:0:0:0,#
*,type=STOP,param=0:0:0:0:0:0:0:0:0:0:0,#
*,type=WAIT_0000,param=0.3:0:0:0:0:0:0:0:0:0:0,#
*,type=FMSG_0000,msg=ヴリクシャの森での一件以来、レストー,param=chr_nov1:$Novel_B_07:nocenter&nowait:0:focusoff:0:0:0:0:0:0,#
*,type=CSYN_0001,param=0:0:0:0:0:0:0:0:0:0:0,#
*,type=FMSG_0000,msg=クは自分の魂がふたつに別れているよう,param=chr_nov2:$Novel_B_08:nocenter&nowait:0:focusoff:0:0:0:0:0:0,#
*,type=CSYN_0001,param=0:0:0:0:0:0:0:0:0:0:0,#
*,type=FMSG_0000,msg=な感覚を覚えていた。,param=chr_nov3:$Novel_B_09:nocenter&nowait:0:focusoff:0:0:0:0:0:0,#
*,type=CSYN_0002,param=0:0:0:0:0:0:0:0:0:0:0,#
*,type=FMSG_0000,msg=人間として生きてゆきたい今の自分と、,param=chr_nov4:$Novel_B_11:nocenter&nowait:0:focusoff:0:0:0:0:0:0,#
*,type=CSYN_0001,param=0:0:0:0:0:0:0:0:0:0:0,#
*,type=FMSG_0000,msg=神徒であった過去の自分。,param=chr_nov5:$Novel_B_12:nocenter&nowait:0:focusoff:0:0:0:0:0:0,#
*,type=CSYN_0002,param=0:0:0:0:0:0:0:0:0:0:0,#
*,type=FMSG_0000,msg=神徒レストークは死んだ。<wait=3>過去の自分は,param=chr_nov6:$Novel_B_14:nocenter&nowait:0:focusoff:0:0:0:0:0:0,#
*,type=CSYN_0001,param=0:0:0:0:0:0:0:0:0:0:0,#
*,type=FMSG_0000,msg=亡霊のようなものだ。,param=chr_nov7:$Novel_B_15:nocenter&nowait:0:focusoff:0:0:0:0:0:0,#
*,type=CSYN_0002,param=0:0:0:0:0:0:0:0:0:0:0,#
*,type=FMSG_0000,msg=その亡霊に憑りつかれていた。<wait=3>亡霊は彼,param=chr_nov8:$Novel_B_17:nocenter&nowait:0:focusoff:0:0:0:0:0:0,#
*,type=CSYN_0001,param=0:0:0:0:0:0:0:0:0:0:0,#
*,type=FMSG_0000,msg=が何かをする度に囁く。<wait=3>人間ではなく神,param=chr_nov9:$Novel_B_18:nocenter&nowait:0:focusoff:0:0:0:0:0:0,#
*,type=CSYN_0001,param=0:0:0:0:0:0:0:0:0:0:0,#
*,type=FMSG_0000,msg=徒ならどうすべきかを。,param=chr_nov10:$Novel_B_19:nocenter&nowait:0:focusoff:0:0:0:0:0:0,#
*,type=CSYN_0002,param=0:0:0:0:0:0:0:0:0:0:0,#
*,type=FMSG_0000,msg=その煩わしさは人間であれば狂っていた,param=chr_nov11:$Novel_B_21:nocenter&nowait:0:focusoff:0:0:0:0:0:0,#
*,type=CSYN_0001,param=0:0:0:0:0:0:0:0:0:0:0,#
*,type=FMSG_0000,msg=だろう。<wait=3>いや、むしろ狂ってしまったか,param=chr_nov12:$Novel_B_22:nocenter&nowait:0:focusoff:0:0:0:0:0:0,#
*,type=CSYN_0001,param=0:0:0:0:0:0:0:0:0:0:0,#
*,type=FMSG_0000,msg=ら幻聴が聞こえるのかもしれない。,param=chr_nov13:$Novel_B_23:nocenter&nowait:0:focusoff:0:0:0:0:0:0,#
*,type=CSYN_0002,param=0:0:0:0:0:0:0:0:0:0:0,#
*,type=SE_0000,param=20:0:0:0:0:0:0:0:0:0:0,#
*,type=FADEOUT_000,param=0.5:0&0&0:0:0:0:0:0:0:0:0:0,#
*,type=STOP,param=0:0:0:0:0:0:0:0:0:0:0,#
*,type=FMSG_0001,param=all:0:0:0:0:0:0:0:0:0:0,#
*,type=FADEIN_000,param=0.5:0&0&0:0:0:0:0:0:0:0:0:0,#
*,type=STOP,param=0:0:0:0:0:0:0:0:0:0:0,#
*,type=WAIT_0000,param=0.3:0:0:0:0:0:0:0:0:0:0,#
*,type=FMSG_0000,msg=無理に人間のふりを続けた代償が狂気で,param=chr_nov1:$Novel_B_07:nocenter&nowait:0:focusoff:0:0:0:0:0:0,#
*,type=CSYN_0001,param=0:0:0:0:0:0:0:0:0:0:0,#
*,type=FMSG_0000,msg=あったのだろうか。<wait=3>それとも人間のふり,param=chr_nov2:$Novel_B_08:nocenter&nowait:0:focusoff:0:0:0:0:0:0,#
*,type=CSYN_0001,param=0:0:0:0:0:0:0:0:0:0:0,#
*,type=FMSG_0000,msg=を続けすぎ、演じている仮面の方が自分,param=chr_nov3:$Novel_B_09:nocenter&nowait:0:focusoff:0:0:0:0:0:0,#
*,type=CSYN_0001,param=0:0:0:0:0:0:0:0:0:0:0,#
*,type=FMSG_0000,msg=だと勘違いしているだけなのだろうか。,param=chr_nov4:$Novel_B_10:nocenter&nowait:0:focusoff:0:0:0:0:0:0,#
*,type=CSYN_0002,param=0:0:0:0:0:0:0:0:0:0:0,#
*,type=FMSG_0000,msg=レストークは自問自答を繰り返す。<wait=3>表面,param=chr_nov5:$Novel_B_12:nocenter&nowait:0:focusoff:0:0:0:0:0:0,#
*,type=CSYN_0001,param=0:0:0:0:0:0:0:0:0:0:0,#
*,type=FMSG_0000,msg=上はそれまでと変わりなく、ナイゼルや,param=chr_nov6:$Novel_B_13:nocenter&nowait:0:focusoff:0:0:0:0:0:0,#
*,type=CSYN_0001,param=0:0:0:0:0:0:0:0:0:0:0,#
*,type=FMSG_0000,msg=ファーベルと談笑しながら。,param=chr_nov7:$Novel_B_14:nocenter&nowait:0:focusoff:0:0:0:0:0:0,#
*,type=CSYN_0002,param=0:0:0:0:0:0:0:0:0:0:0,#
*,type=FMSG_0000,msg=ひとつの体にふたつの魂が同居している,param=chr_nov8:$Novel_B_16:nocenter&nowait:0:focusoff:0:0:0:0:0:0,#
*,type=CSYN_0001,param=0:0:0:0:0:0:0:0:0:0:0,#
*,type=FMSG_0000,msg=ような奇妙な感覚。<wait=3>レストーク自身は、,param=chr_nov9:$Novel_B_17:nocenter&nowait:0:focusoff:0:0:0:0:0:0,#
*,type=CSYN_0001,param=0:0:0:0:0:0:0:0:0:0:0,#
*,type=FMSG_0000,msg=人間であろうとする自分こそが、本来の,param=chr_nov10:$Novel_B_18:nocenter&nowait:0:focusoff:0:0:0:0:0:0,#
*,type=CSYN_0001,param=0:0:0:0:0:0:0:0:0:0:0,#
*,type=FMSG_0000,msg=自分の延長にあると考えていた。,param=chr_nov11:$Novel_B_19:nocenter&nowait:0:focusoff:0:0:0:0:0:0,#
*,type=CSYN_0002,param=0:0:0:0:0:0:0:0:0:0:0,#
*,type=FMSG_0000,msg=成長の結果が今であると。,param=chr_nov12:$Novel_B_21:nocenter&nowait:0:focusoff:0:0:0:0:0:0,#
*,type=CSYN_0002,param=0:0:0:0:0:0:0:0:0:0:0,#
*,type=FMSG_0000,msg=過去の自分は迷妄に過ぎない。<wait=3>強い心で,param=chr_nov13:$Novel_B_23:nocenter&nowait:0:focusoff:0:0:0:0:0:0,#
*,type=CSYN_0001,param=0:0:0:0:0:0:0:0:0:0:0,#
*,type=FMSG_0000,msg=打ち払わなければならない。,param=chr_nov14:$Novel_B_24:nocenter&nowait:0:focusoff:0:0:0:0:0:0,#
*,type=CSYN_0002,param=0:0:0:0:0:0:0:0:0:0:0,#
*,type=SE_0000,param=20:0:0:0:0:0:0:0:0:0:0,#
*,type=FADEOUT_000,param=0.5:0&0&0:0:0:0:0:0:0:0:0:0,#
*,type=STOP,param=0:0:0:0:0:0:0:0:0:0:0,#
*,type=FMSG_0001,param=all:0:0:0:0:0:0:0:0:0:0,#
*,type=FADEIN_000,param=0.5:0&0&0:0:0:0:0:0:0:0:0:0,#
*,type=STOP,param=0:0:0:0:0:0:0:0:0:0:0,#
*,type=WAIT_0000,param=0.3:0:0:0:0:0:0:0:0:0:0,#
*,type=FMSG_0000,msg=一年が経過した。<wait=3>レストークは依然とし,param=chr_nov1:$Novel_B_07:nocenter&nowait:0:focusoff:0:0:0:0:0:0,#
*,type=CSYN_0001,param=0:0:0:0:0:0:0:0:0:0:0,#
*,type=FMSG_0000,msg=て過去の自分に苦しめられていた。<wait=3>相変,param=chr_nov2:$Novel_B_08:nocenter&nowait:0:focusoff:0:0:0:0:0:0,#
*,type=CSYN_0001,param=0:0:0:0:0:0:0:0:0:0:0,#
*,type=FMSG_0000,msg=わらず、苦悩は欠片も表に出さないが。,param=chr_nov3:$Novel_B_09:nocenter&nowait:0:focusoff:0:0:0:0:0:0,#
*,type=CSYN_0002,param=0:0:0:0:0:0:0:0:0:0:0,#
*,type=FMSG_0000,msg=親友たちも、まさか彼がそのような葛藤,param=chr_nov4:$Novel_B_11:nocenter&nowait:0:focusoff:0:0:0:0:0:0,#
*,type=CSYN_0001,param=0:0:0:0:0:0:0:0:0:0:0,#
*,type=FMSG_0000,msg=に悩んでるなど思いもよらなかったこと,param=chr_nov5:$Novel_B_12:nocenter&nowait:0:focusoff:0:0:0:0:0:0,#
*,type=CSYN_0001,param=0:0:0:0:0:0:0:0:0:0:0,#
*,type=FMSG_0000,msg=だろう。<wait=3>そもそも、彼が人間ではないこ,param=chr_nov6:$Novel_B_13:nocenter&nowait:0:focusoff:0:0:0:0:0:0,#
*,type=CSYN_0001,param=0:0:0:0:0:0:0:0:0:0:0,#
*,type=FMSG_0000,msg=とすら知らないのだ。,param=chr_nov7:$Novel_B_14:nocenter&nowait:0:focusoff:0:0:0:0:0:0,#
*,type=CSYN_0002,param=0:0:0:0:0:0:0:0:0:0:0,#
*,type=FMSG_0000,msg=そんな折に、テルツェットに異界アート,param=chr_nov8:$Novel_B_16:nocenter&nowait:0:focusoff:0:0:0:0:0:0,#
*,type=CSYN_0001,param=0:0:0:0:0:0:0:0:0:0:0,#
*,type=FMSG_0000,msg=リアの調査任務が与えられる。<wait=3>シャロン,param=chr_nov9:$Novel_B_17:nocenter&nowait:0:focusoff:0:0:0:0:0:0,#
*,type=CSYN_0001,param=0:0:0:0:0:0:0:0:0:0:0,#
*,type=FMSG_0000,msg=の働きかけで、三部隊合同での調査任務,param=chr_nov10:$Novel_B_18:nocenter&nowait:0:focusoff:0:0:0:0:0:0,#
*,type=CSYN_0001,param=0:0:0:0:0:0:0:0:0:0:0,#
*,type=FMSG_0000,msg=となった。<wait=3>ただし、ひとりナイゼルだけ,param=chr_nov11:$Novel_B_19:nocenter&nowait:0:focusoff:0:0:0:0:0:0,#
*,type=CSYN_0001,param=0:0:0:0:0:0:0:0:0:0:0,#
*,type=FMSG_0000,msg=はアズカステリという別の異界で任務に,param=chr_nov12:$Novel_B_20:nocenter&nowait:0:focusoff:0:0:0:0:0:0,#
*,type=CSYN_0001,param=0:0:0:0:0:0:0:0:0:0:0,#
*,type=FMSG_0000,msg=当たっているため不在だ。,param=chr_nov13:$Novel_B_21:nocenter&nowait:0:focusoff:0:0:0:0:0:0,#
*,type=CSYN_0002,param=0:0:0:0:0:0:0:0:0:0:0,#
*,type=FMSG_0000,msg=彼の魔討隊は弟ファーベルが代理隊長を,param=chr_nov14:$Novel_B_23:nocenter&nowait:0:focusoff:0:0:0:0:0:0,#
*,type=CSYN_0001,param=0:0:0:0:0:0:0:0:0:0:0,#
*,type=FMSG_0000,msg=務めることになった。<wait=3>よくあることだ。,param=chr_nov15:$Novel_B_24:nocenter&nowait:0:focusoff:0:0:0:0:0:0,#
*,type=CSYN_0002,param=0:0:0:0:0:0:0:0:0:0:0,#
*,type=SE_0000,param=20:0:0:0:0:0:0:0:0:0:0,#
*,type=FADEOUT_000,param=0.5:0&0&0:0:0:0:0:0:0:0:0:0,#
*,type=STOP,param=0:0:0:0:0:0:0:0:0:0:0,#
*,type=PICT_0004,param=bg_01:0:0:0:0:0:0:0:0:0:0,#
*,type=PICT_0000,param=bg_01:battle_bg_sq_011_02_1.jpg:1:bg$203110105:0:0:0:2:0:0:0,#
*,type=FMSG_0001,param=all:0:0:0:0:0:0:0:0:0:0,#
*,type=FADEIN_000,param=0.5:0&0&0:0:0:0:0:0:0:0:0:0,#
*,type=STOP,param=0:0:0:0:0:0:0:0:0:0:0,#
*,type=WAIT_0000,param=0.3:0:0:0:0:0:0:0:0:0:0,#
*,type=FMSG_0000,msg=アートリアの遺跡を調査する上で、危険,param=chr_nov1:$Novel_B_07:nocenter&nowait:0:focusoff:0:0:0:0:0:0,#
*,type=CSYN_0001,param=0:0:0:0:0:0:0:0:0:0:0,#
*,type=FMSG_0000,msg=など微塵も存在しなかった。<wait=3>テルツェッ,param=chr_nov2:$Novel_B_08:nocenter&nowait:0:focusoff:0:0:0:0:0:0,#
*,type=CSYN_0001,param=0:0:0:0:0:0:0:0:0:0:0,#
*,type=FMSG_0000,msg=トは和気あいあいと、まるで遊覧にでも,param=chr_nov3:$Novel_B_09:nocenter&nowait:0:focusoff:0:0:0:0:0:0,#
*,type=CSYN_0001,param=0:0:0:0:0:0:0:0:0:0:0,#
*,type=FMSG_0000,msg=来たかのように任務に当たっている。,param=chr_nov4:$Novel_B_10:nocenter&nowait:0:focusoff:0:0:0:0:0:0,#
*,type=CSYN_0002,param=0:0:0:0:0:0:0:0:0:0:0,#
*,type=FMSG_0000,msg=以前にも、こんなことがあった。<wait=3>レスト,param=chr_nov5:$Novel_B_12:nocenter&nowait:0:focusoff:0:0:0:0:0:0,#
*,type=CSYN_0001,param=0:0:0:0:0:0:0:0:0:0:0,#
*,type=FMSG_0000,msg=ークはヴリクシャの森での油断を思い出,param=chr_nov6:$Novel_B_13:nocenter&nowait:0:focusoff:0:0:0:0:0:0,#
*,type=CSYN_0001,param=0:0:0:0:0:0:0:0:0:0:0,#
*,type=FMSG_0000,msg=す。<wait=3>亡霊の声が一段と大きくなった。,param=chr_nov7:$Novel_B_14:nocenter&nowait:0:focusoff:0:0:0:0:0:0,#
*,type=CSYN_0002,param=0:0:0:0:0:0:0:0:0:0:0,#
*,type=FMSG_0000,msg=シャロンが“遺物”の調査を続ける。<wait=3>ど,param=chr_nov8:$Novel_B_16:nocenter&nowait:0:focusoff:0:0:0:0:0:0,#
*,type=CSYN_0001,param=0:0:0:0:0:0:0:0:0:0:0,#
*,type=FMSG_0000,msg=うやら未知の異界の界座標を算出する機,param=chr_nov9:$Novel_B_17:nocenter&nowait:0:focusoff:0:0:0:0:0:0,#
*,type=CSYN_0001,param=0:0:0:0:0:0:0:0:0:0:0,#
*,type=FMSG_0000,msg=器であるらしい。,param=chr_nov10:$Novel_B_18:nocenter&nowait:0:focusoff:0:0:0:0:0:0,#
*,type=CSYN_0002,param=0:0:0:0:0:0:0:0:0:0:0,#
*,type=FMSG_0000,msg=シャロンの持つ携帯型ゲート発生装置と,param=chr_nov11:$Novel_B_20:nocenter&nowait:0:focusoff:0:0:0:0:0:0,#
*,type=CSYN_0001,param=0:0:0:0:0:0:0:0:0:0:0,#
*,type=FMSG_0000,msg=併用すれば、文字通りどこにでも行ける,param=chr_nov12:$Novel_B_21:nocenter&nowait:0:focusoff:0:0:0:0:0:0,#
*,type=CSYN_0001,param=0:0:0:0:0:0:0:0:0:0:0,#
*,type=FMSG_0000,msg=ようになるだろう。,param=chr_nov13:$Novel_B_22:nocenter&nowait:0:focusoff:0:0:0:0:0:0,#
*,type=CSYN_0002,param=0:0:0:0:0:0:0:0:0:0:0,#
*,type=FMSG_0000,msg=封神ルシアスをも上回る力だ。,param=chr_nov14:$Novel_B_24:nocenter&nowait:0:focusoff:0:0:0:0:0:0,#
*,type=CSYN_0002,param=0:0:0:0:0:0:0:0:0:0:0,#
*,type=SE_0000,param=20:0:0:0:0:0:0:0:0:0:0,#
*,type=FADEOUT_000,param=0.5:0&0&0:0:0:0:0:0:0:0:0:0,#
*,type=STOP,param=0:0:0:0:0:0:0:0:0:0:0,#
*,type=FMSG_0001,param=all:0:0:0:0:0:0:0:0:0:0,#
*,type=FADEIN_000,param=0.5:0&0&0:0:0:0:0:0:0:0:0:0,#
*,type=STOP,param=0:0:0:0:0:0:0:0:0:0:0,#
*,type=WAIT_0000,param=0.3:0:0:0:0:0:0:0:0:0:0,#
*,type=FMSG_0000,msg=過去のレストークが囁く。<wait=3>伝説の召喚師,param=chr_nov1:$Novel_B_07:nocenter&nowait:0:focusoff:0:0:0:0:0:0,#
*,type=CSYN_0001,param=0:0:0:0:0:0:0:0:0:0:0,#
*,type=FMSG_0000,msg=の再来とまで言われる今のレストークな,param=chr_nov2:$Novel_B_08:nocenter&nowait:0:focusoff:0:0:0:0:0:0,#
*,type=CSYN_0001,param=0:0:0:0:0:0:0:0:0:0:0,#
*,type=FMSG_0000,msg=ら、十神の召喚も容易いはずだと。,param=chr_nov3:$Novel_B_09:nocenter&nowait:0:focusoff:0:0:0:0:0:0,#
*,type=CSYN_0002,param=0:0:0:0:0:0:0:0:0:0:0,#
*,type=FMSG_0000,msg=つまり、グランガイアの十神よりも、今,param=chr_nov4:$Novel_B_11:nocenter&nowait:0:focusoff:0:0:0:0:0:0,#
*,type=CSYN_0001,param=0:0:0:0:0:0:0:0:0:0:0,#
*,type=FMSG_0000,msg=の彼は強大な力を持っているということ,param=chr_nov5:$Novel_B_12:nocenter&nowait:0:focusoff:0:0:0:0:0:0,#
*,type=CSYN_0001,param=0:0:0:0:0:0:0:0:0:0:0,#
*,type=FMSG_0000,msg=だ。<wait=3>異界間移動の力を手に入れれば、女,param=chr_nov6:$Novel_B_13:nocenter&nowait:0:focusoff:0:0:0:0:0:0,#
*,type=CSYN_0001,param=0:0:0:0:0:0:0:0:0:0:0,#
*,type=FMSG_0000,msg=神ティリスの寵愛を受ける伝説の召喚師,param=chr_nov7:$Novel_B_14:nocenter&nowait:0:focusoff:0:0:0:0:0:0,#
*,type=CSYN_0001,param=0:0:0:0:0:0:0:0:0:0:0,#
*,type=FMSG_0000,msg=をも超えられるのではないか。,param=chr_nov8:$Novel_B_15:nocenter&nowait:0:focusoff:0:0:0:0:0:0,#
*,type=CSYN_0002,param=0:0:0:0:0:0:0:0:0:0:0,#
*,type=FMSG_0000,msg=可能だ。,param=chr_nov9:$Novel_B_17:nocenter&nowait:0:focusoff:0:0:0:0:0:0,#
*,type=CSYN_0002,param=0:0:0:0:0:0:0:0:0:0:0,#
*,type=FMSG_0000,msg=大神皇カルナ・マスタの最後の意志。<wait=3>人,param=chr_nov10:$Novel_B_19:nocenter&nowait:0:focusoff:0:0:0:0:0:0,#
*,type=CSYN_0001,param=0:0:0:0:0:0:0:0:0:0:0,#
*,type=FMSG_0000,msg=間を滅ぼせという命令の実現が可能だ。,param=chr_nov11:$Novel_B_20:nocenter&nowait:0:focusoff:0:0:0:0:0:0,#
*,type=CSYN_0002,param=0:0:0:0:0:0:0:0:0:0:0,#
*,type=FMSG_0000,msg=自分は何故人間のふりをするようになっ,param=chr_nov12:$Novel_B_22:nocenter&nowait:0:focusoff:0:0:0:0:0:0,#
*,type=CSYN_0001,param=0:0:0:0:0:0:0:0:0:0:0,#
*,type=FMSG_0000,msg=た？<wait=3>どうして人間に紛れて生きてきた？<wait=3>,param=chr_nov13:$Novel_B_23:nocenter&nowait:0:focusoff:0:0:0:0:0:0,#
*,type=CSYN_0001,param=0:0:0:0:0:0:0:0:0:0:0,#
*,type=FMSG_0000,msg=そもそもの目的は何だった？,param=chr_nov14:$Novel_B_24:nocenter&nowait:0:focusoff:0:0:0:0:0:0,#
*,type=CSYN_0002,param=0:0:0:0:0:0:0:0:0:0:0,#
*,type=SE_0000,param=20:0:0:0:0:0:0:0:0:0:0,#
*,type=FADEOUT_000,param=0.5:0&0&0:0:0:0:0:0:0:0:0:0,#
*,type=STOP,param=0:0:0:0:0:0:0:0:0:0:0,#
*,type=FMSG_0001,param=all:0:0:0:0:0:0:0:0:0:0,#
*,type=FADEIN_000,param=0.5:0&0&0:0:0:0:0:0:0:0:0:0,#
*,type=STOP,param=0:0:0:0:0:0:0:0:0:0:0,#
*,type=WAIT_0000,param=0.3:0:0:0:0:0:0:0:0:0:0,#
*,type=FMSG_0000,msg=手段が目的に取って代わっていた。<wait=3>もち,param=chr_nov1:$Novel_B_07:nocenter&nowait:0:focusoff:0:0:0:0:0:0,#
*,type=CSYN_0001,param=0:0:0:0:0:0:0:0:0:0:0,#
*,type=FMSG_0000,msg=ろん、そんなことにはとっくに気付いて,param=chr_nov2:$Novel_B_08:nocenter&nowait:0:focusoff:0:0:0:0:0:0,#
*,type=CSYN_0001,param=0:0:0:0:0:0:0:0:0:0:0,#
*,type=FMSG_0000,msg=いた。<wait=3>レストークはそれを受け入れてい,param=chr_nov3:$Novel_B_09:nocenter&nowait:0:focusoff:0:0:0:0:0:0,#
*,type=CSYN_0001,param=0:0:0:0:0:0:0:0:0:0:0,#
*,type=FMSG_0000,msg=たのだ。<wait=3>だが、亡霊は囁き続ける。,param=chr_nov4:$Novel_B_10:nocenter&nowait:0:focusoff:0:0:0:0:0:0,#
*,type=CSYN_0002,param=0:0:0:0:0:0:0:0:0:0:0,#
*,type=FMSG_0000,msg=この遺物の発見によって、人間がルシア,param=chr_nov5:$Novel_B_12:nocenter&nowait:0:focusoff:0:0:0:0:0:0,#
*,type=CSYN_0001,param=0:0:0:0:0:0:0:0:0:0:0,#
*,type=FMSG_0000,msg=スの力を超えるということを、他の隊員,param=chr_nov6:$Novel_B_13:nocenter&nowait:0:focusoff:0:0:0:0:0:0,#
*,type=CSYN_0001,param=0:0:0:0:0:0:0:0:0:0:0,#
*,type=FMSG_0000,msg=たちも理解しているらしい。,param=chr_nov7:$Novel_B_14:nocenter&nowait:0:focusoff:0:0:0:0:0:0,#
*,type=CSYN_0002,param=0:0:0:0:0:0:0:0:0:0:0,#
*,type=FMSG_0000,msg=誰かが冗談めかして言った。,param=chr_nov8:$Novel_B_16:nocenter&nowait:0:focusoff:0:0:0:0:0:0,#
*,type=CSYN_0002,param=0:0:0:0:0:0:0:0:0:0:0,#
*,type=BGM_0001,param=1:0:0:0:0:0:0:0:0:0:0,#
*,type=FMSG_0000,msg=<speed=7>「こうして、神々の時代は,param=chr_nov9:$Novel_B_18:nocenter&nowait:0:focusoff:0:0:0:0:0:0,#
*,type=CSYN_0001,param=0:0:0:0:0:0:0:0:0:0:0,#
*,type=FMSG_0000,msg=<speed=7>　完全に終焉を迎えたのである」,param=chr_nov10:$Novel_B_19:nocenter&nowait:0:focusoff:0:0:0:0:0:0,#
*,type=CSYN_0002,param=0:0:0:0:0:0:0:0:0:0:0,#
*,type=BGM_0000,param=1075:0.5:0:0:0:0:0:0:0:0:0,#
*,type=FMSG_0000,msg=その言葉がレストークの逆鱗に触れた。<wait=3>,param=chr_nov11:$Novel_B_21:nocenter&nowait:0:focusoff:0:0:0:0:0:0,#
*,type=CSYN_0001,param=0:0:0:0:0:0:0:0:0:0:0,#
*,type=FMSG_0000,msg=戦友たちの笑いが神経を逆撫でする。,param=chr_nov12:$Novel_B_22:nocenter&nowait:0:focusoff:0:0:0:0:0:0,#
*,type=CSYN_0002,param=0:0:0:0:0:0:0:0:0:0:0,#
*,type=FMSG_0000,msg=終わるのはお前たち人間の方だ。,param=chr_nov13:$Novel_B_24:nocenter&nowait:0:focusoff:0:0:0:0:0:0,#
*,type=CSYN_0002,param=0:0:0:0:0:0:0:0:0:0:0,#
*,type=SE_0000,param=20:0:0:0:0:0:0:0:0:0:0,#
*,type=FADEOUT_000,param=0.5:0&0&0:0:0:0:0:0:0:0:0:0,#
*,type=STOP,param=0:0:0:0:0:0:0:0:0:0:0,#
*,type=PICT_0004,param=bg_01:0:0:0:0:0:0:0:0:0:0,#
*,type=PICT_0000,param=bg_01:battle_bg_sq_011_02_1.jpg:1:bg$203110105:0:0:0:2:0:0:0,#
*,type=FMSG_0001,param=all:0:0:0:0:0:0:0:0:0:0,#
*,type=FADEIN_000,param=0.5:0&0&0:0:0:0:0:0:0:0:0:0,#
*,type=STOP,param=0:0:0:0:0:0:0:0:0:0:0,#
*,type=WAIT_0000,param=0.3:0:0:0:0:0:0:0:0:0:0,#
*,type=FMSG_0000,msg=彼は湧き立つ怒りを抑え込もうとした。<wait=3>,param=chr_nov1:$Novel_B_07:nocenter&nowait:0:focusoff:0:0:0:0:0:0,#
*,type=CSYN_0001,param=0:0:0:0:0:0:0:0:0:0:0,#
*,type=FMSG_0000,msg=人間としての意志で、過去を乗り越えな,param=chr_nov2:$Novel_B_08:nocenter&nowait:0:focusoff:0:0:0:0:0:0,#
*,type=CSYN_0001,param=0:0:0:0:0:0:0:0:0:0:0,#
*,type=FMSG_0000,msg=ければならない。,param=chr_nov3:$Novel_B_09:nocenter&nowait:0:focusoff:0:0:0:0:0:0,#
*,type=CSYN_0002,param=0:0:0:0:0:0:0:0:0:0:0,#
*,type=FMSG_0000,msg=亡霊は嘲笑う。<wait=3>借り物の力無しで、人間,param=chr_nov4:$Novel_B_11:nocenter&nowait:0:focusoff:0:0:0:0:0:0,#
*,type=CSYN_0001,param=0:0:0:0:0:0:0:0:0:0:0,#
*,type=FMSG_0000,msg=が神に敵うわけがなかろうと。,param=chr_nov5:$Novel_B_12:nocenter&nowait:0:focusoff:0:0:0:0:0:0,#
*,type=CSYN_0002,param=0:0:0:0:0:0:0:0:0:0:0,#
*,type=FMSG_0000,msg=そんなはずはない。<wait=3>古の英霊たちは自分,param=chr_nov6:$Novel_B_14:nocenter&nowait:0:focusoff:0:0:0:0:0:0,#
*,type=CSYN_0001,param=0:0:0:0:0:0:0:0:0:0:0,#
*,type=FMSG_0000,msg=たちの力だけで神々に抗った。,param=chr_nov7:$Novel_B_15:nocenter&nowait:0:focusoff:0:0:0:0:0:0,#
*,type=CSYN_0002,param=0:0:0:0:0:0:0:0:0:0:0,#
*,type=FMSG_0000,msg=抗ってどうなった？<wait=3>グランガイアに残っ,param=chr_nov8:$Novel_B_17:nocenter&nowait:0:focusoff:0:0:0:0:0:0,#
*,type=CSYN_0001,param=0:0:0:0:0:0:0:0:0:0:0,#
*,type=FMSG_0000,msg=た人間はひとり残らず死んだはずだ。,param=chr_nov9:$Novel_B_18:nocenter&nowait:0:focusoff:0:0:0:0:0:0,#
*,type=CSYN_0002,param=0:0:0:0:0:0:0:0:0:0:0,#
*,type=FMSG_0000,msg=レストークのふたつに別れた心がぶつか,param=chr_nov10:$Novel_B_20:nocenter&nowait:0:focusoff:0:0:0:0:0:0,#
*,type=CSYN_0001,param=0:0:0:0:0:0:0:0:0:0:0,#
*,type=FMSG_0000,msg=り合う。<wait=3>人間の意志と、神徒の力がせめ,param=chr_nov11:$Novel_B_21:nocenter&nowait:0:focusoff:0:0:0:0:0:0,#
*,type=CSYN_0001,param=0:0:0:0:0:0:0:0:0:0:0,#
*,type=FMSG_0000,msg=ぎ合う。<wait=3>だが、そもそもレストークは人,param=chr_nov12:$Novel_B_22:nocenter&nowait:0:focusoff:0:0:0:0:0:0,#
*,type=CSYN_0001,param=0:0:0:0:0:0:0:0:0:0:0,#
*,type=FMSG_0000,msg=間ではない。<wait=3>人間ではないのだ。,param=chr_nov13:$Novel_B_23:nocenter&nowait:0:focusoff:0:0:0:0:0:0,#
*,type=CSYN_0002,param=0:0:0:0:0:0:0:0:0:0:0,#
*,type=SE_0000,param=20:0:0:0:0:0:0:0:0:0:0,#
*,type=FADEOUT_000,param=0.5:0&0&0:0:0:0:0:0:0:0:0:0,#
*,type=STOP,param=0:0:0:0:0:0:0:0:0:0:0,#
*,type=FMSG_0001,param=all:0:0:0:0:0:0:0:0:0:0,#
*,type=FADEIN_000,param=0.5:0&0&0:0:0:0:0:0:0:0:0:0,#
*,type=STOP,param=0:0:0:0:0:0:0:0:0:0:0,#
*,type=WAIT_0000,param=0.3:0:0:0:0:0:0:0:0:0:0,#
*,type=FMSG_0000,msg=確かに、人間の意志の力は神を超えるか,param=chr_nov1:$Novel_B_07:nocenter&nowait:0:focusoff:0:0:0:0:0:0,#
*,type=CSYN_0001,param=0:0:0:0:0:0:0:0:0:0:0,#
*,type=FMSG_0000,msg=もしれない。<wait=3>だが、人間のふりをした者,param=chr_nov2:$Novel_B_08:nocenter&nowait:0:focusoff:0:0:0:0:0:0,#
*,type=CSYN_0001,param=0:0:0:0:0:0:0:0:0:0:0,#
*,type=FMSG_0000,msg=の意志は神を超えられなかった。,param=chr_nov3:$Novel_B_09:nocenter&nowait:0:focusoff:0:0:0:0:0:0,#
*,type=CSYN_0002,param=0:0:0:0:0:0:0:0:0:0:0,#
*,type=FMSG_0000,msg=人間になりたかった男――<wait=3>,param=chr_nov4:$Novel_B_11:nocenter&nowait:0:focusoff:0:0:0:0:0:0,#
*,type=CSYN_0001,param=0:0:0:0:0:0:0:0:0:0:0,#
*,type=FMSG_0000,msg=レストークは死んだ。,param=chr_nov5:$Novel_B_12:nocenter&nowait:0:focusoff:0:0:0:0:0:0,#
*,type=CSYN_0002,param=0:0:0:0:0:0:0:0:0:0:0,#
*,type=FMSG_0000,msg=そこに立っているのはテルツェットの,param=chr_nov6:$Novel_B_14:nocenter&nowait:0:focusoff:0:0:0:0:0:0,#
*,type=CSYN_0001,param=0:0:0:0:0:0:0:0:0:0:0,#
*,type=FMSG_0000,msg=面々が知るレストークではない。<wait=3>,param=chr_nov7:$Novel_B_15:nocenter&nowait:0:focusoff:0:0:0:0:0:0,#
*,type=CSYN_0001,param=0:0:0:0:0:0:0:0:0:0:0,#
*,type=FMSG_0000,msg=大神皇カルナ・マスタの神徒である。,param=chr_nov8:$Novel_B_16:nocenter&nowait:0:focusoff:0:0:0:0:0:0,#
*,type=CSYN_0002,param=0:0:0:0:0:0:0:0:0:0:0,#
*,type=FMSG_0000,msg=自分をも偽り、人間を演じ続けた神徒は,param=chr_nov9:$Novel_B_18:nocenter&nowait:0:focusoff:0:0:0:0:0:0,#
*,type=CSYN_0001,param=0:0:0:0:0:0:0:0:0:0:0,#
*,type=FMSG_0000,msg=ついに己を取り戻した。,param=chr_nov10:$Novel_B_19:nocenter&nowait:0:focusoff:0:0:0:0:0:0,#
*,type=CSYN_0002,param=0:0:0:0:0:0:0:0:0:0:0,#
*,type=FMSG_0000,msg=召喚術を身に付け、人間を超えたのだ。,param=chr_nov11:$Novel_B_21:nocenter&nowait:0:focusoff:0:0:0:0:0:0,#
*,type=CSYN_0002,param=0:0:0:0:0:0:0:0:0:0:0,#
*,type=FMSG_0000,msg=人間をすべての世界から根絶やしにしよ,param=chr_nov12:$Novel_B_23:nocenter&nowait:0:focusoff:0:0:0:0:0:0,#
*,type=CSYN_0001,param=0:0:0:0:0:0:0:0:0:0:0,#
*,type=FMSG_0000,msg=う。<wait=3>神々の時代を再び取り戻すために。,param=chr_nov13:$Novel_B_24:nocenter&nowait:0:focusoff:0:0:0:0:0:0,#
*,type=CSYN_0002,param=0:0:0:0:0:0:0:0:0:0:0,#
*,type=HCHR_ENT00,param=chr_Lestalk:レストーク:N$chara_bf2_219:$POS_Center:TYPE$middle:Z$3:0:XFLIP$SET:0:0:0,#
*,type=HCHR_GRP00,param=chr_Lestalk:face:do2:0:0:0:0:0:0:0:0,#
*,type=HCHR_POS00,param=chr_Lestalk:FADEIN:T$0.8:OFS$0&-70:0:0:0:0:0:0:0,#
*,type=WAIT_0000,param=3:0:0:0:0:0:0:0:0:0:0,#
*,type=SE_0000,param=103:0:0:0:0:0:0:0:0:0:0,#
*,type=FADEOUT_000,param=1.5:0&0&0:0:0:0:0:0:0:0:0:0,#
*,type=BGM_0001,param=1.5:0:0:0:0:0:0:0:0:0:0,#
*,type=WAIT_0000,param=2:0:0:0:0:0:0:0:0:0:0,#
*,type=FMSG_0001,param=all:0:0:0:0:0:0:0:0:0:0,#
*,type=CLSNE_0000,param=0:0:0:0:0:0:0:0:0:0:0,#

*,type=SYSED_00,param=0:0:0:0:0:0:0:0:0:0:0,#



