﻿ScriptCmd ver 1.1.1(app1.0.4):スクリプト_メルフェル試練.xlsm/バトル/script_trial_06BS.csv

*,type=SYSST_00,param=0:0:0:0:0:0:0:0:0:0:0,#
*,type=CMD_STOP,param=0:0:0:0:0:0:0:0:0:0:0,#
*,type=SYSST_01,param=0:0:0:0:0:0:0:0:0:0:0,#


*,type=EVT_CHKTRG,param=0:0:0:0:0:0:0:0:0:0:0,#
*,type=EVT_BTL_STARTBTL,param=1:0:0:0:0:0:0:0:0:0:0,#
*,type=BTL_PanelMask,param=ON:0:0:0:0:0:0:0:0:0:0,#
*,type=BTL_INSENSITIVE_MONSTER,param=MID$9000409:0:0:0:0:0:0:0:0:0:0,#
*,type=HCHR_ENT00,param=chr_melfer:奇術師メルフェル:N$chara_bf2_18_b:$BTLPOS_Right:TYPE$middle:Z$1:0:0:0:0:0,#
*,type=HCHR_GRP00,param=chr_melfer:face:fu:0:0:0:0:0:0:0:0,#
*,type=HCHR_POS00,param=chr_melfer:FADEIN:T$0.5:0:0:0:0:0:0:0:0,#
*,type=STOP,param=0:0:0:0:0:0:0:0:0:0:0,#
*,type=HCHR_TK10,msg=またアナタと戦えるなんて<wait=1><br>こんなに嬉しいことはありませんヨ。,param=chr_melfer:Right:BATTLE:0:0:0:0:0:0:0:0,#
*,type=HCHR_GRP00,param=chr_melfer:face:ki:0:0:0:0:0:0:0:0,#
*,type=STOP,param=0:0:0:0:0:0:0:0:0:0:0,#
*,type=HCHR_TK10,msg=さぁ、<wait=1>ショーのお時間です！<wait=3><br>たっぷり楽しんでいってくださいネ♪,param=chr_melfer:Right:BATTLE:0:0:0:0:0:0:0:0,#
*,type=HCHR_TK01,param=ALL:0:0:0:0:0:0:0:0:0:0,#
*,type=HCHR_POS00,param=chr_melfer:FADEOUT:T$0.5:0:0:0:0:0:0:0:0,#
*,type=STOP,param=0:0:0:0:0:0:0:0:0:0:0,#
*,type=HCHR_ENT01,param=chr_melfer:0:0:0:0:0:0:0:0:0:0,#
*,type=STOP,param=0:0:0:0:0:0:0:0:0:0:0,#
*,type=WAIT_0000,param=0.5:0:0:0:0:0:0:0:0:0:0,#
*,type=BTL_PanelMask,param=OFF:0:0:0:0:0:0:0:0:0:0,#
*,type=EVT_BLOCKEND,param=0:0:0:0:0:0:0:0:0:0:0,#
*,type=EVT_GAMEOVER,param=1:0:0:0:0:0:0:0:0:0:0,#
*,type=BTL_PanelMask,param=ON:0:0:0:0:0:0:0:0:0:0,#
*,type=HCHR_ENT00,param=chr_Noel:ノエル:N$chara_bf2_31_b:$BTLPOS_Right:TYPE$middle:Z$1:0:0:0:0:0,#
*,type=HCHR_GRP00,param=chr_Noel:7:emi:0:0:0:0:0:0:0:0,#
*,type=HCHR_POS00,param=chr_Noel:FADEIN:T$0.5:0:0:0:0:0:0:0:0,#
*,type=STOP,param=0:0:0:0:0:0:0:0:0:0:0,#
*,type=HCHR_TK10,msg=フ……いい踊らされっぷりだったね。,param=chr_Noel:Right:BATTLE:0:0:0:0:0:0:0:0,#
*,type=HCHR_GRP00,param=chr_Noel:7:fu:0:0:0:0:0:0:0:0,#
*,type=STOP,param=0:0:0:0:0:0:0:0:0:0:0,#
*,type=HCHR_TK10,msg=相手はあのひねくれ者のメルフェルだ。,param=chr_Noel:Right:BATTLE:0:0:0:0:0:0:0:0,#
*,type=HCHR_TK10,msg=次は属性の変化や状態異常に気を付けながら<br>戦うことだね。,param=chr_Noel:Right:BATTLE:0:0:0:0:0:0:0:0,#
*,type=HCHR_TK01,param=ALL:0:0:0:0:0:0:0:0:0:0,#
*,type=HCHR_POS00,param=chr_Noel:FADEOUT:T$0.5:0:0:0:0:0:0:0:0,#
*,type=STOP,param=0:0:0:0:0:0:0:0:0:0:0,#
*,type=WAIT_0000,param=0.5:0:0:0:0:0:0:0:0:0:0,#
*,type=BTL_PanelMask,param=OFF:0:0:0:0:0:0:0:0:0:0,#
*,type=EVT_BLOCKEND,param=0:0:0:0:0:0:0:0:0:0:0,#
*,type=EVT_BTL_REGULARLY,param=100:0:0:0:0:0:0:0:0:0:0,#
*,type=BTL_PanelMask,param=ON:0:0:0:0:0:0:0:0:0:0,#
*,type=HCHR_ENT00,param=chr_melfer:奇術師メルフェル:N$chara_bf2_18_b:$BTLPOS_Right:TYPE$middle:Z$1:0:0:0:0:0,#
*,type=HCHR_GRP00,param=chr_melfer:face:ai:0:0:0:0:0:0:0:0,#
*,type=HCHR_POS00,param=chr_melfer:FADEIN:T$0.5:0:0:0:0:0:0:0:0,#
*,type=STOP,param=0:0:0:0:0:0:0:0:0:0:0,#
*,type=HCHR_TK10,msg=せっかちさんは嫌われますヨ。<wait=3><br>お楽しみはまだまだこれからなんですから。,param=chr_melfer:Right:BATTLE:0:0:0:0:0:0:0:0,#
*,type=HCHR_TK01,param=ALL:0:0:0:0:0:0:0:0:0:0,#
*,type=HCHR_POS00,param=chr_melfer:FADEOUT:T$0.5:0:0:0:0:0:0:0:0,#
*,type=STOP,param=0:0:0:0:0:0:0:0:0:0:0,#
*,type=WAIT_0000,param=0.5:0:0:0:0:0:0:0:0:0:0,#
*,type=BTL_PanelMask,param=OFF:0:0:0:0:0:0:0:0:0:0,#
*,type=EVT_BLOCKEND,param=0:0:0:0:0:0:0:0:0:0:0,#
*,type=EVT_BTL_REGULARLY,param=101:0:0:0:0:0:0:0:0:0:0,#
*,type=BTL_PanelMask,param=ON:0:0:0:0:0:0:0:0:0:0,#
*,type=BTL_CHANGE_BGM,param=23:0:0:0:0:0:0:0:0:0:0,#
*,type=HCHR_ENT00,param=chr_melfer:奇術師メルフェル:N$chara_bf2_18_b:$BTLPOS_Right:TYPE$middle:Z$1:0:0:0:0:0,#
*,type=HCHR_GRP00,param=chr_melfer:face:ki:0:0:0:0:0:0:0:0,#
*,type=HCHR_POS00,param=chr_melfer:FADEIN:T$0.5:0:0:0:0:0:0:0:0,#
*,type=STOP,param=0:0:0:0:0:0:0:0:0:0:0,#
*,type=HCHR_TK10,msg=盛り上がってきましたネ♪<wait=3><br>この子たちも仲間に入れてくださいな。,param=chr_melfer:Right:BATTLE:0:0:0:0:0:0:0:0,#
*,type=HCHR_TK01,param=ALL:0:0:0:0:0:0:0:0:0:0,#
*,type=HCHR_POS00,param=chr_melfer:FADEOUT:T$0.5:0:0:0:0:0:0:0:0,#
*,type=STOP,param=0:0:0:0:0:0:0:0:0:0:0,#
*,type=WAIT_0000,param=0.5:0:0:0:0:0:0:0:0:0:0,#
*,type=BTL_PanelMask,param=OFF:0:0:0:0:0:0:0:0:0:0,#
*,type=EVT_BLOCKEND,param=0:0:0:0:0:0:0:0:0:0:0,#
*,type=EVT_BTL_REGULARLY,param=102:0:0:0:0:0:0:0:0:0:0,#
*,type=BTL_PanelMask,param=ON:0:0:0:0:0:0:0:0:0:0,#
*,type=HCHR_ENT00,param=chr_melfer:奇術師メルフェル:N$chara_bf2_18_b:$BTLPOS_Right:TYPE$middle:Z$1:0:0:0:0:0,#
*,type=HCHR_GRP00,param=chr_melfer:face:ki:0:0:0:0:0:0:0:0,#
*,type=HCHR_POS00,param=chr_melfer:FADEIN:T$0.5:0:0:0:0:0:0:0:0,#
*,type=STOP,param=0:0:0:0:0:0:0:0:0:0:0,#
*,type=HCHR_TK10,msg=ワタクシのとっておきをお見せする時が<br>来たようですネ……,param=chr_melfer:Right:BATTLE:0:0:0:0:0:0:0:0,#
*,type=HCHR_TK01,param=ALL:0:0:0:0:0:0:0:0:0:0,#
*,type=HCHR_POS00,param=chr_melfer:FADEOUT:T$0.5:0:0:0:0:0:0:0:0,#
*,type=STOP,param=0:0:0:0:0:0:0:0:0:0:0,#
*,type=WAIT_0000,param=0.5:0:0:0:0:0:0:0:0:0:0,#
*,type=BTL_PanelMask,param=OFF:0:0:0:0:0:0:0:0:0:0,#
*,type=EVT_BLOCKEND,param=0:0:0:0:0:0:0:0:0:0:0,#
*,type=EVT_BTL_REGULARLY,param=1000:0:0:0:0:0:0:0:0:0:0,#
*,type=BTL_FADE,param=OUT:0:0:0:0:0:0:0:0:0:0,#
*,type=HCHR_ENT00,param=chr_boss:奇術師メルフェル:N$chara_bf2_18_b:$BTLPOS_Right:TYPE$middle:Z$1:0:0:0:0:0,#
*,type=HCHR_POS00,param=chr_boss:FADEIN:T$0.5:0:0:0:0:0:0:0:0,#
*,type=STOP,param=0:0:0:0:0:0:0:0:0:0:0,#
*,type=HCHR_TK00,msg=さ～て、<wait=2>ここからは<br>楽しい楽しいゲームの時間ですヨ♪,param=chr_boss:L$BATTLE&Right16:0:0:0:0:0:0:0:0:0,#
*,type=HCHR_TK01,param=all:0:0:0:0:0:0:0:0:0:0,#
*,type=HCHR_ENT01,param=chr_boss:0:0:0:0:0:0:0:0:0:0,#
*,type=BTL_SETDEFENSE,param=CARD:0:100$2000&33$2100&0$2200:0:0:0:0:0:0:0:0,#
*,type=EVT_BLOCKEND,param=0:0:0:0:0:0:0:0:0:0:0,#
*,type=EVT_BTL_REGULARLY,param=2000:0:0:0:0:0:0:0:0:0:0,#
*,type=HCHR_ENT00,param=chr_boss:奇術師メルフェル:N$chara_bf2_18_b:$BTLPOS_Right:TYPE$middle:Z$1:0:0:0:0:0,#
*,type=HCHR_POS00,param=chr_boss:FADEIN:T$0.5:0:0:0:0:0:0:0:0,#
*,type=STOP,param=0:0:0:0:0:0:0:0:0:0:0,#
*,type=HCHR_TK00,msg=全部ひき当てたのは<br>アナタが初めてですヨ…！,param=chr_boss:L$BATTLE&Right14:0:0:0:0:0:0:0:0:0,#
*,type=HCHR_TK01,param=all:0:0:0:0:0:0:0:0:0:0,#
*,type=HCHR_ENT01,param=chr_boss:0:0:0:0:0:0:0:0:0:0,#
*,type=BTL_FADE,param=IN:0:0:0:0:0:0:0:0:0:0,#
*,type=STOP,param=0:0:0:0:0:0:0:0:0:0:0,#
*,type=EVT_BLOCKEND,param=0:0:0:0:0:0:0:0:0:0:0,#
*,type=EVT_BTL_REGULARLY,param=2100:0:0:0:0:0:0:0:0:0:0,#
*,type=HCHR_ENT00,param=chr_boss:奇術師メルフェル:N$chara_bf2_18_b:$BTLPOS_Right:TYPE$middle:Z$1:0:0:0:0:0,#
*,type=HCHR_POS00,param=chr_boss:FADEIN:T$0.5:0:0:0:0:0:0:0:0,#
*,type=STOP,param=0:0:0:0:0:0:0:0:0:0:0,#
*,type=HCHR_TK00,msg=<speed=9>クックックッ<wait=2><br></speed>よく引き当てましたネェ♪,param=chr_boss:L$BATTLE&Right12:0:0:0:0:0:0:0:0:0,#
*,type=HCHR_TK01,param=all:0:0:0:0:0:0:0:0:0:0,#
*,type=HCHR_ENT01,param=chr_boss:0:0:0:0:0:0:0:0:0:0,#
*,type=BTL_FADE,param=IN:0:0:0:0:0:0:0:0:0:0,#
*,type=STOP,param=0:0:0:0:0:0:0:0:0:0:0,#
*,type=EVT_BLOCKEND,param=0:0:0:0:0:0:0:0:0:0:0,#
*,type=EVT_BTL_REGULARLY,param=2200:0:0:0:0:0:0:0:0:0:0,#
*,type=HCHR_ENT00,param=chr_boss:奇術師メルフェル:N$chara_bf2_18_b:$BTLPOS_Right:TYPE$middle:Z$1:0:0:0:0:0,#
*,type=HCHR_POS00,param=chr_boss:FADEIN:T$0.5:0:0:0:0:0:0:0:0,#
*,type=STOP,param=0:0:0:0:0:0:0:0:0:0:0,#
*,type=HCHR_TK00,msg=<speed=9>クックックッ……<wait=3><br></speed>アナタも運のない人ですネェ…,param=chr_boss:L$BATTLE&Right14:0:0:0:0:0:0:0:0:0,#
*,type=HCHR_TK01,param=all:0:0:0:0:0:0:0:0:0:0,#
*,type=HCHR_ENT01,param=chr_boss:0:0:0:0:0:0:0:0:0:0,#
*,type=BTL_FADE,param=IN:0:0:0:0:0:0:0:0:0:0,#
*,type=STOP,param=0:0:0:0:0:0:0:0:0:0:0,#
*,type=EVT_BLOCKEND,param=0:0:0:0:0:0:0:0:0:0:0,#
*,type=EVT_BTL_REGULARLY,param=103:0:0:0:0:0:0:0:0:0:0,#
*,type=BTL_PanelMask,param=ON:0:0:0:0:0:0:0:0:0:0,#
*,type=BGM_0001,param=0.5:0:0:0:0:0:0:0:0:0:0,#
*,type=EFFECT_GP,param=60010030:320:400:0:0:70:0:0:0:0:0,#
*,type=WAIT_0000,param=0.01:0:0:0:0:0:0:0:0:0:0,#
*,type=STOP,param=0:0:0:0:0:0:0:0:0:0:0,#
*,type=BTL_EVTUNIT_ANM,param=MINDEX$1:DEAD:0:0:0:0:0:0:0:0:0,#
*,type=BTL_WaitAction,param=300:0:0:0:0:0:0:0:0:0:0,#
*,type=BTL_COMPEND,param=CLEAR:ON:0:0:0:0:0:0:0:0:0,#
*,type=BTL_PanelMask,param=OFF:0:0:0:0:0:0:0:0:0:0,#
*,type=EVT_BLOCKEND,param=0:0:0:0:0:0:0:0:0:0:0,#
*,type=EVT_BTL_REGULARLY,param=10000:0:0:0:0:0:0:0:0:0:0,#
*,type=BTL_STARTBREAK,param=2:1:20000:183:ブレイク状態:0:0:0:0:0:0,#
*,type=EVT_BLOCKEND,param=0:0:0:0:0:0:0:0:0:0:0,#
*,type=EVT_BTL_REGULARLY,param=20000:0:0:0:0:0:0:0:0:0:0,#
*,type=BTL_ENDBREAK,param=1:0:0:0:0:0:0:0:0:0:0,#
*,type=EVT_BLOCKEND,param=0:0:0:0:0:0:0:0:0:0:0,#

*,type=SYSED_00,param=0:0:0:0:0:0:0:0:0:0:0,#



