﻿ScriptCmd ver 1.1.1(app1.0.4):FH_スキルライズ_BS.xlsm/第五回（5周年特殊SA）/script_FH_05BS.csv

*,type=SYSST_00,param=0:0:0:0:0:0:0:0:0:0:0,#
*,type=CMD_STOP,param=0:0:0:0:0:0:0:0:0:0:0,#
*,type=SYSST_01,param=0:0:0:0:0:0:0:0:0:0:0,#


*,type=EVT_CHKTRG,param=0:0:0:0:0:0:0:0:0:0:0,#
*,type=EVT_BTL_STARTBTL,param=1:0:0:0:0:0:0:0:0:0:0,#
*,type=BTL_PanelMask,param=ON:0:0:0:0:0:0:0:0:0:0,#
*,type=STOP,param=0:0:0:0:0:0:0:0:0:0:0,#
*,type=BTL_ChangeParty,param=ON:30000:7000253:0:0:0:0:0:0:0:0,#
*,type=BTL_EnemyHpBarVisible,param=OFF:0:0:0:0:0:0:0:0:0:0,#
*,type=STOP,param=0:0:0:0:0:0:0:0:0:0:0,#
*,type=BTL_ReqAction,param=PPTALL:0:MOVETO:1000$DEFAULT$0.4$MOVE$MOVE:0:0:0:0:0:0:0,#
*,type=BTL_WaitAction,param=1:0:0:0:0:0:0:0:0:0:0,#
*,type=BTL_FADE,param=IN:0:0:0:0:0:0:0:0:0:0,#
*,type=BTL_WaitAction,param=60:0:0:0:0:0:0:0:0:0:0,#
*,type=STOP,param=0:0:0:0:0:0:0:0:0:0:0,#
*,type=BTL_ReqAction,param=PPTALL:0:MOVETO:DEFAULT$DEFAULT$0.4$MOVE$IDLE:0:0:0:0:0:0:0,#
*,type=BTL_WaitAction,param=1:0:0:0:0:0:0:0:0:0:0,#
*,type=HCHR_ENT00,param=chr_Karl:カル:N$chara_bf2_11_b:$BTLPOS_Right:TYPE$middle:Z$10:0:0:0:0:0,#
*,type=HCHR_ENT00,param=chr_Seria:セリア:N$chara_bf2_12_b:$BTLPOS_Right:TYPE$middle:Z$10:0:0:0:0:0,#
*,type=HCHR_ENT00,param=chr_Lugina:ルジーナ:N$chara_bf2_14_b:$BTLPOS_Right:TYPE$middle:Z$10:0:0:0:0:0,#
*,type=HCHR_ENT00,param=chr_Loy:ロイ:N$chara_bf2_28_b:$BTLPOS_Left:TYPE$middle:Z$10:0:0:0:0:0,#
*,type=HCHR_ENT00,param=chr_Sarsha:サーシャ:N$chara_bf2_1_b:$BTLPOS_Left:TYPE$middle:Z$10:0:0:0:0:0,#
*,type=HCHR_ENT00,param=chr_Worreth:ウォレス:N$chara_bf2_30_b:$BTLPOS_Left:TYPE$middle:Z$10:0:0:0:0:0,#
*,type=HCHR_ENT00,param=chr_Hans:ハンス:N$chara_bf2_22_b:$BTLPOS_Left:TYPE$middle:Z$10:0:0:0:0:0,#
*,type=HCHR_ENT00,param=chr_Yehoshua:ヨシュア:N$chara_bf2_7_b:$BTLPOS_Left:TYPE$middle:Z$10:0:0:0:0:0,#
*,type=STOP,param=0:0:0:0:0:0:0:0:0:0:0,#
*,type=HCHR_GRP00,param=chr_Karl:face:ki:0:0:0:0:0:0:0:0,#
*,type=HCHR_POS00,param=chr_Karl:FADEIN:$CHARA_FadeTime:0:0:0:0:0:0:0:0,#
*,type=STOP,param=0:0:0:0:0:0:0:0:0:0:0,#
*,type=HCHR_TK10,msg=お、来たな！,param=chr_Karl:Right:BATTLE:0:0:0:0:0:0:0:0,#
*,type=HCHR_TK01,param=chr_Karl:0:0:0:0:0:0:0:0:0:0,#
*,type=HCHR_POS00,param=chr_Karl:FADEOUT:$CHARA_FadeTime:0:0:0:0:0:0:0:0,#
*,type=STOP,param=0:0:0:0:0:0:0:0:0:0:0,#
*,type=HCHR_GRP00,param=chr_Lugina:face:do:0:0:0:0:0:0:0:0,#
*,type=HCHR_POS00,param=chr_Lugina:FADEIN:$CHARA_FadeTime:0:0:0:0:0:0:0:0,#
*,type=STOP,param=0:0:0:0:0:0:0:0:0:0:0,#
*,type=HCHR_TK10,msg=召喚老を待たせるなんざ、<br>大した度胸だな！,param=chr_Lugina:Right:BATTLE:0:0:0:0:0:0:0:0,#
*,type=HCHR_TK01,param=chr_Lugina:0:0:0:0:0:0:0:0:0:0,#
*,type=HCHR_POS00,param=chr_Lugina:FADEOUT:$CHARA_FadeTime:0:0:0:0:0:0:0:0,#
*,type=STOP,param=0:0:0:0:0:0:0:0:0:0:0,#
*,type=HCHR_GRP00,param=chr_Seria:face:do:0:0:0:0:0:0:0:0,#
*,type=HCHR_POS00,param=chr_Seria:FADEIN:$CHARA_FadeTime:0:0:0:0:0:0:0:0,#
*,type=STOP,param=0:0:0:0:0:0:0:0:0:0:0,#
*,type=HCHR_TK10,msg=相変わらずうるさいわね…,param=chr_Seria:Right:BATTLE:0:0:0:0:0:0:0:0,#
*,type=HCHR_TK01,param=chr_Seria:0:0:0:0:0:0:0:0:0:0,#
*,type=HCHR_POS00,param=chr_Seria:FADEOUT:$CHARA_FadeTime:0:0:0:0:0:0:0:0,#
*,type=STOP,param=0:0:0:0:0:0:0:0:0:0:0,#
*,type=HCHR_GRP00,param=chr_Lugina:face:do:0:0:0:0:0:0:0:0,#
*,type=HCHR_POS00,param=chr_Lugina:FADEIN:$CHARA_FadeTime:0:0:0:0:0:0:0:0,#
*,type=STOP,param=0:0:0:0:0:0:0:0:0:0:0,#
*,type=HCHR_TK10,msg=んだと…!?,param=chr_Lugina:Right:BATTLE:0:0:0:0:0:0:0:0,#
*,type=HCHR_TK01,param=chr_Lugina:0:0:0:0:0:0:0:0:0:0,#
*,type=HCHR_POS00,param=chr_Lugina:FADEOUT:$CHARA_FadeTime:0:0:0:0:0:0:0:0,#
*,type=STOP,param=0:0:0:0:0:0:0:0:0:0:0,#
*,type=BTL_ReqAction,param=MINDEX$3:0:DIR:0:0:0:0:0:0:0:0,#
*,type=BTL_WaitAction,param=1:0:0:0:0:0:0:0:0:0:0,#
*,type=BTL_ReqAction,param=MINDEX$3:0:MOVETO:170$352$0.4$MOVE$IDLE:0:0:0:0:0:0:0,#
*,type=BTL_WaitAction,param=1:0:0:0:0:0:0:0:0:0:0,#
*,type=BTL_EVTUNIT_ANM,param=MINDEX$3:ATTACK:0:0:0:0:0:0:0:0:0,#
*,type=SE_0000,param=317:0:0:0:0:0:0:0:0:0:0,#
*,type=STOP,param=0:0:0:0:0:0:0:0:0:0:0,#
*,type=BTL_EVTUNIT_ANM,param=MINDEX$2:ATTACK:0:0:0:0:0:0:0:0:0,#
*,type=EFFECT_GP,param=10030004:100:350:0:0:0:0:0:0:0:0,#
*,type=EFFECT_GP,param=10030008:180:350:0:0:0:0:0:0:0:0,#
*,type=SE_0000,param=139:0:0:0:0:0:0:0:0:0:0,#
*,type=STOP,param=0:0:0:0:0:0:0:0:0:0:0,#
*,type=EFFECT_GP,param=60010007:100:380:0:0:70:0:0:0:0:0,#
*,type=BTL_WaitAction,param=40:0:0:0:0:0:0:0:0:0:0,#
*,type=BTL_EVTUNIT_ANM,param=MINDEX$3:IDLE  :0:0:0:0:0:0:0:0:0,#
*,type=BTL_EVTUNIT_ANM,param=MINDEX$2:IDLE  :0:0:0:0:0:0:0:0:0,#
*,type=EFFECT_GP,param=10030004:100:350:0:0:0:0:0:0:0:0,#
*,type=EFFECT_GP,param=10030008:180:350:0:0:0:0:0:0:0:0,#
*,type=SE_0000,param=139:0:0:0:0:0:0:0:0:0:0,#
*,type=STOP,param=0:0:0:0:0:0:0:0:0:0:0,#
*,type=BTL_WaitAction,param=0:0:0:0:0:0:0:0:0:0:0,#
*,type=BTL_EVTUNIT_ANM,param=MINDEX$3:ATTACK:0:0:0:0:0:0:0:0:0,#
*,type=SE_0000,param=318:0:0:0:0:0:0:0:0:0:0,#
*,type=STOP,param=0:0:0:0:0:0:0:0:0:0:0,#
*,type=EFFECT_GP,param=60010007:100:380:0:0:70:0:0:0:0:0,#
*,type=BTL_WaitAction,param=40:0:0:0:0:0:0:0:0:0:0,#
*,type=BTL_EVTUNIT_ANM,param=MINDEX$3:IDLE  :0:0:0:0:0:0:0:0:0,#
*,type=BTL_WaitAction,param=10:0:0:0:0:0:0:0:0:0:0,#
*,type=HCHR_GRP00,param=chr_Loy:face:bi:0:0:0:0:0:0:0:0,#
*,type=HCHR_POS00,param=chr_Loy:FADEIN:$CHARA_FadeTime:0:0:0:0:0:0:0:0,#
*,type=STOP,param=0:0:0:0:0:0:0:0:0:0:0,#
*,type=HCHR_TK10,msg=す、すみません…!!<br>遅れてきたばかりに…!!,param=chr_Loy:Left:BATTLE:0:0:0:0:0:0:0:0,#
*,type=HCHR_TK01,param=chr_Loy:0:0:0:0:0:0:0:0:0:0,#
*,type=HCHR_POS00,param=chr_Loy:FADEOUT:$CHARA_FadeTime:0:0:0:0:0:0:0:0,#
*,type=STOP,param=0:0:0:0:0:0:0:0:0:0:0,#
*,type=HCHR_GRP00,param=chr_Hans:face:bi:0:0:0:0:0:0:0:0,#
*,type=HCHR_POS00,param=chr_Hans:FADEIN:$CHARA_FadeTime:0:0:0:0:0:0:0:0,#
*,type=STOP,param=0:0:0:0:0:0:0:0:0:0:0,#
*,type=HCHR_TK10,msg=今にも大喧嘩が始まりそうな<br>雰囲気ですね…,param=chr_Hans:Left:BATTLE:0:0:0:0:0:0:0:0,#
*,type=HCHR_TK01,param=chr_Hans:0:0:0:0:0:0:0:0:0:0,#
*,type=HCHR_POS00,param=chr_Hans:FADEOUT:$CHARA_FadeTime:0:0:0:0:0:0:0:0,#
*,type=STOP,param=0:0:0:0:0:0:0:0:0:0:0,#
*,type=BTL_EVTUNIT_ANM,param=MINDEX$3:ATTACK:0:0:0:0:0:0:0:0:0,#
*,type=SE_0000,param=317:0:0:0:0:0:0:0:0:0:0,#
*,type=STOP,param=0:0:0:0:0:0:0:0:0:0:0,#
*,type=BTL_EVTUNIT_ANM,param=MINDEX$2:ATTACK:0:0:0:0:0:0:0:0:0,#
*,type=EFFECT_GP,param=10030004:100:350:0:0:0:0:0:0:0:0,#
*,type=EFFECT_GP,param=10030008:180:350:0:0:0:0:0:0:0:0,#
*,type=SE_0000,param=139:0:0:0:0:0:0:0:0:0:0,#
*,type=STOP,param=0:0:0:0:0:0:0:0:0:0:0,#
*,type=EFFECT_GP,param=60010007:100:380:0:0:70:0:0:0:0:0,#
*,type=BTL_WaitAction,param=40:0:0:0:0:0:0:0:0:0:0,#
*,type=BTL_EVTUNIT_ANM,param=MINDEX$3:IDLE  :0:0:0:0:0:0:0:0:0,#
*,type=BTL_EVTUNIT_ANM,param=MINDEX$2:IDLE  :0:0:0:0:0:0:0:0:0,#
*,type=EFFECT_GP,param=10030004:100:350:0:0:0:0:0:0:0:0,#
*,type=EFFECT_GP,param=10030008:180:350:0:0:0:0:0:0:0:0,#
*,type=SE_0000,param=139:0:0:0:0:0:0:0:0:0:0,#
*,type=STOP,param=0:0:0:0:0:0:0:0:0:0:0,#
*,type=BTL_WaitAction,param=0:0:0:0:0:0:0:0:0:0:0,#
*,type=BTL_EVTUNIT_ANM,param=MINDEX$3:ATTACK:0:0:0:0:0:0:0:0:0,#
*,type=SE_0000,param=318:0:0:0:0:0:0:0:0:0:0,#
*,type=STOP,param=0:0:0:0:0:0:0:0:0:0:0,#
*,type=EFFECT_GP,param=60010007:100:380:0:0:70:0:0:0:0:0,#
*,type=BTL_WaitAction,param=40:0:0:0:0:0:0:0:0:0:0,#
*,type=BTL_EVTUNIT_ANM,param=MINDEX$3:IDLE  :0:0:0:0:0:0:0:0:0,#
*,type=BTL_WaitAction,param=10:0:0:0:0:0:0:0:0:0:0,#
*,type=HCHR_GRP00,param=chr_Worreth:face:bi:0:0:0:0:0:0:0:0,#
*,type=HCHR_POS00,param=chr_Worreth:FADEIN:$CHARA_FadeTime:0:0:0:0:0:0:0:0,#
*,type=STOP,param=0:0:0:0:0:0:0:0:0:0:0,#
*,type=HCHR_TK10,msg=こ、これは仲裁するべきか…!?,param=chr_Worreth:Left:BATTLE:0:0:0:0:0:0:0:0,#
*,type=HCHR_TK01,param=chr_Worreth:0:0:0:0:0:0:0:0:0:0,#
*,type=HCHR_POS00,param=chr_Worreth:FADEOUT:$CHARA_FadeTime:0:0:0:0:0:0:0:0,#
*,type=STOP,param=0:0:0:0:0:0:0:0:0:0:0,#
*,type=HCHR_GRP00,param=chr_Sarsha:face:ku:0:0:0:0:0:0:0:0,#
*,type=HCHR_POS00,param=chr_Sarsha:FADEIN:$CHARA_FadeTime:0:0:0:0:0:0:0:0,#
*,type=STOP,param=0:0:0:0:0:0:0:0:0:0:0,#
*,type=HCHR_TK10,msg=私たちに仲裁できると思います!?,param=chr_Sarsha:Left:BATTLE:0:0:0:0:0:0:0:0,#
*,type=HCHR_TK01,param=chr_Sarsha:0:0:0:0:0:0:0:0:0:0,#
*,type=HCHR_POS00,param=chr_Sarsha:FADEOUT:$CHARA_FadeTime:0:0:0:0:0:0:0:0,#
*,type=STOP,param=0:0:0:0:0:0:0:0:0:0:0,#
*,type=HCHR_GRP00,param=chr_Yehoshua:face:ku:0:0:0:0:0:0:0:0,#
*,type=HCHR_POS00,param=chr_Yehoshua:FADEIN:$CHARA_FadeTime:0:0:0:0:0:0:0:0,#
*,type=STOP,param=0:0:0:0:0:0:0:0:0:0:0,#
*,type=HCHR_TK10,msg=俺がいこう。,param=chr_Yehoshua:Left:BATTLE:0:0:0:0:0:0:0:0,#
*,type=HCHR_TK01,param=chr_Yehoshua:0:0:0:0:0:0:0:0:0:0,#
*,type=HCHR_POS00,param=chr_Yehoshua:FADEOUT:$CHARA_FadeTime:0:0:0:0:0:0:0:0,#
*,type=STOP,param=0:0:0:0:0:0:0:0:0:0:0,#
*,type=BTL_ReqAction,param=PINDEX$0:0:MOVETO:380$450$0.4$MOVE$IDLE:0:0:0:0:0:0:0,#
*,type=BTL_WaitAction,param=60:0:0:0:0:0:0:0:0:0:0,#
*,type=BTL_EVTUNIT_ANM,param=PINDEX$0:SCRIPT1:0:0:0:0:0:0:0:0:0,#
*,type=HCHR_GRP00,param=chr_Loy:face:bi:0:0:0:0:0:0:0:0,#
*,type=HCHR_POS00,param=chr_Loy:FADEIN:$CHARA_FadeTime:0:0:0:0:0:0:0:0,#
*,type=STOP,param=0:0:0:0:0:0:0:0:0:0:0,#
*,type=HCHR_TK10,msg=待て、ヨシュア！<br>早まるな…!!,param=chr_Loy:Left:BATTLE:0:0:0:0:0:0:0:0,#
*,type=HCHR_TK01,param=chr_Loy:0:0:0:0:0:0:0:0:0:0,#
*,type=HCHR_POS00,param=chr_Loy:FADEOUT:$CHARA_FadeTime:0:0:0:0:0:0:0:0,#
*,type=STOP,param=0:0:0:0:0:0:0:0:0:0:0,#
*,type=BTL_WaitAction,param=60:0:0:0:0:0:0:0:0:0:0,#
*,type=BTL_EVTUNIT_ANM,param=MINDEX$3:ATTACK:0:0:0:0:0:0:0:0:0,#
*,type=SE_0000,param=317:0:0:0:0:0:0:0:0:0:0,#
*,type=STOP,param=0:0:0:0:0:0:0:0:0:0:0,#
*,type=BTL_EVTUNIT_ANM,param=MINDEX$2:ATTACK:0:0:0:0:0:0:0:0:0,#
*,type=EFFECT_GP,param=10030004:100:350:0:0:0:0:0:0:0:0,#
*,type=EFFECT_GP,param=10030008:180:350:0:0:0:0:0:0:0:0,#
*,type=SE_0000,param=139:0:0:0:0:0:0:0:0:0:0,#
*,type=STOP,param=0:0:0:0:0:0:0:0:0:0:0,#
*,type=EFFECT_GP,param=60010007:100:380:0:0:70:0:0:0:0:0,#
*,type=BTL_WaitAction,param=40:0:0:0:0:0:0:0:0:0:0,#
*,type=BTL_EVTUNIT_ANM,param=MINDEX$3:IDLE  :0:0:0:0:0:0:0:0:0,#
*,type=BTL_EVTUNIT_ANM,param=MINDEX$2:IDLE  :0:0:0:0:0:0:0:0:0,#
*,type=EFFECT_GP,param=10030004:100:350:0:0:0:0:0:0:0:0,#
*,type=EFFECT_GP,param=10030008:180:350:0:0:0:0:0:0:0:0,#
*,type=SE_0000,param=139:0:0:0:0:0:0:0:0:0:0,#
*,type=STOP,param=0:0:0:0:0:0:0:0:0:0:0,#
*,type=BTL_WaitAction,param=0:0:0:0:0:0:0:0:0:0:0,#
*,type=BTL_EVTUNIT_ANM,param=MINDEX$3:ATTACK:0:0:0:0:0:0:0:0:0,#
*,type=SE_0000,param=318:0:0:0:0:0:0:0:0:0:0,#
*,type=STOP,param=0:0:0:0:0:0:0:0:0:0:0,#
*,type=EFFECT_GP,param=60010007:100:380:0:0:70:0:0:0:0:0,#
*,type=BTL_WaitAction,param=40:0:0:0:0:0:0:0:0:0:0,#
*,type=BTL_EVTUNIT_ANM,param=MINDEX$3:IDLE  :0:0:0:0:0:0:0:0:0,#
*,type=BTL_WaitAction,param=10:0:0:0:0:0:0:0:0:0:0,#
*,type=BTL_ReqAction,param=MINDEX$1:0:DIR:0:0:0:0:0:0:0:0,#
*,type=BTL_WaitAction,param=1:0:0:0:0:0:0:0:0:0:0,#
*,type=HCHR_GRP00,param=chr_Karl:face:do:0:0:0:0:0:0:0:0,#
*,type=HCHR_POS00,param=chr_Karl:FADEIN:$CHARA_FadeTime:0:0:0:0:0:0:0:0,#
*,type=STOP,param=0:0:0:0:0:0:0:0:0:0:0,#
*,type=HCHR_TK10,msg=おっと…そこまでだ二人とも。<br>そろそろ本題といこうじゃないか。,param=chr_Karl:Right:BATTLE:0:0:0:0:0:0:0:0,#
*,type=HCHR_TK01,param=chr_Karl:0:0:0:0:0:0:0:0:0:0,#
*,type=HCHR_POS00,param=chr_Karl:FADEOUT:$CHARA_FadeTime:0:0:0:0:0:0:0:0,#
*,type=STOP,param=0:0:0:0:0:0:0:0:0:0:0,#
*,type=HCHR_GRP00,param=chr_Lugina:face:fu:0:0:0:0:0:0:0:0,#
*,type=HCHR_POS00,param=chr_Lugina:FADEIN:$CHARA_FadeTime:0:0:0:0:0:0:0:0,#
*,type=STOP,param=0:0:0:0:0:0:0:0:0:0:0,#
*,type=HCHR_TK10,msg=ちっ…,param=chr_Lugina:Right:BATTLE:0:0:0:0:0:0:0:0,#
*,type=HCHR_TK01,param=chr_Lugina:0:0:0:0:0:0:0:0:0:0,#
*,type=HCHR_POS00,param=chr_Lugina:FADEOUT:$CHARA_FadeTime:0:0:0:0:0:0:0:0,#
*,type=STOP,param=0:0:0:0:0:0:0:0:0:0:0,#
*,type=BTL_ReqAction,param=MINDEX$3:0:MOVETO:DEFAULT$DEFAULT$0.4$MOVE$IDLE:0:0:0:0:0:0:0,#
*,type=BTL_WaitAction,param=1:0:0:0:0:0:0:0:0:0:0,#
*,type=BTL_ReqAction,param=MINDEX$3:0:DIR:0:0:0:0:0:0:0:0,#
*,type=BTL_WaitAction,param=1:0:0:0:0:0:0:0:0:0:0,#
*,type=BTL_ReqAction,param=MINDEX$1:0:DIR:0:0:0:0:0:0:0:0,#
*,type=BTL_WaitAction,param=1:0:0:0:0:0:0:0:0:0:0,#
*,type=BTL_EVTUNIT_ANM,param=PINDEX$0:IDLE:0:0:0:0:0:0:0:0:0,#
*,type=BTL_WaitAction,param=60:0:0:0:0:0:0:0:0:0:0,#
*,type=HCHR_GRP00,param=chr_Lugina:face:fu:0:0:0:0:0:0:0:0,#
*,type=HCHR_POS00,param=chr_Lugina:FADEIN:$CHARA_FadeTime:0:0:0:0:0:0:0:0,#
*,type=STOP,param=0:0:0:0:0:0:0:0:0:0:0,#
*,type=HCHR_TK10,msg=お前たちを呼んだのは他でもない。,param=chr_Lugina:Right:BATTLE:0:0:0:0:0:0:0:0,#
*,type=HCHR_TK01,param=chr_Lugina:0:0:0:0:0:0:0:0:0:0,#
*,type=HCHR_POS00,param=chr_Lugina:FADEOUT:$CHARA_FadeTime:0:0:0:0:0:0:0:0,#
*,type=STOP,param=0:0:0:0:0:0:0:0:0:0:0,#
*,type=HCHR_GRP00,param=chr_Seria:face:do:0:0:0:0:0:0:0:0,#
*,type=HCHR_POS00,param=chr_Seria:FADEIN:$CHARA_FadeTime:0:0:0:0:0:0:0:0,#
*,type=STOP,param=0:0:0:0:0:0:0:0:0:0:0,#
*,type=HCHR_TK10,msg=アンタたちの日頃の成果を<br>試させてもらおうと思ってね。,param=chr_Seria:Right:BATTLE:0:0:0:0:0:0:0:0,#
*,type=HCHR_TK01,param=chr_Seria:0:0:0:0:0:0:0:0:0:0,#
*,type=HCHR_POS00,param=chr_Seria:FADEOUT:$CHARA_FadeTime:0:0:0:0:0:0:0:0,#
*,type=STOP,param=0:0:0:0:0:0:0:0:0:0:0,#
*,type=HCHR_GRP00,param=chr_Karl:face:ki:0:0:0:0:0:0:0:0,#
*,type=HCHR_POS00,param=chr_Karl:FADEIN:$CHARA_FadeTime:0:0:0:0:0:0:0:0,#
*,type=STOP,param=0:0:0:0:0:0:0:0:0:0:0,#
*,type=HCHR_TK10,msg=まあ、そんなところだ。,param=chr_Karl:Right:BATTLE:0:0:0:0:0:0:0:0,#
*,type=HCHR_TK01,param=chr_Karl:0:0:0:0:0:0:0:0:0:0,#
*,type=STOP,param=0:0:0:0:0:0:0:0:0:0:0,#
*,type=HCHR_GRP00,param=chr_Karl:face:do:0:0:0:0:0:0:0:0,#
*,type=HCHR_POS00,param=chr_Karl:FADEIN:$CHARA_FadeTime:0:0:0:0:0:0:0:0,#
*,type=STOP,param=0:0:0:0:0:0:0:0:0:0:0,#
*,type=HCHR_TK10,msg=準備はいいか？,param=chr_Karl:Right:BATTLE:0:0:0:0:0:0:0:0,#
*,type=HCHR_TK01,param=chr_Karl:0:0:0:0:0:0:0:0:0:0,#
*,type=HCHR_POS00,param=chr_Karl:FADEOUT:$CHARA_FadeTime:0:0:0:0:0:0:0:0,#
*,type=STOP,param=0:0:0:0:0:0:0:0:0:0:0,#
*,type=HCHR_GRP00,param=chr_Loy:face:ai:0:0:0:0:0:0:0:0,#
*,type=HCHR_POS00,param=chr_Loy:FADEIN:$CHARA_FadeTime:0:0:0:0:0:0:0:0,#
*,type=STOP,param=0:0:0:0:0:0:0:0:0:0:0,#
*,type=HCHR_TK10,msg=抜き打ちテストってところですかね…,param=chr_Loy:Left:BATTLE:0:0:0:0:0:0:0:0,#
*,type=HCHR_TK01,param=chr_Loy:0:0:0:0:0:0:0:0:0:0,#
*,type=STOP,param=0:0:0:0:0:0:0:0:0:0:0,#
*,type=HCHR_GRP00,param=chr_Loy:face:do:0:0:0:0:0:0:0:0,#
*,type=HCHR_POS00,param=chr_Loy:FADEIN:$CHARA_FadeTime:0:0:0:0:0:0:0:0,#
*,type=STOP,param=0:0:0:0:0:0:0:0:0:0:0,#
*,type=HCHR_TK10,msg=みんな、行くぞ！,param=chr_Loy:Left:BATTLE:0:0:0:0:0:0:0:0,#
*,type=HCHR_TK01,param=chr_Loy:0:0:0:0:0:0:0:0:0:0,#
*,type=HCHR_POS00,param=chr_Loy:FADEOUT:$CHARA_FadeTime:0:0:0:0:0:0:0:0,#
*,type=STOP,param=0:0:0:0:0:0:0:0:0:0:0,#
*,type=MSKS_0000,param=bgBlackMask:$BGBLACK_Color:0:Z$1:T$0.75:0:0:0:0:0:0,#
*,type=BTL_WaitAction,param=50:0:0:0:0:0:0:0:0:0:0,#
*,type=BTL_ChangeParty,param=OFF:0:0:0:0:0:0:0:0:0:0,#
*,type=BTL_EnemyHpBarVisible,param=ON:0:0:0:0:0:0:0:0:0:0,#
*,type=MSKS_0002,param=bgBlackMask:T$0.75:0:0:0:0:0:0:0:0:0,#
*,type=BTL_WaitAction,param=60:0:0:0:0:0:0:0:0:0:0,#
*,type=HCHR_ENT01,param=chr_Karl:T$0:0:0:0:0:0:0:0:0:0,#
*,type=HCHR_ENT01,param=chr_Seria:T$0:0:0:0:0:0:0:0:0:0,#
*,type=HCHR_ENT01,param=chr_Lugina:T$0:0:0:0:0:0:0:0:0:0,#
*,type=HCHR_ENT01,param=chr_Loy:T$0:0:0:0:0:0:0:0:0:0,#
*,type=HCHR_ENT01,param=chr_Sarsha:T$0:0:0:0:0:0:0:0:0:0,#
*,type=HCHR_ENT01,param=chr_Worreth:T$0:0:0:0:0:0:0:0:0:0,#
*,type=HCHR_ENT01,param=chr_Hans:T$0:0:0:0:0:0:0:0:0:0,#
*,type=HCHR_ENT01,param=chr_Yehoshua:T$0:0:0:0:0:0:0:0:0:0,#
*,type=STOP,param=0:0:0:0:0:0:0:0:0:0:0,#
*,type=BTL_PanelMask,param=OFF:0:0:0:0:0:0:0:0:0:0,#
*,type=STOP,param=0:0:0:0:0:0:0:0:0:0:0,#
*,type=EVT_BLOCKEND,param=0:0:0:0:0:0:0:0:0:0:0,#
*,type=EVT_BTL_ENDBTL,param=3:0:0:0:0:0:0:0:0:0:0,#
*,type=BTL_PanelMask,param=ON:0:0:0:0:0:0:0:0:0:0,#
*,type=MSKS_0000,param=bgBlackMask:$BGBLACK_Color:0:Z$1:T$0.75:0:0:0:0:0:0,#
*,type=BTL_WaitAction,param=50:0:0:0:0:0:0:0:0:0:0,#
*,type=BTL_ChangeParty,param=ON:30000:7000253:0:0:0:0:0:0:0:0,#
*,type=BTL_EnemyHpBarVisible,param=OFF:0:0:0:0:0:0:0:0:0:0,#
*,type=BTL_WaitAction,param=30:0:0:0:0:0:0:0:0:0:0,#
*,type=STOP,param=0:0:0:0:0:0:0:0:0:0:0,#
*,type=MSKS_0002,param=bgBlackMask:T$0.75:0:0:0:0:0:0:0:0:0,#
*,type=BTL_WaitAction,param=60:0:0:0:0:0:0:0:0:0:0,#
*,type=HCHR_ENT00,param=chr_Karl:カル:N$chara_bf2_11_b:$BTLPOS_Right:TYPE$middle:Z$10:0:0:0:0:0,#
*,type=HCHR_ENT00,param=chr_Seria:セリア:N$chara_bf2_12_b:$BTLPOS_Right:TYPE$middle:Z$10:0:0:0:0:0,#
*,type=HCHR_ENT00,param=chr_Lugina:ルジーナ:N$chara_bf2_14_b:$BTLPOS_Right:TYPE$middle:Z$10:0:0:0:0:0,#
*,type=HCHR_ENT00,param=chr_Loy:ロイ:N$chara_bf2_28_b:$BTLPOS_Left:TYPE$middle:Z$10:0:0:0:0:0,#
*,type=HCHR_ENT00,param=chr_Sarsha:サーシャ:N$chara_bf2_1_b:$BTLPOS_Left:TYPE$middle:Z$10:0:0:0:0:0,#
*,type=HCHR_ENT00,param=chr_Hans:ハンス:N$chara_bf2_22_b:$BTLPOS_Left:TYPE$middle:Z$10:0:0:0:0:0,#
*,type=HCHR_ENT00,param=chr_Worreth_R:ウォレス:N$chara_bf2_30_b:$BTLPOS_Right:TYPE$middle:Z$10:0:0:0:0:0,#
*,type=HCHR_ENT00,param=chr_Yehoshua_R:ヨシュア:N$chara_bf2_7_b:$BTLPOS_Right:TYPE$middle:Z$10:0:0:0:0:0,#
*,type=STOP,param=0:0:0:0:0:0:0:0:0:0:0,#
*,type=HCHR_GRP00,param=chr_Karl:face:bi:0:0:0:0:0:0:0:0,#
*,type=HCHR_POS00,param=chr_Karl:FADEIN:$CHARA_FadeTime:0:0:0:0:0:0:0:0,#
*,type=STOP,param=0:0:0:0:0:0:0:0:0:0:0,#
*,type=HCHR_TK10,msg=なかなかやるな！<br>ここまでとは、正直驚いたよ。,param=chr_Karl:Right:BATTLE:0:0:0:0:0:0:0:0,#
*,type=HCHR_TK01,param=chr_Karl:0:0:0:0:0:0:0:0:0:0,#
*,type=HCHR_POS00,param=chr_Karl:FADEOUT:$CHARA_FadeTime:0:0:0:0:0:0:0:0,#
*,type=STOP,param=0:0:0:0:0:0:0:0:0:0:0,#
*,type=HCHR_GRP00,param=chr_Seria:face:ki:0:0:0:0:0:0:0:0,#
*,type=HCHR_POS00,param=chr_Seria:FADEIN:$CHARA_FadeTime:0:0:0:0:0:0:0:0,#
*,type=STOP,param=0:0:0:0:0:0:0:0:0:0:0,#
*,type=HCHR_TK10,msg=久しぶりに楽しませてもらったわ！,param=chr_Seria:Right:BATTLE:0:0:0:0:0:0:0:0,#
*,type=HCHR_TK01,param=chr_Seria:0:0:0:0:0:0:0:0:0:0,#
*,type=HCHR_POS00,param=chr_Seria:FADEOUT:$CHARA_FadeTime:0:0:0:0:0:0:0:0,#
*,type=STOP,param=0:0:0:0:0:0:0:0:0:0:0,#
*,type=HCHR_GRP00,param=chr_Lugina:face:ki:0:0:0:0:0:0:0:0,#
*,type=HCHR_POS00,param=chr_Lugina:FADEIN:$CHARA_FadeTime:0:0:0:0:0:0:0:0,#
*,type=STOP,param=0:0:0:0:0:0:0:0:0:0:0,#
*,type=HCHR_TK10,msg=フン！<br>調子に乗って、鍛錬を怠るなよ。,param=chr_Lugina:Right:BATTLE:0:0:0:0:0:0:0:0,#
*,type=HCHR_TK01,param=chr_Lugina:0:0:0:0:0:0:0:0:0:0,#
*,type=HCHR_POS00,param=chr_Lugina:FADEOUT:$CHARA_FadeTime:0:0:0:0:0:0:0:0,#
*,type=STOP,param=0:0:0:0:0:0:0:0:0:0:0,#
*,type=HCHR_GRP00,param=chr_Karl:face:ki:0:0:0:0:0:0:0:0,#
*,type=HCHR_POS00,param=chr_Karl:FADEIN:$CHARA_FadeTime:0:0:0:0:0:0:0:0,#
*,type=STOP,param=0:0:0:0:0:0:0:0:0:0:0,#
*,type=HCHR_TK10,msg=これからも、その調子で頼んだぞ。<br>今後、召喚院を担うのはお前たちだからな！,param=chr_Karl:Right:BATTLE:0:0:0:0:0:0:0:0,#
*,type=HCHR_TK01,param=chr_Karl:0:0:0:0:0:0:0:0:0:0,#
*,type=HCHR_POS00,param=chr_Karl:FADEOUT:$CHARA_FadeTime:0:0:0:0:0:0:0:0,#
*,type=STOP,param=0:0:0:0:0:0:0:0:0:0:0,#
*,type=HCHR_GRP00,param=chr_Sarsha:face:do:0:0:0:0:0:0:0:0,#
*,type=HCHR_POS00,param=chr_Sarsha:FADEIN:$CHARA_FadeTime:0:0:0:0:0:0:0:0,#
*,type=WAIT_0000,param=0.5:0:0:0:0:0:0:0:0:0:0,#
*,type=HCHR_POS00,param=chr_Sarsha:FADEOUT:$CHARA_FadeTime:0:0:0:0:0:0:0:0,#
*,type=STOP,param=0:0:0:0:0:0:0:0:0:0:0,#
*,type=HCHR_GRP00,param=chr_Worreth_R:face:do:0:0:0:0:0:0:0:0,#
*,type=HCHR_POS00,param=chr_Worreth_R:FADEIN:$CHARA_FadeTime:0:0:0:0:0:0:0:0,#
*,type=WAIT_0000,param=0.5:0:0:0:0:0:0:0:0:0:0,#
*,type=HCHR_POS00,param=chr_Worreth_R:FADEOUT:$CHARA_FadeTime:0:0:0:0:0:0:0:0,#
*,type=STOP,param=0:0:0:0:0:0:0:0:0:0:0,#
*,type=HCHR_GRP00,param=chr_Hans:face:do:0:0:0:0:0:0:0:0,#
*,type=HCHR_POS00,param=chr_Hans:FADEIN:$CHARA_FadeTime:0:0:0:0:0:0:0:0,#
*,type=WAIT_0000,param=0.5:0:0:0:0:0:0:0:0:0:0,#
*,type=HCHR_POS00,param=chr_Hans:FADEOUT:$CHARA_FadeTime:0:0:0:0:0:0:0:0,#
*,type=STOP,param=0:0:0:0:0:0:0:0:0:0:0,#
*,type=HCHR_GRP00,param=chr_Yehoshua_R:face:do:0:0:0:0:0:0:0:0,#
*,type=HCHR_POS00,param=chr_Yehoshua_R:FADEIN:$CHARA_FadeTime:0:0:0:0:0:0:0:0,#
*,type=WAIT_0000,param=0.5:0:0:0:0:0:0:0:0:0:0,#
*,type=HCHR_POS00,param=chr_Yehoshua_R:FADEOUT:$CHARA_FadeTime:0:0:0:0:0:0:0:0,#
*,type=STOP,param=0:0:0:0:0:0:0:0:0:0:0,#
*,type=HCHR_GRP00,param=chr_Loy:face:do:0:0:0:0:0:0:0:0,#
*,type=HCHR_POS00,param=chr_Loy:FADEIN:$CHARA_FadeTime:0:0:0:0:0:0:0:0,#
*,type=STOP,param=0:0:0:0:0:0:0:0:0:0:0,#
*,type=HCHR_TK10,msg=ありがとうございました！<br>これからも鍛錬に励みます！,param=chr_Loy:Left:BATTLE:0:0:0:0:0:0:0:0,#
*,type=HCHR_TK01,param=chr_Loy:0:0:0:0:0:0:0:0:0:0,#
*,type=HCHR_POS00,param=chr_Loy:FADEOUT:$CHARA_FadeTime:0:0:0:0:0:0:0:0,#
*,type=STOP,param=0:0:0:0:0:0:0:0:0:0:0,#
*,type=HCHR_ENT01,param=chr_Karl:T$0:0:0:0:0:0:0:0:0:0,#
*,type=HCHR_ENT01,param=chr_Seria:T$0:0:0:0:0:0:0:0:0:0,#
*,type=HCHR_ENT01,param=chr_Lugina:T$0:0:0:0:0:0:0:0:0:0,#
*,type=HCHR_ENT01,param=chr_Loy:T$0:0:0:0:0:0:0:0:0:0,#
*,type=HCHR_ENT01,param=chr_Sarsha:T$0:0:0:0:0:0:0:0:0:0,#
*,type=HCHR_ENT01,param=chr_Worreth_R:T$0:0:0:0:0:0:0:0:0:0,#
*,type=HCHR_ENT01,param=chr_Hans:T$0:0:0:0:0:0:0:0:0:0,#
*,type=HCHR_ENT01,param=chr_Yehoshua_R:T$0:0:0:0:0:0:0:0:0:0,#
*,type=STOP,param=0:0:0:0:0:0:0:0:0:0:0,#
*,type=FADEOUT_000,param=1:00&00&00:0:0:0:0:0:0:0:0:0,#
*,type=WAIT_0000,param=1.5:0:0:0:0:0:0:0:0:0:0,#
*,type=STOP,param=0:0:0:0:0:0:0:0:0:0:0,#
*,type=BTL_PanelMask,param=OFF:0:0:0:0:0:0:0:0:0:0,#
*,type=STOP,param=0:0:0:0:0:0:0:0:0:0:0,#
*,type=EVT_BLOCKEND,param=0:0:0:0:0:0:0:0:0:0:0,#
*,type=EVT_GAMEOVER,param=1:0:0:0:0:0:0:0:0:0:0,#
*,type=BTL_PanelMask,param=ON:0:0:0:0:0:0:0:0:0:0,#
*,type=HCHR_ENT00,param=chr_Karl:カル:N$chara_bf2_11_b:$BTLPOS_Right:TYPE$middle:Z$10:0:0:0:0:0,#
*,type=STOP,param=0:0:0:0:0:0:0:0:0:0:0,#
*,type=HCHR_GRP00,param=chr_Karl:face:fu:0:0:0:0:0:0:0:0,#
*,type=HCHR_POS00,param=chr_Karl:FADEIN:$CHARA_FadeTime:0:0:0:0:0:0:0:0,#
*,type=STOP,param=0:0:0:0:0:0:0:0:0:0:0,#
*,type=HCHR_TK10,msg=お前たちならまだやれるはずだ。<br>戦い方を一度、見直してみるといい。,param=chr_Karl:Right:BATTLE:0:0:0:0:0:0:0:0,#
*,type=HCHR_TK01,param=chr_Karl:0:0:0:0:0:0:0:0:0:0,#
*,type=HCHR_POS00,param=chr_Karl:FADEOUT:$CHARA_FadeTime:0:0:0:0:0:0:0:0,#
*,type=STOP,param=0:0:0:0:0:0:0:0:0:0:0,#
*,type=HCHR_ENT01,param=chr_Karl:T$0:0:0:0:0:0:0:0:0:0,#
*,type=STOP,param=0:0:0:0:0:0:0:0:0:0:0,#
*,type=WAIT_0000,param=0.5:0:0:0:0:0:0:0:0:0:0,#
*,type=BTL_PanelMask,param=OFF:0:0:0:0:0:0:0:0:0:0,#
*,type=EVT_BLOCKEND,param=0:0:0:0:0:0:0:0:0:0:0,#

*,type=SYSED_00,param=0:0:0:0:0:0:0:0:0:0:0,#



