﻿ScriptCmd ver 1.1.1(app1.0.4):スクリプト_00_1_オープニング.xlsm/script_OP2_2/script_OP2_2.csv

*,type=SYSST_00,param=0:0:0:0:0:0:0:0:0:0:0,#
*,type=CMD_STOP,param=0:0:0:0:0:0:0:0:0:0:0,#
*,type=SYSST_01,param=0:0:0:0:0:0:0:0:0:0:0,#


*,type=EFF_CONNECT,param=OFF:0:0:0:0:0:0:0:0:0:0,#
*,type=BGM_CONTINUE,param=0:0:0:0:0:0:0:0:0:0:0,#
*,type=SETENV_0000,param=SET$EXLAYER :0:0:0:0:0:0:0:0:0:0,#
*,type=PICT_0000,param=bg1:battle_bg_001_01.jpg:0:bg$1010101:0:0:0:1:0:0:0,#
*,type=BGM_0000,param=1010:0:0:0:0:0:0:0:0:0:0,#
*,type=FADEIN_000,param=1:00&00&00:0:0:0:0:0:0:0:0:0,#
*,type=WAIT_0000,param=0.5:0:0:0:0:0:0:0:0:0:0,#
*,type=HCHR_GRP00,param=chr_Loy:face:bi:$FACE_FadeTime:0:0:0:0:0:0:0,#
*,type=HCHR_ENT00,param=chr_Sarsha:？？？:N$chara_bf2_1:$POS_Center:TYPE$middle:Z$2:0:0:0:0:0,#
*,type=HCHR_POS00,param=chr_Sarsha:FADEIN:$CHARA_FadeTime:0:0:0:0:0:0:0:0,#
*,type=STOP,param=0:0:0:0:0:0:0:0:0:0:0,#
*,type=WAIT_0000,param=0.5:0:0:0:0:0:0:0:0:0:0,#
*,type=HCHR_TK00,msg=とりあえず……<wait=3><speed=3>落ち着いて！,param=chr_Sarsha:$Center14:0:0:0:0:0:0:0:0:0,#
*,type=HCHR_TK01,param=ALL:0:0:0:0:0:0:0:0:0:0,#
*,type=STOP,param=0:0:0:0:0:0:0:0:0:0:0,#
*,type=HCHR_ENT00,param=chr_Loy:？？？:N$chara_bf2_28:$POS_Center:TYPE$middle:Z$3:0:0:0:0:0,#
*,type=HCHR_POS00,param=chr_Sarsha:$OFS_Right:$CHARA_FadeTime:0:0:0:0:0:0:0:0,#
*,type=HCHR_POS00,param=chr_Loy:IN$left$100:T$0.3:$OFS_Left:0:0:0:0:0:0:0,#
*,type=STOP,param=0:0:0:0:0:0:0:0:0:0:0,#
*,type=WAIT_0000,param=0.2:0:0:0:0:0:0:0:0:0:0,#
*,type=HCHR_TK00,msg=サーシャ、どうした。<wait=3><br>何かあったのか？,param=chr_Loy:$Left10:0:0:0:0:0:0:0:0:0,#
*,type=HCHR_TK01,param=ALL:skipmask:0:0:0:0:0:0:0:0:0,#
*,type=WAIT_0000,param=1:0:0:0:0:0:0:0:0:0:0,#
*,type=HCHR_TK00,msg=ん、<wait=3><speed=7>その人は……？,param=chr_Loy:$Left10:0:0:0:0:0:0:0:0:0,#
*,type=HCHR_GRP00,param=chr_Loy:face:fu:$FACE_FadeTime:0:0:0:0:0:0:0,#
*,type=HCHR_TK00,msg=ここに倒れていたんです。<wait=3><br><speed=7>なんだかすごく混乱してるみたいですが……,param=chr_Sarsha:$Right20:0:0:0:0:0:0:0:0:0,#
*,type=HCHR_TK01,param=ALL:skipmask:0:0:0:0:0:0:0:0:0,#
*,type=HCHR_FDM00,param=chr_Sarsha:MSK$on:0.3:0:0:0:0:0:0:0:0,#
*,type=WAIT_0000,param=0.5:0:0:0:0:0:0:0:0:0:0,#
*,type=QUAK_0000,param=0.1:5:10:10:FixRange:0:0:0:0:0:0,#
*,type=STOP,param=0:0:0:0:0:0:0:0:0:0:0,#
*,type=WAIT_0000,param=1:0:0:0:0:0:0:0:0:0:0,#
*,type=HCHR_GRP00,param=chr_Loy:face:bi:$FACE_FadeTime:0:0:0:0:0:0:0,#
*,type=HCHR_TK00,msg=なんだって？<wait=3><br>フィルアーム？,param=chr_Loy:$Left8:0:0:0:0:0:0:0:0:0,#
*,type=HCHR_TK01,param=ALL:skipmask:0:0:0:0:0:0:0:0:0,#
*,type=WAIT_0000,param=0.5:0:0:0:0:0:0:0:0:0:0,#
*,type=HCHR_GRP00,param=chr_Loy:face:do:$FACE_FadeTime:0:0:0:0:0:0:0,#
*,type=HCHR_TK00,msg=<speed=3>ちょ、<wait=3>ちょっと待て!!<wait=3><br>落ち着くんだ!!,param=chr_Loy:$Left10:0:0:0:0:0:0:0:0:0,#
*,type=HCHR_TK00,msg=俺はロイ、<wait=3>こっちはサーシャ。,param=chr_Loy:$Left14:0:0:0:0:0:0:0:0:0,#
*,type=HCHR_PRM00,param=chr_Sarsha:NAME$サーシャ:0:0:0:0:0:0:0:0:0,#
*,type=HCHR_PRM00,param=chr_Loy:NAME$ロイ:0:0:0:0:0:0:0:0:0,#
*,type=HCHR_TK00,msg=決して怪しいもんじゃないから<wait=3><br>安心してくれ!!,param=chr_Loy:$Left14:0:0:0:0:0:0:0:0:0,#
*,type=HCHR_TK01,param=ALL:skipmask:0:0:0:0:0:0:0:0:0,#
*,type=WAIT_0000,param=0.5:0:0:0:0:0:0:0:0:0:0,#
*,type=HCHR_GRP00,param=chr_Loy:face:fu:$FACE_FadeTime:0:0:0:0:0:0:0,#
*,type=HCHR_TK00,msg=<speed=7>まずは、君の名前から<wait=3><br>そして、<wait=3>君に何が起きたのか…,param=chr_Loy:$Left14:0:0:0:0:0:0:0:0:0,#
*,type=HCHR_TK00,msg=<speed=7>落ち着いて、<wait=3>順を追って<br>話してくれないか？,param=chr_Loy:$Left12:0:0:0:0:0:0:0:0:0,#
*,type=HCHR_TK01,param=ALL:skipmask:0:0:0:0:0:0:0:0:0,#
*,type=WAIT_0000,param=0.5:0:0:0:0:0:0:0:0:0:0,#
*,type=BGM_0001,param=2:0:0:0:0:0:0:0:0:0:0,#
*,type=FADEOUT_000,param=2:00&00&00:0:0:0:0:0:0:0:0:0,#
*,type=WAIT_0000,param=3:0:0:0:0:0:0:0:0:0:0,#
*,type=HCHR_TK01,param=ALL:0:0:0:0:0:0:0:0:0:0,#
*,type=HCHR_GRP00,param=chr_Sarsha:face:bi:0:0:0:0:0:0:0:0,#
*,type=HCHR_GRP00,param=chr_Loy:face:bi:0:0:0:0:0:0:0:0,#
*,type=FADEIN_000,param=1.5:00&00&00:0:0:0:0:0:0:0:0:0,#
*,type=STOP,param=0:0:0:0:0:0:0:0:0:0:0,#
*,type=BGM_0000,param=63:0:0:0:0:0:0:0:0:0:0,#
*,type=HCHR_EFC00,param=mnp_Sarsha:chr_Sarsha:manpu_1:OFS$0&0:SS5$$MANP_surprise_black_d_02:0:0:0:0:0:0,#
*,type=HCHR_EFC00,param=mnp_Loy:chr_Loy:manpu_1:OFS$0&0:SS5$$MANP_surprise_black_d_02:0:0:0:0:0:0,#
*,type=WAIT_0000,param=1.5:0:0:0:0:0:0:0:0:0:0,#
*,type=PICT_0004,param=mnp_Sarsha:0:0:0:0:0:0:0:0:0:0,#
*,type=PICT_0004,param=mnp_Loy:0:0:0:0:0:0:0:0:0:0,#
*,type=HCHR_TK00,msg=<speed=7>ロイさん、<wait=3>これって……,param=chr_Sarsha:$Right12:0:0:0:0:0:0:0:0:0,#
*,type=HCHR_TK00,msg=<speed=7>あぁ……<wait=3><speed=4.8>驚いたな。,param=chr_Loy:$Left10:0:0:0:0:0:0:0:0:0,#
*,type=HCHR_TK01,param=ALL:0:0:0:0:0:0:0:0:0:0,#
*,type=HCHR_FDM00,param=chr_Sarsha:MSK$on:T$0:0:0:0:0:0:0:0:0,#
*,type=HCHR_FDM00,param=chr_Loy:MSK$off:T$0:0:0:0:0:0:0:0:0,#
*,type=HCHR_GRP00,param=chr_Loy:face:fu:0.3:0:0:0:0:0:0:0,#
*,type=WAIT_0000,param=1:0:0:0:0:0:0:0:0:0:0,#
*,type=HCHR_GRP00,param=chr_Sarsha:face:fu:$FACE_FadeTime:0:0:0:0:0:0:0,#
*,type=HCHR_TK10,msg=<rep_handlename>…<wait=3>って言ったね。,param=chr_Loy:Left:BASIC:0:0:0:0:0:0:0:0,#
*,type=HCHR_TK00,msg=恐らくだが…<wait=3><br>ここは君がいたところとは別の世界だ。,param=chr_Loy:$Left18:0:0:0:0:0:0:0:0:0,#
*,type=HCHR_TK00,msg=俺たちはセルタビアという世界も<wait=3><br>フィルアームという国も初めて聞いた。,param=chr_Loy:$Left18:0:0:0:0:0:0:0:0:0,#
*,type=HCHR_GRP00,param=chr_Loy:face:ai:$FACE_FadeTime:0:0:0:0:0:0:0,#
*,type=HCHR_TK00,msg=焦る気持ちはわかるが、<wait=3>そう簡単には<br>戻ることはできないだろう……,param=chr_Loy:$Left18:0:0:0:0:0:0:0:0:0,#
*,type=HCHR_TK01,param=ALL:skipmask:0:0:0:0:0:0:0:0:0,#
*,type=WAIT_0000,param=0.5:0:0:0:0:0:0:0:0:0:0,#
*,type=HCHR_GRP00,param=chr_Loy:face:fu:$FACE_FadeTime:0:0:0:0:0:0:0,#
*,type=HCHR_TK00,msg=君の言う先生が、<wait=3>君たちを逃がすために<br>遠い異世界に飛ばしたに違いない。,param=chr_Loy:$Left18:0:0:0:0:0:0:0:0:0,#
*,type=HCHR_GRP00,param=chr_Loy:face:ai:$FACE_FadeTime:0:0:0:0:0:0:0,#
*,type=HCHR_TK00,msg=もうひとりのリンという女の子が<wait=3><br>どうしてここにいないのかは,param=chr_Loy:$Left16:0:0:0:0:0:0:0:0:0,#
*,type=HCHR_TK00,msg=<speed=7>俺たちにもちょっとわからないが……,param=chr_Loy:$Left18:0:0:0:0:0:0:0:0:0,#
*,type=HCHR_TK01,param=ALL:skipmask:0:0:0:0:0:0:0:0:0,#
*,type=WAIT_0000,param=0.7:0:0:0:0:0:0:0:0:0:0,#
*,type=HCHR_GRP00,param=chr_Loy:face:fu:$FACE_FadeTime:0:0:0:0:0:0:0,#
*,type=HCHR_TK00,msg=だが、<wait=3>俺たちが追っている奴らと<wait=3><br>君の故郷を襲った奴らは一緒かもしれない。,param=chr_Loy:$Left20:0:0:0:0:0:0:0:0:0,#
*,type=HCHR_TK00,msg=<speed=7>この世界……<wait=4><speed=4.8>グランガイアの<br>サーマとミストラルという場所にも,param=chr_Loy:$Left16:0:0:0:0:0:0:0:0:0,#
*,type=HCHR_TK00,msg=君の世界と同じように<wait=3><br>突然、謎の軍勢が出現したんだ。,param=chr_Loy:$Left16:0:0:0:0:0:0:0:0:0,#
*,type=HCHR_TK00,msg=俺たちはその調査に来てるんだが……,param=chr_Loy:$Left18:0:0:0:0:0:0:0:0:0,#
*,type=HCHR_TK01,param=ALL:skipmask:0:0:0:0:0:0:0:0:0,#
*,type=WAIT_0000,param=0.5:0:0:0:0:0:0:0:0:0:0,#
*,type=HCHR_GRP00,param=chr_Loy:face:ai:$FACE_FadeTime:0:0:0:0:0:0:0,#
*,type=HCHR_TK00,msg=そいつらがこの世界に出現する直前に<wait=3><br>遠い世界でも大きな戦いが起きていることが,param=chr_Loy:$Left20:0:0:0:0:0:0:0:0:0,#
*,type=HCHR_TK00,msg=俺たちの調査ではわかっていた。,param=chr_Loy:$Left16:0:0:0:0:0:0:0:0:0,#
*,type=HCHR_GRP00,param=chr_Loy:face:fu:$FACE_FadeTime:0:0:0:0:0:0:0,#
*,type=HCHR_TK00,msg=俺の推測が正しければ、<wait=3>そこが君たちの世界<br>セルタビアなんじゃないかと思う。,param=chr_Loy:$Left20:0:0:0:0:0:0:0:0:0,#
*,type=HCHR_TK00,msg=…私もそう思います。,param=chr_Sarsha:$Right10:0:0:0:0:0:0:0:0:0,#
*,type=HCHR_TK01,param=ALL:0:0:0:0:0:0:0:0:0:0,#
*,type=HCHR_FDM00,param=chr_Sarsha:MSK$on:T$0:0:0:0:0:0:0:0:0,#
*,type=HCHR_FDM00,param=chr_Loy:MSK$off:0.3:0:0:0:0:0:0:0:0,#
*,type=HCHR_GRP00,param=chr_Loy:face:fu:0.3:0:0:0:0:0:0:0,#
*,type=WAIT_0000,param=1:0:0:0:0:0:0:0:0:0:0,#
*,type=HCHR_TK10,msg=…<rep_handlename><wait=3><br>俺達と一緒に来てくれ。,param=chr_Loy:Left:BASIC:0:0:0:0:0:0:0:0,#
*,type=HCHR_TK00,msg=君の話をもっと詳しく聞きたい。<wait=3><br>それに召喚院……<wait=3>俺達の組織の本部に行けば,param=chr_Loy:$Left20:0:0:0:0:0:0:0:0:0,#
*,type=HCHR_TK00,msg=君を元の世界に戻す手立ても<wait=3><br>見つけられるかもしれない。,param=chr_Loy:$Left14:0:0:0:0:0:0:0:0:0,#
*,type=HCHR_TK00,msg=ここで当てもなくさまようよりも<wait=3><br>きっと君にとってもいいはずだ。,param=chr_Loy:$Left16:0:0:0:0:0:0:0:0:0,#
*,type=HCHR_TK01,param=ALL:skipmask:0:0:0:0:0:0:0:0:0,#
*,type=WAIT_0000,param=1.5:0:0:0:0:0:0:0:0:0:0,#
*,type=HCHR_GRP00,param=chr_Loy:face:emi:$FACE_FadeTime:0:0:0:0:0:0:0,#
*,type=HCHR_TK00,msg=…そうか、<wait=3>ありがとう。,param=chr_Loy:$Left12:0:0:0:0:0:0:0:0:0,#
*,type=HCHR_GRP00,param=chr_Sarsha:face:ki:$FACE_FadeTime:0:0:0:0:0:0:0,#
*,type=HCHR_TK10,msg=よろしくね、<wait=3><rep_handlename>。,param=chr_Sarsha:Right:BASIC:0:0:0:0:0:0:0:0,#
*,type=HCHR_TK01,param=ALL:skipmask:0:0:0:0:0:0:0:0:0,#
*,type=HCHR_POS00,param=chr_Sarsha:FADEOUT:$CHARA_FadeTime:0:0:0:0:0:0:0:0,#
*,type=HCHR_POS00,param=chr_Loy:FADEOUT:$CHARA_FadeTime:0:0:0:0:0:0:0:0,#
*,type=STOP,param=0:0:0:0:0:0:0:0:0:0:0,#
*,type=HCHR_TK01,param=ALL:0:0:0:0:0:0:0:0:0:0,#
*,type=HCHR_ENT00,param=chr_Dragon:？？？:N$tame_dragon_01:$POS_Center:TYPE$middle:Z$1:0:0:0:0:0,#
*,type=HCHR_POS00,param=chr_Dragon:FADEIN:$CHARA_FadeTime:0:0:0:0:0:0:0:0,#
*,type=HCHR_GRP00,param=chr_Dragon:face:ki:0:0:0:0:0:0:0:0,#
*,type=HCHR_SHK00,param=chr_Dragon:8:0.1:0.7:0:0:0:0:0:0:0,#
*,type=HCHR_TK00,msg=クルルル！,param=chr_Dragon:$Center6_under:0:0:0:0:0:0:0:0:0,#
*,type=HCHR_TK01,param=ALL:0:0:0:0:0:0:0:0:0:0,#
*,type=HCHR_POS00,param=chr_Dragon:FADEOUT:$CHARA_FadeTime:0:0:0:0:0:0:0:0,#
*,type=STOP,param=0:0:0:0:0:0:0:0:0:0:0,#
*,type=HCHR_FDM00,param=chr_Loy:MSK$on:0:0:0:0:0:0:0:0:0,#
*,type=HCHR_GRP00,param=chr_Loy:face:fu:$FACE_FadeTime:0:0:0:0:0:0:0,#
*,type=HCHR_GRP00,param=chr_Sarsha:face:bi:$FACE_FadeTime:0:0:0:0:0:0:0,#
*,type=HCHR_POS00,param=chr_Loy:FADEIN:$CHARA_FadeTime:$OFS_Left:0:0:0:0:0:0:0,#
*,type=HCHR_POS00,param=chr_Sarsha:FADEIN:$CHARA_FadeTime:OUT$right:0:0:0:0:0:0:0,#
*,type=HCHR_TK00,msg=ん、<wait=3>何その子？,param=chr_Sarsha:$Right8:0:0:0:0:0:0:0:0:0,#
*,type=HCHR_TK01,param=ALL:skipmask:0:0:0:0:0:0:0:0:0,#
*,type=WAIT_0000,param=0.5:0:0:0:0:0:0:0:0:0:0,#
*,type=FADEOUT_000,param=1.5:00&00&00:0:0:0:0:0:0:0:0:0,#
*,type=BGM_0001,param=2:0:0:0:0:0:0:0:0:0:0,#
*,type=WAIT_0000,param=2:0:0:0:0:0:0:0:0:0:0,#
*,type=HCHR_TK01,param=ALL:0:0:0:0:0:0:0:0:0:0,#
*,type=HCHR_POS00,param=chr_Sarsha:FADEOUT:T$0.0:0:0:0:0:0:0:0:0,#
*,type=HCHR_POS00,param=chr_Loy:FADEOUT:T$0.0:0:0:0:0:0:0:0:0,#
*,type=HCHR_POS00,param=chr_Dragon:FADEOUT:T$0.0:0:0:0:0:0:0:0:0,#
*,type=PICT_0003,param=bg1:0:0:0:0:0:0:0:0:0:0,#
*,type=PICT_0000,param=kaisou1:event_filter_flashback.png:100:bg:0:2:FIX:0:0:0:0,#
*,type=PICT_0001,param=kaisou1:0:0:0:0:0:0:0:0:0:0,#
*,type=PICT_0000,param=bg2:event_bg_002.jpg:0:bg$900001:0:0:0:0:0:0:0,#
*,type=FADEIN_000,param=2:00&00&00:0:0:0:0:0:0:0:0:0,#
*,type=STOP,param=0:0:0:0:0:0:0:0:0:0:0,#
*,type=BGM_0000,param=2:0:0:0:0:0:0:0:0:0:0,#
*,type=WAIT_0000,param=0.5:0:0:0:0:0:0:0:0:0:0,#
*,type=HCHR_ENT00,param=chr_Mawrys:モーリス王:N$chara_bf2_29:$POS_Center:TYPE$middle:Z$1:0:0:0:0:0,#
*,type=HCHR_POS00,param=chr_Mawrys:FADEIN:T$0.5:0:0:0:0:0:0:0:0,#
*,type=STOP,param=0:0:0:0:0:0:0:0:0:0:0,#
*,type=HCHR_TK10,msg=リン、<wait=3>そして<rep_handlename>よ。,param=chr_Mawrys:Center:BASIC:0:0:0:0:0:0:0:0,#
*,type=HCHR_TK00,msg=汝らにフィルアーム騎士の証である<wait=3><br>パートナーを授ける……,param=chr_Mawrys:$Center16:0:0:0:0:0:0:0:0:0,#
*,type=HCHR_TK01,param=ALL:0:0:0:0:0:0:0:0:0:0,#
*,type=HCHR_POS00,param=chr_Mawrys:FADEOUT:T$0.0:0:0:0:0:0:0:0:0,#
*,type=HCHR_ENT00,param=chr_Lin:リン:N$chara_bf2_25:$POS_Center:TYPE$middle:Z$1:0:0:0:0:0,#
*,type=HCHR_GRP00,param=chr_Lin:face:mu:0:0:Z$1:0:0:0:0:0,#
*,type=HCHR_POS00,param=chr_Lin:FADEIN:$CHARA_FadeTime:OFS$0&0:0:0:0:0:0:0:0,#
*,type=STOP,param=0:0:0:0:0:0:0:0:0:0:0,#
*,type=HCHR_TK00,msg=ハッ……,param=chr_Lin:$Center4:0:0:0:0:0:0:0:0:0,#
*,type=HCHR_TK01,param=ALL:0:0:0:0:0:0:0:0:0:0,#
*,type=HCHR_POS00,param=chr_Lin:FADEOUT:$CHARA_FadeTime:0:0:0:0:0:0:0:0,#
*,type=STOP,param=0:0:0:0:0:0:0:0:0:0:0,#
*,type=HCHR_GRP00,param=chr_Dragon:face:fu:$FACE_FadeTime:0:0:0:0:0:0:0,#
*,type=HCHR_ENT00,param=chr_Dewey:？？？:N$tame_wolf_01:$POS_Center:TYPE$middle:Z$1:0:0:0:0:0,#
*,type=HCHR_POS00,param=chr_Dragon:FADEIN:T$1:$OFS_Left:0:0:0:0:0:0:0,#
*,type=HCHR_POS00,param=chr_Dewey:FADEIN:T$1:$OFS_Right:0:0:0:0:0:0:0,#
*,type=STOP,param=0:0:0:0:0:0:0:0:0:0:0,#
*,type=WAIT_0000,param=1.5:0:0:0:0:0:0:0:0:0:0,#
*,type=HCHR_POS00,param=chr_Dewey:FADEOUT:$CHARA_FadeTime:0:0:0:0:0:0:0:0,#
*,type=HCHR_POS00,param=chr_Dragon:FADEOUT:$CHARA_FadeTime:0:0:0:0:0:0:0:0,#
*,type=STOP,param=0:0:0:0:0:0:0:0:0:0:0,#
*,type=HCHR_ENT01,param=chr_Dewey:0:0:0:0:0:0:0:0:0:0,#
*,type=HCHR_POS00,param=chr_Mawrys:FADEIN:$CHARA_FadeTime:0:0:0:0:0:0:0:0,#
*,type=STOP,param=0:0:0:0:0:0:0:0:0:0:0,#
*,type=HCHR_TK00,msg=唯一無二の友とし、<wait=3>絆を育むがいい。,param=chr_Mawrys:$Center18:0:0:0:0:0:0:0:0:0,#
*,type=HCHR_TK00,msg=そしてフィルアームの民の安寧のため<wait=3><br>共にその力を尽くすのだ。,param=chr_Mawrys:$Center18:0:0:0:0:0:0:0:0:0,#
*,type=HCHR_TK01,param=ALL:0:0:0:0:0:0:0:0:0:0,#
*,type=HCHR_POS00,param=chr_Mawrys:FADEOUT:T$0.0:0:0:0:0:0:0:0:0,#
*,type=HCHR_GRP00,param=chr_Lin:face:fu:0:0:Z$1:0:0:0:0:0,#
*,type=HCHR_POS00,param=chr_Lin:FADEIN:$CHARA_FadeTime:0:0:0:0:0:0:0:0,#
*,type=STOP,param=0:0:0:0:0:0:0:0:0:0:0,#
*,type=HCHR_TK00,msg=<speed=3>ヴァイザーの名のもとに……！,param=chr_Lin:$Center14:0:0:0:0:0:0:0:0:0,#
*,type=HCHR_TK01,param=ALL:0:0:0:0:0:0:0:0:0:0,#
*,type=HCHR_POS00,param=chr_Lin:FADEOUT:$CHARA_FadeTime:0:0:0:0:0:0:0:0,#
*,type=STOP,param=0:0:0:0:0:0:0:0:0:0:0,#
*,type=WAIT_0000,param=0.5:0:0:0:0:0:0:0:0:0:0,#
*,type=BGM_0001,msg= ,param=0.5:0:0:0:0:0:0:0:0:0:0,#
*,type=SE_0000,msg= ,param=327:0:0:0:0:0:0:0:0:0:0,#
*,type=QUAK_0000,msg= ,param=0.2:7:7:7:FixRange:0:0:0:0:0:0,#
*,type=WAIT_0000,param=2.5:0:0:0:0:0:0:0:0:0:0,#
*,type=HCHR_GRP00,param=chr_Mawrys:face:bi:$FACE_FadeTime:0:0:0:0:0:0:0,#
*,type=HCHR_POS00,param=chr_Mawrys:FADEIN:$CHARA_FadeTime:0:0:0:0:0:0:0:0,#
*,type=STOP,param=0:0:0:0:0:0:0:0:0:0:0,#
*,type=BGM_0000,msg= ,param=32:0:0:0:0:0:0:0:0:0:0,#
*,type=HCHR_TK00,msg=むっ……？,param=chr_Mawrys:$Center6:0:0:0:0:0:0:0:0:0,#
*,type=HCHR_TK01,param=ALL:0:0:0:0:0:0:0:0:0:0,#
*,type=WAIT_0000,param=0.5:0:0:0:0:0:0:0:0:0:0,#
*,type=HCHR_ENT00,param=chr_Argas:アーガス:N$chara_bf2_2:$POS_Center:TYPE$middle:Z$2:0:0:0:0:0,#
*,type=HCHR_GRP00,param=chr_Argas:face:do:0:0:0:0:0:0:0:0,#
*,type=HCHR_POS00,param=chr_Mawrys:OFS$-160&0:T$0.5:0:0:0:0:0:0:0:0,#
*,type=WAIT_0000,param=0.7:0:0:0:0:0:0:0:0:0:0,#
*,type=HCHR_POS00,param=chr_Argas:IN$rigth$100:T$0.15:$OFS_Right:0:0:0:0:0:0:0,#
*,type=STOP,param=0:0:0:0:0:0:0:0:0:0:0,#
*,type=HCHR_TK00,msg=<speed=3>陛下、<wait=3>敵襲です!!,param=chr_Argas:$Right8:0:0:0:0:0:0:0:0:0,#
*,type=HCHR_TK00,msg=<speed=3>異形の大軍がすぐそこまで<br>迫ってきております!!,param=chr_Argas:$Right12:0:0:0:0:0:0:0:0:0,#
*,type=HCHR_GRP00,param=chr_Mawrys:face:bi:$FACE_FadeTime:0:0:0:0:0:0:0,#
*,type=HCHR_TK00,msg=……敵襲じゃと!?,param=chr_Mawrys:$Left8:0:0:0:0:0:0:0:0:0,#
*,type=HCHR_GRP00,param=chr_Argas:face:mu:$FACE_FadeTime:0:0:0:0:0:0:0,#
*,type=HCHR_TK00,msg=ひとまず我々騎士団で迎え撃ちます。,param=chr_Argas:$Right18:0:0:0:0:0:0:0:0:0,#
*,type=HCHR_TK00,msg=マーティンをお側につかせますので<wait=3><br>万一の場合にお備えください。,param=chr_Argas:$Right16:0:0:0:0:0:0:0:0:0,#
*,type=HCHR_GRP00,param=chr_Mawrys:face:fu:$FACE_FadeTime:0:0:0:0:0:0:0,#
*,type=HCHR_TK00,msg=<speed=9>……<wait=4><speed=4.8>わかった。,param=chr_Mawrys:$Left8:0:0:0:0:0:0:0:0:0,#
*,type=HCHR_TK01,param=ALL:skipmask:0:0:0:0:0:0:0:0:0,#
*,type=HCHR_POS00,param=chr_Mawrys:FADEOUT:$CHARA_FadeTime:0:0:0:0:0:0:0:0,#
*,type=STOP,param=0:0:0:0:0:0:0:0:0:0:0,#
*,type=HCHR_FDM00,param=chr_Lin:MSK$off:0:0:0:0:0:0:0:0:0,#
*,type=HCHR_GRP00,param=chr_Lin:face:bi:$FACE_FadeTime:0:0:0:0:0:0:0,#
*,type=HCHR_POS00,param=chr_Lin:FADEIN:$CHARA_FadeTime:$OFS_Left:0:0:0:0:0:0:0,#
*,type=STOP,param=0:0:0:0:0:0:0:0:0:0:0,#
*,type=HCHR_TK00,msg=異形の…<wait=3>大軍……？,param=chr_Lin:$Left10:0:0:0:0:0:0:0:0:0,#
*,type=HCHR_TK01,param=all:0:0:0:0:0:0:0:0:0:0,#
*,type=HCHR_GRP00,param=chr_Argas:face:bi:$FACE_FadeTime:0:0:0:0:0:0:0,#
*,type=HCHR_EFC00,param=mnp_Argas:chr_Argas:manpu_1:OFS$0&0:SS5$$MANP_doubt_black_b:0:0:0:0:0:0,#
*,type=WAIT_0000,param=1:0:0:0:0:0:0:0:0:0:0,#
*,type=PICT_0004,param=mnp_Argas:0:0:0:0:0:0:0:0:0:0,#
*,type=WAIT_0000,param=0.3:0:0:0:0:0:0:0:0:0:0,#
*,type=HCHR_TK10,msg=<rep_handlename>、<wait=3>リン……<wait=3><br><speed=7>そうか、<wait=3>今日はお前たちの……,param=chr_Argas:Right:BASIC:0:0:0:0:0:0:0:0,#
*,type=HCHR_TK01,param=ALL:skipmask:0:0:0:0:0:0:0:0:0,#
*,type=WAIT_0000,param=0.5:0:0:0:0:0:0:0:0:0:0,#
*,type=HCHR_GRP00,param=chr_Argas:face:do:$FACE_FadeTime:0:0:0:0:0:0:0,#
*,type=HCHR_TK00,msg=<speed=3>２人とも、ここを離れるな！,param=chr_Argas:$Right14:0:0:0:0:0:0:0:0:0,#
*,type=HCHR_TK00,msg=<speed=3>いくぞ、<wait=3>グラント、<wait=3>ローリ！,param=chr_Argas:$Right14:0:0:0:0:0:0:0:0:0,#
*,type=HCHR_TK01,param=ALL:skipmask:0:0:0:0:0:0:0:0:0,#
*,type=HCHR_POS00,param=chr_Argas:FADEOUT:$CHARA_FadeTime:0:0:0:0:0:0:0:0,#
*,type=HCHR_POS00,param=chr_Lin:FADEOUT:$CHARA_FadeTime:0:0:0:0:0:0:0:0,#
*,type=STOP,param=0:0:0:0:0:0:0:0:0:0:0,#
*,type=HCHR_TK01,param=ALL:0:0:0:0:0:0:0:0:0:0,#
*,type=HCHR_ENT00,param=chr_Glant:グラント:N$chara_bf2_5:$POS_Center:TYPE$middle:Z$1:0:0:0:0:0,#
*,type=HCHR_ENT00,param=chr_Rowli:ローリ:N$chara_bf2_3:$POS_Center:TYPE$middle:Z$1:0:0:0:0:0,#
*,type=HCHR_GRP00,param=chr_Glant:face:do:0:0:0:0:0:0:0:0,#
*,type=HCHR_GRP00,param=chr_Rowli:face:do:0:0:0:0:0:0:0:0,#
*,type=STOP,param=0:0:0:0:0:0:0:0:0:0:0,#
*,type=HCHR_POS00,param=chr_Rowli:FADEIN:T$0.3:$OFS_Left:0:0:0:0:0:0:0,#
*,type=HCHR_POS00,param=chr_Glant:FADEIN:T$0.3:$OFS_Right:0:0:0:0:0:0:0,#
*,type=STOP,param=0:0:0:0:0:0:0:0:0:0:0,#
*,type=HCHR_TK00,msg=えぇ！,param=chr_Rowli:$Left4:nowait:0:focusoff:0:0:0:0:0:0,#
*,type=HCHR_TK00,msg=おぉ！,param=chr_Glant:$Right4:nowait:0:focusoff:0:0:0:0:0:0,#
*,type=CSYN_0001,param=0:0:0:0:0:0:0:0:0:0:0,#
*,type=CSYN_0002,param=0:0:0:0:0:0:0:0:0:0:0,#
*,type=HCHR_TK01,param=ALL:skipmask:0:0:0:0:0:0:0:0:0,#
*,type=WAIT_0000,param=0.5:0:0:0:0:0:0:0:0:0:0,#
*,type=FADEOUT_000,param=1.5:00&00&00:0:0:0:0:0:0:0:0:0,#
*,type=BGM_0001,param=2:0:0:0:0:0:0:0:0:0:0,#
*,type=WAIT_0000,param=2:0:0:0:0:0:0:0:0:0:0,#
*,type=HCHR_TK01,param=ALL:0:0:0:0:0:0:0:0:0:0,#
*,type=PICT_0004,param=bg2:0:0:0:0:0:0:0:0:0:0,#
*,type=HCHR_ENT01,param=chr_Mawrys:0:0:0:0:0:0:0:0:0:0,#
*,type=HCHR_ENT01,param=chr_Lin:0:0:0:0:0:0:0:0:0:0,#
*,type=HCHR_ENT01,param=chr_Argas:0:0:0:0:0:0:0:0:0:0,#
*,type=HCHR_ENT01,param=chr_Rowli:0:0:0:0:0:0:0:0:0:0,#
*,type=HCHR_ENT01,param=chr_Glant:0:0:0:0:0:0:0:0:0:0,#
*,type=PICT_0004,param=kaisou1:0:0:0:0:0:0:0:0:0:0,#
*,type=PICT_0000,param=bg1:battle_bg_001_01.jpg:0:bg$1010101:0:0:0:1:0:0:0,#
*,type=HCHR_POS00,param=chr_Dragon:FADEIN:T$0:$OFS_Center:0:0:0:0:0:0:0,#
*,type=FADEIN_000,param=2:00&00&00:0:0:0:0:0:0:0:0:0,#
*,type=STOP,param=0:0:0:0:0:0:0:0:0:0:0,#
*,type=BGM_0000,param=56:2:0:0:0:0:0:0:0:0:0,#
*,type=WAIT_0000,param=1:0:0:0:0:0:0:0:0:0:0,#
*,type=HCHR_POS00,param=chr_Dragon:FADEOUT:T$0.3:0:0:0:0:0:0:0:0,#
*,type=STOP,param=0:0:0:0:0:0:0:0:0:0:0,#
*,type=HCHR_GRP00,param=chr_Sarsha:face:ai:$FACE_FadeTime:0:0:0:0:0:0:0,#
*,type=HCHR_POS00,param=chr_Sarsha:FADEIN:$CHARA_FadeTime:OFS$0&0:0:0:0:0:0:0:0,#
*,type=STOP,param=0:0:0:0:0:0:0:0:0:0:0,#
*,type=HCHR_TK00,msg=<speed=7>そっか…<wait=3>大変だったのね……,param=chr_Sarsha:$Center14:0:0:0:0:0:0:0:0:0,#
*,type=HCHR_TK01,param=ALL:skipmask:0:0:0:0:0:0:0:0:0,#
*,type=WAIT_0000,param=0.5:0:0:0:0:0:0:0:0:0:0,#
*,type=HCHR_GRP00,param=chr_Sarsha:face:ki:$FACE_FadeTime:0:0:0:0:0:0:0,#
*,type=HCHR_TK00,msg=でも、<wait=3>この子があなたの大事な<br>パートナーだってことはわかったわ。,param=chr_Sarsha:$Center18:0:0:0:0:0:0:0:0:0,#
*,type=HCHR_TK00,msg=名前は？<wait=3><br>何ていうの？,param=chr_Sarsha:$Center6:0:0:0:0:0:0:0:0:0,#
*,type=HCHR_TK01,param=ALL:0:0:0:0:0:0:0:0:0:0,#
*,type=WAIT_0000,param=1:0:0:0:0:0:0:0:0:0:0,#
*,type=FADEOUT_000,param=1.5:00&00&00:0:0:0:0:0:0:0:0:0,#
*,type=WAIT_0000,param=2:0:0:0:0:0:0:0:0:0:0,#
*,type=PICT_0004,param=bg1:0:0:0:0:0:0:0:0:0:0,#
*,type=HCHR_ENT01,param=chr_Dragon:0:0:0:0:0:0:0:0:0:0,#
*,type=HCHR_ENT01,param=chr_Loy:0:0:0:0:0:0:0:0:0:0,#
*,type=HCHR_ENT01,param=chr_Sarsha:0:0:0:0:0:0:0:0:0:0,#

*,type=SYSED_00,param=0:0:0:0:0:0:0:0:0:0:0,#



