﻿ScriptCmd ver 1.1.1(app1.0.4):スクリプト_novel_005.xlsm/script_novel_005_04/script_novel_005_04.csv

*,type=SYSST_00,param=0:0:0:0:0:0:0:0:0:0:0,#
*,type=CMD_STOP,param=0:0:0:0:0:0:0:0:0:0:0,#
*,type=SYSST_01,param=0:0:0:0:0:0:0:0:0:0:0,#


*,type=MSKS_0000,param=bgBlackMask:0&0&0:0:Z$50:T$0:0:0:0:0:0:0,#
*,type=PICT_0000,param=bg_paper_01:event_bg_paper.png:1:0:0:2:0:0:0:0:0,#
*,type=PICT_0001,param=bg_paper_01:-106:0:0:0:0:0:0:0:0:0,#
*,type=MSKS_0000,param=bgPaperMask:215&159&110:128:Z$6:T$0:0:0:0:0:0:0,#
*,type=WAIT_0000,param=1:0:0:0:0:0:0:0:0:0:0,#
*,type=FMSG_0000,msg=漆黒の魔獣 ラーチェス,param=chr_nov1:$Novel_B_14:nowait:once:focusoff:0:0:0:0:0:0,#
*,type=FMSG_0000,msg=第４話　遭遇,param=chr_nov2:$Novel_B_17:nowait:once:focusoff:0:0:0:0:0:0,#
*,type=STOP,param=0:0:0:0:0:0:0:0:0:0:0,#
*,type=MSKS_0002,param=bgBlackMask:T$1.5:0:0:0:0:0:0:0:0:0,#
*,type=WAIT_0000,param=1.5:0:0:0:0:0:0:0:0:0:0,#
*,type=CSYN_0002,param=0:0:0:0:0:0:0:0:0:0:0,#
*,type=SE_0000,param=20:0:0:0:0:0:0:0:0:0:0,#
*,type=FADEOUT_000,param=0.5:0&0&0:0:0:0:0:0:0:0:0:0,#
*,type=STOP,param=0:0:0:0:0:0:0:0:0:0:0,#
*,type=FMSG_0001,param=all:0:0:0:0:0:0:0:0:0:0,#
*,type=PICT_0004,param=bg_paper_01:0:0:0:0:0:0:0:0:0:0,#
*,type=PICT_0000,param=bg_01:battle_bg_sq_002_01.jpg:1:bg$202020101:0:0:0:3:0:0:0,#
*,type=PICT_0000,param=bg_paper_02:event_filter_paper.png:5:0:0:2:0:0:0:0:0,#
*,type=PICT_0001,param=bg_paper_02:-106:0:0:0:0:0:0:0:0:0,#
*,type=FADEIN_000,param=0.5:$0&0&0:0:0:0:0:0:0:0:0:0,#
*,type=STOP,param=0:0:0:0:0:0:0:0:0:0:0,#
*,type=WAIT_0000,param=0.3:0:0:0:0:0:0:0:0:0:0,#
*,type=BGM_0000,param=58:0:0:0:0:0:0:0:0:0:0,#
*,type=FMSG_0000,msg=「その、ラーチェスっていうのは…？」,param=chr_nov1:$Novel_B_07:nocenter&nowait:0:focusoff:0:0:0:0:0:0,#
*,type=CSYN_0002,param=0:0:0:0:0:0:0:0:0:0:0,#
*,type=FMSG_0000,msg=山の中を歩きながら、,param=chr_nov2:$Novel_B_09:nocenter&nowait:0:focusoff:0:0:0:0:0:0,#
*,type=CSYN_0001,param=0:0:0:0:0:0:0:0:0:0:0,#
*,type=FMSG_0000,msg=クォークはイメルダに聞いてみる。,param=chr_nov3:$Novel_B_10:nocenter&nowait:0:focusoff:0:0:0:0:0:0,#
*,type=CSYN_0002,param=0:0:0:0:0:0:0:0:0:0:0,#
*,type=FMSG_0000,msg=「ラーチェスは、ずっと私のことを,param=chr_nov4:$Novel_B_12:nocenter&nowait:0:focusoff:0:0:0:0:0:0,#
*,type=CSYN_0001,param=0:0:0:0:0:0:0:0:0:0:0,#
*,type=FMSG_0000,msg=守ってくれているの。,param=chr_nov5:$Novel_B_13:nocenter&nowait:0:focusoff:0:0:0:0:0:0,#
*,type=CSYN_0001,param=0:0:0:0:0:0:0:0:0:0:0,#
*,type=FMSG_0000,msg=たまにお城にいないこともあるけど、,param=chr_nov6:$Novel_B_14:nocenter&nowait:0:focusoff:0:0:0:0:0:0,#
*,type=CSYN_0001,param=0:0:0:0:0:0:0:0:0:0:0,#
*,type=FMSG_0000,msg=いつもそばにいてくれるわ」,param=chr_nov7:$Novel_B_15:nocenter&nowait:0:focusoff:0:0:0:0:0:0,#
*,type=CSYN_0002,param=0:0:0:0:0:0:0:0:0:0:0,#
*,type=FMSG_0000,msg=親代わりの保護者って感じなのかな…？,param=chr_nov8:$Novel_B_17:nocenter&nowait:0:focusoff:0:0:0:0:0:0,#
*,type=CSYN_0002,param=0:0:0:0:0:0:0:0:0:0:0,#
*,type=FMSG_0000,msg=「それに、とっても優しいのよ。,param=chr_nov9:$Novel_B_19:nocenter&nowait:0:focusoff:0:0:0:0:0:0,#
*,type=CSYN_0001,param=0:0:0:0:0:0:0:0:0:0:0,#
*,type=FMSG_0000,msg=いつも私のことを心配してくれるし、,param=chr_nov10:$Novel_B_20:nocenter&nowait:0:focusoff:0:0:0:0:0:0,#
*,type=CSYN_0001,param=0:0:0:0:0:0:0:0:0:0:0,#
*,type=FMSG_0000,msg=お世話もしてくれる。,param=chr_nov11:$Novel_B_21:nocenter&nowait:0:focusoff:0:0:0:0:0:0,#
*,type=CSYN_0001,param=0:0:0:0:0:0:0:0:0:0:0,#
*,type=FMSG_0000,msg=あ、でも料理は私がしているわ。,param=chr_nov12:$Novel_B_22:nocenter&nowait:0:focusoff:0:0:0:0:0:0,#
*,type=CSYN_0001,param=0:0:0:0:0:0:0:0:0:0:0,#
*,type=FMSG_0000,msg=ラーチェスが材料を取ってきてくれるの。,param=chr_nov13:$Novel_B_23:nocenter&nowait:0:focusoff:0:0:0:0:0:0,#
*,type=CSYN_0001,param=0:0:0:0:0:0:0:0:0:0:0,#
*,type=FMSG_0000,msg=道具は使えないから…」,param=chr_nov14:$Novel_B_24:nocenter&nowait:0:focusoff:0:0:0:0:0:0,#
*,type=CSYN_0002,param=0:0:0:0:0:0:0:0:0:0:0,#
*,type=SE_0000,param=20:0:0:0:0:0:0:0:0:0:0,#
*,type=FADEOUT_000,param=0.5:0&0&0:0:0:0:0:0:0:0:0:0,#
*,type=STOP,param=0:0:0:0:0:0:0:0:0:0:0,#
*,type=FMSG_0001,param=all:0:0:0:0:0:0:0:0:0:0,#
*,type=FADEIN_000,param=0.5:0&0&0:0:0:0:0:0:0:0:0:0,#
*,type=STOP,param=0:0:0:0:0:0:0:0:0:0:0,#
*,type=WAIT_0000,param=0.3:0:0:0:0:0:0:0:0:0:0,#
*,type=FMSG_0000,msg=イメルダはそれまでの様子からは,param=chr_nov1:$Novel_B_04:nocenter&nowait:0:focusoff:0:0:0:0:0:0,#
*,type=CSYN_0001,param=0:0:0:0:0:0:0:0:0:0:0,#
*,type=FMSG_0000,msg=信じられないくらいのスピードで,param=chr_nov2:$Novel_B_05:nocenter&nowait:0:focusoff:0:0:0:0:0:0,#
*,type=CSYN_0001,param=0:0:0:0:0:0:0:0:0:0:0,#
*,type=FMSG_0000,msg=話し始めた。,param=chr_nov3:$Novel_B_06:nocenter&nowait:0:focusoff:0:0:0:0:0:0,#
*,type=CSYN_0002,param=0:0:0:0:0:0:0:0:0:0:0,#
*,type=FMSG_0000,msg=「寝る時はいつも一緒よ。,param=chr_nov4:$Novel_B_08:nocenter&nowait:0:focusoff:0:0:0:0:0:0,#
*,type=CSYN_0001,param=0:0:0:0:0:0:0:0:0:0:0,#
*,type=FMSG_0000,msg=ラーチェスの体は,param=chr_nov5:$Novel_B_09:nocenter&nowait:0:focusoff:0:0:0:0:0:0,#
*,type=CSYN_0001,param=0:0:0:0:0:0:0:0:0:0:0,#
*,type=FMSG_0000,msg=触るとすべすべしてて気持ちいいの」,param=chr_nov6:$Novel_B_10:nocenter&nowait:0:focusoff:0:0:0:0:0:0,#
*,type=CSYN_0002,param=0:0:0:0:0:0:0:0:0:0:0,#
*,type=FMSG_0000,msg=すべすべしてて気持ちいいとは…,param=chr_nov7:$Novel_B_12:nocenter&nowait:0:focusoff:0:0:0:0:0:0,#
*,type=CSYN_0002,param=0:0:0:0:0:0:0:0:0:0:0,#
*,type=FMSG_0000,msg=クォークのラーチェス像が揺らいでいく。,param=chr_nov8:$Novel_B_14:nocenter&nowait:0:focusoff:0:0:0:0:0:0,#
*,type=CSYN_0002,param=0:0:0:0:0:0:0:0:0:0:0,#
*,type=FMSG_0000,msg=「それから、ラーチェスは,param=chr_nov9:$Novel_B_16:nocenter&nowait:0:focusoff:0:0:0:0:0:0,#
*,type=CSYN_0001,param=0:0:0:0:0:0:0:0:0:0:0,#
*,type=FMSG_0000,msg=とっても強いのよ。,param=chr_nov10:$Novel_B_17:nocenter&nowait:0:focusoff:0:0:0:0:0:0,#
*,type=CSYN_0001,param=0:0:0:0:0:0:0:0:0:0:0,#
*,type=FMSG_0000,msg=どんな魔物もラーチェスには,param=chr_nov11:$Novel_B_18:nocenter&nowait:0:focusoff:0:0:0:0:0:0,#
*,type=CSYN_0001,param=0:0:0:0:0:0:0:0:0:0:0,#
*,type=FMSG_0000,msg=敵わないんだから」,param=chr_nov12:$Novel_B_19:nocenter&nowait:0:focusoff:0:0:0:0:0:0,#
*,type=CSYN_0002,param=0:0:0:0:0:0:0:0:0:0:0,#
*,type=FMSG_0000,msg=イメルダは年相応の少女らしく、,param=chr_nov13:$Novel_B_21:nocenter&nowait:0:focusoff:0:0:0:0:0:0,#
*,type=CSYN_0001,param=0:0:0:0:0:0:0:0:0:0:0,#
*,type=FMSG_0000,msg=ふふっと笑った。,param=chr_nov14:$Novel_B_22:nocenter&nowait:0:focusoff:0:0:0:0:0:0,#
*,type=CSYN_0001,param=0:0:0:0:0:0:0:0:0:0:0,#
*,type=FMSG_0000,msg=だいぶ落ち着いてきたみたいだ。,param=chr_nov15:$Novel_B_23:nocenter&nowait:0:focusoff:0:0:0:0:0:0,#
*,type=CSYN_0002,param=0:0:0:0:0:0:0:0:0:0:0,#
*,type=FMSG_0000,msg=それにしても、彼女がここまで心酔する,param=chr_nov16:$Novel_B_25:nocenter&nowait:0:focusoff:0:0:0:0:0:0,#
*,type=CSYN_0001,param=0:0:0:0:0:0:0:0:0:0:0,#
*,type=BGM_0001,param=2:0:0:0:0:0:0:0:0:0:0,#
*,type=FMSG_0000,msg=ラーチェスとは一体…,param=chr_nov17:$Novel_B_26:nocenter&nowait:0:focusoff:0:0:0:0:0:0,#
*,type=CSYN_0002,param=0:0:0:0:0:0:0:0:0:0:0,#
*,type=SE_0000,param=20:0:0:0:0:0:0:0:0:0:0,#
*,type=FADEOUT_000,param=0.5:0&0&0:0:0:0:0:0:0:0:0:0,#
*,type=STOP,param=0:0:0:0:0:0:0:0:0:0:0,#
*,type=FMSG_0001,param=all:0:0:0:0:0:0:0:0:0:0,#
*,type=FADEIN_000,param=0.5:0&0&0:0:0:0:0:0:0:0:0:0,#
*,type=STOP,param=0:0:0:0:0:0:0:0:0:0:0,#
*,type=WAIT_0000,param=0.3:0:0:0:0:0:0:0:0:0:0,#
*,type=BGM_0000,param=32:0:0:0:0:0:0:0:0:0:0,#
*,type=FMSG_0000,msg=「グォォオオォ!!!!」,param=chr_nov1:$Novel_B_06:nocenter&nowait:0:focusoff:0:0:0:0:0:0,#
*,type=CSYN_0002,param=0:0:0:0:0:0:0:0:0:0:0,#
*,type=FMSG_0000,msg=その時、耳を劈くような獣の咆哮が響き、,param=chr_nov2:$Novel_B_08:nocenter&nowait:0:focusoff:0:0:0:0:0:0,#
*,type=CSYN_0001,param=0:0:0:0:0:0:0:0:0:0:0,#
*,type=FMSG_0000,msg=強い風が吹き荒れた。,param=chr_nov3:$Novel_B_09:nocenter&nowait:0:focusoff:0:0:0:0:0:0,#
*,type=CSYN_0002,param=0:0:0:0:0:0:0:0:0:0:0,#
*,type=FMSG_0000,msg=「うわっ!?」,param=chr_nov4:$Novel_B_11:nocenter&nowait:0:focusoff:0:0:0:0:0:0,#
*,type=CSYN_0001,param=0:0:0:0:0:0:0:0:0:0:0,#
*,type=FMSG_0000,msg=「キュルッ！」,param=chr_nov5:$Novel_B_13:nocenter&nowait:0:focusoff:0:0:0:0:0:0,#
*,type=CSYN_0001,param=0:0:0:0:0:0:0:0:0:0:0,#
*,type=FMSG_0000,msg=クォークはとっさに目を閉じる。,param=chr_nov6:$Novel_B_15:nocenter&nowait:0:focusoff:0:0:0:0:0:0,#
*,type=CSYN_0002,param=0:0:0:0:0:0:0:0:0:0:0,#
*,type=FMSG_0000,msg=激しい怒りをぶつけられている,param=chr_nov7:$Novel_B_17:nocenter&nowait:0:focusoff:0:0:0:0:0:0,#
*,type=CSYN_0001,param=0:0:0:0:0:0:0:0:0:0:0,#
*,type=FMSG_0000,msg=かのように、ひりひりとした感触が,param=chr_nov8:$Novel_B_18:nocenter&nowait:0:focusoff:0:0:0:0:0:0,#
*,type=CSYN_0001,param=0:0:0:0:0:0:0:0:0:0:0,#
*,type=FMSG_0000,msg=肌を伝った。,param=chr_nov9:$Novel_B_19:nocenter&nowait:0:focusoff:0:0:0:0:0:0,#
*,type=CSYN_0002,param=0:0:0:0:0:0:0:0:0:0:0,#
*,type=FMSG_0000,msg=やがて風が収まり、,param=chr_nov10:$Novel_B_21:nocenter&nowait:0:focusoff:0:0:0:0:0:0,#
*,type=CSYN_0001,param=0:0:0:0:0:0:0:0:0:0:0,#
*,type=FMSG_0000,msg=クォークはゆっくりと目を開ける。,param=chr_nov11:$Novel_B_22:nocenter&nowait:0:focusoff:0:0:0:0:0:0,#
*,type=CSYN_0002,param=0:0:0:0:0:0:0:0:0:0:0,#
*,type=FMSG_0000,msg=そこにいたのは──<wait=5>…漆黒の魔獣。,param=chr_nov12:$Novel_B_24:nocenter&nowait:0:focusoff:0:0:0:0:0:0,#
*,type=CSYN_0002,param=0:0:0:0:0:0:0:0:0:0:0,#
*,type=SE_0000,param=20:0:0:0:0:0:0:0:0:0:0,#
*,type=FADEOUT_000,param=0.5:0&0&0:0:0:0:0:0:0:0:0:0,#
*,type=STOP,param=0:0:0:0:0:0:0:0:0:0:0,#
*,type=FMSG_0001,param=all:0:0:0:0:0:0:0:0:0:0,#
*,type=FADEIN_000,param=0.5:0&0&0:0:0:0:0:0:0:0:0:0,#
*,type=STOP,param=0:0:0:0:0:0:0:0:0:0:0,#
*,type=WAIT_0000,param=0.3:0:0:0:0:0:0:0:0:0:0,#
*,type=FMSG_0000,msg=「ラーチェス！」,param=chr_nov1:$Novel_B_07:nocenter&nowait:0:focusoff:0:0:0:0:0:0,#
*,type=CSYN_0002,param=0:0:0:0:0:0:0:0:0:0:0,#
*,type=FMSG_0000,msg=クォークが声も上げられずにいると、,param=chr_nov2:$Novel_B_09:nocenter&nowait:0:focusoff:0:0:0:0:0:0,#
*,type=CSYN_0001,param=0:0:0:0:0:0:0:0:0:0:0,#
*,type=FMSG_0000,msg=イメルダが黒い獣に向かって走り出した。,param=chr_nov3:$Novel_B_10:nocenter&nowait:0:focusoff:0:0:0:0:0:0,#
*,type=CSYN_0002,param=0:0:0:0:0:0:0:0:0:0:0,#
*,type=FMSG_0000,msg=クォークには決して見せることの,param=chr_nov4:$Novel_B_12:nocenter&nowait:0:focusoff:0:0:0:0:0:0,#
*,type=CSYN_0001,param=0:0:0:0:0:0:0:0:0:0:0,#
*,type=FMSG_0000,msg=なかった満面の笑みを浮かべながら。,param=chr_nov5:$Novel_B_13:nocenter&nowait:0:focusoff:0:0:0:0:0:0,#
*,type=CSYN_0002,param=0:0:0:0:0:0:0:0:0:0:0,#
*,type=FMSG_0000,msg=嬉しそうに魔獣に抱き着くイメルダ。,param=chr_nov6:$Novel_B_15:nocenter&nowait:0:focusoff:0:0:0:0:0:0,#
*,type=CSYN_0001,param=0:0:0:0:0:0:0:0:0:0:0,#
*,type=FMSG_0000,msg=それに応えるように、,param=chr_nov7:$Novel_B_16:nocenter&nowait:0:focusoff:0:0:0:0:0:0,#
*,type=CSYN_0001,param=0:0:0:0:0:0:0:0:0:0:0,#
*,type=FMSG_0000,msg=魔獣は両翼でイメルダを包んだ。,param=chr_nov8:$Novel_B_17:nocenter&nowait:0:focusoff:0:0:0:0:0:0,#
*,type=CSYN_0002,param=0:0:0:0:0:0:0:0:0:0:0,#
*,type=FMSG_0000,msg=クォークは悟った。,param=chr_nov9:$Novel_B_19:nocenter&nowait:0:focusoff:0:0:0:0:0:0,#
*,type=CSYN_0001,param=0:0:0:0:0:0:0:0:0:0:0,#
*,type=FMSG_0000,msg=イメルダの保護者は,param=chr_nov10:$Novel_B_20:nocenter&nowait:0:focusoff:0:0:0:0:0:0,#
*,type=CSYN_0001,param=0:0:0:0:0:0:0:0:0:0:0,#
*,type=FMSG_0000,msg=人間ではないということを。,param=chr_nov11:$Novel_B_21:nocenter&nowait:0:focusoff:0:0:0:0:0:0,#
*,type=CSYN_0002,param=0:0:0:0:0:0:0:0:0:0:0,#
*,type=FMSG_0000,msg=そしてこの魔獣こそが、,param=chr_nov12:$Novel_B_23:nocenter&nowait:0:focusoff:0:0:0:0:0:0,#
*,type=CSYN_0001,param=0:0:0:0:0:0:0:0:0:0:0,#
*,type=FMSG_0000,msg=自分が倒すべき相手であると。,param=chr_nov13:$Novel_B_24:nocenter&nowait:0:focusoff:0:0:0:0:0:0,#
*,type=CSYN_0002,param=0:0:0:0:0:0:0:0:0:0:0,#
*,type=SE_0000,param=20:0:0:0:0:0:0:0:0:0:0,#
*,type=FADEOUT_000,param=0.5:0&0&0:0:0:0:0:0:0:0:0:0,#
*,type=STOP,param=0:0:0:0:0:0:0:0:0:0:0,#
*,type=FMSG_0001,param=all:0:0:0:0:0:0:0:0:0:0,#
*,type=FADEIN_000,param=0.5:0&0&0:0:0:0:0:0:0:0:0:0,#
*,type=STOP,param=0:0:0:0:0:0:0:0:0:0:0,#
*,type=WAIT_0000,param=0.3:0:0:0:0:0:0:0:0:0:0,#
*,type=FMSG_0000,msg=『イメルダに近付くな』,param=chr_nov1:$Novel_B_06:nocenter&nowait:0:focusoff:0:0:0:0:0:0,#
*,type=CSYN_0002,param=0:0:0:0:0:0:0:0:0:0:0,#
*,type=FMSG_0000,msg=ラーチェスの白色の目がクォークを捉え、,param=chr_nov2:$Novel_B_08:nocenter&nowait:0:focusoff:0:0:0:0:0:0,#
*,type=CSYN_0001,param=0:0:0:0:0:0:0:0:0:0:0,#
*,type=FMSG_0000,msg=脳内に重い声が響き渡った。,param=chr_nov3:$Novel_B_09:nocenter&nowait:0:focusoff:0:0:0:0:0:0,#
*,type=CSYN_0002,param=0:0:0:0:0:0:0:0:0:0:0,#
*,type=FMSG_0000,msg=「この人は悪い人じゃないわ。,param=chr_nov4:$Novel_B_11:nocenter&nowait:0:focusoff:0:0:0:0:0:0,#
*,type=CSYN_0001,param=0:0:0:0:0:0:0:0:0:0:0,#
*,type=FMSG_0000,msg=私と一緒にラーチェスを,param=chr_nov5:$Novel_B_12:nocenter&nowait:0:focusoff:0:0:0:0:0:0,#
*,type=CSYN_0001,param=0:0:0:0:0:0:0:0:0:0:0,#
*,type=FMSG_0000,msg=探してくれたの」,param=chr_nov6:$Novel_B_13:nocenter&nowait:0:focusoff:0:0:0:0:0:0,#
*,type=CSYN_0002,param=0:0:0:0:0:0:0:0:0:0:0,#
*,type=FMSG_0000,msg=イメルダがそう言うが、ラーチェスは,param=chr_nov7:$Novel_B_15:nocenter&nowait:0:focusoff:0:0:0:0:0:0,#
*,type=CSYN_0001,param=0:0:0:0:0:0:0:0:0:0:0,#
*,type=FMSG_0000,msg=刺すような視線をこちらに向け続ける。,param=chr_nov8:$Novel_B_16:nocenter&nowait:0:focusoff:0:0:0:0:0:0,#
*,type=CSYN_0002,param=0:0:0:0:0:0:0:0:0:0:0,#
*,type=FMSG_0000,msg=「イメルダ…そいつから離れるんだ」,param=chr_nov9:$Novel_B_18:nocenter&nowait:0:focusoff:0:0:0:0:0:0,#
*,type=CSYN_0002,param=0:0:0:0:0:0:0:0:0:0:0,#
*,type=FMSG_0000,msg=ラーチェスから目を逸らさぬまま、,param=chr_nov10:$Novel_B_20:nocenter&nowait:0:focusoff:0:0:0:0:0:0,#
*,type=CSYN_0001,param=0:0:0:0:0:0:0:0:0:0:0,#
*,type=FMSG_0000,msg=クォークは言った。,param=chr_nov11:$Novel_B_21:nocenter&nowait:0:focusoff:0:0:0:0:0:0,#
*,type=CSYN_0002,param=0:0:0:0:0:0:0:0:0:0:0,#
*,type=FMSG_0000,msg=「どうして…？」,param=chr_nov12:$Novel_B_23:nocenter&nowait:0:focusoff:0:0:0:0:0:0,#
*,type=CSYN_0002,param=0:0:0:0:0:0:0:0:0:0:0,#
*,type=FMSG_0000,msg=イメルダの瞳が光を失っていく。,param=chr_nov13:$Novel_B_25:nocenter&nowait:0:focusoff:0:0:0:0:0:0,#
*,type=CSYN_0002,param=0:0:0:0:0:0:0:0:0:0:0,#
*,type=SE_0000,param=20:0:0:0:0:0:0:0:0:0:0,#
*,type=FADEOUT_000,param=0.5:0&0&0:0:0:0:0:0:0:0:0:0,#
*,type=STOP,param=0:0:0:0:0:0:0:0:0:0:0,#
*,type=FMSG_0001,param=all:0:0:0:0:0:0:0:0:0:0,#
*,type=FADEIN_000,param=0.5:0&0&0:0:0:0:0:0:0:0:0:0,#
*,type=STOP,param=0:0:0:0:0:0:0:0:0:0:0,#
*,type=WAIT_0000,param=0.3:0:0:0:0:0:0:0:0:0:0,#
*,type=FMSG_0000,msg=「僕と一緒に行こう。山を下りるんだ」,param=chr_nov1:$Novel_B_03:nocenter&nowait:0:focusoff:0:0:0:0:0:0,#
*,type=CSYN_0002,param=0:0:0:0:0:0:0:0:0:0:0,#
*,type=FMSG_0000,msg=「…あなたと一緒には行けないわ。,param=chr_nov2:$Novel_B_05:nocenter&nowait:0:focusoff:0:0:0:0:0:0,#
*,type=CSYN_0001,param=0:0:0:0:0:0:0:0:0:0:0,#
*,type=FMSG_0000,msg=私はここでずっと,param=chr_nov3:$Novel_B_06:nocenter&nowait:0:focusoff:0:0:0:0:0:0,#
*,type=CSYN_0001,param=0:0:0:0:0:0:0:0:0:0:0,#
*,type=FMSG_0000,msg=ラーチェスと一緒に暮らすの」,param=chr_nov4:$Novel_B_07:nocenter&nowait:0:focusoff:0:0:0:0:0:0,#
*,type=CSYN_0002,param=0:0:0:0:0:0:0:0:0:0:0,#
*,type=FMSG_0000,msg=怖ろしく冷たい声だった。,param=chr_nov5:$Novel_B_09:nocenter&nowait:0:focusoff:0:0:0:0:0:0,#
*,type=CSYN_0002,param=0:0:0:0:0:0:0:0:0:0:0,#
*,type=FMSG_0000,msg=先ほどの明るい少女の面影は,param=chr_nov6:$Novel_B_11:nocenter&nowait:0:focusoff:0:0:0:0:0:0,#
*,type=CSYN_0001,param=0:0:0:0:0:0:0:0:0:0:0,#
*,type=FMSG_0000,msg=どこにもない。,param=chr_nov7:$Novel_B_12:nocenter&nowait:0:focusoff:0:0:0:0:0:0,#
*,type=CSYN_0002,param=0:0:0:0:0:0:0:0:0:0:0,#
*,type=FMSG_0000,msg=全ての感情を消し去った眼差しが,param=chr_nov8:$Novel_B_14:nocenter&nowait:0:focusoff:0:0:0:0:0:0,#
*,type=CSYN_0001,param=0:0:0:0:0:0:0:0:0:0:0,#
*,type=FMSG_0000,msg=ただそこにあった。,param=chr_nov9:$Novel_B_15:nocenter&nowait:0:focusoff:0:0:0:0:0:0,#
*,type=CSYN_0002,param=0:0:0:0:0:0:0:0:0:0:0,#
*,type=FMSG_0000,msg=ラーチェスが体勢を低くしながら,param=chr_nov10:$Novel_B_17:nocenter&nowait:0:focusoff:0:0:0:0:0:0,#
*,type=CSYN_0001,param=0:0:0:0:0:0:0:0:0:0:0,#
*,type=FMSG_0000,msg=翼を大きく広げる。,param=chr_nov11:$Novel_B_18:nocenter&nowait:0:focusoff:0:0:0:0:0:0,#
*,type=CSYN_0002,param=0:0:0:0:0:0:0:0:0:0:0,#
*,type=FMSG_0000,msg=「さよなら」,param=chr_nov12:$Novel_B_20:nocenter&nowait:0:focusoff:0:0:0:0:0:0,#
*,type=CSYN_0002,param=0:0:0:0:0:0:0:0:0:0:0,#
*,type=FMSG_0000,msg=イメルダを背に乗せ、ラーチェスは,param=chr_nov13:$Novel_B_22:nocenter&nowait:0:focusoff:0:0:0:0:0:0,#
*,type=CSYN_0001,param=0:0:0:0:0:0:0:0:0:0:0,#
*,type=FMSG_0000,msg=土煙を上げながら舞い上がった。,param=chr_nov14:$Novel_B_23:nocenter&nowait:0:focusoff:0:0:0:0:0:0,#
*,type=CSYN_0002,param=0:0:0:0:0:0:0:0:0:0:0,#
*,type=FMSG_0000,msg=山頂へと飛び去って行く,param=chr_nov15:$Novel_B_25:nocenter&nowait:0:focusoff:0:0:0:0:0:0,#
*,type=CSYN_0001,param=0:0:0:0:0:0:0:0:0:0:0,#
*,type=FMSG_0000,msg=ラーチェスとイメルダを、クォークは,param=chr_nov16:$Novel_B_26:nocenter&nowait:0:focusoff:0:0:0:0:0:0,#
*,type=CSYN_0001,param=0:0:0:0:0:0:0:0:0:0:0,#
*,type=FMSG_0000,msg=ただ見送ることしかできなかった。,param=chr_nov17:$Novel_B_27:nocenter&nowait:0:focusoff:0:0:0:0:0:0,#
*,type=CSYN_0002,param=0:0:0:0:0:0:0:0:0:0:0,#
*,type=SE_0000,param=103:0:0:0:0:0:0:0:0:0:0,#
*,type=FADEOUT_000,param=1.5:0&0&0:0:0:0:0:0:0:0:0:0,#
*,type=BGM_0001,param=1.5:0:0:0:0:0:0:0:0:0:0,#
*,type=WAIT_0000,param=2:0:0:0:0:0:0:0:0:0:0,#
*,type=FMSG_0001,param=all:0:0:0:0:0:0:0:0:0:0,#
*,type=CLSNE_0000,param=0:0:0:0:0:0:0:0:0:0:0,#

*,type=SYSED_00,param=0:0:0:0:0:0:0:0:0:0:0,#



