﻿ScriptCmd ver 1.1.1(app1.0.4):ストクエスクリプト_016_穢れし五忍編_battle.xlsm/story016-04-05/story016-04-05.csv

*,type=SYSST_00,param=0:0:0:0:0:0:0:0:0:0:0,#
*,type=CMD_STOP,param=0:0:0:0:0:0:0:0:0:0:0,#
*,type=SYSST_01,param=0:0:0:0:0:0:0:0:0:0:0,#


*,type=EVT_CHKTRG,param=0:0:0:0:0:0:0:0:0:0:0,#
*,type=EVT_BTL_STARTBTL,param=1:0:0:0:0:0:0:0:0:0:0,#
*,type=BTL_PanelMask,param=ON:0:0:0:0:0:0:0:0:0:0,#
*,type=BTL_CMD,param=unit_panel:PPTALL:OFF:0:0:0:0:0:0:0:0,#
*,type=BTL_EnemyHpBarVisible,param=OFF:0:0:0:0:0:0:0:0:0:0,#
*,type=BTL_ChangeParty,param=ON:21101:5014024:0:0:0:0:0:0:0:0,#
*,type=BTL_WaitAction,param=10:0:0:0:0:0:0:0:0:0:0,#
*,type=BTL_ReqAction,param=PINDEX$0:0:MOVETOFIX:428$452$0$IDLE$IDLE:0:0:0:0:0:0:0,#
*,type=BTL_ReqAction,param=MINDEX$1:0:MOVETOFIX:198$452$0$IDLE$IDLE:0:0:0:0:0:0:0,#
*,type=BTL_WaitAction,param=10:0:0:0:0:0:0:0:0:0:0,#
*,type=BTL_FADE,param=IN:0:0:0:0:0:0:0:0:0:0,#
*,type=WAIT_0000,param=1.5:0:0:0:0:0:0:0:0:0:0,#
*,type=HCHR_ENT00,param=chr_souya:ソウヤ:N$chara_bf2_1_nothum:$POS_Center:TYPE$middle:Z$10:0:0:0:0:0,#
*,type=HCHR_ENT00,param=chr_ibuki:イブキ:N$chara_bf2_1_nothum:$POS_Center:TYPE$middle:Z$10:0:0:0:0:0,#
*,type=STOP,param=0:0:0:0:0:0:0:0:0:0:0,#
*,type=HCHR_TK10,msg=<speed=7>うふふ……<wait=3>あはっ<wait=3><br>ふふふふふ……,param=chr_ibuki:Left:BASIC:0:0:0:0:0:0:0:0,#
*,type=HCHR_TK10,msg=<speed=7>ソウヤが……<wait=3><br>ソウヤが私を……,param=chr_ibuki:Left:BASIC:0:0:0:0:0:0:0:0,#
*,type=HCHR_TK10,msg=<speed=9>あぁ……<wait=3>しあわせ……,param=chr_ibuki:Left:BASIC:0:0:0:0:0:0:0:0,#
*,type=HCHR_TK01,param=ALL:0:0:0:0:0:0:0:0:0:0,#
*,type=STOP,param=0:0:0:0:0:0:0:0:0:0:0,#
*,type=EFFECT_GP,param=23060000:320:568:0:0:100:0:0:0:0:0,#
*,type=WAIT_0000,param=0.2:0:0:0:0:0:0:0:0:0:0,#
*,type=EFFECT_GP,param=23050000:198:452:0:0:100:0:0:0:0:0,#
*,type=EFFECT_GP,param=23060000:320:568:0:0:100:0:0:0:0:0,#
*,type=BTL_MONSTER_DEATH,param=MINDEX$1:0:0:0:0:0:0:0:0:0:0,#
*,type=BTL_WaitAction,param=10:0:0:0:0:0:0:0:0:0:0,#
*,type=WAIT_0000,param=1:0:0:0:0:0:0:0:0:0:0,#
*,type=HCHR_TK00,msg=もしや……<wait=1>姉様は<br>狂気から解放されるために,param=chr_souya:$Mono_L_R:0:0:0:0:0:OFS$-40&0:0:0:0,#
*,type=HCHR_TK00,msg=俺を待ち望んでいたのか……？,param=chr_souya:$Mono_L_R:0:0:0:0:0:OFS$-40&0:0:0:0,#
*,type=HCHR_TK01,param=ALL:0:0:0:0:0:0:0:0:0:0,#
*,type=WAIT_0000,param=0.5:0:0:0:0:0:0:0:0:0:0,#
*,type=HCHR_TK00,msg=だとしたら……<wait=3><br>姉様の魂は救われたのか？,param=chr_souya:$Mono_L_R:0:0:0:0:0:OFS$-40&0:0:0:0,#
*,type=HCHR_TK01,param=ALL:0:0:0:0:0:0:0:0:0:0,#
*,type=WAIT_0000,param=0.5:0:0:0:0:0:0:0:0:0:0,#
*,type=HCHR_TK10,msg=<speed=9>…………,param=chr_souya:Right:BASIC:0:0:0:0:0:0:OFS$-40&0:0,#
*,type=HCHR_TK01,param=ALL:0:0:0:0:0:0:0:0:0:0,#
*,type=WAIT_0000,param=0.5:0:0:0:0:0:0:0:0:0:0,#
*,type=HCHR_TK00,msg=だめだ。<wait=3>穢れし魂は<wait=1><br>封印しなければならない。,param=chr_souya:$Mono_L_R:0:0:0:0:0:OFS$-40&0:0:0:0,#
*,type=HCHR_TK01,param=ALL:0:0:0:0:0:0:0:0:0:0,#
*,type=WAIT_0000,param=1:0:0:0:0:0:0:0:0:0:0,#
*,type=HCHR_TK10,msg=さようなら、<wait=1>姉様。,param=chr_souya:Right:BASIC:0:0:0:0:0:0:OFS$-40&0:0,#
*,type=HCHR_TK01,param=ALL:0:0:0:0:0:0:0:0:0:0,#
*,type=STOP,param=0:0:0:0:0:0:0:0:0:0:0,#
*,type=EFFECT_GP,param=21130006:320:568:0:0:70:0:0:0:0:0,#
*,type=EFFECT_GP,param=23030008:198:452:0:0:70:0:0:0:0:0,#
*,type=WAIT_0000,param=2:0:0:0:0:0:0:0:0:0:0,#
*,type=PICT_0000,param=makimono0:event_item_023.png:Z$90:0:0:2:0:0:0:0:0,#
*,type=PICT_0000,param=makimono:event_item_024.png:Z$90:0:0:2:0:0:0:0:0,#
*,type=PICT_0000,param=makimono_dokuro1:event_item_025_2.png:Z$91:0:0:2:0:0:0:0:0,#
*,type=PICT_0000,param=makimono_dokuro2:event_item_025_3.png:Z$92:0:0:2:0:0:0:0:0,#
*,type=PICT_0000,param=makimono_dokuro3:event_item_025_4.png:Z$93:0:0:2:0:0:0:0:0,#
*,type=PICT_0000,param=makimono_dokuro4:event_item_025_5.png:Z$94:0:0:2:0:0:0:0:0,#
*,type=PICT_0001,param=makimono0:0:100:0.5:0:0:0:0:0:0:0,#
*,type=WAIT_0000,param=0.8:0:0:0:0:0:0:0:0:0:0,#
*,type=SE_0000,param=20:0:0:0:0:0:0:0:0:0:0,#
*,type=PICT_0003,param=makimono0:0.5:0:0:0:0:0:0:0:0:0,#
*,type=STOP,param=0:0:0:0:0:0:0:0:0:0:0,#
*,type=PICT_0001,param=makimono:0:180:0.5:0:0:0:0:0:0:0,#
*,type=PICT_0001,param=makimono_dokuro1:0:180:0.5:0:0:0:0:0:0:0,#
*,type=PICT_0001,param=makimono_dokuro2:0:180:0.5:0:0:0:0:0:0:0,#
*,type=PICT_0001,param=makimono_dokuro3:0:180:0.5:0:0:0:0:0:0:0,#
*,type=STOP,param=0:0:0:0:0:0:0:0:0:0:0,#
*,type=EFFECT_GP,param=26040008:290:510:0:0:70:0:0:0:0:0,#
*,type=WAIT_0000,param=1.5:0:0:0:0:0:0:0:0:0:0,#
*,type=PICT_0001,param=makimono_dokuro4:0:180:1:0:0:0:0:0:0:0,#
*,type=STOP,param=0:0:0:0:0:0:0:0:0:0:0,#
*,type=SE_0000,param=20:0:0:0:0:0:0:0:0:0:0,#
*,type=PICT_0003,param=makimono:0:0:0:0:0:0:0:0:0:0,#
*,type=PICT_0003,param=makimono_dokuro1:0:0:0:0:0:0:0:0:0:0,#
*,type=PICT_0003,param=makimono_dokuro2:0:0:0:0:0:0:0:0:0:0,#
*,type=PICT_0003,param=makimono_dokuro3:0:0:0:0:0:0:0:0:0:0,#
*,type=PICT_0003,param=makimono_dokuro4:0:0:0:0:0:0:0:0:0:0,#
*,type=STOP,param=0:0:0:0:0:0:0:0:0:0:0,#
*,type=PICT_0001,param=makimono0:0:100:0.5:0:0:0:0:0:0:0,#
*,type=WAIT_0000,param=1:0:0:0:0:0:0:0:0:0:0,#
*,type=PICT_0003,param=makimono0:0.5:0:0:0:0:0:0:0:0:0,#
*,type=WAIT_0000,param=2:0:0:0:0:0:0:0:0:0:0,#
*,type=HCHR_TK10,msg=<speed=7>あと１人だ……,param=chr_souya:Right:BASIC:0:0:0:0:0:0:OFS$-40&0:0,#
*,type=HCHR_TK01,param=ALL:0:0:0:0:0:0:0:0:0:0,#
*,type=WAIT_0000,param=0.5:0:0:0:0:0:0:0:0:0:0,#
*,type=MSKS_0000,param=bgBlackMask:$BGBLACK_Color:0:Z$50:T$0.75:0:0:0:0:0:0,#
*,type=WAIT_0000,param=0.75:0:0:0:0:0:0:0:0:0:0,#
*,type=BTL_ChangeParty,param=OFF:0:0:0:0:0:0:0:0:0:0,#
*,type=BTL_WaitAction,param=10:0:0:0:0:0:0:0:0:0:0,#
*,type=WAIT_0000,param=0.5:0:0:0:0:0:0:0:0:0:0,#
*,type=GAM_CHGSCENE,param=DungeonSelect:HERO:2021501:0:0:0:0:0:0:0:0,#
*,type=BTL_PanelMask,param=OFF:0:0:0:0:0:0:0:0:0:0,#
*,type=EVT_BLOCKEND,param=0:0:0:0:0:0:0:0:0:0:0,#

*,type=SYSED_00,param=0:0:0:0:0:0:0:0:0:0:0,#



