﻿ScriptCmd ver 1.1.1(app1.0.4):ストクエスクリプト_xxx_勇者一家_story.xlsm/story013-06-02/story013-06-02.csv

*,type=SYSST_00,param=0:0:0:0:0:0:0:0:0:0:0,#
*,type=CMD_STOP,param=0:0:0:0:0:0:0:0:0:0:0,#
*,type=SYSST_01,param=0:0:0:0:0:0:0:0:0:0:0,#


*,type=PICT_0000,param=bg_1:battle_bg_013_02.jpg:1:bg$1050107:0:0:0:2:0:0:0,#
*,type=BGM_0000,param=42:0:0:0:0:0:0:0:0:0:0,#
*,type=FADEIN_000,param=1.5:00&00&00:0:0:0:0:0:0:0:0:0,#
*,type=WAIT_0000,param=0.8:0:0:0:0:0:0:0:0:0:0,#
*,type=SE_0000,param=380:0:0:0:0:0:0:0:0:0:0,#
*,type=WAIT_0000,param=2.7:0:0:0:0:0:0:0:0:0:0,#
*,type=HCHR_ENT00,param=chr_Necho:ネ・カウ:N$chara_bf2_152:$POS_Center:TYPE$middle:Z$10:0:0:0:0:0,#
*,type=STOP,param=0:0:0:0:0:0:0:0:0:0:0,#
*,type=SE_0000,param=312:0:0:0:0:0:0:0:0:0:0,#
*,type=HCHR_POS00,param=chr_Necho:IN$bottom$15:T$1:OFS$0&0:0:0:0:0:0:0:0,#
*,type=WAIT_0000,param=1.2:0:0:0:0:0:0:0:0:0:0,#
*,type=HCHR_TK10,msg=我ネ・カウ！<br>強者ヨ姿ヲ現スガイイ！,param=chr_Necho:Center:BASIC:0:0:0:0:0:0:OFS$0&110:0,#
*,type=HCHR_TK01,param=all:0:0:0:0:0:0:0:0:0:0,#
*,type=FADEOUT_000,param=1.5:$BGBLACK_Color:0:0:0:0:0:0:0:0:0,#
*,type=BGM_0001,param=1.5:0:0:0:0:0:0:0:0:0:0,#
*,type=WAIT_0000,param=2:0:0:0:0:0:0:0:0:0:0,#
*,type=CLSNE_0000,param=0:0:0:0:0:0:0:0:0:0:0,#

*,type=SYSED_00,param=0:0:0:0:0:0:0:0:0:0:0,#



