﻿ScriptCmd ver 1.1.1(app1.0.4):ストクエスクリプト_020_忘れ去られし神話_クエスト02.xlsm/story020-02-04/story020-02-04.csv

*,type=SYSST_00,param=0:0:0:0:0:0:0:0:0:0:0,#
*,type=CMD_STOP,param=0:0:0:0:0:0:0:0:0:0:0,#
*,type=SYSST_01,param=0:0:0:0:0:0:0:0:0:0:0,#


*,type=PICT_0000,param=bg_01:battle_bg_sq_018_02_1.jpg:1:bg$202180102:0:0:0:2:0:0:0,#
*,type=BGM_0000,param=1053:1.5:0:0:0:0:0:0:0:0:0,#
*,type=FADEIN_000,param=1.5:00&00&00:0:0:0:0:0:0:0:0:0,#
*,type=WAIT_0000,param=2.5:0:0:0:0:0:0:0:0:0:0,#
*,type=STOP,param=0:0:0:0:0:0:0:0:0:0:0,#
*,type=HCHR_ENT00,param=chr_Vollhein:ヴォルハイン:N$chara_bf2_209:$POS_Center:TYPE$middle:Z$10:0:0:0:0:0,#
*,type=STOP,param=0:0:0:0:0:0:0:0:0:0:0,#
*,type=HCHR_FDM00,param=all:MSK$off:0:0:0:0:0:0:0:0:0,#
*,type=SE_0000,param=345:0:0:0:0:0:0:0:0:0:0,#
*,type=HCHR_POS00,param=chr_Vollhein:IN$right:T$0.15:$OFS_Center:0:0:0:0:0:0:0,#
*,type=STOP,param=0:0:0:0:0:0:0:0:0:0:0,#
*,type=HCHR_TK10,msg=一体何があったのだ！,param=chr_Vollhein:Center:BASIC:0:0:0:0:0:0:0:0,#
*,type=HCHR_TK01,param=all:skipmask:0:0:0:0:0:0:0:0:0,#
*,type=HCHR_GRP00,param=chr_Vollhein:face:bi:$FACE_FadeTime:0:0:0:0:0:0:0,#
*,type=HCHR_EFC00,param=Eff_Manp_07:chr_Vollhein:manpu_1:0:SS5$$MANP_doubt_red_b:0:0:0:0:0:0,#
*,type=WAIT_0000,param=1:0:0:0:0:0:0:0:0:0:0,#
*,type=PICT_0004,param=Eff_Manp_07:0:0:0:0:0:0:0:0:0:0,#
*,type=HCHR_TK00,msg=あれは……<wait=3>人間？,param=chr_Vollhein:$Mono_M_C:0:0:0:0:0:OFS$0&50:0:0:0,#
*,type=HCHR_GRP00,param=chr_Vollhein:face:ku:$FACE_FadeTime:0:0:0:0:0:0:0,#
*,type=HCHR_TK00,msg=我が里への立ち入りは禁止されているはず。<wait=3><br>協定違反で殺されても文句は言えないぞ！,param=chr_Vollhein:$Mono_LL_C:0:0:0:0:0:OFS$0&50:0:0:0,#
*,type=HCHR_TK01,param=all:0:0:0:0:0:0:0:0:0:0,#
*,type=HCHR_GRP00,param=chr_Vollhein:face:fu:$FACE_FadeTime:0:0:0:0:0:0:0,#
*,type=HCHR_EFC00,param=Eff_Manp_22:chr_Vollhein:manpu_1:0:SS5$$MANP_surprise_black_b_02:0:1:0:0:0:0,#
*,type=WAIT_0000,param=0.5:0:0:0:0:0:0:0:0:0:0,#
*,type=HCHR_TK10,msg=いや、<wait=1>違う……<wait=3>人間ではない。,param=chr_Vollhein:Center:BASIC:0:0:0:0:0:0:0:0,#
*,type=PICT_0004,param=Eff_Manp_22:0:0:0:0:0:0:0:0:0:0,#
*,type=HCHR_TK01,param=all:0:0:0:0:0:0:0:0:0:0,#
*,type=WAIT_0000,param=0.5:0:0:0:0:0:0:0:0:0:0,#
*,type=HCHR_GRP00,param=chr_Vollhein:face:ki:$FACE_FadeTime:0:0:0:0:0:0:0,#
*,type=HCHR_TK10,msg=有翼族！<wait=3><br>生き残りがいたのか!!,param=chr_Vollhein:Center:BASIC:0:0:0:0:0:0:0:0,#
*,type=HCHR_TK01,param=all:0:0:0:0:0:0:0:0:0:0,#
*,type=FADEOUT_000,param=1.5:$BGBLACK_Color:0:0:0:0:0:0:0:0:0,#
*,type=BGM_0001,param=1.5:0:0:0:0:0:0:0:0:0:0,#
*,type=WAIT_0000,param=2:0:0:0:0:0:0:0:0:0:0,#
*,type=CLSNE_0000,param=0:0:0:0:0:0:0:0:0:0:0,#

*,type=SYSED_00,param=0:0:0:0:0:0:0:0:0:0:0,#



