﻿ScriptCmd ver 1.1.1(app1.0.4):ストクエスクリプト_018_斜陽のルーメラクス_battle.xlsm/story018-02-04/story018-02-04.csv

*,type=SYSST_00,param=0:0:0:0:0:0:0:0:0:0:0,#
*,type=CMD_STOP,param=0:0:0:0:0:0:0:0:0:0:0,#
*,type=SYSST_01,param=0:0:0:0:0:0:0:0:0:0:0,#


*,type=EVT_CHKTRG,param=0:0:0:0:0:0:0:0:0:0:0,#
*,type=BGM_0000,param=42:1.5:0:0:0:0:0:0:0:0:0,#
*,type=EVT_BTL_STARTBTL,param=1:0:0:0:0:0:0:0:0:0:0,#
*,type=SWJUMP_0000,param=ONJUMP:12001003:sq13-08-02-battlestart:0:0:0:0:0:0:0:0,#
*,type=BTL_PanelMask,param=ON:0:0:0:0:0:0:0:0:0:0,#
*,type=BTL_CMD,param=unit_panel:PPTALL:OFF:0:0:0:0:0:0:0:0,#
*,type=BTL_EnemyHpBarVisible,param=OFF:0:0:0:0:0:0:0:0:0:0,#
*,type=BTL_ChangeParty,param=ON:21312:5016028:0:0:0:0:0:0:0:0,#
*,type=BTL_WaitAction,param=10:0:0:0:0:0:0:0:0:0:0,#
*,type=BTL_ReqAction,param=PINDEX$0:0:MOVETOFIX:500$452$0$MOVE$IDLE:0:0:0:0:0:0:0,#
*,type=BTL_ReqAction,param=PINDEX$1:0:MOVETO:1000$DEFAULT$0$MOVE$IDLE:0:0:0:0:0:0:0,#
*,type=BTL_ReqAction,param=MINDEX$1:0:MOVETOFIX:198$352$0$MOVE$IDLE:0:0:0:0:0:0:0,#
*,type=BTL_ReqAction,param=MINDEX$2:0:MOVETOFIX:198$452$0$MOVE$IDLE:0:0:0:0:0:0:0,#
*,type=BTL_ReqAction,param=MINDEX$3:0:MOVETOFIX:198$552$0$MOVE$IDLE:0:0:0:0:0:0:0,#
*,type=BTL_WaitAction,param=1:0:0:0:0:0:0:0:0:0:0,#
*,type=BTL_FADE,param=IN:0:0:0:0:0:0:0:0:0:0,#
*,type=WAIT_0000,param=1.5:0:0:0:0:0:0:0:0:0:0,#
*,type=SE_0000,param=346:0:0:0:0:0:0:0:0:0:0,#
*,type=HCHR_ENT00,param=chr_Harold:ハロルド:N$chara_bf2_188_b:$BTLPOS_Left:TYPE$middle:Z$10:0:0:0:0:0,#
*,type=HCHR_ENT00,param=chr_Adic:アディック:N$chara_bf2_195_b:$BTLPOS_Left:TYPE$middle:Z$10:0:0:0:0:0,#
*,type=HCHR_ENT00,param=chr_Summoner:ならず者:N$chara_bf2_39_b:$BTLPOS_Right:TYPE$middle:Z$10:0:XFLIP$SET:0:0:0,#
*,type=STOP,param=0:0:0:0:0:0:0:0:0:0:0,#
*,type=HCHR_GRP00,param=chr_Harold:face:ku:0:0:0:0:0:0:0:0,#
*,type=HCHR_POS00,param=chr_Harold:FADEIN:$CHARA_FadeTime:0:0:0:0:0:0:0:0,#
*,type=STOP,param=0:0:0:0:0:0:0:0:0:0:0,#
*,type=HCHR_TK00,msg=いかん、<wait=1>このままでは<br>殺し合いに発展しかねん。,param=chr_Harold:$Mono_L_L:0:0:0:0:0:0:0:0:0,#
*,type=HCHR_TK00,msg=荒っぽいが、<wait=1>血の気の多い奴を<br>何人か殴り飛ばすしかあるまい。,param=chr_Harold:$Mono_L_L:0:0:0:0:0:0:0:0:0,#
*,type=HCHR_TK01,param=all:0:0:0:0:0:0:0:0:0:0,#
*,type=HCHR_POS00,param=chr_Harold:FADEOUT:T$0.2:0:0:0:0:0:0:0:0,#
*,type=STOP,param=0:0:0:0:0:0:0:0:0:0:0,#
*,type=SE_0000,param=345:0:0:0:0:0:0:0:0:0:0,#
*,type=BTL_ReqAction,param=PINDEX$1:0:MOVETOFIX:550$552$0.8$MOVE$IDLE:0:0:0:0:0:0:0,#
*,type=BTL_WaitAction,param=1:0:0:0:0:0:0:0:0:0:0,#
*,type=WAIT_0000,param=1:0:0:0:0:0:0:0:0:0:0,#
*,type=HCHR_GRP00,param=chr_Adic:face:fu:0:0:0:0:0:0:0:0,#
*,type=HCHR_POS00,param=chr_Adic:FADEIN:$CHARA_FadeTime:0:0:0:0:0:0:0:0,#
*,type=STOP,param=0:0:0:0:0:0:0:0:0:0:0,#
*,type=HCHR_TK10,msg=よぅ、<wait=1>おっさん。,param=chr_Adic:Left:BATTLE:0:0:0:0:0:0:0:0,#
*,type=HCHR_TK01,param=all:0:0:0:0:0:0:0:0:0:0,#
*,type=HCHR_POS00,param=chr_Adic:FADEOUT:$CHARA_FadeTime:0:0:0:0:0:0:0:0,#
*,type=STOP,param=0:0:0:0:0:0:0:0:0:0:0,#
*,type=HCHR_GRP00,param=chr_Harold:face:fu:0:0:0:0:0:0:0:0,#
*,type=HCHR_POS00,param=chr_Harold:FADEIN:$CHARA_FadeTime:0:0:0:0:0:0:0:0,#
*,type=STOP,param=0:0:0:0:0:0:0:0:0:0:0,#
*,type=HCHR_TK10,msg=お前か、<wait=1>今は取り込み中だ。,param=chr_Harold:Left:BATTLE:0:0:0:0:0:0:0:0,#
*,type=HCHR_TK01,param=all:0:0:0:0:0:0:0:0:0:0,#
*,type=HCHR_POS00,param=chr_Harold:FADEOUT:$CHARA_FadeTime:0:0:0:0:0:0:0:0,#
*,type=STOP,param=0:0:0:0:0:0:0:0:0:0:0,#
*,type=HCHR_GRP00,param=chr_Adic:face:fu:0:0:0:0:0:0:0:0,#
*,type=HCHR_POS00,param=chr_Adic:FADEIN:$CHARA_FadeTime:0:0:0:0:0:0:0:0,#
*,type=STOP,param=0:0:0:0:0:0:0:0:0:0:0,#
*,type=HCHR_TK10,msg=連中の目ぇ覚まさせるんだろ？<wait=3><br>オレにもやらせろよ。,param=chr_Adic:Left:BATTLE:0:0:0:0:0:0:0:0,#
*,type=HCHR_TK10,msg=おっと、<wait=1>勘違いすんなよ？<wait=3><br>オレはただ……,param=chr_Adic:Left:BATTLE:0:0:0:0:0:0:0:0,#
*,type=HCHR_TK01,param=all:0:0:0:0:0:0:0:0:0:0,#
*,type=HCHR_POS00,param=chr_Adic:FADEOUT:$CHARA_FadeTime:0:0:0:0:0:0:0:0,#
*,type=STOP,param=0:0:0:0:0:0:0:0:0:0:0,#
*,type=HCHR_GRP00,param=chr_Harold:face:ki:0:0:0:0:0:0:0:0,#
*,type=HCHR_POS00,param=chr_Harold:FADEIN:$CHARA_FadeTime:0:0:0:0:0:0:0:0,#
*,type=STOP,param=0:0:0:0:0:0:0:0:0:0:0,#
*,type=HCHR_TK10,msg=お前の心根は分かっている。,param=chr_Harold:Left:BATTLE:0:0:0:0:0:0:0:0,#
*,type=HCHR_GRP00,param=chr_Harold:face:fu:0:0:0:0:0:0:0:0,#
*,type=HCHR_TK10,msg=行くぞ、<wait=1>手伝え。,param=chr_Harold:Left:BATTLE:0:0:0:0:0:0:0:0,#
*,type=HCHR_TK01,param=all:0:0:0:0:0:0:0:0:0:0,#
*,type=HCHR_POS00,param=chr_Harold:FADEOUT:$CHARA_FadeTime:0:0:0:0:0:0:0:0,#
*,type=STOP,param=0:0:0:0:0:0:0:0:0:0:0,#
*,type=HCHR_GRP00,param=chr_Adic:face:ki:0:0:0:0:0:0:0:0,#
*,type=HCHR_POS00,param=chr_Adic:FADEIN:$CHARA_FadeTime:0:0:0:0:0:0:0:0,#
*,type=STOP,param=0:0:0:0:0:0:0:0:0:0:0,#
*,type=HCHR_TK10,msg=ハッ、<wait=1>最初からそう言っとけ。,param=chr_Adic:Left:BATTLE:0:0:0:0:0:0:0:0,#
*,type=HCHR_TK01,param=all:0:0:0:0:0:0:0:0:0:0,#
*,type=HCHR_POS00,param=chr_Adic:FADEOUT:$CHARA_FadeTime:0:0:0:0:0:0:0:0,#
*,type=STOP,param=0:0:0:0:0:0:0:0:0:0:0,#
*,type=WAIT_0000,param=1.5:0:0:0:0:0:0:0:0:0:0,#
*,type=MSKS_0000,param=bgBlackMask:$BGBLACK_Color:0:Z$50:T$1:0:0:0:0:0:0,#
*,type=STOP,param=0:0:0:0:0:0:0:0:0:0:0,#
*,type=BTL_ChangeParty,param=OFF:0:0:0:0:0:0:0:0:0:0,#
*,type=BTL_CMD,param=unit_panel:PPTALL:ON:0:0:0:0:0:0:0:0,#
*,type=BTL_EnemyHpBarVisible,param=ON:0:0:0:0:0:0:0:0:0:0,#
*,type=STOP,param=0:0:0:0:0:0:0:0:0:0:0,#
*,type=MSKS_0002,param=bgBlackMask:T$1:0:0:0:0:0:0:0:0:0,#
*,type=LABEL_0000,param=sq13-08-02-battlestart:0:0:0:0:0:0:0:0:0:0,#
*,type=SWJUMP_0000,param=OFFJUMP:12001003:sq13-08-02-battlestart-2:0:0:0:0:0:0:0:0,#
*,type=BTL_STORY,param=START:0:0:SKIPFADE:0:0:0:0:0:0:0,#
*,type=BTL_FADE,param=IN:0:0:0:0:0:0:0:0:0:0,#
*,type=WAIT_0000,param=1.5:0:0:0:0:0:0:0:0:0:0,#
*,type=BTL_STORY,param=END:0:0:SKIPFADE:0:0:0:0:0:0:0,#
*,type=LABEL_0000,param=sq13-08-02-battlestart-2:0:0:0:0:0:0:0:0:0:0,#
*,type=BTL_PanelMask,param=OFF:0:0:0:0:0:0:0:0:0:0,#
*,type=EVT_BLOCKEND,param=0:0:0:0:0:0:0:0:0:0:0,#

*,type=SYSED_00,param=0:0:0:0:0:0:0:0:0:0:0,#



