﻿ScriptCmd ver 1.1.1(app1.0.4):スクリプト_精霊_story_dungeon4.xlsm/story010-04-03/story010-04-03.csv

*,type=SYSST_00,param=0:0:0:0:0:0:0:0:0:0:0,#
*,type=CMD_STOP,param=0:0:0:0:0:0:0:0:0:0:0,#
*,type=SYSST_01,param=0:0:0:0:0:0:0:0:0:0:0,#


*,type=SETENV_0000,param=SET$EXLAYER:0:0:0:0:0:0:0:0:0:0,#
*,type=PICT_0000,param=bg_01:battle_bg_sq_010_03_1.jpg:1:bg$202090105:0:0:0:2:0:0:0,#
*,type=BGM_0000,param=1012:0:0:0:0:0:0:0:0:0:0,#
*,type=FADEIN_000,param=1.5:00&00&00:0:0:0:0:0:0:0:0:0,#
*,type=WAIT_0000,param=2.5:0:0:0:0:0:0:0:0:0:0,#
*,type=HCHR_ENT00,param=chr_sq010_light:レティスト:N$chara_bf2_142:$POS_Center:TYPE$middle:Z$10:0:0:0:0:0,#
*,type=HCHR_ENT00,param=chr_sq010_fairy:ルピ:N$chara_bf2_143:$POS_Center:TYPE$middle:Z$10:0:0:0:0:0,#
*,type=HCHR_ENT00,param=chr_sq010_fire:ネスタ:N$chara_bf2_145:$POS_Center:TYPE$middle:Z$10:0:0:0:0:0,#
*,type=HCHR_ENT00,param=chr_sq010_tree:クロネア:N$chara_bf2_151:$POS_Center:TYPE$middle:Z$10:0:0:0:0:0,#
*,type=HCHR_ENT00,param=chr_sq010_thunder:メイリン:N$chara_bf2_148:$POS_Center:TYPE$middle:Z$10:0:0:0:0:0,#
*,type=HCHR_ENT00,param=chr_sq010_water:？？？:N$chara_bf2_153:$POS_Center:TYPE$middle:Z$10:0:0:0:0:0,#
*,type=STOP,param=0:0:0:0:0:0:0:0:0:0:0,#
*,type=HCHR_FDM00,param=chr_sq010_fairy:MSK$on:0:0:0:0:0:0:0:0:0,#
*,type=HCHR_GRP00,param=chr_sq010_light:face:ku:0:0:0:0:0:0:0:0,#
*,type=HCHR_GRP00,param=chr_sq010_fairy:face:mj:0:0:0:0:0:0:0:0,#
*,type=STOP,param=0:0:0:0:0:0:0:0:0:0:0,#
*,type=HCHR_POS00,param=chr_sq010_light:FADEIN:$CHARA_FadeTime:$OFS_Center:Z$11:0:0:0:0:0:0,#
*,type=HCHR_POS00,param=chr_sq010_fairy:FADEIN:$CHARA_FadeTime:$OFS_Left:0:0:0:0:0:0:0,#
*,type=STOP,param=0:0:0:0:0:0:0:0:0:0:0,#
*,type=HCHR_TK10,msg=ダメだ、<wait=1.5>全然話を聞いてくれそうにない…,param=chr_sq010_light:Center:BASIC:0:0:0:0:0:0:0:0,#
*,type=HCHR_TK10,msg=<speed=7>仕方ないわね…,param=chr_sq010_fairy:Left:BASIC:0:0:0:0:0:0:0:0,#
*,type=HCHR_TK10,msg=<speed=5>とにかく<wait=1.5><br>まずは精霊を探しましょ──,param=chr_sq010_fairy:Left:BASIC:0:0:0:0:0:0:0:0,#
*,type=HCHR_TK01,param=ALL:skipmask:0:0:0:0:0:0:0:0:0,#
*,type=HCHR_POS00,param=chr_sq010_light:FADEOUT:$CHARA_FadeTime:0:0:0:0:0:0:0:0,#
*,type=HCHR_POS00,param=chr_sq010_fairy:FADEOUT:$CHARA_FadeTime:0:0:0:0:0:0:0:0,#
*,type=WAIT_0000,param=0.8:0:0:0:0:0:0:0:0:0:0,#
*,type=QUAK_0000,param=0.05:10:4:4:0:0:0:0:0:0:0,#
*,type=SE_0000,param=322:0:0:0:0:0:0:0:0:0:0,#
*,type=WAIT_0000,param=1.2:0:0:0:0:0:0:0:0:0:0,#
*,type=EFFECT_GP,param=60010014:320:568:0:0:70:0:0:0:0:0,#
*,type=SE_0000,param=227:0:0:0:0:0:0:0:0:0:0,#
*,type=HCHR_FDM00,param=chr_sq010_water:MSK$off:1:0:0:0:0:0:0:0:0,#
*,type=HCHR_POS00,param=chr_sq010_water:FADEIN:T$1:$OFS_Center:0:0:0:0:0:0:0,#
*,type=WAIT_0000,param=1.5:0:0:0:0:0:0:0:0:0:0,#
*,type=HCHR_TK10,msg=<speed=7>どこへ行くのですか…？,param=chr_sq010_water:Center:BASIC:0:0:0:0:0:0:0:0,#
*,type=HCHR_TK01,param=all:0:0:0:0:0:0:0:0:0:0,#
*,type=HCHR_POS00,param=chr_sq010_water:FADEOUT:T$0.1:0:0:0:0:0:0:0:0,#
*,type=STOP,param=0:0:0:0:0:0:0:0:0:0:0,#
*,type=HCHR_GRP00,param=chr_sq010_fire:face:do:0:0:0:0:0:0:0:0,#
*,type=HCHR_GRP00,param=chr_sq010_light:face:bi:0:0:0:0:0:0:0:0,#
*,type=HCHR_FDM00,param=chr_sq010_fire:MSK$on:0:0:0:0:0:0:0:0:0,#
*,type=HCHR_POS00,param=chr_sq010_light:FADEIN:$CHARA_FadeTime:$OFS_Left:Z$11:0:0:0:0:0:0,#
*,type=HCHR_POS00,param=chr_sq010_fire:FADEIN:$CHARA_FadeTime:$OFS_Right:Z$10:0:0:0:0:0:0,#
*,type=STOP,param=0:0:0:0:0:0:0:0:0:0:0,#
*,type=HCHR_EFC00,param=mnp:chr_sq010_light:manpu_1:OFS$0&0:SS5$$MANP_surprise_black_d_02:0:1:0:0:0:0,#
*,type=WAIT_0000,param=0.8:0:0:0:0:0:0:0:0:0:0,#
*,type=PICT_0004,param=mnp:0:0:0:0:0:0:0:0:0:0,#
*,type=HCHR_TK10,msg=出た！,param=chr_sq010_fire:Right:BASIC:0:0:0:0:0:0:0:0,#
*,type=HCHR_TK10,msg=<speed=7>これは…<wait=1.5><br>『水底姫』の、<wait=1>アマネ…,param=chr_sq010_light:Left:BASIC:0:0:0:0:0:0:0:0,#
*,type=HCHR_TK01,param=all:skipmask:0:0:0:0:0:0:0:0:0,#
*,type=HCHR_POS00,param=chr_sq010_fire:OUT$right:T$0.5:0:Z$10:0:0:0:0:0:0,#
*,type=HCHR_POS00,param=chr_sq010_light:IN$left$320:T$0.5:$OFS_Right:Z$11:0:0:0:0:0:0,#
*,type=HCHR_FDM00,param=chr_sq010_light:MSK$on:0.5:0:0:0:0:0:0:0:0,#
*,type=HCHR_POS00,param=chr_sq010_water:FADEIN:T$0.5:$OFS_Left:Z$12:0:0:0:0:0:0,#
*,type=HCHR_FDM00,param=chr_sq010_water:MSK$off:0.5:0:0:0:0:0:0:0:0,#
*,type=WAIT_0000,param=0.7:0:0:0:0:0:0:0:0:0:0,#
*,type=HCHR_PRM00,param=chr_sq010_water:NAME$アマネ:0:0:0:0:0:0:0:0:0,#
*,type=HCHR_TK10,msg=さぁ、<wait=1.5>あなたたちも<br>私と一緒に行きましょう。,param=chr_sq010_water:Left:BASIC:0:0:0:0:0:0:0:0,#
*,type=HCHR_GRP00,param=chr_sq010_water:face:ki:$FACE_FadeTime:0:0:0:0:0:0:0,#
*,type=HCHR_TK10,msg=楽しい夢の中へ…,param=chr_sq010_water:Left:BASIC:0:0:0:0:0:0:0:0,#
*,type=HCHR_GRP00,param=chr_sq010_light:face:mu:$FACE_FadeTime:0:0:0:0:0:0:0,#
*,type=HCHR_TK10,msg=…俺たちは行けない。,param=chr_sq010_light:Right:BASIC:0:0:0:0:0:0:0:0,#
*,type=HCHR_GRP00,param=chr_sq010_water:face:fu:$FACE_FadeTime:0:0:0:0:0:0:0,#
*,type=HCHR_TK10,msg=どうして…？,param=chr_sq010_water:Left:BASIC:0:0:0:0:0:0:0:0,#
*,type=HCHR_TK10,msg=ここには、<wait=1>あなたの望むものが<br>何でもあるのに…,param=chr_sq010_water:Left:BASIC:0:0:0:0:0:0:0:0,#
*,type=HCHR_TK01,param=all:skipmask:0:0:0:0:0:0:0:0:0,#
*,type=HCHR_GRP00,param=chr_sq010_water:face:fu:0:0:0:0:0:0:0:0,#
*,type=HCHR_PRM00,param=chr_sq010_light:Z$10:0:0:0:0:0:0:0:0:0,#
*,type=HCHR_PRM00,param=chr_sq010_water:Z$11:0:0:0:0:0:0:0:0:0,#
*,type=FADEOUT_000,param=0.8:80&180&255:0:0:0:0:0:0:0:0:0,#
*,type=SE_0000,param=343:0:0:0:0:0:0:0:0:0:0,#
*,type=STOP,param=0:0:0:0:0:0:0:0:0:0:0,#
*,type=SPKG_0000,param=aura:sc_aura01_loopblue.vfxb:20:300:500:1:0:0:0:0:0,#
*,type=SE_0000,param=349:0:0:0:0:0:0:0:0:0:0,#
*,type=WAIT_0000,param=1.5:0:0:0:0:0:0:0:0:0:0,#
*,type=SPKG_0001,param=aura:KICK$1:0:0:0:0:0:0:0:0:0,#
*,type=WAIT_0000,param=0.3:0:0:0:0:0:0:0:0:0:0,#
*,type=HCHR_GRP00,param=chr_sq010_light:face:bi:$FACE_FadeTime:0:0:0:0:0:0:0,#
*,type=HCHR_EFC00,param=Eff_Manp_16:chr_sq010_light:manpu_1:0:SS5$$MANP_surprise_black_d:0:1:0:0:0:0,#
*,type=HCHR_TK10,msg=<speed=7>これは…！,param=chr_sq010_light:Right:BASIC:0:0:0:0:0:0:0:0,#
*,type=PICT_0004,param=Eff_Manp_16:0:0:0:0:0:0:0:0:0:0,#
*,type=HCHR_GRP00,param=chr_sq010_light:face:ki:$FACE_FadeTime:0:0:0:0:0:0:0,#
*,type=HCHR_TK10,msg=<speed=3>す、<wait=1>すごい！<wait=3><br>最新式の画材がこんなに！,param=chr_sq010_light:Right:BASIC:0:0:0:0:0:0:0:0,#
*,type=HCHR_TK10,msg=<speed=2>うわぁ！<wait=2>この筆、<wait=1>見たことない形状だ！<wait=3><br>触ってもいいかな<speed=0>!?,param=chr_sq010_light:Right:BASIC:0:0:0:0:0:0:0:0,#
*,type=HCHR_TK01,param=all:skipmask:0:0:0:0:0:0:0:0:0,#
*,type=HCHR_POS00,param=chr_sq010_light:FADEOUT:T$0.1:0:0:0:0:0:0:0:0,#
*,type=HCHR_POS00,param=chr_sq010_water:FADEOUT:T$0.1:0:0:0:0:0:0:0:0,#
*,type=STOP,param=0:0:0:0:0:0:0:0:0:0:0,#
*,type=HCHR_FDM00,param=chr_sq010_thunder:MSK$off:0:0:0:0:0:0:0:0:0,#
*,type=HCHR_GRP00,param=chr_sq010_fire:face:ki:$FACE_FadeTime:0:0:0:0:0:0:0,#
*,type=HCHR_POS00,param=chr_sq010_thunder:FADEIN:$CHARA_FadeTime:$OFS_Right:Z$11:0:0:0:0:0:0,#
*,type=HCHR_POS00,param=chr_sq010_fire:FADEIN:$CHARA_FadeTime:$OFS_Left:0:0:0:0:0:0:0,#
*,type=STOP,param=0:0:0:0:0:0:0:0:0:0:0,#
*,type=HCHR_TK10,msg=<speed=7>師匠には何が見えていル…？,param=chr_sq010_thunder:Right:BASIC:0:0:0:0:0:0:0:0,#
*,type=HCHR_TK10,msg=私にも見せろ！,param=chr_sq010_fire:Left:BASIC:0:0:0:0:0:0:0:0,#
*,type=HCHR_TK01,param=all:skipmask:0:0:0:0:0:0:0:0:0,#
*,type=HCHR_POS00,param=chr_sq010_thunder:FADEOUT:T$0.1:0:0:0:0:0:0:0:0,#
*,type=HCHR_POS00,param=chr_sq010_fire:FADEOUT:T$0.1:0:0:0:0:0:0:0:0,#
*,type=HCHR_FDM00,param=chr_sq010_fairy:MSK$of:0:0:0:0:0:0:0:0:0,#
*,type=HCHR_GRP00,param=chr_sq010_fairy:face:pu:0:0:0:0:0:0:0:0,#
*,type=HCHR_GRP00,param=chr_sq010_tree:face:gi:0:0:0:0:0:0:0:0,#
*,type=STOP,param=0:0:0:0:0:0:0:0:0:0:0,#
*,type=HCHR_POS00,param=chr_sq010_fairy:FADEIN:$CHARA_FadeTime:$OFS_Left:Z$12:0:0:0:0:0:0,#
*,type=HCHR_POS00,param=chr_sq010_tree:FADEIN:$CHARA_FadeTime:$OFS_Right:Z$10:0:0:0:0:0:0,#
*,type=STOP,param=0:0:0:0:0:0:0:0:0:0:0,#
*,type=HCHR_SHK00,param=chr_sq010_fairy:0&8:0.2:0.6:0:0:0:0:0:0:0,#
*,type=HCHR_TK10,msg=もうっ、<wait=2>しっかりしなさいよ<br>レティストーっ！,param=chr_sq010_fairy:Left:BASIC:0:0:0:0:0:0:0:0,#
*,type=HCHR_TK10,msg=レティストに近付かないで…,param=chr_sq010_tree:Right:BASIC:0:0:0:0:0:0:OFS$0&110:0,#
*,type=HCHR_TK01,param=ALL:skipmask:0:0:0:0:0:0:0:0:0,#
*,type=HCHR_SHK00,param=chr_sq010_tree:15:0.05:0.2:0:0:0:0:0:0:0,#
*,type=WAIT_0000,param=0.5:0:0:0:0:0:0:0:0:0:0,#
*,type=HCHR_GRP00,param=chr_sq010_tree:face:bi:$FACE_FadeTime:0:0:0:0:0:0:0,#
*,type=HCHR_GRP00,param=chr_sq010_tree:face:fu:$FACE_FadeTime:0:0:0:0:0:0:0,#
*,type=HCHR_EFC00,param=mnp:chr_sq010_tree:manpu_1:OFS$0&0:SS5$$MANP_doubt_black_b:0:1:0:0:0:0,#
*,type=WAIT_0000,param=0.8:0:0:0:0:0:0:0:0:0:0,#
*,type=PICT_0004,param=mnp:0:0:0:0:0:0:0:0:0:0,#
*,type=HCHR_TK10,msg=<speed=7>…力が…<wait=2>入らない…？,param=chr_sq010_tree:Right:BASIC:0:0:0:0:0:0:OFS$0&110:0,#
*,type=HCHR_GRP00,param=chr_sq010_fairy:face:do:$FACE_FadeTime:0:0:0:0:0:0:0,#
*,type=HCHR_TK10,msg=あなたは休んでいて！,param=chr_sq010_fairy:Left:BASIC:0:0:0:0:0:0:0:0,#
*,type=HCHR_TK01,param=ALL:0:0:0:0:0:0:0:0:0:0,#
*,type=HCHR_POS00,param=chr_sq010_tree:FADEOUT:T$0.3:0:Z$10:0:0:0:0:0:0,#
*,type=HCHR_GRP00,param=chr_sq010_fire:face:mu:$FACE_FadeTime:0:0:0:0:0:0:0,#
*,type=HCHR_POS00,param=chr_sq010_fire:FADEIN:T$0.3:$OFS_Right:Z$11:0:0:0:0:0:0,#
*,type=WAIT_0000,param=0.5:0:0:0:0:0:0:0:0:0:0,#
*,type=HCHR_TK10,msg=ネスタ！<wait=2>あなたも力が弱まってるんだから<br>無理しちゃダメよ！,param=chr_sq010_fairy:Left:BASIC:0:0:0:0:0:0:0:0,#
*,type=HCHR_TK10,msg=……………,param=chr_sq010_fire:Right:BASIC:0:0:0:0:0:0:0:0,#
*,type=HCHR_TK01,param=all:skipmask:0:0:0:0:0:0:0:0:0,#
*,type=HCHR_POS00,param=chr_sq010_fairy:FADEOUT:T$0.1:0:0:0:0:0:0:0:0,#
*,type=HCHR_POS00,param=chr_sq010_fire:FADEOUT:T$0.1:0:0:0:0:0:0:0:0,#
*,type=HCHR_GRP00,param=chr_sq010_water:face:do:0:0:0:0:0:0:0:0,#
*,type=HCHR_FDM00,param=chr_sq010_water:MSK$off:0.3:0:0:0:0:0:0:0:0,#
*,type=STOP,param=0:0:0:0:0:0:0:0:0:0:0,#
*,type=HCHR_POS00,param=chr_sq010_water:FADEIN:$CHARA_FadeTime:$OFS_Center:0:0:0:0:0:0:0,#
*,type=STOP,param=0:0:0:0:0:0:0:0:0:0:0,#
*,type=HCHR_TK10,msg=<speed=7>…逃がさない……,param=chr_sq010_water:Center:BASIC:0:0:0:0:0:0:0:0,#
*,type=HCHR_TK01,param=all:0:0:0:0:0:0:0:0:0:0,#
*,type=FADEOUT_000,param=1.5:$BGBLACK_Color:0:0:0:0:0:0:0:0:0,#
*,type=BGM_0001,param=1.5:0:0:0:0:0:0:0:0:0:0,#
*,type=WAIT_0000,param=2:0:0:0:0:0:0:0:0:0:0,#
*,type=CLSNE_0000,param=0:0:0:0:0:0:0:0:0:0:0,#

*,type=SYSED_00,param=0:0:0:0:0:0:0:0:0:0:0,#



