﻿ScriptCmd ver 1.1.1(app1.0.4):スクリプト_精霊_battle_0618.xlsm/story010-01-02/story010-01-02.csv

*,type=SYSST_00,param=0:0:0:0:0:0:0:0:0:0:0,#
*,type=CMD_STOP,param=0:0:0:0:0:0:0:0:0:0:0,#
*,type=SYSST_01,param=0:0:0:0:0:0:0:0:0:0:0,#


*,type=EVT_CHKTRG,param=0:0:0:0:0:0:0:0:0:0:0,#
*,type=EVT_BTL_STARTBTL,param=1:0:0:0:0:0:0:0:0:0:0,#
*,type=BTL_PanelMask,param=ON:0:0:0:0:0:0:0:0:0:0,#
*,type=MSKS_0000,param=bgBlackMask:$BGBLACK_Color:0:Z$1:T$0.75:0:0:0:0:0:0,#
*,type=BTL_WaitAction,param=60:0:0:0:0:0:0:0:0:0:0,#
*,type=BTL_ChangeParty,param=ON:20500:5008020:0:0:0:0:0:0:0:0,#
*,type=BTL_WaitAction,param=30:0:0:0:0:0:0:0:0:0:0,#
*,type=BTL_ReqAction,param=MINDEX$1:0:MOVETO:198$452$0.2$MOVE$IDLE:0:0:0:0:0:0:0,#
*,type=BTL_ReqAction,param=MINDEX$2:0:MOVETO:78$392$0.2$MOVE$IDLE:0:0:0:0:0:0:0,#
*,type=BTL_ReqAction,param=MINDEX$3:0:MOVETO:78$522$0.2$MOVE$IDLE:0:0:0:0:0:0:0,#
*,type=BTL_WaitAction,param=60:0:0:0:0:0:0:0:0:0:0,#
*,type=MSKS_0002,param=bgBlackMask:T$0.75:0:0:0:0:0:0:0:0:0,#
*,type=BTL_WaitAction,param=30:0:0:0:0:0:0:0:0:0:0,#
*,type=BTL_INSENSITIVE_MONSTER,param=MINDEX$1:1:0:0:0:0:0:0:0:0:0,#
*,type=STOP,param=0:0:0:0:0:0:0:0:0:0:0,#
*,type=BTL_STORY,param=START:0:0:SKIPFADE:0:0:0:0:0:0:0,#
*,type=HCHR_ENT00,param=chr_Latest:レティスト:N$chara_bf2_142_b:$BTLPOS_Left:TYPE$middle:Z$10:0:0:0:0:0,#
*,type=HCHR_ENT00,param=chr_Rupee:ルピ:N$chara_bf2_143_b:$BTLPOS_Center:TYPE$middle:Z$10:0:0:0:0:0,#
*,type=HCHR_ENT00,param=chr_Mob_a:市民:N$chara_bf2_82_b:$BTLPOS_Left:TYPE$middle:Z$10:0:XFLIP$SET:0:0:0,#
*,type=HCHR_ENT00,param=chr_Mob_b:市民:N$chara_bf2_82_b:$BTLPOS_Right:TYPE$middle:Z$10:0:0:0:0:0,#
*,type=HCHR_ENT00,param=chr_Mob_c:市民:N$chara_bf2_82_b:$BTLPOS_Right:TYPE$middle:Z$10:0:XFLIP$SET:0:0:0,#
*,type=STOP,param=0:0:0:0:0:0:0:0:0:0:0,#
*,type=BTL_FADE,param=IN:0:0:0:0:0:0:0:0:0:0,#
*,type=BTL_WaitAction,param=60:0:0:0:0:0:0:0:0:0:0,#
*,type=HCHR_GRP00,param=chr_Latest:face:do:0:0:0:0:0:0:0:0,#
*,type=HCHR_GRP00,param=chr_Rupee:face:do:0:0:0:0:0:0:0:0,#
*,type=HCHR_FDM00,param=chr_Rupee:MSK$on:0:0:0:0:0:0:0:0:0,#
*,type=HCHR_POS00,param=chr_Latest:FADEIN:$CHARA_FadeTime:0:0:0:0:0:0:0:0,#
*,type=HCHR_POS00,param=chr_Rupee:FADEIN:$CHARA_FadeTime:0:0:0:0:0:0:0:0,#
*,type=STOP,param=0:0:0:0:0:0:0:0:0:0:0,#
*,type=HCHR_TK10,msg=みんな！<wait=2><br>戦いはやめるんだ──,param=chr_Latest:Left:BASIC:0:0:0:0:0:0:0:0,#
*,type=HCHR_TK01,param=all:skipmask:0:0:0:0:0:0:0:0:0,#
*,type=HCHR_POS00,param=chr_Latest:FADEOUT:T$0.1:0:0:0:0:0:0:0:0,#
*,type=HCHR_POS00,param=chr_Rupee:FADEOUT:T$0.1:0:0:0:0:0:0:0:0,#
*,type=STOP,param=0:0:0:0:0:0:0:0:0:0:0,#
*,type=HCHR_GRP00,param=chr_Mob_a:face:ya:0:0:0:0:0:0:0:0,#
*,type=HCHR_GRP00,param=chr_Mob_b:face:ya:0:0:0:0:0:0:0:0,#
*,type=HCHR_POS00,param=chr_Mob_a:FADEIN:$CHARA_FadeTime:0:0:0:0:0:0:0:0,#
*,type=HCHR_POS00,param=chr_Mob_b:FADEIN:$CHARA_FadeTime:0:0:0:0:0:0:0:0,#
*,type=STOP,param=0:0:0:0:0:0:0:0:0:0:0,#
*,type=SE_0000,param=309:0:0:0:0:0:0:0:0:0:0,#
*,type=HCHR_TK00,msg=<speed=3>うるさい！<wait=2>,param=chr_Mob_a:$Shout_S_L:0:0:0:0:0:0:0:0:0,#
*,type=HCHR_FDM00,param=chr_Mob_a:MSK$on:0:0:0:0:0:0:0:0:0,#
*,type=HCHR_FDM00,param=chr_Mob_b:MSK$off:0:0:0:0:0:0:0:0:0,#
*,type=SE_0000,param=311:0:0:0:0:0:0:0:0:0:0,#
*,type=HCHR_TK00,msg=<speed=3>うらぁ！,param=chr_Mob_b:$Shout_S_R:0:0:focusoff:0:0:0:0:0:0,#
*,type=HCHR_TK01,param=all:skipmask:0:0:0:0:0:0:0:0:0,#
*,type=HCHR_POS00,param=chr_Mob_a:FADEOUT:T$0.1:0:0:0:0:0:0:0:0,#
*,type=HCHR_POS00,param=chr_Mob_b:FADEOUT:T$0.1:0:0:0:0:0:0:0:0,#
*,type=STOP,param=0:0:0:0:0:0:0:0:0:0:0,#
*,type=HCHR_GRP00,param=chr_Latest:face:bi:0:0:0:0:0:0:0:0,#
*,type=HCHR_GRP00,param=chr_Rupee:face:do:0:0:0:0:0:0:0:0,#
*,type=HCHR_FDM00,param=chr_Rupee:MSK$on:0:0:0:0:0:0:0:0:0,#
*,type=HCHR_POS00,param=chr_Latest:FADEIN:$CHARA_FadeTime:0:0:0:0:0:0:0:0,#
*,type=HCHR_POS00,param=chr_Rupee:FADEIN:$CHARA_FadeTime:0:0:0:0:0:0:0:0,#
*,type=STOP,param=0:0:0:0:0:0:0:0:0:0:0,#
*,type=HCHR_TK10,msg=わ……,param=chr_Latest:Left:BASIC:0:0:0:0:0:0:0:0,#
*,type=HCHR_TK01,param=all:skipmask:0:0:0:0:0:0:0:0:0,#
*,type=STOP,param=0:0:0:0:0:0:0:0:0:0:0,#
*,type=HCHR_TK00,msg=レティスト！<wait=1><br>危ない!!,param=chr_Rupee:$Shout_S_C:0:0:0:0:0:0:0:0:0,#
*,type=CSYN_0001,param=0:0:0:0:0:0:0:0:0:0:0,#
*,type=SE_0000,param=349:0:0:0:0:0:0:0:0:0:0,#
*,type=FADEIN_000,param=0.2:255&255&255:0:0:0:0:0:0:0:0:0,#
*,type=STOP,param=0:0:0:0:0:0:0:0:0:0:0,#
*,type=FADEIN_000,param=0.2:255&255&255:0:0:0:0:0:0:0:0:0,#
*,type=STOP,param=0:0:0:0:0:0:0:0:0:0:0,#
*,type=HCHR_TK01,param=all:skipmask:0:0:0:0:0:0:0:0:0,#
*,type=HCHR_POS00,param=chr_Latest:FADEOUT:T$0.1:0:0:0:0:0:0:0:0,#
*,type=HCHR_POS00,param=chr_Rupee:FADEOUT:T$0.1:0:0:0:0:0:0:0:0,#
*,type=STOP,param=0:0:0:0:0:0:0:0:0:0:0,#
*,type=BTL_STORY,param=END:0:0:SKIPFADE:0:0:0:0:0:0:0,#
*,type=BTL_ReqAction,param=PINDEX$0:MINDEX$1:SKILL:BB:0:0:0:0:0:0:0,#
*,type=BTL_WaitAction,param=15:0:0:0:0:0:0:0:0:0:0,#
*,type=BTL_STORY,param=START:0:0:SKIPFADE:0:0:0:0:0:0:0,#
*,type=HCHR_GRP00,param=chr_Mob_c:face:ya:0:0:0:0:0:0:0:0,#
*,type=HCHR_POS00,param=chr_Mob_c:FADEIN:$CHARA_FadeTime:0:0:0:0:0:0:0:0,#
*,type=STOP,param=0:0:0:0:0:0:0:0:0:0:0,#
*,type=HCHR_TK10,msg=ぐあぁっ！,param=chr_Mob_c:Right:BASIC:0:0:0:0:0:0:0:0,#
*,type=HCHR_TK01,param=ALL:0:0:0:0:0:0:0:0:0:0,#
*,type=HCHR_POS00,param=chr_Mob_c:FADEOUT:T$0.1:0:0:0:0:0:0:0:0,#
*,type=STOP,param=0:0:0:0:0:0:0:0:0:0:0,#
*,type=BTL_STORY,param=END:0:0:SKIPFADE:0:0:0:0:0:0:0,#
*,type=BTL_MONSTER_DEATH,param=MINDEX$1:0:0:0:0:0:0:0:0:0:0,#
*,type=BTL_WaitAction,param=15:0:0:0:0:0:0:0:0:0:0,#
*,type=BTL_STORY,param=START:0:0:SKIPFADE:0:0:0:0:0:0:0,#
*,type=HCHR_GRP00,param=chr_Latest:face:ku:0:0:0:0:0:0:0:0,#
*,type=HCHR_POS00,param=chr_Latest:FADEIN:$CHARA_FadeTime:0:0:0:0:0:0:0:0,#
*,type=STOP,param=0:0:0:0:0:0:0:0:0:0:0,#
*,type=HCHR_TK10,msg=<speed=9>……………,param=chr_Latest:Left:BASIC:0:0:0:0:0:0:0:0,#
*,type=STOP,param=0:0:0:0:0:0:0:0:0:0:0,#
*,type=HCHR_GRP00,param=chr_Latest:face:bi:0:0:0:0:0:0:0:0,#
*,type=STOP,param=0:0:0:0:0:0:0:0:0:0:0,#
*,type=BTL_WaitAction,param=30:0:0:0:0:0:0:0:0:0:0,#
*,type=STOP,param=0:0:0:0:0:0:0:0:0:0:0,#
*,type=HCHR_TK10,msg=あれっ<wait=2><br><speed=7>今のは一体…？,param=chr_Latest:Left:BASIC:0:0:0:0:0:0:0:0,#
*,type=HCHR_GRP00,param=chr_Rupee:face:mj:0:0:0:0:0:0:0:0,#
*,type=HCHR_POS00,param=chr_Rupee:FADEIN:$CHARA_FadeTime:0:Z$11:0:0:0:0:0:0,#
*,type=STOP,param=0:0:0:0:0:0:0:0:0:0:0,#
*,type=HCHR_TK10,msg=私があなたに力を与えたの。,param=chr_Rupee:Center:BASIC:0:0:0:0:0:0:0:0,#
*,type=HCHR_GRP00,param=chr_Latest:face:bi:0:0:0:0:0:0:0:0,#
*,type=HCHR_TK10,msg=えっ？<wait=2><br>ルピ、<wait=1>そんなことできるの？,param=chr_Latest:Left:BASIC:0:0:0:0:0:0:0:0,#
*,type=HCHR_TK10,msg=<speed=7>俺の挿絵から生まれた妖精なのに…,param=chr_Latest:Left:BASIC:0:0:0:0:0:0:0:0,#
*,type=HCHR_TK01,param=all:skipmask:0:0:0:0:0:0:0:0:0,#
*,type=HCHR_POS00,param=chr_Latest:FADEOUT:T$0.1:0:0:0:0:0:0:0:0,#
*,type=HCHR_POS00,param=chr_Rupee:FADEOUT:T$0.1:0:0:0:0:0:0:0:0,#
*,type=STOP,param=0:0:0:0:0:0:0:0:0:0:0,#
*,type=BTL_STORY,param=END:0:0:SKIPFADE:0:0:0:0:0:0:0,#
*,type=BTL_ReqAction,param=MINDEX$2:0:MOVETO:120$392$0.4$MOVE$IDLE:0:0:0:0:0:0:0,#
*,type=BTL_ReqAction,param=MINDEX$3:0:MOVETO:120$522$0.4$MOVE$IDLE:0:0:0:0:0:0:0,#
*,type=BTL_WaitAction,param=30:0:0:0:0:0:0:0:0:0:0,#
*,type=BTL_ReqAction,param=MINDEX$2:0:MOVETO:162$392$0.4$MOVE$IDLE:0:0:0:0:0:0:0,#
*,type=BTL_ReqAction,param=MINDEX$3:0:MOVETO:162$522$0.4$MOVE$IDLE:0:0:0:0:0:0:0,#
*,type=BTL_WaitAction,param=15:0:0:0:0:0:0:0:0:0:0,#
*,type=BTL_STORY,param=START:0:0:SKIPFADE:0:0:0:0:0:0:0,#
*,type=HCHR_TK01,param=all:0:0:0:0:0:0:0:0:0:0,#
*,type=HCHR_GRP00,param=chr_Rupee:face:do:0:0:0:0:0:0:0:0,#
*,type=HCHR_POS00,param=chr_Latest:FADEIN:$CHARA_FadeTime:0:Z$10:0:0:0:0:0:0,#
*,type=HCHR_POS00,param=chr_Rupee:FADEIN:$CHARA_FadeTime:0:Z$11:0:0:0:0:0:0,#
*,type=STOP,param=0:0:0:0:0:0:0:0:0:0:0,#
*,type=HCHR_TK10,msg=説明は後よっ！<wait=2><br>今はこの人たちを止めて！,param=chr_Rupee:Center:BASIC:0:0:0:0:0:0:0:0,#
*,type=HCHR_TK01,param=all:skipmask:0:0:0:0:0:0:0:0:0,#
*,type=HCHR_POS00,param=chr_Rupee:FADEOUT:T$0.1:0:0:0:0:0:0:0:0,#
*,type=STOP,param=0:0:0:0:0:0:0:0:0:0:0,#
*,type=HCHR_ENT01,param=chr_Mob_a:T$0:0:0:0:0:0:0:0:0:0,#
*,type=HCHR_ENT01,param=chr_Latest:T$0:0:0:0:0:0:0:0:0:0,#
*,type=HCHR_ENT01,param=chr_Rupee:T$0:0:0:0:0:0:0:0:0:0,#
*,type=STOP,param=0:0:0:0:0:0:0:0:0:0:0,#
*,type=BTL_STORY,param=END:0:0:SKIPFADE:0:0:0:0:0:0:0,#
*,type=MSKS_0000,param=bgBlackMask:$BGBLACK_Color:0:Z$1:T$0.75:0:0:0:0:0:0,#
*,type=BTL_WaitAction,param=60:0:0:0:0:0:0:0:0:0:0,#
*,type=BTL_ChangeParty,param=OFF:0:0:0:0:0:0:0:0:0:0,#
*,type=WAIT_0000,param=1.5:0:0:0:0:0:0:0:0:0:0,#
*,type=MSKS_0002,param=bgBlackMask:T$0.75:0:0:0:0:0:0:0:0:0,#
*,type=BTL_WaitAction,param=15:0:0:0:0:0:0:0:0:0:0,#
*,type=BTL_PanelMask,param=OFF:0:0:0:0:0:0:0:0:0:0,#
*,type=EVT_BLOCKEND,param=0:0:0:0:0:0:0:0:0:0:0,#

*,type=SYSED_00,param=0:0:0:0:0:0:0:0:0:0:0,#



