﻿ScriptCmd ver 1.1.1:ストクエスクリプト_003_リリス.xlsm/story003-01-03/story003-01-03.csv

*,type=SYSST_00,param=0:0:0:0:0:0:0:0:0:0:0,#
*,type=CMD_STOP,param=0:0:0:0:0:0:0:0:0:0:0,#
*,type=SYSST_01,param=0:0:0:0:0:0:0:0:0:0:0,#


*,type=PICT_0000,param=bg_01:battle_bg_sq_003_01.jpg:1:bg$202030101:0:0:0:0:0:0:0,#
*,type=FADEIN_000,param=1.5:00&00&00:0:0:0:0:0:0:0:0:0,#
*,type=BGM_0000,param=1037:1.5:0:0:0:0:0:0:0:0:0,#
*,type=WAIT_0000,param=2.5:0:0:0:0:0:0:0:0:0:0,#
*,type=HCHR_ENT00,param=chr_Remiss:レミス:N$chara_bf2_78:$POS_Center:TYPE$middle:Z$10:0:0:0:0:0,#
*,type=HCHR_ENT00,param=chr_Leese:レーゼ:N$chara_bf2_77:$POS_Center:TYPE$middle:Z$10:0:0:0:0:0,#
*,type=HCHR_ENT00,param=chr_Raith:レイス:N$chara_bf2_76:$POS_Center:TYPE$middle:Z$10:0:0:0:0:0,#
*,type=HCHR_PRM00,param=chr_Remiss:XFLIP$SET:0:0:0:0:0:0:0:0:0,#
*,type=STOP,param=0:0:0:0:0:0:0:0:0:0:0,#
*,type=HCHR_GRP00,param=chr_Remiss:face:do:0:0:0:0:0:0:0:0,#
*,type=HCHR_POS00,param=chr_Remiss:FADEIN:$CHARA_FadeTime:$OFS_Center:0:0:0:0:0:0:0,#
*,type=STOP,param=0:0:0:0:0:0:0:0:0:0:0,#
*,type=WAIT_0000,param=0.5:0:0:0:0:0:0:0:0:0:0,#
*,type=SE_0000,param=300:0:0:0:0:0:0:0:0:0:0,#
*,type=QUAK_0000,param=0.05:20:10:10:0:0:0:0:0:0:0,#
*,type=EFFECT_GP,param=60010012:320:568:0:0:70:0:0:0:0:0,#
*,type=WAIT_0000,param=0.15:0:0:0:0:0:0:0:0:0:0,#
*,type=SE_0000,param=300:0:0:0:0:0:0:0:0:0:0,#
*,type=EFFECT_GP,param=60010012:320:568:0:0:70:0:0:0:0:0,#
*,type=WAIT_0000,param=0.15:0:0:0:0:0:0:0:0:0:0,#
*,type=SE_0000,param=300:0:0:0:0:0:0:0:0:0:0,#
*,type=EFFECT_GP,param=60010012:320:568:0:0:70:0:0:0:0:0,#
*,type=WAIT_0000,param=0.8:0:0:0:0:0:0:0:0:0:0,#
*,type=SE_0000,param=300:0:0:0:0:0:0:0:0:0:0,#
*,type=SE_0000,param=369:0:0:0:0:0:0:0:0:0:0,#
*,type=EFFECT_GP,param=60010012:320:568:0:0:70:0:0:0:0:0,#
*,type=QUAK_0000,param=0.04:20:15:15:0:0:0:0:0:0:0,#
*,type=WAIT_0000,param=1.7:0:0:0:0:0:0:0:0:0:0,#
*,type=SE_0000,param=215:0:0:0:0:0:0:0:0:0:0,#
*,type=WAIT_0000,param=1:0:0:0:0:0:0:0:0:0:0,#
*,type=HCHR_POS00,param=chr_Remiss:FADEOUT:$CHARA_FadeTime:0:0:0:0:0:0:0:0,#
*,type=STOP,param=0:0:0:0:0:0:0:0:0:0:0,#
*,type=WAIT_0000,param=0.5:0:0:0:0:0:0:0:0:0:0,#
*,type=HCHR_POS00,param=chr_Leese:FADEIN:$CHARA_FadeTime:$OFS_Left:0:0:0:0:0:0:0,#
*,type=HCHR_POS00,param=chr_Raith:FADEIN:$CHARA_FadeTime:$OFS_Right:0:0:0:0:0:0:0,#
*,type=HCHR_PRM00,param=chr_Raith:Z$9:0:0:0:0:0:0:0:0:0,#
*,type=HCHR_FDM00,param=ALL:MSK$on:0:0:0:0:0:0:0:0:0,#
*,type=HCHR_FDM00,param=chr_Leese:MSK$off:0.3:0:0:0:0:0:0:0:0,#
*,type=STOP,param=0:0:0:0:0:0:0:0:0:0:0,#
*,type=WAIT_0000,param=0.5:0:0:0:0:0:0:0:0:0:0,#
*,type=HCHR_GRP00,param=chr_Leese:face:ki:$FACE_FadeTime:0:0:0:0:0:0:0,#
*,type=HCHR_TK00,msg=いける、いけるわ…<wait=2><br>圧倒的じゃない！,param=chr_Leese:$Left10:0:0:0:0:0:0:0:0:0,#
*,type=HCHR_TK00,msg=なるほどな……,param=chr_Raith:$Right8:0:0:0:0:0:0:0:0:0,#
*,type=HCHR_TK00,msg=もう十分だろう。,param=chr_Raith:$Right8:0:0:0:0:0:0:0:0:0,#
*,type=HCHR_TK01,param=ALL:skipmask:0:0:0:0:0:0:0:0:0,#
*,type=WAIT_0000,param=0.2:0:0:0:0:0:0:0:0:0:0,#
*,type=SE_0000,param=368:0:0:0:0:0:0:0:0:0:0,#
*,type=WAIT_0000,param=0.8:0:0:0:0:0:0:0:0:0:0,#
*,type=WAIT_0000,param=1:0:0:0:0:0:0:0:0:0:0,#
*,type=HCHR_POS00,param=chr_Leese:FADEOUT:$CHARA_FadeTime:0:0:0:0:0:0:0:0,#
*,type=HCHR_POS00,param=chr_Raith:FADEOUT:$CHARA_FadeTime:0:0:0:0:0:0:0:0,#
*,type=STOP,param=0:0:0:0:0:0:0:0:0:0:0,#
*,type=WAIT_0000,param=0.5:0:0:0:0:0:0:0:0:0:0,#
*,type=HCHR_FDM00,param=chr_Remiss:MSK$off:0.3:0:0:0:0:0:0:0:0,#
*,type=HCHR_POS00,param=chr_Remiss:FADEIN:$CHARA_FadeTime:$OFS_Center:0:0:0:0:0:0:0,#
*,type=STOP,param=0:0:0:0:0:0:0:0:0:0:0,#
*,type=WAIT_0000,param=0.5:0:0:0:0:0:0:0:0:0:0,#
*,type=SE_0000,param=377:0:0:0:0:0:0:0:0:0:0,#
*,type=WAIT_0000,param=0.8:0:0:0:0:0:0:0:0:0:0,#
*,type=SE_0000,param=371:0:0:0:0:0:0:0:0:0:0,#
*,type=WAIT_0000,param=1.2:0:0:0:0:0:0:0:0:0:0,#
*,type=HCHR_POS00,param=chr_Remiss:IN$left$160:T$0.5:$OFS_Right:0:0:0:0:0:0:0,#
*,type=HCHR_FDM00,param=chr_Remiss:MSK$on:0.5:0:0:0:0:0:0:0:0,#
*,type=WAIT_0000,param=0.5:0:0:0:0:0:0:0:0:0:0,#
*,type=HCHR_FDM00,param=chr_Remiss:MSK$on:0:0:0:0:0:0:0:0:0,#
*,type=HCHR_POS00,param=chr_Raith:FADEIN:T$0.5:$OFS_Left:0:0:0:0:0:0:0,#
*,type=HCHR_FDM00,param=chr_Raith:MSK$off:0.5:0:0:0:0:0:0:0:0,#
*,type=STOP,param=0:0:0:0:0:0:0:0:0:0:0,#
*,type=HCHR_TK00,msg=今の戦い、見させてもらった。<wait=1.5><br>想像以上の戦闘能力だ。,param=chr_Raith:$Left14:0:0:0:0:0:0:0:0:0,#
*,type=HCHR_TK01,param=ALL:skipmask:0:0:0:0:0:0:0:0:0,#
*,type=BGM_0001,param=1.5:0:0:0:0:0:0:0:0:0:0,#
*,type=HCHR_FDM00,param=ALL:MSK$on:0.2:0:0:0:0:0:0:0:0,#
*,type=HCHR_FDM00,param=chr_Remiss:MSK$off:0.2:0:0:0:0:0:0:0:0,#
*,type=HCHR_PRM00,param=chr_Raith:Z$10:T$0:0:0:0:0:0:0:0:0,#
*,type=HCHR_PRM00,param=chr_Remiss:Z$11:T$0:0:0:0:0:0:0:0:0,#
*,type=STOP,param=0:0:0:0:0:0:0:0:0:0:0,#
*,type=HCHR_EFC00,param=Eff_Manp_11:chr_Remiss:manpu_1_re:0:SS5$$MANP_silence_a:0:1:0:0:XFLIP$SET:0,#
*,type=WAIT_0000,param=1.2:0:0:0:0:0:0:0:0:0:0,#
*,type=PICT_0004,param=Eff_Manp_11:0:0:0:0:0:0:0:0:0:0,#
*,type=HCHR_PRM00,param=chr_Remiss:Z$10:T$0:0:0:0:0:0:0:0:0,#
*,type=STOP,param=0:0:0:0:0:0:0:0:0:0:0,#
*,type=HCHR_TK00,msg=これだけの運動機能なら……,param=chr_Raith:$Left14:0:0:0:0:0:0:0:0:0,#
*,type=HCHR_TK00,msg=新たな敵を確認…！,param=chr_Remiss:$Right10:nowait:0:0:0:0:0:0:0:0,#
*,type=SE_0000,param=218:0:0:0:0:0:0:0:0:0:0,#
*,type=MSKS_0000,param=alarm_flash:229&0&11:180:Z$50:0:0:0:0:0:0:0,#
*,type=WAIT_0000,param=0.01:0:0:0:0:0:0:0:0:0:0,#
*,type=MSKS_0002,param=alarm_flash:T$0.15:0:0:0:0:0:0:0:0:0,#
*,type=WAIT_0000,param=0.3:0:0:0:0:0:0:0:0:0:0,#
*,type=CSYN_0002,param=0:0:0:0:0:0:0:0:0:0:0,#
*,type=HCHR_TK01,param=ALL:skipmask:0:0:0:0:0:0:0:0:0,#
*,type=STOP,param=0:0:0:0:0:0:0:0:0:0:0,#
*,type=HCHR_GRP00,param=chr_Raith:face:ku:$FACE_FadeTime:0:0:0:0:0:0:0,#
*,type=HCHR_TK00,msg=<speed=3>グッ!?,param=chr_Raith:$Left4:nowait:0:0:0:0:0:0:0:0,#
*,type=SE_0000,param=300:0:0:0:0:0:0:0:0:0:0,#
*,type=EFFECT_GP,param=60010007:320:568:0:0:70:0:0:0:0:0,#
*,type=QUAK_0000,param=0.04:7:15:15:0:0:0:0:0:0:0,#
*,type=CSYN_0002,param=0:0:0:0:0:0:0:0:0:0:0,#
*,type=HCHR_TK00,msg=敵のケンザイを確認…<wait=1.5><br>攻撃をゾッコウする。,param=chr_Remiss:$Right10:0:0:0:0:0:0:0:0:0,#
*,type=HCHR_TK01,param=ALL:skipmask:0:0:0:0:0:0:0:0:0,#
*,type=HCHR_POS00,param=chr_Remiss:FADEOUT:T$0.1:0:0:0:0:0:0:0:0,#
*,type=HCHR_POS00,param=chr_Raith:FADEOUT:T$0.1:0:0:0:0:0:0:0:0,#
*,type=STOP,param=0:0:0:0:0:0:0:0:0:0:0,#
*,type=WAIT_0000,param=0.2:0:0:0:0:0:0:0:0:0:0,#
*,type=HCHR_GRP00,param=chr_Leese:face:bi:$FACE_FadeTime:0:0:0:0:0:0:0,#
*,type=HCHR_FDM00,param=chr_Leese:MSK$off:0:0:0:0:0:0:0:0:0,#
*,type=HCHR_POS00,param=chr_Leese:FADEIN:$CHARA_FadeTime:$OFS_Center:0:0:0:0:0:0:0,#
*,type=STOP,param=0:0:0:0:0:0:0:0:0:0:0,#
*,type=HCHR_TK00,msg=<speed=3>レミス!?,param=chr_Leese:$Center4:0:0:0:0:0:0:0:0:0,#
*,type=HCHR_TK00,msg=<speed=3>せ、戦闘中止！,param=chr_Leese:$Center8:0:0:0:0:0:0:0:0:0,#
*,type=HCHR_TK00,msg=<speed=3>レミス、兄さんへの攻撃を中止して！,param=chr_Leese:$Center18:0:0:0:0:0:0:0:0:0,#
*,type=HCHR_TK01,param=ALL:0:0:0:0:0:0:0:0:0:0,#
*,type=HCHR_POS00,param=chr_Leese:FADEOUT:T$0.1:0:0:0:0:0:0:0:0,#
*,type=STOP,param=0:0:0:0:0:0:0:0:0:0:0,#
*,type=HCHR_POS00,param=chr_Remiss:FADEIN:$CHARA_FadeTime:$OFS_Center:0:0:0:0:0:0:0,#
*,type=STOP,param=0:0:0:0:0:0:0:0:0:0:0,#
*,type=HCHR_TK00,msg=……!?,param=chr_Remiss:$Center4:0:0:0:0:0:0:0:0:0,#
*,type=HCHR_TK01,param=ALL:0:0:0:0:0:0:0:0:0:0,#
*,type=WAIT_0000,param=0.3:0:0:0:0:0:0:0:0:0:0,#
*,type=SE_0000,param=377:0:0:0:0:0:0:0:0:0:0,#
*,type=HCHR_FDM00,param=chr_Remiss:MSK$on:0.8:0:0:0:0:0:0:0:0,#
*,type=WAIT_0000,param=0.8:0:0:0:0:0:0:0:0:0:0,#
*,type=BGM_0000,param=33:3:0:0:0:0:0:0:0:0:0,#
*,type=WAIT_0000,param=0.5:0:0:0:0:0:0:0:0:0:0,#
*,type=HCHR_FDM00,param=chr_Remiss:MSK$off:0.8:0:0:0:0:0:0:0:0,#
*,type=HCHR_GRP00,param=chr_Remiss:face:fu:$FACE_FadeTime:0:0:0:0:0:0:0,#
*,type=STOP,param=0:0:0:0:0:0:0:0:0:0:0,#
*,type=HCHR_TK00,msg=バトルシークエンス終了。<br>ノーマルシークエンスに移行する。,param=chr_Remiss:$Center16:0:0:0:0:0:0:0:0:0,#
*,type=HCHR_TK01,param=ALL:0:0:0:0:0:0:0:0:0:0,#
*,type=HCHR_POS00,param=chr_Remiss:FADEOUT:$CHARA_FadeTime:0:0:0:0:0:0:0:0,#
*,type=STOP,param=0:0:0:0:0:0:0:0:0:0:0,#
*,type=WAIT_0000,param=0.5:0:0:0:0:0:0:0:0:0:0,#
*,type=HCHR_GRP00,param=chr_Raith:face:fu:$FACE_FadeTime:0:0:0:0:0:0:0,#
*,type=HCHR_POS00,param=chr_Raith:FADEIN:$CHARA_FadeTime:$OFS_Center:0:0:0:0:0:0:0,#
*,type=STOP,param=0:0:0:0:0:0:0:0:0:0:0,#
*,type=HCHR_TK00,msg=やれやれ……<wait=2><br>この腕はもう使い物にならんな。,param=chr_Raith:$Center16:nowait:0:0:0:0:0:0:0:0,#
*,type=SE_0000,param=309:0:0:0:0:0:0:0:0:0:0,#
*,type=CSYN_0002,param=0:0:0:0:0:0:0:0:0:0:0,#
*,type=HCHR_TK01,param=ALL:skipmask:0:0:0:0:0:0:0:0:0,#
*,type=WAIT_0000,param=0.2:0:0:0:0:0:0:0:0:0:0,#
*,type=HCHR_PRM00,param=chr_Raith:Z$10:0:0:0:0:0:0:0:0:0,#
*,type=HCHR_PRM00,param=chr_Leese:Z$11:0:0:0:0:0:0:0:0:0,#
*,type=HCHR_FDM00,param=chr_Raith:MSK$on:0.5:0:0:0:0:0:0:0:0,#
*,type=HCHR_POS00,param=chr_Raith:IN$right$160:T$0.5:$OFS_Left:0:0:0:0:0:0:0,#
*,type=HCHR_FDM00,param=chr_Leese:MSK$off:0.5:0:0:0:0:0:0:0:0,#
*,type=HCHR_POS00,param=chr_Leese:FADEIN:T$0.5:$OFS_Right:0:0:0:0:0:0:0,#
*,type=WAIT_0000,param=0.7:0:0:0:0:0:0:0:0:0:0,#
*,type=HCHR_GRP00,param=chr_Leese:face:bi:0:0:0:0:0:0:0:0,#
*,type=HCHR_TK00,msg=兄さん、大丈夫!?,param=chr_Leese:$Right8:0:0:0:0:0:0:0:0:0,#
*,type=HCHR_TK00,msg=このくらいで騒ぐな、どうせ機械の腕だ。<wait=1.5><br>もっとも、少々値は張るがな。,param=chr_Raith:$Left20:0:0:0:0:0:0:0:0:0,#
*,type=HCHR_GRP00,param=chr_Leese:face:fu:$FACE_FadeTime:0:0:0:0:0:0:0,#
*,type=HCHR_TK00,msg=そう、良かった…,param=chr_Leese:$Right8:0:0:0:0:0:0:0:0:0,#
*,type=HCHR_TK01,param=ALL:skipmask:0:0:0:0:0:0:0:0:0,#
*,type=HCHR_PRM00,param=chr_Raith:Z$10:0:0:0:0:0:0:0:0:0,#
*,type=HCHR_PRM00,param=chr_Leese:Z$11:0:0:0:0:0:0:0:0:0,#
*,type=HCHR_PRM00,param=chr_Remiss:Z$10:0:0:0:0:0:0:0:0:0,#
*,type=ZIN_0000,param=1:100:0:0:0:$ZOOMTIME:0:0:0:0:0,#
*,type=HCHR_POS00,param=chr_Leese:IN$right$160:T$0.5:$OFS_Center:0:0:0:0:0:0:0,#
*,type=HCHR_POS00,param=chr_Raith:IN$right$90:T$0.5:$OFS_Left_Triple:0:0:0:0:0:0:0,#
*,type=HCHR_POS00,param=chr_Remiss:FADEIN:T$0.5:$OFS_Right_Triple:0:0:0:0:0:0:0,#
*,type=WAIT_0000,param=0.5:0:0:0:0:0:0:0:0:0:0,#
*,type=HCHR_TK00,msg=それよりレミス！<wait=1.5><br>どうして兄さんを攻撃したの？,param=chr_Leese:$Right14_Center:0:0:0:0:0:0:0:0:0,#
*,type=HCHR_TK00,msg=……敵だからだ。,param=chr_Remiss:$Right8_Triple:0:0:0:0:0:0:0:0:0,#
*,type=HCHR_GRP00,param=chr_Leese:face:fu:$FACE_FadeTime:0:0:0:0:0:0:0,#
*,type=HCHR_EFC00,param=Eff_Manp_03:chr_Leese:manpu_1:0:SS5$$MANP_crumpled_a:0:1:0:0:0:0,#
*,type=HCHR_TK00,msg=敵って…そんな訳ないじゃない…,param=chr_Leese:$Right16_Center:0:0:0:0:0:0:0:0:0,#
*,type=PICT_0004,param=Eff_Manp_03:0:0:0:0:0:0:0:0:0:0,#
*,type=HCHR_TK00,msg=レイスは、敵への攻撃を阻止した。,param=chr_Remiss:$Right16_Triple:0:0:0:0:0:0:0:0:0,#
*,type=HCHR_TK00,msg=敵の味方は、敵だ。,param=chr_Remiss:$Right10_Triple:0:0:0:0:0:0:0:0:0,#
*,type=HCHR_GRP00,param=chr_Remiss:face:do:$FACE_FadeTime:0:0:0:0:0:0:0,#
*,type=HCHR_TK00,msg=敵は…ハカイしなければならない。,param=chr_Remiss:$Right16_Triple:nowait:0:0:0:0:0:0:0:0,#
*,type=SE_0000,param=218:0:0:0:0:0:0:0:0:0:0,#
*,type=MSKS_0000,param=alarm_flash:229&0&11:180:Z$50:0:0:0:0:0:0:0,#
*,type=WAIT_0000,param=0.01:0:0:0:0:0:0:0:0:0:0,#
*,type=MSKS_0002,param=alarm_flash:T$0.15:0:0:0:0:0:0:0:0:0,#
*,type=WAIT_0000,param=0.3:0:0:0:0:0:0:0:0:0:0,#
*,type=CSYN_0002,param=0:0:0:0:0:0:0:0:0:0:0,#
*,type=HCHR_TK01,param=ALL:skipmask:0:0:0:0:0:0:0:0:0,#
*,type=HCHR_PRM00,param=chr_Remiss:Z$9:0:0:0:0:0:0:0:0:0,#
*,type=ZIN_0000,param=1:0:0:0:0:$ZOOMTIME:0:0:0:0:0,#
*,type=HCHR_GRP00,param=chr_Leese:face:bi:$FACE_FadeTime:0:0:0:0:0:0:0,#
*,type=HCHR_FDM00,param=chr_Remiss:MSK$on:0.5:0:0:0:0:0:0:0:0,#
*,type=HCHR_FDM00,param=chr_Leese:MSK$off:0.5:0:0:0:0:0:0:0:0,#
*,type=HCHR_EFC00,param=Eff_Manp_29:chr_Leese:manpu_1:0:SS5$$MANP_sweat_a:0:1:0:0:0:0,#
*,type=WAIT_0000,param=0.5:0:0:0:0:0:0:0:0:0:0,#
*,type=HCHR_TK00,msg=<speed=3>えっ、ちょ、ちょっとちょっと!?,param=chr_Leese:$Center16:0:0:0:0:0:0:0:0:0,#
*,type=HCHR_TK01,param=ALL:skipmask:0:0:0:0:0:0:0:0:0,#
*,type=PICT_0004,param=Eff_Manp_29:0:0:0:0:0:0:0:0:0:0,#
*,type=HCHR_GRP00,param=chr_Remiss:face:fu:$FACE_FadeTime:0:0:0:0:0:0:0,#
*,type=WAIT_0000,param=0.2:0:0:0:0:0:0:0:0:0:0,#
*,type=ZIN_0000,param=1:-100:0:0:0:$ZOOMTIME:0:0:0:0:0,#
*,type=HCHR_PRM00,param=chr_Leese:Z$10:0:0:0:0:0:0:0:0:0,#
*,type=HCHR_PRM00,param=chr_Raith:Z$11:0:0:0:0:0:0:0:0:0,#
*,type=HCHR_FDM00,param=chr_Leese:MSK$on:0.5:0:0:0:0:0:0:0:0,#
*,type=HCHR_FDM00,param=chr_Raith:MSK$off:0.5:0:0:0:0:0:0:0:0,#
*,type=WAIT_0000,param=0.7:0:0:0:0:0:0:0:0:0:0,#
*,type=HCHR_GRP00,param=chr_Leese:face:fu:$FACE_FadeTime:0:0:0:0:0:0:0,#
*,type=HCHR_GRP00,param=chr_Raith:face:emi:$FACE_FadeTime:0:0:0:0:0:0:0,#
*,type=HCHR_TK00,msg=フッ……,param=chr_Raith:$Left4_Triple:0:0:0:0:0:0:0:0:0,#
*,type=HCHR_TK00,msg=ククク……,param=chr_Raith:$Left6_Triple:0:0:0:0:0:0:0:0:0,#
*,type=HCHR_GRP00,param=chr_Raith:face:emi:$FACE_FadeTime:0:0:0:0:0:0:0,#
*,type=HCHR_TK00,msg=レーゼ、これはコイツが正しい。,param=chr_Raith:$Left16_Triple:0:0:0:0:0:0:0:0:0,#
*,type=HCHR_TK00,msg=コイツは、オマエの設計通り<br>状況に正確に適応しただけだ。,param=chr_Raith:$Left14_Triple:0:0:0:0:0:0:0:0:0,#
*,type=HCHR_TK01,param=ALL:skipmask:0:0:0:0:0:0:0:0:0,#
*,type=WAIT_0000,param=0.3:0:0:0:0:0:0:0:0:0:0,#
*,type=HCHR_GRP00,param=chr_Raith:face:ki:$FACE_FadeTime:0:0:0:0:0:0:0,#
*,type=HCHR_TK00,msg=どうやらオマエの負けだな。,param=chr_Raith:$Left14_Triple:0:0:0:0:0:0:0:0:0,#
*,type=HCHR_TK01,param=ALL:skipmask:0:0:0:0:0:0:0:0:0,#
*,type=HCHR_GRP00,param=chr_Raith:face:emi:$FACE_FadeTime:0:0:0:0:0:0:0,#
*,type=ZIN_0000,param=1:100:0:0:0:$ZOOMTIME:0:0:0:0:0,#
*,type=HCHR_FDM00,param=chr_Raith:MSK$on:0.5:0:0:0:0:0:0:0:0,#
*,type=HCHR_FDM00,param=chr_Remiss:MSK$off:0.5:0:0:0:0:0:0:0:0,#
*,type=HCHR_PRM00,param=chr_Raith:Z$9:0:0:0:0:0:0:0:0:0,#
*,type=HCHR_PRM00,param=chr_Leese:Z$10:0:0:0:0:0:0:0:0:0,#
*,type=HCHR_PRM00,param=chr_Remiss:Z$11:0:0:0:0:0:0:0:0:0,#
*,type=HCHR_EFC00,param=Eff_Manp_04:chr_Remiss:manpu_1_re:0:SS5$$MANP_doubt_black_a:0:1:0:0:XFLIP$SET:0,#
*,type=WAIT_0000,param=0.8:0:0:0:0:0:0:0:0:0:0,#
*,type=HCHR_PRM00,param=chr_Remiss:Z$10:0:0:0:0:0:0:0:0:0,#
*,type=PICT_0004,param=Eff_Manp_04:0:0:0:0:0:0:0:0:0:0,#
*,type=HCHR_TK00,msg=マスターは戦闘にショウリしている。,param=chr_Remiss:$Right18_Triple:0:0:0:0:0:0:0:0:0,#
*,type=HCHR_TK00,msg=再戦の必要があるか？,param=chr_Remiss:$Right10_Triple:0:0:0:0:0:0:0:0:0,#
*,type=HCHR_GRP00,param=chr_Leese:face:bi:$FACE_FadeTime:0:0:0:0:0:0:0,#
*,type=HCHR_TK00,msg=ス、ストップストップ！<wait=1.5><br>兄さんは敵じゃないのよ！,param=chr_Leese:$Right12_Center:0:0:0:0:0:0:0:0:0,#
*,type=HCHR_TK01,param=ALL:skipmask:0:0:0:0:0:0:0:0:0,#
*,type=HCHR_GRP00,param=chr_Leese:face:fu:$FACE_FadeTime:0:0:0:0:0:0:0,#
*,type=HCHR_FDM00,param=ALL:MSK$on:0.2:0:0:0:0:0:0:0:0,#
*,type=HCHR_FDM00,param=chr_Remiss:MSK$off:0.2:0:0:0:0:0:0:0:0,#
*,type=HCHR_PRM00,param=chr_Leese:Z$10:T$0:0:0:0:0:0:0:0:0,#
*,type=HCHR_PRM00,param=chr_Remiss:Z$11:T$0:0:0:0:0:0:0:0:0,#
*,type=STOP,param=0:0:0:0:0:0:0:0:0:0:0,#
*,type=HCHR_EFC00,param=Eff_Manp_11:chr_Remiss:manpu_1_re:0:SS5$$MANP_silence_a:0:1:0:0:XFLIP$SET:0,#
*,type=WAIT_0000,param=1.2:0:0:0:0:0:0:0:0:0:0,#
*,type=PICT_0004,param=Eff_Manp_11:0:0:0:0:0:0:0:0:0:0,#
*,type=HCHR_TK00,msg=マスター、エラーコードが出ている。,param=chr_Remiss:$Right18_Triple:nowait:0:0:0:0:0:0:0:0,#
*,type=WAIT_0000,param=0.1:0:0:0:0:0:0:0:0:0:0,#
*,type=SE_0000,param=368:0:0:0:0:0:0:0:0:0:0,#
*,type=CSYN_0002,param=0:0:0:0:0:0:0:0:0:0:0,#
*,type=HCHR_TK01,param=ALL:skipmask:0:0:0:0:0:0:0:0:0,#
*,type=ZIN_0000,param=1:0:0:0:0:$ZOOMTIME:0:0:0:0:0,#
*,type=HCHR_FDM00,param=chr_Remiss:MSK$on:0.5:0:0:0:0:0:0:0:0,#
*,type=HCHR_FDM00,param=chr_Leese:MSK$off:0.5:0:0:0:0:0:0:0:0,#
*,type=HCHR_PRM00,param=chr_Remiss:Z$10:0:0:0:0:0:0:0:0:0,#
*,type=HCHR_PRM00,param=chr_Leese:Z$11:0:0:0:0:0:0:0:0:0,#
*,type=HCHR_GRP00,param=chr_Leese:face:ku:$FACE_FadeTime:0:0:0:0:0:0:0,#
*,type=HCHR_EFC00,param=Eff_Manp_03:chr_Leese:manpu_1:0:SS5$$MANP_crumpled_a:0:1:0:0:0:0,#
*,type=WAIT_0000,param=0.7:0:0:0:0:0:0:0:0:0:0,#
*,type=HCHR_TK00,msg=えぇー……？,param=chr_Leese:$Center6:0:0:0:0:0:0:0:0:0,#
*,type=HCHR_TK01,param=ALL:skipmask:0:0:0:0:0:0:0:0:0,#
*,type=PICT_0004,param=Eff_Manp_03:0:0:0:0:0:0:0:0:0:0,#
*,type=ZIN_0000,param=1:-100:0:0:0:$ZOOMTIME:0:0:0:0:0,#
*,type=HCHR_FDM00,param=chr_Leese:MSK$on:0.5:0:0:0:0:0:0:0:0,#
*,type=HCHR_FDM00,param=chr_Raith:MSK$off:0.5:0:0:0:0:0:0:0:0,#
*,type=HCHR_PRM00,param=chr_Leese:Z$11:0:0:0:0:0:0:0:0:0,#
*,type=HCHR_PRM00,param=chr_Raith:Z$12:0:0:0:0:0:0:0:0:0,#
*,type=HCHR_GRP00,param=chr_Raith:face:fu:$FACE_FadeTime:0:0:0:0:0:0:0,#
*,type=STOP,param=0:0:0:0:0:0:0:0:0:0:0,#
*,type=HCHR_TK00,msg=フン……<wait=1.5><br>思考回路にはまだまだ改良の余地アリ、か。,param=chr_Raith:$Left20_Triple:0:0:0:0:0:0:0:0:0,#
*,type=HCHR_GRP00,param=chr_Leese:face:ai:$FACE_FadeTime:0:0:0:0:0:0:0,#
*,type=HCHR_TK00,msg=腕のこと、ごめんなさい兄さん。,param=chr_Leese:$Left16_Center:0:0:0:0:0:0:0:0:0,#
*,type=HCHR_TK00,msg=さっきも言ったが、気に病む必要などない。,param=chr_Raith:$Left20_Triple:0:0:0:0:0:0:0:0:0,#
*,type=HCHR_GRP00,param=chr_Leese:face:fu:$FACE_FadeTime:0:0:0:0:0:0:0,#
*,type=HCHR_TK00,msg=それよりレーゼ。,param=chr_Raith:$Left8_Triple:0:0:0:0:0:0:0:0:0,#
*,type=HCHR_TK00,msg=これからは、おまえにも<br>私の研究を手伝ってもらうぞ。,param=chr_Raith:$Left14_Triple:0:0:0:0:0:0:0:0:0,#
*,type=HCHR_GRP00,param=chr_Raith:face:ki:$FACE_FadeTime:0:0:0:0:0:0:0,#
*,type=HCHR_TK00,msg=こいつの白兵戦機能は大したものだ。<wait=1.5><br>今開発中の実験機に応用させろ。,param=chr_Raith:$Left18_Triple:0:0:0:0:0:0:0:0:0,#
*,type=HCHR_GRP00,param=chr_Raith:face:fu:$FACE_FadeTime:0:0:0:0:0:0:0,#
*,type=HCHR_GRP00,param=chr_Leese:face:fu:$FACE_FadeTime:0:0:0:0:0:0:0,#
*,type=HCHR_TK00,msg=兄さん、けど私は…,param=chr_Leese:$Left10_Center:0:0:0:0:0:0:0:0:0,#
*,type=HCHR_TK00,msg=最初から全て上手く行くものか。<wait=1.5><br>だが、こいつの戦闘能力は想像以上だった。,param=chr_Raith:$Left20_Triple:0:0:0:0:0:0:0:0:0,#
*,type=HCHR_TK01,param=ALL:skipmask:0:0:0:0:0:0:0:0:0,#
*,type=SE_0000,param=369:0:0:0:0:0:0:0:0:0:0,#
*,type=WAIT_0000,param=1:0:0:0:0:0:0:0:0:0:0,#
*,type=HCHR_GRP00,param=chr_Raith:face:emi:$FACE_FadeTime:0:0:0:0:0:0:0,#
*,type=HCHR_TK00,msg=この腕がその証明だ。,param=chr_Raith:$Left10_Triple:0:0:0:0:0:0:0:0:0,#
*,type=HCHR_GRP00,param=chr_Leese:face:fu:$FACE_FadeTime:0:0:0:0:0:0:0,#
*,type=HCHR_TK00,msg=おまえは独力で<br>これだけのマシンを作り上げたんだ。,param=chr_Raith:$Left18_Triple:0:0:0:0:0:0:0:0:0,#
*,type=HCHR_TK00,msg=そこは誇っていい。,param=chr_Raith:$Left10_Triple:0:0:0:0:0:0:0:0:0,#
*,type=HCHR_GRP00,param=chr_Leese:face:fu:$FACE_FadeTime:0:0:0:0:0:0:0,#
*,type=HCHR_TK00,msg=兄さん…,param=chr_Leese:$Left4_Center:0:0:0:0:0:0:0:0:0,#
*,type=HCHR_TK00,msg=それより……,param=chr_Raith:$Left6_Triple:0:0:0:0:0:0:0:0:0,#
*,type=HCHR_TK00,msg=おまえの子供に<br>何か答えてやったらどうだ？,param=chr_Raith:$Left14_Triple:0:0:0:0:0:0:0:0:0,#
*,type=HCHR_TK01,param=ALL:skipmask:0:0:0:0:0:0:0:0:0,#
*,type=ZIN_0000,param=1:100:0:0:0:0.8:0:0:0:0:0,#
*,type=HCHR_FDM00,param=chr_Raith:MSK$on:0.8:0:0:0:0:0:0:0:0,#
*,type=HCHR_FDM00,param=chr_Remiss:MSK$off:0.8:0:0:0:0:0:0:0:0,#
*,type=HCHR_PRM00,param=chr_Raith:Z$10:0:0:0:0:0:0:0:0:0,#
*,type=HCHR_PRM00,param=chr_Leese:Z$11:0:0:0:0:0:0:0:0:0,#
*,type=HCHR_PRM00,param=chr_Remiss:Z$12:0:0:0:0:0:0:0:0:0,#
*,type=WAIT_0000,param=1:0:0:0:0:0:0:0:0:0:0,#
*,type=HCHR_GRP00,param=chr_Raith:face:fu:$FACE_FadeTime:0:0:0:0:0:0:0,#
*,type=HCHR_TK00,msg=マスター、何か問題がハッセイしているなら<br>ワタシにメイレイを下してくれ。,param=chr_Remiss:$Right20_Triple:0:0:0:0:0:0:0:0:0,#
*,type=HCHR_TK01,param=ALL:skipmask:0:0:0:0:0:0:0:0:0,#
*,type=HCHR_FDM00,param=ALL:MSK$on:0.2:0:0:0:0:0:0:0:0,#
*,type=HCHR_FDM00,param=chr_Leese:MSK$off:0.2:0:0:0:0:0:0:0:0,#
*,type=HCHR_PRM00,param=chr_Remiss:Z$10:T$0:0:0:0:0:0:0:0:0,#
*,type=HCHR_PRM00,param=chr_Leese:Z$11:T$0:0:0:0:0:0:0:0:0,#
*,type=STOP,param=0:0:0:0:0:0:0:0:0:0:0,#
*,type=HCHR_EFC00,param=Eff_Manp_11:chr_Leese:manpu_1:0:SS5$$MANP_silence_a:0:1:0:0:0:0,#
*,type=WAIT_0000,param=1.2:0:0:0:0:0:0:0:0:0:0,#
*,type=PICT_0004,param=Eff_Manp_11:0:0:0:0:0:0:0:0:0:0,#
*,type=HCHR_PRM00,param=chr_Leese:Z$10:T$0:0:0:0:0:0:0:0:0,#
*,type=STOP,param=0:0:0:0:0:0:0:0:0:0:0,#
*,type=HCHR_GRP00,param=chr_Leese:face:ki:$FACE_FadeTime:0:0:0:0:0:0:0,#
*,type=HCHR_TK00,msg=ふふ…,param=chr_Leese:$Right4_Center:0:0:0:0:0:0:0:0:0,#
*,type=HCHR_TK01,param=ALL:skipmask:0:0:0:0:0:0:0:0:0,#
*,type=HCHR_FDM00,param=ALL:MSK$on:0.2:0:0:0:0:0:0:0:0,#
*,type=HCHR_FDM00,param=chr_Remiss:MSK$off:0.2:0:0:0:0:0:0:0:0,#
*,type=HCHR_PRM00,param=chr_Leese:Z$10:0:0:0:0:0:0:0:0:0,#
*,type=HCHR_PRM00,param=chr_Remiss:Z$11:0:0:0:0:0:0:0:0:0,#
*,type=STOP,param=0:0:0:0:0:0:0:0:0:0:0,#
*,type=HCHR_EFC00,param=Eff_Manp_04:chr_Remiss:manpu_1_re:0:SS5$$MANP_doubt_black_a:0:1:0:0:XFLIP$SET:0,#
*,type=WAIT_0000,param=1:0:0:0:0:0:0:0:0:0:0,#
*,type=PICT_0004,param=Eff_Manp_04:0:0:0:0:0:0:0:0:0:0,#
*,type=ZIN_0000,param=1:0:0:0:0:$ZOOMTIME:0:0:0:0:0,#
*,type=HCHR_PRM00,param=chr_Remiss:Z$10:0:0:0:0:0:0:0:0:0,#
*,type=HCHR_PRM00,param=chr_Leese:Z$11:0:0:0:0:0:0:0:0:0,#
*,type=HCHR_FDM00,param=chr_Remiss:MSK$on:0.5:0:0:0:0:0:0:0:0,#
*,type=HCHR_FDM00,param=chr_Leese:MSK$off:0.5:0:0:0:0:0:0:0:0,#
*,type=WAIT_0000,param=0.7:0:0:0:0:0:0:0:0:0:0,#
*,type=HCHR_TK00,msg=いいえ…大丈夫よ。,param=chr_Leese:$Center10:0:0:0:0:0:0:0:0:0,#
*,type=HCHR_TK00,msg=出だしはちょっと<br>つまづいちゃったけど…,param=chr_Leese:$Center12:0:0:0:0:0:0:0:0:0,#
*,type=HCHR_TK00,msg=これからもよろしくね、レミス。,param=chr_Leese:$Center16:0:0:0:0:0:0:0:0:0,#
*,type=HCHR_TK01,param=ALL:skipmask:0:0:0:0:0:0:0:0:0,#
*,type=WAIT_0000,param=0.5:0:0:0:0:0:0:0:0:0:0,#
*,type=BGM_0001,param=1.5:0:0:0:0:0:0:0:0:0:0,#
*,type=FADEOUT_000,param=1.5:00&00&00:0:0:0:0:0:0:0:0:0,#
*,type=WAIT_0000,param=2:0:0:0:0:0:0:0:0:0:0,#
*,type=CLSNE_0000,param=0:0:0:0:0:0:0:0:0:0:0,#

*,type=SYSED_00,param=0:0:0:0:0:0:0:0:0:0:0,#



