﻿ScriptCmd ver 1.1.1:ストクエスクリプト_005_ミフネ.xlsm/story005-02-02/story005-02-02.csv

*,type=SYSST_00,param=0:0:0:0:0:0:0:0:0:0:0,#
*,type=CMD_STOP,param=0:0:0:0:0:0:0:0:0:0:0,#
*,type=SYSST_01,param=0:0:0:0:0:0:0:0:0:0:0,#


*,type=HCHR_ENT00,param=chr_Mifune:ミフネ:N$chara_bf2_68_b:$BTLPOS_Left:TYPE$middle:Z$11:0:0:0:0:0,#
*,type=EVT_CHKTRG,param=0:0:0:0:0:0:0:0:0:0:0,#
*,type=EVT_BTL_PREBTL,param=1:0:0:0:0:0:0:0:0:0:0,#
*,type=SWJUMP_0000,param=ONJUMP:12000201:label1:0:0:0:0:0:0:0:0,#
*,type=BTL_PanelMask,param=ON:0:0:0:0:0:0:0:0:0:0,#
*,type=BTL_CMD,param=last_bgm_on:0:0:0:0:0:0:0:0:0:0,#
*,type=BTL_STORY,param=START:0:0:SKIPFADE:0:0:0:0:0:0:0,#
*,type=HCHR_POS00,param=chr_Mifune:FADEIN:$CHARA_FadeTime:0:0:0:0:0:0:0:0,#
*,type=STOP,param=0:0:0:0:0:0:0:0:0:0:0,#
*,type=HCHR_TK00,msg=ヴァルガス殿は<br>故郷に帰られたか……,param=chr_Mifune:$Mono_M_L_Battle:0:0:0:0:0:0:0:0:0,#
*,type=HCHR_TK00,msg=なかなか面白い剣士であった。<wait=3><br>いつかまた相まみえようぞ。,param=chr_Mifune:$Mono_L_L_Battle:0:0:0:0:0:0:0:0:0,#
*,type=HCHR_TK01,param=all:0:0:0:0:0:0:0:0:0:0,#
*,type=HCHR_POS00,param=chr_Mifune:FADEOUT:$CHARA_FadeTime:0:0:0:0:0:0:0:0,#
*,type=STOP,param=0:0:0:0:0:0:0:0:0:0:0,#
*,type=BTL_STORY,param=END:0:0:SKIPFADE:0:0:0:0:0:0:0,#
*,type=LABEL_0000,param=label1:0:0:0:0:0:0:0:0:0:0,#
*,type=EVT_BLOCKEND,param=0:0:0:0:0:0:0:0:0:0:0,#
*,type=EVT_BTL_STARTBTL,param=1:0:0:0:0:0:0:0:0:0:0,#
*,type=SWJUMP_0000,param=ONJUMP:12000201:label2:0:0:0:0:0:0:0:0,#
*,type=BTL_PanelMask,param=ON:0:0:0:0:0:0:0:0:0:0,#
*,type=BTL_INSENSITIVE_MONSTER,param=MID$6003102:1:0:0:0:0:0:0:0:0:0,#
*,type=STOP,param=0:0:0:0:0:0:0:0:0:0:0,#
*,type=MSKS_0000,param=bgBlackMask:$BGBLACK_Color:0:Z$1:T$0.75:0:0:0:0:0:0,#
*,type=WAIT_0000,param=0.75:0:0:0:0:0:0:0:0:0:0,#
*,type=BTL_ChangeParty,param=ON:20207:5004009:0:0:0:0:0:0:0:0,#
*,type=WAIT_0000,param=0.75:0:0:0:0:0:0:0:0:0:0,#
*,type=MSKS_0002,param=bgBlackMask:T$0.75:0:0:0:0:0:0:0:0:0,#
*,type=STOP,param=0:0:0:0:0:0:0:0:0:0:0,#
*,type=BTL_STORY,param=START:0:0:SKIPFADE:0:0:0:0:0:0:0,#
*,type=BTL_CHANGE_BGM,param=1020:0:0:0:0:0:0:0:0:0:0,#
*,type=WAIT_0000,param=0.5:0:0:0:0:0:0:0:0:0:0,#
*,type=FMSG_0000,msg=……あなたがミフネ？,param=chr_alice:$LeftBattle10_Notail:0:0:0:0:MN$0:name$？？？:0:0:0,#
*,type=FMSG_0001,param=all:0:0:0:0:0:0:0:0:0:0,#
*,type=STOP,param=0:0:0:0:0:0:0:0:0:0:0,#
*,type=WAIT_0000,param=1:0:0:0:0:0:0:0:0:0:0,#
*,type=HCHR_POS00,param=chr_Mifune:FADEIN:$CHARA_FadeTime:0:0:0:0:0:0:0:0,#
*,type=STOP,param=0:0:0:0:0:0:0:0:0:0:0,#
*,type=HCHR_EFC00,param=Eff_Manp_04:chr_Mifune:manpu_1:0:SS5$$MANP_doubt_black_a:0:1:0:0:0:0,#
*,type=HCHR_TK00,msg=……そうであるが。,param=chr_Mifune:$LeftBattle10:0:0:0:0:0:0:0:0:0,#
*,type=PICT_0004,param=Eff_Manp_04:0:0:0:0:0:0:0:0:0:0,#
*,type=HCHR_TK01,param=all:0:0:0:0:0:0:0:0:0:0,#
*,type=HCHR_POS00,param=chr_Mifune:FADEOUT:T$0.1:0:0:0:0:0:0:0:0,#
*,type=STOP,param=0:0:0:0:0:0:0:0:0:0:0,#
*,type=FMSG_0000,msg=戦わなくちゃ……,param=chr_alice:$LeftBattle8_Notail:0:0:0:0:MN$0:name$？？？:0:0:0,#
*,type=FMSG_0001,param=all:0:0:0:0:0:0:0:0:0:0,#
*,type=STOP,param=0:0:0:0:0:0:0:0:0:0:0,#
*,type=WAIT_0000,param=1:0:0:0:0:0:0:0:0:0:0,#
*,type=HCHR_POS00,param=chr_Mifune:FADEIN:$CHARA_FadeTime:0:0:0:0:0:0:0:0,#
*,type=STOP,param=0:0:0:0:0:0:0:0:0:0:0,#
*,type=HCHR_EFC00,param=Eff_Manp_05:chr_Mifune:manpu_1:0:SS5$$MANP_doubt_black_b:0:1:0:0:0:0,#
*,type=HCHR_TK00,msg=<speed=3>ま、<wait=1.2>待て……！,param=chr_Mifune:$LeftBattle8:0:0:0:0:0:0:0:0:0,#
*,type=PICT_0004,param=Eff_Manp_05:0:0:0:0:0:0:0:0:0:0,#
*,type=HCHR_TK01,param=all:0:0:0:0:0:0:0:0:0:0,#
*,type=HCHR_POS00,param=chr_Mifune:FADEOUT:$CHARA_FadeTime:0:0:0:0:0:0:0:0,#
*,type=STOP,param=0:0:0:0:0:0:0:0:0:0:0,#
*,type=BTL_STORY,param=END:0:0:SKIPFADE:0:0:0:0:0:0:0,#
*,type=BTL_ReqAction,param=MINDEX$1:PINDEX$1:ATTACK:0:0:0:0:0:0:0:0,#
*,type=BTL_ReqAction,param=PINDEX$1:MINDEX$1:GUARD:0:0:0:0:0:0:0:0,#
*,type=BTL_WaitAction,param=0:0:0:0:0:0:0:0:0:0:0,#
*,type=STOP,param=0:0:0:0:0:0:0:0:0:0:0,#
*,type=BTL_STORY,param=START:0:0:SKIPFADE:0:0:0:0:0:0:0,#
*,type=HCHR_POS00,param=chr_Mifune:FADEIN:$CHARA_FadeTime:0:0:0:0:0:0:0:0,#
*,type=STOP,param=0:0:0:0:0:0:0:0:0:0:0,#
*,type=HCHR_TK00,msg=何故このようなことを!?,param=chr_Mifune:$LeftBattle12:0:0:0:0:0:0:0:0:0,#
*,type=HCHR_TK01,param=all:0:0:0:0:0:0:0:0:0:0,#
*,type=HCHR_POS00,param=chr_Mifune:FADEOUT:T$0.1:0:0:0:0:0:0:0:0,#
*,type=STOP,param=0:0:0:0:0:0:0:0:0:0:0,#
*,type=FMSG_0000,msg=……お父様があなたと戦えって。,param=chr_alice:$LeftBattle16_Notail:0:0:0:0:MN$0:name$？？？:0:0:0,#
*,type=FMSG_0000,msg=この国にはもう<wait=1.5><br>私の相手になる人がいないから……,param=chr_alice:$LeftBattle16_Notail:0:0:0:0:MN$0:name$？？？:0:0:0,#
*,type=FMSG_0001,param=all:0:0:0:0:0:0:0:0:0:0,#
*,type=STOP,param=0:0:0:0:0:0:0:0:0:0:0,#
*,type=WAIT_0000,param=1:0:0:0:0:0:0:0:0:0:0,#
*,type=HCHR_POS00,param=chr_Mifune:FADEIN:$CHARA_FadeTime:0:0:0:0:0:0:0:0,#
*,type=STOP,param=0:0:0:0:0:0:0:0:0:0:0,#
*,type=HCHR_TK00,msg=『冥閃耀』よ、<wait=1.5>この縁もそなたが<br>引き寄せたものなのか……？,param=chr_Mifune:$Mono_L_L_Battle:0:0:0:0:0:0:0:0:0,#
*,type=HCHR_TK01,param=all:0:0:0:0:0:0:0:0:0:0,#
*,type=HCHR_POS00,param=chr_Mifune:FADEOUT:T$0.1:0:0:0:0:0:0:0:0,#
*,type=STOP,param=0:0:0:0:0:0:0:0:0:0:0,#
*,type=FMSG_0000,msg=私はアリス。<wait=3><br>この国の皇女……,param=chr_alice:$LeftBattle8_Notail:0:0:0:0:MN$0:name$アリス:0:0:0,#
*,type=FMSG_0000,msg=だけど、<wait=1.5>お父様には<br>もっと強い子が必要なの。,param=chr_alice:$LeftBattle12_Notail:0:0:0:0:MN$0:name$アリス:0:0:0,#
*,type=FMSG_0001,param=all:0:0:0:0:0:0:0:0:0:0,#
*,type=STOP,param=0:0:0:0:0:0:0:0:0:0:0,#
*,type=WAIT_0000,param=1:0:0:0:0:0:0:0:0:0:0,#
*,type=HCHR_POS00,param=chr_Mifune:FADEIN:$CHARA_FadeTime:0:0:0:0:0:0:0:0,#
*,type=STOP,param=0:0:0:0:0:0:0:0:0:0:0,#
*,type=HCHR_TK00,msg=……避けては通れぬ道のようだな。,param=chr_Mifune:$LeftBattle16:0:0:0:0:0:0:0:0:0,#
*,type=HCHR_TK01,param=all:0:0:0:0:0:0:0:0:0:0,#
*,type=HCHR_POS00,param=chr_Mifune:FADEOUT:$CHARA_FadeTime:0:0:0:0:0:0:0:0,#
*,type=STOP,param=0:0:0:0:0:0:0:0:0:0:0,#
*,type=BTL_STORY,param=END:0:0:SKIPFADE:0:0:0:0:0:0:0,#
*,type=MSKS_0000,param=bgBlackMask:$BGBLACK_Color:0:Z$1:T$0.75:0:0:0:0:0:0,#
*,type=WAIT_0000,param=0.75:0:0:0:0:0:0:0:0:0:0,#
*,type=BTL_ChangeParty,param=OFF:0:0:0:0:0:0:0:0:0:0,#
*,type=WAIT_0000,param=0.75:0:0:0:0:0:0:0:0:0:0,#
*,type=MSKS_0002,param=bgBlackMask:T$0.75:0:0:0:0:0:0:0:0:0,#
*,type=STOP,param=0:0:0:0:0:0:0:0:0:0:0,#
*,type=BTL_PanelMask,param=OFF:0:0:0:0:0:0:0:0:0:0,#
*,type=LABEL_0000,param=label2:0:0:0:0:0:0:0:0:0:0,#
*,type=EVT_BLOCKEND,param=0:0:0:0:0:0:0:0:0:0:0,#
*,type=EVT_BTL_REGULARLY,param=100:0:0:0:0:0:0:0:0:0:0,#
*,type=SWJUMP_0000,param=ONJUMP:12000201:label3:0:0:0:0:0:0:0:0,#
*,type=BTL_PanelMask,param=ON:0:0:0:0:0:0:0:0:0:0,#
*,type=BTL_ReqAction,param=PPTALL:0:MOVETO:DEFAULT$DEFAULT$0.4$IDLE$IDLE:0:0:0:0:0:0:0,#
*,type=BTL_WaitAction,param=100:0:0:0:0:0:0:0:0:0:0,#
*,type=STOP,param=0:0:0:0:0:0:0:0:0:0:0,#
*,type=MSKS_0000,param=bgBlackMask:$BGBLACK_Color:0:Z$1:T$0.75:0:0:0:0:0:0,#
*,type=WAIT_0000,param=0.75:0:0:0:0:0:0:0:0:0:0,#
*,type=BTL_ChangeParty,param=ON:20207:5004009:0:0:0:0:0:0:0:0,#
*,type=WAIT_0000,param=0.75:0:0:0:0:0:0:0:0:0:0,#
*,type=MSKS_0002,param=bgBlackMask:T$0.75:0:0:0:0:0:0:0:0:0,#
*,type=STOP,param=0:0:0:0:0:0:0:0:0:0:0,#
*,type=BTL_STORY,param=START:0:0:SKIPFADE:0:0:0:0:0:0:0,#
*,type=WAIT_0000,param=0.5:0:0:0:0:0:0:0:0:0:0,#
*,type=FMSG_0000,msg=お父様の言った通りだわ。<wait=3><br>私……<wait=1.5>あなたと戦って……,param=chr_alice:$LeftBattle12_Notail:0:0:0:0:MN$0:name$アリス:0:0:0,#
*,type=FMSG_0001,param=all:0:0:0:0:0:0:0:0:0:0,#
*,type=WAIT_0000,param=0.5:0:0:0:0:0:0:0:0:0:0,#
*,type=BTL_STORY,param=END:0:0:SKIPFADE:0:0:0:0:0:0:0,#
*,type=MSKS_0000,param=bgBlackMask:$BGBLACK_Color:0:Z$1:T$0.75:0:0:0:0:0:0,#
*,type=WAIT_0000,param=0.75:0:0:0:0:0:0:0:0:0:0,#
*,type=STOP,param=0:0:0:0:0:0:0:0:0:0:0,#
*,type=BTL_STORY,param=START:0:0:SKIPFADE:0:0:0:0:0:0:0,#
*,type=WAIT_0000,param=0.5:0:0:0:0:0:0:0:0:0:0,#
*,type=FMSG_0000,msg=少しは強くなったみたい。,param=chr_alice:$LeftBattle12_Notail:0:0:0:0:MN$0:name$アリス:0:0:0,#
*,type=FMSG_0001,param=all:0:0:0:0:0:0:0:0:0:0,#
*,type=WAIT_0000,param=0.5:0:0:0:0:0:0:0:0:0:0,#
*,type=BTL_STORY,param=END:0:0:SKIPFADE:0:0:0:0:0:0:0,#
*,type=BTL_ChangeParty,param=OFF:0:0:0:0:0:0:0:0:0:0,#
*,type=STOP,param=0:0:0:0:0:0:0:0:0:0:0,#
*,type=BTL_MONSTER_ESCAPE,param=MPTALL:0:0:0:0:0:0:0:0:0:0,#
*,type=BTL_WaitAction,param=0:0:0:0:0:0:0:0:0:0:0,#
*,type=STOP,param=0:0:0:0:0:0:0:0:0:0:0,#
*,type=MSKS_0002,param=bgBlackMask:T$0.75:0:0:0:0:0:0:0:0:0,#
*,type=BTL_STORY,param=START:0:0:SKIPFADE:0:0:0:0:0:0:0,#
*,type=WAIT_0000,param=1:0:0:0:0:0:0:0:0:0:0,#
*,type=HCHR_POS00,param=chr_Mifune:FADEIN:$CHARA_FadeTime:0:0:0:0:0:0:0:0,#
*,type=STOP,param=0:0:0:0:0:0:0:0:0:0:0,#
*,type=HCHR_TK00,msg=アリス殿!?,param=chr_Mifune:$LeftBattle6:0:0:0:0:0:0:0:0:0,#
*,type=HCHR_TK01,param=all:0:0:0:0:0:0:0:0:0:0,#
*,type=HCHR_POS00,param=chr_Mifune:FADEOUT:$CHARA_FadeTime:0:0:0:0:0:0:0:0,#
*,type=STOP,param=0:0:0:0:0:0:0:0:0:0:0,#
*,type=BTL_STORY,param=END:0:0:SKIPFADE:0:0:0:0:0:0:0,#
*,type=BTL_PanelMask,param=OFF:0:0:0:0:0:0:0:0:0:0,#
*,type=LABEL_0000,param=label3:0:0:0:0:0:0:0:0:0:0,#
*,type=EVT_BLOCKEND,param=0:0:0:0:0:0:0:0:0:0:0,#
*,type=EVT_BTL_PREBTL,param=2:0:0:0:0:0:0:0:0:0:0,#
*,type=SWJUMP_0000,param=ONJUMP:12000201:label4:0:0:0:0:0:0:0:0,#
*,type=MSKS_0000,param=bgBlackMask:$BGBLACK_Color:0:Z$1:T$0.75:0:0:0:0:0:0,#
*,type=BTL_INSENSITIVE_MONSTER,param=MID$6003201:1:0:0:0:0:0:0:0:0:0,#
*,type=WAIT_0000,param=0.75:0:0:0:0:0:0:0:0:0:0,#
*,type=BTL_STORY,param=START:0:0:SKIPFADE:0:0:0:0:0:0:0,#
*,type=WAIT_0000,param=0.5:0:0:0:0:0:0:0:0:0:0,#
*,type=FMSG_0000,msg=さぁ……続きを始めましょ。,param=chr_alice:$LeftBattle14_Notail:0:0:0:0:MN$0:name$アリス:0:0:0,#
*,type=FMSG_0001,param=all:0:0:0:0:0:0:0:0:0:0,#
*,type=WAIT_0000,param=0.5:0:0:0:0:0:0:0:0:0:0,#
*,type=BTL_STORY,param=END:0:0:SKIPFADE:0:0:0:0:0:0:0,#
*,type=MSKS_0002,param=bgBlackMask:T$0.75:0:0:0:0:0:0:0:0:0,#
*,type=BTL_PanelMask,param=OFF:0:0:0:0:0:0:0:0:0:0,#
*,type=LABEL_0000,param=label4:0:0:0:0:0:0:0:0:0:0,#
*,type=EVT_BLOCKEND,param=0:0:0:0:0:0:0:0:0:0:0,#
*,type=EVT_BTL_REGULARLY,param=101:0:0:0:0:0:0:0:0:0:0,#
*,type=SWJUMP_0000,param=ONJUMP:12000202:label5:0:0:0:0:0:0:0:0,#
*,type=BTL_PanelMask,param=ON:0:0:0:0:0:0:0:0:0:0,#
*,type=BTL_ReqAction,param=PPTALL:0:MOVETO:DEFAULT$DEFAULT$0.4$IDLE$IDLE:0:0:0:0:0:0:0,#
*,type=BTL_WaitAction,param=100:0:0:0:0:0:0:0:0:0:0,#
*,type=STOP,param=0:0:0:0:0:0:0:0:0:0:0,#
*,type=MSKS_0000,param=bgBlackMask:$BGBLACK_Color:0:Z$1:T$0.75:0:0:0:0:0:0,#
*,type=WAIT_0000,param=0.75:0:0:0:0:0:0:0:0:0:0,#
*,type=BTL_ChangeParty,param=ON:20207:5004010:0:0:0:0:0:0:0:0,#
*,type=WAIT_0000,param=0.75:0:0:0:0:0:0:0:0:0:0,#
*,type=STOP,param=0:0:0:0:0:0:0:0:0:0:0,#
*,type=MSKS_0002,param=bgBlackMask:T$0.75:0:0:0:0:0:0:0:0:0,#
*,type=BTL_STORY,param=START:0:0:SKIPFADE:0:0:0:0:0:0:0,#
*,type=WAIT_0000,param=0.5:0:0:0:0:0:0:0:0:0:0,#
*,type=FMSG_0000,msg=……お父様が、<wait=1.5>私に勝った者は<br>配下に置くと言っているわ。,param=chr_alice:$LeftBattle14_Notail:0:0:0:0:MN$0:name$アリス:0:0:0,#
*,type=FMSG_0001,param=all:0:0:0:0:0:0:0:0:0:0,#
*,type=WAIT_0000,param=1:0:0:0:0:0:0:0:0:0:0,#
*,type=HCHR_POS00,param=chr_Mifune:FADEIN:$CHARA_FadeTime:0:0:0:0:0:0:0:0,#
*,type=STOP,param=0:0:0:0:0:0:0:0:0:0:0,#
*,type=HCHR_TK00,msg=<speed=7>人を……<wait=2>娘までをも戦いの<br>道具として見ているとは……,param=chr_Mifune:$Mono_L_L_Battle:0:0:0:0:0:0:0:0:0,#
*,type=HCHR_TK00,msg=<speed=7>……実に愚かなり。,param=chr_Mifune:$Mono_M_L_Battle:0:0:0:0:0:0:0:0:0,#
*,type=HCHR_TK01,param=all:0:0:0:0:0:0:0:0:0:0,#
*,type=WAIT_0000,param=0.3:0:0:0:0:0:0:0:0:0:0,#
*,type=SE_0000,param=309:0:0:0:0:0:0:0:0:0:0,#
*,type=WAIT_0000,param=0.7:0:0:0:0:0:0:0:0:0:0,#
*,type=HCHR_TK00,msg=すまないが、拙者は行けぬ。<wait=3><br>愚者は拙者の主君に非ず、<wait=2>と伝えてくれ。,param=chr_Mifune:$LeftBattle20:0:0:0:0:0:0:0:0:0,#
*,type=HCHR_TK01,param=all:0:0:0:0:0:0:0:0:0:0,#
*,type=HCHR_POS00,param=chr_Mifune:FADEOUT:T$0.1:0:0:0:0:0:0:0:0,#
*,type=STOP,param=0:0:0:0:0:0:0:0:0:0:0,#
*,type=FMSG_0000,msg=……わかった。,param=chr_alice:$LeftBattle8_Notail:0:0:0:0:MN$0:name$アリス:0:0:0,#
*,type=FMSG_0001,param=all:0:0:0:0:0:0:0:0:0:0,#
*,type=WAIT_0000,param=0.5:0:0:0:0:0:0:0:0:0:0,#
*,type=BTL_STORY,param=END:0:0:SKIPFADE:0:0:0:0:0:0:0,#
*,type=BTL_EVTUNIT_ANM,param=MPTALL:FADEOUT:0.5:0:0:0:0:0:0:0:0,#
*,type=BTL_MONSTER_ESCAPE,param=MPTALL:0:0:0:0:0:0:0:0:0:0,#
*,type=BTL_WaitAction,param=5:0:0:0:0:0:0:0:0:0:0,#
*,type=WAIT_0000,param=0.75:0:0:0:0:0:0:0:0:0:0,#
*,type=STOP,param=0:0:0:0:0:0:0:0:0:0:0,#
*,type=BTL_STORY,param=START:0:0:SKIPFADE:0:0:0:0:0:0:0,#
*,type=HCHR_POS00,param=chr_Mifune:FADEIN:$CHARA_FadeTime:0:0:0:0:0:0:0:0,#
*,type=STOP,param=0:0:0:0:0:0:0:0:0:0:0,#
*,type=HCHR_TK00,msg=死に急ぐな、<wait=1.5>アリス殿……,param=chr_Mifune:$Mono_L_L_Battle:0:0:0:0:0:0:0:0:0,#
*,type=HCHR_TK01,param=all:0:0:0:0:0:0:0:0:0:0,#
*,type=HCHR_TK01,param=all:0:0:0:0:0:0:0:0:0:0,#
*,type=HCHR_POS00,param=chr_Mifune:FADEOUT:$CHARA_FadeTime:0:0:0:0:0:0:0:0,#
*,type=STOP,param=0:0:0:0:0:0:0:0:0:0:0,#
*,type=BTL_STORY,param=END:0:0:SKIPFADE:0:0:0:0:0:0:0,#
*,type=BTL_STORY,param=START:0:0:SKIPFADE:0:0:0:0:0:0:0,#
*,type=BTL_CHANGE_BGM,param=1101:0:0:0:0:0:0:0:0:0:0,#
*,type=HCHR_POS00,param=chr_Mifune:FADEIN:$CHARA_FadeTime:0:0:0:0:0:0:0:0,#
*,type=STOP,param=0:0:0:0:0:0:0:0:0:0:0,#
*,type=HCHR_EFC00,param=Eff_Manp_07:chr_Mifune:manpu_1:0:SS5$$MANP_doubt_red_b:0:1:0:0:0:0,#
*,type=WAIT_0000,param=0.8:0:0:0:0:0:0:0:0:0:0,#
*,type=PICT_0004,param=Eff_Manp_07:0:0:0:0:0:0:0:0:0:0,#
*,type=SE_0000,param=309:0:0:0:0:0:0:0:0:0:0,#
*,type=SE_0000,param=309:0.2:0:0:0:0:0:0:0:0:0,#
*,type=SE_0000,param=309:0.3:0:0:0:0:0:0:0:0:0,#
*,type=HCHR_TK00,msg=<speed=7>『冥閃耀』が震えている……<wait=3><br>この気配は一体……？,param=chr_Mifune:$LeftBattle14_Notail:0:0:0:0:0:0:0:0:0,#
*,type=HCHR_TK01,param=all:0:0:0:0:0:0:0:0:0:0,#
*,type=HCHR_POS00,param=chr_Mifune:FADEOUT:$CHARA_FadeTime:0:0:0:0:0:0:0:0,#
*,type=STOP,param=0:0:0:0:0:0:0:0:0:0:0,#
*,type=BTL_STORY,param=END:0:0:SKIPFADE:0:0:0:0:0:0:0,#
*,type=MSKS_0000,param=bgBlackMask:$BGBLACK_Color:0:Z$1:T$0.75:0:0:0:0:0:0,#
*,type=WAIT_0000,param=0.75:0:0:0:0:0:0:0:0:0:0,#
*,type=BTL_ChangeParty,param=OFF:0:0:0:0:0:0:0:0:0:0,#
*,type=BTL_MONSTER_ESCAPE,param=MPTALL:0:0:0:0:0:0:0:0:0:0,#
*,type=BTL_WaitAction,param=0:0:0:0:0:0:0:0:0:0:0,#
*,type=STOP,param=0:0:0:0:0:0:0:0:0:0:0,#
*,type=BTL_ChangeParty,param=ON:20207:5004015:0:0:0:0:0:0:0:0,#
*,type=WAIT_0000,param=0.75:0:0:0:0:0:0:0:0:0:0,#
*,type=STOP,param=0:0:0:0:0:0:0:0:0:0:0,#
*,type=MSKS_0002,param=bgBlackMask:T$0.75:0:0:0:0:0:0:0:0:0,#
*,type=STOP,param=0:0:0:0:0:0:0:0:0:0:0,#
*,type=BTL_STORY,param=START:0:0:SKIPFADE:0:0:0:0:0:0:0,#
*,type=WAIT_0000,param=0.5:0:0:0:0:0:0:0:0:0:0,#
*,type=FMSG_0000,msg=愚かなる人間共よ、<wait=1.5><br>神はお前たちを悪とみなされた。,param=chr_archangel:$LeftBattle16_Notail:0:0:0:0:MN$0:name$アークエンジェル:0:0:0,#
*,type=FMSG_0000,msg=よって、<wait=1.5>ただ今より<br>断罪の裁きを執り行う。,param=chr_archangel:$LeftBattle12_Notail:0:0:0:0:MN$0:name$アークエンジェル:0:0:0,#
*,type=FMSG_0000,msg=村を焼き払い、<wait=1.5>全て浄化するのだ！,param=chr_archangel:$LeftBattle16_Notail:0:0:0:0:MN$0:name$アークエンジェル:0:0:0,#
*,type=FMSG_0001,param=all:0:0:0:0:0:0:0:0:0:0,#
*,type=WAIT_0000,param=1:0:0:0:0:0:0:0:0:0:0,#
*,type=HCHR_POS00,param=chr_Mifune:FADEIN:$CHARA_FadeTime:0:0:0:0:0:0:0:0,#
*,type=STOP,param=0:0:0:0:0:0:0:0:0:0:0,#
*,type=HCHR_EFC00,param=Eff_Manp_07:chr_Mifune:manpu_1:0:SS5$$MANP_doubt_red_b:0:1:0:0:0:0,#
*,type=WAIT_0000,param=0.5:0:0:0:0:0:0:0:0:0:0,#
*,type=HCHR_TK00,msg=この者たちは……天の使いか!?,param=chr_Mifune:$Mono_L_L_Battle:0:0:0:0:0:0:0:0:0,#
*,type=HCHR_TK01,param=all:0:0:0:0:0:0:0:0:0:0,#
*,type=WAIT_0000,param=0.5:0:0:0:0:0:0:0:0:0:0,#
*,type=HCHR_TK00,msg=使者殿よ！<wait=3>この地の神とは<br>人々を見守りし存在であると聞く。,param=chr_Mifune:$LeftBattle16:0:0:0:0:0:0:0:0:0,#
*,type=HCHR_TK00,msg=それが何故!?,param=chr_Mifune:$LeftBattle6:0:0:0:0:0:0:0:0:0,#
*,type=HCHR_TK01,param=all:0:0:0:0:0:0:0:0:0:0,#
*,type=HCHR_POS00,param=chr_Mifune:FADEOUT:$CHARA_FadeTime:0:0:0:0:0:0:0:0,#
*,type=STOP,param=0:0:0:0:0:0:0:0:0:0:0,#
*,type=WAIT_0000,param=0.5:0:0:0:0:0:0:0:0:0:0,#
*,type=FMSG_0000,msg=神の恩恵を、<wait=1.5>人は仇で返し続けた。,param=chr_archangel:$LeftBattle16_Notail:0:0:0:0:MN$0:name$アークエンジェル:0:0:0,#
*,type=FMSG_0000,msg=この世から人間を滅するまで<br>神の怒りは収まらんのだ！,param=chr_archangel:$LeftBattle14_Notail:0:0:0:0:MN$0:name$アークエンジェル:0:0:0,#
*,type=FMSG_0001,param=all:0:0:0:0:0:0:0:0:0:0,#
*,type=WAIT_0000,param=1:0:0:0:0:0:0:0:0:0:0,#
*,type=HCHR_POS00,param=chr_Mifune:FADEIN:$CHARA_FadeTime:0:0:0:0:0:0:0:0,#
*,type=STOP,param=0:0:0:0:0:0:0:0:0:0:0,#
*,type=HCHR_TK00,msg=……確かに人は愚行を犯す。<wait=3><br>しかしそれはあくまで一面だけのこと。,param=chr_Mifune:$LeftBattle18:0:0:0:0:0:0:0:0:0,#
*,type=HCHR_TK00,msg=戦を仕掛けるは道理が合わん。<wait=3><br>神といえど、<wait=1.5>横暴ではあるまいか！,param=chr_Mifune:$LeftBattle16:0:0:0:0:0:0:0:0:0,#
*,type=HCHR_TK01,param=all:0:0:0:0:0:0:0:0:0:0,#
*,type=HCHR_POS00,param=chr_Mifune:FADEOUT:$CHARA_FadeTime:0:0:0:0:0:0:0:0,#
*,type=STOP,param=0:0:0:0:0:0:0:0:0:0:0,#
*,type=WAIT_0000,param=0.5:0:0:0:0:0:0:0:0:0:0,#
*,type=BTL_STORY,param=END:0:0:SKIPFADE:0:0:0:0:0:0:0,#
*,type=MSKS_0000,param=bgBlackMask:$BGBLACK_Color:0:Z$1:T$0.75:0:0:0:0:0:0,#
*,type=WAIT_0000,param=0.75:0:0:0:0:0:0:0:0:0:0,#
*,type=BTL_ChangeParty,param=OFF:0:0:0:0:0:0:0:0:0:0,#
*,type=STOP,param=0:0:0:0:0:0:0:0:0:0:0,#
*,type=BTL_ChangeParty,param=ON:20207:5004029:0:0:0:0:0:0:0:0,#
*,type=WAIT_0000,param=0.75:0:0:0:0:0:0:0:0:0:0,#
*,type=STOP,param=0:0:0:0:0:0:0:0:0:0:0,#
*,type=MSKS_0002,param=bgBlackMask:T$0.75:0:0:0:0:0:0:0:0:0,#
*,type=BTL_STORY,param=START:0:0:SKIPFADE:0:0:0:0:0:0:0,#
*,type=WAIT_0000,param=0.5:0:0:0:0:0:0:0:0:0:0,#
*,type=FMSG_0000,msg=天の怒リヲ聴キ、<wait=1.5>我、<wait=1.5>降臨セリ。,param=chr_rameru:$LeftBattle16_Notail:0:0:0:0:MN$0:name$ラメルダリア:0:0:0,#
*,type=FMSG_0001,param=all:0:0:0:0:0:0:0:0:0:0,#
*,type=WAIT_0000,param=1:0:0:0:0:0:0:0:0:0:0,#
*,type=HCHR_POS00,param=chr_Mifune:FADEIN:$CHARA_FadeTime:0:0:0:0:0:0:0:0,#
*,type=STOP,param=0:0:0:0:0:0:0:0:0:0:0,#
*,type=HCHR_EFC00,param=Eff_Manp_18:chr_Mifune:manpu_1:0:SS5$$MANP_surprise_red_b:0:0:0:0:0:0,#
*,type=HCHR_TK00,msg=竜までも!?,param=chr_Mifune:$Mono_S_L_Battle:0:0:0:0:0:0:0:0:0,#
*,type=HCHR_TK01,param=all:0:0:0:0:0:0:0:0:0:0,#
*,type=PICT_0004,param=Eff_Manp_18:0:0:0:0:0:0:0:0:0:0,#
*,type=HCHR_POS00,param=chr_Mifune:FADEOUT:$CHARA_FadeTime:0:0:0:0:0:0:0:0,#
*,type=STOP,param=0:0:0:0:0:0:0:0:0:0:0,#
*,type=WAIT_0000,param=0.5:0:0:0:0:0:0:0:0:0:0,#
*,type=FMSG_0000,msg=貴様からハ良クナイ気ヲ感じル……<wait=3><br>コノ覇竜、<wait=1.5>今だけハ神ニ味方シヨウゾ。,param=chr_rameru:$LeftBattle18_Notail:0:0:0:0:MN$0:name$ラメルダリア:0:0:0,#
*,type=FMSG_0001,param=all:0:0:0:0:0:0:0:0:0:0,#
*,type=WAIT_0000,param=1:0:0:0:0:0:0:0:0:0:0,#
*,type=HCHR_POS00,param=chr_Mifune:FADEIN:$CHARA_FadeTime:0:0:0:0:0:0:0:0,#
*,type=STOP,param=0:0:0:0:0:0:0:0:0:0:0,#
*,type=HCHR_TK00,msg=人に仇なすは、<wait=1.5>神も魔と同じ。,param=chr_Mifune:$LeftBattle14:0:0:0:0:0:0:0:0:0,#
*,type=HCHR_TK00,msg=魔竜が舞い降りようと、<wait=1.5><br>拙者のやるべきことは変わらん。,param=chr_Mifune:$LeftBattle16:0:0:0:0:0:0:0:0:0,#
*,type=HCHR_TK01,param=all:0:0:0:0:0:0:0:0:0:0,#
*,type=WAIT_0000,param=0.5:0:0:0:0:0:0:0:0:0:0,#
*,type=HCHR_GRP00,param=chr_Mifune:face:sini:$FACE_FadeTime:0:0:0:0:0:0:0,#
*,type=HCHR_TK00,msg=<speed=7>今ここに我が道を見つけたり。<wait=3><br>『冥閃耀』……<wait=3>我が魂よ。,param=chr_Mifune:$LeftBattle14:0:0:0:0:0:0:0:0:0,#
*,type=HCHR_GRP00,param=chr_Mifune:face:fu:$FACE_FadeTime:0:0:0:0:0:0:0,#
*,type=HCHR_TK00,msg=<size=34>共に、<wait=1.5>いざゆかん!!,param=chr_Mifune:$Shout_M_L_Battle:0:0:0:0:0:0:0:0:0,#
*,type=HCHR_TK01,param=all:0:0:0:0:0:0:0:0:0:0,#
*,type=HCHR_POS00,param=chr_Mifune:FADEOUT:$CHARA_FadeTime:0:0:0:0:0:0:0:0,#
*,type=STOP,param=0:0:0:0:0:0:0:0:0:0:0,#
*,type=BTL_STORY,param=END:0:0:SKIPFADE:0:0:0:0:0:0:0,#
*,type=MSKS_0000,param=bgBlackMask:$BGBLACK_Color:0:Z$1:T$0.75:0:0:0:0:0:0,#
*,type=WAIT_0000,param=0.75:0:0:0:0:0:0:0:0:0:0,#
*,type=BTL_ChangeParty,param=OFF:0:0:0:0:0:0:0:0:0:0,#
*,type=STOP,param=0:0:0:0:0:0:0:0:0:0:0,#
*,type=MSKS_0002,param=bgBlackMask:T$0.75:0:0:0:0:0:0:0:0:0,#
*,type=BTL_PanelMask,param=OFF:0:0:0:0:0:0:0:0:0:0,#
*,type=LABEL_0000,param=label5:0:0:0:0:0:0:0:0:0:0,#
*,type=EVT_BLOCKEND,param=0:0:0:0:0:0:0:0:0:0:0,#
*,type=EVT_BTL_ENDBTL,param=3:0:0:0:0:0:0:0:0:0:0,#
*,type=SWJUMP_0000,param=ONJUMP:12000202:label6:0:0:0:0:0:0:0:0,#
*,type=BTL_PanelMask,param=ON:0:0:0:0:0:0:0:0:0:0,#
*,type=MSKS_0000,param=bgBlackMask:$BGBLACK_Color:0:Z$1:T$0.75:0:0:0:0:0:0,#
*,type=WAIT_0000,param=0.75:0:0:0:0:0:0:0:0:0:0,#
*,type=BTL_ChangeParty,param=ON:20207:5004029:0:0:0:0:0:0:0:0,#
*,type=WAIT_0000,param=0.75:0:0:0:0:0:0:0:0:0:0,#
*,type=STOP,param=0:0:0:0:0:0:0:0:0:0:0,#
*,type=MSKS_0002,param=bgBlackMask:T$0.75:0:0:0:0:0:0:0:0:0,#
*,type=STOP,param=0:0:0:0:0:0:0:0:0:0:0,#
*,type=BTL_ReqAction,param=MINDEX$1:PINDEX$1:ATTACK:0:0:0:0:0:0:0:0,#
*,type=BTL_ReqAction,param=PINDEX$1:MINDEX$1:GUARD:0:0:0:0:0:0:0:0,#
*,type=BTL_WaitAction,param=0:0:0:0:0:0:0:0:0:0:0,#
*,type=STOP,param=0:0:0:0:0:0:0:0:0:0:0,#
*,type=WAIT_0000,param=0.75:0:0:0:0:0:0:0:0:0:0,#
*,type=BTL_STORY,param=START:0:0:SKIPFADE:0:0:0:0:0:0:0,#
*,type=BGM_0001,param=1.5:0:0:0:0:0:0:0:0:0:0,#
*,type=WAIT_0000,param=0.5:0:0:0:0:0:0:0:0:0:0,#
*,type=HCHR_ENT00,param=chr_Mifune:ミフネ:N$chara_bf2_68:$BTLPOS_Left:TYPE$middle:Z$11:0:0:0:0:0,#
*,type=STOP,param=0:0:0:0:0:0:0:0:0:0:0,#
*,type=HCHR_POS00,param=chr_Mifune:FADEIN:$CHARA_FadeTime:$OFS_Center:0:0:0:0:0:0:0,#
*,type=STOP,param=0:0:0:0:0:0:0:0:0:0:0,#
*,type=HCHR_TK00,msg=<speed=3>刀の露と消えよ!!,param=chr_Mifune:$LeftBattle8:0:0:0:0:0:0:0:0:0,#
*,type=HCHR_TK01,param=all:0:0:0:0:0:0:0:0:0:0,#
*,type=SE_0000,param=386:0:0:0:0:0:0:0:0:0:0,#
*,type=HCHR_POS00,param=chr_Mifune:FADEOUT:T$0.1:0:0:0:0:0:0:0:0,#
*,type=STOP,param=0:0:0:0:0:0:0:0:0:0:0,#
*,type=BTL_STORY,param=END:0:0:SKIPFADE:0:0:0:0:0:0:0,#
*,type=BTL_ReqAction,param=PINDEX$1:MINDEX$1:ATTACK:0:0:0:0:0:0:0:0,#
*,type=BTL_WaitAction,param=5:0:0:0:0:0:0:0:0:0:0,#
*,type=WAIT_0000,param=0.75:0:0:0:0:0:0:0:0:0:0,#
*,type=BTL_STORY,param=START:0:0:SKIPFADE:0:0:0:0:0:0:0,#
*,type=BGM_0001,param=1.5:0:0:0:0:0:0:0:0:0:0,#
*,type=HCHR_POS00,param=chr_Mifune:FADEIN:$CHARA_FadeTime:0:0:0:0:0:0:0:0,#
*,type=STOP,param=0:0:0:0:0:0:0:0:0:0:0,#
*,type=HCHR_TK00,msg=<speed=7>やったか……,param=chr_Mifune:$LeftBattle6:0:0:0:0:0:0:0:0:0,#
*,type=HCHR_SHK00,param=chr_Mifune:10:0.02:0.2:0:0:0:0:0:0:0,#
*,type=HCHR_TK00,msg=……グッ！,param=chr_Mifune:$LeftBattle6:0:0:0:0:0:0:0:0:0,#
*,type=HCHR_TK00,msg=<speed=7>さすがに無茶をしすぎた……<wait=3>な……,param=chr_Mifune:$LeftBattle16:0:0:0:0:0:0:0:0:0,#
*,type=BTL_CHANGE_BGM,param=1041:0:0:0:0:0:0:0:0:0:0,#
*,type=HCHR_TK00,msg=<speed=7>『冥閃耀』……すまぬ……<wait=3><br>拙者はもう……<wait=3>ここまでのようだ……,param=chr_Mifune:$LeftBattle18:0:0:0:0:0:0:0:0:0,#
*,type=HCHR_TK01,param=all:0:0:0:0:0:0:0:0:0:0,#
*,type=MSKS_0000,param=bgBlackMask:$BGBLACK_Color:0:Z$20:T$1.5:0:0:0:0:0:0,#
*,type=WAIT_0000,param=2.2:0:0:0:0:0:0:0:0:0:0,#
*,type=HCHR_POS00,param=chr_Mifune:FADEOUT:T$0:0:0:0:0:0:0:0:0,#
*,type=HCHR_ENT00,param=chr_Mifune2:ミフネ:N$chara_bf2_68:$POS_Center:TYPE$middle:Z$21:0:0:0:0:0,#
*,type=HCHR_FDM00,param=chr_Mifune2:MSK$on:0:0:0:0:0:0:0:0:0,#
*,type=HCHR_POS00,param=chr_Mifune2:FADEIN:T$1.5:0:0:0:0:0:0:0:0,#
*,type=WAIT_0000,param=1.5:0:0:0:0:0:0:0:0:0:0,#
*,type=MSKS_0001,param=bgTalkMask:-260:540:1160:120:0&0&0:128:Z$40:T$1:0:0,#
*,type=WAIT_0000,param=1:0:0:0:0:0:0:0:0:0:0,#
*,type=FMSG_0000,msg=<speed=12>死に急ぎ　<wait=3>死を斬り伏せて　<wait=3>死に随う<wait=7>,param=chr_Haiku1:$NW2_00016:nowait:0:focusoff:0:0:name$ミフネ:0:0:0,#
*,type=CSYN_0001,param=0:0:0:0:0:0:0:0:0:0:0,#
*,type=HCHR_GRP00,param=chr_Mifune2:face:sini:1:0:0:0:0:0:0:0,#
*,type=FMSG_0000,msg=<speed=12>死を願いながら　<wait=3>生ここに極まれり,param=chr_Haiku2:$NW2_00018:0:0:focusoff:0:0:name$ミフネ:0:0:0,#
*,type=FADEOUT_000,param=1:$BGBLACK_Color:0:0:0:0:0:0:0:0:0,#
*,type=STOP,param=0:0:0:0:0:0:0:0:0:0:0,#
*,type=FMSG_0001,param=all:0:0:0:0:0:0:0:0:0:0,#
*,type=MSKS_0002,param=bgTalkMask:T$1:0:0:0:0:0:0:0:0:0,#
*,type=FADEIN_000,param=1:$BGBLACK_Color:0:0:0:0:0:0:0:0:0,#
*,type=STOP,param=0:0:0:0:0:0:0:0:0:0:0,#
*,type=HCHR_TK00,msg=<speed=9>人の為に生きることこそ……<wait=3><br>我が……<wait=3>道……<wait=3>なり…………,param=chr_Mifune2:$Center14:0:0:0:0:0:0:0:0:0,#
*,type=FADEOUT_000,param=2.5:$BGBLACK_Color:0:0:0:0:0:0:0:0:0,#
*,type=STOP,param=0:0:0:0:0:0:0:0:0:0:0,#
*,type=HCHR_TK01,param=all:0:0:0:0:0:0:0:0:0:0,#
*,type=HCHR_POS00,param=chr_Mifune2:FADEOUT:T$0:0:0:0:0:0:0:0:0,#
*,type=BGM_0001,param=0.5:0:0:0:0:0:0:0:0:0:0,#
*,type=EFFECT_GP,param=60010017:320:568:0:0:70:0:0:0:0:0,#
*,type=SE_0000,param=211:0:0:0:0:0:0:0:0:0:0,#
*,type=WAIT_0000,param=1:0:0:0:0:0:0:0:0:0:0,#
*,type=EFFECT_GP,param=60010017:320:568:0:0:70:0:0:0:0:0,#
*,type=SE_0000,param=211:0:0:0:0:0:0:0:0:0:0,#
*,type=WAIT_0000,param=0.3:0:0:0:0:0:0:0:0:0:0,#
*,type=EFFECT_GP,param=60010017:320:568:0:0:70:0:0:0:0:0,#
*,type=SE_0000,param=211:0:0:0:0:0:0:0:0:0:0,#
*,type=WAIT_0000,param=1:0:0:0:0:0:0:0:0:0:0,#
*,type=HCHR_ENT00,param=chr_Mifune_kaku:ミフネ？:N$chara_bf2_96:$POS_Center:TYPE$middle:Z$75:0:0:0:0:0,#
*,type=HCHR_POS00,param=chr_Mifune_kaku:FADEIN:$CHARA_FadeTime:$OFS_Center:0:0:0:0:0:0:0,#
*,type=EFFECT_GP,param=60010017:320:568:0:0:70:0:0:0:0:0,#
*,type=SE_0000,param=211:0:0:0:0:0:0:0:0:0:0,#
*,type=STOP,param=0:0:0:0:0:0:0:0:0:0:0,#
*,type=HCHR_POS00,param=chr_Mifune_kaku:FADEOUT:T$0:0:0:0:0:0:0:0:0,#
*,type=WAIT_0000,param=2:0:0:0:0:0:0:0:0:0:0,#
*,type=FMSG_0000,msg=禍々しい“氣”を噴出させた<wait=1.5>,param=chr_narration1:$NW2_00012:nowait:0:focusoff:0:0:0:0:0:0,#
*,type=CSYN_0001,param=0:0:0:0:0:0:0:0:0:0:0,#
*,type=FMSG_0000,msg=ミフネの愛刀、『冥閃耀』――<wait=5>,param=chr_narration2:$NW2_00014:nowait:0:focusoff:0:0:0:0:0:0,#
*,type=CSYN_0001,param=0:0:0:0:0:0:0:0:0:0:0,#
*,type=FMSG_0000,msg=冥府に落ちたミフネの運命や如何に……!?,param=chr_narration3:$NW2_00017:0:0:focusoff:0:0:0:0:0:0,#
*,type=CSYN_0001,param=0:0:0:0:0:0:0:0:0:0:0,#
*,type=WAIT_0000,param=2:0:0:0:0:0:0:0:0:0:0,#
*,type=SE_0000,param=385:0:0:0:0:0:0:0:0:0:0,#
*,type=WAIT_0000,param=1:0:0:0:0:0:0:0:0:0:0,#
*,type=SE_0000,param=385:0:0:0:0:0:0:0:0:0:0,#
*,type=SE_0000,param=385:0.7:0:0:0:0:0:0:0:0:0,#
*,type=SE_0000,param=385:0.9:0:0:0:0:0:0:0:0:0,#
*,type=SE_0000,param=385:1.1:0:0:0:0:0:0:0:0:0,#
*,type=SE_0000,param=385:1.3:0:0:0:0:0:0:0:0:0,#
*,type=SE_0000,param=385:1.5:0:0:0:0:0:0:0:0:0,#
*,type=SE_0000,param=385:1.7:0:0:0:0:0:0:0:0:0,#
*,type=SE_0000,param=385:1.9:0:0:0:0:0:0:0:0:0,#
*,type=SE_0000,param=385:2.4:0:0:0:0:0:0:0:0:0,#
*,type=SE_0000,param=385:2.5:0:0:0:0:0:0:0:0:0,#
*,type=MSKS_0001,param=mihune_maku_9:680:-50:100:1200:0&109&77:255:Z$100:T$1.5:0:0,#
*,type=WAIT_0000,param=0.3:0:0:0:0:0:0:0:0:0:0,#
*,type=MSKS_0001,param=mihune_maku_8:580:-50:100:1200:222&106&28:255:Z$100:T$1.5:0:0,#
*,type=WAIT_0000,param=0.3:0:0:0:0:0:0:0:0:0:0,#
*,type=MSKS_0001,param=mihune_maku_7:480:-50:100:1200:0&10&2:255:Z$100:T$1.5:0:0,#
*,type=WAIT_0000,param=0.3:0:0:0:0:0:0:0:0:0:0,#
*,type=MSKS_0001,param=mihune_maku_6:380:-50:100:1200:0&109&77:255:Z$100:T$1.5:0:0,#
*,type=WAIT_0000,param=0.3:0:0:0:0:0:0:0:0:0:0,#
*,type=MSKS_0001,param=mihune_maku_5:280:-50:100:1200:222&106&28:255:Z$100:T$1.5:0:0,#
*,type=WAIT_0000,param=0.3:0:0:0:0:0:0:0:0:0:0,#
*,type=MSKS_0001,param=mihune_maku_4:180:-50:100:1200:0&10&2:255:Z$100:T$1.5:0:0,#
*,type=WAIT_0000,param=0.3:0:0:0:0:0:0:0:0:0:0,#
*,type=MSKS_0001,param=mihune_maku_3:80:-50:100:1200:0&109&77:255:Z$100:T$1.5:0:0,#
*,type=WAIT_0000,param=0.3:0:0:0:0:0:0:0:0:0:0,#
*,type=MSKS_0001,param=mihune_maku_2:-20:-50:100:1200:222&106&28:255:Z$100:T$1.5:0:0,#
*,type=WAIT_0000,param=0.3:0:0:0:0:0:0:0:0:0:0,#
*,type=MSKS_0001,param=mihune_maku_1:-120:-50:100:1200:0&10&2:255:Z$100:T$1.5:0:0,#
*,type=WAIT_0000,param=2.5:0:0:0:0:0:0:0:0:0:0,#
*,type=FMSG_0001,param=all:0:0:0:0:0:0:0:0:0:0,#
*,type=FADEOUT_000,param=1.5:$BGBLACK_Color:0:0:0:0:0:0:0:0:0,#
*,type=STOP,param=0:0:0:0:0:0:0:0:0:0:0,#
*,type=HCHR_ENT01,param=chr_Mifune2:T$0:0:0:0:0:0:0:0:0:0,#
*,type=HCHR_ENT01,param=chr_Mifune_kaku:T$0:0:0:0:0:0:0:0:0:0,#
*,type=MSKS_0002,param=mihune_maku_1:T$0:0:0:0:0:0:0:0:0:0,#
*,type=MSKS_0002,param=mihune_maku_2:T$0:0:0:0:0:0:0:0:0:0,#
*,type=MSKS_0002,param=mihune_maku_3:T$0:0:0:0:0:0:0:0:0:0,#
*,type=MSKS_0002,param=mihune_maku_4:T$0:0:0:0:0:0:0:0:0:0,#
*,type=MSKS_0002,param=mihune_maku_5:T$0:0:0:0:0:0:0:0:0:0,#
*,type=MSKS_0002,param=mihune_maku_6:T$0:0:0:0:0:0:0:0:0:0,#
*,type=MSKS_0002,param=mihune_maku_7:T$0:0:0:0:0:0:0:0:0:0,#
*,type=MSKS_0002,param=mihune_maku_8:T$0:0:0:0:0:0:0:0:0:0,#
*,type=MSKS_0002,param=mihune_maku_9:T$0:0:0:0:0:0:0:0:0:0,#
*,type=MSKS_0002,param=mihune_maku_10:T$0:0:0:0:0:0:0:0:0:0,#
*,type=BTL_STORY,param=END:0:0:SKIPFADE:0:0:0:0:0:0:0,#
*,type=BTL_ENDMISSION,param=$MSNR_CLEAR:0:0:0:0:0:0:0:0:0:0,#
*,type=BTL_PanelMask,param=OFF:0:0:0:0:0:0:0:0:0:0,#
*,type=LABEL_0000,param=label6:0:0:0:0:0:0:0:0:0:0,#
*,type=EVT_BLOCKEND,param=0:0:0:0:0:0:0:0:0:0:0,#
*,type=EVT_GAMEOVER,param=0:0:0:0:0:0:0:0:0:0:0,#
*,type=BTL_PanelMask,param=ON:0:0:0:0:0:0:0:0:0:0,#
*,type=BTL_STORY,param=START:0:0:SKIPFADE:0:0:0:0:0:0:0,#
*,type=WAIT_0000,param=0.5:0:0:0:0:0:0:0:0:0:0,#
*,type=BGM_0001,param=2:0:0:0:0:0:0:0:0:0:0,#
*,type=HCHR_ENT00,param=chr_Mifune2:ミフネ:N$chara_bf2_68:$POS_Center:TYPE$middle:Z$10:0:0:0:0:0,#
*,type=HCHR_FDM00,param=chr_Mifune2:MSK$on:0:0:0:0:0:0:0:0:0,#
*,type=MSKS_0000,param=bgBlackMask:$BGBLACK_Color:0:Z$1:T$1.5:0:0:0:0:0:0,#
*,type=HCHR_POS00,param=chr_Mifune2:FADEIN:T$1.5:0:0:0:0:0:0:0:0,#
*,type=WAIT_0000,param=2.2:0:0:0:0:0:0:0:0:0:0,#
*,type=MSKS_0001,param=bgTalkMask:-260:540:1160:120:0&0&0:128:Z$40:T$1:0:0,#
*,type=WAIT_0000,param=1:0:0:0:0:0:0:0:0:0:0,#
*,type=FMSG_0000,msg=<speed=12>さだめ断つ　<wait=3>剣届かぬ　<wait=3>煉獄蝶<wait=7>,param=chr_Haiku1:$NW2_00016:nowait:0:focusoff:0:0:name$ミフネ:0:0:0,#
*,type=CSYN_0001,param=0:0:0:0:0:0:0:0:0:0:0,#
*,type=HCHR_GRP00,param=chr_Mifune2:face:sini:0.6:0:0:0:0:0:0:0,#
*,type=FMSG_0000,msg=<speed=12>神斬らんとて　<wait=3>力及ばじ,param=chr_Haiku2:$NW2_00018:0:0:focusoff:0:0:name$ミフネ:0:0:0,#
*,type=FADEOUT_000,param=1:$BGBLACK_Color:0:0:0:0:0:0:0:0:0,#
*,type=STOP,param=0:0:0:0:0:0:0:0:0:0:0,#
*,type=MSKS_0000,param=bgBlackEndMask:$BGBLACK_Color:0:Z$50:T$0:0:0:0:0:0:0,#
*,type=FMSG_0001,param=all:skipmask:0:0:0:0:0:0:0:0:0,#
*,type=MSKS_0002,param=bgTalkMask:T$0:0:0:0:0:0:0:0:0:0,#
*,type=WAIT_0000,param=0.8:0:0:0:0:0:0:0:0:0:0,#
*,type=FMSG_0000,msg=強大な相手を前に<wait=1.5>,param=chr_narration1:$NW2_00010:nowait:0:focusoff:0:0:0:0:0:0,#
*,type=CSYN_0001,param=0:0:0:0:0:0:0:0:0:0:0,#
*,type=FMSG_0000,msg=ミフネはひとたび膝を突く。<wait=7>,param=chr_narration2:$NW2_00012:nowait:0:focusoff:0:0:0:0:0:0,#
*,type=CSYN_0001,param=0:0:0:0:0:0:0:0:0:0:0,#
*,type=FMSG_0000,msg=だが、彼は決して諦めないことだろう。<wait=7>,param=chr_narration3:$NW2_00015:nowait:0:focusoff:0:0:0:0:0:0,#
*,type=CSYN_0001,param=0:0:0:0:0:0:0:0:0:0:0,#
*,type=FMSG_0000,msg=敗北が己を強くすることを<wait=1.5>,param=chr_narration4:$NW2_00018:nowait:0:focusoff:0:0:0:0:0:0,#
*,type=CSYN_0001,param=0:0:0:0:0:0:0:0:0:0:0,#
*,type=FMSG_0000,msg=知っているのだから――,param=chr_narration5:$NW2_00020:0:0:focusoff:0:0:0:0:0:0,#
*,type=FADEOUT_000,param=1.5:$BGBLACK_Color:0:0:0:0:0:0:0:0:0,#
*,type=STOP,param=0:0:0:0:0:0:0:0:0:0:0,#
*,type=FMSG_0001,param=all:skipmask:0:0:0:0:0:0:0:0:0,#
*,type=HCHR_ENT01,param=chr_Mifune2:T$0:0:0:0:0:0:0:0:0:0,#
*,type=MSKS_0002,param=bgBlackEndMask:T$0:0:0:0:0:0:0:0:0:0,#
*,type=MSKS_0002,param=bgBlackMask:T$1:0:0:0:0:0:0:0:0:0,#
*,type=BTL_STORY,param=END:0:0:SKIPFADE:0:0:0:0:0:0:0,#
*,type=BTL_PanelMask,param=OFF:0:0:0:0:0:0:0:0:0:0,#
*,type=EVT_BLOCKEND,param=0:0:0:0:0:0:0:0:0:0:0,#

*,type=SYSED_00,param=0:0:0:0:0:0:0:0:0:0:0,#



