﻿ScriptCmd ver 1.1.1(app1.0.4):ストクエスクリプト_020_忘れ去られし神話_クエスト02.xlsm/story020-02-01/story020-02-01.csv

*,type=SYSST_00,param=0:0:0:0:0:0:0:0:0:0:0,#
*,type=CMD_STOP,param=0:0:0:0:0:0:0:0:0:0:0,#
*,type=SYSST_01,param=0:0:0:0:0:0:0:0:0:0:0,#


*,type=PICT_0000,param=bg_01:battle_bg_sq_018_02_1.jpg:1:bg$202180102:0:0:0:2:0:0:0,#
*,type=BGM_0000,param=1053:1.5:0:0:0:0:0:0:0:0:0,#
*,type=PICT_0000,param=filter_kaisou:event_filter_flashback.png:50:bg:0:2:FIX:0:0:0:0,#
*,type=PICT_0001,param=filter_kaisou:0:0:0:0:0:0:0:0:0:0,#
*,type=FADEIN_000,param=1.5:00&00&00:0:0:0:0:0:0:0:0:0,#
*,type=WAIT_0000,param=2.5:0:0:0:0:0:0:0:0:0:0,#
*,type=STOP,param=0:0:0:0:0:0:0:0:0:0:0,#
*,type=HCHR_ENT00,param=chr_Vollhein:ヴォルハイン:N$chara_bf2_209:$POS_Center:TYPE$middle:Z$10&10:0:0:0:0:0,#
*,type=HCHR_ENT00,param=chr_Nothuma:老竜:N$chara_bf2_1_nothum:$POS_Center:TYPE$middle:Z$10&10:0:0:0:0:0,#
*,type=HCHR_ENT00,param=chr_Nothumb:子竜:N$chara_bf2_1_nothum:$POS_Center:TYPE$middle:Z$10&10:0:0:0:0:0,#
*,type=STOP,param=0:0:0:0:0:0:0:0:0:0:0,#
*,type=WAIT_0000,param=1:0:0:0:0:0:0:0:0:0:0,#
*,type=MSKS_0001,param=bgTalkMask:-260:540:1160:120:0&0&0:128:Z$40:T$0.5:0:0,#
*,type=STOP,param=0:0:0:0:0:0:0:0:0:0:0,#
*,type=FMSG_0000,msg= <speed=7>数年前<wait=3><br>竜族の里,param=chr_narration1:$NW2_00017:0:0:0:0:0:0:0:0:0,#
*,type=FMSG_0001,param=ALL:skipmask:0:0:0:0:0:0:0:0:0,#
*,type=MSKS_0002,param=bgTalkMask:T$0.5:0:0:0:0:0:0:0:0:0,#
*,type=WAIT_0000,param=0.5:0:0:0:0:0:0:0:0:0:0,#
*,type=WAIT_0000,param=1.5:0:0:0:0:0:0:0:0:0:0,#
*,type=HCHR_GRP00,param=chr_Vollhein:face:do:0:0:0:0:0:0:0:0,#
*,type=HCHR_POS00,param=chr_Vollhein:FADEIN:T$0.5:$OFS_Center:0:0:0:0:0:0:0,#
*,type=STOP,param=0:0:0:0:0:0:0:0:0:0:0,#
*,type=HCHR_TK10,msg=おのれ、<wait=1>人間め！<wait=3><br>よくも我が父上と母上を……！,param=chr_Vollhein:Center:BASIC:0:0:0:0:0:0:0:0,#
*,type=HCHR_TK10,msg=兄上！<wait=3>兄上はどこだ!?,param=chr_Vollhein:Center:BASIC:0:0:0:0:0:0:0:0,#
*,type=HCHR_TK10,msg=私も戦うぞ！<wait=3><br>共に人間共を血祭りに上げるのだ！,param=chr_Vollhein:Center:BASIC:0:0:0:0:0:0:0:0,#
*,type=HCHR_TK00,msg=新しいご当主は戦士を連れて<br>すでに人里へ向かわれましたぞ。,param=chr_Nothuma:$CenterNoTail16:0:0:0:0:0:0:0:0:0,#
*,type=SE_0000,param=316:0:0:0:0:0:0:0:0:0:0,#
*,type=SE_0000,param=327:0:0:0:0:0:0:0:0:0:0,#
*,type=HCHR_GRP00,param=chr_Vollhein:face:do2:$FACE_FadeTime:0:0:0:0:0:0:0,#
*,type=HCHR_TK10,msg=何だと!?,param=chr_Vollhein:Center:BASIC:0:0:0:0:0:0:0:0,#
*,type=HCHR_GRP00,param=chr_Vollhein:face:do:$FACE_FadeTime:0:0:0:0:0:0:0,#
*,type=HCHR_TK10,msg=兄よ、<wait=1>何故私を残して行ったのだ！,param=chr_Vollhein:Center:BASIC:0:0:0:0:0:0:0:0,#
*,type=HCHR_TK00,msg=落ち着きなされ、<wait=1>ヴォルハイン殿！,param=chr_Nothuma:$CenterNoTail18:0:0:0:0:0:0:0:0:0,#
*,type=HCHR_TK00,msg=この里には今、<wait=1>年寄りと子どもしか<br>残されておりませぬ。,param=chr_Nothuma:$CenterNoTail18:0:0:0:0:0:0:0:0:0,#
*,type=HCHR_TK00,msg=あなたのお役目は、<wait=1>この里に残り<wait=1><br>他の種族から里を守ること。,param=chr_Nothuma:$CenterNoTail16:0:0:0:0:0:0:0:0:0,#
*,type=HCHR_TK00,msg=兄上様は、<wait=1>あなたにならば託せると信じ<br>この里をお任せになられたのですぞ。,param=chr_Nothuma:$CenterNoTail20:0:0:0:0:0:0:0:0:0,#
*,type=HCHR_TK00,msg=どうかご理解くだされ！,param=chr_Nothuma:$CenterNoTail12:0:0:0:0:0:0:0:0:0,#
*,type=HCHR_TK01,param=all:skipmask:0:0:0:0:0:0:0:0:0,#
*,type=HCHR_FDM00,param=all:MSK$on:0:0:0:0:0:0:0:0:0,#
*,type=HCHR_FDM00,param=chr_Vollhein:MSK$off:0:0:0:0:0:0:0:0:0,#
*,type=HCHR_GRP00,param=chr_Vollhein:face:ku:$FACE_FadeTime:0:0:0:0:0:0:0,#
*,type=HCHR_EFC00,param=Eff_Manp_11:chr_Vollhein:manpu_1:0:SS5$$MANP_silence_a:0:0:0:0:0:0,#
*,type=WAIT_0000,param=1.5:0:0:0:0:0:0:0:0:0:0,#
*,type=PICT_0004,param=Eff_Manp_11:0:0:0:0:0:0:0:0:0:0,#
*,type=WAIT_0000,param=0.5:0:0:0:0:0:0:0:0:0:0,#
*,type=HCHR_TK10,msg=兄上の命令ならば仕方がない。<wait=3><br>大人しく従うとしよう。,param=chr_Vollhein:Center:BASIC:0:0:0:0:0:0:0:0,#
*,type=HCHR_TK01,param=all:skipmask:0:0:0:0:0:0:0:0:0,#
*,type=WAIT_0000,param=0.5:0:0:0:0:0:0:0:0:0:0,#
*,type=HCHR_GRP00,param=chr_Vollhein:face:do:0.8:0:0:0:0:0:0:0,#
*,type=WAIT_0000,param=1.5:0:0:0:0:0:0:0:0:0:0,#
*,type=HCHR_TK00,msg=あぁ、<wait=1>疼く……<wait=3>爪が、<wait=1>牙が、<wait=1>忌まわしき<br>仇敵を引き裂けと疼いている！,param=chr_Vollhein:$Mono_LL_C:0:0:0:0:0:OFS$0&50:0:0:0,#
*,type=HCHR_TK00,msg=しゅ、<wait=1>襲撃だ！<wait=3><br>空から敵が降ってきた！,param=chr_Nothumb:$Shout_M_C:0:0:0:0:0:0:0:0:0,#
*,type=HCHR_TK01,param=all:skipmask:0:0:0:0:0:0:0:0:0,#
*,type=BGM_0001,param=0:0:0:0:0:0:0:0:0:0:0,#
*,type=BGM_0000,param=1011:0:0:0:0:0:0:0:0:0:0,#
*,type=HCHR_FDM00,param=all:MSK$on:0:0:0:0:0:0:0:0:0,#
*,type=HCHR_FDM00,param=chr_Vollhein:MSK$off:0:0:0:0:0:0:0:0:0,#
*,type=HCHR_GRP00,param=chr_Vollhein:face:bi:$FACE_FadeTime:0:0:0:0:0:0:0,#
*,type=HCHR_EFC00,param=Eff_Manp_28:chr_Vollhein:manpu_1:0:SS5$$MANP_surprise_red_d_02:0:0:0:0:0:0,#
*,type=WAIT_0000,param=1:0:0:0:0:0:0:0:0:0:0,#
*,type=PICT_0004,param=Eff_Manp_28:0:0:0:0:0:0:0:0:0:0,#
*,type=HCHR_GRP00,param=chr_Vollhein:face:do:$FACE_FadeTime:0:0:0:0:0:0:0,#
*,type=HCHR_TK10,msg=愚かな奴らだ……！,param=chr_Vollhein:Center:BASIC:0:0:0:0:0:0:0:0,#
*,type=HCHR_TK01,param=all:skipmask:0:0:0:0:0:0:0:0:0,#
*,type=SE_0000,param=345:0:0:0:0:0:0:0:0:0:0,#
*,type=HCHR_POS00,param=chr_Vollhein:OUT$left:T$0.15:0:0:0:0:0:0:0:0,#
*,type=STOP,param=0:0:0:0:0:0:0:0:0:0:0,#
*,type=FADEOUT_000,param=1.5:$BGBLACK_Color:0:0:0:0:0:0:0:0:0,#
*,type=BGM_0001,param=1.5:0:0:0:0:0:0:0:0:0:0,#
*,type=WAIT_0000,param=2:0:0:0:0:0:0:0:0:0:0,#
*,type=CLSNE_0000,param=0:0:0:0:0:0:0:0:0:0:0,#

*,type=SYSED_00,param=0:0:0:0:0:0:0:0:0:0:0,#



