﻿ScriptCmd ver 1.1.1:ストクエスクリプト_002_エルフ_力田調整中.xlsm/story002-09-02/story002-09-02.csv

*,type=SYSST_00,param=0:0:0:0:0:0:0:0:0:0:0,#
*,type=CMD_STOP,param=0:0:0:0:0:0:0:0:0:0:0,#
*,type=SYSST_01,param=0:0:0:0:0:0:0:0:0:0:0,#


*,type=PICT_0000,param=bg1:battle_bg_sq_002_04.jpg:1:bg$202020104:0:0:0:Z$1:0:0:0,#
*,type=MSKS_0000,param=bgWarMask:$BGBLACK_Color:126:Z$5:0:0:0:0:0:0:0,#
*,type=BGM_0001,param=1.5:0:0:0:0:0:0:0:0:0:0,#
*,type=SE_0000,param=380:0:0:0:0:0:0:0:0:0:0,#
*,type=FADEIN_000,param=1.5:00&00&00:0:0:0:0:0:0:0:0:0,#
*,type=WAIT_0000,param=2.5:0:0:0:0:0:0:0:0:0:0,#
*,type=HCHR_ENT00,param=chr_Navarl:ナヴァール:N$chara_bf2_59:$POS_Center:TYPE$middle:Z$1:0:0:0:0:0,#
*,type=HCHR_GRP00,param=chr_Navarl:face:do:0:0:0:0:0:0:0:0,#
*,type=HCHR_FDM00,param=chr_Navarl:MSK$on:0:0:0:0:0:0:0:0:0,#
*,type=STOP,param=0:0:0:0:0:0:0:0:0:0:0,#
*,type=MSKS_0002,param=bgWarMask:T$3.4:0:0:0:0:0:0:0:0:0,#
*,type=SE_0000,param=345:0:0:0:0:0:0:0:0:0:0,#
*,type=SE_0000,param=345:0.8:0:0:0:0:0:0:0:0:0,#
*,type=SE_0000,param=345:1.6:0:0:0:0:0:0:0:0:0,#
*,type=WAIT_0000,param=1.6:0:0:0:0:0:0:0:0:0:0,#
*,type=HCHR_POS00,param=chr_Navarl:FADEIN:T$1:$OFS_Center:0:0:0:0:0:0:0,#
*,type=HCHR_FDM00,param=chr_Navarl:MSK$off:1:0:0:0:0:0:0:0:0,#
*,type=STOP,param=0:0:0:0:0:0:0:0:0:0:0,#
*,type=WAIT_0000,param=0.8:0:0:0:0:0:0:0:0:0:0,#
*,type=HCHR_TK00,msg=<speed=7>………………,param=chr_Navarl:$Center6:0:0:0:0:0:0:0:0:0,#
*,type=HCHR_GRP00,param=chr_Navarl:face:fu:$FACE_FadeTime:0:0:0:0:0:0:0,#
*,type=BGM_0000,param=34:0:0:0:0:0:0:0:0:0:0,#
*,type=HCHR_TK00,msg=<speed=9>フフフフ………,param=chr_Navarl:$Center8:0:0:0:0:0:0:0:0:0,#
*,type=HCHR_TK00,msg=<speed=12>クックックックッ………,param=chr_Navarl:$Center12:0:0:0:0:0:0:0:0:0,#
*,type=HCHR_TK00,msg=<speed=7>獣人……<wait=3>エルフ……<br><wait=3>汚れた血を持つ種族たちよ……,param=chr_Navarl:$Center14:nowait:0:0:0:0:0:0:0:0,#
*,type=WAIT_0000,param=0.5:0:0:0:0:0:0:0:0:0:0,#
*,type=HCHR_FDM00,param=chr_Navarl:MSK$on:1.5:0:0:0:0:0:0:0:0,#
*,type=CSYN_0002,param=0:0:0:0:0:0:0:0:0:0:0,#
*,type=STOP,param=0:0:0:0:0:0:0:0:0:0:0,#
*,type=HCHR_TK01,param=all:skipmask:0:0:0:0:0:0:0:0:0,#
*,type=HCHR_FDM00,param=chr_Navarl:MSK$off:1.5:0:0:0:0:0:0:0:0,#
*,type=WAIT_0000,param=0.5:0:0:0:0:0:0:0:0:0:0,#
*,type=HCHR_GRP00,param=chr_Navarl:face:ki:1:0:0:0:0:0:0:0,#
*,type=STOP,param=0:0:0:0:0:0:0:0:0:0:0,#
*,type=WAIT_0000,param=0.1:0:0:0:0:0:0:0:0:0:0,#
*,type=HCHR_TK00,msg=ようやく、戦争を起こしてくれましたねぇ。,param=chr_Navarl:$Center20:0:0:0:0:0:0:0:0:0,#
*,type=HCHR_TK01,param=all:skipmask:0:0:0:0:0:0:0:0:0,#
*,type=FADEOUT_000,param=1.5:$BGBLACK_Color:0:0:0:0:0:0:0:0:0,#
*,type=BGM_0001,param=1.5:0:0:0:0:0:0:0:0:0:0,#
*,type=WAIT_0000,param=2:0:0:0:0:0:0:0:0:0:0,#
*,type=CLSNE_0000,param=0:0:0:0:0:0:0:0:0:0:0,#

*,type=SYSED_00,param=0:0:0:0:0:0:0:0:0:0:0,#



