﻿ScriptCmd ver 1.1.1:ストクエスクリプト_001_四聖_ダンジョン3.xlsm/story001-08-01/story001-08-01.csv

*,type=SYSST_00,param=0:0:0:0:0:0:0:0:0:0:0,#
*,type=CMD_STOP,param=0:0:0:0:0:0:0:0:0:0:0,#
*,type=SYSST_01,param=0:0:0:0:0:0:0:0:0:0:0,#


*,type=EVT_CHKTRG,param=0:0:0:0:0:0:0:0:0:0:0,#
*,type=EVT_BTL_STARTBTL,param=1:0:0:0:0:0:0:0:0:0:0,#
*,type=BTL_CMD,param=last_bgm_on:0:0:0:0:0:0:0:0:0:0,#
*,type=BTL_INSENSITIVE_MONSTER,param=MID$6005602:1:0:0:0:0:0:0:0:0:0,#
*,type=BTL_PanelMask,param=ON:0:0:0:0:0:0:0:0:0:0,#
*,type=BTL_STORY,param=START:0:0:SKIPFADE:0:0:0:0:0:0:0,#
*,type=HCHR_ENT00,param=chr_Ariatos:アリアトス:N$chara_bf2_69_b:$BTLPOS_Left:TYPE$middle:Z$10:0:0:0:0:0,#
*,type=HCHR_ENT00,param=chr_Elysia:エリシア:N$chara_bf2_73_b:$BTLPOS_Left:TYPE$middle:Z$10:0:0:0:0:0,#
*,type=HCHR_GRP00,param=chr_Ariatos:face:do:$FACE_FadeTime:0:0:0:0:0:0:0,#
*,type=HCHR_GRP00,param=chr_Elysia:face:ku:$FACE_FadeTime:0:0:0:0:0:0:0,#
*,type=STOP,param=0:0:0:0:0:0:0:0:0:0:0,#
*,type=HCHR_POS00,param=chr_Ariatos:FADEIN:$CHARA_FadeTime:0:0:0:0:0:0:0:0,#
*,type=HCHR_TK00,msg=行くぞッ!!<br>今こそ絆の光を示さねばならぬ！,param=chr_Ariatos:$LeftBattle16:0:0:0:0:0:0:0:0:0,#
*,type=HCHR_TK01,param=all:0:0:0:0:0:0:0:0:0:0,#
*,type=HCHR_POS00,param=chr_Ariatos:FADEOUT:$CHARA_FadeTime:0:0:0:0:0:0:0:0,#
*,type=HCHR_FDM00,param=chr_Ariatos:MSK$on:0.3:0:0:0:0:0:0:0:0,#
*,type=HCHR_GRP00,param=chr_Elysia:face:fu:$FACE_FadeTime:0:0:0:0:0:0:0,#
*,type=HCHR_POS00,param=chr_Elysia:FADEIN:$CHARA_FadeTime:0:0:0:0:0:0:0:0,#
*,type=HCHR_FDM00,param=chr_Elysia:MSK$off:0.3:0:0:0:0:0:0:0:0,#
*,type=STOP,param=0:0:0:0:0:0:0:0:0:0:0,#
*,type=HCHR_TK00,msg=陛下…貴方は<br>戦いの後の世にこそ必要な方…,param=chr_Elysia:$Mono_L_L_Battle:0:0:0:0:0:0:0:0:0,#
*,type=HCHR_GRP00,param=chr_Elysia:face:do:$FACE_FadeTime:0:0:0:0:0:0:0,#
*,type=HCHR_TK00,msg=必ずやお守りします…！,param=chr_Elysia:$Mono_M_L_Battle:0:0:0:0:0:0:0:0:0,#
*,type=HCHR_TK01,param=all:0:0:0:0:0:0:0:0:0:0,#
*,type=HCHR_POS00,param=chr_Elysia:FADEOUT:T$0.1:0:0:0:0:0:0:0:0,#
*,type=STOP,param=0:0:0:0:0:0:0:0:0:0:0,#
*,type=BTL_STORY,param=END:0:0:SKIPFADE:0:0:0:0:0:0:0,#
*,type=BTL_PanelMask,param=OFF:0:0:0:0:0:0:0:0:0:0,#
*,type=EVT_BLOCKEND,param=0:0:0:0:0:0:0:0:0:0:0,#
*,type=EVT_BTL_REGULARLY,param=1000:0:0:0:0:0:0:0:0:0:0,#
*,type=BTL_PanelMask,param=ON:0:0:0:0:0:0:0:0:0:0,#
*,type=BTL_STORY,param=START:0:0:SKIPFADE:0:0:0:0:0:0:0,#
*,type=HCHR_ENT00,param=chr_Valsalam:バルサラム:N$chara_bf2_70_b:$BTLPOS_Right:TYPE$middle:Z$10:0:0:0:0:0,#
*,type=STOP,param=0:0:0:0:0:0:0:0:0:0:0,#
*,type=HCHR_POS00,param=chr_Valsalam:FADEIN:$CHARA_FadeTime:0:0:0:0:0:0:0:0,#
*,type=STOP,param=0:0:0:0:0:0:0:0:0:0:0,#
*,type=HCHR_TK00,msg=フン……,param=chr_Valsalam:$RightBattle4:0:0:0:0:0:0:0:0:0,#
*,type=HCHR_TK00,msg=やはりな…貴様らのいう絆の力など<br>所詮この程度だ。,param=chr_Valsalam:$RightBattle16:0:0:0:0:0:0:0:0:0,#
*,type=HCHR_GRP00,param=chr_Valsalam:face:do:$FACE_FadeTime:0:0:0:0:0:0:0,#
*,type=HCHR_TK00,msg=<speed=3><size=32>くらうがいい！<br>闇に沈めッ!!,param=chr_Valsalam:$Shout_M_R_Battle:nowait:0:0:0:0:0:0:0:0,#
*,type=WAIT_0000,param=0.5:0:0:0:0:0:0:0:0:0:0,#
*,type=EFFECT_GP,param=60010017:320:568:0:0:70:0:0:0:0:0,#
*,type=SE_0000,param=307:0:0:0:0:0:0:0:0:0:0,#
*,type=CSYN_0002,param=0:0:0:0:0:0:0:0:0:0:0,#
*,type=HCHR_TK01,param=all:0:0:0:0:0:0:0:0:0:0,#
*,type=HCHR_POS00,param=chr_Valsalam:FADEOUT:T$0.1:0:0:0:0:0:0:0:0,#
*,type=STOP,param=0:0:0:0:0:0:0:0:0:0:0,#
*,type=BTL_STORY,param=END:0:0:SKIPFADE:0:0:0:0:0:0:0,#
*,type=BTL_PanelMask,param=OFF:0:0:0:0:0:0:0:0:0:0,#
*,type=EVT_BLOCKEND,param=0:0:0:0:0:0:0:0:0:0:0,#
*,type=EVT_BTL_REGULARLY,param=1001:0:0:0:0:0:0:0:0:0:0,#
*,type=BTL_PanelMask,param=ON:0:0:0:0:0:0:0:0:0:0,#
*,type=BTL_ReqAction,param=PPTALL:0:MOVETO:DEFAULT$DEFAULT$0.4$IDLE$IDLE:0:0:0:0:0:0:0,#
*,type=BTL_WaitAction,param=100:0:0:0:0:0:0:0:0:0:0,#
*,type=BTL_STORY,param=START:0:0:0:0:0:0:0:0:0:0,#
*,type=HCHR_ENT00,param=chr_Valsalam:バルサラム:N$chara_bf2_70_b:$BTLPOS_Right:TYPE$middle:Z$10:0:0:0:0:0,#
*,type=HCHR_ENT00,param=chr_Lien:リアン:N$chara_bf2_71_b:$BTLPOS_Left:TYPE$middle:Z$10:0:0:0:0:0,#
*,type=STOP,param=0:0:0:0:0:0:0:0:0:0:0,#
*,type=HCHR_GRP00,param=chr_Valsalam:face:ku:0:0:0:0:0:0:0:0,#
*,type=HCHR_POS00,param=chr_Valsalam:FADEIN:$CHARA_FadeTime:0:0:0:0:0:0:0:0,#
*,type=STOP,param=0:0:0:0:0:0:0:0:0:0:0,#
*,type=HCHR_TK00,msg=グッ…バカな！,param=chr_Valsalam:$RightBattle8:nowait:0:0:0:0:0:0:0:0,#
*,type=WAIT_0000,param=0.6:0:0:0:0:0:0:0:0:0:0,#
*,type=EFFECT_GP,param=60010007:320:568:0:0:70:0:0:0:0:0,#
*,type=SE_0000,param=300:0:0:0:0:0:0:0:0:0:0,#
*,type=HCHR_SHK00,param=chr_Valsalam:3:0.04:0.5:0:0:0:0:0:0:0,#
*,type=CSYN_0002,param=0:0:0:0:0:0:0:0:0:0:0,#
*,type=HCHR_TK00,msg=この力が通じぬだと…!?,param=chr_Valsalam:$RightBattle12:0:0:0:0:0:0:0:0:0,#
*,type=HCHR_TK01,param=all:0:0:0:0:0:0:0:0:0:0,#
*,type=HCHR_POS00,param=chr_Valsalam:FADEOUT:T$0.1:0:0:0:0:0:0:0:0,#
*,type=STOP,param=0:0:0:0:0:0:0:0:0:0:0,#
*,type=HCHR_GRP00,param=chr_Lien:face:do:0:0:0:0:0:0:0:0,#
*,type=HCHR_POS00,param=chr_Lien:FADEIN:$CHARA_FadeTime:0:0:0:0:0:0:0:0,#
*,type=STOP,param=0:0:0:0:0:0:0:0:0:0:0,#
*,type=HCHR_TK00,msg=ようやく解ったか！<br>これが俺たちの力だ！,param=chr_Lien:$LeftBattle10:0:0:0:0:0:0:0:0:0,#
*,type=HCHR_TK01,param=all:0:0:0:0:0:0:0:0:0:0,#
*,type=HCHR_POS00,param=chr_Lien:FADEOUT:T$0.3:0:0:0:0:0:0:0:0,#
*,type=STOP,param=0:0:0:0:0:0:0:0:0:0:0,#
*,type=BTL_STORY,param=END:0:0:SKIPFADE:0:0:0:0:0:0:0,#
*,type=BTL_ReqAction,param=PBASEINDEX$0:0:MOVETO:256$454$0.3$MOVE$IDLE:0:0:0:0:0:0:0,#
*,type=BTL_WaitAction,param=6:0:0:0:0:0:0:0:0:0:0,#
*,type=BTL_EVTUNIT_ANM,param=PBASEINDEX$0:ATTACK:0:0:0:0:0:0:0:0:0,#
*,type=SE_0000,param=318:0:0:0:0:0:0:0:0:0:0,#
*,type=EFFECT_GP,param=10030004:162:420:0:0:0:0:0:0:0:0,#
*,type=STOP,param=0:0:0:0:0:0:0:0:0:0:0,#
*,type=EFFECT_GP,param=10030004:162:420:0:0:0:0:0:0:0:0,#
*,type=STOP,param=0:0:0:0:0:0:0:0:0:0:0,#
*,type=EFFECT_GP,param=10030004:162:420:0:0:0:0:0:0:0:0,#
*,type=STOP,param=0:0:0:0:0:0:0:0:0:0:0,#
*,type=EFFECT_GP,param=60010007:340:450:0:0:70:0:0:0:0:0,#
*,type=BTL_WaitAction,param=40:0:0:0:0:0:0:0:0:0:0,#
*,type=BTL_EVTUNIT_ANM,param=PBASEINDEX$0:IDLE  :0:0:0:0:0:0:0:0:0,#
*,type=BTL_WaitAction,param=10:0:0:0:0:0:0:0:0:0:0,#
*,type=BTL_STORY,param=START:0:0:SKIPFADE:0:0:0:0:0:0:0,#
*,type=HCHR_GRP00,param=chr_Valsalam:face:ku:0:0:0:0:0:0:0:0,#
*,type=HCHR_POS00,param=chr_Valsalam:FADEIN:$CHARA_FadeTime:0:0:0:0:0:0:0:0,#
*,type=STOP,param=0:0:0:0:0:0:0:0:0:0:0,#
*,type=HCHR_TK00,msg=<speed=3>チィッ！,param=chr_Valsalam:$Shout_S_R_Battle:0:0:0:0:0:0:0:0:0,#
*,type=HCHR_GRP00,param=chr_Valsalam:face:do:$FACE_FadeTime:0:0:0:0:0:0:0,#
*,type=HCHR_TK00,msg=<speed=3><size=32>貴様アァァァァァッ!!,param=chr_Valsalam:$Shout_M_R_Battle:nowait:0:0:0:0:0:0:0:0,#
*,type=HCHR_SHK00,param=chr_Valsalam:3:0.04:0.5:0:0:0:0:0:0:0,#
*,type=EFFECT_GP,param=60010017:320:568:0:0:70:0:0:0:0:0,#
*,type=SE_0000,param=307:0:0:0:0:0:0:0:0:0:0,#
*,type=CSYN_0002,param=0:0:0:0:0:0:0:0:0:0:0,#
*,type=HCHR_TK01,param=all:0:0:0:0:0:0:0:0:0:0,#
*,type=HCHR_POS00,param=chr_Valsalam:FADEOUT:T$0.1:0:0:0:0:0:0:0:0,#
*,type=STOP,param=0:0:0:0:0:0:0:0:0:0:0,#
*,type=HCHR_ENT00,param=chr_Rody:ロディ:N$tame_partner_05_b:P$340&200:TYPE$middle:Z$9:0:0:0:0:0,#
*,type=HCHR_GRP00,param=chr_Rody:face:fu:0:0:0:0:0:0:0:0,#
*,type=HCHR_POS00,param=chr_Lien:POS$500&200:0:0:0:0:0:0:0:0:0,#
*,type=HCHR_POS00,param=chr_Lien:FADEIN:T$0.2:0:0:0:0:0:0:0:0,#
*,type=STOP,param=0:0:0:0:0:0:0:0:0:0:0,#
*,type=HCHR_TK00,msg=だからリアンとロディだって…,param=chr_Lien:$RightBattle14:nowait:0:0:0:0:0:0:0:0,#
*,type=CSYN_0001,param=0:0:0:0:0:0:0:0:0:0:0,#
*,type=HCHR_POS00,param=chr_Rody:FADEIN:T$0.3:0:0:0:0:0:0:0:0,#
*,type=CSYN_0002,param=0:0:0:0:0:0:0:0:0:0:0,#
*,type=HCHR_FDM00,param=chr_Lien:MSK$on:0.15:0:0:0:0:0:0:0:0,#
*,type=HCHR_FDM00,param=chr_Rody:MSK$off:0.15:0:0:0:0:0:0:0:0,#
*,type=HCHR_TK01,param=ALL:skipmask:0:0:0:0:0:0:0:0:0,#
*,type=HCHR_TK00,msg=<speed=3>ガウルルル！,param=chr_Rody:$Shout_S_C_Battle:nowait:0:focusoff:0:0:0:0:0:0,#
*,type=HCHR_SHK00,param=chr_Rody:3:0.04:0.5:0:0:0:0:0:0:0,#
*,type=EFFECT_GP,param=60010013:320:568:0:0:70:0:0:0:0:0,#
*,type=SE_0000,param=318:0:0:0:0:0:0:0:0:0:0,#
*,type=CSYN_0001,param=0:0:0:0:0:0:0:0:0:0:0,#
*,type=WAIT_0000,param=0.3:0:0:0:0:0:0:0:0:0:0,#
*,type=HCHR_POS00,param=chr_Rody:FADEOUT:T$0.2:0:0:0:0:0:0:0:0,#
*,type=WAIT_0000,param=0.5:0:0:0:0:0:0:0:0:0:0,#
*,type=HCHR_TK01,param=all:0:0:0:0:0:0:0:0:0:0,#
*,type=STOP,param=0:0:0:0:0:0:0:0:0:0:0,#
*,type=BTL_STORY,param=END:0:0:SKIPFADE:0:0:0:0:0:0:0,#
*,type=BTL_EVTUNIT_ANM,param=PBASEINDEX$0:ATTACK:0:0:0:0:0:0:0:0:0,#
*,type=SE_0000,param=317:0:0:0:0:0:0:0:0:0:0,#
*,type=BTL_EVTUNIT_ANM,param=MINDEX$1:ATTACK:0:0:0:0:0:0:0:0:0,#
*,type=EFFECT_GP,param=10030004:162:420:0:0:0:0:0:0:0:0,#
*,type=EFFECT_GP,param=10030007:340:420:0:0:0:0:0:0:0:0,#
*,type=SE_0000,param=139:0:0:0:0:0:0:0:0:0:0,#
*,type=STOP,param=0:0:0:0:0:0:0:0:0:0:0,#
*,type=EFFECT_GP,param=60010007:340:450:0:0:70:0:0:0:0:0,#
*,type=BTL_WaitAction,param=40:0:0:0:0:0:0:0:0:0:0,#
*,type=BTL_EVTUNIT_ANM,param=PBASEINDEX$0:IDLE  :0:0:0:0:0:0:0:0:0,#
*,type=BTL_EVTUNIT_ANM,param=MINDEX$1:IDLE  :0:0:0:0:0:0:0:0:0,#
*,type=EFFECT_GP,param=10030004:162:420:0:0:0:0:0:0:0:0,#
*,type=EFFECT_GP,param=10030007:340:420:0:0:0:0:0:0:0:0,#
*,type=SE_0000,param=139:0:0:0:0:0:0:0:0:0:0,#
*,type=STOP,param=0:0:0:0:0:0:0:0:0:0:0,#
*,type=BTL_WaitAction,param=0:0:0:0:0:0:0:0:0:0:0,#
*,type=BTL_EVTUNIT_ANM,param=PBASEINDEX$0:ATTACK:0:0:0:0:0:0:0:0:0,#
*,type=SE_0000,param=318:0:0:0:0:0:0:0:0:0:0,#
*,type=EFFECT_GP,param=60010007:340:450:0:0:70:0:0:0:0:0,#
*,type=BTL_WaitAction,param=40:0:0:0:0:0:0:0:0:0:0,#
*,type=BTL_EVTUNIT_ANM,param=PBASEINDEX$0:IDLE  :0:0:0:0:0:0:0:0:0,#
*,type=BTL_WaitAction,param=10:0:0:0:0:0:0:0:0:0:0,#
*,type=BTL_STORY,param=START:0:0:SKIPFADE:0:0:0:0:0:0:0,#
*,type=HCHR_FDM00,param=ALL:MSK$off:0:0:0:0:0:0:0:0:0,#
*,type=HCHR_GRP00,param=chr_Lien:face:do:0:0:0:0:0:0:0:0,#
*,type=HCHR_TK00,msg=<size=36>言ってんだろうがぁ！,param=chr_Lien:$Shout_M_R_Battle:0:0:0:0:0:0:0:0:0,#
*,type=HCHR_TK01,param=all:0:0:0:0:0:0:0:0:0:0,#
*,type=BTL_STORY,param=END:0:0:SKIPFADE:0:0:0:0:0:0:0,#
*,type=BTL_EVTUNIT_ANM,param=PBASEINDEX$0:ATTACK:0:0:0:0:0:0:0:0:0,#
*,type=SE_0000,param=117:0:0:0:0:0:0:0:0:0:0,#
*,type=SE_0000,param=320:0:0:0:0:0:0:0:0:0:0,#
*,type=SE_0000,param=209:0:0:0:0:0:0:0:0:0:0,#
*,type=EFFECT_GP,param=10700000:162:420:0:0:70:0:0:0:0:0,#
*,type=STOP,param=0:0:0:0:0:0:0:0:0:0:0,#
*,type=EFFECT_GP,param=10020004:162:420:0:0:70:0:0:0:0:0,#
*,type=STOP,param=0:0:0:0:0:0:0:0:0:0:0,#
*,type=EFFECT_GP,param=21100004:162:420:0:0:70:0:0:0:0:0,#
*,type=STOP,param=0:0:0:0:0:0:0:0:0:0:0,#
*,type=EFFECT_GP,param=21100002:162:420:0:0:70:0:0:0:0:0,#
*,type=STOP,param=0:0:0:0:0:0:0:0:0:0:0,#
*,type=EFFECT_GP,param=10020004:162:420:0:0:70:0:0:0:0:0,#
*,type=STOP,param=0:0:0:0:0:0:0:0:0:0:0,#
*,type=EFFECT_GP,param=21100004:162:420:0:0:70:0:0:0:0:0,#
*,type=STOP,param=0:0:0:0:0:0:0:0:0:0:0,#
*,type=EFFECT_GP,param=21100002:162:420:0:0:70:0:0:0:0:0,#
*,type=STOP,param=0:0:0:0:0:0:0:0:0:0:0,#
*,type=EFFECT_GP,param=10690010:162:420:0:0:70:0:0:0:0:0,#
*,type=STOP,param=0:0:0:0:0:0:0:0:0:0:0,#
*,type=EFFECT_GP,param=60010007:162:420:0:0:70:0:0:0:0:0,#
*,type=STOP,param=0:0:0:0:0:0:0:0:0:0:0,#
*,type=BTL_WaitAction,param=40:0:0:0:0:0:0:0:0:0:0,#
*,type=BTL_EVTUNIT_ANM,param=PBASEINDEX$0:IDLE  :0:0:0:0:0:0:0:0:0,#
*,type=BTL_WaitAction,param=10:0:0:0:0:0:0:0:0:0:0,#
*,type=BTL_STORY,param=START:0:0:SKIPFADE:0:0:0:0:0:0:0,#
*,type=STOP,param=0:0:0:0:0:0:0:0:0:0:0,#
*,type=HCHR_POS00,param=chr_Lien:FADEOUT:T$0.1:0:0:0:0:0:0:0:0,#
*,type=STOP,param=0:0:0:0:0:0:0:0:0:0:0,#
*,type=HCHR_GRP00,param=chr_Valsalam:face:ku:T$0.0:0:0:0:0:0:0:0,#
*,type=HCHR_POS00,param=chr_Valsalam:FADEIN:$CHARA_FadeTime:0:0:0:0:0:0:0:0,#
*,type=STOP,param=0:0:0:0:0:0:0:0:0:0:0,#
*,type=HCHR_TK00,msg=<speed=7>まさ…<wait=1.2>か……,param=chr_Valsalam:$RightBattle6:0:0:0:0:0:0:0:0:0,#
*,type=HCHR_TK00,msg=<speed=7>このような……,param=chr_Valsalam:$RightBattle8:0:0:0:0:0:0:0:0:0,#
*,type=HCHR_TK00,msg=<speed=7>“古の悪魔”の力…<wait=1.2><br>まで、<wait=1.2>も……<wait=1.2><speed=2>ガハッ!!,param=chr_Valsalam:$RightBattle10:0:0:0:0:0:0:0:0:0,#
*,type=HCHR_TK01,param=all:0:0:0:0:0:0:0:0:0:0,#
*,type=HCHR_FDM00,param=chr_Valsalam:MSK$on:0.5:0:0:0:0:0:0:0:0,#
*,type=HCHR_POS00,param=chr_Valsalam:OUT$bottom$20:T$1:0:0:0:0:0:0:0:0,#
*,type=STOP,param=0:0:0:0:0:0:0:0:0:0:0,#
*,type=BTL_STORY,param=END:0:0:SKIPFADE:0:0:0:0:0:0:0,#
*,type=BTL_EVTUNIT_ANM,param=PBASEINDEX$0:WIN:0:0:0:0:0:0:0:0:0,#
*,type=BTL_WaitAction,param=0:0:0:0:0:0:0:0:0:0:0,#
*,type=BTL_MONSTER_DEATH,param=MINDEX$1:0:0:0:0:0:0:0:0:0:0,#
*,type=EFFECT_GP,param=60010017:320:568:0:0:70:0:0:0:0:0,#
*,type=SE_0000,param=354:0:0:0:0:0:0:0:0:0:0,#
*,type=SE_0000,param=340:0:0:0:0:0:0:0:0:0:0,#
*,type=BTL_WaitAction,param=5:0:0:0:0:0:0:0:0:0:0,#
*,type=WAIT_0000,param=2:0:0:0:0:0:0:0:0:0:0,#
*,type=BTL_ReqAction,param=PBASEINDEX$0:0:MOVETO:DEFAULT$DEFAULT$0.4$MOVE$IDLE:0:0:0:0:0:0:0,#
*,type=BTL_WaitAction,param=5:0:0:0:0:0:0:0:0:0:0,#
*,type=BTL_PanelMask,param=OFF:0:0:0:0:0:0:0:0:0:0,#
*,type=EVT_BLOCKEND,param=0:0:0:0:0:0:0:0:0:0:0,#
*,type=EVT_BTL_ENDBTL,param=1:0:0:0:0:0:0:0:0:0:0,#
*,type=BTL_PanelMask,param=ON:0:0:0:0:0:0:0:0:0:0,#
*,type=BTL_STORY,param=START:0:0:SKIPFADE:0:0:0:0:0:0:0,#
*,type=HCHR_ENT00,param=chr_Ariatos:アリアトス:N$chara_bf2_69_b:$BTLPOS_Left:TYPE$middle:Z$10:0:0:0:0:0,#
*,type=HCHR_ENT00,param=chr_Elysia:エリシア:N$chara_bf2_73_b:$BTLPOS_Left:TYPE$middle:Z$10:0:0:0:0:0,#
*,type=HCHR_ENT00,param=chr_Leyel:レイエル:N$chara_bf2_72_b:$BTLPOS_Left:TYPE$middle:Z$10:0:0:0:0:0,#
*,type=STOP,param=0:0:0:0:0:0:0:0:0:0:0,#
*,type=HCHR_POS00,param=chr_Elysia:FADEIN:T$0.3:0:0:0:0:0:0:0:0,#
*,type=STOP,param=0:0:0:0:0:0:0:0:0:0:0,#
*,type=HCHR_TK00,msg=今…彼はなんて…<br>まさか…,param=chr_Elysia:$LeftBattle8:0:0:0:0:0:0:0:0:0,#
*,type=HCHR_TK01,param=all:0:0:0:0:0:0:0:0:0:0,#
*,type=HCHR_POS00,param=chr_Elysia:FADEOUT:$CHARA_FadeTime:0:0:0:0:0:0:0:0,#
*,type=HCHR_FDM00,param=chr_Elysia:MSK$on:0.3:0:0:0:0:0:0:0:0,#
*,type=HCHR_POS00,param=chr_Ariatos:FADEIN:$CHARA_FadeTime:0:0:0:0:0:0:0:0,#
*,type=HCHR_FDM00,param=chr_Ariatos:MSK$off:0.3:0:0:0:0:0:0:0:0,#
*,type=STOP,param=0:0:0:0:0:0:0:0:0:0:0,#
*,type=HCHR_TK00,msg=どうしたのだ、エリシア。,param=chr_Ariatos:$LeftBattle12:0:0:0:0:0:0:0:0:0,#
*,type=HCHR_TK01,param=all:0:0:0:0:0:0:0:0:0:0,#
*,type=HCHR_POS00,param=chr_Ariatos:FADEOUT:$CHARA_FadeTime:0:0:0:0:0:0:0:0,#
*,type=HCHR_FDM00,param=chr_Ariatos:MSK$on:0.3:0:0:0:0:0:0:0:0,#
*,type=HCHR_GRP00,param=chr_Elysia:face:fu:$FACE_FadeTime:0:0:0:0:0:0:0,#
*,type=HCHR_POS00,param=chr_Elysia:FADEIN:$CHARA_FadeTime:0:0:0:0:0:0:0:0,#
*,type=HCHR_FDM00,param=chr_Elysia:MSK$off:0.3:0:0:0:0:0:0:0:0,#
*,type=STOP,param=0:0:0:0:0:0:0:0:0:0:0,#
*,type=HCHR_TK00,msg=“古の悪魔”の名<br>聞いたことがあります…,param=chr_Elysia:$LeftBattle12:0:0:0:0:0:0:0:0:0,#
*,type=HCHR_TK00,msg=伝承によれば古の悪魔は<br>人々を狂わせ、魔に堕とし…,param=chr_Elysia:$LeftBattle14:0:0:0:0:0:0:0:0:0,#
*,type=HCHR_TK00,msg=世を破壊し<br>闇に陥れると伝えられています…,param=chr_Elysia:$LeftBattle16:0:0:0:0:0:0:0:0:0,#
*,type=HCHR_TK01,param=all:0:0:0:0:0:0:0:0:0:0,#
*,type=HCHR_POS00,param=chr_Elysia:FADEOUT:$CHARA_FadeTime:0:0:0:0:0:0:0:0,#
*,type=HCHR_FDM00,param=chr_Elysia:MSK$on:0.3:0:0:0:0:0:0:0:0,#
*,type=HCHR_GRP00,param=chr_Leyel:face:bi:0:0:0:0:0:0:0:0,#
*,type=HCHR_POS00,param=chr_Leyel:FADEIN:$CHARA_FadeTime:0:0:0:0:0:0:0:0,#
*,type=HCHR_FDM00,param=chr_Leyel:MSK$off:0.3:0:0:0:0:0:0:0:0,#
*,type=STOP,param=0:0:0:0:0:0:0:0:0:0:0,#
*,type=HCHR_TK00,msg=なるほど……,param=chr_Leyel:$LeftBattle6:0:0:0:0:0:0:0:0:0,#
*,type=HCHR_GRP00,param=chr_Leyel:face:fu:0:0:0:0:0:0:0:0,#
*,type=HCHR_TK00,msg=ならば、こうして討ち果たせたのは<br>僥倖と言うほかありませんね…,param=chr_Leyel:$LeftBattle16:0:0:0:0:0:0:0:0:0,#
*,type=HCHR_TK01,param=all:0:0:0:0:0:0:0:0:0:0,#
*,type=HCHR_POS00,param=chr_Leyel:FADEOUT:$CHARA_FadeTime:0:0:0:0:0:0:0:0,#
*,type=HCHR_FDM00,param=chr_Leyel:MSK$on:0.3:0:0:0:0:0:0:0:0,#
*,type=HCHR_GRP00,param=chr_Elysia:face:bi:$FACE_FadeTime:0:0:0:0:0:0:0,#
*,type=HCHR_POS00,param=chr_Elysia:FADEIN:$CHARA_FadeTime:0:0:0:0:0:0:0:0,#
*,type=HCHR_FDM00,param=chr_Elysia:MSK$off:0.3:0:0:0:0:0:0:0:0,#
*,type=WAIT_0000,param=0.1:0:0:0:0:0:0:0:0:0:0,#
*,type=HCHR_GRP00,param=chr_Elysia:face:bi:$FACE_FadeTime:0:0:0:0:0:0:0,#
*,type=HCHR_EFC00,param=Eff_Manp_19:chr_Elysia:manpu_1:0:SS5$$MANP_surprise_red_c:0:1:0:0:0:0,#
*,type=WAIT_0000,param=0.2:0:0:0:0:0:0:0:0:0:0,#
*,type=HCHR_TK00,msg=<speed=3>ま、<wait=1>待ってください！,param=chr_Elysia:$LeftBattle10:0:0:0:0:0:0:0:0:0,#
*,type=PICT_0004,param=Eff_Manp_19:0:0:0:0:0:0:0:0:0:0,#
*,type=HCHR_GRP00,param=chr_Elysia:face:do:$FACE_FadeTime:0:0:0:0:0:0:0,#
*,type=HCHR_TK00,msg=<speed=3>まだ…<wait=1><br>まだ終わっていません!!,param=chr_Elysia:$LeftBattle12:0:0:0:0:0:0:0:0:0,#
*,type=HCHR_TK01,param=all:0:0:0:0:0:0:0:0:0:0,#
*,type=HCHR_POS00,param=chr_Elysia:FADEOUT:T$0.3:0:0:0:0:0:0:0:0,#
*,type=BGM_0001,param=1.5:0:0:0:0:0:0:0:0:0:0,#
*,type=WAIT_0000,param=0.5:0:0:0:0:0:0:0:0:0:0,#
*,type=BTL_STORY,param=END:0:0:SKIPFADE:0:0:0:0:0:0:0,#
*,type=BTL_PanelMask,param=OFF:0:0:0:0:0:0:0:0:0:0,#
*,type=EVT_BLOCKEND,param=0:0:0:0:0:0:0:0:0:0:0,#
*,type=EVT_BTL_PREBTL,param=2:0:0:0:0:0:0:0:0:0:0,#
*,type=BGM_0001,param=0:0:0:0:0:0:0:0:0:0:0,#
*,type=EFFECT_GP,param=60010017:320:568:0:0:70:0:0:0:0:0,#
*,type=SE_0000,param=211:0:0:0:0:0:0:0:0:0:0,#
*,type=WAIT_0000,param=1.2:0:0:0:0:0:0:0:0:0:0,#
*,type=QUAK_0000,param=0.1:20:5:5:0:0:0:0:0:0:0,#
*,type=SE_0000,param=347:0:0:0:0:0:0:0:0:0:0,#
*,type=MSKS_0000,param=bgValsalamMask:113&26&83:0:Z$49:T$1.5:0:0:0:0:0:0,#
*,type=WAIT_0000,param=1:0:0:0:0:0:0:0:0:0:0,#
*,type=MSKS_0000,param=bgBlackMask:0&0&0:0:Z$50:T$0.5:0:0:0:0:0:0,#
*,type=WAIT_0000,param=0.5:0:0:0:0:0:0:0:0:0:0,#
*,type=EVT_BLOCKEND,param=0:0:0:0:0:0:0:0:0:0:0,#
*,type=EVT_BTL_STARTBTL,param=2:0:0:0:0:0:0:0:0:0:0,#
*,type=BTL_PanelMask,param=ON:0:0:0:0:0:0:0:0:0:0,#
*,type=MSKS_0002,param=bgValsalamMask:T$1:0:0:0:0:0:0:0:0:0,#
*,type=MSKS_0002,param=bgBlackMask:T$0.5:0:0:0:0:0:0:0:0:0,#
*,type=WAIT_0000,param=1:0:0:0:0:0:0:0:0:0:0,#
*,type=BGM_0000,param=1103:0:0:0:0:0:0:0:0:0:0,#
*,type=EFFECT_GP,param=60010017:320:568:0:0:70:0:0:0:0:0,#
*,type=SE_0000,param=307:0:0:0:0:0:0:0:0:0:0,#
*,type=SE_0000,param=329:0:0:0:0:0:0:0:0:0:0,#
*,type=EFFECT_GP,param=24000007:30:410:0:0:0:0:0:0:0:0,#
*,type=EFFECT_GP,param=24000007:80:350:0:0:0:0:0:0:0:0,#
*,type=EFFECT_GP,param=24000007:130:310:0:0:0:0:0:0:0:0,#
*,type=EFFECT_GP,param=24000007:180:290:0:0:0:0:0:0:0:0,#
*,type=EFFECT_GP,param=24000007:230:310:0:0:0:0:0:0:0:0,#
*,type=EFFECT_GP,param=24000007:280:350:0:0:0:0:0:0:0:0,#
*,type=EFFECT_GP,param=24000007:330:410:0:0:0:0:0:0:0:0,#
*,type=EFFECT_GP,param=24000007:-10:490:0:0:0:0:0:0:0:0,#
*,type=EFFECT_GP,param=24000007:40:550:0:0:0:0:0:0:0:0,#
*,type=EFFECT_GP,param=24000007:90:590:0:0:0:0:0:0:0:0,#
*,type=EFFECT_GP,param=24000007:140:610:0:0:0:0:0:0:0:0,#
*,type=EFFECT_GP,param=24000007:190:590:0:0:0:0:0:0:0:0,#
*,type=EFFECT_GP,param=24000007:240:550:0:0:0:0:0:0:0:0,#
*,type=EFFECT_GP,param=24000007:290:490:0:0:0:0:0:0:0:0,#
*,type=STOP,param=0:0:0:0:0:0:0:0:0:0:0,#
*,type=EFFECT_GP,param=26000000:160:450:0:0:0:0:0:0:0:0,#
*,type=EFFECT_GP,param=26000000:160:500:0:0:0:0:0:0:0:0,#
*,type=EFFECT_GP,param=26000000:160:400:0:0:0:0:0:0:0:0,#
*,type=EFFECT_GP,param=26000000:110:400:0:0:0:0:0:0:0:0,#
*,type=EFFECT_GP,param=26000000:110:500:0:0:0:0:0:0:0:0,#
*,type=EFFECT_GP,param=26000000:210:400:0:0:0:0:0:0:0:0,#
*,type=EFFECT_GP,param=26000000:210:500:0:0:0:0:0:0:0:0,#
*,type=EFFECT_GP,param=26000000:110:450:0:0:0:0:0:0:0:0,#
*,type=EFFECT_GP,param=26000000:210:450:0:0:0:0:0:0:0:0,#
*,type=STOP,param=0:0:0:0:0:0:0:0:0:0:0,#
*,type=FADEIN_000,param=0.15:113&26&83:0:0:0:0:0:0:0:0:0,#
*,type=STOP,param=0:0:0:0:0:0:0:0:0:0:0,#
*,type=BTL_ReqAction,param=PPTALL:0:MOVETO:DEFAULT$DEFAULT$0.4$IDLE$IDLE:0:0:0:0:0:0:0,#
*,type=BTL_WaitAction,param=60:0:0:0:0:0:0:0:0:0:0,#
*,type=BTL_STORY,param=START:0:0:SKIPFADE:0:0:0:0:0:0:0,#
*,type=HCHR_ENT00,param=chr_Garuku:グルーク:N$chara_bf2_74_b:$BTLPOS_Left:TYPE$middle:Z$10:0:0:0:0:0,#
*,type=HCHR_ENT00,param=chr_Ariatos:アリアトス:N$chara_bf2_69_b:$BTLPOS_Left:TYPE$middle:Z$10:0:0:0:0:0,#
*,type=HCHR_ENT00,param=chr_Valsalam_b:バルサラム:N$chara_bf2_88_b:$BTLPOS_Right:TYPE$middle:Z$10:0:0:0:0:0,#
*,type=HCHR_ENT00,param=chr_Lien:リアン:N$chara_bf2_71_b:$BTLPOS_Left:TYPE$middle:Z$10:0:0:0:0:0,#
*,type=HCHR_ENT00,param=chr_Elysia:エリシア:N$chara_bf2_73_b:$BTLPOS_Left:TYPE$middle:Z$10:0:0:0:0:0,#
*,type=STOP,param=0:0:0:0:0:0:0:0:0:0:0,#
*,type=HCHR_GRP00,param=chr_Garuku:face:ku:$FACE_FadeTime:0:0:0:0:0:0:0,#
*,type=HCHR_POS00,param=chr_Garuku:FADEIN:$CHARA_FadeTime:0:0:0:0:0:0:0:0,#
*,type=STOP,param=0:0:0:0:0:0:0:0:0:0:0,#
*,type=HCHR_TK00,msg=これが古の悪魔の力…！<br>野郎、不死身かよ!?,param=chr_Garuku:$LeftBattle12:0:0:0:0:0:0:0:0:0,#
*,type=HCHR_GRP00,param=chr_Garuku:face:do:$FACE_FadeTime:0:0:0:0:0:0:0,#
*,type=HCHR_TK00,msg=こうなりゃ、次は俺が…,param=chr_Garuku:$LeftBattle12:0:0:0:0:0:0:0:0:0,#
*,type=HCHR_TK01,param=ALL:0:0:0:0:0:0:0:0:0:0,#
*,type=HCHR_POS00,param=chr_Garuku:FADEOUT:$CHARA_FadeTime:0:0:0:0:0:0:0:0,#
*,type=HCHR_FDM00,param=chr_Garuku:MSK$on:0.3:0:0:0:0:0:0:0:0,#
*,type=HCHR_GRP00,param=chr_Ariatos:face:do:0:0:0:0:0:0:0:0,#
*,type=HCHR_POS00,param=chr_Ariatos:FADEIN:$CHARA_FadeTime:0:0:0:0:0:0:0:0,#
*,type=HCHR_FDM00,param=chr_Ariatos:MSK$off:0.3:0:0:0:0:0:0:0:0,#
*,type=STOP,param=0:0:0:0:0:0:0:0:0:0:0,#
*,type=HCHR_TK00,msg=待て、何か様子がおかしい！<br>皆、下がれ！,param=chr_Ariatos:$LeftBattle14:0:0:0:0:0:0:0:0:0,#
*,type=HCHR_TK01,param=all:0:0:0:0:0:0:0:0:0:0,#
*,type=HCHR_POS00,param=chr_Ariatos:FADEOUT:T$0.1:0:0:0:0:0:0:0:0,#
*,type=STOP,param=0:0:0:0:0:0:0:0:0:0:0,#
*,type=HCHR_POS00,param=chr_Valsalam_b:FADEIN:$CHARA_FadeTime:0:0:0:0:0:0:0:0,#
*,type=STOP,param=0:0:0:0:0:0:0:0:0:0:0,#
*,type=HCHR_TK00,msg=グウゥゥ……,param=chr_Valsalam_b:$RightBattle6:0:0:0:0:0:0:0:0:0,#
*,type=HCHR_TK00,msg=<speed=3><size=36>グゥアァァァッ!!,param=chr_Valsalam_b:$Shout_M_R_Battle:nowait:0:0:0:0:0:0:0:0,#
*,type=EFFECT_GP,param=60010017:320:568:0:0:70:0:0:0:0:0,#
*,type=HCHR_SHK00,param=chr_Valsalam_b:3:0.04:0.5:0:0:0:0:0:0:0,#
*,type=SE_0000,param=307:0:0:0:0:0:0:0:0:0:0,#
*,type=SE_0000,param=316:0:0:0:0:0:0:0:0:0:0,#
*,type=CSYN_0002,param=0:0:0:0:0:0:0:0:0:0:0,#
*,type=HCHR_TK00,msg=<speed=7>破壊…スル…,param=chr_Valsalam_b:$RightBattle6:0:0:0:0:0:0:0:0:0,#
*,type=HCHR_TK00,msg=<speed=7>スベテ…ヲ…無ニ…帰ス…,param=chr_Valsalam_b:$RightBattle12:0:0:0:0:0:0:0:0:0,#
*,type=HCHR_TK00,msg=<speed=7>スベ…テ…破壊……スル!!,param=chr_Valsalam_b:$RightBattle12:0:0:0:0:0:0:0:0:0,#
*,type=HCHR_TK01,param=all:0:0:0:0:0:0:0:0:0:0,#
*,type=HCHR_POS00,param=chr_Valsalam_b:FADEOUT:T$0.1:0:0:0:0:0:0:0:0,#
*,type=STOP,param=0:0:0:0:0:0:0:0:0:0:0,#
*,type=HCHR_POS00,param=chr_Lien:POS$160&200:0:0:0:0:0:0:0:0:0,#
*,type=HCHR_GRP00,param=chr_Lien:face:bi:$FACE_FadeTime:0:0:0:0:0:0:0,#
*,type=HCHR_POS00,param=chr_Lien:FADEIN:T$0.2:0:0:0:0:0:0:0:0,#
*,type=STOP,param=0:0:0:0:0:0:0:0:0:0:0,#
*,type=HCHR_TK00,msg=どうしたんだこいつ…！,param=chr_Lien:$LeftBattle12:0:0:0:0:0:0:0:0:0,#
*,type=HCHR_TK01,param=all:0:0:0:0:0:0:0:0:0:0,#
*,type=HCHR_POS00,param=chr_Lien:FADEOUT:$CHARA_FadeTime:0:0:0:0:0:0:0:0,#
*,type=HCHR_FDM00,param=chr_Lien:MSK$on:0.3:0:0:0:0:0:0:0:0,#
*,type=HCHR_GRP00,param=chr_Elysia:face:ku:0:0:0:0:0:0:0:0,#
*,type=HCHR_POS00,param=chr_Elysia:FADEIN:$CHARA_FadeTime:0:0:0:0:0:0:0:0,#
*,type=HCHR_FDM00,param=chr_Elysia:MSK$off:0.3:0:0:0:0:0:0:0:0,#
*,type=STOP,param=0:0:0:0:0:0:0:0:0:0:0,#
*,type=HCHR_TK00,msg=力が暴走している…！,param=chr_Elysia:$LeftBattle10:0:0:0:0:0:0:0:0:0,#
*,type=HCHR_TK00,msg=今の彼は力そのものに<br>身体を乗っ取られているんです！,param=chr_Elysia:$LeftBattle16:0:0:0:0:0:0:0:0:0,#
*,type=HCHR_TK00,msg=もはや、今の彼は<br>単なる力の器にしか…,param=chr_Elysia:$LeftBattle10:0:0:0:0:0:0:0:0:0,#
*,type=HCHR_TK00,msg=いえ……<br>自らの力に砕かれ…,param=chr_Elysia:$LeftBattle10:0:0:0:0:0:0:0:0:0,#
*,type=HCHR_GRP00,param=chr_Elysia:face:do:$FACE_FadeTime:0:0:0:0:0:0:0,#
*,type=HCHR_TK00,msg=溢れる力をとどめられなくなった<br>器の残骸に過ぎません！,param=chr_Elysia:$LeftBattle16:0:0:0:0:0:0:0:0:0,#
*,type=HCHR_TK01,param=all:0:0:0:0:0:0:0:0:0:0,#
*,type=HCHR_POS00,param=chr_Elysia:FADEOUT:$CHARA_FadeTime:0:0:0:0:0:0:0:0,#
*,type=HCHR_FDM00,param=chr_Elysia:MSK$on:0.3:0:0:0:0:0:0:0:0,#
*,type=HCHR_GRP00,param=chr_Ariatos:face:ku:0:0:0:0:0:0:0:0,#
*,type=HCHR_POS00,param=chr_Ariatos:FADEIN:$CHARA_FadeTime:0:0:0:0:0:0:0:0,#
*,type=HCHR_FDM00,param=chr_Ariatos:MSK$off:0.3:0:0:0:0:0:0:0:0,#
*,type=STOP,param=0:0:0:0:0:0:0:0:0:0:0,#
*,type=HCHR_TK00,msg=クッ、今一度奴を…<br>バルサラムを倒す！,param=chr_Ariatos:$LeftBattle10:0:0:0:0:0:0:0:0:0,#
*,type=HCHR_GRP00,param=chr_Ariatos:face:do:$FACE_FadeTime:0:0:0:0:0:0:0,#
*,type=HCHR_TK00,msg=あんなものを世に放つ訳にはいかん！,param=chr_Ariatos:$LeftBattle18:0:0:0:0:0:0:0:0:0,#
*,type=HCHR_TK01,param=all:0:0:0:0:0:0:0:0:0:0,#
*,type=HCHR_POS00,param=chr_Ariatos:FADEOUT:T$0.3:0:0:0:0:0:0:0:0,#
*,type=STOP,param=0:0:0:0:0:0:0:0:0:0:0,#
*,type=BTL_STORY,param=END:0:0:SKIPFADE:0:0:0:0:0:0:0,#
*,type=BTL_PanelMask,param=OFF:0:0:0:0:0:0:0:0:0:0,#
*,type=EVT_BLOCKEND,param=0:0:0:0:0:0:0:0:0:0:0,#
*,type=EVT_BTL_REGULARLY,param=2000:0:0:0:0:0:0:0:0:0:0,#
*,type=BTL_PanelMask,param=ON:0:0:0:0:0:0:0:0:0:0,#
*,type=BTL_STORY,param=START:0:0:SKIPFADE:0:0:0:0:0:0:0,#
*,type=HCHR_ENT00,param=chr_Valsalam_b:バルサラム:N$chara_bf2_88_b:$BTLPOS_Right:TYPE$middle:Z$10:0:0:0:0:0,#
*,type=HCHR_POS00,param=chr_Valsalam_b:FADEIN:$CHARA_FadeTime:0:0:0:0:0:0:0:0,#
*,type=STOP,param=0:0:0:0:0:0:0:0:0:0:0,#
*,type=HCHR_TK00,msg=<speed=3><size=36>グゥアァァァッ!!,param=chr_Valsalam_b:$Shout_M_R_Battle:nowait:0:0:0:0:0:0:0:0,#
*,type=EFFECT_GP,param=60010017:320:568:0:0:70:0:0:0:0:0,#
*,type=SE_0000,param=307:0:0:0:0:0:0:0:0:0:0,#
*,type=SE_0000,param=316:0:0:0:0:0:0:0:0:0:0,#
*,type=HCHR_SHK00,param=chr_Valsalam_b:3:0.04:0.5:0:0:0:0:0:0:0,#
*,type=CSYN_0002,param=0:0:0:0:0:0:0:0:0:0:0,#
*,type=HCHR_TK01,param=all:0:0:0:0:0:0:0:0:0:0,#
*,type=HCHR_POS00,param=chr_Valsalam_b:FADEOUT:T$0.1:0:0:0:0:0:0:0:0,#
*,type=STOP,param=0:0:0:0:0:0:0:0:0:0:0,#
*,type=BTL_STORY,param=END:0:0:SKIPFADE:0:0:0:0:0:0:0,#
*,type=BTL_PanelMask,param=OFF:0:0:0:0:0:0:0:0:0:0,#
*,type=EVT_BLOCKEND,param=0:0:0:0:0:0:0:0:0:0:0,#
*,type=EVT_BTL_REGULARLY,param=3000:0:0:0:0:0:0:0:0:0:0,#
*,type=BTL_PanelMask,param=ON:0:0:0:0:0:0:0:0:0:0,#
*,type=BTL_STORY,param=START:0:0:SKIPFADE:0:0:0:0:0:0:0,#
*,type=HCHR_ENT00,param=chr_Valsalam_b:バルサラム:N$chara_bf2_88_b:$BTLPOS_Right:TYPE$middle:Z$10:0:0:0:0:0,#
*,type=HCHR_POS00,param=chr_Valsalam_b:FADEIN:$CHARA_FadeTime:0:0:0:0:0:0:0:0,#
*,type=STOP,param=0:0:0:0:0:0:0:0:0:0:0,#
*,type=HCHR_TK00,msg=<speed=3><size=32>グ、グアァァァァァッ!!,param=chr_Valsalam_b:$Shout_M_R_Battle:nowait:0:0:0:0:0:0:0:0,#
*,type=EFFECT_GP,param=60010007:320:568:0:0:70:0:0:0:0:0,#
*,type=SE_0000,param=300:0:0:0:0:0:0:0:0:0:0,#
*,type=SE_0000,param=316:0:0:0:0:0:0:0:0:0:0,#
*,type=HCHR_SHK00,param=chr_Valsalam_b:3:0.04:0.5:0:0:0:0:0:0:0,#
*,type=CSYN_0002,param=0:0:0:0:0:0:0:0:0:0:0,#
*,type=HCHR_TK01,param=all:0:0:0:0:0:0:0:0:0:0,#
*,type=HCHR_POS00,param=chr_Valsalam_b:FADEOUT:T$0.1:0:0:0:0:0:0:0:0,#
*,type=STOP,param=0:0:0:0:0:0:0:0:0:0:0,#
*,type=HCHR_GRP00,param=chr_Ariatos:face:do:0:0:0:0:0:0:0:0,#
*,type=HCHR_POS00,param=chr_Ariatos:FADEIN:$CHARA_FadeTime:0:0:0:0:0:0:0:0,#
*,type=STOP,param=0:0:0:0:0:0:0:0:0:0:0,#
*,type=HCHR_TK00,msg=行けるぞ！<br>このまま仕掛ける！,param=chr_Ariatos:$LeftBattle10:0:0:0:0:0:0:0:0:0,#
*,type=HCHR_TK00,msg=ここで決着を…！,param=chr_Ariatos:$LeftBattle8:0:0:0:0:0:0:0:0:0,#
*,type=HCHR_TK01,param=all:0:0:0:0:0:0:0:0:0:0,#
*,type=HCHR_POS00,param=chr_Ariatos:FADEOUT:$CHARA_FadeTime:0:0:0:0:0:0:0:0,#
*,type=HCHR_FDM00,param=chr_Ariatos:MSK$on:0.3:0:0:0:0:0:0:0:0,#
*,type=HCHR_GRP00,param=chr_Elysia:face:do:0:0:0:0:0:0:0:0,#
*,type=HCHR_POS00,param=chr_Elysia:FADEIN:$CHARA_FadeTime:0:0:0:0:0:0:0:0,#
*,type=HCHR_FDM00,param=chr_Elysia:MSK$off:0.3:0:0:0:0:0:0:0:0,#
*,type=STOP,param=0:0:0:0:0:0:0:0:0:0:0,#
*,type=HCHR_TK00,msg=<speed=3>いけません、陛下!!,param=chr_Elysia:$LeftBattle10:0:0:0:0:0:0:0:0:0,#
*,type=HCHR_TK01,param=all:0:0:0:0:0:0:0:0:0:0,#
*,type=HCHR_POS00,param=chr_Elysia:FADEOUT:T$0.1:0:0:0:0:0:0:0:0,#
*,type=STOP,param=0:0:0:0:0:0:0:0:0:0:0,#
*,type=BTL_STORY,param=END:0:0:SKIPFADE:0:0:0:0:0:0:0,#
*,type=BTL_ENDMISSION,param=$MSNR_CLEAR:0:0:0:0:0:0:0:0:0:0,#
*,type=BTL_PanelMask,param=OFF:0:0:0:0:0:0:0:0:0:0,#
*,type=EVT_BLOCKEND,param=0:0:0:0:0:0:0:0:0:0:0,#
*,type=EVT_BTL_ENDMISSION1,param=0:0:0:0:0:0:0:0:0:0:0,#
*,type=BTL_PanelMask,param=ON:0:0:0:0:0:0:0:0:0:0,#
*,type=MSKS_0000,param=bgBlackMask:$BGBLACK_Color:0:Z$50:T$1.5:0:0:0:0:0:0,#
*,type=WAIT_0000,param=1.5:0:0:0:0:0:0:0:0:0:0,#
*,type=BGM_CONTINUE,param=0:0:0:0:0:0:0:0:0:0:0,#
*,type=CALLSCR_0000,param=story001-08-01b.csv:0:0:0:0:0:0:0:0:0:0,#
*,type=STOP,param=0:0:0:0:0:0:0:0:0:0:0,#
*,type=BTL_PanelMask,param=OFF:0:0:0:0:0:0:0:0:0:0,#
*,type=EVT_BLOCKEND,param=0:0:0:0:0:0:0:0:0:0:0,#

*,type=SYSED_00,param=0:0:0:0:0:0:0:0:0:0:0,#



