﻿ScriptCmd ver 1.1.1(app1.0.4):ストクエスクリプト_06_キョウリュウジャーコラボ.xlsm/opening/story006-opening.csv

*,type=SYSST_00,param=0:0:0:0:0:0:0:0:0:0:0,#
*,type=CMD_STOP,param=0:0:0:0:0:0:0:0:0:0:0,#
*,type=SYSST_01,param=0:0:0:0:0:0:0:0:0:0:0,#


*,type=PICT_0000,param=bg1:0:0:bg$2100002:0:0:0:0:0:0:0,#
*,type=HCHR_ENT00,param=chr_rakkyuryo:ラッキューロ:N$chara_bf2_100:$POS_Center:TYPE$middle:Z$1:0:0:0:0:0,#
*,type=HCHR_ENT00,param=chr_kyannderira:キャンデリラ:N$chara_bf2_99:$POS_Center:TYPE$middle:Z$1:0:0:0:0:0,#
*,type=STOP,param=0:0:0:0:0:0:0:0:0:0:0,#
*,type=BGM_0000,param=58:0:0:0:0:0:0:0:0:0:0,#
*,type=FADEIN_000,param=1.5:00&00&00:0:0:0:0:0:0:0:0:0,#
*,type=MSKS_0000,param=bgBlackMask:$BGBLACK_Color:200:Z$50:0:0:0:0:0:0:0,#
*,type=STOP,param=0:0:0:0:0:0:0:0:0:0:0,#
*,type=WAIT_0000,param=0.5:0:0:0:0:0:0:0:0:0:0,#
*,type=FMSG_0000,msg=<speed=7>キョウリュウジャーが大好きな　　<br>デーボモンスター,param=chr_narration1:$NW2_00009:nowait:0:focusoff:0:0:0:0:0:0,#
*,type=CSYN_0001,param=0:0:0:0:0:0:0:0:0:0:0,#
*,type=WAIT_0000,param=0.1:0:0:0:0:0:0:0:0:0:0,#
*,type=FMSG_0000,msg=<speed=7>「デーボ・ブレイブスキー」が<br>キョウリュウジャーに敗れた後……,param=chr_narration2:$NW2_00012:nowait:0:focusoff:0:0:0:0:0:0,#
*,type=CSYN_0001,param=0:0:0:0:0:0:0:0:0:0:0,#
*,type=WAIT_0000,param=0.5:0:0:0:0:0:0:0:0:0:0,#
*,type=FMSG_0000,msg=<speed=7>喜びの戦騎 キャンデリラと　　　 <br>楽しみの密偵 ラッキューロは,param=chr_narration3:$NW2_00016:nowait:0:focusoff:0:0:0:0:0:0,#
*,type=CSYN_0001,param=0:0:0:0:0:0:0:0:0:0:0,#
*,type=WAIT_0000,param=0.1:0:0:0:0:0:0:0:0:0:0,#
*,type=FMSG_0000,msg=<speed=7>彼の作戦指令室を再び訪れていた。,param=chr_narration4:$NW2_00018:nowait:0:focusoff:0:0:0:0:0:0,#
*,type=CSYN_0001,param=0:0:0:0:0:0:0:0:0:0:0,#
*,type=WAIT_0000,param=2:0:0:0:0:0:0:0:0:0:0,#
*,type=FMSG_0001,param=ALL:0:0:0:0:0:0:0:0:0:0,#
*,type=WAIT_0000,param=0.5:0:0:0:0:0:0:0:0:0:0,#
*,type=MSKS_0002,param=bgBlackMask:T$0.5:0:0:0:0:0:0:0:0:0,#
*,type=STOP,param=0:0:0:0:0:0:0:0:0:0:0,#
*,type=WAIT_0000,param=0.5:0:0:0:0:0:0:0:0:0:0,#
*,type=HCHR_POS00,param=chr_rakkyuryo:FADEIN:T$0.5:$OFS_Right:0:0:0:0:0:0:0,#
*,type=HCHR_POS00,param=chr_kyannderira:FADEIN:T$0.5:$OFS_Left:0:0:0:0:0:0:0,#
*,type=STOP,param=0:0:0:0:0:0:0:0:0:0:0,#
*,type=WAIT_0000,param=0.5:0:0:0:0:0:0:0:0:0:0,#
*,type=HCHR_TK00,msg=<speed=7>まーた失敗しちゃいましたね。<wait=3><br>キャンデリラ様……,param=chr_rakkyuryo:$Right14:0:0:0:0:0:0:0:0:0,#
*,type=HCHR_TK00,msg=<speed=9>うーん…<wait=4><speed=4.8>でも作戦自体は<br>いい線いってたと思うのよね。,param=chr_kyannderira:$Left14:0:0:0:0:0:0:0:0:0,#
*,type=HCHR_TK00,msg=そーですか？,param=chr_rakkyuryo:$Right6:0:0:0:0:0:0:0:0:0,#
*,type=HCHR_TK01,param=ALL:skipmask:0:0:0:0:0:0:0:0:0,#
*,type=WAIT_0000,param=0.5:0:0:0:0:0:0:0:0:0:0,#
*,type=HCHR_TK00,msg=<speed=9>……<wait=4><speed=7>なんかやり切れない気持ちになる<br>作戦だったけどなぁ。,param=chr_rakkyuryo:$Right18:0:0:0:0:0:0:0:0:0,#
*,type=HCHR_TK01,param=ALL:skipmask:0:0:0:0:0:0:0:0:0,#
*,type=WAIT_0000,param=0.5:0:0:0:0:0:0:0:0:0:0,#
*,type=HCHR_TK00,msg=まぁ、<wait=3>喜びの感情はたくさん集まって<br>ましたけどね。,param=chr_rakkyuryo:$Right18:0:0:0:0:0:0:0:0:0,#
*,type=HCHR_TK00,msg=<speed=2>じゃあ、<wait=3>もう１回やってみましょうよ♪,param=chr_kyannderira:$Left18:0:0:0:0:0:0:0:0:0,#
*,type=HCHR_SHK00,param=chr_rakkyuryo:7:0.05:0.4:0:0:0:0:0:0:0,#
*,type=HCHR_TK00,msg=<speed=2>え!?,param=chr_rakkyuryo:$Right4:0:0:0:0:0:0:0:0:0,#
*,type=HCHR_TK01,param=ALL:skipmask:0:0:0:0:0:0:0:0:0,#
*,type=WAIT_0000,param=0.5:0:0:0:0:0:0:0:0:0:0,#
*,type=HCHR_TK00,msg=<speed=3>ブレイブスキーはいないけど<wait=3><br>ゾーリ魔だけでも、きっと大丈夫よ！,param=chr_kyannderira:$Left18:0:0:0:0:0:0:0:0:0,#
*,type=HCHR_TK00,msg=<speed=3>ホントにまたやるつもりですか!?,param=chr_rakkyuryo:$Right16:0:0:0:0:0:0:0:0:0,#
*,type=HCHR_TK00,msg=<speed=3>えぇ！<wait=4><br>今度こそ大量の喜びの感情を集めるわよ！,param=chr_kyannderira:$Left20:0:0:0:0:0:0:0:0:0,#
*,type=HCHR_TK01,param=ALL:0:0:0:0:0:0:0:0:0:0,#
*,type=HCHR_PRM00,param=chr_kyannderira:Z$1:0:0:0:0:0:0:0:0:0,#
*,type=HCHR_PRM00,param=chr_rakkyuryo:Z$2:0.3:0:0:0:0:0:0:0:0,#
*,type=HCHR_FDM00,param=ALL:MSK$on:0:0:0:0:0:0:0:0:0,#
*,type=HCHR_FDM00,param=chr_rakkyuryo:MSK$off:0.3:0:0:0:0:0:0:0:0,#
*,type=WAIT_0000,param=1:0:0:0:0:0:0:0:0:0:0,#
*,type=HCHR_TK00,msg=<speed=7>うーん、<wait=3>なんかまた<br>嫌な予感しかしないなぁ…,param=chr_rakkyuryo:$Right12:0:0:0:0:0:0:0:0:0,#
*,type=HCHR_TK01,param=ALL:skipmask:0:0:0:0:0:0:0:0:0,#
*,type=WAIT_0000,param=1:0:0:0:0:0:0:0:0:0:0,#
*,type=FADEOUT_000,param=1.5:00&00&00:0:0:0:0:0:0:0:0:0,#
*,type=WAIT_0000,param=2:0:0:0:0:0:0:0:0:0:0,#
*,type=STOP,param=0:0:0:0:0:0:0:0:0:0:0,#
*,type=PICT_0004,param=bg1:0:0:0:0:0:0:0:0:0:0,#
*,type=HCHR_ENT01,param=chr_kyannderira:0:0:0:0:0:0:0:0:0:0,#
*,type=HCHR_ENT01,param=chr_rakkyuryo:0:0:0:0:0:0:0:0:0:0,#

*,type=SYSED_00,param=0:0:0:0:0:0:0:0:0:0:0,#



