﻿ScriptCmd ver 1.1.1(app1.0.4):ストクエスクリプト_013_勇者一家_story.xlsm/story013-01-01/story013-01-01.csv

*,type=SYSST_00,param=0:0:0:0:0:0:0:0:0:0:0,#
*,type=CMD_STOP,param=0:0:0:0:0:0:0:0:0:0:0,#
*,type=SYSST_01,param=0:0:0:0:0:0:0:0:0:0:0,#


*,type=PICT_0000,param=bg_01:battle_bg_sq_011_01_1.jpg:1:bg$203110101:0:0:0:2:0:0:0,#
*,type=BGM_0000,param=33:0:0:0:0:0:0:0:0:0:0,#
*,type=FADEIN_000,param=1.5:00&00&00:0:0:0:0:0:0:0:0:0,#
*,type=WAIT_0000,param=2.5:0:0:0:0:0:0:0:0:0:0,#
*,type=HCHR_ENT00,param=chr_Gaitu:ガイツ:N$chara_bf2_158:$POS_Center:TYPE$middle:Z$11:0:0:0:0:0,#
*,type=HCHR_ENT00,param=chr_Renshia:レンシア:N$chara_bf2_160:$POS_Center:TYPE$middle:Z$10:0:0:0:0:0,#
*,type=STOP,param=0:0:0:0:0:0:0:0:0:0:0,#
*,type=SE_0001,param=0:345:0:0.8:2:0:0:0:0:0:0,#
*,type=WAIT_0000,param=1.6:0:0:0:0:0:0:0:0:0:0,#
*,type=HCHR_POS00,param=chr_Renshia:IN$right:T$0.3:$OFS_Left:0:0:0:0:0:0:0,#
*,type=STOP,param=0:0:0:0:0:0:0:0:0:0:0,#
*,type=HCHR_TK10,msg=ひんやりしてて湿っぽいわね…。,param=chr_Renshia:Left:BASIC:0:0:0:0:0:0:0:0,#
*,type=HCHR_TK01,param=all:0:0:0:0:0:0:0:0:0:0,#
*,type=HCHR_POS00,param=chr_Gaitu:IN$right:T$0.3:$OFS_Right:Z$11:0:0:0:0:0:0,#
*,type=HCHR_FDM00,param=chr_Renshia:MSK$on:0.3:0:0:0:0:0:0:0:0,#
*,type=STOP,param=0:0:0:0:0:0:0:0:0:0:0,#
*,type=HCHR_TK10,msg=地下は空気が籠る上に湿気っぽいからな。<wait=3><br>それとレンシア、<wait=1>耳を澄ませてみよ。,param=chr_Gaitu:Right:BASIC:0:0:0:0:0:0:0:0,#
*,type=HCHR_TK10,msg=耳を…？,param=chr_Renshia:Left:BASIC:0:0:0:0:0:0:0:0,#
*,type=HCHR_TK01,param=all:skipmask:0:0:0:0:0:0:0:0:0,#
*,type=HCHR_EFC00,param=Eff_Manp_11:chr_Renshia:manpu_1:0:SS5$$MANP_silence_a:0:0:0:0:0:0,#
*,type=WAIT_0000,param=1.5:0:0:0:0:0:0:0:0:0:0,#
*,type=PICT_0004,param=Eff_Manp_11:0:0:0:0:0:0:0:0:0:0,#
*,type=WAIT_0000,param=0.3:0:0:0:0:0:0:0:0:0:0,#
*,type=HCHR_GRP00,param=chr_Renshia:face:bi:$FACE_FadeTime:0:0:0:0:0:0:0,#
*,type=HCHR_TK10,msg=何かくぐもった音が聞こえる！,param=chr_Renshia:Left:BASIC:0:0:0:0:0:0:0:0,#
*,type=HCHR_TK10,msg=うむ。<wait=3>近くを地下水が流れておるのだ。,param=chr_Gaitu:Right:BASIC:0:0:0:0:0:0:0:0,#
*,type=HCHR_GRP00,param=chr_Gaitu:face:ki:$FACE_FadeTime:0:0:0:0:0:0:0,#
*,type=HCHR_TK10,msg=以前探索した時も<wait=1><br>澄んだ湧き水で喉の渇きを癒したものじゃ。,param=chr_Gaitu:Right:BASIC:0:0:0:0:0:0:0:0,#
*,type=HCHR_GRP00,param=chr_Renshia:face:fu:$FACE_FadeTime:0:0:0:0:0:0:0,#
*,type=HCHR_TK10,msg=へえぇ…,param=chr_Renshia:Left:BASIC:0:0:0:0:0:0:0:0,#
*,type=HCHR_GRP00,param=chr_Gaitu:face:fu:$FACE_FadeTime:0:0:0:0:0:0:0,#
*,type=HCHR_TK10,msg=よいか、<wait=1>見知らぬ土地を探索する時は<wait=1><br>五感を研ぎ澄まさねばならぬぞ。,param=chr_Gaitu:Right:BASIC:0:0:0:0:0:0:0:0,#
*,type=HCHR_GRP00,param=chr_Renshia:face:ki:$FACE_FadeTime:0:0:0:0:0:0:0,#
*,type=HCHR_TK10,msg=はい！,param=chr_Renshia:Left:BASIC:0:0:0:0:0:0:0:0,#
*,type=HCHR_GRP00,param=chr_Renshia:face:fu:$FACE_FadeTime:0:0:0:0:0:0:0,#
*,type=HCHR_TK10,msg=常に五感を研ぎ澄ます……<wait=3>か。<wait=3><br>それって、<wait=1>剣技にも役立ちそう。,param=chr_Renshia:Left:BASIC:0:0:0:0:0:0:0:0,#
*,type=HCHR_TK10,msg=ウム。<wait=3>当然じゃ。<wait=3><br>心は常に戦場にあり、<wait=1>じゃ。,param=chr_Gaitu:Right:BASIC:0:0:0:0:0:0:0:0,#
*,type=HCHR_TK10,msg=ありがとうお爺ちゃん。,param=chr_Renshia:Left:BASIC:0:0:0:0:0:0:0:0,#
*,type=HCHR_TK10,msg=剣術も、<wait=1>もう少ししたら<wait=1><br>私なりの何かが掴めそうな気がするの。,param=chr_Renshia:Left:BASIC:0:0:0:0:0:0:0:0,#
*,type=BGM_0001,param=1.5:0:0:0:0:0:0:0:0:0:0,#
*,type=HCHR_TK10,msg=そうしたら真っ先にお爺ちゃんに…,param=chr_Renshia:Left:BASIC:0:0:0:0:0:0:0:0,#
*,type=HCHR_TK01,param=all:skipmask:0:0:0:0:0:0:0:0:0,#
*,type=BGM_0000,param=43:0:0:0:0:0:0:0:0:0:0,#
*,type=HCHR_GRP00,param=chr_Renshia:face:do:$FACE_FadeTime:0:0:0:0:0:0:0,#
*,type=HCHR_EFC00,param=Eff_Manp_17:chr_Renshia:manpu_1:0:SS5$$MANP_surprise_red_a:0:1:0:0:0:0,#
*,type=WAIT_0000,param=0.8:0:0:0:0:0:0:0:0:0:0,#
*,type=PICT_0004,param=Eff_Manp_17:0:0:0:0:0:0:0:0:0:0,#
*,type=HCHR_TK10,msg=<speed=9>…………<wait=3><speed=3>来る！,param=chr_Renshia:Left:BASIC:0:0:0:0:0:0:0:0,#
*,type=HCHR_TK10,msg=ウム……<wait=2>どうやら<wait=1><br>オマエも気づいたようじゃな。,param=chr_Gaitu:Right:BASIC:0:0:0:0:0:0:0:0,#
*,type=HCHR_GRP00,param=chr_Gaitu:face:do:$FACE_FadeTime:0:0:0:0:0:0:0,#
*,type=HCHR_TK10,msg=<speed=3>さあ行くぞ！<wait=3><br>まずは腕慣らしじゃ!!,param=chr_Gaitu:Right:BASIC:0:0:0:0:0:0:0:0,#
*,type=HCHR_TK01,param=all:skipmask:0:0:0:0:0:0:0:0:0,#
*,type=FADEOUT_000,param=1.5:$BGBLACK_Color:0:0:0:0:0:0:0:0:0,#
*,type=BGM_0001,param=1.5:0:0:0:0:0:0:0:0:0:0,#
*,type=WAIT_0000,param=2:0:0:0:0:0:0:0:0:0:0,#
*,type=CLSNE_0000,param=0:0:0:0:0:0:0:0:0:0:0,#

*,type=SYSED_00,param=0:0:0:0:0:0:0:0:0:0:0,#



