﻿ScriptCmd ver 1.1.1(app1.0.4):スクリプト_パズルテスト.xlsm/クリア後/story013-06-01_clear.csv

*,type=SYSST_00,param=0:0:0:0:0:0:0:0:0:0:0,#
*,type=CMD_STOP,param=0:0:0:0:0:0:0:0:0:0:0,#
*,type=SYSST_01,param=0:0:0:0:0:0:0:0:0:0:0,#


*,type=BGM_0000,param=33:0:0:0:0:0:0:0:0:0:0,#
*,type=PICT_0000,param=bg1:battle_bg_002_EX01.jpg:0:bg$1020105:0:0:0:0:0:0:0,#
*,type=FADEIN_000,param=1.5:00&00&00:0:0:0:0:0:0:0:0:0,#
*,type=STOP,param=0:0:0:0:0:0:0:0:0:0:0,#
*,type=WAIT_0000,param=1:0:0:0:0:0:0:0:0:0:0,#
*,type=HCHR_ENT00,param=chr_Loy:ロイ:N$chara_bf2_28:$POS_Center:TYPE$middle:Z$1:0:0:0:0:0,#
*,type=HCHR_POS00,param=chr_Loy:FADEIN:T$1:$OFS_Center:0:0:0:0:0:0:0,#
*,type=HCHR_GRP00,param=chr_Loy:face:emi:0:0:0:0:0:0:0:0,#
*,type=STOP,param=0:0:0:0:0:0:0:0:0:0:0,#
*,type=WAIT_0000,param=0.5:0:0:0:0:0:0:0:0:0:0,#
*,type=HCHR_TK10,msg=お、<wait=3><rep_handlename><wait=3><br>そのパズルを解いたのか？,param=chr_Loy:Center:BASIC:0:0:0:0:0:0:0:0,#
*,type=HCHR_TK01,param=ALL:skipmask:0:0:0:0:0:0:0:0:0,#
*,type=WAIT_0000,param=0.5:0:0:0:0:0:0:0:0:0:0,#
*,type=HCHR_TK00,msg=これは皇国の新人兵士が<wait=3><br>よくやらされる訓練の１つなんだ。,param=chr_Loy:$Center16:0:0:0:0:0:0:0:0:0,#
*,type=HCHR_TK00,msg=本来は、<wait=3>指定された地域からこれを<br>探し出すところから始めるんだけどな。,param=chr_Loy:$Center18:0:0:0:0:0:0:0:0:0,#
*,type=HCHR_TK01,param=chr_Loy:skipmask:0:0:0:0:0:0:0:0:0,#
*,type=WAIT_0000,param=1:0:0:0:0:0:0:0:0:0:0,#
*,type=HCHR_TK00,msg=ん、<wait=4>なんでパズルなのかって？,param=chr_Loy:$Center14:0:0:0:0:0:0:0:0:0,#
*,type=HCHR_TK01,param=chr_Loy:skipmask:0:0:0:0:0:0:0:0:0,#
*,type=WAIT_0000,param=0.5:0:0:0:0:0:0:0:0:0:0,#
*,type=HCHR_GRP00,param=chr_Loy:face:fu:0:0:0:0:0:0:0:0,#
*,type=HCHR_TK00,msg=<speed=10>うーん、<wait=5><speed=5>俺も聞いた話でしかないから<wait=3><br>あまり詳しくは知らないが,param=chr_Loy:$Center18:0:0:0:0:0:0:0:0:0,#
*,type=HCHR_GRP00,param=chr_Loy:face:emi:0:0:0:0:0:0:0:0,#
*,type=HCHR_TK00,msg=平和を護るには、<wait=3>腕っ節だけが強くても<wait=3><br>ダメってことらしい。,param=chr_Loy:$Center18:0:0:0:0:0:0:0:0:0,#
*,type=HCHR_TK01,param=chr_Loy:skipmask:0:0:0:0:0:0:0:0:0,#
*,type=WAIT_0000,param=0.5:0:0:0:0:0:0:0:0:0:0,#
*,type=HCHR_TK00,msg=皇国の首相であるパリス様ご自身が<wait=3><br>この訓練を考案したって話だ。,param=chr_Loy:$Center16:0:0:0:0:0:0:0:0:0,#
*,type=HCHR_TK01,param=chr_Loy:skipmask:0:0:0:0:0:0:0:0:0,#
*,type=WAIT_0000,param=1:0:0:0:0:0:0:0:0:0:0,#
*,type=FADEOUT_000,param=1.5:00&00&00:0:0:0:0:0:0:0:0:0,#
*,type=WAIT_0000,param=1.5:0:0:0:0:0:0:0:0:0:0,#
*,type=STOP,param=0:0:0:0:0:0:0:0:0:0:0,#
*,type=PICT_0004,param=bg1:0:0:0:0:0:0:0:0:0:0,#
*,type=HCHR_ENT01,param=chr_Loy:0:0:0:0:0:0:0:0:0:0,#

*,type=SYSED_00,param=0:0:0:0:0:0:0:0:0:0:0,#



