﻿ScriptCmd ver 1.1.1:ストクエスクリプト_005_ミフネ.xlsm/story005-01-02_btl_1/story005-01-02_btl_1.csv

*,type=SYSST_00,param=0:0:0:0:0:0:0:0:0:0:0,#
*,type=CMD_STOP,param=0:0:0:0:0:0:0:0:0:0:0,#
*,type=SYSST_01,param=0:0:0:0:0:0:0:0:0:0:0,#


*,type=EVT_CHKTRG,param=0:0:0:0:0:0:0:0:0:0:0,#
*,type=EVT_BTL_STARTBTL,param=1:0:0:0:0:0:0:0:0:0:0,#
*,type=BTL_PanelMask,param=ON:0:0:0:0:0:0:0:0:0:0,#
*,type=BTL_CMD,param=last_bgm_on:0:0:0:0:0:0:0:0:0:0,#
*,type=BTL_STORY,param=START:0:0:SKIPFADE:0:0:0:0:0:0:0,#
*,type=HCHR_ENT00,param=chr_Mifune:ミフネ:N$chara_bf2_68_b:$BTLPOS_Left:TYPE$middle:Z$10:0:0:0:0:0,#
*,type=STOP,param=0:0:0:0:0:0:0:0:0:0:0,#
*,type=WAIT_0000,param=0.5:0:0:0:0:0:0:0:0:0:0,#
*,type=FMSG_0000,msg=コイツ、物ニシャベッテヤガル！,param=chr_sahagin:$LeftBattle16_Notail:0:0:0:0:MN$0:name$サハギン:0:0:0,#
*,type=FMSG_0001,param=all:0:0:0:0:0:0:0:0:0:0,#
*,type=WAIT_0000,param=0.5:0:0:0:0:0:0:0:0:0:0,#
*,type=FMSG_0000,msg=ウルウル～、残念な人ですぅ～。,param=chr_mizurus:$LeftBattle16_Notail:0:0:0:0:MN$1:name$ミズルス:0:0:0,#
*,type=FMSG_0001,param=all:0:0:0:0:0:0:0:0:0:0,#
*,type=WAIT_0000,param=1:0:0:0:0:0:0:0:0:0:0,#
*,type=HCHR_POS00,param=chr_Mifune:FADEIN:$CHARA_FadeTime:0:0:0:0:0:0:0:0,#
*,type=STOP,param=0:0:0:0:0:0:0:0:0:0:0,#
*,type=HCHR_TK00,msg=……水まんじゅうまでしゃべっている。<wait=3><br>やはりここは凰刃那原ではない……？,param=chr_Mifune:$Mono_LL_L_Battle:0:0:0:0:0:0:0:0:0,#
*,type=HCHR_TK01,param=all:0:0:0:0:0:0:0:0:0:0,#
*,type=HCHR_POS00,param=chr_Mifune:FADEOUT:T$0.1:0:0:0:0:0:0:0:0,#
*,type=STOP,param=0:0:0:0:0:0:0:0:0:0:0,#
*,type=WAIT_0000,param=0.5:0:0:0:0:0:0:0:0:0:0,#
*,type=FMSG_0000,msg=海を穢すモノに罰を与えん……,param=chr_rantol:$LeftBattle14_Notail:0:0:0:0:MN$2:name$ラントール:0:0:0,#
*,type=FMSG_0001,param=all:0:0:0:0:0:0:0:0:0:0,#
*,type=WAIT_0000,param=1:0:0:0:0:0:0:0:0:0:0,#
*,type=HCHR_POS00,param=chr_Mifune:FADEIN:$CHARA_FadeTime:0:0:0:0:0:0:0:0,#
*,type=STOP,param=0:0:0:0:0:0:0:0:0:0:0,#
*,type=HCHR_TK00,msg=我が魔刀『冥閃耀』の<br>“氣”を感じたか。,param=chr_Mifune:$LeftBattle10:0:0:0:0:0:0:0:0:0,#
*,type=HCHR_TK01,param=all:0:0:0:0:0:0:0:0:0:0,#
*,type=HCHR_POS00,param=chr_Mifune:FADEOUT:T$0.1:0:0:0:0:0:0:0:0,#
*,type=STOP,param=0:0:0:0:0:0:0:0:0:0:0,#
*,type=WAIT_0000,param=0.5:0:0:0:0:0:0:0:0:0:0,#
*,type=FMSG_0000,msg=ソイツヲ、オレニ寄コセ！<wait=3><br>オ前ハオイシク食ッテヤル！,param=chr_sahagin:$LeftBattle14_Notail:0:0:0:0:MN$0:name$サハギン:0:0:0,#
*,type=FMSG_0001,param=all:0:0:0:0:0:0:0:0:0:0,#
*,type=WAIT_0000,param=1:0:0:0:0:0:0:0:0:0:0,#
*,type=HCHR_POS00,param=chr_Mifune:FADEIN:$CHARA_FadeTime:0:0:0:0:0:0:0:0,#
*,type=STOP,param=0:0:0:0:0:0:0:0:0:0:0,#
*,type=HCHR_TK00,msg=どこにでも野盗の類はいるものだな。,param=chr_Mifune:$LeftBattle18:0:0:0:0:0:0:0:0:0,#
*,type=HCHR_TK00,msg=……だが、<wait=1.5>どこであろうと<br>降りかかる火の粉は払うのみ!!,param=chr_Mifune:$LeftBattle14:0:0:0:0:0:0:0:0:0,#
*,type=HCHR_TK01,param=all:0:0:0:0:0:0:0:0:0:0,#
*,type=HCHR_POS00,param=chr_Mifune:FADEOUT:T$0.1:0:0:0:0:0:0:0:0,#
*,type=STOP,param=0:0:0:0:0:0:0:0:0:0:0,#
*,type=WAIT_0000,param=0.5:0:0:0:0:0:0:0:0:0:0,#
*,type=BTL_STORY,param=END:0:0:SKIPFADE:0:0:0:0:0:0:0,#
*,type=BTL_ReqAction,param=PINDEX$1:0:MOVETO:DEFAULT$DEFAULT$0.4$IDLE$IDLE:0:0:0:0:0:0:0,#
*,type=BTL_WaitAction,param=50:0:0:0:0:0:0:0:0:0:0,#
*,type=WAIT_0000,param=0.5:0:0:0:0:0:0:0:0:0:0,#
*,type=BGM_0001,param=1.5:0:0:0:0:0:0:0:0:0:0,#
*,type=FADEOUT_000,param=1.5:0&0&0:0:0:0:0:0:0:0:0:0,#
*,type=WAIT_0000,param=2:0:0:0:0:0:0:0:0:0:0,#
*,type=GAM_CHGSCENE,param=MissionSelect:0:0:0:0:0:0:0:0:0:0,#
*,type=BTL_PanelMask,param=OFF:0:0:0:0:0:0:0:0:0:0,#
*,type=EVT_BLOCKEND,param=0:0:0:0:0:0:0:0:0:0:0,#

*,type=SYSED_00,param=0:0:0:0:0:0:0:0:0:0:0,#



