﻿ScriptCmd ver 1.1.1(app1.0.4):ストクエスクリプト_012_イヲリ_story.xlsm/story012-02-03/story012-02-03.csv

*,type=SYSST_00,param=0:0:0:0:0:0:0:0:0:0:0,#
*,type=CMD_STOP,param=0:0:0:0:0:0:0:0:0:0:0,#
*,type=SYSST_01,param=0:0:0:0:0:0:0:0:0:0:0,#


*,type=PICT_0000,param=bg_01:battle_bg_sq_007_01.jpg:1:bg$202060101:0:0:0:2:0:0:0,#
*,type=FADEIN_000,param=1.5:00&00&00:0:0:0:0:0:0:0:0:0,#
*,type=WAIT_0000,param=2.5:0:0:0:0:0:0:0:0:0:0,#
*,type=HCHR_ENT00,param=chr_Iwori:イヲリ:N$chara_bf2_162:$POS_Center:TYPE$middle:Z$10:0:0:0:0:0,#
*,type=HCHR_PRM00,param=chr_Iwori:XFLIP$SET:0:0:0:0:0:0:0:0:0,#
*,type=HCHR_ENT00,param=chr_Emp_Soldier:気弱なボールドウィン:N$chara_bf2_134:$POS_Center:TYPE$middle:Z$10:0:0:0:0:0,#
*,type=HCHR_ENT00,param=chr_Mercenary:お調子者の傭兵クライ:N$chara_bf2_66:$POS_Center:TYPE$middle:Z$10:0:0:0:0:0,#
*,type=STOP,param=0:0:0:0:0:0:0:0:0:0:0,#
*,type=HCHR_POS00,param=chr_Iwori:FADEIN:$CHARA_FadeTime:$OFS_Center:0:0:0:0:0:0:0,#
*,type=WAIT_0000,param=0.1:0:0:0:0:0:0:0:0:0:0,#
*,type=EFFECT_GP,param=60010013:320:568:0:0:70:0:0:0:0:0,#
*,type=SE_0000,param=317:0:0:0:0:0:0:0:0:0:0,#
*,type=SE_0000,param=307:0:0:0:0:0:0:0:0:0:0,#
*,type=QUAK_0000,param=0.05:6:10:10:0:0:0:0:0:0:0,#
*,type=WAIT_0000,param=0.5:0:0:0:0:0:0:0:0:0:0,#
*,type=EFFECT_GP,param=60010013:320:568:0:0:70:0:0:0:0:0,#
*,type=SE_0000,param=319:0:0:0:0:0:0:0:0:0:0,#
*,type=MSKS_0000,param=Weak_flash_Iwori:255&69&0:170:Z$40:T$0.1:0:0:0:0:0:0,#
*,type=WAIT_0000,param=0.15:0:0:0:0:0:0:0:0:0:0,#
*,type=HCHR_POS00,param=chr_Iwori:FADEOUT:$CHARA_FadeTime:0:0:0:0:0:0:0:0,#
*,type=MSKS_0002,param=Weak_flash_Iwori:T$0.7:0:0:0:0:0:0:0:0:0,#
*,type=WAIT_0000,param=1.2:0:0:0:0:0:0:0:0:0:0,#
*,type=HCHR_PRM00,param=chr_Mercenary:XFLIP$SET:0:0:0:0:0:0:0:0:0,#
*,type=HCHR_POS00,param=chr_Mercenary:FADEIN:$CHARA_FadeTime:$OFS_Center:0:0:0:0:0:0:0,#
*,type=EFFECT_GP,param=60010013:320:568:0:0:70:0:0:0:0:0,#
*,type=SE_0000,param=319:0:0:0:0:0:0:0:0:0:0,#
*,type=HCHR_FDM00,param=chr_Mercenary:MSK$on:0.15:0:0:0:0:0:0:0:0,#
*,type=MSKS_0000,param=Weak_flash_Iwori:255&69&0:170:Z$40:T$0.1:0:0:0:0:0:0,#
*,type=WAIT_0000,param=0.15:0:0:0:0:0:0:0:0:0:0,#
*,type=MSKS_0002,param=Weak_flash_Iwori:T$0.7:0:0:0:0:0:0:0:0:0,#
*,type=QUAK_0000,param=0.04:15:15:15:0:0:0:0:0:0:0,#
*,type=WAIT_0000,param=0.8:0:0:0:0:0:0:0:0:0:0,#
*,type=HCHR_FDM00,param=chr_Mercenary:MSK$off:0.2:0:0:0:0:0:0:0:0,#
*,type=HCHR_POS00,param=chr_Mercenary:OFS$0&10:T$0.5:0:0:0:0:0:0:0:0,#
*,type=HCHR_SHK00,param=chr_Mercenary:3:0.06:0.5:0:0:0:0:0:0:0,#
*,type=WAIT_0000,param=0.2:0:0:0:0:0:0:0:0:0:0,#
*,type=HCHR_TK10,msg=くそっ、<wait=1>やるじゃねえか狐の！<wait=3><br>ここまでだな…<wait=2>引き上げるぞ！,param=chr_Mercenary:Center:BASIC:0:0:0:0:0:0:0:0,#
*,type=HCHR_TK01,param=all:0:0:0:0:0:0:0:0:0:0,#
*,type=SE_0001,param=0:345:0:0.25:2:0:0:0:0:0:0,#
*,type=HCHR_POS00,param=chr_Mercenary:OUT$left$120:T$0.5:0:0:0:0:0:0:0:0,#
*,type=WAIT_0000,param=1:0:0:0:0:0:0:0:0:0:0,#
*,type=HCHR_POS00,param=chr_Iwori:FADEIN:$CHARA_FadeTime:$OFS_Center:0:0:0:0:0:0:0,#
*,type=STOP,param=0:0:0:0:0:0:0:0:0:0:0,#
*,type=HCHR_EFC00,param=Eff_Manp_11:chr_Iwori:manpu_1_re:0:SS5$$MANP_silence_a:0:1:0:0:XFLIP$SET:0,#
*,type=WAIT_0000,param=1.5:0:0:0:0:0:0:0:0:0:0,#
*,type=PICT_0004,param=Eff_Manp_11:0:0:0:0:0:0:0:0:0:0,#
*,type=WAIT_0000,param=0.1:0:0:0:0:0:0:0:0:0:0,#
*,type=HCHR_POS00,param=chr_Iwori:IN$right$160:$CHARA_FadeTime:$OFS_Left:Z$10:0:0:0:0:0:0,#
*,type=HCHR_POS00,param=chr_Emp_Soldier:IN$right:$CHARA_FadeTime:$OFS_Right:Z$11:0:0:0:0:0:0,#
*,type=HCHR_FDM00,param=chr_Iwori:MSK$on:0.3:0:0:0:0:0:0:0:0,#
*,type=HCHR_FDM00,param=chr_Emp_Soldier:MSK$off:0.3:0:0:0:0:0:0:0:0,#
*,type=WAIT_0000,param=0.4:0:0:0:0:0:0:0:0:0:0,#
*,type=HCHR_TK10,msg=おっ、<wait=1>おい！<wait=3><br>敵が逃げるぞ！,param=chr_Emp_Soldier:Right:BASIC:0:0:0:0:0:0:0:0,#
*,type=HCHR_TK10,msg=逃げるというなら<br>逃がせば良いではないですか。,param=chr_Iwori:Left:BASIC:0:0:0:0:0:0:0:0,#
*,type=HCHR_TK10,msg=えっ…!?<wait=3><br><speed=7>し、<wait=1>しかしだなぁ…,param=chr_Emp_Soldier:Right:BASIC:0:0:0:0:0:0:0:0,#
*,type=HCHR_TK10,msg=私抜きで追撃するというなら<br>止めはしませんが。,param=chr_Iwori:Left:BASIC:0:0:0:0:0:0:0:0,#
*,type=HCHR_TK10,msg=ま、<wait=1>まあ<wait=1><br>それはちょっと…<wait=2>うぅん…,param=chr_Emp_Soldier:Right:BASIC:0:0:0:0:0:0:0:0,#
*,type=HCHR_TK10,msg=よし！<wait=2>部隊を集結させろ！<wait=3><br>後続が到着するまでここを確保す――,param=chr_Emp_Soldier:Right:BASIC:0:0:0:0:0:0:0:0,#
*,type=HCHR_TK01,param=all:skipmask:0:0:0:0:0:0:0:0:0,#
*,type=HCHR_ENT00,param=chr_Emp_Soldier2:貧乏くじのシャティヨン:N$chara_bf2_134:$POS_Center:TYPE$middle:Z$10:0:0:0:0:0,#
*,type=HCHR_TK00,msg=<size=32><speed=3><ctag=QUAK:9:9:0.05:6>うわぁぁぁぁっ!?<wait=3><br><ctag=QUAK:9:9:0.05:16>亡霊だ、<wait=1>亡霊が出たぞー!!,param=chr_Emp_Soldier2:$Shout_L_C:BASIC:0:0:0:0:0:0:0:0,#
*,type=HCHR_TK01,param=all:0:0:0:0:0:0:0:0:0:0,#
*,type=HCHR_GRP00,param=chr_Iwori:face:bi:0:0:0:0:0:0:0:0,#
*,type=HCHR_EFC00,param=Eff_Manp_07:chr_Emp_Soldier:manpu_1:0:SS5$$MANP_doubt_red_b:0:1:0:0:0:0,#
*,type=WAIT_0000,param=0.8:0:0:0:0:0:0:0:0:0:0,#
*,type=PICT_0004,param=Eff_Manp_07:0:0:0:0:0:0:0:0:0:0,#
*,type=WAIT_0000,param=0.1:0:0:0:0:0:0:0:0:0:0,#
*,type=HCHR_TK10,msg=<speed=3>なっ…<wait=1>いったい何事だ!?,param=chr_Emp_Soldier:Right:BASIC:0:0:0:0:0:0:0:0,#
*,type=HCHR_TK01,param=all:skipmask:0:0:0:0:0:0:0:0:0,#
*,type=HCHR_POS00,param=chr_Emp_Soldier:FADEOUT:$CHARA_FadeTime:0:0:0:0:0:0:0:0,#
*,type=HCHR_POS00,param=chr_Iwori:FADEOUT:$CHARA_FadeTime:0:0:0:0:0:0:0:0,#
*,type=STOP,param=0:0:0:0:0:0:0:0:0:0:0,#
*,type=HCHR_PRM00,param=chr_Emp_Soldier2:XFLIP$SET:0:0:0:0:0:0:0:0:0,#
*,type=HCHR_PRM00,param=chr_Emp_Soldier2:NAME$あわてんぼうのグェン:0:0:0:0:0:0:0:0:0,#
*,type=WAIT_0000,param=0.5:0:0:0:0:0:0:0:0:0:0,#
*,type=HCHR_FDM00,param=chr_Emp_Soldier2:MSK$off:0.2:0:0:0:0:0:0:0:0,#
*,type=HCHR_POS00,param=chr_Emp_Soldier2:IN$left$160:T$0.2:$OFS_Left:0:0:0:0:0:0:0,#
*,type=SE_0000,param=309:0:0:0:0:0:0:0:0:0:0,#
*,type=SE_0000,param=345:0:0:0:0:0:0:0:0:0:0,#
*,type=STOP,param=0:0:0:0:0:0:0:0:0:0:0,#
*,type=HCHR_TK10,msg=魔神だ！<wait=3>魔神が死者を<br>引き連れて冥界から現れたんだ！,param=chr_Emp_Soldier2:Left:BASIC:0:0:0:0:0:0:0:0,#
*,type=HCHR_TK01,param=all:0:0:0:0:0:0:0:0:0:0,#
*,type=HCHR_POS00,param=chr_Emp_Soldier2:FADEOUT:$CHARA_FadeTime:0:0:0:0:0:0:0:0,#
*,type=STOP,param=0:0:0:0:0:0:0:0:0:0:0,#
*,type=HCHR_GRP00,param=chr_Iwori:face:fu:0:0:0:0:0:0:0:0,#
*,type=HCHR_POS00,param=chr_Iwori:FADEIN:$CHARA_FadeTime:$OFS_Center:Z$10:0:0:0:0:0:0,#
*,type=STOP,param=0:0:0:0:0:0:0:0:0:0:0,#
*,type=HCHR_TK00,msg=興味深い…<wait=3>が、<wait=1>或いはこれが僥倖か…<wait=3><br>一度反応を見てみますか…,param=chr_Iwori:$Mono_LL_C:0:0:0:0:0:0:0:0:0,#
*,type=HCHR_TK01,param=all:skipmask:0:0:0:0:0:0:0:0:0,#
*,type=FADEOUT_000,param=1.5:00&00&00:0:0:0:0:0:0:0:0:0,#
*,type=WAIT_0000,param=2:0:0:0:0:0:0:0:0:0:0,#
*,type=HCHR_POS00,param=chr_Iwori:FADEOUT:T$0:0:0:0:0:0:0:0:0,#
*,type=HCHR_ENT01,param=chr_Emp_Soldier:T$0:0:0:0:0:0:0:0:0:0,#
*,type=HCHR_ENT01,param=chr_Emp_Soldier2:T$0:0:0:0:0:0:0:0:0:0,#
*,type=HCHR_ENT00,param=chr_Emp_General:ブランドン将軍:N$chara_bf2_157:$POS_Center:TYPE$middle:Z$10:0:0:0:0:0,#
*,type=HCHR_PRM00,param=chr_Emp_General:XFLIP$SET:0:0:0:0:0:0:0:0:0,#
*,type=HCHR_POS00,param=chr_Emp_General:FADEIN:T$0:$OFS_Left:0:0:0:0:0:0:0,#
*,type=SE_0000,param=380:0:0:0:0:0:0:0:0:0:0,#
*,type=FADEIN_000,param=1.5:00&00&00:0:0:0:0:0:0:0:0:0,#
*,type=WAIT_0000,param=2:0:0:0:0:0:0:0:0:0:0,#
*,type=HCHR_GRP00,param=chr_Emp_General:face:bi:0:0:0:0:0:0:0:0,#
*,type=HCHR_TK10,msg=ううむ…？<wait=3><br>前線が妙に騒がしいな…,param=chr_Emp_General:Left:BASIC:0:0:0:0:0:0:0:0,#
*,type=HCHR_TK01,param=all:0:0:0:0:0:0:0:0:0:0,#
*,type=SE_0000,param=345:0:0:0:0:0:0:0:0:0:0,#
*,type=HCHR_POS00,param=chr_Iwori:IN$right$160:T$0.3:$OFS_Right:Z$11:0:0:0:0:0:0,#
*,type=HCHR_FDM00,param=chr_Emp_General:MSK$on:0.3:0:0:0:0:0:0:0:0,#
*,type=WAIT_0000,param=1:0:0:0:0:0:0:0:0:0:0,#
*,type=HCHR_FDM00,param=chr_Iwori:MSK$on:0.1:0:0:0:0:0:0:0:0,#
*,type=HCHR_FDM00,param=chr_Emp_General:MSK$off:0.1:0:0:0:0:0:0:0:0,#
*,type=HCHR_PRM00,param=chr_Iwori:Z$10:0:0:0:0:0:0:0:0:0,#
*,type=HCHR_PRM00,param=chr_Emp_General:Z$11:0:0:0:0:0:0:0:0:0,#
*,type=STOP,param=0:0:0:0:0:0:0:0:0:0:0,#
*,type=HCHR_GRP00,param=chr_Emp_General:face:do:0:0:0:0:0:0:0:0,#
*,type=HCHR_TK10,msg=むっ、<wait=1>イヲリか！<wait=3><br>いったい何をしておる!?,param=chr_Emp_General:Left:BASIC:0:0:0:0:0:0:0:0,#
*,type=HCHR_TK10,msg=ご容赦ください。<wait=3><br>閣下に火急の件で参りました。,param=chr_Iwori:Right:BASIC:0:0:0:0:0:0:0:0,#
*,type=HCHR_GRP00,param=chr_Emp_General:face:fu:0:0:0:0:0:0:0:0,#
*,type=HCHR_TK10,msg=火急の件…？<wait=3>一体何事だ？,param=chr_Emp_General:Left:BASIC:0:0:0:0:0:0:0:0,#
*,type=HCHR_TK10,msg=我が方は先ほど、<wait=1>連邦の先陣と交戦。<wait=3><br>これを撃退致しましたが…,param=chr_Iwori:Right:BASIC:0:0:0:0:0:0:0:0,#
*,type=HCHR_TK10,msg=その後、<wait=1>遺跡より亡者の群れが<br>現れたことで大混乱に陥っております。,param=chr_Iwori:Right:BASIC:0:0:0:0:0:0:0:0,#
*,type=HCHR_TK10,msg=何よりこの亡者の群れ<wait=1><br>報告によれば魔神が率いているとのこと。,param=chr_Iwori:Right:BASIC:0:0:0:0:0:0:0:0,#
*,type=HCHR_TK10,msg=<speed=3>なに、<wait=1>魔神だと…!?,param=chr_Emp_General:Left:BASIC:0:0:0:0:0:0:0:0,#
*,type=HCHR_GRP00,param=chr_Iwori:face:fu:0:0:0:0:0:0:0:0,#
*,type=HCHR_TK10,msg=<speed=9>ハ……,param=chr_Iwori:Right:BASIC:0:0:0:0:0:0:0:0,#
*,type=HCHR_TK10,msg=閣下、<wait=1>まことに魔神となれば<wait=1><br>これは一大事かと思います。,param=chr_Iwori:Right:BASIC:0:0:0:0:0:0:0:0,#
*,type=HCHR_TK10,msg=まずは態勢を立て直すため<wait=1><br>一度退いてはいかがと愚考しますが……,param=chr_Iwori:Right:BASIC:0:0:0:0:0:0:0:0,#
*,type=HCHR_GRP00,param=chr_Emp_General:face:ku:0:0:0:0:0:0:0:0,#
*,type=HCHR_TK10,msg=<speed=7>ぬう……！<wait=2><ctag=CHRCHG_PT:chr_Emp_General:face:do:-><br><speed=3>えぇい、<wait=1>ここで退いてなるものか!!,param=chr_Emp_General:Left:BASIC:0:0:0:0:0:0:0:0,#
*,type=HCHR_TK10,msg=<speed=3>魔神だと!?<wait=3>笑わせるでないわ！,param=chr_Emp_General:Left:BASIC:0:0:0:0:0:0:0:0,#
*,type=HCHR_TK10,msg=連邦の将軍マルティネスは卑劣な策略家だ！<wait=3><br>大方奴がバラまいた流言に違いない！,param=chr_Emp_General:Left:BASIC:0:0:0:0:0:0:0:0,#
*,type=HCHR_GRP00,param=chr_Emp_General:face:ai:0:0:0:0:0:0:0:0,#
*,type=HCHR_TK10,msg=そうだ！<wait=2>アリサのことも<br>卑劣な策を用いてワシの手から…,param=chr_Emp_General:Left:BASIC:0:0:0:0:0:0:0:0,#
*,type=HCHR_TK10,msg=ふむ、<wait=1>アリサですか…,param=chr_Iwori:Right:BASIC:0:0:0:0:0:0:0:0,#
*,type=HCHR_GRP00,param=chr_Emp_General:face:bi:0:0:0:0:0:0:0:0,#
*,type=HCHR_TK10,msg=<spped=3>ンンッ、<wait=1><ctag=QUAK:5:5:0.05:4>ゴホン<wait=2><ctag=QUAK:5:5:0.05:4>ゴホン!!,param=chr_Emp_General:Left:BASIC:0:0:0:0:0:0:0:0,#
*,type=HCHR_GRP00,param=chr_Emp_General:face:do:0:0:0:0:0:0:0:0,#
*,type=HCHR_TK10,msg=とにかくイヲリよ！<wait=3>亡者どもを蹴散らし<wait=1><br>その魔神とやらも討ち取って来い!!,param=chr_Emp_General:Left:BASIC:0:0:0:0:0:0:0:0,#
*,type=HCHR_TK10,msg=無論、<wait=1>報酬は弾むぞ！,param=chr_Emp_General:Left:BASIC:0:0:0:0:0:0:0:0,#
*,type=HCHR_GRP00,param=chr_Emp_General:face:ki:0:0:0:0:0:0:0:0,#
*,type=HCHR_TK10,msg=そうだ！<wait=3>ワシから本国に掛け合って<wait=1><br>騎士に列せられるよう取り計らってやる！,param=chr_Emp_General:Left:BASIC:0:0:0:0:0:0:0:0,#
*,type=HCHR_GRP00,param=chr_Iwori:face:ai:0:0:0:0:0:0:0:0,#
*,type=HCHR_EFC00,param=Eff_Manp_03:chr_Iwori:manpu_1_re:0:SS5$$MANP_crumpled_a:0:1:0:0:XFLIP$SET:0,#
*,type=HCHR_TK00,msg=<speed=7>そう素直には<br>行きませんか……。,param=chr_Iwori:$Mono_M_R:0:0:0:0:0:0:0:0:0,#
*,type=PICT_0004,param=Eff_Manp_03:0:0:0:0:0:0:0:0:0:0,#
*,type=HCHR_GRP00,param=chr_Iwori:face:fu:0:0:0:0:0:0:0:0,#
*,type=HCHR_TK10,msg=解りました。<wait=3><br>必ずやご期待に応えてみせます。,param=chr_Iwori:Right:BASIC:0:0:0:0:0:0:0:0,#
*,type=HCHR_TK01,param=all:skipmask:0:0:0:0:0:0:0:0:0,#
*,type=FADEOUT_000,param=1.5:00&00&00:0:0:0:0:0:0:0:0:0,#
*,type=WAIT_0000,param=2:0:0:0:0:0:0:0:0:0:0,#
*,type=HCHR_POS00,param=chr_Iwori:FADEOUT:T$0:0:0:0:0:0:0:0:0,#
*,type=HCHR_POS00,param=chr_Emp_General:FADEOUT:T$0:0:0:0:0:0:0:0:0,#
*,type=PICT_0004,param=bg_01:0:0:0:0:0:0:0:0:0:0,#
*,type=PICT_0000,param=bg_07:battle_bg_009_EX01.jpg:1:bg$1050107:0:0:0:2:0:0:0,#
*,type=FADEIN_000,param=1.5:00&00&00:0:0:0:0:0:0:0:0:0,#
*,type=WAIT_0000,param=2:0:0:0:0:0:0:0:0:0:0,#
*,type=SE_0001,param=0:345:0:0.25:4:0:0:0:0:0:0,#
*,type=WAIT_0000,param=0.75:0:0:0:0:0:0:0:0:0:0,#
*,type=HCHR_POS00,param=chr_Iwori:FADEIN:T$0.5:$OFS_Center:0:0:0:0:0:0:0,#
*,type=WAIT_0000,param=0.6:0:0:0:0:0:0:0:0:0:0,#
*,type=HCHR_TK00,msg=さて……<wait=3><br>となれば次なる手は……,param=chr_Iwori:$Mono_M_C:0:0:0:0:0:0:0:0:0,#
*,type=HCHR_TK01,param=all:skipmask:0:0:0:0:0:0:0:0:0,#
*,type=FADEOUT_000,param=1.5:$BGBLACK_Color:0:0:0:0:0:0:0:0:0,#
*,type=BGM_0001,param=1.5:0:0:0:0:0:0:0:0:0:0,#
*,type=WAIT_0000,param=2:0:0:0:0:0:0:0:0:0:0,#
*,type=CLSNE_0000,param=0:0:0:0:0:0:0:0:0:0:0,#

*,type=SYSED_00,param=0:0:0:0:0:0:0:0:0:0:0,#



