﻿ScriptCmd ver 1.1.1:ストクエスクリプト_002_エルフ_力田調整中.xlsm/story002-10-01/story002-10-01.csv

*,type=SYSST_00,param=0:0:0:0:0:0:0:0:0:0:0,#
*,type=CMD_STOP,param=0:0:0:0:0:0:0:0:0:0:0,#
*,type=SYSST_01,param=0:0:0:0:0:0:0:0:0:0:0,#


*,type=PICT_0000,param=bg1:battle_bg_sq_002_04.jpg:0:bg$202020104:0:0:0:Z$1:0:0:0,#
*,type=BGM_0000,param=1024:1.5:0:0:0:0:0:0:0:0:0,#
*,type=FADEIN_000,param=1.5:00&00&00:0:0:0:0:0:0:0:0:0,#
*,type=WAIT_0000,param=2.5:0:0:0:0:0:0:0:0:0:0,#
*,type=HCHR_ENT00,param=chr_Ehlsyth:エルシス:N$chara_bf2_61:$POS_Center:TYPE$middle:Z$10:0:0:0:0:0,#
*,type=HCHR_ENT00,param=chr_Voag:ヴォーグ:N$chara_bf2_63:$POS_Center:TYPE$middle:Z$9:0:0:0:0:0,#
*,type=HCHR_ENT00,param=chr_Kilica:キリカ:N$chara_bf2_64:$POS_Center:TYPE$middle:Z$10:0:0:0:0:0,#
*,type=HCHR_ENT00,param=chr_HumanSoldierA:ナヴァール私兵:N$chara_bf2_66:$POS_Center:TYPE$middle:Z$9:0:0:0:0:0,#
*,type=HCHR_ENT00,param=chr_HumanSoldierB:ナヴァール私兵:N$chara_bf2_66:$POS_Center:TYPE$middle:Z$10:0:0:0:0:0,#
*,type=HCHR_ENT00,param=chr_HumanSoldierC:ナヴァール私兵:N$chara_bf2_66:$POS_Center:TYPE$middle:Z$8:0:0:0:0:0,#
*,type=STOP,param=0:0:0:0:0:0:0:0:0:0:0,#
*,type=HCHR_GRP00,param=chr_Ehlsyth:face:ku:0:0:0:0:0:0:0:0,#
*,type=HCHR_POS00,param=chr_Ehlsyth:FADEIN:T$0.5:$OFS_Center:0:0:0:0:0:0:0,#
*,type=STOP,param=0:0:0:0:0:0:0:0:0:0:0,#
*,type=HCHR_TK00,msg=クッ…………,param=chr_Ehlsyth:$Center6:0:0:0:0:0:0:0:0:0,#
*,type=HCHR_TK00,msg=味方の損傷も激しい……<wait=2><br>このままではお互い消耗するだけか……？,param=chr_Ehlsyth:$Mono_LL_C:0:0:0:0:0:0:0:0:0,#
*,type=HCHR_TK00,msg=だがここで引き下がるわけにはっ……！,param=chr_Ehlsyth:$Center18:0:0:0:0:0:0:0:0:0,#
*,type=HCHR_TK01,param=all:0:0:0:0:0:0:0:0:0:0,#
*,type=HCHR_POS00,param=chr_Ehlsyth:FADEOUT:T$0.3:0:0:0:0:0:0:0:0,#
*,type=SE_0000,param=380:0:0:0:0:0:0:0:0:0:0,#
*,type=WAIT_0000,param=1.8:0:0:0:0:0:0:0:0:0:0,#
*,type=HCHR_GRP00,param=chr_Kilica:face:ai:0:0:0:0:0:0:0:0,#
*,type=HCHR_POS00,param=chr_Kilica:FADEIN:T$0.5:$OFS_Center:0:0:0:0:0:0:0,#
*,type=STOP,param=0:0:0:0:0:0:0:0:0:0:0,#
*,type=HCHR_TK00,msg=う…………,param=chr_Kilica:$Center6:0:0:0:0:0:0:0:0:0,#
*,type=HCHR_TK01,param=all:0:0:0:0:0:0:0:0:0:0,#
*,type=HCHR_POS00,param=chr_Kilica:FADEOUT:T$0.3:0:0:0:0:0:0:0:0,#
*,type=STOP,param=0:0:0:0:0:0:0:0:0:0:0,#
*,type=HCHR_GRP00,param=chr_Voag:face:ku:0:0:0:0:0:0:0:0,#
*,type=HCHR_POS00,param=chr_Voag:FADEIN:T$0.3:$OFS_Center:0:0:0:0:0:0:0,#
*,type=STOP,param=0:0:0:0:0:0:0:0:0:0:0,#
*,type=HCHR_TK00,msg=クソ……,param=chr_Voag:$Center4:0:0:0:0:0:0:0:0:0,#
*,type=HCHR_GRP00,param=chr_Voag:face:mu:$FACE_FadeTime:0:0:0:0:0:0:0,#
*,type=HCHR_TK00,msg=もう戦える奴らも<br>ほとんど残ってない……,param=chr_Voag:$Mono_M_C:0:0:0:0:0:0:0:0:0,#
*,type=HCHR_TK00,msg=俺も後どれだけ持つか…,param=chr_Voag:$Mono_M_C:0:0:0:0:0:0:0:0:0,#
*,type=HCHR_TK01,param=all:0:0:0:0:0:0:0:0:0:0,#
*,type=HCHR_FDM00,param=chr_Voag:MSK$on:0.5:0:0:0:0:0:0:0:0,#
*,type=BGM_0001,param=0.5:0:0:0:0:0:0:0:0:0:0,#
*,type=WAIT_0000,param=1:0:0:0:0:0:0:0:0:0:0,#
*,type=EFFECT_GP,param=60010013:320:568:0:0:70:0:0:0:0:0,#
*,type=HCHR_GRP00,param=chr_Voag:face:ku:0:0:0:0:0:0:0:0,#
*,type=QUAK_0000,param=0.04:15:15:15:0:0:0:0:0:0:0,#
*,type=SE_0000,param=303:0:0:0:0:0:0:0:0:0:0,#
*,type=SE_0000,param=319:0:0:0:0:0:0:0:0:0:0,#
*,type=SE_0000,param=320:0:0:0:0:0:0:0:0:0:0,#
*,type=WAIT_0000,param=1.5:0:0:0:0:0:0:0:0:0:0,#
*,type=HCHR_GRP00,param=chr_Voag:face:bi:0:0:0:0:0:0:0:0,#
*,type=HCHR_FDM00,param=chr_Voag:MSK$off:0.1:0:0:0:0:0:0:0:0,#
*,type=HCHR_EFC00,param=Eff_Manp_07:chr_Voag:manpu_1:0:SS5$$MANP_doubt_red_b:0:1:0:0:0:0,#
*,type=WAIT_0000,param=1.2:0:0:0:0:0:0:0:0:0:0,#
*,type=PICT_0004,param=Eff_Manp_07:0:0:0:0:0:0:0:0:0:0,#
*,type=HCHR_POS00,param=chr_Voag:FADEOUT:T$0.3:0:0:0:0:0:0:0:0,#
*,type=STOP,param=0:0:0:0:0:0:0:0:0:0:0,#
*,type=WAIT_0000,param=0.8:0:0:0:0:0:0:0:0:0:0,#
*,type=SE_0000,param=345:0:0:0:0:0:0:0:0:0:0,#
*,type=SE_0000,param=345:0.3:0:0:0:0:0:0:0:0:0,#
*,type=SE_0000,param=345:0.6:0:0:0:0:0:0:0:0:0,#
*,type=SE_0000,param=345:0.9:0:0:0:0:0:0:0:0:0,#
*,type=SE_0000,param=309:0.9:0:0:0:0:0:0:0:0:0,#
*,type=WAIT_0000,param=0.9:0:0:0:0:0:0:0:0:0:0,#
*,type=HCHR_POS00,param=chr_HumanSoldierB:FADEIN:$CHARA_FadeTime:$OFS_Center:0:0:0:0:0:0:0,#
*,type=WAIT_0000,param=0.1:0:0:0:0:0:0:0:0:0:0,#
*,type=HCHR_POS00,param=chr_HumanSoldierA:FADEIN:$CHARA_FadeTime:$OFS_Left_Triple:0:0:0:0:0:0:0,#
*,type=HCHR_POS00,param=chr_HumanSoldierC:FADEIN:$CHARA_FadeTime:$OFS_Right_Triple:0:0:0:0:0:0:0,#
*,type=STOP,param=0:0:0:0:0:0:0:0:0:0:0,#
*,type=WAIT_0000,param=1:0:0:0:0:0:0:0:0:0:0,#
*,type=HCHR_POS00,param=chr_HumanSoldierB:FADEOUT:T$0.3:0:0:0:0:0:0:0:0,#
*,type=HCHR_POS00,param=chr_HumanSoldierA:FADEOUT:T$0.3:0:0:0:0:0:0:0:0,#
*,type=HCHR_POS00,param=chr_HumanSoldierC:FADEOUT:T$0.3:0:0:0:0:0:0:0:0,#
*,type=STOP,param=0:0:0:0:0:0:0:0:0:0:0,#
*,type=BGM_0000,param=51:0:0:0:0:0:0:0:0:0:0,#
*,type=WAIT_0000,param=0.5:0:0:0:0:0:0:0:0:0:0,#
*,type=HCHR_GRP00,param=chr_Ehlsyth:face:bi:0:0:0:0:0:0:0:0,#
*,type=HCHR_POS00,param=chr_Ehlsyth:FADEIN:$CHARA_FadeTime:$OFS_Center:0:0:0:0:0:0:0,#
*,type=STOP,param=0:0:0:0:0:0:0:0:0:0:0,#
*,type=HCHR_TK00,msg=<speed=3>な、<wait=1.5>なんだこいつらは……!?,param=chr_Ehlsyth:$Center14:0:0:0:0:0:0:0:0:0,#
*,type=HCHR_TK01,param=all:skipmask:0:0:0:0:0:0:0:0:0,#
*,type=HCHR_POS00,param=chr_Ehlsyth:FADEOUT:$CHARA_FadeTime:0:0:0:0:0:0:0:0,#
*,type=WAIT_0000,param=0.3:0:0:0:0:0:0:0:0:0:0,#
*,type=HCHR_GRP00,param=chr_Kilica:face:ai:0:0:0:0:0:0:0:0,#
*,type=HCHR_POS00,param=chr_Kilica:FADEIN:$CHARA_FadeTime:$OFS_Right:0:0:0:0:0:0:0,#
*,type=HCHR_FDM00,param=chr_Kilica:MSK$off:0.3:0:0:0:0:0:0:0:0,#
*,type=HCHR_POS00,param=chr_Voag:FADEIN:$CHARA_FadeTime:$OFS_Left:0:0:0:0:0:0:0,#
*,type=HCHR_FDM00,param=chr_Voag:MSK$on:0.3:0:0:0:0:0:0:0:0,#
*,type=STOP,param=0:0:0:0:0:0:0:0:0:0:0,#
*,type=HCHR_TK00,msg=<speed=7>ハァ、<wait=1.5>ハァ……,param=chr_Kilica:$Right8:0:0:0:0:0:0:0:0:0,#
*,type=HCHR_TK00,msg=<speed=7>また……<wait=3>新手か……？,param=chr_Kilica:$Right10:0:0:0:0:0:0:0:0:0,#
*,type=HCHR_TK00,msg=いや……<wait=3>違う。<wait=3><br>あれは…………,param=chr_Voag:$Left8:0:0:0:0:0:0:0:0:0,#
*,type=HCHR_TK00,msg=人間だ。,param=chr_Voag:$Left4:0:0:0:0:0:0:0:0:0,#
*,type=HCHR_TK01,param=all:skipmask:0:0:0:0:0:0:0:0:0,#
*,type=FADEOUT_000,param=1.5:$BGBLACK_Color:0:0:0:0:0:0:0:0:0,#
*,type=BGM_0001,param=1.5:0:0:0:0:0:0:0:0:0:0,#
*,type=WAIT_0000,param=2:0:0:0:0:0:0:0:0:0:0,#
*,type=CLSNE_0000,param=0:0:0:0:0:0:0:0:0:0:0,#

*,type=SYSED_00,param=0:0:0:0:0:0:0:0:0:0:0,#



