﻿ScriptCmd ver 1.1.1(app1.0.4):ストクエスクリプト_021_最強の背を追いかけて_BS2.xlsm/story021-02-03_library/story021-02-03_library.csv

*,type=SYSST_00,param=0:0:0:0:0:0:0:0:0:0:0,#
*,type=CMD_STOP,param=0:0:0:0:0:0:0:0:0:0:0,#
*,type=SYSST_01,param=0:0:0:0:0:0:0:0:0:0:0,#


*,type=EVT_CHKTRG,param=0:0:0:0:0:0:0:0:0:0:0,#
*,type=EVT_BTL_STARTBTL,param=1:0:0:0:0:0:0:0:0:0:0,#
*,type=BTL_PanelMask,param=ON:0:0:0:0:0:0:0:0:0:0,#
*,type=BTL_CMD,param=unit_panel:PPTALL:OFF:0:0:0:0:0:0:0:0,#
*,type=BTL_EnemyHpBarVisible,param=OFF:0:0:0:0:0:0:0:0:0:0,#
*,type=BTL_ChangeParty,param=ON:21602:5019014:0:0:0:0:0:0:0:0,#
*,type=BTL_WaitAction,param=10:0:0:0:0:0:0:0:0:0:0,#
*,type=BTL_ReqAction,param=PINDEX$0:0:MOVETOFIX:500$452$0$MOVE$IDLE:0:0:0:0:0:0:0,#
*,type=BTL_ReqAction,param=MINDEX$1:0:MOVETOFIX:220$400$0$MOVE$IDLE:0:0:0:0:0:0:0,#
*,type=BTL_ReqAction,param=MINDEX$2:0:MOVETOFIX:220$480$0$MOVE$IDLE:0:0:0:0:0:0:0,#
*,type=BTL_ReqAction,param=MINDEX$3:0:MOVETOFIX:120$352$0$MOVE$IDLE:0:0:0:0:0:0:0,#
*,type=BTL_ReqAction,param=MINDEX$4:0:MOVETOFIX:90$452$0$MOVE$IDLE:0:0:0:0:0:0:0,#
*,type=BTL_ReqAction,param=MINDEX$5:0:MOVETOFIX:120$552$0$MOVE$IDLE:0:0:0:0:0:0:0,#
*,type=BTL_WaitAction,param=1:0:0:0:0:0:0:0:0:0:0,#
*,type=BTL_FADE,param=IN:0:0:0:0:0:0:0:0:0:0,#
*,type=WAIT_0000,param=1.5:0:0:0:0:0:0:0:0:0:0,#
*,type=HCHR_ENT00,param=chr_Sarsha:サーシャ:N$chara_bf2_1_b:$BTLPOS_Left:TYPE$middle:Z$10:0:0:0:0:0,#
*,type=STOP,param=0:0:0:0:0:0:0:0:0:0:0,#
*,type=HCHR_GRP00,param=chr_Sarsha:face:do:0:0:0:0:0:0:0:0,#
*,type=HCHR_POS00,param=chr_Sarsha:FADEIN:$CHARA_FadeTime:0:0:0:0:0:0:0:0,#
*,type=STOP,param=0:0:0:0:0:0:0:0:0:0:0,#
*,type=HCHR_TK10,msg=閃舞刃！,param=chr_Sarsha:Left:BATTLE:0:0:0:0:0:0:0:0,#
*,type=HCHR_TK01,param=all:0:0:0:0:0:0:0:0:0:0,#
*,type=HCHR_POS00,param=chr_Sarsha:FADEOUT:$CHARA_FadeTime:0:0:0:0:0:0:0:0,#
*,type=STOP,param=0:0:0:0:0:0:0:0:0:0:0,#
*,type=WAIT_0000,param=0.5:0:0:0:0:0:0:0:0:0:0,#
*,type=EFFECT_GP,param=33000672:320:452:0:0:70:0:0:0:0:0,#
*,type=BTL_ReqAction,param=PINDEX$0:MPTALL:ATTACK:0:0:0:0:0:0:0:0,#
*,type=BTL_WaitAction,param=1:0:0:0:0:0:0:0:0:0:0,#
*,type=BTL_MONSTER_DEATH,param=MINDEX$1:0:0:0:0:0:0:0:0:0:0,#
*,type=BTL_MONSTER_DEATH,param=MINDEX$2:0:0:0:0:0:0:0:0:0:0,#
*,type=BTL_MONSTER_DEATH,param=MINDEX$3:0:0:0:0:0:0:0:0:0:0,#
*,type=BTL_MONSTER_DEATH,param=MINDEX$4:0:0:0:0:0:0:0:0:0:0,#
*,type=BTL_MONSTER_DEATH,param=MINDEX$5:0:0:0:0:0:0:0:0:0:0,#
*,type=BTL_WaitAction,param=1:0:0:0:0:0:0:0:0:0:0,#
*,type=WAIT_0000,param=1:0:0:0:0:0:0:0:0:0:0,#
*,type=HCHR_ENT00,param=chr_Sarsha:サーシャ:N$chara_bf2_1_b:$BTLPOS_Left:TYPE$middle:Z$10:0:0:0:0:0,#
*,type=HCHR_ENT00,param=chr_NinjaC:天武党の忍Ｃ:N$chara_bf2_207_b:$BTLPOS_Right:TYPE$middle:Z$10:0:XFLIP$SET:0:0:0,#
*,type=STOP,param=0:0:0:0:0:0:0:0:0:0:0,#
*,type=HCHR_GRP00,param=chr_Sarsha:face:do:0:0:0:0:0:0:0:0,#
*,type=HCHR_POS00,param=chr_Sarsha:FADEIN:$CHARA_FadeTime:0:0:0:0:0:0:0:0,#
*,type=STOP,param=0:0:0:0:0:0:0:0:0:0:0,#
*,type=HCHR_TK10,msg=<speed=7>はぁ……<wait=1>はぁ……<wait=3><br>やったわ……！,param=chr_Sarsha:Left:BATTLE:0:0:0:0:0:0:0:0,#
*,type=HCHR_TK01,param=all:0:0:0:0:0:0:0:0:0:0,#
*,type=HCHR_POS00,param=chr_Sarsha:FADEOUT:$CHARA_FadeTime:0:0:0:0:0:0:0:0,#
*,type=STOP,param=0:0:0:0:0:0:0:0:0:0:0,#
*,type=HCHR_GRP00,param=chr_NinjaC:face:do:0:0:0:0:0:0:0:0,#
*,type=HCHR_POS00,param=chr_NinjaC:FADEIN:$CHARA_FadeTime:0:0:0:0:0:0:0:0,#
*,type=STOP,param=0:0:0:0:0:0:0:0:0:0:0,#
*,type=HCHR_TK10,msg=た、<wait=1>態勢を立て直すぞ！,param=chr_NinjaC:Right:BATTLE:0:0:0:0:0:0:0:0,#
*,type=HCHR_TK01,param=all:0:0:0:0:0:0:0:0:0:0,#
*,type=HCHR_POS00,param=chr_NinjaC:FADEOUT:$CHARA_FadeTime:0:0:0:0:0:0:0:0,#
*,type=STOP,param=0:0:0:0:0:0:0:0:0:0:0,#
*,type=HCHR_GRP00,param=chr_Sarsha:face:do:0:0:0:0:0:0:0:0,#
*,type=HCHR_POS00,param=chr_Sarsha:FADEIN:$CHARA_FadeTime:0:0:0:0:0:0:0:0,#
*,type=STOP,param=0:0:0:0:0:0:0:0:0:0:0,#
*,type=HCHR_TK10,msg=あっ、<wait=1>待って……！,param=chr_Sarsha:Left:BATTLE:0:0:0:0:0:0:0:0,#
*,type=HCHR_TK01,param=all:0:0:0:0:0:0:0:0:0:0,#
*,type=HCHR_POS00,param=chr_Sarsha:FADEOUT:$CHARA_FadeTime:0:0:0:0:0:0:0:0,#
*,type=STOP,param=0:0:0:0:0:0:0:0:0:0:0,#
*,type=WAIT_0000,param=0.5:0:0:0:0:0:0:0:0:0:0,#
*,type=MSKS_0000,param=bgBlackMask:$BGBLACK_Color:0:Z$50:T$1:0:0:0:0:0:0,#
*,type=STOP,param=0:0:0:0:0:0:0:0:0:0:0,#
*,type=BTL_ChangeParty,param=OFF:0:0:0:0:0:0:0:0:0:0,#
*,type=BTL_CMD,param=unit_panel:PPTALL:ON:0:0:0:0:0:0:0:0,#
*,type=BTL_EnemyHpBarVisible,param=ON:0:0:0:0:0:0:0:0:0:0,#
*,type=GAM_CHGSCRIPT,param=0:0:0:22132:0:0:0:0:0:0:0,#
*,type=STOP,param=0:0:0:0:0:0:0:0:0:0:0,#
*,type=BTL_PanelMask,param=OFF:0:0:0:0:0:0:0:0:0:0,#
*,type=EVT_BLOCKEND,param=0:0:0:0:0:0:0:0:0:0:0,#

*,type=SYSED_00,param=0:0:0:0:0:0:0:0:0:0:0,#



