﻿ScriptCmd ver 1.1.1(app1.0.4):ストクエスクリプト_015_アフターディスノミア編_story_1～2.xlsm/story015-01-04/story015-01-04.csv

*,type=SYSST_00,param=0:0:0:0:0:0:0:0:0:0:0,#
*,type=CMD_STOP,param=0:0:0:0:0:0:0:0:0:0:0,#
*,type=SYSST_01,param=0:0:0:0:0:0:0:0:0:0:0,#


*,type=PICT_0000,param=bg_01:battle_bg_sq_014_01.jpg:1:bg$202150101:0:0:0:2:0:0:0,#
*,type=BGM_0000,param=1020:0:0:0:0:0:0:0:0:0:0,#
*,type=FADEIN_000,param=1.5:00&00&00:0:0:0:0:0:0:0:0:0,#
*,type=WAIT_0000,param=2.5:0:0:0:0:0:0:0:0:0:0,#
*,type=STOP,param=0:0:0:0:0:0:0:0:0:0:0,#
*,type=STOP,param=0:0:0:0:0:0:0:0:0:0:0,#
*,type=HCHR_ENT00,param=chr_Regil:レギル:N$chara_bf2_170:$POS_Center:TYPE$middle:Z$10:0:0:0:0:0,#
*,type=HCHR_ENT00,param=chr_Mob:女性:N$chara_bf2_38:$POS_Center:TYPE$middle:Z$10:0:0:0:0:0,#
*,type=HCHR_ENT00,param=chr_Shion:シオン:N$chara_bf2_175:$POS_Center:TYPE$middle:Z$10:0:0:0:0:0,#
*,type=HCHR_ENT00,param=chr_nothum:？？？:N$chara_bf2_1_nothum:$POS_Center:TYPE$middle:Z$10:0:0:0:0:0,#
*,type=HCHR_GRP00,param=chr_Regil:face:ai_hood:$FACE_FadeTime:0:0:0:0:0:0:0,#
*,type=HCHR_POS00,param=chr_Regil:FADEIN:T$0.5:$OFS_Center:0:0:0:0:0:0:0,#
*,type=STOP,param=0:0:0:0:0:0:0:0:0:0:0,#
*,type=HCHR_TK10,msg=はぁ……<wait=1>はぁ……<wait=1>はぁ……,param=chr_Regil:Center:BASIC:0:0:0:0:0:0:0:0,#
*,type=HCHR_TK01,param=all:0:0:0:0:0:0:0:0:0:0,#
*,type=WAIT_0000,param=0.3:0:0:0:0:0:0:0:0:0:0,#
*,type=SE_0000,param=309:0:0:0:0:0:0:0:0:0:0,#
*,type=STOP,param=0:0:0:0:0:0:0:0:0:0:0,#
*,type=WAIT_0000,param=0.5:0:0:0:0:0:0:0:0:0:0,#
*,type=HCHR_POS00,param=chr_Regil:FADEOUT:$CHARA_FadeTime:0:0:0:0:0:0:0:0,#
*,type=STOP,param=0:0:0:0:0:0:0:0:0:0:0,#
*,type=WAIT_0000,param=0.5:0:0:0:0:0:0:0:0:0:0,#
*,type=HCHR_GRP00,param=chr_Mob:face:ku:$FACE_FadeTime:0:0:0:0:0:0:0,#
*,type=HCHR_POS00,param=chr_Mob:FADEIN:$CHARA_FadeTime:$OFS_Right:0:0:0:0:0:0:0,#
*,type=STOP,param=0:0:0:0:0:0:0:0:0:0:0,#
*,type=HCHR_GRP00,param=chr_Regil:face:fu_hood:0:0:0:0:0:0:0:0,#
*,type=HCHR_POS00,param=chr_Regil:IN$left$160:T$0.5:$OFS_Left:0:0:0:0:0:0:0,#
*,type=SE_0000,param=345:0:0:0:0:0:0:0:0:0:0,#
*,type=STOP,param=0:0:0:0:0:0:0:0:0:0:0,#
*,type=WAIT_0000,param=0.5:0:0:0:0:0:0:0:0:0:0,#
*,type=HCHR_TK10,msg=…………<wait=1>大丈夫か？,param=chr_Regil:Left:BASIC:0:0:0:0:0:0:0:0,#
*,type=HCHR_SHK00,param=chr_Mob:3:0.04:0.5:0:0:0:0:0:0:0,#
*,type=HCHR_POS00,param=chr_Mob:OFS$20&0:$CHARA_FadeTime:$OFS_Right:0:0:0:0:0:0:0,#
*,type=HCHR_TK10,msg=<speed=9>あ……<wait=3>あ…………,param=chr_Mob:Right:BASIC:0:0:0:0:0:0:0:0,#
*,type=HCHR_POS00,param=chr_Regil:OFS$20&0:T$0.3:$OFS_Left:0:0:0:0:0:0:0,#
*,type=HCHR_TK10,msg=立てるか？<wait=3>手を――,param=chr_Regil:Left:BASIC:0:0:0:0:0:0:0:0,#
*,type=HCHR_TK10,msg=<speed=3>触らないでっ！,param=chr_Mob:Right:BASIC:0:0:0:0:0:0:0:0,#
*,type=HCHR_SHK00,param=chr_Mob:5:0.02:0.1:NoRandom:0:0:0:0:0:0,#
*,type=SE_0000,param=301:0:0:0:0:0:0:0:0:0:0,#
*,type=EFFECT_GP,param=60010008:320:568:0:0:70:0:0:0:0:0,#
*,type=STOP,param=0:0:0:0:0:0:0:0:0:0:0,#
*,type=HCHR_FDM00,param=all:MSK$off:0.3:0:0:0:0:0:0:0:0,#
*,type=HCHR_POS00,param=chr_Regil:OFS$-20&0:T$0.1:$OFS_Left:0:0:0:0:0:0:0,#
*,type=HCHR_GRP00,param=chr_Regil:face:bi:T$0.3:0:0:0:0:0:0:0,#
*,type=SE_0000,param=313:0:0:0:0:0:0:0:0:0:0,#
*,type=STOP,param=0:0:0:0:0:0:0:0:0:0:0,#
*,type=WAIT_0000,param=0.5:0:0:0:0:0:0:0:0:0:0,#
*,type=HCHR_GRP00,param=chr_Mob:face:bi:$FACE_FadeTime:0:0:0:0:0:0:0,#
*,type=HCHR_TK10,msg=あ……！<wait=3><br>ごめんなさい、<wait=1>私……っ,param=chr_Mob:Right:BASIC:0:0:0:0:0:0:0:0,#
*,type=HCHR_TK01,param=all:0:0:0:0:0:0:0:0:0:0,#
*,type=HCHR_GRP00,param=chr_Regil:face:ai:$FACE_FadeTime:0:0:0:0:0:0:0,#
*,type=WAIT_0000,param=1:0:0:0:0:0:0:0:0:0:0,#
*,type=HCHR_GRP00,param=chr_Mob:face:ai:$FACE_FadeTime:0:0:0:0:0:0:0,#
*,type=HCHR_TK10,msg=…………え？<wait=3><br>あなた……<wait=1>まさか、<wait=1>皇帝を殺――,param=chr_Mob:Right:BASIC:0:0:0:0:0:0:0:0,#
*,type=HCHR_GRP00,param=chr_Regil:face:ai_hood:T$0.2:0:0:0:0:0:0:0,#
*,type=SE_0000,param=313:0:0:0:0:0:0:0:0:0:0,#
*,type=HCHR_TK01,param=all:0:0:0:0:0:0:0:0:0:0,#
*,type=WAIT_0000,param=0.5:0:0:0:0:0:0:0:0:0:0,#
*,type=HCHR_POS00,param=chr_Regil:OUT$left:T$0.2:$OFS_Left:0:0:0:0:0:0:0,#
*,type=SE_0000,param=345:0:0:0:0:0:0:0:0:0:0,#
*,type=STOP,param=0:0:0:0:0:0:0:0:0:0:0,#
*,type=FADEOUT_000,param=1.5:00&00&00:0:0:0:0:0:0:0:0:0,#
*,type=WAIT_0000,param=2:0:0:0:0:0:0:0:0:0:0,#
*,type=PICT_0004,param=bg_01:0:0:0:0:0:0:0:0:0:0,#
*,type=PICT_0000,param=bg_03:battle_bg_002_EX01.jpg:1:bg$1020105:0:0:0:2:0:0:0,#
*,type=HCHR_POS00,param=chr_Mob:FADEOUT:T$0:0:0:0:0:0:0:0:0,#
*,type=FADEIN_000,param=1.5:00&00&00:0:0:0:0:0:0:0:0:0,#
*,type=STOP,param=0:0:0:0:0:0:0:0:0:0:0,#
*,type=HCHR_GRP00,param=chr_Regil:face:ai_hood:T$0.2:0:0:0:0:0:0:0,#
*,type=HCHR_POS00,param=chr_Regil:FADEIN:$CHARA_FadeTime:$OFS_Center:0:0:0:0:0:0:0,#
*,type=STOP,param=0:0:0:0:0:0:0:0:0:0:0,#
*,type=WAIT_0000,param=0.5:0:0:0:0:0:0:0:0:0:0,#
*,type=FMSG_0000,msg=俺は一体何をやってるんだ……<wait=3><br>これじゃまるで悪党じゃないか。,param=chr_Regil:$Mono_L_C:0:0:0:0:0:0:0:0:0,#
*,type=FMSG_0001,param=chr_Regil:0:0:0:0:0:0:0:0:0:0,#
*,type=STOP,param=0:0:0:0:0:0:0:0:0:0:0,#
*,type=HCHR_TK01,param=all:0:0:0:0:0:0:0:0:0:0,#
*,type=HCHR_POS00,param=chr_Regil:FADEOUT:$CHARA_FadeTime:0:0:0:0:0:0:0:0,#
*,type=STOP,param=0:0:0:0:0:0:0:0:0:0:0,#
*,type=FADEOUT_000,param=0.3:255&255&255:0:0:0:0:0:0:0:0:0,#
*,type=STOP,param=0:0:0:0:0:0:0:0:0:0:0,#
*,type=MSKS_0000,param=bgFilterMask:0&0&0:128:Z$5:T$0:0:0:0:0:0:0,#
*,type=PICT_0004,param=bg_03:0:0:0:0:0:0:0:0:0:0,#
*,type=PICT_0000,param=bg_01:battle_bg_sq_014_01.jpg:1:bg$202150101:0:0:0:2:0:0:0,#
*,type=HCHR_POS00,param=chr_Regil:FADEOUT:T$0:0:0:0:0:0:0:0:0,#
*,type=HCHR_GRP00,param=chr_Mob:face:ku:0:0:0:0:0:0:0:0,#
*,type=HCHR_POS00,param=chr_Mob:FADEIN:T$0:$OFS_Center:0:0:0:0:0:0:0,#
*,type=STOP,param=0:0:0:0:0:0:0:0:0:0:0,#
*,type=WAIT_0000,param=0.8:0:0:0:0:0:0:0:0:0:0,#
*,type=STOP,param=0:0:0:0:0:0:0:0:0:0:0,#
*,type=PICT_0004,param=bg_01:0:0:0:0:0:0:0:0:0:0,#
*,type=PICT_0000,param=bg_03:battle_bg_002_EX01.jpg:1:bg$1020105:0:0:0:2:0:0:0,#
*,type=MSKS_0002,param=bgFilterMask:T$0:0:0:0:0:0:0:0:0:0,#
*,type=HCHR_POS00,param=chr_Mob:FADEOUT:T$0:0:0:0:0:0:0:0:0,#
*,type=HCHR_GRP00,param=chr_Regil:face:ku_hood:0:0:0:0:0:0:0:0,#
*,type=HCHR_POS00,param=chr_Regil:FADEIN:T$0:$OFS_Center:0:0:0:0:0:0:0,#
*,type=STOP,param=0:0:0:0:0:0:0:0:0:0:0,#
*,type=FADEIN_000,param=0.3:255&255&255:0:0:0:0:0:0:0:0:0,#
*,type=STOP,param=0:0:0:0:0:0:0:0:0:0:0,#
*,type=WAIT_0000,param=0.3:0:0:0:0:0:0:0:0:0:0,#
*,type=HCHR_TK00,msg=違う……<wait=1>そうじゃない！<wait=3><br>俺が見たかったのは、<wait=1>あんな顔じゃ……,param=chr_Regil:$Mono_LL_C:0:0:0:0:0:0:0:0:0,#
*,type=HCHR_TK01,param=all:0:0:0:0:0:0:0:0:0:0,#
*,type=WAIT_0000,param=0.5:0:0:0:0:0:0:0:0:0:0,#
*,type=HCHR_GRP00,param=chr_Regil:face:ai_hood:$FACE_FadeTime:0:0:0:0:0:0:0,#
*,type=HCHR_TK00,msg=……いや、<wait=1>皇帝を手にかけた時点で<br>こうなることは覚悟していたはずだ。,param=chr_Regil:$Mono_LL_C:0:0:0:0:0:0:0:0:0,#
*,type=HCHR_TK00,msg=なのに、<wait=1>まだ俺はあの光の中に<br>戻れるとでも思ってるのか？,param=chr_Regil:$Mono_L_C:0:0:0:0:0:0:0:0:0,#
*,type=HCHR_GRP00,param=chr_Regil:face:ku_hood:$FACE_FadeTime:0:0:0:0:0:0:0,#
*,type=HCHR_TK10,msg=…………<wait=1>クソッ！,param=chr_Regil:Center:BASIC:0:0:0:0:0:0:0:0,#
*,type=HCHR_TK01,param=all:0:0:0:0:0:0:0:0:0:0,#
*,type=STOP,param=0:0:0:0:0:0:0:0:0:0:0,#
*,type=HCHR_TK00,msg=また派手にやったもんだな<wait=1><br>元インペリアルガードさんよ。,param=chr_nothum:$CenterNoTail14:0:0:0:0:0:0:0:0:0,#
*,type=HCHR_TK01,param=all:0:0:0:0:0:0:0:0:0:0,#
*,type=HCHR_EFC00,param=Eff_Manp_14_re:chr_Regil:manpu_1:0:SS5$$MANP_surprise_black_b:0:0:0:0:0:0,#
*,type=WAIT_0000,param=1:0:0:0:0:0:0:0:0:0:0,#
*,type=PICT_0004,param=Eff_Manp_14_re:0:0:0:0:0:0:0:0:0:0,#
*,type=STOP,param=0:0:0:0:0:0:0:0:0:0:0,#
*,type=HCHR_POS00,param=chr_Regil:FADEOUT:$CHARA_FadeTime:0:0:0:0:0:0:0:0,#
*,type=STOP,param=0:0:0:0:0:0:0:0:0:0:0,#
*,type=WAIT_0000,param=0.5:0:0:0:0:0:0:0:0:0:0,#
*,type=HCHR_GRP00,param=chr_Shion:face:ki:0:0:0:0:0:0:0:0,#
*,type=HCHR_POS00,param=chr_Shion:FADEIN:$CHARA_FadeTime:$OFS_Center:0:0:0:0:0:0:0,#
*,type=WAIT_0000,param=1.5:0:0:0:0:0:0:0:0:0:0,#
*,type=HCHR_POS00,param=chr_Shion:FADEOUT:$CHARA_FadeTime:0:0:0:0:0:0:0:0,#
*,type=STOP,param=0:0:0:0:0:0:0:0:0:0:0,#
*,type=WAIT_0000,param=0.5:0:0:0:0:0:0:0:0:0:0,#
*,type=HCHR_POS00,param=chr_Shion:FADEIN:$CHARA_FadeTime:$OFS_Right:0:0:0:0:0:0:0,#
*,type=HCHR_GRP00,param=chr_Regil:face:ai_hood:0:0:0:0:0:0:0:0,#
*,type=HCHR_POS00,param=chr_Regil:FADEIN:$CHARA_FadeTime:$OFS_Left:0:0:0:0:0:0:0,#
*,type=STOP,param=0:0:0:0:0:0:0:0:0:0:0,#
*,type=WAIT_0000,param=0.5:0:0:0:0:0:0:0:0:0:0,#
*,type=HCHR_TK10,msg=……シオンか。<wait=3><br>もうその呼び方はやめてくれ。,param=chr_Regil:Left:BASIC:0:0:0:0:0:0:0:0,#
*,type=HCHR_GRP00,param=chr_Shion:face:ki:$FACE_FadeTime:0:0:0:0:0:0:0,#
*,type=HCHR_TK10,msg=なら、<wait=1>キングスレイヤーとでも<br>呼べばいいか？,param=chr_Shion:Right:BASIC:0:0:0:0:0:0:0:0,#
*,type=HCHR_TK01,param=all:0:0:0:0:0:0:0:0:0:0,#
*,type=HCHR_PRM00,param=chr_Regil:Z$11:0:0:0:0:0:0:0:0:0,#
*,type=HCHR_PRM00,param=chr_Shion:Z$10:0:0:0:0:0:0:0:0:0,#
*,type=HCHR_FDM00,param=all:MSK$on:0:0:0:0:0:0:0:0:0,#
*,type=HCHR_FDM00,param=chr_Regil:MSK$off:0:0:0:0:0:0:0:0:0,#
*,type=HCHR_GRP00,param=chr_Regil:face:do_hood:0:0:0:0:0:0:0:0,#
*,type=HCHR_EFC00,param=Eff_Manp_11:chr_Regil:manpu_1:0:SS5$$MANP_silence_a:0:0:0:0:0:0,#
*,type=WAIT_0000,param=1.5:0:0:0:0:0:0:0:0:0:0,#
*,type=PICT_0004,param=Eff_Manp_11:0:0:0:0:0:0:0:0:0:0,#
*,type=STOP,param=0:0:0:0:0:0:0:0:0:0:0,#
*,type=HCHR_GRP00,param=chr_Shion:face:ai:$FACE_FadeTime:0:0:0:0:0:0:0,#
*,type=HCHR_TK10,msg=冗談だ。<wait=3><br>そんな怖い顔をするな。,param=chr_Shion:Right:BASIC:0:0:0:0:0:0:0:0,#
*,type=HCHR_TK01,param=all:skipmask:0:0:0:0:0:0:0:0:0,#
*,type=WAIT_0000,param=0.5:0:0:0:0:0:0:0:0:0:0,#
*,type=HCHR_GRP00,param=chr_Shion:face:fu:$FACE_FadeTime:0:0:0:0:0:0:0,#
*,type=HCHR_TK10,msg=……英雄の真似事でもしてたのか。<wait=3><br>相変わらずだな、<wait=1>お前は。,param=chr_Shion:Right:BASIC:0:0:0:0:0:0:0:0,#
*,type=HCHR_GRP00,param=chr_Regil:face:fu_hood:$FACE_FadeTime:0:0:0:0:0:0:0,#
*,type=HCHR_TK10,msg=そんなことを言うために<br>ここまで来たのか。,param=chr_Regil:Left:BASIC:0:0:0:0:0:0:0:0,#
*,type=HCHR_GRP00,param=chr_Shion:face:ki:$FACE_FadeTime:0:0:0:0:0:0:0,#
*,type=HCHR_TK10,msg=いや、<wait=1>帝都で面白い情報を耳にしたんでな。<wait=3><br>お前を誘いに来た。,param=chr_Shion:Right:BASIC:0:0:0:0:0:0:0:0,#
*,type=HCHR_TK10,msg=俺はお前に拾われた身だ。,param=chr_Regil:Left:BASIC:0:0:0:0:0:0:0:0,#
*,type=HCHR_TK10,msg=ディスノミアの再結成でも何でも<wait=1><br>好きに利用すればいい。,param=chr_Regil:Left:BASIC:0:0:0:0:0:0:0:0,#
*,type=HCHR_GRP00,param=chr_Shion:face:ai:$FACE_FadeTime:0:0:0:0:0:0:0,#
*,type=HCHR_TK10,msg=利用……<wait=1>か。<wait=3><br>お前にその価値があればな。,param=chr_Shion:Right:BASIC:0:0:0:0:0:0:0:0,#
*,type=HCHR_GRP00,param=chr_Regil:face:ai_hood:$FACE_FadeTime:0:0:0:0:0:0:0,#
*,type=HCHR_TK00,msg=今の俺には<wait=1>その価値すらないということか。,param=chr_Regil:$Mono_LL_L:0:0:0:0:0:0:0:0:0,#
*,type=HCHR_GRP00,param=chr_Regil:face:fu_hood:$FACE_FadeTime:0:0:0:0:0:0:0,#
*,type=HCHR_TK00,msg=しかし<wait=1>こうやって声を掛けてくれるだけでも<br>有難いと思わなければな。,param=chr_Regil:$Mono_LL_L:0:0:0:0:0:0:0:0:0,#
*,type=HCHR_GRP00,param=chr_Shion:face:fu:$FACE_FadeTime:0:0:0:0:0:0:0,#
*,type=HCHR_TK10,msg=イオニアが待っている。<wait=3><br>行くぞ。,param=chr_Shion:Right:BASIC:0:0:0:0:0:0:0:0,#
*,type=HCHR_TK01,param=all:0:0:0:0:0:0:0:0:0:0,#
*,type=HCHR_POS00,param=chr_Shion:FADEOUT:T$0.5:0:0:0:0:0:0:0:0,#
*,type=SE_0000,param=345:0:0:0:0:0:0:0:0:0:0,#
*,type=WAIT_0000,param=0.8:0:0:0:0:0:0:0:0:0:0,#
*,type=HCHR_POS00,param=chr_Regil:FADEOUT:T$0.5:0:0:0:0:0:0:0:0,#
*,type=STOP,param=0:0:0:0:0:0:0:0:0:0:0,#
*,type=SE_0000,param=345:0:0:0:0:0:0:0:0:0:0,#
*,type=FADEOUT_000,param=1.5:$BGBLACK_Color:0:0:0:0:0:0:0:0:0,#
*,type=BGM_0001,param=1.5:0:0:0:0:0:0:0:0:0:0,#
*,type=WAIT_0000,param=2:0:0:0:0:0:0:0:0:0:0,#
*,type=GAM_CHGSCENE,param=MissionSelectDM:0:0:0:0:0:0:0:0:0:0,#

*,type=SYSED_00,param=0:0:0:0:0:0:0:0:0:0:0,#



