﻿ScriptCmd ver 1.1.1(app1.0.4):ストクエスクリプト_020_忘れ去られし神話_クエスト03.xlsm/story020-03-01/story020-03-01.csv

*,type=SYSST_00,param=0:0:0:0:0:0:0:0:0:0:0,#
*,type=CMD_STOP,param=0:0:0:0:0:0:0:0:0:0:0,#
*,type=SYSST_01,param=0:0:0:0:0:0:0:0:0:0:0,#


*,type=PICT_0000,param=bg_01:battle_bg_sq_018_01.jpg:1:bg$202180101:0:0:0:2:0:0:0,#
*,type=BGM_0000,param=30:1.5:0:0:0:0:0:0:0:0:0,#
*,type=FADEIN_000,param=1.5:00&00&00:0:0:0:0:0:0:0:0:0,#
*,type=WAIT_0000,param=2.5:0:0:0:0:0:0:0:0:0:0,#
*,type=STOP,param=0:0:0:0:0:0:0:0:0:0:0,#
*,type=HCHR_ENT00,param=chr_Rakupel:ラクペル:N$chara_bf2_208:$POS_Center:TYPE$middle:Z$10&10:0:0:0:0:0,#
*,type=HCHR_ENT00,param=chr_Zealous:ゼラス:N$chara_bf2_211:$POS_Center:TYPE$middle:Z$10&10:0:0:0:0:0,#
*,type=HCHR_ENT00,param=chr_Seline:セリーナ:N$chara_bf2_212:$POS_Center:TYPE$middle:Z$10&10:0:0:0:0:0,#
*,type=HCHR_ENT00,param=chr_Dewey:子狼:N$tame_wolf_01:$POS_Center:TYPE$middle:Z$12&12:0:0:0:0:0,#
*,type=HCHR_ENT00,param=chr_People_M:村民B:N$chara_bf2_82:$POS_Center:TYPE$middle:Z$10:0:0:0:0:0,#
*,type=HCHR_ENT00,param=chr_People_F:村民A:N$chara_bf2_38:$POS_Center:TYPE$middle:Z$10:0:XFLIP$SET:0:0:0,#
*,type=HCHR_ENT00,param=chr_Nothum:村民A:N$chara_bf2_1_nothum:$POS_Center:TYPE$middle:Z$10:0:0:0:0:0,#
*,type=STOP,param=0:0:0:0:0:0:0:0:0:0:0,#
*,type=WAIT_0000,param=1:0:0:0:0:0:0:0:0:0:0,#
*,type=MSKS_0001,param=bgTalkMask:-260:540:1160:120:0&0&0:128:Z$40:T$0.5:0:0,#
*,type=STOP,param=0:0:0:0:0:0:0:0:0:0:0,#
*,type=FMSG_0000,msg=<speed=7>ラクペルが人里に身を寄せて<wait=3><br>　　　　　 数日,param=chr_narration1:$NW2_00017:0:0:0:0:0:0:0:0:0,#
*,type=FMSG_0001,param=0:0:0:0:0:0:0:0:0:0:0,#
*,type=FMSG_0001,param=ALL:skipmask:0:0:0:0:0:0:0:0:0,#
*,type=MSKS_0002,param=bgTalkMask:T$0.5:0:0:0:0:0:0:0:0:0,#
*,type=WAIT_0000,param=1:0:0:0:0:0:0:0:0:0:0,#
*,type=HCHR_FDM00,param=all:MSK$off:0:0:0:0:0:0:0:0:0,#
*,type=HCHR_GRP00,param=chr_Rakupel:face:ki:0:0:0:0:0:0:0:0,#
*,type=HCHR_POS00,param=chr_Rakupel:FADEIN:$CHARA_FadeTime:$OFS_Center:0:0:0:0:0:0:0,#
*,type=STOP,param=0:0:0:0:0:0:0:0:0:0:0,#
*,type=HCHR_TK10,msg=――という風に、<wait=1>マナさまは<br>すごぉ～く心の清らかな神さまなのです。,param=chr_Rakupel:Center:BASIC:0:0:0:0:0:0:0:0,#
*,type=HCHR_TK01,param=all:skipmask:0:0:0:0:0:0:0:0:0,#
*,type=HCHR_POS00,param=chr_Rakupel:FADEOUT:$CHARA_FadeTime:0:0:0:0:0:0:0:0,#
*,type=STOP,param=0:0:0:0:0:0:0:0:0:0:0,#
*,type=HCHR_FDM00,param=all:MSK$off:0:0:0:0:0:0:0:0:0,#
*,type=HCHR_FDM00,param=chr_People_M:MSK$on:0:0:0:0:0:0:0:0:0,#
*,type=HCHR_PRM00,param=chr_People_M:Z$10:0:0:0:0:0:0:0:0:0,#
*,type=HCHR_PRM00,param=chr_People_F:Z$11:0:0:0:0:0:0:0:0:0,#
*,type=HCHR_GRP00,param=chr_People_M:face:ai:0:0:0:0:0:0:0:0,#
*,type=HCHR_GRP00,param=chr_People_F:face:bi:0:0:0:0:0:0:0:0,#
*,type=HCHR_POS00,param=chr_People_M:FADEIN:$CHARA_FadeTime:$OFS_Right:0:0:0:0:0:0:0,#
*,type=HCHR_POS00,param=chr_People_F:FADEIN:$CHARA_FadeTime:$OFS_Left:0:0:0:0:0:0:0,#
*,type=STOP,param=0:0:0:0:0:0:0:0:0:0:0,#
*,type=HCHR_TK10,msg=まぁ、<wait=1>そうだったの……<wait=3><br>全然知らなかったわ。,param=chr_People_F:Left:BASIC:0:0:0:0:0:0:0:0,#
*,type=HCHR_TK10,msg=僕たち、<wait=1>神様がわざと世界を<br>こんな風にしたんだと思ってたよ。,param=chr_People_M:Right:BASIC:0:0:0:0:0:0:0:0,#
*,type=HCHR_GRP00,param=chr_People_F:face:ai:$FACE_FadeTime:0:0:0:0:0:0:0,#
*,type=HCHR_TK10,msg=あなたも苦労してるのね……<wait=3><br>神様の穢れが早く祓われるといいのだけど。,param=chr_People_F:Left:BASIC:0:0:0:0:0:0:0:0,#
*,type=HCHR_TK01,param=all:skipmask:0:0:0:0:0:0:0:0:0,#
*,type=HCHR_POS00,param=chr_People_M:FADEOUT:$CHARA_FadeTime:0:0:0:0:0:0:0:0,#
*,type=HCHR_POS00,param=chr_People_F:FADEOUT:$CHARA_FadeTime:0:0:0:0:0:0:0:0,#
*,type=STOP,param=0:0:0:0:0:0:0:0:0:0:0,#
*,type=HCHR_FDM00,param=all:MSK$off:0:0:0:0:0:0:0:0:0,#
*,type=HCHR_POS00,param=chr_Rakupel:FADEIN:$CHARA_FadeTime:$OFS_Center:0:0:0:0:0:0:0,#
*,type=STOP,param=0:0:0:0:0:0:0:0:0:0:0,#
*,type=HCHR_TK10,msg=はい！<wait=3><br>なのでみなさん。,param=chr_Rakupel:Center:BASIC:0:0:0:0:0:0:0:0,#
*,type=HCHR_TK10,msg=私と一緒に、<wait=1>この世界の穢れを祓う方法を<br>探しに行きましょう！,param=chr_Rakupel:Center:BASIC:0:0:0:0:0:0:0:0,#
*,type=HCHR_TK01,param=all:skipmask:0:0:0:0:0:0:0:0:0,#
*,type=HCHR_POS00,param=chr_Rakupel:FADEOUT:$CHARA_FadeTime:0:0:0:0:0:0:0:0,#
*,type=STOP,param=0:0:0:0:0:0:0:0:0:0:0,#
*,type=HCHR_FDM00,param=all:MSK$off:0:0:0:0:0:0:0:0:0,#
*,type=HCHR_FDM00,param=chr_People_M:MSK$on:0:0:0:0:0:0:0:0:0,#
*,type=HCHR_PRM00,param=chr_People_M:Z$10:0:0:0:0:0:0:0:0:0,#
*,type=HCHR_PRM00,param=chr_People_F:Z$11:0:0:0:0:0:0:0:0:0,#
*,type=HCHR_POS00,param=chr_People_M:FADEIN:$CHARA_FadeTime:$OFS_Right:0:0:0:0:0:0:0,#
*,type=HCHR_POS00,param=chr_People_F:FADEIN:$CHARA_FadeTime:$OFS_Left:0:0:0:0:0:0:0,#
*,type=STOP,param=0:0:0:0:0:0:0:0:0:0:0,#
*,type=HCHR_TK10,msg=そ、<wait=1>それはちょっと……,param=chr_People_F:Left:BASIC:0:0:0:0:0:0:0:0,#
*,type=HCHR_TK10,msg=僕たちには無理だよ……<wait=3><br>ここのことで精いっぱいだし。,param=chr_People_M:Right:BASIC:0:0:0:0:0:0:0:0,#
*,type=HCHR_GRP00,param=chr_People_F:face:fu:$FACE_FadeTime:0:0:0:0:0:0:0,#
*,type=HCHR_TK10,msg=そうだわ、<wait=1>良かったらゼラスに<br>声を掛けてみて。,param=chr_People_F:Left:BASIC:0:0:0:0:0:0:0:0,#
*,type=HCHR_GRP00,param=chr_People_M:face:ki:$FACE_FadeTime:0:0:0:0:0:0:0,#
*,type=HCHR_TK10,msg=そうだね、<wait=1>彼なら適任だと思う。<wait=3><br>それじゃ……,param=chr_People_M:Right:BASIC:0:0:0:0:0:0:0:0,#
*,type=HCHR_TK01,param=all:skipmask:0:0:0:0:0:0:0:0:0,#
*,type=SE_0000,param=345:0:0:0:0:0:0:0:0:0:0,#
*,type=HCHR_POS00,param=chr_People_M:OUT$right:T$0.3:0:0:0:0:0:0:0:0,#
*,type=HCHR_POS00,param=chr_People_F:OUT$right:T$0.3:0:0:0:0:0:0:0:0,#
*,type=STOP,param=0:0:0:0:0:0:0:0:0:0:0,#
*,type=WAIT_0000,param=1:0:0:0:0:0:0:0:0:0:0,#
*,type=HCHR_FDM00,param=all:MSK$off:0:0:0:0:0:0:0:0:0,#
*,type=HCHR_GRP00,param=chr_Rakupel:face:ai:0:0:0:0:0:0:0:0,#
*,type=HCHR_POS00,param=chr_Rakupel:FADEIN:T$0.3:$OFS_Center:0:0:0:0:0:0:0,#
*,type=STOP,param=0:0:0:0:0:0:0:0:0:0:0,#
*,type=HCHR_TK10,msg=<speed=7>……またあのヒトですか……,param=chr_Rakupel:Center:BASIC:0:0:0:0:0:0:0:0,#
*,type=HCHR_TK01,param=all:skipmask:0:0:0:0:0:0:0:0:0,#
*,type=HCHR_POS00,param=chr_Rakupel:FADEOUT:$CHARA_FadeTime:0:0:0:0:0:0:0:0,#
*,type=STOP,param=0:0:0:0:0:0:0:0:0:0:0,#
*,type=HCHR_FDM00,param=all:MSK$off:0:0:0:0:0:0:0:0:0,#
*,type=HCHR_FDM00,param=chr_Dewey:MSK$on:0:0:0:0:0:0:0:0:0,#
*,type=HCHR_GRP00,param=chr_Dewey:face:fu:0:0:0:0:0:0:0:0,#
*,type=HCHR_GRP00,param=chr_Seline:face:ki:0:0:0:0:0:0:0:0,#
*,type=HCHR_POS00,param=chr_Dewey:FADEIN:$CHARA_FadeTime:OFS$180&90:0:0:0:0:0:0:0,#
*,type=HCHR_POS00,param=chr_Seline:FADEIN:$CHARA_FadeTime:$OFS_Center:0:0:0:0:0:0:0,#
*,type=STOP,param=0:0:0:0:0:0:0:0:0:0:0,#
*,type=HCHR_TK10,msg=あはは、<wait=1>ラクペルさん<wait=1><br>まだお兄ちゃんのこと苦手なんだ。,param=chr_Seline:Center:BASIC:0:0:0:0:0:0:0:0,#
*,type=HCHR_TK01,param=all:skipmask:0:0:0:0:0:0:0:0:0,#
*,type=HCHR_FDM00,param=all:MSK$on:0.3:0:0:0:0:0:0:0:0,#
*,type=HCHR_FDM00,param=chr_Rakupel:MSK$off:0.3:0:0:0:0:0:0:0:0,#
*,type=HCHR_PRM00,param=chr_Seline:Z$9:0:0:0:0:0:0:0:0:0,#
*,type=HCHR_PRM00,param=chr_Rakupel:Z$11:0:0:0:0:0:0:0:0:0,#
*,type=HCHR_GRP00,param=chr_Rakupel:face:fu:0:0:0:0:0:0:0:0,#
*,type=HCHR_POS00,param=chr_Dewey:OFS$60&0:T$0.5:0:0:0:0:0:0:0:0,#
*,type=HCHR_POS00,param=chr_Seline:IN$left$160:T$0.5:$OFS_Right:0:0:0:0:0:0:0,#
*,type=HCHR_POS00,param=chr_Rakupel:IN$left$160:T$0.5:$OFS_Left:0:0:0:0:0:0:0,#
*,type=STOP,param=0:0:0:0:0:0:0:0:0:0:0,#
*,type=HCHR_TK10,msg=苦手というか……,param=chr_Rakupel:Left:BASIC:0:0:0:0:0:0:0:0,#
*,type=HCHR_TK10,msg=<speed=9>…………</speed><wait=1><ctag=CHRCHG_PT:chr_Rakupel:face:ai:->はい、<wait=1>そうです。<wait=3><br>何を考えているのかわからなくて……,param=chr_Rakupel:Left:BASIC:0:0:0:0:0:0:0:0,#
*,type=HCHR_PRM00,param=chr_Rakupel:Z$9:0:0:0:0:0:0:0:0:0,#
*,type=HCHR_PRM00,param=chr_Seline:Z$11:0:0:0:0:0:0:0:0:0,#
*,type=HCHR_GRP00,param=chr_Seline:face:ai2:$FACE_FadeTime:0:0:0:0:0:0:0,#
*,type=HCHR_TK10,msg=お兄ちゃん、<wait=1>不愛想だもんね。<wait=3><br>おまけに口下手だし。,param=chr_Seline:Right:BASIC:0:0:0:0:0:0:0:0,#
*,type=HCHR_GRP00,param=chr_Dewey:face:ku:0.1:0:0:0:0:0:0:0,#
*,type=HCHR_TK00,msg=あとすごくまずい！,param=chr_Dewey:$Minipet10_R:nowait:0:0:0:0:OFS$0&70:0:0:0,#
*,type=HCHR_POS00,param=chr_Dewey:OFS$0&-70:T$0.05:0:0:0:0:0:0:0:0,#
*,type=WAIT_0000,param=0.1:0:0:0:0:0:0:0:0:0:0,#
*,type=HCHR_POS00,param=chr_Dewey:OFS$0&70:T$0.05:0:0:0:0:0:0:0:0,#
*,type=WAIT_0000,param=0.1:0:0:0:0:0:0:0:0:0:0,#
*,type=HCHR_POS00,param=chr_Dewey:OFS$0&-70:T$0.05:0:0:0:0:0:0:0:0,#
*,type=WAIT_0000,param=0.1:0:0:0:0:0:0:0:0:0:0,#
*,type=HCHR_POS00,param=chr_Dewey:OFS$0&70:T$0.05:0:0:0:0:0:0:0:0,#
*,type=STOP,param=0:0:0:0:0:0:0:0:0:0:0,#
*,type=CSYN_0000,param=0:0:0:0:0:0:0:0:0:0:0,#
*,type=HCHR_GRP00,param=chr_Seline:face:fu:$FACE_FadeTime:0:0:0:0:0:0:0,#
*,type=HCHR_TK10,msg=でも、<wait=1>本当はとっても強くて優しいんだよ。<wait=3><br>竜さんとのケンカを終わらせた英雄だしね！,param=chr_Seline:Right:BASIC:0:0:0:0:0:0:0:0,#
*,type=HCHR_TK01,param=all:skipmask:0:0:0:0:0:0:0:0:0,#
*,type=HCHR_FDM00,param=all:MSK$on:0.1:0:0:0:0:0:0:0:0,#
*,type=HCHR_FDM00,param=chr_Rakupel:MSK$off:0.1:0:0:0:0:0:0:0:0,#
*,type=HCHR_PRM00,param=chr_Seline:Z$9:0:0:0:0:0:0:0:0:0,#
*,type=HCHR_PRM00,param=chr_Rakupel:Z$11:0:0:0:0:0:0:0:0:0,#
*,type=HCHR_PRM00,param=chr_Dewey:Z$12:0:0:0:0:0:0:0:0:0,#
*,type=HCHR_GRP00,param=chr_Rakupel:face:bi:$FACE_FadeTime:0:0:0:0:0:0:0,#
*,type=HCHR_GRP00,param=chr_Dewey:face:bi:$FACE_FadeTime:0:0:0:0:0:0:0,#
*,type=HCHR_EFC00,param=Eff_Manp_24:chr_Rakupel:manpu_1:0:SS5$$MANP_surprise_black_d_02:0:1:0:0:0:0,#
*,type=WAIT_0000,param=0.3:0:0:0:0:0:0:0:0:0:0,#
*,type=HCHR_TK10,msg=争いを終結させたのは、<wait=1>彼なのですか!?,param=chr_Rakupel:Left:BASIC:0:0:0:0:0:0:0:0,#
*,type=PICT_0004,param=Eff_Manp_24:0:0:0:0:0:0:0:0:0:0,#
*,type=HCHR_PRM00,param=chr_Rakupel:Z$9:0:0:0:0:0:0:0:0:0,#
*,type=HCHR_PRM00,param=chr_Seline:Z$11:0:0:0:0:0:0:0:0:0,#
*,type=HCHR_TK10,msg=うん。<wait=3>もうこんな悲しいことは<br>やめよう、<wait=1>ってね。,param=chr_Seline:Right:BASIC:0:0:0:0:0:0:0:0,#
*,type=HCHR_GRP00,param=chr_Seline:face:ai:$FACE_FadeTime:0:0:0:0:0:0:0,#
*,type=HCHR_GRP00,param=chr_Dewey:face:ai:$FACE_FadeTime:0:0:0:0:0:0:0,#
*,type=HCHR_TK10,msg=竜さんも私たちも<wait=1><br>大切な人をいっぱい失くしちゃったから……,param=chr_Seline:Right:BASIC:0:0:0:0:0:0:0:0,#
*,type=HCHR_GRP00,param=chr_Seline:face:ku:$FACE_FadeTime:0:0:0:0:0:0:0,#
*,type=HCHR_SHK00,param=chr_Seline:1:0.04:1:FixRange:0:0:0:0:0:0,#
*,type=HCHR_TK10,msg=<speed=7>……っ！,param=chr_Seline:Right:BASIC:0:0:0:0:0:0:0:0,#
*,type=HCHR_TK01,param=all:skipmask:0:0:0:0:0:0:0:0:0,#
*,type=HCHR_FDM00,param=all:MSK$off:0:0:0:0:0:0:0:0:0,#
*,type=HCHR_FDM00,param=chr_Seline:MSK$on:0.1:0:0:0:0:0:0:0:0,#
*,type=HCHR_PRM00,param=chr_Seline:Z$9:0:0:0:0:0:0:0:0:0,#
*,type=HCHR_PRM00,param=chr_Rakupel:Z$11:0:0:0:0:0:0:0:0:0,#
*,type=HCHR_PRM00,param=chr_Dewey:Z$12:0:0:0:0:0:0:0:0:0,#
*,type=HCHR_GRP00,param=chr_Rakupel:face:bi:$FACE_FadeTime:0:0:0:0:0:0:0,#
*,type=HCHR_GRP00,param=chr_Dewey:face:bi:$FACE_FadeTime:0:0:0:0:0:0:0,#
*,type=HCHR_EFC00,param=Eff_Manp_22a:chr_Rakupel:manpu_1:0:SS5$$MANP_surprise_black_b_02:0:0:0:0:0:0,#
*,type=HCHR_EFC00,param=Eff_Manp_22b:chr_Dewey:manpu_1:0:SS5$$MANP_surprise_black_b_02:0:0:0:0:0:0,#
*,type=WAIT_0000,param=1:0:0:0:0:0:0:0:0:0:0,#
*,type=PICT_0004,param=Eff_Manp_22a:0:0:0:0:0:0:0:0:0:0,#
*,type=PICT_0004,param=Eff_Manp_22b:0:0:0:0:0:0:0:0:0:0,#
*,type=HCHR_TK10,msg=セリーナさん!?<wait=3><br>大丈夫ですか……！,param=chr_Rakupel:Left:BASIC:0:0:0:0:0:0:0:0,#
*,type=HCHR_PRM00,param=chr_Rakupel:Z$9:0:0:0:0:0:0:0:0:0,#
*,type=HCHR_PRM00,param=chr_Seline:Z$11:0:0:0:0:0:0:0:0:0,#
*,type=HCHR_GRP00,param=chr_Seline:face:ai2:$FACE_FadeTime:0:0:0:0:0:0:0,#
*,type=HCHR_TK10,msg=ご、<wait=1>ごめん……<wait=3>辛いこと思い出すと<wait=1><br>たまにこうなっちゃうんだ。,param=chr_Seline:Right:BASIC:0:0:0:0:0:0:0:0,#
*,type=HCHR_GRP00,param=chr_Dewey:face:ai:0.3:0:0:0:0:0:0:0,#
*,type=HCHR_TK10,msg=でも、<wait=1>大丈夫。<wait=3>わたしには<br>お兄ちゃんや里のみんながいるから！,param=chr_Seline:Right:BASIC:0:0:0:0:0:0:0:0,#
*,type=HCHR_PRM00,param=chr_Seline:Z$9:0:0:0:0:0:0:0:0:0,#
*,type=HCHR_PRM00,param=chr_Rakupel:Z$11:0:0:0:0:0:0:0:0:0,#
*,type=HCHR_GRP00,param=chr_Rakupel:face:ai:$FACE_FadeTime:0:0:0:0:0:0:0,#
*,type=HCHR_TK00,msg=やっぱりセリーナさんは、<wait=1>マナさまと同じ<br>穢れに心を蝕まれているんだわ。,param=chr_Rakupel:$Mono_LL_L:BASIC:0:0:0:0:0:0:0:0,#
*,type=HCHR_GRP00,param=chr_Rakupel:face:fu:$FACE_FadeTime:0:0:0:0:0:0:0,#
*,type=HCHR_TK00,msg=でも、<wait=1>こんなに懸命に頑張ってる。<wait=3><br>あなたも強いヒトよ、<wait=1>セリーナさん……！,param=chr_Rakupel:$Mono_LL_L:BASIC:0:0:0:0:0:0:0:0,#
*,type=HCHR_PRM00,param=chr_Rakupel:Z$9:0:0:0:0:0:0:0:0:0,#
*,type=HCHR_PRM00,param=chr_Seline:Z$11:0:0:0:0:0:0:0:0:0,#
*,type=HCHR_GRP00,param=chr_Seline:face:fu:$FACE_FadeTime:0:0:0:0:0:0:0,#
*,type=HCHR_TK10,msg=いつか、<wait=1>この子たちみたいに<br>竜さんとも仲良くできたらいいんだけどねぇ,param=chr_Seline:Right:BASIC:0:0:0:0:0:0:0:0,#
*,type=HCHR_TK01,param=all:skipmask:0:0:0:0:0:0:0:0:0,#
*,type=HCHR_FDM00,param=all:MSK$on:0:0:0:0:0:0:0:0:0,#
*,type=HCHR_FDM00,param=chr_Dewey:MSK$off:0:0:0:0:0:0:0:0:0,#
*,type=HCHR_GRP00,param=chr_Dewey:face:ki:0:0:0:0:0:0:0:0,#
*,type=HCHR_POS00,param=chr_Dewey:OFS$0&-70:T$0.05:0:0:0:0:0:0:0:0,#
*,type=WAIT_0000,param=0.1:0:0:0:0:0:0:0:0:0:0,#
*,type=HCHR_POS00,param=chr_Dewey:OFS$0&70:T$0.05:0:0:0:0:0:0:0:0,#
*,type=WAIT_0000,param=0.1:0:0:0:0:0:0:0:0:0:0,#
*,type=HCHR_POS00,param=chr_Dewey:OFS$0&-70:T$0.05:0:0:0:0:0:0:0:0,#
*,type=WAIT_0000,param=0.1:0:0:0:0:0:0:0:0:0:0,#
*,type=HCHR_POS00,param=chr_Dewey:OFS$0&70:T$0.05:0:0:0:0:0:0:0:0,#
*,type=STOP,param=0:0:0:0:0:0:0:0:0:0:0,#
*,type=WAIT_0000,param=0.3:0:0:0:0:0:0:0:0:0:0,#
*,type=HCHR_PRM00,param=chr_Seline:Z$9:0:0:0:0:0:0:0:0:0,#
*,type=HCHR_PRM00,param=chr_Rakupel:Z$11:0:0:0:0:0:0:0:0:0,#
*,type=HCHR_GRP00,param=chr_Dewey:face:fu:$FACE_FadeTime:0:0:0:0:0:0:0,#
*,type=HCHR_GRP00,param=chr_Rakupel:face:ki:$FACE_FadeTime:0:0:0:0:0:0:0,#
*,type=HCHR_TK10,msg=不可能ではありません。<wait=3><br>きっと実現できますよ。,param=chr_Rakupel:Left:BASIC:0:0:0:0:0:0:0:0,#
*,type=HCHR_TK10,msg=いいえ、<wait=1>実現させましょう！<wait=3><br>それが世界を救うことにも繋がるのですから,param=chr_Rakupel:Left:BASIC:0:0:0:0:0:0:0:0,#
*,type=HCHR_PRM00,param=chr_Rakupel:Z$9:0:0:0:0:0:0:0:0:0,#
*,type=HCHR_PRM00,param=chr_Seline:Z$11:0:0:0:0:0:0:0:0:0,#
*,type=HCHR_GRP00,param=chr_Seline:face:ki:$FACE_FadeTime:0:0:0:0:0:0:0,#
*,type=HCHR_TK10,msg=うん！<wait=3><br>お兄ちゃんならきっとやってくれるよね。,param=chr_Seline:Right:BASIC:0:0:0:0:0:0:0:0,#
*,type=HCHR_PRM00,param=chr_Seline:Z$9:0:0:0:0:0:0:0:0:0,#
*,type=HCHR_PRM00,param=chr_Rakupel:Z$11:0:0:0:0:0:0:0:0:0,#
*,type=HCHR_TK10,msg=何を言ってるんです。<wait=3><br>ゼラスさんではなく、<wait=1>あなたですよ！,param=chr_Rakupel:Left:BASIC:0:0:0:0:0:0:0:0,#
*,type=HCHR_PRM00,param=chr_Rakupel:Z$9:0:0:0:0:0:0:0:0:0,#
*,type=HCHR_PRM00,param=chr_Seline:Z$11:0:0:0:0:0:0:0:0:0,#
*,type=HCHR_GRP00,param=chr_Seline:face:bi:$FACE_FadeTime:0:0:0:0:0:0:0,#
*,type=HCHR_GRP00,param=chr_Dewey:face:bi:$FACE_FadeTime:0:0:0:0:0:0:0,#
*,type=HCHR_TK10,msg=えぇっ、<wait=1>わたし!?,param=chr_Seline:Right:BASIC:0:0:0:0:0:0:0:0,#
*,type=HCHR_PRM00,param=chr_Seline:Z$9:0:0:0:0:0:0:0:0:0,#
*,type=HCHR_PRM00,param=chr_Rakupel:Z$11:0:0:0:0:0:0:0:0:0,#
*,type=HCHR_TK10,msg=はい。<wait=3>あなたこそがヒトの勇士です。<wait=3><br>間違いありません。,param=chr_Rakupel:Left:BASIC:0:0:0:0:0:0:0:0,#
*,type=HCHR_TK10,msg=さぁ、<wait=1>セリーナさん！<wait=3><br>一緒に創樹へ参りましょう！,param=chr_Rakupel:Left:BASIC:0:0:0:0:0:0:0:0,#
*,type=HCHR_TK01,param=all:skipmask:0:0:0:0:0:0:0:0:0,#
*,type=BGM_0001,param=2:0:0:0:0:0:0:0:0:0:0,#
*,type=HCHR_POS00,param=chr_Dewey:FADEOUT:T$0.3:0:0:0:0:0:0:0:0,#
*,type=HCHR_POS00,param=chr_Rakupel:FADEOUT:T$0.3:0:0:0:0:0:0:0:0,#
*,type=HCHR_POS00,param=chr_Seline:FADEOUT:T$0.3:0:0:0:0:0:0:0:0,#
*,type=STOP,param=0:0:0:0:0:0:0:0:0:0:0,#
*,type=WAIT_0000,param=0.5:0:0:0:0:0:0:0:0:0:0,#
*,type=HCHR_FDM00,param=all:MSK$off:0:0:0:0:0:0:0:0:0,#
*,type=SE_0000,param=345:0.1:0:0:0:0:0:0:0:0:0,#
*,type=HCHR_POS00,param=chr_Zealous:FADEIN:T$0.5:$OFS_Center:0:0:0:0:0:0:0,#
*,type=STOP,param=0:0:0:0:0:0:0:0:0:0:0,#
*,type=HCHR_TK10,msg=ダメだ。,param=chr_Zealous:Center:BASIC:0:0:0:0:0:0:0:0,#
*,type=HCHR_TK01,param=all:skipmask:0:0:0:0:0:0:0:0:0,#
*,type=HCHR_FDM00,param=all:MSK$off:0:0:0:0:0:0:0:0:0,#
*,type=HCHR_FDM00,param=chr_Zealous:MSK$on:0:0:0:0:0:0:0:0:0,#
*,type=HCHR_PRM00,param=chr_Zealous:Z$9:0:0:0:0:0:0:0:0:0,#
*,type=HCHR_PRM00,param=chr_Rakupel:Z$11:0:0:0:0:0:0:0:0:0,#
*,type=HCHR_GRP00,param=chr_Rakupel:face:do:0:0:0:0:0:0:0:0,#
*,type=HCHR_POS00,param=chr_Zealous:IN$left$160:T$0.5:$OFS_Right:0:0:0:0:0:0:0,#
*,type=HCHR_POS00,param=chr_Rakupel:IN$left$160:T$0.5:$OFS_Left:0:0:0:0:0:0:0,#
*,type=STOP,param=0:0:0:0:0:0:0:0:0:0:0,#
*,type=BGM_0000,param=58:0:0:0:0:0:0:0:0:0:0,#
*,type=HCHR_TK10,msg=ゼラスさん……<wait=3><br>どうしてダメなのです。,param=chr_Rakupel:Left:BASIC:0:0:0:0:0:0:0:0,#
*,type=HCHR_PRM00,param=chr_Rakupel:Z$9:0:0:0:0:0:0:0:0:0,#
*,type=HCHR_PRM00,param=chr_Zealous:Z$11:0:0:0:0:0:0:0:0:0,#
*,type=HCHR_TK10,msg=得体の知れない場所に<wait=1><br>大事な妹をやるわけにはいかない。,param=chr_Zealous:Right:BASIC:0:0:0:0:0:0:0:0,#
*,type=HCHR_PRM00,param=chr_Zealous:Z$9:0:0:0:0:0:0:0:0:0,#
*,type=HCHR_PRM00,param=chr_Rakupel:Z$11:0:0:0:0:0:0:0:0:0,#
*,type=HCHR_TK10,msg=神の御許が危険な場所だとでも<br>おっしゃるのですか！,param=chr_Rakupel:Left:BASIC:0:0:0:0:0:0:0:0,#
*,type=HCHR_PRM00,param=chr_Rakupel:Z$9:0:0:0:0:0:0:0:0:0,#
*,type=HCHR_PRM00,param=chr_Zealous:Z$11:0:0:0:0:0:0:0:0:0,#
*,type=HCHR_TK10,msg=危険ではないという保障はあるのか。,param=chr_Zealous:Right:BASIC:0:0:0:0:0:0:0:0,#
*,type=HCHR_PRM00,param=chr_Zealous:Z$9:0:0:0:0:0:0:0:0:0,#
*,type=HCHR_PRM00,param=chr_Rakupel:Z$11:0:0:0:0:0:0:0:0:0,#
*,type=HCHR_TK10,msg=ありますっ！<wait=3><br>私が保障します！,param=chr_Rakupel:Left:BASIC:0:0:0:0:0:0:0:0,#
*,type=HCHR_TK01,param=all:skipmask:0:0:0:0:0:0:0:0:0,#
*,type=HCHR_FDM00,param=all:MSK$off:0:0:0:0:0:0:0:0:0,#
*,type=HCHR_FDM00,param=chr_Rakupel:MSK$on:0:0:0:0:0:0:0:0:0,#
*,type=HCHR_PRM00,param=chr_Rakupel:Z$9:0:0:0:0:0:0:0:0:0,#
*,type=HCHR_PRM00,param=chr_Zealous:Z$11:0:0:0:0:0:0:0:0:0,#
*,type=HCHR_EFC00,param=Eff_Manp_11:chr_Zealous:manpu_1:0:SS5$$MANP_silence_a:0:0:0:0:0:0,#
*,type=WAIT_0000,param=1.5:0:0:0:0:0:0:0:0:0:0,#
*,type=PICT_0004,param=Eff_Manp_11:0:0:0:0:0:0:0:0:0:0,#
*,type=HCHR_PRM00,param=chr_Zealous:Z$9:0:0:0:0:0:0:0:0:0,#
*,type=HCHR_PRM00,param=chr_Rakupel:Z$11:0:0:0:0:0:0:0:0:0,#
*,type=HCHR_GRP00,param=chr_Rakupel:face:bi:$FACE_FadeTime:0:0:0:0:0:0:0,#
*,type=HCHR_TK10,msg=わ、<wait=1>私を信じていませんね!?,param=chr_Rakupel:Left:BASIC:0:0:0:0:0:0:0:0,#
*,type=HCHR_PRM00,param=chr_Rakupel:Z$9:0:0:0:0:0:0:0:0:0,#
*,type=HCHR_PRM00,param=chr_Zealous:Z$11:0:0:0:0:0:0:0:0:0,#
*,type=HCHR_TK10,msg=神の元には俺が行く。<wait=3><br>そこで世界を救えばいいんだな。,param=chr_Zealous:Right:BASIC:0:0:0:0:0:0:0:0,#
*,type=HCHR_GRP00,param=chr_Rakupel:face:do:$FACE_FadeTime:0:0:0:0:0:0:0,#
*,type=HCHR_PRM00,param=chr_Zealous:Z$9:0:0:0:0:0:0:0:0:0,#
*,type=HCHR_PRM00,param=chr_Rakupel:Z$11:0:0:0:0:0:0:0:0:0,#
*,type=HCHR_TK10,msg=あなた、<wait=1>簡単に言いますけどね……！,param=chr_Rakupel:Left:BASIC:0:0:0:0:0:0:0:0,#
*,type=HCHR_TK01,param=all:skipmask:0:0:0:0:0:0:0:0:0,#
*,type=HCHR_POS00,param=chr_Zealous:FADEOUT:$CHARA_FadeTime:0:0:0:0:0:0:0:0,#
*,type=HCHR_POS00,param=chr_Rakupel:FADEOUT:$CHARA_FadeTime:0:0:0:0:0:0:0:0,#
*,type=STOP,param=0:0:0:0:0:0:0:0:0:0:0,#
*,type=HCHR_FDM00,param=all:MSK$off:0:0:0:0:0:0:0:0:0,#
*,type=HCHR_FDM00,param=chr_Dewey:MSK$on:0:0:0:0:0:0:0:0:0,#
*,type=HCHR_GRP00,param=chr_Dewey:face:do:0:0:0:0:0:0:0:0,#
*,type=HCHR_GRP00,param=chr_Seline:face:ai2:0:0:0:0:0:0:0:0,#
*,type=HCHR_POS00,param=chr_Dewey:FADEIN:$CHARA_FadeTime:OFS$180&90:0:0:0:0:0:0:0,#
*,type=HCHR_POS00,param=chr_Seline:FADEIN:$CHARA_FadeTime:$OFS_Center:0:0:0:0:0:0:0,#
*,type=STOP,param=0:0:0:0:0:0:0:0:0:0:0,#
*,type=HCHR_TK10,msg=あーあ、<wait=1>また始まっちゃった……,param=chr_Seline:Center:BASIC:0:0:0:0:0:0:0:0,#
*,type=HCHR_TK01,param=all:skipmask:0:0:0:0:0:0:0:0:0,#
*,type=HCHR_POS00,param=chr_Dewey:FADEOUT:$CHARA_FadeTime:0:0:0:0:0:0:0:0,#
*,type=HCHR_POS00,param=chr_Seline:FADEOUT:$CHARA_FadeTime:0:0:0:0:0:0:0:0,#
*,type=STOP,param=0:0:0:0:0:0:0:0:0:0:0,#
*,type=HCHR_FDM00,param=all:MSK$off:0:0:0:0:0:0:0:0:0,#
*,type=HCHR_FDM00,param=chr_Rakupel:MSK$on:0:0:0:0:0:0:0:0:0,#
*,type=HCHR_PRM00,param=chr_Rakupel:Z$9:0:0:0:0:0:0:0:0:0,#
*,type=HCHR_PRM00,param=chr_Zealous:Z$11:0:0:0:0:0:0:0:0:0,#
*,type=HCHR_GRP00,param=chr_Zealous:face:do:0:0:0:0:0:0:0:0,#
*,type=HCHR_GRP00,param=chr_Rakupel:face:do:0:0:0:0:0:0:0:0,#
*,type=HCHR_POS00,param=chr_Zealous:FADEIN:$CHARA_FadeTime:$OFS_Right:0:0:0:0:0:0:0,#
*,type=HCHR_POS00,param=chr_Rakupel:FADEIN:$CHARA_FadeTime:$OFS_Left:0:0:0:0:0:0:0,#
*,type=STOP,param=0:0:0:0:0:0:0:0:0:0:0,#
*,type=HCHR_TK10,msg=それで妹の病気は治るんだろう。<wait=3><br>なら、<wait=1>なんだってしてやるさ。,param=chr_Zealous:Right:BASIC:0:0:0:0:0:0:0:0,#
*,type=HCHR_PRM00,param=chr_Zealous:Z$9:0:0:0:0:0:0:0:0:0,#
*,type=HCHR_PRM00,param=chr_Rakupel:Z$11:0:0:0:0:0:0:0:0:0,#
*,type=HCHR_TK10,msg=いいですか、<wait=1>私たちも力を尽くしたんです。<wait=3><br>それでもダメだったから、<wait=1>こうして――,param=chr_Rakupel:Left:BASIC:0:0:0:0:0:0:0:0,#
*,type=BGM_0001,param=0:0:0:0:0:0:0:0:0:0:0,#
*,type=HCHR_GRP00,param=chr_People_F:face:ku:$FACE_FadeTime:0:0:0:0:0:0:0,#
*,type=HCHR_TK00,msg=きゃぁぁ！<wait=3><br>誰か助けて！,param=chr_People_F:$Shout_S_C:BASIC:0:0:0:0:0:0:0:0,#
*,type=HCHR_TK01,param=all:0:0:0:0:0:0:0:0:0:0,#
*,type=BGM_0000,param=43:0:0:0:0:0:0:0:0:0:0,#
*,type=HCHR_GRP00,param=chr_Zealous:face:do:0.1:0:0:0:0:0:0:0,#
*,type=HCHR_GRP00,param=chr_Rakupel:face:bi:0.1:0:0:0:0:0:0:0,#
*,type=HCHR_EFC00,param=Eff_Manp_26a:chr_Zealous:manpu_1:0:SS5$$MANP_surprise_red_b_02:0:0:0:0:0:0,#
*,type=HCHR_EFC00,param=Eff_Manp_26b:chr_Rakupel:manpu_1:0:SS5$$MANP_surprise_red_b_02:0:0:0:0:0:0,#
*,type=WAIT_0000,param=1:0:0:0:0:0:0:0:0:0:0,#
*,type=PICT_0004,param=Eff_Manp_26a:0:0:0:0:0:0:0:0:0:0,#
*,type=PICT_0004,param=Eff_Manp_26b:0:0:0:0:0:0:0:0:0:0,#
*,type=HCHR_PRM00,param=chr_Rakupel:Z$9:0:0:0:0:0:0:0:0:0,#
*,type=HCHR_PRM00,param=chr_Zealous:Z$11:0:0:0:0:0:0:0:0:0,#
*,type=HCHR_TK10,msg=セリーナ、<wait=1>チビたちを連れて<br>家の中に入ってろ！,param=chr_Zealous:Right:BASIC:0:0:0:0:0:0:0:0,#
*,type=HCHR_TK01,param=all:skipmask:0:0:0:0:0:0:0:0:0,#
*,type=SE_0000,param=345:0:0:0:0:0:0:0:0:0:0,#
*,type=HCHR_POS00,param=chr_Zealous:OUT$left:T$0.15:0:0:0:0:0:0:0:0,#
*,type=WAIT_0000,param=0.8:0:0:0:0:0:0:0:0:0:0,#
*,type=HCHR_POS00,param=chr_Rakupel:FADEOUT:$CHARA_FadeTime:0:0:0:0:0:0:0:0,#
*,type=STOP,param=0:0:0:0:0:0:0:0:0:0:0,#
*,type=HCHR_FDM00,param=all:MSK$off:0:0:0:0:0:0:0:0:0,#
*,type=HCHR_FDM00,param=chr_Dewey:MSK$on:0:0:0:0:0:0:0:0:0,#
*,type=HCHR_GRP00,param=chr_Seline:face:bi:0:0:0:0:0:0:0:0,#
*,type=HCHR_GRP00,param=chr_Dewey:face:bi:0:0:0:0:0:0:0:0,#
*,type=HCHR_POS00,param=chr_Seline:FADEIN:$CHARA_FadeTime:$OFS_Center:0:0:0:0:0:0:0,#
*,type=HCHR_POS00,param=chr_Dewey:FADEIN:$CHARA_FadeTime:OFS$180&90:0:0:0:0:0:0:0,#
*,type=STOP,param=0:0:0:0:0:0:0:0:0:0:0,#
*,type=HCHR_TK10,msg=うん、<wait=1>わかった！,param=chr_Seline:Center:BASIC:0:0:0:0:0:0:0:0,#
*,type=HCHR_TK01,param=all:skipmask:0:0:0:0:0:0:0:0:0,#
*,type=SE_0000,param=345:0:0:0:0:0:0:0:0:0:0,#
*,type=HCHR_POS00,param=chr_Seline:OUT$right:T$0.15:0:0:0:0:0:0:0:0,#
*,type=HCHR_POS00,param=chr_Dewey:OUT$right:T$0.15:0:0:0:0:0:0:0:0,#
*,type=STOP,param=0:0:0:0:0:0:0:0:0:0:0,#
*,type=HCHR_FDM00,param=all:MSK$off:0:0:0:0:0:0:0:0:0,#
*,type=HCHR_GRP00,param=chr_Rakupel:face:bi:0:0:0:0:0:0:0:0,#
*,type=HCHR_SHK00,param=chr_Rakupel:0&10:0.25:0.75:0:0:0:0:0:0:0,#
*,type=HCHR_POS00,param=chr_Rakupel:IN$left$160:T$0.75:$OFS_Left:0:0:0:0:0:0:0,#
*,type=STOP,param=0:0:0:0:0:0:0:0:0:0:0,#
*,type=WAIT_0000,param=0.5:0:0:0:0:0:0:0:0:0:0,#
*,type=HCHR_SHK00,param=chr_Rakupel:0&10:0.25:0:0:0:0:0:0:0:0,#
*,type=HCHR_TK00,msg=あ、<wait=1>え、<wait=1>えっと……,param=chr_Rakupel:$CenterNoTail10:nowait:0:0:0:0:0:0:0:0,#
*,type=HCHR_POS00,param=chr_Rakupel:OFS$70&0:T$0.5:0:0:0:0:0:0:0:0,#
*,type=WAIT_0000,param=0.5:0:0:0:0:0:0:0:0:0:0,#
*,type=HCHR_POS00,param=chr_Rakupel:OFS$-70&0:T$0.75:0:0:0:0:0:0:0:0,#
*,type=STOP,param=0:0:0:0:0:0:0:0:0:0:0,#
*,type=CSYN_0000,param=0:0:0:0:0:0:0:0:0:0:0,#
*,type=HCHR_SHK01,param=chr_Rakupel:0:0:0:0:0:0:0:0:0:0,#
*,type=HCHR_TK10,msg=ゼラスさん！,param=chr_Rakupel:Left:BASIC:0:0:0:0:0:0:0:0,#
*,type=HCHR_TK01,param=all:skipmask:0:0:0:0:0:0:0:0:0,#
*,type=HCHR_POS00,param=chr_Rakupel:OUT$left:T$0.08:0:0:0:0:0:0:0:0,#
*,type=STOP,param=0:0:0:0:0:0:0:0:0:0:0,#
*,type=FADEOUT_000,param=1.5:$BGBLACK_Color:0:0:0:0:0:0:0:0:0,#
*,type=BGM_0001,param=1.5:0:0:0:0:0:0:0:0:0:0,#
*,type=WAIT_0000,param=2:0:0:0:0:0:0:0:0:0:0,#
*,type=CLSNE_0000,param=0:0:0:0:0:0:0:0:0:0:0,#

*,type=SYSED_00,param=0:0:0:0:0:0:0:0:0:0:0,#



