﻿ScriptCmd ver 1.1.1(app1.0.4):ストクエスクリプト_015_アフターディスノミア編_battle.xlsm/story015-03-02_library/story015-03-02_library.csv

*,type=SYSST_00,param=0:0:0:0:0:0:0:0:0:0:0,#
*,type=CMD_STOP,param=0:0:0:0:0:0:0:0:0:0:0,#
*,type=SYSST_01,param=0:0:0:0:0:0:0:0:0:0:0,#


*,type=EVT_CHKTRG,param=0:0:0:0:0:0:0:0:0:0:0,#
*,type=EVT_BTL_PREBTL,param=1:0:0:0:0:0:0:0:0:0:0,#
*,type=BTL_PanelMask,param=ON:0:0:0:0:0:0:0:0:0:0,#
*,type=BTL_CMD,param=unit_panel:PPTALL:OFF:0:0:0:0:0:0:0:0,#
*,type=BTL_EnemyHpBarVisible,param=OFF:0:0:0:0:0:0:0:0:0:0,#
*,type=BTL_CMD,param=unit_panel:PPTALL:OFF:0:0:0:0:0:0:0:0,#
*,type=BTL_EnemyHpBarVisible,param=OFF:0:0:0:0:0:0:0:0:0:0,#
*,type=BTL_ChangeParty,param=ON:21003:5013013:0:0:0:0:0:0:0:0,#
*,type=BTL_WaitAction,param=10:0:0:0:0:0:0:0:0:0:0,#
*,type=BTL_FADE,param=IN:0:0:0:0:0:0:0:0:0:0,#
*,type=WAIT_0000,param=1.5:0:0:0:0:0:0:0:0:0:0,#
*,type=HCHR_ENT00,param=chr_Regil:レギル:N$chara_bf2_170_b:$BTLPOS_Left:TYPE$middle:Z$10:0:XFLIP$SET:0:0:0,#
*,type=HCHR_ENT00,param=chr_Ionia:イオニア:N$chara_bf2_171_b:$BTLPOS_Right:TYPE$middle:Z$10:0:0:0:0:0,#
*,type=STOP,param=0:0:0:0:0:0:0:0:0:0:0,#
*,type=HCHR_GRP00,param=chr_Ionia:face:ki:0:0:0:0:0:0:0:0,#
*,type=HCHR_POS00,param=chr_Ionia:FADEIN:$CHARA_FadeTime:0:0:0:0:0:0:0:0,#
*,type=STOP,param=0:0:0:0:0:0:0:0:0:0:0,#
*,type=HCHR_TK10,msg=ハァイ。<wait=3>また会ったわね。,param=chr_Ionia:Right:BASIC:0:0:0:0:0:0:0:0,#
*,type=HCHR_TK01,param=ALL:0:0:0:0:0:0:0:0:0:0,#
*,type=HCHR_POS00,param=chr_Ionia:FADEOUT:T$0:0:0:0:0:0:0:0:0,#
*,type=STOP,param=0:0:0:0:0:0:0:0:0:0:0,#
*,type=HCHR_GRP00,param=chr_Regil:face:ku:0:0:0:0:0:0:0:0,#
*,type=HCHR_POS00,param=chr_Regil:FADEIN:$CHARA_FadeTime:0:0:0:0:0:0:0:0,#
*,type=STOP,param=0:0:0:0:0:0:0:0:0:0:0,#
*,type=HCHR_EFC00,param=Eff_Manp_18:chr_Regil:manpu_1_re:0:SS5$$MANP_surprise_red_b:0:1:0:0:XFLIP$SET:0,#
*,type=STOP,param=0:0:0:0:0:0:0:0:0:0:0,#
*,type=HCHR_TK10,msg=イオニア!?<wait=3><br>何故連邦の兵士と……！,param=chr_Regil:Left:BASIC:0:0:0:0:0:0:0:0,#
*,type=HCHR_TK01,param=ALL:0:0:0:0:0:0:0:0:0:0,#
*,type=WAIT_0000,param=0.8:0:0:0:0:0:0:0:0:0:0,#
*,type=PICT_0004,param=Eff_Manp_18:0:0:0:0:0:0:0:0:0:0,#
*,type=HCHR_TK10,msg=……そうか。<wait=3><br>魔剣を盗んだのはお前だったんだな。,param=chr_Regil:Left:BASIC:0:0:0:0:0:0:0:0,#
*,type=HCHR_GRP00,param=chr_Regil:face:do:0:0:0:0:0:0:0:0,#
*,type=HCHR_TK10,msg=いや…………<wait=3>全ては<br>あいつが仕組んだことだったのか。,param=chr_Regil:Left:BASIC:0:0:0:0:0:0:0:0,#
*,type=HCHR_TK10,msg=あの爆破事件から、<wait=1>全てを……！,param=chr_Regil:Left:BASIC:0:0:0:0:0:0:0:0,#
*,type=HCHR_TK01,param=ALL:0:0:0:0:0:0:0:0:0:0,#
*,type=HCHR_POS00,param=chr_Regil:FADEOUT:T$0:0:0:0:0:0:0:0:0,#
*,type=STOP,param=0:0:0:0:0:0:0:0:0:0:0,#
*,type=HCHR_GRP00,param=chr_Ionia:face:ki:0:0:0:0:0:0:0:0,#
*,type=HCHR_POS00,param=chr_Ionia:FADEIN:$CHARA_FadeTime:0:0:0:0:0:0:0:0,#
*,type=STOP,param=0:0:0:0:0:0:0:0:0:0:0,#
*,type=HCHR_TK10,msg=アンタもアイツのこと<br>わかってきたじゃない。,param=chr_Ionia:Right:BASIC:0:0:0:0:0:0:0:0,#
*,type=HCHR_TK10,msg=でも、<wait=1>ま、<wait=1>ちょっと気付くのが<br>遅すぎたようだけれど。,param=chr_Ionia:Right:BASIC:0:0:0:0:0:0:0:0,#
*,type=HCHR_TK01,param=ALL:0:0:0:0:0:0:0:0:0:0,#
*,type=HCHR_POS00,param=chr_Ionia:FADEOUT:T$0:0:0:0:0:0:0:0:0,#
*,type=STOP,param=0:0:0:0:0:0:0:0:0:0:0,#
*,type=HCHR_GRP00,param=chr_Regil:face:ai:0:0:0:0:0:0:0:0,#
*,type=HCHR_POS00,param=chr_Regil:FADEIN:$CHARA_FadeTime:0:0:0:0:0:0:0:0,#
*,type=STOP,param=0:0:0:0:0:0:0:0:0:0:0,#
*,type=HCHR_TK10,msg=心のどこかで期待してたんだ……<wait=3><br>お前たちも、<wait=1>もしかしたら……<wait=1>と。,param=chr_Regil:Left:BASIC:0:0:0:0:0:0:0:0,#
*,type=HCHR_TK01,param=ALL:0:0:0:0:0:0:0:0:0:0,#
*,type=WAIT_0000,param=0.5:0:0:0:0:0:0:0:0:0:0,#
*,type=HCHR_GRP00,param=chr_Regil:face:do:0:0:0:0:0:0:0:0,#
*,type=HCHR_TK10,msg=だがそれは俺の幻想だったようだ。,param=chr_Regil:Left:BASIC:0:0:0:0:0:0:0:0,#
*,type=HCHR_TK10,msg=……イオニア、<wait=1>魔剣を返せ。,param=chr_Regil:Left:BASIC:0:0:0:0:0:0:0:0,#
*,type=HCHR_TK01,param=ALL:0:0:0:0:0:0:0:0:0:0,#
*,type=HCHR_POS00,param=chr_Regil:FADEOUT:T$0:0:0:0:0:0:0:0:0,#
*,type=STOP,param=0:0:0:0:0:0:0:0:0:0:0,#
*,type=HCHR_GRP00,param=chr_Ionia:face:do:0:0:0:0:0:0:0:0,#
*,type=HCHR_POS00,param=chr_Ionia:FADEIN:$CHARA_FadeTime:0:0:0:0:0:0:0:0,#
*,type=STOP,param=0:0:0:0:0:0:0:0:0:0:0,#
*,type=HCHR_TK10,msg=何言ってるの？<wait=3><br>これはもともとアタシの物だったのよ。,param=chr_Ionia:Right:BASIC:0:0:0:0:0:0:0:0,#
*,type=HCHR_GRP00,param=chr_Ionia:face:ki:0:0:0:0:0:0:0:0,#
*,type=HCHR_TK10,msg=……でも、<wait=1>そうね。<wait=3><br>そんなに欲しいなら、<wait=1>あげてもいいわ。,param=chr_Ionia:Right:BASIC:0:0:0:0:0:0:0:0,#
*,type=HCHR_GRP00,param=chr_Ionia:face:ku:0:0:0:0:0:0:0:0,#
*,type=HCHR_TK10,msg=アタシと戦って、<wait=1>勝てたら……<wait=3>だけどね！,param=chr_Ionia:Right:BASIC:0:0:0:0:0:0:0:0,#
*,type=HCHR_TK01,param=ALL:0:0:0:0:0:0:0:0:0:0,#
*,type=HCHR_POS00,param=chr_Ionia:FADEOUT:T$0:0:0:0:0:0:0:0:0,#
*,type=STOP,param=0:0:0:0:0:0:0:0:0:0:0,#
*,type=MSKS_0000,param=bgBlackMask:$BGBLACK_Color:0:Z$50:T$0.75:0:0:0:0:0:0,#
*,type=WAIT_0000,param=0.75:0:0:0:0:0:0:0:0:0:0,#
*,type=WAIT_0000,param=0.5:0:0:0:0:0:0:0:0:0:0,#
*,type=MSKS_0002,param=bgBlackMask:T$0.75:0:0:0:0:0:0:0:0:0,#
*,type=WAIT_0000,param=1:0:0:0:0:0:0:0:0:0:0,#
*,type=GAM_CHGSCENE,param=MissionSelect:0:0:0:0:0:0:0:0:0:0,#
*,type=BTL_PanelMask,param=OFF:0:0:0:0:0:0:0:0:0:0,#
*,type=EVT_BLOCKEND,param=0:0:0:0:0:0:0:0:0:0:0,#

*,type=SYSED_00,param=0:0:0:0:0:0:0:0:0:0:0,#



