﻿ScriptCmd ver 1.1.1(app1.0.4):ストクエスクリプト_008_剣盾鎧_battle.xlsm/story008-03-02/story008-03-02.csv

*,type=SYSST_00,param=0:0:0:0:0:0:0:0:0:0:0,#
*,type=CMD_STOP,param=0:0:0:0:0:0:0:0:0:0:0,#
*,type=SYSST_01,param=0:0:0:0:0:0:0:0:0:0:0,#


*,type=EVT_CHKTRG,param=0:0:0:0:0:0:0:0:0:0:0,#
*,type=EVT_BTL_STARTBTL,param=1:0:0:0:0:0:0:0:0:0:0,#
*,type=BTL_CMD,param=last_bgm_on:0:0:0:0:0:0:0:0:0:0,#
*,type=EVT_BLOCKEND,param=0:0:0:0:0:0:0:0:0:0:0,#
*,type=EVT_BTL_ENDMISSION1,param=0:0:0:0:0:0:0:0:0:0:0,#
*,type=BTL_PanelMask,param=ON:0:0:0:0:0:0:0:0:0:0,#
*,type=BTL_EVTUNIT_ANM,param=PPTALL:IDLE:0:0:0:0:0:0:0:0:0,#
*,type=BTL_WaitAction,param=15:0:0:0:0:0:0:0:0:0:0,#
*,type=BTL_STORY,param=START:0:0:SKIPFADE:0:0:0:0:0:0:0,#
*,type=HCHR_ENT00,param=chr_Langhe:ランゲ:N$chara_bf2_130_b:$BTLPOS_Left:TYPE$middle:Z$10:0:0:0:0:0,#
*,type=STOP,param=0:0:0:0:0:0:0:0:0:0:0,#
*,type=HCHR_GRP00,param=chr_Langhe:face:fu:0:0:0:0:0:0:0:0,#
*,type=HCHR_POS00,param=chr_Langhe:FADEIN:$CHARA_FadeTime:0:0:0:0:0:0:0:0,#
*,type=STOP,param=0:0:0:0:0:0:0:0:0:0:0,#
*,type=HCHR_TK10,msg=なるほど、<wait=1.5>大した力だ。<wait=3><br>これが魔装鎧の力か……,param=chr_Langhe:Left:BASIC:0:0:0:0:0:0:0:0,#
*,type=HCHR_TK01,param=ALL:0:0:0:0:0:0:0:0:0:0,#
*,type=HCHR_POS00,param=chr_Langhe:FADEOUT:$CHARA_FadeTime:0:0:0:0:0:0:0:0,#
*,type=STOP,param=0:0:0:0:0:0:0:0:0:0:0,#
*,type=BTL_STORY,param=END:0:0:SKIPFADE:0:0:0:0:0:0:0,#
*,type=BTL_PanelMask,param=OFF:0:0:0:0:0:0:0:0:0:0,#
*,type=EVT_BLOCKEND,param=0:0:0:0:0:0:0:0:0:0:0,#

*,type=SYSED_00,param=0:0:0:0:0:0:0:0:0:0:0,#



