﻿ScriptCmd ver 1.1.1(app1.0.4):ストクエスクリプト_009_ニーナ_story.xlsm/story009-03-05/story009-03-05.csv

*,type=SYSST_00,param=0:0:0:0:0:0:0:0:0:0:0,#
*,type=CMD_STOP,param=0:0:0:0:0:0:0:0:0:0:0,#
*,type=SYSST_01,param=0:0:0:0:0:0:0:0:0:0:0,#


*,type=PICT_0000,param=bg_01:battle_bg_009_EX01.jpg:1:bg$1050107:0:0:0:2:0:0:0,#
*,type=BGM_0000,param=42:0:0:0:0:0:0:0:0:0:0,#
*,type=FADEIN_000,param=1.5:00&00&00:0:0:0:0:0:0:0:0:0,#
*,type=WAIT_0000,param=2.5:0:0:0:0:0:0:0:0:0:0,#
*,type=HCHR_ENT00,param=chr_Nina:ニーナ:N$chara_bf2_140:$POS_Center:TYPE$middle:Z$10:0:0:0:0:0,#
*,type=HCHR_ENT00,param=chr_Mob_Researcher:研究員:N$chara_bf2_138:$POS_Center:TYPE$middle:Z$10:0:0:0:0:0,#
*,type=STOP,param=0:0:0:0:0:0:0:0:0:0:0,#
*,type=SE_0000,param=321:0:0:0:0:0:0:0:0:0:0,#
*,type=MSKS_0000,param=Weak_Nekauflash:25&135&220:180:Z$50:T$0:0:0:0:0:0:0,#
*,type=MSKS_0002,param=Weak_Nekauflash:T$0.2:0:0:0:0:0:0:0:0:0,#
*,type=WAIT_0000,param=0.4:0:0:0:0:0:0:0:0:0:0,#
*,type=SE_0000,param=336:0:0:0:0:0:0:0:0:0:0,#
*,type=SE_0000,param=227:0:0:0:0:0:0:0:0:0:0,#
*,type=EFFECT_GP,param=60010014:320:568:0:0:70:0:0:0:0:0,#
*,type=QUAK_0000,param=0.04:15:15:15:0:0:0:0:0:0:0,#
*,type=WAIT_0000,param=1.2:0:0:0:0:0:0:0:0:0:0,#
*,type=HCHR_GRP00,param=chr_Nina:face:ai:$FACE_FadeTime:0:0:0:0:0:0:0,#
*,type=HCHR_POS00,param=chr_Nina:FADEIN:T$0.5:$OFS_Center:0:0:0:0:0:0:0,#
*,type=WAIT_0000,param=1:0:0:0:0:0:0:0:0:0:0,#
*,type=HCHR_EFC00,param=Eff_Manp_03:chr_Nina:manpu_1:0:SS5$$MANP_crumpled_a:0:1:0:0:0:0,#
*,type=HCHR_TK10,msg=なにあれ……,param=chr_Nina:Center:BASIC:0:0:0:0:0:0:OFS$0&110:0,#
*,type=HCHR_TK10,msg=めんどうくさい。<wait=2><br>にげよう。,param=chr_Nina:Center:BASIC:0:0:0:0:0:0:OFS$0&110:0,#
*,type=HCHR_TK01,param=all:0:0:0:0:0:0:0:0:0:0,#
*,type=PICT_0004,param=Eff_Manp_03:0:0:0:0:0:0:0:0:0:0,#
*,type=SE_0001,param=0:345:0:0.25:3:0:0:0:0:0:0,#
*,type=FADEOUT_000,param=1:00&00&00:0:0:0:0:0:0:0:0:0,#
*,type=STOP,param=0:0:0:0:0:0:0:0:0:0:0,#
*,type=HCHR_POS00,param=chr_Nina:FADEOUT:T$0:0:0:0:0:0:0:0:0,#
*,type=HCHR_GRP00,param=chr_Nina:face:fu:0:0:0:0:0:0:0:0,#
*,type=HCHR_POS00,param=chr_Nina:FADEIN:T$0:$OFS_Center:0:0:0:0:0:0:0,#
*,type=FADEIN_000,param=1:00&00&00:0:0:0:0:0:0:0:0:0,#
*,type=WAIT_0000,param=1:0:0:0:0:0:0:0:0:0:0,#
*,type=BGM_0001,param=1:0:0:0:0:0:0:0:0:0:0,#
*,type=WAIT_0000,param=0.5:0:0:0:0:0:0:0:0:0:0,#
*,type=SE_0000,param=343:0:0:0:0:0:0:0:0:0:0,#
*,type=MSKS_0000,param=Weak_WeakFlash1:255&255&255:160:Z$50:T$0.1:0:0:0:0:0:0,#
*,type=WAIT_0000,param=0.1:0:0:0:0:0:0:0:0:0:0,#
*,type=HCHR_EFC00,param=Eff_Manp_20:chr_Nina:manpu_1:0:SS5$$MANP_surprise_red_d:0:1:0:0:0:0,#
*,type=HCHR_GRP00,param=chr_Nina:face:bi:$FACE_FadeTime:0:0:0:0:0:0:0,#
*,type=MSKS_0002,param=Weak_WeakFlash1:T$0.5:0:0:0:0:0:0:0:0:0,#
*,type=WAIT_0000,param=0.7:0:0:0:0:0:0:0:0:0:0,#
*,type=PICT_0004,param=Eff_Manp_20:0:0:0:0:0:0:0:0:0:0,#
*,type=BGM_0000,param=1052:0:0:0:0:0:0:0:0:0:0,#
*,type=WAIT_0000,param=0.2:0:0:0:0:0:0:0:0:0:0,#
*,type=HCHR_TK10,msg=やっぱり……,param=chr_Nina:Center:BASIC:0:0:0:0:0:0:OFS$0&110:0,#
*,type=HCHR_GRP00,param=chr_Nina:face:fu:$FACE_FadeTime:0:0:0:0:0:0:0,#
*,type=HCHR_TK10,msg=わたしをよんでる……<wait=3><br>いかなきゃ……,param=chr_Nina:Center:BASIC:0:0:0:0:0:0:OFS$0&110:0,#
*,type=HCHR_TK01,param=all:0:0:0:0:0:0:0:0:0:0,#
*,type=HCHR_POS00,param=chr_Nina:FADEOUT:T$0.2:0:0:0:0:0:0:0:0,#
*,type=WAIT_0000,param=1:0:0:0:0:0:0:0:0:0:0,#
*,type=SPKG_0000,param=eff_dream_start:sc_dream_in.vfxb:50:300:420:1:0:0:0:0:0,#
*,type=MSKS_0000,param=Weak_WeakFlash1:255&255&255:255:Z$50:T$3.2:0:0:0:0:0:0,#
*,type=WAIT_0000,param=3:0:0:0:0:0:0:0:0:0:0,#
*,type=SPKG_0000,param=eff_dream_end:sc_dream_out.vfxb:50:300:420:1:0:0:0:0:0,#
*,type=WAIT_0000,param=1.2:0:0:0:0:0:0:0:0:0:0,#
*,type=SE_0000,param=343:0:0:0:0:0:0:0:0:0:0,#
*,type=WAIT_0000,param=0.5:0:0:0:0:0:0:0:0:0:0,#
*,type=HCHR_GRP00,param=chr_Nina:face:bi:$FACE_FadeTime:0:0:0:0:0:0:0,#
*,type=HCHR_POS00,param=chr_Mob_Researcher:FADEIN:T$1:$OFS_Center:0:0:0:0:0:0:0,#
*,type=HCHR_FDM00,param=chr_Mob_Researcher:ALP$128:1:0:0:0:0:0:0:0:0,#
*,type=MSKS_0002,param=Weak_WeakFlash1:T$1:0:0:0:0:0:0:0:0:0,#
*,type=WAIT_0000,param=2.2:0:0:0:0:0:0:0:0:0:0,#
*,type=HCHR_TK10,msg=<speed=7>ニーナ……,param=chr_Mob_Researcher:Center:BASIC:0:0:0:0:0:0:OFS$0&110:0,#
*,type=HCHR_TK01,param=all:0:0:0:0:0:0:0:0:0:0,#
*,type=HCHR_POS00,param=chr_Mob_Researcher:IN$right$160:T$0.8:$OFS_Left:Z$10:0:0:0:0:0:0,#
*,type=HCHR_FDM00,param=chr_Mob_Researcher:ALP$128:0.8:0:0:0:0:0:0:0:0,#
*,type=HCHR_POS00,param=chr_Nina:FADEIN:T$0.8:$OFS_Right:Z$11:0:0:0:0:0:0,#
*,type=HCHR_FDM00,param=chr_Mob_Researcher:MSK$on:0.8:0:0:0:0:0:0:0:0,#
*,type=WAIT_0000,param=1:0:0:0:0:0:0:0:0:0:0,#
*,type=HCHR_TK10,msg=なんであなたがここにいるの？,param=chr_Nina:Right:BASIC:0:0:0:0:0:0:OFS$0&110:0,#
*,type=HCHR_GRP00,param=chr_Mob_Researcher:face:ai:$FACE_FadeTime:0:0:0:0:0:0:0,#
*,type=HCHR_TK10,msg=<speed=9>…………,param=chr_Mob_Researcher:Left:BASIC:0:0:0:0:0:0:OFS$0&110:0,#
*,type=HCHR_GRP00,param=chr_Nina:face:fu:$FACE_FadeTime:0:0:0:0:0:0:0,#
*,type=HCHR_TK10,msg=……生きてる感じがしない。<wait=2><br>もしかしてゆうれいなの？,param=chr_Nina:Right:BASIC:0:0:0:0:0:0:OFS$0&110:0,#
*,type=HCHR_TK10,msg=僕らを許してくれとは言えない。<wait=3><br>でも、人間を憎まないでくれると嬉しい。,param=chr_Mob_Researcher:Left:BASIC:0:0:0:0:0:0:OFS$0&110:0,#
*,type=HCHR_TK10,msg=べつに憎んでるわけじゃないわ。<wait=2><br>ちょっとやり返したかっただけ。,param=chr_Nina:Right:BASIC:0:0:0:0:0:0:OFS$0&110:0,#
*,type=HCHR_TK10,msg=……僕は君も人間だと思ってる。,param=chr_Mob_Researcher:Left:BASIC:0:0:0:0:0:0:OFS$0&110:0,#
*,type=HCHR_GRP00,param=chr_Nina:face:ki:$FACE_FadeTime:0:0:0:0:0:0:0,#
*,type=HCHR_TK10,msg=たしかに、<wait=1>ふくしゅうしたいとか<wait=1><br>人間っぽいかもしれないわね。,param=chr_Nina:Right:BASIC:0:0:0:0:0:0:OFS$0&110:0,#
*,type=HCHR_GRP00,param=chr_Mob_Researcher:face:do:$FACE_FadeTime:0:0:0:0:0:0:0,#
*,type=HCHR_TK10,msg=君には心も魂もあるじゃないか。<wait=2><br>なら……人間だ！,param=chr_Mob_Researcher:Left:BASIC:0:0:0:0:0:0:OFS$0&110:0,#
*,type=HCHR_GRP00,param=chr_Nina:face:fu:$FACE_FadeTime:0:0:0:0:0:0:0,#
*,type=HCHR_TK10,msg=あなたはゆうれいに<br>なっちゃったんでしょ？,param=chr_Nina:Right:BASIC:0:0:0:0:0:0:OFS$0&110:0,#
*,type=HCHR_GRP00,param=chr_Mob_Researcher:face:fu:$FACE_FadeTime:0:0:0:0:0:0:0,#
*,type=HCHR_TK10,msg=僕は……,param=chr_Mob_Researcher:Left:BASIC:0:0:0:0:0:0:OFS$0&110:0,#
*,type=HCHR_TK10,msg=さよならも言えない愚図のくせに。,param=chr_Nina:Right:BASIC:0:0:0:0:0:0:OFS$0&110:0,#
*,type=HCHR_GRP00,param=chr_Mob_Researcher:face:ai:$FACE_FadeTime:0:0:0:0:0:0:0,#
*,type=HCHR_TK10,msg=<speed=9>…………,param=chr_Mob_Researcher:Left:BASIC:0:0:0:0:0:0:OFS$0&110:0,#
*,type=HCHR_TK10,msg=わたしなんかのために<wait=1><br>どうして命をすてたの？,param=chr_Nina:Right:BASIC:0:0:0:0:0:0:OFS$0&110:0,#
*,type=HCHR_TK10,msg=この世は不条理だけど<br>優しさだってあるはずだ。,param=chr_Mob_Researcher:Left:BASIC:0:0:0:0:0:0:OFS$0&110:0,#
*,type=HCHR_GRP00,param=chr_Mob_Researcher:face:ki:$FACE_FadeTime:0:0:0:0:0:0:0,#
*,type=HCHR_TK10,msg=僕は人間として、<wait=1>それを信じたい。,param=chr_Mob_Researcher:Left:BASIC:0:0:0:0:0:0:OFS$0&110:0,#
*,type=HCHR_TK10,msg=それを証明したかったってこと？,param=chr_Nina:Right:BASIC:0:0:0:0:0:0:OFS$0&110:0,#
*,type=HCHR_GRP00,param=chr_Mob_Researcher:face:fu:$FACE_FadeTime:0:0:0:0:0:0:0,#
*,type=HCHR_TK10,msg=ニーナ、<wait=1>君は何か<br>したいことはないのかい？,param=chr_Mob_Researcher:Left:BASIC:0:0:0:0:0:0:OFS$0&110:0,#
*,type=HCHR_TK10,msg=なによ、<wait=1>急に。,param=chr_Nina:Right:BASIC:0:0:0:0:0:0:OFS$0&110:0,#
*,type=HCHR_GRP00,param=chr_Nina:face:bi:$FACE_FadeTime:0:0:0:0:0:0:0,#
*,type=HCHR_TK10,msg=<speed=9>…………<wait=3></speed>あれ？,param=chr_Nina:Right:BASIC:0:0:0:0:0:0:OFS$0&110:0,#
*,type=HCHR_TK10,msg=このはなし……<wait=3><br>あのときの……,param=chr_Nina:Right:BASIC:0:0:0:0:0:0:OFS$0&110:0,#
*,type=HCHR_GRP00,param=chr_Nina:face:fu:$FACE_FadeTime:0:0:0:0:0:0:0,#
*,type=HCHR_TK10,msg=そうやってすぐ<br>受け入れてしまうんだね。,param=chr_Mob_Researcher:Left:BASIC:0:0:0:0:0:0:OFS$0&110:0,#
*,type=HCHR_TK10,msg=だけど……,param=chr_Mob_Researcher:Left:BASIC:0:0:0:0:0:0:OFS$0&110:0,#
*,type=HCHR_GRP00,param=chr_Mob_Researcher:face:do:$FACE_FadeTime:0:0:0:0:0:0:0,#
*,type=HCHR_TK10,msg=ここにいちゃ駄目だ！<wait=3><br>心も魂もいずれ失くしてしまう！,param=chr_Mob_Researcher:Left:BASIC:0:0:0:0:0:0:OFS$0&110:0,#
*,type=HCHR_GRP00,param=chr_Mob_Researcher:face:ai:$FACE_FadeTime:0:0:0:0:0:0:0,#
*,type=HCHR_TK10,msg=そんなことになったら<br>自分を知ることもできない……,param=chr_Mob_Researcher:Left:BASIC:0:0:0:0:0:0:OFS$0&110:0,#
*,type=HCHR_TK01,param=all:skipmask:0:0:0:0:0:0:0:0:0,#
*,type=BGM_0001,param=1.5:0:0:0:0:0:0:0:0:0:0,#
*,type=HCHR_TK10,msg=そう、<wait=1>あなた、<wait=1>ゆうれいでもないのね。,param=chr_Nina:Right:BASIC:0:0:0:0:0:0:OFS$0&110:0,#
*,type=HCHR_GRP00,param=chr_Mob_Researcher:face:fu:$FACE_FadeTime:0:0:0:0:0:0:0,#
*,type=HCHR_TK10,msg=だから、<wait=1>ここから逃げよう。<wait=2><br>一緒に。,param=chr_Mob_Researcher:Left:BASIC:0:0:0:0:0:0:OFS$0&110:0,#
*,type=HCHR_GRP00,param=chr_Nina:face:ai:$FACE_FadeTime:0:0:0:0:0:0:0,#
*,type=HCHR_TK10,msg=わたしの記憶からつくられた<br>まぼろし……,param=chr_Nina:Right:BASIC:0:0:0:0:0:0:OFS$0&110:0,#
*,type=BGM_0000,param=30:1:0:0:0:0:0:0:0:0:0,#
*,type=HCHR_GRP00,param=chr_Nina:face:fu:$FACE_FadeTime:0:0:0:0:0:0:0,#
*,type=HCHR_GRP00,param=chr_Mob_Researcher:face:ki:$FACE_FadeTime:0:0:0:0:0:0:0,#
*,type=HCHR_TK10,msg=外に出よう。<wait=2><br>友達をたくさん作るんだ。,param=chr_Mob_Researcher:Left:BASIC:0:0:0:0:0:0:OFS$0&110:0,#
*,type=HCHR_TK10,msg=そうすれば自分が何者なのか<br>きっとわかるはずだよ。,param=chr_Mob_Researcher:Left:BASIC:0:0:0:0:0:0:OFS$0&110:0,#
*,type=HCHR_GRP00,param=chr_Mob_Researcher:face:fu:$FACE_FadeTime:0:0:0:0:0:0:0,#
*,type=HCHR_TK10,msg=<speed=9>…………,param=chr_Nina:Right:BASIC:0:0:0:0:0:0:OFS$0&110:0,#
*,type=HCHR_TK10,msg=いいよ、<wait=1>わかった。<wait=2><br>あいつの命なんて、<wait=1>もうどうでもいいし。,param=chr_Nina:Right:BASIC:0:0:0:0:0:0:OFS$0&110:0,#
*,type=HCHR_GRP00,param=chr_Nina:face:ki:$FACE_FadeTime:0:0:0:0:0:0:0,#
*,type=HCHR_TK10,msg=自分さがしは後にして<wait=1><br>友だち、<wait=1>つくってみるわよ。,param=chr_Nina:Right:BASIC:0:0:0:0:0:0:OFS$0&110:0,#
*,type=HCHR_TK01,param=all:skipmask:0:0:0:0:0:0:0:0:0,#
*,type=HCHR_FDM00,param=chr_Mob_Researcher:MSK$off:0.4:0:0:0:0:0:0:0:0,#
*,type=WAIT_0000,param=0.4:0:0:0:0:0:0:0:0:0:0,#
*,type=SE_0000,param=103:0:0:0:0:0:0:0:0:0:0,#
*,type=HCHR_GRP00,param=chr_Mob_Researcher:face:ki:0.4:0:0:0:0:0:0:0,#
*,type=WAIT_0000,param=0.4:0:0:0:0:0:0:0:0:0:0,#
*,type=HCHR_POS00,param=chr_Mob_Researcher:FADEOUT:T$1:0:0:0:0:0:0:0:0,#
*,type=WAIT_0000,param=1.8:0:0:0:0:0:0:0:0:0:0,#
*,type=HCHR_GRP00,param=chr_Nina:face:fu:$FACE_FadeTime:0:0:0:0:0:0:0,#
*,type=HCHR_POS00,param=chr_Nina:IN$right$160:T$1:$OFS_Center:Z$12:0:0:0:0:0:0,#
*,type=WAIT_0000,param=1.5:0:0:0:0:0:0:0:0:0:0,#
*,type=HCHR_FDM00,param=chr_Nina:MSK$on:2:0:0:0:0:0:0:0:0,#
*,type=PICT_0000,param=bg_02:battle_bg_sq_007_01.jpg:2:0:0:0:0:0:0:0:0,#
*,type=PICT_0001,param=bg_02:-156:0:2:0:0:0:0:0:0:0,#
*,type=WAIT_0000,param=1.5:0:0:0:0:0:0:0:0:0:0,#
*,type=MSKS_0001,param=bgTalkMask1:-260:648:1160:120:0&0&0:128:Z$40:T$0.5:0:0,#
*,type=WAIT_0000,param=0.8:0:0:0:0:0:0:0:0:0:0,#
*,type=HCHR_TK00,msg=わたしはわたしを知りたい。,param=chr_Nina:$NW2_00021:0:0:focusoff:0:0:0:0:0:0,#
*,type=HCHR_TK01,param=all:skipmask:0:0:0:0:0:0:0:0:0,#
*,type=STOP,param=0:0:0:0:0:0:0:0:0:0:0,#
*,type=PICT_0000,param=bg_03:battle_bg_001_04.jpg:3:0:0:0:0:0:0:0:0,#
*,type=PICT_0001,param=bg_03:-156:0:2:0:0:0:0:0:0:0,#
*,type=HCHR_TK00,msg=それを探るためなら、<wait=1>わたしは<wait=1><br>いくらだって彷徨いつづける。,param=chr_Nina:$NW2_00021:0:0:focusoff:0:0:0:0:0:0,#
*,type=HCHR_TK01,param=all:skipmask:0:0:0:0:0:0:0:0:0,#
*,type=STOP,param=0:0:0:0:0:0:0:0:0:0:0,#
*,type=PICT_0004,param=bg_01:0:0:0:0:0:0:0:0:0:0,#
*,type=PICT_0004,param=bg_02:0:0:0:0:0:0:0:0:0:0,#
*,type=PICT_0000,param=bg_04:battle_bg_001_01.jpg:1:bg$1010101:0:0:0:0:0:0:0,#
*,type=PICT_0003,param=bg_03:2:0:0:0:0:0:0:0:0:0,#
*,type=HCHR_TK00,msg=だから、<wait=1>ちょっとぐらい<br>より道してもだいじょうぶ。,param=chr_Nina:$NW2_00021:0:0:focusoff:0:0:0:0:0:0,#
*,type=HCHR_TK01,param=all:skipmask:0:0:0:0:0:0:0:0:0,#
*,type=STOP,param=0:0:0:0:0:0:0:0:0:0:0,#
*,type=MSKS_0002,param=bgBlackMask:T$0.5:0:0:0:0:0:0:0:0:0,#
*,type=MSKS_0002,param=bgTalkMask1:T$0.5:0:0:0:0:0:0:0:0:0,#
*,type=WAIT_0000,param=0.5:0:0:0:0:0:0:0:0:0:0,#
*,type=HCHR_GRP00,param=chr_Nina:face:emi:1:0:0:0:0:0:0:0,#
*,type=HCHR_FDM00,param=chr_Nina:MSK$off:1:0:0:0:0:0:0:0:0,#
*,type=WAIT_0000,param=1.5:0:0:0:0:0:0:0:0:0:0,#
*,type=HCHR_TK10,msg=<speed=9>ありがとね。,param=chr_Nina:Center:BASIC:0:0:0:0:0:0:OFS$0&110:0,#
*,type=HCHR_TK01,param=all:0:0:0:0:0:0:0:0:0:0,#
*,type=FADEOUT_000,param=1.5:$BGBLACK_Color:0:0:0:0:0:0:0:0:0,#
*,type=WAIT_0000,param=2.8:0:0:0:0:0:0:0:0:0:0,#
*,type=PICT_0004,param=bg_03:0:0:0:0:0:0:0:0:0:0,#
*,type=PICT_0004,param=bg_04:0:0:0:0:0:0:0:0:0:0,#
*,type=HCHR_ENT01,param=chr_Nina:T$0:0:0:0:0:0:0:0:0:0,#
*,type=HCHR_ENT01,param=chr_Mob_Researcher:T$0:0:0:0:0:0:0:0:0:0,#
*,type=PICT_0000,param=bg_end:battle_bg_sq_007_01.jpg:1:bg$202060101:0:0:0:0:0:0:0,#
*,type=MSKS_0000,param=bgTxtMask:0&0&0:128:Z$50:T$0:0:0:0:0:0:0,#
*,type=FADEIN_000,param=1.5:$BGBLACK_Color:0:0:0:0:0:0:0:0:0,#
*,type=WAIT_0000,param=2.3:0:0:0:0:0:0:0:0:0:0,#
*,type=FMSG_0000,msg=<speed=12>研究機関は脱走した実験体を<wait=1>,param=chr_narration1:$NW2_00007:nowait:0:focusoff:0:0:0:0:0:0,#
*,type=CSYN_0001,param=0:0:0:0:0:0:0:0:0:0:0,#
*,type=FMSG_0000,msg=<speed=12>捕えることができなかった。<wait=6>,param=chr_narration2:$NW2_00008:nowait:0:focusoff:0:0:0:0:0:0,#
*,type=CSYN_0001,param=0:0:0:0:0:0:0:0:0:0:0,#
*,type=FMSG_0000,msg=<speed=12>捜索は続けられたが、<wait=2>,param=chr_narration3:$NW2_00011:nowait:0:focusoff:0:0:0:0:0:0,#
*,type=CSYN_0001,param=0:0:0:0:0:0:0:0:0:0:0,#
*,type=FMSG_0000,msg=<speed=12>さる確かな情報筋から一報が入る。<wait=6>,param=chr_narration4:$NW2_00012:nowait:0:focusoff:0:0:0:0:0:0,#
*,type=CSYN_0001,param=0:0:0:0:0:0:0:0:0:0:0,#
*,type=FMSG_0000,msg=<speed=12>実験体は死亡した、と。<wait=6>,param=chr_narration5:$NW2_00015:nowait:0:focusoff:0:0:0:0:0:0,#
*,type=CSYN_0001,param=0:0:0:0:0:0:0:0:0:0:0,#
*,type=FMSG_0000,msg=<speed=12>研究は完成することなく中止となったが、<wait=2>,param=chr_narration6:$NW2_00018:nowait:0:focusoff:0:0:0:0:0:0,#
*,type=CSYN_0001,param=0:0:0:0:0:0:0:0:0:0:0,#
*,type=FMSG_0000,msg=<speed=12>その成果は後世、活用されることになる。<wait=6>,param=chr_narration7:$NW2_00019:nowait:0:focusoff:0:0:0:0:0:0,#
*,type=CSYN_0001,param=0:0:0:0:0:0:0:0:0:0:0,#
*,type=FMSG_0000,msg=<speed=12>以来、エルガイア各地において、<wait=2>,param=chr_narration8:$NW2_00022:nowait:0:focusoff:0:0:0:0:0:0,#
*,type=CSYN_0001,param=0:0:0:0:0:0:0:0:0:0:0,#
*,type=FMSG_0000,msg=<speed=12>子供たちが不思議な友達と遊ぶ光景が<wait=1>,param=chr_narration9:$NW2_00023:nowait:0:focusoff:0:0:0:0:0:0,#
*,type=CSYN_0001,param=0:0:0:0:0:0:0:0:0:0:0,#
*,type=FMSG_0000,msg=<speed=12>度々目撃されたという。,param=chr_narration10:$NW2_00024:0:0:focusoff:0:0:0:0:0:0,#
*,type=FADEOUT_000,param=1.5:$BGBLACK_Color:0:0:0:0:0:0:0:0:0,#
*,type=STOP,param=0:0:0:0:0:0:0:0:0:0:0,#
*,type=PICT_0004,param=bg_end:0:0:0:0:0:0:0:0:0:0,#
*,type=MSKS_0000,param=bgBlackMaskEnd3:$BGBLACK_Color:0:Z$50:T$0:0:0:0:0:0:0,#
*,type=FMSG_0001,param=all:0:0:0:0:0:0:0:0:0:0,#
*,type=FMSG_0000,msg=<speed=12><anchor=center>to be continued...,param=chr_narrationend:$NW2_00028:0:0:0:0:0:0:0:0:0,#
*,type=FADEOUT_000,param=1.5:$BGBLACK_Color:0:0:0:0:0:0:0:0:0,#
*,type=BGM_0001,param=1.5:0:0:0:0:0:0:0:0:0:0,#
*,type=WAIT_0000,param=2:0:0:0:0:0:0:0:0:0:0,#
*,type=FMSG_0001,param=all:0:0:0:0:0:0:0:0:0:0,#
*,type=CLSNE_0000,param=0:0:0:0:0:0:0:0:0:0:0,#
*,type=GAM_CHGSCENE,param=MissionSelectDM:0:202080101:$MSNR_CLEAR:0:0:0:0:0:0:0,#

*,type=SYSED_00,param=0:0:0:0:0:0:0:0:0:0:0,#



