﻿ScriptCmd ver 1.1.1:ストクエスクリプト_002_エルフ_力田調整中.xlsm/story002-07-03/story002-07-03.csv

*,type=SYSST_00,param=0:0:0:0:0:0:0:0:0:0:0,#
*,type=CMD_STOP,param=0:0:0:0:0:0:0:0:0:0:0,#
*,type=SYSST_01,param=0:0:0:0:0:0:0:0:0:0:0,#


*,type=SETENV_0000,param=SET$EXLAYER:0:0:0:0:0:0:0:0:0:0,#
*,type=PICT_0000,param=bg1:battle_bg_sq_002_03.jpg:1:bg$202020103:0:0:0:2:0:0:0,#
*,type=PICT_0000,param=filter_dream:event_filter_dream.png:100:bg:0:2:FIX:0:0:0:0,#
*,type=PICT_0001,param=filter_dream:0:0:0:0:0:0:0:0:0:0,#
*,type=BGM_0000,param=1012:0:0:0:0:0:0:0:0:0:0,#
*,type=FADEIN_000,param=1.5:00&00&00:0:0:0:0:0:0:0:0:0,#
*,type=WAIT_0000,param=2.5:0:0:0:0:0:0:0:0:0:0,#
*,type=HCHR_ENT00,param=chr_Leffina:レフィーナ:N$chara_bf2_60:$POS_Center:TYPE$middle:Z$10:0:0:0:0:0,#
*,type=HCHR_ENT00,param=chr_Greyf:グレイフ:N$chara_bf2_62:$POS_Center:TYPE$middle:Z$10:0:0:0:0:0,#
*,type=HCHR_ENT00,param=chr_monster:魔獣:N$chara_bf2_67:$POS_Center:TYPE$middle:Z$10:0:0:0:0:0,#
*,type=STOP,param=0:0:0:0:0:0:0:0:0:0:0,#
*,type=SE_0000,param=345:0:0:0:0:0:0:0:0:0:0,#
*,type=SE_0000,param=345:0.4:0:0:0:0:0:0:0:0:0,#
*,type=SE_0000,param=345:0.8:0:0:0:0:0:0:0:0:0,#
*,type=HCHR_GRP00,param=chr_Leffina:face:ai:T$0:0:0:0:0:0:0:0,#
*,type=HCHR_FDM00,param=chr_Leffina:MSK$on:0:0:0:0:0:0:0:0:0,#
*,type=HCHR_POS00,param=chr_Leffina:FADEIN:T$0.4:$OFS_Center:0:0:0:0:0:0:0,#
*,type=HCHR_FDM00,param=chr_Leffina:ALP$160:0.4:0:0:0:0:0:0:0:0,#
*,type=WAIT_0000,param=0.8:0:0:0:0:0:0:0:0:0:0,#
*,type=HCHR_TK00,msg=<speed=9>ハァ……<wait=3>ハァ……,param=chr_Leffina:$Center8:nowait:0:focusoff:0:0:0:0:0:0,#
*,type=HCHR_FDM00,param=chr_Leffina:MSK$off:1.5:0:0:0:0:0:0:0:0,#
*,type=CSYN_0002,param=0:0:0:0:0:0:0:0:0:0:0,#
*,type=STOP,param=0:0:0:0:0:0:0:0:0:0:0,#
*,type=HCHR_TK01,param=all:0:0:0:0:0:0:0:0:0:0,#
*,type=HCHR_POS00,param=chr_Leffina:FADEOUT:T$0.2:0:0:0:0:0:0:0:0,#
*,type=MSKS_0000,param=bgmask:0&0&0:128:Z$50:T$0.2:0:0:0:0:0:0,#
*,type=STOP,param=0:0:0:0:0:0:0:0:0:0:0,#
*,type=FMSG_0000,msg=ねぇ見て。,param=chr_young:L$NOWINDOW2&mid:0:0:0:0:0:name$レフィーナ:0:0:0,#
*,type=FMSG_0000,msg=この花、<wait=1.5>綺麗でしょ？<wait=3><br>あなたにあげるわ。,param=chr_young:L$NOWINDOW2&mid:0:0:0:0:0:name$レフィーナ:0:0:0,#
*,type=FMSG_0000,msg=<wait=9>……<wait=3></speed>花は嫌いだ。,param=chr_young:L$NOWINDOW2&mid:0:0:0:0:0:name$グレイフ:0:0:0,#
*,type=FMSG_0000,msg=どうして？<wait=7>,param=chr_young:$NW2_00014:nowait:0:0:0:0:name$レフィーナ:0:0:0,#
*,type=CSYN_0001,param=0:0:0:0:0:0:0:0:0:0:0,#
*,type=FMSG_0000,msg=<speed=7>あ…………,param=chr_young:$NW2_00016:nowait:0:0:0:0:name$レフィーナ:0:0:0,#
*,type=EFFECT_GP,param=60010017:320:568:0:0:70:0:0:0:0:0,#
*,type=SE_0000,param=211:0:0:0:0:0:0:0:0:0:0,#
*,type=SE_0000,param=213:0:0:0:0:0:0:0:0:0:0,#
*,type=CSYN_0002,param=0:0:0:0:0:0:0:0:0:0:0,#
*,type=FMSG_0000,msg=俺が触れれば<wait=1.5><br>花なんかすぐに枯れる。,param=chr_young:L$NOWINDOW2&mid:0:0:0:0:0:name$グレイフ:0:0:0,#
*,type=FMSG_0001,param=all:0:0:0:0:0:0:0:0:0:0,#
*,type=STOP,param=0:0:0:0:0:0:0:0:0:0:0,#
*,type=PICT_0000,param=item:event_item_010.png:60:chr:0:1:0:0:0:0:0,#
*,type=PICT_0001,param=item:156:334:0.3:0:0:0:0:0:0:0,#
*,type=WAIT_0000,param=1.3:0:0:0:0:0:0:0:0:0:0,#
*,type=STOP,param=0:0:0:0:0:0:0:0:0:0:0,#
*,type=PICT_0003,param=item:0.3:0:0:0:0:0:0:0:0:0,#
*,type=WAIT_0000,param=0.5:0:0:0:0:0:0:0:0:0:0,#
*,type=FMSG_0000,msg=枯れた花なんて、醜いだろ。,param=chr_young:L$NOWINDOW2&mid:0:0:0:0:0:name$グレイフ:0:0:0,#
*,type=FMSG_0000,msg=<speed=7>………………,param=chr_young:L$NOWINDOW2&mid:0:0:0:0:0:name$レフィーナ:0:0:0,#
*,type=BGM_0001,param=1:0:0:0:0:0:0:0:0:0:0,#
*,type=FMSG_0000,msg=<speed=7>……そんな──,param=chr_young:L$NOWINDOW2&mid:0:0:0:0:0:name$レフィーナ:0:0:0,#
*,type=FMSG_0001,param=all:0:0:0:0:0:0:0:0:0:0,#
*,type=MSKS_0000,param=monster_mask:83&53&99:128:Z$50:T$0.2:0:0:0:0:0:0,#
*,type=WAIT_0000,param=0.2:0:0:0:0:0:0:0:0:0:0,#
*,type=SE_0000,param=316:0:0:0:0:0:0:0:0:0:0,#
*,type=QUAK_0000,param=0.04:15:0:15:0:NoMoveX:0:0:0:0:0,#
*,type=WAIT_0000,param=1.8:0:0:0:0:0:0:0:0:0:0,#
*,type=MSKS_0002,param=monster_mask:T$0.2:0:0:0:0:0:0:0:0:0,#
*,type=WAIT_0000,param=0.2:0:0:0:0:0:0:0:0:0:0,#
*,type=BGM_0000,param=32:0:0:0:0:0:0:0:0:0:0,#
*,type=FMSG_0000,msg=え……,param=chr_young:L$NOWINDOW2&mid:0:0:0:0:0:name$レフィーナ:0:0:0,#
*,type=FMSG_0000,msg=<speed=2.4>レフィーナ!!!!,param=chr_young:L$NOWINDOW2&mid:0:0:0:0:0:name$グレイフ:0:0:0,#
*,type=FMSG_0001,param=all:0:0:0:0:0:0:0:0:0:0,#
*,type=EFFECT_GP,param=60010017:320:568:0:0:70:0:0:0:0:0,#
*,type=SE_0000,param=211:0:0:0:0:0:0:0:0:0:0,#
*,type=WAIT_0000,param=0.8:0:0:0:0:0:0:0:0:0:0,#
*,type=MSKS_0002,param=bgmask:T$0.2:0:0:0:0:0:0:0:0:0,#
*,type=HCHR_GRP00,param=chr_Leffina:face:bi:T$0:0:0:0:0:0:0:0,#
*,type=HCHR_POS00,param=chr_Leffina:FADEIN:T$0.2:0:0:0:0:0:0:0:0,#
*,type=HCHR_FDM00,param=chr_Leffina:ALP$160:0.2:0:0:0:0:0:0:0:0,#
*,type=HCHR_TK00,msg=ダメッ……──,param=chr_Leffina:$Center8:0:0:0:0:0:0:0:0:0,#
*,type=HCHR_TK01,param=all:0:0:0:0:0:0:0:0:0:0,#
*,type=HCHR_POS00,param=chr_Leffina:FADEOUT:T0.2:0:0:0:0:0:0:0:0,#
*,type=MSKS_0000,param=bgmask2:0&0&0:128:Z$50:T$0.2:0:0:0:0:0:0,#
*,type=WAIT_0000,param=0.2:0:0:0:0:0:0:0:0:0:0,#
*,type=EFFECT_GP,param=60010017:320:568:0:0:70:0:0:0:0:0,#
*,type=QUAK_0000,param=0.04:20:15:15:0:0:0:0:0:0:0,#
*,type=SE_0000,param=216:0:0:0:0:0:0:0:0:0:0,#
*,type=SE_0000,param=226:0:0:0:0:0:0:0:0:0:0,#
*,type=SE_0000,param=337:0:0:0:0:0:0:0:0:0:0,#
*,type=WAIT_0000,param=0.8:0:0:0:0:0:0:0:0:0:0,#
*,type=QUAK_0000,param=0.04:20:5:5:0:0:0:0:0:0:0,#
*,type=MSKS_0000,param=bgDarkMask:180&150&255:160:Z$5:T$1.5:0:0:0:0:0:0,#
*,type=WAIT_0000,param=1.7:0:0:0:0:0:0:0:0:0:0,#
*,type=MSKS_0002,param=bgmask2:T$0.2:0:0:0:0:0:0:0:0:0,#
*,type=HCHR_GRP00,param=chr_Leffina:face:ai:T$0:0:0:0:0:0:0:0,#
*,type=HCHR_POS00,param=chr_Leffina:FADEIN:T$0.2:0:0:0:0:0:0:0:0,#
*,type=HCHR_FDM00,param=chr_Leffina:ALP$160:0.2:0:0:0:0:0:0:0:0,#
*,type=STOP,param=0:0:0:0:0:0:0:0:0:0:0,#
*,type=HCHR_TK00,msg=<speed=9>あぁ……<wait=3>そんな……,param=chr_Leffina:$Center10:0:0:0:0:0:0:0:0:0,#
*,type=HCHR_TK01,param=all:0:0:0:0:0:0:0:0:0:0,#
*,type=SPKG_0000,param=eff_dream_start:sc_dream_in.vfxb:50:300:420:1:0:0:0:0:0,#
*,type=WAIT_0000,param=4:0:0:0:0:0:0:0:0:0:0,#
*,type=BGM_0001,param=2:0:0:0:0:0:0:0:0:0:0,#
*,type=HCHR_GRP00,param=chr_Leffina:face:mu:T$0.0:0:0:0:0:0:0:0,#
*,type=HCHR_FDM00,param=chr_Leffina:MSK$on:0:0:0:0:0:0:0:0:0,#
*,type=HCHR_FDM00,param=chr_Leffina:ALP$255:0:0:0:0:0:0:0:0:0,#
*,type=MSKS_0002,param=bgDarkMask:T$0:0:0:0:0:0:0:0:0:0,#
*,type=PICT_0004,param=bg_dream:0:0:0:0:0:0:0:0:0:0,#
*,type=PICT_0004,param=filter_dream:0:0:0:0:0:0:0:0:0:0,#
*,type=PICT_0000,param=bg2:event_bg_sq_002_01.jpg:1:bg$202020105:0:0:0:0:0:0:0,#
*,type=PICT_0001,param=bg2:0:0:0:0:0:0:0:0:0:0,#
*,type=STOP,param=0:0:0:0:0:0:0:0:0:0:0,#
*,type=PICT_0004,param=bg1:0:0:0:0:0:0:0:0:0:0,#
*,type=STOP,param=0:0:0:0:0:0:0:0:0:0:0,#
*,type=SPKG_0000,param=eff_dream_end:sc_dream_out.vfxb:50:300:420:1:0:0:0:0:0,#
*,type=WAIT_0000,param=5:0:0:0:0:0:0:0:0:0:0,#
*,type=STOP,param=0:0:0:0:0:0:0:0:0:0:0,#
*,type=HCHR_TK00,msg=<speed=9>ん……,param=chr_Leffina:$Center4:0:0:focusoff:0:0:0:0:0:0,#
*,type=HCHR_TK00,msg=<speed=7>今のは……<wait=3>夢……？,param=chr_Leffina:$Center10:nowait:0:focusoff:0:0:0:0:0:0,#
*,type=HCHR_FDM00,param=chr_Leffina:MSK$off:2:0:0:0:0:0:0:0:0,#
*,type=CSYN_0002,param=0:0:0:0:0:0:0:0:0:0:0,#
*,type=STOP,param=0:0:0:0:0:0:0:0:0:0:0,#
*,type=HCHR_TK01,param=all:0:0:0:0:0:0:0:0:0:0,#
*,type=HCHR_EFC00,param=Eff_Manp_11:chr_Leffina:manpu_1:0:SS5$$MANP_silence_a:0:1:0:0:0:0,#
*,type=WAIT_0000,param=1.5:0:0:0:0:0:0:0:0:0:0,#
*,type=PICT_0004,param=Eff_Manp_11:0:0:0:0:0:0:0:0:0:0,#
*,type=BGM_0000,param=56:0:0:0:0:0:0:0:0:0:0,#
*,type=HCHR_TK00,msg=あの時私は魔獣に襲われて<br>気を失ってしまった。,param=chr_Leffina:$Mono_L_C:0:0:0:0:0:0:0:0:0,#
*,type=HCHR_TK00,msg=気付いた時には、<wait=1.5>グレイフは大規模に森を<br>腐敗させた罪で追放されてしまっていた。,param=chr_Leffina:$Mono_LL_C:0:0:0:0:0:0:0:0:0,#
*,type=HCHR_GRP00,param=chr_Leffina:face:ai:T$0:0:0:0:0:0:0:0,#
*,type=HCHR_TK00,msg=<speed=7>私のせいで…………,param=chr_Leffina:$Center10:0:0:0:0:0:0:0:0:0,#
*,type=HCHR_TK00,msg=もしもあなたがもう一度帰って来たなら<br>その時までにもっと,param=chr_Leffina:$Mono_LL_C:0:0:0:0:0:0:0:0:0,#
*,type=HCHR_TK00,msg=エルフ族が、<wait=1.5>自分たちと違う者を差別する<br>ことのないようにしたいと思っていたのに,param=chr_Leffina:$Mono_LL_C:0:0:0:0:0:0:0:0:0,#
*,type=HCHR_TK00,msg=<speed=7>まだ……<wait=1.5>私は何も変えられていない……<wait=3><br>何も…………,param=chr_Leffina:$Center18:0:0:0:0:0:0:0:0:0,#
*,type=HCHR_TK01,param=all:skipmask:0:0:0:0:0:0:0:0:0,#
*,type=FADEOUT_000,param=0.2:$BGWHITE_Color:0:0:0:0:0:0:0:0:0,#
*,type=STOP,param=0:0:0:0:0:0:0:0:0:0:0,#
*,type=HCHR_POS00,param=chr_Leffina:FADEOUT:T$0:0:0:0:0:0:0:0:0,#
*,type=MSKS_0000,param=bgBlackMask:$BGBLACK_Color:0:Z$1:0:0:0:0:0:0:0,#
*,type=HCHR_FDM00,param=chr_Greyf:MSK$off:T$0:0:0:0:0:0:0:0:0,#
*,type=HCHR_POS00,param=chr_Greyf:FADEIN:$CHARA_FadeTime:$OFS_Center:0:0:0:0:0:0:0,#
*,type=PICT_0000,param=filter_kaisou:event_filter_flashback.png:100:bg:0:2:0:0:0:0:0,#
*,type=PICT_0001,param=filter_kaisou:0:0:0:0:0:0:0:0:0:0,#
*,type=FADEIN_000,param=0.5:$BGWHITE_Color:0:0:0:0:0:0:0:0:0,#
*,type=STOP,param=0:0:0:0:0:0:0:0:0:0:0,#
*,type=HCHR_TK00,msg=兵士を襲った獣人族の娘は<wait=1.5><br>薬草をもらいに来ただけだと言っていた。,param=chr_Greyf:$Center20:0:0:0:0:0:0:0:0:0,#
*,type=HCHR_TK01,param=all:0:0:0:0:0:0:0:0:0:0,#
*,type=FADEOUT_000,param=0.2:$BGWHITE_Color:0:0:0:0:0:0:0:0:0,#
*,type=STOP,param=0:0:0:0:0:0:0:0:0:0:0,#
*,type=HCHR_POS00,param=chr_Greyf:FADEOUT:T$0:0:0:0:0:0:0:0:0,#
*,type=MSKS_0002,param=bgBlackMask:T$0:0:0:0:0:0:0:0:0:0,#
*,type=PICT_0004,param=filter_kaisou:0:0:0:0:0:0:0:0:0:0,#
*,type=HCHR_GRP00,param=chr_Leffina:face:mj:T$0:0:0:0:0:0:0:0,#
*,type=HCHR_POS00,param=chr_Leffina:FADEIN:T$0:$OFS_Center:0:0:0:0:0:0:0,#
*,type=FADEIN_000,param=0.5:$BGWHITE_Color:0:0:0:0:0:0:0:0:0,#
*,type=WAIT_0000,param=1:0:0:0:0:0:0:0:0:0:0,#
*,type=HCHR_TK00,msg=……いえ……<br>まだ諦めてはいけませんね……,param=chr_Leffina:$Center14:0:0:0:0:0:0:0:0:0,#
*,type=HCHR_GRP00,param=chr_Leffina:face:do:T$0.0:0:0:0:0:0:0:0,#
*,type=HCHR_TK00,msg=私は女王として<wait=1.5><br>私にできることをする……,param=chr_Leffina:$Center12:0:0:0:0:0:0:0:0:0,#
*,type=HCHR_TK00,msg=そのために私は<br>女王になったのだから……！,param=chr_Leffina:$Center14:0:0:0:0:0:0:0:0:0,#
*,type=HCHR_TK01,param=all:skipmask:0:0:0:0:0:0:0:0:0,#
*,type=WAIT_0000,param=0.5:0:0:0:0:0:0:0:0:0:0,#
*,type=FADEOUT_000,param=1.5:$BGBLACK_Color:0:0:0:0:0:0:0:0:0,#
*,type=BGM_0001,param=1.5:0:0:0:0:0:0:0:0:0:0,#
*,type=WAIT_0000,param=2:0:0:0:0:0:0:0:0:0:0,#
*,type=CLSNE_0000,param=0:0:0:0:0:0:0:0:0:0:0,#

*,type=SYSED_00,param=0:0:0:0:0:0:0:0:0:0:0,#



