﻿ScriptCmd ver 1.1.1(app1.0.4):ストクエスクリプト_013_勇者一家_story.xlsm/story013-06-01_puzzle/story013-06-01_puzzle.csv

*,type=SYSST_00,param=0:0:0:0:0:0:0:0:0:0:0,#
*,type=CMD_STOP,param=0:0:0:0:0:0:0:0:0:0:0,#
*,type=SYSST_01,param=0:0:0:0:0:0:0:0:0:0:0,#


*,type=MENUCTL_0000,param=skip$off:restart$off:0:0:0:0:0:0:0:0:0,#
*,type=PICT_0000,param=bg_01:battle_bg_sq_011_02_2.jpg:1:bg$203110106:0:0:0:2:0:0:0,#
*,type=BGM_0000,param=1018:0:0:0:0:0:0:0:0:0:0,#
*,type=FADEIN_000,param=1.5:00&00&00:0:0:0:0:0:0:0:0:0,#
*,type=WAIT_0000,param=2.5:0:0:0:0:0:0:0:0:0:0,#
*,type=HCHR_ENT00,param=chr_Gaitu:ガイツ:N$chara_bf2_158:$POS_Center:TYPE$middle:Z$10:0:0:0:0:0,#
*,type=HCHR_ENT00,param=chr_Ortiz:オルティス:N$chara_bf2_159:$POS_Center:TYPE$middle:Z$10:0:0:0:0:0,#
*,type=HCHR_ENT00,param=chr_Riche:リーチェ:N$chara_bf2_163:$POS_Center:TYPE$middle:Z$10:0:0:0:0:0,#
*,type=HCHR_ENT00,param=chr_Renshia:レンシア:N$chara_bf2_160:$POS_Center:TYPE$middle:Z$10:0:0:0:0:0,#
*,type=HCHR_ENT00,param=chr_Plus:プルス:N$chara_bf2_165:$POS_Center:TYPE$middle:Z$10:0:0:0:0:0,#
*,type=HCHR_ENT00,param=chr_Plum:プルム:N$chara_bf2_164:$POS_Center:TYPE$middle:Z$10:0:0:0:0:0,#
*,type=STOP,param=0:0:0:0:0:0:0:0:0:0:0,#
*,type=SE_0001,param=0:345:0:0.8:2:0:0:0:0:0:0,#
*,type=WAIT_0000,param=1.6:0:0:0:0:0:0:0:0:0:0,#
*,type=HCHR_GRP00,param=chr_Renshia:face:ai:0:0:0:0:0:0:0:0,#
*,type=HCHR_POS00,param=chr_Renshia:FADEIN:$CHARA_FadeTime:$OFS_Left:0:0:0:0:0:0:0,#
*,type=STOP,param=0:0:0:0:0:0:0:0:0:0:0,#
*,type=HCHR_TK10,msg=あれ…？<wait=3><br>参ったわね。<wait=3>また壁だわ。,param=chr_Renshia:Left:BASIC:0:0:0:0:0:0:0:0,#
*,type=HCHR_TK01,param=all:0:0:0:0:0:0:0:0:0:0,#
*,type=HCHR_GRP00,param=chr_Riche:face:ai:0:0:0:0:0:0:0:0,#
*,type=HCHR_POS00,param=chr_Riche:FADEIN:$CHARA_FadeTime:$OFS_Right:Z$11:0:0:0:0:0:0,#
*,type=HCHR_FDM00,param=chr_Renshia:MSK$on:0.3:0:0:0:0:0:0:0:0,#
*,type=STOP,param=0:0:0:0:0:0:0:0:0:0:0,#
*,type=HCHR_TK10,msg=おかしいわねぇ。<wait=3><br>地図だとこちらで合ってるのだけど…。,param=chr_Riche:Right:BASIC:0:0:0:0:0:0:0:0,#
*,type=HCHR_TK01,param=all:skipmask:0:0:0:0:0:0:0:0:0,#
*,type=WAIT_0000,param=0.2:0:0:0:0:0:0:0:0:0:0,#
*,type=HCHR_FDM00,param=all:MSK$on:0.1:0:0:0:0:0:0:0:0,#
*,type=FMSG_0000,msg=<speed=3><size=18>お～い！<wait=3>聞こえるか!?,param=chr_voice:$CenterNoTail6:0:0:0:0:0:0:0:0:0,#
*,type=FMSG_0001,param=all:skipmask:0:0:0:0:0:0:0:0:0,#
*,type=HCHR_TK10,msg=ン…？,param=chr_Renshia:Left:BASIC:0:0:0:0:0:0:0:0,#
*,type=HCHR_TK10,msg=あら？<wait=3><br>今、<wait=1>何か聞こえたような…,param=chr_Riche:Right:BASIC:0:0:0:0:0:0:0:0,#
*,type=HCHR_GRP00,param=chr_Ortiz:face:ki:0:0:0:0:0:0:0:0,#
*,type=HCHR_TK10,msg=その声はリーチェだな！<wait=3><br>俺だ、<wait=1>オルティスだ！,param=chr_Ortiz:Center:NOTAIL:0:0:0:0:0:0:0:0,#
*,type=HCHR_GRP00,param=chr_Renshia:face:ki:0:0:0:0:0:0:0:0,#
*,type=HCHR_GRP00,param=chr_Riche:face:bi:0:0:0:0:0:0:0:0,#
*,type=HCHR_TK10,msg=<speed=3>やっぱりそうだわ！<wait=3><ctag=CHRCHG_PT:chr_Riche:face:ki:-><br>あなたなのね！<wait=1>そっちにいるの？,param=chr_Riche:Right:BASIC:0:0:0:0:0:0:0:0,#
*,type=HCHR_TK01,param=all:skipmask:0:0:0:0:0:0:0:0:0,#
*,type=WAIT_0000,param=0.2:0:0:0:0:0:0:0:0:0:0,#
*,type=HCHR_GRP00,param=chr_Ortiz:face:fu:0:0:0:0:0:0:0:0,#
*,type=HCHR_TK10,msg=ああそうだ！<wait=1><br>それよりそっちに……<wait=1><ctag=SE:314><ctag=QUAK:6:6:0.05:2>うわっ,param=chr_Ortiz:Center:NOTAIL:0:0:0:0:0:0:0:0,#
*,type=HCHR_GRP00,param=chr_Ortiz:face:bi:0:0:0:0:0:0:0:0,#
*,type=HCHR_TK10,msg=<speed=3>ちょ、<wait=1>ちょっとお義父さん<br>押さないで下さ…あいたたたっ!!,param=chr_Ortiz:Center:NOTAIL:0:0:0:0:0:0:0:0,#
*,type=HCHR_TK10,msg=リーチェ！<wait=3>すまんが<wait=1><br>この通りここも壁で分断されておった。,param=chr_Gaitu:Center:NOTAIL:0:0:0:0:0:0:0:0,#
*,type=HCHR_TK10,msg=じゃが、<wait=1>隙間に空気が流れておるし<wait=3><br>この通り声も聞こえる。,param=chr_Gaitu:Center:NOTAIL:0:0:0:0:0:0:0:0,#
*,type=HCHR_TK10,msg=おそらくはこの壁も仕掛けの筈じゃ。<wait=3><br>そっちに、<wait=1>何か解除する手立ては無いか？,param=chr_Gaitu:Center:NOTAIL:0:0:0:0:0:0:0:0,#
*,type=HCHR_TK10,msg=あらまぁ大変…<wait=3><br>何かそれらしいものはあるかしら？,param=chr_Riche:Right:BASIC:0:0:0:0:0:0:0:0,#
*,type=HCHR_GRP00,param=chr_Plum:face:bi:0:0:0:0:0:0:0:0,#
*,type=HCHR_TK10,msg=<speed=3>母さん、<wait=1>お姉ちゃん！<wait=3><br>ちょっとこっち来て！,param=chr_Plum:Right:NOTAIL:0:0:0:0:0:0:0:0,#
*,type=HCHR_TK01,param=all:0:0:0:0:0:0:0:0:0:0,#
*,type=HCHR_POS00,param=chr_Riche:FADEOUT:T$0.3:0:0:0:0:0:0:0:0,#
*,type=HCHR_POS00,param=chr_Renshia:FADEOUT:T$0.3:0:0:0:0:0:0:0:0,#
*,type=STOP,param=0:0:0:0:0:0:0:0:0:0:0,#
*,type=HCHR_POS00,param=chr_Plum:FADEIN:$CHARA_FadeTime:0:0:0:0:0:0:0:0,#
*,type=STOP,param=0:0:0:0:0:0:0:0:0:0:0,#
*,type=HCHR_TK10,msg=<speed=3>こっちこっち！,param=chr_Plum:Center:CHILD:0:0:0:0:0:0:0:0,#
*,type=HCHR_TK01,param=all:0:0:0:0:0:0:0:0:0:0,#
*,type=HCHR_POS00,param=chr_Plum:IN$left$160:$CHARA_FadeTime:$OFS_Right:Z$10:0:0:0:0:0:0,#
*,type=WAIT_0000,param=0.5:0:0:0:0:0:0:0:0:0:0,#
*,type=HCHR_GRP00,param=chr_Renshia:face:fu:0:0:0:0:0:0:0:0,#
*,type=HCHR_POS00,param=chr_Renshia:FADEIN:$CHARA_FadeTime:$OFS_Left:Z$11:0:0:0:0:0:0,#
*,type=HCHR_FDM00,param=chr_Plum:MSK$on:0.3:0:0:0:0:0:0:0:0,#
*,type=STOP,param=0:0:0:0:0:0:0:0:0:0:0,#
*,type=HCHR_TK10,msg=いったいどうしたの？,param=chr_Renshia:Left:CHILD:0:0:0:0:0:0:0:0,#
*,type=HCHR_TK01,param=all:skipmask:0:0:0:0:0:0:0:0:0,#
*,type=HCHR_GRP00,param=chr_Renshia:face:bi:0:0:0:0:0:0:0:0,#
*,type=HCHR_EFC00,param=Eff_Manp_20:chr_Renshia:manpu_1:0:SS5$$MANP_surprise_red_d:0:1:0:0:0:0,#
*,type=WAIT_0000,param=0.8:0:0:0:0:0:0:0:0:0:0,#
*,type=PICT_0004,param=Eff_Manp_漫符:0:0:0:0:0:0:0:0:0:0,#
*,type=WAIT_0000,param=0.2:0:0:0:0:0:0:0:0:0:0,#
*,type=HCHR_TK10,msg=これは…<wait=3>何かの紋章かしら。<wait=3><br>バラバラになってるわ。,param=chr_Renshia:Left:CHILD:0:0:0:0:0:0:0:0,#
*,type=HCHR_GRP00,param=chr_Plum:face:fu:0:0:0:0:0:0:0:0,#
*,type=HCHR_TK10,msg=ほら、<wait=1>でも見て！<wait=3><br>この石板動くのよ。,param=chr_Plum:Right:CHILD:0:0:0:0:0:0:0:0,#
*,type=HCHR_TK10,msg=この絵を揃えたら良いんじゃないかなっ？,param=chr_Plum:Right:CHILD:0:0:0:0:0:0:0:0,#
*,type=HCHR_GRP00,param=chr_Renshia:face:fu:0:0:0:0:0:0:0:0,#
*,type=HCHR_TK10,msg=その可能性はありそうね…。<wait=3><br>うーん、<wait=1>と……,param=chr_Renshia:Left:CHILD:0:0:0:0:0:0:0:0,#
*,type=HCHR_TK01,param=all:skipmask:0:0:0:0:0:0:0:0:0,#
*,type=LABEL_0000,param=sq13-06-01-Select:0:0:0:0:0:0:0:0:0:0,#
*,type=SELE_0000,msg=どうしようかしら？,param=4:0:0:0:0:0:0:0:0:0:0,#
*,type=CASE_0000,msg=自分で挑戦する,param=sq13-06-01-A1:0:0:0:0:0:0:0:0:0:0,#
*,type=CASE_0000,msg=母さんに任せる,param=sq13-06-01-A2:0:0:0:0:0:0:0:0:0:0,#
*,type=LABEL_0000,param=sq13-06-01-A1:0:0:0:0:0:0:0:0:0:0,#
*,type=HCHR_GRP00,param=chr_Renshia:face:ki:0:0:0:0:0:0:0:0,#
*,type=HCHR_TK10,msg=よし！<wait=3><br>それじゃ、<wait=1>ちょっとやってみましょ♪,param=chr_Renshia:Left:CHILD:0:0:0:0:0:0:0:0,#
*,type=HCHR_TK01,param=all:skipmask:0:0:0:0:0:0:0:0:0,#
*,type=HCHR_POS00,param=chr_Plum:FADEOUT:$CHARA_FadeTime:0:0:0:0:0:0:0:0,#
*,type=HCHR_POS00,param=chr_Renshia:FADEOUT:$CHARA_FadeTime:0:0:0:0:0:0:0:0,#
*,type=WAIT_0000,param=0.8:0:0:0:0:0:0:0:0:0:0,#
*,type=CALL_MGAME00,param=10:0:0:0:0:0:0:0:0:0:0,#
*,type=RESULT_0000,param=sq13-06-01-CLEAR1:$MINIGAME_CLEAR:0:0:0:0:0:0:0:0:0,#
*,type=RESULT_0000,param=sq13-06-01-GIVEUP:$MINIGAME_GIVEUP:0:0:0:0:0:0:0:0:0,#
*,type=LABEL_0000,param=sq13-06-01-A2:0:0:0:0:0:0:0:0:0:0,#
*,type=SWOPEN_0000,param=12000755:RUNTIME:0:0:0:0:0:0:0:0:0,#
*,type=HCHR_GRP00,param=chr_Renshia:face:fu:0:0:0:0:0:0:0:0,#
*,type=HCHR_TK10,msg=私でも解けそうな感じはするけど…,param=chr_Renshia:Left:CHILD:0:0:0:0:0:0:0:0,#
*,type=HCHR_GRP00,param=chr_Renshia:face:ai:0:0:0:0:0:0:0:0,#
*,type=HCHR_TK10,msg=失敗した時、<wait=1>他に罠があったりすると<wait=1><br>父さんたちが危ないかもしれないわね…,param=chr_Renshia:Left:CHILD:0:0:0:0:0:0:0:0,#
*,type=HCHR_TK01,param=all:skipmask:0:0:0:0:0:0:0:0:0,#
*,type=HCHR_POS00,param=chr_Plum:FADEOUT:T$0.3:0:Z$10:0:0:0:0:0:0,#
*,type=STOP,param=0:0:0:0:0:0:0:0:0:0:0,#
*,type=HCHR_PRM00,param=chr_Renshia:Z$10:0:0:0:0:0:0:0:0:0,#
*,type=HCHR_GRP00,param=chr_Riche:face:fu:0:0:0:0:0:0:0:0,#
*,type=HCHR_POS00,param=chr_Riche:FADEIN:$CHARA_FadeTime:$OFS_Right:Z$11:0:0:0:0:0:0,#
*,type=HCHR_FDM00,param=chr_Renshia:MSK$on:0.3:0:0:0:0:0:0:0:0,#
*,type=HCHR_FDM00,param=chr_Riche:MSK$off:0:0:0:0:0:0:0:0:0,#
*,type=STOP,param=0:0:0:0:0:0:0:0:0:0:0,#
*,type=HCHR_TK10,msg=それじゃあ、<wait=1>ここは母さんの出番ね。<wait=3><br>母さん、<wait=1>これでもパズルは得意なのよ♪,param=chr_Riche:Right:BASIC:0:0:0:0:0:0:0:0,#
*,type=HCHR_TK10,msg=母さん本当？<wait=3><br>パズルが得意だなんて初耳だけど…,param=chr_Renshia:Left:BASIC:0:0:0:0:0:0:0:0,#
*,type=HCHR_GRP00,param=chr_Riche:face:ki:0:0:0:0:0:0:0:0,#
*,type=HCHR_TK10,msg=うふふ、<wait=1>まっかせなさい♪,param=chr_Riche:Right:BASIC:0:0:0:0:0:0:0:0,#
*,type=HCHR_TK01,param=all:skipmask:0:0:0:0:0:0:0:0:0,#
*,type=MSKS_0000,param=bgBlackMask:$BGBLACK_Color:0:Z$50:T$1.5:0:0:0:0:0:0,#
*,type=WAIT_0000,param=2:0:0:0:0:0:0:0:0:0:0,#
*,type=SE_0000,param=310:0:0:0:0:0:0:0:0:0:0,#
*,type=WAIT_0000,param=0.7:0:0:0:0:0:0:0:0:0:0,#
*,type=SE_0000,param=310:0:0:0:0:0:0:0:0:0:0,#
*,type=WAIT_0000,param=0.7:0:0:0:0:0:0:0:0:0:0,#
*,type=SE_0000,param=310:0:0:0:0:0:0:0:0:0:0,#
*,type=WAIT_0000,param=1.5:0:0:0:0:0:0:0:0:0:0,#
*,type=SE_0000,param=370:0:0:0:0:0:0:0:0:0:0,#
*,type=WAIT_0000,param=1.5:0:0:0:0:0:0:0:0:0:0,#
*,type=MSKS_0002,param=bgBlackMask:T$1.5:0:0:0:0:0:0:0:0:0,#
*,type=WAIT_0000,param=2:0:0:0:0:0:0:0:0:0:0,#
*,type=HCHR_GRP00,param=chr_Riche:face:fu:0:0:0:0:0:0:0:0,#
*,type=HCHR_TK10,msg=さあ、<wait=1>これでもういいわ。<wait=3><br>壁は動くかしら…？,param=chr_Riche:Right:BASIC:0:0:0:0:0:0:0:0,#
*,type=HCHR_TK01,param=all:skipmask:0:0:0:0:0:0:0:0:0,#
*,type=HCHR_POS00,param=chr_Riche:FADEOUT:$CHARA_FadeTime:0:0:0:0:0:0:0:0,#
*,type=HCHR_POS00,param=chr_Renshia:FADEOUT:$CHARA_FadeTime:0:0:0:0:0:0:0:0,#
*,type=GOTO_0000,param=sq13-06-01-END:0:0:0:0:0:0:0:0:0:0,#
*,type=LABEL_0000,param=sq13-06-01-CLEAR1:0:0:0:0:0:0:0:0:0:0,#
*,type=SWOPEN_0000,param=12000755:RUNTIME:0:0:0:0:0:0:0:0:0,#
*,type=HCHR_FDM00,param=chr_Plum:MSK$on:0:0:0:0:0:0:0:0:0,#
*,type=HCHR_GRP00,param=chr_Plum:face:fu:0:0:0:0:0:0:0:0,#
*,type=HCHR_GRP00,param=chr_Renshia:face:fu:0:0:0:0:0:0:0:0,#
*,type=HCHR_POS00,param=chr_Plum:FADEIN:$CHARA_FadeTime:$OFS_Right:Z$10:0:0:0:0:0:0,#
*,type=HCHR_POS00,param=chr_Renshia:FADEIN:$CHARA_FadeTime:$OFS_Left:Z$11:0:0:0:0:0:0,#
*,type=STOP,param=0:0:0:0:0:0:0:0:0:0:0,#
*,type=HCHR_TK10,msg=これで最後っと！,param=chr_Renshia:Left:BASIC:0:0:0:0:0:0:0:0,#
*,type=HCHR_GRP00,param=chr_Plum:face:ki:0:0:0:0:0:0:0:0,#
*,type=HCHR_TK10,msg=やった！<wait=3><br>お姉ちゃんすごい！,param=chr_Plum:Right:CHILD:0:0:0:0:0:0:0:0,#
*,type=HCHR_GRP00,param=chr_Renshia:face:ki:0:0:0:0:0:0:0:0,#
*,type=HCHR_TK10,msg=私、<wait=1>意外とこういうの<br>得意かもしれないわね。,param=chr_Renshia:Left:BASIC:0:0:0:0:0:0:0:0,#
*,type=HCHR_GRP00,param=chr_Renshia:face:do:0:0:0:0:0:0:0:0,#
*,type=HCHR_TK10,msg=さてと、<wait=1>後は壁だけど…,param=chr_Renshia:Left:BASIC:0:0:0:0:0:0:0:0,#
*,type=HCHR_TK01,param=all:skipmask:0:0:0:0:0:0:0:0:0,#
*,type=HCHR_POS00,param=chr_Plum:FADEOUT:$CHARA_FadeTime:0:0:0:0:0:0:0:0,#
*,type=HCHR_POS00,param=chr_Renshia:FADEOUT:$CHARA_FadeTime:0:0:0:0:0:0:0:0,#
*,type=GOTO_0000,param=sq13-06-01-END:0:0:0:0:0:0:0:0:0:0,#
*,type=LABEL_0000,param=sq13-06-01-GIVEUP:0:0:0:0:0:0:0:0:0:0,#
*,type=HCHR_FDM00,param=chr_Plum:MSK$on:0:0:0:0:0:0:0:0:0,#
*,type=HCHR_GRP00,param=chr_Plum:face:ai:0:0:0:0:0:0:0:0,#
*,type=HCHR_GRP00,param=chr_Renshia:face:ai:0:0:0:0:0:0:0:0,#
*,type=HCHR_POS00,param=chr_Plum:FADEIN:$CHARA_FadeTime:$OFS_Right:Z$10:0:0:0:0:0:0,#
*,type=HCHR_POS00,param=chr_Renshia:FADEIN:$CHARA_FadeTime:$OFS_Left:Z$11:0:0:0:0:0:0,#
*,type=STOP,param=0:0:0:0:0:0:0:0:0:0:0,#
*,type=HCHR_EFC00,param=Eff_Manp_03:chr_Renshia:manpu_1:0:SS5$$MANP_crumpled_a:0:1:0:0:0:0,#
*,type=HCHR_TK10,msg=う～ん……<wait=3><br>結構難しいわね、<wait=1>これ。,param=chr_Renshia:Left:CHILD:0:0:0:0:0:0:0:0,#
*,type=PICT_0004,param=Eff_Manp_03:0:0:0:0:0:0:0:0:0:0,#
*,type=HCHR_TK10,msg=仕方ないか。<wait=3><br>別ルートから出直してみましょう。,param=chr_Renshia:Left:CHILD:0:0:0:0:0:0:0:0,#
*,type=HCHR_TK01,param=all:skipmask:0:0:0:0:0:0:0:0:0,#
*,type=ENDSCR_0000,param=0:0:0:0:0:0:0:0:0:0:0,#
*,type=LABEL_0000,param=sq13-06-01-END:0:0:0:0:0:0:0:0:0:0,#
*,type=BGM_0001,param=1.5:0:0:0:0:0:0:0:0:0:0,#
*,type=WAIT_0000,param=1.5:0:0:0:0:0:0:0:0:0:0,#
*,type=SE_0000,param=381:0:0:0:0:0:0:0:0:0:0,#
*,type=QUAK_0001,param=3:0.08:0:0:0:0:0:0:0:0:0,#
*,type=PICT_0000,param=bg_02f:battle_bg_sq_011_02_1.jpg:5:0:0:0:0:0:0:0:0,#
*,type=PICT_0001,param=bg_02f:-156:8:2:0:0:0:0:0:0:0,#
*,type=STOP,param=0:0:0:0:0:0:0:0:0:0:0,#
*,type=PICT_0004,param=bg_01:0:0:0:0:0:0:0:0:0:0,#
*,type=PICT_0000,param=bg_02:battle_bg_sq_011_02_1.jpg:1:bg$203110105:0:0:0:2:0:0:0,#
*,type=PICT_0003,param=bg_02f:2:0:0:0:0:0:0:0:0:0,#
*,type=STOP,param=0:0:0:0:0:0:0:0:0:0:0,#
*,type=PICT_0004,param=bg_02f:0:0:0:0:0:0:0:0:0:0,#
*,type=WAIT_0000,param=1:0:0:0:0:0:0:0:0:0:0,#
*,type=QUAK_0002,param=0:0:0:0:0:0:0:0:0:0:0,#
*,type=SE_0000,param=303:0:0:0:0:0:0:0:0:0:0,#
*,type=QUAK_0000,param=0.1:8:5:5:0:0:0:0:0:0:0,#
*,type=WAIT_0000,param=1.2:0:0:0:0:0:0:0:0:0:0,#
*,type=HCHR_FDM00,param=chr_Plus:MSK$off:0.8:0:0:0:0:0:0:0:0,#
*,type=HCHR_GRP00,param=chr_Plus:face:ki:0:0:0:0:0:0:0:0,#
*,type=HCHR_POS00,param=chr_Plus:FADEIN:T$0.8:$OFS_Left:Z$10:0:0:0:0:0:0,#
*,type=WAIT_0000,param=1:0:0:0:0:0:0:0:0:0:0,#
*,type=HCHR_TK10,msg=<speed=3>あっ、<wait=1>プルム！<wait=3><br>お姉ちゃんにお母さんも！,param=chr_Plus:Left:CHILD:0:0:0:0:0:0:0:0,#
*,type=HCHR_TK01,param=all:0:0:0:0:0:0:0:0:0:0,#
*,type=HCHR_FDM00,param=chr_Plum:MSK$on:0.3:0:0:0:0:0:0:0:0,#
*,type=HCHR_GRP00,param=chr_Plum:face:ki:0:0:0:0:0:0:0:0,#
*,type=HCHR_POS00,param=chr_Plum:FADEIN:$CHARA_FadeTime:$OFS_Right:Z$11:0:0:0:0:0:0,#
*,type=HCHR_FDM00,param=chr_Plus:MSK$on:0.3:0:0:0:0:0:0:0:0,#
*,type=STOP,param=0:0:0:0:0:0:0:0:0:0:0,#
*,type=HCHR_TK10,msg=プルス、<wait=1>元気にしてた？<wait=3><br>泣いたりしなかった？,param=chr_Plum:Right:CHILD:0:0:0:0:0:0:0:0,#
*,type=HCHR_GRP00,param=chr_Plus:face:ai:0:0:0:0:0:0:0:0,#
*,type=HCHR_TK10,msg=だ、<wait=1>大丈夫だよぅ…。,param=chr_Plus:Left:CHILD:0:0:0:0:0:0:0:0,#
*,type=HCHR_TK01,param=all:skipmask:0:0:0:0:0:0:0:0:0,#
*,type=HCHR_POS00,param=chr_Plus:FADEOUT:T$0.3:0:0:0:0:0:0:0:0,#
*,type=HCHR_POS00,param=chr_Plum:FADEOUT:T$0.3:0:0:0:0:0:0:0:0,#
*,type=STOP,param=0:0:0:0:0:0:0:0:0:0:0,#
*,type=HCHR_GRP00,param=chr_Riche:face:fu:$FACE_FadeTime:0:0:0:0:0:0:0,#
*,type=HCHR_GRP00,param=chr_Renshia:face:fu:$FACE_FadeTime:0:0:0:0:0:0:0,#
*,type=HCHR_POS00,param=chr_Riche:FADEIN:$CHARA_FadeTime:$OFS_Left:Z$10:0:0:0:0:0:0,#
*,type=HCHR_POS00,param=chr_Renshia:FADEIN:$CHARA_FadeTime:$OFS_Right:Z$11:0:0:0:0:0:0,#
*,type=HCHR_FDM00,param=all:MSK$off:0:0:0:0:0:0:0:0:0,#
*,type=STOP,param=0:0:0:0:0:0:0:0:0:0:0,#
*,type=HCHR_TK10,msg=良かった…<wait=3>私も、<wait=1>みんなの<br>元気そうな顔を見てホッとしたわ。,param=chr_Riche:Left:BASIC:0:0:0:focusoff:0:0:0:0,#
*,type=HCHR_TK01,param=all:0:0:0:0:0:0:0:0:0:0,#
*,type=HCHR_POS00,param=chr_Riche:FADEOUT:T$0.3:0:0:0:0:0:0:0:0,#
*,type=HCHR_POS00,param=chr_Renshia:FADEOUT:T$0.3:0:0:0:0:0:0:0:0,#
*,type=STOP,param=0:0:0:0:0:0:0:0:0:0:0,#
*,type=HCHR_GRP00,param=chr_Ortiz:face:ki:$FACE_FadeTime:0:0:0:0:0:0:0,#
*,type=HCHR_GRP00,param=chr_Gaitu:face:ki:$FACE_FadeTime:0:0:0:0:0:0:0,#
*,type=HCHR_POS00,param=chr_Ortiz:FADEIN:$CHARA_FadeTime:$OFS_Left:Z$11:0:0:0:0:0:0,#
*,type=HCHR_POS00,param=chr_Gaitu:FADEIN:$CHARA_FadeTime:$OFS_Right:Z$10:0:0:0:0:0:0,#
*,type=HCHR_FDM00,param=chr_Gaitu:MSK$on:0:0:0:0:0:0:0:0:0,#
*,type=HCHR_FDM00,param=chr_Ortiz:MSK$off:0:0:0:0:0:0:0:0:0,#
*,type=STOP,param=0:0:0:0:0:0:0:0:0:0:0,#
*,type=HCHR_TK10,msg=いやぁ、<wait=1>ようやく合流できたな。<wait=3><br>みんな無事みたいで安心したよ！,param=chr_Ortiz:Left:BASIC:0:0:0:0:0:0:0:0,#
*,type=HCHR_GRP00,param=chr_Gaitu:face:ai:0:0:0:0:0:0:0:0,#
*,type=HCHR_TK10,msg=それにしても、<wait=1>これも<br>以前は無かった仕掛けじゃな…。,param=chr_Gaitu:Right:BASIC:0:0:0:0:0:0:0:0,#
*,type=HCHR_GRP00,param=chr_Ortiz:face:fu:0:0:0:0:0:0:0:0,#
*,type=HCHR_TK10,msg=やはり、<wait=1>敵も相応の準備で<br>我々を待ち構えているようですね。,param=chr_Ortiz:Left:BASIC:0:0:0:0:0:0:0:0,#
*,type=HCHR_GRP00,param=chr_Gaitu:face:do:0:0:0:0:0:0:0:0,#
*,type=HCHR_TK10,msg=うむ。<wait=3>次はいよいよ第三層じゃ。<wait=3><br>皆、<wait=1>しっかりと気を引き締めるのだ！,param=chr_Gaitu:Right:BASIC:0:0:0:0:0:0:0:0,#
*,type=HCHR_TK01,param=all:skipmask:0:0:0:0:0:0:0:0:0,#
*,type=FADEOUT_000,param=1.5:$BGBLACK_Color:0:0:0:0:0:0:0:0:0,#
*,type=BGM_0001,param=1.5:0:0:0:0:0:0:0:0:0:0,#
*,type=WAIT_0000,param=2:0:0:0:0:0:0:0:0:0:0,#
*,type=GAM_CHGSCENE,param=GimmickResult:0:0:0:0:0:0:0:0:0:0,#

*,type=SYSED_00,param=0:0:0:0:0:0:0:0:0:0:0,#



