﻿ScriptCmd ver 1.1.1(app1.0.4):ストクエスクリプト_016_穢れし五忍編_battle.xlsm/story016-03-05_library/story016-03-05_library.csv

*,type=SYSST_00,param=0:0:0:0:0:0:0:0:0:0:0,#
*,type=CMD_STOP,param=0:0:0:0:0:0:0:0:0:0:0,#
*,type=SYSST_01,param=0:0:0:0:0:0:0:0:0:0:0,#


*,type=EVT_CHKTRG,param=0:0:0:0:0:0:0:0:0:0:0,#
*,type=EVT_BTL_STARTBTL,param=1:0:0:0:0:0:0:0:0:0:0,#
*,type=BTL_PanelMask,param=ON:0:0:0:0:0:0:0:0:0:0,#
*,type=BTL_CMD,param=unit_panel:PPTALL:OFF:0:0:0:0:0:0:0:0,#
*,type=BTL_EnemyHpBarVisible,param=OFF:0:0:0:0:0:0:0:0:0:0,#
*,type=BTL_ReqAction,param=PPTALL:0:MOVETO:1000$DEFAULT$0$MOVE$IDLE:0:0:0:0:0:0:0,#
*,type=BTL_WaitAction,param=1:0:0:0:0:0:0:0:0:0:0,#
*,type=BTL_FADE,param=IN:0:0:0:0:0:0:0:0:0:0,#
*,type=WAIT_0000,param=1.5:0:0:0:0:0:0:0:0:0:0,#
*,type=BTL_STORY,param=START:0:0:SKIPFADE:0:0:0:0:0:0:0,#
*,type=HCHR_ENT00,param=chr_jingetsu:ジンゲツ:N$chara_bf2_1_nothum:$POS_Center:TYPE$middle:Z$10:0:0:0:0:0,#
*,type=HCHR_TK10,msg=実りある問答、<wait=1>善哉。<wait=3><br>手向けに頌を贈ろう。,param=chr_jingetsu:Left:BASIC:0:0:0:0:0:0:0:0,#
*,type=HCHR_TK01,param=all:0:0:0:0:0:0:0:0:0:0,#
*,type=MSKS_0000,param=bgTalkMask:0&0&0:128:Z$50:T$0.3:0:0:0:0:0:0,#
*,type=WAIT_0000,param=0.5:0:0:0:0:0:0:0:0:0:0,#
*,type=FMSG_0000,msg=<speed=9>暗林逢忍<wait=5><br>刃下無言<wait=5><br>僅渉有無<wait=5><br>喪心失魂<wait=5>,param=chr_narration:$NW2_00009:0:0:focusoff:0:0:0:0:0:0,#
*,type=FMSG_0001,param=all:0:0:0:0:0:0:0:0:0:0,#
*,type=MSKS_0002,param=bgTalkMask:T$0.3:0:0:0:0:0:0:0:0:0,#
*,type=WAIT_0000,param=1:0:0:0:0:0:0:0:0:0:0,#
*,type=HCHR_TK10,msg=<speed=7>暗き林に忍に逢うて<wait=1><br>刃の下に言は無し,param=chr_jingetsu:Left:BASIC:0:0:0:0:0:0:0:0,#
*,type=HCHR_TK10,msg=<speed=7>僅かに有無に渉れば<wait=1><br>心を喪い魂を失う。,param=chr_jingetsu:Left:BASIC:0:0:0:0:0:0:0:0,#
*,type=HCHR_TK01,param=all:0:0:0:0:0:0:0:0:0:0,#
*,type=WAIT_0000,param=0.5:0:0:0:0:0:0:0:0:0:0,#
*,type=HCHR_TK10,msg=……<wait=1>惜しい相手であったが<br>これもまた忍の道か。,param=chr_jingetsu:Left:BASIC:0:0:0:0:0:0:0:0,#
*,type=HCHR_TK10,msg=道を外れなければ、<wait=1>そこに道が<br>あることも知れなかったがな……,param=chr_jingetsu:Left:BASIC:0:0:0:0:0:0:0:0,#
*,type=HCHR_TK10,msg=我が身の不明なり。<wait=3><br><speed=7>無明、<wait=1><speed=9>無<wait=1>無<wait=1>無<wait=1>無……,param=chr_jingetsu:Left:BASIC:0:0:0:0:0:0:0:0,#
*,type=HCHR_TK01,param=all:0:0:0:0:0:0:0:0:0:0,#
*,type=WAIT_0000,param=1:0:0:0:0:0:0:0:0:0:0,#
*,type=BTL_STORY,param=END:0:0:SKIPFADE:0:0:0:0:0:0:0,#
*,type=MSKS_0000,param=bgBlackMask:$BGBLACK_Color:0:Z$50:T$0.75:0:0:0:0:0:0,#
*,type=WAIT_0000,param=0.75:0:0:0:0:0:0:0:0:0:0,#
*,type=WAIT_0000,param=0.5:0:0:0:0:0:0:0:0:0:0,#
*,type=BGM_0000,param=1113:1.5:0:0:0:0:0:0:0:0:0,#
*,type=GAM_CHGSCENE,param=MissionSelect:0:0:0:0:0:0:0:0:0:0,#
*,type=BTL_PanelMask,param=OFF:0:0:0:0:0:0:0:0:0:0,#
*,type=EVT_BLOCKEND,param=0:0:0:0:0:0:0:0:0:0:0,#

*,type=SYSED_00,param=0:0:0:0:0:0:0:0:0:0:0,#



