﻿ScriptCmd ver 1.1.1:ストクエスクリプト_005_ミフネ.xlsm/story005-04-01-btlcall_1/story005-04-01-btlcall_1.csv

*,type=SYSST_00,param=0:0:0:0:0:0:0:0:0:0:0,#
*,type=CMD_STOP,param=0:0:0:0:0:0:0:0:0:0:0,#
*,type=SYSST_01,param=0:0:0:0:0:0:0:0:0:0:0,#


*,type=GAM_STARTBTL,param=2000413:HERO:0:0:0:0:0:0:0:0:0,#

*,type=SYSED_00,param=0:0:0:0:0:0:0:0:0:0:0,#



