﻿ScriptCmd ver 1.1.1:ストクエスクリプト_002_エルフ_力田調整中.xlsm/story002-06-02/story002-06-02.csv

*,type=SYSST_00,param=0:0:0:0:0:0:0:0:0:0:0,#
*,type=CMD_STOP,param=0:0:0:0:0:0:0:0:0:0:0,#
*,type=SYSST_01,param=0:0:0:0:0:0:0:0:0:0:0,#


*,type=EVT_CHKTRG,param=0:0:0:0:0:0:0:0:0:0:0,#
*,type=EVT_BTL_STARTBTL,param=1:0:0:0:0:0:0:0:0:0:0,#
*,type=BTL_INSENSITIVE_MONSTER,param=MINDEX$1:0:0:0:0:0:0:0:0:0:0,#
*,type=BTL_PanelMask,param=ON:0:0:0:0:0:0:0:0:0:0,#
*,type=BTL_STORY,param=START:0:0:SKIPFADE:0:0:0:0:0:0:0,#
*,type=STOP,param=0:0:0:0:0:0:0:0:0:0:0,#
*,type=HCHR_ENT00,param=chr_Greyf:グレイフ:N$chara_bf2_62_b:$BTLPOS_Right:TYPE$middle:Z$10:0:0:0:0:0,#
*,type=HCHR_ENT00,param=chr_Ehlsyth:エルシス:N$chara_bf2_61_b:$BTLPOS_Left:TYPE$middle:Z$10:0:0:0:0:0,#
*,type=HCHR_ENT00,param=chr_ElfSoldier:エルフ兵士:N$chara_bf2_67_b:$BTLPOS_Left:TYPE$middle:Z$10:0:0:0:0:0,#
*,type=HCHR_ENT00,param=chr_Leffina:レフィーナ:N$chara_bf2_60_b:$BTLPOS_Left:TYPE$middle:Z$10:0:0:0:0:0,#
*,type=STOP,param=0:0:0:0:0:0:0:0:0:0:0,#
*,type=WAIT_0000,param=0.3:0:0:0:0:0:0:0:0:0:0,#
*,type=HCHR_POS00,param=chr_Greyf:FADEIN:$CHARA_FadeTime:0:0:0:0:0:0:0:0,#
*,type=STOP,param=0:0:0:0:0:0:0:0:0:0:0,#
*,type=HCHR_TK00,msg=……久しぶりだな、<wait=1.5>エルシス。,param=chr_Greyf:$RightBattle14:0:0:0:0:MN$0:0:0:0:0,#
*,type=HCHR_TK01,param=all:0:0:0:0:0:0:0:0:0:0,#
*,type=STOP,param=0:0:0:0:0:0:0:0:0:0:0,#
*,type=HCHR_POS00,param=chr_Greyf:FADEOUT:T$0.15:0:0:0:0:0:0:0:0,#
*,type=STOP,param=0:0:0:0:0:0:0:0:0:0:0,#
*,type=HCHR_GRP00,param=chr_Ehlsyth:face:do:T$0:0:0:0:0:0:0:0,#
*,type=HCHR_POS00,param=chr_Ehlsyth:FADEIN:$CHARA_FadeTime:0:0:0:0:0:0:0:0,#
*,type=STOP,param=0:0:0:0:0:0:0:0:0:0:0,#
*,type=HCHR_TK00,msg=貴様にする挨拶などない。,param=chr_Ehlsyth:$LeftBattle12:0:0:0:0:PY$0:0:0:0:0,#
*,type=HCHR_TK00,msg=かつて大罪を犯し森を追放された<br>身でありながら、<wait=1.5>よく戻ってきたものだ。,param=chr_Ehlsyth:$LeftBattle20:0:0:0:0:PY$0:0:0:0:0,#
*,type=HCHR_TK00,msg=しかも、厳重警戒中に女王に近付くとは……,param=chr_Ehlsyth:$LeftBattle20:0:0:0:0:PY$0:0:0:0:0,#
*,type=HCHR_TK00,msg=お前たち、<wait=1.5>今すぐこいつを捕らえろ!!,param=chr_Ehlsyth:$LeftBattle18:0:0:0:0:PY$0:0:0:0:0,#
*,type=HCHR_TK01,param=all:0:0:0:0:0:0:0:0:0:0,#
*,type=STOP,param=0:0:0:0:0:0:0:0:0:0:0,#
*,type=HCHR_POS00,param=chr_Ehlsyth:FADEOUT:$CHARA_FadeTime:0:0:0:0:0:0:0:0,#
*,type=HCHR_GRP00,param=chr_Leffina:face:ai:T$0:0:0:0:0:0:0:0,#
*,type=HCHR_POS00,param=chr_Leffina:FADEIN:$CHARA_FadeTime:0:0:0:0:0:0:0:0,#
*,type=STOP,param=0:0:0:0:0:0:0:0:0:0:0,#
*,type=HCHR_TK00,msg=エルシス、<wait=1.5>彼は……！,param=chr_Leffina:$LeftBattle10:0:0:0:0:0:0:0:0:0,#
*,type=HCHR_TK01,param=all:0:0:0:0:0:0:0:0:0:0,#
*,type=HCHR_POS00,param=chr_Leffina:FADEOUT:$CHARA_FadeTime:0:0:0:0:0:0:0:0,#
*,type=HCHR_GRP00,param=chr_Ehlsyth:face:do:T$0:0:0:0:0:0:0:0,#
*,type=HCHR_POS00,param=chr_Ehlsyth:FADEIN:$CHARA_FadeTime:0:0:0:0:0:0:0:0,#
*,type=STOP,param=0:0:0:0:0:0:0:0:0:0:0,#
*,type=HCHR_TK00,msg=<speed=3>女王は下がっていてください！,param=chr_Ehlsyth:$LeftBattle14:0:0:0:0:PY$0:0:0:0:0,#
*,type=HCHR_TK00,msg=早く城まで女王をお連れしろ！,param=chr_Ehlsyth:$LeftBattle14:0:0:0:0:PY$0:0:0:0:0,#
*,type=HCHR_TK01,param=all:0:0:0:0:0:0:0:0:0:0,#
*,type=STOP,param=0:0:0:0:0:0:0:0:0:0:0,#
*,type=HCHR_POS00,param=chr_Ehlsyth:FADEOUT:$CHARA_FadeTime:0:0:0:0:0:0:0:0,#
*,type=HCHR_POS00,param=chr_ElfSoldier:FADEIN:$CHARA_FadeTime:0:0:0:0:0:0:0:0,#
*,type=STOP,param=0:0:0:0:0:0:0:0:0:0:0,#
*,type=HCHR_TK00,msg=ハッ!!,param=chr_ElfSoldier:$LeftBattle4:nowait:once:0:0:0:0:0:0:0,#
*,type=SE_0000,param=309:0:0:0:0:0:0:0:0:0:0,#
*,type=CSYN_0002,param=0:0:0:0:0:0:0:0:0:0:0,#
*,type=HCHR_TK01,param=all:0:0:0:0:0:0:0:0:0:0,#
*,type=SE_0000,param=345:0:0:0:0:0:0:0:0:0:0,#
*,type=SE_0000,param=345:0.3:0:0:0:0:0:0:0:0:0,#
*,type=SE_0000,param=345:0.6:0:0:0:0:0:0:0:0:0,#
*,type=HCHR_POS00,param=chr_ElfSoldier:FADEOUT:T$0.6:0:0:0:0:0:0:0:0,#
*,type=STOP,param=0:0:0:0:0:0:0:0:0:0:0,#
*,type=WAIT_0000,param=0.5:0:0:0:0:0:0:0:0:0:0,#
*,type=HCHR_ENT01,param=chr_Greyf:0:0:0:0:0:0:0:0:0:0,#
*,type=HCHR_ENT01,param=chr_Ehlsyth:0:0:0:0:0:0:0:0:0:0,#
*,type=HCHR_ENT01,param=chr_ElfSoldier:0:0:0:0:0:0:0:0:0:0,#
*,type=HCHR_ENT01,param=chr_Leffina:0:0:0:0:0:0:0:0:0:0,#
*,type=BTL_STORY,param=END:0:0:SKIPFADE:0:0:0:0:0:0:0,#
*,type=BTL_PanelMask,param=OFF:0:0:0:0:0:0:0:0:0:0,#
*,type=EVT_BLOCKEND,param=0:0:0:0:0:0:0:0:0:0:0,#
*,type=EVT_BTL_REGULARLY,param=100:0:0:0:0:0:0:0:0:0:0,#
*,type=BTL_ReqAction,param=PPTALL:PPTALL:MOVETO:DEFAULT$DEFAULT$0.4$IDLE$IDLE:0:0:0:0:0:0:0,#
*,type=BTL_WaitAction,param=30:0:0:0:0:0:0:0:0:0:0,#
*,type=STOP,param=0:0:0:0:0:0:0:0:0:0:0,#
*,type=BTL_PanelMask,param=ON:0:0:0:0:0:0:0:0:0:0,#
*,type=MSKS_0000,param=bgBlackMask:$BGBLACK_Color:0:Z$50:T$0.75:0:0:0:0:0:0,#
*,type=WAIT_0000,param=0.75:0:0:0:0:0:0:0:0:0:0,#
*,type=BTL_ChangeParty,param=ON:20058:copy:0:0:0:0:0:0:0:0,#
*,type=WAIT_0000,param=1:0:0:0:0:0:0:0:0:0:0,#
*,type=MSKS_0002,param=bgBlackMask:T$0.75:0:0:0:0:0:0:0:0:0,#
*,type=WAIT_0000,param=1:0:0:0:0:0:0:0:0:0:0,#
*,type=BTL_STORY,param=START:0:0:SKIPFADE:0:0:0:0:0:0:0,#
*,type=HCHR_ENT00,param=chr_Greyf:グレイフ:N$chara_bf2_62_b:$BTLPOS_Right:TYPE$middle:Z$1:0:0:0:0:0,#
*,type=HCHR_ENT00,param=chr_Ehlsyth:エルシス:N$chara_bf2_61_b:$BTLPOS_Left:TYPE$middle:Z$1:0:0:0:0:0,#
*,type=STOP,param=0:0:0:0:0:0:0:0:0:0:0,#
*,type=EFFECT_GP,param=60010015:320:568:0:0:70:0:0:0:0:0,#
*,type=SE_0000,param=300:0:0:0:0:0:0:0:0:0:0,#
*,type=SE_0000,param=228:0:0:0:0:0:0:0:0:0:0,#
*,type=HCHR_GRP00,param=chr_Greyf:face:ku:T$0:0:0:0:0:0:0:0,#
*,type=HCHR_POS00,param=chr_Greyf:FADEIN:$CHARA_FadeTime:0:0:0:0:0:0:0:0,#
*,type=HCHR_SHK00,param=chr_Greyf:3:0.04:0.5:0:0:0:0:0:0:0,#
*,type=WAIT_0000,param=0.3:0:0:0:0:0:0:0:0:0:0,#
*,type=HCHR_TK00,msg=クッ……,param=chr_Greyf:$RightBattle4:0:0:0:0:0:0:0:0:0,#
*,type=HCHR_TK01,param=all:0:0:0:0:0:0:0:0:0:0,#
*,type=HCHR_POS00,param=chr_Greyf:FADEOUT:T$0.15:0:0:0:0:0:0:0:0,#
*,type=STOP,param=0:0:0:0:0:0:0:0:0:0:0,#
*,type=HCHR_GRP00,param=chr_Ehlsyth:face:do:T$0:0:0:0:0:0:0:0,#
*,type=HCHR_POS00,param=chr_Ehlsyth:FADEIN:$CHARA_FadeTime:0:0:0:0:0:0:0:0,#
*,type=STOP,param=0:0:0:0:0:0:0:0:0:0:0,#
*,type=HCHR_TK00,msg=女王に害をなす危険因子は<br>排除する……<wait=3>一つ残らず！,param=chr_Ehlsyth:$LeftBattle12:0:0:0:0:0:0:0:0:0,#
*,type=HCHR_TK01,param=all:0:0:0:0:0:0:0:0:0:0,#
*,type=HCHR_POS00,param=chr_Ehlsyth:FADEOUT:T$0.15:0:0:0:0:0:0:0:0,#
*,type=STOP,param=0:0:0:0:0:0:0:0:0:0:0,#
*,type=HCHR_POS00,param=chr_Greyf:FADEIN:$CHARA_FadeTime:0:0:0:0:0:0:0:0,#
*,type=STOP,param=0:0:0:0:0:0:0:0:0:0:0,#
*,type=HCHR_TK00,msg=本当に<wait=1>レフィーナがそれを<br>望んでいると思うのか……？,param=chr_Greyf:$RightBattle14:0:0:0:0:0:0:0:0:0,#
*,type=HCHR_TK01,param=all:0:0:0:0:0:0:0:0:0:0,#
*,type=HCHR_POS00,param=chr_Greyf:FADEOUT:T$0.15:0:0:0:0:0:0:0:0,#
*,type=STOP,param=0:0:0:0:0:0:0:0:0:0:0,#
*,type=HCHR_POS00,param=chr_Ehlsyth:FADEIN:$CHARA_FadeTime:0:0:0:0:0:0:0:0,#
*,type=STOP,param=0:0:0:0:0:0:0:0:0:0:0,#
*,type=HCHR_TK00,msg=<speed=7>黙れ罪人が……!!,param=chr_Ehlsyth:$LeftBattle8:0:0:0:0:0:0:0:0:0,#
*,type=HCHR_TK01,param=all:0:0:0:0:0:0:0:0:0:0,#
*,type=HCHR_POS00,param=chr_Ehlsyth:FADEOUT:T$0.15:0:0:0:0:0:0:0:0,#
*,type=STOP,param=0:0:0:0:0:0:0:0:0:0:0,#
*,type=HCHR_ENT01,param=chr_Greyf:0:0:0:0:0:0:0:0:0:0,#
*,type=HCHR_ENT01,param=chr_Ehlsyth:0:0:0:0:0:0:0:0:0:0,#
*,type=BTL_STORY,param=END:0:0:SKIPFADE:0:0:0:0:0:0:0,#
*,type=BTL_ENDMISSION,param=$MSNR_CLEAR:0:0:0:0:0:0:0:0:0:0,#
*,type=BTL_PanelMask,param=OFF:0:0:0:0:0:0:0:0:0:0,#
*,type=EVT_BLOCKEND,param=0:0:0:0:0:0:0:0:0:0:0,#

*,type=SYSED_00,param=0:0:0:0:0:0:0:0:0:0:0,#



