﻿ScriptCmd ver 1.1.1(app1.0.4):ストクエスクリプト_021_最強の背を追いかけて_BS5.xlsm/story021-05-02/story021-05-02.csv

*,type=SYSST_00,param=0:0:0:0:0:0:0:0:0:0:0,#
*,type=CMD_STOP,param=0:0:0:0:0:0:0:0:0:0:0,#
*,type=SYSST_01,param=0:0:0:0:0:0:0:0:0:0:0,#


*,type=EVT_CHKTRG,param=0:0:0:0:0:0:0:0:0:0:0,#
*,type=EVT_BTL_STARTBTL,param=1:0:0:0:0:0:0:0:0:0:0,#
*,type=BTL_PanelMask,param=ON:0:0:0:0:0:0:0:0:0:0,#
*,type=SWJUMP_0000,param=ONJUMP:12001054:A:0:0:0:0:0:0:0:0,#
*,type=BTL_CMD,param=unit_panel:PPTALL:OFF:0:0:0:0:0:0:0:0,#
*,type=BTL_EnemyHpBarVisible,param=OFF:0:0:0:0:0:0:0:0:0:0,#
*,type=BTL_ChangeParty,param=ON:21603:5019017:0:0:0:0:0:0:0:0,#
*,type=BTL_WaitAction,param=10:0:0:0:0:0:0:0:0:0:0,#
*,type=BTL_ReqAction,param=PINDEX$0:0:MOVETOFIX:1000$DEFAULT$0$IDLE$IDLE:0:0:0:0:0:0:0,#
*,type=BTL_ReqAction,param=PINDEX$1:0:MOVETOFIX:1000$DEFAULT$0$IDLE$IDLE:0:0:0:0:0:0:0,#
*,type=BTL_WaitAction,param=1:0:0:0:0:0:0:0:0:0:0,#
*,type=BTL_FADE,param=IN:0:0:0:0:0:0:0:0:0:0,#
*,type=WAIT_0000,param=1.5:0:0:0:0:0:0:0:0:0:0,#
*,type=HCHR_ENT00,param=chr_Hans_young:半雛:N$chara_bf2_213_b:$BTLPOS_Left:TYPE$middle:Z$10:0:XFLIP$SET:0:0:0,#
*,type=HCHR_ENT00,param=chr_Lugina_young:ルジーナ:N$chara_bf2_216_b:$BTLPOS_Left:TYPE$middle:Z$10:0:0:0:0:0,#
*,type=HCHR_ENT00,param=chr_Nothum1:レンジ:N$chara_bf2_1_nothum:$POS_Center:TYPE$middle:Z$10:0:0:0:0:0,#
*,type=HCHR_ENT00,param=chr_Nothum2:リュウゴ:N$chara_bf2_1_nothum:$POS_Center:TYPE$middle:Z$10:0:0:0:0:0,#
*,type=HCHR_ENT00,param=chr_Hans_young_S:半雛:N$chara_bf2_213:$POS_Center:TYPE$middle:Z$10&10:0:XFLIP$SET:0:0:0,#
*,type=HCHR_ENT00,param=chr_Lugina_young_S:ルジーナ:N$chara_bf2_216:$POS_Center:TYPE$middle:Z$8&8:0:0:0:0:0,#
*,type=STOP,param=0:0:0:0:0:0:0:0:0:0:0,#
*,type=HCHR_TK00,msg=なんだ、<wait=1>もう終わりか……<wait=3><br>つまらん。,param=chr_Nothum1:$Left12_Triple_RT:0:0:0:0:0:OFS$70&-70:0:0:0,#
*,type=HCHR_TK01,param=all:0:0:0:0:0:0:0:0:0:0,#
*,type=STOP,param=0.3:0:0:0:0:0:0:0:0:0:0,#
*,type=HCHR_TK00,msg=んじゃ、<wait=1>さっさとあの巫女を<br>やっちまうとするか！,param=chr_Nothum2:$Center14_under_LT:0:0:0:0:0:OFS$-70&-420:0:0:0,#
*,type=HCHR_TK00,msg=せっかく自由になれたんだ。<wait=3><br>また封印されちゃたまんねぇぜ。,param=chr_Nothum2:$Center16_under_LT:0:0:0:0:0:OFS$-70&-420:0:0:0,#
*,type=HCHR_TK01,param=all:0:0:0:0:0:0:0:0:0:0,#
*,type=STOP,param=0:0:0:0:0:0:0:0:0:0:0,#
*,type=FADEOUT_000,param=1.5:0&0&0:0:0:0:0:0:0:0:0:0,#
*,type=WAIT_0000,param=2:0:0:0:0:0:0:0:0:0:0,#
*,type=PICT_0000,param=bg_01:battle_bg_sq_019_04.jpg:1:bg$202190104:0:0:0:2:0:0:0,#
*,type=HCHR_FDM00,param=chr_Hans_young_S:MSK$on:0:0:0:0:0:0:0:0:0,#
*,type=HCHR_POS00,param=chr_Hans_young_S:FADEIN:T$0:$OFS_Right:0:0:0:0:0:0:0,#
*,type=HCHR_POS00,param=chr_Lugina_young_S:FADEIN:T$0:$OFS_Left:0:0:0:0:0:0:0,#
*,type=MSKS_0000,param=bgFilterMask:149&86&41:100:Z$5:T$0:0:0:0:0:0:0,#
*,type=FADEIN_000,param=1.5:0&0&0:0:0:0:0:0:0:0:0:0,#
*,type=STOP,param=0:0:0:0:0:0:0:0:0:0:0,#
*,type=HCHR_TK10,msg=５人集まっちまったか……,param=chr_Lugina_young_S:Left:CHILD:0:0:0:0:0:0:0:0,#
*,type=HCHR_GRP00,param=chr_Hans_young_S:face:do:0:0:0:0:0:0:0:0,#
*,type=HCHR_TK10,msg=行かせろ！<wait=3><br>俺がやってやる！,param=chr_Hans_young_S:Right:CHILD:0:0:0:0:0:0:0:0,#
*,type=HCHR_TK10,msg=ありゃお前じゃ無理だ。<wait=3><br>……今はな。,param=chr_Lugina_young_S:Left:CHILD:0:0:0:0:0:0:0:0,#
*,type=HCHR_GRP00,param=chr_Hans_young_S:face:ku:0:0:0:0:0:0:0:0,#
*,type=HCHR_TK10,msg=俺は……<wait=3>俺はッ！<wait=3><br>姉様を守れなかった……,param=chr_Hans_young_S:Right:CHILD:0:0:0:0:0:0:0:0,#
*,type=HCHR_TK10,msg=だけど！<wait=3><br>このまま何もできないなんて、<wait=1>嫌だッ,param=chr_Hans_young_S:Right:CHILD:0:0:0:0:0:0:0:0,#
*,type=HCHR_TK10,msg=姉様に命なんて懸けてほしくない！,param=chr_Hans_young_S:Right:CHILD:0:0:0:0:0:0:0:0,#
*,type=HCHR_TK10,msg=じゃあテメーが代わりに<br>命を投げ出すってか？,param=chr_Lugina_young_S:Left:CHILD:0:0:0:0:0:0:0:0,#
*,type=HCHR_TK10,msg=それで残された姉ちゃんが<br>救われるとでも――,param=chr_Lugina_young_S:Left:CHILD:0:0:0:0:0:0:0:0,#
*,type=HCHR_TK10,msg=違う！,param=chr_Hans_young_S:Right:CHILD:0:0:0:0:0:0:0:0,#
*,type=HCHR_TK10,msg=生きるんだ……<wait=3>姉様も、<wait=1>俺も。<wait=3><br>ずっと一緒に……！,param=chr_Hans_young_S:Right:CHILD:0:0:0:0:0:0:0:0,#
*,type=HCHR_TK10,msg=だからもっと！<wait=3>俺は！<wait=3><br>強くならなくちゃいけないんだ!!,param=chr_Hans_young_S:Right:CHILD:0:0:0:0:0:0:0:0,#
*,type=HCHR_TK01,param=chr_Hans_young_S:skipmask:0:0:0:0:0:0:0:0:0,#
*,type=STOP,param=0:0:0:0:0:0:0:0:0:0:0,#
*,type=WAIT_0000,param=1:0:0:0:0:0:0:0:0:0:0,#
*,type=FADEOUT_000,param=1.5:0&0&0:0:0:0:0:0:0:0:0:0,#
*,type=WAIT_0000,param=2:0:0:0:0:0:0:0:0:0:0,#
*,type=PICT_0004,param=bg_01:0:0:0:0:0:0:0:0:0:0,#
*,type=HCHR_ENT01,param=chr_Lugina_young_S:T$0:0:0:0:0:0:0:0:0:0,#
*,type=HCHR_ENT01,param=chr_Hans_young_S:T$0:0:0:0:0:0:0:0:0:0,#
*,type=MSKS_0002,param=bgFilterMask:T$0:0:0:0:0:0:0:0:0:0,#
*,type=STOP,param=0:0:0:0:0:0:0:0:0:0:0,#
*,type=WAIT_0000,param=2:0:0:0:0:0:0:0:0:0:0,#
*,type=EFFECT_GP,param=60010018:320:568:0:0:70:0:0:0:0:0,#
*,type=SPKG_0000,param=aura:sc_aura02_loopwhite.vfxb:0:500:360:0.07:0:0:0:0:0,#
*,type=SE_0000,param=338:0:0:0:0:0:0:0:0:0:0,#
*,type=WAIT_0000,param=1.2:0:0:0:0:0:0:0:0:0:0,#
*,type=BTL_WaitAction,param=15:0:0:0:0:0:0:0:0:0:0,#
*,type=WAIT_0000,param=0.5:0:0:0:0:0:0:0:0:0:0,#
*,type=HCHR_TK00,msg=あ？<wait=3>何だありゃ。,param=chr_Nothum2:$Center8_under_LT:0:0:0:0:0:OFS$-70&-420:0:0:0,#
*,type=HCHR_TK01,param=all:0:0:0:0:0:0:0:0:0:0,#
*,type=STOP,param=0:0:0:0:0:0:0:0:0:0:0,#
*,type=HCHR_GRP00,param=chr_Hans_young:face:ku:0:0:0:0:0:0:0:0,#
*,type=HCHR_POS00,param=chr_Hans_young:FADEIN:$CHARA_FadeTime:0:0:0:0:0:0:0:0,#
*,type=STOP,param=0:0:0:0:0:0:0:0:0:0:0,#
*,type=HCHR_TK10,msg=玄盛！<wait=3><br>俺に姉様を！,param=chr_Hans_young:Left:BATTLE:0:0:0:0:0:0:0:0,#
*,type=HCHR_TK00,msg=<ctag=QUAK:10:10:0.05:12><size=30>守らせてくれ――ッ!!,param=chr_Hans_young:$Shout_M_L:0:0:0:0:0:0:0:0:0,#
*,type=HCHR_TK01,param=all:0:0:0:0:0:0:0:0:0:0,#
*,type=HCHR_POS00,param=chr_Hans_young:FADEOUT:$CHARA_FadeTime:0:0:0:0:0:0:0:0,#
*,type=STOP,param=0:0:0:0:0:0:0:0:0:0:0,#
*,type=WAIT_0000,param=1:0:0:0:0:0:0:0:0:0:0,#
*,type=EFFECT_GP,param=60010014:320:568:0:0:70:0:0:0:0:0,#
*,type=EFFECT_GP,param=35001472:360:452:0:0:70:0:0:0:0:0,#
*,type=SPKG_0002,param=aura:0:0:0:0:0:0:0:0:0:0,#
*,type=WAIT_0000,param=2:0:0:0:0:0:0:0:0:0:0,#
*,type=BTL_ReqAction,param=PINDEX$1:0:MOVETOFIX:500$452$0$IDLE$IDLE:0:0:0:0:0:0:0,#
*,type=BTL_WaitAction,param=1:0:0:0:0:0:0:0:0:0:0,#
*,type=WAIT_0000,param=2:0:0:0:0:0:0:0:0:0:0,#
*,type=SS5_0000,param=mnp1:emote_icon_animation.ssbp:surprise_red_b/anime:surprise_red_b/anime:10:230:250:1:0:0.4:0,#
*,type=SS5_0000,param=mnp2:emote_icon_animation.ssbp:surprise_red_b/anime:surprise_red_b/anime:10:230:350:1:0:0.4:0,#
*,type=SS5_0000,param=mnp3:emote_icon_animation.ssbp:surprise_red_b/anime:surprise_red_b/anime:10:230:450:1:0:0.4:0,#
*,type=SS5_0000,param=mnp4:emote_icon_animation.ssbp:surprise_red_b/anime:surprise_red_b/anime:10:110:300:1:0:0.4:0,#
*,type=SS5_0000,param=mnp5:emote_icon_animation.ssbp:surprise_red_b/anime:surprise_red_b/anime:10:110:400:1:0:0.4:0,#
*,type=WAIT_0000,param=1.5:0:0:0:0:0:0:0:0:0:0,#
*,type=SS5_0001,param=mnp1:0:0:0:0:0:0:0:0:0:0,#
*,type=SS5_0001,param=mnp2:0:0:0:0:0:0:0:0:0:0,#
*,type=SS5_0001,param=mnp3:0:0:0:0:0:0:0:0:0:0,#
*,type=SS5_0001,param=mnp4:0:0:0:0:0:0:0:0:0:0,#
*,type=SS5_0001,param=mnp5:0:0:0:0:0:0:0:0:0:0,#
*,type=WAIT_0000,param=3:0:0:0:0:0:0:0:0:0:0,#
*,type=HCHR_TK00,msg=……<wait=1>玄盛め、<wait=1>蘇ったか。<wait=3><br>どこまでも忌々しい爺だ。,param=chr_Nothum1:$Left12_Triple_RT:0:0:0:0:0:OFS$70&-70:0:0:0,#
*,type=HCHR_TK01,param=all:0:0:0:0:0:0:0:0:0:0,#
*,type=STOP,param=0:0:0:0:0:0:0:0:0:0:0,#
*,type=HCHR_GRP00,param=chr_Lugina_young:face:fu:0:0:0:0:0:0:0:0,#
*,type=HCHR_POS00,param=chr_Lugina_young:FADEIN:$CHARA_FadeTime:0:0:0:0:0:0:0:0,#
*,type=STOP,param=0:0:0:0:0:0:0:0:0:0:0,#
*,type=HCHR_TK10,msg=ゲンセイ？<wait=3><br>そうか、<wait=1>これがお前の憧れる最強の忍か……,param=chr_Lugina_young:Left:BATTLE:0:0:0:0:0:0:0:0,#
*,type=HCHR_GRP00,param=chr_Lugina_young:face:ki:0:0:0:0:0:0:0:0,#
*,type=HCHR_TK10,msg=フン……<wait=3>やっとできたじゃねぇか。<wait=3><br>気付くのが遅ぇよ。,param=chr_Lugina_young:Left:BATTLE:0:0:0:0:0:0:0:0,#
*,type=HCHR_TK10,msg=よし、<wait=1>特別にこの俺さまが<br>サポートしてやる。,param=chr_Lugina_young:Left:BATTLE:0:0:0:0:0:0:0:0,#
*,type=HCHR_TK10,msg=思う通りに戦ってみろ、<wait=1>ハンス！,param=chr_Lugina_young:Left:BATTLE:0:0:0:0:0:0:0:0,#
*,type=HCHR_TK01,param=all:0:0:0:0:0:0:0:0:0:0,#
*,type=HCHR_POS00,param=chr_Lugina_young:FADEOUT:$CHARA_FadeTime:0:0:0:0:0:0:0:0,#
*,type=STOP,param=0:0:0:0:0:0:0:0:0:0:0,#
*,type=HCHR_GRP00,param=chr_Hans_young:face:fu:0:0:0:0:0:0:0:0,#
*,type=HCHR_POS00,param=chr_Hans_young:FADEIN:$CHARA_FadeTime:0:0:0:0:0:0:0:0,#
*,type=STOP,param=0:0:0:0:0:0:0:0:0:0:0,#
*,type=HCHR_TK10,msg=あぁ……！,param=chr_Hans_young:Left:BATTLE:0:0:0:0:0:0:0:0,#
*,type=HCHR_TK01,param=all:0:0:0:0:0:0:0:0:0:0,#
*,type=HCHR_POS00,param=chr_Hans_young:FADEOUT:$CHARA_FadeTime:0:0:0:0:0:0:0:0,#
*,type=STOP,param=0:0:0:0:0:0:0:0:0:0:0,#
*,type=WAIT_0000,param=1:0:0:0:0:0:0:0:0:0:0,#
*,type=MSKS_0000,param=bgBlackMask:$BGBLACK_Color:0:Z$50:T$1:0:0:0:0:0:0,#
*,type=STOP,param=0:0:0:0:0:0:0:0:0:0:0,#
*,type=BTL_ReqAction,param=PINDEX$0:0:MOVETOFIX:500$352$0$IDLE$IDLE:0:0:0:0:0:0:0,#
*,type=BTL_ReqAction,param=PINDEX$1:0:MOVETOFIX:500$552$0$IDLE$IDLE:0:0:0:0:0:0:0,#
*,type=BTL_WaitAction,param=1:0:0:0:0:0:0:0:0:0:0,#
*,type=MSKS_0002,param=bgBlackMask:T$1.5:0:0:0:0:0:0:0:0:0,#
*,type=STOP,param=0:0:0:0:0:0:0:0:0:0:0,#
*,type=HCHR_ENT00,param=chr_Sarsha:サーシャ:N$chara_bf2_1_b:$BTLPOS_Left:TYPE$middle:Z$10:0:0:0:0:0,#
*,type=HCHR_ENT00,param=chr_Yurika:ユリカ:N$chara_bf2_215_b:$BTLPOS_Left:TYPE$middle:Z$10:0:0:0:0:0,#
*,type=STOP,param=0:0:0:0:0:0:0:0:0:0:0,#
*,type=HCHR_GRP00,param=chr_Yurika:face:do:0:0:0:0:0:0:0:0,#
*,type=HCHR_POS00,param=chr_Yurika:FADEIN:$CHARA_FadeTime:0:0:0:0:0:0:0:0,#
*,type=STOP,param=0:0:0:0:0:0:0:0:0:0:0,#
*,type=HCHR_TK10,msg=そうです、<wait=1>サーシャ。<wait=3><br>それで合っています。,param=chr_Yurika:Left:BATTLE:0:0:0:0:0:0:0:0,#
*,type=HCHR_TK10,msg=あの時、<wait=1>ハンスもゲンセイ様を召喚し<wait=1><br>彼らと戦いました。,param=chr_Yurika:Left:BATTLE:0:0:0:0:0:0:0:0,#
*,type=HCHR_TK01,param=all:0:0:0:0:0:0:0:0:0:0,#
*,type=HCHR_POS00,param=chr_Yurika:FADEOUT:$CHARA_FadeTime:0:0:0:0:0:0:0:0,#
*,type=STOP,param=0:0:0:0:0:0:0:0:0:0:0,#
*,type=HCHR_GRP00,param=chr_Sarsha:face:do:0:0:0:0:0:0:0:0,#
*,type=HCHR_POS00,param=chr_Sarsha:FADEIN:$CHARA_FadeTime:0:0:0:0:0:0:0:0,#
*,type=STOP,param=0:0:0:0:0:0:0:0:0:0:0,#
*,type=HCHR_TK10,msg=それと、<wait=1>パパも一緒だったのよね……！,param=chr_Sarsha:Left:BATTLE:0:0:0:0:0:0:0:0,#
*,type=HCHR_GRP00,param=chr_Sarsha:face:ai:0:0:0:0:0:0:0:0,#
*,type=HCHR_TK00,msg=でも今、<wait=1>ここにパパはいないわ。,param=chr_Sarsha:$Mono_L_L:0:0:0:0:0:0:0:0:0,#
*,type=HCHR_GRP00,param=chr_Sarsha:face:do:0:0:0:0:0:0:0:0,#
*,type=HCHR_TK00,msg=私がひとりでやるしかない!!,param=chr_Sarsha:$Mono_L_L:0:0:0:0:0:0:0:0:0,#
*,type=HCHR_TK01,param=all:0:0:0:0:0:0:0:0:0:0,#
*,type=HCHR_POS00,param=chr_Sarsha:FADEOUT:$CHARA_FadeTime:0:0:0:0:0:0:0:0,#
*,type=STOP,param=0:0:0:0:0:0:0:0:0:0:0,#
*,type=HCHR_TK00,msg=これは退屈しなくて済みそうだ。<wait=3><br>――来い！,param=chr_Nothum1:$Left16_Triple_RT:0:0:0:0:0:OFS$70&-70:0:0:0,#
*,type=HCHR_TK01,param=all:0:0:0:0:0:0:0:0:0:0,#
*,type=STOP,param=0.3:0:0:0:0:0:0:0:0:0:0,#
*,type=WAIT_0000,param=1:0:0:0:0:0:0:0:0:0:0,#
*,type=MSKS_0000,param=bgBlackMask:$BGBLACK_Color:0:Z$50:T$0.75:0:0:0:0:0:0,#
*,type=WAIT_0000,param=0.75:0:0:0:0:0:0:0:0:0:0,#
*,type=WAIT_0000,param=0.5:0:0:0:0:0:0:0:0:0:0,#
*,type=BGM_0000,param=1113:1.5:0:0:0:0:0:0:0:0:0,#
*,type=GAM_CHGSCENE,param=MissionSelect:0:202220105:0:0:0:0:0:0:0:0,#
*,type=BTL_PanelMask,param=OFF:0:0:0:0:0:0:0:0:0:0,#
*,type=EVT_BLOCKEND,param=0:0:0:0:0:0:0:0:0:0:0,#

*,type=SYSED_00,param=0:0:0:0:0:0:0:0:0:0:0,#



