﻿ScriptCmd ver 1.1.1(app1.0.4):ストクエスクリプト_021_最強の背を追いかけて_クエスト02.xlsm/story021-02-04_library/story021-02-04_library.csv

*,type=SYSST_00,param=0:0:0:0:0:0:0:0:0:0:0,#
*,type=CMD_STOP,param=0:0:0:0:0:0:0:0:0:0:0,#
*,type=SYSST_01,param=0:0:0:0:0:0:0:0:0:0:0,#


*,type=PICT_0000,param=bg_01:battle_bg_sq_019_02.jpg:1:bg$202190102:0:0:0:2:0:0:0,#
*,type=FADEIN_000,param=1.5:00&00&00:0:0:0:0:0:0:0:0:0,#
*,type=WAIT_0000,param=2.5:0:0:0:0:0:0:0:0:0:0,#
*,type=STOP,param=0:0:0:0:0:0:0:0:0:0:0,#
*,type=HCHR_ENT00,param=chr_Sarsha:サーシャ:N$chara_bf2_1:$POS_Center:TYPE$middle:Z$10:0:0:0:0:0,#
*,type=HCHR_ENT00,param=chr_Yurika:ユリカ:N$chara_bf2_215:$POS_Center:TYPE$middle:Z$10:0:0:0:0:0,#
*,type=HCHR_ENT00,param=chr_Ninjab:天武党の忍B:N$chara_bf2_207:$POS_Center:TYPE$middle:Z$10:0:XFLIP$SET:0:0:0,#
*,type=HCHR_ENT00,param=chr_Ninjac:天武党の忍C:N$chara_bf2_207:$POS_Center:TYPE$middle:Z$10:0:XFLIP$SET:0:0:0,#
*,type=HCHR_ENT00,param=chr_Lugina_young:ルジーナ:N$chara_bf2_216:$POS_Center:TYPE$middle:Z$8&8:0:0:0:0:0,#
*,type=HCHR_ENT00,param=chr_Yurika_medium:百合香:N$chara_bf2_214:$POS_Center:TYPE$middle:Z$10&10:0:0:0:0:0,#
*,type=HCHR_ENT00,param=chr_Hans_young:半雛:N$chara_bf2_213:$POS_Center:TYPE$middle:Z$10&10:0:XFLIP$SET:0:0:0,#
*,type=STOP,param=0:0:0:0:0:0:0:0:0:0:0,#
*,type=SE_0001,param=0:345:0:0.25:3:0:0:0:0:0:0,#
*,type=WAIT_0000,param=0.8:0:0:0:0:0:0:0:0:0:0,#
*,type=HCHR_FDM00,param=all:MSK$off:0:0:0:0:0:0:0:0:0,#
*,type=HCHR_GRP00,param=chr_Sarsha:face:do:0:0:0:0:0:0:0:0,#
*,type=HCHR_POS00,param=chr_Sarsha:IN$right:T$0.1:$OFS_Left:0:0:0:0:0:0:0,#
*,type=STOP,param=0:0:0:0:0:0:0:0:0:0:0,#
*,type=WAIT_0000,param=0.3:0:0:0:0:0:0:0:0:0:0,#
*,type=HCHR_TK10,msg=なんて逃げ足の速さ……！,param=chr_Sarsha:Left:BASIC:0:0:0:0:0:0:0:0,#
*,type=HCHR_TK01,param=all:skipmask:0:0:0:0:0:0:0:0:0,#
*,type=HCHR_FDM00,param=all:MSK$off:0:0:0:0:0:0:0:0:0,#
*,type=HCHR_FDM00,param=chr_Sarsha:MSK$on:0:0:0:0:0:0:0:0:0,#
*,type=HCHR_PRM00,param=chr_Sarsha:Z$10:0:0:0:0:0:0:0:0:0,#
*,type=HCHR_PRM00,param=chr_Yurika:Z$11:0:0:0:0:0:0:0:0:0,#
*,type=HCHR_GRP00,param=chr_Yurika:face:bi:0:0:0:0:0:0:0:0,#
*,type=SE_0000,param=345:0:0:0:0:0:0:0:0:0:0,#
*,type=HCHR_POS00,param=chr_Yurika:IN$right:T$0.2:$OFS_Right:0:0:0:0:0:0:0,#
*,type=STOP,param=0:0:0:0:0:0:0:0:0:0:0,#
*,type=HCHR_TK10,msg=サーシャ、<wait=1>大丈夫ですか。,param=chr_Yurika:Right:BASIC:0:0:0:0:0:0:0:0,#
*,type=BGM_0000,param=1010:1.5:0:0:0:0:0:0:0:0:0,#
*,type=HCHR_GRP00,param=chr_Sarsha:face:emi:$FACE_FadeTime:0:0:0:0:0:0:0,#
*,type=HCHR_TK10,msg=うん。<wait=3>ちょっと息が上がっちゃったけど<br>もう平気。,param=chr_Sarsha:Left:BASIC:0:0:0:0:0:0:0:0,#
*,type=HCHR_GRP00,param=chr_Sarsha:face:ki:$FACE_FadeTime:0:0:0:0:0:0:0,#
*,type=HCHR_TK00,msg=リュウゴとキショウを一気に倒せた！,param=chr_Sarsha:$Mono_LL_L:BASIC:0:0:0:0:0:0:0:0,#
*,type=HCHR_TK00,msg=これって、<wait=1>少しずつでも<br>前に進めてるってことなのかしら。,param=chr_Sarsha:$Mono_L_L:BASIC:0:0:0:0:0:0:0:0,#
*,type=HCHR_TK00,msg=パパの背中が見えてきた気がする……！,param=chr_Sarsha:$Mono_LL_L:BASIC:0:0:0:0:0:0:0:0,#
*,type=HCHR_TK01,param=all:skipmask:0:0:0:0:0:0:0:0:0,#
*,type=FADEOUT_000,param=1.5:00&00&00:0:0:0:0:0:0:0:0:0,#
*,type=BGM_0001,param=2:0:0:0:0:0:0:0:0:0:0,#
*,type=BGM_0000,param=43:1.5:2:0:0:0:0:0:0:0:0,#
*,type=WAIT_0000,param=3:0:0:0:0:0:0:0:0:0:0,#
*,type=HCHR_POS00,param=chr_Sarsha:FADEOUT:T$0:0:0:0:0:0:0:0:0,#
*,type=HCHR_POS00,param=chr_Yurika:FADEOUT:T$0:0:0:0:0:0:0:0:0,#
*,type=HCHR_GRP00,param=chr_Lugina_young:face:do:0:0:0:0:0:0:0:0,#
*,type=MSKS_0000,param=bgFilterMask:149&86&41:100:Z$7:T$0:0:0:0:0:0:0,#
*,type=FADEIN_000,param=1.5:00&00&00:0:0:0:0:0:0:0:0:0,#
*,type=STOP,param=0:0:0:0:0:0:0:0:0:0:0,#
*,type=HCHR_TK00,msg=<size=40>ヴェーダ・<wait=1>レクストール！,param=chr_Lugina_young:$Shout_L_C:nowait:0:0:0:0:0:0:0:0,#
*,type=CSYN_0001,param=0:0:0:0:0:0:0:0:0:0:0,#
*,type=WAIT_0000,param=0.2:0:0:0:0:0:0:0:0:0:0,#
*,type=HCHR_TK01,param=all:skipmask:0:0:0:0:0:0:0:0:0,#
*,type=SE_0000,param=300:0:0:0:0:0:0:0:0:0:0,#
*,type=EFFECT_GP,param=60010025:320:568:0:0:70:0:0:0:0:0,#
*,type=EFFECT_GP,param=60010015:320:568:0:0:70:0:0:0:0:0,#
*,type=QUAK_0000,param=0.05:15:50:80:0:0:0:0:0:0:0,#
*,type=STOP,param=0:0:0:0:0:0:0:0:0:0:0,#
*,type=WAIT_0000,param=1.5:0:0:0:0:0:0:0:0:0:0,#
*,type=HCHR_FDM00,param=all:MSK$off:0:0:0:0:0:0:0:0:0,#
*,type=HCHR_FDM00,param=chr_Ninjab:MSK$on:0:0:0:0:0:0:0:0:0,#
*,type=HCHR_PRM00,param=chr_Ninjab:Z$10:0:0:0:0:0:0:0:0:0,#
*,type=HCHR_PRM00,param=chr_Ninjac:Z$11:0:0:0:0:0:0:0:0:0,#
*,type=HCHR_GRP00,param=chr_Ninjab:face:ku:0:0:0:0:0:0:0:0,#
*,type=HCHR_GRP00,param=chr_Ninjac:face:ku:0:0:0:0:0:0:0:0,#
*,type=HCHR_POS00,param=chr_Ninjac:FADEIN:$CHARA_FadeTime:$OFS_Right:0:0:0:0:0:0:0,#
*,type=HCHR_POS00,param=chr_Ninjab:FADEIN:$CHARA_FadeTime:$OFS_Left:0:0:0:0:0:0:0,#
*,type=STOP,param=0:0:0:0:0:0:0:0:0:0:0,#
*,type=HCHR_TK10,msg=ひ、<wait=1>退け！<wait=3><br>一旦逃げて態勢を立て直す！,param=chr_Ninjac:Right:BASIC:0:0:0:0:0:0:0:0,#
*,type=HCHR_TK01,param=all:skipmask:0:0:0:0:0:0:0:0:0,#
*,type=SE_0000,param=345:0:0:0:0:0:0:0:0:0:0,#
*,type=HCHR_POS00,param=chr_Ninjac:OUT$left:T$0.1:0:0:0:0:0:0:0:0,#
*,type=HCHR_POS00,param=chr_Ninjab:OUT$left:T$0.1:0:0:0:0:0:0:0:0,#
*,type=STOP,param=0:0:0:0:0:0:0:0:0:0:0,#
*,type=BGM_0001,param=2:0:0:0:0:0:0:0:0:0:0,#
*,type=WAIT_0000,param=2:0:0:0:0:0:0:0:0:0:0,#
*,type=HCHR_FDM00,param=all:MSK$off:0:0:0:0:0:0:0:0:0,#
*,type=HCHR_GRP00,param=chr_Lugina_young:face:fu:0:0:0:0:0:0:0:0,#
*,type=HCHR_POS00,param=chr_Lugina_young:IN$right:T$0.5:$OFS_Center:0:0:0:0:0:0:0,#
*,type=STOP,param=0:0:0:0:0:0:0:0:0:0:0,#
*,type=WAIT_0000,param=0.5:0:0:0:0:0:0:0:0:0:0,#
*,type=HCHR_TK10,msg=フン。,param=chr_Lugina_young:Center:BASIC:0:0:0:0:0:0:0:0,#
*,type=HCHR_TK10,msg=ちったぁ手こずるかと思ったが<wait=1><br>案外そうでもなかったな。,param=chr_Lugina_young:Center:BASIC:0:0:0:0:0:0:0:0,#
*,type=HCHR_TK01,param=all:skipmask:0:0:0:0:0:0:0:0:0,#
*,type=WAIT_0000,param=1.5:0:0:0:0:0:0:0:0:0:0,#
*,type=HCHR_TK10,msg=<speed=9>………………<wait=1>で、<wait=1>だ。,param=chr_Lugina_young:Center:BASIC:0:0:0:0:0:0:0:0,#
*,type=BGM_0000,param=58:0:0:0:0:0:0:0:0:0:0,#
*,type=HCHR_GRP00,param=chr_Lugina_young:face:do:$FACE_FadeTime:0:0:0:0:0:0:0,#
*,type=HCHR_TK10,msg=何でテメーがついて来てんだよ。,param=chr_Lugina_young:Center:BASIC:0:0:0:0:0:0:0:0,#
*,type=HCHR_TK01,param=all:skipmask:0:0:0:0:0:0:0:0:0,#
*,type=HCHR_FDM00,param=chr_Hans_young:MSK$off:0.3:0:0:0:0:0:0:0:0,#
*,type=HCHR_FDM00,param=chr_Lugina_young:MSK$on:0.3:0:0:0:0:0:0:0:0,#
*,type=HCHR_POS00,param=chr_Hans_young:IN$right:$CHARA_FadeTime:$OFS_Right:0:0:0:0:0:0:0,#
*,type=STOP,param=0:0:0:0:0:0:0:0:0:0:0,#
*,type=WAIT_0000,param=0.5:0:0:0:0:0:0:0:0:0:0,#
*,type=HCHR_TK10,msg=……<wait=1>お前の術を俺のものにするまで。,param=chr_Hans_young:Right:CHILD:0:0:0:0:0:0:0:0,#
*,type=HCHR_GRP00,param=chr_Lugina_young:face:ai:$FACE_FadeTime:0:0:0:0:0:0:0,#
*,type=HCHR_TK10,msg=教えねーっつっただろ。<wait=3><br>しつこい奴だな。,param=chr_Lugina_young:Center:CHILD:0:0:0:0:0:0:0:0,#
*,type=HCHR_TK10,msg=だいたい召喚術は教えてできるような<br>モンじゃねぇんだよ。,param=chr_Lugina_young:Center:CHILD:0:0:0:0:0:0:0:0,#
*,type=HCHR_TK10,msg=もう教えてくれなんて言わない。<wait=3><br>見て盗む。,param=chr_Hans_young:Right:CHILD:0:0:0:0:0:0:0:0,#
*,type=HCHR_TK10,msg=……っとにクソ生意気なガキだな。,param=chr_Lugina_young:Center:CHILD:0:0:0:0:0:0:0:0,#
*,type=HCHR_GRP00,param=chr_Hans_young:face:do:$FACE_FadeTime:0:0:0:0:0:0:0,#
*,type=HCHR_TK10,msg=ガキじゃない。<wait=3>忍だ。,param=chr_Hans_young:Right:CHILD:0:0:0:0:0:0:0:0,#
*,type=HCHR_TK10,msg=睨むんじゃねぇよ、<wait=1>ガキ。,param=chr_Lugina_young:Center:CHILD:0:0:0:0:0:0:0:0,#
*,type=HCHR_TK01,param=all:skipmask:0:0:0:0:0:0:0:0:0,#
*,type=HCHR_FDM00,param=chr_Yurika_medium:MSK$off:0.3:0:0:0:0:0:0:0:0,#
*,type=HCHR_FDM00,param=chr_Hans_young:MSK$on:0.3:0:0:0:0:0:0:0:0,#
*,type=HCHR_FDM00,param=chr_Lugina_young:MSK$on:0.3:0:0:0:0:0:0:0:0,#
*,type=HCHR_PRM00,param=chr_Hans_young:Z$9:0:0:0:0:0:0:0:0:0,#
*,type=HCHR_PRM00,param=chr_Yurika_medium:Z$11:0:0:0:0:0:0:0:0:0,#
*,type=HCHR_POS00,param=chr_Lugina_young:IN$right$160:$CHARA_FadeTime:$OFS_Left:0:0:0:0:0:0:0,#
*,type=HCHR_POS00,param=chr_Hans_young:IN$right$160:$CHARA_FadeTime:$OFS_Center:0:0:0:0:0:0:0,#
*,type=HCHR_GRP00,param=chr_Yurika_medium:face:ku:0:0:0:0:0:0:0:0,#
*,type=HCHR_POS00,param=chr_Yurika_medium:IN$right:$CHARA_FadeTime:$OFS_Right:0:0:0:0:0:0:0,#
*,type=STOP,param=0:0:0:0:0:0:0:0:0:0:0,#
*,type=HCHR_TK10,msg=るじぃな様、<wait=1>半雛の度重なる無礼<wait=1><br>誠に申し訳ございません。,param=chr_Yurika_medium:Right:CHILD:0:0:0:0:0:0:0:0,#
*,type=HCHR_GRP00,param=chr_Yurika_medium:face:ai:$FACE_FadeTime:0:0:0:0:0:0:0,#
*,type=HCHR_TK10,msg=これが終わったら<br>きつく叱っておきますので。,param=chr_Yurika_medium:Right:CHILD:0:0:0:0:0:0:0:0,#
*,type=HCHR_GRP00,param=chr_Yurika_medium:face:ki:$FACE_FadeTime:0:0:0:0:0:0:0,#
*,type=HCHR_TK10,msg=<speed=7>……<wait=1>半雛？<wait=3><br>あとでわかっていますね？,param=chr_Yurika_medium:Right:CHILD:0:0:0:0:0:0:0:0,#
*,type=HCHR_TK01,param=all:skipmask:0:0:0:0:0:0:0:0:0,#
*,type=HCHR_GRP00,param=chr_Hans_young:face:bi:0.1:0:0:0:0:0:0:0,#
*,type=HCHR_FDM00,param=chr_Hans_young:MSK$off:0:0:0:0:0:0:0:0:0,#
*,type=HCHR_FDM00,param=chr_Yurika_medium:MSK$on:0:0:0:0:0:0:0:0:0,#
*,type=HCHR_FDM00,param=chr_Lugina_young:MSK$on:0:0:0:0:0:0:0:0:0,#
*,type=HCHR_PRM00,param=chr_Yurika_medium:Z$9:0:0:0:0:0:0:0:0:0,#
*,type=HCHR_PRM00,param=chr_Hans_young:Z$11:0:0:0:0:0:0:0:0:0,#
*,type=HCHR_SHK00,param=chr_Hans_young:10:0.02:0.2:0:0:0:0:0:0:0,#
*,type=WAIT_0000,param=1:0:0:0:0:0:0:0:0:0:0,#
*,type=SE_0000,param=345:0:0:0:0:0:0:0:0:0:0,#
*,type=HCHR_POS00,param=chr_Hans_young:OFS$-50&0:T$0.08:0:0:0:0:0:0:0:0,#
*,type=STOP,param=0:0:0:0:0:0:0:0:0:0:0,#
*,type=WAIT_0000,param=0.3:0:0:0:0:0:0:0:0:0:0,#
*,type=HCHR_GRP00,param=chr_Yurika_medium:face:fu:$FACE_FadeTime:0:0:0:0:0:0:0,#
*,type=HCHR_FDM00,param=chr_Lugina_young:MSK$off:0:0:0:0:0:0:0:0:0,#
*,type=HCHR_FDM00,param=chr_Yurika_medium:MSK$on:0:0:0:0:0:0:0:0:0,#
*,type=HCHR_FDM00,param=chr_Hans_young:MSK$on:0:0:0:0:0:0:0:0:0,#
*,type=HCHR_GRP00,param=chr_Lugina_young:face:ki:$FACE_FadeTime:0:0:0:0:0:0:0,#
*,type=HCHR_TK10,msg=なんだ、<wait=1>姉ちゃんが怖ぇのか。,param=chr_Lugina_young:Left:CHILD:0:0:0:0:0:0:0:0,#
*,type=HCHR_GRP00,param=chr_Hans_young:face:ai:$FACE_FadeTime:0:0:0:0:0:0:0,#
*,type=HCHR_TK10,msg=<speed=9>…………<wait=1></speed>べ、<wait=1>別に。,param=chr_Hans_young:Center:CHILD:0:0:0:0:0:0:OFS$-50&0:0,#
*,type=HCHR_TK10,msg=姉ちゃんに怒られてビビってるようじゃぁ<wait=1><br>召喚なんて一生無理だろうよ。,param=chr_Lugina_young:Left:CHILD:0:0:0:0:0:0:0:0,#
*,type=HCHR_TK01,param=all:skipmask:0:0:0:0:0:0:0:0:0,#
*,type=HCHR_FDM00,param=chr_Hans_young:MSK$off:0:0:0:0:0:0:0:0:0,#
*,type=HCHR_FDM00,param=chr_Yurika_medium:MSK$on:0:0:0:0:0:0:0:0:0,#
*,type=HCHR_FDM00,param=chr_Lugina_young:MSK$on:0:0:0:0:0:0:0:0:0,#
*,type=HCHR_GRP00,param=chr_Hans_young:face:bi:$FACE_FadeTime:0:0:0:0:0:0:0,#
*,type=HCHR_EFC00,param=Eff_Manp_05:chr_Hans_young:manpu_1_re:0:SS5$$MANP_doubt_black_b:0:0:0:0:XFLIP$SET:0,#
*,type=WAIT_0000,param=1:0:0:0:0:0:0:0:0:0:0,#
*,type=PICT_0004,param=Eff_Manp_05:0:0:0:0:0:0:0:0:0:0,#
*,type=HCHR_GRP00,param=chr_Hans_young:face:do:$FACE_FadeTime:0:0:0:0:0:0:0,#
*,type=HCHR_TK10,msg=……<wait=1>やってみなきゃわかんないだろ。,param=chr_Hans_young:Center:CHILD:0:0:0:0:0:0:OFS$-50&0:0,#
*,type=HCHR_GRP00,param=chr_Yurika_medium:face:bi:$FACE_FadeTime:0:0:0:0:0:0:0,#
*,type=HCHR_TK10,msg=ほぅ……？<wait=3><br>できるってのか。,param=chr_Lugina_young:Left:CHILD:0:0:0:0:0:0:0:0,#
*,type=BGM_0001,param=2:0:0:0:0:0:0:0:0:0:0,#
*,type=BGM_0000,param=57:1.5:2:0:0:0:0:0:0:0:0,#
*,type=HCHR_GRP00,param=chr_Hans_young:face:fu:$FACE_FadeTime:0:0:0:0:0:0:0,#
*,type=HCHR_TK10,msg=あんた、<wait=1>何も唱えずに<br>術を使ってた。<wait=3>,param=chr_Hans_young:Center:CHILD:0:0:0:0:0:0:OFS$-50&0:0,#
*,type=HCHR_TK10,msg=でも、<wait=1>一瞬<br>何かを考えてたよな。,param=chr_Hans_young:Center:CHILD:0:0:0:0:0:0:OFS$-50&0:0,#
*,type=HCHR_TK10,msg=きっと喚び出す奴のことを<br>考えてたんだ。,param=chr_Hans_young:Center:CHILD:0:0:0:0:0:0:OFS$-50&0:0,#
*,type=HCHR_TK10,msg=それだけでいいなら<br>俺にだってやれないことはない。,param=chr_Hans_young:Center:CHILD:0:0:0:0:0:0:OFS$-50&0:0,#
*,type=HCHR_GRP00,param=chr_Lugina_young:face:tere:$FACE_FadeTime:0:0:0:0:0:0:0,#
*,type=HCHR_TK10,msg=お前……,param=chr_Lugina_young:Left:CHILD:0:0:0:0:0:0:0:0,#
*,type=HCHR_PRM00,param=chr_Hans_young:Z$9:0:0:0:0:0:0:0:0:0,#
*,type=HCHR_PRM00,param=chr_Yurika_medium:Z$11:0:0:0:0:0:0:0:0:0,#
*,type=HCHR_GRP00,param=chr_Yurika_medium:face:do:$FACE_FadeTime:0:0:0:0:0:0:0,#
*,type=HCHR_TK10,msg=おやめなさい、<wait=1>半雛。<wait=3><br>これ以上るじぃな様を困らせてはいけません,param=chr_Yurika_medium:Right:CHILD:0:0:0:0:0:0:0:0,#
*,type=HCHR_PRM00,param=chr_Yurika_medium:Z$9:0:0:0:0:0:0:0:0:0,#
*,type=HCHR_PRM00,param=chr_Hans_young:Z$11:0:0:0:0:0:0:0:0:0,#
*,type=HCHR_GRP00,param=chr_Hans_young:face:ai:$FACE_FadeTime:0:0:0:0:0:0:0,#
*,type=HCHR_TK10,msg=いいから、<wait=1>姉様はそっちで見てて。,param=chr_Hans_young:Center:CHILD:0:0:0:0:0:0:OFS$-50&0:0,#
*,type=HCHR_TK01,param=all:skipmask:0:0:0:0:0:0:0:0:0,#
*,type=HCHR_POS00,param=chr_Hans_young:OFS$170&0:T$0.3:0:0:0:0:0:0:0:0,#
*,type=STOP,param=0:0:0:0:0:0:0:0:0:0:0,#
*,type=WAIT_0000,param=0.1:0:0:0:0:0:0:0:0:0:0,#
*,type=SE_0000,param=345:0:0:0:0:0:0:0:0:0:0,#
*,type=HCHR_POS00,param=chr_Hans_young:OFS$40&0:T$0.1:0:0:0:0:0:0:0:0,#
*,type=HCHR_POS00,param=chr_Yurika_medium:OFS$40&0:T$0.1:0:0:0:0:0:0:0:0,#
*,type=STOP,param=0:0:0:0:0:0:0:0:0:0:0,#
*,type=HCHR_POS00,param=chr_Yurika_medium:OUT$right:T$0.4:0:0:0:0:0:0:0:0,#
*,type=STOP,param=0:0:0:0:0:0:0:0:0:0:0,#
*,type=WAIT_0000,param=0.75:0:0:0:0:0:0:0:0:0:0,#
*,type=HCHR_GRP00,param=chr_Lugina_young:face:fu:$FACE_FadeTime:0:0:0:0:0:0:0,#
*,type=HCHR_GRP00,param=chr_Hans_young:face:fu:$FACE_FadeTime:0:0:0:0:0:0:0,#
*,type=HCHR_TK10,msg=――――いくぞ。,param=chr_Hans_young:Right:CHILD:0:0:0:0:0:0:0:0,#
*,type=HCHR_TK01,param=all:skipmask:0:0:0:0:0:0:0:0:0,#
*,type=BGM_0001,param=2.5:0:0:0:0:0:0:0:0:0:0,#
*,type=WAIT_0000,param=1:0:0:0:0:0:0:0:0:0:0,#
*,type=HCHR_TK10,msg=<speed=7>………………,param=chr_Hans_young:Right:CHILD:0:0:0:0:0:0:0:0,#
*,type=HCHR_GRP00,param=chr_Hans_young:face:do:$FACE_FadeTime:0:0:0:0:0:0:0,#
*,type=HCHR_TK10,msg=<speed=7>……………………,param=chr_Hans_young:Right:CHILD:0:0:0:0:0:0:0:0,#
*,type=HCHR_SHK00,param=chr_Hans_young:1:0.04:1.5:0:0:0:0:0:0:0,#
*,type=HCHR_GRP00,param=chr_Hans_young:face:ku:$FACE_FadeTime:0:0:0:0:0:0:0,#
*,type=HCHR_TK10,msg=<speed=7>……～～～～～～～っ,param=chr_Hans_young:Right:CHILD:0:0:0:0:0:0:0:0,#
*,type=HCHR_GRP00,param=chr_Lugina_young:face:ki:$FACE_FadeTime:0:0:0:0:0:0:0,#
*,type=HCHR_TK10,msg=ほらな。<wait=3>どんだけ頑張ったところで<br>素質がなけりゃ――,param=chr_Lugina_young:Left:CHILD:0:0:0:0:0:0:0:0,#
*,type=HCHR_TK01,param=all:skipmask:0:0:0:0:0:0:0:0:0,#
*,type=HCHR_FDM00,param=all:MSK$on:0.3:0:0:0:0:0:0:0:0,#
*,type=SE_0000,param=317:0:0:0:0:0:0:0:0:0:0,#
*,type=SPKG_0000,param=hinotama:sc_aura02_loopwhite.vfxb:50:320:450:0.1:0:0:0:0:0,#
*,type=HCHR_FDM00,param=all:MSK$off:0.2:0:0:0:0:0:0:0:0,#
*,type=BGM_0000,param=58:0:0.5:0:0:0:0:0:0:0:0,#
*,type=HCHR_GRP00,param=chr_Lugina_young:face:bi:$FACE_FadeTime:0:0:0:0:0:0:0,#
*,type=HCHR_GRP00,param=chr_Hans_young:face:bi:$FACE_FadeTime:0:0:0:0:0:0:0,#
*,type=HCHR_EFC00,param=Eff_Manp_22a:chr_Lugina_young:manpu_1:0:SS5$$MANP_surprise_black_b_02:0:0:0:0:0:0,#
*,type=HCHR_EFC00,param=Eff_Manp_22b:chr_Hans_young:manpu_1_re:0:SS5$$MANP_surprise_black_b_02:0:0:0:0:XFLIP$SET:0,#
*,type=WAIT_0000,param=1:0:0:0:0:0:0:0:0:0:0,#
*,type=PICT_0004,param=Eff_Manp_22a:0:0:0:0:0:0:0:0:0:0,#
*,type=PICT_0004,param=Eff_Manp_22b:0:0:0:0:0:0:0:0:0:0,#
*,type=HCHR_TK10,msg=出た！,param=chr_Hans_young:Right:CHILD:0:0:0:0:0:0:0:0,#
*,type=HCHR_GRP00,param=chr_Lugina_young:face:ai:$FACE_FadeTime:0:0:0:0:0:0:0,#
*,type=HCHR_TK00,msg=<speed=7>コイツ…………,param=chr_Lugina_young:$Mono_M_L:0:0:0:0:0:OFS$0&180:0:0:0,#
*,type=HCHR_TK01,param=all:skipmask:0:0:0:0:0:0:0:0:0,#
*,type=HCHR_POS00,param=chr_Lugina_young:FADEOUT:T$0.5:0:0:0:0:0:0:0:0,#
*,type=HCHR_POS00,param=chr_Hans_young:FADEOUT:T$0.5:0:0:0:0:0:0:0:0,#
*,type=WAIT_0000,param=0.25:0:0:0:0:0:0:0:0:0:0,#
*,type=SPKG_0002,param=hinotama:0:0:0:0:0:0:0:0:0:0,#
*,type=STOP,param=0:0:0:0:0:0:0:0:0:0:0,#
*,type=HCHR_FDM00,param=all:MSK$off:0:0:0:0:0:0:0:0:0,#
*,type=HCHR_GRP00,param=chr_Yurika_medium:face:bi:0:0:0:0:0:0:0:0,#
*,type=HCHR_POS00,param=chr_Yurika_medium:FADEIN:$CHARA_FadeTime:$OFS_Center:0:0:0:0:0:0:0,#
*,type=STOP,param=0:0:0:0:0:0:0:0:0:0:0,#
*,type=HCHR_TK10,msg=ひ、<wait=1>人魂ですか!?,param=chr_Yurika_medium:Center:BASIC:0:0:0:0:0:0:0:0,#
*,type=HCHR_TK01,param=all:skipmask:0:0:0:0:0:0:0:0:0,#
*,type=HCHR_POS00,param=chr_Yurika_medium:FADEOUT:$CHARA_FadeTime:0:0:0:0:0:0:0:0,#
*,type=STOP,param=0:0:0:0:0:0:0:0:0:0:0,#
*,type=HCHR_FDM00,param=all:MSK$off:0:0:0:0:0:0:0:0:0,#
*,type=HCHR_FDM00,param=chr_Lugina_young:MSK$on:0:0:0:0:0:0:0:0:0,#
*,type=HCHR_GRP00,param=chr_Lugina_young:face:fu:0:0:0:0:0:0:0:0,#
*,type=SPKG_0000,param=hinotama:sc_aura02_loopwhite.vfxb:50:320:450:0.1:0:0:0:0:0,#
*,type=HCHR_POS00,param=chr_Lugina_young:FADEIN:$CHARA_FadeTime:$OFS_Left:0:0:0:0:0:0:0,#
*,type=HCHR_POS00,param=chr_Hans_young:FADEIN:$CHARA_FadeTime:$OFS_Right:0:0:0:0:0:0:0,#
*,type=STOP,param=0:0:0:0:0:0:0:0:0:0:0,#
*,type=HCHR_TK10,msg=英霊の魂だよ！,param=chr_Hans_young:Right:CHILD:0:0:0:0:0:0:0:0,#
*,type=HCHR_TK01,param=all:skipmask:0:0:0:0:0:0:0:0:0,#
*,type=HCHR_POS00,param=chr_Lugina_young:FADEOUT:$CHARA_FadeTime:0:0:0:0:0:0:0:0,#
*,type=HCHR_POS00,param=chr_Hans_young:FADEOUT:$CHARA_FadeTime:0:0:0:0:0:0:0:0,#
*,type=WAIT_0000,param=0.15:0:0:0:0:0:0:0:0:0:0,#
*,type=SPKG_0002,param=hinotama:0:0:0:0:0:0:0:0:0:0,#
*,type=STOP,param=0:0:0:0:0:0:0:0:0:0:0,#
*,type=HCHR_FDM00,param=all:MSK$off:0:0:0:0:0:0:0:0:0,#
*,type=HCHR_POS00,param=chr_Yurika_medium:FADEIN:$CHARA_FadeTime:$OFS_Center:0:0:0:0:0:0:0,#
*,type=STOP,param=0:0:0:0:0:0:0:0:0:0:0,#
*,type=HCHR_TK10,msg=半雛、<wait=1>あなた本当に召喚を……,param=chr_Yurika_medium:Center:BASIC:0:0:0:0:0:0:0:0,#
*,type=HCHR_TK01,param=all:skipmask:0:0:0:0:0:0:0:0:0,#
*,type=HCHR_POS00,param=chr_Yurika_medium:FADEOUT:$CHARA_FadeTime:0:0:0:0:0:0:0:0,#
*,type=STOP,param=0:0:0:0:0:0:0:0:0:0:0,#
*,type=HCHR_FDM00,param=all:MSK$off:0:0:0:0:0:0:0:0:0,#
*,type=HCHR_FDM00,param=chr_Lugina_young:MSK$on:0:0:0:0:0:0:0:0:0,#
*,type=SPKG_0000,param=hinotama:sc_aura02_loopwhite.vfxb:50:320:450:0.1:0:0:0:0:0,#
*,type=HCHR_POS00,param=chr_Lugina_young:FADEIN:$CHARA_FadeTime:$OFS_Left:0:0:0:0:0:0:0,#
*,type=HCHR_POS00,param=chr_Hans_young:FADEIN:$CHARA_FadeTime:$OFS_Right:0:0:0:0:0:0:0,#
*,type=STOP,param=0:0:0:0:0:0:0:0:0:0:0,#
*,type=HCHR_GRP00,param=chr_Hans_young:face:ki:$FACE_FadeTime:0:0:0:0:0:0:0,#
*,type=HCHR_TK10,msg=俺もやればできるんだ……！,param=chr_Hans_young:Right:CHILD:0:0:0:0:0:0:0:0,#
*,type=HCHR_GRP00,param=chr_Lugina_young:face:ki:$FACE_FadeTime:0:0:0:0:0:0:0,#
*,type=HCHR_TK10,msg=えらくカワイイ召喚だなオイ。<wait=3><br>これでどうやって戦うんだ？,param=chr_Lugina_young:Left:CHILD:0:0:0:0:0:0:0:0,#
*,type=HCHR_TK01,param=all:skipmask:0:0:0:0:0:0:0:0:0,#
*,type=HCHR_FDM00,param=all:MSK$off:0:0:0:0:0:0:0:0:0,#
*,type=HCHR_FDM00,param=chr_Lugina_young:MSK$on:0:0:0:0:0:0:0:0:0,#
*,type=HCHR_GRP00,param=chr_Hans_young:face:fu:$FACE_FadeTime:0:0:0:0:0:0:0,#
*,type=HCHR_EFC00,param=Eff_Manp_24:chr_Hans_young:manpu_1_re:0:SS5$$MANP_surprise_black_d_02:0:0:0:0:XFLIP$SET:0,#
*,type=WAIT_0000,param=1:0:0:0:0:0:0:0:0:0:0,#
*,type=PICT_0004,param=Eff_Manp_24:0:0:0:0:0:0:0:0:0:0,#
*,type=HCHR_TK10,msg=<speed=7>それは…………,param=chr_Hans_young:Right:CHILD:0:0:0:0:0:0:0:0,#
*,type=HCHR_TK10,msg=ま、<wait=1>今のお前にできるのは<br>せいぜいこの程度か。,param=chr_Lugina_young:Left:CHILD:0:0:0:0:0:0:0:0,#
*,type=HCHR_GRP00,param=chr_Hans_young:face:do:$FACE_FadeTime:0:0:0:0:0:0:0,#
*,type=HCHR_TK10,msg=馬鹿にするな。,param=chr_Hans_young:Right:CHILD:0:0:0:0:0:0:0:0,#
*,type=HCHR_TK10,msg=こいつがいれば、<wait=1>五穢忍だって何だって<br>一瞬で吹き飛ばせるんだぞ。,param=chr_Hans_young:Right:CHILD:0:0:0:0:0:0:0:0,#
*,type=BGM_0001,param=2:0:0:0:0:0:0:0:0:0:0,#
*,type=BGM_0000,param=52:1.5:2:0:0:0:0:0:0:0:0,#
*,type=HCHR_GRP00,param=chr_Lugina_young:face:fu:$FACE_FadeTime:0:0:0:0:0:0:0,#
*,type=HCHR_TK10,msg=クソガキ、<wait=1>よく聞け。,param=chr_Lugina_young:Left:CHILD:0:0:0:0:0:0:0:0,#
*,type=HCHR_TK01,param=all:skipmask:0:0:0:0:0:0:0:0:0,#
*,type=HCHR_FDM00,param=all:MSK$off:0:0:0:0:0:0:0:0:0,#
*,type=HCHR_FDM00,param=chr_Lugina_young:MSK$on:0:0:0:0:0:0:0:0:0,#
*,type=HCHR_GRP00,param=chr_Hans_young:face:bi:$FACE_FadeTime:0:0:0:0:0:0:0,#
*,type=SE_0000,param=345:0:0:0:0:0:0:0:0:0:0,#
*,type=HCHR_POS00,param=chr_Hans_young:OFS$30&0:T$0.08:0:0:0:0:0:0:0:0,#
*,type=STOP,param=0:0:0:0:0:0:0:0:0:0:0,#
*,type=HCHR_TK10,msg=な、<wait=1>なんだ……,param=chr_Hans_young:Right:CHILD:0:0:0:0:0:0:OFS$30&0:0,#
*,type=HCHR_TK10,msg=仮に天地がひっくり返って、<wait=1>お前が<br>俺と同じように召喚術を使えたとしよう。,param=chr_Lugina_young:Left:CHILD:0:0:0:0:0:0:0:0,#
*,type=HCHR_TK10,msg=だが、<wait=1>今のお前に<br>英霊は力を貸さねぇだろうよ。,param=chr_Lugina_young:Left:CHILD:0:0:0:0:0:0:0:0,#
*,type=HCHR_GRP00,param=chr_Hans_young:face:fu:$FACE_FadeTime:0:0:0:0:0:0:0,#
*,type=HCHR_TK10,msg=なんでそう言い切れるんだ。,param=chr_Hans_young:Right:CHILD:0:0:0:0:0:0:OFS$30&0:0,#
*,type=HCHR_TK10,msg=強ェ力ってのはな、<wait=1>扱いを<br>ひとつ間違えただけで大惨事を引き起こす。,param=chr_Lugina_young:Left:CHILD:0:0:0:0:0:0:0:0,#
*,type=HCHR_TK10,msg=お前はその恐怖をまるでわかっちゃいねぇ。,param=chr_Lugina_young:Left:CHILD:0:0:0:0:0:0:0:0,#
*,type=HCHR_TK10,msg=そりゃぁ、<wait=1>テメーの術で強敵を<br>吹っ飛ばせたら、<wait=1>さぞ気持ちいいだろうよ。,param=chr_Lugina_young:Left:CHILD:0:0:0:0:0:0:0:0,#
*,type=HCHR_TK10,msg=でもな、<wait=1>その力は同時に大事な人の命を<br>奪っちまったりもするもんなんだ。,param=chr_Lugina_young:Left:CHILD:0:0:0:0:0:0:0:0,#
*,type=HCHR_TK01,param=all:skipmask:0:0:0:0:0:0:0:0:0,#
*,type=HCHR_FDM00,param=all:MSK$off:0:0:0:0:0:0:0:0:0,#
*,type=HCHR_FDM00,param=chr_Lugina_young:MSK$on:0:0:0:0:0:0:0:0:0,#
*,type=HCHR_GRP00,param=chr_Hans_young:face:bi:$FACE_FadeTime:0:0:0:0:0:0:0,#
*,type=HCHR_EFC00,param=Eff_Manp_22:chr_Hans_young:manpu_1_re:0:SS5$$MANP_surprise_black_b_02:0:0:0:0:XFLIP$SET:0,#
*,type=WAIT_0000,param=1:0:0:0:0:0:0:0:0:0:0,#
*,type=PICT_0004,param=Eff_Manp_22:0:0:0:0:0:0:0:0:0:0,#
*,type=HCHR_TK10,msg=もしお前の力で<br>姉ちゃんがそんなことになったらどうする。,param=chr_Lugina_young:Left:CHILD:0:0:0:0:0:0:0:0,#
*,type=HCHR_GRP00,param=chr_Hans_young:face:ai:$FACE_FadeTime:0:0:0:0:0:0:0,#
*,type=HCHR_TK10,msg=<speed=7>ね、<wait=1>姉様が…………,param=chr_Hans_young:Right:CHILD:0:0:0:0:0:0:OFS$30&0:0,#
*,type=HCHR_TK10,msg=英霊ってのは、<wait=1>そういうのをわかったうえで<br>強くなっていった連中だ。,param=chr_Lugina_young:Left:CHILD:0:0:0:0:0:0:0:0,#
*,type=HCHR_GRP00,param=chr_Lugina_young:face:ai:$FACE_FadeTime:0:0:0:0:0:0:0,#
*,type=HCHR_TK10,msg=覚悟もねぇ奴に、<wait=1>そいつらが<br>自分たちの力を預けるわけねぇだろ！,param=chr_Lugina_young:Left:CHILD:0:0:0:0:0:0:0:0,#
*,type=HCHR_TK01,param=all:skipmask:0:0:0:0:0:0:0:0:0,#
*,type=HCHR_FDM00,param=all:MSK$off:0:0:0:0:0:0:0:0:0,#
*,type=HCHR_FDM00,param=chr_Lugina_young:MSK$on:0:0:0:0:0:0:0:0:0,#
*,type=HCHR_GRP00,param=chr_Hans_young:face:bi:$FACE_FadeTime:0:0:0:0:0:0:0,#
*,type=HCHR_SHK00,param=chr_Hans_young:10:0.02:0.05:0:0:0:0:0:0:0,#
*,type=WAIT_0000,param=0.55:0:0:0:0:0:0:0:0:0:0,#
*,type=HCHR_GRP00,param=chr_Hans_young:face:ai:$FACE_FadeTime:0:0:0:0:0:0:0,#
*,type=HCHR_TK10,msg=<speed=7>玄盛……<wait=3><br>俺には覚悟がないから……？,param=chr_Hans_young:Right:CHILD:0:0:0:0:0:0:OFS$30&0:0,#
*,type=HCHR_TK01,param=all:skipmask:0:0:0:0:0:0:0:0:0,#
*,type=SE_0000,param=103:0:0:0:0:0:0:0:0:0:0,#
*,type=WAIT_0000,param=0.5:0:0:0:0:0:0:0:0:0:0,#
*,type=SPKG_0000,param=hinotama1:sc_aura02_loopwhite.vfxb:49:320:470:0.09:0:0:0:0:0,#
*,type=SPKG_0002,param=hinotama:0:0:0:0:0:0:0:0:0:0,#
*,type=WAIT_0000,param=0.05:0:0:0:0:0:0:0:0:0:0,#
*,type=SPKG_0000,param=hinotama2:sc_aura02_loopwhite.vfxb:48:320:480:0.08:0:0:0:0:0,#
*,type=SPKG_0002,param=hinotama1:0:0:0:0:0:0:0:0:0:0,#
*,type=WAIT_0000,param=0.05:0:0:0:0:0:0:0:0:0:0,#
*,type=SPKG_0000,param=hinotama3:sc_aura02_loopwhite.vfxb:47:320:490:0.07:0:0:0:0:0,#
*,type=SPKG_0002,param=hinotama2:0:0:0:0:0:0:0:0:0:0,#
*,type=WAIT_0000,param=0.05:0:0:0:0:0:0:0:0:0:0,#
*,type=SPKG_0000,param=hinotama4:sc_aura02_loopwhite.vfxb:46:320:500:0.06:0:0:0:0:0,#
*,type=SPKG_0002,param=hinotama3:0:0:0:0:0:0:0:0:0:0,#
*,type=WAIT_0000,param=0.05:0:0:0:0:0:0:0:0:0:0,#
*,type=SPKG_0000,param=hinotama5:sc_aura02_loopwhite.vfxb:45:320:510:0.05:0:0:0:0:0,#
*,type=SPKG_0002,param=hinotama4:0:0:0:0:0:0:0:0:0:0,#
*,type=WAIT_0000,param=0.05:0:0:0:0:0:0:0:0:0:0,#
*,type=SPKG_0000,param=hinotama6:sc_aura02_loopwhite.vfxb:44:320:520:0.04:0:0:0:0:0,#
*,type=SPKG_0002,param=hinotama5:0:0:0:0:0:0:0:0:0:0,#
*,type=WAIT_0000,param=0.05:0:0:0:0:0:0:0:0:0:0,#
*,type=SPKG_0000,param=hinotama7:sc_aura02_loopwhite.vfxb:43:320:530:0.03:0:0:0:0:0,#
*,type=SPKG_0002,param=hinotama6:0:0:0:0:0:0:0:0:0:0,#
*,type=WAIT_0000,param=0.05:0:0:0:0:0:0:0:0:0:0,#
*,type=SPKG_0000,param=hinotama8:sc_aura02_loopwhite.vfxb:42:320:540:0.02:0:0:0:0:0,#
*,type=SPKG_0002,param=hinotama7:0:0:0:0:0:0:0:0:0:0,#
*,type=WAIT_0000,param=0.05:0:0:0:0:0:0:0:0:0:0,#
*,type=SPKG_0000,param=hinotama9:sc_aura02_loopwhite.vfxb:41:320:550:0.01:0:0:0:0:0,#
*,type=SPKG_0002,param=hinotama8:0:0:0:0:0:0:0:0:0:0,#
*,type=WAIT_0000,param=1.5:0:0:0:0:0:0:0:0:0:0,#
*,type=SPKG_0002,param=hinotama9:0:0:0:0:0:0:0:0:0:0,#
*,type=WAIT_0000,param=1:0:0:0:0:0:0:0:0:0:0,#
*,type=HCHR_GRP00,param=chr_Hans_young:face:bi:$FACE_FadeTime:0:0:0:0:0:0:0,#
*,type=HCHR_EFC00,param=Eff_Manp_24:chr_Hans_young:manpu_1_re:0:SS5$$MANP_surprise_black_d_02:0:0:0:0:XFLIP$SET:0,#
*,type=WAIT_0000,param=1.5:0:0:0:0:0:0:0:0:0:0,#
*,type=PICT_0004,param=Eff_Manp_24:0:0:0:0:0:0:0:0:0:0,#
*,type=HCHR_GRP00,param=chr_Hans_young:face:ku:$FACE_FadeTime:0:0:0:0:0:0:0,#
*,type=HCHR_TK10,msg=<speed=3>――――っ！,param=chr_Hans_young:Right:CHILD:0:0:0:0:0:0:0:0,#
*,type=HCHR_TK01,param=all:skipmask:0:0:0:0:0:0:0:0:0,#
*,type=SE_0000,param=345:0:0:0:0:0:0:0:0:0:0,#
*,type=HCHR_POS00,param=chr_Hans_young:OUT$right:T$0.1:0:0:0:0:0:0:0:0,#
*,type=STOP,param=0:0:0:0:0:0:0:0:0:0:0,#
*,type=HCHR_GRP00,param=chr_Lugina_young:face:bi:$FACE_FadeTime:0:0:0:0:0:0:0,#
*,type=HCHR_TK10,msg=あ！<wait=3>勝手に行くな馬鹿！,param=chr_Lugina_young:Left:BASIC:0:0:0:0:0:0:0:0,#
*,type=HCHR_TK01,param=all:skipmask:0:0:0:0:0:0:0:0:0,#
*,type=BGM_0001,param=2:0:0:0:0:0:0:0:0:0:0,#
*,type=BGM_0000,param=1052:1.5:2:0:0:0:0:0:0:0:0,#
*,type=WAIT_0000,param=2:0:0:0:0:0:0:0:0:0:0,#
*,type=HCHR_FDM00,param=chr_Yurika_medium:MSK$off:0.5:0:0:0:0:0:0:0:0,#
*,type=HCHR_FDM00,param=chr_Lugina_young:MSK$on:0.5:0:0:0:0:0:0:0:0,#
*,type=HCHR_GRP00,param=chr_Yurika_medium:face:fu:0:0:0:0:0:0:0:0,#
*,type=HCHR_POS00,param=chr_Yurika_medium:IN$right:T$0.5:$OFS_Right:0:0:0:0:0:0:0,#
*,type=STOP,param=0:0:0:0:0:0:0:0:0:0:0,#
*,type=WAIT_0000,param=0.5:0:0:0:0:0:0:0:0:0:0,#
*,type=HCHR_TK10,msg=ご安心ください。<wait=3><br>あちらは会洞寺とは逆です。,param=chr_Yurika_medium:Right:BASIC:0:0:0:0:0:0:0:0,#
*,type=HCHR_GRP00,param=chr_Lugina_young:face:tere:$FACE_FadeTime:0:0:0:0:0:0:0,#
*,type=HCHR_TK10,msg=<speed=9>………………<wait=1>悪ィ。,param=chr_Lugina_young:Left:BASIC:0:0:0:0:0:0:0:0,#
*,type=HCHR_TK10,msg=どうして謝るのです？,param=chr_Yurika_medium:Right:BASIC:0:0:0:0:0:0:0:0,#
*,type=HCHR_TK10,msg=あの子のために<br>言ってくださったのでしょう。,param=chr_Yurika_medium:Right:BASIC:0:0:0:0:0:0:0:0,#
*,type=HCHR_TK10,msg=むしろこちらがお礼を言わねばなりません。,param=chr_Yurika_medium:Right:BASIC:0:0:0:0:0:0:0:0,#
*,type=HCHR_GRP00,param=chr_Yurika_medium:face:ki:$FACE_FadeTime:0:0:0:0:0:0:0,#
*,type=HCHR_TK10,msg=あの子を導いてくださり<br>ありがとうございます。,param=chr_Yurika_medium:Right:BASIC:0:0:0:0:0:0:0:0,#
*,type=HCHR_TK01,param=all:skipmask:0:0:0:0:0:0:0:0:0,#
*,type=HCHR_FDM00,param=chr_Lugina_young:MSK$off:0:0:0:0:0:0:0:0:0,#
*,type=HCHR_FDM00,param=chr_Yurika_medium:MSK$on:0:0:0:0:0:0:0:0:0,#
*,type=HCHR_GRP00,param=chr_Lugina_young:face:bi:$FACE_FadeTime:0:0:0:0:0:0:0,#
*,type=HCHR_EFC00,param=Eff_Manp_16:chr_Lugina_young:manpu_1:0:SS5$$MANP_surprise_black_d:0:0:0:0:0:0,#
*,type=WAIT_0000,param=1:0:0:0:0:0:0:0:0:0:0,#
*,type=PICT_0004,param=Eff_Manp_16:0:0:0:0:0:0:0:0:0:0,#
*,type=HCHR_GRP00,param=chr_Lugina_young:face:tere:$FACE_FadeTime:0:0:0:0:0:0:0,#
*,type=HCHR_TK10,msg=……<wait=1>そんなんじゃねーよ。,param=chr_Lugina_young:Left:BASIC:0:0:0:0:0:0:0:0,#
*,type=HCHR_TK01,param=all:skipmask:0:0:0:0:0:0:0:0:0,#
*,type=HCHR_GRP00,param=chr_Yurika_medium:face:fu:$FACE_FadeTime:0:0:0:0:0:0:0,#
*,type=WAIT_0000,param=0.5:0:0:0:0:0:0:0:0:0:0,#
*,type=HCHR_GRP00,param=chr_Lugina_young:face:fu:$FACE_FadeTime:0:0:0:0:0:0:0,#
*,type=HCHR_TK10,msg=ガキを連れ戻して来る。,param=chr_Lugina_young:Left:BASIC:0:0:0:0:0:0:0:0,#
*,type=HCHR_TK01,param=all:skipmask:0:0:0:0:0:0:0:0:0,#
*,type=SE_0000,param=345:0:0:0:0:0:0:0:0:0:0,#
*,type=HCHR_FDM00,param=chr_Lugina_young:MSK$on:0.3:0:0:0:0:0:0:0:0,#
*,type=HCHR_FDM00,param=chr_Yurika_medium:MSK$off:0.3:0:0:0:0:0:0:0:0,#
*,type=HCHR_POS00,param=chr_Lugina_young:OUT$right:$CHARA_FadeTime:0:0:0:0:0:0:0:0,#
*,type=STOP,param=0:0:0:0:0:0:0:0:0:0:0,#
*,type=WAIT_0000,param=1:0:0:0:0:0:0:0:0:0:0,#
*,type=HCHR_TK10,msg=半雛、<wait=1>あなたなら<br>きっとできるはずです。,param=chr_Yurika_medium:Right:BASIC:0:0:0:0:0:0:0:0,#
*,type=HCHR_TK10,msg=あなたの中にはもう<br>強き心がちゃんと宿っているのですから。,param=chr_Yurika_medium:Right:BASIC:0:0:0:0:0:0:0:0,#
*,type=HCHR_TK01,param=all:skipmask:0:0:0:0:0:0:0:0:0,#
*,type=FADEOUT_000,param=1.5:$BGBLACK_Color:0:0:0:0:0:0:0:0:0,#
*,type=BGM_0001,param=1.5:0:0:0:0:0:0:0:0:0:0,#
*,type=WAIT_0000,param=2:0:0:0:0:0:0:0:0:0:0,#
*,type=GAM_CHGSCENE,param=MissionSelect:0:0:0:0:0:0:0:0:0:0,#

*,type=SYSED_00,param=0:0:0:0:0:0:0:0:0:0:0,#



