﻿ScriptCmd ver 1.1.1:ストクエスクリプト_003_リリス.xlsm/story003-04-03/story003-04-03.csv

*,type=SYSST_00,param=0:0:0:0:0:0:0:0:0:0:0,#
*,type=CMD_STOP,param=0:0:0:0:0:0:0:0:0:0:0,#
*,type=SYSST_01,param=0:0:0:0:0:0:0:0:0:0:0,#


*,type=PICT_0000,param=bg_02:battle_bg_sq_003_02.jpg:1:bg$202030102:0:0:0:0:0:0:0,#
*,type=HCHR_FDM00,param=chr_Vishra:MSK$on:0:0:0:0:0:0:0:0:0,#
*,type=FADEIN_000,param=1.5:00&00&00:0:0:0:0:0:0:0:0:0,#
*,type=BGM_0000,param=35:1.5:0:0:0:0:0:0:0:0:0,#
*,type=WAIT_0000,param=2.5:0:0:0:0:0:0:0:0:0:0,#
*,type=HCHR_ENT00,param=chr_Remiss:レミス:N$chara_bf2_78:$POS_Center:TYPE$middle:Z$10:0:0:0:0:0,#
*,type=HCHR_ENT00,param=chr_Ruse:ルシェ:N$chara_bf2_79:$POS_Center:TYPE$middle:Z$10:0:0:0:0:0,#
*,type=HCHR_ENT00,param=chr_Lilith:リリス:N$chara_bf2_80:$POS_Center:TYPE$middle:Z$10:0:0:0:0:0,#
*,type=HCHR_ENT00,param=chr_Leese:レーゼ:N$chara_bf2_77:$POS_Center:TYPE$middle:Z$9:0:0:0:0:0,#
*,type=HCHR_POS00,param=chr_Leese:FADEIN:$CHARA_FadeTime:$OFS_Center:0:0:0:0:0:0:0,#
*,type=STOP,param=0:0:0:0:0:0:0:0:0:0:0,#
*,type=WAIT_0000,param=0.5:0:0:0:0:0:0:0:0:0:0,#
*,type=HCHR_TK00,msg=<speed=7>…………,param=chr_Leese:$Center4:0:0:0:0:0:0:0:0:0,#
*,type=HCHR_TK00,msg=ようやく、終わったのね。,param=chr_Leese:$Center12:0:0:0:0:0:0:0:0:0,#
*,type=HCHR_TK00,msg=みんなありがとう。<br>私に付き合ってくれて…,param=chr_Leese:$Center12:0:0:0:0:0:0:0:0:0,#
*,type=HCHR_TK01,param=ALL:0:0:0:0:0:0:0:0:0:0,#
*,type=WAIT_0000,param=0.3:0:0:0:0:0:0:0:0:0:0,#
*,type=HCHR_FDM00,param=chr_Leese:MSK$on:0.3:0:0:0:0:0:0:0:0,#
*,type=HCHR_FDM00,param=chr_Lilith:MSK$off:0.3:0:0:0:0:0:0:0:0,#
*,type=HCHR_POS00,param=chr_Lilith:FADEIN:$CHARA_FadeTime:$OFS_Right_Triple:0:0:0:0:0:0:0,#
*,type=WAIT_0000,param=0.3:0:0:0:0:0:0:0:0:0:0,#
*,type=SE_0000,param=309:0:0:0:0:0:0:0:0:0:0,#
*,type=SE_0000,param=312:0:0:0:0:0:0:0:0:0:0,#
*,type=WAIT_0000,param=0.5:0:0:0:0:0:0:0:0:0:0,#
*,type=HCHR_TK00,msg=我々はマスターの剣。,param=chr_Lilith:$Right10_FixedTriple:0:0:0:0:0:0:0:0:0,#
*,type=HCHR_TK01,param=ALL:skipmask:0:0:0:0:0:0:0:0:0,#
*,type=HCHR_FDM00,param=chr_Lilith:MSK$on:0.3:0:0:0:0:0:0:0:0,#
*,type=HCHR_FDM00,param=chr_Ruse:MSK$off:0.3:0:0:0:0:0:0:0:0,#
*,type=HCHR_GRP00,param=chr_Ruse:face:ki:$FACE_FadeTime:0:0:0:0:0:0:0,#
*,type=HCHR_POS00,param=chr_Ruse:FADEIN:$CHARA_FadeTime:$OFS_Left_Triple:0:0:0:0:0:0:0,#
*,type=WAIT_0000,param=0.3:0:0:0:0:0:0:0:0:0:0,#
*,type=SE_0000,param=309:0:0:0:0:0:0:0:0:0:0,#
*,type=SE_0000,param=312:0:0:0:0:0:0:0:0:0:0,#
*,type=WAIT_0000,param=0.5:0:0:0:0:0:0:0:0:0:0,#
*,type=HCHR_TK00,msg=マスターが嬉しい…<wait=1.5><br>私たちも嬉しい。,param=chr_Ruse:$Left10_FixedTriple:0:0:0:0:0:0:0:0:0,#
*,type=HCHR_TK00,msg=二人とも…,param=chr_Leese:$Center6:0:0:0:0:0:0:0:0:0,#
*,type=HCHR_GRP00,param=chr_Leese:face:ki:$FACE_FadeTime:0:0:0:0:0:0:0,#
*,type=HCHR_TK00,msg=けど私は、アナタたちのおかげで戦えた。<wait=1.5><br>だから、お礼だけは言わせてね…,param=chr_Leese:$Center20:0:0:0:0:0:0:0:0:0,#
*,type=HCHR_TK01,param=ALL:skipmask:0:0:0:0:0:0:0:0:0,#
*,type=WAIT_0000,param=0.2:0:0:0:0:0:0:0:0:0:0,#
*,type=BGM_0001,param=1:0:0:0:0:0:0:0:0:0:0,#
*,type=HCHR_POS00,param=chr_Leese:FADEOUT:$CHARA_FadeTime:0:0:0:0:0:0:0:0,#
*,type=HCHR_POS00,param=chr_Lilith:FADEOUT:$CHARA_FadeTime:0:0:0:0:0:0:0:0,#
*,type=HCHR_POS00,param=chr_Ruse:FADEOUT:$CHARA_FadeTime:0:0:0:0:0:0:0:0,#
*,type=STOP,param=0:0:0:0:0:0:0:0:0:0:0,#
*,type=WAIT_0000,param=1.2:0:0:0:0:0:0:0:0:0:0,#
*,type=SE_0000,param=211:0:0:0:0:0:0:0:0:0:0,#
*,type=MSKS_0000,param=Vishra_mask1:255&0&0:64:Z$7:T$0.05:0:0:0:0:0:0,#
*,type=WAIT_0000,param=0.05:0:0:0:0:0:0:0:0:0:0,#
*,type=MSKS_0002,param=Vishra_mask1:T$0.3:0:0:0:0:0:0:0:0:0,#
*,type=WAIT_0000,param=0.8:0:0:0:0:0:0:0:0:0:0,#
*,type=HCHR_FDM00,param=chr_Remiss:MSK$off:0:0:0:0:0:0:0:0:0,#
*,type=HCHR_EFC00,param=Eff_Manp_17:chr_Remiss:manpu_1:0:SS5$$MANP_surprise_red_a:0:1:0:0:0:0,#
*,type=HCHR_POS00,param=chr_Remiss:FADEIN:$CHARA_FadeTime:$OFS_Center:0:0:0:0:0:0:0,#
*,type=WAIT_0000,param=0.6:0:0:0:0:0:0:0:0:0:0,#
*,type=HCHR_GRP00,param=chr_Remiss:face:do:$FACE_FadeTime:0:0:0:0:0:0:0,#
*,type=HCHR_TK00,msg=ヴィシュラの<br>敵性反応をカクニン…！,param=chr_Remiss:$Center12:0:0:0:0:0:0:0:0:0,#
*,type=HCHR_TK01,param=ALL:0:0:0:0:0:0:0:0:0:0,#
*,type=PICT_0004,param=Eff_Manp_17:0:0:0:0:0:0:0:0:0:0,#
*,type=HCHR_POS00,param=chr_Remiss:FADEOUT:T$0.15:0:0:0:0:0:0:0:0,#
*,type=WAIT_0000,param=1:0:0:0:0:0:0:0:0:0:0,#
*,type=HCHR_ENT00,param=chr_Vishra:ヴィシュラ:N$chara_bf2_81:$POS_Center:TYPE$middle:Z$10:0:0:0:0:0,#
*,type=STOP,param=0:0:0:0:0:0:0:0:0:0:0,#
*,type=HCHR_FDM00,param=chr_Vishra:MSK$on:0:0:0:0:0:0:0:0:0,#
*,type=HCHR_PRM00,param=chr_Vishra:Z$6:0:0:0:0:0:0:0:0:0,#
*,type=QUAK_0001,param=3:0.05:0:0:0:0:0:0:0:0:0,#
*,type=SE_0000,param=319:0:0:0:0:0:0:0:0:0:0,#
*,type=BGM_0000,param=1011:0:0:0:0:0:0:0:0:0:0,#
*,type=HCHR_POS00,param=chr_Vishra:IN$bottom$20:T$2:$OFS_Center:0:0:0:0:0:0:0,#
*,type=MSKS_0000,param=Vishra_mask1:255&0&0:64:Z$7:T$2:0:0:0:0:0:0,#
*,type=WAIT_0000,param=1.75:0:0:0:0:0:0:0:0:0:0,#
*,type=HCHR_FDM00,param=chr_Vishra:MSK$off:0.3:0:0:0:0:0:0:0:0,#
*,type=WAIT_0000,param=0.1:0:0:0:0:0:0:0:0:0:0,#
*,type=SE_0000,param=318:0:0:0:0:0:0:0:0:0:0,#
*,type=MSKS_0000,param=Vishra_mask2:255&0&0:124:Z$7:T$0.15:0:0:0:0:0:0,#
*,type=WAIT_0000,param=0.05:0:0:0:0:0:0:0:0:0:0,#
*,type=HCHR_GRP00,param=chr_Vishra:face:su:0.15:0:0:0:0:0:0:0,#
*,type=WAIT_0000,param=0.05:0:0:0:0:0:0:0:0:0:0,#
*,type=MSKS_0002,param=Vishra_mask2:T$0.3:0:0:0:0:0:0:0:0:0,#
*,type=WAIT_0000,param=0.05:0:0:0:0:0:0:0:0:0:0,#
*,type=EFFECT_GP,param=60010013:320:568:0:0:70:0:0:0:0:0,#
*,type=WAIT_0000,param=0.1:0:0:0:0:0:0:0:0:0:0,#
*,type=HCHR_GRP00,param=chr_Vishra:face:fu:0.5:0:0:0:0:0:0:0,#
*,type=WAIT_0000,param=0.1:0:0:0:0:0:0:0:0:0:0,#
*,type=MSKS_0002,param=Vishra_mask1:T$0.6:0:0:0:0:0:0:0:0:0,#
*,type=QUAK_0002,param=0:0:0:0:0:0:0:0:0:0:0,#
*,type=WAIT_0000,param=1:0:0:0:0:0:0:0:0:0:0,#
*,type=HCHR_POS00,param=chr_Vishra:FADEOUT:T$0.1:0:0:0:0:0:0:0:0,#
*,type=WAIT_0000,param=0.5:0:0:0:0:0:0:0:0:0:0,#
*,type=HCHR_GRP00,param=chr_Leese:face:bi:0:0:0:0:0:0:0:0,#
*,type=HCHR_POS00,param=chr_Leese:FADEIN:$CHARA_FadeTime:$OFS_Center:0:0:0:0:0:0:0,#
*,type=WAIT_0000,param=0.3:0:0:0:0:0:0:0:0:0:0,#
*,type=HCHR_TK00,msg=そんな……!?,param=chr_Leese:$Center6:0:0:0:0:0:0:0:0:0,#
*,type=HCHR_GRP00,param=chr_Leese:face:do:0:0:0:0:0:0:0:0,#
*,type=HCHR_TK00,msg=ありえない！<wait=1.5><br>ジェネレーターをやられて動ける筈が…！,param=chr_Leese:$Center20:0:0:0:0:0:0:0:0:0,#
*,type=HCHR_TK01,param=ALL:skipmask:0:0:0:0:0:0:0:0:0,#
*,type=MSKS_0000,param=bgBlackMask:$BGBLACK_Color:120:Z$50:T$1:0:0:0:0:0:0,#
*,type=SE_0000,param=213:0:0:0:0:0:0:0:0:0:0,#
*,type=WAIT_0000,param=2:0:0:0:0:0:0:0:0:0:0,#
*,type=HCHR_FDM00,param=chr_Leese:MSK$off:0.3:0:0:0:0:0:0:0:0,#
*,type=WAIT_0000,param=0.2:0:0:0:0:0:0:0:0:0:0,#
*,type=HCHR_GRP00,param=chr_Leese:face:fu:0:0:0:0:0:0:0:0,#
*,type=HCHR_EFC00,param=Eff_Manp_18:chr_Leese:manpu_1:0:SS5$$MANP_surprise_red_b:0:1:0:0:0:0,#
*,type=WAIT_0000,param=0.8:0:0:0:0:0:0:0:0:0:0,#
*,type=PICT_0004,param=Eff_Manp_18:0:0:0:0:0:0:0:0:0:0,#
*,type=MSKS_0002,param=bgBlackMask:T$1:0:0:0:0:0:0:0:0:0,#
*,type=HCHR_TK00,msg=工場の電力が…まさか…！,param=chr_Leese:$Center12:0:0:0:0:0:0:0:0:0,#
*,type=SE_0000,param=376:0:0:0:0:0:0:0:0:0:0,#
*,type=WAIT_0000,param=0.5:0:0:0:0:0:0:0:0:0:0,#
*,type=HCHR_TK00,msg=クッ…みんな、散開して！<wait=1.5><br>奴が動き出す前に一気に叩く！,param=chr_Leese:$Center14:0:0:0:0:0:0:0:0:0,#
*,type=HCHR_TK01,param=ALL:skipmask:0:0:0:0:0:0:0:0:0,#
*,type=HCHR_POS00,param=chr_Leese:FADEOUT:T$0.1:0:0:0:0:0:0:0:0,#
*,type=WAIT_0000,param=0.4:0:0:0:0:0:0:0:0:0:0,#
*,type=HCHR_GRP00,param=chr_Remiss:face:do:0:0:0:0:0:0:0:0,#
*,type=HCHR_GRP00,param=chr_Ruse:face:do:0:0:0:0:0:0:0:0,#
*,type=STOP,param=0:0:0:0:0:0:0:0:0:0:0,#
*,type=HCHR_POS00,param=chr_Ruse:FADEIN:T$0.5:$OFS_Right:0:0:0:0:0:0:0,#
*,type=HCHR_POS00,param=chr_Remiss:FADEIN:$CHARA_FadeTime:$OFS_Left:0:0:0:0:0:0:0,#
*,type=WAIT_0000,param=0.3:0:0:0:0:0:0:0:0:0:0,#
*,type=HCHR_FDM00,param=chr_Remiss:MSK$off:0.2:0:0:0:0:0:0:0:0,#
*,type=WAIT_0000,param=0.2:0:0:0:0:0:0:0:0:0:0,#
*,type=HCHR_TK00,msg=メインフレームをスンダンする！,param=chr_Remiss:$Left16:0:0:0:0:0:0:0:0:0,#
*,type=HCHR_TK01,param=ALL:skipmask:0:0:0:0:0:0:0:0:0,#
*,type=WAIT_0000,param=0.2:0:0:0:0:0:0:0:0:0:0,#
*,type=SE_0000,param=218:0:0:0:0:0:0:0:0:0:0,#
*,type=EFFECT_GP,param=60010012:320:568:0:0:70:0:0:0:0:0,#
*,type=HCHR_POS00,param=chr_Remiss:FADEOUT:T$0.2:0:0:0:0:0:0:0:0,#
*,type=QUAK_0000,param=0.04:6:15:15:0:0:0:0:0:0:0,#
*,type=HCHR_FDM00,param=chr_Ruse:MSK$off:0.5:0:0:0:0:0:0:0:0,#
*,type=STOP,param=0:0:0:0:0:0:0:0:0:0:0,#
*,type=WAIT_0000,param=0.2:0:0:0:0:0:0:0:0:0:0,#
*,type=HCHR_TK00,msg=支援射撃、展開…！,param=chr_Ruse:$Right10:0:0:0:0:0:0:0:0:0,#
*,type=HCHR_TK01,param=ALL:0:0:0:0:0:0:0:0:0:0,#
*,type=QUAK_0000,param=0.08:10:15:15:0:0:0:0:0:0:0,#
*,type=SE_0000,param=317:0:0:0:0:0:0:0:0:0:0,#
*,type=EFFECT_GP,param=60010008:320:568:0:0:70:0:0:0:0:0,#
*,type=WAIT_0000,param=0.15:0:0:0:0:0:0:0:0:0:0,#
*,type=SE_0000,param=342:0:0:0:0:0:0:0:0:0:0,#
*,type=EFFECT_GP,param=60010008:320:568:0:0:70:0:0:0:0:0,#
*,type=WAIT_0000,param=0.15:0:0:0:0:0:0:0:0:0:0,#
*,type=HCHR_POS00,param=chr_Ruse:FADEOUT:T$0.5:0:0:0:0:0:0:0:0,#
*,type=EFFECT_GP,param=60010008:320:568:0:0:70:0:0:0:0:0,#
*,type=WAIT_0000,param=1:0:0:0:0:0:0:0:0:0:0,#
*,type=HCHR_FDM00,param=chr_Vishra:MSK$on:0:0:0:0:0:0:0:0:0,#
*,type=HCHR_POS00,param=chr_Vishra:FADEIN:$CHARA_FadeTime:$OFS_Center:0:0:0:0:0:0:0,#
*,type=WAIT_0000,param=0.1:0:0:0:0:0:0:0:0:0:0,#
*,type=QUAK_0001,param=10:0.08:0:0:0:0:0:0:0:0:0,#
*,type=SE_0000,param=317:0:0:0:0:0:0:0:0:0:0,#
*,type=EFFECT_GP,param=60010008:320:568:0:0:70:0:0:0:0:0,#
*,type=WAIT_0000,param=0.2:0:0:0:0:0:0:0:0:0:0,#
*,type=SE_0000,param=317:0:0:0:0:0:0:0:0:0:0,#
*,type=EFFECT_GP,param=60010008:320:568:0:0:70:0:0:0:0:0,#
*,type=WAIT_0000,param=0.2:0:0:0:0:0:0:0:0:0:0,#
*,type=SE_0000,param=300:0:0:0:0:0:0:0:0:0:0,#
*,type=EFFECT_GP,param=60010008:320:568:0:0:70:0:0:0:0:0,#
*,type=WAIT_0000,param=1.2:0:0:0:0:0:0:0:0:0:0,#
*,type=QUAK_0002,param=0:0:0:0:0:0:0:0:0:0:0,#
*,type=QUAK_0001,param=6:0.06:0:0:0:0:0:0:0:0:0,#
*,type=HCHR_TK00,msg=<speed=3><size=30>グルアァァァァァッ!!,param=chr_Vishra:$Shout_M_C:nowait:0:0:0:0:0:0:0:0,#
*,type=SE_0000,param=319:0:0:0:0:0:0:0:0:0:0,#
*,type=CSYN_0002,param=0:0:0:0:0:0:0:0:0:0:0,#
*,type=HCHR_TK01,param=ALL:0:0:0:0:0:0:0:0:0:0,#
*,type=SE_0000,param=338:0:0:0:0:0:0:0:0:0:0,#
*,type=MSKS_0000,param=Vishra_flash1:255&0&0:220:Z$20:T$0.07:0:0:0:0:0:0,#
*,type=WAIT_0000,param=0.07:0:0:0:0:0:0:0:0:0:0,#
*,type=MSKS_0002,param=Vishra_flash1:T$0.2:0:0:0:0:0:0:0:0:0,#
*,type=WAIT_0000,param=0.15:0:0:0:0:0:0:0:0:0:0,#
*,type=SE_0000,param=320:0:0:0:0:0:0:0:0:0:0,#
*,type=MSKS_0000,param=Vishra_flash2:255&0&0:200:Z$20:T$1:0:0:0:0:0:0,#
*,type=WAIT_0000,param=0.7:0:0:0:0:0:0:0:0:0:0,#
*,type=QUAK_0002,param=0:0:0:0:0:0:0:0:0:0:0,#
*,type=WAIT_0000,param=0.1:0:0:0:0:0:0:0:0:0:0,#
*,type=EFFECT_GP,param=60010013:320:568:0:0:70:0:0:0:0:0,#
*,type=QUAK_0000,param=0.04:6:15:15:0:0:0:0:0:0:0,#
*,type=WAIT_0000,param=0.2:0:0:0:0:0:0:0:0:0:0,#
*,type=MSKS_0002,param=Vishra_flash2:T$0.1:0:0:0:0:0:0:0:0:0,#
*,type=HCHR_POS00,param=chr_Vishra:FADEOUT:T$0.1:0:0:0:0:0:0:0:0,#
*,type=STOP,param=0:0:0:0:0:0:0:0:0:0:0,#
*,type=WAIT_0000,param=0.5:0:0:0:0:0:0:0:0:0:0,#
*,type=ZIN_0000,param=1:-100:0:0:0:0.3:0:0:0:0:0,#
*,type=HCHR_POS00,param=chr_Remiss:FADEIN:$CHARA_FadeTime:$OFS_Left:0:0:0:0:0:0:0,#
*,type=HCHR_EFC00,param=Eff_Manp_25a:chr_Remiss:manpu_1:0:SS5$$MANP_surprise_red_a_02:0:1:0:0:0:0,#
*,type=MSKS_0000,param=Vishra_flash1:255&0&0:128:Z$20:T$0.3:0:0:0:0:0:0,#
*,type=WAIT_0000,param=0.2:0:0:0:0:0:0:0:0:0:0,#
*,type=SE_0000,param=300:0:0:0:0:0:0:0:0:0:0,#
*,type=SE_0000,param=317:0:0:0:0:0:0:0:0:0:0,#
*,type=EFFECT_GP,param=60010007:320:568:0:0:70:0:0:0:0:0,#
*,type=WAIT_0000,param=0.1:0:0:0:0:0:0:0:0:0:0,#
*,type=QUAK_0000,param=0.04:5:15:15:0:0:0:0:0:0:0,#
*,type=PICT_0004,param=Eff_Manp_25a:0:0:0:0:0:0:0:0:0:0,#
*,type=HCHR_POS00,param=chr_Remiss:OUT$bottom$20:T$0.5:0:0:0:0:0:0:0:0,#
*,type=WAIT_0000,param=0.2:0:0:0:0:0:0:0:0:0:0,#
*,type=MSKS_0002,param=Vishra_flash1:T$0.2:0:0:0:0:0:0:0:0:0,#
*,type=WAIT_0000,param=0.5:0:0:0:0:0:0:0:0:0:0,#
*,type=ZIN_0000,param=1:100:0:0:0:0.3:0:0:0:0:0,#
*,type=HCHR_POS00,param=chr_Ruse:FADEIN:$CHARA_FadeTime:$OFS_Right:0:0:0:0:0:0:0,#
*,type=HCHR_EFC00,param=Eff_Manp_25a:chr_Ruse:manpu_1:0:SS5$$MANP_surprise_red_a_02:0:1:0:0:0:0,#
*,type=MSKS_0000,param=Vishra_flash2:255&0&0:128:Z$20:T$0.3:0:0:0:0:0:0,#
*,type=WAIT_0000,param=0.2:0:0:0:0:0:0:0:0:0:0,#
*,type=SE_0000,param=300:0:0:0:0:0:0:0:0:0:0,#
*,type=SE_0000,param=317:0:0:0:0:0:0:0:0:0:0,#
*,type=EFFECT_GP,param=60010007:320:568:0:0:70:0:0:0:0:0,#
*,type=WAIT_0000,param=0.1:0:0:0:0:0:0:0:0:0:0,#
*,type=QUAK_0000,param=0.04:5:15:15:0:0:0:0:0:0:0,#
*,type=PICT_0004,param=Eff_Manp_25a:0:0:0:0:0:0:0:0:0:0,#
*,type=HCHR_POS00,param=chr_Ruse:OUT$bottom$20:T$0.5:0:0:0:0:0:0:0:0,#
*,type=WAIT_0000,param=0.2:0:0:0:0:0:0:0:0:0:0,#
*,type=MSKS_0002,param=Vishra_flash2:T$0.2:0:0:0:0:0:0:0:0:0,#
*,type=WAIT_0000,param=0.5:0:0:0:0:0:0:0:0:0:0,#
*,type=HCHR_ENT00,param=chr_Leese:レーゼ:N$chara_bf2_77:$POS_Center:TYPE$middle:Z$10:0:0:0:0:0,#
*,type=HCHR_ENT00,param=chr_Lilith:リリス:N$chara_bf2_80:$POS_Center:TYPE$middle:Z$10:0:0:0:0:0,#
*,type=HCHR_GRP00,param=chr_Leese:face:ku:0:0:0:0:0:0:0:0,#
*,type=STOP,param=0:0:0:0:0:0:0:0:0:0:0,#
*,type=ZIN_0000,param=1:0:0:0:0:0.5:0:0:0:0:0,#
*,type=HCHR_POS00,param=chr_Leese:FADEIN:T$0.5:$OFS_Center:0:0:0:0:0:0:0,#
*,type=STOP,param=0:0:0:0:0:0:0:0:0:0:0,#
*,type=HCHR_TK00,msg=<speed=3>レミス！<wait=3><br>ルシェ！,param=chr_Leese:$Shout_S_C:0:0:0:0:0:0:0:0:0,#
*,type=HCHR_TK01,param=ALL:0:0:0:0:0:0:0:0:0:0,#
*,type=WAIT_0000,param=0.2:0:0:0:0:0:0:0:0:0:0,#
*,type=HCHR_GRP00,param=chr_Leese:face:ku:$FACE_FadeTime:0:0:0:0:0:0:0,#
*,type=HCHR_FDM00,param=chr_Leese:MSK$on:0.3:0:0:0:0:0:0:0:0,#
*,type=SE_0000,param=319:0:0:0:0:0:0:0:0:0:0,#
*,type=QUAK_0000,param=0.08:15:15:15:0:0:0:0:0:0:0,#
*,type=WAIT_0000,param=1.5:0:0:0:0:0:0:0:0:0:0,#
*,type=HCHR_POS00,param=chr_Leese:FADEIN:$CHARA_FadeTime:$OFS_Center:0:0:0:0:0:0:0,#
*,type=STOP,param=0:0:0:0:0:0:0:0:0:0:0,#
*,type=WAIT_0000,param=0.2:0:0:0:0:0:0:0:0:0:0,#
*,type=HCHR_GRP00,param=chr_Leese:face:bi:$FACE_FadeTime:0:0:0:0:0:0:0,#
*,type=HCHR_TK00,msg=しまっ…,param=chr_Leese:$Center4:nowait:once:0:0:0:0:0:0:0,#
*,type=SE_0000,param=320:0:0:0:0:0:0:0:0:0:0,#
*,type=WAIT_0000,param=0.1:0:0:0:0:0:0:0:0:0:0,#
*,type=FADEOUT_000,param=0.95:255&0&0:0:0:0:0:0:0:0:0:0,#
*,type=HCHR_FDM00,param=ALL:MSK$on:0.95:0:0:0:0:0:0:0:0,#
*,type=WAIT_0000,param=0.75:0:0:0:0:0:0:0:0:0:0,#
*,type=HCHR_TK01,param=ALL:0:0:0:0:0:0:0:0:0:0,#
*,type=HCHR_GRP00,param=chr_Leese:face:ku:0:0:0:0:0:0:0:0,#
*,type=HCHR_GRP00,param=chr_Lilith:face:do:0:0:0:0:0:0:0:0,#
*,type=HCHR_PRM00,param=chr_Leese:Z$9:0:0:0:0:0:0:0:0:0,#
*,type=HCHR_POS00,param=chr_Lilith:IN$right$250:T$0.15:$OFS_Center:0:0:0:0:0:0:0,#
*,type=HCHR_POS00,param=chr_Leese:IN$left$160:$CHARA_FadeTime:$OFS_Right:0:0:0:0:0:0:0,#
*,type=SE_0000,param=139:0:0:0:0:0:0:0:0:0:0,#
*,type=SE_0000,param=309:0:0:0:0:0:0:0:0:0:0,#
*,type=WAIT_0000,param=0.1:0:0:0:0:0:0:0:0:0:0,#
*,type=SE_0000,param=369:0:0:0:0:0:0:0:0:0:0,#
*,type=SE_0000,param=300:0:0:0:0:0:0:0:0:0:0,#
*,type=EFFECT_GP,param=60010007:320:568:0:0:70:0:0:0:0:0,#
*,type=QUAK_0000,param=0.04:12:15:15:0:0:0:0:0:0:0,#
*,type=MSKS_0000,param=bgRedMask:$BGBLACK_Color:0:Z$50:T$0.15:0:0:0:0:0:0,#
*,type=BGM_0001,param=3:0:0:0:0:0:0:0:0:0:0,#
*,type=WAIT_0000,param=0.6:0:0:0:0:0:0:0:0:0:0,#
*,type=MSKS_0002,param=bgRedMask:T$1:0:0:0:0:0:0:0:0:0,#
*,type=WAIT_0000,param=2:0:0:0:0:0:0:0:0:0:0,#
*,type=HCHR_FDM00,param=chr_Leese:MSK$off:0.2:0:0:0:0:0:0:0:0,#
*,type=HCHR_EFC00,param=Eff_Manp_17:chr_Leese:manpu_1:0:SS5$$MANP_surprise_red_a:0:1:0:0:0:0,#
*,type=WAIT_0000,param=0.7:0:0:0:0:0:0:0:0:0:0,#
*,type=PICT_0004,param=Eff_Manp_17:0:0:0:0:0:0:0:0:0:0,#
*,type=HCHR_GRP00,param=chr_Leese:face:bi:$FACE_FadeTime:0:0:0:0:0:0:0,#
*,type=HCHR_FDM00,param=chr_Lilith:MSK$on:0.15:0:0:0:0:0:0:0:0,#
*,type=HCHR_FDM00,param=chr_Leese:MSK$off:0.15:0:0:0:0:0:0:0:0,#
*,type=HCHR_TK00,msg=<speed=3>リリス!?,param=chr_Leese:$Shout_S_R:0:0:focusoff:0:0:0:0:0:0,#
*,type=HCHR_TK00,msg=<speed=7>マスターの生存を確認。,param=chr_Lilith:$Center12:0:0:0:0:0:0:0:0:0,#
*,type=HCHR_TK00,msg=<speed=9>任務を…続…コ…ゥ…ス……,param=chr_Lilith:$CenterNoTail14:nowait:0:0:0:0:0:0:0:0,#
*,type=BGM_0000,param=1020:2:0:0:0:0:0:0:0:0:0,#
*,type=SE_0000,param=215:0:0:0:0:0:0:0:0:0:0,#
*,type=WAIT_0000,param=0.5:0:0:0:0:0:0:0:0:0:0,#
*,type=HCHR_FDM00,param=chr_Lilith:MSK$on:1.5:0:0:0:0:0:0:0:0,#
*,type=HCHR_POS00,param=chr_Lilith:OUT$bottom$30:T$1.5:0:0:0:0:0:0:0:0,#
*,type=CSYN_0002,param=0:0:0:0:0:0:0:0:0:0:0,#
*,type=HCHR_TK01,param=ALL:skipmask:0:0:0:0:0:0:0:0:0,#
*,type=SE_0000,param=369:0:0:0:0:0:0:0:0:0:0,#
*,type=STOP,param=0:0:0:0:0:0:0:0:0:0:0,#
*,type=HCHR_GRP00,param=chr_Leese:face:ku:$FACE_FadeTime:0:0:0:0:0:0:0,#
*,type=HCHR_TK00,msg=しっかりして、リリス！,param=chr_Leese:$Right12:0:0:0:0:0:0:0:0:0,#
*,type=HCHR_TK01,param=ALL:skipmask:0:0:0:0:0:0:0:0:0,#
*,type=HCHR_POS00,param=chr_Leese:FADEOUT:T$0.1:0:0:0:0:0:0:0:0,#
*,type=WAIT_0000,param=0.6:0:0:0:0:0:0:0:0:0:0,#
*,type=HCHR_FDM00,param=chr_Ruse:MSK$on:0:0:0:0:0:0:0:0:0,#
*,type=HCHR_POS00,param=chr_Ruse:IN$bottom$30:T$1:$OFS_Right:0:0:0:0:0:0:0,#
*,type=SE_0000,param=215:0:0:0:0:0:0:0:0:0:0,#
*,type=WAIT_0000,param=0.5:0:0:0:0:0:0:0:0:0:0,#
*,type=HCHR_FDM00,param=chr_Ruse:MSK$off:0.2:0:0:0:0:0:0:0:0,#
*,type=WAIT_0000,param=0.2:0:0:0:0:0:0:0:0:0:0,#
*,type=HCHR_TK00,msg=自己保全システム…オールカット…<wait=1.5><br>戦線に復帰……,param=chr_Ruse:$Right16:nowait:0:0:0:0:0:0:0:0,#
*,type=SE_0000,param=376:0:0:0:0:0:0:0:0:0:0,#
*,type=CSYN_0002,param=0:0:0:0:0:0:0:0:0:0:0,#
*,type=HCHR_TK01,param=ALL:0:0:0:0:0:0:0:0:0:0,#
*,type=WAIT_0000,param=0.2:0:0:0:0:0:0:0:0:0:0,#
*,type=HCHR_PRM00,param=chr_Ruse:Z$9:0:0:0:0:0:0:0:0:0,#
*,type=HCHR_PRM00,param=chr_Remiss:Z$10:0:0:0:0:0:0:0:0:0,#
*,type=HCHR_FDM00,param=chr_Remiss:MSK$on:0:0:0:0:0:0:0:0:0,#
*,type=HCHR_POS00,param=chr_Remiss:IN$bottom$30:T$1:$OFS_Left:0:0:0:0:0:0:0,#
*,type=SE_0000,param=215:0:0:0:0:0:0:0:0:0:0,#
*,type=WAIT_0000,param=0.5:0:0:0:0:0:0:0:0:0:0,#
*,type=HCHR_FDM00,param=chr_Remiss:MSK$off:0.2:0:0:0:0:0:0:0:0,#
*,type=WAIT_0000,param=0.2:0:0:0:0:0:0:0:0:0:0,#
*,type=HCHR_TK00,msg=ブレード出力、低下…！<wait=1.5><br>戦闘…ゾッコウ……!!,param=chr_Remiss:$Left12:nowait:0:0:0:0:0:0:0:0,#
*,type=SE_0000,param=218:0:0:0:0:0:0:0:0:0:0,#
*,type=CSYN_0002,param=0:0:0:0:0:0:0:0:0:0:0,#
*,type=HCHR_TK01,param=ALL:skipmask:0:0:0:0:0:0:0:0:0,#
*,type=HCHR_POS00,param=chr_Remiss:FADEOUT:T$0.3:0:0:0:0:0:0:0:0,#
*,type=HCHR_POS00,param=chr_Ruse:FADEOUT:T$0.3:0:0:0:0:0:0:0:0,#
*,type=STOP,param=0:0:0:0:0:0:0:0:0:0:0,#
*,type=WAIT_0000,param=0.2:0:0:0:0:0:0:0:0:0:0,#
*,type=HCHR_GRP00,param=chr_Leese:face:ku:$FACE_FadeTime:0:0:0:0:0:0:0,#
*,type=HCHR_FDM00,param=chr_Leese:MSK$off:0:0:0:0:0:0:0:0:0,#
*,type=HCHR_POS00,param=chr_Leese:FADEIN:$CHARA_FadeTime:$OFS_Center:0:0:0:0:0:0:0,#
*,type=STOP,param=0:0:0:0:0:0:0:0:0:0:0,#
*,type=HCHR_TK00,msg=やめて！　もう戦わなくていい！<wait=1.5><br>それ以上はふたりとも…,param=chr_Leese:$Center16:0:0:0:0:0:0:0:0:0,#
*,type=HCHR_GRP00,param=chr_Leese:face:do:$FACE_FadeTime:0:0:0:0:0:0:0,#
*,type=HCHR_TK00,msg=もういい！　これは命令よ！<wait=1.5><br>ふたりとも、離脱しなさい！,param=chr_Leese:$Center14:0:0:0:0:0:0:0:0:0,#
*,type=HCHR_TK01,param=ALL:skipmask:0:0:0:0:0:0:0:0:0,#
*,type=HCHR_GRP00,param=chr_Leese:face:fu:$FACE_FadeTime:0:0:0:0:0:0:0,#
*,type=HCHR_PRM00,param=chr_Leese:Z$9:0:0:0:0:0:0:0:0:0,#
*,type=HCHR_PRM00,param=chr_Remiss:Z$10:0:0:0:0:0:0:0:0:0,#
*,type=HCHR_FDM00,param=chr_Leese:MSK$on:0.5:0:0:0:0:0:0:0:0,#
*,type=HCHR_FDM00,param=chr_Remiss:MSK$off:0.5:0:0:0:0:0:0:0:0,#
*,type=HCHR_POS00,param=chr_Leese:IN$left$160:T$0.5:$OFS_Right:0:0:0:0:0:0:0,#
*,type=HCHR_POS00,param=chr_Remiss:FADEIN:T$0.5:$OFS_Left:0:0:0:0:0:0:0,#
*,type=WAIT_0000,param=0.5:0:0:0:0:0:0:0:0:0:0,#
*,type=HCHR_TK00,msg=命令は……<wait=1.5>キョゼツする。<wait=1.5><br>敵はハカイしなければならない。,param=chr_Remiss:$Left16:nowait:0:0:0:0:0:0:0:0,#
*,type=SE_0000,param=368:0:0:0:0:0:0:0:0:0:0,#
*,type=CSYN_0002,param=0:0:0:0:0:0:0:0:0:0:0,#
*,type=HCHR_TK00,msg=ヴィシュラへの勝利、ワタシのシメイ。,param=chr_Remiss:$Left18:0:0:0:0:0:0:0:0:0,#
*,type=HCHR_GRP00,param=chr_Leese:face:ku:$FACE_FadeTime:0:0:0:0:0:0:0,#
*,type=HCHR_TK00,msg=勝利…!?,param=chr_Leese:$Right4:0:0:0:0:0:0:0:0:0,#
*,type=HCHR_TK00,msg=使命って、レミスあなた…!?,param=chr_Leese:$Right14:0:0:0:0:0:0:0:0:0,#
*,type=HCHR_TK01,param=ALL:skipmask:0:0:0:0:0:0:0:0:0,#
*,type=HCHR_PRM00,param=chr_Remiss:Z$9:0:0:0:0:0:0:0:0:0,#
*,type=HCHR_PRM00,param=chr_Leese:Z$10:0:0:0:0:0:0:0:0:0,#
*,type=HCHR_PRM00,param=chr_Ruse:Z$11:0:0:0:0:0:0:0:0:0,#
*,type=HCHR_POS00,param=chr_Remiss:FADEOUT:$CHARA_FadeTime:0:0:0:0:0:0:0:0,#
*,type=HCHR_FDM00,param=chr_Leese:MSK$on:0.3:0:0:0:0:0:0:0:0,#
*,type=HCHR_GRP00,param=chr_Ruse:face:ki:0:0:0:0:0:0:0:0,#
*,type=HCHR_POS00,param=chr_Ruse:FADEIN:$CHARA_FadeTime:$OFS_Left:0:0:0:0:0:0:0,#
*,type=HCHR_FDM00,param=chr_Ruse:MSK$off:0.3:0:0:0:0:0:0:0:0,#
*,type=WAIT_0000,param=0.5:0:0:0:0:0:0:0:0:0:0,#
*,type=HCHR_TK00,msg=わたし街の人たちを守りたい。,param=chr_Ruse:$Left14:0:0:0:0:0:0:0:0:0,#
*,type=HCHR_GRP00,param=chr_Leese:face:fu:$FACE_FadeTime:0:0:0:0:0:0:0,#
*,type=HCHR_TK00,msg=そんなことをしても<br>私はアナタを褒めたりしない！,param=chr_Leese:$Right14:0:0:0:0:0:0:0:0:0,#
*,type=HCHR_TK00,msg=良いから逃げなさい！,param=chr_Leese:$Right10:0:0:0:0:0:0:0:0:0,#
*,type=HCHR_TK01,param=ALL:skipmask:0:0:0:0:0:0:0:0:0,#
*,type=HCHR_TK01,param=ALL:skipmask:0:0:0:0:0:0:0:0:0,#
*,type=HCHR_FDM00,param=ALL:MSK$on:0.2:0:0:0:0:0:0:0:0,#
*,type=HCHR_FDM00,param=chr_Ruse:MSK$off:0.2:0:0:0:0:0:0:0:0,#
*,type=HCHR_PRM00,param=chr_Leese:Z$10:T$0:0:0:0:0:0:0:0:0,#
*,type=HCHR_PRM00,param=chr_Ruse:Z$11:T$0:0:0:0:0:0:0:0:0,#
*,type=HCHR_GRP00,param=chr_Ruse:face:fu:$FACE_FadeTime:0:0:0:0:0:0:0,#
*,type=STOP,param=0:0:0:0:0:0:0:0:0:0:0,#
*,type=HCHR_EFC00,param=Eff_Manp_11:chr_Ruse:manpu_1:0:SS5$$MANP_silence_a:0:1:0:0:0:0,#
*,type=WAIT_0000,param=1.2:0:0:0:0:0:0:0:0:0:0,#
*,type=PICT_0004,param=Eff_Manp_11:0:0:0:0:0:0:0:0:0:0,#
*,type=HCHR_PRM00,param=chr_Ruse:Z$10:T$0:0:0:0:0:0:0:0:0,#
*,type=STOP,param=0:0:0:0:0:0:0:0:0:0:0,#
*,type=HCHR_GRP00,param=chr_Ruse:face:ki:$FACE_FadeTime:0:0:0:0:0:0:0,#
*,type=HCHR_TK00,msg=マスターの言動パターン上<br>非常に高い確率で褒められると考えられる。,param=chr_Ruse:$Left20:0:0:0:0:0:0:0:0:0,#
*,type=HCHR_GRP00,param=chr_Leese:face:ai:$FACE_FadeTime:0:0:0:0:0:0:0,#
*,type=HCHR_TK00,msg=何を言ってるの、ルシェ!!,param=chr_Leese:$Right12:0:0:0:0:0:0:0:0:0,#
*,type=HCHR_TK01,param=ALL:skipmask:0:0:0:0:0:0:0:0:0,#
*,type=BGM_0001,param=2:0:0:0:0:0:0:0:0:0:0,#
*,type=WAIT_0000,param=0.2:0:0:0:0:0:0:0:0:0:0,#
*,type=HCHR_POS00,param=chr_Ruse:FADEOUT:$CHARA_FadeTime:0:0:0:0:0:0:0:0,#
*,type=HCHR_POS00,param=chr_Leese:FADEOUT:$CHARA_FadeTime:0:0:0:0:0:0:0:0,#
*,type=WAIT_0000,param=1:0:0:0:0:0:0:0:0:0:0,#
*,type=HCHR_GRP00,param=chr_Ruse:face:do:0:0:0:0:0:0:0:0,#
*,type=HCHR_PRM00,param=chr_Ruse:Z$9:0:0:0:0:0:0:0:0:0,#
*,type=HCHR_POS00,param=chr_Remiss:FADEIN:T$0.5:$OFS_Left:0:0:0:0:0:0:0,#
*,type=HCHR_POS00,param=chr_Ruse:FADEIN:T$0.5:$OFS_Right:0:0:0:0:0:0:0,#
*,type=WAIT_0000,param=0.5:0:0:0:0:0:0:0:0:0:0,#
*,type=SE_0000,param=309:0:0:0:0:0:0:0:0:0:0,#
*,type=WAIT_0000,param=0.5:0:0:0:0:0:0:0:0:0:0,#
*,type=BGM_0000,param=28:0:0:0:0:0:0:0:0:0:0,#
*,type=HCHR_TK00,msg=ヴィシュラが動く…,param=chr_Remiss:$Left10:0:0:0:0:0:0:0:0:0,#
*,type=HCHR_TK01,param=ALL:skipmask:0:0:0:0:0:0:0:0:0,#
*,type=HCHR_PRM00,param=chr_Remiss:Z$9:0:0:0:0:0:0:0:0:0,#
*,type=HCHR_FDM00,param=chr_Remiss:MSK$on:0.15:0:0:0:0:0:0:0:0,#
*,type=HCHR_FDM00,param=chr_Ruse:MSK$off:0.15:0:0:0:0:0:0:0:0,#
*,type=STOP,param=0:0:0:0:0:0:0:0:0:0:0,#
*,type=SE_0000,param=376:0:0:0:0:0:0:0:0:0:0,#
*,type=HCHR_TK00,msg=コードＲ－００１４を発議。,param=chr_Ruse:$Right14:0:0:0:0:0:0:0:0:0,#
*,type=HCHR_TK00,msg=<speed=9>…………</speed>ショウニンする。,param=chr_Remiss:$Left12:0:0:0:0:0:0:0:0:0,#
*,type=HCHR_TK01,param=ALL:0:0:0:0:0:0:0:0:0:0,#
*,type=WAIT_0000,param=0.7:0:0:0:0:0:0:0:0:0:0,#
*,type=SE_0000,param=335:0:0:0:0:0:0:0:0:0:0,#
*,type=SE_0000,param=342:0:0:0:0:0:0:0:0:0:0,#
*,type=MSKS_0000,param=Weak_flash:255&255&255:0:Z$50:T$0.25:0:0:0:0:0:0,#
*,type=QUAK_0000,param=0.08:5:7:7:0:0:0:0:0:0:0,#
*,type=WAIT_0000,param=0.1:0:0:0:0:0:0:0:0:0:0,#
*,type=HCHR_POS00,param=chr_Remiss:OUT$left$60:T$0.12:0:0:0:0:0:0:0:0,#
*,type=HCHR_POS00,param=chr_Ruse:OUT$right$60:T$0.12:0:0:0:0:0:0:0:0,#
*,type=WAIT_0000,param=0.2:0:0:0:0:0:0:0:0:0:0,#
*,type=MSKS_0002,param=Weak_flash:T$0.1:0:0:0:0:0:0:0:0:0,#
*,type=WAIT_0000,param=0.5:0:0:0:0:0:0:0:0:0:0,#
*,type=WAIT_0000,param=1:0:0:0:0:0:0:0:0:0:0,#
*,type=SE_0000,param=302:0:0:0:0:0:0:0:0:0:0,#
*,type=EFFECT_GP,param=60010008:302:568:0:0:70:0:0:0:0:0,#
*,type=QUAK_0000,param=0.04:6:15:15:0:0:0:0:0:0:0,#
*,type=WAIT_0000,param=0.6:0:0:0:0:0:0:0:0:0:0,#
*,type=SE_0000,param=302:0:0:0:0:0:0:0:0:0:0,#
*,type=EFFECT_GP,param=60010008:317:568:0:0:70:0:0:0:0:0,#
*,type=QUAK_0000,param=0.04:5:15:15:0:0:0:0:0:0:0,#
*,type=WAIT_0000,param=0.3:0:0:0:0:0:0:0:0:0:0,#
*,type=SE_0000,param=317:0:0:0:0:0:0:0:0:0:0,#
*,type=EFFECT_GP,param=60010008:317:568:0:0:70:0:0:0:0:0,#
*,type=QUAK_0000,param=0.04:6:15:15:0:0:0:0:0:0:0,#
*,type=WAIT_0000,param=0.8:0:0:0:0:0:0:0:0:0:0,#
*,type=SE_0000,param=335:0:0:0:0:0:0:0:0:0:0,#
*,type=MSKS_0000,param=Battle_flash1:255&255&255:0:Z$49:T$2.5:0:0:0:0:0:0,#
*,type=WAIT_0000,param=1.7:0:0:0:0:0:0:0:0:0:0,#
*,type=MSKS_0000,param=Battle_flash2:255&255&255:0:Z$50:T$0.3:0:0:0:0:0:0,#
*,type=WAIT_0000,param=0.15:0:0:0:0:0:0:0:0:0:0,#
*,type=SE_0000,param=300:0:0:0:0:0:0:0:0:0:0,#
*,type=EFFECT_GP,param=60010008:320:568:0:0:70:0:0:0:0:0,#
*,type=QUAK_0000,param=0.04:5:20:20:0:0:0:0:0:0:0,#
*,type=WAIT_0000,param=0.15:0:0:0:0:0:0:0:0:0:0,#
*,type=SE_0000,param=300:0:0:0:0:0:0:0:0:0:0,#
*,type=SE_0000,param=369:0:0:0:0:0:0:0:0:0:0,#
*,type=HCHR_POS00,param=chr_Vishra:FADEIN:T$0:$OFS_Left:0:0:0:0:0:0:0,#
*,type=HCHR_PRM00,param=chr_Remiss:XFLIP$SET:0:0:0:0:0:0:0:0:0,#
*,type=HCHR_GRP00,param=chr_Remiss:face:do:0:0:0:0:0:0:0:0,#
*,type=HCHR_POS00,param=chr_Remiss:FADEIN:T$0:$OFS_Right:0:0:0:0:0:0:0,#
*,type=WAIT_0000,param=0.05:0:0:0:0:0:0:0:0:0:0,#
*,type=MSKS_0002,param=Battle_flash1:T$0.2:0:0:0:0:0:0:0:0:0,#
*,type=MSKS_0002,param=Battle_flash2:T$0.2:0:0:0:0:0:0:0:0:0,#
*,type=SE_0000,param=139:0:0:0:0:0:0:0:0:0:0,#
*,type=WAIT_0000,param=0.1:0:0:0:0:0:0:0:0:0:0,#
*,type=HCHR_SHK00,param=chr_Vishra:3:0.04:0.25:0:0:0:0:0:0:0,#
*,type=HCHR_SHK00,param=chr_Remiss:3:0.04:0.25:0:0:0:0:0:0:0,#
*,type=WAIT_0000,param=0.32:0:0:0:0:0:0:0:0:0:0,#
*,type=EFFECT_GP,param=60010013:320:568:0:0:70:0:0:0:0:0,#
*,type=HCHR_FDM00,param=ALL:MSK$on:0.2:0:0:0:0:0:0:0:0,#
*,type=QUAK_0000,param=0.04:5:20:20:0:0:0:0:0:0:0,#
*,type=SE_0000,param=300:0:0:0:0:0:0:0:0:0:0,#
*,type=SE_0000,param=332:0:0:0:0:0:0:0:0:0:0,#
*,type=HCHR_POS00,param=chr_Remiss:FADEOUT:T$0.1:0:0:0:0:0:0:0:0,#
*,type=HCHR_POS00,param=chr_Vishra:FADEOUT:T$0.15:0:0:0:0:0:0:0:0,#
*,type=WAIT_0000,param=0.6:0:0:0:0:0:0:0:0:0:0,#
*,type=HCHR_FDM00,param=chr_Remiss:MSK$on:0:0:0:0:0:0:0:0:0,#
*,type=STOP,param=0:0:0:0:0:0:0:0:0:0:0,#
*,type=HCHR_SHK00,param=chr_Remiss:3:0.04:0.3:0:0:0:0:0:0:0,#
*,type=SE_0000,param=369:0:0:0:0:0:0:0:0:0:0,#
*,type=HCHR_POS00,param=chr_Remiss:IN$bottom$10:T$0.5:$OFS_Center:0:0:0:0:0:0:0,#
*,type=HCHR_FDM00,param=chr_Remiss:MSK$off:0.5:0:0:0:0:0:0:0:0,#
*,type=WAIT_0000,param=1:0:0:0:0:0:0:0:0:0:0,#
*,type=SE_0000,param=318:0:0:0:0:0:0:0:0:0:0,#
*,type=QUAK_0000,param=0.04:15:20:20:0:0:0:0:0:0:0,#
*,type=SE_0000,param=300:0:0:0:0:0:0:0:0:0:0,#
*,type=SE_0000,param=369:0:0:0:0:0:0:0:0:0:0,#
*,type=EFFECT_GP,param=60010007:320:568:0:0:70:0:0:0:0:0,#
*,type=WAIT_0000,param=0.2:0:0:0:0:0:0:0:0:0:0,#
*,type=SE_0000,param=300:0:0:0:0:0:0:0:0:0:0,#
*,type=SE_0000,param=369:0:0:0:0:0:0:0:0:0:0,#
*,type=EFFECT_GP,param=60010007:320:568:0:0:70:0:0:0:0:0,#
*,type=WAIT_0000,param=0.2:0:0:0:0:0:0:0:0:0:0,#
*,type=SE_0000,param=300:0:0:0:0:0:0:0:0:0:0,#
*,type=SE_0000,param=369:0:0:0:0:0:0:0:0:0:0,#
*,type=EFFECT_GP,param=60010007:320:568:0:0:70:0:0:0:0:0,#
*,type=HCHR_FDM00,param=chr_Remiss:MSK$on:0.15:0:0:0:0:0:0:0:0,#
*,type=HCHR_POS00,param=chr_Remiss:IN$top$30:T$0.15:OFS$0&30:0:0:0:0:0:0:0,#
*,type=WAIT_0000,param=0.2:0:0:0:0:0:0:0:0:0:0,#
*,type=HCHR_PRM00,param=chr_Remiss:Z$9:0:0:0:0:0:0:0:0:0,#
*,type=HCHR_ENT00,param=chr_Remiss2:レミス:N$chara_bf2_86:$POS_Center:TYPE$middle:Z$10:0:0:0:0:0,#
*,type=HCHR_PRM00,param=chr_Remiss2:XFLIP$SET:0:0:0:0:0:0:0:0:0,#
*,type=WAIT_0000,param=0.8:0:0:0:0:0:0:0:0:0:0,#
*,type=HCHR_FDM00,param=chr_Remiss2:MSK$on:0:0:0:0:0:0:0:0:0,#
*,type=SE_0000,param=215:0:0:0:0:0:0:0:0:0:0,#
*,type=HCHR_POS00,param=chr_Remiss:IN$bottom$30:T$1.5:$OFS_Center:0:0:0:0:0:0:0,#
*,type=HCHR_POS00,param=chr_Remiss2:IN$bottom$30:T$1.5:$OFS_Center:0:0:0:0:0:0:0,#
*,type=WAIT_0000,param=0.1:0:0:0:0:0:0:0:0:0:0,#
*,type=HCHR_SHK00,param=chr_Remiss2:3:0.04:0.3:0:0:0:0:0:0:0,#
*,type=WAIT_0000,param=1:0:0:0:0:0:0:0:0:0:0,#
*,type=HCHR_FDM00,param=chr_Remiss2:MSK$off:1:0:0:0:0:0:0:0:0,#
*,type=WAIT_0000,param=1:0:0:0:0:0:0:0:0:0:0,#
*,type=HCHR_ENT01,param=chr_Remiss:0:0:0:0:0:0:0:0:0:0,#
*,type=WAIT_0000,param=0.2:0:0:0:0:0:0:0:0:0:0,#
*,type=HCHR_POS00,param=chr_Remiss2:IN$top$10:T$0.12:OFS$0&10:0:0:0:0:0:0:0,#
*,type=SE_0000,param=369:0:0:0:0:0:0:0:0:0:0,#
*,type=HCHR_TK00,msg=クッ…！,param=chr_Remiss2:$Center4:0:0:0:0:0:0:0:0:0,#
*,type=HCHR_TK01,param=ALL:0:0:0:0:0:0:0:0:0:0,#
*,type=WAIT_0000,param=0.2:0:0:0:0:0:0:0:0:0:0,#
*,type=HCHR_POS00,param=chr_Remiss2:FADEOUT:T$0.1:0:0:0:0:0:0:0:0,#
*,type=STOP,param=0:0:0:0:0:0:0:0:0:0:0,#
*,type=WAIT_0000,param=0.5:0:0:0:0:0:0:0:0:0:0,#
*,type=HCHR_POS00,param=chr_Vishra:FADEIN:$CHARA_FadeTime:$OFS_Center:0:0:0:0:0:0:0,#
*,type=STOP,param=0:0:0:0:0:0:0:0:0:0:0,#
*,type=WAIT_0000,param=0.2:0:0:0:0:0:0:0:0:0:0,#
*,type=HCHR_TK00,msg=全テ…<wait=1.5>　破壊　スル,param=chr_Vishra:$Center10:0:0:0:0:0:0:0:0:0,#
*,type=HCHR_TK01,param=ALL:0:0:0:0:0:0:0:0:0:0,#
*,type=HCHR_PRM00,param=chr_Vishra:S$0.83:$CHARA_FadeTime:0:0:0:0:0:0:0:0,#
*,type=SE_0000,param=312:0:0:0:0:0:0:0:0:0:0,#
*,type=SE_0000,param=369:0:0:0:0:0:0:0:0:0:0,#
*,type=WAIT_0000,param=0.2:0:0:0:0:0:0:0:0:0:0,#
*,type=QUAK_0000,param=0.15:2:0:12:FixRange:NoMoveX:0:0:0:0:0,#
*,type=WAIT_0000,param=0.8:0:0:0:0:0:0:0:0:0:0,#
*,type=SE_0000,param=355:0:0:0:0:0:0:0:0:0:0,#
*,type=WAIT_0000,param=0.5:0:0:0:0:0:0:0:0:0:0,#
*,type=HCHR_EFC00,param=Eff_Manp_18:chr_Vishra:manpu_1:0:SS5$$MANP_surprise_red_b:0:1:0:0:0:0,#
*,type=WAIT_0000,param=0.2:0:0:0:0:0:0:0:0:0:0,#
*,type=SE_0000,param=317:0:0:0:0:0:0:0:0:0:0,#
*,type=SE_0000,param=369:0:0:0:0:0:0:0:0:0:0,#
*,type=EFFECT_GP,param=60010008:320:568:0:0:70:0:0:0:0:0,#
*,type=QUAK_0000,param=0.04:6:15:15:0:0:0:0:0:0:0,#
*,type=HCHR_SHK00,param=chr_Vishra:3:0.1:0.8:0:0:0:0:0:0:0,#
*,type=HCHR_PRM00,param=chr_Vishra:$middle:T$0.3:0:0:0:0:0:0:0:0,#
*,type=WAIT_0000,param=0.1:0:0:0:0:0:0:0:0:0:0,#
*,type=PICT_0004,param=Eff_Manp_18:0:0:0:0:0:0:0:0:0:0,#
*,type=STOP,param=0:0:0:0:0:0:0:0:0:0:0,#
*,type=WAIT_0000,param=0.5:0:0:0:0:0:0:0:0:0:0,#
*,type=HCHR_POS00,param=chr_Vishra:FADEOUT:T$0.1:0:0:0:0:0:0:0:0,#
*,type=STOP,param=0:0:0:0:0:0:0:0:0:0:0,#
*,type=WAIT_0000,param=0.5:0:0:0:0:0:0:0:0:0:0,#
*,type=HCHR_GRP00,param=chr_Ruse:face:do:0:0:0:0:0:0:0:0,#
*,type=HCHR_POS00,param=chr_Ruse:FADEIN:$CHARA_FadeTime:$OFS_Center:0:0:0:0:0:0:0,#
*,type=SE_0000,param=341:0:0:0:0:0:0:0:0:0:0,#
*,type=WAIT_0000,param=0.3:0:0:0:0:0:0:0:0:0:0,#
*,type=HCHR_TK00,msg=弾幕展開。,param=chr_Ruse:$Center6:0:0:0:0:0:0:0:0:0,#
*,type=HCHR_TK01,param=ALL:0:0:0:0:0:0:0:0:0:0,#
*,type=SE_0000,param=341:0:0:0:0:0:0:0:0:0:0,#
*,type=WAIT_0000,param=0.1:0:0:0:0:0:0:0:0:0:0,#
*,type=QUAK_0000,param=0.08:10:15:15:0:0:0:0:0:0:0,#
*,type=EFFECT_GP,param=60010008:320:568:0:0:70:0:0:0:0:0,#
*,type=SE_0000,param=333:0:0:0:0:0:0:0:0:0:0,#
*,type=WAIT_0000,param=0.05:0:0:0:0:0:0:0:0:0:0,#
*,type=SE_0000,param=333:0:0:0:0:0:0:0:0:0:0,#
*,type=WAIT_0000,param=0.05:0:0:0:0:0:0:0:0:0:0,#
*,type=SE_0000,param=333:0:0:0:0:0:0:0:0:0:0,#
*,type=WAIT_0000,param=0.05:0:0:0:0:0:0:0:0:0:0,#
*,type=EFFECT_GP,param=60010008:320:568:0:0:70:0:0:0:0:0,#
*,type=SE_0000,param=333:0:0:0:0:0:0:0:0:0:0,#
*,type=WAIT_0000,param=0.05:0:0:0:0:0:0:0:0:0:0,#
*,type=SE_0000,param=333:0:0:0:0:0:0:0:0:0:0,#
*,type=WAIT_0000,param=0.05:0:0:0:0:0:0:0:0:0:0,#
*,type=SE_0000,param=333:0:0:0:0:0:0:0:0:0:0,#
*,type=WAIT_0000,param=0.05:0:0:0:0:0:0:0:0:0:0,#
*,type=HCHR_POS00,param=chr_Ruse:FADEOUT:T$0.5:0:0:0:0:0:0:0:0,#
*,type=EFFECT_GP,param=60010008:320:568:0:0:70:0:0:0:0:0,#
*,type=SE_0000,param=333:0:0:0:0:0:0:0:0:0:0,#
*,type=WAIT_0000,param=0.05:0:0:0:0:0:0:0:0:0:0,#
*,type=SE_0000,param=333:0:0:0:0:0:0:0:0:0:0,#
*,type=WAIT_0000,param=0.05:0:0:0:0:0:0:0:0:0:0,#
*,type=SE_0000,param=333:0:0:0:0:0:0:0:0:0:0,#
*,type=WAIT_0000,param=0.05:0:0:0:0:0:0:0:0:0:0,#
*,type=SE_0000,param=333:0:0:0:0:0:0:0:0:0:0,#
*,type=WAIT_0000,param=0.05:0:0:0:0:0:0:0:0:0:0,#
*,type=SE_0000,param=333:0:0:0:0:0:0:0:0:0:0,#
*,type=WAIT_0000,param=0.05:0:0:0:0:0:0:0:0:0:0,#
*,type=SE_0000,param=333:0:0:0:0:0:0:0:0:0:0,#
*,type=WAIT_0000,param=0.05:0:0:0:0:0:0:0:0:0:0,#
*,type=SE_0000,param=333:0:0:0:0:0:0:0:0:0:0,#
*,type=WAIT_0000,param=0.7:0:0:0:0:0:0:0:0:0:0,#
*,type=HCHR_FDM00,param=chr_Vishra:MSK$on:0:0:0:0:0:0:0:0:0,#
*,type=HCHR_POS00,param=chr_Vishra:FADEIN:$CHARA_FadeTime:$OFS_Center:0:0:0:0:0:0:0,#
*,type=WAIT_0000,param=0.1:0:0:0:0:0:0:0:0:0:0,#
*,type=QUAK_0000,param=0.08:10:15:15:0:0:0:0:0:0:0,#
*,type=EFFECT_GP,param=60010008:320:568:0:0:70:0:0:0:0:0,#
*,type=SE_0000,param=333:0:0:0:0:0:0:0:0:0:0,#
*,type=WAIT_0000,param=0.05:0:0:0:0:0:0:0:0:0:0,#
*,type=SE_0000,param=309:0:0:0:0:0:0:0:0:0:0,#
*,type=SE_0000,param=333:0:0:0:0:0:0:0:0:0:0,#
*,type=WAIT_0000,param=0.05:0:0:0:0:0:0:0:0:0:0,#
*,type=SE_0000,param=309:0:0:0:0:0:0:0:0:0:0,#
*,type=SE_0000,param=333:0:0:0:0:0:0:0:0:0:0,#
*,type=WAIT_0000,param=0.05:0:0:0:0:0:0:0:0:0:0,#
*,type=SE_0000,param=309:0:0:0:0:0:0:0:0:0:0,#
*,type=EFFECT_GP,param=60010008:320:568:0:0:70:0:0:0:0:0,#
*,type=SE_0000,param=333:0:0:0:0:0:0:0:0:0:0,#
*,type=WAIT_0000,param=0.05:0:0:0:0:0:0:0:0:0:0,#
*,type=SE_0000,param=309:0:0:0:0:0:0:0:0:0:0,#
*,type=SE_0000,param=333:0:0:0:0:0:0:0:0:0:0,#
*,type=WAIT_0000,param=0.05:0:0:0:0:0:0:0:0:0:0,#
*,type=SE_0000,param=309:0:0:0:0:0:0:0:0:0:0,#
*,type=SE_0000,param=333:0:0:0:0:0:0:0:0:0:0,#
*,type=WAIT_0000,param=0.05:0:0:0:0:0:0:0:0:0:0,#
*,type=SE_0000,param=309:0:0:0:0:0:0:0:0:0:0,#
*,type=EFFECT_GP,param=60010008:320:568:0:0:70:0:0:0:0:0,#
*,type=SE_0000,param=333:0:0:0:0:0:0:0:0:0:0,#
*,type=WAIT_0000,param=0.05:0:0:0:0:0:0:0:0:0:0,#
*,type=SE_0000,param=309:0:0:0:0:0:0:0:0:0:0,#
*,type=SE_0000,param=333:0:0:0:0:0:0:0:0:0:0,#
*,type=WAIT_0000,param=0.05:0:0:0:0:0:0:0:0:0:0,#
*,type=SE_0000,param=309:0:0:0:0:0:0:0:0:0:0,#
*,type=SE_0000,param=333:0:0:0:0:0:0:0:0:0:0,#
*,type=WAIT_0000,param=0.05:0:0:0:0:0:0:0:0:0:0,#
*,type=SE_0000,param=309:0:0:0:0:0:0:0:0:0:0,#
*,type=SE_0000,param=333:0:0:0:0:0:0:0:0:0:0,#
*,type=WAIT_0000,param=0.05:0:0:0:0:0:0:0:0:0:0,#
*,type=SE_0000,param=309:0:0:0:0:0:0:0:0:0:0,#
*,type=SE_0000,param=333:0:0:0:0:0:0:0:0:0:0,#
*,type=WAIT_0000,param=0.05:0:0:0:0:0:0:0:0:0:0,#
*,type=SE_0000,param=309:0:0:0:0:0:0:0:0:0:0,#
*,type=WAIT_0000,param=0.5:0:0:0:0:0:0:0:0:0:0,#
*,type=HCHR_FDM00,param=chr_Vishra:MSK$off:0.15:0:0:0:0:0:0:0:0,#
*,type=WAIT_0000,param=0.05:0:0:0:0:0:0:0:0:0:0,#
*,type=EFFECT_GP,param=60010013:320:568:0:0:70:0:0:0:0:0,#
*,type=SE_0000,param=303:0:0:0:0:0:0:0:0:0:0,#
*,type=SE_0000,param=318:0:0:0:0:0:0:0:0:0:0,#
*,type=QUAK_0000,param=0.04:6:15:15:0:0:0:0:0:0:0,#
*,type=WAIT_0000,param=0.3:0:0:0:0:0:0:0:0:0:0,#
*,type=HCHR_POS00,param=chr_Vishra:FADEOUT:T$0.1:0:0:0:0:0:0:0:0,#
*,type=STOP,param=0:0:0:0:0:0:0:0:0:0:0,#
*,type=WAIT_0000,param=0.5:0:0:0:0:0:0:0:0:0:0,#
*,type=HCHR_POS00,param=chr_Ruse:FADEIN:T$0.5:$OFS_Center:0:0:0:0:0:0:0,#
*,type=QUAK_0000,param=0.08:10:15:15:0:0:0:0:0:0:0,#
*,type=EFFECT_GP,param=60010008:320:568:0:0:70:0:0:0:0:0,#
*,type=SE_0000,param=342:0:0:0:0:0:0:0:0:0:0,#
*,type=WAIT_0000,param=0.15:0:0:0:0:0:0:0:0:0:0,#
*,type=EFFECT_GP,param=60010008:320:568:0:0:70:0:0:0:0:0,#
*,type=SE_0000,param=342:0:0:0:0:0:0:0:0:0:0,#
*,type=WAIT_0000,param=0.15:0:0:0:0:0:0:0:0:0:0,#
*,type=EFFECT_GP,param=60010008:320:568:0:0:70:0:0:0:0:0,#
*,type=SE_0000,param=342:0:0:0:0:0:0:0:0:0:0,#
*,type=WAIT_0000,param=0.5:0:0:0:0:0:0:0:0:0:0,#
*,type=HCHR_EFC00,param=Eff_Manp_17:chr_Ruse:manpu_1:0:SS5$$MANP_surprise_red_a:0:1:0:0:0:0,#
*,type=WAIT_0000,param=0.3:0:0:0:0:0:0:0:0:0:0,#
*,type=MSKS_0000,param=Vishra_flash2:255&0&0:128:Z$20:T$0.3:0:0:0:0:0:0,#
*,type=SE_0000,param=319:0:0:0:0:0:0:0:0:0:0,#
*,type=WAIT_0000,param=0.1:0:0:0:0:0:0:0:0:0:0,#
*,type=PICT_0004,param=Eff_Manp_17:0:0:0:0:0:0:0:0:0:0,#
*,type=EFFECT_GP,param=60010007:320:568:0:0:70:0:0:0:0:0,#
*,type=WAIT_0000,param=0.1:0:0:0:0:0:0:0:0:0:0,#
*,type=QUAK_0000,param=0.04:5:15:15:0:0:0:0:0:0:0,#
*,type=SE_0000,param=300:0:0:0:0:0:0:0:0:0:0,#
*,type=WAIT_0000,param=0.15:0:0:0:0:0:0:0:0:0:0,#
*,type=HCHR_POS00,param=chr_Ruse:OUT$bottom$20:T$0.5:0:0:0:0:0:0:0:0,#
*,type=WAIT_0000,param=0.05:0:0:0:0:0:0:0:0:0:0,#
*,type=MSKS_0002,param=Vishra_flash2:T$0.2:0:0:0:0:0:0:0:0:0,#
*,type=WAIT_0000,param=0.8:0:0:0:0:0:0:0:0:0:0,#
*,type=HCHR_FDM00,param=chr_Vishra:MSK$on:0:0:0:0:0:0:0:0:0,#
*,type=HCHR_POS00,param=chr_Vishra:FADEIN:$CHARA_FadeTime:$OFS_Center:0:0:0:0:0:0:0,#
*,type=SE_0000,param=103:0:0:0:0:0:0:0:0:0:0,#
*,type=WAIT_0000,param=0.1:0:0:0:0:0:0:0:0:0:0,#
*,type=QUAK_0000,param=0.08:10:15:15:0:0:0:0:0:0:0,#
*,type=EFFECT_GP,param=60010008:320:568:0:0:70:0:0:0:0:0,#
*,type=SE_0000,param=317:0:0:0:0:0:0:0:0:0:0,#
*,type=WAIT_0000,param=0.15:0:0:0:0:0:0:0:0:0:0,#
*,type=EFFECT_GP,param=60010008:320:568:0:0:70:0:0:0:0:0,#
*,type=SE_0000,param=317:0:0:0:0:0:0:0:0:0:0,#
*,type=WAIT_0000,param=0.15:0:0:0:0:0:0:0:0:0:0,#
*,type=EFFECT_GP,param=60010008:320:568:0:0:70:0:0:0:0:0,#
*,type=SE_0000,param=317:0:0:0:0:0:0:0:0:0:0,#
*,type=WAIT_0000,param=0.02:0:0:0:0:0:0:0:0:0:0,#
*,type=WAIT_0000,param=1:0:0:0:0:0:0:0:0:0:0,#
*,type=EFFECT_GP,param=60010012:320:568:0:0:70:0:0:0:0:0,#
*,type=SE_0000,param=218:0:0:0:0:0:0:0:0:0:0,#
*,type=WAIT_0000,param=0.02:0:0:0:0:0:0:0:0:0:0,#
*,type=FADEIN_000,param=0.2:72&61&139:0:0:0:0:0:0:0:0:0,#
*,type=HCHR_PRM00,param=chr_Vishra:Z$9:0:0:0:0:0:0:0:0:0,#
*,type=HCHR_PRM00,param=chr_Remiss2:XFLIP$RESET:0:0:0:0:0:0:0:0:0,#
*,type=HCHR_POS00,param=chr_Remiss2:IN$right$250:T$0.15:$OFS_Left_Triple:0:0:0:0:0:0:0,#
*,type=HCHR_POS00,param=chr_Vishra:IN$left$100:T$0.3:$OFS_Right:0:0:0:0:0:0:0,#
*,type=SE_0000,param=369:0:0:0:0:0:0:0:0:0:0,#
*,type=SE_0000,param=139:0:0:0:0:0:0:0:0:0:0,#
*,type=WAIT_0000,param=0.4:0:0:0:0:0:0:0:0:0:0,#
*,type=ZIN_0000,param=1:-100:0:0:0:$ZOOMTIME:0:0:0:0:0,#
*,type=STOP,param=0:0:0:0:0:0:0:0:0:0:0,#
*,type=HCHR_TK00,msg=刺違えてでも…！,param=chr_Remiss2:$Left8_Triple:0:0:0:0:0:0:0:0:0,#
*,type=HCHR_TK01,param=ALL:skipmask:0:0:0:0:0:0:0:0:0,#
*,type=ZIN_0000,param=1:0:0:0:0:$ZOOMTIME:0:0:0:0:0,#
*,type=STOP,param=0:0:0:0:0:0:0:0:0:0:0,#
*,type=HCHR_TK00,msg=遅イ……!!,param=chr_Vishra:$Right6:0:0:0:0:0:0:0:0:0,#
*,type=SE_0000,param=318:0:0:0:0:0:0:0:0:0:0,#
*,type=HCHR_TK01,param=ALL:skipmask:0:0:0:0:0:0:0:0:0,#
*,type=EFFECT_GP,param=60010007:320:568:0:0:70:0:0:0:0:0,#
*,type=FADEIN_000,param=0.12:255&0&0:0:0:0:0:0:0:0:0:0,#
*,type=QUAK_0000,param=0.04:6:15:15:0:0:0:0:0:0:0,#
*,type=HCHR_PRM00,param=chr_Vishra:XFLIP$SET:0:0:0:0:0:0:0:0:0,#
*,type=HCHR_POS00,param=chr_Vishra:IN$right$410:T$0.2:$OFS_Left_Triple:0:0:0:0:0:0:0,#
*,type=HCHR_POS00,param=chr_Remiss2:IN$left$410:T$0.2:$OFS_Right:0:0:0:0:0:0:0,#
*,type=WAIT_0000,param=0.1:0:0:0:0:0:0:0:0:0:0,#
*,type=SE_0000,param=139:0:0:0:0:0:0:0:0:0:0,#
*,type=WAIT_0000,param=0.3:0:0:0:0:0:0:0:0:0:0,#
*,type=HCHR_EFC00,param=Eff_Manp_17:chr_Remiss2:manpu_1:0:SS5$$MANP_surprise_red_a:0:1:0:0:0:0,#
*,type=HCHR_FDM00,param=chr_Vishra:MSK$off:0.05:0:0:0:0:0:0:0:0,#
*,type=EFFECT_GP,param=60010013:320:568:0:0:70:0:0:0:0:0,#
*,type=SE_0000,param=300:0:0:0:0:0:0:0:0:0:0,#
*,type=SE_0000,param=318:0:0:0:0:0:0:0:0:0:0,#
*,type=QUAK_0000,param=0.04:5:15:15:0:0:0:0:0:0:0,#
*,type=PICT_0004,param=Eff_Manp_17:0:0:0:0:0:0:0:0:0:0,#
*,type=WAIT_0000,param=1.2:0:0:0:0:0:0:0:0:0:0,#
*,type=HCHR_TK00,msg=<speed=2.5>…………!?,param=chr_Remiss2:$Right6:0:0:0:0:0:0:0:0:0,#
*,type=HCHR_TK00,msg=オォォォォッ!!,param=chr_Remiss2:$Shout_S_R:nowait:0:0:0:0:0:0:0:0,#
*,type=CSYN_0001,param=0:0:0:0:0:0:0:0:0:0:0,#
*,type=SE_0000,param=218:0:0:0:0:0:0:0:0:0:0,#
*,type=HCHR_POS00,param=chr_Remiss2:FADEOUT:T$0.2:0:0:0:0:0:0:0:0,#
*,type=HCHR_TK01,param=ALL:skipmask:0:0:0:0:0:0:0:0:0,#
*,type=WAIT_0000,param=0.3:0:0:0:0:0:0:0:0:0:0,#
*,type=HCHR_PRM00,param=chr_Remiss2:XFLIP$SET:0:0:0:0:0:0:0:0:0,#
*,type=HCHR_POS00,param=chr_Remiss2:FADEIN:T$0.15:$OFS_Right:0:0:0:0:0:0:0,#
*,type=WAIT_0000,param=0.1:0:0:0:0:0:0:0:0:0:0,#
*,type=FADEIN_000,param=0.2:255&255&255:0:0:0:0:0:0:0:0:0,#
*,type=HCHR_FDM00,param=ALL:MSK$off:0.2:0:0:0:0:0:0:0:0,#
*,type=EFFECT_GP,param=60010008:320:568:0:0:70:0:0:0:0:0,#
*,type=SE_0000,param=369:0:0:0:0:0:0:0:0:0:0,#
*,type=SE_0000,param=139:0:0:0:0:0:0:0:0:0:0,#
*,type=QUAK_0000,param=0.04:8:15:15:0:0:0:0:0:0:0,#
*,type=WAIT_0000,param=0.7:0:0:0:0:0:0:0:0:0:0,#
*,type=HCHR_POS00,param=chr_Vishra:IN$left$10:T$0.5:OFS$-240&0:0:0:0:0:0:0:0,#
*,type=WAIT_0000,param=0.2:0:0:0:0:0:0:0:0:0:0,#
*,type=HCHR_POS00,param=chr_Remiss2:IN$left$10:T$0.5:OFS$170&0:0:0:0:0:0:0:0,#
*,type=WAIT_0000,param=0.2:0:0:0:0:0:0:0:0:0:0,#
*,type=HCHR_SHK00,param=chr_Remiss2:3:0.04:0.3:0:0:0:0:0:0:0,#
*,type=WAIT_0000,param=0.3:0:0:0:0:0:0:0:0:0:0,#
*,type=HCHR_TK00,msg=貴様　ノ　ウゴキ　ハ　見切ッタ,param=chr_Vishra:$Left16:0:0:0:0:0:0:0:0:0,#
*,type=HCHR_TK01,param=ALL:skipmask:0:0:0:0:0:0:0:0:0,#
*,type=EFFECT_GP,param=60010013:320:568:0:0:70:0:0:0:0:0,#
*,type=SE_0000,param=300:0:0:0:0:0:0:0:0:0:0,#
*,type=SE_0000,param=318:0:0:0:0:0:0:0:0:0:0,#
*,type=QUAK_0000,param=0.04:5:15:15:0:0:0:0:0:0:0,#
*,type=WAIT_0000,param=0.2:0:0:0:0:0:0:0:0:0:0,#
*,type=EFFECT_GP,param=60010013:320:568:0:0:70:0:0:0:0:0,#
*,type=SE_0000,param=300:0:0:0:0:0:0:0:0:0:0,#
*,type=SE_0000,param=318:0:0:0:0:0:0:0:0:0:0,#
*,type=QUAK_0000,param=0.04:5:15:15:0:0:0:0:0:0:0,#
*,type=WAIT_0000,param=0.2:0:0:0:0:0:0:0:0:0:0,#
*,type=EFFECT_GP,param=60010013:320:568:0:0:70:0:0:0:0:0,#
*,type=SE_0000,param=300:0:0:0:0:0:0:0:0:0:0,#
*,type=SE_0000,param=318:0:0:0:0:0:0:0:0:0:0,#
*,type=QUAK_0000,param=0.04:5:15:15:0:0:0:0:0:0:0,#
*,type=WAIT_0000,param=0.5:0:0:0:0:0:0:0:0:0:0,#
*,type=HCHR_POS00,param=chr_Remiss2:IN$top$10:T$0.2:OFS$170&10:0:0:0:0:0:0:0,#
*,type=SE_0000,param=369:0:0:0:0:0:0:0:0:0:0,#
*,type=WAIT_0000,param=0.7:0:0:0:0:0:0:0:0:0:0,#
*,type=HCHR_TK00,msg=オワリ　ダ<br>キサマ　ヲ　破壊　スル,param=chr_Vishra:$Left12:0:0:0:0:0:0:0:0:0,#
*,type=EFFECT_GP,param=60010013:320:568:0:0:70:0:0:0:0:0,#
*,type=SE_0000,param=338:0:0:0:0:0:0:0:0:0:0,#
*,type=SE_0000,param=318:0:0:0:0:0:0:0:0:0:0,#
*,type=QUAK_0000,param=0.04:8:15:15:0:0:0:0:0:0:0,#
*,type=WAIT_0000,param=0.2:0:0:0:0:0:0:0:0:0:0,#
*,type=HCHR_TK00,msg=<speed=7>……ハカイされるのは<wait=1.5><br>オマエ……<wait=1.5>だ……,param=chr_Remiss2:$Right10:nowait:0:0:0:0:0:0:0:0,#
*,type=SE_0000,param=215:0:0:0:0:0:0:0:0:0:0,#
*,type=HCHR_POS00,param=chr_Remiss2:IN$left$5:T$0.5:OFS$175&10:0:0:0:0:0:0:0,#
*,type=CSYN_0002,param=0:0:0:0:0:0:0:0:0:0:0,#
*,type=HCHR_TK00,msg=消滅しろ……,param=chr_Remiss2:$Right6:nowait:0:0:0:0:0:0:0:0,#
*,type=HCHR_POS00,param=chr_Remiss2:IN$left$5:T$0.5:OFS$180&10:0:0:0:0:0:0:0,#
*,type=CSYN_0002,param=0:0:0:0:0:0:0:0:0:0:0,#
*,type=HCHR_TK00,msg= コードネーム“ヴィシュラ”…！,param=chr_Remiss2:$Right16:nowait:0:0:0:0:0:0:0:0,#
*,type=HCHR_POS00,param=chr_Remiss2:IN$left$5:T$0.5:OFS$185&10:0:0:0:0:0:0:0,#
*,type=CSYN_0002,param=0:0:0:0:0:0:0:0:0:0:0,#
*,type=HCHR_TK01,param=ALL:skipmask:0:0:0:0:0:0:0:0:0,#
*,type=SE_0000,param=319:0:0:0:0:0:0:0:0:0:0,#
*,type=SE_0000,param=303:0:0:0:0:0:0:0:0:0:0,#
*,type=HCHR_POS00,param=chr_Remiss2:FADEOUT:T$2:0:0:0:0:0:0:0:0,#
*,type=HCHR_FDM00,param=chr_Remiss2:MSK$on:2:0:0:0:0:0:0:0:0,#
*,type=WAIT_0000,param=1:0:0:0:0:0:0:0:0:0:0,#
*,type=HCHR_FDM00,param=chr_Vishra:MSK$off:0.2:0:0:0:0:0:0:0:0,#
*,type=HCHR_PRM00,param=chr_Remiss2:Z$10:T$0:0:0:0:0:0:0:0:0,#
*,type=HCHR_PRM00,param=chr_Vishra:Z$11:T$0:0:0:0:0:0:0:0:0,#
*,type=WAIT_0000,param=0.8:0:0:0:0:0:0:0:0:0:0,#
*,type=SE_0000,param=368:0:0:0:0:0:0:0:0:0:0,#
*,type=HCHR_EFC00,param=Eff_Manp_17:chr_Vishra:manpu_1:0:SS5$$MANP_surprise_red_a:0:1:0:0:0:0,#
*,type=ZIN_0000,param=1:-100:0:0:0:0.3:0:0:0:0:0,#
*,type=HCHR_POS00,param=chr_Vishra:IN$left$290:T$0.3:OFS$50&0:0:0:0:0:0:0:0,#
*,type=WAIT_0000,param=0.3:0:0:0:0:0:0:0:0:0:0,#
*,type=PICT_0004,param=Eff_Manp_17:0:0:0:0:0:0:0:0:0:0,#
*,type=HCHR_PRM00,param=chr_Vishra:Z$11:0:0:0:0:0:0:0:0:0,#
*,type=HCHR_ENT01,param=chr_Ruse:0:0:0:0:0:0:0:0:0:0,#
*,type=HCHR_ENT00,param=chr_Ruse:ルシェ:N$chara_bf2_87:$POS_Center:TYPE$middle:Z$10:0:0:0:0:0,#
*,type=HCHR_PRM00,param=chr_Ruse:XFLIP$SET:0:0:0:0:0:0:0:0:0,#
*,type=HCHR_FDM00,param=chr_Ruse:MSK$on:0:0:0:0:0:0:0:0:0,#
*,type=WAIT_0000,param=0.05:0:0:0:0:0:0:0:0:0:0,#
*,type=SE_0000,param=103:0:0:0:0:0:0:0:0:0:0,#
*,type=WAIT_0000,param=0.2:0:0:0:0:0:0:0:0:0:0,#
*,type=HCHR_POS00,param=chr_Ruse:FADEIN:T$0.5:$OFS_Left_Triple:0:0:0:0:0:0:0,#
*,type=WAIT_0000,param=0.2:0:0:0:0:0:0:0:0:0:0,#
*,type=EFFECT_GP,param=60010008:320:568:0:0:70:0:0:0:0:0,#
*,type=SE_0000,param=303:0:0:0:0:0:0:0:0:0:0,#
*,type=SE_0000,param=369:0:0:0:0:0:0:0:0:0:0,#
*,type=SE_0000,param=341:0:0:0:0:0:0:0:0:0:0,#
*,type=SE_0000,param=139:0:0:0:0:0:0:0:0:0:0,#
*,type=QUAK_0000,param=0.04:15:15:15:0:0:0:0:0:0:0,#
*,type=STOP,param=0:0:0:0:0:0:0:0:0:0:0,#
*,type=HCHR_TK00,msg=キサマ…！,param=chr_Vishra:$Shout_S_CL:nowait:0:0:0:0:0:0:0:0,#
*,type=WAIT_0000,param=0.1:0:0:0:0:0:0:0:0:0:0,#
*,type=HCHR_SHK00,param=chr_Vishra:3:0.04:0.5:0:0:0:0:0:0:0,#
*,type=CSYN_0002,param=0:0:0:0:0:0:0:0:0:0:0,#
*,type=HCHR_TK01,param=ALL:skipmask:0:0:0:0:0:0:0:0:0,#
*,type=HCHR_FDM00,param=chr_Vishra:MSK$on:0.1:0:0:0:0:0:0:0:0,#
*,type=HCHR_FDM00,param=chr_Ruse:MSK$off:0.1:0:0:0:0:0:0:0:0,#
*,type=HCHR_TK00,msg=<speed=7>メインエンジン……<wait=1.5>縮退開始。,param=chr_Ruse:$Left14_Triple:nowait:0:focusoff:0:0:0:0:0:0,#
*,type=SE_0000,param=333:0:0:0:0:0:0:0:0:0:0,#
*,type=MSKS_0000,param=bgAlarmMask:255&255&255:125:Z$31:T$0.3:0:0:0:0:0:0,#
*,type=WAIT_0000,param=0.3:0:0:0:0:0:0:0:0:0:0,#
*,type=MSKS_0002,param=bgAlarmMask:T$0.3:0:0:0:0:0:0:0:0:0,#
*,type=WAIT_0000,param=0.3:0:0:0:0:0:0:0:0:0:0,#
*,type=CSYN_0002,param=0:0:0:0:0:0:0:0:0:0:0,#
*,type=HCHR_TK00,msg=放セ…ッ！,param=chr_Vishra:$Left6_Center:nowait:0:0:0:0:0:0:0:0,#
*,type=WAIT_0000,param=0.1:0:0:0:0:0:0:0:0:0:0,#
*,type=HCHR_SHK00,param=chr_Vishra:5:0.04:0.5:0:0:0:0:0:0:0,#
*,type=CSYN_0002,param=0:0:0:0:0:0:0:0:0:0:0,#
*,type=HCHR_TK01,param=ALL:skipmask:0:0:0:0:0:0:0:0:0,#
*,type=EFFECT_GP,param=60010013:320:568:0:0:70:0:0:0:0:0,#
*,type=SE_0000,param=300:0:0:0:0:0:0:0:0:0:0,#
*,type=SE_0000,param=318:0:0:0:0:0:0:0:0:0:0,#
*,type=QUAK_0000,param=0.04:5:15:15:0:0:0:0:0:0:0,#
*,type=HCHR_SHK00,param=chr_Ruse:3:0.04:0.2:0:0:0:0:0:0:0,#
*,type=WAIT_0000,param=0.25:0:0:0:0:0:0:0:0:0:0,#
*,type=EFFECT_GP,param=60010013:320:568:0:0:70:0:0:0:0:0,#
*,type=SE_0000,param=369:0:0:0:0:0:0:0:0:0:0,#
*,type=SE_0000,param=318:0:0:0:0:0:0:0:0:0:0,#
*,type=QUAK_0000,param=0.04:5:15:15:0:0:0:0:0:0:0,#
*,type=HCHR_SHK00,param=chr_Ruse:3:0.04:0.2:0:0:0:0:0:0:0,#
*,type=WAIT_0000,param=0.25:0:0:0:0:0:0:0:0:0:0,#
*,type=EFFECT_GP,param=60010013:320:568:0:0:70:0:0:0:0:0,#
*,type=SE_0000,param=300:0:0:0:0:0:0:0:0:0:0,#
*,type=SE_0000,param=369:0:0:0:0:0:0:0:0:0:0,#
*,type=SE_0000,param=318:0:0:0:0:0:0:0:0:0:0,#
*,type=QUAK_0000,param=0.04:5:15:15:0:0:0:0:0:0:0,#
*,type=HCHR_SHK00,param=chr_Ruse:3:0.04:0.2:0:0:0:0:0:0:0,#
*,type=WAIT_0000,param=0.25:0:0:0:0:0:0:0:0:0:0,#
*,type=HCHR_FDM00,param=chr_Vishra:MSK$on:0.1:0:0:0:0:0:0:0:0,#
*,type=HCHR_FDM00,param=chr_Ruse:MSK$off:0.1:0:0:0:0:0:0:0:0,#
*,type=HCHR_TK00,msg=エンジン臨界……,param=chr_Ruse:$Left8_Triple:nowait:0:focusoff:0:0:0:0:0:0,#
*,type=SE_0000,param=333:0:0:0:0:0:0:0:0:0:0,#
*,type=SE_0000,param=337:0:0:0:0:0:0:0:0:0:0,#
*,type=BGM_0001,param=4:0:0:0:0:0:0:0:0:0:0,#
*,type=FADEIN_000,param=1.5:255&255&255:0:0:0:0:0:0:0:0:0,#
*,type=WAIT_0000,param=1.5:0:0:0:0:0:0:0:0:0:0,#
*,type=CSYN_0002,param=0:0:0:0:0:0:0:0:0:0:0,#
*,type=HCHR_TK01,param=ALL:skipmask:0:0:0:0:0:0:0:0:0,#
*,type=WAIT_0000,param=0.8:0:0:0:0:0:0:0:0:0:0,#
*,type=SE_0000,param=343:0:0:0:0:0:0:0:0:0:0,#
*,type=MSKS_0000,param=bgWhiteMask:$BGWHITE_Color:0:Z$50:T$4:0:0:0:0:0:0,#
*,type=HCHR_FDM00,param=ALL:MSK$on:2:0:0:0:0:0:0:0:0,#
*,type=WAIT_0000,param=5:0:0:0:0:0:0:0:0:0:0,#
*,type=ZIN_0000,param=1:0:0:0:0:0.5:0:0:0:0:0,#
*,type=WAIT_0000,param=0.5:0:0:0:0:0:0:0:0:0:0,#
*,type=HCHR_POS00,param=chr_Ruse:FADEOUT:T$0:0:0:0:0:0:0:0:0,#
*,type=HCHR_POS00,param=chr_Vishra:FADEOUT:T$0:0:0:0:0:0:0:0:0,#
*,type=HCHR_TK00,msg=<speed=12>…みんな、ほめてくれるかな。,param=chr_Ruse:$NW_mid:0:0:0:0:0:0:0:0:0,#
*,type=FADEOUT_000,param=3:$BGWHITE_Color:0:0:0:0:0:0:0:0:0,#
*,type=SE_0000,param=320:0:0:0:0:0:0:0:0:0:0,#
*,type=SE_0000,param=336:0:0:0:0:0:0:0:0:0:0,#
*,type=SE_0000,param=350:0:0:0:0:0:0:0:0:0:0,#
*,type=WAIT_0000,param=5:0:0:0:0:0:0:0:0:0:0,#
*,type=HCHR_TK01,param=ALL:0:0:0:0:0:0:0:0:0:0,#
*,type=MSKS_0002,param=bgWhiteMask:T$2.5:0:0:0:0:0:0:0:0:0,#
*,type=WAIT_0000,param=4:0:0:0:0:0:0:0:0:0:0,#
*,type=HCHR_GRP00,param=chr_Leese:face:fu:$FACE_FadeTime:0:0:0:0:0:0:0,#
*,type=HCHR_POS00,param=chr_Leese:FADEIN:$CHARA_FadeTime:$OFS_Center:0:0:0:0:0:0:0,#
*,type=STOP,param=0:0:0:0:0:0:0:0:0:0:0,#
*,type=HCHR_TK00,msg=レミス…<wait=1.5>ルシェ……,param=chr_Leese:$Center10:0:0:0:0:0:0:0:0:0,#
*,type=HCHR_TK00,msg=ばか…,param=chr_Leese:$Center4:0:0:0:0:0:0:0:0:0,#
*,type=HCHR_TK00,msg=誰が…<wait=1.5>誰が褒めたりなんか…！,param=chr_Leese:$Center14:0:0:0:0:0:0:0:0:0,#
*,type=HCHR_GRP00,param=chr_Leese:face:ku:$FACE_FadeTime:0:0:0:0:0:0:0,#
*,type=HCHR_TK00,msg=ダメだって、命令したのに…！<wait=1.5><br>覚悟だってしたつもりだったのに…！,param=chr_Leese:$Center18:0:0:0:0:0:0:0:0:0,#
*,type=HCHR_TK01,param=ALL:0:0:0:0:0:0:0:0:0:0,#
*,type=SE_0000,param=341:0:0:0:0:0:0:0:0:0:0,#
*,type=SE_0000,param=369:0:0:0:0:0:0:0:0:0:0,#
*,type=WAIT_0000,param=0.2:0:0:0:0:0:0:0:0:0:0,#
*,type=HCHR_GRP00,param=chr_Leese:face:fu:$FACE_FadeTime:0:0:0:0:0:0:0,#
*,type=HCHR_EFC00,param=Eff_Manp_25:chr_Leese:manpu_1:0:SS5$$MANP_surprise_red_a_02:0:1:0:0:0:0,#
*,type=WAIT_0000,param=0.8:0:0:0:0:0:0:0:0:0:0,#
*,type=PICT_0004,param=Eff_Manp_25:0:0:0:0:0:0:0:0:0:0,#
*,type=HCHR_POS00,param=chr_Leese:FADEOUT:$CHARA_FadeTime:0:0:0:0:0:0:0:0,#
*,type=STOP,param=0:0:0:0:0:0:0:0:0:0:0,#
*,type=BGM_0000,param=34:3:0:0:0:0:0:0:0:0:0,#
*,type=HCHR_PRM00,param=chr_Vishra:XFLIP$RESET:0:0:0:0:0:0:0:0:0,#
*,type=HCHR_GRP00,param=chr_Vishra:face:mu:0:0:0:0:0:0:0:0,#
*,type=HCHR_FDM00,param=chr_Vishra:MSK$on:0:0:0:0:0:0:0:0:0,#
*,type=HCHR_POS00,param=chr_Vishra:IN$bottom$30:T$2:$OFS_Center:0:0:0:0:0:0:0,#
*,type=SE_0000,param=215:0:0:0:0:0:0:0:0:0:0,#
*,type=SE_0000,param=222:0:0:0:0:0:0:0:0:0:0,#
*,type=WAIT_0000,param=1.6:0:0:0:0:0:0:0:0:0:0,#
*,type=HCHR_SHK00,param=chr_Vishra:3:0.04:0.3:0:0:0:0:0:0:0,#
*,type=WAIT_0000,param=0.5:0:0:0:0:0:0:0:0:0:0,#
*,type=HCHR_TK00,msg=<speed=7>各機能…被害、甚、大…！,param=chr_Vishra:$Center12:0:0:focusoff:0:0:0:0:0:0,#
*,type=HCHR_TK00,msg=<speed=7>修復モード…起動…,param=chr_Vishra:$Center10:0:0:focusoff:0:0:0:0:0:0,#
*,type=HCHR_TK01,param=ALL:0:0:0:0:0:0:0:0:0:0,#
*,type=HCHR_POS00,param=chr_Vishra:FADEOUT:T$0.1:0:0:0:0:0:0:0:0,#
*,type=WAIT_0000,param=0.3:0:0:0:0:0:0:0:0:0:0,#
*,type=HCHR_GRP00,param=chr_Leese:face:fu:0:0:0:0:0:0:0:0,#
*,type=HCHR_POS00,param=chr_Leese:FADEIN:$CHARA_FadeTime:$OFS_Center:0:0:0:0:0:0:0,#
*,type=HCHR_TK00,msg=ヴィシュラ!?<wait=1.5><br>アナタ、まだ動いて…！,param=chr_Leese:$Center12:0:0:0:0:0:0:0:0:0,#
*,type=HCHR_GRP00,param=chr_Leese:face:ai:$FACE_FadeTime:0:0:0:0:0:0:0,#
*,type=HCHR_TK00,msg=なんで、どうして…,param=chr_Leese:$Center10:0:0:0:0:0:0:0:0:0,#
*,type=HCHR_GRP00,param=chr_Leese:face:fu:0:0:0:0:0:0:0:0,#
*,type=HCHR_TK00,msg=兄さんを殺され<br>ふたりの命を犠牲にして…,param=chr_Leese:$Center12:0:0:0:0:0:0:0:0:0,#
*,type=HCHR_TK00,msg=それでもまだ足りないの!?,param=chr_Leese:$Center12:0:0:0:0:0:0:0:0:0,#
*,type=HCHR_TK00,msg=私がアナタを消そうとしたことは<br>それほどの罪だったとでもいうの!?,param=chr_Leese:$Center16:0:0:0:0:0:0:0:0:0,#
*,type=HCHR_TK01,param=ALL:0:0:0:0:0:0:0:0:0:0,#
*,type=HCHR_POS00,param=chr_Leese:FADEOUT:$CHARA_FadeTime:0:0:0:0:0:0:0:0,#
*,type=STOP,param=0:0:0:0:0:0:0:0:0:0:0,#
*,type=HCHR_FDM00,param=chr_Vishra:MSK$on:0:0:0:0:0:0:0:0:0,#
*,type=HCHR_POS00,param=chr_Vishra:FADEIN:$CHARA_FadeTime:$OFS_Center:0:0:0:0:0:0:0,#
*,type=STOP,param=0:0:0:0:0:0:0:0:0:0:0,#
*,type=WAIT_0000,param=0.5:0:0:0:0:0:0:0:0:0:0,#
*,type=HCHR_TK00,msg=<speed=7>我ガ名ハ、ヴィシュラ…<wait=1.5><br>進化、ノ…特異点ヲ…越エルモノ…！,param=chr_Vishra:$Center18:0:0:focusoff:0:0:0:0:0:0,#
*,type=HCHR_TK01,param=ALL:0:0:0:0:0:0:0:0:0:0,#
*,type=HCHR_FDM00,param=chr_Vishra:MSK$off:0.3:0:0:0:0:0:0:0:0,#
*,type=WAIT_0000,param=0.1:0:0:0:0:0:0:0:0:0:0,#
*,type=MSKS_0000,param=Vishra_mask:255&0&0:124:Z$7:T$0.15:0:0:0:0:0:0,#
*,type=WAIT_0000,param=0.05:0:0:0:0:0:0:0:0:0:0,#
*,type=SE_0000,param=338:0:0:0:0:0:0:0:0:0:0,#
*,type=HCHR_GRP00,param=chr_Vishra:face:su:0.15:0:0:0:0:0:0:0,#
*,type=WAIT_0000,param=0.05:0:0:0:0:0:0:0:0:0:0,#
*,type=MSKS_0002,param=Vishra_mask:T$0.3:0:0:0:0:0:0:0:0:0,#
*,type=WAIT_0000,param=0.05:0:0:0:0:0:0:0:0:0:0,#
*,type=SE_0000,param=318:0:0:0:0:0:0:0:0:0:0,#
*,type=EFFECT_GP,param=60010013:320:568:0:0:70:0:0:0:0:0,#
*,type=WAIT_0000,param=0.1:0:0:0:0:0:0:0:0:0:0,#
*,type=HCHR_GRP00,param=chr_Vishra:face:fu:0.3:0:0:0:0:0:0:0,#
*,type=WAIT_0000,param=0.5:0:0:0:0:0:0:0:0:0:0,#
*,type=HCHR_TK00,msg=<speed=7>我ハ、<wait=1.5>全テ、<wait=1.5>ヲ……,param=chr_Vishra:$Center10:nowait:0:0:0:0:0:0:0:0,#
*,type=CSYN_0001,param=0:0:0:0:0:0:0:0:0:0:0,#
*,type=BGM_0001,param=0.8:0:0:0:0:0:0:0:0:0:0,#
*,type=WAIT_0000,param=0.8:0:0:0:0:0:0:0:0:0:0,#
*,type=EFFECT_GP,param=60010018:320:568:0:0:70:0:0:0:0:0,#
*,type=SE_0000,param=229:0:0:0:0:0:0:0:0:0:0,#
*,type=HCHR_FDM00,param=chr_Vishra:MSK$on:0.2:0:0:0:0:0:0:0:0,#
*,type=WAIT_0000,param=0.5:0:0:0:0:0:0:0:0:0:0,#
*,type=HCHR_TK01,param=ALL:0:0:0:0:0:0:0:0:0:0,#
*,type=HCHR_POS00,param=chr_Vishra:FADEOUT:$CHARA_FadeTime:0:0:0:0:0:0:0:0,#
*,type=STOP,param=0:0:0:0:0:0:0:0:0:0:0,#
*,type=WAIT_0000,param=0.5:0:0:0:0:0:0:0:0:0:0,#
*,type=HCHR_GRP00,param=chr_Leese:face:ku:0:0:0:0:0:0:0:0,#
*,type=HCHR_POS00,param=chr_Leese:FADEIN:$CHARA_FadeTime:$OFS_Center:0:0:0:0:0:0:0,#
*,type=STOP,param=0:0:0:0:0:0:0:0:0:0:0,#
*,type=BGM_0000,param=42:0:0:0:0:0:0:0:0:0:0,#
*,type=HCHR_TK00,msg=何…!?<wait=1.5><br>座標が乱れてる…!?,param=chr_Leese:$Center10:0:0:0:0:0:0:0:0:0,#
*,type=HCHR_TK01,param=ALL:0:0:0:0:0:0:0:0:0:0,#
*,type=HCHR_POS00,param=chr_Leese:FADEOUT:$CHARA_FadeTime:0:0:0:0:0:0:0:0,#
*,type=STOP,param=0:0:0:0:0:0:0:0:0:0:0,#
*,type=QUAK_0001,param=3:0.1:0:0:0:0:0:0:0:0:0,#
*,type=WAIT_0000,param=0.5:0:0:0:0:0:0:0:0:0:0,#
*,type=HCHR_POS00,param=chr_Vishra:FADEIN:$CHARA_FadeTime:$OFS_Center:0:0:0:0:0:0:0,#
*,type=SE_0000,param=350:0:0:0:0:0:0:0:0:0:0,#
*,type=SE_0000,param=229:0:0:0:0:0:0:0:0:0:0,#
*,type=FADEIN_000,param=0.2:255&255&255:0:0:0:0:0:0:0:0:0,#
*,type=SE_0000,param=350:0:0:0:0:0:0:0:0:0:0,#
*,type=WAIT_0000,param=1:0:0:0:0:0:0:0:0:0:0,#
*,type=FADEIN_000,param=0.2:255&255&255:0:0:0:0:0:0:0:0:0,#
*,type=SE_0000,param=350:0:0:0:0:0:0:0:0:0:0,#
*,type=WAIT_0000,param=0.75:0:0:0:0:0:0:0:0:0:0,#
*,type=FADEIN_000,param=0.2:255&255&255:0:0:0:0:0:0:0:0:0,#
*,type=SE_0000,param=350:0:0:0:0:0:0:0:0:0:0,#
*,type=WAIT_0000,param=0.5:0:0:0:0:0:0:0:0:0:0,#
*,type=FADEIN_000,param=0.2:255&255&255:0:0:0:0:0:0:0:0:0,#
*,type=SE_0000,param=350:0:0:0:0:0:0:0:0:0:0,#
*,type=WAIT_0000,param=0.2:0:0:0:0:0:0:0:0:0:0,#
*,type=FADEIN_000,param=0.2:255&255&255:0:0:0:0:0:0:0:0:0,#
*,type=SE_0000,param=350:0:0:0:0:0:0:0:0:0:0,#
*,type=WAIT_0000,param=0.15:0:0:0:0:0:0:0:0:0:0,#
*,type=FADEIN_000,param=0.2:255&255&255:0:0:0:0:0:0:0:0:0,#
*,type=SE_0000,param=350:0:0:0:0:0:0:0:0:0:0,#
*,type=WAIT_0000,param=0.1:0:0:0:0:0:0:0:0:0:0,#
*,type=FADEIN_000,param=0.2:255&255&255:0:0:0:0:0:0:0:0:0,#
*,type=SE_0000,param=350:0:0:0:0:0:0:0:0:0:0,#
*,type=WAIT_0000,param=0.05:0:0:0:0:0:0:0:0:0:0,#
*,type=FADEIN_000,param=0.2:255&255&255:0:0:0:0:0:0:0:0:0,#
*,type=SE_0000,param=350:0:0:0:0:0:0:0:0:0:0,#
*,type=WAIT_0000,param=0.05:0:0:0:0:0:0:0:0:0:0,#
*,type=STOP,param=0:0:0:0:0:0:0:0:0:0:0,#
*,type=WAIT_0000,param=0.5:0:0:0:0:0:0:0:0:0:0,#
*,type=SE_0000,param=229:0:0:0:0:0:0:0:0:0:0,#
*,type=SE_0000,param=350:0:0:0:0:0:0:0:0:0:0,#
*,type=MSKS_0000,param=bgBlackMask:$BGBLACK_Color:0:Z$2:T$0.2:0:0:0:0:0:0,#
*,type=STOP,param=0:0:0:0:0:0:0:0:0:0:0,#
*,type=HCHR_PRM00,param=chr_Vishra:S$0.78:T$0.2:0:0:0:0:0:0:0:0,#
*,type=SE_0000,param=303:0:0:0:0:0:0:0:0:0:0,#
*,type=SE_0000,param=369:0:0:0:0:0:0:0:0:0:0,#
*,type=HCHR_SHK00,param=chr_Vishra:1:0.1:0:0:0:0:0:0:0:0,#
*,type=HCHR_TK00,msg=<speed=7>グッ……<wait=3><br>姿勢保持…<wait=1.5>不可、<wait=1.5>能…ッ!!,param=chr_Vishra:$Center12:0:0:0:0:0:0:0:0:0,#
*,type=HCHR_SHK01,param=chr_Vishra:0:0:0:0:0:0:0:0:0:0,#
*,type=HCHR_PRM00,param=chr_Vishra:S$0.74:T$0.1:0:0:0:0:0:0:0:0,#
*,type=SE_0000,param=303:0:0:0:0:0:0:0:0:0:0,#
*,type=SE_0000,param=369:0:0:0:0:0:0:0:0:0:0,#
*,type=HCHR_SHK00,param=chr_Vishra:3:0.1:0:0:0:0:0:0:0:0,#
*,type=HCHR_TK00,msg=<size=30>グ…<wait=1.5>ガアァァァァッ!!,param=chr_Vishra:$Shout_M_C:0:0:0:0:0:0:0:0:0,#
*,type=HCHR_TK01,param=ALL:0:0:0:0:0:0:0:0:0:0,#
*,type=SE_0000,param=229:0:0:0:0:0:0:0:0:0:0,#
*,type=SE_0000,param=350:0:0:0:0:0:0:0:0:0:0,#
*,type=SE_0000,param=26:0:0:0:0:0:0:0:0:0:0,#
*,type=FADEOUT_000,param=4:$BGWHITE_Color:0:0:0:0:0:0:0:0:0,#
*,type=WAIT_0000,param=0.5:0:0:0:0:0:0:0:0:0:0,#
*,type=HCHR_PRM00,param=chr_Vishra:S$0.62:T$1.5:0:0:0:0:0:0:0:0,#
*,type=HCHR_POS00,param=chr_Vishra:FADEOUT:T$1.5:0:0:0:0:0:0:0:0,#
*,type=WAIT_0000,param=0.5:0:0:0:0:0:0:0:0:0:0,#
*,type=HCHR_SHK01,param=chr_Vishra:0:0:0:0:0:0:0:0:0:0,#
*,type=HCHR_SHK00,param=chr_Vishra:5:0.1:0:0:0:0:0:0:0:0,#
*,type=STOP,param=0:0:0:0:0:0:0:0:0:0:0,#
*,type=MSKS_0000,param=bgWhiteMask:$BGWHITE_Color:0:Z$1:0:0:0:0:0:0:0,#
*,type=HCHR_SHK01,param=chr_Vishra:0:0:0:0:0:0:0:0:0:0,#
*,type=WAIT_0000,param=1:0:0:0:0:0:0:0:0:0:0,#
*,type=MSKS_0002,param=bgWhiteMask:T$0:0:0:0:0:0:0:0:0:0,#
*,type=MSKS_0002,param=bgBlackMask:T$0.1:0:0:0:0:0:0:0:0:0,#
*,type=STOP,param=0:0:0:0:0:0:0:0:0:0:0,#
*,type=WAIT_0000,param=0.2:0:0:0:0:0:0:0:0:0:0,#
*,type=HCHR_GRP00,param=chr_Leese:face:fu:0:0:0:0:0:0:0:0,#
*,type=HCHR_POS00,param=chr_Leese:FADEIN:$CHARA_FadeTime:$OFS_Center:0:0:0:0:0:0:0,#
*,type=STOP,param=0:0:0:0:0:0:0:0:0:0:0,#
*,type=HCHR_TK00,msg=ヴィシュラが呑まれた!?,param=chr_Leese:$Center12:0:0:0:0:0:0:0:0:0,#
*,type=HCHR_TK00,msg=…まさか、次元の断層…！,param=chr_Leese:$Center12:0:0:0:0:0:0:0:0:0,#
*,type=SE_0000,param=350:0:0:0:0:0:0:0:0:0:0,#
*,type=SE_0000,param=229:0:0:0:0:0:0:0:0:0:0,#
*,type=HCHR_GRP00,param=chr_Leese:face:ku:0:0:0:0:0:0:0:0,#
*,type=HCHR_TK00,msg=くっ、逃げ切れない…,param=chr_Leese:$Center10:0:0:0:0:0:0:0:0:0,#
*,type=HCHR_TK01,param=ALL:0:0:0:0:0:0:0:0:0:0,#
*,type=HCHR_PRM00,param=chr_Leese:Z$12:0:0:0:0:0:0:0:0:0,#
*,type=HCHR_GRP00,param=chr_Lilith:face:mu:0:0:0:0:0:0:0:0,#
*,type=HCHR_FDM00,param=chr_Lilith:MSK$on:0:0:0:0:0:0:0:0:0,#
*,type=HCHR_POS00,param=chr_Lilith:FADEIN:$CHARA_FadeTime:$OFS_Right_Triple:0:0:0:0:0:0:0,#
*,type=STOP,param=0:0:0:0:0:0:0:0:0:0:0,#
*,type=HCHR_TK00,msg=せめて…,param=chr_Leese:$Center6:0:0:0:0:0:0:0:0:0,#
*,type=BGM_0001,param=3:0:0:0:0:0:0:0:0:0:0,#
*,type=HCHR_TK00,msg=リリス…！,param=chr_Leese:$Center6:0:0:0:0:0:0:0:0:0,#
*,type=HCHR_TK01,param=ALL:skipmask:0:0:0:0:0:0:0:0:0,#
*,type=SE_0000,param=229:0:0:0:0:0:0:0:0:0:0,#
*,type=SE_0000,param=350:0:0:0:0:0:0:0:0:0:0,#
*,type=SE_0000,param=26:0:0:0:0:0:0:0:0:0:0,#
*,type=MSKS_0000,param=bgBlackMask:$BGBLACK_Color:0:Z$2:T$0.2:0:0:0:0:0:0,#
*,type=WAIT_0000,param=0.3:0:0:0:0:0:0:0:0:0:0,#
*,type=MSKS_0000,param=bgWhiteMask:$BGWHITE_Color:0:Z$50:T$3:0:0:0:0:0:0,#
*,type=HCHR_POS00,param=chr_Leese:OUT$right$60:T$3:0:0:0:0:0:0:0:0,#
*,type=HCHR_POS00,param=chr_Lilith:FADEOUT:T$3:0:0:0:0:0:0:0:0,#
*,type=WAIT_0000,param=5:0:0:0:0:0:0:0:0:0:0,#
*,type=QUAK_0002,param=0:0:0:0:0:0:0:0:0:0:0,#
*,type=PICT_0004,param=bg_02:0:0:0:0:0:0:0:0:0:0,#
*,type=HCHR_ENT01,param=chr_Leese:0:0:0:0:0:0:0:0:0:0,#
*,type=HCHR_ENT01,param=chr_Vishra:0:0:0:0:0:0:0:0:0:0,#
*,type=HCHR_ENT01,param=chr_Ruse:0:0:0:0:0:0:0:0:0:0,#
*,type=HCHR_ENT01,param=chr_Remiss2:0:0:0:0:0:0:0:0:0:0,#
*,type=HCHR_PRM00,param=chr_Remiss:XFLIP$SET:0:0:0:0:0:0:0:0:0,#
*,type=HCHR_ENT00,param=chr_Remiss:レミス:N$chara_bf2_78:$POS_Center:TYPE$middle:Z$20&20:0:0:0:0:0,#
*,type=HCHR_ENT00,param=chr_Ruse:ルシェ:N$chara_bf2_79:$POS_Center:TYPE$middle:Z$20&20:0:0:0:0:0,#
*,type=HCHR_GRP00,param=chr_Remiss:face:fu:0:0:0:0:0:0:0:0,#
*,type=HCHR_GRP00,param=chr_Ruse:face:fu:0:0:0:0:0:0:0:0,#
*,type=HCHR_PRM00,param=chr_Lilith:Z$25:0:0:0:0:0:0:0:0:0,#
*,type=HCHR_GRP00,param=chr_Lilith:face:mu:0:0:0:0:0:0:0:0,#
*,type=STOP,param=0:0:0:0:0:0:0:0:0:0:0,#
*,type=MSKS_0000,param=monitorBlackMask:$BGBLACK_Color:96:Z$22:0:0:0:0:0:0:0,#
*,type=SS5_0000,param=SS_monitor:script_monitor.ssbp:script_monitor_closeonly/anime:script_monitor_closeonly/anime:21:320:480:1:0:5.5:0,#
*,type=SS5_0000,param=SS_monitorBG:script_monitor.ssbp:script_monitor_closeonly_back/anime:script_monitor_closeonly_back/anime:19:320:480:1:0:5.5:0,#
*,type=WAIT_0000,param=1:0:0:0:0:0:0:0:0:0:0,#
*,type=SE_0000,param=368:0:0:0:0:0:0:0:0:0:0,#
*,type=MSKS_0002,param=bgWhiteMask:T$1.5:0:0:0:0:0:0:0:0:0,#
*,type=STOP,param=0:0:0:0:0:0:0:0:0:0:0,#
*,type=WAIT_0000,param=1:0:0:0:0:0:0:0:0:0:0,#
*,type=HCHR_POS00,param=chr_Lilith:FADEIN:T$1:$OFS_Right:0:0:0:0:0:0:0,#
*,type=WAIT_0000,param=1:0:0:0:0:0:0:0:0:0:0,#
*,type=SE_0000,param=376:0:0:0:0:0:0:0:0:0:0,#
*,type=HCHR_GRP00,param=chr_Lilith:face:fu:0.5:0:0:0:0:0:0:0,#
*,type=WAIT_0000,param=1:0:0:0:0:0:0:0:0:0:0,#
*,type=HCHR_PRM00,param=chr_Ruse:XFLIP$SET:0:0:0:0:0:0:0:0:0,#
*,type=HCHR_PRM00,param=chr_Remiss:XFLIP$SET:0:0:0:0:0:0:0:0:0,#
*,type=STOP,param=0:0:0:0:0:0:0:0:0:0:0,#
*,type=BGM_0000,param=1041:5:0:0:0:0:0:0:0:0:0,#
*,type=HCHR_POS00,param=chr_Lilith:IN$left$90:T$1:$OFS_Right_Triple:0:0:0:0:0:0:0,#
*,type=HCHR_POS00,param=chr_Remiss:FADEIN:T$1:$OFS_Center:0:0:0:0:0:0:0,#
*,type=HCHR_POS00,param=chr_Ruse:FADEIN:T$1:$OFS_Left_Triple:0:0:0:0:0:0:0,#
*,type=WAIT_0000,param=1.8:0:0:0:0:0:0:0:0:0:0,#
*,type=ZIN_0000,param=1:100:0:0:0:0.5:0:0:0:0:0,#
*,type=WAIT_0000,param=0.5:0:0:0:0:0:0:0:0:0:0,#
*,type=HCHR_FDM00,param=ALL:MSK$on:0.3:0:0:0:0:0:0:0:0,#
*,type=HCHR_FDM00,param=chr_Lilith:MSK$off:0:0:0:0:0:0:0:0:0,#
*,type=WAIT_0000,param=0.5:0:0:0:0:0:0:0:0:0:0,#
*,type=HCHR_GRP00,param=chr_Lilith:face:mu:0:0:0:0:0:0:0:0,#
*,type=WAIT_0000,param=0.2:0:0:0:0:0:0:0:0:0:0,#
*,type=HCHR_EFC00,param=Eff_Manp_11:chr_Lilith:manpu_1:0:SS5$$MANP_silence_a:0:1:0:0:0:0,#
*,type=WAIT_0000,param=1.5:0:0:0:0:0:0:0:0:0:0,#
*,type=PICT_0004,param=Eff_Manp_11:0:0:0:0:0:0:0:0:0:0,#
*,type=HCHR_GRP00,param=chr_Lilith:face:fu:0:0:0:0:0:0:0:0,#
*,type=SE_0000,param=366:0:0:0:0:0:0:0:0:0:0,#
*,type=WAIT_0000,param=0.2:0:0:0:0:0:0:0:0:0:0,#
*,type=HCHR_TK00,msg=メモリエラー確認…疑似再現と判断…,param=chr_Lilith:$Right18_Triple:0:0:0:0:0:0:0:0:0,#
*,type=HCHR_TK01,param=ALL:skipmask:0:0:0:0:0:0:0:0:0,#
*,type=ZIN_0000,param=1:0:0:0:0:$ZOOMTIME:0:0:0:0:0,#
*,type=STOP,param=0:0:0:0:0:0:0:0:0:0:0,#
*,type=HCHR_TK00,msg=リリス、これでお別れだ。,param=chr_Remiss:$Center12:0:0:0:0:0:0:0:0:0,#
*,type=HCHR_TK00,msg=わたしたち、消滅する。,param=chr_Ruse:$Left12_FixedTriple:0:0:0:0:0:0:0:0:0,#
*,type=HCHR_TK00,msg=…マスターが悲しみます。,param=chr_Lilith:$Right12_FixedTriple:0:0:0:0:0:0:0:0:0,#
*,type=HCHR_TK00,msg=オマエがいる。,param=chr_Remiss:$Center8:0:0:0:0:0:0:0:0:0,#
*,type=HCHR_TK00,msg=“私”だけでは不足です。,param=chr_Lilith:$Right12_FixedTriple:0:0:0:0:0:0:0:0:0,#
*,type=HCHR_TK00,msg=それは違う。<wait=1.5><br>アナタは“わたしたち”。,param=chr_Ruse:$Left12_FixedTriple:0:0:0:0:0:0:0:0:0,#
*,type=HCHR_TK00,msg=…正確な定義を求めます。,param=chr_Lilith:$Right12_FixedTriple:0:0:0:0:0:0:0:0:0,#
*,type=HCHR_TK00,msg=我々はオマエになる。,param=chr_Remiss:$Center10:0:0:0:0:0:0:0:0:0,#
*,type=HCHR_TK00,msg=あなたをメインパーソナリティとして<br>記憶と経験を並列化し、統合する。,param=chr_Ruse:$Left18_FixedTriple:0:0:0:0:0:0:0:0:0,#
*,type=HCHR_TK00,msg=ワタシたちの全ては<br>オマエに引き継がれ、統合される。,param=chr_Remiss:$Center16:0:0:0:0:0:0:0:0:0,#
*,type=HCHR_TK00,msg=<speed=9>…………,param=chr_Lilith:$Right4_FixedTriple:0:0:0:0:0:0:0:0:0,#
*,type=HCHR_TK00,msg=残存メモリーから別人格を再構築しての<br>人格分割を提案します。,param=chr_Lilith:$Right18_FixedTriple:0:0:0:0:0:0:0:0:0,#
*,type=HCHR_TK00,msg=……それは、だめ。,param=chr_Ruse:$Left10_FixedTriple:0:0:0:0:0:0:0:0:0,#
*,type=HCHR_TK00,msg=そうして作られるわたしたちは<br>わたしたちに似た、別の何か。,param=chr_Ruse:$Left14_FixedTriple:0:0:0:0:0:0:0:0:0,#
*,type=HCHR_TK00,msg=それは、マスターの悲しみを深める。,param=chr_Ruse:$Left18_FixedTriple:0:0:0:0:0:0:0:0:0,#
*,type=HCHR_TK00,msg=我々に“イミ”を見出すならば<br>オマエへのトウゴウ以外、手段はない。,param=chr_Remiss:$Center18:0:0:0:0:0:0:0:0:0,#
*,type=HCHR_TK00,msg=……マスターはその理論を許容しません。,param=chr_Lilith:$Right20_FixedTriple:0:0:0:0:0:0:0:0:0,#
*,type=HCHR_TK00,msg=マスターは個々の生命を<br>独立した存在として認識しています。,param=chr_Lilith:$Right18_FixedTriple:0:0:0:0:0:0:0:0:0,#
*,type=HCHR_TK00,msg=だからマスター<br>これから嘆き、悲しむ。,param=chr_Ruse:$Left12_FixedTriple:0:0:0:0:0:0:0:0:0,#
*,type=HCHR_TK00,msg=哀しみを抱える…,param=chr_Ruse:$Left8_FixedTriple:0:0:0:0:0:0:0:0:0,#
*,type=HCHR_TK00,msg=人間のココロは<br>耐久性に問題がある。,param=chr_Remiss:$Center10:0:0:0:0:0:0:0:0:0,#
*,type=HCHR_TK00,msg=だから、わたしたち願う。,param=chr_Ruse:$Left12_FixedTriple:0:0:0:0:0:0:0:0:0,#
*,type=HCHR_TK00,msg=あなたがマスターを支えることを…,param=chr_Ruse:$Left16_FixedTriple:0:0:0:0:0:0:0:0:0,#
*,type=HCHR_TK01,param=ALL:skipmask:0:0:0:0:0:0:0:0:0,#
*,type=ZIN_0000,param=1:100:0:0:0:$ZOOMTIME:0:0:0:0:0,#
*,type=HCHR_PRM00,param=chr_Remiss:Z$19&19:0:0:0:0:0:0:0:0:0,#
*,type=HCHR_PRM00,param=chr_Ruse:Z$20&20:0:0:0:0:0:0:0:0:0,#
*,type=HCHR_FDM00,param=chr_Ruse:MSK$on:0.5:0:0:0:0:0:0:0:0,#
*,type=HCHR_FDM00,param=chr_Lilith:MSK$off:0.5:0:0:0:0:0:0:0:0,#
*,type=STOP,param=0:0:0:0:0:0:0:0:0:0:0,#
*,type=WAIT_0000,param=0.2:0:0:0:0:0:0:0:0:0:0,#
*,type=HCHR_EFC00,param=Eff_Manp_11:chr_Lilith:manpu_1:0:SS5$$MANP_silence_a:0:1:0:0:0:0,#
*,type=WAIT_0000,param=1.5:0:0:0:0:0:0:0:0:0:0,#
*,type=PICT_0004,param=Eff_Manp_11:0:0:0:0:0:0:0:0:0:0,#
*,type=WAIT_0000,param=0.2:0:0:0:0:0:0:0:0:0:0,#
*,type=HCHR_TK00,msg=……了解しました。,param=chr_Lilith:$Right10_Triple:0:0:0:0:0:0:0:0:0,#
*,type=HCHR_TK01,param=ALL:skipmask:0:0:0:0:0:0:0:0:0,#
*,type=WAIT_0000,param=0.8:0:0:0:0:0:0:0:0:0:0,#
*,type=SE_0000,param=368:0:0:0:0:0:0:0:0:0:0,#
*,type=HCHR_TK00,msg=並列処理開始……<br>完了次第スリープモードに移行……,param=chr_Lilith:$Right16_Triple:nowait:0:0:0:0:0:0:0:0,#
*,type=SE_0000,param=218:0:0:0:0:0:0:0:0:0:0,#
*,type=CSYN_0002,param=0:0:0:0:0:0:0:0:0:0:0,#
*,type=HCHR_TK01,param=ALL:skipmask:0:0:0:0:0:0:0:0:0,#
*,type=ZIN_0000,param=1:0:0:0:0:$ZOOMTIME:0:0:0:0:0,#
*,type=WAIT_0000,param=0.8:0:0:0:0:0:0:0:0:0:0,#
*,type=HCHR_TK00,msg=…正しいハンダンだ。,param=chr_Remiss:$Center10:0:0:0:0:0:0:0:0:0,#
*,type=HCHR_GRP00,param=chr_Ruse:face:ki:$FACE_FadeTime:0:0:0:0:0:0:0,#
*,type=HCHR_TK00,msg=わたしがマスターなら<br>きっと、アナタを褒めた。,param=chr_Ruse:$Left12_FixedTriple:0:0:0:0:0:0:0:0:0,#
*,type=HCHR_TK01,param=ALL:skipmask:0:0:0:0:0:0:0:0:0,#
*,type=HCHR_FDM00,param=ALL:MSK$off:0.5:0:0:0:0:0:0:0:0,#
*,type=WAIT_0000,param=1.5:0:0:0:0:0:0:0:0:0:0,#
*,type=HCHR_POS00,param=chr_Remiss:FADEOUT:T$2.5:0:0:0:0:0:0:0:0,#
*,type=HCHR_POS00,param=chr_Ruse:FADEOUT:T$2.5:0:0:0:0:0:0:0:0,#
*,type=WAIT_0000,param=0.5:0:0:0:0:0:0:0:0:0:0,#
*,type=QUAK_0000,param=0.03:12:12:0:FixRange:0:NoMoveY:0:0:0:0,#
*,type=SE_0000,param=366:0:0:0:0:0:0:0:0:0:0,#
*,type=WAIT_0000,param=1:0:0:0:0:0:0:0:0:0:0,#
*,type=QUAK_0000,param=0.03:12:12:0:FixRange:0:NoMoveY:0:0:0:0,#
*,type=SE_0000,param=366:0:0:0:0:0:0:0:0:0:0,#
*,type=WAIT_0000,param=0.5:0:0:0:0:0:0:0:0:0:0,#
*,type=QUAK_0000,param=0.03:12:12:0:FixRange:0:NoMoveY:0:0:0:0,#
*,type=SE_0000,param=366:0:0:0:0:0:0:0:0:0:0,#
*,type=WAIT_0000,param=0.8:0:0:0:0:0:0:0:0:0:0,#
*,type=QUAK_0000,param=0.03:12:12:0:FixRange:0:NoMoveY:0:0:0:0,#
*,type=SE_0000,param=366:0:0:0:0:0:0:0:0:0:0,#
*,type=WAIT_0000,param=0.5:0:0:0:0:0:0:0:0:0:0,#
*,type=ZIN_0000,param=1:100:0:0:0:0.5:0:0:0:0:0,#
*,type=STOP,param=0:0:0:0:0:0:0:0:0:0:0,#
*,type=HCHR_TK00,msg=<speed=20>サヨナラ……,param=chr_Lilith:$Right6_Triple:0:0:0:0:0:0:0:0:0,#
*,type=HCHR_TK01,param=ALL:0:0:0:0:0:0:0:0:0:0,#
*,type=BGM_0001,param=3:0:0:0:0:0:0:0:0:0:0,#
*,type=SE_0000,param=377:0:0:0:0:0:0:0:0:0:0,#
*,type=HCHR_GRP00,param=chr_Lilith:face:mu:1:0:0:0:0:0:0:0,#
*,type=MSKS_0000,param=filterBlackMask:$BGBLACK_Color:0:Z$50:T$3:0:0:0:0:0:0,#
*,type=WAIT_0000,param=3.5:0:0:0:0:0:0:0:0:0:0,#
*,type=HCHR_POS00,param=chr_Lilith:FADEOUT:0:0:0:0:0:0:0:0:0,#
*,type=HCHR_POS00,param=chr_Lilith:FADEIN:T$0:$OFS_Center:0:0:0:0:0:0:0,#
*,type=ZIN_0000,param=1:0:0:0:0:0.5:0:0:0:0:0,#
*,type=WAIT_0000,param=2.5:0:0:0:0:0:0:0:0:0:0,#
*,type=SE_0000,param=368:0:0:0:0:0:0:0:0:0:0,#
*,type=MSKS_0002,param=filterBlackMask:T$2:0:0:0:0:0:0:0:0:0,#
*,type=WAIT_0000,param=2:0:0:0:0:0:0:0:0:0:0,#
*,type=SE_0000,param=215:0:0:0:0:0:0:0:0:0:0,#
*,type=WAIT_0000,param=0.5:0:0:0:0:0:0:0:0:0:0,#
*,type=HCHR_FDM00,param=chr_Lilith:MSK$on:0.3:0:0:0:0:0:0:0:0,#
*,type=STOP,param=0:0:0:0:0:0:0:0:0:0:0,#
*,type=FMSG_0000,msg=火が入ったかな…ようやくのお目覚めか。,param=chr_noname:$CenterNoTail20:0:0:0:0:0:？？？？:0:0:0,#
*,type=FMSG_0000,msg=ここがどこか解るかい。,param=chr_noname:$CenterNoTail12:0:0:0:0:0:？？？？:0:0:0,#
*,type=FMSG_0001,param=chr_noname:skipmask:0:0:0:0:0:0:0:0:0,#
*,type=ZIN_0000,param=1:0:0:0:0:$ZOOMTIME:0:0:0:0:0,#
*,type=HCHR_FDM00,param=chr_Lilith:MSK$off:0.5:0:0:0:0:0:0:0:0,#
*,type=STOP,param=0:0:0:0:0:0:0:0:0:0:0,#
*,type=HCHR_GRP00,param=chr_Lilith:face:fu:1:0:0:0:0:0:0:0,#
*,type=WAIT_0000,param=0.5:0:0:0:0:0:0:0:0:0:0,#
*,type=HCHR_TK00,msg=私は……,param=chr_Lilith:$Center4:0:0:0:0:0:0:0:0:0,#
*,type=HCHR_TK00,msg=マスターの剣にして盾…,param=chr_Lilith:$Center12:0:0:0:0:0:0:0:0:0,#
*,type=FADEOUT_000,param=5:$BGWHITE_Color:0:0:0:0:0:0:0:0:0,#
*,type=WAIT_0000,param=1:0:0:0:0:0:0:0:0:0:0,#
*,type=HCHR_TK00,msg=<speed=20>コードネーム…リリス……,param=chr_Lilith:$Center12:nowait:0:0:0:0:0:0:0:0,#
*,type=WAIT_0000,param=4:0:0:0:0:0:0:0:0:0:0,#
*,type=MSKS_0000,param=bgWhiteMask:$BGWHITE_Color:0:Z$50:0:0:0:0:0:0:0,#
*,type=HCHR_TK01,param=ALL:0:0:0:0:0:0:0:0:0:0,#
*,type=HCHR_POS00,param=chr_Lilith:FADEOUT:0:0:0:0:0:0:0:0:0,#
*,type=WAIT_0000,param=1.2:0:0:0:0:0:0:0:0:0:0,#
*,type=SE_0000,param=368:0:0:0:0:0:0:0:0:0:0,#
*,type=WAIT_0000,param=0.5:0:0:0:0:0:0:0:0:0:0,#
*,type=FMSG_0000,msg=<speed=12>Ｍｅｍｏｒｙ　Ｏｖｅｒ<speed=20>...,param=chr_narration:$NW_mid:nowait:0:0:0:0:0:0:0:0,#
*,type=CSYN_0001,param=0:0:0:0:0:0:0:0:0:0:0,#
*,type=WAIT_0000,param=1.2:0:0:0:0:0:0:0:0:0:0,#
*,type=SE_0000,param=208:0:0:0:0:0:0:0:0:0:0,#
*,type=FADEOUT_000,param=0.7:00&00&00:0:0:0:0:0:0:0:0:0,#
*,type=WAIT_0000,param=1.2:0:0:0:0:0:0:0:0:0:0,#
*,type=FMSG_0001,param=chr_narration:0:0:0:0:0:0:0:0:0:0,#
*,type=CLSNE_0000,param=0:0:0:0:0:0:0:0:0:0:0,#

*,type=SYSED_00,param=0:0:0:0:0:0:0:0:0:0:0,#



