﻿ScriptCmd ver 1.1.1:ストクエスクリプト_002_エルフ_力田調整中.xlsm/story002-03-02/story002-03-02.csv

*,type=SYSST_00,param=0:0:0:0:0:0:0:0:0:0:0,#
*,type=CMD_STOP,param=0:0:0:0:0:0:0:0:0:0:0,#
*,type=SYSST_01,param=0:0:0:0:0:0:0:0:0:0:0,#


*,type=EVT_CHKTRG,param=0:0:0:0:0:0:0:0:0:0:0,#
*,type=EVT_BTL_STARTBTL,param=1:0:0:0:0:0:0:0:0:0:0,#
*,type=BTL_CMD,param=last_bgm_on:0:0:0:0:0:0:0:0:0:0,#
*,type=BTL_PanelMask,param=ON:0:0:0:0:0:0:0:0:0:0,#
*,type=BTL_STORY,param=START:0:0:SKIPFADE:0:0:0:0:0:0:0,#
*,type=STOP,param=0:0:0:0:0:0:0:0:0:0:0,#
*,type=HCHR_ENT00,param=chr_Voag:ヴォーグ:N$chara_bf2_63_b:$BTLPOS_Left:TYPE$middle:Z$1:0:0:0:0:0,#
*,type=HCHR_ENT00,param=chr_Navarl:ナヴァール:N$chara_bf2_59_b:$BTLPOS_Left:TYPE$middle:Z$1:0:0:0:0:0,#
*,type=HCHR_GRP00,param=chr_Voag:face:ku:T$0:0:0:0:0:0:0:0,#
*,type=HCHR_GRP00,param=chr_Navarl:face:km:T$0:0:0:0:0:0:0:0,#
*,type=STOP,param=0:0:0:0:0:0:0:0:0:0:0,#
*,type=HCHR_POS00,param=chr_Voag:FADEIN:$CHARA_FadeTime:0:0:0:0:0:0:0:0,#
*,type=STOP,param=0:0:0:0:0:0:0:0:0:0:0,#
*,type=HCHR_TK00,msg=くそっ……<wait=3><br>なんだってんだよあのジジィ。,param=chr_Voag:$LeftBattle14:0:0:0:0:0:0:0:0:0,#
*,type=HCHR_TK00,msg=あいつは、俺のことを<br>まだ半人前だと思ってやがる。,param=chr_Voag:$Mono_L_L_Battle:0:0:0:0:0:0:0:0:0,#
*,type=HCHR_TK00,msg=なら……<wait=3>もっと強くなって……,param=chr_Voag:$Mono_L_L_Battle:0:0:0:0:0:0:0:0:0,#
*,type=HCHR_GRP00,param=chr_Voag:face:do:$FACE_FadeTime:0:0:0:0:0:0:0,#
*,type=HCHR_TK00,msg=俺が獣人族の歴史を<br>変えるってことを、証明してやる!!,param=chr_Voag:$LeftBattle16:0:0:0:0:0:0:0:0:0,#
*,type=HCHR_TK01,param=all:0:0:0:0:0:0:0:0:0:0,#
*,type=HCHR_POS00,param=chr_Voag:FADEOUT:$CHARA_FadeTime:0:0:0:0:0:0:0:0,#
*,type=HCHR_POS00,param=chr_Navarl:FADEIN:$CHARA_FadeTime:0:0:0:0:0:0:0:0,#
*,type=STOP,param=0:0:0:0:0:0:0:0:0:0:0,#
*,type=HCHR_TK00,msg=<speed=9>…………,param=chr_Navarl:$LeftBattle4:0:0:0:0:0:0:0:0:0,#
*,type=HCHR_TK01,param=all:0:0:0:0:0:0:0:0:0:0,#
*,type=HCHR_POS00,param=chr_Navarl:FADEOUT:$CHARA_FadeTime:0:0:0:0:0:0:0:0,#
*,type=STOP,param=0:0:0:0:0:0:0:0:0:0:0,#
*,type=HCHR_ENT01,param=chr_Voag:0:0:0:0:0:0:0:0:0:0,#
*,type=HCHR_ENT01,param=chr_Navarl:0:0:0:0:0:0:0:0:0:0,#
*,type=BTL_STORY,param=END:0:0:SKIPFADE:0:0:0:0:0:0:0,#
*,type=BTL_PanelMask,param=OFF:0:0:0:0:0:0:0:0:0:0,#
*,type=EVT_BLOCKEND,param=0:0:0:0:0:0:0:0:0:0:0,#
*,type=EVT_BTL_ENDBTL,param=3:0:0:0:0:0:0:0:0:0:0,#
*,type=BTL_PanelMask,param=ON:0:0:0:0:0:0:0:0:0:0,#
*,type=BTL_STORY,param=START:0:0:SKIPFADE:0:0:0:0:0:0:0,#
*,type=STOP,param=0:0:0:0:0:0:0:0:0:0:0,#
*,type=HCHR_ENT00,param=chr_Kilica:キリカ:N$chara_bf2_64_b:$BTLPOS_Left:TYPE$middle:Z$1:0:0:0:0:0,#
*,type=HCHR_ENT00,param=chr_Voag:ヴォーグ:N$chara_bf2_63_b:$BTLPOS_Left:TYPE$middle:Z$1:0:0:0:0:0,#
*,type=HCHR_GRP00,param=chr_Kilica:face:bi:T$0:0:0:0:0:0:0:0,#
*,type=STOP,param=0:0:0:0:0:0:0:0:0:0:0,#
*,type=WAIT_0000,param=0.3:0:0:0:0:0:0:0:0:0:0,#
*,type=SE_0000,param=308:0:0:0:0:0:0:0:0:0:0,#
*,type=WAIT_0000,param=0.7:0:0:0:0:0:0:0:0:0:0,#
*,type=SE_0000,param=312:0:0:0:0:0:0:0:0:0:0,#
*,type=SE_0000,param=345:0:0:0:0:0:0:0:0:0:0,#
*,type=HCHR_POS00,param=chr_Kilica:FADEIN:T$0.15:0:0:0:0:0:0:0:0,#
*,type=WAIT_0000,param=1:0:0:0:0:0:0:0:0:0:0,#
*,type=HCHR_TK00,msg=<speed=3>ヴォーグの兄貴！<wait=2><br>大変だ！すぐに来てくれ！,param=chr_Kilica:$LeftBattle12:0:0:0:0:0:0:0:0:0,#
*,type=HCHR_TK01,param=all:0:0:0:0:0:0:0:0:0:0,#
*,type=HCHR_POS00,param=chr_Kilica:FADEOUT:$CHARA_FadeTime:0:0:0:0:0:0:0:0,#
*,type=HCHR_GRP00,param=chr_Voag:face:mu:T$0:0:0:0:0:0:0:0,#
*,type=HCHR_POS00,param=chr_Voag:FADEIN:$CHARA_FadeTime:0:0:0:0:0:0:0:0,#
*,type=STOP,param=0:0:0:0:0:0:0:0:0:0:0,#
*,type=HCHR_TK00,msg=ん？,param=chr_Voag:$LeftBattle2:0:0:0:0:0:0:0:0:0,#
*,type=HCHR_TK01,param=all:0:0:0:0:0:0:0:0:0:0,#
*,type=HCHR_POS00,param=chr_Voag:FADEOUT:$CHARA_FadeTime:0:0:0:0:0:0:0:0,#
*,type=HCHR_POS00,param=chr_Kilica:FADEIN:$CHARA_FadeTime:0:0:0:0:0:0:0:0,#
*,type=STOP,param=0:0:0:0:0:0:0:0:0:0:0,#
*,type=HCHR_TK00,msg=<speed=7>じいちゃんが……<wait=3><br><speed=3>じいちゃんが倒れたんだ!!,param=chr_Kilica:$LeftBattle12:0:0:0:0:0:0:0:0:0,#
*,type=HCHR_TK01,param=all:0:0:0:0:0:0:0:0:0:0,#
*,type=HCHR_POS00,param=chr_Kilica:FADEOUT:$CHARA_FadeTime:0:0:0:0:0:0:0:0,#
*,type=STOP,param=0:0:0:0:0:0:0:0:0:0:0,#
*,type=WAIT_0000,param=0.5:0:0:0:0:0:0:0:0:0:0,#
*,type=HCHR_ENT01,param=chr_Voag:0:0:0:0:0:0:0:0:0:0,#
*,type=HCHR_ENT01,param=chr_Navarl:0:0:0:0:0:0:0:0:0:0,#
*,type=BTL_STORY,param=END:0:0:SKIPFADE:0:0:0:0:0:0:0,#
*,type=BTL_PanelMask,param=OFF:0:0:0:0:0:0:0:0:0:0,#
*,type=EVT_BLOCKEND,param=0:0:0:0:0:0:0:0:0:0:0,#

*,type=SYSED_00,param=0:0:0:0:0:0:0:0:0:0:0,#



