[
    {
        "P_RESOURCE_ID": "2",
        "P_RESOURCE_TYPE": "100",
        "P_RESOURCE_GROUP": "",
        "jsRoN50z": "http://resource.cdn.bravefrontier2.jp/bf2/resource/",
        "P_PATH": "area",
        "P_GROUP_NAME": "area",
        "P_FILE_NAME": "area.cpk",
        "P_EXT_IMG_PARAM": "\u30a8\u30ea\u30a2\u30ea\u30bd\u30fc\u30b9",
        "aigSzwVh": "0",
        "jb0WsR6n": "66c7b7f622c976aebb2948890e1cde4a"
    },
    {
        "P_RESOURCE_ID": "4",
        "P_RESOURCE_TYPE": "1",
        "P_RESOURCE_GROUP": "",
        "jsRoN50z": "http://resource.cdn.bravefrontier2.jp/bf2/resource/",
        "P_PATH": "script",
        "P_GROUP_NAME": "event",
        "P_FILE_NAME": "script.cpk",
        "P_EXT_IMG_PARAM": "\u30b9\u30af\u30ea\u30d7\u30c8",
        "aigSzwVh": "0",
        "jb0WsR6n": "6df0baf9aa2ddfd23cbceb5458d691bd"
    },
    {
        "P_RESOURCE_ID": "5",
        "P_RESOURCE_TYPE": "1",
        "P_RESOURCE_GROUP": "",
        "jsRoN50z": "http://resource.cdn.bravefrontier2.jp/bf2/resource/",
        "P_PATH": "item",
        "P_GROUP_NAME": "item",
        "P_FILE_NAME": "item.cpk",
        "P_EXT_IMG_PARAM": "\u30a2\u30a4\u30c6\u30e0",
        "aigSzwVh": "0",
        "jb0WsR6n": "2cd9f14250af63eb4d918c08985bf107"
    },
    {
        "P_RESOURCE_ID": "7",
        "P_RESOURCE_TYPE": "100",
        "P_RESOURCE_GROUP": "",
        "jsRoN50z": "http://resource.cdn.bravefrontier2.jp/bf2/resource/",
        "P_PATH": "summon",
        "P_GROUP_NAME": "summon",
        "P_FILE_NAME": "summon.cpk",
        "P_EXT_IMG_PARAM": "\u30e6\u30cb\u30c3\u30c8\u53ec\u559a",
        "aigSzwVh": "0",
        "jb0WsR6n": "47e23f4446107b6ff9252df88c092546"
    },
    {
        "P_RESOURCE_ID": "9",
        "P_RESOURCE_TYPE": "100",
        "P_RESOURCE_GROUP": "weapon",
        "jsRoN50z": "http://resource.cdn.bravefrontier2.jp/bf2/resource/",
        "P_PATH": "weapon",
        "P_GROUP_NAME": "weapon",
        "P_FILE_NAME": "weapon.cpk",
        "P_EXT_IMG_PARAM": "\u6b66\u5668",
        "aigSzwVh": "0",
        "jb0WsR6n": "18621a28719fa42034d41f1321a19d08"
    },
    {
        "P_RESOURCE_ID": "10",
        "P_RESOURCE_TYPE": "1",
        "P_RESOURCE_GROUP": "xbb",
        "jsRoN50z": "http://resource.cdn.bravefrontier2.jp/bf2/resource/",
        "P_PATH": "xbb",
        "P_GROUP_NAME": "xbb",
        "P_FILE_NAME": "xbb.cpk",
        "P_EXT_IMG_PARAM": "XBB",
        "aigSzwVh": "0",
        "jb0WsR6n": "8afeb975a604a85fe29be1a1ea8d84e4"
    },
    {
        "P_RESOURCE_ID": "11",
        "P_RESOURCE_TYPE": "1",
        "P_RESOURCE_GROUP": "effectSG",
        "jsRoN50z": "http://resource.cdn.bravefrontier2.jp/bf2/resource/",
        "P_PATH": "effectSG",
        "P_GROUP_NAME": "effectSG",
        "P_FILE_NAME": "effectSG.cpk",
        "P_EXT_IMG_PARAM": "\u30a8\u30d5\u30a7\u30af\u30c8\u30b9\u30d1\u30fc\u30af\u30ae\u30a2",
        "aigSzwVh": "0",
        "jb0WsR6n": "041ed66f17f0ded3d95a5926234995fe"
    },
    {
        "P_RESOURCE_ID": "13",
        "P_RESOURCE_TYPE": "100",
        "P_RESOURCE_GROUP": "monster",
        "jsRoN50z": "http://resource.cdn.bravefrontier2.jp/bf2/resource/",
        "P_PATH": "monster",
        "P_GROUP_NAME": "monster",
        "P_FILE_NAME": "monster.cpk",
        "P_EXT_IMG_PARAM": "\u30e2\u30f3\u30b9\u30bf\u30fc\u30ea\u30bd\u30fc\u30b9",
        "aigSzwVh": "0",
        "jb0WsR6n": "df73d7872b47921af02de9a4f19efd39"
    },
    {
        "P_RESOURCE_ID": "14",
        "P_RESOURCE_TYPE": "100",
        "P_RESOURCE_GROUP": "library",
        "jsRoN50z": "http://resource.cdn.bravefrontier2.jp/bf2/resource/",
        "P_PATH": "library",
        "P_GROUP_NAME": "library",
        "P_FILE_NAME": "library.cpk",
        "P_EXT_IMG_PARAM": "\u56f3\u9451",
        "aigSzwVh": "0",
        "jb0WsR6n": "f592679ffdfc95fd71975175566b741d"
    },
    {
        "P_RESOURCE_ID": "15",
        "P_RESOURCE_TYPE": "1",
        "P_RESOURCE_GROUP": "banner",
        "jsRoN50z": "http://resource.cdn.bravefrontier2.jp/bf2/resource/",
        "P_PATH": "banner",
        "P_GROUP_NAME": "banner",
        "P_FILE_NAME": "banner.cpk",
        "P_EXT_IMG_PARAM": "\u30d0\u30ca\u30fc",
        "aigSzwVh": "0",
        "jb0WsR6n": "73cc112085d8df1122c500645066f0ac"
    },
    {
        "P_RESOURCE_ID": "211",
        "P_RESOURCE_TYPE": "100",
        "P_RESOURCE_GROUP": "book",
        "jsRoN50z": "http://resource.cdn.bravefrontier2.jp/bf2/resource/",
        "P_PATH": "book",
        "P_GROUP_NAME": "book",
        "P_FILE_NAME": "book.cpk",
        "P_EXT_IMG_PARAM": "\u30d6\u30c3\u30af",
        "aigSzwVh": "0",
        "jb0WsR6n": "f189faf375870b677f8b9e3833c78af3"
    },
    {
        "P_RESOURCE_ID": "213",
        "P_RESOURCE_TYPE": "1",
        "P_RESOURCE_GROUP": "partner",
        "jsRoN50z": "http://resource.cdn.bravefrontier2.jp/bf2/resource/",
        "P_PATH": "partner",
        "P_GROUP_NAME": "partner",
        "P_FILE_NAME": "partner.cpk",
        "P_EXT_IMG_PARAM": "\u30d1\u30fc\u30c8\u30ca\u30fc",
        "aigSzwVh": "0",
        "jb0WsR6n": "c2f4703308cdfb1a03619e9f93672cc0"
    },
    {
        "P_RESOURCE_ID": "217",
        "P_RESOURCE_TYPE": "1",
        "P_RESOURCE_GROUP": "sound",
        "jsRoN50z": "http://resource.cdn.bravefrontier2.jp/bf2/resource/",
        "P_PATH": "sound",
        "P_GROUP_NAME": "sound",
        "P_FILE_NAME": "SE.acb",
        "P_EXT_IMG_PARAM": "SE",
        "aigSzwVh": "0",
        "jb0WsR6n": "f861a90b11ea338be10dc699a963aac5"
    },
    {
        "P_RESOURCE_ID": "218",
        "P_RESOURCE_TYPE": "1",
        "P_RESOURCE_GROUP": "sound",
        "jsRoN50z": "http://resource.cdn.bravefrontier2.jp/bf2/resource/",
        "P_PATH": "sound",
        "P_GROUP_NAME": "sound",
        "P_FILE_NAME": "JINGLE.acb",
        "P_EXT_IMG_PARAM": "\u30b8\u30f3\u30b0\u30eb",
        "aigSzwVh": "0",
        "jb0WsR6n": "982e2dedb98aae7d046d03561c818c1f"
    },
    {
        "P_RESOURCE_ID": "219",
        "P_RESOURCE_TYPE": "100",
        "P_RESOURCE_GROUP": "sound",
        "jsRoN50z": "http://resource.cdn.bravefrontier2.jp/bf2/resource/",
        "P_PATH": "sound",
        "P_GROUP_NAME": "sound",
        "P_FILE_NAME": "BF2_001_ttl_top.acb",
        "P_EXT_IMG_PARAM": "\u30bf\u30a4\u30c8\u30eb",
        "aigSzwVh": "0",
        "jb0WsR6n": "df8c8c2427a726d9ce09b0e3effff6d4"
    },
    {
        "P_RESOURCE_ID": "220",
        "P_RESOURCE_TYPE": "1",
        "P_RESOURCE_GROUP": "sound",
        "jsRoN50z": "http://resource.cdn.bravefrontier2.jp/bf2/resource/",
        "P_PATH": "sound",
        "P_GROUP_NAME": "sound",
        "P_FILE_NAME": "BF2_002_hom_hero.acb",
        "P_EXT_IMG_PARAM": "\u30db\u30fc\u30e0\u753b\u9762\uff08\u4e3b\u4eba\u516c\uff09",
        "aigSzwVh": "0",
        "jb0WsR6n": "8d0c9852bedea2acb1faf10b733921db"
    },
    {
        "P_RESOURCE_ID": "221",
        "P_RESOURCE_TYPE": "100",
        "P_RESOURCE_GROUP": "sound",
        "jsRoN50z": "http://resource.cdn.bravefrontier2.jp/bf2/resource/",
        "P_PATH": "sound",
        "P_GROUP_NAME": "sound",
        "P_FILE_NAME": "BF2_003_hom_heroine.acb",
        "P_EXT_IMG_PARAM": "\u30db\u30fc\u30e0\u753b\u9762\uff08\u30ea\u30f3\uff09",
        "aigSzwVh": "0",
        "jb0WsR6n": "5966e31cda218a7cf327d5c71219a9b5"
    },
    {
        "P_RESOURCE_ID": "222",
        "P_RESOURCE_TYPE": "100",
        "P_RESOURCE_GROUP": "sound",
        "jsRoN50z": "http://resource.cdn.bravefrontier2.jp/bf2/resource/",
        "P_PATH": "sound",
        "P_GROUP_NAME": "sound",
        "P_FILE_NAME": "BF2_004_hom_join.acb",
        "P_EXT_IMG_PARAM": "\u30db\u30fc\u30e0\u753b\u9762\uff08\u5408\u6d41\u5f8c\uff09",
        "aigSzwVh": "0",
        "jb0WsR6n": "1ed097f6d7cbaa0112e6a0c7f3f94646"
    },
    {
        "P_RESOURCE_ID": "223",
        "P_RESOURCE_TYPE": "100",
        "P_RESOURCE_GROUP": "sound",
        "jsRoN50z": "http://resource.cdn.bravefrontier2.jp/bf2/resource/",
        "P_PATH": "sound",
        "P_GROUP_NAME": "sound",
        "P_FILE_NAME": "BF2_005_arn_top.acb",
        "P_EXT_IMG_PARAM": "\u30a2\u30ea\u30fc\u30ca\u30c8\u30c3\u30d7",
        "aigSzwVh": "0",
        "jb0WsR6n": "ac3df5f0926ec75d400a73ec7ca606c7"
    },
    {
        "P_RESOURCE_ID": "224",
        "P_RESOURCE_TYPE": "100",
        "P_RESOURCE_GROUP": "sound",
        "jsRoN50z": "http://resource.cdn.bravefrontier2.jp/bf2/resource/",
        "P_PATH": "sound",
        "P_GROUP_NAME": "sound",
        "P_FILE_NAME": "BF2_006_arn_battle.acb",
        "P_EXT_IMG_PARAM": "\u30a2\u30ea\u30fc\u30ca\u30d0\u30c8\u30eb",
        "aigSzwVh": "0",
        "jb0WsR6n": "d3c94350de4a86b65a8e8d69a42981a0"
    },
    {
        "P_RESOURCE_ID": "225",
        "P_RESOURCE_TYPE": "100",
        "P_RESOURCE_GROUP": "sound",
        "jsRoN50z": "http://resource.cdn.bravefrontier2.jp/bf2/resource/",
        "P_PATH": "sound",
        "P_GROUP_NAME": "sound",
        "P_FILE_NAME": "BF2_007_rdl_randall.acb",
        "P_EXT_IMG_PARAM": "\u30e9\u30f3\u30c9\u30fc\u30eb",
        "aigSzwVh": "0",
        "jb0WsR6n": "595ca3729602c2d95478d453111980f2"
    },
    {
        "P_RESOURCE_ID": "226",
        "P_RESOURCE_TYPE": "100",
        "P_RESOURCE_GROUP": "sound",
        "jsRoN50z": "http://resource.cdn.bravefrontier2.jp/bf2/resource/",
        "P_PATH": "sound",
        "P_GROUP_NAME": "sound",
        "P_FILE_NAME": "BF2_008_btl_result.acb",
        "P_EXT_IMG_PARAM": "\u30d0\u30c8\u30eb\u30ea\u30b6\u30eb\u30c8",
        "aigSzwVh": "0",
        "jb0WsR6n": "e9a4459057c2a69ce1f5e97c64db81ae"
    },
    {
        "P_RESOURCE_ID": "227",
        "P_RESOURCE_TYPE": "100",
        "P_RESOURCE_GROUP": "sound",
        "jsRoN50z": "http://resource.cdn.bravefrontier2.jp/bf2/resource/",
        "P_PATH": "sound",
        "P_GROUP_NAME": "sound",
        "P_FILE_NAME": "BF2_009_qst_top.acb",
        "P_EXT_IMG_PARAM": "\u30af\u30a8\u30b9\u30c8\u30c8\u30c3\u30d7",
        "aigSzwVh": "0",
        "jb0WsR6n": "552f1c4ef41767a01eeebde9d35840a3"
    },
    {
        "P_RESOURCE_ID": "228",
        "P_RESOURCE_TYPE": "100",
        "P_RESOURCE_GROUP": "sound",
        "jsRoN50z": "http://resource.cdn.bravefrontier2.jp/bf2/resource/",
        "P_PATH": "sound",
        "P_GROUP_NAME": "sound",
        "P_FILE_NAME": "BF2_010_qst_grangaia.acb",
        "P_EXT_IMG_PARAM": "\u30af\u30a8\u30b9\u30c8\uff08\u30b0\u30e9\u30f3\u30ac\u30a4\u30a2\uff09",
        "aigSzwVh": "0",
        "jb0WsR6n": "1926027dadb5680dd1b108e5521f12e8"
    },
    {
        "P_RESOURCE_ID": "229",
        "P_RESOURCE_TYPE": "100",
        "P_RESOURCE_GROUP": "sound",
        "jsRoN50z": "http://resource.cdn.bravefrontier2.jp/bf2/resource/",
        "P_PATH": "sound",
        "P_GROUP_NAME": "sound",
        "P_FILE_NAME": "BF2_011_qst_bada-fana.acb",
        "P_EXT_IMG_PARAM": "\u30af\u30a8\u30b9\u30c8\uff08\u30d0\u30c0\u30fb\u30d5\u30a1\u30ca\uff09",
        "aigSzwVh": "0",
        "jb0WsR6n": "d607b62360b83e1af391e4178efd8c3f"
    },
    {
        "P_RESOURCE_ID": "230",
        "P_RESOURCE_TYPE": "100",
        "P_RESOURCE_GROUP": "sound",
        "jsRoN50z": "http://resource.cdn.bravefrontier2.jp/bf2/resource/",
        "P_PATH": "sound",
        "P_GROUP_NAME": "sound",
        "P_FILE_NAME": "BF2_012_qst_extus.acb",
        "P_EXT_IMG_PARAM": "\u30af\u30a8\u30b9\u30c8\uff08\u30a4\u30af\u30b9\u30bf\u30b9\uff09",
        "aigSzwVh": "0",
        "jb0WsR6n": "83b0fdac7b964b2a722e7d53e8aabe1a"
    },
    {
        "P_RESOURCE_ID": "231",
        "P_RESOURCE_TYPE": "100",
        "P_RESOURCE_GROUP": "sound",
        "jsRoN50z": "http://resource.cdn.bravefrontier2.jp/bf2/resource/",
        "P_PATH": "sound",
        "P_GROUP_NAME": "sound",
        "P_FILE_NAME": "BF2_013_qst_seltabia.acb",
        "P_EXT_IMG_PARAM": "\u30af\u30a8\u30b9\u30c8\uff08\u30bb\u30eb\u30bf\u30d3\u30a2\uff09",
        "aigSzwVh": "0",
        "jb0WsR6n": "f29768f28baa40d1872756542a5f7137"
    },
    {
        "P_RESOURCE_ID": "232",
        "P_RESOURCE_TYPE": "100",
        "P_RESOURCE_GROUP": "sound",
        "jsRoN50z": "http://resource.cdn.bravefrontier2.jp/bf2/resource/",
        "P_PATH": "sound",
        "P_GROUP_NAME": "sound",
        "P_FILE_NAME": "BF2_014_hzm_top.acb",
        "P_EXT_IMG_PARAM": "\u30b2\u30fc\u30c8\u306e\u72ed\u9593",
        "aigSzwVh": "0",
        "jb0WsR6n": "5951996f1ec01c8bd09e171240b7fba5"
    },
    {
        "P_RESOURCE_ID": "233",
        "P_RESOURCE_TYPE": "1",
        "P_RESOURCE_GROUP": "sound",
        "jsRoN50z": "http://resource.cdn.bravefrontier2.jp/bf2/resource/",
        "P_PATH": "sound",
        "P_GROUP_NAME": "sound",
        "P_FILE_NAME": "BF2_020_thm_rumford.acb",
        "P_EXT_IMG_PARAM": "\u30e9\u30f3\u30d5\u30a9\u30fc\u30c9\u306e\u30c6\u30fc\u30de",
        "aigSzwVh": "0",
        "jb0WsR6n": "bc8db898652a27b9370e2a332325b1c5"
    },
    {
        "P_RESOURCE_ID": "234",
        "P_RESOURCE_TYPE": "100",
        "P_RESOURCE_GROUP": "sound",
        "jsRoN50z": "http://resource.cdn.bravefrontier2.jp/bf2/resource/",
        "P_PATH": "sound",
        "P_GROUP_NAME": "sound",
        "P_FILE_NAME": "BF2_021_thm_elhaza.acb",
        "P_EXT_IMG_PARAM": "\u30a8\u30eb\u30cf\u30b6\u306e\u30c6\u30fc\u30de",
        "aigSzwVh": "0",
        "jb0WsR6n": "913dd825552703a72b9c9205b03cdb85"
    },
    {
        "P_RESOURCE_ID": "235",
        "P_RESOURCE_TYPE": "100",
        "P_RESOURCE_GROUP": "sound",
        "jsRoN50z": "http://resource.cdn.bravefrontier2.jp/bf2/resource/",
        "P_PATH": "sound",
        "P_GROUP_NAME": "sound",
        "P_FILE_NAME": "BF2_022_thm_shia.acb",
        "P_EXT_IMG_PARAM": "\u30b7\u30e3\u30a4\u30a2\u306e\u30c6\u30fc\u30de",
        "aigSzwVh": "0",
        "jb0WsR6n": "fc84c7227097ee16ae823d6e5884e822"
    },
    {
        "P_RESOURCE_ID": "236",
        "P_RESOURCE_TYPE": "100",
        "P_RESOURCE_GROUP": "sound",
        "jsRoN50z": "http://resource.cdn.bravefrontier2.jp/bf2/resource/",
        "P_PATH": "sound",
        "P_GROUP_NAME": "sound",
        "P_FILE_NAME": "BF2_023_thm_melfel.acb",
        "P_EXT_IMG_PARAM": "\u30e1\u30eb\u30d5\u30a7\u30eb\u306e\u30c6\u30fc\u30de",
        "aigSzwVh": "0",
        "jb0WsR6n": "2bf330c2d8769b90651112c10d3cae40"
    },
    {
        "P_RESOURCE_ID": "237",
        "P_RESOURCE_TYPE": "100",
        "P_RESOURCE_GROUP": "sound",
        "jsRoN50z": "http://resource.cdn.bravefrontier2.jp/bf2/resource/",
        "P_PATH": "sound",
        "P_GROUP_NAME": "sound",
        "P_FILE_NAME": "BF2_024_thm_barragan.acb",
        "P_EXT_IMG_PARAM": "\u30d0\u30e9\u30ac\u30f3\u306e\u30c6\u30fc\u30de",
        "aigSzwVh": "0",
        "jb0WsR6n": "d00c0454f1dffd97e56218f4b06ed1af"
    },
    {
        "P_RESOURCE_ID": "238",
        "P_RESOURCE_TYPE": "100",
        "P_RESOURCE_GROUP": "sound",
        "jsRoN50z": "http://resource.cdn.bravefrontier2.jp/bf2/resource/",
        "P_PATH": "sound",
        "P_GROUP_NAME": "sound",
        "P_FILE_NAME": "BF2_025_thm_hilda.acb",
        "P_EXT_IMG_PARAM": "\u30d2\u30eb\u30c0\u306e\u30c6\u30fc\u30de",
        "aigSzwVh": "0",
        "jb0WsR6n": "85bace72ddc39d3d66ae0fe17568e489"
    },
    {
        "P_RESOURCE_ID": "239",
        "P_RESOURCE_TYPE": "100",
        "P_RESOURCE_GROUP": "sound",
        "jsRoN50z": "http://resource.cdn.bravefrontier2.jp/bf2/resource/",
        "P_PATH": "sound",
        "P_GROUP_NAME": "sound",
        "P_FILE_NAME": "BF2_026_thm_rene.acb",
        "P_EXT_IMG_PARAM": "\u30eb\u30cd\u306e\u30c6\u30fc\u30de",
        "aigSzwVh": "0",
        "jb0WsR6n": "8fa0247eab296d7ab6c43d2b739fb702"
    },
    {
        "P_RESOURCE_ID": "240",
        "P_RESOURCE_TYPE": "100",
        "P_RESOURCE_GROUP": "sound",
        "jsRoN50z": "http://resource.cdn.bravefrontier2.jp/bf2/resource/",
        "P_PATH": "sound",
        "P_GROUP_NAME": "sound",
        "P_FILE_NAME": "BF2_027_thm_zad.acb",
        "P_EXT_IMG_PARAM": "\u30b6\u30c9\u306e\u30c6\u30fc\u30de",
        "aigSzwVh": "0",
        "jb0WsR6n": "127902ba9e7820a4863242eaa32b3dc3"
    },
    {
        "P_RESOURCE_ID": "241",
        "P_RESOURCE_TYPE": "100",
        "P_RESOURCE_GROUP": "sound",
        "jsRoN50z": "http://resource.cdn.bravefrontier2.jp/bf2/resource/",
        "P_PATH": "sound",
        "P_GROUP_NAME": "sound",
        "P_FILE_NAME": "BF2_028_scr_sad.acb",
        "P_EXT_IMG_PARAM": "\u30b7\u30fc\u30f3\u60b2\u58ee",
        "aigSzwVh": "0",
        "jb0WsR6n": "5a6b7769d19f1b9e6bd382c9c4f8d0e3"
    },
    {
        "P_RESOURCE_ID": "242",
        "P_RESOURCE_TYPE": "100",
        "P_RESOURCE_GROUP": "sound",
        "jsRoN50z": "http://resource.cdn.bravefrontier2.jp/bf2/resource/",
        "P_PATH": "sound",
        "P_GROUP_NAME": "sound",
        "P_FILE_NAME": "BF2_029_scr_brave.acb",
        "P_EXT_IMG_PARAM": "\u30b7\u30fc\u30f3\u52c7\u58ee",
        "aigSzwVh": "0",
        "jb0WsR6n": "912bc37bf2dac86609d4bbf1fe8c7ba0"
    },
    {
        "P_RESOURCE_ID": "243",
        "P_RESOURCE_TYPE": "100",
        "P_RESOURCE_GROUP": "sound",
        "jsRoN50z": "http://resource.cdn.bravefrontier2.jp/bf2/resource/",
        "P_PATH": "sound",
        "P_GROUP_NAME": "sound",
        "P_FILE_NAME": "BF2_030_scr_calm.acb",
        "P_EXT_IMG_PARAM": "\u30b7\u30fc\u30f3\u7a4f\u3084\u304b",
        "aigSzwVh": "0",
        "jb0WsR6n": "c7fb4ab46efc7d76d9d76a1e367ab93d"
    },
    {
        "P_RESOURCE_ID": "244",
        "P_RESOURCE_TYPE": "100",
        "P_RESOURCE_GROUP": "sound",
        "jsRoN50z": "http://resource.cdn.bravefrontier2.jp/bf2/resource/",
        "P_PATH": "sound",
        "P_GROUP_NAME": "sound",
        "P_FILE_NAME": "BF2_031_scr_pinch.acb",
        "P_EXT_IMG_PARAM": "\u30b7\u30fc\u30f3\u30d4\u30f3\u30c1",
        "aigSzwVh": "0",
        "jb0WsR6n": "6d1c876702330c77b18f70c7a3dc5c9c"
    },
    {
        "P_RESOURCE_ID": "245",
        "P_RESOURCE_TYPE": "1",
        "P_RESOURCE_GROUP": "sound",
        "jsRoN50z": "http://resource.cdn.bravefrontier2.jp/bf2/resource/",
        "P_PATH": "sound",
        "P_GROUP_NAME": "sound",
        "P_FILE_NAME": "BF2_032_scr_tension.acb",
        "P_EXT_IMG_PARAM": "\u30b7\u30fc\u30f3\u7dca\u5f35",
        "aigSzwVh": "0",
        "jb0WsR6n": "989910473133b6c2a23599c054bcf821"
    },
    {
        "P_RESOURCE_ID": "246",
        "P_RESOURCE_TYPE": "100",
        "P_RESOURCE_GROUP": "sound",
        "jsRoN50z": "http://resource.cdn.bravefrontier2.jp/bf2/resource/",
        "P_PATH": "sound",
        "P_GROUP_NAME": "sound",
        "P_FILE_NAME": "BF2_033_scr_mystery.acb",
        "P_EXT_IMG_PARAM": "\u30b7\u30fc\u30f3\u8b0e",
        "aigSzwVh": "0",
        "jb0WsR6n": "74f8b6c832a9e7bd4678cf4c765b02c5"
    },
    {
        "P_RESOURCE_ID": "247",
        "P_RESOURCE_TYPE": "100",
        "P_RESOURCE_GROUP": "sound",
        "jsRoN50z": "http://resource.cdn.bravefrontier2.jp/bf2/resource/",
        "P_PATH": "sound",
        "P_GROUP_NAME": "sound",
        "P_FILE_NAME": "BF2_034_scr_anxiety.acb",
        "P_EXT_IMG_PARAM": "\u30b7\u30fc\u30f3\u4e0d\u5b89",
        "aigSzwVh": "0",
        "jb0WsR6n": "608d597554bd41629f2ed5f692fbb94f"
    },
    {
        "P_RESOURCE_ID": "248",
        "P_RESOURCE_TYPE": "100",
        "P_RESOURCE_GROUP": "sound",
        "jsRoN50z": "http://resource.cdn.bravefrontier2.jp/bf2/resource/",
        "P_PATH": "sound",
        "P_GROUP_NAME": "sound",
        "P_FILE_NAME": "BF2_035_scr_peace.acb",
        "P_EXT_IMG_PARAM": "\u30b7\u30fc\u30f3\u5b89\u5835",
        "aigSzwVh": "0",
        "jb0WsR6n": "ff0c5f1f1097ee543019da56c4a2c0aa"
    },
    {
        "P_RESOURCE_ID": "249",
        "P_RESOURCE_TYPE": "100",
        "P_RESOURCE_GROUP": "sound",
        "jsRoN50z": "http://resource.cdn.bravefrontier2.jp/bf2/resource/",
        "P_PATH": "sound",
        "P_GROUP_NAME": "sound",
        "P_FILE_NAME": "BF2_036_btl_7boss1.acb",
        "P_EXT_IMG_PARAM": "\u4e03\u9b54\u5c06\u30d0\u30c8\u30eb1",
        "aigSzwVh": "0",
        "jb0WsR6n": "16a514f44d237d40a4c1461af18598cf"
    },
    {
        "P_RESOURCE_ID": "250",
        "P_RESOURCE_TYPE": "100",
        "P_RESOURCE_GROUP": "sound",
        "jsRoN50z": "http://resource.cdn.bravefrontier2.jp/bf2/resource/",
        "P_PATH": "sound",
        "P_GROUP_NAME": "sound",
        "P_FILE_NAME": "BF2_037_btl_7boss2.acb",
        "P_EXT_IMG_PARAM": "\u4e03\u9b54\u5c06\u30d0\u30c8\u30eb2",
        "aigSzwVh": "0",
        "jb0WsR6n": "c55cdab0c9324a06a75f08eff459c153"
    },
    {
        "P_RESOURCE_ID": "251",
        "P_RESOURCE_TYPE": "100",
        "P_RESOURCE_GROUP": "sound",
        "jsRoN50z": "http://resource.cdn.bravefrontier2.jp/bf2/resource/",
        "P_PATH": "sound",
        "P_GROUP_NAME": "sound",
        "P_FILE_NAME": "BF2_038_btl_mimic.acb",
        "P_EXT_IMG_PARAM": "\u30df\u30df\u30c3\u30af",
        "aigSzwVh": "0",
        "jb0WsR6n": "1496613e0e044f80baf5d364cf8f2be2"
    },
    {
        "P_RESOURCE_ID": "252",
        "P_RESOURCE_TYPE": "100",
        "P_RESOURCE_GROUP": "sound",
        "jsRoN50z": "http://resource.cdn.bravefrontier2.jp/bf2/resource/",
        "P_PATH": "sound",
        "P_GROUP_NAME": "sound",
        "P_FILE_NAME": "BF2_039_btl_boss01.acb",
        "P_EXT_IMG_PARAM": "\u30dc\u30b9\u30d0\u30c8\u30eb1",
        "aigSzwVh": "0",
        "jb0WsR6n": "dc18a34dbd5c304579d38bb66920ae01"
    },
    {
        "P_RESOURCE_ID": "253",
        "P_RESOURCE_TYPE": "1",
        "P_RESOURCE_GROUP": "sound",
        "jsRoN50z": "http://resource.cdn.bravefrontier2.jp/bf2/resource/",
        "P_PATH": "sound",
        "P_GROUP_NAME": "sound",
        "P_FILE_NAME": "BF2_040_btl_nomal01.acb",
        "P_EXT_IMG_PARAM": "\u901a\u5e38\u30d0\u30c8\u30eb1",
        "aigSzwVh": "0",
        "jb0WsR6n": "e5f2dd5b346762b12a3653bc6668b0f9"
    },
    {
        "P_RESOURCE_ID": "254",
        "P_RESOURCE_TYPE": "100",
        "P_RESOURCE_GROUP": "sound",
        "jsRoN50z": "http://resource.cdn.bravefrontier2.jp/bf2/resource/",
        "P_PATH": "sound",
        "P_GROUP_NAME": "sound",
        "P_FILE_NAME": "BF2_041_btl_nomal02.acb",
        "P_EXT_IMG_PARAM": "\u901a\u5e38\u30d0\u30c8\u30eb2",
        "aigSzwVh": "0",
        "jb0WsR6n": "a13ffaa3b763fe4d5e80ff48f95fbcd0"
    },
    {
        "P_RESOURCE_ID": "255",
        "P_RESOURCE_TYPE": "1",
        "P_RESOURCE_GROUP": "sound",
        "jsRoN50z": "http://resource.cdn.bravefrontier2.jp/bf2/resource/",
        "P_PATH": "sound",
        "P_GROUP_NAME": "sound",
        "P_FILE_NAME": "BF2_042_btl_nomal03.acb",
        "P_EXT_IMG_PARAM": "\u901a\u5e38\u30d0\u30c8\u30eb3",
        "aigSzwVh": "0",
        "jb0WsR6n": "ccd1a0e76c4bad66001f6f9df0e0b9c3"
    },
    {
        "P_RESOURCE_ID": "256",
        "P_RESOURCE_TYPE": "100",
        "P_RESOURCE_GROUP": "sound",
        "jsRoN50z": "http://resource.cdn.bravefrontier2.jp/bf2/resource/",
        "P_PATH": "sound",
        "P_GROUP_NAME": "sound",
        "P_FILE_NAME": "BF2_043_btl_nomal04.acb",
        "P_EXT_IMG_PARAM": "\u901a\u5e38\u30d0\u30c8\u30eb4",
        "aigSzwVh": "0",
        "jb0WsR6n": "a5a254636eb0825f8a91926196e7c21e"
    },
    {
        "P_RESOURCE_ID": "257",
        "P_RESOURCE_TYPE": "100",
        "P_RESOURCE_GROUP": "sound",
        "jsRoN50z": "http://resource.cdn.bravefrontier2.jp/bf2/resource/",
        "P_PATH": "sound",
        "P_GROUP_NAME": "sound",
        "P_FILE_NAME": "BF2_044_btl_nomal05.acb",
        "P_EXT_IMG_PARAM": "\u901a\u5e38\u30d0\u30c8\u30eb5",
        "aigSzwVh": "0",
        "jb0WsR6n": "1b888ca538f67b1ccd705dccd8c56b2c"
    },
    {
        "P_RESOURCE_ID": "258",
        "P_RESOURCE_TYPE": "100",
        "P_RESOURCE_GROUP": "sound",
        "jsRoN50z": "http://resource.cdn.bravefrontier2.jp/bf2/resource/",
        "P_PATH": "sound",
        "P_GROUP_NAME": "sound",
        "P_FILE_NAME": "BF2_045_btl_nomal06.acb",
        "P_EXT_IMG_PARAM": "\u901a\u5e38\u30d0\u30c8\u30eb6",
        "aigSzwVh": "0",
        "jb0WsR6n": "8c366a4dce8555e6db2bbf78c75ed4b5"
    },
    {
        "P_RESOURCE_ID": "259",
        "P_RESOURCE_TYPE": "100",
        "P_RESOURCE_GROUP": "sound",
        "jsRoN50z": "http://resource.cdn.bravefrontier2.jp/bf2/resource/",
        "P_PATH": "sound",
        "P_GROUP_NAME": "sound",
        "P_FILE_NAME": "BF2_046_thm_lastboss.acb",
        "P_EXT_IMG_PARAM": "\u30e9\u30b9\u30c8\u30dc\u30b9\u30c6\u30fc\u30de",
        "aigSzwVh": "0",
        "jb0WsR6n": "12231031e1cafe89cb0cc72919b073a1"
    },
    {
        "P_RESOURCE_ID": "260",
        "P_RESOURCE_TYPE": "100",
        "P_RESOURCE_GROUP": "sound",
        "jsRoN50z": "http://resource.cdn.bravefrontier2.jp/bf2/resource/",
        "P_PATH": "sound",
        "P_GROUP_NAME": "sound",
        "P_FILE_NAME": "BF2_047_btl_lastboss01.acb",
        "P_EXT_IMG_PARAM": "\u30e9\u30b9\u30c8\u30d0\u30c8\u30eb1",
        "aigSzwVh": "0",
        "jb0WsR6n": "b2e609fbf9d18397d0260a6e7254feac"
    },
    {
        "P_RESOURCE_ID": "261",
        "P_RESOURCE_TYPE": "100",
        "P_RESOURCE_GROUP": "sound",
        "jsRoN50z": "http://resource.cdn.bravefrontier2.jp/bf2/resource/",
        "P_PATH": "sound",
        "P_GROUP_NAME": "sound",
        "P_FILE_NAME": "BF2_048_btl_lastboss02.acb",
        "P_EXT_IMG_PARAM": "\u30e9\u30b9\u30c8\u30d0\u30c8\u30eb2",
        "aigSzwVh": "0",
        "jb0WsR6n": "a3ebf74d5704a5bd17b16ebafc98ec1b"
    },
    {
        "P_RESOURCE_ID": "262",
        "P_RESOURCE_TYPE": "100",
        "P_RESOURCE_GROUP": "sound",
        "jsRoN50z": "http://resource.cdn.bravefrontier2.jp/bf2/resource/",
        "P_PATH": "sound",
        "P_GROUP_NAME": "sound",
        "P_FILE_NAME": "BF2_049_btl_ordeal.acb",
        "P_EXT_IMG_PARAM": "\u8a66\u7df4\u30d0\u30c8\u30eb",
        "aigSzwVh": "0",
        "jb0WsR6n": "b7bce91c1a8d6625b650a99ad6ed5e93"
    },
    {
        "P_RESOURCE_ID": "263",
        "P_RESOURCE_TYPE": "100",
        "P_RESOURCE_GROUP": "sound",
        "jsRoN50z": "http://resource.cdn.bravefrontier2.jp/bf2/resource/",
        "P_PATH": "sound",
        "P_GROUP_NAME": "sound",
        "P_FILE_NAME": "BF2_050_btl_result.acb",
        "P_EXT_IMG_PARAM": "\u30d0\u30c8\u30eb\u30ea\u30b6\u30eb\u30c8",
        "aigSzwVh": "0",
        "jb0WsR6n": "f2e3bf217da3aab473e0abda011e4f7a"
    },
    {
        "P_RESOURCE_ID": "264",
        "P_RESOURCE_TYPE": "100",
        "P_RESOURCE_GROUP": "sound",
        "jsRoN50z": "http://resource.cdn.bravefrontier2.jp/bf2/resource/",
        "P_PATH": "sound",
        "P_GROUP_NAME": "sound",
        "P_FILE_NAME": "BF2_051_scr_extus.acb",
        "P_EXT_IMG_PARAM": "\u30b7\u30fc\u30f3\u30a4\u30af\u30b9\u30bf\u30b9\u7dca\u8feb",
        "aigSzwVh": "0",
        "jb0WsR6n": "34ced810952eabaa3652c60115236b36"
    },
    {
        "P_RESOURCE_ID": "265",
        "P_RESOURCE_TYPE": "100",
        "P_RESOURCE_GROUP": "info",
        "jsRoN50z": "http://resource.cdn.bravefrontier2.jp/bf2/resource/",
        "P_PATH": "info",
        "P_GROUP_NAME": "info",
        "P_FILE_NAME": "info.cpk",
        "P_EXT_IMG_PARAM": "\u304a\u77e5\u3089\u305b\u30a2\u30a4\u30b3\u30f3",
        "aigSzwVh": "0",
        "jb0WsR6n": "0f63975692ca23be9f9ab25a6a17e806"
    },
    {
        "P_RESOURCE_ID": "266",
        "P_RESOURCE_TYPE": "100",
        "P_RESOURCE_GROUP": "sound",
        "jsRoN50z": "http://resource.cdn.bravefrontier2.jp/bf2/resource/",
        "P_PATH": "sound",
        "P_GROUP_NAME": "sound",
        "P_FILE_NAME": "BF2_052_scr_restless.acb",
        "P_EXT_IMG_PARAM": "\u30b7\u30fc\u30f3\u4e0d\u5b89",
        "aigSzwVh": "0",
        "jb0WsR6n": "f2de3593d6672f6e6d46a4a029a791e6"
    },
    {
        "P_RESOURCE_ID": "267",
        "P_RESOURCE_TYPE": "1",
        "P_RESOURCE_GROUP": "ui",
        "jsRoN50z": "http://resource.cdn.bravefrontier2.jp/bf2/resource/",
        "P_PATH": "ui",
        "P_GROUP_NAME": "ui",
        "P_FILE_NAME": "ui.cpk",
        "P_EXT_IMG_PARAM": "UI\u30ea\u30bd\u30fc\u30b9",
        "aigSzwVh": "0",
        "jb0WsR6n": "74df0c7d1686671550fae9127fc2252a"
    },
    {
        "P_RESOURCE_ID": "268",
        "P_RESOURCE_TYPE": "1",
        "P_RESOURCE_GROUP": "uiSG",
        "jsRoN50z": "http://resource.cdn.bravefrontier2.jp/bf2/resource/",
        "P_PATH": "uiSG",
        "P_GROUP_NAME": "uiSG",
        "P_FILE_NAME": "uiSG.cpk",
        "P_EXT_IMG_PARAM": "UI\u30b9\u30d1\u30fc\u30af\u30ae\u30a2",
        "aigSzwVh": "0",
        "jb0WsR6n": "6fe19427580e80f14ff4dae97d141afd"
    },
    {
        "P_RESOURCE_ID": "269",
        "P_RESOURCE_TYPE": "1",
        "P_RESOURCE_GROUP": "uiSS",
        "jsRoN50z": "http://resource.cdn.bravefrontier2.jp/bf2/resource/",
        "P_PATH": "uiSS",
        "P_GROUP_NAME": "uiSS",
        "P_FILE_NAME": "uiSS.cpk",
        "P_EXT_IMG_PARAM": "UI\u30b9\u30d7\u30e9\u30a4\u30c8\u30b9\u30bf\u30b8\u30aa",
        "aigSzwVh": "0",
        "jb0WsR6n": "74fa10d25a9fb50cd542a1bd93a7b46e"
    },
    {
        "P_RESOURCE_ID": "271",
        "P_RESOURCE_TYPE": "100",
        "P_RESOURCE_GROUP": "sound",
        "jsRoN50z": "http://resource.cdn.bravefrontier2.jp/bf2/resource/",
        "P_PATH": "sound",
        "P_GROUP_NAME": "sound",
        "P_FILE_NAME": "BF2_054_btl_fh.acb",
        "P_EXT_IMG_PARAM": "\u30d5\u30ed\u30cf\u30f3\u30d0\u30c8\u30eb",
        "aigSzwVh": "0",
        "jb0WsR6n": "f92860234a286919b625750db934ad92"
    },
    {
        "P_RESOURCE_ID": "272",
        "P_RESOURCE_TYPE": "1",
        "P_RESOURCE_GROUP": "movie",
        "jsRoN50z": "http://resource.cdn.bravefrontier2.jp/bf2/resource/",
        "P_PATH": "movie",
        "P_GROUP_NAME": "movie",
        "P_FILE_NAME": "movie.cpk",
        "P_EXT_IMG_PARAM": "\u30e0\u30fc\u30d3\u30fc",
        "aigSzwVh": "0",
        "jb0WsR6n": "9c4e98596b41b4f29ea492aecd0dc17f"
    },
    {
        "P_RESOURCE_ID": "273",
        "P_RESOURCE_TYPE": "100",
        "P_RESOURCE_GROUP": "unit",
        "jsRoN50z": "http://resource.cdn.bravefrontier2.jp/bf2/resource/",
        "P_PATH": "unit",
        "P_GROUP_NAME": "unit",
        "P_FILE_NAME": "unit1_01.cpk",
        "P_EXT_IMG_PARAM": "\u30e6\u30cb\u30c3\u30c8\u30ea\u30bd\u30fc\u30b91",
        "aigSzwVh": "0",
        "jb0WsR6n": "79699fddb7cc09ed5cd2c0e159989db0"
    },
    {
        "P_RESOURCE_ID": "274",
        "P_RESOURCE_TYPE": "100",
        "P_RESOURCE_GROUP": "unit",
        "jsRoN50z": "http://resource.cdn.bravefrontier2.jp/bf2/resource/",
        "P_PATH": "unit",
        "P_GROUP_NAME": "unit",
        "P_FILE_NAME": "unit2_01.cpk",
        "P_EXT_IMG_PARAM": "\u30e6\u30cb\u30c3\u30c8\u30ea\u30bd\u30fc\u30b92",
        "aigSzwVh": "0",
        "jb0WsR6n": "c0b2d6897623fb215e999dd544e705d4"
    },
    {
        "P_RESOURCE_ID": "275",
        "P_RESOURCE_TYPE": "100",
        "P_RESOURCE_GROUP": "unit",
        "jsRoN50z": "http://resource.cdn.bravefrontier2.jp/bf2/resource/",
        "P_PATH": "unit",
        "P_GROUP_NAME": "unit",
        "P_FILE_NAME": "unit3_01.cpk",
        "P_EXT_IMG_PARAM": "\u30e6\u30cb\u30c3\u30c8\u30ea\u30bd\u30fc\u30b93",
        "aigSzwVh": "0",
        "jb0WsR6n": "0a1962111af3dbe541a7cdb123e15b9c"
    },
    {
        "P_RESOURCE_ID": "276",
        "P_RESOURCE_TYPE": "100",
        "P_RESOURCE_GROUP": "unit",
        "jsRoN50z": "http://resource.cdn.bravefrontier2.jp/bf2/resource/",
        "P_PATH": "unit",
        "P_GROUP_NAME": "unit",
        "P_FILE_NAME": "unit4_01.cpk",
        "P_EXT_IMG_PARAM": "\u30e6\u30cb\u30c3\u30c8\u30ea\u30bd\u30fc\u30b94",
        "aigSzwVh": "0",
        "jb0WsR6n": "f9edba5147fdd2d51ac131d80525b20c"
    },
    {
        "P_RESOURCE_ID": "277",
        "P_RESOURCE_TYPE": "100",
        "P_RESOURCE_GROUP": "unit",
        "jsRoN50z": "http://resource.cdn.bravefrontier2.jp/bf2/resource/",
        "P_PATH": "unit",
        "P_GROUP_NAME": "unit",
        "P_FILE_NAME": "unit5_01.cpk",
        "P_EXT_IMG_PARAM": "\u30e6\u30cb\u30c3\u30c8\u30ea\u30bd\u30fc\u30b95",
        "aigSzwVh": "0",
        "jb0WsR6n": "28e0165eb52261a8c27150e9a922264a"
    },
    {
        "P_RESOURCE_ID": "278",
        "P_RESOURCE_TYPE": "100",
        "P_RESOURCE_GROUP": "unit",
        "jsRoN50z": "http://resource.cdn.bravefrontier2.jp/bf2/resource/",
        "P_PATH": "unit",
        "P_GROUP_NAME": "unit",
        "P_FILE_NAME": "unit6_01.cpk",
        "P_EXT_IMG_PARAM": "\u30e6\u30cb\u30c3\u30c8\u30ea\u30bd\u30fc\u30b96",
        "aigSzwVh": "0",
        "jb0WsR6n": "0d44ddacd4921106941c00c249f23145"
    },
    {
        "P_RESOURCE_ID": "279",
        "P_RESOURCE_TYPE": "100",
        "P_RESOURCE_GROUP": "unit",
        "jsRoN50z": "http://resource.cdn.bravefrontier2.jp/bf2/resource/",
        "P_PATH": "unit",
        "P_GROUP_NAME": "unit",
        "P_FILE_NAME": "unit7_01.cpk",
        "P_EXT_IMG_PARAM": "\u30e6\u30cb\u30c3\u30c8\u30ea\u30bd\u30fc\u30b97",
        "aigSzwVh": "0",
        "jb0WsR6n": "76d9503b40a074261360120a28662032"
    },
    {
        "P_RESOURCE_ID": "280",
        "P_RESOURCE_TYPE": "100",
        "P_RESOURCE_GROUP": "unit",
        "jsRoN50z": "http://resource.cdn.bravefrontier2.jp/bf2/resource/",
        "P_PATH": "unit",
        "P_GROUP_NAME": "unit",
        "P_FILE_NAME": "unit_arms_male_01.cpk",
        "P_EXT_IMG_PARAM": "\u30e6\u30cb\u30c3\u30c8\u53ec\u559a\u5e2b\u7537\u30ea\u30bd\u30fc\u30b9",
        "aigSzwVh": "0",
        "jb0WsR6n": "48cdd9a41471c2c75e49c9e932d47efd"
    },
    {
        "P_RESOURCE_ID": "281",
        "P_RESOURCE_TYPE": "100",
        "P_RESOURCE_GROUP": "unit",
        "jsRoN50z": "http://resource.cdn.bravefrontier2.jp/bf2/resource/",
        "P_PATH": "unit",
        "P_GROUP_NAME": "unit",
        "P_FILE_NAME": "unit_arms_female_01.cpk",
        "P_EXT_IMG_PARAM": "\u30e6\u30cb\u30c3\u30c8\u53ec\u559a\u5e2b\u5973\u30ea\u30bd\u30fc\u30b9",
        "aigSzwVh": "0",
        "jb0WsR6n": "c65d88dcd23ae134dac7c3c48a42c2c8"
    },
    {
        "P_RESOURCE_ID": "282",
        "P_RESOURCE_TYPE": "100",
        "P_RESOURCE_GROUP": "unit",
        "jsRoN50z": "http://resource.cdn.bravefrontier2.jp/bf2/resource/",
        "P_PATH": "unit",
        "P_GROUP_NAME": "unit",
        "P_FILE_NAME": "unit_arms_rin_01.cpk",
        "P_EXT_IMG_PARAM": "\u30e6\u30cb\u30c3\u30c8\u53ec\u559a\u5e2b\u30ea\u30f3\u30ea\u30bd\u30fc\u30b9",
        "aigSzwVh": "0",
        "jb0WsR6n": "5b2252a27f5ef0df0e6f53219d2203b3"
    },
    {
        "P_RESOURCE_ID": "283",
        "P_RESOURCE_TYPE": "100",
        "P_RESOURCE_GROUP": "unit",
        "jsRoN50z": "http://resource.cdn.bravefrontier2.jp/bf2/resource/",
        "P_PATH": "unit",
        "P_GROUP_NAME": "unit",
        "P_FILE_NAME": "unit.cpk",
        "P_EXT_IMG_PARAM": "\u30e6\u30cb\u30c3\u30c8x",
        "aigSzwVh": "0",
        "jb0WsR6n": "2add39438925454e42774cb1f81293c1"
    },
    {
        "P_RESOURCE_ID": "284",
        "P_RESOURCE_TYPE": "100",
        "P_RESOURCE_GROUP": "sound",
        "jsRoN50z": "http://resource.cdn.bravefrontier2.jp/bf2/resource/",
        "P_PATH": "sound",
        "P_GROUP_NAME": "sound",
        "P_FILE_NAME": "BF2_055_btl_nomal07.acb",
        "P_EXT_IMG_PARAM": "\u901a\u5e38\u30d0\u30c8\u30eb7",
        "aigSzwVh": "0",
        "jb0WsR6n": "904f1a8425adcfd6c37b75f7b1917815"
    },
    {
        "P_RESOURCE_ID": "285",
        "P_RESOURCE_TYPE": "100",
        "P_RESOURCE_GROUP": "sound",
        "jsRoN50z": "http://resource.cdn.bravefrontier2.jp/bf2/resource/",
        "P_PATH": "sound",
        "P_GROUP_NAME": "sound",
        "P_FILE_NAME": "BF1_1011_btl_firecave.acb",
        "P_EXT_IMG_PARAM": "BF1\u901a\u5e38\u30d0\u30c8\u30eb1",
        "aigSzwVh": "0",
        "jb0WsR6n": "ea6ee32edb8116a300e8cedff39907a5"
    },
    {
        "P_RESOURCE_ID": "286",
        "P_RESOURCE_TYPE": "100",
        "P_RESOURCE_GROUP": "sound",
        "jsRoN50z": "http://resource.cdn.bravefrontier2.jp/bf2/resource/",
        "P_PATH": "sound",
        "P_GROUP_NAME": "sound",
        "P_FILE_NAME": "BF1_1012_btl_snow.acb",
        "P_EXT_IMG_PARAM": "BF1\u901a\u5e38\u30d0\u30c8\u30eb2",
        "aigSzwVh": "0",
        "jb0WsR6n": "cba0040ef3ac232dabff271ae284c5a2"
    },
    {
        "P_RESOURCE_ID": "287",
        "P_RESOURCE_TYPE": "100",
        "P_RESOURCE_GROUP": "sound",
        "jsRoN50z": "http://resource.cdn.bravefrontier2.jp/bf2/resource/",
        "P_PATH": "sound",
        "P_GROUP_NAME": "sound",
        "P_FILE_NAME": "BF1_1020_btl_nightwood.acb",
        "P_EXT_IMG_PARAM": "BF1\u901a\u5e38\u30d0\u30c8\u30eb3",
        "aigSzwVh": "0",
        "jb0WsR6n": "a6b71dac0487f708dd27b8b6d6c8f2a2"
    },
    {
        "P_RESOURCE_ID": "288",
        "P_RESOURCE_TYPE": "100",
        "P_RESOURCE_GROUP": "sound",
        "jsRoN50z": "http://resource.cdn.bravefrontier2.jp/bf2/resource/",
        "P_PATH": "sound",
        "P_GROUP_NAME": "sound",
        "P_FILE_NAME": "BF1_1024_btl_cave.acb",
        "P_EXT_IMG_PARAM": "BF1\u901a\u5e38\u30d0\u30c8\u30eb4",
        "aigSzwVh": "0",
        "jb0WsR6n": "ec6457af0b465e795d354b06ce2e841a"
    },
    {
        "P_RESOURCE_ID": "289",
        "P_RESOURCE_TYPE": "100",
        "P_RESOURCE_GROUP": "sound",
        "jsRoN50z": "http://resource.cdn.bravefrontier2.jp/bf2/resource/",
        "P_PATH": "sound",
        "P_GROUP_NAME": "sound",
        "P_FILE_NAME": "BF1_1041_btl_jewrel.acb",
        "P_EXT_IMG_PARAM": "BF1\u901a\u5e38\u30d0\u30c8\u30eb5",
        "aigSzwVh": "0",
        "jb0WsR6n": "d58d99a63f64a80dbef86b0e41461d0f"
    },
    {
        "P_RESOURCE_ID": "290",
        "P_RESOURCE_TYPE": "100",
        "P_RESOURCE_GROUP": "sound",
        "jsRoN50z": "http://resource.cdn.bravefrontier2.jp/bf2/resource/",
        "P_PATH": "sound",
        "P_GROUP_NAME": "sound",
        "P_FILE_NAME": "BF1_1052_btl_mgc_swamp.acb",
        "P_EXT_IMG_PARAM": "BF1\u901a\u5e38\u30d0\u30c8\u30eb6",
        "aigSzwVh": "0",
        "jb0WsR6n": "f97143dd36bd91be9d6bbdb126222a42"
    },
    {
        "P_RESOURCE_ID": "291",
        "P_RESOURCE_TYPE": "100",
        "P_RESOURCE_GROUP": "sound",
        "jsRoN50z": "http://resource.cdn.bravefrontier2.jp/bf2/resource/",
        "P_PATH": "sound",
        "P_GROUP_NAME": "sound",
        "P_FILE_NAME": "BF1_1053_btl_zazilba.acb",
        "P_EXT_IMG_PARAM": "BF1\u901a\u5e38\u30d0\u30c8\u30eb7",
        "aigSzwVh": "0",
        "jb0WsR6n": "a170dc2dc6288add0ed69f515a773304"
    },
    {
        "P_RESOURCE_ID": "292",
        "P_RESOURCE_TYPE": "100",
        "P_RESOURCE_GROUP": "sound",
        "jsRoN50z": "http://resource.cdn.bravefrontier2.jp/bf2/resource/",
        "P_PATH": "sound",
        "P_GROUP_NAME": "sound",
        "P_FILE_NAME": "BF1_1060_btl_alvest.acb",
        "P_EXT_IMG_PARAM": "BF1\u901a\u5e38\u30d0\u30c8\u30eb8",
        "aigSzwVh": "0",
        "jb0WsR6n": "2835c9447873c8afbc3ce3c825af67ff"
    },
    {
        "P_RESOURCE_ID": "293",
        "P_RESOURCE_TYPE": "100",
        "P_RESOURCE_GROUP": "sound",
        "jsRoN50z": "http://resource.cdn.bravefrontier2.jp/bf2/resource/",
        "P_PATH": "sound",
        "P_GROUP_NAME": "sound",
        "P_FILE_NAME": "BF1_1087_lab_akras_mypage02.acb",
        "P_EXT_IMG_PARAM": "\u53ec\u559a\u8853\u7814\u7a76\u6240",
        "aigSzwVh": "0",
        "jb0WsR6n": "a8c0b0be2dbaa4a2e720bd3f38133252"
    },
    {
        "P_RESOURCE_ID": "294",
        "P_RESOURCE_TYPE": "100",
        "P_RESOURCE_GROUP": "dungeon",
        "jsRoN50z": "http://resource.cdn.bravefrontier2.jp/bf2/resource/",
        "P_PATH": "dungeon",
        "P_GROUP_NAME": "dungeon",
        "P_FILE_NAME": "dungeon_banner.cpk",
        "P_EXT_IMG_PARAM": "\u30c0\u30f3\u30b8\u30e7\u30f3\u30d0\u30ca\u30fc",
        "aigSzwVh": "0",
        "jb0WsR6n": "196d09e03a2424c204c9f05eab2ef5ec"
    },
    {
        "P_RESOURCE_ID": "295",
        "P_RESOURCE_TYPE": "100",
        "P_RESOURCE_GROUP": "dungeon",
        "jsRoN50z": "http://resource.cdn.bravefrontier2.jp/bf2/resource/",
        "P_PATH": "dungeon",
        "P_GROUP_NAME": "dungeon",
        "P_FILE_NAME": "dungeon_battle_bg_1.cpk",
        "P_EXT_IMG_PARAM": "\u30d0\u30c8\u30eb\u80cc\u666f\u753b\u50cf\uff11",
        "aigSzwVh": "0",
        "jb0WsR6n": "d634fa67965c1c408b1d637a4ba89784"
    },
    {
        "P_RESOURCE_ID": "296",
        "P_RESOURCE_TYPE": "100",
        "P_RESOURCE_GROUP": "dungeon",
        "jsRoN50z": "http://resource.cdn.bravefrontier2.jp/bf2/resource/",
        "P_PATH": "dungeon",
        "P_GROUP_NAME": "dungeon",
        "P_FILE_NAME": "dungeon_battle_bg_2.cpk",
        "P_EXT_IMG_PARAM": "\u30d0\u30c8\u30eb\u80cc\u666f\u753b\u50cf\uff12",
        "aigSzwVh": "0",
        "jb0WsR6n": "d4b5972c711dec669967657686bdf8c4"
    },
    {
        "P_RESOURCE_ID": "297",
        "P_RESOURCE_TYPE": "100",
        "P_RESOURCE_GROUP": "dungeon",
        "jsRoN50z": "http://resource.cdn.bravefrontier2.jp/bf2/resource/",
        "P_PATH": "dungeon",
        "P_GROUP_NAME": "dungeon",
        "P_FILE_NAME": "dungeon_event_bg.cpk",
        "P_EXT_IMG_PARAM": "\u30a4\u30d9\u30f3\u30c8\u80cc\u666f\u753b\u50cf",
        "aigSzwVh": "0",
        "jb0WsR6n": "b4bab9028c2c24a90216cc37f06aab4f"
    },
    {
        "P_RESOURCE_ID": "298",
        "P_RESOURCE_TYPE": "100",
        "P_RESOURCE_GROUP": "dungeon",
        "jsRoN50z": "http://resource.cdn.bravefrontier2.jp/bf2/resource/",
        "P_PATH": "dungeon",
        "P_GROUP_NAME": "dungeon",
        "P_FILE_NAME": "dungeon_hzm_battle_bg.cpk",
        "P_EXT_IMG_PARAM": "\u72ed\u9593\u30d0\u30c8\u30eb\u80cc\u666f\u753b\u50cf",
        "aigSzwVh": "0",
        "jb0WsR6n": "93ff12705df8eb46e0f4f39dafa2c7fd"
    },
    {
        "P_RESOURCE_ID": "299",
        "P_RESOURCE_TYPE": "100",
        "P_RESOURCE_GROUP": "dungeon",
        "jsRoN50z": "http://resource.cdn.bravefrontier2.jp/bf2/resource/",
        "P_PATH": "dungeon",
        "P_GROUP_NAME": "dungeon",
        "P_FILE_NAME": "dungeon_sq_battle_bg.cpk",
        "P_EXT_IMG_PARAM": "\u30b9\u30c8\u30af\u30a8\u30d0\u30c8\u30eb\u80cc\u666f\u753b\u50cf",
        "aigSzwVh": "0",
        "jb0WsR6n": "7c0bb2ed48dd1cbbeaadc472f8f058b8"
    },
    {
        "P_RESOURCE_ID": "300",
        "P_RESOURCE_TYPE": "1",
        "P_RESOURCE_GROUP": "effectSG",
        "jsRoN50z": "http://resource.cdn.bravefrontier2.jp/bf2/resource/",
        "P_PATH": "effectSG",
        "P_GROUP_NAME": "effectSG",
        "P_FILE_NAME": "effectSG_script_effect.cpk",
        "P_EXT_IMG_PARAM": "\u30b9\u30af\u30ea\u30d7\u30c8\u7528\u30a8\u30d5\u30a7\u30af\u30c8",
        "aigSzwVh": "0",
        "jb0WsR6n": "ff56a60a1ea70b985a4fe1e2231d4525"
    },
    {
        "P_RESOURCE_ID": "301",
        "P_RESOURCE_TYPE": "100",
        "P_RESOURCE_GROUP": "subscription",
        "jsRoN50z": "http://resource.cdn.bravefrontier2.jp/bf2/resource/",
        "P_PATH": "subscription",
        "P_GROUP_NAME": "subscription",
        "P_FILE_NAME": "subscription.cpk",
        "P_EXT_IMG_PARAM": "\u53ec\u559a\u5e2b\u80b2\u6210\u30d7\u30ed\u30b0\u30e9\u30e0\u753b\u50cf",
        "aigSzwVh": "0",
        "jb0WsR6n": "ef49e2c2cf181f213e28667113a3761a"
    },
    {
        "P_RESOURCE_ID": "302",
        "P_RESOURCE_TYPE": "100",
        "P_RESOURCE_GROUP": "effectSS",
        "jsRoN50z": "http://resource.cdn.bravefrontier2.jp/bf2/resource/",
        "P_PATH": "effectSS",
        "P_GROUP_NAME": "effectSS",
        "P_FILE_NAME": "effectSS_bg_battle_1.cpk",
        "P_EXT_IMG_PARAM": "\u30c0\u30f3\u30b8\u30e7\u30f3\u80cc\u666f\u30a2\u30cb\u30e1",
        "aigSzwVh": "0",
        "jb0WsR6n": "c4a70e5d6bd90c95e5a0036d77193694"
    },
    {
        "P_RESOURCE_ID": "303",
        "P_RESOURCE_TYPE": "100",
        "P_RESOURCE_GROUP": "effectSS",
        "jsRoN50z": "http://resource.cdn.bravefrontier2.jp/bf2/resource/",
        "P_PATH": "effectSS",
        "P_GROUP_NAME": "effectSS",
        "P_FILE_NAME": "effectSS_bg_event.cpk",
        "P_EXT_IMG_PARAM": "\u30a4\u30d9\u30f3\u30c8\u80cc\u666f\u30a2\u30cb\u30e1",
        "aigSzwVh": "0",
        "jb0WsR6n": "85c5caf4dd085dbf97e61c3e523809ba"
    },
    {
        "P_RESOURCE_ID": "304",
        "P_RESOURCE_TYPE": "1",
        "P_RESOURCE_GROUP": "effectSS",
        "jsRoN50z": "http://resource.cdn.bravefrontier2.jp/bf2/resource/",
        "P_PATH": "effectSS",
        "P_GROUP_NAME": "effectSS",
        "P_FILE_NAME": "effectSS_boss_anime.cpk",
        "P_EXT_IMG_PARAM": "\u30dc\u30b9\u30a2\u30cb\u30e1",
        "aigSzwVh": "0",
        "jb0WsR6n": "dff00580b9e2fc41460882eafdf1b3fc"
    },
    {
        "P_RESOURCE_ID": "305",
        "P_RESOURCE_TYPE": "1",
        "P_RESOURCE_GROUP": "effectSS",
        "jsRoN50z": "http://resource.cdn.bravefrontier2.jp/bf2/resource/",
        "P_PATH": "effectSS",
        "P_GROUP_NAME": "effectSS",
        "P_FILE_NAME": "effectSS_battle_effect.cpk",
        "P_EXT_IMG_PARAM": "\u30d0\u30c8\u30eb\u30a8\u30d5\u30a7\u30af\u30c8",
        "aigSzwVh": "0",
        "jb0WsR6n": "4eddb4d2af2ceced1c3cd1e6504c9fdd"
    },
    {
        "P_RESOURCE_ID": "306",
        "P_RESOURCE_TYPE": "1",
        "P_RESOURCE_GROUP": "effectSS",
        "jsRoN50z": "http://resource.cdn.bravefrontier2.jp/bf2/resource/",
        "P_PATH": "effectSS",
        "P_GROUP_NAME": "effectSS",
        "P_FILE_NAME": "effectSS_script_effect_1.cpk",
        "P_EXT_IMG_PARAM": "\u30b9\u30af\u30ea\u30d7\u30c8\u7528\u30a8\u30d5\u30a7\u30af\u30c8\uff11",
        "aigSzwVh": "0",
        "jb0WsR6n": "4d6b1a4fe1a270be9152dc996950d65f"
    },
    {
        "P_RESOURCE_ID": "307",
        "P_RESOURCE_TYPE": "100",
        "P_RESOURCE_GROUP": "effectSS",
        "jsRoN50z": "http://resource.cdn.bravefrontier2.jp/bf2/resource/",
        "P_PATH": "effectSS",
        "P_GROUP_NAME": "effectSS",
        "P_FILE_NAME": "effectSS_script_effect_2.cpk",
        "P_EXT_IMG_PARAM": "\u30b9\u30af\u30ea\u30d7\u30c8\u7528\u30a8\u30d5\u30a7\u30af\u30c8\uff12",
        "aigSzwVh": "0",
        "jb0WsR6n": "f3422a0119b141d2717432c9e8783624"
    },
    {
        "P_RESOURCE_ID": "308",
        "P_RESOURCE_TYPE": "100",
        "P_RESOURCE_GROUP": "event",
        "jsRoN50z": "http://resource.cdn.bravefrontier2.jp/bf2/resource/",
        "P_PATH": "event",
        "P_GROUP_NAME": "event",
        "P_FILE_NAME": "event_navi_full_1_30.cpk",
        "P_EXT_IMG_PARAM": "\u30ca\u30d3\u30ad\u30e3\u30e9\u5168\u8eab\u753b\u50cfID\uff1a1\uff5e30",
        "aigSzwVh": "0",
        "jb0WsR6n": "de31490882f64e65923a989b11c8e94d"
    },
    {
        "P_RESOURCE_ID": "309",
        "P_RESOURCE_TYPE": "100",
        "P_RESOURCE_GROUP": "event",
        "jsRoN50z": "http://resource.cdn.bravefrontier2.jp/bf2/resource/",
        "P_PATH": "event",
        "P_GROUP_NAME": "event",
        "P_FILE_NAME": "event_navi_full_31_60.cpk",
        "P_EXT_IMG_PARAM": "\u30ca\u30d3\u30ad\u30e3\u30e9\u5168\u8eab\u753b\u50cfID\uff1a31\uff5e60",
        "aigSzwVh": "0",
        "jb0WsR6n": "3b478c2c0bcd48ab611a33a657a1297c"
    },
    {
        "P_RESOURCE_ID": "310",
        "P_RESOURCE_TYPE": "100",
        "P_RESOURCE_GROUP": "event",
        "jsRoN50z": "http://resource.cdn.bravefrontier2.jp/bf2/resource/",
        "P_PATH": "event",
        "P_GROUP_NAME": "event",
        "P_FILE_NAME": "event_navi_full_61_90.cpk",
        "P_EXT_IMG_PARAM": "\u30ca\u30d3\u30ad\u30e3\u30e9\u5168\u8eab\u753b\u50cfID\uff1a61\uff5e90",
        "aigSzwVh": "0",
        "jb0WsR6n": "3347345995c623005a8f3ff37251cdab"
    },
    {
        "P_RESOURCE_ID": "311",
        "P_RESOURCE_TYPE": "1",
        "P_RESOURCE_GROUP": "event",
        "jsRoN50z": "http://resource.cdn.bravefrontier2.jp/bf2/resource/",
        "P_PATH": "event",
        "P_GROUP_NAME": "event",
        "P_FILE_NAME": "event_navi_full_tame.cpk",
        "P_EXT_IMG_PARAM": "\u30ca\u30d3\u30ad\u30e3\u30e9\u5168\u8eab\u753b\u50cf\uff1a\u30c6\u30a4\u30e0\u7cfb",
        "aigSzwVh": "0",
        "jb0WsR6n": "da2188d5a3f04c22898f7a0d00550a62"
    },
    {
        "P_RESOURCE_ID": "312",
        "P_RESOURCE_TYPE": "100",
        "P_RESOURCE_GROUP": "event",
        "jsRoN50z": "http://resource.cdn.bravefrontier2.jp/bf2/resource/",
        "P_PATH": "event",
        "P_GROUP_NAME": "event",
        "P_FILE_NAME": "event_navi_thumbnail.cpk",
        "P_EXT_IMG_PARAM": "\u30ca\u30d3\u30ad\u30e3\u30e9\u30b5\u30e0\u30cd\u30a4\u30eb\u753b\u50cf",
        "aigSzwVh": "0",
        "jb0WsR6n": "4daa7ce339981aaa932c715b48fd5858"
    },
    {
        "P_RESOURCE_ID": "313",
        "P_RESOURCE_TYPE": "1",
        "P_RESOURCE_GROUP": "event",
        "jsRoN50z": "http://resource.cdn.bravefrontier2.jp/bf2/resource/",
        "P_PATH": "event",
        "P_GROUP_NAME": "event",
        "P_FILE_NAME": "event_img.cpk",
        "P_EXT_IMG_PARAM": "\u30a4\u30d9\u30f3\u30c8\u7528\u753b\u50cf",
        "aigSzwVh": "0",
        "jb0WsR6n": "576a4dbb2b5eaee38c82cbfd7c32e1c1"
    },
    {
        "P_RESOURCE_ID": "314",
        "P_RESOURCE_TYPE": "100",
        "P_RESOURCE_GROUP": "desc",
        "jsRoN50z": "http://resource.cdn.bravefrontier2.jp/bf2/resource/",
        "P_PATH": "desc",
        "P_GROUP_NAME": "desc",
        "P_FILE_NAME": "desc.cpk",
        "P_EXT_IMG_PARAM": "\u521d\u56de\u8aac\u660e",
        "aigSzwVh": "0",
        "jb0WsR6n": "264dd046cb20b03d0cbbf51360470a97"
    },
    {
        "P_RESOURCE_ID": "315",
        "P_RESOURCE_TYPE": "1",
        "P_RESOURCE_GROUP": "sound",
        "jsRoN50z": "http://resource.cdn.bravefrontier2.jp/bf2/resource/",
        "P_PATH": "sound",
        "P_GROUP_NAME": "sound",
        "P_FILE_NAME": "BF2_056_scr_resolution.acb",
        "P_EXT_IMG_PARAM": "056_\u30b7\u30fc\u30f3\u6c7a\u610f",
        "aigSzwVh": "0",
        "jb0WsR6n": "79721dbb847f254e17472d082b5b109a"
    },
    {
        "P_RESOURCE_ID": "316",
        "P_RESOURCE_TYPE": "100",
        "P_RESOURCE_GROUP": "sound",
        "jsRoN50z": "http://resource.cdn.bravefrontier2.jp/bf2/resource/",
        "P_PATH": "sound",
        "P_GROUP_NAME": "sound",
        "P_FILE_NAME": "BF2_057_scr_neutral.acb",
        "P_EXT_IMG_PARAM": "057_\u30b7\u30fc\u30f3\u30cb\u30e5\u30fc\u30c8\u30e9\u30eb",
        "aigSzwVh": "0",
        "jb0WsR6n": "419d62bcc863d6c8a8728fdb67679c7f"
    },
    {
        "P_RESOURCE_ID": "317",
        "P_RESOURCE_TYPE": "100",
        "P_RESOURCE_GROUP": "sound",
        "jsRoN50z": "http://resource.cdn.bravefrontier2.jp/bf2/resource/",
        "P_PATH": "sound",
        "P_GROUP_NAME": "sound",
        "P_FILE_NAME": "BF2_058_scr_daily.acb",
        "P_EXT_IMG_PARAM": "058_\u30b7\u30fc\u30f3\u65e5\u5e38",
        "aigSzwVh": "0",
        "jb0WsR6n": "21b7ca9c175886fea76231dbf1022185"
    },
    {
        "P_RESOURCE_ID": "318",
        "P_RESOURCE_TYPE": "1",
        "P_RESOURCE_GROUP": "sound",
        "jsRoN50z": "http://resource.cdn.bravefrontier2.jp/bf2/resource/",
        "P_PATH": "sound",
        "P_GROUP_NAME": "sound",
        "P_FILE_NAME": "BF2_059_scr_op_movie.acb",
        "P_EXT_IMG_PARAM": "059_\u30b7\u30fc\u30f3OP\u30e0\u30fc\u30d3\u30fc",
        "aigSzwVh": "0",
        "jb0WsR6n": "50c743acdb1178909da1eecb427f6f2b"
    },
    {
        "P_RESOURCE_ID": "319",
        "P_RESOURCE_TYPE": "1",
        "P_RESOURCE_GROUP": "sound",
        "jsRoN50z": "http://resource.cdn.bravefrontier2.jp/bf2/resource/",
        "P_PATH": "sound",
        "P_GROUP_NAME": "sound",
        "P_FILE_NAME": "BF2_060_scr_demension.acb",
        "P_EXT_IMG_PARAM": "060_\u30b7\u30fc\u30f3OP\u30ef\u30fc\u30d7",
        "aigSzwVh": "0",
        "jb0WsR6n": "5798688c30f89c2c8f8f10ba8ac5aa7f"
    },
    {
        "P_RESOURCE_ID": "320",
        "P_RESOURCE_TYPE": "1",
        "P_RESOURCE_GROUP": "sound",
        "jsRoN50z": "http://resource.cdn.bravefrontier2.jp/bf2/resource/",
        "P_PATH": "sound",
        "P_GROUP_NAME": "sound",
        "P_FILE_NAME": "BF2_061_scr_wind.acb",
        "P_EXT_IMG_PARAM": "061_\u30b7\u30fc\u30f3OP\u98a8",
        "aigSzwVh": "0",
        "jb0WsR6n": "833cbedaf27c0fc9e533c510f674412f"
    },
    {
        "P_RESOURCE_ID": "322",
        "P_RESOURCE_TYPE": "100",
        "P_RESOURCE_GROUP": "sound",
        "jsRoN50z": "http://resource.cdn.bravefrontier2.jp/bf2/resource/",
        "P_PATH": "sound",
        "P_GROUP_NAME": "sound",
        "P_FILE_NAME": "BF1_1101_lab_multi_lobi.acb",
        "P_EXT_IMG_PARAM": "1101_\u53ec\u559a\u8853\u7814\u7a76\u6240 \u8a66\u7df4TOP",
        "aigSzwVh": "0",
        "jb0WsR6n": "a316eee7d69b338d5b1cac1f961ea260"
    },
    {
        "P_RESOURCE_ID": "323",
        "P_RESOURCE_TYPE": "100",
        "P_RESOURCE_GROUP": "sound",
        "jsRoN50z": "http://resource.cdn.bravefrontier2.jp/bf2/resource/",
        "P_PATH": "sound",
        "P_GROUP_NAME": "sound",
        "P_FILE_NAME": "BF1_1087_lab_akras_mypage02.acb",
        "P_EXT_IMG_PARAM": "1087_\u53ec\u559a\u8853\u7814\u7a76\u6240TOP",
        "aigSzwVh": "0",
        "jb0WsR6n": "a8c0b0be2dbaa4a2e720bd3f38133252"
    },
    {
        "P_RESOURCE_ID": "324",
        "P_RESOURCE_TYPE": "100",
        "P_RESOURCE_GROUP": "sound",
        "jsRoN50z": "http://resource.cdn.bravefrontier2.jp/bf2/resource/",
        "P_PATH": "sound",
        "P_GROUP_NAME": "sound",
        "P_FILE_NAME": "BF1_1053_btl_zazilba.acb",
        "P_EXT_IMG_PARAM": "1053_BF1\u30b6\u30eb\u30b8\u30d0",
        "aigSzwVh": "0",
        "jb0WsR6n": "a170dc2dc6288add0ed69f515a773304"
    },
    {
        "P_RESOURCE_ID": "325",
        "P_RESOURCE_TYPE": "1",
        "P_RESOURCE_GROUP": "sound",
        "jsRoN50z": "http://resource.cdn.bravefrontier2.jp/bf2/resource/",
        "P_PATH": "sound",
        "P_GROUP_NAME": "sound",
        "P_FILE_NAME": "BF1_1010_btl_grass.acb",
        "P_EXT_IMG_PARAM": "1010_BF1\u5192\u967a\u8005\u306e\u8349\u539f",
        "aigSzwVh": "0",
        "jb0WsR6n": "98a11f7a39ba561582c426348d8b19cc"
    },
    {
        "P_RESOURCE_ID": "326",
        "P_RESOURCE_TYPE": "100",
        "P_RESOURCE_GROUP": "effectSS",
        "jsRoN50z": "http://resource.cdn.bravefrontier2.jp/bf2/resource/",
        "P_PATH": "effectSS",
        "P_GROUP_NAME": "effectSS",
        "P_FILE_NAME": "effectSS_bg_battle_2.cpk",
        "P_EXT_IMG_PARAM": "effectSS_bg_battle_2\uff08\u30c0\u30f3\u30b8\u30e7\u30f3\u80cc\u666f\u30a2\u30cb\u30e1\uff12\uff09",
        "aigSzwVh": "0",
        "jb0WsR6n": "731a6a0c5cb9e275f3c7a1607cb2c7a7"
    },
    {
        "P_RESOURCE_ID": "327",
        "P_RESOURCE_TYPE": "100",
        "P_RESOURCE_GROUP": "effectSS",
        "jsRoN50z": "http://resource.cdn.bravefrontier2.jp/bf2/resource/",
        "P_PATH": "effectSS",
        "P_GROUP_NAME": "effectSS",
        "P_FILE_NAME": "effectSS_bg_sq_battle.cpk",
        "P_EXT_IMG_PARAM": "effectSS_bg_sq_battle\uff08\u30b9\u30c8\u30af\u30a8\u30c0\u30f3\u30b8\u30e7\u30f3\u80cc\u666f\u30a2\u30cb\u30e1\uff09",
        "aigSzwVh": "0",
        "jb0WsR6n": "1481adb60390a67c47a24addd607d352"
    },
    {
        "P_RESOURCE_ID": "328",
        "P_RESOURCE_TYPE": "100",
        "P_RESOURCE_GROUP": "effectSS",
        "jsRoN50z": "http://resource.cdn.bravefrontier2.jp/bf2/resource/",
        "P_PATH": "effectSS",
        "P_GROUP_NAME": "effectSS",
        "P_FILE_NAME": "effectSS_bg_hzm_battle.cpk",
        "P_EXT_IMG_PARAM": "effectSS_bg_hzm_battle\uff08\u72ed\u9593\u30c0\u30f3\u30b8\u30e7\u30f3\u80cc\u666f\u30a2\u30cb\u30e1\uff09",
        "aigSzwVh": "0",
        "jb0WsR6n": "499b772dd0c20fc79b9b5801560e3274"
    },
    {
        "P_RESOURCE_ID": "329",
        "P_RESOURCE_TYPE": "100",
        "P_RESOURCE_GROUP": "sound",
        "jsRoN50z": "http://resource.cdn.bravefrontier2.jp/bf2/resource/",
        "P_PATH": "sound",
        "P_GROUP_NAME": "sound",
        "P_FILE_NAME": "BF1_1102_btl_multi_ready.acb",
        "P_EXT_IMG_PARAM": "1102_BF1\u30de\u30eb\u30c1\u6e96\u5099",
        "aigSzwVh": "0",
        "jb0WsR6n": "234c5b73b69115446929241a6d0135ac"
    },
    {
        "P_RESOURCE_ID": "330",
        "P_RESOURCE_TYPE": "100",
        "P_RESOURCE_GROUP": "sound",
        "jsRoN50z": "http://resource.cdn.bravefrontier2.jp/bf2/resource/",
        "P_PATH": "sound",
        "P_GROUP_NAME": "sound",
        "P_FILE_NAME": "BF1_1103_btl_multi_battle01.acb",
        "P_EXT_IMG_PARAM": "1103_BF1\u30de\u30eb\u30c1\u30d0\u30c8\u30eb",
        "aigSzwVh": "0",
        "jb0WsR6n": "58c4b3ee986182248eb6d9a658e926df"
    },
    {
        "P_RESOURCE_ID": "331",
        "P_RESOURCE_TYPE": "100",
        "P_RESOURCE_GROUP": "sound",
        "jsRoN50z": "http://resource.cdn.bravefrontier2.jp/bf2/resource/",
        "P_PATH": "sound",
        "P_GROUP_NAME": "sound",
        "P_FILE_NAME": "BF1_1030_btl_evboss.acb",
        "P_EXT_IMG_PARAM": "1030_BF1\u30e1\u30bf\u30d1\u30ec",
        "aigSzwVh": "0",
        "jb0WsR6n": "edc0c2965c9a97bedaebd2d7b8aae05b"
    },
    {
        "P_RESOURCE_ID": "332",
        "P_RESOURCE_TYPE": "100",
        "P_RESOURCE_GROUP": "sound",
        "jsRoN50z": "http://resource.cdn.bravefrontier2.jp/bf2/resource/",
        "P_PATH": "sound",
        "P_GROUP_NAME": "sound",
        "P_FILE_NAME": "BF1_1113_btl_scenario5_bs1.acb",
        "P_EXT_IMG_PARAM": "1113_BF1\u672a\u6765\u3078\u306e\u6c7a\u610f",
        "aigSzwVh": "0",
        "jb0WsR6n": "ce6ae56e6f4e2cff665d441786592e95"
    },
    {
        "P_RESOURCE_ID": "333",
        "P_RESOURCE_TYPE": "100",
        "P_RESOURCE_GROUP": "sound",
        "jsRoN50z": "http://resource.cdn.bravefrontier2.jp/bf2/resource/",
        "P_PATH": "sound",
        "P_GROUP_NAME": "sound",
        "P_FILE_NAME": "BF1_1037_lab_lighttower.acb",
        "P_EXT_IMG_PARAM": "1037_BF1Gimmick",
        "aigSzwVh": "0",
        "jb0WsR6n": "7c2f726294e116225efd914c9f246dac"
    },
    {
        "P_RESOURCE_ID": "334",
        "P_RESOURCE_TYPE": "1",
        "P_RESOURCE_GROUP": "sound",
        "jsRoN50z": "http://resource.cdn.bravefrontier2.jp/bf2/resource/",
        "P_PATH": "sound",
        "P_GROUP_NAME": "sound",
        "P_FILE_NAME": "BF2_062_nothing.acb",
        "P_EXT_IMG_PARAM": "062_\u30b7\u30fc\u30f3\u7121\u97f3",
        "aigSzwVh": "0",
        "jb0WsR6n": "799de819e9964f8c228cd482804e8522"
    },
    {
        "P_RESOURCE_ID": "335",
        "P_RESOURCE_TYPE": "1",
        "P_RESOURCE_GROUP": "sound",
        "jsRoN50z": "http://resource.cdn.bravefrontier2.jp/bf2/resource/",
        "P_PATH": "sound",
        "P_GROUP_NAME": "sound",
        "P_FILE_NAME": "BF2_063_scr_resolution2.acb",
        "P_EXT_IMG_PARAM": "063_\u30b7\u30fc\u30f3\u6c7a\u610f2",
        "aigSzwVh": "0",
        "jb0WsR6n": "c38afb07f868681b545a1b75c7506973"
    },
    {
        "P_RESOURCE_ID": "336",
        "P_RESOURCE_TYPE": "100",
        "P_RESOURCE_GROUP": "event",
        "jsRoN50z": "http://resource.cdn.bravefrontier2.jp/bf2/resource/",
        "P_PATH": "event",
        "P_GROUP_NAME": "event",
        "P_FILE_NAME": "event_navi_full_91_120.cpk",
        "P_EXT_IMG_PARAM": "\u30ca\u30d3\u30ad\u30e3\u30e9\u5168\u8eab\u753b\u50cfID\uff1a91\uff5e120",
        "aigSzwVh": "0",
        "jb0WsR6n": "c39820242b4a51f774f26fbf8b82b994"
    },
    {
        "P_RESOURCE_ID": "337",
        "P_RESOURCE_TYPE": "1",
        "P_RESOURCE_GROUP": "event",
        "jsRoN50z": "http://resource.cdn.bravefrontier2.jp/bf2/resource/",
        "P_PATH": "event",
        "P_GROUP_NAME": "event",
        "P_FILE_NAME": "script_layouttool.cpk",
        "P_EXT_IMG_PARAM": "script_layouttool.cpk\uff08\u30b9\u30af\u30ea\u30d7\u30c8\u7528\u30ec\u30a4\u30a2\u30a6\u30c8\uff09",
        "aigSzwVh": "0",
        "jb0WsR6n": "3ec03cd52ab211b92325512ffd1b6d01"
    },
    {
        "P_RESOURCE_ID": "338",
        "P_RESOURCE_TYPE": "100",
        "P_RESOURCE_GROUP": "area",
        "jsRoN50z": "http://resource.cdn.bravefrontier2.jp/bf2/resource/",
        "P_PATH": "area",
        "P_GROUP_NAME": "area",
        "P_FILE_NAME": "area_2.cpk",
        "P_EXT_IMG_PARAM": "area_2.cpk\uff08\u30a8\u30ea\u30a2\u30ea\u30bd\u30fc\u30b9\u7b2c\uff14\u7ae0\u4ee5\u964d\uff09",
        "aigSzwVh": "0",
        "jb0WsR6n": "8564354cb50fa3df6457bfea60d17e6f"
    },
    {
        "P_RESOURCE_ID": "339",
        "P_RESOURCE_TYPE": "100",
        "P_RESOURCE_GROUP": "event",
        "jsRoN50z": "http://resource.cdn.bravefrontier2.jp/bf2/resource/",
        "P_PATH": "event",
        "P_GROUP_NAME": "event",
        "P_FILE_NAME": "event_navi_full_121_150.cpk",
        "P_EXT_IMG_PARAM": "\u30ca\u30d3\u30ad\u30e3\u30e9\u5168\u8eab\u753b\u50cfID\uff1a121\uff5e150",
        "aigSzwVh": "0",
        "jb0WsR6n": "91605b50e5fb8f57766507ca9c82c616"
    },
    {
        "P_RESOURCE_ID": "340",
        "P_RESOURCE_TYPE": "1",
        "P_RESOURCE_GROUP": "effectSG",
        "jsRoN50z": "http://resource.cdn.bravefrontier2.jp/bf2/resource/",
        "P_PATH": "effectSG",
        "P_GROUP_NAME": "effectSG",
        "P_FILE_NAME": "effectSG_bt_aj_01.cpk",
        "P_EXT_IMG_PARAM": "effectSG_bt_aj_01.cpk",
        "aigSzwVh": "0",
        "jb0WsR6n": "30b14e00267cac57f612be6c00b6c68d"
    },
    {
        "P_RESOURCE_ID": "341",
        "P_RESOURCE_TYPE": "1",
        "P_RESOURCE_GROUP": "effectSG",
        "jsRoN50z": "http://resource.cdn.bravefrontier2.jp/bf2/resource/",
        "P_PATH": "effectSG",
        "P_GROUP_NAME": "effectSG",
        "P_FILE_NAME": "effectSG_bt_kt_01.cpk",
        "P_EXT_IMG_PARAM": "effectSG_bt_kt_01.cpk",
        "aigSzwVh": "0",
        "jb0WsR6n": "3c3172583adc2781fa381a1a66b35da0"
    },
    {
        "P_RESOURCE_ID": "342",
        "P_RESOURCE_TYPE": "1",
        "P_RESOURCE_GROUP": "effectSG",
        "jsRoN50z": "http://resource.cdn.bravefrontier2.jp/bf2/resource/",
        "P_PATH": "effectSG",
        "P_GROUP_NAME": "effectSG",
        "P_FILE_NAME": "effectSG_bt_uz_01.cpk",
        "P_EXT_IMG_PARAM": "effectSG_bt_uz_01.cpk",
        "aigSzwVh": "0",
        "jb0WsR6n": "d575928bd95c9294f60f7bfb192915ac"
    },
    {
        "P_RESOURCE_ID": "343",
        "P_RESOURCE_TYPE": "1",
        "P_RESOURCE_GROUP": "effectSG",
        "jsRoN50z": "http://resource.cdn.bravefrontier2.jp/bf2/resource/",
        "P_PATH": "effectSG",
        "P_GROUP_NAME": "effectSG",
        "P_FILE_NAME": "effectSG_bt_xbb_01.cpk",
        "P_EXT_IMG_PARAM": "effectSG_bt_xbb_01.cpk",
        "aigSzwVh": "0",
        "jb0WsR6n": "85b605f00c909360b8b18a1300ec1b55"
    },
    {
        "P_RESOURCE_ID": "344",
        "P_RESOURCE_TYPE": "100",
        "P_RESOURCE_GROUP": "effectSS",
        "jsRoN50z": "http://resource.cdn.bravefrontier2.jp/bf2/resource/",
        "P_PATH": "effectSS",
        "P_GROUP_NAME": "effectSS",
        "P_FILE_NAME": "effectSS_xbb_cutin20_01.cpk",
        "P_EXT_IMG_PARAM": "effectSS_xbb_cutin20_01.cpk",
        "aigSzwVh": "0",
        "jb0WsR6n": "1b94a5e8f49a51df18f39791619fc8a7"
    },
    {
        "P_RESOURCE_ID": "345",
        "P_RESOURCE_TYPE": "100",
        "P_RESOURCE_GROUP": "effectSS",
        "jsRoN50z": "http://resource.cdn.bravefrontier2.jp/bf2/resource/",
        "P_PATH": "effectSS",
        "P_GROUP_NAME": "effectSS",
        "P_FILE_NAME": "effectSS_xbb_cutin20_02.cpk",
        "P_EXT_IMG_PARAM": "effectSS_xbb_cutin20_02.cpk",
        "aigSzwVh": "0",
        "jb0WsR6n": "8139db95332f425b3435ab134cc12f0d"
    },
    {
        "P_RESOURCE_ID": "346",
        "P_RESOURCE_TYPE": "100",
        "P_RESOURCE_GROUP": "effectSS",
        "jsRoN50z": "http://resource.cdn.bravefrontier2.jp/bf2/resource/",
        "P_PATH": "effectSS",
        "P_GROUP_NAME": "effectSS",
        "P_FILE_NAME": "effectSS_xbb_cutin30_01.cpk",
        "P_EXT_IMG_PARAM": "effectSS_xbb_cutin30_01.cpk",
        "aigSzwVh": "0",
        "jb0WsR6n": "424f41966f00301b911ac2626072b927"
    },
    {
        "P_RESOURCE_ID": "347",
        "P_RESOURCE_TYPE": "100",
        "P_RESOURCE_GROUP": "effectSS",
        "jsRoN50z": "http://resource.cdn.bravefrontier2.jp/bf2/resource/",
        "P_PATH": "effectSS",
        "P_GROUP_NAME": "effectSS",
        "P_FILE_NAME": "effectSS_xbb_cutin40_01.cpk",
        "P_EXT_IMG_PARAM": "effectSS_xbb_cutin40_01.cpk",
        "aigSzwVh": "0",
        "jb0WsR6n": "8ccb329309451df62eb3d10113c7d06c"
    },
    {
        "P_RESOURCE_ID": "348",
        "P_RESOURCE_TYPE": "100",
        "P_RESOURCE_GROUP": "effectSS",
        "jsRoN50z": "http://resource.cdn.bravefrontier2.jp/bf2/resource/",
        "P_PATH": "effectSS",
        "P_GROUP_NAME": "effectSS",
        "P_FILE_NAME": "effectSS_xbb_cutin50_01.cpk",
        "P_EXT_IMG_PARAM": "effectSS_xbb_cutin50_01.cpk",
        "aigSzwVh": "0",
        "jb0WsR6n": "c7d00db4504f9b86243fb2e5b68e64e4"
    },
    {
        "P_RESOURCE_ID": "349",
        "P_RESOURCE_TYPE": "100",
        "P_RESOURCE_GROUP": "effectSS",
        "jsRoN50z": "http://resource.cdn.bravefrontier2.jp/bf2/resource/",
        "P_PATH": "effectSS",
        "P_GROUP_NAME": "effectSS",
        "P_FILE_NAME": "effectSS_xbb_cutin60_01.cpk",
        "P_EXT_IMG_PARAM": "effectSS_xbb_cutin60_01.cpk",
        "aigSzwVh": "0",
        "jb0WsR6n": "508249c368eff7d1013bed7cf9a42467"
    },
    {
        "P_RESOURCE_ID": "350",
        "P_RESOURCE_TYPE": "100",
        "P_RESOURCE_GROUP": "event",
        "jsRoN50z": "http://resource.cdn.bravefrontier2.jp/bf2/resource/",
        "P_PATH": "event",
        "P_GROUP_NAME": "event",
        "P_FILE_NAME": "event_navi_thumbnail_2.cpk",
        "P_EXT_IMG_PARAM": "event_navi_thumbnail_2.cpk",
        "aigSzwVh": "0",
        "jb0WsR6n": "0cd5cc3cb9734ddcd1e3df27bf509276"
    },
    {
        "P_RESOURCE_ID": "351",
        "P_RESOURCE_TYPE": "100",
        "P_RESOURCE_GROUP": "unit",
        "jsRoN50z": "http://resource.cdn.bravefrontier2.jp/bf2/resource/",
        "P_PATH": "unit",
        "P_GROUP_NAME": "unit",
        "P_FILE_NAME": "unit1_02.cpk",
        "P_EXT_IMG_PARAM": "\u30e6\u30cb\u30c3\u30c8\u30ea\u30bd\u30fc\u30b91_02",
        "aigSzwVh": "0",
        "jb0WsR6n": "95c93814ace5f2be2fbd83bc1cdeb81e"
    },
    {
        "P_RESOURCE_ID": "352",
        "P_RESOURCE_TYPE": "100",
        "P_RESOURCE_GROUP": "unit",
        "jsRoN50z": "http://resource.cdn.bravefrontier2.jp/bf2/resource/",
        "P_PATH": "unit",
        "P_GROUP_NAME": "unit",
        "P_FILE_NAME": "unit5_02.cpk",
        "P_EXT_IMG_PARAM": "\u30e6\u30cb\u30c3\u30c8\u30ea\u30bd\u30fc\u30b95_02",
        "aigSzwVh": "0",
        "jb0WsR6n": "a0730c8ed51d85e7aba7e7b86b745cc8"
    },
    {
        "P_RESOURCE_ID": "353",
        "P_RESOURCE_TYPE": "100",
        "P_RESOURCE_GROUP": "unit",
        "jsRoN50z": "http://resource.cdn.bravefrontier2.jp/bf2/resource/",
        "P_PATH": "unit",
        "P_GROUP_NAME": "unit",
        "P_FILE_NAME": "unit2_02.cpk",
        "P_EXT_IMG_PARAM": "\u30e6\u30cb\u30c3\u30c8\u30ea\u30bd\u30fc\u30b92_02",
        "aigSzwVh": "0",
        "jb0WsR6n": "840c7aa071a500833189449416d74ea4"
    },
    {
        "P_RESOURCE_ID": "354",
        "P_RESOURCE_TYPE": "100",
        "P_RESOURCE_GROUP": "unit",
        "jsRoN50z": "http://resource.cdn.bravefrontier2.jp/bf2/resource/",
        "P_PATH": "unit",
        "P_GROUP_NAME": "unit",
        "P_FILE_NAME": "unit3_02.cpk",
        "P_EXT_IMG_PARAM": "\u30e6\u30cb\u30c3\u30c8\u30ea\u30bd\u30fc\u30b93_02",
        "aigSzwVh": "0",
        "jb0WsR6n": "82285bad958a59675ac47554fc94d508"
    },
    {
        "P_RESOURCE_ID": "355",
        "P_RESOURCE_TYPE": "100",
        "P_RESOURCE_GROUP": "unit",
        "jsRoN50z": "http://resource.cdn.bravefrontier2.jp/bf2/resource/",
        "P_PATH": "unit",
        "P_GROUP_NAME": "unit",
        "P_FILE_NAME": "unit4_02.cpk",
        "P_EXT_IMG_PARAM": "\u30e6\u30cb\u30c3\u30c8\u30ea\u30bd\u30fc\u30b94_02",
        "aigSzwVh": "0",
        "jb0WsR6n": "938443b7476e065cf3d9fba17ced7bc2"
    },
    {
        "P_RESOURCE_ID": "356",
        "P_RESOURCE_TYPE": "100",
        "P_RESOURCE_GROUP": "unit",
        "jsRoN50z": "http://resource.cdn.bravefrontier2.jp/bf2/resource/",
        "P_PATH": "unit",
        "P_GROUP_NAME": "unit",
        "P_FILE_NAME": "unit6_02.cpk",
        "P_EXT_IMG_PARAM": "\u30e6\u30cb\u30c3\u30c8\u30ea\u30bd\u30fc\u30b96_02",
        "aigSzwVh": "0",
        "jb0WsR6n": "6733bd36ce93cfa3f81acb65498dcebb"
    },
    {
        "P_RESOURCE_ID": "357",
        "P_RESOURCE_TYPE": "100",
        "P_RESOURCE_GROUP": "dungeon",
        "jsRoN50z": "http://resource.cdn.bravefrontier2.jp/bf2/resource/",
        "P_PATH": "dungeon",
        "P_GROUP_NAME": "dungeon",
        "P_FILE_NAME": "dungeon_battle_bg_3.cpk",
        "P_EXT_IMG_PARAM": "dungeon_battle_bg_3.cpk\uff08\u30d0\u30c8\u30eb\u80cc\u666f\u753b\u50cf\uff13\uff09",
        "aigSzwVh": "0",
        "jb0WsR6n": "13baca33b48632a57b72eb7fd26748d7"
    },
    {
        "P_RESOURCE_ID": "358",
        "P_RESOURCE_TYPE": "100",
        "P_RESOURCE_GROUP": "dungeon",
        "jsRoN50z": "http://resource.cdn.bravefrontier2.jp/bf2/resource/",
        "P_PATH": "dungeon",
        "P_GROUP_NAME": "dungeon",
        "P_FILE_NAME": "dungeon_sq_battle_bg_2.cpk",
        "P_EXT_IMG_PARAM": "dungeon_sq_battle_bg_2.cpk\uff08\u30b9\u30c8\u30af\u30a8\u30d0\u30c8\u30eb\u80cc\u666f\u753b\u50cf2\uff09",
        "aigSzwVh": "0",
        "jb0WsR6n": "685925114372edc344baa7b0d3f691b8"
    },
    {
        "P_RESOURCE_ID": "359",
        "P_RESOURCE_TYPE": "100",
        "P_RESOURCE_GROUP": "effectSS",
        "jsRoN50z": "http://resource.cdn.bravefrontier2.jp/bf2/resource/",
        "P_PATH": "effectSS",
        "P_GROUP_NAME": "effectSS",
        "P_FILE_NAME": "effectSS_bg_sq_battle_2.cpk",
        "P_EXT_IMG_PARAM": "effectSS_bg_sq_battle_2.cpk\uff08\u30b9\u30c8\u30af\u30a8\u30c0\u30f3\u30b8\u30e7\u30f3\u80cc\u666f\u30a2\u30cb\u30e1\uff12\uff09",
        "aigSzwVh": "0",
        "jb0WsR6n": "39a10751746e7cebb5a6f267eaac7836"
    },
    {
        "P_RESOURCE_ID": "360",
        "P_RESOURCE_TYPE": "100",
        "P_RESOURCE_GROUP": "effectSS",
        "jsRoN50z": "http://resource.cdn.bravefrontier2.jp/bf2/resource/",
        "P_PATH": "effectSS",
        "P_GROUP_NAME": "effectSS",
        "P_FILE_NAME": "effectSS_bg_battle_3.cpk",
        "P_EXT_IMG_PARAM": "effectSS_bg_battle_3.cpk\uff08\u30c0\u30f3\u30b8\u30e7\u30f3\u80cc\u666f\u30a2\u30cb\u30e1\uff13\uff09",
        "aigSzwVh": "0",
        "jb0WsR6n": "d7e554ce059f8754dec35e5d3e5d76c9"
    },
    {
        "P_RESOURCE_ID": "361",
        "P_RESOURCE_TYPE": "100",
        "P_RESOURCE_GROUP": "event",
        "jsRoN50z": "http://resource.cdn.bravefrontier2.jp/bf2/resource/",
        "P_PATH": "event",
        "P_GROUP_NAME": "event",
        "P_FILE_NAME": "event_navi_full_151_180.cpk",
        "P_EXT_IMG_PARAM": "\u30ca\u30d3\u30ad\u30e3\u30e9\u5168\u8eab\u753b\u50cfID\uff1a151\uff5e180",
        "aigSzwVh": "0",
        "jb0WsR6n": "a4e61b1bc3bca503553e9fc4833fd71c"
    },
    {
        "P_RESOURCE_ID": "362",
        "P_RESOURCE_TYPE": "100",
        "P_RESOURCE_GROUP": "sound",
        "jsRoN50z": "http://resource.cdn.bravefrontier2.jp/bf2/resource/",
        "P_PATH": "sound",
        "P_GROUP_NAME": "sound",
        "P_FILE_NAME": "BF2_064_btl_devilcastle.acb",
        "P_EXT_IMG_PARAM": "BF2_064_btl_devilcastle.acb",
        "aigSzwVh": "0",
        "jb0WsR6n": "15b97213bc4d33b9ff510b881cfd2d00"
    },
    {
        "P_RESOURCE_ID": "363",
        "P_RESOURCE_TYPE": "100",
        "P_RESOURCE_GROUP": "sound",
        "jsRoN50z": "http://resource.cdn.bravefrontier2.jp/bf2/resource/",
        "P_PATH": "sound",
        "P_GROUP_NAME": "sound",
        "P_FILE_NAME": "BF1_1049_btl_raid_boss.acb",
        "P_EXT_IMG_PARAM": "BF1_1049_btl_raid_boss.acb",
        "aigSzwVh": "",
        "jb0WsR6n": "8fcd9cd138d49c9d4d97706f2c9796f7"
    },
    {
        "P_RESOURCE_ID": "364",
        "P_RESOURCE_TYPE": "1",
        "P_RESOURCE_GROUP": "dungeon",
        "jsRoN50z": "http://resource.cdn.bravefrontier2.jp/bf2/resource/",
        "P_PATH": "dungeon",
        "P_GROUP_NAME": "dungeon",
        "P_FILE_NAME": "tuto_dungeon_battle_bg.cpk",
        "P_EXT_IMG_PARAM": "tuto_dungeon_battle_bg.cpk\uff08\u5148\u884cDL\u7528\uff09",
        "aigSzwVh": "0",
        "jb0WsR6n": "8e656a0eadad4abfe32ab53ee02d4dc4"
    },
    {
        "P_RESOURCE_ID": "365",
        "P_RESOURCE_TYPE": "1",
        "P_RESOURCE_GROUP": "dungeon",
        "jsRoN50z": "http://resource.cdn.bravefrontier2.jp/bf2/resource/",
        "P_PATH": "dungeon",
        "P_GROUP_NAME": "dungeon",
        "P_FILE_NAME": "tuto_dungeon_event_bg.cpk",
        "P_EXT_IMG_PARAM": "tuto_dungeon_event_bg.cpk\uff08\u5148\u884cDL\u7528\uff09",
        "aigSzwVh": "0",
        "jb0WsR6n": "21aa8566ea7c6b37b39ba4c89d1f7fc3"
    },
    {
        "P_RESOURCE_ID": "366",
        "P_RESOURCE_TYPE": "1",
        "P_RESOURCE_GROUP": "effectSS",
        "jsRoN50z": "http://resource.cdn.bravefrontier2.jp/bf2/resource/",
        "P_PATH": "effectSS",
        "P_GROUP_NAME": "effectSS",
        "P_FILE_NAME": "tuto_effectSS_bg_event.cpk",
        "P_EXT_IMG_PARAM": "tuto_effectSS_bg_event.cpk\uff08\u5148\u884cDL\u7528\uff09",
        "aigSzwVh": "0",
        "jb0WsR6n": "b9aef2bacdc58c48fecd4595fa190f15"
    },
    {
        "P_RESOURCE_ID": "367",
        "P_RESOURCE_TYPE": "1",
        "P_RESOURCE_GROUP": "effectSS",
        "jsRoN50z": "http://resource.cdn.bravefrontier2.jp/bf2/resource/",
        "P_PATH": "effectSS",
        "P_GROUP_NAME": "effectSS",
        "P_FILE_NAME": "tuto_effectSS_script_effect.cpk",
        "P_EXT_IMG_PARAM": "tuto_effectSS_script_effect.cpk\uff08\u5148\u884cDL\u7528\uff09",
        "aigSzwVh": "0",
        "jb0WsR6n": "b4fe1f2d46c152600babdd9e74c355f6"
    },
    {
        "P_RESOURCE_ID": "368",
        "P_RESOURCE_TYPE": "1",
        "P_RESOURCE_GROUP": "effectSS",
        "jsRoN50z": "http://resource.cdn.bravefrontier2.jp/bf2/resource/",
        "P_PATH": "effectSS",
        "P_GROUP_NAME": "effectSS",
        "P_FILE_NAME": "tuto_effectSS_xbb_cutin20.cpk",
        "P_EXT_IMG_PARAM": "tuto_effectSS_xbb_cutin20.cpk\uff08\u5148\u884cDL\u7528\uff09",
        "aigSzwVh": "0",
        "jb0WsR6n": "d4a4d21da77fa47801e3902736eed142"
    },
    {
        "P_RESOURCE_ID": "369",
        "P_RESOURCE_TYPE": "1",
        "P_RESOURCE_GROUP": "effectSS",
        "jsRoN50z": "http://resource.cdn.bravefrontier2.jp/bf2/resource/",
        "P_PATH": "effectSS",
        "P_GROUP_NAME": "effectSS",
        "P_FILE_NAME": "tuto_effectSS_bg_battle.cpk",
        "P_EXT_IMG_PARAM": "tuto_effectSS_bg_battle.cpk\uff08\u5148\u884cDL\u7528\uff09",
        "aigSzwVh": "0",
        "jb0WsR6n": "7e9e774025e4ca37dba7df5970044e86"
    },
    {
        "P_RESOURCE_ID": "370",
        "P_RESOURCE_TYPE": "1",
        "P_RESOURCE_GROUP": "event",
        "jsRoN50z": "http://resource.cdn.bravefrontier2.jp/bf2/resource/",
        "P_PATH": "event",
        "P_GROUP_NAME": "event",
        "P_FILE_NAME": "tuto_event_navi_full.cpk",
        "P_EXT_IMG_PARAM": "tuto_event_navi_full.cpk\uff08\u5148\u884cDL\u7528\uff09",
        "aigSzwVh": "0",
        "jb0WsR6n": "e547f1c8e090a8c9250a1d54c2700e9d"
    },
    {
        "P_RESOURCE_ID": "371",
        "P_RESOURCE_TYPE": "1",
        "P_RESOURCE_GROUP": "event",
        "jsRoN50z": "http://resource.cdn.bravefrontier2.jp/bf2/resource/",
        "P_PATH": "event",
        "P_GROUP_NAME": "event",
        "P_FILE_NAME": "tuto_event_navi_thumbnail.cpk",
        "P_EXT_IMG_PARAM": "tuto_event_navi_thumbnail.cpk\uff08\u5148\u884cDL\u7528\uff09",
        "aigSzwVh": "0",
        "jb0WsR6n": "5bef55db140543b85e3ef083d2b44939"
    },
    {
        "P_RESOURCE_ID": "372",
        "P_RESOURCE_TYPE": "1",
        "P_RESOURCE_GROUP": "unit",
        "jsRoN50z": "http://resource.cdn.bravefrontier2.jp/bf2/resource/",
        "P_PATH": "unit",
        "P_GROUP_NAME": "unit",
        "P_FILE_NAME": "tuto_unit.cpk",
        "P_EXT_IMG_PARAM": "tuto_unit.cpk\uff08\u5148\u884cDL\u7528\uff09",
        "aigSzwVh": "0",
        "jb0WsR6n": "ac6aedfebae73cb1b0134747bf0c82a1"
    },
    {
        "P_RESOURCE_ID": "373",
        "P_RESOURCE_TYPE": "1",
        "P_RESOURCE_GROUP": "unit",
        "jsRoN50z": "http://resource.cdn.bravefrontier2.jp/bf2/resource/",
        "P_PATH": "unit",
        "P_GROUP_NAME": "unit",
        "P_FILE_NAME": "tuto_unit_arms.cpk",
        "P_EXT_IMG_PARAM": "tuto_unit_arms.cpk\uff08\u5148\u884cDL\u7528\uff09",
        "aigSzwVh": "0",
        "jb0WsR6n": "daf895af23126b7d86c031a394c5acfe"
    },
    {
        "P_RESOURCE_ID": "374",
        "P_RESOURCE_TYPE": "100",
        "P_RESOURCE_GROUP": "effectSS",
        "jsRoN50z": "http://resource.cdn.bravefrontier2.jp/bf2/resource/",
        "P_PATH": "effectSS",
        "P_GROUP_NAME": "effectSS",
        "P_FILE_NAME": "effectSS_xbb_cutin20_03.cpk",
        "P_EXT_IMG_PARAM": "effectSS_xbb_cutin20_03.cpk",
        "aigSzwVh": "0",
        "jb0WsR6n": "c64565c2a7e657b527db4a01521a8387"
    },
    {
        "P_RESOURCE_ID": "375",
        "P_RESOURCE_TYPE": "100",
        "P_RESOURCE_GROUP": "sound",
        "jsRoN50z": "http://resource.cdn.bravefrontier2.jp/bf2/resource/",
        "P_PATH": "sound",
        "P_GROUP_NAME": "sound",
        "P_FILE_NAME": "BF2_065_exg_arenatopjz.acb",
        "P_EXT_IMG_PARAM": "BF2_065_exg_arenatopjz.acb",
        "aigSzwVh": "0",
        "jb0WsR6n": "0c6776a1ea337811d140859bb910ad34"
    },
    {
        "P_RESOURCE_ID": "376",
        "P_RESOURCE_TYPE": "100",
        "P_RESOURCE_GROUP": "sound",
        "jsRoN50z": "http://resource.cdn.bravefrontier2.jp/bf2/resource/",
        "P_PATH": "sound",
        "P_GROUP_NAME": "sound",
        "P_FILE_NAME": "BF2_066_exg_arenabtljz.acb",
        "P_EXT_IMG_PARAM": "BF2_066_exg_arenabtljz.acb",
        "aigSzwVh": "0",
        "jb0WsR6n": "c2bf304a3903e6d928f48abdd681e8d0"
    },
    {
        "P_RESOURCE_ID": "377",
        "P_RESOURCE_TYPE": "100",
        "P_RESOURCE_GROUP": "sound",
        "jsRoN50z": "http://resource.cdn.bravefrontier2.jp/bf2/resource/",
        "P_PATH": "sound",
        "P_GROUP_NAME": "sound",
        "P_FILE_NAME": "BF1_1018_btl_sand.acb",
        "P_EXT_IMG_PARAM": "BF1_1018_btl_sand.acb",
        "aigSzwVh": "0",
        "jb0WsR6n": "d214c2124f7105bc34a7646d253f3faf"
    },
    {
        "P_RESOURCE_ID": "378",
        "P_RESOURCE_TYPE": "100",
        "P_RESOURCE_GROUP": "sound",
        "jsRoN50z": "http://resource.cdn.bravefrontier2.jp/bf2/resource/",
        "P_PATH": "sound",
        "P_GROUP_NAME": "sound",
        "P_FILE_NAME": "BF1_1021_btl_wasteland02.acb",
        "P_EXT_IMG_PARAM": "BF1_1021_btl_wasteland02.acb",
        "aigSzwVh": "0",
        "jb0WsR6n": "3fb1f90f5b0dc92d951094a94850ed30"
    },
    {
        "P_RESOURCE_ID": "379",
        "P_RESOURCE_TYPE": "100",
        "P_RESOURCE_GROUP": "sound",
        "jsRoN50z": "http://resource.cdn.bravefrontier2.jp/bf2/resource/",
        "P_PATH": "sound",
        "P_GROUP_NAME": "sound",
        "P_FILE_NAME": "BF2_067_btl_sw_maintitle.acb",
        "P_EXT_IMG_PARAM": "BF2_067_btl_sw_maintitle.acb",
        "aigSzwVh": "0",
        "jb0WsR6n": "38e6c28d23cb1dfb2783895186504309"
    },
    {
        "P_RESOURCE_ID": "380",
        "P_RESOURCE_TYPE": "100",
        "P_RESOURCE_GROUP": "sound",
        "jsRoN50z": "http://resource.cdn.bravefrontier2.jp/bf2/resource/",
        "P_PATH": "sound",
        "P_GROUP_NAME": "sound",
        "P_FILE_NAME": "BF2_068_btl_sw_theimperialmarch.acb",
        "P_EXT_IMG_PARAM": "BF2_068_btl_sw_theimperialmarch.acb",
        "aigSzwVh": "0",
        "jb0WsR6n": "c5728d788770709b334e86453b1db8d9"
    },
    {
        "P_RESOURCE_ID": "381",
        "P_RESOURCE_TYPE": "100",
        "P_RESOURCE_GROUP": "sound",
        "jsRoN50z": "http://resource.cdn.bravefrontier2.jp/bf2/resource/",
        "P_PATH": "sound",
        "P_GROUP_NAME": "sound",
        "P_FILE_NAME": "BF2_069_btl_sw_thebattleofendor1.acb",
        "P_EXT_IMG_PARAM": "BF2_069_btl_sw_thebattleofendor1.acb",
        "aigSzwVh": "0",
        "jb0WsR6n": "833072a5c361e920a5511feda9d98320"
    },
    {
        "P_RESOURCE_ID": "382",
        "P_RESOURCE_TYPE": "100",
        "P_RESOURCE_GROUP": "sound",
        "jsRoN50z": "http://resource.cdn.bravefrontier2.jp/bf2/resource/",
        "P_PATH": "sound",
        "P_GROUP_NAME": "sound",
        "P_FILE_NAME": "BF2_070_btl_sw_theforestbattle.acb",
        "P_EXT_IMG_PARAM": "BF2_070_btl_sw_theforestbattle.acb",
        "aigSzwVh": "0",
        "jb0WsR6n": "131231179fae796c63f0ff4b5fcfc51f"
    },
    {
        "P_RESOURCE_ID": "383",
        "P_RESOURCE_TYPE": "100",
        "P_RESOURCE_GROUP": "sound",
        "jsRoN50z": "http://resource.cdn.bravefrontier2.jp/bf2/resource/",
        "P_PATH": "sound",
        "P_GROUP_NAME": "sound",
        "P_FILE_NAME": "BF2_071_btl_sw_thebattleofhoth.acb",
        "P_EXT_IMG_PARAM": "BF2_071_btl_sw_thebattleofhoth.acb",
        "aigSzwVh": "0",
        "jb0WsR6n": "604eb10fe6ec5d315afef1638edd1787"
    },
    {
        "P_RESOURCE_ID": "384",
        "P_RESOURCE_TYPE": "100",
        "P_RESOURCE_GROUP": "effectSS",
        "jsRoN50z": "http://resource.cdn.bravefrontier2.jp/bf2/resource/",
        "P_PATH": "effectSS",
        "P_GROUP_NAME": "effectSS",
        "P_FILE_NAME": "effectSS_xbb_cutin20_04.cpk",
        "P_EXT_IMG_PARAM": "effectSS_xbb_cutin20_04.cpk",
        "aigSzwVh": "0",
        "jb0WsR6n": "231faeb622b9e483ba2e4d724736f31b"
    },
    {
        "P_RESOURCE_ID": "385",
        "P_RESOURCE_TYPE": "100",
        "P_RESOURCE_GROUP": "summon",
        "jsRoN50z": "http://resource.cdn.bravefrontier2.jp/bf2/resource/",
        "P_PATH": "summon",
        "P_GROUP_NAME": "summon",
        "P_FILE_NAME": "summon_02.cpk",
        "P_EXT_IMG_PARAM": "summon_02.cpk",
        "aigSzwVh": "0",
        "jb0WsR6n": "60c47519a158b6bdf626078b71f53c19"
    },
    {
        "P_RESOURCE_ID": "386",
        "P_RESOURCE_TYPE": "100",
        "P_RESOURCE_GROUP": "effectSG",
        "jsRoN50z": "http://resource.cdn.bravefrontier2.jp/bf2/resource/",
        "P_PATH": "effectSG",
        "P_GROUP_NAME": "effectSG",
        "P_FILE_NAME": "effectSG_battle_effect.cpk",
        "P_EXT_IMG_PARAM": "effectSG_battle_effect.cpk",
        "aigSzwVh": "0",
        "jb0WsR6n": "03f09ff8d1195e4d175f230fa3a28dd1"
    },
    {
        "P_RESOURCE_ID": "387",
        "P_RESOURCE_TYPE": "100",
        "P_RESOURCE_GROUP": "unit",
        "jsRoN50z": "http://resource.cdn.bravefrontier2.jp/bf2/resource/",
        "P_PATH": "unit",
        "P_GROUP_NAME": "unit",
        "P_FILE_NAME": "text.cpk",
        "P_EXT_IMG_PARAM": "\u30d0\u30d5\u30c6\u30ad\u30b9\u30c8",
        "aigSzwVh": "0",
        "jb0WsR6n": "f71818dc795547904a0dc680ab8d7835"
    },
    {
        "P_RESOURCE_ID": "388",
        "P_RESOURCE_TYPE": "100",
        "P_RESOURCE_GROUP": "sound",
        "jsRoN50z": "http://resource.cdn.bravefrontier2.jp/bf2/resource/",
        "P_PATH": "sound",
        "P_GROUP_NAME": "sound",
        "P_FILE_NAME": "BF1_1009_btl_village.acb",
        "P_EXT_IMG_PARAM": "BF1_1009_\u6751",
        "aigSzwVh": "0",
        "jb0WsR6n": "c37926b8039b19087512ac8608efc1ac"
    },
    {
        "P_RESOURCE_ID": "389",
        "P_RESOURCE_TYPE": "100",
        "P_RESOURCE_GROUP": "sound",
        "jsRoN50z": "http://resource.cdn.bravefrontier2.jp/bf2/resource/",
        "P_PATH": "sound",
        "P_GROUP_NAME": "sound",
        "P_FILE_NAME": "BF1_1095_btl_another_worldbtl.acb",
        "P_EXT_IMG_PARAM": "BF1_1095_\u5927\u3044\u306a\u308b\u98db\u7fd4",
        "aigSzwVh": "0",
        "jb0WsR6n": "9a812f51864a30c3b035f20bf5dac302"
    },
    {
        "P_RESOURCE_ID": "390",
        "P_RESOURCE_TYPE": "100",
        "P_RESOURCE_GROUP": "sound",
        "jsRoN50z": "http://resource.cdn.bravefrontier2.jp/bf2/resource/",
        "P_PATH": "sound",
        "P_GROUP_NAME": "sound",
        "P_FILE_NAME": "BF1_1104_btl_Scenario3_1st.acb",
        "P_EXT_IMG_PARAM": "BF1_1104_btl_Scenario3_1st.acb",
        "aigSzwVh": "0",
        "jb0WsR6n": "4a7be86efe2a4548663793c8bd1d16f0"
    },
    {
        "P_RESOURCE_ID": "391",
        "P_RESOURCE_TYPE": "100",
        "P_RESOURCE_GROUP": "sound",
        "jsRoN50z": "http://resource.cdn.bravefrontier2.jp/bf2/resource/",
        "P_PATH": "sound",
        "P_GROUP_NAME": "sound",
        "P_FILE_NAME": "BF1_1105_btl_Scenario3_fin.acb",
        "P_EXT_IMG_PARAM": "BF1_1105_btl_Scenario3_fin.acb",
        "aigSzwVh": "0",
        "jb0WsR6n": "c527e6ba9a7d02723e794ed3ac760a43"
    },
    {
        "P_RESOURCE_ID": "392",
        "P_RESOURCE_TYPE": "100",
        "P_RESOURCE_GROUP": "sound",
        "jsRoN50z": "http://resource.cdn.bravefrontier2.jp/bf2/resource/",
        "P_PATH": "sound",
        "P_GROUP_NAME": "sound",
        "P_FILE_NAME": "BF1_1112_btl_Scenario3_fin02.acb",
        "P_EXT_IMG_PARAM": "BF1_1112_btl_Scenario3_fin02.acb",
        "aigSzwVh": "0",
        "jb0WsR6n": "db1f81cf0483166500573c728a2e2938"
    },
    {
        "P_RESOURCE_ID": "393",
        "P_RESOURCE_TYPE": "100",
        "P_RESOURCE_GROUP": "effectSG",
        "jsRoN50z": "http://resource.cdn.bravefrontier2.jp/bf2/resource/",
        "P_PATH": "effectSG",
        "P_GROUP_NAME": "effectSG",
        "P_FILE_NAME": "effectSG_mini.cpk",
        "P_EXT_IMG_PARAM": "\u30df\u30cb\u30b2\u30fc\u30e0",
        "aigSzwVh": "0",
        "jb0WsR6n": "35e58dea7e62d8ddd89249fcc22375bd"
    },
    {
        "P_RESOURCE_ID": "394",
        "P_RESOURCE_TYPE": "100",
        "P_RESOURCE_GROUP": "raid",
        "jsRoN50z": "http://resource.cdn.bravefrontier2.jp/bf2/resource/",
        "P_PATH": "raid",
        "P_GROUP_NAME": "raid",
        "P_FILE_NAME": "raid.cpk",
        "P_EXT_IMG_PARAM": "\u653b\u9632\u6226",
        "aigSzwVh": "0",
        "jb0WsR6n": "d297fef4783ec778c6f89e7a5a491764"
    },
    {
        "P_RESOURCE_ID": "395",
        "P_RESOURCE_TYPE": "100",
        "P_RESOURCE_GROUP": "sound",
        "jsRoN50z": "http://resource.cdn.bravefrontier2.jp/bf2/resource/",
        "P_PATH": "sound",
        "P_GROUP_NAME": "sound",
        "P_FILE_NAME": "BF2_079_exg_srush_game.acb",
        "P_EXT_IMG_PARAM": "\u30df\u30cb\u30b2\u30fc\u30e0",
        "aigSzwVh": "0",
        "jb0WsR6n": "2caaa8ff8103ea33f804df50319e2d7a"
    },
    {
        "P_RESOURCE_ID": "396",
        "P_RESOURCE_TYPE": "100",
        "P_RESOURCE_GROUP": "sound",
        "jsRoN50z": "http://resource.cdn.bravefrontier2.jp/bf2/resource/",
        "P_PATH": "sound",
        "P_GROUP_NAME": "sound",
        "P_FILE_NAME": "BF2_072_btl_raid_top.acb",
        "P_EXT_IMG_PARAM": "BF2_072_btl_raid_top.acb",
        "aigSzwVh": "0",
        "jb0WsR6n": "5ebe278d6d974cfe5d4a571f4bcfb204"
    },
    {
        "P_RESOURCE_ID": "397",
        "P_RESOURCE_TYPE": "100",
        "P_RESOURCE_GROUP": "sound",
        "jsRoN50z": "http://resource.cdn.bravefrontier2.jp/bf2/resource/",
        "P_PATH": "sound",
        "P_GROUP_NAME": "sound",
        "P_FILE_NAME": "BF2_073_btl_raid_battle.acb",
        "P_EXT_IMG_PARAM": "BF2_073_btl_raid_battle.acb",
        "aigSzwVh": "0",
        "jb0WsR6n": "82c5d7abe7ed0292103754194fb9c5a8"
    },
    {
        "P_RESOURCE_ID": "398",
        "P_RESOURCE_TYPE": "100",
        "P_RESOURCE_GROUP": "sound",
        "jsRoN50z": "http://resource.cdn.bravefrontier2.jp/bf2/resource/",
        "P_PATH": "sound",
        "P_GROUP_NAME": "sound",
        "P_FILE_NAME": "BF2_074_btl_raid_boss.acb",
        "P_EXT_IMG_PARAM": "BF2_074_btl_raid_boss.acb",
        "aigSzwVh": "0",
        "jb0WsR6n": "6080fa7532f21c2675ff3a544a989eb9"
    },
    {
        "P_RESOURCE_ID": "399",
        "P_RESOURCE_TYPE": "100",
        "P_RESOURCE_GROUP": "sound",
        "jsRoN50z": "http://resource.cdn.bravefrontier2.jp/bf2/resource/",
        "P_PATH": "sound",
        "P_GROUP_NAME": "sound",
        "P_FILE_NAME": "BF2_075_btl_raid_battle2.acb",
        "P_EXT_IMG_PARAM": "BF2_075_btl_raid_battle2.acb",
        "aigSzwVh": "0",
        "jb0WsR6n": "e24a95d81fe71fce3a58c03d91b29ecc"
    },
    {
        "P_RESOURCE_ID": "400",
        "P_RESOURCE_TYPE": "100",
        "P_RESOURCE_GROUP": "event",
        "jsRoN50z": "http://resource.cdn.bravefrontier2.jp/bf2/resource/",
        "P_PATH": "event",
        "P_GROUP_NAME": "event",
        "P_FILE_NAME": "event_navi_full_181_210.cpk",
        "P_EXT_IMG_PARAM": "event_navi_full_181_210.cpk",
        "aigSzwVh": "0",
        "jb0WsR6n": "6802b87647071f01e5dbc452a6cc4a63"
    },
    {
        "P_RESOURCE_ID": "401",
        "P_RESOURCE_TYPE": "100",
        "P_RESOURCE_GROUP": "sound",
        "jsRoN50z": "http://resource.cdn.bravefrontier2.jp/bf2/resource/",
        "P_PATH": "sound",
        "P_GROUP_NAME": "sound",
        "P_FILE_NAME": "BF2_084_exg_gogorin_ranking.acb",
        "P_EXT_IMG_PARAM": "BF2_084_exg_gogorin_ranking.acb",
        "aigSzwVh": "0",
        "jb0WsR6n": "119b1bae37e2209d7693663e0cd9d732"
    },
    {
        "P_RESOURCE_ID": "402",
        "P_RESOURCE_TYPE": "100",
        "P_RESOURCE_GROUP": "sound",
        "jsRoN50z": "http://resource.cdn.bravefrontier2.jp/bf2/resource/",
        "P_PATH": "sound",
        "P_GROUP_NAME": "sound",
        "P_FILE_NAME": "BF2_080_exg_gogorin_run.acb",
        "P_EXT_IMG_PARAM": "BF2_080_exg_gogorin_run.acb",
        "aigSzwVh": "0",
        "jb0WsR6n": "4f99b141226c5109c71d30f76d0566bb"
    },
    {
        "P_RESOURCE_ID": "403",
        "P_RESOURCE_TYPE": "100",
        "P_RESOURCE_GROUP": "sound",
        "jsRoN50z": "http://resource.cdn.bravefrontier2.jp/bf2/resource/",
        "P_PATH": "sound",
        "P_GROUP_NAME": "sound",
        "P_FILE_NAME": "BF2_081_exg_gogorin_dash.acb",
        "P_EXT_IMG_PARAM": "BF2_081_exg_gogorin_dash.acb",
        "aigSzwVh": "0",
        "jb0WsR6n": "8527afa135eecf4b7cc7a615e04a668c"
    },
    {
        "P_RESOURCE_ID": "404",
        "P_RESOURCE_TYPE": "100",
        "P_RESOURCE_GROUP": "sound",
        "jsRoN50z": "http://resource.cdn.bravefrontier2.jp/bf2/resource/",
        "P_PATH": "sound",
        "P_GROUP_NAME": "sound",
        "P_FILE_NAME": "BF2_082_exg_gogorin_tutorial.acb",
        "P_EXT_IMG_PARAM": "BF2_082_exg_gogorin_tutorial.acb",
        "aigSzwVh": "0",
        "jb0WsR6n": "148b4354400e691ee65e39253f394f0e"
    },
    {
        "P_RESOURCE_ID": "405",
        "P_RESOURCE_TYPE": "100",
        "P_RESOURCE_GROUP": "sound",
        "jsRoN50z": "http://resource.cdn.bravefrontier2.jp/bf2/resource/",
        "P_PATH": "sound",
        "P_GROUP_NAME": "sound",
        "P_FILE_NAME": "BF2_083_exg_gogorin_gameover.acb",
        "P_EXT_IMG_PARAM": "BF2_083_exg_gogorin_gameover.acb",
        "aigSzwVh": "0",
        "jb0WsR6n": "3ba5fd9817dc83a7f700b0bf303e0aa6"
    },
    {
        "P_RESOURCE_ID": "406",
        "P_RESOURCE_TYPE": "100",
        "P_RESOURCE_GROUP": "minigame",
        "jsRoN50z": "http://resource.cdn.bravefrontier2.jp/bf2/resource/",
        "P_PATH": "minigame",
        "P_GROUP_NAME": "minigame",
        "P_FILE_NAME": "gogorin.cpk",
        "P_EXT_IMG_PARAM": "gogorin.cpk",
        "aigSzwVh": "0",
        "jb0WsR6n": "06812f967e9f4d90303deeb362ad0740"
    },
    {
        "P_RESOURCE_ID": "407",
        "P_RESOURCE_TYPE": "100",
        "P_RESOURCE_GROUP": "sound",
        "jsRoN50z": "http://resource.cdn.bravefrontier2.jp/bf2/resource/",
        "P_PATH": "sound",
        "P_GROUP_NAME": "sound",
        "P_FILE_NAME": "BF2_076_qst_undercastle.acb",
        "P_EXT_IMG_PARAM": "BF2_076_qst_undercastle.acb",
        "aigSzwVh": "0",
        "jb0WsR6n": "a2ba295a0e589247ef18631c47802c22"
    },
    {
        "P_RESOURCE_ID": "408",
        "P_RESOURCE_TYPE": "100",
        "P_RESOURCE_GROUP": "sound",
        "jsRoN50z": "http://resource.cdn.bravefrontier2.jp/bf2/resource/",
        "P_PATH": "sound",
        "P_GROUP_NAME": "sound",
        "P_FILE_NAME": "BF2_077_scr_ending.acb",
        "P_EXT_IMG_PARAM": "BF2_077_scr_ending.acb",
        "aigSzwVh": "0",
        "jb0WsR6n": "eef14d9523f01417027eccc76b20ddad"
    },
    {
        "P_RESOURCE_ID": "409",
        "P_RESOURCE_TYPE": "100",
        "P_RESOURCE_GROUP": "sound",
        "jsRoN50z": "http://resource.cdn.bravefrontier2.jp/bf2/resource/",
        "P_PATH": "sound",
        "P_GROUP_NAME": "sound",
        "P_FILE_NAME": "BF2_078_btl_nomal08.acb",
        "P_EXT_IMG_PARAM": "BF2_078_btl_nomal08.acb",
        "aigSzwVh": "0",
        "jb0WsR6n": "5ff89641285d0fefdd2fde2821a1c865"
    },
    {
        "P_RESOURCE_ID": "410",
        "P_RESOURCE_TYPE": "100",
        "P_RESOURCE_GROUP": "dungeon",
        "jsRoN50z": "http://resource.cdn.bravefrontier2.jp/bf2/resource/",
        "P_PATH": "dungeon",
        "P_GROUP_NAME": "dungeon",
        "P_FILE_NAME": "dungeon_battle_bg_4.cpk",
        "P_EXT_IMG_PARAM": "dungeon_battle_bg_4.cpk",
        "aigSzwVh": "0",
        "jb0WsR6n": "993b3997449a262c018c43a3d440fab1"
    },
    {
        "P_RESOURCE_ID": "411",
        "P_RESOURCE_TYPE": "100",
        "P_RESOURCE_GROUP": "effectSS",
        "jsRoN50z": "http://resource.cdn.bravefrontier2.jp/bf2/resource/",
        "P_PATH": "effectSS",
        "P_GROUP_NAME": "effectSS",
        "P_FILE_NAME": "effectSS_bg_battle_4.cpk",
        "P_EXT_IMG_PARAM": "effectSS_bg_battle_4.cpk",
        "aigSzwVh": "0",
        "jb0WsR6n": "62dcdafaecbe94e09d3f99d6daf04b68"
    }
]