[
    {
        "P_RESOURCE_ID": "2",
        "P_RESOURCE_TYPE": "100",
        "P_RESOURCE_GROUP": "",
        "jsRoN50z": "http://resource.cdn.bravefrontier2.jp/bf2/resource/",
        "P_PATH": "area",
        "P_GROUP_NAME": "area",
        "P_FILE_NAME": "area.cpk",
        "P_EXT_IMG_PARAM": "\u30a8\u30ea\u30a2\u30ea\u30bd\u30fc\u30b9",
        "aigSzwVh": "0",
        "jb0WsR6n": "34fe5a6baf8c11b42a93cec0ff0cd80a",
        "P_CREATEDATE": "1899-12-30 01:00:00",
        "P_UPDATEDATE": "2018-06-25 01:36:46"
    },
    {
        "P_RESOURCE_ID": "4",
        "P_RESOURCE_TYPE": "1",
        "P_RESOURCE_GROUP": "",
        "jsRoN50z": "http://resource.cdn.bravefrontier2.jp/bf2/resource/",
        "P_PATH": "script",
        "P_GROUP_NAME": "event",
        "P_FILE_NAME": "script.cpk",
        "P_EXT_IMG_PARAM": "\u30b9\u30af\u30ea\u30d7\u30c8",
        "aigSzwVh": "0",
        "jb0WsR6n": "fce4c7c4698718140638ad8bbfa55496",
        "P_CREATEDATE": "1899-12-30 01:00:00",
        "P_UPDATEDATE": "2018-09-07 14:10:05"
    },
    {
        "P_RESOURCE_ID": "5",
        "P_RESOURCE_TYPE": "1",
        "P_RESOURCE_GROUP": "",
        "jsRoN50z": "http://resource.cdn.bravefrontier2.jp/bf2/resource/",
        "P_PATH": "item",
        "P_GROUP_NAME": "item",
        "P_FILE_NAME": "item.cpk",
        "P_EXT_IMG_PARAM": "\u30a2\u30a4\u30c6\u30e0",
        "aigSzwVh": "0",
        "jb0WsR6n": "e7aa89f1e0b788f4be1f1b72c02760a4",
        "P_CREATEDATE": "1899-12-30 01:00:00",
        "P_UPDATEDATE": "2018-09-07 13:04:13"
    },
    {
        "P_RESOURCE_ID": "7",
        "P_RESOURCE_TYPE": "100",
        "P_RESOURCE_GROUP": "",
        "jsRoN50z": "http://resource.cdn.bravefrontier2.jp/bf2/resource/",
        "P_PATH": "summon",
        "P_GROUP_NAME": "summon",
        "P_FILE_NAME": "summon.cpk",
        "P_EXT_IMG_PARAM": "\u30e6\u30cb\u30c3\u30c8\u53ec\u559a",
        "aigSzwVh": "0",
        "jb0WsR6n": "47e23f4446107b6ff9252df88c092546",
        "P_CREATEDATE": "1899-12-30 01:00:00",
        "P_UPDATEDATE": "2018-09-07 13:04:47"
    },
    {
        "P_RESOURCE_ID": "9",
        "P_RESOURCE_TYPE": "100",
        "P_RESOURCE_GROUP": "weapon",
        "jsRoN50z": "http://resource.cdn.bravefrontier2.jp/bf2/resource/",
        "P_PATH": "weapon",
        "P_GROUP_NAME": "weapon",
        "P_FILE_NAME": "weapon.cpk",
        "P_EXT_IMG_PARAM": "\u6b66\u5668",
        "aigSzwVh": "0",
        "jb0WsR6n": "04345ece9839c51fd98398d90dc7a1cb",
        "P_CREATEDATE": "2017-07-20 20:23:43",
        "P_UPDATEDATE": "2018-09-07 13:05:38"
    },
    {
        "P_RESOURCE_ID": "10",
        "P_RESOURCE_TYPE": "1",
        "P_RESOURCE_GROUP": "xbb",
        "jsRoN50z": "http://resource.cdn.bravefrontier2.jp/bf2/resource/",
        "P_PATH": "xbb",
        "P_GROUP_NAME": "xbb",
        "P_FILE_NAME": "xbb.cpk",
        "P_EXT_IMG_PARAM": "XBB",
        "aigSzwVh": "0",
        "jb0WsR6n": "9d38aca863c694624bfbd3517f6d2735",
        "P_CREATEDATE": "2017-07-25 14:39:13",
        "P_UPDATEDATE": "2018-09-07 13:05:50"
    },
    {
        "P_RESOURCE_ID": "11",
        "P_RESOURCE_TYPE": "1",
        "P_RESOURCE_GROUP": "effectSG",
        "jsRoN50z": "http://resource.cdn.bravefrontier2.jp/bf2/resource/",
        "P_PATH": "effectSG",
        "P_GROUP_NAME": "effectSG",
        "P_FILE_NAME": "effectSG.cpk",
        "P_EXT_IMG_PARAM": "\u30a8\u30d5\u30a7\u30af\u30c8\u30b9\u30d1\u30fc\u30af\u30ae\u30a2",
        "aigSzwVh": "0",
        "jb0WsR6n": "fef25a9df843949374e52e501032a712",
        "P_CREATEDATE": "2017-07-26 18:52:35",
        "P_UPDATEDATE": "2018-07-25 01:09:30"
    },
    {
        "P_RESOURCE_ID": "13",
        "P_RESOURCE_TYPE": "100",
        "P_RESOURCE_GROUP": "monster",
        "jsRoN50z": "http://resource.cdn.bravefrontier2.jp/bf2/resource/",
        "P_PATH": "monster",
        "P_GROUP_NAME": "monster",
        "P_FILE_NAME": "monster.cpk",
        "P_EXT_IMG_PARAM": "\u30e2\u30f3\u30b9\u30bf\u30fc\u30ea\u30bd\u30fc\u30b9",
        "aigSzwVh": "0",
        "jb0WsR6n": "456bb94923990317694cf5f8a2c5c16d",
        "P_CREATEDATE": "2017-08-10 16:25:14",
        "P_UPDATEDATE": "2018-08-25 01:09:30"
    },
    {
        "P_RESOURCE_ID": "14",
        "P_RESOURCE_TYPE": "100",
        "P_RESOURCE_GROUP": "library",
        "jsRoN50z": "http://resource.cdn.bravefrontier2.jp/bf2/resource/",
        "P_PATH": "library",
        "P_GROUP_NAME": "library",
        "P_FILE_NAME": "library.cpk",
        "P_EXT_IMG_PARAM": "\u56f3\u9451",
        "aigSzwVh": "0",
        "jb0WsR6n": "7be1569b44e824565158a69fae74656d",
        "P_CREATEDATE": "2017-08-25 20:08:10",
        "P_UPDATEDATE": "2018-09-07 13:04:27"
    },
    {
        "P_RESOURCE_ID": "15",
        "P_RESOURCE_TYPE": "1",
        "P_RESOURCE_GROUP": "banner",
        "jsRoN50z": "http://resource.cdn.bravefrontier2.jp/bf2/resource/",
        "P_PATH": "banner",
        "P_GROUP_NAME": "banner",
        "P_FILE_NAME": "banner.cpk",
        "P_EXT_IMG_PARAM": "\u30d0\u30ca\u30fc",
        "aigSzwVh": "0",
        "jb0WsR6n": "6b7a7a398d256a2be346171daadcf54b",
        "P_CREATEDATE": "2017-09-20 19:06:01",
        "P_UPDATEDATE": "2018-09-18 00:07:19"
    },
    {
        "P_RESOURCE_ID": "211",
        "P_RESOURCE_TYPE": "100",
        "P_RESOURCE_GROUP": "book",
        "jsRoN50z": "http://resource.cdn.bravefrontier2.jp/bf2/resource/",
        "P_PATH": "book",
        "P_GROUP_NAME": "book",
        "P_FILE_NAME": "book.cpk",
        "P_EXT_IMG_PARAM": "\u30d6\u30c3\u30af",
        "aigSzwVh": "0",
        "jb0WsR6n": "bc76cef7c288b88d902038d3d32953b6",
        "P_CREATEDATE": "2017-09-25 15:02:21",
        "P_UPDATEDATE": "2018-06-25 01:36:46"
    },
    {
        "P_RESOURCE_ID": "213",
        "P_RESOURCE_TYPE": "1",
        "P_RESOURCE_GROUP": "partner",
        "jsRoN50z": "http://resource.cdn.bravefrontier2.jp/bf2/resource/",
        "P_PATH": "partner",
        "P_GROUP_NAME": "partner",
        "P_FILE_NAME": "partner.cpk",
        "P_EXT_IMG_PARAM": "\u30d1\u30fc\u30c8\u30ca\u30fc",
        "aigSzwVh": "0",
        "jb0WsR6n": "03bae73a442210639c321ef551b50332",
        "P_CREATEDATE": "2017-09-28 19:13:20",
        "P_UPDATEDATE": "2018-06-25 01:36:46"
    },
    {
        "P_RESOURCE_ID": "217",
        "P_RESOURCE_TYPE": "1",
        "P_RESOURCE_GROUP": "sound",
        "jsRoN50z": "http://resource.cdn.bravefrontier2.jp/bf2/resource/",
        "P_PATH": "sound",
        "P_GROUP_NAME": "sound",
        "P_FILE_NAME": "SE.acb",
        "P_EXT_IMG_PARAM": "SE",
        "aigSzwVh": "0",
        "jb0WsR6n": "9b76ace5751618a56688aca7e4571fbc",
        "P_CREATEDATE": "2017-11-17 22:02:31",
        "P_UPDATEDATE": "2018-09-07 13:01:56"
    },
    {
        "P_RESOURCE_ID": "218",
        "P_RESOURCE_TYPE": "1",
        "P_RESOURCE_GROUP": "sound",
        "jsRoN50z": "http://resource.cdn.bravefrontier2.jp/bf2/resource/",
        "P_PATH": "sound",
        "P_GROUP_NAME": "sound",
        "P_FILE_NAME": "JINGLE.acb",
        "P_EXT_IMG_PARAM": "\u30b8\u30f3\u30b0\u30eb",
        "aigSzwVh": "0",
        "jb0WsR6n": "982e2dedb98aae7d046d03561c818c1f",
        "P_CREATEDATE": "2017-11-17 22:12:42",
        "P_UPDATEDATE": "2018-06-25 01:36:46"
    },
    {
        "P_RESOURCE_ID": "219",
        "P_RESOURCE_TYPE": "100",
        "P_RESOURCE_GROUP": "sound",
        "jsRoN50z": "http://resource.cdn.bravefrontier2.jp/bf2/resource/",
        "P_PATH": "sound",
        "P_GROUP_NAME": "sound",
        "P_FILE_NAME": "BF2_001_ttl_top.acb",
        "P_EXT_IMG_PARAM": "\u30bf\u30a4\u30c8\u30eb",
        "aigSzwVh": "0",
        "jb0WsR6n": "df8c8c2427a726d9ce09b0e3effff6d4",
        "P_CREATEDATE": "2017-12-23 17:19:16",
        "P_UPDATEDATE": "2018-06-25 01:36:46"
    },
    {
        "P_RESOURCE_ID": "220",
        "P_RESOURCE_TYPE": "1",
        "P_RESOURCE_GROUP": "sound",
        "jsRoN50z": "http://resource.cdn.bravefrontier2.jp/bf2/resource/",
        "P_PATH": "sound",
        "P_GROUP_NAME": "sound",
        "P_FILE_NAME": "BF2_002_hom_hero.acb",
        "P_EXT_IMG_PARAM": "\u30db\u30fc\u30e0\u753b\u9762\uff08\u4e3b\u4eba\u516c\uff09",
        "aigSzwVh": "0",
        "jb0WsR6n": "8d0c9852bedea2acb1faf10b733921db",
        "P_CREATEDATE": "2017-12-23 17:20:30",
        "P_UPDATEDATE": "2018-06-25 01:36:46"
    },
    {
        "P_RESOURCE_ID": "221",
        "P_RESOURCE_TYPE": "100",
        "P_RESOURCE_GROUP": "sound",
        "jsRoN50z": "http://resource.cdn.bravefrontier2.jp/bf2/resource/",
        "P_PATH": "sound",
        "P_GROUP_NAME": "sound",
        "P_FILE_NAME": "BF2_003_hom_heroine.acb",
        "P_EXT_IMG_PARAM": "\u30db\u30fc\u30e0\u753b\u9762\uff08\u30ea\u30f3\uff09",
        "aigSzwVh": "0",
        "jb0WsR6n": "5966e31cda218a7cf327d5c71219a9b5",
        "P_CREATEDATE": "2017-12-23 17:20:56",
        "P_UPDATEDATE": "2018-06-25 01:36:46"
    },
    {
        "P_RESOURCE_ID": "222",
        "P_RESOURCE_TYPE": "100",
        "P_RESOURCE_GROUP": "sound",
        "jsRoN50z": "http://resource.cdn.bravefrontier2.jp/bf2/resource/",
        "P_PATH": "sound",
        "P_GROUP_NAME": "sound",
        "P_FILE_NAME": "BF2_004_hom_join.acb",
        "P_EXT_IMG_PARAM": "\u30db\u30fc\u30e0\u753b\u9762\uff08\u5408\u6d41\u5f8c\uff09",
        "aigSzwVh": "0",
        "jb0WsR6n": "1ed097f6d7cbaa0112e6a0c7f3f94646",
        "P_CREATEDATE": "2017-12-23 17:21:15",
        "P_UPDATEDATE": "2018-06-25 01:36:46"
    },
    {
        "P_RESOURCE_ID": "223",
        "P_RESOURCE_TYPE": "100",
        "P_RESOURCE_GROUP": "sound",
        "jsRoN50z": "http://resource.cdn.bravefrontier2.jp/bf2/resource/",
        "P_PATH": "sound",
        "P_GROUP_NAME": "sound",
        "P_FILE_NAME": "BF2_005_arn_top.acb",
        "P_EXT_IMG_PARAM": "\u30a2\u30ea\u30fc\u30ca\u30c8\u30c3\u30d7",
        "aigSzwVh": "0",
        "jb0WsR6n": "ac3df5f0926ec75d400a73ec7ca606c7",
        "P_CREATEDATE": "2017-12-23 17:21:36",
        "P_UPDATEDATE": "2018-06-25 01:36:46"
    },
    {
        "P_RESOURCE_ID": "224",
        "P_RESOURCE_TYPE": "100",
        "P_RESOURCE_GROUP": "sound",
        "jsRoN50z": "http://resource.cdn.bravefrontier2.jp/bf2/resource/",
        "P_PATH": "sound",
        "P_GROUP_NAME": "sound",
        "P_FILE_NAME": "BF2_006_arn_battle.acb",
        "P_EXT_IMG_PARAM": "\u30a2\u30ea\u30fc\u30ca\u30d0\u30c8\u30eb",
        "aigSzwVh": "0",
        "jb0WsR6n": "d3c94350de4a86b65a8e8d69a42981a0",
        "P_CREATEDATE": "2017-12-23 17:21:57",
        "P_UPDATEDATE": "2018-06-25 01:36:46"
    },
    {
        "P_RESOURCE_ID": "225",
        "P_RESOURCE_TYPE": "100",
        "P_RESOURCE_GROUP": "sound",
        "jsRoN50z": "http://resource.cdn.bravefrontier2.jp/bf2/resource/",
        "P_PATH": "sound",
        "P_GROUP_NAME": "sound",
        "P_FILE_NAME": "BF2_007_rdl_randall.acb",
        "P_EXT_IMG_PARAM": "\u30e9\u30f3\u30c9\u30fc\u30eb",
        "aigSzwVh": "0",
        "jb0WsR6n": "595ca3729602c2d95478d453111980f2",
        "P_CREATEDATE": "2017-12-23 17:22:18",
        "P_UPDATEDATE": "2018-06-25 01:36:46"
    },
    {
        "P_RESOURCE_ID": "226",
        "P_RESOURCE_TYPE": "100",
        "P_RESOURCE_GROUP": "sound",
        "jsRoN50z": "http://resource.cdn.bravefrontier2.jp/bf2/resource/",
        "P_PATH": "sound",
        "P_GROUP_NAME": "sound",
        "P_FILE_NAME": "BF2_008_btl_result.acb",
        "P_EXT_IMG_PARAM": "\u30d0\u30c8\u30eb\u30ea\u30b6\u30eb\u30c8",
        "aigSzwVh": "0",
        "jb0WsR6n": "e9a4459057c2a69ce1f5e97c64db81ae",
        "P_CREATEDATE": "2017-12-23 17:22:52",
        "P_UPDATEDATE": "2018-06-25 01:36:46"
    },
    {
        "P_RESOURCE_ID": "227",
        "P_RESOURCE_TYPE": "100",
        "P_RESOURCE_GROUP": "sound",
        "jsRoN50z": "http://resource.cdn.bravefrontier2.jp/bf2/resource/",
        "P_PATH": "sound",
        "P_GROUP_NAME": "sound",
        "P_FILE_NAME": "BF2_009_qst_top.acb",
        "P_EXT_IMG_PARAM": "\u30af\u30a8\u30b9\u30c8\u30c8\u30c3\u30d7",
        "aigSzwVh": "0",
        "jb0WsR6n": "552f1c4ef41767a01eeebde9d35840a3",
        "P_CREATEDATE": "2017-12-23 17:23:11",
        "P_UPDATEDATE": "2018-06-25 01:36:46"
    },
    {
        "P_RESOURCE_ID": "228",
        "P_RESOURCE_TYPE": "100",
        "P_RESOURCE_GROUP": "sound",
        "jsRoN50z": "http://resource.cdn.bravefrontier2.jp/bf2/resource/",
        "P_PATH": "sound",
        "P_GROUP_NAME": "sound",
        "P_FILE_NAME": "BF2_010_qst_grangaia.acb",
        "P_EXT_IMG_PARAM": "\u30af\u30a8\u30b9\u30c8\uff08\u30b0\u30e9\u30f3\u30ac\u30a4\u30a2\uff09",
        "aigSzwVh": "0",
        "jb0WsR6n": "1926027dadb5680dd1b108e5521f12e8",
        "P_CREATEDATE": "2017-12-23 17:23:30",
        "P_UPDATEDATE": "2018-06-25 01:36:46"
    },
    {
        "P_RESOURCE_ID": "229",
        "P_RESOURCE_TYPE": "100",
        "P_RESOURCE_GROUP": "sound",
        "jsRoN50z": "http://resource.cdn.bravefrontier2.jp/bf2/resource/",
        "P_PATH": "sound",
        "P_GROUP_NAME": "sound",
        "P_FILE_NAME": "BF2_011_qst_bada-fana.acb",
        "P_EXT_IMG_PARAM": "\u30af\u30a8\u30b9\u30c8\uff08\u30d0\u30c0\u30fb\u30d5\u30a1\u30ca\uff09",
        "aigSzwVh": "0",
        "jb0WsR6n": "d607b62360b83e1af391e4178efd8c3f",
        "P_CREATEDATE": "2017-12-23 17:23:51",
        "P_UPDATEDATE": "2018-06-25 01:36:46"
    },
    {
        "P_RESOURCE_ID": "230",
        "P_RESOURCE_TYPE": "100",
        "P_RESOURCE_GROUP": "sound",
        "jsRoN50z": "http://resource.cdn.bravefrontier2.jp/bf2/resource/",
        "P_PATH": "sound",
        "P_GROUP_NAME": "sound",
        "P_FILE_NAME": "BF2_012_qst_extus.acb",
        "P_EXT_IMG_PARAM": "\u30af\u30a8\u30b9\u30c8\uff08\u30a4\u30af\u30b9\u30bf\u30b9\uff09",
        "aigSzwVh": "0",
        "jb0WsR6n": "83b0fdac7b964b2a722e7d53e8aabe1a",
        "P_CREATEDATE": "2017-12-23 17:24:20",
        "P_UPDATEDATE": "2018-06-25 01:36:46"
    },
    {
        "P_RESOURCE_ID": "231",
        "P_RESOURCE_TYPE": "100",
        "P_RESOURCE_GROUP": "sound",
        "jsRoN50z": "http://resource.cdn.bravefrontier2.jp/bf2/resource/",
        "P_PATH": "sound",
        "P_GROUP_NAME": "sound",
        "P_FILE_NAME": "BF2_013_qst_seltabia.acb",
        "P_EXT_IMG_PARAM": "\u30af\u30a8\u30b9\u30c8\uff08\u30bb\u30eb\u30bf\u30d3\u30a2\uff09",
        "aigSzwVh": "0",
        "jb0WsR6n": "f29768f28baa40d1872756542a5f7137",
        "P_CREATEDATE": "2017-12-23 17:24:40",
        "P_UPDATEDATE": "2018-06-25 01:36:46"
    },
    {
        "P_RESOURCE_ID": "232",
        "P_RESOURCE_TYPE": "100",
        "P_RESOURCE_GROUP": "sound",
        "jsRoN50z": "http://resource.cdn.bravefrontier2.jp/bf2/resource/",
        "P_PATH": "sound",
        "P_GROUP_NAME": "sound",
        "P_FILE_NAME": "BF2_014_hzm_top.acb",
        "P_EXT_IMG_PARAM": "\u30b2\u30fc\u30c8\u306e\u72ed\u9593",
        "aigSzwVh": "0",
        "jb0WsR6n": "5951996f1ec01c8bd09e171240b7fba5",
        "P_CREATEDATE": "2017-12-23 17:25:03",
        "P_UPDATEDATE": "2018-06-25 01:36:46"
    },
    {
        "P_RESOURCE_ID": "233",
        "P_RESOURCE_TYPE": "1",
        "P_RESOURCE_GROUP": "sound",
        "jsRoN50z": "http://resource.cdn.bravefrontier2.jp/bf2/resource/",
        "P_PATH": "sound",
        "P_GROUP_NAME": "sound",
        "P_FILE_NAME": "BF2_020_thm_rumford.acb",
        "P_EXT_IMG_PARAM": "\u30e9\u30f3\u30d5\u30a9\u30fc\u30c9\u306e\u30c6\u30fc\u30de",
        "aigSzwVh": "0",
        "jb0WsR6n": "bc8db898652a27b9370e2a332325b1c5",
        "P_CREATEDATE": "2017-12-23 17:25:32",
        "P_UPDATEDATE": "2018-06-25 01:36:46"
    },
    {
        "P_RESOURCE_ID": "234",
        "P_RESOURCE_TYPE": "100",
        "P_RESOURCE_GROUP": "sound",
        "jsRoN50z": "http://resource.cdn.bravefrontier2.jp/bf2/resource/",
        "P_PATH": "sound",
        "P_GROUP_NAME": "sound",
        "P_FILE_NAME": "BF2_021_thm_elhaza.acb",
        "P_EXT_IMG_PARAM": "\u30a8\u30eb\u30cf\u30b6\u306e\u30c6\u30fc\u30de",
        "aigSzwVh": "0",
        "jb0WsR6n": "913dd825552703a72b9c9205b03cdb85",
        "P_CREATEDATE": "2017-12-23 17:25:51",
        "P_UPDATEDATE": "2018-06-25 01:36:46"
    },
    {
        "P_RESOURCE_ID": "235",
        "P_RESOURCE_TYPE": "100",
        "P_RESOURCE_GROUP": "sound",
        "jsRoN50z": "http://resource.cdn.bravefrontier2.jp/bf2/resource/",
        "P_PATH": "sound",
        "P_GROUP_NAME": "sound",
        "P_FILE_NAME": "BF2_022_thm_shia.acb",
        "P_EXT_IMG_PARAM": "\u30b7\u30e3\u30a4\u30a2\u306e\u30c6\u30fc\u30de",
        "aigSzwVh": "0",
        "jb0WsR6n": "fc84c7227097ee16ae823d6e5884e822",
        "P_CREATEDATE": "2017-12-23 17:26:11",
        "P_UPDATEDATE": "2018-06-25 01:36:46"
    },
    {
        "P_RESOURCE_ID": "236",
        "P_RESOURCE_TYPE": "100",
        "P_RESOURCE_GROUP": "sound",
        "jsRoN50z": "http://resource.cdn.bravefrontier2.jp/bf2/resource/",
        "P_PATH": "sound",
        "P_GROUP_NAME": "sound",
        "P_FILE_NAME": "BF2_023_thm_melfel.acb",
        "P_EXT_IMG_PARAM": "\u30e1\u30eb\u30d5\u30a7\u30eb\u306e\u30c6\u30fc\u30de",
        "aigSzwVh": "0",
        "jb0WsR6n": "2bf330c2d8769b90651112c10d3cae40",
        "P_CREATEDATE": "2017-12-23 17:26:31",
        "P_UPDATEDATE": "2018-06-25 01:36:46"
    },
    {
        "P_RESOURCE_ID": "237",
        "P_RESOURCE_TYPE": "100",
        "P_RESOURCE_GROUP": "sound",
        "jsRoN50z": "http://resource.cdn.bravefrontier2.jp/bf2/resource/",
        "P_PATH": "sound",
        "P_GROUP_NAME": "sound",
        "P_FILE_NAME": "BF2_024_thm_barragan.acb",
        "P_EXT_IMG_PARAM": "\u30d0\u30e9\u30ac\u30f3\u306e\u30c6\u30fc\u30de",
        "aigSzwVh": "0",
        "jb0WsR6n": "d00c0454f1dffd97e56218f4b06ed1af",
        "P_CREATEDATE": "2017-12-23 17:26:53",
        "P_UPDATEDATE": "2018-06-25 01:36:46"
    },
    {
        "P_RESOURCE_ID": "238",
        "P_RESOURCE_TYPE": "100",
        "P_RESOURCE_GROUP": "sound",
        "jsRoN50z": "http://resource.cdn.bravefrontier2.jp/bf2/resource/",
        "P_PATH": "sound",
        "P_GROUP_NAME": "sound",
        "P_FILE_NAME": "BF2_025_thm_hilda.acb",
        "P_EXT_IMG_PARAM": "\u30d2\u30eb\u30c0\u306e\u30c6\u30fc\u30de",
        "aigSzwVh": "0",
        "jb0WsR6n": "85bace72ddc39d3d66ae0fe17568e489",
        "P_CREATEDATE": "2017-12-23 17:27:13",
        "P_UPDATEDATE": "2018-06-25 01:36:46"
    },
    {
        "P_RESOURCE_ID": "239",
        "P_RESOURCE_TYPE": "100",
        "P_RESOURCE_GROUP": "sound",
        "jsRoN50z": "http://resource.cdn.bravefrontier2.jp/bf2/resource/",
        "P_PATH": "sound",
        "P_GROUP_NAME": "sound",
        "P_FILE_NAME": "BF2_026_thm_rene.acb",
        "P_EXT_IMG_PARAM": "\u30eb\u30cd\u306e\u30c6\u30fc\u30de",
        "aigSzwVh": "0",
        "jb0WsR6n": "8fa0247eab296d7ab6c43d2b739fb702",
        "P_CREATEDATE": "2017-12-23 17:27:34",
        "P_UPDATEDATE": "2018-06-25 01:36:46"
    },
    {
        "P_RESOURCE_ID": "240",
        "P_RESOURCE_TYPE": "100",
        "P_RESOURCE_GROUP": "sound",
        "jsRoN50z": "http://resource.cdn.bravefrontier2.jp/bf2/resource/",
        "P_PATH": "sound",
        "P_GROUP_NAME": "sound",
        "P_FILE_NAME": "BF2_027_thm_zad.acb",
        "P_EXT_IMG_PARAM": "\u30b6\u30c9\u306e\u30c6\u30fc\u30de",
        "aigSzwVh": "0",
        "jb0WsR6n": "127902ba9e7820a4863242eaa32b3dc3",
        "P_CREATEDATE": "2017-12-23 17:27:56",
        "P_UPDATEDATE": "2018-06-25 01:36:46"
    },
    {
        "P_RESOURCE_ID": "241",
        "P_RESOURCE_TYPE": "100",
        "P_RESOURCE_GROUP": "sound",
        "jsRoN50z": "http://resource.cdn.bravefrontier2.jp/bf2/resource/",
        "P_PATH": "sound",
        "P_GROUP_NAME": "sound",
        "P_FILE_NAME": "BF2_028_scr_sad.acb",
        "P_EXT_IMG_PARAM": "\u30b7\u30fc\u30f3\u60b2\u58ee",
        "aigSzwVh": "0",
        "jb0WsR6n": "5a6b7769d19f1b9e6bd382c9c4f8d0e3",
        "P_CREATEDATE": "2017-12-23 17:28:24",
        "P_UPDATEDATE": "2018-06-25 01:36:46"
    },
    {
        "P_RESOURCE_ID": "242",
        "P_RESOURCE_TYPE": "100",
        "P_RESOURCE_GROUP": "sound",
        "jsRoN50z": "http://resource.cdn.bravefrontier2.jp/bf2/resource/",
        "P_PATH": "sound",
        "P_GROUP_NAME": "sound",
        "P_FILE_NAME": "BF2_029_scr_brave.acb",
        "P_EXT_IMG_PARAM": "\u30b7\u30fc\u30f3\u52c7\u58ee",
        "aigSzwVh": "0",
        "jb0WsR6n": "912bc37bf2dac86609d4bbf1fe8c7ba0",
        "P_CREATEDATE": "2017-12-23 17:28:46",
        "P_UPDATEDATE": "2018-06-25 01:36:46"
    },
    {
        "P_RESOURCE_ID": "243",
        "P_RESOURCE_TYPE": "100",
        "P_RESOURCE_GROUP": "sound",
        "jsRoN50z": "http://resource.cdn.bravefrontier2.jp/bf2/resource/",
        "P_PATH": "sound",
        "P_GROUP_NAME": "sound",
        "P_FILE_NAME": "BF2_030_scr_calm.acb",
        "P_EXT_IMG_PARAM": "\u30b7\u30fc\u30f3\u7a4f\u3084\u304b",
        "aigSzwVh": "0",
        "jb0WsR6n": "c7fb4ab46efc7d76d9d76a1e367ab93d",
        "P_CREATEDATE": "2017-12-23 17:29:05",
        "P_UPDATEDATE": "2018-06-25 01:36:46"
    },
    {
        "P_RESOURCE_ID": "244",
        "P_RESOURCE_TYPE": "100",
        "P_RESOURCE_GROUP": "sound",
        "jsRoN50z": "http://resource.cdn.bravefrontier2.jp/bf2/resource/",
        "P_PATH": "sound",
        "P_GROUP_NAME": "sound",
        "P_FILE_NAME": "BF2_031_scr_pinch.acb",
        "P_EXT_IMG_PARAM": "\u30b7\u30fc\u30f3\u30d4\u30f3\u30c1",
        "aigSzwVh": "0",
        "jb0WsR6n": "6d1c876702330c77b18f70c7a3dc5c9c",
        "P_CREATEDATE": "2017-12-23 17:29:25",
        "P_UPDATEDATE": "2018-06-25 01:36:46"
    },
    {
        "P_RESOURCE_ID": "245",
        "P_RESOURCE_TYPE": "1",
        "P_RESOURCE_GROUP": "sound",
        "jsRoN50z": "http://resource.cdn.bravefrontier2.jp/bf2/resource/",
        "P_PATH": "sound",
        "P_GROUP_NAME": "sound",
        "P_FILE_NAME": "BF2_032_scr_tension.acb",
        "P_EXT_IMG_PARAM": "\u30b7\u30fc\u30f3\u7dca\u5f35",
        "aigSzwVh": "0",
        "jb0WsR6n": "989910473133b6c2a23599c054bcf821",
        "P_CREATEDATE": "2017-12-23 17:29:55",
        "P_UPDATEDATE": "2018-06-25 01:36:46"
    },
    {
        "P_RESOURCE_ID": "246",
        "P_RESOURCE_TYPE": "100",
        "P_RESOURCE_GROUP": "sound",
        "jsRoN50z": "http://resource.cdn.bravefrontier2.jp/bf2/resource/",
        "P_PATH": "sound",
        "P_GROUP_NAME": "sound",
        "P_FILE_NAME": "BF2_033_scr_mystery.acb",
        "P_EXT_IMG_PARAM": "\u30b7\u30fc\u30f3\u8b0e",
        "aigSzwVh": "0",
        "jb0WsR6n": "74f8b6c832a9e7bd4678cf4c765b02c5",
        "P_CREATEDATE": "2017-12-23 17:30:26",
        "P_UPDATEDATE": "2018-06-25 01:36:46"
    },
    {
        "P_RESOURCE_ID": "247",
        "P_RESOURCE_TYPE": "100",
        "P_RESOURCE_GROUP": "sound",
        "jsRoN50z": "http://resource.cdn.bravefrontier2.jp/bf2/resource/",
        "P_PATH": "sound",
        "P_GROUP_NAME": "sound",
        "P_FILE_NAME": "BF2_034_scr_anxiety.acb",
        "P_EXT_IMG_PARAM": "\u30b7\u30fc\u30f3\u4e0d\u5b89",
        "aigSzwVh": "0",
        "jb0WsR6n": "608d597554bd41629f2ed5f692fbb94f",
        "P_CREATEDATE": "2017-12-23 17:30:49",
        "P_UPDATEDATE": "2018-06-25 01:36:46"
    },
    {
        "P_RESOURCE_ID": "248",
        "P_RESOURCE_TYPE": "100",
        "P_RESOURCE_GROUP": "sound",
        "jsRoN50z": "http://resource.cdn.bravefrontier2.jp/bf2/resource/",
        "P_PATH": "sound",
        "P_GROUP_NAME": "sound",
        "P_FILE_NAME": "BF2_035_scr_peace.acb",
        "P_EXT_IMG_PARAM": "\u30b7\u30fc\u30f3\u5b89\u5835",
        "aigSzwVh": "0",
        "jb0WsR6n": "ff0c5f1f1097ee543019da56c4a2c0aa",
        "P_CREATEDATE": "2017-12-23 17:31:12",
        "P_UPDATEDATE": "2018-06-25 01:36:46"
    },
    {
        "P_RESOURCE_ID": "249",
        "P_RESOURCE_TYPE": "100",
        "P_RESOURCE_GROUP": "sound",
        "jsRoN50z": "http://resource.cdn.bravefrontier2.jp/bf2/resource/",
        "P_PATH": "sound",
        "P_GROUP_NAME": "sound",
        "P_FILE_NAME": "BF2_036_btl_7boss1.acb",
        "P_EXT_IMG_PARAM": "\u4e03\u9b54\u5c06\u30d0\u30c8\u30eb1",
        "aigSzwVh": "0",
        "jb0WsR6n": "16a514f44d237d40a4c1461af18598cf",
        "P_CREATEDATE": "2017-12-23 17:31:41",
        "P_UPDATEDATE": "2018-06-25 01:36:46"
    },
    {
        "P_RESOURCE_ID": "250",
        "P_RESOURCE_TYPE": "100",
        "P_RESOURCE_GROUP": "sound",
        "jsRoN50z": "http://resource.cdn.bravefrontier2.jp/bf2/resource/",
        "P_PATH": "sound",
        "P_GROUP_NAME": "sound",
        "P_FILE_NAME": "BF2_037_btl_7boss2.acb",
        "P_EXT_IMG_PARAM": "\u4e03\u9b54\u5c06\u30d0\u30c8\u30eb2",
        "aigSzwVh": "0",
        "jb0WsR6n": "c55cdab0c9324a06a75f08eff459c153",
        "P_CREATEDATE": "2017-12-23 17:32:01",
        "P_UPDATEDATE": "2018-06-25 01:36:46"
    },
    {
        "P_RESOURCE_ID": "251",
        "P_RESOURCE_TYPE": "100",
        "P_RESOURCE_GROUP": "sound",
        "jsRoN50z": "http://resource.cdn.bravefrontier2.jp/bf2/resource/",
        "P_PATH": "sound",
        "P_GROUP_NAME": "sound",
        "P_FILE_NAME": "BF2_038_btl_mimic.acb",
        "P_EXT_IMG_PARAM": "\u30df\u30df\u30c3\u30af",
        "aigSzwVh": "0",
        "jb0WsR6n": "1496613e0e044f80baf5d364cf8f2be2",
        "P_CREATEDATE": "2017-12-23 17:32:20",
        "P_UPDATEDATE": "2018-06-25 01:36:46"
    },
    {
        "P_RESOURCE_ID": "252",
        "P_RESOURCE_TYPE": "100",
        "P_RESOURCE_GROUP": "sound",
        "jsRoN50z": "http://resource.cdn.bravefrontier2.jp/bf2/resource/",
        "P_PATH": "sound",
        "P_GROUP_NAME": "sound",
        "P_FILE_NAME": "BF2_039_btl_boss01.acb",
        "P_EXT_IMG_PARAM": "\u30dc\u30b9\u30d0\u30c8\u30eb1",
        "aigSzwVh": "0",
        "jb0WsR6n": "dc18a34dbd5c304579d38bb66920ae01",
        "P_CREATEDATE": "2017-12-23 17:32:41",
        "P_UPDATEDATE": "2018-06-25 01:36:46"
    },
    {
        "P_RESOURCE_ID": "253",
        "P_RESOURCE_TYPE": "1",
        "P_RESOURCE_GROUP": "sound",
        "jsRoN50z": "http://resource.cdn.bravefrontier2.jp/bf2/resource/",
        "P_PATH": "sound",
        "P_GROUP_NAME": "sound",
        "P_FILE_NAME": "BF2_040_btl_nomal01.acb",
        "P_EXT_IMG_PARAM": "\u901a\u5e38\u30d0\u30c8\u30eb1",
        "aigSzwVh": "0",
        "jb0WsR6n": "e5f2dd5b346762b12a3653bc6668b0f9",
        "P_CREATEDATE": "2017-12-23 17:33:01",
        "P_UPDATEDATE": "2018-06-25 01:36:46"
    },
    {
        "P_RESOURCE_ID": "254",
        "P_RESOURCE_TYPE": "100",
        "P_RESOURCE_GROUP": "sound",
        "jsRoN50z": "http://resource.cdn.bravefrontier2.jp/bf2/resource/",
        "P_PATH": "sound",
        "P_GROUP_NAME": "sound",
        "P_FILE_NAME": "BF2_041_btl_nomal02.acb",
        "P_EXT_IMG_PARAM": "\u901a\u5e38\u30d0\u30c8\u30eb2",
        "aigSzwVh": "0",
        "jb0WsR6n": "a13ffaa3b763fe4d5e80ff48f95fbcd0",
        "P_CREATEDATE": "2017-12-23 17:33:18",
        "P_UPDATEDATE": "2018-06-25 01:36:46"
    },
    {
        "P_RESOURCE_ID": "255",
        "P_RESOURCE_TYPE": "1",
        "P_RESOURCE_GROUP": "sound",
        "jsRoN50z": "http://resource.cdn.bravefrontier2.jp/bf2/resource/",
        "P_PATH": "sound",
        "P_GROUP_NAME": "sound",
        "P_FILE_NAME": "BF2_042_btl_nomal03.acb",
        "P_EXT_IMG_PARAM": "\u901a\u5e38\u30d0\u30c8\u30eb3",
        "aigSzwVh": "0",
        "jb0WsR6n": "ccd1a0e76c4bad66001f6f9df0e0b9c3",
        "P_CREATEDATE": "2017-12-23 17:33:37",
        "P_UPDATEDATE": "2018-06-25 01:36:46"
    },
    {
        "P_RESOURCE_ID": "256",
        "P_RESOURCE_TYPE": "100",
        "P_RESOURCE_GROUP": "sound",
        "jsRoN50z": "http://resource.cdn.bravefrontier2.jp/bf2/resource/",
        "P_PATH": "sound",
        "P_GROUP_NAME": "sound",
        "P_FILE_NAME": "BF2_043_btl_nomal04.acb",
        "P_EXT_IMG_PARAM": "\u901a\u5e38\u30d0\u30c8\u30eb4",
        "aigSzwVh": "0",
        "jb0WsR6n": "a5a254636eb0825f8a91926196e7c21e",
        "P_CREATEDATE": "2017-12-23 17:33:54",
        "P_UPDATEDATE": "2018-06-25 01:36:46"
    },
    {
        "P_RESOURCE_ID": "257",
        "P_RESOURCE_TYPE": "100",
        "P_RESOURCE_GROUP": "sound",
        "jsRoN50z": "http://resource.cdn.bravefrontier2.jp/bf2/resource/",
        "P_PATH": "sound",
        "P_GROUP_NAME": "sound",
        "P_FILE_NAME": "BF2_044_btl_nomal05.acb",
        "P_EXT_IMG_PARAM": "\u901a\u5e38\u30d0\u30c8\u30eb5",
        "aigSzwVh": "0",
        "jb0WsR6n": "1b888ca538f67b1ccd705dccd8c56b2c",
        "P_CREATEDATE": "2017-12-23 17:34:14",
        "P_UPDATEDATE": "2018-06-25 01:36:46"
    },
    {
        "P_RESOURCE_ID": "258",
        "P_RESOURCE_TYPE": "100",
        "P_RESOURCE_GROUP": "sound",
        "jsRoN50z": "http://resource.cdn.bravefrontier2.jp/bf2/resource/",
        "P_PATH": "sound",
        "P_GROUP_NAME": "sound",
        "P_FILE_NAME": "BF2_045_btl_nomal06.acb",
        "P_EXT_IMG_PARAM": "\u901a\u5e38\u30d0\u30c8\u30eb6",
        "aigSzwVh": "0",
        "jb0WsR6n": "8c366a4dce8555e6db2bbf78c75ed4b5",
        "P_CREATEDATE": "2017-12-23 17:34:31",
        "P_UPDATEDATE": "2018-06-25 01:36:46"
    },
    {
        "P_RESOURCE_ID": "259",
        "P_RESOURCE_TYPE": "100",
        "P_RESOURCE_GROUP": "sound",
        "jsRoN50z": "http://resource.cdn.bravefrontier2.jp/bf2/resource/",
        "P_PATH": "sound",
        "P_GROUP_NAME": "sound",
        "P_FILE_NAME": "BF2_046_thm_lastboss.acb",
        "P_EXT_IMG_PARAM": "\u30e9\u30b9\u30c8\u30dc\u30b9\u30c6\u30fc\u30de",
        "aigSzwVh": "0",
        "jb0WsR6n": "12231031e1cafe89cb0cc72919b073a1",
        "P_CREATEDATE": "2017-12-23 17:34:52",
        "P_UPDATEDATE": "2018-06-25 01:36:46"
    },
    {
        "P_RESOURCE_ID": "260",
        "P_RESOURCE_TYPE": "100",
        "P_RESOURCE_GROUP": "sound",
        "jsRoN50z": "http://resource.cdn.bravefrontier2.jp/bf2/resource/",
        "P_PATH": "sound",
        "P_GROUP_NAME": "sound",
        "P_FILE_NAME": "BF2_047_btl_lastboss01.acb",
        "P_EXT_IMG_PARAM": "\u30e9\u30b9\u30c8\u30d0\u30c8\u30eb1",
        "aigSzwVh": "0",
        "jb0WsR6n": "b2e609fbf9d18397d0260a6e7254feac",
        "P_CREATEDATE": "2017-12-23 17:35:10",
        "P_UPDATEDATE": "2018-06-25 01:36:46"
    },
    {
        "P_RESOURCE_ID": "261",
        "P_RESOURCE_TYPE": "100",
        "P_RESOURCE_GROUP": "sound",
        "jsRoN50z": "http://resource.cdn.bravefrontier2.jp/bf2/resource/",
        "P_PATH": "sound",
        "P_GROUP_NAME": "sound",
        "P_FILE_NAME": "BF2_048_btl_lastboss02.acb",
        "P_EXT_IMG_PARAM": "\u30e9\u30b9\u30c8\u30d0\u30c8\u30eb2",
        "aigSzwVh": "0",
        "jb0WsR6n": "a3ebf74d5704a5bd17b16ebafc98ec1b",
        "P_CREATEDATE": "2017-12-23 17:35:30",
        "P_UPDATEDATE": "2018-06-25 01:36:46"
    },
    {
        "P_RESOURCE_ID": "262",
        "P_RESOURCE_TYPE": "100",
        "P_RESOURCE_GROUP": "sound",
        "jsRoN50z": "http://resource.cdn.bravefrontier2.jp/bf2/resource/",
        "P_PATH": "sound",
        "P_GROUP_NAME": "sound",
        "P_FILE_NAME": "BF2_049_btl_ordeal.acb",
        "P_EXT_IMG_PARAM": "\u8a66\u7df4\u30d0\u30c8\u30eb",
        "aigSzwVh": "0",
        "jb0WsR6n": "b7bce91c1a8d6625b650a99ad6ed5e93",
        "P_CREATEDATE": "2017-12-23 17:35:49",
        "P_UPDATEDATE": "2018-06-25 01:36:46"
    },
    {
        "P_RESOURCE_ID": "263",
        "P_RESOURCE_TYPE": "100",
        "P_RESOURCE_GROUP": "sound",
        "jsRoN50z": "http://resource.cdn.bravefrontier2.jp/bf2/resource/",
        "P_PATH": "sound",
        "P_GROUP_NAME": "sound",
        "P_FILE_NAME": "BF2_050_btl_result.acb",
        "P_EXT_IMG_PARAM": "\u30d0\u30c8\u30eb\u30ea\u30b6\u30eb\u30c8",
        "aigSzwVh": "0",
        "jb0WsR6n": "f2e3bf217da3aab473e0abda011e4f7a",
        "P_CREATEDATE": "2017-12-23 17:36:11",
        "P_UPDATEDATE": "2018-06-25 01:36:46"
    },
    {
        "P_RESOURCE_ID": "264",
        "P_RESOURCE_TYPE": "100",
        "P_RESOURCE_GROUP": "sound",
        "jsRoN50z": "http://resource.cdn.bravefrontier2.jp/bf2/resource/",
        "P_PATH": "sound",
        "P_GROUP_NAME": "sound",
        "P_FILE_NAME": "BF2_051_scr_extus.acb",
        "P_EXT_IMG_PARAM": "\u30b7\u30fc\u30f3\u30a4\u30af\u30b9\u30bf\u30b9\u7dca\u8feb",
        "aigSzwVh": "0",
        "jb0WsR6n": "34ced810952eabaa3652c60115236b36",
        "P_CREATEDATE": "2017-12-23 17:36:30",
        "P_UPDATEDATE": "2018-06-25 01:36:46"
    },
    {
        "P_RESOURCE_ID": "265",
        "P_RESOURCE_TYPE": "100",
        "P_RESOURCE_GROUP": "info",
        "jsRoN50z": "http://resource.cdn.bravefrontier2.jp/bf2/resource/",
        "P_PATH": "info",
        "P_GROUP_NAME": "info",
        "P_FILE_NAME": "info.cpk",
        "P_EXT_IMG_PARAM": "\u304a\u77e5\u3089\u305b\u30a2\u30a4\u30b3\u30f3",
        "aigSzwVh": "0",
        "jb0WsR6n": "4c75a3ed1a9e98f0366a9416d78d6e4e",
        "P_CREATEDATE": "2017-12-23 20:01:43",
        "P_UPDATEDATE": "2018-08-30 13:07:33"
    },
    {
        "P_RESOURCE_ID": "266",
        "P_RESOURCE_TYPE": "100",
        "P_RESOURCE_GROUP": "sound",
        "jsRoN50z": "http://resource.cdn.bravefrontier2.jp/bf2/resource/",
        "P_PATH": "sound",
        "P_GROUP_NAME": "sound",
        "P_FILE_NAME": "BF2_052_scr_restless.acb",
        "P_EXT_IMG_PARAM": "\u30b7\u30fc\u30f3\u4e0d\u5b89",
        "aigSzwVh": "0",
        "jb0WsR6n": "f2de3593d6672f6e6d46a4a029a791e6",
        "P_CREATEDATE": "2017-12-28 15:36:22",
        "P_UPDATEDATE": "2018-06-25 01:36:46"
    },
    {
        "P_RESOURCE_ID": "267",
        "P_RESOURCE_TYPE": "1",
        "P_RESOURCE_GROUP": "ui",
        "jsRoN50z": "http://resource.cdn.bravefrontier2.jp/bf2/resource/",
        "P_PATH": "ui",
        "P_GROUP_NAME": "ui",
        "P_FILE_NAME": "ui.cpk",
        "P_EXT_IMG_PARAM": "UI\u30ea\u30bd\u30fc\u30b9",
        "aigSzwVh": "0",
        "jb0WsR6n": "a8f1d877fe8a0fe2ee30af1923132097",
        "P_CREATEDATE": "2018-01-04 21:21:27",
        "P_UPDATEDATE": "2018-08-30 13:12:36"
    },
    {
        "P_RESOURCE_ID": "268",
        "P_RESOURCE_TYPE": "1",
        "P_RESOURCE_GROUP": "uiSG",
        "jsRoN50z": "http://resource.cdn.bravefrontier2.jp/bf2/resource/",
        "P_PATH": "uiSG",
        "P_GROUP_NAME": "uiSG",
        "P_FILE_NAME": "uiSG.cpk",
        "P_EXT_IMG_PARAM": "UI\u30b9\u30d1\u30fc\u30af\u30ae\u30a2",
        "aigSzwVh": "0",
        "jb0WsR6n": "a6223dbda52483710df988b9bb97c5d7",
        "P_CREATEDATE": "2018-01-04 21:23:10",
        "P_UPDATEDATE": "2018-07-25 01:07:44"
    },
    {
        "P_RESOURCE_ID": "269",
        "P_RESOURCE_TYPE": "1",
        "P_RESOURCE_GROUP": "uiSS",
        "jsRoN50z": "http://resource.cdn.bravefrontier2.jp/bf2/resource/",
        "P_PATH": "uiSS",
        "P_GROUP_NAME": "uiSS",
        "P_FILE_NAME": "uiSS.cpk",
        "P_EXT_IMG_PARAM": "UI\u30b9\u30d7\u30e9\u30a4\u30c8\u30b9\u30bf\u30b8\u30aa",
        "aigSzwVh": "0",
        "jb0WsR6n": "b416780f5d77c3f3904b8c22278d3c22",
        "P_CREATEDATE": "2018-01-04 21:23:52",
        "P_UPDATEDATE": "2018-08-25 01:08:23"
    },
    {
        "P_RESOURCE_ID": "271",
        "P_RESOURCE_TYPE": "100",
        "P_RESOURCE_GROUP": "sound",
        "jsRoN50z": "http://resource.cdn.bravefrontier2.jp/bf2/resource/",
        "P_PATH": "sound",
        "P_GROUP_NAME": "sound",
        "P_FILE_NAME": "BF2_054_btl_fh.acb",
        "P_EXT_IMG_PARAM": "\u30d5\u30ed\u30cf\u30f3\u30d0\u30c8\u30eb",
        "aigSzwVh": "0",
        "jb0WsR6n": "f92860234a286919b625750db934ad92",
        "P_CREATEDATE": "2018-01-09 23:10:42",
        "P_UPDATEDATE": "2018-06-25 01:36:46"
    },
    {
        "P_RESOURCE_ID": "272",
        "P_RESOURCE_TYPE": "1",
        "P_RESOURCE_GROUP": "movie",
        "jsRoN50z": "http://resource.cdn.bravefrontier2.jp/bf2/resource/",
        "P_PATH": "movie",
        "P_GROUP_NAME": "movie",
        "P_FILE_NAME": "movie.cpk",
        "P_EXT_IMG_PARAM": "\u30e0\u30fc\u30d3\u30fc",
        "aigSzwVh": "0",
        "jb0WsR6n": "9c4e98596b41b4f29ea492aecd0dc17f",
        "P_CREATEDATE": "",
        "P_UPDATEDATE": "2018-06-25 01:36:46"
    },
    {
        "P_RESOURCE_ID": "273",
        "P_RESOURCE_TYPE": "100",
        "P_RESOURCE_GROUP": "unit",
        "jsRoN50z": "http://resource.cdn.bravefrontier2.jp/bf2/resource/",
        "P_PATH": "unit",
        "P_GROUP_NAME": "unit",
        "P_FILE_NAME": "unit1_01.cpk",
        "P_EXT_IMG_PARAM": "\u30e6\u30cb\u30c3\u30c8\u30ea\u30bd\u30fc\u30b91",
        "aigSzwVh": "0",
        "jb0WsR6n": "79699fddb7cc09ed5cd2c0e159989db0",
        "P_CREATEDATE": "2018-01-19 18:28:07",
        "P_UPDATEDATE": "2018-07-25 01:06:05"
    },
    {
        "P_RESOURCE_ID": "274",
        "P_RESOURCE_TYPE": "100",
        "P_RESOURCE_GROUP": "unit",
        "jsRoN50z": "http://resource.cdn.bravefrontier2.jp/bf2/resource/",
        "P_PATH": "unit",
        "P_GROUP_NAME": "unit",
        "P_FILE_NAME": "unit2_01.cpk",
        "P_EXT_IMG_PARAM": "\u30e6\u30cb\u30c3\u30c8\u30ea\u30bd\u30fc\u30b92",
        "aigSzwVh": "0",
        "jb0WsR6n": "981a95c3259ed8906b209cc4c4d74adf",
        "P_CREATEDATE": "2018-01-19 18:28:25",
        "P_UPDATEDATE": "2018-07-25 01:06:20"
    },
    {
        "P_RESOURCE_ID": "275",
        "P_RESOURCE_TYPE": "100",
        "P_RESOURCE_GROUP": "unit",
        "jsRoN50z": "http://resource.cdn.bravefrontier2.jp/bf2/resource/",
        "P_PATH": "unit",
        "P_GROUP_NAME": "unit",
        "P_FILE_NAME": "unit3_01.cpk",
        "P_EXT_IMG_PARAM": "\u30e6\u30cb\u30c3\u30c8\u30ea\u30bd\u30fc\u30b93",
        "aigSzwVh": "0",
        "jb0WsR6n": "0a1962111af3dbe541a7cdb123e15b9c",
        "P_CREATEDATE": "2018-01-19 18:29:02",
        "P_UPDATEDATE": "2018-09-07 13:05:23"
    },
    {
        "P_RESOURCE_ID": "276",
        "P_RESOURCE_TYPE": "100",
        "P_RESOURCE_GROUP": "unit",
        "jsRoN50z": "http://resource.cdn.bravefrontier2.jp/bf2/resource/",
        "P_PATH": "unit",
        "P_GROUP_NAME": "unit",
        "P_FILE_NAME": "unit4_01.cpk",
        "P_EXT_IMG_PARAM": "\u30e6\u30cb\u30c3\u30c8\u30ea\u30bd\u30fc\u30b94",
        "aigSzwVh": "0",
        "jb0WsR6n": "f9edba5147fdd2d51ac131d80525b20c",
        "P_CREATEDATE": "2018-01-19 18:29:21",
        "P_UPDATEDATE": "2018-07-25 01:06:23"
    },
    {
        "P_RESOURCE_ID": "277",
        "P_RESOURCE_TYPE": "100",
        "P_RESOURCE_GROUP": "unit",
        "jsRoN50z": "http://resource.cdn.bravefrontier2.jp/bf2/resource/",
        "P_PATH": "unit",
        "P_GROUP_NAME": "unit",
        "P_FILE_NAME": "unit5_01.cpk",
        "P_EXT_IMG_PARAM": "\u30e6\u30cb\u30c3\u30c8\u30ea\u30bd\u30fc\u30b95",
        "aigSzwVh": "0",
        "jb0WsR6n": "28e0165eb52261a8c27150e9a922264a",
        "P_CREATEDATE": "2018-01-19 18:29:37",
        "P_UPDATEDATE": "2018-07-25 01:06:54"
    },
    {
        "P_RESOURCE_ID": "278",
        "P_RESOURCE_TYPE": "100",
        "P_RESOURCE_GROUP": "unit",
        "jsRoN50z": "http://resource.cdn.bravefrontier2.jp/bf2/resource/",
        "P_PATH": "unit",
        "P_GROUP_NAME": "unit",
        "P_FILE_NAME": "unit6_01.cpk",
        "P_EXT_IMG_PARAM": "\u30e6\u30cb\u30c3\u30c8\u30ea\u30bd\u30fc\u30b96",
        "aigSzwVh": "0",
        "jb0WsR6n": "0d44ddacd4921106941c00c249f23145",
        "P_CREATEDATE": "2018-01-19 18:29:53",
        "P_UPDATEDATE": "2018-07-25 01:06:54"
    },
    {
        "P_RESOURCE_ID": "279",
        "P_RESOURCE_TYPE": "100",
        "P_RESOURCE_GROUP": "unit",
        "jsRoN50z": "http://resource.cdn.bravefrontier2.jp/bf2/resource/",
        "P_PATH": "unit",
        "P_GROUP_NAME": "unit",
        "P_FILE_NAME": "unit7_01.cpk",
        "P_EXT_IMG_PARAM": "\u30e6\u30cb\u30c3\u30c8\u30ea\u30bd\u30fc\u30b97",
        "aigSzwVh": "0",
        "jb0WsR6n": "2b0a7d5f8440c4f5cbf28e32e5182e93",
        "P_CREATEDATE": "2018-01-19 18:30:13",
        "P_UPDATEDATE": "2018-09-07 14:44:28"
    },
    {
        "P_RESOURCE_ID": "280",
        "P_RESOURCE_TYPE": "100",
        "P_RESOURCE_GROUP": "unit",
        "jsRoN50z": "http://resource.cdn.bravefrontier2.jp/bf2/resource/",
        "P_PATH": "unit",
        "P_GROUP_NAME": "unit",
        "P_FILE_NAME": "unit_arms_male_01.cpk",
        "P_EXT_IMG_PARAM": "\u30e6\u30cb\u30c3\u30c8\u53ec\u559a\u5e2b\u7537\u30ea\u30bd\u30fc\u30b9",
        "aigSzwVh": "0",
        "jb0WsR6n": "fef8877e1062ef764d89841c1925f286",
        "P_CREATEDATE": "2018-01-19 18:32:53",
        "P_UPDATEDATE": "2018-08-25 01:07:22"
    },
    {
        "P_RESOURCE_ID": "281",
        "P_RESOURCE_TYPE": "100",
        "P_RESOURCE_GROUP": "unit",
        "jsRoN50z": "http://resource.cdn.bravefrontier2.jp/bf2/resource/",
        "P_PATH": "unit",
        "P_GROUP_NAME": "unit",
        "P_FILE_NAME": "unit_arms_female_01.cpk",
        "P_EXT_IMG_PARAM": "\u30e6\u30cb\u30c3\u30c8\u53ec\u559a\u5e2b\u5973\u30ea\u30bd\u30fc\u30b9",
        "aigSzwVh": "0",
        "jb0WsR6n": "161867a40b8379e8e9d29b8fb8d1049e",
        "P_CREATEDATE": "2018-01-19 18:33:18",
        "P_UPDATEDATE": "2018-08-25 01:07:23"
    },
    {
        "P_RESOURCE_ID": "282",
        "P_RESOURCE_TYPE": "100",
        "P_RESOURCE_GROUP": "unit",
        "jsRoN50z": "http://resource.cdn.bravefrontier2.jp/bf2/resource/",
        "P_PATH": "unit",
        "P_GROUP_NAME": "unit",
        "P_FILE_NAME": "unit_arms_rin_01.cpk",
        "P_EXT_IMG_PARAM": "\u30e6\u30cb\u30c3\u30c8\u53ec\u559a\u5e2b\u30ea\u30f3\u30ea\u30bd\u30fc\u30b9",
        "aigSzwVh": "0",
        "jb0WsR6n": "d027a6cf765963b8f9ee98683171c834",
        "P_CREATEDATE": "2018-01-19 18:33:45",
        "P_UPDATEDATE": "2018-08-25 01:07:24"
    },
    {
        "P_RESOURCE_ID": "283",
        "P_RESOURCE_TYPE": "100",
        "P_RESOURCE_GROUP": "unit",
        "jsRoN50z": "http://resource.cdn.bravefrontier2.jp/bf2/resource/",
        "P_PATH": "unit",
        "P_GROUP_NAME": "unit",
        "P_FILE_NAME": "unit.cpk",
        "P_EXT_IMG_PARAM": "\u30e6\u30cb\u30c3\u30c8x",
        "aigSzwVh": "0",
        "jb0WsR6n": "2add39438925454e42774cb1f81293c1",
        "P_CREATEDATE": "2018-01-19 18:37:27",
        "P_UPDATEDATE": "2018-06-25 01:36:46"
    },
    {
        "P_RESOURCE_ID": "284",
        "P_RESOURCE_TYPE": "100",
        "P_RESOURCE_GROUP": "sound",
        "jsRoN50z": "http://resource.cdn.bravefrontier2.jp/bf2/resource/",
        "P_PATH": "sound",
        "P_GROUP_NAME": "sound",
        "P_FILE_NAME": "BF2_055_btl_nomal07.acb",
        "P_EXT_IMG_PARAM": "\u901a\u5e38\u30d0\u30c8\u30eb7",
        "aigSzwVh": "0",
        "jb0WsR6n": "904f1a8425adcfd6c37b75f7b1917815",
        "P_CREATEDATE": "2018-01-26 23:23:14",
        "P_UPDATEDATE": "2018-06-25 01:36:46"
    },
    {
        "P_RESOURCE_ID": "285",
        "P_RESOURCE_TYPE": "100",
        "P_RESOURCE_GROUP": "sound",
        "jsRoN50z": "http://resource.cdn.bravefrontier2.jp/bf2/resource/",
        "P_PATH": "sound",
        "P_GROUP_NAME": "sound",
        "P_FILE_NAME": "BF1_1011_btl_firecave.acb",
        "P_EXT_IMG_PARAM": "BF1\u901a\u5e38\u30d0\u30c8\u30eb1",
        "aigSzwVh": "0",
        "jb0WsR6n": "ea6ee32edb8116a300e8cedff39907a5",
        "P_CREATEDATE": "2018-01-26 23:23:49",
        "P_UPDATEDATE": "2018-06-25 01:36:46"
    },
    {
        "P_RESOURCE_ID": "286",
        "P_RESOURCE_TYPE": "100",
        "P_RESOURCE_GROUP": "sound",
        "jsRoN50z": "http://resource.cdn.bravefrontier2.jp/bf2/resource/",
        "P_PATH": "sound",
        "P_GROUP_NAME": "sound",
        "P_FILE_NAME": "BF1_1012_btl_snow.acb",
        "P_EXT_IMG_PARAM": "BF1\u901a\u5e38\u30d0\u30c8\u30eb2",
        "aigSzwVh": "0",
        "jb0WsR6n": "cba0040ef3ac232dabff271ae284c5a2",
        "P_CREATEDATE": "2018-01-26 23:24:14",
        "P_UPDATEDATE": "2018-06-25 01:36:46"
    },
    {
        "P_RESOURCE_ID": "287",
        "P_RESOURCE_TYPE": "100",
        "P_RESOURCE_GROUP": "sound",
        "jsRoN50z": "http://resource.cdn.bravefrontier2.jp/bf2/resource/",
        "P_PATH": "sound",
        "P_GROUP_NAME": "sound",
        "P_FILE_NAME": "BF1_1020_btl_nightwood.acb",
        "P_EXT_IMG_PARAM": "BF1\u901a\u5e38\u30d0\u30c8\u30eb3",
        "aigSzwVh": "0",
        "jb0WsR6n": "a6b71dac0487f708dd27b8b6d6c8f2a2",
        "P_CREATEDATE": "2018-01-26 23:24:40",
        "P_UPDATEDATE": "2018-06-25 01:36:46"
    },
    {
        "P_RESOURCE_ID": "288",
        "P_RESOURCE_TYPE": "100",
        "P_RESOURCE_GROUP": "sound",
        "jsRoN50z": "http://resource.cdn.bravefrontier2.jp/bf2/resource/",
        "P_PATH": "sound",
        "P_GROUP_NAME": "sound",
        "P_FILE_NAME": "BF1_1024_btl_cave.acb",
        "P_EXT_IMG_PARAM": "BF1\u901a\u5e38\u30d0\u30c8\u30eb4",
        "aigSzwVh": "0",
        "jb0WsR6n": "ec6457af0b465e795d354b06ce2e841a",
        "P_CREATEDATE": "2018-01-26 23:25:16",
        "P_UPDATEDATE": "2018-06-25 01:36:46"
    },
    {
        "P_RESOURCE_ID": "289",
        "P_RESOURCE_TYPE": "100",
        "P_RESOURCE_GROUP": "sound",
        "jsRoN50z": "http://resource.cdn.bravefrontier2.jp/bf2/resource/",
        "P_PATH": "sound",
        "P_GROUP_NAME": "sound",
        "P_FILE_NAME": "BF1_1041_btl_jewrel.acb",
        "P_EXT_IMG_PARAM": "BF1\u901a\u5e38\u30d0\u30c8\u30eb5",
        "aigSzwVh": "0",
        "jb0WsR6n": "d58d99a63f64a80dbef86b0e41461d0f",
        "P_CREATEDATE": "2018-01-26 23:25:50",
        "P_UPDATEDATE": "2018-06-25 01:36:46"
    },
    {
        "P_RESOURCE_ID": "290",
        "P_RESOURCE_TYPE": "100",
        "P_RESOURCE_GROUP": "sound",
        "jsRoN50z": "http://resource.cdn.bravefrontier2.jp/bf2/resource/",
        "P_PATH": "sound",
        "P_GROUP_NAME": "sound",
        "P_FILE_NAME": "BF1_1052_btl_mgc_swamp.acb",
        "P_EXT_IMG_PARAM": "BF1\u901a\u5e38\u30d0\u30c8\u30eb6",
        "aigSzwVh": "0",
        "jb0WsR6n": "f97143dd36bd91be9d6bbdb126222a42",
        "P_CREATEDATE": "2018-01-26 23:26:18",
        "P_UPDATEDATE": "2018-06-25 01:36:46"
    },
    {
        "P_RESOURCE_ID": "291",
        "P_RESOURCE_TYPE": "100",
        "P_RESOURCE_GROUP": "sound",
        "jsRoN50z": "http://resource.cdn.bravefrontier2.jp/bf2/resource/",
        "P_PATH": "sound",
        "P_GROUP_NAME": "sound",
        "P_FILE_NAME": "BF1_1053_btl_zazilba.acb",
        "P_EXT_IMG_PARAM": "BF1\u901a\u5e38\u30d0\u30c8\u30eb7",
        "aigSzwVh": "0",
        "jb0WsR6n": "a170dc2dc6288add0ed69f515a773304",
        "P_CREATEDATE": "2018-01-26 23:26:43",
        "P_UPDATEDATE": "2018-06-25 01:36:46"
    },
    {
        "P_RESOURCE_ID": "292",
        "P_RESOURCE_TYPE": "100",
        "P_RESOURCE_GROUP": "sound",
        "jsRoN50z": "http://resource.cdn.bravefrontier2.jp/bf2/resource/",
        "P_PATH": "sound",
        "P_GROUP_NAME": "sound",
        "P_FILE_NAME": "BF1_1060_btl_alvest.acb",
        "P_EXT_IMG_PARAM": "BF1\u901a\u5e38\u30d0\u30c8\u30eb8",
        "aigSzwVh": "0",
        "jb0WsR6n": "2835c9447873c8afbc3ce3c825af67ff",
        "P_CREATEDATE": "2018-01-26 23:27:05",
        "P_UPDATEDATE": "2018-06-25 01:36:46"
    },
    {
        "P_RESOURCE_ID": "293",
        "P_RESOURCE_TYPE": "100",
        "P_RESOURCE_GROUP": "sound",
        "jsRoN50z": "http://resource.cdn.bravefrontier2.jp/bf2/resource/",
        "P_PATH": "sound",
        "P_GROUP_NAME": "sound",
        "P_FILE_NAME": "BF1_1087_lab_akras_mypage02.acb",
        "P_EXT_IMG_PARAM": "\u53ec\u559a\u8853\u7814\u7a76\u6240",
        "aigSzwVh": "0",
        "jb0WsR6n": "a8c0b0be2dbaa4a2e720bd3f38133252",
        "P_CREATEDATE": "2018-01-26 23:28:35",
        "P_UPDATEDATE": "2018-06-25 01:36:46"
    },
    {
        "P_RESOURCE_ID": "294",
        "P_RESOURCE_TYPE": "100",
        "P_RESOURCE_GROUP": "dungeon",
        "jsRoN50z": "http://resource.cdn.bravefrontier2.jp/bf2/resource/",
        "P_PATH": "dungeon",
        "P_GROUP_NAME": "dungeon",
        "P_FILE_NAME": "dungeon_banner.cpk",
        "P_EXT_IMG_PARAM": "\u30c0\u30f3\u30b8\u30e7\u30f3\u30d0\u30ca\u30fc",
        "aigSzwVh": "0",
        "jb0WsR6n": "35f7c28c6b99f9e62e1dc8e4188261c8",
        "P_CREATEDATE": "2018-01-27 21:00:56",
        "P_UPDATEDATE": "2018-09-18 00:07:39"
    },
    {
        "P_RESOURCE_ID": "295",
        "P_RESOURCE_TYPE": "100",
        "P_RESOURCE_GROUP": "dungeon",
        "jsRoN50z": "http://resource.cdn.bravefrontier2.jp/bf2/resource/",
        "P_PATH": "dungeon",
        "P_GROUP_NAME": "dungeon",
        "P_FILE_NAME": "dungeon_battle_bg_1.cpk",
        "P_EXT_IMG_PARAM": "\u30d0\u30c8\u30eb\u80cc\u666f\u753b\u50cf\uff11",
        "aigSzwVh": "0",
        "jb0WsR6n": "d634fa67965c1c408b1d637a4ba89784",
        "P_CREATEDATE": "2018-01-27 21:01:15",
        "P_UPDATEDATE": "2018-07-25 01:09:01"
    },
    {
        "P_RESOURCE_ID": "296",
        "P_RESOURCE_TYPE": "100",
        "P_RESOURCE_GROUP": "dungeon",
        "jsRoN50z": "http://resource.cdn.bravefrontier2.jp/bf2/resource/",
        "P_PATH": "dungeon",
        "P_GROUP_NAME": "dungeon",
        "P_FILE_NAME": "dungeon_battle_bg_2.cpk",
        "P_EXT_IMG_PARAM": "\u30d0\u30c8\u30eb\u80cc\u666f\u753b\u50cf\uff12",
        "aigSzwVh": "0",
        "jb0WsR6n": "d4b5972c711dec669967657686bdf8c4",
        "P_CREATEDATE": "2018-01-27 21:01:35",
        "P_UPDATEDATE": "2018-06-25 01:36:46"
    },
    {
        "P_RESOURCE_ID": "297",
        "P_RESOURCE_TYPE": "100",
        "P_RESOURCE_GROUP": "dungeon",
        "jsRoN50z": "http://resource.cdn.bravefrontier2.jp/bf2/resource/",
        "P_PATH": "dungeon",
        "P_GROUP_NAME": "dungeon",
        "P_FILE_NAME": "dungeon_event_bg.cpk",
        "P_EXT_IMG_PARAM": "\u30a4\u30d9\u30f3\u30c8\u80cc\u666f\u753b\u50cf",
        "aigSzwVh": "0",
        "jb0WsR6n": "b4bab9028c2c24a90216cc37f06aab4f",
        "P_CREATEDATE": "2018-01-27 21:01:49",
        "P_UPDATEDATE": "2018-07-25 01:09:02"
    },
    {
        "P_RESOURCE_ID": "298",
        "P_RESOURCE_TYPE": "100",
        "P_RESOURCE_GROUP": "dungeon",
        "jsRoN50z": "http://resource.cdn.bravefrontier2.jp/bf2/resource/",
        "P_PATH": "dungeon",
        "P_GROUP_NAME": "dungeon",
        "P_FILE_NAME": "dungeon_hzm_battle_bg.cpk",
        "P_EXT_IMG_PARAM": "\u72ed\u9593\u30d0\u30c8\u30eb\u80cc\u666f\u753b\u50cf",
        "aigSzwVh": "0",
        "jb0WsR6n": "93ff12705df8eb46e0f4f39dafa2c7fd",
        "P_CREATEDATE": "2018-01-27 21:02:07",
        "P_UPDATEDATE": "2018-08-25 01:10:02"
    },
    {
        "P_RESOURCE_ID": "299",
        "P_RESOURCE_TYPE": "100",
        "P_RESOURCE_GROUP": "dungeon",
        "jsRoN50z": "http://resource.cdn.bravefrontier2.jp/bf2/resource/",
        "P_PATH": "dungeon",
        "P_GROUP_NAME": "dungeon",
        "P_FILE_NAME": "dungeon_sq_battle_bg.cpk",
        "P_EXT_IMG_PARAM": "\u30b9\u30c8\u30af\u30a8\u30d0\u30c8\u30eb\u80cc\u666f\u753b\u50cf",
        "aigSzwVh": "0",
        "jb0WsR6n": "7c0bb2ed48dd1cbbeaadc472f8f058b8",
        "P_CREATEDATE": "2018-01-27 21:02:29",
        "P_UPDATEDATE": "2018-06-25 01:36:46"
    },
    {
        "P_RESOURCE_ID": "300",
        "P_RESOURCE_TYPE": "1",
        "P_RESOURCE_GROUP": "effectSG",
        "jsRoN50z": "http://resource.cdn.bravefrontier2.jp/bf2/resource/",
        "P_PATH": "effectSG",
        "P_GROUP_NAME": "effectSG",
        "P_FILE_NAME": "effectSG_script_effect.cpk",
        "P_EXT_IMG_PARAM": "\u30b9\u30af\u30ea\u30d7\u30c8\u7528\u30a8\u30d5\u30a7\u30af\u30c8",
        "aigSzwVh": "0",
        "jb0WsR6n": "38136e13448cf3086389d277e4b4f021",
        "P_CREATEDATE": "2018-01-27 21:03:26",
        "P_UPDATEDATE": "2018-07-25 01:09:30"
    },
    {
        "P_RESOURCE_ID": "301",
        "P_RESOURCE_TYPE": "100",
        "P_RESOURCE_GROUP": "subscription",
        "jsRoN50z": "http://resource.cdn.bravefrontier2.jp/bf2/resource/",
        "P_PATH": "subscription",
        "P_GROUP_NAME": "subscription",
        "P_FILE_NAME": "subscription.cpk",
        "P_EXT_IMG_PARAM": "\u53ec\u559a\u5e2b\u80b2\u6210\u30d7\u30ed\u30b0\u30e9\u30e0\u753b\u50cf",
        "aigSzwVh": "0",
        "jb0WsR6n": "ef49e2c2cf181f213e28667113a3761a",
        "P_CREATEDATE": "2018-01-27 21:04:15",
        "P_UPDATEDATE": "2018-06-25 01:36:46"
    },
    {
        "P_RESOURCE_ID": "302",
        "P_RESOURCE_TYPE": "100",
        "P_RESOURCE_GROUP": "effectSS",
        "jsRoN50z": "http://resource.cdn.bravefrontier2.jp/bf2/resource/",
        "P_PATH": "effectSS",
        "P_GROUP_NAME": "effectSS",
        "P_FILE_NAME": "effectSS_bg_battle_1.cpk",
        "P_EXT_IMG_PARAM": "\u30c0\u30f3\u30b8\u30e7\u30f3\u80cc\u666f\u30a2\u30cb\u30e1",
        "aigSzwVh": "0",
        "jb0WsR6n": "c4a70e5d6bd90c95e5a0036d77193694",
        "P_CREATEDATE": "2018-01-27 21:04:18",
        "P_UPDATEDATE": "2018-07-25 01:10:14"
    },
    {
        "P_RESOURCE_ID": "303",
        "P_RESOURCE_TYPE": "100",
        "P_RESOURCE_GROUP": "effectSS",
        "jsRoN50z": "http://resource.cdn.bravefrontier2.jp/bf2/resource/",
        "P_PATH": "effectSS",
        "P_GROUP_NAME": "effectSS",
        "P_FILE_NAME": "effectSS_bg_event.cpk",
        "P_EXT_IMG_PARAM": "\u30a4\u30d9\u30f3\u30c8\u80cc\u666f\u30a2\u30cb\u30e1",
        "aigSzwVh": "0",
        "jb0WsR6n": "85c5caf4dd085dbf97e61c3e523809ba",
        "P_CREATEDATE": "2018-01-27 21:04:39",
        "P_UPDATEDATE": "2018-07-25 01:10:15"
    },
    {
        "P_RESOURCE_ID": "304",
        "P_RESOURCE_TYPE": "1",
        "P_RESOURCE_GROUP": "effectSS",
        "jsRoN50z": "http://resource.cdn.bravefrontier2.jp/bf2/resource/",
        "P_PATH": "effectSS",
        "P_GROUP_NAME": "effectSS",
        "P_FILE_NAME": "effectSS_boss_anime.cpk",
        "P_EXT_IMG_PARAM": "\u30dc\u30b9\u30a2\u30cb\u30e1",
        "aigSzwVh": "0",
        "jb0WsR6n": "bbedff4d62e81aaab27f38596a8d89c4",
        "P_CREATEDATE": "2018-01-27 21:04:55",
        "P_UPDATEDATE": "2018-09-07 14:39:35"
    },
    {
        "P_RESOURCE_ID": "305",
        "P_RESOURCE_TYPE": "1",
        "P_RESOURCE_GROUP": "effectSS",
        "jsRoN50z": "http://resource.cdn.bravefrontier2.jp/bf2/resource/",
        "P_PATH": "effectSS",
        "P_GROUP_NAME": "effectSS",
        "P_FILE_NAME": "effectSS_battle_effect.cpk",
        "P_EXT_IMG_PARAM": "\u30d0\u30c8\u30eb\u30a8\u30d5\u30a7\u30af\u30c8",
        "aigSzwVh": "0",
        "jb0WsR6n": "aa9ecc7706454f4a6f9886f14aa91b04",
        "P_CREATEDATE": "2018-01-27 21:05:15",
        "P_UPDATEDATE": "2018-07-25 01:10:14"
    },
    {
        "P_RESOURCE_ID": "306",
        "P_RESOURCE_TYPE": "1",
        "P_RESOURCE_GROUP": "effectSS",
        "jsRoN50z": "http://resource.cdn.bravefrontier2.jp/bf2/resource/",
        "P_PATH": "effectSS",
        "P_GROUP_NAME": "effectSS",
        "P_FILE_NAME": "effectSS_script_effect_1.cpk",
        "P_EXT_IMG_PARAM": "\u30b9\u30af\u30ea\u30d7\u30c8\u7528\u30a8\u30d5\u30a7\u30af\u30c8\uff11",
        "aigSzwVh": "0",
        "jb0WsR6n": "03e41c94a7d4c28118ccbf02356cf7ac",
        "P_CREATEDATE": "2018-01-27 21:05:34",
        "P_UPDATEDATE": "2018-07-25 01:10:15"
    },
    {
        "P_RESOURCE_ID": "307",
        "P_RESOURCE_TYPE": "100",
        "P_RESOURCE_GROUP": "effectSS",
        "jsRoN50z": "http://resource.cdn.bravefrontier2.jp/bf2/resource/",
        "P_PATH": "effectSS",
        "P_GROUP_NAME": "effectSS",
        "P_FILE_NAME": "effectSS_script_effect_2.cpk",
        "P_EXT_IMG_PARAM": "\u30b9\u30af\u30ea\u30d7\u30c8\u7528\u30a8\u30d5\u30a7\u30af\u30c8\uff12",
        "aigSzwVh": "0",
        "jb0WsR6n": "6f823e3b116bf8fc25797cbbe998bf4b",
        "P_CREATEDATE": "2018-01-27 21:05:48",
        "P_UPDATEDATE": "2018-08-25 01:09:48"
    },
    {
        "P_RESOURCE_ID": "308",
        "P_RESOURCE_TYPE": "100",
        "P_RESOURCE_GROUP": "event",
        "jsRoN50z": "http://resource.cdn.bravefrontier2.jp/bf2/resource/",
        "P_PATH": "event",
        "P_GROUP_NAME": "event",
        "P_FILE_NAME": "event_navi_full_1_30.cpk",
        "P_EXT_IMG_PARAM": "\u30ca\u30d3\u30ad\u30e3\u30e9\u5168\u8eab\u753b\u50cfID\uff1a1\uff5e30",
        "aigSzwVh": "0",
        "jb0WsR6n": "86a4e73f9a55c36604ba4a93072b22f0",
        "P_CREATEDATE": "2018-01-27 21:06:07",
        "P_UPDATEDATE": "2018-07-25 01:10:04"
    },
    {
        "P_RESOURCE_ID": "309",
        "P_RESOURCE_TYPE": "100",
        "P_RESOURCE_GROUP": "event",
        "jsRoN50z": "http://resource.cdn.bravefrontier2.jp/bf2/resource/",
        "P_PATH": "event",
        "P_GROUP_NAME": "event",
        "P_FILE_NAME": "event_navi_full_31_60.cpk",
        "P_EXT_IMG_PARAM": "\u30ca\u30d3\u30ad\u30e3\u30e9\u5168\u8eab\u753b\u50cfID\uff1a31\uff5e60",
        "aigSzwVh": "0",
        "jb0WsR6n": "3b478c2c0bcd48ab611a33a657a1297c",
        "P_CREATEDATE": "2018-01-27 21:06:20",
        "P_UPDATEDATE": "2018-08-08 13:06:55"
    },
    {
        "P_RESOURCE_ID": "310",
        "P_RESOURCE_TYPE": "100",
        "P_RESOURCE_GROUP": "event",
        "jsRoN50z": "http://resource.cdn.bravefrontier2.jp/bf2/resource/",
        "P_PATH": "event",
        "P_GROUP_NAME": "event",
        "P_FILE_NAME": "event_navi_full_61_90.cpk",
        "P_EXT_IMG_PARAM": "\u30ca\u30d3\u30ad\u30e3\u30e9\u5168\u8eab\u753b\u50cfID\uff1a61\uff5e90",
        "aigSzwVh": "0",
        "jb0WsR6n": "3347345995c623005a8f3ff37251cdab",
        "P_CREATEDATE": "2018-01-27 21:06:33",
        "P_UPDATEDATE": "2018-06-25 01:36:46"
    },
    {
        "P_RESOURCE_ID": "311",
        "P_RESOURCE_TYPE": "1",
        "P_RESOURCE_GROUP": "event",
        "jsRoN50z": "http://resource.cdn.bravefrontier2.jp/bf2/resource/",
        "P_PATH": "event",
        "P_GROUP_NAME": "event",
        "P_FILE_NAME": "event_navi_full_tame.cpk",
        "P_EXT_IMG_PARAM": "\u30ca\u30d3\u30ad\u30e3\u30e9\u5168\u8eab\u753b\u50cf\uff1a\u30c6\u30a4\u30e0\u7cfb",
        "aigSzwVh": "0",
        "jb0WsR6n": "b7788ab41364a3d917bfc97a80666c5d",
        "P_CREATEDATE": "2018-01-27 21:07:06",
        "P_UPDATEDATE": "2018-06-25 01:36:46"
    },
    {
        "P_RESOURCE_ID": "312",
        "P_RESOURCE_TYPE": "100",
        "P_RESOURCE_GROUP": "event",
        "jsRoN50z": "http://resource.cdn.bravefrontier2.jp/bf2/resource/",
        "P_PATH": "event",
        "P_GROUP_NAME": "event",
        "P_FILE_NAME": "event_navi_thumbnail.cpk",
        "P_EXT_IMG_PARAM": "\u30ca\u30d3\u30ad\u30e3\u30e9\u30b5\u30e0\u30cd\u30a4\u30eb\u753b\u50cf",
        "aigSzwVh": "0",
        "jb0WsR6n": "807f390fb89eeb20ef49c6aa5dc1297b",
        "P_CREATEDATE": "2018-01-27 21:07:34",
        "P_UPDATEDATE": "2018-08-08 13:07:10"
    },
    {
        "P_RESOURCE_ID": "313",
        "P_RESOURCE_TYPE": "1",
        "P_RESOURCE_GROUP": "event",
        "jsRoN50z": "http://resource.cdn.bravefrontier2.jp/bf2/resource/",
        "P_PATH": "event",
        "P_GROUP_NAME": "event",
        "P_FILE_NAME": "event_img.cpk",
        "P_EXT_IMG_PARAM": "\u30a4\u30d9\u30f3\u30c8\u7528\u753b\u50cf",
        "aigSzwVh": "0",
        "jb0WsR6n": "6ec855440db0b234ea6c3d4f356de13e",
        "P_CREATEDATE": "2018-01-27 21:08:00",
        "P_UPDATEDATE": "2018-09-07 16:22:37"
    },
    {
        "P_RESOURCE_ID": "314",
        "P_RESOURCE_TYPE": "100",
        "P_RESOURCE_GROUP": "desc",
        "jsRoN50z": "http://resource.cdn.bravefrontier2.jp/bf2/resource/",
        "P_PATH": "desc",
        "P_GROUP_NAME": "desc",
        "P_FILE_NAME": "desc.cpk",
        "P_EXT_IMG_PARAM": "\u521d\u56de\u8aac\u660e",
        "aigSzwVh": "0",
        "jb0WsR6n": "6c63e3b492827882b085c65592180a16",
        "P_CREATEDATE": "2018-01-31 14:49:00",
        "P_UPDATEDATE": "2018-08-25 01:06:22"
    },
    {
        "P_RESOURCE_ID": "315",
        "P_RESOURCE_TYPE": "1",
        "P_RESOURCE_GROUP": "sound",
        "jsRoN50z": "http://resource.cdn.bravefrontier2.jp/bf2/resource/",
        "P_PATH": "sound",
        "P_GROUP_NAME": "sound",
        "P_FILE_NAME": "BF2_056_scr_resolution.acb",
        "P_EXT_IMG_PARAM": "056_\u30b7\u30fc\u30f3\u6c7a\u610f",
        "aigSzwVh": "0",
        "jb0WsR6n": "79721dbb847f254e17472d082b5b109a",
        "P_CREATEDATE": "2018-02-05 23:51:02",
        "P_UPDATEDATE": "2018-06-25 01:36:46"
    },
    {
        "P_RESOURCE_ID": "316",
        "P_RESOURCE_TYPE": "100",
        "P_RESOURCE_GROUP": "sound",
        "jsRoN50z": "http://resource.cdn.bravefrontier2.jp/bf2/resource/",
        "P_PATH": "sound",
        "P_GROUP_NAME": "sound",
        "P_FILE_NAME": "BF2_057_scr_neutral.acb",
        "P_EXT_IMG_PARAM": "057_\u30b7\u30fc\u30f3\u30cb\u30e5\u30fc\u30c8\u30e9\u30eb",
        "aigSzwVh": "0",
        "jb0WsR6n": "419d62bcc863d6c8a8728fdb67679c7f",
        "P_CREATEDATE": "2018-02-05 23:51:16",
        "P_UPDATEDATE": "2018-06-25 01:36:46"
    },
    {
        "P_RESOURCE_ID": "317",
        "P_RESOURCE_TYPE": "100",
        "P_RESOURCE_GROUP": "sound",
        "jsRoN50z": "http://resource.cdn.bravefrontier2.jp/bf2/resource/",
        "P_PATH": "sound",
        "P_GROUP_NAME": "sound",
        "P_FILE_NAME": "BF2_058_scr_daily.acb",
        "P_EXT_IMG_PARAM": "058_\u30b7\u30fc\u30f3\u65e5\u5e38",
        "aigSzwVh": "0",
        "jb0WsR6n": "21b7ca9c175886fea76231dbf1022185",
        "P_CREATEDATE": "2018-02-05 23:51:30",
        "P_UPDATEDATE": "2018-06-25 01:36:46"
    },
    {
        "P_RESOURCE_ID": "318",
        "P_RESOURCE_TYPE": "1",
        "P_RESOURCE_GROUP": "sound",
        "jsRoN50z": "http://resource.cdn.bravefrontier2.jp/bf2/resource/",
        "P_PATH": "sound",
        "P_GROUP_NAME": "sound",
        "P_FILE_NAME": "BF2_059_scr_op_movie.acb",
        "P_EXT_IMG_PARAM": "059_\u30b7\u30fc\u30f3OP\u30e0\u30fc\u30d3\u30fc",
        "aigSzwVh": "0",
        "jb0WsR6n": "50c743acdb1178909da1eecb427f6f2b",
        "P_CREATEDATE": "2018-02-05 23:51:52",
        "P_UPDATEDATE": "2018-06-25 01:36:46"
    },
    {
        "P_RESOURCE_ID": "319",
        "P_RESOURCE_TYPE": "1",
        "P_RESOURCE_GROUP": "sound",
        "jsRoN50z": "http://resource.cdn.bravefrontier2.jp/bf2/resource/",
        "P_PATH": "sound",
        "P_GROUP_NAME": "sound",
        "P_FILE_NAME": "BF2_060_scr_demension.acb",
        "P_EXT_IMG_PARAM": "060_\u30b7\u30fc\u30f3OP\u30ef\u30fc\u30d7",
        "aigSzwVh": "0",
        "jb0WsR6n": "5798688c30f89c2c8f8f10ba8ac5aa7f",
        "P_CREATEDATE": "2018-02-05 23:52:08",
        "P_UPDATEDATE": "2018-06-25 01:36:46"
    },
    {
        "P_RESOURCE_ID": "320",
        "P_RESOURCE_TYPE": "1",
        "P_RESOURCE_GROUP": "sound",
        "jsRoN50z": "http://resource.cdn.bravefrontier2.jp/bf2/resource/",
        "P_PATH": "sound",
        "P_GROUP_NAME": "sound",
        "P_FILE_NAME": "BF2_061_scr_wind.acb",
        "P_EXT_IMG_PARAM": "061_\u30b7\u30fc\u30f3OP\u98a8",
        "aigSzwVh": "0",
        "jb0WsR6n": "833cbedaf27c0fc9e533c510f674412f",
        "P_CREATEDATE": "2018-02-05 23:52:23",
        "P_UPDATEDATE": "2018-06-25 01:36:46"
    },
    {
        "P_RESOURCE_ID": "322",
        "P_RESOURCE_TYPE": "100",
        "P_RESOURCE_GROUP": "sound",
        "jsRoN50z": "http://resource.cdn.bravefrontier2.jp/bf2/resource/",
        "P_PATH": "sound",
        "P_GROUP_NAME": "sound",
        "P_FILE_NAME": "BF1_1101_lab_multi_lobi.acb",
        "P_EXT_IMG_PARAM": "1101_\u53ec\u559a\u8853\u7814\u7a76\u6240 \u8a66\u7df4TOP",
        "aigSzwVh": "0",
        "jb0WsR6n": "a316eee7d69b338d5b1cac1f961ea260",
        "P_CREATEDATE": "2018-02-06 20:12:29",
        "P_UPDATEDATE": "2018-06-25 01:36:46"
    },
    {
        "P_RESOURCE_ID": "323",
        "P_RESOURCE_TYPE": "100",
        "P_RESOURCE_GROUP": "sound",
        "jsRoN50z": "http://resource.cdn.bravefrontier2.jp/bf2/resource/",
        "P_PATH": "sound",
        "P_GROUP_NAME": "sound",
        "P_FILE_NAME": "BF1_1087_lab_akras_mypage02.acb",
        "P_EXT_IMG_PARAM": "1087_\u53ec\u559a\u8853\u7814\u7a76\u6240TOP",
        "aigSzwVh": "0",
        "jb0WsR6n": "a8c0b0be2dbaa4a2e720bd3f38133252",
        "P_CREATEDATE": "2018-02-06 21:17:36",
        "P_UPDATEDATE": "2018-06-25 01:36:46"
    },
    {
        "P_RESOURCE_ID": "324",
        "P_RESOURCE_TYPE": "100",
        "P_RESOURCE_GROUP": "sound",
        "jsRoN50z": "http://resource.cdn.bravefrontier2.jp/bf2/resource/",
        "P_PATH": "sound",
        "P_GROUP_NAME": "sound",
        "P_FILE_NAME": "BF1_1053_btl_zazilba.acb",
        "P_EXT_IMG_PARAM": "1053_BF1\u30b6\u30eb\u30b8\u30d0",
        "aigSzwVh": "0",
        "jb0WsR6n": "a170dc2dc6288add0ed69f515a773304",
        "P_CREATEDATE": "2018-02-07 21:09:23",
        "P_UPDATEDATE": "2018-06-25 01:36:46"
    },
    {
        "P_RESOURCE_ID": "325",
        "P_RESOURCE_TYPE": "1",
        "P_RESOURCE_GROUP": "sound",
        "jsRoN50z": "http://resource.cdn.bravefrontier2.jp/bf2/resource/",
        "P_PATH": "sound",
        "P_GROUP_NAME": "sound",
        "P_FILE_NAME": "BF1_1010_btl_grass.acb",
        "P_EXT_IMG_PARAM": "1010_BF1\u5192\u967a\u8005\u306e\u8349\u539f",
        "aigSzwVh": "0",
        "jb0WsR6n": "98a11f7a39ba561582c426348d8b19cc",
        "P_CREATEDATE": "2018-02-12 15:12:14",
        "P_UPDATEDATE": "2018-06-25 01:36:46"
    },
    {
        "P_RESOURCE_ID": "326",
        "P_RESOURCE_TYPE": "100",
        "P_RESOURCE_GROUP": "effectSS",
        "jsRoN50z": "http://resource.cdn.bravefrontier2.jp/bf2/resource/",
        "P_PATH": "effectSS",
        "P_GROUP_NAME": "effectSS",
        "P_FILE_NAME": "effectSS_bg_battle_2.cpk",
        "P_EXT_IMG_PARAM": "effectSS_bg_battle_2\uff08\u30c0\u30f3\u30b8\u30e7\u30f3\u80cc\u666f\u30a2\u30cb\u30e1\uff12\uff09",
        "aigSzwVh": "0",
        "jb0WsR6n": "731a6a0c5cb9e275f3c7a1607cb2c7a7",
        "P_CREATEDATE": "2018-02-13 21:04:26",
        "P_UPDATEDATE": "2018-06-25 01:36:46"
    },
    {
        "P_RESOURCE_ID": "327",
        "P_RESOURCE_TYPE": "100",
        "P_RESOURCE_GROUP": "effectSS",
        "jsRoN50z": "http://resource.cdn.bravefrontier2.jp/bf2/resource/",
        "P_PATH": "effectSS",
        "P_GROUP_NAME": "effectSS",
        "P_FILE_NAME": "effectSS_bg_sq_battle.cpk",
        "P_EXT_IMG_PARAM": "effectSS_bg_sq_battle\uff08\u30b9\u30c8\u30af\u30a8\u30c0\u30f3\u30b8\u30e7\u30f3\u80cc\u666f\u30a2\u30cb\u30e1\uff09",
        "aigSzwVh": "0",
        "jb0WsR6n": "1481adb60390a67c47a24addd607d352",
        "P_CREATEDATE": "2018-02-13 21:04:45",
        "P_UPDATEDATE": "2018-06-25 01:36:46"
    },
    {
        "P_RESOURCE_ID": "328",
        "P_RESOURCE_TYPE": "100",
        "P_RESOURCE_GROUP": "effectSS",
        "jsRoN50z": "http://resource.cdn.bravefrontier2.jp/bf2/resource/",
        "P_PATH": "effectSS",
        "P_GROUP_NAME": "effectSS",
        "P_FILE_NAME": "effectSS_bg_hzm_battle.cpk",
        "P_EXT_IMG_PARAM": "effectSS_bg_hzm_battle\uff08\u72ed\u9593\u30c0\u30f3\u30b8\u30e7\u30f3\u80cc\u666f\u30a2\u30cb\u30e1\uff09",
        "aigSzwVh": "0",
        "jb0WsR6n": "499b772dd0c20fc79b9b5801560e3274",
        "P_CREATEDATE": "2018-02-13 21:05:04",
        "P_UPDATEDATE": "2018-08-25 01:09:47"
    },
    {
        "P_RESOURCE_ID": "329",
        "P_RESOURCE_TYPE": "100",
        "P_RESOURCE_GROUP": "sound",
        "jsRoN50z": "http://resource.cdn.bravefrontier2.jp/bf2/resource/",
        "P_PATH": "sound",
        "P_GROUP_NAME": "sound",
        "P_FILE_NAME": "BF1_1102_btl_multi_ready.acb",
        "P_EXT_IMG_PARAM": "1102_BF1\u30de\u30eb\u30c1\u6e96\u5099",
        "aigSzwVh": "0",
        "jb0WsR6n": "234c5b73b69115446929241a6d0135ac",
        "P_CREATEDATE": "2018-02-14 17:49:17",
        "P_UPDATEDATE": "2018-06-25 01:36:46"
    },
    {
        "P_RESOURCE_ID": "330",
        "P_RESOURCE_TYPE": "100",
        "P_RESOURCE_GROUP": "sound",
        "jsRoN50z": "http://resource.cdn.bravefrontier2.jp/bf2/resource/",
        "P_PATH": "sound",
        "P_GROUP_NAME": "sound",
        "P_FILE_NAME": "BF1_1103_btl_multi_battle01.acb",
        "P_EXT_IMG_PARAM": "1103_BF1\u30de\u30eb\u30c1\u30d0\u30c8\u30eb",
        "aigSzwVh": "0",
        "jb0WsR6n": "58c4b3ee986182248eb6d9a658e926df",
        "P_CREATEDATE": "2018-02-14 17:49:38",
        "P_UPDATEDATE": "2018-06-25 01:36:46"
    },
    {
        "P_RESOURCE_ID": "331",
        "P_RESOURCE_TYPE": "100",
        "P_RESOURCE_GROUP": "sound",
        "jsRoN50z": "http://resource.cdn.bravefrontier2.jp/bf2/resource/",
        "P_PATH": "sound",
        "P_GROUP_NAME": "sound",
        "P_FILE_NAME": "BF1_1030_btl_evboss.acb",
        "P_EXT_IMG_PARAM": "1030_BF1\u30e1\u30bf\u30d1\u30ec",
        "aigSzwVh": "0",
        "jb0WsR6n": "edc0c2965c9a97bedaebd2d7b8aae05b",
        "P_CREATEDATE": "2018-02-14 17:50:12",
        "P_UPDATEDATE": "2018-06-25 01:36:46"
    },
    {
        "P_RESOURCE_ID": "332",
        "P_RESOURCE_TYPE": "100",
        "P_RESOURCE_GROUP": "sound",
        "jsRoN50z": "http://resource.cdn.bravefrontier2.jp/bf2/resource/",
        "P_PATH": "sound",
        "P_GROUP_NAME": "sound",
        "P_FILE_NAME": "BF1_1113_btl_scenario5_bs1.acb",
        "P_EXT_IMG_PARAM": "1113_BF1\u672a\u6765\u3078\u306e\u6c7a\u610f",
        "aigSzwVh": "0",
        "jb0WsR6n": "ce6ae56e6f4e2cff665d441786592e95",
        "P_CREATEDATE": "2018-02-14 21:26:56",
        "P_UPDATEDATE": "2018-06-25 01:36:46"
    },
    {
        "P_RESOURCE_ID": "333",
        "P_RESOURCE_TYPE": "100",
        "P_RESOURCE_GROUP": "sound",
        "jsRoN50z": "http://resource.cdn.bravefrontier2.jp/bf2/resource/",
        "P_PATH": "sound",
        "P_GROUP_NAME": "sound",
        "P_FILE_NAME": "BF1_1037_lab_lighttower.acb",
        "P_EXT_IMG_PARAM": "1037_BF1Gimmick",
        "aigSzwVh": "0",
        "jb0WsR6n": "7c2f726294e116225efd914c9f246dac",
        "P_CREATEDATE": "2018-02-15 17:15:23",
        "P_UPDATEDATE": "2018-06-25 01:36:46"
    },
    {
        "P_RESOURCE_ID": "334",
        "P_RESOURCE_TYPE": "1",
        "P_RESOURCE_GROUP": "sound",
        "jsRoN50z": "http://resource.cdn.bravefrontier2.jp/bf2/resource/",
        "P_PATH": "sound",
        "P_GROUP_NAME": "sound",
        "P_FILE_NAME": "BF2_062_nothing.acb",
        "P_EXT_IMG_PARAM": "062_\u30b7\u30fc\u30f3\u7121\u97f3",
        "aigSzwVh": "0",
        "jb0WsR6n": "799de819e9964f8c228cd482804e8522",
        "P_CREATEDATE": "2018-02-16 11:21:50",
        "P_UPDATEDATE": "2018-06-25 01:36:46"
    },
    {
        "P_RESOURCE_ID": "335",
        "P_RESOURCE_TYPE": "1",
        "P_RESOURCE_GROUP": "sound",
        "jsRoN50z": "http://resource.cdn.bravefrontier2.jp/bf2/resource/",
        "P_PATH": "sound",
        "P_GROUP_NAME": "sound",
        "P_FILE_NAME": "BF2_063_scr_resolution2.acb",
        "P_EXT_IMG_PARAM": "063_\u30b7\u30fc\u30f3\u6c7a\u610f2",
        "aigSzwVh": "0",
        "jb0WsR6n": "c38afb07f868681b545a1b75c7506973",
        "P_CREATEDATE": "2018-02-16 11:24:35",
        "P_UPDATEDATE": "2018-06-25 01:36:46"
    },
    {
        "P_RESOURCE_ID": "336",
        "P_RESOURCE_TYPE": "100",
        "P_RESOURCE_GROUP": "event",
        "jsRoN50z": "http://resource.cdn.bravefrontier2.jp/bf2/resource/",
        "P_PATH": "event",
        "P_GROUP_NAME": "event",
        "P_FILE_NAME": "event_navi_full_91_120.cpk",
        "P_EXT_IMG_PARAM": "\u30ca\u30d3\u30ad\u30e3\u30e9\u5168\u8eab\u753b\u50cfID\uff1a91\uff5e120",
        "aigSzwVh": "0",
        "jb0WsR6n": "c39820242b4a51f774f26fbf8b82b994",
        "P_CREATEDATE": "2018-03-26 13:48:54",
        "P_UPDATEDATE": "2018-06-25 01:36:46"
    },
    {
        "P_RESOURCE_ID": "337",
        "P_RESOURCE_TYPE": "1",
        "P_RESOURCE_GROUP": "event",
        "jsRoN50z": "http://resource.cdn.bravefrontier2.jp/bf2/resource/",
        "P_PATH": "event",
        "P_GROUP_NAME": "event",
        "P_FILE_NAME": "script_layouttool.cpk",
        "P_EXT_IMG_PARAM": "script_layouttool.cpk\uff08\u30b9\u30af\u30ea\u30d7\u30c8\u7528\u30ec\u30a4\u30a2\u30a6\u30c8\uff09",
        "aigSzwVh": "0",
        "jb0WsR6n": "4f3ec2155af7f04cd7e0e153109296f2",
        "P_CREATEDATE": "2018-03-26 14:33:14",
        "P_UPDATEDATE": "2018-09-07 13:03:37"
    },
    {
        "P_RESOURCE_ID": "338",
        "P_RESOURCE_TYPE": "100",
        "P_RESOURCE_GROUP": "area",
        "jsRoN50z": "http://resource.cdn.bravefrontier2.jp/bf2/resource/",
        "P_PATH": "area",
        "P_GROUP_NAME": "area",
        "P_FILE_NAME": "area_2.cpk",
        "P_EXT_IMG_PARAM": "area_2.cpk\uff08\u30a8\u30ea\u30a2\u30ea\u30bd\u30fc\u30b9\u7b2c\uff14\u7ae0\u4ee5\u964d\uff09",
        "aigSzwVh": "0",
        "jb0WsR6n": "b2f83a35dea6ee49129a42c6aac4d902",
        "P_CREATEDATE": "2018-04-25 01:16:23",
        "P_UPDATEDATE": "2018-08-16 01:05:31"
    },
    {
        "P_RESOURCE_ID": "339",
        "P_RESOURCE_TYPE": "100",
        "P_RESOURCE_GROUP": "event",
        "jsRoN50z": "http://resource.cdn.bravefrontier2.jp/bf2/resource/",
        "P_PATH": "event",
        "P_GROUP_NAME": "event",
        "P_FILE_NAME": "event_navi_full_121_150.cpk",
        "P_EXT_IMG_PARAM": "\u30ca\u30d3\u30ad\u30e3\u30e9\u5168\u8eab\u753b\u50cfID\uff1a121\uff5e150",
        "aigSzwVh": "0",
        "jb0WsR6n": "91605b50e5fb8f57766507ca9c82c616",
        "P_CREATEDATE": "2018-05-17 01:50:40",
        "P_UPDATEDATE": "2018-07-25 01:10:05"
    },
    {
        "P_RESOURCE_ID": "340",
        "P_RESOURCE_TYPE": "1",
        "P_RESOURCE_GROUP": "effectSG",
        "jsRoN50z": "http://resource.cdn.bravefrontier2.jp/bf2/resource/",
        "P_PATH": "effectSG",
        "P_GROUP_NAME": "effectSG",
        "P_FILE_NAME": "effectSG_bt_aj_01.cpk",
        "P_EXT_IMG_PARAM": "effectSG_bt_aj_01.cpk",
        "aigSzwVh": "0",
        "jb0WsR6n": "418ffbddd9208f9d0b2ce205a6f46ad6",
        "P_CREATEDATE": "2018-05-25 01:10:05",
        "P_UPDATEDATE": "2018-09-18 00:08:05"
    },
    {
        "P_RESOURCE_ID": "341",
        "P_RESOURCE_TYPE": "1",
        "P_RESOURCE_GROUP": "effectSG",
        "jsRoN50z": "http://resource.cdn.bravefrontier2.jp/bf2/resource/",
        "P_PATH": "effectSG",
        "P_GROUP_NAME": "effectSG",
        "P_FILE_NAME": "effectSG_bt_kt_01.cpk",
        "P_EXT_IMG_PARAM": "effectSG_bt_kt_01.cpk",
        "aigSzwVh": "0",
        "jb0WsR6n": "5bbcddd68f52194a7b7931ac24fb0b2e",
        "P_CREATEDATE": "2018-05-25 01:10:43",
        "P_UPDATEDATE": "2018-08-30 13:05:49"
    },
    {
        "P_RESOURCE_ID": "342",
        "P_RESOURCE_TYPE": "1",
        "P_RESOURCE_GROUP": "effectSG",
        "jsRoN50z": "http://resource.cdn.bravefrontier2.jp/bf2/resource/",
        "P_PATH": "effectSG",
        "P_GROUP_NAME": "effectSG",
        "P_FILE_NAME": "effectSG_bt_uz_01.cpk",
        "P_EXT_IMG_PARAM": "effectSG_bt_uz_01.cpk",
        "aigSzwVh": "0",
        "jb0WsR6n": "d575928bd95c9294f60f7bfb192915ac",
        "P_CREATEDATE": "2018-05-25 01:11:23",
        "P_UPDATEDATE": "2018-08-08 13:05:37"
    },
    {
        "P_RESOURCE_ID": "343",
        "P_RESOURCE_TYPE": "1",
        "P_RESOURCE_GROUP": "effectSG",
        "jsRoN50z": "http://resource.cdn.bravefrontier2.jp/bf2/resource/",
        "P_PATH": "effectSG",
        "P_GROUP_NAME": "effectSG",
        "P_FILE_NAME": "effectSG_bt_xbb_01.cpk",
        "P_EXT_IMG_PARAM": "effectSG_bt_xbb_01.cpk",
        "aigSzwVh": "0",
        "jb0WsR6n": "92435afd8d97d2ed33af5d747fe73ce2",
        "P_CREATEDATE": "2018-05-25 01:11:50",
        "P_UPDATEDATE": "2018-09-18 00:08:04"
    },
    {
        "P_RESOURCE_ID": "344",
        "P_RESOURCE_TYPE": "100",
        "P_RESOURCE_GROUP": "effectSS",
        "jsRoN50z": "http://resource.cdn.bravefrontier2.jp/bf2/resource/",
        "P_PATH": "effectSS",
        "P_GROUP_NAME": "effectSS",
        "P_FILE_NAME": "effectSS_xbb_cutin20_01.cpk",
        "P_EXT_IMG_PARAM": "effectSS_xbb_cutin20_01.cpk",
        "aigSzwVh": "0",
        "jb0WsR6n": "1b94a5e8f49a51df18f39791619fc8a7",
        "P_CREATEDATE": "2018-05-25 01:14:05",
        "P_UPDATEDATE": "2018-06-25 01:36:46"
    },
    {
        "P_RESOURCE_ID": "345",
        "P_RESOURCE_TYPE": "100",
        "P_RESOURCE_GROUP": "effectSS",
        "jsRoN50z": "http://resource.cdn.bravefrontier2.jp/bf2/resource/",
        "P_PATH": "effectSS",
        "P_GROUP_NAME": "effectSS",
        "P_FILE_NAME": "effectSS_xbb_cutin20_02.cpk",
        "P_EXT_IMG_PARAM": "effectSS_xbb_cutin20_02.cpk",
        "aigSzwVh": "0",
        "jb0WsR6n": "8139db95332f425b3435ab134cc12f0d",
        "P_CREATEDATE": "2018-05-25 01:14:33",
        "P_UPDATEDATE": "2018-07-25 01:10:16"
    },
    {
        "P_RESOURCE_ID": "346",
        "P_RESOURCE_TYPE": "100",
        "P_RESOURCE_GROUP": "effectSS",
        "jsRoN50z": "http://resource.cdn.bravefrontier2.jp/bf2/resource/",
        "P_PATH": "effectSS",
        "P_GROUP_NAME": "effectSS",
        "P_FILE_NAME": "effectSS_xbb_cutin30_01.cpk",
        "P_EXT_IMG_PARAM": "effectSS_xbb_cutin30_01.cpk",
        "aigSzwVh": "0",
        "jb0WsR6n": "dc27f418a132d5faf64002fcffd7fa42",
        "P_CREATEDATE": "2018-05-25 01:14:57",
        "P_UPDATEDATE": "2018-07-25 01:10:17"
    },
    {
        "P_RESOURCE_ID": "347",
        "P_RESOURCE_TYPE": "100",
        "P_RESOURCE_GROUP": "effectSS",
        "jsRoN50z": "http://resource.cdn.bravefrontier2.jp/bf2/resource/",
        "P_PATH": "effectSS",
        "P_GROUP_NAME": "effectSS",
        "P_FILE_NAME": "effectSS_xbb_cutin40_01.cpk",
        "P_EXT_IMG_PARAM": "effectSS_xbb_cutin40_01.cpk",
        "aigSzwVh": "0",
        "jb0WsR6n": "8ccb329309451df62eb3d10113c7d06c",
        "P_CREATEDATE": "2018-05-25 01:15:19",
        "P_UPDATEDATE": "2018-06-25 01:36:46"
    },
    {
        "P_RESOURCE_ID": "348",
        "P_RESOURCE_TYPE": "100",
        "P_RESOURCE_GROUP": "effectSS",
        "jsRoN50z": "http://resource.cdn.bravefrontier2.jp/bf2/resource/",
        "P_PATH": "effectSS",
        "P_GROUP_NAME": "effectSS",
        "P_FILE_NAME": "effectSS_xbb_cutin50_01.cpk",
        "P_EXT_IMG_PARAM": "effectSS_xbb_cutin50_01.cpk",
        "aigSzwVh": "0",
        "jb0WsR6n": "e7007f6fa0b1b7dc0af11a468806d12f",
        "P_CREATEDATE": "2018-05-25 01:15:45",
        "P_UPDATEDATE": "2018-06-25 01:36:46"
    },
    {
        "P_RESOURCE_ID": "349",
        "P_RESOURCE_TYPE": "100",
        "P_RESOURCE_GROUP": "effectSS",
        "jsRoN50z": "http://resource.cdn.bravefrontier2.jp/bf2/resource/",
        "P_PATH": "effectSS",
        "P_GROUP_NAME": "effectSS",
        "P_FILE_NAME": "effectSS_xbb_cutin60_01.cpk",
        "P_EXT_IMG_PARAM": "effectSS_xbb_cutin60_01.cpk",
        "aigSzwVh": "0",
        "jb0WsR6n": "508249c368eff7d1013bed7cf9a42467",
        "P_CREATEDATE": "2018-05-25 01:16:05",
        "P_UPDATEDATE": "2018-06-25 01:36:46"
    },
    {
        "P_RESOURCE_ID": "350",
        "P_RESOURCE_TYPE": "100",
        "P_RESOURCE_GROUP": "event",
        "jsRoN50z": "http://resource.cdn.bravefrontier2.jp/bf2/resource/",
        "P_PATH": "event",
        "P_GROUP_NAME": "event",
        "P_FILE_NAME": "event_navi_thumbnail_2.cpk",
        "P_EXT_IMG_PARAM": "event_navi_thumbnail_2.cpk",
        "aigSzwVh": "0",
        "jb0WsR6n": "869e547aa30509bf99e22bae003aa8d7",
        "P_CREATEDATE": "2018-05-25 01:17:27",
        "P_UPDATEDATE": "2018-09-07 13:03:36"
    },
    {
        "P_RESOURCE_ID": "351",
        "P_RESOURCE_TYPE": "100",
        "P_RESOURCE_GROUP": "unit",
        "jsRoN50z": "http://resource.cdn.bravefrontier2.jp/bf2/resource/",
        "P_PATH": "unit",
        "P_GROUP_NAME": "unit",
        "P_FILE_NAME": "unit1_02.cpk",
        "P_EXT_IMG_PARAM": "\u30e6\u30cb\u30c3\u30c8\u30ea\u30bd\u30fc\u30b91_02",
        "aigSzwVh": "0",
        "jb0WsR6n": "b0157840f3302b19178ac37b9ac87b7b",
        "P_CREATEDATE": "2018-06-08 01:17:56",
        "P_UPDATEDATE": "2018-07-25 01:06:05"
    },
    {
        "P_RESOURCE_ID": "352",
        "P_RESOURCE_TYPE": "100",
        "P_RESOURCE_GROUP": "unit",
        "jsRoN50z": "http://resource.cdn.bravefrontier2.jp/bf2/resource/",
        "P_PATH": "unit",
        "P_GROUP_NAME": "unit",
        "P_FILE_NAME": "unit5_02.cpk",
        "P_EXT_IMG_PARAM": "\u30e6\u30cb\u30c3\u30c8\u30ea\u30bd\u30fc\u30b95_02",
        "aigSzwVh": "0",
        "jb0WsR6n": "745d6901dbf5c7892a7c092d53464d43",
        "P_CREATEDATE": "2018-06-08 01:18:13",
        "P_UPDATEDATE": "2018-08-25 01:10:40"
    },
    {
        "P_RESOURCE_ID": "353",
        "P_RESOURCE_TYPE": "100",
        "P_RESOURCE_GROUP": "unit",
        "jsRoN50z": "http://resource.cdn.bravefrontier2.jp/bf2/resource/",
        "P_PATH": "unit",
        "P_GROUP_NAME": "unit",
        "P_FILE_NAME": "unit2_02.cpk",
        "P_EXT_IMG_PARAM": "\u30e6\u30cb\u30c3\u30c8\u30ea\u30bd\u30fc\u30b92_02",
        "aigSzwVh": "0",
        "jb0WsR6n": "158c343f3f64fab2d5bfda314b285093",
        "P_CREATEDATE": "2018-06-25 02:19:52",
        "P_UPDATEDATE": "2018-07-25 01:06:22"
    },
    {
        "P_RESOURCE_ID": "354",
        "P_RESOURCE_TYPE": "100",
        "P_RESOURCE_GROUP": "unit",
        "jsRoN50z": "http://resource.cdn.bravefrontier2.jp/bf2/resource/",
        "P_PATH": "unit",
        "P_GROUP_NAME": "unit",
        "P_FILE_NAME": "unit3_02.cpk",
        "P_EXT_IMG_PARAM": "\u30e6\u30cb\u30c3\u30c8\u30ea\u30bd\u30fc\u30b93_02",
        "aigSzwVh": "0",
        "jb0WsR6n": "d00e856ecbc80272d0ff930f50a9271d",
        "P_CREATEDATE": "2018-06-25 02:20:29",
        "P_UPDATEDATE": "2018-09-07 13:05:23"
    },
    {
        "P_RESOURCE_ID": "355",
        "P_RESOURCE_TYPE": "100",
        "P_RESOURCE_GROUP": "unit",
        "jsRoN50z": "http://resource.cdn.bravefrontier2.jp/bf2/resource/",
        "P_PATH": "unit",
        "P_GROUP_NAME": "unit",
        "P_FILE_NAME": "unit4_02.cpk",
        "P_EXT_IMG_PARAM": "\u30e6\u30cb\u30c3\u30c8\u30ea\u30bd\u30fc\u30b94_02",
        "aigSzwVh": "0",
        "jb0WsR6n": "bdce5583934aad57020c20508a705b21",
        "P_CREATEDATE": "2018-06-25 02:20:56",
        "P_UPDATEDATE": "2018-09-07 13:05:24"
    },
    {
        "P_RESOURCE_ID": "356",
        "P_RESOURCE_TYPE": "100",
        "P_RESOURCE_GROUP": "unit",
        "jsRoN50z": "http://resource.cdn.bravefrontier2.jp/bf2/resource/",
        "P_PATH": "unit",
        "P_GROUP_NAME": "unit",
        "P_FILE_NAME": "unit6_02.cpk",
        "P_EXT_IMG_PARAM": "\u30e6\u30cb\u30c3\u30c8\u30ea\u30bd\u30fc\u30b96_02",
        "aigSzwVh": "0",
        "jb0WsR6n": "39d051c9694bf6cedd052301cc6a2417",
        "P_CREATEDATE": "2018-06-25 02:21:17",
        "P_UPDATEDATE": "2018-08-25 01:07:23"
    },
    {
        "P_RESOURCE_ID": "357",
        "P_RESOURCE_TYPE": "100",
        "P_RESOURCE_GROUP": "dungeon",
        "jsRoN50z": "http://resource.cdn.bravefrontier2.jp/bf2/resource/",
        "P_PATH": "dungeon",
        "P_GROUP_NAME": "dungeon",
        "P_FILE_NAME": "dungeon_battle_bg_3.cpk",
        "P_EXT_IMG_PARAM": "dungeon_battle_bg_3.cpk\uff08\u30d0\u30c8\u30eb\u80cc\u666f\u753b\u50cf\uff13\uff09",
        "aigSzwVh": "0",
        "jb0WsR6n": "fa540df235c2d01637226942528408ff",
        "P_CREATEDATE": "2018-06-25 02:21:51",
        "P_UPDATEDATE": "2018-07-25 01:09:02"
    },
    {
        "P_RESOURCE_ID": "358",
        "P_RESOURCE_TYPE": "100",
        "P_RESOURCE_GROUP": "dungeon",
        "jsRoN50z": "http://resource.cdn.bravefrontier2.jp/bf2/resource/",
        "P_PATH": "dungeon",
        "P_GROUP_NAME": "dungeon",
        "P_FILE_NAME": "dungeon_sq_battle_bg_2.cpk",
        "P_EXT_IMG_PARAM": "dungeon_sq_battle_bg_2.cpk\uff08\u30b9\u30c8\u30af\u30a8\u30d0\u30c8\u30eb\u80cc\u666f\u753b\u50cf2\uff09",
        "aigSzwVh": "0",
        "jb0WsR6n": "4d8370840ba03936abd240ee7ca4fdbd",
        "P_CREATEDATE": "2018-06-25 02:23:16",
        "P_UPDATEDATE": "2018-09-18 00:07:39"
    },
    {
        "P_RESOURCE_ID": "359",
        "P_RESOURCE_TYPE": "100",
        "P_RESOURCE_GROUP": "effectSS",
        "jsRoN50z": "http://resource.cdn.bravefrontier2.jp/bf2/resource/",
        "P_PATH": "effectSS",
        "P_GROUP_NAME": "effectSS",
        "P_FILE_NAME": "effectSS_bg_sq_battle_2.cpk",
        "P_EXT_IMG_PARAM": "effectSS_bg_sq_battle_2.cpk\uff08\u30b9\u30c8\u30af\u30a8\u30c0\u30f3\u30b8\u30e7\u30f3\u80cc\u666f\u30a2\u30cb\u30e1\uff12\uff09",
        "aigSzwVh": "0",
        "jb0WsR6n": "4c0721fd53bbdc9a8ae4e898ee2e3b79",
        "P_CREATEDATE": "2018-06-25 02:25:16",
        "P_UPDATEDATE": "2018-09-07 13:03:08"
    },
    {
        "P_RESOURCE_ID": "360",
        "P_RESOURCE_TYPE": "100",
        "P_RESOURCE_GROUP": "effectSS",
        "jsRoN50z": "http://resource.cdn.bravefrontier2.jp/bf2/resource/",
        "P_PATH": "effectSS",
        "P_GROUP_NAME": "effectSS",
        "P_FILE_NAME": "effectSS_bg_battle_3.cpk",
        "P_EXT_IMG_PARAM": "effectSS_bg_battle_3.cpk\uff08\u30c0\u30f3\u30b8\u30e7\u30f3\u80cc\u666f\u30a2\u30cb\u30e1\uff13\uff09",
        "aigSzwVh": "0",
        "jb0WsR6n": "b08c41582b212f25e2de620574e7da04",
        "P_CREATEDATE": "2018-06-25 02:25:42",
        "P_UPDATEDATE": "2018-07-25 01:10:14"
    },
    {
        "P_RESOURCE_ID": "361",
        "P_RESOURCE_TYPE": "100",
        "P_RESOURCE_GROUP": "event",
        "jsRoN50z": "http://resource.cdn.bravefrontier2.jp/bf2/resource/",
        "P_PATH": "event",
        "P_GROUP_NAME": "event",
        "P_FILE_NAME": "event_navi_full_151_180.cpk",
        "P_EXT_IMG_PARAM": "\u30ca\u30d3\u30ad\u30e3\u30e9\u5168\u8eab\u753b\u50cfID\uff1a151\uff5e180",
        "aigSzwVh": "0",
        "jb0WsR6n": "330968e310fc3a76b5f51367bbd8f65d",
        "P_CREATEDATE": "2018-06-25 02:26:20",
        "P_UPDATEDATE": "2018-09-07 13:03:35"
    },
    {
        "P_RESOURCE_ID": "362",
        "P_RESOURCE_TYPE": "100",
        "P_RESOURCE_GROUP": "sound",
        "jsRoN50z": "http://resource.cdn.bravefrontier2.jp/bf2/resource/",
        "P_PATH": "sound",
        "P_GROUP_NAME": "sound",
        "P_FILE_NAME": "BF2_064_btl_devilcastle.acb",
        "P_EXT_IMG_PARAM": "BF2_064_btl_devilcastle.acb",
        "aigSzwVh": "0",
        "jb0WsR6n": "15b97213bc4d33b9ff510b881cfd2d00",
        "P_CREATEDATE": "2018-06-25 02:27:21",
        "P_UPDATEDATE": "2018-06-25 02:27:21"
    },
    {
        "P_RESOURCE_ID": "363",
        "P_RESOURCE_TYPE": "100",
        "P_RESOURCE_GROUP": "sound",
        "jsRoN50z": "http://resource.cdn.bravefrontier2.jp/bf2/resource/",
        "P_PATH": "sound",
        "P_GROUP_NAME": "sound",
        "P_FILE_NAME": "BF1_1049_btl_raid_boss.acb",
        "P_EXT_IMG_PARAM": "BF1_1049_btl_raid_boss.acb",
        "aigSzwVh": "",
        "jb0WsR6n": "8fcd9cd138d49c9d4d97706f2c9796f7",
        "P_CREATEDATE": "2018-07-10 02:39:45",
        "P_UPDATEDATE": "2018-07-10 02:39:45"
    },
    {
        "P_RESOURCE_ID": "364",
        "P_RESOURCE_TYPE": "1",
        "P_RESOURCE_GROUP": "dungeon",
        "jsRoN50z": "http://resource.cdn.bravefrontier2.jp/bf2/resource/",
        "P_PATH": "dungeon",
        "P_GROUP_NAME": "dungeon",
        "P_FILE_NAME": "tuto_dungeon_battle_bg.cpk",
        "P_EXT_IMG_PARAM": "tuto_dungeon_battle_bg.cpk\uff08\u5148\u884cDL\u7528\uff09",
        "aigSzwVh": "0",
        "jb0WsR6n": "8e656a0eadad4abfe32ab53ee02d4dc4",
        "P_CREATEDATE": "2018-07-25 01:05:08",
        "P_UPDATEDATE": "2018-07-25 01:05:08"
    },
    {
        "P_RESOURCE_ID": "365",
        "P_RESOURCE_TYPE": "1",
        "P_RESOURCE_GROUP": "dungeon",
        "jsRoN50z": "http://resource.cdn.bravefrontier2.jp/bf2/resource/",
        "P_PATH": "dungeon",
        "P_GROUP_NAME": "dungeon",
        "P_FILE_NAME": "tuto_dungeon_event_bg.cpk",
        "P_EXT_IMG_PARAM": "tuto_dungeon_event_bg.cpk\uff08\u5148\u884cDL\u7528\uff09",
        "aigSzwVh": "0",
        "jb0WsR6n": "21aa8566ea7c6b37b39ba4c89d1f7fc3",
        "P_CREATEDATE": "2018-07-25 01:05:08",
        "P_UPDATEDATE": "2018-07-25 01:05:08"
    },
    {
        "P_RESOURCE_ID": "366",
        "P_RESOURCE_TYPE": "1",
        "P_RESOURCE_GROUP": "effectSS",
        "jsRoN50z": "http://resource.cdn.bravefrontier2.jp/bf2/resource/",
        "P_PATH": "effectSS",
        "P_GROUP_NAME": "effectSS",
        "P_FILE_NAME": "tuto_effectSS_bg_event.cpk",
        "P_EXT_IMG_PARAM": "tuto_effectSS_bg_event.cpk\uff08\u5148\u884cDL\u7528\uff09",
        "aigSzwVh": "0",
        "jb0WsR6n": "b9aef2bacdc58c48fecd4595fa190f15",
        "P_CREATEDATE": "2018-07-25 01:06:04",
        "P_UPDATEDATE": "2018-07-25 01:06:04"
    },
    {
        "P_RESOURCE_ID": "367",
        "P_RESOURCE_TYPE": "1",
        "P_RESOURCE_GROUP": "effectSS",
        "jsRoN50z": "http://resource.cdn.bravefrontier2.jp/bf2/resource/",
        "P_PATH": "effectSS",
        "P_GROUP_NAME": "effectSS",
        "P_FILE_NAME": "tuto_effectSS_script_effect.cpk",
        "P_EXT_IMG_PARAM": "tuto_effectSS_script_effect.cpk\uff08\u5148\u884cDL\u7528\uff09",
        "aigSzwVh": "0",
        "jb0WsR6n": "b4fe1f2d46c152600babdd9e74c355f6",
        "P_CREATEDATE": "2018-07-25 01:06:05",
        "P_UPDATEDATE": "2018-07-25 01:06:05"
    },
    {
        "P_RESOURCE_ID": "368",
        "P_RESOURCE_TYPE": "1",
        "P_RESOURCE_GROUP": "effectSS",
        "jsRoN50z": "http://resource.cdn.bravefrontier2.jp/bf2/resource/",
        "P_PATH": "effectSS",
        "P_GROUP_NAME": "effectSS",
        "P_FILE_NAME": "tuto_effectSS_xbb_cutin20.cpk",
        "P_EXT_IMG_PARAM": "tuto_effectSS_xbb_cutin20.cpk\uff08\u5148\u884cDL\u7528\uff09",
        "aigSzwVh": "0",
        "jb0WsR6n": "d4a4d21da77fa47801e3902736eed142",
        "P_CREATEDATE": "2018-07-25 01:06:05",
        "P_UPDATEDATE": "2018-07-25 01:06:05"
    },
    {
        "P_RESOURCE_ID": "369",
        "P_RESOURCE_TYPE": "1",
        "P_RESOURCE_GROUP": "effectSS",
        "jsRoN50z": "http://resource.cdn.bravefrontier2.jp/bf2/resource/",
        "P_PATH": "effectSS",
        "P_GROUP_NAME": "effectSS",
        "P_FILE_NAME": "tuto_effectSS_bg_battle.cpk",
        "P_EXT_IMG_PARAM": "tuto_effectSS_bg_battle.cpk\uff08\u5148\u884cDL\u7528\uff09",
        "aigSzwVh": "0",
        "jb0WsR6n": "7e9e774025e4ca37dba7df5970044e86",
        "P_CREATEDATE": "2018-07-25 01:06:05",
        "P_UPDATEDATE": "2018-07-25 01:06:05"
    },
    {
        "P_RESOURCE_ID": "370",
        "P_RESOURCE_TYPE": "1",
        "P_RESOURCE_GROUP": "event",
        "jsRoN50z": "http://resource.cdn.bravefrontier2.jp/bf2/resource/",
        "P_PATH": "event",
        "P_GROUP_NAME": "event",
        "P_FILE_NAME": "tuto_event_navi_full.cpk",
        "P_EXT_IMG_PARAM": "tuto_event_navi_full.cpk\uff08\u5148\u884cDL\u7528\uff09",
        "aigSzwVh": "0",
        "jb0WsR6n": "5aa8b186326db5fe0b0ac8efacfd4ebf",
        "P_CREATEDATE": "2018-07-25 01:07:15",
        "P_UPDATEDATE": "2018-07-25 01:07:15"
    },
    {
        "P_RESOURCE_ID": "371",
        "P_RESOURCE_TYPE": "1",
        "P_RESOURCE_GROUP": "event",
        "jsRoN50z": "http://resource.cdn.bravefrontier2.jp/bf2/resource/",
        "P_PATH": "event",
        "P_GROUP_NAME": "event",
        "P_FILE_NAME": "tuto_event_navi_thumbnail.cpk",
        "P_EXT_IMG_PARAM": "tuto_event_navi_thumbnail.cpk\uff08\u5148\u884cDL\u7528\uff09",
        "aigSzwVh": "0",
        "jb0WsR6n": "434ca8aa10221d2fcdad3537fab7dba7",
        "P_CREATEDATE": "2018-07-25 01:07:15",
        "P_UPDATEDATE": "2018-07-25 01:07:15"
    },
    {
        "P_RESOURCE_ID": "372",
        "P_RESOURCE_TYPE": "1",
        "P_RESOURCE_GROUP": "unit",
        "jsRoN50z": "http://resource.cdn.bravefrontier2.jp/bf2/resource/",
        "P_PATH": "unit",
        "P_GROUP_NAME": "unit",
        "P_FILE_NAME": "tuto_unit.cpk",
        "P_EXT_IMG_PARAM": "tuto_unit.cpk\uff08\u5148\u884cDL\u7528\uff09",
        "aigSzwVh": "0",
        "jb0WsR6n": "ac6aedfebae73cb1b0134747bf0c82a1",
        "P_CREATEDATE": "2018-07-25 01:07:58",
        "P_UPDATEDATE": "2018-07-25 01:07:58"
    },
    {
        "P_RESOURCE_ID": "373",
        "P_RESOURCE_TYPE": "1",
        "P_RESOURCE_GROUP": "unit",
        "jsRoN50z": "http://resource.cdn.bravefrontier2.jp/bf2/resource/",
        "P_PATH": "unit",
        "P_GROUP_NAME": "unit",
        "P_FILE_NAME": "tuto_unit_arms.cpk",
        "P_EXT_IMG_PARAM": "tuto_unit_arms.cpk\uff08\u5148\u884cDL\u7528\uff09",
        "aigSzwVh": "0",
        "jb0WsR6n": "daf895af23126b7d86c031a394c5acfe",
        "P_CREATEDATE": "2018-07-25 01:07:58",
        "P_UPDATEDATE": "2018-07-25 01:07:58"
    },
    {
        "P_RESOURCE_ID": "374",
        "P_RESOURCE_TYPE": "100",
        "P_RESOURCE_GROUP": "effectSS",
        "jsRoN50z": "http://resource.cdn.bravefrontier2.jp/bf2/resource/",
        "P_PATH": "effectSS",
        "P_GROUP_NAME": "effectSS",
        "P_FILE_NAME": "effectSS_xbb_cutin20_03.cpk",
        "P_EXT_IMG_PARAM": "effectSS_xbb_cutin20_03.cpk",
        "aigSzwVh": "0",
        "jb0WsR6n": "c64565c2a7e657b527db4a01521a8387",
        "P_CREATEDATE": "2018-07-25 01:10:17",
        "P_UPDATEDATE": "2018-08-30 13:07:02"
    },
    {
        "P_RESOURCE_ID": "375",
        "P_RESOURCE_TYPE": "100",
        "P_RESOURCE_GROUP": "sound",
        "jsRoN50z": "http://resource.cdn.bravefrontier2.jp/bf2/resource/",
        "P_PATH": "sound",
        "P_GROUP_NAME": "sound",
        "P_FILE_NAME": "BF2_065_exg_arenatopjz.acb",
        "P_EXT_IMG_PARAM": "BF2_065_exg_arenatopjz.acb",
        "aigSzwVh": "0",
        "jb0WsR6n": "0c6776a1ea337811d140859bb910ad34",
        "P_CREATEDATE": "2018-08-08 13:03:57",
        "P_UPDATEDATE": "2018-08-08 13:03:57"
    },
    {
        "P_RESOURCE_ID": "376",
        "P_RESOURCE_TYPE": "100",
        "P_RESOURCE_GROUP": "sound",
        "jsRoN50z": "http://resource.cdn.bravefrontier2.jp/bf2/resource/",
        "P_PATH": "sound",
        "P_GROUP_NAME": "sound",
        "P_FILE_NAME": "BF2_066_exg_arenabtljz.acb",
        "P_EXT_IMG_PARAM": "BF2_066_exg_arenabtljz.acb",
        "aigSzwVh": "0",
        "jb0WsR6n": "c2bf304a3903e6d928f48abdd681e8d0",
        "P_CREATEDATE": "2018-08-08 13:04:16",
        "P_UPDATEDATE": "2018-08-08 13:04:16"
    },
    {
        "P_RESOURCE_ID": "377",
        "P_RESOURCE_TYPE": "100",
        "P_RESOURCE_GROUP": "sound",
        "jsRoN50z": "http://resource.cdn.bravefrontier2.jp/bf2/resource/",
        "P_PATH": "sound",
        "P_GROUP_NAME": "sound",
        "P_FILE_NAME": "BF1_1018_btl_sand.acb",
        "P_EXT_IMG_PARAM": "BF1_1018_btl_sand.acb",
        "aigSzwVh": "0",
        "jb0WsR6n": "d214c2124f7105bc34a7646d253f3faf",
        "P_CREATEDATE": "2018-08-16 02:19:07",
        "P_UPDATEDATE": "2018-08-16 02:19:07"
    },
    {
        "P_RESOURCE_ID": "378",
        "P_RESOURCE_TYPE": "100",
        "P_RESOURCE_GROUP": "sound",
        "jsRoN50z": "http://resource.cdn.bravefrontier2.jp/bf2/resource/",
        "P_PATH": "sound",
        "P_GROUP_NAME": "sound",
        "P_FILE_NAME": "BF1_1021_btl_wasteland02.acb",
        "P_EXT_IMG_PARAM": "BF1_1021_btl_wasteland02.acb",
        "aigSzwVh": "0",
        "jb0WsR6n": "3fb1f90f5b0dc92d951094a94850ed30",
        "P_CREATEDATE": "2018-08-16 02:19:07",
        "P_UPDATEDATE": "2018-08-16 02:19:07"
    },
    {
        "P_RESOURCE_ID": "379",
        "P_RESOURCE_TYPE": "100",
        "P_RESOURCE_GROUP": "sound",
        "jsRoN50z": "http://resource.cdn.bravefrontier2.jp/bf2/resource/",
        "P_PATH": "sound",
        "P_GROUP_NAME": "sound",
        "P_FILE_NAME": "BF2_067_btl_sw_maintitle.acb",
        "P_EXT_IMG_PARAM": "BF2_067_btl_sw_maintitle.acb",
        "aigSzwVh": "0",
        "jb0WsR6n": "a9b4f0382c012a677c62d34e1bc7cbea",
        "P_CREATEDATE": "2018-08-25 01:05:07",
        "P_UPDATEDATE": "2018-08-25 01:05:07"
    },
    {
        "P_RESOURCE_ID": "380",
        "P_RESOURCE_TYPE": "100",
        "P_RESOURCE_GROUP": "sound",
        "jsRoN50z": "http://resource.cdn.bravefrontier2.jp/bf2/resource/",
        "P_PATH": "sound",
        "P_GROUP_NAME": "sound",
        "P_FILE_NAME": "BF2_068_btl_sw_theimperialmarch.acb",
        "P_EXT_IMG_PARAM": "BF2_068_btl_sw_theimperialmarch.acb",
        "aigSzwVh": "0",
        "jb0WsR6n": "f554f83c31a1f31257b3f16e47f8dcc2",
        "P_CREATEDATE": "2018-08-25 01:05:39",
        "P_UPDATEDATE": "2018-08-25 01:05:39"
    },
    {
        "P_RESOURCE_ID": "381",
        "P_RESOURCE_TYPE": "100",
        "P_RESOURCE_GROUP": "sound",
        "jsRoN50z": "http://resource.cdn.bravefrontier2.jp/bf2/resource/",
        "P_PATH": "sound",
        "P_GROUP_NAME": "sound",
        "P_FILE_NAME": "BF2_069_btl_sw_thebattleofendor1.acb",
        "P_EXT_IMG_PARAM": "BF2_069_btl_sw_thebattleofendor1.acb",
        "aigSzwVh": "0",
        "jb0WsR6n": "b34bbbfab517b988597a26f041a27991",
        "P_CREATEDATE": "2018-08-25 01:05:39",
        "P_UPDATEDATE": "2018-08-25 01:05:39"
    },
    {
        "P_RESOURCE_ID": "382",
        "P_RESOURCE_TYPE": "100",
        "P_RESOURCE_GROUP": "sound",
        "jsRoN50z": "http://resource.cdn.bravefrontier2.jp/bf2/resource/",
        "P_PATH": "sound",
        "P_GROUP_NAME": "sound",
        "P_FILE_NAME": "BF2_070_btl_sw_theforestbattle.acb",
        "P_EXT_IMG_PARAM": "BF2_070_btl_sw_theforestbattle.acb",
        "aigSzwVh": "0",
        "jb0WsR6n": "5a70b4f5ef1ee1ddfa695efeaf0d9ad5",
        "P_CREATEDATE": "2018-08-25 01:05:39",
        "P_UPDATEDATE": "2018-08-25 01:05:39"
    },
    {
        "P_RESOURCE_ID": "383",
        "P_RESOURCE_TYPE": "100",
        "P_RESOURCE_GROUP": "sound",
        "jsRoN50z": "http://resource.cdn.bravefrontier2.jp/bf2/resource/",
        "P_PATH": "sound",
        "P_GROUP_NAME": "sound",
        "P_FILE_NAME": "BF2_071_btl_sw_thebattleofhoth.acb",
        "P_EXT_IMG_PARAM": "BF2_071_btl_sw_thebattleofhoth.acb",
        "aigSzwVh": "0",
        "jb0WsR6n": "4ecff49e06a4f2ae30bf0791393caf14",
        "P_CREATEDATE": "2018-08-25 01:05:39",
        "P_UPDATEDATE": "2018-08-25 01:05:39"
    },
    {
        "P_RESOURCE_ID": "384",
        "P_RESOURCE_TYPE": "100",
        "P_RESOURCE_GROUP": "effectSS",
        "jsRoN50z": "http://resource.cdn.bravefrontier2.jp/bf2/resource/",
        "P_PATH": "effectSS",
        "P_GROUP_NAME": "effectSS",
        "P_FILE_NAME": "effectSS_xbb_cutin20_04.cpk",
        "P_EXT_IMG_PARAM": "effectSS_xbb_cutin20_04.cpk",
        "aigSzwVh": "0",
        "jb0WsR6n": "65be60e10346e7be3f3e0a8ed9455931",
        "P_CREATEDATE": "2018-09-07 13:03:07",
        "P_UPDATEDATE": "2018-09-07 13:03:07"
    },
    {
        "P_RESOURCE_ID": "385",
        "P_RESOURCE_TYPE": "100",
        "P_RESOURCE_GROUP": "summon",
        "jsRoN50z": "http://resource.cdn.bravefrontier2.jp/bf2/resource/",
        "P_PATH": "summon",
        "P_GROUP_NAME": "summon",
        "P_FILE_NAME": "summon_02.cpk",
        "P_EXT_IMG_PARAM": "summon_02.cpk",
        "aigSzwVh": "0",
        "jb0WsR6n": "23c1604c06666f3d39032de345152a52",
        "P_CREATEDATE": "2018-09-07 13:04:46",
        "P_UPDATEDATE": "2018-09-07 13:04:46"
    }
]