[
    {
        "P_RESOURCE_ID": "2",
        "P_RESOURCE_TYPE": "100",
        "P_RESOURCE_GROUP": "",
        "P_PATH": "area",
        "P_GROUP_NAME": "area",
        "P_FILE_NAME": "area.cpk",
        "P_EXT_IMG_PARAM": "\u30a8\u30ea\u30a2\u30ea\u30bd\u30fc\u30b9",
        "P_CREATEDATE": "1899-12-30 01:00:00",
        "P_UPDATEDATE": "2017-06-01 16:58:24"
    },
    {
        "P_RESOURCE_ID": "4",
        "P_RESOURCE_TYPE": "100",
        "P_RESOURCE_GROUP": "",
        "P_PATH": "script",
        "P_GROUP_NAME": "event",
        "P_FILE_NAME": "script.cpk",
        "P_EXT_IMG_PARAM": "\u30b9\u30af\u30ea\u30d7\u30c8",
        "P_CREATEDATE": "1899-12-30 01:00:00",
        "P_UPDATEDATE": "2018-01-26 17:27:12"
    },
    {
        "P_RESOURCE_ID": "5",
        "P_RESOURCE_TYPE": "100",
        "P_RESOURCE_GROUP": "",
        "P_PATH": "item",
        "P_GROUP_NAME": "item",
        "P_FILE_NAME": "item.cpk",
        "P_EXT_IMG_PARAM": "\u30a2\u30a4\u30c6\u30e0",
        "P_CREATEDATE": "1899-12-30 01:00:00",
        "P_UPDATEDATE": "2017-06-01 16:58:24"
    },
    {
        "P_RESOURCE_ID": "7",
        "P_RESOURCE_TYPE": "100",
        "P_RESOURCE_GROUP": "",
        "P_PATH": "summon",
        "P_GROUP_NAME": "summon",
        "P_FILE_NAME": "summon.cpk",
        "P_EXT_IMG_PARAM": "\u30e6\u30cb\u30c3\u30c8\u53ec\u559a",
        "P_CREATEDATE": "1899-12-30 01:00:00",
        "P_UPDATEDATE": "2017-06-01 16:58:24"
    },
    {
        "P_RESOURCE_ID": "9",
        "P_RESOURCE_TYPE": "100",
        "P_RESOURCE_GROUP": "weapon",
        "P_PATH": "weapon",
        "P_GROUP_NAME": "weapon",
        "P_FILE_NAME": "weapon.cpk",
        "P_EXT_IMG_PARAM": "\u6b66\u5668",
        "P_CREATEDATE": "2017-07-20 20:23:43",
        "P_UPDATEDATE": "2017-07-20 20:23:45"
    },
    {
        "P_RESOURCE_ID": "10",
        "P_RESOURCE_TYPE": "100",
        "P_RESOURCE_GROUP": "xbb",
        "P_PATH": "xbb",
        "P_GROUP_NAME": "xbb",
        "P_FILE_NAME": "xbb.cpk",
        "P_EXT_IMG_PARAM": "XBB",
        "P_CREATEDATE": "2017-07-25 14:39:13",
        "P_UPDATEDATE": "2017-07-25 14:39:13"
    },
    {
        "P_RESOURCE_ID": "11",
        "P_RESOURCE_TYPE": "100",
        "P_RESOURCE_GROUP": "effectSG",
        "P_PATH": "effectSG",
        "P_GROUP_NAME": "effectSG",
        "P_FILE_NAME": "effectSG.cpk",
        "P_EXT_IMG_PARAM": "\u30a8\u30d5\u30a7\u30af\u30c8\u30b9\u30d1\u30fc\u30af\u30ae\u30a2",
        "P_CREATEDATE": "2017-07-26 18:52:35",
        "P_UPDATEDATE": "2017-07-26 18:52:35"
    },
    {
        "P_RESOURCE_ID": "13",
        "P_RESOURCE_TYPE": "100",
        "P_RESOURCE_GROUP": "monster",
        "P_PATH": "monster",
        "P_GROUP_NAME": "monster",
        "P_FILE_NAME": "monster.cpk",
        "P_EXT_IMG_PARAM": "\u30e2\u30f3\u30b9\u30bf\u30fc\u30ea\u30bd\u30fc\u30b9",
        "P_CREATEDATE": "2017-08-10 16:25:14",
        "P_UPDATEDATE": "2017-08-10 16:25:14"
    },
    {
        "P_RESOURCE_ID": "14",
        "P_RESOURCE_TYPE": "100",
        "P_RESOURCE_GROUP": "library",
        "P_PATH": "library",
        "P_GROUP_NAME": "library",
        "P_FILE_NAME": "library.cpk",
        "P_EXT_IMG_PARAM": "\u56f3\u9451",
        "P_CREATEDATE": "2017-08-25 20:08:10",
        "P_UPDATEDATE": "2017-08-25 20:08:10"
    },
    {
        "P_RESOURCE_ID": "15",
        "P_RESOURCE_TYPE": "100",
        "P_RESOURCE_GROUP": "banner",
        "P_PATH": "banner",
        "P_GROUP_NAME": "banner",
        "P_FILE_NAME": "banner.cpk",
        "P_EXT_IMG_PARAM": "\u30d0\u30ca\u30fc",
        "P_CREATEDATE": "2017-09-20 19:06:01",
        "P_UPDATEDATE": "2017-09-20 19:06:01"
    },
    {
        "P_RESOURCE_ID": "211",
        "P_RESOURCE_TYPE": "100",
        "P_RESOURCE_GROUP": "book",
        "P_PATH": "book",
        "P_GROUP_NAME": "book",
        "P_FILE_NAME": "book.cpk",
        "P_EXT_IMG_PARAM": "\u30d6\u30c3\u30af",
        "P_CREATEDATE": "2017-09-25 15:02:21",
        "P_UPDATEDATE": "2017-09-25 15:02:21"
    },
    {
        "P_RESOURCE_ID": "213",
        "P_RESOURCE_TYPE": "100",
        "P_RESOURCE_GROUP": "partner",
        "P_PATH": "partner",
        "P_GROUP_NAME": "partner",
        "P_FILE_NAME": "partner.cpk",
        "P_EXT_IMG_PARAM": "\u30d1\u30fc\u30c8\u30ca\u30fc",
        "P_CREATEDATE": "2017-09-28 19:13:20",
        "P_UPDATEDATE": "2017-09-28 19:13:20"
    },
    {
        "P_RESOURCE_ID": "217",
        "P_RESOURCE_TYPE": "100",
        "P_RESOURCE_GROUP": "sound",
        "P_PATH": "sound",
        "P_GROUP_NAME": "sound",
        "P_FILE_NAME": "SE.acb",
        "P_EXT_IMG_PARAM": "SE",
        "P_CREATEDATE": "2017-11-17 22:02:31",
        "P_UPDATEDATE": "2017-11-17 22:02:31"
    },
    {
        "P_RESOURCE_ID": "218",
        "P_RESOURCE_TYPE": "100",
        "P_RESOURCE_GROUP": "sound",
        "P_PATH": "sound",
        "P_GROUP_NAME": "sound",
        "P_FILE_NAME": "JINGLE.acb",
        "P_EXT_IMG_PARAM": "\u30b8\u30f3\u30b0\u30eb",
        "P_CREATEDATE": "2017-11-17 22:12:42",
        "P_UPDATEDATE": "2017-11-17 22:12:42"
    },
    {
        "P_RESOURCE_ID": "219",
        "P_RESOURCE_TYPE": "100",
        "P_RESOURCE_GROUP": "sound",
        "P_PATH": "sound",
        "P_GROUP_NAME": "sound",
        "P_FILE_NAME": "BF2_001_ttl_top.acb",
        "P_EXT_IMG_PARAM": "\u30bf\u30a4\u30c8\u30eb",
        "P_CREATEDATE": "2017-12-23 17:19:16",
        "P_UPDATEDATE": "2017-12-23 17:19:16"
    },
    {
        "P_RESOURCE_ID": "220",
        "P_RESOURCE_TYPE": "100",
        "P_RESOURCE_GROUP": "sound",
        "P_PATH": "sound",
        "P_GROUP_NAME": "sound",
        "P_FILE_NAME": "BF2_002_hom_hero.acb",
        "P_EXT_IMG_PARAM": "\u30db\u30fc\u30e0\u753b\u9762\uff08\u4e3b\u4eba\u516c\uff09",
        "P_CREATEDATE": "2017-12-23 17:20:30",
        "P_UPDATEDATE": "2017-12-23 17:20:30"
    },
    {
        "P_RESOURCE_ID": "221",
        "P_RESOURCE_TYPE": "100",
        "P_RESOURCE_GROUP": "sound",
        "P_PATH": "sound",
        "P_GROUP_NAME": "sound",
        "P_FILE_NAME": "BF2_003_hom_heroine.acb",
        "P_EXT_IMG_PARAM": "\u30db\u30fc\u30e0\u753b\u9762\uff08\u30ea\u30f3\uff09",
        "P_CREATEDATE": "2017-12-23 17:20:56",
        "P_UPDATEDATE": "2017-12-23 17:20:56"
    },
    {
        "P_RESOURCE_ID": "222",
        "P_RESOURCE_TYPE": "100",
        "P_RESOURCE_GROUP": "sound",
        "P_PATH": "sound",
        "P_GROUP_NAME": "sound",
        "P_FILE_NAME": "BF2_004_hom_join.acb",
        "P_EXT_IMG_PARAM": "\u30db\u30fc\u30e0\u753b\u9762\uff08\u5408\u6d41\u5f8c\uff09",
        "P_CREATEDATE": "2017-12-23 17:21:15",
        "P_UPDATEDATE": "2017-12-23 17:21:15"
    },
    {
        "P_RESOURCE_ID": "223",
        "P_RESOURCE_TYPE": "100",
        "P_RESOURCE_GROUP": "sound",
        "P_PATH": "sound",
        "P_GROUP_NAME": "sound",
        "P_FILE_NAME": "BF2_005_arn_top.acb",
        "P_EXT_IMG_PARAM": "\u30a2\u30ea\u30fc\u30ca\u30c8\u30c3\u30d7",
        "P_CREATEDATE": "2017-12-23 17:21:36",
        "P_UPDATEDATE": "2017-12-23 17:21:36"
    },
    {
        "P_RESOURCE_ID": "224",
        "P_RESOURCE_TYPE": "100",
        "P_RESOURCE_GROUP": "sound",
        "P_PATH": "sound",
        "P_GROUP_NAME": "sound",
        "P_FILE_NAME": "BF2_006_arn_battle.acb",
        "P_EXT_IMG_PARAM": "\u30a2\u30ea\u30fc\u30ca\u30d0\u30c8\u30eb",
        "P_CREATEDATE": "2017-12-23 17:21:57",
        "P_UPDATEDATE": "2017-12-23 17:21:57"
    },
    {
        "P_RESOURCE_ID": "225",
        "P_RESOURCE_TYPE": "100",
        "P_RESOURCE_GROUP": "sound",
        "P_PATH": "sound",
        "P_GROUP_NAME": "sound",
        "P_FILE_NAME": "BF2_007_rdl_randall.acb",
        "P_EXT_IMG_PARAM": "\u30e9\u30f3\u30c9\u30fc\u30eb",
        "P_CREATEDATE": "2017-12-23 17:22:18",
        "P_UPDATEDATE": "2017-12-23 17:22:18"
    },
    {
        "P_RESOURCE_ID": "226",
        "P_RESOURCE_TYPE": "100",
        "P_RESOURCE_GROUP": "sound",
        "P_PATH": "sound",
        "P_GROUP_NAME": "sound",
        "P_FILE_NAME": "BF2_008_btl_result.acb",
        "P_EXT_IMG_PARAM": "\u30d0\u30c8\u30eb\u30ea\u30b6\u30eb\u30c8",
        "P_CREATEDATE": "2017-12-23 17:22:52",
        "P_UPDATEDATE": "2017-12-23 17:22:52"
    },
    {
        "P_RESOURCE_ID": "227",
        "P_RESOURCE_TYPE": "100",
        "P_RESOURCE_GROUP": "sound",
        "P_PATH": "sound",
        "P_GROUP_NAME": "sound",
        "P_FILE_NAME": "BF2_009_qst_top.acb",
        "P_EXT_IMG_PARAM": "\u30af\u30a8\u30b9\u30c8\u30c8\u30c3\u30d7",
        "P_CREATEDATE": "2017-12-23 17:23:11",
        "P_UPDATEDATE": "2017-12-23 17:23:11"
    },
    {
        "P_RESOURCE_ID": "228",
        "P_RESOURCE_TYPE": "100",
        "P_RESOURCE_GROUP": "sound",
        "P_PATH": "sound",
        "P_GROUP_NAME": "sound",
        "P_FILE_NAME": "BF2_010_qst_grangaia.acb",
        "P_EXT_IMG_PARAM": "\u30af\u30a8\u30b9\u30c8\uff08\u30b0\u30e9\u30f3\u30ac\u30a4\u30a2\uff09",
        "P_CREATEDATE": "2017-12-23 17:23:30",
        "P_UPDATEDATE": "2017-12-23 17:23:30"
    },
    {
        "P_RESOURCE_ID": "229",
        "P_RESOURCE_TYPE": "100",
        "P_RESOURCE_GROUP": "sound",
        "P_PATH": "sound",
        "P_GROUP_NAME": "sound",
        "P_FILE_NAME": "BF2_011_qst_bada-fana.acb",
        "P_EXT_IMG_PARAM": "\u30af\u30a8\u30b9\u30c8\uff08\u30d0\u30c0\u30fb\u30d5\u30a1\u30ca\uff09",
        "P_CREATEDATE": "2017-12-23 17:23:51",
        "P_UPDATEDATE": "2017-12-23 17:23:51"
    },
    {
        "P_RESOURCE_ID": "230",
        "P_RESOURCE_TYPE": "100",
        "P_RESOURCE_GROUP": "sound",
        "P_PATH": "sound",
        "P_GROUP_NAME": "sound",
        "P_FILE_NAME": "BF2_012_qst_extus.acb",
        "P_EXT_IMG_PARAM": "\u30af\u30a8\u30b9\u30c8\uff08\u30a4\u30af\u30b9\u30bf\u30b9\uff09",
        "P_CREATEDATE": "2017-12-23 17:24:20",
        "P_UPDATEDATE": "2017-12-23 17:24:20"
    },
    {
        "P_RESOURCE_ID": "231",
        "P_RESOURCE_TYPE": "100",
        "P_RESOURCE_GROUP": "sound",
        "P_PATH": "sound",
        "P_GROUP_NAME": "sound",
        "P_FILE_NAME": "BF2_013_qst_seltabia.acb",
        "P_EXT_IMG_PARAM": "\u30af\u30a8\u30b9\u30c8\uff08\u30bb\u30eb\u30bf\u30d3\u30a2\uff09",
        "P_CREATEDATE": "2017-12-23 17:24:40",
        "P_UPDATEDATE": "2017-12-23 17:24:40"
    },
    {
        "P_RESOURCE_ID": "232",
        "P_RESOURCE_TYPE": "100",
        "P_RESOURCE_GROUP": "sound",
        "P_PATH": "sound",
        "P_GROUP_NAME": "sound",
        "P_FILE_NAME": "BF2_014_hzm_top.acb",
        "P_EXT_IMG_PARAM": "\u30b2\u30fc\u30c8\u306e\u72ed\u9593",
        "P_CREATEDATE": "2017-12-23 17:25:03",
        "P_UPDATEDATE": "2017-12-23 17:25:03"
    },
    {
        "P_RESOURCE_ID": "233",
        "P_RESOURCE_TYPE": "100",
        "P_RESOURCE_GROUP": "sound",
        "P_PATH": "sound",
        "P_GROUP_NAME": "sound",
        "P_FILE_NAME": "BF2_020_thm_rumford.acb",
        "P_EXT_IMG_PARAM": "\u30e9\u30f3\u30d5\u30a9\u30fc\u30c9\u306e\u30c6\u30fc\u30de",
        "P_CREATEDATE": "2017-12-23 17:25:32",
        "P_UPDATEDATE": "2017-12-23 17:25:32"
    },
    {
        "P_RESOURCE_ID": "234",
        "P_RESOURCE_TYPE": "100",
        "P_RESOURCE_GROUP": "sound",
        "P_PATH": "sound",
        "P_GROUP_NAME": "sound",
        "P_FILE_NAME": "BF2_021_thm_elhaza.acb",
        "P_EXT_IMG_PARAM": "\u30a8\u30eb\u30cf\u30b6\u306e\u30c6\u30fc\u30de",
        "P_CREATEDATE": "2017-12-23 17:25:51",
        "P_UPDATEDATE": "2017-12-23 17:25:51"
    },
    {
        "P_RESOURCE_ID": "235",
        "P_RESOURCE_TYPE": "100",
        "P_RESOURCE_GROUP": "sound",
        "P_PATH": "sound",
        "P_GROUP_NAME": "sound",
        "P_FILE_NAME": "BF2_022_thm_shia.acb",
        "P_EXT_IMG_PARAM": "\u30b7\u30e3\u30a4\u30a2\u306e\u30c6\u30fc\u30de",
        "P_CREATEDATE": "2017-12-23 17:26:11",
        "P_UPDATEDATE": "2017-12-23 17:26:11"
    },
    {
        "P_RESOURCE_ID": "236",
        "P_RESOURCE_TYPE": "100",
        "P_RESOURCE_GROUP": "sound",
        "P_PATH": "sound",
        "P_GROUP_NAME": "sound",
        "P_FILE_NAME": "BF2_023_thm_melfel.acb",
        "P_EXT_IMG_PARAM": "\u30e1\u30eb\u30d5\u30a7\u30eb\u306e\u30c6\u30fc\u30de",
        "P_CREATEDATE": "2017-12-23 17:26:31",
        "P_UPDATEDATE": "2017-12-23 17:26:31"
    },
    {
        "P_RESOURCE_ID": "237",
        "P_RESOURCE_TYPE": "100",
        "P_RESOURCE_GROUP": "sound",
        "P_PATH": "sound",
        "P_GROUP_NAME": "sound",
        "P_FILE_NAME": "BF2_024_thm_barragan.acb",
        "P_EXT_IMG_PARAM": "\u30d0\u30e9\u30ac\u30f3\u306e\u30c6\u30fc\u30de",
        "P_CREATEDATE": "2017-12-23 17:26:53",
        "P_UPDATEDATE": "2017-12-23 17:26:53"
    },
    {
        "P_RESOURCE_ID": "238",
        "P_RESOURCE_TYPE": "100",
        "P_RESOURCE_GROUP": "sound",
        "P_PATH": "sound",
        "P_GROUP_NAME": "sound",
        "P_FILE_NAME": "BF2_025_thm_hilda.acb",
        "P_EXT_IMG_PARAM": "\u30d2\u30eb\u30c0\u306e\u30c6\u30fc\u30de",
        "P_CREATEDATE": "2017-12-23 17:27:13",
        "P_UPDATEDATE": "2017-12-23 17:27:13"
    },
    {
        "P_RESOURCE_ID": "239",
        "P_RESOURCE_TYPE": "100",
        "P_RESOURCE_GROUP": "sound",
        "P_PATH": "sound",
        "P_GROUP_NAME": "sound",
        "P_FILE_NAME": "BF2_026_thm_rene.acb",
        "P_EXT_IMG_PARAM": "\u30eb\u30cd\u306e\u30c6\u30fc\u30de",
        "P_CREATEDATE": "2017-12-23 17:27:34",
        "P_UPDATEDATE": "2017-12-23 17:27:34"
    },
    {
        "P_RESOURCE_ID": "240",
        "P_RESOURCE_TYPE": "100",
        "P_RESOURCE_GROUP": "sound",
        "P_PATH": "sound",
        "P_GROUP_NAME": "sound",
        "P_FILE_NAME": "BF2_027_thm_zad.acb",
        "P_EXT_IMG_PARAM": "\u30b6\u30c9\u306e\u30c6\u30fc\u30de",
        "P_CREATEDATE": "2017-12-23 17:27:56",
        "P_UPDATEDATE": "2017-12-23 17:27:56"
    },
    {
        "P_RESOURCE_ID": "241",
        "P_RESOURCE_TYPE": "100",
        "P_RESOURCE_GROUP": "sound",
        "P_PATH": "sound",
        "P_GROUP_NAME": "sound",
        "P_FILE_NAME": "BF2_028_scr_sad.acb",
        "P_EXT_IMG_PARAM": "\u30b7\u30fc\u30f3\u60b2\u58ee",
        "P_CREATEDATE": "2017-12-23 17:28:24",
        "P_UPDATEDATE": "2017-12-23 17:28:24"
    },
    {
        "P_RESOURCE_ID": "242",
        "P_RESOURCE_TYPE": "100",
        "P_RESOURCE_GROUP": "sound",
        "P_PATH": "sound",
        "P_GROUP_NAME": "sound",
        "P_FILE_NAME": "BF2_029_scr_brave.acb",
        "P_EXT_IMG_PARAM": "\u30b7\u30fc\u30f3\u52c7\u58ee",
        "P_CREATEDATE": "2017-12-23 17:28:46",
        "P_UPDATEDATE": "2017-12-23 17:28:46"
    },
    {
        "P_RESOURCE_ID": "243",
        "P_RESOURCE_TYPE": "100",
        "P_RESOURCE_GROUP": "sound",
        "P_PATH": "sound",
        "P_GROUP_NAME": "sound",
        "P_FILE_NAME": "BF2_030_scr_calm.acb",
        "P_EXT_IMG_PARAM": "\u30b7\u30fc\u30f3\u7a4f\u3084\u304b",
        "P_CREATEDATE": "2017-12-23 17:29:05",
        "P_UPDATEDATE": "2017-12-23 17:29:05"
    },
    {
        "P_RESOURCE_ID": "244",
        "P_RESOURCE_TYPE": "100",
        "P_RESOURCE_GROUP": "sound",
        "P_PATH": "sound",
        "P_GROUP_NAME": "sound",
        "P_FILE_NAME": "BF2_031_scr_pinch.acb",
        "P_EXT_IMG_PARAM": "\u30b7\u30fc\u30f3\u30d4\u30f3\u30c1",
        "P_CREATEDATE": "2017-12-23 17:29:25",
        "P_UPDATEDATE": "2017-12-23 17:29:25"
    },
    {
        "P_RESOURCE_ID": "245",
        "P_RESOURCE_TYPE": "100",
        "P_RESOURCE_GROUP": "sound",
        "P_PATH": "sound",
        "P_GROUP_NAME": "sound",
        "P_FILE_NAME": "BF2_032_scr_tension.acb",
        "P_EXT_IMG_PARAM": "\u30b7\u30fc\u30f3\u7dca\u5f35",
        "P_CREATEDATE": "2017-12-23 17:29:55",
        "P_UPDATEDATE": "2017-12-23 17:29:55"
    },
    {
        "P_RESOURCE_ID": "246",
        "P_RESOURCE_TYPE": "100",
        "P_RESOURCE_GROUP": "sound",
        "P_PATH": "sound",
        "P_GROUP_NAME": "sound",
        "P_FILE_NAME": "BF2_033_scr_mystery.acb",
        "P_EXT_IMG_PARAM": "\u30b7\u30fc\u30f3\u8b0e",
        "P_CREATEDATE": "2017-12-23 17:30:26",
        "P_UPDATEDATE": "2017-12-23 17:30:26"
    },
    {
        "P_RESOURCE_ID": "247",
        "P_RESOURCE_TYPE": "100",
        "P_RESOURCE_GROUP": "sound",
        "P_PATH": "sound",
        "P_GROUP_NAME": "sound",
        "P_FILE_NAME": "BF2_034_scr_anxiety.acb",
        "P_EXT_IMG_PARAM": "\u30b7\u30fc\u30f3\u4e0d\u5b89",
        "P_CREATEDATE": "2017-12-23 17:30:49",
        "P_UPDATEDATE": "2017-12-23 17:30:49"
    },
    {
        "P_RESOURCE_ID": "248",
        "P_RESOURCE_TYPE": "100",
        "P_RESOURCE_GROUP": "sound",
        "P_PATH": "sound",
        "P_GROUP_NAME": "sound",
        "P_FILE_NAME": "BF2_035_scr_peace.acb",
        "P_EXT_IMG_PARAM": "\u30b7\u30fc\u30f3\u5b89\u5835",
        "P_CREATEDATE": "2017-12-23 17:31:12",
        "P_UPDATEDATE": "2017-12-23 17:31:12"
    },
    {
        "P_RESOURCE_ID": "249",
        "P_RESOURCE_TYPE": "100",
        "P_RESOURCE_GROUP": "sound",
        "P_PATH": "sound",
        "P_GROUP_NAME": "sound",
        "P_FILE_NAME": "BF2_036_btl_7boss1.acb",
        "P_EXT_IMG_PARAM": "\u4e03\u9b54\u5c06\u30d0\u30c8\u30eb1",
        "P_CREATEDATE": "2017-12-23 17:31:41",
        "P_UPDATEDATE": "2017-12-23 17:31:41"
    },
    {
        "P_RESOURCE_ID": "250",
        "P_RESOURCE_TYPE": "100",
        "P_RESOURCE_GROUP": "sound",
        "P_PATH": "sound",
        "P_GROUP_NAME": "sound",
        "P_FILE_NAME": "BF2_037_btl_7boss2.acb",
        "P_EXT_IMG_PARAM": "\u4e03\u9b54\u5c06\u30d0\u30c8\u30eb2",
        "P_CREATEDATE": "2017-12-23 17:32:01",
        "P_UPDATEDATE": "2017-12-23 17:32:01"
    },
    {
        "P_RESOURCE_ID": "251",
        "P_RESOURCE_TYPE": "100",
        "P_RESOURCE_GROUP": "sound",
        "P_PATH": "sound",
        "P_GROUP_NAME": "sound",
        "P_FILE_NAME": "BF2_038_btl_mimic.acb",
        "P_EXT_IMG_PARAM": "\u30df\u30df\u30c3\u30af",
        "P_CREATEDATE": "2017-12-23 17:32:20",
        "P_UPDATEDATE": "2017-12-23 17:32:20"
    },
    {
        "P_RESOURCE_ID": "252",
        "P_RESOURCE_TYPE": "100",
        "P_RESOURCE_GROUP": "sound",
        "P_PATH": "sound",
        "P_GROUP_NAME": "sound",
        "P_FILE_NAME": "BF2_039_btl_boss01.acb",
        "P_EXT_IMG_PARAM": "\u30dc\u30b9\u30d0\u30c8\u30eb1",
        "P_CREATEDATE": "2017-12-23 17:32:41",
        "P_UPDATEDATE": "2017-12-23 17:32:41"
    },
    {
        "P_RESOURCE_ID": "253",
        "P_RESOURCE_TYPE": "100",
        "P_RESOURCE_GROUP": "sound",
        "P_PATH": "sound",
        "P_GROUP_NAME": "sound",
        "P_FILE_NAME": "BF2_040_btl_nomal01.acb",
        "P_EXT_IMG_PARAM": "\u901a\u5e38\u30d0\u30c8\u30eb1",
        "P_CREATEDATE": "2017-12-23 17:33:01",
        "P_UPDATEDATE": "2017-12-23 17:33:01"
    },
    {
        "P_RESOURCE_ID": "254",
        "P_RESOURCE_TYPE": "100",
        "P_RESOURCE_GROUP": "sound",
        "P_PATH": "sound",
        "P_GROUP_NAME": "sound",
        "P_FILE_NAME": "BF2_041_btl_nomal02.acb",
        "P_EXT_IMG_PARAM": "\u901a\u5e38\u30d0\u30c8\u30eb2",
        "P_CREATEDATE": "2017-12-23 17:33:18",
        "P_UPDATEDATE": "2017-12-23 17:33:18"
    },
    {
        "P_RESOURCE_ID": "255",
        "P_RESOURCE_TYPE": "100",
        "P_RESOURCE_GROUP": "sound",
        "P_PATH": "sound",
        "P_GROUP_NAME": "sound",
        "P_FILE_NAME": "BF2_042_btl_nomal03.acb",
        "P_EXT_IMG_PARAM": "\u901a\u5e38\u30d0\u30c8\u30eb3",
        "P_CREATEDATE": "2017-12-23 17:33:37",
        "P_UPDATEDATE": "2017-12-23 17:33:37"
    },
    {
        "P_RESOURCE_ID": "256",
        "P_RESOURCE_TYPE": "100",
        "P_RESOURCE_GROUP": "sound",
        "P_PATH": "sound",
        "P_GROUP_NAME": "sound",
        "P_FILE_NAME": "BF2_043_btl_nomal04.acb",
        "P_EXT_IMG_PARAM": "\u901a\u5e38\u30d0\u30c8\u30eb4",
        "P_CREATEDATE": "2017-12-23 17:33:54",
        "P_UPDATEDATE": "2017-12-23 17:33:54"
    },
    {
        "P_RESOURCE_ID": "257",
        "P_RESOURCE_TYPE": "100",
        "P_RESOURCE_GROUP": "sound",
        "P_PATH": "sound",
        "P_GROUP_NAME": "sound",
        "P_FILE_NAME": "BF2_044_btl_nomal05.acb",
        "P_EXT_IMG_PARAM": "\u901a\u5e38\u30d0\u30c8\u30eb5",
        "P_CREATEDATE": "2017-12-23 17:34:14",
        "P_UPDATEDATE": "2017-12-23 17:34:14"
    },
    {
        "P_RESOURCE_ID": "258",
        "P_RESOURCE_TYPE": "100",
        "P_RESOURCE_GROUP": "sound",
        "P_PATH": "sound",
        "P_GROUP_NAME": "sound",
        "P_FILE_NAME": "BF2_045_btl_nomal06.acb",
        "P_EXT_IMG_PARAM": "\u901a\u5e38\u30d0\u30c8\u30eb6",
        "P_CREATEDATE": "2017-12-23 17:34:31",
        "P_UPDATEDATE": "2017-12-23 17:34:31"
    },
    {
        "P_RESOURCE_ID": "259",
        "P_RESOURCE_TYPE": "100",
        "P_RESOURCE_GROUP": "sound",
        "P_PATH": "sound",
        "P_GROUP_NAME": "sound",
        "P_FILE_NAME": "BF2_046_thm_lastboss.acb",
        "P_EXT_IMG_PARAM": "\u30e9\u30b9\u30c8\u30dc\u30b9\u30c6\u30fc\u30de",
        "P_CREATEDATE": "2017-12-23 17:34:52",
        "P_UPDATEDATE": "2017-12-23 17:34:52"
    },
    {
        "P_RESOURCE_ID": "260",
        "P_RESOURCE_TYPE": "100",
        "P_RESOURCE_GROUP": "sound",
        "P_PATH": "sound",
        "P_GROUP_NAME": "sound",
        "P_FILE_NAME": "BF2_047_btl_lastboss01.acb",
        "P_EXT_IMG_PARAM": "\u30e9\u30b9\u30c8\u30d0\u30c8\u30eb1",
        "P_CREATEDATE": "2017-12-23 17:35:10",
        "P_UPDATEDATE": "2017-12-23 17:35:10"
    },
    {
        "P_RESOURCE_ID": "261",
        "P_RESOURCE_TYPE": "100",
        "P_RESOURCE_GROUP": "sound",
        "P_PATH": "sound",
        "P_GROUP_NAME": "sound",
        "P_FILE_NAME": "BF2_048_btl_lastboss02.acb",
        "P_EXT_IMG_PARAM": "\u30e9\u30b9\u30c8\u30d0\u30c8\u30eb2",
        "P_CREATEDATE": "2017-12-23 17:35:30",
        "P_UPDATEDATE": "2017-12-23 17:35:30"
    },
    {
        "P_RESOURCE_ID": "262",
        "P_RESOURCE_TYPE": "100",
        "P_RESOURCE_GROUP": "sound",
        "P_PATH": "sound",
        "P_GROUP_NAME": "sound",
        "P_FILE_NAME": "BF2_049_btl_ordeal.acb",
        "P_EXT_IMG_PARAM": "\u8a66\u7df4\u30d0\u30c8\u30eb",
        "P_CREATEDATE": "2017-12-23 17:35:49",
        "P_UPDATEDATE": "2017-12-23 17:35:49"
    },
    {
        "P_RESOURCE_ID": "263",
        "P_RESOURCE_TYPE": "100",
        "P_RESOURCE_GROUP": "sound",
        "P_PATH": "sound",
        "P_GROUP_NAME": "sound",
        "P_FILE_NAME": "BF2_050_btl_result.acb",
        "P_EXT_IMG_PARAM": "\u30d0\u30c8\u30eb\u30ea\u30b6\u30eb\u30c8",
        "P_CREATEDATE": "2017-12-23 17:36:11",
        "P_UPDATEDATE": "2017-12-23 17:36:11"
    },
    {
        "P_RESOURCE_ID": "264",
        "P_RESOURCE_TYPE": "100",
        "P_RESOURCE_GROUP": "sound",
        "P_PATH": "sound",
        "P_GROUP_NAME": "sound",
        "P_FILE_NAME": "BF2_051_scr_extus.acb",
        "P_EXT_IMG_PARAM": "\u30b7\u30fc\u30f3\u30a4\u30af\u30b9\u30bf\u30b9\u7dca\u8feb",
        "P_CREATEDATE": "2017-12-23 17:36:30",
        "P_UPDATEDATE": "2017-12-23 17:36:30"
    },
    {
        "P_RESOURCE_ID": "265",
        "P_RESOURCE_TYPE": "100",
        "P_RESOURCE_GROUP": "info",
        "P_PATH": "info",
        "P_GROUP_NAME": "info",
        "P_FILE_NAME": "info.cpk",
        "P_EXT_IMG_PARAM": "\u304a\u77e5\u3089\u305b\u30a2\u30a4\u30b3\u30f3",
        "P_CREATEDATE": "2017-12-23 20:01:43",
        "P_UPDATEDATE": "2017-12-23 20:01:43"
    },
    {
        "P_RESOURCE_ID": "266",
        "P_RESOURCE_TYPE": "100",
        "P_RESOURCE_GROUP": "sound",
        "P_PATH": "sound",
        "P_GROUP_NAME": "sound",
        "P_FILE_NAME": "BF2_052_scr_restless.acb",
        "P_EXT_IMG_PARAM": "\u30b7\u30fc\u30f3\u4e0d\u5b89",
        "P_CREATEDATE": "2017-12-28 15:36:22",
        "P_UPDATEDATE": "2017-12-28 15:36:22"
    },
    {
        "P_RESOURCE_ID": "267",
        "P_RESOURCE_TYPE": "100",
        "P_RESOURCE_GROUP": "ui",
        "P_PATH": "ui",
        "P_GROUP_NAME": "ui",
        "P_FILE_NAME": "ui.cpk",
        "P_EXT_IMG_PARAM": "UI\u30ea\u30bd\u30fc\u30b9",
        "P_CREATEDATE": "2018-01-04 21:21:27",
        "P_UPDATEDATE": "2018-01-04 21:21:27"
    },
    {
        "P_RESOURCE_ID": "268",
        "P_RESOURCE_TYPE": "100",
        "P_RESOURCE_GROUP": "uiSG",
        "P_PATH": "uiSG",
        "P_GROUP_NAME": "uiSG",
        "P_FILE_NAME": "uiSG.cpk",
        "P_EXT_IMG_PARAM": "UI\u30b9\u30d1\u30fc\u30af\u30ae\u30a2",
        "P_CREATEDATE": "2018-01-04 21:23:10",
        "P_UPDATEDATE": "2018-01-04 21:23:10"
    },
    {
        "P_RESOURCE_ID": "269",
        "P_RESOURCE_TYPE": "100",
        "P_RESOURCE_GROUP": "uiSS",
        "P_PATH": "uiSS",
        "P_GROUP_NAME": "uiSS",
        "P_FILE_NAME": "uiSS.cpk",
        "P_EXT_IMG_PARAM": "UI\u30b9\u30d7\u30e9\u30a4\u30c8\u30b9\u30bf\u30b8\u30aa",
        "P_CREATEDATE": "2018-01-04 21:23:52",
        "P_UPDATEDATE": "2018-01-04 21:23:52"
    },
    {
        "P_RESOURCE_ID": "271",
        "P_RESOURCE_TYPE": "100",
        "P_RESOURCE_GROUP": "sound",
        "P_PATH": "sound",
        "P_GROUP_NAME": "sound",
        "P_FILE_NAME": "BF2_054_btl_fh.acb",
        "P_EXT_IMG_PARAM": "\u30d5\u30ed\u30cf\u30f3\u30d0\u30c8\u30eb",
        "P_CREATEDATE": "2018-01-09 23:10:42",
        "P_UPDATEDATE": "2018-01-09 23:10:42"
    },
    {
        "P_RESOURCE_ID": "272",
        "P_RESOURCE_TYPE": "100",
        "P_RESOURCE_GROUP": "movie",
        "P_PATH": "movie",
        "P_GROUP_NAME": "movie",
        "P_FILE_NAME": "movie.cpk",
        "P_EXT_IMG_PARAM": "\u30e0\u30fc\u30d3\u30fc",
        "P_CREATEDATE": "",
        "P_UPDATEDATE": ""
    },
    {
        "P_RESOURCE_ID": "273",
        "P_RESOURCE_TYPE": "100",
        "P_RESOURCE_GROUP": "unit",
        "P_PATH": "unit",
        "P_GROUP_NAME": "unit",
        "P_FILE_NAME": "unit1_01.cpk",
        "P_EXT_IMG_PARAM": "\u30e6\u30cb\u30c3\u30c8\u30ea\u30bd\u30fc\u30b91",
        "P_CREATEDATE": "2018-01-19 18:28:07",
        "P_UPDATEDATE": "2018-01-19 18:28:07"
    },
    {
        "P_RESOURCE_ID": "274",
        "P_RESOURCE_TYPE": "100",
        "P_RESOURCE_GROUP": "unit",
        "P_PATH": "unit",
        "P_GROUP_NAME": "unit",
        "P_FILE_NAME": "unit2_01.cpk",
        "P_EXT_IMG_PARAM": "\u30e6\u30cb\u30c3\u30c8\u30ea\u30bd\u30fc\u30b92",
        "P_CREATEDATE": "2018-01-19 18:28:25",
        "P_UPDATEDATE": "2018-01-19 18:28:25"
    },
    {
        "P_RESOURCE_ID": "275",
        "P_RESOURCE_TYPE": "100",
        "P_RESOURCE_GROUP": "unit",
        "P_PATH": "unit",
        "P_GROUP_NAME": "unit",
        "P_FILE_NAME": "unit3_01.cpk",
        "P_EXT_IMG_PARAM": "\u30e6\u30cb\u30c3\u30c8\u30ea\u30bd\u30fc\u30b93",
        "P_CREATEDATE": "2018-01-19 18:29:02",
        "P_UPDATEDATE": "2018-01-19 18:29:02"
    },
    {
        "P_RESOURCE_ID": "276",
        "P_RESOURCE_TYPE": "100",
        "P_RESOURCE_GROUP": "unit",
        "P_PATH": "unit",
        "P_GROUP_NAME": "unit",
        "P_FILE_NAME": "unit4_01.cpk",
        "P_EXT_IMG_PARAM": "\u30e6\u30cb\u30c3\u30c8\u30ea\u30bd\u30fc\u30b94",
        "P_CREATEDATE": "2018-01-19 18:29:21",
        "P_UPDATEDATE": "2018-01-19 18:29:21"
    },
    {
        "P_RESOURCE_ID": "277",
        "P_RESOURCE_TYPE": "100",
        "P_RESOURCE_GROUP": "unit",
        "P_PATH": "unit",
        "P_GROUP_NAME": "unit",
        "P_FILE_NAME": "unit5_01.cpk",
        "P_EXT_IMG_PARAM": "\u30e6\u30cb\u30c3\u30c8\u30ea\u30bd\u30fc\u30b95",
        "P_CREATEDATE": "2018-01-19 18:29:37",
        "P_UPDATEDATE": "2018-01-19 18:29:37"
    },
    {
        "P_RESOURCE_ID": "278",
        "P_RESOURCE_TYPE": "100",
        "P_RESOURCE_GROUP": "unit",
        "P_PATH": "unit",
        "P_GROUP_NAME": "unit",
        "P_FILE_NAME": "unit6_01.cpk",
        "P_EXT_IMG_PARAM": "\u30e6\u30cb\u30c3\u30c8\u30ea\u30bd\u30fc\u30b96",
        "P_CREATEDATE": "2018-01-19 18:29:53",
        "P_UPDATEDATE": "2018-01-19 18:29:53"
    },
    {
        "P_RESOURCE_ID": "279",
        "P_RESOURCE_TYPE": "100",
        "P_RESOURCE_GROUP": "unit",
        "P_PATH": "unit",
        "P_GROUP_NAME": "unit",
        "P_FILE_NAME": "unit7_01.cpk",
        "P_EXT_IMG_PARAM": "\u30e6\u30cb\u30c3\u30c8\u30ea\u30bd\u30fc\u30b97",
        "P_CREATEDATE": "2018-01-19 18:30:13",
        "P_UPDATEDATE": "2018-01-19 18:30:13"
    },
    {
        "P_RESOURCE_ID": "280",
        "P_RESOURCE_TYPE": "100",
        "P_RESOURCE_GROUP": "unit",
        "P_PATH": "unit",
        "P_GROUP_NAME": "unit",
        "P_FILE_NAME": "unit_arms_male_01.cpk",
        "P_EXT_IMG_PARAM": "\u30e6\u30cb\u30c3\u30c8\u53ec\u559a\u5e2b\u7537\u30ea\u30bd\u30fc\u30b9",
        "P_CREATEDATE": "2018-01-19 18:32:53",
        "P_UPDATEDATE": "2018-01-19 18:32:53"
    },
    {
        "P_RESOURCE_ID": "281",
        "P_RESOURCE_TYPE": "100",
        "P_RESOURCE_GROUP": "unit",
        "P_PATH": "unit",
        "P_GROUP_NAME": "unit",
        "P_FILE_NAME": "unit_arms_female_01.cpk",
        "P_EXT_IMG_PARAM": "\u30e6\u30cb\u30c3\u30c8\u53ec\u559a\u5e2b\u5973\u30ea\u30bd\u30fc\u30b9",
        "P_CREATEDATE": "2018-01-19 18:33:18",
        "P_UPDATEDATE": "2018-01-19 18:33:18"
    },
    {
        "P_RESOURCE_ID": "282",
        "P_RESOURCE_TYPE": "100",
        "P_RESOURCE_GROUP": "unit",
        "P_PATH": "unit",
        "P_GROUP_NAME": "unit",
        "P_FILE_NAME": "unit_arms_rin_01.cpk",
        "P_EXT_IMG_PARAM": "\u30e6\u30cb\u30c3\u30c8\u53ec\u559a\u5e2b\u30ea\u30f3\u30ea\u30bd\u30fc\u30b9",
        "P_CREATEDATE": "2018-01-19 18:33:45",
        "P_UPDATEDATE": "2018-01-19 18:33:45"
    },
    {
        "P_RESOURCE_ID": "283",
        "P_RESOURCE_TYPE": "100",
        "P_RESOURCE_GROUP": "unit",
        "P_PATH": "unit",
        "P_GROUP_NAME": "unit",
        "P_FILE_NAME": "unit.cpk",
        "P_EXT_IMG_PARAM": "\u30e6\u30cb\u30c3\u30c8x",
        "P_CREATEDATE": "2018-01-19 18:37:27",
        "P_UPDATEDATE": "2018-01-19 18:37:27"
    },
    {
        "P_RESOURCE_ID": "284",
        "P_RESOURCE_TYPE": "100",
        "P_RESOURCE_GROUP": "sound",
        "P_PATH": "sound",
        "P_GROUP_NAME": "sound",
        "P_FILE_NAME": "BF2_055_btl_nomal07.acb",
        "P_EXT_IMG_PARAM": "\u901a\u5e38\u30d0\u30c8\u30eb7",
        "P_CREATEDATE": "2018-01-26 23:23:14",
        "P_UPDATEDATE": "2018-01-26 23:23:14"
    },
    {
        "P_RESOURCE_ID": "285",
        "P_RESOURCE_TYPE": "100",
        "P_RESOURCE_GROUP": "sound",
        "P_PATH": "sound",
        "P_GROUP_NAME": "sound",
        "P_FILE_NAME": "BF1_1011_btl_firecave.acb",
        "P_EXT_IMG_PARAM": "BF1\u901a\u5e38\u30d0\u30c8\u30eb1",
        "P_CREATEDATE": "2018-01-26 23:23:49",
        "P_UPDATEDATE": "2018-01-26 23:23:49"
    },
    {
        "P_RESOURCE_ID": "286",
        "P_RESOURCE_TYPE": "100",
        "P_RESOURCE_GROUP": "sound",
        "P_PATH": "sound",
        "P_GROUP_NAME": "sound",
        "P_FILE_NAME": "BF1_1012_btl_snow.acb",
        "P_EXT_IMG_PARAM": "BF1\u901a\u5e38\u30d0\u30c8\u30eb2",
        "P_CREATEDATE": "2018-01-26 23:24:14",
        "P_UPDATEDATE": "2018-01-26 23:24:14"
    },
    {
        "P_RESOURCE_ID": "287",
        "P_RESOURCE_TYPE": "100",
        "P_RESOURCE_GROUP": "sound",
        "P_PATH": "sound",
        "P_GROUP_NAME": "sound",
        "P_FILE_NAME": "BF1_1020_btl_nightwood.acb",
        "P_EXT_IMG_PARAM": "BF1\u901a\u5e38\u30d0\u30c8\u30eb3",
        "P_CREATEDATE": "2018-01-26 23:24:40",
        "P_UPDATEDATE": "2018-01-26 23:24:40"
    },
    {
        "P_RESOURCE_ID": "288",
        "P_RESOURCE_TYPE": "100",
        "P_RESOURCE_GROUP": "sound",
        "P_PATH": "sound",
        "P_GROUP_NAME": "sound",
        "P_FILE_NAME": "BF1_1024_btl_cave.acb",
        "P_EXT_IMG_PARAM": "BF1\u901a\u5e38\u30d0\u30c8\u30eb4",
        "P_CREATEDATE": "2018-01-26 23:25:16",
        "P_UPDATEDATE": "2018-01-26 23:25:16"
    },
    {
        "P_RESOURCE_ID": "289",
        "P_RESOURCE_TYPE": "100",
        "P_RESOURCE_GROUP": "sound",
        "P_PATH": "sound",
        "P_GROUP_NAME": "sound",
        "P_FILE_NAME": "BF1_1041_btl_jewrel.acb",
        "P_EXT_IMG_PARAM": "BF1\u901a\u5e38\u30d0\u30c8\u30eb5",
        "P_CREATEDATE": "2018-01-26 23:25:50",
        "P_UPDATEDATE": "2018-01-26 23:25:50"
    },
    {
        "P_RESOURCE_ID": "290",
        "P_RESOURCE_TYPE": "100",
        "P_RESOURCE_GROUP": "sound",
        "P_PATH": "sound",
        "P_GROUP_NAME": "sound",
        "P_FILE_NAME": "BF1_1052_btl_mgc_swamp.acb",
        "P_EXT_IMG_PARAM": "BF1\u901a\u5e38\u30d0\u30c8\u30eb6",
        "P_CREATEDATE": "2018-01-26 23:26:18",
        "P_UPDATEDATE": "2018-01-26 23:26:18"
    },
    {
        "P_RESOURCE_ID": "291",
        "P_RESOURCE_TYPE": "100",
        "P_RESOURCE_GROUP": "sound",
        "P_PATH": "sound",
        "P_GROUP_NAME": "sound",
        "P_FILE_NAME": "BF1_1053_btl_zazilba.acb",
        "P_EXT_IMG_PARAM": "BF1\u901a\u5e38\u30d0\u30c8\u30eb7",
        "P_CREATEDATE": "2018-01-26 23:26:43",
        "P_UPDATEDATE": "2018-02-14 17:41:14"
    },
    {
        "P_RESOURCE_ID": "292",
        "P_RESOURCE_TYPE": "100",
        "P_RESOURCE_GROUP": "sound",
        "P_PATH": "sound",
        "P_GROUP_NAME": "sound",
        "P_FILE_NAME": "BF1_1060_btl_alvest.acb",
        "P_EXT_IMG_PARAM": "BF1\u901a\u5e38\u30d0\u30c8\u30eb8",
        "P_CREATEDATE": "2018-01-26 23:27:05",
        "P_UPDATEDATE": "2018-02-14 17:41:32"
    },
    {
        "P_RESOURCE_ID": "293",
        "P_RESOURCE_TYPE": "100",
        "P_RESOURCE_GROUP": "sound",
        "P_PATH": "sound",
        "P_GROUP_NAME": "sound",
        "P_FILE_NAME": "BF1_1087_lab_akras_mypage02.acb",
        "P_EXT_IMG_PARAM": "\u53ec\u559a\u8853\u7814\u7a76\u6240",
        "P_CREATEDATE": "2018-01-26 23:28:35",
        "P_UPDATEDATE": "2018-02-14 17:42:13"
    },
    {
        "P_RESOURCE_ID": "294",
        "P_RESOURCE_TYPE": "100",
        "P_RESOURCE_GROUP": "dungeon",
        "P_PATH": "dungeon",
        "P_GROUP_NAME": "dungeon",
        "P_FILE_NAME": "dungeon_banner.cpk",
        "P_EXT_IMG_PARAM": "\u30c0\u30f3\u30b8\u30e7\u30f3\u30d0\u30ca\u30fc",
        "P_CREATEDATE": "2018-01-27 21:00:56",
        "P_UPDATEDATE": "2018-01-27 21:00:56"
    },
    {
        "P_RESOURCE_ID": "295",
        "P_RESOURCE_TYPE": "100",
        "P_RESOURCE_GROUP": "dungeon",
        "P_PATH": "dungeon",
        "P_GROUP_NAME": "dungeon",
        "P_FILE_NAME": "dungeon_battle_bg_1.cpk",
        "P_EXT_IMG_PARAM": "\u30d0\u30c8\u30eb\u80cc\u666f\u753b\u50cf\uff11",
        "P_CREATEDATE": "2018-01-27 21:01:15",
        "P_UPDATEDATE": "2018-01-27 21:01:15"
    },
    {
        "P_RESOURCE_ID": "296",
        "P_RESOURCE_TYPE": "100",
        "P_RESOURCE_GROUP": "dungeon",
        "P_PATH": "dungeon",
        "P_GROUP_NAME": "dungeon",
        "P_FILE_NAME": "dungeon_battle_bg_2.cpk",
        "P_EXT_IMG_PARAM": "\u30d0\u30c8\u30eb\u80cc\u666f\u753b\u50cf\uff12",
        "P_CREATEDATE": "2018-01-27 21:01:35",
        "P_UPDATEDATE": "2018-01-27 21:01:35"
    },
    {
        "P_RESOURCE_ID": "297",
        "P_RESOURCE_TYPE": "100",
        "P_RESOURCE_GROUP": "dungeon",
        "P_PATH": "dungeon",
        "P_GROUP_NAME": "dungeon",
        "P_FILE_NAME": "dungeon_event_bg.cpk",
        "P_EXT_IMG_PARAM": "\u30a4\u30d9\u30f3\u30c8\u80cc\u666f\u753b\u50cf",
        "P_CREATEDATE": "2018-01-27 21:01:49",
        "P_UPDATEDATE": "2018-01-27 21:01:49"
    },
    {
        "P_RESOURCE_ID": "298",
        "P_RESOURCE_TYPE": "100",
        "P_RESOURCE_GROUP": "dungeon",
        "P_PATH": "dungeon",
        "P_GROUP_NAME": "dungeon",
        "P_FILE_NAME": "dungeon_hzm_battle_bg.cpk",
        "P_EXT_IMG_PARAM": "\u72ed\u9593\u30d0\u30c8\u30eb\u80cc\u666f\u753b\u50cf",
        "P_CREATEDATE": "2018-01-27 21:02:07",
        "P_UPDATEDATE": "2018-01-27 21:02:07"
    },
    {
        "P_RESOURCE_ID": "299",
        "P_RESOURCE_TYPE": "100",
        "P_RESOURCE_GROUP": "dungeon",
        "P_PATH": "dungeon",
        "P_GROUP_NAME": "dungeon",
        "P_FILE_NAME": "dungeon_sq_battle_bg.cpk",
        "P_EXT_IMG_PARAM": "\u30b9\u30c8\u30af\u30a8\u30d0\u30c8\u30eb\u80cc\u666f\u753b\u50cf",
        "P_CREATEDATE": "2018-01-27 21:02:29",
        "P_UPDATEDATE": "2018-01-27 21:02:29"
    },
    {
        "P_RESOURCE_ID": "300",
        "P_RESOURCE_TYPE": "100",
        "P_RESOURCE_GROUP": "effectSG",
        "P_PATH": "effectSG",
        "P_GROUP_NAME": "effectSG",
        "P_FILE_NAME": "effectSG_script_effect.cpk",
        "P_EXT_IMG_PARAM": "\u30b9\u30af\u30ea\u30d7\u30c8\u7528\u30a8\u30d5\u30a7\u30af\u30c8",
        "P_CREATEDATE": "2018-01-27 21:03:26",
        "P_UPDATEDATE": "2018-01-27 21:03:26"
    },
    {
        "P_RESOURCE_ID": "301",
        "P_RESOURCE_TYPE": "100",
        "P_RESOURCE_GROUP": "subscription",
        "P_PATH": "subscription",
        "P_GROUP_NAME": "subscription",
        "P_FILE_NAME": "subscription.cpk",
        "P_EXT_IMG_PARAM": "\u53ec\u559a\u5e2b\u80b2\u6210\u30d7\u30ed\u30b0\u30e9\u30e0\u753b\u50cf",
        "P_CREATEDATE": "2018-01-27 21:04:15",
        "P_UPDATEDATE": "2018-01-27 21:04:15"
    },
    {
        "P_RESOURCE_ID": "302",
        "P_RESOURCE_TYPE": "100",
        "P_RESOURCE_GROUP": "effectSS",
        "P_PATH": "effectSS",
        "P_GROUP_NAME": "effectSS",
        "P_FILE_NAME": "effectSS_bg_battle_1.cpk",
        "P_EXT_IMG_PARAM": "\u30c0\u30f3\u30b8\u30e7\u30f3\u80cc\u666f\u30a2\u30cb\u30e1",
        "P_CREATEDATE": "2018-01-27 21:04:18",
        "P_UPDATEDATE": "2018-02-13 21:05:48"
    },
    {
        "P_RESOURCE_ID": "303",
        "P_RESOURCE_TYPE": "100",
        "P_RESOURCE_GROUP": "effectSS",
        "P_PATH": "effectSS",
        "P_GROUP_NAME": "effectSS",
        "P_FILE_NAME": "effectSS_bg_event.cpk",
        "P_EXT_IMG_PARAM": "\u30a4\u30d9\u30f3\u30c8\u80cc\u666f\u30a2\u30cb\u30e1",
        "P_CREATEDATE": "2018-01-27 21:04:39",
        "P_UPDATEDATE": "2018-02-13 21:06:00"
    },
    {
        "P_RESOURCE_ID": "304",
        "P_RESOURCE_TYPE": "100",
        "P_RESOURCE_GROUP": "effectSS",
        "P_PATH": "effectSS",
        "P_GROUP_NAME": "effectSS",
        "P_FILE_NAME": "effectSS_boss_anime.cpk",
        "P_EXT_IMG_PARAM": "\u30dc\u30b9\u30a2\u30cb\u30e1",
        "P_CREATEDATE": "2018-01-27 21:04:55",
        "P_UPDATEDATE": "2018-01-27 21:04:55"
    },
    {
        "P_RESOURCE_ID": "305",
        "P_RESOURCE_TYPE": "100",
        "P_RESOURCE_GROUP": "effectSS",
        "P_PATH": "effectSS",
        "P_GROUP_NAME": "effectSS",
        "P_FILE_NAME": "effectSS_battle_effect.cpk",
        "P_EXT_IMG_PARAM": "\u30d0\u30c8\u30eb\u30a8\u30d5\u30a7\u30af\u30c8",
        "P_CREATEDATE": "2018-01-27 21:05:15",
        "P_UPDATEDATE": "2018-01-27 21:05:15"
    },
    {
        "P_RESOURCE_ID": "306",
        "P_RESOURCE_TYPE": "100",
        "P_RESOURCE_GROUP": "effectSS",
        "P_PATH": "effectSS",
        "P_GROUP_NAME": "effectSS",
        "P_FILE_NAME": "effectSS_script_effect_1.cpk",
        "P_EXT_IMG_PARAM": "\u30b9\u30af\u30ea\u30d7\u30c8\u7528\u30a8\u30d5\u30a7\u30af\u30c8\uff11",
        "P_CREATEDATE": "2018-01-27 21:05:34",
        "P_UPDATEDATE": "2018-01-27 21:05:34"
    },
    {
        "P_RESOURCE_ID": "307",
        "P_RESOURCE_TYPE": "100",
        "P_RESOURCE_GROUP": "effectSS",
        "P_PATH": "effectSS",
        "P_GROUP_NAME": "effectSS",
        "P_FILE_NAME": "effectSS_script_effect_2.cpk",
        "P_EXT_IMG_PARAM": "\u30b9\u30af\u30ea\u30d7\u30c8\u7528\u30a8\u30d5\u30a7\u30af\u30c8\uff12",
        "P_CREATEDATE": "2018-01-27 21:05:48",
        "P_UPDATEDATE": "2018-01-27 21:05:48"
    },
    {
        "P_RESOURCE_ID": "308",
        "P_RESOURCE_TYPE": "100",
        "P_RESOURCE_GROUP": "event",
        "P_PATH": "event",
        "P_GROUP_NAME": "event",
        "P_FILE_NAME": "event_navi_full_1_30.cpk",
        "P_EXT_IMG_PARAM": "\u30ca\u30d3\u30ad\u30e3\u30e9\u5168\u8eab\u753b\u50cfID\uff1a1\uff5e30",
        "P_CREATEDATE": "2018-01-27 21:06:07",
        "P_UPDATEDATE": "2018-01-27 21:06:07"
    },
    {
        "P_RESOURCE_ID": "309",
        "P_RESOURCE_TYPE": "100",
        "P_RESOURCE_GROUP": "event",
        "P_PATH": "event",
        "P_GROUP_NAME": "event",
        "P_FILE_NAME": "event_navi_full_31_60.cpk",
        "P_EXT_IMG_PARAM": "\u30ca\u30d3\u30ad\u30e3\u30e9\u5168\u8eab\u753b\u50cfID\uff1a31\uff5e60",
        "P_CREATEDATE": "2018-01-27 21:06:20",
        "P_UPDATEDATE": "2018-01-27 21:06:20"
    },
    {
        "P_RESOURCE_ID": "310",
        "P_RESOURCE_TYPE": "100",
        "P_RESOURCE_GROUP": "event",
        "P_PATH": "event",
        "P_GROUP_NAME": "event",
        "P_FILE_NAME": "event_navi_full_61_90.cpk",
        "P_EXT_IMG_PARAM": "\u30ca\u30d3\u30ad\u30e3\u30e9\u5168\u8eab\u753b\u50cfID\uff1a61\uff5e90",
        "P_CREATEDATE": "2018-01-27 21:06:33",
        "P_UPDATEDATE": "2018-01-27 21:06:33"
    },
    {
        "P_RESOURCE_ID": "311",
        "P_RESOURCE_TYPE": "100",
        "P_RESOURCE_GROUP": "event",
        "P_PATH": "event",
        "P_GROUP_NAME": "event",
        "P_FILE_NAME": "event_navi_full_tame.cpk",
        "P_EXT_IMG_PARAM": "\u30ca\u30d3\u30ad\u30e3\u30e9\u5168\u8eab\u753b\u50cf\uff1a\u30c6\u30a4\u30e0\u7cfb",
        "P_CREATEDATE": "2018-01-27 21:07:06",
        "P_UPDATEDATE": "2018-01-27 21:07:06"
    },
    {
        "P_RESOURCE_ID": "312",
        "P_RESOURCE_TYPE": "100",
        "P_RESOURCE_GROUP": "event",
        "P_PATH": "event",
        "P_GROUP_NAME": "event",
        "P_FILE_NAME": "event_navi_thumbnail.cpk",
        "P_EXT_IMG_PARAM": "\u30ca\u30d3\u30ad\u30e3\u30e9\u30b5\u30e0\u30cd\u30a4\u30eb\u753b\u50cf",
        "P_CREATEDATE": "2018-01-27 21:07:34",
        "P_UPDATEDATE": "2018-02-01 16:27:41"
    },
    {
        "P_RESOURCE_ID": "313",
        "P_RESOURCE_TYPE": "100",
        "P_RESOURCE_GROUP": "event",
        "P_PATH": "event",
        "P_GROUP_NAME": "event",
        "P_FILE_NAME": "event_img.cpk",
        "P_EXT_IMG_PARAM": "\u30a4\u30d9\u30f3\u30c8\u7528\u753b\u50cf",
        "P_CREATEDATE": "2018-01-27 21:08:00",
        "P_UPDATEDATE": "2018-01-27 21:08:00"
    },
    {
        "P_RESOURCE_ID": "314",
        "P_RESOURCE_TYPE": "100",
        "P_RESOURCE_GROUP": "desc",
        "P_PATH": "desc",
        "P_GROUP_NAME": "desc",
        "P_FILE_NAME": "desc.cpk",
        "P_EXT_IMG_PARAM": "\u521d\u56de\u8aac\u660e",
        "P_CREATEDATE": "2018-01-31 14:49:00",
        "P_UPDATEDATE": "2018-01-31 14:49:00"
    },
    {
        "P_RESOURCE_ID": "315",
        "P_RESOURCE_TYPE": "100",
        "P_RESOURCE_GROUP": "sound",
        "P_PATH": "sound",
        "P_GROUP_NAME": "sound",
        "P_FILE_NAME": "BF2_056_scr_resolution.acb",
        "P_EXT_IMG_PARAM": "056_\u30b7\u30fc\u30f3\u6c7a\u610f",
        "P_CREATEDATE": "2018-02-05 23:51:02",
        "P_UPDATEDATE": "2018-02-05 23:51:02"
    },
    {
        "P_RESOURCE_ID": "316",
        "P_RESOURCE_TYPE": "100",
        "P_RESOURCE_GROUP": "sound",
        "P_PATH": "sound",
        "P_GROUP_NAME": "sound",
        "P_FILE_NAME": "BF2_057_scr_neutral.acb",
        "P_EXT_IMG_PARAM": "057_\u30b7\u30fc\u30f3\u30cb\u30e5\u30fc\u30c8\u30e9\u30eb",
        "P_CREATEDATE": "2018-02-05 23:51:16",
        "P_UPDATEDATE": "2018-02-05 23:51:16"
    },
    {
        "P_RESOURCE_ID": "317",
        "P_RESOURCE_TYPE": "100",
        "P_RESOURCE_GROUP": "sound",
        "P_PATH": "sound",
        "P_GROUP_NAME": "sound",
        "P_FILE_NAME": "BF2_058_scr_daily.acb",
        "P_EXT_IMG_PARAM": "058_\u30b7\u30fc\u30f3\u65e5\u5e38",
        "P_CREATEDATE": "2018-02-05 23:51:30",
        "P_UPDATEDATE": "2018-02-05 23:51:30"
    },
    {
        "P_RESOURCE_ID": "318",
        "P_RESOURCE_TYPE": "100",
        "P_RESOURCE_GROUP": "sound",
        "P_PATH": "sound",
        "P_GROUP_NAME": "sound",
        "P_FILE_NAME": "BF2_059_scr_op_movie.acb",
        "P_EXT_IMG_PARAM": "059_\u30b7\u30fc\u30f3OP\u30e0\u30fc\u30d3\u30fc",
        "P_CREATEDATE": "2018-02-05 23:51:52",
        "P_UPDATEDATE": "2018-02-05 23:51:52"
    },
    {
        "P_RESOURCE_ID": "319",
        "P_RESOURCE_TYPE": "100",
        "P_RESOURCE_GROUP": "sound",
        "P_PATH": "sound",
        "P_GROUP_NAME": "sound",
        "P_FILE_NAME": "BF2_060_scr_demension.acb",
        "P_EXT_IMG_PARAM": "060_\u30b7\u30fc\u30f3OP\u30ef\u30fc\u30d7",
        "P_CREATEDATE": "2018-02-05 23:52:08",
        "P_UPDATEDATE": "2018-02-05 23:52:08"
    },
    {
        "P_RESOURCE_ID": "320",
        "P_RESOURCE_TYPE": "100",
        "P_RESOURCE_GROUP": "sound",
        "P_PATH": "sound",
        "P_GROUP_NAME": "sound",
        "P_FILE_NAME": "BF2_061_scr_wind.acb",
        "P_EXT_IMG_PARAM": "061_\u30b7\u30fc\u30f3OP\u98a8",
        "P_CREATEDATE": "2018-02-05 23:52:23",
        "P_UPDATEDATE": "2018-02-05 23:52:23"
    },
    {
        "P_RESOURCE_ID": "322",
        "P_RESOURCE_TYPE": "100",
        "P_RESOURCE_GROUP": "sound",
        "P_PATH": "sound",
        "P_GROUP_NAME": "sound",
        "P_FILE_NAME": "BF1_1101_lab_multi_lobi.acb",
        "P_EXT_IMG_PARAM": "1101_\u53ec\u559a\u8853\u7814\u7a76\u6240 \u8a66\u7df4TOP",
        "P_CREATEDATE": "2018-02-06 20:12:29",
        "P_UPDATEDATE": "2018-02-06 20:12:29"
    },
    {
        "P_RESOURCE_ID": "323",
        "P_RESOURCE_TYPE": "100",
        "P_RESOURCE_GROUP": "sound",
        "P_PATH": "sound",
        "P_GROUP_NAME": "sound",
        "P_FILE_NAME": "BF1_1087_lab_akras_mypage02.acb",
        "P_EXT_IMG_PARAM": "1087_\u53ec\u559a\u8853\u7814\u7a76\u6240TOP",
        "P_CREATEDATE": "2018-02-06 21:17:36",
        "P_UPDATEDATE": "2018-02-06 21:17:36"
    },
    {
        "P_RESOURCE_ID": "324",
        "P_RESOURCE_TYPE": "100",
        "P_RESOURCE_GROUP": "sound",
        "P_PATH": "sound",
        "P_GROUP_NAME": "sound",
        "P_FILE_NAME": "BF1_1053_btl_zazilba.acb",
        "P_EXT_IMG_PARAM": "1053_BF1\u30b6\u30eb\u30b8\u30d0",
        "P_CREATEDATE": "2018-02-07 21:09:23",
        "P_UPDATEDATE": "2018-02-07 21:09:23"
    },
    {
        "P_RESOURCE_ID": "325",
        "P_RESOURCE_TYPE": "100",
        "P_RESOURCE_GROUP": "sound",
        "P_PATH": "sound",
        "P_GROUP_NAME": "sound",
        "P_FILE_NAME": "BF1_1010_btl_grass.acb",
        "P_EXT_IMG_PARAM": "1010_BF1\u5192\u967a\u8005\u306e\u8349\u539f",
        "P_CREATEDATE": "2018-02-12 15:12:14",
        "P_UPDATEDATE": "2018-02-12 15:12:14"
    },
    {
        "P_RESOURCE_ID": "326",
        "P_RESOURCE_TYPE": "100",
        "P_RESOURCE_GROUP": "effectSS",
        "P_PATH": "effectSS",
        "P_GROUP_NAME": "effectSS",
        "P_FILE_NAME": "effectSS_bg_battle_2.cpk",
        "P_EXT_IMG_PARAM": "effectSS_bg_battle_2\uff08\u30c0\u30f3\u30b8\u30e7\u30f3\u80cc\u666f\u30a2\u30cb\u30e1\uff12\uff09",
        "P_CREATEDATE": "2018-02-13 21:04:26",
        "P_UPDATEDATE": "2018-02-13 21:04:26"
    },
    {
        "P_RESOURCE_ID": "327",
        "P_RESOURCE_TYPE": "100",
        "P_RESOURCE_GROUP": "effectSS",
        "P_PATH": "effectSS",
        "P_GROUP_NAME": "effectSS",
        "P_FILE_NAME": "effectSS_bg_sq_battle.cpk",
        "P_EXT_IMG_PARAM": "effectSS_bg_sq_battle\uff08\u30b9\u30c8\u30af\u30a8\u30c0\u30f3\u30b8\u30e7\u30f3\u80cc\u666f\u30a2\u30cb\u30e1\uff09",
        "P_CREATEDATE": "2018-02-13 21:04:45",
        "P_UPDATEDATE": "2018-02-13 21:04:45"
    },
    {
        "P_RESOURCE_ID": "328",
        "P_RESOURCE_TYPE": "100",
        "P_RESOURCE_GROUP": "effectSS",
        "P_PATH": "effectSS",
        "P_GROUP_NAME": "effectSS",
        "P_FILE_NAME": "effectSS_bg_hzm_battle.cpk",
        "P_EXT_IMG_PARAM": "effectSS_bg_hzm_battle\uff08\u72ed\u9593\u30c0\u30f3\u30b8\u30e7\u30f3\u80cc\u666f\u30a2\u30cb\u30e1\uff09",
        "P_CREATEDATE": "2018-02-13 21:05:04",
        "P_UPDATEDATE": "2018-02-13 21:05:04"
    },
    {
        "P_RESOURCE_ID": "329",
        "P_RESOURCE_TYPE": "100",
        "P_RESOURCE_GROUP": "sound",
        "P_PATH": "sound",
        "P_GROUP_NAME": "sound",
        "P_FILE_NAME": "BF1_1102_btl_multi_ready.acb",
        "P_EXT_IMG_PARAM": "1102_BF1\u30de\u30eb\u30c1\u6e96\u5099",
        "P_CREATEDATE": "2018-02-14 17:49:17",
        "P_UPDATEDATE": "2018-02-14 17:49:17"
    },
    {
        "P_RESOURCE_ID": "330",
        "P_RESOURCE_TYPE": "100",
        "P_RESOURCE_GROUP": "sound",
        "P_PATH": "sound",
        "P_GROUP_NAME": "sound",
        "P_FILE_NAME": "BF1_1103_btl_multi_battle01.acb",
        "P_EXT_IMG_PARAM": "1103_BF1\u30de\u30eb\u30c1\u30d0\u30c8\u30eb",
        "P_CREATEDATE": "2018-02-14 17:49:38",
        "P_UPDATEDATE": "2018-02-14 17:49:38"
    },
    {
        "P_RESOURCE_ID": "331",
        "P_RESOURCE_TYPE": "100",
        "P_RESOURCE_GROUP": "sound",
        "P_PATH": "sound",
        "P_GROUP_NAME": "sound",
        "P_FILE_NAME": "BF1_1030_btl_evboss.acb",
        "P_EXT_IMG_PARAM": "1030_BF1\u30e1\u30bf\u30d1\u30ec",
        "P_CREATEDATE": "2018-02-14 17:50:12",
        "P_UPDATEDATE": "2018-02-14 17:50:12"
    },
    {
        "P_RESOURCE_ID": "332",
        "P_RESOURCE_TYPE": "100",
        "P_RESOURCE_GROUP": "sound",
        "P_PATH": "sound",
        "P_GROUP_NAME": "sound",
        "P_FILE_NAME": "BF1_1113_btl_scenario5_bs1.acb",
        "P_EXT_IMG_PARAM": "1113_BF1\u672a\u6765\u3078\u306e\u6c7a\u610f",
        "P_CREATEDATE": "2018-02-14 21:26:56",
        "P_UPDATEDATE": "2018-02-14 21:26:56"
    },
    {
        "P_RESOURCE_ID": "333",
        "P_RESOURCE_TYPE": "100",
        "P_RESOURCE_GROUP": "sound",
        "P_PATH": "sound",
        "P_GROUP_NAME": "sound",
        "P_FILE_NAME": "BF1_1037_lab_lighttower.acb",
        "P_EXT_IMG_PARAM": "1037_BF1Gimmick",
        "P_CREATEDATE": "2018-02-15 17:15:23",
        "P_UPDATEDATE": "2018-02-15 17:15:23"
    },
    {
        "P_RESOURCE_ID": "334",
        "P_RESOURCE_TYPE": "100",
        "P_RESOURCE_GROUP": "sound",
        "P_PATH": "sound",
        "P_GROUP_NAME": "sound",
        "P_FILE_NAME": "BF2_062_nothing.acb",
        "P_EXT_IMG_PARAM": "062_\u30b7\u30fc\u30f3\u7121\u97f3",
        "P_CREATEDATE": "2018-02-16 11:21:50",
        "P_UPDATEDATE": "2018-02-16 11:21:50"
    },
    {
        "P_RESOURCE_ID": "335",
        "P_RESOURCE_TYPE": "100",
        "P_RESOURCE_GROUP": "sound",
        "P_PATH": "sound",
        "P_GROUP_NAME": "sound",
        "P_FILE_NAME": "BF2_063_scr_resolution2.acb",
        "P_EXT_IMG_PARAM": "063_\u30b7\u30fc\u30f3\u6c7a\u610f2",
        "P_CREATEDATE": "2018-02-16 11:24:35",
        "P_UPDATEDATE": "2018-02-16 11:24:35"
    }
]