[
    {
        "P_SUMMONER_ID": "1",
        "P_LV": "1",
        "6Twsmqk2": "0",
        "s6ZXxcm8": "100",
        "E19X6kmB": "",
        "pb5dRMj0": "",
        "P_CREATEDATE": "2018-02-17 22:09:29",
        "P_UPDATEDATE": "2018-02-17 22:09:29"
    },
    {
        "P_SUMMONER_ID": "1",
        "P_LV": "2",
        "6Twsmqk2": "10",
        "s6ZXxcm8": "101",
        "E19X6kmB": "40001",
        "pb5dRMj0": "\u300c\u30d1\u30fc\u30f4\u30a7\u30a4\u30c9\u30d5\u30a9\u30fc\u30b9\u300d\u3092\u4fee\u5f97\uff01",
        "P_CREATEDATE": "2018-02-17 22:09:29",
        "P_UPDATEDATE": "2018-02-17 22:09:29"
    },
    {
        "P_SUMMONER_ID": "1",
        "P_LV": "3",
        "6Twsmqk2": "10",
        "s6ZXxcm8": "101",
        "E19X6kmB": "40001",
        "pb5dRMj0": "\u300c<001>\u300d\u306e\u30c0\u30e1\u30fc\u30b8\u304c\u30a2\u30c3\u30d7\uff01",
        "P_CREATEDATE": "2018-02-17 22:09:29",
        "P_UPDATEDATE": "2018-02-17 22:09:29"
    },
    {
        "P_SUMMONER_ID": "1",
        "P_LV": "4",
        "6Twsmqk2": "20",
        "s6ZXxcm8": "101",
        "E19X6kmB": "40001,30001",
        "pb5dRMj0": "\u300c\u30d5\u30a3\u30eb\u30ea\u30f3\u30b1\u30fc\u30b8\u300d\u3092\u4fee\u5f97\uff01",
        "P_CREATEDATE": "2018-02-17 22:09:29",
        "P_UPDATEDATE": "2018-02-17 22:09:29"
    },
    {
        "P_SUMMONER_ID": "1",
        "P_LV": "5",
        "6Twsmqk2": "30",
        "s6ZXxcm8": "101",
        "E19X6kmB": "40001,30001",
        "pb5dRMj0": "\u300c<001>\u300d\u306b\u653b\u6483\u529b\u30a2\u30c3\u30d7\u52b9\u679c\u304c\u8ffd\u52a0\uff01",
        "P_CREATEDATE": "2018-02-17 22:09:29",
        "P_UPDATEDATE": "2018-02-17 22:09:29"
    },
    {
        "P_SUMMONER_ID": "1",
        "P_LV": "6",
        "6Twsmqk2": "40",
        "s6ZXxcm8": "102",
        "E19X6kmB": "40002,30001",
        "pb5dRMj0": "\u300c\u30d1\u30fc\u30f4\u30a7\u30a4\u30c9\u30d5\u30a9\u30fc\u30b9\u300d\u306e\u52b9\u679c\u304c\u30a2\u30c3\u30d7\uff01",
        "P_CREATEDATE": "2018-02-17 22:09:29",
        "P_UPDATEDATE": "2018-02-17 22:09:29"
    },
    {
        "P_SUMMONER_ID": "1",
        "P_LV": "7",
        "6Twsmqk2": "50",
        "s6ZXxcm8": "102",
        "E19X6kmB": "40002,30001",
        "pb5dRMj0": "\u300c<001>\u300d\u306e\u30c0\u30e1\u30fc\u30b8\u304c\u30a2\u30c3\u30d7\uff01",
        "P_CREATEDATE": "2018-02-17 22:09:29",
        "P_UPDATEDATE": "2018-02-17 22:09:29"
    },
    {
        "P_SUMMONER_ID": "1",
        "P_LV": "8",
        "6Twsmqk2": "60",
        "s6ZXxcm8": "102",
        "E19X6kmB": "40002,30001",
        "pb5dRMj0": "\u300c<001>\u300d\u306e\u653b\u6483\u529b\u30a2\u30c3\u30d7\u52b9\u679c\u30bf\u30fc\u30f3\u6570\u304c\u5897\u52a0\uff01",
        "P_CREATEDATE": "2018-02-17 22:09:29",
        "P_UPDATEDATE": "2018-02-17 22:09:29"
    },
    {
        "P_SUMMONER_ID": "1",
        "P_LV": "9",
        "6Twsmqk2": "80",
        "s6ZXxcm8": "102",
        "E19X6kmB": "40002,30002",
        "pb5dRMj0": "\u300c\u30d5\u30a3\u30eb\u30ea\u30f3\u30b1\u30fc\u30b8\u300d\u306e\u52b9\u679c\u304c\u30a2\u30c3\u30d7\uff01",
        "P_CREATEDATE": "2018-02-17 22:09:29",
        "P_UPDATEDATE": "2018-02-17 22:09:29"
    },
    {
        "P_SUMMONER_ID": "1",
        "P_LV": "10",
        "6Twsmqk2": "100",
        "s6ZXxcm8": "102",
        "E19X6kmB": "40002,30002",
        "pb5dRMj0": "\u300c<001>\u300d\u306b\u653b\u6483\u529b\u30a2\u30c3\u30d7\u52b9\u679c\u304c\u30a2\u30c3\u30d7\uff01",
        "P_CREATEDATE": "2018-02-17 22:09:29",
        "P_UPDATEDATE": "2018-02-17 22:09:29"
    },
    {
        "P_SUMMONER_ID": "1",
        "P_LV": "11",
        "6Twsmqk2": "100",
        "s6ZXxcm8": "103",
        "E19X6kmB": "40003,30002",
        "pb5dRMj0": "\u300c\u30d1\u30fc\u30f4\u30a7\u30a4\u30c9\u30d5\u30a9\u30fc\u30b9\u300d\u306e\u52b9\u679c\u304c\u30a2\u30c3\u30d7\uff01",
        "P_CREATEDATE": "2018-02-17 22:09:29",
        "P_UPDATEDATE": "2018-02-17 22:09:29"
    },
    {
        "P_SUMMONER_ID": "1",
        "P_LV": "12",
        "6Twsmqk2": "100",
        "s6ZXxcm8": "103",
        "E19X6kmB": "40003,30002",
        "pb5dRMj0": "\u300c<002>\u300d\u306e\u30c0\u30e1\u30fc\u30b8\u304c\u30a2\u30c3\u30d7\uff01",
        "P_CREATEDATE": "2018-02-17 22:09:29",
        "P_UPDATEDATE": "2018-02-17 22:09:29"
    },
    {
        "P_SUMMONER_ID": "1",
        "P_LV": "13",
        "6Twsmqk2": "110",
        "s6ZXxcm8": "103",
        "E19X6kmB": "40003,30003",
        "pb5dRMj0": "\u300c\u30d5\u30a3\u30eb\u30ea\u30f3\u30b1\u30fc\u30b8\u300d\u306e\u52b9\u679c\u304c\u30a2\u30c3\u30d7\uff01",
        "P_CREATEDATE": "2018-02-17 22:09:29",
        "P_UPDATEDATE": "2018-02-17 22:09:29"
    },
    {
        "P_SUMMONER_ID": "1",
        "P_LV": "14",
        "6Twsmqk2": "110",
        "s6ZXxcm8": "103",
        "E19X6kmB": "40003,30003",
        "pb5dRMj0": "\u300c<002>\u300d\u306b\u8ffd\u6483\u52b9\u679c\u304c\u8ffd\u52a0\uff01",
        "P_CREATEDATE": "2018-02-17 22:09:29",
        "P_UPDATEDATE": "2018-02-17 22:09:29"
    },
    {
        "P_SUMMONER_ID": "1",
        "P_LV": "15",
        "6Twsmqk2": "120",
        "s6ZXxcm8": "104",
        "E19X6kmB": "40004,30003",
        "pb5dRMj0": "\u300c\u30d1\u30fc\u30f4\u30a7\u30a4\u30c9\u30d5\u30a9\u30fc\u30b9\u300d\u306e\u52b9\u679c\u304c\u30a2\u30c3\u30d7\uff01",
        "P_CREATEDATE": "2018-02-17 22:09:29",
        "P_UPDATEDATE": "2018-02-17 22:09:29"
    },
    {
        "P_SUMMONER_ID": "1",
        "P_LV": "16",
        "6Twsmqk2": "120",
        "s6ZXxcm8": "104",
        "E19X6kmB": "40004,30003",
        "pb5dRMj0": "\u300c<002>\u300d\u306e\u30c0\u30e1\u30fc\u30b8\u304c\u30a2\u30c3\u30d7\uff01",
        "P_CREATEDATE": "2018-02-17 22:09:29",
        "P_UPDATEDATE": "2018-02-17 22:09:29"
    },
    {
        "P_SUMMONER_ID": "1",
        "P_LV": "17",
        "6Twsmqk2": "130",
        "s6ZXxcm8": "104",
        "E19X6kmB": "40004,30003",
        "pb5dRMj0": "\u300c<002>\u300d\u306e\u8ffd\u6483\u52b9\u679c\u304c\u30a2\u30c3\u30d7\uff01",
        "P_CREATEDATE": "2018-02-17 22:09:29",
        "P_UPDATEDATE": "2018-02-17 22:09:29"
    },
    {
        "P_SUMMONER_ID": "1",
        "P_LV": "18",
        "6Twsmqk2": "130",
        "s6ZXxcm8": "104",
        "E19X6kmB": "40004,30004",
        "pb5dRMj0": "\u300c\u30d5\u30a3\u30eb\u30ea\u30f3\u30b1\u30fc\u30b8\u300d\u306e\u52b9\u679c\u304c\u30a2\u30c3\u30d7\uff01",
        "P_CREATEDATE": "2018-02-17 22:09:29",
        "P_UPDATEDATE": "2018-02-17 22:09:29"
    },
    {
        "P_SUMMONER_ID": "1",
        "P_LV": "19",
        "6Twsmqk2": "140",
        "s6ZXxcm8": "104",
        "E19X6kmB": "40004,30004",
        "pb5dRMj0": "\u300c<002>\u300d\u306e\u8ffd\u6483\u52b9\u679c\u304c\u30a2\u30c3\u30d7\uff01",
        "P_CREATEDATE": "2018-02-17 22:09:29",
        "P_UPDATEDATE": "2018-02-17 22:09:29"
    },
    {
        "P_SUMMONER_ID": "1",
        "P_LV": "20",
        "6Twsmqk2": "140",
        "s6ZXxcm8": "105",
        "E19X6kmB": "40005,30004",
        "pb5dRMj0": "\u300c\u30d1\u30fc\u30f4\u30a7\u30a4\u30c9\u30d5\u30a9\u30fc\u30b9\u300d\u306e\u52b9\u679c\u304c\u30a2\u30c3\u30d7\uff01",
        "P_CREATEDATE": "2018-02-17 22:09:29",
        "P_UPDATEDATE": "2018-02-17 22:09:29"
    },
    {
        "P_SUMMONER_ID": "1",
        "P_LV": "21",
        "6Twsmqk2": "160",
        "s6ZXxcm8": "106",
        "E19X6kmB": "40006,30004",
        "pb5dRMj0": "\u300c\u30d1\u30fc\u30f4\u30a7\u30a4\u30c9\u30d5\u30a9\u30fc\u30b9\u300d\u306e\u52b9\u679c\u304c\u30a2\u30c3\u30d7\uff01",
        "P_CREATEDATE": "2018-02-17 22:09:29",
        "P_UPDATEDATE": "2018-02-17 22:09:29"
    },
    {
        "P_SUMMONER_ID": "1",
        "P_LV": "22",
        "6Twsmqk2": "200",
        "s6ZXxcm8": "106",
        "E19X6kmB": "40006,30004",
        "pb5dRMj0": "\u300c<003>\u300d\u306e\u30c0\u30e1\u30fc\u30b8\u304c\u30a2\u30c3\u30d7\uff01",
        "P_CREATEDATE": "2018-02-17 22:09:29",
        "P_UPDATEDATE": "2018-02-17 22:09:29"
    },
    {
        "P_SUMMONER_ID": "1",
        "P_LV": "23",
        "6Twsmqk2": "240",
        "s6ZXxcm8": "106",
        "E19X6kmB": "40006,30005",
        "pb5dRMj0": "\u300c\u30d5\u30a3\u30eb\u30ea\u30f3\u30b1\u30fc\u30b8\u300d\u306e\u52b9\u679c\u304c\u30a2\u30c3\u30d7\uff01",
        "P_CREATEDATE": "2018-02-17 22:09:29",
        "P_UPDATEDATE": "2018-02-17 22:09:29"
    },
    {
        "P_SUMMONER_ID": "1",
        "P_LV": "24",
        "6Twsmqk2": "300",
        "s6ZXxcm8": "106",
        "E19X6kmB": "40006,30005",
        "pb5dRMj0": "\u300c<003>\u300d\u306bBB\u30b2\u30fc\u30b8\u5897\u52a0\u52b9\u679c\u304c\u8ffd\u52a0\uff01",
        "P_CREATEDATE": "2018-02-17 22:09:29",
        "P_UPDATEDATE": "2018-02-17 22:09:29"
    },
    {
        "P_SUMMONER_ID": "1",
        "P_LV": "25",
        "6Twsmqk2": "400",
        "s6ZXxcm8": "107",
        "E19X6kmB": "40007,30005",
        "pb5dRMj0": "\u300c\u30d1\u30fc\u30f4\u30a7\u30a4\u30c9\u30d5\u30a9\u30fc\u30b9\u300d\u306e\u52b9\u679c\u304c\u30a2\u30c3\u30d7\uff01",
        "P_CREATEDATE": "2018-02-17 22:09:29",
        "P_UPDATEDATE": "2018-02-17 22:09:29"
    },
    {
        "P_SUMMONER_ID": "1",
        "P_LV": "26",
        "6Twsmqk2": "500",
        "s6ZXxcm8": "107",
        "E19X6kmB": "40007,30005",
        "pb5dRMj0": "\u300c<003>\u300d\u306e\u30c0\u30e1\u30fc\u30b8\u304c\u30a2\u30c3\u30d7\uff01",
        "P_CREATEDATE": "2018-02-17 22:09:29",
        "P_UPDATEDATE": "2018-02-17 22:09:29"
    },
    {
        "P_SUMMONER_ID": "1",
        "P_LV": "27",
        "6Twsmqk2": "600",
        "s6ZXxcm8": "107",
        "E19X6kmB": "40007,30005",
        "pb5dRMj0": "\u300c<003>\u300d\u306eBB\u30b2\u30fc\u30b8\u5897\u52a0\u91cf\u304c\u30a2\u30c3\u30d7\uff01",
        "P_CREATEDATE": "2018-02-17 22:09:29",
        "P_UPDATEDATE": "2018-02-17 22:09:29"
    },
    {
        "P_SUMMONER_ID": "1",
        "P_LV": "28",
        "6Twsmqk2": "700",
        "s6ZXxcm8": "107",
        "E19X6kmB": "40007,30006",
        "pb5dRMj0": "\u300c\u30d5\u30a3\u30eb\u30ea\u30f3\u30b1\u30fc\u30b8\u300d\u306e\u52b9\u679c\u304c\u30a2\u30c3\u30d7\uff01",
        "P_CREATEDATE": "2018-02-17 22:09:29",
        "P_UPDATEDATE": "2018-02-17 22:09:29"
    },
    {
        "P_SUMMONER_ID": "1",
        "P_LV": "29",
        "6Twsmqk2": "800",
        "s6ZXxcm8": "107",
        "E19X6kmB": "40007,30006",
        "pb5dRMj0": "\u300c<003>\u300d\u306eBB\u30b2\u30fc\u30b8\u5897\u52a0\u91cf\u304c\u30a2\u30c3\u30d7\uff01",
        "P_CREATEDATE": "2018-02-17 22:09:29",
        "P_UPDATEDATE": "2018-02-17 22:09:29"
    },
    {
        "P_SUMMONER_ID": "1",
        "P_LV": "30",
        "6Twsmqk2": "900",
        "s6ZXxcm8": "108",
        "E19X6kmB": "40008,30006",
        "pb5dRMj0": "\u300c\u30d1\u30fc\u30f4\u30a7\u30a4\u30c9\u30d5\u30a9\u30fc\u30b9\u300d\u306e\u52b9\u679c\u304c\u30a2\u30c3\u30d7\uff01",
        "P_CREATEDATE": "2018-02-17 22:09:29",
        "P_UPDATEDATE": "2018-02-17 22:09:29"
    },
    {
        "P_SUMMONER_ID": "2",
        "P_LV": "1",
        "6Twsmqk2": "0",
        "s6ZXxcm8": "100",
        "E19X6kmB": "10001",
        "pb5dRMj0": "",
        "P_CREATEDATE": "2018-02-17 22:09:29",
        "P_UPDATEDATE": "2018-02-17 22:09:29"
    },
    {
        "P_SUMMONER_ID": "2",
        "P_LV": "2",
        "6Twsmqk2": "10",
        "s6ZXxcm8": "100",
        "E19X6kmB": "10002",
        "pb5dRMj0": "\u300c\u8ffd\u8972\u306e\u7d46\u300d\u306e\u52b9\u679c\u304c\u30a2\u30c3\u30d7\uff01",
        "P_CREATEDATE": "2018-02-17 22:09:29",
        "P_UPDATEDATE": "2018-02-17 22:09:29"
    },
    {
        "P_SUMMONER_ID": "2",
        "P_LV": "3",
        "6Twsmqk2": "10",
        "s6ZXxcm8": "100",
        "E19X6kmB": "10003",
        "pb5dRMj0": "\u300c\u8ffd\u8972\u306e\u7d46\u300d\u306e\u52b9\u679c\u304c\u30a2\u30c3\u30d7\uff01",
        "P_CREATEDATE": "2018-02-17 22:09:29",
        "P_UPDATEDATE": "2018-02-17 22:09:29"
    },
    {
        "P_SUMMONER_ID": "2",
        "P_LV": "4",
        "6Twsmqk2": "20",
        "s6ZXxcm8": "100",
        "E19X6kmB": "10003,30001",
        "pb5dRMj0": "\u300c\u30d5\u30a3\u30eb\u30ea\u30f3\u30b1\u30fc\u30b8\u300d\u3092\u4fee\u5f97\uff01",
        "P_CREATEDATE": "2018-02-17 22:09:29",
        "P_UPDATEDATE": "2018-02-17 22:09:29"
    },
    {
        "P_SUMMONER_ID": "2",
        "P_LV": "5",
        "6Twsmqk2": "30",
        "s6ZXxcm8": "100",
        "E19X6kmB": "10003,20001,30001",
        "pb5dRMj0": "\u300c\u596a\u7372\u306e\u7d46\u300d\u3092\u4fee\u5f97\uff01",
        "P_CREATEDATE": "2018-02-17 22:09:29",
        "P_UPDATEDATE": "2018-02-17 22:09:29"
    },
    {
        "P_SUMMONER_ID": "2",
        "P_LV": "6",
        "6Twsmqk2": "40",
        "s6ZXxcm8": "100",
        "E19X6kmB": "10004,20001,30001",
        "pb5dRMj0": "\u300c\u8ffd\u8972\u306e\u7d46\u300d\u306e\u52b9\u679c\u304c\u30a2\u30c3\u30d7\uff01",
        "P_CREATEDATE": "2018-02-17 22:09:29",
        "P_UPDATEDATE": "2018-02-17 22:09:29"
    },
    {
        "P_SUMMONER_ID": "2",
        "P_LV": "7",
        "6Twsmqk2": "50",
        "s6ZXxcm8": "100",
        "E19X6kmB": "10005,20001,30001",
        "pb5dRMj0": "\u300c\u8ffd\u8972\u306e\u7d46\u300d\u306e\u52b9\u679c\u304c\u30a2\u30c3\u30d7\uff01",
        "P_CREATEDATE": "2018-02-17 22:09:29",
        "P_UPDATEDATE": "2018-02-17 22:09:29"
    },
    {
        "P_SUMMONER_ID": "2",
        "P_LV": "8",
        "6Twsmqk2": "60",
        "s6ZXxcm8": "100",
        "E19X6kmB": "10005,20001,30002",
        "pb5dRMj0": "\u300c\u30d5\u30a3\u30eb\u30ea\u30f3\u30b1\u30fc\u30b8\u300d\u306e\u52b9\u679c\u304c\u30a2\u30c3\u30d7\uff01",
        "P_CREATEDATE": "2018-02-17 22:09:29",
        "P_UPDATEDATE": "2018-02-17 22:09:29"
    },
    {
        "P_SUMMONER_ID": "2",
        "P_LV": "9",
        "6Twsmqk2": "80",
        "s6ZXxcm8": "100",
        "E19X6kmB": "10005,20002,30002",
        "pb5dRMj0": "\u300c\u596a\u7372\u306e\u7d46\u300d\u306e\u52b9\u679c\u304c\u30a2\u30c3\u30d7\uff01",
        "P_CREATEDATE": "2018-02-17 22:09:29",
        "P_UPDATEDATE": "2018-02-17 22:09:29"
    },
    {
        "P_SUMMONER_ID": "2",
        "P_LV": "10",
        "6Twsmqk2": "100",
        "s6ZXxcm8": "100",
        "E19X6kmB": "10005,10101,20002,30002",
        "pb5dRMj0": "\u300c\u7363\u9b42\u306e\u9583\u304d\u300d\u3092\u4fee\u5f97\uff01",
        "P_CREATEDATE": "2018-02-17 22:09:29",
        "P_UPDATEDATE": "2018-02-17 22:09:29"
    },
    {
        "P_SUMMONER_ID": "2",
        "P_LV": "11",
        "6Twsmqk2": "100",
        "s6ZXxcm8": "100",
        "E19X6kmB": "10006,10101,20002,30002",
        "pb5dRMj0": "\u300c\u8ffd\u8972\u306e\u7d46\u300d\u306e\u52b9\u679c\u304c\u30a2\u30c3\u30d7\uff01",
        "P_CREATEDATE": "2018-02-17 22:09:29",
        "P_UPDATEDATE": "2018-02-17 22:09:29"
    },
    {
        "P_SUMMONER_ID": "2",
        "P_LV": "12",
        "6Twsmqk2": "100",
        "s6ZXxcm8": "100",
        "E19X6kmB": "10007,10101,20002,30002",
        "pb5dRMj0": "\u300c\u8ffd\u8972\u306e\u7d46\u300d\u306e\u52b9\u679c\u304c\u30a2\u30c3\u30d7\uff01",
        "P_CREATEDATE": "2018-02-17 22:09:29",
        "P_UPDATEDATE": "2018-02-17 22:09:29"
    },
    {
        "P_SUMMONER_ID": "2",
        "P_LV": "13",
        "6Twsmqk2": "110",
        "s6ZXxcm8": "100",
        "E19X6kmB": "10007,10101,20002,30003",
        "pb5dRMj0": "\u300c\u30d5\u30a3\u30eb\u30ea\u30f3\u30b1\u30fc\u30b8\u300d\u306e\u52b9\u679c\u304c\u30a2\u30c3\u30d7\uff01",
        "P_CREATEDATE": "2018-02-17 22:09:29",
        "P_UPDATEDATE": "2018-02-17 22:09:29"
    },
    {
        "P_SUMMONER_ID": "2",
        "P_LV": "14",
        "6Twsmqk2": "110",
        "s6ZXxcm8": "100",
        "E19X6kmB": "10007,10101,20003,30003",
        "pb5dRMj0": "\u300c\u596a\u7372\u306e\u7d46\u300d\u306e\u52b9\u679c\u304c\u30a2\u30c3\u30d7\uff01",
        "P_CREATEDATE": "2018-02-17 22:09:29",
        "P_UPDATEDATE": "2018-02-17 22:09:29"
    },
    {
        "P_SUMMONER_ID": "2",
        "P_LV": "15",
        "6Twsmqk2": "120",
        "s6ZXxcm8": "100",
        "E19X6kmB": "10008,10101,20003,30003",
        "pb5dRMj0": "\u300c\u8ffd\u8972\u306e\u7d46\u300d\u306e\u52b9\u679c\u304c\u30a2\u30c3\u30d7\uff01",
        "P_CREATEDATE": "2018-02-17 22:09:29",
        "P_UPDATEDATE": "2018-02-17 22:09:29"
    },
    {
        "P_SUMMONER_ID": "2",
        "P_LV": "16",
        "6Twsmqk2": "120",
        "s6ZXxcm8": "100",
        "E19X6kmB": "10009,10101,20003,30003",
        "pb5dRMj0": "\u300c\u8ffd\u8972\u306e\u7d46\u300d\u306e\u52b9\u679c\u304c\u30a2\u30c3\u30d7\uff01",
        "P_CREATEDATE": "2018-02-17 22:09:29",
        "P_UPDATEDATE": "2018-02-17 22:09:29"
    },
    {
        "P_SUMMONER_ID": "2",
        "P_LV": "17",
        "6Twsmqk2": "130",
        "s6ZXxcm8": "100",
        "E19X6kmB": "10009,10101,20003,30004",
        "pb5dRMj0": "\u300c\u30d5\u30a3\u30eb\u30ea\u30f3\u30b1\u30fc\u30b8\u300d\u306e\u52b9\u679c\u304c\u30a2\u30c3\u30d7\uff01",
        "P_CREATEDATE": "2018-02-17 22:09:29",
        "P_UPDATEDATE": "2018-02-17 22:09:29"
    },
    {
        "P_SUMMONER_ID": "2",
        "P_LV": "18",
        "6Twsmqk2": "130",
        "s6ZXxcm8": "100",
        "E19X6kmB": "10009,10101,20004,30004",
        "pb5dRMj0": "\u300c\u596a\u7372\u306e\u7d46\u300d\u306e\u52b9\u679c\u304c\u30a2\u30c3\u30d7\uff01",
        "P_CREATEDATE": "2018-02-17 22:09:29",
        "P_UPDATEDATE": "2018-02-17 22:09:29"
    },
    {
        "P_SUMMONER_ID": "2",
        "P_LV": "19",
        "6Twsmqk2": "140",
        "s6ZXxcm8": "100",
        "E19X6kmB": "10009,10102,20004,30004",
        "pb5dRMj0": "\u300c\u7363\u9b42\u306e\u9583\u304d\u300d\u306e\u52b9\u679c\u304c\u30a2\u30c3\u30d7\uff01",
        "P_CREATEDATE": "2018-02-17 22:09:29",
        "P_UPDATEDATE": "2018-02-17 22:09:29"
    },
    {
        "P_SUMMONER_ID": "2",
        "P_LV": "20",
        "6Twsmqk2": "140",
        "s6ZXxcm8": "100",
        "E19X6kmB": "10009,10102,20005,30004",
        "pb5dRMj0": "\u300c\u596a\u7372\u306e\u7d46\u300d\u306e\u52b9\u679c\u304c\u30a2\u30c3\u30d7\uff01",
        "P_CREATEDATE": "2018-02-17 22:09:29",
        "P_UPDATEDATE": "2018-02-17 22:09:29"
    },
    {
        "P_SUMMONER_ID": "2",
        "P_LV": "21",
        "6Twsmqk2": "160",
        "s6ZXxcm8": "100",
        "E19X6kmB": "10010,10102,20005,30004",
        "pb5dRMj0": "\u300c\u8ffd\u8972\u306e\u7d46\u300d\u306e\u52b9\u679c\u304c\u30a2\u30c3\u30d7\uff01",
        "P_CREATEDATE": "2018-02-17 22:09:29",
        "P_UPDATEDATE": "2018-02-17 22:09:29"
    },
    {
        "P_SUMMONER_ID": "2",
        "P_LV": "22",
        "6Twsmqk2": "200",
        "s6ZXxcm8": "100",
        "E19X6kmB": "10011,10102,20005,30004",
        "pb5dRMj0": "\u300c\u8ffd\u8972\u306e\u7d46\u300d\u306e\u52b9\u679c\u304c\u30a2\u30c3\u30d7\uff01",
        "P_CREATEDATE": "2018-02-17 22:09:29",
        "P_UPDATEDATE": "2018-02-17 22:09:29"
    },
    {
        "P_SUMMONER_ID": "2",
        "P_LV": "23",
        "6Twsmqk2": "240",
        "s6ZXxcm8": "100",
        "E19X6kmB": "10011,10102,20005,30005",
        "pb5dRMj0": "\u300c\u30d5\u30a3\u30eb\u30ea\u30f3\u30b1\u30fc\u30b8\u300d\u306e\u52b9\u679c\u304c\u30a2\u30c3\u30d7\uff01",
        "P_CREATEDATE": "2018-02-17 22:09:29",
        "P_UPDATEDATE": "2018-02-17 22:09:29"
    },
    {
        "P_SUMMONER_ID": "2",
        "P_LV": "24",
        "6Twsmqk2": "300",
        "s6ZXxcm8": "100",
        "E19X6kmB": "10011,10102,20006,30005",
        "pb5dRMj0": "\u300c\u596a\u7372\u306e\u7d46\u300d\u306e\u52b9\u679c\u304c\u30a2\u30c3\u30d7\uff01",
        "P_CREATEDATE": "2018-02-17 22:09:29",
        "P_UPDATEDATE": "2018-02-17 22:09:29"
    },
    {
        "P_SUMMONER_ID": "2",
        "P_LV": "25",
        "6Twsmqk2": "400",
        "s6ZXxcm8": "100",
        "E19X6kmB": "10012,10102,20006,30005",
        "pb5dRMj0": "\u300c\u8ffd\u8972\u306e\u7d46\u300d\u306e\u52b9\u679c\u304c\u30a2\u30c3\u30d7\uff01",
        "P_CREATEDATE": "2018-02-17 22:09:29",
        "P_UPDATEDATE": "2018-02-17 22:09:29"
    },
    {
        "P_SUMMONER_ID": "2",
        "P_LV": "26",
        "6Twsmqk2": "500",
        "s6ZXxcm8": "100",
        "E19X6kmB": "10013,10102,20006,30005",
        "pb5dRMj0": "\u300c\u8ffd\u8972\u306e\u7d46\u300d\u306e\u52b9\u679c\u304c\u30a2\u30c3\u30d7\uff01",
        "P_CREATEDATE": "2018-02-17 22:09:29",
        "P_UPDATEDATE": "2018-02-17 22:09:29"
    },
    {
        "P_SUMMONER_ID": "2",
        "P_LV": "27",
        "6Twsmqk2": "600",
        "s6ZXxcm8": "100",
        "E19X6kmB": "10013,10102,20006,30006",
        "pb5dRMj0": "\u300c\u30d5\u30a3\u30eb\u30ea\u30f3\u30b1\u30fc\u30b8\u300d\u306e\u52b9\u679c\u304c\u30a2\u30c3\u30d7\uff01",
        "P_CREATEDATE": "2018-02-17 22:09:29",
        "P_UPDATEDATE": "2018-02-17 22:09:29"
    },
    {
        "P_SUMMONER_ID": "2",
        "P_LV": "28",
        "6Twsmqk2": "700",
        "s6ZXxcm8": "100",
        "E19X6kmB": "10013,10102,20007,30006",
        "pb5dRMj0": "\u300c\u596a\u7372\u306e\u7d46\u300d\u306e\u52b9\u679c\u304c\u30a2\u30c3\u30d7\uff01",
        "P_CREATEDATE": "2018-02-17 22:09:29",
        "P_UPDATEDATE": "2018-02-17 22:09:29"
    },
    {
        "P_SUMMONER_ID": "2",
        "P_LV": "29",
        "6Twsmqk2": "800",
        "s6ZXxcm8": "100",
        "E19X6kmB": "10013,10103,20007,30006",
        "pb5dRMj0": "\u300c\u7363\u9b42\u306e\u9583\u304d\u300d\u306e\u52b9\u679c\u304c\u30a2\u30c3\u30d7\uff01",
        "P_CREATEDATE": "2018-02-17 22:09:29",
        "P_UPDATEDATE": "2018-02-17 22:09:29"
    },
    {
        "P_SUMMONER_ID": "2",
        "P_LV": "30",
        "6Twsmqk2": "900",
        "s6ZXxcm8": "100",
        "E19X6kmB": "10013,10103,20008,30006",
        "pb5dRMj0": "\u300c\u596a\u7372\u306e\u7d46\u300d\u306e\u52b9\u679c\u304c\u30a2\u30c3\u30d7\uff01",
        "P_CREATEDATE": "2018-02-17 22:09:29",
        "P_UPDATEDATE": "2018-02-17 22:09:29"
    }
]