[
    {
        "P_ALT_SKILL_ID": "10000",
        "P_ALT_SKILL_NAME": "\u9b54\u795e\u5316",
        "P_ALT_SKILL_TYPE": "1",
        "P_ALT_SKILL_PARAM": "2101124",
        "P_ALT_SKILL_P": "5",
        "LzrMm2t8": "0",
        "P_TURN_USE_FLG": "0",
        "fM6IAS2U": "0,0",
        "8m1si9wg": "0,0",
        "wHd15zbe": "0",
        "EgF9N8o3": "0",
        "2bfptBo7": "3",
        "P_CREATEDATE": "2018-06-08 01:10:03",
        "P_UPDATEDATE": "2018-06-08 01:10:03"
    },
    {
        "P_ALT_SKILL_ID": "10001",
        "P_ALT_SKILL_NAME": "\u30ac\u30d6\u30c6\u30a3\u30e9\u30fb\u30c7\u30fb\u30ab\u30fc\u30cb\u30d0\u30eb\uff01",
        "P_ALT_SKILL_TYPE": "1",
        "P_ALT_SKILL_PARAM": "1101824",
        "P_ALT_SKILL_P": "3",
        "LzrMm2t8": "0",
        "P_TURN_USE_FLG": "0",
        "fM6IAS2U": "1,100",
        "8m1si9wg": "0,0",
        "wHd15zbe": "1",
        "EgF9N8o3": "1",
        "2bfptBo7": "3",
        "P_CREATEDATE": "2018-06-08 01:10:03",
        "P_UPDATEDATE": "2018-06-08 01:10:03"
    },
    {
        "P_ALT_SKILL_ID": "10002",
        "P_ALT_SKILL_NAME": "\u30a2\u30c3\u30d7\u30c7\u30fc\u30c8\uff1a\uff38\uff24\uff2c\u30e2\u30fc\u30c9",
        "P_ALT_SKILL_TYPE": "1",
        "P_ALT_SKILL_PARAM": "4102024",
        "P_ALT_SKILL_P": "1",
        "LzrMm2t8": "0",
        "P_TURN_USE_FLG": "0",
        "fM6IAS2U": "0,0",
        "8m1si9wg": "0,0",
        "wHd15zbe": "1",
        "EgF9N8o3": "1",
        "2bfptBo7": "2",
        "P_CREATEDATE": "2018-06-08 01:10:03",
        "P_UPDATEDATE": "2018-06-08 01:10:03"
    },
    {
        "P_ALT_SKILL_ID": "10003",
        "P_ALT_SKILL_NAME": "\u552f\u6211\u9ed2\u5929",
        "P_ALT_SKILL_TYPE": "1",
        "P_ALT_SKILL_PARAM": "5103014",
        "P_ALT_SKILL_P": "3",
        "LzrMm2t8": "0",
        "P_TURN_USE_FLG": "0",
        "fM6IAS2U": "0,0",
        "8m1si9wg": "0,0",
        "wHd15zbe": "1",
        "EgF9N8o3": "1",
        "2bfptBo7": "3",
        "P_CREATEDATE": "2018-06-08 01:10:03",
        "P_UPDATEDATE": "2018-06-08 01:10:03"
    },
    {
        "P_ALT_SKILL_ID": "10004",
        "P_ALT_SKILL_NAME": "\u30d5\u30a3\u30a2\u30fc\u30b9\u30fb\u30a2\u30af\u30c8",
        "P_ALT_SKILL_TYPE": "1",
        "P_ALT_SKILL_PARAM": "6103214",
        "P_ALT_SKILL_P": "3",
        "LzrMm2t8": "0",
        "P_TURN_USE_FLG": "0",
        "fM6IAS2U": "0,0",
        "8m1si9wg": "0,0",
        "wHd15zbe": "1",
        "EgF9N8o3": "1",
        "2bfptBo7": "3",
        "P_CREATEDATE": "2018-06-08 01:10:03",
        "P_UPDATEDATE": "2018-06-08 01:10:03"
    },
    {
        "P_ALT_SKILL_ID": "20000",
        "P_ALT_SKILL_NAME": "\u6211\u6d41\u30f4\u30a7\u30fc\u30c0\u83ef\u5263\u300e\u7e5a\u7fe0\u300f",
        "P_ALT_SKILL_TYPE": "3",
        "P_ALT_SKILL_PARAM": "6000004",
        "P_ALT_SKILL_P": "3",
        "LzrMm2t8": "0",
        "P_TURN_USE_FLG": "1",
        "fM6IAS2U": "0,0",
        "8m1si9wg": "0,0",
        "wHd15zbe": "0",
        "EgF9N8o3": "0",
        "2bfptBo7": "0",
        "P_CREATEDATE": "2018-06-08 01:10:03",
        "P_UPDATEDATE": "2018-06-08 01:10:03"
    },
    {
        "P_ALT_SKILL_ID": "20001",
        "P_ALT_SKILL_NAME": "\u8056\u5149\u306e\u30b5\u30f3\u30af\u30aa\u30fc\u30ec",
        "P_ALT_SKILL_TYPE": "3",
        "P_ALT_SKILL_PARAM": "6000005",
        "P_ALT_SKILL_P": "3",
        "LzrMm2t8": "0",
        "P_TURN_USE_FLG": "1",
        "fM6IAS2U": "0,0",
        "8m1si9wg": "0,0",
        "wHd15zbe": "0",
        "EgF9N8o3": "0",
        "2bfptBo7": "0",
        "P_CREATEDATE": "2018-06-08 01:10:03",
        "P_UPDATEDATE": "2018-06-08 01:10:03"
    },
    {
        "P_ALT_SKILL_ID": "20002",
        "P_ALT_SKILL_NAME": "\u30a2\u30f3\u30d6\u30ec\u30a4\u30ab\u30d6\u30eb",
        "P_ALT_SKILL_TYPE": "3",
        "P_ALT_SKILL_PARAM": "6000006",
        "P_ALT_SKILL_P": "3",
        "LzrMm2t8": "0",
        "P_TURN_USE_FLG": "1",
        "fM6IAS2U": "0,0",
        "8m1si9wg": "0,0",
        "wHd15zbe": "0",
        "EgF9N8o3": "0",
        "2bfptBo7": "0",
        "P_CREATEDATE": "2018-06-08 01:10:03",
        "P_UPDATEDATE": "2018-06-08 01:10:03"
    },
    {
        "P_ALT_SKILL_ID": "20003",
        "P_ALT_SKILL_NAME": "\u7a7a\u9727\u8fc5",
        "P_ALT_SKILL_TYPE": "3",
        "P_ALT_SKILL_PARAM": "6000007",
        "P_ALT_SKILL_P": "3",
        "LzrMm2t8": "0",
        "P_TURN_USE_FLG": "1",
        "fM6IAS2U": "0,0",
        "8m1si9wg": "0,0",
        "wHd15zbe": "0",
        "EgF9N8o3": "0",
        "2bfptBo7": "0",
        "P_CREATEDATE": "2018-06-08 01:10:03",
        "P_UPDATEDATE": "2018-06-08 01:10:03"
    },
    {
        "P_ALT_SKILL_ID": "20004",
        "P_ALT_SKILL_NAME": "\u30ed\u30b9\u30c8\u30eb\u30df\u30ca",
        "P_ALT_SKILL_TYPE": "3",
        "P_ALT_SKILL_PARAM": "6000008",
        "P_ALT_SKILL_P": "3",
        "LzrMm2t8": "0",
        "P_TURN_USE_FLG": "1",
        "fM6IAS2U": "0,0",
        "8m1si9wg": "0,0",
        "wHd15zbe": "0",
        "EgF9N8o3": "0",
        "2bfptBo7": "0",
        "P_CREATEDATE": "2018-06-08 01:10:03",
        "P_UPDATEDATE": "2018-06-08 01:10:03"
    },
    {
        "P_ALT_SKILL_ID": "20005",
        "P_ALT_SKILL_NAME": "\u672c\u5f53\u306b\u9b54\u5263\u306a\u3089\u3001\u30dc\u30af\u306b\u5fdc\u3048\u3066\uff01",
        "P_ALT_SKILL_TYPE": "3",
        "P_ALT_SKILL_PARAM": "6000009",
        "P_ALT_SKILL_P": "2",
        "LzrMm2t8": "0",
        "P_TURN_USE_FLG": "0",
        "fM6IAS2U": "0,0",
        "8m1si9wg": "0,0",
        "wHd15zbe": "0",
        "EgF9N8o3": "0",
        "2bfptBo7": "0",
        "P_CREATEDATE": "2018-06-08 01:10:03",
        "P_UPDATEDATE": "2018-06-08 01:10:03"
    },
    {
        "P_ALT_SKILL_ID": "30000",
        "P_ALT_SKILL_NAME": "\u30b9\u30ad\u30eb\u30e9\u30a4\u30ba",
        "P_ALT_SKILL_TYPE": "3",
        "P_ALT_SKILL_PARAM": "3000000",
        "P_ALT_SKILL_P": "1",
        "LzrMm2t8": "0",
        "P_TURN_USE_FLG": "1",
        "fM6IAS2U": "0,0",
        "8m1si9wg": "0,0",
        "wHd15zbe": "0",
        "EgF9N8o3": "0",
        "2bfptBo7": "0",
        "P_CREATEDATE": "2018-06-08 01:10:03",
        "P_UPDATEDATE": "2018-06-08 01:10:03"
    },
    {
        "P_ALT_SKILL_ID": "100000",
        "P_ALT_SKILL_NAME": "\u30d5\u30a9\u30fc\u30b9\u30b2\u30a4\u30f3",
        "P_ALT_SKILL_TYPE": "3",
        "P_ALT_SKILL_PARAM": "100000",
        "P_ALT_SKILL_P": "1",
        "LzrMm2t8": "0",
        "P_TURN_USE_FLG": "0",
        "fM6IAS2U": "0,0",
        "8m1si9wg": "0,0",
        "wHd15zbe": "0",
        "EgF9N8o3": "0",
        "2bfptBo7": "0",
        "P_CREATEDATE": "2018-06-08 01:10:03",
        "P_UPDATEDATE": "2018-06-08 01:10:03"
    },
    {
        "P_ALT_SKILL_ID": "100001",
        "P_ALT_SKILL_NAME": "\u7cbe\u795e\u7d71\u4e00",
        "P_ALT_SKILL_TYPE": "3",
        "P_ALT_SKILL_PARAM": "100001",
        "P_ALT_SKILL_P": "2",
        "LzrMm2t8": "0",
        "P_TURN_USE_FLG": "1",
        "fM6IAS2U": "0,0",
        "8m1si9wg": "0,0",
        "wHd15zbe": "0",
        "EgF9N8o3": "0",
        "2bfptBo7": "0",
        "P_CREATEDATE": "2018-06-08 01:10:03",
        "P_UPDATEDATE": "2018-06-08 01:10:03"
    },
    {
        "P_ALT_SKILL_ID": "100002",
        "P_ALT_SKILL_NAME": "\u9ed2\u9244\u306e\u5263\u621f",
        "P_ALT_SKILL_TYPE": "3",
        "P_ALT_SKILL_PARAM": "100002",
        "P_ALT_SKILL_P": "3",
        "LzrMm2t8": "0",
        "P_TURN_USE_FLG": "1",
        "fM6IAS2U": "0,0",
        "8m1si9wg": "0,0",
        "wHd15zbe": "0",
        "EgF9N8o3": "0",
        "2bfptBo7": "0",
        "P_CREATEDATE": "2018-06-08 01:10:03",
        "P_UPDATEDATE": "2018-06-08 01:10:03"
    },
    {
        "P_ALT_SKILL_ID": "100100",
        "P_ALT_SKILL_NAME": "\u30b7\u30fc\u30eb\u30c9\u30b2\u30a4\u30f3",
        "P_ALT_SKILL_TYPE": "3",
        "P_ALT_SKILL_PARAM": "100100",
        "P_ALT_SKILL_P": "2",
        "LzrMm2t8": "0",
        "P_TURN_USE_FLG": "0",
        "fM6IAS2U": "0,0",
        "8m1si9wg": "0,0",
        "wHd15zbe": "0",
        "EgF9N8o3": "0",
        "2bfptBo7": "0",
        "P_CREATEDATE": "2018-06-08 01:10:03",
        "P_UPDATEDATE": "2018-06-08 01:10:03"
    },
    {
        "P_ALT_SKILL_ID": "100200",
        "P_ALT_SKILL_NAME": "\u30a4\u30fc\u30b8\u30b9\u30b2\u30a4\u30f3",
        "P_ALT_SKILL_TYPE": "3",
        "P_ALT_SKILL_PARAM": "100200",
        "P_ALT_SKILL_P": "2",
        "LzrMm2t8": "0",
        "P_TURN_USE_FLG": "0",
        "fM6IAS2U": "0,0",
        "8m1si9wg": "0,0",
        "wHd15zbe": "0",
        "EgF9N8o3": "0",
        "2bfptBo7": "0",
        "P_CREATEDATE": "2018-06-08 01:10:03",
        "P_UPDATEDATE": "2018-06-08 01:10:03"
    },
    {
        "P_ALT_SKILL_ID": "100300",
        "P_ALT_SKILL_NAME": "\u30f4\u30a1\u30a4\u30bf\u30eb\u30b2\u30a4\u30f3",
        "P_ALT_SKILL_TYPE": "3",
        "P_ALT_SKILL_PARAM": "100300",
        "P_ALT_SKILL_P": "3",
        "LzrMm2t8": "0",
        "P_TURN_USE_FLG": "1",
        "fM6IAS2U": "0,0",
        "8m1si9wg": "0,0",
        "wHd15zbe": "0",
        "EgF9N8o3": "0",
        "2bfptBo7": "0",
        "P_CREATEDATE": "2018-06-08 01:10:03",
        "P_UPDATEDATE": "2018-06-08 01:10:03"
    },
    {
        "P_ALT_SKILL_ID": "100400",
        "P_ALT_SKILL_NAME": "\u30b0\u30e9\u30f3\u30c4\u30b7\u30d5\u30c8",
        "P_ALT_SKILL_TYPE": "3",
        "P_ALT_SKILL_PARAM": "100400",
        "P_ALT_SKILL_P": "2",
        "LzrMm2t8": "0",
        "P_TURN_USE_FLG": "0",
        "fM6IAS2U": "0,0",
        "8m1si9wg": "0,0",
        "wHd15zbe": "0",
        "EgF9N8o3": "0",
        "2bfptBo7": "0",
        "P_CREATEDATE": "2018-06-08 01:10:03",
        "P_UPDATEDATE": "2018-06-08 01:10:03"
    },
    {
        "P_ALT_SKILL_ID": "100500",
        "P_ALT_SKILL_NAME": "\u30c7\u30e5\u30fc\u30af\u30e9\u30a4\u30e0",
        "P_ALT_SKILL_TYPE": "3",
        "P_ALT_SKILL_PARAM": "100500",
        "P_ALT_SKILL_P": "3",
        "LzrMm2t8": "0",
        "P_TURN_USE_FLG": "0",
        "fM6IAS2U": "0,0",
        "8m1si9wg": "0,0",
        "wHd15zbe": "0",
        "EgF9N8o3": "0",
        "2bfptBo7": "0",
        "P_CREATEDATE": "2018-06-08 01:10:03",
        "P_UPDATEDATE": "2018-06-08 01:10:03"
    },
    {
        "P_ALT_SKILL_ID": "200000",
        "P_ALT_SKILL_NAME": "\u30b9\u30d1\u30fc\u30af\u30d5\u30a9\u30fc\u30b9\u30ec\u30a4\u30ba",
        "P_ALT_SKILL_TYPE": "3",
        "P_ALT_SKILL_PARAM": "200000",
        "P_ALT_SKILL_P": "1",
        "LzrMm2t8": "0",
        "P_TURN_USE_FLG": "0",
        "fM6IAS2U": "0,0",
        "8m1si9wg": "0,0",
        "wHd15zbe": "0",
        "EgF9N8o3": "0",
        "2bfptBo7": "0",
        "P_CREATEDATE": "2018-06-08 01:10:03",
        "P_UPDATEDATE": "2018-06-08 01:10:03"
    },
    {
        "P_ALT_SKILL_ID": "200100",
        "P_ALT_SKILL_NAME": "\u30c7\u30c3\u30c9\u30aa\u30f3\u30bf\u30fc\u30b2\u30c3\u30c8",
        "P_ALT_SKILL_TYPE": "3",
        "P_ALT_SKILL_PARAM": "200100",
        "P_ALT_SKILL_P": "2",
        "LzrMm2t8": "0",
        "P_TURN_USE_FLG": "0",
        "fM6IAS2U": "0,0",
        "8m1si9wg": "0,0",
        "wHd15zbe": "0",
        "EgF9N8o3": "0",
        "2bfptBo7": "0",
        "P_CREATEDATE": "2018-06-08 01:10:03",
        "P_UPDATEDATE": "2018-06-08 01:10:03"
    },
    {
        "P_ALT_SKILL_ID": "300000",
        "P_ALT_SKILL_NAME": "\u30af\u30ea\u30c6\u30a3\u30ab\u30eb\u30d5\u30a9\u30fc\u30b9\u30ec\u30a4\u30ba",
        "P_ALT_SKILL_TYPE": "3",
        "P_ALT_SKILL_PARAM": "300000",
        "P_ALT_SKILL_P": "1",
        "LzrMm2t8": "0",
        "P_TURN_USE_FLG": "0",
        "fM6IAS2U": "0,0",
        "8m1si9wg": "0,0",
        "wHd15zbe": "0",
        "EgF9N8o3": "0",
        "2bfptBo7": "0",
        "P_CREATEDATE": "2018-06-08 01:10:03",
        "P_UPDATEDATE": "2018-06-08 01:10:03"
    },
    {
        "P_ALT_SKILL_ID": "400000",
        "P_ALT_SKILL_NAME": "\u30d0\u30fc\u30b9\u30c8\u30d5\u30a9\u30fc\u30b9",
        "P_ALT_SKILL_TYPE": "3",
        "P_ALT_SKILL_PARAM": "400000",
        "P_ALT_SKILL_P": "1",
        "LzrMm2t8": "0",
        "P_TURN_USE_FLG": "0",
        "fM6IAS2U": "0,0",
        "8m1si9wg": "0,0",
        "wHd15zbe": "0",
        "EgF9N8o3": "0",
        "2bfptBo7": "0",
        "P_CREATEDATE": "2018-06-08 01:10:03",
        "P_UPDATEDATE": "2018-06-08 01:10:03"
    },
    {
        "P_ALT_SKILL_ID": "400100",
        "P_ALT_SKILL_NAME": "\u30d5\u30ec\u30a4\u30e0\u30fb\u30c7\u30a3\u30d5\u30a7\u30af\u30bf",
        "P_ALT_SKILL_TYPE": "3",
        "P_ALT_SKILL_PARAM": "400100",
        "P_ALT_SKILL_P": "1",
        "LzrMm2t8": "0",
        "P_TURN_USE_FLG": "0",
        "fM6IAS2U": "0,0",
        "8m1si9wg": "0,0",
        "wHd15zbe": "0",
        "EgF9N8o3": "0",
        "2bfptBo7": "0",
        "P_CREATEDATE": "2018-06-08 01:10:03",
        "P_UPDATEDATE": "2018-06-08 01:10:03"
    },
    {
        "P_ALT_SKILL_ID": "400101",
        "P_ALT_SKILL_NAME": "\u30f4\u30a9\u30eb\u30c8\u30fb\u30c7\u30a3\u30d5\u30a7\u30af\u30bf",
        "P_ALT_SKILL_TYPE": "3",
        "P_ALT_SKILL_PARAM": "400101",
        "P_ALT_SKILL_P": "1",
        "LzrMm2t8": "0",
        "P_TURN_USE_FLG": "0",
        "fM6IAS2U": "0,0",
        "8m1si9wg": "0,0",
        "wHd15zbe": "0",
        "EgF9N8o3": "0",
        "2bfptBo7": "0",
        "P_CREATEDATE": "2018-06-08 01:10:03",
        "P_UPDATEDATE": "2018-06-08 01:10:03"
    },
    {
        "P_ALT_SKILL_ID": "400102",
        "P_ALT_SKILL_NAME": "\u30a8\u30e1\u30e9\u30eb\u30c9\u30fb\u30c7\u30a3\u30d5\u30a7\u30af\u30bf",
        "P_ALT_SKILL_TYPE": "3",
        "P_ALT_SKILL_PARAM": "400102",
        "P_ALT_SKILL_P": "1",
        "LzrMm2t8": "0",
        "P_TURN_USE_FLG": "0",
        "fM6IAS2U": "0,0",
        "8m1si9wg": "0,0",
        "wHd15zbe": "0",
        "EgF9N8o3": "0",
        "2bfptBo7": "0",
        "P_CREATEDATE": "2018-06-08 01:10:03",
        "P_UPDATEDATE": "2018-06-08 01:10:03"
    },
    {
        "P_ALT_SKILL_ID": "400103",
        "P_ALT_SKILL_NAME": "\u30a2\u30af\u30a2\u30fb\u30c7\u30a3\u30d5\u30a7\u30af\u30bf",
        "P_ALT_SKILL_TYPE": "3",
        "P_ALT_SKILL_PARAM": "400103",
        "P_ALT_SKILL_P": "1",
        "LzrMm2t8": "0",
        "P_TURN_USE_FLG": "0",
        "fM6IAS2U": "0,0",
        "8m1si9wg": "0,0",
        "wHd15zbe": "0",
        "EgF9N8o3": "0",
        "2bfptBo7": "0",
        "P_CREATEDATE": "2018-06-08 01:10:03",
        "P_UPDATEDATE": "2018-06-08 01:10:03"
    },
    {
        "P_ALT_SKILL_ID": "400200",
        "P_ALT_SKILL_NAME": "\u30f4\u30a7\u30eb\u30bd\u30d5\u30a3\u30ea\u30a2",
        "P_ALT_SKILL_TYPE": "3",
        "P_ALT_SKILL_PARAM": "400200",
        "P_ALT_SKILL_P": "2",
        "LzrMm2t8": "0",
        "P_TURN_USE_FLG": "0",
        "fM6IAS2U": "0,0",
        "8m1si9wg": "0,0",
        "wHd15zbe": "0",
        "EgF9N8o3": "0",
        "2bfptBo7": "0",
        "P_CREATEDATE": "2018-06-08 01:10:03",
        "P_UPDATEDATE": "2018-06-08 01:10:03"
    },
    {
        "P_ALT_SKILL_ID": "400300",
        "P_ALT_SKILL_NAME": "\u30c7\u30e2\u30cb\u30c3\u30af\u30b9\u30c6\u30fc\u30c8",
        "P_ALT_SKILL_TYPE": "3",
        "P_ALT_SKILL_PARAM": "400300",
        "P_ALT_SKILL_P": "2",
        "LzrMm2t8": "0",
        "P_TURN_USE_FLG": "0",
        "fM6IAS2U": "0,0",
        "8m1si9wg": "0,0",
        "wHd15zbe": "0",
        "EgF9N8o3": "0",
        "2bfptBo7": "0",
        "P_CREATEDATE": "2018-06-08 01:10:03",
        "P_UPDATEDATE": "2018-06-08 01:10:03"
    },
    {
        "P_ALT_SKILL_ID": "500000",
        "P_ALT_SKILL_NAME": "\u30d0\u30fc\u30b9\u30c8\u30ea\u30c6\u30a4\u30f3",
        "P_ALT_SKILL_TYPE": "3",
        "P_ALT_SKILL_PARAM": "500000",
        "P_ALT_SKILL_P": "1",
        "LzrMm2t8": "0",
        "P_TURN_USE_FLG": "0",
        "fM6IAS2U": "0,0",
        "8m1si9wg": "0,0",
        "wHd15zbe": "0",
        "EgF9N8o3": "0",
        "2bfptBo7": "0",
        "P_CREATEDATE": "2018-06-08 01:10:03",
        "P_UPDATEDATE": "2018-06-08 01:10:03"
    },
    {
        "P_ALT_SKILL_ID": "500100",
        "P_ALT_SKILL_NAME": "\u30d0\u30fc\u30b9\u30c8\u30c1\u30e3\u30fc\u30b8",
        "P_ALT_SKILL_TYPE": "3",
        "P_ALT_SKILL_PARAM": "500100",
        "P_ALT_SKILL_P": "2",
        "LzrMm2t8": "0",
        "P_TURN_USE_FLG": "0",
        "fM6IAS2U": "0,0",
        "8m1si9wg": "0,0",
        "wHd15zbe": "0",
        "EgF9N8o3": "0",
        "2bfptBo7": "0",
        "P_CREATEDATE": "2018-06-08 01:10:03",
        "P_UPDATEDATE": "2018-06-08 01:10:03"
    },
    {
        "P_ALT_SKILL_ID": "600000",
        "P_ALT_SKILL_NAME": "\u30ea\u30ab\u30d0\u30ea\u30fc\u30b3\u30fc\u30c9",
        "P_ALT_SKILL_TYPE": "3",
        "P_ALT_SKILL_PARAM": "600000",
        "P_ALT_SKILL_P": "1",
        "LzrMm2t8": "0",
        "P_TURN_USE_FLG": "0",
        "fM6IAS2U": "0,0",
        "8m1si9wg": "0,0",
        "wHd15zbe": "0",
        "EgF9N8o3": "0",
        "2bfptBo7": "0",
        "P_CREATEDATE": "2018-06-08 01:10:03",
        "P_UPDATEDATE": "2018-06-08 01:10:03"
    },
    {
        "P_ALT_SKILL_ID": "600001",
        "P_ALT_SKILL_NAME": "\u30ec\u30b9\u30c8\u30a2\u30b3\u30fc\u30c9",
        "P_ALT_SKILL_TYPE": "3",
        "P_ALT_SKILL_PARAM": "600001",
        "P_ALT_SKILL_P": "2",
        "LzrMm2t8": "0",
        "P_TURN_USE_FLG": "0",
        "fM6IAS2U": "0,0",
        "8m1si9wg": "0,0",
        "wHd15zbe": "0",
        "EgF9N8o3": "0",
        "2bfptBo7": "0",
        "P_CREATEDATE": "2018-06-08 01:10:03",
        "P_UPDATEDATE": "2018-06-08 01:10:03"
    },
    {
        "P_ALT_SKILL_ID": "600100",
        "P_ALT_SKILL_NAME": "\u30d2\u30fc\u30eb\u30ea\u30c6\u30a4\u30f3",
        "P_ALT_SKILL_TYPE": "3",
        "P_ALT_SKILL_PARAM": "600100",
        "P_ALT_SKILL_P": "2",
        "LzrMm2t8": "0",
        "P_TURN_USE_FLG": "0",
        "fM6IAS2U": "0,0",
        "8m1si9wg": "0,0",
        "wHd15zbe": "0",
        "EgF9N8o3": "0",
        "2bfptBo7": "0",
        "P_CREATEDATE": "2018-06-08 01:10:03",
        "P_UPDATEDATE": "2018-06-08 01:10:03"
    },
    {
        "P_ALT_SKILL_ID": "700100",
        "P_ALT_SKILL_NAME": "\u30cf\u30f3\u30c6\u30a3\u30f3\u30b0\u30e9\u30c3\u30b7\u30e5",
        "P_ALT_SKILL_TYPE": "3",
        "P_ALT_SKILL_PARAM": "700100",
        "P_ALT_SKILL_P": "2",
        "LzrMm2t8": "0",
        "P_TURN_USE_FLG": "1",
        "fM6IAS2U": "0,0",
        "8m1si9wg": "0,0",
        "wHd15zbe": "0",
        "EgF9N8o3": "0",
        "2bfptBo7": "0",
        "P_CREATEDATE": "2018-06-08 01:10:03",
        "P_UPDATEDATE": "2018-06-08 01:10:03"
    },
    {
        "P_ALT_SKILL_ID": "800000",
        "P_ALT_SKILL_NAME": "\u30ec\u30b8\u30b9\u30c8\u30d1\u30e9\u30e9\u30a4\u30ba",
        "P_ALT_SKILL_TYPE": "3",
        "P_ALT_SKILL_PARAM": "800000",
        "P_ALT_SKILL_P": "2",
        "LzrMm2t8": "0",
        "P_TURN_USE_FLG": "1",
        "fM6IAS2U": "0,0",
        "8m1si9wg": "0,0",
        "wHd15zbe": "0",
        "EgF9N8o3": "0",
        "2bfptBo7": "0",
        "P_CREATEDATE": "2018-06-08 01:10:03",
        "P_UPDATEDATE": "2018-06-08 01:10:03"
    },
    {
        "P_ALT_SKILL_ID": "800100",
        "P_ALT_SKILL_NAME": "\u30ec\u30b8\u30b9\u30c8\u30df\u30e9\u30fc\u30b8\u30e5",
        "P_ALT_SKILL_TYPE": "3",
        "P_ALT_SKILL_PARAM": "800100",
        "P_ALT_SKILL_P": "2",
        "LzrMm2t8": "0",
        "P_TURN_USE_FLG": "1",
        "fM6IAS2U": "0,0",
        "8m1si9wg": "0,0",
        "wHd15zbe": "0",
        "EgF9N8o3": "0",
        "2bfptBo7": "0",
        "P_CREATEDATE": "2018-06-08 01:10:03",
        "P_UPDATEDATE": "2018-06-08 01:10:03"
    },
    {
        "P_ALT_SKILL_ID": "800200",
        "P_ALT_SKILL_NAME": "\u30ec\u30b8\u30b9\u30c8\u30ab\u30fc\u30b9",
        "P_ALT_SKILL_TYPE": "3",
        "P_ALT_SKILL_PARAM": "800200",
        "P_ALT_SKILL_P": "2",
        "LzrMm2t8": "0",
        "P_TURN_USE_FLG": "1",
        "fM6IAS2U": "0,0",
        "8m1si9wg": "0,0",
        "wHd15zbe": "0",
        "EgF9N8o3": "0",
        "2bfptBo7": "0",
        "P_CREATEDATE": "2018-06-08 01:10:03",
        "P_UPDATEDATE": "2018-06-08 01:10:03"
    },
    {
        "P_ALT_SKILL_ID": "800300",
        "P_ALT_SKILL_NAME": "\u30a2\u30b9\u30c8\u30e9\u30eb\u30de\u30ca\u30fb\u03a3",
        "P_ALT_SKILL_TYPE": "3",
        "P_ALT_SKILL_PARAM": "800300",
        "P_ALT_SKILL_P": "3",
        "LzrMm2t8": "0",
        "P_TURN_USE_FLG": "1",
        "fM6IAS2U": "0,0",
        "8m1si9wg": "0,0",
        "wHd15zbe": "0",
        "EgF9N8o3": "0",
        "2bfptBo7": "0",
        "P_CREATEDATE": "2018-06-08 01:10:03",
        "P_UPDATEDATE": "2018-06-08 01:10:03"
    },
    {
        "P_ALT_SKILL_ID": "900100",
        "P_ALT_SKILL_NAME": "\u30c1\u30e3\u30fc\u30e0\u30ec\u30f3\u30c9",
        "P_ALT_SKILL_TYPE": "3",
        "P_ALT_SKILL_PARAM": "900100",
        "P_ALT_SKILL_P": "1",
        "LzrMm2t8": "0",
        "P_TURN_USE_FLG": "1",
        "fM6IAS2U": "0,0",
        "8m1si9wg": "0,0",
        "wHd15zbe": "0",
        "EgF9N8o3": "0",
        "2bfptBo7": "0",
        "P_CREATEDATE": "2018-06-08 01:10:03",
        "P_UPDATEDATE": "2018-06-08 01:10:03"
    },
    {
        "P_ALT_SKILL_ID": "1100000",
        "P_ALT_SKILL_NAME": "\u30f4\u30a9\u30eb\u30c8\u30a8\u30ec\u30e1\u30f3\u30c8",
        "P_ALT_SKILL_TYPE": "3",
        "P_ALT_SKILL_PARAM": "1100000",
        "P_ALT_SKILL_P": "3",
        "LzrMm2t8": "0",
        "P_TURN_USE_FLG": "0",
        "fM6IAS2U": "0,0",
        "8m1si9wg": "0,0",
        "wHd15zbe": "0",
        "EgF9N8o3": "0",
        "2bfptBo7": "0",
        "P_CREATEDATE": "2018-06-08 01:10:03",
        "P_UPDATEDATE": "2018-06-08 01:10:03"
    },
    {
        "P_ALT_SKILL_ID": "1100100",
        "P_ALT_SKILL_NAME": "\u6c37\u524b\u6607\u83ef",
        "P_ALT_SKILL_TYPE": "3",
        "P_ALT_SKILL_PARAM": "1100100",
        "P_ALT_SKILL_P": "3",
        "LzrMm2t8": "0",
        "P_TURN_USE_FLG": "0",
        "fM6IAS2U": "0,0",
        "8m1si9wg": "0,0",
        "wHd15zbe": "0",
        "EgF9N8o3": "0",
        "2bfptBo7": "0",
        "P_CREATEDATE": "2018-06-08 01:10:03",
        "P_UPDATEDATE": "2018-06-08 01:10:03"
    },
    {
        "P_ALT_SKILL_ID": "1100200",
        "P_ALT_SKILL_NAME": "\u518d\u81e8\u30ce\u714c\u30ad",
        "P_ALT_SKILL_TYPE": "3",
        "P_ALT_SKILL_PARAM": "1100200",
        "P_ALT_SKILL_P": "3",
        "LzrMm2t8": "0",
        "P_TURN_USE_FLG": "0",
        "fM6IAS2U": "0,0",
        "8m1si9wg": "0,0",
        "wHd15zbe": "0",
        "EgF9N8o3": "0",
        "2bfptBo7": "0",
        "P_CREATEDATE": "2018-06-08 01:10:03",
        "P_UPDATEDATE": "2018-06-08 01:10:03"
    }
]