[
    {
        "v80VfcXr": "1",
        "b4D63uav": "1",
        "NW3CIk2A": "2100101",
        "P_SCENE_ID": "0",
        "t5R47iwj": "0",
        "P_PRIORITY": "0",
        "P_SCHEDULE_ID": "50109",
        "P_NEED_SWITCH_INFO": "0",
        "P_HIDE_SWITCH_INFO": "0",
        "P_CREATEDATE": "2018-09-07 13:13:41",
        "P_UPDATEDATE": "2018-09-07 13:13:41"
    },
    {
        "v80VfcXr": "2",
        "b4D63uav": "2",
        "NW3CIk2A": "67",
        "P_SCENE_ID": "0",
        "t5R47iwj": "0",
        "P_PRIORITY": "0",
        "P_SCHEDULE_ID": "50109",
        "P_NEED_SWITCH_INFO": "0",
        "P_HIDE_SWITCH_INFO": "0",
        "P_CREATEDATE": "2018-09-07 13:13:41",
        "P_UPDATEDATE": "2018-09-07 13:13:41"
    },
    {
        "v80VfcXr": "100",
        "b4D63uav": "11",
        "NW3CIk2A": "55,15",
        "P_SCENE_ID": "0",
        "t5R47iwj": "0",
        "P_PRIORITY": "0",
        "P_SCHEDULE_ID": "50089",
        "P_NEED_SWITCH_INFO": "0",
        "P_HIDE_SWITCH_INFO": "0",
        "P_CREATEDATE": "2018-09-07 13:13:41",
        "P_UPDATEDATE": "2018-09-07 13:13:41"
    },
    {
        "v80VfcXr": "101",
        "b4D63uav": "11",
        "NW3CIk2A": "55,15",
        "P_SCENE_ID": "0",
        "t5R47iwj": "0",
        "P_PRIORITY": "0",
        "P_SCHEDULE_ID": "50131",
        "P_NEED_SWITCH_INFO": "0",
        "P_HIDE_SWITCH_INFO": "0",
        "P_CREATEDATE": "2018-09-07 13:13:41",
        "P_UPDATEDATE": "2018-09-07 13:13:41"
    },
    {
        "v80VfcXr": "200",
        "b4D63uav": "20",
        "NW3CIk2A": "0",
        "P_SCENE_ID": "0",
        "t5R47iwj": "0",
        "P_PRIORITY": "0",
        "P_SCHEDULE_ID": "50132",
        "P_NEED_SWITCH_INFO": "0",
        "P_HIDE_SWITCH_INFO": "0",
        "P_CREATEDATE": "2018-09-07 13:13:41",
        "P_UPDATEDATE": "2018-09-07 13:13:41"
    },
    {
        "v80VfcXr": "300",
        "b4D63uav": "30",
        "NW3CIk2A": "0",
        "P_SCENE_ID": "0",
        "t5R47iwj": "0",
        "P_PRIORITY": "0",
        "P_SCHEDULE_ID": "10006",
        "P_NEED_SWITCH_INFO": "0",
        "P_HIDE_SWITCH_INFO": "0",
        "P_CREATEDATE": "2018-09-07 13:13:41",
        "P_UPDATEDATE": "2018-09-07 13:13:41"
    },
    {
        "v80VfcXr": "1000",
        "b4D63uav": "41",
        "NW3CIk2A": "20180730_home_menu_banner02_re.png,0,0",
        "P_SCENE_ID": "0",
        "t5R47iwj": "0",
        "P_PRIORITY": "0",
        "P_SCHEDULE_ID": "50109",
        "P_NEED_SWITCH_INFO": "0",
        "P_HIDE_SWITCH_INFO": "0",
        "P_CREATEDATE": "2018-09-07 13:13:41",
        "P_UPDATEDATE": "2018-09-07 13:13:41"
    }
]