[
    {
        "v80VfcXr": "100",
        "b4D63uav": "11",
        "NW3CIk2A": "55,5",
        "P_SCENE_ID": "0",
        "t5R47iwj": "0",
        "P_PRIORITY": "0",
        "P_SCHEDULE_ID": "50069",
        "P_NEED_SWITCH_INFO": "0",
        "P_HIDE_SWITCH_INFO": "0",
        "P_CREATEDATE": "2018-06-15 01:11:47",
        "P_UPDATEDATE": "2018-06-15 01:11:47"
    },
    {
        "v80VfcXr": "300",
        "b4D63uav": "30",
        "NW3CIk2A": "0",
        "P_SCENE_ID": "0",
        "t5R47iwj": "0",
        "P_PRIORITY": "0",
        "P_SCHEDULE_ID": "10004",
        "P_NEED_SWITCH_INFO": "0",
        "P_HIDE_SWITCH_INFO": "0",
        "P_CREATEDATE": "2018-06-15 01:11:47",
        "P_UPDATEDATE": "2018-06-15 01:11:47"
    }
]