[
    {
        "v80VfcXr": "100",
        "b4D63uav": "11",
        "NW3CIk2A": "55,15",
        "P_SCENE_ID": "0",
        "t5R47iwj": "0",
        "P_PRIORITY": "0",
        "P_SCHEDULE_ID": "50089",
        "P_NEED_SWITCH_INFO": "0",
        "P_HIDE_SWITCH_INFO": "0"
    },
    {
        "v80VfcXr": "101",
        "b4D63uav": "11",
        "NW3CIk2A": "55,15",
        "P_SCENE_ID": "0",
        "t5R47iwj": "0",
        "P_PRIORITY": "0",
        "P_SCHEDULE_ID": "200012",
        "P_NEED_SWITCH_INFO": "0",
        "P_HIDE_SWITCH_INFO": "0"
    },
    {
        "v80VfcXr": "200",
        "b4D63uav": "20",
        "NW3CIk2A": "0",
        "P_SCENE_ID": "0",
        "t5R47iwj": "0",
        "P_PRIORITY": "0",
        "P_SCHEDULE_ID": "200008",
        "P_NEED_SWITCH_INFO": "0",
        "P_HIDE_SWITCH_INFO": "0"
    },
    {
        "v80VfcXr": "300",
        "b4D63uav": "30",
        "NW3CIk2A": "0",
        "P_SCENE_ID": "0",
        "t5R47iwj": "0",
        "P_PRIORITY": "0",
        "P_SCHEDULE_ID": "500002",
        "P_NEED_SWITCH_INFO": "0",
        "P_HIDE_SWITCH_INFO": "0"
    },
    {
        "v80VfcXr": "1000",
        "b4D63uav": "41",
        "NW3CIk2A": "home_banner_raid.png,0,0",
        "P_SCENE_ID": "0",
        "t5R47iwj": "0",
        "P_PRIORITY": "0",
        "P_SCHEDULE_ID": "600004",
        "P_NEED_SWITCH_INFO": "10000152",
        "P_HIDE_SWITCH_INFO": "0"
    },
    {
        "v80VfcXr": "1001",
        "b4D63uav": "42",
        "NW3CIk2A": "home_banner_raid.png,0,0",
        "P_SCENE_ID": "0",
        "t5R47iwj": "0",
        "P_PRIORITY": "0",
        "P_SCHEDULE_ID": "600007",
        "P_NEED_SWITCH_INFO": "0",
        "P_HIDE_SWITCH_INFO": "0"
    }
]