[
    {
        "P_SOUND_EFFECT_ID": "7",
        "P_SOUND_EFFECT_NAME": "BF2_SE_007_HOM_REEL          ",
        "P_SOUND_FILE": "",
        "P_CREATEDATE": "2017-12-23 17:45:41",
        "P_UPDATEDATE": "2017-12-23 17:45:41"
    },
    {
        "P_SOUND_EFFECT_ID": "8",
        "P_SOUND_EFFECT_NAME": "BF2_SE_008_QST_WARP          ",
        "P_SOUND_FILE": "",
        "P_CREATEDATE": "2017-12-23 17:45:41",
        "P_UPDATEDATE": "2017-12-23 17:45:41"
    },
    {
        "P_SOUND_EFFECT_ID": "9",
        "P_SOUND_EFFECT_NAME": "BF2_SE_009_MAP_NEWDUNGEON    ",
        "P_SOUND_FILE": "",
        "P_CREATEDATE": "2017-12-23 17:45:41",
        "P_UPDATEDATE": "2017-12-23 17:45:41"
    },
    {
        "P_SOUND_EFFECT_ID": "10",
        "P_SOUND_EFFECT_NAME": "BF2_SE_010_RDL_REINFORCE_ST  ",
        "P_SOUND_FILE": "",
        "P_CREATEDATE": "2017-12-23 17:45:41",
        "P_UPDATEDATE": "2017-12-23 17:45:41"
    },
    {
        "P_SOUND_EFFECT_ID": "11",
        "P_SOUND_EFFECT_NAME": "BF2_SE_011_RDL_REINFORCE_FX  ",
        "P_SOUND_FILE": "",
        "P_CREATEDATE": "2017-12-23 17:45:41",
        "P_UPDATEDATE": "2017-12-23 17:45:41"
    },
    {
        "P_SOUND_EFFECT_ID": "12",
        "P_SOUND_EFFECT_NAME": "BF2_SE_012_RDL_EVOLUTION_FX  ",
        "P_SOUND_FILE": "",
        "P_CREATEDATE": "2017-12-23 17:45:41",
        "P_UPDATEDATE": "2017-12-23 17:45:41"
    },
    {
        "P_SOUND_EFFECT_ID": "13",
        "P_SOUND_EFFECT_NAME": "BF2_SE_013_RDL_UNITLEVELUP   ",
        "P_SOUND_FILE": "",
        "P_CREATEDATE": "2017-12-23 17:45:41",
        "P_UPDATEDATE": "2017-12-23 17:45:41"
    },
    {
        "P_SOUND_EFFECT_ID": "14",
        "P_SOUND_EFFECT_NAME": "BF2_SE_014_RDL_SKILLGET      ",
        "P_SOUND_FILE": "",
        "P_CREATEDATE": "2017-12-23 17:45:41",
        "P_UPDATEDATE": "2017-12-23 17:45:41"
    },
    {
        "P_SOUND_EFFECT_ID": "15",
        "P_SOUND_EFFECT_NAME": "BF2_SE_015_RDL_SKILLGET      ",
        "P_SOUND_FILE": "",
        "P_CREATEDATE": "2017-12-23 17:45:41",
        "P_UPDATEDATE": "2017-12-23 17:45:41"
    },
    {
        "P_SOUND_EFFECT_ID": "16",
        "P_SOUND_EFFECT_NAME": "BF2_SE_016_RDL_MAKE_ARMS     ",
        "P_SOUND_FILE": "",
        "P_CREATEDATE": "2017-12-23 17:45:41",
        "P_UPDATEDATE": "2017-12-23 17:45:41"
    },
    {
        "P_SOUND_EFFECT_ID": "17",
        "P_SOUND_EFFECT_NAME": "BF2_SE_017_RDL_MAKE_SPHERE   ",
        "P_SOUND_FILE": "",
        "P_CREATEDATE": "2017-12-23 17:45:41",
        "P_UPDATEDATE": "2017-12-23 17:45:41"
    },
    {
        "P_SOUND_EFFECT_ID": "18",
        "P_SOUND_EFFECT_NAME": "BF2_SE_018_RDL_MAKE_ITEM     ",
        "P_SOUND_FILE": "",
        "P_CREATEDATE": "2017-12-23 17:45:41",
        "P_UPDATEDATE": "2017-12-23 17:45:41"
    },
    {
        "P_SOUND_EFFECT_ID": "19",
        "P_SOUND_EFFECT_NAME": "BF2_SE_019_RDL_SCROLL        ",
        "P_SOUND_FILE": "",
        "P_CREATEDATE": "2017-12-23 17:45:41",
        "P_UPDATEDATE": "2017-12-23 17:45:41"
    },
    {
        "P_SOUND_EFFECT_ID": "20",
        "P_SOUND_EFFECT_NAME": "BF2_SE_020_BOK_OPEN          ",
        "P_SOUND_FILE": "",
        "P_CREATEDATE": "2017-12-23 17:45:41",
        "P_UPDATEDATE": "2017-12-23 17:45:41"
    },
    {
        "P_SOUND_EFFECT_ID": "21",
        "P_SOUND_EFFECT_NAME": "BF2_SE_021_BOK_REWARD        ",
        "P_SOUND_FILE": "",
        "P_CREATEDATE": "2017-12-23 17:45:41",
        "P_UPDATEDATE": "2017-12-23 17:45:41"
    },
    {
        "P_SOUND_EFFECT_ID": "22",
        "P_SOUND_EFFECT_NAME": "BF2_SE_022_BOK_COMP          ",
        "P_SOUND_FILE": "",
        "P_CREATEDATE": "2017-12-23 17:45:41",
        "P_UPDATEDATE": "2017-12-23 17:45:41"
    },
    {
        "P_SOUND_EFFECT_ID": "23",
        "P_SOUND_EFFECT_NAME": "BF2_SE_023_BOK_NEWBOOK       ",
        "P_SOUND_FILE": "",
        "P_CREATEDATE": "2017-12-23 17:45:41",
        "P_UPDATEDATE": "2017-12-23 17:45:41"
    },
    {
        "P_SOUND_EFFECT_ID": "24",
        "P_SOUND_EFFECT_NAME": "BF2_SE_024_PTN_FEED          ",
        "P_SOUND_FILE": "",
        "P_CREATEDATE": "2017-12-23 17:45:41",
        "P_UPDATEDATE": "2017-12-23 17:45:41"
    },
    {
        "P_SOUND_EFFECT_ID": "25",
        "P_SOUND_EFFECT_NAME": "BF2_SE_025_SMN_DECISION      ",
        "P_SOUND_FILE": "",
        "P_CREATEDATE": "2017-12-23 17:45:41",
        "P_UPDATEDATE": "2017-12-23 17:45:41"
    },
    {
        "P_SOUND_EFFECT_ID": "26",
        "P_SOUND_EFFECT_NAME": "BF2_SE_026_SMN_GATE_APPEAR   ",
        "P_SOUND_FILE": "",
        "P_CREATEDATE": "2017-12-23 17:45:41",
        "P_UPDATEDATE": "2017-12-23 17:45:41"
    },
    {
        "P_SOUND_EFFECT_ID": "27",
        "P_SOUND_EFFECT_NAME": "BF2_SE_027_SMN_GATE_OPEN     ",
        "P_SOUND_FILE": "",
        "P_CREATEDATE": "2017-12-23 17:45:41",
        "P_UPDATEDATE": "2017-12-23 17:45:41"
    },
    {
        "P_SOUND_EFFECT_ID": "28",
        "P_SOUND_EFFECT_NAME": "BF2_SE_028_SMN_GATE_UPGRADE  ",
        "P_SOUND_FILE": "",
        "P_CREATEDATE": "2017-12-23 17:45:41",
        "P_UPDATEDATE": "2017-12-23 17:45:41"
    },
    {
        "P_SOUND_EFFECT_ID": "29",
        "P_SOUND_EFFECT_NAME": "BF2_SE_029_SMN_MAGIC3        ",
        "P_SOUND_FILE": "",
        "P_CREATEDATE": "2017-12-23 17:45:41",
        "P_UPDATEDATE": "2017-12-23 17:45:41"
    },
    {
        "P_SOUND_EFFECT_ID": "30",
        "P_SOUND_EFFECT_NAME": "BF2_SE_030_SMN_MAGIC4        ",
        "P_SOUND_FILE": "",
        "P_CREATEDATE": "2017-12-23 17:45:41",
        "P_UPDATEDATE": "2017-12-23 17:45:41"
    },
    {
        "P_SOUND_EFFECT_ID": "31",
        "P_SOUND_EFFECT_NAME": "BF2_SE_031_SMN_MAGIC5        ",
        "P_SOUND_FILE": "",
        "P_CREATEDATE": "2017-12-23 17:45:41",
        "P_UPDATEDATE": "2017-12-23 17:45:41"
    },
    {
        "P_SOUND_EFFECT_ID": "32",
        "P_SOUND_EFFECT_NAME": "BF2_SE_032_SHP_DIA           ",
        "P_SOUND_FILE": "",
        "P_CREATEDATE": "2017-12-23 17:45:41",
        "P_UPDATEDATE": "2017-12-23 17:45:41"
    },
    {
        "P_SOUND_EFFECT_ID": "33",
        "P_SOUND_EFFECT_NAME": "BF2_SE_033_RST_USERRANKUP    ",
        "P_SOUND_FILE": "",
        "P_CREATEDATE": "2017-12-23 17:45:41",
        "P_UPDATEDATE": "2017-12-23 17:45:41"
    },
    {
        "P_SOUND_EFFECT_ID": "34",
        "P_SOUND_EFFECT_NAME": "BF2_SE_034_RST_BONUS         ",
        "P_SOUND_FILE": "",
        "P_CREATEDATE": "2017-12-23 17:45:41",
        "P_UPDATEDATE": "2017-12-23 17:45:41"
    },
    {
        "P_SOUND_EFFECT_ID": "35",
        "P_SOUND_EFFECT_NAME": "BF2_SE_035_RST_DROP          ",
        "P_SOUND_FILE": "",
        "P_CREATEDATE": "2017-12-23 17:45:41",
        "P_UPDATEDATE": "2017-12-23 17:45:41"
    },
    {
        "P_SOUND_EFFECT_ID": "36",
        "P_SOUND_EFFECT_NAME": "BF2_SE_036_RST_REWARD        ",
        "P_SOUND_FILE": "",
        "P_CREATEDATE": "2017-12-23 17:45:41",
        "P_UPDATEDATE": "2017-12-23 17:45:41"
    },
    {
        "P_SOUND_EFFECT_ID": "37",
        "P_SOUND_EFFECT_NAME": "BF2_SE_037_RST_COMP          ",
        "P_SOUND_FILE": "",
        "P_CREATEDATE": "2017-12-23 17:45:41",
        "P_UPDATEDATE": "2017-12-23 17:45:41"
    },
    {
        "P_SOUND_EFFECT_ID": "38",
        "P_SOUND_EFFECT_NAME": "BF2_SE_038_PSW_TAP           ",
        "P_SOUND_FILE": "",
        "P_CREATEDATE": "2017-12-23 17:45:41",
        "P_UPDATEDATE": "2017-12-23 17:45:41"
    },
    {
        "P_SOUND_EFFECT_ID": "39",
        "P_SOUND_EFFECT_NAME": "BF2_SE_039_PSW_MISS          ",
        "P_SOUND_FILE": "",
        "P_CREATEDATE": "2017-12-23 17:45:41",
        "P_UPDATEDATE": "2017-12-23 17:45:41"
    },
    {
        "P_SOUND_EFFECT_ID": "40",
        "P_SOUND_EFFECT_NAME": "BF2_SE_040_PSW_OK            ",
        "P_SOUND_FILE": "",
        "P_CREATEDATE": "2017-12-23 17:45:41",
        "P_UPDATEDATE": "2017-12-23 17:45:41"
    },
    {
        "P_SOUND_EFFECT_ID": "41",
        "P_SOUND_EFFECT_NAME": "BF2_SE_041_PSL_SLIDE         ",
        "P_SOUND_FILE": "",
        "P_CREATEDATE": "2017-12-23 17:45:41",
        "P_UPDATEDATE": "2017-12-23 17:45:41"
    },
    {
        "P_SOUND_EFFECT_ID": "42",
        "P_SOUND_EFFECT_NAME": "BF2_SE_042_PSL_OK            ",
        "P_SOUND_FILE": "",
        "P_CREATEDATE": "2017-12-23 17:45:41",
        "P_UPDATEDATE": "2017-12-23 17:45:41"
    },
    {
        "P_SOUND_EFFECT_ID": "43",
        "P_SOUND_EFFECT_NAME": "BF2_SE_043_PSL_MISS          ",
        "P_SOUND_FILE": "",
        "P_CREATEDATE": "2017-12-23 17:45:41",
        "P_UPDATEDATE": "2017-12-23 17:45:41"
    },
    {
        "P_SOUND_EFFECT_ID": "101",
        "P_SOUND_EFFECT_NAME": "BF2_SE_101_BTL_FORWARD       ",
        "P_SOUND_FILE": "",
        "P_CREATEDATE": "2017-12-23 17:45:41",
        "P_UPDATEDATE": "2017-12-23 17:45:41"
    },
    {
        "P_SOUND_EFFECT_ID": "102",
        "P_SOUND_EFFECT_NAME": "BF2_SE_102_BTL_DIE           ",
        "P_SOUND_FILE": "",
        "P_CREATEDATE": "2017-12-23 17:45:41",
        "P_UPDATEDATE": "2017-12-23 17:45:41"
    },
    {
        "P_SOUND_EFFECT_ID": "103",
        "P_SOUND_EFFECT_NAME": "BF2_SE_103_BTL_WIPEOUT       ",
        "P_SOUND_FILE": "",
        "P_CREATEDATE": "2017-12-23 17:45:41",
        "P_UPDATEDATE": "2017-12-23 17:45:41"
    },
    {
        "P_SOUND_EFFECT_ID": "104",
        "P_SOUND_EFFECT_NAME": "BF2_SE_104_BTL_TREASURE      ",
        "P_SOUND_FILE": "",
        "P_CREATEDATE": "2017-12-23 17:45:41",
        "P_UPDATEDATE": "2017-12-23 17:45:41"
    },
    {
        "P_SOUND_EFFECT_ID": "105",
        "P_SOUND_EFFECT_NAME": "BF2_SE_105_BTL_BC_GET        ",
        "P_SOUND_FILE": "",
        "P_CREATEDATE": "2017-12-23 17:45:41",
        "P_UPDATEDATE": "2017-12-23 17:45:41"
    },
    {
        "P_SOUND_EFFECT_ID": "106",
        "P_SOUND_EFFECT_NAME": "BF2_SE_106_BTL_HC_GET        ",
        "P_SOUND_FILE": "",
        "P_CREATEDATE": "2017-12-23 17:45:41",
        "P_UPDATEDATE": "2017-12-23 17:45:41"
    },
    {
        "P_SOUND_EFFECT_ID": "107",
        "P_SOUND_EFFECT_NAME": "BF2_SE_107_BTL_ZEL_GET       ",
        "P_SOUND_FILE": "",
        "P_CREATEDATE": "2017-12-23 17:45:41",
        "P_UPDATEDATE": "2017-12-23 17:45:41"
    },
    {
        "P_SOUND_EFFECT_ID": "108",
        "P_SOUND_EFFECT_NAME": "BF2_SE_108_BTL_ITEM_GET      ",
        "P_SOUND_FILE": "",
        "P_CREATEDATE": "2017-12-23 17:45:41",
        "P_UPDATEDATE": "2017-12-23 17:45:41"
    },
    {
        "P_SOUND_EFFECT_ID": "109",
        "P_SOUND_EFFECT_NAME": "BF2_SE_109_BTL_UNIT_GET1_3   ",
        "P_SOUND_FILE": "",
        "P_CREATEDATE": "2017-12-23 17:45:41",
        "P_UPDATEDATE": "2017-12-23 17:45:41"
    },
    {
        "P_SOUND_EFFECT_ID": "110",
        "P_SOUND_EFFECT_NAME": "BF2_SE_110_BTL_UNIT_GET4     ",
        "P_SOUND_FILE": "",
        "P_CREATEDATE": "2017-12-23 17:45:41",
        "P_UPDATEDATE": "2017-12-23 17:45:41"
    },
    {
        "P_SOUND_EFFECT_ID": "111",
        "P_SOUND_EFFECT_NAME": "BF2_SE_111_BTL_UNIT_GET5     ",
        "P_SOUND_FILE": "",
        "P_CREATEDATE": "2017-12-23 17:45:41",
        "P_UPDATEDATE": "2017-12-23 17:45:41"
    },
    {
        "P_SOUND_EFFECT_ID": "112",
        "P_SOUND_EFFECT_NAME": "BF2_SE_112_BTL_BB_MAX        ",
        "P_SOUND_FILE": "",
        "P_CREATEDATE": "2017-12-23 17:45:41",
        "P_UPDATEDATE": "2017-12-23 17:45:41"
    },
    {
        "P_SOUND_EFFECT_ID": "113",
        "P_SOUND_EFFECT_NAME": "BF2_SE_113_BTL_BB_CUTIN      ",
        "P_SOUND_FILE": "",
        "P_CREATEDATE": "2017-12-23 17:45:41",
        "P_UPDATEDATE": "2017-12-23 17:45:41"
    },
    {
        "P_SOUND_EFFECT_ID": "114",
        "P_SOUND_EFFECT_NAME": "BF2_SE_114_BTL_ALT           ",
        "P_SOUND_FILE": "",
        "P_CREATEDATE": "2017-12-23 17:45:41",
        "P_UPDATEDATE": "2017-12-23 17:45:41"
    },
    {
        "P_SOUND_EFFECT_ID": "115",
        "P_SOUND_EFFECT_NAME": "BF2_SE_115_BTL_XBB_MAX       ",
        "P_SOUND_FILE": "",
        "P_CREATEDATE": "2017-12-23 17:45:41",
        "P_UPDATEDATE": "2017-12-23 17:45:41"
    },
    {
        "P_SOUND_EFFECT_ID": "116",
        "P_SOUND_EFFECT_NAME": "BF2_SE_116_BTL_XBB_FIX       ",
        "P_SOUND_FILE": "",
        "P_CREATEDATE": "2017-12-23 17:45:41",
        "P_UPDATEDATE": "2017-12-23 17:45:41"
    },
    {
        "P_SOUND_EFFECT_ID": "117",
        "P_SOUND_EFFECT_NAME": "BF2_SE_117_BTL_XBB_BURST     ",
        "P_SOUND_FILE": "",
        "P_CREATEDATE": "2017-12-23 17:45:41",
        "P_UPDATEDATE": "2017-12-23 17:45:41"
    },
    {
        "P_SOUND_EFFECT_ID": "118",
        "P_SOUND_EFFECT_NAME": "BF2_SE_118_BTL_XBB_A1        ",
        "P_SOUND_FILE": "",
        "P_CREATEDATE": "2017-12-23 17:45:41",
        "P_UPDATEDATE": "2017-12-23 17:45:41"
    },
    {
        "P_SOUND_EFFECT_ID": "119",
        "P_SOUND_EFFECT_NAME": "BF2_SE_119_BTL_XBB_A2        ",
        "P_SOUND_FILE": "",
        "P_CREATEDATE": "2017-12-23 17:45:41",
        "P_UPDATEDATE": "2017-12-23 17:45:41"
    },
    {
        "P_SOUND_EFFECT_ID": "120",
        "P_SOUND_EFFECT_NAME": "BF2_SE_120_BTL_XBB_A3        ",
        "P_SOUND_FILE": "",
        "P_CREATEDATE": "2017-12-23 17:45:41",
        "P_UPDATEDATE": "2017-12-23 17:45:41"
    },
    {
        "P_SOUND_EFFECT_ID": "121",
        "P_SOUND_EFFECT_NAME": "BF2_SE_121_BTL_XBB_A4        ",
        "P_SOUND_FILE": "",
        "P_CREATEDATE": "2017-12-23 17:45:41",
        "P_UPDATEDATE": "2017-12-23 17:45:41"
    },
    {
        "P_SOUND_EFFECT_ID": "122",
        "P_SOUND_EFFECT_NAME": "BF2_SE_122_BTL_XBB_A5        ",
        "P_SOUND_FILE": "",
        "P_CREATEDATE": "2017-12-23 17:45:41",
        "P_UPDATEDATE": "2017-12-23 17:45:41"
    },
    {
        "P_SOUND_EFFECT_ID": "123",
        "P_SOUND_EFFECT_NAME": "BF2_SE_123_BTL_XBB_B1        ",
        "P_SOUND_FILE": "",
        "P_CREATEDATE": "2017-12-23 17:45:41",
        "P_UPDATEDATE": "2017-12-23 17:45:41"
    },
    {
        "P_SOUND_EFFECT_ID": "124",
        "P_SOUND_EFFECT_NAME": "BF2_SE_124_BTL_XBB_B2        ",
        "P_SOUND_FILE": "",
        "P_CREATEDATE": "2017-12-23 17:45:41",
        "P_UPDATEDATE": "2017-12-23 17:45:41"
    },
    {
        "P_SOUND_EFFECT_ID": "125",
        "P_SOUND_EFFECT_NAME": "BF2_SE_125_BTL_XBB_B3        ",
        "P_SOUND_FILE": "",
        "P_CREATEDATE": "2017-12-23 17:45:41",
        "P_UPDATEDATE": "2017-12-23 17:45:41"
    },
    {
        "P_SOUND_EFFECT_ID": "126",
        "P_SOUND_EFFECT_NAME": "BF2_SE_126_BTL_XBB_B4        ",
        "P_SOUND_FILE": "",
        "P_CREATEDATE": "2017-12-23 17:45:41",
        "P_UPDATEDATE": "2017-12-23 17:45:41"
    },
    {
        "P_SOUND_EFFECT_ID": "127",
        "P_SOUND_EFFECT_NAME": "BF2_SE_127_BTL_XBB_B5        ",
        "P_SOUND_FILE": "",
        "P_CREATEDATE": "2017-12-23 17:45:41",
        "P_UPDATEDATE": "2017-12-23 17:45:41"
    },
    {
        "P_SOUND_EFFECT_ID": "128",
        "P_SOUND_EFFECT_NAME": "BF2_SE_128_BTL_XBB_B6        ",
        "P_SOUND_FILE": "",
        "P_CREATEDATE": "2017-12-23 17:45:41",
        "P_UPDATEDATE": "2017-12-23 17:45:41"
    },
    {
        "P_SOUND_EFFECT_ID": "129",
        "P_SOUND_EFFECT_NAME": "BF2_SE_129_BTL_XBB_C1        ",
        "P_SOUND_FILE": "",
        "P_CREATEDATE": "2017-12-23 17:45:41",
        "P_UPDATEDATE": "2017-12-23 17:45:41"
    },
    {
        "P_SOUND_EFFECT_ID": "130",
        "P_SOUND_EFFECT_NAME": "BF2_SE_130_BTL_XBB_C2        ",
        "P_SOUND_FILE": "",
        "P_CREATEDATE": "2017-12-23 17:45:41",
        "P_UPDATEDATE": "2017-12-23 17:45:41"
    },
    {
        "P_SOUND_EFFECT_ID": "131",
        "P_SOUND_EFFECT_NAME": "BF2_SE_131_BTL_XBB_C3        ",
        "P_SOUND_FILE": "",
        "P_CREATEDATE": "2017-12-23 17:45:41",
        "P_UPDATEDATE": "2017-12-23 17:45:41"
    },
    {
        "P_SOUND_EFFECT_ID": "132",
        "P_SOUND_EFFECT_NAME": "BF2_SE_132_BTL_XBB_C4        ",
        "P_SOUND_FILE": "",
        "P_CREATEDATE": "2017-12-23 17:45:41",
        "P_UPDATEDATE": "2017-12-23 17:45:41"
    },
    {
        "P_SOUND_EFFECT_ID": "133",
        "P_SOUND_EFFECT_NAME": "BF2_SE_133_BTL_XBB_C5        ",
        "P_SOUND_FILE": "",
        "P_CREATEDATE": "2017-12-23 17:45:41",
        "P_UPDATEDATE": "2017-12-23 17:45:41"
    },
    {
        "P_SOUND_EFFECT_ID": "134",
        "P_SOUND_EFFECT_NAME": "BF2_SE_134_BTL_XBB_C6        ",
        "P_SOUND_FILE": "",
        "P_CREATEDATE": "2017-12-23 17:45:41",
        "P_UPDATEDATE": "2017-12-23 17:45:41"
    },
    {
        "P_SOUND_EFFECT_ID": "135",
        "P_SOUND_EFFECT_NAME": "BF2_SE_135_BTL_XBB_C7        ",
        "P_SOUND_FILE": "",
        "P_CREATEDATE": "2017-12-23 17:45:41",
        "P_UPDATEDATE": "2017-12-23 17:45:41"
    },
    {
        "P_SOUND_EFFECT_ID": "136",
        "P_SOUND_EFFECT_NAME": "BF2_SE_136_BTL_XBB_C8        ",
        "P_SOUND_FILE": "",
        "P_CREATEDATE": "2017-12-23 17:45:41",
        "P_UPDATEDATE": "2017-12-23 17:45:41"
    },
    {
        "P_SOUND_EFFECT_ID": "137",
        "P_SOUND_EFFECT_NAME": "BF2_SE_137_BTL_XBB_BEST      ",
        "P_SOUND_FILE": "",
        "P_CREATEDATE": "2017-12-23 17:45:41",
        "P_UPDATEDATE": "2017-12-23 17:45:41"
    },
    {
        "P_SOUND_EFFECT_ID": "138",
        "P_SOUND_EFFECT_NAME": "BF2_SE_138_BTL_XBB_BETTER    ",
        "P_SOUND_FILE": "",
        "P_CREATEDATE": "2017-12-23 17:45:41",
        "P_UPDATEDATE": "2017-12-23 17:45:41"
    },
    {
        "P_SOUND_EFFECT_ID": "139",
        "P_SOUND_EFFECT_NAME": "BF2_SE_139_BTL_XBB_WORSE     ",
        "P_SOUND_FILE": "",
        "P_CREATEDATE": "2017-12-23 17:45:41",
        "P_UPDATEDATE": "2017-12-23 17:45:41"
    },
    {
        "P_SOUND_EFFECT_ID": "140",
        "P_SOUND_EFFECT_NAME": "BF2_SE_140_BTL_XBB_WORST     ",
        "P_SOUND_FILE": "",
        "P_CREATEDATE": "2017-12-23 17:45:41",
        "P_UPDATEDATE": "2017-12-23 17:45:41"
    },
    {
        "P_SOUND_EFFECT_ID": "201",
        "P_SOUND_EFFECT_NAME": "BF2_SE_201_BFX_BUFF          ",
        "P_SOUND_FILE": "",
        "P_CREATEDATE": "2017-12-23 17:45:41",
        "P_UPDATEDATE": "2017-12-23 17:45:41"
    },
    {
        "P_SOUND_EFFECT_ID": "202",
        "P_SOUND_EFFECT_NAME": "BF2_SE_202_BFX_DEBUFF        ",
        "P_SOUND_FILE": "",
        "P_CREATEDATE": "2017-12-23 17:45:41",
        "P_UPDATEDATE": "2017-12-23 17:45:41"
    },
    {
        "P_SOUND_EFFECT_ID": "203",
        "P_SOUND_EFFECT_NAME": "BF2_SE_203_BFX_CURE          ",
        "P_SOUND_FILE": "",
        "P_CREATEDATE": "2017-12-23 17:45:41",
        "P_UPDATEDATE": "2017-12-23 17:45:41"
    },
    {
        "P_SOUND_EFFECT_ID": "204",
        "P_SOUND_EFFECT_NAME": "BF2_SE_204_BFX_PROTECT       ",
        "P_SOUND_FILE": "",
        "P_CREATEDATE": "2017-12-23 17:45:41",
        "P_UPDATEDATE": "2017-12-23 17:45:41"
    },
    {
        "P_SOUND_EFFECT_ID": "205",
        "P_SOUND_EFFECT_NAME": "BF2_SE_205_BFX_PARRY         ",
        "P_SOUND_FILE": "",
        "P_CREATEDATE": "2017-12-23 17:45:41",
        "P_UPDATEDATE": "2017-12-23 17:45:41"
    },
    {
        "P_SOUND_EFFECT_ID": "206",
        "P_SOUND_EFFECT_NAME": "BF2_SE_206_BFX_BREAK         ",
        "P_SOUND_FILE": "",
        "P_CREATEDATE": "2017-12-23 17:45:41",
        "P_UPDATEDATE": "2017-12-23 17:45:41"
    },
    {
        "P_SOUND_EFFECT_ID": "207",
        "P_SOUND_EFFECT_NAME": "BF2_SE_207_BFX_SHIELD_ACT    ",
        "P_SOUND_FILE": "",
        "P_CREATEDATE": "2017-12-23 17:45:41",
        "P_UPDATEDATE": "2017-12-23 17:45:41"
    },
    {
        "P_SOUND_EFFECT_ID": "208",
        "P_SOUND_EFFECT_NAME": "BF2_SE_208_BFX_SHIELD_REV    ",
        "P_SOUND_FILE": "",
        "P_CREATEDATE": "2017-12-23 17:45:41",
        "P_UPDATEDATE": "2017-12-23 17:45:41"
    },
    {
        "P_SOUND_EFFECT_ID": "209",
        "P_SOUND_EFFECT_NAME": "BF2_SE_209_BFX_SHIELD_ERACE  ",
        "P_SOUND_FILE": "",
        "P_CREATEDATE": "2017-12-23 17:45:41",
        "P_UPDATEDATE": "2017-12-23 17:45:41"
    },
    {
        "P_SOUND_EFFECT_ID": "210",
        "P_SOUND_EFFECT_NAME": "BF2_SE_210_BFX_REVIVE        ",
        "P_SOUND_FILE": "",
        "P_CREATEDATE": "2017-12-23 17:45:41",
        "P_UPDATEDATE": "2017-12-23 17:45:41"
    },
    {
        "P_SOUND_EFFECT_ID": "211",
        "P_SOUND_EFFECT_NAME": "BF2_SE_211_BFX_POISON        ",
        "P_SOUND_FILE": "",
        "P_CREATEDATE": "2017-12-23 17:45:41",
        "P_UPDATEDATE": "2017-12-23 17:45:41"
    },
    {
        "P_SOUND_EFFECT_ID": "212",
        "P_SOUND_EFFECT_NAME": "BF2_SE_212_BFX_INJURY        ",
        "P_SOUND_FILE": "",
        "P_CREATEDATE": "2017-12-23 17:45:41",
        "P_UPDATEDATE": "2017-12-23 17:45:41"
    },
    {
        "P_SOUND_EFFECT_ID": "213",
        "P_SOUND_EFFECT_NAME": "BF2_SE_213_BFX_WEAKNESS      ",
        "P_SOUND_FILE": "",
        "P_CREATEDATE": "2017-12-23 17:45:41",
        "P_UPDATEDATE": "2017-12-23 17:45:41"
    },
    {
        "P_SOUND_EFFECT_ID": "214",
        "P_SOUND_EFFECT_NAME": "BF2_SE_214_BFX_INFECTION     ",
        "P_SOUND_FILE": "",
        "P_CREATEDATE": "2017-12-23 17:45:41",
        "P_UPDATEDATE": "2017-12-23 17:45:41"
    },
    {
        "P_SOUND_EFFECT_ID": "215",
        "P_SOUND_EFFECT_NAME": "BF2_SE_215_BFX_PARALYSIS     ",
        "P_SOUND_FILE": "",
        "P_CREATEDATE": "2017-12-23 17:45:41",
        "P_UPDATEDATE": "2017-12-23 17:45:41"
    },
    {
        "P_SOUND_EFFECT_ID": "216",
        "P_SOUND_EFFECT_NAME": "BF2_SE_216_BFX_SICKNESS      ",
        "P_SOUND_FILE": "",
        "P_CREATEDATE": "2017-12-23 17:45:41",
        "P_UPDATEDATE": "2017-12-23 17:45:41"
    },
    {
        "P_SOUND_EFFECT_ID": "217",
        "P_SOUND_EFFECT_NAME": "BF2_SE_217_BFX_HALLUCINATION ",
        "P_SOUND_FILE": "",
        "P_CREATEDATE": "2017-12-23 17:45:41",
        "P_UPDATEDATE": "2017-12-23 17:45:41"
    },
    {
        "P_SOUND_EFFECT_ID": "218",
        "P_SOUND_EFFECT_NAME": "BF2_SE_218_BFX_CONFUSION     ",
        "P_SOUND_FILE": "",
        "P_CREATEDATE": "2017-12-23 17:45:41",
        "P_UPDATEDATE": "2017-12-23 17:45:41"
    },
    {
        "P_SOUND_EFFECT_ID": "219",
        "P_SOUND_EFFECT_NAME": "BF2_SE_219_BFX_CURSE         ",
        "P_SOUND_FILE": "",
        "P_CREATEDATE": "2017-12-23 17:45:41",
        "P_UPDATEDATE": "2017-12-23 17:45:41"
    },
    {
        "P_SOUND_EFFECT_ID": "220",
        "P_SOUND_EFFECT_NAME": "BF2_SE_220_BFX_SEAL          ",
        "P_SOUND_FILE": "",
        "P_CREATEDATE": "2017-12-23 17:45:41",
        "P_UPDATEDATE": "2017-12-23 17:45:41"
    },
    {
        "P_SOUND_EFFECT_ID": "221",
        "P_SOUND_EFFECT_NAME": "BF2_SE_221_BFX_TERROR        ",
        "P_SOUND_FILE": "",
        "P_CREATEDATE": "2017-12-23 17:45:41",
        "P_UPDATEDATE": "2017-12-23 17:45:41"
    },
    {
        "P_SOUND_EFFECT_ID": "222",
        "P_SOUND_EFFECT_NAME": "BF2_SE_222_BFX_DESPAIR       ",
        "P_SOUND_FILE": "",
        "P_CREATEDATE": "2017-12-23 17:45:41",
        "P_UPDATEDATE": "2017-12-23 17:45:41"
    },
    {
        "P_SOUND_EFFECT_ID": "223",
        "P_SOUND_EFFECT_NAME": "BF2_SE_223_BFX_TEMPTATION    ",
        "P_SOUND_FILE": "",
        "P_CREATEDATE": "2017-12-23 17:45:41",
        "P_UPDATEDATE": "2017-12-23 17:45:41"
    },
    {
        "P_SOUND_EFFECT_ID": "224",
        "P_SOUND_EFFECT_NAME": "BF2_SE_224_BFX_BIND          ",
        "P_SOUND_FILE": "",
        "P_CREATEDATE": "2017-12-23 17:45:41",
        "P_UPDATEDATE": "2017-12-23 17:45:41"
    },
    {
        "P_SOUND_EFFECT_ID": "225",
        "P_SOUND_EFFECT_NAME": "BF2_SE_225_BFX_OBLIVION      ",
        "P_SOUND_FILE": "",
        "P_CREATEDATE": "2017-12-23 17:45:41",
        "P_UPDATEDATE": "2017-12-23 17:45:41"
    },
    {
        "P_SOUND_EFFECT_ID": "226",
        "P_SOUND_EFFECT_NAME": "BF2_SE_226_BFX_SLIPFIRE      ",
        "P_SOUND_FILE": "",
        "P_CREATEDATE": "2017-12-23 17:45:41",
        "P_UPDATEDATE": "2017-12-23 17:45:41"
    },
    {
        "P_SOUND_EFFECT_ID": "227",
        "P_SOUND_EFFECT_NAME": "BF2_SE_227_BFX_SLIPWATER     ",
        "P_SOUND_FILE": "",
        "P_CREATEDATE": "2017-12-23 17:45:41",
        "P_UPDATEDATE": "2017-12-23 17:45:41"
    },
    {
        "P_SOUND_EFFECT_ID": "228",
        "P_SOUND_EFFECT_NAME": "BF2_SE_228_BFX_SLIPTREE      ",
        "P_SOUND_FILE": "",
        "P_CREATEDATE": "2017-12-23 17:45:41",
        "P_UPDATEDATE": "2017-12-23 17:45:41"
    },
    {
        "P_SOUND_EFFECT_ID": "229",
        "P_SOUND_EFFECT_NAME": "BF2_SE_229_BFX_SLIPTHUNDER   ",
        "P_SOUND_FILE": "",
        "P_CREATEDATE": "2017-12-23 17:45:41",
        "P_UPDATEDATE": "2017-12-23 17:45:41"
    },
    {
        "P_SOUND_EFFECT_ID": "300",
        "P_SOUND_EFFECT_NAME": "BF2_SE_300_BFX_SLASH         ",
        "P_SOUND_FILE": "",
        "P_CREATEDATE": "2017-12-23 17:45:41",
        "P_UPDATEDATE": "2017-12-23 17:45:41"
    },
    {
        "P_SOUND_EFFECT_ID": "301",
        "P_SOUND_EFFECT_NAME": "BF2_SE_301_BFX_SHOT          ",
        "P_SOUND_FILE": "",
        "P_CREATEDATE": "2017-12-23 17:45:41",
        "P_UPDATEDATE": "2017-12-23 17:45:41"
    },
    {
        "P_SOUND_EFFECT_ID": "302",
        "P_SOUND_EFFECT_NAME": "BF2_SE_302_BFX_GUNSHOT       ",
        "P_SOUND_FILE": "",
        "P_CREATEDATE": "2017-12-23 17:45:41",
        "P_UPDATEDATE": "2017-12-23 17:45:41"
    },
    {
        "P_SOUND_EFFECT_ID": "303",
        "P_SOUND_EFFECT_NAME": "BF2_SE_303_BFX_STRIKE        ",
        "P_SOUND_FILE": "",
        "P_CREATEDATE": "2017-12-23 17:45:41",
        "P_UPDATEDATE": "2017-12-23 17:45:41"
    },
    {
        "P_SOUND_EFFECT_ID": "304",
        "P_SOUND_EFFECT_NAME": "BF2_SE_304_BFX_FLAP          ",
        "P_SOUND_FILE": "",
        "P_CREATEDATE": "2017-12-23 17:45:41",
        "P_UPDATEDATE": "2017-12-23 17:45:41"
    },
    {
        "P_SOUND_EFFECT_ID": "305",
        "P_SOUND_EFFECT_NAME": "BF2_SE_305_BFX_FANG          ",
        "P_SOUND_FILE": "",
        "P_CREATEDATE": "2017-12-23 17:45:41",
        "P_UPDATEDATE": "2017-12-23 17:45:41"
    },
    {
        "P_SOUND_EFFECT_ID": "306",
        "P_SOUND_EFFECT_NAME": "BF2_SE_306_BFX_SCALE         ",
        "P_SOUND_FILE": "",
        "P_CREATEDATE": "2017-12-23 17:45:41",
        "P_UPDATEDATE": "2017-12-23 17:45:41"
    },
    {
        "P_SOUND_EFFECT_ID": "307",
        "P_SOUND_EFFECT_NAME": "BF2_SE_307_BFX_MAGIC         ",
        "P_SOUND_FILE": "",
        "P_CREATEDATE": "2017-12-23 17:45:41",
        "P_UPDATEDATE": "2017-12-23 17:45:41"
    },
    {
        "P_SOUND_EFFECT_ID": "308",
        "P_SOUND_EFFECT_NAME": "BF2_SE_308_BFX_WINDNOISE     ",
        "P_SOUND_FILE": "",
        "P_CREATEDATE": "2017-12-23 17:45:41",
        "P_UPDATEDATE": "2017-12-23 17:45:41"
    },
    {
        "P_SOUND_EFFECT_ID": "309",
        "P_SOUND_EFFECT_NAME": "BF2_SE_309_BFX_METAL         ",
        "P_SOUND_FILE": "",
        "P_CREATEDATE": "2017-12-23 17:45:41",
        "P_UPDATEDATE": "2017-12-23 17:45:41"
    },
    {
        "P_SOUND_EFFECT_ID": "310",
        "P_SOUND_EFFECT_NAME": "BF2_SE_310_BFX_SOLID         ",
        "P_SOUND_FILE": "",
        "P_CREATEDATE": "2017-12-23 17:45:41",
        "P_UPDATEDATE": "2017-12-23 17:45:41"
    },
    {
        "P_SOUND_EFFECT_ID": "311",
        "P_SOUND_EFFECT_NAME": "BF2_SE_311_BFX_SWING         ",
        "P_SOUND_FILE": "",
        "P_CREATEDATE": "2017-12-23 17:45:41",
        "P_UPDATEDATE": "2017-12-23 17:45:41"
    },
    {
        "P_SOUND_EFFECT_ID": "312",
        "P_SOUND_EFFECT_NAME": "BF2_SE_312_BFX_LANDING       ",
        "P_SOUND_FILE": "",
        "P_CREATEDATE": "2017-12-23 17:45:41",
        "P_UPDATEDATE": "2017-12-23 17:45:41"
    },
    {
        "P_SOUND_EFFECT_ID": "313",
        "P_SOUND_EFFECT_NAME": "BF2_SE_313_BFX_FLUTTER       ",
        "P_SOUND_FILE": "",
        "P_CREATEDATE": "2017-12-23 17:45:41",
        "P_UPDATEDATE": "2017-12-23 17:45:41"
    },
    {
        "P_SOUND_EFFECT_ID": "314",
        "P_SOUND_EFFECT_NAME": "BF2_SE_314_BFX_SLAM          ",
        "P_SOUND_FILE": "",
        "P_CREATEDATE": "2017-12-23 17:45:41",
        "P_UPDATEDATE": "2017-12-23 17:45:41"
    },
    {
        "P_SOUND_EFFECT_ID": "315",
        "P_SOUND_EFFECT_NAME": "BF2_SE_315_BFX_ENERGY        ",
        "P_SOUND_FILE": "",
        "P_CREATEDATE": "2017-12-23 17:45:41",
        "P_UPDATEDATE": "2017-12-23 17:45:41"
    },
    {
        "P_SOUND_EFFECT_ID": "316",
        "P_SOUND_EFFECT_NAME": "BF2_SE_316_BFX_ROAR          ",
        "P_SOUND_FILE": "",
        "P_CREATEDATE": "2017-12-23 17:45:41",
        "P_UPDATEDATE": "2017-12-23 17:45:41"
    },
    {
        "P_SOUND_EFFECT_ID": "317",
        "P_SOUND_EFFECT_NAME": "BF2_SE_317_BFX_FIRE1         ",
        "P_SOUND_FILE": "",
        "P_CREATEDATE": "2017-12-23 17:45:41",
        "P_UPDATEDATE": "2017-12-23 17:45:41"
    },
    {
        "P_SOUND_EFFECT_ID": "318",
        "P_SOUND_EFFECT_NAME": "BF2_SE_318_BFX_FIRE2         ",
        "P_SOUND_FILE": "",
        "P_CREATEDATE": "2017-12-23 17:45:41",
        "P_UPDATEDATE": "2017-12-23 17:45:41"
    },
    {
        "P_SOUND_EFFECT_ID": "319",
        "P_SOUND_EFFECT_NAME": "BF2_SE_319_BFX_FIRE3         ",
        "P_SOUND_FILE": "",
        "P_CREATEDATE": "2017-12-23 17:45:41",
        "P_UPDATEDATE": "2017-12-23 17:45:41"
    },
    {
        "P_SOUND_EFFECT_ID": "320",
        "P_SOUND_EFFECT_NAME": "BF2_SE_320_BFX_FIRE4         ",
        "P_SOUND_FILE": "",
        "P_CREATEDATE": "2017-12-23 17:45:41",
        "P_UPDATEDATE": "2017-12-23 17:45:41"
    },
    {
        "P_SOUND_EFFECT_ID": "321",
        "P_SOUND_EFFECT_NAME": "BF2_SE_321_BFX_WATER1        ",
        "P_SOUND_FILE": "",
        "P_CREATEDATE": "2017-12-23 17:45:41",
        "P_UPDATEDATE": "2017-12-23 17:45:41"
    },
    {
        "P_SOUND_EFFECT_ID": "322",
        "P_SOUND_EFFECT_NAME": "BF2_SE_322_BFX_WATER2        ",
        "P_SOUND_FILE": "",
        "P_CREATEDATE": "2017-12-23 17:45:41",
        "P_UPDATEDATE": "2017-12-23 17:45:41"
    },
    {
        "P_SOUND_EFFECT_ID": "323",
        "P_SOUND_EFFECT_NAME": "BF2_SE_323_BFX_WATER3        ",
        "P_SOUND_FILE": "",
        "P_CREATEDATE": "2017-12-23 17:45:41",
        "P_UPDATEDATE": "2017-12-23 17:45:41"
    },
    {
        "P_SOUND_EFFECT_ID": "324",
        "P_SOUND_EFFECT_NAME": "BF2_SE_324_BFX_WATER4        ",
        "P_SOUND_FILE": "",
        "P_CREATEDATE": "2017-12-23 17:45:41",
        "P_UPDATEDATE": "2017-12-23 17:45:41"
    },
    {
        "P_SOUND_EFFECT_ID": "325",
        "P_SOUND_EFFECT_NAME": "BF2_SE_325_BFX_TREE1         ",
        "P_SOUND_FILE": "",
        "P_CREATEDATE": "2017-12-23 17:45:41",
        "P_UPDATEDATE": "2017-12-23 17:45:41"
    },
    {
        "P_SOUND_EFFECT_ID": "326",
        "P_SOUND_EFFECT_NAME": "BF2_SE_326_BFX_TREE2         ",
        "P_SOUND_FILE": "",
        "P_CREATEDATE": "2017-12-23 17:45:41",
        "P_UPDATEDATE": "2017-12-23 17:45:41"
    },
    {
        "P_SOUND_EFFECT_ID": "327",
        "P_SOUND_EFFECT_NAME": "BF2_SE_327_BFX_TREE3         ",
        "P_SOUND_FILE": "",
        "P_CREATEDATE": "2017-12-23 17:45:41",
        "P_UPDATEDATE": "2017-12-23 17:45:41"
    },
    {
        "P_SOUND_EFFECT_ID": "328",
        "P_SOUND_EFFECT_NAME": "BF2_SE_328_BFX_TREE4         ",
        "P_SOUND_FILE": "",
        "P_CREATEDATE": "2017-12-23 17:45:41",
        "P_UPDATEDATE": "2017-12-23 17:45:41"
    },
    {
        "P_SOUND_EFFECT_ID": "329",
        "P_SOUND_EFFECT_NAME": "BF2_SE_329_BFX_THUNDER1      ",
        "P_SOUND_FILE": "",
        "P_CREATEDATE": "2017-12-23 17:45:41",
        "P_UPDATEDATE": "2017-12-23 17:45:41"
    },
    {
        "P_SOUND_EFFECT_ID": "330",
        "P_SOUND_EFFECT_NAME": "BF2_SE_330_BFX_THUNDER2      ",
        "P_SOUND_FILE": "",
        "P_CREATEDATE": "2017-12-23 17:45:41",
        "P_UPDATEDATE": "2017-12-23 17:45:41"
    },
    {
        "P_SOUND_EFFECT_ID": "331",
        "P_SOUND_EFFECT_NAME": "BF2_SE_331_BFX_THUNDER3      ",
        "P_SOUND_FILE": "",
        "P_CREATEDATE": "2017-12-23 17:45:41",
        "P_UPDATEDATE": "2017-12-23 17:45:41"
    },
    {
        "P_SOUND_EFFECT_ID": "332",
        "P_SOUND_EFFECT_NAME": "BF2_SE_332_BFX_THUNDER4      ",
        "P_SOUND_FILE": "",
        "P_CREATEDATE": "2017-12-23 17:45:41",
        "P_UPDATEDATE": "2017-12-23 17:45:41"
    },
    {
        "P_SOUND_EFFECT_ID": "333",
        "P_SOUND_EFFECT_NAME": "BF2_SE_333_BFX_LIGHT1        ",
        "P_SOUND_FILE": "",
        "P_CREATEDATE": "2017-12-23 17:45:41",
        "P_UPDATEDATE": "2017-12-23 17:45:41"
    },
    {
        "P_SOUND_EFFECT_ID": "334",
        "P_SOUND_EFFECT_NAME": "BF2_SE_334_BFX_LIGHT2        ",
        "P_SOUND_FILE": "",
        "P_CREATEDATE": "2017-12-23 17:45:41",
        "P_UPDATEDATE": "2017-12-23 17:45:41"
    },
    {
        "P_SOUND_EFFECT_ID": "335",
        "P_SOUND_EFFECT_NAME": "BF2_SE_335_BFX_LIGHT3        ",
        "P_SOUND_FILE": "",
        "P_CREATEDATE": "2017-12-23 17:45:41",
        "P_UPDATEDATE": "2017-12-23 17:45:41"
    },
    {
        "P_SOUND_EFFECT_ID": "336",
        "P_SOUND_EFFECT_NAME": "BF2_SE_336_BFX_LIGHT4        ",
        "P_SOUND_FILE": "",
        "P_CREATEDATE": "2017-12-23 17:45:41",
        "P_UPDATEDATE": "2017-12-23 17:45:41"
    },
    {
        "P_SOUND_EFFECT_ID": "337",
        "P_SOUND_EFFECT_NAME": "BF2_SE_337_BFX_DARK1         ",
        "P_SOUND_FILE": "",
        "P_CREATEDATE": "2017-12-23 17:45:41",
        "P_UPDATEDATE": "2017-12-23 17:45:41"
    },
    {
        "P_SOUND_EFFECT_ID": "338",
        "P_SOUND_EFFECT_NAME": "BF2_SE_338_BFX_DARK2         ",
        "P_SOUND_FILE": "",
        "P_CREATEDATE": "2017-12-23 17:45:41",
        "P_UPDATEDATE": "2017-12-23 17:45:41"
    },
    {
        "P_SOUND_EFFECT_ID": "339",
        "P_SOUND_EFFECT_NAME": "BF2_SE_339_BFX_DARK3         ",
        "P_SOUND_FILE": "",
        "P_CREATEDATE": "2017-12-23 17:45:41",
        "P_UPDATEDATE": "2017-12-23 17:45:41"
    },
    {
        "P_SOUND_EFFECT_ID": "340",
        "P_SOUND_EFFECT_NAME": "BF2_SE_340_BFX_DARK4         ",
        "P_SOUND_FILE": "",
        "P_CREATEDATE": "2017-12-23 17:45:41",
        "P_UPDATEDATE": "2017-12-23 17:45:41"
    },
    {
        "P_SOUND_EFFECT_ID": "341",
        "P_SOUND_EFFECT_NAME": "BF2_SE_341_BFX_MISSILE_HATCH ",
        "P_SOUND_FILE": "",
        "P_CREATEDATE": "2017-12-23 17:45:41",
        "P_UPDATEDATE": "2017-12-23 17:45:41"
    },
    {
        "P_SOUND_EFFECT_ID": "342",
        "P_SOUND_EFFECT_NAME": "BF2_SE_342_BFX_MISSILE_LAUNCH",
        "P_SOUND_FILE": "",
        "P_CREATEDATE": "2017-12-23 17:45:41",
        "P_UPDATEDATE": "2017-12-23 17:45:41"
    },
    {
        "P_SOUND_EFFECT_ID": "343",
        "P_SOUND_EFFECT_NAME": "BF2_SE_343_SCR_PENETRATION   ",
        "P_SOUND_FILE": "",
        "P_CREATEDATE": "2017-12-23 17:45:41",
        "P_UPDATEDATE": "2017-12-23 17:45:41"
    },
    {
        "P_SOUND_EFFECT_ID": "344",
        "P_SOUND_EFFECT_NAME": "BF2_SE_344_SCR_STEP1         ",
        "P_SOUND_FILE": "",
        "P_CREATEDATE": "2017-12-23 17:45:41",
        "P_UPDATEDATE": "2017-12-23 17:45:41"
    },
    {
        "P_SOUND_EFFECT_ID": "345",
        "P_SOUND_EFFECT_NAME": "BF2_SE_345_SCR_STEP2         ",
        "P_SOUND_FILE": "",
        "P_CREATEDATE": "2017-12-23 17:45:41",
        "P_UPDATEDATE": "2017-12-23 17:45:41"
    },
    {
        "P_SOUND_EFFECT_ID": "346",
        "P_SOUND_EFFECT_NAME": "BF2_SE_346_SCR_WAR           ",
        "P_SOUND_FILE": "",
        "P_CREATEDATE": "2017-12-23 17:45:41",
        "P_UPDATEDATE": "2017-12-23 17:45:41"
    },
    {
        "P_SOUND_EFFECT_ID": "347",
        "P_SOUND_EFFECT_NAME": "BF2_SE_347_SCR_QUAKE         ",
        "P_SOUND_FILE": "",
        "P_CREATEDATE": "2017-12-23 17:45:41",
        "P_UPDATEDATE": "2017-12-23 17:45:41"
    },
    {
        "P_SOUND_EFFECT_ID": "349",
        "P_SOUND_EFFECT_NAME": "BF2_SE_349_SCR_GEMSTONE_LIGHT",
        "P_SOUND_FILE": "",
        "P_CREATEDATE": "2017-12-23 17:45:41",
        "P_UPDATEDATE": "2017-12-23 17:45:41"
    },
    {
        "P_SOUND_EFFECT_ID": "350",
        "P_SOUND_EFFECT_NAME": "BF2_SE_350_SCR_GEMSTONE_BREAK",
        "P_SOUND_FILE": "",
        "P_CREATEDATE": "2017-12-23 17:45:41",
        "P_UPDATEDATE": "2017-12-23 17:45:41"
    },
    {
        "P_SOUND_EFFECT_ID": "100001",
        "P_SOUND_EFFECT_NAME": "BF2_001_ttl_top",
        "P_SOUND_FILE": "",
        "P_CREATEDATE": "2017-12-23 17:45:41",
        "P_UPDATEDATE": "2017-12-23 17:45:41"
    },
    {
        "P_SOUND_EFFECT_ID": "100002",
        "P_SOUND_EFFECT_NAME": "BF2_002_hom_hero",
        "P_SOUND_FILE": "",
        "P_CREATEDATE": "2017-12-23 17:45:41",
        "P_UPDATEDATE": "2017-12-23 17:45:41"
    },
    {
        "P_SOUND_EFFECT_ID": "100003",
        "P_SOUND_EFFECT_NAME": "BF2_003_hom_heroine",
        "P_SOUND_FILE": "",
        "P_CREATEDATE": "2017-12-23 17:45:41",
        "P_UPDATEDATE": "2017-12-23 17:45:41"
    },
    {
        "P_SOUND_EFFECT_ID": "100004",
        "P_SOUND_EFFECT_NAME": "BF2_004_hom_join",
        "P_SOUND_FILE": "",
        "P_CREATEDATE": "2017-12-23 17:45:41",
        "P_UPDATEDATE": "2017-12-23 17:45:41"
    },
    {
        "P_SOUND_EFFECT_ID": "100005",
        "P_SOUND_EFFECT_NAME": "BF2_005_arn_top",
        "P_SOUND_FILE": "",
        "P_CREATEDATE": "2017-12-23 17:45:41",
        "P_UPDATEDATE": "2017-12-23 17:45:41"
    },
    {
        "P_SOUND_EFFECT_ID": "100006",
        "P_SOUND_EFFECT_NAME": "BF2_006_arn_battle",
        "P_SOUND_FILE": "",
        "P_CREATEDATE": "2017-12-23 17:45:41",
        "P_UPDATEDATE": "2017-12-23 17:45:41"
    },
    {
        "P_SOUND_EFFECT_ID": "100007",
        "P_SOUND_EFFECT_NAME": "BF2_007_rdl_randall",
        "P_SOUND_FILE": "",
        "P_CREATEDATE": "2017-12-23 17:45:41",
        "P_UPDATEDATE": "2017-12-23 17:45:41"
    },
    {
        "P_SOUND_EFFECT_ID": "100008",
        "P_SOUND_EFFECT_NAME": "BF2_008_btl_result",
        "P_SOUND_FILE": "",
        "P_CREATEDATE": "2017-12-23 17:45:41",
        "P_UPDATEDATE": "2017-12-23 17:45:41"
    },
    {
        "P_SOUND_EFFECT_ID": "100009",
        "P_SOUND_EFFECT_NAME": "BF2_009_qst_top",
        "P_SOUND_FILE": "",
        "P_CREATEDATE": "2017-12-23 17:45:41",
        "P_UPDATEDATE": "2017-12-23 17:45:41"
    },
    {
        "P_SOUND_EFFECT_ID": "100010",
        "P_SOUND_EFFECT_NAME": "BF2_010_qst_grangaia",
        "P_SOUND_FILE": "",
        "P_CREATEDATE": "2017-12-23 17:45:41",
        "P_UPDATEDATE": "2017-12-23 17:45:41"
    },
    {
        "P_SOUND_EFFECT_ID": "100011",
        "P_SOUND_EFFECT_NAME": "BF2_011_qst_bada-fana",
        "P_SOUND_FILE": "",
        "P_CREATEDATE": "2017-12-23 17:45:41",
        "P_UPDATEDATE": "2017-12-23 17:45:41"
    },
    {
        "P_SOUND_EFFECT_ID": "100012",
        "P_SOUND_EFFECT_NAME": "BF2_012_qst_extus",
        "P_SOUND_FILE": "",
        "P_CREATEDATE": "2017-12-23 17:45:41",
        "P_UPDATEDATE": "2017-12-23 17:45:41"
    },
    {
        "P_SOUND_EFFECT_ID": "100013",
        "P_SOUND_EFFECT_NAME": "BF2_013_qst_seltabia",
        "P_SOUND_FILE": "",
        "P_CREATEDATE": "2017-12-23 17:45:41",
        "P_UPDATEDATE": "2017-12-23 17:45:41"
    },
    {
        "P_SOUND_EFFECT_ID": "100014",
        "P_SOUND_EFFECT_NAME": "BF2_014_hzm_top",
        "P_SOUND_FILE": "",
        "P_CREATEDATE": "2017-12-23 17:45:41",
        "P_UPDATEDATE": "2017-12-23 17:45:41"
    },
    {
        "P_SOUND_EFFECT_ID": "100020",
        "P_SOUND_EFFECT_NAME": "BF2_020_thm_rumford",
        "P_SOUND_FILE": "",
        "P_CREATEDATE": "2017-12-23 17:45:41",
        "P_UPDATEDATE": "2017-12-23 17:45:41"
    },
    {
        "P_SOUND_EFFECT_ID": "100021",
        "P_SOUND_EFFECT_NAME": "BF2_021_thm_elhaza",
        "P_SOUND_FILE": "",
        "P_CREATEDATE": "2017-12-23 17:45:41",
        "P_UPDATEDATE": "2017-12-23 17:45:41"
    },
    {
        "P_SOUND_EFFECT_ID": "100022",
        "P_SOUND_EFFECT_NAME": "BF2_022_thm_shia",
        "P_SOUND_FILE": "",
        "P_CREATEDATE": "2017-12-23 17:45:41",
        "P_UPDATEDATE": "2017-12-23 17:45:41"
    },
    {
        "P_SOUND_EFFECT_ID": "100023",
        "P_SOUND_EFFECT_NAME": "BF2_023_thm_melfel",
        "P_SOUND_FILE": "",
        "P_CREATEDATE": "2017-12-23 17:45:41",
        "P_UPDATEDATE": "2017-12-23 17:45:41"
    },
    {
        "P_SOUND_EFFECT_ID": "100024",
        "P_SOUND_EFFECT_NAME": "BF2_024_thm_barragan",
        "P_SOUND_FILE": "",
        "P_CREATEDATE": "2017-12-23 17:45:41",
        "P_UPDATEDATE": "2017-12-23 17:45:41"
    },
    {
        "P_SOUND_EFFECT_ID": "100025",
        "P_SOUND_EFFECT_NAME": "BF2_025_thm_hilda",
        "P_SOUND_FILE": "",
        "P_CREATEDATE": "2017-12-23 17:45:41",
        "P_UPDATEDATE": "2017-12-23 17:45:41"
    },
    {
        "P_SOUND_EFFECT_ID": "100026",
        "P_SOUND_EFFECT_NAME": "BF2_026_thm_rene",
        "P_SOUND_FILE": "",
        "P_CREATEDATE": "2017-12-23 17:45:41",
        "P_UPDATEDATE": "2017-12-23 17:45:41"
    },
    {
        "P_SOUND_EFFECT_ID": "100027",
        "P_SOUND_EFFECT_NAME": "BF2_027_thm_zad",
        "P_SOUND_FILE": "",
        "P_CREATEDATE": "2017-12-23 17:45:41",
        "P_UPDATEDATE": "2017-12-23 17:45:41"
    },
    {
        "P_SOUND_EFFECT_ID": "100028",
        "P_SOUND_EFFECT_NAME": "BF2_028_scr_sad",
        "P_SOUND_FILE": "",
        "P_CREATEDATE": "2017-12-23 17:45:41",
        "P_UPDATEDATE": "2017-12-23 17:45:41"
    },
    {
        "P_SOUND_EFFECT_ID": "100029",
        "P_SOUND_EFFECT_NAME": "BF2_029_scr_brave",
        "P_SOUND_FILE": "",
        "P_CREATEDATE": "2017-12-23 17:45:41",
        "P_UPDATEDATE": "2017-12-23 17:45:41"
    },
    {
        "P_SOUND_EFFECT_ID": "100030",
        "P_SOUND_EFFECT_NAME": "BF2_030_scr_calm",
        "P_SOUND_FILE": "",
        "P_CREATEDATE": "2017-12-23 17:45:41",
        "P_UPDATEDATE": "2017-12-23 17:45:41"
    },
    {
        "P_SOUND_EFFECT_ID": "100031",
        "P_SOUND_EFFECT_NAME": "BF2_031_scr_pinch",
        "P_SOUND_FILE": "",
        "P_CREATEDATE": "2017-12-23 17:45:41",
        "P_UPDATEDATE": "2017-12-23 17:45:41"
    },
    {
        "P_SOUND_EFFECT_ID": "100032",
        "P_SOUND_EFFECT_NAME": "BF2_032_scr_tension",
        "P_SOUND_FILE": "",
        "P_CREATEDATE": "2017-12-23 17:45:41",
        "P_UPDATEDATE": "2017-12-23 17:45:41"
    },
    {
        "P_SOUND_EFFECT_ID": "100033",
        "P_SOUND_EFFECT_NAME": "BF2_033_scr_mystery",
        "P_SOUND_FILE": "",
        "P_CREATEDATE": "2017-12-23 17:45:41",
        "P_UPDATEDATE": "2017-12-23 17:45:41"
    },
    {
        "P_SOUND_EFFECT_ID": "100034",
        "P_SOUND_EFFECT_NAME": "BF2_034_scr_anxiety",
        "P_SOUND_FILE": "",
        "P_CREATEDATE": "2017-12-23 17:45:41",
        "P_UPDATEDATE": "2017-12-23 17:45:41"
    },
    {
        "P_SOUND_EFFECT_ID": "100035",
        "P_SOUND_EFFECT_NAME": "BF2_035_scr_peace",
        "P_SOUND_FILE": "",
        "P_CREATEDATE": "2017-12-23 17:45:41",
        "P_UPDATEDATE": "2017-12-23 17:45:41"
    },
    {
        "P_SOUND_EFFECT_ID": "100036",
        "P_SOUND_EFFECT_NAME": "BF2_036_btl_7boss1",
        "P_SOUND_FILE": "",
        "P_CREATEDATE": "2017-12-23 17:45:41",
        "P_UPDATEDATE": "2017-12-23 17:45:41"
    },
    {
        "P_SOUND_EFFECT_ID": "100037",
        "P_SOUND_EFFECT_NAME": "BF2_037_btl_7boss2",
        "P_SOUND_FILE": "",
        "P_CREATEDATE": "2017-12-23 17:45:41",
        "P_UPDATEDATE": "2017-12-23 17:45:41"
    },
    {
        "P_SOUND_EFFECT_ID": "100038",
        "P_SOUND_EFFECT_NAME": "BF2_038_btl_mimic",
        "P_SOUND_FILE": "",
        "P_CREATEDATE": "2017-12-23 17:45:41",
        "P_UPDATEDATE": "2017-12-23 17:45:41"
    },
    {
        "P_SOUND_EFFECT_ID": "100039",
        "P_SOUND_EFFECT_NAME": "BF2_039_btl_boss01",
        "P_SOUND_FILE": "",
        "P_CREATEDATE": "2017-12-23 17:45:41",
        "P_UPDATEDATE": "2017-12-23 17:45:41"
    },
    {
        "P_SOUND_EFFECT_ID": "100040",
        "P_SOUND_EFFECT_NAME": "BF2_040_btl_nomal01",
        "P_SOUND_FILE": "",
        "P_CREATEDATE": "2017-12-23 17:45:41",
        "P_UPDATEDATE": "2017-12-23 17:45:41"
    },
    {
        "P_SOUND_EFFECT_ID": "100041",
        "P_SOUND_EFFECT_NAME": "BF2_041_btl_nomal02",
        "P_SOUND_FILE": "",
        "P_CREATEDATE": "2017-12-23 17:45:41",
        "P_UPDATEDATE": "2017-12-23 17:45:41"
    },
    {
        "P_SOUND_EFFECT_ID": "100042",
        "P_SOUND_EFFECT_NAME": "BF2_042_btl_nomal03",
        "P_SOUND_FILE": "",
        "P_CREATEDATE": "2017-12-23 17:45:41",
        "P_UPDATEDATE": "2017-12-23 17:45:41"
    },
    {
        "P_SOUND_EFFECT_ID": "100043",
        "P_SOUND_EFFECT_NAME": "BF2_043_btl_nomal04",
        "P_SOUND_FILE": "",
        "P_CREATEDATE": "2017-12-23 17:45:41",
        "P_UPDATEDATE": "2017-12-23 17:45:41"
    },
    {
        "P_SOUND_EFFECT_ID": "100044",
        "P_SOUND_EFFECT_NAME": "BF2_044_btl_nomal05",
        "P_SOUND_FILE": "",
        "P_CREATEDATE": "2017-12-23 17:45:41",
        "P_UPDATEDATE": "2017-12-23 17:45:41"
    },
    {
        "P_SOUND_EFFECT_ID": "100045",
        "P_SOUND_EFFECT_NAME": "BF2_045_btl_nomal06",
        "P_SOUND_FILE": "",
        "P_CREATEDATE": "2017-12-23 17:45:41",
        "P_UPDATEDATE": "2017-12-23 17:45:41"
    },
    {
        "P_SOUND_EFFECT_ID": "100046",
        "P_SOUND_EFFECT_NAME": "BF2_046_thm_lastboss",
        "P_SOUND_FILE": "",
        "P_CREATEDATE": "2017-12-23 17:45:41",
        "P_UPDATEDATE": "2017-12-23 17:45:41"
    },
    {
        "P_SOUND_EFFECT_ID": "100047",
        "P_SOUND_EFFECT_NAME": "BF2_047_btl_lastboss01",
        "P_SOUND_FILE": "",
        "P_CREATEDATE": "2017-12-23 17:45:41",
        "P_UPDATEDATE": "2017-12-23 17:45:41"
    },
    {
        "P_SOUND_EFFECT_ID": "100048",
        "P_SOUND_EFFECT_NAME": "BF2_048_btl_lastboss02",
        "P_SOUND_FILE": "",
        "P_CREATEDATE": "2017-12-23 17:45:41",
        "P_UPDATEDATE": "2017-12-23 17:45:41"
    },
    {
        "P_SOUND_EFFECT_ID": "100049",
        "P_SOUND_EFFECT_NAME": "BF2_049_btl_ordeal",
        "P_SOUND_FILE": "",
        "P_CREATEDATE": "2017-12-23 17:45:41",
        "P_UPDATEDATE": "2017-12-23 17:45:41"
    },
    {
        "P_SOUND_EFFECT_ID": "100050",
        "P_SOUND_EFFECT_NAME": "BF2_050_btl_result",
        "P_SOUND_FILE": "",
        "P_CREATEDATE": "2017-12-23 17:45:41",
        "P_UPDATEDATE": "2017-12-23 17:45:41"
    },
    {
        "P_SOUND_EFFECT_ID": "100051",
        "P_SOUND_EFFECT_NAME": "BF2_051_scr_extus",
        "P_SOUND_FILE": "",
        "P_CREATEDATE": "2017-12-23 17:45:41",
        "P_UPDATEDATE": "2017-12-23 17:45:41"
    }
]