[
    {
        "y9ET7Aub": "101",
        "aAFI6S5w": "\u30d5\u30a1\u30af\u30c8\u30ea\u30fc",
        "SnNtTh51": "506",
        "M6C1aXfR": "932",
        "dRhvW13q": "200",
        "FCzW4g6P": "100",
        "P8z69BkA": "town_02.jpg,multi_navi_chara4.pn",
        "P_NEED_SWITCH_INFO": "",
        "P_HIDE_SWITCH_INFO": "",
        "P_OPEN_SWITCH_INFO": "",
        "P_CREATEDATE": "2018-01-25 19:59:15",
        "P_UPDATEDATE": "2018-01-25 19:59:15"
    },
    {
        "y9ET7Aub": "102",
        "aAFI6S5w": "\u30a2\u30a4\u30c6\u30e0\u7ba1\u7406",
        "SnNtTh51": "158",
        "M6C1aXfR": "546",
        "dRhvW13q": "200",
        "FCzW4g6P": "100",
        "P8z69BkA": "town_02.jpg,multi_navi_chara4.pn",
        "P_NEED_SWITCH_INFO": "",
        "P_HIDE_SWITCH_INFO": "",
        "P_OPEN_SWITCH_INFO": "",
        "P_CREATEDATE": "2018-01-25 19:59:15",
        "P_UPDATEDATE": "2018-01-25 19:59:15"
    },
    {
        "y9ET7Aub": "103",
        "aAFI6S5w": "\u5e1d\u90fd\u56f3\u66f8\u9928",
        "SnNtTh51": "144",
        "M6C1aXfR": "324",
        "dRhvW13q": "200",
        "FCzW4g6P": "100",
        "P8z69BkA": "town_02.jpg,multi_navi_chara4.pn",
        "P_NEED_SWITCH_INFO": "",
        "P_HIDE_SWITCH_INFO": "",
        "P_OPEN_SWITCH_INFO": "",
        "P_CREATEDATE": "2018-01-25 19:59:15",
        "P_UPDATEDATE": "2018-01-25 19:59:15"
    },
    {
        "y9ET7Aub": "104",
        "aAFI6S5w": "<center>\u958b\u62d3\u5c40\u76f4\u55b6\n\u30b7\u30e7\u30c3\u30d7</center>",
        "SnNtTh51": "402",
        "M6C1aXfR": "740",
        "dRhvW13q": "200",
        "FCzW4g6P": "100",
        "P8z69BkA": "town_02.jpg,multi_navi_chara4.pn",
        "P_NEED_SWITCH_INFO": "",
        "P_HIDE_SWITCH_INFO": "",
        "P_OPEN_SWITCH_INFO": "",
        "P_CREATEDATE": "2018-01-25 19:59:15",
        "P_UPDATEDATE": "2018-01-25 19:59:15"
    },
    {
        "y9ET7Aub": "105",
        "aAFI6S5w": "<center>\u30a2\u30af\u30e9\u30b9\u53ec\u559a\u9662\n\u7ba1\u7406\u5c40</center>",
        "SnNtTh51": "440",
        "M6C1aXfR": "450",
        "dRhvW13q": "200",
        "FCzW4g6P": "100",
        "P8z69BkA": "town_02.jpg,multi_navi_chara4.pn",
        "P_NEED_SWITCH_INFO": "",
        "P_HIDE_SWITCH_INFO": "",
        "P_OPEN_SWITCH_INFO": "",
        "P_CREATEDATE": "2018-01-25 19:59:15",
        "P_UPDATEDATE": "2018-01-25 19:59:15"
    },
    {
        "y9ET7Aub": "201",
        "aAFI6S5w": "\u30a2\u30a4\u30c6\u30e0\u4f5c\u6210",
        "SnNtTh51": "486",
        "M6C1aXfR": "830",
        "dRhvW13q": "200",
        "FCzW4g6P": "100",
        "P8z69BkA": "bg_rinbag.jpg,multi_navi_chara4.",
        "P_NEED_SWITCH_INFO": "",
        "P_HIDE_SWITCH_INFO": "",
        "P_OPEN_SWITCH_INFO": "",
        "P_CREATEDATE": "2018-01-25 19:59:15",
        "P_UPDATEDATE": "2018-01-25 19:59:15"
    },
    {
        "y9ET7Aub": "202",
        "aAFI6S5w": "\u30a2\u30a4\u30c6\u30e0\u7ba1\u7406",
        "SnNtTh51": "174",
        "M6C1aXfR": "690",
        "dRhvW13q": "200",
        "FCzW4g6P": "100",
        "P8z69BkA": "bg_rinbag.jpg,multi_navi_chara4.",
        "P_NEED_SWITCH_INFO": "",
        "P_HIDE_SWITCH_INFO": "",
        "P_OPEN_SWITCH_INFO": "",
        "P_CREATEDATE": "2018-01-25 19:59:15",
        "P_UPDATEDATE": "2018-01-25 19:59:15"
    }
]