[
    {
        "P_MIX_INFO_ID": "1",
        "P_BASE_TYPE": "10",
        "P_TARGET_TYPE": "10",
        "P_TARGET_GROUP": "1",
        "P_TARGET_ID": "1",
        "P_EXP_TYPE": "71",
        "P_ADD_BASE": "50",
        "P_ADD_LV_RATE": "25",
        "P_SAME_ELEMENT_RATE": "150",
        "P_COST_BASE": "100",
        "P_COST_EXP_RATE": "100",
        "P_SUCCESS_RATE": "100",
        "P_CREATEDATE": "2018-04-25 01:51:09",
        "P_UPDATEDATE": "2018-04-25 01:51:09"
    },
    {
        "P_MIX_INFO_ID": "2",
        "P_BASE_TYPE": "10",
        "P_TARGET_TYPE": "10",
        "P_TARGET_GROUP": "1",
        "P_TARGET_ID": "2",
        "P_EXP_TYPE": "71",
        "P_ADD_BASE": "100",
        "P_ADD_LV_RATE": "25",
        "P_SAME_ELEMENT_RATE": "150",
        "P_COST_BASE": "100",
        "P_COST_EXP_RATE": "100",
        "P_SUCCESS_RATE": "100",
        "P_CREATEDATE": "2018-04-25 01:51:09",
        "P_UPDATEDATE": "2018-04-25 01:51:09"
    },
    {
        "P_MIX_INFO_ID": "3",
        "P_BASE_TYPE": "10",
        "P_TARGET_TYPE": "10",
        "P_TARGET_GROUP": "1",
        "P_TARGET_ID": "3",
        "P_EXP_TYPE": "71",
        "P_ADD_BASE": "200",
        "P_ADD_LV_RATE": "25",
        "P_SAME_ELEMENT_RATE": "150",
        "P_COST_BASE": "100",
        "P_COST_EXP_RATE": "100",
        "P_SUCCESS_RATE": "100",
        "P_CREATEDATE": "2018-04-25 01:51:09",
        "P_UPDATEDATE": "2018-04-25 01:51:09"
    },
    {
        "P_MIX_INFO_ID": "4",
        "P_BASE_TYPE": "10",
        "P_TARGET_TYPE": "10",
        "P_TARGET_GROUP": "1",
        "P_TARGET_ID": "4",
        "P_EXP_TYPE": "71",
        "P_ADD_BASE": "500",
        "P_ADD_LV_RATE": "25",
        "P_SAME_ELEMENT_RATE": "150",
        "P_COST_BASE": "100",
        "P_COST_EXP_RATE": "100",
        "P_SUCCESS_RATE": "100",
        "P_CREATEDATE": "2018-04-25 01:51:09",
        "P_UPDATEDATE": "2018-04-25 01:51:09"
    },
    {
        "P_MIX_INFO_ID": "5",
        "P_BASE_TYPE": "10",
        "P_TARGET_TYPE": "10",
        "P_TARGET_GROUP": "1",
        "P_TARGET_ID": "5",
        "P_EXP_TYPE": "71",
        "P_ADD_BASE": "1000",
        "P_ADD_LV_RATE": "25",
        "P_SAME_ELEMENT_RATE": "150",
        "P_COST_BASE": "100",
        "P_COST_EXP_RATE": "100",
        "P_SUCCESS_RATE": "100",
        "P_CREATEDATE": "2018-04-25 01:51:09",
        "P_UPDATEDATE": "2018-04-25 01:51:09"
    },
    {
        "P_MIX_INFO_ID": "6",
        "P_BASE_TYPE": "10",
        "P_TARGET_TYPE": "10",
        "P_TARGET_GROUP": "1",
        "P_TARGET_ID": "1",
        "P_EXP_TYPE": "72",
        "P_ADD_BASE": "1",
        "P_ADD_LV_RATE": "25",
        "P_SAME_ELEMENT_RATE": "100",
        "P_COST_BASE": "100",
        "P_COST_EXP_RATE": "100",
        "P_SUCCESS_RATE": "50",
        "P_CREATEDATE": "2018-04-25 01:51:09",
        "P_UPDATEDATE": "2018-04-25 01:51:09"
    },
    {
        "P_MIX_INFO_ID": "7",
        "P_BASE_TYPE": "10",
        "P_TARGET_TYPE": "10",
        "P_TARGET_GROUP": "1",
        "P_TARGET_ID": "2",
        "P_EXP_TYPE": "72",
        "P_ADD_BASE": "2",
        "P_ADD_LV_RATE": "25",
        "P_SAME_ELEMENT_RATE": "100",
        "P_COST_BASE": "100",
        "P_COST_EXP_RATE": "100",
        "P_SUCCESS_RATE": "50",
        "P_CREATEDATE": "2018-04-25 01:51:09",
        "P_UPDATEDATE": "2018-04-25 01:51:09"
    },
    {
        "P_MIX_INFO_ID": "8",
        "P_BASE_TYPE": "10",
        "P_TARGET_TYPE": "10",
        "P_TARGET_GROUP": "1",
        "P_TARGET_ID": "3",
        "P_EXP_TYPE": "72",
        "P_ADD_BASE": "3",
        "P_ADD_LV_RATE": "25",
        "P_SAME_ELEMENT_RATE": "100",
        "P_COST_BASE": "100",
        "P_COST_EXP_RATE": "100",
        "P_SUCCESS_RATE": "50",
        "P_CREATEDATE": "2018-04-25 01:51:09",
        "P_UPDATEDATE": "2018-04-25 01:51:09"
    },
    {
        "P_MIX_INFO_ID": "9",
        "P_BASE_TYPE": "10",
        "P_TARGET_TYPE": "10",
        "P_TARGET_GROUP": "1",
        "P_TARGET_ID": "4",
        "P_EXP_TYPE": "72",
        "P_ADD_BASE": "4",
        "P_ADD_LV_RATE": "25",
        "P_SAME_ELEMENT_RATE": "100",
        "P_COST_BASE": "100",
        "P_COST_EXP_RATE": "100",
        "P_SUCCESS_RATE": "50",
        "P_CREATEDATE": "2018-04-25 01:51:09",
        "P_UPDATEDATE": "2018-04-25 01:51:09"
    },
    {
        "P_MIX_INFO_ID": "10",
        "P_BASE_TYPE": "10",
        "P_TARGET_TYPE": "10",
        "P_TARGET_GROUP": "1",
        "P_TARGET_ID": "5",
        "P_EXP_TYPE": "72",
        "P_ADD_BASE": "5",
        "P_ADD_LV_RATE": "25",
        "P_SAME_ELEMENT_RATE": "100",
        "P_COST_BASE": "100",
        "P_COST_EXP_RATE": "100",
        "P_SUCCESS_RATE": "50",
        "P_CREATEDATE": "2018-04-25 01:51:09",
        "P_UPDATEDATE": "2018-04-25 01:51:09"
    },
    {
        "P_MIX_INFO_ID": "11",
        "P_BASE_TYPE": "10",
        "P_TARGET_TYPE": "10",
        "P_TARGET_GROUP": "4",
        "P_TARGET_ID": "1",
        "P_EXP_TYPE": "71",
        "P_ADD_BASE": "200",
        "P_ADD_LV_RATE": "25",
        "P_SAME_ELEMENT_RATE": "150",
        "P_COST_BASE": "100",
        "P_COST_EXP_RATE": "100",
        "P_SUCCESS_RATE": "100",
        "P_CREATEDATE": "2018-04-25 01:51:09",
        "P_UPDATEDATE": "2018-04-25 01:51:09"
    },
    {
        "P_MIX_INFO_ID": "12",
        "P_BASE_TYPE": "10",
        "P_TARGET_TYPE": "10",
        "P_TARGET_GROUP": "4",
        "P_TARGET_ID": "2",
        "P_EXP_TYPE": "71",
        "P_ADD_BASE": "500",
        "P_ADD_LV_RATE": "25",
        "P_SAME_ELEMENT_RATE": "150",
        "P_COST_BASE": "100",
        "P_COST_EXP_RATE": "100",
        "P_SUCCESS_RATE": "100",
        "P_CREATEDATE": "2018-04-25 01:51:09",
        "P_UPDATEDATE": "2018-04-25 01:51:09"
    },
    {
        "P_MIX_INFO_ID": "13",
        "P_BASE_TYPE": "10",
        "P_TARGET_TYPE": "10",
        "P_TARGET_GROUP": "4",
        "P_TARGET_ID": "3",
        "P_EXP_TYPE": "71",
        "P_ADD_BASE": "1000",
        "P_ADD_LV_RATE": "25",
        "P_SAME_ELEMENT_RATE": "150",
        "P_COST_BASE": "100",
        "P_COST_EXP_RATE": "100",
        "P_SUCCESS_RATE": "100",
        "P_CREATEDATE": "2018-04-25 01:51:09",
        "P_UPDATEDATE": "2018-04-25 01:51:09"
    },
    {
        "P_MIX_INFO_ID": "14",
        "P_BASE_TYPE": "10",
        "P_TARGET_TYPE": "10",
        "P_TARGET_GROUP": "4",
        "P_TARGET_ID": "4",
        "P_EXP_TYPE": "71",
        "P_ADD_BASE": "2000",
        "P_ADD_LV_RATE": "25",
        "P_SAME_ELEMENT_RATE": "150",
        "P_COST_BASE": "100",
        "P_COST_EXP_RATE": "100",
        "P_SUCCESS_RATE": "100",
        "P_CREATEDATE": "2018-04-25 01:51:09",
        "P_UPDATEDATE": "2018-04-25 01:51:09"
    },
    {
        "P_MIX_INFO_ID": "15",
        "P_BASE_TYPE": "10",
        "P_TARGET_TYPE": "10",
        "P_TARGET_GROUP": "4",
        "P_TARGET_ID": "5",
        "P_EXP_TYPE": "71",
        "P_ADD_BASE": "3000",
        "P_ADD_LV_RATE": "25",
        "P_SAME_ELEMENT_RATE": "150",
        "P_COST_BASE": "100",
        "P_COST_EXP_RATE": "100",
        "P_SUCCESS_RATE": "100",
        "P_CREATEDATE": "2018-04-25 01:51:09",
        "P_UPDATEDATE": "2018-04-25 01:51:09"
    },
    {
        "P_MIX_INFO_ID": "16",
        "P_BASE_TYPE": "10",
        "P_TARGET_TYPE": "10",
        "P_TARGET_GROUP": "4",
        "P_TARGET_ID": "1",
        "P_EXP_TYPE": "72",
        "P_ADD_BASE": "5",
        "P_ADD_LV_RATE": "25",
        "P_SAME_ELEMENT_RATE": "100",
        "P_COST_BASE": "100",
        "P_COST_EXP_RATE": "100",
        "P_SUCCESS_RATE": "50",
        "P_CREATEDATE": "2018-04-25 01:51:09",
        "P_UPDATEDATE": "2018-04-25 01:51:09"
    },
    {
        "P_MIX_INFO_ID": "17",
        "P_BASE_TYPE": "10",
        "P_TARGET_TYPE": "10",
        "P_TARGET_GROUP": "4",
        "P_TARGET_ID": "2",
        "P_EXP_TYPE": "72",
        "P_ADD_BASE": "10",
        "P_ADD_LV_RATE": "25",
        "P_SAME_ELEMENT_RATE": "100",
        "P_COST_BASE": "100",
        "P_COST_EXP_RATE": "100",
        "P_SUCCESS_RATE": "50",
        "P_CREATEDATE": "2018-04-25 01:51:09",
        "P_UPDATEDATE": "2018-04-25 01:51:09"
    },
    {
        "P_MIX_INFO_ID": "18",
        "P_BASE_TYPE": "10",
        "P_TARGET_TYPE": "10",
        "P_TARGET_GROUP": "4",
        "P_TARGET_ID": "3",
        "P_EXP_TYPE": "72",
        "P_ADD_BASE": "20",
        "P_ADD_LV_RATE": "25",
        "P_SAME_ELEMENT_RATE": "100",
        "P_COST_BASE": "100",
        "P_COST_EXP_RATE": "100",
        "P_SUCCESS_RATE": "50",
        "P_CREATEDATE": "2018-04-25 01:51:09",
        "P_UPDATEDATE": "2018-04-25 01:51:09"
    },
    {
        "P_MIX_INFO_ID": "19",
        "P_BASE_TYPE": "10",
        "P_TARGET_TYPE": "10",
        "P_TARGET_GROUP": "4",
        "P_TARGET_ID": "4",
        "P_EXP_TYPE": "72",
        "P_ADD_BASE": "50",
        "P_ADD_LV_RATE": "25",
        "P_SAME_ELEMENT_RATE": "100",
        "P_COST_BASE": "100",
        "P_COST_EXP_RATE": "100",
        "P_SUCCESS_RATE": "50",
        "P_CREATEDATE": "2018-04-25 01:51:09",
        "P_UPDATEDATE": "2018-04-25 01:51:09"
    },
    {
        "P_MIX_INFO_ID": "20",
        "P_BASE_TYPE": "10",
        "P_TARGET_TYPE": "10",
        "P_TARGET_GROUP": "4",
        "P_TARGET_ID": "5",
        "P_EXP_TYPE": "72",
        "P_ADD_BASE": "100",
        "P_ADD_LV_RATE": "25",
        "P_SAME_ELEMENT_RATE": "100",
        "P_COST_BASE": "100",
        "P_COST_EXP_RATE": "100",
        "P_SUCCESS_RATE": "50",
        "P_CREATEDATE": "2018-04-25 01:51:09",
        "P_UPDATEDATE": "2018-04-25 01:51:09"
    },
    {
        "P_MIX_INFO_ID": "21",
        "P_BASE_TYPE": "10",
        "P_TARGET_TYPE": "10",
        "P_TARGET_GROUP": "3",
        "P_TARGET_ID": "1",
        "P_EXP_TYPE": "71",
        "P_ADD_BASE": "3000",
        "P_ADD_LV_RATE": "0",
        "P_SAME_ELEMENT_RATE": "100",
        "P_COST_BASE": "0",
        "P_COST_EXP_RATE": "10",
        "P_SUCCESS_RATE": "100",
        "P_CREATEDATE": "2018-04-25 01:51:09",
        "P_UPDATEDATE": "2018-04-25 01:51:09"
    },
    {
        "P_MIX_INFO_ID": "22",
        "P_BASE_TYPE": "10",
        "P_TARGET_TYPE": "10",
        "P_TARGET_GROUP": "3",
        "P_TARGET_ID": "2",
        "P_EXP_TYPE": "71",
        "P_ADD_BASE": "3000",
        "P_ADD_LV_RATE": "0",
        "P_SAME_ELEMENT_RATE": "100",
        "P_COST_BASE": "0",
        "P_COST_EXP_RATE": "10",
        "P_SUCCESS_RATE": "100",
        "P_CREATEDATE": "2018-04-25 01:51:09",
        "P_UPDATEDATE": "2018-04-25 01:51:09"
    },
    {
        "P_MIX_INFO_ID": "23",
        "P_BASE_TYPE": "10",
        "P_TARGET_TYPE": "10",
        "P_TARGET_GROUP": "3",
        "P_TARGET_ID": "3",
        "P_EXP_TYPE": "71",
        "P_ADD_BASE": "3000",
        "P_ADD_LV_RATE": "0",
        "P_SAME_ELEMENT_RATE": "100",
        "P_COST_BASE": "0",
        "P_COST_EXP_RATE": "10",
        "P_SUCCESS_RATE": "100",
        "P_CREATEDATE": "2018-04-25 01:51:09",
        "P_UPDATEDATE": "2018-04-25 01:51:09"
    },
    {
        "P_MIX_INFO_ID": "24",
        "P_BASE_TYPE": "10",
        "P_TARGET_TYPE": "10",
        "P_TARGET_GROUP": "3",
        "P_TARGET_ID": "4",
        "P_EXP_TYPE": "71",
        "P_ADD_BASE": "3000",
        "P_ADD_LV_RATE": "0",
        "P_SAME_ELEMENT_RATE": "100",
        "P_COST_BASE": "0",
        "P_COST_EXP_RATE": "10",
        "P_SUCCESS_RATE": "100",
        "P_CREATEDATE": "2018-04-25 01:51:09",
        "P_UPDATEDATE": "2018-04-25 01:51:09"
    },
    {
        "P_MIX_INFO_ID": "25",
        "P_BASE_TYPE": "10",
        "P_TARGET_TYPE": "10",
        "P_TARGET_GROUP": "3",
        "P_TARGET_ID": "5",
        "P_EXP_TYPE": "71",
        "P_ADD_BASE": "3000",
        "P_ADD_LV_RATE": "0",
        "P_SAME_ELEMENT_RATE": "100",
        "P_COST_BASE": "0",
        "P_COST_EXP_RATE": "10",
        "P_SUCCESS_RATE": "100",
        "P_CREATEDATE": "2018-04-25 01:51:09",
        "P_UPDATEDATE": "2018-04-25 01:51:09"
    },
    {
        "P_MIX_INFO_ID": "26",
        "P_BASE_TYPE": "10",
        "P_TARGET_TYPE": "10",
        "P_TARGET_GROUP": "3",
        "P_TARGET_ID": "1",
        "P_EXP_TYPE": "72",
        "P_ADD_BASE": "10",
        "P_ADD_LV_RATE": "0",
        "P_SAME_ELEMENT_RATE": "100",
        "P_COST_BASE": "0",
        "P_COST_EXP_RATE": "0",
        "P_SUCCESS_RATE": "100",
        "P_CREATEDATE": "2018-04-25 01:51:09",
        "P_UPDATEDATE": "2018-04-25 01:51:09"
    },
    {
        "P_MIX_INFO_ID": "27",
        "P_BASE_TYPE": "10",
        "P_TARGET_TYPE": "10",
        "P_TARGET_GROUP": "3",
        "P_TARGET_ID": "2",
        "P_EXP_TYPE": "72",
        "P_ADD_BASE": "10",
        "P_ADD_LV_RATE": "0",
        "P_SAME_ELEMENT_RATE": "100",
        "P_COST_BASE": "0",
        "P_COST_EXP_RATE": "0",
        "P_SUCCESS_RATE": "100",
        "P_CREATEDATE": "2018-04-25 01:51:09",
        "P_UPDATEDATE": "2018-04-25 01:51:09"
    },
    {
        "P_MIX_INFO_ID": "28",
        "P_BASE_TYPE": "10",
        "P_TARGET_TYPE": "10",
        "P_TARGET_GROUP": "3",
        "P_TARGET_ID": "3",
        "P_EXP_TYPE": "72",
        "P_ADD_BASE": "10",
        "P_ADD_LV_RATE": "0",
        "P_SAME_ELEMENT_RATE": "100",
        "P_COST_BASE": "0",
        "P_COST_EXP_RATE": "0",
        "P_SUCCESS_RATE": "100",
        "P_CREATEDATE": "2018-04-25 01:51:09",
        "P_UPDATEDATE": "2018-04-25 01:51:09"
    },
    {
        "P_MIX_INFO_ID": "29",
        "P_BASE_TYPE": "10",
        "P_TARGET_TYPE": "10",
        "P_TARGET_GROUP": "3",
        "P_TARGET_ID": "4",
        "P_EXP_TYPE": "72",
        "P_ADD_BASE": "10",
        "P_ADD_LV_RATE": "0",
        "P_SAME_ELEMENT_RATE": "100",
        "P_COST_BASE": "0",
        "P_COST_EXP_RATE": "0",
        "P_SUCCESS_RATE": "100",
        "P_CREATEDATE": "2018-04-25 01:51:09",
        "P_UPDATEDATE": "2018-04-25 01:51:09"
    },
    {
        "P_MIX_INFO_ID": "30",
        "P_BASE_TYPE": "10",
        "P_TARGET_TYPE": "10",
        "P_TARGET_GROUP": "3",
        "P_TARGET_ID": "5",
        "P_EXP_TYPE": "72",
        "P_ADD_BASE": "10",
        "P_ADD_LV_RATE": "0",
        "P_SAME_ELEMENT_RATE": "100",
        "P_COST_BASE": "0",
        "P_COST_EXP_RATE": "0",
        "P_SUCCESS_RATE": "100",
        "P_CREATEDATE": "2018-04-25 01:51:09",
        "P_UPDATEDATE": "2018-04-25 01:51:09"
    },
    {
        "P_MIX_INFO_ID": "31",
        "P_BASE_TYPE": "10",
        "P_TARGET_TYPE": "10",
        "P_TARGET_GROUP": "5",
        "P_TARGET_ID": "1",
        "P_EXP_TYPE": "71",
        "P_ADD_BASE": "80000",
        "P_ADD_LV_RATE": "0",
        "P_SAME_ELEMENT_RATE": "100",
        "P_COST_BASE": "0",
        "P_COST_EXP_RATE": "10",
        "P_SUCCESS_RATE": "100",
        "P_CREATEDATE": "2018-04-25 01:51:09",
        "P_UPDATEDATE": "2018-04-25 01:51:09"
    },
    {
        "P_MIX_INFO_ID": "32",
        "P_BASE_TYPE": "10",
        "P_TARGET_TYPE": "10",
        "P_TARGET_GROUP": "5",
        "P_TARGET_ID": "2",
        "P_EXP_TYPE": "71",
        "P_ADD_BASE": "80000",
        "P_ADD_LV_RATE": "0",
        "P_SAME_ELEMENT_RATE": "100",
        "P_COST_BASE": "0",
        "P_COST_EXP_RATE": "10",
        "P_SUCCESS_RATE": "100",
        "P_CREATEDATE": "2018-04-25 01:51:09",
        "P_UPDATEDATE": "2018-04-25 01:51:09"
    },
    {
        "P_MIX_INFO_ID": "33",
        "P_BASE_TYPE": "10",
        "P_TARGET_TYPE": "10",
        "P_TARGET_GROUP": "5",
        "P_TARGET_ID": "3",
        "P_EXP_TYPE": "71",
        "P_ADD_BASE": "80000",
        "P_ADD_LV_RATE": "0",
        "P_SAME_ELEMENT_RATE": "100",
        "P_COST_BASE": "0",
        "P_COST_EXP_RATE": "10",
        "P_SUCCESS_RATE": "100",
        "P_CREATEDATE": "2018-04-25 01:51:09",
        "P_UPDATEDATE": "2018-04-25 01:51:09"
    },
    {
        "P_MIX_INFO_ID": "34",
        "P_BASE_TYPE": "10",
        "P_TARGET_TYPE": "10",
        "P_TARGET_GROUP": "5",
        "P_TARGET_ID": "4",
        "P_EXP_TYPE": "71",
        "P_ADD_BASE": "80000",
        "P_ADD_LV_RATE": "0",
        "P_SAME_ELEMENT_RATE": "100",
        "P_COST_BASE": "0",
        "P_COST_EXP_RATE": "10",
        "P_SUCCESS_RATE": "100",
        "P_CREATEDATE": "2018-04-25 01:51:09",
        "P_UPDATEDATE": "2018-04-25 01:51:09"
    },
    {
        "P_MIX_INFO_ID": "35",
        "P_BASE_TYPE": "10",
        "P_TARGET_TYPE": "10",
        "P_TARGET_GROUP": "5",
        "P_TARGET_ID": "5",
        "P_EXP_TYPE": "71",
        "P_ADD_BASE": "80000",
        "P_ADD_LV_RATE": "0",
        "P_SAME_ELEMENT_RATE": "100",
        "P_COST_BASE": "0",
        "P_COST_EXP_RATE": "10",
        "P_SUCCESS_RATE": "100",
        "P_CREATEDATE": "2018-04-25 01:51:09",
        "P_UPDATEDATE": "2018-04-25 01:51:09"
    },
    {
        "P_MIX_INFO_ID": "36",
        "P_BASE_TYPE": "10",
        "P_TARGET_TYPE": "10",
        "P_TARGET_GROUP": "5",
        "P_TARGET_ID": "1",
        "P_EXP_TYPE": "72",
        "P_ADD_BASE": "200",
        "P_ADD_LV_RATE": "0",
        "P_SAME_ELEMENT_RATE": "100",
        "P_COST_BASE": "0",
        "P_COST_EXP_RATE": "0",
        "P_SUCCESS_RATE": "100",
        "P_CREATEDATE": "2018-04-25 01:51:09",
        "P_UPDATEDATE": "2018-04-25 01:51:09"
    },
    {
        "P_MIX_INFO_ID": "37",
        "P_BASE_TYPE": "10",
        "P_TARGET_TYPE": "10",
        "P_TARGET_GROUP": "5",
        "P_TARGET_ID": "2",
        "P_EXP_TYPE": "72",
        "P_ADD_BASE": "200",
        "P_ADD_LV_RATE": "0",
        "P_SAME_ELEMENT_RATE": "100",
        "P_COST_BASE": "0",
        "P_COST_EXP_RATE": "0",
        "P_SUCCESS_RATE": "100",
        "P_CREATEDATE": "2018-04-25 01:51:09",
        "P_UPDATEDATE": "2018-04-25 01:51:09"
    },
    {
        "P_MIX_INFO_ID": "38",
        "P_BASE_TYPE": "10",
        "P_TARGET_TYPE": "10",
        "P_TARGET_GROUP": "5",
        "P_TARGET_ID": "3",
        "P_EXP_TYPE": "72",
        "P_ADD_BASE": "200",
        "P_ADD_LV_RATE": "0",
        "P_SAME_ELEMENT_RATE": "100",
        "P_COST_BASE": "0",
        "P_COST_EXP_RATE": "0",
        "P_SUCCESS_RATE": "100",
        "P_CREATEDATE": "2018-04-25 01:51:09",
        "P_UPDATEDATE": "2018-04-25 01:51:09"
    },
    {
        "P_MIX_INFO_ID": "39",
        "P_BASE_TYPE": "10",
        "P_TARGET_TYPE": "10",
        "P_TARGET_GROUP": "5",
        "P_TARGET_ID": "4",
        "P_EXP_TYPE": "72",
        "P_ADD_BASE": "200",
        "P_ADD_LV_RATE": "0",
        "P_SAME_ELEMENT_RATE": "100",
        "P_COST_BASE": "0",
        "P_COST_EXP_RATE": "0",
        "P_SUCCESS_RATE": "100",
        "P_CREATEDATE": "2018-04-25 01:51:09",
        "P_UPDATEDATE": "2018-04-25 01:51:09"
    },
    {
        "P_MIX_INFO_ID": "40",
        "P_BASE_TYPE": "10",
        "P_TARGET_TYPE": "10",
        "P_TARGET_GROUP": "5",
        "P_TARGET_ID": "5",
        "P_EXP_TYPE": "72",
        "P_ADD_BASE": "200",
        "P_ADD_LV_RATE": "0",
        "P_SAME_ELEMENT_RATE": "100",
        "P_COST_BASE": "0",
        "P_COST_EXP_RATE": "0",
        "P_SUCCESS_RATE": "100",
        "P_CREATEDATE": "2018-04-25 01:51:09",
        "P_UPDATEDATE": "2018-04-25 01:51:09"
    },
    {
        "P_MIX_INFO_ID": "41",
        "P_BASE_TYPE": "10",
        "P_TARGET_TYPE": "10",
        "P_TARGET_GROUP": "2",
        "P_TARGET_ID": "7000111",
        "P_EXP_TYPE": "71",
        "P_ADD_BASE": "1000",
        "P_ADD_LV_RATE": "0",
        "P_SAME_ELEMENT_RATE": "100",
        "P_COST_BASE": "100",
        "P_COST_EXP_RATE": "25",
        "P_SUCCESS_RATE": "100",
        "P_CREATEDATE": "2018-04-25 01:51:09",
        "P_UPDATEDATE": "2018-04-25 01:51:09"
    },
    {
        "P_MIX_INFO_ID": "42",
        "P_BASE_TYPE": "10",
        "P_TARGET_TYPE": "10",
        "P_TARGET_GROUP": "2",
        "P_TARGET_ID": "7000112",
        "P_EXP_TYPE": "71",
        "P_ADD_BASE": "5000",
        "P_ADD_LV_RATE": "0",
        "P_SAME_ELEMENT_RATE": "100",
        "P_COST_BASE": "100",
        "P_COST_EXP_RATE": "25",
        "P_SUCCESS_RATE": "100",
        "P_CREATEDATE": "2018-04-25 01:51:09",
        "P_UPDATEDATE": "2018-04-25 01:51:09"
    },
    {
        "P_MIX_INFO_ID": "43",
        "P_BASE_TYPE": "10",
        "P_TARGET_TYPE": "10",
        "P_TARGET_GROUP": "2",
        "P_TARGET_ID": "7000113",
        "P_EXP_TYPE": "71",
        "P_ADD_BASE": "20000",
        "P_ADD_LV_RATE": "0",
        "P_SAME_ELEMENT_RATE": "100",
        "P_COST_BASE": "100",
        "P_COST_EXP_RATE": "25",
        "P_SUCCESS_RATE": "100",
        "P_CREATEDATE": "2018-04-25 01:51:09",
        "P_UPDATEDATE": "2018-04-25 01:51:09"
    },
    {
        "P_MIX_INFO_ID": "44",
        "P_BASE_TYPE": "10",
        "P_TARGET_TYPE": "10",
        "P_TARGET_GROUP": "2",
        "P_TARGET_ID": "7000111",
        "P_EXP_TYPE": "72",
        "P_ADD_BASE": "0",
        "P_ADD_LV_RATE": "0",
        "P_SAME_ELEMENT_RATE": "100",
        "P_COST_BASE": "0",
        "P_COST_EXP_RATE": "0",
        "P_SUCCESS_RATE": "100",
        "P_CREATEDATE": "2018-04-25 01:51:09",
        "P_UPDATEDATE": "2018-04-25 01:51:09"
    },
    {
        "P_MIX_INFO_ID": "45",
        "P_BASE_TYPE": "10",
        "P_TARGET_TYPE": "10",
        "P_TARGET_GROUP": "2",
        "P_TARGET_ID": "7000112",
        "P_EXP_TYPE": "72",
        "P_ADD_BASE": "0",
        "P_ADD_LV_RATE": "0",
        "P_SAME_ELEMENT_RATE": "100",
        "P_COST_BASE": "0",
        "P_COST_EXP_RATE": "0",
        "P_SUCCESS_RATE": "100",
        "P_CREATEDATE": "2018-04-25 01:51:09",
        "P_UPDATEDATE": "2018-04-25 01:51:09"
    },
    {
        "P_MIX_INFO_ID": "46",
        "P_BASE_TYPE": "10",
        "P_TARGET_TYPE": "10",
        "P_TARGET_GROUP": "2",
        "P_TARGET_ID": "7000113",
        "P_EXP_TYPE": "72",
        "P_ADD_BASE": "0",
        "P_ADD_LV_RATE": "0",
        "P_SAME_ELEMENT_RATE": "100",
        "P_COST_BASE": "0",
        "P_COST_EXP_RATE": "0",
        "P_SUCCESS_RATE": "100",
        "P_CREATEDATE": "2018-04-25 01:51:09",
        "P_UPDATEDATE": "2018-04-25 01:51:09"
    },
    {
        "P_MIX_INFO_ID": "47",
        "P_BASE_TYPE": "10",
        "P_TARGET_TYPE": "10",
        "P_TARGET_GROUP": "2",
        "P_TARGET_ID": "6003011",
        "P_EXP_TYPE": "72",
        "P_ADD_BASE": "3",
        "P_ADD_LV_RATE": "0",
        "P_SAME_ELEMENT_RATE": "100",
        "P_COST_BASE": "100",
        "P_COST_EXP_RATE": "100",
        "P_SUCCESS_RATE": "100",
        "P_CREATEDATE": "2018-04-25 01:51:09",
        "P_UPDATEDATE": "2018-04-25 01:51:09"
    },
    {
        "P_MIX_INFO_ID": "48",
        "P_BASE_TYPE": "10",
        "P_TARGET_TYPE": "10",
        "P_TARGET_GROUP": "2",
        "P_TARGET_ID": "6003012",
        "P_EXP_TYPE": "72",
        "P_ADD_BASE": "6",
        "P_ADD_LV_RATE": "0",
        "P_SAME_ELEMENT_RATE": "100",
        "P_COST_BASE": "100",
        "P_COST_EXP_RATE": "100",
        "P_SUCCESS_RATE": "100",
        "P_CREATEDATE": "2018-04-25 01:51:09",
        "P_UPDATEDATE": "2018-04-25 01:51:09"
    },
    {
        "P_MIX_INFO_ID": "49",
        "P_BASE_TYPE": "10",
        "P_TARGET_TYPE": "10",
        "P_TARGET_GROUP": "2",
        "P_TARGET_ID": "6003013",
        "P_EXP_TYPE": "72",
        "P_ADD_BASE": "10",
        "P_ADD_LV_RATE": "0",
        "P_SAME_ELEMENT_RATE": "100",
        "P_COST_BASE": "100",
        "P_COST_EXP_RATE": "100",
        "P_SUCCESS_RATE": "100",
        "P_CREATEDATE": "2018-04-25 01:51:09",
        "P_UPDATEDATE": "2018-04-25 01:51:09"
    },
    {
        "P_MIX_INFO_ID": "50",
        "P_BASE_TYPE": "10",
        "P_TARGET_TYPE": "22",
        "P_TARGET_GROUP": "2",
        "P_TARGET_ID": "30011",
        "P_EXP_TYPE": "72",
        "P_ADD_BASE": "100",
        "P_ADD_LV_RATE": "0",
        "P_SAME_ELEMENT_RATE": "100",
        "P_COST_BASE": "100",
        "P_COST_EXP_RATE": "0",
        "P_SUCCESS_RATE": "100",
        "P_CREATEDATE": "2018-04-25 01:51:09",
        "P_UPDATEDATE": "2018-04-25 01:51:09"
    },
    {
        "P_MIX_INFO_ID": "51",
        "P_BASE_TYPE": "11",
        "P_TARGET_TYPE": "10",
        "P_TARGET_GROUP": "1",
        "P_TARGET_ID": "1",
        "P_EXP_TYPE": "71",
        "P_ADD_BASE": "50",
        "P_ADD_LV_RATE": "25",
        "P_SAME_ELEMENT_RATE": "150",
        "P_COST_BASE": "100",
        "P_COST_EXP_RATE": "100",
        "P_SUCCESS_RATE": "100",
        "P_CREATEDATE": "2018-04-25 01:51:09",
        "P_UPDATEDATE": "2018-04-25 01:51:09"
    },
    {
        "P_MIX_INFO_ID": "52",
        "P_BASE_TYPE": "11",
        "P_TARGET_TYPE": "10",
        "P_TARGET_GROUP": "1",
        "P_TARGET_ID": "2",
        "P_EXP_TYPE": "71",
        "P_ADD_BASE": "100",
        "P_ADD_LV_RATE": "25",
        "P_SAME_ELEMENT_RATE": "150",
        "P_COST_BASE": "100",
        "P_COST_EXP_RATE": "100",
        "P_SUCCESS_RATE": "100",
        "P_CREATEDATE": "2018-04-25 01:51:09",
        "P_UPDATEDATE": "2018-04-25 01:51:09"
    },
    {
        "P_MIX_INFO_ID": "53",
        "P_BASE_TYPE": "11",
        "P_TARGET_TYPE": "10",
        "P_TARGET_GROUP": "1",
        "P_TARGET_ID": "3",
        "P_EXP_TYPE": "71",
        "P_ADD_BASE": "200",
        "P_ADD_LV_RATE": "25",
        "P_SAME_ELEMENT_RATE": "150",
        "P_COST_BASE": "100",
        "P_COST_EXP_RATE": "100",
        "P_SUCCESS_RATE": "100",
        "P_CREATEDATE": "2018-04-25 01:51:09",
        "P_UPDATEDATE": "2018-04-25 01:51:09"
    },
    {
        "P_MIX_INFO_ID": "54",
        "P_BASE_TYPE": "11",
        "P_TARGET_TYPE": "10",
        "P_TARGET_GROUP": "1",
        "P_TARGET_ID": "4",
        "P_EXP_TYPE": "71",
        "P_ADD_BASE": "500",
        "P_ADD_LV_RATE": "25",
        "P_SAME_ELEMENT_RATE": "150",
        "P_COST_BASE": "100",
        "P_COST_EXP_RATE": "100",
        "P_SUCCESS_RATE": "100",
        "P_CREATEDATE": "2018-04-25 01:51:09",
        "P_UPDATEDATE": "2018-04-25 01:51:09"
    },
    {
        "P_MIX_INFO_ID": "55",
        "P_BASE_TYPE": "11",
        "P_TARGET_TYPE": "10",
        "P_TARGET_GROUP": "1",
        "P_TARGET_ID": "5",
        "P_EXP_TYPE": "71",
        "P_ADD_BASE": "1000",
        "P_ADD_LV_RATE": "25",
        "P_SAME_ELEMENT_RATE": "150",
        "P_COST_BASE": "100",
        "P_COST_EXP_RATE": "100",
        "P_SUCCESS_RATE": "100",
        "P_CREATEDATE": "2018-04-25 01:51:09",
        "P_UPDATEDATE": "2018-04-25 01:51:09"
    },
    {
        "P_MIX_INFO_ID": "56",
        "P_BASE_TYPE": "11",
        "P_TARGET_TYPE": "10",
        "P_TARGET_GROUP": "1",
        "P_TARGET_ID": "1",
        "P_EXP_TYPE": "72",
        "P_ADD_BASE": "1",
        "P_ADD_LV_RATE": "25",
        "P_SAME_ELEMENT_RATE": "100",
        "P_COST_BASE": "100",
        "P_COST_EXP_RATE": "100",
        "P_SUCCESS_RATE": "50",
        "P_CREATEDATE": "2018-04-25 01:51:09",
        "P_UPDATEDATE": "2018-04-25 01:51:09"
    },
    {
        "P_MIX_INFO_ID": "57",
        "P_BASE_TYPE": "11",
        "P_TARGET_TYPE": "10",
        "P_TARGET_GROUP": "1",
        "P_TARGET_ID": "2",
        "P_EXP_TYPE": "72",
        "P_ADD_BASE": "2",
        "P_ADD_LV_RATE": "25",
        "P_SAME_ELEMENT_RATE": "100",
        "P_COST_BASE": "100",
        "P_COST_EXP_RATE": "100",
        "P_SUCCESS_RATE": "50",
        "P_CREATEDATE": "2018-04-25 01:51:09",
        "P_UPDATEDATE": "2018-04-25 01:51:09"
    },
    {
        "P_MIX_INFO_ID": "58",
        "P_BASE_TYPE": "11",
        "P_TARGET_TYPE": "10",
        "P_TARGET_GROUP": "1",
        "P_TARGET_ID": "3",
        "P_EXP_TYPE": "72",
        "P_ADD_BASE": "3",
        "P_ADD_LV_RATE": "25",
        "P_SAME_ELEMENT_RATE": "100",
        "P_COST_BASE": "100",
        "P_COST_EXP_RATE": "100",
        "P_SUCCESS_RATE": "50",
        "P_CREATEDATE": "2018-04-25 01:51:09",
        "P_UPDATEDATE": "2018-04-25 01:51:09"
    },
    {
        "P_MIX_INFO_ID": "59",
        "P_BASE_TYPE": "11",
        "P_TARGET_TYPE": "10",
        "P_TARGET_GROUP": "1",
        "P_TARGET_ID": "4",
        "P_EXP_TYPE": "72",
        "P_ADD_BASE": "4",
        "P_ADD_LV_RATE": "25",
        "P_SAME_ELEMENT_RATE": "100",
        "P_COST_BASE": "100",
        "P_COST_EXP_RATE": "100",
        "P_SUCCESS_RATE": "50",
        "P_CREATEDATE": "2018-04-25 01:51:09",
        "P_UPDATEDATE": "2018-04-25 01:51:09"
    },
    {
        "P_MIX_INFO_ID": "60",
        "P_BASE_TYPE": "11",
        "P_TARGET_TYPE": "10",
        "P_TARGET_GROUP": "1",
        "P_TARGET_ID": "5",
        "P_EXP_TYPE": "72",
        "P_ADD_BASE": "5",
        "P_ADD_LV_RATE": "25",
        "P_SAME_ELEMENT_RATE": "100",
        "P_COST_BASE": "100",
        "P_COST_EXP_RATE": "100",
        "P_SUCCESS_RATE": "50",
        "P_CREATEDATE": "2018-04-25 01:51:09",
        "P_UPDATEDATE": "2018-04-25 01:51:09"
    },
    {
        "P_MIX_INFO_ID": "61",
        "P_BASE_TYPE": "11",
        "P_TARGET_TYPE": "10",
        "P_TARGET_GROUP": "4",
        "P_TARGET_ID": "1",
        "P_EXP_TYPE": "71",
        "P_ADD_BASE": "200",
        "P_ADD_LV_RATE": "25",
        "P_SAME_ELEMENT_RATE": "150",
        "P_COST_BASE": "100",
        "P_COST_EXP_RATE": "100",
        "P_SUCCESS_RATE": "100",
        "P_CREATEDATE": "2018-04-25 01:51:09",
        "P_UPDATEDATE": "2018-04-25 01:51:09"
    },
    {
        "P_MIX_INFO_ID": "62",
        "P_BASE_TYPE": "11",
        "P_TARGET_TYPE": "10",
        "P_TARGET_GROUP": "4",
        "P_TARGET_ID": "2",
        "P_EXP_TYPE": "71",
        "P_ADD_BASE": "500",
        "P_ADD_LV_RATE": "25",
        "P_SAME_ELEMENT_RATE": "150",
        "P_COST_BASE": "100",
        "P_COST_EXP_RATE": "100",
        "P_SUCCESS_RATE": "100",
        "P_CREATEDATE": "2018-04-25 01:51:10",
        "P_UPDATEDATE": "2018-04-25 01:51:10"
    },
    {
        "P_MIX_INFO_ID": "63",
        "P_BASE_TYPE": "11",
        "P_TARGET_TYPE": "10",
        "P_TARGET_GROUP": "4",
        "P_TARGET_ID": "3",
        "P_EXP_TYPE": "71",
        "P_ADD_BASE": "1000",
        "P_ADD_LV_RATE": "25",
        "P_SAME_ELEMENT_RATE": "150",
        "P_COST_BASE": "100",
        "P_COST_EXP_RATE": "100",
        "P_SUCCESS_RATE": "100",
        "P_CREATEDATE": "2018-04-25 01:51:10",
        "P_UPDATEDATE": "2018-04-25 01:51:10"
    },
    {
        "P_MIX_INFO_ID": "64",
        "P_BASE_TYPE": "11",
        "P_TARGET_TYPE": "10",
        "P_TARGET_GROUP": "4",
        "P_TARGET_ID": "4",
        "P_EXP_TYPE": "71",
        "P_ADD_BASE": "2000",
        "P_ADD_LV_RATE": "25",
        "P_SAME_ELEMENT_RATE": "150",
        "P_COST_BASE": "100",
        "P_COST_EXP_RATE": "100",
        "P_SUCCESS_RATE": "100",
        "P_CREATEDATE": "2018-04-25 01:51:10",
        "P_UPDATEDATE": "2018-04-25 01:51:10"
    },
    {
        "P_MIX_INFO_ID": "65",
        "P_BASE_TYPE": "11",
        "P_TARGET_TYPE": "10",
        "P_TARGET_GROUP": "4",
        "P_TARGET_ID": "5",
        "P_EXP_TYPE": "71",
        "P_ADD_BASE": "3000",
        "P_ADD_LV_RATE": "25",
        "P_SAME_ELEMENT_RATE": "150",
        "P_COST_BASE": "100",
        "P_COST_EXP_RATE": "100",
        "P_SUCCESS_RATE": "100",
        "P_CREATEDATE": "2018-04-25 01:51:10",
        "P_UPDATEDATE": "2018-04-25 01:51:10"
    },
    {
        "P_MIX_INFO_ID": "66",
        "P_BASE_TYPE": "11",
        "P_TARGET_TYPE": "10",
        "P_TARGET_GROUP": "4",
        "P_TARGET_ID": "1",
        "P_EXP_TYPE": "72",
        "P_ADD_BASE": "5",
        "P_ADD_LV_RATE": "25",
        "P_SAME_ELEMENT_RATE": "100",
        "P_COST_BASE": "100",
        "P_COST_EXP_RATE": "100",
        "P_SUCCESS_RATE": "50",
        "P_CREATEDATE": "2018-04-25 01:51:10",
        "P_UPDATEDATE": "2018-04-25 01:51:10"
    },
    {
        "P_MIX_INFO_ID": "67",
        "P_BASE_TYPE": "11",
        "P_TARGET_TYPE": "10",
        "P_TARGET_GROUP": "4",
        "P_TARGET_ID": "2",
        "P_EXP_TYPE": "72",
        "P_ADD_BASE": "10",
        "P_ADD_LV_RATE": "25",
        "P_SAME_ELEMENT_RATE": "100",
        "P_COST_BASE": "100",
        "P_COST_EXP_RATE": "100",
        "P_SUCCESS_RATE": "50",
        "P_CREATEDATE": "2018-04-25 01:51:10",
        "P_UPDATEDATE": "2018-04-25 01:51:10"
    },
    {
        "P_MIX_INFO_ID": "68",
        "P_BASE_TYPE": "11",
        "P_TARGET_TYPE": "10",
        "P_TARGET_GROUP": "4",
        "P_TARGET_ID": "3",
        "P_EXP_TYPE": "72",
        "P_ADD_BASE": "20",
        "P_ADD_LV_RATE": "25",
        "P_SAME_ELEMENT_RATE": "100",
        "P_COST_BASE": "100",
        "P_COST_EXP_RATE": "100",
        "P_SUCCESS_RATE": "50",
        "P_CREATEDATE": "2018-04-25 01:51:10",
        "P_UPDATEDATE": "2018-04-25 01:51:10"
    },
    {
        "P_MIX_INFO_ID": "69",
        "P_BASE_TYPE": "11",
        "P_TARGET_TYPE": "10",
        "P_TARGET_GROUP": "4",
        "P_TARGET_ID": "4",
        "P_EXP_TYPE": "72",
        "P_ADD_BASE": "50",
        "P_ADD_LV_RATE": "25",
        "P_SAME_ELEMENT_RATE": "100",
        "P_COST_BASE": "100",
        "P_COST_EXP_RATE": "100",
        "P_SUCCESS_RATE": "50",
        "P_CREATEDATE": "2018-04-25 01:51:10",
        "P_UPDATEDATE": "2018-04-25 01:51:10"
    },
    {
        "P_MIX_INFO_ID": "70",
        "P_BASE_TYPE": "11",
        "P_TARGET_TYPE": "10",
        "P_TARGET_GROUP": "4",
        "P_TARGET_ID": "5",
        "P_EXP_TYPE": "72",
        "P_ADD_BASE": "100",
        "P_ADD_LV_RATE": "25",
        "P_SAME_ELEMENT_RATE": "100",
        "P_COST_BASE": "100",
        "P_COST_EXP_RATE": "100",
        "P_SUCCESS_RATE": "50",
        "P_CREATEDATE": "2018-04-25 01:51:10",
        "P_UPDATEDATE": "2018-04-25 01:51:10"
    },
    {
        "P_MIX_INFO_ID": "71",
        "P_BASE_TYPE": "11",
        "P_TARGET_TYPE": "10",
        "P_TARGET_GROUP": "2",
        "P_TARGET_ID": "7000111",
        "P_EXP_TYPE": "71",
        "P_ADD_BASE": "1000",
        "P_ADD_LV_RATE": "0",
        "P_SAME_ELEMENT_RATE": "100",
        "P_COST_BASE": "100",
        "P_COST_EXP_RATE": "25",
        "P_SUCCESS_RATE": "100",
        "P_CREATEDATE": "2018-04-25 01:51:10",
        "P_UPDATEDATE": "2018-04-25 01:51:10"
    },
    {
        "P_MIX_INFO_ID": "72",
        "P_BASE_TYPE": "11",
        "P_TARGET_TYPE": "10",
        "P_TARGET_GROUP": "2",
        "P_TARGET_ID": "7000112",
        "P_EXP_TYPE": "71",
        "P_ADD_BASE": "5000",
        "P_ADD_LV_RATE": "0",
        "P_SAME_ELEMENT_RATE": "100",
        "P_COST_BASE": "100",
        "P_COST_EXP_RATE": "25",
        "P_SUCCESS_RATE": "100",
        "P_CREATEDATE": "2018-04-25 01:51:10",
        "P_UPDATEDATE": "2018-04-25 01:51:10"
    },
    {
        "P_MIX_INFO_ID": "73",
        "P_BASE_TYPE": "11",
        "P_TARGET_TYPE": "10",
        "P_TARGET_GROUP": "2",
        "P_TARGET_ID": "7000113",
        "P_EXP_TYPE": "71",
        "P_ADD_BASE": "20000",
        "P_ADD_LV_RATE": "0",
        "P_SAME_ELEMENT_RATE": "100",
        "P_COST_BASE": "100",
        "P_COST_EXP_RATE": "25",
        "P_SUCCESS_RATE": "100",
        "P_CREATEDATE": "2018-04-25 01:51:10",
        "P_UPDATEDATE": "2018-04-25 01:51:10"
    },
    {
        "P_MIX_INFO_ID": "74",
        "P_BASE_TYPE": "11",
        "P_TARGET_TYPE": "10",
        "P_TARGET_GROUP": "2",
        "P_TARGET_ID": "7000111",
        "P_EXP_TYPE": "72",
        "P_ADD_BASE": "0",
        "P_ADD_LV_RATE": "0",
        "P_SAME_ELEMENT_RATE": "100",
        "P_COST_BASE": "0",
        "P_COST_EXP_RATE": "0",
        "P_SUCCESS_RATE": "100",
        "P_CREATEDATE": "2018-04-25 01:51:10",
        "P_UPDATEDATE": "2018-04-25 01:51:10"
    },
    {
        "P_MIX_INFO_ID": "75",
        "P_BASE_TYPE": "11",
        "P_TARGET_TYPE": "10",
        "P_TARGET_GROUP": "2",
        "P_TARGET_ID": "7000112",
        "P_EXP_TYPE": "72",
        "P_ADD_BASE": "0",
        "P_ADD_LV_RATE": "0",
        "P_SAME_ELEMENT_RATE": "100",
        "P_COST_BASE": "0",
        "P_COST_EXP_RATE": "0",
        "P_SUCCESS_RATE": "100",
        "P_CREATEDATE": "2018-04-25 01:51:10",
        "P_UPDATEDATE": "2018-04-25 01:51:10"
    },
    {
        "P_MIX_INFO_ID": "76",
        "P_BASE_TYPE": "11",
        "P_TARGET_TYPE": "10",
        "P_TARGET_GROUP": "2",
        "P_TARGET_ID": "7000113",
        "P_EXP_TYPE": "72",
        "P_ADD_BASE": "0",
        "P_ADD_LV_RATE": "0",
        "P_SAME_ELEMENT_RATE": "100",
        "P_COST_BASE": "0",
        "P_COST_EXP_RATE": "0",
        "P_SUCCESS_RATE": "100",
        "P_CREATEDATE": "2018-04-25 01:51:10",
        "P_UPDATEDATE": "2018-04-25 01:51:10"
    },
    {
        "P_MIX_INFO_ID": "77",
        "P_BASE_TYPE": "11",
        "P_TARGET_TYPE": "10",
        "P_TARGET_GROUP": "2",
        "P_TARGET_ID": "6003011",
        "P_EXP_TYPE": "72",
        "P_ADD_BASE": "3",
        "P_ADD_LV_RATE": "0",
        "P_SAME_ELEMENT_RATE": "100",
        "P_COST_BASE": "100",
        "P_COST_EXP_RATE": "100",
        "P_SUCCESS_RATE": "100",
        "P_CREATEDATE": "2018-04-25 01:51:10",
        "P_UPDATEDATE": "2018-04-25 01:51:10"
    },
    {
        "P_MIX_INFO_ID": "78",
        "P_BASE_TYPE": "11",
        "P_TARGET_TYPE": "10",
        "P_TARGET_GROUP": "2",
        "P_TARGET_ID": "6003012",
        "P_EXP_TYPE": "72",
        "P_ADD_BASE": "6",
        "P_ADD_LV_RATE": "0",
        "P_SAME_ELEMENT_RATE": "100",
        "P_COST_BASE": "100",
        "P_COST_EXP_RATE": "100",
        "P_SUCCESS_RATE": "100",
        "P_CREATEDATE": "2018-04-25 01:51:10",
        "P_UPDATEDATE": "2018-04-25 01:51:10"
    },
    {
        "P_MIX_INFO_ID": "79",
        "P_BASE_TYPE": "11",
        "P_TARGET_TYPE": "10",
        "P_TARGET_GROUP": "2",
        "P_TARGET_ID": "6003013",
        "P_EXP_TYPE": "72",
        "P_ADD_BASE": "10",
        "P_ADD_LV_RATE": "0",
        "P_SAME_ELEMENT_RATE": "100",
        "P_COST_BASE": "100",
        "P_COST_EXP_RATE": "100",
        "P_SUCCESS_RATE": "100",
        "P_CREATEDATE": "2018-04-25 01:51:10",
        "P_UPDATEDATE": "2018-04-25 01:51:10"
    },
    {
        "P_MIX_INFO_ID": "80",
        "P_BASE_TYPE": "11",
        "P_TARGET_TYPE": "22",
        "P_TARGET_GROUP": "2",
        "P_TARGET_ID": "30011",
        "P_EXP_TYPE": "72",
        "P_ADD_BASE": "100",
        "P_ADD_LV_RATE": "0",
        "P_SAME_ELEMENT_RATE": "100",
        "P_COST_BASE": "100",
        "P_COST_EXP_RATE": "0",
        "P_SUCCESS_RATE": "100",
        "P_CREATEDATE": "2018-04-25 01:51:10",
        "P_UPDATEDATE": "2018-04-25 01:51:10"
    }
]