[
    {
        "oL71Fz3a": "100",
        "GSDk1Jh6": "1",
        "P_NAME": "\u516c\u5f0f\u30b5\u30a4\u30c8",
        "X3zk7AuE": "1",
        "P_DISPORDER": "1",
        "1gDkL6XR": "banner_official.png",
        "jsRoN50z": "https://www.bravefrontier.jp/bf1/4gpsg9aj/indexbf.html",
        "t5R47iwj": "",
        "X4mIT5Lc": "2",
        "Z65mIxvJ": "0",
        "nEj78MRq": "0",
        "P_SCHEDULE_ID": "0",
        "P_CREATEDATE": "2018-02-05 16:15:54",
        "P_UPDATEDATE": "2018-02-05 16:15:54"
    },
    {
        "oL71Fz3a": "200",
        "GSDk1Jh6": "1",
        "P_NAME": "\u30a8\u30a4\u30ea\u30e0\u30a2\u30ab\u30a6\u30f3\u30c8",
        "X3zk7AuE": "1",
        "P_DISPORDER": "2",
        "1gDkL6XR": "banner_alimaccount.png",
        "jsRoN50z": "https://account.a-lim.co.jp/signin",
        "t5R47iwj": "",
        "X4mIT5Lc": "2",
        "Z65mIxvJ": "0",
        "nEj78MRq": "0",
        "P_SCHEDULE_ID": "0",
        "P_CREATEDATE": "2018-02-05 16:15:54",
        "P_UPDATEDATE": "2018-02-05 16:15:54"
    },
    {
        "oL71Fz3a": "300",
        "GSDk1Jh6": "1",
        "P_NAME": "\u30a8\u30a4\u30ea\u30e0\u30a2\u30ab\u30a6\u30f3\u30c8\u9023\u643a",
        "X3zk7AuE": "1",
        "P_DISPORDER": "3",
        "1gDkL6XR": "banner_alimaccount_item.png",
        "jsRoN50z": "https://v1.game.bravefrontier2.jp/statics/alimaccount",
        "t5R47iwj": "Platform,friendID,mail,pass,identityID",
        "X4mIT5Lc": "1",
        "Z65mIxvJ": "0",
        "nEj78MRq": "0",
        "P_SCHEDULE_ID": "0",
        "P_CREATEDATE": "2018-02-05 16:15:54",
        "P_UPDATEDATE": "2018-02-05 16:15:54"
    },
    {
        "oL71Fz3a": "400",
        "GSDk1Jh6": "1",
        "P_NAME": "\u30d7\u30ec\u30bc\u30f3\u30c8\u5fdc\u52df\u30c6\u30b9\u30c8",
        "X3zk7AuE": "1",
        "P_DISPORDER": "4",
        "1gDkL6XR": "banner_official.png",
        "jsRoN50z": "http://debug.dev.brave.a-lim.jp/bf2_encode.php",
        "t5R47iwj": "friendID",
        "X4mIT5Lc": "2",
        "Z65mIxvJ": "0",
        "nEj78MRq": "1",
        "P_SCHEDULE_ID": "0",
        "P_CREATEDATE": "2018-02-05 16:15:54",
        "P_UPDATEDATE": "2018-02-05 16:15:54"
    }
]