[
    {
        "oL71Fz3a": "100",
        "GSDk1Jh6": "1",
        "P_NAME": "\u516c\u5f0f\u30b5\u30a4\u30c8_iOS",
        "X3zk7AuE": "1",
        "P_DISPORDER": "1",
        "1gDkL6XR": "banner_official.png",
        "jsRoN50z": "https://www.bravefrontier.jp/bf2/",
        "t5R47iwj": "",
        "X4mIT5Lc": "2",
        "Z65mIxvJ": "0",
        "nEj78MRq": "0",
        "P_SCHEDULE_ID": "0",
        "P_CREATEDATE": "2018-05-11 16:39:18",
        "P_UPDATEDATE": "2018-05-11 16:39:18"
    },
    {
        "oL71Fz3a": "101",
        "GSDk1Jh6": "1",
        "P_NAME": "\u516c\u5f0f\u30b5\u30a4\u30c8_Android",
        "X3zk7AuE": "2",
        "P_DISPORDER": "1",
        "1gDkL6XR": "banner_official.png",
        "jsRoN50z": "https://www.bravefrontier.jp/bf2/",
        "t5R47iwj": "",
        "X4mIT5Lc": "2",
        "Z65mIxvJ": "0",
        "nEj78MRq": "0",
        "P_SCHEDULE_ID": "0",
        "P_CREATEDATE": "2018-05-11 16:39:18",
        "P_UPDATEDATE": "2018-05-11 16:39:18"
    },
    {
        "oL71Fz3a": "200",
        "GSDk1Jh6": "1",
        "P_NAME": "\u30a8\u30a4\u30ea\u30e0\u30a2\u30ab\u30a6\u30f3\u30c8_iOS",
        "X3zk7AuE": "1",
        "P_DISPORDER": "2",
        "1gDkL6XR": "banner_alimaccount.png",
        "jsRoN50z": "https://account.a-lim.co.jp/signin",
        "t5R47iwj": "",
        "X4mIT5Lc": "2",
        "Z65mIxvJ": "0",
        "nEj78MRq": "0",
        "P_SCHEDULE_ID": "0",
        "P_CREATEDATE": "2018-05-11 16:39:18",
        "P_UPDATEDATE": "2018-05-11 16:39:18"
    },
    {
        "oL71Fz3a": "201",
        "GSDk1Jh6": "1",
        "P_NAME": "\u30a8\u30a4\u30ea\u30e0\u30a2\u30ab\u30a6\u30f3\u30c8_Android",
        "X3zk7AuE": "2",
        "P_DISPORDER": "2",
        "1gDkL6XR": "banner_alimaccount.png",
        "jsRoN50z": "https://account.a-lim.co.jp/signin",
        "t5R47iwj": "",
        "X4mIT5Lc": "2",
        "Z65mIxvJ": "0",
        "nEj78MRq": "0",
        "P_SCHEDULE_ID": "0",
        "P_CREATEDATE": "2018-05-11 16:39:18",
        "P_UPDATEDATE": "2018-05-11 16:39:18"
    },
    {
        "oL71Fz3a": "300",
        "GSDk1Jh6": "1",
        "P_NAME": "\u30a8\u30a4\u30ea\u30e0\u30a2\u30ab\u30a6\u30f3\u30c8\u9023\u643a",
        "X3zk7AuE": "1",
        "P_DISPORDER": "3",
        "1gDkL6XR": "banner_alimaccount_item.png",
        "jsRoN50z": "https://v1.game.bravefrontier2.jp/statics/alimaccount",
        "t5R47iwj": "Platform,friendID,mail,pass,identityID",
        "X4mIT5Lc": "1",
        "Z65mIxvJ": "0",
        "nEj78MRq": "1",
        "P_SCHEDULE_ID": "0",
        "P_CREATEDATE": "2018-05-11 16:39:18",
        "P_UPDATEDATE": "2018-05-11 16:39:18"
    },
    {
        "oL71Fz3a": "301",
        "GSDk1Jh6": "1",
        "P_NAME": "\u30a8\u30a4\u30ea\u30e0\u30a2\u30ab\u30a6\u30f3\u30c8\u9023\u643a",
        "X3zk7AuE": "2",
        "P_DISPORDER": "3",
        "1gDkL6XR": "banner_alimaccount_item.png",
        "jsRoN50z": "https://v1.game.bravefrontier2.jp/statics/alimaccount",
        "t5R47iwj": "Platform,friendID,mail,pass,identityID",
        "X4mIT5Lc": "1",
        "Z65mIxvJ": "0",
        "nEj78MRq": "1",
        "P_SCHEDULE_ID": "0",
        "P_CREATEDATE": "2018-05-11 16:39:18",
        "P_UPDATEDATE": "2018-05-11 16:39:18"
    },
    {
        "oL71Fz3a": "400",
        "GSDk1Jh6": "1",
        "P_NAME": "UUUM\u30d7\u30ec\u30bc\u30f3\u30c8\u4f01\u753b_iOS",
        "X3zk7AuE": "1",
        "P_DISPORDER": "4",
        "1gDkL6XR": "banner_uuum_614-114.png",
        "jsRoN50z": "https://campaign.bravefrontier2.jp/youtuber/entry",
        "t5R47iwj": "friendID",
        "X4mIT5Lc": "2",
        "Z65mIxvJ": "0",
        "nEj78MRq": "1",
        "P_SCHEDULE_ID": "100005",
        "P_CREATEDATE": "2018-05-11 16:39:18",
        "P_UPDATEDATE": "2018-05-11 16:39:18"
    },
    {
        "oL71Fz3a": "401",
        "GSDk1Jh6": "1",
        "P_NAME": "UUUM\u30d7\u30ec\u30bc\u30f3\u30c8\u4f01\u753b_Android",
        "X3zk7AuE": "2",
        "P_DISPORDER": "4",
        "1gDkL6XR": "banner_uuum_614-114.png",
        "jsRoN50z": "https://campaign.bravefrontier2.jp/youtuber/entry",
        "t5R47iwj": "friendID",
        "X4mIT5Lc": "2",
        "Z65mIxvJ": "0",
        "nEj78MRq": "1",
        "P_SCHEDULE_ID": "100005",
        "P_CREATEDATE": "2018-05-11 16:39:18",
        "P_UPDATEDATE": "2018-05-11 16:39:18"
    },
    {
        "oL71Fz3a": "500",
        "GSDk1Jh6": "1",
        "P_NAME": "\u30b2\u30fc\u30e0\u30ae\u30d5\u30c8\u7279\u5178\u914d\u5e03_iOS",
        "X3zk7AuE": "1",
        "P_DISPORDER": "8",
        "1gDkL6XR": "gamegift_app_1805.png",
        "jsRoN50z": "https://gamegift.jp/game/1907",
        "t5R47iwj": "",
        "X4mIT5Lc": "2",
        "Z65mIxvJ": "0",
        "nEj78MRq": "1",
        "P_SCHEDULE_ID": "100007",
        "P_CREATEDATE": "2018-05-11 16:39:18",
        "P_UPDATEDATE": "2018-05-11 16:39:18"
    },
    {
        "oL71Fz3a": "501",
        "GSDk1Jh6": "1",
        "P_NAME": "\u30b2\u30fc\u30e0\u30ae\u30d5\u30c8\u7279\u5178\u914d\u5e03_Android",
        "X3zk7AuE": "2",
        "P_DISPORDER": "8",
        "1gDkL6XR": "gamegift_app_1805.png",
        "jsRoN50z": "https://gamegift.jp/game/1907",
        "t5R47iwj": "",
        "X4mIT5Lc": "2",
        "Z65mIxvJ": "0",
        "nEj78MRq": "1",
        "P_SCHEDULE_ID": "100007",
        "P_CREATEDATE": "2018-05-11 16:39:18",
        "P_UPDATEDATE": "2018-05-11 16:39:18"
    },
    {
        "oL71Fz3a": "502",
        "GSDk1Jh6": "1",
        "P_NAME": "\u30b2\u30fc\u30e0\u30ae\u30d5\u30c8\u7279\u5178\u914d\u5e032_iOS",
        "X3zk7AuE": "1",
        "P_DISPORDER": "8",
        "1gDkL6XR": "gamegift_app_1804.png",
        "jsRoN50z": "https://gamegift.jp/game/1907",
        "t5R47iwj": "",
        "X4mIT5Lc": "2",
        "Z65mIxvJ": "0",
        "nEj78MRq": "1",
        "P_SCHEDULE_ID": "100014",
        "P_CREATEDATE": "2018-05-11 16:39:18",
        "P_UPDATEDATE": "2018-05-11 16:39:18"
    },
    {
        "oL71Fz3a": "503",
        "GSDk1Jh6": "1",
        "P_NAME": "\u30b2\u30fc\u30e0\u30ae\u30d5\u30c8\u7279\u5178\u914d\u5e032_Android",
        "X3zk7AuE": "2",
        "P_DISPORDER": "8",
        "1gDkL6XR": "gamegift_app_1804.png",
        "jsRoN50z": "https://gamegift.jp/game/1907",
        "t5R47iwj": "",
        "X4mIT5Lc": "2",
        "Z65mIxvJ": "0",
        "nEj78MRq": "1",
        "P_SCHEDULE_ID": "100014",
        "P_CREATEDATE": "2018-05-11 16:39:18",
        "P_UPDATEDATE": "2018-05-11 16:39:18"
    },
    {
        "oL71Fz3a": "600",
        "GSDk1Jh6": "1",
        "P_NAME": "\u30d6\u30ec\u751f\u30b5\u30a4\u30c8_iOS",
        "X3zk7AuE": "1",
        "P_DISPORDER": "4",
        "1gDkL6XR": "banner_brenama.png",
        "jsRoN50z": "http://burenama.a-lim.jp/",
        "t5R47iwj": "",
        "X4mIT5Lc": "2",
        "Z65mIxvJ": "0",
        "nEj78MRq": "1",
        "P_SCHEDULE_ID": "100013",
        "P_CREATEDATE": "2018-05-11 16:39:18",
        "P_UPDATEDATE": "2018-05-11 16:39:18"
    },
    {
        "oL71Fz3a": "601",
        "GSDk1Jh6": "1",
        "P_NAME": "\u30d6\u30ec\u751f\u30b5\u30a4\u30c8_Android",
        "X3zk7AuE": "2",
        "P_DISPORDER": "4",
        "1gDkL6XR": "banner_brenama.png",
        "jsRoN50z": "http://burenama.a-lim.jp/",
        "t5R47iwj": "",
        "X4mIT5Lc": "2",
        "Z65mIxvJ": "0",
        "nEj78MRq": "1",
        "P_SCHEDULE_ID": "100013",
        "P_CREATEDATE": "2018-05-11 16:39:18",
        "P_UPDATEDATE": "2018-05-11 16:39:18"
    },
    {
        "oL71Fz3a": "610",
        "GSDk1Jh6": "1",
        "P_NAME": "\u30aa\u30f3\u30e9\u30a4\u30f3\u30b7\u30e7\u30c3\u30d7_iOS",
        "X3zk7AuE": "1",
        "P_DISPORDER": "5",
        "1gDkL6XR": "bf2banner_onlineshop.png",
        "jsRoN50z": "http://www.a-limshop.com/",
        "t5R47iwj": "",
        "X4mIT5Lc": "2",
        "Z65mIxvJ": "0",
        "nEj78MRq": "1",
        "P_SCHEDULE_ID": "100013",
        "P_CREATEDATE": "2018-05-11 16:39:18",
        "P_UPDATEDATE": "2018-05-11 16:39:18"
    },
    {
        "oL71Fz3a": "611",
        "GSDk1Jh6": "1",
        "P_NAME": "\u30aa\u30f3\u30e9\u30a4\u30f3\u30b7\u30e7\u30c3\u30d7_Android",
        "X3zk7AuE": "2",
        "P_DISPORDER": "5",
        "1gDkL6XR": "bf2banner_onlineshop.png",
        "jsRoN50z": "http://www.a-limshop.com/",
        "t5R47iwj": "",
        "X4mIT5Lc": "2",
        "Z65mIxvJ": "0",
        "nEj78MRq": "1",
        "P_SCHEDULE_ID": "100013",
        "P_CREATEDATE": "2018-05-11 16:39:18",
        "P_UPDATEDATE": "2018-05-11 16:39:18"
    },
    {
        "oL71Fz3a": "620",
        "GSDk1Jh6": "1",
        "P_NAME": "\u30d6\u30ec\u30d5\u30ed\u97f3\u697d\u796d_iOS",
        "X3zk7AuE": "1",
        "P_DISPORDER": "6",
        "1gDkL6XR": "music-fes_614-114.png",
        "jsRoN50z": "https://www.bravefrontier.jp/music-fes/",
        "t5R47iwj": "",
        "X4mIT5Lc": "2",
        "Z65mIxvJ": "0",
        "nEj78MRq": "1",
        "P_SCHEDULE_ID": "100017",
        "P_CREATEDATE": "2018-05-11 16:39:18",
        "P_UPDATEDATE": "2018-05-11 16:39:18"
    },
    {
        "oL71Fz3a": "621",
        "GSDk1Jh6": "1",
        "P_NAME": "\u30d6\u30ec\u30d5\u30ed\u97f3\u697d\u796d_Android",
        "X3zk7AuE": "2",
        "P_DISPORDER": "6",
        "1gDkL6XR": "music-fes_614-114.png",
        "jsRoN50z": "https://www.bravefrontier.jp/music-fes/",
        "t5R47iwj": "",
        "X4mIT5Lc": "2",
        "Z65mIxvJ": "0",
        "nEj78MRq": "1",
        "P_SCHEDULE_ID": "100017",
        "P_CREATEDATE": "2018-05-11 16:39:18",
        "P_UPDATEDATE": "2018-05-11 16:39:18"
    },
    {
        "oL71Fz3a": "630",
        "GSDk1Jh6": "1",
        "P_NAME": "\u30c9\u30ef\u30f3\u30b4\u30b8\u30a7\u30a4\u30d4\u30fc\u30b9\u30c8\u30a2_iOS",
        "X3zk7AuE": "1",
        "P_DISPORDER": "7",
        "1gDkL6XR": "banner_dowango_614-114.png",
        "jsRoN50z": "https://notice.bravefrontier2.jp/bf2/jump/dwango_store679.php",
        "t5R47iwj": "",
        "X4mIT5Lc": "2",
        "Z65mIxvJ": "0",
        "nEj78MRq": "1",
        "P_SCHEDULE_ID": "100018",
        "P_CREATEDATE": "2018-05-11 16:39:18",
        "P_UPDATEDATE": "2018-05-11 16:39:18"
    },
    {
        "oL71Fz3a": "631",
        "GSDk1Jh6": "1",
        "P_NAME": "\u30c9\u30ef\u30f3\u30b4\u30b8\u30a7\u30a4\u30d4\u30fc\u30b9\u30c8\u30a2_Android",
        "X3zk7AuE": "2",
        "P_DISPORDER": "7",
        "1gDkL6XR": "banner_dowango_614-114.png",
        "jsRoN50z": "https://notice.bravefrontier2.jp/bf2/jump/dwango_store679.php",
        "t5R47iwj": "",
        "X4mIT5Lc": "2",
        "Z65mIxvJ": "0",
        "nEj78MRq": "1",
        "P_SCHEDULE_ID": "100018",
        "P_CREATEDATE": "2018-05-11 16:39:18",
        "P_UPDATEDATE": "2018-05-11 16:39:18"
    }
]