[
    {
        "59BkutKX": "1",
        "P_TARGET_TYPE": "1",
        "P_TARGET_INFO": "1",
        "P_PRIORITY": "1",
        "nA95Bdj6": "1",
        "5Z1LNoyH": "1",
        "P_SCHEDULE_ID": "1",
        "P_CREATEDATE": "",
        "P_UPDATEDATE": ""
    }
]