[
    {
        "P_ELEMENT_ITEM_ID": "1000",
        "P_NAME": "\u7dd1\u58ee\u8349",
        "8Cx57oAk": "\u7dd1\u58ee\u8349",
        "P_RARE": "1",
        "P_DISPORDER": "1000",
        "CA7uXs6D": "99",
        "P_DISP_DICTIONARY": "0",
        "P_ICON_ID": "100",
        "60IsqxDt": "1",
        "o7e4HXMP": "1,1,0,1,0,0,0,0",
        "P_DOUBLE_SPHERE_TRIGGER": "0,0,0,0",
        "P_DICTIONARY_NO": "1",
        "P_DICTIONARY_BG": "2",
        "P_NEED_SWITCH_INFO": "0",
        "P_HIDE_SWITCH_INFO": "0",
        "P_OPEN_SWITCH_INFO": "0",
        "P_CREATEDATE": "2018-02-18 01:46:16",
        "P_UPDATEDATE": "2018-02-18 01:46:16"
    },
    {
        "P_ELEMENT_ITEM_ID": "1001",
        "P_NAME": "\u9752\u80c6\u8349",
        "8Cx57oAk": "\u9752\u80c6\u8349",
        "P_RARE": "2",
        "P_DISPORDER": "1001",
        "CA7uXs6D": "99",
        "P_DISP_DICTIONARY": "0",
        "P_ICON_ID": "101",
        "60IsqxDt": "1",
        "o7e4HXMP": "1,1,0,1,0,0,0,0",
        "P_DOUBLE_SPHERE_TRIGGER": "0,0,0,0",
        "P_DICTIONARY_NO": "1",
        "P_DICTIONARY_BG": "3",
        "P_NEED_SWITCH_INFO": "0",
        "P_HIDE_SWITCH_INFO": "0",
        "P_OPEN_SWITCH_INFO": "0",
        "P_CREATEDATE": "2018-02-18 01:46:17",
        "P_UPDATEDATE": "2018-02-18 01:46:17"
    },
    {
        "P_ELEMENT_ITEM_ID": "1002",
        "P_NAME": "\u7d05\u935b\u8349",
        "8Cx57oAk": "\u7d05\u935b\u8349",
        "P_RARE": "3",
        "P_DISPORDER": "1002",
        "CA7uXs6D": "99",
        "P_DISP_DICTIONARY": "0",
        "P_ICON_ID": "104",
        "60IsqxDt": "1",
        "o7e4HXMP": "1,1,0,1,0,0,0,0",
        "P_DOUBLE_SPHERE_TRIGGER": "0,0,0,0",
        "P_DICTIONARY_NO": "1",
        "P_DICTIONARY_BG": "4",
        "P_NEED_SWITCH_INFO": "0",
        "P_HIDE_SWITCH_INFO": "0",
        "P_OPEN_SWITCH_INFO": "0",
        "P_CREATEDATE": "2018-02-18 01:46:17",
        "P_UPDATEDATE": "2018-02-18 01:46:17"
    },
    {
        "P_ELEMENT_ITEM_ID": "2000",
        "P_NAME": "\u30c9\u30f3\u306e\u5b9f",
        "8Cx57oAk": "\u30c9\u30f3\u306e\u5b9f",
        "P_RARE": "1",
        "P_DISPORDER": "2000",
        "CA7uXs6D": "99",
        "P_DISP_DICTIONARY": "0",
        "P_ICON_ID": "205",
        "60IsqxDt": "1",
        "o7e4HXMP": "1,1,0,1,0,0,0,0",
        "P_DOUBLE_SPHERE_TRIGGER": "0,0,0,0",
        "P_DICTIONARY_NO": "1",
        "P_DICTIONARY_BG": "5",
        "P_NEED_SWITCH_INFO": "0",
        "P_HIDE_SWITCH_INFO": "0",
        "P_OPEN_SWITCH_INFO": "0",
        "P_CREATEDATE": "2018-02-18 01:46:17",
        "P_UPDATEDATE": "2018-02-18 01:46:17"
    },
    {
        "P_ELEMENT_ITEM_ID": "2001",
        "P_NAME": "\u30d3\u30a6\u306e\u5b9f",
        "8Cx57oAk": "\u30d3\u30a6\u306e\u5b9f",
        "P_RARE": "1",
        "P_DISPORDER": "2001",
        "CA7uXs6D": "99",
        "P_DISP_DICTIONARY": "0",
        "P_ICON_ID": "200",
        "60IsqxDt": "1",
        "o7e4HXMP": "1,1,0,1,0,0,0,0",
        "P_DOUBLE_SPHERE_TRIGGER": "0,0,0,0",
        "P_DICTIONARY_NO": "1",
        "P_DICTIONARY_BG": "6",
        "P_NEED_SWITCH_INFO": "0",
        "P_HIDE_SWITCH_INFO": "0",
        "P_OPEN_SWITCH_INFO": "0",
        "P_CREATEDATE": "2018-02-18 01:46:17",
        "P_UPDATEDATE": "2018-02-18 01:46:17"
    },
    {
        "P_ELEMENT_ITEM_ID": "2002",
        "P_NAME": "\u30b9\u30ba\u306e\u5b9f",
        "8Cx57oAk": "\u30b9\u30ba\u306e\u5b9f",
        "P_RARE": "1",
        "P_DISPORDER": "2002",
        "CA7uXs6D": "99",
        "P_DISP_DICTIONARY": "0",
        "P_ICON_ID": "206",
        "60IsqxDt": "1",
        "o7e4HXMP": "1,1,0,1,0,0,0,0",
        "P_DOUBLE_SPHERE_TRIGGER": "0,0,0,0",
        "P_DICTIONARY_NO": "1",
        "P_DICTIONARY_BG": "7",
        "P_NEED_SWITCH_INFO": "0",
        "P_HIDE_SWITCH_INFO": "0",
        "P_OPEN_SWITCH_INFO": "0",
        "P_CREATEDATE": "2018-02-18 01:46:17",
        "P_UPDATEDATE": "2018-02-18 01:46:17"
    },
    {
        "P_ELEMENT_ITEM_ID": "2100",
        "P_NAME": "\u30b3\u30af\u306e\u5b9f",
        "8Cx57oAk": "\u30b3\u30af\u306e\u5b9f",
        "P_RARE": "2",
        "P_DISPORDER": "2100",
        "CA7uXs6D": "99",
        "P_DISP_DICTIONARY": "0",
        "P_ICON_ID": "204",
        "60IsqxDt": "1",
        "o7e4HXMP": "1,1,0,1,0,0,0,0",
        "P_DOUBLE_SPHERE_TRIGGER": "0,0,0,0",
        "P_DICTIONARY_NO": "1",
        "P_DICTIONARY_BG": "9",
        "P_NEED_SWITCH_INFO": "0",
        "P_HIDE_SWITCH_INFO": "0",
        "P_OPEN_SWITCH_INFO": "0",
        "P_CREATEDATE": "2018-02-18 01:46:17",
        "P_UPDATEDATE": "2018-02-18 01:46:17"
    },
    {
        "P_ELEMENT_ITEM_ID": "2101",
        "P_NAME": "\u30db\u30af\u306e\u5b9f",
        "8Cx57oAk": "\u30db\u30af\u306e\u5b9f",
        "P_RARE": "2",
        "P_DISPORDER": "2101",
        "CA7uXs6D": "99",
        "P_DISP_DICTIONARY": "0",
        "P_ICON_ID": "201",
        "60IsqxDt": "1",
        "o7e4HXMP": "1,1,0,1,0,0,0,0",
        "P_DOUBLE_SPHERE_TRIGGER": "0,0,0,0",
        "P_DICTIONARY_NO": "1",
        "P_DICTIONARY_BG": "10",
        "P_NEED_SWITCH_INFO": "0",
        "P_HIDE_SWITCH_INFO": "0",
        "P_OPEN_SWITCH_INFO": "0",
        "P_CREATEDATE": "2018-02-18 01:46:17",
        "P_UPDATEDATE": "2018-02-18 01:46:17"
    },
    {
        "P_ELEMENT_ITEM_ID": "3000",
        "P_NAME": "\u6e05\u7fe0\u306e\u96eb",
        "8Cx57oAk": "\u6e05\u7fe0\u306e\u96eb",
        "P_RARE": "1",
        "P_DISPORDER": "3000",
        "CA7uXs6D": "99",
        "P_DISP_DICTIONARY": "0",
        "P_ICON_ID": "250",
        "60IsqxDt": "1",
        "o7e4HXMP": "1,1,0,1,0,0,0,0",
        "P_DOUBLE_SPHERE_TRIGGER": "0,0,0,0",
        "P_DICTIONARY_NO": "1",
        "P_DICTIONARY_BG": "11",
        "P_NEED_SWITCH_INFO": "0",
        "P_HIDE_SWITCH_INFO": "0",
        "P_OPEN_SWITCH_INFO": "0",
        "P_CREATEDATE": "2018-02-18 01:46:17",
        "P_UPDATEDATE": "2018-02-18 01:46:17"
    },
    {
        "P_ELEMENT_ITEM_ID": "3001",
        "P_NAME": "\u7d14\u85cd\u306e\u96eb",
        "8Cx57oAk": "\u7d14\u85cd\u306e\u96eb",
        "P_RARE": "2",
        "P_DISPORDER": "3001",
        "CA7uXs6D": "99",
        "P_DISP_DICTIONARY": "0",
        "P_ICON_ID": "251",
        "60IsqxDt": "1",
        "o7e4HXMP": "1,1,0,1,0,0,0,0",
        "P_DOUBLE_SPHERE_TRIGGER": "0,0,0,0",
        "P_DICTIONARY_NO": "1",
        "P_DICTIONARY_BG": "12",
        "P_NEED_SWITCH_INFO": "0",
        "P_HIDE_SWITCH_INFO": "0",
        "P_OPEN_SWITCH_INFO": "0",
        "P_CREATEDATE": "2018-02-18 01:46:17",
        "P_UPDATEDATE": "2018-02-18 01:46:17"
    },
    {
        "P_ELEMENT_ITEM_ID": "3002",
        "P_NAME": "\u6ec5\u6731\u306e\u96eb",
        "8Cx57oAk": "\u6ec5\u6731\u306e\u96eb",
        "P_RARE": "3",
        "P_DISPORDER": "3002",
        "CA7uXs6D": "99",
        "P_DISP_DICTIONARY": "0",
        "P_ICON_ID": "254",
        "60IsqxDt": "1",
        "o7e4HXMP": "1,1,0,1,0,0,0,0",
        "P_DOUBLE_SPHERE_TRIGGER": "0,0,0,0",
        "P_DICTIONARY_NO": "1",
        "P_DICTIONARY_BG": "13",
        "P_NEED_SWITCH_INFO": "0",
        "P_HIDE_SWITCH_INFO": "0",
        "P_OPEN_SWITCH_INFO": "0",
        "P_CREATEDATE": "2018-02-18 01:46:17",
        "P_UPDATEDATE": "2018-02-18 01:46:17"
    },
    {
        "P_ELEMENT_ITEM_ID": "4000",
        "P_NAME": "\u6b66\u795e\u306e\u773c",
        "8Cx57oAk": "\u6b66\u795e\u306e\u773c",
        "P_RARE": "3",
        "P_DISPORDER": "4000",
        "CA7uXs6D": "99",
        "P_DISP_DICTIONARY": "0",
        "P_ICON_ID": "403",
        "60IsqxDt": "1",
        "o7e4HXMP": "1,1,0,1,0,0,0,0",
        "P_DOUBLE_SPHERE_TRIGGER": "0,0,0,0",
        "P_DICTIONARY_NO": "1",
        "P_DICTIONARY_BG": "16",
        "P_NEED_SWITCH_INFO": "0",
        "P_HIDE_SWITCH_INFO": "0",
        "P_OPEN_SWITCH_INFO": "0",
        "P_CREATEDATE": "2018-02-18 01:46:17",
        "P_UPDATEDATE": "2018-02-18 01:46:17"
    },
    {
        "P_ELEMENT_ITEM_ID": "4001",
        "P_NAME": "\u708e\u795e\u306e\u773c",
        "8Cx57oAk": "\u708e\u795e\u306e\u773c",
        "P_RARE": "1",
        "P_DISPORDER": "4001",
        "CA7uXs6D": "99",
        "P_DISP_DICTIONARY": "0",
        "P_ICON_ID": "404",
        "60IsqxDt": "1",
        "o7e4HXMP": "1,1,0,1,0,0,0,0",
        "P_DOUBLE_SPHERE_TRIGGER": "0,0,0,0",
        "P_DICTIONARY_NO": "1",
        "P_DICTIONARY_BG": "17",
        "P_NEED_SWITCH_INFO": "0",
        "P_HIDE_SWITCH_INFO": "0",
        "P_OPEN_SWITCH_INFO": "0",
        "P_CREATEDATE": "2018-02-18 01:46:17",
        "P_UPDATEDATE": "2018-02-18 01:46:17"
    },
    {
        "P_ELEMENT_ITEM_ID": "4002",
        "P_NAME": "\u6c34\u795e\u306e\u773c",
        "8Cx57oAk": "\u6c34\u795e\u306e\u773c",
        "P_RARE": "1",
        "P_DISPORDER": "4002",
        "CA7uXs6D": "99",
        "P_DISP_DICTIONARY": "0",
        "P_ICON_ID": "401",
        "60IsqxDt": "1",
        "o7e4HXMP": "1,1,0,1,0,0,0,0",
        "P_DOUBLE_SPHERE_TRIGGER": "0,0,0,0",
        "P_DICTIONARY_NO": "1",
        "P_DICTIONARY_BG": "18",
        "P_NEED_SWITCH_INFO": "0",
        "P_HIDE_SWITCH_INFO": "0",
        "P_OPEN_SWITCH_INFO": "0",
        "P_CREATEDATE": "2018-02-18 01:46:17",
        "P_UPDATEDATE": "2018-02-18 01:46:17"
    },
    {
        "P_ELEMENT_ITEM_ID": "4003",
        "P_NAME": "\u6a39\u795e\u306e\u773c",
        "8Cx57oAk": "\u6a39\u795e\u306e\u773c",
        "P_RARE": "1",
        "P_DISPORDER": "4003",
        "CA7uXs6D": "99",
        "P_DISP_DICTIONARY": "0",
        "P_ICON_ID": "400",
        "60IsqxDt": "1",
        "o7e4HXMP": "1,1,0,1,0,0,0,0",
        "P_DOUBLE_SPHERE_TRIGGER": "0,0,0,0",
        "P_DICTIONARY_NO": "1",
        "P_DICTIONARY_BG": "19",
        "P_NEED_SWITCH_INFO": "0",
        "P_HIDE_SWITCH_INFO": "0",
        "P_OPEN_SWITCH_INFO": "0",
        "P_CREATEDATE": "2018-02-18 01:46:17",
        "P_UPDATEDATE": "2018-02-18 01:46:17"
    },
    {
        "P_ELEMENT_ITEM_ID": "4004",
        "P_NAME": "\u96f7\u795e\u306e\u773c",
        "8Cx57oAk": "\u96f7\u795e\u306e\u773c",
        "P_RARE": "1",
        "P_DISPORDER": "4004",
        "CA7uXs6D": "99",
        "P_DISP_DICTIONARY": "0",
        "P_ICON_ID": "402",
        "60IsqxDt": "1",
        "o7e4HXMP": "1,1,0,1,0,0,0,0",
        "P_DOUBLE_SPHERE_TRIGGER": "0,0,0,0",
        "P_DICTIONARY_NO": "1",
        "P_DICTIONARY_BG": "20",
        "P_NEED_SWITCH_INFO": "0",
        "P_HIDE_SWITCH_INFO": "0",
        "P_OPEN_SWITCH_INFO": "0",
        "P_CREATEDATE": "2018-02-18 01:46:17",
        "P_UPDATEDATE": "2018-02-18 01:46:17"
    },
    {
        "P_ELEMENT_ITEM_ID": "4005",
        "P_NAME": "\u5149\u795e\u306e\u773c",
        "8Cx57oAk": "\u5149\u795e\u306e\u773c",
        "P_RARE": "1",
        "P_DISPORDER": "4005",
        "CA7uXs6D": "99",
        "P_DISP_DICTIONARY": "0",
        "P_ICON_ID": "406",
        "60IsqxDt": "1",
        "o7e4HXMP": "1,1,0,1,0,0,0,0",
        "P_DOUBLE_SPHERE_TRIGGER": "0,0,0,0",
        "P_DICTIONARY_NO": "1",
        "P_DICTIONARY_BG": "21",
        "P_NEED_SWITCH_INFO": "0",
        "P_HIDE_SWITCH_INFO": "0",
        "P_OPEN_SWITCH_INFO": "0",
        "P_CREATEDATE": "2018-02-18 01:46:17",
        "P_UPDATEDATE": "2018-02-18 01:46:17"
    },
    {
        "P_ELEMENT_ITEM_ID": "4006",
        "P_NAME": "\u95c7\u795e\u306e\u773c",
        "8Cx57oAk": "\u95c7\u795e\u306e\u773c",
        "P_RARE": "1",
        "P_DISPORDER": "4006",
        "CA7uXs6D": "99",
        "P_DISP_DICTIONARY": "0",
        "P_ICON_ID": "405",
        "60IsqxDt": "1",
        "o7e4HXMP": "1,1,0,1,0,0,0,0",
        "P_DOUBLE_SPHERE_TRIGGER": "0,0,0,0",
        "P_DICTIONARY_NO": "1",
        "P_DICTIONARY_BG": "22",
        "P_NEED_SWITCH_INFO": "0",
        "P_HIDE_SWITCH_INFO": "0",
        "P_OPEN_SWITCH_INFO": "0",
        "P_CREATEDATE": "2018-02-18 01:46:17",
        "P_UPDATEDATE": "2018-02-18 01:46:17"
    },
    {
        "P_ELEMENT_ITEM_ID": "5000",
        "P_NAME": "\u786c\u5ca9\u7363\u9aa8",
        "8Cx57oAk": "\u786c\u5ca9\u7363\u9aa8",
        "P_RARE": "3",
        "P_DISPORDER": "5000",
        "CA7uXs6D": "99",
        "P_DISP_DICTIONARY": "0",
        "P_ICON_ID": "506",
        "60IsqxDt": "1",
        "o7e4HXMP": "1,1,0,1,0,0,0,0",
        "P_DOUBLE_SPHERE_TRIGGER": "0,0,0,0",
        "P_DICTIONARY_NO": "1",
        "P_DICTIONARY_BG": "23",
        "P_NEED_SWITCH_INFO": "0",
        "P_HIDE_SWITCH_INFO": "0",
        "P_OPEN_SWITCH_INFO": "0",
        "P_CREATEDATE": "2018-02-18 01:46:17",
        "P_UPDATEDATE": "2018-02-18 01:46:17"
    },
    {
        "P_ELEMENT_ITEM_ID": "5001",
        "P_NAME": "\u7dd1\u7363\u306e\u9aa8",
        "8Cx57oAk": "\u7dd1\u7363\u306e\u9aa8",
        "P_RARE": "1",
        "P_DISPORDER": "5001",
        "CA7uXs6D": "99",
        "P_DISP_DICTIONARY": "0",
        "P_ICON_ID": "500",
        "60IsqxDt": "1",
        "o7e4HXMP": "1,1,0,1,0,0,0,0",
        "P_DOUBLE_SPHERE_TRIGGER": "0,0,0,0",
        "P_DICTIONARY_NO": "1",
        "P_DICTIONARY_BG": "24",
        "P_NEED_SWITCH_INFO": "0",
        "P_HIDE_SWITCH_INFO": "0",
        "P_OPEN_SWITCH_INFO": "0",
        "P_CREATEDATE": "2018-02-18 01:46:17",
        "P_UPDATEDATE": "2018-02-18 01:46:17"
    },
    {
        "P_ELEMENT_ITEM_ID": "5002",
        "P_NAME": "\u9752\u7363\u306e\u9aa8",
        "8Cx57oAk": "\u9752\u7363\u306e\u9aa8",
        "P_RARE": "2",
        "P_DISPORDER": "5002",
        "CA7uXs6D": "99",
        "P_DISP_DICTIONARY": "0",
        "P_ICON_ID": "501",
        "60IsqxDt": "1",
        "o7e4HXMP": "1,1,0,1,0,0,0,0",
        "P_DOUBLE_SPHERE_TRIGGER": "0,0,0,0",
        "P_DICTIONARY_NO": "1",
        "P_DICTIONARY_BG": "25",
        "P_NEED_SWITCH_INFO": "0",
        "P_HIDE_SWITCH_INFO": "0",
        "P_OPEN_SWITCH_INFO": "0",
        "P_CREATEDATE": "2018-02-18 01:46:17",
        "P_UPDATEDATE": "2018-02-18 01:46:17"
    },
    {
        "P_ELEMENT_ITEM_ID": "5003",
        "P_NAME": "\u8d64\u7363\u306e\u9aa8",
        "8Cx57oAk": "\u8d64\u7363\u306e\u9aa8",
        "P_RARE": "3",
        "P_DISPORDER": "5003",
        "CA7uXs6D": "99",
        "P_DISP_DICTIONARY": "0",
        "P_ICON_ID": "504",
        "60IsqxDt": "1",
        "o7e4HXMP": "1,1,0,1,0,0,0,0",
        "P_DOUBLE_SPHERE_TRIGGER": "0,0,0,0",
        "P_DICTIONARY_NO": "1",
        "P_DICTIONARY_BG": "26",
        "P_NEED_SWITCH_INFO": "0",
        "P_HIDE_SWITCH_INFO": "0",
        "P_OPEN_SWITCH_INFO": "0",
        "P_CREATEDATE": "2018-02-18 01:46:17",
        "P_UPDATEDATE": "2018-02-18 01:46:17"
    },
    {
        "P_ELEMENT_ITEM_ID": "6000",
        "P_NAME": "\u795e\u53b3\u5fa1\u77f3",
        "8Cx57oAk": "\u795e\u53b3\u5fa1\u77f3",
        "P_RARE": "3",
        "P_DISPORDER": "6000",
        "CA7uXs6D": "99",
        "P_DISP_DICTIONARY": "0",
        "P_ICON_ID": "552",
        "60IsqxDt": "1",
        "o7e4HXMP": "1,1,0,1,0,0,0,0",
        "P_DOUBLE_SPHERE_TRIGGER": "0,0,0,0",
        "P_DICTIONARY_NO": "1",
        "P_DICTIONARY_BG": "27",
        "P_NEED_SWITCH_INFO": "0",
        "P_HIDE_SWITCH_INFO": "0",
        "P_OPEN_SWITCH_INFO": "0",
        "P_CREATEDATE": "2018-02-18 01:46:17",
        "P_UPDATEDATE": "2018-02-18 01:46:17"
    },
    {
        "P_ELEMENT_ITEM_ID": "6002",
        "P_NAME": "\u5275\u9b42\u5fa1\u77f3",
        "8Cx57oAk": "\u5275\u9b42\u5fa1\u77f3",
        "P_RARE": "4",
        "P_DISPORDER": "6002",
        "CA7uXs6D": "99",
        "P_DISP_DICTIONARY": "0",
        "P_ICON_ID": "553",
        "60IsqxDt": "1",
        "o7e4HXMP": "1,1,0,1,0,0,0,0",
        "P_DOUBLE_SPHERE_TRIGGER": "0,0,0,0",
        "P_DICTIONARY_NO": "1",
        "P_DICTIONARY_BG": "29",
        "P_NEED_SWITCH_INFO": "0",
        "P_HIDE_SWITCH_INFO": "0",
        "P_OPEN_SWITCH_INFO": "0",
        "P_CREATEDATE": "2018-02-18 01:46:17",
        "P_UPDATEDATE": "2018-02-18 01:46:17"
    },
    {
        "P_ELEMENT_ITEM_ID": "7000",
        "P_NAME": "\u7dd1\u7363\u306e\u722a",
        "8Cx57oAk": "\u7dd1\u7363\u306e\u722a",
        "P_RARE": "1",
        "P_DISPORDER": "7000",
        "CA7uXs6D": "99",
        "P_DISP_DICTIONARY": "0",
        "P_ICON_ID": "300",
        "60IsqxDt": "1",
        "o7e4HXMP": "1,1,0,1,0,0,0,0",
        "P_DOUBLE_SPHERE_TRIGGER": "0,0,0,0",
        "P_DICTIONARY_NO": "1",
        "P_DICTIONARY_BG": "30",
        "P_NEED_SWITCH_INFO": "0",
        "P_HIDE_SWITCH_INFO": "0",
        "P_OPEN_SWITCH_INFO": "0",
        "P_CREATEDATE": "2018-02-18 01:46:17",
        "P_UPDATEDATE": "2018-02-18 01:46:17"
    },
    {
        "P_ELEMENT_ITEM_ID": "7001",
        "P_NAME": "\u9752\u7363\u306e\u722a",
        "8Cx57oAk": "\u9752\u7363\u306e\u722a",
        "P_RARE": "2",
        "P_DISPORDER": "7001",
        "CA7uXs6D": "99",
        "P_DISP_DICTIONARY": "0",
        "P_ICON_ID": "301",
        "60IsqxDt": "1",
        "o7e4HXMP": "1,1,0,1,0,0,0,0",
        "P_DOUBLE_SPHERE_TRIGGER": "0,0,0,0",
        "P_DICTIONARY_NO": "1",
        "P_DICTIONARY_BG": "31",
        "P_NEED_SWITCH_INFO": "0",
        "P_HIDE_SWITCH_INFO": "0",
        "P_OPEN_SWITCH_INFO": "0",
        "P_CREATEDATE": "2018-02-18 01:46:17",
        "P_UPDATEDATE": "2018-02-18 01:46:17"
    },
    {
        "P_ELEMENT_ITEM_ID": "7002",
        "P_NAME": "\u8d64\u7363\u306e\u722a",
        "8Cx57oAk": "\u8d64\u7363\u306e\u722a",
        "P_RARE": "3",
        "P_DISPORDER": "7002",
        "CA7uXs6D": "99",
        "P_DISP_DICTIONARY": "0",
        "P_ICON_ID": "304",
        "60IsqxDt": "1",
        "o7e4HXMP": "1,1,0,1,0,0,0,0",
        "P_DOUBLE_SPHERE_TRIGGER": "0,0,0,0",
        "P_DICTIONARY_NO": "1",
        "P_DICTIONARY_BG": "32",
        "P_NEED_SWITCH_INFO": "0",
        "P_HIDE_SWITCH_INFO": "0",
        "P_OPEN_SWITCH_INFO": "0",
        "P_CREATEDATE": "2018-02-18 01:46:17",
        "P_UPDATEDATE": "2018-02-18 01:46:17"
    },
    {
        "P_ELEMENT_ITEM_ID": "8000",
        "P_NAME": "\u7dd1\u7363\u306e\u7259",
        "8Cx57oAk": "\u7dd1\u7363\u306e\u7259",
        "P_RARE": "1",
        "P_DISPORDER": "8000",
        "CA7uXs6D": "99",
        "P_DISP_DICTIONARY": "0",
        "P_ICON_ID": "350",
        "60IsqxDt": "1",
        "o7e4HXMP": "1,1,0,1,0,0,0,0",
        "P_DOUBLE_SPHERE_TRIGGER": "0,0,0,0",
        "P_DICTIONARY_NO": "1",
        "P_DICTIONARY_BG": "33",
        "P_NEED_SWITCH_INFO": "0",
        "P_HIDE_SWITCH_INFO": "0",
        "P_OPEN_SWITCH_INFO": "0",
        "P_CREATEDATE": "2018-02-18 01:46:17",
        "P_UPDATEDATE": "2018-02-18 01:46:17"
    },
    {
        "P_ELEMENT_ITEM_ID": "8001",
        "P_NAME": "\u9752\u7363\u306e\u7259",
        "8Cx57oAk": "\u9752\u7363\u306e\u7259",
        "P_RARE": "2",
        "P_DISPORDER": "8001",
        "CA7uXs6D": "99",
        "P_DISP_DICTIONARY": "0",
        "P_ICON_ID": "351",
        "60IsqxDt": "1",
        "o7e4HXMP": "1,1,0,1,0,0,0,0",
        "P_DOUBLE_SPHERE_TRIGGER": "0,0,0,0",
        "P_DICTIONARY_NO": "1",
        "P_DICTIONARY_BG": "34",
        "P_NEED_SWITCH_INFO": "0",
        "P_HIDE_SWITCH_INFO": "0",
        "P_OPEN_SWITCH_INFO": "0",
        "P_CREATEDATE": "2018-02-18 01:46:17",
        "P_UPDATEDATE": "2018-02-18 01:46:17"
    },
    {
        "P_ELEMENT_ITEM_ID": "8002",
        "P_NAME": "\u8d64\u7363\u306e\u7259",
        "8Cx57oAk": "\u8d64\u7363\u306e\u7259",
        "P_RARE": "3",
        "P_DISPORDER": "8002",
        "CA7uXs6D": "99",
        "P_DISP_DICTIONARY": "0",
        "P_ICON_ID": "354",
        "60IsqxDt": "1",
        "o7e4HXMP": "1,1,0,1,0,0,0,0",
        "P_DOUBLE_SPHERE_TRIGGER": "0,0,0,0",
        "P_DICTIONARY_NO": "1",
        "P_DICTIONARY_BG": "35",
        "P_NEED_SWITCH_INFO": "0",
        "P_HIDE_SWITCH_INFO": "0",
        "P_OPEN_SWITCH_INFO": "0",
        "P_CREATEDATE": "2018-02-18 01:46:17",
        "P_UPDATEDATE": "2018-02-18 01:46:17"
    },
    {
        "P_ELEMENT_ITEM_ID": "9000",
        "P_NAME": "\u7fe0\u900f\u306e\u76ae",
        "8Cx57oAk": "\u7fe0\u900f\u306e\u76ae",
        "P_RARE": "1",
        "P_DISPORDER": "9000",
        "CA7uXs6D": "99",
        "P_DISP_DICTIONARY": "0",
        "P_ICON_ID": "450",
        "60IsqxDt": "1",
        "o7e4HXMP": "1,1,0,1,0,0,0,0",
        "P_DOUBLE_SPHERE_TRIGGER": "0,0,0,0",
        "P_DICTIONARY_NO": "1",
        "P_DICTIONARY_BG": "36",
        "P_NEED_SWITCH_INFO": "0",
        "P_HIDE_SWITCH_INFO": "0",
        "P_OPEN_SWITCH_INFO": "0",
        "P_CREATEDATE": "2018-02-18 01:46:17",
        "P_UPDATEDATE": "2018-02-18 01:46:17"
    },
    {
        "P_ELEMENT_ITEM_ID": "9001",
        "P_NAME": "\u7d3a\u78a7\u306e\u76ae",
        "8Cx57oAk": "\u7d3a\u78a7\u306e\u76ae",
        "P_RARE": "2",
        "P_DISPORDER": "9001",
        "CA7uXs6D": "99",
        "P_DISP_DICTIONARY": "0",
        "P_ICON_ID": "451",
        "60IsqxDt": "1",
        "o7e4HXMP": "1,1,0,1,0,0,0,0",
        "P_DOUBLE_SPHERE_TRIGGER": "0,0,0,0",
        "P_DICTIONARY_NO": "1",
        "P_DICTIONARY_BG": "37",
        "P_NEED_SWITCH_INFO": "0",
        "P_HIDE_SWITCH_INFO": "0",
        "P_OPEN_SWITCH_INFO": "0",
        "P_CREATEDATE": "2018-02-18 01:46:17",
        "P_UPDATEDATE": "2018-02-18 01:46:17"
    },
    {
        "P_ELEMENT_ITEM_ID": "9002",
        "P_NAME": "\u7dcb\u7c8b\u306e\u76ae",
        "8Cx57oAk": "\u7dcb\u7c8b\u306e\u76ae",
        "P_RARE": "3",
        "P_DISPORDER": "9002",
        "CA7uXs6D": "99",
        "P_DISP_DICTIONARY": "0",
        "P_ICON_ID": "454",
        "60IsqxDt": "1",
        "o7e4HXMP": "1,1,0,1,0,0,0,0",
        "P_DOUBLE_SPHERE_TRIGGER": "0,0,0,0",
        "P_DICTIONARY_NO": "1",
        "P_DICTIONARY_BG": "38",
        "P_NEED_SWITCH_INFO": "0",
        "P_HIDE_SWITCH_INFO": "0",
        "P_OPEN_SWITCH_INFO": "0",
        "P_CREATEDATE": "2018-02-18 01:46:17",
        "P_UPDATEDATE": "2018-02-18 01:46:17"
    },
    {
        "P_ELEMENT_ITEM_ID": "10000",
        "P_NAME": "\u30c6\u30aa\u306e\u7fbd",
        "8Cx57oAk": "\u30c6\u30aa\u306e\u7fbd",
        "P_RARE": "1",
        "P_DISPORDER": "10000",
        "CA7uXs6D": "99",
        "P_DISP_DICTIONARY": "0",
        "P_ICON_ID": "150",
        "60IsqxDt": "1",
        "o7e4HXMP": "1,1,0,1,0,0,0,0",
        "P_DOUBLE_SPHERE_TRIGGER": "0,0,0,0",
        "P_DICTIONARY_NO": "1",
        "P_DICTIONARY_BG": "39",
        "P_NEED_SWITCH_INFO": "0",
        "P_HIDE_SWITCH_INFO": "0",
        "P_OPEN_SWITCH_INFO": "0",
        "P_CREATEDATE": "2018-02-18 01:46:17",
        "P_UPDATEDATE": "2018-02-18 01:46:17"
    },
    {
        "P_ELEMENT_ITEM_ID": "10001",
        "P_NAME": "\u30b7\u30f3\u306e\u7fbd",
        "8Cx57oAk": "\u30b7\u30f3\u306e\u7fbd",
        "P_RARE": "2",
        "P_DISPORDER": "10001",
        "CA7uXs6D": "99",
        "P_DISP_DICTIONARY": "0",
        "P_ICON_ID": "151",
        "60IsqxDt": "1",
        "o7e4HXMP": "1,1,0,1,0,0,0,0",
        "P_DOUBLE_SPHERE_TRIGGER": "0,0,0,0",
        "P_DICTIONARY_NO": "1",
        "P_DICTIONARY_BG": "40",
        "P_NEED_SWITCH_INFO": "0",
        "P_HIDE_SWITCH_INFO": "0",
        "P_OPEN_SWITCH_INFO": "0",
        "P_CREATEDATE": "2018-02-18 01:46:17",
        "P_UPDATEDATE": "2018-02-18 01:46:17"
    },
    {
        "P_ELEMENT_ITEM_ID": "10002",
        "P_NAME": "\u30e9\u30a6\u306e\u7fbd",
        "8Cx57oAk": "\u30e9\u30a6\u306e\u7fbd",
        "P_RARE": "3",
        "P_DISPORDER": "10002",
        "CA7uXs6D": "99",
        "P_DISP_DICTIONARY": "0",
        "P_ICON_ID": "154",
        "60IsqxDt": "1",
        "o7e4HXMP": "1,1,0,1,0,0,0,0",
        "P_DOUBLE_SPHERE_TRIGGER": "0,0,0,0",
        "P_DICTIONARY_NO": "1",
        "P_DICTIONARY_BG": "41",
        "P_NEED_SWITCH_INFO": "0",
        "P_HIDE_SWITCH_INFO": "0",
        "P_OPEN_SWITCH_INFO": "0",
        "P_CREATEDATE": "2018-02-18 01:46:17",
        "P_UPDATEDATE": "2018-02-18 01:46:17"
    },
    {
        "P_ELEMENT_ITEM_ID": "11000",
        "P_NAME": "\u7dd1\u74e2\u866b",
        "8Cx57oAk": "\u7dd1\u74e2\u866b",
        "P_RARE": "1",
        "P_DISPORDER": "11000",
        "CA7uXs6D": "99",
        "P_DISP_DICTIONARY": "0",
        "P_ICON_ID": "600",
        "60IsqxDt": "1",
        "o7e4HXMP": "1,1,0,1,0,0,0,0",
        "P_DOUBLE_SPHERE_TRIGGER": "0,0,0,0",
        "P_DICTIONARY_NO": "1",
        "P_DICTIONARY_BG": "42",
        "P_NEED_SWITCH_INFO": "0",
        "P_HIDE_SWITCH_INFO": "0",
        "P_OPEN_SWITCH_INFO": "0",
        "P_CREATEDATE": "2018-02-18 01:46:17",
        "P_UPDATEDATE": "2018-02-18 01:46:17"
    },
    {
        "P_ELEMENT_ITEM_ID": "11001",
        "P_NAME": "\u9752\u74e2\u866b",
        "8Cx57oAk": "\u9752\u74e2\u866b",
        "P_RARE": "2",
        "P_DISPORDER": "11001",
        "CA7uXs6D": "99",
        "P_DISP_DICTIONARY": "0",
        "P_ICON_ID": "601",
        "60IsqxDt": "1",
        "o7e4HXMP": "1,1,0,1,0,0,0,0",
        "P_DOUBLE_SPHERE_TRIGGER": "0,0,0,0",
        "P_DICTIONARY_NO": "1",
        "P_DICTIONARY_BG": "43",
        "P_NEED_SWITCH_INFO": "0",
        "P_HIDE_SWITCH_INFO": "0",
        "P_OPEN_SWITCH_INFO": "0",
        "P_CREATEDATE": "2018-02-18 01:46:17",
        "P_UPDATEDATE": "2018-02-18 01:46:17"
    },
    {
        "P_ELEMENT_ITEM_ID": "11002",
        "P_NAME": "\u8d64\u74e2\u866b",
        "8Cx57oAk": "\u8d64\u74e2\u866b",
        "P_RARE": "3",
        "P_DISPORDER": "11002",
        "CA7uXs6D": "99",
        "P_DISP_DICTIONARY": "0",
        "P_ICON_ID": "604",
        "60IsqxDt": "1",
        "o7e4HXMP": "1,1,0,1,0,0,0,0",
        "P_DOUBLE_SPHERE_TRIGGER": "0,0,0,0",
        "P_DICTIONARY_NO": "1",
        "P_DICTIONARY_BG": "44",
        "P_NEED_SWITCH_INFO": "0",
        "P_HIDE_SWITCH_INFO": "0",
        "P_OPEN_SWITCH_INFO": "0",
        "P_CREATEDATE": "2018-02-18 01:46:17",
        "P_UPDATEDATE": "2018-02-18 01:46:17"
    },
    {
        "P_ELEMENT_ITEM_ID": "12000",
        "P_NAME": "\u5186\u66dc\u9271",
        "8Cx57oAk": "\u5186\u66dc\u9271",
        "P_RARE": "2",
        "P_DISPORDER": "13000",
        "CA7uXs6D": "99",
        "P_DISP_DICTIONARY": "0",
        "P_ICON_ID": "650",
        "60IsqxDt": "1",
        "o7e4HXMP": "1,1,0,1,0,1,0,0",
        "P_DOUBLE_SPHERE_TRIGGER": "0,0,0,0",
        "P_DICTIONARY_NO": "1",
        "P_DICTIONARY_BG": "45",
        "P_NEED_SWITCH_INFO": "0",
        "P_HIDE_SWITCH_INFO": "0",
        "P_OPEN_SWITCH_INFO": "0",
        "P_CREATEDATE": "2018-02-18 01:46:17",
        "P_UPDATEDATE": "2018-02-18 01:46:17"
    },
    {
        "P_ELEMENT_ITEM_ID": "12001",
        "P_NAME": "\u9759\u7b97\u9271",
        "8Cx57oAk": "\u9759\u7b97\u9271",
        "P_RARE": "3",
        "P_DISPORDER": "13001",
        "CA7uXs6D": "99",
        "P_DISP_DICTIONARY": "0",
        "P_ICON_ID": "651",
        "60IsqxDt": "1",
        "o7e4HXMP": "1,1,0,1,0,1,0,0",
        "P_DOUBLE_SPHERE_TRIGGER": "0,0,0,0",
        "P_DICTIONARY_NO": "1",
        "P_DICTIONARY_BG": "46",
        "P_NEED_SWITCH_INFO": "0",
        "P_HIDE_SWITCH_INFO": "0",
        "P_OPEN_SWITCH_INFO": "0",
        "P_CREATEDATE": "2018-02-18 01:46:17",
        "P_UPDATEDATE": "2018-02-18 01:46:17"
    },
    {
        "P_ELEMENT_ITEM_ID": "13000",
        "P_NAME": "\u525b\u7f85\u7d17",
        "8Cx57oAk": "\u525b\u7f85\u7d17",
        "P_RARE": "2",
        "P_DISPORDER": "14000",
        "CA7uXs6D": "99",
        "P_DISP_DICTIONARY": "0",
        "P_ICON_ID": "700",
        "60IsqxDt": "1",
        "o7e4HXMP": "1,1,0,1,0,1,0,0",
        "P_DOUBLE_SPHERE_TRIGGER": "0,0,0,0",
        "P_DICTIONARY_NO": "1",
        "P_DICTIONARY_BG": "47",
        "P_NEED_SWITCH_INFO": "0",
        "P_HIDE_SWITCH_INFO": "0",
        "P_OPEN_SWITCH_INFO": "0",
        "P_CREATEDATE": "2018-02-18 01:46:17",
        "P_UPDATEDATE": "2018-02-18 01:46:17"
    },
    {
        "P_ELEMENT_ITEM_ID": "13001",
        "P_NAME": "\u5343\u91cf\u5e73\u7e54",
        "8Cx57oAk": "\u5343\u91cf\u5e73\u7e54",
        "P_RARE": "3",
        "P_DISPORDER": "14001",
        "CA7uXs6D": "99",
        "P_DISP_DICTIONARY": "0",
        "P_ICON_ID": "701",
        "60IsqxDt": "1",
        "o7e4HXMP": "1,1,0,1,0,1,0,0",
        "P_DOUBLE_SPHERE_TRIGGER": "0,0,0,0",
        "P_DICTIONARY_NO": "1",
        "P_DICTIONARY_BG": "48",
        "P_NEED_SWITCH_INFO": "0",
        "P_HIDE_SWITCH_INFO": "0",
        "P_OPEN_SWITCH_INFO": "0",
        "P_CREATEDATE": "2018-02-18 01:46:17",
        "P_UPDATEDATE": "2018-02-18 01:46:17"
    },
    {
        "P_ELEMENT_ITEM_ID": "14000",
        "P_NAME": "\u30b5\u30af\u6750",
        "8Cx57oAk": "\u30b5\u30af\u6750",
        "P_RARE": "2",
        "P_DISPORDER": "15000",
        "CA7uXs6D": "99",
        "P_DISP_DICTIONARY": "0",
        "P_ICON_ID": "750",
        "60IsqxDt": "1",
        "o7e4HXMP": "1,1,0,1,0,1,0,0",
        "P_DOUBLE_SPHERE_TRIGGER": "0,0,0,0",
        "P_DICTIONARY_NO": "1",
        "P_DICTIONARY_BG": "49",
        "P_NEED_SWITCH_INFO": "0",
        "P_HIDE_SWITCH_INFO": "0",
        "P_OPEN_SWITCH_INFO": "0",
        "P_CREATEDATE": "2018-02-18 01:46:17",
        "P_UPDATEDATE": "2018-02-18 01:46:17"
    },
    {
        "P_ELEMENT_ITEM_ID": "14001",
        "P_NAME": "\u30d0\u30cf\u6750",
        "8Cx57oAk": "\u30d0\u30cf\u6750",
        "P_RARE": "3",
        "P_DISPORDER": "15001",
        "CA7uXs6D": "99",
        "P_DISP_DICTIONARY": "0",
        "P_ICON_ID": "751",
        "60IsqxDt": "1",
        "o7e4HXMP": "1,1,0,1,0,1,0,0",
        "P_DOUBLE_SPHERE_TRIGGER": "0,0,0,0",
        "P_DICTIONARY_NO": "1",
        "P_DICTIONARY_BG": "50",
        "P_NEED_SWITCH_INFO": "0",
        "P_HIDE_SWITCH_INFO": "0",
        "P_OPEN_SWITCH_INFO": "0",
        "P_CREATEDATE": "2018-02-18 01:46:17",
        "P_UPDATEDATE": "2018-02-18 01:46:17"
    },
    {
        "P_ELEMENT_ITEM_ID": "15000",
        "P_NAME": "\u6ce2\u52d5\u7149\u77f3",
        "8Cx57oAk": "\u6ce2\u52d5\u7149\u77f3",
        "P_RARE": "4",
        "P_DISPORDER": "16000",
        "CA7uXs6D": "99",
        "P_DISP_DICTIONARY": "1",
        "P_ICON_ID": "800",
        "60IsqxDt": "1",
        "o7e4HXMP": "1,1,0,1,0,1,0,0",
        "P_DOUBLE_SPHERE_TRIGGER": "0,0,0,0",
        "P_DICTIONARY_NO": "1",
        "P_DICTIONARY_BG": "51",
        "P_NEED_SWITCH_INFO": "0",
        "P_HIDE_SWITCH_INFO": "0",
        "P_OPEN_SWITCH_INFO": "0",
        "P_CREATEDATE": "2018-02-18 01:46:17",
        "P_UPDATEDATE": "2018-02-18 01:46:17"
    },
    {
        "P_ELEMENT_ITEM_ID": "15001",
        "P_NAME": "\u6ce2\u7d0b\u7149\u77f3",
        "8Cx57oAk": "\u6ce2\u7d0b\u7149\u77f3",
        "P_RARE": "5",
        "P_DISPORDER": "16001",
        "CA7uXs6D": "99",
        "P_DISP_DICTIONARY": "1",
        "P_ICON_ID": "801",
        "60IsqxDt": "1",
        "o7e4HXMP": "1,1,0,1,0,1,0,0",
        "P_DOUBLE_SPHERE_TRIGGER": "0,0,0,0",
        "P_DICTIONARY_NO": "1",
        "P_DICTIONARY_BG": "52",
        "P_NEED_SWITCH_INFO": "0",
        "P_HIDE_SWITCH_INFO": "0",
        "P_OPEN_SWITCH_INFO": "0",
        "P_CREATEDATE": "2018-02-18 01:46:17",
        "P_UPDATEDATE": "2018-02-18 01:46:17"
    },
    {
        "P_ELEMENT_ITEM_ID": "16000",
        "P_NAME": "\u8abf\u6cd5\u8089",
        "8Cx57oAk": "\u8abf\u6cd5\u8089",
        "P_RARE": "1",
        "P_DISPORDER": "12000",
        "CA7uXs6D": "99",
        "P_DISP_DICTIONARY": "0",
        "P_ICON_ID": "852",
        "60IsqxDt": "1",
        "o7e4HXMP": "1,0,0,0,0,0,0,0",
        "P_DOUBLE_SPHERE_TRIGGER": "0,0,0,0",
        "P_DICTIONARY_NO": "1",
        "P_DICTIONARY_BG": "53",
        "P_NEED_SWITCH_INFO": "0",
        "P_HIDE_SWITCH_INFO": "0",
        "P_OPEN_SWITCH_INFO": "0",
        "P_CREATEDATE": "2018-02-18 01:46:17",
        "P_UPDATEDATE": "2018-02-18 01:46:17"
    },
    {
        "P_ELEMENT_ITEM_ID": "16001",
        "P_NAME": "\u6ecb\u990a\u8089",
        "8Cx57oAk": "\u6ecb\u990a\u8089",
        "P_RARE": "2",
        "P_DISPORDER": "12001",
        "CA7uXs6D": "99",
        "P_DISP_DICTIONARY": "0",
        "P_ICON_ID": "851",
        "60IsqxDt": "1",
        "o7e4HXMP": "1,0,0,0,0,0,0,0",
        "P_DOUBLE_SPHERE_TRIGGER": "0,0,0,0",
        "P_DICTIONARY_NO": "1",
        "P_DICTIONARY_BG": "54",
        "P_NEED_SWITCH_INFO": "0",
        "P_HIDE_SWITCH_INFO": "0",
        "P_OPEN_SWITCH_INFO": "0",
        "P_CREATEDATE": "2018-02-18 01:46:17",
        "P_UPDATEDATE": "2018-02-18 01:46:17"
    },
    {
        "P_ELEMENT_ITEM_ID": "16002",
        "P_NAME": "\u5f37\u58ee\u8089",
        "8Cx57oAk": "\u5f37\u58ee\u8089",
        "P_RARE": "3",
        "P_DISPORDER": "12002",
        "CA7uXs6D": "99",
        "P_DISP_DICTIONARY": "0",
        "P_ICON_ID": "850",
        "60IsqxDt": "1",
        "o7e4HXMP": "1,0,0,0,0,0,0,0",
        "P_DOUBLE_SPHERE_TRIGGER": "0,0,0,0",
        "P_DICTIONARY_NO": "1",
        "P_DICTIONARY_BG": "55",
        "P_NEED_SWITCH_INFO": "0",
        "P_HIDE_SWITCH_INFO": "0",
        "P_OPEN_SWITCH_INFO": "0",
        "P_CREATEDATE": "2018-02-18 01:46:17",
        "P_UPDATEDATE": "2018-02-18 01:46:17"
    },
    {
        "P_ELEMENT_ITEM_ID": "20000",
        "P_NAME": "\u661f\u796d\u8349",
        "8Cx57oAk": "\u661f\u796d\u8349",
        "P_RARE": "3",
        "P_DISPORDER": "20000",
        "CA7uXs6D": "99",
        "P_DISP_DICTIONARY": "0",
        "P_ICON_ID": "105",
        "60IsqxDt": "1",
        "o7e4HXMP": "0,0,0,1,0,0,0,0",
        "P_DOUBLE_SPHERE_TRIGGER": "0,0,0,0",
        "P_DICTIONARY_NO": "1",
        "P_DICTIONARY_BG": "56",
        "P_NEED_SWITCH_INFO": "0",
        "P_HIDE_SWITCH_INFO": "0",
        "P_OPEN_SWITCH_INFO": "0",
        "P_CREATEDATE": "2018-02-18 01:46:17",
        "P_UPDATEDATE": "2018-02-18 01:46:17"
    },
    {
        "P_ELEMENT_ITEM_ID": "20001",
        "P_NAME": "\u30b8\u30b0\u306e\u5b9f",
        "8Cx57oAk": "\u30b8\u30b0\u306e\u5b9f",
        "P_RARE": "3",
        "P_DISPORDER": "20001",
        "CA7uXs6D": "99",
        "P_DISP_DICTIONARY": "0",
        "P_ICON_ID": "205",
        "60IsqxDt": "1",
        "o7e4HXMP": "0,0,0,1,0,0,0,0",
        "P_DOUBLE_SPHERE_TRIGGER": "0,0,0,0",
        "P_DICTIONARY_NO": "1",
        "P_DICTIONARY_BG": "57",
        "P_NEED_SWITCH_INFO": "0",
        "P_HIDE_SWITCH_INFO": "0",
        "P_OPEN_SWITCH_INFO": "0",
        "P_CREATEDATE": "2018-02-18 01:46:17",
        "P_UPDATEDATE": "2018-02-18 01:46:17"
    },
    {
        "P_ELEMENT_ITEM_ID": "20002",
        "P_NAME": "\u6ec5\u3073\u306e\u773c",
        "8Cx57oAk": "\u6ec5\u3073\u306e\u773c",
        "P_RARE": "3",
        "P_DISPORDER": "20002",
        "CA7uXs6D": "99",
        "P_DISP_DICTIONARY": "0",
        "P_ICON_ID": "405",
        "60IsqxDt": "1",
        "o7e4HXMP": "0,0,0,1,0,0,0,0",
        "P_DOUBLE_SPHERE_TRIGGER": "0,0,0,0",
        "P_DICTIONARY_NO": "1",
        "P_DICTIONARY_BG": "58",
        "P_NEED_SWITCH_INFO": "0",
        "P_HIDE_SWITCH_INFO": "0",
        "P_OPEN_SWITCH_INFO": "0",
        "P_CREATEDATE": "2018-02-18 01:46:17",
        "P_UPDATEDATE": "2018-02-18 01:46:17"
    },
    {
        "P_ELEMENT_ITEM_ID": "20003",
        "P_NAME": "\u9ec4\u660f\u306e\u96eb",
        "8Cx57oAk": "\u9ec4\u660f\u306e\u96eb",
        "P_RARE": "3",
        "P_DISPORDER": "20003",
        "CA7uXs6D": "99",
        "P_DISP_DICTIONARY": "0",
        "P_ICON_ID": "255",
        "60IsqxDt": "1",
        "o7e4HXMP": "0,0,0,1,0,0,0,0",
        "P_DOUBLE_SPHERE_TRIGGER": "0,0,0,0",
        "P_DICTIONARY_NO": "1",
        "P_DICTIONARY_BG": "59",
        "P_NEED_SWITCH_INFO": "0",
        "P_HIDE_SWITCH_INFO": "0",
        "P_OPEN_SWITCH_INFO": "0",
        "P_CREATEDATE": "2018-02-18 01:46:17",
        "P_UPDATEDATE": "2018-02-18 01:46:17"
    },
    {
        "P_ELEMENT_ITEM_ID": "20004",
        "P_NAME": "\u7940\u9053\u546a\u9aa8",
        "8Cx57oAk": "\u7940\u9053\u546a\u9aa8",
        "P_RARE": "3",
        "P_DISPORDER": "20004",
        "CA7uXs6D": "99",
        "P_DISP_DICTIONARY": "0",
        "P_ICON_ID": "505",
        "60IsqxDt": "1",
        "o7e4HXMP": "0,0,0,1,0,0,0,0",
        "P_DOUBLE_SPHERE_TRIGGER": "0,0,0,0",
        "P_DICTIONARY_NO": "1",
        "P_DICTIONARY_BG": "60",
        "P_NEED_SWITCH_INFO": "0",
        "P_HIDE_SWITCH_INFO": "0",
        "P_OPEN_SWITCH_INFO": "0",
        "P_CREATEDATE": "2018-02-18 01:46:17",
        "P_UPDATEDATE": "2018-02-18 01:46:17"
    },
    {
        "P_ELEMENT_ITEM_ID": "20005",
        "P_NAME": "\u8056\u523b\u5fa1\u77f3",
        "8Cx57oAk": "\u8056\u523b\u5fa1\u77f3",
        "P_RARE": "3",
        "P_DISPORDER": "20005",
        "CA7uXs6D": "99",
        "P_DISP_DICTIONARY": "0",
        "P_ICON_ID": "555",
        "60IsqxDt": "1",
        "o7e4HXMP": "0,0,0,1,0,0,0,0",
        "P_DOUBLE_SPHERE_TRIGGER": "0,0,0,0",
        "P_DICTIONARY_NO": "1",
        "P_DICTIONARY_BG": "61",
        "P_NEED_SWITCH_INFO": "0",
        "P_HIDE_SWITCH_INFO": "0",
        "P_OPEN_SWITCH_INFO": "0",
        "P_CREATEDATE": "2018-02-18 01:46:17",
        "P_UPDATEDATE": "2018-02-18 01:46:17"
    },
    {
        "P_ELEMENT_ITEM_ID": "20006",
        "P_NAME": "\u4e07\u4e16\u306e\u7fbd",
        "8Cx57oAk": "\u4e07\u4e16\u306e\u7fbd",
        "P_RARE": "3",
        "P_DISPORDER": "20006",
        "CA7uXs6D": "99",
        "P_DISP_DICTIONARY": "0",
        "P_ICON_ID": "155",
        "60IsqxDt": "1",
        "o7e4HXMP": "0,0,0,1,0,0,0,0",
        "P_DOUBLE_SPHERE_TRIGGER": "0,0,0,0",
        "P_DICTIONARY_NO": "1",
        "P_DICTIONARY_BG": "62",
        "P_NEED_SWITCH_INFO": "0",
        "P_HIDE_SWITCH_INFO": "0",
        "P_OPEN_SWITCH_INFO": "0",
        "P_CREATEDATE": "2018-02-18 01:46:17",
        "P_UPDATEDATE": "2018-02-18 01:46:17"
    },
    {
        "P_ELEMENT_ITEM_ID": "30000",
        "P_NAME": "\u5bb5\u73bb\u7483",
        "8Cx57oAk": "\u5bb5\u73bb\u7483",
        "P_RARE": "5",
        "P_DISPORDER": "30000",
        "CA7uXs6D": "99",
        "P_DISP_DICTIONARY": "1",
        "P_ICON_ID": "805",
        "60IsqxDt": "1",
        "o7e4HXMP": "0,0,0,1,0,0,0,0",
        "P_DOUBLE_SPHERE_TRIGGER": "0,0,0,0",
        "P_DICTIONARY_NO": "1",
        "P_DICTIONARY_BG": "63",
        "P_NEED_SWITCH_INFO": "0",
        "P_HIDE_SWITCH_INFO": "0",
        "P_OPEN_SWITCH_INFO": "0",
        "P_CREATEDATE": "2018-02-18 01:46:17",
        "P_UPDATEDATE": "2018-02-18 01:46:17"
    },
    {
        "P_ELEMENT_ITEM_ID": "30011",
        "P_NAME": "\u30d0\u30fc\u30b9\u30c8\u30af\u30c3\u30ad\u30fc",
        "8Cx57oAk": "\u30af\u30c3\u30ad\u30fc",
        "P_RARE": "5",
        "P_DISPORDER": "30011",
        "CA7uXs6D": "99",
        "P_DISP_DICTIONARY": "2",
        "P_ICON_ID": "16",
        "60IsqxDt": "1",
        "o7e4HXMP": "0,0,0,0,0,0,1,0",
        "P_DOUBLE_SPHERE_TRIGGER": "0,0,0,0",
        "P_DICTIONARY_NO": "1",
        "P_DICTIONARY_BG": "1",
        "P_NEED_SWITCH_INFO": "0",
        "P_HIDE_SWITCH_INFO": "0",
        "P_OPEN_SWITCH_INFO": "0",
        "P_CREATEDATE": "2018-02-18 01:46:16",
        "P_UPDATEDATE": "2018-02-18 01:46:16"
    }
]