[
    {
        "6DRC7MPk": "1",
        "aSJp1i9m": "1",
        "P_SCENE_PARAM": "101",
        "NH65Wj0f": "1",
        "usyxZ0f6": "1",
        "P_PRIORITY": "1",
        "P_NEED_SWITCH_INFO": "",
        "P_HIDE_SWITCH_INFO": "10000148",
        "P_SCHEDULE_ID": "0",
        "P_CREATEDATE": "2017-12-12 16:18:33",
        "P_UPDATEDATE": "2017-12-12 16:18:33"
    },
    {
        "6DRC7MPk": "2",
        "aSJp1i9m": "1",
        "P_SCENE_PARAM": "102",
        "NH65Wj0f": "1",
        "usyxZ0f6": "1",
        "P_PRIORITY": "1",
        "P_NEED_SWITCH_INFO": "",
        "P_HIDE_SWITCH_INFO": "10000148",
        "P_SCHEDULE_ID": "0",
        "P_CREATEDATE": "2017-12-12 16:18:33",
        "P_UPDATEDATE": "2017-12-12 16:18:33"
    },
    {
        "6DRC7MPk": "3",
        "aSJp1i9m": "1",
        "P_SCENE_PARAM": "103",
        "NH65Wj0f": "1",
        "usyxZ0f6": "2",
        "P_PRIORITY": "1",
        "P_NEED_SWITCH_INFO": "",
        "P_HIDE_SWITCH_INFO": "10000148",
        "P_SCHEDULE_ID": "0",
        "P_CREATEDATE": "2017-12-12 16:18:33",
        "P_UPDATEDATE": "2017-12-12 16:18:33"
    },
    {
        "6DRC7MPk": "4",
        "aSJp1i9m": "1",
        "P_SCENE_PARAM": "104",
        "NH65Wj0f": "1",
        "usyxZ0f6": "2",
        "P_PRIORITY": "1",
        "P_NEED_SWITCH_INFO": "",
        "P_HIDE_SWITCH_INFO": "10000148",
        "P_SCHEDULE_ID": "0",
        "P_CREATEDATE": "2017-12-12 16:18:33",
        "P_UPDATEDATE": "2017-12-12 16:18:33"
    },
    {
        "6DRC7MPk": "5",
        "aSJp1i9m": "1",
        "P_SCENE_PARAM": "105",
        "NH65Wj0f": "1",
        "usyxZ0f6": "1",
        "P_PRIORITY": "1",
        "P_NEED_SWITCH_INFO": "",
        "P_HIDE_SWITCH_INFO": "10000148",
        "P_SCHEDULE_ID": "0",
        "P_CREATEDATE": "2017-12-12 16:18:33",
        "P_UPDATEDATE": "2017-12-12 16:18:33"
    }
]