[
    {
        "c3prn4s7": "111",
        "P_SKILL_NAME": "\u30d1\u30c3\u30b7\u30d6\u30b9\u30ad\u30eb\u30b0\u30eb\u30fc\u30d7\uff11",
        "moWQ30GH": "2",
        "PEVks0h8": "",
        "E19X6kmB": "1001001,1101001",
        "X4mIT5Lc": "0",
        "P_EXT_IMG_PARAM": "",
        "P_CREATEDATE": "2018-01-25 17:54:39",
        "P_UPDATEDATE": "2018-01-25 17:54:39"
    },
    {
        "c3prn4s7": "222",
        "P_SKILL_NAME": "\u30d1\u30c3\u30b7\u30d6\u30b9\u30ad\u30eb\u30b0\u30eb\u30fc\u30d7\uff11\uff12",
        "moWQ30GH": "2",
        "PEVks0h8": "1:10112",
        "E19X6kmB": "1001002",
        "X4mIT5Lc": "0",
        "P_EXT_IMG_PARAM": "",
        "P_CREATEDATE": "2018-01-25 17:54:39",
        "P_UPDATEDATE": "2018-01-25 17:54:39"
    },
    {
        "c3prn4s7": "333",
        "P_SKILL_NAME": "\u30d1\u30c3\u30b7\u30d6\u30b9\u30ad\u30eb\u30b0\u30eb\u30fc\u30d7\uff11\uff12\uff13",
        "moWQ30GH": "2",
        "PEVks0h8": "2:10111,2:10113",
        "E19X6kmB": "1001003",
        "X4mIT5Lc": "0",
        "P_EXT_IMG_PARAM": "",
        "P_CREATEDATE": "2018-01-25 17:54:39",
        "P_UPDATEDATE": "2018-01-25 17:54:39"
    },
    {
        "c3prn4s7": "444",
        "P_SKILL_NAME": "\u30d1\u30c3\u30b7\u30d6\u30b9\u30ad\u30eb\u30b0\u30eb\u30fc\u30d7\uff11\uff12\uff13\uff14",
        "moWQ30GH": "2",
        "PEVks0h8": "1:10114",
        "E19X6kmB": "1001004",
        "X4mIT5Lc": "0",
        "P_EXT_IMG_PARAM": "",
        "P_CREATEDATE": "2018-01-25 17:54:39",
        "P_UPDATEDATE": "2018-01-25 17:54:39"
    },
    {
        "c3prn4s7": "1000",
        "P_SKILL_NAME": "EX\u30b9\u30ad\u30eb_\u30df\u30d5\u30cd",
        "moWQ30GH": "3",
        "PEVks0h8": "1:10115",
        "E19X6kmB": "1019305",
        "X4mIT5Lc": "0",
        "P_EXT_IMG_PARAM": "",
        "P_CREATEDATE": "2018-01-25 17:54:40",
        "P_UPDATEDATE": "2018-01-25 17:54:40"
    },
    {
        "c3prn4s7": "1001",
        "P_SKILL_NAME": "EX\u30b9\u30ad\u30eb_\u30a8\u30eb\u30d5",
        "moWQ30GH": "3",
        "PEVks0h8": "1:10122",
        "E19X6kmB": "8016500",
        "X4mIT5Lc": "0",
        "P_EXT_IMG_PARAM": "",
        "P_CREATEDATE": "2018-01-25 17:54:40",
        "P_UPDATEDATE": "2018-01-25 17:54:40"
    },
    {
        "c3prn4s7": "1002",
        "P_SKILL_NAME": "EX\u30b9\u30ad\u30eb_\u30a8\u30eb\u30d5\u5973\u738b",
        "moWQ30GH": "3",
        "PEVks0h8": "1:10122",
        "E19X6kmB": "8016600",
        "X4mIT5Lc": "0",
        "P_EXT_IMG_PARAM": "",
        "P_CREATEDATE": "2018-01-25 17:54:40",
        "P_UPDATEDATE": "2018-01-25 17:54:40"
    },
    {
        "c3prn4s7": "1003",
        "P_SKILL_NAME": "EX\u30b9\u30ad\u30eb_\u30c0\u30fc\u30af",
        "moWQ30GH": "3",
        "PEVks0h8": "1:10122",
        "E19X6kmB": "8016700",
        "X4mIT5Lc": "0",
        "P_EXT_IMG_PARAM": "",
        "P_CREATEDATE": "2018-01-25 17:54:40",
        "P_UPDATEDATE": "2018-01-25 17:54:40"
    },
    {
        "c3prn4s7": "1004",
        "P_SKILL_NAME": "EX\u30b9\u30ad\u30eb_\u30cf\u30fc\u30d5\u7363",
        "moWQ30GH": "3",
        "PEVks0h8": "1:10121",
        "E19X6kmB": "2020000",
        "X4mIT5Lc": "0",
        "P_EXT_IMG_PARAM": "",
        "P_CREATEDATE": "2018-01-25 17:54:40",
        "P_UPDATEDATE": "2018-01-25 17:54:40"
    },
    {
        "c3prn4s7": "1005",
        "P_SKILL_NAME": "EX\u30b9\u30ad\u30eb_\u7363\u795e\u738b",
        "moWQ30GH": "3",
        "PEVks0h8": "1:10121",
        "E19X6kmB": "3020006",
        "X4mIT5Lc": "0",
        "P_EXT_IMG_PARAM": "",
        "P_CREATEDATE": "2018-01-25 17:54:40",
        "P_UPDATEDATE": "2018-01-25 17:54:40"
    },
    {
        "c3prn4s7": "1006",
        "P_SKILL_NAME": "EX\u30b9\u30ad\u30eb_\u56db\u8056\u708e\u5263\u58eb",
        "moWQ30GH": "3",
        "PEVks0h8": "1:10116",
        "E19X6kmB": "1001002",
        "X4mIT5Lc": "0",
        "P_EXT_IMG_PARAM": "",
        "P_CREATEDATE": "2018-01-25 17:54:40",
        "P_UPDATEDATE": "2018-01-25 17:54:40"
    },
    {
        "c3prn4s7": "1007",
        "P_SKILL_NAME": "EX\u30b9\u30ad\u30eb_\u56db\u8056\u7adc\u9a0e\u58eb",
        "moWQ30GH": "3",
        "PEVks0h8": "1:10116",
        "E19X6kmB": "1002002",
        "X4mIT5Lc": "0",
        "P_EXT_IMG_PARAM": "",
        "P_CREATEDATE": "2018-01-25 17:54:40",
        "P_UPDATEDATE": "2018-01-25 17:54:40"
    },
    {
        "c3prn4s7": "1008",
        "P_SKILL_NAME": "EX\u30b9\u30ad\u30eb_\u56db\u8056\u56de\u5fa9",
        "moWQ30GH": "3",
        "PEVks0h8": "1:10116",
        "E19X6kmB": "1003002",
        "X4mIT5Lc": "0",
        "P_EXT_IMG_PARAM": "",
        "P_CREATEDATE": "2018-01-25 17:54:40",
        "P_UPDATEDATE": "2018-01-25 17:54:40"
    },
    {
        "c3prn4s7": "1009",
        "P_SKILL_NAME": "EX\u30b9\u30ad\u30eb_\u56db\u8056\u683c\u95d8",
        "moWQ30GH": "3",
        "PEVks0h8": "1:10116",
        "E19X6kmB": "1004002",
        "X4mIT5Lc": "0",
        "P_EXT_IMG_PARAM": "",
        "P_CREATEDATE": "2018-01-25 17:54:40",
        "P_UPDATEDATE": "2018-01-25 17:54:40"
    },
    {
        "c3prn4s7": "1010",
        "P_SKILL_NAME": "EX\u30b9\u30ad\u30eb_\u5149\u738b",
        "moWQ30GH": "3",
        "PEVks0h8": "1:10117",
        "E19X6kmB": "5040007",
        "X4mIT5Lc": "0",
        "P_EXT_IMG_PARAM": "",
        "P_CREATEDATE": "2018-01-25 17:54:40",
        "P_UPDATEDATE": "2018-01-25 17:54:40"
    },
    {
        "c3prn4s7": "1011",
        "P_SKILL_NAME": "EX\u30b9\u30ad\u30eb_\u30ea\u30ea\u30b9\u5f0d",
        "moWQ30GH": "3",
        "PEVks0h8": "1:10123",
        "E19X6kmB": "4010001",
        "X4mIT5Lc": "0",
        "P_EXT_IMG_PARAM": "",
        "P_CREATEDATE": "2018-01-25 17:54:40",
        "P_UPDATEDATE": "2018-01-25 17:54:40"
    },
    {
        "c3prn4s7": "1012",
        "P_SKILL_NAME": "EX\u30b9\u30ad\u30eb_\u30ea\u30ea\u30b9\u521d",
        "moWQ30GH": "3",
        "PEVks0h8": "1:10123",
        "E19X6kmB": "2010001",
        "X4mIT5Lc": "0",
        "P_EXT_IMG_PARAM": "",
        "P_CREATEDATE": "2018-01-25 17:54:40",
        "P_UPDATEDATE": "2018-01-25 17:54:40"
    },
    {
        "c3prn4s7": "1013",
        "P_SKILL_NAME": "EX\u30b9\u30ad\u30eb_\u30ea\u30ea\u30b9",
        "moWQ30GH": "3",
        "PEVks0h8": "1:10123",
        "E19X6kmB": "3010000",
        "X4mIT5Lc": "0",
        "P_EXT_IMG_PARAM": "",
        "P_CREATEDATE": "2018-01-25 17:54:40",
        "P_UPDATEDATE": "2018-01-25 17:54:40"
    },
    {
        "c3prn4s7": "1014",
        "P_SKILL_NAME": "EX\u30b9\u30ad\u30eb_\u30df\u30bb\u30eb",
        "moWQ30GH": "3",
        "PEVks0h8": "1:10118",
        "E19X6kmB": "1001002",
        "X4mIT5Lc": "0",
        "P_EXT_IMG_PARAM": "",
        "P_CREATEDATE": "2018-01-25 17:54:40",
        "P_UPDATEDATE": "2018-01-25 17:54:40"
    },
    {
        "c3prn4s7": "1015",
        "P_SKILL_NAME": "EX\u30b9\u30ad\u30eb_\u30c6\u30a3\u30a2\u30e9",
        "moWQ30GH": "3",
        "PEVks0h8": "1:10118",
        "E19X6kmB": "1003002",
        "X4mIT5Lc": "0",
        "P_EXT_IMG_PARAM": "",
        "P_CREATEDATE": "2018-01-25 17:54:40",
        "P_UPDATEDATE": "2018-01-25 17:54:40"
    },
    {
        "c3prn4s7": "1016",
        "P_SKILL_NAME": "EX\u30b9\u30ad\u30eb_\u30bc\u30eb\u30d0\u30fc\u30f3",
        "moWQ30GH": "3",
        "PEVks0h8": "1:10118",
        "E19X6kmB": "1002002",
        "X4mIT5Lc": "0",
        "P_EXT_IMG_PARAM": "",
        "P_CREATEDATE": "2018-01-25 17:54:40",
        "P_UPDATEDATE": "2018-01-25 17:54:40"
    },
    {
        "c3prn4s7": "1017",
        "P_SKILL_NAME": "EX\u30b9\u30ad\u30eb_\u30ed\u30c7\u30a3\u30f3",
        "moWQ30GH": "3",
        "PEVks0h8": "1:10118",
        "E19X6kmB": "1001002",
        "X4mIT5Lc": "0",
        "P_EXT_IMG_PARAM": "",
        "P_CREATEDATE": "2018-01-25 17:54:40",
        "P_UPDATEDATE": "2018-01-25 17:54:40"
    },
    {
        "c3prn4s7": "1018",
        "P_SKILL_NAME": "EX\u30b9\u30ad\u30eb_DUEL",
        "moWQ30GH": "3",
        "PEVks0h8": "1:10118",
        "E19X6kmB": "1004002",
        "X4mIT5Lc": "0",
        "P_EXT_IMG_PARAM": "",
        "P_CREATEDATE": "2018-01-25 17:54:40",
        "P_UPDATEDATE": "2018-01-25 17:54:40"
    },
    {
        "c3prn4s7": "1019",
        "P_SKILL_NAME": "EX\u30b9\u30ad\u30eb_\u30b5\u30fc\u30b7\u30e3",
        "moWQ30GH": "3",
        "PEVks0h8": "1:10120",
        "E19X6kmB": "5080001",
        "X4mIT5Lc": "0",
        "P_EXT_IMG_PARAM": "",
        "P_CREATEDATE": "2018-01-25 17:54:40",
        "P_UPDATEDATE": "2018-01-25 17:54:40"
    },
    {
        "c3prn4s7": "1020",
        "P_SKILL_NAME": "EX\u30b9\u30ad\u30eb_\u30ed\u30a4",
        "moWQ30GH": "3",
        "PEVks0h8": "1:10119",
        "E19X6kmB": "10020000",
        "X4mIT5Lc": "0",
        "P_EXT_IMG_PARAM": "",
        "P_CREATEDATE": "2018-01-25 17:54:40",
        "P_UPDATEDATE": "2018-01-25 17:54:40"
    },
    {
        "c3prn4s7": "10010201",
        "P_SKILL_NAME": "\u30b9\u30ad\u30eb_\u7247\u624b\u5263\uff1a\u708e\u26053",
        "moWQ30GH": "3",
        "PEVks0h8": "",
        "E19X6kmB": "1001001",
        "X4mIT5Lc": "0",
        "P_EXT_IMG_PARAM": "",
        "P_CREATEDATE": "2018-01-25 17:54:39",
        "P_UPDATEDATE": "2018-01-25 17:54:39"
    },
    {
        "c3prn4s7": "10010210",
        "P_SKILL_NAME": "EX\u30b9\u30ad\u30eb_\u7247\u624b\u5263\uff1a\u708e\u2605\uff13",
        "moWQ30GH": "2",
        "PEVks0h8": "",
        "E19X6kmB": "1001001",
        "X4mIT5Lc": "0",
        "P_EXT_IMG_PARAM": "11:\u5168\u30e6\u30cb\u653b\u6483\u30a2\u30c3\u30d7\uff15\uff05",
        "P_CREATEDATE": "2018-01-25 17:54:40",
        "P_UPDATEDATE": "2018-01-25 17:54:40"
    },
    {
        "c3prn4s7": "10011301",
        "P_SKILL_NAME": "\u30b9\u30ad\u30eb_\u7247\u624b\u5263\uff1a\u708e\u26054",
        "moWQ30GH": "3",
        "PEVks0h8": "",
        "E19X6kmB": "1001002",
        "X4mIT5Lc": "0",
        "P_EXT_IMG_PARAM": "",
        "P_CREATEDATE": "2018-01-25 17:54:39",
        "P_UPDATEDATE": "2018-01-25 17:54:39"
    },
    {
        "c3prn4s7": "10011310",
        "P_SKILL_NAME": "EX\u30b9\u30ad\u30eb_\u7247\u624b\u5263\uff1a\u708e\u2605\uff14",
        "moWQ30GH": "2",
        "PEVks0h8": "",
        "E19X6kmB": "1001002",
        "X4mIT5Lc": "0",
        "P_EXT_IMG_PARAM": "12:\u5168\u30e6\u30cb\u653b\u6483\u30a2\u30c3\u30d7\uff11\uff10\uff05",
        "P_CREATEDATE": "2018-01-25 17:54:40",
        "P_UPDATEDATE": "2018-01-25 17:54:40"
    },
    {
        "c3prn4s7": "10012401",
        "P_SKILL_NAME": "\u30b9\u30ad\u30eb_\u7247\u624b\u5263\uff1a\u708e\u26055",
        "moWQ30GH": "3",
        "PEVks0h8": "",
        "E19X6kmB": "1001003",
        "X4mIT5Lc": "0",
        "P_EXT_IMG_PARAM": "",
        "P_CREATEDATE": "2018-01-25 17:54:39",
        "P_UPDATEDATE": "2018-01-25 17:54:39"
    },
    {
        "c3prn4s7": "10012402",
        "P_SKILL_NAME": "\u30b9\u30ad\u30eb_\u7247\u624b\u5263\uff1a\u708e\u26055_2",
        "moWQ30GH": "3",
        "PEVks0h8": "",
        "E19X6kmB": "1001004",
        "X4mIT5Lc": "0",
        "P_EXT_IMG_PARAM": "",
        "P_CREATEDATE": "2018-01-25 17:54:39",
        "P_UPDATEDATE": "2018-01-25 17:54:39"
    },
    {
        "c3prn4s7": "10012410",
        "P_SKILL_NAME": "EX\u30b9\u30ad\u30eb_\u7247\u624b\u5263\uff1a\u708e\u2605\uff15",
        "moWQ30GH": "2",
        "PEVks0h8": "",
        "E19X6kmB": "1001003",
        "X4mIT5Lc": "0",
        "P_EXT_IMG_PARAM": "13:\u5168\u30e6\u30cb\u653b\u6483\u30a2\u30c3\u30d7\uff11\uff15\uff05",
        "P_CREATEDATE": "2018-01-25 17:54:40",
        "P_UPDATEDATE": "2018-01-25 17:54:40"
    },
    {
        "c3prn4s7": "10021401",
        "P_SKILL_NAME": "\u30b9\u30ad\u30eb_\u938c\uff1a\u708e\u26055",
        "moWQ30GH": "3",
        "PEVks0h8": "",
        "E19X6kmB": "3020006",
        "X4mIT5Lc": "0",
        "P_EXT_IMG_PARAM": "",
        "P_CREATEDATE": "2018-01-25 17:54:40",
        "P_UPDATEDATE": "2018-01-25 17:54:40"
    },
    {
        "c3prn4s7": "10021402",
        "P_SKILL_NAME": "\u30b9\u30ad\u30eb_\u938c\uff1a\u708e\u26055_2",
        "moWQ30GH": "3",
        "PEVks0h8": "",
        "E19X6kmB": "3020008",
        "X4mIT5Lc": "0",
        "P_EXT_IMG_PARAM": "",
        "P_CREATEDATE": "2018-01-25 17:54:40",
        "P_UPDATEDATE": "2018-01-25 17:54:40"
    },
    {
        "c3prn4s7": "10021410",
        "P_SKILL_NAME": "EX\u30b9\u30ad\u30eb_\u938c\uff1a\u708e\u2605\uff15",
        "moWQ30GH": "2",
        "PEVks0h8": "",
        "E19X6kmB": "1001001",
        "X4mIT5Lc": "0",
        "P_EXT_IMG_PARAM": "12:\u5168\u30e6\u30cb\u653b\u6483\u30a2\u30c3\u30d7\uff15\uff05",
        "P_CREATEDATE": "2018-01-25 17:54:40",
        "P_UPDATEDATE": "2018-01-25 17:54:40"
    },
    {
        "c3prn4s7": "10031301",
        "P_SKILL_NAME": "\u30b9\u30ad\u30eb_\u4e09\u7bc0\u68cd\uff1a\u708e\u26054",
        "moWQ30GH": "3",
        "PEVks0h8": "",
        "E19X6kmB": "1005002",
        "X4mIT5Lc": "0",
        "P_EXT_IMG_PARAM": "",
        "P_CREATEDATE": "2018-01-25 17:54:40",
        "P_UPDATEDATE": "2018-01-25 17:54:40"
    },
    {
        "c3prn4s7": "10031310",
        "P_SKILL_NAME": "EX\u30b9\u30ad\u30eb_\u4e09\u7bc0\u68cd\uff1a\u708e\u2605\uff14",
        "moWQ30GH": "2",
        "PEVks0h8": "",
        "E19X6kmB": "1001001",
        "X4mIT5Lc": "0",
        "P_EXT_IMG_PARAM": "9:\u5168\u30e6\u30cb\u653b\u6483\u30a2\u30c3\u30d7\uff15\uff05",
        "P_CREATEDATE": "2018-01-25 17:54:40",
        "P_UPDATEDATE": "2018-01-25 17:54:40"
    },
    {
        "c3prn4s7": "10031401",
        "P_SKILL_NAME": "\u30b9\u30ad\u30eb_\u4e09\u7bc0\u68cd\uff1a\u708e\u26055",
        "moWQ30GH": "3",
        "PEVks0h8": "",
        "E19X6kmB": "1005003",
        "X4mIT5Lc": "0",
        "P_EXT_IMG_PARAM": "",
        "P_CREATEDATE": "2018-01-25 17:54:40",
        "P_UPDATEDATE": "2018-01-25 17:54:40"
    },
    {
        "c3prn4s7": "10031402",
        "P_SKILL_NAME": "\u30b9\u30ad\u30eb_\u4e09\u7bc0\u68cd\uff1a\u708e\u26055_2",
        "moWQ30GH": "3",
        "PEVks0h8": "",
        "E19X6kmB": "1017034",
        "X4mIT5Lc": "0",
        "P_EXT_IMG_PARAM": "",
        "P_CREATEDATE": "2018-01-25 17:54:40",
        "P_UPDATEDATE": "2018-01-25 17:54:40"
    },
    {
        "c3prn4s7": "10031410",
        "P_SKILL_NAME": "EX\u30b9\u30ad\u30eb_\u4e09\u7bc0\u68cd\uff1a\u708e\u2605\uff15",
        "moWQ30GH": "2",
        "PEVks0h8": "",
        "E19X6kmB": "1001001",
        "X4mIT5Lc": "0",
        "P_EXT_IMG_PARAM": "10:\u5168\u30e6\u30cb\u653b\u6483\u30a2\u30c3\u30d7\uff15\uff05",
        "P_CREATEDATE": "2018-01-25 17:54:40",
        "P_UPDATEDATE": "2018-01-25 17:54:40"
    },
    {
        "c3prn4s7": "20016401",
        "P_SKILL_NAME": "\u30b9\u30ad\u30eb_\u69cd\uff06\u93a7\u76fe\uff1a\u6c34\u26055",
        "moWQ30GH": "3",
        "PEVks0h8": "",
        "E19X6kmB": "1009002",
        "X4mIT5Lc": "0",
        "P_EXT_IMG_PARAM": "",
        "P_CREATEDATE": "2018-01-25 17:54:39",
        "P_UPDATEDATE": "2018-01-25 17:54:39"
    },
    {
        "c3prn4s7": "20016402",
        "P_SKILL_NAME": "\u30b9\u30ad\u30eb_\u69cd\uff06\u93a7\u76fe\uff1a\u6c34\u26055_2",
        "moWQ30GH": "3",
        "PEVks0h8": "",
        "E19X6kmB": "1009003",
        "X4mIT5Lc": "0",
        "P_EXT_IMG_PARAM": "",
        "P_CREATEDATE": "2018-01-25 17:54:39",
        "P_UPDATEDATE": "2018-01-25 17:54:39"
    },
    {
        "c3prn4s7": "20016410",
        "P_SKILL_NAME": "EX\u30b9\u30ad\u30eb_\u69cd\uff06\u93a7\u76fe\uff1a\u6c34\u2605\uff15",
        "moWQ30GH": "2",
        "PEVks0h8": "",
        "E19X6kmB": "1001001",
        "X4mIT5Lc": "0",
        "P_EXT_IMG_PARAM": "5:\u5168\u30e6\u30cb\u653b\u6483\u30a2\u30c3\u30d7\uff15\uff05",
        "P_CREATEDATE": "2018-01-25 17:54:40",
        "P_UPDATEDATE": "2018-01-25 17:54:40"
    },
    {
        "c3prn4s7": "20017201",
        "P_SKILL_NAME": "\u30b9\u30ad\u30eb_\u6756\uff1a\u6c34\u26053",
        "moWQ30GH": "3",
        "PEVks0h8": "",
        "E19X6kmB": "1003001",
        "X4mIT5Lc": "0",
        "P_EXT_IMG_PARAM": "",
        "P_CREATEDATE": "2018-01-25 17:54:39",
        "P_UPDATEDATE": "2018-01-25 17:54:39"
    },
    {
        "c3prn4s7": "20017202",
        "P_SKILL_NAME": "\u30b9\u30ad\u30eb_\u6756\uff1a\u6c34\u26053_2",
        "moWQ30GH": "3",
        "PEVks0h8": "",
        "E19X6kmB": "8016100",
        "X4mIT5Lc": "0",
        "P_EXT_IMG_PARAM": "",
        "P_CREATEDATE": "2018-01-25 17:54:39",
        "P_UPDATEDATE": "2018-01-25 17:54:39"
    },
    {
        "c3prn4s7": "20017210",
        "P_SKILL_NAME": "EX\u30b9\u30ad\u30eb_\u6756\uff1a\u6c34\u2605\uff13",
        "moWQ30GH": "2",
        "PEVks0h8": "",
        "E19X6kmB": "1001001",
        "X4mIT5Lc": "0",
        "P_EXT_IMG_PARAM": "6:\u5168\u30e6\u30cb\u653b\u6483\u30a2\u30c3\u30d7\uff15\uff05",
        "P_CREATEDATE": "2018-01-25 17:54:40",
        "P_UPDATEDATE": "2018-01-25 17:54:40"
    },
    {
        "c3prn4s7": "20017301",
        "P_SKILL_NAME": "\u30b9\u30ad\u30eb_\u6756\uff1a\u6c34\u26054",
        "moWQ30GH": "3",
        "PEVks0h8": "",
        "E19X6kmB": "1003002",
        "X4mIT5Lc": "0",
        "P_EXT_IMG_PARAM": "",
        "P_CREATEDATE": "2018-01-25 17:54:39",
        "P_UPDATEDATE": "2018-01-25 17:54:39"
    },
    {
        "c3prn4s7": "20017302",
        "P_SKILL_NAME": "\u30b9\u30ad\u30eb_\u6756\uff1a\u6c34\u26054_2",
        "moWQ30GH": "3",
        "PEVks0h8": "",
        "E19X6kmB": "8016200",
        "X4mIT5Lc": "0",
        "P_EXT_IMG_PARAM": "",
        "P_CREATEDATE": "2018-01-25 17:54:39",
        "P_UPDATEDATE": "2018-01-25 17:54:39"
    },
    {
        "c3prn4s7": "20017310",
        "P_SKILL_NAME": "EX\u30b9\u30ad\u30eb_\u6756\uff1a\u6c34\u2605\uff14",
        "moWQ30GH": "2",
        "PEVks0h8": "",
        "E19X6kmB": "1001001",
        "X4mIT5Lc": "0",
        "P_EXT_IMG_PARAM": "7:\u5168\u30e6\u30cb\u653b\u6483\u30a2\u30c3\u30d7\uff15\uff05",
        "P_CREATEDATE": "2018-01-25 17:54:40",
        "P_UPDATEDATE": "2018-01-25 17:54:40"
    },
    {
        "c3prn4s7": "20017401",
        "P_SKILL_NAME": "\u30b9\u30ad\u30eb_\u6756\uff1a\u6c34\u26055",
        "moWQ30GH": "3",
        "PEVks0h8": "",
        "E19X6kmB": "1003003",
        "X4mIT5Lc": "0",
        "P_EXT_IMG_PARAM": "",
        "P_CREATEDATE": "2018-01-25 17:54:39",
        "P_UPDATEDATE": "2018-01-25 17:54:39"
    },
    {
        "c3prn4s7": "20017402",
        "P_SKILL_NAME": "\u30b9\u30ad\u30eb_\u6756\uff1a\u6c34\u26055_2",
        "moWQ30GH": "3",
        "PEVks0h8": "",
        "E19X6kmB": "8016300",
        "X4mIT5Lc": "0",
        "P_EXT_IMG_PARAM": "",
        "P_CREATEDATE": "2018-01-25 17:54:40",
        "P_UPDATEDATE": "2018-01-25 17:54:40"
    },
    {
        "c3prn4s7": "20017403",
        "P_SKILL_NAME": "\u30b9\u30ad\u30eb_\u6756\uff1a\u6c34\u26055_3",
        "moWQ30GH": "3",
        "PEVks0h8": "",
        "E19X6kmB": "1003004",
        "X4mIT5Lc": "0",
        "P_EXT_IMG_PARAM": "",
        "P_CREATEDATE": "2018-01-25 17:54:40",
        "P_UPDATEDATE": "2018-01-25 17:54:40"
    },
    {
        "c3prn4s7": "20017410",
        "P_SKILL_NAME": "EX\u30b9\u30ad\u30eb_\u6756\uff1a\u6c34\u2605\uff15",
        "moWQ30GH": "2",
        "PEVks0h8": "",
        "E19X6kmB": "1001001",
        "X4mIT5Lc": "0",
        "P_EXT_IMG_PARAM": "8:\u5168\u30e6\u30cb\u653b\u6483\u30a2\u30c3\u30d7\uff15\uff05",
        "P_CREATEDATE": "2018-01-25 17:54:40",
        "P_UPDATEDATE": "2018-01-25 17:54:40"
    },
    {
        "c3prn4s7": "20032201",
        "P_SKILL_NAME": "\u30b9\u30ad\u30eb_\u77ed\u5263\uff1a\u6c34\u26053",
        "moWQ30GH": "3",
        "PEVks0h8": "",
        "E19X6kmB": "2020001",
        "X4mIT5Lc": "0",
        "P_EXT_IMG_PARAM": "",
        "P_CREATEDATE": "2018-01-25 17:54:40",
        "P_UPDATEDATE": "2018-01-25 17:54:40"
    },
    {
        "c3prn4s7": "20032210",
        "P_SKILL_NAME": "EX\u30b9\u30ad\u30eb_\u77ed\u5263\uff1a\u6c34\u2605\uff13",
        "moWQ30GH": "2",
        "PEVks0h8": "",
        "E19X6kmB": "1001001",
        "X4mIT5Lc": "0",
        "P_EXT_IMG_PARAM": "11:\u5168\u30e6\u30cb\u653b\u6483\u30a2\u30c3\u30d7\uff15\uff05",
        "P_CREATEDATE": "2018-01-25 17:54:40",
        "P_UPDATEDATE": "2018-01-25 17:54:40"
    },
    {
        "c3prn4s7": "20032301",
        "P_SKILL_NAME": "\u30b9\u30ad\u30eb_\u77ed\u5263\uff1a\u6c34\u26054",
        "moWQ30GH": "3",
        "PEVks0h8": "",
        "E19X6kmB": "5010001",
        "X4mIT5Lc": "0",
        "P_EXT_IMG_PARAM": "",
        "P_CREATEDATE": "2018-01-25 17:54:40",
        "P_UPDATEDATE": "2018-01-25 17:54:40"
    },
    {
        "c3prn4s7": "20032310",
        "P_SKILL_NAME": "EX\u30b9\u30ad\u30eb_\u77ed\u5263\uff1a\u6c34\u2605\uff14",
        "moWQ30GH": "2",
        "PEVks0h8": "",
        "E19X6kmB": "1001001",
        "X4mIT5Lc": "0",
        "P_EXT_IMG_PARAM": "12:\u5168\u30e6\u30cb\u653b\u6483\u30a2\u30c3\u30d7\uff15\uff05",
        "P_CREATEDATE": "2018-01-25 17:54:40",
        "P_UPDATEDATE": "2018-01-25 17:54:40"
    },
    {
        "c3prn4s7": "20033401",
        "P_SKILL_NAME": "\u30b9\u30ad\u30eb_\u77ed\u5263\uff1a\u6c34\u26055",
        "moWQ30GH": "3",
        "PEVks0h8": "",
        "E19X6kmB": "9020601",
        "X4mIT5Lc": "0",
        "P_EXT_IMG_PARAM": "",
        "P_CREATEDATE": "2018-01-25 17:54:40",
        "P_UPDATEDATE": "2018-01-25 17:54:40"
    },
    {
        "c3prn4s7": "20033402",
        "P_SKILL_NAME": "\u30b9\u30ad\u30eb_\u77ed\u5263\uff1a\u6c34\u26055_2",
        "moWQ30GH": "3",
        "PEVks0h8": "",
        "E19X6kmB": "5010002",
        "X4mIT5Lc": "0",
        "P_EXT_IMG_PARAM": "",
        "P_CREATEDATE": "2018-01-25 17:54:40",
        "P_UPDATEDATE": "2018-01-25 17:54:40"
    },
    {
        "c3prn4s7": "20033410",
        "P_SKILL_NAME": "EX\u30b9\u30ad\u30eb_\u77ed\u5263\uff1a\u6c34\u2605\uff15",
        "moWQ30GH": "2",
        "PEVks0h8": "",
        "E19X6kmB": "1001001",
        "X4mIT5Lc": "0",
        "P_EXT_IMG_PARAM": "13:\u5168\u30e6\u30cb\u653b\u6483\u30a2\u30c3\u30d7\uff15\uff05",
        "P_CREATEDATE": "2018-01-25 17:54:40",
        "P_UPDATEDATE": "2018-01-25 17:54:40"
    },
    {
        "c3prn4s7": "20040401",
        "P_SKILL_NAME": "\u30b9\u30ad\u30eb_\u53cc\u65a7\uff1a\u6c34\u26055",
        "moWQ30GH": "3",
        "PEVks0h8": "",
        "E19X6kmB": "1019304",
        "X4mIT5Lc": "0",
        "P_EXT_IMG_PARAM": "",
        "P_CREATEDATE": "2018-01-25 17:54:40",
        "P_UPDATEDATE": "2018-01-25 17:54:40"
    },
    {
        "c3prn4s7": "20040402",
        "P_SKILL_NAME": "\u30b9\u30ad\u30eb_\u53cc\u65a7\uff1a\u6c34\u26055_2",
        "moWQ30GH": "3",
        "PEVks0h8": "",
        "E19X6kmB": "3020008",
        "X4mIT5Lc": "0",
        "P_EXT_IMG_PARAM": "",
        "P_CREATEDATE": "2018-01-25 17:54:40",
        "P_UPDATEDATE": "2018-01-25 17:54:40"
    },
    {
        "c3prn4s7": "20040410",
        "P_SKILL_NAME": "EX\u30b9\u30ad\u30eb_\u53cc\u65a7\uff1a\u6c34\u2605\uff15",
        "moWQ30GH": "2",
        "PEVks0h8": "",
        "E19X6kmB": "1001001",
        "X4mIT5Lc": "0",
        "P_EXT_IMG_PARAM": "6:\u5168\u30e6\u30cb\u653b\u6483\u30a2\u30c3\u30d7\uff15\uff05",
        "P_CREATEDATE": "2018-01-25 17:54:40",
        "P_UPDATEDATE": "2018-01-25 17:54:40"
    },
    {
        "c3prn4s7": "30014201",
        "P_SKILL_NAME": "\u30b9\u30ad\u30eb_\u69cd\uff1a\u6a39\u26053",
        "moWQ30GH": "3",
        "PEVks0h8": "",
        "E19X6kmB": "1002001",
        "X4mIT5Lc": "0",
        "P_EXT_IMG_PARAM": "",
        "P_CREATEDATE": "2018-01-25 17:54:39",
        "P_UPDATEDATE": "2018-01-25 17:54:39"
    },
    {
        "c3prn4s7": "30014210",
        "P_SKILL_NAME": "EX\u30b9\u30ad\u30eb_\u69cd\uff1a\u6a39\u2605\uff13",
        "moWQ30GH": "2",
        "PEVks0h8": "",
        "E19X6kmB": "1001001",
        "X4mIT5Lc": "0",
        "P_EXT_IMG_PARAM": "2:\u5168\u30e6\u30cb\u653b\u6483\u30a2\u30c3\u30d7\uff15\uff05",
        "P_CREATEDATE": "2018-01-25 17:54:40",
        "P_UPDATEDATE": "2018-01-25 17:54:40"
    },
    {
        "c3prn4s7": "30014301",
        "P_SKILL_NAME": "\u30b9\u30ad\u30eb_\u69cd\uff1a\u6a39\u26054",
        "moWQ30GH": "3",
        "PEVks0h8": "",
        "E19X6kmB": "1002002",
        "X4mIT5Lc": "0",
        "P_EXT_IMG_PARAM": "",
        "P_CREATEDATE": "2018-01-25 17:54:39",
        "P_UPDATEDATE": "2018-01-25 17:54:39"
    },
    {
        "c3prn4s7": "30014310",
        "P_SKILL_NAME": "EX\u30b9\u30ad\u30eb_\u69cd\uff1a\u6a39\u2605\uff14",
        "moWQ30GH": "2",
        "PEVks0h8": "",
        "E19X6kmB": "1001001",
        "X4mIT5Lc": "0",
        "P_EXT_IMG_PARAM": "3:\u5168\u30e6\u30cb\u653b\u6483\u30a2\u30c3\u30d7\uff15\uff05",
        "P_CREATEDATE": "2018-01-25 17:54:40",
        "P_UPDATEDATE": "2018-01-25 17:54:40"
    },
    {
        "c3prn4s7": "30015401",
        "P_SKILL_NAME": "\u30b9\u30ad\u30eb_\u69cd\uff1a\u6a39\u26055",
        "moWQ30GH": "3",
        "PEVks0h8": "",
        "E19X6kmB": "1002003",
        "X4mIT5Lc": "0",
        "P_EXT_IMG_PARAM": "",
        "P_CREATEDATE": "2018-01-25 17:54:39",
        "P_UPDATEDATE": "2018-01-25 17:54:39"
    },
    {
        "c3prn4s7": "30015402",
        "P_SKILL_NAME": "\u30b9\u30ad\u30eb_\u69cd\uff1a\u6a39\u26055_2",
        "moWQ30GH": "3",
        "PEVks0h8": "",
        "E19X6kmB": "1002004",
        "X4mIT5Lc": "0",
        "P_EXT_IMG_PARAM": "",
        "P_CREATEDATE": "2018-01-25 17:54:39",
        "P_UPDATEDATE": "2018-01-25 17:54:39"
    },
    {
        "c3prn4s7": "30015410",
        "P_SKILL_NAME": "EX\u30b9\u30ad\u30eb_\u69cd\uff1a\u6a39\u2605\uff15",
        "moWQ30GH": "2",
        "PEVks0h8": "",
        "E19X6kmB": "1001001",
        "X4mIT5Lc": "0",
        "P_EXT_IMG_PARAM": "4:\u5168\u30e6\u30cb\u653b\u6483\u30a2\u30c3\u30d7\uff15\uff05",
        "P_CREATEDATE": "2018-01-25 17:54:40",
        "P_UPDATEDATE": "2018-01-25 17:54:40"
    },
    {
        "c3prn4s7": "30023401",
        "P_SKILL_NAME": "\u30b9\u30ad\u30eb_\u5927\u5263\uff1a\u6a39\u26055",
        "moWQ30GH": "3",
        "PEVks0h8": "",
        "E19X6kmB": "6010101",
        "X4mIT5Lc": "0",
        "P_EXT_IMG_PARAM": "",
        "P_CREATEDATE": "2018-01-25 17:54:40",
        "P_UPDATEDATE": "2018-01-25 17:54:40"
    },
    {
        "c3prn4s7": "30023402",
        "P_SKILL_NAME": "\u30b9\u30ad\u30eb_\u5927\u5263\uff1a\u6a39\u26055_2",
        "moWQ30GH": "3",
        "PEVks0h8": "",
        "E19X6kmB": "5010001",
        "X4mIT5Lc": "0",
        "P_EXT_IMG_PARAM": "",
        "P_CREATEDATE": "2018-01-25 17:54:40",
        "P_UPDATEDATE": "2018-01-25 17:54:40"
    },
    {
        "c3prn4s7": "30023410",
        "P_SKILL_NAME": "EX\u30b9\u30ad\u30eb_\u5927\u5263\uff1a\u6a39\u2605\uff15",
        "moWQ30GH": "2",
        "PEVks0h8": "",
        "E19X6kmB": "1001001",
        "X4mIT5Lc": "0",
        "P_EXT_IMG_PARAM": "1:\u5168\u30e6\u30cb\u653b\u6483\u30a2\u30c3\u30d7\uff15\uff05",
        "P_CREATEDATE": "2018-01-25 17:54:40",
        "P_UPDATEDATE": "2018-01-25 17:54:40"
    },
    {
        "c3prn4s7": "30034401",
        "P_SKILL_NAME": "\u30b9\u30ad\u30eb_\u5043\u6708\u5200\uff1a\u6a39\u26055",
        "moWQ30GH": "3",
        "PEVks0h8": "",
        "E19X6kmB": "4010001",
        "X4mIT5Lc": "0",
        "P_EXT_IMG_PARAM": "",
        "P_CREATEDATE": "2018-01-25 17:54:40",
        "P_UPDATEDATE": "2018-01-25 17:54:40"
    },
    {
        "c3prn4s7": "30034402",
        "P_SKILL_NAME": "\u30b9\u30ad\u30eb_\u5043\u6708\u5200\uff1a\u6a39\u26055_2",
        "moWQ30GH": "3",
        "PEVks0h8": "",
        "E19X6kmB": "4010003",
        "X4mIT5Lc": "0",
        "P_EXT_IMG_PARAM": "",
        "P_CREATEDATE": "2018-01-25 17:54:40",
        "P_UPDATEDATE": "2018-01-25 17:54:40"
    },
    {
        "c3prn4s7": "30034410",
        "P_SKILL_NAME": "EX\u30b9\u30ad\u30eb_\u5043\u6708\u5200\uff1a\u6a39\u2605\uff15",
        "moWQ30GH": "2",
        "PEVks0h8": "",
        "E19X6kmB": "1001001",
        "X4mIT5Lc": "0",
        "P_EXT_IMG_PARAM": "14:\u5168\u30e6\u30cb\u653b\u6483\u30a2\u30c3\u30d7\uff15\uff05",
        "P_CREATEDATE": "2018-01-25 17:54:40",
        "P_UPDATEDATE": "2018-01-25 17:54:40"
    },
    {
        "c3prn4s7": "30038301",
        "P_SKILL_NAME": "\u30b9\u30ad\u30eb_\u30d6\u30fc\u30e1\u30e9\u30f3\uff1a\u6a39\u26054",
        "moWQ30GH": "3",
        "PEVks0h8": "",
        "E19X6kmB": "7000001",
        "X4mIT5Lc": "0",
        "P_EXT_IMG_PARAM": "",
        "P_CREATEDATE": "2018-01-25 17:54:40",
        "P_UPDATEDATE": "2018-01-25 17:54:40"
    },
    {
        "c3prn4s7": "30038310",
        "P_SKILL_NAME": "EX\u30b9\u30ad\u30eb_\u30d6\u30fc\u30e1\u30e9\u30f3\uff1a\u6a39\u2605\uff14",
        "moWQ30GH": "2",
        "PEVks0h8": "",
        "E19X6kmB": "1001001",
        "X4mIT5Lc": "0",
        "P_EXT_IMG_PARAM": "4:\u5168\u30e6\u30cb\u653b\u6483\u30a2\u30c3\u30d7\uff15\uff05",
        "P_CREATEDATE": "2018-01-25 17:54:40",
        "P_UPDATEDATE": "2018-01-25 17:54:40"
    },
    {
        "c3prn4s7": "30039401",
        "P_SKILL_NAME": "\u30b9\u30ad\u30eb_\u5186\u6708\u8f2a\uff1a\u6a39\u26055",
        "moWQ30GH": "3",
        "PEVks0h8": "",
        "E19X6kmB": "7050000",
        "X4mIT5Lc": "0",
        "P_EXT_IMG_PARAM": "",
        "P_CREATEDATE": "2018-01-25 17:54:40",
        "P_UPDATEDATE": "2018-01-25 17:54:40"
    },
    {
        "c3prn4s7": "30039402",
        "P_SKILL_NAME": "\u30b9\u30ad\u30eb_\u5186\u6708\u8f2a\uff1a\u6a39\u26055_2",
        "moWQ30GH": "3",
        "PEVks0h8": "",
        "E19X6kmB": "1015002",
        "X4mIT5Lc": "0",
        "P_EXT_IMG_PARAM": "",
        "P_CREATEDATE": "2018-01-25 17:54:40",
        "P_UPDATEDATE": "2018-01-25 17:54:40"
    },
    {
        "c3prn4s7": "30039410",
        "P_SKILL_NAME": "EX\u30b9\u30ad\u30eb_\u5186\u6708\u8f2a\uff1a\u6a39\u2605\uff15",
        "moWQ30GH": "2",
        "PEVks0h8": "",
        "E19X6kmB": "1001001",
        "X4mIT5Lc": "0",
        "P_EXT_IMG_PARAM": "5:\u5168\u30e6\u30cb\u653b\u6483\u30a2\u30c3\u30d7\uff15\uff05",
        "P_CREATEDATE": "2018-01-25 17:54:40",
        "P_UPDATEDATE": "2018-01-25 17:54:40"
    },
    {
        "c3prn4s7": "40013301",
        "P_SKILL_NAME": "\u30b9\u30ad\u30eb_\u53cc\u5263\uff1a\u96f7\u26054",
        "moWQ30GH": "3",
        "PEVks0h8": "",
        "E19X6kmB": "2010000",
        "X4mIT5Lc": "0",
        "P_EXT_IMG_PARAM": "",
        "P_CREATEDATE": "2018-01-25 17:54:39",
        "P_UPDATEDATE": "2018-01-25 17:54:39"
    },
    {
        "c3prn4s7": "40013310",
        "P_SKILL_NAME": "EX\u30b9\u30ad\u30eb_\u53cc\u5263\uff1a\u96f7\u2605\uff14",
        "moWQ30GH": "2",
        "PEVks0h8": "",
        "E19X6kmB": "1001001",
        "X4mIT5Lc": "0",
        "P_EXT_IMG_PARAM": "14:\u5168\u30e6\u30cb\u653b\u6483\u30a2\u30c3\u30d7\uff15\uff05",
        "P_CREATEDATE": "2018-01-25 17:54:40",
        "P_UPDATEDATE": "2018-01-25 17:54:40"
    },
    {
        "c3prn4s7": "40013401",
        "P_SKILL_NAME": "\u30b9\u30ad\u30eb_\u53cc\u5263\uff1a\u96f7\u26055",
        "moWQ30GH": "3",
        "PEVks0h8": "",
        "E19X6kmB": "2010001",
        "X4mIT5Lc": "0",
        "P_EXT_IMG_PARAM": "",
        "P_CREATEDATE": "2018-01-25 17:54:39",
        "P_UPDATEDATE": "2018-01-25 17:54:39"
    },
    {
        "c3prn4s7": "40013402",
        "P_SKILL_NAME": "\u30b9\u30ad\u30eb_\u53cc\u5263\uff1a\u96f7\u26055_2",
        "moWQ30GH": "3",
        "PEVks0h8": "",
        "E19X6kmB": "2010002",
        "X4mIT5Lc": "0",
        "P_EXT_IMG_PARAM": "",
        "P_CREATEDATE": "2018-01-25 17:54:39",
        "P_UPDATEDATE": "2018-01-25 17:54:39"
    },
    {
        "c3prn4s7": "40013410",
        "P_SKILL_NAME": "EX\u30b9\u30ad\u30eb_\u53cc\u5263\uff1a\u96f7\u2605\uff15",
        "moWQ30GH": "2",
        "PEVks0h8": "",
        "E19X6kmB": "1001001",
        "X4mIT5Lc": "0",
        "P_EXT_IMG_PARAM": "1:\u5168\u30e6\u30cb\u653b\u6483\u30a2\u30c3\u30d7\uff15\uff05",
        "P_CREATEDATE": "2018-01-25 17:54:40",
        "P_UPDATEDATE": "2018-01-25 17:54:40"
    },
    {
        "c3prn4s7": "40024301",
        "P_SKILL_NAME": "\u30b9\u30ad\u30eb_\u9b54\u6cd5\u9283\uff1a\u96f7\u26054",
        "moWQ30GH": "3",
        "PEVks0h8": "",
        "E19X6kmB": "7000000",
        "X4mIT5Lc": "0",
        "P_EXT_IMG_PARAM": "",
        "P_CREATEDATE": "2018-01-25 17:54:40",
        "P_UPDATEDATE": "2018-01-25 17:54:40"
    },
    {
        "c3prn4s7": "40024302",
        "P_SKILL_NAME": "\u30b9\u30ad\u30eb_\u9b54\u6cd5\u9283\uff1a\u96f7\u26054_2",
        "moWQ30GH": "3",
        "PEVks0h8": "",
        "E19X6kmB": "7000001",
        "X4mIT5Lc": "0",
        "P_EXT_IMG_PARAM": "",
        "P_CREATEDATE": "2018-01-25 17:54:40",
        "P_UPDATEDATE": "2018-01-25 17:54:40"
    },
    {
        "c3prn4s7": "40024310",
        "P_SKILL_NAME": "EX\u30b9\u30ad\u30eb_\u9b54\u6cd5\u9283\uff1a\u96f7\u2605\uff14",
        "moWQ30GH": "2",
        "PEVks0h8": "",
        "E19X6kmB": "1001001",
        "X4mIT5Lc": "0",
        "P_EXT_IMG_PARAM": "2:\u5168\u30e6\u30cb\u653b\u6483\u30a2\u30c3\u30d7\uff15\uff05",
        "P_CREATEDATE": "2018-01-25 17:54:40",
        "P_UPDATEDATE": "2018-01-25 17:54:40"
    },
    {
        "c3prn4s7": "40025401",
        "P_SKILL_NAME": "\u30b9\u30ad\u30eb_\u9b54\u6cd5\u9283\uff1a\u96f7\u26055",
        "moWQ30GH": "3",
        "PEVks0h8": "",
        "E19X6kmB": "5070003",
        "X4mIT5Lc": "0",
        "P_EXT_IMG_PARAM": "",
        "P_CREATEDATE": "2018-01-25 17:54:40",
        "P_UPDATEDATE": "2018-01-25 17:54:40"
    },
    {
        "c3prn4s7": "40025402",
        "P_SKILL_NAME": "\u30b9\u30ad\u30eb_\u9b54\u6cd5\u9283\uff1a\u96f7\u26055_2",
        "moWQ30GH": "3",
        "PEVks0h8": "",
        "E19X6kmB": "5050004",
        "X4mIT5Lc": "0",
        "P_EXT_IMG_PARAM": "",
        "P_CREATEDATE": "2018-01-25 17:54:40",
        "P_UPDATEDATE": "2018-01-25 17:54:40"
    },
    {
        "c3prn4s7": "40025410",
        "P_SKILL_NAME": "EX\u30b9\u30ad\u30eb_\u9b54\u6cd5\u9283\uff1a\u96f7\u2605\uff15",
        "moWQ30GH": "2",
        "PEVks0h8": "",
        "E19X6kmB": "1001001",
        "X4mIT5Lc": "0",
        "P_EXT_IMG_PARAM": "3:\u5168\u30e6\u30cb\u653b\u6483\u30a2\u30c3\u30d7\uff15\uff05",
        "P_CREATEDATE": "2018-01-25 17:54:40",
        "P_UPDATEDATE": "2018-01-25 17:54:40"
    },
    {
        "c3prn4s7": "40027201",
        "P_SKILL_NAME": "\u30b9\u30ad\u30eb_\u683c\u95d8\uff1a\u96f7\u26053",
        "moWQ30GH": "3",
        "PEVks0h8": "",
        "E19X6kmB": "3010005",
        "X4mIT5Lc": "0",
        "P_EXT_IMG_PARAM": "",
        "P_CREATEDATE": "2018-01-25 17:54:40",
        "P_UPDATEDATE": "2018-01-25 17:54:40"
    },
    {
        "c3prn4s7": "40027210",
        "P_SKILL_NAME": "EX\u30b9\u30ad\u30eb_\u683c\u95d8\uff1a\u96f7\u2605\uff13",
        "moWQ30GH": "2",
        "PEVks0h8": "",
        "E19X6kmB": "1001001",
        "X4mIT5Lc": "0",
        "P_EXT_IMG_PARAM": "5:\u5168\u30e6\u30cb\u653b\u6483\u30a2\u30c3\u30d7\uff15\uff05",
        "P_CREATEDATE": "2018-01-25 17:54:40",
        "P_UPDATEDATE": "2018-01-25 17:54:40"
    },
    {
        "c3prn4s7": "40028301",
        "P_SKILL_NAME": "\u30b9\u30ad\u30eb_\u683c\u95d8\uff1a\u96f7\u26054",
        "moWQ30GH": "3",
        "PEVks0h8": "",
        "E19X6kmB": "3010000",
        "X4mIT5Lc": "0",
        "P_EXT_IMG_PARAM": "",
        "P_CREATEDATE": "2018-01-25 17:54:40",
        "P_UPDATEDATE": "2018-01-25 17:54:40"
    },
    {
        "c3prn4s7": "40028310",
        "P_SKILL_NAME": "EX\u30b9\u30ad\u30eb_\u683c\u95d8\uff1a\u96f7\u2605\uff14",
        "moWQ30GH": "2",
        "PEVks0h8": "",
        "E19X6kmB": "1001001",
        "X4mIT5Lc": "0",
        "P_EXT_IMG_PARAM": "6:\u5168\u30e6\u30cb\u653b\u6483\u30a2\u30c3\u30d7\uff15\uff05",
        "P_CREATEDATE": "2018-01-25 17:54:40",
        "P_UPDATEDATE": "2018-01-25 17:54:40"
    },
    {
        "c3prn4s7": "40029401",
        "P_SKILL_NAME": "\u30b9\u30ad\u30eb_\u683c\u95d8\uff1a\u96f7\u26055",
        "moWQ30GH": "3",
        "PEVks0h8": "",
        "E19X6kmB": "3020006",
        "X4mIT5Lc": "0",
        "P_EXT_IMG_PARAM": "",
        "P_CREATEDATE": "2018-01-25 17:54:40",
        "P_UPDATEDATE": "2018-01-25 17:54:40"
    },
    {
        "c3prn4s7": "40029410",
        "P_SKILL_NAME": "EX\u30b9\u30ad\u30eb_\u683c\u95d8\uff1a\u96f7\u2605\uff15",
        "moWQ30GH": "2",
        "PEVks0h8": "",
        "E19X6kmB": "1001001",
        "X4mIT5Lc": "0",
        "P_EXT_IMG_PARAM": "7:\u5168\u30e6\u30cb\u653b\u6483\u30a2\u30c3\u30d7\uff15\uff05",
        "P_CREATEDATE": "2018-01-25 17:54:40",
        "P_UPDATEDATE": "2018-01-25 17:54:40"
    },
    {
        "c3prn4s7": "50022301",
        "P_SKILL_NAME": "\u30b9\u30ad\u30eb_\u5927\u5263\uff1a\u5149\u26054",
        "moWQ30GH": "3",
        "PEVks0h8": "",
        "E19X6kmB": "1005001",
        "X4mIT5Lc": "0",
        "P_EXT_IMG_PARAM": "",
        "P_CREATEDATE": "2018-01-25 17:54:40",
        "P_UPDATEDATE": "2018-01-25 17:54:40"
    },
    {
        "c3prn4s7": "50022310",
        "P_SKILL_NAME": "EX\u30b9\u30ad\u30eb_\u5927\u5263\uff1a\u5149\u2605\uff14",
        "moWQ30GH": "2",
        "PEVks0h8": "",
        "E19X6kmB": "1001001",
        "X4mIT5Lc": "0",
        "P_EXT_IMG_PARAM": "13:\u5168\u30e6\u30cb\u653b\u6483\u30a2\u30c3\u30d7\uff15\uff05",
        "P_CREATEDATE": "2018-01-25 17:54:40",
        "P_UPDATEDATE": "2018-01-25 17:54:40"
    },
    {
        "c3prn4s7": "50022401",
        "P_SKILL_NAME": "\u30b9\u30ad\u30eb_\u5927\u5263\uff1a\u5149\u26055",
        "moWQ30GH": "3",
        "PEVks0h8": "",
        "E19X6kmB": "1005002",
        "X4mIT5Lc": "0",
        "P_EXT_IMG_PARAM": "",
        "P_CREATEDATE": "2018-01-25 17:54:40",
        "P_UPDATEDATE": "2018-01-25 17:54:40"
    },
    {
        "c3prn4s7": "50022402",
        "P_SKILL_NAME": "\u30b9\u30ad\u30eb_\u5927\u5263\uff1a\u5149\u26055_2",
        "moWQ30GH": "3",
        "PEVks0h8": "",
        "E19X6kmB": "1005003",
        "X4mIT5Lc": "0",
        "P_EXT_IMG_PARAM": "",
        "P_CREATEDATE": "2018-01-25 17:54:40",
        "P_UPDATEDATE": "2018-01-25 17:54:40"
    },
    {
        "c3prn4s7": "50022410",
        "P_SKILL_NAME": "EX\u30b9\u30ad\u30eb_\u5927\u5263\uff1a\u5149\u2605\uff15",
        "moWQ30GH": "2",
        "PEVks0h8": "",
        "E19X6kmB": "1001001",
        "X4mIT5Lc": "0",
        "P_EXT_IMG_PARAM": "14:\u5168\u30e6\u30cb\u653b\u6483\u30a2\u30c3\u30d7\uff15\uff05",
        "P_CREATEDATE": "2018-01-25 17:54:40",
        "P_UPDATEDATE": "2018-01-25 17:54:40"
    },
    {
        "c3prn4s7": "50026401",
        "P_SKILL_NAME": "\u30b9\u30ad\u30eb_\u9b54\u6cd5\u5263\uff1a\u5149\u26055",
        "moWQ30GH": "3",
        "PEVks0h8": "",
        "E19X6kmB": "4010001",
        "X4mIT5Lc": "0",
        "P_EXT_IMG_PARAM": "",
        "P_CREATEDATE": "2018-01-25 17:54:40",
        "P_UPDATEDATE": "2018-01-25 17:54:40"
    },
    {
        "c3prn4s7": "50026402",
        "P_SKILL_NAME": "\u30b9\u30ad\u30eb_\u9b54\u6cd5\u5263\uff1a\u5149\u26055_2",
        "moWQ30GH": "3",
        "PEVks0h8": "",
        "E19X6kmB": "4010003",
        "X4mIT5Lc": "0",
        "P_EXT_IMG_PARAM": "",
        "P_CREATEDATE": "2018-01-25 17:54:40",
        "P_UPDATEDATE": "2018-01-25 17:54:40"
    },
    {
        "c3prn4s7": "50026403",
        "P_SKILL_NAME": "\u30b9\u30ad\u30eb_\u9b54\u6cd5\u5263\uff1a\u5149\u26055_3",
        "moWQ30GH": "3",
        "PEVks0h8": "",
        "E19X6kmB": "1015003",
        "X4mIT5Lc": "0",
        "P_EXT_IMG_PARAM": "",
        "P_CREATEDATE": "2018-01-25 17:54:40",
        "P_UPDATEDATE": "2018-01-25 17:54:40"
    },
    {
        "c3prn4s7": "50026410",
        "P_SKILL_NAME": "EX\u30b9\u30ad\u30eb_\u9b54\u6cd5\u5263\uff1a\u5149\u2605\uff15",
        "moWQ30GH": "2",
        "PEVks0h8": "",
        "E19X6kmB": "1001001",
        "X4mIT5Lc": "0",
        "P_EXT_IMG_PARAM": "4:\u5168\u30e6\u30cb\u653b\u6483\u30a2\u30c3\u30d7\uff15\uff05",
        "P_CREATEDATE": "2018-01-25 17:54:40",
        "P_UPDATEDATE": "2018-01-25 17:54:40"
    },
    {
        "c3prn4s7": "50030401",
        "P_SKILL_NAME": "\u30b9\u30ad\u30eb_\u722a\uff1a\u5149\u26055",
        "moWQ30GH": "3",
        "PEVks0h8": "",
        "E19X6kmB": "2010001",
        "X4mIT5Lc": "0",
        "P_EXT_IMG_PARAM": "",
        "P_CREATEDATE": "2018-01-25 17:54:40",
        "P_UPDATEDATE": "2018-01-25 17:54:40"
    },
    {
        "c3prn4s7": "50030402",
        "P_SKILL_NAME": "\u30b9\u30ad\u30eb_\u722a\uff1a\u5149\u26055_2",
        "moWQ30GH": "3",
        "PEVks0h8": "",
        "E19X6kmB": "2010002",
        "X4mIT5Lc": "0",
        "P_EXT_IMG_PARAM": "",
        "P_CREATEDATE": "2018-01-25 17:54:40",
        "P_UPDATEDATE": "2018-01-25 17:54:40"
    },
    {
        "c3prn4s7": "50030410",
        "P_SKILL_NAME": "EX\u30b9\u30ad\u30eb_\u722a\uff1a\u5149\u2605\uff15",
        "moWQ30GH": "2",
        "PEVks0h8": "",
        "E19X6kmB": "1001001",
        "X4mIT5Lc": "0",
        "P_EXT_IMG_PARAM": "8:\u5168\u30e6\u30cb\u653b\u6483\u30a2\u30c3\u30d7\uff15\uff05",
        "P_CREATEDATE": "2018-01-25 17:54:40",
        "P_UPDATEDATE": "2018-01-25 17:54:40"
    },
    {
        "c3prn4s7": "50036301",
        "P_SKILL_NAME": "\u30b9\u30ad\u30eb_\u9b54\u5c0e\u66f8\uff1a\u5149\u26054",
        "moWQ30GH": "3",
        "PEVks0h8": "",
        "E19X6kmB": "1010002",
        "X4mIT5Lc": "0",
        "P_EXT_IMG_PARAM": "",
        "P_CREATEDATE": "2018-01-25 17:54:40",
        "P_UPDATEDATE": "2018-01-25 17:54:40"
    },
    {
        "c3prn4s7": "50036302",
        "P_SKILL_NAME": "\u30b9\u30ad\u30eb_\u9b54\u5c0e\u66f8\uff1a\u5149\u26054_2",
        "moWQ30GH": "3",
        "PEVks0h8": "",
        "E19X6kmB": "6010102",
        "X4mIT5Lc": "0",
        "P_EXT_IMG_PARAM": "",
        "P_CREATEDATE": "2018-01-25 17:54:40",
        "P_UPDATEDATE": "2018-01-25 17:54:40"
    },
    {
        "c3prn4s7": "50036310",
        "P_SKILL_NAME": "EX\u30b9\u30ad\u30eb_\u9b54\u5c0e\u66f8\uff1a\u5149\u2605\uff14",
        "moWQ30GH": "2",
        "PEVks0h8": "",
        "E19X6kmB": "1001001",
        "X4mIT5Lc": "0",
        "P_EXT_IMG_PARAM": "2:\u5168\u30e6\u30cb\u653b\u6483\u30a2\u30c3\u30d7\uff15\uff05",
        "P_CREATEDATE": "2018-01-25 17:54:40",
        "P_UPDATEDATE": "2018-01-25 17:54:40"
    },
    {
        "c3prn4s7": "50037401",
        "P_SKILL_NAME": "\u30b9\u30ad\u30eb_\u9b54\u5c0e\u66f8\uff1a\u5149\u26055",
        "moWQ30GH": "3",
        "PEVks0h8": "",
        "E19X6kmB": "1010003",
        "X4mIT5Lc": "0",
        "P_EXT_IMG_PARAM": "",
        "P_CREATEDATE": "2018-01-25 17:54:40",
        "P_UPDATEDATE": "2018-01-25 17:54:40"
    },
    {
        "c3prn4s7": "50037402",
        "P_SKILL_NAME": "\u30b9\u30ad\u30eb_\u9b54\u5c0e\u66f8\uff1a\u5149\u26055_2",
        "moWQ30GH": "3",
        "PEVks0h8": "",
        "E19X6kmB": "8017000",
        "X4mIT5Lc": "0",
        "P_EXT_IMG_PARAM": "",
        "P_CREATEDATE": "2018-01-25 17:54:40",
        "P_UPDATEDATE": "2018-01-25 17:54:40"
    },
    {
        "c3prn4s7": "50037410",
        "P_SKILL_NAME": "EX\u30b9\u30ad\u30eb_\u9b54\u5c0e\u66f8\uff1a\u5149\u2605\uff15",
        "moWQ30GH": "2",
        "PEVks0h8": "",
        "E19X6kmB": "1001001",
        "X4mIT5Lc": "0",
        "P_EXT_IMG_PARAM": "3:\u5168\u30e6\u30cb\u653b\u6483\u30a2\u30c3\u30d7\uff15\uff05",
        "P_CREATEDATE": "2018-01-25 17:54:40",
        "P_UPDATEDATE": "2018-01-25 17:54:40"
    },
    {
        "c3prn4s7": "60018401",
        "P_SKILL_NAME": "\u30b9\u30ad\u30eb_\u5f13\uff1a\u95c7\u26055",
        "moWQ30GH": "3",
        "PEVks0h8": "",
        "E19X6kmB": "9020501",
        "X4mIT5Lc": "0",
        "P_EXT_IMG_PARAM": "",
        "P_CREATEDATE": "2018-01-25 17:54:40",
        "P_UPDATEDATE": "2018-01-25 17:54:40"
    },
    {
        "c3prn4s7": "60018402",
        "P_SKILL_NAME": "\u30b9\u30ad\u30eb_\u5f13\uff1a\u95c7\u26055_2",
        "moWQ30GH": "3",
        "PEVks0h8": "",
        "E19X6kmB": "5020003",
        "X4mIT5Lc": "0",
        "P_EXT_IMG_PARAM": "",
        "P_CREATEDATE": "2018-01-25 17:54:40",
        "P_UPDATEDATE": "2018-01-25 17:54:40"
    },
    {
        "c3prn4s7": "60018410",
        "P_SKILL_NAME": "EX\u30b9\u30ad\u30eb_\u5f13\uff1a\u95c7\u2605\uff15",
        "moWQ30GH": "2",
        "PEVks0h8": "",
        "E19X6kmB": "1001001",
        "X4mIT5Lc": "0",
        "P_EXT_IMG_PARAM": "9:\u5168\u30e6\u30cb\u653b\u6483\u30a2\u30c3\u30d7\uff15\uff05",
        "P_CREATEDATE": "2018-01-25 17:54:40",
        "P_UPDATEDATE": "2018-01-25 17:54:40"
    },
    {
        "c3prn4s7": "60019301",
        "P_SKILL_NAME": "\u30b9\u30ad\u30eb_\u6226\u65a7\uff1a\u95c7\u26054",
        "moWQ30GH": "3",
        "PEVks0h8": "",
        "E19X6kmB": "3010000",
        "X4mIT5Lc": "0",
        "P_EXT_IMG_PARAM": "",
        "P_CREATEDATE": "2018-01-25 17:54:40",
        "P_UPDATEDATE": "2018-01-25 17:54:40"
    },
    {
        "c3prn4s7": "60019310",
        "P_SKILL_NAME": "EX\u30b9\u30ad\u30eb_\u6226\u65a7\uff1a\u95c7\u2605\uff14",
        "moWQ30GH": "2",
        "PEVks0h8": "",
        "E19X6kmB": "1001001",
        "X4mIT5Lc": "0",
        "P_EXT_IMG_PARAM": "10:\u5168\u30e6\u30cb\u653b\u6483\u30a2\u30c3\u30d7\uff15\uff05",
        "P_CREATEDATE": "2018-01-25 17:54:40",
        "P_UPDATEDATE": "2018-01-25 17:54:40"
    },
    {
        "c3prn4s7": "60020401",
        "P_SKILL_NAME": "\u30b9\u30ad\u30eb_\u30cf\u30eb\u30d0\u30fc\u30c9 \uff1a\u95c7\u26055",
        "moWQ30GH": "3",
        "PEVks0h8": "",
        "E19X6kmB": "1015002",
        "X4mIT5Lc": "0",
        "P_EXT_IMG_PARAM": "",
        "P_CREATEDATE": "2018-01-25 17:54:40",
        "P_UPDATEDATE": "2018-01-25 17:54:40"
    },
    {
        "c3prn4s7": "60020410",
        "P_SKILL_NAME": "EX\u30b9\u30ad\u30eb_\u30cf\u30eb\u30d0\u30fc\u30c9 \uff1a\u95c7\u2605\uff15",
        "moWQ30GH": "2",
        "PEVks0h8": "",
        "E19X6kmB": "1001001",
        "X4mIT5Lc": "0",
        "P_EXT_IMG_PARAM": "11:\u5168\u30e6\u30cb\u653b\u6483\u30a2\u30c3\u30d7\uff15\uff05",
        "P_CREATEDATE": "2018-01-25 17:54:40",
        "P_UPDATEDATE": "2018-01-25 17:54:40"
    },
    {
        "c3prn4s7": "60035401",
        "P_SKILL_NAME": "\u30b9\u30ad\u30eb_\u97ad\uff1a\u95c7\u26055",
        "moWQ30GH": "3",
        "PEVks0h8": "",
        "E19X6kmB": "9002004",
        "X4mIT5Lc": "0",
        "P_EXT_IMG_PARAM": "",
        "P_CREATEDATE": "2018-01-25 17:54:40",
        "P_UPDATEDATE": "2018-01-25 17:54:40"
    },
    {
        "c3prn4s7": "60035402",
        "P_SKILL_NAME": "\u30b9\u30ad\u30eb_\u97ad\uff1a\u95c7\u26055_2",
        "moWQ30GH": "3",
        "PEVks0h8": "",
        "E19X6kmB": "5040006",
        "X4mIT5Lc": "0",
        "P_EXT_IMG_PARAM": "",
        "P_CREATEDATE": "2018-01-25 17:54:40",
        "P_UPDATEDATE": "2018-01-25 17:54:40"
    },
    {
        "c3prn4s7": "60035410",
        "P_SKILL_NAME": "EX\u30b9\u30ad\u30eb_\u97ad\uff1a\u95c7\u2605\uff15",
        "moWQ30GH": "2",
        "PEVks0h8": "",
        "E19X6kmB": "1001001",
        "X4mIT5Lc": "0",
        "P_EXT_IMG_PARAM": "1:\u5168\u30e6\u30cb\u653b\u6483\u30a2\u30c3\u30d7\uff15\uff05",
        "P_CREATEDATE": "2018-01-25 17:54:40",
        "P_UPDATEDATE": "2018-01-25 17:54:40"
    }
]