[
    {
        "c3prn4s7": "1000",
        "P_SKILL_NAME": "\u9b54\u5200\u89e3\u653e",
        "moWQ30GH": "1",
        "PEVks0h8": "1:10115",
        "E19X6kmB": "1019306",
        "X4mIT5Lc": "1",
        "P_EXT_IMG_PARAM": "",
        "P_CREATEDATE": "2018-03-26 16:14:34",
        "P_UPDATEDATE": "2018-03-26 16:14:34"
    },
    {
        "c3prn4s7": "1001",
        "P_SKILL_NAME": "\u6e05\u5ec9\u306b\u821e\u3046\u5263",
        "moWQ30GH": "1",
        "PEVks0h8": "1:10122",
        "E19X6kmB": "8016500",
        "X4mIT5Lc": "1",
        "P_EXT_IMG_PARAM": "",
        "P_CREATEDATE": "2018-03-26 16:14:34",
        "P_UPDATEDATE": "2018-03-26 16:14:34"
    },
    {
        "c3prn4s7": "1002",
        "P_SKILL_NAME": "\u5922\u5e7b\u306e\u7406\u60f3",
        "moWQ30GH": "1",
        "PEVks0h8": "1:10122",
        "E19X6kmB": "8016600",
        "X4mIT5Lc": "1",
        "P_EXT_IMG_PARAM": "",
        "P_CREATEDATE": "2018-03-26 16:14:34",
        "P_UPDATEDATE": "2018-03-26 16:14:34"
    },
    {
        "c3prn4s7": "1003",
        "P_SKILL_NAME": "\u6f70\u3048\u306c\u5e0c\u671b",
        "moWQ30GH": "1",
        "PEVks0h8": "1:10122",
        "E19X6kmB": "8016700",
        "X4mIT5Lc": "1",
        "P_EXT_IMG_PARAM": "",
        "P_CREATEDATE": "2018-03-26 16:14:34",
        "P_UPDATEDATE": "2018-03-26 16:14:34"
    },
    {
        "c3prn4s7": "1004",
        "P_SKILL_NAME": "\u5922\u898b\u305f\u30bb\u30ab\u30a4",
        "moWQ30GH": "1",
        "PEVks0h8": "1:10121",
        "E19X6kmB": "2020000",
        "X4mIT5Lc": "1",
        "P_EXT_IMG_PARAM": "",
        "P_CREATEDATE": "2018-03-26 16:14:34",
        "P_UPDATEDATE": "2018-03-26 16:14:34"
    },
    {
        "c3prn4s7": "1005",
        "P_SKILL_NAME": "\u8987\u8005\u3092\u671b\u3080\u529b",
        "moWQ30GH": "1",
        "PEVks0h8": "1:10121",
        "E19X6kmB": "3020006",
        "X4mIT5Lc": "1",
        "P_EXT_IMG_PARAM": "",
        "P_CREATEDATE": "2018-03-26 16:14:34",
        "P_UPDATEDATE": "2018-03-26 16:14:34"
    },
    {
        "c3prn4s7": "1006",
        "P_SKILL_NAME": "\u5929\u7a1f\u306a\u308b\u610f\u5fd7",
        "moWQ30GH": "1",
        "PEVks0h8": "1:10116",
        "E19X6kmB": "1001002",
        "X4mIT5Lc": "1",
        "P_EXT_IMG_PARAM": "",
        "P_CREATEDATE": "2018-03-26 16:14:34",
        "P_UPDATEDATE": "2018-03-26 16:14:34"
    },
    {
        "c3prn4s7": "1007",
        "P_SKILL_NAME": "\u9ad8\u8cb4\u306a\u308b\u7fa9\u52d9",
        "moWQ30GH": "1",
        "PEVks0h8": "1:10116",
        "E19X6kmB": "1002002",
        "X4mIT5Lc": "1",
        "P_EXT_IMG_PARAM": "",
        "P_CREATEDATE": "2018-03-26 16:14:34",
        "P_UPDATEDATE": "2018-03-26 16:14:34"
    },
    {
        "c3prn4s7": "1008",
        "P_SKILL_NAME": "\u7121\u8f9c\u306a\u308b\u732e\u8eab",
        "moWQ30GH": "1",
        "PEVks0h8": "1:10116",
        "E19X6kmB": "1003002",
        "X4mIT5Lc": "1",
        "P_EXT_IMG_PARAM": "",
        "P_CREATEDATE": "2018-03-26 16:14:34",
        "P_UPDATEDATE": "2018-03-26 16:14:34"
    },
    {
        "c3prn4s7": "1009",
        "P_SKILL_NAME": "\u6fc0\u70c8\u306a\u308b\u6069\u8b90",
        "moWQ30GH": "1",
        "PEVks0h8": "1:10116",
        "E19X6kmB": "1004002",
        "X4mIT5Lc": "1",
        "P_EXT_IMG_PARAM": "",
        "P_CREATEDATE": "2018-03-26 16:14:34",
        "P_UPDATEDATE": "2018-03-26 16:14:34"
    },
    {
        "c3prn4s7": "1010",
        "P_SKILL_NAME": "\u771f\u306a\u308b\u8ce2\u738b",
        "moWQ30GH": "1",
        "PEVks0h8": "1:10117",
        "E19X6kmB": "5040007",
        "X4mIT5Lc": "1",
        "P_EXT_IMG_PARAM": "",
        "P_CREATEDATE": "2018-03-26 16:14:34",
        "P_UPDATEDATE": "2018-03-26 16:14:34"
    },
    {
        "c3prn4s7": "1011",
        "P_SKILL_NAME": "\u8a8d\u8b58\u306a\u304d\u81ea\u6211",
        "moWQ30GH": "1",
        "PEVks0h8": "1:10123",
        "E19X6kmB": "4010001",
        "X4mIT5Lc": "1",
        "P_EXT_IMG_PARAM": "",
        "P_CREATEDATE": "2018-03-26 16:14:34",
        "P_UPDATEDATE": "2018-03-26 16:14:34"
    },
    {
        "c3prn4s7": "1012",
        "P_SKILL_NAME": "\u610f\u5fd7\u306a\u304d\u5263",
        "moWQ30GH": "1",
        "PEVks0h8": "1:10123",
        "E19X6kmB": "2010001",
        "X4mIT5Lc": "1",
        "P_EXT_IMG_PARAM": "",
        "P_CREATEDATE": "2018-03-26 16:14:34",
        "P_UPDATEDATE": "2018-03-26 16:14:34"
    },
    {
        "c3prn4s7": "1013",
        "P_SKILL_NAME": "\u304b\u306e\u548e\u306b\u7f6a\u306f\u7121\u3057",
        "moWQ30GH": "1",
        "PEVks0h8": "1:10123",
        "E19X6kmB": "3010000",
        "X4mIT5Lc": "1",
        "P_EXT_IMG_PARAM": "",
        "P_CREATEDATE": "2018-03-26 16:14:34",
        "P_UPDATEDATE": "2018-03-26 16:14:34"
    },
    {
        "c3prn4s7": "1014",
        "P_SKILL_NAME": "\u672a\u6765\u3078\u306e\u4fe1\u5ff5",
        "moWQ30GH": "1",
        "PEVks0h8": "1:10118",
        "E19X6kmB": "1001002",
        "X4mIT5Lc": "1",
        "P_EXT_IMG_PARAM": "",
        "P_CREATEDATE": "2018-03-26 16:14:34",
        "P_UPDATEDATE": "2018-03-26 16:14:34"
    },
    {
        "c3prn4s7": "1015",
        "P_SKILL_NAME": "\u53cb\u3092\u5b88\u308b\u60f3\u3044",
        "moWQ30GH": "1",
        "PEVks0h8": "1:10118",
        "E19X6kmB": "1003002",
        "X4mIT5Lc": "1",
        "P_EXT_IMG_PARAM": "",
        "P_CREATEDATE": "2018-03-26 16:14:34",
        "P_UPDATEDATE": "2018-03-26 16:14:34"
    },
    {
        "c3prn4s7": "1016",
        "P_SKILL_NAME": "\u65b0\u305f\u306a\u308b\u5883\u5730",
        "moWQ30GH": "1",
        "PEVks0h8": "1:10118",
        "E19X6kmB": "1002002",
        "X4mIT5Lc": "1",
        "P_EXT_IMG_PARAM": "",
        "P_CREATEDATE": "2018-03-26 16:14:34",
        "P_UPDATEDATE": "2018-03-26 16:14:34"
    },
    {
        "c3prn4s7": "1017",
        "P_SKILL_NAME": "\u5929\u3092\u8cab\u304f\u96f7\u5149",
        "moWQ30GH": "1",
        "PEVks0h8": "1:10118",
        "E19X6kmB": "1001002",
        "X4mIT5Lc": "1",
        "P_EXT_IMG_PARAM": "",
        "P_CREATEDATE": "2018-03-26 16:14:34",
        "P_UPDATEDATE": "2018-03-26 16:14:34"
    },
    {
        "c3prn4s7": "1018",
        "P_SKILL_NAME": "\u4fe1\u7fa9\u306e\u6a5f\u68b0\u4eba\u5f62",
        "moWQ30GH": "1",
        "PEVks0h8": "1:10118",
        "E19X6kmB": "1004002",
        "X4mIT5Lc": "1",
        "P_EXT_IMG_PARAM": "",
        "P_CREATEDATE": "2018-03-26 16:14:34",
        "P_UPDATEDATE": "2018-03-26 16:14:34"
    },
    {
        "c3prn4s7": "1019",
        "P_SKILL_NAME": "\u7fe0\u5fc3\u306e\u5200\u9798",
        "moWQ30GH": "1",
        "PEVks0h8": "1:10120",
        "E19X6kmB": "5080001",
        "X4mIT5Lc": "1",
        "P_EXT_IMG_PARAM": "",
        "P_CREATEDATE": "2018-03-26 16:14:34",
        "P_UPDATEDATE": "2018-03-26 16:14:34"
    },
    {
        "c3prn4s7": "1020",
        "P_SKILL_NAME": "\u52b1\u708e\u306e\u52c7\u58eb",
        "moWQ30GH": "1",
        "PEVks0h8": "1:10119",
        "E19X6kmB": "10020000",
        "X4mIT5Lc": "1",
        "P_EXT_IMG_PARAM": "",
        "P_CREATEDATE": "2018-03-26 16:14:34",
        "P_UPDATEDATE": "2018-03-26 16:14:34"
    }
]