[
    {
        "P_ELEMENT_ITEM_ID": "1000",
        "P_EXPLAIN_SHORT": "\u592a\u53e4\u306e\u6614\u3088\u308a\u85ac\u8349\u3068\u3057\u3066\u5229\u7528\u3055\u308c\u3066\u304d\u305f\u690d\u7269",
        "P_EXTRA_TEXT": "\u592a\u53e4\u306e\u6614\u3088\u308a\u85ac\u8349\u3068\u3057\u3066\u5229\u7528\u3055\u308c\u3066\u304d\u305f\u690d\u7269\u3002\n\u7d30\u304b\u304f\u523b\u307f\u3001\u4ed6\u306e\u85ac\u54c1\u306b\u6d78\u3059\u3053\u3068\u3067\u8eab\u4f53\u306e\u6301\u3064\u6cbb\u7652\u80fd\u529b\u3092\u9ad8\u3081\u308b\u85ac\u3092\u7c21\u5358\u306b\u4f5c\u308b\u3053\u3068\u304c\u3067\u304d\u308b\u3002\u307e\u305f\u3001\u3053\u306e\u8349\u5358\u4f53\u3092\u670d\u7528\u3057\u305f\u969b\u306b\u306f\u89e3\u71b1\u30fb\u93ae\u75db\u4f5c\u7528\u304c\u671f\u5f85\u3067\u304d\u308b\u3002\u73fe\u5728\u3067\u3082\u591a\u304f\u306e\u85ac\u306b\u6d3b\u7528\u3055\u308c\u3066\u304a\u308a\u3001\u65c5\u306e\u5fc5\u9700\u54c1\u3068\u3082\u8a00\u308f\u308c\u3066\u3044\u308b\u3002",
        "P_COMMENT_GETTABLE": ""
    },
    {
        "P_ELEMENT_ITEM_ID": "1001",
        "P_EXPLAIN_SHORT": "\u81ea\u7136\u6cbb\u7652\u80fd\u529b\u3092\u98db\u8e8d\u7684\u306b\u9ad8\u3081\u308b\u85ac\u8349",
        "P_EXTRA_TEXT": "\u81ea\u7136\u6cbb\u7652\u80fd\u529b\u3092\u98db\u8e8d\u7684\u306b\u9ad8\u3081\u308b\u85ac\u8349\u3002\n\u56de\u5fa9\u52b9\u679c\u306f\u9ad8\u3044\u3068\u3055\u308c\u308b\u304c\u3001\u540c\u6642\u306b\u526f\u4f5c\u7528\u3082\u78ba\u8a8d\u3055\u308c\u3066\u3044\u308b\u305f\u3081\u3001\u85ac\u306e\u6750\u6599\u3068\u3059\u308b\u969b\u306b\u306f\u6df7\u305c\u308b\u85ac\u5264\u306e\u7a2e\u985e\u3084\u624b\u9806\u3092\u3057\u3063\u304b\u308a\u5b88\u3089\u306a\u3051\u308c\u3070\u306a\u3089\u306a\u3044\u3002\u307e\u305f\u3001\u683d\u57f9\u304c\u96e3\u3057\u304f\u81ea\u751f\u3057\u3066\u3044\u308b\u3082\u306e\u3092\u63a1\u53d6\u3057\u306a\u3051\u308c\u3070\u306a\u3089\u306a\u3044\u305f\u3081\u3001\u4e00\u822c\u4eba\u304c\u5165\u624b\u3059\u308b\u6a5f\u4f1a\u306f\u5c11\u306a\u3044\u3060\u308d\u3046\u3002",
        "P_COMMENT_GETTABLE": ""
    },
    {
        "P_ELEMENT_ITEM_ID": "1002",
        "P_EXPLAIN_SHORT": "\u8d64\u8272\u306e\u8449\u3092\u3057\u305f\u5f37\u58ee\u52b9\u679c\u306e\u9ad8\u3044\u85ac\u8349",
        "P_EXTRA_TEXT": "\u8d64\u8272\u306e\u8449\u3092\u3057\u305f\u5f37\u58ee\u52b9\u679c\u306e\u9ad8\u3044\u85ac\u8349\u3002\n\u4e00\u822c\u7684\u306b\u306f\u75b2\u52b4\u56de\u5fa9\u52b9\u679c\u304c\u3042\u308b\u3068\u8a00\u308f\u308c\u3066\u3044\u308b\u304c\u3001\u53ec\u559a\u5e2b\u306b\u3068\u3063\u3066\u91cd\u8981\u306a\u306e\u306f\u8abf\u5408\u3059\u308b\u4ed6\u306e\u7d20\u6750\u306b\u3088\u3063\u3066\u305d\u306e\u6027\u8cea\u3092\u5909\u3048\u308b\u6210\u5206\u3060\u308d\u3046\u3002\u306a\u304a\u3001\u7070\u3068\u716e\u8a70\u3081\u308b\u3053\u3068\u3067\u4f1d\u7d71\u7684\u306a\u8d64\u8272\u67d3\u6599\u3092\u751f\u6210\u3067\u304d\u308b\u3002\u3053\u306e\u9bae\u3084\u304b\u306a\u8d64\u306f\u3001\u304b\u3064\u3066\u306e\u30a2\u30b0\u30cb\u5730\u65b9\u306e\u8c61\u5fb4\u3067\u3082\u3042\u3063\u305f\u3002",
        "P_COMMENT_GETTABLE": ""
    },
    {
        "P_ELEMENT_ITEM_ID": "2000",
        "P_EXPLAIN_SHORT": "\u5e83\u7bc4\u56f2\u306b\u308f\u305f\u3063\u3066\u5206\u5e03\u3057\u3066\u3044\u308b\u5e83\u8449\u6a39\u306e\u5b9f",
        "P_EXTRA_TEXT": "\u5e83\u7bc4\u56f2\u306b\u308f\u305f\u3063\u3066\u5206\u5e03\u3057\u3066\u3044\u308b\u5e83\u8449\u6a39\u306e\u5b9f\u3002\n\u975e\u5e38\u306b\u5f37\u3044\u82e6\u5473\u304c\u3042\u308b\u305f\u3081\u98df\u7528\u306b\u306f\u9069\u3055\u306a\u3044\u304c\u3001\u89e3\u6bd2\u4f5c\u7528\u304c\u3042\u308b\u3053\u3068\u304b\u3089\u53e4\u6765\u3088\u308a\u91cd\u5b9d\u3055\u308c\u3066\u304d\u305f\u3002\u307e\u305f\u3001\u30a8\u30eb\u30ac\u30a4\u30a2\u306e\u732a\u306e\u4e00\u7a2e\u306f\u6bd2\u8349\u3092\u5e38\u98df\u3057\u3066\u3044\u308b\u304c\u3001\u3053\u306e\u5b9f\u3092\u98df\u3079\u3066\u4e2d\u548c\u3057\u3066\u3044\u308b\u3053\u3068\u304c\u8fd1\u5e74\u767a\u898b\u3055\u308c\u3066\u8a71\u984c\u306b\u306a\u3063\u305f\u3002",
        "P_COMMENT_GETTABLE": ""
    },
    {
        "P_ELEMENT_ITEM_ID": "2001",
        "P_EXPLAIN_SHORT": "\u69d8\u3005\u306a\u5834\u6240\u3067\u898b\u304b\u3051\u308b\u591a\u5e74\u8349\u306e\u5b9f",
        "P_EXTRA_TEXT": "\u69d8\u3005\u306a\u5834\u6240\u3067\u898b\u304b\u3051\u308b\u591a\u5e74\u8349\u306e\u5b9f\u3002\n\u975e\u5e38\u306b\u7cd6\u5ea6\u304c\u9ad8\u304f\u3001\u9593\u98df\u7528\u3068\u3057\u3066\u63a1\u53d6\u3059\u308b\u5973\u6027\u3082\u591a\u3044\u3002\u305d\u306e\u5b9f\u306b\u306f\u8eab\u4f53\u306e\u81ea\u7136\u6cbb\u7652\u80fd\u529b\u3092\u9ad8\u3081\u308b\u6210\u5206\u304c\u542b\u307e\u308c\u3066\u3044\u308b\u305f\u3081\u3001\u8fd1\u5e74\u3067\u306f\u5c0f\u3055\u306a\u5b50\u4f9b\u3092\u6301\u3064\u6bcd\u89aa\u305f\u3061\u306e\u9593\u3067\u3001\u30d3\u30a6\u306e\u5b9f\u3092\u5229\u7528\u3057\u305f\u304a\u83d3\u5b50\u304c\u4eba\u6c17\u3092\u535a\u3057\u3066\u3044\u308b\u3002",
        "P_COMMENT_GETTABLE": ""
    },
    {
        "P_ELEMENT_ITEM_ID": "2002",
        "P_EXPLAIN_SHORT": "\u6c34\u6c17\u306e\u5c11\u306a\u3044\u7070\u8910\u8272\u306e\u91dd\u8449\u6a39\u306e\u5b9f",
        "P_EXTRA_TEXT": "\u6c34\u6c17\u306e\u5c11\u306a\u3044\u7070\u8910\u8272\u306e\u91dd\u8449\u6a39\u306e\u5b9f\u3002\n\u6bd4\u8f03\u7684\u51b7\u6dbc\u306a\u5730\u57df\u306b\u5206\u5e03\u3059\u308b\u30b9\u30ba\u306e\u5b9f\u306b\u306f\u7cbe\u795e\u3092\u5b89\u5b9a\u3055\u305b\u308b\u52b9\u679c\u304c\u3042\u308a\u3001\u7c89\u672b\u306b\u3059\u308b\u3068\u85ac\u54c1\u3068\u3057\u3066\u6271\u308f\u308c\u308b\u3002\u3053\u3046\u3057\u305f\u85ac\u52b9\u306f\u8fd1\u5e74\u306e\u85ac\u5b66\u306e\u767a\u5c55\u306b\u4f34\u3044\u767a\u898b\u3055\u308c\u305f\u3053\u3068\u3060\u304c\u3001\u53e4\u6765\u3088\u308a\u30b9\u30ba\u306e\u5b9f\u306f\u5fc3\u306e\u5e73\u7a4f\u3092\u3082\u305f\u3089\u3059\u304a\u5b88\u308a\u3060\u3068\u4fe1\u3058\u3089\u308c\u3066\u304d\u305f\u3068\u3044\u3046\u3002",
        "P_COMMENT_GETTABLE": ""
    },
    {
        "P_ELEMENT_ITEM_ID": "2100",
        "P_EXPLAIN_SHORT": "\u7279\u5fb4\u7684\u306a\u8449\u3092\u6301\u3064\u591a\u5e74\u8349\u306e\u771f\u3063\u8d64\u306a\u5b9f",
        "P_EXTRA_TEXT": "\u7279\u5fb4\u7684\u306a\u8449\u3092\u6301\u3064\u591a\u5e74\u8349\u306e\u771f\u3063\u8d64\u306a\u5b9f\u3002\n\u98df\u3079\u305f\u8005\u306e\u7cbe\u795e\u3092\u9ad8\u3076\u3089\u305b\u308b\u6210\u5206\u304c\u542b\u307e\u308c\u3066\u304a\u308a\u3001\u53e4\u306e\u6226\u58eb\u305f\u3061\u306f\u3053\u306e\u5b9f\u3092\u643a\u5e2f\u3057\u3066\u6226\u5834\u306b\u81e8\u3093\u3060\u3068\u3044\u3046\u8a00\u3044\u4f1d\u3048\u3082\u6b8b\u3055\u308c\u3066\u3044\u308b\u3002\u3057\u304b\u3057\u3001\u52b9\u679c\u304c\u5207\u308c\u305f\u5f8c\u306f\u7cbe\u795e\u304c\u3072\u3069\u304f\u4e0d\u5b89\u5b9a\u306b\u306a\u308b\u305f\u3081\u3001\u8fd1\u5e74\u3067\u306f\u526f\u4f5c\u7528\u3092\u6291\u3048\u305f\u6c34\u85ac\u304c\u958b\u767a\u3055\u308c\u308b\u3088\u3046\u306b\u306a\u3063\u305f\u3002",
        "P_COMMENT_GETTABLE": ""
    },
    {
        "P_ELEMENT_ITEM_ID": "2101",
        "P_EXPLAIN_SHORT": "\u975e\u5e38\u306b\u5f37\u3044\u81ed\u3044\u3092\u767a\u3059\u308b\u4e00\u5e74\u8349\u306e\u5b9f",
        "P_EXTRA_TEXT": "\u975e\u5e38\u306b\u5f37\u3044\u81ed\u3044\u3092\u767a\u3059\u308b\u4e00\u5e74\u8349\u306e\u5b9f\u3002\n\u8eab\u4f53\u3092\u4e08\u592b\u306b\u3059\u308b\u6210\u5206\u304c\u591a\u304f\u542b\u307e\u308c\u3066\u3044\u308b\u304c\u3001\u305d\u306e\u81ed\u3044\u306f\u6700\u60aa\u3068\u8a55\u3055\u308c\u3066\u304a\u308a\u3001\u53e3\u306b\u3059\u308b\u3053\u3068\u3092\u5acc\u3046\u8005\u304c\u591a\u3044\u3002\u6614\u306e\u4eba\u3005\u306f\u6d99\u3092\u6d41\u3057\u306a\u304c\u3089\u98f2\u307f\u8fbc\u3093\u3060\u3068\u8a00\u308f\u308c\u3066\u3044\u308b\u304c\u3001\u4eca\u3067\u306f\u7814\u7a76\u306b\u3088\u308a\u81ed\u6c17\u3092\u6291\u3048\u305f\u6c34\u85ac\u306e\u8abf\u5408\u6cd5\u304c\u751f\u307f\u51fa\u3055\u308c\u305f\u3002",
        "P_COMMENT_GETTABLE": ""
    },
    {
        "P_ELEMENT_ITEM_ID": "3000",
        "P_EXPLAIN_SHORT": "\u6cbb\u7652\u52b9\u679c\u304c\u3042\u308b\u3053\u3068\u3067\u77e5\u3089\u308c\u308b\u6e67\u6c34\u306e\u96eb",
        "P_EXTRA_TEXT": "\u6cbb\u7652\u52b9\u679c\u304c\u3042\u308b\u3053\u3068\u3067\u77e5\u3089\u308c\u308b\u6e67\u6c34\u306e\u96eb\u3002\n\u75c5\u4eba\u3084\u602a\u6211\u4eba\u304c\u3053\u306e\u6c34\u306b\u4f53\u3092\u6d78\u3059\u3068\u6cbb\u308a\u304c\u65e9\u304f\u306a\u308b\u3068\u8a00\u308f\u308c\u3066\u304a\u308a\u3001\u6e67\u304d\u51fa\u3059\u571f\u5730\u306b\u306f\u6cbb\u7642\u9662\u304c\u5efa\u3066\u3089\u308c\u3066\u3044\u308b\u3053\u3068\u304c\u591a\u3044\u3002\u85ac\u8349\u3092\u714e\u3058\u308b\u969b\u306b\u7528\u3044\u3089\u308c\u308b\u3053\u3068\u3082\u591a\u304f\u3001\u7d44\u307f\u5408\u308f\u305b\u306b\u3088\u3063\u3066\u306f\u52b9\u679c\u304c\u98db\u8e8d\u7684\u306b\u5411\u4e0a\u3059\u308b\u3002",
        "P_COMMENT_GETTABLE": ""
    },
    {
        "P_ELEMENT_ITEM_ID": "3001",
        "P_EXPLAIN_SHORT": "\u5730\u4e0b\u304b\u3089\u6c72\u307f\u4e0a\u3052\u3089\u308c\u305f\u96eb",
        "P_EXTRA_TEXT": "\u5730\u4e0b\u304b\u3089\u6c72\u307f\u4e0a\u3052\u3089\u308c\u305f\u96eb\u3002\n\u7cd6\u5206\u3068\u306f\u7570\u306a\u308b\u5f37\u3044\u7518\u307f\u304c\u3042\u308a\u3001\u5065\u5eb7\u7684\u306a\u8abf\u5473\u6599\u3068\u3057\u3066\u3082\u77e5\u3089\u308c\u3066\u3044\u308b\u3002\u98f2\u307f\u306b\u304f\u3044\u85ac\u306e\u53e3\u5f53\u305f\u308a\u3092\u67d4\u3089\u304b\u304f\u3059\u308b\u305f\u3081\u306b\u3082\u7528\u3044\u3089\u308c\u3066\u304a\u308a\u3001\u85ac\u8349\u3068\u306e\u76f8\u6027\u306b\u3088\u3063\u3066\u306f\u305d\u306e\u52b9\u679c\u3092\u5897\u3059\u3053\u3068\u3082\u53ef\u80fd\u3067\u3042\u308b\u3002",
        "P_COMMENT_GETTABLE": ""
    },
    {
        "P_ELEMENT_ITEM_ID": "3002",
        "P_EXPLAIN_SHORT": "\u4eba\u304c\u3042\u307e\u308a\u7acb\u3061\u5165\u3089\u306a\u3044\u5834\u6240\u3067\u6c72\u3081\u308b\u540d\u6c34\u306e\u96eb",
        "P_EXTRA_TEXT": "\u4eba\u304c\u3042\u307e\u308a\u7acb\u3061\u5165\u3089\u306a\u3044\u5834\u6240\u3067\u6c72\u3081\u308b\u540d\u6c34\u306e\u96eb\u3002\n\u81ea\u7136\u6cbb\u7652\u80fd\u529b\u3092\u9ad8\u3081\u308b\u529b\u3092\u6301\u3063\u3066\u304a\u308a\u3001\u85ac\u8349\u3068\u8abf\u5408\u3059\u308b\u3053\u3068\u3067\u3088\u308a\u52b9\u679c\u306e\u9ad8\u3044\u85ac\u3092\u751f\u6210\u3067\u304d\u308b\u3002\u6642\u306b\u306f\u5730\u71b1\u3067\u6e67\u3044\u305f\u3053\u306e\u6c34\u304c\u6e29\u6cc9\u3068\u3057\u3066\u898b\u3064\u304b\u308b\u3053\u3068\u3082\u3042\u308a\u3001\u50b7\u3084\u75c5\u306b\u3088\u304f\u52b9\u304f\u79d8\u6e6f\u3068\u3057\u3066\u4eba\u3005\u306e\u9593\u3067\u8a55\u5224\u306b\u306a\u308b\u3068\u3044\u3046\u3002",
        "P_COMMENT_GETTABLE": ""
    },
    {
        "P_ELEMENT_ITEM_ID": "4000",
        "P_EXPLAIN_SHORT": "\u751f\u547d\u529b\u306b\u3088\u3063\u3066\u8f1d\u304d\u3092\u5897\u3059\u4e0d\u601d\u8b70\u306a\u5b9d\u77f3",
        "P_EXTRA_TEXT": "\u751f\u547d\u529b\u306b\u3088\u3063\u3066\u8f1d\u304d\u3092\u5897\u3059\u4e0d\u601d\u8b70\u306a\u5b9d\u77f3\u3002\n\u6b66\u795e\u306e\u5982\u304f\u76f8\u624b\u306e\u529b\u91cf\u3092\u6b63\u78ba\u306b\u56f3\u308b\u6027\u8cea\u304b\u3089\u3053\u306e\u540d\u304c\u4ed8\u3051\u3089\u308c\u305f\u3068\u3044\u3046\u3002\u7c89\u672b\u306b\u3057\u3066\u98f2\u3080\u3053\u3068\u3067\u7cbe\u795e\u529b\u3092\u9ad8\u3081\u308b\u52b9\u80fd\u304c\u3042\u308a\u3001\u4ed6\u306e\u7d20\u6750\u3068\u8abf\u5408\u3059\u308b\u3053\u3068\u3067\u53ec\u559a\u5e2b\u306b\u5fc5\u8981\u306a\u514b\u5df1\u5fc3\u3092\u990a\u3046\u305f\u3081\u306e\u85ac\u54c1\u3092\u751f\u6210\u3059\u308b\u3053\u3068\u304c\u3067\u304d\u308b\u3002",
        "P_COMMENT_GETTABLE": ""
    },
    {
        "P_ELEMENT_ITEM_ID": "4001",
        "P_EXPLAIN_SHORT": "\u708e\u306e\u529b\u3092\u79d8\u3081\u305f\u5b9d\u77f3",
        "P_EXTRA_TEXT": "\u4e16\u754c\u3092\u69cb\u6210\u3059\u308b\u5143\u7d20\u306e\u3072\u3068\u3064\u3001\u708e\u306e\u529b\u3092\u79d8\u3081\u305f\u5b9d\u77f3\u3002\n\u8d64\u304f\u6fc0\u3057\u3044\u8f1d\u304d\u3092\u6301\u3064\u5b9d\u77f3\u3068\u3057\u3066\u53d6\u5f15\u3055\u308c\u3066\u304a\u308a\u3001\u7279\u306b\u60c5\u71b1\u7684\u306a\u604b\u3092\u6c42\u3081\u308b\u5973\u6027\u304b\u3089\u611b\u3055\u308c\u3066\u3044\u308b\u3068\u3044\u3046\u3002\u3057\u304b\u3057\u3001\u53ec\u559a\u5e2b\u306b\u3068\u3063\u3066\u306f\u88c5\u98fe\u54c1\u3068\u3057\u3066\u3067\u306f\u306a\u304f\u3001\u708e\u306e\u529b\u3092\u9ad8\u3081\u308b\u85ac\u54c1\u306e\u6750\u6599\u3068\u3057\u3066\u91cd\u8981\u8996\u3055\u308c\u3066\u3044\u308b\u3002",
        "P_COMMENT_GETTABLE": ""
    },
    {
        "P_ELEMENT_ITEM_ID": "4002",
        "P_EXPLAIN_SHORT": "\u6c34\u306e\u529b\u3092\u79d8\u3081\u305f\u5b9d\u77f3",
        "P_EXTRA_TEXT": "\u81ea\u7136\u754c\u306b\u6e80\u3061\u308b\u5143\u7d20\u306e\u3072\u3068\u3064\u3001\u6c34\u306e\u529b\u3092\u79d8\u3081\u305f\u5b9d\u77f3\u3002\n\u6c34\u9762\u306e\u3088\u3046\u306b\u6f84\u3093\u3060\u8f1d\u304d\u304b\u3089\u88c5\u98fe\u54c1\u3068\u3057\u3066\u3082\u73cd\u91cd\u3055\u308c\u3066\u3044\u308b\u304c\u3001\u53ec\u559a\u5e2b\u306b\u3068\u3063\u3066\u306f\u6c34\u306e\u529b\u3092\u9ad8\u3081\u308b\u85ac\u54c1\u306e\u7d20\u6750\u3068\u3057\u3066\u77e5\u3089\u308c\u3066\u3044\u308b\u3002\u3082\u3063\u3068\u3082\u3001\u305d\u306e\u7f8e\u3057\u3055\u306e\u3042\u307e\u308a\u3001\u7815\u3044\u3066\u3057\u307e\u3046\u306e\u306f\u3082\u3063\u305f\u3044\u306a\u3044\u3068\u8003\u3048\u308b\u53ec\u559a\u5e2b\u306f\u591a\u3044\u3002",
        "P_COMMENT_GETTABLE": ""
    },
    {
        "P_ELEMENT_ITEM_ID": "4003",
        "P_EXPLAIN_SHORT": "\u6a39\u306e\u529b\u3092\u79d8\u3081\u305f\u5b9d\u77f3",
        "P_EXTRA_TEXT": "\u5927\u5730\u306b\u5bbf\u308b\u5143\u7d20\u306e\u3072\u3068\u3064\u3001\u6a39\u306e\u529b\u3092\u79d8\u3081\u305f\u5b9d\u77f3\u3002\n\u6df1\u304f\u6fc3\u3044\u7dd1\u8272\u306e\u5b9d\u77f3\u3067\u3042\u308a\u3001\u5973\u6027\u306f\u8eab\u306b\u4ed8\u3051\u308c\u3070\u6e05\u695a\u3055\u3084\u6e05\u6f54\u611f\u3092\u9ad8\u3081\u308b\u3053\u3068\u304c\u3067\u304d\u308b\u3060\u308d\u3046\u3002\u305f\u3060\u3057\u3001\u591a\u304f\u306e\u53ec\u559a\u5e2b\u306f\u3053\u306e\u5b9d\u77f3\u3092\u7815\u3044\u3066\u7c89\u672b\u306b\u3057\u3066\u3001\u6a39\u306e\u529b\u3092\u9ad8\u3081\u308b\u85ac\u54c1\u306e\u6750\u6599\u3068\u3057\u3066\u4f7f\u7528\u3059\u308b\u3002",
        "P_COMMENT_GETTABLE": ""
    },
    {
        "P_ELEMENT_ITEM_ID": "4004",
        "P_EXPLAIN_SHORT": "\u96f7\u306e\u529b\u3092\u79d8\u3081\u305f\u5b9d\u77f3",
        "P_EXTRA_TEXT": "\u7a7a\u9593\u3092\u57cb\u3081\u308b\u5143\u7d20\u306e\u3072\u3068\u3064\u3001\u96f7\u306e\u529b\u3092\u79d8\u3081\u305f\u5b9d\u77f3\u3002\n\u975e\u5e38\u306b\u8f1d\u5ea6\u306e\u9ad8\u3044\u9ec4\u91d1\u8272\u306e\u5b9d\u77f3\u3068\u3057\u3066\u77e5\u3089\u308c\u3066\u3044\u308b\u3002\u305d\u306e\u8f1d\u304d\u306f\u591a\u304f\u306e\u8005\u305f\u3061\u3092\u9b45\u4e86\u3057\u3066\u304d\u305f\u304c\u3001\u786c\u5ea6\u304c\u4f4e\u3044\u305f\u3081\u304b\u3061\u3087\u3063\u3068\u3057\u305f\u885d\u6483\u3067\u305d\u306e\u7f8e\u3057\u3055\u306f\u640d\u306a\u308f\u308c\u3066\u3057\u307e\u3046\u3002\u306a\u304a\u3001\u7815\u3044\u3066\u85ac\u54c1\u306b\u8abf\u5408\u3059\u308c\u3070\u96f7\u306e\u529b\u3092\u9ad8\u3081\u308b\u52b9\u679c\u3092\u767a\u63ee\u3059\u308b\u3002",
        "P_COMMENT_GETTABLE": ""
    },
    {
        "P_ELEMENT_ITEM_ID": "4005",
        "P_EXPLAIN_SHORT": "\u5149\u306e\u529b\u3092\u79d8\u3081\u305f\u5b9d\u77f3",
        "P_EXTRA_TEXT": "\u3053\u306e\u4e16\u3092\u5f62\u4f5c\u308b\u5143\u7d20\u306e\u3072\u3068\u3064\u3001\u5149\u306e\u529b\u3092\u79d8\u3081\u305f\u5b9d\u77f3\u3002\n\u5f37\u3044\u5149\u306b\u6652\u3059\u3053\u3068\u3067\u7729\u3044\u8f1d\u304d\u3092\u653e\u3064\u3002\u53e4\u304f\u3088\u308a\u795e\u8056\u306a\u5b9d\u77f3\u3068\u3057\u3066\u79f0\u3048\u3089\u308c\u3066\u304d\u305f\u304c\u3001\u7815\u3044\u3066\u5149\u306e\u529b\u3092\u9ad8\u3081\u308b\u85ac\u54c1\u3092\u751f\u6210\u3059\u308b\u3053\u3068\u3082\u53ef\u80fd\u3067\u3042\u308b\u3002\u7f8e\u3092\u6c42\u3081\u308b\u304b\u3001\u529b\u3092\u6c42\u3081\u308b\u304b\u3001\u6240\u6709\u8005\u306b\u3088\u3063\u3066\u305d\u306e\u904b\u547d\u306f\u5927\u304d\u304f\u5909\u308f\u308b\u5b9d\u77f3\u3067\u3042\u308b\u3002",
        "P_COMMENT_GETTABLE": ""
    },
    {
        "P_ELEMENT_ITEM_ID": "4006",
        "P_EXPLAIN_SHORT": "\u95c7\u306e\u529b\u3092\u79d8\u3081\u305f\u5b9d\u77f3",
        "P_EXTRA_TEXT": "\u666e\u904d\u7684\u306b\u5b58\u5728\u3059\u308b\u5143\u7d20\u306e\u3072\u3068\u3064\u3001\u95c7\u306e\u529b\u3092\u79d8\u3081\u305f\u5b9d\u77f3\u3002\n\u95c7\u3088\u308a\u6df1\u3044\u9ed2\u306e\u5b9d\u77f3\u3067\u3042\u308b\u3053\u3068\u304b\u3089\u81f3\u4e0a\u306e\u9ed2\u3068\u3082\u547c\u3070\u308c\u3001\u3058\u3063\u3068\u898b\u3064\u3081\u3066\u3044\u308b\u3068\u9b42\u3092\u5438\u3044\u8fbc\u307e\u308c\u305d\u3046\u306a\u6c17\u5206\u306b\u306a\u308b\u3068\u3044\u3046\u3002\u95c7\u306e\u529b\u3092\u9ad8\u3081\u308b\u85ac\u54c1\u306e\u7d20\u6750\u3068\u3057\u3066\u9700\u8981\u304c\u3042\u308b\u304c\u3001\u305d\u306e\u7f8e\u3057\u3055\u306b\u9b45\u5165\u3089\u308c\u3066\u624b\u653e\u3059\u3053\u3068\u3092\u62d2\u3080\u8005\u3082\u5c11\u306a\u304f\u306a\u3044\u3002",
        "P_COMMENT_GETTABLE": ""
    },
    {
        "P_ELEMENT_ITEM_ID": "5000",
        "P_EXPLAIN_SHORT": "\u592a\u53e4\u306e\u9b54\u7363\u306e\u5316\u77f3\u3068\u8a00\u308f\u308c\u3066\u3044\u308b\u975e\u5e38\u306b\u786c\u3044\u9aa8",
        "P_EXTRA_TEXT": "\u592a\u53e4\u306e\u9b54\u7363\u306e\u5316\u77f3\u3068\u8a00\u308f\u308c\u3066\u3044\u308b\u975e\u5e38\u306b\u786c\u3044\u9aa8\u3002\n\u9b54\u7363\u304c\u3069\u306e\u3088\u3046\u306a\u59ff\u3060\u3063\u305f\u304b\u306f\u660e\u3089\u304b\u306b\u306a\u3063\u3066\u3044\u306a\u3044\u304c\u3001\u4f1d\u627f\u306b\u3088\u308c\u3070\u975e\u5e38\u306b\u7370\u731b\u3067\u3042\u3063\u305f\u3068\u3044\u3046\u3002\u9aa8\u306b\u306f\u7363\u6027\u304c\u79d8\u3081\u3089\u308c\u3066\u304a\u308a\u3001\u9b54\u8853\u7684\u306a\u63aa\u7f6e\u3092\u65bd\u305b\u3070\u95d8\u4e89\u672c\u80fd\u3092\u523a\u6fc0\u3059\u308b\u546a\u5177\u3092\u4f5c\u308b\u3053\u3068\u3082\u53ef\u80fd\u3060\u3068\u3044\u3046\u3002",
        "P_COMMENT_GETTABLE": ""
    },
    {
        "P_ELEMENT_ITEM_ID": "5001",
        "P_EXPLAIN_SHORT": "\u9065\u304b\u6614\u306b\u751f\u606f\u3057\u305f\u5927\u304d\u306a\u4f53\u3092\u6301\u3064\u7dd1\u7363\u306e\u9aa8",
        "P_EXTRA_TEXT": "\u9065\u304b\u6614\u306b\u751f\u606f\u3057\u305f\u5927\u304d\u306a\u4f53\u3092\u6301\u3064\u7dd1\u7363\u306e\u9aa8\u3002\n\u5bc6\u5ea6\u304c\u9ad8\u304f\u90e8\u4f4d\u306b\u3088\u3063\u3066\u69d8\u3005\u306a\u5f62\u72b6\u306e\u9aa8\u304c\u624b\u306b\u5165\u308b\u305f\u3081\u3001\u6b66\u5177\u306e\u7d20\u6750\u3068\u3057\u3066\u4eba\u6c17\u304c\u3042\u308b\u3002\u53e4\u4ee3\u907a\u8de1\u304b\u3089\u51fa\u571f\u3059\u308b\u93a7\u306b\u3082\u7dd1\u7363\u306e\u9aa8\u304c\u4f7f\u308f\u308c\u3066\u3044\u308b\u306a\u3069\u3001\u9065\u304b\u6614\u304b\u3089\u4eba\u9593\u306b\u3088\u3063\u3066\u4e71\u7372\u3055\u308c\u3066\u304d\u305f\u3053\u3068\u304c\u60f3\u8d77\u3055\u308c\u308b\u3002",
        "P_COMMENT_GETTABLE": ""
    },
    {
        "P_ELEMENT_ITEM_ID": "5002",
        "P_EXPLAIN_SHORT": "\u5c48\u5f37\u306a\u8eab\u4f53\u304c\u7279\u5fb4\u7684\u3060\u3068\u4f1d\u308f\u308b\u9752\u7363\u306e\u9aa8",
        "P_EXTRA_TEXT": "\u5c48\u5f37\u306a\u8eab\u4f53\u304c\u7279\u5fb4\u7684\u3060\u3068\u4f1d\u308f\u308b\u9752\u7363\u306e\u9aa8\u3002\n\u592a\u304f\u9811\u4e08\u306a\u9aa8\u3060\u304c\u3001\u52a0\u5de5\u6280\u8853\u304c\u78ba\u7acb\u3055\u308c\u3066\u3044\u308b\u305f\u3081\u6b66\u5177\u306e\u7d20\u6750\u3068\u3057\u3066\u6271\u3044\u3084\u3059\u3044\u3002\u7d30\u304b\u304f\u7815\u3051\u3066\u3057\u307e\u3063\u305f\u90e8\u4f4d\u3067\u3082\u9c57\u72b6\u306b\u91cd\u306d\u308b\u3053\u3068\u3067\u5f37\u5ea6\u306e\u9ad8\u3044\u93a7\u3092\u4f5c\u308b\u3053\u3068\u304c\u3067\u304d\u308b\u305f\u3081\u3001\u53ec\u559a\u5e2b\u305f\u3061\u306f\u3067\u304d\u308b\u9650\u308a\u53ce\u96c6\u3059\u308b\u3088\u3046\u306b\u6307\u793a\u3055\u308c\u3066\u3044\u308b\u3002",
        "P_COMMENT_GETTABLE": ""
    },
    {
        "P_ELEMENT_ITEM_ID": "5003",
        "P_EXPLAIN_SHORT": "\u592a\u53e4\u306e\u6614\u306b\u751f\u304d\u3066\u3044\u305f\u8d64\u7363\u306e\u9aa8\u306e\u5316\u77f3",
        "P_EXTRA_TEXT": "\u592a\u53e4\u306e\u6614\u306b\u751f\u304d\u3066\u3044\u305f\u3068\u3055\u308c\u308b\u8d64\u7363\u306e\u9aa8\u306e\u5316\u77f3\u3002\n\u5316\u77f3\u3068\u306a\u3063\u305f\u3053\u306e\u9aa8\u306f\u6050\u308d\u3057\u3044\u307b\u3069\u306e\u5bc6\u5ea6\u3092\u8a87\u308a\u3001\u3057\u306a\u3084\u304b\u3055\u3068\u9811\u5f37\u3055\u3092\u4f75\u305b\u6301\u3063\u3066\u3044\u308b\u3002\u305d\u306e\u5f71\u97ff\u3067\u52a0\u5de5\u306b\u306f\u76f8\u5fdc\u306e\u6280\u8853\u304c\u5fc5\u8981\u3067\u3042\u308a\u3001\u719f\u7df4\u306e\u8077\u4eba\u3067\u3059\u3089\u60a9\u307e\u3055\u308c\u308b\u3068\u3044\u3046\u3002\u306a\u304a\u3001\u8d64\u7363\u304c\u5143\u3005\u3069\u306e\u3088\u3046\u306a\u52d5\u7269\u3060\u3063\u305f\u306e\u304b\u306f\u73fe\u5728\u3067\u3082\u5206\u304b\u3063\u3066\u3044\u306a\u3044\u3002",
        "P_COMMENT_GETTABLE": ""
    },
    {
        "P_ELEMENT_ITEM_ID": "6000",
        "P_EXPLAIN_SHORT": "\u795e\u3005\u3057\u3055\u3068\u5a01\u53b3\u3092\u611f\u3058\u3055\u305b\u308b\u8cb4\u91cd\u306a\u970a\u77f3",
        "P_EXTRA_TEXT": "\u795e\u3005\u3057\u3055\u3068\u5a01\u53b3\u3092\u611f\u3058\u3055\u305b\u308b\u8cb4\u91cd\u306a\u970a\u77f3\u3002\n\u8fd1\u5e74\u3067\u306f\u7c89\u672b\u306b\u3057\u3066\u6442\u53d6\u3059\u308c\u3070\u3001\u7cbe\u795e\u72b6\u614b\u3092\u77ac\u6642\u306b\u9ad8\u3081\u308b\u52b9\u80fd\u304c\u78ba\u8a8d\u3055\u308c\u3066\u304a\u308a\u3001\u85ac\u54c1\u306e\u6750\u6599\u3068\u3057\u3066\u6271\u308f\u308c\u3066\u3044\u308b\u3002\u592a\u53e4\u306e\u6614\u306f\u6b66\u795e\u306e\u529b\u304c\u5bbf\u308b\u3068\u8003\u3048\u3089\u308c\u3066\u3044\u305f\u305f\u3081\u3001\u6b66\u904b\u9577\u4e45\u3092\u9858\u3046\u8b77\u7b26\u306e\u4e2d\u306b\u5165\u3063\u3066\u3044\u308b\u3053\u3068\u304c\u591a\u304b\u3063\u305f\u3068\u3044\u3046\u3002",
        "P_COMMENT_GETTABLE": ""
    },
    {
        "P_ELEMENT_ITEM_ID": "6002",
        "P_EXPLAIN_SHORT": "\u9b42\u3092\u5275\u308a\u51fa\u3059\u307b\u3069\u306e\u529b\u3092\u79d8\u3081\u3066\u3044\u308b\u3068\u3044\u3046\u970a\u77f3",
        "P_EXTRA_TEXT": "\u9b42\u3092\u5275\u308a\u51fa\u3059\u307b\u3069\u306e\u529b\u3092\u79d8\u3081\u3066\u3044\u308b\u3068\u3044\u3046\u970a\u77f3\u3002\n\u5c0f\u5200\u3067\u7d30\u5de5\u304c\u53ef\u80fd\u306a\u307b\u3069\u8edf\u3089\u304b\u304f\u3001\u52a0\u5de5\u304c\u3057\u3084\u3059\u3044\u970a\u77f3\u3067\u3042\u308b\u3002\u3053\u306e\u77f3\u6750\u3067\u4f5c\u3089\u308c\u305f\u9053\u5177\u306b\u306f\u529b\u304c\u5bbf\u308b\u305f\u3081\u3001\u53e4\u6765\u3088\u308a\u796d\u7940\u306b\u7528\u3044\u3089\u308c\u308b\u697d\u5668\u306e\u6750\u6599\u3068\u3055\u308c\u3066\u304d\u305f\u3002\u796d\u7940\u306e\u5f8c\u306b\u305d\u306e\u697d\u5668\u3092\u7815\u304d\u3001\u5bbf\u3063\u305f\u970a\u529b\u3092\u4e16\u754c\u306b\u9084\u3059\u3053\u3068\u304c\u53e4\u304f\u304b\u3089\u306e\u7fd2\u308f\u3057\u3067\u3042\u308b\u3068\u3044\u3046\u3002",
        "P_COMMENT_GETTABLE": ""
    },
    {
        "P_ELEMENT_ITEM_ID": "7000",
        "P_EXPLAIN_SHORT": "\u9065\u304b\u6614\u306b\u7fa4\u308c\u3092\u306a\u3057\u3066\u5b58\u5728\u3057\u305f\u7dd1\u7363\u306e\u722a",
        "P_EXTRA_TEXT": "\u9065\u304b\u6614\u306b\u7fa4\u308c\u3092\u306a\u3057\u3066\u5b58\u5728\u3057\u305f\u7dd1\u7363\u306e\u722a\u3002\n\u9aa8\u307b\u3069\u786c\u304f\u306f\u306a\u3044\u3082\u306e\u306e\u3001\u305d\u306e\u65ad\u9762\u306f\u92ed\u5229\u3067\u3042\u308a\u3001\u4e26\u306e\u91d1\u5c5e\u3088\u308a\u3082\u512a\u308c\u305f\u5203\u3092\u4f5c\u308a\u51fa\u3059\u3053\u3068\u304c\u3067\u304d\u308b\u3002\u99c6\u3051\u51fa\u3057\u306e\u6b66\u5668\u8077\u4eba\u306f\u307e\u305a\u5404\u5730\u3067\u63a1\u53d6\u3067\u304d\u308b\u7dd1\u7363\u306e\u722a\u3092\u52a0\u5de5\u3059\u308b\u3068\u3053\u308d\u304b\u3089\u4fee\u884c\u3092\u958b\u59cb\u3059\u308b\u305f\u3081\u3001\u201c\u722a\u7814\u304e\u201d\u306e\u611b\u79f0\u3067\u3082\u547c\u3070\u308c\u3066\u3044\u308b\u3002",
        "P_COMMENT_GETTABLE": ""
    },
    {
        "P_ELEMENT_ITEM_ID": "7001",
        "P_EXPLAIN_SHORT": "\u9811\u4e08\u306a\u8089\u4f53\u304c\u60f3\u8d77\u3055\u308c\u308b\u9752\u7363\u306e\u722a",
        "P_EXTRA_TEXT": "\u9811\u4e08\u306a\u8089\u4f53\u304c\u60f3\u8d77\u3055\u308c\u308b\u9752\u7363\u306e\u722a\u3002\n\u5de8\u5927\u306a\u91d1\u5c5e\u306e\u584a\u306e\u3088\u3046\u306a\u9ad8\u786c\u5ea6\u3092\u8a87\u308a\u3001\u53e4\u304f\u3088\u308a\u6b66\u5668\u306e\u7d20\u6750\u3068\u3057\u3066\u73cd\u91cd\u3055\u308c\u3066\u304d\u305f\u3002\u4f1d\u8aac\u306e\u5200\u5320\u3082\u597d\u3093\u3067\u4f7f\u7528\u3059\u308b\u307b\u3069\u3067\u3001\u73fe\u5728\u307e\u3067\u6b8b\u3055\u308c\u3066\u3044\u308b\u4f1d\u8aac\u306e\u6b66\u5177\u306b\u3082\u3053\u306e\u722a\u3067\u4f5c\u3089\u308c\u305f\u3068\u601d\u3057\u304d\u7269\u304c\u5c11\u306a\u304f\u306a\u3044\u3002",
        "P_COMMENT_GETTABLE": ""
    },
    {
        "P_ELEMENT_ITEM_ID": "7002",
        "P_EXPLAIN_SHORT": "\u592a\u53e4\u306e\u6614\u306b\u5927\u5730\u3092\u95ca\u6b69\u3057\u3066\u3044\u305f\u8d64\u7363\u306e\u722a\u306e\u5316\u77f3",
        "P_EXTRA_TEXT": "\u592a\u53e4\u306e\u6614\u306b\u5927\u5730\u3092\u95ca\u6b69\u3057\u3066\u3044\u305f\u8d64\u7363\u306e\u722a\u306e\u5316\u77f3\u3002\n\u305d\u306e\u92ed\u3055\u306f\u898b\u308b\u8005\u3092\u6226\u6144\u3055\u305b\u308b\u307b\u3069\u3067\u3042\u308a\u3001\u767a\u6398\u3055\u308c\u305f\u59ff\u306e\u307e\u307e\u3067\u3082\u5f37\u529b\u306a\u6b66\u5668\u3068\u3057\u3066\u4f7f\u3048\u308b\u3068\u3044\u3046\u3002\u78e8\u304d\u3092\u639b\u3051\u3066\u935b\u3048\u308b\u307b\u3069\u306b\u305d\u306e\u5207\u308c\u5473\u306f\u5897\u3057\u3066\u3044\u304f\u305f\u3081\u3001\u624b\u9593\u3092\u60dc\u3057\u307e\u305a\u52a0\u5de5\u3059\u308c\u3070\u7d20\u6674\u3089\u3057\u3044\u6b66\u5668\u304c\u4f5c\u308a\u51fa\u305b\u308b\u3060\u308d\u3046\u3002",
        "P_COMMENT_GETTABLE": ""
    },
    {
        "P_ELEMENT_ITEM_ID": "8000",
        "P_EXPLAIN_SHORT": "\u52d5\u304d\u306f\u920d\u3044\u304c\u5927\u304d\u306a\u4f53\u3092\u6301\u3064\u7dd1\u7363\u306e\u7259",
        "P_EXTRA_TEXT": "\u52d5\u304d\u306f\u920d\u3044\u304c\u5927\u304d\u306a\u4f53\u3092\u6301\u3064\u7dd1\u7363\u306e\u7259\u3002\n\u7dd1\u7363\u306f\u8349\u306e\u307f\u306a\u3089\u305a\u6728\u3005\u3067\u3059\u3089\u3001\u305d\u306e\u5f37\u976d\u306a\u984e\u306e\u529b\u3067\u565b\u307f\u7815\u3044\u3066\u98df\u3079\u3066\u3057\u307e\u3046\u3002\u984e\u304c\u767a\u9054\u3057\u3066\u3044\u308b\u5f71\u97ff\u3067\u7259\u3082\u975e\u5e38\u306b\u9811\u4e08\u3067\u3042\u308a\u3001\u73fe\u5728\u3067\u3082\u4fe1\u983c\u6027\u306e\u9ad8\u3044\u6b66\u5177\u306e\u6750\u6599\u3068\u3057\u3066\u591a\u304f\u306e\u53ec\u559a\u5e2b\u306b\u77e5\u308c\u6e21\u3063\u3066\u3044\u308b\u3002",
        "P_COMMENT_GETTABLE": ""
    },
    {
        "P_ELEMENT_ITEM_ID": "8001",
        "P_EXPLAIN_SHORT": "\u898b\u4e0a\u3052\u308b\u307b\u3069\u306e\u5de8\u4f53\u3092\u8a87\u308b\u9752\u7363\u306e\u7259",
        "P_EXTRA_TEXT": "\u898b\u4e0a\u3052\u308b\u307b\u3069\u306e\u5de8\u4f53\u3092\u8a87\u308b\u9752\u7363\u306e\u7259\u3002\n\u7259\u306a\u304c\u3089\u4eba\u9593\u306e\u982d\u90e8\u3092\u4e0a\u56de\u308b\u307b\u3069\u306e\u5927\u304d\u3055\u304c\u3042\u308a\u3001\u56fa\u304f\u3066\u91cd\u3044\u305f\u3081\u52a0\u5de5\u306b\u306f\u719f\u7df4\u306e\u6280\u3092\u8981\u3059\u308b\u3002\u3057\u304b\u3057\u3001\u6b66\u5177\u306e\u7d20\u6750\u3068\u3057\u3066\u6d3b\u7528\u3059\u308b\u3053\u3068\u304c\u3067\u304d\u308c\u3070\u3001\u91d1\u5c5e\u88fd\u306e\u9632\u5177\u3092\u5bb9\u6613\u304f\u5727\u58ca\u3067\u304d\u308b\u9038\u54c1\u304c\u4ed5\u4e0a\u304c\u308b\u3060\u308d\u3046\u3002",
        "P_COMMENT_GETTABLE": ""
    },
    {
        "P_ELEMENT_ITEM_ID": "8002",
        "P_EXPLAIN_SHORT": "\u592a\u53e4\u306e\u6614\u306b\u751f\u606f\u3057\u3066\u3044\u305f\u8d64\u7363\u306e\u7259\u306e\u5316\u77f3",
        "P_EXTRA_TEXT": "\u592a\u53e4\u306e\u6614\u306b\u751f\u606f\u3057\u3066\u3044\u305f\u8d64\u7363\u306e\u7259\u306e\u5316\u77f3\u3002\n\u91cd\u304f\u92ed\u3044\u305d\u306e\u7259\u306f\u3001\u898b\u3066\u3044\u308b\u3060\u3051\u3067\u8eab\u306e\u7ae6\u3080\u3088\u3046\u306a\u611f\u899a\u306b\u3055\u305b\u3089\u308c\u308b\u3002\u3082\u3057\u8d64\u7363\u304c\u7d76\u6ec5\u3057\u3066\u3044\u306a\u304b\u3063\u305f\u306a\u3089\u3001\u9b54\u7363\u3068\u3057\u3066\u4eba\u9593\u3092\u8105\u304b\u3057\u3066\u3044\u305f\u3053\u3068\u3060\u308d\u3046\u3002\u3082\u3063\u3068\u3082\u3001\u6b66\u5177\u306e\u7d20\u6750\u3068\u3057\u3066\u72e9\u308a\u5c3d\u304f\u3055\u308c\u3066\u3044\u305f\u53ef\u80fd\u6027\u3082\u5426\u5b9a\u3067\u304d\u306a\u3044\u3002",
        "P_COMMENT_GETTABLE": ""
    },
    {
        "P_ELEMENT_ITEM_ID": "9000",
        "P_EXPLAIN_SHORT": "\u8584\u3044\u7dd1\u8272\u306e\u76ae\u819a\u3092\u6301\u3064\u68ee\u7363\u306e\u76ae",
        "P_EXTRA_TEXT": "\u8584\u3044\u7dd1\u8272\u306e\u76ae\u819a\u3092\u6301\u3064\u68ee\u7363\u306e\u76ae\u3002\n\u52a0\u5de5\u6280\u8853\u304c\u78ba\u7acb\u3055\u308c\u3066\u3044\u308b\u305f\u3081\u3001\u65e5\u7528\u54c1\u304b\u3089\u9632\u5177\u306b\u81f3\u308b\u307e\u3067\u69d8\u3005\u306a\u7528\u9014\u306b\u4f7f\u308f\u308c\u3066\u3044\u308b\u3002\u305d\u306e\u9700\u8981\u306e\u9ad8\u3055\u304b\u3089\u68ee\u7363\u3092\u72e9\u3063\u3066\u751f\u8a08\u3092\u7acb\u3066\u308b\u8005\u3082\u591a\u3044\u304c\u3001\u4e71\u7372\u304c\u554f\u984c\u8996\u3055\u308c\u3066\u304a\u308a\u3001\u8fd1\u5e74\u306f\u6cd5\u6574\u5099\u304c\u9032\u3093\u3067\u3044\u308b\u3068\u3044\u3046\u3002",
        "P_COMMENT_GETTABLE": ""
    },
    {
        "P_ELEMENT_ITEM_ID": "9001",
        "P_EXPLAIN_SHORT": "\u6df1\u3044\u9752\u8272\u306e\u76ae\u819a\u3092\u6301\u3064\u5ddd\u7363\u306e\u76ae",
        "P_EXTRA_TEXT": "\u6df1\u3044\u9752\u8272\u306e\u76ae\u819a\u3092\u6301\u3064\u5ddd\u7363\u306e\u76ae\u3002\n\u4e08\u592b\u306a\u76ae\u9769\u7d20\u6750\u3067\u3042\u308a\u3001\u9632\u5177\u306b\u7528\u3044\u3089\u308c\u305f\u969b\u306b\u305d\u306e\u771f\u4fa1\u3092\u767a\u63ee\u3059\u308b\u3002\u52a0\u5de5\u306b\u306f\u719f\u7df4\u306e\u6280\u304c\u5fc5\u8981\u3068\u3055\u308c\u3001\u99c6\u3051\u51fa\u3057\u306e\u8077\u4eba\u3067\u306f\u5341\u5206\u306b\u6271\u3044\u304d\u308c\u306a\u3044\u3060\u308d\u3046\u3002\u3053\u306e\u7d20\u6750\u3092\u52a0\u5de5\u3057\u3066\u9632\u5177\u8077\u4eba\u306f\u4e00\u4eba\u524d\u3092\u540d\u4e57\u308c\u308b\u3068\u3044\u3046\u9038\u8a71\u3082\u3042\u308b\u3002",
        "P_COMMENT_GETTABLE": ""
    },
    {
        "P_ELEMENT_ITEM_ID": "9002",
        "P_EXPLAIN_SHORT": "\u8272\u9bae\u3084\u304b\u306a\u8d64\u8272\u306e\u76ae\u819a\u3092\u6301\u3064\u5c71\u7363\u306e\u76ae",
        "P_EXTRA_TEXT": "\u8272\u9bae\u3084\u304b\u306a\u8d64\u8272\u306e\u76ae\u819a\u3092\u6301\u3064\u5c71\u7363\u306e\u76ae\u3002\n\u53e4\u6765\u3088\u308a\u6700\u9ad8\u7d1a\u306e\u9632\u5177\u7d20\u6750\u3068\u3057\u3066\u73cd\u91cd\u3055\u308c\u3066\u304a\u308a\u3001\u4f1d\u8aac\u306b\u6b8b\u308b\u76fe\u306b\u3082\u7528\u3044\u3089\u308c\u305f\u3068\u3055\u308c\u308b\u3002\u5165\u624b\u304c\u96e3\u3057\u3044\u3053\u3068\u304b\u3089\u6d41\u901a\u91cf\u306f\u5c11\u306a\u304f\u3001\u6271\u3063\u305f\u3053\u3068\u306e\u3042\u308b\u8077\u4eba\u3082\u5c11\u306a\u3044\u305f\u3081\u3001\u3053\u306e\u76ae\u9769\u3067\u4f5c\u3089\u308c\u305f\u9632\u5177\u306f\u975e\u5e38\u306b\u9ad8\u4fa1\u3067\u3042\u308b\u3002",
        "P_COMMENT_GETTABLE": ""
    },
    {
        "P_ELEMENT_ITEM_ID": "10000",
        "P_EXPLAIN_SHORT": "\u30c6\u30aa\u3068\u3044\u3046\u540d\u306e\u6e21\u308a\u9ce5\u306e\u7fbd",
        "P_EXTRA_TEXT": "\u30c6\u30aa\u3068\u3044\u3046\u540d\u306e\u6e21\u308a\u9ce5\u306e\u7fbd\u3002\n\u30c6\u30aa\u306f\u69d8\u3005\u306a\u5730\u57df\u3092\u65c5\u3059\u308b\u305f\u3081\u3001\u305d\u306e\u7fbd\u306f\u53e4\u6765\u3088\u308a\u65c5\u306e\u304a\u5b88\u308a\u3068\u3057\u3066\u5927\u5207\u306b\u3055\u308c\u3066\u304d\u305f\u3002\u307e\u305f\u3001\u9bae\u3084\u304b\u306a\u7dd1\u306f\u81ea\u7136\u3068\u306e\u8abf\u548c\u3092\u8c61\u5fb4\u3059\u308b\u3068\u3055\u308c\u3001\u5927\u5730\u306e\u7cbe\u970a\u3092\u7940\u308b\u53f8\u796d\u305f\u3061\u306e\u6cd5\u8863\u306b\u3082\u6b20\u304b\u305b\u306a\u3044\u88c5\u98fe\u3067\u3042\u3063\u305f\u3002",
        "P_COMMENT_GETTABLE": ""
    },
    {
        "P_ELEMENT_ITEM_ID": "10001",
        "P_EXPLAIN_SHORT": "\u3042\u3089\u3086\u308b\u3082\u306e\u3092\u6d44\u5316\u3059\u308b\u30b7\u30f3\u3068\u3044\u3046\u540d\u306e\u9ce5\u306e\u7fbd",
        "P_EXTRA_TEXT": "\u30b7\u30f3\u3068\u3044\u3046\u540d\u306e\u9752\u3044\u9ce5\u306e\u7fbd\u3002\n\u6bd2\u3092\u6d44\u5316\u3059\u308b\u3068\u3044\u3046\u4f1d\u8aac\u306e\u9ce5\u306b\u3088\u304f\u4f3c\u3066\u3044\u308b\u3053\u3068\u304b\u3089\u3001\u53e4\u306e\u6642\u4ee3\u3088\u308a\u6bd2\u6bba\u3092\u6050\u308c\u308b\u738b\u4faf\u8cb4\u65cf\u306e\u5fc5\u9700\u54c1\u3068\u3055\u308c\u3066\u304d\u305f\u3002\u8fd1\u5e74\u3067\u306f\u305d\u306e\u6df1\u304f\u6f84\u3093\u3060\u9752\u8272\u304c\u597d\u307e\u308c\u3001\u5e3d\u5b50\u3084\u30de\u30f3\u30c8\u306e\u895f\u5143\u306b\u3042\u3057\u3089\u3046\u304a\u6d12\u843d\u304c\u6d41\u884c\u3057\u3066\u3044\u308b\u3002",
        "P_COMMENT_GETTABLE": ""
    },
    {
        "P_ELEMENT_ITEM_ID": "10002",
        "P_EXPLAIN_SHORT": "\u5de8\u5927\u306a\u4f53\u8eaf\u3092\u6301\u3064\u30e9\u30a6\u3068\u3044\u3046\u540d\u306e\u9ce5\u306e\u7fbd",
        "P_EXTRA_TEXT": "\u5de8\u5927\u306a\u4f53\u8eaf\u3092\u6301\u3064\u30e9\u30a6\u3068\u3044\u3046\u540d\u306e\u9ce5\u306e\u7fbd\u3002\n\u305d\u306e\u5927\u304d\u306a\u8d64\u3044\u7fbd\u306f\u5f37\u5ea6\u306b\u512a\u308c\u3066\u304a\u308a\u3001\u6b66\u5177\u306e\u7d20\u6750\u3068\u3057\u3066\u91cd\u5b9d\u3055\u308c\u3066\u304d\u305f\u3002\u305d\u306e\u305f\u3081\u3001\u4e00\u90e8\u5730\u57df\u3067\u306f\u4e71\u7372\u306b\u3088\u308a\u7d76\u6ec5\u3057\u3066\u3057\u307e\u3063\u305f\u7d4c\u7def\u3092\u6301\u3064\u3002\u4e71\u7372\u3092\u9632\u3050\u305f\u3081\u306e\u6cd5\u5f8b\u304c\u5b9a\u3081\u3089\u308c\u305f\u304c\u3001\u305d\u306e\u53d6\u308a\u7d44\u307f\u306f\u59cb\u307e\u3063\u305f\u3070\u304b\u308a\u3060\u3002",
        "P_COMMENT_GETTABLE": ""
    },
    {
        "P_ELEMENT_ITEM_ID": "11000",
        "P_EXPLAIN_SHORT": "\u8349\u3080\u3089\u3067\u898b\u304b\u3051\u308b\u7dd1\u8272\u306e\u30c6\u30f3\u30c8\u30a6\u866b",
        "P_EXTRA_TEXT": "\u8349\u3080\u3089\u3067\u898b\u304b\u3051\u308b\u7dd1\u8272\u306e\u30c6\u30f3\u30c8\u30a6\u866b\u3002\n\u3053\u306e\u866b\u306e\u8179\u304b\u3089\u6392\u51fa\u3055\u308c\u308b\u7c98\u6db2\u306b\u306f\u3001\u50b7\u3092\u7652\u3057\u305f\u308a\u751f\u547d\u529b\u3092\u9ad8\u3081\u308b\u6210\u5206\u304c\u542b\u307e\u308c\u3066\u3044\u308b\u3002\u305d\u306e\u7531\u6765\u306b\u3064\u3044\u3066\u306f\u8af8\u8aac\u3042\u308b\u304c\u3001\u6700\u3082\u6709\u529b\u306a\u306e\u306f\u4e3b\u98df\u3067\u3042\u308b\u85ac\u8349\u306e\u6210\u5206\u304c\u5909\u8cea\u3057\u305f\u3068\u3044\u3046\u8aac\u3067\u3042\u308b\u3002",
        "P_COMMENT_GETTABLE": ""
    },
    {
        "P_ELEMENT_ITEM_ID": "11001",
        "P_EXPLAIN_SHORT": "\u7f8e\u3057\u3044\u9752\u8272\u3092\u3057\u305f\u73cd\u3057\u3044\u30c6\u30f3\u30c8\u30a6\u866b",
        "P_EXTRA_TEXT": "\u7f8e\u3057\u3044\u9752\u8272\u3092\u3057\u305f\u73cd\u3057\u3044\u30c6\u30f3\u30c8\u30a6\u866b\u3002\n\u975e\u5e38\u306b\u7f8e\u3057\u3044\u9752\u8272\u3092\u8a87\u308a\u3001\u751f\u3051\u308b\u5b9d\u77f3\u3068\u3082\u547c\u3070\u308c\u3066\u3044\u308b\u3002\u305d\u306e\u305f\u3081\u89b3\u8cde\u7528\u3068\u3057\u3066\u63a1\u96c6\u3055\u308c\u308b\u3053\u3068\u304c\u591a\u3044\u304c\u3001\u7dd1\u74e2\u866b\u540c\u69d8\u306b\u7652\u3057\u306e\u529b\u3092\u79d8\u3081\u3066\u3044\u308b\u305f\u3081\u3001\u7279\u5225\u306a\u9632\u5177\u306e\u88fd\u4f5c\u306b\u3082\u6d3b\u7528\u3055\u308c\u3066\u3044\u308b\u3002",
        "P_COMMENT_GETTABLE": ""
    },
    {
        "P_ELEMENT_ITEM_ID": "11002",
        "P_EXPLAIN_SHORT": "\u7279\u6b8a\u306a\u7c98\u6db2\u3092\u5206\u6ccc\u3059\u308b\u8d64\u8272\u306e\u73cd\u3057\u3044\u30c6\u30f3\u30c8\u30a6\u866b",
        "P_EXTRA_TEXT": "\u7279\u6b8a\u306a\u7c98\u6db2\u3092\u5206\u6ccc\u3059\u308b\u8d64\u8272\u306e\u73cd\u3057\u3044\u30c6\u30f3\u30c8\u30a6\u866b\u3002\n\u8d64\u8272\u306f\u30c6\u30f3\u30c8\u30a6\u866b\u306e\u4e00\u822c\u7684\u306a\u4f53\u8272\u3060\u304c\u3001\u6b66\u5177\u306e\u7d20\u6750\u3068\u3057\u3066\u7528\u3044\u308b\u5834\u5408\u306b\u306f\u3001\u3042\u308b\u7279\u5b9a\u306e\u7a2e\u985e\u306e\u307f\u3092\u8d64\u74e2\u866b\u3068\u547c\u3093\u3067\u533a\u5225\u3057\u3066\u3044\u308b\u3002\u3042\u308a\u3075\u308c\u305f\u866b\u3068\u306e\u8b58\u5225\u304c\u5bb9\u6613\u3067\u306f\u306a\u3044\u305f\u3081\u3001\u63a1\u96c6\u306e\u96e3\u6613\u5ea6\u306f\u304b\u306a\u308a\u9ad8\u3044\u3068\u8a00\u3048\u308b\u3002",
        "P_COMMENT_GETTABLE": ""
    },
    {
        "P_ELEMENT_ITEM_ID": "12000",
        "P_EXPLAIN_SHORT": "\u5185\u90e8\u306b\u540c\u5fc3\u5186\u72b6\u306e\u6a21\u69d8\u304c\u78ba\u8a8d\u3067\u304d\u308b\u9271\u77f3",
        "P_EXTRA_TEXT": "\u5185\u90e8\u306b\u540c\u5fc3\u5186\u72b6\u306e\u6a21\u69d8\u304c\u78ba\u8a8d\u3067\u304d\u308b\u9271\u77f3\u3002\n\u542b\u307e\u308c\u308b\u91d1\u5c5e\u91cf\u304c\u5c11\u306a\u3044\u3053\u3068\u304b\u3089\u3001\u304b\u3064\u3066\u306f\u5f79\u306b\u7acb\u305f\u306a\u3044\u9271\u7269\u3068\u8003\u3048\u3089\u308c\u3066\u3044\u305f\u3002\u3057\u304b\u3057\u3001\u8fd1\u5e74\u958b\u767a\u3055\u308c\u305f\u7279\u6b8a\u306a\u52a0\u5de5\u6cd5\u306b\u306f\u3053\u306e\u9271\u77f3\u306b\u542b\u307e\u308c\u308b\u5e0c\u5c11\u91d1\u5c5e\u304c\u5fc5\u9808\u3067\u3042\u308a\u3001\u306b\u308f\u304b\u306b\u9700\u8981\u304c\u9ad8\u307e\u3063\u3066\u3044\u308b\u3002",
        "P_COMMENT_GETTABLE": ""
    },
    {
        "P_ELEMENT_ITEM_ID": "12001",
        "P_EXPLAIN_SHORT": "\u8907\u96d1\u306a\u7d0b\u69d8\u304c\u6d6e\u304d\u4e0a\u304c\u3063\u305f\u9271\u77f3",
        "P_EXTRA_TEXT": "\u8907\u96d1\u306a\u7d0b\u69d8\u304c\u6d6e\u304d\u4e0a\u304c\u3063\u305f\u9271\u77f3\u3002\n\u5fae\u304b\u306b\u8f1d\u304f\u7d0b\u69d8\u306f\u898b\u308b\u8005\u3092\u5e7b\u60d1\u3059\u308b\u305f\u3081\u3001\u305d\u306e\u5f62\u3084\u5927\u304d\u3055\u3092\u6b63\u78ba\u306b\u628a\u63e1\u3059\u308b\u3053\u3068\u306f\u96e3\u3057\u3044\u3002\u304b\u3064\u3066\u306f\u7279\u306b\u6d3b\u7528\u3055\u308c\u308b\u3053\u3068\u306a\u304f\u597d\u4e8b\u5bb6\u306e\u53ce\u96c6\u5bfe\u8c61\u3068\u306a\u3063\u3066\u3044\u305f\u304c\u3001\u6280\u8853\u306e\u767a\u5c55\u306b\u4f34\u3044\u3001\u542b\u6709\u3055\u308c\u3066\u3044\u308b\u5e0c\u5c11\u91d1\u5c5e\u306e\u7cbe\u932c\u304c\u53ef\u80fd\u3068\u306a\u3063\u305f\u3002",
        "P_COMMENT_GETTABLE": ""
    },
    {
        "P_ELEMENT_ITEM_ID": "13000",
        "P_EXPLAIN_SHORT": "\u3068\u3066\u3082\u4e08\u592b\u306a\u7dbe\u7e54\u308a\u306e\u5e03",
        "P_EXTRA_TEXT": "\u3068\u3066\u3082\u4e08\u592b\u306a\u7dbe\u7e54\u308a\u306e\u5e03\u3002\n\u5f37\u976d\u306a\u3053\u3068\u3067\u77e5\u3089\u308c\u308b\u30de\u30b4\u7f8a\u306e\u6bdb\u3092\u4e39\u5ff5\u306b\u7d21\u3044\u3067\u4f5c\u3089\u308c\u305f\u7cf8\u3092\u3001\u6700\u65b0\u306e\u7e54\u6a5f\u3067\u7f85\u7d17\u7e54\u306b\u4ed5\u7acb\u3066\u305f\u3082\u306e\u3002\u9632\u5203\u6027\u304c\u9ad8\u3044\u305f\u3081\u5bb9\u6613\u306b\u88c1\u65ad\u3067\u304d\u306a\u3044\u3082\u306e\u306e\u3001\u305d\u3046\u3057\u305f\u8010\u4e45\u6027\u306f\u6226\u5834\u306b\u304a\u3044\u3066\u771f\u4fa1\u3092\u767a\u63ee\u3059\u308b\u3002",
        "P_COMMENT_GETTABLE": ""
    },
    {
        "P_ELEMENT_ITEM_ID": "13001",
        "P_EXPLAIN_SHORT": "\u4e16\u754c\u5404\u5730\u3067\u751f\u7523\u3055\u308c\u3066\u3044\u308b\u4e08\u592b\u306a\u5e03",
        "P_EXTRA_TEXT": "\u4e16\u754c\u5404\u5730\u3067\u751f\u7523\u3055\u308c\u3066\u3044\u308b\u4e08\u592b\u306a\u5e03\u3002\n\u8239\u306e\u5e06\u304b\u3089\u8077\u4eba\u306e\u4f5c\u696d\u7740\u307e\u3067\u69d8\u3005\u306a\u3082\u306e\u306b\u5229\u7528\u3055\u308c\u3066\u3044\u308b\u4e00\u822c\u7684\u306a\u88fd\u54c1\u3067\u3001\u65e5\u3005\u7e54\u308a\u4e0a\u3052\u3089\u308c\u308b\u6570\u306e\u591a\u3055\u304b\u3089\u3053\u306e\u540d\u3067\u547c\u3070\u308c\u3066\u3044\u308b\u3002\u4eba\u3005\u306e\u65e5\u5e38\u306b\u6df1\u304f\u6839\u5dee\u3057\u305f\u7d20\u6750\u3067\u3042\u308a\u3001\u610f\u5916\u306a\u9053\u5177\u306b\u3082\u4f7f\u308f\u308c\u3066\u3044\u308b\u3068\u3044\u3046\u3002",
        "P_COMMENT_GETTABLE": ""
    },
    {
        "P_ELEMENT_ITEM_ID": "14000",
        "P_EXPLAIN_SHORT": "\u30b5\u30af\u306e\u6728\u3068\u3044\u3046\u91dd\u8449\u6a39\u306e\u6728\u6750",
        "P_EXTRA_TEXT": "\u30b5\u30af\u306e\u6728\u3068\u3044\u3046\u91dd\u8449\u6a39\u306e\u6728\u6750\u3002\n\u6728\u76ee\u304c\u771f\u3063\u76f4\u3050\u306a\u6728\u6750\u3067\u3001\u5bb6\u5177\u306a\u3069\u3068\u3057\u3066\u591a\u304f\u306e\u4eba\u3005\u306b\u5229\u7528\u3055\u308c\u3066\u3044\u308b\u3002\u8a08\u753b\u7684\u306b\u690d\u6797\u3055\u308c\u3066\u3044\u308b\u305f\u3081\u4f9b\u7d66\u3082\u5b89\u5b9a\u3057\u3066\u3044\u308b\u304c\u3001\u8fd1\u9803\u306f\u305d\u306e\u82b1\u7c89\u306b\u3088\u3063\u3066\u9f3b\u3084\u76ee\u304c\u708e\u75c7\u3059\u308b\u3068\u3044\u3046\u5065\u5eb7\u88ab\u5bb3\u304c\u51fa\u3066\u3044\u308b\u3002\u305d\u306e\u305f\u3081\u3001\u4ed6\u306e\u6a39\u6728\u3078\u306e\u5207\u308a\u66ff\u3048\u304c\u691c\u8a0e\u3055\u308c\u3066\u3044\u308b\u5730\u57df\u3082\u591a\u3044\u3002",
        "P_COMMENT_GETTABLE": ""
    },
    {
        "P_ELEMENT_ITEM_ID": "14001",
        "P_EXPLAIN_SHORT": "\u7f8e\u3057\u3044\u82b1\u3092\u54b2\u304b\u305b\u308b\u30d0\u30cf\u306e\u6728\u3092\u88fd\u6750\u3057\u305f\u3082\u306e",
        "P_EXTRA_TEXT": "\u7f8e\u3057\u3044\u82b1\u3092\u54b2\u304b\u305b\u308b\u30d0\u30cf\u306e\u6728\u3092\u88fd\u6750\u3057\u305f\u3082\u306e\u3002\n\u5e74\u6570\u3092\u7d4c\u308b\u3054\u3068\u306b\u8276\u3092\u5897\u3057\u3066\u3044\u304f\u9ad8\u7d1a\u6728\u6750\u3067\u3042\u308b\u3002\u7f8e\u3057\u3055\u3060\u3051\u3067\u306f\u306a\u304f\u8010\u4e45\u6027\u3082\u517c\u306d\u5099\u3048\u3066\u304a\u308a\u3001\u30e9\u30f3\u30c9\u30fc\u30eb\u306e\u5bae\u6bbf\u306b\u306f\u5efa\u56fd\u5f53\u521d\u304b\u3089\u8358\u53b3\u306a\u30d0\u30cf\u6750\u306e\u5bb6\u5177\u304c\u591a\u6570\u5b58\u5728\u3059\u308b\u3068\u3044\u3046\u3002\u5eb6\u6c11\u306b\u306f\u306a\u304b\u306a\u304b\u624b\u306e\u51fa\u306a\u3044\u9038\u54c1\u3067\u3042\u308b\u3053\u3068\u306f\u9593\u9055\u3044\u306a\u3044\u3002",
        "P_COMMENT_GETTABLE": ""
    },
    {
        "P_ELEMENT_ITEM_ID": "15000",
        "P_EXPLAIN_SHORT": "\u7d20\u6750\u306b\u5bbf\u308b\u529b\u3092\u5927\u304d\u304f\u5f15\u304d\u4e0a\u3052\u308b\u7d50\u6676\u4f53",
        "P_EXTRA_TEXT": "\u7d20\u6750\u306b\u5bbf\u308b\u529b\u3092\u5927\u304d\u304f\u5f15\u304d\u4e0a\u3052\u308b\u7d50\u6676\u4f53\u3002\n\u3053\u306e\u7d50\u6676\u306e\u6027\u8cea\u306f\u53e4\u304f\u3088\u308a\u77e5\u3089\u308c\u3066\u3044\u305f\u304c\u3001\u5b9f\u969b\u306b\u6d3b\u7528\u3067\u304d\u308b\u3088\u3046\u306b\u306a\u3063\u305f\u306e\u306f\u6700\u8fd1\u3067\u3042\u308b\u3002\u4e00\u8aac\u3067\u306f\u3001\u53e4\u306e\u5320\u306f\u72ec\u81ea\u306b\u305d\u306e\u5229\u7528\u6cd5\u3092\u7de8\u307f\u51fa\u3057\u3066\u3044\u305f\u3068\u8a00\u308f\u308c\u3066\u3044\u308b\u304c\u3001\u5931\u308f\u308c\u305f\u79d8\u4f1d\u306b\u3064\u3044\u3066\u306f\u61b6\u6e2c\u3059\u308b\u3053\u3068\u3057\u304b\u3067\u304d\u306a\u3044\u3002",
        "P_COMMENT_GETTABLE": ""
    },
    {
        "P_ELEMENT_ITEM_ID": "15001",
        "P_EXPLAIN_SHORT": "\u7d20\u6750\u306b\u5bbf\u308b\u6f5c\u5728\u80fd\u529b\u3092\u5f15\u304d\u51fa\u3059\u7d50\u6676\u4f53",
        "P_EXTRA_TEXT": "\u7d20\u6750\u306b\u5bbf\u308b\u6f5c\u5728\u80fd\u529b\u3092\u5f15\u304d\u51fa\u3059\u7d50\u6676\u4f53\u3002\n\u7149\u77f3\u3068\u547c\u3070\u308c\u308b\u7279\u6b8a\u306a\u7d50\u6676\u3092\u7528\u3044\u308c\u3070\u3001\u6b66\u5177\u306e\u6027\u80fd\u3092\u5f15\u304d\u51fa\u3059\u3053\u3068\u304c\u3067\u304d\u308b\u3068\u3044\u3046\u3002\u8276\u3005\u3057\u305f\u65b0\u54c1\u304c\u3042\u3063\u3068\u3044\u3046\u9593\u306b\u9577\u3044\u5e74\u6708\u3092\u7d4c\u305f\u4f1d\u8aac\u306e\u54c1\u306e\u3088\u3046\u306a\u5a01\u53b3\u3092\u653e\u3064\u3088\u3046\u306b\u306a\u308b\u69d8\u306f\u3001\u307e\u308b\u3067\u9b54\u6cd5\u306e\u3088\u3046\u3060\u3068\u8a00\u308f\u308c\u3066\u3044\u308b\u3002",
        "P_COMMENT_GETTABLE": ""
    },
    {
        "P_ELEMENT_ITEM_ID": "16000",
        "P_EXPLAIN_SHORT": "\u6d41\u901a\u91cf\u306e\u591a\u3044\u5927\u578b\u7363\u306e\u8089",
        "P_EXTRA_TEXT": "\u6d41\u901a\u91cf\u306e\u591a\u3044\u5927\u578b\u7363\u306e\u8089\u3002\n\u4e00\u822c\u5bb6\u5ead\u3067\u6d88\u8cbb\u3055\u308c\u308b\u3053\u3068\u304c\u591a\u304f\u3001\u5eb6\u6c11\u306e\u5473\u3068\u3057\u3066\u89aa\u3057\u307e\u308c\u3066\u304a\u308a\u3001\u69d8\u3005\u306a\u8abf\u7406\u6cd5\u304c\u8003\u6848\u3055\u308c\u3066\u3044\u308b\u3002\u307e\u305f\u3001\u6bd4\u8f03\u7684\u5b89\u4fa1\u306b\u5165\u624b\u3067\u304d\u308b\u3053\u3068\u304b\u3089\u3001\u30f4\u30a1\u30a4\u30b6\u30fc\u304c\u30d1\u30fc\u30c8\u30ca\u30fc\u306b\u4e0e\u3048\u308b\u990c\u3068\u3057\u3066\u3082\u4eba\u6c17\u304c\u9ad8\u3044\u3002",
        "P_COMMENT_GETTABLE": ""
    },
    {
        "P_ELEMENT_ITEM_ID": "16001",
        "P_EXPLAIN_SHORT": "\u8102\u8eab\u306e\u5c11\u306a\u3044\u5065\u5eb7\u7684\u306a\u8089",
        "P_EXTRA_TEXT": "\u8102\u8eab\u306e\u5c11\u306a\u3044\u5065\u5eb7\u7684\u306a\u8089\u3002\n\u9811\u4e08\u306a\u4f53\u3092\u4f5c\u308b\u305f\u3081\u306b\u5fc5\u8981\u306a\u6804\u990a\u304c\u8c4a\u5bcc\u3067\u3001\u8cc7\u91d1\u306b\u4f59\u88d5\u306e\u3042\u308b\u6226\u58eb\u305f\u3061\u304c\u597d\u3093\u3067\u98df\u3059\u308b\u3002\u624b\u9593\u6687\u304b\u3051\u3066\u8abf\u7406\u3059\u308c\u3070\u3001\u8089\u305d\u306e\u3082\u306e\u306e\u5473\u3092\u697d\u3057\u3080\u3053\u3068\u304c\u3067\u304d\u308b\u305f\u3081\u3001\u98df\u901a\u3084\u5bcc\u88d5\u5c64\u306b\u3082\u4eba\u6c17\u304c\u9ad8\u3044\u3002",
        "P_COMMENT_GETTABLE": ""
    },
    {
        "P_ELEMENT_ITEM_ID": "16002",
        "P_EXPLAIN_SHORT": "\u5165\u624b\u56f0\u96e3\u306a\u5b64\u7363\u306e\u8089",
        "P_EXTRA_TEXT": "\u5165\u624b\u56f0\u96e3\u306a\u5b64\u7363\u306e\u8089\u3002\n\u5b64\u7363\u3068\u306f\u5cfb\u53b3\u306a\u5ca9\u5c71\u306e\u9802\u4ed8\u8fd1\u306b\u751f\u606f\u3059\u308b\u7f8a\u306e\u4e00\u7a2e\u3002\u8db3\u5834\u306e\u60aa\u3044\u4e2d\u3092\u5de7\u307f\u306b\u8df3\u306d\u56de\u308b\u305f\u3081\u3001\u719f\u7df4\u306e\u731f\u5e2b\u3067\u306a\u3051\u308c\u3070\u4ed5\u7559\u3081\u3089\u308c\u306a\u3044\u3002\u305d\u306e\u8089\u306f\u6975\u4e0a\u306e\u8102\u3092\u6e5b\u3048\u3066\u304a\u308a\u3001\u4e00\u5ea6\u98df\u3079\u308c\u3070\u5fd8\u308c\u3089\u308c\u306a\u3044\u3068\u3044\u3046\u3002",
        "P_COMMENT_GETTABLE": ""
    },
    {
        "P_ELEMENT_ITEM_ID": "20000",
        "P_EXPLAIN_SHORT": "\u7279\u5225\u306a\u591c\u306b\u3060\u3051\u82b1\u3092\u54b2\u304b\u305b\u308b\u3068\u3044\u3046\u795e\u79d8\u7684\u306a\u8349",
        "P_EXTRA_TEXT": "\u7279\u5225\u306a\u591c\u306b\u3060\u3051\u82b1\u3092\u54b2\u304b\u305b\u308b\u3068\u3044\u3046\u795e\u79d8\u7684\u306a\u8349\u3002\n\u591c\u7a7a\u306b\u8f1d\u304f\u661f\u3005\u304c\u7279\u5b9a\u306e\u914d\u7f6e\u306b\u306a\u3063\u305f\u6642\u306b\u3060\u3051\u3001\u661f\u796d\u8349\u306f\u82b1\u304c\u958b\u304f\u3068\u8a00\u308f\u308c\u3001\u305d\u306e\u82b1\u3092\u898b\u308b\u3053\u3068\u304c\u3067\u304d\u308c\u3070\u5e78\u305b\u306b\u306a\u308c\u308b\u3068\u4f1d\u3048\u3089\u308c\u3066\u3044\u308b\u3002\u8349\u305d\u306e\u3082\u306e\u306b\u3082\u7279\u5225\u306a\u85ac\u52b9\u304c\u3042\u308b\u304c\u3001\u3068\u3066\u3082\u73cd\u3057\u3044\u305f\u3081\u767a\u898b\u3059\u308b\u3053\u3068\u3082\u96e3\u3057\u3044\u3060\u308d\u3046\u3002",
        "P_COMMENT_GETTABLE": ""
    },
    {
        "P_ELEMENT_ITEM_ID": "20001",
        "P_EXPLAIN_SHORT": "\u6ec5\u591a\u306b\u624b\u306b\u5165\u3089\u306a\u3044\u5e7b\u306e\u5b9f",
        "P_EXTRA_TEXT": "\u6ec5\u591a\u306b\u624b\u306b\u5165\u3089\u306a\u3044\u5e7b\u306e\u5b9f\u3002\n\u6570\u767e\u5e74\u306b\u4e00\u5ea6\u3001\u6728\u306e\u5bff\u547d\u304c\u5c3d\u304d\u308b\u6642\u306b\u306e\u307f\u7d50\u5b9f\u3059\u308b\u3002\u30b8\u30b0\u306e\u6728\u81ea\u4f53\u306f\u305d\u3046\u73cd\u3057\u3044\u3082\u306e\u3067\u306f\u306a\u3044\u304c\u3001\u3044\u3064\u5b9f\u308b\u304b\u3092\u4e88\u6e2c\u3059\u308b\u3053\u3068\u306f\u56f0\u96e3\u3067\u3042\u308b\u3002\u3082\u3057\u3082\u5165\u624b\u3067\u304d\u305f\u306e\u306a\u3089\u3001\u5b6b\u306e\u4ee3\u307e\u3067\u7d9a\u304f\u81ea\u6162\u8a71\u3068\u306a\u308b\u3060\u308d\u3046\u3002",
        "P_COMMENT_GETTABLE": ""
    },
    {
        "P_ELEMENT_ITEM_ID": "20002",
        "P_EXPLAIN_SHORT": "\u7279\u6b8a\u306a\u6761\u4ef6\u4e0b\u3067\u306e\u307f\u767a\u898b\u3067\u304d\u308b\u5e0c\u5c11\u306a\u5b9d\u77f3",
        "P_EXTRA_TEXT": "\u7279\u6b8a\u306a\u6761\u4ef6\u4e0b\u3067\u306e\u307f\u767a\u898b\u3067\u304d\u308b\u5e0c\u5c11\u306a\u5b9d\u77f3\u3002\n\u3053\u306e\u5b9d\u77f3\u306b\u306f\u6ec5\u3073\u3086\u304f\u4e16\u754c\u3092\u898b\u3064\u3081\u308b\u3068\u3044\u3046\u4f1d\u627f\u304c\u3042\u308b\u3002\u4fd7\u8aac\u306b\u904e\u304e\u306a\u3044\u304c\u3001\u5371\u6a5f\u306b\u7015\u3057\u305f\u4e16\u754c\u304c\u52a9\u3051\u3092\u6c42\u3081\u305f\u6642\u306b\u751f\u307f\u51fa\u3055\u308c\u308b\u3068\u3055\u308c\u3066\u3044\u308b\u3002\u305d\u306e\u511a\u3052\u306a\u7f8e\u3057\u3055\u306b\u9b45\u5165\u3089\u308c\u305f\u8005\u306f\u591a\u304f\u3001\u4e00\u90e8\u306e\u8005\u305f\u3061\u306f\u5165\u624b\u306e\u305f\u3081\u306b\u5168\u8ca1\u7523\u3092\u4f7f\u3044\u679c\u305f\u3057\u305f\u3068\u8a18\u9332\u306b\u6b8b\u3055\u308c\u3066\u3044\u308b\u3002",
        "P_COMMENT_GETTABLE": ""
    },
    {
        "P_ELEMENT_ITEM_ID": "20003",
        "P_EXPLAIN_SHORT": "\u663c\u3068\u591c\u306e\u5883\u754c\u7dda\u304b\u3089\u96f6\u308c\u843d\u3061\u305f\u3068\u4f1d\u3048\u3089\u308c\u308b\u96eb",
        "P_EXTRA_TEXT": "\u663c\u3068\u591c\u306e\u5883\u754c\u7dda\u304b\u3089\u96f6\u308c\u843d\u3061\u305f\u3068\u4f1d\u3048\u3089\u308c\u308b\u96eb\u3002\n\u592a\u967d\u306e\u6301\u3064\u751f\u547d\u529b\u3068\u3001\u6708\u306e\u6301\u3064\u795e\u79d8\u6027\u306e\u4e21\u65b9\u3092\u4f75\u305b\u6301\u3061\u3001\u9b54\u529b\u306e\u5bbf\u3063\u305f\u54c1\u3092\u4f5c\u308b\u969b\u306b\u7d20\u6674\u3089\u3057\u3044\u52b9\u679c\u3092\u767a\u63ee\u3059\u308b\u3068\u3055\u308c\u308b\u3002\u3057\u304b\u3057\u3001\u305d\u306e\u5165\u624b\u96e3\u6613\u5ea6\u306f\u9ad8\u304f\u3001\u624b\u306b\u5165\u308c\u305f\u3053\u3068\u304c\u3042\u308b\u8005\u3082\u5165\u624b\u7d4c\u8def\u3092\u8a9e\u3089\u306a\u3044\u3068\u3044\u3046\u3002",
        "P_COMMENT_GETTABLE": ""
    },
    {
        "P_ELEMENT_ITEM_ID": "20004",
        "P_EXPLAIN_SHORT": "\u546a\u8853\u306e\u9053\u5177\u3068\u3057\u3066\u4f7f\u308f\u308c\u3066\u3044\u308b\u9aa8",
        "P_EXTRA_TEXT": "\u975e\u5e38\u306b\u9577\u3044\u5e74\u6708\u306e\u9593\u3001\u546a\u8853\u306e\u9053\u5177\u3068\u3057\u3066\u4f7f\u308f\u308c\u3066\u3044\u308b\u9aa8\u3002\n\u60aa\u9b54\u306e\u9aa8\u3092\u4f7f\u7528\u3057\u3066\u3044\u308b\u3068\u3082\u8a00\u308f\u308c\u3001\u84c4\u7a4d\u3055\u308c\u305f\u9b54\u529b\u306f\u51c4\u307e\u3058\u3044\u3002\u970a\u611f\u306e\u5f37\u3044\u8005\u3067\u3042\u308c\u3070\u8fd1\u4ed8\u3044\u305f\u3060\u3051\u3067\u5352\u5012\u3057\u305d\u3046\u306b\u306a\u308b\u3068\u3044\u3046\u3002\u3057\u304b\u3057\u3001\u305d\u308c\u3060\u3051\u5f37\u529b\u306a\u546a\u7269\u306f\u305d\u3046\u305d\u3046\u6b8b\u3055\u308c\u3066\u304a\u3089\u305a\u3001\u767a\u898b\u306f\u81f3\u96e3\u306e\u696d\u3068\u8a00\u3048\u308b\u3002",
        "P_COMMENT_GETTABLE": ""
    },
    {
        "P_ELEMENT_ITEM_ID": "20005",
        "P_EXPLAIN_SHORT": "\u795e\u306e\u610f\u5fd7\u304c\u5bbf\u308b\u3068\u3044\u3046\u975e\u5e38\u306b\u73cd\u3057\u3044\u970a\u77f3",
        "P_EXTRA_TEXT": "\u795e\u306e\u610f\u5fd7\u304c\u5bbf\u308b\u3068\u3044\u3046\u975e\u5e38\u306b\u73cd\u3057\u3044\u970a\u77f3\u3002\n\u795e\u8056\u306a\u6587\u5b57\u304c\u523b\u307e\u308c\u3066\u3044\u308b\u304c\u3001\u3053\u308c\u306f\u4eba\u304c\u5f6b\u3063\u305f\u3082\u306e\u3067\u306f\u306a\u3044\u3002\u4f1d\u8aac\u306b\u3088\u308b\u3068\u795e\u3005\u304c\u4f55\u3089\u304b\u306e\u5100\u5f0f\u3092\u884c\u3046\u305f\u3081\u306b\u3001\u305d\u308c\u305e\u308c\u306e\u8c61\u5fb4\u3092\u523b\u3093\u3060\u77f3\u3092\u4e16\u754c\u4e2d\u306b\u3070\u3089\u6492\u3044\u305f\u3068\u3044\u3046\u3002\u305d\u308c\u3092\u898b\u3064\u3051\u51fa\u3059\u3053\u3068\u304c\u3067\u304d\u308b\u306e\u306f\u5f37\u904b\u306e\u6301\u3061\u4e3b\u3060\u3051\u3067\u3042\u308d\u3046\u3002",
        "P_COMMENT_GETTABLE": ""
    },
    {
        "P_ELEMENT_ITEM_ID": "20006",
        "P_EXPLAIN_SHORT": "\u745e\u5146\u3068\u3057\u3066\u5c0a\u3070\u308c\u3066\u3044\u308b\u970a\u9ce5\u306e\u7fbd",
        "P_EXTRA_TEXT": "\u745e\u5146\u3068\u3057\u3066\u5c0a\u3070\u308c\u3066\u3044\u308b\u970a\u9ce5\u306e\u7fbd\u3002\n\u8907\u6570\u306e\u7570\u754c\u3092\u884c\u304d\u6765\u3059\u308b\u3068\u3055\u308c\u308b\u305d\u306e\u9ce5\u306f\u3001\u5730\u57df\u306b\u3088\u3063\u3066\u69d8\u3005\u306a\u547c\u3073\u540d\u304c\u3042\u308b\u3002\u6975\u7a00\u306b\u7a7a\u304b\u3089\u821e\u3044\u843d\u3061\u308b\u7fbd\u306f\u4e00\u4e07\u5e74\u306e\u6642\u3092\u7d4c\u3066\u3082\u8272\u3042\u305b\u305a\u3001\u5f62\u3082\u5d29\u308c\u306a\u3044\u3068\u3055\u308c\u3001\u305d\u306e\u529b\u306b\u3042\u3084\u304b\u308d\u3046\u3068\u6a29\u529b\u8005\u305f\u3061\u304c\u63a2\u3057\u6c42\u3081\u3066\u3044\u308b\u3068\u3044\u3046\u3002",
        "P_COMMENT_GETTABLE": ""
    },
    {
        "P_ELEMENT_ITEM_ID": "20007",
        "P_EXPLAIN_SHORT": "\u767d\u663c\u5922\u306e\u4e2d\u306b\u73fe\u308c\u308b\u4e00\u672c\u89d2\u3092\u6301\u3064\u5e7b\u7363\u306e\u76ae",
        "P_EXTRA_TEXT": "\u767d\u663c\u5922\u306e\u4e2d\u306b\u73fe\u308c\u308b\u4e00\u672c\u89d2\u3092\u6301\u3064\u5e7b\u7363\u306e\u76ae\u3002\u8e0a\u308b\u708e\u306e\u3088\u3046\u306a\u5b9a\u307e\u3089\u306c\u6591\u7d0b\u3092\u6301\u3061\u3001\u898b\u308b\u8005\u306b\u9bae\u70c8\u306a\u5370\u8c61\u3092\u4e0e\u3048\u308b\u7d2b\u8272\u3092\u3057\u3066\u3044\u308b\u3002\u3057\u304b\u3057\u3001\u5922\u304b\u3089\u899a\u3081\u308b\u3068\u305d\u306e\u59ff\u306f\u8a18\u61b6\u304b\u3089\u6eb6\u3051\u3053\u307c\u308c\u3001\u3084\u304c\u3066\u306f\u5b8c\u5168\u306b\u5fd8\u308c\u53bb\u3063\u3066\u3057\u307e\u3046\u3002",
        "P_COMMENT_GETTABLE": ""
    },
    {
        "P_ELEMENT_ITEM_ID": "20008",
        "P_EXPLAIN_SHORT": "\u6b7b\u795e\u304c\u9b42\u306b\u5f15\u3063\u304b\u304d\u50b7\u3092\u3064\u3051\u308b\u305f\u3081\u306e\u722a",
        "P_EXTRA_TEXT": "\u6b7b\u795e\u304c\u9b42\u306b\u5f15\u3063\u304b\u304d\u50b7\u3092\u3064\u3051\u308b\u305f\u3081\u306e\u722a\u3002\n\u8ff7\u4fe1\u306b\u904e\u304e\u306a\u3044\u304c\u3001\u6b7b\u795e\u306f\u6b7b\u306b\u5c0e\u304f\u3068\u6c7a\u3081\u305f\u72a0\u7272\u8005\u306e\u4f53\u306b\u4e88\u3081\u5c0f\u3055\u306a\u50b7\u3092\u4ed8\u3051\u3066\u304a\u304f\u3068\u3044\u3046\u3002\u624b\u3084\u8db3\u306b\u8a18\u61b6\u306b\u7121\u3044\u50b7\u3092\u898b\u3064\u3051\u305f\u3089\u3001\u305d\u308c\u306f\u6b7b\u795e\u306b\u76ee\u3092\u4ed8\u3051\u3089\u308c\u305f\u8a3c\u3067\u3042\u308a\u3001\u5100\u5f0f\u3092\u884c\u308f\u306a\u3051\u308c\u3070\u8fd1\u3044\u3046\u3061\u306b\u6b7b\u3093\u3067\u3057\u307e\u3046\u3068\u3055\u308c\u305f\u3002",
        "P_COMMENT_GETTABLE": ""
    },
    {
        "P_ELEMENT_ITEM_ID": "20009",
        "P_EXPLAIN_SHORT": "\u7279\u5b9a\u306e\u5b63\u7bc0\u306b\u8679\u8272\u306b\u714c\u304f\u7f8e\u3057\u3044\u866b",
        "P_EXTRA_TEXT": "\u7279\u5b9a\u306e\u5b63\u7bc0\u306b\u8679\u8272\u306b\u714c\u304f\u7f8e\u3057\u3044\u866b\u3002\n\u666e\u6bb5\u306f\u5730\u5473\u306a\u7d2b\u8272\u3092\u3057\u3066\u3044\u308b\u304c\u3001\u6642\u671f\u304c\u6765\u308b\u3068\u305d\u306e\u8272\u5408\u3044\u3092\u5343\u5909\u4e07\u5316\u3055\u305b\u308b\u3002\u5909\u8272\u6642\u306b\u6b7b\u3059\u308b\u3068\u3086\u3063\u304f\u308a\u7d2b\u8272\u306b\u5909\u308f\u308b\u306e\u3060\u304c\u3001\u305d\u308c\u306f\u5143\u306e\u5730\u5473\u306a\u3082\u306e\u3067\u306f\u306a\u304f\u3001\u6c17\u54c1\u306b\u6e80\u3061\u305f\u9bae\u3084\u304b\u306a\u7d2b\u3060\u3068\u3044\u3046\u3002\u53e4\u6765\u3088\u308a\u5bcc\u306e\u8c61\u5fb4\u3068\u3055\u308c\u3066\u304d\u305f\u3002",
        "P_COMMENT_GETTABLE": ""
    },
    {
        "P_ELEMENT_ITEM_ID": "20010",
        "P_EXPLAIN_SHORT": "\u90aa\u60aa\u306a\u529b\u306e\u6d78\u900f\u3057\u305f\u975e\u5e38\u306b\u91cd\u304f\u5805\u3044\u6a39\u6728",
        "P_EXTRA_TEXT": "\u90aa\u60aa\u306a\u529b\u306e\u6d78\u900f\u3057\u305f\u975e\u5e38\u306b\u91cd\u304f\u5805\u3044\u6a39\u6728\u3002\n\u5143\u3005\u9b54\u529b\u3068\u306e\u89aa\u548c\u6027\u304c\u9ad8\u304f\u3001\u9b54\u5c0e\u5e2b\u306e\u6756\u306e\u7d20\u6750\u3068\u3057\u3066\u975e\u5e38\u306b\u4eba\u6c17\u306e\u3042\u308b\u6a39\u6728\u3067\u3042\u308b\u3002\u305d\u306e\u8eab\u306b\u6e5b\u3048\u305f\u9b54\u529b\u306e\u6027\u8cea\u306b\u3088\u308a\u7d20\u6750\u3068\u3057\u3066\u306e\u6027\u8cea\u304c\u5909\u308f\u308b\u306e\u3060\u304c\u3001\u608d\u307e\u3057\u3044\u9b54\u529b\u306b\u6652\u3055\u308c\u7d9a\u3051\u305f\u7d50\u679c\u3001\u6728\u6750\u3068\u306f\u601d\u3048\u306c\u5f37\u5ea6\u3092\u6301\u3064\u306b\u81f3\u3063\u305f\u3002",
        "P_COMMENT_GETTABLE": ""
    },
    {
        "P_ELEMENT_ITEM_ID": "20011",
        "P_EXPLAIN_SHORT": "\u5bff\u547d\u304c\u5c3d\u304d\u308b\u6642\u5929\u4e0a\u3067\u56db\u6563\u3059\u308b\u970a\u9ce5\u306e\u9aa8",
        "P_EXTRA_TEXT": "\u5bff\u547d\u304c\u5c3d\u304d\u308b\u6642\u3001\u5929\u4e0a\u3067\u56db\u6563\u3059\u308b\u3068\u3044\u3046\u970a\u9ce5\u306e\u9aa8\u3002\n\u305d\u306e\u970a\u9ce5\u306f\u3001\u592a\u53e4\u306e\u6614\u306b\u306f\u6570\u591a\u304f\u5b58\u5728\u3057\u305f\u3068\u3044\u3046\u3002\u3060\u304c\u3001\u6642\u3068\u5171\u306b\u6570\u3092\u6e1b\u3089\u3057\u3001\u73fe\u5728\u3067\u306f\u59ff\u3092\u78ba\u8a8d\u3067\u304d\u306a\u3044\u3002\u7570\u754c\u306b\u304a\u3044\u3066\u3082\u540c\u3058\u4f1d\u627f\u304c\u3042\u308b\u304c\u3001\u3084\u306f\u308a\u59ff\u3092\u898b\u305f\u8005\u306f\u3044\u306a\u3044\u3002\u3059\u3079\u3066\u306e\u500b\u4f53\u304c\u5bff\u547d\u3092\u8fce\u3048\u3066\u3057\u307e\u3063\u305f\u306e\u304b\u3082\u3057\u308c\u306a\u3044\u3002",
        "P_COMMENT_GETTABLE": ""
    },
    {
        "P_ELEMENT_ITEM_ID": "20012",
        "P_EXPLAIN_SHORT": "\u71e6\u7136\u3068\u5149\u308a\u8f1d\u304f\u9ec4\u91d1\u306e\u722a",
        "P_EXTRA_TEXT": "\u71e6\u7136\u3068\u5149\u308a\u8f1d\u304f\u9ec4\u91d1\u306e\u722a\u3002\n\u8349\u3080\u3089\u306e\u4e2d\u3084\u5ca9\u306e\u9593\u3001\u6c60\u306e\u5e95\u306a\u3069\u69d8\u3005\u306a\u5834\u6240\u3067\u3001\u3054\u304f\u7a00\u306b\u767a\u898b\u3055\u308c\u308b\u3002\u305d\u306e\u6b63\u4f53\u304c\u4f55\u306a\u306e\u304b\u306f\u5224\u660e\u3057\u3066\u3044\u306a\u3044\u304c\u3001\u5e0c\u5c11\u6027\u3068\u898b\u305f\u76ee\u306e\u7f8e\u3057\u3055\u304b\u3089\u9ad8\u5024\u3067\u53d6\u5f15\u3055\u308c\u3066\u304d\u305f\u3002\u722a\u3068\u547c\u3070\u308c\u3066\u3044\u308b\u304c\u3001\u3082\u3057\u304b\u3059\u308b\u3068\u5168\u304f\u5225\u306e\u4f55\u304b\u304b\u3082\u3057\u308c\u306a\u3044\u3002",
        "P_COMMENT_GETTABLE": ""
    },
    {
        "P_ELEMENT_ITEM_ID": "20013",
        "P_EXPLAIN_SHORT": "\u6708\u5f71\u3088\u308a\u751f\u3058\u305f\u9b54\u529b\u3092\u5e2f\u3073\u305f\u30b5\u30c6\u30f3\u751f\u5730",
        "P_EXTRA_TEXT": "\u6708\u5f71\u3088\u308a\u751f\u3058\u305f\u9b54\u529b\u3092\u5e2f\u3073\u305f\u30b5\u30c6\u30f3\u751f\u5730\u3002\n\u6708\u306e\u5149\u304c\u6b6a\u3080\u307b\u3069\u306e\u9b54\u529b\u304c\u653e\u51fa\u3055\u308c\u308b\u3068\u3001\u5149\u306f\u51dd\u56fa\u3057\u3001\u8584\u5e03\u306e\u3088\u3046\u306a\u7269\u8cea\u304c\u751f\u307e\u308c\u308b\u3002\u751f\u3058\u3066\u304b\u3089\u3057\u3070\u3089\u304f\u306f\u3001\u84bc\u767d\u306e\u6708\u5149\u8272\u3092\u3057\u3066\u3044\u308b\u304c\u3001\u7269\u8cea\u3068\u3057\u3066\u5b89\u5b9a\u3057\u3066\u3044\u304f\u306b\u5f93\u3063\u3066\u591c\u7a7a\u306e\u8272\u306b\u5909\u308f\u308b\u3002\u3053\u3046\u306a\u308b\u3068\u4eba\u306e\u7e54\u308b\u5e03\u3068\u305d\u3046\u5909\u308f\u3089\u306a\u3044\u3082\u306e\u306b\u306a\u308b\u304c\u3001\u8fbc\u3081\u3089\u308c\u305f\u9b54\u529b\u306f\u5c0b\u5e38\u3067\u306f\u306a\u3044\u3002",
        "P_COMMENT_GETTABLE": ""
    },
    {
        "P_ELEMENT_ITEM_ID": "20014",
        "P_EXPLAIN_SHORT": "\u932c\u91d1\u8853\u306b\u3088\u308a\u9ec4\u91d1\u3078\u3068\u5909\u8cea\u3057\u305f\u52d5\u7269\u306e\u9aa8",
        "P_EXTRA_TEXT": "\u932c\u91d1\u8853\u306b\u3088\u308a\u9ec4\u91d1\u3078\u3068\u5909\u8cea\u3057\u305f\u52d5\u7269\u306e\u9aa8\u3002\n\u304b\u3064\u3066\u81ea\u8eab\u306e\u5de6\u624b\u306b\u89e6\u308c\u305f\u3082\u306e\u3059\u3079\u3066\u3092\u9ec4\u91d1\u306b\u5909\u3048\u308b\u529b\u3092\u5f97\u305f\u932c\u91d1\u8853\u5e2b\u304c\u3044\u305f\u3002\u3060\u304c\u3001\u5f7c\u306f\u4e0d\u7528\u610f\u306b\u3082\u81ea\u8eab\u306e\u53f3\u8155\u3092\u63b4\u3093\u3067\u3057\u307e\u3046\u3002\u91cd\u3044\u3060\u3051\u3067\u52d5\u304b\u306c\u53f3\u8155\u3092\u5f15\u304d\u305a\u308a\u306a\u304c\u3089\u3001\u8db3\u3068\u53e3\u3068\u3067\u751f\u6d3b\u3092\u3057\u306a\u3051\u308c\u3070\u306a\u3089\u306a\u304f\u306a\u3063\u305f\u3002\u305d\u3093\u306a\u5f7c\u304c\u5de6\u624b\u3067\u89e6\u308c\u305f\u52d5\u7269\u306e\u9aa8\u304c\u5404\u5730\u306b\u6b8b\u3055\u308c\u3066\u3044\u308b\u3002",
        "P_COMMENT_GETTABLE": ""
    },
    {
        "P_ELEMENT_ITEM_ID": "20015",
        "P_EXPLAIN_SHORT": "\u30cd\u30b0\u30ec\u30b9\u306e\u9b54\u57ce\u306e\u5efa\u6750\u306e\u4e00\u90e8",
        "P_EXTRA_TEXT": "\u30cd\u30b0\u30ec\u30b9\u306e\u9b54\u57ce\u306e\u5efa\u6750\u306e\u4e00\u90e8\u304c\u5265\u96e2\u3057\u305f\u3082\u306e\u3002\u672a\u77e5\u306e\u7570\u754c\u306e\u7269\u8cea\u3092\u6df7\u5408\u3057\u3066\u88fd\u9020\u3055\u308c\u3066\u3044\u308b\u3002\u5efa\u7269\u5168\u4f53\u3067\u5747\u4e00\u3067\u306f\u306a\u304f\u3001\u63a1\u53d6\u3057\u305f\u7b87\u6240\u306b\u3088\u3063\u3066\u542b\u307e\u308c\u308b\u6210\u5206\u304c\u7570\u306a\u308b\u305f\u3081\u3001\u7d20\u6750\u3068\u3057\u3066\u6d3b\u7528\u53ef\u80fd\u306a\u7834\u7247\u3092\u63a2\u3057\u51fa\u3059\u306e\u306f\u5bb9\u6613\u3067\u306f\u306a\u3044\u3002\u90aa\u60aa\u306a\u9b54\u529b\u3092\u79d8\u3081\u3066\u3044\u308b\u306e\u3067\u53d6\u308a\u6271\u3044\u306b\u306f\u6ce8\u610f\u304c\u5fc5\u8981\u3002",
        "P_COMMENT_GETTABLE": ""
    },
    {
        "P_ELEMENT_ITEM_ID": "20016",
        "P_EXPLAIN_SHORT": "\u91d1\u7cf8\u3092\u7e54\u308a\u8fbc\u3093\u3060\u8d05\u6ca2\u306a\u7d79\u7e54\u7269",
        "P_EXTRA_TEXT": "\u91d1\u7cf8\u3092\u7e54\u308a\u8fbc\u3093\u3060\u8c6a\u83ef\u7d62\u721b\u305f\u308b\u8d05\u6ca2\u306a\u7d79\u7e54\u7269\u3002\u9ec4\u91d1\u3068\u7d79\u3068\u3044\u3046\u6750\u6599\u306e\u9ad8\u4fa1\u5024\u3082\u3055\u308b\u3053\u3068\u306a\u304c\u3089\u3001\u305d\u308c\u3089\u3092\u6271\u3046\u624b\u9593\u3068\u6280\u8853\u3060\u3051\u3067\u3082\u5fc5\u8981\u306a\u5bfe\u4fa1\u306f\u76ee\u304c\u98db\u3073\u51fa\u308b\u307b\u3069\u306e\u984d\u306b\u306a\u308b\u3002\u767a\u898b\u3055\u308c\u308b\u3082\u306e\u306e\u591a\u304f\u306f\u4fdd\u5b58\u72b6\u614b\u304c\u60aa\u304f\u52a3\u5316\u3057\u3066\u3044\u308b\u304c\u3001\u9577\u3044\u5e74\u6708\u3092\u7d4c\u305f\u5206\u3001\u9b54\u529b\u3068\u306e\u89aa\u548c\u6027\u304c\u9ad8\u304f\u306a\u3063\u3066\u3044\u308b\u3002",
        "P_COMMENT_GETTABLE": ""
    },
    {
        "P_ELEMENT_ITEM_ID": "20017",
        "P_EXPLAIN_SHORT": "\u30cd\u30b0\u30ec\u30b9\u304c\u9b42\u304b\u3089\u932c\u6210\u3057\u305f\u547d\u306e\u7d50\u6676",
        "P_EXTRA_TEXT": "\u30cd\u30b0\u30ec\u30b9\u306e\u7528\u3044\u308b\u90aa\u6cd5\u306b\u3088\u3063\u3066\u4eba\u9593\u3084\u4ed6\u306e\u7a2e\u65cf\u306e\u9b42\u304c\u5909\u8cea\u3055\u305b\u3089\u308c\u305f\u7269\u8cea\u3002\u4eba\u3072\u3068\u308a\u306e\u6301\u3064\u4e00\u751f\u5206\u306e\u529b\u304c\u51dd\u7e2e\u3055\u308c\u3066\u3044\u308b\u305f\u3081\u3001\u5c0f\u3055\u3044\u306a\u304c\u3089\u3082\u5de8\u5927\u306a\u52b9\u7528\u3092\u6301\u3064\u3002\u6b8b\u5ff5\u306a\u304c\u3089\u3053\u306e\u72b6\u614b\u306b\u306a\u3063\u305f\u9b42\u3092\u5143\u306b\u623b\u3059\u3053\u3068\u306f\u3067\u304d\u306a\u3044\u305f\u3081\u3001\u305b\u3081\u3066\u6d88\u8cbb\u3059\u308b\u3053\u3068\u3067\u9b42\u3092\u4e16\u754c\u306b\u9084\u3059\u3079\u304d\u306a\u306e\u304b\u3082\u3057\u308c\u306a\u3044\u3002",
        "P_COMMENT_GETTABLE": ""
    },
    {
        "P_ELEMENT_ITEM_ID": "20018",
        "P_EXPLAIN_SHORT": "\u30cd\u30b0\u30ec\u30b9\u304c\u8ca0\u306e\u7d46\u3092\u7269\u8cea\u5316\u3057\u305f\u7d50\u6676",
        "P_EXTRA_TEXT": "\u30cd\u30b0\u30ec\u30b9\u304c\u76ee\u3092\u4ed8\u3051\u305f\u30bb\u30eb\u30bf\u30d3\u30a2\u306e\u7d46\u306e\u529b\u3001\u305d\u306e\u8ca0\u306e\u5074\u9762\u3092\u6700\u5927\u9650\u6d3b\u7528\u3057\u305f\u9b54\u5c0e\u89e6\u5a92\u3002\u3060\u304c\u3001\u7d46\u306e\u7814\u7a76\u306f\u30cd\u30b0\u30ec\u30b9\u3067\u3082\u672a\u3060\u9014\u4e0a\u306b\u3042\u308b\u3089\u3057\u304f\u3001\u7cbe\u88fd\u306b\u6210\u529f\u3057\u305f\u7d50\u6676\u306f\u5c11\u306a\u3044\u3068\u3044\u3046\u3002\u6271\u3044\u65b9\u3092\u8aa4\u3089\u306a\u3051\u308c\u3070\u3001\u8ca0\u306e\u7d46\u3092\u6b63\u3057\u304d\u7d46\u3078\u3068\u6607\u83ef\u3059\u308b\u3053\u3068\u304c\u3067\u304d\u308b\u305f\u3081\u3001\u53ec\u559a\u9662\u3067\u3082\u7814\u7a76\u3092\u9032\u3081\u3066\u3044\u308b\u3002",
        "P_COMMENT_GETTABLE": ""
    },
    {
        "P_ELEMENT_ITEM_ID": "20019",
        "P_EXPLAIN_SHORT": "\u30cd\u30b0\u30ec\u30b9\u304c\u6d3b\u7528\u3059\u308b\u7570\u754c\u306e\u9271\u7269",
        "P_EXTRA_TEXT": "\u30cd\u30b0\u30ec\u30b9\u8ecd\u306e\u88c5\u5099\u306b\u3088\u304f\u4f7f\u308f\u308c\u3066\u3044\u308b\u7570\u754c\u306e\u9271\u7269\u3002\u53ec\u559a\u9662\u3067\u6271\u3063\u3066\u3044\u308b\u9271\u7269\u3068\u306f\u660e\u3089\u304b\u306b\u7570\u306a\u3063\u3066\u304a\u308a\u3001\u3069\u306e\u7570\u754c\u3067\u63a1\u6398\u3055\u308c\u308b\u3082\u306e\u3067\u3042\u308b\u304b\u306e\u7279\u5b9a\u306f\u672a\u3060\u306a\u3055\u308c\u3066\u3044\u306a\u3044\u3002\u3060\u304c\u3001\u5947\u5999\u306a\u3053\u3068\u306b\u30cd\u30b0\u30ec\u30b9\u306e\u6b66\u5177\u306e\u52a0\u5de5\u6280\u8853\u306f\u30b0\u30e9\u30f3\u30ac\u30a4\u30a2\u306e\u3082\u306e\u3068\u306e\u985e\u4f3c\u6027\u304c\u975e\u5e38\u306b\u9ad8\u3044\u3053\u3068\u304c\u5206\u304b\u3063\u3066\u304d\u305f\u3002",
        "P_COMMENT_GETTABLE": ""
    },
    {
        "P_ELEMENT_ITEM_ID": "20020",
        "P_EXPLAIN_SHORT": "\u30cd\u30b0\u30ec\u30b9\u304c\u5229\u7528\u3059\u308b\u7570\u754c\u306e\u9271\u7269\u7d50\u6676",
        "P_EXTRA_TEXT": "\u30cd\u30b0\u30ec\u30b9\u8ecd\u306e\u4e2d\u3067\u4e00\u5b9a\u306e\u5730\u4f4d\u3092\u6301\u3064\u8005\u304c\u8eab\u306b\u7740\u3051\u3066\u3044\u308b\u6b66\u5177\u306b\u4f7f\u308f\u308c\u3066\u3044\u308b\u3053\u3068\u304c\u591a\u3044\u5e0c\u5c11\u306a\u9271\u7269\u3002\u542b\u307e\u308c\u308b\u6210\u5206\u306e\u7a2e\u985e\u304c\u975e\u5e38\u306b\u591a\u304f\u3001\u7d50\u6676\u306e\u4e2d\u5fc3\u306b\u8fd1\u4ed8\u304f\u307b\u3069\u672a\u77e5\u306e\u6210\u5206\u306e\u5bc6\u5ea6\u304c\u6fc3\u3044\u3002\u8868\u5c64\u90e8\u306f\u6709\u76ca\u306a\u6210\u5206\u306e\u7d14\u5ea6\u304c\u9ad8\u304f\u3001\u4e00\u3064\u306e\u584a\u304b\u3089\u69d8\u3005\u306a\u7269\u54c1\u3092\u4f5c\u308b\u7d20\u6750\u3092\u7cbe\u932c\u3059\u308b\u3053\u3068\u304c\u53ef\u80fd\u3060\u3002",
        "P_COMMENT_GETTABLE": ""
    },
    {
        "P_ELEMENT_ITEM_ID": "20021",
        "P_EXPLAIN_SHORT": "\u30cd\u30b0\u30ec\u30b9\u306e\u4e00\u822c\u7684\u306a\u5de5\u4f5c\u7d20\u6750",
        "P_EXTRA_TEXT": "\u30cd\u30b0\u30ec\u30b9\u8ecd\u306e\u6271\u3046\u6b66\u5177\u3092\u7814\u78e8\u3059\u308b\u969b\u306b\u4f7f\u308f\u308c\u3066\u3044\u308b\u3068\u601d\u308f\u308c\u308b\u9271\u7269\u3002\u5358\u306a\u308b\u7814\u78e8\u5264\u306e\u7d20\u6750\u3067\u306f\u306a\u304f\u3001\u3053\u306e\u9271\u7269\u3092\u7825\u306e\u7c89\u3068\u3057\u3066\u4f7f\u7528\u3057\u305f\u5834\u5408\u3001\u5ca9\u77f3\u4e2d\u306e\u9b54\u529b\u304c\u7269\u54c1\u3078\u3068\u79fb\u308b\u3053\u3068\u304c\u78ba\u8a8d\u3055\u308c\u3066\u3044\u308b\u3002\u305f\u3060\u3057\u3001\u90aa\u60aa\u306a\u529b\u304c\u5bbf\u308b\u53ef\u80fd\u6027\u304c\u61f8\u5ff5\u3055\u308c\u3066\u3044\u308b\u305f\u3081\u3001\u614e\u91cd\u306b\u4f5c\u696d\u3092\u884c\u308f\u306a\u3051\u308c\u3070\u306a\u3089\u306a\u3044\u3002",
        "P_COMMENT_GETTABLE": ""
    },
    {
        "P_ELEMENT_ITEM_ID": "20022",
        "P_EXPLAIN_SHORT": "\u30cd\u30b0\u30ec\u30b9\u304c\u3069\u3053\u304b\u304b\u3089\u8abf\u9054\u3057\u305f\u77f3\u6750",
        "P_EXTRA_TEXT": "\u30cd\u30b0\u30ec\u30b9\u8ecd\u306e\u4e00\u90e8\u306e\u7cbe\u92ed\u304c\u6301\u3064\u6b66\u5177\u306b\u5229\u7528\u3055\u308c\u308b\u77f3\u6750\u3002\u3069\u3053\u304b\u306e\u7570\u754c\u306b\u7523\u51fa\u3059\u308b\u5e0c\u5c11\u9271\u7269\u3060\u3068\u601d\u308f\u308c\u308b\u304c\u3001\u305d\u306e\u69cb\u9020\u3092\u8abf\u67fb\u3057\u305f\u7814\u7a76\u54e1\u306f\u3001\u4e00\u4f53\u3069\u306e\u3088\u3046\u306a\u74b0\u5883\u3067\u3042\u308c\u3070\u3053\u306e\u5ca9\u77f3\u304c\u7cbe\u88fd\u3055\u308c\u308b\u306e\u304b\u3001\u60f3\u50cf\u3082\u3064\u304b\u306a\u3044\u3068\u56f0\u60d1\u3057\u3066\u3044\u305f\u3068\u3044\u3046\u3002\u89e3\u6790\u306f\u4e0d\u8abf\u3060\u304c\u3001\u4eca\u306e\u3068\u3053\u308d\u8ee2\u7528\u306b\u554f\u984c\u306f\u306a\u3044\u3002",
        "P_COMMENT_GETTABLE": ""
    },
    {
        "P_ELEMENT_ITEM_ID": "20023",
        "P_EXPLAIN_SHORT": "\u30cd\u30b0\u30ec\u30b9\u3067\u7528\u3044\u3089\u308c\u308b\u9280\u8272\u306e\u77f3",
        "P_EXTRA_TEXT": "\u93e1\u306e\u3088\u3046\u306b\u98a8\u666f\u3092\u6620\u3057\u51fa\u3059\u30cd\u30b0\u30ec\u30b9\u8ecd\u306e\u6b66\u5177\u306b\u4f7f\u7528\u3055\u308c\u3066\u3044\u308b\u77f3\u3002\u898b\u305f\u76ee\u901a\u308a\u8010\u4e45\u6027\u306f\u3042\u307e\u308a\u9ad8\u304f\u306a\u3044\u304c\u3001\u9b54\u8853\u306e\u89e6\u5a92\u3068\u3057\u3066\u975e\u5e38\u306b\u52b9\u679c\u7684\u306a\u6027\u8cea\u3092\u6301\u3064\u3002\u65e2\u77e5\u306e\u7570\u754c\u3067\u306f\u767a\u898b\u3055\u308c\u3066\u3044\u306a\u3044\u304c\u3001\u305d\u306e\u69cb\u9020\u3092\u898b\u308b\u9650\u308a\u3001\u7279\u7570\u306a\u74b0\u5883\u3067\u306e\u307f\u751f\u6210\u3055\u308c\u308b\u5e0c\u5c11\u6027\u306e\u9ad8\u3044\u7269\u8cea\u3067\u306f\u306a\u3044\u3068\u8003\u3048\u3089\u308c\u308b\u3002",
        "P_COMMENT_GETTABLE": ""
    },
    {
        "P_ELEMENT_ITEM_ID": "20024",
        "P_EXPLAIN_SHORT": "\u30cd\u30b0\u30ec\u30b9\u306e\u6280\u8853\u306b\u6b20\u304b\u305b\u306a\u3044\u5b9d\u77f3",
        "P_EXTRA_TEXT": "\u30cd\u30b0\u30ec\u30b9\u304c\u6ec5\u307c\u3057\u305f\u7570\u754c\u3067\u7523\u51fa\u3059\u308b\u3068\u3044\u3046\u8cb4\u91cd\u306a\u5b9d\u77f3\u3002\u672c\u6765\u306f\u751f\u547d\u3092\u5bff\u3050\u795e\u8056\u306a\u5b58\u5728\u3067\u3042\u3063\u305f\u304c\u3001\u60aa\u3057\u304d\u529b\u306b\u3088\u308a\u6027\u8cea\u306f\u53cd\u8ee2\u3001\u90aa\u6cd5\u306e\u89e6\u5a92\u3068\u3057\u3066\u7528\u3044\u3089\u308c\u3066\u3044\u308b\u3002\u3053\u306e\u5b9d\u77f3\u3092\u5f97\u308b\u305f\u3081\u3060\u3051\u306b\u5f7c\u3089\u306f\u3072\u3068\u3064\u306e\u7570\u754c\u3092\u6ec5\u307c\u3057\u305f\u3002\u3053\u306e\u4e8b\u5b9f\u306f\u3059\u3079\u3066\u306e\u4e16\u754c\u306e\u4eba\u3005\u304c\u5371\u6a5f\u306b\u6652\u3055\u308c\u3066\u3044\u308b\u3053\u3068\u3092\u793a\u3059\u3002",
        "P_COMMENT_GETTABLE": ""
    },
    {
        "P_ELEMENT_ITEM_ID": "20025",
        "P_EXPLAIN_SHORT": "\u30cd\u30b0\u30ec\u30b9\u304c\u72ec\u81ea\u958b\u767a\u3057\u305f\u529b\u306e\u7d50\u6676",
        "P_EXTRA_TEXT": "\u30cd\u30b0\u30ec\u30b9\u306e\u90aa\u6cd5\u306b\u3088\u3063\u3066\u6226\u5834\u306b\u6e26\u5dfb\u304f\u95d8\u5fd7\u3092\u7d50\u6676\u5316\u3057\u305f\u7269\u4f53\u3002\u63a8\u6e2c\u306b\u904e\u304e\u306a\u3044\u304c\u3001\u6226\u5834\u3067\u591a\u304f\u306e\u6226\u58eb\u305f\u3061\u304c\u5012\u308c\u308b\u307b\u3069\u306b\u3001\u8cea\u306e\u826f\u3044\u7d50\u6676\u304c\u5f62\u4f5c\u3089\u308c\u308b\u3082\u306e\u3068\u601d\u308f\u308c\u308b\u3002\u502b\u7406\u7684\u306a\u554f\u984c\u3082\u3042\u308a\u3001\u53ec\u559a\u9662\u5074\u3067\u4f5c\u308b\u3053\u3068\u306f\u96e3\u3057\u3044\u305f\u3081\u3001\u6226\u95d8\u3067\u306e\u9e75\u7372\u306b\u5165\u624b\u3092\u983c\u308b\u3053\u3068\u306b\u306a\u3063\u3066\u3057\u307e\u3063\u3066\u3044\u308b\u3002",
        "P_COMMENT_GETTABLE": ""
    },
    {
        "P_ELEMENT_ITEM_ID": "20026",
        "P_EXPLAIN_SHORT": "\u30cd\u30b0\u30ec\u30b9\u652f\u914d\u4e0b\u306e\u7570\u754c\u3067\u7523\u3059\u308b\u9271\u77f3",
        "P_EXTRA_TEXT": "\u30cd\u30b0\u30ec\u30b9\u8ecd\u306e\u6700\u65b0\u5175\u5668\u306b\u7528\u3044\u3089\u308c\u308b\u7570\u754c\u306e\u9271\u7269\u3002\u7523\u51fa\u5730\u306f\u3042\u308b\u7a0b\u5ea6\u7279\u5b9a\u3055\u308c\u3066\u3044\u308b\u304c\u3001\u3044\u305a\u308c\u3082\u63a2\u7d22\u304c\u56f0\u96e3\u306a\u7570\u754c\u3067\u3042\u308b\u3002\u3053\u306e\u4e8b\u5b9f\u306f\u3001\u30cd\u30b0\u30ec\u30b9\u306e\u7570\u754c\u8abf\u67fb\u306b\u304a\u3051\u308b\u6280\u8853\u3068\u7d4c\u9a13\u304c\u53ec\u559a\u9662\u3092\u4e0a\u56de\u3063\u3066\u3044\u308b\u53ef\u80fd\u6027\u304c\u9ad8\u3044\u3053\u3068\u3092\u793a\u5506\u3057\u3066\u3044\u308b\u3002\u5f8c\u308c\u3092\u53d6\u308a\u623b\u3059\u52aa\u529b\u304c\u5fc5\u8981\u3060\u3002",
        "P_COMMENT_GETTABLE": ""
    },
    {
        "P_ELEMENT_ITEM_ID": "20027",
        "P_EXPLAIN_SHORT": "\u30cd\u30b0\u30ec\u30b9\u79d8\u4f1d\u306e\u5de5\u6cd5\u306b\u4f7f\u3046\u77f3\u6750",
        "P_EXTRA_TEXT": "\u30cd\u30b0\u30ec\u30b9\u8ecd\u306e\u6700\u7cbe\u92ed\u306b\u914d\u5099\u3055\u308c\u308b\u88c5\u5099\u306e\u7d20\u6750\u3068\u306a\u308b\u77f3\u6750\u3002\u6271\u3044\u304c\u96e3\u3057\u304f\u3001\u5165\u624b\u306e\u56f0\u96e3\u3055\u3060\u3051\u3067\u306a\u304f\u3001\u52a0\u5de5\u3059\u308b\u305f\u3081\u306e\u77e5\u8b58\u3068\u6280\u8853\u306f\u304b\u306a\u308a\u9ad8\u5ea6\u306a\u3082\u306e\u304c\u5fc5\u8981\u306b\u306a\u308b\u3002\u53ec\u559a\u9662\u3067\u306f\u6226\u95d8\u306b\u3088\u308a\u5165\u624b\u3059\u308b\u3053\u3068\u306e\u3067\u304d\u305f\u7d20\u6750\u3092\u3069\u3046\u4f7f\u3046\u304b\u982d\u3092\u60a9\u307e\u305b\u3066\u3044\u308b\u304c\u3001\u7814\u7a76\u8005\u305f\u3061\u306f\u5b09\u3005\u3068\u3057\u3066\u53d6\u308a\u7d44\u3093\u3067\u3044\u308b\u3002",
        "P_COMMENT_GETTABLE": ""
    },
    {
        "P_ELEMENT_ITEM_ID": "20028",
        "P_EXPLAIN_SHORT": "\u30cd\u30b0\u30ec\u30b9\u304c\u6d3b\u7528\u3059\u308b\u795e\u79d8\u306e\u8cb4\u77f3",
        "P_EXTRA_TEXT": "\u304b\u3064\u3066\u3042\u308b\u7570\u754c\u306e\u795e\u304c\u4eba\u3005\u306b\u77e5\u6075\u3092\u4e0e\u3048\u308b\u305f\u3081\u306b\u5275\u3063\u305f\u3068\u3044\u3046\u4f1d\u627f\u3092\u6301\u3064\u8cb4\u77f3\u3002\u795e\u79d8\u7684\u306a\u9b54\u529b\u304c\u8fbc\u3081\u3089\u308c\u3066\u304a\u308a\u3001\u304a\u305d\u3089\u304f\u524d\u8ff0\u306e\u795e\u8a71\u306f\u3053\u306e\u9b54\u529b\u3092\u8aac\u660e\u3059\u308b\u305f\u3081\u306b\u5f8c\u4e16\u306b\u4f5c\u3089\u308c\u305f\u8a71\u3060\u308d\u3046\u3002\u306a\u304a\u3001\u3053\u306e\u8cb4\u77f3\u306b\u95a2\u3059\u308b\u60c5\u5831\u306f\u30cd\u30b0\u30ec\u30b9\u306e\u57fa\u5730\u304b\u3089\u7372\u5f97\u3057\u305f\u3002\u53ec\u559a\u9662\u672a\u8e0f\u306e\u7570\u754c\u306e\u7523\u54c1\u3067\u3042\u308b\u3002",
        "P_COMMENT_GETTABLE": ""
    },
    {
        "P_ELEMENT_ITEM_ID": "20029",
        "P_EXPLAIN_SHORT": "\u5730\u306e\u5e95\u3067\u898b\u3064\u304b\u308b\u3053\u3068\u304c\u3042\u308b\u7d50\u6676\u4f53",
        "P_EXTRA_TEXT": "\u5730\u5e95\u306e\u95c7\u306e\u4e2d\u306b\u8f1d\u304f\u7d50\u6676\u4f53\u3002\u305d\u306e\u8f1d\u304d\u306f\u7384\u5999\u3067\u3001\u5730\u4e0a\u306b\u4f4f\u3080\u8005\u306b\u3068\u3063\u3066\u306f\u5341\u5206\u306a\u660e\u308b\u3055\u3068\u306f\u8a00\u3048\u306a\u3044\u3002\u3057\u304b\u3057\u3001\u5730\u306e\u5e95\u3067\u751f\u307e\u308c\u80b2\u3063\u305f\u8005\u306b\u3068\u3063\u3066\u306f\u5149\u3068\u540c\u7fa9\u3060\u3068\u3044\u3046\u3002\u5730\u4e0b\u751f\u7269\u306e\u591a\u304f\u306f\u76ee\u304c\u9000\u5316\u3057\u3066\u3044\u308b\u3082\u306e\u3060\u304c\u3001\u3053\u306e\u9271\u7269\u306e\u7523\u51fa\u5730\u57df\u306e\u751f\u7269\u306f\u3057\u3063\u304b\u308a\u3068\u76ee\u304c\u898b\u3048\u3066\u3044\u308b\u3088\u3046\u3060\u3002",
        "P_COMMENT_GETTABLE": ""
    },
    {
        "P_ELEMENT_ITEM_ID": "20030",
        "P_EXPLAIN_SHORT": "\u4f1d\u8aac\u306e\u8f1d\u3051\u308b\u9f8d\u306e\u7259\u3068\u8003\u3048\u3089\u308c\u3066\u3044\u308b\u7269\u8cea",
        "P_EXTRA_TEXT": "\u8f1d\u3051\u308b\u9f8d\u306e\u4f1d\u8aac\u304c\u5404\u5730\u306b\u5b58\u5728\u3059\u308b\u3002\u304a\u305d\u3089\u304f\u3001\u7570\u754c\u304b\u3089\u7570\u754c\u3078\u3068\u98db\u3073\u56de\u308b\u53e4\u4ee3\u7adc\u304c\u4e0a\u7a7a\u3092\u98db\u3073\u53bb\u3063\u305f\u51fa\u6765\u4e8b\u3092\u5404\u5730\u306e\u4eba\u3005\u304c\u8a18\u9332\u3057\u305f\u306e\u3060\u308d\u3046\u3002\u3053\u306e\u91d1\u8272\u306e\u7259\u72b6\u306e\u7269\u8cea\u306f\u3001\u975e\u5e38\u306b\u73cd\u3057\u3044\u9271\u7269\u3067\u3042\u308a\u3001\u7adc\u306e\u7259\u3067\u306f\u306a\u3044\u306e\u3060\u304c\u3001\u524d\u8ff0\u306e\u4f1d\u8aac\u306b\u306a\u305e\u3089\u3048\u3066\u3001\u738b\u9f8d\u306e\u7259\u3068\u547c\u3070\u308c\u3066\u3044\u308b\u3002",
        "P_COMMENT_GETTABLE": ""
    },
    {
        "P_ELEMENT_ITEM_ID": "20031",
        "P_EXPLAIN_SHORT": "\u30cd\u30b0\u30ec\u30b9\u304c\u795e\u3005\u306e\u529b\u3092\u5177\u73fe\u5316\u3057\u305f\u7d50\u6676",
        "P_EXTRA_TEXT": "\u30cd\u30b0\u30ec\u30b9\u306f\u6570\u3005\u306e\u7570\u754c\u306b\u4fb5\u653b\u3057\u3001\u305d\u306e\u5730\u306e\u795e\u3005\u3092\u3082\u6253\u3061\u5012\u3057\u305f\u3068\u63a8\u6e2c\u3055\u308c\u308b\u3002\u6ec5\u307c\u3057\u305f\u795e\u306e\u529b\u306f\u90aa\u6cd5\u306b\u3088\u3063\u3066\u529b\u3042\u308b\u7269\u8cea\u3078\u3068\u5909\u63db\u3055\u308c\u305f\u3002\u3053\u306e\u7d50\u6676\u4f53\u3092\u7528\u3044\u308c\u3070\u3001\u795e\u3092\u3082\u6ec5\u307c\u3059\u307b\u3069\u306e\u529b\u3042\u308b\u7269\u54c1\u3092\u7cbe\u88fd\u3059\u308b\u3053\u3068\u304c\u53ef\u80fd\u3060\u3002\u73fe\u72b6\u3067\u306f\u30cd\u30b0\u30ec\u30b9\u304b\u3089\u596a\u53d6\u3059\u308b\u4ee5\u5916\u306b\u5165\u624b\u65b9\u6cd5\u306f\u7121\u3044\u3002",
        "P_COMMENT_GETTABLE": ""
    },
    {
        "P_ELEMENT_ITEM_ID": "20032",
        "P_EXPLAIN_SHORT": "\u30cd\u30b0\u30ec\u30b9\u304c\u767a\u898b\u3057\u305f\u4e0d\u601d\u8b70\u306a\u9271\u7269",
        "P_EXTRA_TEXT": "\u30cd\u30b0\u30ec\u30b9\u8ecd\u304c\u4fb5\u653b\u3057\u305f\u7570\u754c\u306e\u6570\u306f\u6773\u3068\u3057\u3066\u77e5\u308c\u306a\u3044\u304c\u3001\u53ec\u559a\u9662\u304c\u628a\u63e1\u3067\u304d\u3066\u3044\u306a\u3044\u672a\u77e5\u306e\u7570\u754c\u306b\u3082\u653b\u3081\u8fbc\u3093\u3067\u3044\u308b\u3053\u3068\u306f\u78ba\u5b9f\u3067\u3042\u308b\u3002\u3053\u306e\u5929\u5730\u958b\u95e2\u306e\u969b\u306b\u751f\u6210\u3055\u308c\u305f\u3068\u4f1d\u3048\u3089\u308c\u308b\u9271\u7269\u3082\u542b\u3081\u3001\u5f7c\u3089\u306f\u5404\u7570\u754c\u306e\u7279\u7523\u9271\u7269\u3092\u7528\u3044\u3066\u304a\u308a\u3001\u53ec\u559a\u9662\u306f\u6280\u8853\u9762\u3067\u5f8c\u308c\u3092\u53d6\u3063\u3066\u3057\u307e\u3063\u3066\u3044\u308b\u3002",
        "P_COMMENT_GETTABLE": ""
    },
    {
        "P_ELEMENT_ITEM_ID": "20033",
        "P_EXPLAIN_SHORT": "\u30cd\u30b0\u30ec\u30b9\u306e\u7279\u5225\u306a\u6b66\u5177\u306b\u4f7f\u308f\u308c\u308b\u5de5\u4f5c\u7d20\u6750",
        "P_EXTRA_TEXT": "\u30cd\u30b0\u30ec\u30b9\u8ecd\u304c\u6301\u3064\u6280\u8853\u306f\u660e\u3089\u304b\u306b\u30a8\u30eb\u30ac\u30a4\u30a2\u306e\u305d\u308c\u3092\u8d85\u3048\u3066\u3044\u308b\u3002\u79d1\u5b66\u6280\u8853\u306b\u9650\u5b9a\u3057\u3066\u3059\u3089\u30a4\u30af\u30b9\u30bf\u30b9\u3068\u540c\u7b49\u3067\u3042\u308b\u305f\u3081\u3001\u53ec\u559a\u8853\u3068\u3044\u3046\u7279\u7570\u306a\u6280\u304c\u306a\u3051\u308c\u3070\u592a\u5200\u6253\u3061\u304c\u3067\u304d\u306a\u304b\u3063\u305f\u3060\u308d\u3046\u3002\u3053\u306e\u540d\u3082\u77e5\u308c\u306c\u7570\u754c\u306e\u77f3\u6750\u306e\u52a0\u5de5\u6280\u8853\u3082\u3001\u30cd\u30b0\u30ec\u30b9\u304b\u3089\u596a\u3063\u305f\u6b66\u5177\u306e\u8abf\u67fb\u304b\u3089\u7fd2\u5f97\u3057\u305f\u3082\u306e\u3067\u3042\u308b\u3002",
        "P_COMMENT_GETTABLE": ""
    },
    {
        "P_ELEMENT_ITEM_ID": "20034",
        "P_EXPLAIN_SHORT": "\u30cd\u30b0\u30ec\u30b9\u304c\u91cd\u5b9d\u3059\u308b\u9b54\u6cd5\u77f3",
        "P_EXTRA_TEXT": "\u30cd\u30b0\u30ec\u30b9\u304c\u767a\u898b\u3057\u305f\u7570\u754c\u306b\u8ee2\u304c\u3059\u3068\u9234\u306e\u3088\u3046\u306a\u97f3\u8272\u3092\u594f\u3067\u308b\u77f3\u3002\u5358\u306a\u308b\u73cd\u3057\u3044\u77f3\u3067\u306f\u306a\u3044\u3002\u9b54\u529b\u3092\u6e9c\u3081\u8fbc\u3080\u6027\u8cea\u306f\u73fe\u5728\u77e5\u3089\u308c\u3066\u3044\u308b\u7269\u8cea\u306e\u4e2d\u3067\u3082\u6700\u9ad8\u5cf0\u3067\u3042\u308a\u3001\u5f7c\u3089\u306e\u9b54\u5c0e\u6280\u8853\u306b\u6b20\u304b\u305b\u306a\u3044\u7d20\u6750\u3067\u3042\u308b\u3002\u306a\u304a\u3001\u53ec\u559a\u9662\u306e\u6700\u65b0\u306e\u7814\u7a76\u306f\u30cd\u30b0\u30ec\u30b9\u306e\u6280\u8853\u306e\u89e3\u660e\u304b\u3089\u5f97\u3089\u308c\u3066\u3044\u308b\u3068\u3053\u308d\u304c\u5927\u304d\u3044\u3002",
        "P_COMMENT_GETTABLE": ""
    },
    {
        "P_ELEMENT_ITEM_ID": "30000",
        "P_EXPLAIN_SHORT": "\u3042\u3089\u3086\u308b\u5149\u3092\u5438\u53ce\u3057\u3066\u6e9c\u3081\u8fbc\u3080\u3068\u3055\u308c\u308b\u7d50\u6676\u4f53",
        "P_EXTRA_TEXT": "\u3042\u3089\u3086\u308b\u5149\u3092\u5438\u53ce\u3057\u3066\u6e9c\u3081\u8fbc\u3080\u3068\u3055\u308c\u308b\u7d50\u6676\u4f53\u3002\n\u4e00\u5207\u66c7\u308a\u306e\u7121\u3044\u900f\u660e\u306a\u7269\u8cea\u3060\u304c\u3001\u900f\u904e\u3059\u308b\u5149\u3092\u6349\u3048\u3066\u9003\u304c\u3055\u306a\u3044\u6027\u8cea\u306e\u305f\u3081\u3001\u5bb5\u95c7\u306e\u8272\u3092\u6301\u3064\u3002\u5438\u53ce\u3055\u308c\u305f\u5149\u306f\u9b54\u529b\u3068\u3057\u3066\u53d6\u308a\u51fa\u3059\u3053\u3068\u304c\u3067\u304d\u308b\u305f\u3081\u3001\u592a\u967d\u306e\u5149\u3092\u9b54\u529b\u306b\u5909\u63db\u3059\u308b\u3068\u3044\u3046\u5947\u8de1\u7684\u306a\u52b9\u80fd\u304c\u5f97\u3089\u308c\u308b\u3002",
        "P_COMMENT_GETTABLE": ""
    },
    {
        "P_ELEMENT_ITEM_ID": "30011",
        "P_EXPLAIN_SHORT": "\u30a2\u30af\u30e9\u30b9\u53ec\u559a\u9662\u304c\u958b\u767a\u3057\u305fBB\u7d4c\u9a13\u5024\u3092\u5927\u5e45\u306b\u30a2\u30c3\u30d7\u3055\u305b\u308b\u5f37\u5316\u7d20\u6750",
        "P_EXTRA_TEXT": "\u30a2\u30af\u30e9\u30b9\u53ec\u559a\u9662\u306e\u7814\u7a76\u958b\u767a\u8ab2\u3067\u958b\u767a\u3055\u308c\u305f\u3001\u30d6\u30ec\u30a4\u30d6\u30d0\u30fc\u30b9\u30c8\u7d4c\u9a13\u5024\u3092\u5927\u5e45\u306b\u7372\u5f97\u3067\u304d\u308b\u5f37\u5316\u7d20\u6750\u3002\n\u4e71\u7372\u306b\u3088\u308a\u7d76\u6ec5\u5371\u60e7\u7a2e\u3068\u306a\u3063\u305f\u30d0\u30fc\u30b9\u30c8\u30d5\u30ed\u30c3\u30b0\u304c\u6301\u3064\u3001\u53ec\u559a\u8853\u306e\u6280\u91cf\u52b9\u679c\u3092\u4e0a\u6607\u3055\u305b\u308b\u6210\u5206\u3092\u62bd\u51fa\u3057\u3001\u4eba\u5de5\u7684\u306b\u30d0\u30fc\u30b9\u30c8\u30d5\u30ed\u30c3\u30b0\u4f55\u4f53\u5206\u3082\u306e\u5f37\u5316\u5408\u6210\u52b9\u679c\u3092\u5f97\u3089\u308c\u308b\u7d20\u6750\u306e\u751f\u6210\u306b\u6210\u529f\u3057\u305f\u3002",
        "P_COMMENT_GETTABLE": ""
    },
    {
        "P_ELEMENT_ITEM_ID": "30012",
        "P_EXPLAIN_SHORT": "\u30a2\u30af\u30e9\u30b9\u53ec\u559a\u9662\u304c\u958b\u767a\u3057\u305f\u30d0\u30c8\u30ebBP\u3092\u30a2\u30c3\u30d7\u3055\u305b\u308b\u5f37\u5316\u7d20\u6750",
        "P_EXTRA_TEXT": "\u30a2\u30af\u30e9\u30b9\u53ec\u559a\u9662\u306e\u7814\u7a76\u958b\u767a\u8ab2\u3078\u306e\u8981\u671b\u306b\u5fdc\u3048\u308b\u5f62\u3067\u958b\u767a\u3055\u308c\u305f\u3001\u30d0\u30c8\u30eb\u30dc\u30fc\u30ca\u30b9\u30dd\u30a4\u30f3\u30c8\u3092\u7372\u5f97\u3067\u304d\u308b\u5f37\u5316\u7d20\u6750\u3002\n\u30d0\u30fc\u30b9\u30c8\u30d5\u30ed\u30c3\u30b0\u304b\u3089\u6210\u5206\u3092\u62bd\u51fa\u3059\u308b\u6280\u8853\u3092\u8ee2\u7528\u3057\u305f\u3082\u306e\u3068\u601d\u308f\u308c\u308b\u304c\u3001\u539f\u6750\u6599\u306f\u516c\u8868\u3055\u308c\u3066\u3044\u306a\u3044\u3002\u4e71\u7372\u306e\u60b2\u5287\u3092\u7e70\u308a\u8fd4\u3055\u306a\u3044\u305f\u3081\u3068\u8aac\u660e\u3055\u308c\u3066\u3044\u308b\u304c\u3001\u77e5\u3089\u308c\u3066\u306f\u307e\u305a\u3044\u30e2\u30ce\u3092\u4f7f\u3063\u3066\u3044\u308b\u306e\u3067\u306f\u306a\u3044\u304b\u3068\u3044\u3046\u61b6\u6e2c\u3092\u547c\u3093\u3067\u3044\u308b\u3002",
        "P_COMMENT_GETTABLE": ""
    },
    {
        "P_ELEMENT_ITEM_ID": "40000",
        "P_EXPLAIN_SHORT": "\u53ec\u559a\u30e6\u30cb\u30c3\u30c8\u3092\u8d85\u8d8a\u5f37\u5316\u3055\u305b\u308b\u970a\u9b42",
        "P_EXTRA_TEXT": "\u304b\u3064\u3066\u591a\u304f\u306e\u932c\u91d1\u8853\u5e2b\u305f\u3061\u304c\u63a2\u3057\u6c42\u3081\u305f\u4e16\u754c\u305d\u306e\u3082\u306e\u306e\u547d\u306e\u8f1d\u304d\u3001\u970a\u9b42\u3002\u30a2\u30af\u30e9\u30b9\u53ec\u559a\u9662\u3067\u306f\u3001\u3042\u308b\u5973\u795e\u306e\u52a9\u529b\u306b\u3088\u308a\u305d\u306e\u4e00\u90e8\u3092\u53d6\u308a\u51fa\u3059\u3053\u3068\u306b\u6210\u529f\u3057\u305f\u3002\u3053\u306e\u970a\u9b42\u3092\u7528\u3044\u308c\u3070\u3001\u82f1\u970a\u306e\u9b42\u3092\u3088\u308a\u9ad8\u6b21\u306e\u5b58\u5728\u3078\u3068\u6607\u83ef\u3059\u308b\u3053\u3068\u304c\u53ef\u80fd\u3060\u308d\u3046\u3002\u305f\u3060\u3057\u3001\u970a\u9b42\u306e\u62bd\u51fa\u306b\u306f\u6642\u9593\u3068\u6280\u8853\u3068\u5e78\u904b\u304c\u5fc5\u8981\u306a\u305f\u3081\u3001\u3072\u3068\u3064\u5f97\u308b\u3060\u3051\u3067\u3082\u591a\u5927\u306a\u52b4\u529b\u3092\u8981\u3059\u308b\u3002",
        "P_COMMENT_GETTABLE": ""
    }
]