[
    {
        "P_MISSION_ID": "904",
        "P_BATTLE_ORDER": "3",
        "P_TRIGGER_TYPE": "1",
        "P_SP_INFO_TYPE": "1",
        "P_SP_INFO": "102",
        "P_SCRIPT": "",
        "P_CREATEDATE": "2018-04-12 01:47:57",
        "P_UPDATEDATE": "2018-04-12 01:47:57"
    },
    {
        "P_MISSION_ID": "2402",
        "P_BATTLE_ORDER": "1",
        "P_TRIGGER_TYPE": "1",
        "P_SP_INFO_TYPE": "3",
        "P_SP_INFO": "1001513",
        "P_SCRIPT": "",
        "P_CREATEDATE": "2018-04-12 01:47:57",
        "P_UPDATEDATE": "2018-04-12 01:47:57"
    },
    {
        "P_MISSION_ID": "2402",
        "P_BATTLE_ORDER": "2",
        "P_TRIGGER_TYPE": "1",
        "P_SP_INFO_TYPE": "3",
        "P_SP_INFO": "1001513",
        "P_SCRIPT": "",
        "P_CREATEDATE": "2018-04-12 01:47:57",
        "P_UPDATEDATE": "2018-04-12 01:47:57"
    },
    {
        "P_MISSION_ID": "2403",
        "P_BATTLE_ORDER": "3",
        "P_TRIGGER_TYPE": "1",
        "P_SP_INFO_TYPE": "3",
        "P_SP_INFO": "1001530",
        "P_SCRIPT": "",
        "P_CREATEDATE": "2018-04-12 01:47:57",
        "P_UPDATEDATE": "2018-04-12 01:47:57"
    },
    {
        "P_MISSION_ID": "3102",
        "P_BATTLE_ORDER": "3",
        "P_TRIGGER_TYPE": "1",
        "P_SP_INFO_TYPE": "3",
        "P_SP_INFO": "1002211",
        "P_SCRIPT": "",
        "P_CREATEDATE": "2018-04-12 01:47:57",
        "P_UPDATEDATE": "2018-04-12 01:47:57"
    },
    {
        "P_MISSION_ID": "3201",
        "P_BATTLE_ORDER": "3",
        "P_TRIGGER_TYPE": "1",
        "P_SP_INFO_TYPE": "3",
        "P_SP_INFO": "1002310",
        "P_SCRIPT": "",
        "P_CREATEDATE": "2018-04-12 01:47:57",
        "P_UPDATEDATE": "2018-04-12 01:47:57"
    },
    {
        "P_MISSION_ID": "5003",
        "P_BATTLE_ORDER": "1",
        "P_TRIGGER_TYPE": "1",
        "P_SP_INFO_TYPE": "3",
        "P_SP_INFO": "1003124",
        "P_SCRIPT": "",
        "P_CREATEDATE": "2018-04-12 01:47:57",
        "P_UPDATEDATE": "2018-04-12 01:47:57"
    },
    {
        "P_MISSION_ID": "5003",
        "P_BATTLE_ORDER": "2",
        "P_TRIGGER_TYPE": "1",
        "P_SP_INFO_TYPE": "3",
        "P_SP_INFO": "1003107",
        "P_SCRIPT": "",
        "P_CREATEDATE": "2018-04-12 01:47:57",
        "P_UPDATEDATE": "2018-04-12 01:47:57"
    },
    {
        "P_MISSION_ID": "5003",
        "P_BATTLE_ORDER": "3",
        "P_TRIGGER_TYPE": "1",
        "P_SP_INFO_TYPE": "3",
        "P_SP_INFO": "1003152",
        "P_SCRIPT": "",
        "P_CREATEDATE": "2018-04-12 01:47:57",
        "P_UPDATEDATE": "2018-04-12 01:47:57"
    },
    {
        "P_MISSION_ID": "5010",
        "P_BATTLE_ORDER": "1",
        "P_TRIGGER_TYPE": "1",
        "P_SP_INFO_TYPE": "3",
        "P_SP_INFO": "100044",
        "P_SCRIPT": "",
        "P_CREATEDATE": "2018-04-12 01:47:57",
        "P_UPDATEDATE": "2018-04-12 01:47:57"
    },
    {
        "P_MISSION_ID": "2000200",
        "P_BATTLE_ORDER": "2",
        "P_TRIGGER_TYPE": "1",
        "P_SP_INFO_TYPE": "3",
        "P_SP_INFO": "5002001",
        "P_SCRIPT": "",
        "P_CREATEDATE": "2018-04-12 01:47:57",
        "P_UPDATEDATE": "2018-04-12 01:47:57"
    },
    {
        "P_MISSION_ID": "2000401",
        "P_BATTLE_ORDER": "3",
        "P_TRIGGER_TYPE": "1",
        "P_SP_INFO_TYPE": "3",
        "P_SP_INFO": "5004015",
        "P_SCRIPT": "",
        "P_CREATEDATE": "2018-04-12 01:47:57",
        "P_UPDATEDATE": "2018-04-12 01:47:57"
    },
    {
        "P_MISSION_ID": "2000410",
        "P_BATTLE_ORDER": "1",
        "P_TRIGGER_TYPE": "1",
        "P_SP_INFO_TYPE": "3",
        "P_SP_INFO": "5004015",
        "P_SCRIPT": "",
        "P_CREATEDATE": "2018-04-12 01:47:57",
        "P_UPDATEDATE": "2018-04-12 01:47:57"
    },
    {
        "P_MISSION_ID": "3020103",
        "P_BATTLE_ORDER": "1",
        "P_TRIGGER_TYPE": "1",
        "P_SP_INFO_TYPE": "7",
        "P_SP_INFO": "0",
        "P_SCRIPT": "",
        "P_CREATEDATE": "2018-04-12 01:47:57",
        "P_UPDATEDATE": "2018-04-12 01:47:57"
    }
]