[
    {
        "P_MISSION_ID": "904",
        "P_BATTLE_ORDER": "3",
        "P_TRIGGER_TYPE": "1",
        "P_SP_INFO_TYPE": "1",
        "P_SP_INFO": "102",
        "P_SCRIPT": "",
        "P_CREATEDATE": "2018-02-12 16:01:22",
        "P_UPDATEDATE": "2018-02-12 16:01:22"
    },
    {
        "P_MISSION_ID": "2402",
        "P_BATTLE_ORDER": "1",
        "P_TRIGGER_TYPE": "1",
        "P_SP_INFO_TYPE": "3",
        "P_SP_INFO": "1001513",
        "P_SCRIPT": "",
        "P_CREATEDATE": "2018-02-12 16:01:22",
        "P_UPDATEDATE": "2018-02-12 16:01:22"
    },
    {
        "P_MISSION_ID": "2402",
        "P_BATTLE_ORDER": "2",
        "P_TRIGGER_TYPE": "1",
        "P_SP_INFO_TYPE": "3",
        "P_SP_INFO": "1001513",
        "P_SCRIPT": "",
        "P_CREATEDATE": "2018-02-12 16:01:22",
        "P_UPDATEDATE": "2018-02-12 16:01:22"
    },
    {
        "P_MISSION_ID": "2403",
        "P_BATTLE_ORDER": "3",
        "P_TRIGGER_TYPE": "1",
        "P_SP_INFO_TYPE": "3",
        "P_SP_INFO": "1001530",
        "P_SCRIPT": "",
        "P_CREATEDATE": "2018-02-12 16:01:22",
        "P_UPDATEDATE": "2018-02-12 16:01:22"
    },
    {
        "P_MISSION_ID": "3102",
        "P_BATTLE_ORDER": "3",
        "P_TRIGGER_TYPE": "1",
        "P_SP_INFO_TYPE": "3",
        "P_SP_INFO": "1002211",
        "P_SCRIPT": "",
        "P_CREATEDATE": "2018-02-12 16:01:22",
        "P_UPDATEDATE": "2018-02-12 16:01:22"
    },
    {
        "P_MISSION_ID": "3201",
        "P_BATTLE_ORDER": "3",
        "P_TRIGGER_TYPE": "1",
        "P_SP_INFO_TYPE": "3",
        "P_SP_INFO": "1002310",
        "P_SCRIPT": "",
        "P_CREATEDATE": "2018-02-12 16:01:22",
        "P_UPDATEDATE": "2018-02-12 16:01:22"
    },
    {
        "P_MISSION_ID": "5003",
        "P_BATTLE_ORDER": "1",
        "P_TRIGGER_TYPE": "1",
        "P_SP_INFO_TYPE": "3",
        "P_SP_INFO": "1003124",
        "P_SCRIPT": "",
        "P_CREATEDATE": "2018-02-12 16:01:22",
        "P_UPDATEDATE": "2018-02-12 16:01:22"
    },
    {
        "P_MISSION_ID": "5003",
        "P_BATTLE_ORDER": "2",
        "P_TRIGGER_TYPE": "1",
        "P_SP_INFO_TYPE": "3",
        "P_SP_INFO": "1003107",
        "P_SCRIPT": "",
        "P_CREATEDATE": "2018-02-12 16:01:22",
        "P_UPDATEDATE": "2018-02-12 16:01:22"
    },
    {
        "P_MISSION_ID": "5003",
        "P_BATTLE_ORDER": "3",
        "P_TRIGGER_TYPE": "1",
        "P_SP_INFO_TYPE": "3",
        "P_SP_INFO": "1003152",
        "P_SCRIPT": "",
        "P_CREATEDATE": "2018-02-12 16:01:22",
        "P_UPDATEDATE": "2018-02-12 16:01:22"
    },
    {
        "P_MISSION_ID": "5010",
        "P_BATTLE_ORDER": "1",
        "P_TRIGGER_TYPE": "1",
        "P_SP_INFO_TYPE": "3",
        "P_SP_INFO": "100044",
        "P_SCRIPT": "",
        "P_CREATEDATE": "2018-02-12 16:01:22",
        "P_UPDATEDATE": "2018-02-12 16:01:22"
    },
    {
        "P_MISSION_ID": "2000200",
        "P_BATTLE_ORDER": "2",
        "P_TRIGGER_TYPE": "1",
        "P_SP_INFO_TYPE": "3",
        "P_SP_INFO": "5002001",
        "P_SCRIPT": "",
        "P_CREATEDATE": "2018-02-12 16:01:22",
        "P_UPDATEDATE": "2018-02-12 16:01:22"
    },
    {
        "P_MISSION_ID": "2000405",
        "P_BATTLE_ORDER": "2",
        "P_TRIGGER_TYPE": "1",
        "P_SP_INFO_TYPE": "3",
        "P_SP_INFO": "5004016",
        "P_SCRIPT": "",
        "P_CREATEDATE": "2018-02-12 16:01:22",
        "P_UPDATEDATE": "2018-02-12 16:01:22"
    }
]