[
    {
        "P_UNIT_ID": "7000120",
        "0vzt3dFb": "1",
        "P_IMG_CGG": "unit_cgg_2001214.csv",
        "P_IMG_CGS": "unit_idle_cgs_2001214.csv,unit_move_cgs_2001214.csv,unit_atk_cgs_2001214.csv,unit_atk_cgs_2001214.csv,unit_win_before_cgs_2001214.csv,unit_win_cgs_2001214.csv",
        "P_HEAD_IMG_POS": "610,293,120",
        "P_FOOT_IMG_POS": "0,0,100",
        "P_HP_DISP_POS": "0,0",
        "P_CAUTION_TYPE": "0,0",
        "P_NEED_SWITCH_INFO": "31000001"
    }
]