[
    {
        "P_XBB_ID": "200014",
        "P_EXPLAIN_SHORT": "\u53d7\u3051\u7d99\u304c\u308c\u308b\u708e\u306e\u7ffc\u304c\u6575\u3092\u713c\u304d\u5c3d\u3059\u79d8\u6280\u3002\n\u518d\u6226\u3092\u671b\u307f\u306a\u304c\u3089\u3082\u53f6\u3046\u3053\u3068\u306e\u306a\u304b\u3063\u305f\u30e9\u30f4\u30a1\u306e\u60f3\u3044\u306f\u3001\u6226\u5834\u3092\u99c6\u3051\u308b\u30f4\u30a1\u30eb\u30ac\u30b9\u306b\u65b0\u305f\u306a\u529b\u3068\u3057\u3066\u5c4a\u3051\u3089\u308c\u305f\u3002\u706b\u306e\u7c89\u304c\u821e\u3044\u6563\u308a\u3001\u71b1\u98a8\u304c\u5927\u6c17\u3092\u9707\u308f\u305b\u3001\u52dd\u5229\u306e\u706f\u706b\u304c\u5f7c\u3089\u306e\u9053\u3092\u7167\u3089\u3059\u6642\u3001\u56fa\u304f\u7d50\u3070\u308c\u305f\u5263\u306e\u7d46\u304c\uff12\u4eba\u306e\u9b42\u3092\u71c3\u3048\u4e0a\u304c\u3089\u305b\u308b\u3002\u6700\u521d\u3067\u6700\u5f8c\u306e\u5171\u95d8\u3001\u714c\u304f\u7d05\u7114\u304c\u795e\u3092\u3082\u7070\u71fc\u3068\u5316\u3059\u3002",
        "P_EXTRA_TEXT": "14:\u6575\u5168\u4f53\u306b\u708e\u5c5e\u6027\u5408\u8a0817\u9023\u306e\u5408\u8a08360%\u30c0\u30e1\u30fc\u30b8,\n4:\u6575\u5168\u4f53\u309280%\u306e\u78ba\u7387\u30672\u30bf\u30fc\u30f3\u3001\u708e\u50b7\u72b6\u614b\u306b\u3059\u308b,\n1:\u5473\u65b9\u5168\u4f53\u306b3\u30bf\u30fc\u30f3\u3001\u653b\u6483\u529b\u309230%\u30a2\u30c3\u30d7",
        "P_CREATEDATE": "2018-02-17 21:28:46",
        "P_UPDATEDATE": "2018-02-17 21:28:46"
    },
    {
        "P_XBB_ID": "200024",
        "P_EXPLAIN_SHORT": "\u30f4\u30a7\u30fc\u30c0\u5263\u8853\u5965\u7fa9\u306e\uff11\u3064\u3002\n\u9a0e\u58eb\u56e3\u9577\u30a6\u30a3\u30eb\u3068\u201c\u8056\u5263\u201d\u30a2\u30c8\u30ed\u3002\u7acb\u5834\u306f\u9055\u3048\u3069\u3001\u795e\u8ecd\u306e\u9032\u653b\u3092\u98df\u3044\u6b62\u3081\u308b\u3053\u3068\u306b\u547d\u3092\u8ced\u3057\u305f\u3002\u305d\u3093\u306a\uff12\u4eba\u304c\u4e92\u3044\u306e\u5263\u6280\u3092\u5408\u308f\u305b\u305f\u6642\u3001\u60f3\u3044\u306f\u529b\u3068\u306a\u308b\u3002\u30f4\u30a7\u30fc\u30c0\u5263\u8853\u306e\u767a\u7965\u3088\u308a\u9023\u7dbf\u3068\u53d7\u3051\u7d99\u304c\u308c\u308b\u201c\u5263\u306f\u4eba\u3092\u8b77\u308b\u305f\u3081\u306e\u3082\u306e\u201d\u3068\u3044\u3046\u512a\u3057\u304f\u3082\u5f37\u304d\u60f3\u3044\u304c\u3002",
        "P_EXTRA_TEXT": "14:\u6575\u4e00\u5217\u306b\u5149\u5c5e\u6027\u5408\u8a0816\u9023\u306e400%\u30c0\u30e1\u30fc\u30b8,\n1:\u5473\u65b9\u5168\u4f53\u306b3\u30bf\u30fc\u30f3\u3001\u9632\u5fa1\u529b\u309230%\u30a2\u30c3\u30d7,\n7:\u5473\u65b9\u5168\u4f53\u306b3\u30bf\u30fc\u30f3\u3001\u30bf\u30fc\u30f3\u6bce\u306bHP\u3092800~1000\u56de\u5fa9",
        "P_CREATEDATE": "2018-02-17 21:28:46",
        "P_UPDATEDATE": "2018-02-17 21:28:46"
    },
    {
        "P_XBB_ID": "200034",
        "P_EXPLAIN_SHORT": "\u5c11\u5973\u306f\u5927\u938c\u3092\u632f\u308b\u3046\u3002\u8ab0\u304b\u3092\u5b88\u308b\u305f\u3081\u3067\u3082\u3001\u81ea\u5206\u3092\u5b88\u308b\u305f\n\u3081\u3067\u3082\u306a\u304f\u3001\u305f\u3060\u5168\u3066\u3092\u7834\u58ca\u3059\u308b\u305f\u3081\u306b\u3002\u305d\u306e\u5207\u3063\u5148\u306b\u8ff7\n\u3044\u306f\u306a\u3044\u3002\u5e7e\u5ea6\u3082\u7e70\u308a\u8fd4\u3057\u3001\u6d88\u3048\u308b\u3053\u3068\u306e\u306a\u3044\u3001\u885d\u52d5\u3002\u5c11\n\u5973\u306e\u59c9\u306f\u3001\u59b9\u306e\u5f71\u3092\u8ffd\u3044\u7d9a\u3051\u308b\u3002\u305d\u306e\u624b\u3067\u89e6\u308c\u308b\u3053\u3068\u306f\u4e8c\n\u5ea6\u3068\u3067\u304d\u306a\u3044\u3068\u77e5\u308a\u306a\u304c\u3089\u3001\u305f\u3063\u305f\uff11\u3064\u306e\u9858\u3044\u3092\u5b88\u308b\u305f\u3081\n\u306b\u3002\u81ea\u8eab\u306e\u5168\u3066\u3092\u5f15\u304d\u63db\u3048\u306b\u3057\u305f\u59c9\u306f\u3001\u6700\u611b\u306e\u59b9\u3068\u518d\u3073\u5de1\n\u308a\u5408\u3046\u3002\u6975\u5f69\u8272\u306e\u8776\u304c\u821e\u3046\u3001\u7f8e\u3057\u3044\u5922\u306e\u4e2d\u3067\u3002",
        "P_EXTRA_TEXT": "14:\u6575\u5168\u4f53\u306b\u95c7\u5c5e\u6027\u5408\u8a0824\u9023\u306e340%\u30c0\u30e1\u30fc\u30b8,\n4:\u6575\u5168\u4f53\u309250%\u306e\u78ba\u7387\u30671\u30bf\u30fc\u30f3\u3001\u9b45\u4e86\u72b6\u614b\u306b\u3059\u308b,\n11:\u5473\u65b9\u5168\u4f53\u306b3\u30bf\u30fc\u30f3\u3001\u30b9\u30d1\u30fc\u30af\u30c0\u30e1\u30fc\u30b8\u309230%\u30a2\u30c3\u30d7",
        "P_CREATEDATE": "2018-02-17 21:28:46",
        "P_UPDATEDATE": "2018-02-17 21:28:46"
    },
    {
        "P_XBB_ID": "200044",
        "P_EXPLAIN_SHORT": "\u5bbf\u6575\u3067\u3042\u308b\uff12\u4eba\u304c\u305f\u3063\u305f\uff11\u5ea6\u5171\u95d8\u3057\u305f\u6642\u306b\u653e\u3063\u305f\u6280\u3002\n\u795e\u3005\u3068\u76f8\u5bfe\u3057\u3066\u3044\u308b\u6642\u3067\u3055\u3048\u3082\u3001\u5f7c\u5973\u305f\u3061\u306f\u5e38\u306b\u76f8\u624b\u306e\u5589\n\u5143\u3092\u63bb\u304d\u5207\u3089\u3093\u3068\u5203\u3092\u5149\u3089\u305b\u3066\u3044\u305f\u3002\u307e\u308b\u3067\u6575\u3054\u3068\u4e92\u3044\u3092\n\u6d88\u3057\u53bb\u308b\u304b\u306e\u3088\u3046\u306a\uff12\u4eba\u306e\u6280\u306f\u3001\u795e\u3005\u3092\u3082\u51cc\u99d5\u3057\u305f\u3002\u3053\u306e\n\u6642\u3001\u5f7c\u5973\u305f\u3061\u306f\u3053\u306e\u76f8\u624b\u3053\u305d\u304c\u5df1\u306e\u6b32\u671b\u3092\u6e80\u305f\u3057\u3066\u304f\u308c\u308b\n\u552f\u4e00\u306e\u5b58\u5728\u3067\u3042\u308b\u3068\u78ba\u4fe1\u3057\u305f\u306e\u3060\u308d\u3046\u3002",
        "P_EXTRA_TEXT": "14:\u6575\u5168\u4f53\u306b\u5149\u30fb\u95c7\u5c5e\u6027\u5408\u8a0824\u9023\u306e380%\u30c0\u30e1\u30fc\u30b8,\n11:\u5473\u65b9\u5168\u4f53\u306b3\u30bf\u30fc\u30f3\u3001\u30b9\u30d1\u30fc\u30af\u30c0\u30e1\u30fc\u30b8\u309230%\u30a2\u30c3\u30d7,\n13:\u5473\u65b9\u5168\u4f53\u306b3\u30bf\u30fc\u30f3\u3001\u653b\u6483BB\u306e\u5a01\u529b\u309230%\u30a2\u30c3\u30d7",
        "P_CREATEDATE": "2018-02-17 21:28:46",
        "P_UPDATEDATE": "2018-02-17 21:28:46"
    },
    {
        "P_XBB_ID": "200054",
        "P_EXPLAIN_SHORT": "\u30df\u30bb\u30eb\u3068\uff24\uff35\uff25\uff2c\uff0d\uff27\uff38\u3002\u7d05\u304d\u53cc\u65a7\u9063\u3044\u3068\u7d2b\u7d3a\u306e\u6a5f\u68b0\u4eba\u5f62\u304c\u51fa\u4f1a\u3046\u3068\u304d\u3001\u305d\u3053\u306b\u306f\u6df1\u7d05\u306e\u4e00\u9583\u304c\u8d70\u308b\u3002\u606f\u3082\u3064\u304b\u305b\u306c\u9023\u643a\u653b\u6483\u306f\u6575\u306e\u5224\u65ad\u3092\u63bb\u304d\u4e71\u3057\u3001\u53cc\u65a7\u306e\u4ea4\u932f\u304c\u305d\u306e\u8eab\u4f53\u3092\u6253\u3061\u7815\u304f\u3002\uff12\u4eba\u306f\u3072\u3068\u3064\u3068\u306a\u3063\u3066\u5954\u308b\u3002\u3069\u3053\u307e\u3067\u3082\u3002\u304d\u3063\u3068\u3001\u7570\u4e16\u754c\u306e\u679c\u3066\u307e\u3067\u3082\u3002",
        "P_EXTRA_TEXT": "14:\u6575\u5358\u4f53\u306b\u708e\u30fb\u95c7\u5c5e\u6027\u5408\u8a0827\u9023\u306e530%\u30c0\u30e1\u30fc\u30b8,\n4:\u6575\u5358\u4f53\u309270%\u306e\u78ba\u7387\u30671\u30bf\u30fc\u30f3\u3001\u6df7\u4e71\u72b6\u614b\u306b\u3059\u308b,\n2:\u5473\u65b9\u5168\u4f53\u306b3\u30bf\u30fc\u30f3\u3001\u30af\u30ea\u30c6\u30a3\u30ab\u30eb\u30c0\u30e1\u30fc\u30b8\u309230%\u30a2\u30c3\u30d7,\n2:\u5473\u65b9\u5168\u4f53\u306b3\u30bf\u30fc\u30f3\u3001\u30af\u30ea\u30c6\u30a3\u30ab\u30eb\u7387\u309212%\u30a2\u30c3\u30d7",
        "P_CREATEDATE": "2018-02-17 21:28:46",
        "P_UPDATEDATE": "2018-02-17 21:28:46"
    },
    {
        "P_XBB_ID": "200064",
        "P_EXPLAIN_SHORT": "\u30d5\u30a1\u30eb\u30de\u3068\u30b0\u30e9\u30c3\u30d5\u30eb\u306e\u898b\u4e8b\u306a\u9023\u643a\u6280\u3002\n\u606f\u306e\u5408\u3063\u305f\u52d5\u304d\u3067\u6575\u3092\u7ffb\u5f04\u3059\u308b\u5f7c\u3089\u306f\u3001\u304a\u4e92\u3044\u306e\u601d\u8003\u3092\u5b8c\n\u5168\u306b\u7406\u89e3\u3057\u3066\u3044\u308b\u306e\u3067\u306f\u306a\u3044\u304b\u3068\u3059\u3089\u601d\u308f\u305b\u308b\u3002\u89aa\u53cb\u3068\u306f\n\u81ea\u5206\u3088\u308a\u81ea\u5206\u3092\u8b58\u308b\u8005\u3067\u3042\u308b\u3002\u307e\u3055\u306b\u305d\u306e\u8a00\u8449\u3092\u4f53\u73fe\u3059\u308b\n\u304b\u306e\u3088\u3046\u306a\uff12\u4eba\u306e\u3001\u76f8\u624b\u3092\u4fe1\u983c\u3057\u3066\u3053\u305d\u6210\u305b\u308b\u696d\u3002",
        "P_EXTRA_TEXT": "14:\u6575\u5358\u4f53\u306b\u96f7\u5c5e\u6027\u5408\u8a0822\u9023\u306e510%\u30c0\u30e1\u30fc\u30b8,\n4:\u6575\u5358\u4f53\u309280%\u306e\u78ba\u7387\u30671\u30bf\u30fc\u30f3\u3001\u9ebb\u75fa\u72b6\u614b\u306b\u3059\u308b,\n3:\u5473\u65b9\u5168\u4f53\u306b3\u30bf\u30fc\u30f3\u3001BC\u51fa\u73fe\u7387\u309230%\u30a2\u30c3\u30d7",
        "P_CREATEDATE": "2018-02-17 21:28:46",
        "P_UPDATEDATE": "2018-02-17 21:28:46"
    },
    {
        "P_XBB_ID": "200074",
        "P_EXPLAIN_SHORT": "\u5b58\u5728\u3059\u308b\u3060\u3051\u3067\u5468\u56f2\u306e\u751f\u7269\u3092\u7652\u3059\u529b\u304c\u3042\u308b\u30a8\u30eb\u30c8\u30ea\u30aa\u30f3\u3002\n\u305d\u306e\u52b9\u679c\u306f\u30e9\u30f3\u30bb\u30eb\u306e\u611b\u69cd\u3001\u30c9\u30ec\u30f4\u30a1\u30b9\u306e\u9b54\u529b\u304c\u89e3\u653e\u3055\u308c\n\u308b\u6642\u306b\u3055\u3089\u306a\u308b\u7652\u3057\u306e\u529b\u3092\u767a\u63ee\u3059\u308b\u3002\u30a8\u30eb\u30c8\u30ea\u30aa\u30f3\u306b\u6ce8\u304c\n\u308c\u305f\u529b\u306f\u4e16\u754c\u3092\u5de1\u308a\u3001\u518d\u3073\u30c9\u30ec\u30f4\u30a1\u30b9\u3078\u3068\u5e30\u3063\u3066\u3044\u304f\u3002\u305d\n\u306e\u5f8c\u3001\u30c9\u30ec\u30f4\u30a1\u30b9\u3092\u901a\u3057\u3066\u30e9\u30f3\u30bb\u30eb\u306b\u3082\u6226\u3046\u305f\u3081\u306e\u529b\u304c\u6388\n\u3051\u3089\u308c\u308b\u306e\u3067\u3042\u308b\u3002",
        "P_EXTRA_TEXT": "7:\u5473\u65b9\u5168\u4f53\u306eHP\u30922600~2800\u56de\u5fa9,\n7:\u5473\u65b9\u5168\u4f53\u306e\u6bd2\u3001\u602a\u6211\u3001\u5f31\u4f53\u3001\u96d1\u5ff5\u3001\u865a\u8131\u3001\u75c5\u6c17\u3001\u9ebb\u75fa\u3001\u546a\u3044\u3092\u56de\u5fa9",
        "P_CREATEDATE": "2018-02-17 21:28:46",
        "P_UPDATEDATE": "2018-02-17 21:28:46"
    },
    {
        "P_XBB_ID": "200084",
        "P_EXPLAIN_SHORT": "\u771f\u306e\u53cb\u60c5\u3068\u306f\u3001\u304a\u4e92\u3044\u306e\u59ff\u3001\u7acb\u5834\u3001\u529b\u3001\u305d\u308c\u3089\u306e\u4f55\u3082\u304b\u3082\u304c\u5909\u308f\u308a\u679c\u3066\u3066\u3082\u6c7a\u3057\u3066\u5909\u308f\u3089\u306a\u3044\u3082\u306e\u3060\u3068\u3044\u3046\u3002\u306a\u3089\u3070\u5f7c\u5973\u305f\u3061\u306e\u95a2\u4fc2\u3092\u3053\u305d\u3001\u307e\u3055\u306b\u53cb\u60c5\u3068\u547c\u3076\u306e\u3060\u308d\u3046\u3002\u508d\u304b\u3089\u3069\u3046\u898b\u3048\u308b\u304b\u3002\u3069\u3046\u601d\u308f\u308c\u308b\u304b\u3082\u95a2\u4fc2\u306a\u3044\u3002\u305d\u308c\u306f\u3001\u6c34\u306e\u3088\u3046\u306b\u6d41\u8ee2\u3059\u308b\u4e16\u754c\u306e\u4e2d\u3001\u201c\u6c37\u306e\u3088\u3046\u306b\u201d\u56fa\u304f\u7e4b\u304c\u308c\u305f\u3082\u306e\u306a\u306e\u3060\u304b\u3089\u3002",
        "P_EXTRA_TEXT": "14:\u6575\u4e00\u5217\u306b\u6c34\u5c5e\u6027\u5408\u8a0824\u9023\u306e380%\u30c0\u30e1\u30fc\u30b8,\n4:\u6575\u4e00\u5217\u309280%\u306e\u78ba\u7387\u30673\u30bf\u30fc\u30f3\u3001\u51cd\u50b7\u72b6\u614b\u306b\u3059\u308b,\n7:\u5473\u65b9\u5168\u4f53\u306b3\u30bf\u30fc\u30f3\u3001\u30bf\u30fc\u30f3\u6bce\u306bHP\u3092800~1000\u56de\u5fa9,\n13:\u5473\u65b9\u5168\u4f53\u306b3\u30bf\u30fc\u30f3\u3001\u901a\u5e38\u653b\u6483\u306eHIT\u6570\u30921\u5897\u52a0",
        "P_CREATEDATE": "2018-02-17 21:28:46",
        "P_UPDATEDATE": "2018-02-17 21:28:46"
    },
    {
        "P_XBB_ID": "200094",
        "P_EXPLAIN_SHORT": "\u6b66\u306b\u62e0\u3063\u3066\u751f\u304d\u305f\uff12\u4eba\u306e\u51fa\u4f1a\u3044\u306f\u5fc5\u7136\u3060\u3063\u305f\u3002\u6226\u5834\u3092\u6e21\u308b\u96f7\u96f2\u3068\u6226\u5834\u3092\u8cab\u304f\u96f7\u8fc5\u304c\u51fa\u4f1a\u3046\u3068\u304d\u3001\u305f\u3060\u8352\u308c\u72c2\u3046\u3070\u304b\u308a\u306e\u7a32\u59bb\u306f\u8ff8\u308b\u3079\u304d\u884c\u304d\u5148\u3092\u898b\u51fa\u3057\u3001\u6226\u5834\u306b\u306f\u6709\u8c61\u7121\u8c61\u3092\u5207\u308a\u88c2\u304f\u96f7\u9cf4\u304c\u97ff\u304d\u6e21\u308b\u3002\u9060\u304b\u3089\u3093\u3082\u306e\u306f\u97f3\u306b\u805e\u3051\u3001\u8fd1\u304f\u3070\u5bc4\u3063\u3066\u76ee\u306b\u3082\u898b\u3088\u3002\u6211\u3089\u6226\u5834\u306b\u8f5f\u304f\u53cc\u96f7\u306a\u308a\u3002",
        "P_EXTRA_TEXT": "14:\u6575\u5168\u4f53\u306b\u96f7\u5c5e\u6027\u5408\u8a0820\u9023\u306e350%\u30c0\u30e1\u30fc\u30b8,\n4:\u6575\u5168\u4f53\u309260%\u306e\u78ba\u7387\u30671\u30bf\u30fc\u30f3\u3001\u9ebb\u75fa\u72b6\u614b\u306b\u3059\u308b,\n4:\u6575\u5168\u4f53\u309280%\u306e\u78ba\u7387\u30672\u30bf\u30fc\u30f3\u3001\u611f\u96fb\u72b6\u614b\u306b\u3059\u308b,\n11:\u5473\u65b9\u5168\u4f53\u306b3\u30bf\u30fc\u30f3\u3001\u30b9\u30d1\u30fc\u30af\u30c0\u30e1\u30fc\u30b8\u309230%\u30a2\u30c3\u30d7",
        "P_CREATEDATE": "2018-02-17 21:28:46",
        "P_UPDATEDATE": "2018-02-17 21:28:46"
    },
    {
        "P_XBB_ID": "200104",
        "P_EXPLAIN_SHORT": "\u76df\u53cb\u305f\u308b\uff12\u4eba\u306e\u9a0e\u58eb\u306b\u3088\u308b\u4e0d\u53ef\u907f\u306e\u523a\u7a81\u3002\n\u30de\u30b0\u30eb\u30b9\u3068\u30cf\u30fc\u30f4\u30a7\u30eb\u3002\u4e00\u5ea6\u306f\u5203\u3092\u4ea4\u3048\u305f\uff12\u4eba\u3060\u304c\u3001\u305d\u306e\u5263\u621f\u306b\u306f\u865a\u507d\u3082\u60aa\u610f\u3082\u5b58\u5728\u3059\u308b\u4f59\u5730\u306f\u7121\u3044\u3002\u809d\u80c6\u76f8\u7167\u3089\u3057\u305f\uff12\u4eba\u306f\u3001\u3084\u304c\u3066\u305d\u306e\u77db\u5148\u3092\u5012\u3059\u3079\u304d\u6575\u3078\u3068\u5411\u3051\u308b\u3002\u9ed2\u9244\u3092\u8eab\u306b\u307e\u3068\u3044\u3057\u5049\u4e08\u592b\u305f\u3061\u306f\u4e92\u3044\u306e\u4fe1\u983c\u3092\u92fc\u306b\u4e57\u305b\u3066\u524d\u3078\u3068\u9032\u3080\u3002\u5168\u8eab\u5168\u970a\u3092\u4ee5\u3063\u3066\u795e\u3092\u8cab\u3044\u305f\u305d\u306e\u4e00\u6483\u306f\u3001\u7149\u7344\u306e\u679c\u3066\u306b\u305d\u306e\u672a\u6765\u3092\u5207\u308a\u958b\u304f\u3060\u308d\u3046\u3002",
        "P_EXTRA_TEXT": "14:\u6575\u5358\u4f53\u306b\u95c7\u5c5e\u6027\u5408\u8a0818\u9023\u306e510%\u30c0\u30e1\u30fc\u30b8,\n4:\u6575\u5358\u4f53\u309280%\u306e\u78ba\u7387\u30672\u30bf\u30fc\u30f3\u3001\u5f31\u4f53\u30fb\u96d1\u5ff5\u72b6\u614b\u306b\u3059\u308b,\n1:\u5473\u65b9\u5168\u4f53\u306b3\u30bf\u30fc\u30f3\u3001\u9632\u5fa1\u529b\u309230%\u30a2\u30c3\u30d7,\n1:3\u30bf\u30fc\u30f3\u3001\u95c7\u5c5e\u6027\u306e\u653b\u6483\u529b\u30fb\u9632\u5fa1\u529b\u309225%\u30a2\u30c3\u30d7",
        "P_CREATEDATE": "2018-02-17 21:28:46",
        "P_UPDATEDATE": "2018-02-17 21:28:46"
    },
    {
        "P_XBB_ID": "200114",
        "P_EXPLAIN_SHORT": "\uff11\u4eba\u3067\u306f\u3067\u304d\u306a\u3044\u3053\u3068\u3002\uff12\u4eba\u306a\u3089\u3067\u304d\u308b\u3053\u3068\u3002\uff12\u4eba\u306f\u77e5\u3063\u3066\u3044\u308b\u3002\u4eca\u81ea\u5206\u305f\u3061\u304c\u3053\u3053\u306b\u3044\u308b\u3053\u3068\u3060\u3063\u3066\u3001\u4e21\u89aa\u3084\u304a\u3058\u3044\u3061\u3083\u3093\u3001\u4f1a\u3063\u305f\u3053\u3068\u3082\u306a\u3044\u304a\u3070\u3042\u3061\u3083\u3093\u304c\u3044\u305f\u304b\u3089\u3060\u3068\u3044\u3046\u3053\u3068\u3092\u3002\u5168\u3066\u306f\u6c7a\u3057\u3066\uff11\u4eba\u3067\u306f\u306a\u3057\u3048\u306a\u304b\u3063\u305f\u3068\u3044\u3046\u3053\u3068\u3092\u3002\u9023\u306a\u308b\u52c7\u6c17\u306e\u8840\u7d71\u306f\u3001\u4eca\u3001\uff12\u4eba\u306e\u9593\u306b\u606f\u3065\u3044\u3066\u3044\u308b\u3002",
        "P_EXTRA_TEXT": "14:\u6575\u4e00\u5217\u306b\u5149\u30fb\u95c7\u5c5e\u6027\u5408\u8a0821\u9023\u306e360%\u30c0\u30e1\u30fc\u30b8,\n4:\u6575\u4e00\u5217\u309270%\u306e\u78ba\u7387\u30672\u30bf\u30fc\u30f3\u3001\u602a\u6211\u30fb\u865a\u8131\u72b6\u614b\u306b\u3059\u308b,\n2:\u5473\u65b9\u5168\u4f53\u306b3\u30bf\u30fc\u30f3\u3001\u30af\u30ea\u30c6\u30a3\u30ab\u30eb\u30c0\u30e1\u30fc\u30b8\u309230%\u30a2\u30c3\u30d7",
        "P_CREATEDATE": "2018-02-17 21:28:46",
        "P_UPDATEDATE": "2018-02-17 21:28:46"
    },
    {
        "P_XBB_ID": "200124",
        "P_EXPLAIN_SHORT": "\u8cde\u91d1\u9996\u3068\u8cde\u91d1\u7a3c\u304e\u3067\u3042\u308b\uff12\u4eba\u306f\u3001\u8ffd\u3046\u8005\u3068\u8ffd\u308f\u308c\u308b\u8005\u3068\u3057\n\u3066\u6575\u5bfe\u3059\u308b\u95a2\u4fc2\u306b\u3042\u3063\u305f\u3002\u3060\u304c\u3001\u5f7c\u3089\u306e\u524d\u306b\u65b0\u305f\u306a\u6575\u304c\u73fe\n\u308c\u305f\u6642\u3001\uff12\u4eba\u306f\u83ef\u9e97\u306a\u9023\u643a\u3092\u898b\u305b\u308b\u3002\u30ec\u30df\u30aa\u304c\u30bc\u30eb\u30ca\u30a4\u30c8\n\u306b\u5411\u3051\u3066\u6483\u3063\u305f\u5f3e\u306f\u4e00\u3064\u6b8b\u3089\u305a\u6575\u306b\u547d\u4e2d\u3057\u3001\u30ec\u30df\u30aa\u304c\u30bc\u30eb\n\u30ca\u30a4\u30c8\u306b\u4ed5\u639b\u3051\u305f\u7f60\u306f\u3053\u3068\u3054\u3068\u304f\u6575\u3092\u8972\u3063\u305f\u3002\u2026\u305f\u3060\u306e\u5076\n\u7136\u3058\u3083\u306a\u3044\u304b\u3063\u3066\uff1f\u3044\u3084\u3044\u3084\u3001\u3053\u308c\u306f\u7d1b\u3046\u3053\u3068\u306a\u304d\uff12\u4eba\u306e\u9023\u643a\u6280\u3055\u3002",
        "P_EXTRA_TEXT": "14:\u6575\u5168\u4f53\u306b\u6a39\u30fb\u96f7\u5c5e\u6027\u5408\u8a0825\u9023\u306e340%\u30c0\u30e1\u30fc\u30b8,\n3:\u5473\u65b9\u5168\u4f53\u306b3\u30bf\u30fc\u30f3\u3001BC\u30fbHC\u51fa\u73fe\u7387\u309225%\u30a2\u30c3\u30d7,\n3:\u5473\u65b9\u5168\u4f53\u306b3\u30bf\u30fc\u30f3\u3001\u30a2\u30a4\u30c6\u30e0\u51fa\u73fe\u7387\u30923%\u30a2\u30c3\u30d7",
        "P_CREATEDATE": "2018-02-17 21:28:46",
        "P_UPDATEDATE": "2018-02-17 21:28:46"
    },
    {
        "P_XBB_ID": "200134",
        "P_EXPLAIN_SHORT": "\u5929\u624d\u3068\u547c\u3070\u308c\u305f\uff12\u4eba\u304c\u5473\u65b9\u8ecd\u306e\u7aae\u5730\u3092\u6551\u3063\u305f\u9b54\u8853\u3002\n\u4e00\u822c\u7684\u306b\u306f\u300c\u5076\u7136\u6575\u8ecd\u3092\u8972\u3063\u305f\u81ea\u7136\u707d\u5bb3\u300d\u3068\u8a8d\u8b58\u3055\u308c\u3066\u3044\n\u308b\u304c\u3001\u5b9f\u306f\u79d8\u5bc6\u88cf\u306b\u30ad\u30eb\u30d5\u30a1\u304c\u4ed5\u639b\u3051\u305f\u3082\u306e\u3002\u5e38\u4eba\u3067\u306f\u767a\n\u52d5\u3055\u305b\u308b\u3053\u3068\u306f\u304a\u308d\u304b\u6c17\u4ed8\u304f\u3053\u3068\u3082\u3067\u304d\u306a\u3044\u307b\u3069\u5de7\u5999\u306a\u9b54\n\u8853\u3060\u304c\u3001\u3082\u3046\uff11\u4eba\u306e\u5929\u624d\u3001\u30f4\u30a1\u30a4\u30b9\u3060\u3051\u306f\u767a\u52d5\u3055\u305b\u308b\u3053\u3068\n\u304c\u3067\u304d\u305f\u3002\u6575\u3060\u3051\u3067\u306a\u304f\u5473\u65b9\u3092\u3082\u6b3a\u304d\u52dd\u5229\u3092\u3082\u305f\u3089\u3059\u3002\uff12\n\u4eba\u306b\u3057\u304b\u3067\u304d\u306a\u3044\u3001\u307e\u3055\u306b\u5929\u624d\u306e\u5fa1\u696d\u3067\u3042\u308b\u3002",
        "P_EXTRA_TEXT": "1:\u5473\u65b9\u5168\u4f53\u306b3\u30bf\u30fc\u30f3\u3001\u653b\u6483\u529b\u309230%\u30a2\u30c3\u30d7,\n6:\u5473\u65b9\u5168\u4f53\u306b3\u30bf\u30fc\u30f3\u3001\u30bf\u30fc\u30f3\u6bce\u306bBB\u30b2\u30fc\u30b8\u3092400\u5897\u52a0,\n11:\u5473\u65b9\u5168\u4f53\u306b3\u30bf\u30fc\u30f3\u3001\u30b9\u30d1\u30fc\u30af\u30c0\u30e1\u30fc\u30b8\u309225%\u30a2\u30c3\u30d7",
        "P_CREATEDATE": "2018-02-17 21:28:46",
        "P_UPDATEDATE": "2018-02-17 21:28:46"
    },
    {
        "P_XBB_ID": "200144",
        "P_EXPLAIN_SHORT": "\u30b5\u30fc\u30de\u738b\u56fd\u306e\u731b\u5c06\u3068\u5360\u661f\u8853\u5e2b\u3002\u8077\u696d\u3082\u6027\u683c\u3082\u9055\u3046\uff12\u4eba\u306f\u306a\n\u305c\u3053\u3093\u306a\u306b\u3082\u60f9\u304b\u308c\u5408\u3063\u305f\u306e\u3060\u308d\u3046\u304b\u3002\u305d\u308c\u306f\u3001\u3044\u3064\u3057\u304b\n\u4e92\u3044\u306b\u3068\u3063\u3066\u300c\u81ea\u8eab\u3092\u9ad8\u307f\u3078\u3068\u6607\u83ef\u3055\u305b\u3066\u304f\u308c\u308b\u5b58\u5728\u300d\u304b\n\u3089\u300c\u547d\u3092\u61f8\u3051\u3066\u5b88\u308a\u305f\u3044\u304b\u3051\u304c\u3048\u306e\u306a\u3044\u5b58\u5728\u300d\u3078\u3068\u5909\u308f\u3063\n\u3066\u3044\u3063\u305f\u304b\u3089\u3067\u3042\u308d\u3046\u3002\u611b\u3059\u308b\u8005\u3092\u81ea\u5206\u306e\u624b\u3067\u5b88\u308a\u305f\u3044\u3001\n\u305d\u3093\u306a\uff12\u4eba\u306e\u6c17\u6301\u3061\u304c\u91cd\u306a\u3063\u305f\u6642\u3001\u8fba\u308a\u306f\u611b\u306e\u6ce2\u52d5\u306b\u5305\u307e\n\u308c\u308b\u3002",
        "P_EXTRA_TEXT": "1:\u5473\u65b9\u5168\u4f53\u306b3\u30bf\u30fc\u30f3\u3001\u9632\u5fa1\u529b\u30fb\u9b54\u9632\u529b\u309225%\u30a2\u30c3\u30d7,\n5:\u5473\u65b9\u5168\u4f53\u306b3\u30bf\u30fc\u30f3\u3001\u6bd2\u30fb\u602a\u6211\u30fb\u5f31\u4f53\u30fb\u96d1\u5ff5\u30fb\u865a\u8131\u30fb\u75c5\u6c17\u30fb\u9ebb\u75fa\u30fb\u546a\u3044\u3092\u7121\u52b9",
        "P_CREATEDATE": "2018-02-17 21:28:46",
        "P_UPDATEDATE": "2018-02-17 21:28:46"
    },
    {
        "P_XBB_ID": "200154",
        "P_EXPLAIN_SHORT": "\u30a8\u30ea\u30e2\u3068\u30af\u30ea\u30e0\u304c\u795e\u306e\u77e5\u8b58\u3092\u7528\u3044\u3001\u97ff\u304b\u305b\u305f\u8056\u306a\u308b\u6ce2\u52d5\u3002\n\u672c\u306b\u66f8\u304b\u308c\u305f\u795e\u3005\u306e\u77e5\u8b58\u3067\u4eba\u3005\u3092\u6551\u304a\u3046\u3068\u3057\u305f\u30a8\u30ea\u30e2\u3068\u30af\n\u30ea\u30e0\u3002\u3057\u304b\u3057\u3001\u305d\u306e\u77e5\u8b58\u3068\u306f\u4e00\u4f53\u3069\u306e\u3088\u3046\u306a\u5185\u5bb9\u3060\u3063\u305f\u306e\n\u3060\u308d\u3046\u304b\u3002\u7279\u6b8a\u306a\u6587\u5b57\u3067\u66f8\u304b\u308c\u3066\u3044\u308b\u305f\u3081\u3001\u73fe\u5728\u3067\u3082\u7ffb\u8a33\n\u5bb6\u306b\u3088\u3063\u3066\u89e3\u91c8\u306f\u7570\u306a\u308b\u304c\u3001\u660e\u3089\u304b\u306a\u306e\u306f\u30a8\u30ea\u30e2\u305f\u3061\u304c\u305d\n\u306e\u77e5\u8b58\u3092\u81ea\u7531\u306b\u4f7f\u3044\u3053\u306a\u3057\u3066\u3044\u305f\u3053\u3068\u3060\u308d\u3046\u3002\u795e\u3005\u306e\u77e5\u8b58\n\u3092\u591a\u89d2\u7684\u306a\u8996\u70b9\u3067\u7406\u89e3\u3067\u304d\u305f\u5f7c\u5973\u305f\u3061\u3060\u304b\u3089\u3053\u305d\u3001\u3053\u306e\u5947\n\u8de1\u3092\u6210\u3057\u5f97\u305f\u306e\u304b\u3082\u3057\u308c\u306a\u3044\u3002",
        "P_EXTRA_TEXT": "7:\u5473\u65b9\u5168\u4f53\u306b3\u30bf\u30fc\u30f3\u3001\u30bf\u30fc\u30f3\u6bce\u306bHP\u3092700~900\u56de\u5fa9,\n7:\u5473\u65b9\u5168\u4f53\u306e\u6bd2\u3001\u602a\u6211\u3001\u5f31\u4f53\u3001\u96d1\u5ff5\u3001\u865a\u8131\u3001\u75c5\u6c17\u3001\u9ebb\u75fa\u3001\u546a\u3044\u3092\u56de\u5fa9",
        "P_CREATEDATE": "2018-02-17 21:28:46",
        "P_UPDATEDATE": "2018-02-17 21:28:46"
    },
    {
        "P_XBB_ID": "200164",
        "P_EXPLAIN_SHORT": "\u30d5\u30a3\u30eb\u30a2\u30fc\u30e0\u9a0e\u58eb\u56e3\u306b\u6240\u5c5e\u3059\u308b\u30a2\u30fc\u30ac\u30b9\u3068\u30ed\u30fc\u30ea\u304c\u3001\u5f37\u5927\u306a\u6575\u3078\u653e\u3063\u305f\u5927\u6280\u3002\n\u8b0e\u306e\u8ecd\u52e2\u306b\u8972\u308f\u308c\u305f\u6545\u90f7\u3092\u5b88\u308b\u305f\u3081\u3001\uff12\u4eba\u306f\u6b7b\u529b\u3092\u5c3d\u304f\u3057\n\u3066\u6226\u3063\u305f\u3002\u7d76\u4f53\u7d76\u547d\u306e\u5c40\u9762\u3001\u6700\u5f8c\u306e\u529b\u3092\u632f\u308a\u7d5e\u3063\u3066\u7e70\u308a\u51fa\n\u3055\u308c\u305f\u3053\u306e\u6280\u306f\u3001\u60f3\u50cf\u4ee5\u4e0a\u306e\u529b\u3092\u767a\u63ee\u3059\u308b\u3002\u305d\u308c\u306f\u304a\u4e92\u3044\n\u306b\u652f\u3048\u5408\u3044\u306a\u304c\u3089\u30f4\u30a1\u30a4\u30b6\u30fc\u3068\u3057\u3066\u30d5\u30a3\u30eb\u30a2\u30fc\u30e0\u3092\u5b88\u3063\u3066\n\u304d\u305f\u3001\uff12\u4eba\u306e\u7d46\u306e\u529b\u3067\u3042\u308b\u3002",
        "P_EXTRA_TEXT": "14:\u6575\u5358\u4f53\u306b\u708e\u30fb\u5149\u5c5e\u6027\u5408\u8a0822\u9023\u306e600%\u30c0\u30e1\u30fc\u30b8,\n4:\u6575\u5358\u4f53\u309280%\u306e\u78ba\u7387\u30672\u30bf\u30fc\u30f3\u3001\u5e7b\u899a\u72b6\u614b\u306b\u3059\u308b",
        "P_CREATEDATE": "2018-02-17 21:28:46",
        "P_UPDATEDATE": "2018-02-17 21:28:46"
    },
    {
        "P_XBB_ID": "200174",
        "P_EXPLAIN_SHORT": "\u7b2c\u4e09\u5341\u4e00\u9b54\u795e\u8a0e\u4f10\u968a\u201c\u30b5\u30f3\u30af\u30aa\u30fc\u30ec\u201d\u306e\u5947\u8de1\u3002\n\u4eba\u306e\u9858\u3044\u3092\u53f6\u3048\u308b\u3068\u5642\u3055\u308c\u308b\u3001\u5e7b\u306e\u7cbe\u970a\u30b5\u30f3\u30af\u30aa\u30fc\u30ec\u3002\u305d\u306e\u59ff\u3092\u898b\u305f\u8005\u306f\u307b\u3068\u3093\u3069\u3044\u306a\u3044\u3002\u3057\u304b\u3057\u30ed\u30a4\u3068\u30b5\u30fc\u30b7\u30e3\u304c\u6226\u3044\u306e\u4e2d\u3067\u5f37\u304d\u60f3\u3044\u3092\u80f8\u306b\u62b1\u3044\u305f\u6642\u3001\u5947\u8de1\u306f\u8d77\u304d\u305f\u3002\u305d\u308c\u306f\u307e\u308b\u3067\u5e7b\u306e\u7cbe\u970a\u30b5\u30f3\u30af\u30aa\u30fc\u30ec\u304c\u5f7c\u3089\u306b\u529b\u3092\u8cb8\u3057\u3066\u3044\u308b\u3088\u3046\u306b\u898b\u3048\u305f\u3068\u3044\u3046\u3002",
        "P_EXTRA_TEXT": "14:\u6575\u5168\u4f53\u306b\u708e\u30fb\u6a39\u5c5e\u6027\u5408\u8a0822\u9023\u306e360%\u30c0\u30e1\u30fc\u30b8,\n6:\u5473\u65b9\u5168\u4f53\u306b3\u30bf\u30fc\u30f3\u3001BC\u7372\u5f97\u6642\u306e\u5897\u52a0\u91cf\u309230%\u30a2\u30c3\u30d7,\n7:\u5473\u65b9\u5168\u4f53\u306b3\u30bf\u30fc\u30f3\u3001\u30bf\u30fc\u30f3\u6bce\u306bHP\u3092800~1000\u56de\u5fa9",
        "P_CREATEDATE": "2018-02-17 21:28:46",
        "P_UPDATEDATE": "2018-02-17 21:28:46"
    },
    {
        "P_XBB_ID": "200184",
        "P_EXPLAIN_SHORT": "\u4f5c\u308a\u65b9\n\uff11\uff0e\u3042\u3089\u304b\u3058\u3081\u6355\u7372\u3057\u3066\u304a\u3044\u305f\u30e9\u30e0\u30b6\u30fc\u3092\u3001\u5341\u5206\u306b\u71b1\u3057\u305f\n\u3000\u3000\u6cb9\u305f\u3063\u3077\u308a\u306e\u5de8\u5927\u934b\u306b\u98df\u6750\u3068\u4e00\u7dd2\u306b\u4e38\u3054\u3068\u6295\u5165\u3059\u308b\u3002\n\uff12\uff0e\u4e0a\u4e0b\u3092\u3072\u3063\u304f\u308a\u8fd4\u3057\u306a\u304c\u3089\u3058\u3063\u304f\u308a\u3068\u63da\u3052\u3001\u4e00\u5ea6\u53d6\u308a\n\u3000\u3000\u51fa\u3059\u3002\u3055\u3089\u306b\u9ad8\u6e29\u306b\u3057\u305f\u6cb9\u3067\u30b5\u30c3\u3068\u4e8c\u5ea6\u63da\u3052\u3057\u3001\u8868\u9762\n\u3000\u3000\u3092\u30ab\u30ea\u30c3\u3068\u63da\u3052\u308b\u3002\n\uff13\uff0e\u7518\u8f9b\u30bd\u30fc\u30b9\u3068\u5408\u308f\u305b\u308c\u3070\u5b8c\u6210\uff01\u5927\u4eba\u3082\u5b50\u4f9b\u3082\u5927\u597d\u304d\u306a\n\u3000\u3000\u7f8e\u5473\u3057\u3044\u63da\u3052\u8089\u3001\u304a\u597d\u307f\u3067\u30ec\u30e2\u30f3\u3092\u7d5e\u3063\u3066\u3069\u3046\u305e\u266a",
        "P_EXTRA_TEXT": "1:\u5473\u65b9\u5168\u4f53\u306b3\u30bf\u30fc\u30f3\u3001\u653b\u6483\u529b\u309230%\u30a2\u30c3\u30d7,\n7:\u5473\u65b9\u5168\u4f53\u306b3\u30bf\u30fc\u30f3\u3001\u30bf\u30fc\u30f3\u6bce\u306bHP\u3092800~1000\u56de\u5fa9",
        "P_CREATEDATE": "2018-02-17 21:28:46",
        "P_UPDATEDATE": "2018-02-17 21:28:46"
    },
    {
        "P_XBB_ID": "300014",
        "P_EXPLAIN_SHORT": "\u30b0\u30e9\u30f3\u30ac\u30a4\u30a2\u306e\u4eba\u3005\u3092\u6551\u3046\u305f\u3081\u3001\u5927\u3044\u306a\u308b\u65c5\u306b\u51fa\u308b\u6c7a\u65ad\u3092\u3057\u305f\u5e7c\u99b4\u67d3\uff13\u4eba\u304c\u751f\u307f\u51fa\u3057\u305f\u6280\u3002\n\u795e\u3088\u308a\u5553\u793a\u3092\u53d7\u3051\u3066\u65b0\u5929\u5730\u306e\u5b58\u5728\u3092\u77e5\u3063\u305f\u30eb\u30ab\u30ca\u3001\u305d\u306e\u5834\u6240\u3078\u65c5\u7acb\u3064\u6c7a\u610f\u3092\u3057\u305f\u30ea\u30fc\u30c9\u3001\uff12\u4eba\u3092\u30b5\u30dd\u30fc\u30c8\u3057\u3001\u7dfb\u5bc6\u306a\u8a08\u7b97\u3092\u7acb\u3066\u305f\u30a2\u30fc\u30cd\u30eb\u3002\u300c\u4eba\u3005\u3092\u6551\u3044\u305f\u3044\u300d\u300c\u8ab0\u304b\u306e\u652f\u3048\u306b\u306a\u308a\u305f\u3044\u300d\u300c\u307f\u3093\u306a\u306e\u305f\u3081\u306b\u6226\u3044\u305f\u3044\u300d\u2026\uff13\u4eba\u306e\u60f3\u3044\u3092\u4e57\u305b\u305f\u30ea\u30fc\u30c9\u306e\u5263\u306f\u3001\u8feb\u308a\u304f\u308b\u6575\u3092\u8599\u304e\u6255\u3046\u3002",
        "P_EXTRA_TEXT": "14:\u6575\u4e00\u5217\u306b\u708e\u6c34\u6a39\u96f7\u5c5e\u6027\u5408\u8a0814\u9023\u306e500%\u30c0\u30e1\u30fc\u30b8,\n6:\u5473\u65b9\u5168\u4f53\u306b3\u30bf\u30fc\u30f3\u3001\u30bf\u30fc\u30f3\u6bce\u306bBB\u30b2\u30fc\u30b8\u3092500\u5897\u52a0,\n13:\u5473\u65b9\u5168\u4f53\u306b3\u30bf\u30fc\u30f3\u3001\u653b\u6483BB\u306e\u5a01\u529b\u309230%\u30a2\u30c3\u30d7",
        "P_CREATEDATE": "2018-02-17 21:28:46",
        "P_UPDATEDATE": "2018-02-17 21:28:46"
    },
    {
        "P_XBB_ID": "300024",
        "P_EXPLAIN_SHORT": "\u5973\u738b\u306e\u547d\u3092\u5b88\u308b\u306e\u304b\u3001\u5973\u738b\u306e\u9858\u3044\u3092\u5b88\u308b\u306e\u304b\u3002\u6c7a\u3057\u3066\u5206\u304b\n\u308a\u5408\u3048\u306a\u3044\uff12\u4eba\u3060\u304c\u3001\u5927\u5207\u306b\u601d\u3046\u3082\u306e\u306f\uff12\u4eba\u3068\u3082\u540c\u3058\u3060\u3063\n\u305f\u3002\u5f7c\u3089\u306f\u5263\u3068\u306a\u308a\u3001\u76fe\u3068\u306a\u308a\u3001\u5973\u738b\u3092\u5b88\u308b\u3002\u5f7c\u5973\u306e\u5c04\u629c\n\u304f\u5149\u306e\u77e2\u304c\u3001\u8f1d\u304f\u672a\u6765\u3092\u5207\u308a\u958b\u3051\u308b\u3088\u3046\u306b\u3002",
        "P_EXTRA_TEXT": "14:\u6575\u4e00\u5217\u306b\u6a39\u30fb\u5149\u30fb\u95c7\u5c5e\u6027\u5408\u8a0830\u9023\u306e590%\u30c0\u30e1\u30fc\u30b8,\n4:\u6575\u4e00\u5217\u309280%\u306e\u78ba\u7387\u30673\u30bf\u30fc\u30f3\u3001\u6a39\u7e1b\u72b6\u614b\u306b\u3059\u308b,\n3:\u5473\u65b9\u5168\u4f53\u306b3\u30bf\u30fc\u30f3\u3001BC\u30fbHC\u51fa\u73fe\u7387\u309230%\u30a2\u30c3\u30d7",
        "P_CREATEDATE": "2018-02-17 21:28:46",
        "P_UPDATEDATE": "2018-02-17 21:28:46"
    },
    {
        "P_XBB_ID": "300034",
        "P_EXPLAIN_SHORT": "\uff11\u3064\u306e\u60aa\u610f\u306b\u3088\u3063\u3066\u3001\u7d14\u7c8b\u306a\u5fc3\u306f\u618e\u60aa\u3078\u3068\u67d3\u307e\u308b\u3002\u4fe1\u3058\u3089\n\u308c\u308b\u3082\u306e\u3092\u5931\u3063\u305f\u305d\u306e\u722a\u306f\u3001\u63b4\u307f\u304b\u3051\u305f\u672a\u6765\u3092\u3082\u5207\u308a\u88c2\u3044\n\u305f\u3002\u53d7\u3051\u7d99\u304c\u308c\u305f\u610f\u5fd7\u306f\u50c5\u304b\u306a\u5e0c\u671b\u3068\u5171\u306b\u65ad\u305f\u308c\u3001\u81a8\u5927\u306a\n\u8840\u304c\u6d41\u308c\u308b\u3002\u6b8b\u3063\u305f\u306e\u306f\u5f8c\u6094\u3059\u3089\u3082\u8a31\u3055\u308c\u306c\u7121\u9650\u306e\u7d76\u671b\u3002\n\u305d\u308c\u3067\u3082\u5f7c\u3089\u306f\u660e\u65e5\u3092\u9858\u3046\u3002\u82e6\u3057\u307f\u306e\u679c\u3066\u306b\u5f85\u3061\u53d7\u3051\u308b\u4f55\n\u304b\u3092\u898b\u3064\u3051\u51fa\u3059\u305f\u3081\u306b\u3002",
        "P_EXTRA_TEXT": "14:\u6575\u5168\u4f53\u306b\u708e\u30fb\u6c34\u30fb\u96f7\u5c5e\u6027\u5408\u8a0836\u9023\u306e650%\u30c0\u30e1\u30fc\u30b8,\n4:\u6575\u5168\u4f53\u309260%\u306e\u78ba\u7387\u30672\u30bf\u30fc\u30f3\u3001\u6bd2\u30fb\u602a\u6211\u72b6\u614b\u306b\u3059\u308b,\n1:\u5473\u65b9\u5168\u4f53\u306b3\u30bf\u30fc\u30f3\u3001\u653b\u6483\u529b\u309230%\u30a2\u30c3\u30d7",
        "P_CREATEDATE": "2018-02-17 21:28:46",
        "P_UPDATEDATE": "2018-02-17 21:28:46"
    },
    {
        "P_XBB_ID": "300044",
        "P_EXPLAIN_SHORT": "\u79c1\u305f\u3061\u3092\u6700\u521d\u306b\u59c9\u59b9\u6a5f\u3068\u547c\u3093\u3060\u306e\u304c\u8ab0\u304b\u306f\u77e5\u3089\u306a\u3044\u3002\n\u305d\u308c\u3067\u3082\u79c1\u305f\u3061\u306f\u304b\u3051\u304c\u3048\u306e\u306a\u3044\u201c\u8840\u3092\u5225\u3051\u305f\u201d\u59c9\u59b9\u3002\u500b\u3092\u6301\u3064\u5fc5\u8981\u304c\u306a\u3044\u79c1\u305f\u3061\u306b\u6388\u304b\u3063\u305f\u3053\u306e\u7d46\u3002\u305d\u308c\u306b\u610f\u5473\u304c\u3042\u308b\u3068\u3059\u308b\u306a\u3089\u3070\u3001\u304d\u3063\u3068\u3053\u306e\u6642\u306e\u305f\u3081\u306a\u306e\u3060\u308d\u3046\u3002\u30de\u30b9\u30bf\u30fc\u306e\u6575\u306f\u79c1\u305f\u3061\u306e\u6575\u3002\u79c1\u305f\u3061\u306f\u30de\u30b9\u30bf\u30fc\u306e\u5263\u3067\u3042\u308a\u3001\u30de\u30b9\u30bf\u30fc\u306e\u76fe\u3002\u79c1\u305f\u3061\u306f\u3053\u306e\u6575\u3092\u7834\u58ca\u3059\u308b\u3002",
        "P_EXTRA_TEXT": "14:\u6575\u5168\u4f53\u306b\u5149\u30fb\u95c7\u5c5e\u6027\u5408\u8a0842\u9023\u306e630%\u30c0\u30e1\u30fc\u30b8,\n13:\u5473\u65b9\u5168\u4f53\u306b3\u30bf\u30fc\u30f3\u3001\u653b\u6483BB\u306e\u5a01\u529b\u309230%\u30a2\u30c3\u30d7,\n2:\u5473\u65b9\u5168\u4f53\u306b3\u30bf\u30fc\u30f3\u3001\u30af\u30ea\u30c6\u30a3\u30ab\u30eb\u7387\u309212%\u30a2\u30c3\u30d7",
        "P_CREATEDATE": "2018-02-17 21:28:46",
        "P_UPDATEDATE": "2018-02-17 21:28:46"
    },
    {
        "P_XBB_ID": "400014",
        "P_EXPLAIN_SHORT": "\u795e\u3092\u3082\u5c01\u5370\u305b\u3057\u30d1\u30eb\u30df\u30ca\u56db\u6226\u58eb\u306e\u53cd\u6483\u3002\n\u795e\u3005\u306e\u4fb5\u653b\u304c\u59cb\u307e\u308b\u3068\u30d1\u30eb\u30df\u30ca\u306e\u56db\u6226\u58eb\u306f\u6562\u7136\u3068\u795e\u3005\u306b\u6226\n\u3044\u3092\u6311\u3093\u3060\u3002\u5f7c\u3089\u306e\u53cd\u6483\u306f\u3001\u52a3\u52e2\u3068\u601d\u308f\u308c\u3066\u3044\u305f\u6226\u6cc1\u3092\u898b\u4e8b\u306b\u5857\u308a\u66ff\u3048\u308b\u3002\u795e\u3092\u3082\u8cab\u304f\u305d\u306e\u4e00\u6483\u306f\u3001\u511a\u304f\u3082\u7f8e\u3057\u3044\u3002",
        "P_EXTRA_TEXT": "14:\u6575\u5358\u4f53\u306b\u708e\u30fb\u6c34\u30fb\u6a39\u30fb\u96f7\u5c5e\u6027\u5408\u8a0825\u9023\u306e1220%\u30c0\u30e1\u30fc\u30b8",
        "P_CREATEDATE": "2018-02-17 21:28:46",
        "P_UPDATEDATE": "2018-02-17 21:28:46"
    },
    {
        "P_XBB_ID": "400024",
        "P_EXPLAIN_SHORT": "\u30bb\u30eb\u30bf\u30d3\u30a2\u306b\u8a9e\u308a\u7d99\u304c\u308c\u3066\u304d\u305f\u7269\u8a9e\u3002\u30d1\u30fc\u30c8\u30ca\u30fc\u3068\u5fc3\u3092\u901a\u308f\u305b\u3057\uff14\u4eba\u306e\u30f4\u30a1\u30a4\u30b6\u30fc\u2015\u2015\u56db\u8056\u306e\u4f1d\u8aac\u3002\u5f7c\u3089\u56db\u8056\u306e\u9023\u643a\u653b\u6483\u306f\uff14\u5339\u306e\u30d1\u30fc\u30c8\u30ca\u30fc\u3068\u5171\u306b\u7e70\u308a\u51fa\u3055\u308c\u3001\u305d\u306e\u7d46\u304c\u751f\u307f\u51fa\u3059\u529b\u306f\u3069\u3093\u306a\u5f37\u6575\u3092\u3082\u6253\u3061\u7815\u304f\u3002\u5f7c\u3089\u306e\u529b\u3068\u6280\u3001\u30d1\u30fc\u30c8\u30ca\u30fc\u3068\u306e\u7d46\u306f\u73fe\u4ee3\u306b\u4f1d\u3048\u3089\u308c\u3066\u3044\u308b\u3002\u5168\u3066\u306f\u3001\u30f4\u30a1\u30a4\u30b6\u30fc\u306e\u8a93\u3044\u3068\u5171\u306b\u3002",
        "P_EXTRA_TEXT": "14:\u6575\u5168\u4f53\u306b\u708e\u30fb\u6c34\u30fb\u96f7\u5c5e\u6027\u5408\u8a0835\u9023\u306e720%\u30c0\u30e1\u30fc\u30b8,\n7:\u5473\u65b9\u5168\u4f53\u306eHP\u30922800~3000\u56de\u5fa9,\n1:\u5473\u65b9\u5168\u4f53\u306b3\u30bf\u30fc\u30f3\u3001\u653b\u6483\u529b\u30fb\u9632\u5fa1\u529b\u30fb\u9b54\u9632\u529b\u309230%\u30a2\u30c3\u30d7",
        "P_CREATEDATE": "2018-02-17 21:28:46",
        "P_UPDATEDATE": "2018-02-17 21:28:46"
    },
    {
        "P_XBB_ID": "500014",
        "P_EXPLAIN_SHORT": "\u5f7c\u5973\u306f\u3044\u3064\u3067\u3082\u5148\u9663\u3092\u5207\u3063\u305f\u3002\u8ab0\u304b\u304c\u3001\u81ea\u5206\u306e\u5f8c\u306b\u7d9a\u304f\u3068\u4fe1\u3058\u3066\u3044\u305f\u304b\u3089\u3002\u5341\u7ffc\u306e\u7834\u58ca\u8005\u3092\u8ffd\u3046\u65c5\u306e\u4e2d\u3001\u5f7c\u5973\u306f\u4ef2\u9593\u305f\u3061\u3068\u51fa\u4f1a\u3044\u3001\u80a9\u3092\u4e26\u3079\u3066\u6226\u3063\u305f\u3002\u3069\u3093\u306a\u5f37\u6575\u3092\u524d\u306b\u3057\u3066\u3082\u6f70\u3048\u306c\u3082\u306e\u304c\u3042\u308b\u3053\u3068\u3092\u77e5\u3063\u305f\u3002\u4eca\u3082\u3001\u5f7c\u5973\u306f\u5909\u308f\u3089\u305a\u5148\u9663\u3092\u5207\u3063\u3066\u3044\u308b\u3002\u4ef2\u9593\u304c\u3001\u81ea\u5206\u306e\u5f8c\u306b\u7d9a\u304f\u3068\u77e5\u3063\u3066\u3044\u308b\u304b\u3089\u3002",
        "P_EXTRA_TEXT": "14:\u6575\u5168\u4f53\u306b\u708e\u30fb\u6c34\u30fb\u6a39\u30fb\u96f7\u30fb\u95c7\u5c5e\u6027\u5408\u8a0832\u9023\u306e850%\u30c0\u30e1\u30fc\u30b8,\n1:\u5473\u65b9\u5168\u4f53\u306b3\u30bf\u30fc\u30f3\u3001\u653b\u6483\u529b\u309230%\u30a2\u30c3\u30d7",
        "P_CREATEDATE": "2018-02-17 21:28:46",
        "P_UPDATEDATE": "2018-02-17 21:28:46"
    },
    {
        "P_XBB_ID": "500024",
        "P_EXPLAIN_SHORT": "\u30b0\u30e9\u30f3\u30ac\u30a4\u30a2\u95d8\u6280\u5834\u53f2\u4e0a\u6700\u9ad8\u306e\u4e00\u6483\u3002\n\u76ee\u3092\u898b\u5f35\u308b\u83ef\u9e97\u306a\u9023\u6483\u306f\u3001\u30b0\u30ec\u30f3\u306e\u708e\u62f3\u306b\u3088\u3063\u3066\u30d5\u30a3\u30cb\u30c3\u30b7\u30e5\u3092\u8fce\u3048\u305f\u3002\u305d\u306e\u65e5\u3001\u89b3\u5ba2\u305f\u3061\u306f\u4f1d\u8aac\u304c\u751f\u307e\u308c\u308b\u77ac\u9593\u3092\u76ee\u306e\u5f53\u305f\u308a\u306b\u3057\u305f\u306e\u3060\u3002\u305d\u306e\u52c7\u59ff\u3092\u4eba\u3005\u306f\u95d8\u3044\u306e\u82b8\u8853\u3068\u8a9e\u308a\u7d99\u3050\u3002\u7a76\u6975\u306e\u57df\u307e\u3067\u6607\u83ef\u3057\u305f\u9023\u643a\u6280\u3002\u30bc\u30af\u30bf\u30b5\u306e\u771f\u9aa8\u9802\u3092\u3054\u89a7\u3042\u308c\u3002",
        "P_EXTRA_TEXT": "14:\u6575\u5168\u4f53\u306b\u708e\u30fb\u6c34\u30fb\u6a39\u30fb\u96f7\u30fb\u5149\u5c5e\u6027\u5408\u8a0845\u9023\u306e990%\u30c0\u30e1\u30fc\u30b8",
        "P_CREATEDATE": "2018-02-17 21:28:46",
        "P_UPDATEDATE": "2018-02-17 21:28:46"
    },
    {
        "P_XBB_ID": "600014",
        "P_EXPLAIN_SHORT": "\u30c0\u30f3\u30c7\u30eb\u30ac\u304c\u71c3\u3048\u3001\u30ec\u30af\u30b7\u30fc\u30c0\u304c\u714c\u3081\u304d\u3001\u30c9\u30ec\u30f4\u30a1\u30b9\u304c\u7a81\u304f\u3002\u30d0\u30c8\u30a5\u30fc\u30bf\u304c\u7206\u305c\u3001\u30e6\u30ea\u30a2\u30b9\u304c\u8f1d\u304d\u3001\u30ec\u30aa\u30e0\u30eb\u30b0\u304c\u8cab\u304f\u3002\uff11\u3064\u306b\u96c6\u3044\u3055\u3048\u3059\u308c\u3070\u3001\u795e\u3005\u3092\u3082\u6253\u3061\u6ec5\u307c\u3059\u3067\u3042\u308d\u3046\u3002\u30b0\u30e9\u30f3\u30ac\u30a4\u30a2\u4eba\u985e\u6700\u5f8c\u306e\u5e0c\u671b\u300c\u516d\u82f1\u96c4\u300d\u3002\u3064\u3044\u306b\u5b9f\u73fe\u3059\u308b\u3053\u3068\u306f\u306a\u304b\u3063\u305f\u5e7b\u306e\u6226\u3044\u304c\u4eca\u3001\u3053\u3053\u306b\u3002",
        "P_EXTRA_TEXT": "14:\u6575\u5168\u4f53\u306b\u5168\u5c5e\u6027\u5408\u8a0851\u9023\u306e1060%\u30c0\u30e1\u30fc\u30b8,\n1:\u5473\u65b9\u5168\u4f53\u306b3\u30bf\u30fc\u30f3\u3001\u5168\u5c5e\u6027\u306e\u5f31\u70b9\u30c0\u30e1\u30fc\u30b8\u309230%\u30a2\u30c3\u30d7,\n2:\u5473\u65b9\u5168\u4f53\u306b3\u30bf\u30fc\u30f3\u3001\u5168\u5c5e\u6027\u306e\u653b\u6483\u529b\u30fb\u9632\u5fa1\u529b\u30fb\u9b54\u9632\u529b\u309230%\u30a2\u30c3\u30d7",
        "P_CREATEDATE": "2018-02-17 21:28:46",
        "P_UPDATEDATE": "2018-02-17 21:28:46"
    },
    {
        "P_XBB_ID": "600024",
        "P_EXPLAIN_SHORT": "\uff16\u4eba\u306e\u5c0e\u304d\u3057\u8005\u305f\u3061\u306f\u3001\u4eba\u3005\u306e\u5e0c\u671b\u3092\u30a8\u30eb\u30ac\u30a4\u30a2\u3078\u3068\u7e4b\u3044\u3060\u3002\u5f7c\u3089\u304c\u81ea\u8eab\u3092\u72a0\u7272\u306b\u3057\u3066\u3067\u3082\u795e\u3005\u3068\u6226\u3046\u3053\u3068\u304c\u3067\u304d\u305f\u306e\u306f\u3001\u4ef2\u9593\u3092\u4fe1\u3058\u3066\u3044\u305f\u304b\u3089\u3002\uff11\u4eba\u3067\u306f\u9032\u3081\u306a\u304b\u3063\u305f\u304b\u3082\u3057\u308c\u306a\u3044\u3002\u3051\u308c\u3069\u3001\u3068\u3082\u306b\u9032\u3080\u4ef2\u9593\u304c\u3044\u308b\u3002\u904b\u547d\u306b\u7acb\u3061\u5411\u304b\u3046\u52c7\u6c17\u3092\u3001\u4ef2\u9593\u305f\u3061\u304c\u304f\u308c\u305f\u3002\u305d\u308c\u306f\u6c7a\u3057\u3066\u9003\u907f\u884c\u3067\u306f\u306a\u3044\u3002\u65b0\u305f\u306a\u308b\u5e0c\u671b\u3078\u306e\u6311\u6226\u3060\u3063\u305f\u3002",
        "P_EXTRA_TEXT": "14:\u6575\u5168\u4f53\u306b\u708e\u30fb\u6c34\u30fb\u5149\u30fb\u95c7\u5c5e\u6027\u5408\u8a0844\u9023\u306e990%\u30c0\u30e1\u30fc\u30b8,\n6:\u5473\u65b9\u5168\u4f53\u306b3\u30bf\u30fc\u30f3\u3001\u30bf\u30fc\u30f3\u6bce\u306bBB\u30b2\u30fc\u30b8\u3092400\u5897\u52a0,\n13:\u5473\u65b9\u5168\u4f53\u306b3\u30bf\u30fc\u30f3\u3001\u653b\u6483\u306b\u708e\u30fb\u6c34\u30fb\u6a39\u30fb\u96f7\u5c5e\u6027\u3092\u4ed8\u4e0e",
        "P_CREATEDATE": "2018-02-17 21:28:46",
        "P_UPDATEDATE": "2018-02-17 21:28:46"
    },
    {
        "P_XBB_ID": "600034",
        "P_EXPLAIN_SHORT": "\u3069\u306e\u3088\u3046\u306a\u6226\u58eb\u305f\u3061\u306b\u3082\u6c7a\u3057\u3066\u6b20\u304b\u305b\u306a\u3044\u3082\u306e\u3002\u305d\u308c\u306f\u304a\u3044\u3057\u304f\u6804\u990a\u6e80\u70b9\u306e\u98df\u4e8b\u3002\u3042\u305f\u305f\u304b\u3044\u98df\u4e8b\u306f\u660e\u65e5\u3078\u306e\u6d3b\u529b\u3068\u306a\u308a\u3001\u5f7c\u3089\u306e\u6c17\u529b\u3092\u596e\u3044\u7acb\u305f\u305b\u3001\u52c7\u6c17\u3042\u308b\u3082\u306e\u2015\u2015\u52c7\u8005\u3078\u3068\u5909\u3048\u308b\u3002\u52c7\u8005\u3068\u306a\u3063\u305f\u5f7c\u3089\u306f\u3069\u3093\u306a\u5f37\u6575\u306b\u3082\u6c7a\u3057\u3066\u304f\u3058\u3051\u306f\u3057\u306a\u3044\u3002\u3042\u305f\u305f\u304b\u306a\u98df\u4e8b\u306f\u3001\u4e16\u754c\u3092\u6551\u3046\u306e\u3060\u3002",
        "P_EXTRA_TEXT": "14:\u6575\u5168\u4f53\u306b\u708e\u30fb\u6c34\u30fb\u96f7\u30fb\u5149\u30fb\u95c7\u5c5e\u602727\u9023\u306e\u5408\u8a081020%\u30c0\u30e1\u30fc\u30b8,\n1:\u5473\u65b9\u5168\u4f53\u306b3\u30bf\u30fc\u30f3\u3001\u653b\u6483\u529b\u30fb\u9632\u5fa1\u529b\u30fb\u9b54\u9632\u529b\u309230%\u30a2\u30c3\u30d7,\n6:\u5473\u65b9\u5168\u4f53\u306b3\u30bf\u30fc\u30f3\u3001BC\u7372\u5f97\u6642\u306e\u5897\u52a0\u91cf\u309230%\u30a2\u30c3\u30d7,\n7:\u5473\u65b9\u5168\u4f53\u306eHP\u3092800~1000\u56de\u5fa9",
        "P_CREATEDATE": "2018-02-17 21:28:46",
        "P_UPDATEDATE": "2018-02-17 21:28:46"
    },
    {
        "P_XBB_ID": "600040",
        "P_EXPLAIN_SHORT": "\u8aac\u660e\u3057\u3088\u3046\u3002\u30aa\u30fc\u30eb\u30b9\u30bf\u30fc\u30a2\u30bf\u30c3\u30af\u3068\u306f\u5927\u52e2\u306e\u30eb\u30b9\u306e\u5408\u4f53\u6280\u3067\u3042\u308b\u3002\n\u300c\u30aa\u30a4\u30e9\u304c\u5148\u9663\u3092\u5207\u308b\u30dd\u30e0\u3001\u55b0\u3089\u3048\u30dd\u30e0\u301c\uff01\u300d\n\u300c\u30a6\u30eb\u30a6\u30eb\u30a6\u30eb\u301c\u3001\u6b21\u306f\u304a\u6c34\u30a4\u30c3\u30d1\u30a4\u5410\u304d\u51fa\u3059\u3067\u3059\u3045\uff01\u300d\n\u300c\u304a\u8179\u3059\u3044\u305f\u3082\u3080\u301c\u3001\u98df\u3079\u3061\u3083\u3046\u3082\u3080\u3088\uff01\u300d\n\u300c\u30d3\u30ea\u30d3\u30ea\u30fc\uff01\u30dc\u30af\u306e\u30d3\u30ea\u30d3\u30ea\u3067\u307f\u3093\u306a\u30d3\u30ea\u30d3\u30ea\uff01\u300d\n\u300c\u7167\u3089\u3057\u3061\u3083\u3046\u3088\u30fc\uff01\u5168\u90e8\u3001\u7167\u3089\u3057\u3061\u3083\u3046\u3088\u30fc\uff01\u300d\n\u300c\u3042\u3041\u3093\uff01\uff1f\u4ffa\u304c\u30b1\u30c4\u304b\uff1f\u3057\u3063\u304b\u308a\u53d7\u3051\u53d6\u308c\u30b4\u30e9\u30a1\uff01\u300d",
        "P_EXTRA_TEXT": "14:\u6575\u5168\u4f53\u306b\u5168\u5c5e\u6027\u5408\u8a0848\u9023\u306e840%\u30c0\u30e1\u30fc\u30b8",
        "P_CREATEDATE": "2018-02-17 21:28:46",
        "P_UPDATEDATE": "2018-02-17 21:28:46"
    },
    {
        "P_XBB_ID": "1010101",
        "P_EXPLAIN_SHORT": "\u30b0\u30a8\u30f3\u30d5\u30a1\u30f3\u30b0\u306e\u77ed\u3044\u8aac\u660e",
        "P_EXTRA_TEXT": "14:\u6575\u5358\u4f53\u306b\u5149\u5c5e\u60272\u9023\u306e120%\u30c0\u30e1\u30fc\u30b8",
        "P_CREATEDATE": "2018-02-17 21:28:46",
        "P_UPDATEDATE": "2018-02-17 21:28:46"
    },
    {
        "P_XBB_ID": "1010102",
        "P_EXPLAIN_SHORT": "\u30b0\u30a8\u30f3\u30d5\u30a1\u30f3\u30b0\u306e\u77ed\u3044\u8aac\u660e",
        "P_EXTRA_TEXT": "14:\u6575\u5358\u4f53\u306b\u5149\u5c5e\u60272\u9023\u306e130%\u30c0\u30e1\u30fc\u30b8",
        "P_CREATEDATE": "2018-02-17 21:28:46",
        "P_UPDATEDATE": "2018-02-17 21:28:46"
    },
    {
        "P_XBB_ID": "1010103",
        "P_EXPLAIN_SHORT": "\u30b0\u30a8\u30f3\u30d5\u30a1\u30f3\u30b0\u306e\u77ed\u3044\u8aac\u660e",
        "P_EXTRA_TEXT": "14:\u6575\u5358\u4f53\u306b\u5149\u5c5e\u60272\u9023\u306e130%\u30c0\u30e1\u30fc\u30b8,\n1:3\u30bf\u30fc\u30f3\u3001\u53ec\u559a\u5e2b\u306e\u653b\u6483\u529b\u30925%\u30a2\u30c3\u30d7",
        "P_CREATEDATE": "2018-02-17 21:28:46",
        "P_UPDATEDATE": "2018-02-17 21:28:46"
    },
    {
        "P_XBB_ID": "1010104",
        "P_EXPLAIN_SHORT": "\u30b0\u30a8\u30f3\u30d5\u30a1\u30f3\u30b0\u306e\u77ed\u3044\u8aac\u660e",
        "P_EXTRA_TEXT": "14:\u6575\u5358\u4f53\u306b\u5149\u5c5e\u60272\u9023\u306e140%\u30c0\u30e1\u30fc\u30b8,\n1:3\u30bf\u30fc\u30f3\u3001\u53ec\u559a\u5e2b\u306e\u653b\u6483\u529b\u30925%\u30a2\u30c3\u30d7",
        "P_CREATEDATE": "2018-02-17 21:28:46",
        "P_UPDATEDATE": "2018-02-17 21:28:46"
    },
    {
        "P_XBB_ID": "1010105",
        "P_EXPLAIN_SHORT": "\u30b0\u30a8\u30f3\u30d5\u30a1\u30f3\u30b0\u306e\u77ed\u3044\u8aac\u660e",
        "P_EXTRA_TEXT": "14:\u6575\u5358\u4f53\u306b\u5149\u5c5e\u60272\u9023\u306e140%\u30c0\u30e1\u30fc\u30b8,\n1:3\u30bf\u30fc\u30f3\u3001\u53ec\u559a\u5e2b\u306e\u653b\u6483\u529b\u30925%\u30a2\u30c3\u30d7",
        "P_CREATEDATE": "2018-02-17 21:28:46",
        "P_UPDATEDATE": "2018-02-17 21:28:46"
    },
    {
        "P_XBB_ID": "1010106",
        "P_EXPLAIN_SHORT": "\u30b0\u30a8\u30f3\u30d5\u30a1\u30f3\u30b0\u306e\u77ed\u3044\u8aac\u660e",
        "P_EXTRA_TEXT": "14:\u6575\u5358\u4f53\u306b\u5149\u5c5e\u60272\u9023\u306e140%\u30c0\u30e1\u30fc\u30b8,\n1:3\u30bf\u30fc\u30f3\u3001\u53ec\u559a\u5e2b\u306e\u653b\u6483\u529b\u309210%\u30a2\u30c3\u30d7",
        "P_CREATEDATE": "2018-02-17 21:28:46",
        "P_UPDATEDATE": "2018-02-17 21:28:46"
    },
    {
        "P_XBB_ID": "1020101",
        "P_EXPLAIN_SHORT": "\u30a2\u30b5\u30eb\u30c8\u30d6\u30ec\u30a4\u30ba\u306e\u77ed\u3044\u8aac\u660e",
        "P_EXTRA_TEXT": "14:\u6575\u5358\u4f53\u306b\u5149\u5c5e\u60273\u9023\u306e130%\u30c0\u30e1\u30fc\u30b8",
        "P_CREATEDATE": "2018-02-17 21:28:46",
        "P_UPDATEDATE": "2018-02-17 21:28:46"
    },
    {
        "P_XBB_ID": "1020102",
        "P_EXPLAIN_SHORT": "\u30a2\u30b5\u30eb\u30c8\u30d6\u30ec\u30a4\u30ba\u306e\u77ed\u3044\u8aac\u660e",
        "P_EXTRA_TEXT": "14:\u6575\u5358\u4f53\u306b\u5149\u5c5e\u60273\u9023\u306e140%\u30c0\u30e1\u30fc\u30b8",
        "P_CREATEDATE": "2018-02-17 21:28:46",
        "P_UPDATEDATE": "2018-02-17 21:28:46"
    },
    {
        "P_XBB_ID": "1020103",
        "P_EXPLAIN_SHORT": "\u30a2\u30b5\u30eb\u30c8\u30d6\u30ec\u30a4\u30ba\u306e\u77ed\u3044\u8aac\u660e",
        "P_EXTRA_TEXT": "14:\u6575\u5358\u4f53\u306b\u5149\u5c5e\u60273\u9023\u306e140%\u30c0\u30e1\u30fc\u30b8,\n1:3\u30bf\u30fc\u30f3\u3001\u53ec\u559a\u5e2b\u306e\u653b\u6483\u529b\u309210%\u30a2\u30c3\u30d7",
        "P_CREATEDATE": "2018-02-17 21:28:46",
        "P_UPDATEDATE": "2018-02-17 21:28:46"
    },
    {
        "P_XBB_ID": "1020104",
        "P_EXPLAIN_SHORT": "\u30a2\u30b5\u30eb\u30c8\u30d6\u30ec\u30a4\u30ba\u306e\u77ed\u3044\u8aac\u660e",
        "P_EXTRA_TEXT": "14:\u6575\u5358\u4f53\u306b\u5149\u5c5e\u60273\u9023\u306e150%\u30c0\u30e1\u30fc\u30b8,\n1:3\u30bf\u30fc\u30f3\u3001\u53ec\u559a\u5e2b\u306e\u653b\u6483\u529b\u309210%\u30a2\u30c3\u30d7",
        "P_CREATEDATE": "2018-02-17 21:28:46",
        "P_UPDATEDATE": "2018-02-17 21:28:46"
    },
    {
        "P_XBB_ID": "1020105",
        "P_EXPLAIN_SHORT": "\u30a2\u30b5\u30eb\u30c8\u30d6\u30ec\u30a4\u30ba\u306e\u77ed\u3044\u8aac\u660e",
        "P_EXTRA_TEXT": "14:\u6575\u5358\u4f53\u306b\u5149\u5c5e\u60273\u9023\u306e150%\u30c0\u30e1\u30fc\u30b8,\n1:3\u30bf\u30fc\u30f3\u3001\u53ec\u559a\u5e2b\u306e\u653b\u6483\u529b\u309210%\u30a2\u30c3\u30d7",
        "P_CREATEDATE": "2018-02-17 21:28:46",
        "P_UPDATEDATE": "2018-02-17 21:28:46"
    },
    {
        "P_XBB_ID": "1020106",
        "P_EXPLAIN_SHORT": "\u30a2\u30b5\u30eb\u30c8\u30d6\u30ec\u30a4\u30ba\u306e\u77ed\u3044\u8aac\u660e",
        "P_EXTRA_TEXT": "14:\u6575\u5358\u4f53\u306b\u5149\u5c5e\u60273\u9023\u306e150%\u30c0\u30e1\u30fc\u30b8,\n1:3\u30bf\u30fc\u30f3\u3001\u53ec\u559a\u5e2b\u306e\u653b\u6483\u529b\u309215%\u30a2\u30c3\u30d7",
        "P_CREATEDATE": "2018-02-17 21:28:46",
        "P_UPDATEDATE": "2018-02-17 21:28:46"
    },
    {
        "P_XBB_ID": "1020201",
        "P_EXPLAIN_SHORT": "\u30af\u30e9\u30fc\u30b8\u30e5\u30d5\u30e9\u30e0\u306e\u77ed\u3044\u8aac\u660e",
        "P_EXTRA_TEXT": "14:\u6575\u4e00\u5217\u306b\u5149\u5c5e\u60274\u9023\u306e100%\u30c0\u30e1\u30fc\u30b8",
        "P_CREATEDATE": "2018-02-17 21:28:46",
        "P_UPDATEDATE": "2018-02-17 21:28:46"
    },
    {
        "P_XBB_ID": "1020202",
        "P_EXPLAIN_SHORT": "\u30af\u30e9\u30fc\u30b8\u30e5\u30d5\u30e9\u30e0\u306e\u77ed\u3044\u8aac\u660e",
        "P_EXTRA_TEXT": "14:\u6575\u4e00\u5217\u306b\u5149\u5c5e\u60274\u9023\u306e110%\u30c0\u30e1\u30fc\u30b8",
        "P_CREATEDATE": "2018-02-17 21:28:46",
        "P_UPDATEDATE": "2018-02-17 21:28:46"
    },
    {
        "P_XBB_ID": "1020203",
        "P_EXPLAIN_SHORT": "\u30af\u30e9\u30fc\u30b8\u30e5\u30d5\u30e9\u30e0\u306e\u77ed\u3044\u8aac\u660e",
        "P_EXTRA_TEXT": "14:\u6575\u4e00\u5217\u306b\u5149\u5c5e\u60274\u9023\u306e110%\u30c0\u30e1\u30fc\u30b8,\n4:\u6575\u4e00\u5217\u306b3\u30bf\u30fc\u30f3\u3001\u30bf\u30fc\u30f3\u7d42\u4e86\u6642\u306b\u5149\u5c5e\u6027\u8ffd\u52a0\u30c0\u30e1\u30fc\u30b8",
        "P_CREATEDATE": "2018-02-17 21:28:46",
        "P_UPDATEDATE": "2018-02-17 21:28:46"
    },
    {
        "P_XBB_ID": "1020204",
        "P_EXPLAIN_SHORT": "\u30af\u30e9\u30fc\u30b8\u30e5\u30d5\u30e9\u30e0\u306e\u77ed\u3044\u8aac\u660e",
        "P_EXTRA_TEXT": "14:\u6575\u4e00\u5217\u306b\u5149\u5c5e\u60274\u9023\u306e120%\u30c0\u30e1\u30fc\u30b8,\n4:\u6575\u4e00\u5217\u306b3\u30bf\u30fc\u30f3\u3001\u30bf\u30fc\u30f3\u7d42\u4e86\u6642\u306b\u5149\u5c5e\u6027\u8ffd\u52a0\u30c0\u30e1\u30fc\u30b8",
        "P_CREATEDATE": "2018-02-17 21:28:46",
        "P_UPDATEDATE": "2018-02-17 21:28:46"
    },
    {
        "P_XBB_ID": "1020205",
        "P_EXPLAIN_SHORT": "\u30af\u30e9\u30fc\u30b8\u30e5\u30d5\u30e9\u30e0\u306e\u77ed\u3044\u8aac\u660e",
        "P_EXTRA_TEXT": "14:\u6575\u4e00\u5217\u306b\u5149\u5c5e\u60274\u9023\u306e120%\u30c0\u30e1\u30fc\u30b8,\n4:\u6575\u4e00\u5217\u306b3\u30bf\u30fc\u30f3\u3001\u30bf\u30fc\u30f3\u7d42\u4e86\u6642\u306b\u5149\u5c5e\u6027\u8ffd\u52a0\u30c0\u30e1\u30fc\u30b8",
        "P_CREATEDATE": "2018-02-17 21:28:46",
        "P_UPDATEDATE": "2018-02-17 21:28:46"
    },
    {
        "P_XBB_ID": "1020206",
        "P_EXPLAIN_SHORT": "\u30af\u30e9\u30fc\u30b8\u30e5\u30d5\u30e9\u30e0\u306e\u77ed\u3044\u8aac\u660e",
        "P_EXTRA_TEXT": "14:\u6575\u4e00\u5217\u306b\u5149\u5c5e\u60274\u9023\u306e120%\u30c0\u30e1\u30fc\u30b8,\n4:\u6575\u4e00\u5217\u306b3\u30bf\u30fc\u30f3\u3001\u30bf\u30fc\u30f3\u7d42\u4e86\u6642\u306b\u5149\u5c5e\u6027\u8ffd\u52a0\u30c0\u30e1\u30fc\u30b8",
        "P_CREATEDATE": "2018-02-17 21:28:46",
        "P_UPDATEDATE": "2018-02-17 21:28:46"
    },
    {
        "P_XBB_ID": "1030101",
        "P_EXPLAIN_SHORT": "\u30d5\u30e9\u30c3\u30b7\u30e5\u30d6\u30ec\u30a4\u30ba\u306e\u77ed\u3044\u8aac\u660e",
        "P_EXTRA_TEXT": "14:\u6575\u5358\u4f53\u306b\u5149\u5c5e\u60275\u9023\u306e140%\u30c0\u30e1\u30fc\u30b8",
        "P_CREATEDATE": "2018-02-17 21:28:46",
        "P_UPDATEDATE": "2018-02-17 21:28:46"
    },
    {
        "P_XBB_ID": "1030102",
        "P_EXPLAIN_SHORT": "\u30d5\u30e9\u30c3\u30b7\u30e5\u30d6\u30ec\u30a4\u30ba\u306e\u77ed\u3044\u8aac\u660e",
        "P_EXTRA_TEXT": "14:\u6575\u5358\u4f53\u306b\u5149\u5c5e\u60275\u9023\u306e150%\u30c0\u30e1\u30fc\u30b8",
        "P_CREATEDATE": "2018-02-17 21:28:46",
        "P_UPDATEDATE": "2018-02-17 21:28:46"
    },
    {
        "P_XBB_ID": "1030103",
        "P_EXPLAIN_SHORT": "\u30d5\u30e9\u30c3\u30b7\u30e5\u30d6\u30ec\u30a4\u30ba\u306e\u77ed\u3044\u8aac\u660e",
        "P_EXTRA_TEXT": "14:\u6575\u5358\u4f53\u306b\u5149\u5c5e\u60275\u9023\u306e150%\u30c0\u30e1\u30fc\u30b8,\n1:3\u30bf\u30fc\u30f3\u3001\u53ec\u559a\u5e2b\u306e\u653b\u6483\u529b\u309215%\u30a2\u30c3\u30d7",
        "P_CREATEDATE": "2018-02-17 21:28:46",
        "P_UPDATEDATE": "2018-02-17 21:28:46"
    },
    {
        "P_XBB_ID": "1030104",
        "P_EXPLAIN_SHORT": "\u30d5\u30e9\u30c3\u30b7\u30e5\u30d6\u30ec\u30a4\u30ba\u306e\u77ed\u3044\u8aac\u660e",
        "P_EXTRA_TEXT": "14:\u6575\u5358\u4f53\u306b\u5149\u5c5e\u60275\u9023\u306e160%\u30c0\u30e1\u30fc\u30b8,\n1:3\u30bf\u30fc\u30f3\u3001\u53ec\u559a\u5e2b\u306e\u653b\u6483\u529b\u309215%\u30a2\u30c3\u30d7",
        "P_CREATEDATE": "2018-02-17 21:28:46",
        "P_UPDATEDATE": "2018-02-17 21:28:46"
    },
    {
        "P_XBB_ID": "1030105",
        "P_EXPLAIN_SHORT": "\u30d5\u30e9\u30c3\u30b7\u30e5\u30d6\u30ec\u30a4\u30ba\u306e\u77ed\u3044\u8aac\u660e",
        "P_EXTRA_TEXT": "14:\u6575\u5358\u4f53\u306b\u5149\u5c5e\u60275\u9023\u306e160%\u30c0\u30e1\u30fc\u30b8,\n1:3\u30bf\u30fc\u30f3\u3001\u53ec\u559a\u5e2b\u306e\u653b\u6483\u529b\u309215%\u30a2\u30c3\u30d7",
        "P_CREATEDATE": "2018-02-17 21:28:46",
        "P_UPDATEDATE": "2018-02-17 21:28:46"
    },
    {
        "P_XBB_ID": "1030106",
        "P_EXPLAIN_SHORT": "\u30d5\u30e9\u30c3\u30b7\u30e5\u30d6\u30ec\u30a4\u30ba\u306e\u77ed\u3044\u8aac\u660e",
        "P_EXTRA_TEXT": "14:\u6575\u5358\u4f53\u306b\u5149\u5c5e\u60275\u9023\u306e160%\u30c0\u30e1\u30fc\u30b8,\n1:3\u30bf\u30fc\u30f3\u3001\u53ec\u559a\u5e2b\u306e\u653b\u6483\u529b\u309220%\u30a2\u30c3\u30d7",
        "P_CREATEDATE": "2018-02-17 21:28:46",
        "P_UPDATEDATE": "2018-02-17 21:28:46"
    },
    {
        "P_XBB_ID": "1030201",
        "P_EXPLAIN_SHORT": "\u30b0\u30ec\u30fc\u30c8\u30d5\u30e9\u30e0\u306e\u77ed\u3044\u8aac\u660e",
        "P_EXTRA_TEXT": "14:\u6575\u4e00\u5217\u306b\u5149\u5c5e\u60275\u9023\u306e110%\u30c0\u30e1\u30fc\u30b8",
        "P_CREATEDATE": "2018-02-17 21:28:46",
        "P_UPDATEDATE": "2018-02-17 21:28:46"
    },
    {
        "P_XBB_ID": "1030202",
        "P_EXPLAIN_SHORT": "\u30b0\u30ec\u30fc\u30c8\u30d5\u30e9\u30e0\u306e\u77ed\u3044\u8aac\u660e",
        "P_EXTRA_TEXT": "14:\u6575\u4e00\u5217\u306b\u5149\u5c5e\u60275\u9023\u306e120%\u30c0\u30e1\u30fc\u30b8",
        "P_CREATEDATE": "2018-02-17 21:28:46",
        "P_UPDATEDATE": "2018-02-17 21:28:46"
    },
    {
        "P_XBB_ID": "1030203",
        "P_EXPLAIN_SHORT": "\u30b0\u30ec\u30fc\u30c8\u30d5\u30e9\u30e0\u306e\u77ed\u3044\u8aac\u660e",
        "P_EXTRA_TEXT": "14:\u6575\u4e00\u5217\u306b\u5149\u5c5e\u60275\u9023\u306e120%\u30c0\u30e1\u30fc\u30b8,\n4:\u6575\u4e00\u5217\u306b3\u30bf\u30fc\u30f3\u3001\u30bf\u30fc\u30f3\u7d42\u4e86\u6642\u306b\u5149\u5c5e\u6027\u8ffd\u52a0\u30c0\u30e1\u30fc\u30b8",
        "P_CREATEDATE": "2018-02-17 21:28:46",
        "P_UPDATEDATE": "2018-02-17 21:28:46"
    },
    {
        "P_XBB_ID": "1030204",
        "P_EXPLAIN_SHORT": "\u30b0\u30ec\u30fc\u30c8\u30d5\u30e9\u30e0\u306e\u77ed\u3044\u8aac\u660e",
        "P_EXTRA_TEXT": "14:\u6575\u4e00\u5217\u306b\u5149\u5c5e\u60275\u9023\u306e130%\u30c0\u30e1\u30fc\u30b8,\n4:\u6575\u4e00\u5217\u306b3\u30bf\u30fc\u30f3\u3001\u30bf\u30fc\u30f3\u7d42\u4e86\u6642\u306b\u5149\u5c5e\u6027\u8ffd\u52a0\u30c0\u30e1\u30fc\u30b8",
        "P_CREATEDATE": "2018-02-17 21:28:46",
        "P_UPDATEDATE": "2018-02-17 21:28:46"
    },
    {
        "P_XBB_ID": "1030205",
        "P_EXPLAIN_SHORT": "\u30b0\u30ec\u30fc\u30c8\u30d5\u30e9\u30e0\u306e\u77ed\u3044\u8aac\u660e",
        "P_EXTRA_TEXT": "14:\u6575\u4e00\u5217\u306b\u5149\u5c5e\u60275\u9023\u306e130%\u30c0\u30e1\u30fc\u30b8,\n4:\u6575\u4e00\u5217\u306b3\u30bf\u30fc\u30f3\u3001\u30bf\u30fc\u30f3\u7d42\u4e86\u6642\u306b\u5149\u5c5e\u6027\u8ffd\u52a0\u30c0\u30e1\u30fc\u30b8",
        "P_CREATEDATE": "2018-02-17 21:28:46",
        "P_UPDATEDATE": "2018-02-17 21:28:46"
    },
    {
        "P_XBB_ID": "1030206",
        "P_EXPLAIN_SHORT": "\u30b0\u30ec\u30fc\u30c8\u30d5\u30e9\u30e0\u306e\u77ed\u3044\u8aac\u660e",
        "P_EXTRA_TEXT": "14:\u6575\u4e00\u5217\u306b\u5149\u5c5e\u60275\u9023\u306e130%\u30c0\u30e1\u30fc\u30b8,\n4:\u6575\u4e00\u5217\u306b3\u30bf\u30fc\u30f3\u3001\u30bf\u30fc\u30f3\u7d42\u4e86\u6642\u306b\u5149\u5c5e\u6027\u8ffd\u52a0\u30c0\u30e1\u30fc\u30b8",
        "P_CREATEDATE": "2018-02-17 21:28:46",
        "P_UPDATEDATE": "2018-02-17 21:28:46"
    },
    {
        "P_XBB_ID": "1030301",
        "P_EXPLAIN_SHORT": "\u30db\u30fc\u30ea\u30fc\u30c9\u30df\u30cb\u30aa\u30f3\u306e\u77ed\u3044\u8aac\u660e",
        "P_EXTRA_TEXT": "14:\u6575\u5168\u4f53\u306b\u5149\u5c5e\u60276\u9023\u306e100%\u30c0\u30e1\u30fc\u30b8",
        "P_CREATEDATE": "2018-02-17 21:28:46",
        "P_UPDATEDATE": "2018-02-17 21:28:46"
    },
    {
        "P_XBB_ID": "1030302",
        "P_EXPLAIN_SHORT": "\u30db\u30fc\u30ea\u30fc\u30c9\u30df\u30cb\u30aa\u30f3\u306e\u77ed\u3044\u8aac\u660e",
        "P_EXTRA_TEXT": "14:\u6575\u5168\u4f53\u306b\u5149\u5c5e\u60276\u9023\u306e110%\u30c0\u30e1\u30fc\u30b8",
        "P_CREATEDATE": "2018-02-17 21:28:46",
        "P_UPDATEDATE": "2018-02-17 21:28:46"
    },
    {
        "P_XBB_ID": "1030303",
        "P_EXPLAIN_SHORT": "\u30db\u30fc\u30ea\u30fc\u30c9\u30df\u30cb\u30aa\u30f3\u306e\u77ed\u3044\u8aac\u660e",
        "P_EXTRA_TEXT": "14:\u6575\u5168\u4f53\u306b\u5149\u5c5e\u60276\u9023\u306e110%\u30c0\u30e1\u30fc\u30b8,\n6:\u5473\u65b9\u5168\u4f53\u306eBB\u30b2\u30fc\u30b8\u3092100~200\u5897\u52a0",
        "P_CREATEDATE": "2018-02-17 21:28:46",
        "P_UPDATEDATE": "2018-02-17 21:28:46"
    },
    {
        "P_XBB_ID": "1030304",
        "P_EXPLAIN_SHORT": "\u30db\u30fc\u30ea\u30fc\u30c9\u30df\u30cb\u30aa\u30f3\u306e\u77ed\u3044\u8aac\u660e",
        "P_EXTRA_TEXT": "14:\u6575\u5168\u4f53\u306b\u5149\u5c5e\u60276\u9023\u306e120%\u30c0\u30e1\u30fc\u30b8,\n6:\u5473\u65b9\u5168\u4f53\u306eBB\u30b2\u30fc\u30b8\u3092100~200\u5897\u52a0",
        "P_CREATEDATE": "2018-02-17 21:28:46",
        "P_UPDATEDATE": "2018-02-17 21:28:46"
    },
    {
        "P_XBB_ID": "1030305",
        "P_EXPLAIN_SHORT": "\u30db\u30fc\u30ea\u30fc\u30c9\u30df\u30cb\u30aa\u30f3\u306e\u77ed\u3044\u8aac\u660e",
        "P_EXTRA_TEXT": "14:\u6575\u5168\u4f53\u306b\u5149\u5c5e\u60276\u9023\u306e120%\u30c0\u30e1\u30fc\u30b8,\n6:\u5473\u65b9\u5168\u4f53\u306eBB\u30b2\u30fc\u30b8\u3092100~200\u5897\u52a0",
        "P_CREATEDATE": "2018-02-17 21:28:46",
        "P_UPDATEDATE": "2018-02-17 21:28:46"
    },
    {
        "P_XBB_ID": "1030306",
        "P_EXPLAIN_SHORT": "\u30db\u30fc\u30ea\u30fc\u30c9\u30df\u30cb\u30aa\u30f3\u306e\u77ed\u3044\u8aac\u660e",
        "P_EXTRA_TEXT": "14:\u6575\u5168\u4f53\u306b\u5149\u5c5e\u60276\u9023\u306e120%\u30c0\u30e1\u30fc\u30b8,\n6:\u5473\u65b9\u5168\u4f53\u306eBB\u30b2\u30fc\u30b8\u3092200\u5897\u52a0",
        "P_CREATEDATE": "2018-02-17 21:28:46",
        "P_UPDATEDATE": "2018-02-17 21:28:46"
    },
    {
        "P_XBB_ID": "2010101",
        "P_EXPLAIN_SHORT": "\u30ed\u30fc\u30c8\u30e9\u30c3\u30b7\u30e5\u306e\u77ed\u3044\u8aac\u660e",
        "P_EXTRA_TEXT": "14:\u6575\u5358\u4f53\u306b\u708e\u5c5e\u60273\u9023\u306e130%\u30c0\u30e1\u30fc\u30b8",
        "P_CREATEDATE": "2018-02-17 21:28:46",
        "P_UPDATEDATE": "2018-02-17 21:28:46"
    },
    {
        "P_XBB_ID": "2020101",
        "P_EXPLAIN_SHORT": "\u30a2\u30b5\u30eb\u30c8\u30e9\u30c3\u30b7\u30e5\u306e\u77ed\u3044\u8aac\u660e",
        "P_EXTRA_TEXT": "14:\u6575\u5358\u4f53\u306b\u708e\u5c5e\u60273\u9023\u306e140%\u30c0\u30e1\u30fc\u30b8",
        "P_CREATEDATE": "2018-02-17 21:28:46",
        "P_UPDATEDATE": "2018-02-17 21:28:46"
    },
    {
        "P_XBB_ID": "2030101",
        "P_EXPLAIN_SHORT": "\u30d5\u30ed\u30fc\u30ac\u30e9\u30c3\u30b7\u30e5\u306e\u77ed\u3044\u8aac\u660e",
        "P_EXTRA_TEXT": "14:\u6575\u5358\u4f53\u306b\u708e\u5c5e\u60275\u9023\u306e150%\u30c0\u30e1\u30fc\u30b8",
        "P_CREATEDATE": "2018-02-17 21:28:46",
        "P_UPDATEDATE": "2018-02-17 21:28:46"
    },
    {
        "P_XBB_ID": "2030201",
        "P_EXPLAIN_SHORT": "\u30b0\u30ec\u30a4\u30f4\u30b9\u30c8\u30e9\u30a4\u30af\u306e\u77ed\u3044\u8aac\u660e",
        "P_EXTRA_TEXT": "14:\u6575\u5358\u4f53\u306b\u708e\u5c5e\u60275\u9023\u306e130%\u30c0\u30e1\u30fc\u30b8,\n1:\u6575\u5358\u4f53\u309250%\u306e\u78ba\u7387\u30672\u30bf\u30fc\u30f3\u3001\u602a\u6211\u30fb\u5f31\u4f53\u306b\u3059\u308b",
        "P_CREATEDATE": "2018-02-17 21:28:46",
        "P_UPDATEDATE": "2018-02-17 21:28:46"
    }
]