[
    {
        "P_XBB_ID": "200014",
        "P_EXPLAIN_SHORT": "\u8987\u714c\u306e\u7ffc\uff1c\u30a4\u30b0\u30cb\u30b9\u30fb\u30ec\u30a4\u30ba\uff1e\u306e\u30d5\u30ec\u30fc\u30d0\u30fc\u30c6\u30ad\u30b9\u30c8\u3002\n\u8987\u714c\u306e\u7ffc\uff1c\u30a4\u30b0\u30cb\u30b9\u30fb\u30ec\u30a4\u30ba\uff1e\u306f\u3007\u4eba\u306e\u7d46\u306e\u529b\u306b\u3088\u308a\u767a\u751f\u3057\u305f\u30a8\u30cd\u30eb\u30ae\u30fc\u304c\u3046\u3093\u305f\u3089\u304b\u3093\u305f\u3089",
        "P_EXTRA_TEXT": "14:\u6575\u5168\u4f53\u306b\u708e\u5c5e\u6027\u5408\u8a0817\u9023\u306e\u5408\u8a08320%\u30c0\u30e1\u30fc\u30b8,\n4:\u6575\u5168\u4f53\u309260%\u306e\u78ba\u7387\u3067\u708e\u50b7\u72b6\u614b\u306b\u3059\u308b,\n1:\u5473\u65b9\u5168\u4f53\u306b3\u30bf\u30fc\u30f3\u3001\u653b\u6483\u529b\u309230%\u30a2\u30c3\u30d7",
        "P_CREATEDATE": "2018-01-27 21:28:55",
        "P_UPDATEDATE": "2018-01-27 21:28:55"
    },
    {
        "P_XBB_ID": "200024",
        "P_EXPLAIN_SHORT": "\u30f4\u30a7\u30fc\u30c0\u6d41\u8056\u5bfe\u5263\u300e\u30ea\u30ac\u30e6\u30fc\u30b9\u300f\u306e\u30d5\u30ec\u30fc\u30d0\u30fc\u30c6\u30ad\u30b9\u30c8\u3002\n\u30f4\u30a7\u30fc\u30c0\u6d41\u8056\u5bfe\u5263\u300e\u30ea\u30ac\u30e6\u30fc\u30b9\u300f\u306f\u3007\u4eba\u306e\u7d46\u306e\u529b\u306b\u3088\u308a\u767a\u751f\u3057\u305f\u30a8\u30cd\u30eb\u30ae\u30fc\u304c\u3046\u3093\u305f\u3089\u304b\u3093\u305f\u3089",
        "P_EXTRA_TEXT": "14:\u6575\u4e00\u5217\u306b\u6a39\u30fb\u5149\u5c5e\u6027\u5408\u8a0814\u9023\u306e380%\u30c0\u30e1\u30fc\u30b8,\n1:\u5473\u65b9\u5168\u4f53\u306b3\u30bf\u30fc\u30f3\u3001\u9632\u5fa1\u529b\u309230%\u30a2\u30c3\u30d7,\n7:\u5473\u65b9\u5168\u4f53\u306b3\u30bf\u30fc\u30f3\u3001\u30bf\u30fc\u30f3\u6bce\u306bHP\u30922000\u301c2500\u56de\u5fa9",
        "P_CREATEDATE": "2018-01-27 21:28:55",
        "P_UPDATEDATE": "2018-01-27 21:28:55"
    },
    {
        "P_XBB_ID": "200034",
        "P_EXPLAIN_SHORT": "\u30b0\u30ea\u30e0\u30ed\u30fc\u30c9\u30fb\u30d0\u30bf\u30d5\u30e9\u30a4\u306e\u30d5\u30ec\u30fc\u30d0\u30fc\u30c6\u30ad\u30b9\u30c8\u3002\n\u30b0\u30ea\u30e0\u30ed\u30fc\u30c9\u30fb\u30d0\u30bf\u30d5\u30e9\u30a4\u306f\u3007\u4eba\u306e\u7d46\u306e\u529b\u306b\u3088\u308a\u767a\u751f\u3057\u305f\u30a8\u30cd\u30eb\u30ae\u30fc\u304c\u3046\u3093\u305f\u3089\u304b\u3093\u305f\u3089",
        "P_EXTRA_TEXT": "14:\u6575\u5168\u4f53\u306b\u95c7\u5c5e\u6027\u5408\u8a0822\u9023\u306e320%\u30c0\u30e1\u30fc\u30b8,\n4:\u6575\u5168\u4f53\u309250%\u306e\u78ba\u7387\u3067\u9b45\u4e86\u72b6\u614b\u306b\u3059\u308b,\n11:\u5473\u65b9\u5168\u4f53\u306b3\u30bf\u30fc\u30f3\u3001\u30b9\u30d1\u30fc\u30af\u30c0\u30e1\u30fc\u30b8\u309230%\u30a2\u30c3\u30d7",
        "P_CREATEDATE": "2018-01-27 21:28:55",
        "P_UPDATEDATE": "2018-01-27 21:28:55"
    },
    {
        "P_XBB_ID": "200044",
        "P_EXPLAIN_SHORT": "\u30bb\u30a4\u30af\u30ea\u30c3\u30c9\u30b9\u30ec\u30a4\u30f4\u306e\u30d5\u30ec\u30fc\u30d0\u30fc\u30c6\u30ad\u30b9\u30c8\u3002\n\u30bb\u30a4\u30af\u30ea\u30c3\u30c9\u30b9\u30ec\u30a4\u30f4\u306f\u3007\u4eba\u306e\u7d46\u306e\u529b\u306b\u3088\u308a\u767a\u751f\u3057\u305f\u30a8\u30cd\u30eb\u30ae\u30fc\u304c\u3046\u3093\u305f\u3089\u304b\u3093\u305f\u3089",
        "P_EXTRA_TEXT": "14:\u6575\u5168\u4f53\u306b\u5149\u30fb\u95c7\u5c5e\u6027\u5408\u8a0820\u9023\u306e320%\u30c0\u30e1\u30fc\u30b8,\n11:\u5473\u65b9\u5168\u4f53\u306b3\u30bf\u30fc\u30f3\u3001\u30b9\u30d1\u30fc\u30af\u30c0\u30e1\u30fc\u30b8\u309230%\u30a2\u30c3\u30d7,\n13:\u5473\u65b9\u5168\u4f53\u306b3\u30bf\u30fc\u30f3\u3001\u653b\u6483BB\u306e\u5a01\u529b\u309230%\u30a2\u30c3\u30d7",
        "P_CREATEDATE": "2018-01-27 21:28:55",
        "P_UPDATEDATE": "2018-01-27 21:28:55"
    },
    {
        "P_XBB_ID": "200054",
        "P_EXPLAIN_SHORT": "\u30af\u30ea\u30e0\u30be\u30f3\u30fb\u30b9\u30c8\u30e9\u30a4\u30af\u306e\u30d5\u30ec\u30fc\u30d0\u30fc\u30c6\u30ad\u30b9\u30c8\u3002\n\u30af\u30ea\u30e0\u30be\u30f3\u30fb\u30b9\u30c8\u30e9\u30a4\u30af\u306f\u3007\u4eba\u306e\u7d46\u306e\u529b\u306b\u3088\u308a\u767a\u751f\u3057\u305f\u30a8\u30cd\u30eb\u30ae\u30fc\u304c\u3046\u3093\u305f\u3089\u304b\u3093\u305f\u3089",
        "P_EXTRA_TEXT": "14:\u6575\u5358\u4f53\u306b\u708e\u30fb\u95c7\u5c5e\u6027\u5408\u8a0830\u9023\u306e540%\u30c0\u30e1\u30fc\u30b8,\n4:\u6575\u5358\u4f53\u3092100%\u306e\u78ba\u7387\u3067\u6df7\u4e71\u72b6\u614b\u306b\u3059\u308b,\n2:\u5473\u65b9\u5168\u4f53\u306b3\u30bf\u30fc\u30f3\u3001\u30af\u30ea\u30c6\u30a3\u30ab\u30eb\u30c0\u30e1\u30fc\u30b8\u309230%\u30a2\u30c3\u30d7,\n2:\u5473\u65b9\u5168\u4f53\u306b3\u30bf\u30fc\u30f3\u3001\u30af\u30ea\u30c6\u30a3\u30ab\u30eb\u7387\u309230%\u30a2\u30c3\u30d7",
        "P_CREATEDATE": "2018-01-27 21:28:55",
        "P_UPDATEDATE": "2018-01-27 21:28:55"
    },
    {
        "P_XBB_ID": "200064",
        "P_EXPLAIN_SHORT": "\u30c0\u30d6\u30eb\u30b9\u30af\u30e9\u30c3\u30c1\u306e\u30d5\u30ec\u30fc\u30d0\u30fc\u30c6\u30ad\u30b9\u30c8\u3002\n\u30c0\u30d6\u30eb\u30b9\u30af\u30e9\u30c3\u30c1\u306f\u3007\u4eba\u306e\u7d46\u306e\u529b\u306b\u3088\u308a\u767a\u751f\u3057\u305f\u30a8\u30cd\u30eb\u30ae\u30fc\u304c\u3046\u3093\u305f\u3089\u304b\u3093\u305f\u3089",
        "P_EXTRA_TEXT": "14:\u6575\u5358\u4f53\u306b\u96f7\u5c5e\u6027\u5408\u8a0817\u9023\u306e540%\u30c0\u30e1\u30fc\u30b8,\n4:\u6575\u5358\u4f53\u3092100%\u306e\u78ba\u7387\u3067\u9ebb\u75fa\u72b6\u614b\u306b\u3059\u308b,\n3:\u5473\u65b9\u5168\u4f53\u306b3\u30bf\u30fc\u30f3\u3001BC\u51fa\u73fe\u7387\u309230%\u30a2\u30c3\u30d7",
        "P_CREATEDATE": "2018-01-27 21:28:55",
        "P_UPDATEDATE": "2018-01-27 21:28:55"
    },
    {
        "P_XBB_ID": "200074",
        "P_EXPLAIN_SHORT": "\u5275\u6a39\u306e\u8056\u89e3\u306e\u30d5\u30ec\u30fc\u30d0\u30fc\u30c6\u30ad\u30b9\u30c8\u3002\n\u5275\u6a39\u306e\u8056\u89e3\u306f\u3007\u4eba\u306e\u7d46\u306e\u529b\u306b\u3088\u308a\u767a\u751f\u3057\u305f\u30a8\u30cd\u30eb\u30ae\u30fc\u304c\u3046\u3093\u305f\u3089\u304b\u3093\u305f\u3089",
        "P_EXTRA_TEXT": "7:\u5473\u65b9\u5168\u4f53\u306eHP\u30923500\u301c4000\u56de\u5fa9,\n5:\u5473\u65b9\u5168\u4f53\u306e\u6bd2\u30fb\u602a\u6211\u30fb\u5f31\u4f53\u30fb\u96d1\u5ff5\u30fb\u865a\u8131\u30fb\u75c5\u6c17\u30fb\u9ebb\u75fa\u30fb\u546a\u3044\u30fb\u5e7b\u899a\u30fb\u6df7\u4e71\u30fb\u9b45\u4e86\u3092\u56de\u5fa9",
        "P_CREATEDATE": "2018-01-27 21:28:55",
        "P_UPDATEDATE": "2018-01-27 21:28:55"
    },
    {
        "P_XBB_ID": "200084",
        "P_EXPLAIN_SHORT": "\u30af\u30ea\u30b9\u30bf\u30eb\u30fb\u30b0\u30ec\u30a4\u30b7\u30a2\u306e\u30d5\u30ec\u30fc\u30d0\u30fc\u30c6\u30ad\u30b9\u30c8\u3002\n\u30af\u30ea\u30b9\u30bf\u30eb\u30fb\u30b0\u30ec\u30a4\u30b7\u30a2\u306f\u3007\u4eba\u306e\u7d46\u306e\u529b\u306b\u3088\u308a\u767a\u751f\u3057\u305f\u30a8\u30cd\u30eb\u30ae\u30fc\u304c\u3046\u3093\u305f\u3089\u304b\u3093\u305f\u3089",
        "P_EXTRA_TEXT": "14:\u6575\u4e00\u5217\u306b\u6c34\u5c5e\u6027\u5408\u8a0820\u9023\u306e380%\u30c0\u30e1\u30fc\u30b8,\n4:\u6575\u4e00\u5217\u309280%\u306e\u78ba\u7387\u3067\u51cd\u50b7\u72b6\u614b\u306b\u3059\u308b,\n7:\u5473\u65b9\u5168\u4f53\u306b3\u30bf\u30fc\u30f3\u3001\u30bf\u30fc\u30f3\u6bce\u306bHP\u30922000\u301c2500\u56de\u5fa9,\n13:\u5473\u65b9\u5168\u4f53\u306b3\u30bf\u30fc\u30f3\u3001\u901a\u5e38\u653b\u6483\u306eHIT\u6570\u30921\u5897\u52a0",
        "P_CREATEDATE": "2018-01-27 21:28:55",
        "P_UPDATEDATE": "2018-01-27 21:28:55"
    },
    {
        "P_XBB_ID": "200094",
        "P_EXPLAIN_SHORT": "\u5929\u5730\u8f5f\u96f7\u306e\u30d5\u30ec\u30fc\u30d0\u30fc\u30c6\u30ad\u30b9\u30c8\u3002\n\u5929\u5730\u8f5f\u96f7\u306f\u3007\u4eba\u306e\u7d46\u306e\u529b\u306b\u3088\u308a\u767a\u751f\u3057\u305f\u30a8\u30cd\u30eb\u30ae\u30fc\u304c\u3046\u3093\u305f\u3089\u304b\u3093\u305f\u3089",
        "P_EXTRA_TEXT": "14:\u6575\u5168\u4f53\u306b\u96f7\u5c5e\u6027\u5408\u8a0820\u9023\u306e320%\u30c0\u30e1\u30fc\u30b8,\n4:\u6575\u5168\u4f53\u309260%\u306e\u78ba\u7387\u3067\u9ebb\u75fa\u30fb\u611f\u96fb\u72b6\u614b\u306b\u3059\u308b,\n11:\u5473\u65b9\u5168\u4f53\u306b3\u30bf\u30fc\u30f3\u3001\u30b9\u30d1\u30fc\u30af\u30c0\u30e1\u30fc\u30b8\u309230%\u30a2\u30c3\u30d7",
        "P_CREATEDATE": "2018-01-27 21:28:55",
        "P_UPDATEDATE": "2018-01-27 21:28:55"
    },
    {
        "P_XBB_ID": "200104",
        "P_EXPLAIN_SHORT": "\u9ed2\u9a0e\u7149\u67b6\u885d\u306e\u30d5\u30ec\u30fc\u30d0\u30fc\u30c6\u30ad\u30b9\u30c8\u3002\n\u9ed2\u9a0e\u7149\u67b6\u885d\u306f\u3007\u4eba\u306e\u7d46\u306e\u529b\u306b\u3088\u308a\u767a\u751f\u3057\u305f\u30a8\u30cd\u30eb\u30ae\u30fc\u304c\u3046\u3093\u305f\u3089\u304b\u3093\u305f\u3089",
        "P_EXTRA_TEXT": "14:\u6575\u5358\u4f53\u306b\u95c7\u5c5e\u6027\u5408\u8a0816\u9023\u306e540%\u30c0\u30e1\u30fc\u30b8,\n4:\u6575\u5358\u4f53\u3092100%\u306e\u78ba\u7387\u3067\u5f31\u4f53\u30fb\u96d1\u5ff5\u72b6\u614b\u306b\u3059\u308b,\n1:\u5473\u65b9\u5168\u4f53\u306b3\u30bf\u30fc\u30f3\u3001\u9632\u5fa1\u529b\u309230%\u30a2\u30c3\u30d7,\n1:3\u30bf\u30fc\u30f3\u3001\u95c7\u5c5e\u6027\u306e\u653b\u6483\u529b\u30fb\u9632\u5fa1\u529b\u309230%\u30a2\u30c3\u30d7",
        "P_CREATEDATE": "2018-01-27 21:28:55",
        "P_UPDATEDATE": "2018-01-27 21:28:55"
    },
    {
        "P_XBB_ID": "200114",
        "P_EXPLAIN_SHORT": "\u30d6\u30ec\u30a4\u30d6\u30c4\u30a4\u30f3\u30ba\u306e\u30d5\u30ec\u30fc\u30d0\u30fc\u30c6\u30ad\u30b9\u30c8\u3002\n\u30d6\u30ec\u30a4\u30d6\u30c4\u30a4\u30f3\u30ba\u306f\u3007\u4eba\u306e\u7d46\u306e\u529b\u306b\u3088\u308a\u767a\u751f\u3057\u305f\u30a8\u30cd\u30eb\u30ae\u30fc\u304c\u3046\u3093\u305f\u3089\u304b\u3093\u305f\u3089",
        "P_EXTRA_TEXT": "14:\u6575\u4e00\u5217\u306b\u5149\u30fb\u95c7\u5c5e\u6027\u5408\u8a0818\u9023\u306e340%\u30c0\u30e1\u30fc\u30b8,\n4:\u6575\u4e00\u5217\u309280%\u306e\u78ba\u7387\u3067\u602a\u6211\u30fb\u865a\u8131\u72b6\u614b\u306b\u3059\u308b,\n2:\u5473\u65b9\u5168\u4f53\u306b3\u30bf\u30fc\u30f3\u3001\u30af\u30ea\u30c6\u30a3\u30ab\u30eb\u30c0\u30e1\u30fc\u30b8\u309230%\u30a2\u30c3\u30d7",
        "P_CREATEDATE": "2018-01-27 21:28:55",
        "P_UPDATEDATE": "2018-01-27 21:28:55"
    },
    {
        "P_XBB_ID": "200124",
        "P_EXPLAIN_SHORT": "\u7fa9\u8cca\u30bc\u30eb\u30ca\u30a4\u30c8\u3068\u8cde\u91d1\u7a3c\u304e\u306e\u30d5\u30ec\u30fc\u30d0\u30fc\u30c6\u30ad\u30b9\u30c8\u3002\n\u7fa9\u8cca\u30bc\u30eb\u30ca\u30a4\u30c8\u3068\u8cde\u91d1\u7a3c\u304e\u306f\u3007\u4eba\u306e\u7d46\u306e\u529b\u306b\u3088\u308a\u767a\u751f\u3057\u305f\u30a8\u30cd\u30eb\u30ae\u30fc\u304c\u3046\u3093\u305f\u3089\u304b\u3093\u305f\u3089",
        "P_EXTRA_TEXT": "14:\u6575\u5168\u4f53\u306b\u6a39\u30fb\u96f7\u5c5e\u6027\u5408\u8a0828\u9023\u306e320%\u30c0\u30e1\u30fc\u30b8,\n3:\u5473\u65b9\u5168\u4f53\u306b3\u30bf\u30fc\u30f3\u3001BC\u30fbHC\u30fb\u30bc\u30eb\u30fb\u30a2\u30a4\u30c6\u30e0\u51fa\u73fe\u7387\u3092\uff4e%\u30a2\u30c3\u30d7",
        "P_CREATEDATE": "2018-01-27 21:28:55",
        "P_UPDATEDATE": "2018-01-27 21:28:55"
    },
    {
        "P_XBB_ID": "200134",
        "P_EXPLAIN_SHORT": "\u8b00\u7114\u6607\u96f7\u306e\u9663\u306e\u30d5\u30ec\u30fc\u30d0\u30fc\u30c6\u30ad\u30b9\u30c8\u3002\n\u8b00\u7114\u6607\u96f7\u306e\u9663\u306f\u3007\u4eba\u306e\u7d46\u306e\u529b\u306b\u3088\u308a\u767a\u751f\u3057\u305f\u30a8\u30cd\u30eb\u30ae\u30fc\u304c\u3046\u3093\u305f\u3089\u304b\u3093\u305f\u3089",
        "P_EXTRA_TEXT": "1:\u5473\u65b9\u5168\u4f53\u306b3\u30bf\u30fc\u30f3\u3001\u653b\u6483\u529b\u309230%\u30a2\u30c3\u30d7,\n11:\u5473\u65b9\u5168\u4f53\u306b3\u30bf\u30fc\u30f3\u3001\u30b9\u30d1\u30fc\u30af\u30c0\u30e1\u30fc\u30b8\u309230%\u30a2\u30c3\u30d7,\n6:\u5473\u65b9\u5168\u4f53\u306b3\u30bf\u30fc\u30f3\u3001\u30bf\u30fc\u30f3\u6bce\u306bBB\u30b2\u30fc\u30b8\u3092800\u5897\u52a0",
        "P_CREATEDATE": "2018-01-27 21:28:55",
        "P_UPDATEDATE": "2018-01-27 21:28:55"
    },
    {
        "P_XBB_ID": "200144",
        "P_EXPLAIN_SHORT": "\u7d76\u76fe\u306e\u6148\u611b\u306e\u30d5\u30ec\u30fc\u30d0\u30fc\u30c6\u30ad\u30b9\u30c8\u3002\n\u7d76\u76fe\u306e\u6148\u611b\u306f\u3007\u4eba\u306e\u7d46\u306e\u529b\u306b\u3088\u308a\u767a\u751f\u3057\u305f\u30a8\u30cd\u30eb\u30ae\u30fc\u304c\u3046\u3093\u305f\u3089\u304b\u3093\u305f\u3089",
        "P_EXTRA_TEXT": "1:\u5473\u65b9\u5168\u4f53\u306b3\u30bf\u30fc\u30f3\u3001\u9632\u5fa1\u529b\u30fb\u9b54\u9632\u529b\u309230%\u30a2\u30c3\u30d7,\n5:\u5473\u65b9\u5168\u4f53\u306b3\u30bf\u30fc\u30f3\u3001\u6bd2\u30fb\u602a\u6211\u30fb\u5f31\u4f53\u30fb\u96d1\u5ff5\u30fb\u865a\u8131\u30fb\u75c5\u6c17\u30fb\u9ebb\u75fa\u30fb\u546a\u3044\u30fb\u5e7b\u899a\u30fb\u6df7\u4e71\u30fb\u9b45\u4e86\u3092\u56de\u5fa9\u3092\u7121\u52b9",
        "P_CREATEDATE": "2018-01-27 21:28:55",
        "P_UPDATEDATE": "2018-01-27 21:28:55"
    },
    {
        "P_XBB_ID": "200154",
        "P_EXPLAIN_SHORT": "\u8056\u53e1\u306e\u30a8\u30af\u30b9\u30d7\u30ea\u30b1\u30a4\u30b7\u30e7\u30f3\u306e\u30d5\u30ec\u30fc\u30d0\u30fc\u30c6\u30ad\u30b9\u30c8\u3002\n\u8056\u53e1\u306e\u30a8\u30af\u30b9\u30d7\u30ea\u30b1\u30a4\u30b7\u30e7\u30f3\u306f\u3007\u4eba\u306e\u7d46\u306e\u529b\u306b\u3088\u308a\u767a\u751f\u3057\u305f\u30a8\u30cd\u30eb\u30ae\u30fc\u304c\u3046\u3093\u305f\u3089\u304b\u3093\u305f\u3089",
        "P_EXTRA_TEXT": "7:\u5473\u65b9\u5168\u4f53\u306eHP\u30923500\u301c4000\u56de\u5fa9,\n5:\u5473\u65b9\u5168\u4f53\u306e\u6bd2\u30fb\u602a\u6211\u30fb\u5f31\u4f53\u30fb\u96d1\u5ff5\u30fb\u865a\u8131\u30fb\u75c5\u6c17\u30fb\u9ebb\u75fa\u30fb\u546a\u3044\u30fb\u5e7b\u899a\u30fb\u6df7\u4e71\u30fb\u9b45\u4e86\u3092\u56de\u5fa9",
        "P_CREATEDATE": "2018-01-27 21:28:55",
        "P_UPDATEDATE": "2018-01-27 21:28:55"
    },
    {
        "P_XBB_ID": "200164",
        "P_EXPLAIN_SHORT": "\u30d5\u30a3\u30eb\u30a2\u30fc\u30e0\u30af\u30ed\u30b9\u306e\u30d5\u30ec\u30fc\u30d0\u30fc\u30c6\u30ad\u30b9\u30c8\u3002\n\u30d5\u30a3\u30eb\u30a2\u30fc\u30e0\u30af\u30ed\u30b9\u306f\u3007\u4eba\u306e\u7d46\u306e\u529b\u306b\u3088\u308a\u767a\u751f\u3057\u305f\u30a8\u30cd\u30eb\u30ae\u30fc\u304c\u3046\u3093\u305f\u3089\u304b\u3093\u305f\u3089",
        "P_EXTRA_TEXT": "14:\u6575\u5358\u4f53\u306b\u708e\u30fb\u5149\u5c5e\u6027\u5408\u8a0822\u9023\u306e600%\u30c0\u30e1\u30fc\u30b8,\n4:\u6575\u5358\u4f53\u3092\u5e7b\u899a\u72b6\u614b\u306b\u3059\u308b",
        "P_CREATEDATE": "2018-01-27 21:28:55",
        "P_UPDATEDATE": "2018-01-27 21:28:55"
    },
    {
        "P_XBB_ID": "200174",
        "P_EXPLAIN_SHORT": "\u30b5\u30f3\u30af\u30aa\u30fc\u30ec\u30c1\u30e3\u30fc\u30b8\u306e\u30d5\u30ec\u30fc\u30d0\u30fc\u30c6\u30ad\u30b9\u30c8\u3002\n\u30b5\u30f3\u30af\u30aa\u30fc\u30ec\u30c1\u30e3\u30fc\u30b8\u306f\u3007\u4eba\u306e\u7d46\u306e\u529b\u306b\u3088\u308a\u767a\u751f\u3057\u305f\u30a8\u30cd\u30eb\u30ae\u30fc\u304c\u3046\u3093\u305f\u3089\u304b\u3093\u305f\u3089",
        "P_EXTRA_TEXT": "14:\u6575\u5168\u4f53\u306b\u708e\u30fb\u6a39\u5c5e\u6027\u5408\u8a0819\u9023\u306e320%\u30c0\u30e1\u30fc\u30b8,\n6:\u5473\u65b9\u5168\u4f53\u306b3\u30bf\u30fc\u30f3\u3001BC\u7372\u5f97\u6642\u306e\u5897\u52a0\u91cf\u309230%\u30a2\u30c3\u30d7,\n7:\u5473\u65b9\u5168\u4f53\u306b3\u30bf\u30fc\u30f3\u3001\u30bf\u30fc\u30f3\u6bce\u306bHP\u30922000\u301c2500\u56de\u5fa9",
        "P_CREATEDATE": "2018-01-27 21:28:55",
        "P_UPDATEDATE": "2018-01-27 21:28:55"
    },
    {
        "P_XBB_ID": "200184",
        "P_EXPLAIN_SHORT": "\u7d76\u54c1\uff01\u4e0d\u6b7b\u9ce5\u6599\u7406\uff01\u306e\u30d5\u30ec\u30fc\u30d0\u30fc\u30c6\u30ad\u30b9\u30c8\u3002\n\u7d76\u54c1\uff01\u4e0d\u6b7b\u9ce5\u6599\u7406\uff01\u306f\u3007\u4eba\u306e\u7d46\u306e\u529b\u306b\u3088\u308a\u767a\u751f\u3057\u305f\u30a8\u30cd\u30eb\u30ae\u30fc\u304c\u3046\u3093\u305f\u3089\u304b\u3093\u305f\u3089",
        "P_EXTRA_TEXT": "1:\u5473\u65b9\u5168\u4f53\u306b3\u30bf\u30fc\u30f3\u3001\u653b\u6483\u529b\u309230%\u30a2\u30c3\u30d7,\n7:\u5473\u65b9\u5168\u4f53\u306b3\u30bf\u30fc\u30f3\u3001\u30bf\u30fc\u30f3\u6bce\u306bHP\u30922000\u301c2500\u56de\u5fa9",
        "P_CREATEDATE": "2018-01-27 21:28:55",
        "P_UPDATEDATE": "2018-01-27 21:28:55"
    },
    {
        "P_XBB_ID": "300014",
        "P_EXPLAIN_SHORT": "\u30a4\u30f3\u30f4\u30a9\u30fc\u30af\u30d6\u30ec\u30a4\u30b6\u30fc\u306e\u30d5\u30ec\u30fc\u30d0\u30fc\u30c6\u30ad\u30b9\u30c8\u3002\n\u30a4\u30f3\u30f4\u30a9\u30fc\u30af\u30d6\u30ec\u30a4\u30b6\u30fc\u306f\u3007\u4eba\u306e\u7d46\u306e\u529b\u306b\u3088\u308a\u767a\u751f\u3057\u305f\u30a8\u30cd\u30eb\u30ae\u30fc\u304c\u3046\u3093\u305f\u3089\u304b\u3093\u305f\u3089",
        "P_EXTRA_TEXT": "14:\u6575\u4e00\u5217\u306b\u708e\u30fb\u6c34\u30fb\u6a39\u30fb\u96f7\u5c5e\u6027\u5408\u8a0821\u9023\u306e380%\u30c0\u30e1\u30fc\u30b8,\n6:\u5473\u65b9\u5168\u4f53\u306b3\u30bf\u30fc\u30f3\u3001\u30bf\u30fc\u30f3\u6bce\u306bBB\u30b2\u30fc\u30b8\u3092800\u5897\u52a0",
        "P_CREATEDATE": "2018-01-27 21:28:55",
        "P_UPDATEDATE": "2018-01-27 21:28:55"
    },
    {
        "P_XBB_ID": "300024",
        "P_EXPLAIN_SHORT": "\u60a0\u4e45\u306e\u30bb\u30e9\u30d5\u30a3\u30ca\u30a4\u30c8\u306e\u30d5\u30ec\u30fc\u30d0\u30fc\u30c6\u30ad\u30b9\u30c8\u3002\n\u60a0\u4e45\u306e\u30bb\u30e9\u30d5\u30a3\u30ca\u30a4\u30c8\u306f\u3007\u4eba\u306e\u7d46\u306e\u529b\u306b\u3088\u308a\u767a\u751f\u3057\u305f\u30a8\u30cd\u30eb\u30ae\u30fc\u304c\u3046\u3093\u305f\u3089\u304b\u3093\u305f\u3089",
        "P_EXTRA_TEXT": "14:\u6575\u4e00\u5217\u306b\u6a39\u30fb\u5149\u30fb\u95c7\u5c5e\u6027\u5408\u8a0820\u9023\u306e570%\u30c0\u30e1\u30fc\u30b8,\n4:\u6575\u4e00\u5217\u309280%\u306e\u78ba\u7387\u3067\u6a39\u7e1b\u72b6\u614b\u306b\u3059\u308b\n3:\u5473\u65b9\u5168\u4f53\u306b3\u30bf\u30fc\u30f3\u3001BC\u30fbHC\u51fa\u73fe\u7387\u309230%\u30a2\u30c3\u30d7",
        "P_CREATEDATE": "2018-01-27 21:28:55",
        "P_UPDATEDATE": "2018-01-27 21:28:55"
    },
    {
        "P_XBB_ID": "300034",
        "P_EXPLAIN_SHORT": "\u30c7\u30a3\u30b9\u30bf\u30fc\u30d0\u30f3\u30b9\u306e\u30d5\u30ec\u30fc\u30d0\u30fc\u30c6\u30ad\u30b9\u30c8\u3002\n\u30c7\u30a3\u30b9\u30bf\u30fc\u30d0\u30f3\u30b9\u306f\u3007\u4eba\u306e\u7d46\u306e\u529b\u306b\u3088\u308a\u767a\u751f\u3057\u305f\u30a8\u30cd\u30eb\u30ae\u30fc\u304c\u3046\u3093\u305f\u3089\u304b\u3093\u305f\u3089",
        "P_EXTRA_TEXT": "14:\u6575\u5168\u4f53\u306b\u708e\u30fb\u6c34\u30fb\u96f7\u5c5e\u6027\u5408\u8a0818\u9023\u306e480%\u30c0\u30e1\u30fc\u30b8,\n4:\u6575\u5168\u4f53\u309260%\u306e\u78ba\u7387\u3067\u6bd2\u30fb\u602a\u6211\u72b6\u614b\u306b\u3059\u308b,\n1:\u5473\u65b9\u5168\u4f53\u306b3\u30bf\u30fc\u30f3\u3001\u653b\u6483\u529b\u309230%\u30a2\u30c3\u30d7",
        "P_CREATEDATE": "2018-01-27 21:28:55",
        "P_UPDATEDATE": "2018-01-27 21:28:55"
    },
    {
        "P_XBB_ID": "300044",
        "P_EXPLAIN_SHORT": "OPERATION DELTA\u306e\u30d5\u30ec\u30fc\u30d0\u30fc\u30c6\u30ad\u30b9\u30c8\u3002\nOPERATION DELTA\u306f\u3007\u4eba\u306e\u7d46\u306e\u529b\u306b\u3088\u308a\u767a\u751f\u3057\u305f\u30a8\u30cd\u30eb\u30ae\u30fc\u304c\u3046\u3093\u305f\u3089\u304b\u3093\u305f\u3089",
        "P_EXTRA_TEXT": "14:\u6575\u5168\u4f53\u306b\u5149\u30fb\u95c7\u5c5e\u6027\u5408\u8a0832\u9023\u306e480%\u30c0\u30e1\u30fc\u30b8,\n13:\u5473\u65b9\u5168\u4f53\u306b3\u30bf\u30fc\u30f3\u3001\u653b\u6483BB\u306e\u5a01\u529b\u309230%\u30a2\u30c3\u30d7,\n2:\u5473\u65b9\u5168\u4f53\u306b3\u30bf\u30fc\u30f3\u3001\u30af\u30ea\u30c6\u30a3\u30ab\u30eb\u7387\u309230%\u30a2\u30c3\u30d7",
        "P_CREATEDATE": "2018-01-27 21:28:55",
        "P_UPDATEDATE": "2018-01-27 21:28:55"
    },
    {
        "P_XBB_ID": "400014",
        "P_EXPLAIN_SHORT": "\u30d1\u30eb\u30df\u30ca\u306e\u8056\u9583\u306e\u30d5\u30ec\u30fc\u30d0\u30fc\u30c6\u30ad\u30b9\u30c8\u3002\n\u30d1\u30eb\u30df\u30ca\u306e\u8056\u9583\u306f\u3007\u4eba\u306e\u7d46\u306e\u529b\u306b\u3088\u308a\u767a\u751f\u3057\u305f\u30a8\u30cd\u30eb\u30ae\u30fc\u304c\u3046\u3093\u305f\u3089\u304b\u3093\u305f\u3089",
        "P_EXTRA_TEXT": "14:\u6575\u5358\u4f53\u306b\u708e\u30fb\u6c34\u30fb\u6a39\u30fb\u96f7\u5c5e\u6027\u5408\u8a0822\u9023\u306e1200%\u30c0\u30e1\u30fc\u30b8",
        "P_CREATEDATE": "2018-01-27 21:28:55",
        "P_UPDATEDATE": "2018-01-27 21:28:55"
    },
    {
        "P_XBB_ID": "400024",
        "P_EXPLAIN_SHORT": "\u30d5\u30a9\u30fc\u30b9\u30fb\u30aa\u30d6\u30fb\u30f4\u30a1\u30a4\u30b6\u30fc\u306e\u30d5\u30ec\u30fc\u30d0\u30fc\u30c6\u30ad\u30b9\u30c8\u3002\n\u30d5\u30a9\u30fc\u30b9\u30fb\u30aa\u30d6\u30fb\u30f4\u30a1\u30a4\u30b6\u30fc\u306f\u3007\u4eba\u306e\u7d46\u306e\u529b\u306b\u3088\u308a\u767a\u751f\u3057\u305f\u30a8\u30cd\u30eb\u30ae\u30fc\u304c\u3046\u3093\u305f\u3089\u304b\u3093\u305f\u3089",
        "P_EXTRA_TEXT": "14:\u6575\u5168\u4f53\u306b\u708e\u30fb\u6c34\u30fb\u6a39\u30fb\u96f7\u5c5e\u6027\u5408\u8a0823\u9023\u306e640%\u30c0\u30e1\u30fc\u30b8,\n1:\u5473\u65b9\u5168\u4f53\u306b3\u30bf\u30fc\u30f3\u3001\u653b\u6483\u529b\u30fb\u9632\u5fa1\u529b\u30fb\u9b54\u9632\u529b\u309230%\u30a2\u30c3\u30d7",
        "P_CREATEDATE": "2018-01-27 21:28:55",
        "P_UPDATEDATE": "2018-01-27 21:28:55"
    },
    {
        "P_XBB_ID": "500014",
        "P_EXPLAIN_SHORT": "\u300e\u79c1\u306e\u3042\u3068\u306b\u7d9a\u304d\u306a\u3055\u3044\uff01\uff01\u300f\u306e\u30d5\u30ec\u30fc\u30d0\u30fc\u30c6\u30ad\u30b9\u30c8\u3002\n\u300e\u79c1\u306e\u3042\u3068\u306b\u7d9a\u304d\u306a\u3055\u3044\uff01\uff01\u300f\u306f\u3007\u4eba\u306e\u7d46\u306e\u529b\u306b\u3088\u308a\u767a\u751f\u3057\u305f\u30a8\u30cd\u30eb\u30ae\u30fc\u304c\u3046\u3093\u305f\u3089\u304b\u3093\u305f\u3089",
        "P_EXTRA_TEXT": "14:\u6575\u5168\u4f53\u306b\u708e\u30fb\u6c34\u30fb\u6a39\u30fb\u96f7\u30fb\u95c7\u5c5e\u6027\u5408\u8a0832\u9023\u306e800%\u30c0\u30e1\u30fc\u30b8,\n1:\u5473\u65b9\u5168\u4f53\u306b3\u30bf\u30fc\u30f3\u3001\u653b\u6483\u529b\u309230%\u30a2\u30c3\u30d7",
        "P_CREATEDATE": "2018-01-27 21:28:55",
        "P_UPDATEDATE": "2018-01-27 21:28:55"
    },
    {
        "P_XBB_ID": "500024",
        "P_EXPLAIN_SHORT": "\u30b0\u30e9\u30c7\u30a3\u30aa\u30b9\u30fb\u30d5\u30a3\u30cb\u30c3\u30b7\u30e5\u306e\u30d5\u30ec\u30fc\u30d0\u30fc\u30c6\u30ad\u30b9\u30c8\u3002\n\u30b0\u30e9\u30c7\u30a3\u30aa\u30b9\u30fb\u30d5\u30a3\u30cb\u30c3\u30b7\u30e5\u306f\u3007\u4eba\u306e\u7d46\u306e\u529b\u306b\u3088\u308a\u767a\u751f\u3057\u305f\u30a8\u30cd\u30eb\u30ae\u30fc\u304c\u3046\u3093\u305f\u3089\u304b\u3093\u305f\u3089",
        "P_EXTRA_TEXT": "14:\u6575\u5168\u4f53\u306b\u5168\u5c5e\u6027\u5408\u8a0825\u9023\u306e1080%\u30c0\u30e1\u30fc\u30b8",
        "P_CREATEDATE": "2018-01-27 21:28:55",
        "P_UPDATEDATE": "2018-01-27 21:28:55"
    },
    {
        "P_XBB_ID": "600014",
        "P_EXPLAIN_SHORT": "\u516d\u82f1\u5e7b\u661f\u306e\u30d5\u30ec\u30fc\u30d0\u30fc\u30c6\u30ad\u30b9\u30c8\u3002\n\u516d\u82f1\u5e7b\u661f\u306f\u3007\u4eba\u306e\u7d46\u306e\u529b\u306b\u3088\u308a\u767a\u751f\u3057\u305f\u30a8\u30cd\u30eb\u30ae\u30fc\u304c\u3046\u3093\u305f\u3089\u304b\u3093\u305f\u3089",
        "P_EXTRA_TEXT": "14:\u6575\u5168\u4f53\u306b\u5168\u5c5e\u6027\u5408\u8a0820\u9023\u306e960%\u30c0\u30e1\u30fc\u30b8,\n1:\u5473\u65b9\u5168\u4f53\u306b3\u30bf\u30fc\u30f3\u3001\u5168\u5c5e\u6027\u306e\u5f31\u70b9\u30c0\u30e1\u30fc\u30b8\u309230%\u30a2\u30c3\u30d7,\n2:\u5473\u65b9\u5168\u4f53\u306b3\u30bf\u30fc\u30f3\u3001\u5168\u5c5e\u6027\u306e\u653b\u6483\u529b\u30fb\u9632\u5fa1\u529b\u30fb\u9b54\u9632\u529b\u309230%\u30a2\u30c3\u30d7",
        "P_CREATEDATE": "2018-01-27 21:28:55",
        "P_UPDATEDATE": "2018-01-27 21:28:55"
    },
    {
        "P_XBB_ID": "600024",
        "P_EXPLAIN_SHORT": "\u30ed\u30fc\u30c9\u30fb\u30c8\u30a5\u30fb\u30a8\u30eb\u30ac\u30a4\u30a2\u306e\u30d5\u30ec\u30fc\u30d0\u30fc\u30c6\u30ad\u30b9\u30c8\u3002\n\u30ed\u30fc\u30c9\u30fb\u30c8\u30a5\u30fb\u30a8\u30eb\u30ac\u30a4\u30a2\u306f\u3007\u4eba\u306e\u7d46\u306e\u529b\u306b\u3088\u308a\u767a\u751f\u3057\u305f\u30a8\u30cd\u30eb\u30ae\u30fc\u304c\u3046\u3093\u305f\u3089\u304b\u3093\u305f\u3089",
        "P_EXTRA_TEXT": "14:\u6575\u5168\u4f53\u306b\u5168\u5c5e\u6027\u5408\u8a0827\u9023\u306e960%\u30c0\u30e1\u30fc\u30b8,\n6:\u5473\u65b9\u5168\u4f53\u306b3\u30bf\u30fc\u30f3\u3001\u30bf\u30fc\u30f3\u6bce\u306bBB\u30b2\u30fc\u30b8\u3092800\u5897\u52a0,\n13:\u5473\u65b9\u5168\u4f53\u306b3\u30bf\u30fc\u30f3\u3001\u653b\u6483\u306b\u708e\u30fb\u6c34\u30fb\u6a39\u30fb\u96f7\u5c5e\u6027\u3092\u4ed8\u4e0e",
        "P_CREATEDATE": "2018-01-27 21:28:55",
        "P_UPDATEDATE": "2018-01-27 21:28:55"
    },
    {
        "P_XBB_ID": "600034",
        "P_EXPLAIN_SHORT": "\u5bb6\u65cf\u306e\u7d46\u306b\u3088\u308b\u6012\u6d9b\u306e\u9023\u7d9a\u653b\u6483\u3002\u76f8\u624b\u306b\u3068\u3063\u3066\u306f\u76f8\u5f53\u306e\u8105\u5a01\u3060\u304c\u3001\u52c7\u8005\u4e00\u5bb6\u306b\u3068\u3063\u3066\u306f\u30d4\u30af\u30cb\u30c3\u30af\u306e\u4f59\u8208\u306b\u904e\u304e\u306a\u3044\u306e\u304b\u3082\u3057\u308c\u306a\u3044\u2026\u3002",
        "P_EXTRA_TEXT": "14:\u6575\u5168\u4f53\u306b\u5168\u5c5e\u602728\u9023\u306e\u5408\u8a08960%\u30c0\u30e1\u30fc\u30b8,\n1:\u5473\u65b9\u5168\u4f53\u306b3\u30bf\u30fc\u30f3\u3001\u653b\u6483\u529b\u30fb\u9632\u5fa1\u529b\u30fb\u9b54\u9632\u529b\u309230%\u30a2\u30c3\u30d7,\n6:\u5473\u65b9\u5168\u4f53\u306b3\u30bf\u30fc\u30f3\u3001BC\u7372\u5f97\u6642\u306e\u5897\u52a0\u91cf\u309230%\u30a2\u30c3\u30d7,\n7:\u5473\u65b9\u5168\u4f53\u306eHP\u30923000\u301c3500\u56de\u5fa9",
        "P_CREATEDATE": "2018-01-27 21:28:55",
        "P_UPDATEDATE": "2018-01-27 21:28:55"
    },
    {
        "P_XBB_ID": "600040",
        "P_EXPLAIN_SHORT": "\u30aa\u30fc\u30eb\u30b9\u30bf\u30fc\u30a2\u30bf\u30c3\u30af\u306e\u30d5\u30ec\u30fc\u30d0\u30fc\u30c6\u30ad\u30b9\u30c8\u3002\n\u30aa\u30fc\u30eb\u30b9\u30bf\u30fc\u30a2\u30bf\u30c3\u30af\u306f\u3007\u4eba\u306e\u7d46\u306e\u529b\u306b\u3088\u308a\u767a\u751f\u3057\u305f\u30a8\u30cd\u30eb\u30ae\u30fc\u304c\u3046\u3093\u305f\u3089\u304b\u3093\u305f\u3089",
        "P_EXTRA_TEXT": "14:\u6575\u5168\u4f53\u306b\u5168\u5c5e\u6027\u5408\u8a0830\u9023\u306e500%\u30c0\u30e1\u30fc\u30b8",
        "P_CREATEDATE": "2018-01-27 21:28:55",
        "P_UPDATEDATE": "2018-01-27 21:28:55"
    },
    {
        "P_XBB_ID": "1010101",
        "P_EXPLAIN_SHORT": "\u30b0\u30a8\u30f3\u30d5\u30a1\u30f3\u30b0\u306e\u77ed\u3044\u8aac\u660e",
        "P_EXTRA_TEXT": "14:\u6575\u5358\u4f53\u306b\u5149\u5c5e\u60272\u9023\u306e120%\u30c0\u30e1\u30fc\u30b8",
        "P_CREATEDATE": "2018-01-27 21:28:55",
        "P_UPDATEDATE": "2018-01-27 21:28:55"
    },
    {
        "P_XBB_ID": "1010102",
        "P_EXPLAIN_SHORT": "\u30b0\u30a8\u30f3\u30d5\u30a1\u30f3\u30b0\u306e\u77ed\u3044\u8aac\u660e",
        "P_EXTRA_TEXT": "14:\u6575\u5358\u4f53\u306b\u5149\u5c5e\u60272\u9023\u306e130%\u30c0\u30e1\u30fc\u30b8",
        "P_CREATEDATE": "2018-01-27 21:28:55",
        "P_UPDATEDATE": "2018-01-27 21:28:55"
    },
    {
        "P_XBB_ID": "1010103",
        "P_EXPLAIN_SHORT": "\u30b0\u30a8\u30f3\u30d5\u30a1\u30f3\u30b0\u306e\u77ed\u3044\u8aac\u660e",
        "P_EXTRA_TEXT": "14:\u6575\u5358\u4f53\u306b\u5149\u5c5e\u60272\u9023\u306e130%\u30c0\u30e1\u30fc\u30b8,\n1:2\u30bf\u30fc\u30f3\u3001\u53ec\u559a\u5e2b\u306e\u653b\u6483\u529b\u30925%\u30a2\u30c3\u30d7",
        "P_CREATEDATE": "2018-01-27 21:28:55",
        "P_UPDATEDATE": "2018-01-27 21:28:55"
    },
    {
        "P_XBB_ID": "1010104",
        "P_EXPLAIN_SHORT": "\u30b0\u30a8\u30f3\u30d5\u30a1\u30f3\u30b0\u306e\u77ed\u3044\u8aac\u660e",
        "P_EXTRA_TEXT": "14:\u6575\u5358\u4f53\u306b\u5149\u5c5e\u60272\u9023\u306e140%\u30c0\u30e1\u30fc\u30b8,\n1:2\u30bf\u30fc\u30f3\u3001\u53ec\u559a\u5e2b\u306e\u653b\u6483\u529b\u30925%\u30a2\u30c3\u30d7",
        "P_CREATEDATE": "2018-01-27 21:28:55",
        "P_UPDATEDATE": "2018-01-27 21:28:55"
    },
    {
        "P_XBB_ID": "1010105",
        "P_EXPLAIN_SHORT": "\u30b0\u30a8\u30f3\u30d5\u30a1\u30f3\u30b0\u306e\u77ed\u3044\u8aac\u660e",
        "P_EXTRA_TEXT": "14:\u6575\u5358\u4f53\u306b\u5149\u5c5e\u60272\u9023\u306e140%\u30c0\u30e1\u30fc\u30b8,\n1:2\u30bf\u30fc\u30f3\u3001\u53ec\u559a\u5e2b\u306e\u653b\u6483\u529b\u30925%\u30a2\u30c3\u30d7",
        "P_CREATEDATE": "2018-01-27 21:28:55",
        "P_UPDATEDATE": "2018-01-27 21:28:55"
    },
    {
        "P_XBB_ID": "1010106",
        "P_EXPLAIN_SHORT": "\u30b0\u30a8\u30f3\u30d5\u30a1\u30f3\u30b0\u306e\u77ed\u3044\u8aac\u660e",
        "P_EXTRA_TEXT": "14:\u6575\u5358\u4f53\u306b\u5149\u5c5e\u60272\u9023\u306e140%\u30c0\u30e1\u30fc\u30b8,\n1:2\u30bf\u30fc\u30f3\u3001\u53ec\u559a\u5e2b\u306e\u653b\u6483\u529b\u309210%\u30a2\u30c3\u30d7",
        "P_CREATEDATE": "2018-01-27 21:28:55",
        "P_UPDATEDATE": "2018-01-27 21:28:55"
    },
    {
        "P_XBB_ID": "1020101",
        "P_EXPLAIN_SHORT": "\u26052_\u30ea\u30b6\u30fc\u30c9\u30d6\u30ec\u30b9_Lv1\u306e\u77ed\u3044\u8aac\u660e",
        "P_EXTRA_TEXT": "14:\u6575\u5358\u4f53\u306b\u5149\u5c5e\u60273\u9023\u306e130%\u30c0\u30e1\u30fc\u30b8",
        "P_CREATEDATE": "2018-01-27 21:28:55",
        "P_UPDATEDATE": "2018-01-27 21:28:55"
    },
    {
        "P_XBB_ID": "1020102",
        "P_EXPLAIN_SHORT": "\u26052_\u30ea\u30b6\u30fc\u30c9\u30d6\u30ec\u30b9_Lv2\u306e\u77ed\u3044\u8aac\u660e",
        "P_EXTRA_TEXT": "14:\u6575\u5358\u4f53\u306b\u5149\u5c5e\u60273\u9023\u306e140%\u30c0\u30e1\u30fc\u30b8",
        "P_CREATEDATE": "2018-01-27 21:28:55",
        "P_UPDATEDATE": "2018-01-27 21:28:55"
    },
    {
        "P_XBB_ID": "1020103",
        "P_EXPLAIN_SHORT": "\u26052_\u30ea\u30b6\u30fc\u30c9\u30d6\u30ec\u30b9_Lv3\u306e\u77ed\u3044\u8aac\u660e",
        "P_EXTRA_TEXT": "14:\u6575\u5358\u4f53\u306b\u5149\u5c5e\u60273\u9023\u306e140%\u30c0\u30e1\u30fc\u30b8,\n1:2\u30bf\u30fc\u30f3\u3001\u53ec\u559a\u5e2b\u306e\u653b\u6483\u529b\u309210%\u30a2\u30c3\u30d7",
        "P_CREATEDATE": "2018-01-27 21:28:55",
        "P_UPDATEDATE": "2018-01-27 21:28:55"
    },
    {
        "P_XBB_ID": "1020104",
        "P_EXPLAIN_SHORT": "\u26052_\u30ea\u30b6\u30fc\u30c9\u30d6\u30ec\u30b9_Lv4\u306e\u77ed\u3044\u8aac\u660e",
        "P_EXTRA_TEXT": "14:\u6575\u5358\u4f53\u306b\u5149\u5c5e\u60273\u9023\u306e150%\u30c0\u30e1\u30fc\u30b8,\n1:2\u30bf\u30fc\u30f3\u3001\u53ec\u559a\u5e2b\u306e\u653b\u6483\u529b\u309210%\u30a2\u30c3\u30d7",
        "P_CREATEDATE": "2018-01-27 21:28:55",
        "P_UPDATEDATE": "2018-01-27 21:28:55"
    },
    {
        "P_XBB_ID": "1020105",
        "P_EXPLAIN_SHORT": "\u26052_\u30ea\u30b6\u30fc\u30c9\u30d6\u30ec\u30b9_Lv5\u306e\u77ed\u3044\u8aac\u660e",
        "P_EXTRA_TEXT": "14:\u6575\u5358\u4f53\u306b\u5149\u5c5e\u60273\u9023\u306e150%\u30c0\u30e1\u30fc\u30b8,\n1:2\u30bf\u30fc\u30f3\u3001\u53ec\u559a\u5e2b\u306e\u653b\u6483\u529b\u309210%\u30a2\u30c3\u30d7",
        "P_CREATEDATE": "2018-01-27 21:28:55",
        "P_UPDATEDATE": "2018-01-27 21:28:55"
    },
    {
        "P_XBB_ID": "1020106",
        "P_EXPLAIN_SHORT": "\u26052_\u30ea\u30b6\u30fc\u30c9\u30d6\u30ec\u30b9_Lv6\u306e\u77ed\u3044\u8aac\u660e",
        "P_EXTRA_TEXT": "14:\u6575\u5358\u4f53\u306b\u5149\u5c5e\u60273\u9023\u306e150%\u30c0\u30e1\u30fc\u30b8,\n1:2\u30bf\u30fc\u30f3\u3001\u53ec\u559a\u5e2b\u306e\u653b\u6483\u529b\u309215%\u30a2\u30c3\u30d7",
        "P_CREATEDATE": "2018-01-27 21:28:55",
        "P_UPDATEDATE": "2018-01-27 21:28:55"
    },
    {
        "P_XBB_ID": "1020201",
        "P_EXPLAIN_SHORT": "\u26052_\u30d5\u30e9\u30a4\u30f3\u30b0\u30d6\u30ec\u30b9_Lv1\u306e\u77ed\u3044\u8aac\u660e",
        "P_EXTRA_TEXT": "14:\u6575\u4e00\u5217\u306b\u5149\u5c5e\u60274\u9023\u306e100%\u30c0\u30e1\u30fc\u30b8",
        "P_CREATEDATE": "2018-01-27 21:28:55",
        "P_UPDATEDATE": "2018-01-27 21:28:55"
    },
    {
        "P_XBB_ID": "1020202",
        "P_EXPLAIN_SHORT": "\u26052_\u30d5\u30e9\u30a4\u30f3\u30b0\u30d6\u30ec\u30b9_Lv2\u306e\u77ed\u3044\u8aac\u660e",
        "P_EXTRA_TEXT": "14:\u6575\u4e00\u5217\u306b\u5149\u5c5e\u60274\u9023\u306e110%\u30c0\u30e1\u30fc\u30b8",
        "P_CREATEDATE": "2018-01-27 21:28:55",
        "P_UPDATEDATE": "2018-01-27 21:28:55"
    },
    {
        "P_XBB_ID": "1020203",
        "P_EXPLAIN_SHORT": "\u26052_\u30d5\u30e9\u30a4\u30f3\u30b0\u30d6\u30ec\u30b9_Lv3\u306e\u77ed\u3044\u8aac\u660e",
        "P_EXTRA_TEXT": "14:\u6575\u4e00\u5217\u306b\u5149\u5c5e\u60274\u9023\u306e110%\u30c0\u30e1\u30fc\u30b8,\n4:\u6575\u4e00\u5217\u306b2\u30bf\u30fc\u30f3\u3001\u30bf\u30fc\u30f3\u7d42\u4e86\u6642\u306b\u5149\u5c5e\u6027\u8ffd\u52a0\u30c0\u30e1\u30fc\u30b8",
        "P_CREATEDATE": "2018-01-27 21:28:55",
        "P_UPDATEDATE": "2018-01-27 21:28:55"
    },
    {
        "P_XBB_ID": "1020204",
        "P_EXPLAIN_SHORT": "\u26052_\u30d5\u30e9\u30a4\u30f3\u30b0\u30d6\u30ec\u30b9_Lv4\u306e\u77ed\u3044\u8aac\u660e",
        "P_EXTRA_TEXT": "14:\u6575\u4e00\u5217\u306b\u5149\u5c5e\u60274\u9023\u306e120%\u30c0\u30e1\u30fc\u30b8,\n4:\u6575\u4e00\u5217\u306b2\u30bf\u30fc\u30f3\u3001\u30bf\u30fc\u30f3\u7d42\u4e86\u6642\u306b\u5149\u5c5e\u6027\u8ffd\u52a0\u30c0\u30e1\u30fc\u30b8",
        "P_CREATEDATE": "2018-01-27 21:28:55",
        "P_UPDATEDATE": "2018-01-27 21:28:55"
    },
    {
        "P_XBB_ID": "1020205",
        "P_EXPLAIN_SHORT": "\u26052_\u30d5\u30e9\u30a4\u30f3\u30b0\u30d6\u30ec\u30b9_Lv5\u306e\u77ed\u3044\u8aac\u660e",
        "P_EXTRA_TEXT": "14:\u6575\u4e00\u5217\u306b\u5149\u5c5e\u60274\u9023\u306e120%\u30c0\u30e1\u30fc\u30b8,\n4:\u6575\u4e00\u5217\u306b2\u30bf\u30fc\u30f3\u3001\u30bf\u30fc\u30f3\u7d42\u4e86\u6642\u306b\u5149\u5c5e\u6027\u8ffd\u52a0\u30c0\u30e1\u30fc\u30b8",
        "P_CREATEDATE": "2018-01-27 21:28:55",
        "P_UPDATEDATE": "2018-01-27 21:28:55"
    },
    {
        "P_XBB_ID": "1020206",
        "P_EXPLAIN_SHORT": "\u26052_\u30d5\u30e9\u30a4\u30f3\u30b0\u30d6\u30ec\u30b9_Lv6\u306e\u77ed\u3044\u8aac\u660e",
        "P_EXTRA_TEXT": "14:\u6575\u4e00\u5217\u306b\u5149\u5c5e\u60274\u9023\u306e120%\u30c0\u30e1\u30fc\u30b8,\n4:\u6575\u4e00\u5217\u306b2\u30bf\u30fc\u30f3\u3001\u30bf\u30fc\u30f3\u7d42\u4e86\u6642\u306b\u5149\u5c5e\u6027\u8ffd\u52a0\u30c0\u30e1\u30fc\u30b8",
        "P_CREATEDATE": "2018-01-27 21:28:55",
        "P_UPDATEDATE": "2018-01-27 21:28:55"
    },
    {
        "P_XBB_ID": "1030101",
        "P_EXPLAIN_SHORT": "\u26053_\u30ea\u30b6\u30fc\u30c9\u30d6\u30ec\u30b9_Lv1\u306e\u77ed\u3044\u8aac\u660e",
        "P_EXTRA_TEXT": "14:\u6575\u5358\u4f53\u306b\u5149\u5c5e\u60274\u9023\u306e140%\u30c0\u30e1\u30fc\u30b8",
        "P_CREATEDATE": "2018-01-27 21:28:55",
        "P_UPDATEDATE": "2018-01-27 21:28:55"
    },
    {
        "P_XBB_ID": "1030102",
        "P_EXPLAIN_SHORT": "\u26053_\u30ea\u30b6\u30fc\u30c9\u30d6\u30ec\u30b9_Lv2\u306e\u77ed\u3044\u8aac\u660e",
        "P_EXTRA_TEXT": "14:\u6575\u5358\u4f53\u306b\u5149\u5c5e\u60274\u9023\u306e150%\u30c0\u30e1\u30fc\u30b8",
        "P_CREATEDATE": "2018-01-27 21:28:55",
        "P_UPDATEDATE": "2018-01-27 21:28:55"
    },
    {
        "P_XBB_ID": "1030103",
        "P_EXPLAIN_SHORT": "\u26053_\u30ea\u30b6\u30fc\u30c9\u30d6\u30ec\u30b9_Lv3\u306e\u77ed\u3044\u8aac\u660e",
        "P_EXTRA_TEXT": "14:\u6575\u5358\u4f53\u306b\u5149\u5c5e\u60274\u9023\u306e150%\u30c0\u30e1\u30fc\u30b8,\n1:2\u30bf\u30fc\u30f3\u3001\u53ec\u559a\u5e2b\u306e\u653b\u6483\u529b\u309215%\u30a2\u30c3\u30d7",
        "P_CREATEDATE": "2018-01-27 21:28:55",
        "P_UPDATEDATE": "2018-01-27 21:28:55"
    },
    {
        "P_XBB_ID": "1030104",
        "P_EXPLAIN_SHORT": "\u26053_\u30ea\u30b6\u30fc\u30c9\u30d6\u30ec\u30b9_Lv4\u306e\u77ed\u3044\u8aac\u660e",
        "P_EXTRA_TEXT": "14:\u6575\u5358\u4f53\u306b\u5149\u5c5e\u60274\u9023\u306e160%\u30c0\u30e1\u30fc\u30b8,\n1:2\u30bf\u30fc\u30f3\u3001\u53ec\u559a\u5e2b\u306e\u653b\u6483\u529b\u309215%\u30a2\u30c3\u30d7",
        "P_CREATEDATE": "2018-01-27 21:28:55",
        "P_UPDATEDATE": "2018-01-27 21:28:55"
    },
    {
        "P_XBB_ID": "1030105",
        "P_EXPLAIN_SHORT": "\u26053_\u30ea\u30b6\u30fc\u30c9\u30d6\u30ec\u30b9_Lv5\u306e\u77ed\u3044\u8aac\u660e",
        "P_EXTRA_TEXT": "14:\u6575\u5358\u4f53\u306b\u5149\u5c5e\u60274\u9023\u306e160%\u30c0\u30e1\u30fc\u30b8,\n1:2\u30bf\u30fc\u30f3\u3001\u53ec\u559a\u5e2b\u306e\u653b\u6483\u529b\u309215%\u30a2\u30c3\u30d7",
        "P_CREATEDATE": "2018-01-27 21:28:55",
        "P_UPDATEDATE": "2018-01-27 21:28:55"
    },
    {
        "P_XBB_ID": "1030106",
        "P_EXPLAIN_SHORT": "\u26053_\u30ea\u30b6\u30fc\u30c9\u30d6\u30ec\u30b9_Lv6\u306e\u77ed\u3044\u8aac\u660e",
        "P_EXTRA_TEXT": "14:\u6575\u5358\u4f53\u306b\u5149\u5c5e\u60274\u9023\u306e160%\u30c0\u30e1\u30fc\u30b8,\n1:2\u30bf\u30fc\u30f3\u3001\u53ec\u559a\u5e2b\u306e\u653b\u6483\u529b\u309220%\u30a2\u30c3\u30d7",
        "P_CREATEDATE": "2018-01-27 21:28:55",
        "P_UPDATEDATE": "2018-01-27 21:28:55"
    },
    {
        "P_XBB_ID": "1030201",
        "P_EXPLAIN_SHORT": "\u26053_\u30d5\u30e9\u30a4\u30f3\u30b0\u30d6\u30ec\u30b9_Lv1\u306e\u77ed\u3044\u8aac\u660e",
        "P_EXTRA_TEXT": "14:\u6575\u4e00\u5217\u306b\u5149\u5c5e\u60275\u9023\u306e110%\u30c0\u30e1\u30fc\u30b8",
        "P_CREATEDATE": "2018-01-27 21:28:55",
        "P_UPDATEDATE": "2018-01-27 21:28:55"
    },
    {
        "P_XBB_ID": "1030202",
        "P_EXPLAIN_SHORT": "\u26053_\u30d5\u30e9\u30a4\u30f3\u30b0\u30d6\u30ec\u30b9_Lv2\u306e\u77ed\u3044\u8aac\u660e",
        "P_EXTRA_TEXT": "14:\u6575\u4e00\u5217\u306b\u5149\u5c5e\u60275\u9023\u306e120%\u30c0\u30e1\u30fc\u30b8",
        "P_CREATEDATE": "2018-01-27 21:28:55",
        "P_UPDATEDATE": "2018-01-27 21:28:55"
    },
    {
        "P_XBB_ID": "1030203",
        "P_EXPLAIN_SHORT": "\u26053_\u30d5\u30e9\u30a4\u30f3\u30b0\u30d6\u30ec\u30b9_Lv3\u306e\u77ed\u3044\u8aac\u660e",
        "P_EXTRA_TEXT": "14:\u6575\u4e00\u5217\u306b\u5149\u5c5e\u60275\u9023\u306e120%\u30c0\u30e1\u30fc\u30b8,\n4:\u6575\u4e00\u5217\u306b2\u30bf\u30fc\u30f3\u3001\u30bf\u30fc\u30f3\u7d42\u4e86\u6642\u306b\u5149\u5c5e\u6027\u8ffd\u52a0\u30c0\u30e1\u30fc\u30b8",
        "P_CREATEDATE": "2018-01-27 21:28:55",
        "P_UPDATEDATE": "2018-01-27 21:28:55"
    },
    {
        "P_XBB_ID": "1030204",
        "P_EXPLAIN_SHORT": "\u26053_\u30d5\u30e9\u30a4\u30f3\u30b0\u30d6\u30ec\u30b9_Lv4\u306e\u77ed\u3044\u8aac\u660e",
        "P_EXTRA_TEXT": "14:\u6575\u4e00\u5217\u306b\u5149\u5c5e\u60275\u9023\u306e130%\u30c0\u30e1\u30fc\u30b8,\n4:\u6575\u4e00\u5217\u306b2\u30bf\u30fc\u30f3\u3001\u30bf\u30fc\u30f3\u7d42\u4e86\u6642\u306b\u5149\u5c5e\u6027\u8ffd\u52a0\u30c0\u30e1\u30fc\u30b8",
        "P_CREATEDATE": "2018-01-27 21:28:55",
        "P_UPDATEDATE": "2018-01-27 21:28:55"
    },
    {
        "P_XBB_ID": "1030205",
        "P_EXPLAIN_SHORT": "\u26053_\u30d5\u30e9\u30a4\u30f3\u30b0\u30d6\u30ec\u30b9_Lv5\u306e\u77ed\u3044\u8aac\u660e",
        "P_EXTRA_TEXT": "14:\u6575\u4e00\u5217\u306b\u5149\u5c5e\u60275\u9023\u306e130%\u30c0\u30e1\u30fc\u30b8,\n4:\u6575\u4e00\u5217\u306b2\u30bf\u30fc\u30f3\u3001\u30bf\u30fc\u30f3\u7d42\u4e86\u6642\u306b\u5149\u5c5e\u6027\u8ffd\u52a0\u30c0\u30e1\u30fc\u30b8",
        "P_CREATEDATE": "2018-01-27 21:28:55",
        "P_UPDATEDATE": "2018-01-27 21:28:55"
    },
    {
        "P_XBB_ID": "1030206",
        "P_EXPLAIN_SHORT": "\u26053_\u30d5\u30e9\u30a4\u30f3\u30b0\u30d6\u30ec\u30b9_Lv6\u306e\u77ed\u3044\u8aac\u660e",
        "P_EXTRA_TEXT": "14:\u6575\u4e00\u5217\u306b\u5149\u5c5e\u60275\u9023\u306e130%\u30c0\u30e1\u30fc\u30b8,\n4:\u6575\u4e00\u5217\u306b2\u30bf\u30fc\u30f3\u3001\u30bf\u30fc\u30f3\u7d42\u4e86\u6642\u306b\u5149\u5c5e\u6027\u8ffd\u52a0\u30c0\u30e1\u30fc\u30b8",
        "P_CREATEDATE": "2018-01-27 21:28:55",
        "P_UPDATEDATE": "2018-01-27 21:28:55"
    },
    {
        "P_XBB_ID": "1030301",
        "P_EXPLAIN_SHORT": "\u26053_\u5168\u529b\u30d6\u30ec\u30b9_Lv1\u306e\u77ed\u3044\u8aac\u660e",
        "P_EXTRA_TEXT": "14:\u6575\u5168\u4f53\u306b\u5149\u5c5e\u60276\u9023\u306e100%\u30c0\u30e1\u30fc\u30b8",
        "P_CREATEDATE": "2018-01-27 21:28:55",
        "P_UPDATEDATE": "2018-01-27 21:28:55"
    },
    {
        "P_XBB_ID": "1030302",
        "P_EXPLAIN_SHORT": "\u26053_\u5168\u529b\u30d6\u30ec\u30b9_Lv2\u306e\u77ed\u3044\u8aac\u660e",
        "P_EXTRA_TEXT": "14:\u6575\u5168\u4f53\u306b\u5149\u5c5e\u60276\u9023\u306e110%\u30c0\u30e1\u30fc\u30b8",
        "P_CREATEDATE": "2018-01-27 21:28:55",
        "P_UPDATEDATE": "2018-01-27 21:28:55"
    },
    {
        "P_XBB_ID": "1030303",
        "P_EXPLAIN_SHORT": "\u26053_\u5168\u529b\u30d6\u30ec\u30b9_Lv3\u306e\u77ed\u3044\u8aac\u660e",
        "P_EXTRA_TEXT": "14:\u6575\u5168\u4f53\u306b\u5149\u5c5e\u60276\u9023\u306e110%\u30c0\u30e1\u30fc\u30b8,\n1:\u5473\u65b9\u5168\u4f53\u306eBB\u30b2\u30fc\u30b8\u3092100\u5897\u52a0",
        "P_CREATEDATE": "2018-01-27 21:28:55",
        "P_UPDATEDATE": "2018-01-27 21:28:55"
    },
    {
        "P_XBB_ID": "1030304",
        "P_EXPLAIN_SHORT": "\u26053_\u5168\u529b\u30d6\u30ec\u30b9_Lv4\u306e\u77ed\u3044\u8aac\u660e",
        "P_EXTRA_TEXT": "14:\u6575\u5168\u4f53\u306b\u5149\u5c5e\u60276\u9023\u306e120%\u30c0\u30e1\u30fc\u30b8,\n1:\u5473\u65b9\u5168\u4f53\u306eBB\u30b2\u30fc\u30b8\u3092100\u5897\u52a0",
        "P_CREATEDATE": "2018-01-27 21:28:55",
        "P_UPDATEDATE": "2018-01-27 21:28:55"
    },
    {
        "P_XBB_ID": "1030305",
        "P_EXPLAIN_SHORT": "\u26053_\u5168\u529b\u30d6\u30ec\u30b9_Lv5\u306e\u77ed\u3044\u8aac\u660e",
        "P_EXTRA_TEXT": "14:\u6575\u5168\u4f53\u306b\u5149\u5c5e\u60276\u9023\u306e120%\u30c0\u30e1\u30fc\u30b8,\n1:\u5473\u65b9\u5168\u4f53\u306eBB\u30b2\u30fc\u30b8\u3092100\u5897\u52a0",
        "P_CREATEDATE": "2018-01-27 21:28:55",
        "P_UPDATEDATE": "2018-01-27 21:28:55"
    },
    {
        "P_XBB_ID": "1030306",
        "P_EXPLAIN_SHORT": "\u26053_\u5168\u529b\u30d6\u30ec\u30b9_Lv6\u306e\u77ed\u3044\u8aac\u660e",
        "P_EXTRA_TEXT": "14:\u6575\u5168\u4f53\u306b\u5149\u5c5e\u60276\u9023\u306e120%\u30c0\u30e1\u30fc\u30b8,\n1:\u5473\u65b9\u5168\u4f53\u306eBB\u30b2\u30fc\u30b8\u3092200\u5897\u52a0",
        "P_CREATEDATE": "2018-01-27 21:28:55",
        "P_UPDATEDATE": "2018-01-27 21:28:55"
    },
    {
        "P_XBB_ID": "2010101",
        "P_EXPLAIN_SHORT": "\u26051_\u565b\u307f\u3064\u304d_Lv1\u306e\u77ed\u3044\u8aac\u660e",
        "P_EXTRA_TEXT": "14:\u6575\u5358\u4f53\u306b\u708e\u5c5e\u60272\u9023\u306e130%\u30c0\u30e1\u30fc\u30b8",
        "P_CREATEDATE": "2018-01-27 21:28:55",
        "P_UPDATEDATE": "2018-01-27 21:28:55"
    },
    {
        "P_XBB_ID": "2020101",
        "P_EXPLAIN_SHORT": "\u26052_\u565b\u307f\u3064\u304d_Lv1\u306e\u77ed\u3044\u8aac\u660e",
        "P_EXTRA_TEXT": "14:\u6575\u5358\u4f53\u306b\u708e\u5c5e\u60273\u9023\u306e140%\u30c0\u30e1\u30fc\u30b8",
        "P_CREATEDATE": "2018-01-27 21:28:55",
        "P_UPDATEDATE": "2018-01-27 21:28:55"
    },
    {
        "P_XBB_ID": "2030101",
        "P_EXPLAIN_SHORT": "\u26053_\u565b\u307f\u3064\u304d_Lv1\u306e\u77ed\u3044\u8aac\u660e",
        "P_EXTRA_TEXT": "14:\u6575\u5358\u4f53\u306b\u708e\u5c5e\u60273\u9023\u306e150%\u30c0\u30e1\u30fc\u30b8",
        "P_CREATEDATE": "2018-01-27 21:28:55",
        "P_UPDATEDATE": "2018-01-27 21:28:55"
    },
    {
        "P_XBB_ID": "2030201",
        "P_EXPLAIN_SHORT": "\u26053_\u6bd2\u7259_Lv1\u306e\u77ed\u3044\u8aac\u660e",
        "P_EXTRA_TEXT": "14:\u6575\u5358\u4f53\u306b\u708e\u5c5e\u60274\u9023\u306e130%\u30c0\u30e1\u30fc\u30b8,\n1:\u6575\u5358\u4f53\u309250%\u306e\u78ba\u7387\u3067\u602a\u6211\u30fb\u5f31\u4f53\u306b\u3059\u308b",
        "P_CREATEDATE": "2018-01-27 21:28:55",
        "P_UPDATEDATE": "2018-01-27 21:28:55"
    }
]