[
    {
        "EyS6u9kp": "1",
        "31YmCVJS": "1",
        "96Nxs2WQ": "0",
        "J3stQ7jd": "5",
        "P_PRIORITY": "1",
        "P_SCHEDULE_ID": "0"
    },
    {
        "EyS6u9kp": "2",
        "31YmCVJS": "1",
        "96Nxs2WQ": "1",
        "J3stQ7jd": "20",
        "P_PRIORITY": "1",
        "P_SCHEDULE_ID": "0"
    },
    {
        "EyS6u9kp": "3",
        "31YmCVJS": "1",
        "96Nxs2WQ": "2",
        "J3stQ7jd": "10",
        "P_PRIORITY": "1",
        "P_SCHEDULE_ID": "0"
    },
    {
        "EyS6u9kp": "4",
        "31YmCVJS": "1",
        "96Nxs2WQ": "3",
        "J3stQ7jd": "5",
        "P_PRIORITY": "1",
        "P_SCHEDULE_ID": "0"
    },
    {
        "EyS6u9kp": "5",
        "31YmCVJS": "1000",
        "96Nxs2WQ": "1",
        "J3stQ7jd": "20",
        "P_PRIORITY": "1",
        "P_SCHEDULE_ID": "0"
    },
    {
        "EyS6u9kp": "6",
        "31YmCVJS": "1001",
        "96Nxs2WQ": "1",
        "J3stQ7jd": "20",
        "P_PRIORITY": "1",
        "P_SCHEDULE_ID": "0"
    },
    {
        "EyS6u9kp": "7",
        "31YmCVJS": "1002",
        "96Nxs2WQ": "1",
        "J3stQ7jd": "20",
        "P_PRIORITY": "1",
        "P_SCHEDULE_ID": "0"
    },
    {
        "EyS6u9kp": "8",
        "31YmCVJS": "1003",
        "96Nxs2WQ": "1",
        "J3stQ7jd": "20",
        "P_PRIORITY": "1",
        "P_SCHEDULE_ID": "0"
    },
    {
        "EyS6u9kp": "9",
        "31YmCVJS": "1000",
        "96Nxs2WQ": "2",
        "J3stQ7jd": "5",
        "P_PRIORITY": "1",
        "P_SCHEDULE_ID": "0"
    },
    {
        "EyS6u9kp": "10",
        "31YmCVJS": "1001",
        "96Nxs2WQ": "2",
        "J3stQ7jd": "5",
        "P_PRIORITY": "1",
        "P_SCHEDULE_ID": "0"
    },
    {
        "EyS6u9kp": "11",
        "31YmCVJS": "1002",
        "96Nxs2WQ": "2",
        "J3stQ7jd": "5",
        "P_PRIORITY": "1",
        "P_SCHEDULE_ID": "0"
    },
    {
        "EyS6u9kp": "12",
        "31YmCVJS": "1003",
        "96Nxs2WQ": "2",
        "J3stQ7jd": "5",
        "P_PRIORITY": "1",
        "P_SCHEDULE_ID": "0"
    },
    {
        "EyS6u9kp": "101",
        "31YmCVJS": "1",
        "96Nxs2WQ": "0",
        "J3stQ7jd": "20",
        "P_PRIORITY": "2",
        "P_SCHEDULE_ID": "50038"
    },
    {
        "EyS6u9kp": "102",
        "31YmCVJS": "1",
        "96Nxs2WQ": "1",
        "J3stQ7jd": "80",
        "P_PRIORITY": "2",
        "P_SCHEDULE_ID": "50038"
    },
    {
        "EyS6u9kp": "103",
        "31YmCVJS": "1",
        "96Nxs2WQ": "2",
        "J3stQ7jd": "40",
        "P_PRIORITY": "2",
        "P_SCHEDULE_ID": "50038"
    },
    {
        "EyS6u9kp": "104",
        "31YmCVJS": "1",
        "96Nxs2WQ": "3",
        "J3stQ7jd": "20",
        "P_PRIORITY": "2",
        "P_SCHEDULE_ID": "50038"
    }
]