[
    {
        "mC1JcVM9": "1",
        "ctAd91iQ": "\u5e1d\u90fd\u30e9\u30f3\u30c9\u30fc\u30eb",
        "P_CATEGORY_ID": "2",
        "P_DISPORDER": "1",
        "P_EXT_IMG_PARAM": "\u5e1d\u90fd\u30e9\u30f3\u30c9\u30fc\u30eb\u3092\u521d\u3081\u3066\u8a2a\u308c\u305f\u82e5\u304d\u9a0e\u58eb\u3092\u30a2\u30af\u30e9\u30b9\u53ec\u559a\u9662\u306e\u300cAI\u30a8\u30fc\u30b8\u30a7\u30f3\u30c8\u300d\u30a2\u30ca\u304c\u3054\u6848\u5185\u3002",
        "P_SCRIPT": "tutorial_randall.csv",
        "xkbc51QN": "",
        "P_NEED_SWITCH_INFO": "2100001",
        "P_HIDE_SWITCH_INFO": ""
    },
    {
        "mC1JcVM9": "2",
        "ctAd91iQ": "\u5e1d\u90fd\u56f3\u66f8\u9928",
        "P_CATEGORY_ID": "2",
        "P_DISPORDER": "2",
        "P_EXT_IMG_PARAM": "\u5e1d\u90fd\u56f3\u66f8\u9928\u3092\u521d\u3081\u3066\u8a2a\u308c\u305f\u82e5\u304d\u9a0e\u58eb\u3092\u77e5\u8b58\u3092\u53f8\u308b\u7cbe\u970a\u30a4\u30f3\u30c6\u30eb\u30c8\u65cf\u306e\u30ea\u30f3\u30c8\u304c\u304a\u51fa\u8fce\u3048\u3002",
        "P_SCRIPT": "tutorial_library.csv",
        "xkbc51QN": "",
        "P_NEED_SWITCH_INFO": "2100002",
        "P_HIDE_SWITCH_INFO": ""
    },
    {
        "mC1JcVM9": "3",
        "ctAd91iQ": "\u30a2\u30af\u30e9\u30b9\u53ec\u559a\u9662\u7ba1\u7406\u5c40",
        "P_CATEGORY_ID": "2",
        "P_DISPORDER": "3",
        "P_EXT_IMG_PARAM": "\u30a2\u30af\u30e9\u30b9\u53ec\u559a\u9662\u7ba1\u7406\u5c40\u3092\u521d\u3081\u3066\u8a2a\u308c\u305f\u82e5\u304d\u9a0e\u58eb\u3092\u7ba1\u7406\u5c40\u9577\u30bb\u30e9\u30fb\u30b9\u30bf\u30fc\u30e9\u30a4\u30c9\u81ea\u3089\u304c\u6848\u5185\u3059\u308b\u3002",
        "P_SCRIPT": "tutorial_management.csv",
        "xkbc51QN": "",
        "P_NEED_SWITCH_INFO": "2100003",
        "P_HIDE_SWITCH_INFO": ""
    },
    {
        "mC1JcVM9": "4",
        "ctAd91iQ": "\u30a2\u30ea\u30fc\u30ca",
        "P_CATEGORY_ID": "2",
        "P_DISPORDER": "4",
        "P_EXT_IMG_PARAM": "\u30a2\u30ea\u30fc\u30ca\u3092\u521d\u3081\u3066\u8a2a\u308c\u305f\u82e5\u304d\u9a0e\u58eb\u3092\u5f85\u3063\u3066\u3044\u305f\u306e\u306f\u53ec\u559a\u5e2b\u30ed\u30a4\u3068\u30b5\u30fc\u30b7\u30e3\u3067\u3042\u3063\u305f\u3002",
        "P_SCRIPT": "tutorial_arena.csv",
        "xkbc51QN": "",
        "P_NEED_SWITCH_INFO": "2100004",
        "P_HIDE_SWITCH_INFO": ""
    },
    {
        "mC1JcVM9": "5",
        "ctAd91iQ": "\u53ec\u559a\u8853\u7814\u7a76\u6240",
        "P_CATEGORY_ID": "2",
        "P_DISPORDER": "5",
        "P_EXT_IMG_PARAM": "\u53ec\u559a\u8853\u7814\u7a76\u6240\u3092\u521d\u3081\u3066\u8a2a\u308c\u305f\u82e5\u304d\u9a0e\u58eb\u306b\u958b\u767a\u5c40\u9577\u30ce\u30a8\u30eb\u306f\u8208\u5473\u3092\u793a\u3057\u3001\u5354\u529b\u3092\u6301\u3061\u304b\u3051\u308b\u3002",
        "P_SCRIPT": "tutorial_labo.csv",
        "xkbc51QN": "",
        "P_NEED_SWITCH_INFO": "2100005",
        "P_HIDE_SWITCH_INFO": ""
    },
    {
        "mC1JcVM9": "6",
        "ctAd91iQ": "\u30d5\u30ed\u30f3\u30c6\u30a3\u30a2\u30cf\u30f3\u30bf\u30fc",
        "P_CATEGORY_ID": "2",
        "P_DISPORDER": "6",
        "P_EXT_IMG_PARAM": "\u30d5\u30ed\u30f3\u30c6\u30a3\u30a2\u30cf\u30f3\u30bf\u30fc\u306b\u521d\u3081\u3066\u6311\u6226\u3059\u308b\u82e5\u304d\u9a0e\u58eb\u306b\u30a8\u30df\u30ea\u30fc\u304c\u30de\u30cb\u30e5\u30a2\u30eb\u3092\u68d2\u8aad\u307f\u3057\u3066\u8aac\u660e\u3059\u308b\u3002",
        "P_SCRIPT": "tutorial_frohun.csv",
        "xkbc51QN": "",
        "P_NEED_SWITCH_INFO": "2100006",
        "P_HIDE_SWITCH_INFO": ""
    },
    {
        "mC1JcVM9": "10001",
        "ctAd91iQ": "\u596a\u308f\u308c\u3057\u6545\u90f7",
        "P_CATEGORY_ID": "100",
        "P_DISPORDER": "1",
        "P_EXT_IMG_PARAM": "\u30d5\u30a3\u30eb\u30a2\u30fc\u30e0\u738b\u56fd\u3092\u8b0e\u306e\u8ecd\u52e2\u304c\u6025\u8972\u3002\u9a0e\u58eb\u56e3\u9577\u30a2\u30fc\u30ac\u30b9\u306f\u5b9d\u7389\u306e\u529b\u3067\u3001\u82e5\u304d\u9a0e\u58eb\u3089\u3092\u7570\u754c\u3078\u9003\u304c\u3059\u3002",
        "P_SCRIPT": "script_OP0.csv",
        "xkbc51QN": "smr_script_BT-OP1.csv",
        "P_NEED_SWITCH_INFO": "0",
        "P_HIDE_SWITCH_INFO": ""
    },
    {
        "mC1JcVM9": "10002",
        "ctAd91iQ": "\u76ee\u899a\u3081\u3057\u7570\u90f7",
        "P_CATEGORY_ID": "100",
        "P_DISPORDER": "2",
        "P_EXT_IMG_PARAM": "\u5c11\u5973\u306e\u58f0\u3067\u76ee\u3092\u899a\u307e\u3059\u82e5\u304d\u9a0e\u58eb\u3002\u305d\u3053\u306f\u30b0\u30e9\u30f3\u30ac\u30a4\u30a2\u3068\u3044\u3046\u898b\u305f\u3053\u3068\u3082\u306a\u3044\u4e16\u754c\u3060\u3063\u305f\u2026\u2026",
        "P_SCRIPT": "script_OP2_1B.csv",
        "xkbc51QN": "smr_script_OP2_1B.csv",
        "P_NEED_SWITCH_INFO": "0",
        "P_HIDE_SWITCH_INFO": ""
    },
    {
        "mC1JcVM9": "10101",
        "ctAd91iQ": "\u65b0\u305f\u306a\u308b\u529b",
        "P_CATEGORY_ID": "101",
        "P_DISPORDER": "1",
        "P_EXT_IMG_PARAM": "\u30b5\u30fc\u30b7\u30e3\u304c\u4f7f\u3046\u53ec\u559a\u8853\u306b\u9a5a\u304f\u82e5\u304d\u9a0e\u58eb\u3002\u81ea\u8eab\u3082\u8a66\u3057\u306b\u3084\u3063\u3066\u307f\u305f\u3068\u3053\u308d\u306a\u3093\u3068\u53ec\u559a\u306b\u6210\u529f\u3057\u3066\u3057\u307e\u3046\u3002",
        "P_SCRIPT": "main001-battlecall1.csv",
        "xkbc51QN": "smr_main001-dungeon1_1.csv",
        "P_NEED_SWITCH_INFO": "0",
        "P_HIDE_SWITCH_INFO": ""
    },
    {
        "mC1JcVM9": "10102",
        "ctAd91iQ": "\u6b21\u5143\u3092\u8d8a\u3048\u3057\u6575",
        "P_CATEGORY_ID": "101",
        "P_DISPORDER": "2",
        "P_EXT_IMG_PARAM": "\u82e5\u304d\u9a0e\u58eb\u304b\u3089\u6575\u306e\u60c5\u5831\u3092\u805e\u3044\u305f\u30ed\u30a4\u306f\u3001\u30b0\u30e9\u30f3\u30ac\u30a4\u30a2\u306b\u73fe\u308c\u305f\u8005\u3068\u540c\u3058\u7d44\u7e54\u3067\u306f\u306a\u3044\u304b\u3068\u63a8\u6e2c\u3059\u308b\u3002",
        "P_SCRIPT": "main001-dungeon2.csv",
        "xkbc51QN": "smr_main001-dungeon2.csv",
        "P_NEED_SWITCH_INFO": "0",
        "P_HIDE_SWITCH_INFO": ""
    },
    {
        "mC1JcVM9": "10103",
        "ctAd91iQ": "\u304b\u3064\u3066\u306e\u65e5\u3005",
        "P_CATEGORY_ID": "101",
        "P_DISPORDER": "3",
        "P_EXT_IMG_PARAM": "\u30b5\u30fc\u30b7\u30e3\u304c\u30ed\u30a4\u3092\u8aa4\u3063\u3066\u300c\u5148\u751f\u300d\u3068\u8a00\u3063\u305f\u3053\u3068\u304b\u3089\u82e5\u304d\u9a0e\u58eb\u306f\u5e7c\u99b4\u67d3\u306e\u30ea\u30f3\u3068\u306e\u65e5\u3005\u3092\u601d\u3044\u51fa\u3059\u3002",
        "P_SCRIPT": "main001-dungeon3.csv",
        "xkbc51QN": "smr_main001-dungeon3.csv",
        "P_NEED_SWITCH_INFO": "0",
        "P_HIDE_SWITCH_INFO": ""
    },
    {
        "mC1JcVM9": "10104",
        "ctAd91iQ": "\u65b0\u305f\u306a\u60c5\u5831",
        "P_CATEGORY_ID": "101",
        "P_DISPORDER": "4",
        "P_EXT_IMG_PARAM": "\u53ec\u559a\u9662\u5f8c\u65b9\u652f\u63f4\u8ab2\u306e\u30e9\u30a4\u30eb\u3088\u308a\u3001\u9b54\u7269\u306e\u4f4f\u51e6\u304b\u3089\u6b21\u5143\u9593\u79fb\u52d5\u306e\u53cd\u5fdc\u304c\u518d\u78ba\u8a8d\u3055\u308c\u305f\u3068\u9023\u7d61\u304c\u5165\u308b\u3002",
        "P_SCRIPT": "main001-dungeon4.csv",
        "xkbc51QN": "smr_main001-dungeon4.csv",
        "P_NEED_SWITCH_INFO": "0",
        "P_HIDE_SWITCH_INFO": ""
    },
    {
        "mC1JcVM9": "10105",
        "ctAd91iQ": "\u73fe\u308c\u3057\u201c\u6575\u201d",
        "P_CATEGORY_ID": "101",
        "P_DISPORDER": "5",
        "P_EXT_IMG_PARAM": "\u304a\u305e\u307e\u3057\u3044\u6c17\u914d\u3092\u611f\u3058\u308b\u30ed\u30a4\u3002\u305d\u3053\u3078\u73fe\u308c\u305f\u306e\u306f\u30cd\u30b0\u30ec\u30b9\u306e\u4e03\u9b54\u5c06\u30e1\u30eb\u30d5\u30a7\u30eb\u3068\u3044\u3046\u8005\u3060\u3063\u305f\u3002",
        "P_SCRIPT": "main001-dungeon5.csv",
        "xkbc51QN": "smr_main001-dungeon5.csv",
        "P_NEED_SWITCH_INFO": "0",
        "P_HIDE_SWITCH_INFO": ""
    },
    {
        "mC1JcVM9": "10106",
        "ctAd91iQ": "\u201c\u53cb\u597d\u89aa\u5584\u5927\u4f7f\u201d",
        "P_CATEGORY_ID": "101",
        "P_DISPORDER": "6",
        "P_EXT_IMG_PARAM": "\u30e1\u30eb\u30d5\u30a7\u30eb\u306f\u53bb\u308a\u969b\u306b\u3001\u30a8\u30eb\u30ac\u30a4\u30a2\u306b\u30cd\u30b0\u30ec\u30b9\u304b\u3089\u306e\u201c\u53cb\u597d\u89aa\u5584\u5927\u4f7f\u201d\u304c\u6d3e\u9063\u3055\u308c\u3066\u3044\u308b\u3068\u544a\u3052\u308b\u3002",
        "P_SCRIPT": "main001-ending.csv",
        "xkbc51QN": "smr_main001-ending.csv",
        "P_NEED_SWITCH_INFO": "0",
        "P_HIDE_SWITCH_INFO": ""
    },
    {
        "mC1JcVM9": "10107",
        "ctAd91iQ": "\u5f80\u6765\u304c\u7d76\u3048\u305f\u571f\u5730",
        "P_CATEGORY_ID": "101",
        "P_DISPORDER": "7",
        "P_EXT_IMG_PARAM": "\u30ed\u30a4\u3001\u30b5\u30fc\u30b7\u30e3\u304b\u3089\u306f\u3050\u308c\u3066\u3057\u307e\u3063\u305f\u82e5\u304d\u9a0e\u58eb\u3002\u898b\u77e5\u3089\u306c\u571f\u5730\u3067\u9b54\u7269\u306b\u8972\u308f\u308c\u3066\u3057\u307e\u3046\u304c\u2026\u2026",
        "P_SCRIPT": "main001-dungeon-ex1_1.csv",
        "xkbc51QN": "smr_main001-dungeon-ex1_1.csv",
        "P_NEED_SWITCH_INFO": "0",
        "P_HIDE_SWITCH_INFO": ""
    },
    {
        "mC1JcVM9": "10108",
        "ctAd91iQ": "\u8e42\u8e99\u3055\u308c\u308b\u4e16\u754c",
        "P_CATEGORY_ID": "101",
        "P_DISPORDER": "8",
        "P_EXT_IMG_PARAM": "\u71c3\u3048\u308b\u30e9\u30f3\u30c9\u30fc\u30eb\u5468\u8fba\u306e\u6751\u3001\u5404\u5730\u3092\u8e42\u8e99\u3059\u308b\u30cd\u30b0\u30ec\u30b9\u306e\u8ecd\u52e2\u3002\u305d\u3057\u3066\u5f7c\u3089\u3092\u7d71\u7387\u3059\u308b\u7345\u5b50\u7363\u4eba\u306e\u5c06\u3002",
        "P_SCRIPT": "main002-opening.csv",
        "xkbc51QN": "smr_main002-opening.csv",
        "P_NEED_SWITCH_INFO": "0",
        "P_HIDE_SWITCH_INFO": ""
    },
    {
        "mC1JcVM9": "10109",
        "ctAd91iQ": "\u5f85\u3061\u4f0f\u305b",
        "P_CATEGORY_ID": "101",
        "P_DISPORDER": "9",
        "P_EXT_IMG_PARAM": "\u30a8\u30eb\u30ac\u30a4\u30a2\u306b\u964d\u308a\u7acb\u3063\u305f\u82e5\u304d\u9a0e\u58eb\u305f\u3061\u3002\u6025\u3044\u3067\u53ec\u559a\u9662\u672c\u90e8\u304c\u3042\u308b\u5e1d\u90fd\u30e9\u30f3\u30c9\u30fc\u30eb\u306b\u5411\u304b\u304a\u3046\u3068\u3059\u308b\u304c\u2026",
        "P_SCRIPT": "main002-dungeon1.csv",
        "xkbc51QN": "smr_main002-dungeon1.csv",
        "P_NEED_SWITCH_INFO": "0",
        "P_HIDE_SWITCH_INFO": ""
    },
    {
        "mC1JcVM9": "10110",
        "ctAd91iQ": "\u30a6\u30a9\u30ec\u30b9",
        "P_CATEGORY_ID": "101",
        "P_DISPORDER": "10",
        "P_EXT_IMG_PARAM": "\u30cd\u30b0\u30ec\u30b9\u304b\u3089\u5e02\u6c11\u3092\u5b88\u308b\u53ec\u559a\u5e2b\u30a6\u30a9\u30ec\u30b9\u3002\u30bb\u30ea\u30a2\u304c\u5148\u884c\u3057\u3066\u3044\u308b\u3068\u805e\u304d\u3001\u30ed\u30a4\u305f\u3061\u306f\u5148\u306b\u9032\u3080\u3002",
        "P_SCRIPT": "main002-dungeon2.csv",
        "xkbc51QN": "smr_main002-dungeon2.csv",
        "P_NEED_SWITCH_INFO": "0",
        "P_HIDE_SWITCH_INFO": ""
    },
    {
        "mC1JcVM9": "10111",
        "ctAd91iQ": "\u30e9\u30f3\u30c9\u30fc\u30eb\u5927\u6a4b",
        "P_CATEGORY_ID": "101",
        "P_DISPORDER": "11",
        "P_EXT_IMG_PARAM": "\u50b7\u3064\u3044\u305f\u53ec\u559a\u5e2b\u306f\u6575\u6307\u63ee\u5b98\u3067\u3042\u308b\u7345\u5b50\u306e\u7363\u4eba\u304c\u5c0b\u5e38\u3067\u306f\u306a\u3044\u5f37\u3055\u3060\u3068\u4f1d\u3048\u3001\u6c17\u3092\u3064\u3051\u308b\u3088\u3046\u5fe0\u544a\u3059\u308b\u3002",
        "P_SCRIPT": "main002-battlecall3_1.csv",
        "xkbc51QN": "smr_main002-dungeon3_1.csv",
        "P_NEED_SWITCH_INFO": "0",
        "P_HIDE_SWITCH_INFO": ""
    },
    {
        "mC1JcVM9": "10112",
        "ctAd91iQ": "\u30bb\u30ea\u30a2\u3068\u306e\u5408\u6d41",
        "P_CATEGORY_ID": "101",
        "P_DISPORDER": "12",
        "P_EXT_IMG_PARAM": "\u3055\u3063\u3055\u3068\u6307\u63ee\u5b98\u3092\u898b\u3064\u3051\u3066\u5012\u3057\u305f\u3044\u30bb\u30ea\u30a2\u306f\u3001\u5408\u6d41\u3057\u3066\u304d\u305f\u30ed\u30a4\u305f\u3061\u306b\u624b\u3092\u8cb8\u3059\u3088\u3046\u306b\u547d\u4ee4\u3059\u308b\u3002",
        "P_SCRIPT": "main002-battlecall3_2.csv",
        "xkbc51QN": "smr_main002-dungeon3_2.csv",
        "P_NEED_SWITCH_INFO": "0",
        "P_HIDE_SWITCH_INFO": ""
    },
    {
        "mC1JcVM9": "10113",
        "ctAd91iQ": "\u8feb\u308b\u7363\u5175",
        "P_CATEGORY_ID": "101",
        "P_DISPORDER": "13",
        "P_EXT_IMG_PARAM": "\u6575\u53f8\u4ee4\u5b98\u3067\u3042\u308b\u7345\u5b50\u306e\u7363\u4eba\u306f\u3001\u30e9\u30f3\u30c9\u30fc\u30eb\u3092\u4e00\u6c17\u306b\u653b\u3081\u843d\u3068\u3059\u3079\u304f\u90e8\u4e0b\u305f\u3061\u306b\u53f7\u4ee4\u3092\u304b\u3051\u308b\u3002",
        "P_SCRIPT": "main002-dungeon4_1.csv",
        "xkbc51QN": "smr_main002-dungeon4_1.csv",
        "P_NEED_SWITCH_INFO": "0",
        "P_HIDE_SWITCH_INFO": ""
    },
    {
        "mC1JcVM9": "10114",
        "ctAd91iQ": "\u5420\u3048\u308b\u7345\u5b50",
        "P_CATEGORY_ID": "101",
        "P_DISPORDER": "14",
        "P_EXT_IMG_PARAM": "\u7345\u5b50\u306e\u7363\u4eba\u306e\u524d\u306b\u7acb\u3061\u306f\u3060\u304b\u308b\u9280\u9aea\u306e\u5263\u58eb\u3002\u5f7c\u3089\u304c\u6226\u3044\u3092\u7e70\u308a\u5e83\u3052\u308b\u4e2d\u3001\u82e5\u304d\u9a0e\u58eb\u305f\u3061\u3082\u99c6\u3051\u3064\u3051\u308b\u3002",
        "P_SCRIPT": "main002-battlecall4_2.csv",
        "xkbc51QN": "smr_main002-dungeon4_2.csv",
        "P_NEED_SWITCH_INFO": "0",
        "P_HIDE_SWITCH_INFO": ""
    },
    {
        "mC1JcVM9": "10115",
        "ctAd91iQ": "\u65b0\u305f\u306a\u308b\u6226\u3044\u306e\u706b\u7a2e",
        "P_CATEGORY_ID": "101",
        "P_DISPORDER": "15",
        "P_EXT_IMG_PARAM": "\u30cd\u30b0\u30ec\u30b9\u6483\u9000\u306b\u6210\u529f\u3059\u308b\u82e5\u304d\u9a0e\u58eb\u3068\u53ec\u559a\u5e2b\u305f\u3061\u3002\u3060\u304c\u3001\u65b0\u305f\u306a\u308b\u4fb5\u7565\u306e\u9b54\u306e\u624b\u306f\u3059\u3067\u306b\u4f38\u3073\u3066\u3044\u305f\u2026\u2026",
        "P_SCRIPT": "main002-ending.csv",
        "xkbc51QN": "smr_main002-ending.csv",
        "P_NEED_SWITCH_INFO": "0",
        "P_HIDE_SWITCH_INFO": ""
    },
    {
        "mC1JcVM9": "10116",
        "ctAd91iQ": "\u65b0\u5175\u8a13\u7df4",
        "P_CATEGORY_ID": "101",
        "P_DISPORDER": "16",
        "P_EXT_IMG_PARAM": "\u8a2d\u7f6e\u3055\u305f\u30d1\u30ba\u30eb\u3092\u89e3\u304f\u82e5\u304d\u9a0e\u58eb\u3002\u30ed\u30a4\u306b\u3088\u308c\u3070\u3001\u3053\u308c\u306f\u7687\u56fd\u65b0\u5175\u304c\u3084\u3089\u3055\u308c\u308b\u8a13\u7df4\u306e\uff11\u3064\u3068\u306e\u3053\u3068\u3002",
        "P_SCRIPT": "main002-dungeon-ex1_1.csv",
        "xkbc51QN": "smr_main002-dungeon-ex1_1.csv",
        "P_NEED_SWITCH_INFO": "11000226",
        "P_HIDE_SWITCH_INFO": ""
    },
    {
        "mC1JcVM9": "10117",
        "ctAd91iQ": "\u5642\u306e\u304a\u5b9d",
        "P_CATEGORY_ID": "101",
        "P_DISPORDER": "17",
        "P_EXT_IMG_PARAM": "\u30b5\u30fc\u30b7\u30e3\u306e\u4efb\u52d9\u306b\u4ed8\u304d\u5408\u3046\u82e5\u304d\u9a0e\u58eb\u306f\u3001\u30d5\u30a3\u30eb\u30a2\u30fc\u30e0\u3067\u306e\u81ea\u8eab\u306e\u3042\u308b\u4f53\u9a13\u3092\u601d\u3044\u51fa\u3059\u3002",
        "P_SCRIPT": "main002-dungeon-ex2_1.csv",
        "xkbc51QN": "smr_main002-dungeon-ex2_1.csv",
        "P_NEED_SWITCH_INFO": "11000230",
        "P_HIDE_SWITCH_INFO": ""
    },
    {
        "mC1JcVM9": "10118",
        "ctAd91iQ": "\u5192\u967a\u306e\u985b\u672b",
        "P_CATEGORY_ID": "101",
        "P_DISPORDER": "18",
        "P_EXT_IMG_PARAM": "\u602a\u7269\u3092\u5012\u3057\u3066\u5b9d\u306e\u56de\u53ce\u306b\u6210\u529f\u3059\u308b\u82e5\u304d\u9a0e\u58eb\u3002\u30d5\u30a3\u30eb\u30a2\u30fc\u30e0\u306e\u6642\u306f\u3001\u6b63\u53cd\u5bfe\u306e\u7d50\u679c\u3060\u3063\u305f\u3068\u56de\u60f3\u3059\u308b\u3002",
        "P_SCRIPT": "main002-dungeon-ex2_7.csv",
        "xkbc51QN": "smr_main002-dungeon-ex2_4.csv",
        "P_NEED_SWITCH_INFO": "11000233",
        "P_HIDE_SWITCH_INFO": ""
    },
    {
        "mC1JcVM9": "10201",
        "ctAd91iQ": "\u5bfe\u7b56\u4f1a\u8b70",
        "P_CATEGORY_ID": "102",
        "P_DISPORDER": "1",
        "P_EXT_IMG_PARAM": "\u9023\u90a6\u3001\u7687\u56fd\u3001\u53ec\u559a\u9662\u306e\u4ee3\u8868\u3067\u884c\u308f\u308c\u305f\u30cd\u30b0\u30ec\u30b9\u5bfe\u7b56\u4f1a\u8b70\u3002\u9023\u90a6\u306f\u53ec\u559a\u9662\u304b\u3089\u306e\u9023\u7d61\u304c\u9045\u3044\u3068\u975e\u96e3\u3059\u308b\u3002",
        "P_SCRIPT": "main004-opening.csv",
        "xkbc51QN": "smr_main004-opening.csv",
        "P_NEED_SWITCH_INFO": "11000100",
        "P_HIDE_SWITCH_INFO": ""
    },
    {
        "mC1JcVM9": "10202",
        "ctAd91iQ": "\u4eca\u4e00\u756a\u306e\u89b3\u5149\u30b9\u30dd\u30c3\u30c8",
        "P_CATEGORY_ID": "102",
        "P_DISPORDER": "2",
        "P_EXT_IMG_PARAM": "\u30b5\u30fc\u30de\u3092\u8a2a\u308c\u308b\u82e5\u304d\u9a0e\u58eb\u305f\u3061\u3002\u30b5\u30dd\u30fc\u30c8\u3092\u62c5\u5f53\u3059\u308b\u30a8\u30df\u30ea\u30fc\u304b\u3089\u73fe\u5730\u306e\u72b6\u6cc1\u304c\u4f1d\u3048\u3089\u308c\u308b\u304c\u2026\u2026",
        "P_SCRIPT": "main004-dungeon1_1.csv",
        "xkbc51QN": "smr_main004-dungeon1_1.csv",
        "P_NEED_SWITCH_INFO": "11000101",
        "P_HIDE_SWITCH_INFO": ""
    },
    {
        "mC1JcVM9": "10203",
        "ctAd91iQ": "\u601d\u308f\u306c\u906d\u9047\u8005",
        "P_CATEGORY_ID": "102",
        "P_DISPORDER": "3",
        "P_EXT_IMG_PARAM": "\u7a81\u5982\u73fe\u308c\u305f\u5973\u6027\u30eb\u30cd\u3092\u907f\u96e3\u3057\u9045\u308c\u305f\u89b3\u5149\u5ba2\u3068\u5224\u65ad\u3057\u305f\u30ed\u30a4\u306f\u3001\u5f7c\u5973\u3092\u4fdd\u8b77\u3057\u305f\u4e0a\u3067\u4efb\u52d9\u9042\u884c\u3092\u76ee\u6307\u3059\u3002",
        "P_SCRIPT": "main004-dungeon1_2.csv",
        "xkbc51QN": "smr_main004-dungeon1_2.csv",
        "P_NEED_SWITCH_INFO": "11000102",
        "P_HIDE_SWITCH_INFO": ""
    },
    {
        "mC1JcVM9": "10204",
        "ctAd91iQ": "\u4e0d\u610f\u306e\u82e6\u6226",
        "P_CATEGORY_ID": "102",
        "P_DISPORDER": "4",
        "P_EXT_IMG_PARAM": "\u6575\u306e\u5927\u8ecd\u306b\u56f2\u307e\u308c\u308b\u82e5\u304d\u9a0e\u58eb\u305f\u3061\u3002\u30b5\u30fc\u30b7\u30e3\u306f\u9727\u96ea\u306e\u68ee\u307e\u3067\u5927\u3057\u305f\u53cd\u5fdc\u306f\u306a\u304b\u3063\u305f\u306e\u3067\u306f\u3068\u611a\u75f4\u308b\u304c\u2026\u2026",
        "P_SCRIPT": "main004-dungeon2.csv",
        "xkbc51QN": "smr_main004-dungeon2.csv",
        "P_NEED_SWITCH_INFO": "11000103",
        "P_HIDE_SWITCH_INFO": ""
    },
    {
        "mC1JcVM9": "10205",
        "ctAd91iQ": "\u6d1e\u7a9f\u3092\u629c\u3051\u305f\u5148\u306b",
        "P_CATEGORY_ID": "102",
        "P_DISPORDER": "5",
        "P_EXT_IMG_PARAM": "\u9727\u96ea\u306e\u68ee\u306b\u8fbf\u308a\u7740\u304f\u82e5\u304d\u9a0e\u58eb\u305f\u3061\u3002\u60c5\u5831\u306b\u3088\u308c\u3070\u3053\u306e\u5834\u6240\u306b\u3053\u305d\u591a\u6570\u306e\u751f\u4f53\u53cd\u5fdc\u304c\u3042\u3063\u305f\u3089\u3057\u3044\u304c\u2026\u2026",
        "P_SCRIPT": "main004-dungeon3_1.csv",
        "xkbc51QN": "smr_main004-dungeon3_1.csv",
        "P_NEED_SWITCH_INFO": "11000104",
        "P_HIDE_SWITCH_INFO": ""
    },
    {
        "mC1JcVM9": "10206",
        "ctAd91iQ": "\u4e8c\u624b\u306b\u5225\u308c\u3066",
        "P_CATEGORY_ID": "102",
        "P_DISPORDER": "6",
        "P_EXT_IMG_PARAM": "\u9023\u90a6\u306e\u5175\u58eb\u304c\u8972\u308f\u308c\u3066\u3044\u308b\u3068\u306e\u77e5\u3089\u305b\u3092\u53d7\u3051\u305f\u30ed\u30a4\u306f\u3001\u30b5\u30fc\u30b7\u30e3\u305f\u3061\u3068\u5225\u308c\u3066\u3001\uff11\u4eba\u6551\u63f4\u306b\u5411\u304b\u3046\u3002",
        "P_SCRIPT": "main004-dungeon3_2.csv",
        "xkbc51QN": "smr_main004-dungeon3_2.csv",
        "P_NEED_SWITCH_INFO": "11000105",
        "P_HIDE_SWITCH_INFO": ""
    },
    {
        "mC1JcVM9": "10207",
        "ctAd91iQ": "\u5f53\u7136\u306e\u7591\u554f",
        "P_CATEGORY_ID": "102",
        "P_DISPORDER": "7",
        "P_EXT_IMG_PARAM": "\u30a8\u30eb\u30bb\u30a6\u30b9\u907a\u8de1\u306b\u5230\u7740\u3057\u305f\u30ed\u30a4\u3002\u306a\u305c\u9023\u90a6\u306e\u5175\u306f\u3053\u306e\u5834\u6240\u306b\uff1f\u3068\u7591\u554f\u3092\u62b1\u304d\u3064\u3064\u3082\u5f7c\u3089\u306e\u3082\u3068\u3078\u6025\u3050\u3002",
        "P_SCRIPT": "main004-dungeon4_1.csv",
        "xkbc51QN": "smr_main004-dungeon4_1.csv",
        "P_NEED_SWITCH_INFO": "11000106",
        "P_HIDE_SWITCH_INFO": ""
    },
    {
        "mC1JcVM9": "10208",
        "ctAd91iQ": "\u932f\u7d9c\u3059\u308b\u60c5\u5831",
        "P_CATEGORY_ID": "102",
        "P_DISPORDER": "8",
        "P_EXT_IMG_PARAM": "\u6551\u51fa\u3057\u305f\u9023\u90a6\u5c06\u5b98\u306b\u7f75\u5012\u3055\u308c\u308b\u30ed\u30a4\u3002\u5f7c\u3089\u306f\u53ec\u559a\u9662\u306e\u60c5\u5831\u306e\u3082\u3068\u9032\u8ecd\u3057\u305f\u7d50\u679c\u3001\u6575\u8ecd\u3068\u906d\u9047\u3057\u305f\u3089\u3057\u3044\u3002",
        "P_SCRIPT": "main004-battlecall4_2.csv",
        "xkbc51QN": "smr_main004-dungeon4_2.csv",
        "P_NEED_SWITCH_INFO": "11000107",
        "P_HIDE_SWITCH_INFO": ""
    },
    {
        "mC1JcVM9": "10209",
        "ctAd91iQ": "\uff12\u5ea6\u76ee\u306e\u6551\u63f4\u8981\u8acb",
        "P_CATEGORY_ID": "102",
        "P_DISPORDER": "9",
        "P_EXT_IMG_PARAM": "\u30ed\u30a4\u306f\u30a8\u30df\u30ea\u30fc\u304c\u77e5\u3089\u305b\u305f\u9023\u90a6\u306e\u6551\u63f4\u8981\u8acb\u306b\u7591\u554f\u3092\u62b1\u304d\u3064\u3064\u3082\u3001\u30b5\u30fc\u30b7\u30e3\u306b\u6551\u63f4\u306b\u5411\u304b\u3046\u3088\u3046\u6307\u793a\u3002",
        "P_SCRIPT": "main004-dungeon5.csv",
        "xkbc51QN": "smr_main004-dungeon5.csv",
        "P_NEED_SWITCH_INFO": "11000108",
        "P_HIDE_SWITCH_INFO": ""
    },
    {
        "mC1JcVM9": "10210",
        "ctAd91iQ": "\u5143\u6c17\u51fa\u305f\u2026\u2026!?",
        "P_CATEGORY_ID": "102",
        "P_DISPORDER": "10",
        "P_EXT_IMG_PARAM": "\u7dca\u5f35\u6c17\u5473\u306e\u30b5\u30fc\u30b7\u30e3\u306e\u624b\u3092\u30eb\u30cd\u306f\u63e1\u308a\u3057\u3081\u305f\u3002\u81ea\u5206\u304c\u4e0d\u5b89\u306a\u6642\u3001\u59c9\u304c\u3053\u3046\u3057\u3066\u304f\u308c\u305f\u306e\u3060\u3068\u3044\u3046\u3002",
        "P_SCRIPT": "main004-dungeon6_1.csv",
        "xkbc51QN": "smr_main004-dungeon6_1.csv",
        "P_NEED_SWITCH_INFO": "11000109",
        "P_HIDE_SWITCH_INFO": ""
    },
    {
        "mC1JcVM9": "10211",
        "ctAd91iQ": "\u865a\u5831",
        "P_CATEGORY_ID": "102",
        "P_DISPORDER": "11",
        "P_EXT_IMG_PARAM": "\u30b5\u30fc\u30de\u8ecd\u6e2f\u306b\u306f\u6575\u3082\u5473\u65b9\u3082\u3044\u306a\u3044\u3002\u30b5\u30fc\u30b7\u30e3\u304c\u554f\u3044\u5408\u308f\u305b\u308b\u9593\u3001\u30eb\u30cd\u306f\u30b5\u30fc\u30de\u57ce\u306b\u5411\u304b\u3063\u3066\u3057\u307e\u3046\u3002",
        "P_SCRIPT": "main004-dungeon6_2.csv",
        "xkbc51QN": "smr_main004-dungeon6_2.csv",
        "P_NEED_SWITCH_INFO": "11000110",
        "P_HIDE_SWITCH_INFO": ""
    },
    {
        "mC1JcVM9": "10212",
        "ctAd91iQ": "\u30b5\u30fc\u30de\u57ce",
        "P_CATEGORY_ID": "102",
        "P_DISPORDER": "12",
        "P_EXT_IMG_PARAM": "\u30b5\u30fc\u30de\u57ce\u306b\u8db3\u3092\u8e0f\u307f\u5165\u308c\u308b\u30b5\u30fc\u30b7\u30e3\u305f\u3061\u3002\u30eb\u30cd\u3092\u65e9\u304f\u63a2\u3059\u305f\u3081\u3001\u30ed\u30a4\u3092\u5f85\u3063\u3066\u3044\u308b\u6687\u306f\u306a\u3044\u3002",
        "P_SCRIPT": "main004-dungeon7_1.csv",
        "xkbc51QN": "smr_main004-dungeon7_1.csv",
        "P_NEED_SWITCH_INFO": "11000111",
        "P_HIDE_SWITCH_INFO": ""
    },
    {
        "mC1JcVM9": "10213",
        "ctAd91iQ": "\u59c9\u59b9",
        "P_CATEGORY_ID": "102",
        "P_DISPORDER": "13",
        "P_EXT_IMG_PARAM": "\u30eb\u30cd\u3068\u305d\u306e\u59c9\u30d2\u30eb\u30c0\u3068\u906d\u9047\u3059\u308b\u30b5\u30fc\u30b7\u30e3\u305f\u3061\u3002\u5f7c\u5973\u3089\u306f\u3001\uff12\u4eba\u5408\u308f\u305b\u3066\u30cd\u30b0\u30ec\u30b9\u4e03\u9b54\u5c06\u306e\uff11\u4eba\u3060\u3063\u305f\u3002",
        "P_SCRIPT": "main004-dungeon7_2.csv",
        "xkbc51QN": "smr_main004-dungeon7_2.csv",
        "P_NEED_SWITCH_INFO": "11000112",
        "P_HIDE_SWITCH_INFO": ""
    },
    {
        "mC1JcVM9": "10214",
        "ctAd91iQ": "\u30b9\u30d1\u30a4\u7591\u60d1",
        "P_CATEGORY_ID": "102",
        "P_DISPORDER": "14",
        "P_EXT_IMG_PARAM": "\u30d2\u30eb\u30c0\u3068\u30eb\u30cd\u3092\u64a4\u9000\u3055\u305b\u308b\u30ed\u30a4\u305f\u3061\u3002\u4e00\u65b9\u3001\u53ec\u559a\u9662\u3067\u306f\u30a8\u30df\u30ea\u30fc\u304c\u30b9\u30d1\u30a4\u5bb9\u7591\u3067\u62d8\u675f\u3055\u308c\u3066\u3057\u307e\u3046\u3002",
        "P_SCRIPT": "main004-ending.csv",
        "xkbc51QN": "smr_main004-ending.csv",
        "P_NEED_SWITCH_INFO": "11000113",
        "P_HIDE_SWITCH_INFO": ""
    },
    {
        "mC1JcVM9": "10215",
        "ctAd91iQ": "\u30d0\u30ea\u30a6\u30e9\u306e\u5730\u3078",
        "P_CATEGORY_ID": "102",
        "P_DISPORDER": "15",
        "P_EXT_IMG_PARAM": "\u30a8\u30df\u30ea\u30fc\u62d8\u675f\u306e\u5831\u306b\u30b7\u30e7\u30c3\u30af\u3092\u53d7\u3051\u308b\u30ed\u30a4\u305f\u3061\u3002\u3060\u304c\u305d\u308c\u3067\u3082\u5f7c\u3089\u306f\u30d0\u30ea\u30a6\u30e9\u306e\u5730\u3078\u6b69\u307f\u3092\u9032\u3081\u308b\u3002",
        "P_SCRIPT": "main005-opening.csv",
        "xkbc51QN": "smr_main005-opening.csv",
        "P_NEED_SWITCH_INFO": "11000114",
        "P_HIDE_SWITCH_INFO": ""
    },
    {
        "mC1JcVM9": "10216",
        "ctAd91iQ": "\u672a\u77e5\u306e\u571f\u5730\u3067",
        "P_CATEGORY_ID": "102",
        "P_DISPORDER": "16",
        "P_EXT_IMG_PARAM": "\u30e1\u30eb\u30d5\u30a7\u30eb\u3088\u308a\u53ec\u559a\u5e2b\u305f\u3061\u304c\u3053\u3061\u3089\u306b\u5411\u304b\u3063\u3066\u3044\u308b\u3068\u5831\u544a\u3092\u53d7\u3051\u305f\u30a8\u30eb\u30cf\u30b6\u306f\u3001\u81ea\u3089\u8fce\u6483\u306b\u5411\u304b\u3046\u3002",
        "P_SCRIPT": "main005-dungeon1_1.csv",
        "xkbc51QN": "smr_main005-dungeon1_1.csv",
        "P_NEED_SWITCH_INFO": "11000115",
        "P_HIDE_SWITCH_INFO": ""
    },
    {
        "mC1JcVM9": "10217",
        "ctAd91iQ": "\u6b63\u78ba\u306a\u60c5\u5831",
        "P_CATEGORY_ID": "102",
        "P_DISPORDER": "17",
        "P_EXT_IMG_PARAM": "\u6697\u8ff7\u306e\u68ee\u306b\u6575\u306f\u3044\u306a\u304b\u3063\u305f\u304c\u3001\u30a8\u30df\u30ea\u30fc\u62d8\u675f\u5f8c\u306b\u60c5\u5831\u304c\u6b63\u78ba\u306b\u306a\u3063\u305f\u610f\u5473\u3092\u30ed\u30a4\u306f\u8003\u3048\u3066\u3057\u307e\u3046\u3002",
        "P_SCRIPT": "main005-dungeon1_2.csv",
        "xkbc51QN": "smr_main005-dungeon1_2.csv",
        "P_NEED_SWITCH_INFO": "11000116",
        "P_HIDE_SWITCH_INFO": ""
    },
    {
        "mC1JcVM9": "10218",
        "ctAd91iQ": "\u73fe\u308c\u3057\u95c7",
        "P_CATEGORY_ID": "102",
        "P_DISPORDER": "18",
        "P_EXT_IMG_PARAM": "\u7a81\u5982\u73fe\u308c\u305f\u30a8\u30eb\u30cf\u30b6\u306b\u91cd\u50b7\u3092\u8ca0\u308f\u3055\u308c\u308b\u30ed\u30a4\u3002\u30b5\u30fc\u30b7\u30e3\u306f\u5f7c\u3092\u9023\u308c\u3001\u305d\u306e\u5834\u3092\u96e2\u308c\u3088\u3046\u3068\u3059\u308b\u304c\u2026\u2026",
        "P_SCRIPT": "main005-dungeon2_1.csv",
        "xkbc51QN": "smr_main005-dungeon2_1.csv",
        "P_NEED_SWITCH_INFO": "11000119",
        "P_HIDE_SWITCH_INFO": ""
    },
    {
        "mC1JcVM9": "10219",
        "ctAd91iQ": "\u9003\u3052\u308b\u8005\u3068\u8ffd\u3046\u8005",
        "P_CATEGORY_ID": "102",
        "P_DISPORDER": "19",
        "P_EXT_IMG_PARAM": "\u30ed\u30a4\u3092\u9023\u308c\u3066\u9003\u3052\u308b\u30b5\u30fc\u30b7\u30e3\u306f\u3001\u53ec\u559a\u9662\u306b\u6551\u63f4\u3092\u8981\u8acb\u3059\u308b\u3002\u30e1\u30eb\u30d5\u30a7\u30eb\u306f\u5f7c\u5973\u3089\u3092\u697d\u3057\u3052\u306b\u8ffd\u3046\u3002",
        "P_SCRIPT": "main005-dungeon2_4.csv",
        "xkbc51QN": "smr_main005-dungeon2_4.csv",
        "P_NEED_SWITCH_INFO": "11000120",
        "P_HIDE_SWITCH_INFO": ""
    },
    {
        "mC1JcVM9": "10220",
        "ctAd91iQ": "\u8fbf\u308a\u7740\u3044\u305f\u7d76\u671b",
        "P_CATEGORY_ID": "102",
        "P_DISPORDER": "20",
        "P_EXT_IMG_PARAM": "\u3064\u3044\u306b\u30cd\u30b0\u30ec\u30b9\u306b\u56f2\u307e\u308c\u308b\u30b5\u30fc\u30b7\u30e3\u305f\u3061\u3002\u6551\u63f4\u968a\u304c\u6765\u308b\u307e\u3067\u3001\u30ed\u30a4\u3092\u5b88\u308d\u3046\u3068\u6c7a\u6b7b\u306e\u6297\u6226\u3092\u7d9a\u3051\u308b\u3002",
        "P_SCRIPT": "main005-dungeon3_1.csv",
        "xkbc51QN": "smr_main005-dungeon3_1.csv",
        "P_NEED_SWITCH_INFO": "11000121",
        "P_HIDE_SWITCH_INFO": ""
    },
    {
        "mC1JcVM9": "10221",
        "ctAd91iQ": "\u73fe\u308c\u3057\u5e0c\u671b",
        "P_CATEGORY_ID": "102",
        "P_DISPORDER": "21",
        "P_EXT_IMG_PARAM": "\u62bc\u3057\u5bc4\u305b\u308b\u6575\u306e\u6570\u306b\u3001\u6c17\u529b\u304c\u5c3d\u304d\u304b\u3051\u308b\u30b5\u30fc\u30b7\u30e3\u3002\u3060\u304c\u305d\u306e\u6642\u3001\u53ec\u559a\u8001\u30ab\u30eb\u304c\u6551\u63f4\u306b\u3084\u3063\u3066\u304f\u308b\u3002",
        "P_SCRIPT": "main005-dungeon3_2.csv",
        "xkbc51QN": "smr_main005-dungeon3_2.csv",
        "P_NEED_SWITCH_INFO": "11000122",
        "P_HIDE_SWITCH_INFO": ""
    },
    {
        "mC1JcVM9": "10222",
        "ctAd91iQ": "\u3055\u3089\u306a\u308b\u9032\u8ecd",
        "P_CATEGORY_ID": "102",
        "P_DISPORDER": "22",
        "P_EXT_IMG_PARAM": "\u30ed\u30a4\u3092\u6551\u63f4\u90e8\u968a\u306b\u4efb\u305b\u3001\uff11\u4eba\u3067\u5148\u306b\u9032\u3082\u3046\u3068\u3059\u308b\u30ab\u30eb\u306b\u3001\u30b5\u30fc\u30b7\u30e3\u3068\u82e5\u304d\u9a0e\u58eb\u306f\u540c\u884c\u3092\u7533\u3057\u51fa\u308b\u3002",
        "P_SCRIPT": "main005-dungeon3_4.csv",
        "xkbc51QN": "smr_main005-dungeon3_4.csv",
        "P_NEED_SWITCH_INFO": "11000124",
        "P_HIDE_SWITCH_INFO": ""
    },
    {
        "mC1JcVM9": "10223",
        "ctAd91iQ": "\u306a\u3059\u3079\u304d\u3053\u3068",
        "P_CATEGORY_ID": "102",
        "P_DISPORDER": "23",
        "P_EXT_IMG_PARAM": "\u81ea\u5206\u3092\u8cac\u3081\u308b\u30b5\u30fc\u30b7\u30e3\u3092\u6c17\u9063\u3046\u30ab\u30eb\u3002\u4e00\u65b9\u3001\u30bb\u30e9\u306f\u30b0\u30e9\u30c7\u30f3\u30b9\u306b\u3001\u30a8\u30df\u30ea\u30fc\u306e\u30b9\u30d1\u30a4\u7591\u60d1\u3092\u76f8\u8ac7\u3059\u308b\u3002",
        "P_SCRIPT": "main005-dungeon4.csv",
        "xkbc51QN": "smr_main005-dungeon4.csv",
        "P_NEED_SWITCH_INFO": "11000125",
        "P_HIDE_SWITCH_INFO": ""
    },
    {
        "mC1JcVM9": "10224",
        "ctAd91iQ": "\u8a08\u308a\u304b\u306d\u308b\u601d\u60d1",
        "P_CATEGORY_ID": "102",
        "P_DISPORDER": "24",
        "P_EXT_IMG_PARAM": "\u6575\u306e\u53cd\u5fdc\u304c\u3042\u308b\u9b54\u52ab\u51a5\u5802\u306f\u6d77\u4e0a\u306b\u3042\u308a\u3001\u305d\u3053\u306b\u884c\u304f\u624b\u6bb5\u306b\u56f0\u308b\u30b5\u30fc\u30b7\u30e3\u305f\u3061\u3002\u6e21\u308b\u624b\u6bb5\u3092\u6559\u3048\u305f\u306e\u306f\u2026",
        "P_SCRIPT": "main005-dungeon5_1.csv",
        "xkbc51QN": "smr_main005-dungeon5_1.csv",
        "P_NEED_SWITCH_INFO": "11000126",
        "P_HIDE_SWITCH_INFO": ""
    },
    {
        "mC1JcVM9": "10225",
        "ctAd91iQ": "\u30a8\u30df\u30ea\u30fc\u3068\u306e\u9762\u4f1a",
        "P_CATEGORY_ID": "102",
        "P_DISPORDER": "25",
        "P_EXT_IMG_PARAM": "\u30a8\u30df\u30ea\u30fc\u3068\u9762\u4f1a\u3059\u308b\u30b0\u30e9\u30c7\u30f3\u30b9\u3002\u5927\u3057\u305f\u3053\u3068\u306f\u805e\u304d\u51fa\u305b\u306a\u304b\u3063\u305f\u304c\u3001\u5f7c\u5973\u306e\u4eba\u3068\u306a\u308a\u306f\u7406\u89e3\u3059\u308b\u3002",
        "P_SCRIPT": "main005-dungeon5_2.csv",
        "xkbc51QN": "smr_main005-dungeon5_2.csv",
        "P_NEED_SWITCH_INFO": "11000127",
        "P_HIDE_SWITCH_INFO": ""
    },
    {
        "mC1JcVM9": "10226",
        "ctAd91iQ": "\u5947\u8853\u5e2b\u306e\u6b53\u8fce",
        "P_CATEGORY_ID": "102",
        "P_DISPORDER": "26",
        "P_EXT_IMG_PARAM": "\u9b54\u52ab\u51a5\u5802\u306b\u5230\u7740\u3059\u308b\u82e5\u304d\u9a0e\u58eb\u305f\u3061\u3002\u5f85\u3063\u3066\u3044\u305f\u306e\u306f\u3001\u3053\u3053\u306b\u6765\u308b\u65b9\u6cd5\u3092\u6559\u3048\u305f\u30e1\u30eb\u30d5\u30a7\u30eb\u3060\u3063\u305f\u3002",
        "P_SCRIPT": "main005-dungeon6_1.csv",
        "xkbc51QN": "smr_main005-dungeon6_1.csv",
        "P_NEED_SWITCH_INFO": "11000128",
        "P_HIDE_SWITCH_INFO": ""
    },
    {
        "mC1JcVM9": "10227",
        "ctAd91iQ": "\u30d1\u30ea\u30b9\u306e\u5224\u65ad",
        "P_CATEGORY_ID": "102",
        "P_DISPORDER": "27",
        "P_EXT_IMG_PARAM": "\u30a8\u30df\u30ea\u30fc\u304c\u30b9\u30d1\u30a4\u3067\u306a\u3044\u3068\u3059\u308b\u30b0\u30e9\u30c7\u30f3\u30b9\u3002\u30d1\u30ea\u30b9\u306f\u5f7c\u306e\u4eba\u7269\u773c\u3092\u4fe1\u3058\u3001\u4e8b\u4ef6\u306e\u518d\u8abf\u67fb\u3092\u547d\u3058\u308b\u3002",
        "P_SCRIPT": "main005-dungeon6_3.csv",
        "xkbc51QN": "smr_main005-dungeon6_3.csv",
        "P_NEED_SWITCH_INFO": "11000130",
        "P_HIDE_SWITCH_INFO": ""
    },
    {
        "mC1JcVM9": "10228",
        "ctAd91iQ": "\u30d0\u30ea\u30a6\u30e9\u306e\u9b54\u8853\u7814\u7a76",
        "P_CATEGORY_ID": "102",
        "P_DISPORDER": "28",
        "P_EXT_IMG_PARAM": "\u9b54\u52ab\u51a5\u5802\u304c\u5efa\u3066\u3089\u308c\u305f\u76ee\u7684\u3092\u7591\u554f\u306b\u601d\u3046\u30b5\u30fc\u30b7\u30e3\u3002\u4e00\u8aac\u3067\u306f\u3001\u30d0\u30ea\u30a6\u30e9\u306e\u9b54\u8853\u7814\u7a76\u306b\u4f7f\u308f\u308c\u305f\u3089\u3057\u3044\u3002",
        "P_SCRIPT": "main005-dungeon7_1.csv",
        "xkbc51QN": "smr_main005-dungeon7_1.csv",
        "P_NEED_SWITCH_INFO": "11000131",
        "P_HIDE_SWITCH_INFO": ""
    },
    {
        "mC1JcVM9": "10229",
        "ctAd91iQ": "\u6700\u6df1\u90e8\u306b\u3066",
        "P_CATEGORY_ID": "102",
        "P_DISPORDER": "29",
        "P_EXT_IMG_PARAM": "\u30a8\u30eb\u30cf\u30b6\u306f\u89e3\u8853\u304c\u7d42\u4e86\u3057\u305f\u30b7\u30e3\u30a4\u30a2\u306b\u5e30\u9084\u306e\u6e96\u5099\u3092\u6307\u793a\u3002\u305d\u3053\u3078\u30e1\u30eb\u30d5\u30a7\u30eb\u304c\u201c\u5ba2\u201d\u3092\u9023\u308c\u3066\u304f\u308b\u3002",
        "P_SCRIPT": "main005-dungeon7_2.csv",
        "xkbc51QN": "smr_main005-dungeon7_2.csv",
        "P_NEED_SWITCH_INFO": "11000132",
        "P_HIDE_SWITCH_INFO": ""
    },
    {
        "mC1JcVM9": "10230",
        "ctAd91iQ": "\u6fc0\u6226\u306e\u679c\u3066\u306b",
        "P_CATEGORY_ID": "102",
        "P_DISPORDER": "30",
        "P_EXT_IMG_PARAM": "\u30a8\u30eb\u30cf\u30b6\u306e\u5727\u5012\u7684\u306a\u529b\u3092\u524d\u306b\u3001\u30ab\u30eb\u3082\u81ea\u8eab\u306e\u9b54\u795e\u306e\u8840\u3092\u899a\u9192\u3002\u305d\u306e\u5834\u3067\u6575\u3092\u4ed5\u7559\u3081\u3088\u3046\u3068\u3059\u308b\u304c\u2026\u2026",
        "P_SCRIPT": "main005-ending.csv",
        "xkbc51QN": "smr_main005-dungeon7_3.csv",
        "P_NEED_SWITCH_INFO": "11000135",
        "P_HIDE_SWITCH_INFO": ""
    },
    {
        "mC1JcVM9": "10301",
        "ctAd91iQ": "\u8b0e\u306e\u5730\u3067\u306e\u76ee\u899a\u3081",
        "P_CATEGORY_ID": "103",
        "P_DISPORDER": "1",
        "P_EXT_IMG_PARAM": "\u8b0e\u306e\u5730\u3067\u76ee\u3092\u899a\u307e\u3057\u305f\u30ea\u30f3\u3002\u30eb\u30b8\u30fc\u30ca\u306b\u643a\u5e2f\u53ec\u559a\u5668\u3092\u6e21\u3055\u308c\u3001\u308f\u3051\u3082\u5206\u304b\u3089\u305a\u6226\u3046\u3053\u3068\u306b\u3002",
        "P_SCRIPT": "main003-dungeon0.csv",
        "xkbc51QN": "smr_main003-dungeon1_1.csv",
        "P_NEED_SWITCH_INFO": "11000021,11000022",
        "P_HIDE_SWITCH_INFO": ""
    },
    {
        "mC1JcVM9": "10302",
        "ctAd91iQ": "\u8a18\u61b6\u55aa\u5931",
        "P_CATEGORY_ID": "103",
        "P_DISPORDER": "2",
        "P_EXT_IMG_PARAM": "\u8a18\u61b6\u3092\u5931\u3063\u3066\u3057\u307e\u3063\u305f\u30ea\u30f3\u306f\u3001\u30eb\u30b8\u30fc\u30ca\u305f\u3061\u306b\u540c\u884c\u3092\u63d0\u6848\u3055\u308c\u308b\u304c\u2026\u2026",
        "P_SCRIPT": "main003-dungeon1_2.csv",
        "xkbc51QN": "smr_main003-dungeon1_2.csv",
        "P_NEED_SWITCH_INFO": "11000023",
        "P_HIDE_SWITCH_INFO": ""
    },
    {
        "mC1JcVM9": "10303",
        "ctAd91iQ": "\u79c1\u306e\u540d\u524d\u306f\u30ea\u30f3",
        "P_CATEGORY_ID": "103",
        "P_DISPORDER": "3",
        "P_EXT_IMG_PARAM": "\u30ea\u30f3\u306f\u306a\u3093\u3068\u304b\u81ea\u5206\u306e\u540d\u524d\u3060\u3051\u3092\u601d\u3044\u51fa\u3059\u3068\u3001\u30eb\u30b8\u30fc\u30ca\u305f\u3061\u306b\u7d9a\u3044\u3066\u5148\u3078\u9032\u3080\u3002",
        "P_SCRIPT": "main003-dungeon2.csv",
        "xkbc51QN": "smr_main003-dungeon2.csv",
        "P_NEED_SWITCH_INFO": "11000024",
        "P_HIDE_SWITCH_INFO": ""
    },
    {
        "mC1JcVM9": "10304",
        "ctAd91iQ": "\u30a2\u30b8\u30c8\u3078\u306e\u6f5c\u5165",
        "P_CATEGORY_ID": "103",
        "P_DISPORDER": "4",
        "P_EXT_IMG_PARAM": "\u30a8\u30eb\u30ac\u30a4\u30a2\u304b\u3089\u3084\u3063\u3066\u6765\u305f\u3068\u3044\u3046\u5f7c\u3089\u306e\u76ee\u7684\u306f\u3001\u6575\u306e\u30a2\u30b8\u30c8\u3078\u306e\u6f5c\u5165\u3067\u3042\u3063\u305f\u3002",
        "P_SCRIPT": "main003-dungeon3.csv",
        "xkbc51QN": "smr_main003-dungeon3.csv",
        "P_NEED_SWITCH_INFO": "11000025",
        "P_HIDE_SWITCH_INFO": ""
    },
    {
        "mC1JcVM9": "10305",
        "ctAd91iQ": "\u5171\u901a\u306e\u6575",
        "P_CATEGORY_ID": "103",
        "P_DISPORDER": "5",
        "P_EXT_IMG_PARAM": "\u3088\u3046\u3084\u304f\u5168\u3066\u3092\u601d\u3044\u51fa\u3057\u305f\u30ea\u30f3\u3002\u6545\u90f7\u3092\u6551\u3046\u305f\u3081\u3001\u6539\u3081\u3066\u30eb\u30b8\u30fc\u30ca\u305f\u3061\u306b\u5354\u529b\u3092\u6c42\u3081\u308b\u3002",
        "P_SCRIPT": "main003-dungeon4.csv",
        "xkbc51QN": "smr_main003-dungeon4.csv",
        "P_NEED_SWITCH_INFO": "11000026",
        "P_HIDE_SWITCH_INFO": ""
    },
    {
        "mC1JcVM9": "10306",
        "ctAd91iQ": "\u30ed\u30c3\u30af\u3055\u308c\u305f\u6249",
        "P_CATEGORY_ID": "103",
        "P_DISPORDER": "6",
        "P_EXT_IMG_PARAM": "\u65bd\u9320\u3055\u308c\u305f\u6249\u306e\u5148\u3078\u9032\u3080\u305f\u3081\u306b\u306f\u3001\u30d1\u30b9\u30b3\u30fc\u30c9\u3092\u5165\u529b\u3059\u308b\u5fc5\u8981\u304c\u3042\u308b\u3089\u3057\u3044\u3002",
        "P_SCRIPT": "main003-dungeon5.csv",
        "xkbc51QN": "smr_main003-dungeon5.csv",
        "P_NEED_SWITCH_INFO": "11000027",
        "P_HIDE_SWITCH_INFO": ""
    },
    {
        "mC1JcVM9": "10307",
        "ctAd91iQ": "\u57f9\u990a\u7814\u7a76\u5ba4\u306e\u63a2\u7d22",
        "P_CATEGORY_ID": "103",
        "P_DISPORDER": "7",
        "P_EXT_IMG_PARAM": "\u4e0d\u6c17\u5473\u306a\u88c5\u7f6e\u306e\u3042\u308b\u5834\u6240\u3067\u3001\u30ea\u30f3\u3068\u30c7\u30e5\u30fc\u30a4\u306f\u30d1\u30b9\u30b3\u30fc\u30c9\u306e\u30d2\u30f3\u30c8\u3092\u63a2\u3057\u59cb\u3081\u308b\u3002",
        "P_SCRIPT": "main003-dungeon6.csv",
        "xkbc51QN": "smr_main003-dungeon6.csv",
        "P_NEED_SWITCH_INFO": "11000028",
        "P_HIDE_SWITCH_INFO": ""
    },
    {
        "mC1JcVM9": "10308",
        "ctAd91iQ": "\u88c5\u7f6e\u306e\u88cf\u306e\u30e1\u30e2",
        "P_CATEGORY_ID": "103",
        "P_DISPORDER": "8",
        "P_EXT_IMG_PARAM": "\u30d1\u30b9\u30b3\u30fc\u30c9\u306e\u30d2\u30f3\u30c8\u3092\u898b\u3064\u3051\u305f\u30c7\u30e5\u30fc\u30a4\u3002\u305d\u3053\u306b\u306f\u300c\uff13\uff18\u300d\u3068\u3044\u3046\uff12\u6841\u306e\u6570\u5b57\u304c\u66f8\u304b\u308c\u3066\u3044\u305f\u3002",
        "P_SCRIPT": "main003-dungeon6_b.csv",
        "xkbc51QN": "smr_main003-dungeon6_b.csv",
        "P_NEED_SWITCH_INFO": "11000046",
        "P_HIDE_SWITCH_INFO": ""
    },
    {
        "mC1JcVM9": "10309",
        "ctAd91iQ": "\u7834\u7363\u306e\u9593\u306e\u63a2\u7d22",
        "P_CATEGORY_ID": "103",
        "P_DISPORDER": "9",
        "P_EXT_IMG_PARAM": "\u7363\u81ed\u6f02\u3046\u90e8\u5c4b\u306e\u4e2d\u3067\u3001\u30ea\u30f3\u3068\u30c7\u30e5\u30fc\u30a4\u306f\u30d1\u30b9\u30b3\u30fc\u30c9\u306e\u30d2\u30f3\u30c8\u3092\u63a2\u3057\u59cb\u3081\u308b\u3002",
        "P_SCRIPT": "main003-dungeon7.csv",
        "xkbc51QN": "smr_main003-dungeon7.csv",
        "P_NEED_SWITCH_INFO": "11000029",
        "P_HIDE_SWITCH_INFO": ""
    },
    {
        "mC1JcVM9": "10310",
        "ctAd91iQ": "\u30d1\u30b9\u30b3\u30fc\u30c9\u306e\u30e1\u30e2",
        "P_CATEGORY_ID": "103",
        "P_DISPORDER": "10",
        "P_EXT_IMG_PARAM": "\u30d1\u30b9\u30b3\u30fc\u30c9\u306e\u30d2\u30f3\u30c8\u304c\u66f8\u304b\u308c\u305f\u30e1\u30e2\u3092\u767a\u898b\u3059\u308b\u3002\u3055\u3089\u306b\u3053\u306e\u90e8\u5c4b\u306b\u306f\u3001\u30d1\u30b9\u30b3\u30fc\u30c9\u306e\u4e00\u90e8\u304c\u2026\u2026",
        "P_SCRIPT": "main003-dungeon7_a.csv",
        "xkbc51QN": "smr_main003-dungeon7_a.csv",
        "P_NEED_SWITCH_INFO": "11000048",
        "P_HIDE_SWITCH_INFO": ""
    },
    {
        "mC1JcVM9": "10311",
        "ctAd91iQ": "\u5947\u904a\u306e\u9593\u306e\u63a2\u7d22",
        "P_CATEGORY_ID": "103",
        "P_DISPORDER": "11",
        "P_EXT_IMG_PARAM": "\u6d3e\u624b\u306a\u88c5\u98fe\u306e\u90e8\u5c4b\u306e\u4e2d\u3067\u3001\u30ea\u30f3\u3068\u30c7\u30e5\u30fc\u30a4\u306f\u30d1\u30b9\u30b3\u30fc\u30c9\u306e\u30d2\u30f3\u30c8\u3092\u63a2\u3057\u59cb\u3081\u308b\u3002",
        "P_SCRIPT": "main003-dungeon8.csv",
        "xkbc51QN": "smr_main003-dungeon8.csv",
        "P_NEED_SWITCH_INFO": "11000030",
        "P_HIDE_SWITCH_INFO": ""
    },
    {
        "mC1JcVM9": "10312",
        "ctAd91iQ": "\u540a\u308b\u3055\u308c\u305f\u306c\u3044\u3050\u308b\u307f",
        "P_CATEGORY_ID": "103",
        "P_DISPORDER": "12",
        "P_EXT_IMG_PARAM": "\u306c\u3044\u3050\u308b\u307f\u304c\u540a\u308b\u3055\u308c\u3066\u3044\u308b\u306e\u3092\u767a\u898b\u3057\u305f\u30ea\u30f3\u3002\u3053\u308c\u304c\u30d1\u30b9\u30b3\u30fc\u30c9\u306e\u4e00\u90e8\u306b\u306a\u3063\u3066\u3044\u308b\u3089\u3057\u3044\u3002",
        "P_SCRIPT": "main003-dungeon8_b.csv",
        "xkbc51QN": "smr_main003-dungeon8_b.csv",
        "P_NEED_SWITCH_INFO": "11000051",
        "P_HIDE_SWITCH_INFO": ""
    },
    {
        "mC1JcVM9": "10313",
        "ctAd91iQ": "\u66f4\u306a\u308b\u8972\u6483\u8a08\u753b",
        "P_CATEGORY_ID": "103",
        "P_DISPORDER": "13",
        "P_EXT_IMG_PARAM": "\uff17\u4eba\u306e\u5f37\u6575\u306e\u5f71\u304c\u4f3a\u3048\u308b\u5186\u5353\u4f1a\u8b70\u5834\u3002\u305d\u3053\u3067\u30ea\u30f3\u305f\u3061\u306f\u3001\u6575\u304c\u65b0\u305f\u306a\u8972\u6483\u8a08\u753b\u3092\u9032\u3081\u3066\u3044\u308b\u4e8b\u3092\u77e5\u308b\u3002",
        "P_SCRIPT": "main003-dungeon10.csv",
        "xkbc51QN": "smr_main003-dungeon10.csv",
        "P_NEED_SWITCH_INFO": "11000034",
        "P_HIDE_SWITCH_INFO": ""
    },
    {
        "mC1JcVM9": "10314",
        "ctAd91iQ": "\u52d5\u304b\u306a\u3044\u30a8\u30ec\u30d9\u30fc\u30bf\u30fc",
        "P_CATEGORY_ID": "103",
        "P_DISPORDER": "14",
        "P_EXT_IMG_PARAM": "\u6575\u3092\u8ffd\u8de1\u3059\u308b\u305f\u3081\u3001\u30ea\u30f3\u305f\u3061\u306f\u505c\u6b62\u3057\u305f\u30a8\u30ec\u30d9\u30fc\u30bf\u30fc\u306e\u52d5\u529b\u306e\u5fa9\u65e7\u3092\u76ee\u6307\u3059\u3002",
        "P_SCRIPT": "main003-dungeon11.csv",
        "xkbc51QN": "smr_main003-dungeon11.csv",
        "P_NEED_SWITCH_INFO": "11000035",
        "P_HIDE_SWITCH_INFO": ""
    },
    {
        "mC1JcVM9": "10315",
        "ctAd91iQ": "\u53ec\u559a\u8001\u30eb\u30b8\u30fc\u30ca\u306e\u3053\u308c\u307e\u3067",
        "P_CATEGORY_ID": "103",
        "P_DISPORDER": "15",
        "P_EXT_IMG_PARAM": "\u30eb\u30b8\u30fc\u30ca\u306e\u6614\u8a71\u3092\u805e\u304d\u3064\u3064\u3001\u30a8\u30ec\u30d9\u30fc\u30bf\u30fc\u304c\u4e0a\u304c\u3063\u3066\u304f\u308b\u306e\u3092\u5f85\u3063\u3066\u3044\u308b\u3068\u2026\u2026",
        "P_SCRIPT": "main003-dungeon13_2.csv",
        "xkbc51QN": "smr_main003-dungeon13_2.csv",
        "P_NEED_SWITCH_INFO": "11000040",
        "P_HIDE_SWITCH_INFO": ""
    },
    {
        "mC1JcVM9": "10316",
        "ctAd91iQ": "\u52d5\u529b\u3092\u78ba\u4fdd\u305b\u3088",
        "P_CATEGORY_ID": "103",
        "P_DISPORDER": "16",
        "P_EXT_IMG_PARAM": "\u52d5\u529b\u5ba4\u306b\u3066\u3001\u914d\u96fb\u76e4\u3092\u64cd\u4f5c\u3057\u3066\u30a8\u30ec\u30d9\u30fc\u30bf\u30fc\u3092\u52d5\u304b\u305d\u3046\u3068\u3059\u308b\u30ea\u30f3\u3060\u304c\u3001\u3053\u3053\u306b\u3082\u6575\u304c\u73fe\u308c\u308b\u3002",
        "P_SCRIPT": "main003-dungeon12_1.csv",
        "xkbc51QN": "smr_main003-dungeon12_1.csv",
        "P_NEED_SWITCH_INFO": "11000036",
        "P_HIDE_SWITCH_INFO": ""
    },
    {
        "mC1JcVM9": "10317",
        "ctAd91iQ": "\u6df1\u307e\u308b\u8b0e",
        "P_CATEGORY_ID": "103",
        "P_DISPORDER": "17",
        "P_EXT_IMG_PARAM": "\u65ad\u7247\u7684\u306a\u60c5\u5831\u304b\u3089\u8b0e\u306f\u6df1\u307e\u308b\u3070\u304b\u308a\u3060\u304c\u3001\u6b21\u306e\u8972\u6483\u5148\u304c\u30a4\u30af\u30b9\u30bf\u30b9\u3067\u3042\u308b\u3053\u3068\u304c\u5224\u660e\u3059\u308b\u3002",
        "P_SCRIPT": "main003-dungeon14.csv",
        "xkbc51QN": "smr_main003-dungeon14.csv",
        "P_NEED_SWITCH_INFO": "11000041",
        "P_HIDE_SWITCH_INFO": ""
    },
    {
        "mC1JcVM9": "10318",
        "ctAd91iQ": "\u5730\u306e\u5e95\u306e\u5225\u308c",
        "P_CATEGORY_ID": "103",
        "P_DISPORDER": "18",
        "P_EXT_IMG_PARAM": "\u30b6\u30c9\u3068\u5bfe\u6c7a\u3059\u308b\u30ea\u30f3\u305f\u3061\u3060\u304c\u3001\u30b7\u30e3\u30a4\u30a2\u306e\u8853\u306b\u3088\u308a\u30eb\u30b8\u30fc\u30ca\u3068\u30cf\u30f3\u30b9\u304c\u98db\u3070\u3055\u308c\u3066\u3057\u307e\u3046\u3002",
        "P_SCRIPT": "main003-dungeon15_1.csv",
        "xkbc51QN": "smr_main003-dungeon15_1.csv",
        "P_NEED_SWITCH_INFO": "11000042",
        "P_HIDE_SWITCH_INFO": ""
    },
    {
        "mC1JcVM9": "10319",
        "ctAd91iQ": "\u5358\u8eab\u6311\u3080",
        "P_CATEGORY_ID": "103",
        "P_DISPORDER": "18",
        "P_EXT_IMG_PARAM": "\u30b6\u30c9\u306b\u3088\u308a\u5012\u3055\u308c\u3066\u3057\u307e\u3063\u305f\u30ea\u30f3\u3068\u30c7\u30e5\u30fc\u30a4\u3002\u30b0\u30b9\u30bf\u30d5\u306f\u5f7c\u5973\u305f\u3061\u3092\u4f7f\u3063\u3066\u4f55\u304b\u3092\u4f01\u307f\u306f\u3058\u3081\u308b\u3002",
        "P_SCRIPT": "main003-dungeon15_3.csv",
        "xkbc51QN": "smr_main003-dungeon15_3.csv",
        "P_NEED_SWITCH_INFO": "11000042",
        "P_HIDE_SWITCH_INFO": ""
    },
    {
        "mC1JcVM9": "10320",
        "ctAd91iQ": "\u30bb\u30ad\u30e5\u30ea\u30c6\u30a3\u30ed\u30c3\u30af\u306e\u89e3\u9664",
        "P_CATEGORY_ID": "103",
        "P_DISPORDER": "19",
        "P_EXT_IMG_PARAM": "\u91d1\u5eab\u3092\u958b\u3051\u308b\u305f\u3081\u306b\u306f\u3001\u8cea\u554f\u306b\u7b54\u3048\u3066\u30bb\u30ad\u30e5\u30ea\u30c6\u30a3\u30ed\u30c3\u30af\u3092\u89e3\u9664\u3059\u308b\u5fc5\u8981\u304c\u3042\u308b\u3002",
        "P_SCRIPT": "main003-dungeon-ex1_1_a.csv",
        "xkbc51QN": "smr_main003-dungeon-ex1_1_a.csv",
        "P_NEED_SWITCH_INFO": "11000234",
        "P_HIDE_SWITCH_INFO": ""
    },
    {
        "mC1JcVM9": "10321",
        "ctAd91iQ": "\u30b0\u30b9\u30bf\u30d5\u306e\u5927\u5207\u306a\u3082\u306e",
        "P_CATEGORY_ID": "103",
        "P_DISPORDER": "20",
        "P_EXT_IMG_PARAM": "\u91d1\u5eab\u306b\u306f\u3001\u30b0\u30b9\u30bf\u30d5\u304c\u5927\u5207\u306b\u3057\u3066\u3044\u305f\u3082\u306e\u304c\u53ce\u3081\u3089\u308c\u3066\u3044\u305f\u3002",
        "P_SCRIPT": "main003-dungeon-ex1_2_b1.csv",
        "xkbc51QN": "smr_main003-dungeon-ex1_2_b1.csv",
        "P_NEED_SWITCH_INFO": "11000239",
        "P_HIDE_SWITCH_INFO": ""
    },
    {
        "mC1JcVM9": "10322",
        "ctAd91iQ": "\u300c\u5148\u751f\u300d\u3068\u306e\u51fa\u4f1a\u3044",
        "P_CATEGORY_ID": "103",
        "P_DISPORDER": "21",
        "P_EXT_IMG_PARAM": "\u7262\u7344\u3092\u63a2\u7d22\u306b\u6765\u305f\u30ea\u30f3\u306f\u3001\u65e2\u8996\u611f\u306e\u3042\u308b\u5149\u666f\u306b\u3001\u5e7c\u3044\u9803\u306e\u30a2\u30fc\u30ac\u30b9\u3068\u306e\u51fa\u4f1a\u3044\u3092\u601d\u3044\u51fa\u3059\u3002",
        "P_SCRIPT": "main003-dungeon-ex2_1_a.csv",
        "xkbc51QN": "smr_main003-dungeon-ex2_1_a.csv",
        "P_NEED_SWITCH_INFO": "11000241",
        "P_HIDE_SWITCH_INFO": ""
    },
    {
        "mC1JcVM9": "10323",
        "ctAd91iQ": "\u9b54\u7269\u518d\u3073\uff01\uff1f",
        "P_CATEGORY_ID": "103",
        "P_DISPORDER": "22",
        "P_EXT_IMG_PARAM": "\u6249\u3092\u958b\u3051\u3066\u5b9d\u3092\u5f97\u305f\u30ea\u30f3\u3060\u304c\u3001\u305d\u306e\u5965\u306b\u306f\u9b54\u7269\u306e\u5f71\u304c\u2026\u2026",
        "P_SCRIPT": "main003-dungeon-ex2_3.csv",
        "xkbc51QN": "smr_main003-dungeon-ex2_2_b.csv",
        "P_NEED_SWITCH_INFO": "11000246",
        "P_HIDE_SWITCH_INFO": ""
    },
    {
        "mC1JcVM9": "10401",
        "ctAd91iQ": "\u56da\u308f\u308c\u306e\u30ea\u30f3",
        "P_CATEGORY_ID": "104",
        "P_DISPORDER": "1",
        "P_EXT_IMG_PARAM": "\u56da\u308f\u308c\u306e\u30ea\u30f3\u306f\u3001\u30a4\u30af\u30b9\u30bf\u30b9\u3078\u3068\u9023\u308c\u3066\u6765\u3089\u308c\u3066\u3044\u305f\u3002\u53ec\u559a\u9662\u5074\u3082\u5404\u30b2\u30fc\u30c8\u3092\u9632\u885b\u3057\u3001\u8972\u6483\u306b\u5099\u3048\u308b\u3002",
        "P_SCRIPT": "main006-dungeon_opening1.csv",
        "xkbc51QN": "smr_main006-dungeon_opening1.csv",
        "P_NEED_SWITCH_INFO": "11000150",
        "P_HIDE_SWITCH_INFO": ""
    },
    {
        "mC1JcVM9": "10402",
        "ctAd91iQ": "\u30b5\u30f3\u30bc\u30ed\u306e\u30e8\u30b7\u30e5\u30a2",
        "P_CATEGORY_ID": "104",
        "P_DISPORDER": "2",
        "P_EXT_IMG_PARAM": "\u30b6\u30c9\u3089\u6a5f\u93a7\u8ecd\u306e\u9032\u6483\u306b\u3001\u30e8\u30b7\u30e5\u30a2\u304c\u6025\u8972\u3092\u4ed5\u639b\u3051\u308b\u3002\u30b0\u30b9\u30bf\u30d5\u306f\u30b6\u30c9\u306b\u6226\u3046\u3088\u3046\u6307\u793a\u3092\u51fa\u3059\u3002",
        "P_SCRIPT": "main006-dungeon1_1.csv",
        "xkbc51QN": "smr_main006-dungeon1_1.csv",
        "P_NEED_SWITCH_INFO": "11000151",
        "P_HIDE_SWITCH_INFO": ""
    },
    {
        "mC1JcVM9": "10403",
        "ctAd91iQ": "\u30ea\u30f3\u306e\u6551\u51fa",
        "P_CATEGORY_ID": "104",
        "P_DISPORDER": "3",
        "P_EXT_IMG_PARAM": "\u30e8\u30b7\u30e5\u30a2\u306f\u30b6\u30c9\u3092\u6a5f\u80fd\u505c\u6b62\u306b\u8ffd\u3044\u8fbc\u307f\u3001\u3055\u3089\u306b\u56da\u308f\u308c\u306e\u30ea\u30f3\u3092\u6551\u51fa\u3059\u308b\u3002\u305d\u3057\u3066\u6771\u30b2\u30fc\u30c8\u3078\u3068\u623b\u308b\u3002",
        "P_SCRIPT": "main006-battlecall1_2.csv",
        "xkbc51QN": "smr_main006-dungeon1_2.csv",
        "P_NEED_SWITCH_INFO": "11000259,11000152",
        "P_HIDE_SWITCH_INFO": ""
    },
    {
        "mC1JcVM9": "10404",
        "ctAd91iQ": "\u6771\u30b2\u30fc\u30c8\u3092\u76ee\u6307\u3059",
        "P_CATEGORY_ID": "104",
        "P_DISPORDER": "4",
        "P_EXT_IMG_PARAM": "\u6575\u3092\u8e74\u6563\u3089\u3057\u3064\u3064\u6771\u30b2\u30fc\u30c8\u3092\u76ee\u6307\u3059\u30ea\u30f3\u305f\u3061\u3002\u3057\u304b\u3057\u3001\u6771\u30b2\u30fc\u30c8\u306f\u3059\u3067\u306b\u8972\u6483\u3055\u308c\u3066\u3044\u305f\u2026\u2026",
        "P_SCRIPT": "main006-battlecall2.csv",
        "xkbc51QN": "smr_main006-dungeon2.csv",
        "P_NEED_SWITCH_INFO": "11000260,11000153",
        "P_HIDE_SWITCH_INFO": ""
    },
    {
        "mC1JcVM9": "10405",
        "ctAd91iQ": "\u5357\u30b2\u30fc\u30c8\u9632\u885b\u7dda",
        "P_CATEGORY_ID": "104",
        "P_DISPORDER": "5",
        "P_EXT_IMG_PARAM": "\u5357\u30b2\u30fc\u30c8\u3092\u9632\u885b\u3057\u3064\u3064\u3001\u30a6\u30a9\u30ec\u30b9\u306e\u8eab\u3092\u6848\u3058\u308b\u30bb\u30ea\u30a2\u3060\u304c\u3001\u3068\u3046\u3068\u3046\u6575\u306e\u8972\u6483\u304c\u59cb\u307e\u3063\u3066\u3057\u307e\u3046\u3002",
        "P_SCRIPT": "main006-dungeon3_1.csv",
        "xkbc51QN": "smr_main006-dungeon3_1.csv",
        "P_NEED_SWITCH_INFO": "11000155",
        "P_HIDE_SWITCH_INFO": ""
    },
    {
        "mC1JcVM9": "10406",
        "ctAd91iQ": "\u6b21\u3005\u3068\u73fe\u308c\u308b\u6575",
        "P_CATEGORY_ID": "104",
        "P_DISPORDER": "6",
        "P_EXT_IMG_PARAM": "\u6771\u30b2\u30fc\u30c8\u306b\u5411\u304b\u3044\u305f\u3044\u30bb\u30ea\u30a2\u3060\u304c\u3001\u6b21\u3005\u3068\u73fe\u308c\u308b\u6575\u3068\u306e\u6226\u95d8\u304c\u7d9a\u304d\u3001\u305d\u306e\u5834\u3092\u52d5\u304f\u3053\u3068\u304c\u3067\u304d\u306a\u3044\u3002",
        "P_SCRIPT": "main006-battlecall3_2.csv",
        "xkbc51QN": "smr_main006-dungeon3_2.csv",
        "P_NEED_SWITCH_INFO": "11000261,11000156",
        "P_HIDE_SWITCH_INFO": ""
    },
    {
        "mC1JcVM9": "10407",
        "ctAd91iQ": "\u30d0\u30e9\u30ac\u30f3\u3068\u306e\u518d\u6226",
        "P_CATEGORY_ID": "104",
        "P_DISPORDER": "7",
        "P_EXT_IMG_PARAM": "\u6575\u3092\u8e74\u6563\u3089\u3057\u305f\u30bb\u30ea\u30a2\u306e\u524d\u306b\u3001\u4e03\u9b54\u5c06\u306e\u3072\u3068\u308a\u3067\u3042\u308b\u30d0\u30e9\u30ac\u30f3\u304c\u518d\u6226\u3092\u6311\u3093\u3067\u304f\u308b\u3002",
        "P_SCRIPT": "main006-battlecall3_3.csv",
        "xkbc51QN": "smr_main006-dungeon3_3.csv",
        "P_NEED_SWITCH_INFO": "11000262,11000157",
        "P_HIDE_SWITCH_INFO": ""
    },
    {
        "mC1JcVM9": "10408",
        "ctAd91iQ": "\u9ed2\u9a0e\u8ecd\u306e\u8972\u6483",
        "P_CATEGORY_ID": "104",
        "P_DISPORDER": "8",
        "P_EXT_IMG_PARAM": "\u5357\u30b2\u30fc\u30c8\u304c\u8972\u6483\u3055\u308c\u305f\u3068\u307b\u307c\u540c\u6642\u306b\u3001\u6771\u30b2\u30fc\u30c8\u306f\u9ed2\u3044\u7532\u5191\u3092\u7e8f\u3063\u305f\u96c6\u56e3\u306b\u8972\u6483\u3055\u308c\u308b\u3002",
        "P_SCRIPT": "main006-dungeon4_1.csv",
        "xkbc51QN": "smr_main006-dungeon4_1.csv",
        "P_NEED_SWITCH_INFO": "11000265,11000159",
        "P_HIDE_SWITCH_INFO": ""
    },
    {
        "mC1JcVM9": "10409",
        "ctAd91iQ": "\u56e0\u7e01\u306e\u76f8\u624b\u3068\u306e\u5bfe\u6c7a",
        "P_CATEGORY_ID": "104",
        "P_DISPORDER": "9",
        "P_EXT_IMG_PARAM": "\u5f37\u6575\u3068\u306e\u6226\u3044\u306b\u3001\u819d\u3092\u3064\u304f\u30a6\u30a9\u30ec\u30b9\u3002\u99c6\u3051\u3064\u3051\u305f\u30ea\u30f3\u306f\u3001\u56e0\u7e01\u306e\u76f8\u624b\u306b\u6fc0\u6602\u3057\u3001\u6226\u3044\u3092\u4ed5\u639b\u3051\u308b\u3002",
        "P_SCRIPT": "main006-battlecall4_2.csv",
        "xkbc51QN": "smr_main006-dungeon4_2.csv",
        "P_NEED_SWITCH_INFO": "11000266,11000160",
        "P_HIDE_SWITCH_INFO": ""
    },
    {
        "mC1JcVM9": "10410",
        "ctAd91iQ": "\u4eba\u578b\u53ec\u559a\u5175\u5668",
        "P_CATEGORY_ID": "104",
        "P_DISPORDER": "10",
        "P_EXT_IMG_PARAM": "\u4eba\u578b\u53ec\u559a\u5175\u5668\u306e\u51fa\u73fe\u306b\u3088\u308a\u3001\u6575\u306f\u64a4\u9000\u3002\u30ea\u30f3\u306f\u5e7c\u99b4\u67d3\u304c\u53ec\u559a\u9662\u306b\u4fdd\u8b77\u3055\u308c\u3066\u3044\u308b\u3068\u805e\u304d\u3001\u5b89\u5835\u3059\u308b\u3002",
        "P_SCRIPT": "main006-battlecall4_4.csv",
        "xkbc51QN": "smr_main006-dungeon4_4.csv",
        "P_NEED_SWITCH_INFO": "11000267,11000162,11000161,11000163",
        "P_HIDE_SWITCH_INFO": ""
    },
    {
        "mC1JcVM9": "10411",
        "ctAd91iQ": "\u6280\u8853\u958b\u767a\u5e81\u3078\u306e\u4fb5\u5165",
        "P_CATEGORY_ID": "104",
        "P_DISPORDER": "11",
        "P_EXT_IMG_PARAM": "\u865a\u308d\u306a\u76ee\u3092\u3057\u305f\u30ea\u30f3\u306f\u3001\u30c7\u30e5\u30fc\u30a4\u3092\u3051\u3057\u304b\u3051\u3066\u6280\u8853\u958b\u767a\u5e81\u306e\u8b66\u5099\u5175\u304b\u3089\u5165\u9928\u7528\u306e\u9375\u3092\u596a\u308f\u305b\u308b\u3002",
        "P_SCRIPT": "main006-dungeon_opening3.csv",
        "xkbc51QN": "smr_main006-dungeon_opening3.csv",
        "P_NEED_SWITCH_INFO": "11000164,11000165",
        "P_HIDE_SWITCH_INFO": ""
    },
    {
        "mC1JcVM9": "10412",
        "ctAd91iQ": "\u30ea\u30f3\u306e\u76ee\u6307\u3059\u5148\u306f\u2026\u2026",
        "P_CATEGORY_ID": "104",
        "P_DISPORDER": "12",
        "P_EXT_IMG_PARAM": "\u8b66\u5099\u5175\u3092\u6392\u9664\u3057\u5e81\u5185\u30de\u30c3\u30d7\u3092\u624b\u306b\u5165\u308c\u308b\u3068\u3001\u30ea\u30f3\u306f\u30b3\u30f3\u30c8\u30ed\u30fc\u30eb\u30eb\u30fc\u30e0\u306e\u3042\u308b\u7b2c\u4e8c\u7814\u7a76\u68df\u3078\u3068\u5411\u304b\u3046\u3002",
        "P_SCRIPT": "main006-dungeon7_1.csv",
        "xkbc51QN": "smr_main006-dungeon7_1.csv",
        "P_NEED_SWITCH_INFO": "11000167",
        "P_HIDE_SWITCH_INFO": ""
    },
    {
        "mC1JcVM9": "10413",
        "ctAd91iQ": "\u958b\u304b\u306a\u3044\u30b3\u30f3\u30c8\u30ed\u30fc\u30eb\u30eb\u30fc\u30e0",
        "P_CATEGORY_ID": "104",
        "P_DISPORDER": "13",
        "P_EXT_IMG_PARAM": "\u30b3\u30f3\u30c8\u30ed\u30fc\u30eb\u30eb\u30fc\u30e0\u3078\u3084\u3063\u3066\u6765\u305f\u304c\u3001\u8a8d\u8a3c\u30ad\u30fc\u304c\u306a\u3044\u305f\u3081\u5165\u5ba4\u3059\u308b\u3053\u3068\u304c\u3067\u304d\u306a\u3044\u3002",
        "P_SCRIPT": "main006-dungeon8_1.csv",
        "xkbc51QN": "smr_main006-dungeon8_1.csv",
        "P_NEED_SWITCH_INFO": "11000169",
        "P_HIDE_SWITCH_INFO": ""
    },
    {
        "mC1JcVM9": "10414",
        "ctAd91iQ": "\u90aa\u9b54\u8005\u306f\u6392\u9664\u3042\u308b\u306e\u307f",
        "P_CATEGORY_ID": "104",
        "P_DISPORDER": "14",
        "P_EXT_IMG_PARAM": "\u30b3\u30f3\u30c8\u30ed\u30fc\u30eb\u30eb\u30fc\u30e0\u3078\u3068\u4fb5\u5165\u3057\u305f\u30ea\u30f3\u306f\u3001\u8b66\u5099\u5175\u3084\u4eba\u578b\u53ec\u559a\u5175\u5668\u3068\u6226\u95d8\u306b\u306a\u308b\u3002",
        "P_SCRIPT": "main006-dungeon9_1.csv",
        "xkbc51QN": "smr_main006-dungeon9_1.csv",
        "P_NEED_SWITCH_INFO": "11000178",
        "P_HIDE_SWITCH_INFO": ""
    },
    {
        "mC1JcVM9": "10415",
        "ctAd91iQ": "\u66b4\u8d70\u3059\u308b\u4eba\u578b\u53ec\u559a\u5175\u5668",
        "P_CATEGORY_ID": "104",
        "P_DISPORDER": "15",
        "P_EXT_IMG_PARAM": "\u7a81\u5982\u518d\u8d77\u52d5\u3057\u305f\u4eba\u578b\u53ec\u559a\u5175\u5668\u304c\u3001\u8b66\u5099\u5175\u305f\u3061\u3092\u8972\u3044\u59cb\u3081\u308b\u3002\u30ea\u30f3\u306f\u72af\u4eba\u3068\u3057\u3066\u8ffd\u308f\u308c\u308b\u3053\u3068\u306b\u3002",
        "P_SCRIPT": "main006-battlecall10_1.csv",
        "xkbc51QN": "smr_main006-dungeon10_1.csv",
        "P_NEED_SWITCH_INFO": "11000190,11000271,11000183",
        "P_HIDE_SWITCH_INFO": ""
    },
    {
        "mC1JcVM9": "10416",
        "ctAd91iQ": "\u62e1\u5927\u3059\u308b\u66b4\u8d70\u88ab\u5bb3",
        "P_CATEGORY_ID": "104",
        "P_DISPORDER": "16",
        "P_EXT_IMG_PARAM": "\u5e02\u8857\u5730\u3067\u3082\u4eba\u578b\u53ec\u559a\u5175\u5668\u306e\u66b4\u8d70\u306f\u59cb\u307e\u3063\u3066\u3044\u305f\u3002\u4eba\u3005\u3092\u5b88\u308b\u305f\u3081\u3001\u30bb\u30ea\u30a2\u305f\u3061\u3082\u93ae\u5727\u306b\u52d5\u304d\u51fa\u3059\u3002",
        "P_SCRIPT": "main006-battlecall11_1.csv",
        "xkbc51QN": "smr_main006-dungeon11_1.csv",
        "P_NEED_SWITCH_INFO": "11000185,11000272",
        "P_HIDE_SWITCH_INFO": ""
    },
    {
        "mC1JcVM9": "10417",
        "ctAd91iQ": "\u30b0\u30b9\u30bf\u30d5\u306e\u5947\u7b56\u3001\u305d\u3057\u3066\u2026",
        "P_CATEGORY_ID": "104",
        "P_DISPORDER": "17",
        "P_EXT_IMG_PARAM": "\u4eba\u578b\u53ec\u559a\u5175\u5668\u306e\u66b4\u8d70\u306f\u3001\u30b0\u30b9\u30bf\u30d5\u306e\u7b56\u306b\u3088\u308b\u3082\u306e\u3060\u3063\u305f\u3002\u30ea\u30f3\u306e\u8eab\u3092\u6848\u3058\u308b\u30bb\u30ea\u30a2\u305f\u3061\u3060\u304c\u2026\u2026",
        "P_SCRIPT": "main006-dungeon11_4_4.csv",
        "xkbc51QN": "smr_main006-dungeon11_4_4.csv",
        "P_NEED_SWITCH_INFO": "11000188,11000275,11000276,11000277",
        "P_HIDE_SWITCH_INFO": ""
    },
    {
        "mC1JcVM9": "10501",
        "ctAd91iQ": "\u9001\u308a\u8fbc\u3080\u30e1\u30f3\u30d0\u30fc\u306f\u2026\u2026\uff1f",
        "P_CATEGORY_ID": "105",
        "P_DISPORDER": "1",
        "P_EXT_IMG_PARAM": "\u30bb\u30eb\u30bf\u30d3\u30a2\u3078\u653b\u3081\u8fbc\u3080\u305f\u3081\u306e\u30e1\u30f3\u30d0\u30fc\u306b\u306f\u30bb\u30ea\u30a2\u3001\u82e5\u304d\u9a0e\u58eb\u3001\u30e8\u30b7\u30e5\u30a2\u304c\u9078\u3070\u308c\u308b\u3002",
        "P_SCRIPT": "main007-opening.csv",
        "xkbc51QN": "smr_main007-opening.csv",
        "P_NEED_SWITCH_INFO": "11000200",
        "P_HIDE_SWITCH_INFO": ""
    },
    {
        "mC1JcVM9": "10502",
        "ctAd91iQ": "\u30e2\u30eb\u30c7\u30f3\u30ab\u30f3\u30d7",
        "P_CATEGORY_ID": "105",
        "P_DISPORDER": "2",
        "P_EXT_IMG_PARAM": "\u30bb\u30eb\u30bf\u30d3\u30a2\u306b\u8d74\u304f\u30bb\u30ea\u30a2\u305f\u3061\u3002\u305d\u306e\u5834\u6240\u306f\u30d5\u30a3\u30eb\u30a2\u30fc\u30e0\u3067\u306f\u306a\u304f\u3001\u96a3\u56fd\u30e2\u30eb\u30c7\u30f3\u30ab\u30f3\u30d7\u3060\u3063\u305f\u3002",
        "P_SCRIPT": "main007-dungeon1.csv",
        "xkbc51QN": "smr_main007-dungeon1.csv",
        "P_NEED_SWITCH_INFO": "11000201",
        "P_HIDE_SWITCH_INFO": ""
    },
    {
        "mC1JcVM9": "10503",
        "ctAd91iQ": "\u4ea1\u56fd\u306e\u5973\u6226\u58eb",
        "P_CATEGORY_ID": "105",
        "P_DISPORDER": "3",
        "P_EXT_IMG_PARAM": "\u30cd\u30b0\u30ec\u30b9\u306b\u3088\u3063\u3066\u7834\u58ca\u3055\u308c\u305f\u3068\u601d\u308f\u308b\u6751\u3092\u767a\u898b\u3057\u305f\u30bb\u30ea\u30a2\u305f\u3061\u306f\u3001\u7a81\u5982\u73fe\u308c\u305f\u5973\u6226\u58eb\u306b\u8972\u308f\u308c\u308b\u3002",
        "P_SCRIPT": "main007-dungeon2.csv",
        "xkbc51QN": "smr_main007-dungeon2.csv",
        "P_NEED_SWITCH_INFO": "11000202",
        "P_HIDE_SWITCH_INFO": ""
    },
    {
        "mC1JcVM9": "10504",
        "ctAd91iQ": "\u7269\u898b\u5854",
        "P_CATEGORY_ID": "105",
        "P_DISPORDER": "4",
        "P_EXT_IMG_PARAM": "\u7269\u898b\u5854\u306b\u8fbf\u308a\u7740\u304f\u82e5\u304d\u9a0e\u58eb\u305f\u3061\u3002\u6575\u304c\u307e\u3060\u3044\u308b\u304b\u308f\u304b\u3089\u306a\u3044\u304c\u3001\u3068\u308a\u3042\u3048\u305a\u767b\u3063\u3066\u307f\u308b\u3053\u3068\u306b\u3002",
        "P_SCRIPT": "main007-dungeon3_1.csv",
        "xkbc51QN": "smr_main007-dungeon3_1.csv",
        "P_NEED_SWITCH_INFO": "11000203",
        "P_HIDE_SWITCH_INFO": ""
    },
    {
        "mC1JcVM9": "10505",
        "ctAd91iQ": "\u76ee\u6483\u3055\u308c\u305f\u30ea\u30f3",
        "P_CATEGORY_ID": "105",
        "P_DISPORDER": "5",
        "P_EXT_IMG_PARAM": "\u7269\u898b\u5854\u3092\u767b\u308b\u9014\u4e2d\u3001\u7a81\u5982\u30ea\u30f3\u304c\u51fa\u73fe\u3002\u82e5\u304d\u9a0e\u58eb\u306f\u30bb\u30ea\u30a2\u306e\u5236\u6b62\u3082\u805e\u304b\u305a\u3001\u9003\u3052\u308b\u5f7c\u5973\u3092\u8ffd\u3044\u304b\u3051\u308b\u3002",
        "P_SCRIPT": "main007-dungeon3_2.csv",
        "xkbc51QN": "smr_main007-dungeon3_2.csv",
        "P_NEED_SWITCH_INFO": "11000204",
        "P_HIDE_SWITCH_INFO": ""
    },
    {
        "mC1JcVM9": "10506",
        "ctAd91iQ": "\u4eee\u521d\u306e\u518d\u4f1a",
        "P_CATEGORY_ID": "105",
        "P_DISPORDER": "6",
        "P_EXT_IMG_PARAM": "\u7269\u898b\u5854\u5c4b\u4e0a\u3067\u30ea\u30f3\u306b\u8ffd\u3044\u3064\u304d\u3001\u8a70\u554f\u3059\u308b\u30bb\u30ea\u30a2\u3002\u30ea\u30f3\u306f\u3044\u304d\u306a\u308a\u82e5\u304d\u9a0e\u58eb\u305f\u3061\u306b\u8972\u3044\u639b\u304b\u3063\u3066\u304f\u308b\u304c\u2026",
        "P_SCRIPT": "main007-dungeon3_3.csv",
        "xkbc51QN": "smr_main007-dungeon3_3.csv",
        "P_NEED_SWITCH_INFO": "11000205,11000206",
        "P_HIDE_SWITCH_INFO": ""
    },
    {
        "mC1JcVM9": "10507",
        "ctAd91iQ": "\u30b0\u30b9\u30bf\u30d5\u306e\u6539\u9020\u5175\u5668",
        "P_CATEGORY_ID": "105",
        "P_DISPORDER": "7",
        "P_EXT_IMG_PARAM": "\u30b0\u30b9\u30bf\u30d5\u6307\u793a\u306e\u3082\u3068\u3001\u30b6\u30c9\u304c\u30ea\u30f3\u3092\u56de\u53ce\u3002\u82e5\u304d\u9a0e\u58eb\u305f\u3061\u306e\u524d\u306b\u306f\u3001\u6539\u9020\u3055\u308c\u305f\u4eba\u578b\u53ec\u559a\u5175\u5668\u304c\u73fe\u308c\u308b\u3002",
        "P_SCRIPT": "main007-dungeon3_5.csv",
        "xkbc51QN": "smr_main007-dungeon3_5.csv",
        "P_NEED_SWITCH_INFO": "11000207",
        "P_HIDE_SWITCH_INFO": ""
    },
    {
        "mC1JcVM9": "10508",
        "ctAd91iQ": "\u5d29\u58ca\u3059\u308b\u5854",
        "P_CATEGORY_ID": "105",
        "P_DISPORDER": "8",
        "P_EXT_IMG_PARAM": "\u7269\u898b\u5854\u304c\u5d29\u58ca\u3002\u9003\u3052\u5834\u304c\u306a\u3044\u4e2d\u3001\u82e5\u304d\u9a0e\u58eb\u306e\u30d1\u30fc\u30c8\u30ca\u30fc\u3067\u3042\u308b\u98db\u7adc\u306e\u80cc\u306b\u4e57\u308a\u3001\u306a\u3093\u3068\u304b\u96e3\u3092\u9003\u308c\u308b\u3002",
        "P_SCRIPT": "main007-dungeon3_6.csv",
        "xkbc51QN": "smr_main007-dungeon3_6.csv",
        "P_NEED_SWITCH_INFO": "11000208",
        "P_HIDE_SWITCH_INFO": ""
    },
    {
        "mC1JcVM9": "10509",
        "ctAd91iQ": "\u5927\u540a\u6a4b\u306b\u6f5c\u3080\u5371\u967a",
        "P_CATEGORY_ID": "105",
        "P_DISPORDER": "9",
        "P_EXT_IMG_PARAM": "\u6575\u306b\u631f\u6483\u3055\u308c\u3066\u7aae\u5730\u306b\u9665\u308b\u53ef\u80fd\u6027\u304c\u3042\u308b\u5927\u540a\u6a4b\u3002\u306a\u3089\u3070\u3068\u3001\u30bb\u30ea\u30a2\u3089\u306f\u4e00\u6c17\u306b\u6e21\u308a\u304d\u308b\u3053\u3068\u3092\u76ee\u6307\u3059\u3002",
        "P_SCRIPT": "main007-dungeon4_1.csv",
        "xkbc51QN": "smr_main007-dungeon4_1.csv",
        "P_NEED_SWITCH_INFO": "11000209",
        "P_HIDE_SWITCH_INFO": ""
    },
    {
        "mC1JcVM9": "10510",
        "ctAd91iQ": "\u30bb\u30ea\u30a2\u306e\u5224\u65ad",
        "P_CATEGORY_ID": "105",
        "P_DISPORDER": "10",
        "P_EXT_IMG_PARAM": "\u30cd\u30b0\u30ec\u30b9\u51fa\u73fe\u306b\u3001\u30bb\u30ea\u30a2\u305f\u3061\u306f\u4e00\u6c17\u306b\u6a4b\u3092\u7a81\u7834\u3057\u3088\u3046\u3068\u6c7a\u610f\u3002\u3060\u304c\u3001\u5f7c\u5973\u3089\u306e\u5f8c\u308d\u304b\u3089\u60b2\u9cf4\u304c\u2026\u2026",
        "P_SCRIPT": "main007-dungeon4_2.csv",
        "xkbc51QN": "smr_main007-dungeon4_2.csv",
        "P_NEED_SWITCH_INFO": "11000210",
        "P_HIDE_SWITCH_INFO": ""
    },
    {
        "mC1JcVM9": "10511",
        "ctAd91iQ": "\u5927\u540a\u6a4b\u306e\u5d29\u843d",
        "P_CATEGORY_ID": "105",
        "P_DISPORDER": "11",
        "P_EXT_IMG_PARAM": "\u5927\u540a\u6a4b\u3092\u6e21\u308a\u304d\u308b\u30e8\u30b7\u30e5\u30a2\u305f\u3061\u3002\u4e00\u65b9\u3001\u30bb\u30ea\u30a2\u306f\u7a81\u5982\u73fe\u308c\u305f\u6539\u9020\u4eba\u578b\u53ec\u559a\u5175\u5668\u306e\u81ea\u7206\u306b\u5dfb\u304d\u8fbc\u307e\u308c\u308b\u3002",
        "P_SCRIPT": "main007-dungeon4_3_1.csv",
        "xkbc51QN": "smr_main007-dungeon4_3_1.csv",
        "P_NEED_SWITCH_INFO": "11000211,11000206,11000207",
        "P_HIDE_SWITCH_INFO": ""
    },
    {
        "mC1JcVM9": "10512",
        "ctAd91iQ": "\u5927\u898f\u6a21\u8ee2\u9001\u8a08\u753b",
        "P_CATEGORY_ID": "105",
        "P_DISPORDER": "12",
        "P_EXT_IMG_PARAM": "\u30e9\u30a4\u30eb\u306f\u30ce\u30a8\u30eb\u3088\u308a\u3001\u5927\u52e2\u306e\u53ec\u559a\u5e2b\u3092\u4e00\u6c17\u306b\u30bb\u30eb\u30bf\u30d3\u30a2\u3078\u8ee2\u9001\u3055\u305b\u308b\u305f\u3081\u306e\u9023\u7d61\u6e96\u5099\u3092\u4f9d\u983c\u3055\u308c\u308b\u3002",
        "P_SCRIPT": "main007-dungeon5_1.csv",
        "xkbc51QN": "smr_main007-dungeon5_1.csv",
        "P_NEED_SWITCH_INFO": "11000212",
        "P_HIDE_SWITCH_INFO": ""
    },
    {
        "mC1JcVM9": "10513",
        "ctAd91iQ": "\u30ea\u30f3\u3068\u306e\u5bfe\u5cd9",
        "P_CATEGORY_ID": "105",
        "P_DISPORDER": "13",
        "P_EXT_IMG_PARAM": "\u3042\u3089\u305f\u3081\u3066\u6d17\u8133\u3055\u308c\u305f\u30ea\u30f3\u3068\u518d\u3073\u5bfe\u5cd9\u3059\u308b\u82e5\u304d\u9a0e\u58eb\u305f\u3061\u3002\u6d17\u8133\u3092\u89e3\u304f\u305f\u3081\u306b\u3001\u5f7c\u5973\u3068\u6226\u3046\u6c7a\u610f\u3092\u3059\u308b\u3002",
        "P_SCRIPT": "main007-dungeon5_2.csv",
        "xkbc51QN": "smr_main007-dungeon5_2.csv",
        "P_NEED_SWITCH_INFO": "11000213",
        "P_HIDE_SWITCH_INFO": ""
    },
    {
        "mC1JcVM9": "10514",
        "ctAd91iQ": "\u771f\u306e\u518d\u4f1a",
        "P_CATEGORY_ID": "105",
        "P_DISPORDER": "14",
        "P_EXT_IMG_PARAM": "\u3064\u3044\u306b\u30ea\u30f3\u306e\u6d17\u8133\u304c\u89e3\u304b\u308c\u308b\u3002\u30a4\u30af\u30b9\u30bf\u30b9\u306e\u3053\u3068\u3067\u7f6a\u306e\u610f\u8b58\u3092\u62b1\u304f\u5f7c\u5973\u3060\u304c\u3001\u6226\u3063\u3066\u511f\u3046\u3053\u3068\u3092\u6c7a\u610f\u3002",
        "P_SCRIPT": "main007-dungeon5_4.csv",
        "xkbc51QN": "smr_main007-dungeon5_4.csv",
        "P_NEED_SWITCH_INFO": "11000215",
        "P_HIDE_SWITCH_INFO": ""
    },
    {
        "mC1JcVM9": "10515",
        "ctAd91iQ": "\u30b9\u30d1\u30a4\u306e\u6b63\u4f53",
        "P_CATEGORY_ID": "105",
        "P_DISPORDER": "15",
        "P_EXT_IMG_PARAM": "\u4f55\u8005\u304b\u304c\u96a0\u308c\u3066\u30cd\u30b0\u30ec\u30b9\u3078\u306e\u901a\u4fe1\u3092\u3057\u3066\u3044\u308b\u73fe\u5834\u306b\u8e0f\u307f\u8fbc\u3080\u30a8\u30ea\u30aa\u30fc\u30eb\u305f\u3061\u3002\u305d\u3053\u306b\u3044\u305f\u306e\u306f\u2026\u2026",
        "P_SCRIPT": "main007-dungeon6_1.csv",
        "xkbc51QN": "smr_main007-dungeon6_1.csv",
        "P_NEED_SWITCH_INFO": "11000216",
        "P_HIDE_SWITCH_INFO": ""
    },
    {
        "mC1JcVM9": "10516",
        "ctAd91iQ": "\u52dd\u5229\u78ba\u7387\u2026\u2026\u4e0a\u6607",
        "P_CATEGORY_ID": "105",
        "P_DISPORDER": "16",
        "P_EXT_IMG_PARAM": "\u82e5\u304d\u9a0e\u58eb\u3089\u306e\u6bb2\u6ec5\u3092\u547d\u3058\u3089\u308c\u305f\u30b6\u30c9\u306f\u3001\u52dd\u5229\u78ba\u7387\u4e0a\u6607\u306e\u305f\u3081\u30b0\u30b9\u30bf\u30d5\u3092\u751f\u614b\u30e6\u30cb\u30c3\u30c8\u3068\u3057\u3066\u53d6\u308a\u8fbc\u3080\u3002",
        "P_SCRIPT": "main007-dungeon6_5.csv",
        "xkbc51QN": "smr_main007-dungeon6_5.csv",
        "P_NEED_SWITCH_INFO": "11000220",
        "P_HIDE_SWITCH_INFO": ""
    },
    {
        "mC1JcVM9": "10517",
        "ctAd91iQ": "\u300c\u30b6\u30c9\u300d",
        "P_CATEGORY_ID": "105",
        "P_DISPORDER": "17",
        "P_EXT_IMG_PARAM": "\u30b6\u30c9\u3092\u6483\u7834\u3059\u308b\u82e5\u304d\u9a0e\u58eb\u305f\u3061\u3002\u30b0\u30b9\u30bf\u30d5\u306e\u8eab\u67c4\u3082\u62bc\u3055\u3048\u308b\u304c\u3001\u5f7c\u306e\u8133\u306f\u5927\u304d\u306a\u640d\u50b7\u3092\u8ca0\u3063\u3066\u3044\u305f\u2026\u2026",
        "P_SCRIPT": "main007-ending.csv",
        "xkbc51QN": "smr_main007-ending.csv",
        "P_NEED_SWITCH_INFO": "11000221",
        "P_HIDE_SWITCH_INFO": ""
    },
    {
        "mC1JcVM9": "10518",
        "ctAd91iQ": "\u601d\u3044\u51fa\u306e\u904a\u3073\u5834",
        "P_CATEGORY_ID": "105",
        "P_DISPORDER": "18",
        "P_EXT_IMG_PARAM": "\u30ea\u30f3\u3068\u3068\u3082\u306b\u5b50\u4f9b\u306e\u9803\u306b\u3088\u304f\u904a\u3093\u3060\u30d0\u30c0\u30f3\u306e\u7826\u3092\u8a2a\u308c\u308b\u82e5\u304d\u9a0e\u58eb\u3002\u601d\u3044\u51fa\u8a71\u3092\u3059\u308b\u4e2d\u3001\u7a81\u5982\u8b66\u544a\u97f3\u304c\u2026",
        "P_SCRIPT": "main007-dungeon-ex1_1.csv",
        "xkbc51QN": "smr_main007-dungeon-ex1_1.csv",
        "P_NEED_SWITCH_INFO": "11000247",
        "P_HIDE_SWITCH_INFO": ""
    },
    {
        "mC1JcVM9": "10519",
        "ctAd91iQ": "\u516d\u93a7\u3078\u306e\u61a7\u308c",
        "P_CATEGORY_ID": "105",
        "P_DISPORDER": "19",
        "P_EXT_IMG_PARAM": "\u8972\u3063\u3066\u304d\u305f\u5b58\u5728\u3092\u5012\u3059\u82e5\u304d\u9a0e\u58eb\u305f\u3061\u3002\u30ce\u30a8\u30eb\u306e\u901a\u4fe1\u3067\u3001\u305d\u308c\u304c\u30b0\u30b9\u30bf\u30d5\u304c\u4f5c\u3063\u305f\u6a5f\u68b0\u4eba\u5f62\u3060\u3068\u5206\u304b\u308b\u3002",
        "P_SCRIPT": "main007-dungeon-ex1_2.csv",
        "xkbc51QN": "smr_main007-dungeon-ex1_2.csv",
        "P_NEED_SWITCH_INFO": "11000278",
        "P_HIDE_SWITCH_INFO": ""
    },
    {
        "mC1JcVM9": "200001",
        "ctAd91iQ": "\u56db\u8056_1-1\u958b\u59cb\u6642",
        "P_CATEGORY_ID": "20000",
        "P_DISPORDER": "1",
        "P_EXT_IMG_PARAM": "\u56db\u8056_1-1\u958b\u59cb\u6642",
        "P_SCRIPT": "story001-01-01.csv",
        "xkbc51QN": "",
        "P_NEED_SWITCH_INFO": "13000001",
        "P_HIDE_SWITCH_INFO": ""
    },
    {
        "mC1JcVM9": "200002",
        "ctAd91iQ": "\u56db\u8056_1-1\u30e6\u30cb\u30c3\u30c8\u5287",
        "P_CATEGORY_ID": "20000",
        "P_DISPORDER": "2",
        "P_EXT_IMG_PARAM": "\u56db\u8056_1-1\u30e6\u30cb\u30c3\u30c8\u5287",
        "P_SCRIPT": "story001-01-02-btlcall.csv",
        "xkbc51QN": "",
        "P_NEED_SWITCH_INFO": "13000001",
        "P_HIDE_SWITCH_INFO": ""
    },
    {
        "mC1JcVM9": "200003",
        "ctAd91iQ": "\u56db\u8056_1-2 \u958b\u59cb\u6642",
        "P_CATEGORY_ID": "20000",
        "P_DISPORDER": "3",
        "P_EXT_IMG_PARAM": "\u56db\u8056_1-2 \u958b\u59cb\u6642",
        "P_SCRIPT": "story001-02-01.csv",
        "xkbc51QN": "",
        "P_NEED_SWITCH_INFO": "13000003",
        "P_HIDE_SWITCH_INFO": ""
    },
    {
        "mC1JcVM9": "200004",
        "ctAd91iQ": "\u56db\u8056_1-2 \u30af\u30ea\u30a2",
        "P_CATEGORY_ID": "20000",
        "P_DISPORDER": "4",
        "P_EXT_IMG_PARAM": "\u56db\u8056_1-2 \u30af\u30ea\u30a2",
        "P_SCRIPT": "story001-02-03.csv",
        "xkbc51QN": "",
        "P_NEED_SWITCH_INFO": "13000005",
        "P_HIDE_SWITCH_INFO": ""
    },
    {
        "mC1JcVM9": "200005",
        "ctAd91iQ": "\u56db\u8056_1-3 \u958b\u59cb\u6642",
        "P_CATEGORY_ID": "20000",
        "P_DISPORDER": "5",
        "P_EXT_IMG_PARAM": "\u56db\u8056_1-3 \u958b\u59cb\u6642",
        "P_SCRIPT": "story001-03-01.csv",
        "xkbc51QN": "",
        "P_NEED_SWITCH_INFO": "13000006",
        "P_HIDE_SWITCH_INFO": ""
    },
    {
        "mC1JcVM9": "200006",
        "ctAd91iQ": "\u56db\u8056_1-3 \u30af\u30ea\u30a2\u6642",
        "P_CATEGORY_ID": "20000",
        "P_DISPORDER": "6",
        "P_EXT_IMG_PARAM": "\u56db\u8056_1-3 \u30af\u30ea\u30a2\u6642",
        "P_SCRIPT": "story001-03-03.csv",
        "xkbc51QN": "",
        "P_NEED_SWITCH_INFO": "13000008",
        "P_HIDE_SWITCH_INFO": ""
    },
    {
        "mC1JcVM9": "200007",
        "ctAd91iQ": "\u56db\u8056_2-1 \u958b\u59cb\u6642",
        "P_CATEGORY_ID": "20000",
        "P_DISPORDER": "7",
        "P_EXT_IMG_PARAM": "\u56db\u8056_2-1 \u958b\u59cb\u6642",
        "P_SCRIPT": "story001-04-01.csv",
        "xkbc51QN": "",
        "P_NEED_SWITCH_INFO": "13000009",
        "P_HIDE_SWITCH_INFO": ""
    },
    {
        "mC1JcVM9": "200008",
        "ctAd91iQ": "\u56db\u8056_2-1 \u30af\u30ea\u30a2\u6642",
        "P_CATEGORY_ID": "20000",
        "P_DISPORDER": "8",
        "P_EXT_IMG_PARAM": "\u56db\u8056_2-1 \u30af\u30ea\u30a2\u6642",
        "P_SCRIPT": "story001-04-03.csv",
        "xkbc51QN": "",
        "P_NEED_SWITCH_INFO": "13000011",
        "P_HIDE_SWITCH_INFO": ""
    },
    {
        "mC1JcVM9": "200009",
        "ctAd91iQ": "\u56db\u8056_2-2 \u958b\u59cb\u6642",
        "P_CATEGORY_ID": "20000",
        "P_DISPORDER": "9",
        "P_EXT_IMG_PARAM": "\u56db\u8056_2-2 \u958b\u59cb\u6642",
        "P_SCRIPT": "story001-05-01.csv",
        "xkbc51QN": "",
        "P_NEED_SWITCH_INFO": "13000012",
        "P_HIDE_SWITCH_INFO": ""
    },
    {
        "mC1JcVM9": "200010",
        "ctAd91iQ": "\u56db\u8056_2-2 \u30e6\u30cb\u30c3\u30c8\u5287",
        "P_CATEGORY_ID": "20000",
        "P_DISPORDER": "10",
        "P_EXT_IMG_PARAM": "\u56db\u8056_2-2 \u30e6\u30cb\u30c3\u30c8\u5287",
        "P_SCRIPT": "story001-05-02-btlcall.csv",
        "xkbc51QN": "",
        "P_NEED_SWITCH_INFO": "13000012",
        "P_HIDE_SWITCH_INFO": ""
    },
    {
        "mC1JcVM9": "200011",
        "ctAd91iQ": "\u56db\u8056_2-3 \u958b\u59cb\u6642",
        "P_CATEGORY_ID": "20000",
        "P_DISPORDER": "11",
        "P_EXT_IMG_PARAM": "\u56db\u8056_2-3 \u958b\u59cb\u6642",
        "P_SCRIPT": "story001-06-01.csv",
        "xkbc51QN": "",
        "P_NEED_SWITCH_INFO": "13000015",
        "P_HIDE_SWITCH_INFO": ""
    },
    {
        "mC1JcVM9": "200012",
        "ctAd91iQ": "\u56db\u8056_3-1 \u958b\u59cb\u6642",
        "P_CATEGORY_ID": "20000",
        "P_DISPORDER": "12",
        "P_EXT_IMG_PARAM": "\u56db\u8056_3-1 \u958b\u59cb\u6642",
        "P_SCRIPT": "story001-07-01.csv",
        "xkbc51QN": "",
        "P_NEED_SWITCH_INFO": "13000017",
        "P_HIDE_SWITCH_INFO": ""
    },
    {
        "mC1JcVM9": "200013",
        "ctAd91iQ": "\u56db\u8056_3-1 \u30af\u30ea\u30a2\u6642",
        "P_CATEGORY_ID": "20000",
        "P_DISPORDER": "13",
        "P_EXT_IMG_PARAM": "\u56db\u8056_3-1 \u30af\u30ea\u30a2\u6642",
        "P_SCRIPT": "story001-07-03.csv",
        "xkbc51QN": "",
        "P_NEED_SWITCH_INFO": "13000019",
        "P_HIDE_SWITCH_INFO": ""
    },
    {
        "mC1JcVM9": "200014",
        "ctAd91iQ": "\u56db\u8056_3-2 \u30d0\u30c8\u30eb\u4e2d\u30b9\u30c8\u30fc\u30ea\u30fc",
        "P_CATEGORY_ID": "20000",
        "P_DISPORDER": "14",
        "P_EXT_IMG_PARAM": "\u56db\u8056_3-2 \u30d0\u30c8\u30eb\u4e2d\u30b9\u30c8\u30fc\u30ea\u30fc",
        "P_SCRIPT": "story001-08-01b.csv",
        "xkbc51QN": "",
        "P_NEED_SWITCH_INFO": "13000020",
        "P_HIDE_SWITCH_INFO": ""
    },
    {
        "mC1JcVM9": "200015",
        "ctAd91iQ": "\u56db\u8056_3-2 \u30af\u30ea\u30a2\u6642",
        "P_CATEGORY_ID": "20000",
        "P_DISPORDER": "15",
        "P_EXT_IMG_PARAM": "\u56db\u8056_3-2 \u30af\u30ea\u30a2\u6642",
        "P_SCRIPT": "story001-08-02.csv",
        "xkbc51QN": "",
        "P_NEED_SWITCH_INFO": "13000021",
        "P_HIDE_SWITCH_INFO": ""
    },
    {
        "mC1JcVM9": "200016",
        "ctAd91iQ": "\u56db\u8056_3-3 \u958b\u59cb\u6642",
        "P_CATEGORY_ID": "20000",
        "P_DISPORDER": "16",
        "P_EXT_IMG_PARAM": "\u56db\u8056_3-3 \u958b\u59cb\u6642",
        "P_SCRIPT": "story001-09-01.csv",
        "xkbc51QN": "",
        "P_NEED_SWITCH_INFO": "13000022",
        "P_HIDE_SWITCH_INFO": ""
    },
    {
        "mC1JcVM9": "200017",
        "ctAd91iQ": "\u56db\u8056_3-3 \u30d0\u30c8\u30eb\u4e2d\u30b9\u30c8\u30fc\u30ea\u30fc",
        "P_CATEGORY_ID": "20000",
        "P_DISPORDER": "17",
        "P_EXT_IMG_PARAM": "\u56db\u8056_3-3 \u30d0\u30c8\u30eb\u4e2d\u30b9\u30c8\u30fc\u30ea\u30fc",
        "P_SCRIPT": "story001-09-02b.csv",
        "xkbc51QN": "",
        "P_NEED_SWITCH_INFO": "13000022",
        "P_HIDE_SWITCH_INFO": ""
    },
    {
        "mC1JcVM9": "200018",
        "ctAd91iQ": "\u56db\u8056_3-3 \u30af\u30ea\u30a2\u6642",
        "P_CATEGORY_ID": "20000",
        "P_DISPORDER": "18",
        "P_EXT_IMG_PARAM": "\u56db\u8056_3-3 \u30af\u30ea\u30a2\u6642",
        "P_SCRIPT": "story001-09-03.csv",
        "xkbc51QN": "",
        "P_NEED_SWITCH_INFO": "13000024",
        "P_HIDE_SWITCH_INFO": ""
    },
    {
        "mC1JcVM9": "200019",
        "ctAd91iQ": "\u56db\u8056_3-3 \u30af\u30ea\u30a2\u6642",
        "P_CATEGORY_ID": "20000",
        "P_DISPORDER": "19",
        "P_EXT_IMG_PARAM": "\u56db\u8056_3-3 \u30af\u30ea\u30a2\u6642",
        "P_SCRIPT": "story001-09-03.csv",
        "xkbc51QN": "",
        "P_NEED_SWITCH_INFO": "13000024",
        "P_HIDE_SWITCH_INFO": ""
    },
    {
        "mC1JcVM9": "200101",
        "ctAd91iQ": "\u81ea\u7531\u3092\u6c42\u3081\u3066",
        "P_CATEGORY_ID": "20010",
        "P_DISPORDER": "1",
        "P_EXT_IMG_PARAM": "\u8ff7\u3044\u306e\u68ee\u306e\u9650\u3089\u308c\u305f\u9818\u57df\u306b\u4f4f\u3080\u7363\u4eba\u65cf\u306e\u5a18\u30fb\u30ad\u30ea\u30ab\u306f\u3001\u5916\u306e\u4e16\u754c\u306b\u61a7\u308c\u3092\u62b1\u3044\u3066\u3044\u305f\u3002",
        "P_SCRIPT": "story002-01-01.csv",
        "xkbc51QN": "smr_sq002-dungeon1_1_1.csv",
        "P_NEED_SWITCH_INFO": "13000050",
        "P_HIDE_SWITCH_INFO": ""
    },
    {
        "mC1JcVM9": "200102",
        "ctAd91iQ": "\u7363\u4eba\u65cf\u306e\u660f\u304d\u904e\u53bb",
        "P_CATEGORY_ID": "20010",
        "P_DISPORDER": "2",
        "P_EXT_IMG_PARAM": "\u4e8c\u4eba\u306e\u55a7\u5629\u3092\u6b62\u3081\u305f\u7363\u4eba\u65cf\u306e\u9577\u8001\u3002\u30f4\u30a9\u30fc\u30b0\u306f\u81ea\u5206\u3092\u6212\u3081\u308b\u9577\u8001\u306b\u3001\u30a8\u30eb\u30d5\u65cf\u3078\u306e\u6068\u307f\u3092\u8a9e\u308b\u2026",
        "P_SCRIPT": "story002-01-03.csv",
        "xkbc51QN": "smr_sq002-dungeon1_1_2.csv",
        "P_NEED_SWITCH_INFO": "13000052",
        "P_HIDE_SWITCH_INFO": ""
    },
    {
        "mC1JcVM9": "200103",
        "ctAd91iQ": "\u53d6\u308a\u5f15\u304d",
        "P_CATEGORY_ID": "20010",
        "P_DISPORDER": "3",
        "P_EXT_IMG_PARAM": "\u30a8\u30eb\u30d5\u65cf\u3068\u306e\u6226\u4e89\u3092\u76ee\u8ad6\u3080\u7363\u4eba\u65cf\u306e\u82e5\u304d\u30ea\u30fc\u30c0\u30fc\u30fb\u30f4\u30a9\u30fc\u30b0\u306e\u524d\u306b\u3001\u3068\u3042\u308b\u4eba\u9593\u304c\u73fe\u308c\u308b\u3002",
        "P_SCRIPT": "story002-02-01.csv",
        "xkbc51QN": "smr_sq002-dungeon1_2_1.csv",
        "P_NEED_SWITCH_INFO": "13000053",
        "P_HIDE_SWITCH_INFO": ""
    },
    {
        "mC1JcVM9": "200104",
        "ctAd91iQ": "\u6b66\u5668\u3092\u624b\u306b",
        "P_CATEGORY_ID": "20010",
        "P_DISPORDER": "4",
        "P_EXT_IMG_PARAM": "\u30ca\u30f4\u30a1\u30fc\u30eb\u3068\u53d6\u308a\u5f15\u304d\u3092\u7d50\u3073\u3001\u6b66\u5668\u3092\u624b\u306b\u5165\u308c\u305f\u30f4\u30a9\u30fc\u30b0\u306f\u30a8\u30eb\u30d5\u65cf\u3068\u306e\u6226\u4e89\u3092\u6c7a\u610f\u3059\u308b\u3002",
        "P_SCRIPT": "story002-02-03.csv",
        "xkbc51QN": "smr_sq002-dungeon1_2_2.csv",
        "P_NEED_SWITCH_INFO": "13000055",
        "P_HIDE_SWITCH_INFO": ""
    },
    {
        "mC1JcVM9": "200105",
        "ctAd91iQ": "\u9577\u8001\u306e\u8b66\u544a",
        "P_CATEGORY_ID": "20010",
        "P_DISPORDER": "5",
        "P_EXT_IMG_PARAM": "\u6751\u306e\u8352\u304f\u308c\u8005\u3092\u96c6\u3081\u3001\u6226\u4e89\u306e\u6e96\u5099\u3092\u9032\u3081\u3066\u3044\u304f\u30f4\u30a9\u30fc\u30b0\u3002\u305d\u3053\u3078\u9577\u8001\u304c\u73fe\u308c\u308b\u3002",
        "P_SCRIPT": "story002-03-01.csv",
        "xkbc51QN": "smr_sq002-dungeon1_3_1.csv",
        "P_NEED_SWITCH_INFO": "13000056",
        "P_HIDE_SWITCH_INFO": ""
    },
    {
        "mC1JcVM9": "200106",
        "ctAd91iQ": "\u548c\u89e3\u3078\u306e\u5e0c\u671b",
        "P_CATEGORY_ID": "20010",
        "P_DISPORDER": "6",
        "P_EXT_IMG_PARAM": "\u7363\u4eba\u65cf\u9577\u8001\u306e\u8b66\u544a\u3082\u805e\u304b\u305a\u3001\u30f4\u30a9\u30fc\u30b0\u306f\u30a8\u30eb\u30d5\u65cf\u3068\u306e\u6226\u4e89\u3092\u4f01\u3066\u308b\u3002\u3060\u304c\u305d\u306e\u6642\u3001\u9577\u8001\u3092\u75c5\u9b54\u304c\u8972\u3046\u3002",
        "P_SCRIPT": "story002-03-03.csv",
        "xkbc51QN": "smr_sq002-dungeon1_3_2.csv",
        "P_NEED_SWITCH_INFO": "13000058",
        "P_HIDE_SWITCH_INFO": ""
    },
    {
        "mC1JcVM9": "200107",
        "ctAd91iQ": "\u30a8\u30eb\u30d5\u65cf\u306e\u5973\u738b",
        "P_CATEGORY_ID": "20010",
        "P_DISPORDER": "7",
        "P_EXT_IMG_PARAM": "\u30a8\u30eb\u30d5\u65cf\u306e\u5973\u738b\u30fb\u30ec\u30d5\u30a3\u30fc\u30ca\u306f\u3001\u30a8\u30eb\u30d5\u65cf\u304c\u7363\u4eba\u65cf\u3092\u5dee\u5225\u3059\u308b\u98a8\u6f6e\u3092\u6182\u3044\u3066\u3044\u305f\u3002",
        "P_SCRIPT": "story002-04-01.csv",
        "xkbc51QN": "smr_sq002-dungeon2_1_1.csv",
        "P_NEED_SWITCH_INFO": "13000059",
        "P_HIDE_SWITCH_INFO": ""
    },
    {
        "mC1JcVM9": "200108",
        "ctAd91iQ": "\u8056\u57df\u3078",
        "P_CATEGORY_ID": "20010",
        "P_DISPORDER": "8",
        "P_EXT_IMG_PARAM": "\u75c5\u306b\u5012\u308c\u305f\u9577\u8001\u3092\u6551\u3046\u305f\u3081\u3001\u30ad\u30ea\u30ab\u306f\u4e07\u75c5\u306b\u52b9\u304f\u85ac\u8349\u304c\u3042\u308b\u3068\u3044\u3046\u30a8\u30eb\u30d5\u65cf\u306e\u8056\u57df\u306b\u5411\u304b\u3046\u3002",
        "P_SCRIPT": "story002-05-01.csv",
        "xkbc51QN": "smr_sq002-dungeon2_2_1.csv",
        "P_NEED_SWITCH_INFO": "13000061",
        "P_HIDE_SWITCH_INFO": ""
    },
    {
        "mC1JcVM9": "200109",
        "ctAd91iQ": "\u30ad\u30ea\u30ab\u306e\u9078\u629e",
        "P_CATEGORY_ID": "20010",
        "P_DISPORDER": "9",
        "P_EXT_IMG_PARAM": "\u30a8\u30eb\u30d5\u65cf\u306e\u5175\u58eb\u305f\u3061\u304b\u3089\u9177\u3044\u8a00\u8449\u3092\u6d74\u3073\u305b\u3089\u308c\u3001\u3064\u3044\u306b\u30ad\u30ea\u30ab\u306f\u6012\u308a\u3092\u7206\u767a\u3055\u305b\u308b\u3002",
        "P_SCRIPT": "story002-05-02b.csv",
        "xkbc51QN": "smr_sq002-dungeon2_2_2.csv",
        "P_NEED_SWITCH_INFO": "13000061",
        "P_HIDE_SWITCH_INFO": ""
    },
    {
        "mC1JcVM9": "200110",
        "ctAd91iQ": "\u30f4\u30a9\u30fc\u30b0\u306e\u845b\u85e4",
        "P_CATEGORY_ID": "20010",
        "P_DISPORDER": "10",
        "P_EXT_IMG_PARAM": "\u30a8\u30eb\u30d5\u65cf\u306b\u5f37\u3044\u618e\u3057\u307f\u3092\u62b1\u3044\u3066\u3057\u307e\u3063\u305f\u30ad\u30ea\u30ab\u3002\u30f4\u30a9\u30fc\u30b0\u306e\u6c7a\u5fc3\u304c\u5f90\u3005\u306b\u63fa\u3089\u304e\u59cb\u3081\u308b\u3002",
        "P_SCRIPT": "story002-05-03.csv",
        "xkbc51QN": "smr_sq002-dungeon2_2_3.csv",
        "P_NEED_SWITCH_INFO": "13000063",
        "P_HIDE_SWITCH_INFO": ""
    },
    {
        "mC1JcVM9": "200111",
        "ctAd91iQ": "\u5e7c\u99b4\u67d3\u3068\u306e\u518d\u4f1a",
        "P_CATEGORY_ID": "20010",
        "P_DISPORDER": "11",
        "P_EXT_IMG_PARAM": "\u5175\u58eb\u304c\u8972\u6483\u3055\u308c\u305f\u4e8b\u4ef6\u306e\u8cac\u4efb\u3092\u554f\u308f\u308c\u305f\u30ec\u30d5\u30a3\u30fc\u30ca\u306f\u3001\u304a\u6c17\u306b\u5165\u308a\u306e\u5834\u6240\u3067\u6614\u306e\u5e7c\u99b4\u67d3\u3068\u518d\u4f1a\u3059\u308b\u3002",
        "P_SCRIPT": "story002-06-01.csv",
        "xkbc51QN": "smr_sq002-dungeon3_1_1.csv",
        "P_NEED_SWITCH_INFO": "13000064",
        "P_HIDE_SWITCH_INFO": ""
    },
    {
        "mC1JcVM9": "200112",
        "ctAd91iQ": "\u6295\u7344\u3055\u308c\u305f\u30b0\u30ec\u30a4\u30d5",
        "P_CATEGORY_ID": "20010",
        "P_DISPORDER": "12",
        "P_EXT_IMG_PARAM": "\u30a8\u30eb\u30b7\u30b9\u306b\u6355\u3089\u3048\u3089\u3066\u3057\u307e\u3063\u305f\u30b0\u30ec\u30a4\u30d5\u3002\u30ec\u30d5\u30a3\u30fc\u30ca\u306b\u805e\u3044\u305f\u8a71\u304b\u3089\u3001\u3042\u308b\u7591\u5ff5\u3092\u62b1\u304f\u3002",
        "P_SCRIPT": "story002-06-03.csv",
        "xkbc51QN": "smr_sq002-dungeon3_1_2.csv",
        "P_NEED_SWITCH_INFO": "13000066",
        "P_HIDE_SWITCH_INFO": ""
    },
    {
        "mC1JcVM9": "200113",
        "ctAd91iQ": "\u30ec\u30d5\u30a3\u30fc\u30ca\u306e\u5922",
        "P_CATEGORY_ID": "20010",
        "P_DISPORDER": "13",
        "P_EXT_IMG_PARAM": "\u30ec\u30d5\u30a3\u30fc\u30ca\u304c\u7406\u60f3\u306e\u4e16\u754c\u3092\u76ee\u6307\u3059\u7406\u7531\u3002\u305d\u308c\u306b\u306f\u904e\u53bb\u306e\u3042\u308b\u7d4c\u9a13\u304c\u95a2\u4fc2\u3057\u3066\u3044\u305f\u3002",
        "P_SCRIPT": "story002-07-01.csv",
        "xkbc51QN": "smr_sq002-dungeon3_2_1.csv",
        "P_NEED_SWITCH_INFO": "13000067",
        "P_HIDE_SWITCH_INFO": ""
    },
    {
        "mC1JcVM9": "200114",
        "ctAd91iQ": "\u5973\u738b\u306e\u6c7a\u610f",
        "P_CATEGORY_ID": "20010",
        "P_DISPORDER": "14",
        "P_EXT_IMG_PARAM": "\u5922\u304b\u3089\u9192\u3081\u305f\u30ec\u30d5\u30a3\u30fc\u30ca\u306f\u3001\u81ea\u5206\u304c\u5973\u738b\u3068\u306a\u3063\u305f\u7406\u7531\u3092\u601d\u3044\u51fa\u3057\u3001\u6c7a\u610f\u3092\u65b0\u305f\u306b\u3059\u308b\u3002",
        "P_SCRIPT": "story002-07-03.csv",
        "xkbc51QN": "smr_sq002-dungeon3_2_2.csv",
        "P_NEED_SWITCH_INFO": "13000069",
        "P_HIDE_SWITCH_INFO": ""
    },
    {
        "mC1JcVM9": "200115",
        "ctAd91iQ": "\u548c\u89e3\u4ea4\u6e09",
        "P_CATEGORY_ID": "20010",
        "P_DISPORDER": "15",
        "P_EXT_IMG_PARAM": "\u7363\u4eba\u65cf\u3068\u306e\u548c\u89e3\u3092\u6c7a\u610f\u3059\u308b\u30ec\u30d5\u30a3\u30fc\u30ca\u3002\u305d\u306e\u5bfe\u8ac7\u306e\u5834\u306b\u3001\u6b6a\u3093\u3060\u60aa\u610f\u304c\u5fcd\u3073\u5bc4\u308b\u2026\u2026",
        "P_SCRIPT": "story002-08-01.csv",
        "xkbc51QN": "smr_sq002-dungeon4_1_1.csv",
        "P_NEED_SWITCH_INFO": "13000070",
        "P_HIDE_SWITCH_INFO": ""
    },
    {
        "mC1JcVM9": "200116",
        "ctAd91iQ": "\u67af\u308c\u305f\u82b1",
        "P_CATEGORY_ID": "20010",
        "P_DISPORDER": "16",
        "P_EXT_IMG_PARAM": "\u81f4\u547d\u50b7\u3092\u53d7\u3051\u3066\u5012\u308c\u308b\u30ec\u30d5\u30a3\u30fc\u30ca\u3002\u8584\u308c\u3086\u304f\u610f\u8b58\u306e\u4e2d\u3001\u5f7c\u5973\u306f\u6700\u671f\u307e\u3067\u5e73\u548c\u3092\u9858\u3046\u3002",
        "P_SCRIPT": "story002-08-03.csv",
        "xkbc51QN": "smr_sq002-dungeon4_1_2.csv",
        "P_NEED_SWITCH_INFO": "13000072",
        "P_HIDE_SWITCH_INFO": ""
    },
    {
        "mC1JcVM9": "200117",
        "ctAd91iQ": "\u9ad8\u898b\u306e\u898b\u7269",
        "P_CATEGORY_ID": "20010",
        "P_DISPORDER": "17",
        "P_EXT_IMG_PARAM": "\u30ad\u30ea\u30ab\u306e\u5973\u738b\u6697\u6bba\u306b\u3088\u3063\u3066\u3001\u3064\u3044\u306b\u7363\u4eba\u65cf\u3068\u30a8\u30eb\u30d5\u65cf\u306e\u5168\u9762\u6226\u4e89\u304c\u52c3\u767a\u3059\u308b\u3002",
        "P_SCRIPT": "story002-09-02.csv",
        "xkbc51QN": "smr_sq002-dungeon4_2_1.csv",
        "P_NEED_SWITCH_INFO": "13000074",
        "P_HIDE_SWITCH_INFO": ""
    },
    {
        "mC1JcVM9": "200118",
        "ctAd91iQ": "\u4eba\u9593\u306e\u8972\u6765",
        "P_CATEGORY_ID": "20010",
        "P_DISPORDER": "18",
        "P_EXT_IMG_PARAM": "\u6226\u4e89\u306b\u3088\u3063\u3066\u75b2\u5f0a\u3059\u308b\u4e21\u7a2e\u65cf\u3002\u305d\u3053\u3078\u3001\u898b\u8a08\u3089\u3063\u305f\u3088\u3046\u306b\u65b0\u305f\u306a\u8ecd\u52e2\u304c\u8972\u6765\u3059\u308b\u3002",
        "P_SCRIPT": "story002-10-01.csv",
        "xkbc51QN": "smr_sq002-dungeon4_3_1.csv",
        "P_NEED_SWITCH_INFO": "13000075",
        "P_HIDE_SWITCH_INFO": ""
    },
    {
        "mC1JcVM9": "200119",
        "ctAd91iQ": "\u30ca\u30f4\u30a1\u30fc\u30eb\u306e\u6b63\u4f53",
        "P_CATEGORY_ID": "20010",
        "P_DISPORDER": "19",
        "P_EXT_IMG_PARAM": "\u3064\u3044\u306b\u5168\u3066\u306e\u9ed2\u5e55\u3092\u7a81\u304d\u6b62\u3081\u305f\u30b0\u30ec\u30a4\u30d5\u3002\u30ec\u30d5\u30a3\u30fc\u30ca\u306e\u610f\u5fd7\u3092\u5b88\u308b\u305f\u3081\u3001\u5358\u8eab\u6575\u306b\u6311\u3080\u3002",
        "P_SCRIPT": "story002-11-01.csv",
        "xkbc51QN": "smr_sq002-dungeon4_4_1.csv",
        "P_NEED_SWITCH_INFO": "13000077",
        "P_HIDE_SWITCH_INFO": ""
    },
    {
        "mC1JcVM9": "200120",
        "ctAd91iQ": "\u53d7\u3051\u7d99\u304c\u308c\u308b\u610f\u5fd7",
        "P_CATEGORY_ID": "20010",
        "P_DISPORDER": "20",
        "P_EXT_IMG_PARAM": "\u7570\u7a2e\u65cf\u306e\u6392\u9664\u3092\u76ee\u7684\u3068\u3059\u308b\u30ca\u30f4\u30a1\u30fc\u30eb\u306b\u3088\u3063\u3066\u5f15\u304d\u88c2\u304b\u308c\u305f\uff12\u3064\u306e\u7a2e\u65cf\u3002\u5f7c\u3089\u306e\u884c\u304f\u672b\u3068\u306f\u2026\u2026",
        "P_SCRIPT": "story002-11-03.csv",
        "xkbc51QN": "smr_sq002-dungeon4_4_2.csv",
        "P_NEED_SWITCH_INFO": "13000079",
        "P_HIDE_SWITCH_INFO": ""
    },
    {
        "mC1JcVM9": "200201",
        "ctAd91iQ": "\u30ea\u30ea\u30b9_1-1\u958b\u59cb\u6642",
        "P_CATEGORY_ID": "20020",
        "P_DISPORDER": "1",
        "P_EXT_IMG_PARAM": "\u30ea\u30ea\u30b9_1-1\u958b\u59cb\u6642",
        "P_SCRIPT": "story003-01-01.csv",
        "xkbc51QN": "",
        "P_NEED_SWITCH_INFO": "13000100",
        "P_HIDE_SWITCH_INFO": ""
    },
    {
        "mC1JcVM9": "200202",
        "ctAd91iQ": "\u30ea\u30ea\u30b9_1-1 \u30af\u30ea\u30a2\u6642",
        "P_CATEGORY_ID": "20020",
        "P_DISPORDER": "2",
        "P_EXT_IMG_PARAM": "\u30ea\u30ea\u30b9_1-1 \u30af\u30ea\u30a2\u6642",
        "P_SCRIPT": "story003-01-03.csv",
        "xkbc51QN": "",
        "P_NEED_SWITCH_INFO": "13000102",
        "P_HIDE_SWITCH_INFO": ""
    },
    {
        "mC1JcVM9": "200203",
        "ctAd91iQ": "\u30ea\u30ea\u30b9_2-1 \u958b\u59cb\u6642",
        "P_CATEGORY_ID": "20020",
        "P_DISPORDER": "3",
        "P_EXT_IMG_PARAM": "\u30ea\u30ea\u30b9_2-1 \u958b\u59cb\u6642",
        "P_SCRIPT": "story003-02-01.csv",
        "xkbc51QN": "",
        "P_NEED_SWITCH_INFO": "13000103",
        "P_HIDE_SWITCH_INFO": ""
    },
    {
        "mC1JcVM9": "200204",
        "ctAd91iQ": "\u30ea\u30ea\u30b9_2-1 \u30e6\u30cb\u30c3\u30c8\u5287",
        "P_CATEGORY_ID": "20020",
        "P_DISPORDER": "4",
        "P_EXT_IMG_PARAM": "\u30ea\u30ea\u30b9_2-1 \u30e6\u30cb\u30c3\u30c8\u5287",
        "P_SCRIPT": "story003-02-03-btlcall.csv",
        "xkbc51QN": "",
        "P_NEED_SWITCH_INFO": "13000103",
        "P_HIDE_SWITCH_INFO": ""
    },
    {
        "mC1JcVM9": "200205",
        "ctAd91iQ": "\u30ea\u30ea\u30b9_3-1 \u958b\u59cb\u6642",
        "P_CATEGORY_ID": "20020",
        "P_DISPORDER": "5",
        "P_EXT_IMG_PARAM": "\u30ea\u30ea\u30b9_3-1 \u958b\u59cb\u6642",
        "P_SCRIPT": "story003-03-01.csv",
        "xkbc51QN": "",
        "P_NEED_SWITCH_INFO": "13000106",
        "P_HIDE_SWITCH_INFO": ""
    },
    {
        "mC1JcVM9": "200206",
        "ctAd91iQ": "\u30ea\u30ea\u30b9_3-1 \u30d0\u30c8\u30eb\u4e2d\u30b9\u30c8\u30fc\u30ea\u30fc",
        "P_CATEGORY_ID": "20020",
        "P_DISPORDER": "6",
        "P_EXT_IMG_PARAM": "\u30ea\u30ea\u30b9_3-1 \u30d0\u30c8\u30eb\u4e2d\u30b9\u30c8\u30fc\u30ea\u30fc",
        "P_SCRIPT": "story003-03-02b.csv",
        "xkbc51QN": "",
        "P_NEED_SWITCH_INFO": "13000106",
        "P_HIDE_SWITCH_INFO": ""
    },
    {
        "mC1JcVM9": "200207",
        "ctAd91iQ": "\u30ea\u30ea\u30b9_3-1 \u30af\u30ea\u30a2\u6642",
        "P_CATEGORY_ID": "20020",
        "P_DISPORDER": "7",
        "P_EXT_IMG_PARAM": "\u30ea\u30ea\u30b9_3-1 \u30af\u30ea\u30a2\u6642",
        "P_SCRIPT": "story003-03-03.csv",
        "xkbc51QN": "",
        "P_NEED_SWITCH_INFO": "13000108",
        "P_HIDE_SWITCH_INFO": ""
    },
    {
        "mC1JcVM9": "200208",
        "ctAd91iQ": "\u30ea\u30ea\u30b9_4-1 \u958b\u59cb\u6642",
        "P_CATEGORY_ID": "20020",
        "P_DISPORDER": "8",
        "P_EXT_IMG_PARAM": "\u30ea\u30ea\u30b9_4-1 \u958b\u59cb\u6642",
        "P_SCRIPT": "story003-04-01.csv",
        "xkbc51QN": "",
        "P_NEED_SWITCH_INFO": "13000109",
        "P_HIDE_SWITCH_INFO": ""
    },
    {
        "mC1JcVM9": "200209",
        "ctAd91iQ": "\u30ea\u30ea\u30b9_4-1 \u30af\u30ea\u30a2\u6642",
        "P_CATEGORY_ID": "20020",
        "P_DISPORDER": "9",
        "P_EXT_IMG_PARAM": "\u30ea\u30ea\u30b9_4-1 \u30af\u30ea\u30a2\u6642",
        "P_SCRIPT": "story003-04-03.csv",
        "xkbc51QN": "",
        "P_NEED_SWITCH_INFO": "13000111",
        "P_HIDE_SWITCH_INFO": ""
    },
    {
        "mC1JcVM9": "200301",
        "ctAd91iQ": "\u30df\u30d5\u30cd_OP",
        "P_CATEGORY_ID": "20040",
        "P_DISPORDER": "1",
        "P_EXT_IMG_PARAM": "\u30df\u30d5\u30cd_OP",
        "P_SCRIPT": "story005-OP.csv",
        "xkbc51QN": "",
        "P_NEED_SWITCH_INFO": "13000200",
        "P_HIDE_SWITCH_INFO": ""
    },
    {
        "mC1JcVM9": "200302",
        "ctAd91iQ": "\u30df\u30d5\u30cd_1-1 \u958b\u59cb\u6642",
        "P_CATEGORY_ID": "20040",
        "P_DISPORDER": "2",
        "P_EXT_IMG_PARAM": "\u30df\u30d5\u30cd_1-1 \u958b\u59cb\u6642",
        "P_SCRIPT": "story005-01-01.csv",
        "xkbc51QN": "",
        "P_NEED_SWITCH_INFO": "13000201",
        "P_HIDE_SWITCH_INFO": ""
    },
    {
        "mC1JcVM9": "200303",
        "ctAd91iQ": "\u30df\u30d5\u30cd_1-1 \u30af\u30ea\u30a2\u6642",
        "P_CATEGORY_ID": "20040",
        "P_DISPORDER": "3",
        "P_EXT_IMG_PARAM": "\u30df\u30d5\u30cd_1-1 \u30af\u30ea\u30a2\u6642",
        "P_SCRIPT": "story005-01-03.csv",
        "xkbc51QN": "",
        "P_NEED_SWITCH_INFO": "13000203",
        "P_HIDE_SWITCH_INFO": ""
    },
    {
        "mC1JcVM9": "200304",
        "ctAd91iQ": "\u30df\u30d5\u30cd_1-2 \u30af\u30ea\u30a2\u6642",
        "P_CATEGORY_ID": "20040",
        "P_DISPORDER": "4",
        "P_EXT_IMG_PARAM": "\u30df\u30d5\u30cd_1-2 \u30af\u30ea\u30a2\u6642",
        "P_SCRIPT": "story005-02-02.csv",
        "xkbc51QN": "",
        "P_NEED_SWITCH_INFO": "13000206",
        "P_HIDE_SWITCH_INFO": ""
    },
    {
        "mC1JcVM9": "200305",
        "ctAd91iQ": "\u30df\u30d5\u30cd_1-3 \u30af\u30ea\u30a2\u6642",
        "P_CATEGORY_ID": "20040",
        "P_DISPORDER": "5",
        "P_EXT_IMG_PARAM": "\u30df\u30d5\u30cd_1-3 \u30af\u30ea\u30a2\u6642",
        "P_SCRIPT": "story005-03-02.csv",
        "xkbc51QN": "",
        "P_NEED_SWITCH_INFO": "13000209",
        "P_HIDE_SWITCH_INFO": ""
    },
    {
        "mC1JcVM9": "200306",
        "ctAd91iQ": "\u30df\u30d5\u30cd_2-1 \u958b\u59cb\u6642",
        "P_CATEGORY_ID": "20040",
        "P_DISPORDER": "6",
        "P_EXT_IMG_PARAM": "\u30df\u30d5\u30cd_2-1 \u958b\u59cb\u6642",
        "P_SCRIPT": "story005-04-01.csv",
        "xkbc51QN": "",
        "P_NEED_SWITCH_INFO": "13000211",
        "P_HIDE_SWITCH_INFO": ""
    },
    {
        "mC1JcVM9": "200307",
        "ctAd91iQ": "\u30df\u30d5\u30cd_2-1 \u30af\u30ea\u30a2\u6642",
        "P_CATEGORY_ID": "20040",
        "P_DISPORDER": "7",
        "P_EXT_IMG_PARAM": "\u30df\u30d5\u30cd_2-1 \u30af\u30ea\u30a2\u6642",
        "P_SCRIPT": "story005-04-03.csv",
        "xkbc51QN": "",
        "P_NEED_SWITCH_INFO": "13000213",
        "P_HIDE_SWITCH_INFO": ""
    },
    {
        "mC1JcVM9": "200308",
        "ctAd91iQ": "\u30df\u30d5\u30cd_2-2 \u30af\u30ea\u30a2\u6642",
        "P_CATEGORY_ID": "20040",
        "P_DISPORDER": "8",
        "P_EXT_IMG_PARAM": "\u30df\u30d5\u30cd_2-2 \u30af\u30ea\u30a2\u6642",
        "P_SCRIPT": "story005-05-02.csv",
        "xkbc51QN": "",
        "P_NEED_SWITCH_INFO": "13000216",
        "P_HIDE_SWITCH_INFO": ""
    },
    {
        "mC1JcVM9": "200309",
        "ctAd91iQ": "\u30df\u30d5\u30cd_2-3 \u30af\u30ea\u30a2\u6642",
        "P_CATEGORY_ID": "20040",
        "P_DISPORDER": "9",
        "P_EXT_IMG_PARAM": "\u30df\u30d5\u30cd_2-3 \u30af\u30ea\u30a2\u6642",
        "P_SCRIPT": "story005-06-02.csv",
        "xkbc51QN": "",
        "P_NEED_SWITCH_INFO": "13000219",
        "P_HIDE_SWITCH_INFO": ""
    },
    {
        "mC1JcVM9": "200310",
        "ctAd91iQ": "\u30df\u30d5\u30cd_3-1 \u958b\u59cb\u6642",
        "P_CATEGORY_ID": "20040",
        "P_DISPORDER": "10",
        "P_EXT_IMG_PARAM": "\u30df\u30d5\u30cd_3-1 \u958b\u59cb\u6642",
        "P_SCRIPT": "story005-07-01.csv",
        "xkbc51QN": "",
        "P_NEED_SWITCH_INFO": "13000220",
        "P_HIDE_SWITCH_INFO": ""
    },
    {
        "mC1JcVM9": "200311",
        "ctAd91iQ": "\u30df\u30d5\u30cd_3-2 \u30af\u30ea\u30a2\u6642",
        "P_CATEGORY_ID": "20040",
        "P_DISPORDER": "11",
        "P_EXT_IMG_PARAM": "\u30df\u30d5\u30cd_3-2 \u30af\u30ea\u30a2\u6642",
        "P_SCRIPT": "story005-08-02.csv",
        "xkbc51QN": "",
        "P_NEED_SWITCH_INFO": "13000223",
        "P_HIDE_SWITCH_INFO": ""
    },
    {
        "mC1JcVM9": "200312",
        "ctAd91iQ": "\u30df\u30d5\u30cd_3-3 \u30af\u30ea\u30a2\u6642",
        "P_CATEGORY_ID": "20040",
        "P_DISPORDER": "12",
        "P_EXT_IMG_PARAM": "\u30df\u30d5\u30cd_3-3 \u30af\u30ea\u30a2\u6642",
        "P_SCRIPT": "story005-09-02.csv",
        "xkbc51QN": "",
        "P_NEED_SWITCH_INFO": "13000226",
        "P_HIDE_SWITCH_INFO": ""
    }
]